middle_point_id,route_trace
2835,[]
2836,[]
2806,[]
2822,[]
2823,[]
2807,[]
2846,[]
887,[]
888,[]
1326,[]
1185,[]
999,[]
1057,[]
1552,[]
1120,[]
1473,[]
944,[]
832,[]
1257,[]
1396,[]
1622,[]
1327,[]
1184,[]
1183,[]
1324,[]
1255,[]
1394,[]
1252,[]
1253,[]
1182,[]
1328,[]
1470,[]
1321,[]
1322,[]
1323,[]
1391,[]
1551,[]
1393,[]
1472,[]
1471,[]
1181,[]
1118,[]
1059,[]
1121,[]
1469,[]
1468,[]
1548,[]
1325,[]
1625,[]
1623,[]
1258,[]
1256,[]
791,[]
891,[]
703,[]
704,[]
660,[]
1553,[]
1624,[]
1554,[]
1474,[]
1475,[]
1550,[]
1549,[]
1320,[]
1466,[]
1541,[]
1318,[]
1249,[]
1186,[]
1003,[]
1002,[]
741,[]
788,[]
434,[]
697,[]
752,[]
1056,[]
1006,[]
907,[]
518,[]
1011,[]
1000,[]
1055,[]
997,[]
994,[]
996,[]
995,[]
991,[]
1112,[]
1114,[]
1051,[]
1398,[]
1395,[]
1001,[]
1811,[]
1960,[]
1769,[]
1823,[]
1329,[]
1332,[]
1259,[]
1200,[]
1199,[]
1140,[]
1141,[]
783,[]
1689,[]
1802,[]
1945,[]
2183,[]
2418,[]
1994,[]
1995,[]
2059,[]
1621,[]
1555,[]
1754,[]
1180,[]
1106,[]
933,[]
827,[]
2122,[]
2124,[]
493,[]
519,[]
544,[]
545,[]
494,[]
470,[]
543,[]
469,[]
517,[]
574,[]
573,[]
495,[]
546,[]
613,[]
612,[]
492,[]
572,[]
571,[]
570,[]
610,[]
575,[]
547,[]
516,[]
611,[]
542,[]
569,[]
609,[]
548,[]
549,[]
1404,[]
1405,[]
1266,[]
1193,[]
743,[]
742,[]
747,[]
746,[]
745,[]
744,[]
790,[]
789,[]
839,[]
838,[]
738,[]
739,[]
740,[]
890,[]
834,[]
784,[]
889,[]
856,[]
855,[]
854,[]
853,[]
852,[]
910,[]
909,[]
908,[]
964,[]
965,[]
1020,[]
966,[]
963,[]
1021,[]
1271,[]
1270,[]
1339,[]
1338,[]
1071,[]
1072,[]
1135,[]
1408,[]
1337,[]
1269,[]
1268,[]
1136,[]
1075,[]
1077,[]
1076,[]
1019,[]
1018,[]
1074,[]
1137,[]
1272,[]
1274,[]
1275,[]
1205,[]
1204,[]
1273,[]
1198,[]
1197,[]
1341,[]
1134,[]
1133,[]
1069,[]
1132,[]
1073,[]
1203,[]
1202,[]
1201,[]
1139,[]
1267,[]
1138,[]
1340,[]
1196,[]
1342,[]
1409,[]
1485,[]
1407,[]
1561,[]
1632,[]
1484,[]
1483,[]
1562,[]
1194,[]
1130,[]
1195,[]
1335,[]
1129,[]
1066,[]
1128,[]
1067,[]
1131,[]
1334,[]
1336,[]
1265,[]
1333,[]
1406,[]
857,[]
803,[]
804,[]
860,[]
969,[]
913,[]
912,[]
861,[]
806,[]
659,[]
751,[]
658,[]
705,[]
702,[]
706,[]
753,[]
614,[]
701,[]
661,[]
616,[]
848,[]
796,[]
797,[]
798,[]
750,[]
707,[]
615,[]
748,[]
845,[]
846,[]
657,[]
749,[]
795,[]
617,[]
663,[]
794,[]
847,[]
849,[]
902,[]
901,[]
900,[]
793,[]
899,[]
898,[]
897,[]
844,[]
842,[]
841,[]
956,[]
792,[]
843,[]
840,[]
850,[]
903,[]
800,[]
755,[]
756,[]
710,[]
711,[]
962,[]
961,[]
904,[]
906,[]
851,[]
802,[]
801,[]
799,[]
959,[]
1014,[]
1013,[]
708,[]
709,[]
754,[]
757,[]
1017,[]
1016,[]
960,[]
905,[]
958,[]
957,[]
1070,[]
1015,[]
1012,[]
1068,[]
1005,[]
1004,[]
1060,[]
1063,[]
1065,[]
1127,[]
1062,[]
1124,[]
1123,[]
1125,[]
1188,[]
1122,[]
1058,[]
947,[]
946,[]
949,[]
945,[]
948,[]
1190,[]
1187,[]
951,[]
895,[]
952,[]
1009,[]
1008,[]
1010,[]
1007,[]
1061,[]
954,[]
896,[]
953,[]
1126,[]
1064,[]
1189,[]
955,[]
950,[]
892,[]
786,[]
836,[]
837,[]
787,[]
700,[]
655,[]
654,[]
653,[]
698,[]
699,[]
608,[]
696,[]
656,[]
833,[]
785,[]
835,[]
693,[]
894,[]
893,[]
1343,[]
1192,[]
1191,[]
828,[]
829,[]
780,[]
830,[]
779,[]
782,[]
529,"[(127, numpy.datetime64('2022-11-16T16:00:00.000000'), 8279), (148, numpy.datetime64('2022-11-22T09:59:00.000000'), 59), (146, numpy.datetime64('2022-11-22T10:58:00.000000'), 30), (166, numpy.datetime64('2022-11-22T11:28:00.000000'), 199), (269, numpy.datetime64('2022-11-22T14:47:00.000000'), 57), (383, numpy.datetime64('2022-11-22T15:44:00.000000'), 38), (411, numpy.datetime64('2022-11-22T16:22:00.000000'), 52), (442, numpy.datetime64('2022-11-22T17:14:00.000000'), 17), (443, numpy.datetime64('2022-11-22T17:31:00.000000'), 27), (444, numpy.datetime64('2022-11-22T17:58:00.000000'), 42), (446, numpy.datetime64('2022-11-22T18:40:00.000000'), 16), (471, numpy.datetime64('2022-11-22T18:56:00.000000'), 49), (496, numpy.datetime64('2022-11-22T19:45:00.000000'), 37), (523, numpy.datetime64('2022-11-22T20:22:00.000000'), 47), (526, numpy.datetime64('2022-11-22T21:09:00.000000'), 41)]"
886,[]
596,"[(127, numpy.datetime64('2022-11-16T16:00:00.000000'), 8279), (148, numpy.datetime64('2022-11-22T09:59:00.000000'), 59), (146, numpy.datetime64('2022-11-22T10:58:00.000000'), 30), (166, numpy.datetime64('2022-11-22T11:28:00.000000'), 199), (269, numpy.datetime64('2022-11-22T14:47:00.000000'), 57), (383, numpy.datetime64('2022-11-22T15:44:00.000000'), 38), (411, numpy.datetime64('2022-11-22T16:22:00.000000'), 52), (442, numpy.datetime64('2022-11-22T17:14:00.000000'), 17), (443, numpy.datetime64('2022-11-22T17:31:00.000000'), 27), (444, numpy.datetime64('2022-11-22T17:58:00.000000'), 42), (446, numpy.datetime64('2022-11-22T18:40:00.000000'), 16), (471, numpy.datetime64('2022-11-22T18:56:00.000000'), 49), (496, numpy.datetime64('2022-11-22T19:45:00.000000'), 37), (523, numpy.datetime64('2022-11-22T20:22:00.000000'), 47), (526, numpy.datetime64('2022-11-22T21:09:00.000000'), 28), (555, numpy.datetime64('2022-11-22T21:37:00.000000'), 36), (556, numpy.datetime64('2022-11-22T22:13:00.000000'), 60)]"
556,"[(127, numpy.datetime64('2022-11-16T16:00:00.000000'), 8279), (148, numpy.datetime64('2022-11-22T09:59:00.000000'), 59), (146, numpy.datetime64('2022-11-22T10:58:00.000000'), 30), (166, numpy.datetime64('2022-11-22T11:28:00.000000'), 199), (269, numpy.datetime64('2022-11-22T14:47:00.000000'), 57), (383, numpy.datetime64('2022-11-22T15:44:00.000000'), 38), (411, numpy.datetime64('2022-11-22T16:22:00.000000'), 52), (442, numpy.datetime64('2022-11-22T17:14:00.000000'), 17), (443, numpy.datetime64('2022-11-22T17:31:00.000000'), 27), (444, numpy.datetime64('2022-11-22T17:58:00.000000'), 42), (446, numpy.datetime64('2022-11-22T18:40:00.000000'), 16), (471, numpy.datetime64('2022-11-22T18:56:00.000000'), 49), (496, numpy.datetime64('2022-11-22T19:45:00.000000'), 37), (523, numpy.datetime64('2022-11-22T20:22:00.000000'), 47), (526, numpy.datetime64('2022-11-22T21:09:00.000000'), 28), (555, numpy.datetime64('2022-11-22T21:37:00.000000'), 36)]"
598,[]
597,"[(127, numpy.datetime64('2022-11-16T16:00:00.000000'), 8279), (148, numpy.datetime64('2022-11-22T09:59:00.000000'), 59), (146, numpy.datetime64('2022-11-22T10:58:00.000000'), 30), (166, numpy.datetime64('2022-11-22T11:28:00.000000'), 199), (269, numpy.datetime64('2022-11-22T14:47:00.000000'), 57), (383, numpy.datetime64('2022-11-22T15:44:00.000000'), 38), (411, numpy.datetime64('2022-11-22T16:22:00.000000'), 52), (442, numpy.datetime64('2022-11-22T17:14:00.000000'), 17), (443, numpy.datetime64('2022-11-22T17:31:00.000000'), 27), (444, numpy.datetime64('2022-11-22T17:58:00.000000'), 42), (446, numpy.datetime64('2022-11-22T18:40:00.000000'), 16), (471, numpy.datetime64('2022-11-22T18:56:00.000000'), 49), (496, numpy.datetime64('2022-11-22T19:45:00.000000'), 37), (523, numpy.datetime64('2022-11-22T20:22:00.000000'), 47), (526, numpy.datetime64('2022-11-22T21:09:00.000000'), 41), (529, numpy.datetime64('2022-11-22T21:50:00.000000'), 26), (557, numpy.datetime64('2022-11-22T22:16:00.000000'), 28)]"
526,"[(127, numpy.datetime64('2022-11-16T16:00:00.000000'), 8279), (148, numpy.datetime64('2022-11-22T09:59:00.000000'), 59), (146, numpy.datetime64('2022-11-22T10:58:00.000000'), 30), (166, numpy.datetime64('2022-11-22T11:28:00.000000'), 199), (269, numpy.datetime64('2022-11-22T14:47:00.000000'), 57), (383, numpy.datetime64('2022-11-22T15:44:00.000000'), 38), (411, numpy.datetime64('2022-11-22T16:22:00.000000'), 52), (442, numpy.datetime64('2022-11-22T17:14:00.000000'), 17), (443, numpy.datetime64('2022-11-22T17:31:00.000000'), 27), (444, numpy.datetime64('2022-11-22T17:58:00.000000'), 42), (446, numpy.datetime64('2022-11-22T18:40:00.000000'), 16), (471, numpy.datetime64('2022-11-22T18:56:00.000000'), 49), (496, numpy.datetime64('2022-11-22T19:45:00.000000'), 37), (523, numpy.datetime64('2022-11-22T20:22:00.000000'), 47)]"
555,"[(127, numpy.datetime64('2022-11-16T16:00:00.000000'), 8279), (148, numpy.datetime64('2022-11-22T09:59:00.000000'), 59), (146, numpy.datetime64('2022-11-22T10:58:00.000000'), 30), (166, numpy.datetime64('2022-11-22T11:28:00.000000'), 199), (269, numpy.datetime64('2022-11-22T14:47:00.000000'), 57), (383, numpy.datetime64('2022-11-22T15:44:00.000000'), 38), (411, numpy.datetime64('2022-11-22T16:22:00.000000'), 52), (442, numpy.datetime64('2022-11-22T17:14:00.000000'), 17), (443, numpy.datetime64('2022-11-22T17:31:00.000000'), 27), (444, numpy.datetime64('2022-11-22T17:58:00.000000'), 42), (446, numpy.datetime64('2022-11-22T18:40:00.000000'), 16), (471, numpy.datetime64('2022-11-22T18:56:00.000000'), 49), (496, numpy.datetime64('2022-11-22T19:45:00.000000'), 37), (523, numpy.datetime64('2022-11-22T20:22:00.000000'), 47), (526, numpy.datetime64('2022-11-22T21:09:00.000000'), 28)]"
525,[]
524,[]
523,"[(127, numpy.datetime64('2022-11-16T16:00:00.000000'), 8279), (148, numpy.datetime64('2022-11-22T09:59:00.000000'), 59), (146, numpy.datetime64('2022-11-22T10:58:00.000000'), 30), (166, numpy.datetime64('2022-11-22T11:28:00.000000'), 199), (269, numpy.datetime64('2022-11-22T14:47:00.000000'), 57), (383, numpy.datetime64('2022-11-22T15:44:00.000000'), 38), (411, numpy.datetime64('2022-11-22T16:22:00.000000'), 52), (442, numpy.datetime64('2022-11-22T17:14:00.000000'), 17), (443, numpy.datetime64('2022-11-22T17:31:00.000000'), 27), (444, numpy.datetime64('2022-11-22T17:58:00.000000'), 42), (446, numpy.datetime64('2022-11-22T18:40:00.000000'), 16), (471, numpy.datetime64('2022-11-22T18:56:00.000000'), 49), (496, numpy.datetime64('2022-11-22T19:45:00.000000'), 37)]"
688,[]
607,[]
650,[]
651,[]
652,[]
737,[]
694,[]
695,[]
645,[]
646,[]
690,[]
600,[]
599,[]
781,[]
736,[]
558,"[(127, numpy.datetime64('2022-11-16T16:00:00.000000'), 8279), (148, numpy.datetime64('2022-11-22T09:59:00.000000'), 59), (146, numpy.datetime64('2022-11-22T10:58:00.000000'), 30), (166, numpy.datetime64('2022-11-22T11:28:00.000000'), 199), (269, numpy.datetime64('2022-11-22T14:47:00.000000'), 57), (383, numpy.datetime64('2022-11-22T15:44:00.000000'), 38), (411, numpy.datetime64('2022-11-22T16:22:00.000000'), 52), (442, numpy.datetime64('2022-11-22T17:14:00.000000'), 17), (443, numpy.datetime64('2022-11-22T17:31:00.000000'), 27), (444, numpy.datetime64('2022-11-22T17:58:00.000000'), 42), (446, numpy.datetime64('2022-11-22T18:40:00.000000'), 16), (471, numpy.datetime64('2022-11-22T18:56:00.000000'), 49), (496, numpy.datetime64('2022-11-22T19:45:00.000000'), 37), (523, numpy.datetime64('2022-11-22T20:22:00.000000'), 47), (526, numpy.datetime64('2022-11-22T21:09:00.000000'), 41), (529, numpy.datetime64('2022-11-22T21:50:00.000000'), 73)]"
644,[]
643,[]
648,[]
692,[]
691,[]
513,[]
541,[]
540,[]
568,[]
530,"[(127, numpy.datetime64('2022-11-16T16:00:00.000000'), 8279), (148, numpy.datetime64('2022-11-22T09:59:00.000000'), 59), (146, numpy.datetime64('2022-11-22T10:58:00.000000'), 30), (166, numpy.datetime64('2022-11-22T11:28:00.000000'), 199), (269, numpy.datetime64('2022-11-22T14:47:00.000000'), 57), (383, numpy.datetime64('2022-11-22T15:44:00.000000'), 38), (411, numpy.datetime64('2022-11-22T16:22:00.000000'), 52), (442, numpy.datetime64('2022-11-22T17:14:00.000000'), 17), (443, numpy.datetime64('2022-11-22T17:31:00.000000'), 27), (444, numpy.datetime64('2022-11-22T17:58:00.000000'), 42), (446, numpy.datetime64('2022-11-22T18:40:00.000000'), 16), (471, numpy.datetime64('2022-11-22T18:56:00.000000'), 49), (496, numpy.datetime64('2022-11-22T19:45:00.000000'), 37), (523, numpy.datetime64('2022-11-22T20:22:00.000000'), 47), (526, numpy.datetime64('2022-11-22T21:09:00.000000'), 41), (529, numpy.datetime64('2022-11-22T21:50:00.000000'), 59)]"
831,[]
559,"[(127, numpy.datetime64('2022-11-16T16:00:00.000000'), 8279), (148, numpy.datetime64('2022-11-22T09:59:00.000000'), 59), (146, numpy.datetime64('2022-11-22T10:58:00.000000'), 30), (166, numpy.datetime64('2022-11-22T11:28:00.000000'), 199), (269, numpy.datetime64('2022-11-22T14:47:00.000000'), 57), (383, numpy.datetime64('2022-11-22T15:44:00.000000'), 38), (411, numpy.datetime64('2022-11-22T16:22:00.000000'), 52), (442, numpy.datetime64('2022-11-22T17:14:00.000000'), 17), (443, numpy.datetime64('2022-11-22T17:31:00.000000'), 27), (444, numpy.datetime64('2022-11-22T17:58:00.000000'), 42), (446, numpy.datetime64('2022-11-22T18:40:00.000000'), 16), (471, numpy.datetime64('2022-11-22T18:56:00.000000'), 49), (496, numpy.datetime64('2022-11-22T19:45:00.000000'), 37), (523, numpy.datetime64('2022-11-22T20:22:00.000000'), 47), (526, numpy.datetime64('2022-11-22T21:09:00.000000'), 41), (529, numpy.datetime64('2022-11-22T21:50:00.000000'), 73), (558, numpy.datetime64('2022-11-22T23:03:00.000000'), 20)]"
560,[]
642,"[(127, numpy.datetime64('2022-11-16T16:00:00.000000'), 8279), (148, numpy.datetime64('2022-11-22T09:59:00.000000'), 59), (146, numpy.datetime64('2022-11-22T10:58:00.000000'), 30), (166, numpy.datetime64('2022-11-22T11:28:00.000000'), 199), (269, numpy.datetime64('2022-11-22T14:47:00.000000'), 57), (383, numpy.datetime64('2022-11-22T15:44:00.000000'), 38), (411, numpy.datetime64('2022-11-22T16:22:00.000000'), 52), (442, numpy.datetime64('2022-11-22T17:14:00.000000'), 17), (443, numpy.datetime64('2022-11-22T17:31:00.000000'), 27), (444, numpy.datetime64('2022-11-22T17:58:00.000000'), 42), (446, numpy.datetime64('2022-11-22T18:40:00.000000'), 16), (471, numpy.datetime64('2022-11-22T18:56:00.000000'), 49), (496, numpy.datetime64('2022-11-22T19:45:00.000000'), 37), (523, numpy.datetime64('2022-11-22T20:22:00.000000'), 47), (526, numpy.datetime64('2022-11-22T21:09:00.000000'), 41), (529, numpy.datetime64('2022-11-22T21:50:00.000000'), 26), (557, numpy.datetime64('2022-11-22T22:16:00.000000'), 28), (597, numpy.datetime64('2022-11-22T22:44:00.000000'), 26)]"
557,"[(127, numpy.datetime64('2022-11-16T16:00:00.000000'), 8279), (148, numpy.datetime64('2022-11-22T09:59:00.000000'), 59), (146, numpy.datetime64('2022-11-22T10:58:00.000000'), 30), (166, numpy.datetime64('2022-11-22T11:28:00.000000'), 199), (269, numpy.datetime64('2022-11-22T14:47:00.000000'), 57), (383, numpy.datetime64('2022-11-22T15:44:00.000000'), 38), (411, numpy.datetime64('2022-11-22T16:22:00.000000'), 52), (442, numpy.datetime64('2022-11-22T17:14:00.000000'), 17), (443, numpy.datetime64('2022-11-22T17:31:00.000000'), 27), (444, numpy.datetime64('2022-11-22T17:58:00.000000'), 42), (446, numpy.datetime64('2022-11-22T18:40:00.000000'), 16), (471, numpy.datetime64('2022-11-22T18:56:00.000000'), 49), (496, numpy.datetime64('2022-11-22T19:45:00.000000'), 37), (523, numpy.datetime64('2022-11-22T20:22:00.000000'), 47), (526, numpy.datetime64('2022-11-22T21:09:00.000000'), 41), (529, numpy.datetime64('2022-11-22T21:50:00.000000'), 26)]"
496,"[(127, numpy.datetime64('2022-11-16T16:00:00.000000'), 8279), (148, numpy.datetime64('2022-11-22T09:59:00.000000'), 59), (146, numpy.datetime64('2022-11-22T10:58:00.000000'), 30), (166, numpy.datetime64('2022-11-22T11:28:00.000000'), 199), (269, numpy.datetime64('2022-11-22T14:47:00.000000'), 57), (383, numpy.datetime64('2022-11-22T15:44:00.000000'), 38), (411, numpy.datetime64('2022-11-22T16:22:00.000000'), 52), (442, numpy.datetime64('2022-11-22T17:14:00.000000'), 17), (443, numpy.datetime64('2022-11-22T17:31:00.000000'), 27), (444, numpy.datetime64('2022-11-22T17:58:00.000000'), 42), (446, numpy.datetime64('2022-11-22T18:40:00.000000'), 16), (471, numpy.datetime64('2022-11-22T18:56:00.000000'), 49)]"
471,"[(127, numpy.datetime64('2022-11-16T16:00:00.000000'), 8279), (148, numpy.datetime64('2022-11-22T09:59:00.000000'), 59), (146, numpy.datetime64('2022-11-22T10:58:00.000000'), 30), (166, numpy.datetime64('2022-11-22T11:28:00.000000'), 199), (269, numpy.datetime64('2022-11-22T14:47:00.000000'), 57), (383, numpy.datetime64('2022-11-22T15:44:00.000000'), 38), (411, numpy.datetime64('2022-11-22T16:22:00.000000'), 52), (442, numpy.datetime64('2022-11-22T17:14:00.000000'), 17), (443, numpy.datetime64('2022-11-22T17:31:00.000000'), 27), (444, numpy.datetime64('2022-11-22T17:58:00.000000'), 42), (446, numpy.datetime64('2022-11-22T18:40:00.000000'), 16)]"
444,"[(127, numpy.datetime64('2022-11-16T16:00:00.000000'), 8279), (148, numpy.datetime64('2022-11-22T09:59:00.000000'), 59), (146, numpy.datetime64('2022-11-22T10:58:00.000000'), 30), (166, numpy.datetime64('2022-11-22T11:28:00.000000'), 199), (269, numpy.datetime64('2022-11-22T14:47:00.000000'), 57), (383, numpy.datetime64('2022-11-22T15:44:00.000000'), 38), (411, numpy.datetime64('2022-11-22T16:22:00.000000'), 52), (442, numpy.datetime64('2022-11-22T17:14:00.000000'), 17), (443, numpy.datetime64('2022-11-22T17:31:00.000000'), 27)]"
446,"[(127, numpy.datetime64('2022-11-16T16:00:00.000000'), 8279), (148, numpy.datetime64('2022-11-22T09:59:00.000000'), 59), (146, numpy.datetime64('2022-11-22T10:58:00.000000'), 30), (166, numpy.datetime64('2022-11-22T11:28:00.000000'), 199), (269, numpy.datetime64('2022-11-22T14:47:00.000000'), 57), (383, numpy.datetime64('2022-11-22T15:44:00.000000'), 38), (411, numpy.datetime64('2022-11-22T16:22:00.000000'), 52), (442, numpy.datetime64('2022-11-22T17:14:00.000000'), 17), (443, numpy.datetime64('2022-11-22T17:31:00.000000'), 27), (444, numpy.datetime64('2022-11-22T17:58:00.000000'), 42)]"
528,"[(127, numpy.datetime64('2022-11-16T16:00:00.000000'), 8279), (148, numpy.datetime64('2022-11-22T09:59:00.000000'), 59), (146, numpy.datetime64('2022-11-22T10:58:00.000000'), 30), (166, numpy.datetime64('2022-11-22T11:28:00.000000'), 199), (269, numpy.datetime64('2022-11-22T14:47:00.000000'), 57), (383, numpy.datetime64('2022-11-22T15:44:00.000000'), 38), (411, numpy.datetime64('2022-11-22T16:22:00.000000'), 52), (442, numpy.datetime64('2022-11-22T17:14:00.000000'), 17), (443, numpy.datetime64('2022-11-22T17:31:00.000000'), 27), (444, numpy.datetime64('2022-11-22T17:58:00.000000'), 42), (446, numpy.datetime64('2022-11-22T18:40:00.000000'), 16), (471, numpy.datetime64('2022-11-22T18:56:00.000000'), 49), (496, numpy.datetime64('2022-11-22T19:45:00.000000'), 37), (523, numpy.datetime64('2022-11-22T20:22:00.000000'), 47), (526, numpy.datetime64('2022-11-22T21:09:00.000000'), 41), (529, numpy.datetime64('2022-11-22T21:50:00.000000'), 15)]"
527,"[(127, numpy.datetime64('2022-11-16T16:00:00.000000'), 8279), (148, numpy.datetime64('2022-11-22T09:59:00.000000'), 59), (146, numpy.datetime64('2022-11-22T10:58:00.000000'), 30), (166, numpy.datetime64('2022-11-22T11:28:00.000000'), 199), (269, numpy.datetime64('2022-11-22T14:47:00.000000'), 57), (383, numpy.datetime64('2022-11-22T15:44:00.000000'), 38), (411, numpy.datetime64('2022-11-22T16:22:00.000000'), 52), (442, numpy.datetime64('2022-11-22T17:14:00.000000'), 17), (443, numpy.datetime64('2022-11-22T17:31:00.000000'), 27), (444, numpy.datetime64('2022-11-22T17:58:00.000000'), 42), (446, numpy.datetime64('2022-11-22T18:40:00.000000'), 16), (471, numpy.datetime64('2022-11-22T18:56:00.000000'), 49), (496, numpy.datetime64('2022-11-22T19:45:00.000000'), 37), (523, numpy.datetime64('2022-11-22T20:22:00.000000'), 47), (526, numpy.datetime64('2022-11-22T21:09:00.000000'), 40)]"
562,[]
602,[]
734,[]
466,[]
464,[]
463,[]
478,[]
481,[]
480,[]
479,[]
647,[]
488,[]
502,"[(127, numpy.datetime64('2022-11-16T16:00:00.000000'), 8279), (148, numpy.datetime64('2022-11-22T09:59:00.000000'), 59), (146, numpy.datetime64('2022-11-22T10:58:00.000000'), 30), (166, numpy.datetime64('2022-11-22T11:28:00.000000'), 199), (269, numpy.datetime64('2022-11-22T14:47:00.000000'), 57), (383, numpy.datetime64('2022-11-22T15:44:00.000000'), 38), (411, numpy.datetime64('2022-11-22T16:22:00.000000'), 52), (442, numpy.datetime64('2022-11-22T17:14:00.000000'), 17), (443, numpy.datetime64('2022-11-22T17:31:00.000000'), 27), (444, numpy.datetime64('2022-11-22T17:58:00.000000'), 42), (446, numpy.datetime64('2022-11-22T18:40:00.000000'), 16), (471, numpy.datetime64('2022-11-22T18:56:00.000000'), 49), (496, numpy.datetime64('2022-11-22T19:45:00.000000'), 37), (523, numpy.datetime64('2022-11-22T20:22:00.000000'), 47), (526, numpy.datetime64('2022-11-22T21:09:00.000000'), 41), (529, numpy.datetime64('2022-11-22T21:50:00.000000'), 15), (528, numpy.datetime64('2022-11-22T22:05:00.000000'), 17)]"
689,[]
533,[]
532,"[(127, numpy.datetime64('2022-11-16T16:00:00.000000'), 8279), (148, numpy.datetime64('2022-11-22T09:59:00.000000'), 59), (146, numpy.datetime64('2022-11-22T10:58:00.000000'), 30), (166, numpy.datetime64('2022-11-22T11:28:00.000000'), 199), (269, numpy.datetime64('2022-11-22T14:47:00.000000'), 57), (383, numpy.datetime64('2022-11-22T15:44:00.000000'), 38), (411, numpy.datetime64('2022-11-22T16:22:00.000000'), 52), (442, numpy.datetime64('2022-11-22T17:14:00.000000'), 17), (443, numpy.datetime64('2022-11-22T17:31:00.000000'), 27), (444, numpy.datetime64('2022-11-22T17:58:00.000000'), 42), (446, numpy.datetime64('2022-11-22T18:40:00.000000'), 16), (471, numpy.datetime64('2022-11-22T18:56:00.000000'), 49), (496, numpy.datetime64('2022-11-22T19:45:00.000000'), 37), (523, numpy.datetime64('2022-11-22T20:22:00.000000'), 47), (526, numpy.datetime64('2022-11-22T21:09:00.000000'), 41), (529, numpy.datetime64('2022-11-22T21:50:00.000000'), 58)]"
531,[]
601,[]
484,[]
508,[]
510,[]
509,[]
534,[]
482,[]
506,[]
606,[]
455,[]
429,[]
456,[]
457,[]
428,[]
458,[]
554,"[(127, numpy.datetime64('2022-11-16T16:00:00.000000'), 8279), (148, numpy.datetime64('2022-11-22T09:59:00.000000'), 59), (146, numpy.datetime64('2022-11-22T10:58:00.000000'), 30), (166, numpy.datetime64('2022-11-22T11:28:00.000000'), 199), (269, numpy.datetime64('2022-11-22T14:47:00.000000'), 57), (383, numpy.datetime64('2022-11-22T15:44:00.000000'), 38), (411, numpy.datetime64('2022-11-22T16:22:00.000000'), 52), (442, numpy.datetime64('2022-11-22T17:14:00.000000'), 17), (443, numpy.datetime64('2022-11-22T17:31:00.000000'), 27), (444, numpy.datetime64('2022-11-22T17:58:00.000000'), 42), (446, numpy.datetime64('2022-11-22T18:40:00.000000'), 16), (471, numpy.datetime64('2022-11-22T18:56:00.000000'), 49), (496, numpy.datetime64('2022-11-22T19:45:00.000000'), 37), (523, numpy.datetime64('2022-11-22T20:22:00.000000'), 47), (526, numpy.datetime64('2022-11-22T21:09:00.000000'), 28), (555, numpy.datetime64('2022-11-22T21:37:00.000000'), 129)]"
594,[]
640,[]
639,[]
551,"[(127, numpy.datetime64('2022-11-16T16:00:00.000000'), 8279), (148, numpy.datetime64('2022-11-22T09:59:00.000000'), 59), (146, numpy.datetime64('2022-11-22T10:58:00.000000'), 30), (166, numpy.datetime64('2022-11-22T11:28:00.000000'), 199), (269, numpy.datetime64('2022-11-22T14:47:00.000000'), 57), (383, numpy.datetime64('2022-11-22T15:44:00.000000'), 38), (411, numpy.datetime64('2022-11-22T16:22:00.000000'), 52), (442, numpy.datetime64('2022-11-22T17:14:00.000000'), 17), (443, numpy.datetime64('2022-11-22T17:31:00.000000'), 27), (444, numpy.datetime64('2022-11-22T17:58:00.000000'), 42), (446, numpy.datetime64('2022-11-22T18:40:00.000000'), 16), (471, numpy.datetime64('2022-11-22T18:56:00.000000'), 49), (496, numpy.datetime64('2022-11-22T19:45:00.000000'), 37), (523, numpy.datetime64('2022-11-22T20:22:00.000000'), 20)]"
681,[]
636,[]
635,[]
590,"[(127, numpy.datetime64('2022-11-16T16:00:00.000000'), 8279), (148, numpy.datetime64('2022-11-22T09:59:00.000000'), 59), (146, numpy.datetime64('2022-11-22T10:58:00.000000'), 30), (166, numpy.datetime64('2022-11-22T11:28:00.000000'), 199), (269, numpy.datetime64('2022-11-22T14:47:00.000000'), 57), (383, numpy.datetime64('2022-11-22T15:44:00.000000'), 38), (411, numpy.datetime64('2022-11-22T16:22:00.000000'), 52), (442, numpy.datetime64('2022-11-22T17:14:00.000000'), 17), (443, numpy.datetime64('2022-11-22T17:31:00.000000'), 27), (444, numpy.datetime64('2022-11-22T17:58:00.000000'), 42), (446, numpy.datetime64('2022-11-22T18:40:00.000000'), 16), (471, numpy.datetime64('2022-11-22T18:56:00.000000'), 49), (496, numpy.datetime64('2022-11-22T19:45:00.000000'), 37), (523, numpy.datetime64('2022-11-22T20:22:00.000000'), 20), (551, numpy.datetime64('2022-11-22T20:42:00.000000'), 40)]"
778,[]
777,[]
485,[]
486,[]
462,[]
563,[]
885,[]
943,[]
564,[]
641,[]
504,"[(127, numpy.datetime64('2022-11-16T16:00:00.000000'), 8279), (148, numpy.datetime64('2022-11-22T09:59:00.000000'), 59), (146, numpy.datetime64('2022-11-22T10:58:00.000000'), 30), (166, numpy.datetime64('2022-11-22T11:28:00.000000'), 199), (269, numpy.datetime64('2022-11-22T14:47:00.000000'), 57), (383, numpy.datetime64('2022-11-22T15:44:00.000000'), 38), (411, numpy.datetime64('2022-11-22T16:22:00.000000'), 52), (442, numpy.datetime64('2022-11-22T17:14:00.000000'), 17), (443, numpy.datetime64('2022-11-22T17:31:00.000000'), 27), (444, numpy.datetime64('2022-11-22T17:58:00.000000'), 42), (446, numpy.datetime64('2022-11-22T18:40:00.000000'), 16), (471, numpy.datetime64('2022-11-22T18:56:00.000000'), 49), (496, numpy.datetime64('2022-11-22T19:45:00.000000'), 37), (523, numpy.datetime64('2022-11-22T20:22:00.000000'), 47), (526, numpy.datetime64('2022-11-22T21:09:00.000000'), 41), (529, numpy.datetime64('2022-11-22T21:50:00.000000'), 12), (503, numpy.datetime64('2022-11-22T22:02:00.000000'), 23)]"
503,"[(127, numpy.datetime64('2022-11-16T16:00:00.000000'), 8279), (148, numpy.datetime64('2022-11-22T09:59:00.000000'), 59), (146, numpy.datetime64('2022-11-22T10:58:00.000000'), 30), (166, numpy.datetime64('2022-11-22T11:28:00.000000'), 199), (269, numpy.datetime64('2022-11-22T14:47:00.000000'), 57), (383, numpy.datetime64('2022-11-22T15:44:00.000000'), 38), (411, numpy.datetime64('2022-11-22T16:22:00.000000'), 52), (442, numpy.datetime64('2022-11-22T17:14:00.000000'), 17), (443, numpy.datetime64('2022-11-22T17:31:00.000000'), 27), (444, numpy.datetime64('2022-11-22T17:58:00.000000'), 42), (446, numpy.datetime64('2022-11-22T18:40:00.000000'), 16), (471, numpy.datetime64('2022-11-22T18:56:00.000000'), 49), (496, numpy.datetime64('2022-11-22T19:45:00.000000'), 37), (523, numpy.datetime64('2022-11-22T20:22:00.000000'), 47), (526, numpy.datetime64('2022-11-22T21:09:00.000000'), 41), (529, numpy.datetime64('2022-11-22T21:50:00.000000'), 12)]"
501,"[(127, numpy.datetime64('2022-11-16T16:00:00.000000'), 8279), (148, numpy.datetime64('2022-11-22T09:59:00.000000'), 59), (146, numpy.datetime64('2022-11-22T10:58:00.000000'), 30), (166, numpy.datetime64('2022-11-22T11:28:00.000000'), 199), (269, numpy.datetime64('2022-11-22T14:47:00.000000'), 57), (383, numpy.datetime64('2022-11-22T15:44:00.000000'), 38), (411, numpy.datetime64('2022-11-22T16:22:00.000000'), 52), (442, numpy.datetime64('2022-11-22T17:14:00.000000'), 17), (443, numpy.datetime64('2022-11-22T17:31:00.000000'), 27), (444, numpy.datetime64('2022-11-22T17:58:00.000000'), 42), (446, numpy.datetime64('2022-11-22T18:40:00.000000'), 16), (471, numpy.datetime64('2022-11-22T18:56:00.000000'), 49), (496, numpy.datetime64('2022-11-22T19:45:00.000000'), 37), (523, numpy.datetime64('2022-11-22T20:22:00.000000'), 47), (526, numpy.datetime64('2022-11-22T21:09:00.000000'), 41), (529, numpy.datetime64('2022-11-22T21:50:00.000000'), 15), (528, numpy.datetime64('2022-11-22T22:05:00.000000'), 17), (502, numpy.datetime64('2022-11-22T22:22:00.000000'), 9)]"
500,"[(127, numpy.datetime64('2022-11-16T16:00:00.000000'), 8279), (148, numpy.datetime64('2022-11-22T09:59:00.000000'), 59), (146, numpy.datetime64('2022-11-22T10:58:00.000000'), 30), (166, numpy.datetime64('2022-11-22T11:28:00.000000'), 199), (269, numpy.datetime64('2022-11-22T14:47:00.000000'), 57), (383, numpy.datetime64('2022-11-22T15:44:00.000000'), 38), (411, numpy.datetime64('2022-11-22T16:22:00.000000'), 52), (442, numpy.datetime64('2022-11-22T17:14:00.000000'), 17), (443, numpy.datetime64('2022-11-22T17:31:00.000000'), 27), (444, numpy.datetime64('2022-11-22T17:58:00.000000'), 42), (446, numpy.datetime64('2022-11-22T18:40:00.000000'), 16), (471, numpy.datetime64('2022-11-22T18:56:00.000000'), 49), (496, numpy.datetime64('2022-11-22T19:45:00.000000'), 37), (523, numpy.datetime64('2022-11-22T20:22:00.000000'), 47), (526, numpy.datetime64('2022-11-22T21:09:00.000000'), 41), (529, numpy.datetime64('2022-11-22T21:50:00.000000'), 15), (528, numpy.datetime64('2022-11-22T22:05:00.000000'), 17), (502, numpy.datetime64('2022-11-22T22:22:00.000000'), 9), (501, numpy.datetime64('2022-11-22T22:31:00.000000'), 55)]"
561,[]
254,[]
350,[]
321,[]
319,[]
251,[]
375,[]
347,[]
687,[]
565,[]
539,[]
511,[]
536,[]
649,[]
603,[]
605,[]
733,[]
735,[]
489,[]
514,[]
461,[]
460,[]
459,[]
468,[]
154,[]
178,[]
203,[]
228,[]
402,[]
401,[]
505,[]
522,"[(127, numpy.datetime64('2022-11-16T16:00:00.000000'), 8279), (148, numpy.datetime64('2022-11-22T09:59:00.000000'), 59), (146, numpy.datetime64('2022-11-22T10:58:00.000000'), 30), (166, numpy.datetime64('2022-11-22T11:28:00.000000'), 199), (269, numpy.datetime64('2022-11-22T14:47:00.000000'), 57), (383, numpy.datetime64('2022-11-22T15:44:00.000000'), 38), (411, numpy.datetime64('2022-11-22T16:22:00.000000'), 52), (442, numpy.datetime64('2022-11-22T17:14:00.000000'), 17), (443, numpy.datetime64('2022-11-22T17:31:00.000000'), 27), (444, numpy.datetime64('2022-11-22T17:58:00.000000'), 42), (446, numpy.datetime64('2022-11-22T18:40:00.000000'), 16), (471, numpy.datetime64('2022-11-22T18:56:00.000000'), 49), (496, numpy.datetime64('2022-11-22T19:45:00.000000'), 37), (523, numpy.datetime64('2022-11-22T20:22:00.000000'), 20), (551, numpy.datetime64('2022-11-22T20:42:00.000000'), 3)]"
451,[]
452,[]
477,[]
476,[]
483,[]
884,[]
431,[]
430,[]
454,[]
595,[]
395,[]
394,[]
422,[]
417,"[(127, numpy.datetime64('2022-11-16T16:00:00.000000'), 8279), (148, numpy.datetime64('2022-11-22T09:59:00.000000'), 59), (146, numpy.datetime64('2022-11-22T10:58:00.000000'), 30), (166, numpy.datetime64('2022-11-22T11:28:00.000000'), 199), (269, numpy.datetime64('2022-11-22T14:47:00.000000'), 57), (383, numpy.datetime64('2022-11-22T15:44:00.000000'), 38), (411, numpy.datetime64('2022-11-22T16:22:00.000000'), 52), (442, numpy.datetime64('2022-11-22T17:14:00.000000'), 17), (443, numpy.datetime64('2022-11-22T17:31:00.000000'), 27), (444, numpy.datetime64('2022-11-22T17:58:00.000000'), 42), (446, numpy.datetime64('2022-11-22T18:40:00.000000'), 22)]"
390,"[(127, numpy.datetime64('2022-11-16T16:00:00.000000'), 8279), (148, numpy.datetime64('2022-11-22T09:59:00.000000'), 59), (146, numpy.datetime64('2022-11-22T10:58:00.000000'), 30), (166, numpy.datetime64('2022-11-22T11:28:00.000000'), 199), (269, numpy.datetime64('2022-11-22T14:47:00.000000'), 57), (383, numpy.datetime64('2022-11-22T15:44:00.000000'), 38), (411, numpy.datetime64('2022-11-22T16:22:00.000000'), 52), (442, numpy.datetime64('2022-11-22T17:14:00.000000'), 17), (443, numpy.datetime64('2022-11-22T17:31:00.000000'), 27), (444, numpy.datetime64('2022-11-22T17:58:00.000000'), 42), (446, numpy.datetime64('2022-11-22T18:40:00.000000'), 22), (417, numpy.datetime64('2022-11-22T19:02:00.000000'), 15), (389, numpy.datetime64('2022-11-22T19:17:00.000000'), 10)]"
538,[]
567,[]
426,[]
397,[]
398,[]
499,[]
475,[]
497,"[(127, numpy.datetime64('2022-11-16T16:00:00.000000'), 8279), (148, numpy.datetime64('2022-11-22T09:59:00.000000'), 59), (146, numpy.datetime64('2022-11-22T10:58:00.000000'), 30), (166, numpy.datetime64('2022-11-22T11:28:00.000000'), 199), (269, numpy.datetime64('2022-11-22T14:47:00.000000'), 57), (383, numpy.datetime64('2022-11-22T15:44:00.000000'), 38), (411, numpy.datetime64('2022-11-22T16:22:00.000000'), 52), (442, numpy.datetime64('2022-11-22T17:14:00.000000'), 17), (443, numpy.datetime64('2022-11-22T17:31:00.000000'), 27), (444, numpy.datetime64('2022-11-22T17:58:00.000000'), 42), (446, numpy.datetime64('2022-11-22T18:40:00.000000'), 16), (471, numpy.datetime64('2022-11-22T18:56:00.000000'), 49), (496, numpy.datetime64('2022-11-22T19:45:00.000000'), 37), (523, numpy.datetime64('2022-11-22T20:22:00.000000'), 70)]"
498,"[(127, numpy.datetime64('2022-11-16T16:00:00.000000'), 8279), (148, numpy.datetime64('2022-11-22T09:59:00.000000'), 59), (146, numpy.datetime64('2022-11-22T10:58:00.000000'), 30), (166, numpy.datetime64('2022-11-22T11:28:00.000000'), 199), (269, numpy.datetime64('2022-11-22T14:47:00.000000'), 57), (383, numpy.datetime64('2022-11-22T15:44:00.000000'), 38), (411, numpy.datetime64('2022-11-22T16:22:00.000000'), 52), (442, numpy.datetime64('2022-11-22T17:14:00.000000'), 17), (443, numpy.datetime64('2022-11-22T17:31:00.000000'), 27), (444, numpy.datetime64('2022-11-22T17:58:00.000000'), 42), (446, numpy.datetime64('2022-11-22T18:40:00.000000'), 16), (471, numpy.datetime64('2022-11-22T18:56:00.000000'), 49), (496, numpy.datetime64('2022-11-22T19:45:00.000000'), 37), (523, numpy.datetime64('2022-11-22T20:22:00.000000'), 52)]"
311,[]
342,[]
345,[]
421,"[(127, numpy.datetime64('2022-11-16T16:00:00.000000'), 8279), (148, numpy.datetime64('2022-11-22T09:59:00.000000'), 59), (146, numpy.datetime64('2022-11-22T10:58:00.000000'), 30), (166, numpy.datetime64('2022-11-22T11:28:00.000000'), 199), (269, numpy.datetime64('2022-11-22T14:47:00.000000'), 57), (383, numpy.datetime64('2022-11-22T15:44:00.000000'), 38), (411, numpy.datetime64('2022-11-22T16:22:00.000000'), 52), (442, numpy.datetime64('2022-11-22T17:14:00.000000'), 17), (443, numpy.datetime64('2022-11-22T17:31:00.000000'), 27), (444, numpy.datetime64('2022-11-22T17:58:00.000000'), 42), (446, numpy.datetime64('2022-11-22T18:40:00.000000'), 22), (417, numpy.datetime64('2022-11-22T19:02:00.000000'), 15), (389, numpy.datetime64('2022-11-22T19:17:00.000000'), 10), (390, numpy.datetime64('2022-11-22T19:27:00.000000'), 30), (391, numpy.datetime64('2022-11-22T19:57:00.000000'), 14), (419, numpy.datetime64('2022-11-22T20:11:00.000000'), 68), (420, numpy.datetime64('2022-11-22T21:19:00.000000'), 16), (449, numpy.datetime64('2022-11-22T21:35:00.000000'), 90), (450, numpy.datetime64('2022-11-22T23:05:00.000000'), 14)]"
515,[]
472,"[(127, numpy.datetime64('2022-11-16T16:00:00.000000'), 8279), (148, numpy.datetime64('2022-11-22T09:59:00.000000'), 59), (146, numpy.datetime64('2022-11-22T10:58:00.000000'), 30), (166, numpy.datetime64('2022-11-22T11:28:00.000000'), 199), (269, numpy.datetime64('2022-11-22T14:47:00.000000'), 57), (383, numpy.datetime64('2022-11-22T15:44:00.000000'), 38), (411, numpy.datetime64('2022-11-22T16:22:00.000000'), 52), (442, numpy.datetime64('2022-11-22T17:14:00.000000'), 17), (443, numpy.datetime64('2022-11-22T17:31:00.000000'), 27), (444, numpy.datetime64('2022-11-22T17:58:00.000000'), 42), (446, numpy.datetime64('2022-11-22T18:40:00.000000'), 16), (471, numpy.datetime64('2022-11-22T18:56:00.000000'), 25)]"
448,"[(127, numpy.datetime64('2022-11-16T16:00:00.000000'), 8279), (148, numpy.datetime64('2022-11-22T09:59:00.000000'), 59), (146, numpy.datetime64('2022-11-22T10:58:00.000000'), 30), (166, numpy.datetime64('2022-11-22T11:28:00.000000'), 199), (269, numpy.datetime64('2022-11-22T14:47:00.000000'), 57), (383, numpy.datetime64('2022-11-22T15:44:00.000000'), 38), (411, numpy.datetime64('2022-11-22T16:22:00.000000'), 52), (442, numpy.datetime64('2022-11-22T17:14:00.000000'), 17), (443, numpy.datetime64('2022-11-22T17:31:00.000000'), 27), (444, numpy.datetime64('2022-11-22T17:58:00.000000'), 42), (446, numpy.datetime64('2022-11-22T18:40:00.000000'), 16), (471, numpy.datetime64('2022-11-22T18:56:00.000000'), 25), (472, numpy.datetime64('2022-11-22T19:21:00.000000'), 31)]"
473,"[(127, numpy.datetime64('2022-11-16T16:00:00.000000'), 8279), (148, numpy.datetime64('2022-11-22T09:59:00.000000'), 59), (146, numpy.datetime64('2022-11-22T10:58:00.000000'), 30), (166, numpy.datetime64('2022-11-22T11:28:00.000000'), 199), (269, numpy.datetime64('2022-11-22T14:47:00.000000'), 57), (383, numpy.datetime64('2022-11-22T15:44:00.000000'), 38), (411, numpy.datetime64('2022-11-22T16:22:00.000000'), 52), (442, numpy.datetime64('2022-11-22T17:14:00.000000'), 17), (443, numpy.datetime64('2022-11-22T17:31:00.000000'), 27), (444, numpy.datetime64('2022-11-22T17:58:00.000000'), 42), (446, numpy.datetime64('2022-11-22T18:40:00.000000'), 16), (471, numpy.datetime64('2022-11-22T18:56:00.000000'), 25), (472, numpy.datetime64('2022-11-22T19:21:00.000000'), 31), (448, numpy.datetime64('2022-11-22T19:52:00.000000'), 24)]"
474,[]
353,[]
381,[]
256,[]
290,[]
324,[]
380,[]
407,[]
253,[]
226,[]
201,[]
177,[]
824,[]
775,[]
826,[]
939,[]
936,[]
937,[]
880,[]
566,[]
2821,[]
2834,[]
2833,[]
2789,[]
2790,[]
2770,[]
2788,[]
2776,[]
2795,[]
2775,[]
2794,[]
2825,[]
2824,[]
2826,[]
2811,[]
2812,[]
2796,[]
2827,[]
2858,[]
2855,[]
2849,[]
2838,[]
2814,[]
2813,[]
2828,[]
2839,[]
2791,[]
2792,[]
2803,[]
2830,[]
2815,[]
2819,[]
2818,[]
2817,[]
2831,[]
2810,[]
2829,[]
2783,[]
2820,[]
2804,[]
2785,[]
2784,[]
2762,[]
2768,[]
2751,[]
2750,[]
2733,[]
2769,[]
2720,[]
2761,[]
2741,[]
2837,[]
2793,[]
2808,[]
2753,[]
2736,[]
2735,[]
2809,[]
2772,[]
2845,[]
2844,[]
2848,[]
2777,[]
2778,[]
2779,[]
2759,[]
2780,[]
2797,[]
2843,[]
2832,[]
2842,[]
2758,[]
2738,[]
2774,[]
2773,[]
2771,[]
2851,[]
2847,[]
2854,[]
2721,[]
2756,[]
2737,[]
2840,[]
2752,[]
2754,[]
2755,[]
2852,[]
2853,[]
2856,[]
2841,[]
2742,[]
2727,[]
2744,[]
2726,[]
2743,[]
2725,[]
2746,[]
2787,[]
2766,[]
2763,[]
2765,[]
2745,[]
2764,[]
2552,[]
2501,[]
2443,[]
2442,[]
2320,[]
2381,[]
2382,[]
2498,[]
2499,[]
2438,[]
2439,[]
2497,[]
2441,[]
2379,[]
2380,[]
2319,[]
2551,[]
2550,[]
2563,[]
2321,[]
2322,[]
2383,[]
2384,[]
2446,[]
2445,[]
2503,[]
2385,[]
2504,[]
2505,[]
2557,[]
2558,[]
2559,[]
2560,[]
2564,[]
2562,[]
2561,[]
2605,[]
2609,[]
2565,[]
2566,[]
2515,[]
2397,[]
2457,[]
2458,[]
2401,[]
2337,[]
2336,[]
2399,[]
2398,[]
2402,[]
2333,[]
2273,[]
2219,[]
2218,[]
2159,[]
2454,[]
2393,[]
2512,[]
2502,[]
2608,[]
2156,[]
2155,[]
2154,[]
2213,[]
2212,[]
2211,[]
2210,[]
2264,[]
2324,[]
2323,[]
2030,[]
2094,[]
2157,[]
2450,[]
2388,[]
2387,[]
2326,[]
2266,[]
2265,[]
2508,[]
2396,[]
2335,[]
2334,[]
2158,[]
2279,[]
2278,[]
2222,[]
2221,[]
2276,[]
2275,[]
2261,[]
2207,[]
2149,[]
2554,[]
2599,[]
2633,[]
2664,[]
2689,[]
2690,[]
2691,[]
2692,[]
2152,[]
2089,[]
2088,[]
2025,[]
2603,[]
2602,[]
2556,[]
2693,[]
2671,[]
2670,[]
2694,[]
2553,[]
2665,[]
2705,[]
2710,[]
2668,[]
2639,[]
2463,[]
2521,[]
2572,[]
2451,[]
2390,[]
2391,[]
2392,[]
2215,[]
2268,[]
2093,[]
2092,[]
2028,[]
2024,[]
2150,[]
2086,[]
2209,[]
2023,[]
2087,[]
2148,[]
2262,[]
2327,[]
1560,[]
1630,[]
1631,[]
1559,[]
1629,[]
1558,[]
1634,[]
1633,[]
1482,[]
1481,[]
1699,[]
1700,[]
1701,[]
1563,[]
2070,[]
2008,[]
2009,[]
1959,[]
1958,[]
2006,[]
1957,[]
1956,[]
2193,[]
2132,[]
1912,[]
1911,[]
1865,[]
1866,[]
2007,[]
2069,[]
2010,[]
2011,[]
1961,[]
2072,[]
1913,[]
1867,[]
1962,[]
1914,[]
1915,[]
1909,[]
1636,[]
1635,[]
1564,[]
1702,[]
1637,[]
1638,[]
1565,[]
1486,[]
1760,[]
1704,[]
1703,[]
1763,[]
1762,[]
1817,[]
1705,[]
1863,[]
1815,[]
1759,[]
863,[]
758,[]
808,[]
982,[]
1036,[]
1099,[]
1100,[]
1166,[]
1167,[]
1237,[]
1238,[]
1375,[]
1308,[]
1309,[]
1236,[]
1235,[]
1101,[]
1037,[]
971,[]
1025,[]
1026,[]
1027,[]
1089,[]
720,[]
674,[]
864,[]
865,[]
919,[]
1024,[]
975,[]
974,[]
1028,[]
873,[]
925,[]
924,[]
917,[]
918,[]
623,[]
712,[]
713,[]
667,[]
622,[]
809,[]
719,[]
765,[]
972,[]
868,[]
869,[]
815,[]
920,[]
973,[]
981,[]
926,[]
927,[]
928,[]
1354,[]
1288,[]
1218,[]
1152,[]
1023,[]
1353,[]
1085,[]
1148,[]
1147,[]
1082,[]
772,[]
771,[]
819,[]
584,[]
628,[]
629,[]
1033,[]
978,[]
1031,[]
1030,[]
1029,[]
1091,[]
1035,[]
1034,[]
979,[]
1526,[]
1449,[]
1378,[]
1448,[]
1524,[]
1038,[]
1447,[]
1768,[]
1710,[]
1767,[]
391,"[(127, numpy.datetime64('2022-11-16T16:00:00.000000'), 8279), (148, numpy.datetime64('2022-11-22T09:59:00.000000'), 59), (146, numpy.datetime64('2022-11-22T10:58:00.000000'), 30), (166, numpy.datetime64('2022-11-22T11:28:00.000000'), 199), (269, numpy.datetime64('2022-11-22T14:47:00.000000'), 57), (383, numpy.datetime64('2022-11-22T15:44:00.000000'), 38), (411, numpy.datetime64('2022-11-22T16:22:00.000000'), 52), (442, numpy.datetime64('2022-11-22T17:14:00.000000'), 17), (443, numpy.datetime64('2022-11-22T17:31:00.000000'), 27), (444, numpy.datetime64('2022-11-22T17:58:00.000000'), 42), (446, numpy.datetime64('2022-11-22T18:40:00.000000'), 22), (417, numpy.datetime64('2022-11-22T19:02:00.000000'), 15), (389, numpy.datetime64('2022-11-22T19:17:00.000000'), 10), (390, numpy.datetime64('2022-11-22T19:27:00.000000'), 30)]"
365,"[(127, numpy.datetime64('2022-11-16T16:00:00.000000'), 8279), (148, numpy.datetime64('2022-11-22T09:59:00.000000'), 59), (146, numpy.datetime64('2022-11-22T10:58:00.000000'), 30), (166, numpy.datetime64('2022-11-22T11:28:00.000000'), 199), (269, numpy.datetime64('2022-11-22T14:47:00.000000'), 57), (383, numpy.datetime64('2022-11-22T15:44:00.000000'), 38), (411, numpy.datetime64('2022-11-22T16:22:00.000000'), 52), (442, numpy.datetime64('2022-11-22T17:14:00.000000'), 17), (443, numpy.datetime64('2022-11-22T17:31:00.000000'), 27), (444, numpy.datetime64('2022-11-22T17:58:00.000000'), 42), (446, numpy.datetime64('2022-11-22T18:40:00.000000'), 22), (417, numpy.datetime64('2022-11-22T19:02:00.000000'), 15), (389, numpy.datetime64('2022-11-22T19:17:00.000000'), 10), (390, numpy.datetime64('2022-11-22T19:27:00.000000'), 30), (391, numpy.datetime64('2022-11-22T19:57:00.000000'), 64)]"
339,[]
400,[]
393,"[(127, numpy.datetime64('2022-11-16T16:00:00.000000'), 8279), (148, numpy.datetime64('2022-11-22T09:59:00.000000'), 59), (146, numpy.datetime64('2022-11-22T10:58:00.000000'), 30), (166, numpy.datetime64('2022-11-22T11:28:00.000000'), 199), (269, numpy.datetime64('2022-11-22T14:47:00.000000'), 57), (383, numpy.datetime64('2022-11-22T15:44:00.000000'), 38), (411, numpy.datetime64('2022-11-22T16:22:00.000000'), 52), (442, numpy.datetime64('2022-11-22T17:14:00.000000'), 17), (443, numpy.datetime64('2022-11-22T17:31:00.000000'), 27), (444, numpy.datetime64('2022-11-22T17:58:00.000000'), 42), (446, numpy.datetime64('2022-11-22T18:40:00.000000'), 22), (417, numpy.datetime64('2022-11-22T19:02:00.000000'), 15), (389, numpy.datetime64('2022-11-22T19:17:00.000000'), 10), (390, numpy.datetime64('2022-11-22T19:27:00.000000'), 30), (391, numpy.datetime64('2022-11-22T19:57:00.000000'), 56), (392, numpy.datetime64('2022-11-22T20:53:00.000000'), 35)]"
392,"[(127, numpy.datetime64('2022-11-16T16:00:00.000000'), 8279), (148, numpy.datetime64('2022-11-22T09:59:00.000000'), 59), (146, numpy.datetime64('2022-11-22T10:58:00.000000'), 30), (166, numpy.datetime64('2022-11-22T11:28:00.000000'), 199), (269, numpy.datetime64('2022-11-22T14:47:00.000000'), 57), (383, numpy.datetime64('2022-11-22T15:44:00.000000'), 38), (411, numpy.datetime64('2022-11-22T16:22:00.000000'), 52), (442, numpy.datetime64('2022-11-22T17:14:00.000000'), 17), (443, numpy.datetime64('2022-11-22T17:31:00.000000'), 27), (444, numpy.datetime64('2022-11-22T17:58:00.000000'), 42), (446, numpy.datetime64('2022-11-22T18:40:00.000000'), 22), (417, numpy.datetime64('2022-11-22T19:02:00.000000'), 15), (389, numpy.datetime64('2022-11-22T19:17:00.000000'), 10), (390, numpy.datetime64('2022-11-22T19:27:00.000000'), 30), (391, numpy.datetime64('2022-11-22T19:57:00.000000'), 56)]"
396,[]
399,[]
443,"[(127, numpy.datetime64('2022-11-16T16:00:00.000000'), 8279), (148, numpy.datetime64('2022-11-22T09:59:00.000000'), 59), (146, numpy.datetime64('2022-11-22T10:58:00.000000'), 30), (166, numpy.datetime64('2022-11-22T11:28:00.000000'), 199), (269, numpy.datetime64('2022-11-22T14:47:00.000000'), 57), (383, numpy.datetime64('2022-11-22T15:44:00.000000'), 38), (411, numpy.datetime64('2022-11-22T16:22:00.000000'), 52), (442, numpy.datetime64('2022-11-22T17:14:00.000000'), 17)]"
449,"[(127, numpy.datetime64('2022-11-16T16:00:00.000000'), 8279), (148, numpy.datetime64('2022-11-22T09:59:00.000000'), 59), (146, numpy.datetime64('2022-11-22T10:58:00.000000'), 30), (166, numpy.datetime64('2022-11-22T11:28:00.000000'), 199), (269, numpy.datetime64('2022-11-22T14:47:00.000000'), 57), (383, numpy.datetime64('2022-11-22T15:44:00.000000'), 38), (411, numpy.datetime64('2022-11-22T16:22:00.000000'), 52), (442, numpy.datetime64('2022-11-22T17:14:00.000000'), 17), (443, numpy.datetime64('2022-11-22T17:31:00.000000'), 27), (444, numpy.datetime64('2022-11-22T17:58:00.000000'), 42), (446, numpy.datetime64('2022-11-22T18:40:00.000000'), 22), (417, numpy.datetime64('2022-11-22T19:02:00.000000'), 15), (389, numpy.datetime64('2022-11-22T19:17:00.000000'), 10), (390, numpy.datetime64('2022-11-22T19:27:00.000000'), 30), (391, numpy.datetime64('2022-11-22T19:57:00.000000'), 14), (419, numpy.datetime64('2022-11-22T20:11:00.000000'), 68), (420, numpy.datetime64('2022-11-22T21:19:00.000000'), 16)]"
450,"[(127, numpy.datetime64('2022-11-16T16:00:00.000000'), 8279), (148, numpy.datetime64('2022-11-22T09:59:00.000000'), 59), (146, numpy.datetime64('2022-11-22T10:58:00.000000'), 30), (166, numpy.datetime64('2022-11-22T11:28:00.000000'), 199), (269, numpy.datetime64('2022-11-22T14:47:00.000000'), 57), (383, numpy.datetime64('2022-11-22T15:44:00.000000'), 38), (411, numpy.datetime64('2022-11-22T16:22:00.000000'), 52), (442, numpy.datetime64('2022-11-22T17:14:00.000000'), 17), (443, numpy.datetime64('2022-11-22T17:31:00.000000'), 27), (444, numpy.datetime64('2022-11-22T17:58:00.000000'), 42), (446, numpy.datetime64('2022-11-22T18:40:00.000000'), 22), (417, numpy.datetime64('2022-11-22T19:02:00.000000'), 15), (389, numpy.datetime64('2022-11-22T19:17:00.000000'), 10), (390, numpy.datetime64('2022-11-22T19:27:00.000000'), 30), (391, numpy.datetime64('2022-11-22T19:57:00.000000'), 14), (419, numpy.datetime64('2022-11-22T20:11:00.000000'), 68), (420, numpy.datetime64('2022-11-22T21:19:00.000000'), 16), (449, numpy.datetime64('2022-11-22T21:35:00.000000'), 90)]"
419,"[(127, numpy.datetime64('2022-11-16T16:00:00.000000'), 8279), (148, numpy.datetime64('2022-11-22T09:59:00.000000'), 59), (146, numpy.datetime64('2022-11-22T10:58:00.000000'), 30), (166, numpy.datetime64('2022-11-22T11:28:00.000000'), 199), (269, numpy.datetime64('2022-11-22T14:47:00.000000'), 57), (383, numpy.datetime64('2022-11-22T15:44:00.000000'), 38), (411, numpy.datetime64('2022-11-22T16:22:00.000000'), 52), (442, numpy.datetime64('2022-11-22T17:14:00.000000'), 17), (443, numpy.datetime64('2022-11-22T17:31:00.000000'), 27), (444, numpy.datetime64('2022-11-22T17:58:00.000000'), 42), (446, numpy.datetime64('2022-11-22T18:40:00.000000'), 22), (417, numpy.datetime64('2022-11-22T19:02:00.000000'), 15), (389, numpy.datetime64('2022-11-22T19:17:00.000000'), 10), (390, numpy.datetime64('2022-11-22T19:27:00.000000'), 30), (391, numpy.datetime64('2022-11-22T19:57:00.000000'), 14)]"
414,"[(127, numpy.datetime64('2022-11-16T16:00:00.000000'), 8279), (148, numpy.datetime64('2022-11-22T09:59:00.000000'), 59), (146, numpy.datetime64('2022-11-22T10:58:00.000000'), 30), (166, numpy.datetime64('2022-11-22T11:28:00.000000'), 199), (269, numpy.datetime64('2022-11-22T14:47:00.000000'), 57), (383, numpy.datetime64('2022-11-22T15:44:00.000000'), 38), (411, numpy.datetime64('2022-11-22T16:22:00.000000'), 52), (442, numpy.datetime64('2022-11-22T17:14:00.000000'), 17), (443, numpy.datetime64('2022-11-22T17:31:00.000000'), 27), (444, numpy.datetime64('2022-11-22T17:58:00.000000'), 5), (415, numpy.datetime64('2022-11-22T18:03:00.000000'), 24)]"
415,"[(127, numpy.datetime64('2022-11-16T16:00:00.000000'), 8279), (148, numpy.datetime64('2022-11-22T09:59:00.000000'), 59), (146, numpy.datetime64('2022-11-22T10:58:00.000000'), 30), (166, numpy.datetime64('2022-11-22T11:28:00.000000'), 199), (269, numpy.datetime64('2022-11-22T14:47:00.000000'), 57), (383, numpy.datetime64('2022-11-22T15:44:00.000000'), 38), (411, numpy.datetime64('2022-11-22T16:22:00.000000'), 52), (442, numpy.datetime64('2022-11-22T17:14:00.000000'), 17), (443, numpy.datetime64('2022-11-22T17:31:00.000000'), 27), (444, numpy.datetime64('2022-11-22T17:58:00.000000'), 5)]"
387,"[(127, numpy.datetime64('2022-11-16T16:00:00.000000'), 8279), (148, numpy.datetime64('2022-11-22T09:59:00.000000'), 59), (146, numpy.datetime64('2022-11-22T10:58:00.000000'), 30), (166, numpy.datetime64('2022-11-22T11:28:00.000000'), 199), (269, numpy.datetime64('2022-11-22T14:47:00.000000'), 57), (383, numpy.datetime64('2022-11-22T15:44:00.000000'), 38), (411, numpy.datetime64('2022-11-22T16:22:00.000000'), 52), (442, numpy.datetime64('2022-11-22T17:14:00.000000'), 17), (443, numpy.datetime64('2022-11-22T17:31:00.000000'), 27), (444, numpy.datetime64('2022-11-22T17:58:00.000000'), 5), (415, numpy.datetime64('2022-11-22T18:03:00.000000'), 94)]"
388,"[(127, numpy.datetime64('2022-11-16T16:00:00.000000'), 8279), (148, numpy.datetime64('2022-11-22T09:59:00.000000'), 59), (146, numpy.datetime64('2022-11-22T10:58:00.000000'), 30), (166, numpy.datetime64('2022-11-22T11:28:00.000000'), 199), (269, numpy.datetime64('2022-11-22T14:47:00.000000'), 57), (383, numpy.datetime64('2022-11-22T15:44:00.000000'), 38), (411, numpy.datetime64('2022-11-22T16:22:00.000000'), 52), (442, numpy.datetime64('2022-11-22T17:14:00.000000'), 17), (443, numpy.datetime64('2022-11-22T17:31:00.000000'), 27), (444, numpy.datetime64('2022-11-22T17:58:00.000000'), 42), (446, numpy.datetime64('2022-11-22T18:40:00.000000'), 22), (417, numpy.datetime64('2022-11-22T19:02:00.000000'), 15), (389, numpy.datetime64('2022-11-22T19:17:00.000000'), 7)]"
389,"[(127, numpy.datetime64('2022-11-16T16:00:00.000000'), 8279), (148, numpy.datetime64('2022-11-22T09:59:00.000000'), 59), (146, numpy.datetime64('2022-11-22T10:58:00.000000'), 30), (166, numpy.datetime64('2022-11-22T11:28:00.000000'), 199), (269, numpy.datetime64('2022-11-22T14:47:00.000000'), 57), (383, numpy.datetime64('2022-11-22T15:44:00.000000'), 38), (411, numpy.datetime64('2022-11-22T16:22:00.000000'), 52), (442, numpy.datetime64('2022-11-22T17:14:00.000000'), 17), (443, numpy.datetime64('2022-11-22T17:31:00.000000'), 27), (444, numpy.datetime64('2022-11-22T17:58:00.000000'), 42), (446, numpy.datetime64('2022-11-22T18:40:00.000000'), 22), (417, numpy.datetime64('2022-11-22T19:02:00.000000'), 15)]"
282,[]
281,[]
314,[]
313,[]
405,[]
411,"[(127, numpy.datetime64('2022-11-16T16:00:00.000000'), 8279), (148, numpy.datetime64('2022-11-22T09:59:00.000000'), 59), (146, numpy.datetime64('2022-11-22T10:58:00.000000'), 30), (166, numpy.datetime64('2022-11-22T11:28:00.000000'), 199), (269, numpy.datetime64('2022-11-22T14:47:00.000000'), 57), (383, numpy.datetime64('2022-11-22T15:44:00.000000'), 38)]"
442,"[(127, numpy.datetime64('2022-11-16T16:00:00.000000'), 8279), (148, numpy.datetime64('2022-11-22T09:59:00.000000'), 59), (146, numpy.datetime64('2022-11-22T10:58:00.000000'), 30), (166, numpy.datetime64('2022-11-22T11:28:00.000000'), 199), (269, numpy.datetime64('2022-11-22T14:47:00.000000'), 57), (383, numpy.datetime64('2022-11-22T15:44:00.000000'), 38), (411, numpy.datetime64('2022-11-22T16:22:00.000000'), 52)]"
255,[]
376,[]
373,[]
278,[]
275,[]
248,"[(127, numpy.datetime64('2022-11-16T16:00:00.000000'), 8279), (148, numpy.datetime64('2022-11-22T09:59:00.000000'), 69), (149, numpy.datetime64('2022-11-22T11:08:00.000000'), 235), (172, numpy.datetime64('2022-11-22T15:03:00.000000'), 57), (197, numpy.datetime64('2022-11-22T16:00:00.000000'), 29), (223, numpy.datetime64('2022-11-22T16:29:00.000000'), 196)]"
335,"[(127, numpy.datetime64('2022-11-16T16:00:00.000000'), 8279), (148, numpy.datetime64('2022-11-22T09:59:00.000000'), 59), (146, numpy.datetime64('2022-11-22T10:58:00.000000'), 30), (166, numpy.datetime64('2022-11-22T11:28:00.000000'), 199), (269, numpy.datetime64('2022-11-22T14:47:00.000000'), 57), (383, numpy.datetime64('2022-11-22T15:44:00.000000'), 38), (411, numpy.datetime64('2022-11-22T16:22:00.000000'), 52), (442, numpy.datetime64('2022-11-22T17:14:00.000000'), 17), (443, numpy.datetime64('2022-11-22T17:31:00.000000'), 27), (444, numpy.datetime64('2022-11-22T17:58:00.000000'), 42), (446, numpy.datetime64('2022-11-22T18:40:00.000000'), 22), (417, numpy.datetime64('2022-11-22T19:02:00.000000'), 15), (389, numpy.datetime64('2022-11-22T19:17:00.000000'), 10), (362, numpy.datetime64('2022-11-22T19:27:00.000000'), 27), (361, numpy.datetime64('2022-11-22T19:54:00.000000'), 89), (334, numpy.datetime64('2022-11-22T21:23:00.000000'), 23)]"
334,"[(127, numpy.datetime64('2022-11-16T16:00:00.000000'), 8279), (148, numpy.datetime64('2022-11-22T09:59:00.000000'), 59), (146, numpy.datetime64('2022-11-22T10:58:00.000000'), 30), (166, numpy.datetime64('2022-11-22T11:28:00.000000'), 199), (269, numpy.datetime64('2022-11-22T14:47:00.000000'), 57), (383, numpy.datetime64('2022-11-22T15:44:00.000000'), 38), (411, numpy.datetime64('2022-11-22T16:22:00.000000'), 52), (442, numpy.datetime64('2022-11-22T17:14:00.000000'), 17), (443, numpy.datetime64('2022-11-22T17:31:00.000000'), 27), (444, numpy.datetime64('2022-11-22T17:58:00.000000'), 42), (446, numpy.datetime64('2022-11-22T18:40:00.000000'), 22), (417, numpy.datetime64('2022-11-22T19:02:00.000000'), 15), (389, numpy.datetime64('2022-11-22T19:17:00.000000'), 10), (362, numpy.datetime64('2022-11-22T19:27:00.000000'), 27), (361, numpy.datetime64('2022-11-22T19:54:00.000000'), 89)]"
306,"[(127, numpy.datetime64('2022-11-16T16:00:00.000000'), 8279), (148, numpy.datetime64('2022-11-22T09:59:00.000000'), 59), (146, numpy.datetime64('2022-11-22T10:58:00.000000'), 30), (166, numpy.datetime64('2022-11-22T11:28:00.000000'), 199), (269, numpy.datetime64('2022-11-22T14:47:00.000000'), 57), (383, numpy.datetime64('2022-11-22T15:44:00.000000'), 38), (411, numpy.datetime64('2022-11-22T16:22:00.000000'), 52), (442, numpy.datetime64('2022-11-22T17:14:00.000000'), 17), (443, numpy.datetime64('2022-11-22T17:31:00.000000'), 27), (444, numpy.datetime64('2022-11-22T17:58:00.000000'), 42), (446, numpy.datetime64('2022-11-22T18:40:00.000000'), 22), (417, numpy.datetime64('2022-11-22T19:02:00.000000'), 15), (389, numpy.datetime64('2022-11-22T19:17:00.000000'), 10), (362, numpy.datetime64('2022-11-22T19:27:00.000000'), 27), (361, numpy.datetime64('2022-11-22T19:54:00.000000'), 89), (334, numpy.datetime64('2022-11-22T21:23:00.000000'), 23), (335, numpy.datetime64('2022-11-22T21:46:00.000000'), 66)]"
307,[]
176,[]
225,[]
320,[]
249,[]
287,[]
285,[]
776,[]
731,[]
315,[]
316,[]
204,[]
440,[]
439,[]
166,"[(127, numpy.datetime64('2022-11-16T16:00:00.000000'), 8279), (148, numpy.datetime64('2022-11-22T09:59:00.000000'), 59), (146, numpy.datetime64('2022-11-22T10:58:00.000000'), 30)]"
269,"[(127, numpy.datetime64('2022-11-16T16:00:00.000000'), 8279), (148, numpy.datetime64('2022-11-22T09:59:00.000000'), 59), (146, numpy.datetime64('2022-11-22T10:58:00.000000'), 30), (166, numpy.datetime64('2022-11-22T11:28:00.000000'), 199)]"
383,"[(127, numpy.datetime64('2022-11-16T16:00:00.000000'), 8279), (148, numpy.datetime64('2022-11-22T09:59:00.000000'), 59), (146, numpy.datetime64('2022-11-22T10:58:00.000000'), 30), (166, numpy.datetime64('2022-11-22T11:28:00.000000'), 199), (269, numpy.datetime64('2022-11-22T14:47:00.000000'), 57)]"
1247,[]
1246,[]
1384,[]
1679,[]
1178,[]
1105,[]
1172,[]
1173,[]
1242,[]
1241,[]
1314,[]
1313,[]
1171,[]
1382,[]
1243,[]
1317,[]
1107,[]
1108,[]
1109,[]
1041,[]
1043,[]
1042,[]
1044,[]
1176,[]
1174,[]
1177,[]
1110,[]
985,[]
986,[]
932,[]
774,[]
730,[]
825,[]
728,[]
729,[]
727,[]
682,[]
684,[]
685,[]
732,[]
683,[]
2134,[]
2194,[]
2068,[]
2129,[]
1905,[]
1907,[]
1906,[]
1953,[]
2002,[]
2064,[]
2125,[]
2137,[]
2196,[]
2195,[]
1859,[]
1810,[]
1755,[]
2131,[]
2192,[]
1862,[]
1861,[]
1812,[]
1860,[]
1809,[]
1756,[]
1869,[]
1822,[]
1821,[]
1916,[]
1819,[]
1764,[]
1820,[]
1698,[]
1757,[]
1566,[]
1567,[]
1488,[]
1489,[]
1412,[]
1413,[]
1414,[]
1818,[]
1568,[]
1410,[]
2128,[]
2189,[]
2066,[]
2065,[]
2067,[]
1643,[]
1571,[]
1491,[]
2004,[]
2003,[]
1697,[]
2135,[]
2075,[]
1642,[]
1955,[]
2130,[]
2005,[]
1858,[]
1816,[]
1864,[]
1766,[]
1910,[]
1868,[]
2188,[]
2127,[]
1903,[]
2001,[]
2063,[]
2062,[]
1813,[]
1758,[]
1639,[]
1640,[]
1952,[]
2126,[]
1569,[]
1965,[]
1966,[]
2014,[]
1490,[]
1917,[]
1870,[]
1871,[]
1570,[]
1707,[]
2076,[]
2013,[]
1964,[]
1487,[]
1908,[]
2251,[]
2199,[]
2198,[]
2136,[]
1641,[]
1954,[]
1765,[]
1857,[]
2187,[]
1904,[]
1856,[]
1951,[]
1708,[]
245,"[(127, numpy.datetime64('2022-11-16T16:00:00.000000'), 8279), (148, numpy.datetime64('2022-11-22T09:59:00.000000'), 59), (146, numpy.datetime64('2022-11-22T10:58:00.000000'), 30), (166, numpy.datetime64('2022-11-22T11:28:00.000000'), 242), (191, numpy.datetime64('2022-11-22T15:30:00.000000'), 63), (242, numpy.datetime64('2022-11-22T16:33:00.000000'), 54), (244, numpy.datetime64('2022-11-22T17:27:00.000000'), 21)]"
244,"[(127, numpy.datetime64('2022-11-16T16:00:00.000000'), 8279), (148, numpy.datetime64('2022-11-22T09:59:00.000000'), 59), (146, numpy.datetime64('2022-11-22T10:58:00.000000'), 30), (166, numpy.datetime64('2022-11-22T11:28:00.000000'), 242), (191, numpy.datetime64('2022-11-22T15:30:00.000000'), 63), (242, numpy.datetime64('2022-11-22T16:33:00.000000'), 54)]"
357,"[(127, numpy.datetime64('2022-11-16T16:00:00.000000'), 8279), (148, numpy.datetime64('2022-11-22T09:59:00.000000'), 59), (146, numpy.datetime64('2022-11-22T10:58:00.000000'), 30), (166, numpy.datetime64('2022-11-22T11:28:00.000000'), 199), (269, numpy.datetime64('2022-11-22T14:47:00.000000'), 230)]"
246,"[(127, numpy.datetime64('2022-11-16T16:00:00.000000'), 8279), (148, numpy.datetime64('2022-11-22T09:59:00.000000'), 69), (149, numpy.datetime64('2022-11-22T11:08:00.000000'), 235), (172, numpy.datetime64('2022-11-22T15:03:00.000000'), 57), (197, numpy.datetime64('2022-11-22T16:00:00.000000'), 29), (223, numpy.datetime64('2022-11-22T16:29:00.000000'), 58), (247, numpy.datetime64('2022-11-22T17:27:00.000000'), 31)]"
247,"[(127, numpy.datetime64('2022-11-16T16:00:00.000000'), 8279), (148, numpy.datetime64('2022-11-22T09:59:00.000000'), 69), (149, numpy.datetime64('2022-11-22T11:08:00.000000'), 235), (172, numpy.datetime64('2022-11-22T15:03:00.000000'), 57), (197, numpy.datetime64('2022-11-22T16:00:00.000000'), 29), (223, numpy.datetime64('2022-11-22T16:29:00.000000'), 58)]"
197,"[(127, numpy.datetime64('2022-11-16T16:00:00.000000'), 8279), (148, numpy.datetime64('2022-11-22T09:59:00.000000'), 69), (149, numpy.datetime64('2022-11-22T11:08:00.000000'), 235), (172, numpy.datetime64('2022-11-22T15:03:00.000000'), 57)]"
223,"[(127, numpy.datetime64('2022-11-16T16:00:00.000000'), 8279), (148, numpy.datetime64('2022-11-22T09:59:00.000000'), 69), (149, numpy.datetime64('2022-11-22T11:08:00.000000'), 235), (172, numpy.datetime64('2022-11-22T15:03:00.000000'), 57), (197, numpy.datetime64('2022-11-22T16:00:00.000000'), 29)]"
44,"[(127, numpy.datetime64('2022-11-16T16:00:00.000000'), 8279), (148, numpy.datetime64('2022-11-22T09:59:00.000000'), 69), (149, numpy.datetime64('2022-11-22T11:08:00.000000'), 40), (108, numpy.datetime64('2022-11-22T11:48:00.000000'), 350), (84, numpy.datetime64('2022-11-22T17:38:00.000000'), 45), (85, numpy.datetime64('2022-11-22T18:23:00.000000'), 58), (63, numpy.datetime64('2022-11-22T19:21:00.000000'), 58)]"
43,"[(127, numpy.datetime64('2022-11-16T16:00:00.000000'), 8279), (148, numpy.datetime64('2022-11-22T09:59:00.000000'), 69), (149, numpy.datetime64('2022-11-22T11:08:00.000000'), 40), (108, numpy.datetime64('2022-11-22T11:48:00.000000'), 350), (84, numpy.datetime64('2022-11-22T17:38:00.000000'), 45), (85, numpy.datetime64('2022-11-22T18:23:00.000000'), 58), (63, numpy.datetime64('2022-11-22T19:21:00.000000'), 58), (44, numpy.datetime64('2022-11-22T20:19:00.000000'), 60)]"
3,"[(127, numpy.datetime64('2022-11-16T16:00:00.000000'), 8279), (148, numpy.datetime64('2022-11-22T09:59:00.000000'), 69), (149, numpy.datetime64('2022-11-22T11:08:00.000000'), 40), (108, numpy.datetime64('2022-11-22T11:48:00.000000'), 350), (84, numpy.datetime64('2022-11-22T17:38:00.000000'), 45), (85, numpy.datetime64('2022-11-22T18:23:00.000000'), 58), (63, numpy.datetime64('2022-11-22T19:21:00.000000'), 58), (44, numpy.datetime64('2022-11-22T20:19:00.000000'), 60), (43, numpy.datetime64('2022-11-22T21:19:00.000000'), 99), (22, numpy.datetime64('2022-11-22T22:58:00.000000'), 11), (23, numpy.datetime64('2022-11-22T23:09:00.000000'), 26)]"
23,"[(127, numpy.datetime64('2022-11-16T16:00:00.000000'), 8279), (148, numpy.datetime64('2022-11-22T09:59:00.000000'), 69), (149, numpy.datetime64('2022-11-22T11:08:00.000000'), 40), (108, numpy.datetime64('2022-11-22T11:48:00.000000'), 350), (84, numpy.datetime64('2022-11-22T17:38:00.000000'), 45), (85, numpy.datetime64('2022-11-22T18:23:00.000000'), 58), (63, numpy.datetime64('2022-11-22T19:21:00.000000'), 58), (44, numpy.datetime64('2022-11-22T20:19:00.000000'), 60), (43, numpy.datetime64('2022-11-22T21:19:00.000000'), 99), (22, numpy.datetime64('2022-11-22T22:58:00.000000'), 11)]"
22,"[(127, numpy.datetime64('2022-11-16T16:00:00.000000'), 8279), (148, numpy.datetime64('2022-11-22T09:59:00.000000'), 69), (149, numpy.datetime64('2022-11-22T11:08:00.000000'), 40), (108, numpy.datetime64('2022-11-22T11:48:00.000000'), 350), (84, numpy.datetime64('2022-11-22T17:38:00.000000'), 45), (85, numpy.datetime64('2022-11-22T18:23:00.000000'), 58), (63, numpy.datetime64('2022-11-22T19:21:00.000000'), 58), (44, numpy.datetime64('2022-11-22T20:19:00.000000'), 60), (43, numpy.datetime64('2022-11-22T21:19:00.000000'), 99)]"
63,"[(127, numpy.datetime64('2022-11-16T16:00:00.000000'), 8279), (148, numpy.datetime64('2022-11-22T09:59:00.000000'), 69), (149, numpy.datetime64('2022-11-22T11:08:00.000000'), 40), (108, numpy.datetime64('2022-11-22T11:48:00.000000'), 350), (84, numpy.datetime64('2022-11-22T17:38:00.000000'), 45), (85, numpy.datetime64('2022-11-22T18:23:00.000000'), 58)]"
85,"[(127, numpy.datetime64('2022-11-16T16:00:00.000000'), 8279), (148, numpy.datetime64('2022-11-22T09:59:00.000000'), 69), (149, numpy.datetime64('2022-11-22T11:08:00.000000'), 40), (108, numpy.datetime64('2022-11-22T11:48:00.000000'), 350), (84, numpy.datetime64('2022-11-22T17:38:00.000000'), 45)]"
84,"[(127, numpy.datetime64('2022-11-16T16:00:00.000000'), 8279), (148, numpy.datetime64('2022-11-22T09:59:00.000000'), 69), (149, numpy.datetime64('2022-11-22T11:08:00.000000'), 40), (108, numpy.datetime64('2022-11-22T11:48:00.000000'), 350)]"
108,"[(127, numpy.datetime64('2022-11-16T16:00:00.000000'), 8279), (148, numpy.datetime64('2022-11-22T09:59:00.000000'), 69), (149, numpy.datetime64('2022-11-22T11:08:00.000000'), 40)]"
149,"[(127, numpy.datetime64('2022-11-16T16:00:00.000000'), 8279), (148, numpy.datetime64('2022-11-22T09:59:00.000000'), 69)]"
172,"[(127, numpy.datetime64('2022-11-16T16:00:00.000000'), 8279), (148, numpy.datetime64('2022-11-22T09:59:00.000000'), 69), (149, numpy.datetime64('2022-11-22T11:08:00.000000'), 235)]"
296,"[(127, numpy.datetime64('2022-11-16T16:00:00.000000'), 8279), (148, numpy.datetime64('2022-11-22T09:59:00.000000'), 59), (146, numpy.datetime64('2022-11-22T10:58:00.000000'), 30), (166, numpy.datetime64('2022-11-22T11:28:00.000000'), 199), (269, numpy.datetime64('2022-11-22T14:47:00.000000'), 57), (383, numpy.datetime64('2022-11-22T15:44:00.000000'), 144)]"
294,"[(127, numpy.datetime64('2022-11-16T16:00:00.000000'), 8279), (148, numpy.datetime64('2022-11-22T09:59:00.000000'), 59), (146, numpy.datetime64('2022-11-22T10:58:00.000000'), 30), (166, numpy.datetime64('2022-11-22T11:28:00.000000'), 274), (214, numpy.datetime64('2022-11-22T16:02:00.000000'), 62)]"
355,"[(127, numpy.datetime64('2022-11-16T16:00:00.000000'), 8279), (148, numpy.datetime64('2022-11-22T09:59:00.000000'), 59), (146, numpy.datetime64('2022-11-22T10:58:00.000000'), 30), (166, numpy.datetime64('2022-11-22T11:28:00.000000'), 199), (269, numpy.datetime64('2022-11-22T14:47:00.000000'), 57), (383, numpy.datetime64('2022-11-22T15:44:00.000000'), 103)]"
354,"[(127, numpy.datetime64('2022-11-16T16:00:00.000000'), 8279), (148, numpy.datetime64('2022-11-22T09:59:00.000000'), 59), (146, numpy.datetime64('2022-11-22T10:58:00.000000'), 30), (166, numpy.datetime64('2022-11-22T11:28:00.000000'), 199), (269, numpy.datetime64('2022-11-22T14:47:00.000000'), 57), (383, numpy.datetime64('2022-11-22T15:44:00.000000'), 103), (355, numpy.datetime64('2022-11-22T17:27:00.000000'), 30)]"
326,"[(127, numpy.datetime64('2022-11-16T16:00:00.000000'), 8279), (148, numpy.datetime64('2022-11-22T09:59:00.000000'), 59), (146, numpy.datetime64('2022-11-22T10:58:00.000000'), 30), (166, numpy.datetime64('2022-11-22T11:28:00.000000'), 199), (269, numpy.datetime64('2022-11-22T14:47:00.000000'), 57), (383, numpy.datetime64('2022-11-22T15:44:00.000000'), 103), (355, numpy.datetime64('2022-11-22T17:27:00.000000'), 30), (354, numpy.datetime64('2022-11-22T17:57:00.000000'), 56)]"
295,"[(127, numpy.datetime64('2022-11-16T16:00:00.000000'), 8279), (148, numpy.datetime64('2022-11-22T09:59:00.000000'), 59), (146, numpy.datetime64('2022-11-22T10:58:00.000000'), 30), (166, numpy.datetime64('2022-11-22T11:28:00.000000'), 274), (214, numpy.datetime64('2022-11-22T16:02:00.000000'), 62), (294, numpy.datetime64('2022-11-22T17:04:00.000000'), 70)]"
291,"[(127, numpy.datetime64('2022-11-16T16:00:00.000000'), 8279), (148, numpy.datetime64('2022-11-22T09:59:00.000000'), 59), (146, numpy.datetime64('2022-11-22T10:58:00.000000'), 30), (166, numpy.datetime64('2022-11-22T11:28:00.000000'), 274), (214, numpy.datetime64('2022-11-22T16:02:00.000000'), 62), (294, numpy.datetime64('2022-11-22T17:04:00.000000'), 38), (293, numpy.datetime64('2022-11-22T17:42:00.000000'), 40), (292, numpy.datetime64('2022-11-22T18:22:00.000000'), 16), (260, numpy.datetime64('2022-11-22T18:38:00.000000'), 79)]"
293,"[(127, numpy.datetime64('2022-11-16T16:00:00.000000'), 8279), (148, numpy.datetime64('2022-11-22T09:59:00.000000'), 59), (146, numpy.datetime64('2022-11-22T10:58:00.000000'), 30), (166, numpy.datetime64('2022-11-22T11:28:00.000000'), 274), (214, numpy.datetime64('2022-11-22T16:02:00.000000'), 62), (294, numpy.datetime64('2022-11-22T17:04:00.000000'), 38)]"
260,"[(127, numpy.datetime64('2022-11-16T16:00:00.000000'), 8279), (148, numpy.datetime64('2022-11-22T09:59:00.000000'), 59), (146, numpy.datetime64('2022-11-22T10:58:00.000000'), 30), (166, numpy.datetime64('2022-11-22T11:28:00.000000'), 274), (214, numpy.datetime64('2022-11-22T16:02:00.000000'), 62), (294, numpy.datetime64('2022-11-22T17:04:00.000000'), 38), (293, numpy.datetime64('2022-11-22T17:42:00.000000'), 40), (292, numpy.datetime64('2022-11-22T18:22:00.000000'), 16)]"
356,"[(127, numpy.datetime64('2022-11-16T16:00:00.000000'), 8279), (148, numpy.datetime64('2022-11-22T09:59:00.000000'), 59), (146, numpy.datetime64('2022-11-22T10:58:00.000000'), 30), (166, numpy.datetime64('2022-11-22T11:28:00.000000'), 199), (269, numpy.datetime64('2022-11-22T14:47:00.000000'), 230), (357, numpy.datetime64('2022-11-22T18:37:00.000000'), 36)]"
441,"[(127, numpy.datetime64('2022-11-16T16:00:00.000000'), 8279), (148, numpy.datetime64('2022-11-22T09:59:00.000000'), 59), (146, numpy.datetime64('2022-11-22T10:58:00.000000'), 30), (166, numpy.datetime64('2022-11-22T11:28:00.000000'), 199), (269, numpy.datetime64('2022-11-22T14:47:00.000000'), 57), (383, numpy.datetime64('2022-11-22T15:44:00.000000'), 38), (411, numpy.datetime64('2022-11-22T16:22:00.000000'), 19), (412, numpy.datetime64('2022-11-22T16:41:00.000000'), 27)]"
412,"[(127, numpy.datetime64('2022-11-16T16:00:00.000000'), 8279), (148, numpy.datetime64('2022-11-22T09:59:00.000000'), 59), (146, numpy.datetime64('2022-11-22T10:58:00.000000'), 30), (166, numpy.datetime64('2022-11-22T11:28:00.000000'), 199), (269, numpy.datetime64('2022-11-22T14:47:00.000000'), 57), (383, numpy.datetime64('2022-11-22T15:44:00.000000'), 38), (411, numpy.datetime64('2022-11-22T16:22:00.000000'), 19)]"
329,[]
300,[]
148,"[(127, numpy.datetime64('2022-11-16T16:00:00.000000'), 8279)]"
214,"[(127, numpy.datetime64('2022-11-16T16:00:00.000000'), 8279), (148, numpy.datetime64('2022-11-22T09:59:00.000000'), 59), (146, numpy.datetime64('2022-11-22T10:58:00.000000'), 30), (166, numpy.datetime64('2022-11-22T11:28:00.000000'), 274)]"
146,"[(127, numpy.datetime64('2022-11-16T16:00:00.000000'), 8279), (148, numpy.datetime64('2022-11-22T09:59:00.000000'), 59)]"
110,"[(127, numpy.datetime64('2022-11-16T16:00:00.000000'), 8279), (148, numpy.datetime64('2022-11-22T09:59:00.000000'), 69), (149, numpy.datetime64('2022-11-22T11:08:00.000000'), 40), (108, numpy.datetime64('2022-11-22T11:48:00.000000'), 595)]"
262,"[(127, numpy.datetime64('2022-11-16T16:00:00.000000'), 8279), (148, numpy.datetime64('2022-11-22T09:59:00.000000'), 59), (146, numpy.datetime64('2022-11-22T10:58:00.000000'), 30), (166, numpy.datetime64('2022-11-22T11:28:00.000000'), 274), (214, numpy.datetime64('2022-11-22T16:02:00.000000'), 62), (294, numpy.datetime64('2022-11-22T17:04:00.000000'), 217)]"
258,"[(127, numpy.datetime64('2022-11-16T16:00:00.000000'), 8279), (148, numpy.datetime64('2022-11-22T09:59:00.000000'), 59), (146, numpy.datetime64('2022-11-22T10:58:00.000000'), 30), (166, numpy.datetime64('2022-11-22T11:28:00.000000'), 310), (165, numpy.datetime64('2022-11-22T16:38:00.000000'), 101), (235, numpy.datetime64('2022-11-22T18:19:00.000000'), 81)]"
292,"[(127, numpy.datetime64('2022-11-16T16:00:00.000000'), 8279), (148, numpy.datetime64('2022-11-22T09:59:00.000000'), 59), (146, numpy.datetime64('2022-11-22T10:58:00.000000'), 30), (166, numpy.datetime64('2022-11-22T11:28:00.000000'), 274), (214, numpy.datetime64('2022-11-22T16:02:00.000000'), 62), (294, numpy.datetime64('2022-11-22T17:04:00.000000'), 38), (293, numpy.datetime64('2022-11-22T17:42:00.000000'), 40)]"
257,"[(127, numpy.datetime64('2022-11-16T16:00:00.000000'), 8279), (148, numpy.datetime64('2022-11-22T09:59:00.000000'), 59), (146, numpy.datetime64('2022-11-22T10:58:00.000000'), 30), (166, numpy.datetime64('2022-11-22T11:28:00.000000'), 310), (165, numpy.datetime64('2022-11-22T16:38:00.000000'), 101), (235, numpy.datetime64('2022-11-22T18:19:00.000000'), 81), (258, numpy.datetime64('2022-11-22T19:40:00.000000'), 47)]"
235,"[(127, numpy.datetime64('2022-11-16T16:00:00.000000'), 8279), (148, numpy.datetime64('2022-11-22T09:59:00.000000'), 59), (146, numpy.datetime64('2022-11-22T10:58:00.000000'), 30), (166, numpy.datetime64('2022-11-22T11:28:00.000000'), 310), (165, numpy.datetime64('2022-11-22T16:38:00.000000'), 101)]"
187,"[(127, numpy.datetime64('2022-11-16T16:00:00.000000'), 8279), (148, numpy.datetime64('2022-11-22T09:59:00.000000'), 59), (146, numpy.datetime64('2022-11-22T10:58:00.000000'), 30), (166, numpy.datetime64('2022-11-22T11:28:00.000000'), 310), (165, numpy.datetime64('2022-11-22T16:38:00.000000'), 89), (188, numpy.datetime64('2022-11-22T18:07:00.000000'), 17)]"
212,"[(127, numpy.datetime64('2022-11-16T16:00:00.000000'), 8279), (148, numpy.datetime64('2022-11-22T09:59:00.000000'), 59), (146, numpy.datetime64('2022-11-22T10:58:00.000000'), 30), (166, numpy.datetime64('2022-11-22T11:28:00.000000'), 310), (165, numpy.datetime64('2022-11-22T16:38:00.000000'), 89), (188, numpy.datetime64('2022-11-22T18:07:00.000000'), 17), (187, numpy.datetime64('2022-11-22T18:24:00.000000'), 27)]"
211,"[(127, numpy.datetime64('2022-11-16T16:00:00.000000'), 8279), (148, numpy.datetime64('2022-11-22T09:59:00.000000'), 59), (146, numpy.datetime64('2022-11-22T10:58:00.000000'), 30), (166, numpy.datetime64('2022-11-22T11:28:00.000000'), 310), (165, numpy.datetime64('2022-11-22T16:38:00.000000'), 101), (235, numpy.datetime64('2022-11-22T18:19:00.000000'), 36)]"
186,"[(127, numpy.datetime64('2022-11-16T16:00:00.000000'), 8279), (148, numpy.datetime64('2022-11-22T09:59:00.000000'), 59), (146, numpy.datetime64('2022-11-22T10:58:00.000000'), 30), (166, numpy.datetime64('2022-11-22T11:28:00.000000'), 310), (165, numpy.datetime64('2022-11-22T16:38:00.000000'), 89), (188, numpy.datetime64('2022-11-22T18:07:00.000000'), 17), (187, numpy.datetime64('2022-11-22T18:24:00.000000'), 112)]"
162,"[(127, numpy.datetime64('2022-11-16T16:00:00.000000'), 8279), (148, numpy.datetime64('2022-11-22T09:59:00.000000'), 59), (146, numpy.datetime64('2022-11-22T10:58:00.000000'), 30), (166, numpy.datetime64('2022-11-22T11:28:00.000000'), 310), (165, numpy.datetime64('2022-11-22T16:38:00.000000'), 89), (188, numpy.datetime64('2022-11-22T18:07:00.000000'), 17), (187, numpy.datetime64('2022-11-22T18:24:00.000000'), 112), (186, numpy.datetime64('2022-11-22T20:16:00.000000'), 14)]"
161,"[(127, numpy.datetime64('2022-11-16T16:00:00.000000'), 8279), (148, numpy.datetime64('2022-11-22T09:59:00.000000'), 59), (146, numpy.datetime64('2022-11-22T10:58:00.000000'), 30), (166, numpy.datetime64('2022-11-22T11:28:00.000000'), 310), (165, numpy.datetime64('2022-11-22T16:38:00.000000'), 89), (188, numpy.datetime64('2022-11-22T18:07:00.000000'), 17), (187, numpy.datetime64('2022-11-22T18:24:00.000000'), 112), (186, numpy.datetime64('2022-11-22T20:16:00.000000'), 14), (162, numpy.datetime64('2022-11-22T20:30:00.000000'), 13)]"
165,"[(127, numpy.datetime64('2022-11-16T16:00:00.000000'), 8279), (148, numpy.datetime64('2022-11-22T09:59:00.000000'), 59), (146, numpy.datetime64('2022-11-22T10:58:00.000000'), 30), (166, numpy.datetime64('2022-11-22T11:28:00.000000'), 310)]"
189,"[(127, numpy.datetime64('2022-11-16T16:00:00.000000'), 8279), (148, numpy.datetime64('2022-11-22T09:59:00.000000'), 59), (146, numpy.datetime64('2022-11-22T10:58:00.000000'), 30), (166, numpy.datetime64('2022-11-22T11:28:00.000000'), 274), (214, numpy.datetime64('2022-11-22T16:02:00.000000'), 92)]"
238,"[(127, numpy.datetime64('2022-11-16T16:00:00.000000'), 8279), (148, numpy.datetime64('2022-11-22T09:59:00.000000'), 59), (146, numpy.datetime64('2022-11-22T10:58:00.000000'), 30), (166, numpy.datetime64('2022-11-22T11:28:00.000000'), 274), (214, numpy.datetime64('2022-11-22T16:02:00.000000'), 105)]"
237,[]
263,[]
265,[]
266,[]
267,[]
268,"[(127, numpy.datetime64('2022-11-16T16:00:00.000000'), 8279), (148, numpy.datetime64('2022-11-22T09:59:00.000000'), 59), (146, numpy.datetime64('2022-11-22T10:58:00.000000'), 30), (166, numpy.datetime64('2022-11-22T11:28:00.000000'), 199), (269, numpy.datetime64('2022-11-22T14:47:00.000000'), 148)]"
26,"[(127, numpy.datetime64('2022-11-16T16:00:00.000000'), 8279), (148, numpy.datetime64('2022-11-22T09:59:00.000000'), 69), (149, numpy.datetime64('2022-11-22T11:08:00.000000'), 40), (108, numpy.datetime64('2022-11-22T11:48:00.000000'), 350), (84, numpy.datetime64('2022-11-22T17:38:00.000000'), 45), (85, numpy.datetime64('2022-11-22T18:23:00.000000'), 58), (63, numpy.datetime64('2022-11-22T19:21:00.000000'), 58), (44, numpy.datetime64('2022-11-22T20:19:00.000000'), 60), (43, numpy.datetime64('2022-11-22T21:19:00.000000'), 68), (25, numpy.datetime64('2022-11-22T22:27:00.000000'), 32)]"
25,"[(127, numpy.datetime64('2022-11-16T16:00:00.000000'), 8279), (148, numpy.datetime64('2022-11-22T09:59:00.000000'), 69), (149, numpy.datetime64('2022-11-22T11:08:00.000000'), 40), (108, numpy.datetime64('2022-11-22T11:48:00.000000'), 350), (84, numpy.datetime64('2022-11-22T17:38:00.000000'), 45), (85, numpy.datetime64('2022-11-22T18:23:00.000000'), 58), (63, numpy.datetime64('2022-11-22T19:21:00.000000'), 58), (44, numpy.datetime64('2022-11-22T20:19:00.000000'), 60), (43, numpy.datetime64('2022-11-22T21:19:00.000000'), 68)]"
105,[]
62,[]
83,[]
126,"[(127, numpy.datetime64('2022-11-16T16:00:00.000000'), 8279), (148, numpy.datetime64('2022-11-22T09:59:00.000000'), 59), (146, numpy.datetime64('2022-11-22T10:58:00.000000'), 67)]"
175,"[(127, numpy.datetime64('2022-11-16T16:00:00.000000'), 8279), (148, numpy.datetime64('2022-11-22T09:59:00.000000'), 69), (149, numpy.datetime64('2022-11-22T11:08:00.000000'), 375), (150, numpy.datetime64('2022-11-22T17:23:00.000000'), 41), (151, numpy.datetime64('2022-11-22T18:04:00.000000'), 10), (152, numpy.datetime64('2022-11-22T18:14:00.000000'), 66)]"
152,"[(127, numpy.datetime64('2022-11-16T16:00:00.000000'), 8279), (148, numpy.datetime64('2022-11-22T09:59:00.000000'), 69), (149, numpy.datetime64('2022-11-22T11:08:00.000000'), 375), (150, numpy.datetime64('2022-11-22T17:23:00.000000'), 41), (151, numpy.datetime64('2022-11-22T18:04:00.000000'), 10)]"
151,"[(127, numpy.datetime64('2022-11-16T16:00:00.000000'), 8279), (148, numpy.datetime64('2022-11-22T09:59:00.000000'), 69), (149, numpy.datetime64('2022-11-22T11:08:00.000000'), 375), (150, numpy.datetime64('2022-11-22T17:23:00.000000'), 41)]"
150,"[(127, numpy.datetime64('2022-11-16T16:00:00.000000'), 8279), (148, numpy.datetime64('2022-11-22T09:59:00.000000'), 69), (149, numpy.datetime64('2022-11-22T11:08:00.000000'), 375)]"
103,[]
242,"[(127, numpy.datetime64('2022-11-16T16:00:00.000000'), 8279), (148, numpy.datetime64('2022-11-22T09:59:00.000000'), 59), (146, numpy.datetime64('2022-11-22T10:58:00.000000'), 30), (166, numpy.datetime64('2022-11-22T11:28:00.000000'), 242), (191, numpy.datetime64('2022-11-22T15:30:00.000000'), 63)]"
191,"[(127, numpy.datetime64('2022-11-16T16:00:00.000000'), 8279), (148, numpy.datetime64('2022-11-22T09:59:00.000000'), 59), (146, numpy.datetime64('2022-11-22T10:58:00.000000'), 30), (166, numpy.datetime64('2022-11-22T11:28:00.000000'), 242)]"
192,"[(127, numpy.datetime64('2022-11-16T16:00:00.000000'), 8279), (148, numpy.datetime64('2022-11-22T09:59:00.000000'), 59), (146, numpy.datetime64('2022-11-22T10:58:00.000000'), 30), (166, numpy.datetime64('2022-11-22T11:28:00.000000'), 242), (191, numpy.datetime64('2022-11-22T15:30:00.000000'), 85)]"
217,"[(127, numpy.datetime64('2022-11-16T16:00:00.000000'), 8279), (148, numpy.datetime64('2022-11-22T09:59:00.000000'), 59), (146, numpy.datetime64('2022-11-22T10:58:00.000000'), 30), (166, numpy.datetime64('2022-11-22T11:28:00.000000'), 242), (191, numpy.datetime64('2022-11-22T15:30:00.000000'), 85), (192, numpy.datetime64('2022-11-22T16:55:00.000000'), 22)]"
218,"[(127, numpy.datetime64('2022-11-16T16:00:00.000000'), 8279), (148, numpy.datetime64('2022-11-22T09:59:00.000000'), 59), (146, numpy.datetime64('2022-11-22T10:58:00.000000'), 30), (166, numpy.datetime64('2022-11-22T11:28:00.000000'), 242), (191, numpy.datetime64('2022-11-22T15:30:00.000000'), 85), (192, numpy.datetime64('2022-11-22T16:55:00.000000'), 22), (217, numpy.datetime64('2022-11-22T17:17:00.000000'), 49)]"
145,"[(127, numpy.datetime64('2022-11-16T16:00:00.000000'), 8279), (148, numpy.datetime64('2022-11-22T09:59:00.000000'), 59), (146, numpy.datetime64('2022-11-22T10:58:00.000000'), 122)]"
144,"[(127, numpy.datetime64('2022-11-16T16:00:00.000000'), 8279), (148, numpy.datetime64('2022-11-22T09:59:00.000000'), 59), (146, numpy.datetime64('2022-11-22T10:58:00.000000'), 122), (145, numpy.datetime64('2022-11-22T13:00:00.000000'), 18)]"
167,"[(127, numpy.datetime64('2022-11-16T16:00:00.000000'), 8279), (148, numpy.datetime64('2022-11-22T09:59:00.000000'), 59), (146, numpy.datetime64('2022-11-22T10:58:00.000000'), 30), (166, numpy.datetime64('2022-11-22T11:28:00.000000'), 90)]"
190,"[(127, numpy.datetime64('2022-11-16T16:00:00.000000'), 8279), (148, numpy.datetime64('2022-11-22T09:59:00.000000'), 59), (146, numpy.datetime64('2022-11-22T10:58:00.000000'), 30), (166, numpy.datetime64('2022-11-22T11:28:00.000000'), 280)]"
219,"[(127, numpy.datetime64('2022-11-16T16:00:00.000000'), 8279), (148, numpy.datetime64('2022-11-22T09:59:00.000000'), 59), (146, numpy.datetime64('2022-11-22T10:58:00.000000'), 30), (166, numpy.datetime64('2022-11-22T11:28:00.000000'), 242), (191, numpy.datetime64('2022-11-22T15:30:00.000000'), 85), (192, numpy.datetime64('2022-11-22T16:55:00.000000'), 22), (217, numpy.datetime64('2022-11-22T17:17:00.000000'), 49), (218, numpy.datetime64('2022-11-22T18:06:00.000000'), 17)]"
159,[]
185,[]
158,[]
188,"[(127, numpy.datetime64('2022-11-16T16:00:00.000000'), 8279), (148, numpy.datetime64('2022-11-22T09:59:00.000000'), 59), (146, numpy.datetime64('2022-11-22T10:58:00.000000'), 30), (166, numpy.datetime64('2022-11-22T11:28:00.000000'), 310), (165, numpy.datetime64('2022-11-22T16:38:00.000000'), 89)]"
160,[]
143,[]
122,[]
75,[]
54,[]
198,"[(127, numpy.datetime64('2022-11-16T16:00:00.000000'), 8279), (148, numpy.datetime64('2022-11-22T09:59:00.000000'), 69), (149, numpy.datetime64('2022-11-22T11:08:00.000000'), 235), (172, numpy.datetime64('2022-11-22T15:03:00.000000'), 57), (197, numpy.datetime64('2022-11-22T16:00:00.000000'), 29), (223, numpy.datetime64('2022-11-22T16:29:00.000000'), 299)]"
270,"[(127, numpy.datetime64('2022-11-16T16:00:00.000000'), 8279), (148, numpy.datetime64('2022-11-22T09:59:00.000000'), 59), (146, numpy.datetime64('2022-11-22T10:58:00.000000'), 30), (166, numpy.datetime64('2022-11-22T11:28:00.000000'), 199), (269, numpy.datetime64('2022-11-22T14:47:00.000000'), 157)]"
221,"[(127, numpy.datetime64('2022-11-16T16:00:00.000000'), 8279), (148, numpy.datetime64('2022-11-22T09:59:00.000000'), 59), (146, numpy.datetime64('2022-11-22T10:58:00.000000'), 30), (166, numpy.datetime64('2022-11-22T11:28:00.000000'), 242), (191, numpy.datetime64('2022-11-22T15:30:00.000000'), 63), (242, numpy.datetime64('2022-11-22T16:33:00.000000'), 54), (244, numpy.datetime64('2022-11-22T17:27:00.000000'), 21), (245, numpy.datetime64('2022-11-22T17:48:00.000000'), 324)]"
301,[]
302,[]
330,[]
331,[]
115,"[(127, numpy.datetime64('2022-11-16T16:00:00.000000'), 8279), (148, numpy.datetime64('2022-11-22T09:59:00.000000'), 59), (146, numpy.datetime64('2022-11-22T10:58:00.000000'), 30), (166, numpy.datetime64('2022-11-22T11:28:00.000000'), 644)]"
133,"[(127, numpy.datetime64('2022-11-16T16:00:00.000000'), 8279), (148, numpy.datetime64('2022-11-22T09:59:00.000000'), 59), (146, numpy.datetime64('2022-11-22T10:58:00.000000'), 30), (166, numpy.datetime64('2022-11-22T11:28:00.000000'), 644), (115, numpy.datetime64('2022-11-22T22:12:00.000000'), 23), (114, numpy.datetime64('2022-11-22T22:35:00.000000'), 13), (134, numpy.datetime64('2022-11-22T22:48:00.000000'), 26)]"
139,[]
134,"[(127, numpy.datetime64('2022-11-16T16:00:00.000000'), 8279), (148, numpy.datetime64('2022-11-22T09:59:00.000000'), 59), (146, numpy.datetime64('2022-11-22T10:58:00.000000'), 30), (166, numpy.datetime64('2022-11-22T11:28:00.000000'), 644), (115, numpy.datetime64('2022-11-22T22:12:00.000000'), 23), (114, numpy.datetime64('2022-11-22T22:35:00.000000'), 13)]"
114,"[(127, numpy.datetime64('2022-11-16T16:00:00.000000'), 8279), (148, numpy.datetime64('2022-11-22T09:59:00.000000'), 59), (146, numpy.datetime64('2022-11-22T10:58:00.000000'), 30), (166, numpy.datetime64('2022-11-22T11:28:00.000000'), 644), (115, numpy.datetime64('2022-11-22T22:12:00.000000'), 23)]"
48,[]
69,[]
92,"[(127, numpy.datetime64('2022-11-16T16:00:00.000000'), 8279), (148, numpy.datetime64('2022-11-22T09:59:00.000000'), 59), (146, numpy.datetime64('2022-11-22T10:58:00.000000'), 30), (166, numpy.datetime64('2022-11-22T11:28:00.000000'), 581)]"
164,[]
4,[]
107,"[(127, numpy.datetime64('2022-11-16T16:00:00.000000'), 8279), (148, numpy.datetime64('2022-11-22T09:59:00.000000'), 69), (149, numpy.datetime64('2022-11-22T11:08:00.000000'), 40), (108, numpy.datetime64('2022-11-22T11:48:00.000000'), 350), (84, numpy.datetime64('2022-11-22T17:38:00.000000'), 7)]"
129,"[(127, numpy.datetime64('2022-11-16T16:00:00.000000'), 8279), (148, numpy.datetime64('2022-11-22T09:59:00.000000'), 69), (149, numpy.datetime64('2022-11-22T11:08:00.000000'), 40), (108, numpy.datetime64('2022-11-22T11:48:00.000000'), 350), (84, numpy.datetime64('2022-11-22T17:38:00.000000'), 7), (107, numpy.datetime64('2022-11-22T17:45:00.000000'), 85)]"
109,[]
125,[]
124,[]
127,[]
82,[]
67,[]
91,[]
93,[]
137,[]
113,[]
112,[]
136,[]
49,[]
72,[]
71,[]
406,[]
805,[]
858,[]
859,[]
967,[]
1142,[]
1080,[]
1022,[]
1079,[]
968,[]
1206,[]
915,[]
916,[]
914,[]
807,[]
911,[]
1078,[]
1207,[]
1278,[]
1277,[]
1344,[]
1415,[]
1492,[]
1345,[]
1346,[]
1208,[]
1209,[]
1143,[]
1144,[]
1145,[]
1417,[]
1493,[]
1494,[]
1572,[]
1081,[]
970,[]
408,[]
382,[]
437,[]
467,[]
409,[]
403,[]
432,[]
433,[]
404,[]
352,[]
351,[]
349,[]
317,[]
374,[]
346,[]
283,[]
410,[]
438,[]
465,[]
490,[]
491,[]
435,[]
436,[]
379,[]
323,[]
289,[]
377,[]
378,[]
592,[]
593,[]
552,"[(127, numpy.datetime64('2022-11-16T16:00:00.000000'), 8279), (148, numpy.datetime64('2022-11-22T09:59:00.000000'), 59), (146, numpy.datetime64('2022-11-22T10:58:00.000000'), 30), (166, numpy.datetime64('2022-11-22T11:28:00.000000'), 199), (269, numpy.datetime64('2022-11-22T14:47:00.000000'), 57), (383, numpy.datetime64('2022-11-22T15:44:00.000000'), 38), (411, numpy.datetime64('2022-11-22T16:22:00.000000'), 52), (442, numpy.datetime64('2022-11-22T17:14:00.000000'), 17), (443, numpy.datetime64('2022-11-22T17:31:00.000000'), 27), (444, numpy.datetime64('2022-11-22T17:58:00.000000'), 42), (446, numpy.datetime64('2022-11-22T18:40:00.000000'), 16), (471, numpy.datetime64('2022-11-22T18:56:00.000000'), 49), (496, numpy.datetime64('2022-11-22T19:45:00.000000'), 37), (523, numpy.datetime64('2022-11-22T20:22:00.000000'), 19)]"
445,"[(127, numpy.datetime64('2022-11-16T16:00:00.000000'), 8279), (148, numpy.datetime64('2022-11-22T09:59:00.000000'), 59), (146, numpy.datetime64('2022-11-22T10:58:00.000000'), 30), (166, numpy.datetime64('2022-11-22T11:28:00.000000'), 199), (269, numpy.datetime64('2022-11-22T14:47:00.000000'), 57), (383, numpy.datetime64('2022-11-22T15:44:00.000000'), 38), (411, numpy.datetime64('2022-11-22T16:22:00.000000'), 52), (442, numpy.datetime64('2022-11-22T17:14:00.000000'), 17), (443, numpy.datetime64('2022-11-22T17:31:00.000000'), 27), (444, numpy.datetime64('2022-11-22T17:58:00.000000'), 24)]"
424,[]
423,[]
416,"[(127, numpy.datetime64('2022-11-16T16:00:00.000000'), 8279), (148, numpy.datetime64('2022-11-22T09:59:00.000000'), 59), (146, numpy.datetime64('2022-11-22T10:58:00.000000'), 30), (166, numpy.datetime64('2022-11-22T11:28:00.000000'), 199), (269, numpy.datetime64('2022-11-22T14:47:00.000000'), 57), (383, numpy.datetime64('2022-11-22T15:44:00.000000'), 38), (411, numpy.datetime64('2022-11-22T16:22:00.000000'), 52), (442, numpy.datetime64('2022-11-22T17:14:00.000000'), 17), (443, numpy.datetime64('2022-11-22T17:31:00.000000'), 27), (444, numpy.datetime64('2022-11-22T17:58:00.000000'), 42), (446, numpy.datetime64('2022-11-22T18:40:00.000000'), 22), (417, numpy.datetime64('2022-11-22T19:02:00.000000'), 23)]"
361,"[(127, numpy.datetime64('2022-11-16T16:00:00.000000'), 8279), (148, numpy.datetime64('2022-11-22T09:59:00.000000'), 59), (146, numpy.datetime64('2022-11-22T10:58:00.000000'), 30), (166, numpy.datetime64('2022-11-22T11:28:00.000000'), 199), (269, numpy.datetime64('2022-11-22T14:47:00.000000'), 57), (383, numpy.datetime64('2022-11-22T15:44:00.000000'), 38), (411, numpy.datetime64('2022-11-22T16:22:00.000000'), 52), (442, numpy.datetime64('2022-11-22T17:14:00.000000'), 17), (443, numpy.datetime64('2022-11-22T17:31:00.000000'), 27), (444, numpy.datetime64('2022-11-22T17:58:00.000000'), 42), (446, numpy.datetime64('2022-11-22T18:40:00.000000'), 22), (417, numpy.datetime64('2022-11-22T19:02:00.000000'), 15), (389, numpy.datetime64('2022-11-22T19:17:00.000000'), 10), (362, numpy.datetime64('2022-11-22T19:27:00.000000'), 27)]"
362,"[(127, numpy.datetime64('2022-11-16T16:00:00.000000'), 8279), (148, numpy.datetime64('2022-11-22T09:59:00.000000'), 59), (146, numpy.datetime64('2022-11-22T10:58:00.000000'), 30), (166, numpy.datetime64('2022-11-22T11:28:00.000000'), 199), (269, numpy.datetime64('2022-11-22T14:47:00.000000'), 57), (383, numpy.datetime64('2022-11-22T15:44:00.000000'), 38), (411, numpy.datetime64('2022-11-22T16:22:00.000000'), 52), (442, numpy.datetime64('2022-11-22T17:14:00.000000'), 17), (443, numpy.datetime64('2022-11-22T17:31:00.000000'), 27), (444, numpy.datetime64('2022-11-22T17:58:00.000000'), 42), (446, numpy.datetime64('2022-11-22T18:40:00.000000'), 22), (417, numpy.datetime64('2022-11-22T19:02:00.000000'), 15), (389, numpy.datetime64('2022-11-22T19:17:00.000000'), 10)]"
371,[]
372,[]
343,[]
344,[]
286,[]
227,[]
252,[]
284,[]
318,[]
250,[]
312,[]
340,[]
368,[]
369,[]
370,[]
341,[]
367,[]
308,[]
276,[]
277,[]
280,[]
310,[]
338,[]
366,[]
274,[]
305,[]
420,"[(127, numpy.datetime64('2022-11-16T16:00:00.000000'), 8279), (148, numpy.datetime64('2022-11-22T09:59:00.000000'), 59), (146, numpy.datetime64('2022-11-22T10:58:00.000000'), 30), (166, numpy.datetime64('2022-11-22T11:28:00.000000'), 199), (269, numpy.datetime64('2022-11-22T14:47:00.000000'), 57), (383, numpy.datetime64('2022-11-22T15:44:00.000000'), 38), (411, numpy.datetime64('2022-11-22T16:22:00.000000'), 52), (442, numpy.datetime64('2022-11-22T17:14:00.000000'), 17), (443, numpy.datetime64('2022-11-22T17:31:00.000000'), 27), (444, numpy.datetime64('2022-11-22T17:58:00.000000'), 42), (446, numpy.datetime64('2022-11-22T18:40:00.000000'), 22), (417, numpy.datetime64('2022-11-22T19:02:00.000000'), 15), (389, numpy.datetime64('2022-11-22T19:17:00.000000'), 10), (390, numpy.datetime64('2022-11-22T19:27:00.000000'), 30), (391, numpy.datetime64('2022-11-22T19:57:00.000000'), 14), (419, numpy.datetime64('2022-11-22T20:11:00.000000'), 68)]"
363,"[(127, numpy.datetime64('2022-11-16T16:00:00.000000'), 8279), (148, numpy.datetime64('2022-11-22T09:59:00.000000'), 59), (146, numpy.datetime64('2022-11-22T10:58:00.000000'), 30), (166, numpy.datetime64('2022-11-22T11:28:00.000000'), 199), (269, numpy.datetime64('2022-11-22T14:47:00.000000'), 57), (383, numpy.datetime64('2022-11-22T15:44:00.000000'), 38), (411, numpy.datetime64('2022-11-22T16:22:00.000000'), 52), (442, numpy.datetime64('2022-11-22T17:14:00.000000'), 17), (443, numpy.datetime64('2022-11-22T17:31:00.000000'), 27), (444, numpy.datetime64('2022-11-22T17:58:00.000000'), 42), (446, numpy.datetime64('2022-11-22T18:40:00.000000'), 22), (417, numpy.datetime64('2022-11-22T19:02:00.000000'), 15), (389, numpy.datetime64('2022-11-22T19:17:00.000000'), 10), (390, numpy.datetime64('2022-11-22T19:27:00.000000'), 47)]"
418,"[(127, numpy.datetime64('2022-11-16T16:00:00.000000'), 8279), (148, numpy.datetime64('2022-11-22T09:59:00.000000'), 59), (146, numpy.datetime64('2022-11-22T10:58:00.000000'), 30), (166, numpy.datetime64('2022-11-22T11:28:00.000000'), 199), (269, numpy.datetime64('2022-11-22T14:47:00.000000'), 57), (383, numpy.datetime64('2022-11-22T15:44:00.000000'), 38), (411, numpy.datetime64('2022-11-22T16:22:00.000000'), 52), (442, numpy.datetime64('2022-11-22T17:14:00.000000'), 17), (443, numpy.datetime64('2022-11-22T17:31:00.000000'), 27), (444, numpy.datetime64('2022-11-22T17:58:00.000000'), 42), (446, numpy.datetime64('2022-11-22T18:40:00.000000'), 22), (417, numpy.datetime64('2022-11-22T19:02:00.000000'), 15), (389, numpy.datetime64('2022-11-22T19:17:00.000000'), 10), (390, numpy.datetime64('2022-11-22T19:27:00.000000'), 30), (391, numpy.datetime64('2022-11-22T19:57:00.000000'), 83)]"
550,[]
579,[]
576,[]
577,[]
578,[]
520,[]
618,[]
662,[]
619,[]
620,[]
621,[]
665,[]
666,[]
664,[]
580,[]
2260,[]
2257,[]
2206,[]
2146,[]
2314,[]
2313,[]
2312,[]
2373,[]
2256,[]
2205,[]
2434,[]
2435,[]
2375,[]
2376,[]
2433,[]
2491,[]
2490,[]
2492,[]
2546,[]
2597,[]
2596,[]
2544,[]
2145,[]
2082,[]
2020,[]
2494,[]
0,[]
11,[]
1052,[]
1053,[]
941,[]
1740,[]
1796,[]
1615,[]
1681,[]
1545,[]
1797,[]
1544,[]
1741,[]
1795,[]
1617,[]
1546,[]
1616,[]
1683,[]
1467,[]
1547,[]
1465,[]
1387,[]
1388,[]
1464,[]
1462,[]
1461,[]
1542,[]
1463,[]
1682,[]
1543,[]
1618,[]
1742,[]
1460,[]
1248,[]
1850,[]
1801,[]
1803,[]
882,[]
881,[]
938,[]
883,[]
940,[]
1998,[]
1902,[]
1807,[]
1691,[]
1694,[]
1693,[]
1749,[]
1752,[]
1753,[]
1627,[]
1628,[]
1557,[]
1479,[]
1402,[]
1808,[]
1946,[]
1947,[]
1948,[]
1997,[]
1855,[]
1690,[]
2060,[]
1949,[]
1950,[]
1751,[]
1692,[]
1999,[]
1901,[]
1900,[]
1852,[]
1853,[]
1805,[]
1750,[]
1854,[]
1806,[]
1748,[]
2061,[]
2000,[]
1804,[]
1899,[]
2884,[]
2892,[]
2883,[]
2876,[]
2874,[]
2882,[]
2877,[]
2911,[]
2905,[]
2906,[]
2896,[]
2887,[]
2881,[]
2880,[]
2888,[]
2902,[]
2903,[]
2907,[]
2912,[]
2895,[]
2894,[]
2875,[]
2885,[]
2893,[]
2904,[]
2865,[]
2866,[]
2909,[]
2913,[]
2886,[]
2878,[]
2869,[]
2871,[]
2872,[]
2879,[]
2870,[]
1330,[]
1331,[]
1401,[]
1262,[]
1263,[]
1478,[]
1403,[]
1261,[]
1480,[]
1264,[]
1390,[]
1389,[]
1319,[]
1251,[]
1250,[]
1285,[]
1284,[]
1214,[]
1146,[]
1505,[]
1504,[]
1582,[]
1581,[]
1713,[]
1771,[]
1654,[]
1653,[]
1651,[]
2096,[]
2033,[]
1972,[]
1923,[]
1922,[]
1874,[]
1873,[]
1919,[]
1829,[]
1579,[]
1424,[]
1711,[]
1348,[]
1419,[]
1359,[]
1429,[]
1428,[]
1421,[]
1577,[]
1499,[]
1230,[]
1365,[]
1511,[]
1300,[]
1366,[]
1512,[]
1716,[]
1503,[]
1276,[]
1347,[]
1349,[]
1645,[]
1578,[]
1770,[]
1715,[]
1150,[]
1217,[]
1149,[]
1580,[]
1352,[]
1502,[]
1825,[]
1718,[]
1717,[]
1872,[]
1656,[]
1648,[]
1712,[]
1213,[]
1212,[]
1084,[]
1420,[]
1281,[]
1282,[]
1587,[]
1586,[]
1585,[]
1652,[]
1427,[]
1975,[]
1977,[]
1932,[]
1931,[]
1426,[]
1422,[]
1425,[]
1583,[]
1501,[]
1283,[]
1286,[]
1215,[]
1211,[]
1210,[]
1083,[]
1655,[]
2220,[]
1355,[]
1772,[]
1436,[]
1435,[]
1589,[]
1163,[]
1735,[]
1791,[]
1841,[]
1840,[]
1219,[]
1220,[]
1647,[]
1646,[]
1279,[]
1714,[]
1575,[]
1576,[]
1498,[]
1573,[]
1496,[]
1497,[]
2177,[]
2176,[]
2294,[]
2293,[]
2237,[]
2236,[]
2364,[]
2302,[]
2301,[]
2245,[]
2056,[]
2057,[]
2055,[]
2184,[]
2120,[]
2244,[]
2538,[]
2537,[]
2591,[]
1940,[]
1989,[]
1990,[]
2539,[]
2482,[]
2483,[]
2424,[]
2121,[]
2119,[]
2050,[]
2049,[]
2048,[]
2185,[]
2243,[]
2299,[]
2241,[]
2485,[]
2542,[]
2353,[]
2292,[]
2419,[]
2478,[]
2479,[]
2536,[]
2484,[]
2486,[]
2354,[]
2416,[]
2242,[]
2355,[]
2300,[]
1991,[]
1992,[]
2477,[]
2534,[]
2535,[]
2588,[]
2587,[]
2630,[]
2051,[]
2116,[]
2175,[]
2586,[]
2541,[]
2178,[]
2179,[]
2240,[]
2239,[]
2238,[]
2052,[]
2053,[]
1987,[]
1988,[]
1939,[]
2594,[]
2593,[]
2358,[]
2357,[]
2420,[]
2247,[]
2427,[]
2428,[]
2181,[]
2180,[]
2417,[]
2590,[]
2297,[]
2361,[]
2362,[]
2423,[]
2422,[]
2174,[]
2356,[]
1941,[]
2365,[]
2112,[]
2047,[]
2182,[]
2359,[]
2533,[]
2295,[]
2115,[]
2632,[]
2631,[]
2186,[]
2298,[]
2360,[]
2235,[]
2291,[]
2487,[]
2246,[]
2425,[]
2117,[]
2543,[]
1893,[]
2421,[]
2476,[]
2592,[]
604,[]
