middle_point_id,reach_time_minutes
2835,65535
2836,65535
2806,65535
2822,65535
2823,65535
2807,65535
2846,65535
887,134
888,158
1326,220
1185,129
999,50
1057,470
1552,843
1120,114
1473,463
944,96
832,155
1257,195
1396,244
1622,895
1327,3784
1184,119
1183,130
1324,505
1255,951
1394,1122
1252,235
1253,196
1182,140
1328,65535
1470,899
1321,234
1322,201
1323,2405
1391,302
1551,892
1393,1043
1472,976
1471,949
1181,434
1118,298
1059,83
1121,102
1469,781
1468,425
1548,694
1325,445
1625,898
1623,861
1258,175
1256,314
791,161
891,109
703,228
704,234
660,241
1553,811
1624,837
1554,954
1474,518
1475,887
1550,941
1549,867
1320,290
1466,334
1541,2515
1318,305
1249,326
1186,136
1003,79
1002,74
741,143
788,135
434,253
697,165
752,255
1056,72
1006,109
907,395
518,291
1011,245
1000,0
1055,1502
997,1382
994,1288
996,1376
995,1363
991,1332
1112,65535
1114,1334
1051,1315
1398,1692
1395,930
1001,51
1811,962
1960,1195
1769,1184
1823,1203
1329,65535
1332,458
1259,955
1200,333
1199,333
1140,543
1141,562
783,170
1689,924
1802,980
1945,1436
2183,1918
2418,2367
1994,1472
1995,1868
2059,1177
1621,65535
1555,936
1754,1036
1180,863
1106,2470
933,2726
827,248
2122,1723
2124,1499
493,302
519,295
544,289
545,293
494,304
470,347
543,303
469,334
517,308
574,301
573,268
495,358
546,309
613,232
612,243
492,316
572,274
571,304
570,284
610,270
575,356
547,338
516,337
611,321
542,412
569,398
609,282
548,2229
549,2264
1404,364
1405,326
1266,278
1193,287
743,151
742,140
747,197
746,172
745,153
744,148
790,157
789,139
839,168
838,130
738,172
739,168
740,156
890,130
834,158
784,167
889,137
856,489
855,445
854,430
853,416
852,407
910,458
909,463
908,407
964,402
965,414
1020,432
966,449
963,392
1021,535
1271,331
1270,329
1339,338
1338,330
1071,302
1072,318
1135,338
1408,345
1337,319
1269,300
1268,290
1136,345
1075,429
1077,534
1076,497
1019,462
1018,453
1074,392
1137,385
1272,351
1274,504
1275,889
1205,932
1204,839
1273,476
1198,311
1197,286
1341,405
1134,293
1133,288
1069,247
1132,255
1073,327
1203,569
1202,462
1201,446
1139,497
1267,273
1138,415
1340,372
1196,263
1342,869
1409,474
1485,792
1407,448
1561,426
1632,468
1484,821
1483,381
1562,418
1194,251
1130,241
1195,264
1335,303
1129,229
1066,213
1128,199
1067,231
1131,259
1334,432
1336,314
1265,335
1333,422
1406,345
857,948
803,982
804,2239
860,2247
969,2200
913,2187
912,2125
861,2257
806,2300
659,231
751,244
658,224
705,238
702,209
706,243
753,267
614,236
701,207
661,252
616,248
848,309
796,253
797,258
798,281
750,244
707,273
615,281
748,204
845,243
846,266
657,286
749,237
795,282
617,291
663,296
794,224
847,284
849,330
902,328
901,294
900,262
793,194
899,272
898,260
897,232
844,222
842,178
841,168
956,256
792,178
843,199
840,178
850,337
903,317
800,322
755,353
756,407
710,491
711,1018
962,383
961,377
904,322
906,383
851,387
802,373
801,337
799,299
959,332
1014,288
1013,280
708,432
709,460
754,307
757,431
1017,442
1016,322
960,324
905,336
958,318
957,302
1070,261
1015,305
1012,285
1068,238
1005,95
1004,84
1060,84
1063,131
1065,148
1127,169
1062,138
1124,146
1123,102
1125,159
1188,171
1122,108
1058,88
947,82
946,129
949,86
945,156
948,97
1190,218
1187,131
951,121
895,170
952,138
1009,176
1008,166
1010,227
1007,128
1061,133
954,223
896,200
953,173
1126,153
1064,125
1189,273
955,258
950,109
892,112
786,134
836,130
837,125
787,132
700,226
655,256
654,226
653,206
698,174
699,173
608,240
696,158
656,254
833,161
785,146
835,165
693,175
894,224
893,140
1343,863
1192,914
1191,550
828,245
829,229
780,230
830,257
779,221
782,163
529,322
886,168
596,317
556,353
598,253
597,264
526,375
555,793
525,866
524,883
523,887
688,213
607,224
650,217
651,194
652,228
737,167
694,164
695,150
645,226
646,193
690,185
600,232
599,239
781,172
736,181
558,297
644,229
643,240
648,249
692,179
691,174
513,305
541,440
540,550
568,343
530,350
831,170
559,324
560,889
642,308
557,330
496,923
471,985
444,1031
446,997
528,326
527,336
562,320
602,286
734,208
466,339
464,279
463,911
478,565
481,1069
480,1045
479,542
647,188
488,329
502,349
689,208
533,384
532,406
531,937
601,921
484,349
508,907
510,470
509,917
534,898
482,1107
506,1040
606,245
455,1000
429,1028
456,1405
457,1244
428,1167
458,1065
554,757
594,860
640,387
639,870
551,865
681,964
636,955
635,964
590,913
778,249
777,252
485,331
486,353
462,312
563,1089
885,198
943,193
564,893
641,381
504,385
503,362
501,391
500,446
561,916
254,380
350,332
321,401
319,356
251,395
375,331
347,365
687,259
565,919
539,378
511,420
536,941
649,303
603,853
605,1406
733,227
735,197
489,1107
514,569
461,1090
460,1101
459,1121
468,343
154,1298
178,1260
203,1231
228,1150
402,396
401,1096
505,1046
522,894
451,1028
452,997
477,936
476,955
483,1066
884,893
431,388
430,1057
454,1001
595,997
395,1017
394,707
422,958
417,958
390,882
538,999
567,260
426,1216
397,1082
398,1103
499,1065
475,1149
497,991
498,1007
311,1040
342,1021
345,969
421,799
515,1267
472,1116
448,1141
473,1167
474,1211
353,412
381,361
256,476
290,451
324,418
380,446
407,328
253,1119
226,1168
201,1181
177,1244
824,416
775,326
826,259
939,847
936,1318
937,913
880,401
566,974
2821,65535
2834,65535
2833,65535
2789,65535
2790,65535
2770,65535
2788,65535
2776,65535
2795,65535
2775,65535
2794,65535
2825,65535
2824,65535
2826,65535
2811,65535
2812,65535
2796,65535
2827,65535
2858,65535
2855,65535
2849,65535
2838,65535
2814,65535
2813,65535
2828,65535
2839,65535
2791,65535
2792,65535
2803,65535
2830,65535
2815,65535
2819,65535
2818,65535
2817,65535
2831,65535
2810,65535
2829,65535
2783,65535
2820,65535
2804,65535
2785,65535
2784,65535
2762,65535
2768,65535
2751,65535
2750,65535
2733,65535
2769,65535
2720,65535
2761,65535
2741,65535
2837,65535
2793,65535
2808,65535
2753,65535
2736,65535
2735,65535
2809,65535
2772,65535
2845,65535
2844,65535
2848,65535
2777,65535
2778,65535
2779,65535
2759,65535
2780,65535
2797,65535
2843,65535
2832,65535
2842,65535
2758,65535
2738,65535
2774,65535
2773,65535
2771,65535
2851,65535
2847,65535
2854,65535
2721,65535
2756,65535
2737,65535
2840,65535
2752,65535
2754,65535
2755,65535
2852,65535
2853,65535
2856,65535
2841,65535
2742,65535
2727,65535
2744,65535
2726,65535
2743,65535
2725,65535
2746,65535
2787,65535
2766,65535
2763,65535
2765,65535
2745,65535
2764,65535
2552,65535
2501,65535
2443,65535
2442,65535
2320,65535
2381,65535
2382,65535
2498,65535
2499,65535
2438,65535
2439,65535
2497,65535
2441,65535
2379,65535
2380,65535
2319,65535
2551,65535
2550,65535
2563,65535
2321,65535
2322,65535
2383,65535
2384,65535
2446,65535
2445,65535
2503,65535
2385,65535
2504,65535
2505,65535
2557,65535
2558,65535
2559,65535
2560,65535
2564,65535
2562,65535
2561,65535
2605,65535
2609,65535
2565,65535
2566,65535
2515,4756
2397,4519
2457,4736
2458,4720
2401,65535
2337,4432
2336,4436
2399,4478
2398,4499
2402,65535
2333,4656
2273,4691
2219,4715
2218,4727
2159,4752
2454,65535
2393,65535
2512,65535
2502,65535
2608,65535
2156,65535
2155,65535
2154,65535
2213,65535
2212,65535
2211,65535
2210,65535
2264,65535
2324,65535
2323,65535
2030,65535
2094,65535
2157,65535
2450,65535
2388,65535
2387,65535
2326,65535
2266,65535
2265,65535
2508,65535
2396,4588
2335,4606
2334,4617
2158,4777
2279,3866
2278,3830
2222,3799
2221,3781
2276,3763
2275,1885
2261,65535
2207,65535
2149,65535
2554,65535
2599,65535
2633,65535
2664,65535
2689,65535
2690,65535
2691,65535
2692,65535
2152,65535
2089,65535
2088,65535
2025,65535
2603,65535
2602,65535
2556,65535
2693,65535
2671,65535
2670,65535
2694,65535
2553,65535
2665,65535
2705,65535
2710,65535
2668,65535
2639,65535
2463,65535
2521,65535
2572,65535
2451,65535
2390,65535
2391,65535
2392,65535
2215,65535
2268,65535
2093,65535
2092,65535
2028,65535
2024,65535
2150,65535
2086,65535
2209,65535
2023,65535
2087,65535
2148,65535
2262,65535
2327,65535
1560,446
1630,914
1631,876
1559,912
1629,971
1558,873
1634,866
1633,479
1482,798
1481,777
1699,793
1700,824
1701,503
1563,871
2070,1258
2008,1215
2009,1202
1959,1168
1958,1172
2006,1091
1957,1087
1956,1071
2193,1506
2132,1446
1912,1211
1911,1131
1865,1087
1866,1179
2007,1145
2069,1151
2010,1233
2011,1320
1961,1209
2072,1257
1913,1420
1867,1230
1962,1248
1914,1257
1915,1282
1909,1003
1636,818
1635,835
1564,849
1702,774
1637,851
1638,885
1565,853
1486,857
1760,818
1704,955
1703,942
1763,1035
1762,1009
1817,1047
1705,1102
1863,900
1815,866
1759,985
863,1585
758,1673
808,1629
982,1717
1036,1789
1099,2433
1100,1852
1166,2014
1167,2509
1237,2166
1238,2201
1375,2271
1308,2340
1309,2249
1236,2467
1235,2101
1101,1880
1037,1822
971,1292
1025,1282
1026,1265
1027,1285
1089,1250
720,1630
674,1676
864,1554
865,1529
919,1306
1024,1255
975,1419
974,1357
1028,1353
873,1570
925,1516
924,1493
917,1370
918,1346
623,1845
712,1720
713,1754
667,1759
622,1815
809,1615
719,1602
765,1559
972,1306
868,1506
869,1518
815,1539
920,1414
973,1321
981,1686
926,1595
927,1603
928,1627
1354,1137
1288,1161
1218,1226
1152,1202
1023,1209
1353,1122
1085,1167
1148,1120
1147,1113
1082,1090
772,1656
771,1613
819,1588
584,1750
628,1717
629,1744
1033,1631
978,1588
1031,1561
1030,1514
1029,1496
1091,1473
1035,1715
1034,1655
979,1615
1526,2390
1449,2428
1378,2456
1448,2379
1524,2357
1038,1864
1447,2420
1768,1190
1710,1148
1767,1163
391,836
365,1020
339,1063
400,1060
393,772
392,810
396,1045
399,1077
443,1111
449,895
450,865
419,962
414,1032
415,963
387,955
388,926
389,879
282,994
281,1059
314,1070
313,1097
405,295
411,1234
442,1193
255,1079
376,943
373,1010
278,1105
275,1139
248,1237
335,1067
334,1044
306,1094
307,1128
176,1228
225,1061
320,944
249,1095
287,1156
285,992
776,276
731,282
315,1020
316,1119
204,1264
440,1008
439,991
166,1425
269,1342
383,1280
1247,65535
1246,65535
1384,65535
1679,65535
1178,3903
1105,2512
1172,2528
1173,2504
1242,3092
1241,2570
1314,3127
1313,3154
1171,2553
1382,4335
1243,2586
1317,4416
1107,2755
1108,3054
1109,3108
1041,2563
1043,3818
1042,3739
1044,4290
1176,3804
1174,4303
1177,3852
1110,3859
985,2632
986,2675
932,2693
774,364
730,294
825,320
728,394
729,320
727,991
682,350
684,978
685,298
732,300
683,2302
2134,1603
2194,1593
2068,1213
2129,1267
1905,1049
1907,1140
1906,1090
1953,1345
2002,1386
2064,1433
2125,1463
2137,1827
2196,1780
2195,1737
1859,1026
1810,1019
1755,909
2131,1264
2192,1300
1862,1176
1861,1075
1812,993
1860,1115
1809,1102
1756,880
1869,1236
1822,1205
1821,1221
1916,1275
1819,1113
1764,1092
1820,1195
1698,826
1757,867
1566,895
1567,922
1488,895
1489,1016
1412,927
1413,939
1414,880
1818,1132
1568,1074
1410,826
2128,1301
2189,1329
2066,1286
2065,1408
2067,1264
1643,1108
1571,1058
1491,1022
2004,1369
2003,1387
1697,930
2135,1598
2075,1445
1642,1084
1955,1122
2130,1477
2005,1301
1858,1034
1816,3688
1864,3681
1766,1157
1910,981
1868,1227
2188,1411
2127,1380
1903,1285
2001,1469
2063,2262
2062,1430
1813,996
1758,917
1639,935
1640,961
1952,1388
2126,3770
1569,971
1965,1302
1966,1348
2014,1368
1490,980
1917,1261
1870,1250
1871,1264
1570,1005
1707,1098
2076,1435
2013,1400
1964,1354
1487,877
1908,1057
2251,65535
2199,65535
2198,65535
2136,1585
1641,1105
1954,1303
1765,1176
1857,1133
2187,1885
1904,1357
1856,1245
1951,1355
1708,1308
245,3999
244,3982
357,3986
246,4114
247,4143
197,4237
223,4215
44,4579
43,4639
3,4775
23,4749
22,4738
63,4521
85,4463
84,4418
108,3918
149,3872
172,4263
296,3966
294,4014
355,4114
354,4146
326,4224
295,4123
291,4135
293,4257
260,4143
356,4174
441,3774
412,3797
329,4132
300,4076
148,3846
214,4084
146,3967
110,4048
262,4109
258,4522
292,4285
257,4587
235,4107
187,4007
212,4063
211,4090
186,4011
162,3985
161,4064
165,3963
189,4163
238,4244
237,4209
263,4145
265,4164
266,4142
267,4130
268,3970
26,4739
25,4707
105,65535
62,65535
83,65535
126,4085
175,4520
152,4454
151,4444
150,4403
103,4023
242,3916
191,3870
192,3921
217,3944
218,3997
145,3907
144,3991
167,3899
190,3877
219,4014
159,4111
185,4055
158,4168
188,3999
160,4076
143,65535
122,65535
75,65535
54,65535
198,4648
270,4011
221,4052
301,4109
302,3946
330,3973
331,3995
115,4047
133,4106
139,4003
134,4080
114,4604
48,65535
69,65535
92,4280
164,4073
4,65535
107,4425
129,4510
109,3950
125,3991
124,3965
127,65535
82,65535
67,65535
91,4448
93,4247
137,4382
113,4402
112,4360
136,65535
49,65535
72,65535
71,65535
406,988
805,2290
858,2095
859,2236
967,594
1142,729
1080,1935
1022,1976
1079,1968
968,2091
1206,686
915,2242
916,2277
914,2214
807,2329
911,3436
1078,2192
1207,790
1278,815
1277,813
1344,854
1415,1032
1492,1087
1345,894
1346,859
1208,796
1209,996
1143,1033
1144,1049
1145,1079
1417,995
1493,1105
1494,1123
1572,1139
1081,2261
970,2464
408,444
382,384
437,345
467,357
409,963
403,991
432,1123
433,1016
404,1036
352,1061
351,1087
349,1066
317,412
374,1228
346,1247
283,1053
410,973
438,964
465,345
490,471
491,1019
435,400
436,425
379,1595
323,1091
289,1122
377,1069
378,1091
592,956
593,926
552,917
445,1036
424,1153
423,1110
416,2377
361,993
362,969
371,1099
372,1083
343,1109
344,1094
286,1435
227,1143
252,1045
284,1007
318,1027
250,1078
312,1068
340,1035
368,1041
369,1174
370,1117
341,1091
367,970
308,1174
276,1158
277,1285
280,1098
310,1084
338,1040
366,1068
274,1173
305,1182
420,1002
363,1031
418,1039
550,2281
579,2304
576,2249
577,2261
578,2277
520,2257
618,2271
662,2301
619,2288
620,2301
621,2295
665,2277
666,2269
664,2297
580,2316
2260,65535
2257,65535
2206,65535
2146,65535
2314,65535
2313,65535
2312,65535
2373,65535
2256,65535
2205,65535
2434,65535
2435,65535
2375,65535
2376,65535
2433,65535
2491,65535
2490,65535
2492,65535
2546,65535
2597,65535
2596,65535
2544,65535
2145,65535
2082,65535
2020,65535
2494,65535
0,65535
11,65535
1052,1468
1053,1455
941,1440
1740,2307
1796,2348
1615,497
1681,2223
1545,385
1797,2350
1544,431
1741,2335
1795,2520
1617,467
1546,412
1616,477
1683,2292
1467,396
1547,500
1465,370
1387,448
1388,409
1464,429
1462,3019
1461,3040
1542,2931
1463,2983
1682,2241
1543,485
1618,2193
1742,2405
1460,2730
1248,2262
1850,1012
1801,2178
1803,942
882,259
881,268
938,858
883,279
940,2358
1998,1156
1902,1241
1807,1089
1691,887
1694,973
1693,1012
1749,903
1752,951
1753,1004
1627,950
1628,921
1557,899
1479,741
1402,471
1808,1075
1946,1075
1947,1106
1948,1148
1997,1152
1855,1182
1690,877
2060,1375
1949,1407
1950,1235
1751,921
1692,929
1999,1221
1901,1415
1900,1456
1852,1605
1853,1484
1805,934
1750,906
1854,1250
1806,992
1748,924
2061,1416
2000,1294
1804,927
1899,1625
2884,65535
2892,65535
2883,65535
2876,65535
2874,65535
2882,65535
2877,65535
2911,65535
2905,65535
2906,65535
2896,65535
2887,65535
2881,65535
2880,65535
2888,65535
2902,65535
2903,65535
2907,65535
2912,65535
2895,65535
2894,65535
2875,65535
2885,65535
2893,65535
2904,65535
2865,65535
2866,65535
2909,65535
2913,65535
2886,65535
2878,65535
2869,65535
2871,65535
2872,65535
2879,65535
2870,65535
1330,526
1331,475
1401,474
1262,512
1263,508
1478,497
1403,409
1261,900
1480,743
1264,736
1390,329
1389,322
1319,299
1251,765
1250,841
1285,1110
1284,1126
1214,1118
1146,1097
1505,1187
1504,1175
1582,1159
1581,1124
1713,1096
1771,1071
1654,1280
1653,1255
1651,1155
2096,1813
2033,1796
1972,1765
1923,1713
1922,1693
1874,1644
1873,1608
1919,1504
1829,2514
1579,1023
1424,1087
1711,1057
1348,899
1419,1050
1359,1291
1429,1242
1428,1228
1421,946
1577,984
1499,956
1230,1645
1365,1581
1511,1504
1300,1627
1366,1598
1512,1531
1716,1336
1503,1211
1276,1478
1347,1046
1349,1032
1645,1032
1578,1010
1770,1063
1715,1129
1150,1264
1217,1258
1149,1241
1580,1069
1352,1161
1502,1105
1825,1455
1718,1409
1717,1384
1872,1492
1656,1395
1648,1135
1712,1077
1213,1140
1212,1181
1084,1190
1420,930
1281,1096
1282,1216
1587,1236
1586,1205
1585,1195
1652,1179
1427,1231
1975,2337
1977,2405
1932,2475
1931,3100
1426,1239
1422,975
1425,1226
1583,1248
1501,1107
1283,1103
1286,1140
1215,1248
1211,1142
1210,1151
1083,1161
1655,1318
2220,1864
1355,1372
1772,1124
1436,1547
1435,1538
1589,1473
1163,2459
1735,2688
1791,2621
1841,2598
1840,2554
1219,1277
1220,1319
1647,1098
1646,1107
1279,879
1714,1106
1575,1035
1576,997
1498,1005
1573,1110
1496,1065
1497,1036
2177,2485
2176,2555
2294,2472
2293,2591
2237,2532
2236,2561
2364,2333
2302,2273
2301,2195
2245,2097
2056,2227
2057,2313
2055,2206
2184,2258
2120,2264
2244,2178
2538,2518
2537,2499
2591,2615
1940,2390
1989,2398
1990,2334
2539,2518
2482,2509
2483,2471
2424,2367
2121,2325
2119,2138
2050,2447
2049,2525
2048,2943
2185,2291
2243,2017
2299,2231
2241,2180
2485,2549
2542,2604
2353,2563
2292,2470
2419,2357
2478,2404
2479,2439
2536,2466
2484,2510
2486,2503
2354,2402
2416,2579
2242,2225
2355,2440
2300,2238
1991,2338
1992,2345
2477,2395
2534,2416
2535,2531
2588,2436
2587,2450
2630,2501
2051,2259
2116,2153
2175,2588
2586,65535
2541,2671
2178,2460
2179,2263
2240,2210
2239,2434
2238,2504
2052,2390
2053,2356
1987,2630
1988,2478
1939,2502
2594,2621
2593,2606
2358,2324
2357,2334
2420,2390
2247,2386
2427,2476
2428,2498
2181,2057
2180,2106
2417,2384
2590,2596
2297,2219
2361,2411
2362,2294
2423,2382
2422,2347
2174,2818
2356,2445
1941,2379
2365,2510
2112,2823
2047,2965
2182,2196
2359,2273
2533,3211
2295,2536
2115,2226
2632,2656
2631,2595
2186,1756
2298,2305
2360,2329
2235,2781
2291,2794
2487,2725
2246,2318
2425,3126
2117,2450
2543,2678
1893,65535
2421,2482
2476,2400
2592,2654
604,2266
