middle_point_id,reach_time_minutes
2835,65535
2836,65535
2806,65535
2822,65535
2823,65535
2807,65535
2846,65535
887,444
888,432
1326,509
1185,429
999,530
1057,721
1552,574
1120,414
1473,699
944,576
832,433
1257,495
1396,739
1622,595
1327,904
1184,419
1183,429
1324,695
1255,773
1394,642
1252,1343
1253,1381
1182,1425
1328,65535
1470,660
1321,1339
1322,1362
1323,725
1391,1332
1551,592
1393,684
1472,658
1471,637
1181,1934
1118,1439
1059,388
1121,402
1469,808
1468,1260
1548,705
1325,805
1625,532
1623,561
1258,459
1256,554
791,319
891,385
703,277
704,271
660,275
1553,579
1624,547
1554,590
1474,640
1475,693
1550,602
1549,654
1320,1336
1466,1322
1541,2200
1318,1386
1249,1406
1186,435
1003,381
1002,385
741,400
788,362
434,464
697,370
752,272
1056,552
1006,356
907,141
518,335
1011,331
1000,428
1055,2102
997,2071
994,1965
996,2037
995,2021
991,1812
1112,4445
1114,2052
1051,2015
1398,732
1395,750
1001,389
1811,556
1960,756
1769,507
1823,517
1329,65535
1332,342
1259,2216
1200,237
1199,239
1140,99
1141,97
783,443
1689,619
1802,680
1945,841
2183,2398
2418,2847
1994,875
1995,908
2059,970
1621,65535
1555,487
1754,641
1180,1650
1106,3045
933,3206
827,548
2122,2813
2124,809
493,342
519,335
544,327
545,328
494,342
470,362
543,332
469,358
517,346
574,331
573,319
495,359
546,333
613,309
612,312
492,350
572,325
571,337
570,344
610,330
575,383
547,378
516,368
611,321
542,347
569,381
609,345
548,410
549,439
1404,317
1405,311
1266,299
1193,347
743,389
742,381
747,310
746,313
745,323
744,365
790,325
789,341
839,348
838,363
738,449
739,446
740,412
890,393
834,421
784,432
889,419
856,193
855,180
854,188
853,218
852,167
910,172
909,161
908,134
964,138
965,101
1020,0
966,123
963,171
1021,169
1271,240
1270,243
1339,258
1338,269
1071,274
1072,249
1135,247
1408,283
1337,277
1269,255
1268,280
1136,222
1075,80
1077,92
1076,54
1019,47
1018,82
1074,178
1137,205
1272,253
1274,226
1275,267
1205,212
1204,179
1273,347
1198,256
1197,285
1341,282
1134,252
1133,289
1069,304
1132,293
1073,209
1203,163
1202,222
1201,261
1139,102
1267,286
1138,235
1340,252
1196,322
1342,269
1409,319
1485,323
1407,311
1561,446
1632,439
1484,335
1483,402
1562,436
1194,306
1130,303
1195,312
1335,303
1129,330
1066,335
1128,436
1067,331
1131,299
1334,364
1336,314
1265,335
1333,339
1406,345
857,828
803,3562
804,7039
860,7047
969,7000
913,6987
912,6925
861,7057
806,7100
659,277
751,260
658,288
705,274
702,290
706,282
753,244
614,282
701,298
661,280
616,308
848,210
796,245
797,229
798,218
750,264
707,321
615,281
748,300
845,282
846,253
657,406
749,293
795,282
617,351
663,356
794,344
847,242
849,173
902,248
901,272
900,286
793,328
899,411
898,376
897,363
844,320
842,335
841,323
956,341
792,320
843,340
840,365
850,156
903,227
800,161
755,173
756,223
710,253
711,298
962,222
961,256
904,208
906,146
851,150
802,185
801,165
799,191
959,272
1014,284
1013,328
708,905
709,879
754,195
757,251
1017,324
1016,350
960,247
905,161
958,320
957,7510
1070,313
1015,269
1012,320
1068,325
1005,361
1004,381
1060,392
1063,366
1065,387
1127,409
1062,366
1124,384
1123,407
1125,372
1188,411
1122,408
1058,397
947,406
946,439
949,365
945,456
948,369
1190,533
1187,432
951,353
895,340
952,357
1009,416
1008,373
1010,343
1007,360
1061,418
954,463
896,335
953,373
1126,397
1064,370
1189,513
955,356
950,355
892,377
786,408
836,409
837,370
787,386
700,308
655,317
654,324
653,343
698,372
699,333
608,377
696,402
656,314
833,426
785,434
835,427
693,464
894,345
893,365
1343,263
1192,395
1191,395
828,538
829,524
780,477
830,519
779,536
782,443
529,540
886,453
596,562
556,577
598,540
597,551
526,571
555,600
525,599
524,614
523,608
688,486
607,420
650,491
651,455
652,449
737,451
694,429
695,410
645,496
646,468
690,464
600,499
599,510
781,456
736,460
558,571
644,517
643,493
648,478
692,461
691,458
513,451
541,357
540,418
568,439
530,559
831,444
559,594
560,599
642,560
557,559
496,617
471,630
444,702
446,659
528,545
527,553
562,537
602,506
734,480
466,483
464,412
463,425
478,654
481,592
480,631
479,629
647,488
488,456
502,557
689,473
533,543
532,551
531,562
601,541
484,587
508,574
510,610
509,620
534,596
482,609
506,571
606,425
455,651
429,600
456,676
457,645
428,627
458,616
554,626
594,704
640,627
639,746
551,631
681,694
636,672
635,659
590,634
778,545
777,552
485,570
486,570
462,527
563,543
885,464
943,1331
564,555
641,579
504,584
503,567
501,582
500,648
561,567
254,618
350,568
321,596
319,612
251,654
375,575
347,598
687,499
565,517
539,468
511,590
536,615
649,497
603,514
605,663
733,494
735,469
489,472
514,437
461,591
460,621
459,640
468,374
154,755
178,719
203,690
228,669
402,606
401,618
505,565
522,639
451,841
452,819
477,701
476,748
483,776
884,502
431,564
430,576
454,1343
595,577
395,720
394,722
422,749
417,698
390,741
538,450
567,405
426,799
397,670
398,679
499,696
475,741
497,628
498,649
311,614
342,606
345,565
421,756
515,398
472,681
448,712
473,736
474,777
353,593
381,584
256,656
290,610
324,599
380,578
407,552
253,644
226,687
201,700
177,735
824,656
775,597
826,559
939,607
936,1798
937,673
880,729
566,492
2821,65535
2834,65535
2833,65535
2789,65535
2790,65535
2770,65535
2788,65535
2776,65535
2795,65535
2775,65535
2794,65535
2825,65535
2824,65535
2826,65535
2811,65535
2812,65535
2796,65535
2827,65535
2858,65535
2855,65535
2849,65535
2838,65535
2814,65535
2813,65535
2828,65535
2839,65535
2791,65535
2792,65535
2803,65535
2830,65535
2815,65535
2819,65535
2818,65535
2817,65535
2831,65535
2810,65535
2829,65535
2783,65535
2820,65535
2804,65535
2785,65535
2784,65535
2762,65535
2768,65535
2751,65535
2750,65535
2733,65535
2769,65535
2720,65535
2761,65535
2741,65535
2837,65535
2793,65535
2808,65535
2753,65535
2736,65535
2735,65535
2809,65535
2772,65535
2845,65535
2844,65535
2848,65535
2777,65535
2778,65535
2779,65535
2759,65535
2780,65535
2797,65535
2843,65535
2832,65535
2842,65535
2758,65535
2738,65535
2774,65535
2773,65535
2771,65535
2851,65535
2847,65535
2854,65535
2721,65535
2756,65535
2737,65535
2840,65535
2752,65535
2754,65535
2755,65535
2852,65535
2853,65535
2856,65535
2841,65535
2742,65535
2727,65535
2744,65535
2726,65535
2743,65535
2725,65535
2746,65535
2787,65535
2766,65535
2763,65535
2765,65535
2745,65535
2764,65535
2552,65535
2501,65535
2443,65535
2442,65535
2320,65535
2381,65535
2382,65535
2498,65535
2499,65535
2438,65535
2439,65535
2497,65535
2441,65535
2379,65535
2380,65535
2319,65535
2551,65535
2550,65535
2563,7557
2321,4213
2322,4182
2383,4194
2384,4905
2446,4948
2445,4956
2503,4975
2385,4939
2504,7678
2505,7700
2557,7724
2558,7749
2559,7773
2560,7737
2564,7513
2562,7625
2561,7665
2605,7680
2609,5264
2565,5209
2566,5194
2515,5139
2397,3559
2457,5120
2458,5104
2401,3731
2337,3472
2336,3476
2399,3518
2398,3539
2402,3765
2333,3696
2273,3731
2219,3755
2218,3767
2159,3792
2454,5824
2393,5790
2512,7524
2502,8309
2608,7943
2156,3914
2155,3946
2154,3975
2213,3991
2212,4003
2211,4051
2210,4092
2264,4099
2324,4133
2323,4149
2030,65535
2094,65535
2157,3878
2450,7921
2388,7970
2387,8038
2326,8075
2266,4280
2265,4235
2508,7892
2396,3628
2335,3646
2334,3657
2158,3817
2279,7345
2278,7309
2222,7278
2221,7260
2276,7242
2275,2844
2261,5727
2207,6585
2149,6644
2554,5027
2599,5057
2633,5095
2664,5130
2689,5167
2690,5193
2691,5209
2692,5233
2152,6338
2089,7046
2088,6384
2025,7179
2603,65535
2602,65535
2556,65535
2693,7172
2671,8955
2670,8935
2694,8894
2553,65535
2665,65535
2705,65535
2710,65535
2668,65535
2639,65535
2463,6586
2521,6622
2572,6645
2451,7806
2390,7775
2391,7595
2392,6232
2215,7800
2268,65535
2093,65535
2092,65535
2028,65535
2024,6414
2150,4452
2086,4482
2209,4439
2023,5553
2087,5506
2148,8599
2262,5712
2327,65535
1560,473
1630,501
1631,459
1559,501
1629,440
1558,393
1634,411
1633,421
1482,382
1481,456
1699,462
1700,435
1701,449
1563,399
2070,783
2008,772
2009,779
1959,752
1958,714
2006,739
1957,710
1956,703
2193,1396
2132,1367
1912,788
1911,803
1865,652
1866,751
2007,777
2069,812
2010,823
2011,909
1961,793
2072,839
1913,817
1867,848
1962,835
1914,844
1915,800
1909,738
1636,399
1635,413
1564,381
1702,425
1637,415
1638,385
1565,366
1486,347
1760,632
1704,457
1703,434
1763,485
1762,449
1817,522
1705,438
1863,1310
1815,1386
1759,447
863,1808
758,1901
808,1852
982,2023
1036,2030
1099,2065
1100,2093
1166,2494
1167,2989
1237,2646
1238,2681
1375,2751
1308,2820
1309,2729
1236,2947
1235,2581
1101,2124
1037,2061
971,1604
1025,1587
1026,1602
1027,1615
1089,1628
720,1864
674,1910
864,1690
865,1711
919,1606
1024,1551
975,1725
974,1695
1028,1650
873,2050
925,1996
924,1973
917,1670
918,1646
623,2085
712,1957
713,1990
667,1995
622,2053
809,1838
719,1838
765,1799
972,1636
868,1748
869,1760
815,1779
920,2015
973,1681
981,1974
926,2075
927,2083
928,2107
1354,1600
1288,1541
1218,1517
1152,1586
1023,1515
1353,1614
1085,1495
1148,1425
1147,1418
1082,1369
772,2136
771,2093
819,2068
584,1984
628,1951
629,1940
1033,1871
978,1826
1031,1799
1030,1753
1029,1736
1091,1713
1035,1952
1034,1895
979,1853
1526,2870
1449,2908
1378,2936
1448,2859
1524,2837
1038,2108
1447,2900
1768,510
1710,468
1767,498
391,729
365,715
339,666
400,642
393,808
392,773
396,709
399,687
443,807
449,843
450,818
419,840
414,810
415,723
387,761
388,743
389,734
282,685
281,593
314,632
313,664
405,535
411,1714
442,1673
255,640
376,553
373,592
278,626
275,688
248,735
335,832
334,816
306,775
307,764
176,787
225,674
320,604
249,796
287,610
285,657
776,557
731,575
315,577
316,588
204,721
440,373
439,421
166,1905
269,1822
383,1760
1247,4390
1246,4412
1384,4496
1679,4658
1178,4383
1105,3049
1172,3068
1173,3118
1242,3120
1241,3112
1314,3269
1313,3175
1171,3094
1382,3375
1243,3317
1317,3456
1107,3057
1108,3236
1109,3521
1041,3066
1043,3276
1042,3267
1044,3330
1176,4284
1174,3343
1177,4332
1110,4339
985,3112
986,3155
932,3173
774,604
730,581
825,612
728,639
729,620
727,721
682,636
684,587
685,587
732,578
683,687
2134,1361
2194,1362
2068,1211
2129,1265
1905,661
1907,622
1906,628
1953,672
2002,724
2064,760
2125,779
2137,1601
2196,1555
2195,1502
1859,563
1810,606
1755,515
2131,793
2192,830
1862,1299
1861,608
1812,553
1860,577
1809,680
1756,505
1869,612
1822,540
1821,519
1916,643
1819,515
1764,476
1820,536
1698,468
1757,510
1566,426
1567,376
1488,339
1489,334
1412,300
1413,309
1414,291
1818,561
1568,457
1410,284
2128,1296
2189,1323
2066,1261
2065,1250
2067,1262
1643,452
1571,385
1491,300
2004,1291
2003,825
1697,489
2135,1313
2075,1237
1642,421
1955,670
2130,1480
2005,770
1858,622
1816,8488
1864,8481
1766,492
1910,1286
1868,635
2188,1675
2127,1644
1903,743
2001,853
2063,1302
2062,1314
1813,516
1758,468
1639,394
1640,398
1952,745
2126,8570
1569,357
1965,673
1966,719
2014,852
1490,312
1917,601
1870,564
1871,574
1570,348
1707,444
2076,918
2013,1286
1964,793
1487,334
1908,1249
2251,3681
2199,3625
2198,3488
2136,1300
1641,553
1954,1306
1765,529
1857,670
2187,925
1904,721
1856,645
1951,782
1708,1323
245,8799
244,8782
357,8786
246,8914
247,8943
197,9037
223,9015
44,9379
43,9439
3,9575
23,9549
22,9538
63,9321
85,9263
84,9218
108,8718
149,8672
172,9063
296,8766
294,8814
355,8914
354,8946
326,9024
295,8923
291,8935
293,9057
260,8943
356,8974
441,8574
412,8597
329,8932
300,8876
148,8646
214,8884
146,8767
110,8848
262,8909
258,9322
292,9085
257,9387
235,8907
187,8807
212,8863
211,8890
186,8811
162,8785
161,8864
165,8763
189,8963
238,9044
237,9009
263,8945
265,8964
266,8942
267,8930
268,8770
26,9539
25,9507
105,65535
62,65535
83,65535
126,8885
175,9320
152,9254
151,9244
150,9203
103,8823
242,8716
191,8670
192,8721
217,8744
218,8797
145,8707
144,8791
167,8699
190,8677
219,8814
159,8911
185,8855
158,8968
188,8799
160,8876
143,65535
122,65535
75,65535
54,65535
198,9448
270,8811
221,8852
301,8909
302,8746
330,8773
331,8795
115,8847
133,8906
139,8803
134,8880
114,9404
48,65535
69,65535
92,9080
164,8873
4,65535
107,9225
129,9310
109,8750
125,8791
124,8765
127,65535
82,65535
67,65535
91,9248
93,9047
137,9182
113,9202
112,9160
136,65535
49,65535
72,65535
71,65535
406,589
805,7090
858,6895
859,7036
967,1074
1142,1209
1080,6735
1022,6776
1079,6768
968,6891
1206,1166
915,7042
916,7077
914,7014
807,7129
911,8236
1078,6992
1207,1224
1278,1268
1277,1271
1344,1291
1415,1332
1492,1387
1345,1348
1346,1318
1208,1216
1209,1296
1143,1333
1144,1349
1145,1364
1417,1344
1493,1404
1494,1423
1572,1438
1081,7061
970,7264
408,564
382,599
437,430
467,410
409,581
403,594
432,575
433,553
404,551
352,581
351,575
349,604
317,645
374,590
346,609
283,658
410,457
438,438
465,434
490,430
491,382
435,516
436,518
379,634
323,691
289,658
377,590
378,600
592,665
593,705
552,618
445,676
424,734
423,1336
416,1410
361,813
362,789
371,627
372,609
343,598
344,578
286,651
227,658
252,654
284,644
318,628
250,736
312,648
340,634
368,673
369,761
370,706
341,682
367,656
308,731
276,706
277,688
280,678
310,642
338,689
366,1380
274,1370
305,1572
420,1359
363,794
418,800
550,7081
579,7104
576,7049
577,7061
578,7077
520,7057
618,7071
662,7101
619,7088
620,7101
621,7095
665,7077
666,7069
664,7097
580,7116
2260,65535
2257,65535
2206,65535
2146,65535
2314,65535
2313,65535
2312,65535
2373,65535
2256,65535
2205,65535
2434,65535
2435,65535
2375,65535
2376,65535
2433,65535
2491,65535
2490,65535
2492,65535
2546,65535
2597,65535
2596,65535
2544,65535
2145,65535
2082,65535
2020,65535
2494,65535
0,65535
11,65535
1052,2068
1053,2055
941,2095
1740,1501
1796,1575
1615,1359
1681,1436
1545,1304
1797,1615
1544,1315
1741,1593
1795,1896
1617,1290
1546,1274
1616,1344
1683,1381
1467,1309
1547,1250
1465,1372
1387,1448
1388,1412
1464,1432
1462,2059
1461,2080
1542,2144
1463,2023
1682,1568
1543,1436
1618,1317
1742,1694
1460,2246
1248,1413
1850,697
1801,698
1803,676
882,559
881,569
938,618
883,579
940,2838
1998,1215
1902,889
1807,546
1691,587
1694,493
1693,1312
1749,618
1752,567
1753,524
1627,471
1628,441
1557,419
1479,371
1402,341
1808,535
1946,1435
1947,1380
1948,1284
1997,1170
1855,580
1690,566
2060,1390
1949,1439
1950,927
1751,578
1692,629
1999,1231
1901,1305
1900,1246
1852,1218
1853,1180
1805,694
1750,623
1854,889
1806,688
1748,655
2061,1340
2000,1294
1804,699
1899,1267
2884,65535
2892,65535
2883,65535
2876,65535
2874,65535
2882,65535
2877,65535
2911,65535
2905,65535
2906,65535
2896,65535
2887,65535
2881,65535
2880,65535
2888,65535
2902,65535
2903,65535
2907,65535
2912,65535
2895,65535
2894,65535
2875,65535
2885,65535
2893,65535
2904,65535
2865,65535
2866,65535
2909,65535
2913,65535
2886,65535
2878,65535
2869,65535
2871,65535
2872,65535
2879,65535
2870,65535
1330,395
1331,348
1401,346
1262,357
1263,349
1478,357
1403,336
1261,366
1480,347
1264,347
1390,1323
1389,1342
1319,1369
1251,1355
1250,1387
1285,1442
1284,1446
1214,1418
1146,1384
1505,1667
1504,1601
1582,1639
1581,1567
1713,1546
1771,1528
1654,1678
1653,1651
1651,1603
2096,2782
2033,2742
1972,2713
1923,2645
1922,2623
1874,2317
1873,2030
1919,1983
1829,2994
1579,1503
1424,1495
1711,1520
1348,1344
1419,1364
1359,1771
1429,1722
1428,1708
1421,1421
1577,1455
1499,1428
1230,2015
1365,1952
1511,1874
1300,1997
1366,1969
1512,1902
1716,1736
1503,2013
1276,1298
1347,1328
1349,1376
1645,1512
1578,1490
1770,1524
1715,1579
1150,1483
1217,1497
1149,1459
1580,1529
1352,1536
1502,1518
1825,1936
1718,1891
1717,1865
1872,1969
1656,1780
1648,1555
1712,1532
1213,1408
1212,1389
1084,1430
1420,1410
1281,1334
1282,1395
1587,1774
1586,1741
1585,1730
1652,1698
1427,1876
1975,2817
1977,2885
1932,2955
1931,3580
1426,1596
1422,1438
1425,1581
1583,1667
1501,1525
1283,1436
1286,1483
1215,1468
1211,1365
1210,1339
1083,1401
1655,1769
2220,2823
1355,5891
1772,1537
1436,1920
1435,1910
1589,1843
1163,2048
1735,3168
1791,3101
1841,3078
1840,3034
1219,1600
1220,1639
1647,1541
1646,1533
1279,1286
1714,1556
1575,1515
1576,1477
1498,1485
1573,1527
1496,1545
1497,1516
2177,2965
2176,3035
2294,2952
2293,3071
2237,3012
2236,3041
2364,2813
2302,2753
2301,2675
2245,2577
2056,2707
2057,2793
2055,2686
2184,2738
2120,2744
2244,2658
2538,2998
2537,2979
2591,3095
1940,2870
1989,2878
1990,2814
2539,2998
2482,2989
2483,2951
2424,2847
2121,2805
2119,2618
2050,2927
2049,3005
2048,3423
2185,2771
2243,2497
2299,2711
2241,2660
2485,3029
2542,3084
2353,3043
2292,2950
2419,2837
2478,2884
2479,2919
2536,2946
2484,2990
2486,2983
2354,2882
2416,3059
2242,2705
2355,2920
2300,2718
1991,2818
1992,2825
2477,2875
2534,2896
2535,3011
2588,2916
2587,2930
2630,2981
2051,2739
2116,2633
2175,3068
2586,65535
2541,3151
2178,2940
2179,2743
2240,2690
2239,2914
2238,2984
2052,2870
2053,2836
1987,3110
1988,2958
1939,2982
2594,3101
2593,3086
2358,2804
2357,2814
2420,2870
2247,2866
2427,2956
2428,2978
2181,2537
2180,2586
2417,2864
2590,3076
2297,2699
2361,2891
2362,2774
2423,2862
2422,2827
2174,3298
2356,2925
1941,2859
2365,2990
2112,3303
2047,3445
2182,2676
2359,2753
2533,3691
2295,3016
2115,2706
2632,3136
2631,3075
2186,2923
2298,2785
2360,2809
2235,3261
2291,3274
2487,3205
2246,2798
2425,3606
2117,2930
2543,3158
1893,65535
2421,2962
2476,2880
2592,3134
604,7066
