middle_point_id,reach_time_minutes
2835,65535
2836,65535
2806,65535
2822,65535
2823,65535
2807,65535
2846,65535
887,1123
888,1129
1326,1180
1185,1149
999,1184
1057,1157
1552,1414
1120,1134
1473,1444
944,1231
832,1111
1257,1156
1396,1459
1622,1435
1327,1418
1184,1139
1183,1149
1324,1351
1255,1373
1394,1465
1252,1247
1253,1216
1182,1201
1328,65535
1470,1445
1321,1263
1322,1273
1323,1397
1391,1327
1551,1432
1393,1441
1472,1438
1471,1477
1181,1454
1118,1259
1059,1110
1121,1122
1469,1425
1468,1383
1548,1419
1325,1225
1625,1372
1623,1401
1258,1239
1256,1274
791,1000
891,1089
703,958
704,951
660,953
1553,1419
1624,1388
1554,1432
1474,1440
1475,1533
1550,1442
1549,1484
1320,1329
1466,1363
1541,1720
1318,1405
1249,1428
1186,1136
1003,1101
1002,1112
741,1059
788,1023
434,1094
697,1041
752,932
1056,1210
1006,1118
907,802
518,995
1011,1039
1000,1148
1055,1622
997,1591
994,1485
996,1557
995,1541
991,1332
1112,3965
1114,1572
1051,1535
1398,1572
1395,1457
1001,1129
1811,1369
1960,1547
1769,1467
1823,1477
1329,65535
1332,1182
1259,1736
1200,1004
1199,1009
1140,924
1141,952
783,1103
1689,1469
1802,1580
1945,1801
2183,3358
2418,3864
1994,1835
1995,1868
2059,1597
1621,65535
1555,1327
1754,1420
1180,2303
1106,2565
933,2726
827,1208
2122,4099
2124,1634
493,1002
519,995
544,987
545,988
494,1002
470,1022
543,991
469,1018
517,1006
574,990
573,980
495,1021
546,993
613,969
612,972
492,1010
572,985
571,1029
570,1033
610,1004
575,1047
547,1038
516,1028
611,981
542,1015
569,1058
609,1071
548,1070
549,1099
1404,1150
1405,1091
1266,1058
1193,1067
743,1028
742,1039
747,984
746,1004
745,1013
744,1025
790,1011
789,1020
839,1038
838,1033
738,1109
739,1104
740,1081
890,1084
834,1105
784,1094
889,1104
856,692
855,753
854,765
853,777
852,789
910,781
909,790
908,810
964,813
965,816
1020,863
966,798
963,849
1021,890
1271,1007
1270,1009
1339,1027
1338,1040
1071,975
1072,969
1135,998
1408,1072
1337,1057
1269,1034
1268,1060
1136,1004
1075,920
1077,916
1076,896
1019,887
1018,908
1074,960
1137,987
1272,1020
1274,1066
1275,1107
1205,1022
1204,1019
1273,1067
1198,1031
1197,1066
1341,1122
1134,1013
1133,1008
1069,994
1132,1010
1073,950
1203,1003
1202,1062
1201,1038
1139,942
1267,1045
1138,1016
1340,1020
1196,1043
1342,1109
1409,1081
1485,1088
1407,1085
1561,1237
1632,1261
1484,1180
1483,1192
1562,1228
1194,1045
1130,1030
1195,1032
1335,1061
1129,1050
1066,1055
1128,1102
1067,1058
1131,1019
1334,1194
1336,1094
1265,1077
1333,1179
1406,1125
857,1788
803,3082
804,6559
860,6567
969,6520
913,6507
912,6445
861,6577
806,6620
659,954
751,945
658,967
705,956
702,973
706,942
753,898
614,964
701,979
661,967
616,968
848,901
796,943
797,920
798,913
750,954
707,921
615,1001
748,991
845,943
846,933
657,1006
749,974
795,955
617,1011
663,956
794,983
847,917
849,893
902,908
901,922
900,949
793,987
899,1071
898,1036
897,1050
844,973
842,1018
841,1008
956,1767
792,993
843,980
840,1025
850,833
903,897
800,841
755,869
756,887
710,973
711,1018
962,863
961,876
904,886
906,812
851,826
802,822
801,829
799,851
959,933
1014,1001
1013,1000
708,1723
709,1698
754,881
757,911
1017,881
1016,945
960,938
905,874
958,1038
957,2226
1070,981
1015,989
1012,1059
1068,1011
1005,1086
1004,1091
1060,1107
1063,1120
1065,1085
1127,1097
1062,1148
1124,1164
1123,1152
1125,1152
1188,1191
1122,1126
1058,1117
947,1126
946,1159
949,1064
945,1143
948,1089
1190,1298
1187,1211
951,1092
895,1058
952,1086
1009,1091
1008,1125
1010,1832
1007,1096
1061,1213
954,1063
896,1055
953,1117
1126,1144
1064,1103
1189,1233
955,1781
950,1107
892,1045
786,1048
836,1054
837,1041
787,1040
700,1010
655,1037
654,1043
653,1051
698,1026
699,1023
608,1102
696,1057
656,1034
833,1108
785,1062
835,1065
693,1094
894,1064
893,1040
1343,1103
1192,1258
1191,1295
828,1198
829,1184
780,1137
830,1179
779,1181
782,1104
529,1200
886,1122
596,1252
556,1256
598,1200
597,1223
526,1224
555,1287
525,1315
524,1282
523,1263
688,1146
607,1135
650,1153
651,1134
652,1131
737,1111
694,1078
695,1064
645,1136
646,1128
690,1124
600,1155
599,1170
781,1116
736,1120
558,1231
644,1144
643,1153
648,1136
692,1109
691,1118
513,1154
541,1077
540,1140
568,1198
530,1222
831,1130
559,1209
560,1199
642,1296
557,1219
496,1302
471,1338
444,1405
446,1369
528,1206
527,1240
562,1197
602,1176
734,1140
466,1149
464,1073
463,1088
478,1314
481,1312
480,1301
479,1289
647,1148
488,1103
502,1236
689,1151
533,1230
532,1257
531,1281
601,1173
484,1190
508,1265
510,1271
509,1275
534,1245
482,1326
506,1280
606,1145
455,1494
429,1270
456,1466
457,1447
428,1354
458,1307
554,1400
594,1368
640,1287
639,1384
551,1302
681,1384
636,1372
635,1380
590,1306
778,1205
777,1212
485,1173
486,1192
462,1151
563,1236
885,1133
943,2291
564,1337
641,1281
504,1244
503,1253
501,1277
500,1344
561,1221
254,1207
350,1170
321,1251
319,1206
251,1247
375,1180
347,1258
687,1159
565,1325
539,1219
511,1250
536,1288
649,1153
603,1281
605,1406
733,1154
735,1129
489,1120
514,1160
461,1390
460,1401
459,1379
468,1023
154,1364
178,1310
203,1295
228,1265
402,1235
401,1247
505,1285
522,1289
451,1440
452,1488
477,1367
476,1421
483,1486
884,1201
431,1245
430,1282
454,1395
595,1294
395,1349
394,1369
422,1415
417,1413
390,1411
538,1265
567,1152
426,1521
397,1360
398,1408
499,1423
475,1511
497,1290
498,1317
311,1274
342,1316
345,1290
421,1418
515,1058
472,1641
448,1672
473,1696
474,1737
353,1222
381,1197
256,1279
290,1253
324,1229
380,1249
407,1185
253,1261
226,1287
201,1300
177,1357
824,1316
775,1262
826,1219
939,1267
936,1318
937,1304
880,1272
566,1345
2821,65535
2834,65535
2833,65535
2789,65535
2790,65535
2770,65535
2788,65535
2776,65535
2795,65535
2775,65535
2794,65535
2825,65535
2824,65535
2826,65535
2811,65535
2812,65535
2796,65535
2827,65535
2858,65535
2855,65535
2849,65535
2838,65535
2814,65535
2813,65535
2828,65535
2839,65535
2791,65535
2792,65535
2803,65535
2830,65535
2815,65535
2819,65535
2818,65535
2817,65535
2831,65535
2810,65535
2829,65535
2783,65535
2820,65535
2804,65535
2785,65535
2784,65535
2762,65535
2768,65535
2751,65535
2750,65535
2733,65535
2769,65535
2720,65535
2761,65535
2741,65535
2837,65535
2793,65535
2808,65535
2753,65535
2736,65535
2735,65535
2809,65535
2772,65535
2845,65535
2844,65535
2848,65535
2777,65535
2778,65535
2779,65535
2759,65535
2780,65535
2797,65535
2843,65535
2832,65535
2842,65535
2758,65535
2738,65535
2774,65535
2773,65535
2771,65535
2851,65535
2847,65535
2854,65535
2721,65535
2756,65535
2737,65535
2840,65535
2752,65535
2754,65535
2755,65535
2852,65535
2853,65535
2856,65535
2841,65535
2742,65535
2727,65535
2744,65535
2726,65535
2743,65535
2725,65535
2746,65535
2787,65535
2766,65535
2763,65535
2765,65535
2745,65535
2764,65535
2552,65535
2501,65535
2443,65535
2442,65535
2320,65535
2381,65535
2382,65535
2498,65535
2499,65535
2438,65535
2439,65535
2497,65535
2441,65535
2379,65535
2380,65535
2319,65535
2551,65535
2550,65535
2563,7077
2321,3733
2322,3702
2383,3714
2384,4425
2446,4468
2445,4476
2503,4495
2385,4459
2504,7198
2505,7220
2557,7244
2558,7269
2559,7293
2560,7257
2564,7033
2562,7145
2561,7185
2605,7200
2609,4784
2565,4729
2566,4714
2515,4659
2397,3079
2457,4640
2458,4624
2401,3251
2337,2992
2336,2996
2399,3038
2398,3059
2402,3285
2333,3216
2273,3251
2219,3275
2218,3287
2159,3312
2454,5344
2393,5310
2512,7044
2502,7829
2608,7463
2156,3434
2155,3466
2154,3495
2213,3511
2212,3523
2211,3571
2210,3612
2264,3619
2324,3653
2323,3669
2030,65535
2094,65535
2157,3398
2450,7441
2388,7490
2387,7558
2326,7595
2266,3800
2265,3755
2508,7412
2396,3148
2335,3166
2334,3177
2158,3337
2279,8186
2278,8150
2222,8119
2221,8101
2276,8083
2275,1276
2261,5247
2207,6105
2149,6164
2554,4547
2599,4577
2633,4615
2664,4650
2689,4687
2690,4713
2691,4729
2692,4753
2152,5858
2089,6566
2088,5904
2025,6699
2603,65535
2602,65535
2556,65535
2693,6692
2671,8475
2670,8455
2694,8414
2553,65535
2665,65535
2705,65535
2710,65535
2668,65535
2639,65535
2463,6106
2521,6142
2572,6165
2451,7326
2390,7295
2391,7115
2392,5752
2215,7320
2268,65535
2093,65535
2092,65535
2028,65535
2024,5934
2150,3972
2086,4002
2209,3959
2023,5073
2087,5026
2148,8119
2262,5232
2327,65535
1560,1177
1630,1279
1631,1250
1559,1328
1629,1389
1558,1233
1634,1253
1633,1259
1482,1102
1481,1167
1699,1300
1700,1381
1701,1303
1563,1239
2070,1557
2008,1552
2009,1554
1959,1527
1958,1545
2006,1563
1957,1579
1956,1588
2193,1629
2132,1567
1912,1519
1911,1488
1865,1444
1866,1527
2007,1557
2069,1591
2010,1563
2011,1590
1961,1585
2072,1621
1913,1586
1867,1579
1962,1618
1914,1622
1915,1534
1909,1574
1636,1276
1635,1280
1564,1253
1702,1330
1637,1270
1638,1236
1565,1240
1486,1113
1760,1363
1704,1300
1703,1286
1763,1374
1762,1357
1817,1404
1705,1398
1863,1444
1815,1411
1759,1366
863,563
758,673
808,614
982,854
1036,890
1099,993
1100,950
1166,1104
1167,1153
1237,1248
1238,1277
1375,1348
1308,1305
1309,1327
1236,1213
1235,1191
1101,981
1037,919
971,284
1025,267
1026,282
1027,295
1089,308
720,1250
674,1309
864,527
865,499
919,286
1024,231
975,397
974,375
1028,330
873,690
925,622
924,606
917,350
918,326
623,885
712,735
713,772
667,778
622,839
809,599
719,1237
765,1193
972,314
868,1142
869,1154
815,1173
920,1535
973,337
981,810
926,716
927,724
928,750
1354,188
1288,210
1218,198
1152,242
1023,183
1353,175
1085,109
1148,45
1147,38
1082,15
772,1288
771,1245
819,1220
584,1380
628,1363
629,1337
1033,991
978,1028
1031,1065
1030,1033
1029,1016
1091,993
1035,920
1034,942
979,1019
1526,1463
1449,1508
1378,1536
1448,1453
1524,1431
1038,965
1447,1593
1768,1470
1710,1428
1767,1458
391,1382
365,1343
339,1328
400,1378
393,1399
392,1423
396,1344
399,1511
443,1436
449,1508
450,1483
419,1516
414,1467
415,1433
387,1470
388,1432
389,1425
282,1465
281,1391
314,1360
313,1316
405,1135
411,1494
442,1453
255,1240
376,1243
373,1258
278,1285
275,1408
248,1455
335,1545
334,1517
306,1480
307,1469
176,1406
225,1274
320,1249
249,1481
287,1212
285,1255
776,1234
731,1242
315,1451
316,1434
204,1311
440,1079
439,1074
166,2865
269,2782
383,2720
1247,3910
1246,3932
1384,4016
1679,4178
1178,3903
1105,2569
1172,2588
1173,2638
1242,2640
1241,2632
1314,2789
1313,2695
1171,2614
1382,2895
1243,2837
1317,2976
1107,2577
1108,2756
1109,3041
1041,2586
1043,2796
1042,2787
1044,2850
1176,3804
1174,2863
1177,3852
1110,3859
985,2632
986,2675
932,2693
774,1310
730,1254
825,1272
728,1320
729,1280
727,1411
682,1309
684,1278
685,1258
732,1238
683,1462
2134,1720
2194,1741
2068,1705
2129,1759
1905,1466
1907,1507
1906,1446
1953,1533
2002,1564
2064,1601
2125,1608
2137,2356
2196,2312
2195,2267
1859,1380
1810,1410
1755,1450
2131,1652
2192,1690
1862,1474
1861,1393
1812,1371
1860,1463
1809,1398
1756,1358
1869,1481
1822,1500
1821,1479
1916,1529
1819,1427
1764,1407
1820,1431
1698,1307
1757,1344
1566,1231
1567,1193
1488,1150
1489,1145
1412,1121
1413,1128
1414,1113
1818,1446
1568,1163
1410,1102
2128,1789
2189,1816
2066,1742
2065,1766
2067,1756
1643,1412
1571,1345
1491,1260
2004,1731
2003,1612
1697,1328
2135,2237
2075,1678
1642,1381
1955,1550
2130,1788
2005,1615
1858,1443
1816,8008
1864,8001
1766,1452
1910,1614
1868,1472
2188,2635
2127,2604
1903,1486
2001,1575
2063,2262
2062,1822
1813,1376
1758,1313
1639,1339
1640,1358
1952,1586
2126,8090
1569,1317
1965,1633
1966,1679
2014,1784
1490,1272
1917,1561
1870,1524
1871,1534
1570,1308
1707,1404
2076,1698
2013,1634
1964,1586
1487,1151
1908,1835
2251,3201
2199,3145
2198,3008
2136,2260
1641,1513
1954,2266
1765,1425
1857,1459
2187,1885
1904,1490
1856,1449
1951,1595
1708,2283
245,8319
244,8302
357,8306
246,8434
247,8463
197,8557
223,8535
44,8899
43,8959
3,9095
23,9069
22,9058
63,8841
85,8783
84,8738
108,8238
149,8192
172,8583
296,8286
294,8334
355,8434
354,8466
326,8544
295,8443
291,8455
293,8577
260,8463
356,8494
441,8094
412,8117
329,8452
300,8396
148,8166
214,8404
146,8287
110,8368
262,8429
258,8842
292,8605
257,8907
235,8427
187,8327
212,8383
211,8410
186,8331
162,8305
161,8384
165,8283
189,8483
238,8564
237,8529
263,8465
265,8484
266,8462
267,8450
268,8290
26,9059
25,9027
105,65535
62,65535
83,65535
126,8405
175,8840
152,8774
151,8764
150,8723
103,8343
242,8236
191,8190
192,8241
217,8264
218,8317
145,8227
144,8311
167,8219
190,8197
219,8334
159,8431
185,8375
158,8488
188,8319
160,8396
143,65535
122,65535
75,65535
54,65535
198,8968
270,8331
221,8372
301,8429
302,8266
330,8293
331,8315
115,8367
133,8426
139,8323
134,8400
114,8924
48,65535
69,65535
92,8600
164,8393
4,65535
107,8745
129,8830
109,8270
125,8311
124,8285
127,65535
82,65535
67,65535
91,8768
93,8567
137,8702
113,8722
112,8680
136,65535
49,65535
72,65535
71,65535
406,1201
805,6610
858,6415
859,6556
967,597
1142,150
1080,6255
1022,6296
1079,6288
968,6411
1206,144
915,6562
916,6597
914,6534
807,6649
911,7756
1078,6512
1207,139
1278,172
1277,153
1344,174
1415,192
1492,247
1345,182
1346,203
1208,134
1209,93
1143,74
1144,41
1145,31
1417,217
1493,265
1494,283
1572,299
1081,6581
970,6784
408,1226
382,1219
437,1147
467,1123
409,1200
403,1275
432,1509
433,1351
404,1253
352,1252
351,1250
349,1213
317,1405
374,1228
346,1279
283,1439
410,1107
438,1124
465,1152
490,1090
491,1042
435,1141
436,1124
379,1201
323,1281
289,1300
377,1184
378,1209
592,1353
593,1393
552,1301
445,1398
424,1381
423,1398
416,1451
361,1466
362,1451
371,1405
372,1339
343,1483
344,1480
286,1323
227,1266
252,1256
284,1275
318,1283
250,1312
312,1286
340,1279
368,1303
369,1313
370,1478
341,1292
367,1316
308,1439
276,1410
277,1407
280,1338
310,1303
338,1350
366,1397
274,1432
305,1597
420,1560
363,1450
418,1458
550,6601
579,6624
576,6569
577,6581
578,6597
520,6577
618,6591
662,6621
619,6608
620,6621
621,6615
665,6597
666,6589
664,6617
580,6636
2260,65535
2257,65535
2206,65535
2146,65535
2314,65535
2313,65535
2312,65535
2373,65535
2256,65535
2205,65535
2434,65535
2435,65535
2375,65535
2376,65535
2433,65535
2491,65535
2490,65535
2492,65535
2546,65535
2597,65535
2596,65535
2544,65535
2145,65535
2082,65535
2020,65535
2494,65535
0,65535
11,65535
1052,1588
1053,1575
941,1615
1740,1591
1796,1617
1615,1456
1681,1517
1545,1375
1797,1654
1544,1395
1741,1649
1795,1690
1617,1441
1546,1428
1616,1451
1683,1484
1467,1355
1547,1413
1465,1439
1387,1435
1388,1415
1464,1502
1462,1579
1461,1600
1542,1664
1463,1543
1682,1592
1543,1503
1618,1455
1742,1675
1460,1766
1248,1541
1850,1594
1801,1593
1803,1546
882,1219
881,1228
938,1278
883,1239
940,2358
1998,1537
1902,1478
1807,1386
1691,1427
1694,1333
1693,1381
1749,1458
1752,1407
1753,1364
1627,1311
1628,1281
1557,1259
1479,1211
1402,1181
1808,1375
1946,1675
1947,1610
1948,1597
1997,1552
1855,1399
1690,1406
2060,1670
1949,1825
1950,1521
1751,1450
1692,1409
1999,1529
1901,1869
1900,1881
1852,1605
1853,1484
1805,1466
1750,1463
1854,1440
1806,1426
1748,1507
2061,1724
2000,1654
1804,1659
1899,1625
2884,65535
2892,65535
2883,65535
2876,65535
2874,65535
2882,65535
2877,65535
2911,65535
2905,65535
2906,65535
2896,65535
2887,65535
2881,65535
2880,65535
2888,65535
2902,65535
2903,65535
2907,65535
2912,65535
2895,65535
2894,65535
2875,65535
2885,65535
2893,65535
2904,65535
2865,65535
2866,65535
2909,65535
2913,65535
2886,65535
2878,65535
2869,65535
2871,65535
2872,65535
2879,65535
2870,65535
1330,1235
1331,1193
1401,1186
1262,1223
1263,1217
1478,1197
1403,1176
1261,1326
1480,1187
1264,1243
1390,1349
1389,1376
1319,1369
1251,1382
1250,1468
1285,80
1284,65
1214,38
1146,24
1505,347
1504,323
1582,319
1581,284
1713,232
1771,212
1654,379
1653,358
1651,296
2096,1121
2033,1083
1972,1051
1923,995
1922,973
1874,904
1873,901
1919,848
1829,1074
1579,157
1424,138
1711,212
1348,161
1419,210
1359,445
1429,401
1428,390
1421,215
1577,202
1499,216
1230,985
1365,885
1511,794
1300,967
1366,939
1512,819
1716,433
1503,303
1276,158
1347,214
1349,109
1645,253
1578,230
1770,215
1715,274
1150,115
1217,128
1149,82
1580,209
1352,96
1502,198
1825,775
1718,727
1717,691
1872,815
1656,450
1648,235
1712,219
1213,88
1212,172
1084,50
1420,232
1281,188
1282,225
1587,936
1586,455
1585,445
1652,351
1427,311
1975,1161
1977,1241
1932,1347
1931,1660
1426,272
1422,208
1425,260
1583,367
1501,161
1283,87
1286,128
1215,60
1211,178
1210,147
1083,0
1655,415
2220,1254
1355,5411
1772,274
1436,889
1435,875
1589,807
1163,1019
1735,1523
1791,1470
1841,1450
1840,1436
1219,290
1220,333
1647,258
1646,267
1279,258
1714,266
1575,317
1576,282
1498,298
1573,327
1496,348
1497,319
2177,3925
2176,3995
2294,3964
2293,4040
2237,3972
2236,4001
2364,3773
2302,3713
2301,3635
2245,3537
2056,3843
2057,3887
2055,3646
2184,3698
2120,3704
2244,3618
2538,4068
2537,4030
2591,4055
1940,3830
1989,3838
1990,3774
2539,4046
2482,4146
2483,3911
2424,3807
2121,3765
2119,3578
2050,3903
2049,3965
2048,4383
2185,3731
2243,3457
2299,3671
2241,3620
2485,3989
2542,4044
2353,4003
2292,3910
2419,3823
2478,3884
2479,3901
2536,3987
2484,3950
2486,3943
2354,3898
2416,4019
2242,3665
2355,3892
2300,3678
1991,3778
1992,3785
2477,3876
2534,3886
2535,3986
2588,3923
2587,3938
2630,3958
2051,3699
2116,3593
2175,4093
2586,65535
2541,4180
2178,3900
2179,3703
2240,3650
2239,3874
2238,3944
2052,3830
2053,3796
1987,4070
1988,4107
1939,4020
2594,4152
2593,4124
2358,3780
2357,3787
2420,3830
2247,3826
2427,3916
2428,3938
2181,3497
2180,3546
2417,3878
2590,4036
2297,3659
2361,3851
2362,3734
2423,3822
2422,3787
2174,4258
2356,3917
1941,3819
2365,3950
2112,4263
2047,4405
2182,3636
2359,3713
2533,4651
2295,3976
2115,3666
2632,4096
2631,4035
2186,3899
2298,3745
2360,3769
2235,4221
2291,4234
2487,4165
2246,3758
2425,4566
2117,3890
2543,4118
1893,65535
2421,3922
2476,3932
2592,4202
604,6586
