middle_point_id,reach_time_minutes
2835,65535
2836,65535
2806,65535
2822,65535
2823,65535
2807,65535
2846,65535
887,2563
888,2569
1326,2789
1185,2649
999,2690
1057,2899
1552,2854
1120,2634
1473,2884
944,2821
832,2551
1257,2759
1396,3494
1622,2875
1327,8104
1184,2639
1183,2650
1324,2911
1255,2933
1394,2922
1252,2755
1253,2716
1182,2701
1328,65535
1470,2940
1321,2754
1322,2721
1323,3005
1391,2767
1551,2872
1393,2980
1472,2878
1471,2917
1181,2894
1118,2759
1059,2555
1121,2603
1469,3260
1468,2823
1548,2859
1325,2845
1625,2812
1623,2841
1258,2679
1256,2834
791,2440
891,2529
703,2400
704,2391
660,2393
1553,2859
1624,2828
1554,2872
1474,2880
1475,2987
1550,2882
1549,2910
1320,2798
1466,2823
1541,3160
1318,2845
1249,2868
1186,2721
1003,2541
1002,2552
741,2497
788,2463
434,2534
697,2481
752,2372
1056,2710
1006,2558
907,2242
518,2435
1011,2479
1000,2588
1055,4022
997,3991
994,3887
996,3957
995,3941
991,2772
1112,65535
1114,4230
1051,4195
1398,3372
1395,3685
1001,2569
1811,2809
1960,2987
1769,2907
1823,2917
1329,65535
1332,2622
1259,3835
1200,2444
1199,2446
1140,2364
1141,2392
783,2543
1689,2909
1802,3020
1945,3241
2183,4798
2418,5304
1994,3275
1995,3308
2059,3037
1621,65535
1555,2767
1754,2860
1180,5183
1106,5350
933,5606
827,2648
2122,4603
2124,3074
493,2442
519,2439
544,2427
545,2431
494,2442
470,2462
543,2431
469,2458
517,2446
574,2430
573,2420
495,2461
546,2435
613,2409
612,2412
492,2450
572,2425
571,2469
570,2473
610,2444
575,2487
547,2478
516,2468
611,2421
542,2455
569,2475
609,2454
548,2510
549,2539
1404,2590
1405,2531
1266,2498
1193,2507
743,2468
742,2480
747,2424
746,2444
745,2453
744,2465
790,2451
789,2460
839,2478
838,2473
738,2549
739,2508
740,2504
890,2524
834,2545
784,2534
889,2544
856,2132
855,2193
854,2205
853,2217
852,2229
910,2221
909,2230
908,2250
964,2253
965,2256
1020,2303
966,2238
963,2290
1021,2330
1271,2447
1270,2449
1339,2467
1338,2480
1071,2415
1072,2409
1135,2438
1408,2503
1337,2497
1269,2474
1268,2500
1136,2444
1075,2360
1077,2356
1076,2336
1019,2327
1018,2348
1074,2400
1137,2427
1272,2460
1274,2506
1275,2547
1205,2462
1204,2459
1273,2507
1198,2471
1197,2506
1341,2562
1134,2453
1133,2448
1069,2434
1132,2450
1073,2390
1203,2443
1202,2502
1201,2478
1139,2382
1267,2485
1138,2456
1340,2460
1196,2483
1342,2549
1409,2521
1485,2528
1407,2525
1561,2677
1632,2701
1484,2620
1483,2632
1562,2668
1194,2485
1130,2470
1195,2472
1335,2501
1129,2490
1066,2495
1128,2542
1067,2498
1131,2459
1334,2634
1336,2534
1265,2517
1333,2619
1406,2565
857,3048
803,3082
804,6559
860,6567
969,6520
913,6507
912,6445
861,6577
806,6620
659,2394
751,2385
658,2407
705,2396
702,2413
706,2382
753,2338
614,2404
701,2419
661,2407
616,2408
848,2341
796,2381
797,2360
798,2353
750,2394
707,2361
615,2441
748,2432
845,2376
846,2353
657,3252
749,2414
795,2395
617,2451
663,2396
794,2423
847,2342
849,2333
902,2348
901,2356
900,2389
793,2427
899,2511
898,2476
897,2490
844,2413
842,2458
841,2448
956,3207
792,2434
843,2420
840,2465
850,2273
903,2335
800,2281
755,2309
756,2327
710,2413
711,2458
962,2303
961,2313
904,2323
906,2252
851,2266
802,2262
801,2269
799,2291
959,2373
1014,2441
1013,2440
708,3260
709,3279
754,2321
757,2351
1017,2321
1016,2385
960,2378
905,2314
958,2418
957,3858
1070,2421
1015,2429
1012,2499
1068,2451
1005,2526
1004,2531
1060,2547
1063,2560
1065,2525
1127,2537
1062,2588
1124,2604
1123,2592
1125,2592
1188,2631
1122,2682
1058,2596
947,2566
946,2599
949,2504
945,2583
948,2529
1190,2738
1187,2651
951,2532
895,2498
952,2526
1009,2531
1008,2565
1010,3233
1007,2536
1061,2653
954,2503
896,2495
953,2557
1126,2584
1064,2543
1189,2673
955,3219
950,2547
892,2485
786,2488
836,2485
837,2481
787,2480
700,2450
655,2477
654,2483
653,2491
698,2466
699,2463
608,2459
696,2497
656,2474
833,2548
785,2502
835,2505
693,2531
894,2504
893,2480
1343,2543
1192,2698
1191,2735
828,2638
829,2624
780,2577
830,2619
779,2621
782,2544
529,2640
886,2562
596,2692
556,2696
598,2640
597,2663
526,2664
555,2700
525,2755
524,2722
523,2703
688,2586
607,2465
650,2503
651,2491
652,2495
737,2551
694,2513
695,2504
645,2576
646,2568
690,2564
600,2595
599,2610
781,2556
736,2560
558,2671
644,2584
643,2593
648,2579
692,2549
691,2558
513,2585
541,2517
540,2580
568,2539
530,2662
831,2570
559,2648
560,2639
642,2736
557,2659
496,2742
471,2778
444,2845
446,2809
528,2646
527,2680
562,2637
602,2616
734,2580
466,2589
464,2513
463,2527
478,2754
481,2752
480,2741
479,2729
647,2588
488,2543
502,2676
689,2591
533,2670
532,2697
531,2721
601,2613
484,2628
508,2687
510,2650
509,2662
534,2684
482,2766
506,2720
606,2499
455,2844
429,2710
456,2906
457,2887
428,2794
458,2723
554,2745
594,2808
640,2727
639,2805
551,2742
681,2824
636,2812
635,2820
590,2746
778,2645
777,2652
485,2610
486,2632
462,2591
563,2676
885,2573
943,2593
564,2783
641,2721
504,2684
503,2693
501,2717
500,2784
561,2661
254,2647
350,2610
321,2692
319,2646
251,2687
375,2620
347,2698
687,2599
565,2732
539,2629
511,2690
536,2728
649,2551
603,2721
605,3070
733,2594
735,2569
489,2560
514,2600
461,2830
460,2823
459,2755
468,2463
154,2763
178,2750
203,2735
228,2705
402,2675
401,2687
505,2725
522,2729
451,2941
452,2994
477,2807
476,2850
483,2684
884,2641
431,2685
430,2722
454,2774
595,2734
395,2789
394,2809
422,2892
417,2853
390,2851
538,2612
567,2531
426,2918
397,2800
398,2850
499,2863
475,2951
497,2730
498,2757
311,2714
342,2756
345,2730
421,2858
515,2498
472,3129
448,3160
473,3184
474,3177
353,2656
381,2637
256,2719
290,2693
324,2669
380,2641
407,2612
253,2701
226,2727
201,2740
177,2801
824,2756
775,2702
826,2659
939,2707
936,2758
937,2744
880,2712
566,2720
2821,65535
2834,65535
2833,65535
2789,65535
2790,65535
2770,65535
2788,65535
2776,65535
2795,65535
2775,65535
2794,65535
2825,65535
2824,65535
2826,65535
2811,65535
2812,65535
2796,65535
2827,65535
2858,65535
2855,65535
2849,65535
2838,65535
2814,65535
2813,65535
2828,65535
2839,65535
2791,65535
2792,65535
2803,65535
2830,65535
2815,65535
2819,65535
2818,65535
2817,65535
2831,65535
2810,65535
2829,65535
2783,65535
2820,65535
2804,65535
2785,65535
2784,65535
2762,65535
2768,65535
2751,65535
2750,65535
2733,65535
2769,65535
2720,65535
2761,65535
2741,65535
2837,65535
2793,65535
2808,65535
2753,65535
2736,65535
2735,65535
2809,65535
2772,65535
2845,65535
2844,65535
2848,65535
2777,65535
2778,65535
2779,65535
2759,65535
2780,65535
2797,65535
2843,65535
2832,65535
2842,65535
2758,65535
2738,65535
2774,65535
2773,65535
2771,65535
2851,65535
2847,65535
2854,65535
2721,65535
2756,65535
2737,65535
2840,65535
2752,65535
2754,65535
2755,65535
2852,65535
2853,65535
2856,65535
2841,65535
2742,65535
2727,65535
2744,65535
2726,65535
2743,65535
2725,65535
2746,65535
2787,65535
2766,65535
2763,65535
2765,65535
2745,65535
2764,65535
2552,65535
2501,65535
2443,65535
2442,65535
2320,65535
2381,65535
2382,65535
2498,65535
2499,65535
2438,65535
2439,65535
2497,65535
2441,65535
2379,65535
2380,65535
2319,65535
2551,65535
2550,65535
2563,7077
2321,3733
2322,3702
2383,3714
2384,4425
2446,4468
2445,4476
2503,4495
2385,4459
2504,7198
2505,7220
2557,7244
2558,7269
2559,7293
2560,7257
2564,7033
2562,7145
2561,7185
2605,7200
2609,4784
2565,4729
2566,4714
2515,4659
2397,3079
2457,4640
2458,4624
2401,3251
2337,2992
2336,2996
2399,3038
2398,3059
2402,3285
2333,3216
2273,3251
2219,3275
2218,3287
2159,3312
2454,5344
2393,5310
2512,7044
2502,7829
2608,7463
2156,3434
2155,3466
2154,3495
2213,3511
2212,3523
2211,3571
2210,3612
2264,3619
2324,3653
2323,3669
2030,65535
2094,65535
2157,3398
2450,7441
2388,7490
2387,7558
2326,7595
2266,3800
2265,3755
2508,7412
2396,3148
2335,3166
2334,3177
2158,3337
2279,8186
2278,8150
2222,8119
2221,8101
2276,8083
2275,1276
2261,5247
2207,6105
2149,6164
2554,4547
2599,4577
2633,4615
2664,4650
2689,4687
2690,4713
2691,4729
2692,4753
2152,5858
2089,6566
2088,5904
2025,6699
2603,65535
2602,65535
2556,65535
2693,6692
2671,8475
2670,8455
2694,8414
2553,65535
2665,65535
2705,65535
2710,65535
2668,65535
2639,65535
2463,6106
2521,6142
2572,6165
2451,7326
2390,7295
2391,7115
2392,5752
2215,7320
2268,65535
2093,65535
2092,65535
2028,65535
2024,5934
2150,3972
2086,4002
2209,3959
2023,5073
2087,5026
2148,8119
2262,5232
2327,65535
1560,2617
1630,2718
1631,2689
1559,2742
1629,2840
1558,2673
1634,2693
1633,2699
1482,2542
1481,2607
1699,2713
1700,2764
1701,2743
1563,2679
2070,2997
2008,2992
2009,2994
1959,2967
1958,2985
2006,3003
1957,3019
1956,3028
2193,3069
2132,3007
1912,2959
1911,2928
1865,2884
1866,2967
2007,2997
2069,3031
2010,3003
2011,3030
1961,3025
2072,3061
1913,3026
1867,3019
1962,3058
1914,3062
1915,2974
1909,3014
1636,2716
1635,2720
1564,2693
1702,2770
1637,2710
1638,2676
1565,2680
1486,2553
1760,2803
1704,2740
1703,2726
1763,2814
1762,2797
1817,2844
1705,2838
1863,2884
1815,2851
1759,2806
863,1085
758,1178
808,1130
982,240
1036,224
1099,0
1100,293
1166,574
1167,1069
1237,726
1238,761
1375,831
1308,900
1309,809
1236,1027
1235,661
1101,324
1037,261
971,852
1025,842
1026,830
1027,819
1089,909
720,1250
674,1309
864,968
865,989
919,886
1024,851
975,740
974,779
1028,794
873,607
925,656
924,711
917,900
918,866
623,1358
712,1231
713,1267
667,1272
622,1325
809,1116
719,1237
765,1193
972,855
868,1142
869,1154
815,1173
920,1535
973,856
981,259
926,578
927,570
928,516
1354,997
1288,1061
1218,1048
1152,1012
1023,909
1353,978
1085,986
1148,998
1147,984
1082,1020
772,1288
771,1245
819,1220
584,1380
628,1363
629,1337
1033,991
978,1028
1031,1065
1030,1033
1029,1016
1091,993
1035,920
1034,942
979,1019
1526,950
1449,988
1378,1016
1448,939
1524,917
1038,308
1447,980
1768,2910
1710,2868
1767,2898
391,2822
365,2783
339,2768
400,2818
393,2851
392,2863
396,2784
399,2951
443,2876
449,2948
450,2923
419,2956
414,2907
415,2873
387,2910
388,2872
389,2865
282,2905
281,2825
314,2800
313,2756
405,2575
411,2934
442,2893
255,2680
376,2683
373,2698
278,2725
275,2848
248,2895
335,2986
334,2957
306,2920
307,2909
176,2773
225,2714
320,2689
249,2921
287,2652
285,2695
776,2674
731,2682
315,2784
316,2803
204,2751
440,2519
439,2514
166,4305
269,4222
383,4160
1247,65535
1246,65535
1384,65535
1679,65535
1178,5568
1105,5366
1172,5373
1173,5384
1242,5421
1241,5450
1314,5669
1313,5575
1171,5433
1382,5775
1243,5466
1317,5856
1107,5411
1108,5419
1109,5476
1041,5380
1043,5676
1042,5667
1044,5730
1176,5469
1174,8623
1177,5521
1110,5529
985,5512
986,5555
932,5573
774,2750
730,2694
825,2712
728,2760
729,2720
727,2851
682,2749
684,2718
685,2698
732,2678
683,2902
2134,3160
2194,3181
2068,3145
2129,3199
1905,2906
1907,2947
1906,2886
1953,2973
2002,3004
2064,3041
2125,3048
2137,4001
2196,3789
2195,3743
1859,2820
1810,2850
1755,2890
2131,3092
2192,3130
1862,2914
1861,2833
1812,2811
1860,2903
1809,2838
1756,2798
1869,2921
1822,2940
1821,2919
1916,2969
1819,2867
1764,2847
1820,2871
1698,2747
1757,2784
1566,2671
1567,2633
1488,2590
1489,2585
1412,2561
1413,2568
1414,2553
1818,2886
1568,2603
1410,2542
2128,3229
2189,3256
2066,3182
2065,3206
2067,3196
1643,2852
1571,2785
1491,2700
2004,3171
2003,3052
1697,2768
2135,3713
2075,3118
1642,2821
1955,2990
2130,3228
2005,3055
1858,2883
1816,8008
1864,8001
1766,2892
1910,3054
1868,2912
2188,4075
2127,4044
1903,2926
2001,3015
2063,3055
2062,3067
1813,2816
1758,2753
1639,2779
1640,2798
1952,3026
2126,8090
1569,2757
1965,3073
1966,3119
2014,3224
1490,2712
1917,3001
1870,2964
1871,2974
1570,2748
1707,2844
2076,3138
2013,3074
1964,3026
1487,2591
1908,3275
2251,4641
2199,4585
2198,4448
2136,3700
1641,2953
1954,3928
1765,2865
1857,2899
2187,3325
1904,2930
1856,2889
1951,3035
1708,3723
245,8319
244,8302
357,8306
246,8434
247,8463
197,8557
223,8535
44,8899
43,8959
3,9095
23,9069
22,9058
63,8841
85,8783
84,8738
108,8238
149,8192
172,8583
296,8286
294,8334
355,8434
354,8466
326,8544
295,8443
291,8455
293,8577
260,8463
356,8494
441,8094
412,8117
329,8452
300,8396
148,8166
214,8404
146,8287
110,8368
262,8429
258,8842
292,8605
257,8907
235,8427
187,8327
212,8383
211,8410
186,8331
162,8305
161,8384
165,8283
189,8483
238,8564
237,8529
263,8465
265,8484
266,8462
267,8450
268,8290
26,9059
25,9027
105,65535
62,65535
83,65535
126,8405
175,8840
152,8774
151,8764
150,8723
103,8343
242,8236
191,8190
192,8241
217,8264
218,8317
145,8227
144,8311
167,8219
190,8197
219,8334
159,8431
185,8375
158,8488
188,8319
160,8396
143,65535
122,65535
75,65535
54,65535
198,8968
270,8331
221,8372
301,8429
302,8266
330,8293
331,8315
115,8367
133,8426
139,8323
134,8400
114,8924
48,65535
69,65535
92,8600
164,8393
4,65535
107,8745
129,8830
109,8270
125,8311
124,8285
127,65535
82,65535
67,65535
91,8768
93,8567
137,8702
113,8722
112,8680
136,65535
49,65535
72,65535
71,65535
406,2641
805,6610
858,6415
859,6556
967,2037
1142,1069
1080,6255
1022,6296
1079,6288
968,6411
1206,1054
915,6562
916,6597
914,6534
807,6649
911,7756
1078,6512
1207,1066
1278,1024
1277,1056
1344,1051
1415,1092
1492,1092
1345,1002
1346,982
1208,1038
1209,1056
1143,1064
1144,1047
1145,1029
1417,995
1493,1046
1494,1063
1572,1080
1081,6581
970,6784
408,2666
382,2659
437,2587
467,2563
409,2640
403,2715
432,2745
433,2791
404,2693
352,2692
351,2690
349,2653
317,2849
374,2668
346,2719
283,2879
410,2547
438,2564
465,2592
490,2530
491,2482
435,2581
436,2564
379,2641
323,2721
289,2740
377,2624
378,2649
592,2793
593,2833
552,2741
445,2838
424,2821
423,2838
416,2891
361,2906
362,2891
371,2845
372,2779
343,2933
344,2920
286,2763
227,2706
252,2696
284,2715
318,2723
250,2752
312,2726
340,2719
368,2743
369,2753
370,2918
341,2732
367,2756
308,2879
276,2850
277,2847
280,2778
310,2743
338,2790
366,2837
274,2872
305,3037
420,3000
363,2890
418,2898
550,6601
579,6624
576,6569
577,6581
578,6597
520,6577
618,6591
662,6621
619,6608
620,6621
621,6615
665,6597
666,6589
664,6617
580,6636
2260,65535
2257,65535
2206,65535
2146,65535
2314,65535
2313,65535
2312,65535
2373,65535
2256,65535
2205,65535
2434,65535
2435,65535
2375,65535
2376,65535
2433,65535
2491,65535
2490,65535
2492,65535
2546,65535
2597,65535
2596,65535
2544,65535
2145,65535
2082,65535
2020,65535
2494,65535
0,65535
11,65535
1052,3988
1053,3975
941,3965
1740,3031
1796,3057
1615,2936
1681,2957
1545,2853
1797,3094
1544,2894
1741,3089
1795,3960
1617,2881
1546,2868
1616,2891
1683,3075
1467,2795
1547,2853
1465,2879
1387,2875
1388,2855
1464,2942
1462,3019
1461,3040
1542,3104
1463,2983
1682,3106
1543,2943
1618,2895
1742,3115
1460,3808
1248,2981
1850,3034
1801,3033
1803,2986
882,2659
881,2668
938,2718
883,2679
940,6678
1998,2977
1902,2918
1807,2826
1691,2867
1694,2773
1693,2821
1749,2898
1752,2847
1753,2804
1627,2751
1628,2721
1557,2699
1479,2651
1402,2621
1808,2815
1946,3115
1947,3050
1948,3037
1997,2992
1855,2839
1690,2846
2060,3110
1949,3265
1950,2961
1751,2890
1692,2849
1999,2969
1901,3309
1900,3321
1852,3045
1853,2924
1805,2906
1750,2903
1854,2880
1806,2866
1748,2947
2061,3164
2000,3094
1804,3099
1899,3065
2884,65535
2892,65535
2883,65535
2876,65535
2874,65535
2882,65535
2877,65535
2911,65535
2905,65535
2906,65535
2896,65535
2887,65535
2881,65535
2880,65535
2888,65535
2902,65535
2903,65535
2907,65535
2912,65535
2895,65535
2894,65535
2875,65535
2885,65535
2893,65535
2904,65535
2865,65535
2866,65535
2909,65535
2913,65535
2886,65535
2878,65535
2869,65535
2871,65535
2872,65535
2879,65535
2870,65535
1330,2675
1331,2633
1401,2626
1262,2663
1263,2657
1478,2637
1403,2616
1261,2766
1480,2627
1264,2683
1390,2789
1389,2816
1319,2805
1251,2822
1250,2908
1285,914
1284,926
1214,963
1146,985
1505,793
1504,827
1582,792
1581,797
1713,732
1771,786
1654,566
1653,600
1651,651
2096,1121
2033,1083
1972,1051
1923,995
1922,973
1874,904
1873,901
1919,848
1829,1074
1579,891
1424,819
1711,796
1348,949
1419,1067
1359,948
1429,901
1428,890
1421,923
1577,872
1499,895
1230,193
1365,271
1511,342
1300,220
1366,258
1512,325
1716,417
1503,843
1276,1088
1347,1010
1349,969
1645,884
1578,890
1770,788
1715,709
1150,1124
1217,1136
1149,1100
1580,866
1352,887
1502,844
1825,775
1718,727
1717,691
1872,815
1656,413
1648,781
1712,772
1213,1003
1212,1041
1084,1034
1420,989
1281,1023
1282,1334
1587,936
1586,905
1585,894
1652,828
1427,856
1975,1161
1977,1241
1932,1347
1931,1660
1426,871
1422,916
1425,858
1583,753
1501,882
1283,951
1286,928
1215,924
1211,1142
1210,1151
1083,1041
1655,843
2220,1254
1355,5411
1772,867
1436,284
1435,315
1589,361
1163,169
1735,1523
1791,1470
1841,1450
1840,1436
1219,1120
1220,1159
1647,851
1646,843
1279,1098
1714,738
1575,1035
1576,997
1498,1005
1573,1110
1496,1065
1497,1036
2177,5365
2176,5435
2294,5404
2293,5480
2237,5469
2236,5450
2364,5213
2302,5153
2301,5075
2245,4977
2056,4977
2057,4952
2055,5046
2184,5138
2120,5144
2244,5058
2538,5508
2537,5470
2591,5495
1940,5203
1989,5181
1990,5166
2539,5486
2482,5586
2483,5351
2424,5247
2121,5205
2119,5018
2050,5231
2049,5249
2048,5307
2185,5171
2243,4897
2299,5111
2241,5060
2485,5429
2542,5484
2353,5443
2292,5350
2419,5263
2478,5324
2479,5341
2536,5427
2484,5390
2486,5383
2354,5338
2416,5459
2242,5105
2355,5332
2300,5118
1991,5142
1992,5103
2477,5316
2534,5326
2535,5426
2588,5363
2587,5378
2630,5398
2051,5139
2116,5033
2175,5440
2586,65535
2541,5603
2178,5340
2179,5143
2240,5090
2239,5380
2238,5610
2052,5211
2053,5236
1987,5272
1988,5245
1939,5252
2594,5592
2593,5564
2358,5220
2357,5227
2420,5270
2247,5266
2427,5356
2428,5378
2181,4937
2180,4986
2417,5318
2590,5476
2297,5099
2361,5291
2362,5174
2423,5262
2422,5227
2174,5851
2356,5357
1941,5259
2365,5390
2112,5411
2047,5379
2182,5076
2359,5153
2533,6091
2295,5416
2115,5106
2632,5536
2631,5475
2186,4636
2298,5185
2360,5209
2235,6541
2291,6554
2487,5605
2246,5198
2425,6006
2117,5330
2543,5558
1893,65535
2421,5362
2476,5372
2592,5642
604,6586
