middle_point_id,reach_time_minutes
2835,65535
2836,65535
2806,65535
2822,65535
2823,65535
2807,65535
2846,65535
887,306
888,298
1326,329
1185,265
999,290
1057,499
1552,454
1120,295
1473,523
944,421
832,308
1257,316
1396,739
1622,475
1327,904
1184,295
1183,305
1324,511
1255,533
1394,522
1252,407
1253,376
1182,361
1328,65535
1470,540
1321,444
1322,441
1323,557
1391,487
1551,472
1393,580
1472,504
1471,517
1181,494
1118,419
1059,230
1121,256
1469,645
1468,542
1548,599
1325,445
1625,412
1623,441
1258,337
1256,434
791,220
891,260
703,177
704,171
660,173
1553,459
1624,428
1554,470
1474,480
1475,573
1550,482
1549,534
1320,471
1466,506
1541,1555
1318,513
1249,521
1186,282
1003,234
1002,235
741,286
788,238
434,374
697,257
752,190
1056,310
1006,188
907,175
518,233
1011,94
1000,274
1055,2102
997,2071
994,1965
996,2037
995,2021
991,1812
1112,4445
1114,2052
1051,2015
1398,612
1395,750
1001,249
1811,367
1960,565
1769,507
1823,517
1329,65535
1332,207
1259,2216
1200,3
1199,0
1140,156
1141,157
783,323
1689,509
1802,620
1945,841
2183,2398
2418,2847
1994,875
1995,908
2059,637
1621,65535
1555,367
1754,460
1180,1343
1106,3045
933,3206
827,453
2122,2813
2124,674
493,241
519,239
544,229
545,232
494,245
470,288
543,239
469,254
517,238
574,234
573,213
495,276
546,242
613,189
612,192
492,243
572,212
571,259
570,268
610,270
575,266
547,278
516,263
611,201
542,274
569,299
609,285
548,350
549,379
1404,122
1405,75
1266,59
1193,107
743,269
742,260
747,211
746,224
745,233
744,245
790,224
789,232
839,236
838,232
738,326
739,282
740,276
890,252
834,292
784,287
889,257
856,325
855,300
854,307
853,338
852,192
910,292
909,281
908,198
964,182
965,221
1020,191
966,243
963,155
1021,289
1271,4
1270,6
1339,18
1338,29
1071,34
1072,27
1135,7
1408,52
1337,37
1269,15
1268,40
1136,18
1075,69
1077,148
1076,106
1019,102
1018,93
1074,40
1137,33
1272,13
1274,97
1275,110
1205,117
1204,157
1273,107
1198,16
1197,45
1341,42
1134,12
1133,49
1069,61
1132,53
1073,50
1203,140
1202,105
1201,38
1139,148
1267,46
1138,56
1340,13
1196,82
1342,76
1409,32
1485,79
1407,125
1561,158
1632,184
1484,123
1483,118
1562,151
1194,85
1130,78
1195,72
1335,63
1129,99
1066,115
1128,192
1067,98
1131,59
1334,194
1336,51
1265,96
1333,177
1406,61
857,828
803,3562
804,7039
860,7047
969,7000
913,6987
912,6925
861,7057
806,7100
659,174
751,168
658,187
705,176
702,193
706,183
753,184
614,184
701,199
661,182
616,188
848,121
796,161
797,168
798,158
750,174
707,201
615,221
748,211
845,188
846,133
657,226
749,186
795,195
617,231
663,236
794,238
847,122
849,150
902,122
901,152
900,166
793,237
899,291
898,256
897,270
844,200
842,238
841,228
956,101
792,218
843,248
840,245
850,189
903,114
800,206
755,233
756,287
710,373
711,418
962,143
961,136
904,120
906,169
851,207
802,230
801,217
799,183
959,92
1014,44
1013,88
708,905
709,879
754,255
757,311
1017,123
1016,118
960,84
905,156
958,80
957,138
1070,73
1015,65
1012,99
1068,85
1005,207
1004,212
1060,225
1063,191
1065,152
1127,208
1062,198
1124,264
1123,252
1125,217
1188,291
1122,282
1058,245
947,245
946,259
949,236
945,277
948,244
1190,338
1187,311
951,198
895,229
952,198
1009,135
1008,171
1010,112
1007,193
1061,253
954,133
896,253
953,188
1126,213
1064,175
1189,338
955,116
950,209
892,250
786,254
836,250
837,235
787,241
700,230
655,257
654,264
653,271
698,254
699,244
608,320
696,280
656,254
833,302
785,266
835,268
693,302
894,212
893,226
1343,93
1192,298
1191,335
828,418
829,404
780,350
830,399
779,416
782,317
529,480
886,333
596,530
556,532
598,480
597,485
526,554
555,569
525,568
524,557
523,550
688,366
607,319
650,342
651,324
652,311
737,328
694,304
695,296
645,356
646,348
690,344
600,375
599,391
781,321
736,335
558,485
644,364
643,373
648,343
692,322
691,338
513,368
541,297
540,341
568,360
530,519
831,324
559,485
560,481
642,537
557,499
496,581
471,597
444,670
446,617
528,485
527,492
562,436
602,367
734,360
466,377
464,353
463,367
478,578
481,561
480,617
479,600
647,368
488,391
502,492
689,353
533,480
532,490
531,501
601,439
484,467
508,473
510,491
509,501
534,481
482,546
506,560
606,355
455,651
429,494
456,643
457,586
428,552
458,534
554,610
594,624
640,507
639,589
551,581
681,605
636,626
635,644
590,599
778,425
777,445
485,449
486,462
462,431
563,528
885,344
943,1331
564,555
641,501
504,545
503,509
501,502
500,560
561,450
254,505
350,451
321,473
319,489
251,530
375,439
347,494
687,379
565,517
539,445
511,474
536,507
649,451
603,514
605,663
733,374
735,344
489,365
514,380
461,591
460,578
459,554
468,253
154,638
178,601
203,571
228,549
402,496
401,503
505,505
522,582
451,657
452,628
477,568
476,515
483,526
884,382
431,455
430,517
454,580
595,577
395,638
394,657
422,749
417,639
390,637
538,433
567,380
426,620
397,593
398,578
499,655
475,636
497,584
498,610
311,494
342,515
345,474
421,726
515,276
472,681
448,712
473,736
474,777
353,502
381,475
256,600
290,580
324,564
380,529
407,465
253,546
226,571
201,600
177,641
824,536
775,509
826,469
939,487
936,1798
937,613
880,565
566,492
2821,65535
2834,65535
2833,65535
2789,65535
2790,65535
2770,65535
2788,65535
2776,65535
2795,65535
2775,65535
2794,65535
2825,65535
2824,65535
2826,65535
2811,65535
2812,65535
2796,65535
2827,65535
2858,65535
2855,65535
2849,65535
2838,65535
2814,65535
2813,65535
2828,65535
2839,65535
2791,65535
2792,65535
2803,65535
2830,65535
2815,65535
2819,65535
2818,65535
2817,65535
2831,65535
2810,65535
2829,65535
2783,65535
2820,65535
2804,65535
2785,65535
2784,65535
2762,65535
2768,65535
2751,65535
2750,65535
2733,65535
2769,65535
2720,65535
2761,65535
2741,65535
2837,65535
2793,65535
2808,65535
2753,65535
2736,65535
2735,65535
2809,65535
2772,65535
2845,65535
2844,65535
2848,65535
2777,65535
2778,65535
2779,65535
2759,65535
2780,65535
2797,65535
2843,65535
2832,65535
2842,65535
2758,65535
2738,65535
2774,65535
2773,65535
2771,65535
2851,65535
2847,65535
2854,65535
2721,65535
2756,65535
2737,65535
2840,65535
2752,65535
2754,65535
2755,65535
2852,65535
2853,65535
2856,65535
2841,65535
2742,65535
2727,65535
2744,65535
2726,65535
2743,65535
2725,65535
2746,65535
2787,65535
2766,65535
2763,65535
2765,65535
2745,65535
2764,65535
2552,65535
2501,65535
2443,65535
2442,65535
2320,65535
2381,65535
2382,65535
2498,65535
2499,65535
2438,65535
2439,65535
2497,65535
2441,65535
2379,65535
2380,65535
2319,65535
2551,65535
2550,65535
2563,7557
2321,4213
2322,4182
2383,4194
2384,4905
2446,4948
2445,4956
2503,4975
2385,4939
2504,7678
2505,7700
2557,7724
2558,7749
2559,7773
2560,7737
2564,7513
2562,7625
2561,7665
2605,7680
2609,5264
2565,5209
2566,5194
2515,5139
2397,3559
2457,5120
2458,5104
2401,3731
2337,3472
2336,3476
2399,3518
2398,3539
2402,3765
2333,3696
2273,3731
2219,3755
2218,3767
2159,3792
2454,5824
2393,5790
2512,7524
2502,8309
2608,7943
2156,3914
2155,3946
2154,3975
2213,3991
2212,4003
2211,4051
2210,4092
2264,4099
2324,4133
2323,4149
2030,65535
2094,65535
2157,3878
2450,7921
2388,7970
2387,8038
2326,8075
2266,4280
2265,4235
2508,7892
2396,3628
2335,3646
2334,3657
2158,3817
2279,7345
2278,7309
2222,7278
2221,7260
2276,7242
2275,2844
2261,5727
2207,6585
2149,6644
2554,5027
2599,5057
2633,5095
2664,5130
2689,5167
2690,5193
2691,5209
2692,5233
2152,6338
2089,7046
2088,6384
2025,7179
2603,65535
2602,65535
2556,65535
2693,7172
2671,8955
2670,8935
2694,8894
2553,65535
2665,65535
2705,65535
2710,65535
2668,65535
2639,65535
2463,6586
2521,6622
2572,6645
2451,7806
2390,7775
2391,7595
2392,6232
2215,7800
2268,65535
2093,65535
2092,65535
2028,65535
2024,6414
2150,4452
2086,4482
2209,4439
2023,5553
2087,5506
2148,8599
2262,5712
2327,65535
1560,162
1630,210
1631,178
1559,195
1629,249
1558,246
1634,247
1633,217
1482,142
1481,174
1699,196
1700,223
1701,243
1563,152
2070,597
2008,578
2009,574
1959,570
1958,585
2006,603
1957,619
1956,628
2193,669
2132,607
1912,578
1911,578
1865,432
1866,466
2007,597
2069,631
2010,582
2011,630
1961,553
2072,598
1913,485
1867,526
1962,591
1914,558
1915,473
1909,614
1636,215
1635,220
1564,178
1702,266
1637,205
1638,210
1565,239
1486,153
1760,632
1704,266
1703,240
1763,297
1762,287
1817,331
1705,267
1863,611
1815,1293
1759,351
863,1808
758,1901
808,1852
982,2023
1036,2030
1099,2065
1100,2093
1166,2494
1167,2989
1237,2646
1238,2681
1375,2751
1308,2820
1309,2729
1236,2947
1235,2581
1101,2124
1037,2061
971,1604
1025,1587
1026,1602
1027,1615
1089,1628
720,1864
674,1910
864,1690
865,1711
919,1606
1024,1551
975,1725
974,1695
1028,1650
873,2050
925,1996
924,1973
917,1670
918,1646
623,2085
712,1957
713,1990
667,1995
622,2053
809,1838
719,1838
765,1799
972,1636
868,1748
869,1760
815,1779
920,2015
973,1681
981,1974
926,2075
927,2083
928,2107
1354,1600
1288,1541
1218,1517
1152,1586
1023,1515
1353,1614
1085,1495
1148,1425
1147,1418
1082,1369
772,2136
771,2093
819,2068
584,1984
628,1951
629,1940
1033,1871
978,1826
1031,1799
1030,1753
1029,1736
1091,1713
1035,1952
1034,1895
979,1853
1526,2870
1449,2908
1378,2936
1448,2859
1524,2837
1038,2108
1447,2900
1768,510
1710,468
1767,498
391,609
365,571
339,548
400,526
393,689
392,655
396,645
399,551
443,691
449,695
450,818
419,632
414,810
415,723
387,746
388,684
389,667
282,599
281,593
314,602
313,581
405,415
411,1714
442,1673
255,520
376,482
373,492
278,505
275,570
248,599
335,679
334,653
306,625
307,601
176,614
225,554
320,525
249,614
287,535
285,537
776,486
731,474
315,562
316,541
204,590
440,317
439,329
166,1905
269,1822
383,1760
1247,4390
1246,4412
1384,4496
1679,4658
1178,4383
1105,3049
1172,3068
1173,3118
1242,3120
1241,3112
1314,3269
1313,3175
1171,3094
1382,3375
1243,3317
1317,3456
1107,3057
1108,3236
1109,3521
1041,3066
1043,3276
1042,3267
1044,3330
1176,4284
1174,3343
1177,4332
1110,4339
985,3112
986,3155
932,3173
774,530
730,479
825,552
728,519
729,500
727,578
682,516
684,498
685,478
732,458
683,562
2134,686
2194,697
2068,745
2129,799
1905,506
1907,563
1906,486
1953,573
2002,604
2064,641
2125,648
2137,867
2196,820
2195,777
1859,420
1810,450
1755,387
2131,692
2192,730
1862,571
1861,433
1812,404
1860,577
1809,438
1756,320
1869,457
1822,512
1821,466
1916,486
1819,321
1764,304
1820,405
1698,263
1757,308
1566,162
1567,148
1488,122
1489,152
1412,99
1413,168
1414,153
1818,362
1568,203
1410,50
2128,829
2189,856
2066,782
2065,806
2067,796
1643,452
1571,385
1491,300
2004,771
2003,652
1697,280
2135,638
2075,619
1642,421
1955,601
2130,828
2005,655
1858,483
1816,8488
1864,8481
1766,492
1910,654
1868,448
2188,1675
2127,1644
1903,526
2001,615
2063,1302
2062,862
1813,416
1758,353
1639,379
1640,398
1952,626
2126,8570
1569,357
1965,523
1966,568
2014,589
1490,312
1917,601
1870,564
1871,574
1570,348
1707,444
2076,662
2013,564
1964,517
1487,104
1908,1249
2251,3681
2199,3625
2198,3488
2136,625
1641,553
1954,1306
1765,465
1857,499
2187,925
1904,530
1856,489
1951,635
1708,1323
245,8799
244,8782
357,8786
246,8914
247,8943
197,9037
223,9015
44,9379
43,9439
3,9575
23,9549
22,9538
63,9321
85,9263
84,9218
108,8718
149,8672
172,9063
296,8766
294,8814
355,8914
354,8946
326,9024
295,8923
291,8935
293,9057
260,8943
356,8974
441,8574
412,8597
329,8932
300,8876
148,8646
214,8884
146,8767
110,8848
262,8909
258,9322
292,9085
257,9387
235,8907
187,8807
212,8863
211,8890
186,8811
162,8785
161,8864
165,8763
189,8963
238,9044
237,9009
263,8945
265,8964
266,8942
267,8930
268,8770
26,9539
25,9507
105,65535
62,65535
83,65535
126,8885
175,9320
152,9254
151,9244
150,9203
103,8823
242,8716
191,8670
192,8721
217,8744
218,8797
145,8707
144,8791
167,8699
190,8677
219,8814
159,8911
185,8855
158,8968
188,8799
160,8876
143,65535
122,65535
75,65535
54,65535
198,9448
270,8811
221,8852
301,8909
302,8746
330,8773
331,8795
115,8847
133,8906
139,8803
134,8880
114,9404
48,65535
69,65535
92,9080
164,8873
4,65535
107,9225
129,9310
109,8750
125,8791
124,8765
127,65535
82,65535
67,65535
91,9248
93,9047
137,9182
113,9202
112,9160
136,65535
49,65535
72,65535
71,65535
406,481
805,7090
858,6895
859,7036
967,1074
1142,1209
1080,6735
1022,6776
1079,6768
968,6891
1206,1166
915,7042
916,7077
914,7014
807,7129
911,8236
1078,6992
1207,1224
1278,1268
1277,1271
1344,1291
1415,1332
1492,1387
1345,1348
1346,1318
1208,1216
1209,1296
1143,1333
1144,1349
1145,1364
1417,1344
1493,1404
1494,1423
1572,1438
1081,7061
970,7264
408,512
382,498
437,372
467,342
409,510
403,466
432,549
433,525
404,430
352,569
351,555
349,501
317,645
374,471
346,479
283,573
410,439
438,430
465,378
490,309
491,270
435,421
436,372
379,634
323,691
289,642
377,467
378,491
592,604
593,645
552,560
445,647
424,672
423,674
416,678
361,688
362,673
371,627
372,609
343,534
344,520
286,572
227,538
252,566
284,547
318,529
250,558
312,527
340,542
368,581
369,642
370,640
341,573
367,602
308,593
276,585
277,565
280,618
310,523
338,570
366,632
274,645
305,637
420,668
363,644
418,615
550,7081
579,7104
576,7049
577,7061
578,7077
520,7057
618,7071
662,7101
619,7088
620,7101
621,7095
665,7077
666,7069
664,7097
580,7116
2260,65535
2257,65535
2206,65535
2146,65535
2314,65535
2313,65535
2312,65535
2373,65535
2256,65535
2205,65535
2434,65535
2435,65535
2375,65535
2376,65535
2433,65535
2491,65535
2490,65535
2492,65535
2546,65535
2597,65535
2596,65535
2544,65535
2145,65535
2082,65535
2020,65535
2494,65535
0,65535
11,65535
1052,2068
1053,2055
941,2095
1740,706
1796,746
1615,586
1681,643
1545,550
1797,769
1544,555
1741,741
1795,1202
1617,561
1546,533
1616,610
1683,675
1467,525
1547,561
1465,538
1387,557
1388,502
1464,556
1462,2059
1461,2080
1542,1971
1463,2023
1682,706
1543,646
1618,592
1742,1300
1460,1770
1248,581
1850,634
1801,633
1803,586
882,464
881,473
938,507
883,459
940,2838
1998,577
1902,518
1807,426
1691,467
1694,373
1693,421
1749,498
1752,447
1753,404
1627,351
1628,321
1557,299
1479,216
1402,210
1808,415
1946,715
1947,650
1948,637
1997,592
1855,439
1690,446
2060,710
1949,865
1950,561
1751,490
1692,449
1999,569
1901,909
1900,921
1852,645
1853,524
1805,506
1750,503
1854,480
1806,466
1748,547
2061,764
2000,694
1804,699
1899,665
2884,65535
2892,65535
2883,65535
2876,65535
2874,65535
2882,65535
2877,65535
2911,65535
2905,65535
2906,65535
2896,65535
2887,65535
2881,65535
2880,65535
2888,65535
2902,65535
2903,65535
2907,65535
2912,65535
2895,65535
2894,65535
2875,65535
2885,65535
2893,65535
2904,65535
2865,65535
2866,65535
2909,65535
2913,65535
2886,65535
2878,65535
2869,65535
2871,65535
2872,65535
2879,65535
2870,65535
1330,275
1331,217
1401,226
1262,263
1263,257
1478,237
1403,170
1261,366
1480,227
1264,283
1390,515
1389,493
1319,477
1251,560
1250,635
1285,1442
1284,1446
1214,1418
1146,1384
1505,1667
1504,1601
1582,1639
1581,1567
1713,1546
1771,1528
1654,1678
1653,1651
1651,1603
2096,2782
2033,2742
1972,2713
1923,2645
1922,2623
1874,2317
1873,2030
1919,1983
1829,2994
1579,1503
1424,1495
1711,1520
1348,1344
1419,1364
1359,1771
1429,1722
1428,1708
1421,1421
1577,1455
1499,1428
1230,2015
1365,1952
1511,1874
1300,1997
1366,1969
1512,1902
1716,1736
1503,2013
1276,1298
1347,1328
1349,1376
1645,1512
1578,1490
1770,1524
1715,1579
1150,1483
1217,1497
1149,1459
1580,1529
1352,1536
1502,1518
1825,1936
1718,1891
1717,1865
1872,1969
1656,1780
1648,1555
1712,1532
1213,1408
1212,1389
1084,1430
1420,1410
1281,1334
1282,1395
1587,1774
1586,1741
1585,1730
1652,1698
1427,1876
1975,2817
1977,2885
1932,2955
1931,3580
1426,1596
1422,1438
1425,1581
1583,1667
1501,1525
1283,1436
1286,1483
1215,1468
1211,1365
1210,1339
1083,1401
1655,1769
2220,2823
1355,5891
1772,1537
1436,1920
1435,1910
1589,1843
1163,2048
1735,3168
1791,3101
1841,3078
1840,3034
1219,1600
1220,1639
1647,1541
1646,1533
1279,1286
1714,1556
1575,1515
1576,1477
1498,1485
1573,1527
1496,1545
1497,1516
2177,2965
2176,3035
2294,2952
2293,3071
2237,3012
2236,3041
2364,2813
2302,2753
2301,2675
2245,2577
2056,2707
2057,2793
2055,2686
2184,2738
2120,2744
2244,2658
2538,2998
2537,2979
2591,3095
1940,2870
1989,2878
1990,2814
2539,2998
2482,2989
2483,2951
2424,2847
2121,2805
2119,2618
2050,2927
2049,3005
2048,3423
2185,2771
2243,2497
2299,2711
2241,2660
2485,3029
2542,3084
2353,3043
2292,2950
2419,2837
2478,2884
2479,2919
2536,2946
2484,2990
2486,2983
2354,2882
2416,3059
2242,2705
2355,2920
2300,2718
1991,2818
1992,2825
2477,2875
2534,2896
2535,3011
2588,2916
2587,2930
2630,2981
2051,2739
2116,2633
2175,3068
2586,65535
2541,3151
2178,2940
2179,2743
2240,2690
2239,2914
2238,2984
2052,2870
2053,2836
1987,3110
1988,2958
1939,2982
2594,3101
2593,3086
2358,2804
2357,2814
2420,2870
2247,2866
2427,2956
2428,2978
2181,2537
2180,2586
2417,2864
2590,3076
2297,2699
2361,2891
2362,2774
2423,2862
2422,2827
2174,3298
2356,2925
1941,2859
2365,2990
2112,3303
2047,3445
2182,2676
2359,2753
2533,3691
2295,3016
2115,2706
2632,3136
2631,3075
2186,2923
2298,2785
2360,2809
2235,3261
2291,3274
2487,3205
2246,2798
2425,3606
2117,2930
2543,3158
1893,65535
2421,2962
2476,2880
2592,3134
604,7066
