middle_point_id,reach_time_minutes
2835,65535
2836,65535
2806,65535
2822,65535
2823,65535
2807,65535
2846,65535
887,426
888,418
1326,389
1185,309
999,410
1057,499
1552,491
1120,303
1473,699
944,576
832,428
1257,359
1396,739
1622,535
1327,904
1184,297
1183,271
1324,511
1255,533
1394,503
1252,186
1253,193
1182,225
1328,65535
1470,420
1321,172
1322,201
1323,437
1391,187
1551,485
1393,460
1472,504
1471,469
1181,494
1118,239
1059,329
1121,309
1469,645
1468,213
1548,288
1325,445
1625,532
1623,502
1258,387
1256,434
791,449
891,380
703,489
704,502
660,498
1553,498
1624,524
1554,532
1474,520
1475,573
1550,461
1549,390
1320,167
1466,144
1541,760
1318,21
1249,32
1186,342
1003,345
1002,338
741,457
788,435
434,575
697,471
752,520
1056,432
1006,384
907,663
518,545
1011,478
1000,361
1055,2102
997,2071
994,1965
996,2037
995,2021
991,1812
1112,4445
1114,2052
1051,2015
1398,612
1395,750
1001,349
1811,708
1960,1239
1769,1261
1823,1243
1329,65535
1332,582
1259,2216
1200,530
1199,528
1140,678
1141,682
783,431
1689,558
1802,640
1945,841
2183,2398
2418,2847
1994,875
1995,908
2059,970
1621,65535
1555,576
1754,761
1180,1343
1106,3045
933,3206
827,548
2122,2813
2124,1357
493,555
519,545
544,538
545,535
494,554
470,580
543,537
469,563
517,541
574,534
573,513
495,560
546,542
613,507
612,518
492,546
572,518
571,530
570,541
610,559
575,567
547,578
516,572
611,561
542,558
569,555
609,543
548,650
549,679
1404,550
1405,528
1266,495
1193,467
743,451
742,440
747,468
746,460
745,469
744,448
790,444
789,439
839,433
838,430
738,450
739,447
740,456
890,372
834,414
784,423
889,377
856,736
855,720
854,712
853,685
852,671
910,712
909,701
908,668
964,671
965,698
1020,734
966,723
963,637
1021,769
1271,531
1270,531
1339,547
1338,560
1071,534
1072,558
1135,530
1408,583
1337,518
1269,505
1268,499
1136,548
1075,669
1077,678
1076,700
1019,702
1018,675
1074,580
1137,564
1272,540
1274,616
1275,650
1205,692
1204,659
1273,587
1198,499
1197,494
1341,621
1134,489
1133,485
1069,481
1132,464
1073,590
1203,643
1202,585
1201,558
1139,628
1267,491
1138,589
1340,553
1196,479
1342,629
1409,604
1485,607
1407,593
1561,591
1632,617
1484,642
1483,549
1562,582
1194,454
1130,447
1195,463
1335,508
1129,438
1066,421
1128,454
1067,439
1131,455
1334,520
1336,503
1265,477
1333,579
1406,525
857,828
803,3562
804,7039
860,7047
969,7000
913,6987
912,6925
861,7057
806,7100
659,495
751,511
658,498
705,508
702,484
706,526
753,567
614,522
701,475
661,517
616,518
848,602
796,525
797,558
798,581
750,506
707,573
615,521
748,511
845,531
846,566
657,526
749,526
795,521
617,531
663,596
794,524
847,584
849,630
902,602
901,597
900,646
793,458
899,531
898,510
897,483
844,519
842,455
841,445
956,496
792,451
843,498
840,444
850,637
903,585
800,626
755,653
756,703
710,733
711,778
962,623
961,616
904,600
906,651
851,668
802,673
801,629
799,603
959,572
1014,528
1013,520
708,905
709,879
754,607
757,851
1017,603
1016,598
960,564
905,636
958,560
957,7709
1070,494
1015,545
1012,500
1068,462
1005,369
1004,350
1060,332
1063,403
1065,447
1127,433
1062,377
1124,387
1123,373
1125,401
1188,411
1122,348
1058,320
947,365
946,379
949,386
945,396
948,363
1190,533
1187,432
951,374
895,384
952,380
1009,416
1008,388
1010,443
1007,382
1061,373
954,463
896,413
953,389
1126,441
1064,412
1189,513
955,511
950,379
892,412
786,434
836,430
837,426
787,432
700,513
655,510
654,474
653,496
698,468
699,484
608,524
696,461
656,523
833,422
785,434
835,427
693,474
894,405
893,432
1343,623
1192,630
1191,635
828,538
829,524
780,470
830,519
779,536
782,437
529,606
886,453
596,562
556,577
598,540
597,551
526,608
555,600
525,628
524,644
523,660
688,486
607,503
650,491
651,485
652,489
737,448
694,475
695,462
645,496
646,468
690,464
600,499
599,510
781,441
736,455
558,612
644,517
643,493
648,478
692,461
691,458
513,616
541,597
540,635
568,596
530,619
831,444
559,604
560,599
642,560
557,572
496,695
471,724
444,792
446,756
528,587
527,596
562,537
602,506
734,480
466,601
464,607
463,627
478,714
481,652
480,689
479,689
647,488
488,623
502,606
689,473
533,543
532,564
531,621
601,541
484,660
508,574
510,644
509,620
534,596
482,700
506,591
606,513
455,733
429,672
456,759
457,739
428,706
458,684
554,626
594,704
640,627
639,746
551,690
681,767
636,759
635,746
590,707
778,545
777,552
485,684
486,639
462,652
563,543
885,464
943,1331
564,555
641,579
504,627
503,624
501,638
500,696
561,567
254,684
350,629
321,653
319,670
251,710
375,667
347,689
687,499
565,595
539,637
511,651
536,615
649,497
603,514
605,663
733,494
735,464
489,627
514,633
461,651
460,681
459,700
468,553
154,805
178,775
203,761
228,729
402,660
401,675
505,625
522,699
451,860
452,819
477,759
476,778
483,776
884,502
431,633
430,674
454,1343
595,577
395,838
394,873
422,894
417,817
390,863
538,610
567,552
426,799
397,775
398,771
499,1533
475,741
497,698
498,722
311,728
342,690
345,705
421,922
515,593
472,1416
448,1447
473,1472
474,1517
353,677
381,662
256,781
290,757
324,712
380,653
407,640
253,721
226,747
201,773
177,819
824,656
775,597
826,559
939,607
936,1798
937,673
880,729
566,628
2821,65535
2834,65535
2833,65535
2789,65535
2790,65535
2770,65535
2788,65535
2776,65535
2795,65535
2775,65535
2794,65535
2825,65535
2824,65535
2826,65535
2811,65535
2812,65535
2796,65535
2827,65535
2858,65535
2855,65535
2849,65535
2838,65535
2814,65535
2813,65535
2828,65535
2839,65535
2791,65535
2792,65535
2803,65535
2830,65535
2815,65535
2819,65535
2818,65535
2817,65535
2831,65535
2810,65535
2829,65535
2783,65535
2820,65535
2804,65535
2785,65535
2784,65535
2762,65535
2768,65535
2751,65535
2750,65535
2733,65535
2769,65535
2720,65535
2761,65535
2741,65535
2837,65535
2793,65535
2808,65535
2753,65535
2736,65535
2735,65535
2809,65535
2772,65535
2845,65535
2844,65535
2848,65535
2777,65535
2778,65535
2779,65535
2759,65535
2780,65535
2797,65535
2843,65535
2832,65535
2842,65535
2758,65535
2738,65535
2774,65535
2773,65535
2771,65535
2851,65535
2847,65535
2854,65535
2721,65535
2756,65535
2737,65535
2840,65535
2752,65535
2754,65535
2755,65535
2852,65535
2853,65535
2856,65535
2841,65535
2742,65535
2727,65535
2744,65535
2726,65535
2743,65535
2725,65535
2746,65535
2787,65535
2766,65535
2763,65535
2765,65535
2745,65535
2764,65535
2552,65535
2501,65535
2443,65535
2442,65535
2320,65535
2381,65535
2382,65535
2498,65535
2499,65535
2438,65535
2439,65535
2497,65535
2441,65535
2379,65535
2380,65535
2319,65535
2551,65535
2550,65535
2563,7557
2321,4213
2322,4182
2383,4194
2384,4905
2446,4948
2445,4956
2503,4975
2385,4939
2504,7678
2505,7700
2557,7724
2558,7749
2559,7773
2560,7737
2564,7513
2562,7625
2561,7665
2605,7680
2609,5264
2565,5209
2566,5194
2515,5139
2397,3559
2457,5120
2458,5104
2401,3731
2337,3472
2336,3476
2399,3518
2398,3539
2402,3765
2333,3696
2273,3731
2219,3755
2218,3767
2159,3792
2454,5824
2393,5790
2512,7524
2502,8309
2608,7943
2156,3914
2155,3946
2154,3975
2213,3991
2212,4003
2211,4051
2210,4092
2264,4099
2324,4133
2323,4149
2030,65535
2094,65535
2157,3878
2450,7921
2388,7970
2387,8038
2326,8075
2266,4280
2265,4235
2508,7892
2396,3628
2335,3646
2334,3657
2158,3817
2279,7345
2278,7309
2222,7278
2221,7260
2276,7242
2275,2844
2261,5727
2207,6585
2149,6644
2554,5027
2599,5057
2633,5095
2664,5130
2689,5167
2690,5193
2691,5209
2692,5233
2152,6338
2089,7046
2088,6384
2025,7179
2603,65535
2602,65535
2556,65535
2693,7172
2671,8955
2670,8935
2694,8894
2553,65535
2665,65535
2705,65535
2710,65535
2668,65535
2639,65535
2463,6586
2521,6622
2572,6645
2451,7806
2390,7775
2391,7595
2392,6232
2215,7800
2268,65535
2093,65535
2092,65535
2028,65535
2024,6414
2150,4452
2086,4482
2209,4439
2023,5553
2087,5506
2148,8599
2262,5712
2327,65535
1560,623
1630,698
1631,669
1559,800
1629,891
1558,788
1634,612
1633,636
1482,622
1481,645
1699,624
1700,641
1701,701
1563,593
2070,1318
2008,1254
2009,1254
1959,1236
1958,1230
2006,1222
1957,1218
1956,910
2193,1427
2132,1367
1912,1274
1911,1242
1865,1328
1866,1365
2007,1275
2069,1309
2010,1315
2011,1387
1961,1291
2072,1339
1913,1327
1867,1398
1962,1336
1914,1391
1915,1365
1909,1263
1636,673
1635,646
1564,623
1702,694
1637,677
1638,697
1565,659
1486,668
1760,764
1704,702
1703,688
1763,818
1762,738
1817,775
1705,717
1863,1310
1815,1386
1759,677
863,1808
758,1901
808,1852
982,2023
1036,2030
1099,2065
1100,2093
1166,2494
1167,2989
1237,2646
1238,2681
1375,2751
1308,2820
1309,2729
1236,2947
1235,2581
1101,2124
1037,2061
971,1604
1025,1587
1026,1602
1027,1615
1089,1628
720,1864
674,1910
864,1690
865,1711
919,1606
1024,1551
975,1725
974,1695
1028,1650
873,2050
925,1996
924,1973
917,1670
918,1646
623,2085
712,1957
713,1990
667,1995
622,2053
809,1838
719,1838
765,1799
972,1636
868,1748
869,1760
815,1779
920,2015
973,1681
981,1974
926,2075
927,2083
928,2107
1354,1600
1288,1541
1218,1517
1152,1586
1023,1515
1353,1614
1085,1495
1148,1425
1147,1418
1082,1369
772,2136
771,2093
819,2068
584,1984
628,1951
629,1940
1033,1871
978,1826
1031,1799
1030,1753
1029,1736
1091,1713
1035,1952
1034,1895
979,1853
1526,2870
1449,2908
1378,2936
1448,2859
1524,2837
1038,2108
1447,2900
1768,1240
1710,1302
1767,1228
391,902
365,850
339,802
400,703
393,1390
392,1374
396,876
399,720
443,807
449,1008
450,983
419,1359
414,1512
415,1419
387,1412
388,1405
389,1350
282,780
281,802
314,765
313,739
405,596
411,1714
442,1673
255,715
376,640
373,730
278,745
275,808
248,855
335,919
334,893
306,865
307,842
176,787
225,755
320,660
249,796
287,671
285,718
776,557
731,575
315,758
316,740
204,792
440,573
439,618
166,1905
269,1822
383,1760
1247,4390
1246,4412
1384,4496
1679,4658
1178,4383
1105,3049
1172,3068
1173,3118
1242,3120
1241,3112
1314,3269
1313,3175
1171,3094
1382,3375
1243,3317
1317,3456
1107,3057
1108,3236
1109,3521
1041,3066
1043,3276
1042,3267
1044,3330
1176,4284
1174,3343
1177,4332
1110,4339
985,3112
986,3155
932,3173
774,604
730,581
825,612
728,639
729,620
727,781
682,636
684,587
685,587
732,578
683,687
2134,1443
2194,1462
2068,1323
2129,1383
1905,767
1907,802
1906,773
1953,1265
2002,1288
2064,1297
2125,1310
2137,1601
2196,1555
2195,1502
1859,714
1810,720
1755,801
2131,1362
2192,1402
1862,1299
1861,901
1812,670
1860,892
1809,738
1756,670
1869,1288
1822,1270
1821,1287
1916,1327
1819,838
1764,805
1820,913
1698,631
1757,655
1566,686
1567,700
1488,673
1489,706
1412,637
1413,660
1414,633
1818,828
1568,1316
1410,601
2128,1391
2189,1463
2066,1378
2065,1320
2067,1380
1643,1318
1571,771
1491,740
2004,1376
2003,1328
1697,741
2135,1594
2075,1618
1642,1298
1955,842
2130,1480
2005,1282
1858,734
1816,8488
1864,8481
1766,925
1910,1286
1868,1279
2188,1675
2127,1644
1903,946
2001,1318
2063,1831
2062,1593
1813,705
1758,753
1639,885
1640,842
1952,1330
2126,8570
1569,796
1965,1506
1966,1552
2014,1569
1490,690
1917,1338
1870,1307
1871,1321
1570,774
1707,1326
2076,1636
2013,1574
1964,1352
1487,654
1908,1249
2251,3681
2199,3625
2198,3488
2136,1643
1641,1290
1954,1306
1765,888
1857,746
2187,1996
1904,950
1856,898
1951,1343
1708,1534
245,8799
244,8782
357,8786
246,8914
247,8943
197,9037
223,9015
44,9379
43,9439
3,9575
23,9549
22,9538
63,9321
85,9263
84,9218
108,8718
149,8672
172,9063
296,8766
294,8814
355,8914
354,8946
326,9024
295,8923
291,8935
293,9057
260,8943
356,8974
441,8574
412,8597
329,8932
300,8876
148,8646
214,8884
146,8767
110,8848
262,8909
258,9322
292,9085
257,9387
235,8907
187,8807
212,8863
211,8890
186,8811
162,8785
161,8864
165,8763
189,8963
238,9044
237,9009
263,8945
265,8964
266,8942
267,8930
268,8770
26,9539
25,9507
105,65535
62,65535
83,65535
126,8885
175,9320
152,9254
151,9244
150,9203
103,8823
242,8716
191,8670
192,8721
217,8744
218,8797
145,8707
144,8791
167,8699
190,8677
219,8814
159,8911
185,8855
158,8968
188,8799
160,8876
143,65535
122,65535
75,65535
54,65535
198,9448
270,8811
221,8852
301,8909
302,8746
330,8773
331,8795
115,8847
133,8906
139,8803
134,8880
114,9404
48,65535
69,65535
92,9080
164,8873
4,65535
107,9225
129,9310
109,8750
125,8791
124,8765
127,65535
82,65535
67,65535
91,9248
93,9047
137,9182
113,9202
112,9160
136,65535
49,65535
72,65535
71,65535
406,665
805,7090
858,6895
859,7036
967,1074
1142,1209
1080,6735
1022,6776
1079,6768
968,6891
1206,1166
915,7042
916,7077
914,7014
807,7129
911,8236
1078,6992
1207,1224
1278,1268
1277,1271
1344,1291
1415,1332
1492,1387
1345,1348
1346,1318
1208,1216
1209,1296
1143,1333
1144,1349
1145,1364
1417,1344
1493,1404
1494,1423
1572,1438
1081,7061
970,7264
408,662
382,689
437,612
467,591
409,664
403,653
432,678
433,639
404,612
352,683
351,663
349,655
317,704
374,681
346,733
283,753
410,637
438,620
465,612
490,611
491,568
435,611
436,637
379,699
323,705
289,736
377,657
378,629
592,724
593,763
552,692
445,797
424,857
423,1336
416,1410
361,1327
362,1338
371,818
372,788
343,705
344,725
286,735
227,719
252,756
284,730
318,714
250,736
312,746
340,764
368,822
369,916
370,1412
341,1353
367,886
308,828
276,807
277,788
280,787
310,754
338,825
366,1380
274,1370
305,1572
420,1359
363,1332
418,1333
550,7081
579,7104
576,7049
577,7061
578,7077
520,7057
618,7071
662,7101
619,7088
620,7101
621,7095
665,7077
666,7069
664,7097
580,7116
2260,65535
2257,65535
2206,65535
2146,65535
2314,65535
2313,65535
2312,65535
2373,65535
2256,65535
2205,65535
2434,65535
2435,65535
2375,65535
2376,65535
2433,65535
2491,65535
2490,65535
2492,65535
2546,65535
2597,65535
2596,65535
2544,65535
2145,65535
2082,65535
2020,65535
2494,65535
0,65535
11,65535
1052,2068
1053,2055
941,2095
1740,492
1796,533
1615,319
1681,436
1545,163
1797,533
1544,214
1741,440
1795,730
1617,279
1546,245
1616,238
1683,281
1467,176
1547,218
1465,237
1387,219
1388,201
1464,284
1462,619
1461,640
1542,704
1463,583
1682,406
1543,273
1618,348
1742,640
1460,806
1248,0
1850,652
1801,648
1803,626
882,559
881,569
938,618
883,579
940,2838
1998,1215
1902,1341
1807,726
1691,527
1694,690
1693,1312
1749,558
1752,593
1753,651
1627,721
1628,733
1557,767
1479,599
1402,581
1808,715
1946,1435
1947,1380
1948,1284
1997,1170
1855,847
1690,506
2060,1557
1949,1439
1950,1295
1751,575
1692,535
1999,1231
1901,1305
1900,1246
1852,1218
1853,1180
1805,694
1750,570
1854,889
1806,688
1748,595
2061,1552
2000,1294
1804,699
1899,1267
2884,65535
2892,65535
2883,65535
2876,65535
2874,65535
2882,65535
2877,65535
2911,65535
2905,65535
2906,65535
2896,65535
2887,65535
2881,65535
2880,65535
2888,65535
2902,65535
2903,65535
2907,65535
2912,65535
2895,65535
2894,65535
2875,65535
2885,65535
2893,65535
2904,65535
2865,65535
2866,65535
2909,65535
2913,65535
2886,65535
2878,65535
2869,65535
2871,65535
2872,65535
2879,65535
2870,65535
1330,620
1331,588
1401,586
1262,597
1263,589
1478,599
1403,576
1261,606
1480,587
1264,586
1390,166
1389,115
1319,92
1251,214
1250,137
1285,1442
1284,1446
1214,1418
1146,1384
1505,1667
1504,1601
1582,1639
1581,1567
1713,1546
1771,1528
1654,1678
1653,1651
1651,1603
2096,2782
2033,2742
1972,2713
1923,2645
1922,2623
1874,2317
1873,2030
1919,1983
1829,2994
1579,1503
1424,1495
1711,1520
1348,1344
1419,1364
1359,1771
1429,1722
1428,1708
1421,1421
1577,1455
1499,1428
1230,2015
1365,1952
1511,1874
1300,1997
1366,1969
1512,1902
1716,1736
1503,2013
1276,1298
1347,1328
1349,1376
1645,1512
1578,1490
1770,1524
1715,1579
1150,1483
1217,1497
1149,1459
1580,1529
1352,1536
1502,1518
1825,1936
1718,1891
1717,1865
1872,1969
1656,1780
1648,1555
1712,1532
1213,1408
1212,1389
1084,1430
1420,1410
1281,1334
1282,1395
1587,1774
1586,1741
1585,1730
1652,1698
1427,1876
1975,2817
1977,2885
1932,2955
1931,3580
1426,1596
1422,1438
1425,1581
1583,1667
1501,1525
1283,1436
1286,1483
1215,1468
1211,1365
1210,1339
1083,1401
1655,1769
2220,2823
1355,5891
1772,1537
1436,1920
1435,1910
1589,1843
1163,2048
1735,3168
1791,3101
1841,3078
1840,3034
1219,1600
1220,1639
1647,1541
1646,1533
1279,1286
1714,1556
1575,1515
1576,1477
1498,1485
1573,1527
1496,1545
1497,1516
2177,2965
2176,3035
2294,2952
2293,3071
2237,3012
2236,3041
2364,2813
2302,2753
2301,2675
2245,2577
2056,2707
2057,2793
2055,2686
2184,2738
2120,2744
2244,2658
2538,2998
2537,2979
2591,3095
1940,2870
1989,2878
1990,2814
2539,2998
2482,2989
2483,2951
2424,2847
2121,2805
2119,2618
2050,2927
2049,3005
2048,3423
2185,2771
2243,2497
2299,2711
2241,2660
2485,3029
2542,3084
2353,3043
2292,2950
2419,2837
2478,2884
2479,2919
2536,2946
2484,2990
2486,2983
2354,2882
2416,3059
2242,2705
2355,2920
2300,2718
1991,2818
1992,2825
2477,2875
2534,2896
2535,3011
2588,2916
2587,2930
2630,2981
2051,2739
2116,2633
2175,3068
2586,65535
2541,3151
2178,2940
2179,2743
2240,2690
2239,2914
2238,2984
2052,2870
2053,2836
1987,3110
1988,2958
1939,2982
2594,3101
2593,3086
2358,2804
2357,2814
2420,2870
2247,2866
2427,2956
2428,2978
2181,2537
2180,2586
2417,2864
2590,3076
2297,2699
2361,2891
2362,2774
2423,2862
2422,2827
2174,3298
2356,2925
1941,2859
2365,2990
2112,3303
2047,3445
2182,2676
2359,2753
2533,3691
2295,3016
2115,2706
2632,3136
2631,3075
2186,2923
2298,2785
2360,2809
2235,3261
2291,3274
2487,3205
2246,2798
2425,3606
2117,2930
2543,3158
1893,65535
2421,2962
2476,2880
2592,3134
604,7066
