middle_point_id,reach_time_minutes
2835,65535
2836,65535
2806,65535
2822,65535
2823,65535
2807,65535
2846,65535
887,324
888,298
1326,58
1185,143
999,290
1057,437
1552,263
1120,174
1473,240
944,438
832,290
1257,48
1396,259
1622,355
1327,424
1184,175
1183,219
1324,391
1255,924
1394,792
1252,1094
1253,1120
1182,1125
1328,65535
1470,824
1321,1074
1322,1015
1323,965
1391,1087
1551,271
1393,793
1472,478
1471,764
1181,1454
1118,1139
1059,190
1121,162
1469,901
1468,1141
1548,923
1325,325
1625,351
1623,286
1258,107
1256,0
791,282
891,228
703,345
704,371
660,361
1553,267
1624,309
1554,290
1474,280
1475,333
1550,549
1549,846
1320,1086
1466,1123
1541,1720
1318,1199
1249,1221
1186,108
1003,207
1002,195
741,282
788,256
434,414
697,291
752,400
1056,312
1006,252
907,745
518,417
1011,384
1000,213
1055,1622
997,1591
994,1485
996,1557
995,1541
991,1332
1112,3965
1114,1572
1051,1535
1398,372
1395,270
1001,204
1811,759
1960,1004
1769,1031
1823,1044
1329,65535
1332,787
1259,1736
1200,414
1199,408
1140,778
1141,802
783,299
1689,713
1802,720
1945,1436
2183,1918
2418,2367
1994,1472
1995,1868
2059,997
1621,65535
1555,816
1754,571
1180,1170
1106,2565
933,2726
827,428
2122,2333
2124,931
493,455
519,441
544,411
545,416
494,448
470,523
543,415
469,804
517,423
574,420
573,393
495,778
546,422
613,369
612,372
492,446
572,392
571,439
570,764
610,404
575,463
547,878
516,803
611,381
542,788
569,835
609,418
548,950
549,979
1404,486
1405,406
1266,378
1193,347
743,268
742,262
747,317
746,292
745,284
744,268
790,277
789,260
839,289
838,250
738,307
739,289
740,276
890,250
834,278
784,287
889,257
856,863
855,840
854,848
853,863
852,762
910,832
909,821
908,810
964,772
965,804
1020,863
966,841
963,751
1021,890
1271,413
1270,411
1339,460
1338,447
1071,387
1072,392
1135,423
1408,463
1337,410
1269,434
1268,403
1136,428
1075,813
1077,785
1076,820
1019,860
1018,795
1074,460
1137,444
1272,420
1274,504
1275,770
1205,813
1204,797
1273,476
1198,379
1197,374
1341,466
1134,357
1133,343
1069,345
1132,335
1073,410
1203,801
1202,462
1201,446
1139,497
1267,388
1138,832
1340,433
1196,371
1342,734
1409,474
1485,792
1407,823
1561,777
1632,764
1484,821
1483,735
1562,767
1194,371
1130,315
1195,372
1335,397
1129,303
1066,331
1128,276
1067,331
1131,326
1334,476
1336,434
1265,395
1333,759
1406,453
857,1788
803,3082
804,6559
860,6567
969,6520
913,6507
912,6445
861,6577
806,6620
659,353
751,384
658,361
705,375
702,343
706,386
753,404
614,364
701,327
661,373
616,368
848,445
796,397
797,408
798,417
750,368
707,393
615,401
748,391
845,363
846,453
657,372
749,357
795,398
617,411
663,416
794,344
847,414
849,450
902,463
901,437
900,413
793,314
899,352
898,326
897,332
844,353
842,298
841,288
956,395
792,298
843,320
840,298
850,489
903,452
800,489
755,477
756,774
710,491
711,1018
962,503
961,497
904,460
906,716
851,712
802,525
801,500
799,483
959,452
1014,401
1013,434
708,432
709,460
754,449
757,851
1017,424
1016,418
960,444
905,516
958,467
957,388
1070,381
1015,426
1012,380
1068,339
1005,240
1004,196
1060,179
1063,236
1065,284
1127,235
1062,230
1124,193
1123,164
1125,217
1188,153
1122,168
1058,189
947,245
946,259
949,199
945,289
948,219
1190,356
1187,133
951,258
895,291
952,274
1009,310
1008,286
1010,349
1007,260
1061,243
954,343
896,321
953,293
1126,224
1064,249
1189,273
955,359
950,267
892,232
786,254
836,250
837,246
787,252
700,346
655,368
654,346
653,309
698,295
699,295
608,380
696,289
656,365
833,286
785,266
835,272
693,298
894,301
893,260
1343,792
1192,914
1191,875
828,418
829,404
780,350
830,399
779,401
782,300
529,874
886,337
596,891
556,906
598,844
597,863
526,912
555,930
525,924
524,938
523,948
688,370
607,410
650,847
651,793
652,850
737,315
694,304
695,296
645,359
646,343
690,319
600,369
599,390
781,305
736,315
558,870
644,367
643,400
648,331
692,309
691,321
513,901
541,834
540,874
568,894
530,889
831,324
559,881
560,930
642,883
557,904
496,1000
471,1017
444,1120
446,1046
528,881
527,895
562,861
602,824
734,366
466,848
464,869
463,895
478,1014
481,952
480,1001
479,989
647,333
488,897
502,889
689,366
533,871
532,897
531,921
601,799
484,498
508,889
510,851
509,864
534,898
482,966
506,920
606,845
455,1078
429,901
456,1174
457,951
428,963
458,929
554,1044
594,1043
640,867
639,1009
551,990
681,1054
636,1042
635,1019
590,994
778,425
777,432
485,493
486,484
462,794
563,876
885,348
943,851
564,893
641,861
504,904
503,897
501,918
500,957
561,918
254,960
350,912
321,921
319,912
251,975
375,636
347,871
687,383
565,924
539,942
511,894
536,940
649,837
603,855
605,1406
733,402
735,319
489,894
514,887
461,956
460,985
459,961
468,836
154,1105
178,1086
203,1063
228,1027
402,571
401,863
505,925
522,982
451,1247
452,1216
477,1021
476,962
483,1066
884,893
431,495
430,864
454,1240
595,947
395,1140
394,1166
422,1201
417,1096
390,1104
538,947
567,920
426,1382
397,1074
398,1104
499,1053
475,994
497,964
498,991
311,974
342,976
345,921
421,1216
515,904
472,1116
448,1141
473,1167
474,1182
353,919
381,899
256,1041
290,991
324,929
380,946
407,874
253,1021
226,1048
201,1074
177,1111
824,896
775,831
826,439
939,847
936,1318
937,913
880,900
566,1095
2821,65535
2834,65535
2833,65535
2789,65535
2790,65535
2770,65535
2788,65535
2776,65535
2795,65535
2775,65535
2794,65535
2825,65535
2824,65535
2826,65535
2811,65535
2812,65535
2796,65535
2827,65535
2858,65535
2855,65535
2849,65535
2838,65535
2814,65535
2813,65535
2828,65535
2839,65535
2791,65535
2792,65535
2803,65535
2830,65535
2815,65535
2819,65535
2818,65535
2817,65535
2831,65535
2810,65535
2829,65535
2783,65535
2820,65535
2804,65535
2785,65535
2784,65535
2762,65535
2768,65535
2751,65535
2750,65535
2733,65535
2769,65535
2720,65535
2761,65535
2741,65535
2837,65535
2793,65535
2808,65535
2753,65535
2736,65535
2735,65535
2809,65535
2772,65535
2845,65535
2844,65535
2848,65535
2777,65535
2778,65535
2779,65535
2759,65535
2780,65535
2797,65535
2843,65535
2832,65535
2842,65535
2758,65535
2738,65535
2774,65535
2773,65535
2771,65535
2851,65535
2847,65535
2854,65535
2721,65535
2756,65535
2737,65535
2840,65535
2752,65535
2754,65535
2755,65535
2852,65535
2853,65535
2856,65535
2841,65535
2742,65535
2727,65535
2744,65535
2726,65535
2743,65535
2725,65535
2746,65535
2787,65535
2766,65535
2763,65535
2765,65535
2745,65535
2764,65535
2552,65535
2501,65535
2443,65535
2442,65535
2320,65535
2381,65535
2382,65535
2498,65535
2499,65535
2438,65535
2439,65535
2497,65535
2441,65535
2379,65535
2380,65535
2319,65535
2551,65535
2550,65535
2563,7077
2321,6613
2322,6582
2383,6594
2384,6800
2446,6842
2445,6849
2503,6868
2385,6833
2504,7198
2505,7220
2557,7244
2558,7269
2559,7293
2560,7257
2564,7425
2562,7145
2561,7185
2605,7200
2609,7472
2565,7548
2566,7564
2515,7575
2397,5959
2457,7605
2458,7627
2401,6036
2337,5872
2336,5876
2399,5918
2398,5939
2402,6096
2333,6096
2273,6131
2219,6155
2218,6167
2159,6192
2454,6784
2393,6750
2512,7044
2502,7036
2608,7463
2156,6314
2155,6346
2154,6375
2213,6391
2212,6403
2211,6451
2210,6492
2264,6499
2324,6533
2323,6549
2030,65535
2094,65535
2157,6278
2450,7441
2388,7490
2387,7558
2326,7595
2266,7630
2265,6974
2508,7412
2396,6028
2335,6046
2334,6057
2158,6217
2279,8186
2278,8150
2222,8119
2221,8101
2276,8083
2275,3999
2261,6806
2207,6843
2149,65535
2554,6926
2599,6958
2633,7004
2664,8691
2689,8749
2690,8855
2691,8893
2692,8926
2152,6487
2089,6566
2088,6554
2025,6699
2603,65535
2602,65535
2556,65535
2693,65535
2671,65535
2670,65535
2694,65535
2553,65535
2665,65535
2705,65535
2710,65535
2668,65535
2639,65535
2463,6106
2521,6142
2572,6165
2451,7326
2390,7295
2391,7115
2392,7078
2215,7320
2268,65535
2093,65535
2092,65535
2028,65535
2024,8377
2150,7803
2086,7851
2209,7785
2023,7953
2087,7906
2148,8119
2262,6792
2327,65535
1560,785
1630,841
1631,777
1559,848
1629,971
1558,873
1634,899
1633,802
1482,808
1481,823
1699,760
1700,846
1701,874
1563,867
2070,1018
2008,1014
2009,1014
1959,1008
1958,990
2006,972
1957,960
1956,966
2193,1267
2132,1209
1912,1032
1911,1025
1865,1087
1866,1179
2007,994
2069,1000
2010,1053
2011,1140
1961,1045
2072,1069
1913,1179
1867,1230
1962,1078
1914,1087
1915,1120
1909,941
1636,857
1635,881
1564,894
1702,865
1637,864
1638,885
1565,848
1486,825
1760,958
1704,888
1703,873
1763,916
1762,901
1817,1047
1705,924
1863,989
1815,1006
1759,867
863,2768
758,2861
808,2812
982,2983
1036,2990
1099,3025
1100,3053
1166,3454
1167,3949
1237,3606
1238,3641
1375,3711
1308,3780
1309,3689
1236,3907
1235,3541
1101,3084
1037,3021
971,2564
1025,2547
1026,2562
1027,2575
1089,2588
720,2824
674,2870
864,2650
865,2671
919,2566
1024,2511
975,2685
974,2655
1028,2610
873,3010
925,2956
924,2933
917,2630
918,2606
623,3045
712,2917
713,2950
667,2955
622,3013
809,2798
719,2798
765,2759
972,2596
868,2708
869,2720
815,2739
920,2854
973,2641
981,2934
926,3035
927,3043
928,3067
1354,2517
1288,2501
1218,2477
1152,2546
1023,2475
1353,2501
1085,2455
1148,2385
1147,2378
1082,2329
772,3096
771,3053
819,3028
584,2944
628,2911
629,2900
1033,2831
978,2786
1031,2759
1030,2713
1029,2696
1091,2673
1035,2912
1034,2855
979,2813
1526,3830
1449,3868
1378,3896
1448,3819
1524,3797
1038,3068
1447,3860
1768,1038
1710,1016
1767,1163
391,1088
365,1042
339,1025
400,986
393,1212
392,1190
396,1118
399,1004
443,1176
449,1274
450,1279
419,1190
414,1229
415,1170
387,1163
388,1132
389,1112
282,1020
281,1040
314,1112
313,1100
405,854
411,1234
442,1193
255,970
376,874
373,893
278,985
275,1054
248,1102
335,1187
334,1161
306,1106
307,1094
176,1096
225,1034
320,929
249,1092
287,932
285,956
776,442
731,499
315,1009
316,990
204,1104
440,813
439,848
166,1425
269,1342
383,1280
1247,3910
1246,3932
1384,4016
1679,4178
1178,3903
1105,2569
1172,2588
1173,2638
1242,2640
1241,2632
1314,2789
1313,2695
1171,2614
1382,2895
1243,2837
1317,2976
1107,2577
1108,2756
1109,3041
1041,2586
1043,2796
1042,2787
1044,2850
1176,3804
1174,2863
1177,3852
1110,3859
985,2632
986,2675
932,2693
774,890
730,787
825,495
728,879
729,821
727,1059
682,876
684,858
685,778
732,840
683,862
2134,1368
2194,1391
2068,1075
2129,1130
1905,824
1907,912
1906,877
1953,873
2002,880
2064,890
2125,907
2137,1827
2196,1498
2195,1444
1859,785
1810,775
1755,646
2131,1081
2192,1119
1862,941
1861,895
1812,856
1860,893
1809,775
1756,695
1869,1012
1822,1082
1821,1031
1916,1050
1819,965
1764,941
1820,970
1698,730
1757,749
1566,895
1567,898
1488,895
1489,777
1412,768
1413,801
1414,810
1818,975
1568,836
1410,780
2128,1177
2189,1204
2066,1286
2065,1325
2067,1127
1643,892
1571,835
1491,825
2004,1296
2003,915
1697,855
2135,1583
2075,1445
1642,880
1955,971
2130,1351
2005,1065
1858,793
1816,8008
1864,8001
1766,1062
1910,1025
1868,1002
2188,1411
2127,1380
1903,798
2001,957
2063,1351
2062,1212
1813,933
1758,789
1639,935
1640,911
1952,927
2126,8090
1569,866
1965,1302
1966,1348
2014,1368
1490,817
1917,1105
1870,1141
1871,1155
1570,833
1707,1098
2076,1435
2013,1400
1964,1354
1487,803
1908,1057
2251,3201
2199,3145
2198,3008
2136,1585
1641,993
1954,1048
1765,1071
1857,823
2187,1516
1904,802
1856,777
1951,879
1708,1308
245,8319
244,8302
357,8306
246,8434
247,8463
197,8557
223,8535
44,8899
43,8959
3,9095
23,9069
22,9058
63,8841
85,8783
84,8738
108,8238
149,8192
172,8583
296,8286
294,8334
355,8434
354,8466
326,8544
295,8443
291,8455
293,8577
260,8463
356,8494
441,8094
412,8117
329,8452
300,8396
148,8166
214,8404
146,8287
110,8368
262,8429
258,8842
292,8605
257,8907
235,8427
187,8327
212,8383
211,8410
186,8331
162,8305
161,8384
165,8283
189,8483
238,8564
237,8529
263,8465
265,8484
266,8462
267,8450
268,8290
26,9059
25,9027
105,65535
62,65535
83,65535
126,8405
175,8840
152,8774
151,8764
150,8723
103,8343
242,8236
191,8190
192,8241
217,8264
218,8317
145,8227
144,8311
167,8219
190,8197
219,8334
159,8431
185,8375
158,8488
188,8319
160,8396
143,65535
122,65535
75,65535
54,65535
198,8968
270,8331
221,8372
301,8429
302,8266
330,8293
331,8315
115,8367
133,8426
139,8323
134,8400
114,8924
48,65535
69,65535
92,8600
164,8393
4,65535
107,8745
129,8830
109,8270
125,8311
124,8285
127,65535
82,65535
67,65535
91,8768
93,8567
137,8702
113,8722
112,8680
136,65535
49,65535
72,65535
71,65535
406,945
805,6610
858,6415
859,6556
967,2034
1142,2169
1080,6255
1022,6296
1079,6288
968,6411
1206,2126
915,6562
916,6597
914,6534
807,6649
911,7756
1078,6512
1207,2184
1278,2228
1277,2231
1344,2251
1415,2292
1492,2347
1345,2308
1346,2278
1208,2176
1209,2256
1143,2293
1144,2309
1145,2324
1417,2304
1493,2364
1494,2383
1572,2398
1081,6581
970,6784
408,893
382,921
437,869
467,880
409,874
403,829
432,873
433,854
404,931
352,946
351,925
349,886
317,1122
374,863
346,954
283,992
410,866
438,883
465,872
490,859
491,817
435,876
436,894
379,996
323,1067
289,1097
377,907
378,880
592,1027
593,1065
552,972
445,1097
424,1154
423,1186
416,1129
361,1159
362,1135
371,1051
372,1023
343,945
344,936
286,1323
227,1021
252,1014
284,967
318,949
250,1196
312,980
340,1022
368,1061
369,1133
370,1242
341,1081
367,1072
308,1296
276,1034
277,1015
280,1008
310,1003
338,1050
366,1062
274,1116
305,1413
420,1238
363,1151
418,1215
550,6601
579,6624
576,6569
577,6581
578,6597
520,6577
618,6591
662,6621
619,6608
620,6621
621,6615
665,6597
666,6589
664,6617
580,6636
2260,65535
2257,65535
2206,65535
2146,65535
2314,65535
2313,65535
2312,65535
2373,65535
2256,65535
2205,65535
2434,65535
2435,65535
2375,65535
2376,65535
2433,65535
2491,65535
2490,65535
2492,65535
2546,65535
2597,65535
2596,65535
2544,65535
2145,65535
2082,65535
2020,65535
2494,65535
0,65535
11,65535
1052,1588
1053,1575
941,1615
1740,1452
1796,1493
1615,1279
1681,1396
1545,1148
1797,1493
1544,1174
1741,1400
1795,1690
1617,1239
1546,1205
1616,1198
1683,1241
1467,1113
1547,1178
1465,1197
1387,1179
1388,1161
1464,1244
1462,1579
1461,1600
1542,1664
1463,1543
1682,1366
1543,1233
1618,1308
1742,1600
1460,1766
1248,1296
1850,767
1801,738
1803,466
882,439
881,479
938,858
883,824
940,2358
1998,890
1902,861
1807,737
1691,358
1694,973
1693,832
1749,378
1752,766
1753,798
1627,763
1628,921
1557,814
1479,793
1402,784
1808,710
1946,955
1947,900
1948,862
1997,902
1855,753
1690,326
2060,1077
1949,959
1950,881
1751,729
1692,389
1999,886
1901,825
1900,766
1852,738
1853,700
1805,420
1750,407
1854,853
1806,771
1748,439
2061,1124
2000,913
1804,731
1899,787
2884,65535
2892,65535
2883,65535
2876,65535
2874,65535
2882,65535
2877,65535
2911,65535
2905,65535
2906,65535
2896,65535
2887,65535
2881,65535
2880,65535
2888,65535
2902,65535
2903,65535
2907,65535
2912,65535
2895,65535
2894,65535
2875,65535
2885,65535
2893,65535
2904,65535
2865,65535
2866,65535
2909,65535
2913,65535
2886,65535
2878,65535
2869,65535
2871,65535
2872,65535
2879,65535
2870,65535
1330,886
1331,800
1401,796
1262,805
1263,801
1478,837
1403,762
1261,814
1480,782
1264,831
1390,1093
1389,1152
1319,1130
1251,1185
1250,1261
1285,2420
1284,2406
1214,2378
1146,2342
1505,2627
1504,2561
1582,2599
1581,2527
1713,2506
1771,2488
1654,2638
1653,2611
1651,2563
2096,3742
2033,3702
1972,3673
1923,3605
1922,3583
1874,3277
1873,2990
1919,2943
1829,5654
1579,2463
1424,2467
1711,2480
1348,2304
1419,2324
1359,2731
1429,2682
1428,2668
1421,2381
1577,2415
1499,2388
1230,2975
1365,2912
1511,2834
1300,2957
1366,2929
1512,2862
1716,2696
1503,2749
1276,2258
1347,2288
1349,2336
1645,2472
1578,2450
1770,2484
1715,2539
1150,2443
1217,2457
1149,2419
1580,2509
1352,2496
1502,2527
1825,2896
1718,2851
1717,2825
1872,2929
1656,2740
1648,2515
1712,2492
1213,2368
1212,2349
1084,2390
1420,2370
1281,2294
1282,2355
1587,2734
1586,2701
1585,2690
1652,2658
1427,2836
1975,3777
1977,3845
1932,3915
1931,4540
1426,2556
1422,2398
1425,2541
1583,2627
1501,2485
1283,2396
1286,2443
1215,2428
1211,2325
1210,2299
1083,2361
1655,2729
2220,3977
1355,5411
1772,2497
1436,2880
1435,2870
1589,2803
1163,3008
1735,4128
1791,4061
1841,4038
1840,3994
1219,2560
1220,2599
1647,2501
1646,2493
1279,2246
1714,2516
1575,2475
1576,2437
1498,2445
1573,2487
1496,2505
1497,2476
2177,2485
2176,2555
2294,2472
2293,2591
2237,2532
2236,2561
2364,2333
2302,2273
2301,2195
2245,2097
2056,2227
2057,2313
2055,2206
2184,2258
2120,2264
2244,2178
2538,2518
2537,2499
2591,2615
1940,2390
1989,2398
1990,2334
2539,2518
2482,2509
2483,2471
2424,2367
2121,2325
2119,2138
2050,2447
2049,2525
2048,2943
2185,2291
2243,2017
2299,2231
2241,2180
2485,2549
2542,2604
2353,2563
2292,2470
2419,2357
2478,2404
2479,2439
2536,2466
2484,2510
2486,2503
2354,2402
2416,2579
2242,2225
2355,2440
2300,2238
1991,2338
1992,2345
2477,2395
2534,2416
2535,2531
2588,2436
2587,2450
2630,2501
2051,2259
2116,2153
2175,2588
2586,65535
2541,2671
2178,2460
2179,2263
2240,2210
2239,2434
2238,2504
2052,2390
2053,2356
1987,2630
1988,2478
1939,2502
2594,2621
2593,2606
2358,2324
2357,2334
2420,2390
2247,2386
2427,2476
2428,2498
2181,2057
2180,2106
2417,2384
2590,2596
2297,2219
2361,2411
2362,2294
2423,2382
2422,2347
2174,2818
2356,2445
1941,2379
2365,2510
2112,2823
2047,2965
2182,2196
2359,2273
2533,3211
2295,2536
2115,2226
2632,2656
2631,2595
2186,2443
2298,2305
2360,2329
2235,2781
2291,2794
2487,2725
2246,2318
2425,3126
2117,2450
2543,2678
1893,65535
2421,2482
2476,2400
2592,2654
604,6586
