middle_point_id,reach_time_minutes
2835,65535
2836,65535
2806,65535
2822,65535
2823,65535
2807,65535
2846,65535
887,253
888,238
1326,220
1185,189
999,170
1057,470
1552,843
1120,174
1473,463
944,317
832,248
1257,195
1396,244
1622,895
1327,3784
1184,179
1183,189
1324,505
1255,951
1394,1122
1252,355
1253,316
1182,260
1328,65535
1470,1069
1321,354
1322,321
1323,2405
1391,852
1551,892
1393,1043
1472,976
1471,1010
1181,434
1118,298
1059,130
1121,144
1469,932
1468,837
1548,1185
1325,445
1625,898
1623,861
1258,42
1256,314
791,273
891,200
703,309
704,324
660,321
1553,811
1624,837
1554,954
1474,518
1475,887
1550,959
1549,1134
1320,756
1466,869
1541,2515
1318,826
1249,846
1186,176
1003,139
1002,135
741,227
788,256
434,365
697,284
752,338
1056,192
1006,168
907,456
518,433
1011,292
1000,153
1055,1502
997,1382
994,1288
996,1376
995,1363
991,1332
1112,65535
1114,1334
1051,1315
1398,1692
1395,930
1001,146
1811,962
1960,1195
1769,1184
1823,1203
1329,65535
1332,458
1259,0
1200,354
1199,355
1140,543
1141,562
783,260
1689,924
1802,980
1945,1436
2183,1918
2418,2367
1994,1472
1995,1868
2059,1177
1621,65535
1555,936
1754,1036
1180,863
1106,2470
933,2726
827,330
2122,1723
2124,1499
493,449
519,449
544,427
545,433
494,463
470,498
543,437
469,454
517,466
574,445
573,402
495,896
546,439
613,352
612,363
492,814
572,412
571,440
570,884
610,367
575,476
547,878
516,1002
611,414
542,827
569,860
609,343
548,2229
549,2264
1404,364
1405,346
1266,315
1193,287
743,270
742,239
747,288
746,279
745,284
744,268
790,277
789,260
839,289
838,239
738,253
739,232
740,220
890,186
834,232
784,227
889,191
856,552
855,515
854,495
853,476
852,467
910,508
909,497
908,478
964,462
965,466
1020,911
966,490
963,471
1021,535
1271,353
1270,351
1339,370
1338,330
1071,364
1072,378
1135,367
1408,345
1337,322
1269,325
1268,317
1136,368
1075,429
1077,534
1076,497
1019,462
1018,453
1074,392
1137,384
1272,379
1274,504
1275,889
1205,932
1204,839
1273,476
1198,376
1197,321
1341,405
1134,357
1133,311
1069,301
1132,284
1073,382
1203,569
1202,462
1201,446
1139,497
1267,311
1138,415
1340,372
1196,299
1342,869
1409,474
1485,792
1407,448
1561,426
1632,468
1484,821
1483,381
1562,418
1194,251
1130,241
1195,264
1335,331
1129,229
1066,220
1128,214
1067,277
1131,259
1334,432
1336,323
1265,335
1333,422
1406,345
857,948
803,982
804,2239
860,2247
969,2200
913,2187
912,2125
861,2257
806,2300
659,319
751,331
658,323
705,328
702,304
706,332
753,363
614,342
701,295
661,337
616,343
848,369
796,342
797,348
798,366
750,326
707,378
615,341
748,289
845,363
846,360
657,346
749,314
795,341
617,351
663,386
794,344
847,354
849,390
902,397
901,431
900,376
793,278
899,352
898,326
897,295
844,353
842,273
841,265
956,321
792,272
843,320
840,298
850,429
903,377
800,441
755,473
756,834
710,491
711,1018
962,451
961,445
904,382
906,443
851,447
802,474
801,465
799,423
959,452
1014,376
1013,435
708,432
709,460
754,427
757,971
1017,538
1016,412
960,416
905,396
958,438
957,978
1070,333
1015,397
1012,320
1068,278
1005,145
1004,137
1060,119
1063,191
1065,207
1127,228
1062,172
1124,128
1123,104
1125,163
1188,93
1122,166
1058,137
947,142
946,199
949,146
945,216
948,157
1190,218
1187,73
951,180
895,226
952,187
1009,268
1008,187
1010,282
1007,170
1061,178
954,392
896,256
953,221
1126,213
1064,185
1189,153
955,339
950,159
892,216
786,214
836,229
837,231
787,237
700,346
655,393
654,346
653,338
698,295
699,293
608,291
696,249
656,408
833,242
785,208
835,200
693,251
894,232
893,218
1343,863
1192,914
1191,550
828,324
829,304
780,290
830,317
779,326
782,257
529,1030
886,258
596,951
556,984
598,430
597,512
526,984
555,1106
525,1022
524,1077
523,1002
688,317
607,305
650,313
651,263
652,305
737,257
694,249
695,248
645,313
646,292
690,271
600,317
599,332
781,261
736,265
558,1002
644,349
643,360
648,331
692,269
691,262
513,922
541,1017
540,1012
568,894
530,982
831,264
559,1001
560,959
642,1048
557,990
496,1055
471,1032
444,1060
446,997
528,1059
527,1055
562,943
602,907
734,300
466,951
464,406
463,911
478,1219
481,1072
480,1146
479,1160
647,271
488,947
502,1099
689,311
533,990
532,1017
531,1041
601,921
484,495
508,1067
510,466
509,1041
534,1063
482,1107
506,1040
606,1001
455,1271
429,1028
456,1405
457,1244
428,1167
458,1065
554,1148
594,1043
640,900
639,1009
551,1027
681,1085
636,1106
635,1157
590,1066
778,335
777,342
485,458
486,432
462,782
563,1089
885,284
943,968
564,893
641,894
504,1121
503,1139
501,1277
500,1270
561,1050
254,1059
350,1053
321,1032
319,1023
251,1066
375,510
347,1001
687,475
565,919
539,980
511,445
536,941
649,760
603,853
605,1406
733,314
735,289
489,1107
514,999
461,1090
460,1101
459,1121
468,431
154,1298
178,1260
203,1231
228,1150
402,489
401,1096
505,1046
522,1055
451,1028
452,1065
477,1211
476,1181
483,1066
884,893
431,450
430,1057
454,1240
595,997
395,1017
394,707
422,958
417,958
390,882
538,999
567,1113
426,1216
397,1082
398,1103
499,1231
475,1286
497,1112
498,1129
311,1040
342,1021
345,969
421,799
515,1267
472,1116
448,1141
473,1167
474,1211
353,463
381,465
256,1099
290,1065
324,489
380,446
407,410
253,1119
226,1168
201,1181
177,1244
824,896
775,457
826,349
939,847
936,1318
937,913
880,401
566,974
2821,65535
2834,65535
2833,65535
2789,65535
2790,65535
2770,65535
2788,65535
2776,65535
2795,65535
2775,65535
2794,65535
2825,65535
2824,65535
2826,65535
2811,65535
2812,65535
2796,65535
2827,65535
2858,65535
2855,65535
2849,65535
2838,65535
2814,65535
2813,65535
2828,65535
2839,65535
2791,65535
2792,65535
2803,65535
2830,65535
2815,65535
2819,65535
2818,65535
2817,65535
2831,65535
2810,65535
2829,65535
2783,65535
2820,65535
2804,65535
2785,65535
2784,65535
2762,65535
2768,65535
2751,65535
2750,65535
2733,65535
2769,65535
2720,65535
2761,65535
2741,65535
2837,65535
2793,65535
2808,65535
2753,65535
2736,65535
2735,65535
2809,65535
2772,65535
2845,65535
2844,65535
2848,65535
2777,65535
2778,65535
2779,65535
2759,65535
2780,65535
2797,65535
2843,65535
2832,65535
2842,65535
2758,65535
2738,65535
2774,65535
2773,65535
2771,65535
2851,65535
2847,65535
2854,65535
2721,65535
2756,65535
2737,65535
2840,65535
2752,65535
2754,65535
2755,65535
2852,65535
2853,65535
2856,65535
2841,65535
2742,65535
2727,65535
2744,65535
2726,65535
2743,65535
2725,65535
2746,65535
2787,65535
2766,65535
2763,65535
2765,65535
2745,65535
2764,65535
2552,65535
2501,65535
2443,65535
2442,65535
2320,65535
2381,65535
2382,65535
2498,65535
2499,65535
2438,65535
2439,65535
2497,65535
2441,65535
2379,65535
2380,65535
2319,65535
2551,65535
2550,65535
2563,65535
2321,65535
2322,65535
2383,65535
2384,65535
2446,65535
2445,65535
2503,65535
2385,65535
2504,65535
2505,65535
2557,65535
2558,65535
2559,65535
2560,65535
2564,65535
2562,65535
2561,65535
2605,65535
2609,65535
2565,65535
2566,65535
2515,4756
2397,4519
2457,4736
2458,4720
2401,65535
2337,4432
2336,4436
2399,4478
2398,4499
2402,65535
2333,4656
2273,4691
2219,4715
2218,4727
2159,4752
2454,65535
2393,65535
2512,65535
2502,65535
2608,65535
2156,65535
2155,65535
2154,65535
2213,65535
2212,65535
2211,65535
2210,65535
2264,65535
2324,65535
2323,65535
2030,65535
2094,65535
2157,65535
2450,65535
2388,65535
2387,65535
2326,65535
2266,65535
2265,65535
2508,65535
2396,4588
2335,4606
2334,4617
2158,4777
2279,65535
2278,65535
2222,65535
2221,65535
2276,65535
2275,3804
2261,65535
2207,65535
2149,65535
2554,65535
2599,65535
2633,65535
2664,65535
2689,65535
2690,65535
2691,65535
2692,65535
2152,65535
2089,65535
2088,65535
2025,65535
2603,65535
2602,65535
2556,65535
2693,65535
2671,65535
2670,65535
2694,65535
2553,65535
2665,65535
2705,65535
2710,65535
2668,65535
2639,65535
2463,65535
2521,65535
2572,65535
2451,65535
2390,65535
2391,65535
2392,65535
2215,65535
2268,65535
2093,65535
2092,65535
2028,65535
2024,65535
2150,65535
2086,65535
2209,65535
2023,65535
2087,65535
2148,65535
2262,65535
2327,65535
1560,446
1630,914
1631,876
1559,912
1629,971
1558,873
1634,866
1633,479
1482,798
1481,777
1699,793
1700,824
1701,503
1563,871
2070,1258
2008,1215
2009,1202
1959,1168
1958,1172
2006,1091
1957,1087
1956,1071
2193,1506
2132,1446
1912,1211
1911,1131
1865,1087
1866,1179
2007,1145
2069,1151
2010,1233
2011,1320
1961,1209
2072,1257
1913,1420
1867,1230
1962,1248
1914,1257
1915,1282
1909,1003
1636,818
1635,835
1564,849
1702,774
1637,851
1638,885
1565,853
1486,857
1760,818
1704,955
1703,942
1763,1035
1762,1009
1817,1047
1705,1102
1863,900
1815,866
1759,985
863,2768
758,2861
808,2812
982,2983
1036,2990
1099,3025
1100,3053
1166,3454
1167,3949
1237,3606
1238,3641
1375,3711
1308,3780
1309,3689
1236,3907
1235,3541
1101,3084
1037,3021
971,2564
1025,2547
1026,2562
1027,2575
1089,2588
720,2824
674,2870
864,2650
865,2671
919,2566
1024,2511
975,2685
974,2655
1028,2610
873,3010
925,2956
924,2933
917,2630
918,2606
623,3045
712,2917
713,2950
667,2955
622,3013
809,2798
719,2798
765,2759
972,2596
868,2708
869,2720
815,2739
920,2975
973,2641
981,2934
926,3035
927,3043
928,3067
1354,2560
1288,2501
1218,2477
1152,2546
1023,2475
1353,2574
1085,2455
1148,2385
1147,2378
1082,2329
772,3096
771,3053
819,3028
584,2944
628,2911
629,2900
1033,2831
978,2786
1031,2759
1030,2713
1029,2696
1091,2673
1035,2912
1034,2855
979,2813
1526,3830
1449,3868
1378,3896
1448,3819
1524,3797
1038,3068
1447,3860
1768,1190
1710,1148
1767,1163
391,836
365,1020
339,1063
400,1060
393,772
392,810
396,1045
399,1077
443,1111
449,895
450,865
419,962
414,1110
415,1052
387,1045
388,1011
389,946
282,1138
281,1064
314,1070
313,1097
405,415
411,1234
442,1193
255,1079
376,943
373,1010
278,1105
275,1139
248,1237
335,1067
334,1044
306,1094
307,1128
176,1228
225,1123
320,1182
249,1157
287,1156
285,1048
776,368
731,379
315,1020
316,1119
204,1264
440,1008
439,991
166,1425
269,1342
383,1280
1247,65535
1246,65535
1384,65535
1679,65535
1178,3903
1105,2512
1172,2528
1173,2504
1242,3092
1241,2570
1314,3127
1313,3154
1171,2553
1382,4335
1243,2586
1317,4416
1107,2755
1108,3054
1109,3108
1041,2563
1043,3818
1042,3739
1044,4290
1176,3804
1174,4303
1177,3852
1110,3859
985,2632
986,2675
932,2693
774,890
730,387
825,435
728,868
729,486
727,1059
682,526
684,978
685,418
732,844
683,2302
2134,1603
2194,1593
2068,1213
2129,1267
1905,1049
1907,1140
1906,1090
1953,1345
2002,1386
2064,1433
2125,1463
2137,1827
2196,1780
2195,1737
1859,1026
1810,1019
1755,909
2131,1264
2192,1300
1862,1176
1861,1075
1812,993
1860,1115
1809,1102
1756,880
1869,1236
1822,1205
1821,1221
1916,1275
1819,1113
1764,1092
1820,1195
1698,826
1757,867
1566,895
1567,922
1488,895
1489,1016
1412,927
1413,939
1414,880
1818,1132
1568,1074
1410,826
2128,1301
2189,1329
2066,1286
2065,1408
2067,1264
1643,1108
1571,1058
1491,1022
2004,1369
2003,1387
1697,930
2135,1598
2075,1445
1642,1084
1955,1122
2130,1477
2005,1301
1858,1034
1816,3688
1864,3681
1766,1157
1910,981
1868,1227
2188,1411
2127,1380
1903,1285
2001,1469
2063,2262
2062,1430
1813,996
1758,917
1639,935
1640,961
1952,1388
2126,3770
1569,971
1965,1302
1966,1348
2014,1368
1490,980
1917,1261
1870,1250
1871,1264
1570,1005
1707,1098
2076,1435
2013,1400
1964,1354
1487,877
1908,1057
2251,65535
2199,65535
2198,65535
2136,1585
1641,1105
1954,1303
1765,1176
1857,1133
2187,1885
1904,1357
1856,1245
1951,1355
1708,1308
245,3999
244,3982
357,3986
246,4114
247,4143
197,4237
223,4215
44,4579
43,4639
3,4775
23,4749
22,4738
63,4521
85,4463
84,4418
108,3918
149,3872
172,4263
296,3966
294,4014
355,4114
354,4146
326,4224
295,4123
291,4135
293,4257
260,4143
356,4174
441,3774
412,3797
329,4132
300,4076
148,3846
214,4084
146,3967
110,4048
262,4109
258,4522
292,4285
257,4587
235,4107
187,4007
212,4063
211,4090
186,4011
162,3985
161,4064
165,3963
189,4163
238,4244
237,4209
263,4145
265,4164
266,4142
267,4130
268,3970
26,4739
25,4707
105,65535
62,65535
83,65535
126,4085
175,4520
152,4454
151,4444
150,4403
103,4023
242,3916
191,3870
192,3921
217,3944
218,3997
145,3907
144,3991
167,3899
190,3877
219,4014
159,4111
185,4055
158,4168
188,3999
160,4076
143,65535
122,65535
75,65535
54,65535
198,4648
270,4011
221,4052
301,4109
302,3946
330,3973
331,3995
115,4047
133,4106
139,4003
134,4080
114,4604
48,65535
69,65535
92,4280
164,4073
4,65535
107,4425
129,4510
109,3950
125,3991
124,3965
127,65535
82,65535
67,65535
91,4448
93,4247
137,4382
113,4402
112,4360
136,65535
49,65535
72,65535
71,65535
406,988
805,2290
858,2095
859,2236
967,1972
1142,2109
1080,2115
1022,2106
1079,2124
968,2091
1206,2085
915,2242
916,2277
914,2214
807,2329
911,3436
1078,2192
1207,2184
1278,2228
1277,2231
1344,2251
1415,2292
1492,2347
1345,2308
1346,2278
1208,2176
1209,2256
1143,2293
1144,2309
1145,2324
1417,2304
1493,2364
1494,2383
1572,2398
1081,2261
970,2464
408,444
382,920
437,463
467,1017
409,963
403,991
432,1123
433,1016
404,1036
352,1061
351,1087
349,1066
317,1059
374,1228
346,1247
283,1113
410,973
438,964
465,429
490,471
491,1019
435,993
436,1000
379,1595
323,1091
289,1122
377,1069
378,1091
592,1136
593,1107
552,1028
445,1036
424,1153
423,1110
416,2377
361,993
362,969
371,1099
372,1083
343,1109
344,1094
286,1435
227,1143
252,1084
284,1068
318,1190
250,1078
312,1068
340,1035
368,1041
369,1174
370,1117
341,1091
367,970
308,1174
276,1158
277,1285
280,1098
310,1084
338,1040
366,1068
274,1173
305,1182
420,1002
363,1031
418,1039
550,2281
579,2304
576,2249
577,2261
578,2277
520,2257
618,2271
662,2301
619,2288
620,2301
621,2295
665,2277
666,2269
664,2297
580,2316
2260,65535
2257,65535
2206,65535
2146,65535
2314,65535
2313,65535
2312,65535
2373,65535
2256,65535
2205,65535
2434,65535
2435,65535
2375,65535
2376,65535
2433,65535
2491,65535
2490,65535
2492,65535
2546,65535
2597,65535
2596,65535
2544,65535
2145,65535
2082,65535
2020,65535
2494,65535
0,65535
11,65535
1052,1468
1053,1455
941,1440
1740,2461
1796,2535
1615,2319
1681,2396
1545,2200
1797,2575
1544,2275
1741,2553
1795,2856
1617,2220
1546,2206
1616,2237
1683,2341
1467,809
1547,887
1465,2180
1387,2247
1388,806
1464,2264
1462,3019
1461,3040
1542,2931
1463,2983
1682,2528
1543,2396
1618,2277
1742,2654
1460,2730
1248,2262
1850,1012
1801,2178
1803,942
882,344
881,359
938,858
883,339
940,2358
1998,1156
1902,1241
1807,1089
1691,887
1694,973
1693,1012
1749,903
1752,951
1753,1004
1627,950
1628,921
1557,899
1479,741
1402,471
1808,1075
1946,1075
1947,1106
1948,1148
1997,1152
1855,1182
1690,877
2060,1375
1949,1407
1950,1235
1751,921
1692,929
1999,1221
1901,1415
1900,1456
1852,1605
1853,1484
1805,934
1750,906
1854,1250
1806,992
1748,924
2061,1416
2000,1294
1804,927
1899,1625
2884,65535
2892,65535
2883,65535
2876,65535
2874,65535
2882,65535
2877,65535
2911,65535
2905,65535
2906,65535
2896,65535
2887,65535
2881,65535
2880,65535
2888,65535
2902,65535
2903,65535
2907,65535
2912,65535
2895,65535
2894,65535
2875,65535
2885,65535
2893,65535
2904,65535
2865,65535
2866,65535
2909,65535
2913,65535
2886,65535
2878,65535
2869,65535
2871,65535
2872,65535
2879,65535
2870,65535
1330,526
1331,475
1401,474
1262,512
1263,508
1478,497
1403,409
1261,900
1480,743
1264,736
1390,788
1389,790
1319,762
1251,765
1250,841
1285,2401
1284,2406
1214,2378
1146,2344
1505,2627
1504,2561
1582,2599
1581,2527
1713,2506
1771,2488
1654,2638
1653,2611
1651,2563
2096,3742
2033,3702
1972,3673
1923,3605
1922,3583
1874,3277
1873,2990
1919,2943
1829,3954
1579,2463
1424,2504
1711,2480
1348,2304
1419,2324
1359,2731
1429,2682
1428,2668
1421,2381
1577,2415
1499,2388
1230,2975
1365,2912
1511,2834
1300,2957
1366,2929
1512,2862
1716,2696
1503,2973
1276,2258
1347,2288
1349,2336
1645,2472
1578,2450
1770,2484
1715,2539
1150,2443
1217,2457
1149,2419
1580,2509
1352,2496
1502,2527
1825,2896
1718,2851
1717,2825
1872,2929
1656,2740
1648,2515
1712,2492
1213,2368
1212,2349
1084,2390
1420,2370
1281,2294
1282,2355
1587,2734
1586,2701
1585,2690
1652,2658
1427,2836
1975,3777
1977,3845
1932,3915
1931,4540
1426,2556
1422,2398
1425,2541
1583,2627
1501,2485
1283,2396
1286,2443
1215,2428
1211,2325
1210,2299
1083,2361
1655,2729
2220,3783
1355,65535
1772,2497
1436,2880
1435,2870
1589,2803
1163,3008
1735,4128
1791,4061
1841,4038
1840,3994
1219,2560
1220,2599
1647,2501
1646,2493
1279,2246
1714,2516
1575,2475
1576,2437
1498,2445
1573,2487
1496,2505
1497,2476
2177,2485
2176,2555
2294,2472
2293,2591
2237,2532
2236,2561
2364,2333
2302,2273
2301,2195
2245,2097
2056,2227
2057,2313
2055,2206
2184,2258
2120,2264
2244,2178
2538,2518
2537,2499
2591,2615
1940,2390
1989,2398
1990,2334
2539,2518
2482,2509
2483,2471
2424,2367
2121,2325
2119,2138
2050,2447
2049,2525
2048,2943
2185,2291
2243,2017
2299,2231
2241,2180
2485,2549
2542,2604
2353,2563
2292,2470
2419,2357
2478,2404
2479,2439
2536,2466
2484,2510
2486,2503
2354,2402
2416,2579
2242,2225
2355,2440
2300,2238
1991,2338
1992,2345
2477,2395
2534,2416
2535,2531
2588,2436
2587,2450
2630,2501
2051,2259
2116,2153
2175,2588
2586,65535
2541,2671
2178,2460
2179,2263
2240,2210
2239,2434
2238,2504
2052,2390
2053,2356
1987,2630
1988,2478
1939,2502
2594,2621
2593,2606
2358,2324
2357,2334
2420,2390
2247,2386
2427,2476
2428,2498
2181,2057
2180,2106
2417,2384
2590,2596
2297,2219
2361,2411
2362,2294
2423,2382
2422,2347
2174,2818
2356,2445
1941,2379
2365,2510
2112,2823
2047,2965
2182,2196
2359,2273
2533,3211
2295,2536
2115,2226
2632,2656
2631,2595
2186,1756
2298,2305
2360,2329
2235,2781
2291,2794
2487,2725
2246,2318
2425,3126
2117,2450
2543,2678
1893,65535
2421,2482
2476,2400
2592,2654
604,2266
