middle_point_id,reach_time_minutes
2835,65535
2836,65535
2806,65535
2822,65535
2823,65535
2807,65535
2846,65535
887,257
888,252
1326,280
1185,249
999,290
1057,437
1552,349
1120,211
1473,379
944,438
832,248
1257,256
1396,284
1622,783
1327,424
1184,239
1183,250
1324,391
1255,924
1394,792
1252,1094
1253,1120
1182,1125
1328,65535
1470,824
1321,1074
1322,1015
1323,965
1391,1087
1551,404
1393,793
1472,478
1471,764
1181,1454
1118,1139
1059,190
1121,202
1469,901
1468,1141
1548,923
1325,325
1625,292
1623,354
1258,279
1256,374
791,209
891,205
703,239
704,231
660,233
1553,352
1624,337
1554,410
1474,365
1475,393
1550,549
1549,846
1320,1086
1466,1123
1541,1720
1318,1199
1249,1221
1186,236
1003,174
1002,182
741,227
788,219
434,365
697,291
752,255
1056,312
1006,134
907,183
518,292
1011,79
1000,213
1055,1622
997,1591
994,1485
996,1557
995,1541
991,1332
1112,3965
1114,1572
1051,1535
1398,492
1395,805
1001,189
1811,228
1960,759
1769,781
1823,763
1329,65535
1332,102
1259,1736
1200,56
1199,58
1140,198
1141,202
783,262
1689,713
1802,720
1945,1436
2183,1918
2418,2367
1994,1472
1995,1868
2059,997
1621,65535
1555,247
1754,559
1180,1170
1106,2565
933,2726
827,368
2122,2333
2124,877
493,301
519,294
544,289
545,292
494,304
470,328
543,298
469,314
517,298
574,294
573,273
495,336
546,302
613,249
612,252
492,303
572,272
571,319
570,317
610,284
575,327
547,338
516,323
611,261
542,355
569,315
609,298
548,410
549,439
1404,70
1405,48
1266,10
1193,63
743,221
742,217
747,228
746,220
745,233
744,234
790,217
789,221
839,212
838,209
738,260
739,225
740,220
890,221
834,238
784,227
889,233
856,256
855,240
854,232
853,205
852,191
910,232
909,221
908,188
964,191
965,218
1020,254
966,243
963,157
1021,289
1271,55
1270,53
1339,67
1338,80
1071,94
1072,87
1135,67
1408,103
1337,38
1269,25
1268,15
1136,68
1075,189
1077,198
1076,220
1019,222
1018,195
1074,100
1137,84
1272,60
1274,136
1275,170
1205,212
1204,179
1273,107
1198,109
1197,46
1341,141
1134,72
1133,71
1069,34
1132,30
1073,110
1203,163
1202,105
1201,78
1139,148
1267,0
1138,109
1340,73
1196,18
1342,149
1409,124
1485,127
1407,113
1561,111
1632,137
1484,162
1483,69
1562,102
1194,58
1130,57
1195,46
1335,28
1129,90
1066,95
1128,142
1067,98
1131,47
1334,40
1336,14
1265,35
1333,99
1406,45
857,348
803,3082
804,6559
860,6567
969,6520
913,6507
912,6445
861,6577
806,6620
659,236
751,228
658,247
705,236
702,244
706,243
753,244
614,244
701,235
661,242
616,248
848,167
796,213
797,200
798,193
750,234
707,273
615,281
748,272
845,211
846,193
657,346
749,254
795,235
617,291
663,296
794,263
847,182
849,212
902,182
901,190
900,177
793,218
899,272
898,260
897,243
844,236
842,216
841,205
956,100
792,211
843,248
840,204
850,197
903,164
800,207
755,293
756,343
710,373
711,418
962,150
961,157
904,166
906,171
851,188
802,230
801,217
799,218
959,152
1014,103
1013,88
708,425
709,399
754,315
757,371
1017,123
1016,118
960,144
905,216
958,198
957,138
1070,81
1015,125
1012,80
1068,51
1005,144
1004,162
1060,173
1063,140
1065,125
1127,137
1062,162
1124,204
1123,192
1125,171
1188,231
1122,224
1058,196
947,189
946,221
949,175
945,242
948,184
1190,356
1187,253
951,141
895,167
952,138
1009,95
1008,125
1010,85
1007,130
1061,243
954,223
896,199
953,170
1126,153
1064,143
1189,273
955,111
950,159
892,197
786,209
836,205
837,201
787,207
700,286
655,351
654,346
653,284
698,295
699,244
608,291
696,231
656,348
833,242
785,213
835,228
693,242
894,224
893,218
1343,143
1192,150
1191,155
828,358
829,344
780,290
830,339
779,356
782,257
529,874
886,273
596,891
556,906
598,844
597,863
526,912
555,930
525,924
524,938
523,948
688,319
607,284
650,310
651,264
652,267
737,264
694,246
695,235
645,316
646,291
690,271
600,324
599,333
781,261
736,269
558,870
644,349
643,400
648,300
692,245
691,261
513,901
541,834
540,874
568,894
530,889
831,264
559,881
560,930
642,883
557,904
496,1000
471,1017
444,1120
446,1046
528,881
527,895
562,379
602,346
734,300
466,778
464,406
463,895
478,1014
481,952
480,1001
479,989
647,314
488,872
502,889
689,311
533,384
532,406
531,862
601,799
484,492
508,849
510,462
509,860
534,841
482,966
506,920
606,306
455,1078
429,901
456,1174
457,951
428,963
458,929
554,1044
594,1043
640,867
639,1009
551,990
681,1054
636,1042
635,1019
590,994
778,365
777,385
485,458
486,430
462,793
563,876
885,284
943,851
564,860
641,861
504,904
503,897
501,918
500,957
561,918
254,960
350,912
321,921
319,912
251,975
375,636
347,871
687,383
565,838
539,892
511,441
536,801
649,837
603,855
605,1406
733,314
735,279
489,861
514,880
461,956
460,985
459,961
468,325
154,1105
178,1086
203,1063
228,1027
402,571
401,863
505,925
522,982
451,1247
452,1216
477,1021
476,962
483,1066
884,893
431,495
430,864
454,1240
595,947
395,1140
394,1166
422,1201
417,1096
390,1104
538,873
567,313
426,1382
397,1074
398,1104
499,1053
475,994
497,964
498,991
311,974
342,976
345,921
421,1216
515,353
472,1116
448,1141
473,1167
474,1182
353,919
381,899
256,1041
290,991
324,929
380,946
407,874
253,1021
226,1048
201,1074
177,1111
824,896
775,831
826,379
939,847
936,1318
937,913
880,401
566,876
2821,65535
2834,65535
2833,65535
2789,65535
2790,65535
2770,65535
2788,65535
2776,65535
2795,65535
2775,65535
2794,65535
2825,65535
2824,65535
2826,65535
2811,65535
2812,65535
2796,65535
2827,65535
2858,65535
2855,65535
2849,65535
2838,65535
2814,65535
2813,65535
2828,65535
2839,65535
2791,65535
2792,65535
2803,65535
2830,65535
2815,65535
2819,65535
2818,65535
2817,65535
2831,65535
2810,65535
2829,65535
2783,65535
2820,65535
2804,65535
2785,65535
2784,65535
2762,65535
2768,65535
2751,65535
2750,65535
2733,65535
2769,65535
2720,65535
2761,65535
2741,65535
2837,65535
2793,65535
2808,65535
2753,65535
2736,65535
2735,65535
2809,65535
2772,65535
2845,65535
2844,65535
2848,65535
2777,65535
2778,65535
2779,65535
2759,65535
2780,65535
2797,65535
2843,65535
2832,65535
2842,65535
2758,65535
2738,65535
2774,65535
2773,65535
2771,65535
2851,65535
2847,65535
2854,65535
2721,65535
2756,65535
2737,65535
2840,65535
2752,65535
2754,65535
2755,65535
2852,65535
2853,65535
2856,65535
2841,65535
2742,65535
2727,65535
2744,65535
2726,65535
2743,65535
2725,65535
2746,65535
2787,65535
2766,65535
2763,65535
2765,65535
2745,65535
2764,65535
2552,65535
2501,65535
2443,65535
2442,65535
2320,65535
2381,65535
2382,65535
2498,65535
2499,65535
2438,65535
2439,65535
2497,65535
2441,65535
2379,65535
2380,65535
2319,65535
2551,65535
2550,65535
2563,7077
2321,3733
2322,3702
2383,3714
2384,4425
2446,4468
2445,4476
2503,4495
2385,4459
2504,7198
2505,7220
2557,7244
2558,7269
2559,7293
2560,7257
2564,7033
2562,7145
2561,7185
2605,7200
2609,4784
2565,4729
2566,4714
2515,4659
2397,3079
2457,4640
2458,4624
2401,3251
2337,2992
2336,2996
2399,3038
2398,3059
2402,3285
2333,3216
2273,3251
2219,3275
2218,3287
2159,3312
2454,5344
2393,5310
2512,7044
2502,7829
2608,7463
2156,3434
2155,3466
2154,3495
2213,3511
2212,3523
2211,3571
2210,3612
2264,3619
2324,3653
2323,3669
2030,65535
2094,65535
2157,3398
2450,7441
2388,7490
2387,7558
2326,7595
2266,3800
2265,3755
2508,7412
2396,3148
2335,3166
2334,3177
2158,3337
2279,6865
2278,6829
2222,6798
2221,6780
2276,6762
2275,2364
2261,5247
2207,6105
2149,6164
2554,4547
2599,4577
2633,4615
2664,4650
2689,4687
2690,4713
2691,4729
2692,4753
2152,5858
2089,6566
2088,5904
2025,6699
2603,65535
2602,65535
2556,65535
2693,6692
2671,8475
2670,8455
2694,8414
2553,65535
2665,65535
2705,65535
2710,65535
2668,65535
2639,65535
2463,6106
2521,6142
2572,6165
2451,7326
2390,7295
2391,7115
2392,5752
2215,7320
2268,65535
2093,65535
2092,65535
2028,65535
2024,5934
2150,3972
2086,4002
2209,3959
2023,5073
2087,5026
2148,8119
2262,5232
2327,65535
1560,143
1630,218
1631,189
1559,320
1629,411
1558,408
1634,132
1633,156
1482,142
1481,165
1699,144
1700,161
1701,221
1563,113
2070,838
2008,774
2009,774
1959,756
1958,750
2006,742
1957,738
1956,430
2193,947
2132,887
1912,794
1911,762
1865,848
1866,885
2007,795
2069,829
2010,835
2011,907
1961,811
2072,859
1913,847
1867,918
1962,856
1914,911
1915,885
1909,783
1636,193
1635,166
1564,143
1702,214
1637,197
1638,217
1565,179
1486,188
1760,284
1704,222
1703,208
1763,338
1762,258
1817,295
1705,237
1863,830
1815,906
1759,197
863,1328
758,1421
808,1372
982,1543
1036,1550
1099,1585
1100,1613
1166,2014
1167,2509
1237,2166
1238,2201
1375,2271
1308,2340
1309,2249
1236,2467
1235,2101
1101,1644
1037,1581
971,1124
1025,1107
1026,1122
1027,1135
1089,1148
720,1384
674,1430
864,1210
865,1231
919,1126
1024,1071
975,1245
974,1215
1028,1170
873,1570
925,1516
924,1493
917,1190
918,1166
623,1605
712,1477
713,1510
667,1515
622,1573
809,1358
719,1358
765,1319
972,1156
868,1268
869,1280
815,1299
920,1535
973,1201
981,1494
926,1595
927,1603
928,1627
1354,1120
1288,1061
1218,1037
1152,1106
1023,1035
1353,1134
1085,1015
1148,945
1147,938
1082,889
772,1656
771,1613
819,1588
584,1504
628,1471
629,1460
1033,1391
978,1346
1031,1319
1030,1273
1029,1256
1091,1233
1035,1472
1034,1415
979,1373
1526,2390
1449,2428
1378,2456
1448,2379
1524,2357
1038,1628
1447,2420
1768,760
1710,822
1767,748
391,1088
365,1042
339,1025
400,986
393,1212
392,1190
396,1118
399,1004
443,1176
449,1274
450,1279
419,1190
414,1229
415,1170
387,1163
388,1132
389,1112
282,1020
281,1040
314,1112
313,1100
405,415
411,1234
442,1193
255,970
376,874
373,893
278,985
275,1054
248,1102
335,1187
334,1161
306,1106
307,1094
176,1096
225,1034
320,929
249,1092
287,932
285,956
776,428
731,439
315,1009
316,990
204,1104
440,335
439,788
166,1425
269,1342
383,1280
1247,3910
1246,3932
1384,4016
1679,4178
1178,3903
1105,2569
1172,2588
1173,2638
1242,2640
1241,2632
1314,2789
1313,2695
1171,2614
1382,2895
1243,2837
1317,2976
1107,2577
1108,2756
1109,3041
1041,2586
1043,2796
1042,2787
1044,2850
1176,3804
1174,2863
1177,3852
1110,3859
985,2632
986,2675
932,2693
774,890
730,453
825,435
728,868
729,486
727,1059
682,526
684,858
685,778
732,840
683,862
2134,963
2194,982
2068,843
2129,903
1905,287
1907,322
1906,293
1953,785
2002,808
2064,817
2125,830
2137,1121
2196,1075
2195,1022
1859,234
1810,240
1755,321
2131,882
2192,922
1862,819
1861,421
1812,190
1860,412
1809,293
1756,190
1869,808
1822,790
1821,807
1916,847
1819,358
1764,325
1820,433
1698,151
1757,175
1566,206
1567,220
1488,193
1489,226
1412,157
1413,180
1414,153
1818,348
1568,836
1410,121
2128,911
2189,983
2066,898
2065,840
2067,900
1643,838
1571,291
1491,260
2004,896
2003,848
1697,261
2135,1114
2075,1138
1642,818
1955,362
2130,1000
2005,802
1858,254
1816,8008
1864,8001
1766,445
1910,806
1868,799
2188,1195
2127,1164
1903,798
2001,838
2063,1351
2062,1113
1813,225
1758,273
1639,405
1640,362
1952,850
2126,8090
1569,316
1965,1026
1966,1072
2014,1089
1490,210
1917,858
1870,827
1871,841
1570,294
1707,846
2076,1156
2013,1094
1964,872
1487,174
1908,769
2251,3201
2199,3145
2198,3008
2136,1163
1641,810
1954,826
1765,408
1857,266
2187,1516
1904,802
1856,777
1951,863
1708,1054
245,8319
244,8302
357,8306
246,8434
247,8463
197,8557
223,8535
44,8899
43,8959
3,9095
23,9069
22,9058
63,8841
85,8783
84,8738
108,8238
149,8192
172,8583
296,8286
294,8334
355,8434
354,8466
326,8544
295,8443
291,8455
293,8577
260,8463
356,8494
441,8094
412,8117
329,8452
300,8396
148,8166
214,8404
146,8287
110,8368
262,8429
258,8842
292,8605
257,8907
235,8427
187,8327
212,8383
211,8410
186,8331
162,8305
161,8384
165,8283
189,8483
238,8564
237,8529
263,8465
265,8484
266,8462
267,8450
268,8290
26,9059
25,9027
105,65535
62,65535
83,65535
126,8405
175,8840
152,8774
151,8764
150,8723
103,8343
242,8236
191,8190
192,8241
217,8264
218,8317
145,8227
144,8311
167,8219
190,8197
219,8334
159,8431
185,8375
158,8488
188,8319
160,8396
143,65535
122,65535
75,65535
54,65535
198,8968
270,8331
221,8372
301,8429
302,8266
330,8293
331,8315
115,8367
133,8426
139,8323
134,8400
114,8924
48,65535
69,65535
92,8600
164,8393
4,65535
107,8745
129,8830
109,8270
125,8311
124,8285
127,65535
82,65535
67,65535
91,8768
93,8567
137,8702
113,8722
112,8680
136,65535
49,65535
72,65535
71,65535
406,945
805,6610
858,6415
859,6556
967,594
1142,729
1080,6255
1022,6296
1079,6288
968,6411
1206,686
915,6562
916,6597
914,6534
807,6649
911,7756
1078,6512
1207,744
1278,788
1277,791
1344,811
1415,852
1492,907
1345,868
1346,838
1208,736
1209,816
1143,853
1144,869
1145,884
1417,864
1493,924
1494,943
1572,958
1081,6581
970,6784
408,893
382,921
437,374
467,355
409,874
403,829
432,873
433,854
404,843
352,946
351,925
349,886
317,1122
374,863
346,954
283,992
410,807
438,824
465,429
490,512
491,817
435,876
436,872
379,996
323,1067
289,1097
377,907
378,880
592,1027
593,1065
552,972
445,1097
424,1154
423,1186
416,1129
361,1159
362,1135
371,1051
372,1023
343,945
344,936
286,1323
227,1021
252,1014
284,967
318,949
250,1196
312,980
340,1022
368,1061
369,1133
370,1242
341,1081
367,1072
308,1296
276,1034
277,1015
280,1008
310,1003
338,1050
366,1062
274,1116
305,1413
420,1238
363,1151
418,1215
550,6601
579,6624
576,6569
577,6581
578,6597
520,6577
618,6591
662,6621
619,6608
620,6621
621,6615
665,6597
666,6589
664,6617
580,6636
2260,65535
2257,65535
2206,65535
2146,65535
2314,65535
2313,65535
2312,65535
2373,65535
2256,65535
2205,65535
2434,65535
2435,65535
2375,65535
2376,65535
2433,65535
2491,65535
2490,65535
2492,65535
2546,65535
2597,65535
2596,65535
2544,65535
2145,65535
2082,65535
2020,65535
2494,65535
0,65535
11,65535
1052,1588
1053,1575
941,1615
1740,1452
1796,1493
1615,1279
1681,1396
1545,1148
1797,1493
1544,1174
1741,1400
1795,1690
1617,1239
1546,1205
1616,1198
1683,1241
1467,1113
1547,1178
1465,1197
1387,1179
1388,1161
1464,1244
1462,1579
1461,1600
1542,1664
1463,1543
1682,1366
1543,1233
1618,1308
1742,1600
1460,1766
1248,1296
1850,767
1801,738
1803,466
882,379
881,386
938,858
883,824
940,2358
1998,890
1902,861
1807,737
1691,418
1694,973
1693,832
1749,418
1752,766
1753,489
1627,546
1628,921
1557,486
1479,119
1402,101
1808,403
1946,955
1947,900
1948,862
1997,902
1855,753
1690,388
2060,1077
1949,959
1950,881
1751,729
1692,389
1999,886
1901,825
1900,766
1852,738
1853,700
1805,611
1750,655
1854,853
1806,771
1748,439
2061,1072
2000,913
1804,731
1899,787
2884,65535
2892,65535
2883,65535
2876,65535
2874,65535
2882,65535
2877,65535
2911,65535
2905,65535
2906,65535
2896,65535
2887,65535
2881,65535
2880,65535
2888,65535
2902,65535
2903,65535
2907,65535
2912,65535
2895,65535
2894,65535
2875,65535
2885,65535
2893,65535
2904,65535
2865,65535
2866,65535
2909,65535
2913,65535
2886,65535
2878,65535
2869,65535
2871,65535
2872,65535
2879,65535
2870,65535
1330,140
1331,108
1401,106
1262,117
1263,109
1478,119
1403,96
1261,126
1480,107
1264,106
1390,1093
1389,1152
1319,1130
1251,1185
1250,1261
1285,962
1284,966
1214,938
1146,904
1505,1187
1504,1121
1582,1159
1581,1087
1713,1066
1771,1048
1654,1198
1653,1171
1651,1123
2096,2302
2033,2262
1972,2233
1923,2165
1922,2143
1874,1837
1873,1550
1919,1503
1829,2514
1579,1023
1424,1015
1711,1040
1348,864
1419,884
1359,1291
1429,1242
1428,1228
1421,941
1577,975
1499,948
1230,1535
1365,1472
1511,1394
1300,1517
1366,1489
1512,1422
1716,1256
1503,1533
1276,818
1347,848
1349,896
1645,1032
1578,1010
1770,1044
1715,1099
1150,1003
1217,1017
1149,979
1580,1049
1352,1056
1502,1038
1825,1456
1718,1411
1717,1385
1872,1489
1656,1300
1648,1075
1712,1052
1213,928
1212,909
1084,950
1420,930
1281,854
1282,915
1587,1294
1586,1261
1585,1250
1652,1218
1427,1396
1975,2337
1977,2405
1932,2475
1931,3100
1426,1116
1422,958
1425,1101
1583,1187
1501,1045
1283,956
1286,1003
1215,988
1211,885
1210,859
1083,921
1655,1289
2220,2343
1355,5411
1772,1057
1436,1440
1435,1430
1589,1363
1163,1568
1735,2688
1791,2621
1841,2598
1840,2554
1219,1120
1220,1159
1647,1061
1646,1053
1279,806
1714,1076
1575,1035
1576,997
1498,1005
1573,1047
1496,1065
1497,1036
2177,2485
2176,2555
2294,2472
2293,2591
2237,2532
2236,2561
2364,2333
2302,2273
2301,2195
2245,2097
2056,2227
2057,2313
2055,2206
2184,2258
2120,2264
2244,2178
2538,2518
2537,2499
2591,2615
1940,2390
1989,2398
1990,2334
2539,2518
2482,2509
2483,2471
2424,2367
2121,2325
2119,2138
2050,2447
2049,2525
2048,2943
2185,2291
2243,2017
2299,2231
2241,2180
2485,2549
2542,2604
2353,2563
2292,2470
2419,2357
2478,2404
2479,2439
2536,2466
2484,2510
2486,2503
2354,2402
2416,2579
2242,2225
2355,2440
2300,2238
1991,2338
1992,2345
2477,2395
2534,2416
2535,2531
2588,2436
2587,2450
2630,2501
2051,2259
2116,2153
2175,2588
2586,65535
2541,2671
2178,2460
2179,2263
2240,2210
2239,2434
2238,2504
2052,2390
2053,2356
1987,2630
1988,2478
1939,2502
2594,2621
2593,2606
2358,2324
2357,2334
2420,2390
2247,2386
2427,2476
2428,2498
2181,2057
2180,2106
2417,2384
2590,2596
2297,2219
2361,2411
2362,2294
2423,2382
2422,2347
2174,2818
2356,2445
1941,2379
2365,2510
2112,2823
2047,2965
2182,2196
2359,2273
2533,3211
2295,2536
2115,2226
2632,2656
2631,2595
2186,2443
2298,2305
2360,2329
2235,2781
2291,2794
2487,2725
2246,2318
2425,3126
2117,2450
2543,2678
1893,65535
2421,2482
2476,2400
2592,2654
604,6586
