middle_point_id,reach_time_minutes
2835,65535
2836,65535
2806,65535
2822,65535
2823,65535
2807,65535
2846,65535
887,377
888,358
1326,329
1185,249
999,320
1057,499
1552,491
1120,243
1473,699
944,421
832,368
1257,316
1396,739
1622,535
1327,904
1184,234
1183,211
1324,511
1255,533
1394,503
1252,83
1253,125
1182,165
1328,65535
1470,420
1321,78
1322,133
1323,437
1391,127
1551,485
1393,460
1472,504
1471,469
1181,494
1118,179
1059,275
1121,249
1469,645
1468,146
1548,288
1325,445
1625,532
1623,502
1258,347
1256,434
791,374
891,328
703,409
704,422
660,421
1553,498
1624,524
1554,532
1474,520
1475,573
1550,461
1549,390
1320,10
1466,84
1541,760
1318,26
1249,32
1186,282
1003,285
1002,282
741,376
788,353
434,511
697,411
752,435
1056,370
1006,325
907,552
518,455
1011,391
1000,301
1055,2102
997,2071
994,1965
996,2037
995,2021
991,1812
1112,4445
1114,2052
1051,2015
1398,612
1395,750
1001,289
1811,673
1960,1239
1769,760
1823,789
1329,65535
1332,543
1259,2216
1200,478
1199,475
1140,636
1141,619
783,382
1689,558
1802,640
1945,841
2183,2398
2418,2847
1994,875
1995,908
2059,970
1621,65535
1555,576
1754,700
1180,210
1106,3045
933,3206
827,488
2122,2813
2124,1357
493,462
519,455
544,447
545,449
494,460
470,482
543,443
469,478
517,466
574,450
573,432
495,478
546,453
613,412
612,423
492,470
572,439
571,457
570,464
610,450
575,506
547,459
516,503
611,441
542,454
569,495
609,424
548,530
549,559
1404,504
1405,466
1266,435
1193,407
743,359
742,365
747,384
746,395
745,387
744,377
790,370
789,360
839,351
838,337
738,390
739,387
740,382
890,336
834,371
784,373
889,353
856,719
855,685
854,671
853,656
852,543
910,669
909,656
908,558
964,562
965,584
1020,623
966,603
963,576
1021,649
1271,472
1270,471
1339,487
1338,500
1071,457
1072,469
1135,470
1408,532
1337,458
1269,445
1268,439
1136,498
1075,549
1077,623
1076,586
1019,582
1018,573
1074,535
1137,520
1272,480
1274,577
1275,590
1205,597
1204,637
1273,587
1198,486
1197,441
1341,503
1134,452
1133,431
1069,424
1132,404
1073,530
1203,620
1202,585
1201,519
1139,628
1267,431
1138,536
1340,492
1196,419
1342,529
1409,538
1485,579
1407,511
1561,515
1632,539
1484,533
1483,475
1562,506
1194,394
1130,388
1195,404
1335,451
1129,384
1066,378
1128,382
1067,379
1131,395
1334,477
1336,443
1265,455
1333,524
1406,465
857,828
803,3562
804,7039
860,7047
969,7000
913,6987
912,6925
861,7057
806,7100
659,414
751,430
658,404
705,425
702,400
706,452
753,447
614,416
701,388
661,433
616,428
848,482
796,451
797,468
798,466
750,433
707,513
615,461
748,421
845,484
846,480
657,466
749,435
795,461
617,471
663,536
794,464
847,489
849,510
902,517
901,537
900,503
793,402
899,471
898,450
897,416
844,473
842,395
841,380
956,702
792,380
843,439
840,384
850,517
903,497
800,506
755,533
756,557
710,613
711,658
962,563
961,556
904,510
906,556
851,567
802,532
801,509
799,483
959,512
1014,462
1013,448
708,905
709,879
754,555
757,851
1017,543
1016,538
960,504
905,576
958,558
957,582
1070,441
1015,485
1012,396
1068,384
1005,320
1004,292
1060,282
1063,330
1065,341
1127,352
1062,327
1124,326
1123,312
1125,337
1188,351
1122,282
1058,260
947,322
946,369
949,325
945,396
948,304
1190,533
1187,373
951,337
895,340
952,336
1009,399
1008,336
1010,401
1007,329
1061,363
954,463
896,379
953,339
1126,333
1064,336
1189,393
955,716
950,322
892,352
786,359
836,355
837,340
787,357
700,410
655,437
654,444
653,446
698,409
699,393
608,416
696,411
656,434
833,362
785,382
835,367
693,413
894,344
893,327
1343,572
1192,559
1191,575
828,478
829,464
780,410
830,459
779,461
782,377
529,562
886,393
596,531
556,546
598,480
597,513
526,579
555,569
525,599
524,614
523,629
688,439
607,442
650,491
651,455
652,463
737,388
694,429
695,384
645,436
646,413
690,404
600,465
599,467
781,381
736,395
558,537
644,457
643,463
648,416
692,408
691,398
513,468
541,477
540,532
568,439
530,558
831,384
559,550
560,527
642,547
557,570
496,653
471,677
444,745
446,709
528,566
527,584
562,479
602,448
734,426
466,532
464,522
463,508
478,682
481,592
480,631
479,659
647,428
488,521
502,572
689,431
533,510
532,537
531,562
601,485
484,599
508,550
510,588
509,560
534,541
482,609
506,560
606,513
455,733
429,635
456,759
457,658
428,627
458,641
554,610
594,624
640,567
639,589
551,654
681,605
636,626
635,644
590,664
778,477
777,482
485,624
486,582
462,592
563,530
885,404
943,1331
564,555
641,561
504,604
503,581
501,582
500,648
561,517
254,618
350,568
321,596
319,612
251,654
375,575
347,598
687,469
565,572
539,491
511,595
536,615
649,497
603,514
605,663
733,447
735,409
489,533
514,513
461,591
460,621
459,640
468,483
154,755
178,719
203,690
228,669
402,606
401,618
505,565
522,639
451,841
452,819
477,708
476,748
483,776
884,445
431,604
430,613
454,1343
595,577
395,720
394,722
422,749
417,753
390,799
538,513
567,492
426,799
397,713
398,679
499,696
475,741
497,653
498,722
311,674
342,683
345,622
421,756
515,545
472,1416
448,1447
473,1472
474,777
353,610
381,596
256,656
290,640
324,631
380,590
407,566
253,644
226,687
201,700
177,735
824,656
775,537
826,499
939,547
936,1798
937,613
880,565
566,560
2821,65535
2834,65535
2833,65535
2789,65535
2790,65535
2770,65535
2788,65535
2776,65535
2795,65535
2775,65535
2794,65535
2825,65535
2824,65535
2826,65535
2811,65535
2812,65535
2796,65535
2827,65535
2858,65535
2855,65535
2849,65535
2838,65535
2814,65535
2813,65535
2828,65535
2839,65535
2791,65535
2792,65535
2803,65535
2830,65535
2815,65535
2819,65535
2818,65535
2817,65535
2831,65535
2810,65535
2829,65535
2783,65535
2820,65535
2804,65535
2785,65535
2784,65535
2762,65535
2768,65535
2751,65535
2750,65535
2733,65535
2769,65535
2720,65535
2761,65535
2741,65535
2837,65535
2793,65535
2808,65535
2753,65535
2736,65535
2735,65535
2809,65535
2772,65535
2845,65535
2844,65535
2848,65535
2777,65535
2778,65535
2779,65535
2759,65535
2780,65535
2797,65535
2843,65535
2832,65535
2842,65535
2758,65535
2738,65535
2774,65535
2773,65535
2771,65535
2851,65535
2847,65535
2854,65535
2721,65535
2756,65535
2737,65535
2840,65535
2752,65535
2754,65535
2755,65535
2852,65535
2853,65535
2856,65535
2841,65535
2742,65535
2727,65535
2744,65535
2726,65535
2743,65535
2725,65535
2746,65535
2787,65535
2766,65535
2763,65535
2765,65535
2745,65535
2764,65535
2552,65535
2501,65535
2443,65535
2442,65535
2320,65535
2381,65535
2382,65535
2498,65535
2499,65535
2438,65535
2439,65535
2497,65535
2441,65535
2379,65535
2380,65535
2319,65535
2551,65535
2550,65535
2563,7557
2321,4213
2322,4182
2383,4194
2384,4905
2446,4948
2445,4956
2503,4975
2385,4939
2504,7678
2505,7700
2557,7724
2558,7749
2559,7773
2560,7737
2564,7513
2562,7625
2561,7665
2605,7680
2609,5264
2565,5209
2566,5194
2515,5139
2397,3559
2457,5120
2458,5104
2401,3731
2337,3472
2336,3476
2399,3518
2398,3539
2402,3765
2333,3696
2273,3731
2219,3755
2218,3767
2159,3792
2454,5824
2393,5790
2512,7524
2502,8309
2608,7943
2156,3914
2155,3946
2154,3975
2213,3991
2212,4003
2211,4051
2210,4092
2264,4099
2324,4133
2323,4149
2030,65535
2094,65535
2157,3878
2450,7921
2388,7970
2387,8038
2326,8075
2266,4280
2265,4235
2508,7892
2396,3628
2335,3646
2334,3657
2158,3817
2279,7345
2278,7309
2222,7278
2221,7260
2276,7242
2275,2844
2261,5727
2207,6585
2149,6644
2554,5027
2599,5057
2633,5095
2664,5130
2689,5167
2690,5193
2691,5209
2692,5233
2152,6338
2089,7046
2088,6384
2025,7179
2603,65535
2602,65535
2556,65535
2693,7172
2671,8955
2670,8935
2694,8894
2553,65535
2665,65535
2705,65535
2710,65535
2668,65535
2639,65535
2463,6586
2521,6622
2572,6645
2451,7806
2390,7775
2391,7595
2392,6232
2215,7800
2268,65535
2093,65535
2092,65535
2028,65535
2024,6414
2150,4452
2086,4482
2209,4439
2023,5553
2087,5506
2148,8599
2262,5712
2327,65535
1560,534
1630,570
1631,548
1559,568
1629,658
1558,573
1634,541
1633,519
1482,502
1481,518
1699,553
1700,551
1701,581
1563,547
2070,1318
2008,1254
2009,1254
1959,1236
1958,1230
2006,1222
1957,1218
1956,910
2193,1427
2132,1367
1912,1274
1911,1242
1865,1328
1866,1365
2007,1275
2069,1309
2010,1315
2011,1387
1961,1291
2072,1339
1913,1327
1867,1398
1962,1336
1914,1391
1915,1365
1909,1263
1636,640
1635,643
1564,572
1702,601
1637,640
1638,621
1565,615
1486,591
1760,632
1704,702
1703,688
1763,818
1762,738
1817,775
1705,664
1863,1310
1815,1386
1759,627
863,1808
758,1901
808,1852
982,2023
1036,2030
1099,2065
1100,2093
1166,2494
1167,2989
1237,2646
1238,2681
1375,2751
1308,2820
1309,2729
1236,2947
1235,2581
1101,2124
1037,2061
971,1604
1025,1587
1026,1602
1027,1615
1089,1628
720,1864
674,1910
864,1690
865,1711
919,1606
1024,1551
975,1725
974,1695
1028,1650
873,2050
925,1996
924,1973
917,1670
918,1646
623,2085
712,1957
713,1990
667,1995
622,2053
809,1838
719,1838
765,1799
972,1636
868,1748
869,1760
815,1779
920,2015
973,1681
981,1974
926,2075
927,2083
928,2107
1354,1600
1288,1541
1218,1517
1152,1586
1023,1515
1353,1614
1085,1495
1148,1425
1147,1418
1082,1369
772,2136
771,2093
819,2068
584,1984
628,1951
629,1940
1033,1871
978,1826
1031,1799
1030,1753
1029,1736
1091,1713
1035,1952
1034,1895
979,1853
1526,2870
1449,2908
1378,2936
1448,2859
1524,2837
1038,2108
1447,2900
1768,775
1710,720
1767,771
391,782
365,744
339,723
400,642
393,853
392,1362
396,752
399,687
443,807
449,843
450,818
419,840
414,1512
415,976
387,970
388,926
389,857
282,685
281,687
314,688
313,698
405,535
411,1714
442,1673
255,640
376,553
373,599
278,687
275,808
248,855
335,919
334,893
306,865
307,842
176,787
225,674
320,604
249,796
287,610
285,657
776,496
731,515
315,656
316,637
204,721
440,513
439,498
166,1905
269,1822
383,1760
1247,4390
1246,4412
1384,4496
1679,4658
1178,4383
1105,3049
1172,3068
1173,3118
1242,3120
1241,3112
1314,3269
1313,3175
1171,3094
1382,3375
1243,3317
1317,3456
1107,3057
1108,3236
1109,3521
1041,3066
1043,3276
1042,3267
1044,3330
1176,4284
1174,3343
1177,4332
1110,4339
985,3112
986,3155
932,3173
774,544
730,521
825,552
728,566
729,536
727,578
682,581
684,558
685,538
732,519
683,562
2134,1443
2194,1462
2068,1323
2129,1383
1905,767
1907,802
1906,773
1953,1265
2002,1288
2064,1297
2125,1310
2137,1601
2196,1555
2195,1502
1859,714
1810,720
1755,668
2131,1362
2192,1402
1862,1299
1861,901
1812,670
1860,892
1809,738
1756,630
1869,1288
1822,813
1821,823
1916,1327
1819,721
1764,701
1820,856
1698,567
1757,615
1566,605
1567,590
1488,564
1489,564
1412,535
1413,580
1414,602
1818,793
1568,697
1410,516
2128,1391
2189,1463
2066,1378
2065,1320
2067,1380
1643,666
1571,615
1491,580
2004,1376
2003,1328
1697,583
2135,1594
2075,1618
1642,642
1955,842
2130,1480
2005,1282
1858,734
1816,8488
1864,8481
1766,765
1910,1286
1868,1279
2188,1675
2127,1644
1903,946
2001,1318
2063,1831
2062,1593
1813,705
1758,617
1639,638
1640,660
1952,1330
2126,8570
1569,633
1965,1506
1966,1552
2014,1569
1490,544
1917,1338
1870,908
1871,922
1570,604
1707,673
2076,1636
2013,1574
1964,1352
1487,547
1908,1249
2251,3681
2199,3625
2198,3488
2136,1643
1641,694
1954,1306
1765,888
1857,746
2187,1996
1904,950
1856,898
1951,1343
1708,1323
245,8799
244,8782
357,8786
246,8914
247,8943
197,9037
223,9015
44,9379
43,9439
3,9575
23,9549
22,9538
63,9321
85,9263
84,9218
108,8718
149,8672
172,9063
296,8766
294,8814
355,8914
354,8946
326,9024
295,8923
291,8935
293,9057
260,8943
356,8974
441,8574
412,8597
329,8932
300,8876
148,8646
214,8884
146,8767
110,8848
262,8909
258,9322
292,9085
257,9387
235,8907
187,8807
212,8863
211,8890
186,8811
162,8785
161,8864
165,8763
189,8963
238,9044
237,9009
263,8945
265,8964
266,8942
267,8930
268,8770
26,9539
25,9507
105,65535
62,65535
83,65535
126,8885
175,9320
152,9254
151,9244
150,9203
103,8823
242,8716
191,8670
192,8721
217,8744
218,8797
145,8707
144,8791
167,8699
190,8677
219,8814
159,8911
185,8855
158,8968
188,8799
160,8876
143,65535
122,65535
75,65535
54,65535
198,9448
270,8811
221,8852
301,8909
302,8746
330,8773
331,8795
115,8847
133,8906
139,8803
134,8880
114,9404
48,65535
69,65535
92,9080
164,8873
4,65535
107,9225
129,9310
109,8750
125,8791
124,8765
127,65535
82,65535
67,65535
91,9248
93,9047
137,9182
113,9202
112,9160
136,65535
49,65535
72,65535
71,65535
406,589
805,7090
858,6895
859,7036
967,1074
1142,1209
1080,6735
1022,6776
1079,6768
968,6891
1206,1166
915,7042
916,7077
914,7014
807,7129
911,8236
1078,6992
1207,1224
1278,1268
1277,1271
1344,1291
1415,1332
1492,1387
1345,1348
1346,1318
1208,1216
1209,1296
1143,1333
1144,1349
1145,1364
1417,1344
1493,1404
1494,1423
1572,1438
1081,7061
970,7264
408,607
382,619
437,539
467,521
409,604
403,615
432,624
433,583
404,551
352,581
351,575
349,604
317,645
374,590
346,651
283,658
410,577
438,560
465,527
490,545
491,537
435,552
436,547
379,634
323,691
289,664
377,590
378,600
592,718
593,688
552,641
445,736
424,734
423,1336
416,1410
361,1327
362,867
371,689
372,670
343,705
344,698
286,651
227,658
252,654
284,644
318,628
250,736
312,686
340,684
368,702
369,761
370,1412
341,695
367,701
308,779
276,768
277,747
280,738
310,701
338,755
366,1380
274,1370
305,1572
420,1359
363,1332
418,800
550,7081
579,7104
576,7049
577,7061
578,7077
520,7057
618,7071
662,7101
619,7088
620,7101
621,7095
665,7077
666,7069
664,7097
580,7116
2260,65535
2257,65535
2206,65535
2146,65535
2314,65535
2313,65535
2312,65535
2373,65535
2256,65535
2205,65535
2434,65535
2435,65535
2375,65535
2376,65535
2433,65535
2491,65535
2490,65535
2492,65535
2546,65535
2597,65535
2596,65535
2544,65535
2145,65535
2082,65535
2020,65535
2494,65535
0,65535
11,65535
1052,2068
1053,2055
941,2095
1740,333
1796,374
1615,205
1681,269
1545,96
1797,461
1544,157
1741,440
1795,456
1617,171
1546,149
1616,238
1683,281
1467,118
1547,177
1465,127
1387,92
1388,61
1464,188
1462,619
1461,640
1542,704
1463,583
1682,331
1543,273
1618,190
1742,474
1460,806
1248,216
1850,652
1801,648
1803,626
882,499
881,508
938,558
883,519
940,2838
1998,1215
1902,1341
1807,726
1691,527
1694,672
1693,1312
1749,558
1752,593
1753,651
1627,643
1628,621
1557,600
1479,553
1402,545
1808,715
1946,1435
1947,1380
1948,1284
1997,1170
1855,847
1690,506
2060,1557
1949,1439
1950,1295
1751,575
1692,535
1999,1231
1901,1305
1900,1246
1852,1218
1853,1180
1805,694
1750,570
1854,889
1806,688
1748,595
2061,1552
2000,1294
1804,699
1899,1267
2884,65535
2892,65535
2883,65535
2876,65535
2874,65535
2882,65535
2877,65535
2911,65535
2905,65535
2906,65535
2896,65535
2887,65535
2881,65535
2880,65535
2888,65535
2902,65535
2903,65535
2907,65535
2912,65535
2895,65535
2894,65535
2875,65535
2885,65535
2893,65535
2904,65535
2865,65535
2866,65535
2909,65535
2913,65535
2886,65535
2878,65535
2869,65535
2871,65535
2872,65535
2879,65535
2870,65535
1330,575
1331,545
1401,548
1262,551
1263,544
1478,599
1403,527
1261,606
1480,544
1264,581
1390,80
1389,52
1319,0
1251,57
1250,132
1285,1442
1284,1446
1214,1418
1146,1384
1505,1667
1504,1601
1582,1639
1581,1567
1713,1546
1771,1528
1654,1678
1653,1651
1651,1603
2096,2782
2033,2742
1972,2713
1923,2645
1922,2623
1874,2317
1873,2030
1919,1983
1829,2994
1579,1503
1424,1495
1711,1520
1348,1344
1419,1364
1359,1771
1429,1722
1428,1708
1421,1421
1577,1455
1499,1428
1230,2015
1365,1952
1511,1874
1300,1997
1366,1969
1512,1902
1716,1736
1503,2013
1276,1298
1347,1328
1349,1376
1645,1512
1578,1490
1770,1524
1715,1579
1150,1483
1217,1497
1149,1459
1580,1529
1352,1536
1502,1518
1825,1936
1718,1891
1717,1865
1872,1969
1656,1780
1648,1555
1712,1532
1213,1408
1212,1389
1084,1430
1420,1410
1281,1334
1282,1395
1587,1774
1586,1741
1585,1730
1652,1698
1427,1876
1975,2817
1977,2885
1932,2955
1931,3580
1426,1596
1422,1438
1425,1581
1583,1667
1501,1525
1283,1436
1286,1483
1215,1468
1211,1365
1210,1339
1083,1401
1655,1769
2220,2823
1355,5891
1772,1537
1436,1920
1435,1910
1589,1843
1163,2048
1735,3168
1791,3101
1841,3078
1840,3034
1219,1600
1220,1639
1647,1541
1646,1533
1279,1286
1714,1556
1575,1515
1576,1477
1498,1485
1573,1527
1496,1545
1497,1516
2177,2965
2176,3035
2294,2952
2293,3071
2237,3012
2236,3041
2364,2813
2302,2753
2301,2675
2245,2577
2056,2707
2057,2793
2055,2686
2184,2738
2120,2744
2244,2658
2538,2998
2537,2979
2591,3095
1940,2870
1989,2878
1990,2814
2539,2998
2482,2989
2483,2951
2424,2847
2121,2805
2119,2618
2050,2927
2049,3005
2048,3423
2185,2771
2243,2497
2299,2711
2241,2660
2485,3029
2542,3084
2353,3043
2292,2950
2419,2837
2478,2884
2479,2919
2536,2946
2484,2990
2486,2983
2354,2882
2416,3059
2242,2705
2355,2920
2300,2718
1991,2818
1992,2825
2477,2875
2534,2896
2535,3011
2588,2916
2587,2930
2630,2981
2051,2739
2116,2633
2175,3068
2586,65535
2541,3151
2178,2940
2179,2743
2240,2690
2239,2914
2238,2984
2052,2870
2053,2836
1987,3110
1988,2958
1939,2982
2594,3101
2593,3086
2358,2804
2357,2814
2420,2870
2247,2866
2427,2956
2428,2978
2181,2537
2180,2586
2417,2864
2590,3076
2297,2699
2361,2891
2362,2774
2423,2862
2422,2827
2174,3298
2356,2925
1941,2859
2365,2990
2112,3303
2047,3445
2182,2676
2359,2753
2533,3691
2295,3016
2115,2706
2632,3136
2631,3075
2186,2923
2298,2785
2360,2809
2235,3261
2291,3274
2487,3205
2246,2798
2425,3606
2117,2930
2543,3158
1893,65535
2421,2962
2476,2880
2592,3134
604,7066
