middle_point_id,reach_time_minutes
2835,65535
2836,65535
2806,65535
2822,65535
2823,65535
2807,65535
2846,65535
887,317
888,308
1326,815
1185,309
999,528
1057,470
1552,349
1120,298
1473,395
944,338
832,335
1257,775
1396,501
1622,363
1327,3784
1184,302
1183,309
1324,1111
1255,1191
1394,1122
1252,888
1253,861
1182,380
1328,65535
1470,1069
1321,921
1322,1033
1323,2405
1391,979
1551,404
1393,1043
1472,640
1471,949
1181,2774
1118,839
1059,237
1121,263
1469,1245
1468,1022
1548,1185
1325,1045
1625,292
1623,354
1258,337
1256,851
791,273
891,266
703,239
704,231
660,233
1553,352
1624,337
1554,410
1474,400
1475,407
1550,456
1549,1134
1320,942
1466,984
1541,2515
1318,986
1249,1070
1186,296
1003,234
1002,245
741,284
788,276
434,926
697,291
752,230
1056,511
1006,188
907,239
518,291
1011,118
1000,308
1055,1502
997,1382
994,1288
996,1376
995,1363
991,1332
1112,65535
1114,1334
1051,1315
1398,1692
1395,930
1001,248
1811,328
1960,1004
1769,1054
1823,1050
1329,65535
1332,63
1259,955
1200,93
1199,93
1140,258
1141,262
783,346
1689,436
1802,720
1945,1436
2183,1918
2418,2367
1994,1472
1995,1868
2059,997
1621,65535
1555,247
1754,559
1180,2303
1106,2470
933,2726
827,810
2122,1723
2124,997
493,302
519,295
544,289
545,293
494,304
470,347
543,303
469,334
517,308
574,301
573,268
495,358
546,309
613,249
612,253
492,316
572,274
571,319
570,361
610,360
575,356
547,338
516,337
611,321
542,412
569,398
609,388
548,2229
549,2264
1404,29
1405,12
1266,20
1193,107
743,282
742,273
747,271
746,279
745,293
744,294
790,279
789,281
839,289
838,264
738,343
739,337
740,301
890,281
834,344
784,343
889,297
856,299
855,287
854,270
853,265
852,251
910,292
909,281
908,254
964,242
965,249
1020,255
966,298
963,219
1021,409
1271,91
1270,89
1339,98
1338,82
1071,123
1072,138
1135,127
1408,97
1337,79
1269,78
1268,74
1136,128
1075,189
1077,258
1076,244
1019,222
1018,213
1074,152
1137,144
1272,126
1274,217
1275,230
1205,332
1204,317
1273,227
1198,109
1197,106
1341,141
1134,114
1133,110
1069,94
1132,74
1073,143
1203,260
1202,225
1201,153
1139,224
1267,48
1138,176
1340,110
1196,59
1342,168
1409,124
1485,119
1407,147
1561,111
1632,137
1484,178
1483,70
1562,102
1194,58
1130,65
1195,46
1335,0
1129,90
1066,133
1128,192
1067,98
1131,70
1334,40
1336,58
1265,95
1333,57
1406,46
857,348
803,382
804,2239
860,2247
969,2200
913,2187
912,2125
861,2257
806,2300
659,238
751,228
658,247
705,236
702,253
706,243
753,244
614,244
701,259
661,242
616,248
848,181
796,217
797,200
798,193
750,234
707,258
615,281
748,271
845,188
846,213
657,286
749,254
795,235
617,291
663,266
794,264
847,197
849,212
902,182
901,190
900,177
793,278
899,228
898,248
897,277
844,200
842,273
841,265
956,136
792,272
843,248
840,298
850,249
903,173
800,266
755,293
756,310
710,373
711,418
962,203
961,196
904,180
906,229
851,240
802,290
801,269
799,243
959,212
1014,161
1013,160
708,425
709,399
754,281
757,341
1017,163
1016,153
960,165
905,216
958,198
957,114
1070,134
1015,159
1012,104
1068,102
1005,204
1004,219
1060,230
1063,191
1065,149
1127,169
1062,198
1124,248
1123,252
1125,222
1188,291
1122,286
1058,256
947,263
946,279
949,231
945,289
948,277
1190,356
1187,314
951,198
895,226
952,214
1009,145
1008,171
1010,129
1007,193
1061,253
954,158
896,253
953,221
1126,213
1064,155
1189,334
955,151
950,218
892,257
786,288
836,289
837,261
787,267
700,286
655,351
654,346
653,338
698,316
699,311
608,411
696,289
656,348
833,328
785,318
835,309
693,355
894,246
893,252
1343,212
1192,79
1191,95
828,474
829,454
780,872
830,859
779,476
782,351
529,1030
886,378
596,951
556,984
598,490
597,512
526,1066
555,1106
525,1135
524,1102
523,1067
688,397
607,504
650,1029
651,910
652,924
737,352
694,304
695,325
645,405
646,373
690,365
600,410
599,420
781,365
736,365
558,1002
644,409
643,513
648,818
692,359
691,357
513,922
541,1017
540,1012
568,894
530,1069
831,384
559,1001
560,959
642,1095
557,990
496,1106
471,1144
444,1214
446,1176
528,1059
527,1076
562,943
602,907
734,420
466,376
464,896
463,911
478,1219
481,1072
480,1146
479,1160
647,384
488,947
502,1099
689,381
533,990
532,1017
531,1041
601,921
484,1008
508,1067
510,970
509,1041
534,1063
482,1107
506,1040
606,1001
455,1271
429,1028
456,1405
457,1244
428,1167
458,1065
554,1148
594,1043
640,994
639,1009
551,1089
681,1085
636,1106
635,1157
590,1150
778,485
777,795
485,989
486,998
462,1023
563,1089
885,408
943,968
564,893
641,1014
504,1121
503,1139
501,1277
500,1344
561,1050
254,1059
350,1053
321,1032
319,1098
251,1138
375,995
347,1108
687,518
565,919
539,980
511,992
536,941
649,835
603,853
605,1406
733,432
735,372
489,1107
514,999
461,1090
460,1101
459,1121
468,343
154,1298
178,1260
203,1231
228,1150
402,1014
401,1096
505,1046
522,1095
451,1398
452,1348
477,1231
476,1300
483,1066
884,893
431,982
430,1057
454,1240
595,997
395,1209
394,1286
422,1452
417,1229
390,1276
538,999
567,1113
426,1216
397,1138
398,1103
499,1313
475,1362
497,1112
498,1129
311,1142
342,1103
345,1042
421,1338
515,1267
472,1587
448,1548
473,1501
474,1379
353,1066
381,1015
256,1196
290,1120
324,1079
380,1130
407,1010
253,1143
226,1168
201,1181
177,1244
824,956
775,897
826,829
939,907
936,1318
937,973
880,900
566,974
2821,65535
2834,65535
2833,65535
2789,65535
2790,65535
2770,65535
2788,65535
2776,65535
2795,65535
2775,65535
2794,65535
2825,65535
2824,65535
2826,65535
2811,65535
2812,65535
2796,65535
2827,65535
2858,65535
2855,65535
2849,65535
2838,65535
2814,65535
2813,65535
2828,65535
2839,65535
2791,65535
2792,65535
2803,65535
2830,65535
2815,65535
2819,65535
2818,65535
2817,65535
2831,65535
2810,65535
2829,65535
2783,65535
2820,65535
2804,65535
2785,65535
2784,65535
2762,65535
2768,65535
2751,65535
2750,65535
2733,65535
2769,65535
2720,65535
2761,65535
2741,65535
2837,65535
2793,65535
2808,65535
2753,65535
2736,65535
2735,65535
2809,65535
2772,65535
2845,65535
2844,65535
2848,65535
2777,65535
2778,65535
2779,65535
2759,65535
2780,65535
2797,65535
2843,65535
2832,65535
2842,65535
2758,65535
2738,65535
2774,65535
2773,65535
2771,65535
2851,65535
2847,65535
2854,65535
2721,65535
2756,65535
2737,65535
2840,65535
2752,65535
2754,65535
2755,65535
2852,65535
2853,65535
2856,65535
2841,65535
2742,65535
2727,65535
2744,65535
2726,65535
2743,65535
2725,65535
2746,65535
2787,65535
2766,65535
2763,65535
2765,65535
2745,65535
2764,65535
2552,65535
2501,65535
2443,65535
2442,65535
2320,65535
2381,65535
2382,65535
2498,65535
2499,65535
2438,65535
2439,65535
2497,65535
2441,65535
2379,65535
2380,65535
2319,65535
2551,65535
2550,65535
2563,65535
2321,65535
2322,65535
2383,65535
2384,65535
2446,65535
2445,65535
2503,65535
2385,65535
2504,65535
2505,65535
2557,65535
2558,65535
2559,65535
2560,65535
2564,65535
2562,65535
2561,65535
2605,65535
2609,65535
2565,65535
2566,65535
2515,4756
2397,4519
2457,4736
2458,4720
2401,65535
2337,4432
2336,4436
2399,4478
2398,4499
2402,65535
2333,4656
2273,4691
2219,4715
2218,4727
2159,4752
2454,65535
2393,65535
2512,65535
2502,65535
2608,65535
2156,65535
2155,65535
2154,65535
2213,65535
2212,65535
2211,65535
2210,65535
2264,65535
2324,65535
2323,65535
2030,65535
2094,65535
2157,65535
2450,65535
2388,65535
2387,65535
2326,65535
2266,65535
2265,65535
2508,65535
2396,4588
2335,4606
2334,4617
2158,4777
2279,3866
2278,3830
2222,3799
2221,3781
2276,3763
2275,1885
2261,65535
2207,65535
2149,65535
2554,65535
2599,65535
2633,65535
2664,65535
2689,65535
2690,65535
2691,65535
2692,65535
2152,65535
2089,65535
2088,65535
2025,65535
2603,65535
2602,65535
2556,65535
2693,65535
2671,65535
2670,65535
2694,65535
2553,65535
2665,65535
2705,65535
2710,65535
2668,65535
2639,65535
2463,65535
2521,65535
2572,65535
2451,65535
2390,65535
2391,65535
2392,65535
2215,65535
2268,65535
2093,65535
2092,65535
2028,65535
2024,65535
2150,65535
2086,65535
2209,65535
2023,65535
2087,65535
2148,65535
2262,65535
2327,65535
1560,99
1630,218
1631,189
1559,320
1629,411
1558,408
1634,171
1633,184
1482,22
1481,92
1699,160
1700,268
1701,221
1563,142
2070,1018
2008,1014
2009,1014
1959,1008
1958,1052
2006,1061
1957,1055
1956,1001
2193,1267
2132,1209
1912,1032
1911,1043
1865,848
1866,885
2007,1028
2069,1043
2010,1053
2011,1140
1961,1045
2072,1129
1913,981
1867,937
1962,1078
1914,1087
1915,1120
1909,881
1636,279
1635,267
1564,186
1702,320
1637,286
1638,294
1565,307
1486,208
1760,319
1704,308
1703,293
1763,338
1762,367
1817,408
1705,863
1863,398
1815,365
1759,298
863,1585
758,1673
808,1629
982,1717
1036,1789
1099,2433
1100,1852
1166,2014
1167,2509
1237,2166
1238,2201
1375,2271
1308,2340
1309,2249
1236,2467
1235,2101
1101,1880
1037,1822
971,1292
1025,1282
1026,1265
1027,1285
1089,1250
720,1630
674,1676
864,1554
865,1529
919,1306
1024,1255
975,1419
974,1357
1028,1353
873,1570
925,1516
924,1493
917,1370
918,1346
623,1845
712,1720
713,1754
667,1759
622,1815
809,1615
719,1602
765,1559
972,1306
868,1506
869,1518
815,1539
920,1414
973,1321
981,1686
926,1595
927,1603
928,1627
1354,1137
1288,1161
1218,1226
1152,1202
1023,1209
1353,1122
1085,1167
1148,1120
1147,1113
1082,1090
772,1656
771,1613
819,1588
584,1750
628,1717
629,1744
1033,1631
978,1588
1031,1561
1030,1514
1029,1496
1091,1473
1035,1715
1034,1655
979,1615
1526,2390
1449,2428
1378,2456
1448,2379
1524,2357
1038,1864
1447,2420
1768,1055
1710,1016
1767,975
391,1262
365,1224
339,1212
400,1060
393,1334
392,1310
396,1183
399,1077
443,1229
449,1422
450,1398
419,1293
414,1290
415,1252
387,1344
388,1312
389,1297
282,1234
281,1169
314,1201
313,1182
405,1015
411,1494
442,1453
255,1079
376,973
373,1027
278,1165
275,1288
248,1335
335,1399
334,1373
306,1345
307,1322
176,1228
225,1184
320,1182
249,1275
287,1156
285,1195
776,846
731,859
315,1137
316,1119
204,1264
440,1008
439,991
166,2865
269,2782
383,2720
1247,65535
1246,65535
1384,65535
1679,65535
1178,3903
1105,2512
1172,2528
1173,2504
1242,3092
1241,2570
1314,3127
1313,3154
1171,2553
1382,4335
1243,2586
1317,4416
1107,2755
1108,3054
1109,3108
1041,2563
1043,3818
1042,3739
1044,4290
1176,3804
1174,4303
1177,3852
1110,3859
985,2632
986,2675
932,2693
774,950
730,873
825,905
728,926
729,896
727,1059
682,941
684,978
685,898
732,941
683,2302
2134,1368
2194,1391
2068,1075
2129,1043
1905,440
1907,912
1906,877
1953,449
2002,808
2064,835
2125,878
2137,1827
2196,1498
2195,1444
1859,396
1810,386
1755,321
2131,1081
2192,1119
1862,800
1861,764
1812,743
1860,893
1809,775
1756,282
1869,1012
1822,1007
1821,983
1916,1050
1819,846
1764,819
1820,970
1698,225
1757,270
1566,248
1567,220
1488,193
1489,226
1412,207
1413,219
1414,245
1818,910
1568,1074
1410,121
2128,1034
2189,1114
2066,898
2065,840
2067,996
1643,990
1571,389
1491,282
2004,896
2003,848
1697,296
2135,1583
2075,1445
1642,949
1955,974
2130,1477
2005,1065
1858,401
1816,3688
1864,3681
1766,968
1910,861
1868,1002
2188,1195
2127,1164
1903,805
2001,838
2063,1404
2062,1113
1813,703
1758,273
1639,820
1640,862
1952,776
2126,3770
1569,971
1965,1302
1966,1348
2014,1368
1490,322
1917,1105
1870,1141
1871,1155
1570,379
1707,874
2076,1435
2013,1400
1964,1354
1487,174
1908,1057
2251,65535
2199,65535
2198,65535
2136,1585
1641,1105
1954,1048
1765,936
1857,416
2187,984
1904,831
1856,777
1951,863
1708,1308
245,3999
244,3982
357,3986
246,4114
247,4143
197,4237
223,4215
44,4579
43,4639
3,4775
23,4749
22,4738
63,4521
85,4463
84,4418
108,3918
149,3872
172,4263
296,3966
294,4014
355,4114
354,4146
326,4224
295,4123
291,4135
293,4257
260,4143
356,4174
441,3774
412,3797
329,4132
300,4076
148,3846
214,4084
146,3967
110,4048
262,4109
258,4522
292,4285
257,4587
235,4107
187,4007
212,4063
211,4090
186,4011
162,3985
161,4064
165,3963
189,4163
238,4244
237,4209
263,4145
265,4164
266,4142
267,4130
268,3970
26,4739
25,4707
105,65535
62,65535
83,65535
126,4085
175,4520
152,4454
151,4444
150,4403
103,4023
242,3916
191,3870
192,3921
217,3944
218,3997
145,3907
144,3991
167,3899
190,3877
219,4014
159,4111
185,4055
158,4168
188,3999
160,4076
143,65535
122,65535
75,65535
54,65535
198,4648
270,4011
221,4052
301,4109
302,3946
330,3973
331,3995
115,4047
133,4106
139,4003
134,4080
114,4604
48,65535
69,65535
92,4280
164,4073
4,65535
107,4425
129,4510
109,3950
125,3991
124,3965
127,65535
82,65535
67,65535
91,4448
93,4247
137,4382
113,4402
112,4360
136,65535
49,65535
72,65535
71,65535
406,1041
805,2290
858,2095
859,2236
967,594
1142,729
1080,1935
1022,1976
1079,1968
968,2091
1206,686
915,2242
916,2277
914,2214
807,2329
911,3436
1078,2192
1207,790
1278,815
1277,813
1344,854
1415,1032
1492,1087
1345,894
1346,859
1208,796
1209,996
1143,1033
1144,1049
1145,1079
1417,995
1493,1105
1494,1123
1572,1139
1081,2261
970,2464
408,1042
382,1023
437,388
467,357
409,1052
403,1014
432,1123
433,1016
404,1036
352,1162
351,1142
349,1066
317,1329
374,1228
346,1247
283,1242
410,973
438,964
465,886
490,1011
491,1106
435,993
436,1000
379,1595
323,1321
289,1184
377,1069
378,1091
592,1136
593,1107
552,1149
445,1220
424,1154
423,1283
416,2377
361,1412
362,1347
371,1110
372,1083
343,1109
344,1094
286,1435
227,1143
252,1166
284,1188
318,1190
250,1192
312,1243
340,1213
368,1242
369,1233
370,1242
341,1237
367,1260
308,1315
276,1308
277,1288
280,1278
310,1187
338,1233
366,1277
274,1349
305,1413
420,1329
363,1393
418,1336
550,2281
579,2304
576,2249
577,2261
578,2277
520,2257
618,2271
662,2301
619,2288
620,2301
621,2295
665,2277
666,2269
664,2297
580,2316
2260,65535
2257,65535
2206,65535
2146,65535
2314,65535
2313,65535
2312,65535
2373,65535
2256,65535
2205,65535
2434,65535
2435,65535
2375,65535
2376,65535
2433,65535
2491,65535
2490,65535
2492,65535
2546,65535
2597,65535
2596,65535
2544,65535
2145,65535
2082,65535
2020,65535
2494,65535
0,65535
11,65535
1052,1468
1053,1455
941,1440
1740,2461
1796,2535
1615,2319
1681,2396
1545,2200
1797,2575
1544,2275
1741,2553
1795,2856
1617,2220
1546,2206
1616,2237
1683,2341
1467,994
1547,1089
1465,2180
1387,2247
1388,1021
1464,2264
1462,3019
1461,3040
1542,2931
1463,2983
1682,2528
1543,2396
1618,2277
1742,2654
1460,2730
1248,2262
1850,767
1801,2178
1803,466
882,859
881,868
938,919
883,896
940,2358
1998,890
1902,861
1807,737
1691,418
1694,973
1693,832
1749,418
1752,766
1753,798
1627,546
1628,921
1557,486
1479,83
1402,70
1808,710
1946,955
1947,900
1948,862
1997,902
1855,753
1690,388
2060,1077
1949,959
1950,881
1751,729
1692,389
1999,886
1901,825
1900,766
1852,738
1853,700
1805,611
1750,655
1854,853
1806,771
1748,439
2061,1072
2000,913
1804,731
1899,787
2884,65535
2892,65535
2883,65535
2876,65535
2874,65535
2882,65535
2877,65535
2911,65535
2905,65535
2906,65535
2896,65535
2887,65535
2881,65535
2880,65535
2888,65535
2902,65535
2903,65535
2907,65535
2912,65535
2895,65535
2894,65535
2875,65535
2885,65535
2893,65535
2904,65535
2865,65535
2866,65535
2909,65535
2913,65535
2886,65535
2878,65535
2869,65535
2871,65535
2872,65535
2879,65535
2870,65535
1330,95
1331,67
1401,76
1262,71
1263,64
1478,117
1403,50
1261,126
1480,107
1264,101
1390,959
1389,960
1319,951
1251,1017
1250,1092
1285,1110
1284,1126
1214,1118
1146,1097
1505,1187
1504,1175
1582,1159
1581,1124
1713,1096
1771,1071
1654,1280
1653,1255
1651,1155
2096,1813
2033,1796
1972,1765
1923,1713
1922,1693
1874,1644
1873,1608
1919,1504
1829,2514
1579,1023
1424,1087
1711,1057
1348,899
1419,1050
1359,1291
1429,1242
1428,1228
1421,946
1577,984
1499,956
1230,1645
1365,1581
1511,1504
1300,1627
1366,1598
1512,1531
1716,1336
1503,1211
1276,1478
1347,1046
1349,1032
1645,1032
1578,1010
1770,1063
1715,1129
1150,1264
1217,1258
1149,1241
1580,1069
1352,1161
1502,1105
1825,1455
1718,1409
1717,1384
1872,1492
1656,1395
1648,1135
1712,1077
1213,1140
1212,1181
1084,1190
1420,930
1281,1096
1282,1216
1587,1236
1586,1205
1585,1195
1652,1179
1427,1231
1975,2337
1977,2405
1932,2475
1931,3100
1426,1239
1422,975
1425,1226
1583,1248
1501,1107
1283,1103
1286,1140
1215,1248
1211,1142
1210,1151
1083,1161
1655,1318
2220,1864
1355,1372
1772,1124
1436,1547
1435,1538
1589,1473
1163,2459
1735,2688
1791,2621
1841,2598
1840,2554
1219,1277
1220,1319
1647,1098
1646,1107
1279,879
1714,1106
1575,1035
1576,997
1498,1005
1573,1110
1496,1065
1497,1036
2177,2485
2176,2555
2294,2472
2293,2591
2237,2532
2236,2561
2364,2333
2302,2273
2301,2195
2245,2097
2056,2227
2057,2313
2055,2206
2184,2258
2120,2264
2244,2178
2538,2518
2537,2499
2591,2615
1940,2390
1989,2398
1990,2334
2539,2518
2482,2509
2483,2471
2424,2367
2121,2325
2119,2138
2050,2447
2049,2525
2048,2943
2185,2291
2243,2017
2299,2231
2241,2180
2485,2549
2542,2604
2353,2563
2292,2470
2419,2357
2478,2404
2479,2439
2536,2466
2484,2510
2486,2503
2354,2402
2416,2579
2242,2225
2355,2440
2300,2238
1991,2338
1992,2345
2477,2395
2534,2416
2535,2531
2588,2436
2587,2450
2630,2501
2051,2259
2116,2153
2175,2588
2586,65535
2541,2671
2178,2460
2179,2263
2240,2210
2239,2434
2238,2504
2052,2390
2053,2356
1987,2630
1988,2478
1939,2502
2594,2621
2593,2606
2358,2324
2357,2334
2420,2390
2247,2386
2427,2476
2428,2498
2181,2057
2180,2106
2417,2384
2590,2596
2297,2219
2361,2411
2362,2294
2423,2382
2422,2347
2174,2818
2356,2445
1941,2379
2365,2510
2112,2823
2047,2965
2182,2196
2359,2273
2533,3211
2295,2536
2115,2226
2632,2656
2631,2595
2186,1756
2298,2305
2360,2329
2235,2781
2291,2794
2487,2725
2246,2318
2425,3126
2117,2450
2543,2678
1893,65535
2421,2482
2476,2400
2592,2654
604,2266
