middle_point_id,reach_time_minutes
2835,65535
2836,65535
2806,65535
2822,65535
2823,65535
2807,65535
2846,65535
887,426
888,418
1326,449
1185,385
999,410
1057,499
1552,334
1120,414
1473,370
944,576
832,428
1257,436
1396,499
1622,355
1327,904
1184,415
1183,429
1324,455
1255,471
1394,402
1252,574
1253,580
1182,585
1328,65535
1470,420
1321,562
1322,535
1323,485
1391,607
1551,352
1393,443
1472,504
1471,397
1181,1934
1118,599
1059,355
1121,374
1469,645
1468,557
1548,465
1325,475
1625,292
1623,316
1258,399
1256,554
791,371
891,360
703,409
704,422
660,421
1553,339
1624,307
1554,350
1474,360
1475,573
1550,362
1549,414
1320,610
1466,602
1541,1555
1318,679
1249,701
1186,402
1003,331
1002,353
741,376
788,353
434,511
697,381
752,435
1056,432
1006,303
907,429
518,455
1011,238
1000,393
1055,2102
997,2071
994,1965
996,2037
995,2021
991,1812
1112,4445
1114,2052
1051,2015
1398,612
1395,570
1001,358
1811,367
1960,670
1769,591
1823,578
1329,65535
1332,6
1259,2216
1200,214
1199,213
1140,396
1141,397
783,442
1689,319
1802,380
1945,841
2183,2398
2418,2847
1994,875
1995,908
2059,457
1621,65535
1555,247
1754,220
1180,1343
1106,3045
933,3206
827,548
2122,2813
2124,589
493,462
519,455
544,447
545,449
494,460
470,482
543,443
469,478
517,466
574,450
573,432
495,478
546,453
613,412
612,423
492,470
572,439
571,457
570,464
610,450
575,506
547,459
516,503
611,441
542,454
569,495
609,424
548,530
549,559
1404,65
1405,98
1266,116
1193,227
743,359
742,365
747,384
746,395
745,387
744,354
790,354
789,348
839,343
838,337
738,446
739,397
740,382
890,370
834,414
784,407
889,377
856,539
855,505
854,491
853,476
852,455
910,518
909,526
908,438
964,432
965,461
1020,431
966,483
963,409
1021,529
1271,211
1270,209
1339,220
1338,207
1071,243
1072,258
1135,247
1408,222
1337,158
1269,180
1268,170
1136,248
1075,309
1077,388
1076,346
1019,342
1018,333
1074,272
1137,264
1272,241
1274,337
1275,350
1205,357
1204,397
1273,347
1198,256
1197,166
1341,282
1134,234
1133,231
1069,207
1132,204
1073,263
1203,380
1202,345
1201,279
1139,388
1267,138
1138,296
1340,230
1196,152
1342,316
1409,231
1485,231
1407,147
1561,124
1632,150
1484,169
1483,118
1562,139
1194,178
1130,185
1195,166
1335,105
1129,210
1066,253
1128,311
1067,226
1131,197
1334,74
1336,139
1265,155
1333,16
1406,114
857,828
803,3562
804,7039
860,7047
969,7000
913,6987
912,6925
861,7057
806,7100
659,414
751,430
658,404
705,425
702,400
706,452
753,447
614,416
701,388
661,433
616,428
848,421
796,451
797,440
798,433
750,433
707,513
615,461
748,421
845,451
846,426
657,466
749,435
795,461
617,471
663,536
794,464
847,437
849,450
902,428
901,403
900,411
793,402
899,411
898,390
897,363
844,473
842,382
841,380
956,256
792,380
843,412
840,369
850,453
903,417
800,461
755,473
756,557
710,613
711,658
962,390
961,397
904,406
906,424
851,447
802,470
801,465
799,483
959,389
1014,281
1013,280
708,905
709,879
754,495
757,851
1017,341
1016,273
960,423
905,456
958,320
957,427
1070,254
1015,298
1012,224
1068,222
1005,307
1004,320
1060,349
1063,283
1065,272
1127,289
1062,309
1124,324
1123,346
1125,312
1188,351
1122,405
1058,363
947,365
946,379
949,325
945,396
948,337
1190,338
1187,373
951,318
895,324
952,313
1009,313
1008,301
1010,233
1007,305
1061,363
954,463
896,335
953,314
1126,304
1064,278
1189,338
955,271
950,315
892,355
786,359
836,355
837,340
787,357
700,410
655,437
654,406
653,398
698,364
699,393
608,416
696,402
656,434
833,422
785,375
835,371
693,415
894,327
893,327
1343,332
1192,76
1191,35
828,538
829,524
780,470
830,519
779,536
782,437
529,596
886,453
596,562
556,577
598,540
597,551
526,608
555,600
525,628
524,644
523,660
688,486
607,442
650,491
651,455
652,463
737,448
694,429
695,384
645,496
646,468
690,464
600,499
599,510
781,441
736,455
558,599
644,517
643,493
648,478
692,461
691,458
513,468
541,477
540,532
568,439
530,558
831,444
559,604
560,599
642,560
557,572
496,695
471,724
444,792
446,756
528,587
527,596
562,479
602,501
734,480
466,532
464,522
463,508
478,682
481,592
480,631
479,659
647,488
488,521
502,606
689,473
533,510
532,537
531,562
601,541
484,599
508,550
510,588
509,560
534,541
482,609
506,560
606,513
455,733
429,635
456,759
457,658
428,627
458,641
554,626
594,704
640,627
639,746
551,690
681,767
636,759
635,746
590,707
778,545
777,552
485,624
486,582
462,592
563,530
885,464
943,1331
564,555
641,579
504,627
503,624
501,638
500,696
561,567
254,618
350,568
321,596
319,612
251,654
375,575
347,598
687,499
565,572
539,491
511,595
536,615
649,497
603,514
605,663
733,494
735,464
489,533
514,513
461,591
460,621
459,640
468,483
154,755
178,719
203,690
228,669
402,606
401,618
505,565
522,699
451,841
452,819
477,708
476,748
483,776
884,502
431,604
430,613
454,1343
595,577
395,720
394,722
422,749
417,817
390,811
538,513
567,492
426,799
397,713
398,679
499,1533
475,741
497,698
498,722
311,674
342,683
345,622
421,756
515,545
472,1416
448,1447
473,1472
474,1517
353,610
381,596
256,656
290,640
324,631
380,590
407,566
253,644
226,687
201,700
177,735
824,656
775,597
826,559
939,607
936,1798
937,673
880,729
566,560
2821,65535
2834,65535
2833,65535
2789,65535
2790,65535
2770,65535
2788,65535
2776,65535
2795,65535
2775,65535
2794,65535
2825,65535
2824,65535
2826,65535
2811,65535
2812,65535
2796,65535
2827,65535
2858,65535
2855,65535
2849,65535
2838,65535
2814,65535
2813,65535
2828,65535
2839,65535
2791,65535
2792,65535
2803,65535
2830,65535
2815,65535
2819,65535
2818,65535
2817,65535
2831,65535
2810,65535
2829,65535
2783,65535
2820,65535
2804,65535
2785,65535
2784,65535
2762,65535
2768,65535
2751,65535
2750,65535
2733,65535
2769,65535
2720,65535
2761,65535
2741,65535
2837,65535
2793,65535
2808,65535
2753,65535
2736,65535
2735,65535
2809,65535
2772,65535
2845,65535
2844,65535
2848,65535
2777,65535
2778,65535
2779,65535
2759,65535
2780,65535
2797,65535
2843,65535
2832,65535
2842,65535
2758,65535
2738,65535
2774,65535
2773,65535
2771,65535
2851,65535
2847,65535
2854,65535
2721,65535
2756,65535
2737,65535
2840,65535
2752,65535
2754,65535
2755,65535
2852,65535
2853,65535
2856,65535
2841,65535
2742,65535
2727,65535
2744,65535
2726,65535
2743,65535
2725,65535
2746,65535
2787,65535
2766,65535
2763,65535
2765,65535
2745,65535
2764,65535
2552,65535
2501,65535
2443,65535
2442,65535
2320,65535
2381,65535
2382,65535
2498,65535
2499,65535
2438,65535
2439,65535
2497,65535
2441,65535
2379,65535
2380,65535
2319,65535
2551,65535
2550,65535
2563,7557
2321,4213
2322,4182
2383,4194
2384,4905
2446,4948
2445,4956
2503,4975
2385,4939
2504,7678
2505,7700
2557,7724
2558,7749
2559,7773
2560,7737
2564,7513
2562,7625
2561,7665
2605,7680
2609,5264
2565,5209
2566,5194
2515,5139
2397,3559
2457,5120
2458,5104
2401,3731
2337,3472
2336,3476
2399,3518
2398,3539
2402,3765
2333,3696
2273,3731
2219,3755
2218,3767
2159,3792
2454,5824
2393,5790
2512,7524
2502,8309
2608,7943
2156,3914
2155,3946
2154,3975
2213,3991
2212,4003
2211,4051
2210,4092
2264,4099
2324,4133
2323,4149
2030,65535
2094,65535
2157,3878
2450,7921
2388,7970
2387,8038
2326,8075
2266,4280
2265,4235
2508,7892
2396,3628
2335,3646
2334,3657
2158,3817
2279,7345
2278,7309
2222,7278
2221,7260
2276,7242
2275,2844
2261,5727
2207,6585
2149,6644
2554,5027
2599,5057
2633,5095
2664,5130
2689,5167
2690,5193
2691,5209
2692,5233
2152,6338
2089,7046
2088,6384
2025,7179
2603,65535
2602,65535
2556,65535
2693,7172
2671,8955
2670,8935
2694,8894
2553,65535
2665,65535
2705,65535
2710,65535
2668,65535
2639,65535
2463,6586
2521,6622
2572,6645
2451,7806
2390,7775
2391,7595
2392,6232
2215,7800
2268,65535
2093,65535
2092,65535
2028,65535
2024,6414
2150,4452
2086,4482
2209,4439
2023,5553
2087,5506
2148,8599
2262,5712
2327,65535
1560,117
1630,74
1631,87
1559,72
1629,117
1558,33
1634,210
1633,171
1482,142
1481,142
1699,179
1700,223
1701,243
1563,166
2070,691
2008,687
2009,684
1959,672
1958,698
2006,730
1957,710
1956,662
2193,802
2132,741
1912,700
1911,680
1865,484
1866,567
2007,717
2069,701
2010,693
2011,709
1961,688
2072,709
1913,626
1867,619
1962,713
1914,662
1915,574
1909,614
1636,282
1635,271
1564,178
1702,328
1637,294
1638,330
1565,239
1486,244
1760,632
1704,325
1703,297
1763,414
1762,397
1817,444
1705,438
1863,611
1815,1293
1759,351
863,1808
758,1901
808,1852
982,2023
1036,2030
1099,2065
1100,2093
1166,2494
1167,2989
1237,2646
1238,2681
1375,2751
1308,2820
1309,2729
1236,2947
1235,2581
1101,2124
1037,2061
971,1604
1025,1587
1026,1602
1027,1615
1089,1628
720,1864
674,1910
864,1690
865,1711
919,1606
1024,1551
975,1725
974,1695
1028,1650
873,2050
925,1996
924,1973
917,1670
918,1646
623,2085
712,1957
713,1990
667,1995
622,2053
809,1838
719,1838
765,1799
972,1636
868,1748
869,1760
815,1779
920,2015
973,1681
981,1974
926,2075
927,2083
928,2107
1354,1600
1288,1541
1218,1517
1152,1586
1023,1515
1353,1614
1085,1495
1148,1425
1147,1418
1082,1369
772,2136
771,2093
819,2068
584,1984
628,1951
629,1940
1033,1871
978,1826
1031,1799
1030,1753
1029,1736
1091,1713
1035,1952
1034,1895
979,1853
1526,2870
1449,2908
1378,2936
1448,2859
1524,2837
1038,2108
1447,2900
1768,583
1710,575
1767,498
391,782
365,744
339,723
400,642
393,853
392,1362
396,752
399,687
443,807
449,843
450,818
419,840
414,1512
415,976
387,970
388,926
389,857
282,685
281,687
314,688
313,698
405,535
411,1714
442,1673
255,640
376,553
373,599
278,687
275,808
248,855
335,919
334,893
306,865
307,842
176,787
225,674
320,604
249,796
287,610
285,657
776,557
731,575
315,656
316,637
204,721
440,513
439,498
166,1905
269,1822
383,1760
1247,4390
1246,4412
1384,4496
1679,4658
1178,4383
1105,3049
1172,3068
1173,3118
1242,3120
1241,3112
1314,3269
1313,3175
1171,3094
1382,3375
1243,3317
1317,3456
1107,3057
1108,3236
1109,3521
1041,3066
1043,3276
1042,3267
1044,3330
1176,4284
1174,3343
1177,4332
1110,4339
985,3112
986,3155
932,3173
774,604
730,581
825,612
728,639
729,620
727,781
682,636
684,587
685,587
732,578
683,687
2134,1255
2194,1284
2068,721
2129,725
1905,506
1907,563
1906,486
1953,468
2002,482
2064,519
2125,551
2137,1396
2196,1352
2195,1307
1859,420
1810,450
1755,387
2131,766
2192,780
1862,571
1861,433
1812,404
1860,577
1809,258
1756,320
1869,521
1822,540
1821,519
1916,569
1819,467
1764,447
1820,471
1698,263
1757,308
1566,310
1567,320
1488,336
1489,439
1412,368
1413,375
1414,403
1818,486
1568,457
1410,284
2128,716
2189,761
2066,603
2065,563
2067,678
1643,554
1571,506
1491,469
2004,591
2003,542
1697,280
2135,1277
2075,718
1642,532
1955,601
2130,828
2005,770
1858,483
1816,8488
1864,8481
1766,492
1910,654
1868,512
2188,841
2127,811
1903,431
2001,491
2063,479
2062,470
1813,416
1758,353
1639,379
1640,413
1952,428
2126,8570
1569,448
1965,673
1966,719
2014,824
1490,434
1917,601
1870,564
1871,574
1570,468
1707,444
2076,738
2013,674
1964,626
1487,334
1908,1249
2251,3681
2199,3625
2198,3488
2136,1300
1641,553
1954,1306
1765,465
1857,441
2187,925
1904,470
1856,405
1951,395
1708,1323
245,8799
244,8782
357,8786
246,8914
247,8943
197,9037
223,9015
44,9379
43,9439
3,9575
23,9549
22,9538
63,9321
85,9263
84,9218
108,8718
149,8672
172,9063
296,8766
294,8814
355,8914
354,8946
326,9024
295,8923
291,8935
293,9057
260,8943
356,8974
441,8574
412,8597
329,8932
300,8876
148,8646
214,8884
146,8767
110,8848
262,8909
258,9322
292,9085
257,9387
235,8907
187,8807
212,8863
211,8890
186,8811
162,8785
161,8864
165,8763
189,8963
238,9044
237,9009
263,8945
265,8964
266,8942
267,8930
268,8770
26,9539
25,9507
105,65535
62,65535
83,65535
126,8885
175,9320
152,9254
151,9244
150,9203
103,8823
242,8716
191,8670
192,8721
217,8744
218,8797
145,8707
144,8791
167,8699
190,8677
219,8814
159,8911
185,8855
158,8968
188,8799
160,8876
143,65535
122,65535
75,65535
54,65535
198,9448
270,8811
221,8852
301,8909
302,8746
330,8773
331,8795
115,8847
133,8906
139,8803
134,8880
114,9404
48,65535
69,65535
92,9080
164,8873
4,65535
107,9225
129,9310
109,8750
125,8791
124,8765
127,65535
82,65535
67,65535
91,9248
93,9047
137,9182
113,9202
112,9160
136,65535
49,65535
72,65535
71,65535
406,589
805,7090
858,6895
859,7036
967,1074
1142,1209
1080,6735
1022,6776
1079,6768
968,6891
1206,1166
915,7042
916,7077
914,7014
807,7129
911,8236
1078,6992
1207,1224
1278,1268
1277,1271
1344,1291
1415,1332
1492,1387
1345,1348
1346,1318
1208,1216
1209,1296
1143,1333
1144,1349
1145,1364
1417,1344
1493,1404
1494,1423
1572,1438
1081,7061
970,7264
408,607
382,619
437,539
467,521
409,604
403,615
432,624
433,583
404,551
352,581
351,575
349,604
317,645
374,590
346,651
283,658
410,577
438,560
465,527
490,545
491,537
435,552
436,547
379,634
323,691
289,664
377,590
378,600
592,724
593,763
552,692
445,797
424,734
423,1336
416,1410
361,1327
362,867
371,689
372,670
343,705
344,698
286,651
227,658
252,654
284,644
318,628
250,736
312,686
340,684
368,702
369,761
370,1412
341,695
367,701
308,779
276,768
277,747
280,738
310,701
338,755
366,1380
274,1370
305,1572
420,1359
363,1332
418,800
550,7081
579,7104
576,7049
577,7061
578,7077
520,7057
618,7071
662,7101
619,7088
620,7101
621,7095
665,7077
666,7069
664,7097
580,7116
2260,65535
2257,65535
2206,65535
2146,65535
2314,65535
2313,65535
2312,65535
2373,65535
2256,65535
2205,65535
2434,65535
2435,65535
2375,65535
2376,65535
2433,65535
2491,65535
2490,65535
2492,65535
2546,65535
2597,65535
2596,65535
2544,65535
2145,65535
2082,65535
2020,65535
2494,65535
0,65535
11,65535
1052,2068
1053,2055
941,2095
1740,706
1796,746
1615,629
1681,643
1545,592
1797,769
1544,618
1741,741
1795,1202
1617,600
1546,575
1616,610
1683,675
1467,592
1547,517
1465,653
1387,720
1388,643
1464,712
1462,2059
1461,2080
1542,1971
1463,2023
1682,706
1543,646
1618,592
1742,1300
1460,1770
1248,747
1850,394
1801,393
1803,361
882,559
881,569
938,618
883,579
940,2838
1998,399
1902,353
1807,246
1691,267
1694,133
1693,421
1749,318
1752,207
1753,164
1627,110
1628,81
1557,59
1479,6
1402,4
1808,235
1946,475
1947,506
1948,413
1997,409
1855,295
1690,282
2060,415
1949,447
1950,374
1751,250
1692,389
1999,389
1901,455
1900,496
1852,645
1853,524
1805,334
1750,263
1854,360
1806,328
1748,354
2061,456
2000,454
1804,346
1899,665
2884,65535
2892,65535
2883,65535
2876,65535
2874,65535
2882,65535
2877,65535
2911,65535
2905,65535
2906,65535
2896,65535
2887,65535
2881,65535
2880,65535
2888,65535
2902,65535
2903,65535
2907,65535
2912,65535
2895,65535
2894,65535
2875,65535
2885,65535
2893,65535
2904,65535
2865,65535
2866,65535
2909,65535
2913,65535
2886,65535
2878,65535
2869,65535
2871,65535
2872,65535
2879,65535
2870,65535
1330,35
1331,2
1401,0
1262,20
1263,15
1478,66
1403,15
1261,71
1480,64
1264,103
1390,614
1389,634
1319,664
1251,708
1250,777
1285,1442
1284,1446
1214,1418
1146,1384
1505,1667
1504,1601
1582,1639
1581,1567
1713,1546
1771,1528
1654,1678
1653,1651
1651,1603
2096,2782
2033,2742
1972,2713
1923,2645
1922,2623
1874,2317
1873,2030
1919,1983
1829,2994
1579,1503
1424,1495
1711,1520
1348,1344
1419,1364
1359,1771
1429,1722
1428,1708
1421,1421
1577,1455
1499,1428
1230,2015
1365,1952
1511,1874
1300,1997
1366,1969
1512,1902
1716,1736
1503,2013
1276,1298
1347,1328
1349,1376
1645,1512
1578,1490
1770,1524
1715,1579
1150,1483
1217,1497
1149,1459
1580,1529
1352,1536
1502,1518
1825,1936
1718,1891
1717,1865
1872,1969
1656,1780
1648,1555
1712,1532
1213,1408
1212,1389
1084,1430
1420,1410
1281,1334
1282,1395
1587,1774
1586,1741
1585,1730
1652,1698
1427,1876
1975,2817
1977,2885
1932,2955
1931,3580
1426,1596
1422,1438
1425,1581
1583,1667
1501,1525
1283,1436
1286,1483
1215,1468
1211,1365
1210,1339
1083,1401
1655,1769
2220,2823
1355,5891
1772,1537
1436,1920
1435,1910
1589,1843
1163,2048
1735,3168
1791,3101
1841,3078
1840,3034
1219,1600
1220,1639
1647,1541
1646,1533
1279,1286
1714,1556
1575,1515
1576,1477
1498,1485
1573,1527
1496,1545
1497,1516
2177,2965
2176,3035
2294,2952
2293,3071
2237,3012
2236,3041
2364,2813
2302,2753
2301,2675
2245,2577
2056,2707
2057,2793
2055,2686
2184,2738
2120,2744
2244,2658
2538,2998
2537,2979
2591,3095
1940,2870
1989,2878
1990,2814
2539,2998
2482,2989
2483,2951
2424,2847
2121,2805
2119,2618
2050,2927
2049,3005
2048,3423
2185,2771
2243,2497
2299,2711
2241,2660
2485,3029
2542,3084
2353,3043
2292,2950
2419,2837
2478,2884
2479,2919
2536,2946
2484,2990
2486,2983
2354,2882
2416,3059
2242,2705
2355,2920
2300,2718
1991,2818
1992,2825
2477,2875
2534,2896
2535,3011
2588,2916
2587,2930
2630,2981
2051,2739
2116,2633
2175,3068
2586,65535
2541,3151
2178,2940
2179,2743
2240,2690
2239,2914
2238,2984
2052,2870
2053,2836
1987,3110
1988,2958
1939,2982
2594,3101
2593,3086
2358,2804
2357,2814
2420,2870
2247,2866
2427,2956
2428,2978
2181,2537
2180,2586
2417,2864
2590,3076
2297,2699
2361,2891
2362,2774
2423,2862
2422,2827
2174,3298
2356,2925
1941,2859
2365,2990
2112,3303
2047,3445
2182,2676
2359,2753
2533,3691
2295,3016
2115,2706
2632,3136
2631,3075
2186,2923
2298,2785
2360,2809
2235,3261
2291,3274
2487,3205
2246,2798
2425,3606
2117,2930
2543,3158
1893,65535
2421,2962
2476,2880
2592,3134
604,7066
