middle_point_id,reach_time_minutes
2835,65535
2836,65535
2806,65535
2822,65535
2823,65535
2807,65535
2846,65535
887,1637
888,1618
1326,1451
1185,1494
999,1610
1057,2265
1552,1105
1120,1554
1473,1115
944,1757
832,1615
1257,1463
1396,1279
1622,1135
1327,3784
1184,1507
1183,1539
1324,1591
1255,1585
1394,1242
1252,1583
1253,1625
1182,1580
1328,65535
1470,1257
1321,1576
1322,1633
1323,2405
1391,1597
1551,1132
1393,1283
1472,1515
1471,1189
1181,2774
1118,1679
1059,1529
1121,1514
1469,1321
1468,1438
1548,1342
1325,1465
1625,1183
1623,1095
1258,1547
1256,1514
791,1664
891,1580
703,1719
704,1717
660,1727
1553,1107
1624,1149
1554,1130
1474,1120
1475,1127
1550,1142
1549,1251
1320,1546
1466,1584
1541,278
1318,1578
1249,1599
1186,1488
1003,1536
1002,1531
741,1643
788,1635
434,1773
697,1698
752,1712
1056,1632
1006,1608
907,1744
518,1791
1011,1594
1000,1568
1055,3062
997,3031
994,2925
996,2997
995,2981
991,2772
1112,65535
1114,3012
1051,2975
1398,1692
1395,1290
1001,1548
1811,1447
1960,1630
1769,2305
1823,2294
1329,65535
1332,1434
1259,1923
1200,1597
1199,1595
1140,1764
1141,1762
783,1619
1689,1158
1802,1340
1945,1801
2183,2419
2418,2837
1994,1835
1995,1868
2059,1537
1621,65535
1555,1236
1754,1319
1180,2303
1106,4005
933,4166
827,1688
2122,2659
2124,1634
493,1802
519,1795
544,1789
545,1793
494,1804
470,1852
543,1803
469,1834
517,1808
574,1801
573,1768
495,1858
546,1809
613,1732
612,1743
492,1816
572,1772
571,1803
570,1784
610,1740
575,1856
547,1844
516,2243
611,1761
542,1852
569,1838
609,1722
548,2229
549,2264
1404,1459
1405,1474
1266,1496
1193,1607
743,1651
742,1640
747,1699
746,1672
745,1668
744,1648
790,1657
789,1639
839,1658
838,1619
738,1642
739,1647
740,1656
890,1572
834,1598
784,1609
889,1577
856,1822
855,1800
854,1792
853,1765
852,1752
910,1792
909,1781
908,1748
964,1742
965,1749
1020,1751
966,1770
963,1714
1021,1849
1271,1598
1270,1599
1339,1600
1338,1587
1071,1563
1072,1578
1135,1598
1408,1603
1337,1538
1269,1585
1268,1566
1136,1628
1075,1699
1077,1758
1076,1728
1019,1721
1018,1711
1074,1660
1137,1644
1272,1620
1274,1696
1275,1730
1205,1772
1204,1757
1273,1667
1198,1579
1197,1546
1341,1641
1134,1554
1133,1550
1069,1561
1132,1557
1073,1610
1203,1723
1202,1665
1201,1638
1139,1708
1267,1518
1138,1675
1340,1605
1196,1535
1342,1667
1409,1687
1485,1641
1407,1587
1561,1551
1632,1522
1484,1618
1483,1509
1562,1541
1194,1558
1130,1565
1195,1546
1335,1483
1129,1571
1066,1587
1128,1632
1067,1594
1131,1562
1334,1494
1336,1498
1265,1463
1333,1439
1406,1486
857,2248
803,2291
804,2286
860,2247
969,2200
913,2187
912,2125
861,2257
806,2300
659,1724
751,1703
658,1724
705,1726
702,1720
706,1705
753,1685
614,1736
701,1711
661,1742
616,1748
848,1665
796,1696
797,1677
798,1682
750,1711
707,1698
615,1781
748,1729
845,1703
846,1686
657,1786
749,1733
795,1722
617,1791
663,1706
794,1724
847,1652
849,1710
902,1682
901,1663
900,1689
793,1673
899,1712
898,1700
897,1683
844,1693
842,1678
841,1668
956,1642
792,1670
843,1688
840,1685
850,1750
903,1642
800,1757
755,1769
756,1783
710,1813
711,1858
962,1705
961,1698
904,1661
906,1732
851,1740
802,1790
801,1777
799,1743
959,1652
1014,1608
1013,1600
708,1794
709,1822
754,1747
757,1811
1017,1622
1016,1617
960,1628
905,1716
958,1640
957,1663
1070,1574
1015,1618
1012,1628
1068,1587
1005,1579
1004,1548
1060,1532
1063,1631
1065,1592
1127,1653
1062,1612
1124,1586
1123,1542
1125,1603
1188,1593
1122,1509
1058,1520
947,1565
946,1577
949,1586
945,1596
948,1597
1190,1658
1187,1571
951,1620
895,1638
952,1662
1009,1628
1008,1621
1010,1611
1007,1633
1061,1573
954,1676
896,1674
953,1661
1126,1653
1064,1625
1189,1713
955,1651
950,1599
892,1595
786,1634
836,1620
837,1611
787,1617
700,1726
655,1712
654,1674
653,1696
698,1668
699,1684
608,1731
696,1691
656,1746
833,1606
785,1635
835,1627
693,1650
894,1611
893,1603
1343,1703
1192,1519
1191,1475
828,1685
829,1669
780,1670
830,1697
779,1661
782,1620
529,1852
886,1632
596,1903
556,1995
598,1740
597,1772
526,2310
555,2309
525,2299
524,2268
523,1942
688,1653
607,1722
650,1739
651,1691
652,1710
737,1637
694,1683
695,1708
645,1670
646,1663
690,1639
600,1693
599,1679
781,1625
736,1635
558,1826
644,1669
643,1680
648,1676
692,1647
691,1642
513,1897
541,2274
540,2314
568,2334
530,1875
831,1644
559,1789
560,1850
642,1805
557,1910
496,2234
471,2303
444,2380
446,2332
528,1913
527,2293
562,1760
602,1726
734,1648
466,2261
464,1792
463,2336
478,2454
481,2392
480,2453
479,2429
647,1651
488,1870
502,2237
689,1648
533,1824
532,1846
531,2301
601,2239
484,1935
508,2289
510,1901
509,2300
534,2281
482,2406
506,2360
606,1746
455,2518
429,2341
456,2614
457,2391
428,2403
458,2369
554,2335
594,2261
640,1860
639,2227
551,1966
681,2361
636,2352
635,2339
590,2266
778,1689
777,1692
485,1898
486,1867
462,2229
563,2316
885,1664
943,1693
564,1830
641,1822
504,1945
503,1910
501,2283
500,2361
561,2274
254,2309
350,1882
321,2339
319,1873
251,1914
375,1859
347,2268
687,1699
565,2278
539,1914
511,1879
536,2241
649,1693
603,2293
605,2846
733,1667
735,1639
489,2303
514,2298
461,2393
460,2425
459,2401
468,1840
154,2257
178,2232
203,2198
228,2180
402,1925
401,2303
505,2365
522,2287
451,2369
452,2400
477,2461
476,2402
483,2506
884,2333
431,1890
430,2304
454,2680
595,2327
395,2345
394,2209
422,2329
417,2368
390,2385
538,2313
567,1750
426,2435
397,2355
398,2386
499,2455
475,2434
497,2267
498,2326
311,1979
342,1937
345,1893
421,2247
515,2331
472,2376
448,2407
473,2432
474,2477
353,1903
381,1858
256,2227
290,2198
324,1964
380,1921
407,1850
253,2341
226,2353
201,2362
177,2326
824,1736
775,1706
826,1699
939,2287
936,2758
937,2353
880,1841
566,2316
2821,65535
2834,65535
2833,65535
2789,65535
2790,65535
2770,65535
2788,65535
2776,65535
2795,65535
2775,65535
2794,65535
2825,65535
2824,65535
2826,65535
2811,65535
2812,65535
2796,65535
2827,65535
2858,65535
2855,65535
2849,65535
2838,65535
2814,65535
2813,65535
2828,65535
2839,65535
2791,65535
2792,65535
2803,65535
2830,65535
2815,65535
2819,65535
2818,65535
2817,65535
2831,65535
2810,65535
2829,65535
2783,65535
2820,65535
2804,65535
2785,65535
2784,65535
2762,65535
2768,65535
2751,65535
2750,65535
2733,65535
2769,65535
2720,65535
2761,65535
2741,65535
2837,65535
2793,65535
2808,65535
2753,65535
2736,65535
2735,65535
2809,65535
2772,65535
2845,65535
2844,65535
2848,65535
2777,65535
2778,65535
2779,65535
2759,65535
2780,65535
2797,65535
2843,65535
2832,65535
2842,65535
2758,65535
2738,65535
2774,65535
2773,65535
2771,65535
2851,65535
2847,65535
2854,65535
2721,65535
2756,65535
2737,65535
2840,65535
2752,65535
2754,65535
2755,65535
2852,65535
2853,65535
2856,65535
2841,65535
2742,65535
2727,65535
2744,65535
2726,65535
2743,65535
2725,65535
2746,65535
2787,65535
2766,65535
2763,65535
2765,65535
2745,65535
2764,65535
2552,65535
2501,65535
2443,65535
2442,65535
2320,65535
2381,65535
2382,65535
2498,65535
2499,65535
2438,65535
2439,65535
2497,65535
2441,65535
2379,65535
2380,65535
2319,65535
2551,65535
2550,65535
2563,65535
2321,65535
2322,65535
2383,65535
2384,65535
2446,65535
2445,65535
2503,65535
2385,65535
2504,65535
2505,65535
2557,65535
2558,65535
2559,65535
2560,65535
2564,65535
2562,65535
2561,65535
2605,65535
2609,65535
2565,65535
2566,65535
2515,4756
2397,4519
2457,4736
2458,4720
2401,65535
2337,4432
2336,4436
2399,4478
2398,4499
2402,65535
2333,4656
2273,4691
2219,4715
2218,4727
2159,4752
2454,65535
2393,65535
2512,65535
2502,65535
2608,65535
2156,65535
2155,65535
2154,65535
2213,65535
2212,65535
2211,65535
2210,65535
2264,65535
2324,65535
2323,65535
2030,65535
2094,65535
2157,65535
2450,65535
2388,65535
2387,65535
2326,65535
2266,65535
2265,65535
2508,65535
2396,4588
2335,4606
2334,4617
2158,4777
2279,65535
2278,65535
2222,65535
2221,65535
2276,65535
2275,3804
2261,65535
2207,65535
2149,65535
2554,65535
2599,65535
2633,65535
2664,65535
2689,65535
2690,65535
2691,65535
2692,65535
2152,65535
2089,65535
2088,65535
2025,65535
2603,65535
2602,65535
2556,65535
2693,65535
2671,65535
2670,65535
2694,65535
2553,65535
2665,65535
2705,65535
2710,65535
2668,65535
2639,65535
2463,65535
2521,65535
2572,65535
2451,65535
2390,65535
2391,65535
2392,65535
2215,65535
2268,65535
2093,65535
2092,65535
2028,65535
2024,65535
2150,65535
2086,65535
2209,65535
2023,65535
2087,65535
2148,65535
2262,65535
2327,65535
1560,1523
1630,1464
1631,1538
1559,1461
1629,1450
1558,1404
1634,1544
1633,1538
1482,1545
1481,1536
1699,1517
1700,1707
1701,1661
1563,1568
2070,1695
2008,1647
2009,1644
1959,1632
1958,1658
2006,1689
1957,1670
1956,1622
2193,1762
2132,1701
1912,1691
1911,1640
1865,2237
1866,1837
2007,1677
2069,1711
2010,1653
2011,1669
1961,1648
2072,1669
1913,1777
1867,1848
1962,1673
1914,1680
1915,1723
1909,1574
1636,1633
1635,1606
1564,1583
1702,1654
1637,1637
1638,1657
1565,1663
1486,1658
1760,1724
1704,1748
1703,1653
1763,1778
1762,1698
1817,1735
1705,1677
1863,1766
1815,1805
1759,1605
863,2768
758,2861
808,2812
982,2983
1036,2990
1099,3025
1100,3053
1166,3454
1167,3949
1237,3606
1238,3641
1375,3711
1308,3780
1309,3689
1236,3907
1235,3541
1101,3084
1037,3021
971,2564
1025,2547
1026,2562
1027,2575
1089,2588
720,2824
674,2870
864,2650
865,2671
919,2566
1024,2511
975,2685
974,2655
1028,2610
873,3010
925,2956
924,2933
917,2630
918,2606
623,3045
712,2917
713,2950
667,2955
622,3013
809,2798
719,2798
765,2759
972,2596
868,2708
869,2720
815,2739
920,2975
973,2641
981,2934
926,3035
927,3043
928,3067
1354,2560
1288,2501
1218,2477
1152,2546
1023,2475
1353,2574
1085,2455
1148,2385
1147,2378
1082,2329
772,3096
771,3053
819,3028
584,2944
628,2911
629,2900
1033,2831
978,2786
1031,2759
1030,2713
1029,2696
1091,2673
1035,2912
1034,2855
979,2813
1526,3830
1449,3868
1378,3896
1448,3819
1524,3797
1038,3068
1447,3860
1768,2298
1710,2321
1767,2296
391,2379
365,2366
339,2319
400,2426
393,2350
392,2382
396,2366
399,2415
443,2431
449,2346
450,2313
419,2359
414,2472
415,2395
387,2423
388,2390
389,2377
282,2321
281,2363
314,2355
313,2336
405,1790
411,2674
442,2633
255,2334
376,2314
373,2292
278,2253
275,2311
248,2346
335,2380
334,2384
306,2348
307,2336
176,2356
225,2354
320,2287
249,2346
287,2322
285,2281
776,1697
731,1752
315,2331
316,2313
204,2336
440,2253
439,2288
166,2865
269,2782
383,2720
1247,65535
1246,65535
1384,65535
1679,65535
1178,65535
1105,4009
1172,4028
1173,4078
1242,4080
1241,4072
1314,4229
1313,4135
1171,4054
1382,4335
1243,4277
1317,4416
1107,4017
1108,4196
1109,4481
1041,4026
1043,4236
1042,4227
1044,4290
1176,65535
1174,4303
1177,65535
1110,65535
985,4072
986,4115
932,4133
774,1730
730,1732
825,1760
728,1800
729,1757
727,2403
682,1836
684,1818
685,1798
732,1781
683,2302
2134,2215
2194,2244
2068,2171
2129,2225
1905,1506
1907,1529
1906,1513
1953,1533
2002,1564
2064,1601
2125,1608
2137,2356
2196,2312
2195,2267
1859,1500
1810,1490
1755,1380
2131,1726
2192,1740
1862,1722
1861,1680
1812,1513
1860,1537
1809,1398
1756,1449
1869,2248
1822,2287
1821,2311
1916,2210
1819,1798
1764,1765
1820,2312
1698,1470
1757,1453
1566,1646
1567,1686
1488,1710
1489,1895
1412,1706
1413,1726
1414,1716
1818,1788
1568,2276
1410,1726
2128,2256
2189,2283
2066,2221
2065,2210
2067,2222
1643,2278
1571,1745
1491,1722
2004,2251
2003,1650
1697,1543
2135,2237
2075,2296
1642,2258
1955,1550
2130,2440
2005,1730
1858,1504
1816,3688
1864,3681
1766,2281
1910,1614
1868,2244
2188,2635
2127,2604
1903,1486
2001,1627
2063,2262
2062,1822
1813,1557
1758,1458
1639,2260
1640,1802
1952,1586
2126,3770
1569,1756
1965,2466
1966,2485
2014,2425
1490,1719
1917,2230
1870,2277
1871,2322
1570,1734
1707,2286
2076,2342
2013,2534
1964,2312
1487,1708
1908,1835
2251,65535
2199,65535
2198,65535
2136,2286
1641,2250
1954,2266
1765,2244
1857,1492
2187,1885
1904,1490
1856,1449
1951,1595
1708,2494
245,3999
244,3982
357,3986
246,4114
247,4143
197,4237
223,4215
44,4579
43,4639
3,4775
23,4749
22,4738
63,4521
85,4463
84,4418
108,3918
149,3872
172,4263
296,3966
294,4014
355,4114
354,4146
326,4224
295,4123
291,4135
293,4257
260,4143
356,4174
441,3774
412,3797
329,4132
300,4076
148,3846
214,4084
146,3967
110,4048
262,4109
258,4522
292,4285
257,4587
235,4107
187,4007
212,4063
211,4090
186,4011
162,3985
161,4064
165,3963
189,4163
238,4244
237,4209
263,4145
265,4164
266,4142
267,4130
268,3970
26,4739
25,4707
105,65535
62,65535
83,65535
126,4085
175,4520
152,4454
151,4444
150,4403
103,4023
242,3916
191,3870
192,3921
217,3944
218,3997
145,3907
144,3991
167,3899
190,3877
219,4014
159,4111
185,4055
158,4168
188,3999
160,4076
143,65535
122,65535
75,65535
54,65535
198,4648
270,4011
221,4052
301,4109
302,3946
330,3973
331,3995
115,4047
133,4106
139,4003
134,4080
114,4604
48,65535
69,65535
92,4280
164,4073
4,65535
107,4425
129,4510
109,3950
125,3991
124,3965
127,65535
82,65535
67,65535
91,4448
93,4247
137,4382
113,4402
112,4360
136,65535
49,65535
72,65535
71,65535
406,2246
805,2290
858,2095
859,2236
967,1972
1142,2109
1080,2115
1022,2106
1079,2124
968,2091
1206,2085
915,2242
916,2277
914,2214
807,2329
911,3436
1078,2192
1207,2184
1278,2228
1277,2231
1344,2251
1415,2292
1492,2347
1345,2308
1346,2278
1208,2176
1209,2256
1143,2293
1144,2309
1145,2324
1417,2304
1493,2364
1494,2383
1572,2398
1081,2261
970,2464
408,1884
382,2255
437,1903
467,2271
409,2310
403,2269
432,2313
433,2295
404,2283
352,2327
351,2323
349,2270
317,2562
374,2303
346,2279
283,2302
410,2304
438,2295
465,1816
490,1853
491,2225
435,1840
436,1865
379,2377
323,2497
289,2389
377,1857
378,1830
592,2306
593,2277
552,2268
445,2356
424,2403
423,2364
416,2377
361,2433
362,2409
371,2328
372,2296
343,2307
344,2324
286,2416
227,2328
252,2316
284,2292
318,2323
250,2400
312,2306
340,2292
368,2333
369,2378
370,2372
341,2313
367,2283
308,2347
276,2291
277,2271
280,2393
310,2294
338,2341
366,2427
274,2330
305,2532
420,2319
363,2412
418,2423
550,2281
579,2304
576,2249
577,2261
578,2277
520,2257
618,2271
662,2301
619,2288
620,2301
621,2295
665,2277
666,2269
664,2297
580,2316
2260,65535
2257,65535
2206,65535
2146,65535
2314,65535
2313,65535
2312,65535
2373,65535
2256,65535
2205,65535
2434,65535
2435,65535
2375,65535
2376,65535
2433,65535
2491,65535
2490,65535
2492,65535
2546,65535
2597,65535
2596,65535
2544,65535
2145,65535
2082,65535
2020,65535
2494,65535
0,65535
11,65535
1052,3028
1053,3015
941,3055
1740,2461
1796,2535
1615,2319
1681,2396
1545,2200
1797,2575
1544,2275
1741,2553
1795,2856
1617,2220
1546,2206
1616,2237
1683,2341
1467,1468
1547,1402
1465,2180
1387,2247
1388,1603
1464,2264
1462,2629
1461,2586
1542,322
1463,2654
1682,2528
1543,2396
1618,2277
1742,2654
1460,0
1248,2262
1850,1372
1801,2178
1803,1306
882,1699
881,1708
938,2298
883,1719
940,3798
1998,1516
1902,1478
1807,1386
1691,1127
1694,1272
1693,1237
1749,1218
1752,1313
1753,1364
1627,1321
1628,1334
1557,1379
1479,1423
1402,1426
1808,1375
1946,1435
1947,1466
1948,1508
1997,1512
1855,1399
1690,1105
2060,1670
1949,1714
1950,1521
1751,1252
1692,1229
1999,1529
1901,1415
1900,1456
1852,1605
1853,1484
1805,1294
1750,1170
1854,1320
1806,1288
1748,1195
2061,1724
2000,1654
1804,1306
1899,1625
2884,65535
2892,65535
2883,65535
2876,65535
2874,65535
2882,65535
2877,65535
2911,65535
2905,65535
2906,65535
2896,65535
2887,65535
2881,65535
2880,65535
2888,65535
2902,65535
2903,65535
2907,65535
2912,65535
2895,65535
2894,65535
2875,65535
2885,65535
2893,65535
2904,65535
2865,65535
2866,65535
2909,65535
2913,65535
2886,65535
2878,65535
2869,65535
2871,65535
2872,65535
2879,65535
2870,65535
1330,1475
1331,1442
1401,1438
1262,1460
1263,1448
1478,1437
1403,1455
1261,1511
1480,1547
1264,1483
1390,1526
1389,1543
1319,1555
1251,1668
1250,1737
1285,2401
1284,2406
1214,2378
1146,2344
1505,2627
1504,2561
1582,2599
1581,2527
1713,2506
1771,2488
1654,2638
1653,2611
1651,2563
2096,3742
2033,3702
1972,3673
1923,3605
1922,3583
1874,3277
1873,2990
1919,2943
1829,3954
1579,2463
1424,2504
1711,2480
1348,2304
1419,2324
1359,2731
1429,2682
1428,2668
1421,2381
1577,2415
1499,2388
1230,2975
1365,2912
1511,2834
1300,2957
1366,2929
1512,2862
1716,2696
1503,2973
1276,2258
1347,2288
1349,2336
1645,2472
1578,2450
1770,2484
1715,2539
1150,2443
1217,2457
1149,2419
1580,2509
1352,2496
1502,2527
1825,2896
1718,2851
1717,2825
1872,2929
1656,2740
1648,2515
1712,2492
1213,2368
1212,2349
1084,2390
1420,2370
1281,2294
1282,2355
1587,2734
1586,2701
1585,2690
1652,2658
1427,2836
1975,3777
1977,3845
1932,3915
1931,4540
1426,2556
1422,2398
1425,2541
1583,2627
1501,2485
1283,2396
1286,2443
1215,2428
1211,2325
1210,2299
1083,2361
1655,2729
2220,3783
1355,65535
1772,2497
1436,2880
1435,2870
1589,2803
1163,3008
1735,4128
1791,4061
1841,4038
1840,3994
1219,2560
1220,2599
1647,2501
1646,2493
1279,2246
1714,2516
1575,2475
1576,2437
1498,2445
1573,2487
1496,2505
1497,2476
2177,2762
2176,2827
2294,2887
2293,2908
2237,2868
2236,2890
2364,2738
2302,2668
2301,2649
2245,2604
2056,2477
2057,2641
2055,2472
2184,2811
2120,2734
2244,2431
2538,2939
2537,2919
2591,2956
1940,2780
1989,2764
1990,2720
2539,2962
2482,2968
2483,2937
2424,2932
2121,2913
2119,2449
2050,2859
2049,2881
2048,2943
2185,2806
2243,2444
2299,2669
2241,2669
2485,2899
2542,3011
2353,2954
2292,2930
2419,2828
2478,2836
2479,2853
2536,2880
2484,2954
2486,2847
2354,2878
2416,2970
2242,2491
2355,2845
2300,2798
1991,2803
1992,2544
2477,2879
2534,2914
2535,2870
2588,2935
2587,2950
2630,2990
2051,2626
2116,2594
2175,2878
2586,65535
2541,3082
2178,2728
2179,2699
2240,2699
2239,2770
2238,2825
2052,2670
2053,2765
1987,2848
1988,2768
1939,2774
2594,3084
2593,3056
2358,2726
2357,2769
2420,2879
2247,3061
2427,2832
2428,2890
2181,2489
2180,2541
2417,2858
2590,2935
2297,2702
2361,2926
2362,2870
2423,2905
2422,2764
2174,2971
2356,2835
1941,2802
2365,3147
2112,2899
2047,2965
2182,2501
2359,2692
2533,3211
2295,3051
2115,2637
2632,3061
2631,3000
2186,2768
2298,2529
2360,2584
2235,3661
2291,3674
2487,3070
2246,2989
2425,3126
2117,3087
2543,3097
1893,65535
2421,2972
2476,2886
2592,3071
604,2266
