middle_point_id,reach_time_minutes
2835,65535
2836,65535
2806,65535
2822,65535
2823,65535
2807,65535
2846,65535
887,1764
888,1738
1326,1474
1185,1643
999,1730
1057,1877
1552,1105
1120,1651
1473,1115
944,1878
832,1730
1257,1507
1396,1459
1622,1135
1327,1598
1184,1675
1183,1690
1324,1295
1255,1311
1394,1242
1252,1430
1253,1445
1182,1485
1328,65535
1470,1257
1321,1402
1322,1375
1323,1325
1391,1447
1551,1132
1393,1300
1472,1438
1471,1189
1181,1454
1118,1499
1059,1630
1121,1635
1469,1283
1468,1438
1548,1304
1325,1417
1625,1158
1623,1095
1258,1547
1256,1514
791,1714
891,1668
703,1747
704,1731
660,1733
1553,1107
1624,1149
1554,1130
1474,1120
1475,1173
1550,1142
1549,1251
1320,1431
1466,1374
1541,280
1318,1422
1249,1444
1186,1548
1003,1636
1002,1635
741,1722
788,1696
434,1835
697,1731
752,1755
1056,1752
1006,1648
907,1711
518,1792
1011,1562
1000,1653
1055,4022
997,3991
994,3887
996,3957
995,3941
991,2772
1112,65535
1114,4230
1051,4195
1398,1212
1395,1457
1001,1644
1811,1447
1960,1630
1769,2221
1823,2203
1329,65535
1332,1434
1259,1736
1200,1533
1199,1533
1140,1716
1141,1717
783,1739
1689,1158
1802,1340
1945,1801
2183,3358
2418,3864
1994,1835
1995,1868
2059,1537
1621,65535
1555,1296
1754,1319
1180,2303
1106,5350
933,5606
827,1868
2122,4099
2124,1634
493,1801
519,1794
544,1789
545,1792
494,1804
470,1850
543,1795
469,1845
517,1798
574,1794
573,1773
495,1836
546,1802
613,1749
612,1752
492,1803
572,1772
571,1816
570,1837
610,1784
575,1827
547,1838
516,1835
611,1761
542,1855
569,1812
609,1798
548,2390
549,2419
1404,1464
1405,1474
1266,1496
1193,1521
743,1708
742,1702
747,1728
746,1719
745,1724
744,1708
790,1717
789,1700
839,1729
838,1690
738,1747
739,1729
740,1716
890,1690
834,1718
784,1727
889,1697
856,1763
855,1740
854,1748
853,1765
852,1727
910,1732
909,1723
908,1718
964,1706
965,1724
1020,1751
966,1738
963,1690
1021,1849
1271,1531
1270,1529
1339,1540
1338,1527
1071,1563
1072,1578
1135,1560
1408,1552
1337,1519
1269,1518
1268,1514
1136,1568
1075,1629
1077,1708
1076,1684
1019,1662
1018,1653
1074,1592
1137,1584
1272,1566
1274,1657
1275,1730
1205,1772
1204,1757
1273,1667
1198,1549
1197,1546
1341,1581
1134,1554
1133,1550
1069,1534
1132,1527
1073,1583
1203,1700
1202,1665
1201,1593
1139,1708
1267,1505
1138,1616
1340,1550
1196,1518
1342,1608
1409,1564
1485,1567
1407,1553
1561,1513
1632,1498
1484,1618
1483,1510
1562,1519
1194,1536
1130,1548
1195,1514
1335,1483
1129,1534
1066,1572
1128,1639
1067,1557
1131,1547
1334,1514
1336,1498
1265,1533
1333,1439
1406,1488
857,1788
803,3082
804,6559
860,6567
969,6520
913,6507
912,6445
861,6577
806,6620
659,1737
751,1728
658,1753
705,1736
702,1744
706,1743
753,1744
614,1744
701,1735
661,1742
616,1748
848,1681
796,1721
797,1719
798,1718
750,1734
707,1773
615,1781
748,1771
845,1703
846,1686
657,1786
749,1746
795,1735
617,1791
663,1796
794,1784
847,1682
849,1710
902,1682
901,1663
900,1674
793,1754
899,1712
898,1749
897,1735
844,1760
842,1713
841,1705
956,1576
792,1733
843,1759
840,1704
850,1750
903,1665
800,1760
755,1769
756,1783
710,1813
711,1858
962,1710
961,1696
904,1680
906,1716
851,1748
802,1744
801,1777
799,1743
959,1652
1014,1601
1013,1600
708,1865
709,1839
754,1781
757,1811
1017,1763
1016,1784
960,1628
905,1716
958,1640
957,1663
1070,1574
1015,1618
1012,1596
1068,1551
1005,1674
1004,1636
1060,1619
1063,1660
1065,1592
1127,1653
1062,1670
1124,1635
1123,1604
1125,1663
1188,1593
1122,1614
1058,1636
947,1685
946,1699
949,1639
945,1729
948,1659
1190,1796
1187,1573
951,1683
895,1676
952,1654
1009,1582
1008,1611
1010,1569
1007,1642
1061,1683
954,1783
896,1700
953,1661
1126,1689
1064,1631
1189,1713
955,1591
950,1707
892,1672
786,1694
836,1690
837,1686
787,1692
700,1787
655,1833
654,1786
653,1749
698,1746
699,1735
608,1820
696,1729
656,1848
833,1726
785,1706
835,1712
693,1738
894,1724
893,1700
1343,1652
1192,1466
1191,1475
828,1858
829,1844
780,1790
830,1839
779,1841
782,1740
529,2314
886,1777
596,2331
556,2346
598,2284
597,2303
526,2352
555,2370
525,2364
524,2378
523,2388
688,1811
607,1850
650,2287
651,2233
652,2290
737,1755
694,1744
695,1736
645,1799
646,1783
690,1759
600,1808
599,1830
781,1745
736,1755
558,2310
644,1807
643,1840
648,1771
692,1749
691,1761
513,1917
541,2274
540,2314
568,2334
530,2329
831,1764
559,2321
560,2370
642,2323
557,2344
496,2402
471,2427
444,2502
446,2456
528,2321
527,2335
562,2301
602,2264
734,1806
466,2288
464,2282
463,2335
478,2454
481,2392
480,2453
479,2429
647,1773
488,1889
502,2329
689,1811
533,2311
532,2337
531,2361
601,2239
484,1932
508,2329
510,2291
509,2304
534,2338
482,2406
506,2360
606,2285
455,2518
429,2341
456,2614
457,2391
428,2403
458,2369
554,2484
594,2483
640,2307
639,2449
551,2430
681,2494
636,2482
635,2459
590,2434
778,1865
777,1872
485,1898
486,1892
462,2233
563,2316
885,1788
943,2291
564,2333
641,2301
504,2344
503,2337
501,2358
500,2397
561,2358
254,2400
350,2352
321,2361
319,2352
251,2415
375,2076
347,2311
687,1823
565,2363
539,1935
511,2334
536,2380
649,2277
603,2295
605,3070
733,1842
735,1759
489,2301
514,2298
461,2396
460,2425
459,2401
468,1842
154,2545
178,2526
203,2503
228,2467
402,2011
401,2303
505,2365
522,2411
451,2687
452,2646
477,2461
476,2402
483,2506
884,2333
431,1935
430,2304
454,2496
595,2387
395,2580
394,2606
422,2641
417,2498
390,2541
538,2356
567,2360
426,2588
397,2514
398,2544
499,2493
475,2434
497,2394
498,2431
311,2414
342,2416
345,2361
421,2656
515,1853
472,2556
448,2581
473,2607
474,2622
353,2359
381,2339
256,2481
290,2431
324,2369
380,2386
407,2314
253,2461
226,2488
201,2514
177,2551
824,2336
775,2271
826,1879
939,2287
936,2758
937,2353
880,2340
566,2394
2821,65535
2834,65535
2833,65535
2789,65535
2790,65535
2770,65535
2788,65535
2776,65535
2795,65535
2775,65535
2794,65535
2825,65535
2824,65535
2826,65535
2811,65535
2812,65535
2796,65535
2827,65535
2858,65535
2855,65535
2849,65535
2838,65535
2814,65535
2813,65535
2828,65535
2839,65535
2791,65535
2792,65535
2803,65535
2830,65535
2815,65535
2819,65535
2818,65535
2817,65535
2831,65535
2810,65535
2829,65535
2783,65535
2820,65535
2804,65535
2785,65535
2784,65535
2762,65535
2768,65535
2751,65535
2750,65535
2733,65535
2769,65535
2720,65535
2761,65535
2741,65535
2837,65535
2793,65535
2808,65535
2753,65535
2736,65535
2735,65535
2809,65535
2772,65535
2845,65535
2844,65535
2848,65535
2777,65535
2778,65535
2779,65535
2759,65535
2780,65535
2797,65535
2843,65535
2832,65535
2842,65535
2758,65535
2738,65535
2774,65535
2773,65535
2771,65535
2851,65535
2847,65535
2854,65535
2721,65535
2756,65535
2737,65535
2840,65535
2752,65535
2754,65535
2755,65535
2852,65535
2853,65535
2856,65535
2841,65535
2742,65535
2727,65535
2744,65535
2726,65535
2743,65535
2725,65535
2746,65535
2787,65535
2766,65535
2763,65535
2765,65535
2745,65535
2764,65535
2552,65535
2501,65535
2443,65535
2442,65535
2320,65535
2381,65535
2382,65535
2498,65535
2499,65535
2438,65535
2439,65535
2497,65535
2441,65535
2379,65535
2380,65535
2319,65535
2551,65535
2550,65535
2563,7077
2321,6613
2322,6582
2383,6594
2384,6800
2446,6842
2445,6849
2503,6868
2385,6833
2504,7198
2505,7220
2557,7244
2558,7269
2559,7293
2560,7257
2564,7425
2562,7145
2561,7185
2605,7200
2609,7472
2565,7548
2566,7564
2515,7575
2397,5959
2457,7605
2458,7627
2401,6036
2337,5872
2336,5876
2399,5918
2398,5939
2402,6096
2333,6096
2273,6131
2219,6155
2218,6167
2159,6192
2454,6784
2393,6750
2512,7044
2502,7036
2608,7463
2156,6314
2155,6346
2154,6375
2213,6391
2212,6403
2211,6451
2210,6492
2264,6499
2324,6533
2323,6549
2030,65535
2094,65535
2157,6278
2450,7441
2388,7490
2387,7558
2326,7595
2266,7630
2265,6974
2508,7412
2396,6028
2335,6046
2334,6057
2158,6217
2279,8186
2278,8150
2222,8119
2221,8101
2276,8083
2275,3999
2261,6806
2207,6843
2149,65535
2554,6926
2599,6958
2633,7004
2664,8691
2689,8749
2690,8855
2691,8893
2692,8926
2152,6487
2089,6566
2088,6554
2025,6699
2603,65535
2602,65535
2556,65535
2693,65535
2671,65535
2670,65535
2694,65535
2553,65535
2665,65535
2705,65535
2710,65535
2668,65535
2639,65535
2463,6106
2521,6142
2572,6165
2451,7326
2390,7295
2391,7115
2392,7078
2215,7320
2268,65535
2093,65535
2092,65535
2028,65535
2024,8377
2150,7803
2086,7851
2209,7785
2023,7953
2087,7906
2148,8119
2262,6792
2327,65535
1560,1523
1630,1464
1631,1532
1559,1461
1629,1449
1558,1404
1634,1544
1633,1508
1482,1582
1481,1536
1699,1491
1700,1504
1701,1544
1563,1568
2070,1651
2008,1647
2009,1644
1959,1632
1958,1658
2006,1690
1957,1670
1956,1622
2193,1762
2132,1701
1912,1660
1911,1640
1865,2237
1866,1837
2007,1677
2069,1661
2010,1653
2011,1669
1961,1648
2072,1669
1913,1777
1867,1848
1962,1673
1914,1680
1915,1723
1909,1574
1636,1600
1635,1603
1564,1583
1702,1561
1637,1612
1638,1657
1565,1619
1486,1628
1760,1592
1704,1662
1703,1648
1763,1778
1762,1698
1817,1735
1705,1677
1863,1653
1815,1650
1759,1506
863,2768
758,2861
808,2812
982,2983
1036,2990
1099,3025
1100,3053
1166,3454
1167,3949
1237,3606
1238,3641
1375,3711
1308,3780
1309,3689
1236,3907
1235,3541
1101,3084
1037,3021
971,2564
1025,2547
1026,2562
1027,2575
1089,2588
720,2824
674,2870
864,2650
865,2671
919,2566
1024,2511
975,2685
974,2655
1028,2610
873,3010
925,2956
924,2933
917,2630
918,2606
623,3045
712,2917
713,2950
667,2955
622,3013
809,2798
719,2798
765,2759
972,2596
868,2708
869,2720
815,2739
920,2854
973,2641
981,2934
926,3035
927,3043
928,3067
1354,2517
1288,2501
1218,2477
1152,2546
1023,2475
1353,2501
1085,2455
1148,2385
1147,2378
1082,2329
772,3096
771,3053
819,3028
584,2944
628,2911
629,2900
1033,2831
978,2786
1031,2759
1030,2713
1029,2696
1091,2673
1035,2912
1034,2855
979,2813
1526,3830
1449,3868
1378,3896
1448,3819
1524,3797
1038,3068
1447,3860
1768,2200
1710,2262
1767,2188
391,2528
365,2482
339,2465
400,2426
393,2652
392,2630
396,2558
399,2444
443,2616
449,2639
450,2718
419,2563
414,2551
415,2513
387,2603
388,2572
389,2534
282,2460
281,2480
314,2552
313,2540
405,1855
411,2674
442,2633
255,2410
376,2314
373,2333
278,2425
275,2494
248,2542
335,2627
334,2601
306,2546
307,2534
176,2536
225,2474
320,2369
249,2532
287,2372
285,2396
776,1882
731,1939
315,2449
316,2430
204,2544
440,2253
439,2288
166,2865
269,2782
383,2720
1247,65535
1246,65535
1384,65535
1679,65535
1178,5568
1105,5366
1172,5373
1173,5384
1242,5421
1241,5450
1314,5669
1313,5575
1171,5433
1382,5775
1243,5466
1317,5856
1107,5411
1108,5419
1109,5476
1041,5380
1043,5676
1042,5667
1044,5730
1176,5469
1174,8623
1177,5521
1110,5529
985,5512
986,5555
932,5573
774,2330
730,2227
825,1935
728,2319
729,2261
727,2499
682,2316
684,2298
685,2218
732,2280
683,2302
2134,2215
2194,2244
2068,1705
2129,1759
1905,1506
1907,1523
1906,1513
1953,1533
2002,1564
2064,1601
2125,1608
2137,2356
2196,2312
2195,2267
1859,1490
1810,1490
1755,1380
2131,1726
2192,1740
1862,1722
1861,1568
1812,1513
1860,1537
1809,1398
1756,1449
1869,2248
1822,2230
1821,2247
1916,2210
1819,1798
1764,1765
1820,1873
1698,1470
1757,1453
1566,1646
1567,1660
1488,1633
1489,1666
1412,1647
1413,1659
1414,1685
1818,1788
1568,2276
1410,1561
2128,1789
2189,1816
2066,1742
2065,1766
2067,1756
1643,2278
1571,1745
1491,1722
2004,1731
2003,1612
1697,1501
2135,2237
2075,2296
1642,2258
1955,1550
2130,1788
2005,1730
1858,1504
1816,8008
1864,8001
1766,1885
1910,1614
1868,2239
2188,2635
2127,2604
1903,1486
2001,1575
2063,2262
2062,1822
1813,1557
1758,1458
1639,1845
1640,1802
1952,1586
2126,8090
1569,1756
1965,2466
1966,2485
2014,2425
1490,1719
1917,2230
1870,2267
1871,2281
1570,1734
1707,2286
2076,2342
2013,2534
1964,2312
1487,1614
1908,1835
2251,3201
2199,3145
2198,3008
2136,2286
1641,2250
1954,2266
1765,1848
1857,1520
2187,1885
1904,1490
1856,1449
1951,1595
1708,2494
245,8319
244,8302
357,8306
246,8434
247,8463
197,8557
223,8535
44,8899
43,8959
3,9095
23,9069
22,9058
63,8841
85,8783
84,8738
108,8238
149,8192
172,8583
296,8286
294,8334
355,8434
354,8466
326,8544
295,8443
291,8455
293,8577
260,8463
356,8494
441,8094
412,8117
329,8452
300,8396
148,8166
214,8404
146,8287
110,8368
262,8429
258,8842
292,8605
257,8907
235,8427
187,8327
212,8383
211,8410
186,8331
162,8305
161,8384
165,8283
189,8483
238,8564
237,8529
263,8465
265,8484
266,8462
267,8450
268,8290
26,9059
25,9027
105,65535
62,65535
83,65535
126,8405
175,8840
152,8774
151,8764
150,8723
103,8343
242,8236
191,8190
192,8241
217,8264
218,8317
145,8227
144,8311
167,8219
190,8197
219,8334
159,8431
185,8375
158,8488
188,8319
160,8396
143,65535
122,65535
75,65535
54,65535
198,8968
270,8331
221,8372
301,8429
302,8266
330,8293
331,8315
115,8367
133,8426
139,8323
134,8400
114,8924
48,65535
69,65535
92,8600
164,8393
4,65535
107,8745
129,8830
109,8270
125,8311
124,8285
127,65535
82,65535
67,65535
91,8768
93,8567
137,8702
113,8722
112,8680
136,65535
49,65535
72,65535
71,65535
406,2385
805,6610
858,6415
859,6556
967,2034
1142,2169
1080,6255
1022,6296
1079,6288
968,6411
1206,2126
915,6562
916,6597
914,6534
807,6649
911,7756
1078,6512
1207,2184
1278,2228
1277,2231
1344,2251
1415,2292
1492,2347
1345,2308
1346,2278
1208,2176
1209,2256
1143,2293
1144,2309
1145,2324
1417,2304
1493,2364
1494,2383
1572,2398
1081,6581
970,6784
408,2333
382,2361
437,2309
467,2320
409,2314
403,2269
432,2313
433,2294
404,2283
352,2386
351,2365
349,2326
317,2562
374,2303
346,2394
283,2432
410,2306
438,2323
465,2292
490,2299
491,2257
435,2316
436,2334
379,2436
323,2507
289,2537
377,2347
378,2320
592,2467
593,2505
552,2412
445,2477
424,2582
423,2626
416,2569
361,2599
362,2547
371,2491
372,2463
343,2385
344,2376
286,2763
227,2461
252,2454
284,2407
318,2389
250,2636
312,2420
340,2462
368,2501
369,2573
370,2682
341,2521
367,2512
308,2736
276,2474
277,2455
280,2448
310,2443
338,2490
366,2502
274,2556
305,2853
420,2625
363,2591
418,2655
550,6601
579,6624
576,6569
577,6581
578,6597
520,6577
618,6591
662,6621
619,6608
620,6621
621,6615
665,6597
666,6589
664,6617
580,6636
2260,65535
2257,65535
2206,65535
2146,65535
2314,65535
2313,65535
2312,65535
2373,65535
2256,65535
2205,65535
2434,65535
2435,65535
2375,65535
2376,65535
2433,65535
2491,65535
2490,65535
2492,65535
2546,65535
2597,65535
2596,65535
2544,65535
2145,65535
2082,65535
2020,65535
2494,65535
0,65535
11,65535
1052,3988
1053,3975
941,3965
1740,1591
1796,1617
1615,1456
1681,1517
1545,1387
1797,1654
1544,1395
1741,1649
1795,1690
1617,1441
1546,1428
1616,1451
1683,1484
1467,1420
1547,1402
1465,1330
1387,1280
1388,1354
1464,1267
1462,0
1461,160
1542,224
1463,1214
1682,1592
1543,1503
1618,1455
1742,1675
1460,326
1248,1541
1850,1354
1801,1353
1803,1306
882,1879
881,1919
938,2298
883,2264
940,6678
1998,1516
1902,1478
1807,1386
1691,1127
1694,1272
1693,1237
1749,1218
1752,1313
1753,1364
1627,1321
1628,1334
1557,1379
1479,1423
1402,1426
1808,1375
1946,1435
1947,1466
1948,1508
1997,1512
1855,1399
1690,1105
2060,1670
1949,1714
1950,1521
1751,1252
1692,1229
1999,1529
1901,1415
1900,1456
1852,1605
1853,1484
1805,1294
1750,1170
1854,1320
1806,1288
1748,1195
2061,1724
2000,1654
1804,1306
1899,1625
2884,65535
2892,65535
2883,65535
2876,65535
2874,65535
2882,65535
2877,65535
2911,65535
2905,65535
2906,65535
2896,65535
2887,65535
2881,65535
2880,65535
2888,65535
2902,65535
2903,65535
2907,65535
2912,65535
2895,65535
2894,65535
2875,65535
2885,65535
2893,65535
2904,65535
2865,65535
2866,65535
2909,65535
2913,65535
2886,65535
2878,65535
2869,65535
2871,65535
2872,65535
2879,65535
2870,65535
1330,1475
1331,1442
1401,1438
1262,1460
1263,1448
1478,1439
1403,1455
1261,1511
1480,1487
1264,1483
1390,1426
1389,1409
1319,1414
1251,1520
1250,1487
1285,2420
1284,2406
1214,2378
1146,2342
1505,2627
1504,2561
1582,2599
1581,2527
1713,2506
1771,2488
1654,2638
1653,2611
1651,2563
2096,3742
2033,3702
1972,3673
1923,3605
1922,3583
1874,3277
1873,2990
1919,2943
1829,5654
1579,2463
1424,2467
1711,2480
1348,2304
1419,2324
1359,2731
1429,2682
1428,2668
1421,2381
1577,2415
1499,2388
1230,2975
1365,2912
1511,2834
1300,2957
1366,2929
1512,2862
1716,2696
1503,2749
1276,2258
1347,2288
1349,2336
1645,2472
1578,2450
1770,2484
1715,2539
1150,2443
1217,2457
1149,2419
1580,2509
1352,2496
1502,2527
1825,2896
1718,2851
1717,2825
1872,2929
1656,2740
1648,2515
1712,2492
1213,2368
1212,2349
1084,2390
1420,2370
1281,2294
1282,2355
1587,2734
1586,2701
1585,2690
1652,2658
1427,2836
1975,3777
1977,3845
1932,3915
1931,4540
1426,2556
1422,2398
1425,2541
1583,2627
1501,2485
1283,2396
1286,2443
1215,2428
1211,2325
1210,2299
1083,2361
1655,2729
2220,3977
1355,5411
1772,2497
1436,2880
1435,2870
1589,2803
1163,3008
1735,4128
1791,4061
1841,4038
1840,3994
1219,2560
1220,2599
1647,2501
1646,2493
1279,2246
1714,2516
1575,2475
1576,2437
1498,2445
1573,2487
1496,2505
1497,2476
2177,3925
2176,3995
2294,3964
2293,4040
2237,3972
2236,4001
2364,3773
2302,3713
2301,3635
2245,3537
2056,3843
2057,3887
2055,3646
2184,3698
2120,3704
2244,3618
2538,4068
2537,4030
2591,4055
1940,3830
1989,3838
1990,3774
2539,4046
2482,4146
2483,3911
2424,3807
2121,3765
2119,3578
2050,3903
2049,3965
2048,4383
2185,3731
2243,3457
2299,3671
2241,3620
2485,3989
2542,4044
2353,4003
2292,3910
2419,3823
2478,3884
2479,3901
2536,3987
2484,3950
2486,3943
2354,3898
2416,4019
2242,3665
2355,3892
2300,3678
1991,3778
1992,3785
2477,3876
2534,3886
2535,3986
2588,3923
2587,3938
2630,3958
2051,3699
2116,3593
2175,4093
2586,65535
2541,4180
2178,3900
2179,3703
2240,3650
2239,3874
2238,3944
2052,3830
2053,3796
1987,4070
1988,4107
1939,4020
2594,4152
2593,4124
2358,3780
2357,3787
2420,3830
2247,3826
2427,3916
2428,3938
2181,3497
2180,3546
2417,3878
2590,4036
2297,3659
2361,3851
2362,3734
2423,3822
2422,3787
2174,4258
2356,3917
1941,3819
2365,3950
2112,4263
2047,4405
2182,3636
2359,3713
2533,4651
2295,3976
2115,3666
2632,4096
2631,4035
2186,3899
2298,3745
2360,3769
2235,4221
2291,4234
2487,4165
2246,3758
2425,4566
2117,3890
2543,4118
1893,65535
2421,3922
2476,3932
2592,4202
604,6586
