middle_point_id,reach_time_minutes
2835,65535
2836,65535
2806,65535
2822,65535
2823,65535
2807,65535
2846,65535
887,386
888,376
1326,815
1185,249
999,528
1057,470
1552,885
1120,244
1473,910
944,438
832,395
1257,775
1396,919
1622,955
1327,3784
1184,234
1183,227
1324,780
1255,951
1394,282
1252,94
1253,125
1182,165
1328,65535
1470,180
1321,80
1322,133
1323,365
1391,85
1551,862
1393,340
1472,976
1471,231
1181,434
1118,298
1059,289
1121,278
1469,380
1468,62
1548,124
1325,871
1625,951
1623,912
1258,397
1256,851
791,402
891,330
703,495
704,505
660,501
1553,888
1624,944
1554,954
1474,923
1475,947
1550,223
1549,150
1320,75
1466,0
1541,2515
1318,90
1249,112
1186,296
1003,296
1002,291
741,402
788,386
434,986
697,439
752,519
1056,511
1006,363
907,725
518,831
1011,810
1000,333
1055,1502
997,1382
994,1288
996,1376
995,1363
991,1332
1112,65535
1114,1334
1051,1315
1398,1692
1395,930
1001,308
1811,1226
1960,1596
1769,1184
1823,1203
1329,65535
1332,942
1259,955
1200,835
1199,832
1140,1044
1141,1042
783,394
1689,992
1802,1100
1945,1436
2183,1918
2418,2367
1994,1472
1995,1868
2059,1297
1621,65535
1555,996
1754,1180
1180,863
1106,2470
933,2726
827,810
2122,1723
2124,1499
493,870
519,835
544,829
545,833
494,852
470,892
543,870
469,934
517,848
574,925
573,813
495,896
546,852
613,507
612,513
492,856
572,859
571,903
570,884
610,780
575,956
547,878
516,1002
611,834
542,947
569,860
609,833
548,2229
549,2264
1404,924
1405,885
1266,795
1193,827
743,452
742,372
747,439
746,437
745,428
744,409
790,399
789,389
839,411
838,359
738,399
739,398
740,394
890,326
834,391
784,383
889,357
856,867
855,840
854,848
853,756
852,747
910,799
909,770
908,765
964,742
965,818
1020,974
966,801
963,726
1021,1009
1271,837
1270,840
1339,847
1338,867
1071,783
1072,798
1135,830
1408,883
1337,859
1269,855
1268,854
1136,878
1075,935
1077,1038
1076,1004
1019,1001
1018,915
1074,872
1137,924
1272,850
1274,937
1275,950
1205,1013
1204,1019
1273,947
1198,794
1197,741
1341,882
1134,773
1133,729
1069,725
1132,693
1073,830
1203,980
1202,945
1201,918
1139,988
1267,828
1138,955
1340,852
1196,731
1342,916
1409,896
1485,921
1407,975
1561,1029
1632,1052
1484,958
1483,998
1562,1005
1194,618
1130,586
1195,752
1335,817
1129,485
1066,466
1128,431
1067,775
1131,675
1334,964
1336,914
1265,935
1333,939
1406,943
857,948
803,982
804,2239
860,2247
969,2200
913,2187
912,2125
861,2257
806,2300
659,496
751,509
658,486
705,508
702,483
706,513
753,567
614,522
701,452
661,517
616,525
848,626
796,517
797,555
798,616
750,518
707,517
615,941
748,523
845,506
846,872
657,492
749,533
795,578
617,912
663,566
794,944
847,648
849,643
902,682
901,794
900,559
793,448
899,511
898,487
897,455
844,474
842,418
841,408
956,850
792,418
843,454
840,418
850,673
903,630
800,679
755,893
756,910
710,973
711,1018
962,753
961,746
904,636
906,715
851,710
802,898
801,737
799,652
959,867
1014,801
1013,830
708,1794
709,1822
754,639
757,971
1017,903
1016,898
960,694
905,936
958,855
957,978
1070,782
1015,825
1012,765
1068,768
1005,320
1004,304
1060,292
1063,367
1065,425
1127,398
1062,352
1124,326
1123,312
1125,343
1188,351
1122,286
1058,282
947,303
946,317
949,326
945,335
948,337
1190,356
1187,314
951,360
895,416
952,402
1009,453
1008,401
1010,819
1007,373
1061,373
954,878
896,449
953,436
1126,375
1064,398
1189,352
955,858
950,338
892,335
786,374
836,360
837,351
787,357
700,467
655,517
654,470
653,462
698,427
699,453
608,873
696,402
656,530
833,392
785,375
835,343
693,419
894,364
893,347
1343,933
1192,981
1191,995
828,565
829,534
780,872
830,859
779,521
782,417
529,1042
886,438
596,1010
556,1057
598,550
597,984
526,1113
555,1109
525,1149
524,1226
523,1127
688,490
607,940
650,1029
651,910
652,924
737,405
694,464
695,412
645,465
646,439
690,422
600,470
599,480
781,411
736,410
558,1002
644,515
643,513
648,820
692,419
691,417
513,922
541,1017
540,1012
568,894
530,1069
831,444
559,1001
560,959
642,1095
557,1051
496,1159
471,1212
444,1285
446,1230
528,1046
527,1076
562,943
602,907
734,508
466,951
464,954
463,976
478,1219
481,1072
480,1146
479,1160
647,421
488,947
502,1099
689,441
533,990
532,1017
531,1041
601,921
484,1101
508,1067
510,970
509,1041
534,1063
482,1107
506,1040
606,1001
455,1271
429,1176
456,1405
457,1244
428,1167
458,1121
554,1148
594,1043
640,994
639,1009
551,1098
681,1085
636,1106
635,1157
590,1150
778,595
777,795
485,1084
486,1003
462,1023
563,1089
885,501
943,968
564,893
641,1014
504,1121
503,1139
501,1277
500,1344
561,1050
254,1105
350,1053
321,1175
319,1098
251,1138
375,1086
347,1270
687,518
565,919
539,980
511,992
536,941
649,837
603,853
605,1406
733,552
735,436
489,1107
514,999
461,1090
460,1101
459,1121
468,971
154,1298
178,1260
203,1231
228,1150
402,1095
401,1129
505,1046
522,1115
451,1398
452,1348
477,1231
476,1300
483,1244
884,893
431,1052
430,1123
454,1240
595,1110
395,1259
394,1286
422,1452
417,1266
390,1278
538,999
567,1113
426,1216
397,1197
398,1162
499,1313
475,1362
497,1230
498,1247
311,1156
342,1163
345,1120
421,1338
515,1267
472,1587
448,1548
473,1501
474,1379
353,1128
381,1076
256,1196
290,1171
324,1138
380,1134
407,1114
253,1143
226,1168
201,1181
177,1244
824,956
775,897
826,829
939,907
936,1318
937,973
880,900
566,974
2821,65535
2834,65535
2833,65535
2789,65535
2790,65535
2770,65535
2788,65535
2776,65535
2795,65535
2775,65535
2794,65535
2825,65535
2824,65535
2826,65535
2811,65535
2812,65535
2796,65535
2827,65535
2858,65535
2855,65535
2849,65535
2838,65535
2814,65535
2813,65535
2828,65535
2839,65535
2791,65535
2792,65535
2803,65535
2830,65535
2815,65535
2819,65535
2818,65535
2817,65535
2831,65535
2810,65535
2829,65535
2783,65535
2820,65535
2804,65535
2785,65535
2784,65535
2762,65535
2768,65535
2751,65535
2750,65535
2733,65535
2769,65535
2720,65535
2761,65535
2741,65535
2837,65535
2793,65535
2808,65535
2753,65535
2736,65535
2735,65535
2809,65535
2772,65535
2845,65535
2844,65535
2848,65535
2777,65535
2778,65535
2779,65535
2759,65535
2780,65535
2797,65535
2843,65535
2832,65535
2842,65535
2758,65535
2738,65535
2774,65535
2773,65535
2771,65535
2851,65535
2847,65535
2854,65535
2721,65535
2756,65535
2737,65535
2840,65535
2752,65535
2754,65535
2755,65535
2852,65535
2853,65535
2856,65535
2841,65535
2742,65535
2727,65535
2744,65535
2726,65535
2743,65535
2725,65535
2746,65535
2787,65535
2766,65535
2763,65535
2765,65535
2745,65535
2764,65535
2552,65535
2501,65535
2443,65535
2442,65535
2320,65535
2381,65535
2382,65535
2498,65535
2499,65535
2438,65535
2439,65535
2497,65535
2441,65535
2379,65535
2380,65535
2319,65535
2551,65535
2550,65535
2563,65535
2321,65535
2322,65535
2383,65535
2384,65535
2446,65535
2445,65535
2503,65535
2385,65535
2504,65535
2505,65535
2557,65535
2558,65535
2559,65535
2560,65535
2564,65535
2562,65535
2561,65535
2605,65535
2609,65535
2565,65535
2566,65535
2515,4756
2397,4519
2457,4736
2458,4720
2401,65535
2337,4432
2336,4436
2399,4478
2398,4499
2402,65535
2333,4656
2273,4691
2219,4715
2218,4727
2159,4752
2454,65535
2393,65535
2512,65535
2502,65535
2608,65535
2156,65535
2155,65535
2154,65535
2213,65535
2212,65535
2211,65535
2210,65535
2264,65535
2324,65535
2323,65535
2030,65535
2094,65535
2157,65535
2450,65535
2388,65535
2387,65535
2326,65535
2266,65535
2265,65535
2508,65535
2396,4588
2335,4606
2334,4617
2158,4777
2279,65535
2278,65535
2222,65535
2221,65535
2276,65535
2275,3804
2261,65535
2207,65535
2149,65535
2554,65535
2599,65535
2633,65535
2664,65535
2689,65535
2690,65535
2691,65535
2692,65535
2152,65535
2089,65535
2088,65535
2025,65535
2603,65535
2602,65535
2556,65535
2693,65535
2671,65535
2670,65535
2694,65535
2553,65535
2665,65535
2705,65535
2710,65535
2668,65535
2639,65535
2463,65535
2521,65535
2572,65535
2451,65535
2390,65535
2391,65535
2392,65535
2215,65535
2268,65535
2093,65535
2092,65535
2028,65535
2024,65535
2150,65535
2086,65535
2209,65535
2023,65535
2087,65535
2148,65535
2262,65535
2327,65535
1560,1028
1630,1034
1631,1047
1559,1032
1629,1078
1558,993
1634,1058
1633,1053
1482,982
1481,1021
1699,1095
1700,1071
1701,1154
1563,987
2070,1618
2008,1614
2009,1614
1959,1602
1958,1601
2006,1584
1957,1567
1956,1464
2193,1651
2132,1701
1912,1608
1911,1614
1865,1444
1866,1527
2007,1648
2069,1654
2010,1626
2011,1669
1961,1573
2072,1669
1913,1586
1867,1579
1962,1564
1914,1539
1915,1504
1909,1574
1636,1052
1635,1120
1564,1097
1702,1114
1637,1044
1638,1042
1565,1023
1486,932
1760,1363
1704,1076
1703,1062
1763,1142
1762,1168
1817,1207
1705,1102
1863,1444
1815,1411
1759,1366
863,2768
758,2861
808,2812
982,2983
1036,2990
1099,3025
1100,3053
1166,3454
1167,3949
1237,3606
1238,3641
1375,3711
1308,3780
1309,3689
1236,3907
1235,3541
1101,3084
1037,3021
971,2564
1025,2547
1026,2562
1027,2575
1089,2588
720,2824
674,2870
864,2650
865,2671
919,2566
1024,2511
975,2685
974,2655
1028,2610
873,3010
925,2956
924,2933
917,2630
918,2606
623,3045
712,2917
713,2950
667,2955
622,3013
809,2798
719,2798
765,2759
972,2596
868,2708
869,2720
815,2739
920,2975
973,2641
981,2934
926,3035
927,3043
928,3067
1354,2560
1288,2501
1218,2477
1152,2546
1023,2475
1353,2574
1085,2455
1148,2385
1147,2378
1082,2329
772,3096
771,3053
819,3028
584,2944
628,2911
629,2900
1033,2831
978,2786
1031,2759
1030,2713
1029,2696
1091,2673
1035,2912
1034,2855
979,2813
1526,3830
1449,3868
1378,3896
1448,3819
1524,3797
1038,3068
1447,3860
1768,1190
1710,1148
1767,1163
391,1262
365,1224
339,1212
400,1123
393,1334
392,1310
396,1220
399,1242
443,1350
449,1422
450,1398
419,1293
414,1480
415,1351
387,1344
388,1312
389,1297
282,1234
281,1225
314,1201
313,1182
405,1015
411,1494
442,1453
255,1198
376,1243
373,1258
278,1165
275,1288
248,1335
335,1399
334,1373
306,1345
307,1322
176,1228
225,1184
320,1182
249,1275
287,1156
285,1195
776,846
731,859
315,1181
316,1163
204,1264
440,1043
439,1002
166,2865
269,2782
383,2720
1247,65535
1246,65535
1384,65535
1679,65535
1178,3903
1105,2512
1172,2528
1173,2504
1242,3092
1241,2570
1314,3127
1313,3154
1171,2553
1382,4335
1243,2586
1317,4416
1107,2755
1108,3054
1109,3108
1041,2563
1043,3818
1042,3739
1044,4290
1176,3804
1174,4303
1177,3852
1110,3859
985,2632
986,2675
932,2693
774,950
730,873
825,905
728,926
729,896
727,1059
682,941
684,978
685,898
732,941
683,2302
2134,1646
2194,1657
2068,1681
2129,1685
1905,1309
1907,1404
1906,1365
1953,1345
2002,1386
2064,1433
2125,1463
2137,1827
2196,1780
2195,1737
1859,1291
1810,1281
1755,1347
2131,1652
2192,1690
1862,1474
1861,1393
1812,1364
1860,1425
1809,1218
1756,1164
1869,1336
1822,1205
1821,1221
1916,1303
1819,1206
1764,1181
1820,1361
1698,1101
1757,1152
1566,1005
1567,978
1488,953
1489,1016
1412,927
1413,961
1414,990
1818,1258
1568,1074
1410,889
2128,1676
2189,1721
2066,1539
2065,1523
2067,1638
1643,1108
1571,1058
1491,1022
2004,1501
2003,1459
1697,1205
2135,1598
2075,1445
1642,1084
1955,1442
2130,1788
2005,1526
1858,1295
1816,3688
1864,3681
1766,1157
1910,1614
1868,1439
2188,1801
2127,1771
1903,1379
2001,1469
2063,2262
2062,1430
1813,1376
1758,1314
1639,1048
1640,1090
1952,1388
2126,3770
1569,1084
1965,1432
1966,1478
2014,1549
1490,980
1917,1261
1870,1250
1871,1264
1570,1043
1707,1098
2076,1479
2013,1400
1964,1354
1487,910
1908,1835
2251,65535
2199,65535
2198,65535
2136,1585
1641,1105
1954,1523
1765,1257
1857,1342
2187,1885
1904,1357
1856,1365
1951,1355
1708,1308
245,3999
244,3982
357,3986
246,4114
247,4143
197,4237
223,4215
44,4579
43,4639
3,4775
23,4749
22,4738
63,4521
85,4463
84,4418
108,3918
149,3872
172,4263
296,3966
294,4014
355,4114
354,4146
326,4224
295,4123
291,4135
293,4257
260,4143
356,4174
441,3774
412,3797
329,4132
300,4076
148,3846
214,4084
146,3967
110,4048
262,4109
258,4522
292,4285
257,4587
235,4107
187,4007
212,4063
211,4090
186,4011
162,3985
161,4064
165,3963
189,4163
238,4244
237,4209
263,4145
265,4164
266,4142
267,4130
268,3970
26,4739
25,4707
105,65535
62,65535
83,65535
126,4085
175,4520
152,4454
151,4444
150,4403
103,4023
242,3916
191,3870
192,3921
217,3944
218,3997
145,3907
144,3991
167,3899
190,3877
219,4014
159,4111
185,4055
158,4168
188,3999
160,4076
143,65535
122,65535
75,65535
54,65535
198,4648
270,4011
221,4052
301,4109
302,3946
330,3973
331,3995
115,4047
133,4106
139,4003
134,4080
114,4604
48,65535
69,65535
92,4280
164,4073
4,65535
107,4425
129,4510
109,3950
125,3991
124,3965
127,65535
82,65535
67,65535
91,4448
93,4247
137,4382
113,4402
112,4360
136,65535
49,65535
72,65535
71,65535
406,1228
805,2290
858,2095
859,2236
967,1972
1142,2109
1080,2115
1022,2106
1079,2124
968,2091
1206,2085
915,2242
916,2277
914,2214
807,2329
911,3436
1078,2192
1207,2184
1278,2228
1277,2231
1344,2251
1415,2292
1492,2347
1345,2308
1346,2278
1208,2176
1209,2256
1143,2293
1144,2309
1145,2324
1417,2304
1493,2364
1494,2383
1572,2398
1081,2261
970,2464
408,1100
382,1099
437,988
467,1017
409,1084
403,1129
432,1123
433,1134
404,1036
352,1162
351,1142
349,1137
317,1329
374,1228
346,1247
283,1242
410,1046
438,1062
465,972
490,1011
491,1106
435,1055
436,1000
379,1595
323,1321
289,1352
377,1069
378,1091
592,1136
593,1107
552,1149
445,1277
424,1331
423,1313
416,2377
361,1412
362,1347
371,1342
372,1326
343,1516
344,1556
286,1435
227,1143
252,1166
284,1188
318,1190
250,1192
312,1243
340,1213
368,1242
369,1233
370,1242
341,1237
367,1260
308,1315
276,1308
277,1288
280,1278
310,1187
338,1233
366,1277
274,1349
305,1413
420,1329
363,1393
418,1336
550,2281
579,2304
576,2249
577,2261
578,2277
520,2257
618,2271
662,2301
619,2288
620,2301
621,2295
665,2277
666,2269
664,2297
580,2316
2260,65535
2257,65535
2206,65535
2146,65535
2314,65535
2313,65535
2312,65535
2373,65535
2256,65535
2205,65535
2434,65535
2435,65535
2375,65535
2376,65535
2433,65535
2491,65535
2490,65535
2492,65535
2546,65535
2597,65535
2596,65535
2544,65535
2145,65535
2082,65535
2020,65535
2494,65535
0,65535
11,65535
1052,1468
1053,1455
941,1440
1740,226
1796,266
1615,106
1681,163
1545,7
1797,329
1544,52
1741,261
1795,2162
1617,81
1546,74
1616,11
1683,44
1467,53
1547,86
1465,6
1387,77
1388,63
1464,76
1462,3019
1461,3040
1542,2931
1463,2983
1682,226
1543,63
1618,112
1742,2260
1460,2730
1248,101
1850,1132
1801,2178
1803,1066
882,859
881,868
938,919
883,896
940,2358
1998,1276
1902,1313
1807,1206
1691,947
1694,1093
1693,1012
1749,978
1752,1167
1753,1124
1627,1070
1628,1041
1557,1019
1479,971
1402,941
1808,1195
1946,1195
1947,1226
1948,1268
1997,1272
1855,1255
1690,926
2060,1375
1949,1407
1950,1334
1751,1132
1692,1001
1999,1336
1901,1415
1900,1456
1852,1605
1853,1484
1805,1226
1750,1050
1854,1250
1806,1168
1748,1027
2061,1416
2000,1414
1804,1306
1899,1625
2884,65535
2892,65535
2883,65535
2876,65535
2874,65535
2882,65535
2877,65535
2911,65535
2905,65535
2906,65535
2896,65535
2887,65535
2881,65535
2880,65535
2888,65535
2902,65535
2903,65535
2907,65535
2912,65535
2895,65535
2894,65535
2875,65535
2885,65535
2893,65535
2904,65535
2865,65535
2866,65535
2909,65535
2913,65535
2886,65535
2878,65535
2869,65535
2871,65535
2872,65535
2879,65535
2870,65535
1330,995
1331,955
1401,946
1262,957
1263,949
1478,957
1403,936
1261,966
1480,947
1264,1006
1390,46
1389,38
1319,70
1251,228
1250,297
1285,2401
1284,2406
1214,2378
1146,2344
1505,2627
1504,2561
1582,2599
1581,2527
1713,2506
1771,2488
1654,2638
1653,2611
1651,2563
2096,3742
2033,3702
1972,3673
1923,3605
1922,3583
1874,3277
1873,2990
1919,2943
1829,3954
1579,2463
1424,2504
1711,2480
1348,2304
1419,2324
1359,2731
1429,2682
1428,2668
1421,2381
1577,2415
1499,2388
1230,2975
1365,2912
1511,2834
1300,2957
1366,2929
1512,2862
1716,2696
1503,2973
1276,2258
1347,2288
1349,2336
1645,2472
1578,2450
1770,2484
1715,2539
1150,2443
1217,2457
1149,2419
1580,2509
1352,2496
1502,2527
1825,2896
1718,2851
1717,2825
1872,2929
1656,2740
1648,2515
1712,2492
1213,2368
1212,2349
1084,2390
1420,2370
1281,2294
1282,2355
1587,2734
1586,2701
1585,2690
1652,2658
1427,2836
1975,3777
1977,3845
1932,3915
1931,4540
1426,2556
1422,2398
1425,2541
1583,2627
1501,2485
1283,2396
1286,2443
1215,2428
1211,2325
1210,2299
1083,2361
1655,2729
2220,3783
1355,65535
1772,2497
1436,2880
1435,2870
1589,2803
1163,3008
1735,4128
1791,4061
1841,4038
1840,3994
1219,2560
1220,2599
1647,2501
1646,2493
1279,2246
1714,2516
1575,2475
1576,2437
1498,2445
1573,2487
1496,2505
1497,2476
2177,2485
2176,2555
2294,2472
2293,2591
2237,2532
2236,2561
2364,2333
2302,2273
2301,2195
2245,2097
2056,2227
2057,2313
2055,2206
2184,2258
2120,2264
2244,2178
2538,2518
2537,2499
2591,2615
1940,2390
1989,2398
1990,2334
2539,2518
2482,2509
2483,2471
2424,2367
2121,2325
2119,2138
2050,2447
2049,2525
2048,2943
2185,2291
2243,2017
2299,2231
2241,2180
2485,2549
2542,2604
2353,2563
2292,2470
2419,2357
2478,2404
2479,2439
2536,2466
2484,2510
2486,2503
2354,2402
2416,2579
2242,2225
2355,2440
2300,2238
1991,2338
1992,2345
2477,2395
2534,2416
2535,2531
2588,2436
2587,2450
2630,2501
2051,2259
2116,2153
2175,2588
2586,65535
2541,2671
2178,2460
2179,2263
2240,2210
2239,2434
2238,2504
2052,2390
2053,2356
1987,2630
1988,2478
1939,2502
2594,2621
2593,2606
2358,2324
2357,2334
2420,2390
2247,2386
2427,2476
2428,2498
2181,2057
2180,2106
2417,2384
2590,2596
2297,2219
2361,2411
2362,2294
2423,2382
2422,2347
2174,2818
2356,2445
1941,2379
2365,2510
2112,2823
2047,2965
2182,2196
2359,2273
2533,3211
2295,2536
2115,2226
2632,2656
2631,2595
2186,1756
2298,2305
2360,2329
2235,2781
2291,2794
2487,2725
2246,2318
2425,3126
2117,2450
2543,2678
1893,65535
2421,2482
2476,2400
2592,2654
604,2266
