middle_point_id,reach_time_minutes
2835,65535
2836,65535
2806,65535
2822,65535
2823,65535
2807,65535
2846,65535
887,804
888,809
1326,335
1185,418
999,648
1057,590
1552,131
1120,478
1473,219
944,727
832,800
1257,383
1396,259
1622,175
1327,424
1184,454
1183,459
1324,215
1255,293
1394,162
1252,323
1253,365
1182,802
1328,65535
1470,60
1321,270
1322,373
1323,245
1391,246
1551,125
1393,204
1472,178
1471,109
1181,1454
1118,839
1059,465
1121,448
1469,165
1468,223
1548,119
1325,445
1625,168
1623,142
1258,447
1256,851
791,818
891,505
703,869
704,882
660,878
1553,138
1624,164
1554,172
1474,160
1475,213
1550,101
1549,0
1320,290
1466,287
1541,1720
1318,305
1249,326
1186,408
1003,479
1002,467
741,788
788,785
434,980
697,847
752,910
1056,631
1006,561
907,1041
518,935
1011,983
1000,513
1055,1622
997,1591
994,1485
996,1557
995,1541
991,1332
1112,3965
1114,1572
1051,1535
1398,252
1395,270
1001,488
1811,759
1960,1004
1769,1250
1823,1247
1329,65535
1332,397
1259,1736
1200,875
1199,875
1140,999
1141,1012
783,810
1689,209
1802,260
1945,1436
2183,1918
2418,2367
1994,1472
1995,1868
2059,997
1621,65535
1555,216
1754,571
1180,863
1106,2565
933,2726
827,930
2122,2333
2124,931
493,942
519,939
544,928
545,932
494,946
470,962
543,924
469,958
517,937
574,925
573,912
495,960
546,941
613,892
612,903
492,950
572,919
571,935
570,917
610,892
575,986
547,978
516,952
611,921
542,936
569,899
609,882
548,1010
549,1039
1404,431
1405,805
1266,836
1193,837
743,815
742,797
747,836
746,821
745,818
744,835
790,805
789,800
839,853
838,776
738,812
739,803
740,794
890,519
834,795
784,793
889,810
856,1100
855,1080
854,1088
853,1085
852,1076
910,1072
909,1061
908,1047
964,1033
965,1064
1020,1103
966,1083
963,1009
1021,1129
1271,873
1270,871
1339,878
1338,867
1071,894
1072,918
1135,907
1408,883
1337,859
1269,865
1268,854
1136,908
1075,1029
1077,1005
1076,1060
1019,1062
1018,1035
1074,940
1137,924
1272,900
1274,976
1275,1010
1205,1022
1204,1019
1273,947
1198,889
1197,886
1341,1003
1134,896
1133,893
1069,867
1132,854
1073,950
1203,1003
1202,945
1201,918
1139,988
1267,845
1138,955
1340,905
1196,859
1342,989
1409,896
1485,898
1407,823
1561,791
1632,764
1484,841
1483,830
1562,796
1194,844
1130,840
1195,853
1335,818
1129,845
1066,834
1128,853
1067,872
1131,848
1334,432
1336,840
1265,875
1333,422
1406,811
857,1788
803,3082
804,6559
860,6567
969,6520
913,6507
912,6445
861,6577
806,6620
659,874
751,893
658,885
705,886
702,861
706,903
753,927
614,882
701,854
661,907
616,908
848,947
796,914
797,945
798,946
750,885
707,938
615,941
748,871
845,936
846,926
657,912
749,879
795,899
617,951
663,956
794,864
847,944
849,990
902,958
901,957
900,1006
793,828
899,916
898,895
897,865
844,884
842,838
841,820
956,6599
792,822
843,860
840,833
850,997
903,933
800,986
755,1013
756,1063
710,1093
711,1138
962,983
961,976
904,941
906,1039
851,1047
802,1033
801,989
799,963
959,932
1014,902
1013,916
708,1723
709,1698
754,967
757,1091
1017,1044
1016,954
960,924
905,996
958,918
957,1027
1070,887
1015,905
1012,944
1068,881
1005,774
1004,484
1060,472
1063,549
1065,821
1127,812
1062,538
1124,504
1123,491
1125,521
1188,531
1122,468
1058,456
947,484
946,497
949,504
945,820
948,484
1190,774
1187,496
951,567
895,802
952,793
1009,841
1008,790
1010,985
1007,783
1061,730
954,880
896,812
953,818
1126,789
1064,796
1189,568
955,6595
950,805
892,729
786,782
836,788
837,756
787,791
700,869
655,878
654,879
653,860
698,854
699,842
608,869
696,816
656,875
833,796
785,776
835,541
693,809
894,817
893,787
1343,983
1192,433
1191,550
828,921
829,914
780,890
830,908
779,926
782,811
529,964
886,828
596,983
556,993
598,944
597,961
526,1006
555,1046
525,1060
524,1076
523,1047
688,910
607,859
650,849
651,841
652,850
737,827
694,817
695,819
645,885
646,857
690,851
600,890
599,900
781,816
736,841
558,990
644,907
643,913
648,836
692,822
691,831
513,922
541,955
540,958
568,894
530,955
831,846
559,973
560,930
642,1038
557,990
496,1076
471,1107
444,1182
446,1137
528,971
527,1011
562,897
602,864
734,906
466,997
464,958
463,976
478,1102
481,1012
480,1029
479,1079
647,884
488,942
502,977
689,868
533,903
532,924
531,938
601,879
484,1021
508,959
510,1007
509,981
534,961
482,1027
506,980
606,905
455,1204
429,1082
456,1177
457,1157
428,1121
458,1093
554,1132
594,1071
640,1047
639,1149
551,1070
681,1115
636,1136
635,1157
590,1121
778,935
777,954
485,1046
486,1062
462,1031
563,920
885,853
943,851
564,1008
641,1041
504,1045
503,1021
501,1037
500,1102
561,918
254,1105
350,1044
321,1081
319,1089
251,1134
375,1060
347,1077
687,919
565,1040
539,942
511,1073
536,1061
649,852
603,921
605,1406
733,927
735,857
489,953
514,933
461,1089
460,1101
459,1121
468,963
154,1291
178,1267
203,1245
228,1225
402,1088
401,1137
505,985
522,1095
451,1247
452,1216
477,1145
476,1094
483,1066
884,1114
431,1044
430,1057
454,1240
595,997
395,1259
394,1286
422,1359
417,1180
390,1221
538,950
567,891
426,1382
397,1197
398,1162
499,1227
475,1149
497,1134
498,1162
311,1156
342,1163
345,1120
421,1378
515,990
472,1331
448,1300
473,1256
474,1182
353,1040
381,1034
256,1196
290,1120
324,1060
380,1083
407,1054
253,1143
226,1168
201,1181
177,1244
824,1016
775,987
826,949
939,1027
936,1318
937,1093
880,1061
566,1095
2821,65535
2834,65535
2833,65535
2789,65535
2790,65535
2770,65535
2788,65535
2776,65535
2795,65535
2775,65535
2794,65535
2825,65535
2824,65535
2826,65535
2811,65535
2812,65535
2796,65535
2827,65535
2858,65535
2855,65535
2849,65535
2838,65535
2814,65535
2813,65535
2828,65535
2839,65535
2791,65535
2792,65535
2803,65535
2830,65535
2815,65535
2819,65535
2818,65535
2817,65535
2831,65535
2810,65535
2829,65535
2783,65535
2820,65535
2804,65535
2785,65535
2784,65535
2762,65535
2768,65535
2751,65535
2750,65535
2733,65535
2769,65535
2720,65535
2761,65535
2741,65535
2837,65535
2793,65535
2808,65535
2753,65535
2736,65535
2735,65535
2809,65535
2772,65535
2845,65535
2844,65535
2848,65535
2777,65535
2778,65535
2779,65535
2759,65535
2780,65535
2797,65535
2843,65535
2832,65535
2842,65535
2758,65535
2738,65535
2774,65535
2773,65535
2771,65535
2851,65535
2847,65535
2854,65535
2721,65535
2756,65535
2737,65535
2840,65535
2752,65535
2754,65535
2755,65535
2852,65535
2853,65535
2856,65535
2841,65535
2742,65535
2727,65535
2744,65535
2726,65535
2743,65535
2725,65535
2746,65535
2787,65535
2766,65535
2763,65535
2765,65535
2745,65535
2764,65535
2552,65535
2501,65535
2443,65535
2442,65535
2320,65535
2381,65535
2382,65535
2498,65535
2499,65535
2438,65535
2439,65535
2497,65535
2441,65535
2379,65535
2380,65535
2319,65535
2551,65535
2550,65535
2563,7077
2321,6613
2322,6582
2383,6594
2384,6800
2446,6842
2445,6849
2503,6868
2385,6833
2504,7198
2505,7220
2557,7244
2558,7269
2559,7293
2560,7257
2564,7425
2562,7145
2561,7185
2605,7200
2609,7472
2565,7548
2566,7564
2515,7575
2397,5959
2457,7605
2458,7627
2401,6036
2337,5872
2336,5876
2399,5918
2398,5939
2402,6096
2333,6096
2273,6131
2219,6155
2218,6167
2159,6192
2454,6784
2393,6750
2512,7044
2502,7036
2608,7463
2156,6314
2155,6346
2154,6375
2213,6391
2212,6403
2211,6451
2210,6492
2264,6499
2324,6533
2323,6549
2030,65535
2094,65535
2157,6278
2450,7441
2388,7490
2387,7558
2326,7595
2266,7630
2265,6974
2508,7412
2396,6028
2335,6046
2334,6057
2158,6217
2279,8186
2278,8150
2222,8119
2221,8101
2276,8083
2275,3999
2261,6806
2207,6843
2149,65535
2554,6926
2599,6958
2633,7004
2664,8691
2689,8749
2690,8855
2691,8893
2692,8926
2152,6487
2089,6566
2088,6554
2025,6699
2603,65535
2602,65535
2556,65535
2693,65535
2671,65535
2670,65535
2694,65535
2553,65535
2665,65535
2705,65535
2710,65535
2668,65535
2639,65535
2463,6106
2521,6142
2572,6165
2451,7326
2390,7295
2391,7115
2392,7078
2215,7320
2268,65535
2093,65535
2092,65535
2028,65535
2024,8377
2150,7803
2086,7851
2209,7785
2023,7953
2087,7906
2148,8119
2262,6792
2327,65535
1560,827
1630,841
1631,777
1559,848
1629,971
1558,873
1634,899
1633,802
1482,862
1481,857
1699,760
1700,846
1701,874
1563,867
2070,1018
2008,1014
2009,1014
1959,1008
1958,990
2006,972
1957,960
1956,966
2193,1267
2132,1209
1912,1032
1911,1025
1865,1087
1866,1179
2007,994
2069,1000
2010,1053
2011,1140
1961,1045
2072,1069
1913,1179
1867,1230
1962,1078
1914,1087
1915,1120
1909,941
1636,904
1635,917
1564,906
1702,891
1637,941
1638,1042
1565,916
1486,909
1760,958
1704,955
1703,942
1763,1035
1762,1009
1817,1047
1705,1081
1863,989
1815,1006
1759,867
863,2768
758,2861
808,2812
982,2983
1036,2990
1099,3025
1100,3053
1166,3454
1167,3949
1237,3606
1238,3641
1375,3711
1308,3780
1309,3689
1236,3907
1235,3541
1101,3084
1037,3021
971,2564
1025,2547
1026,2562
1027,2575
1089,2588
720,2824
674,2870
864,2650
865,2671
919,2566
1024,2511
975,2685
974,2655
1028,2610
873,3010
925,2956
924,2933
917,2630
918,2606
623,3045
712,2917
713,2950
667,2955
622,3013
809,2798
719,2798
765,2759
972,2596
868,2708
869,2720
815,2739
920,2854
973,2641
981,2934
926,3035
927,3043
928,3067
1354,2517
1288,2501
1218,2477
1152,2546
1023,2475
1353,2501
1085,2455
1148,2385
1147,2378
1082,2329
772,3096
771,3053
819,3028
584,2944
628,2911
629,2900
1033,2831
978,2786
1031,2759
1030,2713
1029,2696
1091,2673
1035,2912
1034,2855
979,2813
1526,3830
1449,3868
1378,3896
1448,3819
1524,3797
1038,3068
1447,3860
1768,1252
1710,1215
1767,1163
391,1259
365,1224
339,1225
400,1123
393,1334
392,1310
396,1239
399,1180
443,1245
449,1449
450,1483
419,1272
414,1229
415,1193
387,1232
388,1241
389,1214
282,1200
281,1225
314,1201
313,1182
405,1015
411,1494
442,1453
255,1150
376,1243
373,1180
278,1165
275,1365
248,1455
335,1370
334,1347
306,1401
307,1390
176,1228
225,1184
320,1129
249,1228
287,1212
285,1136
776,966
731,979
315,1181
316,1163
204,1284
440,978
439,992
166,2865
269,2782
383,2720
1247,3910
1246,3932
1384,4016
1679,4178
1178,3903
1105,2569
1172,2588
1173,2638
1242,2640
1241,2632
1314,2789
1313,2695
1171,2614
1382,2895
1243,2837
1317,2976
1107,2577
1108,2756
1109,3041
1041,2586
1043,2796
1042,2787
1044,2850
1176,3804
1174,2863
1177,3852
1110,3859
985,2632
986,2675
932,2693
774,1010
730,984
825,1032
728,1043
729,1001
727,1059
682,1061
684,1007
685,988
732,998
683,1042
2134,1368
2194,1391
2068,1075
2129,1130
1905,824
1907,912
1906,877
1953,873
2002,880
2064,890
2125,907
2137,1827
2196,1498
2195,1444
1859,785
1810,775
1755,646
2131,1081
2192,1119
1862,941
1861,895
1812,856
1860,893
1809,775
1756,695
1869,1236
1822,1205
1821,1221
1916,1275
1819,1096
1764,1068
1820,1195
1698,730
1757,749
1566,963
1567,1005
1488,1082
1489,1019
1412,999
1413,1005
1414,1009
1818,1138
1568,1074
1410,960
2128,1177
2189,1204
2066,1286
2065,1325
2067,1127
1643,1187
1571,1145
1491,1098
2004,1296
2003,915
1697,855
2135,1583
2075,1445
1642,1148
1955,971
2130,1351
2005,1065
1858,793
1816,8008
1864,8001
1766,1157
1910,1025
1868,1227
2188,1411
2127,1380
1903,798
2001,957
2063,1351
2062,1212
1813,933
1758,789
1639,1048
1640,1090
1952,927
2126,8090
1569,1084
1965,1302
1966,1348
2014,1368
1490,1037
1917,1261
1870,1250
1871,1264
1570,1184
1707,1098
2076,1435
2013,1400
1964,1354
1487,956
1908,1057
2251,3201
2199,3145
2198,3008
2136,1585
1641,1105
1954,1048
1765,1176
1857,823
2187,1516
1904,802
1856,777
1951,879
1708,1308
245,8319
244,8302
357,8306
246,8434
247,8463
197,8557
223,8535
44,8899
43,8959
3,9095
23,9069
22,9058
63,8841
85,8783
84,8738
108,8238
149,8192
172,8583
296,8286
294,8334
355,8434
354,8466
326,8544
295,8443
291,8455
293,8577
260,8463
356,8494
441,8094
412,8117
329,8452
300,8396
148,8166
214,8404
146,8287
110,8368
262,8429
258,8842
292,8605
257,8907
235,8427
187,8327
212,8383
211,8410
186,8331
162,8305
161,8384
165,8283
189,8483
238,8564
237,8529
263,8465
265,8484
266,8462
267,8450
268,8290
26,9059
25,9027
105,65535
62,65535
83,65535
126,8405
175,8840
152,8774
151,8764
150,8723
103,8343
242,8236
191,8190
192,8241
217,8264
218,8317
145,8227
144,8311
167,8219
190,8197
219,8334
159,8431
185,8375
158,8488
188,8319
160,8396
143,65535
122,65535
75,65535
54,65535
198,8968
270,8331
221,8372
301,8429
302,8266
330,8293
331,8315
115,8367
133,8426
139,8323
134,8400
114,8924
48,65535
69,65535
92,8600
164,8393
4,65535
107,8745
129,8830
109,8270
125,8311
124,8285
127,65535
82,65535
67,65535
91,8768
93,8567
137,8702
113,8722
112,8680
136,65535
49,65535
72,65535
71,65535
406,1081
805,6610
858,6415
859,6556
967,2034
1142,2169
1080,6255
1022,6296
1079,6288
968,6411
1206,2126
915,6562
916,6597
914,6534
807,6649
911,7756
1078,6512
1207,2184
1278,2228
1277,2231
1344,2251
1415,2292
1492,2347
1345,2308
1346,2278
1208,2176
1209,2256
1143,2293
1144,2309
1145,2324
1417,2304
1493,2364
1494,2383
1572,2398
1081,6581
970,6784
408,1023
382,1062
437,980
467,1010
409,1040
403,1110
432,1509
433,1136
404,1110
352,1185
351,1250
349,1117
317,1122
374,1069
346,1247
283,1172
410,1014
438,1025
465,972
490,979
491,982
435,1021
436,966
379,1142
323,1281
289,1230
377,1069
378,1091
592,1136
593,1107
552,1061
445,1157
424,1366
423,1313
416,1239
361,1298
362,1227
371,1252
372,1209
343,1265
344,1269
286,1323
227,1247
252,1167
284,1149
318,1131
250,1196
312,1187
340,1202
368,1241
369,1295
370,1242
341,1264
367,1255
308,1296
276,1276
277,1230
280,1218
310,1189
338,1277
366,1277
274,1432
305,1413
420,1329
363,1244
418,1336
550,6601
579,6624
576,6569
577,6581
578,6597
520,6577
618,6591
662,6621
619,6608
620,6621
621,6615
665,6597
666,6589
664,6617
580,6636
2260,65535
2257,65535
2206,65535
2146,65535
2314,65535
2313,65535
2312,65535
2373,65535
2256,65535
2205,65535
2434,65535
2435,65535
2375,65535
2376,65535
2433,65535
2491,65535
2490,65535
2492,65535
2546,65535
2597,65535
2596,65535
2544,65535
2145,65535
2082,65535
2020,65535
2494,65535
0,65535
11,65535
1052,1588
1053,1575
941,1615
1740,528
1796,570
1615,391
1681,469
1545,286
1797,836
1544,345
1741,761
1795,722
1617,250
1546,275
1616,297
1683,329
1467,234
1547,221
1465,294
1387,448
1388,409
1464,429
1462,1579
1461,1600
1542,1664
1463,1543
1682,729
1543,485
1618,242
1742,894
1460,1766
1248,822
1850,279
1801,288
1803,234
882,940
881,959
938,1038
883,933
940,2358
1998,890
1902,861
1807,396
1691,167
1694,973
1693,832
1749,198
1752,233
1753,489
1627,546
1628,921
1557,486
1479,396
1402,357
1808,415
1946,955
1947,900
1948,862
1997,902
1855,420
1690,146
2060,1077
1949,959
1950,881
1751,187
1692,171
1999,886
1901,825
1900,766
1852,738
1853,700
1805,270
1750,210
1854,409
1806,208
1748,248
2061,1124
2000,913
1804,219
1899,787
2884,65535
2892,65535
2883,65535
2876,65535
2874,65535
2882,65535
2877,65535
2911,65535
2905,65535
2906,65535
2896,65535
2887,65535
2881,65535
2880,65535
2888,65535
2902,65535
2903,65535
2907,65535
2912,65535
2895,65535
2894,65535
2875,65535
2885,65535
2893,65535
2904,65535
2865,65535
2866,65535
2909,65535
2913,65535
2886,65535
2878,65535
2869,65535
2871,65535
2872,65535
2879,65535
2870,65535
1330,414
1331,392
1401,388
1262,445
1263,413
1478,370
1403,391
1261,496
1480,743
1264,448
1390,282
1389,321
1319,299
1251,765
1250,841
1285,2420
1284,2406
1214,2378
1146,2342
1505,2627
1504,2561
1582,2599
1581,2527
1713,2506
1771,2488
1654,2638
1653,2611
1651,2563
2096,3742
2033,3702
1972,3673
1923,3605
1922,3583
1874,3277
1873,2990
1919,2943
1829,5654
1579,2463
1424,2467
1711,2480
1348,2304
1419,2324
1359,2731
1429,2682
1428,2668
1421,2381
1577,2415
1499,2388
1230,2975
1365,2912
1511,2834
1300,2957
1366,2929
1512,2862
1716,2696
1503,2749
1276,2258
1347,2288
1349,2336
1645,2472
1578,2450
1770,2484
1715,2539
1150,2443
1217,2457
1149,2419
1580,2509
1352,2496
1502,2527
1825,2896
1718,2851
1717,2825
1872,2929
1656,2740
1648,2515
1712,2492
1213,2368
1212,2349
1084,2390
1420,2370
1281,2294
1282,2355
1587,2734
1586,2701
1585,2690
1652,2658
1427,2836
1975,3777
1977,3845
1932,3915
1931,4540
1426,2556
1422,2398
1425,2541
1583,2627
1501,2485
1283,2396
1286,2443
1215,2428
1211,2325
1210,2299
1083,2361
1655,2729
2220,3977
1355,5411
1772,2497
1436,2880
1435,2870
1589,2803
1163,3008
1735,4128
1791,4061
1841,4038
1840,3994
1219,2560
1220,2599
1647,2501
1646,2493
1279,2246
1714,2516
1575,2475
1576,2437
1498,2445
1573,2487
1496,2505
1497,2476
2177,2485
2176,2555
2294,2472
2293,2591
2237,2532
2236,2561
2364,2333
2302,2273
2301,2195
2245,2097
2056,2227
2057,2313
2055,2206
2184,2258
2120,2264
2244,2178
2538,2518
2537,2499
2591,2615
1940,2390
1989,2398
1990,2334
2539,2518
2482,2509
2483,2471
2424,2367
2121,2325
2119,2138
2050,2447
2049,2525
2048,2943
2185,2291
2243,2017
2299,2231
2241,2180
2485,2549
2542,2604
2353,2563
2292,2470
2419,2357
2478,2404
2479,2439
2536,2466
2484,2510
2486,2503
2354,2402
2416,2579
2242,2225
2355,2440
2300,2238
1991,2338
1992,2345
2477,2395
2534,2416
2535,2531
2588,2436
2587,2450
2630,2501
2051,2259
2116,2153
2175,2588
2586,65535
2541,2671
2178,2460
2179,2263
2240,2210
2239,2434
2238,2504
2052,2390
2053,2356
1987,2630
1988,2478
1939,2502
2594,2621
2593,2606
2358,2324
2357,2334
2420,2390
2247,2386
2427,2476
2428,2498
2181,2057
2180,2106
2417,2384
2590,2596
2297,2219
2361,2411
2362,2294
2423,2382
2422,2347
2174,2818
2356,2445
1941,2379
2365,2510
2112,2823
2047,2965
2182,2196
2359,2273
2533,3211
2295,2536
2115,2226
2632,2656
2631,2595
2186,2443
2298,2305
2360,2329
2235,2781
2291,2794
2487,2725
2246,2318
2425,3126
2117,2450
2543,2678
1893,65535
2421,2482
2476,2400
2592,2654
604,6586
