middle_point_id,reach_time_minutes
2835,65535
2836,65535
2806,65535
2822,65535
2823,65535
2807,65535
2846,65535
887,564
888,538
1326,355
1185,443
999,530
1057,721
1552,0
1120,474
1473,134
944,576
832,548
1257,367
1396,319
1622,28
1327,904
1184,475
1183,490
1324,215
1255,231
1394,162
1252,347
1253,340
1182,345
1328,65535
1470,180
1321,354
1322,295
1323,245
1391,367
1551,12
1393,220
1472,58
1471,109
1181,494
1118,359
1059,440
1121,434
1469,645
1468,380
1548,225
1325,337
1625,111
1623,12
1258,387
1256,434
791,554
891,500
703,589
704,602
660,598
1553,18
1624,69
1554,25
1474,40
1475,61
1550,62
1549,174
1320,398
1466,398
1541,760
1318,445
1249,468
1186,408
1003,457
1002,446
741,555
788,534
434,666
697,584
752,615
1056,552
1006,510
907,631
518,635
1011,482
1000,488
1055,2102
997,2071
994,1965
996,2037
995,2021
991,1812
1112,4445
1114,2052
1051,2015
1398,252
1395,330
1001,449
1811,487
1960,670
1769,760
1823,789
1329,65535
1332,386
1259,2216
1200,454
1199,453
1140,636
1141,619
783,551
1689,32
1802,140
1945,476
2183,958
2418,1407
1994,512
1995,908
2059,337
1621,65535
1555,216
1754,359
1180,1343
1106,3045
933,3206
827,676
2122,1373
2124,620
493,642
519,635
544,627
545,628
494,641
470,660
543,624
469,648
517,646
574,634
573,612
495,659
546,634
613,592
612,603
492,650
572,619
571,646
570,644
610,622
575,656
547,678
516,674
611,621
542,631
569,629
609,615
548,710
549,739
1404,379
1405,396
1266,416
1193,469
743,539
742,545
747,565
746,580
745,588
744,557
790,549
789,540
839,536
838,528
738,558
739,567
740,562
890,492
834,532
784,543
889,497
856,719
855,685
854,671
853,656
852,635
910,712
909,701
908,638
964,626
965,638
1020,671
966,658
963,610
1021,769
1271,451
1270,449
1339,460
1338,447
1071,483
1072,498
1135,487
1408,463
1337,439
1269,438
1268,434
1136,488
1075,549
1077,623
1076,586
1019,582
1018,573
1074,512
1137,504
1272,480
1274,577
1275,590
1205,597
1204,637
1273,587
1198,469
1197,466
1341,503
1134,474
1133,471
1069,454
1132,447
1073,497
1203,620
1202,585
1201,519
1139,628
1267,425
1138,536
1340,467
1196,438
1342,529
1409,490
1485,469
1407,490
1561,515
1632,538
1484,533
1483,474
1562,506
1194,456
1130,468
1195,434
1335,403
1129,477
1066,492
1128,552
1067,477
1131,467
1334,434
1336,418
1265,455
1333,393
1406,414
857,828
803,3562
804,7039
860,7047
969,7000
913,6987
912,6925
861,7057
806,7100
659,595
751,608
658,584
705,605
702,580
706,631
753,604
614,596
701,568
661,607
616,608
848,573
796,605
797,589
798,578
750,613
707,681
615,641
748,601
845,603
846,613
657,646
749,611
795,637
617,651
663,716
794,584
847,572
849,630
902,602
901,628
900,646
793,568
899,651
898,616
897,597
844,593
842,572
841,560
956,496
792,560
843,580
840,564
850,633
903,560
800,626
755,653
756,703
710,733
711,778
962,623
961,616
904,570
906,623
851,627
802,650
801,629
799,603
959,572
1014,521
1013,520
708,905
709,879
754,795
757,851
1017,684
1016,710
960,564
905,636
958,560
957,7667
1070,494
1015,545
1012,464
1068,471
1005,500
1004,470
1060,442
1063,518
1065,512
1127,537
1062,513
1124,489
1123,464
1125,523
1188,453
1122,429
1058,440
947,485
946,499
949,499
945,516
948,483
1190,533
1187,432
951,524
895,533
952,523
1009,499
1008,526
1010,489
1007,516
1061,493
954,583
896,547
953,533
1126,544
1064,525
1189,513
955,511
950,518
892,515
786,532
836,528
837,531
787,537
700,590
655,617
654,623
653,622
698,608
699,604
608,607
696,559
656,614
833,542
785,554
835,548
693,570
894,532
893,524
1343,572
1192,438
1191,455
828,658
829,644
780,590
830,639
779,641
782,557
529,694
886,573
596,711
556,737
598,660
597,683
526,731
555,749
525,754
524,782
523,759
688,610
607,622
650,597
651,606
652,607
737,561
694,565
695,571
645,616
646,591
690,572
600,645
599,646
781,561
736,565
558,690
644,637
643,613
648,600
692,567
691,577
513,627
541,657
540,653
568,628
530,708
831,564
559,688
560,659
642,741
557,711
496,788
471,828
444,912
446,845
528,701
527,715
562,657
602,626
734,606
466,680
464,674
463,688
478,834
481,772
480,768
479,835
647,608
488,642
502,709
689,593
533,663
532,684
531,740
601,634
484,771
508,730
510,760
509,741
534,721
482,806
506,740
606,635
455,890
429,756
456,862
457,842
428,813
458,788
554,752
594,849
640,747
639,1350
551,781
681,1401
636,1392
635,1379
590,802
778,658
777,662
485,744
486,732
462,712
563,696
885,584
943,1331
564,680
641,741
504,730
503,722
501,761
500,817
561,661
254,805
350,747
321,777
319,771
251,813
375,726
347,741
687,619
565,710
539,675
511,770
536,731
649,623
603,640
605,1886
733,627
735,584
489,653
514,640
461,1338
460,1314
459,1292
468,656
154,1445
178,1400
203,1385
228,855
402,753
401,818
505,745
522,796
451,1409
452,1403
477,1290
476,1348
483,1333
884,622
431,724
430,735
454,1343
595,769
395,962
394,1249
422,1369
417,876
390,922
538,693
567,670
426,1349
397,845
398,866
499,1533
475,1474
497,812
498,829
311,794
342,803
345,760
421,1287
515,689
472,1416
448,1447
473,1472
474,1517
353,742
381,734
256,842
290,818
324,763
380,767
407,738
253,1359
226,1375
201,1400
177,1419
824,716
775,686
826,679
939,727
936,1798
937,1295
880,729
566,723
2821,65535
2834,65535
2833,65535
2789,65535
2790,65535
2770,65535
2788,65535
2776,65535
2795,65535
2775,65535
2794,65535
2825,65535
2824,65535
2826,65535
2811,65535
2812,65535
2796,65535
2827,65535
2858,65535
2855,65535
2849,65535
2838,65535
2814,65535
2813,65535
2828,65535
2839,65535
2791,65535
2792,65535
2803,65535
2830,65535
2815,65535
2819,65535
2818,65535
2817,65535
2831,65535
2810,65535
2829,65535
2783,65535
2820,65535
2804,65535
2785,65535
2784,65535
2762,65535
2768,65535
2751,65535
2750,65535
2733,65535
2769,65535
2720,65535
2761,65535
2741,65535
2837,65535
2793,65535
2808,65535
2753,65535
2736,65535
2735,65535
2809,65535
2772,65535
2845,65535
2844,65535
2848,65535
2777,65535
2778,65535
2779,65535
2759,65535
2780,65535
2797,65535
2843,65535
2832,65535
2842,65535
2758,65535
2738,65535
2774,65535
2773,65535
2771,65535
2851,65535
2847,65535
2854,65535
2721,65535
2756,65535
2737,65535
2840,65535
2752,65535
2754,65535
2755,65535
2852,65535
2853,65535
2856,65535
2841,65535
2742,65535
2727,65535
2744,65535
2726,65535
2743,65535
2725,65535
2746,65535
2787,65535
2766,65535
2763,65535
2765,65535
2745,65535
2764,65535
2552,65535
2501,65535
2443,65535
2442,65535
2320,65535
2381,65535
2382,65535
2498,65535
2499,65535
2438,65535
2439,65535
2497,65535
2441,65535
2379,65535
2380,65535
2319,65535
2551,65535
2550,65535
2563,7557
2321,4213
2322,4182
2383,4194
2384,4905
2446,4948
2445,4956
2503,4975
2385,4939
2504,7678
2505,7700
2557,7724
2558,7749
2559,7773
2560,7737
2564,7513
2562,7625
2561,7665
2605,7680
2609,5264
2565,5209
2566,5194
2515,5139
2397,3559
2457,5120
2458,5104
2401,3731
2337,3472
2336,3476
2399,3518
2398,3539
2402,3765
2333,3696
2273,3731
2219,3755
2218,3767
2159,3792
2454,5824
2393,5790
2512,7524
2502,8309
2608,7943
2156,3914
2155,3946
2154,3975
2213,3991
2212,4003
2211,4051
2210,4092
2264,4099
2324,4133
2323,4149
2030,65535
2094,65535
2157,3878
2450,7921
2388,7970
2387,8038
2326,8075
2266,4280
2265,4235
2508,7892
2396,3628
2335,3646
2334,3657
2158,3817
2279,7345
2278,7309
2222,7278
2221,7260
2276,7242
2275,2844
2261,5727
2207,6585
2149,6644
2554,5027
2599,5057
2633,5095
2664,5130
2689,5167
2690,5193
2691,5209
2692,5233
2152,6338
2089,7046
2088,6384
2025,7179
2603,65535
2602,65535
2556,65535
2693,7172
2671,8955
2670,8935
2694,8894
2553,65535
2665,65535
2705,65535
2710,65535
2668,65535
2639,65535
2463,6586
2521,6622
2572,6645
2451,7806
2390,7775
2391,7595
2392,6232
2215,7800
2268,65535
2093,65535
2092,65535
2028,65535
2024,6414
2150,4452
2086,4482
2209,4439
2023,5553
2087,5506
2148,8599
2262,5712
2327,65535
1560,534
1630,504
1631,548
1559,501
1629,440
1558,393
1634,541
1633,519
1482,502
1481,518
1699,531
1700,544
1701,581
1563,547
2070,691
2008,687
2009,684
1959,672
1958,698
2006,730
1957,710
1956,662
2193,802
2132,741
1912,700
1911,680
1865,652
1866,751
2007,717
2069,701
2010,693
2011,709
1961,688
2072,709
1913,817
1867,848
1962,713
1914,720
1915,763
1909,614
1636,550
1635,559
1564,572
1702,592
1637,608
1638,621
1565,526
1486,505
1760,632
1704,587
1703,573
1763,619
1762,593
1817,613
1705,664
1863,1310
1815,1386
1759,546
863,1808
758,1901
808,1852
982,2023
1036,2030
1099,2065
1100,2093
1166,2494
1167,2989
1237,2646
1238,2681
1375,2751
1308,2820
1309,2729
1236,2947
1235,2581
1101,2124
1037,2061
971,1604
1025,1587
1026,1602
1027,1615
1089,1628
720,1864
674,1910
864,1690
865,1711
919,1606
1024,1551
975,1725
974,1695
1028,1650
873,2050
925,1996
924,1973
917,1670
918,1646
623,2085
712,1957
713,1990
667,1995
622,2053
809,1838
719,1838
765,1799
972,1636
868,1748
869,1760
815,1779
920,2015
973,1681
981,1974
926,2075
927,2083
928,2107
1354,1600
1288,1541
1218,1517
1152,1586
1023,1515
1353,1614
1085,1495
1148,1425
1147,1418
1082,1369
772,2136
771,2093
819,2068
584,1984
628,1951
629,1940
1033,1871
978,1826
1031,1799
1030,1753
1029,1736
1091,1713
1035,1952
1034,1895
979,1853
1526,2870
1449,2908
1378,2936
1448,2859
1524,2837
1038,2108
1447,2900
1768,775
1710,720
1767,771
391,902
365,863
339,849
400,826
393,1390
392,1374
396,888
399,842
443,1471
449,1386
450,1353
419,1359
414,1512
415,1419
387,1412
388,1405
389,1350
282,905
281,866
314,884
313,864
405,685
411,1714
442,1673
255,838
376,733
373,811
278,805
275,1351
248,1386
335,1420
334,1424
306,1388
307,1376
176,1435
225,894
320,1325
249,1386
287,822
285,1321
776,676
731,695
315,822
316,1353
204,1458
440,660
439,687
166,1905
269,1822
383,1760
1247,4390
1246,4412
1384,4496
1679,4658
1178,4383
1105,3049
1172,3068
1173,3118
1242,3120
1241,3112
1314,3269
1313,3175
1171,3094
1382,3375
1243,3317
1317,3456
1107,3057
1108,3236
1109,3521
1041,3066
1043,3276
1042,3267
1044,3330
1176,4284
1174,3343
1177,4332
1110,4339
985,3112
986,3155
932,3173
774,710
730,692
825,732
728,714
729,701
727,1443
682,756
684,738
685,718
732,698
683,1342
2134,1255
2194,1284
2068,721
2129,725
1905,546
1907,563
1906,553
1953,547
2002,535
2064,546
2125,594
2137,1396
2196,1352
2195,1307
1859,530
1810,530
1755,420
2131,766
2192,780
1862,1299
1861,608
1812,553
1860,577
1809,438
1756,489
1869,1288
1822,813
1821,823
1916,1250
1819,721
1764,685
1820,856
1698,510
1757,493
1566,605
1567,590
1488,564
1489,564
1412,535
1413,580
1414,602
1818,793
1568,697
1410,490
2128,716
2189,761
2066,603
2065,563
2067,678
1643,666
1571,615
1491,580
2004,591
2003,577
1697,541
2135,1277
2075,1336
1642,642
1955,601
2130,828
2005,770
1858,544
1816,8488
1864,8481
1766,765
1910,654
1868,1279
2188,841
2127,811
1903,431
2001,491
2063,479
2062,470
1813,597
1758,498
1639,638
1640,660
1952,521
2126,8570
1569,633
1965,1506
1966,1525
2014,1465
1490,544
1917,1270
1870,908
1871,922
1570,604
1707,673
2076,1382
2013,1574
1964,1352
1487,498
1908,1249
2251,3681
2199,3625
2198,3488
2136,1326
1641,694
1954,1306
1765,888
1857,491
2187,925
1904,470
1856,405
1951,513
1708,1323
245,8799
244,8782
357,8786
246,8914
247,8943
197,9037
223,9015
44,9379
43,9439
3,9575
23,9549
22,9538
63,9321
85,9263
84,9218
108,8718
149,8672
172,9063
296,8766
294,8814
355,8914
354,8946
326,9024
295,8923
291,8935
293,9057
260,8943
356,8974
441,8574
412,8597
329,8932
300,8876
148,8646
214,8884
146,8767
110,8848
262,8909
258,9322
292,9085
257,9387
235,8907
187,8807
212,8863
211,8890
186,8811
162,8785
161,8864
165,8763
189,8963
238,9044
237,9009
263,8945
265,8964
266,8942
267,8930
268,8770
26,9539
25,9507
105,65535
62,65535
83,65535
126,8885
175,9320
152,9254
151,9244
150,9203
103,8823
242,8716
191,8670
192,8721
217,8744
218,8797
145,8707
144,8791
167,8699
190,8677
219,8814
159,8911
185,8855
158,8968
188,8799
160,8876
143,65535
122,65535
75,65535
54,65535
198,9448
270,8811
221,8852
301,8909
302,8746
330,8773
331,8795
115,8847
133,8906
139,8803
134,8880
114,9404
48,65535
69,65535
92,9080
164,8873
4,65535
107,9225
129,9310
109,8750
125,8791
124,8765
127,65535
82,65535
67,65535
91,9248
93,9047
137,9182
113,9202
112,9160
136,65535
49,65535
72,65535
71,65535
406,763
805,7090
858,6895
859,7036
967,1074
1142,1209
1080,6735
1022,6776
1079,6768
968,6891
1206,1166
915,7042
916,7077
914,7014
807,7129
911,8236
1078,6992
1207,1224
1278,1268
1277,1271
1344,1291
1415,1332
1492,1387
1345,1348
1346,1318
1208,1216
1209,1296
1143,1333
1144,1349
1145,1364
1417,1344
1493,1404
1494,1423
1572,1438
1081,7061
970,7264
408,727
382,762
437,693
467,701
409,734
403,774
432,772
433,716
404,744
352,832
351,755
349,1346
317,809
374,735
346,796
283,877
410,712
438,734
465,676
490,664
491,682
435,695
436,679
379,788
323,861
289,891
377,775
378,722
592,1346
593,1317
552,1308
445,1310
424,1409
423,1365
416,1410
361,1375
362,1345
371,818
372,788
343,1347
344,1364
286,1456
227,1368
252,878
284,844
318,828
250,1440
312,805
340,842
368,881
369,916
370,1412
341,1353
367,886
308,1387
276,1331
277,1311
280,1433
310,824
338,871
366,1380
274,1370
305,1572
420,1359
363,1332
418,1333
550,7081
579,7104
576,7049
577,7061
578,7077
520,7057
618,7071
662,7101
619,7088
620,7101
621,7095
665,7077
666,7069
664,7097
580,7116
2260,65535
2257,65535
2206,65535
2146,65535
2314,65535
2313,65535
2312,65535
2373,65535
2256,65535
2205,65535
2434,65535
2435,65535
2375,65535
2376,65535
2433,65535
2491,65535
2490,65535
2492,65535
2546,65535
2597,65535
2596,65535
2544,65535
2145,65535
2082,65535
2020,65535
2494,65535
0,65535
11,65535
1052,2068
1053,2055
941,2095
1740,631
1796,642
1615,496
1681,557
1545,384
1797,580
1544,435
1741,548
1795,730
1617,356
1546,367
1616,435
1683,468
1467,395
1547,335
1465,405
1387,475
1388,455
1464,466
1462,619
1461,640
1542,704
1463,583
1682,513
1543,543
1618,348
1742,640
1460,806
1248,581
1850,172
1801,158
1803,106
882,704
881,689
938,738
883,699
940,2838
1998,316
1902,401
1807,366
1691,47
1694,312
1693,172
1749,138
1752,233
1753,291
1627,361
1628,374
1557,419
1479,362
1402,357
1808,355
1946,235
1947,266
1948,308
1997,312
1855,397
1690,26
2060,415
1949,447
1950,395
1751,172
1692,149
1999,376
1901,455
1900,496
1852,645
1853,524
1805,266
1750,90
1854,290
1806,208
1748,70
2061,456
2000,454
1804,346
1899,665
2884,65535
2892,65535
2883,65535
2876,65535
2874,65535
2882,65535
2877,65535
2911,65535
2905,65535
2906,65535
2896,65535
2887,65535
2881,65535
2880,65535
2888,65535
2902,65535
2903,65535
2907,65535
2912,65535
2895,65535
2894,65535
2875,65535
2885,65535
2893,65535
2904,65535
2865,65535
2866,65535
2909,65535
2913,65535
2886,65535
2878,65535
2869,65535
2871,65535
2872,65535
2879,65535
2870,65535
1330,395
1331,383
1401,372
1262,417
1263,409
1478,416
1403,375
1261,431
1480,407
1264,403
1390,389
1389,416
1319,405
1251,422
1250,508
1285,1442
1284,1446
1214,1418
1146,1384
1505,1667
1504,1601
1582,1639
1581,1567
1713,1546
1771,1528
1654,1678
1653,1651
1651,1603
2096,2782
2033,2742
1972,2713
1923,2645
1922,2623
1874,2317
1873,2030
1919,1983
1829,2994
1579,1503
1424,1495
1711,1520
1348,1344
1419,1364
1359,1771
1429,1722
1428,1708
1421,1421
1577,1455
1499,1428
1230,2015
1365,1952
1511,1874
1300,1997
1366,1969
1512,1902
1716,1736
1503,2013
1276,1298
1347,1328
1349,1376
1645,1512
1578,1490
1770,1524
1715,1579
1150,1483
1217,1497
1149,1459
1580,1529
1352,1536
1502,1518
1825,1936
1718,1891
1717,1865
1872,1969
1656,1780
1648,1555
1712,1532
1213,1408
1212,1389
1084,1430
1420,1410
1281,1334
1282,1395
1587,1774
1586,1741
1585,1730
1652,1698
1427,1876
1975,2817
1977,2885
1932,2955
1931,3580
1426,1596
1422,1438
1425,1581
1583,1667
1501,1525
1283,1436
1286,1483
1215,1468
1211,1365
1210,1339
1083,1401
1655,1769
2220,2823
1355,5891
1772,1537
1436,1920
1435,1910
1589,1843
1163,2048
1735,3168
1791,3101
1841,3078
1840,3034
1219,1600
1220,1639
1647,1541
1646,1533
1279,1286
1714,1556
1575,1515
1576,1477
1498,1485
1573,1527
1496,1545
1497,1516
2177,1525
2176,1595
2294,1512
2293,1631
2237,1572
2236,1601
2364,1373
2302,1313
2301,1235
2245,1137
2056,1267
2057,1353
2055,1246
2184,1298
2120,1304
2244,1218
2538,1558
2537,1539
2591,1655
1940,1430
1989,1438
1990,1374
2539,1558
2482,1549
2483,1511
2424,1407
2121,1365
2119,1178
2050,1487
2049,1565
2048,1983
2185,1331
2243,1057
2299,1271
2241,1220
2485,1589
2542,1644
2353,1603
2292,1510
2419,1397
2478,1444
2479,1479
2536,1506
2484,1550
2486,1543
2354,1442
2416,1619
2242,1265
2355,1480
2300,1278
1991,1378
1992,1385
2477,1435
2534,1456
2535,1571
2588,1476
2587,1490
2630,1541
2051,1299
2116,1193
2175,1628
2586,65535
2541,1711
2178,1500
2179,1303
2240,1250
2239,1474
2238,1544
2052,1430
2053,1396
1987,1670
1988,1518
1939,1542
2594,1661
2593,1646
2358,1364
2357,1374
2420,1430
2247,1426
2427,1516
2428,1538
2181,1097
2180,1146
2417,1424
2590,1636
2297,1259
2361,1451
2362,1334
2423,1422
2422,1387
2174,1858
2356,1485
1941,1419
2365,1550
2112,1863
2047,2005
2182,1236
2359,1313
2533,2251
2295,1576
2115,1266
2632,1696
2631,1635
2186,1483
2298,1345
2360,1369
2235,1821
2291,1834
2487,1765
2246,1358
2425,2166
2117,1490
2543,1718
1893,65535
2421,1522
2476,1440
2592,1694
604,7066
