middle_point_id,reach_time_minutes
2835,65535
2836,65535
2806,65535
2822,65535
2823,65535
2807,65535
2846,65535
887,777
888,650
1326,504
1185,447
999,648
1057,590
1552,334
1120,478
1473,379
944,727
832,785
1257,496
1396,501
1622,355
1327,904
1184,490
1183,812
1324,863
1255,924
1394,812
1252,1094
1253,1120
1182,1125
1328,65535
1470,824
1321,1074
1322,1015
1323,965
1391,1087
1551,341
1393,793
1472,478
1471,764
1181,1454
1118,1139
1059,417
1121,438
1469,901
1468,1141
1548,923
1325,835
1625,292
1623,318
1258,505
1256,851
791,516
891,448
703,768
704,784
660,788
1553,348
1624,337
1554,354
1474,365
1475,361
1550,549
1549,846
1320,1086
1466,1123
1541,1720
1318,1199
1249,1221
1186,443
1003,411
1002,421
741,532
788,486
434,944
697,778
752,795
1056,631
1006,363
907,745
518,869
1011,274
1000,454
1055,1622
997,1591
994,1485
996,1557
995,1541
991,1332
1112,3965
1114,1572
1051,1535
1398,372
1395,805
1001,428
1811,328
1960,1004
1769,886
1823,885
1329,65535
1332,114
1259,1736
1200,291
1199,289
1140,444
1141,442
783,692
1689,318
1802,720
1945,1436
2183,1918
2418,2367
1994,1472
1995,1868
2059,997
1621,65535
1555,247
1754,220
1180,1170
1106,2565
933,2726
827,908
2122,2333
2124,877
493,877
519,875
544,867
545,868
494,881
470,902
543,864
469,887
517,886
574,865
573,853
495,899
546,873
613,832
612,847
492,897
572,859
571,880
570,878
610,871
575,922
547,918
516,906
611,921
542,871
569,859
609,842
548,950
549,979
1404,139
1405,151
1266,176
1193,243
743,758
742,500
747,566
746,784
745,810
744,523
790,504
789,493
839,529
838,479
738,636
739,597
740,561
890,461
834,535
784,622
889,502
856,863
855,840
854,848
853,863
852,828
910,832
909,821
908,810
964,772
965,804
1020,863
966,841
963,751
1021,890
1271,294
1270,293
1339,307
1338,320
1071,245
1072,258
1135,278
1408,345
1337,218
1269,265
1268,255
1136,308
1075,429
1077,438
1076,466
1019,462
1018,453
1074,332
1137,324
1272,300
1274,376
1275,410
1205,452
1204,437
1273,347
1198,259
1197,226
1341,405
1134,237
1133,233
1069,241
1132,237
1073,290
1203,403
1202,345
1201,318
1139,388
1267,198
1138,355
1340,313
1196,208
1342,734
1409,474
1485,423
1407,265
1561,219
1632,242
1484,314
1483,187
1562,210
1194,238
1130,245
1195,226
1335,163
1129,270
1066,278
1128,302
1067,277
1131,242
1334,194
1336,178
1265,215
1333,119
1406,164
857,1788
803,3082
804,6559
860,6567
969,6520
913,6507
912,6445
861,6577
806,6620
659,776
751,788
658,765
705,787
702,749
706,800
753,514
614,805
701,737
661,820
616,818
848,467
796,785
797,533
798,483
750,782
707,891
615,941
748,538
845,397
846,803
657,852
749,725
795,415
617,891
663,926
794,857
847,512
849,510
902,448
901,437
900,413
793,530
899,334
898,369
897,397
844,393
842,453
841,513
956,321
792,523
843,447
840,550
850,549
903,454
800,587
755,746
756,790
710,973
711,1018
962,503
961,497
904,460
906,716
851,712
802,838
801,617
799,758
959,389
1014,278
1013,280
708,1723
709,1698
754,764
757,851
1017,303
1016,298
960,487
905,516
958,320
957,371
1070,254
1015,296
1012,285
1068,267
1005,367
1004,400
1060,410
1063,356
1065,342
1127,327
1062,376
1124,444
1123,451
1125,386
1188,471
1122,433
1058,423
947,484
946,497
949,415
945,787
948,424
1190,774
1187,496
951,368
895,416
952,402
1009,375
1008,401
1010,291
1007,373
1061,396
954,747
896,449
953,436
1126,330
1064,336
1189,568
955,341
950,398
892,458
786,488
836,480
837,471
787,477
700,815
655,853
654,811
653,803
698,761
699,813
608,830
696,786
656,850
833,547
785,522
835,503
693,616
894,433
893,458
1343,792
1192,150
1191,155
828,904
829,894
780,890
830,908
779,881
782,789
529,874
886,828
596,891
556,906
598,844
597,863
526,912
555,930
525,924
524,938
523,948
688,818
607,849
650,847
651,829
652,850
737,773
694,797
695,819
645,806
646,793
690,788
600,830
599,827
781,793
736,783
558,870
644,817
643,883
648,812
692,666
691,790
513,922
541,897
540,944
568,894
530,889
831,846
559,880
560,930
642,895
557,904
496,1000
471,1017
444,1120
446,1046
528,881
527,895
562,897
602,864
734,836
466,947
464,954
463,976
478,1014
481,1012
480,1001
479,989
647,854
488,942
502,889
689,848
533,903
532,924
531,921
601,806
484,1021
508,959
510,973
509,981
534,961
482,1027
506,980
606,905
455,1210
429,1039
456,1174
457,1144
428,1087
458,1066
554,1044
594,1043
640,927
639,1009
551,990
681,1054
636,1042
635,1019
590,994
778,900
777,911
485,1046
486,1004
462,1031
563,920
885,853
943,851
564,893
641,922
504,904
503,897
501,918
500,957
561,918
254,1045
350,993
321,1009
319,1068
251,1134
375,1026
347,1037
687,888
565,924
539,942
511,993
536,944
649,837
603,855
605,1406
733,867
735,832
489,953
514,933
461,1089
460,1101
459,1121
468,880
154,1179
178,1144
203,1114
228,1085
402,1023
401,1115
505,925
522,982
451,1247
452,1216
477,1021
476,962
483,1066
884,917
431,994
430,1057
454,1240
595,947
395,1259
394,1266
422,1359
417,1096
390,1141
538,947
567,920
426,1382
397,1197
398,1162
499,1053
475,994
497,964
498,991
311,1098
342,1103
345,1037
421,1378
515,953
472,1116
448,1141
473,1167
474,1182
353,1040
381,1034
256,1196
290,1120
324,1060
380,1083
407,1007
253,1143
226,1168
201,1181
177,1189
824,982
775,957
826,919
939,967
936,1318
937,1033
880,1061
566,1095
2821,65535
2834,65535
2833,65535
2789,65535
2790,65535
2770,65535
2788,65535
2776,65535
2795,65535
2775,65535
2794,65535
2825,65535
2824,65535
2826,65535
2811,65535
2812,65535
2796,65535
2827,65535
2858,65535
2855,65535
2849,65535
2838,65535
2814,65535
2813,65535
2828,65535
2839,65535
2791,65535
2792,65535
2803,65535
2830,65535
2815,65535
2819,65535
2818,65535
2817,65535
2831,65535
2810,65535
2829,65535
2783,65535
2820,65535
2804,65535
2785,65535
2784,65535
2762,65535
2768,65535
2751,65535
2750,65535
2733,65535
2769,65535
2720,65535
2761,65535
2741,65535
2837,65535
2793,65535
2808,65535
2753,65535
2736,65535
2735,65535
2809,65535
2772,65535
2845,65535
2844,65535
2848,65535
2777,65535
2778,65535
2779,65535
2759,65535
2780,65535
2797,65535
2843,65535
2832,65535
2842,65535
2758,65535
2738,65535
2774,65535
2773,65535
2771,65535
2851,65535
2847,65535
2854,65535
2721,65535
2756,65535
2737,65535
2840,65535
2752,65535
2754,65535
2755,65535
2852,65535
2853,65535
2856,65535
2841,65535
2742,65535
2727,65535
2744,65535
2726,65535
2743,65535
2725,65535
2746,65535
2787,65535
2766,65535
2763,65535
2765,65535
2745,65535
2764,65535
2552,65535
2501,65535
2443,65535
2442,65535
2320,65535
2381,65535
2382,65535
2498,65535
2499,65535
2438,65535
2439,65535
2497,65535
2441,65535
2379,65535
2380,65535
2319,65535
2551,65535
2550,65535
2563,7077
2321,6613
2322,6582
2383,6594
2384,6800
2446,6842
2445,6849
2503,6868
2385,6833
2504,7198
2505,7220
2557,7244
2558,7269
2559,7293
2560,7257
2564,7425
2562,7145
2561,7185
2605,7200
2609,7472
2565,7548
2566,7564
2515,7575
2397,5959
2457,7605
2458,7627
2401,6036
2337,5872
2336,5876
2399,5918
2398,5939
2402,6096
2333,6096
2273,6131
2219,6155
2218,6167
2159,6192
2454,6784
2393,6750
2512,7044
2502,7036
2608,7463
2156,6314
2155,6346
2154,6375
2213,6391
2212,6403
2211,6451
2210,6492
2264,6499
2324,6533
2323,6549
2030,65535
2094,65535
2157,6278
2450,7441
2388,7490
2387,7558
2326,7595
2266,7630
2265,6974
2508,7412
2396,6028
2335,6046
2334,6057
2158,6217
2279,8186
2278,8150
2222,8119
2221,8101
2276,8083
2275,3999
2261,6806
2207,6843
2149,65535
2554,6926
2599,6958
2633,7004
2664,8691
2689,8749
2690,8855
2691,8893
2692,8926
2152,6487
2089,6566
2088,6554
2025,6699
2603,65535
2602,65535
2556,65535
2693,65535
2671,65535
2670,65535
2694,65535
2553,65535
2665,65535
2705,65535
2710,65535
2668,65535
2639,65535
2463,6106
2521,6142
2572,6165
2451,7326
2390,7295
2391,7115
2392,7078
2215,7320
2268,65535
2093,65535
2092,65535
2028,65535
2024,8377
2150,7803
2086,7851
2209,7785
2023,7953
2087,7906
2148,8119
2262,6792
2327,65535
1560,218
1630,193
1631,232
1559,191
1629,178
1558,84
1634,243
1633,227
1482,262
1481,347
1699,260
1700,276
1701,282
1563,263
2070,1018
2008,1014
2009,1014
1959,1008
1958,990
2006,972
1957,960
1956,966
2193,1267
2132,1209
1912,1032
1911,1025
1865,848
1866,885
2007,994
2069,1000
2010,1053
2011,1140
1961,1045
2072,1069
1913,981
1867,918
1962,1078
1914,1087
1915,1120
1909,941
1636,300
1635,288
1564,269
1702,320
1637,322
1638,362
1565,307
1486,354
1760,474
1704,336
1703,323
1763,439
1762,367
1817,408
1705,736
1863,856
1815,906
1759,298
863,2768
758,2861
808,2812
982,2983
1036,2990
1099,3025
1100,3053
1166,3454
1167,3949
1237,3606
1238,3641
1375,3711
1308,3780
1309,3689
1236,3907
1235,3541
1101,3084
1037,3021
971,2564
1025,2547
1026,2562
1027,2575
1089,2588
720,2824
674,2870
864,2650
865,2671
919,2566
1024,2511
975,2685
974,2655
1028,2610
873,3010
925,2956
924,2933
917,2630
918,2606
623,3045
712,2917
713,2950
667,2955
622,3013
809,2798
719,2798
765,2759
972,2596
868,2708
869,2720
815,2739
920,2854
973,2641
981,2934
926,3035
927,3043
928,3067
1354,2517
1288,2501
1218,2477
1152,2546
1023,2475
1353,2501
1085,2455
1148,2385
1147,2378
1082,2329
772,3096
771,3053
819,3028
584,2944
628,2911
629,2900
1033,2831
978,2786
1031,2759
1030,2713
1029,2696
1091,2673
1035,2912
1034,2855
979,2813
1526,3830
1449,3868
1378,3896
1448,3819
1524,3797
1038,3068
1447,3860
1768,876
1710,936
1767,856
391,1158
365,1170
339,1148
400,1123
393,1225
392,1190
396,1239
399,1180
443,1176
449,1274
450,1408
419,1190
414,1229
415,1193
387,1232
388,1181
389,1156
282,1200
281,1225
314,1201
313,1182
405,956
411,1234
442,1193
255,1073
376,1243
373,1180
278,1165
275,1365
248,1455
335,1370
334,1347
306,1401
307,1390
176,1207
225,1184
320,1087
249,1228
287,1105
285,1136
776,917
731,935
315,1181
316,1163
204,1144
440,900
439,918
166,1425
269,1342
383,1280
1247,3910
1246,3932
1384,4016
1679,4178
1178,3903
1105,2569
1172,2588
1173,2638
1242,2640
1241,2632
1314,2789
1313,2695
1171,2614
1382,2895
1243,2837
1317,2976
1107,2577
1108,2756
1109,3041
1041,2586
1043,2796
1042,2787
1044,2850
1176,3804
1174,2863
1177,3852
1110,3859
985,2632
986,2675
932,2693
774,964
730,941
825,972
728,999
729,956
727,1059
682,996
684,947
685,947
732,938
683,982
2134,1368
2194,1391
2068,950
2129,978
1905,440
1907,912
1906,877
1953,785
2002,808
2064,817
2125,830
2137,1827
2196,1498
2195,1444
1859,396
1810,386
1755,321
2131,1081
2192,1119
1862,819
1861,780
1812,743
1860,893
1809,258
1756,282
1869,986
1822,900
1821,939
1916,1038
1819,837
1764,755
1820,892
1698,267
1757,274
1566,363
1567,405
1488,442
1489,777
1412,768
1413,801
1414,810
1818,799
1568,836
1410,373
2128,984
2189,1114
2066,898
2065,840
2067,944
1643,892
1571,835
1491,825
2004,896
2003,848
1697,296
2135,1409
2075,1138
1642,880
1955,971
2130,1000
2005,1065
1858,401
1816,8008
1864,8001
1766,841
1910,981
1868,1002
2188,1195
2127,1164
1903,275
2001,838
2063,1351
2062,1113
1813,703
1758,273
1639,405
1640,862
1952,850
2126,8090
1569,866
1965,1302
1966,1348
2014,1298
1490,817
1917,990
1870,911
1871,924
1570,833
1707,846
2076,1190
2013,1094
1964,1047
1487,425
1908,1057
2251,3201
2199,3145
2198,3008
2136,1396
1641,993
1954,1048
1765,804
1857,416
2187,1516
1904,290
1856,241
1951,863
1708,1054
245,8319
244,8302
357,8306
246,8434
247,8463
197,8557
223,8535
44,8899
43,8959
3,9095
23,9069
22,9058
63,8841
85,8783
84,8738
108,8238
149,8192
172,8583
296,8286
294,8334
355,8434
354,8466
326,8544
295,8443
291,8455
293,8577
260,8463
356,8494
441,8094
412,8117
329,8452
300,8396
148,8166
214,8404
146,8287
110,8368
262,8429
258,8842
292,8605
257,8907
235,8427
187,8327
212,8383
211,8410
186,8331
162,8305
161,8384
165,8283
189,8483
238,8564
237,8529
263,8465
265,8484
266,8462
267,8450
268,8290
26,9059
25,9027
105,65535
62,65535
83,65535
126,8405
175,8840
152,8774
151,8764
150,8723
103,8343
242,8236
191,8190
192,8241
217,8264
218,8317
145,8227
144,8311
167,8219
190,8197
219,8334
159,8431
185,8375
158,8488
188,8319
160,8396
143,65535
122,65535
75,65535
54,65535
198,8968
270,8331
221,8372
301,8429
302,8266
330,8293
331,8315
115,8367
133,8426
139,8323
134,8400
114,8924
48,65535
69,65535
92,8600
164,8393
4,65535
107,8745
129,8830
109,8270
125,8311
124,8285
127,65535
82,65535
67,65535
91,8768
93,8567
137,8702
113,8722
112,8680
136,65535
49,65535
72,65535
71,65535
406,1081
805,6610
858,6415
859,6556
967,2034
1142,2169
1080,6255
1022,6296
1079,6288
968,6411
1206,2126
915,6562
916,6597
914,6534
807,6649
911,7756
1078,6512
1207,2184
1278,2228
1277,2231
1344,2251
1415,2292
1492,2347
1345,2308
1346,2278
1208,2176
1209,2256
1143,2293
1144,2309
1145,2324
1417,2304
1493,2364
1494,2383
1572,2398
1081,6581
970,6784
408,1023
382,1062
437,962
467,949
409,1040
403,1014
432,1509
433,1016
404,986
352,1154
351,1109
349,1117
317,1122
374,1069
346,1247
283,1172
410,937
438,953
465,972
490,970
491,922
435,1021
436,966
379,1142
323,1281
289,1230
377,1069
378,1020
592,1027
593,1065
552,972
445,1097
424,1366
423,1313
416,1129
361,1298
362,1227
371,1252
372,1209
343,1265
344,1269
286,1323
227,1247
252,1167
284,1149
318,1131
250,1196
312,1188
340,1154
368,1177
369,1205
370,1242
341,1187
367,1194
308,1296
276,1276
277,1230
280,1218
310,1123
338,1170
366,1277
274,1432
305,1413
420,1257
363,1244
418,1215
550,6601
579,6624
576,6569
577,6581
578,6597
520,6577
618,6591
662,6621
619,6608
620,6621
621,6615
665,6597
666,6589
664,6617
580,6636
2260,65535
2257,65535
2206,65535
2146,65535
2314,65535
2313,65535
2312,65535
2373,65535
2256,65535
2205,65535
2434,65535
2435,65535
2375,65535
2376,65535
2433,65535
2491,65535
2490,65535
2492,65535
2546,65535
2597,65535
2596,65535
2544,65535
2145,65535
2082,65535
2020,65535
2494,65535
0,65535
11,65535
1052,1588
1053,1575
941,1615
1740,1452
1796,1493
1615,1279
1681,1396
1545,1148
1797,1493
1544,1174
1741,1400
1795,1690
1617,1239
1546,1205
1616,1198
1683,1241
1467,1113
1547,1178
1465,1197
1387,1179
1388,1161
1464,1244
1462,1579
1461,1600
1542,1664
1463,1543
1682,1366
1543,1233
1618,1308
1742,1600
1460,1766
1248,1296
1850,767
1801,738
1803,466
882,919
881,932
938,978
883,933
940,2358
1998,890
1902,861
1807,186
1691,269
1694,133
1693,832
1749,276
1752,207
1753,164
1627,111
1628,81
1557,0
1479,103
1402,106
1808,175
1946,955
1947,900
1948,862
1997,902
1855,189
1690,286
2060,1077
1949,959
1950,881
1751,250
1692,317
1999,886
1901,825
1900,766
1852,738
1853,700
1805,349
1750,263
1854,409
1806,328
1748,307
2061,1072
2000,913
1804,731
1899,787
2884,65535
2892,65535
2883,65535
2876,65535
2874,65535
2882,65535
2877,65535
2911,65535
2905,65535
2906,65535
2896,65535
2887,65535
2881,65535
2880,65535
2888,65535
2902,65535
2903,65535
2907,65535
2912,65535
2895,65535
2894,65535
2875,65535
2885,65535
2893,65535
2904,65535
2865,65535
2866,65535
2909,65535
2913,65535
2886,65535
2878,65535
2869,65535
2871,65535
2872,65535
2879,65535
2870,65535
1330,140
1331,122
1401,118
1262,140
1263,125
1478,119
1403,135
1261,191
1480,167
1264,163
1390,1093
1389,1152
1319,1130
1251,1185
1250,1261
1285,2420
1284,2406
1214,2378
1146,2342
1505,2627
1504,2561
1582,2599
1581,2527
1713,2506
1771,2488
1654,2638
1653,2611
1651,2563
2096,3742
2033,3702
1972,3673
1923,3605
1922,3583
1874,3277
1873,2990
1919,2943
1829,5654
1579,2463
1424,2467
1711,2480
1348,2304
1419,2324
1359,2731
1429,2682
1428,2668
1421,2381
1577,2415
1499,2388
1230,2975
1365,2912
1511,2834
1300,2957
1366,2929
1512,2862
1716,2696
1503,2749
1276,2258
1347,2288
1349,2336
1645,2472
1578,2450
1770,2484
1715,2539
1150,2443
1217,2457
1149,2419
1580,2509
1352,2496
1502,2527
1825,2896
1718,2851
1717,2825
1872,2929
1656,2740
1648,2515
1712,2492
1213,2368
1212,2349
1084,2390
1420,2370
1281,2294
1282,2355
1587,2734
1586,2701
1585,2690
1652,2658
1427,2836
1975,3777
1977,3845
1932,3915
1931,4540
1426,2556
1422,2398
1425,2541
1583,2627
1501,2485
1283,2396
1286,2443
1215,2428
1211,2325
1210,2299
1083,2361
1655,2729
2220,3977
1355,5411
1772,2497
1436,2880
1435,2870
1589,2803
1163,3008
1735,4128
1791,4061
1841,4038
1840,3994
1219,2560
1220,2599
1647,2501
1646,2493
1279,2246
1714,2516
1575,2475
1576,2437
1498,2445
1573,2487
1496,2505
1497,2476
2177,2485
2176,2555
2294,2472
2293,2591
2237,2532
2236,2561
2364,2333
2302,2273
2301,2195
2245,2097
2056,2227
2057,2313
2055,2206
2184,2258
2120,2264
2244,2178
2538,2518
2537,2499
2591,2615
1940,2390
1989,2398
1990,2334
2539,2518
2482,2509
2483,2471
2424,2367
2121,2325
2119,2138
2050,2447
2049,2525
2048,2943
2185,2291
2243,2017
2299,2231
2241,2180
2485,2549
2542,2604
2353,2563
2292,2470
2419,2357
2478,2404
2479,2439
2536,2466
2484,2510
2486,2503
2354,2402
2416,2579
2242,2225
2355,2440
2300,2238
1991,2338
1992,2345
2477,2395
2534,2416
2535,2531
2588,2436
2587,2450
2630,2501
2051,2259
2116,2153
2175,2588
2586,65535
2541,2671
2178,2460
2179,2263
2240,2210
2239,2434
2238,2504
2052,2390
2053,2356
1987,2630
1988,2478
1939,2502
2594,2621
2593,2606
2358,2324
2357,2334
2420,2390
2247,2386
2427,2476
2428,2498
2181,2057
2180,2106
2417,2384
2590,2596
2297,2219
2361,2411
2362,2294
2423,2382
2422,2347
2174,2818
2356,2445
1941,2379
2365,2510
2112,2823
2047,2965
2182,2196
2359,2273
2533,3211
2295,2536
2115,2226
2632,2656
2631,2595
2186,2443
2298,2305
2360,2329
2235,2781
2291,2794
2487,2725
2246,2318
2425,3126
2117,2450
2543,2678
1893,65535
2421,2482
2476,2400
2592,2654
604,6586
