middle_point_id,reach_time_minutes
2835,65535
2836,65535
2806,65535
2822,65535
2823,65535
2807,65535
2846,65535
887,1266
888,1258
1326,1409
1185,1345
999,1370
1057,1481
1552,1534
1120,1314
1473,1595
944,1381
832,1259
1257,1396
1396,1684
1622,1555
1327,3784
1184,1375
1183,1389
1324,1449
1255,1428
1394,1607
1252,1495
1253,1487
1182,1454
1328,65535
1470,1620
1321,1538
1322,1521
1323,2405
1391,1597
1551,1552
1393,1643
1472,2416
1471,1597
1181,2774
1118,1499
1059,1250
1121,1280
1469,1681
1468,1622
1548,1665
1325,1465
1625,1492
1623,1521
1258,1359
1256,1514
791,1159
891,1209
703,1117
704,1111
660,1117
1553,1548
1624,1507
1554,1612
1474,1600
1475,1607
1550,1562
1549,1614
1320,1570
1466,1649
1541,3160
1318,1639
1249,1661
1186,1335
1003,1254
1002,1257
741,1214
788,1171
434,1280
697,1210
752,1112
1056,1392
1006,1212
907,928
518,1191
1011,1174
1000,1293
1055,3062
997,3031
994,2925
996,2997
995,2981
991,2772
1112,65535
1114,3012
1051,2975
1398,1692
1395,1710
1001,1268
1811,1464
1960,1630
1769,1537
1823,1538
1329,65535
1332,1263
1259,1530
1200,1077
1199,1079
1140,1039
1141,1057
783,1246
1689,1579
1802,1640
1945,1801
2183,2419
2418,2837
1994,1835
1995,1868
2059,1930
1621,65535
1555,1447
1754,1590
1180,2303
1106,4005
933,4166
827,1328
2122,2659
2124,1634
493,1202
519,1195
544,1189
545,1193
494,1204
470,1235
543,1203
469,1216
517,1208
574,1201
573,1168
495,1240
546,1209
613,1149
612,1153
492,1216
572,1172
571,1219
570,1244
610,1215
575,1256
547,1244
516,1275
611,1254
542,1231
569,1317
609,1228
548,2229
549,2264
1404,1191
1405,1157
1266,1139
1193,1157
743,1197
742,1196
747,1150
746,1153
745,1163
744,1173
790,1161
789,1167
839,1184
838,1175
738,1243
739,1242
740,1236
890,1241
834,1258
784,1247
889,1253
856,842
855,880
854,908
853,937
852,947
910,906
909,915
908,918
964,932
965,938
1020,974
966,963
963,949
1021,1009
1271,1078
1270,1080
1339,1087
1338,1100
1071,1094
1072,1089
1135,1087
1408,1123
1337,1117
1269,1095
1268,1111
1136,1062
1075,994
1077,1041
1076,1004
1019,1001
1018,983
1074,1019
1137,1044
1272,1093
1274,1126
1275,1129
1205,1115
1204,1079
1273,1175
1198,1096
1197,1126
1341,1122
1134,1092
1133,1128
1069,1114
1132,1130
1073,1049
1203,1063
1202,1062
1201,1101
1139,1033
1267,1122
1138,1054
1340,1092
1196,1129
1342,1155
1409,1103
1485,1167
1407,1154
1561,1237
1632,1251
1484,1179
1483,1191
1562,1227
1194,1153
1130,1150
1195,1141
1335,1143
1129,1170
1066,1213
1128,1271
1067,1197
1131,1139
1334,1194
1336,1154
1265,1175
1333,1244
1406,1163
857,948
803,982
804,2239
860,2247
969,2200
913,2187
912,2125
861,2257
806,2300
659,1129
751,1100
658,1128
705,1112
702,1124
706,1105
753,1078
614,1144
701,1138
661,1123
616,1148
848,1021
796,1066
797,1040
798,1023
750,1104
707,1098
615,1121
748,1141
845,1088
846,1053
657,1186
749,1133
795,1117
617,1191
663,1106
794,1103
847,1037
849,1013
902,1028
901,1038
900,1066
793,1132
899,1128
898,1149
897,1165
844,1093
842,1182
841,1167
956,1181
792,1160
843,1143
840,1205
850,981
903,1018
800,977
755,989
756,1003
710,1034
711,1138
962,991
961,1001
904,988
906,932
851,960
802,958
801,974
799,998
959,1052
1014,1067
1013,1120
708,1794
709,1822
754,1035
757,1031
1017,1044
1016,1070
960,1027
905,941
958,1098
957,1147
1070,1101
1015,1049
1012,1161
1068,1131
1005,1227
1004,1236
1060,1245
1063,1271
1065,1226
1127,1312
1062,1278
1124,1286
1123,1272
1125,1297
1188,1311
1122,1308
1058,1268
947,1258
946,1279
949,1240
945,1296
948,1224
1190,1418
1187,1333
951,1204
895,1180
952,1206
1009,1211
1008,1210
1010,1192
1007,1216
1061,1334
954,1183
896,1175
953,1184
1126,1304
1064,1265
1189,1353
955,1196
950,1227
892,1195
786,1214
836,1200
837,1180
787,1184
700,1173
655,1191
654,1194
653,1216
698,1188
699,1173
608,1279
696,1213
656,1188
833,1258
785,1226
835,1245
693,1262
894,1185
893,1208
1343,1149
1192,1398
1191,1295
828,1318
829,1304
780,1287
830,1299
779,1301
782,1251
529,1402
886,1272
596,1403
556,1423
598,1333
597,1391
526,1470
555,1469
525,1496
524,1509
523,1510
688,1292
607,1300
650,1331
651,1284
652,1289
737,1252
694,1260
695,1267
645,1307
646,1273
690,1265
600,1312
599,1320
781,1265
736,1265
558,1377
644,1309
643,1303
648,1314
692,1259
691,1254
513,1347
541,1257
540,1328
568,1315
530,1429
831,1284
559,1398
560,1420
642,1448
557,1413
496,1541
471,1590
444,1662
446,1619
528,1406
527,1433
562,1396
602,1327
734,1288
466,1331
464,1313
463,1327
478,1522
481,1438
480,1469
479,1499
647,1268
488,1341
502,1452
689,1288
533,1442
532,1393
531,1417
601,1399
484,1423
508,1434
510,1389
509,1461
534,1442
482,1465
506,1458
606,1415
455,1556
429,1454
456,1609
457,1606
428,1540
458,1480
554,1509
594,1544
640,1523
639,1546
551,1541
681,1565
636,1577
635,1602
590,1601
778,1325
777,1332
485,1444
486,1358
462,1382
563,1477
885,1304
943,1333
564,1411
641,1489
504,1473
503,1499
501,1462
500,1520
561,1524
254,1405
350,1346
321,1394
319,1393
251,1434
375,1348
347,1381
687,1309
565,1444
539,1375
511,1370
536,1407
649,1354
603,1371
605,2846
733,1307
735,1277
489,1358
514,1347
461,1545
460,1512
459,1497
468,1225
154,1598
178,1561
203,1531
228,1510
402,1399
401,1420
505,1477
522,1542
451,1617
452,1588
477,1528
476,1475
483,1509
884,1354
431,1344
430,1477
454,1547
595,1470
395,1598
394,1646
422,1826
417,1658
390,1643
538,1422
567,1391
426,1622
397,1553
398,1594
499,1656
475,1596
497,1588
498,1610
311,1447
342,1475
345,1383
421,1716
515,1341
472,1641
448,1672
473,1696
474,1739
353,1431
381,1379
256,1556
290,1531
324,1485
380,1443
407,1370
253,1428
226,1528
201,1542
177,1597
824,1432
775,1377
826,1339
939,1387
936,2758
937,1415
880,1525
566,1488
2821,65535
2834,65535
2833,65535
2789,65535
2790,65535
2770,65535
2788,65535
2776,65535
2795,65535
2775,65535
2794,65535
2825,65535
2824,65535
2826,65535
2811,65535
2812,65535
2796,65535
2827,65535
2858,65535
2855,65535
2849,65535
2838,65535
2814,65535
2813,65535
2828,65535
2839,65535
2791,65535
2792,65535
2803,65535
2830,65535
2815,65535
2819,65535
2818,65535
2817,65535
2831,65535
2810,65535
2829,65535
2783,65535
2820,65535
2804,65535
2785,65535
2784,65535
2762,65535
2768,65535
2751,65535
2750,65535
2733,65535
2769,65535
2720,65535
2761,65535
2741,65535
2837,65535
2793,65535
2808,65535
2753,65535
2736,65535
2735,65535
2809,65535
2772,65535
2845,65535
2844,65535
2848,65535
2777,65535
2778,65535
2779,65535
2759,65535
2780,65535
2797,65535
2843,65535
2832,65535
2842,65535
2758,65535
2738,65535
2774,65535
2773,65535
2771,65535
2851,65535
2847,65535
2854,65535
2721,65535
2756,65535
2737,65535
2840,65535
2752,65535
2754,65535
2755,65535
2852,65535
2853,65535
2856,65535
2841,65535
2742,65535
2727,65535
2744,65535
2726,65535
2743,65535
2725,65535
2746,65535
2787,65535
2766,65535
2763,65535
2765,65535
2745,65535
2764,65535
2552,65535
2501,65535
2443,65535
2442,65535
2320,65535
2381,65535
2382,65535
2498,65535
2499,65535
2438,65535
2439,65535
2497,65535
2441,65535
2379,65535
2380,65535
2319,65535
2551,65535
2550,65535
2563,2757
2321,2293
2322,2262
2383,2274
2384,2480
2446,2522
2445,2529
2503,2548
2385,2513
2504,2878
2505,2900
2557,2924
2558,2949
2559,2973
2560,2937
2564,3105
2562,2825
2561,2865
2605,2880
2609,3152
2565,3228
2566,3244
2515,3255
2397,1639
2457,3285
2458,3307
2401,1716
2337,1552
2336,1556
2399,1598
2398,1619
2402,1776
2333,1776
2273,1811
2219,1835
2218,1847
2159,1872
2454,2464
2393,2430
2512,2724
2502,2716
2608,3143
2156,1994
2155,2026
2154,2055
2213,2071
2212,2083
2211,2131
2210,2172
2264,2179
2324,2213
2323,2229
2030,65535
2094,65535
2157,1958
2450,3121
2388,3170
2387,3238
2326,3275
2266,3310
2265,2654
2508,3092
2396,1708
2335,1726
2334,1737
2158,1897
2279,3866
2278,3830
2222,3799
2221,3781
2276,3763
2275,1243
2261,2486
2207,2523
2149,65535
2554,2606
2599,2638
2633,2684
2664,4371
2689,4429
2690,4535
2691,4573
2692,4606
2152,2167
2089,2246
2088,2234
2025,2379
2603,65535
2602,65535
2556,65535
2693,65535
2671,65535
2670,65535
2694,65535
2553,65535
2665,65535
2705,65535
2710,65535
2668,65535
2639,65535
2463,1786
2521,1822
2572,1845
2451,3006
2390,2975
2391,2795
2392,2758
2215,3000
2268,65535
2093,65535
2092,65535
2028,65535
2024,4057
2150,3483
2086,3531
2209,3465
2023,3633
2087,3586
2148,3799
2262,2472
2327,65535
1560,1245
1630,1333
1631,1296
1559,1302
1629,1390
1558,1353
1634,1253
1633,1259
1482,1279
1481,1259
1699,1332
1700,1381
1701,1303
1563,1239
2070,1695
2008,1647
2009,1644
1959,1632
1958,1658
2006,1689
1957,1670
1956,1622
2193,1762
2132,1701
1912,1639
1911,1622
1865,1444
1866,1527
2007,1677
2069,1711
2010,1653
2011,1669
1961,1648
2072,1669
1913,1586
1867,1579
1962,1673
1914,1680
1915,1723
1909,1574
1636,1276
1635,1280
1564,1253
1702,1346
1637,1270
1638,1290
1565,1240
1486,1206
1760,1363
1704,1300
1703,1286
1763,1374
1762,1357
1817,1404
1705,1398
1863,1444
1815,1411
1759,1457
863,1585
758,1673
808,1629
982,1144
1036,1134
1099,1032
1100,1253
1166,1597
1167,1647
1237,1739
1238,1767
1375,1848
1308,1806
1309,1827
1236,1704
1235,1683
1101,1284
1037,1222
971,1292
1025,1282
1026,1265
1027,1285
1089,1250
720,1630
674,1676
864,1554
865,1529
919,1306
1024,1255
975,1419
974,1357
1028,1353
873,1441
925,1472
924,1493
917,1370
918,1346
623,1845
712,1720
713,1754
667,1759
622,1815
809,1615
719,1602
765,1559
972,1306
868,1506
869,1518
815,1539
920,1414
973,1321
981,1219
926,1418
927,1410
928,1358
1354,1137
1288,1161
1218,1157
1152,1202
1023,1209
1353,1122
1085,1167
1148,460
1147,453
1082,430
772,1656
771,1613
819,1588
584,1750
628,1717
629,1744
1033,1469
978,1506
1031,1543
1030,1514
1029,1496
1091,1473
1035,1388
1034,1410
979,1497
1526,2390
1449,2428
1378,2456
1448,2379
1524,2357
1038,1268
1447,2420
1768,1542
1710,1492
1767,1458
391,1621
365,1615
339,1521
400,1486
393,1693
392,1670
396,1611
399,1605
443,1711
449,1714
450,1778
419,1633
414,1713
415,1675
387,1720
388,1731
389,1668
282,1474
281,1461
314,1483
313,1536
405,1309
411,2674
442,2633
255,1451
376,1442
373,1480
278,1465
275,1530
248,1648
335,1639
334,1613
306,1585
307,1561
176,1590
225,1601
320,1370
249,1515
287,1456
285,1435
776,1337
731,1399
315,1418
316,1400
204,1548
440,1290
439,1337
166,2865
269,2782
383,2720
1247,65535
1246,65535
1384,65535
1679,65535
1178,65535
1105,4009
1172,4028
1173,4078
1242,4080
1241,4072
1314,4229
1313,4135
1171,4054
1382,4335
1243,4277
1317,4416
1107,4017
1108,4196
1109,4481
1041,4026
1043,4236
1042,4227
1044,4290
1176,65535
1174,4303
1177,65535
1110,65535
985,4072
986,4115
932,4133
774,1430
730,1413
825,1452
728,1440
729,1436
727,1538
682,1476
684,1458
685,1438
732,1421
683,2302
2134,2215
2194,2244
2068,2171
2129,2225
1905,1506
1907,1529
1906,1513
1953,1533
2002,1564
2064,1601
2125,1608
2137,2356
2196,2312
2195,2267
1859,1500
1810,1490
1755,1450
2131,1726
2192,1740
1862,1521
1861,1560
1812,1513
1860,1537
1809,1563
1756,1406
1869,1604
1822,1500
1821,1479
1916,1642
1819,1431
1764,1407
1820,1515
1698,1347
1757,1363
1566,1231
1567,1193
1488,1168
1489,1210
1412,1218
1413,1280
1414,1178
1818,1444
1568,1417
1410,1102
2128,2256
2189,2283
2066,2221
2065,2210
2067,2222
1643,1412
1571,1345
1491,1260
2004,2251
2003,1650
1697,1432
2135,2237
2075,2197
1642,1381
1955,1550
2130,2440
2005,1730
1858,1504
1816,3688
1864,3681
1766,1452
1910,1614
1868,1595
2188,2635
2127,2604
1903,1703
2001,1627
2063,2262
2062,2274
1813,1476
1758,1456
1639,1339
1640,1358
1952,1586
2126,3770
1569,1344
1965,1749
1966,1795
2014,1812
1490,1272
1917,1656
1870,1524
1871,1534
1570,1308
1707,1404
2076,1878
2013,2246
1964,1683
1487,1151
1908,1835
2251,65535
2199,65535
2198,65535
2136,2260
1641,1513
1954,2266
1765,1425
1857,1525
2187,1885
1904,1681
1856,1605
1951,1694
1708,2283
245,3999
244,3982
357,3986
246,4114
247,4143
197,4237
223,4215
44,4579
43,4639
3,4775
23,4749
22,4738
63,4521
85,4463
84,4418
108,3918
149,3872
172,4263
296,3966
294,4014
355,4114
354,4146
326,4224
295,4123
291,4135
293,4257
260,4143
356,4174
441,3774
412,3797
329,4132
300,4076
148,3846
214,4084
146,3967
110,4048
262,4109
258,4522
292,4285
257,4587
235,4107
187,4007
212,4063
211,4090
186,4011
162,3985
161,4064
165,3963
189,4163
238,4244
237,4209
263,4145
265,4164
266,4142
267,4130
268,3970
26,4739
25,4707
105,65535
62,65535
83,65535
126,4085
175,4520
152,4454
151,4444
150,4403
103,4023
242,3916
191,3870
192,3921
217,3944
218,3997
145,3907
144,3991
167,3899
190,3877
219,4014
159,4111
185,4055
158,4168
188,3999
160,4076
143,65535
122,65535
75,65535
54,65535
198,4648
270,4011
221,4052
301,4109
302,3946
330,3973
331,3995
115,4047
133,4106
139,4003
134,4080
114,4604
48,65535
69,65535
92,4280
164,4073
4,65535
107,4425
129,4510
109,3950
125,3991
124,3965
127,65535
82,65535
67,65535
91,4448
93,4247
137,4382
113,4402
112,4360
136,65535
49,65535
72,65535
71,65535
406,1468
805,2290
858,2095
859,2236
967,597
1142,369
1080,1935
1022,1976
1079,1968
968,2091
1206,357
915,2242
916,2277
914,2214
807,2329
911,3436
1078,2192
1207,346
1278,302
1277,307
1344,297
1415,247
1492,192
1345,292
1346,242
1208,347
1209,339
1143,373
1144,389
1145,419
1417,225
1493,156
1494,149
1572,63
1081,2261
970,2464
408,1409
382,1402
437,1343
467,1311
409,1384
403,1374
432,1584
433,1351
404,1378
352,1531
351,1546
349,1384
317,1482
374,1403
346,1687
283,1473
410,1358
438,1377
465,1408
490,1403
491,1345
435,1355
436,1380
379,1625
323,1764
289,1593
377,1427
378,1353
592,1564
593,1605
552,1520
445,1636
424,1632
423,1634
416,2377
361,1682
362,1694
371,1583
372,1562
343,1516
344,1556
286,1435
227,1504
252,1440
284,1464
318,1489
250,1492
312,1488
340,1454
368,1541
369,1611
370,1600
341,1467
367,1502
308,1614
276,1579
277,1560
280,1518
310,1487
338,1590
366,1672
274,1659
305,1597
420,1699
363,1754
418,1640
550,2281
579,2304
576,2249
577,2261
578,2277
520,2257
618,2271
662,2301
619,2288
620,2301
621,2295
665,2277
666,2269
664,2297
580,2316
2260,65535
2257,65535
2206,65535
2146,65535
2314,65535
2313,65535
2312,65535
2373,65535
2256,65535
2205,65535
2434,65535
2435,65535
2375,65535
2376,65535
2433,65535
2491,65535
2490,65535
2492,65535
2546,65535
2597,65535
2596,65535
2544,65535
2145,65535
2082,65535
2020,65535
2494,65535
0,65535
11,65535
1052,3028
1053,3015
941,3055
1740,2461
1796,2535
1615,2319
1681,2396
1545,2200
1797,2575
1544,2275
1741,2553
1795,2856
1617,2220
1546,2206
1616,2237
1683,2341
1467,1595
1547,1650
1465,2180
1387,2247
1388,1733
1464,2264
1462,3019
1461,3040
1542,3104
1463,2983
1682,2528
1543,2396
1618,2277
1742,2654
1460,3206
1248,2262
1850,1657
1801,2178
1803,1636
882,1339
881,1348
938,1398
883,1359
940,3798
1998,2175
1902,1849
1807,1506
1691,1547
1694,1453
1693,2272
1749,1578
1752,1527
1753,1484
1627,1431
1628,1401
1557,1379
1479,1283
1402,1270
1808,1495
1946,2395
1947,2340
1948,2244
1997,2130
1855,1540
1690,1526
2060,2350
1949,2399
1950,1887
1751,1538
1692,1589
1999,2191
1901,2256
1900,2206
1852,2178
1853,2140
1805,1654
1750,1583
1854,1849
1806,1648
1748,1615
2061,2300
2000,2254
1804,1659
1899,2227
2884,65535
2892,65535
2883,65535
2876,65535
2874,65535
2882,65535
2877,65535
2911,65535
2905,65535
2906,65535
2896,65535
2887,65535
2881,65535
2880,65535
2888,65535
2902,65535
2903,65535
2907,65535
2912,65535
2895,65535
2894,65535
2875,65535
2885,65535
2893,65535
2904,65535
2865,65535
2866,65535
2909,65535
2913,65535
2886,65535
2878,65535
2869,65535
2871,65535
2872,65535
2879,65535
2870,65535
1330,1355
1331,1280
1401,1276
1262,1271
1263,1264
1478,1317
1403,1247
1261,1326
1480,1307
1264,1306
1390,1574
1389,1642
1319,1624
1251,1668
1250,1737
1285,425
1284,407
1214,422
1146,437
1505,1173
1504,1106
1582,1159
1581,885
1713,364
1771,336
1654,556
1653,522
1651,435
2096,1121
2033,1083
1972,1051
1923,995
1922,973
1874,904
1873,1108
1919,848
1829,1334
1579,302
1424,336
1711,319
1348,293
1419,330
1359,1291
1429,1242
1428,1228
1421,245
1577,260
1499,221
1230,982
1365,885
1511,794
1300,964
1366,936
1512,819
1716,624
1503,1211
1276,1478
1347,272
1349,330
1645,313
1578,290
1770,332
1715,409
1150,1124
1217,1135
1149,1100
1580,349
1352,523
1502,385
1825,775
1718,727
1717,691
1872,815
1656,1028
1648,415
1712,356
1213,1050
1212,1092
1084,470
1420,359
1281,282
1282,1216
1587,1116
1586,1086
1585,1076
1652,981
1427,1142
1975,1161
1977,1241
1932,1347
1931,1660
1426,1120
1422,238
1425,1108
1583,1131
1501,317
1283,386
1286,1140
1215,1016
1211,295
1210,303
1083,441
1655,1030
2220,1221
1355,1372
1772,344
1436,1057
1435,1089
1589,1121
1163,1015
1735,1523
1791,1470
1841,1450
1840,1436
1219,1277
1220,1319
1647,341
1646,333
1279,422
1714,386
1575,1035
1576,997
1498,183
1573,0
1496,122
1497,169
2177,2762
2176,2827
2294,2887
2293,2908
2237,2868
2236,2890
2364,2738
2302,2668
2301,2649
2245,2604
2056,2477
2057,2641
2055,2472
2184,2811
2120,2734
2244,2431
2538,2939
2537,2919
2591,2956
1940,2780
1989,2764
1990,2720
2539,2962
2482,2968
2483,2937
2424,2932
2121,2913
2119,2449
2050,2859
2049,2881
2048,2943
2185,2806
2243,2444
2299,2669
2241,2669
2485,2899
2542,3011
2353,2954
2292,2930
2419,2828
2478,2836
2479,2853
2536,2880
2484,2954
2486,2847
2354,2878
2416,2970
2242,2491
2355,2845
2300,2798
1991,2803
1992,2544
2477,2879
2534,2914
2535,2870
2588,2935
2587,2950
2630,2990
2051,2626
2116,2594
2175,2878
2586,65535
2541,3082
2178,2728
2179,2699
2240,2699
2239,2770
2238,2825
2052,2670
2053,2765
1987,2848
1988,2768
1939,2774
2594,3084
2593,3056
2358,2726
2357,2769
2420,2879
2247,3061
2427,2832
2428,2890
2181,2489
2180,2541
2417,2858
2590,2935
2297,2702
2361,2926
2362,2870
2423,2905
2422,2764
2174,2971
2356,2835
1941,2802
2365,3147
2112,2899
2047,2965
2182,2501
2359,2692
2533,3211
2295,3051
2115,2637
2632,3061
2631,3000
2186,2768
2298,2529
2360,2584
2235,3661
2291,3674
2487,3070
2246,2989
2425,3126
2117,3087
2543,3097
1893,65535
2421,2972
2476,2886
2592,3071
604,2266
