middle_point_id,reach_time_minutes
2835,65535
2836,65535
2806,65535
2822,65535
2823,65535
2807,65535
2846,65535
887,917
888,897
1326,815
1185,893
999,920
1057,1157
1552,865
1120,910
1473,879
944,1018
832,899
1257,775
1396,919
1622,895
1327,3784
1184,925
1183,970
1324,1111
1255,1191
1394,1122
1252,1007
1253,985
1182,980
1328,65535
1470,1069
1321,1058
1322,1041
1323,2405
1391,1117
1551,892
1393,1043
1472,976
1471,1010
1181,2774
1118,1019
1059,555
1121,583
1469,1245
1468,1141
1548,1185
1325,1045
1625,735
1623,834
1258,570
1256,851
791,516
891,560
703,534
704,517
660,525
1553,888
1624,781
1554,954
1474,898
1475,947
1550,959
1549,1134
1320,1086
1466,1161
1541,2515
1318,1199
1249,1221
1186,889
1003,536
1002,553
741,780
788,537
434,986
697,633
752,499
1056,972
1006,432
907,431
518,831
1011,337
1000,873
1055,1502
997,1382
994,1288
996,1376
995,1363
991,1332
1112,65535
1114,1334
1051,1315
1398,1692
1395,930
1001,568
1811,759
1960,774
1769,146
1823,136
1329,65535
1332,458
1259,955
1200,235
1199,233
1140,384
1141,381
783,886
1689,924
1802,920
1945,1436
2183,1918
2418,2367
1994,1472
1995,1868
2059,997
1621,65535
1555,816
1754,559
1180,2303
1106,2470
933,2726
827,1028
2122,1723
2124,997
493,870
519,835
544,829
545,833
494,852
470,892
543,870
469,934
517,848
574,925
573,813
495,896
546,852
613,562
612,801
492,856
572,859
571,960
570,944
610,915
575,956
547,878
516,1002
611,921
542,978
569,980
609,945
548,2229
549,2264
1404,364
1405,326
1266,299
1193,347
743,581
742,578
747,534
746,521
745,534
744,563
790,525
789,531
839,542
838,537
738,883
739,846
740,819
890,806
834,900
784,893
889,853
856,552
855,482
854,495
853,476
852,467
910,474
909,463
908,438
964,427
965,466
1020,911
966,468
963,411
1021,535
1271,226
1270,228
1339,247
1338,260
1071,303
1072,267
1135,247
1408,283
1337,277
1269,255
1268,280
1136,248
1075,309
1077,378
1076,355
1019,342
1018,333
1074,272
1137,264
1272,206
1274,217
1275,230
1205,332
1204,317
1273,227
1198,256
1197,285
1341,174
1134,252
1133,259
1069,301
1132,294
1073,263
1203,260
1202,284
1201,226
1139,323
1267,286
1138,296
1340,218
1196,311
1342,126
1409,259
1485,279
1407,323
1561,269
1632,284
1484,314
1483,278
1562,242
1194,316
1130,310
1195,312
1335,303
1129,330
1066,335
1128,431
1067,353
1131,299
1334,432
1336,314
1265,335
1333,422
1406,326
857,948
803,982
804,2239
860,2247
969,2200
913,2187
912,2125
861,2257
806,2300
659,528
751,508
658,547
705,538
702,556
706,509
753,484
614,544
701,574
661,542
616,548
848,421
796,503
797,440
798,433
750,499
707,498
615,941
748,534
845,428
846,493
657,552
749,526
795,475
617,912
663,506
794,944
847,452
849,450
902,428
901,403
900,411
793,505
899,468
898,491
897,546
844,442
842,515
841,513
956,395
792,510
843,486
840,550
850,453
903,417
800,467
755,503
756,910
710,973
711,1018
962,390
961,396
904,406
906,424
851,447
802,484
801,499
799,483
959,452
1014,334
1013,372
708,1794
709,1822
754,521
757,971
1017,281
1016,273
960,427
905,456
958,387
957,405
1070,316
1015,296
1012,320
1068,335
1005,469
1004,497
1060,548
1063,462
1065,407
1127,467
1062,465
1124,482
1123,518
1125,470
1188,510
1122,575
1058,572
947,833
946,849
949,514
945,887
948,551
1190,938
1187,913
951,439
895,473
952,424
1009,375
1008,401
1010,357
1007,417
1061,518
954,517
896,471
953,436
1126,494
1064,447
1189,568
955,498
950,499
892,565
786,584
836,580
837,550
787,548
700,605
655,858
654,811
653,803
698,606
699,584
608,873
696,942
656,867
833,898
785,868
835,885
693,870
894,499
893,550
1343,213
1192,914
1191,550
828,1018
829,1004
780,950
830,999
779,1016
782,891
529,1046
886,933
596,1089
556,1117
598,1020
597,1043
526,1113
555,1132
525,1149
524,1226
523,1127
688,935
607,940
650,1029
651,910
652,924
737,896
694,902
695,927
645,947
646,943
690,918
600,952
599,959
781,905
736,905
558,1111
644,949
643,960
648,962
692,899
691,909
513,922
541,1017
540,1012
568,894
530,1069
831,924
559,1042
560,1075
642,1095
557,1096
496,1159
471,1212
444,1285
446,1230
528,1061
527,1076
562,1016
602,986
734,942
466,951
464,954
463,976
478,1219
481,1138
480,1168
479,1160
647,928
488,947
502,1099
689,928
533,1022
532,1044
531,1101
601,966
484,1101
508,1071
510,1094
509,1082
534,1063
482,1166
506,1224
606,1001
455,1271
429,1176
456,1405
457,1244
428,1167
458,1158
554,1192
594,1183
640,1163
639,1269
551,1150
681,1205
636,1220
635,1199
590,1186
778,1025
777,1032
485,1084
486,1065
462,1031
563,1089
885,944
943,968
564,1040
641,1129
504,1121
503,1139
501,1277
500,1344
561,1050
254,1105
350,1053
321,1175
319,1098
251,1138
375,1086
347,1270
687,979
565,1054
539,980
511,1076
536,1092
649,982
603,999
605,1406
733,967
735,917
489,1107
514,999
461,1090
460,1101
459,1121
468,971
154,1298
178,1260
203,1231
228,1150
402,1095
401,1129
505,1285
522,1150
451,1398
452,1348
477,1231
476,1300
483,1244
884,1102
431,1052
430,1123
454,1240
595,1110
395,1259
394,1286
422,1452
417,1266
390,1278
538,999
567,1113
426,1216
397,1197
398,1162
499,1313
475,1362
497,1230
498,1247
311,1156
342,1163
345,1120
421,1338
515,1267
472,1587
448,1548
473,1501
474,1379
353,1128
381,1076
256,1196
290,1171
324,1138
380,1134
407,1114
253,1143
226,1168
201,1181
177,1244
824,1196
775,1169
826,1039
939,1147
936,1318
937,1213
880,1061
566,1033
2821,65535
2834,65535
2833,65535
2789,65535
2790,65535
2770,65535
2788,65535
2776,65535
2795,65535
2775,65535
2794,65535
2825,65535
2824,65535
2826,65535
2811,65535
2812,65535
2796,65535
2827,65535
2858,65535
2855,65535
2849,65535
2838,65535
2814,65535
2813,65535
2828,65535
2839,65535
2791,65535
2792,65535
2803,65535
2830,65535
2815,65535
2819,65535
2818,65535
2817,65535
2831,65535
2810,65535
2829,65535
2783,65535
2820,65535
2804,65535
2785,65535
2784,65535
2762,65535
2768,65535
2751,65535
2750,65535
2733,65535
2769,65535
2720,65535
2761,65535
2741,65535
2837,65535
2793,65535
2808,65535
2753,65535
2736,65535
2735,65535
2809,65535
2772,65535
2845,65535
2844,65535
2848,65535
2777,65535
2778,65535
2779,65535
2759,65535
2780,65535
2797,65535
2843,65535
2832,65535
2842,65535
2758,65535
2738,65535
2774,65535
2773,65535
2771,65535
2851,65535
2847,65535
2854,65535
2721,65535
2756,65535
2737,65535
2840,65535
2752,65535
2754,65535
2755,65535
2852,65535
2853,65535
2856,65535
2841,65535
2742,65535
2727,65535
2744,65535
2726,65535
2743,65535
2725,65535
2746,65535
2787,65535
2766,65535
2763,65535
2765,65535
2745,65535
2764,65535
2552,65535
2501,65535
2443,65535
2442,65535
2320,65535
2381,65535
2382,65535
2498,65535
2499,65535
2438,65535
2439,65535
2497,65535
2441,65535
2379,65535
2380,65535
2319,65535
2551,65535
2550,65535
2563,65535
2321,65535
2322,65535
2383,65535
2384,65535
2446,65535
2445,65535
2503,65535
2385,65535
2504,65535
2505,65535
2557,65535
2558,65535
2559,65535
2560,65535
2564,65535
2562,65535
2561,65535
2605,65535
2609,65535
2565,65535
2566,65535
2515,4756
2397,4519
2457,4736
2458,4720
2401,65535
2337,4432
2336,4436
2399,4478
2398,4499
2402,65535
2333,4656
2273,4691
2219,4715
2218,4727
2159,4752
2454,65535
2393,65535
2512,65535
2502,65535
2608,65535
2156,65535
2155,65535
2154,65535
2213,65535
2212,65535
2211,65535
2210,65535
2264,65535
2324,65535
2323,65535
2030,65535
2094,65535
2157,65535
2450,65535
2388,65535
2387,65535
2326,65535
2266,65535
2265,65535
2508,65535
2396,4588
2335,4606
2334,4617
2158,4777
2279,65535
2278,65535
2222,65535
2221,65535
2276,65535
2275,3804
2261,65535
2207,65535
2149,65535
2554,65535
2599,65535
2633,65535
2664,65535
2689,65535
2690,65535
2691,65535
2692,65535
2152,65535
2089,65535
2088,65535
2025,65535
2603,65535
2602,65535
2556,65535
2693,65535
2671,65535
2670,65535
2694,65535
2553,65535
2665,65535
2705,65535
2710,65535
2668,65535
2639,65535
2463,65535
2521,65535
2572,65535
2451,65535
2390,65535
2391,65535
2392,65535
2215,65535
2268,65535
2093,65535
2092,65535
2028,65535
2024,65535
2150,65535
2086,65535
2209,65535
2023,65535
2087,65535
2148,65535
2262,65535
2327,65535
1560,276
1630,318
1631,289
1559,358
1629,411
1558,408
1634,237
1633,259
1482,354
1481,334
1699,306
1700,281
1701,252
1563,226
2070,838
2008,808
2009,788
1959,786
1958,809
2006,848
1957,844
1956,885
2193,947
2132,887
1912,794
1911,816
1865,848
1866,885
2007,881
2069,866
2010,843
2011,984
1961,743
2072,859
1913,981
1867,937
1962,734
1914,708
1915,320
1909,881
1636,175
1635,191
1564,204
1702,214
1637,168
1638,86
1565,184
1486,188
1760,284
1704,308
1703,213
1763,338
1762,258
1817,295
1705,184
1863,398
1815,365
1759,298
863,2768
758,2861
808,2812
982,2983
1036,2990
1099,3025
1100,3053
1166,3454
1167,3949
1237,3606
1238,3641
1375,3711
1308,3780
1309,3689
1236,3907
1235,3541
1101,3084
1037,3021
971,2564
1025,2547
1026,2562
1027,2575
1089,2588
720,2824
674,2870
864,2650
865,2671
919,2566
1024,2511
975,2685
974,2655
1028,2610
873,3010
925,2956
924,2933
917,2630
918,2606
623,3045
712,2917
713,2950
667,2955
622,3013
809,2798
719,2798
765,2759
972,2596
868,2708
869,2720
815,2739
920,2975
973,2641
981,2934
926,3035
927,3043
928,3067
1354,2560
1288,2501
1218,2477
1152,2546
1023,2475
1353,2574
1085,2455
1148,2385
1147,2378
1082,2329
772,3096
771,3053
819,3028
584,2944
628,2911
629,2900
1033,2831
978,2786
1031,2759
1030,2713
1029,2696
1091,2673
1035,2912
1034,2855
979,2813
1526,3830
1449,3868
1378,3896
1448,3819
1524,3797
1038,3068
1447,3860
1768,123
1710,188
1767,105
391,1262
365,1224
339,1212
400,1123
393,1334
392,1310
396,1220
399,1242
443,1350
449,1422
450,1398
419,1293
414,1480
415,1351
387,1344
388,1312
389,1297
282,1234
281,1225
314,1201
313,1182
405,1015
411,1494
442,1453
255,1198
376,1243
373,1258
278,1165
275,1288
248,1335
335,1399
334,1373
306,1345
307,1322
176,1228
225,1184
320,1182
249,1275
287,1156
285,1195
776,1039
731,1055
315,1181
316,1163
204,1264
440,1043
439,1002
166,2865
269,2782
383,2720
1247,65535
1246,65535
1384,65535
1679,65535
1178,3903
1105,2512
1172,2528
1173,2504
1242,3092
1241,2570
1314,3127
1313,3154
1171,2553
1382,4335
1243,2586
1317,4416
1107,2755
1108,3054
1109,3108
1041,2563
1043,3818
1042,3739
1044,4290
1176,3804
1174,4303
1177,3852
1110,3859
985,2632
986,2675
932,2693
774,1190
730,1079
825,1212
728,1166
729,1136
727,1178
682,1181
684,1098
685,1078
732,1061
683,2302
2134,963
2194,985
2068,1075
2129,1130
1905,824
1907,912
1906,877
1953,873
2002,914
2064,956
2125,971
2137,1121
2196,1075
2195,1022
1859,785
1810,775
1755,531
2131,940
2192,978
1862,800
1861,764
1812,743
1860,893
1809,775
1756,381
1869,198
1822,149
1821,182
1916,263
1819,300
1764,221
1820,248
1698,328
1757,369
1566,125
1567,95
1488,152
1489,226
1412,118
1413,180
1414,245
1818,348
1568,217
1410,203
2128,1177
2189,1204
2066,1286
2065,1389
2067,1127
1643,158
1571,135
1491,100
2004,1296
2003,1252
1697,930
2135,1114
2075,1138
1642,118
1955,974
2130,1477
2005,888
1858,793
1816,3688
1864,3681
1766,98
1910,861
1868,258
2188,1411
2127,1380
1903,805
2001,957
2063,1404
2062,1212
1813,703
1758,464
1639,50
1640,0
1952,927
2126,3770
1569,23
1965,309
1966,355
2014,1089
1490,75
1917,221
1870,205
1871,219
1570,124
1707,48
2076,1156
2013,1094
1964,1047
1487,174
1908,963
2251,65535
2199,65535
2198,65535
2136,1163
1641,73
1954,1048
1765,866
1857,889
2187,984
1904,1029
1856,777
1951,879
1708,1308
245,3999
244,3982
357,3986
246,4114
247,4143
197,4237
223,4215
44,4579
43,4639
3,4775
23,4749
22,4738
63,4521
85,4463
84,4418
108,3918
149,3872
172,4263
296,3966
294,4014
355,4114
354,4146
326,4224
295,4123
291,4135
293,4257
260,4143
356,4174
441,3774
412,3797
329,4132
300,4076
148,3846
214,4084
146,3967
110,4048
262,4109
258,4522
292,4285
257,4587
235,4107
187,4007
212,4063
211,4090
186,4011
162,3985
161,4064
165,3963
189,4163
238,4244
237,4209
263,4145
265,4164
266,4142
267,4130
268,3970
26,4739
25,4707
105,65535
62,65535
83,65535
126,4085
175,4520
152,4454
151,4444
150,4403
103,4023
242,3916
191,3870
192,3921
217,3944
218,3997
145,3907
144,3991
167,3899
190,3877
219,4014
159,4111
185,4055
158,4168
188,3999
160,4076
143,65535
122,65535
75,65535
54,65535
198,4648
270,4011
221,4052
301,4109
302,3946
330,3973
331,3995
115,4047
133,4106
139,4003
134,4080
114,4604
48,65535
69,65535
92,4280
164,4073
4,65535
107,4425
129,4510
109,3950
125,3991
124,3965
127,65535
82,65535
67,65535
91,4448
93,4247
137,4382
113,4402
112,4360
136,65535
49,65535
72,65535
71,65535
406,1228
805,2290
858,2095
859,2236
967,1972
1142,2109
1080,2115
1022,2106
1079,2124
968,2091
1206,2085
915,2242
916,2277
914,2214
807,2329
911,3436
1078,2192
1207,2184
1278,2228
1277,2231
1344,2251
1415,2292
1492,2347
1345,2308
1346,2278
1208,2176
1209,2256
1143,2293
1144,2309
1145,2324
1417,2304
1493,2364
1494,2383
1572,2398
1081,2261
970,2464
408,1100
382,1099
437,988
467,1017
409,1084
403,1129
432,1123
433,1134
404,1036
352,1162
351,1142
349,1137
317,1329
374,1228
346,1247
283,1242
410,1046
438,1062
465,972
490,1011
491,1106
435,1055
436,1000
379,1595
323,1321
289,1352
377,1069
378,1091
592,1353
593,1379
552,1149
445,1277
424,1331
423,1313
416,2377
361,1412
362,1347
371,1342
372,1326
343,1516
344,1556
286,1435
227,1143
252,1166
284,1188
318,1190
250,1192
312,1243
340,1213
368,1242
369,1233
370,1242
341,1237
367,1260
308,1315
276,1308
277,1288
280,1278
310,1187
338,1233
366,1277
274,1349
305,1413
420,1329
363,1393
418,1336
550,2281
579,2304
576,2249
577,2261
578,2277
520,2257
618,2271
662,2301
619,2288
620,2301
621,2295
665,2277
666,2269
664,2297
580,2316
2260,65535
2257,65535
2206,65535
2146,65535
2314,65535
2313,65535
2312,65535
2373,65535
2256,65535
2205,65535
2434,65535
2435,65535
2375,65535
2376,65535
2433,65535
2491,65535
2490,65535
2492,65535
2546,65535
2597,65535
2596,65535
2544,65535
2145,65535
2082,65535
2020,65535
2494,65535
0,65535
11,65535
1052,1468
1053,1455
941,1440
1740,2461
1796,2535
1615,2319
1681,2396
1545,2200
1797,2575
1544,2275
1741,2553
1795,2856
1617,2220
1546,2206
1616,2237
1683,2341
1467,1113
1547,1178
1465,2180
1387,2247
1388,1161
1464,2264
1462,3019
1461,3040
1542,2931
1463,2983
1682,2528
1543,2396
1618,2277
1742,2654
1460,2730
1248,2262
1850,952
1801,2178
1803,916
882,1039
881,1048
938,1158
883,1059
940,2358
1998,890
1902,861
1807,737
1691,851
1694,973
1693,832
1749,876
1752,786
1753,798
1627,763
1628,921
1557,814
1479,741
1402,471
1808,710
1946,1075
1947,1010
1948,997
1997,904
1855,753
1690,877
2060,1077
1949,959
1950,881
1751,791
1692,820
1999,886
1901,1310
1900,1337
1852,1605
1853,1484
1805,934
1750,839
1854,1250
1806,992
1748,907
2061,1124
2000,913
1804,927
1899,1625
2884,65535
2892,65535
2883,65535
2876,65535
2874,65535
2882,65535
2877,65535
2911,65535
2905,65535
2906,65535
2896,65535
2887,65535
2881,65535
2880,65535
2888,65535
2902,65535
2903,65535
2907,65535
2912,65535
2895,65535
2894,65535
2875,65535
2885,65535
2893,65535
2904,65535
2865,65535
2866,65535
2909,65535
2913,65535
2886,65535
2878,65535
2869,65535
2871,65535
2872,65535
2879,65535
2870,65535
1330,526
1331,475
1401,474
1262,512
1263,508
1478,497
1403,409
1261,900
1480,743
1264,736
1390,1093
1389,1152
1319,1130
1251,1185
1250,1261
1285,2401
1284,2406
1214,2378
1146,2344
1505,2627
1504,2561
1582,2599
1581,2527
1713,2506
1771,2488
1654,2638
1653,2611
1651,2563
2096,3742
2033,3702
1972,3673
1923,3605
1922,3583
1874,3277
1873,2990
1919,2943
1829,3954
1579,2463
1424,2504
1711,2480
1348,2304
1419,2324
1359,2731
1429,2682
1428,2668
1421,2381
1577,2415
1499,2388
1230,2975
1365,2912
1511,2834
1300,2957
1366,2929
1512,2862
1716,2696
1503,2973
1276,2258
1347,2288
1349,2336
1645,2472
1578,2450
1770,2484
1715,2539
1150,2443
1217,2457
1149,2419
1580,2509
1352,2496
1502,2527
1825,2896
1718,2851
1717,2825
1872,2929
1656,2740
1648,2515
1712,2492
1213,2368
1212,2349
1084,2390
1420,2370
1281,2294
1282,2355
1587,2734
1586,2701
1585,2690
1652,2658
1427,2836
1975,3777
1977,3845
1932,3915
1931,4540
1426,2556
1422,2398
1425,2541
1583,2627
1501,2485
1283,2396
1286,2443
1215,2428
1211,2325
1210,2299
1083,2361
1655,2729
2220,3783
1355,65535
1772,2497
1436,2880
1435,2870
1589,2803
1163,3008
1735,4128
1791,4061
1841,4038
1840,3994
1219,2560
1220,2599
1647,2501
1646,2493
1279,2246
1714,2516
1575,2475
1576,2437
1498,2445
1573,2487
1496,2505
1497,2476
2177,2485
2176,2555
2294,2472
2293,2591
2237,2532
2236,2561
2364,2333
2302,2273
2301,2195
2245,2097
2056,2227
2057,2313
2055,2206
2184,2258
2120,2264
2244,2178
2538,2518
2537,2499
2591,2615
1940,2390
1989,2398
1990,2334
2539,2518
2482,2509
2483,2471
2424,2367
2121,2325
2119,2138
2050,2447
2049,2525
2048,2943
2185,2291
2243,2017
2299,2231
2241,2180
2485,2549
2542,2604
2353,2563
2292,2470
2419,2357
2478,2404
2479,2439
2536,2466
2484,2510
2486,2503
2354,2402
2416,2579
2242,2225
2355,2440
2300,2238
1991,2338
1992,2345
2477,2395
2534,2416
2535,2531
2588,2436
2587,2450
2630,2501
2051,2259
2116,2153
2175,2588
2586,65535
2541,2671
2178,2460
2179,2263
2240,2210
2239,2434
2238,2504
2052,2390
2053,2356
1987,2630
1988,2478
1939,2502
2594,2621
2593,2606
2358,2324
2357,2334
2420,2390
2247,2386
2427,2476
2428,2498
2181,2057
2180,2106
2417,2384
2590,2596
2297,2219
2361,2411
2362,2294
2423,2382
2422,2347
2174,2818
2356,2445
1941,2379
2365,2510
2112,2823
2047,2965
2182,2196
2359,2273
2533,3211
2295,2536
2115,2226
2632,2656
2631,2595
2186,1756
2298,2305
2360,2329
2235,2781
2291,2794
2487,2725
2246,2318
2425,3126
2117,2450
2543,2678
1893,65535
2421,2482
2476,2400
2592,2654
604,2266
