middle_point_id,reach_time_minutes
2835,65535
2836,65535
2806,65535
2822,65535
2823,65535
2807,65535
2846,65535
887,1092
888,1067
1326,1060
1185,985
999,1010
1057,1157
1552,1225
1120,1013
1473,1235
944,1018
832,1053
1257,1035
1396,1199
1622,1255
1327,3784
1184,1015
1183,1029
1324,1231
1255,1311
1394,1367
1252,1195
1253,1156
1182,1100
1328,65535
1470,1380
1321,1194
1322,1161
1323,2405
1391,1237
1551,1252
1393,1403
1472,1515
1471,1309
1181,2774
1118,1139
1059,957
1121,974
1469,1365
1468,1300
1548,1352
1325,1165
1625,1132
1623,1197
1258,997
1256,1154
791,936
891,1029
703,999
704,997
660,1009
1553,1227
1624,1147
1554,1250
1474,1240
1475,1247
1550,1262
1549,1374
1320,1252
1466,1348
1541,2515
1318,1366
1249,1389
1186,1030
1003,954
1002,963
741,994
788,962
434,1119
697,1011
752,992
1056,1030
1006,885
907,915
518,1071
1011,547
1000,998
1055,1502
997,1382
994,1288
996,1376
995,1363
991,1332
1112,65535
1114,1334
1051,1315
1398,1692
1395,1290
1001,968
1811,962
1960,774
1769,97
1823,123
1329,65535
1332,906
1259,1160
1200,452
1199,453
1140,858
1141,862
783,1043
1689,1279
1802,1340
1945,1801
2183,2419
2418,2837
1994,1835
1995,1868
2059,1417
1621,65535
1555,1087
1754,1064
1180,2303
1106,2470
933,2726
827,1148
2122,2659
2124,1499
493,1082
519,1075
544,1069
545,1073
494,1084
470,1127
543,1083
469,1114
517,1088
574,1081
573,1048
495,1120
546,1089
613,1012
612,1023
492,1096
572,1052
571,1099
570,1124
610,1088
575,1136
547,1118
516,1160
611,1041
542,1111
569,1100
609,1083
548,2229
549,2264
1404,519
1405,484
1266,554
1193,827
743,973
742,980
747,977
746,941
745,952
744,977
790,941
789,950
839,978
838,968
738,1039
739,1009
740,1004
890,1026
834,1043
784,1033
889,1031
856,1019
855,960
854,968
853,955
852,947
910,952
909,943
908,938
964,911
965,938
1020,911
966,963
963,891
1021,1009
1271,449
1270,451
1339,460
1338,467
1071,783
1072,606
1135,490
1408,474
1337,494
1269,498
1268,534
1136,468
1075,852
1077,858
1076,871
1019,884
1018,875
1074,711
1137,696
1272,489
1274,557
1275,889
1205,932
1204,839
1273,526
1198,472
1197,538
1341,524
1134,480
1133,489
1069,519
1132,513
1073,501
1203,569
1202,531
1201,504
1139,820
1267,543
1138,896
1340,424
1196,530
1342,854
1409,883
1485,784
1407,889
1561,426
1632,468
1484,810
1483,421
1562,413
1194,546
1130,534
1195,532
1335,519
1129,605
1066,842
1128,919
1067,557
1131,521
1334,915
1336,527
1265,617
1333,895
1406,458
857,1788
803,1822
804,2239
860,2247
969,2200
913,2187
912,2125
861,2257
806,2300
659,1012
751,983
658,1005
705,1006
702,1000
706,1002
753,964
614,1016
701,987
661,1022
616,1028
848,901
796,976
797,920
798,913
750,991
707,1006
615,1061
748,1044
845,954
846,966
657,1066
749,1013
795,1002
617,1071
663,1046
794,983
847,932
849,930
902,905
901,910
900,904
793,974
899,948
898,969
897,997
844,973
842,958
841,925
956,763
792,950
843,1012
840,928
850,933
903,885
800,941
755,953
756,1003
710,1034
711,1138
962,929
961,917
904,900
906,904
851,927
802,958
801,948
799,963
959,867
1014,801
1013,830
708,1794
709,1822
754,975
757,1031
1017,538
1016,533
960,843
905,936
958,855
957,552
1070,782
1015,825
1012,543
1068,539
1005,895
1004,941
1060,951
1063,887
1065,856
1127,926
1062,914
1124,923
1123,943
1125,914
1188,948
1122,1008
1058,963
947,982
946,1011
949,966
945,1057
948,998
1190,938
1187,971
951,893
895,936
952,904
1009,902
1008,865
1010,576
1007,868
1061,973
954,589
896,853
953,873
1126,941
1064,871
1189,997
955,579
950,920
892,976
786,988
836,1009
837,981
787,973
700,1010
655,1052
654,1039
653,1030
698,1008
699,972
608,1074
696,999
656,1068
833,1048
785,1008
835,1040
693,1017
894,944
893,938
1343,863
1192,981
1191,995
828,1138
829,1124
780,1077
830,1119
779,1136
782,1050
529,1264
886,1062
596,1209
556,1237
598,1140
597,1163
526,1265
555,1257
525,1315
524,1283
523,1279
688,1090
607,1065
650,1055
651,1046
652,1109
737,1044
694,1029
695,1027
645,1099
646,1087
690,1068
600,1125
599,1126
781,1059
736,1049
558,1245
644,1117
643,1093
648,1076
692,1048
691,1051
513,1145
541,1137
540,1200
568,1254
530,1222
831,1070
559,1202
560,1307
642,1238
557,1267
496,1326
471,1383
444,1452
446,1416
528,1299
527,1298
562,1156
602,1126
734,1076
466,1211
464,1165
463,1207
478,1461
481,1312
480,1341
479,1439
647,1088
488,1220
502,1359
689,1073
533,1230
532,1257
531,1281
601,1152
484,1225
508,1268
510,1248
509,1262
534,1222
482,1412
506,1280
606,1235
455,1432
429,1208
456,1405
457,1386
428,1230
458,1307
554,1400
594,1311
640,1354
639,1365
551,1302
681,1414
636,1392
635,1380
590,1337
778,1145
777,1152
485,1204
486,1192
462,1151
563,1236
885,1076
943,1093
564,1336
641,1265
504,1274
503,1301
501,1462
500,1488
561,1281
254,1213
350,1166
321,1189
319,1214
251,1254
375,1180
347,1270
687,1099
565,1293
539,1189
511,1249
536,1289
649,1153
603,1294
605,1406
733,1094
735,1064
489,1227
514,1188
461,1545
460,1512
459,1445
468,1142
154,1364
178,1310
203,1295
228,1265
402,1235
401,1247
505,1285
522,1304
451,1501
452,1588
477,1507
476,1475
483,1244
884,1102
431,1226
430,1307
454,1509
595,1237
395,1387
394,1425
422,1452
417,1432
390,1411
538,1172
567,1113
426,1478
397,1322
398,1342
499,1427
475,1511
497,1353
498,1370
311,1274
342,1335
345,1290
421,1524
515,1267
472,1641
448,1672
473,1696
474,1739
353,1222
381,1200
256,1316
290,1291
324,1259
380,1246
407,1203
253,1255
226,1287
201,1300
177,1357
824,1316
775,1262
826,1159
939,1207
936,1318
937,1304
880,1272
566,1280
2821,65535
2834,65535
2833,65535
2789,65535
2790,65535
2770,65535
2788,65535
2776,65535
2795,65535
2775,65535
2794,65535
2825,65535
2824,65535
2826,65535
2811,65535
2812,65535
2796,65535
2827,65535
2858,65535
2855,65535
2849,65535
2838,65535
2814,65535
2813,65535
2828,65535
2839,65535
2791,65535
2792,65535
2803,65535
2830,65535
2815,65535
2819,65535
2818,65535
2817,65535
2831,65535
2810,65535
2829,65535
2783,65535
2820,65535
2804,65535
2785,65535
2784,65535
2762,65535
2768,65535
2751,65535
2750,65535
2733,65535
2769,65535
2720,65535
2761,65535
2741,65535
2837,65535
2793,65535
2808,65535
2753,65535
2736,65535
2735,65535
2809,65535
2772,65535
2845,65535
2844,65535
2848,65535
2777,65535
2778,65535
2779,65535
2759,65535
2780,65535
2797,65535
2843,65535
2832,65535
2842,65535
2758,65535
2738,65535
2774,65535
2773,65535
2771,65535
2851,65535
2847,65535
2854,65535
2721,65535
2756,65535
2737,65535
2840,65535
2752,65535
2754,65535
2755,65535
2852,65535
2853,65535
2856,65535
2841,65535
2742,65535
2727,65535
2744,65535
2726,65535
2743,65535
2725,65535
2746,65535
2787,65535
2766,65535
2763,65535
2765,65535
2745,65535
2764,65535
2552,65535
2501,65535
2443,65535
2442,65535
2320,65535
2381,65535
2382,65535
2498,65535
2499,65535
2438,65535
2439,65535
2497,65535
2441,65535
2379,65535
2380,65535
2319,65535
2551,65535
2550,65535
2563,65535
2321,65535
2322,65535
2383,65535
2384,65535
2446,65535
2445,65535
2503,65535
2385,65535
2504,65535
2505,65535
2557,65535
2558,65535
2559,65535
2560,65535
2564,65535
2562,65535
2561,65535
2605,65535
2609,65535
2565,65535
2566,65535
2515,4756
2397,4519
2457,4736
2458,4720
2401,65535
2337,4432
2336,4436
2399,4478
2398,4499
2402,65535
2333,4656
2273,4691
2219,4715
2218,4727
2159,4752
2454,65535
2393,65535
2512,65535
2502,65535
2608,65535
2156,65535
2155,65535
2154,65535
2213,65535
2212,65535
2211,65535
2210,65535
2264,65535
2324,65535
2323,65535
2030,65535
2094,65535
2157,65535
2450,65535
2388,65535
2387,65535
2326,65535
2266,65535
2265,65535
2508,65535
2396,4588
2335,4606
2334,4617
2158,4777
2279,65535
2278,65535
2222,65535
2221,65535
2276,65535
2275,3804
2261,65535
2207,65535
2149,65535
2554,65535
2599,65535
2633,65535
2664,65535
2689,65535
2690,65535
2691,65535
2692,65535
2152,65535
2089,65535
2088,65535
2025,65535
2603,65535
2602,65535
2556,65535
2693,65535
2671,65535
2670,65535
2694,65535
2553,65535
2665,65535
2705,65535
2710,65535
2668,65535
2639,65535
2463,65535
2521,65535
2572,65535
2451,65535
2390,65535
2391,65535
2392,65535
2215,65535
2268,65535
2093,65535
2092,65535
2028,65535
2024,65535
2150,65535
2086,65535
2209,65535
2023,65535
2087,65535
2148,65535
2262,65535
2327,65535
1560,446
1630,914
1631,876
1559,912
1629,971
1558,968
1634,420
1633,479
1482,798
1481,777
1699,793
1700,824
1701,377
1563,355
2070,838
2008,808
2009,788
1959,786
1958,809
2006,848
1957,844
1956,885
2193,947
2132,887
1912,794
1911,816
1865,848
1866,885
2007,881
2069,866
2010,843
2011,984
1961,743
2072,859
1913,981
1867,937
1962,734
1914,708
1915,320
1909,940
1636,295
1635,314
1564,329
1702,337
1637,280
1638,253
1565,324
1486,404
1760,818
1704,412
1703,323
1763,436
1762,367
1817,408
1705,285
1863,859
1815,866
1759,985
863,2768
758,2861
808,2812
982,2983
1036,2990
1099,3025
1100,3053
1166,3454
1167,3949
1237,3606
1238,3641
1375,3711
1308,3780
1309,3689
1236,3907
1235,3541
1101,3084
1037,3021
971,2564
1025,2547
1026,2562
1027,2575
1089,2588
720,2824
674,2870
864,2650
865,2671
919,2566
1024,2511
975,2685
974,2655
1028,2610
873,3010
925,2956
924,2933
917,2630
918,2606
623,3045
712,2917
713,2950
667,2955
622,3013
809,2798
719,2798
765,2759
972,2596
868,2708
869,2720
815,2739
920,2975
973,2641
981,2934
926,3035
927,3043
928,3067
1354,2560
1288,2501
1218,2477
1152,2546
1023,2475
1353,2574
1085,2455
1148,2385
1147,2378
1082,2329
772,3096
771,3053
819,3028
584,2944
628,2911
629,2900
1033,2831
978,2786
1031,2759
1030,2713
1029,2696
1091,2673
1035,2912
1034,2855
979,2813
1526,3830
1449,3868
1378,3896
1448,3819
1524,3797
1038,3068
1447,3860
1768,110
1710,52
1767,173
391,1382
365,1343
339,1388
400,1247
393,1464
392,1430
396,1361
399,1376
443,1471
449,1655
450,1778
419,1516
414,1597
415,1492
387,1536
388,1432
389,1421
282,1320
281,1391
314,1360
313,1316
405,1135
411,1652
442,1611
255,1320
376,1243
373,1258
278,1285
275,1408
248,1455
335,1545
334,1517
306,1585
307,1561
176,1405
225,1415
320,1252
249,1335
287,1238
285,1252
776,1206
731,1219
315,1359
316,1400
204,1345
440,1113
439,1145
166,2865
269,2782
383,2720
1247,65535
1246,65535
1384,65535
1679,65535
1178,3903
1105,2512
1172,2528
1173,2504
1242,3092
1241,2570
1314,3127
1313,3154
1171,2553
1382,4335
1243,2586
1317,4416
1107,2755
1108,3054
1109,3108
1041,2563
1043,3818
1042,3739
1044,4290
1176,3804
1174,4303
1177,3852
1110,3859
985,2632
986,2675
932,2693
774,1310
730,1237
825,1340
728,1320
729,1277
727,1441
682,1309
684,1338
685,1258
732,1181
683,2302
2134,963
2194,985
2068,1075
2129,1130
1905,1049
1907,992
1906,1090
1953,1345
2002,1386
2064,1433
2125,1463
2137,1121
2196,1075
2195,1022
1859,1026
1810,1019
1755,909
2131,940
2192,978
1862,874
1861,913
1812,952
1860,1037
1809,1102
1756,880
1869,198
1822,173
1821,182
1916,263
1819,300
1764,325
1820,248
1698,826
1757,867
1566,363
1567,276
1488,336
1489,1016
1412,834
1413,939
1414,880
1818,378
1568,1074
1410,382
2128,1177
2189,1204
2066,1286
2065,1408
2067,1127
1643,0
1571,268
1491,364
2004,1369
2003,1387
1697,930
2135,1114
2075,1138
1642,44
1955,975
2130,1477
2005,888
1858,1034
1816,3688
1864,3681
1766,288
1910,981
1868,258
2188,1411
2127,1380
1903,1379
2001,1469
2063,2262
2062,1430
1813,996
1758,917
1639,216
1640,127
1952,1388
2126,3770
1569,971
1965,309
1966,355
2014,1089
1490,786
1917,221
1870,205
1871,219
1570,353
1707,193
2076,1156
2013,1094
1964,1047
1487,360
1908,963
2251,65535
2199,65535
2198,65535
2136,1163
1641,84
1954,1048
1765,866
1857,1133
2187,1885
1904,1357
1856,1365
1951,1355
1708,1308
245,3999
244,3982
357,3986
246,4114
247,4143
197,4237
223,4215
44,4579
43,4639
3,4775
23,4749
22,4738
63,4521
85,4463
84,4418
108,3918
149,3872
172,4263
296,3966
294,4014
355,4114
354,4146
326,4224
295,4123
291,4135
293,4257
260,4143
356,4174
441,3774
412,3797
329,4132
300,4076
148,3846
214,4084
146,3967
110,4048
262,4109
258,4522
292,4285
257,4587
235,4107
187,4007
212,4063
211,4090
186,4011
162,3985
161,4064
165,3963
189,4163
238,4244
237,4209
263,4145
265,4164
266,4142
267,4130
268,3970
26,4739
25,4707
105,65535
62,65535
83,65535
126,4085
175,4520
152,4454
151,4444
150,4403
103,4023
242,3916
191,3870
192,3921
217,3944
218,3997
145,3907
144,3991
167,3899
190,3877
219,4014
159,4111
185,4055
158,4168
188,3999
160,4076
143,65535
122,65535
75,65535
54,65535
198,4648
270,4011
221,4052
301,4109
302,3946
330,3973
331,3995
115,4047
133,4106
139,4003
134,4080
114,4604
48,65535
69,65535
92,4280
164,4073
4,65535
107,4425
129,4510
109,3950
125,3991
124,3965
127,65535
82,65535
67,65535
91,4448
93,4247
137,4382
113,4402
112,4360
136,65535
49,65535
72,65535
71,65535
406,1228
805,2290
858,2095
859,2236
967,1972
1142,2109
1080,2115
1022,2106
1079,2124
968,2091
1206,2085
915,2242
916,2277
914,2214
807,2329
911,3436
1078,2192
1207,2184
1278,2228
1277,2231
1344,2251
1415,2292
1492,2347
1345,2308
1346,2278
1208,2176
1209,2256
1143,2293
1144,2309
1145,2324
1417,2304
1493,2364
1494,2383
1572,2398
1081,2261
970,2464
408,1220
382,1223
437,1204
467,1191
409,1230
403,1254
432,1584
433,1351
404,1378
352,1293
351,1311
349,1232
317,1329
374,1228
346,1279
283,1293
410,1164
438,1181
465,1184
490,1217
491,1141
435,1175
436,1201
379,1595
323,1321
289,1352
377,1184
378,1209
592,1353
593,1379
552,1301
445,1458
424,1582
423,1426
416,2377
361,1466
362,1451
371,1342
372,1326
343,1516
344,1556
286,1435
227,1307
252,1440
284,1284
318,1328
250,1312
312,1286
340,1332
368,1420
369,1466
370,1419
341,1467
367,1373
308,1497
276,1487
277,1467
280,1398
310,1363
338,1410
366,1482
274,1659
305,1597
420,1570
363,1453
418,1477
550,2281
579,2304
576,2249
577,2261
578,2277
520,2257
618,2271
662,2301
619,2288
620,2301
621,2295
665,2277
666,2269
664,2297
580,2316
2260,65535
2257,65535
2206,65535
2146,65535
2314,65535
2313,65535
2312,65535
2373,65535
2256,65535
2205,65535
2434,65535
2435,65535
2375,65535
2376,65535
2433,65535
2491,65535
2490,65535
2492,65535
2546,65535
2597,65535
2596,65535
2544,65535
2145,65535
2082,65535
2020,65535
2494,65535
0,65535
11,65535
1052,1468
1053,1455
941,1440
1740,2461
1796,2535
1615,2319
1681,2396
1545,2200
1797,2575
1544,2275
1741,2553
1795,2856
1617,2220
1546,2206
1616,2237
1683,2341
1467,1290
1547,1316
1465,2180
1387,2247
1388,1362
1464,2264
1462,3019
1461,3040
1542,2931
1463,2983
1682,2528
1543,2396
1618,2277
1742,2654
1460,2730
1248,2262
1850,1372
1801,2178
1803,1321
882,1159
881,1168
938,1227
883,1179
940,2358
1998,1359
1902,1313
1807,1206
1691,1227
1694,1093
1693,1237
1749,1278
1752,1167
1753,1124
1627,1007
1628,1041
1557,970
1479,928
1402,900
1808,1195
1946,1435
1947,1466
1948,1373
1997,1369
1855,1255
1690,1226
2060,1375
1949,1407
1950,1334
1751,1210
1692,1229
1999,1349
1901,1415
1900,1456
1852,1605
1853,1484
1805,1294
1750,1223
1854,1320
1806,1288
1748,1314
2061,1416
2000,1414
1804,1306
1899,1625
2884,65535
2892,65535
2883,65535
2876,65535
2874,65535
2882,65535
2877,65535
2911,65535
2905,65535
2906,65535
2896,65535
2887,65535
2881,65535
2880,65535
2888,65535
2902,65535
2903,65535
2907,65535
2912,65535
2895,65535
2894,65535
2875,65535
2885,65535
2893,65535
2904,65535
2865,65535
2866,65535
2909,65535
2913,65535
2886,65535
2878,65535
2869,65535
2871,65535
2872,65535
2879,65535
2870,65535
1330,935
1331,920
1401,905
1262,957
1263,949
1478,906
1403,890
1261,966
1480,947
1264,1006
1390,1273
1389,1322
1319,1295
1251,1382
1250,1468
1285,2401
1284,2406
1214,2378
1146,2344
1505,2627
1504,2561
1582,2599
1581,2527
1713,2506
1771,2488
1654,2638
1653,2611
1651,2563
2096,3742
2033,3702
1972,3673
1923,3605
1922,3583
1874,3277
1873,2990
1919,2943
1829,3954
1579,2463
1424,2504
1711,2480
1348,2304
1419,2324
1359,2731
1429,2682
1428,2668
1421,2381
1577,2415
1499,2388
1230,2975
1365,2912
1511,2834
1300,2957
1366,2929
1512,2862
1716,2696
1503,2973
1276,2258
1347,2288
1349,2336
1645,2472
1578,2450
1770,2484
1715,2539
1150,2443
1217,2457
1149,2419
1580,2509
1352,2496
1502,2527
1825,2896
1718,2851
1717,2825
1872,2929
1656,2740
1648,2515
1712,2492
1213,2368
1212,2349
1084,2390
1420,2370
1281,2294
1282,2355
1587,2734
1586,2701
1585,2690
1652,2658
1427,2836
1975,3777
1977,3845
1932,3915
1931,4540
1426,2556
1422,2398
1425,2541
1583,2627
1501,2485
1283,2396
1286,2443
1215,2428
1211,2325
1210,2299
1083,2361
1655,2729
2220,3783
1355,65535
1772,2497
1436,2880
1435,2870
1589,2803
1163,3008
1735,4128
1791,4061
1841,4038
1840,3994
1219,2560
1220,2599
1647,2501
1646,2493
1279,2246
1714,2516
1575,2475
1576,2437
1498,2445
1573,2487
1496,2505
1497,2476
2177,2762
2176,2827
2294,2887
2293,2908
2237,2868
2236,2890
2364,2738
2302,2668
2301,2649
2245,2604
2056,2477
2057,2641
2055,2472
2184,2811
2120,2734
2244,2431
2538,2939
2537,2919
2591,2956
1940,2780
1989,2764
1990,2720
2539,2962
2482,2968
2483,2937
2424,2932
2121,2913
2119,2449
2050,2859
2049,2881
2048,2943
2185,2806
2243,2444
2299,2669
2241,2669
2485,2899
2542,3011
2353,2954
2292,2930
2419,2828
2478,2836
2479,2853
2536,2880
2484,2954
2486,2847
2354,2878
2416,2970
2242,2491
2355,2845
2300,2798
1991,2803
1992,2544
2477,2879
2534,2914
2535,2870
2588,2935
2587,2950
2630,2990
2051,2626
2116,2594
2175,2878
2586,65535
2541,3082
2178,2728
2179,2699
2240,2699
2239,2770
2238,2825
2052,2670
2053,2765
1987,2848
1988,2768
1939,2774
2594,3084
2593,3056
2358,2726
2357,2769
2420,2879
2247,3061
2427,2832
2428,2890
2181,2489
2180,2541
2417,2858
2590,2935
2297,2702
2361,2926
2362,2870
2423,2905
2422,2764
2174,2971
2356,2835
1941,2802
2365,3147
2112,2899
2047,2965
2182,2501
2359,2692
2533,3211
2295,3051
2115,2637
2632,3061
2631,3000
2186,2768
2298,2529
2360,2584
2235,3661
2291,3674
2487,3070
2246,2989
2425,3126
2117,3087
2543,3097
1893,65535
2421,2972
2476,2886
2592,3071
604,2266
