middle_point_id,reach_time_minutes
2835,65535
2836,65535
2806,65535
2822,65535
2823,65535
2807,65535
2846,65535
887,2586
888,2578
1326,2789
1185,2649
999,2690
1057,2899
1552,2854
1120,2634
1473,3120
944,2821
832,2588
1257,2759
1396,3124
1622,2875
1327,3784
1184,2639
1183,2650
1324,2911
1255,2991
1394,2922
1252,2755
1253,2716
1182,2660
1328,65535
1470,2940
1321,2724
1322,2721
1323,3005
1391,2767
1551,2872
1393,2980
1472,2878
1471,2917
1181,2774
1118,2699
1059,2575
1121,2597
1469,3208
1468,2823
1548,2859
1325,2845
1625,2812
1623,2841
1258,2679
1256,2834
791,2479
891,2546
703,2437
704,2431
660,2435
1553,2859
1624,2828
1554,2872
1474,2880
1475,3361
1550,2882
1549,2934
1320,2769
1466,2803
1541,3160
1318,2845
1249,2868
1186,2655
1003,2565
1002,2573
741,2561
788,2521
434,2558
697,2543
752,2402
1056,2710
1006,2558
907,2308
518,2470
1011,2485
1000,2614
1055,4502
997,4471
994,4365
996,4437
995,4421
991,4212
1112,65535
1114,4452
1051,4415
1398,3852
1395,3150
1001,2588
1811,2809
1960,2987
1769,2907
1823,2916
1329,65535
1332,2622
1259,65535
1200,2444
1199,2449
1140,2425
1141,2434
783,2602
1689,2909
1802,3020
1945,3241
2183,4798
2418,65535
1994,3275
1995,3308
2059,3037
1621,65535
1555,2767
1754,2860
1180,3743
1106,65535
933,65535
827,2708
2122,65535
2124,3074
493,2487
519,2479
544,2466
545,2471
494,2491
470,2500
543,2476
469,2494
517,2475
574,2475
573,2452
495,2497
546,2477
613,2449
612,2463
492,2493
572,2465
571,2479
570,2483
610,2510
575,2448
547,2490
516,2500
611,2481
542,2495
569,2535
609,2514
548,2486
549,2488
1404,2590
1405,2532
1266,2519
1193,2567
743,2528
742,2540
747,2470
746,2473
745,2483
744,2514
790,2485
789,2501
839,2508
838,2523
738,2593
739,2568
740,2556
890,2561
834,2579
784,2567
889,2567
856,2243
855,2260
854,2288
853,2303
852,2325
910,2286
909,2295
908,2298
964,2312
965,2318
1020,2355
966,2338
963,2326
1021,2319
1271,2447
1270,2449
1339,2467
1338,2480
1071,2474
1072,2469
1135,2467
1408,2503
1337,2497
1269,2474
1268,2500
1136,2444
1075,2375
1077,2405
1076,2383
1019,2382
1018,2355
1074,2400
1137,2427
1272,2460
1274,2536
1275,2547
1205,2462
1204,2483
1273,2507
1198,2508
1197,2566
1341,2562
1134,2472
1133,2509
1069,2494
1132,2510
1073,2429
1203,2503
1202,2502
1201,2478
1139,2442
1267,2506
1138,2456
1340,2460
1196,2534
1342,2549
1409,2521
1485,2528
1407,2525
1561,2677
1632,2701
1484,2620
1483,2632
1562,2668
1194,2531
1130,2527
1195,2532
1335,2523
1129,2544
1066,2515
1128,2596
1067,2501
1131,2519
1334,2634
1336,2534
1265,2555
1333,2619
1406,2563
857,2295
803,2309
804,2286
860,2247
969,2200
913,2187
912,2125
861,2257
806,2300
659,2437
751,2419
658,2448
705,2430
702,2450
706,2420
753,2398
614,2442
701,2458
661,2442
616,2450
848,2370
796,2405
797,2389
798,2378
750,2424
707,2433
615,2441
748,2460
845,2424
846,2413
657,2506
749,2453
795,2442
617,2465
663,2445
794,2484
847,2402
849,2333
902,2398
901,2432
900,2446
793,2488
899,2496
898,2518
897,2523
844,2480
842,2495
841,2486
956,2490
792,2480
843,2528
840,2525
850,2324
903,2390
800,2346
755,2363
756,2383
710,2413
711,2458
962,2372
961,2383
904,2395
906,2312
851,2318
802,2338
801,2347
799,2351
959,2432
1014,2447
1013,2472
708,2694
709,2420
754,2381
757,2411
1017,2424
1016,2433
960,2417
905,2378
958,2478
957,2479
1070,2481
1015,2429
1012,2483
1068,2503
1005,2575
1004,2570
1060,2582
1063,2563
1065,2552
1127,2593
1062,2588
1124,2603
1123,2623
1125,2597
1188,2631
1122,2628
1058,2587
947,2602
946,2650
949,2561
945,2643
948,2557
1190,2738
1187,2651
951,2532
895,2500
952,2526
1009,2511
1008,2565
1010,2492
1007,2536
1061,2653
954,2501
896,2495
953,2557
1126,2613
1064,2572
1189,2673
955,2495
950,2547
892,2536
786,2528
836,2539
837,2530
787,2524
700,2493
655,2511
654,2544
653,2558
698,2526
699,2493
608,2547
696,2560
656,2508
833,2582
785,2546
835,2544
693,2579
894,2504
893,2528
1343,2543
1192,2698
1191,2735
828,2698
829,2684
780,2630
830,2679
779,2696
782,2597
529,2696
886,2613
596,2751
556,2778
598,2709
597,2724
526,2724
555,2748
525,2755
524,2723
523,2719
688,2646
607,2576
650,2622
651,2604
652,2591
737,2597
694,2578
695,2565
645,2656
646,2631
690,2611
600,2685
599,2686
781,2601
736,2605
558,2728
644,2677
643,2653
648,2636
692,2585
691,2601
513,2611
541,2517
540,2580
568,2638
530,2664
831,2604
559,2715
560,2746
642,2781
557,2717
496,2765
471,2807
444,2892
446,2823
528,2701
527,2740
562,2697
602,2684
734,2640
466,2626
464,2584
463,2605
478,2870
481,2752
480,2781
479,2815
647,2648
488,2660
502,2708
689,2633
533,2758
532,2714
531,2721
601,2706
484,2682
508,2762
510,2709
509,2780
534,2758
482,2766
506,2732
606,2585
455,2930
429,2710
456,2902
457,2883
428,2794
458,2747
554,2840
594,2808
640,2787
639,2824
551,2742
681,2824
636,2812
635,2820
590,2747
778,2705
777,2712
485,2644
486,2632
462,2591
563,2796
885,2624
943,3731
564,2777
641,2781
504,2714
503,2741
501,2717
500,2784
561,2721
254,2647
350,2609
321,2691
319,2646
251,2687
375,2620
347,2698
687,2659
565,2761
539,2659
511,2690
536,2728
649,2693
603,2735
605,2846
733,2660
735,2624
489,2662
514,2600
461,2830
460,2841
459,2819
468,2509
154,2804
178,2750
203,2735
228,2705
402,2675
401,2687
505,2725
522,2747
451,2941
452,2994
477,2919
476,2915
483,2926
884,2734
431,2685
430,2722
454,2894
595,2910
395,2789
394,2809
422,2901
417,2853
390,2851
538,2705
567,2592
426,2961
397,2800
398,2848
499,2863
475,2951
497,2793
498,2810
311,2714
342,2756
345,2730
421,2858
515,2558
472,3081
448,3112
473,3136
474,3177
353,2662
381,2637
256,2719
290,2693
324,2669
380,2689
407,2625
253,2701
226,2727
201,2740
177,2797
824,2816
775,2754
826,2719
939,2767
936,4198
937,2833
880,2965
566,2785
2821,65535
2834,65535
2833,65535
2789,65535
2790,65535
2770,65535
2788,65535
2776,65535
2795,65535
2775,65535
2794,65535
2825,65535
2824,65535
2826,65535
2811,65535
2812,65535
2796,65535
2827,65535
2858,65535
2855,65535
2849,65535
2838,65535
2814,65535
2813,65535
2828,65535
2839,65535
2791,65535
2792,65535
2803,65535
2830,65535
2815,65535
2819,65535
2818,65535
2817,65535
2831,65535
2810,65535
2829,65535
2783,65535
2820,65535
2804,65535
2785,65535
2784,65535
2762,65535
2768,65535
2751,65535
2750,65535
2733,65535
2769,65535
2720,65535
2761,65535
2741,65535
2837,65535
2793,65535
2808,65535
2753,65535
2736,65535
2735,65535
2809,65535
2772,65535
2845,65535
2844,65535
2848,65535
2777,65535
2778,65535
2779,65535
2759,65535
2780,65535
2797,65535
2843,65535
2832,65535
2842,65535
2758,65535
2738,65535
2774,65535
2773,65535
2771,65535
2851,65535
2847,65535
2854,65535
2721,65535
2756,65535
2737,65535
2840,65535
2752,65535
2754,65535
2755,65535
2852,65535
2853,65535
2856,65535
2841,65535
2742,65535
2727,65535
2744,65535
2726,65535
2743,65535
2725,65535
2746,65535
2787,65535
2766,65535
2763,65535
2765,65535
2745,65535
2764,65535
2552,65535
2501,65535
2443,65535
2442,65535
2320,65535
2381,65535
2382,65535
2498,65535
2499,65535
2438,65535
2439,65535
2497,65535
2441,65535
2379,65535
2380,65535
2319,65535
2551,65535
2550,65535
2563,2757
2321,2293
2322,2262
2383,2274
2384,2480
2446,2522
2445,2529
2503,2548
2385,2513
2504,2878
2505,2900
2557,2924
2558,2949
2559,2973
2560,2937
2564,3105
2562,2825
2561,2865
2605,2880
2609,3152
2565,3228
2566,3244
2515,3255
2397,1639
2457,3285
2458,3307
2401,1716
2337,1552
2336,1556
2399,1598
2398,1619
2402,1776
2333,1776
2273,1811
2219,1835
2218,1847
2159,1872
2454,2464
2393,2430
2512,2724
2502,2716
2608,3143
2156,1994
2155,2026
2154,2055
2213,2071
2212,2083
2211,2131
2210,2172
2264,2179
2324,2213
2323,2229
2030,65535
2094,65535
2157,1958
2450,3121
2388,3170
2387,3238
2326,3275
2266,3310
2265,2654
2508,3092
2396,1708
2335,1726
2334,1737
2158,1897
2279,3866
2278,3830
2222,3799
2221,3781
2276,3763
2275,1243
2261,2486
2207,2523
2149,65535
2554,2606
2599,2638
2633,2684
2664,4371
2689,4429
2690,4535
2691,4573
2692,4606
2152,2167
2089,2246
2088,2234
2025,2379
2603,65535
2602,65535
2556,65535
2693,65535
2671,65535
2670,65535
2694,65535
2553,65535
2665,65535
2705,65535
2710,65535
2668,65535
2639,65535
2463,1786
2521,1822
2572,1845
2451,3006
2390,2975
2391,2795
2392,2758
2215,3000
2268,65535
2093,65535
2092,65535
2028,65535
2024,4057
2150,3483
2086,3531
2209,3465
2023,3633
2087,3586
2148,3799
2262,2472
2327,65535
1560,2617
1630,2719
1631,2690
1559,2768
1629,2840
1558,2673
1634,2694
1633,2699
1482,2542
1481,2607
1699,2716
1700,2764
1701,2743
1563,2679
2070,3027
2008,2998
2009,2994
1959,2967
1958,2985
2006,3024
1957,3019
1956,3028
2193,3202
2132,3141
1912,2959
1911,2928
1865,2884
1866,2967
2007,3049
2069,3055
2010,3003
2011,3030
1961,3025
2072,3061
1913,3026
1867,3019
1962,3058
1914,3062
1915,2974
1909,3014
1636,2716
1635,2720
1564,2693
1702,2770
1637,2710
1638,2676
1565,2680
1486,2553
1760,2803
1704,2740
1703,2726
1763,2814
1762,2797
1817,2844
1705,2838
1863,2884
1815,2851
1759,2806
863,1585
758,1673
808,1629
982,1144
1036,1134
1099,1032
1100,1253
1166,1597
1167,1647
1237,1739
1238,1767
1375,1848
1308,1806
1309,1827
1236,1704
1235,1683
1101,1284
1037,1222
971,1292
1025,1282
1026,1265
1027,1285
1089,1250
720,1630
674,1676
864,1554
865,1529
919,1306
1024,1255
975,1419
974,1357
1028,1353
873,1441
925,1472
924,1493
917,1370
918,1346
623,1845
712,1720
713,1754
667,1759
622,1815
809,1615
719,1602
765,1559
972,1306
868,1506
869,1518
815,1539
920,1414
973,1321
981,1219
926,1418
927,1410
928,1358
1354,1137
1288,1161
1218,1157
1152,1202
1023,1209
1353,1122
1085,1167
1148,400
1147,393
1082,365
772,1656
771,1613
819,1588
584,1750
628,1717
629,1744
1033,1469
978,1506
1031,1543
1030,1514
1029,1496
1091,1473
1035,1388
1034,1410
979,1497
1526,2390
1449,2428
1378,2456
1448,2379
1524,2357
1038,1268
1447,2420
1768,2910
1710,2868
1767,2898
391,2822
365,2783
339,2768
400,2818
393,2838
392,2863
396,2784
399,2951
443,2971
449,2948
450,2923
419,2956
414,3027
415,2968
387,2977
388,2872
389,2865
282,2905
281,2831
314,2800
313,2756
405,2575
411,3092
442,3051
255,2680
376,2683
373,2698
278,2725
275,2791
248,2838
335,2930
334,2895
306,2841
307,2830
176,2813
225,2714
320,2689
249,2921
287,2652
285,2695
776,2734
731,2742
315,2797
316,2874
204,2751
440,2520
439,2557
166,4305
269,4046
383,3872
1247,65535
1246,65535
1384,65535
1679,65535
1178,65535
1105,65535
1172,65535
1173,65535
1242,65535
1241,65535
1314,65535
1313,65535
1171,65535
1382,65535
1243,65535
1317,65535
1107,65535
1108,65535
1109,65535
1041,65535
1043,65535
1042,65535
1044,65535
1176,65535
1174,65535
1177,65535
1110,65535
985,65535
986,65535
932,65535
774,2764
730,2759
825,2772
728,2799
729,2780
727,2851
682,2796
684,2778
685,2758
732,2738
683,2902
2134,3655
2194,3684
2068,3145
2129,3199
1905,2906
1907,2947
1906,2886
1953,2973
2002,3004
2064,3041
2125,3048
2137,3796
2196,3752
2195,3707
1859,2820
1810,2850
1755,2890
2131,3092
2192,3130
1862,2914
1861,2833
1812,2811
1860,2903
1809,2838
1756,2798
1869,2921
1822,2940
1821,2919
1916,2969
1819,2867
1764,2847
1820,2871
1698,2747
1757,2784
1566,2671
1567,2633
1488,2590
1489,2585
1412,2561
1413,2568
1414,2553
1818,2886
1568,2603
1410,2542
2128,3229
2189,3256
2066,3182
2065,3206
2067,3196
1643,2852
1571,2785
1491,2700
2004,3171
2003,3052
1697,2768
2135,3677
2075,3118
1642,2821
1955,2990
2130,3228
2005,3055
1858,2883
1816,3688
1864,3681
1766,2892
1910,3054
1868,2912
2188,4075
2127,4044
1903,2926
2001,3015
2063,3668
2062,3262
1813,2816
1758,2753
1639,2779
1640,2798
1952,3026
2126,4642
1569,2757
1965,3073
1966,3119
2014,3224
1490,2712
1917,3001
1870,2964
1871,2974
1570,2748
1707,2844
2076,3138
2013,3074
1964,3026
1487,2591
1908,3275
2251,65535
2199,65535
2198,65535
2136,3700
1641,2953
1954,3706
1765,2865
1857,2899
2187,3325
1904,2930
1856,2889
1951,3035
1708,3723
245,4110
244,4098
357,3986
246,4135
247,4162
197,4237
223,4215
44,4579
43,4639
3,4775
23,4749
22,4738
63,4521
85,4463
84,4418
108,4384
149,4338
172,4302
296,3966
294,4014
355,4114
354,4146
326,4224
295,4123
291,4135
293,4257
260,4277
356,4174
441,3774
412,3797
329,4132
300,4076
148,4480
214,4296
146,4411
110,4663
262,4109
258,4522
292,4285
257,4587
235,4385
187,4464
212,4491
211,4495
186,4576
162,4590
161,4603
165,4358
189,4414
238,4244
237,4209
263,4145
265,4250
266,4270
267,4295
268,4344
26,4739
25,4707
105,65535
62,65535
83,65535
126,4599
175,4520
152,4454
151,4444
150,4403
103,65535
242,4400
191,4570
192,4624
217,4650
218,65535
145,4390
144,4717
167,4332
190,4558
219,65535
159,65535
185,65535
158,65535
188,4447
160,65535
143,65535
122,65535
75,65535
54,65535
198,4648
270,4404
221,4752
301,65535
302,4354
330,4339
331,4307
115,4692
133,4754
139,65535
134,4728
114,4715
48,65535
69,65535
92,4629
164,65535
4,65535
107,4425
129,4510
109,65535
125,65535
124,65535
127,65535
82,65535
67,65535
91,65535
93,65535
137,65535
113,65535
112,65535
136,65535
49,65535
72,65535
71,65535
406,2641
805,2290
858,2095
859,2236
967,1998
1142,1028
1080,1935
1022,1976
1079,1968
968,2091
1206,1033
915,2242
916,2277
914,2214
807,2329
911,3436
1078,2309
1207,1026
1278,1028
1277,1032
1344,1051
1415,1092
1492,1147
1345,1126
1346,1066
1208,994
1209,488
1143,466
1144,429
1145,388
1417,1093
1493,1209
1494,1211
1572,1143
1081,2261
970,2464
408,2666
382,2659
437,2590
467,2570
409,2640
403,2715
432,2949
433,2791
404,2693
352,2692
351,2690
349,2653
317,2845
374,2668
346,2719
283,2879
410,2617
438,2633
465,2592
490,2590
491,2517
435,2615
436,2623
379,2641
323,2721
289,2740
377,2624
378,2649
592,2793
593,2833
552,2741
445,2898
424,2821
423,2838
416,2897
361,2906
362,2891
371,2845
372,2779
343,2923
344,2920
286,2728
227,2706
252,2696
284,2715
318,2723
250,2752
312,2726
340,2719
368,2743
369,2753
370,2918
341,2732
367,2756
308,2879
276,2771
277,2844
280,2778
310,2743
338,2790
366,2837
274,2804
305,2853
420,3000
363,2890
418,2898
550,2499
579,2514
576,2468
577,2478
578,2480
520,2506
618,2460
662,2469
619,2452
620,2460
621,2445
665,2427
666,2421
664,2440
580,2466
2260,65535
2257,65535
2206,65535
2146,65535
2314,65535
2313,65535
2312,65535
2373,65535
2256,65535
2205,65535
2434,65535
2435,65535
2375,65535
2376,65535
2433,65535
2491,65535
2490,65535
2492,65535
2546,65535
2597,65535
2596,65535
2544,65535
2145,65535
2082,65535
2020,65535
2494,65535
0,65535
11,65535
1052,4468
1053,4455
941,4495
1740,3031
1796,3057
1615,2896
1681,2957
1545,2815
1797,3094
1544,2835
1741,3089
1795,3130
1617,2881
1546,2868
1616,2891
1683,2924
1467,2795
1547,2853
1465,2879
1387,2875
1388,2855
1464,2942
1462,3019
1461,3040
1542,3104
1463,2983
1682,3032
1543,2943
1618,2895
1742,3115
1460,3206
1248,2981
1850,3034
1801,3033
1803,2986
882,2719
881,2728
938,2778
883,2739
940,65535
1998,2977
1902,2918
1807,2826
1691,2867
1694,2773
1693,2821
1749,2898
1752,2847
1753,2804
1627,2751
1628,2721
1557,2699
1479,2651
1402,2621
1808,2815
1946,3115
1947,3050
1948,3037
1997,2992
1855,2839
1690,2846
2060,3110
1949,3265
1950,2961
1751,2890
1692,2849
1999,2969
1901,3309
1900,3321
1852,3045
1853,2924
1805,2906
1750,2903
1854,2880
1806,2866
1748,2947
2061,3164
2000,3094
1804,3099
1899,3065
2884,65535
2892,65535
2883,65535
2876,65535
2874,65535
2882,65535
2877,65535
2911,65535
2905,65535
2906,65535
2896,65535
2887,65535
2881,65535
2880,65535
2888,65535
2902,65535
2903,65535
2907,65535
2912,65535
2895,65535
2894,65535
2875,65535
2885,65535
2893,65535
2904,65535
2865,65535
2866,65535
2909,65535
2913,65535
2886,65535
2878,65535
2869,65535
2871,65535
2872,65535
2879,65535
2870,65535
1330,2675
1331,2633
1401,2626
1262,2663
1263,2657
1478,2637
1403,2616
1261,2766
1480,2627
1264,2683
1390,2789
1389,2816
1319,2809
1251,2822
1250,2908
1285,291
1284,306
1214,422
1146,337
1505,208
1504,215
1582,199
1581,178
1713,139
1771,160
1654,58
1653,0
1651,82
2096,862
2033,822
1972,793
1923,725
1922,703
1874,904
1873,1108
1919,299
1829,1334
1579,269
1424,302
1711,183
1348,461
1419,1050
1359,324
1429,274
1428,260
1421,365
1577,323
1499,349
1230,982
1365,362
1511,291
1300,964
1366,936
1512,309
1716,116
1503,1211
1276,1478
1347,1046
1349,409
1645,224
1578,369
1770,174
1715,109
1150,1124
1217,1135
1149,1100
1580,210
1352,342
1502,265
1825,252
1718,211
1717,186
1872,287
1656,135
1648,221
1712,169
1213,1050
1212,1092
1084,410
1420,930
1281,1026
1282,1216
1587,166
1586,133
1585,123
1652,70
1427,311
1975,897
1977,965
1932,1035
1931,1660
1426,1012
1422,358
1425,1048
1583,168
1501,317
1283,391
1286,1140
1215,1016
1211,1016
1210,985
1083,381
1655,176
2220,1221
1355,1372
1772,164
1436,1057
1435,1089
1589,1121
1163,1015
1735,1248
1791,1181
1841,1158
1840,1114
1219,1277
1220,1319
1647,221
1646,213
1279,1098
1714,138
1575,1035
1576,997
1498,1005
1573,1110
1496,1065
1497,1036
2177,65535
2176,65535
2294,65535
2293,65535
2237,65535
2236,65535
2364,65535
2302,65535
2301,65535
2245,65535
2056,65535
2057,65535
2055,65535
2184,65535
2120,65535
2244,65535
2538,65535
2537,65535
2591,65535
1940,65535
1989,65535
1990,65535
2539,65535
2482,65535
2483,65535
2424,65535
2121,65535
2119,65535
2050,65535
2049,65535
2048,65535
2185,65535
2243,65535
2299,65535
2241,65535
2485,65535
2542,65535
2353,65535
2292,65535
2419,65535
2478,65535
2479,65535
2536,65535
2484,65535
2486,65535
2354,65535
2416,65535
2242,65535
2355,65535
2300,65535
1991,65535
1992,65535
2477,65535
2534,65535
2535,65535
2588,65535
2587,65535
2630,65535
2051,65535
2116,65535
2175,65535
2586,65535
2541,65535
2178,65535
2179,65535
2240,65535
2239,65535
2238,65535
2052,65535
2053,65535
1987,65535
1988,65535
1939,65535
2594,65535
2593,65535
2358,65535
2357,65535
2420,65535
2247,65535
2427,65535
2428,65535
2181,65535
2180,65535
2417,65535
2590,65535
2297,65535
2361,65535
2362,65535
2423,65535
2422,65535
2174,65535
2356,65535
1941,65535
2365,65535
2112,65535
2047,65535
2182,65535
2359,65535
2533,65535
2295,65535
2115,65535
2632,65535
2631,65535
2186,65535
2298,65535
2360,65535
2235,65535
2291,65535
2487,65535
2246,65535
2425,65535
2117,65535
2543,65535
1893,65535
2421,65535
2476,65535
2592,65535
604,65535
