middle_point_id,reach_time_minutes
2835,65535
2836,65535
2806,65535
2822,65535
2823,65535
2807,65535
2846,65535
887,1146
888,1138
1326,934
1185,1014
999,1130
1057,1157
1552,971
1120,1074
1473,1034
944,1231
832,1148
1257,983
1396,1199
1622,1015
1327,3784
1184,1048
1183,1064
1324,780
1255,951
1394,1122
1252,457
1253,500
1182,944
1328,65535
1470,899
1321,443
1322,449
1323,2405
1391,790
1551,965
1393,1043
1472,976
1471,949
1181,554
1118,959
1059,1049
1121,1034
1469,781
1468,358
1548,694
1325,871
1625,1071
1623,982
1258,1067
1256,1034
791,1181
891,1100
703,1259
704,1271
660,1264
1553,1008
1624,1029
1554,1130
1474,1043
1475,1067
1550,941
1549,867
1320,375
1466,275
1541,2515
1318,826
1249,846
1186,1008
1003,1056
1002,1051
741,1179
788,1155
434,1325
697,1191
752,1300
1056,1152
1006,1129
907,1409
518,1311
1011,1258
1000,1088
1055,3062
997,3031
994,2925
996,2997
995,2981
991,2772
1112,65535
1114,3012
1051,2975
1398,1692
1395,1290
1001,1068
1811,1447
1960,1630
1769,1720
1823,1739
1329,65535
1332,1345
1259,1160
1200,1318
1199,1315
1140,1458
1141,1462
783,1150
1689,992
1802,1100
1945,1436
2183,1918
2418,2367
1994,1472
1995,1868
2059,1297
1621,65535
1555,1116
1754,1319
1180,863
1106,4005
933,4166
827,1268
2122,1723
2124,1634
493,1322
519,1315
544,1309
545,1313
494,1324
470,1367
543,1323
469,1354
517,1328
574,1321
573,1302
495,1360
546,1329
613,1287
612,1304
492,1336
572,1312
571,1320
570,1304
610,1275
575,1376
547,1358
516,1372
611,1314
542,1338
569,1317
609,1288
548,2229
549,2264
1404,1321
1405,1306
1266,1275
1193,1247
743,1171
742,1175
747,1217
746,1192
745,1188
744,1168
790,1177
789,1159
839,1184
838,1150
738,1154
739,1157
740,1169
890,1092
834,1132
784,1143
889,1097
856,1469
855,1440
854,1449
853,1436
852,1427
910,1432
909,1423
908,1418
964,1412
965,1418
1020,1454
966,1438
963,1403
1021,1493
1271,1312
1270,1311
1339,1300
1338,1287
1071,1297
1072,1308
1135,1327
1408,1303
1337,1282
1269,1285
1268,1277
1136,1338
1075,1389
1077,1458
1076,1426
1019,1422
1018,1413
1074,1376
1137,1361
1272,1321
1274,1417
1275,1430
1205,1437
1204,1463
1273,1428
1198,1336
1197,1306
1341,1362
1134,1313
1133,1271
1069,1261
1132,1244
1073,1370
1203,1460
1202,1425
1201,1353
1139,1424
1267,1271
1138,1376
1340,1332
1196,1259
1342,1396
1409,1367
1485,1329
1407,1329
1561,1403
1632,1414
1484,1369
1483,1361
1562,1393
1194,1211
1130,1201
1195,1224
1335,1291
1129,1189
1066,1171
1128,1174
1067,1237
1131,1219
1334,1394
1336,1283
1265,1295
1333,1348
1406,1305
857,1788
803,1822
804,2239
860,2247
969,2200
913,2187
912,2125
861,2257
806,2300
659,1263
751,1291
658,1266
705,1295
702,1243
706,1307
753,1327
614,1301
701,1227
661,1297
616,1303
848,1329
796,1300
797,1306
798,1326
750,1282
707,1338
615,1301
748,1249
845,1308
846,1320
657,1366
749,1262
795,1297
617,1311
663,1346
794,1244
847,1329
849,1350
902,1357
901,1336
900,1313
793,1193
899,1311
898,1275
897,1235
844,1297
842,1198
841,1188
956,1282
792,1190
843,1264
840,1205
850,1389
903,1337
800,1397
755,1409
756,1423
710,1453
711,1498
962,1376
961,1369
904,1342
906,1403
851,1405
802,1438
801,1417
799,1383
959,1352
1014,1304
1013,1298
708,1794
709,1822
754,1387
757,1451
1017,1382
1016,1377
960,1344
905,1356
958,1398
957,1306
1070,1283
1015,1325
1012,1293
1068,1238
1005,1100
1004,1070
1060,1052
1063,1151
1065,1167
1127,1190
1062,1130
1124,1106
1123,1092
1125,1123
1188,1113
1122,1019
1058,1040
947,1083
946,1099
949,1105
945,1117
948,1117
1190,1131
1187,1089
951,1139
895,1190
952,1182
1009,1193
1008,1176
1010,1257
1007,1153
1061,1094
954,1238
896,1209
953,1181
1126,1203
1064,1145
1189,1128
955,1246
950,1118
892,1129
786,1154
836,1150
837,1146
787,1160
700,1250
655,1232
654,1194
653,1216
698,1188
699,1204
608,1279
696,1213
656,1266
833,1142
785,1158
835,1147
693,1170
894,1192
893,1160
1343,1412
1192,1398
1191,1415
828,1258
829,1244
780,1190
830,1239
779,1256
782,1157
529,1390
886,1173
596,1335
556,1355
598,1260
597,1284
526,1421
555,1412
525,1433
524,1449
523,1481
688,1210
607,1300
650,1271
651,1257
652,1289
737,1157
694,1199
695,1208
645,1216
646,1189
690,1171
600,1220
599,1232
781,1161
736,1165
558,1377
644,1237
643,1213
648,1199
692,1167
691,1162
513,1347
541,1377
540,1373
568,1315
530,1346
831,1164
559,1308
560,1307
642,1335
557,1350
496,1541
471,1590
444,1662
446,1619
528,1418
527,1433
562,1253
602,1243
734,1200
466,1450
464,1373
463,1378
478,1494
481,1521
480,1525
479,1469
647,1171
488,1428
502,1452
689,1193
533,1322
532,1344
531,1417
601,1266
484,1380
508,1319
510,1368
509,1339
534,1318
482,1506
506,1520
606,1415
455,1556
429,1454
456,1609
457,1606
428,1540
458,1494
554,1456
594,1451
640,1380
639,1415
551,1540
681,1565
636,1577
635,1602
590,1601
778,1265
777,1272
485,1406
486,1429
462,1391
563,1477
885,1184
943,1213
564,1336
641,1363
504,1424
503,1439
501,1462
500,1520
561,1281
254,1465
350,1411
321,1433
319,1449
251,1490
375,1399
347,1454
687,1219
565,1370
539,1375
511,1439
536,1390
649,1276
603,1294
605,1406
733,1214
735,1184
489,1467
514,1360
461,1628
460,1630
459,1614
468,1382
154,1598
178,1561
203,1531
228,1510
402,1409
401,1420
505,1525
522,1516
451,1617
452,1588
477,1528
476,1475
483,1688
884,1222
431,1419
430,1477
454,1547
595,1470
395,1598
394,1646
422,1826
417,1658
390,1643
538,1422
567,1391
426,1622
397,1553
398,1594
499,1615
475,1596
497,1510
498,1534
311,1454
342,1475
345,1434
421,1716
515,1476
472,1641
448,1672
473,1696
474,1739
353,1460
381,1428
256,1556
290,1531
324,1485
380,1443
407,1370
253,1514
226,1528
201,1542
177,1597
824,1376
775,1314
826,1279
939,1327
936,2758
937,1393
880,1525
566,1488
2821,65535
2834,65535
2833,65535
2789,65535
2790,65535
2770,65535
2788,65535
2776,65535
2795,65535
2775,65535
2794,65535
2825,65535
2824,65535
2826,65535
2811,65535
2812,65535
2796,65535
2827,65535
2858,65535
2855,65535
2849,65535
2838,65535
2814,65535
2813,65535
2828,65535
2839,65535
2791,65535
2792,65535
2803,65535
2830,65535
2815,65535
2819,65535
2818,65535
2817,65535
2831,65535
2810,65535
2829,65535
2783,65535
2820,65535
2804,65535
2785,65535
2784,65535
2762,65535
2768,65535
2751,65535
2750,65535
2733,65535
2769,65535
2720,65535
2761,65535
2741,65535
2837,65535
2793,65535
2808,65535
2753,65535
2736,65535
2735,65535
2809,65535
2772,65535
2845,65535
2844,65535
2848,65535
2777,65535
2778,65535
2779,65535
2759,65535
2780,65535
2797,65535
2843,65535
2832,65535
2842,65535
2758,65535
2738,65535
2774,65535
2773,65535
2771,65535
2851,65535
2847,65535
2854,65535
2721,65535
2756,65535
2737,65535
2840,65535
2752,65535
2754,65535
2755,65535
2852,65535
2853,65535
2856,65535
2841,65535
2742,65535
2727,65535
2744,65535
2726,65535
2743,65535
2725,65535
2746,65535
2787,65535
2766,65535
2763,65535
2765,65535
2745,65535
2764,65535
2552,65535
2501,65535
2443,65535
2442,65535
2320,65535
2381,65535
2382,65535
2498,65535
2499,65535
2438,65535
2439,65535
2497,65535
2441,65535
2379,65535
2380,65535
2319,65535
2551,65535
2550,65535
2563,65535
2321,65535
2322,65535
2383,65535
2384,65535
2446,65535
2445,65535
2503,65535
2385,65535
2504,65535
2505,65535
2557,65535
2558,65535
2559,65535
2560,65535
2564,65535
2562,65535
2561,65535
2605,65535
2609,65535
2565,65535
2566,65535
2515,4756
2397,4519
2457,4736
2458,4720
2401,65535
2337,4432
2336,4436
2399,4478
2398,4499
2402,65535
2333,4656
2273,4691
2219,4715
2218,4727
2159,4752
2454,65535
2393,65535
2512,65535
2502,65535
2608,65535
2156,65535
2155,65535
2154,65535
2213,65535
2212,65535
2211,65535
2210,65535
2264,65535
2324,65535
2323,65535
2030,65535
2094,65535
2157,65535
2450,65535
2388,65535
2387,65535
2326,65535
2266,65535
2265,65535
2508,65535
2396,4588
2335,4606
2334,4617
2158,4777
2279,65535
2278,65535
2222,65535
2221,65535
2276,65535
2275,3804
2261,65535
2207,65535
2149,65535
2554,65535
2599,65535
2633,65535
2664,65535
2689,65535
2690,65535
2691,65535
2692,65535
2152,65535
2089,65535
2088,65535
2025,65535
2603,65535
2602,65535
2556,65535
2693,65535
2671,65535
2670,65535
2694,65535
2553,65535
2665,65535
2705,65535
2710,65535
2668,65535
2639,65535
2463,65535
2521,65535
2572,65535
2451,65535
2390,65535
2391,65535
2392,65535
2215,65535
2268,65535
2093,65535
2092,65535
2028,65535
2024,65535
2150,65535
2086,65535
2209,65535
2023,65535
2087,65535
2148,65535
2262,65535
2327,65535
1560,1433
1630,1462
1631,1420
1559,1461
1629,1390
1558,1353
1634,1416
1633,1412
1482,1342
1481,1416
1699,1427
1700,1438
1701,1421
1563,1438
2070,1695
2008,1647
2009,1644
1959,1632
1958,1658
2006,1689
1957,1670
1956,1622
2193,1762
2132,1701
1912,1691
1911,1640
1865,1612
1866,1711
2007,1677
2069,1711
2010,1653
2011,1669
1961,1648
2072,1669
1913,1777
1867,1757
1962,1673
1914,1680
1915,1723
1909,1574
1636,1468
1635,1474
1564,1453
1702,1470
1637,1497
1638,1536
1565,1434
1486,1399
1760,1494
1704,1547
1703,1491
1763,1573
1762,1551
1817,1573
1705,1624
1863,1576
1815,1542
1759,1457
863,2768
758,2861
808,2812
982,2983
1036,2990
1099,3025
1100,3053
1166,3454
1167,3949
1237,3606
1238,3641
1375,3711
1308,3780
1309,3689
1236,3907
1235,3541
1101,3084
1037,3021
971,2564
1025,2547
1026,2562
1027,2575
1089,2588
720,2824
674,2870
864,2650
865,2671
919,2566
1024,2511
975,2685
974,2655
1028,2610
873,3010
925,2956
924,2933
917,2630
918,2606
623,3045
712,2917
713,2950
667,2955
622,3013
809,2798
719,2798
765,2759
972,2596
868,2708
869,2720
815,2739
920,2975
973,2641
981,2934
926,3035
927,3043
928,3067
1354,2560
1288,2501
1218,2477
1152,2546
1023,2475
1353,2574
1085,2455
1148,2385
1147,2378
1082,2329
772,3096
771,3053
819,3028
584,2944
628,2911
629,2900
1033,2831
978,2786
1031,2759
1030,2713
1029,2696
1091,2673
1035,2912
1034,2855
979,2813
1526,3830
1449,3868
1378,3896
1448,3819
1524,3797
1038,3068
1447,3860
1768,1730
1710,1680
1767,1731
391,1621
365,1615
339,1521
400,1486
393,1693
392,1670
396,1611
399,1605
443,1711
449,1714
450,1778
419,1633
414,1713
415,1675
387,1720
388,1731
389,1668
282,1594
281,1583
314,1562
313,1542
405,1375
411,2674
442,2633
255,1494
376,1442
373,1480
278,1465
275,1530
248,1648
335,1639
334,1613
306,1585
307,1561
176,1590
225,1601
320,1482
249,1637
287,1495
285,1531
776,1294
731,1339
315,1537
316,1548
204,1548
440,1403
439,1457
166,2865
269,2782
383,2720
1247,65535
1246,65535
1384,65535
1679,65535
1178,65535
1105,4009
1172,4028
1173,4078
1242,4080
1241,4072
1314,4229
1313,4135
1171,4054
1382,4335
1243,4277
1317,4416
1107,4017
1108,4196
1109,4481
1041,4026
1043,4236
1042,4227
1044,4290
1176,65535
1174,4303
1177,65535
1110,65535
985,4072
986,4115
932,4133
774,1329
730,1353
825,1340
728,1359
729,1376
727,1538
682,1421
684,1458
685,1378
732,1301
683,2302
2134,2215
2194,2244
2068,2171
2129,2225
1905,1506
1907,1529
1906,1513
1953,1507
2002,1564
2064,1601
2125,1608
2137,2356
2196,2312
2195,2267
1859,1500
1810,1490
1755,1380
2131,1726
2192,1740
1862,1722
1861,1680
1812,1513
1860,1537
1809,1398
1756,1449
1869,2248
1822,1750
1821,1724
1916,2210
1819,1648
1764,1634
1820,1681
1698,1470
1757,1453
1566,1508
1567,1489
1488,1421
1489,1416
1412,1404
1413,1411
1414,1455
1818,1788
1568,1499
1410,1450
2128,2256
2189,2283
2066,2221
2065,2210
2067,2222
1643,1598
1571,1542
1491,1490
2004,2251
2003,1650
1697,1543
2135,2237
2075,2296
1642,1557
1955,1550
2130,2440
2005,1730
1858,1504
1816,3688
1864,3681
1766,1725
1910,1614
1868,2239
2188,2635
2127,2604
1903,1391
2001,1627
2063,2262
2062,1430
1813,1476
1758,1456
1639,1598
1640,1556
1952,1481
2126,3770
1569,1505
1965,2466
1966,2485
2014,2425
1490,1462
1917,2230
1870,1868
1871,1882
1570,1564
1707,1633
2076,2342
2013,2534
1964,2312
1487,1453
1908,1835
2251,65535
2199,65535
2198,65535
2136,2286
1641,1654
1954,2266
1765,2189
1857,1451
2187,1885
1904,1430
1856,1365
1951,1473
1708,2283
245,3999
244,3982
357,3986
246,4114
247,4143
197,4237
223,4215
44,4579
43,4639
3,4775
23,4749
22,4738
63,4521
85,4463
84,4418
108,3918
149,3872
172,4263
296,3966
294,4014
355,4114
354,4146
326,4224
295,4123
291,4135
293,4257
260,4143
356,4174
441,3774
412,3797
329,4132
300,4076
148,3846
214,4084
146,3967
110,4048
262,4109
258,4522
292,4285
257,4587
235,4107
187,4007
212,4063
211,4090
186,4011
162,3985
161,4064
165,3963
189,4163
238,4244
237,4209
263,4145
265,4164
266,4142
267,4130
268,3970
26,4739
25,4707
105,65535
62,65535
83,65535
126,4085
175,4520
152,4454
151,4444
150,4403
103,4023
242,3916
191,3870
192,3921
217,3944
218,3997
145,3907
144,3991
167,3899
190,3877
219,4014
159,4111
185,4055
158,4168
188,3999
160,4076
143,65535
122,65535
75,65535
54,65535
198,4648
270,4011
221,4052
301,4109
302,3946
330,3973
331,3995
115,4047
133,4106
139,4003
134,4080
114,4604
48,65535
69,65535
92,4280
164,4073
4,65535
107,4425
129,4510
109,3950
125,3991
124,3965
127,65535
82,65535
67,65535
91,4448
93,4247
137,4382
113,4402
112,4360
136,65535
49,65535
72,65535
71,65535
406,1468
805,2290
858,2095
859,2236
967,1972
1142,2109
1080,2115
1022,2106
1079,2124
968,2091
1206,2085
915,2242
916,2277
914,2214
807,2329
911,3436
1078,2192
1207,2184
1278,2228
1277,2231
1344,2251
1415,2292
1492,2347
1345,2308
1346,2278
1208,2176
1209,2256
1143,2293
1144,2309
1145,2324
1417,2304
1493,2364
1494,2383
1572,2398
1081,2261
970,2464
408,1409
382,1464
437,1467
467,1436
409,1504
403,1426
432,1584
433,1543
404,1390
352,1531
351,1546
349,1501
317,1482
374,1572
346,1687
283,1593
410,1476
438,1493
465,1438
490,1403
491,1444
435,1537
436,1496
379,1625
323,1764
289,1593
377,1427
378,1451
592,1493
593,1465
552,1520
445,1636
424,1632
423,1634
416,2377
361,1682
362,1694
371,1583
372,1562
343,1516
344,1556
286,1631
227,1504
252,1552
284,1507
318,1489
250,1608
312,1487
340,1502
368,1541
369,1611
370,1600
341,1551
367,1618
308,1614
276,1579
277,1560
280,1518
310,1487
338,1590
366,1672
274,1659
305,1597
420,1699
363,1754
418,1640
550,2281
579,2304
576,2249
577,2261
578,2277
520,2257
618,2271
662,2301
619,2288
620,2301
621,2295
665,2277
666,2269
664,2297
580,2316
2260,65535
2257,65535
2206,65535
2146,65535
2314,65535
2313,65535
2312,65535
2373,65535
2256,65535
2205,65535
2434,65535
2435,65535
2375,65535
2376,65535
2433,65535
2491,65535
2490,65535
2492,65535
2546,65535
2597,65535
2596,65535
2544,65535
2145,65535
2082,65535
2020,65535
2494,65535
0,65535
11,65535
1052,3028
1053,3015
941,3055
1740,151
1796,177
1615,97
1681,0
1545,225
1797,214
1544,166
1741,252
1795,2162
1617,351
1546,324
1616,287
1683,329
1467,317
1547,360
1465,370
1387,448
1388,409
1464,429
1462,3019
1461,3040
1542,2931
1463,2983
1682,339
1543,266
1618,390
1742,2260
1460,2730
1248,2262
1850,1132
1801,2178
1803,1066
882,1279
881,1288
938,1338
883,1299
940,3798
1998,1276
1902,1361
1807,1326
1691,1007
1694,1272
1693,1132
1749,1098
1752,1193
1753,1251
1627,1321
1628,1334
1557,1379
1479,1322
1402,1317
1808,1315
1946,1195
1947,1226
1948,1268
1997,1272
1855,1357
1690,986
2060,1375
1949,1407
1950,1355
1751,1132
1692,1109
1999,1336
1901,1415
1900,1456
1852,1605
1853,1484
1805,1226
1750,1050
1854,1250
1806,1168
1748,1030
2061,1416
2000,1414
1804,1306
1899,1625
2884,65535
2892,65535
2883,65535
2876,65535
2874,65535
2882,65535
2877,65535
2911,65535
2905,65535
2906,65535
2896,65535
2887,65535
2881,65535
2880,65535
2888,65535
2902,65535
2903,65535
2907,65535
2912,65535
2895,65535
2894,65535
2875,65535
2885,65535
2893,65535
2904,65535
2865,65535
2866,65535
2909,65535
2913,65535
2886,65535
2878,65535
2869,65535
2871,65535
2872,65535
2879,65535
2870,65535
1330,1355
1331,1343
1401,1336
1262,1377
1263,1369
1478,1386
1403,1335
1261,1391
1480,1427
1264,1363
1390,347
1389,339
1319,394
1251,765
1250,841
1285,2401
1284,2406
1214,2378
1146,2344
1505,2627
1504,2561
1582,2599
1581,2527
1713,2506
1771,2488
1654,2638
1653,2611
1651,2563
2096,3742
2033,3702
1972,3673
1923,3605
1922,3583
1874,3277
1873,2990
1919,2943
1829,3954
1579,2463
1424,2504
1711,2480
1348,2304
1419,2324
1359,2731
1429,2682
1428,2668
1421,2381
1577,2415
1499,2388
1230,2975
1365,2912
1511,2834
1300,2957
1366,2929
1512,2862
1716,2696
1503,2973
1276,2258
1347,2288
1349,2336
1645,2472
1578,2450
1770,2484
1715,2539
1150,2443
1217,2457
1149,2419
1580,2509
1352,2496
1502,2527
1825,2896
1718,2851
1717,2825
1872,2929
1656,2740
1648,2515
1712,2492
1213,2368
1212,2349
1084,2390
1420,2370
1281,2294
1282,2355
1587,2734
1586,2701
1585,2690
1652,2658
1427,2836
1975,3777
1977,3845
1932,3915
1931,4540
1426,2556
1422,2398
1425,2541
1583,2627
1501,2485
1283,2396
1286,2443
1215,2428
1211,2325
1210,2299
1083,2361
1655,2729
2220,3783
1355,65535
1772,2497
1436,2880
1435,2870
1589,2803
1163,3008
1735,4128
1791,4061
1841,4038
1840,3994
1219,2560
1220,2599
1647,2501
1646,2493
1279,2246
1714,2516
1575,2475
1576,2437
1498,2445
1573,2487
1496,2505
1497,2476
2177,2485
2176,2555
2294,2472
2293,2591
2237,2532
2236,2561
2364,2333
2302,2273
2301,2195
2245,2097
2056,2227
2057,2313
2055,2206
2184,2258
2120,2264
2244,2178
2538,2518
2537,2499
2591,2615
1940,2390
1989,2398
1990,2334
2539,2518
2482,2509
2483,2471
2424,2367
2121,2325
2119,2138
2050,2447
2049,2525
2048,2943
2185,2291
2243,2017
2299,2231
2241,2180
2485,2549
2542,2604
2353,2563
2292,2470
2419,2357
2478,2404
2479,2439
2536,2466
2484,2510
2486,2503
2354,2402
2416,2579
2242,2225
2355,2440
2300,2238
1991,2338
1992,2345
2477,2395
2534,2416
2535,2531
2588,2436
2587,2450
2630,2501
2051,2259
2116,2153
2175,2588
2586,65535
2541,2671
2178,2460
2179,2263
2240,2210
2239,2434
2238,2504
2052,2390
2053,2356
1987,2630
1988,2478
1939,2502
2594,2621
2593,2606
2358,2324
2357,2334
2420,2390
2247,2386
2427,2476
2428,2498
2181,2057
2180,2106
2417,2384
2590,2596
2297,2219
2361,2411
2362,2294
2423,2382
2422,2347
2174,2818
2356,2445
1941,2379
2365,2510
2112,2823
2047,2965
2182,2196
2359,2273
2533,3211
2295,2536
2115,2226
2632,2656
2631,2595
2186,1756
2298,2305
2360,2329
2235,2781
2291,2794
2487,2725
2246,2318
2425,3126
2117,2450
2543,2678
1893,65535
2421,2482
2476,2400
2592,2654
604,2266
