middle_point_id,reach_time_minutes
2835,65535
2836,65535
2806,65535
2822,65535
2823,65535
2807,65535
2846,65535
887,917
888,897
1326,971
1185,938
999,920
1057,1157
1552,94
1120,910
1473,155
944,1018
832,899
1257,959
1396,501
1622,115
1327,3784
1184,925
1183,970
1324,1111
1255,1191
1394,162
1252,809
1253,905
1182,944
1328,65535
1470,180
1321,792
1322,1033
1323,245
1391,790
1551,112
1393,204
1472,640
1471,157
1181,2774
1118,959
1059,805
1121,857
1469,380
1468,389
1548,225
1325,1045
1625,38
1623,81
1258,997
1256,1034
791,584
891,674
703,861
704,864
660,875
1553,108
1624,67
1554,172
1474,160
1475,167
1550,122
1549,174
1320,530
1466,470
1541,2515
1318,826
1249,846
1186,929
1003,765
1002,798
741,780
788,610
434,986
697,840
752,940
1056,972
1006,505
907,915
518,951
1011,398
1000,873
1055,1502
997,1382
994,1288
996,1376
995,1363
991,1332
1112,65535
1114,1334
1051,1315
1398,252
1395,930
1001,829
1811,424
1960,1004
1769,1184
1823,1203
1329,65535
1332,265
1259,1160
1200,417
1199,418
1140,858
1141,862
783,886
1689,139
1802,200
1945,361
2183,979
2418,1423
1994,395
1995,428
2059,490
1621,65535
1555,96
1754,281
1180,863
1106,2470
933,2726
827,1028
2122,1219
2124,997
493,962
519,955
544,949
545,953
494,964
470,1007
543,963
469,982
517,967
574,961
573,928
495,1000
546,969
613,892
612,903
492,976
572,932
571,960
570,944
610,915
575,1016
547,998
516,1002
611,921
542,978
569,980
609,945
548,2229
549,2264
1404,259
1405,293
1266,322
1193,470
743,913
742,766
747,594
746,587
745,600
744,623
790,591
789,602
839,665
838,667
738,883
739,846
740,819
890,806
834,900
784,893
889,853
856,1019
855,960
854,968
853,955
852,947
910,952
909,943
908,938
964,911
965,938
1020,911
966,963
963,891
1021,1009
1271,415
1270,413
1339,460
1338,447
1071,447
1072,458
1135,427
1408,463
1337,398
1269,391
1268,375
1136,468
1075,852
1077,858
1076,871
1019,884
1018,875
1074,711
1137,696
1272,420
1274,504
1275,889
1205,932
1204,839
1273,476
1198,442
1197,381
1341,524
1134,424
1133,375
1069,361
1132,357
1073,470
1203,569
1202,462
1201,446
1139,497
1267,337
1138,896
1340,433
1196,345
1342,869
1409,474
1485,792
1407,889
1561,426
1632,468
1484,821
1483,381
1562,418
1194,358
1130,365
1195,346
1335,302
1129,384
1066,398
1128,431
1067,425
1131,362
1334,314
1336,374
1265,335
1333,268
1406,347
857,1788
803,1822
804,2239
860,2247
969,2200
913,2187
912,2125
861,2257
806,2300
659,870
751,883
658,885
705,868
702,843
706,963
753,962
614,882
701,786
661,880
616,944
848,901
796,914
797,920
798,913
750,870
707,1006
615,941
748,931
845,954
846,926
657,912
749,906
795,975
617,951
663,1046
794,944
847,932
849,930
902,905
901,910
900,904
793,608
899,887
898,866
897,606
844,973
842,592
841,581
956,448
792,591
843,964
840,607
850,933
903,885
800,941
755,953
756,1003
710,1034
711,1138
962,929
961,917
904,900
906,904
851,927
802,958
801,948
799,963
959,867
1014,468
1013,475
708,1794
709,1822
754,975
757,1031
1017,538
1016,533
960,843
905,936
958,855
957,388
1070,381
1015,825
1012,380
1068,411
1005,549
1004,590
1060,812
1063,495
1065,407
1127,467
1062,545
1124,872
1123,859
1125,863
1188,948
1122,898
1058,847
947,833
946,849
949,603
945,887
948,814
1190,938
1187,971
951,511
895,541
952,624
1009,902
1008,535
1010,429
1007,548
1061,852
954,517
896,544
953,575
1126,878
1064,449
1189,997
955,498
950,525
892,670
786,674
836,670
837,665
787,640
700,808
655,870
654,910
653,902
698,817
699,605
608,873
696,942
656,867
833,898
785,868
835,885
693,870
894,900
893,749
1343,863
1192,433
1191,395
828,1018
829,1004
780,950
830,999
779,1016
782,891
529,1046
886,933
596,1089
556,1117
598,1020
597,1043
526,1113
555,1132
525,1149
524,1226
523,1127
688,935
607,940
650,1029
651,910
652,924
737,896
694,902
695,927
645,947
646,943
690,918
600,952
599,959
781,905
736,905
558,1111
644,949
643,960
648,962
692,899
691,909
513,922
541,1017
540,1012
568,894
530,1069
831,924
559,1042
560,1075
642,1095
557,1096
496,1159
471,1212
444,1285
446,1230
528,1061
527,1076
562,1016
602,986
734,942
466,1047
464,958
463,976
478,1219
481,1138
480,1168
479,1160
647,928
488,947
502,1099
689,928
533,1022
532,1044
531,1101
601,966
484,1101
508,1071
510,1094
509,1082
534,1063
482,1166
506,1224
606,1001
455,1271
429,1176
456,1405
457,1244
428,1167
458,1158
554,1192
594,1183
640,1163
639,1269
551,1150
681,1205
636,1220
635,1199
590,1186
778,1025
777,1032
485,1084
486,1065
462,1031
563,1089
885,944
943,968
564,1040
641,1129
504,1121
503,1139
501,1277
500,1344
561,1050
254,1105
350,1053
321,1175
319,1098
251,1138
375,1086
347,1270
687,979
565,1054
539,980
511,1076
536,1092
649,982
603,999
605,1406
733,967
735,917
489,1107
514,999
461,1090
460,1101
459,1121
468,995
154,1298
178,1260
203,1231
228,1150
402,1095
401,1129
505,1285
522,1150
451,1398
452,1348
477,1231
476,1300
483,1244
884,1102
431,1052
430,1123
454,1240
595,1110
395,1259
394,1286
422,1452
417,1266
390,1278
538,999
567,1113
426,1216
397,1197
398,1162
499,1313
475,1362
497,1230
498,1247
311,1156
342,1163
345,1120
421,1338
515,1267
472,1587
448,1548
473,1501
474,1379
353,1128
381,1076
256,1196
290,1171
324,1138
380,1134
407,1114
253,1143
226,1168
201,1181
177,1244
824,1196
775,1169
826,1039
939,1147
936,1318
937,1213
880,1061
566,1033
2821,65535
2834,65535
2833,65535
2789,65535
2790,65535
2770,65535
2788,65535
2776,65535
2795,65535
2775,65535
2794,65535
2825,65535
2824,65535
2826,65535
2811,65535
2812,65535
2796,65535
2827,65535
2858,65535
2855,65535
2849,65535
2838,65535
2814,65535
2813,65535
2828,65535
2839,65535
2791,65535
2792,65535
2803,65535
2830,65535
2815,65535
2819,65535
2818,65535
2817,65535
2831,65535
2810,65535
2829,65535
2783,65535
2820,65535
2804,65535
2785,65535
2784,65535
2762,65535
2768,65535
2751,65535
2750,65535
2733,65535
2769,65535
2720,65535
2761,65535
2741,65535
2837,65535
2793,65535
2808,65535
2753,65535
2736,65535
2735,65535
2809,65535
2772,65535
2845,65535
2844,65535
2848,65535
2777,65535
2778,65535
2779,65535
2759,65535
2780,65535
2797,65535
2843,65535
2832,65535
2842,65535
2758,65535
2738,65535
2774,65535
2773,65535
2771,65535
2851,65535
2847,65535
2854,65535
2721,65535
2756,65535
2737,65535
2840,65535
2752,65535
2754,65535
2755,65535
2852,65535
2853,65535
2856,65535
2841,65535
2742,65535
2727,65535
2744,65535
2726,65535
2743,65535
2725,65535
2746,65535
2787,65535
2766,65535
2763,65535
2765,65535
2745,65535
2764,65535
2552,65535
2501,65535
2443,65535
2442,65535
2320,65535
2381,65535
2382,65535
2498,65535
2499,65535
2438,65535
2439,65535
2497,65535
2441,65535
2379,65535
2380,65535
2319,65535
2551,65535
2550,65535
2563,65535
2321,65535
2322,65535
2383,65535
2384,65535
2446,65535
2445,65535
2503,65535
2385,65535
2504,65535
2505,65535
2557,65535
2558,65535
2559,65535
2560,65535
2564,65535
2562,65535
2561,65535
2605,65535
2609,65535
2565,65535
2566,65535
2515,4756
2397,4519
2457,4736
2458,4720
2401,65535
2337,4432
2336,4436
2399,4478
2398,4499
2402,65535
2333,4656
2273,4691
2219,4715
2218,4727
2159,4752
2454,65535
2393,65535
2512,65535
2502,65535
2608,65535
2156,65535
2155,65535
2154,65535
2213,65535
2212,65535
2211,65535
2210,65535
2264,65535
2324,65535
2323,65535
2030,65535
2094,65535
2157,65535
2450,65535
2388,65535
2387,65535
2326,65535
2266,65535
2265,65535
2508,65535
2396,4588
2335,4606
2334,4617
2158,4777
2279,65535
2278,65535
2222,65535
2221,65535
2276,65535
2275,3804
2261,65535
2207,65535
2149,65535
2554,65535
2599,65535
2633,65535
2664,65535
2689,65535
2690,65535
2691,65535
2692,65535
2152,65535
2089,65535
2088,65535
2025,65535
2603,65535
2602,65535
2556,65535
2693,65535
2671,65535
2670,65535
2694,65535
2553,65535
2665,65535
2705,65535
2710,65535
2668,65535
2639,65535
2463,65535
2521,65535
2572,65535
2451,65535
2390,65535
2391,65535
2392,65535
2215,65535
2268,65535
2093,65535
2092,65535
2028,65535
2024,65535
2150,65535
2086,65535
2209,65535
2023,65535
2087,65535
2148,65535
2262,65535
2327,65535
1560,446
1630,769
1631,787
1559,766
1629,411
1558,308
1634,866
1633,479
1482,798
1481,777
1699,793
1700,824
1701,503
1563,871
2070,1018
2008,1014
2009,1014
1959,1008
1958,1052
2006,1061
1957,1055
1956,1001
2193,1267
2132,1209
1912,1032
1911,1043
1865,1087
1866,1179
2007,1028
2069,1043
2010,1053
2011,1140
1961,1045
2072,1129
1913,1179
1867,1230
1962,1078
1914,1087
1915,1120
1909,941
1636,818
1635,835
1564,849
1702,774
1637,851
1638,885
1565,853
1486,857
1760,818
1704,955
1703,942
1763,1035
1762,1009
1817,1047
1705,1102
1863,900
1815,866
1759,973
863,2768
758,2861
808,2812
982,2983
1036,2990
1099,3025
1100,3053
1166,3454
1167,3949
1237,3606
1238,3641
1375,3711
1308,3780
1309,3689
1236,3907
1235,3541
1101,3084
1037,3021
971,2564
1025,2547
1026,2562
1027,2575
1089,2588
720,2824
674,2870
864,2650
865,2671
919,2566
1024,2511
975,2685
974,2655
1028,2610
873,3010
925,2956
924,2933
917,2630
918,2606
623,3045
712,2917
713,2950
667,2955
622,3013
809,2798
719,2798
765,2759
972,2596
868,2708
869,2720
815,2739
920,2975
973,2641
981,2934
926,3035
927,3043
928,3067
1354,2560
1288,2501
1218,2477
1152,2546
1023,2475
1353,2574
1085,2455
1148,2385
1147,2378
1082,2329
772,3096
771,3053
819,3028
584,2944
628,2911
629,2900
1033,2831
978,2786
1031,2759
1030,2713
1029,2696
1091,2673
1035,2912
1034,2855
979,2813
1526,3830
1449,3868
1378,3896
1448,3819
1524,3797
1038,3068
1447,3860
1768,1190
1710,1148
1767,1163
391,1262
365,1224
339,1212
400,1123
393,1334
392,1310
396,1220
399,1242
443,1350
449,1422
450,1398
419,1293
414,1480
415,1351
387,1344
388,1312
389,1297
282,1234
281,1225
314,1201
313,1182
405,1015
411,1494
442,1453
255,1198
376,1243
373,1258
278,1165
275,1288
248,1335
335,1399
334,1373
306,1345
307,1322
176,1228
225,1184
320,1182
249,1275
287,1156
285,1195
776,1039
731,1055
315,1181
316,1163
204,1264
440,1043
439,1097
166,2865
269,2782
383,2720
1247,65535
1246,65535
1384,65535
1679,65535
1178,3903
1105,2512
1172,2528
1173,2504
1242,3092
1241,2570
1314,3127
1313,3154
1171,2553
1382,4335
1243,2586
1317,4416
1107,2755
1108,3054
1109,3108
1041,2563
1043,3818
1042,3739
1044,4290
1176,3804
1174,4303
1177,3852
1110,3859
985,2632
986,2675
932,2693
774,1190
730,1079
825,1212
728,1166
729,1136
727,1178
682,1181
684,1098
685,1078
732,1061
683,2302
2134,1368
2194,1391
2068,1075
2129,1130
1905,777
1907,912
1906,877
1953,873
2002,914
2064,956
2125,971
2137,1827
2196,1498
2195,1444
1859,785
1810,775
1755,525
2131,1081
2192,1119
1862,941
1861,895
1812,856
1860,893
1809,258
1756,695
1869,1236
1822,1205
1821,1221
1916,1275
1819,1113
1764,1092
1820,1195
1698,730
1757,755
1566,895
1567,922
1488,895
1489,1016
1412,927
1413,939
1414,880
1818,1132
1568,1074
1410,826
2128,1177
2189,1204
2066,1286
2065,1389
2067,1127
1643,1108
1571,1058
1491,1022
2004,1296
2003,1252
1697,930
2135,1583
2075,1445
1642,1084
1955,974
2130,1477
2005,1065
1858,762
1816,3688
1864,3681
1766,1157
1910,981
1868,1227
2188,1411
2127,1380
1903,466
2001,957
2063,1404
2062,1212
1813,933
1758,917
1639,935
1640,961
1952,927
2126,3770
1569,971
1965,1302
1966,1348
2014,1368
1490,980
1917,1261
1870,1250
1871,1264
1570,1005
1707,1098
2076,1435
2013,1400
1964,1354
1487,877
1908,1057
2251,65535
2199,65535
2198,65535
2136,1585
1641,1105
1954,1048
1765,1176
1857,419
2187,984
1904,470
1856,418
1951,879
1708,1308
245,3999
244,3982
357,3986
246,4114
247,4143
197,4237
223,4215
44,4579
43,4639
3,4775
23,4749
22,4738
63,4521
85,4463
84,4418
108,3918
149,3872
172,4263
296,3966
294,4014
355,4114
354,4146
326,4224
295,4123
291,4135
293,4257
260,4143
356,4174
441,3774
412,3797
329,4132
300,4076
148,3846
214,4084
146,3967
110,4048
262,4109
258,4522
292,4285
257,4587
235,4107
187,4007
212,4063
211,4090
186,4011
162,3985
161,4064
165,3963
189,4163
238,4244
237,4209
263,4145
265,4164
266,4142
267,4130
268,3970
26,4739
25,4707
105,65535
62,65535
83,65535
126,4085
175,4520
152,4454
151,4444
150,4403
103,4023
242,3916
191,3870
192,3921
217,3944
218,3997
145,3907
144,3991
167,3899
190,3877
219,4014
159,4111
185,4055
158,4168
188,3999
160,4076
143,65535
122,65535
75,65535
54,65535
198,4648
270,4011
221,4052
301,4109
302,3946
330,3973
331,3995
115,4047
133,4106
139,4003
134,4080
114,4604
48,65535
69,65535
92,4280
164,4073
4,65535
107,4425
129,4510
109,3950
125,3991
124,3965
127,65535
82,65535
67,65535
91,4448
93,4247
137,4382
113,4402
112,4360
136,65535
49,65535
72,65535
71,65535
406,1228
805,2290
858,2095
859,2236
967,1972
1142,2109
1080,2115
1022,2106
1079,2124
968,2091
1206,2085
915,2242
916,2277
914,2214
807,2329
911,3436
1078,2192
1207,2184
1278,2228
1277,2231
1344,2251
1415,2292
1492,2347
1345,2308
1346,2278
1208,2176
1209,2256
1143,2293
1144,2309
1145,2324
1417,2304
1493,2364
1494,2383
1572,2398
1081,2261
970,2464
408,1100
382,1099
437,1035
467,1071
409,1084
403,1129
432,1123
433,1134
404,1036
352,1162
351,1142
349,1137
317,1329
374,1228
346,1247
283,1242
410,1116
438,1133
465,972
490,1011
491,1106
435,1055
436,1000
379,1595
323,1321
289,1352
377,1069
378,1091
592,1353
593,1379
552,1149
445,1277
424,1331
423,1313
416,2377
361,1412
362,1347
371,1342
372,1326
343,1516
344,1556
286,1435
227,1143
252,1166
284,1188
318,1190
250,1192
312,1243
340,1213
368,1242
369,1233
370,1242
341,1237
367,1260
308,1315
276,1308
277,1288
280,1278
310,1187
338,1233
366,1277
274,1349
305,1413
420,1329
363,1393
418,1336
550,2281
579,2304
576,2249
577,2261
578,2277
520,2257
618,2271
662,2301
619,2288
620,2301
621,2295
665,2277
666,2269
664,2297
580,2316
2260,65535
2257,65535
2206,65535
2146,65535
2314,65535
2313,65535
2312,65535
2373,65535
2256,65535
2205,65535
2434,65535
2435,65535
2375,65535
2376,65535
2433,65535
2491,65535
2490,65535
2492,65535
2546,65535
2597,65535
2596,65535
2544,65535
2145,65535
2082,65535
2020,65535
2494,65535
0,65535
11,65535
1052,1468
1053,1455
941,1440
1740,2461
1796,2535
1615,2319
1681,2396
1545,2200
1797,2575
1544,2275
1741,2553
1795,2856
1617,2220
1546,2206
1616,2237
1683,2341
1467,412
1547,421
1465,2180
1387,2247
1388,765
1464,2264
1462,3019
1461,3040
1542,2931
1463,2983
1682,2528
1543,2396
1618,2277
1742,2654
1460,2730
1248,2262
1850,217
1801,2178
1803,196
882,1039
881,1048
938,1158
883,1059
940,2358
1998,735
1902,861
1807,246
1691,79
1694,210
1693,832
1749,138
1752,113
1753,171
1627,241
1628,253
1557,287
1479,253
1402,237
1808,235
1946,955
1947,900
1948,804
1997,690
1855,367
1690,86
2060,1077
1949,959
1950,815
1751,95
1692,0
1999,751
1901,825
1900,766
1852,738
1853,700
1805,214
1750,90
1854,409
1806,208
1748,175
2061,1124
2000,814
1804,219
1899,787
2884,65535
2892,65535
2883,65535
2876,65535
2874,65535
2882,65535
2877,65535
2911,65535
2905,65535
2906,65535
2896,65535
2887,65535
2881,65535
2880,65535
2888,65535
2902,65535
2903,65535
2907,65535
2912,65535
2895,65535
2894,65535
2875,65535
2885,65535
2893,65535
2904,65535
2865,65535
2866,65535
2909,65535
2913,65535
2886,65535
2878,65535
2869,65535
2871,65535
2872,65535
2879,65535
2870,65535
1330,288
1331,263
1401,256
1262,325
1263,296
1478,306
1403,255
1261,382
1480,364
1264,282
1390,437
1389,463
1319,755
1251,765
1250,841
1285,2401
1284,2406
1214,2378
1146,2344
1505,2627
1504,2561
1582,2599
1581,2527
1713,2506
1771,2488
1654,2638
1653,2611
1651,2563
2096,3742
2033,3702
1972,3673
1923,3605
1922,3583
1874,3277
1873,2990
1919,2943
1829,3954
1579,2463
1424,2504
1711,2480
1348,2304
1419,2324
1359,2731
1429,2682
1428,2668
1421,2381
1577,2415
1499,2388
1230,2975
1365,2912
1511,2834
1300,2957
1366,2929
1512,2862
1716,2696
1503,2973
1276,2258
1347,2288
1349,2336
1645,2472
1578,2450
1770,2484
1715,2539
1150,2443
1217,2457
1149,2419
1580,2509
1352,2496
1502,2527
1825,2896
1718,2851
1717,2825
1872,2929
1656,2740
1648,2515
1712,2492
1213,2368
1212,2349
1084,2390
1420,2370
1281,2294
1282,2355
1587,2734
1586,2701
1585,2690
1652,2658
1427,2836
1975,3777
1977,3845
1932,3915
1931,4540
1426,2556
1422,2398
1425,2541
1583,2627
1501,2485
1283,2396
1286,2443
1215,2428
1211,2325
1210,2299
1083,2361
1655,2729
2220,3783
1355,65535
1772,2497
1436,2880
1435,2870
1589,2803
1163,3008
1735,4128
1791,4061
1841,4038
1840,3994
1219,2560
1220,2599
1647,2501
1646,2493
1279,2246
1714,2516
1575,2475
1576,2437
1498,2445
1573,2487
1496,2505
1497,2476
2177,1322
2176,1387
2294,1513
2293,1468
2237,1428
2236,1450
2364,1298
2302,1228
2301,1209
2245,1164
2056,1037
2057,1201
2055,1032
2184,1371
2120,1294
2244,991
2538,1499
2537,1479
2591,1516
1940,1340
1989,1324
1990,1280
2539,1522
2482,1563
2483,1550
2424,1492
2121,2325
2119,1009
2050,1419
2049,1441
2048,1503
2185,1366
2243,1004
2299,1229
2241,1229
2485,1459
2542,1571
2353,1790
2292,1533
2419,1388
2478,1396
2479,1413
2536,1440
2484,1514
2486,1407
2354,1514
2416,2326
2242,1051
2355,1405
2300,1358
1991,1363
1992,1104
2477,1458
2534,1550
2535,1430
2588,1589
2587,1621
2630,1634
2051,1186
2116,1154
2175,1438
2586,65535
2541,1642
2178,1288
2179,1259
2240,1259
2239,1330
2238,1385
2052,1230
2053,1325
1987,1408
1988,1328
1939,1334
2594,1644
2593,1616
2358,1286
2357,1329
2420,1439
2247,1621
2427,1392
2428,1450
2181,1049
2180,1101
2417,1431
2590,1495
2297,1262
2361,1486
2362,1430
2423,1465
2422,1324
2174,1531
2356,1395
1941,1362
2365,1707
2112,1459
2047,1525
2182,1061
2359,1344
2533,1771
2295,1611
2115,1197
2632,2462
2631,2401
2186,1328
2298,1089
2360,1144
2235,2221
2291,2234
2487,1630
2246,1549
2425,1686
2117,1647
2543,1657
1893,65535
2421,1633
2476,1446
2592,1631
604,2266
