middle_point_id,reach_time_minutes
2835,65535
2836,65535
2806,65535
2822,65535
2823,65535
2807,65535
2846,65535
887,864
888,838
1326,781
1185,797
999,890
1057,885
1552,789
1120,869
1473,819
944,901
832,830
1257,740
1396,823
1622,895
1327,904
1184,856
1183,886
1324,874
1255,924
1394,945
1252,1187
1253,1156
1182,1141
1328,65535
1470,1020
1321,1194
1322,1135
1323,1085
1391,1207
1551,798
1393,1060
1472,804
1471,949
1181,1454
1118,1199
1059,772
1121,805
1469,1081
1468,1300
1548,1065
1325,835
1625,611
1623,777
1258,570
1256,851
791,516
891,776
703,768
704,784
660,788
1553,807
1624,733
1554,894
1474,820
1475,901
1550,916
1549,1014
1320,1252
1466,1304
1541,1720
1318,1366
1249,1389
1186,791
1003,777
1002,775
741,788
788,537
434,944
697,810
752,795
1056,889
1006,432
907,431
518,869
1011,337
1000,818
1055,1622
997,1591
994,1485
996,1557
995,1541
991,1332
1112,3965
1114,1572
1051,1535
1398,972
1395,855
1001,801
1811,228
1960,759
1769,298
1823,279
1329,65535
1332,437
1259,1736
1200,235
1199,235
1140,444
1141,442
783,818
1689,868
1802,897
1945,1436
2183,1918
2418,2367
1994,1472
1995,1868
2059,997
1621,65535
1555,567
1754,559
1180,2303
1106,2565
933,2726
827,930
2122,2333
2124,877
493,877
519,875
544,867
545,868
494,881
470,902
543,864
469,887
517,886
574,865
573,853
495,899
546,873
613,832
612,847
492,897
572,859
571,880
570,884
610,871
575,922
547,918
516,906
611,921
542,871
569,899
609,882
548,950
549,979
1404,364
1405,233
1266,271
1193,347
743,774
742,775
747,566
746,784
745,810
744,782
790,525
789,531
839,542
838,547
738,812
739,803
740,794
890,793
834,833
784,814
889,820
856,552
855,489
854,495
853,476
852,467
910,480
909,466
908,438
964,427
965,466
1020,863
966,490
963,411
1021,535
1271,233
1270,231
1339,220
1338,206
1071,303
1072,267
1135,247
1408,177
1337,219
1269,255
1268,261
1136,248
1075,309
1077,438
1076,377
1019,342
1018,333
1074,272
1137,264
1272,241
1274,376
1275,410
1205,452
1204,437
1273,347
1198,256
1197,285
1341,282
1134,252
1133,259
1069,301
1132,294
1073,263
1203,403
1202,345
1201,273
1139,388
1267,274
1138,296
1340,227
1196,289
1342,378
1409,165
1485,201
1407,203
1561,117
1632,103
1484,314
1483,173
1562,148
1194,303
1130,311
1195,301
1335,266
1129,331
1066,335
1128,431
1067,331
1131,299
1334,432
1336,259
1265,276
1333,422
1406,204
857,1788
803,3082
804,6559
860,6567
969,6520
913,6507
912,6445
861,6577
806,6620
659,776
751,788
658,765
705,787
702,749
706,800
753,789
614,805
701,737
661,820
616,818
848,750
796,805
797,789
798,777
750,783
707,891
615,941
748,538
845,778
846,805
657,852
749,725
795,834
617,891
663,926
794,857
847,797
849,487
902,788
901,799
900,826
793,530
899,775
898,794
897,559
844,769
842,521
841,513
956,395
792,523
843,746
840,550
850,453
903,770
800,467
755,533
756,790
710,973
711,1018
962,451
961,756
904,748
906,422
851,447
802,484
801,500
799,491
959,807
1014,334
1013,372
708,1723
709,1698
754,764
757,851
1017,791
1016,475
960,787
905,461
958,795
957,786
1070,316
1015,296
1012,320
1068,339
1005,474
1004,769
1060,766
1063,462
1065,407
1127,467
1062,465
1124,482
1123,518
1125,470
1188,510
1122,807
1058,788
947,802
946,844
949,813
945,870
948,784
1190,774
1187,836
951,439
895,474
952,424
1009,375
1008,401
1010,358
1007,417
1061,518
954,727
896,471
953,436
1126,494
1064,447
1189,568
955,720
950,499
892,580
786,584
836,580
837,576
787,548
700,815
655,853
654,879
653,856
698,828
699,813
608,869
696,816
656,850
833,825
785,811
835,823
693,809
894,499
893,551
1343,780
1192,761
1191,550
828,921
829,914
780,890
830,908
779,926
782,822
529,964
886,878
596,983
556,993
598,944
597,961
526,1006
555,1046
525,1060
524,1076
523,1047
688,910
607,859
650,849
651,841
652,850
737,827
694,817
695,819
645,885
646,857
690,851
600,890
599,900
781,831
736,841
558,990
644,907
643,913
648,836
692,822
691,831
513,922
541,897
540,944
568,894
530,955
831,864
559,973
560,930
642,1038
557,990
496,1076
471,1107
444,1182
446,1137
528,971
527,1011
562,897
602,864
734,906
466,947
464,954
463,976
478,1102
481,1012
480,1029
479,1079
647,884
488,942
502,977
689,868
533,903
532,924
531,938
601,879
484,1021
508,959
510,1007
509,981
534,961
482,1027
506,980
606,905
455,1210
429,1039
456,1174
457,1144
428,1087
458,1066
554,1132
594,1071
640,1047
639,1149
551,1070
681,1115
636,1136
635,1157
590,1121
778,935
777,954
485,1046
486,1059
462,1031
563,920
885,944
943,2291
564,1008
641,1041
504,1045
503,1021
501,1037
500,1102
561,918
254,1045
350,993
321,1009
319,1068
251,1134
375,1026
347,1037
687,919
565,1040
539,942
511,1070
536,1061
649,852
603,921
605,1406
733,927
735,857
489,953
514,933
461,1089
460,1101
459,1121
468,880
154,1179
178,1144
203,1114
228,1085
402,1023
401,1115
505,985
522,1095
451,1247
452,1216
477,1145
476,1094
483,1066
884,1114
431,994
430,1057
454,1240
595,997
395,1259
394,1286
422,1359
417,1180
390,1221
538,950
567,891
426,1382
397,1197
398,1162
499,1227
475,1149
497,1134
498,1162
311,1098
342,1103
345,1037
421,1378
515,953
472,1331
448,1300
473,1256
474,1182
353,1040
381,1034
256,1196
290,1120
324,1060
380,1083
407,1007
253,1143
226,1168
201,1181
177,1189
824,1016
775,987
826,949
939,1027
936,1318
937,1093
880,1061
566,1095
2821,65535
2834,65535
2833,65535
2789,65535
2790,65535
2770,65535
2788,65535
2776,65535
2795,65535
2775,65535
2794,65535
2825,65535
2824,65535
2826,65535
2811,65535
2812,65535
2796,65535
2827,65535
2858,65535
2855,65535
2849,65535
2838,65535
2814,65535
2813,65535
2828,65535
2839,65535
2791,65535
2792,65535
2803,65535
2830,65535
2815,65535
2819,65535
2818,65535
2817,65535
2831,65535
2810,65535
2829,65535
2783,65535
2820,65535
2804,65535
2785,65535
2784,65535
2762,65535
2768,65535
2751,65535
2750,65535
2733,65535
2769,65535
2720,65535
2761,65535
2741,65535
2837,65535
2793,65535
2808,65535
2753,65535
2736,65535
2735,65535
2809,65535
2772,65535
2845,65535
2844,65535
2848,65535
2777,65535
2778,65535
2779,65535
2759,65535
2780,65535
2797,65535
2843,65535
2832,65535
2842,65535
2758,65535
2738,65535
2774,65535
2773,65535
2771,65535
2851,65535
2847,65535
2854,65535
2721,65535
2756,65535
2737,65535
2840,65535
2752,65535
2754,65535
2755,65535
2852,65535
2853,65535
2856,65535
2841,65535
2742,65535
2727,65535
2744,65535
2726,65535
2743,65535
2725,65535
2746,65535
2787,65535
2766,65535
2763,65535
2765,65535
2745,65535
2764,65535
2552,65535
2501,65535
2443,65535
2442,65535
2320,65535
2381,65535
2382,65535
2498,65535
2499,65535
2438,65535
2439,65535
2497,65535
2441,65535
2379,65535
2380,65535
2319,65535
2551,65535
2550,65535
2563,7077
2321,6613
2322,6582
2383,6594
2384,6800
2446,6842
2445,6849
2503,6868
2385,6833
2504,7198
2505,7220
2557,7244
2558,7269
2559,7293
2560,7257
2564,7425
2562,7145
2561,7185
2605,7200
2609,7472
2565,7548
2566,7564
2515,7575
2397,5959
2457,7605
2458,7627
2401,6036
2337,5872
2336,5876
2399,5918
2398,5939
2402,6096
2333,6096
2273,6131
2219,6155
2218,6167
2159,6192
2454,6784
2393,6750
2512,7044
2502,7036
2608,7463
2156,6314
2155,6346
2154,6375
2213,6391
2212,6403
2211,6451
2210,6492
2264,6499
2324,6533
2323,6549
2030,65535
2094,65535
2157,6278
2450,7441
2388,7490
2387,7558
2326,7595
2266,7630
2265,6974
2508,7412
2396,6028
2335,6046
2334,6057
2158,6217
2279,8186
2278,8150
2222,8119
2221,8101
2276,8083
2275,3999
2261,6806
2207,6843
2149,65535
2554,6926
2599,6958
2633,7004
2664,8691
2689,8749
2690,8855
2691,8893
2692,8926
2152,6487
2089,6566
2088,6554
2025,6699
2603,65535
2602,65535
2556,65535
2693,65535
2671,65535
2670,65535
2694,65535
2553,65535
2665,65535
2705,65535
2710,65535
2668,65535
2639,65535
2463,6106
2521,6142
2572,6165
2451,7326
2390,7295
2391,7115
2392,7078
2215,7320
2268,65535
2093,65535
2092,65535
2028,65535
2024,8377
2150,7803
2086,7851
2209,7785
2023,7953
2087,7906
2148,8119
2262,6792
2327,65535
1560,140
1630,176
1631,110
1559,199
1629,411
1558,408
1634,86
1633,85
1482,178
1481,165
1699,133
1700,56
1701,39
1563,128
2070,838
2008,774
2009,774
1959,756
1958,750
2006,742
1957,738
1956,430
2193,916
2132,887
1912,794
1911,762
1865,172
1866,271
2007,795
2069,829
2010,835
2011,907
1961,743
2072,859
1913,731
1867,368
1962,734
1914,708
1915,320
1909,783
1636,104
1635,138
1564,143
1702,0
1637,128
1638,139
1565,111
1486,146
1760,152
1704,42
1703,31
1763,74
1762,47
1817,51
1705,105
1863,830
1815,906
1759,76
863,2768
758,2861
808,2812
982,2983
1036,2990
1099,3025
1100,3053
1166,3454
1167,3949
1237,3606
1238,3641
1375,3711
1308,3780
1309,3689
1236,3907
1235,3541
1101,3084
1037,3021
971,2564
1025,2547
1026,2562
1027,2575
1089,2588
720,2824
674,2870
864,2650
865,2671
919,2566
1024,2511
975,2685
974,2655
1028,2610
873,3010
925,2956
924,2933
917,2630
918,2606
623,3045
712,2917
713,2950
667,2955
622,3013
809,2798
719,2798
765,2759
972,2596
868,2708
869,2720
815,2739
920,2854
973,2641
981,2934
926,3035
927,3043
928,3067
1354,2517
1288,2501
1218,2477
1152,2546
1023,2475
1353,2501
1085,2455
1148,2385
1147,2378
1082,2329
772,3096
771,3053
819,3028
584,2944
628,2911
629,2900
1033,2831
978,2786
1031,2759
1030,2713
1029,2696
1091,2673
1035,2912
1034,2855
979,2813
1526,3830
1449,3868
1378,3896
1448,3819
1524,3797
1038,3068
1447,3860
1768,284
1710,310
1767,291
391,1208
365,1170
339,1148
400,1123
393,1334
392,1310
396,1239
399,1180
443,1245
449,1449
450,1483
419,1272
414,1229
415,1193
387,1232
388,1241
389,1214
282,1200
281,1225
314,1201
313,1182
405,956
411,1494
442,1453
255,1073
376,1243
373,1180
278,1165
275,1365
248,1455
335,1370
334,1347
306,1401
307,1390
176,1207
225,1184
320,1087
249,1228
287,1105
285,1136
776,966
731,979
315,1181
316,1163
204,1144
440,900
439,918
166,2865
269,2782
383,2720
1247,3910
1246,3932
1384,4016
1679,4178
1178,3903
1105,2569
1172,2588
1173,2638
1242,2640
1241,2632
1314,2789
1313,2695
1171,2614
1382,2895
1243,2837
1317,2976
1107,2577
1108,2756
1109,3041
1041,2586
1043,2796
1042,2787
1044,2850
1176,3804
1174,2863
1177,3852
1110,3859
985,2632
986,2675
932,2693
774,1010
730,984
825,1032
728,1043
729,1001
727,1059
682,1061
684,1007
685,988
732,998
683,1042
2134,881
2194,882
2068,843
2129,903
1905,287
1907,322
1906,293
1953,785
2002,808
2064,817
2125,830
2137,1121
2196,1075
2195,1022
1859,234
1810,240
1755,321
2131,882
2192,922
1862,819
1861,421
1812,190
1860,412
1809,293
1756,190
1869,164
1822,242
1821,218
1916,202
1819,107
1764,101
1820,115
1698,151
1757,175
1566,153
1567,199
1488,270
1489,271
1412,325
1413,397
1414,755
1818,81
1568,217
1410,286
2128,911
2189,983
2066,898
2065,840
2067,900
1643,292
1571,268
1491,276
2004,896
2003,848
1697,261
2135,833
2075,757
1642,253
1955,362
2130,1000
2005,802
1858,254
1816,8008
1864,8001
1766,143
1910,806
1868,155
2188,1195
2127,1164
1903,798
2001,838
2063,1351
2062,1113
1813,225
1758,99
1639,158
1640,193
1952,850
2126,8090
1569,229
1965,309
1966,355
2014,372
1490,448
1917,216
1870,267
1871,311
1570,242
1707,217
2076,438
2013,806
1964,313
1487,268
1908,769
2251,3201
2199,3145
2198,3008
2136,820
1641,248
1954,826
1765,109
1857,266
2187,1516
1904,802
1856,777
1951,863
1708,843
245,8319
244,8302
357,8306
246,8434
247,8463
197,8557
223,8535
44,8899
43,8959
3,9095
23,9069
22,9058
63,8841
85,8783
84,8738
108,8238
149,8192
172,8583
296,8286
294,8334
355,8434
354,8466
326,8544
295,8443
291,8455
293,8577
260,8463
356,8494
441,8094
412,8117
329,8452
300,8396
148,8166
214,8404
146,8287
110,8368
262,8429
258,8842
292,8605
257,8907
235,8427
187,8327
212,8383
211,8410
186,8331
162,8305
161,8384
165,8283
189,8483
238,8564
237,8529
263,8465
265,8484
266,8462
267,8450
268,8290
26,9059
25,9027
105,65535
62,65535
83,65535
126,8405
175,8840
152,8774
151,8764
150,8723
103,8343
242,8236
191,8190
192,8241
217,8264
218,8317
145,8227
144,8311
167,8219
190,8197
219,8334
159,8431
185,8375
158,8488
188,8319
160,8396
143,65535
122,65535
75,65535
54,65535
198,8968
270,8331
221,8372
301,8429
302,8266
330,8293
331,8315
115,8367
133,8426
139,8323
134,8400
114,8924
48,65535
69,65535
92,8600
164,8393
4,65535
107,8745
129,8830
109,8270
125,8311
124,8285
127,65535
82,65535
67,65535
91,8768
93,8567
137,8702
113,8722
112,8680
136,65535
49,65535
72,65535
71,65535
406,1081
805,6610
858,6415
859,6556
967,2034
1142,2169
1080,6255
1022,6296
1079,6288
968,6411
1206,2126
915,6562
916,6597
914,6534
807,6649
911,7756
1078,6512
1207,2184
1278,2228
1277,2231
1344,2251
1415,2292
1492,2347
1345,2308
1346,2278
1208,2176
1209,2256
1143,2293
1144,2309
1145,2324
1417,2304
1493,2364
1494,2383
1572,2398
1081,6581
970,6784
408,1023
382,1062
437,962
467,949
409,1040
403,1014
432,1509
433,1016
404,986
352,1154
351,1109
349,1117
317,1122
374,1069
346,1247
283,1172
410,937
438,953
465,972
490,970
491,922
435,1021
436,966
379,1142
323,1281
289,1230
377,1069
378,1020
592,1136
593,1107
552,1061
445,1157
424,1366
423,1313
416,1239
361,1298
362,1227
371,1252
372,1209
343,1265
344,1269
286,1323
227,1247
252,1167
284,1149
318,1131
250,1196
312,1188
340,1154
368,1177
369,1205
370,1242
341,1187
367,1194
308,1296
276,1276
277,1230
280,1218
310,1123
338,1170
366,1277
274,1432
305,1413
420,1329
363,1244
418,1215
550,6601
579,6624
576,6569
577,6581
578,6597
520,6577
618,6591
662,6621
619,6608
620,6621
621,6615
665,6597
666,6589
664,6617
580,6636
2260,65535
2257,65535
2206,65535
2146,65535
2314,65535
2313,65535
2312,65535
2373,65535
2256,65535
2205,65535
2434,65535
2435,65535
2375,65535
2376,65535
2433,65535
2491,65535
2490,65535
2492,65535
2546,65535
2597,65535
2596,65535
2544,65535
2145,65535
2082,65535
2020,65535
2494,65535
0,65535
11,65535
1052,1588
1053,1575
941,1615
1740,1452
1796,1493
1615,1355
1681,1396
1545,1316
1797,1540
1544,1330
1741,1508
1795,1690
1617,1316
1546,1321
1616,1333
1683,1428
1467,1290
1547,1295
1465,1365
1387,1401
1388,1362
1464,1426
1462,1579
1461,1600
1542,1664
1463,1543
1682,1407
1543,1385
1618,1308
1742,1600
1460,1766
1248,1410
1850,902
1801,906
1803,892
882,940
881,959
938,1038
883,933
940,2358
1998,890
1902,861
1807,737
1691,794
1694,973
1693,832
1749,835
1752,786
1753,489
1627,763
1628,921
1557,814
1479,443
1402,418
1808,403
1946,1075
1947,1010
1948,997
1997,904
1855,753
1690,781
2060,1077
1949,959
1950,881
1751,791
1692,734
1999,886
1901,1310
1900,1337
1852,1605
1853,1484
1805,934
1750,839
1854,1250
1806,992
1748,847
2061,1072
2000,913
1804,927
1899,1625
2884,65535
2892,65535
2883,65535
2876,65535
2874,65535
2882,65535
2877,65535
2911,65535
2905,65535
2906,65535
2896,65535
2887,65535
2881,65535
2880,65535
2888,65535
2902,65535
2903,65535
2907,65535
2912,65535
2895,65535
2894,65535
2875,65535
2885,65535
2893,65535
2904,65535
2865,65535
2866,65535
2909,65535
2913,65535
2886,65535
2878,65535
2869,65535
2871,65535
2872,65535
2879,65535
2870,65535
1330,526
1331,446
1401,437
1262,445
1263,441
1478,425
1403,409
1261,496
1480,743
1264,448
1390,1273
1389,1318
1319,1295
1251,1382
1250,1468
1285,2420
1284,2406
1214,2378
1146,2342
1505,2627
1504,2561
1582,2599
1581,2527
1713,2506
1771,2488
1654,2638
1653,2611
1651,2563
2096,3742
2033,3702
1972,3673
1923,3605
1922,3583
1874,3277
1873,2990
1919,2943
1829,5654
1579,2463
1424,2467
1711,2480
1348,2304
1419,2324
1359,2731
1429,2682
1428,2668
1421,2381
1577,2415
1499,2388
1230,2975
1365,2912
1511,2834
1300,2957
1366,2929
1512,2862
1716,2696
1503,2749
1276,2258
1347,2288
1349,2336
1645,2472
1578,2450
1770,2484
1715,2539
1150,2443
1217,2457
1149,2419
1580,2509
1352,2496
1502,2527
1825,2896
1718,2851
1717,2825
1872,2929
1656,2740
1648,2515
1712,2492
1213,2368
1212,2349
1084,2390
1420,2370
1281,2294
1282,2355
1587,2734
1586,2701
1585,2690
1652,2658
1427,2836
1975,3777
1977,3845
1932,3915
1931,4540
1426,2556
1422,2398
1425,2541
1583,2627
1501,2485
1283,2396
1286,2443
1215,2428
1211,2325
1210,2299
1083,2361
1655,2729
2220,3977
1355,5411
1772,2497
1436,2880
1435,2870
1589,2803
1163,3008
1735,4128
1791,4061
1841,4038
1840,3994
1219,2560
1220,2599
1647,2501
1646,2493
1279,2246
1714,2516
1575,2475
1576,2437
1498,2445
1573,2487
1496,2505
1497,2476
2177,2485
2176,2555
2294,2472
2293,2591
2237,2532
2236,2561
2364,2333
2302,2273
2301,2195
2245,2097
2056,2227
2057,2313
2055,2206
2184,2258
2120,2264
2244,2178
2538,2518
2537,2499
2591,2615
1940,2390
1989,2398
1990,2334
2539,2518
2482,2509
2483,2471
2424,2367
2121,2325
2119,2138
2050,2447
2049,2525
2048,2943
2185,2291
2243,2017
2299,2231
2241,2180
2485,2549
2542,2604
2353,2563
2292,2470
2419,2357
2478,2404
2479,2439
2536,2466
2484,2510
2486,2503
2354,2402
2416,2579
2242,2225
2355,2440
2300,2238
1991,2338
1992,2345
2477,2395
2534,2416
2535,2531
2588,2436
2587,2450
2630,2501
2051,2259
2116,2153
2175,2588
2586,65535
2541,2671
2178,2460
2179,2263
2240,2210
2239,2434
2238,2504
2052,2390
2053,2356
1987,2630
1988,2478
1939,2502
2594,2621
2593,2606
2358,2324
2357,2334
2420,2390
2247,2386
2427,2476
2428,2498
2181,2057
2180,2106
2417,2384
2590,2596
2297,2219
2361,2411
2362,2294
2423,2382
2422,2347
2174,2818
2356,2445
1941,2379
2365,2510
2112,2823
2047,2965
2182,2196
2359,2273
2533,3211
2295,2536
2115,2226
2632,2656
2631,2595
2186,2443
2298,2305
2360,2329
2235,2781
2291,2794
2487,2725
2246,2318
2425,3126
2117,2450
2543,2678
1893,65535
2421,2482
2476,2400
2592,2654
604,6586
