middle_point_id,reach_time_minutes
2835,65535
2836,65535
2806,65535
2822,65535
2823,65535
2807,65535
2846,65535
887,969
888,947
1326,971
1185,930
999,920
1057,961
1552,1069
1120,919
1473,1094
944,1018
832,943
1257,959
1396,1048
1622,1083
1327,978
1184,925
1183,935
1324,1031
1255,964
1394,1089
1252,1187
1253,1156
1182,1141
1328,65535
1470,1257
1321,1194
1322,1161
1323,1205
1391,1207
1551,1075
1393,1180
1472,1438
1471,1189
1181,1454
1118,1199
1059,890
1121,908
1469,1283
1468,1300
1548,1304
1325,1045
1625,1012
1623,1072
1258,960
1256,1034
791,875
891,923
703,897
704,890
660,893
1553,1072
1624,1027
1554,1130
1474,1103
1475,1173
1550,1142
1549,1251
1320,1252
1466,1304
1541,1720
1318,1366
1249,1389
1186,929
1003,892
1002,895
741,897
788,886
434,1004
697,944
752,872
1056,940
1006,852
907,839
518,930
1011,738
1000,915
1055,1622
997,1591
994,1485
996,1557
995,1541
991,1332
1112,3965
1114,1572
1051,1535
1398,1212
1395,1110
1001,909
1811,842
1960,774
1769,27
1823,37
1329,65535
1332,824
1259,1736
1200,411
1199,413
1140,778
1141,790
783,941
1689,1151
1802,1340
1945,1801
2183,3358
2418,3864
1994,1835
1995,1868
2059,1417
1621,65535
1555,967
1754,1001
1180,2303
1106,2565
933,2726
827,1088
2122,4099
2124,1136
493,942
519,935
544,927
545,928
494,942
470,962
543,931
469,958
517,937
574,925
573,918
495,960
546,933
613,909
612,913
492,950
572,925
571,941
570,944
610,930
575,986
547,978
516,952
611,981
542,946
569,975
609,945
548,1010
549,1039
1404,773
1405,494
1266,683
1193,770
743,899
742,893
747,888
746,881
745,898
744,921
790,872
789,879
839,889
838,902
738,947
739,926
740,904
890,935
834,928
784,920
889,937
856,923
855,900
854,908
853,950
852,875
910,892
909,881
908,858
964,835
965,864
1020,911
966,898
963,827
1021,1009
1271,410
1270,411
1339,460
1338,467
1071,447
1072,458
1135,427
1408,474
1337,484
1269,434
1268,475
1136,428
1075,843
1077,785
1076,820
1019,884
1018,875
1074,460
1137,444
1272,369
1274,338
1275,410
1205,452
1204,437
1273,351
1198,442
1197,459
1341,351
1134,432
1133,489
1069,487
1132,516
1073,443
1203,380
1202,404
1201,446
1139,497
1267,517
1138,832
1340,424
1196,530
1342,297
1409,883
1485,784
1407,823
1561,426
1632,468
1484,810
1483,427
1562,413
1194,546
1130,538
1195,532
1335,714
1129,785
1066,792
1128,815
1067,560
1131,521
1334,836
1336,739
1265,814
1333,833
1406,463
857,1788
803,3082
804,6559
860,6567
969,6520
913,6507
912,6445
861,6577
806,6620
659,894
751,885
658,906
705,896
702,903
706,882
753,866
614,904
701,895
661,907
616,908
848,827
796,878
797,860
798,843
750,894
707,891
615,941
748,929
845,868
846,850
657,912
749,934
795,889
617,951
663,926
794,944
847,842
849,870
902,842
901,850
900,827
793,888
899,916
898,902
897,887
844,920
842,874
841,869
956,839
792,878
843,894
840,873
850,873
903,813
800,881
755,893
756,943
710,973
711,1018
962,815
961,856
904,820
906,832
851,867
802,888
801,885
799,903
959,807
1014,468
1013,469
708,1723
709,1698
754,907
757,1031
1017,791
1016,786
960,780
905,874
958,795
957,768
1070,457
1015,472
1012,543
1068,539
1005,867
1004,877
1060,886
1063,847
1065,812
1127,851
1062,858
1124,881
1123,898
1125,867
1188,938
1122,916
1058,897
947,947
946,967
949,894
945,963
948,917
1190,938
1187,911
951,886
895,866
952,874
1009,811
1008,865
1010,765
1007,861
1061,868
954,832
896,853
953,873
1126,875
1064,827
1189,997
955,823
950,904
892,910
786,899
836,904
837,905
787,890
700,900
655,910
654,928
653,946
698,933
699,902
608,950
696,909
656,914
833,936
785,908
835,922
693,944
894,884
893,905
1343,333
1192,914
1191,875
828,1078
829,1064
780,1010
830,1059
779,1061
782,945
529,1127
886,972
596,1190
556,1222
598,1080
597,1145
526,1164
555,1224
525,1198
524,1213
523,1203
688,992
607,949
650,942
651,929
652,938
737,956
694,920
695,908
645,1005
646,983
690,976
600,1010
599,1019
781,951
736,961
558,1121
644,1009
643,1020
648,971
692,954
691,969
513,1007
541,963
540,995
568,1037
530,1099
831,954
559,1092
560,1079
642,1206
557,1174
496,1225
471,1262
444,1328
446,1293
528,1150
527,1175
562,1031
602,1001
734,987
466,1037
464,1003
463,1018
478,1218
481,1138
480,1168
479,1193
647,1004
488,1043
502,1176
689,988
533,1080
532,1091
531,1117
601,1039
484,1101
508,1071
510,1113
509,1082
534,1063
482,1165
506,1164
606,967
455,1253
429,1122
456,1223
457,1204
428,1150
458,1143
554,1305
594,1310
640,1227
639,1269
551,1211
681,1367
636,1355
635,1329
590,1271
778,1085
777,1092
485,1084
486,1072
462,1031
563,1116
885,1004
943,2291
564,1047
641,1183
504,1165
503,1142
501,1277
500,1344
561,1050
254,1105
350,1111
321,1217
319,1119
251,1152
375,1060
347,1077
687,1039
565,1077
539,1030
511,1131
536,1097
649,991
603,1007
605,1406
733,1007
735,977
489,999
514,1008
461,1089
460,1101
459,1121
468,963
154,1291
178,1267
203,1245
228,1225
402,1088
401,1137
505,1164
522,1236
451,1398
452,1348
477,1227
476,1290
483,1486
884,1114
431,1084
430,1220
454,1240
595,1237
395,1275
394,1352
422,1370
417,1318
390,1278
538,1049
567,973
426,1382
397,1258
398,1209
499,1313
475,1362
497,1230
498,1247
311,1156
342,1163
345,1120
421,1378
515,990
472,1587
448,1548
473,1498
474,1377
353,1162
381,1134
256,1279
290,1240
324,1169
380,1169
407,1065
253,1143
226,1168
201,1181
177,1244
824,1256
775,1198
826,1099
939,1147
936,1318
937,1213
880,1121
566,1095
2821,65535
2834,65535
2833,65535
2789,65535
2790,65535
2770,65535
2788,65535
2776,65535
2795,65535
2775,65535
2794,65535
2825,65535
2824,65535
2826,65535
2811,65535
2812,65535
2796,65535
2827,65535
2858,65535
2855,65535
2849,65535
2838,65535
2814,65535
2813,65535
2828,65535
2839,65535
2791,65535
2792,65535
2803,65535
2830,65535
2815,65535
2819,65535
2818,65535
2817,65535
2831,65535
2810,65535
2829,65535
2783,65535
2820,65535
2804,65535
2785,65535
2784,65535
2762,65535
2768,65535
2751,65535
2750,65535
2733,65535
2769,65535
2720,65535
2761,65535
2741,65535
2837,65535
2793,65535
2808,65535
2753,65535
2736,65535
2735,65535
2809,65535
2772,65535
2845,65535
2844,65535
2848,65535
2777,65535
2778,65535
2779,65535
2759,65535
2780,65535
2797,65535
2843,65535
2832,65535
2842,65535
2758,65535
2738,65535
2774,65535
2773,65535
2771,65535
2851,65535
2847,65535
2854,65535
2721,65535
2756,65535
2737,65535
2840,65535
2752,65535
2754,65535
2755,65535
2852,65535
2853,65535
2856,65535
2841,65535
2742,65535
2727,65535
2744,65535
2726,65535
2743,65535
2725,65535
2746,65535
2787,65535
2766,65535
2763,65535
2765,65535
2745,65535
2764,65535
2552,65535
2501,65535
2443,65535
2442,65535
2320,65535
2381,65535
2382,65535
2498,65535
2499,65535
2438,65535
2439,65535
2497,65535
2441,65535
2379,65535
2380,65535
2319,65535
2551,65535
2550,65535
2563,7077
2321,6613
2322,6582
2383,6594
2384,6800
2446,6842
2445,6849
2503,6868
2385,6833
2504,7198
2505,7220
2557,7244
2558,7269
2559,7293
2560,7257
2564,7425
2562,7145
2561,7185
2605,7200
2609,7472
2565,7548
2566,7564
2515,7575
2397,5959
2457,7605
2458,7627
2401,6036
2337,5872
2336,5876
2399,5918
2398,5939
2402,6096
2333,6096
2273,6131
2219,6155
2218,6167
2159,6192
2454,6784
2393,6750
2512,7044
2502,7036
2608,7463
2156,6314
2155,6346
2154,6375
2213,6391
2212,6403
2211,6451
2210,6492
2264,6499
2324,6533
2323,6549
2030,65535
2094,65535
2157,6278
2450,7441
2388,7490
2387,7558
2326,7595
2266,7630
2265,6974
2508,7412
2396,6028
2335,6046
2334,6057
2158,6217
2279,8186
2278,8150
2222,8119
2221,8101
2276,8083
2275,3999
2261,6806
2207,6843
2149,65535
2554,6926
2599,6958
2633,7004
2664,8691
2689,8749
2690,8855
2691,8893
2692,8926
2152,6487
2089,6566
2088,6554
2025,6699
2603,65535
2602,65535
2556,65535
2693,65535
2671,65535
2670,65535
2694,65535
2553,65535
2665,65535
2705,65535
2710,65535
2668,65535
2639,65535
2463,6106
2521,6142
2572,6165
2451,7326
2390,7295
2391,7115
2392,7078
2215,7320
2268,65535
2093,65535
2092,65535
2028,65535
2024,8377
2150,7803
2086,7851
2209,7785
2023,7953
2087,7906
2148,8119
2262,6792
2327,65535
1560,450
1630,841
1631,777
1559,848
1629,971
1558,873
1634,420
1633,475
1482,807
1481,786
1699,757
1700,787
1701,377
1563,355
2070,838
2008,784
2009,788
1959,779
1958,809
2006,848
1957,844
1956,885
2193,916
2132,887
1912,794
1911,787
1865,848
1866,885
2007,795
2069,829
2010,835
2011,907
1961,743
2072,859
1913,847
1867,918
1962,734
1914,708
1915,320
1909,940
1636,295
1635,314
1564,329
1702,337
1637,280
1638,253
1565,320
1486,354
1760,474
1704,336
1703,323
1763,439
1762,367
1817,408
1705,285
1863,859
1815,906
1759,867
863,2768
758,2861
808,2812
982,2983
1036,2990
1099,3025
1100,3053
1166,3454
1167,3949
1237,3606
1238,3641
1375,3711
1308,3780
1309,3689
1236,3907
1235,3541
1101,3084
1037,3021
971,2564
1025,2547
1026,2562
1027,2575
1089,2588
720,2824
674,2870
864,2650
865,2671
919,2566
1024,2511
975,2685
974,2655
1028,2610
873,3010
925,2956
924,2933
917,2630
918,2606
623,3045
712,2917
713,2950
667,2955
622,3013
809,2798
719,2798
765,2759
972,2596
868,2708
869,2720
815,2739
920,2854
973,2641
981,2934
926,3035
927,3043
928,3067
1354,2517
1288,2501
1218,2477
1152,2546
1023,2475
1353,2501
1085,2455
1148,2385
1147,2378
1082,2329
772,3096
771,3053
819,3028
584,2944
628,2911
629,2900
1033,2831
978,2786
1031,2759
1030,2713
1029,2696
1091,2673
1035,2912
1034,2855
979,2813
1526,3830
1449,3868
1378,3896
1448,3819
1524,3797
1038,3068
1447,3860
1768,30
1710,0
1767,67
391,1262
365,1224
339,1225
400,1164
393,1344
392,1310
396,1299
399,1180
443,1411
449,1449
450,1483
419,1272
414,1467
415,1409
387,1402
388,1312
389,1306
282,1200
281,1225
314,1201
313,1182
405,1015
411,1494
442,1453
255,1150
376,1243
373,1180
278,1165
275,1365
248,1455
335,1490
334,1455
306,1401
307,1390
176,1228
225,1235
320,1141
249,1228
287,1212
285,1170
776,1144
731,1155
315,1181
316,1163
204,1284
440,978
439,992
166,2865
269,2782
383,2720
1247,3910
1246,3932
1384,4016
1679,4178
1178,3903
1105,2569
1172,2588
1173,2638
1242,2640
1241,2632
1314,2789
1313,2695
1171,2614
1382,2895
1243,2837
1317,2976
1107,2577
1108,2756
1109,3041
1041,2586
1043,2796
1042,2787
1044,2850
1176,3804
1174,2863
1177,3852
1110,3859
985,2632
986,2675
932,2693
774,1204
730,1173
825,1212
728,1239
729,1181
727,1381
682,1236
684,1218
685,1168
732,1178
683,1462
2134,881
2194,882
2068,843
2129,903
1905,927
1907,938
1906,970
1953,972
2002,1011
2064,1035
2125,1110
2137,1121
2196,1075
2195,1022
1859,859
1810,903
1755,849
2131,882
2192,922
1862,941
1861,895
1812,856
1860,893
1809,984
1756,832
1869,132
1822,61
1821,69
1916,163
1819,300
1764,312
1820,248
1698,806
1757,818
1566,363
1567,276
1488,336
1489,252
1412,247
1413,286
1414,335
1818,313
1568,836
1410,382
2128,911
2189,983
2066,1013
2065,1325
2067,900
1643,43
1571,139
1491,182
2004,1296
2003,1065
1697,855
2135,833
2075,757
1642,119
1955,921
2130,1000
2005,888
1858,901
1816,8008
1864,8001
1766,87
1910,981
1868,258
2188,1195
2127,1164
1903,1084
2001,1099
2063,1351
2062,1364
1813,933
1758,789
1639,216
1640,189
1952,1044
2126,8090
1569,229
1965,193
1966,239
2014,372
1490,204
1917,121
1870,84
1871,94
1570,173
1707,93
2076,438
2013,806
1964,313
1487,360
1908,963
2251,3201
2199,3145
2198,3008
2136,820
1641,214
1954,1048
1765,284
1857,953
2187,1516
1904,1063
1856,1087
1951,1061
1708,843
245,8319
244,8302
357,8306
246,8434
247,8463
197,8557
223,8535
44,8899
43,8959
3,9095
23,9069
22,9058
63,8841
85,8783
84,8738
108,8238
149,8192
172,8583
296,8286
294,8334
355,8434
354,8466
326,8544
295,8443
291,8455
293,8577
260,8463
356,8494
441,8094
412,8117
329,8452
300,8396
148,8166
214,8404
146,8287
110,8368
262,8429
258,8842
292,8605
257,8907
235,8427
187,8327
212,8383
211,8410
186,8331
162,8305
161,8384
165,8283
189,8483
238,8564
237,8529
263,8465
265,8484
266,8462
267,8450
268,8290
26,9059
25,9027
105,65535
62,65535
83,65535
126,8405
175,8840
152,8774
151,8764
150,8723
103,8343
242,8236
191,8190
192,8241
217,8264
218,8317
145,8227
144,8311
167,8219
190,8197
219,8334
159,8431
185,8375
158,8488
188,8319
160,8396
143,65535
122,65535
75,65535
54,65535
198,8968
270,8331
221,8372
301,8429
302,8266
330,8293
331,8315
115,8367
133,8426
139,8323
134,8400
114,8924
48,65535
69,65535
92,8600
164,8393
4,65535
107,8745
129,8830
109,8270
125,8311
124,8285
127,65535
82,65535
67,65535
91,8768
93,8567
137,8702
113,8722
112,8680
136,65535
49,65535
72,65535
71,65535
406,1081
805,6610
858,6415
859,6556
967,2034
1142,2169
1080,6255
1022,6296
1079,6288
968,6411
1206,2126
915,6562
916,6597
914,6534
807,6649
911,7756
1078,6512
1207,2184
1278,2228
1277,2231
1344,2251
1415,2292
1492,2347
1345,2308
1346,2278
1208,2176
1209,2256
1143,2293
1144,2309
1145,2324
1417,2304
1493,2364
1494,2383
1572,2398
1081,6581
970,6784
408,1164
382,1139
437,1030
467,1010
409,1084
403,1110
432,1509
433,1136
404,1110
352,1185
351,1250
349,1121
317,1122
374,1069
346,1247
283,1172
410,1107
438,1124
465,1018
490,983
491,982
435,1043
436,1031
379,1142
323,1281
289,1230
377,1136
378,1109
592,1353
593,1379
552,1238
445,1338
424,1366
423,1313
416,1451
361,1406
362,1347
371,1252
372,1209
343,1265
344,1269
286,1323
227,1247
252,1179
284,1149
318,1131
250,1196
312,1187
340,1202
368,1241
369,1313
370,1478
341,1264
367,1255
308,1296
276,1276
277,1230
280,1218
310,1189
338,1277
366,1277
274,1432
305,1413
420,1329
363,1334
418,1336
550,6601
579,6624
576,6569
577,6581
578,6597
520,6577
618,6591
662,6621
619,6608
620,6621
621,6615
665,6597
666,6589
664,6617
580,6636
2260,65535
2257,65535
2206,65535
2146,65535
2314,65535
2313,65535
2312,65535
2373,65535
2256,65535
2205,65535
2434,65535
2435,65535
2375,65535
2376,65535
2433,65535
2491,65535
2490,65535
2492,65535
2546,65535
2597,65535
2596,65535
2544,65535
2145,65535
2082,65535
2020,65535
2494,65535
0,65535
11,65535
1052,1588
1053,1575
941,1615
1740,1452
1796,1493
1615,1355
1681,1396
1545,1316
1797,1540
1544,1330
1741,1508
1795,1690
1617,1330
1546,1321
1616,1333
1683,1428
1467,1290
1547,1316
1465,1365
1387,1401
1388,1362
1464,1426
1462,1579
1461,1600
1542,1664
1463,1543
1682,1407
1543,1385
1618,1390
1742,1600
1460,1766
1248,1410
1850,1354
1801,1353
1803,1306
882,1099
881,1106
938,1158
883,1119
940,2358
1998,1297
1902,1171
1807,1089
1691,1107
1694,973
1693,1132
1749,1218
1752,1047
1753,1004
1627,950
1628,921
1557,899
1479,851
1402,822
1808,1067
1946,1435
1947,1370
1948,1357
1997,1331
1855,1161
1690,1105
2060,1375
1949,1407
1950,1262
1751,1090
1692,1109
1999,1289
1901,1415
1900,1456
1852,1605
1853,1484
1805,1226
1750,1103
1854,1250
1806,1168
1748,1195
2061,1416
2000,1414
1804,1306
1899,1625
2884,65535
2892,65535
2883,65535
2876,65535
2874,65535
2882,65535
2877,65535
2911,65535
2905,65535
2906,65535
2896,65535
2887,65535
2881,65535
2880,65535
2888,65535
2902,65535
2903,65535
2907,65535
2912,65535
2895,65535
2894,65535
2875,65535
2885,65535
2893,65535
2904,65535
2865,65535
2866,65535
2909,65535
2913,65535
2886,65535
2878,65535
2869,65535
2871,65535
2872,65535
2879,65535
2870,65535
1330,886
1331,828
1401,826
1262,837
1263,833
1478,837
1403,816
1261,900
1480,844
1264,859
1390,1273
1389,1318
1319,1295
1251,1382
1250,1468
1285,2420
1284,2406
1214,2378
1146,2342
1505,2627
1504,2561
1582,2599
1581,2527
1713,2506
1771,2488
1654,2638
1653,2611
1651,2563
2096,3742
2033,3702
1972,3673
1923,3605
1922,3583
1874,3277
1873,2990
1919,2943
1829,5654
1579,2463
1424,2467
1711,2480
1348,2304
1419,2324
1359,2731
1429,2682
1428,2668
1421,2381
1577,2415
1499,2388
1230,2975
1365,2912
1511,2834
1300,2957
1366,2929
1512,2862
1716,2696
1503,2749
1276,2258
1347,2288
1349,2336
1645,2472
1578,2450
1770,2484
1715,2539
1150,2443
1217,2457
1149,2419
1580,2509
1352,2496
1502,2527
1825,2896
1718,2851
1717,2825
1872,2929
1656,2740
1648,2515
1712,2492
1213,2368
1212,2349
1084,2390
1420,2370
1281,2294
1282,2355
1587,2734
1586,2701
1585,2690
1652,2658
1427,2836
1975,3777
1977,3845
1932,3915
1931,4540
1426,2556
1422,2398
1425,2541
1583,2627
1501,2485
1283,2396
1286,2443
1215,2428
1211,2325
1210,2299
1083,2361
1655,2729
2220,3977
1355,5411
1772,2497
1436,2880
1435,2870
1589,2803
1163,3008
1735,4128
1791,4061
1841,4038
1840,3994
1219,2560
1220,2599
1647,2501
1646,2493
1279,2246
1714,2516
1575,2475
1576,2437
1498,2445
1573,2487
1496,2505
1497,2476
2177,3925
2176,3995
2294,3964
2293,4040
2237,3972
2236,4001
2364,3773
2302,3713
2301,3635
2245,3537
2056,3843
2057,3887
2055,3646
2184,3698
2120,3704
2244,3618
2538,4068
2537,4030
2591,4055
1940,3830
1989,3838
1990,3774
2539,4046
2482,4146
2483,3911
2424,3807
2121,3765
2119,3578
2050,3903
2049,3965
2048,4383
2185,3731
2243,3457
2299,3671
2241,3620
2485,3989
2542,4044
2353,4003
2292,3910
2419,3823
2478,3884
2479,3901
2536,3987
2484,3950
2486,3943
2354,3898
2416,4019
2242,3665
2355,3892
2300,3678
1991,3778
1992,3785
2477,3876
2534,3886
2535,3986
2588,3923
2587,3938
2630,3958
2051,3699
2116,3593
2175,4093
2586,65535
2541,4180
2178,3900
2179,3703
2240,3650
2239,3874
2238,3944
2052,3830
2053,3796
1987,4070
1988,4107
1939,4020
2594,4152
2593,4124
2358,3780
2357,3787
2420,3830
2247,3826
2427,3916
2428,3938
2181,3497
2180,3546
2417,3878
2590,4036
2297,3659
2361,3851
2362,3734
2423,3822
2422,3787
2174,4258
2356,3917
1941,3819
2365,3950
2112,4263
2047,4405
2182,3636
2359,3713
2533,4651
2295,3976
2115,3666
2632,4096
2631,4035
2186,3899
2298,3745
2360,3769
2235,4221
2291,4234
2487,4165
2246,3758
2425,4566
2117,3890
2543,4118
1893,65535
2421,3922
2476,3932
2592,4202
604,6586
