middle_point_id,reach_time_minutes
2835,65535
2836,65535
2806,65535
2822,65535
2823,65535
2807,65535
2846,65535
887,804
888,778
1326,760
1185,639
999,770
1057,917
1552,625
1120,664
1473,699
944,918
832,770
1257,719
1396,739
1622,655
1327,904
1184,620
1183,639
1324,575
1255,591
1394,505
1252,364
1253,400
1182,405
1328,65535
1470,540
1321,345
1322,373
1323,437
1391,325
1551,589
1393,481
1472,555
1471,520
1181,494
1118,419
1059,689
1121,669
1469,645
1468,300
1548,392
1325,697
1625,711
1623,646
1258,767
1256,854
791,762
891,708
703,825
704,851
660,841
1553,627
1624,669
1554,652
1474,640
1475,693
1550,581
1549,524
1320,314
1466,253
1541,760
1318,406
1249,429
1186,702
1003,696
1002,701
741,762
788,736
434,894
697,771
752,880
1056,792
1006,753
907,1225
518,897
1011,903
1000,728
1055,2102
997,2071
994,1965
996,2037
995,2021
991,1812
1112,4445
1114,2052
1051,2015
1398,732
1395,750
1001,709
1811,1239
1960,1484
1769,1664
1823,1673
1329,65535
1332,1267
1259,2216
1200,990
1199,988
1140,1404
1141,1432
783,779
1689,689
1802,740
1945,1916
2183,2398
2418,2847
1994,1952
1995,2348
2059,1477
1621,65535
1555,816
1754,1051
1180,1343
1106,3045
933,3206
827,908
2122,2813
2124,1411
493,935
519,921
544,891
545,896
494,928
470,1003
543,895
469,1284
517,903
574,900
573,873
495,1258
546,902
613,849
612,852
492,926
572,872
571,919
570,1244
610,884
575,943
547,1358
516,1283
611,861
542,1268
569,1315
609,898
548,1430
549,1459
1404,966
1405,940
1266,915
1193,958
743,748
742,742
747,797
746,772
745,764
744,748
790,757
789,740
839,769
838,730
738,787
739,769
740,756
890,730
834,758
784,767
889,737
856,1343
855,1320
854,1328
853,1343
852,1242
910,1312
909,1301
908,1290
964,1252
965,1284
1020,1343
966,1321
963,1231
1021,1370
1271,991
1270,991
1339,998
1338,1210
1071,927
1072,938
1135,959
1408,1221
1337,1093
1269,1028
1268,1084
1136,1249
1075,1293
1077,1396
1076,1341
1019,1340
1018,1275
1074,1239
1137,1284
1272,1203
1274,1297
1275,1370
1205,1412
1204,1379
1273,1233
1198,1049
1197,880
1341,1260
1134,904
1133,883
1069,874
1132,854
1073,950
1203,1319
1202,1305
1201,1246
1139,1348
1267,900
1138,1312
1340,1310
1196,863
1342,1276
1409,1376
1485,1272
1407,1303
1561,1257
1632,1244
1484,1301
1483,1215
1562,1247
1194,851
1130,840
1195,867
1335,932
1129,835
1066,832
1128,801
1067,889
1131,847
1334,956
1336,914
1265,1294
1333,1239
1406,946
857,2268
803,3562
804,7039
860,7047
969,7000
913,6987
912,6925
861,7057
806,7100
659,833
751,864
658,841
705,855
702,823
706,866
753,884
614,844
701,807
661,853
616,848
848,925
796,877
797,888
798,897
750,848
707,873
615,881
748,871
845,843
846,933
657,852
749,837
795,878
617,891
663,896
794,824
847,894
849,930
902,943
901,917
900,893
793,794
899,832
898,806
897,812
844,833
842,778
841,768
956,928
792,778
843,800
840,778
850,969
903,932
800,969
755,957
756,1254
710,971
711,1498
962,983
961,977
904,940
906,1196
851,1192
802,1005
801,980
799,963
959,994
1014,948
1013,914
708,912
709,940
754,929
757,1331
1017,1271
1016,1266
960,967
905,996
958,1275
957,907
1070,908
1015,952
1012,895
1068,883
1005,736
1004,708
1060,692
1063,763
1065,791
1127,797
1062,771
1124,746
1123,732
1125,757
1188,780
1122,704
1058,680
947,725
946,739
949,712
945,769
948,699
1190,836
1187,794
951,761
895,771
952,787
1009,839
1008,818
1010,909
1007,773
1061,734
954,823
896,801
953,832
1126,800
1064,772
1189,814
955,1200
950,747
892,712
786,734
836,730
837,726
787,732
700,826
655,848
654,826
653,789
698,775
699,775
608,860
696,769
656,845
833,766
785,746
835,752
693,778
894,781
893,740
1343,1293
1192,1394
1191,1355
828,898
829,884
780,830
830,879
779,881
782,780
529,1354
886,817
596,1371
556,1386
598,1324
597,1343
526,1392
555,1410
525,1404
524,1418
523,1428
688,850
607,890
650,1327
651,1273
652,1330
737,795
694,784
695,776
645,839
646,823
690,799
600,849
599,870
781,785
736,795
558,1350
644,847
643,880
648,811
692,789
691,801
513,1381
541,1314
540,1354
568,1374
530,1369
831,804
559,1361
560,1410
642,1363
557,1384
496,1480
471,1497
444,1600
446,1526
528,1361
527,1375
562,1341
602,1304
734,846
466,1328
464,1349
463,1375
478,1494
481,1432
480,1481
479,1469
647,813
488,1377
502,1369
689,846
533,1351
532,1377
531,1401
601,1279
484,978
508,1369
510,1331
509,1344
534,1378
482,1446
506,1400
606,1325
455,1558
429,1381
456,1654
457,1431
428,1443
458,1409
554,1524
594,1523
640,1347
639,1489
551,1470
681,1534
636,1522
635,1499
590,1474
778,905
777,912
485,973
486,964
462,1274
563,1356
885,828
943,1331
564,1373
641,1341
504,1384
503,1377
501,1398
500,1437
561,1398
254,1440
350,1392
321,1401
319,1392
251,1455
375,1116
347,1351
687,863
565,1404
539,1422
511,1374
536,1420
649,1317
603,1335
605,1886
733,882
735,799
489,1374
514,1367
461,1436
460,1465
459,1441
468,1316
154,1585
178,1566
203,1543
228,1507
402,1051
401,1343
505,1405
522,1462
451,1727
452,1696
477,1501
476,1442
483,1546
884,1373
431,975
430,1344
454,1720
595,1427
395,1620
394,1646
422,1681
417,1576
390,1584
538,1427
567,1400
426,1862
397,1554
398,1584
499,1533
475,1474
497,1444
498,1471
311,1454
342,1456
345,1401
421,1696
515,1384
472,1596
448,1621
473,1647
474,1662
353,1399
381,1379
256,1521
290,1471
324,1409
380,1426
407,1354
253,1501
226,1528
201,1554
177,1591
824,1376
775,1311
826,919
939,1327
936,1798
937,1393
880,1380
566,1575
2821,65535
2834,65535
2833,65535
2789,65535
2790,65535
2770,65535
2788,65535
2776,65535
2795,65535
2775,65535
2794,65535
2825,65535
2824,65535
2826,65535
2811,65535
2812,65535
2796,65535
2827,65535
2858,65535
2855,65535
2849,65535
2838,65535
2814,65535
2813,65535
2828,65535
2839,65535
2791,65535
2792,65535
2803,65535
2830,65535
2815,65535
2819,65535
2818,65535
2817,65535
2831,65535
2810,65535
2829,65535
2783,65535
2820,65535
2804,65535
2785,65535
2784,65535
2762,65535
2768,65535
2751,65535
2750,65535
2733,65535
2769,65535
2720,65535
2761,65535
2741,65535
2837,65535
2793,65535
2808,65535
2753,65535
2736,65535
2735,65535
2809,65535
2772,65535
2845,65535
2844,65535
2848,65535
2777,65535
2778,65535
2779,65535
2759,65535
2780,65535
2797,65535
2843,65535
2832,65535
2842,65535
2758,65535
2738,65535
2774,65535
2773,65535
2771,65535
2851,65535
2847,65535
2854,65535
2721,65535
2756,65535
2737,65535
2840,65535
2752,65535
2754,65535
2755,65535
2852,65535
2853,65535
2856,65535
2841,65535
2742,65535
2727,65535
2744,65535
2726,65535
2743,65535
2725,65535
2746,65535
2787,65535
2766,65535
2763,65535
2765,65535
2745,65535
2764,65535
2552,65535
2501,65535
2443,65535
2442,65535
2320,65535
2381,65535
2382,65535
2498,65535
2499,65535
2438,65535
2439,65535
2497,65535
2441,65535
2379,65535
2380,65535
2319,65535
2551,65535
2550,65535
2563,7557
2321,7093
2322,7062
2383,7074
2384,7280
2446,7322
2445,7329
2503,7348
2385,7313
2504,7678
2505,7700
2557,7724
2558,7749
2559,7773
2560,7737
2564,7905
2562,7625
2561,7665
2605,7680
2609,7952
2565,8028
2566,8044
2515,8055
2397,6439
2457,8085
2458,8107
2401,6516
2337,6352
2336,6356
2399,6398
2398,6419
2402,6576
2333,6576
2273,6611
2219,6635
2218,6647
2159,6672
2454,7264
2393,7230
2512,7524
2502,7516
2608,7943
2156,6794
2155,6826
2154,6855
2213,6871
2212,6883
2211,6931
2210,6972
2264,6979
2324,7013
2323,7029
2030,65535
2094,65535
2157,6758
2450,7921
2388,7970
2387,8038
2326,8075
2266,8110
2265,7454
2508,7892
2396,6508
2335,6526
2334,6537
2158,6697
2279,8666
2278,8630
2222,8599
2221,8581
2276,8563
2275,4479
2261,7286
2207,7323
2149,65535
2554,7406
2599,7438
2633,7484
2664,9171
2689,9229
2690,9335
2691,9373
2692,9406
2152,6967
2089,7046
2088,7034
2025,7179
2603,65535
2602,65535
2556,65535
2693,65535
2671,65535
2670,65535
2694,65535
2553,65535
2665,65535
2705,65535
2710,65535
2668,65535
2639,65535
2463,6586
2521,6622
2572,6645
2451,7806
2390,7775
2391,7595
2392,7558
2215,7800
2268,65535
2093,65535
2092,65535
2028,65535
2024,8857
2150,8283
2086,8331
2209,8265
2023,8433
2087,8386
2148,8599
2262,7272
2327,65535
1560,1265
1630,1321
1631,1257
1559,1328
1629,1451
1558,1353
1634,1379
1633,1282
1482,1288
1481,1303
1699,1240
1700,1326
1701,1354
1563,1347
2070,1498
2008,1494
2009,1494
1959,1488
1958,1470
2006,1452
1957,1440
1956,1446
2193,1747
2132,1689
1912,1512
1911,1505
1865,1567
1866,1659
2007,1474
2069,1480
2010,1533
2011,1620
1961,1525
2072,1549
1913,1659
1867,1710
1962,1558
1914,1567
1915,1600
1909,1421
1636,1384
1635,1397
1564,1386
1702,1371
1637,1421
1638,1522
1565,1396
1486,1386
1760,1438
1704,1435
1703,1422
1763,1515
1762,1489
1817,1527
1705,1561
1863,1469
1815,1486
1759,1347
863,3248
758,3341
808,3292
982,3463
1036,3470
1099,3505
1100,3533
1166,3934
1167,4429
1237,4086
1238,4121
1375,4191
1308,4260
1309,4169
1236,4387
1235,4021
1101,3564
1037,3501
971,3044
1025,3027
1026,3042
1027,3055
1089,3068
720,3304
674,3350
864,3130
865,3151
919,3046
1024,2991
975,3165
974,3135
1028,3090
873,3490
925,3436
924,3413
917,3110
918,3086
623,3525
712,3397
713,3430
667,3435
622,3493
809,3278
719,3278
765,3239
972,3076
868,3188
869,3200
815,3219
920,3334
973,3121
981,3414
926,3515
927,3523
928,3547
1354,2997
1288,2981
1218,2957
1152,3026
1023,2955
1353,2981
1085,2935
1148,2865
1147,2858
1082,2809
772,3576
771,3533
819,3508
584,3424
628,3391
629,3380
1033,3311
978,3266
1031,3239
1030,3193
1029,3176
1091,3153
1035,3392
1034,3335
979,3293
1526,4310
1449,4348
1378,4376
1448,4299
1524,4277
1038,3548
1447,4340
1768,1670
1710,1628
1767,1643
391,1568
365,1522
339,1505
400,1466
393,1692
392,1670
396,1598
399,1484
443,1656
449,1754
450,1759
419,1670
414,1709
415,1650
387,1643
388,1612
389,1592
282,1500
281,1520
314,1592
313,1580
405,1334
411,1714
442,1673
255,1450
376,1354
373,1373
278,1465
275,1534
248,1582
335,1667
334,1641
306,1586
307,1574
176,1576
225,1514
320,1409
249,1572
287,1412
285,1436
776,922
731,979
315,1489
316,1470
204,1584
440,1293
439,1328
166,1905
269,1822
383,1760
1247,4390
1246,4412
1384,4496
1679,4658
1178,4383
1105,3049
1172,3068
1173,3118
1242,3120
1241,3112
1314,3269
1313,3175
1171,3094
1382,3375
1243,3317
1317,3456
1107,3057
1108,3236
1109,3521
1041,3066
1043,3276
1042,3267
1044,3330
1176,4284
1174,3343
1177,4332
1110,4339
985,3112
986,3155
932,3173
774,1370
730,1267
825,975
728,1359
729,1301
727,1539
682,1356
684,1338
685,1258
732,1320
683,1342
2134,1848
2194,1871
2068,1555
2129,1610
1905,1304
1907,1392
1906,1357
1953,1353
2002,1360
2064,1370
2125,1387
2137,2307
2196,1978
2195,1924
1859,1265
1810,1255
1755,1126
2131,1561
2192,1599
1862,1421
1861,1375
1812,1336
1860,1373
1809,1255
1756,1175
1869,1716
1822,1684
1821,1701
1916,1755
1819,1576
1764,1548
1820,1675
1698,1210
1757,1229
1566,1416
1567,1402
1488,1388
1489,1384
1412,1305
1413,1311
1414,1339
1818,1618
1568,1554
1410,1369
2128,1657
2189,1684
2066,1766
2065,1805
2067,1607
1643,1588
1571,1538
1491,1444
2004,1776
2003,1395
1697,1335
2135,2063
2075,1925
1642,1564
1955,1451
2130,1831
2005,1545
1858,1273
1816,8488
1864,8481
1766,1637
1910,1505
1868,1707
2188,1891
2127,1860
1903,1278
2001,1437
2063,1831
2062,1692
1813,1413
1758,1269
1639,1528
1640,1522
1952,1407
2126,8570
1569,1508
1965,1782
1966,1828
2014,1848
1490,1460
1917,1741
1870,1730
1871,1744
1570,1479
1707,1578
2076,1915
2013,1880
1964,1834
1487,1416
1908,1537
2251,3681
2199,3625
2198,3488
2136,2065
1641,1585
1954,1528
1765,1656
1857,1303
2187,1996
1904,1282
1856,1257
1951,1359
1708,1788
245,8799
244,8782
357,8786
246,8914
247,8943
197,9037
223,9015
44,9379
43,9439
3,9575
23,9549
22,9538
63,9321
85,9263
84,9218
108,8718
149,8672
172,9063
296,8766
294,8814
355,8914
354,8946
326,9024
295,8923
291,8935
293,9057
260,8943
356,8974
441,8574
412,8597
329,8932
300,8876
148,8646
214,8884
146,8767
110,8848
262,8909
258,9322
292,9085
257,9387
235,8907
187,8807
212,8863
211,8890
186,8811
162,8785
161,8864
165,8763
189,8963
238,9044
237,9009
263,8945
265,8964
266,8942
267,8930
268,8770
26,9539
25,9507
105,65535
62,65535
83,65535
126,8885
175,9320
152,9254
151,9244
150,9203
103,8823
242,8716
191,8670
192,8721
217,8744
218,8797
145,8707
144,8791
167,8699
190,8677
219,8814
159,8911
185,8855
158,8968
188,8799
160,8876
143,65535
122,65535
75,65535
54,65535
198,9448
270,8811
221,8852
301,8909
302,8746
330,8773
331,8795
115,8847
133,8906
139,8803
134,8880
114,9404
48,65535
69,65535
92,9080
164,8873
4,65535
107,9225
129,9310
109,8750
125,8791
124,8765
127,65535
82,65535
67,65535
91,9248
93,9047
137,9182
113,9202
112,9160
136,65535
49,65535
72,65535
71,65535
406,1425
805,7090
858,6895
859,7036
967,2514
1142,2649
1080,6735
1022,6776
1079,6768
968,6891
1206,2606
915,7042
916,7077
914,7014
807,7129
911,8236
1078,6992
1207,2664
1278,2708
1277,2711
1344,2731
1415,2772
1492,2827
1345,2788
1346,2758
1208,2656
1209,2736
1143,2773
1144,2789
1145,2804
1417,2784
1493,2844
1494,2863
1572,2878
1081,7061
970,7264
408,1373
382,1401
437,1349
467,1360
409,1354
403,1309
432,1353
433,1334
404,1411
352,1426
351,1405
349,1366
317,1602
374,1343
346,1434
283,1472
410,1346
438,1363
465,1352
490,1339
491,1297
435,1356
436,1374
379,1476
323,1547
289,1577
377,1387
378,1360
592,1507
593,1545
552,1452
445,1577
424,1634
423,1666
416,1609
361,1639
362,1615
371,1531
372,1503
343,1425
344,1416
286,1803
227,1501
252,1494
284,1447
318,1429
250,1676
312,1460
340,1502
368,1541
369,1613
370,1722
341,1561
367,1552
308,1776
276,1514
277,1495
280,1488
310,1483
338,1530
366,1542
274,1596
305,1893
420,1718
363,1631
418,1695
550,7081
579,7104
576,7049
577,7061
578,7077
520,7057
618,7071
662,7101
619,7088
620,7101
621,7095
665,7077
666,7069
664,7097
580,7116
2260,65535
2257,65535
2206,65535
2146,65535
2314,65535
2313,65535
2312,65535
2373,65535
2256,65535
2205,65535
2434,65535
2435,65535
2375,65535
2376,65535
2433,65535
2491,65535
2490,65535
2492,65535
2546,65535
2597,65535
2596,65535
2544,65535
2145,65535
2082,65535
2020,65535
2494,65535
0,65535
11,65535
1052,2068
1053,2055
941,2095
1740,0
1796,10
1615,154
1681,117
1545,242
1797,55
1544,218
1741,97
1795,120
1617,284
1546,276
1616,341
1683,260
1467,280
1547,298
1465,334
1387,353
1388,307
1464,397
1462,619
1461,640
1542,704
1463,583
1682,226
1543,196
1618,348
1742,161
1460,806
1248,450
1850,759
1801,768
1803,714
882,919
881,959
938,1338
883,1304
940,2838
1998,1370
1902,1341
1807,876
1691,659
1694,1453
1693,1312
1749,678
1752,713
1753,969
1627,1243
1628,1401
1557,1294
1479,1273
1402,1264
1808,895
1946,1435
1947,1380
1948,1342
1997,1382
1855,900
1690,669
2060,1557
1949,1439
1950,1361
1751,702
1692,749
1999,1366
1901,1305
1900,1246
1852,1218
1853,1180
1805,829
1750,690
1854,889
1806,808
1748,728
2061,1604
2000,1393
1804,699
1899,1267
2884,65535
2892,65535
2883,65535
2876,65535
2874,65535
2882,65535
2877,65535
2911,65535
2905,65535
2906,65535
2896,65535
2887,65535
2881,65535
2880,65535
2888,65535
2902,65535
2903,65535
2907,65535
2912,65535
2895,65535
2894,65535
2875,65535
2885,65535
2893,65535
2904,65535
2865,65535
2866,65535
2909,65535
2913,65535
2886,65535
2878,65535
2869,65535
2871,65535
2872,65535
2879,65535
2870,65535
1330,1366
1331,1280
1401,1276
1262,1285
1263,1281
1478,1317
1403,1242
1261,1294
1480,1262
1264,1311
1390,285
1389,277
1319,332
1251,422
1250,508
1285,2900
1284,2886
1214,2858
1146,2822
1505,3107
1504,3041
1582,3079
1581,3007
1713,2986
1771,2968
1654,3118
1653,3091
1651,3043
2096,4222
2033,4182
1972,4153
1923,4085
1922,4063
1874,3757
1873,3470
1919,3423
1829,6134
1579,2943
1424,2947
1711,2960
1348,2784
1419,2804
1359,3211
1429,3162
1428,3148
1421,2861
1577,2895
1499,2868
1230,3455
1365,3392
1511,3314
1300,3437
1366,3409
1512,3342
1716,3176
1503,3229
1276,2738
1347,2768
1349,2816
1645,2952
1578,2930
1770,2964
1715,3019
1150,2923
1217,2937
1149,2899
1580,2989
1352,2976
1502,3007
1825,3376
1718,3331
1717,3305
1872,3409
1656,3220
1648,2995
1712,2972
1213,2848
1212,2829
1084,2870
1420,2850
1281,2774
1282,2835
1587,3214
1586,3181
1585,3170
1652,3138
1427,3316
1975,4257
1977,4325
1932,4395
1931,5020
1426,3036
1422,2878
1425,3021
1583,3107
1501,2965
1283,2876
1286,2923
1215,2908
1211,2805
1210,2779
1083,2841
1655,3209
2220,4457
1355,5891
1772,2977
1436,3360
1435,3350
1589,3283
1163,3488
1735,4608
1791,4541
1841,4518
1840,4474
1219,3040
1220,3079
1647,2981
1646,2973
1279,2726
1714,2996
1575,2955
1576,2917
1498,2925
1573,2967
1496,2985
1497,2956
2177,2965
2176,3035
2294,2952
2293,3071
2237,3012
2236,3041
2364,2813
2302,2753
2301,2675
2245,2577
2056,2707
2057,2793
2055,2686
2184,2738
2120,2744
2244,2658
2538,2998
2537,2979
2591,3095
1940,2870
1989,2878
1990,2814
2539,2998
2482,2989
2483,2951
2424,2847
2121,2805
2119,2618
2050,2927
2049,3005
2048,3423
2185,2771
2243,2497
2299,2711
2241,2660
2485,3029
2542,3084
2353,3043
2292,2950
2419,2837
2478,2884
2479,2919
2536,2946
2484,2990
2486,2983
2354,2882
2416,3059
2242,2705
2355,2920
2300,2718
1991,2818
1992,2825
2477,2875
2534,2896
2535,3011
2588,2916
2587,2930
2630,2981
2051,2739
2116,2633
2175,3068
2586,65535
2541,3151
2178,2940
2179,2743
2240,2690
2239,2914
2238,2984
2052,2870
2053,2836
1987,3110
1988,2958
1939,2982
2594,3101
2593,3086
2358,2804
2357,2814
2420,2870
2247,2866
2427,2956
2428,2978
2181,2537
2180,2586
2417,2864
2590,3076
2297,2699
2361,2891
2362,2774
2423,2862
2422,2827
2174,3298
2356,2925
1941,2859
2365,2990
2112,3303
2047,3445
2182,2676
2359,2753
2533,3691
2295,3016
2115,2706
2632,3136
2631,3075
2186,2923
2298,2785
2360,2809
2235,3261
2291,3274
2487,3205
2246,2798
2425,3606
2117,2930
2543,3158
1893,65535
2421,2962
2476,2880
2592,3134
604,7066
