middle_point_id,reach_time_minutes
2835,65535
2836,65535
2806,65535
2822,65535
2823,65535
2807,65535
2846,65535
887,564
888,538
1326,355
1185,443
999,530
1057,721
1552,214
1120,474
1473,279
944,576
832,530
1257,367
1396,319
1622,235
1327,904
1184,475
1183,490
1324,335
1255,351
1394,282
1252,470
1253,485
1182,525
1328,65535
1470,297
1321,442
1322,415
1323,365
1391,487
1551,232
1393,340
1472,504
1471,273
1181,494
1118,539
1059,440
1121,434
1469,645
1468,478
1548,366
1325,445
1625,298
1623,196
1258,387
1256,434
791,509
891,500
703,537
704,531
660,533
1553,228
1624,249
1554,290
1474,280
1475,333
1550,242
1549,291
1320,471
1466,502
1541,1555
1318,513
1249,521
1186,408
1003,457
1002,446
741,526
788,495
434,665
697,531
752,550
1056,552
1006,445
907,535
518,570
1011,418
1000,488
1055,2102
997,2071
994,1965
996,2037
995,2021
991,1812
1112,4445
1114,2052
1051,2015
1398,372
1395,330
1001,449
1811,409
1960,670
1769,760
1823,759
1329,65535
1332,234
1259,2216
1200,397
1199,395
1140,564
1141,562
783,521
1689,198
1802,380
1945,841
2183,2398
2418,2847
1994,875
1995,908
2059,457
1621,65535
1555,336
1754,220
1180,1343
1106,3045
933,3206
827,614
2122,2813
2124,500
493,582
519,575
544,567
545,569
494,581
470,602
543,571
469,586
517,580
574,571
573,559
495,599
546,574
613,549
612,552
492,589
572,565
571,573
570,584
610,570
575,625
547,618
516,592
611,561
542,587
569,610
609,573
548,650
549,679
1404,259
1405,276
1266,296
1193,407
743,511
742,515
747,519
746,520
745,529
744,508
790,504
789,498
839,493
838,487
738,527
739,528
740,516
890,492
834,517
784,512
889,497
856,719
855,685
854,671
853,656
852,555
910,669
909,656
908,558
964,543
965,584
1020,623
966,603
963,516
1021,649
1271,395
1270,392
1339,400
1338,387
1071,414
1072,438
1135,410
1408,403
1337,338
1269,385
1268,367
1136,428
1075,549
1077,558
1076,580
1019,582
1018,555
1074,460
1137,444
1272,420
1274,496
1275,530
1205,573
1204,539
1273,468
1198,379
1197,346
1341,503
1134,371
1133,367
1069,387
1132,384
1073,470
1203,523
1202,465
1201,438
1139,508
1267,318
1138,475
1340,433
1196,335
1342,509
1409,407
1485,443
1407,408
1561,367
1632,375
1484,438
1483,330
1562,360
1194,358
1130,365
1195,346
1335,283
1129,390
1066,398
1128,444
1067,397
1131,377
1334,314
1336,298
1265,335
1333,239
1406,294
857,828
803,3562
804,7039
860,7047
969,7000
913,6987
912,6925
861,7057
806,7100
659,534
751,528
658,547
705,536
702,544
706,543
753,544
614,544
701,526
661,542
616,548
848,481
796,521
797,528
798,518
750,534
707,561
615,581
748,564
845,514
846,493
657,586
749,546
795,535
617,591
663,596
794,584
847,482
849,510
902,482
901,512
900,526
793,522
899,531
898,510
897,483
844,560
842,502
841,505
956,442
792,511
843,532
840,504
850,549
903,465
800,566
755,593
756,703
710,733
711,778
962,503
961,496
904,480
906,529
851,548
802,590
801,569
799,543
959,452
1014,408
1013,400
708,905
709,879
754,607
757,851
1017,461
1016,442
960,444
905,516
958,440
957,7610
1070,374
1015,425
1012,440
1068,399
1005,457
1004,470
1060,442
1063,453
1065,452
1127,469
1062,468
1124,489
1123,464
1125,486
1188,453
1122,429
1058,440
947,485
946,499
949,492
945,516
948,483
1190,533
1187,432
951,464
895,443
952,438
1009,408
1008,425
1010,401
1007,436
1061,483
954,583
896,474
953,440
1126,483
1064,450
1189,513
955,451
950,470
892,496
786,499
836,514
837,490
787,507
700,530
655,557
654,534
653,556
698,528
699,564
608,569
696,530
656,554
833,525
785,505
835,512
693,535
894,465
893,483
1343,503
1192,298
1191,335
828,611
829,589
780,590
830,617
779,581
782,527
529,634
886,552
596,651
556,666
598,613
597,623
526,680
555,688
525,719
524,735
523,724
688,572
607,579
650,566
651,554
652,563
737,532
694,537
695,542
645,587
646,557
690,551
600,591
599,599
781,532
736,541
558,630
644,589
643,583
648,570
692,537
691,534
513,627
541,597
540,635
568,596
530,649
831,534
559,641
560,599
642,681
557,651
496,762
471,777
444,865
446,812
528,641
527,654
562,599
602,581
734,568
466,652
464,674
463,688
478,774
481,772
480,768
479,749
647,584
488,642
502,649
689,568
533,604
532,625
531,636
601,575
484,720
508,669
510,709
509,680
534,661
482,806
506,679
606,585
455,890
429,756
456,862
457,842
428,813
458,788
554,752
594,790
640,687
639,746
551,746
681,887
636,875
635,849
590,791
778,604
777,620
485,740
486,732
462,712
563,632
885,584
943,1331
564,665
641,681
504,670
503,662
501,682
500,730
561,621
254,805
350,747
321,777
319,771
251,813
375,726
347,741
687,589
565,696
539,637
511,770
536,731
649,583
603,621
605,1886
733,587
735,557
489,644
514,640
461,1338
460,1314
459,1292
468,603
154,1445
178,1400
203,1385
228,855
402,753
401,818
505,685
522,765
451,1409
452,1403
477,830
476,850
483,776
884,622
431,724
430,735
454,1343
595,697
395,962
394,1249
422,1369
417,876
390,922
538,610
567,591
426,1349
397,845
398,866
499,1533
475,1474
497,812
498,794
311,794
342,803
345,760
421,1287
515,630
472,1416
448,1447
473,1472
474,1517
353,718
381,698
256,781
290,757
324,740
380,715
407,705
253,1359
226,1375
201,1400
177,1419
824,656
775,627
826,619
939,667
936,1798
937,695
880,729
566,723
2821,65535
2834,65535
2833,65535
2789,65535
2790,65535
2770,65535
2788,65535
2776,65535
2795,65535
2775,65535
2794,65535
2825,65535
2824,65535
2826,65535
2811,65535
2812,65535
2796,65535
2827,65535
2858,65535
2855,65535
2849,65535
2838,65535
2814,65535
2813,65535
2828,65535
2839,65535
2791,65535
2792,65535
2803,65535
2830,65535
2815,65535
2819,65535
2818,65535
2817,65535
2831,65535
2810,65535
2829,65535
2783,65535
2820,65535
2804,65535
2785,65535
2784,65535
2762,65535
2768,65535
2751,65535
2750,65535
2733,65535
2769,65535
2720,65535
2761,65535
2741,65535
2837,65535
2793,65535
2808,65535
2753,65535
2736,65535
2735,65535
2809,65535
2772,65535
2845,65535
2844,65535
2848,65535
2777,65535
2778,65535
2779,65535
2759,65535
2780,65535
2797,65535
2843,65535
2832,65535
2842,65535
2758,65535
2738,65535
2774,65535
2773,65535
2771,65535
2851,65535
2847,65535
2854,65535
2721,65535
2756,65535
2737,65535
2840,65535
2752,65535
2754,65535
2755,65535
2852,65535
2853,65535
2856,65535
2841,65535
2742,65535
2727,65535
2744,65535
2726,65535
2743,65535
2725,65535
2746,65535
2787,65535
2766,65535
2763,65535
2765,65535
2745,65535
2764,65535
2552,65535
2501,65535
2443,65535
2442,65535
2320,65535
2381,65535
2382,65535
2498,65535
2499,65535
2438,65535
2439,65535
2497,65535
2441,65535
2379,65535
2380,65535
2319,65535
2551,65535
2550,65535
2563,7557
2321,4213
2322,4182
2383,4194
2384,4905
2446,4948
2445,4956
2503,4975
2385,4939
2504,7678
2505,7700
2557,7724
2558,7749
2559,7773
2560,7737
2564,7513
2562,7625
2561,7665
2605,7680
2609,5264
2565,5209
2566,5194
2515,5139
2397,3559
2457,5120
2458,5104
2401,3731
2337,3472
2336,3476
2399,3518
2398,3539
2402,3765
2333,3696
2273,3731
2219,3755
2218,3767
2159,3792
2454,5824
2393,5790
2512,7524
2502,8309
2608,7943
2156,3914
2155,3946
2154,3975
2213,3991
2212,4003
2211,4051
2210,4092
2264,4099
2324,4133
2323,4149
2030,65535
2094,65535
2157,3878
2450,7921
2388,7970
2387,8038
2326,8075
2266,4280
2265,4235
2508,7892
2396,3628
2335,3646
2334,3657
2158,3817
2279,7345
2278,7309
2222,7278
2221,7260
2276,7242
2275,2844
2261,5727
2207,6585
2149,6644
2554,5027
2599,5057
2633,5095
2664,5130
2689,5167
2690,5193
2691,5209
2692,5233
2152,6338
2089,7046
2088,6384
2025,7179
2603,65535
2602,65535
2556,65535
2693,7172
2671,8955
2670,8935
2694,8894
2553,65535
2665,65535
2705,65535
2710,65535
2668,65535
2639,65535
2463,6586
2521,6622
2572,6645
2451,7806
2390,7775
2391,7595
2392,6232
2215,7800
2268,65535
2093,65535
2092,65535
2028,65535
2024,6414
2150,4452
2086,4482
2209,4439
2023,5553
2087,5506
2148,8599
2262,5712
2327,65535
1560,369
1630,263
1631,336
1559,261
1629,249
1558,204
1634,393
1633,385
1482,382
1481,423
1699,381
1700,421
1701,449
1563,394
2070,691
2008,687
2009,684
1959,672
1958,698
2006,730
1957,710
1956,662
2193,802
2132,741
1912,700
1911,680
1865,652
1866,751
2007,717
2069,701
2010,693
2011,709
1961,688
2072,709
1913,817
1867,848
1962,713
1914,720
1915,763
1909,614
1636,453
1635,441
1564,422
1702,480
1637,478
1638,512
1565,459
1486,431
1760,632
1704,470
1703,457
1763,485
1762,478
1817,522
1705,527
1863,611
1815,1293
1759,447
863,1808
758,1901
808,1852
982,2023
1036,2030
1099,2065
1100,2093
1166,2494
1167,2989
1237,2646
1238,2681
1375,2751
1308,2820
1309,2729
1236,2947
1235,2581
1101,2124
1037,2061
971,1604
1025,1587
1026,1602
1027,1615
1089,1628
720,1864
674,1910
864,1690
865,1711
919,1606
1024,1551
975,1725
974,1695
1028,1650
873,2050
925,1996
924,1973
917,1670
918,1646
623,2085
712,1957
713,1990
667,1995
622,2053
809,1838
719,1838
765,1799
972,1636
868,1748
869,1760
815,1779
920,2015
973,1681
981,1974
926,2075
927,2083
928,2107
1354,1600
1288,1541
1218,1517
1152,1586
1023,1515
1353,1614
1085,1495
1148,1425
1147,1418
1082,1369
772,2136
771,2093
819,2068
584,1984
628,1951
629,1940
1033,1871
978,1826
1031,1799
1030,1753
1029,1736
1091,1713
1035,1952
1034,1895
979,1853
1526,2870
1449,2908
1378,2936
1448,2859
1524,2837
1038,2108
1447,2900
1768,764
1710,720
1767,771
391,902
365,863
339,849
400,826
393,1390
392,1374
396,888
399,842
443,1471
449,1386
450,1353
419,1359
414,1512
415,1419
387,1412
388,1405
389,1350
282,905
281,866
314,884
313,864
405,685
411,1714
442,1673
255,838
376,733
373,811
278,805
275,1351
248,1386
335,1420
334,1424
306,1388
307,1376
176,1435
225,894
320,1325
249,1386
287,822
285,1321
776,622
731,635
315,822
316,1353
204,1458
440,600
439,618
166,1905
269,1822
383,1760
1247,4390
1246,4412
1384,4496
1679,4658
1178,4383
1105,3049
1172,3068
1173,3118
1242,3120
1241,3112
1314,3269
1313,3175
1171,3094
1382,3375
1243,3317
1317,3456
1107,3057
1108,3236
1109,3521
1041,3066
1043,3276
1042,3267
1044,3330
1176,4284
1174,3343
1177,4332
1110,4339
985,3112
986,3155
932,3173
774,650
730,632
825,672
728,657
729,641
727,1351
682,661
684,647
685,658
732,638
683,687
2134,1255
2194,1284
2068,661
2129,626
1905,349
1907,563
1906,486
1953,385
2002,426
2064,445
2125,467
2137,1396
2196,1352
2195,1307
1859,415
1810,450
1755,420
2131,766
2192,780
1862,571
1861,433
1812,411
1860,577
1809,198
1756,398
1869,644
1822,722
1821,698
1916,682
1819,562
1764,522
1820,595
1698,387
1757,395
1566,498
1567,506
1488,549
1489,564
1412,535
1413,531
1414,517
1818,561
1568,697
1410,490
2128,617
2189,637
2066,489
2065,512
2067,578
1643,638
1571,582
1491,530
2004,477
2003,464
1697,405
2135,1277
2075,1237
1642,597
1955,601
2130,828
2005,770
1858,334
1816,8488
1864,8481
1766,623
1910,654
1868,635
2188,841
2127,811
1903,325
2001,482
2063,479
2062,470
1813,447
1758,408
1639,638
1640,660
1952,428
2126,8570
1569,633
1965,789
1966,835
2014,852
1490,544
1917,696
1870,747
1871,791
1570,604
1707,673
2076,918
2013,1286
1964,793
1487,498
1908,1249
2251,3681
2199,3625
2198,3488
2136,1300
1641,694
1954,1306
1765,589
1857,239
2187,556
1904,397
1856,285
1951,395
1708,1323
245,8799
244,8782
357,8786
246,8914
247,8943
197,9037
223,9015
44,9379
43,9439
3,9575
23,9549
22,9538
63,9321
85,9263
84,9218
108,8718
149,8672
172,9063
296,8766
294,8814
355,8914
354,8946
326,9024
295,8923
291,8935
293,9057
260,8943
356,8974
441,8574
412,8597
329,8932
300,8876
148,8646
214,8884
146,8767
110,8848
262,8909
258,9322
292,9085
257,9387
235,8907
187,8807
212,8863
211,8890
186,8811
162,8785
161,8864
165,8763
189,8963
238,9044
237,9009
263,8945
265,8964
266,8942
267,8930
268,8770
26,9539
25,9507
105,65535
62,65535
83,65535
126,8885
175,9320
152,9254
151,9244
150,9203
103,8823
242,8716
191,8670
192,8721
217,8744
218,8797
145,8707
144,8791
167,8699
190,8677
219,8814
159,8911
185,8855
158,8968
188,8799
160,8876
143,65535
122,65535
75,65535
54,65535
198,9448
270,8811
221,8852
301,8909
302,8746
330,8773
331,8795
115,8847
133,8906
139,8803
134,8880
114,9404
48,65535
69,65535
92,9080
164,8873
4,65535
107,9225
129,9310
109,8750
125,8791
124,8765
127,65535
82,65535
67,65535
91,9248
93,9047
137,9182
113,9202
112,9160
136,65535
49,65535
72,65535
71,65535
406,745
805,7090
858,6895
859,7036
967,1074
1142,1209
1080,6735
1022,6776
1079,6768
968,6891
1206,1166
915,7042
916,7077
914,7014
807,7129
911,8236
1078,6992
1207,1224
1278,1268
1277,1271
1344,1291
1415,1332
1492,1387
1345,1348
1346,1318
1208,1216
1209,1296
1143,1333
1144,1349
1145,1364
1417,1344
1493,1404
1494,1423
1572,1438
1081,7061
970,7264
408,681
382,698
437,657
467,649
409,664
403,774
432,772
433,716
404,744
352,752
351,755
349,1346
317,809
374,735
346,796
283,877
410,637
438,653
465,658
490,623
491,622
435,695
436,679
379,788
323,861
289,891
377,775
378,722
592,1346
593,1317
552,761
445,856
424,1409
423,1365
416,1410
361,1375
362,1345
371,818
372,788
343,1347
344,1364
286,1456
227,1368
252,878
284,844
318,828
250,1440
312,805
340,842
368,881
369,916
370,1412
341,1353
367,886
308,1387
276,1331
277,1311
280,1433
310,824
338,871
366,1380
274,1370
305,1572
420,1359
363,1332
418,1333
550,7081
579,7104
576,7049
577,7061
578,7077
520,7057
618,7071
662,7101
619,7088
620,7101
621,7095
665,7077
666,7069
664,7097
580,7116
2260,65535
2257,65535
2206,65535
2146,65535
2314,65535
2313,65535
2312,65535
2373,65535
2256,65535
2205,65535
2434,65535
2435,65535
2375,65535
2376,65535
2433,65535
2491,65535
2490,65535
2492,65535
2546,65535
2597,65535
2596,65535
2544,65535
2145,65535
2082,65535
2020,65535
2494,65535
0,65535
11,65535
1052,2068
1053,2055
941,2095
1740,706
1796,746
1615,586
1681,643
1545,495
1797,769
1544,532
1741,741
1795,1202
1617,503
1546,477
1616,532
1683,595
1467,508
1547,442
1465,538
1387,557
1388,502
1464,556
1462,2059
1461,2080
1542,1971
1463,2023
1682,706
1543,543
1618,495
1742,1300
1460,1770
1248,581
1850,394
1801,393
1803,346
882,619
881,629
938,678
883,639
940,2838
1998,399
1902,353
1807,129
1691,147
1694,90
1693,421
1749,258
1752,0
1753,51
1627,121
1628,134
1557,179
1479,210
1402,226
1808,115
1946,475
1947,506
1948,413
1997,409
1855,222
1690,162
2060,415
1949,447
1950,374
1751,9
1692,389
1999,389
1901,455
1900,496
1852,645
1853,524
1805,146
1750,143
1854,290
1806,88
1748,235
2061,456
2000,454
1804,346
1899,665
2884,65535
2892,65535
2883,65535
2876,65535
2874,65535
2882,65535
2877,65535
2911,65535
2905,65535
2906,65535
2896,65535
2887,65535
2881,65535
2880,65535
2888,65535
2902,65535
2903,65535
2907,65535
2912,65535
2895,65535
2894,65535
2875,65535
2885,65535
2893,65535
2904,65535
2865,65535
2866,65535
2909,65535
2913,65535
2886,65535
2878,65535
2869,65535
2871,65535
2872,65535
2879,65535
2870,65535
1330,275
1331,242
1401,238
1262,263
1263,257
1478,237
1403,255
1261,366
1480,347
1264,283
1390,515
1389,493
1319,477
1251,560
1250,635
1285,1442
1284,1446
1214,1418
1146,1384
1505,1667
1504,1601
1582,1639
1581,1567
1713,1546
1771,1528
1654,1678
1653,1651
1651,1603
2096,2782
2033,2742
1972,2713
1923,2645
1922,2623
1874,2317
1873,2030
1919,1983
1829,2994
1579,1503
1424,1495
1711,1520
1348,1344
1419,1364
1359,1771
1429,1722
1428,1708
1421,1421
1577,1455
1499,1428
1230,2015
1365,1952
1511,1874
1300,1997
1366,1969
1512,1902
1716,1736
1503,2013
1276,1298
1347,1328
1349,1376
1645,1512
1578,1490
1770,1524
1715,1579
1150,1483
1217,1497
1149,1459
1580,1529
1352,1536
1502,1518
1825,1936
1718,1891
1717,1865
1872,1969
1656,1780
1648,1555
1712,1532
1213,1408
1212,1389
1084,1430
1420,1410
1281,1334
1282,1395
1587,1774
1586,1741
1585,1730
1652,1698
1427,1876
1975,2817
1977,2885
1932,2955
1931,3580
1426,1596
1422,1438
1425,1581
1583,1667
1501,1525
1283,1436
1286,1483
1215,1468
1211,1365
1210,1339
1083,1401
1655,1769
2220,2823
1355,5891
1772,1537
1436,1920
1435,1910
1589,1843
1163,2048
1735,3168
1791,3101
1841,3078
1840,3034
1219,1600
1220,1639
1647,1541
1646,1533
1279,1286
1714,1556
1575,1515
1576,1477
1498,1485
1573,1527
1496,1545
1497,1516
2177,2965
2176,3035
2294,2952
2293,3071
2237,3012
2236,3041
2364,2813
2302,2753
2301,2675
2245,2577
2056,2707
2057,2793
2055,2686
2184,2738
2120,2744
2244,2658
2538,2998
2537,2979
2591,3095
1940,2870
1989,2878
1990,2814
2539,2998
2482,2989
2483,2951
2424,2847
2121,2805
2119,2618
2050,2927
2049,3005
2048,3423
2185,2771
2243,2497
2299,2711
2241,2660
2485,3029
2542,3084
2353,3043
2292,2950
2419,2837
2478,2884
2479,2919
2536,2946
2484,2990
2486,2983
2354,2882
2416,3059
2242,2705
2355,2920
2300,2718
1991,2818
1992,2825
2477,2875
2534,2896
2535,3011
2588,2916
2587,2930
2630,2981
2051,2739
2116,2633
2175,3068
2586,65535
2541,3151
2178,2940
2179,2743
2240,2690
2239,2914
2238,2984
2052,2870
2053,2836
1987,3110
1988,2958
1939,2982
2594,3101
2593,3086
2358,2804
2357,2814
2420,2870
2247,2866
2427,2956
2428,2978
2181,2537
2180,2586
2417,2864
2590,3076
2297,2699
2361,2891
2362,2774
2423,2862
2422,2827
2174,3298
2356,2925
1941,2859
2365,2990
2112,3303
2047,3445
2182,2676
2359,2753
2533,3691
2295,3016
2115,2706
2632,3136
2631,3075
2186,2923
2298,2785
2360,2809
2235,3261
2291,3274
2487,3205
2246,2798
2425,3606
2117,2930
2543,3158
1893,65535
2421,2962
2476,2880
2592,3134
604,7066
