middle_point_id,reach_time_minutes
2835,65535
2836,65535
2806,65535
2822,65535
2823,65535
2807,65535
2846,65535
887,3043
888,3049
1326,3269
1185,3129
999,3170
1057,3379
1552,3334
1120,3114
1473,3364
944,3301
832,3031
1257,3239
1396,3974
1622,3355
1327,8584
1184,3119
1183,3130
1324,3391
1255,3413
1394,3402
1252,3235
1253,3196
1182,3181
1328,65535
1470,3420
1321,3234
1322,3201
1323,3485
1391,3247
1551,3352
1393,3460
1472,3358
1471,3397
1181,3374
1118,3239
1059,3035
1121,3083
1469,3740
1468,3303
1548,3339
1325,3325
1625,3292
1623,3321
1258,3159
1256,3314
791,2920
891,3009
703,2880
704,2871
660,2873
1553,3339
1624,3308
1554,3352
1474,3360
1475,3467
1550,3362
1549,3390
1320,3278
1466,3303
1541,3640
1318,3325
1249,3348
1186,3201
1003,3021
1002,3032
741,2977
788,2943
434,3014
697,2961
752,2852
1056,3190
1006,3038
907,2722
518,2915
1011,2959
1000,3068
1055,4502
997,4471
994,4367
996,4437
995,4421
991,3252
1112,65535
1114,4710
1051,4675
1398,3852
1395,4165
1001,3049
1811,3289
1960,3467
1769,3387
1823,3397
1329,65535
1332,3102
1259,4315
1200,2924
1199,2926
1140,2844
1141,2872
783,3023
1689,3389
1802,3500
1945,3721
2183,5278
2418,5784
1994,3755
1995,3788
2059,3517
1621,65535
1555,3247
1754,3340
1180,5663
1106,5830
933,6086
827,3128
2122,5083
2124,3554
493,2922
519,2919
544,2907
545,2911
494,2922
470,2942
543,2911
469,2938
517,2926
574,2910
573,2900
495,2941
546,2915
613,2889
612,2892
492,2930
572,2905
571,2949
570,2953
610,2924
575,2967
547,2958
516,2948
611,2901
542,2935
569,2955
609,2934
548,2990
549,3019
1404,3070
1405,3011
1266,2978
1193,2987
743,2948
742,2960
747,2904
746,2924
745,2933
744,2945
790,2931
789,2940
839,2958
838,2953
738,3029
739,2988
740,2984
890,3004
834,3025
784,3014
889,3024
856,2612
855,2673
854,2685
853,2697
852,2709
910,2701
909,2710
908,2730
964,2733
965,2736
1020,2783
966,2718
963,2770
1021,2810
1271,2927
1270,2929
1339,2947
1338,2960
1071,2895
1072,2889
1135,2918
1408,2983
1337,2977
1269,2954
1268,2980
1136,2924
1075,2840
1077,2836
1076,2816
1019,2807
1018,2828
1074,2880
1137,2907
1272,2940
1274,2986
1275,3027
1205,2942
1204,2939
1273,2987
1198,2951
1197,2986
1341,3042
1134,2933
1133,2928
1069,2914
1132,2930
1073,2870
1203,2923
1202,2982
1201,2958
1139,2862
1267,2965
1138,2936
1340,2940
1196,2963
1342,3029
1409,3001
1485,3008
1407,3005
1561,3157
1632,3181
1484,3100
1483,3112
1562,3148
1194,2965
1130,2950
1195,2952
1335,2981
1129,2970
1066,2975
1128,3022
1067,2978
1131,2939
1334,3114
1336,3014
1265,2997
1333,3099
1406,3045
857,3528
803,3562
804,7039
860,7047
969,7000
913,6987
912,6925
861,7057
806,7100
659,2874
751,2865
658,2887
705,2876
702,2893
706,2862
753,2818
614,2884
701,2899
661,2887
616,2888
848,2821
796,2861
797,2840
798,2833
750,2874
707,2841
615,2921
748,2912
845,2856
846,2833
657,3732
749,2894
795,2875
617,2931
663,2876
794,2903
847,2822
849,2813
902,2828
901,2836
900,2869
793,2907
899,2991
898,2956
897,2970
844,2893
842,2938
841,2928
956,3687
792,2914
843,2900
840,2945
850,2753
903,2815
800,2761
755,2789
756,2807
710,2893
711,2938
962,2783
961,2793
904,2803
906,2732
851,2746
802,2742
801,2749
799,2771
959,2853
1014,2921
1013,2920
708,3740
709,3759
754,2801
757,2831
1017,2801
1016,2865
960,2858
905,2794
958,2898
957,4338
1070,2901
1015,2909
1012,2979
1068,2931
1005,3006
1004,3011
1060,3027
1063,3040
1065,3005
1127,3017
1062,3068
1124,3084
1123,3072
1125,3072
1188,3111
1122,3162
1058,3076
947,3046
946,3079
949,2984
945,3063
948,3009
1190,3218
1187,3131
951,3012
895,2978
952,3006
1009,3011
1008,3045
1010,3713
1007,3016
1061,3133
954,2983
896,2975
953,3037
1126,3064
1064,3023
1189,3153
955,3699
950,3027
892,2965
786,2968
836,2965
837,2961
787,2960
700,2930
655,2957
654,2963
653,2971
698,2946
699,2943
608,2939
696,2977
656,2954
833,3028
785,2982
835,2985
693,3011
894,2984
893,2960
1343,3023
1192,3178
1191,3215
828,3118
829,3104
780,3057
830,3099
779,3101
782,3024
529,3120
886,3042
596,3172
556,3176
598,3120
597,3143
526,3144
555,3180
525,3235
524,3202
523,3183
688,3066
607,2945
650,2983
651,2971
652,2975
737,3031
694,2993
695,2984
645,3056
646,3048
690,3044
600,3075
599,3090
781,3036
736,3040
558,3151
644,3064
643,3073
648,3059
692,3029
691,3038
513,3065
541,2997
540,3060
568,3019
530,3142
831,3050
559,3128
560,3119
642,3216
557,3139
496,3222
471,3258
444,3325
446,3289
528,3126
527,3160
562,3117
602,3096
734,3060
466,3069
464,2993
463,3007
478,3234
481,3232
480,3221
479,3209
647,3068
488,3023
502,3156
689,3071
533,3150
532,3177
531,3201
601,3093
484,3108
508,3167
510,3130
509,3142
534,3164
482,3246
506,3200
606,2979
455,3324
429,3190
456,3386
457,3367
428,3274
458,3203
554,3225
594,3288
640,3207
639,3285
551,3222
681,3304
636,3292
635,3300
590,3226
778,3125
777,3132
485,3090
486,3112
462,3071
563,3156
885,3053
943,3073
564,3263
641,3201
504,3164
503,3173
501,3197
500,3264
561,3141
254,3127
350,3090
321,3172
319,3126
251,3167
375,3100
347,3178
687,3079
565,3212
539,3109
511,3170
536,3208
649,3031
603,3201
605,3550
733,3074
735,3049
489,3040
514,3080
461,3310
460,3303
459,3235
468,2943
154,3243
178,3230
203,3215
228,3185
402,3155
401,3167
505,3205
522,3209
451,3421
452,3474
477,3287
476,3330
483,3164
884,3121
431,3165
430,3202
454,3254
595,3214
395,3269
394,3289
422,3372
417,3333
390,3331
538,3092
567,3011
426,3398
397,3280
398,3330
499,3343
475,3431
497,3210
498,3237
311,3194
342,3236
345,3210
421,3338
515,2978
472,3609
448,3640
473,3664
474,3657
353,3136
381,3117
256,3199
290,3173
324,3149
380,3121
407,3092
253,3181
226,3207
201,3220
177,3281
824,3236
775,3182
826,3139
939,3187
936,3238
937,3224
880,3192
566,3200
2821,65535
2834,65535
2833,65535
2789,65535
2790,65535
2770,65535
2788,65535
2776,65535
2795,65535
2775,65535
2794,65535
2825,65535
2824,65535
2826,65535
2811,65535
2812,65535
2796,65535
2827,65535
2858,65535
2855,65535
2849,65535
2838,65535
2814,65535
2813,65535
2828,65535
2839,65535
2791,65535
2792,65535
2803,65535
2830,65535
2815,65535
2819,65535
2818,65535
2817,65535
2831,65535
2810,65535
2829,65535
2783,65535
2820,65535
2804,65535
2785,65535
2784,65535
2762,65535
2768,65535
2751,65535
2750,65535
2733,65535
2769,65535
2720,65535
2761,65535
2741,65535
2837,65535
2793,65535
2808,65535
2753,65535
2736,65535
2735,65535
2809,65535
2772,65535
2845,65535
2844,65535
2848,65535
2777,65535
2778,65535
2779,65535
2759,65535
2780,65535
2797,65535
2843,65535
2832,65535
2842,65535
2758,65535
2738,65535
2774,65535
2773,65535
2771,65535
2851,65535
2847,65535
2854,65535
2721,65535
2756,65535
2737,65535
2840,65535
2752,65535
2754,65535
2755,65535
2852,65535
2853,65535
2856,65535
2841,65535
2742,65535
2727,65535
2744,65535
2726,65535
2743,65535
2725,65535
2746,65535
2787,65535
2766,65535
2763,65535
2765,65535
2745,65535
2764,65535
2552,65535
2501,65535
2443,65535
2442,65535
2320,65535
2381,65535
2382,65535
2498,65535
2499,65535
2438,65535
2439,65535
2497,65535
2441,65535
2379,65535
2380,65535
2319,65535
2551,65535
2550,65535
2563,7557
2321,4213
2322,4182
2383,4194
2384,4905
2446,4948
2445,4956
2503,4975
2385,4939
2504,7678
2505,7700
2557,7724
2558,7749
2559,7773
2560,7737
2564,7513
2562,7625
2561,7665
2605,7680
2609,5264
2565,5209
2566,5194
2515,5139
2397,3559
2457,5120
2458,5104
2401,3731
2337,3472
2336,3476
2399,3518
2398,3539
2402,3765
2333,3696
2273,3731
2219,3755
2218,3767
2159,3792
2454,5824
2393,5790
2512,7524
2502,8309
2608,7943
2156,3914
2155,3946
2154,3975
2213,3991
2212,4003
2211,4051
2210,4092
2264,4099
2324,4133
2323,4149
2030,65535
2094,65535
2157,3878
2450,7921
2388,7970
2387,8038
2326,8075
2266,4280
2265,4235
2508,7892
2396,3628
2335,3646
2334,3657
2158,3817
2279,8666
2278,8630
2222,8599
2221,8581
2276,8563
2275,1404
2261,5727
2207,6585
2149,6644
2554,5027
2599,5057
2633,5095
2664,5130
2689,5167
2690,5193
2691,5209
2692,5233
2152,6338
2089,7046
2088,6384
2025,7179
2603,65535
2602,65535
2556,65535
2693,7172
2671,8955
2670,8935
2694,8894
2553,65535
2665,65535
2705,65535
2710,65535
2668,65535
2639,65535
2463,6586
2521,6622
2572,6645
2451,7806
2390,7775
2391,7595
2392,6232
2215,7800
2268,65535
2093,65535
2092,65535
2028,65535
2024,6414
2150,4452
2086,4482
2209,4439
2023,5553
2087,5506
2148,8599
2262,5712
2327,65535
1560,3097
1630,3198
1631,3169
1559,3222
1629,3320
1558,3153
1634,3173
1633,3179
1482,3022
1481,3087
1699,3193
1700,3244
1701,3223
1563,3159
2070,3477
2008,3472
2009,3474
1959,3447
1958,3465
2006,3483
1957,3499
1956,3508
2193,3549
2132,3487
1912,3439
1911,3408
1865,3364
1866,3447
2007,3477
2069,3511
2010,3483
2011,3510
1961,3505
2072,3541
1913,3506
1867,3499
1962,3538
1914,3542
1915,3454
1909,3494
1636,3196
1635,3200
1564,3173
1702,3250
1637,3190
1638,3156
1565,3160
1486,3033
1760,3283
1704,3220
1703,3206
1763,3294
1762,3277
1817,3324
1705,3318
1863,3364
1815,3331
1759,3286
863,1928
758,2020
808,1974
982,1604
1036,1584
1099,1516
1100,1671
1166,2077
1167,2127
1237,2219
1238,2247
1375,2328
1308,2286
1309,2307
1236,2184
1235,2163
1101,1705
1037,1642
971,1712
1025,1702
1026,1685
1027,1705
1089,1669
720,2237
674,2286
864,1864
865,1872
919,1726
1024,1671
975,1842
974,1820
1028,1769
873,1921
925,1952
924,1973
917,1790
918,1766
623,2210
712,2066
713,2102
667,2108
622,2163
809,1960
719,2211
765,2168
972,1704
868,2081
869,2122
815,2148
920,2015
973,1734
981,1699
926,1898
927,1890
928,1838
1354,1477
1288,1667
1218,1594
1152,1622
1023,1643
1353,1458
1085,1616
1148,1518
1147,1505
1082,1500
772,2136
771,2093
819,2068
584,2426
628,2749
629,2723
1033,2111
978,2068
1031,2041
1030,1994
1029,1976
1091,1953
1035,2044
1034,2066
979,2095
1526,2870
1449,2908
1378,2936
1448,2859
1524,2837
1038,1689
1447,2900
1768,3390
1710,3348
1767,3378
391,3302
365,3263
339,3248
400,3298
393,3331
392,3343
396,3264
399,3431
443,3356
449,3428
450,3403
419,3436
414,3387
415,3353
387,3390
388,3352
389,3345
282,3385
281,3305
314,3280
313,3236
405,3055
411,3414
442,3373
255,3160
376,3163
373,3178
278,3205
275,3328
248,3375
335,3466
334,3437
306,3400
307,3389
176,3253
225,3194
320,3169
249,3401
287,3132
285,3175
776,3154
731,3162
315,3264
316,3283
204,3231
440,2999
439,2994
166,4785
269,4702
383,4640
1247,65535
1246,65535
1384,65535
1679,65535
1178,6048
1105,5846
1172,5853
1173,5864
1242,5901
1241,5930
1314,6149
1313,6055
1171,5913
1382,6255
1243,5946
1317,6336
1107,5891
1108,5899
1109,5956
1041,5860
1043,6156
1042,6147
1044,6210
1176,5949
1174,9103
1177,6001
1110,6009
985,5992
986,6035
932,6053
774,3230
730,3174
825,3192
728,3240
729,3200
727,3331
682,3229
684,3198
685,3178
732,3158
683,3382
2134,3640
2194,3661
2068,3625
2129,3679
1905,3386
1907,3427
1906,3366
1953,3453
2002,3484
2064,3521
2125,3528
2137,4481
2196,4269
2195,4223
1859,3300
1810,3330
1755,3370
2131,3572
2192,3610
1862,3394
1861,3313
1812,3291
1860,3383
1809,3318
1756,3278
1869,3401
1822,3420
1821,3399
1916,3449
1819,3347
1764,3327
1820,3351
1698,3227
1757,3264
1566,3151
1567,3113
1488,3070
1489,3065
1412,3041
1413,3048
1414,3033
1818,3366
1568,3083
1410,3022
2128,3709
2189,3736
2066,3662
2065,3686
2067,3676
1643,3332
1571,3265
1491,3180
2004,3651
2003,3532
1697,3248
2135,4193
2075,3598
1642,3301
1955,3470
2130,3708
2005,3535
1858,3363
1816,8488
1864,8481
1766,3372
1910,3534
1868,3392
2188,4555
2127,4524
1903,3406
2001,3495
2063,3535
2062,3547
1813,3296
1758,3233
1639,3259
1640,3278
1952,3506
2126,8570
1569,3237
1965,3553
1966,3599
2014,3704
1490,3192
1917,3481
1870,3444
1871,3454
1570,3228
1707,3324
2076,3618
2013,3554
1964,3506
1487,3071
1908,3755
2251,5121
2199,5065
2198,4928
2136,4180
1641,3433
1954,4408
1765,3345
1857,3379
2187,3805
1904,3410
1856,3369
1951,3515
1708,4203
245,8799
244,8782
357,8786
246,8914
247,8943
197,9037
223,9015
44,9379
43,9439
3,9575
23,9549
22,9538
63,9321
85,9263
84,9218
108,8718
149,8672
172,9063
296,8766
294,8814
355,8914
354,8946
326,9024
295,8923
291,8935
293,9057
260,8943
356,8974
441,8574
412,8597
329,8932
300,8876
148,8646
214,8884
146,8767
110,8848
262,8909
258,9322
292,9085
257,9387
235,8907
187,8807
212,8863
211,8890
186,8811
162,8785
161,8864
165,8763
189,8963
238,9044
237,9009
263,8945
265,8964
266,8942
267,8930
268,8770
26,9539
25,9507
105,65535
62,65535
83,65535
126,8885
175,9320
152,9254
151,9244
150,9203
103,8823
242,8716
191,8670
192,8721
217,8744
218,8797
145,8707
144,8791
167,8699
190,8677
219,8814
159,8911
185,8855
158,8968
188,8799
160,8876
143,65535
122,65535
75,65535
54,65535
198,9448
270,8811
221,8852
301,8909
302,8746
330,8773
331,8795
115,8847
133,8906
139,8803
134,8880
114,9404
48,65535
69,65535
92,9080
164,8873
4,65535
107,9225
129,9310
109,8750
125,8791
124,8765
127,65535
82,65535
67,65535
91,9248
93,9047
137,9182
113,9202
112,9160
136,65535
49,65535
72,65535
71,65535
406,3121
805,7090
858,6895
859,7036
967,2517
1142,1609
1080,6735
1022,6776
1079,6768
968,6891
1206,1594
915,7042
916,7077
914,7014
807,7129
911,8236
1078,6992
1207,1606
1278,1562
1277,1596
1344,1591
1415,1632
1492,1632
1345,1552
1346,1526
1208,1594
1209,1563
1143,1544
1144,1527
1145,1509
1417,1538
1493,1585
1494,1603
1572,1619
1081,7061
970,7264
408,3146
382,3139
437,3067
467,3043
409,3120
403,3195
432,3225
433,3271
404,3173
352,3172
351,3170
349,3133
317,3329
374,3148
346,3199
283,3359
410,3027
438,3044
465,3072
490,3010
491,2962
435,3061
436,3044
379,3121
323,3201
289,3220
377,3104
378,3129
592,3273
593,3313
552,3221
445,3318
424,3301
423,3318
416,3371
361,3386
362,3371
371,3325
372,3259
343,3413
344,3400
286,3243
227,3186
252,3176
284,3195
318,3203
250,3232
312,3206
340,3199
368,3223
369,3233
370,3398
341,3212
367,3236
308,3359
276,3330
277,3327
280,3258
310,3223
338,3270
366,3317
274,3352
305,3517
420,3480
363,3370
418,3378
550,7081
579,7104
576,7049
577,7061
578,7077
520,7057
618,7071
662,7101
619,7088
620,7101
621,7095
665,7077
666,7069
664,7097
580,7116
2260,65535
2257,65535
2206,65535
2146,65535
2314,65535
2313,65535
2312,65535
2373,65535
2256,65535
2205,65535
2434,65535
2435,65535
2375,65535
2376,65535
2433,65535
2491,65535
2490,65535
2492,65535
2546,65535
2597,65535
2596,65535
2544,65535
2145,65535
2082,65535
2020,65535
2494,65535
0,65535
11,65535
1052,4468
1053,4455
941,4445
1740,3511
1796,3537
1615,3416
1681,3437
1545,3333
1797,3574
1544,3374
1741,3569
1795,4440
1617,3361
1546,3348
1616,3371
1683,3555
1467,3275
1547,3333
1465,3359
1387,3355
1388,3335
1464,3422
1462,3499
1461,3520
1542,3584
1463,3463
1682,3586
1543,3423
1618,3375
1742,3595
1460,4288
1248,3461
1850,3514
1801,3513
1803,3466
882,3139
881,3148
938,3198
883,3159
940,7158
1998,3457
1902,3398
1807,3306
1691,3347
1694,3253
1693,3301
1749,3378
1752,3327
1753,3284
1627,3231
1628,3201
1557,3179
1479,3131
1402,3101
1808,3295
1946,3595
1947,3530
1948,3517
1997,3472
1855,3319
1690,3326
2060,3590
1949,3745
1950,3441
1751,3370
1692,3329
1999,3449
1901,3789
1900,3801
1852,3525
1853,3404
1805,3386
1750,3383
1854,3360
1806,3346
1748,3427
2061,3644
2000,3574
1804,3579
1899,3545
2884,65535
2892,65535
2883,65535
2876,65535
2874,65535
2882,65535
2877,65535
2911,65535
2905,65535
2906,65535
2896,65535
2887,65535
2881,65535
2880,65535
2888,65535
2902,65535
2903,65535
2907,65535
2912,65535
2895,65535
2894,65535
2875,65535
2885,65535
2893,65535
2904,65535
2865,65535
2866,65535
2909,65535
2913,65535
2886,65535
2878,65535
2869,65535
2871,65535
2872,65535
2879,65535
2870,65535
1330,3155
1331,3113
1401,3106
1262,3143
1263,3137
1478,3117
1403,3096
1261,3246
1480,3107
1264,3163
1390,3269
1389,3296
1319,3285
1251,3302
1250,3388
1285,1454
1284,1469
1214,1457
1146,1498
1505,1273
1504,1307
1582,1272
1581,1337
1713,1294
1771,1315
1654,1128
1653,1162
1651,1210
2096,613
2033,580
1972,620
1923,676
1922,697
1874,748
1873,839
1919,791
1829,1554
1579,1386
1424,1378
1711,1336
1348,1484
1419,1547
1359,1428
1429,1381
1428,1370
1421,1453
1577,1404
1499,1433
1230,1465
1365,1365
1511,1274
1300,1447
1366,1419
1512,1299
1716,1022
1503,1323
1276,1628
1347,1526
1349,1512
1645,1364
1578,1389
1770,1327
1715,1249
1150,1604
1217,1616
1149,1580
1580,1360
1352,1444
1502,1362
1825,874
1718,927
1717,967
1872,843
1656,1258
1648,1322
1712,1312
1213,1483
1212,1521
1084,1546
1420,1469
1281,1576
1282,1814
1587,1416
1586,1385
1585,1374
1652,1308
1427,1336
1975,486
1977,432
1932,348
1931,700
1426,1361
1422,1457
1425,1397
1583,1233
1501,1409
1283,1524
1286,1483
1215,1468
1211,1622
1210,1631
1083,1521
1655,1323
2220,1383
1355,5891
1772,1347
1436,1369
1435,1355
1589,1287
1163,1499
1735,288
1791,221
1841,0
1840,271
1219,1600
1220,1639
1647,1361
1646,1353
1279,1578
1714,1278
1575,1515
1576,1477
1498,1485
1573,1590
1496,1545
1497,1516
2177,5845
2176,5915
2294,5884
2293,5960
2237,5949
2236,5930
2364,5693
2302,5633
2301,5555
2245,5457
2056,5457
2057,5432
2055,5526
2184,5618
2120,5624
2244,5538
2538,5988
2537,5950
2591,5975
1940,5683
1989,5661
1990,5646
2539,5966
2482,6066
2483,5831
2424,5727
2121,5685
2119,5498
2050,5711
2049,5729
2048,5787
2185,5651
2243,5377
2299,5591
2241,5540
2485,5909
2542,5964
2353,5923
2292,5830
2419,5743
2478,5804
2479,5821
2536,5907
2484,5870
2486,5863
2354,5818
2416,5939
2242,5585
2355,5812
2300,5598
1991,5622
1992,5583
2477,5796
2534,5806
2535,5906
2588,5843
2587,5858
2630,5878
2051,5619
2116,5513
2175,5920
2586,65535
2541,6083
2178,5820
2179,5623
2240,5570
2239,5860
2238,6090
2052,5691
2053,5716
1987,5752
1988,5725
1939,5732
2594,6072
2593,6044
2358,5700
2357,5707
2420,5750
2247,5746
2427,5836
2428,5858
2181,5417
2180,5466
2417,5798
2590,5956
2297,5579
2361,5771
2362,5654
2423,5742
2422,5707
2174,6331
2356,5837
1941,5739
2365,5870
2112,5891
2047,5859
2182,5556
2359,5633
2533,6571
2295,5896
2115,5586
2632,6016
2631,5955
2186,5116
2298,5665
2360,5689
2235,7021
2291,7034
2487,6085
2246,5678
2425,6486
2117,5810
2543,6038
1893,65535
2421,5842
2476,5852
2592,6122
604,7066
