middle_point_id,reach_time_minutes
2835,65535
2836,65535
2806,65535
2822,65535
2823,65535
2807,65535
2846,65535
887,926
888,907
1326,880
1185,862
999,890
1057,885
1552,789
1120,869
1473,819
944,903
832,930
1257,875
1396,829
1622,895
1327,904
1184,898
1183,903
1324,991
1255,964
1394,1002
1252,1187
1253,1156
1182,1141
1328,65535
1470,1020
1321,1194
1322,1135
1323,1085
1391,1207
1551,798
1393,1060
1472,804
1471,949
1181,1454
1118,1199
1059,800
1121,830
1469,1081
1468,1300
1548,1065
1325,925
1625,611
1623,777
1258,874
1256,923
791,801
891,819
703,869
704,871
660,875
1553,807
1624,733
1554,894
1474,820
1475,901
1550,916
1549,1014
1320,1252
1466,1304
1541,1720
1318,1366
1249,1389
1186,865
1003,777
1002,794
741,874
788,837
434,998
697,871
752,872
1056,889
1006,505
907,899
518,935
1011,510
1000,818
1055,1622
997,1591
994,1485
996,1557
995,1541
991,1332
1112,3965
1114,1572
1051,1535
1398,972
1395,892
1001,809
1811,228
1960,327
1769,865
1823,854
1329,65535
1332,437
1259,1736
1200,475
1199,475
1140,924
1141,952
783,936
1689,868
1802,897
1945,1436
2183,1918
2418,2367
1994,1472
1995,1868
2059,997
1621,65535
1555,567
1754,559
1180,2303
1106,2565
933,2726
827,1088
2122,2333
2124,877
493,942
519,939
544,928
545,932
494,946
470,962
543,924
469,958
517,937
574,925
573,912
495,960
546,941
613,892
612,903
492,950
572,919
571,935
570,917
610,907
575,986
547,978
516,952
611,921
542,936
569,920
609,900
548,1010
549,1039
1404,364
1405,356
1266,398
1193,478
743,845
742,858
747,836
746,821
745,818
744,835
790,812
789,817
839,853
838,850
738,935
739,926
740,891
890,844
834,928
784,914
889,859
856,1019
855,960
854,968
853,1009
852,914
910,952
909,941
908,914
964,902
965,909
1020,911
966,929
963,888
1021,1009
1271,473
1270,471
1339,488
1338,447
1071,527
1072,747
1135,490
1408,452
1337,398
1269,450
1268,403
1136,788
1075,852
1077,916
1076,861
1019,884
1018,875
1074,820
1137,804
1272,723
1274,817
1275,890
1205,932
1204,899
1273,753
1198,506
1197,418
1341,780
1134,494
1133,459
1069,459
1132,432
1073,830
1203,839
1202,825
1201,766
1139,868
1267,394
1138,832
1340,493
1196,409
1342,796
1409,474
1485,423
1407,323
1561,258
1632,243
1484,314
1483,278
1562,266
1194,412
1130,417
1195,406
1335,389
1129,420
1066,422
1128,462
1067,472
1131,439
1334,432
1336,379
1265,814
1333,422
1406,326
857,1788
803,3082
804,6559
860,6567
969,6520
913,6507
912,6445
861,6577
806,6620
659,874
751,860
658,885
705,874
702,861
706,882
753,866
614,882
701,854
661,880
616,908
848,827
796,845
797,837
798,843
750,863
707,891
615,941
748,871
845,788
846,805
657,912
749,879
795,834
617,951
663,926
794,857
847,829
849,870
902,817
901,790
900,757
793,828
899,768
898,776
897,808
844,831
842,816
841,794
956,794
792,811
843,833
840,833
850,909
903,813
800,921
755,955
756,1007
710,1093
711,1138
962,870
961,856
904,820
906,892
851,927
802,932
801,929
799,903
959,807
1014,520
1013,504
708,1723
709,1698
754,907
757,1031
1017,881
1016,892
960,780
905,877
958,795
957,521
1070,497
1015,761
1012,479
1068,471
1005,526
1004,769
1060,808
1063,495
1065,450
1127,467
1062,545
1124,794
1123,843
1125,783
1188,821
1122,862
1058,817
947,802
946,844
949,830
945,870
948,814
1190,873
1187,848
951,511
895,788
952,752
1009,767
1008,769
1010,481
1007,548
1061,730
954,560
896,780
953,777
1126,789
1064,492
1189,870
955,522
950,525
892,860
786,864
836,866
837,853
787,844
700,869
655,878
654,890
653,885
698,868
699,842
608,910
696,877
656,875
833,928
785,894
835,887
693,912
894,823
893,842
1343,813
1192,761
1191,550
828,1078
829,1064
780,1010
830,1059
779,1061
782,937
529,1076
886,937
596,1149
556,1132
598,1080
597,1133
526,1154
555,1169
525,1199
524,1213
523,1192
688,992
607,914
650,913
651,909
652,891
737,940
694,898
695,878
645,1007
646,979
690,961
600,1033
599,1019
781,951
736,950
558,1108
644,1009
643,1020
648,958
692,929
691,945
513,1007
541,955
540,995
568,930
530,1075
831,950
559,1092
560,1079
642,1183
557,1099
496,1225
471,1262
444,1328
446,1293
528,1083
527,1134
562,982
602,967
734,987
466,1037
464,1003
463,1018
478,1218
481,1135
480,1166
479,1193
647,952
488,1043
502,1094
689,988
533,1018
532,1030
531,1056
601,1039
484,1072
508,1025
510,1062
509,1035
534,1017
482,1165
506,1164
606,930
455,1253
429,1122
456,1223
457,1204
428,1150
458,1143
554,1191
594,1232
640,1227
639,1269
551,1211
681,1367
636,1355
635,1329
590,1271
778,1085
777,1092
485,1084
486,1058
462,1031
563,996
885,1004
943,2291
564,1047
641,1183
504,1144
503,1107
501,1103
500,1161
561,1050
254,1105
350,1049
321,1081
319,1089
251,1134
375,1060
347,1077
687,1039
565,1077
539,1030
511,1070
536,1097
649,991
603,1007
605,1406
733,1007
735,977
489,999
514,1008
461,1089
460,1101
459,1121
468,963
154,1291
178,1267
203,1245
228,1225
402,1088
401,1137
505,1164
522,1210
451,1398
452,1348
477,1227
476,1252
483,1091
884,1114
431,1084
430,1220
454,1240
595,1187
395,1275
394,1352
422,1370
417,1318
390,1278
538,1049
567,973
426,1382
397,1258
398,1209
499,1227
475,1362
497,1230
498,1247
311,1156
342,1163
345,1120
421,1378
515,990
472,1587
448,1548
473,1498
474,1377
353,1097
381,1075
256,1196
290,1171
324,1126
380,1139
407,1065
253,1143
226,1168
201,1181
177,1244
824,1256
775,1198
826,1099
939,1147
936,1318
937,1213
880,1121
566,1095
2821,65535
2834,65535
2833,65535
2789,65535
2790,65535
2770,65535
2788,65535
2776,65535
2795,65535
2775,65535
2794,65535
2825,65535
2824,65535
2826,65535
2811,65535
2812,65535
2796,65535
2827,65535
2858,65535
2855,65535
2849,65535
2838,65535
2814,65535
2813,65535
2828,65535
2839,65535
2791,65535
2792,65535
2803,65535
2830,65535
2815,65535
2819,65535
2818,65535
2817,65535
2831,65535
2810,65535
2829,65535
2783,65535
2820,65535
2804,65535
2785,65535
2784,65535
2762,65535
2768,65535
2751,65535
2750,65535
2733,65535
2769,65535
2720,65535
2761,65535
2741,65535
2837,65535
2793,65535
2808,65535
2753,65535
2736,65535
2735,65535
2809,65535
2772,65535
2845,65535
2844,65535
2848,65535
2777,65535
2778,65535
2779,65535
2759,65535
2780,65535
2797,65535
2843,65535
2832,65535
2842,65535
2758,65535
2738,65535
2774,65535
2773,65535
2771,65535
2851,65535
2847,65535
2854,65535
2721,65535
2756,65535
2737,65535
2840,65535
2752,65535
2754,65535
2755,65535
2852,65535
2853,65535
2856,65535
2841,65535
2742,65535
2727,65535
2744,65535
2726,65535
2743,65535
2725,65535
2746,65535
2787,65535
2766,65535
2763,65535
2765,65535
2745,65535
2764,65535
2552,65535
2501,65535
2443,65535
2442,65535
2320,65535
2381,65535
2382,65535
2498,65535
2499,65535
2438,65535
2439,65535
2497,65535
2441,65535
2379,65535
2380,65535
2319,65535
2551,65535
2550,65535
2563,7077
2321,6613
2322,6582
2383,6594
2384,6800
2446,6842
2445,6849
2503,6868
2385,6833
2504,7198
2505,7220
2557,7244
2558,7269
2559,7293
2560,7257
2564,7425
2562,7145
2561,7185
2605,7200
2609,7472
2565,7548
2566,7564
2515,7575
2397,5959
2457,7605
2458,7627
2401,6036
2337,5872
2336,5876
2399,5918
2398,5939
2402,6096
2333,6096
2273,6131
2219,6155
2218,6167
2159,6192
2454,6784
2393,6750
2512,7044
2502,7036
2608,7463
2156,6314
2155,6346
2154,6375
2213,6391
2212,6403
2211,6451
2210,6492
2264,6499
2324,6533
2323,6549
2030,65535
2094,65535
2157,6278
2450,7441
2388,7490
2387,7558
2326,7595
2266,7630
2265,6974
2508,7412
2396,6028
2335,6046
2334,6057
2158,6217
2279,8186
2278,8150
2222,8119
2221,8101
2276,8083
2275,3999
2261,6806
2207,6843
2149,65535
2554,6926
2599,6958
2633,7004
2664,8691
2689,8749
2690,8855
2691,8893
2692,8926
2152,6487
2089,6566
2088,6554
2025,6699
2603,65535
2602,65535
2556,65535
2693,65535
2671,65535
2670,65535
2694,65535
2553,65535
2665,65535
2705,65535
2710,65535
2668,65535
2639,65535
2463,6106
2521,6142
2572,6165
2451,7326
2390,7295
2391,7115
2392,7078
2215,7320
2268,65535
2093,65535
2092,65535
2028,65535
2024,8377
2150,7803
2086,7851
2209,7785
2023,7953
2087,7906
2148,8119
2262,6792
2327,65535
1560,275
1630,318
1631,289
1559,358
1629,411
1558,408
1634,296
1633,261
1482,372
1481,347
1699,228
1700,276
1701,282
1563,320
2070,418
2008,357
2009,334
1959,325
1958,287
2006,288
1957,279
1956,276
2193,947
2132,887
1912,364
1911,375
1865,848
1866,885
2007,326
2069,332
2010,343
2011,429
1961,387
2072,359
1913,847
1867,918
1962,420
1914,429
1915,453
1909,783
1636,361
1635,358
1564,325
1702,320
1637,402
1638,459
1565,371
1486,404
1760,474
1704,412
1703,383
1763,439
1762,429
1817,806
1705,736
1863,131
1815,813
1759,265
863,2768
758,2861
808,2812
982,2983
1036,2990
1099,3025
1100,3053
1166,3454
1167,3949
1237,3606
1238,3641
1375,3711
1308,3780
1309,3689
1236,3907
1235,3541
1101,3084
1037,3021
971,2564
1025,2547
1026,2562
1027,2575
1089,2588
720,2824
674,2870
864,2650
865,2671
919,2566
1024,2511
975,2685
974,2655
1028,2610
873,3010
925,2956
924,2933
917,2630
918,2606
623,3045
712,2917
713,2950
667,2955
622,3013
809,2798
719,2798
765,2759
972,2596
868,2708
869,2720
815,2739
920,2854
973,2641
981,2934
926,3035
927,3043
928,3067
1354,2517
1288,2501
1218,2477
1152,2546
1023,2475
1353,2501
1085,2455
1148,2385
1147,2378
1082,2329
772,3096
771,3053
819,3028
584,2944
628,2911
629,2900
1033,2831
978,2786
1031,2759
1030,2713
1029,2696
1091,2673
1035,2912
1034,2855
979,2813
1526,3830
1449,3868
1378,3896
1448,3819
1524,3797
1038,3068
1447,3860
1768,858
1710,881
1767,856
391,1262
365,1224
339,1225
400,1164
393,1344
392,1310
396,1299
399,1180
443,1411
449,1449
450,1483
419,1272
414,1467
415,1409
387,1402
388,1312
389,1306
282,1200
281,1225
314,1201
313,1182
405,1015
411,1494
442,1453
255,1150
376,1243
373,1180
278,1165
275,1365
248,1455
335,1490
334,1455
306,1401
307,1390
176,1228
225,1184
320,1129
249,1228
287,1212
285,1136
776,1144
731,1155
315,1181
316,1163
204,1284
440,978
439,992
166,2865
269,2782
383,2720
1247,3910
1246,3932
1384,4016
1679,4178
1178,3903
1105,2569
1172,2588
1173,2638
1242,2640
1241,2632
1314,2789
1313,2695
1171,2614
1382,2895
1243,2837
1317,2976
1107,2577
1108,2756
1109,3041
1041,2586
1043,2796
1042,2787
1044,2850
1176,3804
1174,2863
1177,3852
1110,3859
985,2632
986,2675
932,2693
774,1204
730,1173
825,1212
728,1239
729,1181
727,1381
682,1236
684,1218
685,1168
732,1178
683,1462
2134,963
2194,982
2068,731
2129,785
1905,287
1907,209
1906,293
1953,785
2002,808
2064,817
2125,830
2137,1121
2196,1075
2195,1022
1859,234
1810,240
1755,321
2131,826
2192,864
1862,0
1861,90
1812,141
1860,167
1809,293
1756,190
1869,808
1822,847
1821,871
1916,770
1819,846
1764,755
1820,872
1698,194
1757,167
1566,433
1567,473
1488,756
1489,816
1412,824
1413,831
1414,859
1818,910
1568,836
1410,780
2128,816
2189,843
2066,887
2065,840
2067,782
1643,924
1571,1043
1491,964
2004,896
2003,848
1697,261
2135,1114
2075,1138
1642,953
1955,251
2130,1000
2005,290
1858,254
1816,8008
1864,8001
1766,841
1910,806
1868,804
2188,1195
2127,1164
1903,798
2001,838
2063,1351
2062,1113
1813,225
1758,177
1639,820
1640,862
1952,850
2126,8090
1569,886
1965,1026
1966,1072
2014,1089
1490,937
1917,790
1870,837
1871,882
1570,999
1707,846
2076,1156
2013,1094
1964,872
1487,803
1908,769
2251,3201
2199,3145
2198,3008
2136,1163
1641,993
1954,826
1765,804
1857,266
2187,1516
1904,802
1856,777
1951,863
1708,1054
245,8319
244,8302
357,8306
246,8434
247,8463
197,8557
223,8535
44,8899
43,8959
3,9095
23,9069
22,9058
63,8841
85,8783
84,8738
108,8238
149,8192
172,8583
296,8286
294,8334
355,8434
354,8466
326,8544
295,8443
291,8455
293,8577
260,8463
356,8494
441,8094
412,8117
329,8452
300,8396
148,8166
214,8404
146,8287
110,8368
262,8429
258,8842
292,8605
257,8907
235,8427
187,8327
212,8383
211,8410
186,8331
162,8305
161,8384
165,8283
189,8483
238,8564
237,8529
263,8465
265,8484
266,8462
267,8450
268,8290
26,9059
25,9027
105,65535
62,65535
83,65535
126,8405
175,8840
152,8774
151,8764
150,8723
103,8343
242,8236
191,8190
192,8241
217,8264
218,8317
145,8227
144,8311
167,8219
190,8197
219,8334
159,8431
185,8375
158,8488
188,8319
160,8396
143,65535
122,65535
75,65535
54,65535
198,8968
270,8331
221,8372
301,8429
302,8266
330,8293
331,8315
115,8367
133,8426
139,8323
134,8400
114,8924
48,65535
69,65535
92,8600
164,8393
4,65535
107,8745
129,8830
109,8270
125,8311
124,8285
127,65535
82,65535
67,65535
91,8768
93,8567
137,8702
113,8722
112,8680
136,65535
49,65535
72,65535
71,65535
406,1081
805,6610
858,6415
859,6556
967,2034
1142,2169
1080,6255
1022,6296
1079,6288
968,6411
1206,2126
915,6562
916,6597
914,6534
807,6649
911,7756
1078,6512
1207,2184
1278,2228
1277,2231
1344,2251
1415,2292
1492,2347
1345,2308
1346,2278
1208,2176
1209,2256
1143,2293
1144,2309
1145,2324
1417,2304
1493,2364
1494,2383
1572,2398
1081,6581
970,6784
408,1106
382,1098
437,1030
467,1010
409,1084
403,1110
432,1509
433,1136
404,1110
352,1185
351,1250
349,1117
317,1122
374,1069
346,1247
283,1172
410,1107
438,1124
465,1018
490,983
491,982
435,1043
436,1031
379,1142
323,1281
289,1230
377,1069
378,1091
592,1353
593,1379
552,1210
445,1338
424,1366
423,1313
416,1451
361,1406
362,1347
371,1252
372,1209
343,1265
344,1269
286,1323
227,1247
252,1167
284,1149
318,1131
250,1196
312,1187
340,1202
368,1241
369,1313
370,1478
341,1264
367,1255
308,1296
276,1276
277,1230
280,1218
310,1189
338,1277
366,1277
274,1432
305,1413
420,1329
363,1334
418,1336
550,6601
579,6624
576,6569
577,6581
578,6597
520,6577
618,6591
662,6621
619,6608
620,6621
621,6615
665,6597
666,6589
664,6617
580,6636
2260,65535
2257,65535
2206,65535
2146,65535
2314,65535
2313,65535
2312,65535
2373,65535
2256,65535
2205,65535
2434,65535
2435,65535
2375,65535
2376,65535
2433,65535
2491,65535
2490,65535
2492,65535
2546,65535
2597,65535
2596,65535
2544,65535
2145,65535
2082,65535
2020,65535
2494,65535
0,65535
11,65535
1052,1588
1053,1575
941,1615
1740,1452
1796,1493
1615,1355
1681,1396
1545,1316
1797,1540
1544,1330
1741,1508
1795,1690
1617,1316
1546,1321
1616,1333
1683,1428
1467,1290
1547,1295
1465,1365
1387,1401
1388,1362
1464,1426
1462,1579
1461,1600
1542,1664
1463,1543
1682,1407
1543,1385
1618,1308
1742,1600
1460,1766
1248,1410
1850,902
1801,906
1803,892
882,1099
881,1106
938,1158
883,1119
940,2358
1998,890
1902,861
1807,737
1691,794
1694,973
1693,832
1749,835
1752,786
1753,489
1627,763
1628,921
1557,814
1479,443
1402,418
1808,403
1946,1075
1947,1010
1948,997
1997,904
1855,753
1690,781
2060,1077
1949,959
1950,881
1751,791
1692,734
1999,886
1901,1310
1900,1337
1852,1605
1853,1484
1805,934
1750,839
1854,1250
1806,992
1748,847
2061,1072
2000,913
1804,927
1899,1625
2884,65535
2892,65535
2883,65535
2876,65535
2874,65535
2882,65535
2877,65535
2911,65535
2905,65535
2906,65535
2896,65535
2887,65535
2881,65535
2880,65535
2888,65535
2902,65535
2903,65535
2907,65535
2912,65535
2895,65535
2894,65535
2875,65535
2885,65535
2893,65535
2904,65535
2865,65535
2866,65535
2909,65535
2913,65535
2886,65535
2878,65535
2869,65535
2871,65535
2872,65535
2879,65535
2870,65535
1330,526
1331,446
1401,437
1262,445
1263,441
1478,425
1403,409
1261,496
1480,743
1264,448
1390,1273
1389,1318
1319,1295
1251,1382
1250,1468
1285,2420
1284,2406
1214,2378
1146,2342
1505,2627
1504,2561
1582,2599
1581,2527
1713,2506
1771,2488
1654,2638
1653,2611
1651,2563
2096,3742
2033,3702
1972,3673
1923,3605
1922,3583
1874,3277
1873,2990
1919,2943
1829,5654
1579,2463
1424,2467
1711,2480
1348,2304
1419,2324
1359,2731
1429,2682
1428,2668
1421,2381
1577,2415
1499,2388
1230,2975
1365,2912
1511,2834
1300,2957
1366,2929
1512,2862
1716,2696
1503,2749
1276,2258
1347,2288
1349,2336
1645,2472
1578,2450
1770,2484
1715,2539
1150,2443
1217,2457
1149,2419
1580,2509
1352,2496
1502,2527
1825,2896
1718,2851
1717,2825
1872,2929
1656,2740
1648,2515
1712,2492
1213,2368
1212,2349
1084,2390
1420,2370
1281,2294
1282,2355
1587,2734
1586,2701
1585,2690
1652,2658
1427,2836
1975,3777
1977,3845
1932,3915
1931,4540
1426,2556
1422,2398
1425,2541
1583,2627
1501,2485
1283,2396
1286,2443
1215,2428
1211,2325
1210,2299
1083,2361
1655,2729
2220,3977
1355,5411
1772,2497
1436,2880
1435,2870
1589,2803
1163,3008
1735,4128
1791,4061
1841,4038
1840,3994
1219,2560
1220,2599
1647,2501
1646,2493
1279,2246
1714,2516
1575,2475
1576,2437
1498,2445
1573,2487
1496,2505
1497,2476
2177,2485
2176,2555
2294,2472
2293,2591
2237,2532
2236,2561
2364,2333
2302,2273
2301,2195
2245,2097
2056,2227
2057,2313
2055,2206
2184,2258
2120,2264
2244,2178
2538,2518
2537,2499
2591,2615
1940,2390
1989,2398
1990,2334
2539,2518
2482,2509
2483,2471
2424,2367
2121,2325
2119,2138
2050,2447
2049,2525
2048,2943
2185,2291
2243,2017
2299,2231
2241,2180
2485,2549
2542,2604
2353,2563
2292,2470
2419,2357
2478,2404
2479,2439
2536,2466
2484,2510
2486,2503
2354,2402
2416,2579
2242,2225
2355,2440
2300,2238
1991,2338
1992,2345
2477,2395
2534,2416
2535,2531
2588,2436
2587,2450
2630,2501
2051,2259
2116,2153
2175,2588
2586,65535
2541,2671
2178,2460
2179,2263
2240,2210
2239,2434
2238,2504
2052,2390
2053,2356
1987,2630
1988,2478
1939,2502
2594,2621
2593,2606
2358,2324
2357,2334
2420,2390
2247,2386
2427,2476
2428,2498
2181,2057
2180,2106
2417,2384
2590,2596
2297,2219
2361,2411
2362,2294
2423,2382
2422,2347
2174,2818
2356,2445
1941,2379
2365,2510
2112,2823
2047,2965
2182,2196
2359,2273
2533,3211
2295,2536
2115,2226
2632,2656
2631,2595
2186,2443
2298,2305
2360,2329
2235,2781
2291,2794
2487,2725
2246,2318
2425,3126
2117,2450
2543,2678
1893,65535
2421,2482
2476,2400
2592,2654
604,6586
