middle_point_id,reach_time_minutes
2835,65535
2836,65535
2806,65535
2822,65535
2823,65535
2807,65535
2846,65535
887,9017
888,8998
1326,9314
1185,9025
999,9050
1057,9139
1552,9094
1120,8994
1473,9163
944,9061
832,9008
1257,9323
1396,9379
1622,9115
1327,9544
1184,9040
1183,9046
1324,9129
1255,9108
1394,9147
1252,9383
1253,9400
1182,9405
1328,65535
1470,9180
1321,9354
1322,9295
1323,9245
1391,9366
1551,9112
1393,9220
1472,9118
1471,9157
1181,65535
1118,9418
1059,8939
1121,8960
1469,9448
1468,9343
1548,9239
1325,9337
1625,9052
1623,9081
1258,9039
1256,9494
791,8976
891,8968
703,8997
704,8991
660,8993
1553,9099
1624,9068
1554,9110
1474,9120
1475,9213
1550,9122
1549,9174
1320,9410
1466,9407
1541,65535
1318,9425
1249,9446
1186,9015
1003,8934
1002,8944
741,8986
788,8979
434,9151
697,8991
752,8990
1056,9072
1006,8898
907,9003
518,9053
1011,8878
1000,8973
1055,65535
997,65535
994,65535
996,65535
995,65535
991,65535
1112,65535
1114,65535
1051,65535
1398,9252
1395,9390
1001,8949
1811,8738
1960,8565
1769,8736
1823,8724
1329,65535
1332,8847
1259,65535
1200,8818
1199,8815
1140,8964
1141,8962
783,9022
1689,9149
1802,9260
1945,9481
2183,65535
2418,65535
1994,9515
1995,9548
2059,9097
1621,65535
1555,9007
1754,8790
1180,65535
1106,65535
933,65535
827,9128
2122,65535
2124,8887
493,9061
519,9059
544,9049
545,9052
494,9065
470,9110
543,9059
469,9086
517,9058
574,9044
573,9033
495,9087
546,9060
613,9009
612,9012
492,9063
572,9032
571,9049
570,9044
610,9030
575,9018
547,9036
516,9095
611,9021
542,9078
569,9059
609,9045
548,9044
549,9046
1404,8761
1405,8754
1266,8791
1193,8867
743,8981
742,8975
747,8988
746,8981
745,8985
744,9005
790,8979
789,8982
839,8953
838,8963
738,9030
739,9009
740,9002
890,8976
834,9011
784,9013
889,8993
856,9072
855,9060
854,9068
853,9081
852,9015
910,9052
909,9041
908,9018
964,9012
965,9038
1020,9071
966,9058
963,8974
1021,9159
1271,8812
1270,8811
1339,8798
1338,8816
1071,8854
1072,8847
1135,8827
1408,8822
1337,8798
1269,8820
1268,8810
1136,8862
1075,8949
1077,8958
1076,8980
1019,8982
1018,8973
1074,8912
1137,8904
1272,8820
1274,8896
1275,8930
1205,8972
1204,8939
1273,8867
1198,8896
1197,8866
1341,8838
1134,8832
1133,8869
1069,8847
1132,8844
1073,8870
1203,8923
1202,8865
1201,8838
1139,8908
1267,8794
1138,8936
1340,8801
1196,8809
1342,8864
1409,8743
1485,8762
1407,8787
1561,8692
1632,8699
1484,8735
1483,8690
1562,8685
1194,8823
1130,8845
1195,8806
1335,8786
1129,8861
1066,8893
1128,8951
1067,8866
1131,8837
1334,8834
1336,8779
1265,8795
1333,8817
1406,8722
857,9082
803,9122
804,9135
860,9125
969,9117
913,9104
912,9097
861,9180
806,9191
659,8994
751,8988
658,9007
705,8997
702,9004
706,9003
753,8991
614,9004
701,8995
661,9013
616,9008
848,8927
796,8977
797,8960
798,8953
750,8994
707,9019
615,9013
748,9031
845,8948
846,8953
657,9046
749,9006
795,8996
617,9019
663,9026
794,9016
847,8942
849,8972
902,8942
901,8950
900,8896
793,8993
899,8928
898,8949
897,8970
844,8960
842,8975
841,8965
956,8881
792,8972
843,8992
840,8964
850,9009
903,8924
800,9026
755,9053
756,9103
710,9105
711,9178
962,8963
961,8956
904,8940
906,8991
851,9026
802,9060
801,9029
799,9003
959,8909
1014,8864
1013,8893
708,9545
709,9110
754,9007
757,9131
1017,8981
1016,8902
960,8904
905,8976
958,8885
957,8867
1070,8867
1015,8885
1012,8864
1068,8862
1005,8907
1004,8923
1060,8938
1063,8903
1065,8905
1127,8929
1062,8905
1124,8964
1123,8952
1125,8921
1188,8991
1122,8981
1058,8948
947,8962
946,9009
949,8936
945,9036
948,8944
1190,8978
1187,9013
951,8919
895,8920
952,8898
1009,8882
1008,8887
1010,8878
1007,8896
1061,8938
954,8893
896,8959
953,8915
1126,8944
1064,8898
1189,9033
955,8886
950,8931
892,8956
786,8969
836,8965
837,8961
787,8967
700,8991
655,9021
654,9028
653,9026
698,9006
699,8995
608,9049
696,9042
656,9018
833,9002
785,8982
835,8985
693,9012
894,8925
893,8952
1343,8903
1192,8938
1191,8975
828,9118
829,9104
780,9050
830,9099
779,9101
782,9017
529,9202
886,9033
596,9171
556,9186
598,9120
597,9153
526,9216
555,9209
525,9239
524,9254
523,9269
688,9079
607,9082
650,9071
651,9050
652,9091
737,9031
694,8998
695,8996
645,9076
646,9053
690,9044
600,9105
599,9107
781,9021
736,9035
558,9177
644,9097
643,9103
648,9056
692,9029
691,9038
513,9108
541,9117
540,9172
568,9079
530,9198
831,9024
559,9190
560,9167
642,9187
557,9210
496,9293
471,9317
444,9385
446,9349
528,9206
527,9224
562,9119
602,9088
734,9066
466,9130
464,9148
463,9148
478,9322
481,9232
480,9270
479,9299
647,9068
488,9139
502,9212
689,9071
533,9150
532,9177
531,9202
601,9125
484,9239
508,9189
510,9228
509,9200
534,9181
482,9249
506,9200
606,9153
455,9373
429,9275
456,9399
457,9298
428,9267
458,9281
554,9250
594,9264
640,9207
639,9229
551,9294
681,9245
636,9266
635,9284
590,9304
778,9117
777,9122
485,9264
486,9218
462,9232
563,9168
885,9044
943,65535
564,9195
641,9201
504,9244
503,9221
501,9222
500,9288
561,9157
254,9258
350,9208
321,9236
319,9251
251,9294
375,9215
347,9238
687,9109
565,9183
539,9131
511,9230
536,9255
649,9091
603,9154
605,65535
733,9080
735,9049
489,9159
514,9153
461,9231
460,9261
459,9280
468,9072
154,9395
178,9359
203,9330
228,9309
402,9246
401,9258
505,9205
522,9279
451,9481
452,9459
477,9348
476,9388
483,9416
884,9085
431,9244
430,9253
454,65535
595,9217
395,9360
394,9362
422,9389
417,9457
390,9451
538,9153
567,9132
426,9439
397,9353
398,9319
499,9336
475,9381
497,9293
498,9362
311,9314
342,9323
345,9262
421,9396
515,9147
472,65535
448,65535
473,65535
474,9417
353,9250
381,9236
256,9296
290,9280
324,9271
380,9230
407,9206
253,9284
226,9327
201,9340
177,9375
824,9296
775,9177
826,9139
939,9187
936,65535
937,9253
880,9205
566,9171
2821,65535
2834,65535
2833,65535
2789,65535
2790,65535
2770,65535
2788,65535
2776,65535
2795,65535
2775,65535
2794,65535
2825,65535
2824,65535
2826,65535
2811,65535
2812,65535
2796,65535
2827,65535
2858,65535
2855,65535
2849,65535
2838,65535
2814,65535
2813,65535
2828,65535
2839,65535
2791,65535
2792,65535
2803,65535
2830,65535
2815,65535
2819,65535
2818,65535
2817,65535
2831,65535
2810,65535
2829,65535
2783,65535
2820,65535
2804,65535
2785,65535
2784,65535
2762,65535
2768,65535
2751,65535
2750,65535
2733,65535
2769,65535
2720,65535
2761,65535
2741,65535
2837,65535
2793,65535
2808,65535
2753,65535
2736,65535
2735,65535
2809,65535
2772,65535
2845,65535
2844,65535
2848,65535
2777,65535
2778,65535
2779,65535
2759,65535
2780,65535
2797,65535
2843,65535
2832,65535
2842,65535
2758,65535
2738,65535
2774,65535
2773,65535
2771,65535
2851,65535
2847,65535
2854,65535
2721,65535
2756,65535
2737,65535
2840,65535
2752,65535
2754,65535
2755,65535
2852,65535
2853,65535
2856,65535
2841,65535
2742,65535
2727,65535
2744,65535
2726,65535
2743,65535
2725,65535
2746,65535
2787,65535
2766,65535
2763,65535
2765,65535
2745,65535
2764,65535
2552,65535
2501,65535
2443,65535
2442,65535
2320,65535
2381,65535
2382,65535
2498,65535
2499,65535
2438,65535
2439,65535
2497,65535
2441,65535
2379,65535
2380,65535
2319,65535
2551,65535
2550,65535
2563,65535
2321,65535
2322,65535
2383,65535
2384,65535
2446,65535
2445,65535
2503,65535
2385,65535
2504,65535
2505,65535
2557,65535
2558,65535
2559,65535
2560,65535
2564,65535
2562,65535
2561,65535
2605,65535
2609,65535
2565,65535
2566,65535
2515,65535
2397,65535
2457,65535
2458,65535
2401,65535
2337,65535
2336,65535
2399,65535
2398,65535
2402,65535
2333,65535
2273,65535
2219,65535
2218,65535
2159,65535
2454,65535
2393,65535
2512,65535
2502,65535
2608,65535
2156,65535
2155,65535
2154,65535
2213,65535
2212,65535
2211,65535
2210,65535
2264,65535
2324,65535
2323,65535
2030,65535
2094,65535
2157,65535
2450,65535
2388,65535
2387,65535
2326,65535
2266,65535
2265,65535
2508,65535
2396,65535
2335,65535
2334,65535
2158,65535
2279,65535
2278,65535
2222,65535
2221,65535
2276,65535
2275,65535
2261,65535
2207,65535
2149,65535
2554,65535
2599,65535
2633,65535
2664,65535
2689,65535
2690,65535
2691,65535
2692,65535
2152,65535
2089,65535
2088,65535
2025,65535
2603,65535
2602,65535
2556,65535
2693,65535
2671,65535
2670,65535
2694,65535
2553,65535
2665,65535
2705,65535
2710,65535
2668,65535
2639,65535
2463,65535
2521,65535
2572,65535
2451,65535
2390,65535
2391,65535
2392,65535
2215,65535
2268,65535
2093,65535
2092,65535
2028,65535
2024,65535
2150,65535
2086,65535
2209,65535
2023,65535
2087,65535
2148,65535
2262,65535
2327,65535
1560,8751
1630,8795
1631,8789
1559,8835
1629,8889
1558,8886
1634,8689
1633,8703
1482,8782
1481,8782
1699,8715
1700,8719
1701,8685
1563,8667
2070,8610
2008,8577
2009,8579
1959,8563
1958,8577
2006,8622
1957,8611
1956,8646
2193,8699
2132,8641
1912,8595
1911,8551
1865,8513
1866,8565
2007,8650
2069,8648
2010,8583
2011,8664
1961,8585
2072,8634
1913,8661
1867,8598
1962,8595
1914,8613
1915,8623
1909,8620
1636,8634
1635,8646
1564,8659
1702,8664
1637,8641
1638,8670
1565,8674
1486,8719
1760,8642
1704,8635
1703,8623
1763,8621
1762,8586
1817,8552
1705,8629
1863,8581
1815,8605
1759,8751
863,65535
758,65535
808,65535
982,65535
1036,65535
1099,65535
1100,65535
1166,65535
1167,65535
1237,65535
1238,65535
1375,65535
1308,65535
1309,65535
1236,65535
1235,65535
1101,65535
1037,65535
971,9464
1025,9449
1026,9462
1027,9475
1089,9488
720,65535
674,65535
864,65535
865,65535
919,9466
1024,9415
975,9580
974,9518
1028,9511
873,65535
925,65535
924,65535
917,9530
918,9506
623,65535
712,65535
713,65535
667,65535
622,65535
809,65535
719,65535
765,65535
972,9475
868,65535
869,65535
815,65535
920,65535
973,9482
981,65535
926,65535
927,65535
928,65535
1354,9477
1288,9459
1218,9431
1152,9511
1023,9369
1353,9461
1085,9327
1148,9285
1147,9278
1082,9250
772,65535
771,65535
819,65535
584,65535
628,65535
629,65535
1033,65535
978,65535
1031,65535
1030,65535
1029,65535
1091,65535
1035,65535
1034,65535
979,65535
1526,65535
1449,65535
1378,65535
1448,65535
1524,65535
1038,65535
1447,65535
1768,8728
1710,8747
1767,8745
391,9422
365,9384
339,9363
400,9282
393,9493
392,65535
396,9392
399,9327
443,9447
449,9483
450,9458
419,9480
414,65535
415,65535
387,65535
388,9566
389,9497
282,9325
281,9327
314,9328
313,9338
405,9175
411,9568
442,9462
255,9280
376,9193
373,9239
278,9327
275,9448
248,9495
335,9559
334,9533
306,9505
307,9482
176,9427
225,9314
320,9244
249,9436
287,9250
285,9297
776,9136
731,9155
315,9296
316,9277
204,9361
440,9153
439,9138
166,65535
269,65535
383,65535
1247,65535
1246,65535
1384,65535
1679,65535
1178,65535
1105,65535
1172,65535
1173,65535
1242,65535
1241,65535
1314,65535
1313,65535
1171,65535
1382,65535
1243,65535
1317,65535
1107,65535
1108,65535
1109,65535
1041,65535
1043,65535
1042,65535
1044,65535
1176,65535
1174,65535
1177,65535
1110,65535
985,65535
986,65535
932,65535
774,9184
730,9161
825,9192
728,9206
729,9176
727,9218
682,9221
684,9198
685,9178
732,9159
683,9202
2134,8693
2194,8733
2068,8663
2129,8690
1905,8714
1907,8672
1906,8689
1953,8777
2002,8793
2064,8821
2125,8847
2137,8903
2196,8879
2195,8855
1859,8710
1810,8763
1755,8761
2131,8620
2192,8658
1862,8624
1861,8654
1812,8679
1860,8691
1809,8808
1756,8746
1869,8657
1822,8695
1821,8675
1916,8648
1819,8593
1764,8614
1820,8650
1698,8722
1757,8732
1566,8721
1567,8716
1488,8806
1489,8849
1412,8887
1413,8949
1414,8931
1818,8562
1568,8867
1410,8873
2128,8724
2189,8737
2066,8766
2065,8782
2067,8792
1643,8795
1571,8842
1491,8858
2004,8737
2003,8888
1697,8744
2135,8794
2075,8818
1642,8813
1955,8655
2130,8910
2005,8673
1858,8714
1816,8488
1864,0
1766,8691
1910,8657
1868,8682
2188,8875
2127,8844
1903,8864
2001,8858
2063,8932
2062,8945
1813,8724
1758,8743
1639,8728
1640,8770
1952,8986
2126,9442
1569,8791
1965,8669
1966,8712
2014,8757
1490,8842
1917,8654
1870,8698
1871,8749
1570,8864
1707,8745
2076,8836
2013,8774
1964,8727
1487,8843
1908,8737
2251,65535
2199,65535
2198,65535
2136,8843
1641,8785
1954,8728
1765,8751
1857,8813
2187,9196
1904,8870
1856,8956
1951,9001
1708,8988
245,65535
244,65535
357,65535
246,65535
247,65535
197,65535
223,65535
44,65535
43,65535
3,65535
23,65535
22,65535
63,65535
85,65535
84,65535
108,65535
149,65535
172,65535
296,65535
294,65535
355,65535
354,65535
326,65535
295,65535
291,65535
293,65535
260,65535
356,65535
441,9509
412,9550
329,65535
300,65535
148,65535
214,65535
146,65535
110,65535
262,65535
258,65535
292,65535
257,65535
235,65535
187,65535
212,65535
211,65535
186,65535
162,65535
161,65535
165,65535
189,65535
238,65535
237,65535
263,65535
265,65535
266,65535
267,65535
268,65535
26,65535
25,65535
105,65535
62,65535
83,65535
126,65535
175,65535
152,65535
151,65535
150,65535
103,65535
242,65535
191,65535
192,65535
217,65535
218,65535
145,65535
144,65535
167,65535
190,65535
219,65535
159,65535
185,65535
158,65535
188,65535
160,65535
143,65535
122,65535
75,65535
54,65535
198,65535
270,65535
221,65535
301,65535
302,65535
330,65535
331,65535
115,65535
133,65535
139,65535
134,65535
114,65535
48,65535
69,65535
92,65535
164,65535
4,65535
107,65535
129,65535
109,65535
125,65535
124,65535
127,65535
82,65535
67,65535
91,65535
93,65535
137,65535
113,65535
112,65535
136,65535
49,65535
72,65535
71,65535
406,9229
805,9160
858,9091
859,9136
967,9097
1142,9121
1080,9117
1022,9111
1079,9117
968,9094
1206,9129
915,9142
916,9153
914,9114
807,9288
911,65535
1078,9149
1207,9141
1278,9158
1277,9153
1344,9174
1415,9192
1492,9247
1345,9166
1346,9190
1208,9136
1209,9156
1143,9193
1144,9209
1145,9239
1417,9199
1493,9265
1494,9283
1572,9299
1081,9131
970,9304
408,9247
382,9259
437,9179
467,9161
409,9244
403,9255
432,9264
433,9223
404,9191
352,9221
351,9215
349,9247
317,9285
374,9230
346,9291
283,9298
410,9217
438,9200
465,9160
490,9143
491,9177
435,9192
436,9187
379,9274
323,9331
289,9304
377,9230
378,9240
592,9358
593,9328
552,9281
445,9376
424,9374
423,65535
416,65535
361,65535
362,9507
371,9329
372,9310
343,9345
344,9338
286,9291
227,9298
252,9294
284,9284
318,9268
250,9376
312,9326
340,9324
368,9342
369,9401
370,65535
341,9335
367,9341
308,9419
276,9408
277,9387
280,9378
310,9341
338,9395
366,65535
274,65535
305,65535
420,65535
363,65535
418,9440
550,9058
579,9069
576,9038
577,9032
578,9036
520,9046
618,9045
662,9036
619,9051
620,9058
621,9068
665,9057
666,9068
664,9042
580,9096
2260,65535
2257,65535
2206,65535
2146,65535
2314,65535
2313,65535
2312,65535
2373,65535
2256,65535
2205,65535
2434,65535
2435,65535
2375,65535
2376,65535
2433,65535
2491,65535
2490,65535
2492,65535
2546,65535
2597,65535
2596,65535
2544,65535
2145,65535
2082,65535
2020,65535
2494,65535
0,65535
11,65535
1052,65535
1053,65535
941,65535
1740,65535
1796,65535
1615,9511
1681,9589
1545,9406
1797,65535
1544,9465
1741,65535
1795,65535
1617,9370
1546,9395
1616,9417
1683,9449
1467,9354
1547,9341
1465,9414
1387,9568
1388,9529
1464,9549
1462,65535
1461,65535
1542,65535
1463,65535
1682,65535
1543,65535
1618,9362
1742,65535
1460,65535
1248,65535
1850,9274
1801,9273
1803,9226
882,9139
881,9148
938,9198
883,9159
940,65535
1998,9039
1902,8993
1807,8946
1691,9107
1694,8924
1693,9061
1749,9138
1752,9087
1753,8958
1627,8952
1628,8961
1557,8939
1479,8856
1402,8850
1808,8927
1946,9235
1947,9170
1948,9053
1997,9049
1855,8985
1690,9086
2060,9055
1949,9087
1950,9014
1751,9130
1692,9089
1999,9029
1901,9095
1900,9136
1852,9285
1853,9164
1805,9026
1750,9143
1854,9000
1806,8986
1748,9187
2061,9019
2000,9094
1804,9339
1899,9305
2884,65535
2892,65535
2883,65535
2876,65535
2874,65535
2882,65535
2877,65535
2911,65535
2905,65535
2906,65535
2896,65535
2887,65535
2881,65535
2880,65535
2888,65535
2902,65535
2903,65535
2907,65535
2912,65535
2895,65535
2894,65535
2875,65535
2885,65535
2893,65535
2904,65535
2865,65535
2866,65535
2909,65535
2913,65535
2886,65535
2878,65535
2869,65535
2871,65535
2872,65535
2879,65535
2870,65535
1330,8915
1331,8857
1401,8866
1262,8903
1263,8897
1478,8877
1403,8810
1261,9006
1480,8867
1264,8923
1390,9402
1389,9441
1319,9419
1251,65535
1250,65535
1285,9319
1284,9304
1214,9278
1146,9257
1505,9597
1504,9464
1582,65535
1581,9430
1713,9412
1771,9394
1654,65535
1653,65535
1651,9495
2096,65535
2033,65535
1972,65535
1923,65535
1922,65535
1874,65535
1873,65535
1919,65535
1829,65535
1579,9363
1424,9378
1711,9396
1348,9242
1419,9330
1359,65535
1429,65535
1428,65535
1421,9283
1577,9319
1499,9295
1230,65535
1365,65535
1511,65535
1300,65535
1366,65535
1512,65535
1716,65535
1503,65535
1276,9158
1347,9235
1349,9270
1645,9373
1578,9350
1770,9399
1715,9469
1150,9361
1217,9413
1149,9335
1580,9409
1352,9336
1502,9438
1825,65535
1718,65535
1717,65535
1872,65535
1656,65535
1648,9415
1712,9399
1213,9269
1212,9272
1084,9290
1420,9268
1281,9225
1282,9260
1587,65535
1586,9575
1585,9565
1652,9548
1427,9508
1975,65535
1977,65535
1932,65535
1931,65535
1426,9514
1422,9300
1425,9502
1583,65535
1501,9382
1283,9323
1286,9397
1215,9329
1211,9298
1210,9267
1083,9261
1655,65535
2220,65535
1355,65535
1772,9454
1436,65535
1435,65535
1589,65535
1163,65535
1735,65535
1791,65535
1841,65535
1840,65535
1219,9557
1220,9597
1647,9438
1646,9447
1279,9203
1714,9446
1575,9437
1576,9402
1498,9418
1573,9327
1496,9362
1497,9409
2177,65535
2176,65535
2294,65535
2293,65535
2237,65535
2236,65535
2364,65535
2302,65535
2301,65535
2245,65535
2056,65535
2057,65535
2055,65535
2184,65535
2120,65535
2244,65535
2538,65535
2537,65535
2591,65535
1940,65535
1989,65535
1990,65535
2539,65535
2482,65535
2483,65535
2424,65535
2121,65535
2119,65535
2050,65535
2049,65535
2048,65535
2185,65535
2243,65535
2299,65535
2241,65535
2485,65535
2542,65535
2353,65535
2292,65535
2419,65535
2478,65535
2479,65535
2536,65535
2484,65535
2486,65535
2354,65535
2416,65535
2242,65535
2355,65535
2300,65535
1991,65535
1992,65535
2477,65535
2534,65535
2535,65535
2588,65535
2587,65535
2630,65535
2051,65535
2116,65535
2175,65535
2586,65535
2541,65535
2178,65535
2179,65535
2240,65535
2239,65535
2238,65535
2052,65535
2053,65535
1987,65535
1988,65535
1939,65535
2594,65535
2593,65535
2358,65535
2357,65535
2420,65535
2247,65535
2427,65535
2428,65535
2181,65535
2180,65535
2417,65535
2590,65535
2297,65535
2361,65535
2362,65535
2423,65535
2422,65535
2174,65535
2356,65535
1941,65535
2365,65535
2112,65535
2047,65535
2182,65535
2359,65535
2533,65535
2295,65535
2115,65535
2632,65535
2631,65535
2186,65535
2298,65535
2360,65535
2235,65535
2291,65535
2487,65535
2246,65535
2425,65535
2117,65535
2543,65535
1893,65535
2421,65535
2476,65535
2592,65535
604,65535
