middle_point_id,reach_time_minutes
2835,65535
2836,65535
2806,65535
2822,65535
2823,65535
2807,65535
2846,65535
887,1104
888,1078
1326,1120
1185,1105
999,1130
1057,1157
1552,1225
1120,1074
1473,1235
944,1231
832,1088
1257,1096
1396,1199
1622,1255
1327,3784
1184,1135
1183,1149
1324,1231
1255,1311
1394,1367
1252,1247
1253,1216
1182,1201
1328,65535
1470,1380
1321,1263
1322,1273
1323,2405
1391,1357
1551,1252
1393,1403
1472,1515
1471,1309
1181,2774
1118,1259
1059,1010
1121,1037
1469,1425
1468,1383
1548,1419
1325,1165
1625,1132
1623,1197
1258,1050
1256,1154
791,996
891,1049
703,1043
704,1021
660,1025
1553,1227
1624,1147
1554,1250
1474,1240
1475,1247
1550,1262
1549,1374
1320,1329
1466,1383
1541,2515
1318,1405
1249,1428
1186,1076
1003,1014
1002,1017
741,1058
788,1021
434,1184
697,1041
752,1035
1056,1152
1006,958
907,967
518,1071
1011,906
1000,1054
1055,1502
997,1382
994,1288
996,1376
995,1363
991,1332
1112,65535
1114,1334
1051,1315
1398,1692
1395,1290
1001,1028
1811,909
1960,244
1769,1076
1823,1050
1329,65535
1332,906
1259,1160
1200,837
1199,837
1140,1044
1141,1042
783,1078
1689,1279
1802,1340
1945,1801
2183,2419
2418,2837
1994,1835
1995,1868
2059,1417
1621,65535
1555,1087
1754,1001
1180,2303
1106,2470
933,2726
827,1208
2122,2659
2124,1136
493,1082
519,1075
544,1069
545,1073
494,1084
470,1127
543,1083
469,1114
517,1088
574,1081
573,1062
495,1120
546,1089
613,1047
612,1064
492,1096
572,1072
571,1099
570,1124
610,1095
575,1136
547,1118
516,1160
611,1134
542,1111
569,1220
609,1138
548,2229
549,2264
1404,519
1405,484
1266,608
1193,887
743,1027
742,1038
747,1008
746,1000
745,1013
744,1026
790,1005
789,1012
839,1028
838,1028
738,1104
739,1068
740,1064
890,1061
834,1079
784,1071
889,1073
856,1049
855,1020
854,1031
853,1016
852,1007
910,1012
909,1003
908,998
964,968
965,998
1020,1031
966,1018
963,942
1021,1133
1271,835
1270,831
1339,847
1338,807
1071,869
1072,867
1135,847
1408,823
1337,799
1269,798
1268,794
1136,878
1075,994
1077,1038
1076,1004
1019,1001
1018,983
1074,940
1137,924
1272,850
1274,937
1275,950
1205,1013
1204,1019
1273,947
1198,853
1197,845
1341,882
1134,852
1133,851
1069,857
1132,845
1073,890
1203,980
1202,945
1201,918
1139,988
1267,768
1138,955
1340,852
1196,825
1342,916
1409,883
1485,784
1407,889
1561,426
1632,468
1484,810
1483,421
1562,413
1194,785
1130,828
1195,771
1335,519
1129,872
1066,878
1128,919
1067,895
1131,837
1334,915
1336,859
1265,935
1333,895
1406,458
857,1788
803,1822
804,2239
860,2247
969,2200
913,2187
912,2125
861,2257
806,2300
659,1030
751,1011
658,1038
705,1025
702,1024
706,1052
753,1024
614,1061
701,1015
661,1041
616,1063
848,961
796,1001
797,1008
798,998
750,1014
707,1041
615,1061
748,1044
845,983
846,966
657,1066
749,1073
795,1015
617,1071
663,1046
794,1044
847,977
849,990
902,962
901,943
900,968
793,1034
899,1008
898,1029
897,1015
844,1040
842,992
841,986
956,919
792,1012
843,1039
840,1025
850,993
903,954
800,1001
755,1013
756,1030
710,1093
711,1138
962,929
961,937
904,946
906,957
851,987
802,1024
801,1005
799,1018
959,932
1014,884
1013,890
708,1794
709,1822
754,1035
757,1091
1017,903
1016,898
960,924
905,996
958,918
957,954
1070,882
1015,905
1012,938
1068,891
1005,967
1004,995
1060,1006
1063,936
1065,885
1127,933
1062,978
1124,983
1123,1003
1125,979
1188,1011
1122,1037
1058,1026
947,1042
946,1089
949,1008
945,1117
948,1036
1190,1011
1187,1032
951,963
895,993
952,964
1009,920
1008,932
1010,904
1007,951
1061,1018
954,929
896,973
953,952
1126,941
1064,920
1189,1008
955,924
950,998
892,1036
786,1048
836,1069
837,1033
787,1040
700,1053
655,1071
654,1066
653,1058
698,1026
699,1023
608,1155
696,1092
656,1068
833,1082
785,1062
835,1065
693,1079
894,1004
893,1030
1343,933
1192,981
1191,995
828,1194
829,1164
780,1130
830,1179
779,1144
782,1082
529,1264
886,1113
596,1275
556,1296
598,1200
597,1223
526,1307
555,1324
525,1354
524,1379
523,1347
688,1113
607,1159
650,1204
651,1155
652,1126
737,1086
694,1095
695,1071
645,1127
646,1123
690,1099
600,1132
599,1139
781,1085
736,1095
558,1245
644,1129
643,1140
648,1103
692,1124
691,1104
513,1231
541,1137
540,1200
568,1283
530,1309
831,1104
559,1188
560,1307
642,1294
557,1290
496,1382
471,1422
444,1481
446,1439
528,1299
527,1315
562,1156
602,1126
734,1108
466,1211
464,1192
463,1207
478,1461
481,1312
480,1341
479,1439
647,1111
488,1289
502,1359
689,1108
533,1230
532,1257
531,1281
601,1152
484,1282
508,1268
510,1308
509,1274
534,1222
482,1412
506,1280
606,1235
455,1432
429,1302
456,1405
457,1386
428,1353
458,1323
554,1400
594,1368
640,1354
639,1365
551,1370
681,1474
636,1468
635,1484
590,1421
778,1205
777,1211
485,1289
486,1312
462,1234
563,1236
885,1124
943,1153
564,1336
641,1265
504,1330
503,1301
501,1462
500,1520
561,1281
254,1329
350,1270
321,1301
319,1334
251,1374
375,1277
347,1341
687,1159
565,1365
539,1296
511,1370
536,1331
649,1153
603,1294
605,1406
733,1127
735,1099
489,1234
514,1220
461,1545
460,1512
459,1445
468,1142
154,1480
178,1435
203,1420
228,1391
402,1319
401,1330
505,1285
522,1395
451,1501
452,1588
477,1507
476,1475
483,1509
884,1165
431,1264
430,1343
454,1509
595,1294
395,1466
394,1439
422,1452
417,1471
390,1477
538,1353
567,1278
426,1478
397,1434
398,1400
499,1615
475,1596
497,1472
498,1489
311,1334
342,1354
345,1312
421,1524
515,1267
472,1641
448,1672
473,1696
474,1739
353,1335
381,1308
256,1436
290,1360
324,1318
380,1318
407,1250
253,1375
226,1407
201,1420
177,1477
824,1316
775,1262
826,1219
939,1267
936,1318
937,1304
880,1272
566,1488
2821,65535
2834,65535
2833,65535
2789,65535
2790,65535
2770,65535
2788,65535
2776,65535
2795,65535
2775,65535
2794,65535
2825,65535
2824,65535
2826,65535
2811,65535
2812,65535
2796,65535
2827,65535
2858,65535
2855,65535
2849,65535
2838,65535
2814,65535
2813,65535
2828,65535
2839,65535
2791,65535
2792,65535
2803,65535
2830,65535
2815,65535
2819,65535
2818,65535
2817,65535
2831,65535
2810,65535
2829,65535
2783,65535
2820,65535
2804,65535
2785,65535
2784,65535
2762,65535
2768,65535
2751,65535
2750,65535
2733,65535
2769,65535
2720,65535
2761,65535
2741,65535
2837,65535
2793,65535
2808,65535
2753,65535
2736,65535
2735,65535
2809,65535
2772,65535
2845,65535
2844,65535
2848,65535
2777,65535
2778,65535
2779,65535
2759,65535
2780,65535
2797,65535
2843,65535
2832,65535
2842,65535
2758,65535
2738,65535
2774,65535
2773,65535
2771,65535
2851,65535
2847,65535
2854,65535
2721,65535
2756,65535
2737,65535
2840,65535
2752,65535
2754,65535
2755,65535
2852,65535
2853,65535
2856,65535
2841,65535
2742,65535
2727,65535
2744,65535
2726,65535
2743,65535
2725,65535
2746,65535
2787,65535
2766,65535
2763,65535
2765,65535
2745,65535
2764,65535
2552,65535
2501,65535
2443,65535
2442,65535
2320,65535
2381,65535
2382,65535
2498,65535
2499,65535
2438,65535
2439,65535
2497,65535
2441,65535
2379,65535
2380,65535
2319,65535
2551,65535
2550,65535
2563,65535
2321,65535
2322,65535
2383,65535
2384,65535
2446,65535
2445,65535
2503,65535
2385,65535
2504,65535
2505,65535
2557,65535
2558,65535
2559,65535
2560,65535
2564,65535
2562,65535
2561,65535
2605,65535
2609,65535
2565,65535
2566,65535
2515,4756
2397,4519
2457,4736
2458,4720
2401,65535
2337,4432
2336,4436
2399,4478
2398,4499
2402,65535
2333,4656
2273,4691
2219,4715
2218,4727
2159,4752
2454,65535
2393,65535
2512,65535
2502,65535
2608,65535
2156,65535
2155,65535
2154,65535
2213,65535
2212,65535
2211,65535
2210,65535
2264,65535
2324,65535
2323,65535
2030,65535
2094,65535
2157,65535
2450,65535
2388,65535
2387,65535
2326,65535
2266,65535
2265,65535
2508,65535
2396,4588
2335,4606
2334,4617
2158,4777
2279,65535
2278,65535
2222,65535
2221,65535
2276,65535
2275,3804
2261,65535
2207,65535
2149,65535
2554,65535
2599,65535
2633,65535
2664,65535
2689,65535
2690,65535
2691,65535
2692,65535
2152,65535
2089,65535
2088,65535
2025,65535
2603,65535
2602,65535
2556,65535
2693,65535
2671,65535
2670,65535
2694,65535
2553,65535
2665,65535
2705,65535
2710,65535
2668,65535
2639,65535
2463,65535
2521,65535
2572,65535
2451,65535
2390,65535
2391,65535
2392,65535
2215,65535
2268,65535
2093,65535
2092,65535
2028,65535
2024,65535
2150,65535
2086,65535
2209,65535
2023,65535
2087,65535
2148,65535
2262,65535
2327,65535
1560,446
1630,914
1631,876
1559,912
1629,971
1558,968
1634,420
1633,479
1482,798
1481,777
1699,793
1700,824
1701,503
1563,397
2070,304
2008,267
2009,253
1959,246
1958,273
2006,314
1957,309
1956,425
2193,947
2132,887
1912,251
1911,256
1865,127
1866,81
2007,297
2069,332
2010,273
2011,299
1961,214
2072,289
1913,146
1867,0
1962,243
1914,307
1915,332
1909,783
1636,342
1635,374
1564,387
1702,408
1637,354
1638,362
1565,371
1486,404
1760,818
1704,308
1703,300
1763,338
1762,260
1817,224
1705,863
1863,830
1815,866
1759,985
863,2768
758,2861
808,2812
982,2983
1036,2990
1099,3025
1100,3053
1166,3454
1167,3949
1237,3606
1238,3641
1375,3711
1308,3780
1309,3689
1236,3907
1235,3541
1101,3084
1037,3021
971,2564
1025,2547
1026,2562
1027,2575
1089,2588
720,2824
674,2870
864,2650
865,2671
919,2566
1024,2511
975,2685
974,2655
1028,2610
873,3010
925,2956
924,2933
917,2630
918,2606
623,3045
712,2917
713,2950
667,2955
622,3013
809,2798
719,2798
765,2759
972,2596
868,2708
869,2720
815,2739
920,2975
973,2641
981,2934
926,3035
927,3043
928,3067
1354,2560
1288,2501
1218,2477
1152,2546
1023,2475
1353,2574
1085,2455
1148,2385
1147,2378
1082,2329
772,3096
771,3053
819,3028
584,2944
628,2911
629,2900
1033,2831
978,2786
1031,2759
1030,2713
1029,2696
1091,2673
1035,2912
1034,2855
979,2813
1526,3830
1449,3868
1378,3896
1448,3819
1524,3797
1038,3068
1447,3860
1768,1055
1710,1094
1767,975
391,1449
365,1411
339,1388
400,1359
393,1532
392,1517
396,1474
399,1376
443,1531
449,1655
450,1778
419,1516
414,1597
415,1492
387,1536
388,1546
389,1499
282,1474
281,1400
314,1406
313,1405
405,1255
411,1652
442,1611
255,1451
376,1273
373,1480
278,1345
275,1408
248,1455
335,1606
334,1583
306,1585
307,1561
176,1522
225,1415
320,1370
249,1515
287,1456
285,1435
776,1234
731,1279
315,1359
316,1400
204,1467
440,1113
439,1145
166,2865
269,2782
383,2720
1247,65535
1246,65535
1384,65535
1679,65535
1178,3903
1105,2512
1172,2528
1173,2504
1242,3092
1241,2570
1314,3127
1313,3154
1171,2553
1382,4335
1243,2586
1317,4416
1107,2755
1108,3054
1109,3108
1041,2563
1043,3818
1042,3739
1044,4290
1176,3804
1174,4303
1177,3852
1110,3859
985,2632
986,2675
932,2693
774,1310
730,1293
825,1340
728,1320
729,1316
727,1501
682,1356
684,1338
685,1274
732,1301
683,2302
2134,963
2194,985
2068,787
2129,842
1905,929
1907,815
1906,853
1953,972
2002,1011
2064,1054
2125,1110
2137,1121
2196,1075
2195,1022
1859,889
1810,903
1755,909
2131,826
2192,864
1862,874
1861,913
1812,928
1860,884
1809,984
1756,880
1869,891
1822,1007
1821,983
1916,863
1819,385
1764,819
1820,945
1698,826
1757,867
1566,363
1567,405
1488,810
1489,1016
1412,927
1413,961
1414,990
1818,348
1568,1074
1410,855
2128,879
2189,906
2066,1013
2065,1389
2067,839
1643,1108
1571,1058
1491,1022
2004,1087
2003,1097
1697,930
2135,1114
2075,1138
1642,1084
1955,777
2130,1000
2005,431
1858,939
1816,3688
1864,3681
1766,968
1910,806
1868,860
2188,1195
2127,1164
1903,1084
2001,1469
2063,2262
2062,1430
1813,996
1758,917
1639,820
1640,862
1952,1044
2126,3770
1569,971
1965,1026
1966,1072
2014,1089
1490,980
1917,974
1870,1018
1871,1069
1570,1005
1707,874
2076,1156
2013,1094
1964,1047
1487,833
1908,769
2251,65535
2199,65535
2198,65535
2136,1163
1641,1105
1954,1048
1765,936
1857,953
2187,1885
1904,1063
1856,1087
1951,1061
1708,1308
245,3999
244,3982
357,3986
246,4114
247,4143
197,4237
223,4215
44,4579
43,4639
3,4775
23,4749
22,4738
63,4521
85,4463
84,4418
108,3918
149,3872
172,4263
296,3966
294,4014
355,4114
354,4146
326,4224
295,4123
291,4135
293,4257
260,4143
356,4174
441,3774
412,3797
329,4132
300,4076
148,3846
214,4084
146,3967
110,4048
262,4109
258,4522
292,4285
257,4587
235,4107
187,4007
212,4063
211,4090
186,4011
162,3985
161,4064
165,3963
189,4163
238,4244
237,4209
263,4145
265,4164
266,4142
267,4130
268,3970
26,4739
25,4707
105,65535
62,65535
83,65535
126,4085
175,4520
152,4454
151,4444
150,4403
103,4023
242,3916
191,3870
192,3921
217,3944
218,3997
145,3907
144,3991
167,3899
190,3877
219,4014
159,4111
185,4055
158,4168
188,3999
160,4076
143,65535
122,65535
75,65535
54,65535
198,4648
270,4011
221,4052
301,4109
302,3946
330,3973
331,3995
115,4047
133,4106
139,4003
134,4080
114,4604
48,65535
69,65535
92,4280
164,4073
4,65535
107,4425
129,4510
109,3950
125,3991
124,3965
127,65535
82,65535
67,65535
91,4448
93,4247
137,4382
113,4402
112,4360
136,65535
49,65535
72,65535
71,65535
406,1281
805,2290
858,2095
859,2236
967,1972
1142,2109
1080,2115
1022,2106
1079,2124
968,2091
1206,2085
915,2242
916,2277
914,2214
807,2329
911,3436
1078,2192
1207,2184
1278,2228
1277,2231
1344,2251
1415,2292
1492,2347
1345,2308
1346,2278
1208,2176
1209,2256
1143,2293
1144,2309
1145,2324
1417,2304
1493,2364
1494,2383
1572,2398
1081,2261
970,2464
408,1289
382,1348
437,1204
467,1191
409,1350
403,1369
432,1584
433,1351
404,1378
352,1531
351,1325
349,1384
317,1482
374,1403
346,1687
283,1473
410,1164
438,1181
465,1239
490,1217
491,1141
435,1235
436,1211
379,1625
323,1575
289,1424
377,1427
378,1353
592,1493
593,1465
552,1361
445,1458
424,1582
423,1541
416,2377
361,1532
362,1509
371,1525
372,1552
343,1516
344,1556
286,1435
227,1387
252,1440
284,1464
318,1489
250,1492
312,1369
340,1364
368,1420
369,1466
370,1600
341,1467
367,1373
308,1497
276,1487
277,1467
280,1398
310,1363
338,1410
366,1482
274,1659
305,1597
420,1570
363,1511
418,1477
550,2281
579,2304
576,2249
577,2261
578,2277
520,2257
618,2271
662,2301
619,2288
620,2301
621,2295
665,2277
666,2269
664,2297
580,2316
2260,65535
2257,65535
2206,65535
2146,65535
2314,65535
2313,65535
2312,65535
2373,65535
2256,65535
2205,65535
2434,65535
2435,65535
2375,65535
2376,65535
2433,65535
2491,65535
2490,65535
2492,65535
2546,65535
2597,65535
2596,65535
2544,65535
2145,65535
2082,65535
2020,65535
2494,65535
0,65535
11,65535
1052,1468
1053,1455
941,1440
1740,2461
1796,2535
1615,2319
1681,2396
1545,2200
1797,2575
1544,2275
1741,2553
1795,2856
1617,2220
1546,2206
1616,2237
1683,2341
1467,1373
1547,1413
1465,2180
1387,2247
1388,1415
1464,2264
1462,3019
1461,3040
1542,2931
1463,2983
1682,2528
1543,2396
1618,2277
1742,2654
1460,2730
1248,2262
1850,1372
1801,2178
1803,1321
882,1219
881,1228
938,1278
883,1239
940,2358
1998,1297
1902,1171
1807,1089
1691,1227
1694,1093
1693,1237
1749,1278
1752,1167
1753,1098
1627,1007
1628,1041
1557,970
1479,928
1402,900
1808,1067
1946,1435
1947,1370
1948,1357
1997,1331
1855,1161
1690,1226
2060,1375
1949,1407
1950,1262
1751,1210
1692,1229
1999,1289
1901,1415
1900,1456
1852,1605
1853,1484
1805,1294
1750,1223
1854,1320
1806,1288
1748,1314
2061,1416
2000,1414
1804,1306
1899,1625
2884,65535
2892,65535
2883,65535
2876,65535
2874,65535
2882,65535
2877,65535
2911,65535
2905,65535
2906,65535
2896,65535
2887,65535
2881,65535
2880,65535
2888,65535
2902,65535
2903,65535
2907,65535
2912,65535
2895,65535
2894,65535
2875,65535
2885,65535
2893,65535
2904,65535
2865,65535
2866,65535
2909,65535
2913,65535
2886,65535
2878,65535
2869,65535
2871,65535
2872,65535
2879,65535
2870,65535
1330,935
1331,920
1401,905
1262,957
1263,949
1478,906
1403,890
1261,966
1480,947
1264,1006
1390,1358
1389,1376
1319,1369
1251,1382
1250,1468
1285,2401
1284,2406
1214,2378
1146,2344
1505,2627
1504,2561
1582,2599
1581,2527
1713,2506
1771,2488
1654,2638
1653,2611
1651,2563
2096,3742
2033,3702
1972,3673
1923,3605
1922,3583
1874,3277
1873,2990
1919,2943
1829,3954
1579,2463
1424,2504
1711,2480
1348,2304
1419,2324
1359,2731
1429,2682
1428,2668
1421,2381
1577,2415
1499,2388
1230,2975
1365,2912
1511,2834
1300,2957
1366,2929
1512,2862
1716,2696
1503,2973
1276,2258
1347,2288
1349,2336
1645,2472
1578,2450
1770,2484
1715,2539
1150,2443
1217,2457
1149,2419
1580,2509
1352,2496
1502,2527
1825,2896
1718,2851
1717,2825
1872,2929
1656,2740
1648,2515
1712,2492
1213,2368
1212,2349
1084,2390
1420,2370
1281,2294
1282,2355
1587,2734
1586,2701
1585,2690
1652,2658
1427,2836
1975,3777
1977,3845
1932,3915
1931,4540
1426,2556
1422,2398
1425,2541
1583,2627
1501,2485
1283,2396
1286,2443
1215,2428
1211,2325
1210,2299
1083,2361
1655,2729
2220,3783
1355,65535
1772,2497
1436,2880
1435,2870
1589,2803
1163,3008
1735,4128
1791,4061
1841,4038
1840,3994
1219,2560
1220,2599
1647,2501
1646,2493
1279,2246
1714,2516
1575,2475
1576,2437
1498,2445
1573,2487
1496,2505
1497,2476
2177,2762
2176,2827
2294,2887
2293,2908
2237,2868
2236,2890
2364,2738
2302,2668
2301,2649
2245,2604
2056,2477
2057,2641
2055,2472
2184,2811
2120,2734
2244,2431
2538,2939
2537,2919
2591,2956
1940,2780
1989,2764
1990,2720
2539,2962
2482,2968
2483,2937
2424,2932
2121,2913
2119,2449
2050,2859
2049,2881
2048,2943
2185,2806
2243,2444
2299,2669
2241,2669
2485,2899
2542,3011
2353,2954
2292,2930
2419,2828
2478,2836
2479,2853
2536,2880
2484,2954
2486,2847
2354,2878
2416,2970
2242,2491
2355,2845
2300,2798
1991,2803
1992,2544
2477,2879
2534,2914
2535,2870
2588,2935
2587,2950
2630,2990
2051,2626
2116,2594
2175,2878
2586,65535
2541,3082
2178,2728
2179,2699
2240,2699
2239,2770
2238,2825
2052,2670
2053,2765
1987,2848
1988,2768
1939,2774
2594,3084
2593,3056
2358,2726
2357,2769
2420,2879
2247,3061
2427,2832
2428,2890
2181,2489
2180,2541
2417,2858
2590,2935
2297,2702
2361,2926
2362,2870
2423,2905
2422,2764
2174,2971
2356,2835
1941,2802
2365,3147
2112,2899
2047,2965
2182,2501
2359,2692
2533,3211
2295,3051
2115,2637
2632,3061
2631,3000
2186,2768
2298,2529
2360,2584
2235,3661
2291,3674
2487,3070
2246,2989
2425,3126
2117,3087
2543,3097
1893,65535
2421,2972
2476,2886
2592,3071
604,2266
