middle_point_id,reach_time_minutes
2835,65535
2836,65535
2806,65535
2822,65535
2823,65535
2807,65535
2846,65535
887,986
888,998
1326,1261
1185,927
999,1128
1057,1070
1552,1239
1120,958
1473,1299
944,1207
832,973
1257,976
1396,1303
1622,1282
1327,1384
1184,970
1183,1292
1324,1354
1255,1404
1394,1425
1252,1667
1253,1636
1182,1621
1328,65535
1470,1500
1321,1674
1322,1615
1323,1565
1391,1687
1551,1278
1393,1540
1472,1284
1471,1429
1181,1934
1118,1679
1059,897
1121,918
1469,1561
1468,1780
1548,1545
1325,1315
1625,892
1623,1228
1258,985
1256,1331
791,833
891,914
703,847
704,841
660,845
1553,1287
1624,1213
1554,1374
1474,1300
1475,1381
1550,1396
1549,1494
1320,1732
1466,1784
1541,2200
1318,1846
1249,1869
1186,923
1003,891
1002,901
741,894
788,857
434,1388
697,919
752,855
1056,1111
1006,825
907,741
518,945
1011,708
1000,934
1055,2102
997,2071
994,1965
996,2037
995,2021
991,1812
1112,4445
1114,2052
1051,2015
1398,1452
1395,1335
1001,908
1811,538
1960,345
1769,156
1823,150
1329,65535
1332,702
1259,2216
1200,599
1199,603
1140,636
1141,619
783,956
1689,1243
1802,1240
1945,1916
2183,2398
2418,2847
1994,1952
1995,2348
2059,1291
1621,65535
1555,847
1754,630
1180,2783
1106,3045
933,3206
827,1290
2122,2813
2124,809
493,1286
519,950
544,941
545,942
494,971
470,1003
543,966
469,1284
517,958
574,930
573,892
495,1258
546,948
613,870
612,878
492,1271
572,932
571,1322
570,1304
610,1244
575,943
547,1358
516,1283
611,921
542,1338
569,1329
609,1322
548,1430
549,1459
1404,670
1405,648
1266,659
1193,707
743,882
742,870
747,864
746,857
745,870
744,858
790,844
789,852
839,865
838,867
738,951
739,948
740,902
890,930
834,963
784,952
889,951
856,803
855,780
854,788
853,805
852,755
910,772
909,761
908,734
964,738
965,701
1020,671
966,723
963,730
1021,769
1271,597
1270,599
1339,607
1338,620
1071,634
1072,627
1135,607
1408,643
1337,639
1269,615
1268,640
1136,619
1075,669
1077,623
1076,638
1019,644
1018,682
1074,655
1137,640
1272,613
1274,532
1275,530
1205,573
1204,558
1273,591
1198,616
1197,645
1341,621
1134,612
1133,649
1069,661
1132,653
1073,650
1203,560
1202,644
1201,633
1139,623
1267,646
1138,656
1340,567
1196,671
1342,564
1409,625
1485,585
1407,683
1561,545
1632,560
1484,599
1483,590
1562,536
1194,685
1130,678
1195,672
1335,663
1129,701
1066,733
1128,782
1067,706
1131,659
1334,724
1336,651
1265,695
1333,699
1406,623
857,828
803,3562
804,7039
860,7047
969,7000
913,6987
912,6925
861,7057
806,7100
659,850
751,828
658,863
705,845
702,855
706,866
753,838
614,882
701,859
661,861
616,884
848,810
796,821
797,828
798,818
750,834
707,873
615,881
748,871
845,788
846,786
657,886
749,893
795,835
617,891
663,896
794,863
847,824
849,773
902,808
901,763
900,771
793,817
899,752
898,789
897,817
844,800
842,870
841,836
956,736
792,824
843,799
840,846
850,758
903,827
800,761
755,773
756,823
710,853
711,898
962,749
961,761
904,808
906,746
851,751
802,770
801,765
799,791
959,749
1014,644
1013,760
708,905
709,879
754,795
757,851
1017,663
1016,658
960,841
905,761
958,680
957,703
1070,673
1015,658
1012,704
1068,702
1005,835
1004,882
1060,890
1063,828
1065,755
1127,807
1062,856
1124,924
1123,931
1125,866
1188,951
1122,913
1058,903
947,964
946,977
949,895
945,1267
948,904
1190,1254
1187,976
951,848
895,874
952,814
1009,735
1008,771
1010,712
1007,796
1061,876
954,893
896,867
953,832
1126,810
1064,802
1189,1048
955,738
950,878
892,880
786,884
836,880
837,875
787,867
700,886
655,905
654,911
653,916
698,907
699,893
608,1310
696,910
656,902
833,958
785,917
835,912
693,958
894,913
893,873
1343,507
1192,816
1191,755
828,1014
829,994
780,1352
830,1339
779,997
782,961
529,1354
886,1001
596,1371
556,1386
598,1324
597,1343
526,1392
555,1410
525,1404
524,1418
523,1428
688,1016
607,1319
650,1327
651,1273
652,1330
737,956
694,944
695,913
645,1003
646,994
690,976
600,1014
599,1024
781,965
736,966
558,1350
644,1275
643,1363
648,1292
692,964
691,980
513,1398
541,1377
540,1403
568,1374
530,1369
831,984
559,1361
560,1410
642,1375
557,1384
496,1480
471,1497
444,1600
446,1526
528,1361
527,1375
562,1341
602,1304
734,1020
466,1336
464,1367
463,1376
478,1494
481,1432
480,1481
479,1469
647,984
488,1387
502,1369
689,988
533,1351
532,1377
531,1401
601,1279
484,1440
508,1378
510,1425
509,1397
534,1378
482,1458
506,1400
606,1325
455,1690
429,1475
456,1654
457,1624
428,1506
458,1494
554,1524
594,1523
640,1407
639,1489
551,1470
681,1534
636,1522
635,1499
590,1474
778,1244
777,1275
485,1468
486,1482
462,1511
563,1356
885,1316
943,1331
564,1373
641,1401
504,1384
503,1377
501,1398
500,1437
561,1398
254,1525
350,1473
321,1489
319,1511
251,1550
375,1475
347,1517
687,1368
565,1404
539,1422
511,1473
536,1424
649,1317
603,1335
605,1886
733,1032
735,978
489,1374
514,1389
461,1436
460,1465
459,1484
468,1316
154,1659
178,1624
203,1594
228,1565
402,1478
401,1595
505,1405
522,1462
451,1727
452,1696
477,1501
476,1442
483,1546
884,1373
431,1444
430,1454
454,1720
595,1427
395,1684
394,1682
422,1818
417,1576
390,1621
538,1427
567,1400
426,1862
397,1618
398,1584
499,1533
475,1474
497,1444
498,1471
311,1514
342,1583
345,1517
421,1696
515,1433
472,1596
448,1621
473,1647
474,1662
353,1399
381,1379
256,1521
290,1471
324,1409
380,1434
407,1410
253,1623
226,1648
201,1661
177,1669
824,1376
775,1349
826,1309
939,1387
936,1798
937,1453
880,1380
566,1575
2821,65535
2834,65535
2833,65535
2789,65535
2790,65535
2770,65535
2788,65535
2776,65535
2795,65535
2775,65535
2794,65535
2825,65535
2824,65535
2826,65535
2811,65535
2812,65535
2796,65535
2827,65535
2858,65535
2855,65535
2849,65535
2838,65535
2814,65535
2813,65535
2828,65535
2839,65535
2791,65535
2792,65535
2803,65535
2830,65535
2815,65535
2819,65535
2818,65535
2817,65535
2831,65535
2810,65535
2829,65535
2783,65535
2820,65535
2804,65535
2785,65535
2784,65535
2762,65535
2768,65535
2751,65535
2750,65535
2733,65535
2769,65535
2720,65535
2761,65535
2741,65535
2837,65535
2793,65535
2808,65535
2753,65535
2736,65535
2735,65535
2809,65535
2772,65535
2845,65535
2844,65535
2848,65535
2777,65535
2778,65535
2779,65535
2759,65535
2780,65535
2797,65535
2843,65535
2832,65535
2842,65535
2758,65535
2738,65535
2774,65535
2773,65535
2771,65535
2851,65535
2847,65535
2854,65535
2721,65535
2756,65535
2737,65535
2840,65535
2752,65535
2754,65535
2755,65535
2852,65535
2853,65535
2856,65535
2841,65535
2742,65535
2727,65535
2744,65535
2726,65535
2743,65535
2725,65535
2746,65535
2787,65535
2766,65535
2763,65535
2765,65535
2745,65535
2764,65535
2552,65535
2501,65535
2443,65535
2442,65535
2320,65535
2381,65535
2382,65535
2498,65535
2499,65535
2438,65535
2439,65535
2497,65535
2441,65535
2379,65535
2380,65535
2319,65535
2551,65535
2550,65535
2563,7557
2321,4213
2322,4182
2383,4194
2384,4905
2446,4948
2445,4956
2503,4975
2385,4939
2504,7678
2505,7700
2557,7724
2558,7749
2559,7773
2560,7737
2564,7513
2562,7625
2561,7665
2605,7680
2609,5264
2565,5209
2566,5194
2515,5139
2397,3559
2457,5120
2458,5104
2401,3731
2337,3472
2336,3476
2399,3518
2398,3539
2402,3765
2333,3696
2273,3731
2219,3755
2218,3767
2159,3792
2454,5824
2393,5790
2512,7524
2502,8309
2608,7943
2156,3914
2155,3946
2154,3975
2213,3991
2212,4003
2211,4051
2210,4092
2264,4099
2324,4133
2323,4149
2030,65535
2094,65535
2157,3878
2450,7921
2388,7970
2387,8038
2326,8075
2266,4280
2265,4235
2508,7892
2396,3628
2335,3646
2334,3657
2158,3817
2279,7345
2278,7309
2222,7278
2221,7260
2276,7242
2275,2844
2261,5727
2207,6585
2149,6644
2554,5027
2599,5057
2633,5095
2664,5130
2689,5167
2690,5193
2691,5209
2692,5233
2152,6338
2089,7046
2088,6384
2025,7179
2603,65535
2602,65535
2556,65535
2693,7172
2671,8955
2670,8935
2694,8894
2553,65535
2665,65535
2705,65535
2710,65535
2668,65535
2639,65535
2463,6586
2521,6622
2572,6645
2451,7806
2390,7775
2391,7595
2392,6232
2215,7800
2268,65535
2093,65535
2092,65535
2028,65535
2024,6414
2150,4452
2086,4482
2209,4439
2023,5553
2087,5506
2148,8599
2262,5712
2327,65535
1560,568
1630,656
1631,590
1559,679
1629,891
1558,788
1634,531
1633,565
1482,619
1481,576
1699,569
1700,536
1701,519
1563,507
2070,358
2008,352
2009,354
1959,348
1958,392
2006,431
1957,426
1956,475
2193,468
2132,407
1912,373
1911,375
1865,432
1866,466
2007,430
2069,446
2010,393
2011,445
1961,383
2072,409
1913,460
1867,526
1962,398
1914,372
1915,210
1909,499
1636,452
1635,460
1564,473
1702,480
1637,440
1638,388
1565,459
1486,495
1760,632
1704,470
1703,457
1763,370
1762,413
1817,398
1705,343
1863,1310
1815,1386
1759,556
863,1808
758,1901
808,1852
982,2023
1036,2030
1099,2065
1100,2093
1166,2494
1167,2989
1237,2646
1238,2681
1375,2751
1308,2820
1309,2729
1236,2947
1235,2581
1101,2124
1037,2061
971,1604
1025,1587
1026,1602
1027,1615
1089,1628
720,1864
674,1910
864,1690
865,1711
919,1606
1024,1551
975,1725
974,1695
1028,1650
873,2050
925,1996
924,1973
917,1670
918,1646
623,2085
712,1957
713,1990
667,1995
622,2053
809,1838
719,1838
765,1799
972,1636
868,1748
869,1760
815,1779
920,2015
973,1681
981,1974
926,2075
927,2083
928,2107
1354,1600
1288,1541
1218,1517
1152,1586
1023,1515
1353,1614
1085,1495
1148,1425
1147,1418
1082,1369
772,2136
771,2093
819,2068
584,1984
628,1951
629,1940
1033,1871
978,1826
1031,1799
1030,1753
1029,1736
1091,1713
1035,1952
1034,1895
979,1853
1526,2870
1449,2908
1378,2936
1448,2859
1524,2837
1038,2108
1447,2900
1768,152
1710,231
1767,240
391,1638
365,1650
339,1628
400,1523
393,1705
392,1670
396,1657
399,1541
443,1656
449,1754
450,1759
419,1670
414,1709
415,1673
387,1712
388,1661
389,1636
282,1680
281,1674
314,1645
313,1602
405,1399
411,1714
442,1673
255,1553
376,1452
373,1507
278,1525
275,1588
248,1635
335,1850
334,1827
306,1760
307,1749
176,1687
225,1605
320,1488
249,1708
287,1585
285,1616
776,1296
731,1316
315,1661
316,1643
204,1624
440,1293
439,1328
166,1905
269,1822
383,1760
1247,4390
1246,4412
1384,4496
1679,4658
1178,4383
1105,3049
1172,3068
1173,3118
1242,3120
1241,3112
1314,3269
1313,3175
1171,3094
1382,3375
1243,3317
1317,3456
1107,3057
1108,3236
1109,3521
1041,3066
1043,3276
1042,3267
1044,3330
1176,4284
1174,3343
1177,4332
1110,4339
985,3112
986,3155
932,3173
774,1370
730,1327
825,1368
728,1359
729,1340
727,1539
682,1356
684,1338
685,1348
732,1324
683,1402
2134,515
2194,521
2068,579
2129,634
1905,582
1907,505
1906,544
1953,672
2002,724
2064,760
2125,779
2137,867
2196,680
2195,578
1859,563
1810,606
1755,668
2131,414
2192,463
1862,1299
1861,608
1812,554
1860,577
1809,680
1756,554
1869,52
1822,125
1821,119
1916,90
1819,312
1764,328
1820,272
1698,603
1757,586
1566,463
1567,424
1488,469
1489,512
1412,553
1413,531
1414,485
1818,362
1568,457
1410,524
2128,660
2189,704
2066,709
2065,806
2067,631
1643,340
1571,433
1491,447
2004,1249
2003,825
1697,741
2135,623
2075,485
1642,411
1955,489
2130,828
2005,491
1858,605
1816,8488
1864,8481
1766,281
1910,654
1868,0
2188,841
2127,811
1903,743
2001,853
2063,1302
2062,1314
1813,597
1758,579
1639,350
1640,341
1952,745
2126,8570
1569,387
1965,342
1966,388
2014,408
1490,511
1917,145
1870,181
1871,195
1570,407
1707,287
2076,475
2013,440
1964,394
1487,493
1908,1249
2251,3681
2199,3625
2198,3488
2136,625
1641,397
1954,563
1765,297
1857,619
2187,925
1904,721
1856,746
1951,782
1708,348
245,8799
244,8782
357,8786
246,8914
247,8943
197,9037
223,9015
44,9379
43,9439
3,9575
23,9549
22,9538
63,9321
85,9263
84,9218
108,8718
149,8672
172,9063
296,8766
294,8814
355,8914
354,8946
326,9024
295,8923
291,8935
293,9057
260,8943
356,8974
441,8574
412,8597
329,8932
300,8876
148,8646
214,8884
146,8767
110,8848
262,8909
258,9322
292,9085
257,9387
235,8907
187,8807
212,8863
211,8890
186,8811
162,8785
161,8864
165,8763
189,8963
238,9044
237,9009
263,8945
265,8964
266,8942
267,8930
268,8770
26,9539
25,9507
105,65535
62,65535
83,65535
126,8885
175,9320
152,9254
151,9244
150,9203
103,8823
242,8716
191,8670
192,8721
217,8744
218,8797
145,8707
144,8791
167,8699
190,8677
219,8814
159,8911
185,8855
158,8968
188,8799
160,8876
143,65535
122,65535
75,65535
54,65535
198,9448
270,8811
221,8852
301,8909
302,8746
330,8773
331,8795
115,8847
133,8906
139,8803
134,8880
114,9404
48,65535
69,65535
92,9080
164,8873
4,65535
107,9225
129,9310
109,8750
125,8791
124,8765
127,65535
82,65535
67,65535
91,9248
93,9047
137,9182
113,9202
112,9160
136,65535
49,65535
72,65535
71,65535
406,1425
805,7090
858,6895
859,7036
967,1074
1142,1209
1080,6735
1022,6776
1079,6768
968,6891
1206,1166
915,7042
916,7077
914,7014
807,7129
911,8236
1078,6992
1207,1224
1278,1268
1277,1271
1344,1291
1415,1332
1492,1387
1345,1348
1346,1318
1208,1216
1209,1296
1143,1333
1144,1349
1145,1364
1417,1344
1493,1404
1494,1423
1572,1438
1081,7061
970,7264
408,1383
382,1401
437,1349
467,1360
409,1354
403,1454
432,1989
433,1428
404,1411
352,1426
351,1444
349,1543
317,1602
374,1511
346,1727
283,1652
410,1346
438,1363
465,1352
490,1339
491,1297
435,1382
436,1374
379,1476
323,1547
289,1577
377,1466
378,1439
592,1507
593,1545
552,1452
445,1577
424,1634
423,1729
416,1609
361,1778
362,1707
371,1732
372,1689
343,1745
344,1749
286,1803
227,1727
252,1587
284,1608
318,1611
250,1676
312,1547
340,1572
368,1657
369,1685
370,1722
341,1667
367,1616
308,1776
276,1675
277,1710
280,1578
310,1555
338,1650
366,1757
274,1844
305,1893
420,1718
363,1724
418,1695
550,7081
579,7104
576,7049
577,7061
578,7077
520,7057
618,7071
662,7101
619,7088
620,7101
621,7095
665,7077
666,7069
664,7097
580,7116
2260,65535
2257,65535
2206,65535
2146,65535
2314,65535
2313,65535
2312,65535
2373,65535
2256,65535
2205,65535
2434,65535
2435,65535
2375,65535
2376,65535
2433,65535
2491,65535
2490,65535
2492,65535
2546,65535
2597,65535
2596,65535
2544,65535
2145,65535
2082,65535
2020,65535
2494,65535
0,65535
11,65535
1052,2068
1053,2055
941,2095
1740,1932
1796,1973
1615,1835
1681,1876
1545,1796
1797,2020
1544,1810
1741,1988
1795,2170
1617,1796
1546,1801
1616,1813
1683,1908
1467,1770
1547,1775
1465,1845
1387,1881
1388,1842
1464,1906
1462,2059
1461,2080
1542,2144
1463,2023
1682,1887
1543,1865
1618,1788
1742,2080
1460,2246
1248,1890
1850,1247
1801,1248
1803,1226
882,1339
881,1348
938,1399
883,1364
940,2838
1998,1265
1902,889
1807,786
1691,1228
1694,1453
1693,1312
1749,1147
1752,793
1753,848
1627,728
1628,1401
1557,767
1479,719
1402,701
1808,767
1946,1435
1947,1380
1948,1284
1997,1280
1855,801
1690,1186
2060,1390
1949,1439
1950,927
1751,863
1692,1214
1999,1246
1901,1435
1900,1456
1852,2085
1853,1964
1805,1294
1750,922
1854,1380
1806,1369
1748,1267
2061,1340
2000,1294
1804,1211
1899,2105
2884,65535
2892,65535
2883,65535
2876,65535
2874,65535
2882,65535
2877,65535
2911,65535
2905,65535
2906,65535
2896,65535
2887,65535
2881,65535
2880,65535
2888,65535
2902,65535
2903,65535
2907,65535
2912,65535
2895,65535
2894,65535
2875,65535
2885,65535
2893,65535
2904,65535
2865,65535
2866,65535
2909,65535
2913,65535
2886,65535
2878,65535
2869,65535
2871,65535
2872,65535
2879,65535
2870,65535
1330,755
1331,708
1401,706
1262,717
1263,709
1478,719
1403,696
1261,727
1480,707
1264,762
1390,1753
1389,1798
1319,1775
1251,1862
1250,1948
1285,1442
1284,1446
1214,1418
1146,1384
1505,1667
1504,1601
1582,1639
1581,1567
1713,1546
1771,1528
1654,1678
1653,1651
1651,1603
2096,2782
2033,2742
1972,2713
1923,2645
1922,2623
1874,2317
1873,2030
1919,1983
1829,2994
1579,1503
1424,1495
1711,1520
1348,1344
1419,1364
1359,1771
1429,1722
1428,1708
1421,1421
1577,1455
1499,1428
1230,2015
1365,1952
1511,1874
1300,1997
1366,1969
1512,1902
1716,1736
1503,2013
1276,1298
1347,1328
1349,1376
1645,1512
1578,1490
1770,1524
1715,1579
1150,1483
1217,1497
1149,1459
1580,1529
1352,1536
1502,1518
1825,1936
1718,1891
1717,1865
1872,1969
1656,1780
1648,1555
1712,1532
1213,1408
1212,1389
1084,1430
1420,1410
1281,1334
1282,1395
1587,1774
1586,1741
1585,1730
1652,1698
1427,1876
1975,2817
1977,2885
1932,2955
1931,3580
1426,1596
1422,1438
1425,1581
1583,1667
1501,1525
1283,1436
1286,1483
1215,1468
1211,1365
1210,1339
1083,1401
1655,1769
2220,2823
1355,5891
1772,1537
1436,1920
1435,1910
1589,1843
1163,2048
1735,3168
1791,3101
1841,3078
1840,3034
1219,1600
1220,1639
1647,1541
1646,1533
1279,1286
1714,1556
1575,1515
1576,1477
1498,1485
1573,1527
1496,1545
1497,1516
2177,2965
2176,3035
2294,2952
2293,3071
2237,3012
2236,3041
2364,2813
2302,2753
2301,2675
2245,2577
2056,2707
2057,2793
2055,2686
2184,2738
2120,2744
2244,2658
2538,2998
2537,2979
2591,3095
1940,2870
1989,2878
1990,2814
2539,2998
2482,2989
2483,2951
2424,2847
2121,2805
2119,2618
2050,2927
2049,3005
2048,3423
2185,2771
2243,2497
2299,2711
2241,2660
2485,3029
2542,3084
2353,3043
2292,2950
2419,2837
2478,2884
2479,2919
2536,2946
2484,2990
2486,2983
2354,2882
2416,3059
2242,2705
2355,2920
2300,2718
1991,2818
1992,2825
2477,2875
2534,2896
2535,3011
2588,2916
2587,2930
2630,2981
2051,2739
2116,2633
2175,3068
2586,65535
2541,3151
2178,2940
2179,2743
2240,2690
2239,2914
2238,2984
2052,2870
2053,2836
1987,3110
1988,2958
1939,2982
2594,3101
2593,3086
2358,2804
2357,2814
2420,2870
2247,2866
2427,2956
2428,2978
2181,2537
2180,2586
2417,2864
2590,3076
2297,2699
2361,2891
2362,2774
2423,2862
2422,2827
2174,3298
2356,2925
1941,2859
2365,2990
2112,3303
2047,3445
2182,2676
2359,2753
2533,3691
2295,3016
2115,2706
2632,3136
2631,3075
2186,2923
2298,2785
2360,2809
2235,3261
2291,3274
2487,3205
2246,2798
2425,3606
2117,2930
2543,3158
1893,65535
2421,2962
2476,2880
2592,3134
604,7066
