middle_point_id,reach_time_minutes
2835,65535
2836,65535
2806,65535
2822,65535
2823,65535
2807,65535
2846,65535
887,1626
888,1618
1326,1395
1185,1434
999,1610
1057,1637
1552,1239
1120,1493
1473,1299
944,1656
832,1628
1257,1403
1396,1309
1622,1282
1327,1444
1184,1450
1183,1479
1324,1471
1255,1493
1394,1482
1252,1667
1253,1636
1182,1621
1328,65535
1470,1500
1321,1674
1322,1615
1323,1565
1391,1687
1551,1278
1393,1540
1472,1284
1471,1429
1181,1934
1118,1679
1059,1469
1121,1455
1469,1561
1468,1780
1548,1545
1325,1405
1625,1311
1623,1228
1258,1427
1256,1514
791,1596
891,1529
703,1629
704,1644
660,1641
1553,1287
1624,1261
1554,1374
1474,1300
1475,1381
1550,1396
1549,1494
1320,1732
1466,1784
1541,2200
1318,1846
1249,1869
1186,1428
1003,1476
1002,1478
741,1601
788,1575
434,1714
697,1630
752,1662
1056,1632
1006,1540
907,1769
518,1715
1011,1685
1000,1508
1055,4502
997,4471
994,4367
996,4437
995,4421
991,3252
1112,65535
1114,4710
1051,4675
1398,1452
1395,1372
1001,1489
1811,1612
1960,1791
1769,1983
1823,1968
1329,65535
1332,1542
1259,2216
1200,1735
1199,1735
1140,1878
1141,1881
783,1642
1689,1243
1802,1240
1945,1916
2183,2398
2418,2847
1994,1952
1995,2348
2059,1477
1621,65535
1555,1356
1754,1516
1180,2783
1106,5830
933,6086
827,1748
2122,2813
2124,1861
493,1722
519,1715
544,1707
545,1708
494,1720
470,1742
543,1704
469,1738
517,1726
574,1711
573,1692
495,1738
546,1713
613,1672
612,1683
492,1730
572,1699
571,1749
570,1753
610,1724
575,1764
547,1758
516,1748
611,1701
542,1735
569,1760
609,1744
548,1790
549,1819
1404,1579
1405,1605
1266,1640
1193,1667
743,1617
742,1580
747,1608
746,1600
745,1604
744,1588
790,1584
789,1579
839,1608
838,1570
738,1639
739,1608
740,1596
890,1541
834,1612
784,1607
889,1553
856,1811
855,1800
854,1807
853,1845
852,1796
910,1792
909,1783
908,1778
964,1772
965,1784
1020,1823
966,1798
963,1789
1021,1844
1271,1733
1270,1731
1339,1720
1338,1707
1071,1774
1072,1767
1135,1747
1408,1723
1337,1658
1269,1705
1268,1686
1136,1748
1075,1869
1077,1878
1076,1854
1019,1847
1018,1868
1074,1780
1137,1764
1272,1740
1274,1816
1275,1850
1205,1892
1204,1859
1273,1787
1198,1789
1197,1726
1341,1842
1134,1751
1133,1747
1069,1707
1132,1704
1073,1790
1203,1843
1202,1785
1201,1758
1139,1828
1267,1654
1138,1795
1340,1753
1196,1665
1342,1829
1409,1759
1485,1763
1407,1700
1561,1717
1632,1741
1484,1775
1483,1677
1562,1708
1194,1676
1130,1670
1195,1666
1335,1632
1129,1658
1066,1651
1128,1636
1067,1671
1131,1697
1334,1564
1336,1642
1265,1655
1333,1539
1406,1635
857,2268
803,3562
804,7039
860,7047
969,7000
913,6987
912,6925
861,7057
806,7100
659,1639
751,1651
658,1649
705,1648
702,1624
706,1666
753,1687
614,1662
701,1615
661,1657
616,1658
848,1689
796,1662
797,1668
798,1686
750,1646
707,1713
615,1661
748,1644
845,1681
846,1693
657,1666
749,1666
795,1662
617,1671
663,1736
794,1664
847,1689
849,1710
902,1717
901,1737
900,1749
793,1613
899,1671
898,1636
897,1615
844,1673
842,1593
841,1585
956,1696
792,1602
843,1623
840,1584
850,1749
903,1697
800,1766
755,1793
756,1847
710,1933
711,1978
962,1770
961,1756
904,1702
906,1763
851,1767
802,1807
801,1769
799,1743
959,1772
1014,1784
1013,1768
708,2203
709,2178
754,1747
757,1871
1017,1841
1016,1836
960,1741
905,1716
958,1878
957,7466
1070,1753
1015,1769
1012,1716
1068,1699
1005,1520
1004,1490
1060,1472
1063,1571
1065,1602
1127,1610
1062,1578
1124,1526
1123,1485
1125,1600
1188,1473
1122,1449
1058,1460
947,1563
946,1579
949,1532
945,1597
948,1504
1190,1778
1187,1449
951,1559
895,1570
952,1567
1009,1615
1008,1605
1010,1660
1007,1552
1061,1573
954,1663
896,1579
953,1597
1126,1624
1064,1565
1189,1593
955,1711
950,1538
892,1552
786,1574
836,1570
837,1566
787,1572
700,1653
655,1652
654,1614
653,1636
698,1608
699,1614
608,1678
696,1600
656,1660
833,1622
785,1582
835,1567
693,1619
894,1599
893,1580
1343,1823
1192,1634
1191,1655
828,1738
829,1724
780,1670
830,1719
779,1736
782,1637
529,1745
886,1653
596,1790
556,1821
598,1738
597,1745
526,1787
555,1804
525,1834
524,1862
523,1827
688,1686
607,1664
650,1662
651,1644
652,1672
737,1644
694,1618
695,1605
645,1676
646,1671
690,1651
600,1695
599,1709
781,1641
736,1649
558,1731
644,1684
643,1693
648,1676
692,1625
691,1641
513,1777
541,1797
540,1853
568,1769
530,1731
831,1644
559,1723
560,1786
642,1776
557,1774
496,1862
471,1902
444,1961
446,1919
528,1779
527,1793
562,1754
602,1723
734,1680
466,1774
464,1740
463,1807
478,1910
481,1857
480,1822
479,1855
647,1688
488,1762
502,1789
689,1673
533,1798
532,1777
531,1761
601,1746
484,1849
508,1799
510,1814
509,1820
534,1808
482,1892
506,1880
606,1715
455,2036
429,1934
456,2083
457,1966
428,1992
458,1908
554,1880
594,1848
640,1827
639,1864
551,1850
681,1954
636,1948
635,1964
590,1901
778,1745
777,1752
485,1803
486,1782
462,1752
563,1836
885,1664
943,2771
564,1817
641,1803
504,1754
503,1781
501,1860
500,1900
561,1761
254,1804
350,1769
321,1863
319,1814
251,1854
375,1828
347,1847
687,1696
565,1853
539,1809
511,1795
536,1873
649,1723
603,1761
605,1886
733,1694
735,1664
489,1779
514,1840
461,1870
460,1881
459,1900
468,1737
154,1955
178,1919
203,1890
228,1873
402,1936
401,1943
505,1765
522,1872
451,2117
452,2068
477,1959
476,1955
483,1966
884,1774
431,1895
430,1957
454,1934
595,1950
395,2006
394,2030
422,2180
417,1951
390,1996
538,1790
567,1691
426,2060
397,2033
398,2018
499,2095
475,1991
497,1892
498,1909
311,1874
342,1834
345,1863
421,2057
515,1838
472,2121
448,2152
473,2176
474,2217
353,1817
381,1796
256,1916
290,1891
324,1829
380,1857
407,1785
253,1950
226,1887
201,1900
177,1957
824,1856
775,1794
826,1759
939,1807
936,3238
937,1873
880,2005
566,1880
2821,65535
2834,65535
2833,65535
2789,65535
2790,65535
2770,65535
2788,65535
2776,65535
2795,65535
2775,65535
2794,65535
2825,65535
2824,65535
2826,65535
2811,65535
2812,65535
2796,65535
2827,65535
2858,65535
2855,65535
2849,65535
2838,65535
2814,65535
2813,65535
2828,65535
2839,65535
2791,65535
2792,65535
2803,65535
2830,65535
2815,65535
2819,65535
2818,65535
2817,65535
2831,65535
2810,65535
2829,65535
2783,65535
2820,65535
2804,65535
2785,65535
2784,65535
2762,65535
2768,65535
2751,65535
2750,65535
2733,65535
2769,65535
2720,65535
2761,65535
2741,65535
2837,65535
2793,65535
2808,65535
2753,65535
2736,65535
2735,65535
2809,65535
2772,65535
2845,65535
2844,65535
2848,65535
2777,65535
2778,65535
2779,65535
2759,65535
2780,65535
2797,65535
2843,65535
2832,65535
2842,65535
2758,65535
2738,65535
2774,65535
2773,65535
2771,65535
2851,65535
2847,65535
2854,65535
2721,65535
2756,65535
2737,65535
2840,65535
2752,65535
2754,65535
2755,65535
2852,65535
2853,65535
2856,65535
2841,65535
2742,65535
2727,65535
2744,65535
2726,65535
2743,65535
2725,65535
2746,65535
2787,65535
2766,65535
2763,65535
2765,65535
2745,65535
2764,65535
2552,65535
2501,65535
2443,65535
2442,65535
2320,65535
2381,65535
2382,65535
2498,65535
2499,65535
2438,65535
2439,65535
2497,65535
2441,65535
2379,65535
2380,65535
2319,65535
2551,65535
2550,65535
2563,7557
2321,7093
2322,7062
2383,7074
2384,7280
2446,7322
2445,7329
2503,7348
2385,7313
2504,7678
2505,7700
2557,7724
2558,7749
2559,7773
2560,7737
2564,7905
2562,7625
2561,7665
2605,7680
2609,7952
2565,8028
2566,8044
2515,8055
2397,6439
2457,8085
2458,8107
2401,6516
2337,6352
2336,6356
2399,6398
2398,6419
2402,6576
2333,6576
2273,6611
2219,6635
2218,6647
2159,6672
2454,7264
2393,7230
2512,7524
2502,7516
2608,7943
2156,6794
2155,6826
2154,6855
2213,6871
2212,6883
2211,6931
2210,6972
2264,6979
2324,7013
2323,7029
2030,65535
2094,65535
2157,6758
2450,7921
2388,7970
2387,8038
2326,8075
2266,8110
2265,7454
2508,7892
2396,6508
2335,6526
2334,6537
2158,6697
2279,8666
2278,8630
2222,8599
2221,8581
2276,8563
2275,4479
2261,7286
2207,7323
2149,65535
2554,7406
2599,7438
2633,7484
2664,9171
2689,9229
2690,9335
2691,9373
2692,9406
2152,6967
2089,7046
2088,7034
2025,7179
2603,65535
2602,65535
2556,65535
2693,65535
2671,65535
2670,65535
2694,65535
2553,65535
2665,65535
2705,65535
2710,65535
2668,65535
2639,65535
2463,6586
2521,6622
2572,6645
2451,7806
2390,7775
2391,7595
2392,7558
2215,7800
2268,65535
2093,65535
2092,65535
2028,65535
2024,8857
2150,8283
2086,8331
2209,8265
2023,8433
2087,8386
2148,8599
2262,7272
2327,65535
1560,1724
1630,1703
1631,1764
1559,1701
1629,1689
1558,1593
1634,1789
1633,1751
1482,1760
1481,1740
1699,1744
1700,1861
1701,1877
1563,1740
2070,1858
2008,1798
2009,1794
1959,1797
1958,1793
2006,1776
1957,1758
1956,1712
2193,1986
2132,1926
1912,1813
1911,1815
1865,2047
1866,1960
2007,1835
2069,1841
2010,1833
2011,1885
1961,1823
2072,1849
1913,1900
1867,1971
1962,1856
1914,1865
1915,1961
1909,1939
1636,1832
1635,1821
1564,1764
1702,1865
1637,1855
1638,1882
1565,1806
1486,1787
1760,1896
1704,1848
1703,1841
1763,1925
1762,1889
1817,1962
1705,1903
1863,1834
1815,1859
1759,1846
863,3248
758,3341
808,3292
982,3463
1036,3470
1099,3505
1100,3533
1166,3934
1167,4429
1237,4086
1238,4121
1375,4191
1308,4260
1309,4169
1236,4387
1235,4021
1101,3564
1037,3501
971,3044
1025,3027
1026,3042
1027,3055
1089,3068
720,3304
674,3350
864,3130
865,3151
919,3046
1024,2991
975,3165
974,3135
1028,3090
873,3490
925,3436
924,3413
917,3110
918,3086
623,3525
712,3397
713,3430
667,3435
622,3493
809,3278
719,3278
765,3239
972,3076
868,3188
869,3200
815,3219
920,3334
973,3121
981,3414
926,3515
927,3523
928,3547
1354,2997
1288,2981
1218,2957
1152,3026
1023,2955
1353,2981
1085,2935
1148,2865
1147,2858
1082,2809
772,3576
771,3533
819,3508
584,3424
628,3391
629,3380
1033,3311
978,3266
1031,3239
1030,3193
1029,3176
1091,3153
1035,3392
1034,3335
979,3293
1526,4310
1449,4348
1378,4376
1448,4299
1524,4277
1038,3548
1447,4340
1768,1976
1710,1994
1767,1987
391,1981
365,1942
339,1928
400,1966
393,2024
392,1998
396,2049
399,1991
443,2011
449,2135
450,2120
419,1996
414,2067
415,2043
387,2065
388,2000
389,1993
282,1945
281,1976
314,1923
313,1903
405,1735
411,2132
442,2091
255,1854
376,1922
373,1879
278,1885
275,2010
248,2039
335,2109
334,2093
306,2065
307,2041
176,1936
225,1895
320,1849
249,1961
287,1876
285,1855
776,1774
731,1782
315,1931
316,1914
204,1906
440,1757
439,1769
166,3345
269,3262
383,3200
1247,65535
1246,65535
1384,65535
1679,65535
1178,6048
1105,5846
1172,5853
1173,5864
1242,5901
1241,5930
1314,6149
1313,6055
1171,5913
1382,6255
1243,5946
1317,6336
1107,5891
1108,5899
1109,5956
1041,5860
1043,6156
1042,6147
1044,6210
1176,5949
1174,9103
1177,6001
1110,6009
985,5992
986,6035
932,6053
774,1804
730,1799
825,1812
728,1839
729,1820
727,1981
682,1836
684,1818
685,1798
732,1778
683,1942
2134,2083
2194,2073
2068,1883
2129,1937
1905,1695
1907,1644
1906,1634
1953,1683
2002,1759
2064,1780
2125,1831
2137,2307
2196,2260
2195,2217
1859,1626
1810,1682
1755,1712
2131,1907
2192,1944
1862,1794
1861,1747
1812,1629
1860,1729
1809,1582
1756,1658
1869,2052
1822,1975
1821,1989
1916,2083
1819,1955
1764,1916
1820,1976
1698,1687
1757,1677
1566,1873
1567,1889
1488,1862
1489,1879
1412,1835
1413,1841
1414,1862
1818,2001
1568,1897
1410,1793
2128,1960
2189,2001
2066,1871
2065,1869
2067,1934
1643,1994
1571,1946
1491,1909
2004,1917
2003,1814
1697,1720
2135,2717
2075,2677
1642,1972
1955,1683
2130,1957
2005,1728
1858,1710
1816,8488
1864,8481
1766,2007
1910,1926
1868,2075
2188,2106
2127,2077
1903,1645
2001,1798
2063,1831
2062,1692
1813,1856
1758,1793
1639,1918
1640,1960
1952,1661
2126,8570
1569,1985
1965,2113
1966,2159
2014,2292
1490,1874
1917,2041
1870,2004
1871,2014
1570,1931
1707,1968
2076,2358
2013,2726
1964,2233
1487,1837
1908,1936
2251,3681
2199,3625
2198,3488
2136,2740
1641,1993
1954,1783
1765,2029
1857,1679
2187,1996
1904,1670
1856,1605
1951,1595
1708,2763
245,8799
244,8782
357,8786
246,8914
247,8943
197,9037
223,9015
44,9379
43,9439
3,9575
23,9549
22,9538
63,9321
85,9263
84,9218
108,8718
149,8672
172,9063
296,8766
294,8814
355,8914
354,8946
326,9024
295,8923
291,8935
293,9057
260,8943
356,8974
441,8574
412,8597
329,8932
300,8876
148,8646
214,8884
146,8767
110,8848
262,8909
258,9322
292,9085
257,9387
235,8907
187,8807
212,8863
211,8890
186,8811
162,8785
161,8864
165,8763
189,8963
238,9044
237,9009
263,8945
265,8964
266,8942
267,8930
268,8770
26,9539
25,9507
105,65535
62,65535
83,65535
126,8885
175,9320
152,9254
151,9244
150,9203
103,8823
242,8716
191,8670
192,8721
217,8744
218,8797
145,8707
144,8791
167,8699
190,8677
219,8814
159,8911
185,8855
158,8968
188,8799
160,8876
143,65535
122,65535
75,65535
54,65535
198,9448
270,8811
221,8852
301,8909
302,8746
330,8773
331,8795
115,8847
133,8906
139,8803
134,8880
114,9404
48,65535
69,65535
92,9080
164,8873
4,65535
107,9225
129,9310
109,8750
125,8791
124,8765
127,65535
82,65535
67,65535
91,9248
93,9047
137,9182
113,9202
112,9160
136,65535
49,65535
72,65535
71,65535
406,1801
805,7090
858,6895
859,7036
967,2514
1142,2649
1080,6735
1022,6776
1079,6768
968,6891
1206,2606
915,7042
916,7077
914,7014
807,7129
911,8236
1078,6992
1207,2664
1278,2708
1277,2711
1344,2731
1415,2772
1492,2827
1345,2788
1346,2758
1208,2656
1209,2736
1143,2773
1144,2789
1145,2804
1417,2784
1493,2844
1494,2863
1572,2878
1081,7061
970,7264
408,1848
382,1818
437,1785
467,1782
409,1807
403,1906
432,1989
433,1831
404,1751
352,1892
351,1909
349,1863
317,1885
374,1883
346,1919
283,1919
410,1879
438,1870
465,1753
490,1792
491,1762
435,1775
436,1761
379,1863
323,1937
289,1969
377,1791
378,1814
592,2044
593,2085
552,1841
445,1938
424,2059
423,2016
416,2040
361,2034
362,2007
371,2067
372,2049
343,1963
344,1960
286,1970
227,1969
252,1916
284,1876
318,1969
250,1904
312,1908
340,1925
368,1964
369,2012
370,2080
341,1974
367,1980
308,2033
276,2025
277,2005
280,1938
310,1903
338,1950
366,2004
274,2085
305,2077
420,2050
363,2024
418,1994
550,7081
579,7104
576,7049
577,7061
578,7077
520,7057
618,7071
662,7101
619,7088
620,7101
621,7095
665,7077
666,7069
664,7097
580,7116
2260,65535
2257,65535
2206,65535
2146,65535
2314,65535
2313,65535
2312,65535
2373,65535
2256,65535
2205,65535
2434,65535
2435,65535
2375,65535
2376,65535
2433,65535
2491,65535
2490,65535
2492,65535
2546,65535
2597,65535
2596,65535
2544,65535
2145,65535
2082,65535
2020,65535
2494,65535
0,65535
11,65535
1052,4468
1053,4455
941,4445
1740,1932
1796,1973
1615,1835
1681,1876
1545,1796
1797,2020
1544,1810
1741,1988
1795,2170
1617,1796
1546,1801
1616,1813
1683,1908
1467,1770
1547,1775
1465,1845
1387,1881
1388,1842
1464,1906
1462,2059
1461,2080
1542,2144
1463,2023
1682,1887
1543,1865
1618,1788
1742,2080
1460,2246
1248,1890
1850,1247
1801,1248
1803,1226
882,1759
881,1768
938,1818
883,1779
940,7158
1998,1373
1902,1501
1807,1478
1691,1228
1694,1530
1693,1312
1749,1147
1752,1246
1753,1491
1627,1561
1628,1574
1557,1619
1479,1523
1402,1497
1808,1497
1946,1435
1947,1380
1948,1342
1997,1382
1855,1540
1690,1186
2060,1557
1949,1836
1950,1475
1751,1209
1692,1296
1999,1422
1901,1305
1900,1246
1852,61
1853,80
1805,1066
1750,1135
1854,1333
1806,1251
1748,1267
2061,1604
2000,1534
1804,1211
1899,0
2884,65535
2892,65535
2883,65535
2876,65535
2874,65535
2882,65535
2877,65535
2911,65535
2905,65535
2906,65535
2896,65535
2887,65535
2881,65535
2880,65535
2888,65535
2902,65535
2903,65535
2907,65535
2912,65535
2895,65535
2894,65535
2875,65535
2885,65535
2893,65535
2904,65535
2865,65535
2866,65535
2909,65535
2913,65535
2886,65535
2878,65535
2869,65535
2871,65535
2872,65535
2879,65535
2870,65535
1330,1595
1331,1542
1401,1522
1262,1580
1263,1549
1478,1506
1403,1514
1261,1631
1480,1547
1264,1543
1390,1753
1389,1798
1319,1775
1251,1862
1250,1948
1285,2900
1284,2886
1214,2858
1146,2822
1505,3107
1504,3041
1582,3079
1581,3007
1713,2986
1771,2968
1654,3118
1653,3091
1651,3043
2096,4222
2033,4182
1972,4153
1923,4085
1922,4063
1874,3757
1873,3470
1919,3423
1829,6134
1579,2943
1424,2947
1711,2960
1348,2784
1419,2804
1359,3211
1429,3162
1428,3148
1421,2861
1577,2895
1499,2868
1230,3455
1365,3392
1511,3314
1300,3437
1366,3409
1512,3342
1716,3176
1503,3229
1276,2738
1347,2768
1349,2816
1645,2952
1578,2930
1770,2964
1715,3019
1150,2923
1217,2937
1149,2899
1580,2989
1352,2976
1502,3007
1825,3376
1718,3331
1717,3305
1872,3409
1656,3220
1648,2995
1712,2972
1213,2848
1212,2829
1084,2870
1420,2850
1281,2774
1282,2835
1587,3214
1586,3181
1585,3170
1652,3138
1427,3316
1975,4257
1977,4325
1932,4395
1931,5020
1426,3036
1422,2878
1425,3021
1583,3107
1501,2965
1283,2876
1286,2923
1215,2908
1211,2805
1210,2779
1083,2841
1655,3209
2220,4457
1355,5891
1772,2977
1436,3360
1435,3350
1589,3283
1163,3488
1735,4608
1791,4541
1841,4518
1840,4474
1219,3040
1220,3079
1647,2981
1646,2973
1279,2726
1714,2996
1575,2955
1576,2917
1498,2925
1573,2967
1496,2985
1497,2956
2177,2965
2176,3035
2294,2952
2293,3071
2237,3012
2236,3041
2364,2813
2302,2753
2301,2675
2245,2577
2056,2707
2057,2793
2055,2686
2184,2738
2120,2744
2244,2658
2538,2998
2537,2979
2591,3095
1940,2870
1989,2878
1990,2814
2539,2998
2482,2989
2483,2951
2424,2847
2121,2805
2119,2618
2050,2927
2049,3005
2048,3423
2185,2771
2243,2497
2299,2711
2241,2660
2485,3029
2542,3084
2353,3043
2292,2950
2419,2837
2478,2884
2479,2919
2536,2946
2484,2990
2486,2983
2354,2882
2416,3059
2242,2705
2355,2920
2300,2718
1991,2818
1992,2825
2477,2875
2534,2896
2535,3011
2588,2916
2587,2930
2630,2981
2051,2739
2116,2633
2175,3068
2586,65535
2541,3151
2178,2940
2179,2743
2240,2690
2239,2914
2238,2984
2052,2870
2053,2836
1987,3110
1988,2958
1939,2982
2594,3101
2593,3086
2358,2804
2357,2814
2420,2870
2247,2866
2427,2956
2428,2978
2181,2537
2180,2586
2417,2864
2590,3076
2297,2699
2361,2891
2362,2774
2423,2862
2422,2827
2174,3298
2356,2925
1941,2859
2365,2990
2112,3303
2047,3445
2182,2676
2359,2753
2533,3691
2295,3016
2115,2706
2632,3136
2631,3075
2186,2923
2298,2785
2360,2809
2235,3261
2291,3274
2487,3205
2246,2798
2425,3606
2117,2930
2543,3158
1893,65535
2421,2962
2476,2880
2592,3134
604,7066
