middle_point_id,reach_time_minutes
2835,65535
2836,65535
2806,65535
2822,65535
2823,65535
2807,65535
2846,65535
887,804
888,778
1326,760
1185,639
999,770
1057,917
1552,454
1120,664
1473,523
944,918
832,770
1257,719
1396,739
1622,475
1327,904
1184,620
1183,639
1324,575
1255,591
1394,522
1252,743
1253,760
1182,765
1328,65535
1470,540
1321,714
1322,655
1323,605
1391,726
1551,472
1393,580
1472,504
1471,517
1181,1934
1118,778
1059,689
1121,669
1469,645
1468,703
1548,599
1325,697
1625,471
1623,436
1258,767
1256,854
791,762
891,708
703,825
704,851
660,841
1553,459
1624,464
1554,470
1474,480
1475,573
1550,482
1549,534
1320,770
1466,767
1541,1555
1318,785
1249,806
1186,702
1003,696
1002,701
741,762
788,736
434,894
697,771
752,880
1056,792
1006,753
907,1225
518,897
1011,817
1000,728
1055,2102
997,2071
994,1965
996,2037
995,2021
991,1812
1112,4445
1114,2052
1051,2015
1398,612
1395,750
1001,709
1811,503
1960,670
1769,1345
1823,1334
1329,65535
1332,714
1259,2216
1200,815
1199,813
1140,1023
1141,1252
783,779
1689,417
1802,330
1945,476
2183,958
2418,1407
1994,512
1995,908
2059,217
1621,65535
1555,576
1754,521
1180,1343
1106,3045
933,3206
827,908
2122,1373
2124,421
493,935
519,921
544,891
545,896
494,928
470,1003
543,895
469,1284
517,903
574,900
573,873
495,1258
546,902
613,849
612,852
492,926
572,872
571,919
570,1244
610,884
575,943
547,1358
516,1283
611,861
542,1268
569,1315
609,898
548,1430
549,1459
1404,739
1405,713
1266,751
1193,827
743,748
742,742
747,797
746,772
745,764
744,748
790,757
789,740
839,769
838,730
738,787
739,769
740,756
890,730
834,758
784,767
889,737
856,1343
855,1320
854,1328
853,1343
852,1242
910,1312
909,1301
908,1290
964,1252
965,1284
1020,1343
966,1321
963,1231
1021,1370
1271,811
1270,809
1339,818
1338,810
1071,835
1072,844
1135,830
1408,825
1337,758
1269,780
1268,770
1136,848
1075,909
1077,1014
1076,973
1019,942
1018,933
1074,872
1137,864
1272,831
1274,984
1275,1250
1205,1293
1204,1277
1273,956
1198,856
1197,778
1341,885
1134,789
1133,785
1069,781
1132,777
1073,862
1203,1281
1202,942
1201,926
1139,977
1267,754
1138,1312
1340,839
1196,769
1342,1214
1409,766
1485,759
1407,745
1561,616
1632,611
1484,794
1483,653
1562,621
1194,783
1130,791
1195,781
1335,746
1129,811
1066,815
1128,801
1067,811
1131,782
1334,794
1336,739
1265,756
1333,719
1406,684
857,2268
803,3562
804,7039
860,7047
969,7000
913,6987
912,6925
861,7057
806,7100
659,833
751,864
658,841
705,855
702,823
706,866
753,884
614,844
701,807
661,853
616,848
848,925
796,877
797,888
798,897
750,848
707,873
615,881
748,871
845,843
846,933
657,852
749,837
795,878
617,891
663,896
794,824
847,894
849,930
902,943
901,917
900,893
793,794
899,832
898,806
897,812
844,833
842,778
841,768
956,875
792,778
843,800
840,778
850,969
903,932
800,969
755,957
756,1254
710,971
711,1498
962,983
961,977
904,940
906,1196
851,1192
802,1005
801,980
799,963
959,932
1014,856
1013,915
708,912
709,940
754,929
757,1331
1017,904
1016,892
960,896
905,996
958,947
957,1249
1070,813
1015,877
1012,800
1068,819
1005,736
1004,708
1060,692
1063,763
1065,791
1127,797
1062,771
1124,746
1123,732
1125,757
1188,780
1122,704
1058,680
947,725
946,739
949,712
945,769
948,699
1190,836
1187,794
951,761
895,771
952,787
1009,839
1008,818
1010,838
1007,773
1061,734
954,823
896,801
953,832
1126,800
1064,772
1189,814
955,1200
950,747
892,712
786,734
836,730
837,726
787,732
700,826
655,848
654,826
653,789
698,775
699,775
608,860
696,769
656,845
833,766
785,746
835,752
693,778
894,781
893,740
1343,1272
1192,816
1191,755
828,898
829,884
780,830
830,879
779,881
782,780
529,1354
886,817
596,1371
556,1386
598,1324
597,1343
526,1392
555,1410
525,1404
524,1418
523,1428
688,850
607,890
650,1327
651,1273
652,1330
737,795
694,784
695,776
645,839
646,823
690,799
600,849
599,870
781,785
736,795
558,1350
644,847
643,880
648,811
692,789
691,801
513,1381
541,1314
540,1354
568,1374
530,1369
831,804
559,1361
560,1410
642,1363
557,1384
496,1480
471,1497
444,1600
446,1526
528,1361
527,1375
562,1341
602,1304
734,846
466,1328
464,1349
463,1375
478,1494
481,1432
480,1481
479,1469
647,813
488,1377
502,1369
689,846
533,1351
532,1377
531,1401
601,1279
484,978
508,1369
510,1331
509,1344
534,1378
482,1446
506,1400
606,1325
455,1558
429,1381
456,1654
457,1431
428,1443
458,1409
554,1524
594,1523
640,1347
639,1489
551,1470
681,1534
636,1522
635,1499
590,1474
778,905
777,912
485,973
486,964
462,1274
563,1356
885,828
943,1331
564,1373
641,1341
504,1384
503,1377
501,1398
500,1437
561,1398
254,1440
350,1392
321,1401
319,1392
251,1455
375,1116
347,1351
687,863
565,1404
539,1422
511,1374
536,1420
649,1317
603,1335
605,1886
733,882
735,799
489,1374
514,1367
461,1436
460,1465
459,1441
468,1316
154,1585
178,1566
203,1543
228,1507
402,1051
401,1343
505,1405
522,1462
451,1727
452,1696
477,1501
476,1442
483,1546
884,1373
431,975
430,1344
454,1720
595,1427
395,1620
394,1646
422,1681
417,1576
390,1584
538,1427
567,1400
426,1862
397,1554
398,1584
499,1533
475,1474
497,1444
498,1471
311,1454
342,1456
345,1401
421,1696
515,1384
472,1596
448,1621
473,1647
474,1662
353,1399
381,1379
256,1521
290,1471
324,1409
380,1426
407,1354
253,1501
226,1528
201,1554
177,1591
824,1376
775,1311
826,919
939,1327
936,1798
937,1393
880,1380
566,1575
2821,65535
2834,65535
2833,65535
2789,65535
2790,65535
2770,65535
2788,65535
2776,65535
2795,65535
2775,65535
2794,65535
2825,65535
2824,65535
2826,65535
2811,65535
2812,65535
2796,65535
2827,65535
2858,65535
2855,65535
2849,65535
2838,65535
2814,65535
2813,65535
2828,65535
2839,65535
2791,65535
2792,65535
2803,65535
2830,65535
2815,65535
2819,65535
2818,65535
2817,65535
2831,65535
2810,65535
2829,65535
2783,65535
2820,65535
2804,65535
2785,65535
2784,65535
2762,65535
2768,65535
2751,65535
2750,65535
2733,65535
2769,65535
2720,65535
2761,65535
2741,65535
2837,65535
2793,65535
2808,65535
2753,65535
2736,65535
2735,65535
2809,65535
2772,65535
2845,65535
2844,65535
2848,65535
2777,65535
2778,65535
2779,65535
2759,65535
2780,65535
2797,65535
2843,65535
2832,65535
2842,65535
2758,65535
2738,65535
2774,65535
2773,65535
2771,65535
2851,65535
2847,65535
2854,65535
2721,65535
2756,65535
2737,65535
2840,65535
2752,65535
2754,65535
2755,65535
2852,65535
2853,65535
2856,65535
2841,65535
2742,65535
2727,65535
2744,65535
2726,65535
2743,65535
2725,65535
2746,65535
2787,65535
2766,65535
2763,65535
2765,65535
2745,65535
2764,65535
2552,65535
2501,65535
2443,65535
2442,65535
2320,65535
2381,65535
2382,65535
2498,65535
2499,65535
2438,65535
2439,65535
2497,65535
2441,65535
2379,65535
2380,65535
2319,65535
2551,65535
2550,65535
2563,7557
2321,7093
2322,7062
2383,7074
2384,7280
2446,7322
2445,7329
2503,7348
2385,7313
2504,7678
2505,7700
2557,7724
2558,7749
2559,7773
2560,7737
2564,7905
2562,7625
2561,7665
2605,7680
2609,7952
2565,8028
2566,8044
2515,8055
2397,6439
2457,8085
2458,8107
2401,6516
2337,6352
2336,6356
2399,6398
2398,6419
2402,6576
2333,6576
2273,6611
2219,6635
2218,6647
2159,6672
2454,7264
2393,7230
2512,7524
2502,7516
2608,7943
2156,6794
2155,6826
2154,6855
2213,6871
2212,6883
2211,6931
2210,6972
2264,6979
2324,7013
2323,7029
2030,65535
2094,65535
2157,6758
2450,7921
2388,7970
2387,8038
2326,8075
2266,8110
2265,7454
2508,7892
2396,6508
2335,6526
2334,6537
2158,6697
2279,8666
2278,8630
2222,8599
2221,8581
2276,8563
2275,4479
2261,7286
2207,7323
2149,65535
2554,7406
2599,7438
2633,7484
2664,9171
2689,9229
2690,9335
2691,9373
2692,9406
2152,6967
2089,7046
2088,7034
2025,7179
2603,65535
2602,65535
2556,65535
2693,65535
2671,65535
2670,65535
2694,65535
2553,65535
2665,65535
2705,65535
2710,65535
2668,65535
2639,65535
2463,6586
2521,6622
2572,6645
2451,7806
2390,7775
2391,7595
2392,7558
2215,7800
2268,65535
2093,65535
2092,65535
2028,65535
2024,8857
2150,8283
2086,8331
2209,8265
2023,8433
2087,8386
2148,8599
2262,7272
2327,65535
1560,623
1630,698
1631,669
1559,791
1629,891
1558,684
1634,643
1633,636
1482,658
1481,645
1699,607
1700,625
1701,701
1563,649
2070,691
2008,687
2009,684
1959,672
1958,698
2006,730
1957,710
1956,662
2193,802
2132,741
1912,700
1911,680
1865,1277
1866,877
2007,717
2069,701
2010,693
2011,709
1961,688
2072,709
1913,817
1867,888
1962,713
1914,720
1915,763
1909,614
1636,710
1635,698
1564,666
1702,752
1637,734
1638,774
1565,722
1486,736
1760,954
1704,788
1703,752
1763,818
1762,800
1817,888
1705,1216
1863,1310
1815,1386
1759,645
863,3248
758,3341
808,3292
982,3463
1036,3470
1099,3505
1100,3533
1166,3934
1167,4429
1237,4086
1238,4121
1375,4191
1308,4260
1309,4169
1236,4387
1235,4021
1101,3564
1037,3501
971,3044
1025,3027
1026,3042
1027,3055
1089,3068
720,3304
674,3350
864,3130
865,3151
919,3046
1024,2991
975,3165
974,3135
1028,3090
873,3490
925,3436
924,3413
917,3110
918,3086
623,3525
712,3397
713,3430
667,3435
622,3493
809,3278
719,3278
765,3239
972,3076
868,3188
869,3200
815,3219
920,3334
973,3121
981,3414
926,3515
927,3523
928,3547
1354,2997
1288,2981
1218,2957
1152,3026
1023,2955
1353,2981
1085,2935
1148,2865
1147,2858
1082,2809
772,3576
771,3533
819,3508
584,3424
628,3391
629,3380
1033,3311
978,3266
1031,3239
1030,3193
1029,3176
1091,3153
1035,3392
1034,3335
979,3293
1526,4310
1449,4348
1378,4376
1448,4299
1524,4277
1038,3548
1447,4340
1768,1338
1710,1361
1767,1336
391,1568
365,1522
339,1505
400,1466
393,1692
392,1670
396,1598
399,1484
443,1656
449,1754
450,1759
419,1670
414,1709
415,1650
387,1643
388,1612
389,1592
282,1500
281,1520
314,1592
313,1580
405,1334
411,1714
442,1673
255,1450
376,1354
373,1373
278,1465
275,1534
248,1582
335,1667
334,1641
306,1586
307,1574
176,1576
225,1514
320,1409
249,1572
287,1412
285,1436
776,922
731,979
315,1489
316,1470
204,1584
440,1293
439,1328
166,1905
269,1822
383,1760
1247,4390
1246,4412
1384,4496
1679,4658
1178,4383
1105,3049
1172,3068
1173,3118
1242,3120
1241,3112
1314,3269
1313,3175
1171,3094
1382,3375
1243,3317
1317,3456
1107,3057
1108,3236
1109,3521
1041,3066
1043,3276
1042,3267
1044,3330
1176,4284
1174,3343
1177,4332
1110,4339
985,3112
986,3155
932,3173
774,1370
730,1267
825,975
728,1359
729,1301
727,1539
682,1356
684,1338
685,1258
732,1320
683,1342
2134,1255
2194,1284
2068,661
2129,626
1905,436
1907,563
1906,522
1953,243
2002,319
2064,340
2125,391
2137,1396
2196,1352
2195,1307
1859,487
1810,496
1755,668
2131,766
2192,780
1862,1299
1861,608
1812,554
1860,577
1809,498
1756,512
1869,1288
1822,1327
1821,1351
1916,1250
1819,1317
1764,1235
1820,1352
1698,563
1757,548
1566,756
1567,801
1488,816
1489,1257
1412,1248
1413,1281
1414,1290
1818,1279
1568,1316
1410,770
2128,617
2189,637
2066,431
2065,429
2067,578
1643,1372
1571,1315
1491,1305
2004,477
2003,374
1697,541
2135,1277
2075,1336
1642,1360
1955,601
2130,828
2005,770
1858,445
1816,8488
1864,8481
1766,1321
1910,654
1868,1284
2188,841
2127,811
1903,431
2001,358
2063,391
2062,252
1813,597
1758,617
1639,885
1640,1342
1952,221
2126,8570
1569,1346
1965,1506
1966,1525
2014,1465
1490,1297
1917,1270
1870,1317
1871,1362
1570,1313
1707,1326
2076,1382
2013,1574
1964,1352
1487,748
1908,1249
2251,3681
2199,3625
2198,3488
2136,1326
1641,1473
1954,1306
1765,1284
1857,491
2187,556
1904,470
1856,405
1951,155
1708,1534
245,8799
244,8782
357,8786
246,8914
247,8943
197,9037
223,9015
44,9379
43,9439
3,9575
23,9549
22,9538
63,9321
85,9263
84,9218
108,8718
149,8672
172,9063
296,8766
294,8814
355,8914
354,8946
326,9024
295,8923
291,8935
293,9057
260,8943
356,8974
441,8574
412,8597
329,8932
300,8876
148,8646
214,8884
146,8767
110,8848
262,8909
258,9322
292,9085
257,9387
235,8907
187,8807
212,8863
211,8890
186,8811
162,8785
161,8864
165,8763
189,8963
238,9044
237,9009
263,8945
265,8964
266,8942
267,8930
268,8770
26,9539
25,9507
105,65535
62,65535
83,65535
126,8885
175,9320
152,9254
151,9244
150,9203
103,8823
242,8716
191,8670
192,8721
217,8744
218,8797
145,8707
144,8791
167,8699
190,8677
219,8814
159,8911
185,8855
158,8968
188,8799
160,8876
143,65535
122,65535
75,65535
54,65535
198,9448
270,8811
221,8852
301,8909
302,8746
330,8773
331,8795
115,8847
133,8906
139,8803
134,8880
114,9404
48,65535
69,65535
92,9080
164,8873
4,65535
107,9225
129,9310
109,8750
125,8791
124,8765
127,65535
82,65535
67,65535
91,9248
93,9047
137,9182
113,9202
112,9160
136,65535
49,65535
72,65535
71,65535
406,1425
805,7090
858,6895
859,7036
967,2514
1142,2649
1080,6735
1022,6776
1079,6768
968,6891
1206,2606
915,7042
916,7077
914,7014
807,7129
911,8236
1078,6992
1207,2664
1278,2708
1277,2711
1344,2731
1415,2772
1492,2827
1345,2788
1346,2758
1208,2656
1209,2736
1143,2773
1144,2789
1145,2804
1417,2784
1493,2844
1494,2863
1572,2878
1081,7061
970,7264
408,1373
382,1401
437,1349
467,1360
409,1354
403,1309
432,1353
433,1334
404,1411
352,1426
351,1405
349,1366
317,1602
374,1343
346,1434
283,1472
410,1346
438,1363
465,1352
490,1339
491,1297
435,1356
436,1374
379,1476
323,1547
289,1577
377,1387
378,1360
592,1507
593,1545
552,1452
445,1577
424,1634
423,1666
416,1609
361,1639
362,1615
371,1531
372,1503
343,1425
344,1416
286,1803
227,1501
252,1494
284,1447
318,1429
250,1676
312,1460
340,1502
368,1541
369,1613
370,1722
341,1561
367,1552
308,1776
276,1514
277,1495
280,1488
310,1483
338,1530
366,1542
274,1596
305,1893
420,1718
363,1631
418,1695
550,7081
579,7104
576,7049
577,7061
578,7077
520,7057
618,7071
662,7101
619,7088
620,7101
621,7095
665,7077
666,7069
664,7097
580,7116
2260,65535
2257,65535
2206,65535
2146,65535
2314,65535
2313,65535
2312,65535
2373,65535
2256,65535
2205,65535
2434,65535
2435,65535
2375,65535
2376,65535
2433,65535
2491,65535
2490,65535
2492,65535
2546,65535
2597,65535
2596,65535
2544,65535
2145,65535
2082,65535
2020,65535
2494,65535
0,65535
11,65535
1052,2068
1053,2055
941,2095
1740,1008
1796,1050
1615,871
1681,949
1545,766
1797,1316
1544,825
1741,1241
1795,1202
1617,730
1546,755
1616,777
1683,809
1467,714
1547,701
1465,774
1387,928
1388,889
1464,909
1462,2059
1461,2080
1542,1971
1463,2023
1682,1209
1543,965
1618,722
1742,1374
1460,1770
1248,1302
1850,352
1801,338
1803,334
882,919
881,959
938,1338
883,1304
940,2838
1998,94
1902,0
1807,437
1691,417
1694,570
1693,1312
1749,386
1752,473
1753,498
1627,601
1628,614
1557,659
1479,703
1402,706
1808,475
1946,235
1947,170
1948,157
1997,139
1855,379
1690,406
2060,117
1949,447
1950,80
1751,453
1692,509
1999,89
1901,552
1900,616
1852,645
1853,524
1805,454
1750,441
1854,480
1806,466
1748,378
2061,164
2000,214
1804,367
1899,665
2884,65535
2892,65535
2883,65535
2876,65535
2874,65535
2882,65535
2877,65535
2911,65535
2905,65535
2906,65535
2896,65535
2887,65535
2881,65535
2880,65535
2888,65535
2902,65535
2903,65535
2907,65535
2912,65535
2895,65535
2894,65535
2875,65535
2885,65535
2893,65535
2904,65535
2865,65535
2866,65535
2909,65535
2913,65535
2886,65535
2878,65535
2869,65535
2871,65535
2872,65535
2879,65535
2870,65535
1330,755
1331,722
1401,718
1262,743
1263,737
1478,719
1403,735
1261,862
1480,844
1264,762
1390,762
1389,801
1319,779
1251,1245
1250,1321
1285,2900
1284,2886
1214,2858
1146,2822
1505,3107
1504,3041
1582,3079
1581,3007
1713,2986
1771,2968
1654,3118
1653,3091
1651,3043
2096,4222
2033,4182
1972,4153
1923,4085
1922,4063
1874,3757
1873,3470
1919,3423
1829,6134
1579,2943
1424,2947
1711,2960
1348,2784
1419,2804
1359,3211
1429,3162
1428,3148
1421,2861
1577,2895
1499,2868
1230,3455
1365,3392
1511,3314
1300,3437
1366,3409
1512,3342
1716,3176
1503,3229
1276,2738
1347,2768
1349,2816
1645,2952
1578,2930
1770,2964
1715,3019
1150,2923
1217,2937
1149,2899
1580,2989
1352,2976
1502,3007
1825,3376
1718,3331
1717,3305
1872,3409
1656,3220
1648,2995
1712,2972
1213,2848
1212,2829
1084,2870
1420,2850
1281,2774
1282,2835
1587,3214
1586,3181
1585,3170
1652,3138
1427,3316
1975,4257
1977,4325
1932,4395
1931,5020
1426,3036
1422,2878
1425,3021
1583,3107
1501,2965
1283,2876
1286,2923
1215,2908
1211,2805
1210,2779
1083,2841
1655,3209
2220,4457
1355,5891
1772,2977
1436,3360
1435,3350
1589,3283
1163,3488
1735,4608
1791,4541
1841,4518
1840,4474
1219,3040
1220,3079
1647,2981
1646,2973
1279,2726
1714,2996
1575,2955
1576,2917
1498,2925
1573,2967
1496,2985
1497,2956
2177,1525
2176,1595
2294,1512
2293,1631
2237,1572
2236,1601
2364,1373
2302,1313
2301,1235
2245,1137
2056,1267
2057,1353
2055,1246
2184,1298
2120,1304
2244,1218
2538,1558
2537,1539
2591,1655
1940,1430
1989,1438
1990,1374
2539,1558
2482,1549
2483,1511
2424,1407
2121,1365
2119,1178
2050,1487
2049,1565
2048,1983
2185,1331
2243,1057
2299,1271
2241,1220
2485,1589
2542,1644
2353,1603
2292,1510
2419,1397
2478,1444
2479,1479
2536,1506
2484,1550
2486,1543
2354,1442
2416,1619
2242,1265
2355,1480
2300,1278
1991,1378
1992,1385
2477,1435
2534,1456
2535,1571
2588,1476
2587,1490
2630,1541
2051,1299
2116,1193
2175,1628
2586,65535
2541,1711
2178,1500
2179,1303
2240,1250
2239,1474
2238,1544
2052,1430
2053,1396
1987,1670
1988,1518
1939,1542
2594,1661
2593,1646
2358,1364
2357,1374
2420,1430
2247,1426
2427,1516
2428,1538
2181,1097
2180,1146
2417,1424
2590,1636
2297,1259
2361,1451
2362,1334
2423,1422
2422,1387
2174,1858
2356,1485
1941,1419
2365,1550
2112,1863
2047,2005
2182,1236
2359,1313
2533,2251
2295,1576
2115,1266
2632,1696
2631,1635
2186,1483
2298,1345
2360,1369
2235,1821
2291,1834
2487,1765
2246,1358
2425,2166
2117,1490
2543,1718
1893,65535
2421,1522
2476,1440
2592,1694
604,7066
