middle_point_id,reach_time_minutes
2835,65535
2836,65535
2806,65535
2822,65535
2823,65535
2807,65535
2846,65535
887,1524
888,1529
1326,1529
1185,1509
999,1490
1057,1681
1552,1294
1120,1494
1473,1324
944,1536
832,1520
1257,1516
1396,1459
1622,1315
1327,1598
1184,1499
1183,1505
1324,1415
1255,1431
1394,1362
1252,1534
1253,1540
1182,1545
1328,65535
1470,1380
1321,1522
1322,1495
1323,1445
1391,1567
1551,1312
1393,1403
1472,1438
1471,1357
1181,2894
1118,1559
1059,1450
1121,1465
1469,1485
1468,1517
1548,1425
1325,1548
1625,1311
1623,1276
1258,1537
1256,1634
791,1469
891,1465
703,1437
704,1431
660,1433
1553,1299
1624,1304
1554,1310
1474,1320
1475,1427
1550,1322
1549,1374
1320,1570
1466,1562
1541,2195
1318,1639
1249,1661
1186,1494
1003,1434
1002,1455
741,1486
788,1472
434,1568
697,1510
752,1450
1056,1512
1006,1406
907,1439
518,1469
1011,1318
1000,1473
1055,4022
997,3991
994,3887
996,3957
995,3941
991,2772
1112,65535
1114,4230
1051,4195
1398,1572
1395,1470
1001,1464
1811,909
1960,845
1769,1256
1823,1247
1329,65535
1332,1194
1259,1736
1200,1255
1199,1255
1140,1398
1141,1401
783,1525
1689,1279
1802,1340
1945,1801
2183,3358
2418,3864
1994,1835
1995,1868
2059,1417
1621,65535
1555,1327
1754,1001
1180,2303
1106,5350
933,5606
827,1628
2122,4099
2124,1136
493,1477
519,1479
544,1467
545,1472
494,1481
470,1502
543,1471
469,1487
517,1479
574,1470
573,1459
495,1499
546,1481
613,1449
612,1452
492,1486
572,1465
571,1490
570,1495
610,1484
575,1527
547,1518
516,1508
611,1461
542,1495
569,1515
609,1495
548,1550
549,1579
1404,1191
1405,1174
1266,1196
1193,1307
743,1497
742,1475
747,1471
746,1480
745,1489
744,1468
790,1464
789,1458
839,1453
838,1464
738,1516
739,1510
740,1502
890,1481
834,1511
784,1522
889,1494
856,1559
855,1525
854,1510
853,1496
852,1456
910,1538
909,1546
908,1458
964,1442
965,1484
1020,1511
966,1498
963,1420
1021,1609
1271,1253
1270,1251
1339,1209
1338,1198
1071,1294
1072,1287
1135,1267
1408,1182
1337,1237
1269,1260
1268,1241
1136,1268
1075,1389
1077,1398
1076,1420
1019,1422
1018,1413
1074,1300
1137,1284
1272,1260
1274,1297
1275,1310
1205,1317
1204,1357
1273,1307
1198,1309
1197,1246
1341,1297
1134,1271
1133,1267
1069,1287
1132,1284
1073,1310
1203,1340
1202,1305
1201,1278
1139,1348
1267,1218
1138,1315
1340,1273
1196,1232
1342,1253
1409,1191
1485,1191
1407,1139
1561,1044
1632,988
1484,1129
1483,1093
1562,1055
1194,1263
1130,1282
1195,1246
1335,1185
1129,1301
1066,1311
1128,1391
1067,1298
1131,1277
1334,1274
1336,1219
1265,1231
1333,1199
1406,1163
857,1788
803,3082
804,6559
860,6567
969,6520
913,6507
912,6445
861,6577
806,6620
659,1434
751,1428
658,1447
705,1436
702,1453
706,1443
753,1444
614,1444
701,1459
661,1442
616,1448
848,1381
796,1421
797,1400
798,1393
750,1434
707,1473
615,1481
748,1468
845,1411
846,1393
657,1486
749,1454
795,1435
617,1491
663,1496
794,1463
847,1382
849,1410
902,1382
901,1398
900,1426
793,1482
899,1551
898,1530
897,1495
844,1453
842,1473
841,1465
956,1767
792,1471
843,1519
840,1464
850,1449
903,1365
800,1466
755,1493
756,1517
710,1573
711,1618
962,1403
961,1396
904,1380
906,1433
851,1448
802,1490
801,1469
799,1443
959,1352
1014,1304
1013,1288
708,1723
709,1698
754,1481
757,1811
1017,1361
1016,1356
960,1344
905,1416
958,1400
957,2226
1070,1273
1015,1325
1012,1304
1068,1302
1005,1417
1004,1427
1060,1436
1063,1420
1065,1352
1127,1408
1062,1439
1124,1463
1123,1452
1125,1457
1188,1500
1122,1482
1058,1454
947,1462
946,1490
949,1434
945,1502
948,1443
1190,1493
1187,1511
951,1402
895,1420
952,1398
1009,1388
1008,1381
1010,1303
1007,1396
1061,1443
954,1543
896,1447
953,1421
1126,1443
1064,1391
1189,1490
955,1781
950,1413
892,1456
786,1469
836,1465
837,1461
787,1467
700,1490
655,1517
654,1494
653,1516
698,1488
699,1524
608,1529
696,1492
656,1514
833,1516
785,1514
835,1508
693,1512
894,1425
893,1452
1343,1293
1192,1258
1191,1295
828,1624
829,1614
780,1610
830,1637
779,1601
782,1529
529,1654
886,1533
596,1671
556,1697
598,1620
597,1644
526,1691
555,1709
525,1714
524,1742
523,1719
688,1566
607,1539
650,1526
651,1514
652,1523
737,1519
694,1497
695,1502
645,1556
646,1552
690,1531
600,1575
599,1589
781,1536
736,1525
558,1650
644,1567
643,1573
648,1560
692,1527
691,1522
513,1587
541,1557
540,1595
568,1556
530,1668
831,1524
559,1648
560,1619
642,1701
557,1671
496,1748
471,1788
444,1872
446,1805
528,1661
527,1675
562,1617
602,1586
734,1566
466,1561
464,1553
463,1566
478,1794
481,1732
480,1728
479,1795
647,1604
488,1583
502,1669
689,1553
533,1623
532,1644
531,1701
601,1594
484,1667
508,1676
510,1666
509,1685
534,1681
482,1766
506,1700
606,1545
455,1850
429,1681
456,1822
457,1716
428,1710
458,1706
554,1712
594,1809
640,1707
639,2227
551,1740
681,2361
636,2352
635,2339
590,1762
778,1618
777,1622
485,1644
486,1623
462,1612
563,1656
885,1544
943,2291
564,1640
641,1701
504,1690
503,1682
501,1721
500,1750
561,1621
254,1689
350,1649
321,1646
319,1689
251,1700
375,1655
347,1703
687,1579
565,1670
539,1597
511,1645
536,1691
649,1583
603,1600
605,3070
733,1587
735,1544
489,1587
514,1600
461,1671
460,1701
459,1719
468,1482
154,1833
178,1790
203,1775
228,1745
402,1678
401,1695
505,1705
522,1756
451,2369
452,2363
477,1859
476,1901
483,1736
884,1654
431,1644
430,1657
454,2303
595,1729
395,1862
394,2209
422,2329
417,1836
390,1882
538,1570
567,1551
426,1775
397,1796
398,1762
499,2493
475,2434
497,1772
498,1789
311,1694
342,1714
345,1665
421,2247
515,1515
472,2376
448,2407
473,2432
474,2477
353,1637
381,1604
256,1741
290,1717
324,1672
380,1613
407,1607
253,1746
226,1771
201,2329
177,2326
824,1676
775,1646
826,1639
939,1687
936,2758
937,2255
880,1689
566,1683
2821,65535
2834,65535
2833,65535
2789,65535
2790,65535
2770,65535
2788,65535
2776,65535
2795,65535
2775,65535
2794,65535
2825,65535
2824,65535
2826,65535
2811,65535
2812,65535
2796,65535
2827,65535
2858,65535
2855,65535
2849,65535
2838,65535
2814,65535
2813,65535
2828,65535
2839,65535
2791,65535
2792,65535
2803,65535
2830,65535
2815,65535
2819,65535
2818,65535
2817,65535
2831,65535
2810,65535
2829,65535
2783,65535
2820,65535
2804,65535
2785,65535
2784,65535
2762,65535
2768,65535
2751,65535
2750,65535
2733,65535
2769,65535
2720,65535
2761,65535
2741,65535
2837,65535
2793,65535
2808,65535
2753,65535
2736,65535
2735,65535
2809,65535
2772,65535
2845,65535
2844,65535
2848,65535
2777,65535
2778,65535
2779,65535
2759,65535
2780,65535
2797,65535
2843,65535
2832,65535
2842,65535
2758,65535
2738,65535
2774,65535
2773,65535
2771,65535
2851,65535
2847,65535
2854,65535
2721,65535
2756,65535
2737,65535
2840,65535
2752,65535
2754,65535
2755,65535
2852,65535
2853,65535
2856,65535
2841,65535
2742,65535
2727,65535
2744,65535
2726,65535
2743,65535
2725,65535
2746,65535
2787,65535
2766,65535
2763,65535
2765,65535
2745,65535
2764,65535
2552,65535
2501,65535
2443,65535
2442,65535
2320,65535
2381,65535
2382,65535
2498,65535
2499,65535
2438,65535
2439,65535
2497,65535
2441,65535
2379,65535
2380,65535
2319,65535
2551,65535
2550,65535
2563,7077
2321,6613
2322,6582
2383,6594
2384,6800
2446,6842
2445,6849
2503,6868
2385,6833
2504,7198
2505,7220
2557,7244
2558,7269
2559,7293
2560,7257
2564,7425
2562,7145
2561,7185
2605,7200
2609,7472
2565,7548
2566,7564
2515,7575
2397,5959
2457,7605
2458,7627
2401,6036
2337,5872
2336,5876
2399,5918
2398,5939
2402,6096
2333,6096
2273,6131
2219,6155
2218,6167
2159,6192
2454,6784
2393,6750
2512,7044
2502,7036
2608,7463
2156,6314
2155,6346
2154,6375
2213,6391
2212,6403
2211,6451
2210,6492
2264,6499
2324,6533
2323,6549
2030,65535
2094,65535
2157,6278
2450,7441
2388,7490
2387,7558
2326,7595
2266,7630
2265,6974
2508,7412
2396,6028
2335,6046
2334,6057
2158,6217
2279,8186
2278,8150
2222,8119
2221,8101
2276,8083
2275,3999
2261,6806
2207,6843
2149,65535
2554,6926
2599,6958
2633,7004
2664,8691
2689,8749
2690,8855
2691,8893
2692,8926
2152,6487
2089,6566
2088,6554
2025,6699
2603,65535
2602,65535
2556,65535
2693,65535
2671,65535
2670,65535
2694,65535
2553,65535
2665,65535
2705,65535
2710,65535
2668,65535
2639,65535
2463,6106
2521,6142
2572,6165
2451,7326
2390,7295
2391,7115
2392,7078
2215,7320
2268,65535
2093,65535
2092,65535
2028,65535
2024,8377
2150,7803
2086,7851
2209,7785
2023,7953
2087,7906
2148,8119
2262,6792
2327,65535
1560,1071
1630,1147
1631,1108
1559,1186
1629,1209
1558,1205
1634,1058
1633,1023
1482,1147
1481,1102
1699,982
1700,1014
1701,1005
1563,1079
2070,898
2008,864
2009,853
1959,828
1958,810
2006,793
1957,782
1956,800
2193,1019
2132,961
1912,850
1911,854
1865,1168
1866,1081
2007,850
2069,856
2010,864
2011,907
1961,905
2072,889
1913,1021
1867,1092
1962,937
1914,955
1915,994
1909,757
1636,1020
1635,1038
1564,1047
1702,987
1637,1032
1638,1053
1565,1025
1486,1058
1760,962
1704,1076
1703,1056
1763,1146
1762,1168
1817,1207
1705,1102
1863,830
1815,925
1759,1081
863,2768
758,2861
808,2812
982,2983
1036,2990
1099,3025
1100,3053
1166,3454
1167,3949
1237,3606
1238,3641
1375,3711
1308,3780
1309,3689
1236,3907
1235,3541
1101,3084
1037,3021
971,2564
1025,2547
1026,2562
1027,2575
1089,2588
720,2824
674,2870
864,2650
865,2671
919,2566
1024,2511
975,2685
974,2655
1028,2610
873,3010
925,2956
924,2933
917,2630
918,2606
623,3045
712,2917
713,2950
667,2955
622,3013
809,2798
719,2798
765,2759
972,2596
868,2708
869,2720
815,2739
920,2854
973,2641
981,2934
926,3035
927,3043
928,3067
1354,2517
1288,2501
1218,2477
1152,2546
1023,2475
1353,2501
1085,2455
1148,2385
1147,2378
1082,2329
772,3096
771,3053
819,3028
584,2944
628,2911
629,2900
1033,2831
978,2786
1031,2759
1030,2713
1029,2696
1091,2673
1035,2912
1034,2855
979,2813
1526,3830
1449,3868
1378,3896
1448,3819
1524,3797
1038,3068
1447,3860
1768,1252
1710,1266
1767,1342
391,1862
365,1810
339,1762
400,1725
393,2350
392,2334
396,1836
399,1802
443,2431
449,2346
450,2313
419,2319
414,2472
415,2379
387,2372
388,2365
389,2310
282,1785
281,1762
314,1780
313,1736
405,1585
411,2674
442,2633
255,1723
376,1633
373,1690
278,1705
275,1768
248,1815
335,1879
334,1853
306,1825
307,1802
176,2356
225,1771
320,1664
249,1814
287,1666
285,1723
776,1636
731,1655
315,1718
316,1700
204,1815
440,1500
439,1515
166,2865
269,2782
383,2720
1247,65535
1246,65535
1384,65535
1679,65535
1178,5568
1105,5366
1172,5373
1173,5384
1242,5421
1241,5450
1314,5669
1313,5575
1171,5433
1382,5775
1243,5466
1317,5856
1107,5411
1108,5419
1109,5476
1041,5380
1043,5676
1042,5667
1044,5730
1176,5469
1174,8623
1177,5521
1110,5529
985,5512
986,5555
932,5573
774,1670
730,1652
825,1692
728,1674
729,1661
727,2403
682,1716
684,1698
685,1678
732,1658
683,2302
2134,1044
2194,1053
2068,924
2129,978
1905,897
1907,840
1906,853
1953,972
2002,1011
2064,1035
2125,1110
2137,1479
2196,1257
2195,1211
1859,889
1810,903
1755,1081
2131,940
2192,978
1862,851
1861,888
1812,928
1860,884
1809,984
1756,919
1869,1236
1822,1230
1821,1221
1916,1275
1819,1161
1764,1139
1820,1195
1698,973
1757,959
1566,1051
1567,1091
1488,1141
1489,1210
1412,1218
1413,1269
1414,1316
1818,1258
1568,1187
1410,1193
2128,984
2189,1114
2066,1013
2065,1325
2067,975
1643,1300
1571,1239
1491,1219
2004,1296
2003,1065
1697,1062
2135,1114
2075,1173
1642,1320
1955,814
2130,1000
2005,888
1858,923
1816,8008
1864,8001
1766,1209
1910,806
1868,1227
2188,1195
2127,1164
1903,1084
2001,1099
2063,1351
2062,1364
1813,1076
1758,1063
1639,1102
1640,1134
1952,1044
2126,8090
1569,1165
1965,1302
1966,1348
2014,1298
1490,1237
1917,1261
1870,1250
1871,1264
1570,1184
1707,1247
2076,1190
2013,1296
1964,1340
1487,1163
1908,0
2251,3201
2199,3145
2198,3008
2136,1163
1641,1338
1954,1048
1765,1176
1857,953
2187,1516
1904,1063
1856,1087
1951,1061
1708,1308
245,8319
244,8302
357,8306
246,8434
247,8463
197,8557
223,8535
44,8899
43,8959
3,9095
23,9069
22,9058
63,8841
85,8783
84,8738
108,8238
149,8192
172,8583
296,8286
294,8334
355,8434
354,8466
326,8544
295,8443
291,8455
293,8577
260,8463
356,8494
441,8094
412,8117
329,8452
300,8396
148,8166
214,8404
146,8287
110,8368
262,8429
258,8842
292,8605
257,8907
235,8427
187,8327
212,8383
211,8410
186,8331
162,8305
161,8384
165,8283
189,8483
238,8564
237,8529
263,8465
265,8484
266,8462
267,8450
268,8290
26,9059
25,9027
105,65535
62,65535
83,65535
126,8405
175,8840
152,8774
151,8764
150,8723
103,8343
242,8236
191,8190
192,8241
217,8264
218,8317
145,8227
144,8311
167,8219
190,8197
219,8334
159,8431
185,8375
158,8488
188,8319
160,8396
143,65535
122,65535
75,65535
54,65535
198,8968
270,8331
221,8372
301,8429
302,8266
330,8293
331,8315
115,8367
133,8426
139,8323
134,8400
114,8924
48,65535
69,65535
92,8600
164,8393
4,65535
107,8745
129,8830
109,8270
125,8311
124,8285
127,65535
82,65535
67,65535
91,8768
93,8567
137,8702
113,8722
112,8680
136,65535
49,65535
72,65535
71,65535
406,1625
805,6610
858,6415
859,6556
967,2034
1142,2169
1080,6255
1022,6296
1079,6288
968,6411
1206,2126
915,6562
916,6597
914,6534
807,6649
911,7756
1078,6512
1207,2184
1278,2228
1277,2231
1344,2251
1415,2292
1492,2347
1345,2308
1346,2278
1208,2176
1209,2256
1143,2293
1144,2309
1145,2324
1417,2304
1493,2364
1494,2383
1572,2398
1081,6581
970,6784
408,1589
382,1619
437,1572
467,1551
409,1606
403,1649
432,1638
433,1628
404,1634
352,1702
351,1661
349,1676
317,1769
374,1695
346,1693
283,1837
410,1537
438,1553
465,1572
490,1571
491,1497
435,1592
436,1565
379,1659
323,1821
289,1851
377,1670
378,1621
592,2306
593,2277
552,2268
445,2270
424,1817
423,2296
416,2370
361,2287
362,2298
371,1778
372,1748
343,2307
344,2324
286,2416
227,1748
252,1743
284,1709
318,1732
250,1755
312,1706
340,1724
368,1782
369,1876
370,2372
341,2313
367,1846
308,1788
276,1767
277,1748
280,1747
310,1714
338,1785
366,2340
274,2330
305,2532
420,2319
363,2292
418,2293
550,6601
579,6624
576,6569
577,6581
578,6597
520,6577
618,6591
662,6621
619,6608
620,6621
621,6615
665,6597
666,6589
664,6617
580,6636
2260,65535
2257,65535
2206,65535
2146,65535
2314,65535
2313,65535
2312,65535
2373,65535
2256,65535
2205,65535
2434,65535
2435,65535
2375,65535
2376,65535
2433,65535
2491,65535
2490,65535
2492,65535
2546,65535
2597,65535
2596,65535
2544,65535
2145,65535
2082,65535
2020,65535
2494,65535
0,65535
11,65535
1052,3988
1053,3975
941,3965
1740,1680
1796,1706
1615,1589
1681,1603
1545,1552
1797,1729
1544,1578
1741,1701
1795,2856
1617,1560
1546,1535
1616,1573
1683,1635
1467,1552
1547,1477
1465,1613
1387,1680
1388,1603
1464,1672
1462,2024
1461,2050
1542,2133
1463,1980
1682,1666
1543,1606
1618,1552
1742,2334
1460,2274
1248,1707
1850,1354
1801,1353
1803,1321
882,1639
881,1649
938,1698
883,1659
940,6678
1998,1297
1902,1171
1807,1089
1691,1227
1694,1152
1693,1381
1749,1278
1752,1167
1753,1098
1627,1088
1628,1214
1557,1259
1479,1170
1402,1186
1808,1067
1946,1435
1947,1370
1948,1357
1997,1331
1855,1161
1690,1242
2060,1375
1949,1407
1950,1262
1751,1210
1692,1349
1999,1289
1901,1415
1900,1456
1852,1605
1853,1484
1805,1294
1750,1223
1854,1320
1806,1288
1748,1314
2061,1416
2000,1414
1804,1306
1899,1625
2884,65535
2892,65535
2883,65535
2876,65535
2874,65535
2882,65535
2877,65535
2911,65535
2905,65535
2906,65535
2896,65535
2887,65535
2881,65535
2880,65535
2888,65535
2902,65535
2903,65535
2907,65535
2912,65535
2895,65535
2894,65535
2875,65535
2885,65535
2893,65535
2904,65535
2865,65535
2866,65535
2909,65535
2913,65535
2886,65535
2878,65535
2869,65535
2871,65535
2872,65535
2879,65535
2870,65535
1330,1235
1331,1202
1401,1198
1262,1223
1263,1217
1478,1197
1403,1215
1261,1326
1480,1307
1264,1243
1390,1574
1389,1594
1319,1624
1251,1668
1250,1737
1285,2420
1284,2406
1214,2378
1146,2342
1505,2627
1504,2561
1582,2599
1581,2527
1713,2506
1771,2488
1654,2638
1653,2611
1651,2563
2096,3742
2033,3702
1972,3673
1923,3605
1922,3583
1874,3277
1873,2990
1919,2943
1829,5654
1579,2463
1424,2467
1711,2480
1348,2304
1419,2324
1359,2731
1429,2682
1428,2668
1421,2381
1577,2415
1499,2388
1230,2975
1365,2912
1511,2834
1300,2957
1366,2929
1512,2862
1716,2696
1503,2749
1276,2258
1347,2288
1349,2336
1645,2472
1578,2450
1770,2484
1715,2539
1150,2443
1217,2457
1149,2419
1580,2509
1352,2496
1502,2527
1825,2896
1718,2851
1717,2825
1872,2929
1656,2740
1648,2515
1712,2492
1213,2368
1212,2349
1084,2390
1420,2370
1281,2294
1282,2355
1587,2734
1586,2701
1585,2690
1652,2658
1427,2836
1975,3777
1977,3845
1932,3915
1931,4540
1426,2556
1422,2398
1425,2541
1583,2627
1501,2485
1283,2396
1286,2443
1215,2428
1211,2325
1210,2299
1083,2361
1655,2729
2220,3977
1355,5411
1772,2497
1436,2880
1435,2870
1589,2803
1163,3008
1735,4128
1791,4061
1841,4038
1840,3994
1219,2560
1220,2599
1647,2501
1646,2493
1279,2246
1714,2516
1575,2475
1576,2437
1498,2445
1573,2487
1496,2505
1497,2476
2177,3925
2176,3995
2294,3964
2293,4040
2237,3972
2236,4001
2364,3773
2302,3713
2301,3635
2245,3537
2056,3843
2057,3887
2055,3646
2184,3698
2120,3704
2244,3618
2538,4068
2537,4030
2591,4055
1940,3830
1989,3838
1990,3774
2539,4046
2482,4146
2483,3911
2424,3807
2121,3765
2119,3578
2050,3903
2049,3965
2048,4383
2185,3731
2243,3457
2299,3671
2241,3620
2485,3989
2542,4044
2353,4003
2292,3910
2419,3823
2478,3884
2479,3901
2536,3987
2484,3950
2486,3943
2354,3898
2416,4019
2242,3665
2355,3892
2300,3678
1991,3778
1992,3785
2477,3876
2534,3886
2535,3986
2588,3923
2587,3938
2630,3958
2051,3699
2116,3593
2175,4093
2586,65535
2541,4180
2178,3900
2179,3703
2240,3650
2239,3874
2238,3944
2052,3830
2053,3796
1987,4070
1988,4107
1939,4020
2594,4152
2593,4124
2358,3780
2357,3787
2420,3830
2247,3826
2427,3916
2428,3938
2181,3497
2180,3546
2417,3878
2590,4036
2297,3659
2361,3851
2362,3734
2423,3822
2422,3787
2174,4258
2356,3917
1941,3819
2365,3950
2112,4263
2047,4405
2182,3636
2359,3713
2533,4651
2295,3976
2115,3666
2632,4096
2631,4035
2186,3899
2298,3745
2360,3769
2235,4221
2291,4234
2487,4165
2246,3758
2425,4566
2117,3890
2543,4118
1893,65535
2421,3922
2476,3932
2592,4202
604,6586
