middle_point_id,reach_time_minutes
2835,65535
2836,65535
2806,65535
2822,65535
2823,65535
2807,65535
2846,65535
887,1226
888,1206
1326,1004
1185,1072
999,1184
1057,1157
1552,925
1120,1082
1473,935
944,1231
832,1233
1257,1027
1396,1199
1622,903
1327,3784
1184,1075
1183,1090
1324,1111
1255,1191
1394,1122
1252,1195
1253,1156
1182,1100
1328,65535
1470,1069
1321,1194
1322,1161
1323,2405
1391,1237
1551,918
1393,1043
1472,976
1471,1010
1181,2774
1118,1139
1059,1109
1121,1089
1469,1245
1468,1300
1548,1185
1325,1045
1625,917
1623,892
1258,1067
1256,1034
791,1241
891,1189
703,1313
704,1322
660,1318
1553,929
1624,909
1554,954
1474,940
1475,947
1550,959
1549,1134
1320,1252
1466,1348
1541,2515
1318,1366
1249,1389
1186,1068
1003,1115
1002,1111
741,1252
788,1215
434,1376
697,1251
752,1335
1056,1210
1006,1203
907,1425
518,1369
1011,1302
1000,1148
1055,3062
997,3031
994,2925
996,2997
995,2981
991,2772
1112,65535
1114,3012
1051,2975
1398,1692
1395,1290
1001,1128
1811,1417
1960,1630
1769,1720
1823,1715
1329,65535
1332,1194
1259,1160
1200,1370
1199,1368
1140,1524
1141,1522
783,1232
1689,847
1802,790
1945,1182
2183,235
2418,717
1994,1139
1995,1868
2059,1057
1621,65535
1555,996
1754,1180
1180,2303
1106,4005
933,4166
827,1328
2122,321
2124,1499
493,1382
519,1375
544,1367
545,1370
494,1387
470,1427
543,1383
469,1414
517,1388
574,1381
573,1348
495,1420
546,1374
613,1312
612,1323
492,1396
572,1360
571,1384
570,1359
610,1335
575,1436
547,1398
516,1401
611,1374
542,1427
569,1317
609,1300
548,2229
549,2264
1404,1219
1405,1234
1266,1256
1193,1367
743,1231
742,1235
747,1277
746,1252
745,1237
744,1228
790,1237
789,1219
839,1248
838,1210
738,1243
739,1242
740,1236
890,1210
834,1243
784,1242
889,1217
856,1499
855,1481
854,1470
853,1455
852,1436
910,1492
909,1472
908,1448
964,1432
965,1449
1020,1455
966,1498
963,1433
1021,1609
1271,1372
1270,1371
1339,1360
1338,1347
1071,1323
1072,1338
1135,1358
1408,1363
1337,1298
1269,1345
1268,1327
1136,1388
1075,1498
1077,1518
1076,1492
1019,1487
1018,1515
1074,1420
1137,1404
1272,1380
1274,1456
1275,1490
1205,1533
1204,1499
1273,1428
1198,1339
1197,1306
1341,1463
1134,1314
1133,1311
1069,1321
1132,1317
1073,1370
1203,1483
1202,1425
1201,1398
1139,1468
1267,1278
1138,1435
1340,1393
1196,1295
1342,1469
1409,1367
1485,1374
1407,1288
1561,1326
1632,1339
1484,1360
1483,1290
1562,1318
1194,1318
1130,1321
1195,1306
1335,1243
1129,1309
1066,1292
1128,1276
1067,1311
1131,1322
1334,1274
1336,1258
1265,1295
1333,1199
1406,1254
857,1788
803,1822
804,2239
860,2247
969,2200
913,2187
912,2125
861,2257
806,2300
659,1317
751,1328
658,1304
705,1325
702,1289
706,1351
753,1347
614,1316
701,1287
661,1327
616,1328
848,1389
796,1351
797,1366
798,1366
750,1333
707,1366
615,1361
748,1284
845,1323
846,1365
657,1366
749,1331
795,1357
617,1371
663,1376
794,1304
847,1384
849,1410
902,1417
901,1390
900,1373
793,1274
899,1371
898,1335
897,1317
844,1313
842,1258
841,1248
956,1336
792,1258
843,1279
840,1254
850,1401
903,1397
800,1397
755,1409
756,1423
710,1453
711,1498
962,1410
961,1416
904,1402
906,1419
851,1415
802,1453
801,1417
799,1383
959,1412
1014,1368
1013,1360
708,1794
709,1822
754,1387
757,1451
1017,1382
1016,1377
960,1388
905,1416
958,1377
957,1374
1070,1334
1015,1378
1012,1359
1068,1314
1005,1160
1004,1130
1060,1112
1063,1197
1065,1242
1127,1249
1062,1186
1124,1148
1123,1124
1125,1177
1188,1113
1122,1089
1058,1100
947,1143
946,1159
949,1166
945,1167
948,1177
1190,1298
1187,1089
951,1199
895,1251
952,1242
1009,1257
1008,1245
1010,1293
1007,1213
1061,1214
954,1303
896,1279
953,1252
1126,1214
1064,1215
1189,1233
955,1351
950,1178
892,1192
786,1214
836,1210
837,1205
787,1220
700,1313
655,1293
654,1254
653,1272
698,1248
699,1253
608,1287
696,1272
656,1326
833,1221
785,1226
835,1245
693,1262
894,1250
893,1220
1343,1463
1192,1258
1191,1295
828,1325
829,1309
780,1310
830,1337
779,1301
782,1237
529,1402
886,1242
596,1403
556,1423
598,1333
597,1391
526,1470
555,1469
525,1496
524,1509
523,1510
688,1292
607,1315
650,1331
651,1295
652,1312
737,1252
694,1288
695,1267
645,1307
646,1273
690,1265
600,1312
599,1320
781,1252
736,1261
558,1377
644,1309
643,1303
648,1314
692,1259
691,1254
513,1347
541,1393
540,1373
568,1315
530,1429
831,1250
559,1398
560,1420
642,1448
557,1413
496,1541
471,1590
444,1662
446,1619
528,1406
527,1433
562,1396
602,1327
734,1288
466,1450
464,1441
463,1378
478,1542
481,1552
480,1534
479,1512
647,1268
488,1428
502,1452
689,1288
533,1442
532,1464
531,1460
601,1399
484,1463
508,1450
510,1486
509,1461
534,1442
482,1577
506,1520
606,1415
455,1556
429,1502
456,1609
457,1606
428,1568
458,1523
554,1509
594,1544
640,1523
639,1546
551,1541
681,1565
636,1577
635,1602
590,1601
778,1329
777,1332
485,1444
486,1489
462,1503
563,1477
885,1278
943,1273
564,1411
641,1489
504,1473
503,1499
501,1462
500,1520
561,1524
254,1513
350,1464
321,1493
319,1533
251,1580
375,1517
347,1571
687,1309
565,1446
539,1375
511,1520
536,1540
649,1354
603,1371
605,2846
733,1307
735,1277
489,1467
514,1360
461,1628
460,1630
459,1614
468,1450
154,1660
178,1615
203,1600
228,1572
402,1518
401,1578
505,1525
522,1542
451,1617
452,1588
477,1528
476,1475
483,1688
884,1354
431,1464
430,1477
454,1547
595,1470
395,1661
394,1683
422,1826
417,1658
390,1643
538,1422
567,1392
426,1622
397,1659
398,1639
499,1656
475,1596
497,1588
498,1610
311,1514
342,1566
345,1525
421,1716
515,1476
472,1641
448,1672
473,1696
474,1739
353,1519
381,1526
256,1556
290,1531
324,1498
380,1541
407,1490
253,1570
226,1528
201,1542
177,1597
824,1432
775,1377
826,1339
939,1387
936,2758
937,1415
880,1525
566,1488
2821,65535
2834,65535
2833,65535
2789,65535
2790,65535
2770,65535
2788,65535
2776,65535
2795,65535
2775,65535
2794,65535
2825,65535
2824,65535
2826,65535
2811,65535
2812,65535
2796,65535
2827,65535
2858,65535
2855,65535
2849,65535
2838,65535
2814,65535
2813,65535
2828,65535
2839,65535
2791,65535
2792,65535
2803,65535
2830,65535
2815,65535
2819,65535
2818,65535
2817,65535
2831,65535
2810,65535
2829,65535
2783,65535
2820,65535
2804,65535
2785,65535
2784,65535
2762,65535
2768,65535
2751,65535
2750,65535
2733,65535
2769,65535
2720,65535
2761,65535
2741,65535
2837,65535
2793,65535
2808,65535
2753,65535
2736,65535
2735,65535
2809,65535
2772,65535
2845,65535
2844,65535
2848,65535
2777,65535
2778,65535
2779,65535
2759,65535
2780,65535
2797,65535
2843,65535
2832,65535
2842,65535
2758,65535
2738,65535
2774,65535
2773,65535
2771,65535
2851,65535
2847,65535
2854,65535
2721,65535
2756,65535
2737,65535
2840,65535
2752,65535
2754,65535
2755,65535
2852,65535
2853,65535
2856,65535
2841,65535
2742,65535
2727,65535
2744,65535
2726,65535
2743,65535
2725,65535
2746,65535
2787,65535
2766,65535
2763,65535
2765,65535
2745,65535
2764,65535
2552,65535
2501,65535
2443,65535
2442,65535
2320,65535
2381,65535
2382,65535
2498,65535
2499,65535
2438,65535
2439,65535
2497,65535
2441,65535
2379,65535
2380,65535
2319,65535
2551,65535
2550,65535
2563,65535
2321,65535
2322,65535
2383,65535
2384,65535
2446,65535
2445,65535
2503,65535
2385,65535
2504,65535
2505,65535
2557,65535
2558,65535
2559,65535
2560,65535
2564,65535
2562,65535
2561,65535
2605,65535
2609,65535
2565,65535
2566,65535
2515,4756
2397,4519
2457,4736
2458,4720
2401,65535
2337,4432
2336,4436
2399,4478
2398,4499
2402,65535
2333,4656
2273,4691
2219,4715
2218,4727
2159,4752
2454,65535
2393,65535
2512,65535
2502,65535
2608,65535
2156,65535
2155,65535
2154,65535
2213,65535
2212,65535
2211,65535
2210,65535
2264,65535
2324,65535
2323,65535
2030,65535
2094,65535
2157,65535
2450,65535
2388,65535
2387,65535
2326,65535
2266,65535
2265,65535
2508,65535
2396,4588
2335,4606
2334,4617
2158,4777
2279,65535
2278,65535
2222,65535
2221,65535
2276,65535
2275,3804
2261,65535
2207,65535
2149,65535
2554,65535
2599,65535
2633,65535
2664,65535
2689,65535
2690,65535
2691,65535
2692,65535
2152,65535
2089,65535
2088,65535
2025,65535
2603,65535
2602,65535
2556,65535
2693,65535
2671,65535
2670,65535
2694,65535
2553,65535
2665,65535
2705,65535
2710,65535
2668,65535
2639,65535
2463,65535
2521,65535
2572,65535
2451,65535
2390,65535
2391,65535
2392,65535
2215,65535
2268,65535
2093,65535
2092,65535
2028,65535
2024,65535
2150,65535
2086,65535
2209,65535
2023,65535
2087,65535
2148,65535
2262,65535
2327,65535
1560,1329
1630,1219
1631,1300
1559,1212
1629,1223
1558,1164
1634,1371
1633,1374
1482,1342
1481,1370
1699,1365
1700,1381
1701,1409
1563,1336
2070,1695
2008,1647
2009,1644
1959,1632
1958,1601
2006,1584
1957,1567
1956,1464
2193,1762
2132,1701
1912,1691
1911,1640
1865,1612
1866,1711
2007,1648
2069,1654
2010,1653
2011,1669
1961,1648
2072,1669
1913,1777
1867,1757
1962,1673
1914,1680
1915,1723
1909,1574
1636,1387
1635,1373
1564,1351
1702,1411
1637,1414
1638,1472
1565,1400
1486,1399
1760,1494
1704,1410
1703,1394
1763,1441
1762,1438
1817,1482
1705,1507
1863,1571
1815,1542
1759,1457
863,2768
758,2861
808,2812
982,2983
1036,2990
1099,3025
1100,3053
1166,3454
1167,3949
1237,3606
1238,3641
1375,3711
1308,3780
1309,3689
1236,3907
1235,3541
1101,3084
1037,3021
971,2564
1025,2547
1026,2562
1027,2575
1089,2588
720,2824
674,2870
864,2650
865,2671
919,2566
1024,2511
975,2685
974,2655
1028,2610
873,3010
925,2956
924,2933
917,2630
918,2606
623,3045
712,2917
713,2950
667,2955
622,3013
809,2798
719,2798
765,2759
972,2596
868,2708
869,2720
815,2739
920,2975
973,2641
981,2934
926,3035
927,3043
928,3067
1354,2560
1288,2501
1218,2477
1152,2546
1023,2475
1353,2574
1085,2455
1148,2385
1147,2378
1082,2329
772,3096
771,3053
819,3028
584,2944
628,2911
629,2900
1033,2831
978,2786
1031,2759
1030,2713
1029,2696
1091,2673
1035,2912
1034,2855
979,2813
1526,3830
1449,3868
1378,3896
1448,3819
1524,3797
1038,3068
1447,3860
1768,1722
1710,1680
1767,1685
391,1621
365,1615
339,1568
400,1585
393,1704
392,1670
396,1644
399,1605
443,1711
449,1714
450,1778
419,1633
414,1713
415,1675
387,1720
388,1731
389,1668
282,1738
281,1583
314,1597
313,1602
405,1420
411,2674
442,2633
255,1558
376,1513
373,1552
278,1525
275,1599
248,1648
335,1680
334,1665
306,1649
307,1638
176,1590
225,1654
320,1576
249,1756
287,1538
285,1606
776,1337
731,1399
315,1537
316,1548
204,1681
440,1425
439,1457
166,2865
269,2782
383,2720
1247,65535
1246,65535
1384,65535
1679,65535
1178,65535
1105,4009
1172,4028
1173,4078
1242,4080
1241,4072
1314,4229
1313,4135
1171,4054
1382,4335
1243,4277
1317,4416
1107,4017
1108,4196
1109,4481
1041,4026
1043,4236
1042,4227
1044,4290
1176,65535
1174,4303
1177,65535
1110,65535
985,4072
986,4115
932,4133
774,1430
730,1413
825,1452
728,1440
729,1436
727,1538
682,1476
684,1458
685,1438
732,1421
683,2302
2134,2215
2194,2244
2068,1681
2129,1685
1905,1309
1907,1404
1906,1365
1953,1345
2002,1386
2064,1433
2125,1463
2137,2356
2196,2312
2195,2267
1859,1401
1810,1410
1755,1380
2131,1726
2192,1740
1862,1531
1861,1493
1812,1470
1860,1425
1809,1158
1756,1406
1869,2248
1822,1678
1821,1655
1916,2210
1819,1568
1764,1533
1820,1681
1698,1384
1757,1392
1566,1423
1567,1435
1488,1454
1489,1524
1412,1495
1413,1491
1414,1477
1818,1634
1568,1657
1410,1450
2128,1676
2189,1721
2066,1539
2065,1523
2067,1638
1643,1598
1571,1542
1491,1490
2004,1501
2003,1459
1697,1432
2135,2237
2075,2296
1642,1557
1955,1442
2130,1788
2005,1526
1858,1294
1816,3688
1864,3681
1766,1643
1910,1614
1868,2239
2188,1801
2127,1771
1903,1285
2001,1416
2063,1404
2062,1212
1813,1476
1758,1456
1639,1598
1640,1620
1952,1311
2126,3770
1569,1593
1965,2466
1966,2485
2014,2425
1490,1504
1917,2230
1870,1740
1871,1751
1570,1564
1707,1633
2076,2342
2013,2534
1964,2312
1487,1458
1908,1835
2251,65535
2199,65535
2198,65535
2136,2286
1641,1654
1954,1523
1765,1610
1857,1199
2187,1885
1904,1357
1856,1245
1951,1235
1708,2283
245,3999
244,3982
357,3986
246,4114
247,4143
197,4237
223,4215
44,4579
43,4639
3,4775
23,4749
22,4738
63,4521
85,4463
84,4418
108,3918
149,3872
172,4263
296,3966
294,4014
355,4114
354,4146
326,4224
295,4123
291,4135
293,4257
260,4143
356,4174
441,3774
412,3797
329,4132
300,4076
148,3846
214,4084
146,3967
110,4048
262,4109
258,4522
292,4285
257,4587
235,4107
187,4007
212,4063
211,4090
186,4011
162,3985
161,4064
165,3963
189,4163
238,4244
237,4209
263,4145
265,4164
266,4142
267,4130
268,3970
26,4739
25,4707
105,65535
62,65535
83,65535
126,4085
175,4520
152,4454
151,4444
150,4403
103,4023
242,3916
191,3870
192,3921
217,3944
218,3997
145,3907
144,3991
167,3899
190,3877
219,4014
159,4111
185,4055
158,4168
188,3999
160,4076
143,65535
122,65535
75,65535
54,65535
198,4648
270,4011
221,4052
301,4109
302,3946
330,3973
331,3995
115,4047
133,4106
139,4003
134,4080
114,4604
48,65535
69,65535
92,4280
164,4073
4,65535
107,4425
129,4510
109,3950
125,3991
124,3965
127,65535
82,65535
67,65535
91,4448
93,4247
137,4382
113,4402
112,4360
136,65535
49,65535
72,65535
71,65535
406,1521
805,2290
858,2095
859,2236
967,1972
1142,2109
1080,2115
1022,2106
1079,2124
968,2091
1206,2085
915,2242
916,2277
914,2214
807,2329
911,3436
1078,2192
1207,2184
1278,2228
1277,2231
1344,2251
1415,2292
1492,2347
1345,2308
1346,2278
1208,2176
1209,2256
1143,2293
1144,2309
1145,2324
1417,2304
1493,2364
1494,2383
1572,2398
1081,2261
970,2464
408,1530
382,1540
437,1467
467,1468
409,1504
403,1494
432,1584
433,1543
404,1527
352,1591
351,1569
349,1503
317,1764
374,1572
346,1687
283,1713
410,1476
438,1493
465,1480
490,1482
491,1502
435,1537
436,1496
379,1625
323,1764
289,1593
377,1497
378,1472
592,1564
593,1605
552,1520
445,1636
424,1717
423,1677
416,2377
361,1710
362,1694
371,1705
372,1739
343,1620
344,1569
286,1631
227,1684
252,1614
284,1605
318,1657
250,1608
312,1547
340,1562
368,1601
369,1613
370,2372
341,1618
367,1619
308,1614
276,1579
277,1560
280,1575
310,1543
338,1590
366,1672
274,1659
305,1682
420,1699
363,1754
418,1640
550,2281
579,2304
576,2249
577,2261
578,2277
520,2257
618,2271
662,2301
619,2288
620,2301
621,2295
665,2277
666,2269
664,2297
580,2316
2260,65535
2257,65535
2206,65535
2146,65535
2314,65535
2313,65535
2312,65535
2373,65535
2256,65535
2205,65535
2434,65535
2435,65535
2375,65535
2376,65535
2433,65535
2491,65535
2490,65535
2492,65535
2546,65535
2597,65535
2596,65535
2544,65535
2145,65535
2082,65535
2020,65535
2494,65535
0,65535
11,65535
1052,3028
1053,3015
941,3055
1740,2461
1796,2535
1615,2319
1681,2396
1545,2200
1797,2575
1544,2275
1741,2553
1795,2856
1617,2220
1546,2206
1616,2237
1683,2341
1467,1290
1547,1295
1465,2180
1387,2247
1388,1362
1464,2264
1462,3019
1461,3040
1542,2931
1463,2983
1682,2528
1543,2396
1618,2277
1742,2654
1460,2730
1248,2262
1850,797
1801,2178
1803,794
882,1339
881,1348
938,1398
883,1359
940,3798
1998,1036
1902,1121
1807,1089
1691,874
1694,1050
1693,896
1749,830
1752,871
1753,1011
1627,1081
1628,1094
1557,1139
1479,1170
1402,1186
1808,1075
1946,955
1947,986
1948,1028
1997,1032
1855,1182
1690,882
2060,1077
1949,1407
1950,1115
1751,856
1692,879
1999,1091
1901,1415
1900,1456
1852,1605
1853,1484
1805,934
1750,845
1854,1250
1806,992
1748,803
2061,1124
2000,1174
1804,842
1899,1625
2884,65535
2892,65535
2883,65535
2876,65535
2874,65535
2882,65535
2877,65535
2911,65535
2905,65535
2906,65535
2896,65535
2887,65535
2881,65535
2880,65535
2888,65535
2902,65535
2903,65535
2907,65535
2912,65535
2895,65535
2894,65535
2875,65535
2885,65535
2893,65535
2904,65535
2865,65535
2866,65535
2909,65535
2913,65535
2886,65535
2878,65535
2869,65535
2871,65535
2872,65535
2879,65535
2870,65535
1330,1235
1331,1202
1401,1198
1262,1206
1263,1217
1478,1199
1403,1215
1261,1326
1480,1307
1264,1243
1390,1273
1389,1322
1319,1295
1251,1382
1250,1468
1285,2401
1284,2406
1214,2378
1146,2344
1505,2627
1504,2561
1582,2599
1581,2527
1713,2506
1771,2488
1654,2638
1653,2611
1651,2563
2096,3742
2033,3702
1972,3673
1923,3605
1922,3583
1874,3277
1873,2990
1919,2943
1829,3954
1579,2463
1424,2504
1711,2480
1348,2304
1419,2324
1359,2731
1429,2682
1428,2668
1421,2381
1577,2415
1499,2388
1230,2975
1365,2912
1511,2834
1300,2957
1366,2929
1512,2862
1716,2696
1503,2973
1276,2258
1347,2288
1349,2336
1645,2472
1578,2450
1770,2484
1715,2539
1150,2443
1217,2457
1149,2419
1580,2509
1352,2496
1502,2527
1825,2896
1718,2851
1717,2825
1872,2929
1656,2740
1648,2515
1712,2492
1213,2368
1212,2349
1084,2390
1420,2370
1281,2294
1282,2355
1587,2734
1586,2701
1585,2690
1652,2658
1427,2836
1975,3777
1977,3845
1932,3915
1931,4540
1426,2556
1422,2398
1425,2541
1583,2627
1501,2485
1283,2396
1286,2443
1215,2428
1211,2325
1210,2299
1083,2361
1655,2729
2220,3783
1355,65535
1772,2497
1436,2880
1435,2870
1589,2803
1163,3008
1735,4128
1791,4061
1841,4038
1840,3994
1219,2560
1220,2599
1647,2501
1646,2493
1279,2246
1714,2516
1575,2475
1576,2437
1498,2445
1573,2487
1496,2505
1497,2476
2177,521
2176,594
2294,835
2293,740
2237,713
2236,627
2364,637
2302,357
2301,304
2245,274
2056,246
2057,290
2055,196
2184,818
2120,824
2244,252
2538,934
2537,890
2591,940
1940,106
1989,147
1990,76
2539,921
2482,890
2483,852
2424,570
2121,885
2119,202
2050,287
2049,760
2048,514
2185,851
2243,282
2299,320
2241,284
2485,829
2542,801
2353,870
2292,700
2419,668
2478,799
2479,812
2536,883
2484,894
2486,782
2354,742
2416,886
2242,225
2355,789
2300,405
1991,100
1992,124
2477,818
2534,805
2535,954
2588,802
2587,816
2630,869
2051,137
2116,156
2175,675
2586,65535
2541,903
2178,496
2179,442
2240,379
2239,739
2238,743
2052,84
2053,113
1987,230
1988,184
1939,191
2594,924
2593,974
2358,610
2357,620
2420,836
2247,946
2427,734
2428,800
2181,217
2180,180
2417,771
2590,893
2297,520
2361,533
2362,485
2423,638
2422,671
2174,1020
2356,796
1941,0
2365,1028
2112,572
2047,539
2182,340
2359,355
2533,1771
2295,1096
2115,370
2632,1022
2631,961
2186,351
2298,300
2360,312
2235,2221
2291,2234
2487,894
2246,600
2425,1686
2117,207
2543,828
1893,65535
2421,941
2476,837
2592,1008
604,2266
