middle_point_id,reach_time_minutes
2835,65535
2836,65535
2806,65535
2822,65535
2823,65535
2807,65535
2846,65535
887,1584
888,1558
1326,1451
1185,1494
999,1610
1057,2265
1552,1165
1120,1554
1473,1175
944,1757
832,1568
1257,1463
1396,1279
1622,1195
1327,3784
1184,1507
1183,1539
1324,1591
1255,1585
1394,1242
1252,1583
1253,1625
1182,1580
1328,65535
1470,1257
1321,1576
1322,1633
1323,2405
1391,1597
1551,1192
1393,1283
1472,1515
1471,1233
1181,2774
1118,1679
1059,1490
1121,1514
1469,1321
1468,1438
1548,1342
1325,1465
1625,1183
1623,1134
1258,1537
1256,1514
791,1476
891,1525
703,1477
704,1471
660,1475
1553,1167
1624,1149
1554,1190
1474,1180
1475,1187
1550,1202
1549,1251
1320,1546
1466,1584
1541,2515
1318,1578
1249,1599
1186,1488
1003,1494
1002,1495
741,1537
788,1501
434,1634
697,1517
752,1472
1056,1632
1006,1447
907,1461
518,1551
1011,1354
1000,1533
1055,3062
997,3031
994,2925
996,2997
995,2981
991,2772
1112,65535
1114,3012
1051,2975
1398,1692
1395,1290
1001,1508
1811,1044
1960,1311
1769,1510
1823,1488
1329,65535
1332,1194
1259,1923
1200,1370
1199,1368
1140,1524
1141,1522
783,1580
1689,1158
1802,980
1945,0
2183,478
2418,984
1994,32
1995,428
2059,490
1621,65535
1555,1236
1754,1001
1180,2303
1106,4005
933,4166
827,1688
2122,283
2124,1381
493,1562
519,1555
544,1549
545,1553
494,1564
470,1607
543,1563
469,1582
517,1568
574,1561
573,1528
495,1600
546,1569
613,1509
612,1513
492,1576
572,1532
571,1579
570,1589
610,1575
575,1587
547,1598
516,1600
611,1614
542,1591
569,1625
609,1588
548,2229
549,2264
1404,1219
1405,1234
1266,1256
1193,1367
743,1529
742,1520
747,1488
746,1480
745,1493
744,1505
790,1485
789,1492
839,1508
838,1508
738,1586
739,1548
740,1544
890,1528
834,1574
784,1573
889,1553
856,1521
855,1500
854,1508
853,1496
852,1487
910,1492
909,1483
908,1478
964,1451
965,1478
1020,1511
966,1498
963,1433
1021,1609
1271,1372
1270,1371
1339,1360
1338,1347
1071,1323
1072,1338
1135,1358
1408,1363
1337,1298
1269,1345
1268,1327
1136,1388
1075,1498
1077,1518
1076,1492
1019,1506
1018,1515
1074,1420
1137,1404
1272,1380
1274,1456
1275,1490
1205,1533
1204,1499
1273,1428
1198,1339
1197,1306
1341,1463
1134,1314
1133,1311
1069,1321
1132,1317
1073,1370
1203,1483
1202,1425
1201,1398
1139,1468
1267,1278
1138,1435
1340,1393
1196,1295
1342,1469
1409,1367
1485,1374
1407,1288
1561,1270
1632,1258
1484,1360
1483,1290
1562,1275
1194,1318
1130,1325
1195,1306
1335,1243
1129,1331
1066,1347
1128,1396
1067,1354
1131,1322
1334,1274
1336,1258
1265,1295
1333,1199
1406,1254
857,1788
803,1822
804,2239
860,2247
969,2200
913,2187
912,2125
861,2257
806,2300
659,1484
751,1461
658,1488
705,1470
702,1496
706,1465
753,1442
614,1504
701,1495
661,1480
616,1508
848,1411
796,1453
797,1429
798,1418
750,1464
707,1458
615,1481
748,1489
845,1463
846,1446
657,1546
749,1493
795,1481
617,1551
663,1466
794,1524
847,1412
849,1470
902,1442
901,1423
900,1449
793,1478
899,1488
898,1509
897,1495
844,1520
842,1473
841,1465
956,1402
792,1472
843,1504
840,1505
850,1461
903,1402
800,1457
755,1469
756,1483
710,1514
711,1618
962,1410
961,1416
904,1421
906,1460
851,1467
802,1498
801,1477
799,1443
959,1412
1014,1368
1013,1360
708,1794
709,1822
754,1481
757,1511
1017,1382
1016,1377
960,1388
905,1476
958,1377
957,1391
1070,1334
1015,1378
1012,1388
1068,1347
1005,1463
1004,1475
1060,1486
1063,1420
1065,1352
1127,1429
1062,1449
1124,1464
1123,1483
1125,1452
1188,1491
1122,1509
1058,1507
947,1503
946,1512
949,1488
945,1537
948,1518
1190,1493
1187,1511
951,1458
895,1480
952,1444
1009,1388
1008,1381
1010,1366
1007,1395
1061,1466
954,1433
896,1456
953,1421
1126,1453
1064,1391
1189,1490
955,1411
950,1478
892,1516
786,1528
836,1544
837,1513
787,1505
700,1533
655,1551
654,1546
653,1532
698,1514
699,1524
608,1566
696,1541
656,1548
833,1562
785,1542
835,1545
693,1566
894,1487
893,1510
1343,1463
1192,1258
1191,1295
828,1678
829,1664
780,1610
830,1659
779,1661
782,1577
529,1770
886,1593
596,1830
556,1782
598,1740
597,1772
526,1764
555,1771
525,2299
524,2268
523,1812
688,1657
607,1604
650,1603
651,1586
652,1616
737,1588
694,1569
695,1548
645,1660
646,1627
690,1608
600,1670
599,1679
781,1581
736,1595
558,1774
644,1669
643,1680
648,1616
692,1595
691,1591
513,1613
541,1677
540,1660
568,1586
530,1790
831,1584
559,1781
560,1739
642,1805
557,1816
496,1842
471,1878
444,1945
446,1909
528,1880
527,2269
562,1660
602,1642
734,1626
466,1617
464,1647
463,1644
478,2333
481,1835
480,2286
479,2319
647,1628
488,1682
502,2237
689,1648
533,1703
532,1723
531,1777
601,1693
484,1724
508,1690
510,1713
509,1700
534,1667
482,1823
506,2304
606,1730
455,1958
429,1750
456,1931
457,1911
428,1883
458,1814
554,1906
594,2261
640,1860
639,2227
551,1840
681,2361
636,2352
635,2339
590,2266
778,1685
777,1692
485,1710
486,1718
462,1693
563,1705
885,1604
943,1633
564,1733
641,1822
504,1825
503,1802
501,2283
500,2361
561,1710
254,1765
350,1707
321,1737
319,1751
251,1791
375,1698
347,1740
687,1699
565,1776
539,1649
511,1730
536,1797
649,1651
603,1810
605,2846
733,1647
735,1609
489,1645
514,1661
461,1748
460,1760
459,1779
468,1612
154,1903
178,1859
203,1844
228,1816
402,1758
401,1780
505,2312
522,2287
451,2369
452,2400
477,2345
476,2374
483,2293
884,2333
431,1705
430,1763
454,2357
595,2291
395,1920
394,2147
422,2329
417,2275
390,2322
538,1666
567,1631
426,2309
397,1857
398,1822
499,2455
475,2434
497,2267
498,2326
311,1807
342,1768
345,1735
421,2247
515,1626
472,2376
448,2407
473,2432
474,2477
353,1760
381,1738
256,1916
290,1891
324,1785
380,1743
407,1713
253,1806
226,1831
201,1844
177,1908
824,1736
775,1706
826,1699
939,2287
936,2758
937,2353
880,1841
566,2314
2821,65535
2834,65535
2833,65535
2789,65535
2790,65535
2770,65535
2788,65535
2776,65535
2795,65535
2775,65535
2794,65535
2825,65535
2824,65535
2826,65535
2811,65535
2812,65535
2796,65535
2827,65535
2858,65535
2855,65535
2849,65535
2838,65535
2814,65535
2813,65535
2828,65535
2839,65535
2791,65535
2792,65535
2803,65535
2830,65535
2815,65535
2819,65535
2818,65535
2817,65535
2831,65535
2810,65535
2829,65535
2783,65535
2820,65535
2804,65535
2785,65535
2784,65535
2762,65535
2768,65535
2751,65535
2750,65535
2733,65535
2769,65535
2720,65535
2761,65535
2741,65535
2837,65535
2793,65535
2808,65535
2753,65535
2736,65535
2735,65535
2809,65535
2772,65535
2845,65535
2844,65535
2848,65535
2777,65535
2778,65535
2779,65535
2759,65535
2780,65535
2797,65535
2843,65535
2832,65535
2842,65535
2758,65535
2738,65535
2774,65535
2773,65535
2771,65535
2851,65535
2847,65535
2854,65535
2721,65535
2756,65535
2737,65535
2840,65535
2752,65535
2754,65535
2755,65535
2852,65535
2853,65535
2856,65535
2841,65535
2742,65535
2727,65535
2744,65535
2726,65535
2743,65535
2725,65535
2746,65535
2787,65535
2766,65535
2763,65535
2765,65535
2745,65535
2764,65535
2552,65535
2501,65535
2443,65535
2442,65535
2320,65535
2381,65535
2382,65535
2498,65535
2499,65535
2438,65535
2439,65535
2497,65535
2441,65535
2379,65535
2380,65535
2319,65535
2551,65535
2550,65535
2563,65535
2321,65535
2322,65535
2383,65535
2384,65535
2446,65535
2445,65535
2503,65535
2385,65535
2504,65535
2505,65535
2557,65535
2558,65535
2559,65535
2560,65535
2564,65535
2562,65535
2561,65535
2605,65535
2609,65535
2565,65535
2566,65535
2515,4756
2397,4519
2457,4736
2458,4720
2401,65535
2337,4432
2336,4436
2399,4478
2398,4499
2402,65535
2333,4656
2273,4691
2219,4715
2218,4727
2159,4752
2454,65535
2393,65535
2512,65535
2502,65535
2608,65535
2156,65535
2155,65535
2154,65535
2213,65535
2212,65535
2211,65535
2210,65535
2264,65535
2324,65535
2323,65535
2030,65535
2094,65535
2157,65535
2450,65535
2388,65535
2387,65535
2326,65535
2266,65535
2265,65535
2508,65535
2396,4588
2335,4606
2334,4617
2158,4777
2279,65535
2278,65535
2222,65535
2221,65535
2276,65535
2275,3804
2261,65535
2207,65535
2149,65535
2554,65535
2599,65535
2633,65535
2664,65535
2689,65535
2690,65535
2691,65535
2692,65535
2152,65535
2089,65535
2088,65535
2025,65535
2603,65535
2602,65535
2556,65535
2693,65535
2671,65535
2670,65535
2694,65535
2553,65535
2665,65535
2705,65535
2710,65535
2668,65535
2639,65535
2463,65535
2521,65535
2572,65535
2451,65535
2390,65535
2391,65535
2392,65535
2215,65535
2268,65535
2093,65535
2092,65535
2028,65535
2024,65535
2150,65535
2086,65535
2209,65535
2023,65535
2087,65535
2148,65535
2262,65535
2327,65535
1560,1310
1630,1219
1631,1296
1559,1212
1629,1223
1558,1164
1634,1310
1633,1275
1482,1342
1481,1324
1699,1254
1700,1381
1701,1409
1563,1334
2070,1378
2008,1337
2009,1314
1959,1317
1958,1313
2006,1296
1957,1278
1956,1232
2193,1506
2132,1446
1912,1334
1911,1335
1865,1402
1866,1426
2007,1390
2069,1421
2010,1353
2011,1405
1961,1343
2072,1369
1913,1420
1867,1486
1962,1376
1914,1385
1915,1481
1909,1393
1636,1387
1635,1373
1564,1351
1702,1411
1637,1414
1638,1472
1565,1400
1486,1399
1760,1494
1704,1410
1703,1394
1763,1441
1762,1438
1817,1482
1705,1507
1863,1397
1815,1501
1759,1366
863,2768
758,2861
808,2812
982,2983
1036,2990
1099,3025
1100,3053
1166,3454
1167,3949
1237,3606
1238,3641
1375,3711
1308,3780
1309,3689
1236,3907
1235,3541
1101,3084
1037,3021
971,2564
1025,2547
1026,2562
1027,2575
1089,2588
720,2824
674,2870
864,2650
865,2671
919,2566
1024,2511
975,2685
974,2655
1028,2610
873,3010
925,2956
924,2933
917,2630
918,2606
623,3045
712,2917
713,2950
667,2955
622,3013
809,2798
719,2798
765,2759
972,2596
868,2708
869,2720
815,2739
920,2975
973,2641
981,2934
926,3035
927,3043
928,3067
1354,2560
1288,2501
1218,2477
1152,2546
1023,2475
1353,2574
1085,2455
1148,2385
1147,2378
1082,2329
772,3096
771,3053
819,3028
584,2944
628,2911
629,2900
1033,2831
978,2786
1031,2759
1030,2713
1029,2696
1091,2673
1035,2912
1034,2855
979,2813
1526,3830
1449,3868
1378,3896
1448,3819
1524,3797
1038,3068
1447,3860
1768,1501
1710,1514
1767,1524
391,2276
365,2340
339,2319
400,1781
393,2212
392,2250
396,1884
399,1798
443,2431
449,2346
450,2313
419,2319
414,2472
415,2379
387,2372
388,2365
389,2319
282,1864
281,1826
314,1844
313,1823
405,1669
411,2674
442,2633
255,2334
376,1767
373,1771
278,1857
275,2311
248,2346
335,2380
334,2384
306,2348
307,2336
176,1876
225,1854
320,1745
249,1879
287,1782
285,1796
776,1697
731,1752
315,1782
316,1830
204,2336
440,1613
439,1680
166,2865
269,2782
383,2720
1247,65535
1246,65535
1384,65535
1679,65535
1178,65535
1105,4009
1172,4028
1173,4078
1242,4080
1241,4072
1314,4229
1313,4135
1171,4054
1382,4335
1243,4277
1317,4416
1107,4017
1108,4196
1109,4481
1041,4026
1043,4236
1042,4227
1044,4290
1176,65535
1174,4303
1177,65535
1110,65535
985,4072
986,4115
932,4133
774,1730
730,1732
825,1760
728,1800
729,1757
727,2403
682,1836
684,1818
685,1798
732,1781
683,2302
2134,1603
2194,1593
2068,1539
2129,1586
1905,1013
1907,1164
1906,1090
1953,1203
2002,1279
2064,1317
2125,1351
2137,1827
2196,1780
2195,1737
1859,1029
1810,1038
1755,1232
2131,1545
2192,1584
1862,1474
1861,1393
1812,1297
1860,1249
1809,978
1756,1127
1869,1638
1822,1495
1821,1557
1916,1627
1819,1568
1764,1533
1820,1681
1698,1212
1757,1197
1566,1423
1567,1435
1488,1454
1489,1524
1412,1495
1413,1491
1414,1477
1818,1634
1568,1657
1410,1450
2128,1577
2189,1664
2066,1447
2065,1389
2067,1538
1643,1556
1571,1542
1491,1490
2004,1437
2003,1369
1697,1269
2135,2237
2075,2197
1642,1557
1955,1203
2130,1788
2005,1301
1858,1001
1816,3688
1864,3681
1766,1573
1910,1400
1868,1698
2188,1801
2127,1771
1903,1025
2001,1416
2063,1404
2062,1212
1813,1376
1758,1314
1639,1598
1640,1620
1952,1082
2126,3770
1569,1593
1965,1749
1966,1795
2014,1812
1490,1504
1917,1656
1870,1524
1871,1534
1570,1564
1707,1583
2076,1878
2013,2246
1964,1683
1487,1458
1908,1456
2251,65535
2199,65535
2198,65535
2136,2260
1641,1654
1954,1303
1765,1610
1857,998
2187,1885
1904,1029
1856,1005
1951,936
1708,2283
245,3999
244,3982
357,3986
246,4114
247,4143
197,4237
223,4215
44,4579
43,4639
3,4775
23,4749
22,4738
63,4521
85,4463
84,4418
108,3918
149,3872
172,4263
296,3966
294,4014
355,4114
354,4146
326,4224
295,4123
291,4135
293,4257
260,4143
356,4174
441,3774
412,3797
329,4132
300,4076
148,3846
214,4084
146,3967
110,4048
262,4109
258,4522
292,4285
257,4587
235,4107
187,4007
212,4063
211,4090
186,4011
162,3985
161,4064
165,3963
189,4163
238,4244
237,4209
263,4145
265,4164
266,4142
267,4130
268,3970
26,4739
25,4707
105,65535
62,65535
83,65535
126,4085
175,4520
152,4454
151,4444
150,4403
103,4023
242,3916
191,3870
192,3921
217,3944
218,3997
145,3907
144,3991
167,3899
190,3877
219,4014
159,4111
185,4055
158,4168
188,3999
160,4076
143,65535
122,65535
75,65535
54,65535
198,4648
270,4011
221,4052
301,4109
302,3946
330,3973
331,3995
115,4047
133,4106
139,4003
134,4080
114,4604
48,65535
69,65535
92,4280
164,4073
4,65535
107,4425
129,4510
109,3950
125,3991
124,3965
127,65535
82,65535
67,65535
91,4448
93,4247
137,4382
113,4402
112,4360
136,65535
49,65535
72,65535
71,65535
406,1762
805,2290
858,2095
859,2236
967,1972
1142,2109
1080,2115
1022,2106
1079,2124
968,2091
1206,2085
915,2242
916,2277
914,2214
807,2329
911,3436
1078,2192
1207,2184
1278,2228
1277,2231
1344,2251
1415,2292
1492,2347
1345,2308
1346,2278
1208,2176
1209,2256
1143,2293
1144,2309
1145,2324
1417,2304
1493,2364
1494,2383
1572,2398
1081,2261
970,2464
408,1766
382,1809
437,1689
467,1641
409,1781
403,1734
432,1732
433,1704
404,1695
352,2327
351,2323
349,1797
317,1764
374,2303
346,1756
283,1837
410,1718
438,1735
465,1652
490,1632
491,1601
435,1742
436,1727
379,2377
323,2497
289,2389
377,1735
378,1680
592,2306
593,2277
552,1841
445,2270
424,2324
423,2328
416,2377
361,2368
362,2334
371,2244
372,2286
343,2307
344,2324
286,2416
227,2328
252,1838
284,1828
318,1863
250,2400
312,2306
340,2229
368,1923
369,1896
370,2372
341,2313
367,2283
308,2347
276,2291
277,2271
280,2393
310,2294
338,2341
366,2427
274,2330
305,2532
420,2319
363,2351
418,2293
550,2281
579,2304
576,2249
577,2261
578,2277
520,2257
618,2271
662,2301
619,2288
620,2301
621,2295
665,2277
666,2269
664,2297
580,2316
2260,65535
2257,65535
2206,65535
2146,65535
2314,65535
2313,65535
2312,65535
2373,65535
2256,65535
2205,65535
2434,65535
2435,65535
2375,65535
2376,65535
2433,65535
2491,65535
2490,65535
2492,65535
2546,65535
2597,65535
2596,65535
2544,65535
2145,65535
2082,65535
2020,65535
2494,65535
0,65535
11,65535
1052,3028
1053,3015
941,3055
1740,2461
1796,2535
1615,2319
1681,2396
1545,2200
1797,2575
1544,2275
1741,2553
1795,2856
1617,2220
1546,2206
1616,2237
1683,2341
1467,1468
1547,1402
1465,2180
1387,2247
1388,1603
1464,2264
1462,3019
1461,3040
1542,2931
1463,2983
1682,2528
1543,2396
1618,2277
1742,2654
1460,2730
1248,2262
1850,1012
1801,2178
1803,1015
882,1699
881,1708
938,2298
883,1719
940,3798
1998,735
1902,901
1807,939
1691,1107
1694,1050
1693,1237
1749,1080
1752,1047
1753,978
1627,1081
1628,1094
1557,1139
1479,1170
1402,1186
1808,955
1946,955
1947,900
1948,804
1997,690
1855,911
1690,1122
2060,1077
1949,959
1950,815
1751,1090
1692,1229
1999,751
1901,1310
1900,1337
1852,1605
1853,1484
1805,1226
1750,1103
1854,1250
1806,1168
1748,1098
2061,1124
2000,814
1804,1306
1899,1625
2884,65535
2892,65535
2883,65535
2876,65535
2874,65535
2882,65535
2877,65535
2911,65535
2905,65535
2906,65535
2896,65535
2887,65535
2881,65535
2880,65535
2888,65535
2902,65535
2903,65535
2907,65535
2912,65535
2895,65535
2894,65535
2875,65535
2885,65535
2893,65535
2904,65535
2865,65535
2866,65535
2909,65535
2913,65535
2886,65535
2878,65535
2869,65535
2871,65535
2872,65535
2879,65535
2870,65535
1330,1235
1331,1202
1401,1198
1262,1206
1263,1217
1478,1199
1403,1215
1261,1326
1480,1307
1264,1243
1390,1526
1389,1543
1319,1555
1251,1668
1250,1737
1285,2401
1284,2406
1214,2378
1146,2344
1505,2627
1504,2561
1582,2599
1581,2527
1713,2506
1771,2488
1654,2638
1653,2611
1651,2563
2096,3742
2033,3702
1972,3673
1923,3605
1922,3583
1874,3277
1873,2990
1919,2943
1829,3954
1579,2463
1424,2504
1711,2480
1348,2304
1419,2324
1359,2731
1429,2682
1428,2668
1421,2381
1577,2415
1499,2388
1230,2975
1365,2912
1511,2834
1300,2957
1366,2929
1512,2862
1716,2696
1503,2973
1276,2258
1347,2288
1349,2336
1645,2472
1578,2450
1770,2484
1715,2539
1150,2443
1217,2457
1149,2419
1580,2509
1352,2496
1502,2527
1825,2896
1718,2851
1717,2825
1872,2929
1656,2740
1648,2515
1712,2492
1213,2368
1212,2349
1084,2390
1420,2370
1281,2294
1282,2355
1587,2734
1586,2701
1585,2690
1652,2658
1427,2836
1975,3777
1977,3845
1932,3915
1931,4540
1426,2556
1422,2398
1425,2541
1583,2627
1501,2485
1283,2396
1286,2443
1215,2428
1211,2325
1210,2299
1083,2361
1655,2729
2220,3783
1355,65535
1772,2497
1436,2880
1435,2870
1589,2803
1163,3008
1735,4128
1791,4061
1841,4038
1840,3994
1219,2560
1220,2599
1647,2501
1646,2493
1279,2246
1714,2516
1575,2475
1576,2437
1498,2445
1573,2487
1496,2505
1497,2476
2177,1045
2176,1115
2294,1084
2293,1160
2237,1149
2236,1130
2364,893
2302,833
2301,755
2245,657
2056,657
2057,632
2055,726
2184,818
2120,824
2244,738
2538,1188
2537,1150
2591,1175
1940,883
1989,861
1990,846
2539,1166
2482,1266
2483,1031
2424,927
2121,885
2119,698
2050,911
2049,929
2048,987
2185,851
2243,577
2299,791
2241,740
2485,1109
2542,1164
2353,1123
2292,1030
2419,943
2478,1004
2479,1021
2536,1107
2484,1070
2486,1063
2354,1018
2416,1139
2242,785
2355,1012
2300,798
1991,822
1992,783
2477,996
2534,1006
2535,1106
2588,1043
2587,1058
2630,1078
2051,819
2116,713
2175,1120
2586,65535
2541,1283
2178,1020
2179,823
2240,770
2239,1060
2238,1290
2052,891
2053,916
1987,952
1988,925
1939,932
2594,1272
2593,1244
2358,900
2357,907
2420,950
2247,946
2427,1036
2428,1058
2181,617
2180,666
2417,998
2590,1156
2297,779
2361,971
2362,854
2423,942
2422,907
2174,1531
2356,1037
1941,939
2365,1070
2112,1091
2047,1059
2182,756
2359,833
2533,1771
2295,1096
2115,786
2632,1216
2631,1155
2186,316
2298,865
2360,889
2235,2221
2291,2234
2487,1285
2246,878
2425,1686
2117,1010
2543,1238
1893,65535
2421,1042
2476,1052
2592,1322
604,2266
