middle_point_id,reach_time_minutes
2835,65535
2836,65535
2806,65535
2822,65535
2823,65535
2807,65535
2846,65535
887,1284
888,1289
1326,815
1185,898
999,1128
1057,1070
1552,574
1120,958
1473,699
944,1207
832,1280
1257,863
1396,739
1622,595
1327,904
1184,934
1183,939
1324,695
1255,773
1394,642
1252,1343
1253,1381
1182,1425
1328,65535
1470,660
1321,1339
1322,1362
1323,725
1391,1332
1551,592
1393,684
1472,658
1471,637
1181,1934
1118,1439
1059,945
1121,928
1469,808
1468,1260
1548,705
1325,925
1625,591
1623,556
1258,927
1256,1331
791,1298
891,985
703,1349
704,1362
660,1358
1553,579
1624,584
1554,590
1474,640
1475,693
1550,602
1549,654
1320,1336
1466,1322
1541,2200
1318,1386
1249,1406
1186,888
1003,959
1002,947
741,1268
788,1265
434,1460
697,1327
752,1390
1056,1111
1006,1041
907,1521
518,1415
1011,1463
1000,993
1055,2102
997,2071
994,1965
996,2037
995,2021
991,1812
1112,4445
1114,2052
1051,2015
1398,732
1395,750
1001,968
1811,904
1960,1399
1769,1730
1823,1727
1329,65535
1332,866
1259,2216
1200,1355
1199,1355
1140,1479
1141,1492
783,1290
1689,533
1802,380
1945,0
2183,958
2418,1407
1994,512
1995,908
2059,577
1621,65535
1555,696
1754,761
1180,1650
1106,3045
933,3206
827,1410
2122,1373
2124,1311
493,1422
519,1419
544,1408
545,1412
494,1426
470,1442
543,1404
469,1438
517,1417
574,1405
573,1392
495,1440
546,1421
613,1372
612,1383
492,1430
572,1399
571,1415
570,1397
610,1372
575,1466
547,1458
516,1432
611,1401
542,1416
569,1379
609,1362
548,1490
549,1519
1404,911
1405,1285
1266,1316
1193,1317
743,1295
742,1277
747,1316
746,1301
745,1298
744,1315
790,1285
789,1280
839,1333
838,1256
738,1292
739,1283
740,1274
890,999
834,1275
784,1273
889,1290
856,1580
855,1560
854,1568
853,1565
852,1556
910,1552
909,1541
908,1527
964,1513
965,1544
1020,1583
966,1563
963,1489
1021,1609
1271,1353
1270,1351
1339,1358
1338,1347
1071,1374
1072,1398
1135,1387
1408,1363
1337,1339
1269,1345
1268,1334
1136,1388
1075,1509
1077,1485
1076,1540
1019,1542
1018,1515
1074,1420
1137,1404
1272,1380
1274,1456
1275,1490
1205,1502
1204,1499
1273,1427
1198,1369
1197,1366
1341,1483
1134,1376
1133,1373
1069,1347
1132,1334
1073,1430
1203,1483
1202,1425
1201,1398
1139,1468
1267,1325
1138,1435
1340,1385
1196,1339
1342,1469
1409,1376
1485,1378
1407,1303
1561,1271
1632,1244
1484,1321
1483,1310
1562,1276
1194,1324
1130,1320
1195,1333
1335,1298
1129,1325
1066,1314
1128,1333
1067,1352
1131,1328
1334,912
1336,1320
1265,1355
1333,871
1406,1291
857,2268
803,3562
804,7039
860,7047
969,7000
913,6987
912,6925
861,7057
806,7100
659,1354
751,1373
658,1365
705,1366
702,1341
706,1383
753,1407
614,1362
701,1334
661,1387
616,1388
848,1427
796,1394
797,1425
798,1426
750,1365
707,1418
615,1421
748,1351
845,1416
846,1406
657,1392
749,1359
795,1379
617,1431
663,1436
794,1344
847,1424
849,1470
902,1438
901,1437
900,1486
793,1308
899,1396
898,1375
897,1345
844,1364
842,1318
841,1300
956,7079
792,1302
843,1340
840,1313
850,1477
903,1413
800,1466
755,1493
756,1543
710,1573
711,1618
962,1463
961,1456
904,1421
906,1519
851,1527
802,1513
801,1469
799,1443
959,1412
1014,1382
1013,1396
708,2203
709,2178
754,1447
757,1571
1017,1524
1016,1434
960,1404
905,1476
958,1398
957,1507
1070,1367
1015,1385
1012,1424
1068,1361
1005,1254
1004,964
1060,952
1063,1029
1065,1301
1127,1292
1062,1018
1124,984
1123,971
1125,1001
1188,1011
1122,948
1058,936
947,964
946,977
949,984
945,1300
948,964
1190,1254
1187,976
951,1047
895,1282
952,1273
1009,1321
1008,1270
1010,1465
1007,1263
1061,1210
954,1360
896,1292
953,1298
1126,1269
1064,1276
1189,1048
955,7075
950,1285
892,1209
786,1262
836,1268
837,1236
787,1271
700,1349
655,1358
654,1359
653,1340
698,1334
699,1322
608,1349
696,1296
656,1355
833,1276
785,1256
835,1021
693,1289
894,1297
893,1267
1343,1463
1192,913
1191,1030
828,1401
829,1394
780,1370
830,1388
779,1406
782,1291
529,1444
886,1308
596,1463
556,1473
598,1424
597,1441
526,1486
555,1526
525,1540
524,1556
523,1527
688,1390
607,1339
650,1329
651,1321
652,1330
737,1307
694,1297
695,1299
645,1365
646,1337
690,1331
600,1370
599,1380
781,1296
736,1321
558,1470
644,1387
643,1393
648,1316
692,1302
691,1311
513,1402
541,1435
540,1438
568,1374
530,1435
831,1326
559,1453
560,1410
642,1518
557,1470
496,1556
471,1587
444,1662
446,1617
528,1451
527,1491
562,1377
602,1344
734,1386
466,1477
464,1438
463,1456
478,1582
481,1492
480,1509
479,1559
647,1364
488,1422
502,1457
689,1348
533,1383
532,1404
531,1418
601,1359
484,1501
508,1439
510,1487
509,1461
534,1441
482,1507
506,1460
606,1385
455,1684
429,1562
456,1657
457,1637
428,1601
458,1573
554,1612
594,1551
640,1527
639,1629
551,1550
681,1595
636,1616
635,1637
590,1601
778,1415
777,1434
485,1526
486,1542
462,1511
563,1400
885,1333
943,1331
564,1488
641,1521
504,1525
503,1501
501,1517
500,1582
561,1398
254,1585
350,1524
321,1561
319,1569
251,1614
375,1540
347,1557
687,1399
565,1520
539,1422
511,1553
536,1541
649,1332
603,1401
605,1886
733,1407
735,1337
489,1433
514,1413
461,1569
460,1581
459,1601
468,1443
154,1771
178,1747
203,1725
228,1705
402,1568
401,1617
505,1465
522,1575
451,1727
452,1696
477,1625
476,1574
483,1546
884,1594
431,1524
430,1537
454,1720
595,1477
395,1739
394,1766
422,1839
417,1660
390,1701
538,1430
567,1371
426,1862
397,1677
398,1642
499,1707
475,1629
497,1614
498,1642
311,1636
342,1643
345,1600
421,1858
515,1470
472,1811
448,1780
473,1736
474,1662
353,1520
381,1514
256,1676
290,1600
324,1540
380,1563
407,1534
253,1623
226,1648
201,1661
177,1724
824,1496
775,1467
826,1429
939,1507
936,1798
937,1573
880,1541
566,1575
2821,65535
2834,65535
2833,65535
2789,65535
2790,65535
2770,65535
2788,65535
2776,65535
2795,65535
2775,65535
2794,65535
2825,65535
2824,65535
2826,65535
2811,65535
2812,65535
2796,65535
2827,65535
2858,65535
2855,65535
2849,65535
2838,65535
2814,65535
2813,65535
2828,65535
2839,65535
2791,65535
2792,65535
2803,65535
2830,65535
2815,65535
2819,65535
2818,65535
2817,65535
2831,65535
2810,65535
2829,65535
2783,65535
2820,65535
2804,65535
2785,65535
2784,65535
2762,65535
2768,65535
2751,65535
2750,65535
2733,65535
2769,65535
2720,65535
2761,65535
2741,65535
2837,65535
2793,65535
2808,65535
2753,65535
2736,65535
2735,65535
2809,65535
2772,65535
2845,65535
2844,65535
2848,65535
2777,65535
2778,65535
2779,65535
2759,65535
2780,65535
2797,65535
2843,65535
2832,65535
2842,65535
2758,65535
2738,65535
2774,65535
2773,65535
2771,65535
2851,65535
2847,65535
2854,65535
2721,65535
2756,65535
2737,65535
2840,65535
2752,65535
2754,65535
2755,65535
2852,65535
2853,65535
2856,65535
2841,65535
2742,65535
2727,65535
2744,65535
2726,65535
2743,65535
2725,65535
2746,65535
2787,65535
2766,65535
2763,65535
2765,65535
2745,65535
2764,65535
2552,65535
2501,65535
2443,65535
2442,65535
2320,65535
2381,65535
2382,65535
2498,65535
2499,65535
2438,65535
2439,65535
2497,65535
2441,65535
2379,65535
2380,65535
2319,65535
2551,65535
2550,65535
2563,7557
2321,7093
2322,7062
2383,7074
2384,7280
2446,7322
2445,7329
2503,7348
2385,7313
2504,7678
2505,7700
2557,7724
2558,7749
2559,7773
2560,7737
2564,7905
2562,7625
2561,7665
2605,7680
2609,7952
2565,8028
2566,8044
2515,8055
2397,6439
2457,8085
2458,8107
2401,6516
2337,6352
2336,6356
2399,6398
2398,6419
2402,6576
2333,6576
2273,6611
2219,6635
2218,6647
2159,6672
2454,7264
2393,7230
2512,7524
2502,7516
2608,7943
2156,6794
2155,6826
2154,6855
2213,6871
2212,6883
2211,6931
2210,6972
2264,6979
2324,7013
2323,7029
2030,65535
2094,65535
2157,6758
2450,7921
2388,7970
2387,8038
2326,8075
2266,8110
2265,7454
2508,7892
2396,6508
2335,6526
2334,6537
2158,6697
2279,8666
2278,8630
2222,8599
2221,8581
2276,8563
2275,4479
2261,7286
2207,7323
2149,65535
2554,7406
2599,7438
2633,7484
2664,9171
2689,9229
2690,9335
2691,9373
2692,9406
2152,6967
2089,7046
2088,7034
2025,7179
2603,65535
2602,65535
2556,65535
2693,65535
2671,65535
2670,65535
2694,65535
2553,65535
2665,65535
2705,65535
2710,65535
2668,65535
2639,65535
2463,6586
2521,6622
2572,6645
2451,7806
2390,7775
2391,7595
2392,7558
2215,7800
2268,65535
2093,65535
2092,65535
2028,65535
2024,8857
2150,8283
2086,8331
2209,8265
2023,8433
2087,8386
2148,8599
2262,7272
2327,65535
1560,1307
1630,1249
1631,1257
1559,1246
1629,891
1558,788
1634,1379
1633,1282
1482,1342
1481,1337
1699,1240
1700,1326
1701,1354
1563,1347
2070,1403
2008,1395
2009,1399
1959,1407
1958,1412
2006,1406
1957,1415
1956,1446
2193,1499
2132,1441
1912,1446
1911,1455
1865,1567
1866,1561
2007,1361
2069,1343
2010,1406
2011,1464
1961,1410
2072,1431
1913,1501
1867,1572
1962,1417
1914,1435
1915,1474
1909,1420
1636,1384
1635,1397
1564,1386
1702,1371
1637,1421
1638,1522
1565,1396
1486,1389
1760,1438
1704,1435
1703,1422
1763,1515
1762,1489
1817,1527
1705,1561
1863,1469
1815,1486
1759,1347
863,3248
758,3341
808,3292
982,3463
1036,3470
1099,3505
1100,3533
1166,3934
1167,4429
1237,4086
1238,4121
1375,4191
1308,4260
1309,4169
1236,4387
1235,4021
1101,3564
1037,3501
971,3044
1025,3027
1026,3042
1027,3055
1089,3068
720,3304
674,3350
864,3130
865,3151
919,3046
1024,2991
975,3165
974,3135
1028,3090
873,3490
925,3436
924,3413
917,3110
918,3086
623,3525
712,3397
713,3430
667,3435
622,3493
809,3278
719,3278
765,3239
972,3076
868,3188
869,3200
815,3219
920,3334
973,3121
981,3414
926,3515
927,3523
928,3547
1354,2997
1288,2981
1218,2957
1152,3026
1023,2955
1353,2981
1085,2935
1148,2865
1147,2858
1082,2809
772,3576
771,3533
819,3508
584,3424
628,3391
629,3380
1033,3311
978,3266
1031,3239
1030,3193
1029,3176
1091,3153
1035,3392
1034,3335
979,3293
1526,4310
1449,4348
1378,4376
1448,4299
1524,4277
1038,3548
1447,4340
1768,1732
1710,1695
1767,1643
391,1739
365,1704
339,1705
400,1603
393,1814
392,1790
396,1719
399,1660
443,1725
449,1929
450,1963
419,1752
414,1709
415,1673
387,1712
388,1721
389,1694
282,1680
281,1705
314,1681
313,1662
405,1495
411,1974
442,1933
255,1630
376,1723
373,1660
278,1645
275,1845
248,1935
335,1850
334,1827
306,1881
307,1870
176,1708
225,1664
320,1609
249,1708
287,1692
285,1616
776,1446
731,1459
315,1661
316,1643
204,1764
440,1458
439,1472
166,3345
269,3262
383,3200
1247,4390
1246,4412
1384,4496
1679,4658
1178,4383
1105,3049
1172,3068
1173,3118
1242,3120
1241,3112
1314,3269
1313,3175
1171,3094
1382,3375
1243,3317
1317,3456
1107,3057
1108,3236
1109,3521
1041,3066
1043,3276
1042,3267
1044,3330
1176,4284
1174,3343
1177,4332
1110,4339
985,3112
986,3155
932,3173
774,1490
730,1464
825,1512
728,1523
729,1481
727,1539
682,1541
684,1487
685,1468
732,1478
683,1522
2134,1524
2194,1533
2068,1291
2129,1320
1905,1257
1907,1392
1906,1357
1953,1265
2002,1237
2064,1106
2125,1286
2137,1959
2196,1737
2195,1691
1859,1265
1810,1255
1755,1005
2131,1420
2192,1458
1862,1421
1861,1375
1812,1336
1860,1373
1809,738
1756,1175
1869,1716
1822,1685
1821,1701
1916,1755
1819,1576
1764,1548
1820,1675
1698,1210
1757,1229
1566,1443
1567,1485
1488,1562
1489,1499
1412,1479
1413,1485
1414,1489
1818,1618
1568,1554
1410,1440
2128,1311
2189,1323
2066,1261
2065,1250
2067,1274
1643,1667
1571,1625
1491,1578
2004,1291
2003,1323
1697,1335
2135,1594
2075,1653
1642,1628
1955,1451
2130,1480
2005,1545
1858,1242
1816,8488
1864,8481
1766,1637
1910,1505
1868,1707
2188,1675
2127,1644
1903,946
2001,1259
2063,1302
2062,862
1813,1413
1758,1269
1639,1528
1640,1570
1952,802
2126,8570
1569,1564
1965,1782
1966,1828
2014,1778
1490,1517
1917,1741
1870,1730
1871,1744
1570,1664
1707,1578
2076,1670
2013,1776
1964,1820
1487,1436
1908,1537
2251,3681
2199,3625
2198,3488
2136,1643
1641,1585
1954,1528
1765,1656
1857,899
2187,1996
1904,950
1856,898
1951,648
1708,1788
245,8799
244,8782
357,8786
246,8914
247,8943
197,9037
223,9015
44,9379
43,9439
3,9575
23,9549
22,9538
63,9321
85,9263
84,9218
108,8718
149,8672
172,9063
296,8766
294,8814
355,8914
354,8946
326,9024
295,8923
291,8935
293,9057
260,8943
356,8974
441,8574
412,8597
329,8932
300,8876
148,8646
214,8884
146,8767
110,8848
262,8909
258,9322
292,9085
257,9387
235,8907
187,8807
212,8863
211,8890
186,8811
162,8785
161,8864
165,8763
189,8963
238,9044
237,9009
263,8945
265,8964
266,8942
267,8930
268,8770
26,9539
25,9507
105,65535
62,65535
83,65535
126,8885
175,9320
152,9254
151,9244
150,9203
103,8823
242,8716
191,8670
192,8721
217,8744
218,8797
145,8707
144,8791
167,8699
190,8677
219,8814
159,8911
185,8855
158,8968
188,8799
160,8876
143,65535
122,65535
75,65535
54,65535
198,9448
270,8811
221,8852
301,8909
302,8746
330,8773
331,8795
115,8847
133,8906
139,8803
134,8880
114,9404
48,65535
69,65535
92,9080
164,8873
4,65535
107,9225
129,9310
109,8750
125,8791
124,8765
127,65535
82,65535
67,65535
91,9248
93,9047
137,9182
113,9202
112,9160
136,65535
49,65535
72,65535
71,65535
406,1561
805,7090
858,6895
859,7036
967,2514
1142,2649
1080,6735
1022,6776
1079,6768
968,6891
1206,2606
915,7042
916,7077
914,7014
807,7129
911,8236
1078,6992
1207,2664
1278,2708
1277,2711
1344,2731
1415,2772
1492,2827
1345,2788
1346,2758
1208,2656
1209,2736
1143,2773
1144,2789
1145,2804
1417,2784
1493,2844
1494,2863
1572,2878
1081,7061
970,7264
408,1503
382,1542
437,1460
467,1490
409,1520
403,1590
432,1989
433,1616
404,1590
352,1665
351,1730
349,1597
317,1602
374,1549
346,1727
283,1652
410,1494
438,1505
465,1452
490,1459
491,1462
435,1501
436,1446
379,1622
323,1761
289,1710
377,1549
378,1571
592,1616
593,1587
552,1541
445,1637
424,1846
423,1793
416,1719
361,1778
362,1707
371,1732
372,1689
343,1745
344,1749
286,1803
227,1727
252,1647
284,1629
318,1611
250,1676
312,1667
340,1682
368,1721
369,1775
370,1722
341,1744
367,1735
308,1776
276,1756
277,1710
280,1698
310,1669
338,1757
366,1757
274,1912
305,1893
420,1809
363,1724
418,1816
550,7081
579,7104
576,7049
577,7061
578,7077
520,7057
618,7071
662,7101
619,7088
620,7101
621,7095
665,7077
666,7069
664,7097
580,7116
2260,65535
2257,65535
2206,65535
2146,65535
2314,65535
2313,65535
2312,65535
2373,65535
2256,65535
2205,65535
2434,65535
2435,65535
2375,65535
2376,65535
2433,65535
2491,65535
2490,65535
2492,65535
2546,65535
2597,65535
2596,65535
2544,65535
2145,65535
2082,65535
2020,65535
2494,65535
0,65535
11,65535
1052,2068
1053,2055
941,2095
1740,1501
1796,1575
1615,1359
1681,1436
1545,1304
1797,1615
1544,1315
1741,1593
1795,1896
1617,1290
1546,1274
1616,1344
1683,1381
1467,1309
1547,1250
1465,1372
1387,1448
1388,1412
1464,1432
1462,2059
1461,2080
1542,2144
1463,2023
1682,1568
1543,1436
1618,1317
1742,1694
1460,2246
1248,1413
1850,394
1801,393
1803,394
882,1420
881,1439
938,1518
883,1413
940,2838
1998,556
1902,641
1807,726
1691,537
1694,690
1693,1312
1749,506
1752,593
1753,651
1627,721
1628,733
1557,767
1479,810
1402,830
1808,715
1946,475
1947,506
1948,548
1997,552
1855,770
1690,526
2060,710
1949,865
1950,635
1751,572
1692,629
1999,621
1901,909
1900,921
1852,994
1853,1008
1805,574
1750,561
1854,889
1806,688
1748,497
2061,764
2000,694
1804,487
1899,1267
2884,65535
2892,65535
2883,65535
2876,65535
2874,65535
2882,65535
2877,65535
2911,65535
2905,65535
2906,65535
2896,65535
2887,65535
2881,65535
2880,65535
2888,65535
2902,65535
2903,65535
2907,65535
2912,65535
2895,65535
2894,65535
2875,65535
2885,65535
2893,65535
2904,65535
2865,65535
2866,65535
2909,65535
2913,65535
2886,65535
2878,65535
2869,65535
2871,65535
2872,65535
2879,65535
2870,65535
1330,894
1331,872
1401,868
1262,925
1263,893
1478,850
1403,871
1261,976
1480,1223
1264,928
1390,1323
1389,1342
1319,1369
1251,1355
1250,1387
1285,2900
1284,2886
1214,2858
1146,2822
1505,3107
1504,3041
1582,3079
1581,3007
1713,2986
1771,2968
1654,3118
1653,3091
1651,3043
2096,4222
2033,4182
1972,4153
1923,4085
1922,4063
1874,3757
1873,3470
1919,3423
1829,6134
1579,2943
1424,2947
1711,2960
1348,2784
1419,2804
1359,3211
1429,3162
1428,3148
1421,2861
1577,2895
1499,2868
1230,3455
1365,3392
1511,3314
1300,3437
1366,3409
1512,3342
1716,3176
1503,3229
1276,2738
1347,2768
1349,2816
1645,2952
1578,2930
1770,2964
1715,3019
1150,2923
1217,2937
1149,2899
1580,2989
1352,2976
1502,3007
1825,3376
1718,3331
1717,3305
1872,3409
1656,3220
1648,2995
1712,2972
1213,2848
1212,2829
1084,2870
1420,2850
1281,2774
1282,2835
1587,3214
1586,3181
1585,3170
1652,3138
1427,3316
1975,4257
1977,4325
1932,4395
1931,5020
1426,3036
1422,2878
1425,3021
1583,3107
1501,2965
1283,2876
1286,2923
1215,2908
1211,2805
1210,2779
1083,2841
1655,3209
2220,4457
1355,5891
1772,2977
1436,3360
1435,3350
1589,3283
1163,3488
1735,4608
1791,4541
1841,4518
1840,4474
1219,3040
1220,3079
1647,2981
1646,2973
1279,2726
1714,2996
1575,2955
1576,2917
1498,2925
1573,2967
1496,2985
1497,2956
2177,1525
2176,1595
2294,1512
2293,1631
2237,1572
2236,1601
2364,1373
2302,1313
2301,1235
2245,1137
2056,1267
2057,1353
2055,1246
2184,1298
2120,1304
2244,1218
2538,1558
2537,1539
2591,1655
1940,1430
1989,1438
1990,1374
2539,1558
2482,1549
2483,1511
2424,1407
2121,1365
2119,1178
2050,1487
2049,1565
2048,1983
2185,1331
2243,1057
2299,1271
2241,1220
2485,1589
2542,1644
2353,1603
2292,1510
2419,1397
2478,1444
2479,1479
2536,1506
2484,1550
2486,1543
2354,1442
2416,1619
2242,1265
2355,1480
2300,1278
1991,1378
1992,1385
2477,1435
2534,1456
2535,1571
2588,1476
2587,1490
2630,1541
2051,1299
2116,1193
2175,1628
2586,65535
2541,1711
2178,1500
2179,1303
2240,1250
2239,1474
2238,1544
2052,1430
2053,1396
1987,1670
1988,1518
1939,1542
2594,1661
2593,1646
2358,1364
2357,1374
2420,1430
2247,1426
2427,1516
2428,1538
2181,1097
2180,1146
2417,1424
2590,1636
2297,1259
2361,1451
2362,1334
2423,1422
2422,1387
2174,1858
2356,1485
1941,1419
2365,1550
2112,1863
2047,2005
2182,1236
2359,1313
2533,2251
2295,1576
2115,1266
2632,1696
2631,1635
2186,1483
2298,1345
2360,1369
2235,1821
2291,1834
2487,1765
2246,1358
2425,2166
2117,1490
2543,1718
1893,65535
2421,1522
2476,1440
2592,1694
604,7066
