middle_point_id,reach_time_minutes
2835,65535
2836,65535
2806,65535
2822,65535
2823,65535
2807,65535
2846,65535
887,737
888,732
1326,760
1185,729
999,770
1057,917
1552,514
1120,691
1473,699
944,918
832,728
1257,736
1396,739
1622,535
1327,904
1184,719
1183,730
1324,695
1255,773
1394,642
1252,1343
1253,1381
1182,1425
1328,65535
1470,660
1321,1339
1322,1362
1323,725
1391,1332
1551,532
1393,684
1472,658
1471,589
1181,1934
1118,1439
1059,670
1121,682
1469,808
1468,1260
1548,705
1325,805
1625,453
1623,501
1258,759
1256,854
791,689
891,685
703,719
704,711
660,713
1553,519
1624,488
1554,532
1474,544
1475,573
1550,542
1549,654
1320,1336
1466,1322
1541,1555
1318,1386
1249,1406
1186,716
1003,654
1002,662
741,707
788,699
434,845
697,771
752,735
1056,792
1006,614
907,663
518,772
1011,559
1000,693
1055,2102
997,2071
994,1965
996,2037
995,2021
991,1812
1112,4445
1114,2052
1051,2015
1398,612
1395,750
1001,669
1811,176
1960,59
1769,543
1823,528
1329,65535
1332,558
1259,2216
1200,536
1199,538
1140,678
1141,682
783,742
1689,558
1802,620
1945,841
2183,2398
2418,2847
1994,875
1995,908
2059,457
1621,65535
1555,576
1754,304
1180,1650
1106,3045
933,3206
827,848
2122,2813
2124,500
493,781
519,774
544,769
545,772
494,784
470,808
543,778
469,794
517,778
574,774
573,753
495,816
546,782
613,729
612,732
492,783
572,752
571,799
570,797
610,764
575,807
547,818
516,803
611,741
542,835
569,795
609,778
548,890
549,919
1404,504
1405,474
1266,490
1193,543
743,701
742,697
747,708
746,700
745,713
744,714
790,697
789,701
839,692
838,689
738,740
739,705
740,700
890,701
834,718
784,707
889,713
856,736
855,720
854,712
853,685
852,671
910,712
909,701
908,668
964,671
965,698
1020,734
966,723
963,637
1021,769
1271,535
1270,533
1339,547
1338,560
1071,574
1072,567
1135,547
1408,570
1337,518
1269,505
1268,495
1136,548
1075,669
1077,678
1076,700
1019,702
1018,675
1074,580
1137,564
1272,540
1274,616
1275,650
1205,692
1204,659
1273,587
1198,589
1197,526
1341,621
1134,552
1133,551
1069,514
1132,510
1073,590
1203,643
1202,585
1201,558
1139,628
1267,485
1138,589
1340,553
1196,498
1342,599
1409,604
1485,579
1407,447
1561,372
1632,353
1484,438
1483,403
1562,382
1194,538
1130,537
1195,526
1335,506
1129,570
1066,575
1128,622
1067,578
1131,527
1334,520
1336,478
1265,515
1333,549
1406,444
857,828
803,3562
804,7039
860,7047
969,7000
913,6987
912,6925
861,7057
806,7100
659,716
751,708
658,727
705,716
702,724
706,723
753,724
614,724
701,715
661,722
616,728
848,647
796,693
797,680
798,673
750,714
707,753
615,761
748,752
845,691
846,673
657,826
749,734
795,715
617,771
663,776
794,743
847,662
849,692
902,662
901,670
900,657
793,698
899,752
898,740
897,723
844,716
842,696
841,685
956,580
792,691
843,728
840,684
850,677
903,644
800,687
755,773
756,823
710,853
711,898
962,630
961,637
904,646
906,651
851,668
802,710
801,697
799,698
959,632
1014,583
1013,568
708,905
709,879
754,795
757,851
1017,603
1016,598
960,624
905,696
958,678
957,618
1070,561
1015,605
1012,560
1068,531
1005,624
1004,642
1060,653
1063,620
1065,605
1127,617
1062,642
1124,684
1123,672
1125,651
1188,711
1122,704
1058,676
947,669
946,701
949,655
945,722
948,664
1190,836
1187,733
951,621
895,647
952,618
1009,575
1008,605
1010,565
1007,610
1061,723
954,703
896,679
953,650
1126,633
1064,623
1189,753
955,591
950,639
892,677
786,689
836,685
837,681
787,687
700,766
655,831
654,826
653,764
698,775
699,724
608,771
696,711
656,828
833,722
785,693
835,708
693,722
894,704
893,698
1343,623
1192,630
1191,635
828,838
829,824
780,770
830,819
779,836
782,737
529,1354
886,753
596,1371
556,1386
598,1324
597,1343
526,1392
555,1410
525,1404
524,1418
523,1428
688,799
607,764
650,790
651,744
652,747
737,744
694,726
695,715
645,796
646,771
690,751
600,804
599,813
781,741
736,749
558,1350
644,829
643,880
648,780
692,725
691,741
513,1381
541,1314
540,1354
568,1374
530,1369
831,744
559,1361
560,1410
642,1363
557,1384
496,1480
471,1497
444,1600
446,1526
528,1361
527,1375
562,859
602,826
734,780
466,1258
464,886
463,1375
478,1494
481,1432
480,1481
479,1469
647,794
488,1352
502,1369
689,791
533,864
532,886
531,1342
601,1279
484,972
508,1329
510,942
509,1340
534,1321
482,1446
506,1400
606,786
455,1558
429,1381
456,1654
457,1431
428,1443
458,1409
554,1524
594,1523
640,1347
639,1489
551,1470
681,1534
636,1522
635,1499
590,1474
778,845
777,865
485,938
486,910
462,1273
563,1356
885,764
943,1331
564,1340
641,1341
504,1384
503,1377
501,1398
500,1437
561,1398
254,1440
350,1392
321,1401
319,1392
251,1455
375,1116
347,1351
687,863
565,1318
539,1372
511,921
536,1281
649,1317
603,1335
605,1886
733,794
735,759
489,1341
514,1360
461,1436
460,1465
459,1441
468,805
154,1585
178,1566
203,1543
228,1507
402,1051
401,1343
505,1405
522,1462
451,1727
452,1696
477,1501
476,1442
483,1546
884,1373
431,975
430,1344
454,1720
595,1427
395,1620
394,1646
422,1681
417,1576
390,1584
538,1353
567,793
426,1862
397,1554
398,1584
499,1533
475,1474
497,1444
498,1471
311,1454
342,1456
345,1401
421,1696
515,833
472,1596
448,1621
473,1647
474,1662
353,1399
381,1379
256,1521
290,1471
324,1409
380,1426
407,1354
253,1501
226,1528
201,1554
177,1591
824,1376
775,1311
826,859
939,1327
936,1798
937,1393
880,881
566,1356
2821,65535
2834,65535
2833,65535
2789,65535
2790,65535
2770,65535
2788,65535
2776,65535
2795,65535
2775,65535
2794,65535
2825,65535
2824,65535
2826,65535
2811,65535
2812,65535
2796,65535
2827,65535
2858,65535
2855,65535
2849,65535
2838,65535
2814,65535
2813,65535
2828,65535
2839,65535
2791,65535
2792,65535
2803,65535
2830,65535
2815,65535
2819,65535
2818,65535
2817,65535
2831,65535
2810,65535
2829,65535
2783,65535
2820,65535
2804,65535
2785,65535
2784,65535
2762,65535
2768,65535
2751,65535
2750,65535
2733,65535
2769,65535
2720,65535
2761,65535
2741,65535
2837,65535
2793,65535
2808,65535
2753,65535
2736,65535
2735,65535
2809,65535
2772,65535
2845,65535
2844,65535
2848,65535
2777,65535
2778,65535
2779,65535
2759,65535
2780,65535
2797,65535
2843,65535
2832,65535
2842,65535
2758,65535
2738,65535
2774,65535
2773,65535
2771,65535
2851,65535
2847,65535
2854,65535
2721,65535
2756,65535
2737,65535
2840,65535
2752,65535
2754,65535
2755,65535
2852,65535
2853,65535
2856,65535
2841,65535
2742,65535
2727,65535
2744,65535
2726,65535
2743,65535
2725,65535
2746,65535
2787,65535
2766,65535
2763,65535
2765,65535
2745,65535
2764,65535
2552,65535
2501,65535
2443,65535
2442,65535
2320,65535
2381,65535
2382,65535
2498,65535
2499,65535
2438,65535
2439,65535
2497,65535
2441,65535
2379,65535
2380,65535
2319,65535
2551,65535
2550,65535
2563,7557
2321,4213
2322,4182
2383,4194
2384,4905
2446,4948
2445,4956
2503,4975
2385,4939
2504,7678
2505,7700
2557,7724
2558,7749
2559,7773
2560,7737
2564,7513
2562,7625
2561,7665
2605,7680
2609,5264
2565,5209
2566,5194
2515,5139
2397,3559
2457,5120
2458,5104
2401,3731
2337,3472
2336,3476
2399,3518
2398,3539
2402,3765
2333,3696
2273,3731
2219,3755
2218,3767
2159,3792
2454,5824
2393,5790
2512,7524
2502,8309
2608,7943
2156,3914
2155,3946
2154,3975
2213,3991
2212,4003
2211,4051
2210,4092
2264,4099
2324,4133
2323,4149
2030,65535
2094,65535
2157,3878
2450,7921
2388,7970
2387,8038
2326,8075
2266,4280
2265,4235
2508,7892
2396,3628
2335,3646
2334,3657
2158,3817
2279,7345
2278,7309
2222,7278
2221,7260
2276,7242
2275,2844
2261,5727
2207,6585
2149,6644
2554,5027
2599,5057
2633,5095
2664,5130
2689,5167
2690,5193
2691,5209
2692,5233
2152,6338
2089,7046
2088,6384
2025,7179
2603,65535
2602,65535
2556,65535
2693,7172
2671,8955
2670,8935
2694,8894
2553,65535
2665,65535
2705,65535
2710,65535
2668,65535
2639,65535
2463,6586
2521,6622
2572,6645
2451,7806
2390,7775
2391,7595
2392,6232
2215,7800
2268,65535
2093,65535
2092,65535
2028,65535
2024,6414
2150,4452
2086,4482
2209,4439
2023,5553
2087,5506
2148,8599
2262,5712
2327,65535
1560,384
1630,433
1631,393
1559,467
1629,489
1558,486
1634,393
1633,357
1482,437
1481,423
1699,349
1700,364
1701,449
1563,394
2070,118
2008,75
2009,64
1959,54
1958,30
2006,12
1957,0
1956,6
2193,307
2132,249
1912,72
1911,65
1865,337
1866,279
2007,34
2069,40
2010,93
2011,180
1961,85
2072,109
1913,219
1867,290
1962,118
1914,127
1915,160
1909,254
1636,453
1635,441
1564,422
1702,480
1637,478
1638,512
1565,459
1486,495
1760,456
1704,470
1703,457
1763,485
1762,478
1817,478
1705,527
1863,101
1815,419
1759,406
863,1808
758,1901
808,1852
982,2023
1036,2030
1099,2065
1100,2093
1166,2494
1167,2989
1237,2646
1238,2681
1375,2751
1308,2820
1309,2729
1236,2947
1235,2581
1101,2124
1037,2061
971,1604
1025,1587
1026,1602
1027,1615
1089,1628
720,1864
674,1910
864,1690
865,1711
919,1606
1024,1551
975,1725
974,1695
1028,1650
873,2050
925,1996
924,1973
917,1670
918,1646
623,2085
712,1957
713,1990
667,1995
622,2053
809,1838
719,1838
765,1799
972,1636
868,1748
869,1760
815,1779
920,2015
973,1681
981,1974
926,2075
927,2083
928,2107
1354,1600
1288,1541
1218,1517
1152,1586
1023,1515
1353,1614
1085,1495
1148,1425
1147,1418
1082,1369
772,2136
771,2093
819,2068
584,1984
628,1951
629,1940
1033,1871
978,1826
1031,1799
1030,1753
1029,1736
1091,1713
1035,1952
1034,1895
979,1853
1526,2870
1449,2908
1378,2936
1448,2859
1524,2837
1038,2108
1447,2900
1768,536
1710,554
1767,547
391,1568
365,1522
339,1505
400,1466
393,1692
392,1670
396,1598
399,1484
443,1656
449,1754
450,1759
419,1670
414,1709
415,1650
387,1643
388,1612
389,1592
282,1500
281,1520
314,1592
313,1580
405,895
411,1714
442,1673
255,1450
376,1354
373,1373
278,1465
275,1534
248,1582
335,1667
334,1641
306,1586
307,1574
176,1576
225,1514
320,1409
249,1572
287,1412
285,1436
776,908
731,919
315,1489
316,1470
204,1584
440,815
439,1268
166,1905
269,1822
383,1760
1247,4390
1246,4412
1384,4496
1679,4658
1178,4383
1105,3049
1172,3068
1173,3118
1242,3120
1241,3112
1314,3269
1313,3175
1171,3094
1382,3375
1243,3317
1317,3456
1107,3057
1108,3236
1109,3521
1041,3066
1043,3276
1042,3267
1044,3330
1176,4284
1174,3343
1177,4332
1110,4339
985,3112
986,3155
932,3173
774,1370
730,933
825,915
728,1348
729,966
727,1539
682,1006
684,1338
685,1258
732,1320
683,1342
2134,408
2194,431
2068,115
2129,170
1905,149
1907,39
1906,80
1953,385
2002,426
2064,445
2125,467
2137,867
2196,538
2195,484
1859,104
1810,189
1755,272
2131,304
2192,340
1862,354
1861,307
1812,189
1860,577
1809,279
1756,218
1869,511
1822,535
1821,549
1916,486
1819,520
1764,522
1820,536
1698,270
1757,254
1566,498
1567,506
1488,549
1489,568
1412,576
1413,603
1414,633
1818,500
1568,697
1410,524
2128,217
2189,244
2066,326
2065,365
2067,167
1643,596
1571,748
1491,740
2004,409
2003,427
1697,280
2135,623
2075,619
1642,655
1955,15
2130,391
2005,105
1858,135
1816,8488
1864,8481
1766,567
1910,326
1868,487
2188,451
2127,420
1903,419
2001,482
2063,479
2062,470
1813,416
1758,354
1639,638
1640,660
1952,428
2126,8570
1569,636
1965,523
1966,568
2014,589
1490,594
1917,601
1870,564
1871,574
1570,722
1707,573
2076,662
2013,564
1964,517
1487,506
1908,262
2251,3681
2199,3625
2198,3488
2136,625
1641,694
1954,343
1765,589
1857,173
2187,556
1904,397
1856,405
1951,395
1708,1323
245,8799
244,8782
357,8786
246,8914
247,8943
197,9037
223,9015
44,9379
43,9439
3,9575
23,9549
22,9538
63,9321
85,9263
84,9218
108,8718
149,8672
172,9063
296,8766
294,8814
355,8914
354,8946
326,9024
295,8923
291,8935
293,9057
260,8943
356,8974
441,8574
412,8597
329,8932
300,8876
148,8646
214,8884
146,8767
110,8848
262,8909
258,9322
292,9085
257,9387
235,8907
187,8807
212,8863
211,8890
186,8811
162,8785
161,8864
165,8763
189,8963
238,9044
237,9009
263,8945
265,8964
266,8942
267,8930
268,8770
26,9539
25,9507
105,65535
62,65535
83,65535
126,8885
175,9320
152,9254
151,9244
150,9203
103,8823
242,8716
191,8670
192,8721
217,8744
218,8797
145,8707
144,8791
167,8699
190,8677
219,8814
159,8911
185,8855
158,8968
188,8799
160,8876
143,65535
122,65535
75,65535
54,65535
198,9448
270,8811
221,8852
301,8909
302,8746
330,8773
331,8795
115,8847
133,8906
139,8803
134,8880
114,9404
48,65535
69,65535
92,9080
164,8873
4,65535
107,9225
129,9310
109,8750
125,8791
124,8765
127,65535
82,65535
67,65535
91,9248
93,9047
137,9182
113,9202
112,9160
136,65535
49,65535
72,65535
71,65535
406,1425
805,7090
858,6895
859,7036
967,1074
1142,1209
1080,6735
1022,6776
1079,6768
968,6891
1206,1166
915,7042
916,7077
914,7014
807,7129
911,8236
1078,6992
1207,1224
1278,1268
1277,1271
1344,1291
1415,1332
1492,1387
1345,1348
1346,1318
1208,1216
1209,1296
1143,1333
1144,1349
1145,1364
1417,1344
1493,1404
1494,1423
1572,1438
1081,7061
970,7264
408,1373
382,1401
437,854
467,835
409,1354
403,1309
432,1353
433,1334
404,1323
352,1426
351,1405
349,1366
317,1602
374,1343
346,1434
283,1472
410,1287
438,1304
465,909
490,992
491,1297
435,1356
436,1352
379,1476
323,1547
289,1577
377,1387
378,1360
592,1507
593,1545
552,1452
445,1577
424,1634
423,1666
416,1609
361,1639
362,1615
371,1531
372,1503
343,1425
344,1416
286,1803
227,1501
252,1494
284,1447
318,1429
250,1676
312,1460
340,1502
368,1541
369,1613
370,1722
341,1561
367,1552
308,1776
276,1514
277,1495
280,1488
310,1483
338,1530
366,1542
274,1596
305,1893
420,1718
363,1631
418,1695
550,7081
579,7104
576,7049
577,7061
578,7077
520,7057
618,7071
662,7101
619,7088
620,7101
621,7095
665,7077
666,7069
664,7097
580,7116
2260,65535
2257,65535
2206,65535
2146,65535
2314,65535
2313,65535
2312,65535
2373,65535
2256,65535
2205,65535
2434,65535
2435,65535
2375,65535
2376,65535
2433,65535
2491,65535
2490,65535
2492,65535
2546,65535
2597,65535
2596,65535
2544,65535
2145,65535
2082,65535
2020,65535
2494,65535
0,65535
11,65535
1052,2068
1053,2055
941,2095
1740,1501
1796,1575
1615,1359
1681,1436
1545,1304
1797,1615
1544,1315
1741,1593
1795,1896
1617,1290
1546,1274
1616,1344
1683,1381
1467,1309
1547,1250
1465,1372
1387,1448
1388,1412
1464,1432
1462,2059
1461,2080
1542,1971
1463,2023
1682,1568
1543,1436
1618,1317
1742,1694
1460,1770
1248,1413
1850,634
1801,633
1803,586
882,859
881,866
938,1338
883,1304
940,2838
1998,399
1902,353
1807,306
1691,507
1694,386
1693,421
1749,516
1752,447
1753,318
1627,481
1628,494
1557,539
1479,576
1402,563
1808,287
1946,595
1947,530
1948,413
1997,409
1855,345
1690,506
2060,415
1949,447
1950,374
1751,490
1692,509
1999,389
1901,455
1900,496
1852,645
1853,524
1805,386
1750,503
1854,360
1806,346
1748,547
2061,456
2000,454
1804,699
1899,665
2884,65535
2892,65535
2883,65535
2876,65535
2874,65535
2882,65535
2877,65535
2911,65535
2905,65535
2906,65535
2896,65535
2887,65535
2881,65535
2880,65535
2888,65535
2902,65535
2903,65535
2907,65535
2912,65535
2895,65535
2894,65535
2875,65535
2885,65535
2893,65535
2904,65535
2865,65535
2866,65535
2909,65535
2913,65535
2886,65535
2878,65535
2869,65535
2871,65535
2872,65535
2879,65535
2870,65535
1330,575
1331,560
1401,571
1262,597
1263,589
1478,599
1403,530
1261,606
1480,544
1264,586
1390,1323
1389,1342
1319,1369
1251,1355
1250,1387
1285,1442
1284,1446
1214,1418
1146,1384
1505,1667
1504,1601
1582,1639
1581,1567
1713,1546
1771,1528
1654,1678
1653,1651
1651,1603
2096,2782
2033,2742
1972,2713
1923,2645
1922,2623
1874,2317
1873,2030
1919,1983
1829,2994
1579,1503
1424,1495
1711,1520
1348,1344
1419,1364
1359,1771
1429,1722
1428,1708
1421,1421
1577,1455
1499,1428
1230,2015
1365,1952
1511,1874
1300,1997
1366,1969
1512,1902
1716,1736
1503,2013
1276,1298
1347,1328
1349,1376
1645,1512
1578,1490
1770,1524
1715,1579
1150,1483
1217,1497
1149,1459
1580,1529
1352,1536
1502,1518
1825,1936
1718,1891
1717,1865
1872,1969
1656,1780
1648,1555
1712,1532
1213,1408
1212,1389
1084,1430
1420,1410
1281,1334
1282,1395
1587,1774
1586,1741
1585,1730
1652,1698
1427,1876
1975,2817
1977,2885
1932,2955
1931,3580
1426,1596
1422,1438
1425,1581
1583,1667
1501,1525
1283,1436
1286,1483
1215,1468
1211,1365
1210,1339
1083,1401
1655,1769
2220,2823
1355,5891
1772,1537
1436,1920
1435,1910
1589,1843
1163,2048
1735,3168
1791,3101
1841,3078
1840,3034
1219,1600
1220,1639
1647,1541
1646,1533
1279,1286
1714,1556
1575,1515
1576,1477
1498,1485
1573,1527
1496,1545
1497,1516
2177,2965
2176,3035
2294,2952
2293,3071
2237,3012
2236,3041
2364,2813
2302,2753
2301,2675
2245,2577
2056,2707
2057,2793
2055,2686
2184,2738
2120,2744
2244,2658
2538,2998
2537,2979
2591,3095
1940,2870
1989,2878
1990,2814
2539,2998
2482,2989
2483,2951
2424,2847
2121,2805
2119,2618
2050,2927
2049,3005
2048,3423
2185,2771
2243,2497
2299,2711
2241,2660
2485,3029
2542,3084
2353,3043
2292,2950
2419,2837
2478,2884
2479,2919
2536,2946
2484,2990
2486,2983
2354,2882
2416,3059
2242,2705
2355,2920
2300,2718
1991,2818
1992,2825
2477,2875
2534,2896
2535,3011
2588,2916
2587,2930
2630,2981
2051,2739
2116,2633
2175,3068
2586,65535
2541,3151
2178,2940
2179,2743
2240,2690
2239,2914
2238,2984
2052,2870
2053,2836
1987,3110
1988,2958
1939,2982
2594,3101
2593,3086
2358,2804
2357,2814
2420,2870
2247,2866
2427,2956
2428,2978
2181,2537
2180,2586
2417,2864
2590,3076
2297,2699
2361,2891
2362,2774
2423,2862
2422,2827
2174,3298
2356,2925
1941,2859
2365,2990
2112,3303
2047,3445
2182,2676
2359,2753
2533,3691
2295,3016
2115,2706
2632,3136
2631,3075
2186,2923
2298,2785
2360,2809
2235,3261
2291,3274
2487,3205
2246,2798
2425,3606
2117,2930
2543,3158
1893,65535
2421,2962
2476,2880
2592,3134
604,7066
