middle_point_id,reach_time_minutes
2835,65535
2836,65535
2806,65535
2822,65535
2823,65535
2807,65535
2846,65535
887,1344
888,1318
1326,1360
1185,1345
999,1370
1057,1481
1552,1345
1120,1314
1473,1355
944,1381
832,1328
1257,1336
1396,1684
1622,1375
1327,3784
1184,1375
1183,1389
1324,1449
1255,1428
1394,1482
1252,1495
1253,1487
1182,1454
1328,65535
1470,1500
1321,1538
1322,1521
1323,2405
1391,1597
1551,1372
1393,1523
1472,1515
1471,1429
1181,2774
1118,1499
1059,1250
1121,1280
1469,1561
1468,1622
1548,1532
1325,1405
1625,1252
1623,1317
1258,1297
1256,1394
791,1236
891,1288
703,1207
704,1191
660,1193
1553,1347
1624,1267
1554,1370
1474,1360
1475,1367
1550,1382
1549,1494
1320,1570
1466,1649
1541,2515
1318,1639
1249,1661
1186,1316
1003,1254
1002,1257
741,1293
788,1263
434,1364
697,1277
752,1190
1056,1392
1006,1205
907,1149
518,1251
1011,1078
1000,1293
1055,3062
997,3031
994,2925
996,2997
995,2981
991,2772
1112,65535
1114,3012
1051,2975
1398,1692
1395,1710
1001,1268
1811,1017
1960,774
1769,421
1823,399
1329,65535
1332,1062
1259,1345
1200,957
1199,955
1140,1098
1141,1099
783,1340
1689,1347
1802,1460
1945,1801
2183,2419
2418,2837
1994,1835
1995,1868
2059,1417
1621,65535
1555,1207
1754,1264
1180,2303
1106,4005
933,4166
827,1448
2122,2659
2124,1499
493,1262
519,1255
544,1249
545,1253
494,1267
470,1307
543,1263
469,1282
517,1268
574,1261
573,1228
495,1300
546,1269
613,1209
612,1213
492,1276
572,1240
571,1279
570,1288
610,1310
575,1316
547,1298
516,1281
611,1281
542,1307
569,1340
609,1318
548,2229
549,2264
1404,1030
1405,1014
1266,1019
1193,1067
743,1289
742,1282
747,1231
746,1240
745,1253
744,1265
790,1245
789,1253
839,1268
838,1268
738,1350
739,1308
740,1304
890,1301
834,1334
784,1333
889,1313
856,1214
855,1200
854,1208
853,1205
852,1190
910,1192
909,1181
908,1167
964,1151
965,1178
1020,1151
966,1203
963,1130
1021,1249
1271,958
1270,951
1339,937
1338,956
1071,994
1072,987
1135,967
1408,963
1337,997
1269,975
1268,1000
1136,978
1075,1029
1077,1098
1076,1097
1019,1062
1018,1053
1074,1000
1137,993
1272,973
1274,1057
1275,1070
1205,1077
1204,1086
1273,1067
1198,976
1197,1005
1341,1002
1134,972
1133,1009
1069,1021
1132,1013
1073,1010
1203,1100
1202,1065
1201,993
1139,1064
1267,1006
1138,1016
1340,972
1196,1042
1342,1036
1409,883
1485,931
1407,975
1561,901
1632,904
1484,933
1483,1010
1562,896
1194,1045
1130,1030
1195,1032
1335,1023
1129,1050
1066,1093
1128,1152
1067,1058
1131,1019
1334,1084
1336,1034
1265,1055
1333,1059
1406,1029
857,1788
803,1822
804,2239
860,2247
969,2200
913,2187
912,2125
861,2257
806,2300
659,1197
751,1188
658,1213
705,1196
702,1216
706,1203
753,1204
614,1204
701,1219
661,1202
616,1208
848,1141
796,1175
797,1160
798,1153
750,1194
707,1218
615,1241
748,1231
845,1148
846,1173
657,1246
749,1214
795,1195
617,1251
663,1226
794,1223
847,1157
849,1170
902,1142
901,1123
900,1131
793,1238
899,1188
898,1209
897,1195
844,1160
842,1222
841,1225
956,1096
792,1232
843,1208
840,1266
850,1173
903,1125
800,1181
755,1193
756,1210
710,1274
711,1317
962,1109
961,1117
904,1126
906,1144
851,1167
802,1204
801,1185
799,1198
959,1109
1014,1037
1013,1048
708,1794
709,1822
754,1215
757,1271
1017,1082
1016,1077
960,1104
905,1176
958,1077
957,1074
1070,1033
1015,1085
1012,1064
1068,1062
1005,1227
1004,1236
1060,1245
1063,1180
1065,1111
1127,1168
1062,1209
1124,1224
1123,1245
1125,1212
1188,1251
1122,1276
1058,1268
947,1282
946,1339
949,1248
945,1382
948,1278
1190,1298
1187,1271
951,1218
895,1240
952,1204
1009,1099
1008,1131
1010,1089
1007,1152
1061,1226
954,1118
896,1209
953,1181
1126,1203
1064,1151
1189,1353
955,1111
950,1249
892,1276
786,1288
836,1309
837,1273
787,1280
700,1250
655,1312
654,1306
653,1298
698,1274
699,1272
608,1340
696,1388
656,1309
833,1322
785,1302
835,1305
693,1332
894,1244
893,1270
1343,1052
1192,1106
1191,1175
828,1438
829,1424
780,1377
830,1419
779,1421
782,1337
529,1496
886,1353
596,1490
556,1537
598,1440
597,1473
526,1524
555,1563
525,1616
524,1584
523,1568
688,1399
607,1374
650,1422
651,1417
652,1409
737,1348
694,1334
695,1326
645,1398
646,1373
690,1364
600,1402
599,1410
781,1359
736,1360
558,1497
644,1417
643,1423
648,1378
692,1364
691,1351
513,1392
541,1377
540,1432
568,1363
530,1518
831,1344
559,1531
560,1554
642,1543
557,1519
496,1577
471,1590
444,1662
446,1619
528,1503
527,1513
562,1439
602,1408
734,1386
466,1450
464,1373
463,1388
478,1614
481,1552
480,1590
479,1589
647,1388
488,1428
502,1566
689,1391
533,1470
532,1497
531,1521
601,1506
484,1463
508,1434
510,1479
509,1461
534,1498
482,1577
506,1520
606,1415
455,1693
429,1502
456,1720
457,1606
428,1568
458,1523
554,1586
594,1664
640,1594
639,1706
551,1571
681,1727
636,1715
635,1689
590,1631
778,1445
777,1452
485,1444
486,1432
462,1391
563,1477
885,1364
943,1393
564,1508
641,1517
504,1544
503,1553
501,1576
500,1637
561,1581
254,1513
350,1464
321,1493
319,1533
251,1580
375,1535
347,1571
687,1429
565,1501
539,1423
511,1460
536,1495
649,1448
603,1465
605,2846
733,1407
735,1369
489,1467
514,1419
461,1628
460,1630
459,1614
468,1330
154,1660
178,1615
203,1600
228,1572
402,1518
401,1578
505,1525
522,1599
451,1806
452,1766
477,1668
476,1704
483,1688
884,1474
431,1458
430,1477
454,1704
595,1537
395,1661
394,1683
422,1826
417,1658
390,1643
538,1422
567,1391
426,1759
397,1659
398,1639
499,1656
475,1701
497,1588
498,1610
311,1514
342,1566
345,1525
421,1716
515,1341
472,1641
448,1672
473,1696
474,1739
353,1519
381,1526
256,1556
290,1531
324,1498
380,1541
407,1490
253,1570
226,1528
201,1542
177,1597
824,1616
775,1502
826,1459
939,1507
936,2758
937,1573
880,1525
566,1488
2821,65535
2834,65535
2833,65535
2789,65535
2790,65535
2770,65535
2788,65535
2776,65535
2795,65535
2775,65535
2794,65535
2825,65535
2824,65535
2826,65535
2811,65535
2812,65535
2796,65535
2827,65535
2858,65535
2855,65535
2849,65535
2838,65535
2814,65535
2813,65535
2828,65535
2839,65535
2791,65535
2792,65535
2803,65535
2830,65535
2815,65535
2819,65535
2818,65535
2817,65535
2831,65535
2810,65535
2829,65535
2783,65535
2820,65535
2804,65535
2785,65535
2784,65535
2762,65535
2768,65535
2751,65535
2750,65535
2733,65535
2769,65535
2720,65535
2761,65535
2741,65535
2837,65535
2793,65535
2808,65535
2753,65535
2736,65535
2735,65535
2809,65535
2772,65535
2845,65535
2844,65535
2848,65535
2777,65535
2778,65535
2779,65535
2759,65535
2780,65535
2797,65535
2843,65535
2832,65535
2842,65535
2758,65535
2738,65535
2774,65535
2773,65535
2771,65535
2851,65535
2847,65535
2854,65535
2721,65535
2756,65535
2737,65535
2840,65535
2752,65535
2754,65535
2755,65535
2852,65535
2853,65535
2856,65535
2841,65535
2742,65535
2727,65535
2744,65535
2726,65535
2743,65535
2725,65535
2746,65535
2787,65535
2766,65535
2763,65535
2765,65535
2745,65535
2764,65535
2552,65535
2501,65535
2443,65535
2442,65535
2320,65535
2381,65535
2382,65535
2498,65535
2499,65535
2438,65535
2439,65535
2497,65535
2441,65535
2379,65535
2380,65535
2319,65535
2551,65535
2550,65535
2563,65535
2321,65535
2322,65535
2383,65535
2384,65535
2446,65535
2445,65535
2503,65535
2385,65535
2504,65535
2505,65535
2557,65535
2558,65535
2559,65535
2560,65535
2564,65535
2562,65535
2561,65535
2605,65535
2609,65535
2565,65535
2566,65535
2515,4756
2397,4519
2457,4736
2458,4720
2401,65535
2337,4432
2336,4436
2399,4478
2398,4499
2402,65535
2333,4656
2273,4691
2219,4715
2218,4727
2159,4752
2454,65535
2393,65535
2512,65535
2502,65535
2608,65535
2156,65535
2155,65535
2154,65535
2213,65535
2212,65535
2211,65535
2210,65535
2264,65535
2324,65535
2323,65535
2030,65535
2094,65535
2157,65535
2450,65535
2388,65535
2387,65535
2326,65535
2266,65535
2265,65535
2508,65535
2396,4588
2335,4606
2334,4617
2158,4777
2279,65535
2278,65535
2222,65535
2221,65535
2276,65535
2275,3804
2261,65535
2207,65535
2149,65535
2554,65535
2599,65535
2633,65535
2664,65535
2689,65535
2690,65535
2691,65535
2692,65535
2152,65535
2089,65535
2088,65535
2025,65535
2603,65535
2602,65535
2556,65535
2693,65535
2671,65535
2670,65535
2694,65535
2553,65535
2665,65535
2705,65535
2710,65535
2668,65535
2639,65535
2463,65535
2521,65535
2572,65535
2451,65535
2390,65535
2391,65535
2392,65535
2215,65535
2268,65535
2093,65535
2092,65535
2028,65535
2024,65535
2150,65535
2086,65535
2209,65535
2023,65535
2087,65535
2148,65535
2262,65535
2327,65535
1560,926
1630,1005
1631,969
1559,1014
1629,1079
1558,1074
1634,899
1633,914
1482,976
1481,936
1699,912
1700,963
1701,909
1563,871
2070,838
2008,808
2009,788
1959,786
1958,809
2006,848
1957,844
1956,885
2193,947
2132,887
1912,794
1911,816
1865,1087
1866,1081
2007,881
2069,866
2010,843
2011,984
1961,743
2072,859
1913,1021
1867,1092
1962,734
1914,708
1915,320
1909,940
1636,813
1635,835
1564,849
1702,846
1637,851
1638,885
1565,853
1486,858
1760,958
1704,771
1703,801
1763,445
1762,859
1817,875
1705,949
1863,859
1815,925
1759,985
863,2768
758,2861
808,2812
982,2983
1036,2990
1099,3025
1100,3053
1166,3454
1167,3949
1237,3606
1238,3641
1375,3711
1308,3780
1309,3689
1236,3907
1235,3541
1101,3084
1037,3021
971,2564
1025,2547
1026,2562
1027,2575
1089,2588
720,2824
674,2870
864,2650
865,2671
919,2566
1024,2511
975,2685
974,2655
1028,2610
873,3010
925,2956
924,2933
917,2630
918,2606
623,3045
712,2917
713,2950
667,2955
622,3013
809,2798
719,2798
765,2759
972,2596
868,2708
869,2720
815,2739
920,2975
973,2641
981,2934
926,3035
927,3043
928,3067
1354,2560
1288,2501
1218,2477
1152,2546
1023,2475
1353,2574
1085,2455
1148,2385
1147,2378
1082,2329
772,3096
771,3053
819,3028
584,2944
628,2911
629,2900
1033,2831
978,2786
1031,2759
1030,2713
1029,2696
1091,2673
1035,2912
1034,2855
979,2813
1526,3830
1449,3868
1378,3896
1448,3819
1524,3797
1038,3068
1447,3860
1768,407
1710,464
1767,452
391,1621
365,1615
339,1568
400,1585
393,1704
392,1670
396,1644
399,1605
443,1711
449,1714
450,1778
419,1633
414,1713
415,1675
387,1720
388,1731
389,1668
282,1738
281,1583
314,1597
313,1602
405,1375
411,2674
442,2633
255,1558
376,1442
373,1552
278,1525
275,1599
248,1648
335,1680
334,1665
306,1649
307,1638
176,1590
225,1654
320,1576
249,1756
287,1538
285,1606
776,1457
731,1519
315,1537
316,1548
204,1681
440,1403
439,1457
166,2865
269,2782
383,2720
1247,65535
1246,65535
1384,65535
1679,65535
1178,65535
1105,4009
1172,4028
1173,4078
1242,4080
1241,4072
1314,4229
1313,4135
1171,4054
1382,4335
1243,4277
1317,4416
1107,4017
1108,4196
1109,4481
1041,4026
1043,4236
1042,4227
1044,4290
1176,65535
1174,4303
1177,65535
1110,65535
985,4072
986,4115
932,4133
774,1610
730,1537
825,1572
728,1599
729,1580
727,1741
682,1596
684,1578
685,1558
732,1541
683,2302
2134,963
2194,985
2068,1075
2129,1130
1905,1049
1907,992
1906,1090
1953,1345
2002,1386
2064,1433
2125,1463
2137,1121
2196,1075
2195,1022
1859,1026
1810,1038
1755,1081
2131,940
2192,978
1862,874
1861,913
1812,952
1860,1037
1809,1239
1756,1042
1869,222
1822,335
1821,338
1916,159
1819,300
1764,352
1820,270
1698,919
1757,1010
1566,895
1567,935
1488,954
1489,1016
1412,1024
1413,1073
1414,1029
1818,378
1568,1074
1410,978
2128,1177
2189,1204
2066,1286
2065,1408
2067,1127
1643,824
1571,878
1491,968
2004,1369
2003,1387
1697,961
2135,1006
2075,757
1642,858
1955,975
2130,1477
2005,888
1858,1034
1816,3688
1864,3681
1766,915
1910,981
1868,258
2188,1411
2127,1380
1903,1379
2001,1469
2063,2262
2062,1430
1813,996
1758,1074
1639,935
1640,961
1952,1388
2126,3770
1569,971
1965,113
1966,0
2014,109
1490,1022
1917,216
1870,267
1871,311
1570,978
1707,921
2076,182
2013,806
1964,850
1487,956
1908,963
2251,65535
2199,65535
2198,65535
2136,993
1641,1105
1954,1048
1765,936
1857,1133
2187,1885
1904,1357
1856,1365
1951,1355
1708,1308
245,3999
244,3982
357,3986
246,4114
247,4143
197,4237
223,4215
44,4579
43,4639
3,4775
23,4749
22,4738
63,4521
85,4463
84,4418
108,3918
149,3872
172,4263
296,3966
294,4014
355,4114
354,4146
326,4224
295,4123
291,4135
293,4257
260,4143
356,4174
441,3774
412,3797
329,4132
300,4076
148,3846
214,4084
146,3967
110,4048
262,4109
258,4522
292,4285
257,4587
235,4107
187,4007
212,4063
211,4090
186,4011
162,3985
161,4064
165,3963
189,4163
238,4244
237,4209
263,4145
265,4164
266,4142
267,4130
268,3970
26,4739
25,4707
105,65535
62,65535
83,65535
126,4085
175,4520
152,4454
151,4444
150,4403
103,4023
242,3916
191,3870
192,3921
217,3944
218,3997
145,3907
144,3991
167,3899
190,3877
219,4014
159,4111
185,4055
158,4168
188,3999
160,4076
143,65535
122,65535
75,65535
54,65535
198,4648
270,4011
221,4052
301,4109
302,3946
330,3973
331,3995
115,4047
133,4106
139,4003
134,4080
114,4604
48,65535
69,65535
92,4280
164,4073
4,65535
107,4425
129,4510
109,3950
125,3991
124,3965
127,65535
82,65535
67,65535
91,4448
93,4247
137,4382
113,4402
112,4360
136,65535
49,65535
72,65535
71,65535
406,1521
805,2290
858,2095
859,2236
967,1972
1142,2109
1080,2115
1022,2106
1079,2124
968,2091
1206,2085
915,2242
916,2277
914,2214
807,2329
911,3436
1078,2192
1207,2184
1278,2228
1277,2231
1344,2251
1415,2292
1492,2347
1345,2308
1346,2278
1208,2176
1209,2256
1143,2293
1144,2309
1145,2324
1417,2304
1493,2364
1494,2383
1572,2398
1081,2261
970,2464
408,1530
382,1540
437,1467
467,1436
409,1504
403,1426
432,1584
433,1543
404,1390
352,1591
351,1569
349,1503
317,1764
374,1572
346,1687
283,1713
410,1476
438,1493
465,1438
490,1403
491,1345
435,1537
436,1496
379,1625
323,1764
289,1593
377,1497
378,1472
592,1625
593,1665
552,1577
445,1636
424,1717
423,1677
416,2377
361,1710
362,1694
371,1705
372,1739
343,1620
344,1569
286,1631
227,1684
252,1614
284,1605
318,1657
250,1608
312,1547
340,1562
368,1601
369,1613
370,2372
341,1618
367,1619
308,1614
276,1579
277,1560
280,1575
310,1543
338,1590
366,1672
274,1659
305,1682
420,1699
363,1754
418,1640
550,2281
579,2304
576,2249
577,2261
578,2277
520,2257
618,2271
662,2301
619,2288
620,2301
621,2295
665,2277
666,2269
664,2297
580,2316
2260,65535
2257,65535
2206,65535
2146,65535
2314,65535
2313,65535
2312,65535
2373,65535
2256,65535
2205,65535
2434,65535
2435,65535
2375,65535
2376,65535
2433,65535
2491,65535
2490,65535
2492,65535
2546,65535
2597,65535
2596,65535
2544,65535
2145,65535
2082,65535
2020,65535
2494,65535
0,65535
11,65535
1052,3028
1053,3015
941,3055
1740,2461
1796,2535
1615,2319
1681,2396
1545,2200
1797,2575
1544,2275
1741,2553
1795,2856
1617,2220
1546,2206
1616,2237
1683,2341
1467,1595
1547,1650
1465,2180
1387,2247
1388,1733
1464,2264
1462,3019
1461,3040
1542,2931
1463,2983
1682,2528
1543,2396
1618,2277
1742,2654
1460,2730
1248,2262
1850,1492
1801,2178
1803,1426
882,1459
881,1468
938,1518
883,1479
940,3798
1998,1359
1902,1313
1807,1266
1691,1344
1694,1213
1693,1381
1749,1338
1752,1287
1753,1244
1627,1191
1628,1161
1557,1139
1479,1091
1402,1061
1808,1247
1946,1555
1947,1490
1948,1373
1997,1369
1855,1305
1690,1327
2060,1375
1949,1407
1950,1334
1751,1330
1692,1349
1999,1349
1901,1415
1900,1456
1852,1605
1853,1484
1805,1346
1750,1343
1854,1320
1806,1306
1748,1387
2061,1416
2000,1414
1804,1426
1899,1625
2884,65535
2892,65535
2883,65535
2876,65535
2874,65535
2882,65535
2877,65535
2911,65535
2905,65535
2906,65535
2896,65535
2887,65535
2881,65535
2880,65535
2888,65535
2902,65535
2903,65535
2907,65535
2912,65535
2895,65535
2894,65535
2875,65535
2885,65535
2893,65535
2904,65535
2865,65535
2866,65535
2909,65535
2913,65535
2886,65535
2878,65535
2869,65535
2871,65535
2872,65535
2879,65535
2870,65535
1330,1115
1331,1073
1401,1066
1262,1086
1263,1069
1478,1077
1403,1056
1261,1151
1480,1067
1264,1063
1390,1574
1389,1642
1319,1624
1251,1668
1250,1737
1285,2401
1284,2406
1214,2378
1146,2344
1505,2627
1504,2561
1582,2599
1581,2527
1713,2506
1771,2488
1654,2638
1653,2611
1651,2563
2096,3742
2033,3702
1972,3673
1923,3605
1922,3583
1874,3277
1873,2990
1919,2943
1829,3954
1579,2463
1424,2504
1711,2480
1348,2304
1419,2324
1359,2731
1429,2682
1428,2668
1421,2381
1577,2415
1499,2388
1230,2975
1365,2912
1511,2834
1300,2957
1366,2929
1512,2862
1716,2696
1503,2973
1276,2258
1347,2288
1349,2336
1645,2472
1578,2450
1770,2484
1715,2539
1150,2443
1217,2457
1149,2419
1580,2509
1352,2496
1502,2527
1825,2896
1718,2851
1717,2825
1872,2929
1656,2740
1648,2515
1712,2492
1213,2368
1212,2349
1084,2390
1420,2370
1281,2294
1282,2355
1587,2734
1586,2701
1585,2690
1652,2658
1427,2836
1975,3777
1977,3845
1932,3915
1931,4540
1426,2556
1422,2398
1425,2541
1583,2627
1501,2485
1283,2396
1286,2443
1215,2428
1211,2325
1210,2299
1083,2361
1655,2729
2220,3783
1355,65535
1772,2497
1436,2880
1435,2870
1589,2803
1163,3008
1735,4128
1791,4061
1841,4038
1840,3994
1219,2560
1220,2599
1647,2501
1646,2493
1279,2246
1714,2516
1575,2475
1576,2437
1498,2445
1573,2487
1496,2505
1497,2476
2177,2762
2176,2827
2294,2887
2293,2908
2237,2868
2236,2890
2364,2738
2302,2668
2301,2649
2245,2604
2056,2477
2057,2641
2055,2472
2184,2811
2120,2734
2244,2431
2538,2939
2537,2919
2591,2956
1940,2780
1989,2764
1990,2720
2539,2962
2482,2968
2483,2937
2424,2932
2121,2913
2119,2449
2050,2859
2049,2881
2048,2943
2185,2806
2243,2444
2299,2669
2241,2669
2485,2899
2542,3011
2353,2954
2292,2930
2419,2828
2478,2836
2479,2853
2536,2880
2484,2954
2486,2847
2354,2878
2416,2970
2242,2491
2355,2845
2300,2798
1991,2803
1992,2544
2477,2879
2534,2914
2535,2870
2588,2935
2587,2950
2630,2990
2051,2626
2116,2594
2175,2878
2586,65535
2541,3082
2178,2728
2179,2699
2240,2699
2239,2770
2238,2825
2052,2670
2053,2765
1987,2848
1988,2768
1939,2774
2594,3084
2593,3056
2358,2726
2357,2769
2420,2879
2247,3061
2427,2832
2428,2890
2181,2489
2180,2541
2417,2858
2590,2935
2297,2702
2361,2926
2362,2870
2423,2905
2422,2764
2174,2971
2356,2835
1941,2802
2365,3147
2112,2899
2047,2965
2182,2501
2359,2692
2533,3211
2295,3051
2115,2637
2632,3061
2631,3000
2186,2768
2298,2529
2360,2584
2235,3661
2291,3674
2487,3070
2246,2989
2425,3126
2117,3087
2543,3097
1893,65535
2421,2972
2476,2886
2592,3071
604,2266
