middle_point_id,reach_time_minutes
2835,65535
2836,65535
2806,65535
2822,65535
2823,65535
2807,65535
2846,65535
887,1146
888,1138
1326,915
1185,954
999,1130
1057,1157
1552,759
1120,1013
1473,819
944,1176
832,1148
1257,923
1396,829
1622,802
1327,964
1184,970
1183,999
1324,991
1255,1013
1394,1002
1252,1187
1253,1156
1182,1141
1328,65535
1470,1020
1321,1194
1322,1135
1323,1085
1391,1207
1551,798
1393,1060
1472,804
1471,949
1181,1454
1118,1199
1059,989
1121,975
1469,1081
1468,1300
1548,1065
1325,925
1625,735
1623,748
1258,947
1256,1034
791,1116
891,1049
703,1077
704,1071
660,1073
1553,807
1624,781
1554,894
1474,820
1475,901
1550,916
1549,1014
1320,1252
1466,1304
1541,1720
1318,1366
1249,1389
1186,948
1003,996
1002,998
741,1121
788,1095
434,1208
697,1150
752,1090
1056,1152
1006,1060
907,1079
518,1111
1011,962
1000,1028
1055,4022
997,3991
994,3887
996,3957
995,3941
991,2772
1112,65535
1114,4230
1051,4195
1398,972
1395,892
1001,1009
1811,427
1960,919
1769,1250
1823,1247
1329,65535
1332,881
1259,1736
1200,934
1199,933
1140,1116
1141,1117
783,1162
1689,763
1802,330
1945,1436
2183,1918
2418,2367
1994,1472
1995,1868
2059,157
1621,65535
1555,816
1754,559
1180,2303
1106,5350
933,5606
827,1268
2122,2333
2124,459
493,1122
519,1115
544,1107
545,1108
494,1122
470,1142
543,1112
469,1138
517,1126
574,1110
573,1099
495,1139
546,1114
613,1089
612,1092
492,1130
572,1105
571,1149
570,1153
610,1124
575,1166
547,1158
516,1153
611,1101
542,1135
569,1180
609,1243
548,1190
549,1219
1404,910
1405,900
1266,910
1193,1007
743,1137
742,1100
747,1111
746,1120
745,1124
744,1108
790,1104
789,1099
839,1128
838,1090
738,1159
739,1128
740,1116
890,1061
834,1132
784,1127
889,1073
856,1153
855,1140
854,1148
853,1178
852,1093
910,1132
909,1121
908,1098
964,1082
965,1134
1020,1151
966,1150
963,1054
1021,1249
1271,931
1270,929
1339,940
1338,927
1071,963
1072,978
1135,967
1408,943
1337,919
1269,918
1268,914
1136,968
1075,1029
1077,1108
1076,1066
1019,1062
1018,1053
1074,992
1137,984
1272,960
1274,1057
1275,1070
1205,1077
1204,1117
1273,1067
1198,949
1197,946
1341,1002
1134,953
1133,944
1069,934
1132,927
1073,983
1203,1100
1202,1065
1201,998
1139,1108
1267,905
1138,1016
1340,950
1196,918
1342,1036
1409,977
1485,931
1407,924
1561,791
1632,764
1484,933
1483,830
1562,796
1194,965
1130,970
1195,946
1335,920
1129,990
1066,998
1128,1033
1067,997
1131,950
1334,915
1336,898
1265,935
1333,895
1406,861
857,1788
803,3082
804,6559
860,6567
969,6520
913,6507
912,6445
861,6577
806,6620
659,1074
751,1068
658,1087
705,1076
702,1093
706,1083
753,1084
614,1084
701,1099
661,1082
616,1088
848,1021
796,1061
797,1068
798,1058
750,1074
707,1113
615,1121
748,1111
845,1051
846,1033
657,1126
749,1086
795,1075
617,1131
663,1136
794,1103
847,1022
849,1050
902,1022
901,1038
900,1066
793,1118
899,1131
898,1095
897,1109
844,1076
842,1113
841,1105
956,1140
792,1118
843,1088
840,1104
850,1089
903,1014
800,1106
755,1133
756,1183
710,1213
711,1258
962,1043
961,1036
904,1020
906,1074
851,1107
802,1130
801,1117
799,1083
959,1052
1014,1001
1013,1000
708,1723
709,1698
754,1121
757,1211
1017,1164
1016,993
960,1005
905,1056
958,1040
957,6707
1070,974
1015,999
1012,944
1068,951
1005,1040
1004,1010
1060,992
1063,1091
1065,1051
1127,1048
1062,1098
1124,1046
1123,1005
1125,1120
1188,993
1122,969
1058,980
947,1083
946,1099
949,1052
945,1117
948,1024
1190,1298
1187,969
951,1079
895,1090
952,1087
1009,1073
1008,1056
1010,982
1007,1072
1061,1093
954,1118
896,1099
953,1072
1126,1083
1064,1085
1189,1113
955,1126
950,1058
892,1072
786,1094
836,1090
837,1086
787,1092
700,1130
655,1157
654,1134
653,1156
698,1128
699,1134
608,1198
696,1120
656,1154
833,1142
785,1102
835,1087
693,1139
894,1119
893,1100
1343,1053
1192,914
1191,935
828,1258
829,1244
780,1190
830,1239
779,1256
782,1157
529,1265
886,1173
596,1310
556,1341
598,1258
597,1265
526,1307
555,1324
525,1354
524,1382
523,1347
688,1206
607,1184
650,1182
651,1164
652,1192
737,1164
694,1138
695,1125
645,1196
646,1191
690,1171
600,1215
599,1229
781,1161
736,1169
558,1251
644,1204
643,1213
648,1196
692,1145
691,1161
513,1231
541,1144
540,1200
568,1283
530,1251
831,1164
559,1243
560,1306
642,1296
557,1294
496,1382
471,1422
444,1481
446,1439
528,1299
527,1313
562,1274
602,1243
734,1200
466,1193
464,1192
463,1207
478,1430
481,1377
480,1342
479,1375
647,1208
488,1222
502,1309
689,1193
533,1318
532,1297
531,1281
601,1266
484,1307
508,1319
510,1329
509,1340
534,1328
482,1391
506,1400
606,1235
455,1494
429,1351
456,1466
457,1447
428,1417
458,1374
554,1400
594,1368
640,1347
639,1384
551,1370
681,1474
636,1468
635,1484
590,1421
778,1265
777,1272
485,1289
486,1302
462,1272
563,1356
885,1184
943,2291
564,1337
641,1323
504,1274
503,1301
501,1380
500,1420
561,1281
254,1324
350,1270
321,1301
319,1320
251,1340
375,1265
347,1336
687,1216
565,1373
539,1279
511,1315
536,1393
649,1243
603,1281
605,1406
733,1214
735,1184
489,1224
514,1220
461,1390
460,1401
459,1420
468,1145
154,1475
178,1439
203,1410
228,1393
402,1293
401,1330
505,1285
522,1392
451,1637
452,1588
477,1479
476,1475
483,1486
884,1294
431,1325
430,1357
454,1454
595,1470
395,1526
394,1550
422,1700
417,1471
390,1477
538,1310
567,1211
426,1580
397,1488
398,1526
499,1615
475,1511
497,1412
498,1429
311,1334
342,1354
345,1353
421,1577
515,1178
472,1641
448,1672
473,1696
474,1737
353,1311
381,1304
256,1436
290,1411
324,1326
380,1318
407,1248
253,1470
226,1407
201,1420
177,1477
824,1376
775,1314
826,1279
939,1327
936,2758
937,1393
880,1525
566,1400
2821,65535
2834,65535
2833,65535
2789,65535
2790,65535
2770,65535
2788,65535
2776,65535
2795,65535
2775,65535
2794,65535
2825,65535
2824,65535
2826,65535
2811,65535
2812,65535
2796,65535
2827,65535
2858,65535
2855,65535
2849,65535
2838,65535
2814,65535
2813,65535
2828,65535
2839,65535
2791,65535
2792,65535
2803,65535
2830,65535
2815,65535
2819,65535
2818,65535
2817,65535
2831,65535
2810,65535
2829,65535
2783,65535
2820,65535
2804,65535
2785,65535
2784,65535
2762,65535
2768,65535
2751,65535
2750,65535
2733,65535
2769,65535
2720,65535
2761,65535
2741,65535
2837,65535
2793,65535
2808,65535
2753,65535
2736,65535
2735,65535
2809,65535
2772,65535
2845,65535
2844,65535
2848,65535
2777,65535
2778,65535
2779,65535
2759,65535
2780,65535
2797,65535
2843,65535
2832,65535
2842,65535
2758,65535
2738,65535
2774,65535
2773,65535
2771,65535
2851,65535
2847,65535
2854,65535
2721,65535
2756,65535
2737,65535
2840,65535
2752,65535
2754,65535
2755,65535
2852,65535
2853,65535
2856,65535
2841,65535
2742,65535
2727,65535
2744,65535
2726,65535
2743,65535
2725,65535
2746,65535
2787,65535
2766,65535
2763,65535
2765,65535
2745,65535
2764,65535
2552,65535
2501,65535
2443,65535
2442,65535
2320,65535
2381,65535
2382,65535
2498,65535
2499,65535
2438,65535
2439,65535
2497,65535
2441,65535
2379,65535
2380,65535
2319,65535
2551,65535
2550,65535
2563,7077
2321,6613
2322,6582
2383,6594
2384,6800
2446,6842
2445,6849
2503,6868
2385,6833
2504,7198
2505,7220
2557,7244
2558,7269
2559,7293
2560,7257
2564,7425
2562,7145
2561,7185
2605,7200
2609,7472
2565,7548
2566,7564
2515,7575
2397,5959
2457,7605
2458,7627
2401,6036
2337,5872
2336,5876
2399,5918
2398,5939
2402,6096
2333,6096
2273,6131
2219,6155
2218,6167
2159,6192
2454,6784
2393,6750
2512,7044
2502,7036
2608,7463
2156,6314
2155,6346
2154,6375
2213,6391
2212,6403
2211,6451
2210,6492
2264,6499
2324,6533
2323,6549
2030,65535
2094,65535
2157,6278
2450,7441
2388,7490
2387,7558
2326,7595
2266,7630
2265,6974
2508,7412
2396,6028
2335,6046
2334,6057
2158,6217
2279,8186
2278,8150
2222,8119
2221,8101
2276,8083
2275,3999
2261,6806
2207,6843
2149,65535
2554,6926
2599,6958
2633,7004
2664,8691
2689,8749
2690,8855
2691,8893
2692,8926
2152,6487
2089,6566
2088,6554
2025,6699
2603,65535
2602,65535
2556,65535
2693,65535
2671,65535
2670,65535
2694,65535
2553,65535
2665,65535
2705,65535
2710,65535
2668,65535
2639,65535
2463,6106
2521,6142
2572,6165
2451,7326
2390,7295
2391,7115
2392,7078
2215,7320
2268,65535
2093,65535
2092,65535
2028,65535
2024,8377
2150,7803
2086,7851
2209,7785
2023,7953
2087,7906
2148,8119
2262,6792
2327,65535
1560,827
1630,841
1631,777
1559,848
1629,971
1558,967
1634,899
1633,802
1482,919
1481,857
1699,760
1700,846
1701,874
1563,893
2070,923
2008,915
2009,919
1959,927
1958,932
2006,926
1957,935
1956,966
2193,1019
2132,961
1912,966
1911,975
1865,1087
1866,1081
2007,881
2069,863
2010,926
2011,984
1961,930
2072,951
1913,1021
1867,1092
1962,937
1914,955
1915,994
1909,940
1636,904
1635,917
1564,906
1702,891
1637,941
1638,1042
1565,937
1486,977
1760,958
1704,955
1703,942
1763,1035
1762,1009
1817,1047
1705,1081
1863,989
1815,1006
1759,867
863,2768
758,2861
808,2812
982,2983
1036,2990
1099,3025
1100,3053
1166,3454
1167,3949
1237,3606
1238,3641
1375,3711
1308,3780
1309,3689
1236,3907
1235,3541
1101,3084
1037,3021
971,2564
1025,2547
1026,2562
1027,2575
1089,2588
720,2824
674,2870
864,2650
865,2671
919,2566
1024,2511
975,2685
974,2655
1028,2610
873,3010
925,2956
924,2933
917,2630
918,2606
623,3045
712,2917
713,2950
667,2955
622,3013
809,2798
719,2798
765,2759
972,2596
868,2708
869,2720
815,2739
920,2854
973,2641
981,2934
926,3035
927,3043
928,3067
1354,2517
1288,2501
1218,2477
1152,2546
1023,2475
1353,2501
1085,2455
1148,2385
1147,2378
1082,2329
772,3096
771,3053
819,3028
584,2944
628,2911
629,2900
1033,2831
978,2786
1031,2759
1030,2713
1029,2696
1091,2673
1035,2912
1034,2855
979,2813
1526,3830
1449,3868
1378,3896
1448,3819
1524,3797
1038,3068
1447,3860
1768,1252
1710,1215
1767,1163
391,1449
365,1411
339,1448
400,1486
393,1544
392,1518
396,1473
399,1511
443,1531
449,1655
450,1640
419,1516
414,1587
415,1563
387,1585
388,1520
389,1507
282,1465
281,1496
314,1443
313,1423
405,1255
411,1652
442,1611
255,1374
376,1273
373,1338
278,1345
275,1408
248,1455
335,1614
334,1579
306,1480
307,1469
176,1456
225,1415
320,1369
249,1481
287,1396
285,1363
776,1294
731,1302
315,1451
316,1434
204,1426
440,1177
439,1245
166,2865
269,2782
383,2720
1247,65535
1246,65535
1384,65535
1679,65535
1178,5568
1105,5366
1172,5373
1173,5384
1242,5421
1241,5450
1314,5669
1313,5575
1171,5433
1382,5775
1243,5466
1317,5856
1107,5411
1108,5419
1109,5476
1041,5380
1043,5676
1042,5667
1044,5730
1176,5469
1174,8623
1177,5521
1110,5529
985,5512
986,5555
932,5573
774,1324
730,1319
825,1332
728,1359
729,1340
727,1501
682,1356
684,1338
685,1318
732,1298
683,1462
2134,1044
2194,1053
2068,811
2129,840
1905,313
1907,912
1906,877
1953,254
2002,375
2064,408
2125,429
2137,1479
2196,1257
2195,1211
1859,388
1810,415
1755,525
2131,940
2192,978
1862,941
1861,895
1812,856
1860,893
1809,775
1756,695
1869,1236
1822,1205
1821,1221
1916,1275
1819,1096
1764,1068
1820,1195
1698,730
1757,749
1566,963
1567,1005
1488,1082
1489,1112
1412,1059
1413,1128
1414,1113
1818,1138
1568,1163
1410,960
2128,831
2189,843
2066,781
2065,770
2067,794
1643,1187
1571,1173
1491,1219
2004,811
2003,428
1697,855
2135,1114
2075,1173
1642,1148
1955,971
2130,1000
2005,1065
1858,342
1816,8008
1864,8001
1766,1157
1910,1025
1868,1227
2188,1195
2127,1164
1903,466
2001,484
2063,822
2062,382
1813,933
1758,789
1639,1048
1640,1090
1952,165
2126,8090
1569,1111
1965,1302
1966,1348
2014,1298
1490,1162
1917,1261
1870,1250
1871,1264
1570,1184
1707,1098
2076,1190
2013,1296
1964,1340
1487,1064
1908,1057
2251,3201
2199,3145
2198,3008
2136,1163
1641,1105
1954,1048
1765,1176
1857,416
2187,445
1904,470
1856,418
1951,155
1708,1308
245,8319
244,8302
357,8306
246,8434
247,8463
197,8557
223,8535
44,8899
43,8959
3,9095
23,9069
22,9058
63,8841
85,8783
84,8738
108,8238
149,8192
172,8583
296,8286
294,8334
355,8434
354,8466
326,8544
295,8443
291,8455
293,8577
260,8463
356,8494
441,8094
412,8117
329,8452
300,8396
148,8166
214,8404
146,8287
110,8368
262,8429
258,8842
292,8605
257,8907
235,8427
187,8327
212,8383
211,8410
186,8331
162,8305
161,8384
165,8283
189,8483
238,8564
237,8529
263,8465
265,8484
266,8462
267,8450
268,8290
26,9059
25,9027
105,65535
62,65535
83,65535
126,8405
175,8840
152,8774
151,8764
150,8723
103,8343
242,8236
191,8190
192,8241
217,8264
218,8317
145,8227
144,8311
167,8219
190,8197
219,8334
159,8431
185,8375
158,8488
188,8319
160,8396
143,65535
122,65535
75,65535
54,65535
198,8968
270,8331
221,8372
301,8429
302,8266
330,8293
331,8315
115,8367
133,8426
139,8323
134,8400
114,8924
48,65535
69,65535
92,8600
164,8393
4,65535
107,8745
129,8830
109,8270
125,8311
124,8285
127,65535
82,65535
67,65535
91,8768
93,8567
137,8702
113,8722
112,8680
136,65535
49,65535
72,65535
71,65535
406,1321
805,6610
858,6415
859,6556
967,2034
1142,2169
1080,6255
1022,6296
1079,6288
968,6411
1206,2126
915,6562
916,6597
914,6534
807,6649
911,7756
1078,6512
1207,2184
1278,2228
1277,2231
1344,2251
1415,2292
1492,2347
1345,2308
1346,2278
1208,2176
1209,2256
1143,2293
1144,2309
1145,2324
1417,2304
1493,2364
1494,2383
1572,2398
1081,6581
970,6784
408,1284
382,1338
437,1244
467,1206
409,1327
403,1314
432,1509
433,1351
404,1271
352,1412
351,1295
349,1383
317,1405
374,1403
346,1439
283,1439
410,1284
438,1275
465,1210
490,1223
491,1197
435,1295
436,1281
379,1383
323,1457
289,1489
377,1311
378,1334
592,1564
593,1605
552,1361
445,1458
424,1579
423,1536
416,1560
361,1554
362,1527
371,1587
372,1569
343,1483
344,1480
286,1490
227,1489
252,1378
284,1349
318,1489
250,1424
312,1367
340,1381
368,1400
369,1434
370,1546
341,1395
367,1500
308,1439
276,1410
277,1407
280,1458
310,1367
338,1455
366,1524
274,1432
305,1597
420,1570
363,1511
418,1458
550,6601
579,6624
576,6569
577,6581
578,6597
520,6577
618,6591
662,6621
619,6608
620,6621
621,6615
665,6597
666,6589
664,6617
580,6636
2260,65535
2257,65535
2206,65535
2146,65535
2314,65535
2313,65535
2312,65535
2373,65535
2256,65535
2205,65535
2434,65535
2435,65535
2375,65535
2376,65535
2433,65535
2491,65535
2490,65535
2492,65535
2546,65535
2597,65535
2596,65535
2544,65535
2145,65535
2082,65535
2020,65535
2494,65535
0,65535
11,65535
1052,3988
1053,3975
941,3965
1740,1452
1796,1493
1615,1355
1681,1396
1545,1316
1797,1540
1544,1330
1741,1508
1795,1690
1617,1316
1546,1321
1616,1333
1683,1428
1467,1290
1547,1295
1465,1365
1387,1401
1388,1362
1464,1426
1462,1579
1461,1600
1542,1664
1463,1543
1682,1407
1543,1385
1618,1308
1742,1600
1460,1766
1248,1410
1850,337
1801,348
1803,334
882,1279
881,1288
938,1338
883,1299
940,6678
1998,50
1902,102
1807,388
1691,748
1694,973
1693,832
1749,667
1752,766
1753,489
1627,763
1628,921
1557,814
1479,861
1402,875
1808,415
1946,235
1947,170
1948,157
1997,112
1855,290
1690,706
2060,230
1949,385
1950,95
1751,729
1692,816
1999,35
1901,429
1900,441
1852,514
1853,528
1805,586
1750,655
1854,853
1806,771
1748,745
2061,284
2000,0
1804,731
1899,787
2884,65535
2892,65535
2883,65535
2876,65535
2874,65535
2882,65535
2877,65535
2911,65535
2905,65535
2906,65535
2896,65535
2887,65535
2881,65535
2880,65535
2888,65535
2902,65535
2903,65535
2907,65535
2912,65535
2895,65535
2894,65535
2875,65535
2885,65535
2893,65535
2904,65535
2865,65535
2866,65535
2909,65535
2913,65535
2886,65535
2878,65535
2869,65535
2871,65535
2872,65535
2879,65535
2870,65535
1330,935
1331,888
1401,886
1262,897
1263,893
1478,897
1403,881
1261,900
1480,906
1264,900
1390,1273
1389,1318
1319,1295
1251,1382
1250,1468
1285,2420
1284,2406
1214,2378
1146,2342
1505,2627
1504,2561
1582,2599
1581,2527
1713,2506
1771,2488
1654,2638
1653,2611
1651,2563
2096,3742
2033,3702
1972,3673
1923,3605
1922,3583
1874,3277
1873,2990
1919,2943
1829,5654
1579,2463
1424,2467
1711,2480
1348,2304
1419,2324
1359,2731
1429,2682
1428,2668
1421,2381
1577,2415
1499,2388
1230,2975
1365,2912
1511,2834
1300,2957
1366,2929
1512,2862
1716,2696
1503,2749
1276,2258
1347,2288
1349,2336
1645,2472
1578,2450
1770,2484
1715,2539
1150,2443
1217,2457
1149,2419
1580,2509
1352,2496
1502,2527
1825,2896
1718,2851
1717,2825
1872,2929
1656,2740
1648,2515
1712,2492
1213,2368
1212,2349
1084,2390
1420,2370
1281,2294
1282,2355
1587,2734
1586,2701
1585,2690
1652,2658
1427,2836
1975,3777
1977,3845
1932,3915
1931,4540
1426,2556
1422,2398
1425,2541
1583,2627
1501,2485
1283,2396
1286,2443
1215,2428
1211,2325
1210,2299
1083,2361
1655,2729
2220,3977
1355,5411
1772,2497
1436,2880
1435,2870
1589,2803
1163,3008
1735,4128
1791,4061
1841,4038
1840,3994
1219,2560
1220,2599
1647,2501
1646,2493
1279,2246
1714,2516
1575,2475
1576,2437
1498,2445
1573,2487
1496,2505
1497,2476
2177,2485
2176,2555
2294,2472
2293,2591
2237,2532
2236,2561
2364,2333
2302,2273
2301,2195
2245,2097
2056,2227
2057,2313
2055,2206
2184,2258
2120,2264
2244,2178
2538,2518
2537,2499
2591,2615
1940,2390
1989,2398
1990,2334
2539,2518
2482,2509
2483,2471
2424,2367
2121,2325
2119,2138
2050,2447
2049,2525
2048,2943
2185,2291
2243,2017
2299,2231
2241,2180
2485,2549
2542,2604
2353,2563
2292,2470
2419,2357
2478,2404
2479,2439
2536,2466
2484,2510
2486,2503
2354,2402
2416,2579
2242,2225
2355,2440
2300,2238
1991,2338
1992,2345
2477,2395
2534,2416
2535,2531
2588,2436
2587,2450
2630,2501
2051,2259
2116,2153
2175,2588
2586,65535
2541,2671
2178,2460
2179,2263
2240,2210
2239,2434
2238,2504
2052,2390
2053,2356
1987,2630
1988,2478
1939,2502
2594,2621
2593,2606
2358,2324
2357,2334
2420,2390
2247,2386
2427,2476
2428,2498
2181,2057
2180,2106
2417,2384
2590,2596
2297,2219
2361,2411
2362,2294
2423,2382
2422,2347
2174,2818
2356,2445
1941,2379
2365,2510
2112,2823
2047,2965
2182,2196
2359,2273
2533,3211
2295,2536
2115,2226
2632,2656
2631,2595
2186,2443
2298,2305
2360,2329
2235,2781
2291,2794
2487,2725
2246,2318
2425,3126
2117,2450
2543,2678
1893,65535
2421,2482
2476,2400
2592,2654
604,6586
