middle_point_id,reach_time_minutes
2835,65535
2836,65535
2806,65535
2822,65535
2823,65535
2807,65535
2846,65535
887,1146
888,1138
1326,1004
1185,1072
999,1130
1057,1157
1552,865
1120,1082
1473,879
944,1231
832,1148
1257,1027
1396,919
1622,895
1327,3784
1184,1075
1183,1090
1324,1111
1255,1191
1394,1122
1252,1195
1253,1156
1182,1100
1328,65535
1470,1069
1321,1194
1322,1161
1323,2405
1391,1237
1551,892
1393,1043
1472,976
1471,1010
1181,2774
1118,1139
1059,1077
1121,1089
1469,1245
1468,1300
1548,1185
1325,1045
1625,735
1623,834
1258,1067
1256,1034
791,1116
891,1106
703,1151
704,1164
660,1161
1553,888
1624,781
1554,954
1474,898
1475,947
1550,959
1549,1134
1320,1252
1466,1348
1541,2515
1318,1366
1249,1389
1186,1068
1003,1074
1002,1083
741,1123
788,1115
434,1244
697,1131
752,1190
1056,1152
1006,1040
907,1149
518,1191
1011,1018
1000,1113
1055,3062
997,3031
994,2925
996,2997
995,2981
991,2772
1112,65535
1114,3012
1051,2975
1398,1692
1395,930
1001,1088
1811,426
1960,64
1769,1076
1823,1050
1329,65535
1332,882
1259,1160
1200,957
1199,955
1140,1098
1141,1099
783,1160
1689,924
1802,920
1945,1436
2183,1918
2418,2367
1994,1472
1995,1868
2059,997
1621,65535
1555,816
1754,559
1180,2303
1106,4005
933,4166
827,1268
2122,1723
2124,997
493,1202
519,1195
544,1189
545,1193
494,1204
470,1235
543,1203
469,1216
517,1208
574,1201
573,1182
495,1240
546,1209
613,1167
612,1184
492,1216
572,1192
571,1219
570,1244
610,1215
575,1256
547,1244
516,1275
611,1254
542,1231
569,1317
609,1227
548,2229
549,2264
1404,924
1405,900
1266,922
1193,1007
743,1118
742,1115
747,1138
746,1120
745,1133
744,1134
790,1125
789,1121
839,1124
838,1108
738,1163
739,1149
740,1132
890,1121
834,1154
784,1153
889,1133
856,1214
855,1200
854,1208
853,1205
852,1190
910,1192
909,1181
908,1167
964,1151
965,1178
1020,1151
966,1203
963,1130
1021,1249
1271,958
1270,951
1339,937
1338,956
1071,994
1072,987
1135,967
1408,963
1337,964
1269,975
1268,972
1136,978
1075,1029
1077,1098
1076,1097
1019,1062
1018,1053
1074,1000
1137,993
1272,973
1274,1057
1275,1070
1205,1077
1204,1086
1273,1067
1198,976
1197,1005
1341,1002
1134,972
1133,1009
1069,1021
1132,1004
1073,1010
1203,1100
1202,1065
1201,993
1139,1064
1267,948
1138,1016
1340,972
1196,992
1342,1036
1409,883
1485,931
1407,923
1561,809
1632,785
1484,913
1483,830
1562,821
1194,958
1130,965
1195,946
1335,914
1129,971
1066,987
1128,1036
1067,997
1131,979
1334,915
1336,958
1265,935
1333,897
1406,861
857,1788
803,1822
804,2239
860,2247
969,2200
913,2187
912,2125
861,2257
806,2300
659,1155
751,1171
658,1146
705,1168
702,1139
706,1186
753,1204
614,1181
701,1158
661,1177
616,1183
848,1141
796,1175
797,1160
798,1153
750,1166
707,1218
615,1181
748,1129
845,1148
846,1173
657,1186
749,1142
795,1181
617,1191
663,1226
794,1184
847,1157
849,1170
902,1142
901,1123
900,1131
793,1118
899,1188
898,1156
897,1135
844,1160
842,1113
841,1105
956,1042
792,1112
843,1143
840,1099
850,1173
903,1125
800,1181
755,1193
756,1210
710,1274
711,1317
962,1109
961,1117
904,1126
906,1144
851,1167
802,1204
801,1185
799,1198
959,1109
1014,1037
1013,1048
708,1794
709,1822
754,1215
757,1271
1017,1082
1016,1077
960,1104
905,1176
958,1077
957,1074
1070,1033
1015,1085
1012,1059
1068,1003
1005,1047
1004,1059
1060,1070
1063,1031
1065,1005
1127,1070
1062,1089
1124,1104
1123,1092
1125,1092
1188,1113
1122,1089
1058,1085
947,1102
946,1121
949,1071
945,1138
948,1117
1190,1131
1187,1089
951,1079
895,1090
952,1084
1009,1028
1008,1021
1010,1015
1007,1035
1061,1094
954,1073
896,1093
953,1061
1126,1053
1064,1023
1189,1128
955,1051
950,1064
892,1097
786,1128
836,1129
837,1101
787,1107
700,1173
655,1191
654,1186
653,1178
698,1148
699,1151
608,1210
696,1137
656,1188
833,1142
785,1158
835,1147
693,1159
894,1124
893,1113
1343,1052
1192,914
1191,935
828,1258
829,1244
780,1190
830,1239
779,1256
782,1157
529,1326
886,1173
596,1310
556,1341
598,1260
597,1265
526,1357
555,1409
525,1389
524,1403
523,1387
688,1210
607,1165
650,1186
651,1155
652,1151
737,1168
694,1134
695,1146
645,1191
646,1188
690,1184
600,1215
599,1229
781,1161
736,1175
558,1351
644,1204
643,1213
648,1196
692,1177
691,1171
513,1347
541,1257
540,1328
568,1289
530,1342
831,1164
559,1309
560,1307
642,1278
557,1291
496,1418
471,1512
444,1566
446,1528
528,1308
527,1315
562,1253
602,1243
734,1200
466,1326
464,1286
463,1327
478,1494
481,1408
480,1445
479,1469
647,1208
488,1341
502,1369
689,1193
533,1322
532,1344
531,1417
601,1266
484,1351
508,1319
510,1368
509,1339
534,1318
482,1412
506,1458
606,1235
455,1556
429,1454
456,1609
457,1606
428,1540
458,1428
554,1400
594,1451
640,1380
639,1415
551,1410
681,1534
636,1525
635,1542
590,1426
778,1265
777,1272
485,1324
486,1312
462,1272
563,1477
885,1184
943,1213
564,1336
641,1297
504,1424
503,1407
501,1462
500,1520
561,1281
254,1345
350,1346
321,1394
319,1393
251,1433
375,1348
347,1381
687,1219
565,1370
539,1375
511,1370
536,1390
649,1276
603,1294
605,1406
733,1214
735,1184
489,1358
514,1347
461,1545
460,1512
459,1445
468,1225
154,1480
178,1435
203,1420
228,1391
402,1399
401,1420
505,1477
522,1410
451,1617
452,1588
477,1528
476,1475
483,1509
884,1222
431,1344
430,1477
454,1547
595,1470
395,1598
394,1570
422,1826
417,1548
390,1531
538,1422
567,1278
426,1622
397,1553
398,1594
499,1615
475,1596
497,1472
498,1489
311,1394
342,1354
345,1383
421,1618
515,1341
472,1641
448,1672
473,1696
474,1739
353,1431
381,1379
256,1436
290,1411
324,1378
380,1443
407,1370
253,1375
226,1407
201,1420
177,1477
824,1376
775,1314
826,1279
939,1327
936,2758
937,1393
880,1525
566,1488
2821,65535
2834,65535
2833,65535
2789,65535
2790,65535
2770,65535
2788,65535
2776,65535
2795,65535
2775,65535
2794,65535
2825,65535
2824,65535
2826,65535
2811,65535
2812,65535
2796,65535
2827,65535
2858,65535
2855,65535
2849,65535
2838,65535
2814,65535
2813,65535
2828,65535
2839,65535
2791,65535
2792,65535
2803,65535
2830,65535
2815,65535
2819,65535
2818,65535
2817,65535
2831,65535
2810,65535
2829,65535
2783,65535
2820,65535
2804,65535
2785,65535
2784,65535
2762,65535
2768,65535
2751,65535
2750,65535
2733,65535
2769,65535
2720,65535
2761,65535
2741,65535
2837,65535
2793,65535
2808,65535
2753,65535
2736,65535
2735,65535
2809,65535
2772,65535
2845,65535
2844,65535
2848,65535
2777,65535
2778,65535
2779,65535
2759,65535
2780,65535
2797,65535
2843,65535
2832,65535
2842,65535
2758,65535
2738,65535
2774,65535
2773,65535
2771,65535
2851,65535
2847,65535
2854,65535
2721,65535
2756,65535
2737,65535
2840,65535
2752,65535
2754,65535
2755,65535
2852,65535
2853,65535
2856,65535
2841,65535
2742,65535
2727,65535
2744,65535
2726,65535
2743,65535
2725,65535
2746,65535
2787,65535
2766,65535
2763,65535
2765,65535
2745,65535
2764,65535
2552,65535
2501,65535
2443,65535
2442,65535
2320,65535
2381,65535
2382,65535
2498,65535
2499,65535
2438,65535
2439,65535
2497,65535
2441,65535
2379,65535
2380,65535
2319,65535
2551,65535
2550,65535
2563,65535
2321,65535
2322,65535
2383,65535
2384,65535
2446,65535
2445,65535
2503,65535
2385,65535
2504,65535
2505,65535
2557,65535
2558,65535
2559,65535
2560,65535
2564,65535
2562,65535
2561,65535
2605,65535
2609,65535
2565,65535
2566,65535
2515,4756
2397,4519
2457,4736
2458,4720
2401,65535
2337,4432
2336,4436
2399,4478
2398,4499
2402,65535
2333,4656
2273,4691
2219,4715
2218,4727
2159,4752
2454,65535
2393,65535
2512,65535
2502,65535
2608,65535
2156,65535
2155,65535
2154,65535
2213,65535
2212,65535
2211,65535
2210,65535
2264,65535
2324,65535
2323,65535
2030,65535
2094,65535
2157,65535
2450,65535
2388,65535
2387,65535
2326,65535
2266,65535
2265,65535
2508,65535
2396,4588
2335,4606
2334,4617
2158,4777
2279,65535
2278,65535
2222,65535
2221,65535
2276,65535
2275,3804
2261,65535
2207,65535
2149,65535
2554,65535
2599,65535
2633,65535
2664,65535
2689,65535
2690,65535
2691,65535
2692,65535
2152,65535
2089,65535
2088,65535
2025,65535
2603,65535
2602,65535
2556,65535
2693,65535
2671,65535
2670,65535
2694,65535
2553,65535
2665,65535
2705,65535
2710,65535
2668,65535
2639,65535
2463,65535
2521,65535
2572,65535
2451,65535
2390,65535
2391,65535
2392,65535
2215,65535
2268,65535
2093,65535
2092,65535
2028,65535
2024,65535
2150,65535
2086,65535
2209,65535
2023,65535
2087,65535
2148,65535
2262,65535
2327,65535
1560,826
1630,914
1631,876
1559,912
1629,971
1558,968
1634,899
1633,853
1482,919
1481,857
1699,793
1700,891
1701,894
1563,871
2070,117
2008,86
2009,54
1959,66
1958,105
2006,144
1957,139
1956,196
2193,189
2132,127
1912,74
1911,75
1865,264
1866,182
2007,117
2069,151
2010,0
2011,30
1961,84
2072,49
1913,122
1867,193
1962,124
1914,187
1915,332
1909,218
1636,779
1635,835
1564,849
1702,846
1637,791
1638,843
1565,853
1486,858
1760,850
1704,785
1703,748
1763,937
1762,709
1817,327
1705,863
1863,330
1815,813
1759,973
863,2768
758,2861
808,2812
982,2983
1036,2990
1099,3025
1100,3053
1166,3454
1167,3949
1237,3606
1238,3641
1375,3711
1308,3780
1309,3689
1236,3907
1235,3541
1101,3084
1037,3021
971,2564
1025,2547
1026,2562
1027,2575
1089,2588
720,2824
674,2870
864,2650
865,2671
919,2566
1024,2511
975,2685
974,2655
1028,2610
873,3010
925,2956
924,2933
917,2630
918,2606
623,3045
712,2917
713,2950
667,2955
622,3013
809,2798
719,2798
765,2759
972,2596
868,2708
869,2720
815,2739
920,2975
973,2641
981,2934
926,3035
927,3043
928,3067
1354,2560
1288,2501
1218,2477
1152,2546
1023,2475
1353,2574
1085,2455
1148,2385
1147,2378
1082,2329
772,3096
771,3053
819,3028
584,2944
628,2911
629,2900
1033,2831
978,2786
1031,2759
1030,2713
1029,2696
1091,2673
1035,2912
1034,2855
979,2813
1526,3830
1449,3868
1378,3896
1448,3819
1524,3797
1038,3068
1447,3860
1768,1055
1710,1094
1767,1018
391,1501
365,1462
339,1521
400,1486
393,1543
392,1517
396,1611
399,1605
443,1594
449,1655
450,1778
419,1516
414,1660
415,1612
387,1720
388,1550
389,1537
282,1474
281,1461
314,1424
313,1405
405,1255
411,1652
442,1611
255,1451
376,1442
373,1480
278,1405
275,1530
248,1648
335,1639
334,1613
306,1585
307,1561
176,1522
225,1601
320,1370
249,1515
287,1456
285,1435
776,1294
731,1339
315,1418
316,1400
204,1467
440,1290
439,1337
166,2865
269,2782
383,2720
1247,65535
1246,65535
1384,65535
1679,65535
1178,65535
1105,4009
1172,4028
1173,4078
1242,4080
1241,4072
1314,4229
1313,4135
1171,4054
1382,4335
1243,4277
1317,4416
1107,4017
1108,4196
1109,4481
1041,4026
1043,4236
1042,4227
1044,4290
1176,65535
1174,4303
1177,65535
1110,65535
985,4072
986,4115
932,4133
774,1329
730,1353
825,1340
728,1359
729,1376
727,1538
682,1421
684,1458
685,1378
732,1301
683,2302
2134,280
2194,301
2068,787
2129,842
1905,343
1907,246
1906,314
1953,449
2002,808
2064,835
2125,878
2137,1121
2196,909
2195,863
1859,402
1810,415
1755,525
2131,212
2192,250
1862,382
1861,421
1812,300
1860,255
1809,775
1756,381
1869,891
1822,1007
1821,983
1916,863
1819,385
1764,874
1820,945
1698,367
1757,337
1566,895
1567,935
1488,954
1489,1016
1412,1024
1413,1128
1414,1113
1818,348
1568,1074
1410,978
2128,879
2189,906
2066,898
2065,840
2067,839
1643,1108
1571,1058
1491,1057
2004,896
2003,848
1697,930
2135,1114
2075,1138
1642,1084
1955,251
2130,1000
2005,290
1858,382
1816,3688
1864,3681
1766,972
1910,308
1868,860
2188,1195
2127,1164
1903,805
2001,838
2063,1404
2062,1113
1813,933
1758,347
1639,935
1640,961
1952,776
2126,3770
1569,971
1965,1026
1966,1072
2014,1089
1490,1022
1917,974
1870,1018
1871,1069
1570,1005
1707,1065
2076,1156
2013,1094
1964,1047
1487,956
1908,395
2251,65535
2199,65535
2198,65535
2136,1163
1641,1105
1954,1048
1765,936
1857,416
2187,984
1904,831
1856,777
1951,863
1708,1308
245,3999
244,3982
357,3986
246,4114
247,4143
197,4237
223,4215
44,4579
43,4639
3,4775
23,4749
22,4738
63,4521
85,4463
84,4418
108,3918
149,3872
172,4263
296,3966
294,4014
355,4114
354,4146
326,4224
295,4123
291,4135
293,4257
260,4143
356,4174
441,3774
412,3797
329,4132
300,4076
148,3846
214,4084
146,3967
110,4048
262,4109
258,4522
292,4285
257,4587
235,4107
187,4007
212,4063
211,4090
186,4011
162,3985
161,4064
165,3963
189,4163
238,4244
237,4209
263,4145
265,4164
266,4142
267,4130
268,3970
26,4739
25,4707
105,65535
62,65535
83,65535
126,4085
175,4520
152,4454
151,4444
150,4403
103,4023
242,3916
191,3870
192,3921
217,3944
218,3997
145,3907
144,3991
167,3899
190,3877
219,4014
159,4111
185,4055
158,4168
188,3999
160,4076
143,65535
122,65535
75,65535
54,65535
198,4648
270,4011
221,4052
301,4109
302,3946
330,3973
331,3995
115,4047
133,4106
139,4003
134,4080
114,4604
48,65535
69,65535
92,4280
164,4073
4,65535
107,4425
129,4510
109,3950
125,3991
124,3965
127,65535
82,65535
67,65535
91,4448
93,4247
137,4382
113,4402
112,4360
136,65535
49,65535
72,65535
71,65535
406,1468
805,2290
858,2095
859,2236
967,1972
1142,2109
1080,2115
1022,2106
1079,2124
968,2091
1206,2085
915,2242
916,2277
914,2214
807,2329
911,3436
1078,2192
1207,2184
1278,2228
1277,2231
1344,2251
1415,2292
1492,2347
1345,2308
1346,2278
1208,2176
1209,2256
1143,2293
1144,2309
1145,2324
1417,2304
1493,2364
1494,2383
1572,2398
1081,2261
970,2464
408,1409
382,1402
437,1343
467,1311
409,1384
403,1374
432,1584
433,1351
404,1378
352,1531
351,1546
349,1384
317,1482
374,1403
346,1687
283,1473
410,1358
438,1377
465,1309
490,1353
491,1345
435,1355
436,1380
379,1625
323,1575
289,1493
377,1427
378,1353
592,1493
593,1465
552,1421
445,1576
424,1632
423,1634
416,2377
361,1652
362,1587
371,1583
372,1562
343,1516
344,1556
286,1435
227,1387
252,1440
284,1464
318,1489
250,1492
312,1455
340,1454
368,1541
369,1611
370,1600
341,1467
367,1502
308,1497
276,1487
277,1467
280,1518
310,1487
338,1520
366,1482
274,1659
305,1597
420,1570
363,1635
418,1575
550,2281
579,2304
576,2249
577,2261
578,2277
520,2257
618,2271
662,2301
619,2288
620,2301
621,2295
665,2277
666,2269
664,2297
580,2316
2260,65535
2257,65535
2206,65535
2146,65535
2314,65535
2313,65535
2312,65535
2373,65535
2256,65535
2205,65535
2434,65535
2435,65535
2375,65535
2376,65535
2433,65535
2491,65535
2490,65535
2492,65535
2546,65535
2597,65535
2596,65535
2544,65535
2145,65535
2082,65535
2020,65535
2494,65535
0,65535
11,65535
1052,3028
1053,3015
941,3055
1740,2461
1796,2535
1615,2319
1681,2396
1545,2200
1797,2575
1544,2275
1741,2553
1795,2856
1617,2220
1546,2206
1616,2237
1683,2341
1467,1290
1547,1295
1465,2180
1387,2247
1388,1362
1464,2264
1462,3019
1461,3040
1542,2931
1463,2983
1682,2528
1543,2396
1618,2277
1742,2654
1460,2730
1248,2262
1850,952
1801,2178
1803,916
882,1279
881,1288
938,1338
883,1299
940,3798
1998,890
1902,861
1807,737
1691,851
1694,973
1693,832
1749,876
1752,786
1753,798
1627,763
1628,921
1557,814
1479,861
1402,875
1808,710
1946,1075
1947,1010
1948,997
1997,904
1855,753
1690,877
2060,1077
1949,959
1950,881
1751,791
1692,820
1999,886
1901,1310
1900,1337
1852,1605
1853,1484
1805,934
1750,839
1854,1250
1806,992
1748,907
2061,1072
2000,913
1804,927
1899,1625
2884,65535
2892,65535
2883,65535
2876,65535
2874,65535
2882,65535
2877,65535
2911,65535
2905,65535
2906,65535
2896,65535
2887,65535
2881,65535
2880,65535
2888,65535
2902,65535
2903,65535
2907,65535
2912,65535
2895,65535
2894,65535
2875,65535
2885,65535
2893,65535
2904,65535
2865,65535
2866,65535
2909,65535
2913,65535
2886,65535
2878,65535
2869,65535
2871,65535
2872,65535
2879,65535
2870,65535
1330,935
1331,893
1401,886
1262,897
1263,893
1478,906
1403,912
1261,900
1480,947
1264,946
1390,1273
1389,1322
1319,1295
1251,1382
1250,1468
1285,2401
1284,2406
1214,2378
1146,2344
1505,2627
1504,2561
1582,2599
1581,2527
1713,2506
1771,2488
1654,2638
1653,2611
1651,2563
2096,3742
2033,3702
1972,3673
1923,3605
1922,3583
1874,3277
1873,2990
1919,2943
1829,3954
1579,2463
1424,2504
1711,2480
1348,2304
1419,2324
1359,2731
1429,2682
1428,2668
1421,2381
1577,2415
1499,2388
1230,2975
1365,2912
1511,2834
1300,2957
1366,2929
1512,2862
1716,2696
1503,2973
1276,2258
1347,2288
1349,2336
1645,2472
1578,2450
1770,2484
1715,2539
1150,2443
1217,2457
1149,2419
1580,2509
1352,2496
1502,2527
1825,2896
1718,2851
1717,2825
1872,2929
1656,2740
1648,2515
1712,2492
1213,2368
1212,2349
1084,2390
1420,2370
1281,2294
1282,2355
1587,2734
1586,2701
1585,2690
1652,2658
1427,2836
1975,3777
1977,3845
1932,3915
1931,4540
1426,2556
1422,2398
1425,2541
1583,2627
1501,2485
1283,2396
1286,2443
1215,2428
1211,2325
1210,2299
1083,2361
1655,2729
2220,3783
1355,65535
1772,2497
1436,2880
1435,2870
1589,2803
1163,3008
1735,4128
1791,4061
1841,4038
1840,3994
1219,2560
1220,2599
1647,2501
1646,2493
1279,2246
1714,2516
1575,2475
1576,2437
1498,2445
1573,2487
1496,2505
1497,2476
2177,2485
2176,2555
2294,2472
2293,2591
2237,2532
2236,2561
2364,2333
2302,2273
2301,2195
2245,2097
2056,2227
2057,2313
2055,2206
2184,2258
2120,2264
2244,2178
2538,2518
2537,2499
2591,2615
1940,2390
1989,2398
1990,2334
2539,2518
2482,2509
2483,2471
2424,2367
2121,2325
2119,2138
2050,2447
2049,2525
2048,2943
2185,2291
2243,2017
2299,2231
2241,2180
2485,2549
2542,2604
2353,2563
2292,2470
2419,2357
2478,2404
2479,2439
2536,2466
2484,2510
2486,2503
2354,2402
2416,2579
2242,2225
2355,2440
2300,2238
1991,2338
1992,2345
2477,2395
2534,2416
2535,2531
2588,2436
2587,2450
2630,2501
2051,2259
2116,2153
2175,2588
2586,65535
2541,2671
2178,2460
2179,2263
2240,2210
2239,2434
2238,2504
2052,2390
2053,2356
1987,2630
1988,2478
1939,2502
2594,2621
2593,2606
2358,2324
2357,2334
2420,2390
2247,2386
2427,2476
2428,2498
2181,2057
2180,2106
2417,2384
2590,2596
2297,2219
2361,2411
2362,2294
2423,2382
2422,2347
2174,2818
2356,2445
1941,2379
2365,2510
2112,2823
2047,2965
2182,2196
2359,2273
2533,3211
2295,2536
2115,2226
2632,2656
2631,2595
2186,1756
2298,2305
2360,2329
2235,2781
2291,2794
2487,2725
2246,2318
2425,3126
2117,2450
2543,2678
1893,65535
2421,2482
2476,2400
2592,2654
604,2266
