middle_point_id,reach_time_minutes
2835,65535
2836,65535
2806,65535
2822,65535
2823,65535
2807,65535
2846,65535
887,1224
888,1212
1326,1004
1185,1072
999,1184
1057,1157
1552,849
1120,1082
1473,901
944,1231
832,1213
1257,1027
1396,1048
1622,895
1327,1238
1184,1075
1183,1090
1324,1055
1255,1071
1394,1002
1252,1187
1253,1156
1182,1141
1328,65535
1470,1020
1321,1194
1322,1135
1323,1085
1391,1207
1551,852
1393,1060
1472,897
1471,949
1181,1454
1118,1199
1059,1099
1121,1089
1469,1081
1468,1300
1548,1065
1325,1045
1625,735
1623,834
1258,1067
1256,1034
791,1099
891,1128
703,1057
704,1051
660,1055
1553,862
1624,781
1554,894
1474,880
1475,901
1550,916
1549,1014
1320,1252
1466,1304
1541,1720
1318,1366
1249,1389
1186,1068
1003,1114
1002,1112
741,1177
788,1142
434,1208
697,1157
752,1052
1056,1210
1006,1118
907,1079
518,1111
1011,962
1000,1148
1055,4022
997,3991
994,3887
996,3957
995,3941
991,2772
1112,65535
1114,4230
1051,4195
1398,972
1395,1110
1001,1129
1811,427
1960,103
1769,298
1823,279
1329,65535
1332,881
1259,1736
1200,900
1199,901
1140,1038
1141,1042
783,1213
1689,924
1802,920
1945,1436
2183,1918
2418,2367
1994,1472
1995,1868
2059,997
1621,65535
1555,816
1754,559
1180,2303
1106,5350
933,5606
827,1328
2122,2333
2124,877
493,1122
519,1115
544,1107
545,1108
494,1122
470,1142
543,1112
469,1138
517,1126
574,1110
573,1099
495,1139
546,1114
613,1089
612,1092
492,1130
572,1105
571,1149
570,1153
610,1124
575,1166
547,1158
516,1153
611,1101
542,1135
569,1180
609,1243
548,1190
549,1219
1404,910
1405,900
1266,910
1193,1007
743,1148
742,1160
747,1090
746,1093
745,1103
744,1145
790,1123
789,1132
839,1154
838,1150
738,1222
739,1188
740,1176
890,1149
834,1199
784,1187
889,1187
856,1153
855,1140
854,1148
853,1178
852,1093
910,1132
909,1121
908,1098
964,1082
965,1134
1020,1151
966,1150
963,1054
1021,1249
1271,897
1270,899
1339,907
1338,920
1071,934
1072,927
1135,907
1408,896
1337,919
1269,914
1268,914
1136,942
1075,1029
1077,1038
1076,1060
1019,1062
1018,1053
1074,992
1137,984
1272,913
1274,937
1275,1010
1205,1052
1204,1019
1273,947
1198,910
1197,946
1341,907
1134,912
1133,944
1069,934
1132,927
1073,950
1203,980
1202,945
1201,918
1139,988
1267,905
1138,1016
1340,861
1196,918
1342,916
1409,883
1485,886
1407,924
1561,791
1632,744
1484,884
1483,830
1562,796
1194,965
1130,970
1195,946
1335,920
1129,990
1066,998
1128,1033
1067,997
1131,950
1334,915
1336,898
1265,935
1333,895
1406,861
857,1788
803,3082
804,6559
860,6567
969,6520
913,6507
912,6445
861,6577
806,6620
659,1057
751,1040
658,1068
705,1054
702,1070
706,1062
753,1024
614,1062
701,1078
661,1082
616,1088
848,991
796,1025
797,1009
798,998
750,1044
707,1041
615,1061
748,1080
845,1051
846,1033
657,1126
749,1073
795,1061
617,1131
663,1076
794,1103
847,989
849,1050
902,1022
901,1038
900,1066
793,1118
899,1131
898,1095
897,1109
844,1076
842,1113
841,1103
956,1140
792,1100
843,1088
840,1145
850,1057
903,982
800,1046
755,1073
756,1127
710,1213
711,1258
962,1043
961,1036
904,990
906,1074
851,1107
802,1093
801,1057
799,1023
959,992
1014,944
1013,1000
708,1723
709,1698
754,1061
757,1151
1017,1164
1016,993
960,969
905,1056
958,1040
957,6707
1070,947
1015,951
1012,944
1068,951
1005,1135
1004,1130
1060,1108
1063,1107
1065,1051
1127,1048
1062,1122
1124,1164
1123,1124
1125,1131
1188,1113
1122,1089
1058,1100
947,1186
946,1210
949,1132
945,1237
948,1117
1190,1298
1187,1089
951,1130
895,1113
952,1098
1009,1073
1008,1056
1010,982
1007,1096
1061,1138
954,1118
896,1115
953,1072
1126,1083
1064,1089
1189,1233
955,1126
950,1143
892,1132
786,1154
836,1150
837,1146
787,1145
700,1113
655,1131
654,1164
653,1172
698,1146
699,1113
608,1212
696,1180
656,1128
833,1206
785,1165
835,1164
693,1212
894,1124
893,1152
1343,933
1192,914
1191,935
828,1318
829,1304
780,1250
830,1299
779,1301
782,1217
529,1320
886,1233
596,1389
556,1362
598,1320
597,1343
526,1343
555,1350
525,1390
524,1403
523,1383
688,1271
607,1205
650,1217
651,1211
652,1192
737,1228
694,1198
695,1182
645,1256
646,1248
690,1244
600,1275
599,1289
781,1221
736,1235
558,1351
644,1264
643,1303
648,1259
692,1227
691,1238
513,1231
541,1144
540,1200
568,1283
530,1327
831,1224
559,1329
560,1355
642,1352
557,1339
496,1411
471,1465
444,1541
446,1494
528,1325
527,1332
562,1317
602,1308
734,1266
466,1193
464,1192
463,1207
478,1460
481,1378
480,1410
479,1436
647,1268
488,1222
502,1369
689,1271
533,1322
532,1331
531,1358
601,1266
484,1307
508,1367
510,1329
509,1341
534,1376
482,1391
506,1400
606,1235
455,1494
429,1351
456,1466
457,1447
428,1417
458,1374
554,1400
594,1498
640,1407
639,1549
551,1410
681,1527
636,1520
635,1499
590,1426
778,1315
777,1322
485,1289
486,1302
462,1272
563,1356
885,1244
943,2291
564,1337
641,1360
504,1397
503,1370
501,1380
500,1420
561,1345
254,1324
350,1270
321,1301
319,1320
251,1340
375,1265
347,1336
687,1309
565,1373
539,1279
511,1315
536,1393
649,1278
603,1296
605,1406
733,1287
735,1249
489,1224
514,1220
461,1390
460,1401
459,1420
468,1145
154,1475
178,1439
203,1410
228,1393
402,1293
401,1330
505,1405
522,1411
451,1637
452,1588
477,1479
476,1475
483,1486
884,1354
431,1325
430,1357
454,1470
595,1470
395,1526
394,1550
422,1700
417,1512
390,1477
538,1310
567,1273
426,1580
397,1488
398,1526
499,1615
475,1511
497,1412
498,1429
311,1334
342,1354
345,1353
421,1577
515,1178
472,1641
448,1672
473,1696
474,1737
353,1311
381,1304
256,1436
290,1411
324,1326
380,1318
407,1248
253,1470
226,1407
201,1420
177,1477
824,1432
775,1378
826,1339
939,1387
936,2758
937,1415
880,1525
566,1400
2821,65535
2834,65535
2833,65535
2789,65535
2790,65535
2770,65535
2788,65535
2776,65535
2795,65535
2775,65535
2794,65535
2825,65535
2824,65535
2826,65535
2811,65535
2812,65535
2796,65535
2827,65535
2858,65535
2855,65535
2849,65535
2838,65535
2814,65535
2813,65535
2828,65535
2839,65535
2791,65535
2792,65535
2803,65535
2830,65535
2815,65535
2819,65535
2818,65535
2817,65535
2831,65535
2810,65535
2829,65535
2783,65535
2820,65535
2804,65535
2785,65535
2784,65535
2762,65535
2768,65535
2751,65535
2750,65535
2733,65535
2769,65535
2720,65535
2761,65535
2741,65535
2837,65535
2793,65535
2808,65535
2753,65535
2736,65535
2735,65535
2809,65535
2772,65535
2845,65535
2844,65535
2848,65535
2777,65535
2778,65535
2779,65535
2759,65535
2780,65535
2797,65535
2843,65535
2832,65535
2842,65535
2758,65535
2738,65535
2774,65535
2773,65535
2771,65535
2851,65535
2847,65535
2854,65535
2721,65535
2756,65535
2737,65535
2840,65535
2752,65535
2754,65535
2755,65535
2852,65535
2853,65535
2856,65535
2841,65535
2742,65535
2727,65535
2744,65535
2726,65535
2743,65535
2725,65535
2746,65535
2787,65535
2766,65535
2763,65535
2765,65535
2745,65535
2764,65535
2552,65535
2501,65535
2443,65535
2442,65535
2320,65535
2381,65535
2382,65535
2498,65535
2499,65535
2438,65535
2439,65535
2497,65535
2441,65535
2379,65535
2380,65535
2319,65535
2551,65535
2550,65535
2563,7077
2321,6613
2322,6582
2383,6594
2384,6800
2446,6842
2445,6849
2503,6868
2385,6833
2504,7198
2505,7220
2557,7244
2558,7269
2559,7293
2560,7257
2564,7425
2562,7145
2561,7185
2605,7200
2609,7472
2565,7548
2566,7564
2515,7575
2397,5959
2457,7605
2458,7627
2401,6036
2337,5872
2336,5876
2399,5918
2398,5939
2402,6096
2333,6096
2273,6131
2219,6155
2218,6167
2159,6192
2454,6784
2393,6750
2512,7044
2502,7036
2608,7463
2156,6314
2155,6346
2154,6375
2213,6391
2212,6403
2211,6451
2210,6492
2264,6499
2324,6533
2323,6549
2030,65535
2094,65535
2157,6278
2450,7441
2388,7490
2387,7558
2326,7595
2266,7630
2265,6974
2508,7412
2396,6028
2335,6046
2334,6057
2158,6217
2279,8186
2278,8150
2222,8119
2221,8101
2276,8083
2275,3999
2261,6806
2207,6843
2149,65535
2554,6926
2599,6958
2633,7004
2664,8691
2689,8749
2690,8855
2691,8893
2692,8926
2152,6487
2089,6566
2088,6554
2025,6699
2603,65535
2602,65535
2556,65535
2693,65535
2671,65535
2670,65535
2694,65535
2553,65535
2665,65535
2705,65535
2710,65535
2668,65535
2639,65535
2463,6106
2521,6142
2572,6165
2451,7326
2390,7295
2391,7115
2392,7078
2215,7320
2268,65535
2093,65535
2092,65535
2028,65535
2024,8377
2150,7803
2086,7851
2209,7785
2023,7953
2087,7906
2148,8119
2262,6792
2327,65535
1560,827
1630,841
1631,777
1559,848
1629,971
1558,967
1634,866
1633,492
1482,919
1481,857
1699,414
1700,461
1701,501
1563,871
2070,117
2008,112
2009,98
1959,108
1958,157
2006,123
1957,148
1956,196
2193,189
2132,127
1912,129
1911,141
1865,221
1866,182
2007,117
2069,151
2010,68
2011,0
1961,109
2072,118
1913,122
1867,193
1962,117
1914,123
1915,163
1909,218
1636,755
1635,835
1564,849
1702,755
1637,718
1638,449
1565,815
1486,852
1760,858
1704,774
1703,748
1763,445
1762,709
1817,327
1705,405
1863,830
1815,906
1759,867
863,2768
758,2861
808,2812
982,2983
1036,2990
1099,3025
1100,3053
1166,3454
1167,3949
1237,3606
1238,3641
1375,3711
1308,3780
1309,3689
1236,3907
1235,3541
1101,3084
1037,3021
971,2564
1025,2547
1026,2562
1027,2575
1089,2588
720,2824
674,2870
864,2650
865,2671
919,2566
1024,2511
975,2685
974,2655
1028,2610
873,3010
925,2956
924,2933
917,2630
918,2606
623,3045
712,2917
713,2950
667,2955
622,3013
809,2798
719,2798
765,2759
972,2596
868,2708
869,2720
815,2739
920,2854
973,2641
981,2934
926,3035
927,3043
928,3067
1354,2517
1288,2501
1218,2477
1152,2546
1023,2475
1353,2501
1085,2455
1148,2385
1147,2378
1082,2329
772,3096
771,3053
819,3028
584,2944
628,2911
629,2900
1033,2831
978,2786
1031,2759
1030,2713
1029,2696
1091,2673
1035,2912
1034,2855
979,2813
1526,3830
1449,3868
1378,3896
1448,3819
1524,3797
1038,3068
1447,3860
1768,284
1710,310
1767,306
391,1449
365,1411
339,1448
400,1486
393,1544
392,1518
396,1473
399,1511
443,1565
449,1655
450,1640
419,1516
414,1587
415,1563
387,1585
388,1520
389,1507
282,1465
281,1496
314,1443
313,1423
405,1255
411,1652
442,1611
255,1374
376,1273
373,1338
278,1345
275,1408
248,1455
335,1614
334,1579
306,1480
307,1469
176,1456
225,1415
320,1369
249,1481
287,1396
285,1363
776,1354
731,1362
315,1451
316,1434
204,1426
440,1177
439,1245
166,2865
269,2782
383,2720
1247,65535
1246,65535
1384,65535
1679,65535
1178,5568
1105,5366
1172,5373
1173,5384
1242,5421
1241,5450
1314,5669
1313,5575
1171,5433
1382,5775
1243,5466
1317,5856
1107,5411
1108,5419
1109,5476
1041,5380
1043,5676
1042,5667
1044,5730
1176,5469
1174,8623
1177,5521
1110,5529
985,5512
986,5555
932,5573
774,1384
730,1374
825,1452
728,1440
729,1400
727,1538
682,1429
684,1398
685,1378
732,1380
683,1462
2134,280
2194,301
2068,265
2129,319
1905,343
1907,246
1906,314
1953,785
2002,808
2064,817
2125,830
2137,916
2196,872
2195,827
1859,388
1810,415
1755,525
2131,212
2192,250
1862,819
1861,421
1812,300
1860,255
1809,775
1756,381
1869,199
1822,242
1821,238
1916,187
1819,300
1764,352
1820,270
1698,367
1757,337
1566,819
1567,809
1488,823
1489,889
1412,913
1413,906
1414,892
1818,313
1568,948
1410,855
2128,349
2189,376
2066,887
2065,840
2067,316
1643,352
1571,809
1491,850
2004,896
2003,848
1697,855
2135,797
2075,757
1642,789
1955,251
2130,348
2005,290
1858,366
1816,8008
1864,8001
1766,378
1910,806
1868,175
2188,1195
2127,1164
1903,798
2001,838
2063,1351
2062,1113
1813,933
1758,347
1639,820
1640,808
1952,850
2126,8090
1569,862
1965,309
1966,355
2014,372
1490,877
1917,216
1870,267
1871,311
1570,841
1707,384
2076,438
2013,806
1964,313
1487,833
1908,769
2251,3201
2199,3145
2198,3008
2136,820
1641,993
1954,826
1765,408
1857,416
2187,1516
1904,802
1856,777
1951,863
1708,843
245,8319
244,8302
357,8306
246,8434
247,8463
197,8557
223,8535
44,8899
43,8959
3,9095
23,9069
22,9058
63,8841
85,8783
84,8738
108,8238
149,8192
172,8583
296,8286
294,8334
355,8434
354,8466
326,8544
295,8443
291,8455
293,8577
260,8463
356,8494
441,8094
412,8117
329,8452
300,8396
148,8166
214,8404
146,8287
110,8368
262,8429
258,8842
292,8605
257,8907
235,8427
187,8327
212,8383
211,8410
186,8331
162,8305
161,8384
165,8283
189,8483
238,8564
237,8529
263,8465
265,8484
266,8462
267,8450
268,8290
26,9059
25,9027
105,65535
62,65535
83,65535
126,8405
175,8840
152,8774
151,8764
150,8723
103,8343
242,8236
191,8190
192,8241
217,8264
218,8317
145,8227
144,8311
167,8219
190,8197
219,8334
159,8431
185,8375
158,8488
188,8319
160,8396
143,65535
122,65535
75,65535
54,65535
198,8968
270,8331
221,8372
301,8429
302,8266
330,8293
331,8315
115,8367
133,8426
139,8323
134,8400
114,8924
48,65535
69,65535
92,8600
164,8393
4,65535
107,8745
129,8830
109,8270
125,8311
124,8285
127,65535
82,65535
67,65535
91,8768
93,8567
137,8702
113,8722
112,8680
136,65535
49,65535
72,65535
71,65535
406,1321
805,6610
858,6415
859,6556
967,2034
1142,2169
1080,6255
1022,6296
1079,6288
968,6411
1206,2126
915,6562
916,6597
914,6534
807,6649
911,7756
1078,6512
1207,2184
1278,2228
1277,2231
1344,2251
1415,2292
1492,2347
1345,2308
1346,2278
1208,2176
1209,2256
1143,2293
1144,2309
1145,2324
1417,2304
1493,2364
1494,2383
1572,2398
1081,6581
970,6784
408,1284
382,1338
437,1244
467,1206
409,1327
403,1314
432,1509
433,1351
404,1271
352,1412
351,1295
349,1383
317,1405
374,1403
346,1439
283,1439
410,1284
438,1275
465,1210
490,1223
491,1197
435,1295
436,1281
379,1383
323,1457
289,1489
377,1311
378,1334
592,1564
593,1605
552,1421
445,1516
424,1579
423,1536
416,1560
361,1554
362,1527
371,1587
372,1569
343,1483
344,1480
286,1490
227,1489
252,1378
284,1349
318,1489
250,1424
312,1367
340,1381
368,1400
369,1434
370,1546
341,1395
367,1500
308,1439
276,1410
277,1407
280,1458
310,1367
338,1455
366,1524
274,1432
305,1597
420,1570
363,1511
418,1458
550,6601
579,6624
576,6569
577,6581
578,6597
520,6577
618,6591
662,6621
619,6608
620,6621
621,6615
665,6597
666,6589
664,6617
580,6636
2260,65535
2257,65535
2206,65535
2146,65535
2314,65535
2313,65535
2312,65535
2373,65535
2256,65535
2205,65535
2434,65535
2435,65535
2375,65535
2376,65535
2433,65535
2491,65535
2490,65535
2492,65535
2546,65535
2597,65535
2596,65535
2544,65535
2145,65535
2082,65535
2020,65535
2494,65535
0,65535
11,65535
1052,3988
1053,3975
941,3965
1740,1452
1796,1493
1615,1355
1681,1396
1545,1316
1797,1540
1544,1330
1741,1508
1795,1690
1617,1316
1546,1321
1616,1333
1683,1428
1467,1290
1547,1295
1465,1365
1387,1401
1388,1362
1464,1426
1462,1579
1461,1600
1542,1664
1463,1543
1682,1407
1543,1385
1618,1308
1742,1600
1460,1766
1248,1410
1850,932
1801,942
1803,916
882,1339
881,1348
938,1398
883,1359
940,6678
1998,890
1902,861
1807,737
1691,851
1694,973
1693,832
1749,876
1752,786
1753,798
1627,763
1628,921
1557,814
1479,861
1402,875
1808,710
1946,1075
1947,1010
1948,997
1997,904
1855,753
1690,877
2060,1077
1949,959
1950,881
1751,791
1692,820
1999,886
1901,1310
1900,1337
1852,1605
1853,1484
1805,934
1750,839
1854,1250
1806,992
1748,907
2061,1072
2000,913
1804,927
1899,1625
2884,65535
2892,65535
2883,65535
2876,65535
2874,65535
2882,65535
2877,65535
2911,65535
2905,65535
2906,65535
2896,65535
2887,65535
2881,65535
2880,65535
2888,65535
2902,65535
2903,65535
2907,65535
2912,65535
2895,65535
2894,65535
2875,65535
2885,65535
2893,65535
2904,65535
2865,65535
2866,65535
2909,65535
2913,65535
2886,65535
2878,65535
2869,65535
2871,65535
2872,65535
2879,65535
2870,65535
1330,935
1331,888
1401,886
1262,897
1263,893
1478,897
1403,881
1261,900
1480,906
1264,900
1390,1273
1389,1318
1319,1295
1251,1382
1250,1468
1285,2420
1284,2406
1214,2378
1146,2342
1505,2627
1504,2561
1582,2599
1581,2527
1713,2506
1771,2488
1654,2638
1653,2611
1651,2563
2096,3742
2033,3702
1972,3673
1923,3605
1922,3583
1874,3277
1873,2990
1919,2943
1829,5654
1579,2463
1424,2467
1711,2480
1348,2304
1419,2324
1359,2731
1429,2682
1428,2668
1421,2381
1577,2415
1499,2388
1230,2975
1365,2912
1511,2834
1300,2957
1366,2929
1512,2862
1716,2696
1503,2749
1276,2258
1347,2288
1349,2336
1645,2472
1578,2450
1770,2484
1715,2539
1150,2443
1217,2457
1149,2419
1580,2509
1352,2496
1502,2527
1825,2896
1718,2851
1717,2825
1872,2929
1656,2740
1648,2515
1712,2492
1213,2368
1212,2349
1084,2390
1420,2370
1281,2294
1282,2355
1587,2734
1586,2701
1585,2690
1652,2658
1427,2836
1975,3777
1977,3845
1932,3915
1931,4540
1426,2556
1422,2398
1425,2541
1583,2627
1501,2485
1283,2396
1286,2443
1215,2428
1211,2325
1210,2299
1083,2361
1655,2729
2220,3977
1355,5411
1772,2497
1436,2880
1435,2870
1589,2803
1163,3008
1735,4128
1791,4061
1841,4038
1840,3994
1219,2560
1220,2599
1647,2501
1646,2493
1279,2246
1714,2516
1575,2475
1576,2437
1498,2445
1573,2487
1496,2505
1497,2476
2177,2485
2176,2555
2294,2472
2293,2591
2237,2532
2236,2561
2364,2333
2302,2273
2301,2195
2245,2097
2056,2227
2057,2313
2055,2206
2184,2258
2120,2264
2244,2178
2538,2518
2537,2499
2591,2615
1940,2390
1989,2398
1990,2334
2539,2518
2482,2509
2483,2471
2424,2367
2121,2325
2119,2138
2050,2447
2049,2525
2048,2943
2185,2291
2243,2017
2299,2231
2241,2180
2485,2549
2542,2604
2353,2563
2292,2470
2419,2357
2478,2404
2479,2439
2536,2466
2484,2510
2486,2503
2354,2402
2416,2579
2242,2225
2355,2440
2300,2238
1991,2338
1992,2345
2477,2395
2534,2416
2535,2531
2588,2436
2587,2450
2630,2501
2051,2259
2116,2153
2175,2588
2586,65535
2541,2671
2178,2460
2179,2263
2240,2210
2239,2434
2238,2504
2052,2390
2053,2356
1987,2630
1988,2478
1939,2502
2594,2621
2593,2606
2358,2324
2357,2334
2420,2390
2247,2386
2427,2476
2428,2498
2181,2057
2180,2106
2417,2384
2590,2596
2297,2219
2361,2411
2362,2294
2423,2382
2422,2347
2174,2818
2356,2445
1941,2379
2365,2510
2112,2823
2047,2965
2182,2196
2359,2273
2533,3211
2295,2536
2115,2226
2632,2656
2631,2595
2186,2443
2298,2305
2360,2329
2235,2781
2291,2794
2487,2725
2246,2318
2425,3126
2117,2450
2543,2678
1893,65535
2421,2482
2476,2400
2592,2654
604,6586
