middle_point_id,reach_time_minutes
2835,65535
2836,65535
2806,65535
2822,65535
2823,65535
2807,65535
2846,65535
887,1243
888,1247
1326,1349
1185,1225
999,1250
1057,1459
1552,1329
1120,1255
1473,1355
944,1381
832,1231
1257,1319
1396,1459
1622,1348
1327,1418
1184,1255
1183,1265
1324,1415
1255,1431
1394,1362
1252,1367
1253,1336
1182,1321
1328,65535
1470,1380
1321,1404
1322,1401
1323,1445
1391,1447
1551,1332
1393,1403
1472,1438
1471,1357
1181,1454
1118,1379
1059,1184
1121,1212
1469,1485
1468,1502
1548,1425
1325,1405
1625,1252
1623,1317
1258,1239
1256,1394
791,1099
891,1189
703,1057
704,1051
660,1055
1553,1338
1624,1267
1554,1370
1474,1360
1475,1427
1550,1340
1549,1374
1320,1431
1466,1466
1541,2195
1318,1473
1249,1481
1186,1281
1003,1171
1002,1174
741,1177
788,1142
434,1208
697,1157
752,1052
1056,1270
1006,1118
907,1079
518,1111
1011,994
1000,1208
1055,4022
997,3991
994,3887
996,3957
995,3941
991,2772
1112,65535
1114,4230
1051,4195
1398,1572
1395,1457
1001,1189
1811,1017
1960,774
1769,298
1823,279
1329,65535
1332,1050
1259,1736
1200,900
1199,901
1140,1038
1141,1042
783,1223
1689,1347
1802,1460
1945,1801
2183,3358
2418,3864
1994,1835
1995,1868
2059,1417
1621,65535
1555,1207
1754,1264
1180,2303
1106,5350
933,5606
827,1334
2122,4099
2124,1460
493,1122
519,1115
544,1107
545,1108
494,1122
470,1142
543,1112
469,1138
517,1126
574,1110
573,1099
495,1139
546,1114
613,1089
612,1092
492,1130
572,1105
571,1149
570,1153
610,1124
575,1166
547,1158
516,1153
611,1101
542,1135
569,1180
609,1243
548,1190
549,1219
1404,979
1405,949
1266,959
1193,1007
743,1148
742,1160
747,1090
746,1093
745,1103
744,1145
790,1123
789,1132
839,1154
838,1153
738,1229
739,1224
740,1202
890,1204
834,1225
784,1214
889,1224
856,1153
855,1140
854,1148
853,1178
852,1093
910,1132
909,1121
908,1098
964,1082
965,1134
1020,1151
966,1150
963,1054
1021,1249
1271,897
1270,899
1339,907
1338,920
1071,934
1072,927
1135,907
1408,896
1337,945
1269,914
1268,936
1136,942
1075,1029
1077,1038
1076,1060
1019,1062
1018,1053
1074,992
1137,984
1272,913
1274,937
1275,1010
1205,1052
1204,1019
1273,947
1198,910
1197,955
1341,907
1134,912
1133,949
1069,952
1132,953
1073,950
1203,980
1202,945
1201,918
1139,988
1267,942
1138,1016
1340,861
1196,949
1342,916
1409,883
1485,886
1407,975
1561,896
1632,880
1484,884
1483,898
1562,887
1194,973
1130,970
1195,961
1335,963
1129,990
1066,998
1128,1033
1067,997
1131,959
1334,1034
1336,951
1265,995
1333,1029
1406,927
857,1788
803,3082
804,6559
860,6567
969,6520
913,6507
912,6445
861,6577
806,6620
659,1057
751,1040
658,1068
705,1054
702,1070
706,1062
753,1024
614,1062
701,1078
661,1082
616,1088
848,991
796,1025
797,1009
798,998
750,1044
707,1041
615,1061
748,1080
845,1051
846,1033
657,1126
749,1073
795,1061
617,1131
663,1076
794,1103
847,989
849,1050
902,1022
901,1038
900,1066
793,1118
899,1131
898,1095
897,1109
844,1076
842,1113
841,1103
956,1767
792,1100
843,1088
840,1145
850,1057
903,982
800,1046
755,1073
756,1127
710,1213
711,1258
962,1043
961,1036
904,990
906,1074
851,1107
802,1093
801,1057
799,1023
959,992
1014,944
1013,1000
708,1723
709,1698
754,1061
757,1151
1017,1164
1016,993
960,969
905,1056
958,1040
957,2226
1070,947
1015,951
1012,1059
1068,987
1005,1135
1004,1157
1060,1183
1063,1107
1065,1051
1127,1048
1062,1122
1124,1164
1123,1187
1125,1131
1188,1191
1122,1242
1058,1188
947,1205
946,1219
949,1166
945,1237
948,1177
1190,1298
1187,1211
951,1130
895,1113
952,1098
1009,1042
1008,1056
1010,1007
1007,1096
1061,1138
954,1073
896,1093
953,1072
1126,1083
1064,1089
1189,1233
955,1781
950,1143
892,1156
786,1168
836,1165
837,1160
787,1145
700,1113
655,1131
654,1164
653,1172
698,1146
699,1113
608,1212
696,1180
656,1128
833,1228
785,1182
835,1185
693,1244
894,1124
893,1152
1343,933
1192,1154
1191,1175
828,1331
829,1309
780,1310
830,1337
779,1301
782,1224
529,1320
886,1242
596,1389
556,1362
598,1320
597,1343
526,1343
555,1350
525,1390
524,1403
523,1383
688,1271
607,1205
650,1217
651,1211
652,1192
737,1231
694,1198
695,1182
645,1256
646,1248
690,1244
600,1275
599,1289
781,1236
736,1240
558,1351
644,1264
643,1303
648,1256
692,1244
691,1238
513,1231
541,1144
540,1200
568,1283
530,1327
831,1250
559,1329
560,1355
642,1352
557,1339
496,1411
471,1465
444,1541
446,1494
528,1325
527,1332
562,1317
602,1267
734,1266
466,1193
464,1192
463,1207
478,1460
481,1378
480,1410
479,1436
647,1268
488,1222
502,1369
689,1271
533,1322
532,1331
531,1358
601,1266
484,1307
508,1367
510,1329
509,1341
534,1376
482,1391
506,1400
606,1235
455,1494
429,1351
456,1466
457,1447
428,1417
458,1374
554,1400
594,1498
640,1407
639,1549
551,1410
681,1527
636,1520
635,1499
590,1426
778,1315
777,1322
485,1289
486,1302
462,1272
563,1356
885,1304
943,2291
564,1337
641,1360
504,1397
503,1370
501,1380
500,1420
561,1345
254,1324
350,1270
321,1301
319,1320
251,1340
375,1265
347,1336
687,1309
565,1373
539,1279
511,1315
536,1393
649,1278
603,1296
605,1406
733,1287
735,1249
489,1224
514,1220
461,1390
460,1401
459,1420
468,1145
154,1475
178,1439
203,1410
228,1393
402,1293
401,1330
505,1405
522,1411
451,1637
452,1588
477,1479
476,1475
483,1486
884,1354
431,1325
430,1357
454,1470
595,1470
395,1526
394,1550
422,1700
417,1512
390,1477
538,1310
567,1273
426,1580
397,1488
398,1526
499,1615
475,1511
497,1412
498,1429
311,1334
342,1354
345,1353
421,1577
515,1178
472,1641
448,1672
473,1696
474,1737
353,1311
381,1304
256,1436
290,1411
324,1326
380,1318
407,1248
253,1470
226,1407
201,1420
177,1477
824,1432
775,1378
826,1339
939,1387
936,2758
937,1415
880,1525
566,1400
2821,65535
2834,65535
2833,65535
2789,65535
2790,65535
2770,65535
2788,65535
2776,65535
2795,65535
2775,65535
2794,65535
2825,65535
2824,65535
2826,65535
2811,65535
2812,65535
2796,65535
2827,65535
2858,65535
2855,65535
2849,65535
2838,65535
2814,65535
2813,65535
2828,65535
2839,65535
2791,65535
2792,65535
2803,65535
2830,65535
2815,65535
2819,65535
2818,65535
2817,65535
2831,65535
2810,65535
2829,65535
2783,65535
2820,65535
2804,65535
2785,65535
2784,65535
2762,65535
2768,65535
2751,65535
2750,65535
2733,65535
2769,65535
2720,65535
2761,65535
2741,65535
2837,65535
2793,65535
2808,65535
2753,65535
2736,65535
2735,65535
2809,65535
2772,65535
2845,65535
2844,65535
2848,65535
2777,65535
2778,65535
2779,65535
2759,65535
2780,65535
2797,65535
2843,65535
2832,65535
2842,65535
2758,65535
2738,65535
2774,65535
2773,65535
2771,65535
2851,65535
2847,65535
2854,65535
2721,65535
2756,65535
2737,65535
2840,65535
2752,65535
2754,65535
2755,65535
2852,65535
2853,65535
2856,65535
2841,65535
2742,65535
2727,65535
2744,65535
2726,65535
2743,65535
2725,65535
2746,65535
2787,65535
2766,65535
2763,65535
2765,65535
2745,65535
2764,65535
2552,65535
2501,65535
2443,65535
2442,65535
2320,65535
2381,65535
2382,65535
2498,65535
2499,65535
2438,65535
2439,65535
2497,65535
2441,65535
2379,65535
2380,65535
2319,65535
2551,65535
2550,65535
2563,7077
2321,6613
2322,6582
2383,6594
2384,6800
2446,6842
2445,6849
2503,6868
2385,6833
2504,7198
2505,7220
2557,7244
2558,7269
2559,7293
2560,7257
2564,7425
2562,7145
2561,7185
2605,7200
2609,7472
2565,7548
2566,7564
2515,7575
2397,5959
2457,7605
2458,7627
2401,6036
2337,5872
2336,5876
2399,5918
2398,5939
2402,6096
2333,6096
2273,6131
2219,6155
2218,6167
2159,6192
2454,6784
2393,6750
2512,7044
2502,7036
2608,7463
2156,6314
2155,6346
2154,6375
2213,6391
2212,6403
2211,6451
2210,6492
2264,6499
2324,6533
2323,6549
2030,65535
2094,65535
2157,6278
2450,7441
2388,7490
2387,7558
2326,7595
2266,7630
2265,6974
2508,7412
2396,6028
2335,6046
2334,6057
2158,6217
2279,8186
2278,8150
2222,8119
2221,8101
2276,8083
2275,3999
2261,6806
2207,6843
2149,65535
2554,6926
2599,6958
2633,7004
2664,8691
2689,8749
2690,8855
2691,8893
2692,8926
2152,6487
2089,6566
2088,6554
2025,6699
2603,65535
2602,65535
2556,65535
2693,65535
2671,65535
2670,65535
2694,65535
2553,65535
2665,65535
2705,65535
2710,65535
2668,65535
2639,65535
2463,6106
2521,6142
2572,6165
2451,7326
2390,7295
2391,7115
2392,7078
2215,7320
2268,65535
2093,65535
2092,65535
2028,65535
2024,8377
2150,7803
2086,7851
2209,7785
2023,7953
2087,7906
2148,8119
2262,6792
2327,65535
1560,925
1630,1004
1631,914
1559,1040
1629,1209
1558,1113
1634,866
1633,901
1482,982
1481,936
1699,875
1700,869
1701,827
1563,871
2070,838
2008,784
2009,788
1959,779
1958,809
2006,848
1957,844
1956,885
2193,916
2132,887
1912,794
1911,787
1865,848
1866,885
2007,795
2069,829
2010,835
2011,907
1961,743
2072,859
1913,847
1867,918
1962,734
1914,708
1915,320
1909,940
1636,755
1635,835
1564,849
1702,816
1637,718
1638,449
1565,815
1486,852
1760,858
1704,774
1703,748
1763,445
1762,709
1817,415
1705,405
1863,859
1815,906
1759,887
863,2768
758,2861
808,2812
982,2983
1036,2990
1099,3025
1100,3053
1166,3454
1167,3949
1237,3606
1238,3641
1375,3711
1308,3780
1309,3689
1236,3907
1235,3541
1101,3084
1037,3021
971,2564
1025,2547
1026,2562
1027,2575
1089,2588
720,2824
674,2870
864,2650
865,2671
919,2566
1024,2511
975,2685
974,2655
1028,2610
873,3010
925,2956
924,2933
917,2630
918,2606
623,3045
712,2917
713,2950
667,2955
622,3013
809,2798
719,2798
765,2759
972,2596
868,2708
869,2720
815,2739
920,2854
973,2641
981,2934
926,3035
927,3043
928,3067
1354,2517
1288,2501
1218,2477
1152,2546
1023,2475
1353,2501
1085,2455
1148,2385
1147,2378
1082,2329
772,3096
771,3053
819,3028
584,2944
628,2911
629,2900
1033,2831
978,2786
1031,2759
1030,2713
1029,2696
1091,2673
1035,2912
1034,2855
979,2813
1526,3830
1449,3868
1378,3896
1448,3819
1524,3797
1038,3068
1447,3860
1768,284
1710,310
1767,306
391,1449
365,1411
339,1448
400,1486
393,1544
392,1518
396,1473
399,1511
443,1565
449,1655
450,1640
419,1516
414,1587
415,1563
387,1585
388,1520
389,1507
282,1465
281,1496
314,1443
313,1423
405,1255
411,1652
442,1611
255,1374
376,1273
373,1338
278,1345
275,1408
248,1455
335,1614
334,1579
306,1480
307,1469
176,1456
225,1415
320,1369
249,1481
287,1396
285,1363
776,1354
731,1362
315,1451
316,1434
204,1426
440,1177
439,1245
166,2865
269,2782
383,2720
1247,65535
1246,65535
1384,65535
1679,65535
1178,5568
1105,5366
1172,5373
1173,5384
1242,5421
1241,5450
1314,5669
1313,5575
1171,5433
1382,5775
1243,5466
1317,5856
1107,5411
1108,5419
1109,5476
1041,5380
1043,5676
1042,5667
1044,5730
1176,5469
1174,8623
1177,5521
1110,5529
985,5512
986,5555
932,5573
774,1384
730,1374
825,1452
728,1440
729,1400
727,1538
682,1429
684,1398
685,1378
732,1380
683,1462
2134,881
2194,882
2068,843
2129,903
1905,1049
1907,992
1906,1040
1953,1345
2002,1386
2064,1405
2125,1427
2137,1121
2196,1075
2195,1022
1859,1026
1810,1038
1755,1081
2131,882
2192,922
1862,993
1861,1020
1812,993
1860,1037
1809,1239
1756,972
1869,222
1822,242
1821,238
1916,159
1819,300
1764,352
1820,270
1698,892
1757,939
1566,819
1567,809
1488,823
1489,889
1412,913
1413,906
1414,892
1818,313
1568,948
1410,855
2128,911
2189,983
2066,1013
2065,1325
2067,900
1643,352
1571,809
1491,850
2004,1369
2003,1387
1697,1062
2135,833
2075,238
1642,789
1955,921
2130,1000
2005,888
1858,1034
1816,8008
1864,8001
1766,378
1910,981
1868,258
2188,1195
2127,1164
1903,1379
2001,1442
2063,1439
2062,1430
1813,996
1758,907
1639,820
1640,808
1952,1388
2126,8090
1569,862
1965,113
1966,98
2014,0
1490,877
1917,216
1870,267
1871,311
1570,841
1707,384
2076,182
2013,287
1964,313
1487,833
1908,963
2251,3201
2199,3145
2198,3008
2136,820
1641,993
1954,1048
1765,408
1857,1133
2187,1516
1904,1357
1856,1365
1951,1355
1708,843
245,8319
244,8302
357,8306
246,8434
247,8463
197,8557
223,8535
44,8899
43,8959
3,9095
23,9069
22,9058
63,8841
85,8783
84,8738
108,8238
149,8192
172,8583
296,8286
294,8334
355,8434
354,8466
326,8544
295,8443
291,8455
293,8577
260,8463
356,8494
441,8094
412,8117
329,8452
300,8396
148,8166
214,8404
146,8287
110,8368
262,8429
258,8842
292,8605
257,8907
235,8427
187,8327
212,8383
211,8410
186,8331
162,8305
161,8384
165,8283
189,8483
238,8564
237,8529
263,8465
265,8484
266,8462
267,8450
268,8290
26,9059
25,9027
105,65535
62,65535
83,65535
126,8405
175,8840
152,8774
151,8764
150,8723
103,8343
242,8236
191,8190
192,8241
217,8264
218,8317
145,8227
144,8311
167,8219
190,8197
219,8334
159,8431
185,8375
158,8488
188,8319
160,8396
143,65535
122,65535
75,65535
54,65535
198,8968
270,8331
221,8372
301,8429
302,8266
330,8293
331,8315
115,8367
133,8426
139,8323
134,8400
114,8924
48,65535
69,65535
92,8600
164,8393
4,65535
107,8745
129,8830
109,8270
125,8311
124,8285
127,65535
82,65535
67,65535
91,8768
93,8567
137,8702
113,8722
112,8680
136,65535
49,65535
72,65535
71,65535
406,1321
805,6610
858,6415
859,6556
967,2034
1142,2169
1080,6255
1022,6296
1079,6288
968,6411
1206,2126
915,6562
916,6597
914,6534
807,6649
911,7756
1078,6512
1207,2184
1278,2228
1277,2231
1344,2251
1415,2292
1492,2347
1345,2308
1346,2278
1208,2176
1209,2256
1143,2293
1144,2309
1145,2324
1417,2304
1493,2364
1494,2383
1572,2398
1081,6581
970,6784
408,1284
382,1338
437,1244
467,1206
409,1327
403,1314
432,1509
433,1351
404,1271
352,1412
351,1295
349,1383
317,1405
374,1403
346,1439
283,1439
410,1284
438,1275
465,1210
490,1223
491,1197
435,1295
436,1281
379,1383
323,1457
289,1489
377,1311
378,1334
592,1564
593,1605
552,1421
445,1516
424,1579
423,1536
416,1560
361,1554
362,1527
371,1587
372,1569
343,1483
344,1480
286,1490
227,1489
252,1378
284,1349
318,1489
250,1424
312,1367
340,1381
368,1400
369,1434
370,1546
341,1395
367,1500
308,1439
276,1410
277,1407
280,1458
310,1367
338,1455
366,1524
274,1432
305,1597
420,1570
363,1511
418,1458
550,6601
579,6624
576,6569
577,6581
578,6597
520,6577
618,6591
662,6621
619,6608
620,6621
621,6615
665,6597
666,6589
664,6617
580,6636
2260,65535
2257,65535
2206,65535
2146,65535
2314,65535
2313,65535
2312,65535
2373,65535
2256,65535
2205,65535
2434,65535
2435,65535
2375,65535
2376,65535
2433,65535
2491,65535
2490,65535
2492,65535
2546,65535
2597,65535
2596,65535
2544,65535
2145,65535
2082,65535
2020,65535
2494,65535
0,65535
11,65535
1052,3988
1053,3975
941,3965
1740,1680
1796,1706
1615,1546
1681,1603
1545,1510
1797,1729
1544,1515
1741,1701
1795,2856
1617,1521
1546,1493
1616,1573
1683,1635
1467,1485
1547,1477
1465,1498
1387,1517
1388,1462
1464,1516
1462,2024
1461,2050
1542,2133
1463,1980
1682,1666
1543,1606
1618,1552
1742,2334
1460,2274
1248,1541
1850,1474
1801,1473
1803,1426
882,1339
881,1348
938,1398
883,1359
940,6678
1998,1359
1902,1313
1807,1266
1691,1344
1694,1213
1693,1381
1749,1338
1752,1287
1753,1244
1627,1191
1628,1161
1557,1139
1479,1091
1402,1061
1808,1247
1946,1555
1947,1490
1948,1373
1997,1369
1855,1305
1690,1327
2060,1375
1949,1407
1950,1334
1751,1330
1692,1349
1999,1349
1901,1415
1900,1456
1852,1605
1853,1484
1805,1346
1750,1343
1854,1320
1806,1306
1748,1387
2061,1416
2000,1414
1804,1426
1899,1625
2884,65535
2892,65535
2883,65535
2876,65535
2874,65535
2882,65535
2877,65535
2911,65535
2905,65535
2906,65535
2896,65535
2887,65535
2881,65535
2880,65535
2888,65535
2902,65535
2903,65535
2907,65535
2912,65535
2895,65535
2894,65535
2875,65535
2885,65535
2893,65535
2904,65535
2865,65535
2866,65535
2909,65535
2913,65535
2886,65535
2878,65535
2869,65535
2871,65535
2872,65535
2879,65535
2870,65535
1330,1115
1331,1054
1401,1066
1262,1100
1263,1069
1478,1077
1403,1010
1261,1151
1480,1024
1264,1063
1390,1475
1389,1453
1319,1437
1251,1520
1250,1595
1285,2420
1284,2406
1214,2378
1146,2342
1505,2627
1504,2561
1582,2599
1581,2527
1713,2506
1771,2488
1654,2638
1653,2611
1651,2563
2096,3742
2033,3702
1972,3673
1923,3605
1922,3583
1874,3277
1873,2990
1919,2943
1829,5654
1579,2463
1424,2467
1711,2480
1348,2304
1419,2324
1359,2731
1429,2682
1428,2668
1421,2381
1577,2415
1499,2388
1230,2975
1365,2912
1511,2834
1300,2957
1366,2929
1512,2862
1716,2696
1503,2749
1276,2258
1347,2288
1349,2336
1645,2472
1578,2450
1770,2484
1715,2539
1150,2443
1217,2457
1149,2419
1580,2509
1352,2496
1502,2527
1825,2896
1718,2851
1717,2825
1872,2929
1656,2740
1648,2515
1712,2492
1213,2368
1212,2349
1084,2390
1420,2370
1281,2294
1282,2355
1587,2734
1586,2701
1585,2690
1652,2658
1427,2836
1975,3777
1977,3845
1932,3915
1931,4540
1426,2556
1422,2398
1425,2541
1583,2627
1501,2485
1283,2396
1286,2443
1215,2428
1211,2325
1210,2299
1083,2361
1655,2729
2220,3977
1355,5411
1772,2497
1436,2880
1435,2870
1589,2803
1163,3008
1735,4128
1791,4061
1841,4038
1840,3994
1219,2560
1220,2599
1647,2501
1646,2493
1279,2246
1714,2516
1575,2475
1576,2437
1498,2445
1573,2487
1496,2505
1497,2476
2177,3925
2176,3995
2294,3964
2293,4040
2237,3972
2236,4001
2364,3773
2302,3713
2301,3635
2245,3537
2056,3843
2057,3887
2055,3646
2184,3698
2120,3704
2244,3618
2538,4068
2537,4030
2591,4055
1940,3830
1989,3838
1990,3774
2539,4046
2482,4146
2483,3911
2424,3807
2121,3765
2119,3578
2050,3903
2049,3965
2048,4383
2185,3731
2243,3457
2299,3671
2241,3620
2485,3989
2542,4044
2353,4003
2292,3910
2419,3823
2478,3884
2479,3901
2536,3987
2484,3950
2486,3943
2354,3898
2416,4019
2242,3665
2355,3892
2300,3678
1991,3778
1992,3785
2477,3876
2534,3886
2535,3986
2588,3923
2587,3938
2630,3958
2051,3699
2116,3593
2175,4093
2586,65535
2541,4180
2178,3900
2179,3703
2240,3650
2239,3874
2238,3944
2052,3830
2053,3796
1987,4070
1988,4107
1939,4020
2594,4152
2593,4124
2358,3780
2357,3787
2420,3830
2247,3826
2427,3916
2428,3938
2181,3497
2180,3546
2417,3878
2590,4036
2297,3659
2361,3851
2362,3734
2423,3822
2422,3787
2174,4258
2356,3917
1941,3819
2365,3950
2112,4263
2047,4405
2182,3636
2359,3713
2533,4651
2295,3976
2115,3666
2632,4096
2631,4035
2186,3899
2298,3745
2360,3769
2235,4221
2291,4234
2487,4165
2246,3758
2425,4566
2117,3890
2543,4118
1893,65535
2421,3922
2476,3932
2592,4202
604,6586
