middle_point_id,reach_time_minutes
2835,65535
2836,65535
2806,65535
2822,65535
2823,65535
2807,65535
2846,65535
887,2563
888,2569
1326,2444
1185,2512
999,2570
1057,2597
1552,2289
1120,2522
1473,2350
944,2671
832,2551
1257,2467
1396,2639
1622,2335
1327,3784
1184,2515
1183,2530
1324,2551
1255,2631
1394,2442
1252,2635
1253,2596
1182,2540
1328,65535
1470,2460
1321,2634
1322,2575
1323,2525
1391,2647
1551,2292
1393,2500
1472,2416
1471,2389
1181,2774
1118,2579
1059,2528
1121,2529
1469,2521
1468,2740
1548,2505
1325,2485
1625,2175
1623,2274
1258,2507
1256,2474
791,2429
891,2529
703,2469
704,2462
660,2466
1553,2319
1624,2221
1554,2510
1474,2326
1475,3361
1550,2346
1549,2454
1320,2692
1466,2744
1541,3160
1318,2806
1249,2829
1186,2508
1003,2514
1002,2523
741,2499
788,2461
434,2615
697,2481
752,2470
1056,2592
1006,2474
907,2519
518,2530
1011,2402
1000,2553
1055,3062
997,3031
994,2925
996,2997
995,2981
991,2772
1112,65535
1114,3012
1051,2975
1398,3852
1395,2730
1001,2528
1811,1647
1960,1716
1769,2305
1823,2294
1329,65535
1332,2321
1259,65535
1200,2374
1199,2373
1140,2556
1141,2557
783,2543
1689,2364
1802,2360
1945,2876
2183,3358
2418,3807
1994,2912
1995,3308
2059,2251
1621,65535
1555,2256
1754,1999
1180,3743
1106,4005
933,4166
827,2648
2122,3163
2124,1580
493,2555
519,2539
544,2526
545,2531
494,2548
470,2571
543,2537
469,2578
517,2535
574,2535
573,2513
495,2556
546,2537
613,2509
612,2523
492,2570
572,2525
571,2539
570,2543
610,2570
575,2508
547,2526
516,2560
611,2541
542,2551
569,2595
609,2563
548,2535
549,2536
1404,2350
1405,2340
1266,2350
1193,2447
743,2468
742,2478
747,2448
746,2440
745,2453
744,2452
790,2435
789,2441
839,2449
838,2463
738,2533
739,2508
740,2504
890,2524
834,2545
784,2534
889,2544
856,2593
855,2580
854,2588
853,2575
852,2533
910,2572
909,2561
908,2528
964,2522
965,2558
1020,2591
966,2578
963,2494
1021,2679
1271,2371
1270,2369
1339,2378
1338,2367
1071,2418
1072,2427
1135,2407
1408,2383
1337,2359
1269,2358
1268,2354
1136,2408
1075,2469
1077,2548
1076,2503
1019,2502
1018,2493
1074,2432
1137,2424
1272,2400
1274,2497
1275,2510
1205,2517
1204,2543
1273,2436
1198,2389
1197,2386
1341,2443
1134,2409
1133,2405
1069,2374
1132,2367
1073,2423
1203,2540
1202,2505
1201,2446
1139,2548
1267,2345
1138,2456
1340,2381
1196,2358
1342,2476
1409,2394
1485,2338
1407,2363
1561,2231
1632,2196
1484,2324
1483,2270
1562,2236
1194,2405
1130,2407
1195,2386
1335,2360
1129,2430
1066,2426
1128,2476
1067,2392
1131,2390
1334,2355
1336,2338
1265,2375
1333,2335
1406,2301
857,2602
803,2642
804,2655
860,2645
969,2637
913,2624
912,2617
861,2700
806,2711
659,2467
751,2453
658,2481
705,2465
702,2464
706,2480
753,2487
614,2502
701,2455
661,2481
616,2498
848,2461
796,2473
797,2475
798,2498
750,2448
707,2493
615,2501
748,2484
845,2408
846,2450
657,2506
749,2466
795,2437
617,2511
663,2516
794,2423
847,2462
849,2490
902,2443
901,2416
900,2403
793,2438
899,2409
898,2411
897,2430
844,2413
842,2432
841,2426
956,2396
792,2431
843,2420
840,2458
850,2529
903,2447
800,2546
755,2573
756,2623
710,2565
711,2698
962,2483
961,2476
904,2460
906,2512
851,2520
802,2570
801,2557
799,2523
959,2429
1014,2410
1013,2400
708,2694
709,2570
754,2527
757,2651
1017,2501
1016,2433
960,2444
905,2496
958,2405
957,2387
1070,2414
1015,2427
1012,2384
1068,2391
1005,2484
1004,2505
1060,2527
1063,2531
1065,2462
1127,2488
1062,2538
1124,2562
1123,2549
1125,2560
1188,2553
1122,2529
1058,2534
947,2566
946,2599
949,2504
945,2583
948,2520
1190,2738
1187,2529
951,2474
895,2433
952,2464
1009,2415
1008,2451
1010,2405
1007,2459
1061,2533
954,2405
896,2413
953,2437
1126,2523
1064,2490
1189,2673
955,2400
950,2498
892,2476
786,2488
836,2485
837,2470
787,2464
700,2493
655,2511
654,2506
653,2491
698,2466
699,2463
608,2542
696,2497
656,2508
833,2548
785,2502
835,2505
693,2531
894,2444
893,2468
1343,2492
1192,2354
1191,2375
828,2638
829,2624
780,2577
830,2619
779,2636
782,2544
529,2705
886,2562
596,2750
556,2781
598,2666
597,2705
526,2747
555,2764
525,2794
524,2822
523,2779
688,2586
607,2576
650,2594
651,2574
652,2571
737,2537
694,2518
695,2504
645,2596
646,2571
690,2551
600,2625
599,2627
781,2556
736,2545
558,2691
644,2628
643,2593
648,2576
692,2548
691,2542
513,2649
541,2584
540,2624
568,2638
530,2691
831,2570
559,2683
560,2639
642,2736
557,2734
496,2822
471,2862
444,2921
446,2879
528,2739
527,2753
562,2639
602,2616
734,2580
466,2633
464,2632
463,2647
478,2870
481,2752
480,2781
479,2815
647,2588
488,2662
502,2749
689,2591
533,2670
532,2697
531,2721
601,2613
484,2747
508,2705
510,2709
509,2715
534,2684
482,2787
506,2720
606,2585
455,2930
429,2791
456,2902
457,2883
428,2853
458,2802
554,2840
594,2808
640,2727
639,2824
551,2802
681,2914
636,2908
635,2924
590,2861
778,2645
777,2652
485,2729
486,2679
462,2674
563,2676
885,2573
943,3731
564,2777
641,2721
504,2714
503,2741
501,2820
500,2860
561,2661
254,2764
350,2710
321,2741
319,2760
251,2779
375,2705
347,2776
687,2599
565,2761
539,2715
511,2690
536,2728
649,2593
603,2735
605,2846
733,2600
735,2569
489,2679
514,2660
461,2830
460,2841
459,2819
468,2562
154,2915
178,2879
203,2850
228,2833
402,2733
401,2770
505,2725
522,2814
451,3057
452,3028
477,2919
476,2915
483,2926
884,2734
431,2765
430,2797
454,2894
595,2910
395,2966
394,2990
422,3140
417,2911
390,2917
538,2750
567,2592
426,3020
397,2928
398,2966
499,3055
475,2951
497,2852
498,2869
311,2774
342,2794
345,2751
421,3017
515,2652
472,3081
448,3112
473,3136
474,3177
353,2751
381,2744
256,2876
290,2851
324,2766
380,2758
407,2688
253,2910
226,2847
201,2860
177,2917
824,2756
775,2702
826,2659
939,2707
936,2758
937,2744
880,2712
566,2797
2821,65535
2834,65535
2833,65535
2789,65535
2790,65535
2770,65535
2788,65535
2776,65535
2795,65535
2775,65535
2794,65535
2825,65535
2824,65535
2826,65535
2811,65535
2812,65535
2796,65535
2827,65535
2858,65535
2855,65535
2849,65535
2838,65535
2814,65535
2813,65535
2828,65535
2839,65535
2791,65535
2792,65535
2803,65535
2830,65535
2815,65535
2819,65535
2818,65535
2817,65535
2831,65535
2810,65535
2829,65535
2783,65535
2820,65535
2804,65535
2785,65535
2784,65535
2762,65535
2768,65535
2751,65535
2750,65535
2733,65535
2769,65535
2720,65535
2761,65535
2741,65535
2837,65535
2793,65535
2808,65535
2753,65535
2736,65535
2735,65535
2809,65535
2772,65535
2845,65535
2844,65535
2848,65535
2777,65535
2778,65535
2779,65535
2759,65535
2780,65535
2797,65535
2843,65535
2832,65535
2842,65535
2758,65535
2738,65535
2774,65535
2773,65535
2771,65535
2851,65535
2847,65535
2854,65535
2721,65535
2756,65535
2737,65535
2840,65535
2752,65535
2754,65535
2755,65535
2852,65535
2853,65535
2856,65535
2841,65535
2742,65535
2727,65535
2744,65535
2726,65535
2743,65535
2725,65535
2746,65535
2787,65535
2766,65535
2763,65535
2765,65535
2745,65535
2764,65535
2552,65535
2501,65535
2443,65535
2442,65535
2320,65535
2381,65535
2382,65535
2498,65535
2499,65535
2438,65535
2439,65535
2497,65535
2441,65535
2379,65535
2380,65535
2319,65535
2551,65535
2550,65535
2563,65535
2321,65535
2322,65535
2383,65535
2384,65535
2446,65535
2445,65535
2503,65535
2385,65535
2504,65535
2505,65535
2557,65535
2558,65535
2559,65535
2560,65535
2564,65535
2562,65535
2561,65535
2605,65535
2609,65535
2565,65535
2566,65535
2515,4756
2397,4519
2457,4736
2458,4720
2401,65535
2337,4432
2336,4436
2399,4478
2398,4499
2402,65535
2333,4656
2273,4691
2219,4715
2218,4727
2159,4752
2454,65535
2393,65535
2512,65535
2502,65535
2608,65535
2156,65535
2155,65535
2154,65535
2213,65535
2212,65535
2211,65535
2210,65535
2264,65535
2324,65535
2323,65535
2030,65535
2094,65535
2157,65535
2450,65535
2388,65535
2387,65535
2326,65535
2266,65535
2265,65535
2508,65535
2396,4588
2335,4606
2334,4617
2158,4777
2279,65535
2278,65535
2222,65535
2221,65535
2276,65535
2275,3804
2261,65535
2207,65535
2149,65535
2554,65535
2599,65535
2633,65535
2664,65535
2689,65535
2690,65535
2691,65535
2692,65535
2152,65535
2089,65535
2088,65535
2025,65535
2603,65535
2602,65535
2556,65535
2693,65535
2671,65535
2670,65535
2694,65535
2553,65535
2665,65535
2705,65535
2710,65535
2668,65535
2639,65535
2463,65535
2521,65535
2572,65535
2451,65535
2390,65535
2391,65535
2392,65535
2215,65535
2268,65535
2093,65535
2092,65535
2028,65535
2024,65535
2150,65535
2086,65535
2209,65535
2023,65535
2087,65535
2148,65535
2262,65535
2327,65535
1560,2247
1630,2281
1631,2217
1559,2288
1629,2364
1558,2361
1634,2292
1633,2239
1482,2359
1481,2297
1699,2181
1700,2258
1701,2262
1563,2299
2070,1743
2008,1732
2009,1748
1959,1712
1958,1674
2006,1699
1957,1670
1956,1663
2193,2387
2132,2327
1912,1748
1911,1763
1865,2237
1866,1837
2007,1737
2069,1772
2010,1783
2011,1869
1961,1753
2072,1799
1913,1777
1867,1848
1962,1795
1914,1804
1915,1893
1909,1698
1636,2294
1635,2321
1564,2334
1702,2275
1637,2304
1638,2325
1565,2301
1486,2347
1760,2290
1704,2305
1703,2298
1763,2356
1762,2341
1817,2312
1705,2364
1863,1770
1815,2253
1759,2307
863,3025
758,3113
808,3069
982,3406
1036,3703
1099,3873
1100,3771
1166,3984
1167,4033
1237,4128
1238,4157
1375,4228
1308,4185
1309,4207
1236,4093
1235,4071
1101,3802
1037,3738
971,2950
1025,2952
1026,2967
1027,2979
1089,3009
720,3197
674,3246
864,3010
865,3031
919,2968
1024,2934
975,3041
974,3015
1028,2998
873,3259
925,3197
924,3180
917,2990
918,2966
623,3285
712,3160
713,3194
667,3199
622,3255
809,3055
719,3171
765,3128
972,2954
868,3041
869,3082
815,3108
920,3197
973,2995
981,3370
926,3284
927,3292
928,3316
1354,2998
1288,2986
1218,2957
1152,2992
1023,2889
1353,2974
1085,2847
1148,2805
1147,2798
1082,2770
772,4168
771,4125
819,4100
584,3386
628,3709
629,3683
1033,3193
978,3150
1031,3123
1030,3076
1029,3056
1091,3033
1035,3708
1034,3217
979,3177
1526,4343
1449,4388
1378,4416
1448,4333
1524,4311
1038,3786
1447,4473
1768,2298
1710,2321
1767,2314
391,2889
365,2851
339,2888
400,2926
393,2984
392,2958
396,2913
399,2951
443,2971
449,3095
450,3080
419,2956
414,3027
415,3003
387,3025
388,2960
389,2947
282,2905
281,2843
314,2846
313,2863
405,2629
411,3092
442,3051
255,2814
376,2713
373,2778
278,2785
275,2848
248,2895
335,3054
334,3019
306,2920
307,2909
176,2896
225,2855
320,2809
249,2921
287,2836
285,2803
776,2674
731,2682
315,2797
316,2874
204,2866
440,2700
439,2729
166,4305
269,4046
383,3872
1247,65535
1246,65535
1384,65535
1679,65535
1178,65535
1105,4009
1172,4028
1173,4078
1242,4080
1241,4072
1314,4229
1313,4135
1171,4054
1382,4335
1243,4277
1317,4416
1107,4017
1108,4196
1109,4481
1041,4026
1043,4236
1042,4227
1044,4290
1176,65535
1174,4303
1177,65535
1110,65535
985,4072
986,4115
932,4133
774,2750
730,2694
825,2712
728,2760
729,2720
727,2941
682,2749
684,2718
685,2698
732,2678
683,2902
2134,2403
2194,2422
2068,2171
2129,2225
1905,1567
1907,1610
1906,1570
1953,1562
2002,1527
2064,1533
2125,1554
2137,2561
2196,2515
2195,2462
1859,1630
1810,1641
1755,1761
2131,2266
2192,2304
1862,1813
1861,1775
1812,1740
1860,1695
1809,1733
1756,1737
1869,2248
1822,2287
1821,2311
1916,2210
1819,2344
1764,2354
1820,2312
1698,1807
1757,1777
1566,2335
1567,2338
1488,2394
1489,2442
1412,2464
1413,2568
1414,2553
1818,2349
1568,2388
1410,2400
2128,2256
2189,2283
2066,2221
2065,2210
2067,2222
1643,2364
1571,2483
1491,2497
2004,2251
2003,1650
1697,2295
2135,2554
2075,2578
1642,2393
1955,1630
2130,2440
2005,1730
1858,1589
1816,3688
1864,3681
1766,2355
1910,1748
1868,2244
2188,2635
2127,2604
1903,1703
2001,1416
2063,0
2062,2274
1813,2373
1758,1787
1639,2375
1640,2401
1952,1586
2126,3770
1569,2411
1965,2466
1966,2512
2014,2529
1490,2462
1917,2230
1870,2277
1871,2322
1570,2445
1707,2361
2076,2596
2013,2534
1964,2312
1487,2396
1908,1835
2251,65535
2199,65535
2198,65535
2136,2603
1641,2433
1954,2266
1765,2376
1857,1630
2187,1885
1904,1681
1856,1706
1951,1694
1708,2494
245,4110
244,4098
357,3986
246,4135
247,4162
197,4237
223,4215
44,4579
43,4639
3,4775
23,4749
22,4738
63,4521
85,4463
84,4418
108,4384
149,4338
172,4302
296,3966
294,4014
355,4114
354,4146
326,4224
295,4123
291,4135
293,4257
260,4277
356,4174
441,3774
412,3797
329,4132
300,4076
148,4480
214,4296
146,4411
110,4663
262,4109
258,4522
292,4285
257,4587
235,4385
187,4464
212,4491
211,4495
186,4576
162,4590
161,4603
165,4358
189,4414
238,4244
237,4209
263,4145
265,4250
266,4270
267,4295
268,4344
26,4739
25,4707
105,65535
62,65535
83,65535
126,4599
175,4520
152,4454
151,4444
150,4403
103,65535
242,4400
191,4570
192,4624
217,4650
218,65535
145,4390
144,4717
167,4332
190,4558
219,65535
159,65535
185,65535
158,65535
188,4447
160,65535
143,65535
122,65535
75,65535
54,65535
198,4648
270,4404
221,4752
301,65535
302,4354
330,4339
331,4307
115,4692
133,4754
139,65535
134,4728
114,4715
48,65535
69,65535
92,4629
164,65535
4,65535
107,4425
129,4510
109,65535
125,65535
124,65535
127,65535
82,65535
67,65535
91,65535
93,65535
137,65535
113,65535
112,65535
136,65535
49,65535
72,65535
71,65535
406,2761
805,2680
858,2611
859,2712
967,2617
1142,2641
1080,2637
1022,2631
1079,2645
968,2614
1206,2649
915,2662
916,2673
914,2634
807,2748
911,3436
1078,2669
1207,2661
1278,2687
1277,2673
1344,2694
1415,2712
1492,2767
1345,2702
1346,2723
1208,2656
1209,2676
1143,2713
1144,2729
1145,2759
1417,2738
1493,2785
1494,2803
1572,2819
1081,2648
970,3064
408,2724
382,2778
437,2649
467,2629
409,2767
403,2754
432,2949
433,2791
404,2693
352,2852
351,2735
349,2823
317,2845
374,2843
346,2879
283,2879
410,2724
438,2715
465,2650
490,2694
491,2637
435,2675
436,2701
379,2823
323,2897
289,2929
377,2700
378,2672
592,3004
593,3045
552,2801
445,2898
424,3019
423,2976
416,2993
361,2994
362,2967
371,3027
372,3009
343,2923
344,2920
286,2930
227,2929
252,2818
284,2789
318,2929
250,2864
312,2807
340,2821
368,2840
369,2874
370,2986
341,2835
367,2940
308,2879
276,2850
277,2847
280,2898
310,2807
338,2895
366,2964
274,2872
305,3037
420,3010
363,2951
418,2898
550,2548
579,2559
576,2528
577,2522
578,2526
520,2537
618,2528
662,2526
619,2541
620,2548
621,2558
665,2547
666,2558
664,2533
580,2569
2260,65535
2257,65535
2206,65535
2146,65535
2314,65535
2313,65535
2312,65535
2373,65535
2256,65535
2205,65535
2434,65535
2435,65535
2375,65535
2376,65535
2433,65535
2491,65535
2490,65535
2492,65535
2546,65535
2597,65535
2596,65535
2544,65535
2145,65535
2082,65535
2020,65535
2494,65535
0,65535
11,65535
1052,3028
1053,3015
941,3055
1740,2892
1796,2933
1615,2795
1681,2836
1545,2756
1797,2980
1544,2770
1741,2948
1795,3130
1617,2756
1546,2761
1616,2773
1683,2868
1467,2730
1547,2735
1465,2805
1387,2841
1388,2802
1464,2866
1462,3019
1461,3040
1542,3104
1463,2983
1682,2847
1543,2825
1618,2748
1742,3040
1460,3206
1248,2850
1850,2372
1801,2382
1803,2356
882,2659
881,2668
938,2718
883,2679
940,3798
1998,2225
1902,1849
1807,1828
1691,2291
1694,2413
1693,2272
1749,2316
1752,2226
1753,1929
1627,2203
1628,2361
1557,2254
1479,2301
1402,2315
1808,1843
1946,2395
1947,2340
1948,2244
1997,2240
1855,1761
1690,2317
2060,2350
1949,2399
1950,1887
1751,2231
1692,2260
1999,2206
1901,2750
1900,2777
1852,3045
1853,2924
1805,2374
1750,2279
1854,2690
1806,2432
1748,2347
2061,2300
2000,2254
1804,2367
1899,3065
2884,65535
2892,65535
2883,65535
2876,65535
2874,65535
2882,65535
2877,65535
2911,65535
2905,65535
2906,65535
2896,65535
2887,65535
2881,65535
2880,65535
2888,65535
2902,65535
2903,65535
2907,65535
2912,65535
2895,65535
2894,65535
2875,65535
2885,65535
2893,65535
2904,65535
2865,65535
2866,65535
2909,65535
2913,65535
2886,65535
2878,65535
2869,65535
2871,65535
2872,65535
2879,65535
2870,65535
1330,2375
1331,2328
1401,2326
1262,2337
1263,2333
1478,2337
1403,2321
1261,2340
1480,2346
1264,2340
1390,2713
1389,2758
1319,2735
1251,2822
1250,2908
1285,2839
1284,2824
1214,2798
1146,2777
1505,2986
1504,2956
1582,2959
1581,2920
1713,2932
1771,2914
1654,3058
1653,3030
1651,2983
2096,3742
2033,3702
1972,3673
1923,3605
1922,3583
1874,3784
1873,3701
1919,3332
1829,3954
1579,2883
1424,2876
1711,2895
1348,2760
1419,2850
1359,3089
1429,3045
1428,3034
1421,2803
1577,2836
1499,2812
1230,3865
1365,3242
1511,3171
1300,3847
1366,3819
1512,3189
1716,3113
1503,2973
1276,2678
1347,2761
1349,2786
1645,2892
1578,2870
1770,2908
1715,2989
1150,2923
1217,2935
1149,2900
1580,2909
1352,2856
1502,2898
1825,3288
1718,3253
1717,3229
1872,3667
1656,3133
1648,2935
1712,2919
1213,2806
1212,2863
1084,2810
1420,2787
1281,2778
1282,2986
1587,3111
1586,3077
1585,3117
1652,3100
1427,3020
1975,3777
1977,3845
1932,3915
1931,4540
1426,2981
1422,2818
1425,2941
1583,3048
1501,2902
1283,2842
1286,2900
1215,2829
1211,2823
1210,2831
1083,2781
1655,3144
2220,3783
1355,65535
1772,2937
1436,3238
1435,3229
1589,3162
1163,3899
1735,4128
1791,4061
1841,4038
1840,3994
1219,2985
1220,3027
1647,2921
1646,2913
1279,2778
1714,2966
1575,2958
1576,2924
1498,2920
1573,2847
1496,2882
1497,2929
2177,3925
2176,3995
2294,3912
2293,4031
2237,3972
2236,4001
2364,3773
2302,3713
2301,3635
2245,3537
2056,3667
2057,3753
2055,3646
2184,3698
2120,3704
2244,3618
2538,3958
2537,3939
2591,4055
1940,3830
1989,3838
1990,3774
2539,3958
2482,3949
2483,3911
2424,3807
2121,3765
2119,3578
2050,3887
2049,3965
2048,4383
2185,3731
2243,3457
2299,3671
2241,3620
2485,3989
2542,4044
2353,4003
2292,3910
2419,3797
2478,3844
2479,3879
2536,3906
2484,3950
2486,3943
2354,3842
2416,4019
2242,3665
2355,3880
2300,3678
1991,3778
1992,3785
2477,3835
2534,3856
2535,3971
2588,3876
2587,3890
2630,3941
2051,3699
2116,3593
2175,4028
2586,65535
2541,4111
2178,3900
2179,3703
2240,3650
2239,3874
2238,3944
2052,3830
2053,3796
1987,4070
1988,3918
1939,3942
2594,4061
2593,4046
2358,3764
2357,3774
2420,3830
2247,3826
2427,3916
2428,3938
2181,3497
2180,3546
2417,3824
2590,4036
2297,3659
2361,3851
2362,3734
2423,3822
2422,3787
2174,4258
2356,3885
1941,3819
2365,3950
2112,4263
2047,4405
2182,3636
2359,3713
2533,4651
2295,3976
2115,3666
2632,4096
2631,4035
2186,3196
2298,3745
2360,3769
2235,4221
2291,4234
2487,4165
2246,3758
2425,4566
2117,3890
2543,4118
1893,65535
2421,3922
2476,3840
2592,4094
604,65535
