middle_point_id,reach_time_minutes
2835,65535
2836,65535
2806,65535
2822,65535
2823,65535
2807,65535
2846,65535
887,1464
888,1438
1326,1480
1185,1449
999,1490
1057,2265
1552,1294
1120,1434
1473,1324
944,1536
832,1448
1257,1455
1396,1684
1622,1315
1327,3784
1184,1439
1183,1450
1324,1689
1255,1585
1394,1367
1252,1675
1253,1636
1182,1580
1328,65535
1470,1380
1321,1661
1322,1641
1323,2405
1391,1635
1551,1312
1393,1403
1472,1515
1471,1357
1181,2774
1118,1679
1059,1370
1121,1399
1469,1441
1468,1517
1548,1425
1325,1777
1625,1311
1623,1276
1258,1419
1256,1514
791,1359
891,1409
703,1357
704,1351
660,1355
1553,1308
1624,1304
1554,1370
1474,1320
1475,1367
1550,1322
1549,1374
1320,1608
1466,1649
1541,2515
1318,1639
1249,1661
1186,1488
1003,1374
1002,1375
741,1421
788,1381
434,1514
697,1431
752,1360
1056,1512
1006,1324
907,1381
518,1431
1011,1202
1000,1414
1055,3062
997,3031
994,2925
996,2997
995,2981
991,2772
1112,65535
1114,3012
1051,2975
1398,1692
1395,1710
1001,1388
1811,909
1960,380
1769,1136
1823,1110
1329,65535
1332,1143
1259,1530
1200,1173
1199,1173
1140,1338
1141,1339
783,1460
1689,1279
1802,1290
1945,1436
2183,1918
2418,2367
1994,1472
1995,1868
2059,1177
1621,65535
1555,1327
1754,1001
1180,2303
1106,4005
933,4166
827,1568
2122,1723
2124,140
493,1442
519,1435
544,1429
545,1433
494,1444
470,1478
543,1443
469,1457
517,1448
574,1441
573,1408
495,1480
546,1449
613,1389
612,1393
492,1456
572,1412
571,1459
570,1501
610,1515
575,1496
547,1478
516,1487
611,1521
542,1471
569,1557
609,1525
548,2229
549,2264
1404,1081
1405,1074
1266,1111
1193,1157
743,1409
742,1400
747,1397
746,1390
745,1403
744,1398
790,1365
789,1372
839,1388
838,1388
738,1463
739,1449
740,1442
890,1421
834,1454
784,1453
889,1433
856,1469
855,1440
854,1449
853,1436
852,1395
910,1432
909,1412
908,1388
964,1391
965,1418
1020,1391
966,1438
963,1359
1021,1493
1271,1171
1270,1169
1339,1178
1338,1164
1071,1203
1072,1218
1135,1199
1408,1145
1337,1118
1269,1140
1268,1130
1136,1208
1075,1269
1077,1335
1076,1306
1019,1302
1018,1293
1074,1232
1137,1224
1272,1213
1274,1297
1275,1310
1205,1317
1204,1343
1273,1307
1198,1191
1197,1186
1341,1242
1134,1194
1133,1191
1069,1174
1132,1154
1073,1223
1203,1340
1202,1305
1201,1233
1139,1304
1267,1114
1138,1256
1340,1190
1196,1129
1342,1261
1409,1191
1485,1082
1407,1107
1561,982
1632,969
1484,1055
1483,1010
1562,996
1194,1138
1130,1145
1195,1126
1335,1106
1129,1170
1066,1213
1128,1271
1067,1197
1131,1150
1334,1125
1336,1099
1265,1175
1333,1137
1406,1042
857,1788
803,1822
804,2239
860,2247
969,2200
913,2187
912,2125
861,2257
806,2300
659,1364
751,1341
658,1368
705,1354
702,1376
706,1366
753,1384
614,1384
701,1399
661,1360
616,1388
848,1321
796,1329
797,1338
798,1358
750,1343
707,1401
615,1361
748,1369
845,1268
846,1306
657,1426
749,1373
795,1316
617,1431
663,1406
794,1343
847,1324
849,1350
902,1305
901,1270
900,1257
793,1358
899,1308
898,1329
897,1317
844,1280
842,1342
841,1345
956,1216
792,1352
843,1328
840,1385
850,1389
903,1315
800,1397
755,1409
756,1423
710,1453
711,1498
962,1343
961,1336
904,1320
906,1369
851,1380
802,1402
801,1391
799,1383
959,1349
1014,1248
1013,1240
708,1794
709,1822
754,1421
757,1451
1017,1404
1016,1490
960,1321
905,1356
958,1278
957,1194
1070,1214
1015,1258
1012,1184
1068,1191
1005,1347
1004,1355
1060,1367
1063,1300
1065,1229
1127,1312
1062,1329
1124,1344
1123,1363
1125,1332
1188,1371
1122,1396
1058,1388
947,1445
946,1459
949,1368
945,1476
948,1398
1190,1418
1187,1392
951,1339
895,1360
952,1324
1009,1219
1008,1251
1010,1209
1007,1272
1061,1346
954,1238
896,1332
953,1301
1126,1335
1064,1271
1189,1473
955,1231
950,1364
892,1396
786,1408
836,1429
837,1393
787,1400
700,1427
655,1470
654,1434
653,1456
698,1428
699,1413
608,1512
696,1448
656,1468
833,1442
785,1422
835,1425
693,1452
894,1364
893,1390
1343,1293
1192,1154
1191,1175
828,1558
829,1544
780,1490
830,1539
779,1541
782,1457
529,1620
886,1473
596,1696
556,1702
598,1620
597,1643
526,1644
555,1709
525,1679
524,1695
523,1684
688,1522
607,1507
650,1564
651,1523
652,1528
737,1468
694,1447
695,1436
645,1540
646,1507
690,1488
600,1550
599,1560
781,1461
736,1475
558,1629
644,1549
643,1543
648,1496
692,1485
691,1471
513,1545
541,1527
540,1568
568,1579
530,1626
831,1464
559,1601
560,1657
642,1726
557,1639
496,1722
471,1737
444,1825
446,1772
528,1625
527,1632
562,1558
602,1555
734,1506
466,1555
464,1493
463,1505
478,1734
481,1672
480,1714
479,1709
647,1508
488,1523
502,1688
689,1528
533,1564
532,1585
531,1598
601,1566
484,1608
508,1628
510,1628
509,1639
534,1577
482,1704
506,1640
606,1536
455,1758
429,1624
456,1720
457,1708
428,1674
458,1646
554,1712
594,1809
640,1734
639,1866
551,1706
681,1847
636,1835
635,1809
590,1751
778,1565
777,1572
485,1590
486,1612
462,1571
563,1596
885,1484
943,1513
564,1587
641,1700
504,1662
503,1674
501,1721
500,1777
561,1653
254,1629
350,1570
321,1601
319,1634
251,1674
375,1629
347,1649
687,1549
565,1651
539,1564
511,1644
536,1691
649,1510
603,1581
605,2846
733,1527
735,1487
489,1539
514,1586
461,1628
460,1639
459,1657
468,1468
154,1776
178,1740
203,1711
228,1690
402,1620
401,1635
505,1645
522,1734
451,1906
452,1867
477,1785
476,1804
483,1688
884,1560
431,1584
430,1600
454,2303
595,2291
395,1797
394,1824
422,1854
417,2275
390,1884
538,1586
567,1563
426,2309
397,1735
398,1822
499,2455
475,2434
497,1772
498,1754
311,1694
342,1714
345,1665
421,1882
515,1522
472,2376
448,2407
473,2432
474,2477
353,1635
381,1619
256,1736
290,1712
324,1659
380,1619
407,1593
253,1675
226,1707
201,1733
177,1770
824,1616
775,1587
826,1579
939,1627
936,2758
937,1655
880,1689
566,1629
2821,65535
2834,65535
2833,65535
2789,65535
2790,65535
2770,65535
2788,65535
2776,65535
2795,65535
2775,65535
2794,65535
2825,65535
2824,65535
2826,65535
2811,65535
2812,65535
2796,65535
2827,65535
2858,65535
2855,65535
2849,65535
2838,65535
2814,65535
2813,65535
2828,65535
2839,65535
2791,65535
2792,65535
2803,65535
2830,65535
2815,65535
2819,65535
2818,65535
2817,65535
2831,65535
2810,65535
2829,65535
2783,65535
2820,65535
2804,65535
2785,65535
2784,65535
2762,65535
2768,65535
2751,65535
2750,65535
2733,65535
2769,65535
2720,65535
2761,65535
2741,65535
2837,65535
2793,65535
2808,65535
2753,65535
2736,65535
2735,65535
2809,65535
2772,65535
2845,65535
2844,65535
2848,65535
2777,65535
2778,65535
2779,65535
2759,65535
2780,65535
2797,65535
2843,65535
2832,65535
2842,65535
2758,65535
2738,65535
2774,65535
2773,65535
2771,65535
2851,65535
2847,65535
2854,65535
2721,65535
2756,65535
2737,65535
2840,65535
2752,65535
2754,65535
2755,65535
2852,65535
2853,65535
2856,65535
2841,65535
2742,65535
2727,65535
2744,65535
2726,65535
2743,65535
2725,65535
2746,65535
2787,65535
2766,65535
2763,65535
2765,65535
2745,65535
2764,65535
2552,65535
2501,65535
2443,65535
2442,65535
2320,65535
2381,65535
2382,65535
2498,65535
2499,65535
2438,65535
2439,65535
2497,65535
2441,65535
2379,65535
2380,65535
2319,65535
2551,65535
2550,65535
2563,65535
2321,65535
2322,65535
2383,65535
2384,65535
2446,65535
2445,65535
2503,65535
2385,65535
2504,65535
2505,65535
2557,65535
2558,65535
2559,65535
2560,65535
2564,65535
2562,65535
2561,65535
2605,65535
2609,65535
2565,65535
2566,65535
2515,4756
2397,4519
2457,4736
2458,4720
2401,65535
2337,4432
2336,4436
2399,4478
2398,4499
2402,65535
2333,4656
2273,4691
2219,4715
2218,4727
2159,4752
2454,65535
2393,65535
2512,65535
2502,65535
2608,65535
2156,65535
2155,65535
2154,65535
2213,65535
2212,65535
2211,65535
2210,65535
2264,65535
2324,65535
2323,65535
2030,65535
2094,65535
2157,65535
2450,65535
2388,65535
2387,65535
2326,65535
2266,65535
2265,65535
2508,65535
2396,4588
2335,4606
2334,4617
2158,4777
2279,65535
2278,65535
2222,65535
2221,65535
2276,65535
2275,3804
2261,65535
2207,65535
2149,65535
2554,65535
2599,65535
2633,65535
2664,65535
2689,65535
2690,65535
2691,65535
2692,65535
2152,65535
2089,65535
2088,65535
2025,65535
2603,65535
2602,65535
2556,65535
2693,65535
2671,65535
2670,65535
2694,65535
2553,65535
2665,65535
2705,65535
2710,65535
2668,65535
2639,65535
2463,65535
2521,65535
2572,65535
2451,65535
2390,65535
2391,65535
2392,65535
2215,65535
2268,65535
2093,65535
2092,65535
2028,65535
2024,65535
2150,65535
2086,65535
2209,65535
2023,65535
2087,65535
2148,65535
2262,65535
2327,65535
1560,980
1630,1005
1631,973
1559,1014
1629,1079
1558,1074
1634,1029
1633,973
1482,1043
1481,1023
1699,964
1700,1014
1701,1003
1563,1036
2070,418
2008,375
2009,393
1959,402
1958,411
2006,348
1957,373
1956,425
2193,947
2132,887
1912,430
1911,435
1865,1168
1866,1081
2007,342
2069,294
2010,403
2011,429
1961,387
2072,419
1913,1021
1867,1092
1962,420
1914,429
1915,453
1909,783
1636,1061
1635,1120
1564,1097
1702,1048
1637,1091
1638,1130
1565,1123
1486,1160
1760,962
1704,1076
1703,1056
1763,1142
1762,1168
1817,1207
1705,1214
1863,830
1815,925
1759,1366
863,2768
758,2861
808,2812
982,2983
1036,2990
1099,3025
1100,3053
1166,3454
1167,3949
1237,3606
1238,3641
1375,3711
1308,3780
1309,3689
1236,3907
1235,3541
1101,3084
1037,3021
971,2564
1025,2547
1026,2562
1027,2575
1089,2588
720,2824
674,2870
864,2650
865,2671
919,2566
1024,2511
975,2685
974,2655
1028,2610
873,3010
925,2956
924,2933
917,2630
918,2606
623,3045
712,2917
713,2950
667,2955
622,3013
809,2798
719,2798
765,2759
972,2596
868,2708
869,2720
815,2739
920,2975
973,2641
981,2934
926,3035
927,3043
928,3067
1354,2560
1288,2501
1218,2477
1152,2546
1023,2475
1353,2574
1085,2455
1148,2385
1147,2378
1082,2329
772,3096
771,3053
819,3028
584,2944
628,2911
629,2900
1033,2831
978,2786
1031,2759
1030,2713
1029,2696
1091,2673
1035,2912
1034,2855
979,2813
1526,3830
1449,3868
1378,3896
1448,3819
1524,3797
1038,3068
1447,3860
1768,1122
1710,1266
1767,1163
391,1862
365,1823
339,1761
400,1663
393,1871
392,2250
396,1763
399,1680
443,2431
449,1968
450,1943
419,1945
414,2472
415,2379
387,2372
388,2365
389,2310
282,1740
281,1762
314,1791
313,1745
405,1545
411,2674
442,2633
255,1723
376,1636
373,1699
278,1705
275,1768
248,1815
335,1879
334,1853
306,1825
307,1802
176,1816
225,1715
320,1637
249,1756
287,1658
285,1673
776,1582
731,1632
315,1718
316,1700
204,1815
440,1488
439,1477
166,2865
269,2782
383,2720
1247,65535
1246,65535
1384,65535
1679,65535
1178,65535
1105,4009
1172,4028
1173,4078
1242,4080
1241,4072
1314,4229
1313,4135
1171,4054
1382,4335
1243,4277
1317,4416
1107,4017
1108,4196
1109,4481
1041,4026
1043,4236
1042,4227
1044,4290
1176,65535
1174,4303
1177,65535
1110,65535
985,4072
986,4115
932,4133
774,1610
730,1612
825,1692
728,1674
729,1637
727,1861
682,1716
684,1698
685,1678
732,1661
683,2302
2134,963
2194,985
2068,241
2129,146
1905,929
1907,815
1906,853
1953,326
2002,155
2064,122
2125,129
2137,1121
2196,1075
2195,1022
1859,889
1810,903
1755,1081
2131,826
2192,864
1862,874
1861,913
1812,928
1860,884
1809,984
1756,919
1869,891
1822,1082
1821,1031
1916,863
1819,991
1764,1100
1820,945
1698,940
1757,964
1566,1127
1567,1172
1488,1190
1489,1210
1412,1218
1413,1335
1414,1360
1818,1132
1568,1187
1410,1235
2128,137
2189,224
2066,0
2065,56
2067,98
1643,1300
1571,1345
1491,1312
2004,170
2003,180
1697,930
2135,1114
2075,1138
1642,1371
1955,777
2130,348
2005,431
1858,939
1816,3688
1864,3681
1766,1062
1910,806
1868,860
2188,1195
2127,1164
1903,1084
2001,187
2063,1404
2062,1113
1813,1376
1758,1074
1639,1339
1640,1358
1952,776
2126,3770
1569,1344
1965,1026
1966,1072
2014,1089
1490,1272
1917,974
1870,1018
1871,1069
1570,1329
1707,1389
2076,1156
2013,1094
1964,1047
1487,1213
1908,769
2251,65535
2199,65535
2198,65535
2136,1163
1641,1513
1954,1048
1765,1071
1857,953
2187,984
1904,1063
1856,1087
1951,863
1708,1412
245,3999
244,3982
357,3986
246,4114
247,4143
197,4237
223,4215
44,4579
43,4639
3,4775
23,4749
22,4738
63,4521
85,4463
84,4418
108,3918
149,3872
172,4263
296,3966
294,4014
355,4114
354,4146
326,4224
295,4123
291,4135
293,4257
260,4143
356,4174
441,3774
412,3797
329,4132
300,4076
148,3846
214,4084
146,3967
110,4048
262,4109
258,4522
292,4285
257,4587
235,4107
187,4007
212,4063
211,4090
186,4011
162,3985
161,4064
165,3963
189,4163
238,4244
237,4209
263,4145
265,4164
266,4142
267,4130
268,3970
26,4739
25,4707
105,65535
62,65535
83,65535
126,4085
175,4520
152,4454
151,4444
150,4403
103,4023
242,3916
191,3870
192,3921
217,3944
218,3997
145,3907
144,3991
167,3899
190,3877
219,4014
159,4111
185,4055
158,4168
188,3999
160,4076
143,65535
122,65535
75,65535
54,65535
198,4648
270,4011
221,4052
301,4109
302,3946
330,3973
331,3995
115,4047
133,4106
139,4003
134,4080
114,4604
48,65535
69,65535
92,4280
164,4073
4,65535
107,4425
129,4510
109,3950
125,3991
124,3965
127,65535
82,65535
67,65535
91,4448
93,4247
137,4382
113,4402
112,4360
136,65535
49,65535
72,65535
71,65535
406,1708
805,2290
858,2095
859,2236
967,1972
1142,2109
1080,2115
1022,2106
1079,2124
968,2091
1206,2085
915,2242
916,2277
914,2214
807,2329
911,3436
1078,2192
1207,2184
1278,2228
1277,2231
1344,2251
1415,2292
1492,2347
1345,2308
1346,2278
1208,2176
1209,2256
1143,2293
1144,2309
1145,2324
1417,2304
1493,2364
1494,2383
1572,2398
1081,2261
970,2464
408,1642
382,1651
437,1580
467,1551
409,1627
403,1613
432,1584
433,1554
404,1634
352,1714
351,1693
349,1623
317,1764
374,1641
346,1687
283,1713
410,1537
438,1553
465,1512
490,1523
491,1502
435,1646
436,1648
379,2312
323,1764
289,1793
377,1592
378,1561
592,2306
593,2277
552,1721
445,1816
424,1817
423,1837
416,2377
361,2287
362,2298
371,1778
372,1748
343,2307
344,2324
286,2416
227,1684
252,1706
284,1704
318,1701
250,2400
312,1717
340,1724
368,1782
369,1776
370,2372
341,2313
367,1846
308,1781
276,1771
277,1751
280,1794
310,1727
338,1831
366,2340
274,2330
305,2532
420,2319
363,2292
418,2293
550,2281
579,2304
576,2249
577,2261
578,2277
520,2257
618,2271
662,2301
619,2288
620,2301
621,2295
665,2277
666,2269
664,2297
580,2316
2260,65535
2257,65535
2206,65535
2146,65535
2314,65535
2313,65535
2312,65535
2373,65535
2256,65535
2205,65535
2434,65535
2435,65535
2375,65535
2376,65535
2433,65535
2491,65535
2490,65535
2492,65535
2546,65535
2597,65535
2596,65535
2544,65535
2145,65535
2082,65535
2020,65535
2494,65535
0,65535
11,65535
1052,3028
1053,3015
941,3055
1740,2461
1796,2535
1615,2319
1681,2396
1545,2200
1797,2575
1544,2275
1741,2553
1795,2856
1617,2220
1546,2206
1616,2237
1683,2341
1467,1552
1547,1477
1465,2180
1387,2247
1388,1733
1464,2264
1462,3019
1461,3040
1542,2931
1463,2983
1682,2528
1543,2396
1618,2277
1742,2654
1460,2730
1248,2262
1850,1312
1801,2178
1803,1294
882,1579
881,1588
938,1638
883,1599
940,3798
1998,1054
1902,928
1807,1089
1691,1227
1694,1152
1693,1381
1749,1278
1752,1167
1753,1098
1627,1088
1628,1161
1557,1139
1479,1123
1402,1145
1808,1067
1946,1195
1947,1130
1948,1117
1997,1099
1855,1161
1690,1242
2060,1077
1949,1407
1950,1040
1751,1210
1692,1349
1999,1049
1901,1415
1900,1456
1852,1605
1853,1484
1805,1294
1750,1223
1854,1320
1806,1288
1748,1314
2061,1072
2000,1174
1804,1306
1899,1625
2884,65535
2892,65535
2883,65535
2876,65535
2874,65535
2882,65535
2877,65535
2911,65535
2905,65535
2906,65535
2896,65535
2887,65535
2881,65535
2880,65535
2888,65535
2902,65535
2903,65535
2907,65535
2912,65535
2895,65535
2894,65535
2875,65535
2885,65535
2893,65535
2904,65535
2865,65535
2866,65535
2909,65535
2913,65535
2886,65535
2878,65535
2869,65535
2871,65535
2872,65535
2879,65535
2870,65535
1330,1160
1331,1145
1401,1152
1262,1151
1263,1144
1478,1199
1403,1130
1261,1206
1480,1187
1264,1186
1390,1577
1389,1642
1319,1624
1251,1668
1250,1737
1285,2401
1284,2406
1214,2378
1146,2344
1505,2627
1504,2561
1582,2599
1581,2527
1713,2506
1771,2488
1654,2638
1653,2611
1651,2563
2096,3742
2033,3702
1972,3673
1923,3605
1922,3583
1874,3277
1873,2990
1919,2943
1829,3954
1579,2463
1424,2504
1711,2480
1348,2304
1419,2324
1359,2731
1429,2682
1428,2668
1421,2381
1577,2415
1499,2388
1230,2975
1365,2912
1511,2834
1300,2957
1366,2929
1512,2862
1716,2696
1503,2973
1276,2258
1347,2288
1349,2336
1645,2472
1578,2450
1770,2484
1715,2539
1150,2443
1217,2457
1149,2419
1580,2509
1352,2496
1502,2527
1825,2896
1718,2851
1717,2825
1872,2929
1656,2740
1648,2515
1712,2492
1213,2368
1212,2349
1084,2390
1420,2370
1281,2294
1282,2355
1587,2734
1586,2701
1585,2690
1652,2658
1427,2836
1975,3777
1977,3845
1932,3915
1931,4540
1426,2556
1422,2398
1425,2541
1583,2627
1501,2485
1283,2396
1286,2443
1215,2428
1211,2325
1210,2299
1083,2361
1655,2729
2220,3783
1355,65535
1772,2497
1436,2880
1435,2870
1589,2803
1163,3008
1735,4128
1791,4061
1841,4038
1840,3994
1219,2560
1220,2599
1647,2501
1646,2493
1279,2246
1714,2516
1575,2475
1576,2437
1498,2445
1573,2487
1496,2505
1497,2476
2177,2485
2176,2555
2294,2472
2293,2591
2237,2532
2236,2561
2364,2333
2302,2273
2301,2195
2245,2097
2056,2227
2057,2313
2055,2206
2184,2258
2120,2264
2244,2178
2538,2518
2537,2499
2591,2615
1940,2390
1989,2398
1990,2334
2539,2518
2482,2509
2483,2471
2424,2367
2121,2325
2119,2138
2050,2447
2049,2525
2048,2943
2185,2291
2243,2017
2299,2231
2241,2180
2485,2549
2542,2604
2353,2563
2292,2470
2419,2357
2478,2404
2479,2439
2536,2466
2484,2510
2486,2503
2354,2402
2416,2579
2242,2225
2355,2440
2300,2238
1991,2338
1992,2345
2477,2395
2534,2416
2535,2531
2588,2436
2587,2450
2630,2501
2051,2259
2116,2153
2175,2588
2586,65535
2541,2671
2178,2460
2179,2263
2240,2210
2239,2434
2238,2504
2052,2390
2053,2356
1987,2630
1988,2478
1939,2502
2594,2621
2593,2606
2358,2324
2357,2334
2420,2390
2247,2386
2427,2476
2428,2498
2181,2057
2180,2106
2417,2384
2590,2596
2297,2219
2361,2411
2362,2294
2423,2382
2422,2347
2174,2818
2356,2445
1941,2379
2365,2510
2112,2823
2047,2965
2182,2196
2359,2273
2533,3211
2295,2536
2115,2226
2632,2656
2631,2595
2186,1756
2298,2305
2360,2329
2235,2781
2291,2794
2487,2725
2246,2318
2425,3126
2117,2450
2543,2678
1893,65535
2421,2482
2476,2400
2592,2654
604,2266
