middle_point_id,reach_time_minutes
2835,65535
2836,65535
2806,65535
2822,65535
2823,65535
2807,65535
2846,65535
887,1257
888,1130
1326,984
1185,927
999,1128
1057,1070
1552,814
1120,958
1473,859
944,1207
832,1265
1257,976
1396,981
1622,835
1327,1384
1184,970
1183,1292
1324,1343
1255,1404
1394,1292
1252,1574
1253,1600
1182,1605
1328,65535
1470,1304
1321,1554
1322,1495
1323,1445
1391,1567
1551,821
1393,1273
1472,958
1471,1244
1181,1934
1118,1619
1059,897
1121,918
1469,1381
1468,1621
1548,1403
1325,1315
1625,887
1623,798
1258,985
1256,1331
791,996
891,928
703,1248
704,1264
660,1268
1553,828
1624,884
1554,834
1474,845
1475,841
1550,1029
1549,1326
1320,1566
1466,1603
1541,2200
1318,1679
1249,1701
1186,923
1003,891
1002,901
741,1012
788,966
434,1424
697,1258
752,1275
1056,1111
1006,843
907,911
518,1349
1011,754
1000,934
1055,2102
997,2071
994,1965
996,2037
995,2021
991,1812
1112,4445
1114,2052
1051,2015
1398,852
1395,1285
1001,908
1811,426
1960,96
1769,543
1823,528
1329,65535
1332,702
1259,2216
1200,715
1199,715
1140,924
1141,922
783,1172
1689,798
1802,1200
1945,1916
2183,2398
2418,2847
1994,1952
1995,2348
2059,1291
1621,65535
1555,847
1754,630
1180,1650
1106,3045
933,3206
827,1388
2122,2813
2124,500
493,1357
519,1355
544,1347
545,1348
494,1361
470,1382
543,1344
469,1367
517,1366
574,1345
573,1333
495,1379
546,1353
613,1312
612,1327
492,1377
572,1339
571,1360
570,1358
610,1351
575,1402
547,1398
516,1386
611,1401
542,1351
569,1339
609,1322
548,1430
549,1459
1404,670
1405,648
1266,691
1193,723
743,1238
742,980
747,1046
746,1264
745,1290
744,1003
790,984
789,973
839,1009
838,959
738,1116
739,1077
740,1041
890,941
834,1015
784,1102
889,982
856,1032
855,969
854,975
853,956
852,947
910,960
909,946
908,918
964,907
965,946
1020,1343
966,970
963,891
1021,1015
1271,713
1270,711
1339,700
1338,686
1071,774
1072,747
1135,727
1408,657
1337,698
1269,735
1268,735
1136,728
1075,789
1077,918
1076,857
1019,822
1018,813
1074,752
1137,744
1272,721
1274,856
1275,890
1205,932
1204,917
1273,827
1198,736
1197,734
1341,762
1134,729
1133,725
1069,721
1132,717
1073,743
1203,883
1202,825
1201,753
1139,868
1267,694
1138,776
1340,707
1196,705
1342,858
1409,645
1485,681
1407,683
1561,551
1632,538
1484,794
1483,590
1562,559
1194,718
1130,725
1195,706
1335,684
1129,750
1066,758
1128,782
1067,757
1131,722
1334,724
1336,658
1265,695
1333,699
1406,623
857,2268
803,3562
804,7039
860,7047
969,7000
913,6987
912,6925
861,7057
806,7100
659,1256
751,1268
658,1245
705,1267
702,1229
706,1280
753,994
614,1285
701,1217
661,1300
616,1298
848,947
796,1265
797,1013
798,963
750,1262
707,1371
615,1421
748,1018
845,877
846,1283
657,1332
749,1205
795,895
617,1371
663,1406
794,1337
847,992
849,967
902,928
901,917
900,893
793,1010
899,814
898,849
897,877
844,873
842,933
841,993
956,801
792,1003
843,927
840,1030
850,933
903,934
800,947
755,1013
756,1270
710,1453
711,1498
962,931
961,977
904,940
906,902
851,927
802,964
801,980
799,971
959,869
1014,768
1013,760
708,2203
709,2178
754,1244
757,1331
1017,1271
1016,955
960,967
905,941
958,800
957,851
1070,734
1015,776
1012,765
1068,747
1005,847
1004,880
1060,890
1063,836
1065,822
1127,807
1062,856
1124,924
1123,931
1125,866
1188,951
1122,913
1058,903
947,964
946,977
949,895
945,1267
948,904
1190,1254
1187,976
951,848
895,896
952,882
1009,855
1008,881
1010,771
1007,853
1061,876
954,1227
896,929
953,916
1126,810
1064,816
1189,1048
955,821
950,878
892,938
786,968
836,960
837,951
787,957
700,1295
655,1333
654,1291
653,1283
698,1241
699,1293
608,1310
696,1266
656,1330
833,1027
785,1002
835,983
693,1096
894,913
893,938
1343,1260
1192,816
1191,755
828,1384
829,1374
780,1370
830,1388
779,1361
782,1269
529,1354
886,1308
596,1371
556,1386
598,1324
597,1343
526,1392
555,1410
525,1404
524,1418
523,1428
688,1298
607,1329
650,1327
651,1309
652,1330
737,1253
694,1277
695,1299
645,1286
646,1273
690,1268
600,1310
599,1307
781,1273
736,1263
558,1350
644,1297
643,1363
648,1292
692,1146
691,1270
513,1402
541,1377
540,1424
568,1374
530,1369
831,1326
559,1360
560,1410
642,1375
557,1384
496,1480
471,1497
444,1600
446,1526
528,1361
527,1375
562,1377
602,1344
734,1316
466,1427
464,1434
463,1456
478,1494
481,1492
480,1481
479,1469
647,1334
488,1422
502,1369
689,1328
533,1383
532,1404
531,1401
601,1286
484,1501
508,1439
510,1453
509,1461
534,1441
482,1507
506,1460
606,1385
455,1690
429,1519
456,1654
457,1624
428,1567
458,1546
554,1524
594,1523
640,1407
639,1489
551,1470
681,1534
636,1522
635,1499
590,1474
778,1380
777,1391
485,1526
486,1484
462,1511
563,1400
885,1333
943,1331
564,1373
641,1402
504,1384
503,1377
501,1398
500,1437
561,1398
254,1525
350,1473
321,1489
319,1548
251,1614
375,1506
347,1517
687,1368
565,1404
539,1422
511,1473
536,1424
649,1317
603,1335
605,1886
733,1347
735,1312
489,1433
514,1413
461,1569
460,1581
459,1601
468,1360
154,1659
178,1624
203,1594
228,1565
402,1503
401,1595
505,1405
522,1462
451,1727
452,1696
477,1501
476,1442
483,1546
884,1397
431,1474
430,1537
454,1720
595,1427
395,1739
394,1746
422,1839
417,1576
390,1621
538,1427
567,1400
426,1862
397,1677
398,1642
499,1533
475,1474
497,1444
498,1471
311,1578
342,1583
345,1517
421,1858
515,1433
472,1596
448,1621
473,1647
474,1662
353,1520
381,1514
256,1676
290,1600
324,1540
380,1563
407,1487
253,1623
226,1648
201,1661
177,1669
824,1462
775,1437
826,1399
939,1447
936,1798
937,1513
880,1541
566,1575
2821,65535
2834,65535
2833,65535
2789,65535
2790,65535
2770,65535
2788,65535
2776,65535
2795,65535
2775,65535
2794,65535
2825,65535
2824,65535
2826,65535
2811,65535
2812,65535
2796,65535
2827,65535
2858,65535
2855,65535
2849,65535
2838,65535
2814,65535
2813,65535
2828,65535
2839,65535
2791,65535
2792,65535
2803,65535
2830,65535
2815,65535
2819,65535
2818,65535
2817,65535
2831,65535
2810,65535
2829,65535
2783,65535
2820,65535
2804,65535
2785,65535
2784,65535
2762,65535
2768,65535
2751,65535
2750,65535
2733,65535
2769,65535
2720,65535
2761,65535
2741,65535
2837,65535
2793,65535
2808,65535
2753,65535
2736,65535
2735,65535
2809,65535
2772,65535
2845,65535
2844,65535
2848,65535
2777,65535
2778,65535
2779,65535
2759,65535
2780,65535
2797,65535
2843,65535
2832,65535
2842,65535
2758,65535
2738,65535
2774,65535
2773,65535
2771,65535
2851,65535
2847,65535
2854,65535
2721,65535
2756,65535
2737,65535
2840,65535
2752,65535
2754,65535
2755,65535
2852,65535
2853,65535
2856,65535
2841,65535
2742,65535
2727,65535
2744,65535
2726,65535
2743,65535
2725,65535
2746,65535
2787,65535
2766,65535
2763,65535
2765,65535
2745,65535
2764,65535
2552,65535
2501,65535
2443,65535
2442,65535
2320,65535
2381,65535
2382,65535
2498,65535
2499,65535
2438,65535
2439,65535
2497,65535
2441,65535
2379,65535
2380,65535
2319,65535
2551,65535
2550,65535
2563,7557
2321,7093
2322,7062
2383,7074
2384,7280
2446,7322
2445,7329
2503,7348
2385,7313
2504,7678
2505,7700
2557,7724
2558,7749
2559,7773
2560,7737
2564,7905
2562,7625
2561,7665
2605,7680
2609,7952
2565,8028
2566,8044
2515,8055
2397,6439
2457,8085
2458,8107
2401,6516
2337,6352
2336,6356
2399,6398
2398,6419
2402,6576
2333,6576
2273,6611
2219,6635
2218,6647
2159,6672
2454,7264
2393,7230
2512,7524
2502,7516
2608,7943
2156,6794
2155,6826
2154,6855
2213,6871
2212,6883
2211,6931
2210,6972
2264,6979
2324,7013
2323,7029
2030,65535
2094,65535
2157,6758
2450,7921
2388,7970
2387,8038
2326,8075
2266,8110
2265,7454
2508,7892
2396,6508
2335,6526
2334,6537
2158,6697
2279,8666
2278,8630
2222,8599
2221,8581
2276,8563
2275,4479
2261,7286
2207,7323
2149,65535
2554,7406
2599,7438
2633,7484
2664,9171
2689,9229
2690,9335
2691,9373
2692,9406
2152,6967
2089,7046
2088,7034
2025,7179
2603,65535
2602,65535
2556,65535
2693,65535
2671,65535
2670,65535
2694,65535
2553,65535
2665,65535
2705,65535
2710,65535
2668,65535
2639,65535
2463,6586
2521,6622
2572,6645
2451,7806
2390,7775
2391,7595
2392,7558
2215,7800
2268,65535
2093,65535
2092,65535
2028,65535
2024,8857
2150,8283
2086,8331
2209,8265
2023,8433
2087,8386
2148,8599
2262,7272
2327,65535
1560,568
1630,577
1631,559
1559,634
1629,658
1558,653
1634,566
1633,548
1482,619
1481,576
1699,531
1700,536
1701,500
1563,593
2070,118
2008,99
2009,114
1959,88
1958,50
2006,26
1957,38
1956,125
2193,307
2132,249
1912,132
1911,112
1865,337
1866,279
2007,20
2069,0
2010,131
2011,180
1961,146
2072,169
1913,219
1867,290
1962,180
1914,206
1915,322
1909,254
1636,589
1635,618
1564,623
1702,549
1637,608
1638,619
1565,600
1486,626
1760,456
1704,603
1703,584
1763,575
1762,538
1817,478
1705,585
1863,148
1815,419
1759,546
863,3248
758,3341
808,3292
982,3463
1036,3470
1099,3505
1100,3533
1166,3934
1167,4429
1237,4086
1238,4121
1375,4191
1308,4260
1309,4169
1236,4387
1235,4021
1101,3564
1037,3501
971,3044
1025,3027
1026,3042
1027,3055
1089,3068
720,3304
674,3350
864,3130
865,3151
919,3046
1024,2991
975,3165
974,3135
1028,3090
873,3490
925,3436
924,3413
917,3110
918,3086
623,3525
712,3397
713,3430
667,3435
622,3493
809,3278
719,3278
765,3239
972,3076
868,3188
869,3200
815,3219
920,3334
973,3121
981,3414
926,3515
927,3523
928,3547
1354,2997
1288,2981
1218,2957
1152,3026
1023,2955
1353,2981
1085,2935
1148,2865
1147,2858
1082,2809
772,3576
771,3533
819,3508
584,3424
628,3391
629,3380
1033,3311
978,3266
1031,3239
1030,3193
1029,3176
1091,3153
1035,3392
1034,3335
979,3293
1526,4310
1449,4348
1378,4376
1448,4299
1524,4277
1038,3548
1447,4340
1768,536
1710,554
1767,547
391,1638
365,1650
339,1628
400,1603
393,1705
392,1670
396,1719
399,1660
443,1656
449,1754
450,1888
419,1670
414,1709
415,1673
387,1712
388,1661
389,1636
282,1680
281,1705
314,1681
313,1662
405,1436
411,1714
442,1673
255,1553
376,1723
373,1660
278,1645
275,1845
248,1935
335,1850
334,1827
306,1881
307,1870
176,1687
225,1664
320,1567
249,1708
287,1585
285,1616
776,1397
731,1415
315,1661
316,1643
204,1624
440,1380
439,1398
166,1905
269,1822
383,1760
1247,4390
1246,4412
1384,4496
1679,4658
1178,4383
1105,3049
1172,3068
1173,3118
1242,3120
1241,3112
1314,3269
1313,3175
1171,3094
1382,3375
1243,3317
1317,3456
1107,3057
1108,3236
1109,3521
1041,3066
1043,3276
1042,3267
1044,3330
1176,4284
1174,3343
1177,4332
1110,4339
985,3112
986,3155
932,3173
774,1444
730,1421
825,1452
728,1479
729,1436
727,1539
682,1476
684,1427
685,1427
732,1418
683,1462
2134,408
2194,431
2068,115
2129,170
1905,506
1907,272
1906,313
1953,534
2002,476
2064,473
2125,481
2137,867
2196,538
2195,484
1859,413
1810,450
1755,490
2131,304
2192,340
1862,533
1861,570
1812,553
1860,577
1809,552
1756,465
1869,511
1822,535
1821,549
1916,486
1819,520
1764,557
1820,536
1698,510
1757,493
1566,633
1567,679
1488,750
1489,751
1412,805
1413,877
1414,1235
1818,500
1568,697
1410,766
2128,217
2189,244
2066,326
2065,365
2067,167
1643,596
1571,748
1491,756
2004,409
2003,427
1697,541
2135,623
2075,619
1642,655
1955,190
2130,391
2005,288
1858,483
1816,8488
1864,8481
1766,567
1910,326
1868,487
2188,451
2127,420
1903,743
2001,482
2063,1302
2062,1314
1813,597
1758,498
1639,638
1640,669
1952,626
2126,8570
1569,709
1965,523
1966,568
2014,589
1490,928
1917,601
1870,564
1871,574
1570,722
1707,573
2076,662
2013,564
1964,517
1487,748
1908,262
2251,3681
2199,3625
2198,3488
2136,625
1641,694
1954,343
1765,589
1857,499
2187,556
1904,721
1856,645
1951,684
1708,1323
245,8799
244,8782
357,8786
246,8914
247,8943
197,9037
223,9015
44,9379
43,9439
3,9575
23,9549
22,9538
63,9321
85,9263
84,9218
108,8718
149,8672
172,9063
296,8766
294,8814
355,8914
354,8946
326,9024
295,8923
291,8935
293,9057
260,8943
356,8974
441,8574
412,8597
329,8932
300,8876
148,8646
214,8884
146,8767
110,8848
262,8909
258,9322
292,9085
257,9387
235,8907
187,8807
212,8863
211,8890
186,8811
162,8785
161,8864
165,8763
189,8963
238,9044
237,9009
263,8945
265,8964
266,8942
267,8930
268,8770
26,9539
25,9507
105,65535
62,65535
83,65535
126,8885
175,9320
152,9254
151,9244
150,9203
103,8823
242,8716
191,8670
192,8721
217,8744
218,8797
145,8707
144,8791
167,8699
190,8677
219,8814
159,8911
185,8855
158,8968
188,8799
160,8876
143,65535
122,65535
75,65535
54,65535
198,9448
270,8811
221,8852
301,8909
302,8746
330,8773
331,8795
115,8847
133,8906
139,8803
134,8880
114,9404
48,65535
69,65535
92,9080
164,8873
4,65535
107,9225
129,9310
109,8750
125,8791
124,8765
127,65535
82,65535
67,65535
91,9248
93,9047
137,9182
113,9202
112,9160
136,65535
49,65535
72,65535
71,65535
406,1561
805,7090
858,6895
859,7036
967,2514
1142,2649
1080,6735
1022,6776
1079,6768
968,6891
1206,2606
915,7042
916,7077
914,7014
807,7129
911,8236
1078,6992
1207,2664
1278,2708
1277,2711
1344,2731
1415,2772
1492,2827
1345,2788
1346,2758
1208,2656
1209,2736
1143,2773
1144,2789
1145,2804
1417,2784
1493,2844
1494,2863
1572,2878
1081,7061
970,7264
408,1503
382,1542
437,1442
467,1429
409,1520
403,1494
432,1989
433,1496
404,1466
352,1634
351,1589
349,1597
317,1602
374,1549
346,1727
283,1652
410,1417
438,1433
465,1452
490,1450
491,1402
435,1501
436,1446
379,1622
323,1761
289,1710
377,1549
378,1500
592,1507
593,1545
552,1452
445,1577
424,1846
423,1793
416,1609
361,1778
362,1707
371,1732
372,1689
343,1745
344,1749
286,1803
227,1727
252,1647
284,1629
318,1611
250,1676
312,1668
340,1634
368,1657
369,1685
370,1722
341,1667
367,1674
308,1776
276,1756
277,1710
280,1698
310,1603
338,1650
366,1757
274,1912
305,1893
420,1737
363,1724
418,1695
550,7081
579,7104
576,7049
577,7061
578,7077
520,7057
618,7071
662,7101
619,7088
620,7101
621,7095
665,7077
666,7069
664,7097
580,7116
2260,65535
2257,65535
2206,65535
2146,65535
2314,65535
2313,65535
2312,65535
2373,65535
2256,65535
2205,65535
2434,65535
2435,65535
2375,65535
2376,65535
2433,65535
2491,65535
2490,65535
2492,65535
2546,65535
2597,65535
2596,65535
2544,65535
2145,65535
2082,65535
2020,65535
2494,65535
0,65535
11,65535
1052,2068
1053,2055
941,2095
1740,1932
1796,1973
1615,1759
1681,1876
1545,1628
1797,1973
1544,1654
1741,1880
1795,2170
1617,1719
1546,1685
1616,1678
1683,1721
1467,1593
1547,1658
1465,1677
1387,1659
1388,1641
1464,1724
1462,2059
1461,2080
1542,2144
1463,2023
1682,1846
1543,1713
1618,1788
1742,2080
1460,2246
1248,1776
1850,1247
1801,1218
1803,946
882,1399
881,1412
938,1458
883,1413
940,2838
1998,1265
1902,889
1807,606
1691,749
1694,690
1693,1312
1749,756
1752,687
1753,618
1627,721
1628,733
1557,767
1479,703
1402,701
1808,587
1946,1435
1947,1380
1948,1284
1997,1280
1855,627
1690,766
2060,1390
1949,1439
1950,927
1751,730
1692,797
1999,1246
1901,1305
1900,1246
1852,1218
1853,1180
1805,829
1750,743
1854,889
1806,808
1748,787
2061,1340
2000,1294
1804,1211
1899,1267
2884,65535
2892,65535
2883,65535
2876,65535
2874,65535
2882,65535
2877,65535
2911,65535
2905,65535
2906,65535
2896,65535
2887,65535
2881,65535
2880,65535
2888,65535
2902,65535
2903,65535
2907,65535
2912,65535
2895,65535
2894,65535
2875,65535
2885,65535
2893,65535
2904,65535
2865,65535
2866,65535
2909,65535
2913,65535
2886,65535
2878,65535
2869,65535
2871,65535
2872,65535
2879,65535
2870,65535
1330,755
1331,708
1401,706
1262,717
1263,709
1478,719
1403,696
1261,727
1480,707
1264,762
1390,1573
1389,1632
1319,1610
1251,1665
1250,1741
1285,2900
1284,2886
1214,2858
1146,2822
1505,3107
1504,3041
1582,3079
1581,3007
1713,2986
1771,2968
1654,3118
1653,3091
1651,3043
2096,4222
2033,4182
1972,4153
1923,4085
1922,4063
1874,3757
1873,3470
1919,3423
1829,6134
1579,2943
1424,2947
1711,2960
1348,2784
1419,2804
1359,3211
1429,3162
1428,3148
1421,2861
1577,2895
1499,2868
1230,3455
1365,3392
1511,3314
1300,3437
1366,3409
1512,3342
1716,3176
1503,3229
1276,2738
1347,2768
1349,2816
1645,2952
1578,2930
1770,2964
1715,3019
1150,2923
1217,2937
1149,2899
1580,2989
1352,2976
1502,3007
1825,3376
1718,3331
1717,3305
1872,3409
1656,3220
1648,2995
1712,2972
1213,2848
1212,2829
1084,2870
1420,2850
1281,2774
1282,2835
1587,3214
1586,3181
1585,3170
1652,3138
1427,3316
1975,4257
1977,4325
1932,4395
1931,5020
1426,3036
1422,2878
1425,3021
1583,3107
1501,2965
1283,2876
1286,2923
1215,2908
1211,2805
1210,2779
1083,2841
1655,3209
2220,4457
1355,5891
1772,2977
1436,3360
1435,3350
1589,3283
1163,3488
1735,4608
1791,4541
1841,4518
1840,4474
1219,3040
1220,3079
1647,2981
1646,2973
1279,2726
1714,2996
1575,2955
1576,2917
1498,2925
1573,2967
1496,2985
1497,2956
2177,2965
2176,3035
2294,2952
2293,3071
2237,3012
2236,3041
2364,2813
2302,2753
2301,2675
2245,2577
2056,2707
2057,2793
2055,2686
2184,2738
2120,2744
2244,2658
2538,2998
2537,2979
2591,3095
1940,2870
1989,2878
1990,2814
2539,2998
2482,2989
2483,2951
2424,2847
2121,2805
2119,2618
2050,2927
2049,3005
2048,3423
2185,2771
2243,2497
2299,2711
2241,2660
2485,3029
2542,3084
2353,3043
2292,2950
2419,2837
2478,2884
2479,2919
2536,2946
2484,2990
2486,2983
2354,2882
2416,3059
2242,2705
2355,2920
2300,2718
1991,2818
1992,2825
2477,2875
2534,2896
2535,3011
2588,2916
2587,2930
2630,2981
2051,2739
2116,2633
2175,3068
2586,65535
2541,3151
2178,2940
2179,2743
2240,2690
2239,2914
2238,2984
2052,2870
2053,2836
1987,3110
1988,2958
1939,2982
2594,3101
2593,3086
2358,2804
2357,2814
2420,2870
2247,2866
2427,2956
2428,2978
2181,2537
2180,2586
2417,2864
2590,3076
2297,2699
2361,2891
2362,2774
2423,2862
2422,2827
2174,3298
2356,2925
1941,2859
2365,2990
2112,3303
2047,3445
2182,2676
2359,2753
2533,3691
2295,3016
2115,2706
2632,3136
2631,3075
2186,2923
2298,2785
2360,2809
2235,3261
2291,3274
2487,3205
2246,2798
2425,3606
2117,2930
2543,3158
1893,65535
2421,2962
2476,2880
2592,3134
604,7066
