middle_point_id,reach_time_minutes
2835,65535
2836,65535
2806,65535
2822,65535
2823,65535
2807,65535
2846,65535
887,1704
888,1692
1326,1484
1185,1552
999,1664
1057,1637
1552,1379
1120,1562
1473,1415
944,1711
832,1693
1257,1507
1396,1528
1622,1435
1327,1718
1184,1555
1183,1570
1324,1535
1255,1551
1394,1482
1252,1667
1253,1636
1182,1621
1328,65535
1470,1500
1321,1674
1322,1615
1323,1565
1391,1687
1551,1392
1393,1540
1472,1438
1471,1429
1181,1934
1118,1679
1059,1579
1121,1569
1469,1561
1468,1780
1548,1545
1325,1525
1625,1431
1623,1372
1258,1547
1256,1514
791,1655
891,1608
703,1689
704,1704
660,1701
1553,1389
1624,1389
1554,1434
1474,1420
1475,1427
1550,1396
1549,1494
1320,1732
1466,1784
1541,2200
1318,1846
1249,1869
1186,1548
1003,1594
1002,1592
741,1657
788,1635
434,1805
697,1671
752,1720
1056,1690
1006,1643
907,1829
518,1770
1011,1798
1000,1628
1055,4502
997,4471
994,4367
996,4437
995,4421
991,3252
1112,65535
1114,4710
1051,4675
1398,1452
1395,1590
1001,1609
1811,1849
1960,2059
1769,2116
1823,2113
1329,65535
1332,1674
1259,2216
1200,1850
1199,1848
1140,1956
1141,1957
783,1693
1689,1404
1802,1280
1945,1662
2183,715
2418,356
1994,1619
1995,2348
2059,1537
1621,65535
1555,1536
1754,1660
1180,2783
1106,5830
933,6086
827,1808
2122,851
2124,1940
493,1782
519,1775
544,1767
545,1768
494,1782
470,1802
543,1764
469,1798
517,1786
574,1771
573,1752
495,1799
546,1773
613,1733
612,1743
492,1790
572,1759
571,1777
570,1779
610,1784
575,1823
547,1818
516,1808
611,1761
542,1788
569,1760
609,1744
548,1850
549,1879
1404,1699
1405,1714
1266,1736
1193,1787
743,1654
742,1640
747,1668
746,1661
745,1668
744,1648
790,1645
789,1639
839,1668
838,1630
738,1702
739,1668
740,1656
890,1629
834,1679
784,1667
889,1667
856,1979
855,1945
854,1931
853,1916
852,1847
910,1929
909,1916
908,1838
964,1832
965,1838
1020,1943
966,1858
963,1833
1021,1969
1271,1852
1270,1851
1339,1840
1338,1827
1071,1854
1072,1878
1135,1850
1408,1852
1337,1778
1269,1825
1268,1807
1136,1868
1075,1894
1077,1948
1076,1906
1019,1902
1018,1875
1074,1900
1137,1884
1272,1860
1274,1936
1275,1970
1205,2013
1204,1979
1273,1908
1198,1819
1197,1786
1341,1943
1134,1809
1133,1803
1069,1801
1132,1784
1073,1910
1203,1963
1202,1905
1201,1878
1139,1948
1267,1758
1138,1915
1340,1873
1196,1775
1342,1949
1409,1847
1485,1869
1407,1887
1561,1807
1632,1815
1484,1840
1483,1771
1562,1800
1194,1790
1130,1756
1195,1786
1335,1723
1129,1724
1066,1708
1128,1702
1067,1759
1131,1766
1334,1754
1336,1738
1265,1775
1333,1679
1406,1734
857,2268
803,3562
804,7039
860,7047
969,7000
913,6987
912,6925
861,7057
806,7100
659,1699
751,1711
658,1709
705,1708
702,1684
706,1726
753,1767
614,1705
701,1675
661,1717
616,1718
848,1749
796,1722
797,1728
798,1746
750,1706
707,1773
615,1721
748,1711
845,1731
846,1733
657,1726
749,1726
795,1721
617,1731
663,1796
794,1724
847,1749
849,1772
902,1777
901,1797
900,1817
793,1677
899,1791
898,1755
897,1715
844,1719
842,1678
841,1666
956,2247
792,1662
843,1698
840,1685
850,1809
903,1757
800,1826
755,1853
756,1903
710,1933
711,1978
962,1823
961,1816
904,1762
906,1823
851,1826
802,1866
801,1829
799,1803
959,1804
1014,1847
1013,1840
708,2203
709,2178
754,1807
757,1931
1017,1884
1016,1934
960,1778
905,1776
958,1878
957,1825
1070,1814
1015,1829
1012,1880
1068,1782
1005,1640
1004,1610
1060,1588
1063,1663
1065,1673
1127,1697
1062,1660
1124,1646
1123,1604
1125,1671
1188,1593
1122,1569
1058,1580
947,1666
946,1690
949,1612
945,1717
948,1597
1190,1778
1187,1569
951,1679
895,1698
952,1654
1009,1673
1008,1665
1010,1763
1007,1644
1061,1693
954,1718
896,1715
953,1661
1126,1694
1064,1672
1189,1713
955,2261
950,1658
892,1612
786,1634
836,1630
837,1626
787,1632
700,1713
655,1712
654,1674
653,1696
698,1668
699,1684
608,1692
696,1660
656,1723
833,1686
785,1645
835,1644
693,1692
894,1672
893,1640
1343,1943
1192,1738
1191,1775
828,1798
829,1784
780,1730
830,1779
779,1781
782,1697
529,1879
886,1713
596,1877
556,1897
598,1800
597,1823
526,1958
555,1949
525,1970
524,1989
523,1990
688,1751
607,1685
650,1697
651,1691
652,1672
737,1708
694,1678
695,1662
645,1736
646,1728
690,1724
600,1755
599,1769
781,1701
736,1715
558,1857
644,1744
643,1783
648,1739
692,1707
691,1718
513,1826
541,1797
540,1853
568,1769
530,1855
831,1704
559,1878
560,1835
642,1832
557,1889
496,2021
471,2037
444,2110
446,2057
528,1898
527,1914
562,1797
602,1788
734,1746
466,1923
464,1840
463,1865
478,2002
481,1912
480,1949
479,1979
647,1748
488,1842
502,1909
689,1751
533,1802
532,1811
531,1838
601,1746
484,1907
508,1913
510,1903
509,1914
534,1922
482,1928
506,1880
606,1715
455,2036
429,1934
456,2083
457,1966
428,1992
458,1938
554,1993
594,2024
640,1887
639,2029
551,2021
681,2045
636,2066
635,2084
590,2039
778,1795
777,1802
485,1889
486,1902
462,1871
563,1836
885,1724
943,2771
564,1817
641,1840
504,1945
503,1922
501,1942
500,2000
561,1825
254,1945
350,1891
321,1913
319,1929
251,1970
375,1879
347,1934
687,1789
565,1853
539,1809
511,1914
536,1873
649,1758
603,1776
605,1886
733,1767
735,1729
489,1880
514,1840
461,1870
460,1881
459,1900
468,1814
154,2078
178,2041
203,2011
228,1989
402,1936
401,1943
505,1885
522,2022
451,2117
452,2068
477,2008
476,1955
483,1966
884,1834
431,1895
430,1957
454,2020
595,1950
395,2078
394,2097
422,2189
417,2079
390,2077
538,1790
567,1753
426,2060
397,2033
398,2018
499,2095
475,2076
497,2024
498,2050
311,1934
342,1955
345,1914
421,2166
515,1838
472,2121
448,2152
473,2176
474,2217
353,1900
381,1904
256,2001
290,1961
324,1923
380,1885
407,1849
253,1986
226,2011
201,2040
177,2081
824,1912
775,1858
826,1819
939,1867
936,3238
937,1895
880,2005
566,1880
2821,65535
2834,65535
2833,65535
2789,65535
2790,65535
2770,65535
2788,65535
2776,65535
2795,65535
2775,65535
2794,65535
2825,65535
2824,65535
2826,65535
2811,65535
2812,65535
2796,65535
2827,65535
2858,65535
2855,65535
2849,65535
2838,65535
2814,65535
2813,65535
2828,65535
2839,65535
2791,65535
2792,65535
2803,65535
2830,65535
2815,65535
2819,65535
2818,65535
2817,65535
2831,65535
2810,65535
2829,65535
2783,65535
2820,65535
2804,65535
2785,65535
2784,65535
2762,65535
2768,65535
2751,65535
2750,65535
2733,65535
2769,65535
2720,65535
2761,65535
2741,65535
2837,65535
2793,65535
2808,65535
2753,65535
2736,65535
2735,65535
2809,65535
2772,65535
2845,65535
2844,65535
2848,65535
2777,65535
2778,65535
2779,65535
2759,65535
2780,65535
2797,65535
2843,65535
2832,65535
2842,65535
2758,65535
2738,65535
2774,65535
2773,65535
2771,65535
2851,65535
2847,65535
2854,65535
2721,65535
2756,65535
2737,65535
2840,65535
2752,65535
2754,65535
2755,65535
2852,65535
2853,65535
2856,65535
2841,65535
2742,65535
2727,65535
2744,65535
2726,65535
2743,65535
2725,65535
2746,65535
2787,65535
2766,65535
2763,65535
2765,65535
2745,65535
2764,65535
2552,65535
2501,65535
2443,65535
2442,65535
2320,65535
2381,65535
2382,65535
2498,65535
2499,65535
2438,65535
2439,65535
2497,65535
2441,65535
2379,65535
2380,65535
2319,65535
2551,65535
2550,65535
2563,7557
2321,7093
2322,7062
2383,7074
2384,7280
2446,7322
2445,7329
2503,7348
2385,7313
2504,7678
2505,7700
2557,7724
2558,7749
2559,7773
2560,7737
2564,7905
2562,7625
2561,7665
2605,7680
2609,7952
2565,8028
2566,8044
2515,8055
2397,6439
2457,8085
2458,8107
2401,6516
2337,6352
2336,6356
2399,6398
2398,6419
2402,6576
2333,6576
2273,6611
2219,6635
2218,6647
2159,6672
2454,7264
2393,7230
2512,7524
2502,7516
2608,7943
2156,6794
2155,6826
2154,6855
2213,6871
2212,6883
2211,6931
2210,6972
2264,6979
2324,7013
2323,7029
2030,65535
2094,65535
2157,6758
2450,7921
2388,7970
2387,8038
2326,8075
2266,8110
2265,7454
2508,7892
2396,6508
2335,6526
2334,6537
2158,6697
2279,8666
2278,8630
2222,8599
2221,8581
2276,8563
2275,4479
2261,7286
2207,7323
2149,65535
2554,7406
2599,7438
2633,7484
2664,9171
2689,9229
2690,9335
2691,9373
2692,9406
2152,6967
2089,7046
2088,7034
2025,7179
2603,65535
2602,65535
2556,65535
2693,65535
2671,65535
2670,65535
2694,65535
2553,65535
2665,65535
2705,65535
2710,65535
2668,65535
2639,65535
2463,6586
2521,6622
2572,6645
2451,7806
2390,7775
2391,7595
2392,7558
2215,7800
2268,65535
2093,65535
2092,65535
2028,65535
2024,8857
2150,8283
2086,8331
2209,8265
2023,8433
2087,8386
2148,8599
2262,7272
2327,65535
1560,1809
1630,1703
1631,1780
1559,1701
1629,1689
1558,1644
1634,1827
1633,1840
1482,1822
1481,1882
1699,1821
1700,1861
1701,1889
1563,1816
2070,2067
2008,2055
2009,2064
1959,2064
1958,2031
2006,1995
1957,1976
1956,1944
2193,2242
2132,2181
1912,2071
1911,2085
1865,2092
1866,2191
2007,2033
2069,2039
2010,2073
2011,2149
1961,2065
2072,2101
1913,2257
1867,2288
1962,2098
1914,2107
1915,2203
1909,2033
1636,1867
1635,1853
1564,1831
1702,1891
1637,1876
1638,1894
1565,1880
1486,1871
1760,1974
1704,1897
1703,1874
1763,1925
1762,1889
1817,1962
1705,1903
1863,1996
1815,2022
1759,1887
863,3248
758,3341
808,3292
982,3463
1036,3470
1099,3505
1100,3533
1166,3934
1167,4429
1237,4086
1238,4121
1375,4191
1308,4260
1309,4169
1236,4387
1235,4021
1101,3564
1037,3501
971,3044
1025,3027
1026,3042
1027,3055
1089,3068
720,3304
674,3350
864,3130
865,3151
919,3046
1024,2991
975,3165
974,3135
1028,3090
873,3490
925,3436
924,3413
917,3110
918,3086
623,3525
712,3397
713,3430
667,3435
622,3493
809,3278
719,3278
765,3239
972,3076
868,3188
869,3200
815,3219
920,3334
973,3121
981,3414
926,3515
927,3523
928,3547
1354,2997
1288,2981
1218,2957
1152,3026
1023,2955
1353,2981
1085,2935
1148,2865
1147,2858
1082,2809
772,3576
771,3533
819,3508
584,3424
628,3391
629,3380
1033,3311
978,3266
1031,3239
1030,3193
1029,3176
1091,3153
1035,3392
1034,3335
979,3293
1526,4310
1449,4348
1378,4376
1448,4299
1524,4277
1038,3548
1447,4340
1768,2106
1710,2155
1767,2025
391,2049
365,2011
339,1988
400,1966
393,2129
392,2095
396,2085
399,1991
443,2131
449,2135
450,2258
419,2072
414,2250
415,2163
387,2186
388,2124
389,2107
282,2039
281,2033
314,2042
313,2021
405,1855
411,3154
442,3113
255,1960
376,1922
373,1932
278,1945
275,2010
248,2039
335,2119
334,2093
306,2065
307,2041
176,2054
225,1994
320,1965
249,2054
287,1954
285,1977
776,1834
731,1842
315,2002
316,1981
204,2030
440,1813
439,1861
166,3345
269,3262
383,3200
1247,65535
1246,65535
1384,65535
1679,65535
1178,6048
1105,5846
1172,5853
1173,5864
1242,5901
1241,5930
1314,6149
1313,6055
1171,5913
1382,6255
1243,5946
1317,6336
1107,5891
1108,5899
1109,5956
1041,5860
1043,6156
1042,6147
1044,6210
1176,5949
1174,9103
1177,6001
1110,6009
985,5992
986,6035
932,6053
774,1864
730,1854
825,1932
728,1920
729,1880
727,2018
682,1909
684,1878
685,1858
732,1860
683,1942
2134,2695
2194,2724
2068,2058
2129,2066
1905,1789
1907,1884
1906,1845
1953,1825
2002,1866
2064,1885
2125,1907
2137,2836
2196,2792
2195,2747
1859,1853
1810,1890
1755,1860
2131,2132
2192,2170
1862,1954
1861,1873
1812,1851
1860,1905
1809,1638
1756,1838
1869,2052
1822,2069
1821,2022
1916,2122
1819,1955
1764,1916
1820,1976
1698,1827
1757,1835
1566,1903
1567,1915
1488,1934
1489,2004
1412,1975
1413,1971
1414,1957
1818,2001
1568,2137
1410,1930
2128,2057
2189,2077
2066,1929
2065,1952
2067,2018
1643,2078
1571,2022
1491,1970
2004,1917
2003,1904
1697,1845
2135,2717
2075,2677
1642,2037
1955,1922
2130,2268
2005,1977
1858,1774
1816,8488
1864,8481
1766,2018
1910,2094
1868,2075
2188,2281
2127,2251
1903,1765
2001,1922
2063,1919
2062,1692
1813,1887
1758,1848
1639,1918
1640,1960
1952,1740
2126,8570
1569,2033
1965,2229
1966,2275
2014,2292
1490,1984
1917,2136
1870,2125
1871,2139
1570,2044
1707,1968
2076,2358
2013,2726
1964,2233
1487,1938
1908,2315
2251,3681
2199,3625
2198,3488
2136,2740
1641,1993
1954,2003
1765,2029
1857,1679
2187,1996
1904,1837
1856,1725
1951,1715
1708,2763
245,8799
244,8782
357,8786
246,8914
247,8943
197,9037
223,9015
44,9379
43,9439
3,9575
23,9549
22,9538
63,9321
85,9263
84,9218
108,8718
149,8672
172,9063
296,8766
294,8814
355,8914
354,8946
326,9024
295,8923
291,8935
293,9057
260,8943
356,8974
441,8574
412,8597
329,8932
300,8876
148,8646
214,8884
146,8767
110,8848
262,8909
258,9322
292,9085
257,9387
235,8907
187,8807
212,8863
211,8890
186,8811
162,8785
161,8864
165,8763
189,8963
238,9044
237,9009
263,8945
265,8964
266,8942
267,8930
268,8770
26,9539
25,9507
105,65535
62,65535
83,65535
126,8885
175,9320
152,9254
151,9244
150,9203
103,8823
242,8716
191,8670
192,8721
217,8744
218,8797
145,8707
144,8791
167,8699
190,8677
219,8814
159,8911
185,8855
158,8968
188,8799
160,8876
143,65535
122,65535
75,65535
54,65535
198,9448
270,8811
221,8852
301,8909
302,8746
330,8773
331,8795
115,8847
133,8906
139,8803
134,8880
114,9404
48,65535
69,65535
92,9080
164,8873
4,65535
107,9225
129,9310
109,8750
125,8791
124,8765
127,65535
82,65535
67,65535
91,9248
93,9047
137,9182
113,9202
112,9160
136,65535
49,65535
72,65535
71,65535
406,1921
805,7090
858,6895
859,7036
967,2514
1142,2649
1080,6735
1022,6776
1079,6768
968,6891
1206,2606
915,7042
916,7077
914,7014
807,7129
911,8236
1078,6992
1207,2664
1278,2708
1277,2711
1344,2731
1415,2772
1492,2827
1345,2788
1346,2758
1208,2656
1209,2736
1143,2773
1144,2789
1145,2804
1417,2784
1493,2844
1494,2863
1572,2878
1081,7061
970,7264
408,1884
382,1938
437,1870
467,1850
409,1950
403,1906
432,1989
433,1965
404,1870
352,2009
351,1995
349,1941
317,2085
374,1911
346,1919
283,2013
410,1897
438,1878
465,1872
490,1870
491,1822
435,1956
436,1958
379,2074
323,2131
289,2082
377,1907
378,1931
592,2044
593,2085
552,2000
445,2087
424,2112
423,2114
416,2118
361,2126
362,2111
371,2067
372,2049
343,1980
344,1960
286,2012
227,1978
252,2006
284,1987
318,1969
250,1998
312,1967
340,1982
368,2021
369,2082
370,2080
341,2013
367,2042
308,2033
276,2025
277,2005
280,2058
310,1963
338,2010
366,2072
274,2085
305,2077
420,2108
363,2084
418,2055
550,7081
579,7104
576,7049
577,7061
578,7077
520,7057
618,7071
662,7101
619,7088
620,7101
621,7095
665,7077
666,7069
664,7097
580,7116
2260,65535
2257,65535
2206,65535
2146,65535
2314,65535
2313,65535
2312,65535
2373,65535
2256,65535
2205,65535
2434,65535
2435,65535
2375,65535
2376,65535
2433,65535
2491,65535
2490,65535
2492,65535
2546,65535
2597,65535
2596,65535
2544,65535
2145,65535
2082,65535
2020,65535
2494,65535
0,65535
11,65535
1052,4468
1053,4455
941,4445
1740,1932
1796,1973
1615,1835
1681,1876
1545,1796
1797,2020
1544,1810
1741,1988
1795,2170
1617,1796
1546,1801
1616,1813
1683,1908
1467,1770
1547,1775
1465,1845
1387,1881
1388,1842
1464,1906
1462,2059
1461,2080
1542,2144
1463,2023
1682,1887
1543,1865
1618,1788
1742,2080
1460,2246
1248,1890
1850,1291
1801,1298
1803,1294
882,1819
881,1828
938,1878
883,1839
940,7158
1998,1516
1902,1601
1807,1569
1691,1379
1694,1530
1693,1492
1749,1341
1752,1431
1753,1491
1627,1561
1628,1574
1557,1619
1479,1650
1402,1666
1808,1555
1946,1435
1947,1466
1948,1508
1997,1512
1855,1662
1690,1364
2060,1557
1949,1887
1950,1595
1751,1401
1692,1419
1999,1571
1901,1895
1900,1936
1852,2085
1853,1964
1805,1414
1750,1386
1854,1730
1806,1472
1748,1338
2061,1604
2000,1654
1804,1322
1899,2105
2884,65535
2892,65535
2883,65535
2876,65535
2874,65535
2882,65535
2877,65535
2911,65535
2905,65535
2906,65535
2896,65535
2887,65535
2881,65535
2880,65535
2888,65535
2902,65535
2903,65535
2907,65535
2912,65535
2895,65535
2894,65535
2875,65535
2885,65535
2893,65535
2904,65535
2865,65535
2866,65535
2909,65535
2913,65535
2886,65535
2878,65535
2869,65535
2871,65535
2872,65535
2879,65535
2870,65535
1330,1715
1331,1682
1401,1678
1262,1703
1263,1697
1478,1677
1403,1695
1261,1806
1480,1787
1264,1723
1390,1753
1389,1798
1319,1775
1251,1862
1250,1948
1285,2900
1284,2886
1214,2858
1146,2822
1505,3107
1504,3041
1582,3079
1581,3007
1713,2986
1771,2968
1654,3118
1653,3091
1651,3043
2096,4222
2033,4182
1972,4153
1923,4085
1922,4063
1874,3757
1873,3470
1919,3423
1829,6134
1579,2943
1424,2947
1711,2960
1348,2784
1419,2804
1359,3211
1429,3162
1428,3148
1421,2861
1577,2895
1499,2868
1230,3455
1365,3392
1511,3314
1300,3437
1366,3409
1512,3342
1716,3176
1503,3229
1276,2738
1347,2768
1349,2816
1645,2952
1578,2930
1770,2964
1715,3019
1150,2923
1217,2937
1149,2899
1580,2989
1352,2976
1502,3007
1825,3376
1718,3331
1717,3305
1872,3409
1656,3220
1648,2995
1712,2972
1213,2848
1212,2829
1084,2870
1420,2850
1281,2774
1282,2835
1587,3214
1586,3181
1585,3170
1652,3138
1427,3316
1975,4257
1977,4325
1932,4395
1931,5020
1426,3036
1422,2878
1425,3021
1583,3107
1501,2965
1283,2876
1286,2923
1215,2908
1211,2805
1210,2779
1083,2841
1655,3209
2220,4457
1355,5891
1772,2977
1436,3360
1435,3350
1589,3283
1163,3488
1735,4608
1791,4541
1841,4518
1840,4474
1219,3040
1220,3079
1647,2981
1646,2973
1279,2726
1714,2996
1575,2955
1576,2917
1498,2925
1573,2967
1496,2985
1497,2956
2177,358
2176,95
2294,413
2293,366
2237,301
2236,184
2364,816
2302,837
2301,784
2245,754
2056,726
2057,770
2055,676
2184,1298
2120,1304
2244,732
2538,498
2537,480
2591,515
1940,550
1989,475
1990,534
2539,562
2482,568
2483,537
2424,532
2121,1365
2119,682
2050,370
2049,387
2048,289
2185,1331
2243,684
2299,800
2241,498
2485,668
2542,695
2353,376
2292,249
2419,361
2478,393
2479,410
2536,447
2484,558
2486,683
2354,327
2416,391
2242,486
2355,415
2300,713
1991,580
1992,604
2477,362
2534,407
2535,470
2588,466
2587,481
2630,523
2051,589
2116,567
2175,188
2586,65535
2541,724
2178,419
2179,476
2240,525
2239,356
2238,330
2052,564
2053,593
1987,517
1988,524
1939,517
2594,684
2593,619
2358,396
2357,376
2420,383
2247,1426
2427,780
2428,713
2181,564
2180,549
2417,377
2590,496
2297,480
2361,590
2362,610
2423,505
2422,463
2174,418
2356,435
1941,544
2365,747
2112,0
2047,264
2182,690
2359,408
2533,811
2295,651
2115,552
2632,661
2631,600
2186,1287
2298,446
2360,439
2235,381
2291,394
2487,849
2246,1080
2425,726
2117,687
2543,782
1893,65535
2421,474
2476,392
2592,560
604,7066
