middle_point_id,reach_time_minutes
2835,65535
2836,65535
2806,65535
2822,65535
2823,65535
2807,65535
2846,65535
887,1406
888,1387
1326,1360
1185,1342
999,1370
1057,1365
1552,1239
1120,1349
1473,1299
944,1383
832,1410
1257,1355
1396,1309
1622,1282
1327,1384
1184,1378
1183,1383
1324,1471
1255,1444
1394,1482
1252,1667
1253,1636
1182,1621
1328,65535
1470,1500
1321,1674
1322,1615
1323,1565
1391,1687
1551,1278
1393,1540
1472,1284
1471,1429
1181,1934
1118,1679
1059,1280
1121,1310
1469,1561
1468,1780
1548,1545
1325,1405
1625,1091
1623,1228
1258,1354
1256,1403
791,1281
891,1299
703,1349
704,1351
660,1355
1553,1287
1624,1213
1554,1374
1474,1300
1475,1381
1550,1396
1549,1494
1320,1732
1466,1784
1541,2200
1318,1846
1249,1869
1186,1345
1003,1257
1002,1274
741,1354
788,1317
434,1478
697,1351
752,1352
1056,1369
1006,985
907,1319
518,1415
1011,990
1000,1298
1055,2102
997,2071
994,1965
996,2037
995,2021
991,1812
1112,4445
1114,2052
1051,2015
1398,1452
1395,1372
1001,1289
1811,538
1960,139
1769,543
1823,528
1329,65535
1332,866
1259,2216
1200,859
1199,860
1140,1258
1141,1282
783,1416
1689,1243
1802,1240
1945,1916
2183,2398
2418,2847
1994,1952
1995,2348
2059,1291
1621,65535
1555,1047
1754,630
1180,2783
1106,3045
933,3206
827,1568
2122,2813
2124,500
493,1422
519,1419
544,1408
545,1412
494,1426
470,1442
543,1404
469,1438
517,1417
574,1405
573,1392
495,1440
546,1421
613,1372
612,1383
492,1430
572,1399
571,1415
570,1397
610,1387
575,1466
547,1458
516,1432
611,1401
542,1416
569,1400
609,1380
548,1490
549,1519
1404,844
1405,836
1266,878
1193,958
743,1325
742,1338
747,1316
746,1301
745,1298
744,1315
790,1292
789,1297
839,1333
838,1330
738,1415
739,1406
740,1371
890,1324
834,1408
784,1394
889,1339
856,1403
855,1380
854,1388
853,1430
852,1355
910,1372
909,1361
908,1338
964,1315
965,1344
1020,1391
966,1378
963,1307
1021,1489
1271,857
1270,859
1339,878
1338,874
1071,926
1072,910
1135,870
1408,865
1337,878
1269,914
1268,883
1136,908
1075,1323
1077,1265
1076,1300
1019,1364
1018,1355
1074,940
1137,924
1272,900
1274,984
1275,1250
1205,1293
1204,1277
1273,956
1198,881
1197,885
1341,901
1134,912
1133,939
1069,939
1132,912
1073,923
1203,1281
1202,942
1201,926
1139,977
1267,874
1138,1312
1340,839
1196,889
1342,858
1409,766
1485,759
1407,803
1561,665
1632,661
1484,794
1483,758
1562,660
1194,892
1130,897
1195,886
1335,869
1129,900
1066,902
1128,942
1067,952
1131,919
1334,912
1336,859
1265,1294
1333,871
1406,806
857,2268
803,3562
804,7039
860,7047
969,7000
913,6987
912,6925
861,7057
806,7100
659,1354
751,1340
658,1365
705,1354
702,1341
706,1362
753,1346
614,1362
701,1334
661,1360
616,1388
848,1307
796,1325
797,1317
798,1323
750,1343
707,1371
615,1421
748,1351
845,1268
846,1285
657,1392
749,1359
795,1314
617,1431
663,1406
794,1337
847,1309
849,1350
902,1297
901,1270
900,1237
793,1308
899,1248
898,1256
897,1288
844,1311
842,1296
841,1274
956,1274
792,1291
843,1313
840,1313
850,1353
903,1293
800,1361
755,1373
756,1423
710,1453
711,1498
962,1295
961,1336
904,1300
906,1312
851,1347
802,1368
801,1365
799,1383
959,1287
1014,948
1013,949
708,2203
709,2178
754,1387
757,1511
1017,1271
1016,1266
960,1260
905,1354
958,1275
957,1001
1070,937
1015,952
1012,959
1068,951
1005,1006
1004,1249
1060,1288
1063,975
1065,930
1127,947
1062,1025
1124,1274
1123,1323
1125,1263
1188,1301
1122,1342
1058,1297
947,1282
946,1324
949,1310
945,1350
948,1294
1190,1353
1187,1328
951,991
895,1268
952,1232
1009,1247
1008,1249
1010,961
1007,1028
1061,1210
954,1040
896,1260
953,1257
1126,1269
1064,972
1189,1350
955,1002
950,1005
892,1340
786,1344
836,1346
837,1333
787,1324
700,1349
655,1358
654,1370
653,1365
698,1348
699,1322
608,1390
696,1357
656,1355
833,1408
785,1374
835,1367
693,1392
894,1303
893,1322
1343,1260
1192,913
1191,1030
828,1558
829,1544
780,1490
830,1539
779,1541
782,1417
529,1556
886,1417
596,1629
556,1612
598,1560
597,1613
526,1634
555,1649
525,1679
524,1693
523,1672
688,1472
607,1394
650,1393
651,1389
652,1371
737,1420
694,1378
695,1358
645,1487
646,1459
690,1441
600,1513
599,1499
781,1431
736,1430
558,1588
644,1489
643,1500
648,1438
692,1409
691,1425
513,1487
541,1435
540,1475
568,1410
530,1555
831,1430
559,1572
560,1559
642,1663
557,1579
496,1705
471,1742
444,1808
446,1773
528,1563
527,1614
562,1462
602,1447
734,1467
466,1517
464,1483
463,1498
478,1698
481,1615
480,1646
479,1673
647,1432
488,1523
502,1574
689,1468
533,1498
532,1510
531,1536
601,1519
484,1552
508,1505
510,1542
509,1515
534,1497
482,1645
506,1644
606,1410
455,1733
429,1602
456,1703
457,1684
428,1630
458,1623
554,1671
594,1712
640,1707
639,1749
551,1691
681,1847
636,1835
635,1809
590,1751
778,1565
777,1572
485,1564
486,1538
462,1511
563,1476
885,1484
943,2771
564,1527
641,1663
504,1624
503,1587
501,1583
500,1641
561,1530
254,1585
350,1529
321,1561
319,1569
251,1614
375,1540
347,1557
687,1519
565,1557
539,1510
511,1550
536,1577
649,1471
603,1487
605,1886
733,1487
735,1457
489,1479
514,1488
461,1569
460,1581
459,1601
468,1443
154,1771
178,1747
203,1725
228,1705
402,1568
401,1617
505,1644
522,1690
451,1878
452,1828
477,1707
476,1732
483,1571
884,1594
431,1564
430,1700
454,1720
595,1667
395,1755
394,1832
422,1850
417,1798
390,1758
538,1529
567,1453
426,1862
397,1738
398,1689
499,1707
475,1842
497,1710
498,1727
311,1636
342,1643
345,1600
421,1858
515,1470
472,2067
448,2028
473,1978
474,1857
353,1577
381,1555
256,1676
290,1651
324,1606
380,1619
407,1545
253,1623
226,1648
201,1661
177,1724
824,1736
775,1678
826,1579
939,1627
936,1798
937,1693
880,1601
566,1575
2821,65535
2834,65535
2833,65535
2789,65535
2790,65535
2770,65535
2788,65535
2776,65535
2795,65535
2775,65535
2794,65535
2825,65535
2824,65535
2826,65535
2811,65535
2812,65535
2796,65535
2827,65535
2858,65535
2855,65535
2849,65535
2838,65535
2814,65535
2813,65535
2828,65535
2839,65535
2791,65535
2792,65535
2803,65535
2830,65535
2815,65535
2819,65535
2818,65535
2817,65535
2831,65535
2810,65535
2829,65535
2783,65535
2820,65535
2804,65535
2785,65535
2784,65535
2762,65535
2768,65535
2751,65535
2750,65535
2733,65535
2769,65535
2720,65535
2761,65535
2741,65535
2837,65535
2793,65535
2808,65535
2753,65535
2736,65535
2735,65535
2809,65535
2772,65535
2845,65535
2844,65535
2848,65535
2777,65535
2778,65535
2779,65535
2759,65535
2780,65535
2797,65535
2843,65535
2832,65535
2842,65535
2758,65535
2738,65535
2774,65535
2773,65535
2771,65535
2851,65535
2847,65535
2854,65535
2721,65535
2756,65535
2737,65535
2840,65535
2752,65535
2754,65535
2755,65535
2852,65535
2853,65535
2856,65535
2841,65535
2742,65535
2727,65535
2744,65535
2726,65535
2743,65535
2725,65535
2746,65535
2787,65535
2766,65535
2763,65535
2765,65535
2745,65535
2764,65535
2552,65535
2501,65535
2443,65535
2442,65535
2320,65535
2381,65535
2382,65535
2498,65535
2499,65535
2438,65535
2439,65535
2497,65535
2441,65535
2379,65535
2380,65535
2319,65535
2551,65535
2550,65535
2563,7557
2321,7093
2322,7062
2383,7074
2384,7280
2446,7322
2445,7329
2503,7348
2385,7313
2504,7678
2505,7700
2557,7724
2558,7749
2559,7773
2560,7737
2564,7905
2562,7625
2561,7665
2605,7680
2609,7952
2565,8028
2566,8044
2515,8055
2397,6439
2457,8085
2458,8107
2401,6516
2337,6352
2336,6356
2399,6398
2398,6419
2402,6576
2333,6576
2273,6611
2219,6635
2218,6647
2159,6672
2454,7264
2393,7230
2512,7524
2502,7516
2608,7943
2156,6794
2155,6826
2154,6855
2213,6871
2212,6883
2211,6931
2210,6972
2264,6979
2324,7013
2323,7029
2030,65535
2094,65535
2157,6758
2450,7921
2388,7970
2387,8038
2326,8075
2266,8110
2265,7454
2508,7892
2396,6508
2335,6526
2334,6537
2158,6697
2279,8666
2278,8630
2222,8599
2221,8581
2276,8563
2275,4479
2261,7286
2207,7323
2149,65535
2554,7406
2599,7438
2633,7484
2664,9171
2689,9229
2690,9335
2691,9373
2692,9406
2152,6967
2089,7046
2088,7034
2025,7179
2603,65535
2602,65535
2556,65535
2693,65535
2671,65535
2670,65535
2694,65535
2553,65535
2665,65535
2705,65535
2710,65535
2668,65535
2639,65535
2463,6586
2521,6622
2572,6645
2451,7806
2390,7775
2391,7595
2392,7558
2215,7800
2268,65535
2093,65535
2092,65535
2028,65535
2024,8857
2150,8283
2086,8331
2209,8265
2023,8433
2087,8386
2148,8599
2262,7272
2327,65535
1560,682
1630,698
1631,678
1559,800
1629,891
1558,788
1634,651
1633,684
1482,797
1481,702
1699,656
1700,694
1701,701
1563,645
2070,111
2008,124
2009,144
1959,160
1958,212
2006,251
1957,247
1956,312
2193,59
2132,0
1912,188
1911,199
1865,337
1866,279
2007,187
2069,222
2010,153
2011,180
1961,146
2072,169
1913,219
1867,290
1962,180
1914,206
1915,322
1909,254
1636,609
1635,618
1564,630
1702,668
1637,624
1638,619
1565,637
1486,668
1760,764
1704,603
1703,584
1763,575
1762,538
1817,478
1705,585
1863,1310
1815,1386
1759,645
863,3248
758,3341
808,3292
982,3463
1036,3470
1099,3505
1100,3533
1166,3934
1167,4429
1237,4086
1238,4121
1375,4191
1308,4260
1309,4169
1236,4387
1235,4021
1101,3564
1037,3501
971,3044
1025,3027
1026,3042
1027,3055
1089,3068
720,3304
674,3350
864,3130
865,3151
919,3046
1024,2991
975,3165
974,3135
1028,3090
873,3490
925,3436
924,3413
917,3110
918,3086
623,3525
712,3397
713,3430
667,3435
622,3493
809,3278
719,3278
765,3239
972,3076
868,3188
869,3200
815,3219
920,3334
973,3121
981,3414
926,3515
927,3523
928,3547
1354,2997
1288,2981
1218,2957
1152,3026
1023,2955
1353,2981
1085,2935
1148,2865
1147,2858
1082,2809
772,3576
771,3533
819,3508
584,3424
628,3391
629,3380
1033,3311
978,3266
1031,3239
1030,3193
1029,3176
1091,3153
1035,3392
1034,3335
979,3293
1526,4310
1449,4348
1378,4376
1448,4299
1524,4277
1038,3548
1447,4340
1768,536
1710,554
1767,547
391,1742
365,1704
339,1705
400,1644
393,1824
392,1790
396,1779
399,1660
443,1891
449,1929
450,1963
419,1752
414,1947
415,1889
387,1882
388,1792
389,1786
282,1680
281,1705
314,1681
313,1662
405,1495
411,1974
442,1933
255,1630
376,1723
373,1660
278,1645
275,1845
248,1935
335,1970
334,1935
306,1881
307,1870
176,1708
225,1664
320,1609
249,1708
287,1692
285,1616
776,1624
731,1635
315,1661
316,1643
204,1764
440,1458
439,1472
166,3345
269,3262
383,3200
1247,4390
1246,4412
1384,4496
1679,4658
1178,4383
1105,3049
1172,3068
1173,3118
1242,3120
1241,3112
1314,3269
1313,3175
1171,3094
1382,3375
1243,3317
1317,3456
1107,3057
1108,3236
1109,3521
1041,3066
1043,3276
1042,3267
1044,3330
1176,4284
1174,3343
1177,4332
1110,4339
985,3112
986,3155
932,3173
774,1684
730,1653
825,1692
728,1719
729,1661
727,1861
682,1716
684,1698
685,1648
732,1658
683,1942
2134,84
2194,93
2068,253
2129,307
1905,546
1907,443
1906,483
1953,534
2002,476
2064,473
2125,481
2137,519
2196,297
2195,251
1859,523
1810,551
1755,668
2131,121
2192,159
1862,1299
1861,608
1812,554
1860,577
1809,680
1756,554
1869,511
1822,535
1821,549
1916,437
1819,520
1764,557
1820,536
1698,603
1757,586
1566,633
1567,679
1488,750
1489,751
1412,805
1413,877
1414,1235
1818,500
1568,697
1410,770
2128,341
2189,369
2066,326
2065,365
2067,304
1643,596
1571,748
1491,756
2004,409
2003,427
1697,741
2135,154
2075,213
1642,655
1955,401
2130,391
2005,491
1858,544
1816,8488
1864,8481
1766,567
1910,326
1868,487
2188,451
2127,420
1903,743
2001,482
2063,1302
2062,1314
1813,597
1758,656
1639,638
1640,669
1952,626
2126,8570
1569,709
1965,411
1966,397
2014,338
1490,928
1917,478
1870,523
1871,574
1570,722
1707,573
2076,230
2013,336
1964,380
1487,748
1908,1249
2251,3681
2199,3625
2198,3488
2136,203
1641,694
1954,563
1765,589
1857,565
2187,556
1904,721
1856,746
1951,684
1708,1323
245,8799
244,8782
357,8786
246,8914
247,8943
197,9037
223,9015
44,9379
43,9439
3,9575
23,9549
22,9538
63,9321
85,9263
84,9218
108,8718
149,8672
172,9063
296,8766
294,8814
355,8914
354,8946
326,9024
295,8923
291,8935
293,9057
260,8943
356,8974
441,8574
412,8597
329,8932
300,8876
148,8646
214,8884
146,8767
110,8848
262,8909
258,9322
292,9085
257,9387
235,8907
187,8807
212,8863
211,8890
186,8811
162,8785
161,8864
165,8763
189,8963
238,9044
237,9009
263,8945
265,8964
266,8942
267,8930
268,8770
26,9539
25,9507
105,65535
62,65535
83,65535
126,8885
175,9320
152,9254
151,9244
150,9203
103,8823
242,8716
191,8670
192,8721
217,8744
218,8797
145,8707
144,8791
167,8699
190,8677
219,8814
159,8911
185,8855
158,8968
188,8799
160,8876
143,65535
122,65535
75,65535
54,65535
198,9448
270,8811
221,8852
301,8909
302,8746
330,8773
331,8795
115,8847
133,8906
139,8803
134,8880
114,9404
48,65535
69,65535
92,9080
164,8873
4,65535
107,9225
129,9310
109,8750
125,8791
124,8765
127,65535
82,65535
67,65535
91,9248
93,9047
137,9182
113,9202
112,9160
136,65535
49,65535
72,65535
71,65535
406,1561
805,7090
858,6895
859,7036
967,2514
1142,2649
1080,6735
1022,6776
1079,6768
968,6891
1206,2606
915,7042
916,7077
914,7014
807,7129
911,8236
1078,6992
1207,2664
1278,2708
1277,2711
1344,2731
1415,2772
1492,2827
1345,2788
1346,2758
1208,2656
1209,2736
1143,2773
1144,2789
1145,2804
1417,2784
1493,2844
1494,2863
1572,2878
1081,7061
970,7264
408,1586
382,1578
437,1510
467,1490
409,1564
403,1590
432,1989
433,1616
404,1590
352,1665
351,1730
349,1597
317,1602
374,1549
346,1727
283,1652
410,1587
438,1604
465,1498
490,1463
491,1462
435,1523
436,1511
379,1622
323,1761
289,1710
377,1549
378,1571
592,1833
593,1859
552,1690
445,1818
424,1846
423,1793
416,1931
361,1886
362,1827
371,1732
372,1689
343,1745
344,1749
286,1803
227,1727
252,1647
284,1629
318,1611
250,1676
312,1667
340,1682
368,1721
369,1793
370,1958
341,1744
367,1735
308,1776
276,1756
277,1710
280,1698
310,1669
338,1757
366,1757
274,1912
305,1893
420,1809
363,1814
418,1816
550,7081
579,7104
576,7049
577,7061
578,7077
520,7057
618,7071
662,7101
619,7088
620,7101
621,7095
665,7077
666,7069
664,7097
580,7116
2260,65535
2257,65535
2206,65535
2146,65535
2314,65535
2313,65535
2312,65535
2373,65535
2256,65535
2205,65535
2434,65535
2435,65535
2375,65535
2376,65535
2433,65535
2491,65535
2490,65535
2492,65535
2546,65535
2597,65535
2596,65535
2544,65535
2145,65535
2082,65535
2020,65535
2494,65535
0,65535
11,65535
1052,2068
1053,2055
941,2095
1740,1932
1796,1973
1615,1835
1681,1876
1545,1796
1797,2020
1544,1810
1741,1988
1795,2170
1617,1796
1546,1801
1616,1813
1683,1908
1467,1770
1547,1775
1465,1845
1387,1881
1388,1842
1464,1906
1462,2059
1461,2080
1542,2144
1463,2023
1682,1887
1543,1865
1618,1788
1742,2080
1460,2246
1248,1890
1850,1247
1801,1248
1803,1226
882,1579
881,1586
938,1638
883,1599
940,2838
1998,1265
1902,889
1807,786
1691,1228
1694,1453
1693,1312
1749,1147
1752,793
1753,848
1627,728
1628,1401
1557,767
1479,810
1402,830
1808,767
1946,1435
1947,1380
1948,1284
1997,1280
1855,801
1690,1186
2060,1390
1949,1439
1950,927
1751,863
1692,1214
1999,1246
1901,1435
1900,1456
1852,2085
1853,1964
1805,1294
1750,922
1854,1380
1806,1369
1748,1267
2061,1340
2000,1294
1804,1211
1899,2105
2884,65535
2892,65535
2883,65535
2876,65535
2874,65535
2882,65535
2877,65535
2911,65535
2905,65535
2906,65535
2896,65535
2887,65535
2881,65535
2880,65535
2888,65535
2902,65535
2903,65535
2907,65535
2912,65535
2895,65535
2894,65535
2875,65535
2885,65535
2893,65535
2904,65535
2865,65535
2866,65535
2909,65535
2913,65535
2886,65535
2878,65535
2869,65535
2871,65535
2872,65535
2879,65535
2870,65535
1330,894
1331,872
1401,868
1262,925
1263,893
1478,850
1403,871
1261,976
1480,1223
1264,928
1390,1753
1389,1798
1319,1775
1251,1862
1250,1948
1285,2900
1284,2886
1214,2858
1146,2822
1505,3107
1504,3041
1582,3079
1581,3007
1713,2986
1771,2968
1654,3118
1653,3091
1651,3043
2096,4222
2033,4182
1972,4153
1923,4085
1922,4063
1874,3757
1873,3470
1919,3423
1829,6134
1579,2943
1424,2947
1711,2960
1348,2784
1419,2804
1359,3211
1429,3162
1428,3148
1421,2861
1577,2895
1499,2868
1230,3455
1365,3392
1511,3314
1300,3437
1366,3409
1512,3342
1716,3176
1503,3229
1276,2738
1347,2768
1349,2816
1645,2952
1578,2930
1770,2964
1715,3019
1150,2923
1217,2937
1149,2899
1580,2989
1352,2976
1502,3007
1825,3376
1718,3331
1717,3305
1872,3409
1656,3220
1648,2995
1712,2972
1213,2848
1212,2829
1084,2870
1420,2850
1281,2774
1282,2835
1587,3214
1586,3181
1585,3170
1652,3138
1427,3316
1975,4257
1977,4325
1932,4395
1931,5020
1426,3036
1422,2878
1425,3021
1583,3107
1501,2965
1283,2876
1286,2923
1215,2908
1211,2805
1210,2779
1083,2841
1655,3209
2220,4457
1355,5891
1772,2977
1436,3360
1435,3350
1589,3283
1163,3488
1735,4608
1791,4541
1841,4518
1840,4474
1219,3040
1220,3079
1647,2981
1646,2973
1279,2726
1714,2996
1575,2955
1576,2917
1498,2925
1573,2967
1496,2985
1497,2956
2177,2965
2176,3035
2294,2952
2293,3071
2237,3012
2236,3041
2364,2813
2302,2753
2301,2675
2245,2577
2056,2707
2057,2793
2055,2686
2184,2738
2120,2744
2244,2658
2538,2998
2537,2979
2591,3095
1940,2870
1989,2878
1990,2814
2539,2998
2482,2989
2483,2951
2424,2847
2121,2805
2119,2618
2050,2927
2049,3005
2048,3423
2185,2771
2243,2497
2299,2711
2241,2660
2485,3029
2542,3084
2353,3043
2292,2950
2419,2837
2478,2884
2479,2919
2536,2946
2484,2990
2486,2983
2354,2882
2416,3059
2242,2705
2355,2920
2300,2718
1991,2818
1992,2825
2477,2875
2534,2896
2535,3011
2588,2916
2587,2930
2630,2981
2051,2739
2116,2633
2175,3068
2586,65535
2541,3151
2178,2940
2179,2743
2240,2690
2239,2914
2238,2984
2052,2870
2053,2836
1987,3110
1988,2958
1939,2982
2594,3101
2593,3086
2358,2804
2357,2814
2420,2870
2247,2866
2427,2956
2428,2978
2181,2537
2180,2586
2417,2864
2590,3076
2297,2699
2361,2891
2362,2774
2423,2862
2422,2827
2174,3298
2356,2925
1941,2859
2365,2990
2112,3303
2047,3445
2182,2676
2359,2753
2533,3691
2295,3016
2115,2706
2632,3136
2631,3075
2186,2923
2298,2785
2360,2809
2235,3261
2291,3274
2487,3205
2246,2798
2425,3606
2117,2930
2543,3158
1893,65535
2421,2962
2476,2880
2592,3134
604,7066
