middle_point_id,reach_time_minutes
2835,65535
2836,65535
2806,65535
2822,65535
2823,65535
2807,65535
2846,65535
887,9369
888,9347
1326,9460
1185,9369
999,9410
1057,9557
1552,65535
1120,9331
1473,65535
944,9558
832,9338
1257,9436
1396,65535
1622,65535
1327,9544
1184,9359
1183,9370
1324,65535
1255,65535
1394,65535
1252,65535
1253,65535
1182,65535
1328,65535
1470,65535
1321,65535
1322,65535
1323,65535
1391,65535
1551,65535
1393,65535
1472,65535
1471,65535
1181,65535
1118,65535
1059,9299
1121,9322
1469,65535
1468,65535
1548,65535
1325,9565
1625,9532
1623,65535
1258,9337
1256,9494
791,9199
891,9309
703,9157
704,9151
660,9155
1553,65535
1624,65535
1554,65535
1474,65535
1475,65535
1550,65535
1549,65535
1320,65535
1466,65535
1541,65535
1318,65535
1249,65535
1186,9356
1003,9294
1002,9302
741,9277
788,9241
434,9275
697,9250
752,9152
1056,9432
1006,9235
907,9021
518,9189
1011,9185
1000,9333
1055,65535
997,65535
994,65535
996,65535
995,65535
991,65535
1112,65535
1114,65535
1051,65535
1398,65535
1395,65535
1001,9308
1811,9448
1960,9529
1769,9492
1823,9515
1329,65535
1332,9303
1259,65535
1200,9178
1199,9175
1140,9084
1141,9097
783,9326
1689,65535
1802,65535
1945,65535
2183,65535
2418,65535
1994,65535
1995,65535
2059,65535
1621,65535
1555,9487
1754,9488
1180,65535
1106,65535
933,65535
827,9488
2122,65535
2124,65535
493,9204
519,9192
544,9186
545,9189
494,9198
470,9227
543,9187
469,9215
517,9195
574,9195
573,9172
495,9217
546,9193
613,9169
612,9183
492,9213
572,9184
571,9199
570,9203
610,9224
575,9168
547,9210
516,9211
611,9201
542,9212
569,9250
609,9235
548,9206
549,9208
1404,9285
1405,9234
1266,9218
1193,9227
743,9249
742,9260
747,9190
746,9193
745,9203
744,9219
790,9205
789,9221
839,9228
838,9243
738,9314
739,9297
740,9292
890,9341
834,9344
784,9339
889,9347
856,8946
855,8952
854,8978
853,9045
852,9047
910,8963
909,8971
908,9007
964,9018
965,9011
1020,9023
966,8955
963,9033
1021,8859
1271,9180
1270,9179
1339,9187
1338,9200
1071,9135
1072,9129
1135,9158
1408,9223
1337,9217
1269,9194
1268,9220
1136,9222
1075,9080
1077,9081
1076,9054
1019,9047
1018,9068
1074,9152
1137,9205
1272,9193
1274,9226
1275,9267
1205,9213
1204,9179
1273,9227
1198,9191
1197,9226
1341,9261
1134,9144
1133,9151
1069,9154
1132,9170
1073,9116
1203,9163
1202,9222
1201,9198
1139,9102
1267,9205
1138,9229
1340,9193
1196,9203
1342,9269
1409,9244
1485,9247
1407,9233
1561,9263
1632,9302
1484,9282
1483,9237
1562,9254
1194,9191
1130,9187
1195,9192
1335,9221
1129,9210
1066,9215
1128,9262
1067,9172
1131,9179
1334,9314
1336,9210
1265,9237
1333,9297
1406,9225
857,8907
803,8897
804,8895
860,8885
969,8877
913,8864
912,8855
861,8940
806,8951
659,9157
751,9140
658,9168
705,9154
702,9170
706,9162
753,9118
614,9162
701,9178
661,9160
616,9170
848,9090
796,9125
797,9109
798,9098
750,9144
707,9166
615,9161
748,9180
845,9184
846,9133
657,9226
749,9173
795,9161
617,9185
663,9176
794,9204
847,9122
849,9053
902,9128
901,9152
900,9166
793,9207
899,9228
898,9249
897,9237
844,9200
842,9212
841,9203
956,9174
792,9200
843,9220
840,9245
850,9047
903,9107
800,9061
755,9083
756,9103
710,9133
711,9178
962,9042
961,9090
904,9088
906,9026
851,9040
802,9060
801,9075
799,9071
959,9152
1014,9164
1013,9160
708,9545
709,9158
754,9101
757,9131
1017,9084
1016,9110
960,9127
905,9041
958,9175
957,9169
1070,9141
1015,9134
1012,9180
1068,9171
1005,9247
1004,9281
1060,9293
1063,9246
1065,9245
1127,9257
1062,9250
1124,9263
1123,9284
1125,9257
1188,9277
1122,9316
1058,9311
947,9309
946,9341
949,9284
945,9362
948,9304
1190,9338
1187,9312
951,9230
895,9220
952,9227
1009,9202
1008,9245
1010,9175
1007,9231
1061,9298
954,9203
896,9215
953,9249
1126,9273
1064,9246
1189,9393
955,9191
950,9239
892,9256
786,9268
836,9274
837,9250
787,9244
700,9213
655,9231
654,9234
653,9256
698,9228
699,9213
608,9240
696,9280
656,9228
833,9328
785,9314
835,9311
693,9307
894,9225
893,9249
1343,9263
1192,9316
1191,9335
828,9478
829,9464
780,9410
830,9459
779,9476
782,9331
529,9402
886,9393
596,9462
556,9502
598,9420
597,9456
526,9444
555,9510
525,65535
524,65535
523,9439
688,9366
607,9245
650,9281
651,9274
652,9269
737,9317
694,9296
695,9294
645,9356
646,9351
690,9331
600,9375
599,9389
781,9336
736,9325
558,9394
644,9364
643,9373
648,9338
692,9316
691,9322
513,9296
541,9237
540,9275
568,9268
530,9393
831,9351
559,9414
560,65535
642,9498
557,9436
496,9485
471,9570
444,65535
446,65535
528,9422
527,9469
562,9392
602,9406
734,9360
466,9247
464,9282
463,9296
478,9499
481,9418
480,9449
479,9475
647,9384
488,9307
502,9469
689,9371
533,9420
532,9431
531,9441
601,65535
484,9372
508,9353
510,9371
509,9365
534,9404
482,9446
506,65535
606,9275
455,9530
429,9370
456,9502
457,9396
428,9390
458,9382
554,9586
594,65535
640,65535
639,65535
551,9462
681,65535
636,65535
635,65535
590,65535
778,9485
777,9505
485,9380
486,9342
462,9352
563,65535
885,9404
943,65535
564,9433
641,9515
504,9408
503,9422
501,9511
500,9566
561,65535
254,9385
350,9329
321,9361
319,9350
251,9394
375,9366
347,9376
687,9379
565,9393
539,9315
511,9352
536,9387
649,9331
603,9490
605,65535
733,9380
735,9349
489,9267
514,9281
461,9351
460,9381
459,9399
468,9222
154,9513
178,9470
203,9455
228,9425
402,9361
401,9375
505,9430
522,9459
451,65535
452,65535
477,65535
476,65535
483,9416
884,65535
431,9333
430,9375
454,65535
595,65535
395,9542
394,65535
422,65535
417,65535
390,9564
538,9310
567,9261
426,9455
397,9476
398,9442
499,65535
475,65535
497,65535
498,65535
311,9411
342,9443
345,9400
421,65535
515,9233
472,65535
448,65535
473,65535
474,65535
353,9358
381,9338
256,9421
290,9397
324,9380
380,9355
407,9340
253,9426
226,9451
201,65535
177,65535
824,65535
775,65535
826,9499
939,65535
936,65535
937,65535
880,9521
566,9380
2821,65535
2834,65535
2833,65535
2789,65535
2790,65535
2770,65535
2788,65535
2776,65535
2795,65535
2775,65535
2794,65535
2825,65535
2824,65535
2826,65535
2811,65535
2812,65535
2796,65535
2827,65535
2858,65535
2855,65535
2849,65535
2838,65535
2814,65535
2813,65535
2828,65535
2839,65535
2791,65535
2792,65535
2803,65535
2830,65535
2815,65535
2819,65535
2818,65535
2817,65535
2831,65535
2810,65535
2829,65535
2783,65535
2820,65535
2804,65535
2785,65535
2784,65535
2762,65535
2768,65535
2751,65535
2750,65535
2733,65535
2769,65535
2720,65535
2761,65535
2741,65535
2837,65535
2793,65535
2808,65535
2753,65535
2736,65535
2735,65535
2809,65535
2772,65535
2845,65535
2844,65535
2848,65535
2777,65535
2778,65535
2779,65535
2759,65535
2780,65535
2797,65535
2843,65535
2832,65535
2842,65535
2758,65535
2738,65535
2774,65535
2773,65535
2771,65535
2851,65535
2847,65535
2854,65535
2721,65535
2756,65535
2737,65535
2840,65535
2752,65535
2754,65535
2755,65535
2852,65535
2853,65535
2856,65535
2841,65535
2742,65535
2727,65535
2744,65535
2726,65535
2743,65535
2725,65535
2746,65535
2787,65535
2766,65535
2763,65535
2765,65535
2745,65535
2764,65535
2552,65535
2501,65535
2443,65535
2442,65535
2320,65535
2381,65535
2382,65535
2498,65535
2499,65535
2438,65535
2439,65535
2497,65535
2441,65535
2379,65535
2380,65535
2319,65535
2551,65535
2550,65535
2563,7557
2321,2638
2322,5151
2383,5140
2384,5454
2446,5496
2445,5503
2503,5522
2385,5487
2504,7678
2505,7700
2557,7724
2558,7749
2559,7773
2560,7737
2564,7905
2562,7625
2561,7665
2605,7680
2609,7952
2565,8028
2566,8044
2515,8055
2397,7053
2457,8085
2458,8107
2401,7256
2337,7193
2336,7162
2399,7144
2398,7115
2402,7292
2333,6976
2273,6958
2219,6946
2218,6931
2159,6906
2454,7264
2393,7230
2512,7524
2502,7516
2608,7943
2156,6804
2155,6776
2154,6764
2213,6755
2212,6736
2211,6655
2210,6652
2264,6630
2324,6624
2323,5167
2030,65535
2094,65535
2157,6845
2450,7921
2388,7970
2387,8038
2326,8075
2266,8110
2265,8129
2508,7892
2396,7030
2335,7021
2334,7003
2158,6875
2279,7345
2278,7309
2222,7278
2221,7260
2276,7242
2275,7209
2261,2616
2207,2523
2149,0
2554,5693
2599,5723
2633,5790
2664,6291
2689,6349
2690,6455
2691,6493
2692,6526
2152,6967
2089,7046
2088,7034
2025,7179
2603,65535
2602,65535
2556,65535
2693,7172
2671,8955
2670,8935
2694,8894
2553,65535
2665,65535
2705,65535
2710,65535
2668,65535
2639,65535
2463,65535
2521,65535
2572,65535
2451,7806
2390,7775
2391,7595
2392,7558
2215,7800
2268,65535
2093,65535
2092,65535
2028,65535
2024,8857
2150,6843
2086,6891
2209,6825
2023,6993
2087,6946
2148,8599
2262,5712
2327,65535
1560,9300
1630,9338
1631,9318
1559,9440
1629,9531
1558,9528
1634,9283
1633,9277
1482,9262
1481,9321
1699,9327
1700,9334
1701,9341
1563,9262
2070,9598
2008,9544
2009,9546
1959,9514
1958,9571
2006,65535
1957,65535
1956,65535
2193,65535
2132,65535
1912,9550
1911,9510
1865,9474
1866,9542
2007,9598
2069,65535
2010,9583
2011,65535
1961,9562
2072,9599
1913,65535
1867,65535
1962,9595
1914,65535
1915,65535
1909,65535
1636,9316
1635,9338
1564,9292
1702,9334
1637,9349
1638,9414
1565,9318
1486,9278
1760,9404
1704,9342
1703,9328
1763,9377
1762,9378
1817,9415
1705,9525
1863,9481
1815,9450
1759,9411
863,9128
758,9220
808,9174
982,8800
1036,8784
1099,8716
1100,8871
1166,9277
1167,9327
1237,9419
1238,9447
1375,9528
1308,9486
1309,9507
1236,9384
1235,9363
1101,8905
1037,8842
971,8912
1025,8902
1026,8885
1027,8905
1089,8869
720,9437
674,9486
864,9064
865,9072
919,8926
1024,8871
975,9042
974,9020
1028,8969
873,9121
925,9152
924,9173
917,8990
918,8966
623,9410
712,9266
713,9302
667,9308
622,9363
809,9160
719,9411
765,9368
972,8904
868,9281
869,9322
815,9348
920,9215
973,8934
981,8899
926,9098
927,9090
928,9038
1354,8692
1288,8718
1218,8750
1152,8786
1023,8843
1353,8677
1085,8816
1148,8718
1147,8705
1082,8700
772,9336
771,9293
819,9268
584,65535
628,65535
629,65535
1033,9311
978,9268
1031,9241
1030,9194
1029,9176
1091,9153
1035,9244
1034,9266
979,9295
1526,65535
1449,65535
1378,65535
1448,65535
1524,65535
1038,8889
1447,65535
1768,9506
1710,9470
1767,9553
391,9542
365,9503
339,9489
400,9405
393,65535
392,65535
396,9516
399,9482
443,65535
449,65535
450,65535
419,65535
414,65535
415,65535
387,65535
388,65535
389,65535
282,9420
281,9460
314,9490
313,9504
405,9295
411,65535
442,65535
255,9419
376,9373
373,9451
278,9436
275,65535
248,65535
335,65535
334,65535
306,65535
307,65535
176,65535
225,9451
320,9347
249,9436
287,9462
285,9367
776,9548
731,9559
315,9462
316,65535
204,9495
440,9233
439,9258
166,65535
269,65535
383,65535
1247,65535
1246,65535
1384,65535
1679,65535
1178,65535
1105,65535
1172,65535
1173,65535
1242,65535
1241,65535
1314,65535
1313,65535
1171,65535
1382,65535
1243,65535
1317,65535
1107,65535
1108,65535
1109,65535
1041,65535
1043,65535
1042,65535
1044,65535
1176,65535
1174,65535
1177,65535
1110,65535
985,65535
986,65535
932,65535
774,65535
730,9573
825,9555
728,65535
729,65535
727,65535
682,65535
684,65535
685,65535
732,65535
683,65535
2134,65535
2194,65535
2068,65535
2129,65535
1905,9587
1907,65535
1906,65535
1953,65535
2002,65535
2064,65535
2125,65535
2137,65535
2196,65535
2195,65535
1859,9511
1810,9501
1755,9441
2131,65535
2192,65535
1862,9502
1861,65535
1812,65535
1860,65535
1809,9494
1756,9402
1869,65535
1822,9504
1821,9479
1916,65535
1819,9478
1764,9420
1820,9553
1698,9345
1757,9390
1566,9368
1567,9340
1488,9313
1489,9346
1412,9277
1413,9300
1414,9273
1818,9468
1568,65535
1410,9241
2128,65535
2189,65535
2066,65535
2065,65535
2067,65535
1643,9439
1571,9384
1491,9367
2004,65535
2003,65535
1697,9416
2135,65535
2075,65535
1642,9414
1955,65535
2130,65535
2005,65535
1858,9515
1816,65535
1864,65535
1766,9460
1910,65535
1868,65535
2188,65535
2127,65535
1903,65535
2001,65535
2063,65535
2062,65535
1813,65535
1758,9393
1639,9525
1640,9482
1952,65535
2126,65535
1569,9436
1965,65535
1966,65535
2014,65535
1490,9319
1917,65535
1870,9548
1871,9562
1570,9414
1707,9504
2076,65535
2013,65535
1964,65535
1487,9294
1908,65535
2251,65535
2199,65535
2198,65535
2136,65535
1641,9461
1954,65535
1765,9528
1857,9536
2187,65535
1904,65535
1856,65535
1951,65535
1708,65535
245,65535
244,65535
357,65535
246,65535
247,65535
197,65535
223,65535
44,65535
43,65535
3,65535
23,65535
22,65535
63,65535
85,65535
84,65535
108,65535
149,65535
172,65535
296,65535
294,65535
355,65535
354,65535
326,65535
295,65535
291,65535
293,65535
260,65535
356,65535
441,65535
412,65535
329,65535
300,65535
148,65535
214,65535
146,65535
110,65535
262,65535
258,65535
292,65535
257,65535
235,65535
187,65535
212,65535
211,65535
186,65535
162,65535
161,65535
165,65535
189,65535
238,65535
237,65535
263,65535
265,65535
266,65535
267,65535
268,65535
26,65535
25,65535
105,65535
62,65535
83,65535
126,65535
175,65535
152,65535
151,65535
150,65535
103,65535
242,65535
191,65535
192,65535
217,65535
218,65535
145,65535
144,65535
167,65535
190,65535
219,65535
159,65535
185,65535
158,65535
188,65535
160,65535
143,65535
122,65535
75,65535
54,65535
198,65535
270,65535
221,65535
301,65535
302,65535
330,65535
331,65535
115,65535
133,65535
139,65535
134,65535
114,65535
48,65535
69,65535
92,65535
164,65535
4,65535
107,65535
129,65535
109,65535
125,65535
124,65535
127,65535
82,65535
67,65535
91,65535
93,65535
137,65535
113,65535
112,65535
136,65535
49,65535
72,65535
71,65535
406,9385
805,8920
858,8848
859,8952
967,8838
1142,8801
1080,8810
1022,8808
1079,8821
968,8845
1206,8794
915,8902
916,8913
914,8874
807,8988
911,65535
1078,8849
1207,8806
1278,8761
1277,8796
1344,8791
1415,8832
1492,8832
1345,8752
1346,8726
1208,8807
1209,8823
1143,8804
1144,8769
1145,8709
1417,8738
1493,8785
1494,8803
1572,8819
1081,8803
970,9304
408,9321
382,9338
437,9269
467,9250
409,9304
403,9353
432,9351
433,9356
404,9314
352,9392
351,9341
349,9356
317,9449
374,9375
346,9436
283,9393
410,9277
438,9293
465,9274
490,9252
491,9239
435,9308
436,9319
379,9428
323,9501
289,9531
377,9350
378,9329
592,65535
593,65535
552,65535
445,65535
424,9497
423,65535
416,65535
361,65535
362,65535
371,9458
372,9428
343,65535
344,65535
286,65535
227,9428
252,9423
284,9376
318,9412
250,9435
312,9445
340,9423
368,9462
369,65535
370,65535
341,65535
367,9526
308,65535
276,65535
277,65535
280,65535
310,9464
338,9511
366,65535
274,65535
305,65535
420,65535
363,65535
418,65535
550,9219
579,9234
576,9188
577,9198
578,9200
520,9226
618,9188
662,9189
619,9201
620,9208
621,9195
665,9177
666,9171
664,9190
580,9216
2260,65535
2257,65535
2206,65535
2146,65535
2314,65535
2313,65535
2312,65535
2373,65535
2256,65535
2205,65535
2434,65535
2435,65535
2375,65535
2376,65535
2433,65535
2491,65535
2490,65535
2492,65535
2546,65535
2597,65535
2596,65535
2544,65535
2145,65535
2082,65535
2020,65535
2494,65535
0,65535
11,65535
1052,65535
1053,65535
941,65535
1740,65535
1796,65535
1615,65535
1681,65535
1545,65535
1797,65535
1544,65535
1741,65535
1795,65535
1617,65535
1546,65535
1616,65535
1683,65535
1467,65535
1547,65535
1465,65535
1387,65535
1388,65535
1464,65535
1462,65535
1461,65535
1542,65535
1463,65535
1682,65535
1543,65535
1618,65535
1742,65535
1460,65535
1248,65535
1850,65535
1801,65535
1803,65535
882,9499
881,9506
938,65535
883,65535
940,65535
1998,65535
1902,65535
1807,65535
1691,65535
1694,65535
1693,65535
1749,65535
1752,65535
1753,65535
1627,65535
1628,65535
1557,65535
1479,9315
1402,9305
1808,9523
1946,65535
1947,65535
1948,65535
1997,65535
1855,65535
1690,65535
2060,65535
1949,65535
1950,65535
1751,65535
1692,65535
1999,65535
1901,65535
1900,65535
1852,65535
1853,65535
1805,65535
1750,65535
1854,65535
1806,65535
1748,65535
2061,65535
2000,65535
1804,65535
1899,65535
2884,65535
2892,65535
2883,65535
2876,65535
2874,65535
2882,65535
2877,65535
2911,65535
2905,65535
2906,65535
2896,65535
2887,65535
2881,65535
2880,65535
2888,65535
2902,65535
2903,65535
2907,65535
2912,65535
2895,65535
2894,65535
2875,65535
2885,65535
2893,65535
2904,65535
2865,65535
2866,65535
2909,65535
2913,65535
2886,65535
2878,65535
2869,65535
2871,65535
2872,65535
2879,65535
2870,65535
1330,9311
1331,9305
1401,9308
1262,9311
1263,9304
1478,9359
1403,9290
1261,9367
1480,9304
1264,9346
1390,65535
1389,65535
1319,65535
1251,65535
1250,65535
1285,8654
1284,8669
1214,8657
1146,8698
1505,8473
1504,8507
1582,8472
1581,8537
1713,8494
1771,8515
1654,8328
1653,8362
1651,8410
2096,7688
2033,7673
1972,7820
1923,7876
1922,7897
1874,7948
1873,8039
1919,7991
1829,8754
1579,8586
1424,8578
1711,8536
1348,8684
1419,8747
1359,8628
1429,8581
1428,8570
1421,8653
1577,8604
1499,8633
1230,8665
1365,8565
1511,8474
1300,8647
1366,8619
1512,8499
1716,8222
1503,8523
1276,8828
1347,8726
1349,8712
1645,8564
1578,8589
1770,8527
1715,8449
1150,8804
1217,8816
1149,8780
1580,8560
1352,8644
1502,8562
1825,8074
1718,8127
1717,8167
1872,8043
1656,8458
1648,8522
1712,8512
1213,8683
1212,8848
1084,8746
1420,8669
1281,8776
1282,8860
1587,8616
1586,8585
1585,8574
1652,8508
1427,8536
1975,7797
1977,7859
1932,7942
1931,7900
1426,8561
1422,8657
1425,8597
1583,8433
1501,8609
1283,8724
1286,8683
1215,8668
1211,8822
1210,8831
1083,8721
1655,8523
2220,7610
1355,65535
1772,8547
1436,8569
1435,8555
1589,8487
1163,8699
1735,8928
1791,8861
1841,8838
1840,8794
1219,8800
1220,8839
1647,8561
1646,8553
1279,8778
1714,8478
1575,8715
1576,8677
1498,8685
1573,8790
1496,8745
1497,8716
2177,65535
2176,65535
2294,65535
2293,65535
2237,65535
2236,65535
2364,65535
2302,65535
2301,65535
2245,65535
2056,65535
2057,65535
2055,65535
2184,65535
2120,65535
2244,65535
2538,65535
2537,65535
2591,65535
1940,65535
1989,65535
1990,65535
2539,65535
2482,65535
2483,65535
2424,65535
2121,65535
2119,65535
2050,65535
2049,65535
2048,65535
2185,65535
2243,65535
2299,65535
2241,65535
2485,65535
2542,65535
2353,65535
2292,65535
2419,65535
2478,65535
2479,65535
2536,65535
2484,65535
2486,65535
2354,65535
2416,65535
2242,65535
2355,65535
2300,65535
1991,65535
1992,65535
2477,65535
2534,65535
2535,65535
2588,65535
2587,65535
2630,65535
2051,65535
2116,65535
2175,65535
2586,65535
2541,65535
2178,65535
2179,65535
2240,65535
2239,65535
2238,65535
2052,65535
2053,65535
1987,65535
1988,65535
1939,65535
2594,65535
2593,65535
2358,65535
2357,65535
2420,65535
2247,65535
2427,65535
2428,65535
2181,65535
2180,65535
2417,65535
2590,65535
2297,65535
2361,65535
2362,65535
2423,65535
2422,65535
2174,65535
2356,65535
1941,65535
2365,65535
2112,65535
2047,65535
2182,65535
2359,65535
2533,65535
2295,65535
2115,65535
2632,65535
2631,65535
2186,65535
2298,65535
2360,65535
2235,65535
2291,65535
2487,65535
2246,65535
2425,65535
2117,65535
2543,65535
1893,65535
2421,65535
2476,65535
2592,65535
604,65535
