middle_point_id,reach_time_minutes
2835,65535
2836,65535
2806,65535
2822,65535
2823,65535
2807,65535
2846,65535
887,2724
888,2729
1326,2254
1185,2338
999,2826
1057,2745
1552,2014
1120,2398
1473,2059
944,2821
832,2720
1257,2303
1396,2179
1622,2035
1327,2344
1184,2374
1183,2392
1324,2135
1255,2213
1394,2082
1252,2243
1253,2285
1182,2722
1328,65535
1470,2075
1321,2190
1322,2293
1323,2165
1391,2166
1551,2032
1393,2124
1472,2098
1471,2051
1181,3374
1118,2759
1059,2359
1121,2355
1469,2101
1468,2143
1548,2122
1325,2211
1625,2031
1623,1996
1258,2367
1256,2771
791,2738
891,2425
703,2789
704,2802
660,2798
1553,2019
1624,2024
1554,2032
1474,2048
1475,2133
1550,2042
1549,2069
1320,2210
1466,2207
1541,2675
1318,2225
1249,2246
1186,2328
1003,2367
1002,2361
741,2708
788,2705
434,2900
697,2767
752,2830
1056,2809
1006,2452
907,2961
518,2855
1011,2903
1000,2374
1055,4502
997,4471
994,4367
996,4437
995,4421
991,3252
1112,65535
1114,4710
1051,4675
1398,2172
1395,2190
1001,2368
1811,2344
1960,2839
1769,3036
1823,3030
1329,65535
1332,2306
1259,4315
1200,2796
1199,2795
1140,2919
1141,2932
783,2730
1689,1973
1802,1820
1945,1662
2183,106
2418,437
1994,1619
1995,2348
2059,2017
1621,65535
1555,2136
1754,2201
1180,2783
1106,5830
933,6086
827,2850
2122,543
2124,2379
493,2862
519,2859
544,2848
545,2854
494,2866
470,2882
543,2844
469,2878
517,2857
574,2845
573,2832
495,2880
546,2861
613,2812
612,2823
492,2870
572,2839
571,2855
570,2837
610,2812
575,2906
547,2898
516,2872
611,2841
542,2856
569,2819
609,2802
548,2930
549,2959
1404,2351
1405,2725
1266,2756
1193,2807
743,2735
742,2717
747,2756
746,2741
745,2738
744,2755
790,2725
789,2720
839,2773
838,2696
738,2732
739,2723
740,2714
890,2435
834,2715
784,2713
889,2730
856,3020
855,3000
854,3008
853,3005
852,2996
910,2992
909,2981
908,2967
964,2953
965,2984
1020,3023
966,3003
963,2929
1021,3049
1271,2793
1270,2790
1339,2798
1338,2787
1071,2814
1072,2838
1135,2827
1408,2803
1337,2779
1269,2785
1268,2774
1136,2828
1075,2949
1077,2925
1076,2980
1019,2982
1018,2955
1074,2860
1137,2844
1272,2820
1274,2896
1275,2930
1205,2942
1204,2939
1273,2867
1198,2809
1197,2806
1341,2923
1134,2816
1133,2813
1069,2794
1132,2790
1073,2870
1203,2923
1202,2865
1201,2838
1139,2908
1267,2765
1138,2875
1340,2825
1196,2778
1342,2909
1409,2816
1485,2841
1407,2833
1561,2711
1632,2684
1484,2853
1483,2750
1562,2716
1194,2796
1130,2806
1195,2774
1335,2738
1129,2786
1066,2754
1128,2773
1067,2792
1131,2807
1334,2352
1336,2760
1265,2795
1333,2311
1406,2746
857,3528
803,3562
804,7039
860,7047
969,7000
913,6987
912,6925
861,7057
806,7100
659,2794
751,2813
658,2805
705,2806
702,2781
706,2823
753,2847
614,2802
701,2774
661,2827
616,2828
848,2867
796,2834
797,2859
798,2866
750,2805
707,2858
615,2801
748,2791
845,2824
846,2846
657,3732
749,2799
795,2819
617,2871
663,2876
794,2784
847,2864
849,2910
902,2875
901,2863
900,2874
793,2748
899,2836
898,2815
897,2785
844,2804
842,2758
841,2740
956,7079
792,2742
843,2780
840,2753
850,2917
903,2853
800,2906
755,2933
756,2983
710,3013
711,3058
962,2903
961,2896
904,2861
906,2959
851,2967
802,2953
801,2909
799,2883
959,2852
1014,2822
1013,2836
708,3740
709,3759
754,2887
757,3011
1017,2881
1016,2874
960,2844
905,2916
958,2838
957,7085
1070,2807
1015,2825
1012,2864
1068,2801
1005,2474
1004,2374
1060,2368
1063,2469
1065,2741
1127,2732
1062,2454
1124,2424
1123,2382
1125,2441
1188,2451
1122,2339
1058,2360
947,2404
946,2415
949,2376
945,2740
948,2392
1190,2793
1187,2432
951,2487
895,2722
952,2672
1009,2761
1008,2689
1010,2905
1007,2468
1061,2407
954,2800
896,2716
953,2697
1126,2709
1064,2716
1189,2488
955,7075
950,2725
892,2649
786,2702
836,2708
837,2676
787,2711
700,2789
655,2798
654,2799
653,2780
698,2774
699,2762
608,2789
696,2736
656,2795
833,2716
785,2696
835,2461
693,2729
894,2737
893,2707
1343,2903
1192,2353
1191,2470
828,2841
829,2834
780,2810
830,2828
779,2846
782,2731
529,2881
886,2748
596,2903
556,2913
598,2864
597,2881
526,2926
555,2966
525,2980
524,2996
523,2968
688,2830
607,2779
650,2769
651,2761
652,2770
737,2740
694,2737
695,2739
645,2810
646,2781
690,2761
600,2835
599,2849
781,2736
736,2750
558,2882
644,2827
643,2833
648,2756
692,2742
691,2745
513,2842
541,2875
540,2878
568,2814
530,2861
831,2754
559,2855
560,2850
642,2958
557,2910
496,2996
471,3027
444,3102
446,3057
528,2891
527,2931
562,2817
602,2784
734,2826
466,2917
464,2878
463,2896
478,3031
481,2932
480,2949
479,2999
647,2804
488,2862
502,2897
689,2788
533,2823
532,2844
531,2857
601,2799
484,2940
508,2877
510,2929
509,2901
534,2881
482,2947
506,2900
606,2825
455,3124
429,3002
456,3097
457,3077
428,3041
458,3012
554,3052
594,2991
640,2967
639,3069
551,2990
681,3035
636,3056
635,3077
590,3041
778,2855
777,2862
485,2966
486,2982
462,2951
563,2840
885,2773
943,2771
564,2928
641,2961
504,2914
503,2894
501,2957
500,3022
561,2838
254,3025
350,2964
321,3001
319,3009
251,3054
375,2980
347,2997
687,2839
565,2960
539,2862
511,2993
536,2969
649,2773
603,2841
605,3550
733,2847
735,2752
489,2873
514,2853
461,3010
460,3021
459,3041
468,2883
154,3205
178,3187
203,3165
228,3133
402,3007
401,3057
505,2905
522,3015
451,3167
452,3136
477,3065
476,3014
483,2986
884,3034
431,2964
430,2977
454,3160
595,2917
395,3179
394,3206
422,3279
417,3100
390,3141
538,2870
567,2811
426,3302
397,3117
398,3082
499,3151
475,3069
497,3054
498,3082
311,3076
342,3083
345,3040
421,3298
515,2910
472,3251
448,3220
473,3176
474,3102
353,2960
381,2954
256,3116
290,3040
324,2980
380,3003
407,2974
253,3063
226,3088
201,3101
177,3164
824,2936
775,2907
826,2869
939,2947
936,3238
937,3013
880,2981
566,2953
2821,65535
2834,65535
2833,65535
2789,65535
2790,65535
2770,65535
2788,65535
2776,65535
2795,65535
2775,65535
2794,65535
2825,65535
2824,65535
2826,65535
2811,65535
2812,65535
2796,65535
2827,65535
2858,65535
2855,65535
2849,65535
2838,65535
2814,65535
2813,65535
2828,65535
2839,65535
2791,65535
2792,65535
2803,65535
2830,65535
2815,65535
2819,65535
2818,65535
2817,65535
2831,65535
2810,65535
2829,65535
2783,65535
2820,65535
2804,65535
2785,65535
2784,65535
2762,65535
2768,65535
2751,65535
2750,65535
2733,65535
2769,65535
2720,65535
2761,65535
2741,65535
2837,65535
2793,65535
2808,65535
2753,65535
2736,65535
2735,65535
2809,65535
2772,65535
2845,65535
2844,65535
2848,65535
2777,65535
2778,65535
2779,65535
2759,65535
2780,65535
2797,65535
2843,65535
2832,65535
2842,65535
2758,65535
2738,65535
2774,65535
2773,65535
2771,65535
2851,65535
2847,65535
2854,65535
2721,65535
2756,65535
2737,65535
2840,65535
2752,65535
2754,65535
2755,65535
2852,65535
2853,65535
2856,65535
2841,65535
2742,65535
2727,65535
2744,65535
2726,65535
2743,65535
2725,65535
2746,65535
2787,65535
2766,65535
2763,65535
2765,65535
2745,65535
2764,65535
2552,65535
2501,65535
2443,65535
2442,65535
2320,65535
2381,65535
2382,65535
2498,65535
2499,65535
2438,65535
2439,65535
2497,65535
2441,65535
2379,65535
2380,65535
2319,65535
2551,65535
2550,65535
2563,7557
2321,7093
2322,7062
2383,7074
2384,7280
2446,7322
2445,7329
2503,7348
2385,7313
2504,7678
2505,7700
2557,7724
2558,7749
2559,7773
2560,7737
2564,7905
2562,7625
2561,7665
2605,7680
2609,7952
2565,8028
2566,8044
2515,8055
2397,6439
2457,8085
2458,8107
2401,6516
2337,6352
2336,6356
2399,6398
2398,6419
2402,6576
2333,6576
2273,6611
2219,6635
2218,6647
2159,6672
2454,7264
2393,7230
2512,7524
2502,7516
2608,7943
2156,6794
2155,6826
2154,6855
2213,6871
2212,6883
2211,6931
2210,6972
2264,6979
2324,7013
2323,7029
2030,65535
2094,65535
2157,6758
2450,7921
2388,7970
2387,8038
2326,8075
2266,8110
2265,7454
2508,7892
2396,6508
2335,6526
2334,6537
2158,6697
2279,8666
2278,8630
2222,8599
2221,8581
2276,8563
2275,6043
2261,7286
2207,7323
2149,65535
2554,7406
2599,7438
2633,7484
2664,9171
2689,9229
2690,9335
2691,9373
2692,9406
2152,6967
2089,7046
2088,7034
2025,7179
2603,65535
2602,65535
2556,65535
2693,65535
2671,65535
2670,65535
2694,65535
2553,65535
2665,65535
2705,65535
2710,65535
2668,65535
2639,65535
2463,6586
2521,6622
2572,6645
2451,7806
2390,7775
2391,7595
2392,7558
2215,7800
2268,65535
2093,65535
2092,65535
2028,65535
2024,8857
2150,8283
2086,8331
2209,8265
2023,8433
2087,8386
2148,8599
2262,7272
2327,65535
1560,2709
1630,2689
1631,2697
1559,2686
1629,2331
1558,2228
1634,2772
1633,2719
1482,2782
1481,2777
1699,2680
1700,2738
1701,2742
1563,2813
2070,2843
2008,2835
2009,2839
1959,2847
1958,2852
2006,2822
1957,2806
1956,2739
2193,2939
2132,2881
1912,2886
1911,2895
1865,3007
1866,3001
2007,2801
2069,2783
2010,2846
2011,2904
1961,2850
2072,2871
1913,2941
1867,3012
1962,2857
1914,2875
1915,2914
1909,2860
1636,2774
1635,2801
1564,2814
1702,2755
1637,2784
1638,2805
1565,2781
1486,2827
1760,2778
1704,2785
1703,2778
1763,2836
1762,2821
1817,2967
1705,2844
1863,2860
1815,2826
1759,2787
863,4808
758,4900
808,4854
982,5052
1036,5042
1099,4945
1100,5093
1166,5374
1167,5928
1237,5526
1238,5561
1375,5631
1308,5750
1309,5609
1236,5860
1235,5461
1101,5124
1037,5061
971,4592
1025,4582
1026,4565
1027,4585
1089,4549
720,5117
674,5166
864,4776
865,4752
919,4606
1024,4602
975,4722
974,4700
1028,4649
873,4930
925,4876
924,4853
917,4670
918,4646
623,5090
712,4946
713,4982
667,4988
622,5043
809,4840
719,5091
765,5048
972,4584
868,4961
869,5002
815,5028
920,4895
973,4614
981,5046
926,4955
927,4963
928,4987
1354,4437
1288,4461
1218,4517
1152,4502
1023,4629
1353,4421
1085,4617
1148,4425
1147,4418
1082,4390
772,5016
771,4973
819,4948
584,5325
628,5692
629,5663
1033,4991
978,4948
1031,4921
1030,4874
1029,4856
1091,4833
1035,5075
1034,5015
979,4975
1526,5750
1449,5788
1378,5816
1448,5739
1524,5717
1038,5108
1447,6180
1768,3032
1710,3068
1767,3083
391,3179
365,3144
339,3145
400,3043
393,3254
392,3230
396,3159
399,3100
443,3165
449,3369
450,3403
419,3192
414,3149
415,3113
387,3152
388,3161
389,3134
282,3120
281,3145
314,3121
313,3102
405,2935
411,3414
442,3373
255,3070
376,3163
373,3100
278,3085
275,3285
248,3375
335,3290
334,3267
306,3321
307,3310
176,3148
225,3104
320,3049
249,3148
287,3132
285,3056
776,2886
731,2899
315,3101
316,3083
204,3204
440,2898
439,2912
166,4785
269,4702
383,4640
1247,65535
1246,65535
1384,65535
1679,65535
1178,6048
1105,5846
1172,5853
1173,5864
1242,5901
1241,5930
1314,6149
1313,6055
1171,5913
1382,6255
1243,5946
1317,6336
1107,5891
1108,5899
1109,5956
1041,5860
1043,6156
1042,6147
1044,6210
1176,5949
1174,9103
1177,6001
1110,6009
985,5992
986,6035
932,6053
774,2930
730,2904
825,2952
728,2963
729,2921
727,2979
682,2981
684,2927
685,2908
732,2918
683,2962
2134,2964
2194,2973
2068,2731
2129,2760
1905,2233
1907,2670
1906,2310
1953,2174
2002,2295
2064,2328
2125,2349
2137,3399
2196,3177
2195,3131
1859,2308
1810,2335
1755,2445
2131,2860
2192,2898
1862,2861
1861,2815
1812,2771
1860,2727
1809,2178
1756,2615
1869,2932
1822,3002
1821,2951
1916,2970
1819,2885
1764,2861
1820,2890
1698,2650
1757,2669
1566,2815
1567,2818
1488,2874
1489,2922
1412,2919
1413,2925
1414,2929
1818,2895
1568,2868
1410,2880
2128,2751
2189,2763
2066,2701
2065,2690
2067,2714
1643,3028
1571,2978
1491,2977
2004,2731
2003,2348
1697,2775
2135,3034
2075,3093
1642,3004
1955,2704
2130,2920
2005,2808
1858,2262
1816,8488
1864,8481
1766,2982
1910,2901
1868,2922
2188,3115
2127,3084
1903,2386
2001,2404
2063,2742
2062,2302
1813,2853
1758,2709
1639,2855
1640,2881
1952,2150
2126,8570
1569,2891
1965,3222
1966,3268
2014,3218
1490,2942
1917,3025
1870,3061
1871,3075
1570,2925
1707,3018
2076,3110
2013,3216
1964,3260
1487,2876
1908,2883
2251,3681
2199,3625
2198,3488
2136,3083
1641,3025
1954,2746
1765,2991
1857,2336
2187,2365
1904,2390
1856,2338
1951,2088
1708,3228
245,8799
244,8782
357,8786
246,8914
247,8943
197,9037
223,9015
44,9379
43,9439
3,9575
23,9549
22,9538
63,9321
85,9263
84,9218
108,8718
149,8672
172,9063
296,8766
294,8814
355,8914
354,8946
326,9024
295,8923
291,8935
293,9057
260,8943
356,8974
441,8574
412,8597
329,8932
300,8876
148,8646
214,8884
146,8767
110,8848
262,8909
258,9322
292,9085
257,9387
235,8907
187,8807
212,8863
211,8890
186,8811
162,8785
161,8864
165,8763
189,8963
238,9044
237,9009
263,8945
265,8964
266,8942
267,8930
268,8770
26,9539
25,9507
105,65535
62,65535
83,65535
126,8885
175,9320
152,9254
151,9244
150,9203
103,8823
242,8716
191,8670
192,8721
217,8744
218,8797
145,8707
144,8791
167,8699
190,8677
219,8814
159,8911
185,8855
158,8968
188,8799
160,8876
143,65535
122,65535
75,65535
54,65535
198,9448
270,8811
221,8852
301,8909
302,8746
330,8773
331,8795
115,8847
133,8906
139,8803
134,8880
114,9404
48,65535
69,65535
92,9080
164,8873
4,65535
107,9225
129,9310
109,8750
125,8791
124,8765
127,65535
82,65535
67,65535
91,9248
93,9047
137,9182
113,9202
112,9160
136,65535
49,65535
72,65535
71,65535
406,3001
805,7090
858,6895
859,7036
967,3954
1142,4089
1080,6735
1022,6776
1079,6768
968,6891
1206,4046
915,7042
916,7077
914,7014
807,7129
911,8236
1078,6992
1207,4155
1278,4175
1277,4173
1344,4214
1415,4332
1492,4387
1345,4254
1346,4219
1208,4156
1209,4290
1143,4333
1144,4349
1145,4379
1417,4355
1493,4449
1494,4483
1572,4499
1081,7061
970,7264
408,2943
382,2982
437,2900
467,2930
409,2960
403,3029
432,3225
433,3056
404,3030
352,3105
351,3170
349,3037
317,3042
374,2989
346,3167
283,3092
410,2934
438,2945
465,2892
490,2899
491,2902
435,2941
436,2886
379,3062
323,3201
289,3150
377,2989
378,3011
592,3056
593,3027
552,2981
445,3077
424,3285
423,3233
416,3159
361,3218
362,3147
371,3172
372,3129
343,3185
344,3189
286,3243
227,3167
252,3087
284,3069
318,3051
250,3116
312,3107
340,3122
368,3161
369,3215
370,3162
341,3184
367,3175
308,3216
276,3196
277,3150
280,3138
310,3109
338,3197
366,3197
274,3352
305,3333
420,3249
363,3164
418,3256
550,7081
579,7104
576,7049
577,7061
578,7077
520,7057
618,7071
662,7101
619,7088
620,7101
621,7095
665,7077
666,7069
664,7097
580,7116
2260,65535
2257,65535
2206,65535
2146,65535
2314,65535
2313,65535
2312,65535
2373,65535
2256,65535
2205,65535
2434,65535
2435,65535
2375,65535
2376,65535
2433,65535
2491,65535
2490,65535
2492,65535
2546,65535
2597,65535
2596,65535
2544,65535
2145,65535
2082,65535
2020,65535
2494,65535
0,65535
11,65535
1052,4468
1053,4455
941,4445
1740,2448
1796,2490
1615,2311
1681,2389
1545,2206
1797,2761
1544,2265
1741,2681
1795,3336
1617,2170
1546,2195
1616,2217
1683,2249
1467,2154
1547,2141
1465,2214
1387,2364
1388,2329
1464,2349
1462,2504
1461,2530
1542,2613
1463,2460
1682,2649
1543,2405
1618,2162
1742,2814
1460,2754
1248,2742
1850,1834
1801,1833
1803,1834
882,2860
881,2879
938,2958
883,2853
940,7158
1998,1996
1902,2081
1807,2166
1691,1977
1694,2130
1693,2752
1749,1946
1752,2033
1753,2091
1627,2161
1628,2173
1557,2207
1479,2250
1402,2270
1808,2155
1946,1915
1947,1946
1948,1988
1997,1992
1855,2210
1690,1966
2060,2150
1949,2305
1950,2075
1751,2012
1692,2069
1999,2061
1901,2349
1900,2361
1852,2434
1853,2448
1805,2014
1750,2001
1854,2329
1806,2128
1748,1937
2061,2204
2000,2134
1804,1927
1899,2707
2884,65535
2892,65535
2883,65535
2876,65535
2874,65535
2882,65535
2877,65535
2911,65535
2905,65535
2906,65535
2896,65535
2887,65535
2881,65535
2880,65535
2888,65535
2902,65535
2903,65535
2907,65535
2912,65535
2895,65535
2894,65535
2875,65535
2885,65535
2893,65535
2904,65535
2865,65535
2866,65535
2909,65535
2913,65535
2886,65535
2878,65535
2869,65535
2871,65535
2872,65535
2879,65535
2870,65535
1330,2334
1331,2312
1401,2308
1262,2365
1263,2333
1478,2290
1403,2311
1261,2416
1480,2663
1264,2368
1390,2202
1389,2241
1319,2219
1251,2685
1250,2761
1285,4392
1284,4365
1214,4391
1146,4396
1505,4547
1504,4535
1582,4519
1581,4484
1713,4456
1771,4431
1654,4618
1653,4590
1651,4515
2096,5662
2033,5622
1972,5593
1923,5525
1922,5503
1874,5704
1873,5908
1919,4865
1829,6134
1579,4383
1424,4387
1711,4417
1348,4259
1419,4410
1359,4651
1429,4602
1428,4588
1421,4306
1577,4344
1499,4316
1230,4895
1365,4832
1511,4754
1300,4877
1366,4849
1512,4782
1716,4673
1503,4658
1276,6278
1347,4406
1349,4285
1645,4392
1578,4370
1770,4423
1715,4489
1150,4484
1217,4495
1149,4460
1580,4429
1352,4416
1502,4447
1825,4818
1718,4772
1717,4747
1872,4853
1656,4693
1648,4495
1712,4437
1213,4410
1212,4422
1084,4430
1420,4290
1281,4386
1282,4456
1587,4596
1586,4565
1585,4555
1652,4539
1427,4524
1975,5697
1977,5765
1932,5835
1931,6460
1426,4476
1422,4328
1425,4461
1583,4608
1501,4397
1283,4342
1286,4532
1215,4467
1211,4376
1210,4345
1083,4401
1655,4727
2220,6021
1355,5891
1772,4484
1436,4800
1435,4790
1589,4723
1163,4928
1735,6048
1791,5981
1841,5958
1840,5914
1219,4600
1220,4639
1647,4458
1646,4467
1279,4239
1714,4466
1575,4395
1576,4357
1498,4365
1573,4470
1496,4425
1497,4396
2177,362
2176,427
2294,487
2293,508
2237,468
2236,490
2364,338
2302,268
2301,249
2245,204
2056,465
2057,527
2055,341
2184,458
2120,839
2244,84
2538,539
2537,519
2591,556
1940,380
1989,364
1990,320
2539,562
2482,568
2483,537
2424,532
2121,1365
2119,213
2050,459
2049,481
2048,543
2185,502
2243,52
2299,269
2241,269
2485,499
2542,611
2353,554
2292,530
2419,428
2478,436
2479,453
2536,480
2484,554
2486,447
2354,478
2416,570
2242,77
2355,445
2300,398
1991,403
1992,458
2477,479
2534,514
2535,470
2588,535
2587,550
2630,590
2051,226
2116,115
2175,478
2586,65535
2541,682
2178,292
2179,221
2240,299
2239,370
2238,425
2052,270
2053,365
1987,448
1988,368
1939,374
2594,684
2593,656
2358,326
2357,369
2420,479
2247,661
2427,432
2428,490
2181,0
2180,64
2417,458
2590,535
2297,302
2361,526
2362,470
2423,505
2422,364
2174,571
2356,435
1941,402
2365,747
2112,499
2047,565
2182,41
2359,292
2533,811
2295,651
2115,170
2632,661
2631,600
2186,796
2298,129
2360,184
2235,1261
2291,1274
2487,670
2246,589
2425,726
2117,687
2543,697
1893,65535
2421,572
2476,486
2592,671
604,7066
