middle_point_id,reach_time_minutes
2835,65535
2836,65535
2806,65535
2822,65535
2823,65535
2807,65535
2846,65535
887,2004
888,1978
1326,1804
1185,1883
999,1970
1057,2161
1552,1474
1120,1914
1473,1519
944,2016
832,1970
1257,1823
1396,1939
1622,1468
1327,1898
1184,1915
1183,1930
1324,1655
1255,1671
1394,1602
1252,1787
1253,1780
1182,1785
1328,65535
1470,1595
1321,1794
1322,1735
1323,1685
1391,1807
1551,1492
1393,1660
1472,1498
1471,1549
1181,1934
1118,1799
1059,1880
1121,1874
1469,1621
1468,1820
1548,1642
1325,1777
1625,1519
1623,1458
1258,1827
1256,1874
791,1949
891,1909
703,1977
704,1971
660,1973
1553,1481
1624,1509
1554,1490
1474,1500
1475,1501
1550,1502
1549,1589
1320,1838
1466,1838
1541,2200
1318,1885
1249,1908
1186,1848
1003,1887
1002,1883
741,1943
788,1935
434,2105
697,1971
752,1990
1056,1992
1006,1886
907,1992
518,2010
1011,1858
1000,1894
1055,4502
997,4471
994,4367
996,4437
995,4421
991,3252
1112,65535
1114,4710
1051,4675
1398,1692
1395,1937
1001,1887
1811,1524
1960,1399
1769,1983
1823,1968
1329,65535
1332,1664
1259,2216
1200,1850
1199,1848
1140,1998
1141,2002
783,1961
1689,1472
1802,1580
1945,1916
2183,2398
2418,2847
1994,1952
1995,2348
2059,1477
1621,65535
1555,1656
1754,1421
1180,2783
1106,5830
933,6086
827,2054
2122,2813
2124,620
493,2022
519,2015
544,2007
545,2009
494,2021
470,2042
543,2011
469,2026
517,2020
574,2011
573,1999
495,2039
546,2014
613,1989
612,1992
492,2029
572,2005
571,2013
570,2024
610,2010
575,2065
547,2058
516,2032
611,2001
542,2027
569,2050
609,2013
548,2090
549,2119
1404,1699
1405,1714
1266,1736
1193,1821
743,1951
742,1940
747,1959
746,1960
745,1969
744,1948
790,1944
789,1938
839,1933
838,1929
738,1967
739,1968
740,1953
890,1930
834,1957
784,1952
889,1937
856,2159
855,2125
854,2111
853,2096
852,2015
910,2109
909,2096
908,1998
964,1991
965,2024
1020,2063
966,2043
963,1969
1021,2089
1271,1852
1270,1851
1339,1840
1338,1827
1071,1854
1072,1878
1135,1850
1408,1839
1337,1778
1269,1825
1268,1807
1136,1868
1075,1989
1077,1998
1076,2020
1019,2022
1018,1995
1074,1900
1137,1884
1272,1860
1274,1936
1275,1970
1205,2013
1204,1979
1273,1908
1198,1819
1197,1786
1341,1943
1134,1811
1133,1807
1069,1827
1132,1824
1073,1887
1203,1963
1202,1905
1201,1878
1139,1948
1267,1758
1138,1915
1340,1873
1196,1775
1342,1949
1409,1847
1485,1799
1407,1788
1561,1695
1632,1679
1484,1778
1483,1730
1562,1700
1194,1805
1130,1822
1195,1786
1335,1723
1129,1832
1066,1838
1128,1871
1067,1837
1131,1817
1334,1684
1336,1738
1265,1775
1333,1659
1406,1734
857,2268
803,3562
804,7039
860,7047
969,7000
913,6987
912,6925
861,7057
806,7100
659,1974
751,1968
658,1987
705,1976
702,1984
706,1983
753,1984
614,1984
701,1966
661,1982
616,1988
848,1921
796,1961
797,1968
798,1958
750,1974
707,2001
615,2021
748,2004
845,1996
846,1933
657,2026
749,1986
795,1995
617,2031
663,2036
794,2024
847,1922
849,1950
902,1922
901,1952
900,1966
793,1962
899,2031
898,2010
897,1975
844,2000
842,1953
841,1945
956,2247
792,1951
843,1999
840,1944
850,1989
903,1905
800,2006
755,2033
756,2143
710,2173
711,2218
962,1943
961,1936
904,1920
906,1981
851,1988
802,2030
801,2009
799,1983
959,1892
1014,1848
1013,1840
708,2263
709,2238
754,2021
757,2291
1017,1901
1016,1882
960,1884
905,1956
958,1880
957,1987
1070,1814
1015,1865
1012,1880
1068,1839
1005,1897
1004,1907
1060,1882
1063,1903
1065,1892
1127,1888
1062,1919
1124,1936
1123,1904
1125,1937
1188,1893
1122,1869
1058,1880
947,1925
946,1939
949,1902
945,1956
948,1897
1190,1973
1187,1872
951,1882
895,1900
952,1878
1009,1848
1008,1865
1010,1841
1007,1876
1061,1923
954,2023
896,1927
953,1901
1126,1923
1064,1890
1189,1953
955,2261
950,1893
892,1912
786,1934
836,1930
837,1925
787,1932
700,1970
655,1997
654,1974
653,1996
698,1968
699,2004
608,2009
696,1972
656,1994
833,1965
785,1946
835,1952
693,1968
894,1905
893,1932
1343,1943
1192,1738
1191,1775
828,2051
829,2029
780,2030
830,2057
779,2021
782,1967
529,2074
886,1992
596,2091
556,2106
598,2053
597,2063
526,2120
555,2128
525,2159
524,2175
523,2164
688,2012
607,2003
650,1968
651,1964
652,1988
737,1976
694,1956
695,1951
645,2027
646,2023
690,1996
600,2031
599,2039
781,1971
736,1981
558,2070
644,2029
643,2023
648,2010
692,1977
691,1989
513,2067
541,2037
540,2075
568,2036
530,2089
831,1974
559,2094
560,2096
642,2121
557,2091
496,2201
471,2217
444,2305
446,2252
528,2081
527,2094
562,2038
602,2035
734,2008
466,2092
464,2114
463,2128
478,2214
481,2212
480,2208
479,2189
647,2066
488,2082
502,2089
689,2008
533,2044
532,2065
531,2076
601,2046
484,2160
508,2109
510,2149
509,2120
534,2101
482,2246
506,2119
606,2039
455,2231
429,2196
456,2302
457,2282
428,2253
458,2228
554,2192
594,2230
640,2127
639,2186
551,2186
681,2327
636,2315
635,2289
590,2231
778,2049
777,2060
485,2180
486,2172
462,2152
563,2072
885,2024
943,2771
564,2105
641,2121
504,2110
503,2102
501,2122
500,2170
561,2070
254,2245
350,2187
321,2217
319,2211
251,2253
375,2166
347,2181
687,2029
565,2136
539,2077
511,2210
536,2171
649,2023
603,2061
605,3550
733,2027
735,1997
489,2084
514,2080
461,2778
460,2754
459,2729
468,2043
154,2885
178,2840
203,2825
228,2295
402,2193
401,2258
505,2125
522,2205
451,2849
452,2332
477,2270
476,2290
483,2216
884,2134
431,2164
430,2175
454,2783
595,2137
395,2402
394,2689
422,2809
417,2316
390,2362
538,2050
567,2031
426,2789
397,2285
398,2306
499,2973
475,2914
497,2252
498,2234
311,2234
342,2243
345,2200
421,2727
515,2070
472,2856
448,2887
473,2912
474,2957
353,2158
381,2138
256,2221
290,2197
324,2180
380,2155
407,2145
253,2799
226,2815
201,2840
177,2859
824,2096
775,2067
826,2059
939,2107
936,3238
937,2135
880,2169
566,2163
2821,65535
2834,65535
2833,65535
2789,65535
2790,65535
2770,65535
2788,65535
2776,65535
2795,65535
2775,65535
2794,65535
2825,65535
2824,65535
2826,65535
2811,65535
2812,65535
2796,65535
2827,65535
2858,65535
2855,65535
2849,65535
2838,65535
2814,65535
2813,65535
2828,65535
2839,65535
2791,65535
2792,65535
2803,65535
2830,65535
2815,65535
2819,65535
2818,65535
2817,65535
2831,65535
2810,65535
2829,65535
2783,65535
2820,65535
2804,65535
2785,65535
2784,65535
2762,65535
2768,65535
2751,65535
2750,65535
2733,65535
2769,65535
2720,65535
2761,65535
2741,65535
2837,65535
2793,65535
2808,65535
2753,65535
2736,65535
2735,65535
2809,65535
2772,65535
2845,65535
2844,65535
2848,65535
2777,65535
2778,65535
2779,65535
2759,65535
2780,65535
2797,65535
2843,65535
2832,65535
2842,65535
2758,65535
2738,65535
2774,65535
2773,65535
2771,65535
2851,65535
2847,65535
2854,65535
2721,65535
2756,65535
2737,65535
2840,65535
2752,65535
2754,65535
2755,65535
2852,65535
2853,65535
2856,65535
2841,65535
2742,65535
2727,65535
2744,65535
2726,65535
2743,65535
2725,65535
2746,65535
2787,65535
2766,65535
2763,65535
2765,65535
2745,65535
2764,65535
2552,65535
2501,65535
2443,65535
2442,65535
2320,65535
2381,65535
2382,65535
2498,65535
2499,65535
2438,65535
2439,65535
2497,65535
2441,65535
2379,65535
2380,65535
2319,65535
2551,65535
2550,65535
2563,7557
2321,7093
2322,7062
2383,7074
2384,7280
2446,7322
2445,7329
2503,7348
2385,7313
2504,7678
2505,7700
2557,7724
2558,7749
2559,7773
2560,7737
2564,7905
2562,7625
2561,7665
2605,7680
2609,7952
2565,8028
2566,8044
2515,8055
2397,6439
2457,8085
2458,8107
2401,6516
2337,6352
2336,6356
2399,6398
2398,6419
2402,6576
2333,6576
2273,6611
2219,6635
2218,6647
2159,6672
2454,7264
2393,7230
2512,7524
2502,7516
2608,7943
2156,6794
2155,6826
2154,6855
2213,6871
2212,6883
2211,6931
2210,6972
2264,6979
2324,7013
2323,7029
2030,65535
2094,65535
2157,6758
2450,7921
2388,7970
2387,8038
2326,8075
2266,8110
2265,7454
2508,7892
2396,6508
2335,6526
2334,6537
2158,6697
2279,8666
2278,8630
2222,8599
2221,8581
2276,8563
2275,4479
2261,7286
2207,7323
2149,65535
2554,7406
2599,7438
2633,7484
2664,9171
2689,9229
2690,9335
2691,9373
2692,9406
2152,6967
2089,7046
2088,7034
2025,7179
2603,65535
2602,65535
2556,65535
2693,65535
2671,65535
2670,65535
2694,65535
2553,65535
2665,65535
2705,65535
2710,65535
2668,65535
2639,65535
2463,6586
2521,6622
2572,6645
2451,7806
2390,7775
2391,7595
2392,7558
2215,7800
2268,65535
2093,65535
2092,65535
2028,65535
2024,8857
2150,8283
2086,8331
2209,8265
2023,8433
2087,8386
2148,8599
2262,7272
2327,65535
1560,1703
1630,1703
1631,1730
1559,1701
1629,1689
1558,1566
1634,1789
1633,1694
1482,1760
1481,1716
1699,1650
1700,1669
1701,1683
1563,1740
2070,1403
2008,1395
2009,1399
1959,1407
1958,1412
2006,1406
1957,1415
1956,1446
2193,1499
2132,1441
1912,1446
1911,1455
1865,1648
1866,1561
2007,1361
2069,1343
2010,1406
2011,1464
1961,1410
2072,1431
1913,1501
1867,1572
1962,1417
1914,1435
1915,1474
1909,1420
1636,1789
1635,1821
1564,1764
1702,1743
1637,1807
1638,1882
1565,1821
1486,1871
1760,1652
1704,1827
1703,1813
1763,1854
1762,1837
1817,1884
1705,1903
1863,1526
1815,1614
1759,1644
863,3248
758,3341
808,3292
982,3463
1036,3470
1099,3505
1100,3533
1166,3934
1167,4429
1237,4086
1238,4121
1375,4191
1308,4260
1309,4169
1236,4387
1235,4021
1101,3564
1037,3501
971,3044
1025,3027
1026,3042
1027,3055
1089,3068
720,3304
674,3350
864,3130
865,3151
919,3046
1024,2991
975,3165
974,3135
1028,3090
873,3490
925,3436
924,3413
917,3110
918,3086
623,3525
712,3397
713,3430
667,3435
622,3493
809,3278
719,3278
765,3239
972,3076
868,3188
869,3200
815,3219
920,3334
973,3121
981,3414
926,3515
927,3523
928,3547
1354,2997
1288,2981
1218,2957
1152,3026
1023,2955
1353,2981
1085,2935
1148,2865
1147,2858
1082,2809
772,3576
771,3533
819,3508
584,3424
628,3391
629,3380
1033,3311
978,3266
1031,3239
1030,3193
1029,3176
1091,3153
1035,3392
1034,3335
979,3293
1526,4310
1449,4348
1378,4376
1448,4299
1524,4277
1038,3548
1447,4340
1768,1976
1710,1994
1767,1987
391,2342
365,2303
339,2289
400,2266
393,2830
392,2814
396,2328
399,2282
443,2911
449,2826
450,2793
419,2799
414,2952
415,2859
387,2852
388,2845
389,2790
282,2345
281,2306
314,2324
313,2304
405,2125
411,3154
442,3113
255,2278
376,2173
373,2251
278,2245
275,2791
248,2826
335,2860
334,2864
306,2828
307,2816
176,2875
225,2334
320,2765
249,2826
287,2262
285,2761
776,2062
731,2075
315,2262
316,2793
204,2898
440,2040
439,2058
166,3345
269,3262
383,3200
1247,65535
1246,65535
1384,65535
1679,65535
1178,6048
1105,5846
1172,5853
1173,5864
1242,5901
1241,5930
1314,6149
1313,6055
1171,5913
1382,6255
1243,5946
1317,6336
1107,5891
1108,5899
1109,5956
1041,5860
1043,6156
1042,6147
1044,6210
1176,5949
1174,9103
1177,6001
1110,6009
985,5992
986,6035
932,6053
774,2090
730,2072
825,2112
728,2097
729,2081
727,2791
682,2101
684,2087
685,2098
732,2078
683,2127
2134,1524
2194,1533
2068,1291
2129,1320
1905,1471
1907,1472
1906,1520
1953,806
2002,660
2064,635
2125,602
2137,1959
2196,1737
2195,1691
1859,1509
1810,1518
1755,1712
2131,1420
2192,1458
1862,1656
1861,1604
1812,1561
1860,1517
1809,1398
1756,1607
1869,1951
1822,1975
1821,1959
1916,1877
1819,1907
1764,1887
1820,1911
1698,1635
1757,1591
1566,1816
1567,1860
1488,1909
1489,1952
1412,1975
1413,1971
1414,1957
1818,1926
1568,1897
1410,1930
2128,1311
2189,1323
2066,782
2065,806
2067,1274
1643,2036
1571,2022
1491,1970
2004,771
2003,652
1697,1720
2135,1594
2075,1653
1642,2037
1955,1455
2130,1480
2005,1545
1858,1481
1816,8488
1864,8481
1766,1948
1910,1505
1868,1927
2188,1675
2127,1644
1903,1505
2001,667
2063,1302
2062,1314
1813,1856
1758,1601
1639,1918
1640,1960
1952,1256
2126,8570
1569,2033
1965,1851
1966,1837
2014,1778
1490,1984
1917,1918
1870,1963
1871,2014
1570,2044
1707,1964
2076,1670
2013,1776
1964,1820
1487,1933
1908,1537
2251,3681
2199,3625
2198,3488
2136,1643
1641,1993
1954,1528
1765,1905
1857,1478
2187,0
1904,1509
1856,1371
1951,1294
1708,2763
245,8799
244,8782
357,8786
246,8914
247,8943
197,9037
223,9015
44,9379
43,9439
3,9575
23,9549
22,9538
63,9321
85,9263
84,9218
108,8718
149,8672
172,9063
296,8766
294,8814
355,8914
354,8946
326,9024
295,8923
291,8935
293,9057
260,8943
356,8974
441,8574
412,8597
329,8932
300,8876
148,8646
214,8884
146,8767
110,8848
262,8909
258,9322
292,9085
257,9387
235,8907
187,8807
212,8863
211,8890
186,8811
162,8785
161,8864
165,8763
189,8963
238,9044
237,9009
263,8945
265,8964
266,8942
267,8930
268,8770
26,9539
25,9507
105,65535
62,65535
83,65535
126,8885
175,9320
152,9254
151,9244
150,9203
103,8823
242,8716
191,8670
192,8721
217,8744
218,8797
145,8707
144,8791
167,8699
190,8677
219,8814
159,8911
185,8855
158,8968
188,8799
160,8876
143,65535
122,65535
75,65535
54,65535
198,9448
270,8811
221,8852
301,8909
302,8746
330,8773
331,8795
115,8847
133,8906
139,8803
134,8880
114,9404
48,65535
69,65535
92,9080
164,8873
4,65535
107,9225
129,9310
109,8750
125,8791
124,8765
127,65535
82,65535
67,65535
91,9248
93,9047
137,9182
113,9202
112,9160
136,65535
49,65535
72,65535
71,65535
406,2185
805,7090
858,6895
859,7036
967,2514
1142,2649
1080,6735
1022,6776
1079,6768
968,6891
1206,2606
915,7042
916,7077
914,7014
807,7129
911,8236
1078,6992
1207,2664
1278,2708
1277,2711
1344,2731
1415,2772
1492,2827
1345,2788
1346,2758
1208,2656
1209,2736
1143,2773
1144,2789
1145,2804
1417,2784
1493,2844
1494,2863
1572,2878
1081,7061
970,7264
408,2121
382,2138
437,2098
467,2089
409,2104
403,2214
432,2212
433,2156
404,2184
352,2192
351,2195
349,2786
317,2249
374,2175
346,2236
283,2317
410,2077
438,2093
465,2098
490,2063
491,2062
435,2135
436,2119
379,2228
323,2301
289,2331
377,2215
378,2162
592,2786
593,2757
552,2201
445,2296
424,2849
423,2805
416,2850
361,2815
362,2785
371,2258
372,2228
343,2787
344,2804
286,2896
227,2808
252,2318
284,2284
318,2268
250,2880
312,2245
340,2282
368,2321
369,2356
370,2852
341,2793
367,2326
308,2827
276,2771
277,2751
280,2873
310,2264
338,2311
366,2820
274,2810
305,3012
420,2799
363,2772
418,2773
550,7081
579,7104
576,7049
577,7061
578,7077
520,7057
618,7071
662,7101
619,7088
620,7101
621,7095
665,7077
666,7069
664,7097
580,7116
2260,65535
2257,65535
2206,65535
2146,65535
2314,65535
2313,65535
2312,65535
2373,65535
2256,65535
2205,65535
2434,65535
2435,65535
2375,65535
2376,65535
2433,65535
2491,65535
2490,65535
2492,65535
2546,65535
2597,65535
2596,65535
2544,65535
2145,65535
2082,65535
2020,65535
2494,65535
0,65535
11,65535
1052,4468
1053,4455
941,4445
1740,2071
1796,2082
1615,1936
1681,1997
1545,1824
1797,2020
1544,1875
1741,1988
1795,2170
1617,1796
1546,1807
1616,1875
1683,1908
1467,1835
1547,1775
1465,1845
1387,1915
1388,1895
1464,1906
1462,2059
1461,2080
1542,2144
1463,2023
1682,1953
1543,1983
1618,1788
1742,2080
1460,2246
1248,2021
1850,1612
1801,1598
1803,1546
882,2059
881,2069
938,2118
883,2079
940,7158
1998,1370
1902,1320
1807,1336
1691,1431
1694,1484
1693,1492
1749,1476
1752,1368
1753,1398
1627,1512
1628,1536
1557,1558
1479,1603
1402,1625
1808,1375
1946,1555
1947,1490
1948,1477
1997,1384
1855,1328
1690,1466
2060,1390
1949,1439
1950,1361
1751,1396
1692,1419
1999,1366
1901,1790
1900,1817
1852,2085
1853,1964
1805,1586
1750,1448
1854,1730
1806,1528
1748,1507
2061,1340
2000,1393
1804,1786
1899,2105
2884,65535
2892,65535
2883,65535
2876,65535
2874,65535
2882,65535
2877,65535
2911,65535
2905,65535
2906,65535
2896,65535
2887,65535
2881,65535
2880,65535
2888,65535
2902,65535
2903,65535
2907,65535
2912,65535
2895,65535
2894,65535
2875,65535
2885,65535
2893,65535
2904,65535
2865,65535
2866,65535
2909,65535
2913,65535
2886,65535
2878,65535
2869,65535
2871,65535
2872,65535
2879,65535
2870,65535
1330,1715
1331,1662
1401,1642
1262,1703
1263,1697
1478,1677
1403,1634
1261,1806
1480,1667
1264,1723
1390,1829
1389,1856
1319,1845
1251,1862
1250,1948
1285,2900
1284,2886
1214,2858
1146,2822
1505,3107
1504,3041
1582,3079
1581,3007
1713,2986
1771,2968
1654,3118
1653,3091
1651,3043
2096,4222
2033,4182
1972,4153
1923,4085
1922,4063
1874,3757
1873,3470
1919,3423
1829,6134
1579,2943
1424,2947
1711,2960
1348,2784
1419,2804
1359,3211
1429,3162
1428,3148
1421,2861
1577,2895
1499,2868
1230,3455
1365,3392
1511,3314
1300,3437
1366,3409
1512,3342
1716,3176
1503,3229
1276,2738
1347,2768
1349,2816
1645,2952
1578,2930
1770,2964
1715,3019
1150,2923
1217,2937
1149,2899
1580,2989
1352,2976
1502,3007
1825,3376
1718,3331
1717,3305
1872,3409
1656,3220
1648,2995
1712,2972
1213,2848
1212,2829
1084,2870
1420,2850
1281,2774
1282,2835
1587,3214
1586,3181
1585,3170
1652,3138
1427,3316
1975,4257
1977,4325
1932,4395
1931,5020
1426,3036
1422,2878
1425,3021
1583,3107
1501,2965
1283,2876
1286,2923
1215,2908
1211,2805
1210,2779
1083,2841
1655,3209
2220,4457
1355,5891
1772,2977
1436,3360
1435,3350
1589,3283
1163,3488
1735,4608
1791,4541
1841,4518
1840,4474
1219,3040
1220,3079
1647,2981
1646,2973
1279,2726
1714,2996
1575,2955
1576,2917
1498,2925
1573,2967
1496,2985
1497,2956
2177,2965
2176,3035
2294,2952
2293,3071
2237,3012
2236,3041
2364,2813
2302,2753
2301,2675
2245,2577
2056,2707
2057,2793
2055,2686
2184,2738
2120,2744
2244,2658
2538,2998
2537,2979
2591,3095
1940,2870
1989,2878
1990,2814
2539,2998
2482,2989
2483,2951
2424,2847
2121,2805
2119,2618
2050,2927
2049,3005
2048,3423
2185,2771
2243,2497
2299,2711
2241,2660
2485,3029
2542,3084
2353,3043
2292,2950
2419,2837
2478,2884
2479,2919
2536,2946
2484,2990
2486,2983
2354,2882
2416,3059
2242,2705
2355,2920
2300,2718
1991,2818
1992,2825
2477,2875
2534,2896
2535,3011
2588,2916
2587,2930
2630,2981
2051,2739
2116,2633
2175,3068
2586,65535
2541,3151
2178,2940
2179,2743
2240,2690
2239,2914
2238,2984
2052,2870
2053,2836
1987,3110
1988,2958
1939,2982
2594,3101
2593,3086
2358,2804
2357,2814
2420,2870
2247,2866
2427,2956
2428,2978
2181,2537
2180,2586
2417,2864
2590,3076
2297,2699
2361,2891
2362,2774
2423,2862
2422,2827
2174,3298
2356,2925
1941,2859
2365,2990
2112,3303
2047,3445
2182,2676
2359,2753
2533,3691
2295,3016
2115,2706
2632,3136
2631,3075
2186,2923
2298,2785
2360,2809
2235,3261
2291,3274
2487,3205
2246,2798
2425,3606
2117,2930
2543,3158
1893,65535
2421,2962
2476,2880
2592,3134
604,7066
