middle_point_id,reach_time_minutes
2835,65535
2836,65535
2806,65535
2822,65535
2823,65535
2807,65535
2846,65535
887,2769
888,2747
1326,2849
1185,2785
999,2810
1057,2899
1552,2974
1120,2754
1473,3120
944,2821
832,2738
1257,2836
1396,3124
1622,2995
1327,3784
1184,2800
1183,2806
1324,2911
1255,2991
1394,3042
1252,2935
1253,2927
1182,2894
1328,65535
1470,3035
1321,2964
1322,2961
1323,3125
1391,3007
1551,2992
1393,3084
1472,3118
1471,3011
1181,4334
1118,2939
1059,2690
1121,2720
1469,3208
1468,3042
1548,3105
1325,2875
1625,2932
1623,2961
1258,2799
1256,2954
791,2599
891,2709
703,2557
704,2551
660,2555
1553,2979
1624,2947
1554,2992
1474,3008
1475,3361
1550,3002
1549,3029
1320,3010
1466,3044
1541,4600
1318,3079
1249,3101
1186,2775
1003,2694
1002,2695
741,2685
788,2641
434,2675
697,2650
752,2552
1056,2832
1006,2636
907,2421
518,2590
1011,2605
1000,2733
1055,4502
997,4471
994,4365
996,4437
995,4421
991,4212
1112,65535
1114,4452
1051,4415
1398,3852
1395,3150
1001,2709
1811,2869
1960,3070
1769,2907
1823,2916
1329,65535
1332,2742
1259,65535
1200,2572
1199,2573
1140,2499
1141,2497
783,2726
1689,3019
1802,3080
1945,3241
2183,4798
2418,65535
1994,3275
1995,3308
2059,3370
1621,65535
1555,2887
1754,3030
1180,3743
1106,65535
933,65535
827,2853
2122,65535
2124,3074
493,2607
519,2599
544,2586
545,2591
494,2608
470,2630
543,2597
469,2614
517,2595
574,2595
573,2572
495,2616
546,2597
613,2569
612,2583
492,2613
572,2585
571,2599
570,2608
610,2630
575,2568
547,2610
516,2738
611,2601
542,2611
569,2650
609,2634
548,2606
549,2609
1404,2717
1405,2652
1266,2639
1193,2687
743,2669
742,2660
747,2590
746,2593
745,2603
744,2618
790,2623
789,2626
839,2654
838,2664
738,2722
739,2721
740,2702
890,2736
834,2744
784,2739
889,2747
856,2456
855,2421
854,2438
853,2449
852,2447
910,2409
909,2396
908,2422
964,2418
965,2411
1020,2423
966,2360
963,2449
1021,2319
1271,2575
1270,2576
1339,2587
1338,2600
1071,2545
1072,2529
1135,2558
1408,2632
1337,2617
1269,2594
1268,2620
1136,2588
1075,2480
1077,2492
1076,2454
1019,2447
1018,2475
1074,2552
1137,2604
1272,2580
1274,2626
1275,2667
1205,2612
1204,2579
1273,2615
1198,2591
1197,2685
1341,2598
1134,2580
1133,2586
1069,2614
1132,2630
1073,2516
1203,2563
1202,2622
1201,2598
1139,2502
1267,2626
1138,2635
1340,2593
1196,2654
1342,2624
1409,2642
1485,2691
1407,2711
1561,2767
1632,2779
1484,2735
1483,2731
1562,2760
1194,2651
1130,2647
1195,2652
1335,2643
1129,2670
1066,2643
1128,2711
1067,2621
1131,2639
1334,2764
1336,2654
1265,2671
1333,2739
1406,2683
857,2386
803,2363
804,2409
860,2358
969,2338
913,2323
912,2315
861,2368
806,2404
659,2557
751,2540
658,2568
705,2554
702,2564
706,2562
753,2518
614,2562
701,2578
661,2563
616,2570
848,2490
796,2525
797,2509
798,2498
750,2544
707,2566
615,2561
748,2580
845,2556
846,2533
657,2626
749,2573
795,2562
617,2585
663,2565
794,2604
847,2522
849,2453
902,2528
901,2552
900,2566
793,2608
899,2628
898,2634
897,2635
844,2600
842,2615
841,2603
956,2612
792,2600
843,2648
840,2645
850,2442
903,2507
800,2466
755,2483
756,2503
710,2533
711,2578
962,2502
961,2536
904,2488
906,2426
851,2435
802,2458
801,2475
799,2471
959,2552
1014,2564
1013,2592
708,2694
709,2540
754,2501
757,2531
1017,2499
1016,2510
960,2527
905,2441
958,2598
957,2599
1070,2572
1015,2549
1012,2603
1068,2624
1005,2647
1004,2678
1060,2685
1063,2659
1065,2672
1127,2689
1062,2658
1124,2724
1123,2712
1125,2681
1188,2751
1122,2741
1058,2697
947,2722
946,2768
949,2684
945,2763
948,2704
1190,2738
1187,2773
951,2632
895,2620
952,2642
1009,2631
1008,2667
1010,2612
1007,2639
1061,2698
954,2621
896,2615
953,2674
1126,2704
1064,2670
1189,2793
955,2615
950,2643
892,2665
786,2668
836,2665
837,2660
787,2644
700,2613
655,2631
654,2634
653,2656
698,2628
699,2613
608,2654
696,2680
656,2628
833,2728
785,2714
835,2711
693,2714
894,2625
893,2652
1343,2663
1192,2795
1191,2795
828,2818
829,2804
780,2757
830,2799
779,2816
782,2731
529,2816
886,2772
596,2890
556,2873
598,2849
597,2859
526,2890
555,2908
525,2876
524,2843
523,2839
688,2766
607,2661
650,2711
651,2689
652,2681
737,2728
694,2704
695,2696
645,2776
646,2748
690,2744
600,2805
599,2807
781,2736
736,2740
558,2794
644,2797
643,2773
648,2743
692,2722
691,2738
513,2735
541,2667
540,2702
568,2729
530,2782
831,2754
559,2814
560,2860
642,2887
557,2839
496,2873
471,2905
444,2981
446,2934
528,2824
527,2874
562,2836
602,2767
734,2760
466,2716
464,2702
463,2677
478,2902
481,2818
480,2850
479,2879
647,2768
488,2722
502,2869
689,2753
533,2878
532,2834
531,2841
601,2839
484,2809
508,2807
510,2771
509,2784
534,2816
482,2852
506,2898
606,2675
455,2996
429,2894
456,3043
457,2926
428,2952
458,2868
554,2953
594,2984
640,2907
639,2989
551,2862
681,2967
636,2960
635,2939
590,2923
778,2825
777,2845
485,2763
486,2738
462,2712
563,2928
885,2787
943,3731
564,2851
641,2901
504,2864
503,2879
501,2902
500,2960
561,2850
254,2764
350,2729
321,2823
319,2774
251,2814
375,2788
347,2807
687,2779
565,2853
539,2768
511,2750
536,2847
649,2794
603,2811
605,4292
733,2780
735,2749
489,2739
514,2721
461,2830
460,2841
459,2860
468,2622
154,2915
178,2879
203,2850
228,2833
402,2896
401,2903
505,2845
522,2860
451,3057
452,3028
477,2919
476,2915
483,2926
884,2854
431,2855
430,2917
454,2910
595,2910
395,2966
394,2990
422,3140
417,2952
390,2971
538,2750
567,2712
426,3020
397,2993
398,2978
499,3055
475,3036
497,2912
498,2929
311,2834
342,2794
345,2823
421,3017
515,2781
472,3081
448,3112
473,3136
474,3177
353,2777
381,2756
256,2876
290,2851
324,2789
380,2817
407,2745
253,2910
226,2847
201,2860
177,2917
824,2936
775,2909
826,2869
939,2887
936,4198
937,3013
880,2965
566,2840
2821,65535
2834,65535
2833,65535
2789,65535
2790,65535
2770,65535
2788,65535
2776,65535
2795,65535
2775,65535
2794,65535
2825,65535
2824,65535
2826,65535
2811,65535
2812,65535
2796,65535
2827,65535
2858,65535
2855,65535
2849,65535
2838,65535
2814,65535
2813,65535
2828,65535
2839,65535
2791,65535
2792,65535
2803,65535
2830,65535
2815,65535
2819,65535
2818,65535
2817,65535
2831,65535
2810,65535
2829,65535
2783,65535
2820,65535
2804,65535
2785,65535
2784,65535
2762,65535
2768,65535
2751,65535
2750,65535
2733,65535
2769,65535
2720,65535
2761,65535
2741,65535
2837,65535
2793,65535
2808,65535
2753,65535
2736,65535
2735,65535
2809,65535
2772,65535
2845,65535
2844,65535
2848,65535
2777,65535
2778,65535
2779,65535
2759,65535
2780,65535
2797,65535
2843,65535
2832,65535
2842,65535
2758,65535
2738,65535
2774,65535
2773,65535
2771,65535
2851,65535
2847,65535
2854,65535
2721,65535
2756,65535
2737,65535
2840,65535
2752,65535
2754,65535
2755,65535
2852,65535
2853,65535
2856,65535
2841,65535
2742,65535
2727,65535
2744,65535
2726,65535
2743,65535
2725,65535
2746,65535
2787,65535
2766,65535
2763,65535
2765,65535
2745,65535
2764,65535
2552,65535
2501,65535
2443,65535
2442,65535
2320,65535
2381,65535
2382,65535
2498,65535
2499,65535
2438,65535
2439,65535
2497,65535
2441,65535
2379,65535
2380,65535
2319,65535
2551,65535
2550,65535
2563,2757
2321,2293
2322,2262
2383,2274
2384,2480
2446,2522
2445,2529
2503,2548
2385,2513
2504,2878
2505,2900
2557,2924
2558,2949
2559,2973
2560,2937
2564,3105
2562,2825
2561,2865
2605,2880
2609,3152
2565,3228
2566,3244
2515,3255
2397,1639
2457,3285
2458,3307
2401,1716
2337,1552
2336,1556
2399,1598
2398,1619
2402,1776
2333,1776
2273,1811
2219,1835
2218,1847
2159,1872
2454,2464
2393,2430
2512,2724
2502,2716
2608,3143
2156,1994
2155,2026
2154,2055
2213,2071
2212,2083
2211,2131
2210,2172
2264,2179
2324,2213
2323,2229
2030,65535
2094,65535
2157,1958
2450,3121
2388,3170
2387,3238
2326,3275
2266,3310
2265,2654
2508,3092
2396,1708
2335,1726
2334,1737
2158,1897
2279,3866
2278,3830
2222,3799
2221,3781
2276,3763
2275,151
2261,2486
2207,2523
2149,65535
2554,2606
2599,2638
2633,2684
2664,4371
2689,4429
2690,4535
2691,4573
2692,4606
2152,2167
2089,2246
2088,2234
2025,2379
2603,65535
2602,65535
2556,65535
2693,65535
2671,65535
2670,65535
2694,65535
2553,65535
2665,65535
2705,65535
2710,65535
2668,65535
2639,65535
2463,1786
2521,1822
2572,1845
2451,3006
2390,2975
2391,2795
2392,2758
2215,3000
2268,65535
2093,65535
2092,65535
2028,65535
2024,4057
2150,3483
2086,3531
2209,3465
2023,3633
2087,3586
2148,3799
2262,2472
2327,65535
1560,2785
1630,2830
1631,2793
1559,2867
1629,2840
1558,2793
1634,2749
1633,2774
1482,2782
1481,2823
1699,2805
1700,2821
1701,2837
1563,2700
2070,3135
2008,3093
2009,3084
1959,3072
1958,3098
2006,3130
1957,3110
1956,3062
2193,3202
2132,3141
1912,3100
1911,3080
1865,2884
1866,2967
2007,3117
2069,3151
2010,3093
2011,3109
1961,3088
2072,3109
1913,3026
1867,3019
1962,3113
1914,3062
1915,2974
1909,3014
1636,2716
1635,2720
1564,2693
1702,2795
1637,2735
1638,2785
1565,2680
1486,2651
1760,2934
1704,2740
1703,2726
1763,2814
1762,2797
1817,2844
1705,2838
1863,3016
1815,2982
1759,2847
863,2768
758,2861
808,2812
982,2564
1036,2544
1099,2476
1100,2631
1166,3037
1167,3087
1237,3179
1238,3207
1375,3288
1308,3246
1309,3267
1236,3144
1235,3123
1101,2665
1037,2602
971,2564
1025,2547
1026,2562
1027,2575
1089,2588
720,2824
674,2870
864,2650
865,2671
919,2566
1024,2511
975,2685
974,2655
1028,2610
873,2881
925,2912
924,2933
917,2630
918,2606
623,3045
712,2917
713,2950
667,2955
622,3013
809,2798
719,2798
765,2759
972,2596
868,2708
869,2720
815,2739
920,2975
973,2641
981,2659
926,2858
927,2850
928,2798
1354,2452
1288,2478
1218,2477
1152,2546
1023,2475
1353,2437
1085,2455
1148,2357
1147,2348
1082,2320
772,3096
771,3053
819,3028
584,2944
628,2911
629,2900
1033,2831
978,2786
1031,2759
1030,2713
1029,2696
1091,2673
1035,2912
1034,2855
979,2813
1526,3830
1449,3868
1378,3896
1448,3819
1524,3797
1038,2649
1447,3860
1768,2910
1710,2868
1767,2898
391,2941
365,2902
339,2888
400,2926
393,2984
392,2958
396,3009
399,2951
443,3005
449,3095
450,3080
419,2956
414,3027
415,3003
387,3025
388,2991
389,2978
282,2905
281,2936
314,2883
313,2863
405,2695
411,3092
442,3051
255,2814
376,2882
373,2839
278,2845
275,2970
248,2999
335,3079
334,3053
306,3025
307,3001
176,2896
225,2855
320,2809
249,2921
287,2836
285,2815
776,2886
731,2874
315,2891
316,2874
204,2866
440,2700
439,2729
166,4305
269,4046
383,3872
1247,65535
1246,65535
1384,65535
1679,65535
1178,65535
1105,65535
1172,65535
1173,65535
1242,65535
1241,65535
1314,65535
1313,65535
1171,65535
1382,65535
1243,65535
1317,65535
1107,65535
1108,65535
1109,65535
1041,65535
1043,65535
1042,65535
1044,65535
1176,65535
1174,65535
1177,65535
1110,65535
985,65535
986,65535
932,65535
774,2930
730,2879
825,2952
728,2919
729,2900
727,2978
682,2916
684,2898
685,2878
732,2858
683,2962
2134,3655
2194,3684
2068,3611
2129,3665
1905,2946
1907,2969
1906,2953
1953,2973
2002,3004
2064,3041
2125,3048
2137,3796
2196,3752
2195,3707
1859,2881
1810,2888
1755,2890
2131,3166
2192,3180
1862,3162
1861,3008
1812,2953
1860,2977
1809,3080
1756,2846
1869,2921
1822,2940
1821,2919
1916,2969
1819,2867
1764,2847
1820,2871
1698,2820
1757,2832
1566,2776
1567,2776
1488,2739
1489,2734
1412,2659
1413,2709
1414,2691
1818,2886
1568,2857
1410,2684
2128,3696
2189,3723
2066,3182
2065,3206
2067,3662
1643,2852
1571,2785
1491,2700
2004,3171
2003,3052
1697,2833
2135,3677
2075,3118
1642,2821
1955,2990
2130,3821
2005,3170
1858,2901
1816,3688
1864,3681
1766,2892
1910,3054
1868,2912
2188,4075
2127,4044
1903,3143
2001,3015
2063,3702
2062,3714
1813,2916
1758,2868
1639,2794
1640,2798
1952,3026
2126,4642
1569,2757
1965,3073
1966,3119
2014,3224
1490,2712
1917,3001
1870,2964
1871,2974
1570,2748
1707,2844
2076,3138
2013,3074
1964,3026
1487,2734
1908,3275
2251,65535
2199,65535
2198,65535
2136,3700
1641,2953
1954,3706
1765,2865
1857,2965
2187,3325
1904,3121
1856,3045
1951,3084
1708,3723
245,4110
244,4098
357,3986
246,4135
247,4162
197,4237
223,4215
44,4579
43,4639
3,4775
23,4749
22,4738
63,4521
85,4463
84,4418
108,4384
149,4338
172,4302
296,3966
294,4014
355,4114
354,4146
326,4224
295,4123
291,4135
293,4257
260,4277
356,4174
441,3774
412,3797
329,4132
300,4076
148,4480
214,4296
146,4411
110,4663
262,4109
258,4522
292,4285
257,4587
235,4385
187,4464
212,4491
211,4495
186,4576
162,4590
161,4603
165,4358
189,4414
238,4244
237,4209
263,4145
265,4250
266,4270
267,4295
268,4344
26,4739
25,4707
105,65535
62,65535
83,65535
126,4599
175,4520
152,4454
151,4444
150,4403
103,65535
242,4400
191,4570
192,4624
217,4650
218,65535
145,4390
144,4717
167,4332
190,4558
219,65535
159,65535
185,65535
158,65535
188,4447
160,65535
143,65535
122,65535
75,65535
54,65535
198,4648
270,4404
221,4752
301,65535
302,4354
330,4339
331,4307
115,4692
133,4754
139,65535
134,4728
114,4715
48,65535
69,65535
92,4629
164,65535
4,65535
107,4425
129,4510
109,65535
125,65535
124,65535
127,65535
82,65535
67,65535
91,65535
93,65535
137,65535
113,65535
112,65535
136,65535
49,65535
72,65535
71,65535
406,2761
805,2380
858,2308
859,2412
967,2298
1142,2227
1080,2244
1022,2276
1079,2267
968,2305
1206,2233
915,2362
916,2373
914,2334
807,2568
911,3436
1078,2309
1207,2212
1278,2169
1277,2196
1344,2234
1415,2262
1492,2347
1345,2272
1346,2118
1208,2222
1209,2256
1143,2293
1144,2309
1145,2324
1417,2304
1493,2364
1494,2383
1572,2398
1081,2261
970,2464
408,2808
382,2778
437,2710
467,2690
409,2767
403,2866
432,2949
433,2791
404,2711
352,2852
351,2869
349,2823
317,2845
374,2843
346,2879
283,2879
410,2750
438,2720
465,2713
490,2752
491,2637
435,2735
436,2721
379,2823
323,2897
289,2929
377,2751
378,2774
592,3004
593,3045
552,2861
445,2956
424,3019
423,2976
416,2993
361,3026
362,2994
371,3027
372,3009
343,2923
344,2920
286,2930
227,2929
252,2876
284,2836
318,2929
250,2864
312,2868
340,2885
368,2924
369,2972
370,3040
341,2934
367,2940
308,2993
276,2985
277,2965
280,2898
310,2863
338,2910
366,2964
274,3045
305,3037
420,3010
363,2984
418,2954
550,2619
579,2634
576,2588
577,2598
578,2600
520,2626
618,2580
662,2589
619,2572
620,2608
621,2595
665,2547
666,2541
664,2560
580,2616
2260,65535
2257,65535
2206,65535
2146,65535
2314,65535
2313,65535
2312,65535
2373,65535
2256,65535
2205,65535
2434,65535
2435,65535
2375,65535
2376,65535
2433,65535
2491,65535
2490,65535
2492,65535
2546,65535
2597,65535
2596,65535
2544,65535
2145,65535
2082,65535
2020,65535
2494,65535
0,65535
11,65535
1052,4468
1053,4455
941,4495
1740,3297
1796,3361
1615,3171
1681,3233
1545,3068
1797,3716
1544,3091
1741,3641
1795,3602
1617,3112
1546,3106
1616,3167
1683,3209
1467,3035
1547,3090
1465,3053
1387,3124
1388,3165
1464,3112
1462,4459
1461,4480
1542,4544
1463,4423
1682,3227
1543,3146
1618,3122
1742,3774
1460,4646
1248,3147
1850,3097
1801,3098
1803,3076
882,2864
881,2873
938,2907
883,2859
940,65535
1998,3615
1902,3289
1807,2946
1691,2987
1694,2893
1693,3712
1749,3018
1752,2967
1753,2924
1627,2871
1628,2841
1557,2819
1479,2771
1402,2741
1808,2935
1946,3835
1947,3780
1948,3684
1997,3570
1855,2980
1690,2966
2060,3790
1949,3839
1950,3327
1751,2978
1692,3029
1999,3631
1901,3705
1900,3646
1852,3618
1853,3580
1805,3094
1750,3023
1854,3289
1806,3088
1748,3055
2061,3740
2000,3694
1804,3099
1899,3667
2884,65535
2892,65535
2883,65535
2876,65535
2874,65535
2882,65535
2877,65535
2911,65535
2905,65535
2906,65535
2896,65535
2887,65535
2881,65535
2880,65535
2888,65535
2902,65535
2903,65535
2907,65535
2912,65535
2895,65535
2894,65535
2875,65535
2885,65535
2893,65535
2904,65535
2865,65535
2866,65535
2909,65535
2913,65535
2886,65535
2878,65535
2869,65535
2871,65535
2872,65535
2879,65535
2870,65535
1330,2795
1331,2748
1401,2746
1262,2757
1263,2749
1478,2757
1403,2736
1261,2766
1480,2747
1264,2747
1390,3014
1389,3082
1319,3064
1251,3108
1250,3177
1285,2285
1284,2264
1214,2284
1146,2316
1505,2233
1504,2267
1582,2232
1581,2237
1713,1801
1771,1825
1654,1680
1653,1708
1651,1751
2096,1166
2033,1137
1972,1174
1923,1225
1922,1245
1874,1292
1873,1301
1919,1347
1829,1592
1579,2273
1424,1922
1711,1846
1348,2069
1419,2254
1359,2388
1429,2341
1428,2330
1421,2250
1577,1964
1499,2001
1230,2425
1365,1783
1511,1692
1300,2407
1366,2379
1512,1720
1716,1580
1503,2283
1276,2258
1347,2273
1349,2198
1645,2293
1578,2270
1770,1839
1715,1789
1150,2443
1217,2457
1149,2419
1580,1870
1352,2265
1502,1900
1825,1460
1718,1506
1717,1544
1872,1445
1656,1604
1648,1855
1712,1822
1213,2332
1212,2349
1084,2390
1420,2233
1281,2294
1282,2355
1587,2376
1586,2345
1585,2334
1652,1788
1427,2296
1975,1241
1977,1313
1932,1391
1931,1660
1426,2311
1422,2248
1425,2298
1583,2193
1501,2262
1283,2243
1286,2330
1215,2364
1211,2325
1210,2299
1083,2331
1655,1721
2220,0
1355,65535
1772,1844
1436,1737
1435,1728
1589,1661
1163,2459
1735,2688
1791,2621
1841,2598
1840,2554
1219,2560
1220,2599
1647,1902
1646,1894
1279,2246
1714,1818
1575,2331
1576,2294
1498,2281
1573,2373
1496,2329
1497,2296
2177,65535
2176,65535
2294,65535
2293,65535
2237,65535
2236,65535
2364,65535
2302,65535
2301,65535
2245,65535
2056,65535
2057,65535
2055,65535
2184,65535
2120,65535
2244,65535
2538,65535
2537,65535
2591,65535
1940,65535
1989,65535
1990,65535
2539,65535
2482,65535
2483,65535
2424,65535
2121,65535
2119,65535
2050,65535
2049,65535
2048,65535
2185,65535
2243,65535
2299,65535
2241,65535
2485,65535
2542,65535
2353,65535
2292,65535
2419,65535
2478,65535
2479,65535
2536,65535
2484,65535
2486,65535
2354,65535
2416,65535
2242,65535
2355,65535
2300,65535
1991,65535
1992,65535
2477,65535
2534,65535
2535,65535
2588,65535
2587,65535
2630,65535
2051,65535
2116,65535
2175,65535
2586,65535
2541,65535
2178,65535
2179,65535
2240,65535
2239,65535
2238,65535
2052,65535
2053,65535
1987,65535
1988,65535
1939,65535
2594,65535
2593,65535
2358,65535
2357,65535
2420,65535
2247,65535
2427,65535
2428,65535
2181,65535
2180,65535
2417,65535
2590,65535
2297,65535
2361,65535
2362,65535
2423,65535
2422,65535
2174,65535
2356,65535
1941,65535
2365,65535
2112,65535
2047,65535
2182,65535
2359,65535
2533,65535
2295,65535
2115,65535
2632,65535
2631,65535
2186,65535
2298,65535
2360,65535
2235,65535
2291,65535
2487,65535
2246,65535
2425,65535
2117,65535
2543,65535
1893,65535
2421,65535
2476,65535
2592,65535
604,65535
