middle_point_id,reach_time_minutes
2835,65535
2836,65535
2806,65535
2822,65535
2823,65535
2807,65535
2846,65535
887,3260
888,3233
1326,3661
1185,3203
999,3408
1057,3350
1552,3669
1120,3236
1473,3699
944,3318
832,3221
1257,3376
1396,3703
1622,3775
1327,3784
1184,3230
1183,3279
1324,3871
1255,3844
1394,3882
1252,4067
1253,4036
1182,4021
1328,65535
1470,3900
1321,4074
1322,4015
1323,3965
1391,4087
1551,3678
1393,3940
1472,3777
1471,3829
1181,4334
1118,4079
1059,3179
1121,3197
1469,3961
1468,4180
1548,3945
1325,3805
1625,3491
1623,3657
1258,3277
1256,3731
791,3079
891,3190
703,3037
704,3031
660,3035
1553,3701
1624,3613
1554,3774
1474,3743
1475,3781
1550,3786
1549,3894
1320,4132
1466,4184
1541,4600
1318,4246
1249,4269
1186,3199
1003,3176
1002,3184
741,3154
788,3120
434,3155
697,3137
752,3032
1056,3391
1006,3132
907,2894
518,3070
1011,3061
1000,3213
1055,4502
997,4471
994,4365
996,4437
995,4421
991,4212
1112,65535
1114,4452
1051,4415
1398,3852
1395,3772
1001,3189
1811,3639
1960,3765
1769,3766
1823,3765
1329,65535
1332,3317
1259,65535
1200,3058
1199,3055
1140,2964
1141,2977
783,3210
1689,3748
1802,3777
1945,4316
2183,4798
2418,65535
1994,4352
1995,4748
2059,3877
1621,65535
1555,3447
1754,3439
1180,65535
1106,65535
933,65535
827,3330
2122,65535
2124,3811
493,3095
519,3079
544,3066
545,3071
494,3088
470,3110
543,3072
469,3104
517,3075
574,3075
573,3052
495,3096
546,3077
613,3049
612,3063
492,3109
572,3065
571,3079
570,3083
610,3104
575,3048
547,3090
516,3100
611,3081
542,3079
569,3135
609,3117
548,3086
549,3089
1404,3244
1405,3137
1266,3098
1193,3107
743,3129
742,3142
747,3070
746,3073
745,3083
744,3114
790,3081
789,3101
839,3108
838,3123
738,3206
739,3169
740,3164
890,3224
834,3229
784,3214
889,3227
856,2852
855,2863
854,2891
853,2927
852,2915
910,2886
909,2876
908,2887
964,2898
965,2891
1020,2903
966,2840
963,2916
1021,2799
1271,3060
1270,3059
1339,3067
1338,3080
1071,3015
1072,3009
1135,3038
1408,3187
1337,3097
1269,3074
1268,3093
1136,3068
1075,2965
1077,2961
1076,2936
1019,2927
1018,2955
1074,3032
1137,3084
1272,3073
1274,3106
1275,3169
1205,3092
1204,3059
1273,3107
1198,3109
1197,3106
1341,3081
1134,3053
1133,3048
1069,3034
1132,3050
1073,2996
1203,3043
1202,3102
1201,3078
1139,2982
1267,3085
1138,3115
1340,3073
1196,3071
1342,3107
1409,3127
1485,3173
1407,3274
1561,3253
1632,3274
1484,3231
1483,3261
1562,3238
1194,3071
1130,3067
1195,3072
1335,3101
1129,3090
1066,3133
1128,3182
1067,3052
1131,3059
1334,3312
1336,3134
1265,3117
1333,3302
1406,3163
857,2841
803,2837
804,2835
860,2825
969,2817
913,2804
912,2795
861,2880
806,2891
659,3037
751,3020
658,3048
705,3034
702,3044
706,3042
753,2998
614,3042
701,3058
661,3073
616,3050
848,2970
796,3013
797,2989
798,2978
750,3024
707,3046
615,3041
748,3060
845,3042
846,3013
657,3106
749,3053
795,3042
617,3065
663,3056
794,3104
847,3002
849,2933
902,3008
901,3022
900,3046
793,3088
899,3108
898,3128
897,3123
844,3080
842,3095
841,3087
956,3069
792,3080
843,3128
840,3125
850,2917
903,2987
800,2921
755,2933
756,2957
710,3013
711,3058
962,2929
961,2976
904,2968
906,2905
851,2910
802,2930
801,2925
799,2951
959,3032
1014,3044
1013,3040
708,3305
709,3038
754,2955
757,3011
1017,2964
1016,2990
960,3007
905,2921
958,3055
957,3054
1070,3021
1015,3014
1012,3051
1068,3051
1005,3147
1004,3161
1060,3176
1063,3168
1065,3155
1127,3207
1062,3198
1124,3206
1123,3192
1125,3207
1188,3231
1122,3195
1058,3186
947,3202
946,3252
949,3166
945,3291
948,3184
1190,3236
1187,3194
951,3124
895,3100
952,3126
1009,3081
1008,3130
1010,3056
1007,3136
1061,3200
954,3070
896,3095
953,3102
1126,3200
1064,3205
1189,3232
955,3066
950,3147
892,3145
786,3148
836,3145
837,3130
787,3124
700,3089
655,3111
654,3144
653,3158
698,3126
699,3093
608,3136
696,3169
656,3108
833,3221
785,3194
835,3191
693,3178
894,3104
893,3125
1343,3143
1192,3641
1191,3430
828,3324
829,3294
780,3752
830,3739
779,3281
782,3211
529,3296
886,3277
596,3470
556,3435
598,3718
597,3695
526,3750
555,3675
525,3739
524,3708
523,3319
688,3251
607,3172
650,3251
651,3217
652,3186
737,3203
694,3184
695,3176
645,3236
646,3229
690,3211
600,3248
599,3270
781,3216
736,3209
558,3730
644,3247
643,3280
648,3211
692,3191
691,3201
513,3181
541,3117
540,3148
568,3215
530,3267
831,3264
559,3760
560,3810
642,3763
557,3350
496,3674
471,3743
444,3820
446,3772
528,3353
527,3733
562,3751
602,3704
734,3246
466,3148
464,3151
463,3167
478,3790
481,3832
480,3854
479,3826
647,3213
488,3199
502,3677
689,3251
533,3734
532,3248
531,3741
601,3679
484,3282
508,3769
510,3251
509,3744
534,3778
482,3846
506,3800
606,3186
455,3880
429,3781
456,3983
457,3831
428,3843
458,3809
554,3640
594,3740
640,3747
639,3809
551,3343
681,3801
636,3792
635,3779
590,3723
778,3335
777,3342
485,3245
486,3218
462,3192
563,3756
885,3716
943,3731
564,3331
641,3741
504,3385
503,3350
501,3723
500,3801
561,3798
254,3260
350,3212
321,3281
319,3268
251,3307
375,3211
347,3245
687,3263
565,3306
539,3258
511,3230
536,3272
649,3713
603,3733
605,4292
733,3260
735,3229
489,3155
514,3167
461,3836
460,3865
459,3841
468,3102
154,3845
178,3800
203,3785
228,3756
402,3269
401,3743
505,3805
522,3727
451,3852
452,3803
477,3774
476,3763
483,3946
884,3773
431,3263
430,3744
454,3797
595,3731
395,3787
394,3816
422,3838
417,3808
390,3762
538,3753
567,3193
426,3875
397,3795
398,3826
499,3933
475,3874
497,3707
498,3766
311,3306
342,3266
345,3293
421,3887
515,3173
472,3816
448,3847
473,3872
474,3917
353,3285
381,3225
256,3364
290,3340
324,3308
380,3271
407,3244
253,3759
226,3775
201,3800
177,3819
824,3776
775,3711
826,3360
939,3787
936,4198
937,3853
880,3780
566,3756
2821,65535
2834,65535
2833,65535
2789,65535
2790,65535
2770,65535
2788,65535
2776,65535
2795,65535
2775,65535
2794,65535
2825,65535
2824,65535
2826,65535
2811,65535
2812,65535
2796,65535
2827,65535
2858,65535
2855,65535
2849,65535
2838,65535
2814,65535
2813,65535
2828,65535
2839,65535
2791,65535
2792,65535
2803,65535
2830,65535
2815,65535
2819,65535
2818,65535
2817,65535
2831,65535
2810,65535
2829,65535
2783,65535
2820,65535
2804,65535
2785,65535
2784,65535
2762,65535
2768,65535
2751,65535
2750,65535
2733,65535
2769,65535
2720,65535
2761,65535
2741,65535
2837,65535
2793,65535
2808,65535
2753,65535
2736,65535
2735,65535
2809,65535
2772,65535
2845,65535
2844,65535
2848,65535
2777,65535
2778,65535
2779,65535
2759,65535
2780,65535
2797,65535
2843,65535
2832,65535
2842,65535
2758,65535
2738,65535
2774,65535
2773,65535
2771,65535
2851,65535
2847,65535
2854,65535
2721,65535
2756,65535
2737,65535
2840,65535
2752,65535
2754,65535
2755,65535
2852,65535
2853,65535
2856,65535
2841,65535
2742,65535
2727,65535
2744,65535
2726,65535
2743,65535
2725,65535
2746,65535
2787,65535
2766,65535
2763,65535
2765,65535
2745,65535
2764,65535
2552,65535
2501,65535
2443,65535
2442,65535
2320,65535
2381,65535
2382,65535
2498,65535
2499,65535
2438,65535
2439,65535
2497,65535
2441,65535
2379,65535
2380,65535
2319,65535
2551,65535
2550,65535
2563,2757
2321,2293
2322,2262
2383,2274
2384,2480
2446,2522
2445,2529
2503,2548
2385,2513
2504,2878
2505,2900
2557,2924
2558,2949
2559,2973
2560,2937
2564,3105
2562,2825
2561,2865
2605,2880
2609,3152
2565,3228
2566,3244
2515,3255
2397,1639
2457,3285
2458,3307
2401,1716
2337,1552
2336,1556
2399,1598
2398,1619
2402,1776
2333,1776
2273,1811
2219,1835
2218,1847
2159,1872
2454,2464
2393,2430
2512,2724
2502,2716
2608,3143
2156,1994
2155,2026
2154,2055
2213,2071
2212,2083
2211,2131
2210,2172
2264,2179
2324,2213
2323,2229
2030,65535
2094,65535
2157,1958
2450,3121
2388,3170
2387,3238
2326,3275
2266,3310
2265,2654
2508,3092
2396,1708
2335,1726
2334,1737
2158,1897
2279,3866
2278,3830
2222,3799
2221,0
2276,1501
2275,1531
2261,2486
2207,2523
2149,65535
2554,2606
2599,2638
2633,2684
2664,4371
2689,4429
2690,4535
2691,4573
2692,4606
2152,2167
2089,2246
2088,2234
2025,2379
2603,65535
2602,65535
2556,65535
2693,65535
2671,65535
2670,65535
2694,65535
2553,65535
2665,65535
2705,65535
2710,65535
2668,65535
2639,65535
2463,1786
2521,1822
2572,1845
2451,3006
2390,2975
2391,2795
2392,2758
2215,3000
2268,65535
2093,65535
2092,65535
2028,65535
2024,4057
2150,3483
2086,3531
2209,3465
2023,3633
2087,3586
2148,3799
2262,2472
2327,65535
1560,3265
1630,3362
1631,3324
1559,3647
1629,3676
1558,3672
1634,3290
1633,3250
1482,3341
1481,3329
1699,3300
1700,3343
1701,3308
1563,3210
2070,3810
2008,3777
2009,3779
1959,3763
1958,3777
2006,3822
1957,3811
1956,3838
2193,3899
2132,3841
1912,3795
1911,3751
1865,3716
1866,3765
2007,3850
2069,3848
2010,3783
2011,3864
1961,3785
2072,3834
1913,3861
1867,3798
1962,3795
1914,3791
1915,3771
1909,3791
1636,3252
1635,3311
1564,3242
1702,3270
1637,3282
1638,3339
1565,3219
1486,3186
1760,3354
1704,3292
1703,3264
1763,3316
1762,3309
1817,3686
1705,3616
1863,3765
1815,3765
1759,3747
863,3025
758,3113
808,3069
982,3120
1036,3104
1099,3025
1100,3173
1166,3454
1167,3949
1237,3606
1238,3641
1375,3711
1308,3780
1309,3689
1236,3907
1235,3541
1101,3204
1037,3141
971,2890
1025,2896
1026,2909
1027,2935
1089,2949
720,3197
674,3246
864,2994
865,2969
919,2908
1024,2871
975,3007
974,2986
1028,2959
873,3128
925,3073
924,3051
917,2930
918,2906
623,3285
712,3160
713,3194
667,3199
622,3255
809,3055
719,3171
765,3128
972,2904
868,3041
869,3082
815,3108
920,2975
973,2916
981,3139
926,3156
927,3164
928,3193
1354,2617
1288,2639
1218,2666
1152,2735
1023,2843
1353,2604
1085,2741
1148,2685
1147,2678
1082,2615
772,3216
771,3173
819,3148
584,3386
628,3709
629,3683
1033,3193
978,3150
1031,3123
1030,3076
1029,3056
1091,3033
1035,3708
1034,3217
979,3177
1526,3830
1449,3868
1378,3896
1448,3819
1524,3797
1038,3188
1447,3860
1768,3756
1710,3771
1767,3736
391,3721
365,3780
339,3809
400,3866
393,3808
392,3774
396,3832
399,3855
443,3871
449,3839
450,3908
419,3759
414,3912
415,3819
387,3812
388,3805
389,3759
282,3761
281,3803
314,3795
313,3776
405,3175
411,4063
442,3978
255,3774
376,3223
373,3274
278,3693
275,3751
248,3786
335,3820
334,3824
306,3788
307,3776
176,3835
225,3794
320,3727
249,3786
287,3713
285,3721
776,3368
731,3379
315,3771
316,3753
204,3858
440,3120
439,3136
166,4305
269,4222
383,4160
1247,65535
1246,65535
1384,65535
1679,65535
1178,65535
1105,65535
1172,65535
1173,65535
1242,65535
1241,65535
1314,65535
1313,65535
1171,65535
1382,65535
1243,65535
1317,65535
1107,65535
1108,65535
1109,65535
1041,65535
1043,65535
1042,65535
1044,65535
1176,65535
1174,65535
1177,65535
1110,65535
985,65535
986,65535
932,65535
774,3770
730,3667
825,3375
728,3759
729,3701
727,3843
682,3756
684,3738
685,3658
732,3720
683,3742
2134,3893
2194,3933
2068,3863
2129,3890
1905,3704
1907,3764
1906,3742
1953,3753
2002,3760
2064,3770
2125,3787
2137,4103
2196,4079
2195,4055
1859,3665
1810,3655
1755,3414
2131,3820
2192,3858
1862,3737
1861,3710
1812,3652
1860,3751
1809,3655
1756,3385
1869,3771
1822,3780
1821,3819
1916,3821
1819,3732
1764,3635
1820,3755
1698,3306
1757,3611
1566,3313
1567,3260
1488,3234
1489,3335
1412,3146
1413,3166
1414,3156
1818,3762
1568,3716
1410,3166
2128,3924
2189,3937
2066,3966
2065,3982
2067,3992
1643,3718
1571,3185
1491,3162
2004,3937
2003,3795
1697,3735
2135,3994
2075,4018
1642,3698
1955,3806
2130,4110
2005,3873
1858,3673
1816,3784
1864,3794
1766,3721
1910,3823
1868,3765
2188,4075
2127,4044
1903,3678
2001,3837
2063,4132
2062,4092
1813,3813
1758,3344
1639,3700
1640,3242
1952,3807
2126,4642
1569,3196
1965,3869
1966,3912
2014,3957
1490,3159
1917,3854
1870,3791
1871,3804
1570,3174
1707,3726
2076,4036
2013,3974
1964,3927
1487,3217
1908,3843
2251,65535
2199,65535
2198,65535
2136,4043
1641,3690
1954,3928
1765,3684
1857,3703
2187,4396
1904,3682
1856,3657
1951,3759
1708,3934
245,4428
244,4412
357,4477
246,4438
247,4407
197,4398
223,4327
44,65535
43,65535
3,65535
23,65535
22,65535
63,65535
85,65535
84,65535
108,4527
149,4497
172,4455
296,4298
294,4368
355,4217
354,4238
326,4253
295,4329
291,4557
293,4422
260,4478
356,4513
441,4010
412,4045
329,65535
300,65535
148,4482
214,4630
146,4411
110,4663
262,4601
258,4540
292,4462
257,4587
235,4459
187,4464
212,4491
211,4495
186,4576
162,4590
161,4603
165,4358
189,65535
238,65535
237,65535
263,65535
265,65535
266,65535
267,65535
268,4395
26,65535
25,65535
105,65535
62,65535
83,65535
126,4599
175,4652
152,4596
151,4564
150,4529
103,65535
242,4400
191,4570
192,4624
217,4650
218,65535
145,4390
144,4717
167,4332
190,4558
219,65535
159,65535
185,65535
158,65535
188,4447
160,65535
143,65535
122,65535
75,65535
54,65535
198,4648
270,4404
221,4752
301,65535
302,65535
330,65535
331,65535
115,4692
133,4754
139,65535
134,4728
114,4715
48,65535
69,65535
92,4629
164,65535
4,65535
107,65535
129,65535
109,65535
125,65535
124,65535
127,65535
82,65535
67,65535
91,65535
93,65535
137,65535
113,65535
112,65535
136,65535
49,65535
72,65535
71,65535
406,3686
805,2860
858,2788
859,2836
967,2778
1142,2733
1080,2741
1022,2756
1079,2748
968,2785
1206,2740
915,2842
916,2853
914,2814
807,2927
911,3436
1078,2789
1207,2726
1278,2702
1277,2729
1344,2731
1415,2772
1492,2772
1345,2692
1346,2665
1208,2732
1209,2703
1143,2684
1144,2664
1145,2639
1417,2689
1493,2727
1494,2745
1572,2764
1081,2741
970,3064
408,3212
382,3235
437,3138
467,3115
409,3184
403,3289
432,3753
433,3734
404,3716
352,3767
351,3783
349,3746
317,3307
374,3743
346,3719
283,3742
410,3147
438,3164
465,3144
490,3162
491,3142
435,3215
436,3191
379,3817
323,3937
289,3829
377,3710
378,3316
592,3907
593,3945
552,3708
445,3796
424,4034
423,3804
416,3817
361,3808
362,3774
371,3768
372,3736
343,3747
344,3764
286,3856
227,3768
252,3756
284,3732
318,3763
250,3840
312,3746
340,3740
368,3774
369,3818
370,3812
341,3753
367,3799
308,3787
276,3731
277,3711
280,3833
310,3765
338,3799
366,3867
274,3770
305,3972
420,3824
363,3791
418,3733
550,3099
579,3114
576,3068
577,3078
578,3080
520,3106
618,3068
662,3069
619,3081
620,3088
621,3075
665,3057
666,3051
664,3070
580,3096
2260,65535
2257,65535
2206,65535
2146,65535
2314,65535
2313,65535
2312,65535
2373,65535
2256,65535
2205,65535
2434,65535
2435,65535
2375,65535
2376,65535
2433,65535
2491,65535
2490,65535
2492,65535
2546,65535
2597,65535
2596,65535
2544,65535
2145,65535
2082,65535
2020,65535
2494,65535
0,65535
11,65535
1052,4468
1053,4455
941,4495
1740,4332
1796,4373
1615,4235
1681,4276
1545,4196
1797,4420
1544,4210
1741,4388
1795,4570
1617,4196
1546,4201
1616,4213
1683,4308
1467,4170
1547,4175
1465,4245
1387,4281
1388,4242
1464,4306
1462,4459
1461,4480
1542,4544
1463,4423
1682,4287
1543,4265
1618,4188
1742,4480
1460,4646
1248,4290
1850,3782
1801,3786
1803,3772
882,3739
881,3748
938,3799
883,3764
940,65535
1998,3770
1902,3741
1807,3617
1691,3674
1694,3853
1693,3712
1749,3715
1752,3666
1753,3678
1627,3643
1628,3801
1557,3694
1479,3323
1402,3298
1808,3590
1946,3955
1947,3890
1948,3877
1997,3784
1855,3633
1690,3661
2060,3957
1949,3839
1950,3761
1751,3671
1692,3614
1999,3766
1901,4190
1900,4217
1852,4485
1853,4364
1805,3814
1750,3719
1854,4130
1806,3872
1748,3727
2061,4004
2000,3793
1804,3807
1899,4505
2884,65535
2892,65535
2883,65535
2876,65535
2874,65535
2882,65535
2877,65535
2911,65535
2905,65535
2906,65535
2896,65535
2887,65535
2881,65535
2880,65535
2888,65535
2902,65535
2903,65535
2907,65535
2912,65535
2895,65535
2894,65535
2875,65535
2885,65535
2893,65535
2904,65535
2865,65535
2866,65535
2909,65535
2913,65535
2886,65535
2878,65535
2869,65535
2871,65535
2872,65535
2879,65535
2870,65535
1330,3406
1331,3326
1401,3317
1262,3325
1263,3321
1478,3305
1403,3289
1261,3376
1480,3623
1264,3328
1390,4153
1389,4198
1319,4175
1251,4262
1250,4348
1285,2550
1284,2576
1214,2592
1146,2614
1505,2421
1504,2495
1582,2479
1581,2459
1713,2399
1771,2425
1654,2283
1653,2311
1651,2354
2096,1660
2033,1639
1972,1674
1923,1729
1922,1748
1874,1792
1873,1811
1919,1855
1829,2514
1579,2485
1424,2520
1711,2435
1348,2629
1419,2730
1359,2524
1429,2479
1428,2468
1421,2585
1577,2522
1499,2549
1230,2628
1365,2436
1511,2353
1300,2610
1366,2579
1512,2381
1716,2217
1503,2973
1276,2768
1347,2643
1349,2627
1645,2504
1578,2529
1770,2431
1715,2389
1150,2708
1217,2698
1149,2734
1580,2470
1352,2609
1502,2485
1825,2082
1718,2130
1717,2161
1872,2227
1656,2235
1648,2455
1712,2422
1213,2613
1212,2786
1084,2690
1420,2668
1281,2655
1282,2774
1587,2431
1586,2381
1585,2369
1652,2350
1427,2571
1975,2337
1977,2405
1932,2475
1931,3100
1426,2556
1422,2578
1425,2541
1583,2383
1501,2547
1283,2609
1286,2579
1215,2620
1211,2823
1210,2831
1083,2661
1655,2283
2220,1576
1355,65535
1772,2453
1436,2398
1435,2389
1589,2320
1163,3008
1735,2688
1791,2621
1841,2598
1840,2554
1219,2755
1220,2803
1647,2501
1646,2493
1279,2778
1714,2418
1575,2718
1576,2683
1498,2699
1573,2790
1496,2748
1497,2719
2177,65535
2176,65535
2294,65535
2293,65535
2237,65535
2236,65535
2364,65535
2302,65535
2301,65535
2245,65535
2056,65535
2057,65535
2055,65535
2184,65535
2120,65535
2244,65535
2538,65535
2537,65535
2591,65535
1940,65535
1989,65535
1990,65535
2539,65535
2482,65535
2483,65535
2424,65535
2121,65535
2119,65535
2050,65535
2049,65535
2048,65535
2185,65535
2243,65535
2299,65535
2241,65535
2485,65535
2542,65535
2353,65535
2292,65535
2419,65535
2478,65535
2479,65535
2536,65535
2484,65535
2486,65535
2354,65535
2416,65535
2242,65535
2355,65535
2300,65535
1991,65535
1992,65535
2477,65535
2534,65535
2535,65535
2588,65535
2587,65535
2630,65535
2051,65535
2116,65535
2175,65535
2586,65535
2541,65535
2178,65535
2179,65535
2240,65535
2239,65535
2238,65535
2052,65535
2053,65535
1987,65535
1988,65535
1939,65535
2594,65535
2593,65535
2358,65535
2357,65535
2420,65535
2247,65535
2427,65535
2428,65535
2181,65535
2180,65535
2417,65535
2590,65535
2297,65535
2361,65535
2362,65535
2423,65535
2422,65535
2174,65535
2356,65535
1941,65535
2365,65535
2112,65535
2047,65535
2182,65535
2359,65535
2533,65535
2295,65535
2115,65535
2632,65535
2631,65535
2186,65535
2298,65535
2360,65535
2235,65535
2291,65535
2487,65535
2246,65535
2425,65535
2117,65535
2543,65535
1893,65535
2421,65535
2476,65535
2592,65535
604,65535
