middle_point_id,reach_time_minutes
2835,65535
2836,65535
2806,65535
2822,65535
2823,65535
2807,65535
2846,65535
887,6906
888,6898
1326,7109
1185,6969
999,7010
1057,7219
1552,7174
1120,6954
1473,7440
944,7141
832,6908
1257,7079
1396,7444
1622,7195
1327,8104
1184,6959
1183,6970
1324,7231
1255,7311
1394,7242
1252,7075
1253,7036
1182,6980
1328,65535
1470,7260
1321,7044
1322,7041
1323,7325
1391,7087
1551,7192
1393,7300
1472,7198
1471,7237
1181,7094
1118,7019
1059,6895
1121,6917
1469,7528
1468,7143
1548,7179
1325,7165
1625,7132
1623,7161
1258,6999
1256,7154
791,6799
891,6866
703,6757
704,6751
660,6755
1553,7179
1624,7148
1554,7192
1474,7200
1475,7681
1550,7202
1549,7254
1320,7089
1466,7123
1541,7480
1318,7165
1249,7188
1186,6975
1003,6885
1002,6893
741,6881
788,6841
434,6878
697,6863
752,6722
1056,7030
1006,6878
907,6628
518,6790
1011,6805
1000,6934
1055,8822
997,8791
994,8685
996,8757
995,8741
991,8532
1112,65535
1114,8772
1051,8735
1398,8172
1395,7470
1001,6908
1811,7129
1960,7307
1769,7227
1823,7236
1329,65535
1332,6942
1259,65535
1200,6764
1199,6769
1140,6745
1141,6754
783,6922
1689,7229
1802,7340
1945,7561
2183,9118
2418,65535
1994,7595
1995,7628
2059,7357
1621,65535
1555,7087
1754,7180
1180,8063
1106,65535
933,65535
827,7028
2122,65535
2124,7394
493,6807
519,6799
544,6786
545,6791
494,6811
470,6820
543,6796
469,6814
517,6795
574,6795
573,6772
495,6817
546,6797
613,6769
612,6783
492,6813
572,6785
571,6799
570,6803
610,6830
575,6768
547,6810
516,6820
611,6801
542,6815
569,6855
609,6834
548,6806
549,6808
1404,6910
1405,6852
1266,6839
1193,6887
743,6848
742,6860
747,6790
746,6793
745,6803
744,6834
790,6805
789,6821
839,6828
838,6843
738,6913
739,6888
740,6876
890,6881
834,6899
784,6887
889,6887
856,6563
855,6580
854,6608
853,6623
852,6645
910,6606
909,6615
908,6618
964,6632
965,6638
1020,6675
966,6658
963,6646
1021,6639
1271,6767
1270,6769
1339,6787
1338,6800
1071,6794
1072,6789
1135,6787
1408,6823
1337,6817
1269,6794
1268,6820
1136,6764
1075,6695
1077,6725
1076,6703
1019,6702
1018,6675
1074,6720
1137,6747
1272,6780
1274,6856
1275,6867
1205,6782
1204,6803
1273,6827
1198,6828
1197,6886
1341,6882
1134,6792
1133,6829
1069,6814
1132,6830
1073,6749
1203,6823
1202,6822
1201,6798
1139,6762
1267,6826
1138,6776
1340,6780
1196,6854
1342,6869
1409,6841
1485,6848
1407,6845
1561,6997
1632,7021
1484,6940
1483,6952
1562,6988
1194,6851
1130,6847
1195,6852
1335,6843
1129,6864
1066,6835
1128,6916
1067,6821
1131,6839
1334,6954
1336,6854
1265,6875
1333,6939
1406,6883
857,6615
803,6629
804,6606
860,6567
969,6520
913,6507
912,6445
861,6577
806,6620
659,6757
751,6739
658,6768
705,6750
702,6770
706,6740
753,6718
614,6762
701,6778
661,6762
616,6770
848,6690
796,6725
797,6709
798,6698
750,6744
707,6753
615,6761
748,6780
845,6744
846,6733
657,6826
749,6773
795,6762
617,6785
663,6765
794,6804
847,6722
849,6653
902,6718
901,6752
900,6766
793,6808
899,6816
898,6838
897,6843
844,6800
842,6815
841,6806
956,6810
792,6800
843,6848
840,6845
850,6644
903,6710
800,6666
755,6683
756,6703
710,6733
711,6778
962,6692
961,6703
904,6715
906,6632
851,6638
802,6658
801,6667
799,6671
959,6752
1014,6767
1013,6792
708,7014
709,6740
754,6701
757,6731
1017,6744
1016,6753
960,6737
905,6698
958,6798
957,6799
1070,6801
1015,6749
1012,6803
1068,6823
1005,6895
1004,6890
1060,6902
1063,6883
1065,6872
1127,6913
1062,6908
1124,6923
1123,6943
1125,6917
1188,6951
1122,6948
1058,6907
947,6922
946,6970
949,6881
945,6963
948,6877
1190,7058
1187,6971
951,6852
895,6820
952,6846
1009,6831
1008,6885
1010,6812
1007,6856
1061,6973
954,6821
896,6815
953,6877
1126,6933
1064,6892
1189,6993
955,6815
950,6867
892,6856
786,6848
836,6859
837,6850
787,6844
700,6813
655,6831
654,6864
653,6878
698,6846
699,6813
608,6867
696,6880
656,6828
833,6902
785,6866
835,6864
693,6899
894,6824
893,6848
1343,6863
1192,7018
1191,7055
828,7018
829,7004
780,6950
830,6999
779,7016
782,6917
529,7016
886,6933
596,7071
556,7098
598,7029
597,7044
526,7044
555,7068
525,7075
524,7043
523,7039
688,6966
607,6896
650,6942
651,6924
652,6911
737,6917
694,6898
695,6885
645,6976
646,6951
690,6931
600,7005
599,7006
781,6921
736,6925
558,7048
644,6997
643,6973
648,6956
692,6905
691,6921
513,6931
541,6837
540,6900
568,6958
530,6984
831,6924
559,7035
560,7066
642,7101
557,7037
496,7085
471,7127
444,7212
446,7143
528,7021
527,7060
562,7017
602,7004
734,6960
466,6946
464,6904
463,6925
478,7190
481,7072
480,7101
479,7135
647,6968
488,6980
502,7028
689,6953
533,7078
532,7034
531,7041
601,7026
484,7002
508,7082
510,7029
509,7100
534,7078
482,7086
506,7052
606,6905
455,7250
429,7030
456,7222
457,7203
428,7114
458,7067
554,7160
594,7128
640,7107
639,7144
551,7062
681,7144
636,7132
635,7140
590,7067
778,7025
777,7032
485,6964
486,6952
462,6911
563,7116
885,6944
943,8051
564,7097
641,7101
504,7034
503,7061
501,7037
500,7104
561,7041
254,6967
350,6929
321,7011
319,6966
251,7007
375,6940
347,7018
687,6979
565,7081
539,6979
511,7010
536,7048
649,7013
603,7055
605,7166
733,6980
735,6944
489,6982
514,6920
461,7150
460,7161
459,7139
468,6829
154,7124
178,7070
203,7055
228,7025
402,6995
401,7007
505,7045
522,7067
451,7261
452,7314
477,7239
476,7235
483,7246
884,7054
431,7005
430,7042
454,7214
595,7230
395,7109
394,7129
422,7221
417,7173
390,7171
538,7025
567,6912
426,7281
397,7120
398,7168
499,7183
475,7271
497,7113
498,7130
311,7034
342,7076
345,7050
421,7178
515,6878
472,7401
448,7432
473,7456
474,7497
353,6982
381,6957
256,7039
290,7013
324,6989
380,7009
407,6945
253,7021
226,7047
201,7060
177,7117
824,7136
775,7074
826,7039
939,7087
936,8518
937,7153
880,7285
566,7105
2821,65535
2834,65535
2833,65535
2789,65535
2790,65535
2770,65535
2788,65535
2776,65535
2795,65535
2775,65535
2794,65535
2825,65535
2824,65535
2826,65535
2811,65535
2812,65535
2796,65535
2827,65535
2858,65535
2855,65535
2849,65535
2838,65535
2814,65535
2813,65535
2828,65535
2839,65535
2791,65535
2792,65535
2803,65535
2830,65535
2815,65535
2819,65535
2818,65535
2817,65535
2831,65535
2810,65535
2829,65535
2783,65535
2820,65535
2804,65535
2785,65535
2784,65535
2762,65535
2768,65535
2751,65535
2750,65535
2733,65535
2769,65535
2720,65535
2761,65535
2741,65535
2837,65535
2793,65535
2808,65535
2753,65535
2736,65535
2735,65535
2809,65535
2772,65535
2845,65535
2844,65535
2848,65535
2777,65535
2778,65535
2779,65535
2759,65535
2780,65535
2797,65535
2843,65535
2832,65535
2842,65535
2758,65535
2738,65535
2774,65535
2773,65535
2771,65535
2851,65535
2847,65535
2854,65535
2721,65535
2756,65535
2737,65535
2840,65535
2752,65535
2754,65535
2755,65535
2852,65535
2853,65535
2856,65535
2841,65535
2742,65535
2727,65535
2744,65535
2726,65535
2743,65535
2725,65535
2746,65535
2787,65535
2766,65535
2763,65535
2765,65535
2745,65535
2764,65535
2552,65535
2501,65535
2443,65535
2442,65535
2320,65535
2381,65535
2382,65535
2498,65535
2499,65535
2438,65535
2439,65535
2497,65535
2441,65535
2379,65535
2380,65535
2319,65535
2551,65535
2550,65535
2563,7077
2321,3733
2322,3702
2383,3714
2384,4425
2446,4468
2445,4476
2503,4495
2385,4459
2504,7198
2505,7220
2557,7244
2558,7269
2559,7293
2560,7257
2564,7033
2562,7145
2561,7185
2605,7200
2609,4784
2565,4729
2566,4714
2515,4659
2397,3079
2457,4640
2458,4624
2401,3251
2337,2992
2336,2996
2399,3038
2398,3059
2402,3285
2333,3216
2273,3251
2219,3275
2218,3287
2159,3312
2454,5344
2393,5310
2512,7044
2502,7829
2608,7463
2156,3434
2155,3466
2154,3495
2213,3511
2212,3523
2211,3571
2210,3612
2264,3619
2324,3653
2323,3669
2030,65535
2094,65535
2157,3398
2450,7441
2388,7490
2387,7558
2326,7595
2266,3800
2265,3755
2508,7412
2396,3148
2335,3166
2334,3177
2158,3337
2279,8186
2278,8150
2222,8119
2221,8101
2276,0
2275,2971
2261,5247
2207,6105
2149,6164
2554,4547
2599,4577
2633,4615
2664,4650
2689,4687
2690,4713
2691,4729
2692,4753
2152,5858
2089,6566
2088,5904
2025,6699
2603,65535
2602,65535
2556,65535
2693,6692
2671,8475
2670,8455
2694,8414
2553,65535
2665,65535
2705,65535
2710,65535
2668,65535
2639,65535
2463,6106
2521,6142
2572,6165
2451,7326
2390,7295
2391,7115
2392,5752
2215,7320
2268,65535
2093,65535
2092,65535
2028,65535
2024,5934
2150,3972
2086,4002
2209,3959
2023,5073
2087,5026
2148,8119
2262,5232
2327,65535
1560,6937
1630,7039
1631,7010
1559,7088
1629,7160
1558,6993
1634,7014
1633,7019
1482,6862
1481,6927
1699,7036
1700,7084
1701,7063
1563,6999
2070,7347
2008,7318
2009,7314
1959,7287
1958,7305
2006,7344
1957,7339
1956,7348
2193,7522
2132,7461
1912,7279
1911,7248
1865,7204
1866,7287
2007,7369
2069,7375
2010,7323
2011,7350
1961,7345
2072,7381
1913,7346
1867,7339
1962,7378
1914,7382
1915,7294
1909,7334
1636,7036
1635,7040
1564,7013
1702,7090
1637,7030
1638,6996
1565,7000
1486,6873
1760,7123
1704,7060
1703,7046
1763,7134
1762,7117
1817,7164
1705,7158
1863,7204
1815,7171
1759,7126
863,5905
758,5993
808,5949
982,5464
1036,5454
1099,5352
1100,5573
1166,5917
1167,5967
1237,6059
1238,6087
1375,6168
1308,6126
1309,6147
1236,6024
1235,6003
1101,5604
1037,5542
971,5612
1025,5602
1026,5585
1027,5605
1089,5570
720,5950
674,5996
864,5874
865,5849
919,5626
1024,5575
975,5739
974,5677
1028,5673
873,5761
925,5792
924,5813
917,5690
918,5666
623,6165
712,6040
713,6074
667,6079
622,6135
809,5935
719,5922
765,5879
972,5626
868,5826
869,5838
815,5859
920,5734
973,5641
981,5539
926,5738
927,5730
928,5678
1354,5457
1288,5481
1218,5477
1152,5522
1023,5529
1353,5442
1085,5487
1148,5380
1147,5373
1082,5295
772,5976
771,5933
819,5908
584,6070
628,6037
629,6064
1033,5789
978,5826
1031,5863
1030,5834
1029,5816
1091,5793
1035,5708
1034,5730
979,5817
1526,6710
1449,6748
1378,6776
1448,6699
1524,6677
1038,5588
1447,6740
1768,7230
1710,7188
1767,7218
391,7142
365,7103
339,7088
400,7138
393,7158
392,7183
396,7104
399,7271
443,7291
449,7268
450,7243
419,7276
414,7347
415,7288
387,7297
388,7192
389,7185
282,7225
281,7151
314,7120
313,7076
405,6895
411,7412
442,7371
255,7000
376,7003
373,7018
278,7045
275,7111
248,7158
335,7250
334,7215
306,7161
307,7150
176,7133
225,7034
320,7009
249,7241
287,6972
285,7015
776,7054
731,7062
315,7117
316,7194
204,7071
440,6840
439,6877
166,8625
269,8366
383,8192
1247,65535
1246,65535
1384,65535
1679,65535
1178,65535
1105,65535
1172,65535
1173,65535
1242,65535
1241,65535
1314,65535
1313,65535
1171,65535
1382,65535
1243,65535
1317,65535
1107,65535
1108,65535
1109,65535
1041,65535
1043,65535
1042,65535
1044,65535
1176,65535
1174,65535
1177,65535
1110,65535
985,65535
986,65535
932,65535
774,7084
730,7079
825,7092
728,7119
729,7100
727,7171
682,7116
684,7098
685,7078
732,7058
683,7222
2134,7975
2194,8004
2068,7465
2129,7519
1905,7226
1907,7267
1906,7206
1953,7293
2002,7324
2064,7361
2125,7368
2137,8116
2196,8072
2195,8027
1859,7140
1810,7170
1755,7210
2131,7412
2192,7450
1862,7234
1861,7153
1812,7131
1860,7223
1809,7158
1756,7118
1869,7241
1822,7260
1821,7239
1916,7289
1819,7187
1764,7167
1820,7191
1698,7067
1757,7104
1566,6991
1567,6953
1488,6910
1489,6905
1412,6881
1413,6888
1414,6873
1818,7206
1568,6923
1410,6862
2128,7549
2189,7576
2066,7502
2065,7526
2067,7516
1643,7172
1571,7105
1491,7020
2004,7491
2003,7372
1697,7088
2135,7997
2075,7438
1642,7141
1955,7310
2130,7548
2005,7375
1858,7203
1816,8008
1864,8001
1766,7212
1910,7374
1868,7232
2188,8395
2127,8364
1903,7246
2001,7335
2063,7988
2062,7582
1813,7136
1758,7073
1639,7099
1640,7118
1952,7346
2126,8962
1569,7077
1965,7393
1966,7439
2014,7544
1490,7032
1917,7321
1870,7284
1871,7294
1570,7068
1707,7164
2076,7458
2013,7394
1964,7346
1487,6911
1908,7595
2251,65535
2199,65535
2198,65535
2136,8020
1641,7273
1954,8026
1765,7185
1857,7219
2187,7645
1904,7250
1856,7209
1951,7355
1708,8043
245,8430
244,8418
357,8306
246,8455
247,8482
197,8557
223,8535
44,8899
43,8959
3,9095
23,9069
22,9058
63,8841
85,8783
84,8738
108,8704
149,8658
172,8622
296,8286
294,8334
355,8434
354,8466
326,8544
295,8443
291,8455
293,8577
260,8597
356,8494
441,8094
412,8117
329,8452
300,8396
148,8800
214,8616
146,8731
110,8983
262,8429
258,8842
292,8605
257,8907
235,8705
187,8784
212,8811
211,8815
186,8896
162,8910
161,8923
165,8678
189,8734
238,8564
237,8529
263,8465
265,8570
266,8590
267,8615
268,8664
26,9059
25,9027
105,65535
62,65535
83,65535
126,8919
175,8840
152,8774
151,8764
150,8723
103,65535
242,8720
191,8890
192,8944
217,8970
218,65535
145,8710
144,9037
167,8652
190,8878
219,65535
159,65535
185,65535
158,65535
188,8767
160,65535
143,65535
122,65535
75,65535
54,65535
198,8968
270,8724
221,9072
301,65535
302,8674
330,8659
331,8627
115,9012
133,9074
139,65535
134,9048
114,9035
48,65535
69,65535
92,8949
164,65535
4,65535
107,8745
129,8830
109,65535
125,65535
124,65535
127,65535
82,65535
67,65535
91,65535
93,65535
137,65535
113,65535
112,65535
136,65535
49,65535
72,65535
71,65535
406,6961
805,6610
858,6415
859,6556
967,6318
1142,5468
1080,6255
1022,6296
1079,6288
968,6411
1206,5473
915,6562
916,6597
914,6534
807,6649
911,7756
1078,6629
1207,5466
1278,5462
1277,5481
1344,5491
1415,5532
1492,5587
1345,5452
1346,5386
1208,5434
1209,5403
1143,5384
1144,5348
1145,5308
1417,5413
1493,5545
1494,5531
1572,5463
1081,6581
970,6784
408,6986
382,6979
437,6910
467,6890
409,6960
403,7035
432,7269
433,7111
404,7013
352,7012
351,7010
349,6973
317,7165
374,6988
346,7039
283,7199
410,6937
438,6953
465,6912
490,6910
491,6837
435,6935
436,6943
379,6961
323,7041
289,7060
377,6944
378,6969
592,7113
593,7153
552,7061
445,7218
424,7141
423,7158
416,7217
361,7226
362,7211
371,7165
372,7099
343,7243
344,7240
286,7048
227,7026
252,7016
284,7035
318,7043
250,7072
312,7046
340,7039
368,7063
369,7073
370,7238
341,7052
367,7076
308,7199
276,7091
277,7164
280,7098
310,7063
338,7110
366,7157
274,7124
305,7173
420,7320
363,7210
418,7218
550,6819
579,6834
576,6788
577,6798
578,6800
520,6826
618,6780
662,6789
619,6772
620,6780
621,6765
665,6747
666,6741
664,6760
580,6786
2260,65535
2257,65535
2206,65535
2146,65535
2314,65535
2313,65535
2312,65535
2373,65535
2256,65535
2205,65535
2434,65535
2435,65535
2375,65535
2376,65535
2433,65535
2491,65535
2490,65535
2492,65535
2546,65535
2597,65535
2596,65535
2544,65535
2145,65535
2082,65535
2020,65535
2494,65535
0,65535
11,65535
1052,8788
1053,8775
941,8815
1740,7351
1796,7377
1615,7216
1681,7277
1545,7135
1797,7414
1544,7155
1741,7409
1795,7450
1617,7201
1546,7188
1616,7211
1683,7244
1467,7115
1547,7173
1465,7199
1387,7195
1388,7175
1464,7262
1462,7339
1461,7360
1542,7424
1463,7303
1682,7352
1543,7263
1618,7215
1742,7435
1460,7526
1248,7301
1850,7354
1801,7353
1803,7306
882,7039
881,7048
938,7098
883,7059
940,65535
1998,7297
1902,7238
1807,7146
1691,7187
1694,7093
1693,7141
1749,7218
1752,7167
1753,7124
1627,7071
1628,7041
1557,7019
1479,6971
1402,6941
1808,7135
1946,7435
1947,7370
1948,7357
1997,7312
1855,7159
1690,7166
2060,7430
1949,7585
1950,7281
1751,7210
1692,7169
1999,7289
1901,7629
1900,7641
1852,7365
1853,7244
1805,7226
1750,7223
1854,7200
1806,7186
1748,7267
2061,7484
2000,7414
1804,7419
1899,7385
2884,65535
2892,65535
2883,65535
2876,65535
2874,65535
2882,65535
2877,65535
2911,65535
2905,65535
2906,65535
2896,65535
2887,65535
2881,65535
2880,65535
2888,65535
2902,65535
2903,65535
2907,65535
2912,65535
2895,65535
2894,65535
2875,65535
2885,65535
2893,65535
2904,65535
2865,65535
2866,65535
2909,65535
2913,65535
2886,65535
2878,65535
2869,65535
2871,65535
2872,65535
2879,65535
2870,65535
1330,6995
1331,6953
1401,6946
1262,6983
1263,6977
1478,6957
1403,6936
1261,7086
1480,6947
1264,7003
1390,7109
1389,7136
1319,7129
1251,7142
1250,7228
1285,5202
1284,5262
1214,5235
1146,5310
1505,4528
1504,4586
1582,5436
1581,4557
1713,4490
1771,4510
1654,4354
1653,4383
1651,4426
2096,3923
2033,3894
1972,3937
1923,3988
1922,4008
1874,4055
1873,4065
1919,4100
1829,5654
1579,4614
1424,4622
1711,4527
1348,5324
1419,5370
1359,4644
1429,4594
1428,4580
1421,4685
1577,4643
1499,4669
1230,4600
1365,4480
1511,4392
1300,4587
1366,5256
1512,4420
1716,4279
1503,5531
1276,5798
1347,5366
1349,5352
1645,4664
1578,4689
1770,4519
1715,4465
1150,5444
1217,5455
1149,5420
1580,4570
1352,5279
1502,4585
1825,4160
1718,4217
1717,4242
1872,4145
1656,4294
1648,4541
1712,4503
1213,5370
1212,5412
1084,5390
1420,5309
1281,5416
1282,5536
1587,4486
1586,4453
1585,4443
1652,4390
1427,4631
1975,4041
1977,4121
1932,4227
1931,4540
1426,5332
1422,4678
1425,5368
1583,4488
1501,4637
1283,5369
1286,5460
1215,5336
1211,5462
1210,5471
1083,5361
1655,4321
2220,3831
1355,5692
1772,4544
1436,4447
1435,4428
1589,4358
1163,5335
1735,4403
1791,4350
1841,4330
1840,4316
1219,5597
1220,5639
1647,4661
1646,4653
1279,5538
1714,4488
1575,5355
1576,5317
1498,5325
1573,5430
1496,5385
1497,5356
2177,65535
2176,65535
2294,65535
2293,65535
2237,65535
2236,65535
2364,65535
2302,65535
2301,65535
2245,65535
2056,65535
2057,65535
2055,65535
2184,65535
2120,65535
2244,65535
2538,65535
2537,65535
2591,65535
1940,65535
1989,65535
1990,65535
2539,65535
2482,65535
2483,65535
2424,65535
2121,65535
2119,65535
2050,65535
2049,65535
2048,65535
2185,65535
2243,65535
2299,65535
2241,65535
2485,65535
2542,65535
2353,65535
2292,65535
2419,65535
2478,65535
2479,65535
2536,65535
2484,65535
2486,65535
2354,65535
2416,65535
2242,65535
2355,65535
2300,65535
1991,65535
1992,65535
2477,65535
2534,65535
2535,65535
2588,65535
2587,65535
2630,65535
2051,65535
2116,65535
2175,65535
2586,65535
2541,65535
2178,65535
2179,65535
2240,65535
2239,65535
2238,65535
2052,65535
2053,65535
1987,65535
1988,65535
1939,65535
2594,65535
2593,65535
2358,65535
2357,65535
2420,65535
2247,65535
2427,65535
2428,65535
2181,65535
2180,65535
2417,65535
2590,65535
2297,65535
2361,65535
2362,65535
2423,65535
2422,65535
2174,65535
2356,65535
1941,65535
2365,65535
2112,65535
2047,65535
2182,65535
2359,65535
2533,65535
2295,65535
2115,65535
2632,65535
2631,65535
2186,65535
2298,65535
2360,65535
2235,65535
2291,65535
2487,65535
2246,65535
2425,65535
2117,65535
2543,65535
1893,65535
2421,65535
2476,65535
2592,65535
604,65535
