middle_point_id,reach_time_minutes
2835,65535
2836,65535
2806,65535
2822,65535
2823,65535
2807,65535
2846,65535
887,2244
888,2249
1326,1774
1185,1858
999,2346
1057,2265
1552,1534
1120,1918
1473,1579
944,2341
832,2240
1257,1823
1396,1699
1622,1555
1327,1864
1184,1894
1183,1912
1324,1655
1255,1733
1394,1602
1252,1763
1253,1805
1182,2242
1328,65535
1470,1595
1321,1710
1322,1813
1323,1685
1391,1686
1551,1552
1393,1644
1472,1618
1471,1571
1181,2894
1118,2279
1059,1879
1121,1875
1469,1621
1468,1663
1548,1642
1325,1731
1625,1551
1623,1516
1258,1887
1256,2291
791,2258
891,1945
703,2309
704,2322
660,2318
1553,1539
1624,1544
1554,1552
1474,1568
1475,1653
1550,1562
1549,1589
1320,1730
1466,1727
1541,2195
1318,1745
1249,1766
1186,1848
1003,1887
1002,1881
741,2228
788,2225
434,2420
697,2287
752,2350
1056,2329
1006,1972
907,2481
518,2375
1011,2423
1000,1894
1055,4022
997,3991
994,3887
996,3957
995,3941
991,2772
1112,65535
1114,4230
1051,4195
1398,1692
1395,1710
1001,1888
1811,1864
1960,2359
1769,2556
1823,2550
1329,65535
1332,1826
1259,3835
1200,2316
1199,2315
1140,2439
1141,2452
783,2250
1689,1493
1802,1340
1945,1182
2183,743
2418,288
1994,1139
1995,1868
2059,1537
1621,65535
1555,1656
1754,1721
1180,2303
1106,5350
933,5606
827,2370
2122,893
2124,1899
493,2382
519,2379
544,2368
545,2374
494,2386
470,2402
543,2364
469,2398
517,2377
574,2365
573,2352
495,2400
546,2381
613,2332
612,2343
492,2390
572,2359
571,2375
570,2357
610,2332
575,2426
547,2418
516,2392
611,2361
542,2376
569,2339
609,2322
548,2450
549,2479
1404,1871
1405,2245
1266,2276
1193,2327
743,2255
742,2237
747,2276
746,2261
745,2258
744,2275
790,2245
789,2240
839,2293
838,2216
738,2252
739,2243
740,2234
890,1955
834,2235
784,2233
889,2250
856,2540
855,2520
854,2528
853,2525
852,2516
910,2512
909,2501
908,2487
964,2473
965,2504
1020,2543
966,2523
963,2449
1021,2569
1271,2313
1270,2310
1339,2318
1338,2307
1071,2334
1072,2358
1135,2347
1408,2323
1337,2299
1269,2305
1268,2294
1136,2348
1075,2469
1077,2445
1076,2500
1019,2502
1018,2475
1074,2380
1137,2364
1272,2340
1274,2416
1275,2450
1205,2462
1204,2459
1273,2387
1198,2329
1197,2326
1341,2443
1134,2336
1133,2333
1069,2314
1132,2310
1073,2390
1203,2443
1202,2385
1201,2358
1139,2428
1267,2285
1138,2395
1340,2345
1196,2298
1342,2429
1409,2336
1485,2361
1407,2353
1561,2231
1632,2204
1484,2373
1483,2270
1562,2236
1194,2316
1130,2326
1195,2294
1335,2258
1129,2306
1066,2274
1128,2293
1067,2312
1131,2327
1334,1872
1336,2280
1265,2315
1333,1831
1406,2266
857,3048
803,3082
804,6559
860,6567
969,6520
913,6507
912,6445
861,6577
806,6620
659,2314
751,2333
658,2325
705,2326
702,2301
706,2343
753,2367
614,2322
701,2294
661,2347
616,2348
848,2387
796,2354
797,2379
798,2386
750,2325
707,2378
615,2321
748,2311
845,2344
846,2366
657,3252
749,2319
795,2339
617,2391
663,2396
794,2304
847,2384
849,2430
902,2395
901,2383
900,2394
793,2268
899,2356
898,2335
897,2305
844,2324
842,2278
841,2260
956,6599
792,2262
843,2300
840,2273
850,2437
903,2373
800,2426
755,2453
756,2503
710,2533
711,2578
962,2423
961,2416
904,2381
906,2479
851,2487
802,2473
801,2429
799,2403
959,2372
1014,2342
1013,2356
708,3260
709,3279
754,2407
757,2531
1017,2401
1016,2394
960,2364
905,2436
958,2358
957,6605
1070,2327
1015,2345
1012,2384
1068,2321
1005,1994
1004,1894
1060,1888
1063,1989
1065,2261
1127,2252
1062,1974
1124,1944
1123,1902
1125,1961
1188,1971
1122,1859
1058,1880
947,1924
946,1935
949,1896
945,2260
948,1912
1190,2313
1187,1952
951,2007
895,2242
952,2192
1009,2281
1008,2209
1010,2425
1007,1988
1061,1927
954,2320
896,2236
953,2217
1126,2229
1064,2236
1189,2008
955,6595
950,2245
892,2169
786,2222
836,2228
837,2196
787,2231
700,2309
655,2318
654,2319
653,2300
698,2294
699,2282
608,2309
696,2256
656,2315
833,2236
785,2216
835,1981
693,2249
894,2257
893,2227
1343,2423
1192,1873
1191,1990
828,2361
829,2354
780,2330
830,2348
779,2366
782,2251
529,2401
886,2268
596,2423
556,2433
598,2384
597,2401
526,2446
555,2486
525,2500
524,2516
523,2488
688,2350
607,2299
650,2289
651,2281
652,2290
737,2260
694,2257
695,2259
645,2330
646,2301
690,2281
600,2355
599,2369
781,2256
736,2270
558,2402
644,2347
643,2353
648,2276
692,2262
691,2265
513,2362
541,2395
540,2398
568,2334
530,2381
831,2274
559,2375
560,2370
642,2478
557,2430
496,2516
471,2547
444,2622
446,2577
528,2411
527,2451
562,2337
602,2304
734,2346
466,2437
464,2398
463,2416
478,2551
481,2452
480,2469
479,2519
647,2324
488,2382
502,2417
689,2308
533,2343
532,2364
531,2377
601,2319
484,2460
508,2397
510,2449
509,2421
534,2401
482,2467
506,2420
606,2345
455,2644
429,2522
456,2617
457,2597
428,2561
458,2532
554,2572
594,2511
640,2487
639,2589
551,2510
681,2555
636,2576
635,2597
590,2561
778,2375
777,2382
485,2486
486,2502
462,2471
563,2360
885,2293
943,2291
564,2448
641,2481
504,2434
503,2414
501,2477
500,2542
561,2358
254,2545
350,2484
321,2521
319,2529
251,2574
375,2500
347,2517
687,2359
565,2480
539,2382
511,2513
536,2489
649,2293
603,2361
605,3070
733,2367
735,2272
489,2393
514,2373
461,2530
460,2541
459,2561
468,2403
154,2725
178,2707
203,2685
228,2653
402,2527
401,2577
505,2425
522,2535
451,2687
452,2656
477,2585
476,2534
483,2506
884,2554
431,2484
430,2497
454,2680
595,2437
395,2699
394,2726
422,2799
417,2620
390,2661
538,2390
567,2331
426,2822
397,2637
398,2602
499,2671
475,2589
497,2574
498,2602
311,2596
342,2603
345,2560
421,2818
515,2430
472,2771
448,2740
473,2696
474,2622
353,2480
381,2474
256,2636
290,2560
324,2500
380,2523
407,2494
253,2583
226,2608
201,2621
177,2684
824,2456
775,2427
826,2389
939,2467
936,2758
937,2533
880,2501
566,2473
2821,65535
2834,65535
2833,65535
2789,65535
2790,65535
2770,65535
2788,65535
2776,65535
2795,65535
2775,65535
2794,65535
2825,65535
2824,65535
2826,65535
2811,65535
2812,65535
2796,65535
2827,65535
2858,65535
2855,65535
2849,65535
2838,65535
2814,65535
2813,65535
2828,65535
2839,65535
2791,65535
2792,65535
2803,65535
2830,65535
2815,65535
2819,65535
2818,65535
2817,65535
2831,65535
2810,65535
2829,65535
2783,65535
2820,65535
2804,65535
2785,65535
2784,65535
2762,65535
2768,65535
2751,65535
2750,65535
2733,65535
2769,65535
2720,65535
2761,65535
2741,65535
2837,65535
2793,65535
2808,65535
2753,65535
2736,65535
2735,65535
2809,65535
2772,65535
2845,65535
2844,65535
2848,65535
2777,65535
2778,65535
2779,65535
2759,65535
2780,65535
2797,65535
2843,65535
2832,65535
2842,65535
2758,65535
2738,65535
2774,65535
2773,65535
2771,65535
2851,65535
2847,65535
2854,65535
2721,65535
2756,65535
2737,65535
2840,65535
2752,65535
2754,65535
2755,65535
2852,65535
2853,65535
2856,65535
2841,65535
2742,65535
2727,65535
2744,65535
2726,65535
2743,65535
2725,65535
2746,65535
2787,65535
2766,65535
2763,65535
2765,65535
2745,65535
2764,65535
2552,65535
2501,65535
2443,65535
2442,65535
2320,65535
2381,65535
2382,65535
2498,65535
2499,65535
2438,65535
2439,65535
2497,65535
2441,65535
2379,65535
2380,65535
2319,65535
2551,65535
2550,65535
2563,7077
2321,6613
2322,6582
2383,6594
2384,6800
2446,6842
2445,6849
2503,6868
2385,6833
2504,7198
2505,7220
2557,7244
2558,7269
2559,7293
2560,7257
2564,7425
2562,7145
2561,7185
2605,7200
2609,7472
2565,7548
2566,7564
2515,7575
2397,5959
2457,7605
2458,7627
2401,6036
2337,5872
2336,5876
2399,5918
2398,5939
2402,6096
2333,6096
2273,6131
2219,6155
2218,6167
2159,6192
2454,6784
2393,6750
2512,7044
2502,7036
2608,7463
2156,6314
2155,6346
2154,6375
2213,6391
2212,6403
2211,6451
2210,6492
2264,6499
2324,6533
2323,6549
2030,65535
2094,65535
2157,6278
2450,7441
2388,7490
2387,7558
2326,7595
2266,7630
2265,6974
2508,7412
2396,6028
2335,6046
2334,6057
2158,6217
2279,8186
2278,8150
2222,8119
2221,8101
2276,8083
2275,5563
2261,6806
2207,6843
2149,65535
2554,6926
2599,6958
2633,7004
2664,8691
2689,8749
2690,8855
2691,8893
2692,8926
2152,6487
2089,6566
2088,6554
2025,6699
2603,65535
2602,65535
2556,65535
2693,65535
2671,65535
2670,65535
2694,65535
2553,65535
2665,65535
2705,65535
2710,65535
2668,65535
2639,65535
2463,6106
2521,6142
2572,6165
2451,7326
2390,7295
2391,7115
2392,7078
2215,7320
2268,65535
2093,65535
2092,65535
2028,65535
2024,8377
2150,7803
2086,7851
2209,7785
2023,7953
2087,7906
2148,8119
2262,6792
2327,65535
1560,2229
1630,2209
1631,2217
1559,2206
1629,1851
1558,1748
1634,2292
1633,2239
1482,2302
1481,2297
1699,2200
1700,2258
1701,2262
1563,2333
2070,2363
2008,2355
2009,2359
1959,2367
1958,2372
2006,2342
1957,2326
1956,2259
2193,2459
2132,2401
1912,2406
1911,2415
1865,2527
1866,2521
2007,2321
2069,2303
2010,2366
2011,2424
1961,2370
2072,2391
1913,2461
1867,2532
1962,2377
1914,2395
1915,2434
1909,2380
1636,2294
1635,2321
1564,2334
1702,2275
1637,2304
1638,2325
1565,2301
1486,2347
1760,2298
1704,2305
1703,2298
1763,2356
1762,2341
1817,2487
1705,2364
1863,2380
1815,2346
1759,2307
863,4328
758,4420
808,4374
982,4572
1036,4562
1099,4465
1100,4613
1166,4894
1167,5448
1237,5046
1238,5081
1375,5151
1308,5270
1309,5129
1236,5380
1235,4981
1101,4644
1037,4581
971,4112
1025,4102
1026,4085
1027,4105
1089,4069
720,4637
674,4686
864,4296
865,4272
919,4126
1024,4122
975,4242
974,4220
1028,4169
873,4450
925,4396
924,4373
917,4190
918,4166
623,4610
712,4466
713,4502
667,4508
622,4563
809,4360
719,4611
765,4568
972,4104
868,4481
869,4522
815,4548
920,4415
973,4134
981,4566
926,4475
927,4483
928,4507
1354,3957
1288,3981
1218,4037
1152,4022
1023,4149
1353,3941
1085,4137
1148,3945
1147,3938
1082,3910
772,4536
771,4493
819,4468
584,4845
628,5212
629,5183
1033,4511
978,4468
1031,4441
1030,4394
1029,4376
1091,4353
1035,4595
1034,4535
979,4495
1526,5270
1449,5308
1378,5336
1448,5259
1524,5237
1038,4628
1447,5700
1768,2552
1710,2588
1767,2603
391,2699
365,2664
339,2665
400,2563
393,2774
392,2750
396,2679
399,2620
443,2685
449,2889
450,2923
419,2712
414,2669
415,2633
387,2672
388,2681
389,2654
282,2640
281,2665
314,2641
313,2622
405,2455
411,2934
442,2893
255,2590
376,2683
373,2620
278,2605
275,2805
248,2895
335,2810
334,2787
306,2841
307,2830
176,2668
225,2624
320,2569
249,2668
287,2652
285,2576
776,2406
731,2419
315,2621
316,2603
204,2724
440,2418
439,2432
166,4305
269,4222
383,4160
1247,65535
1246,65535
1384,65535
1679,65535
1178,5568
1105,5366
1172,5373
1173,5384
1242,5421
1241,5450
1314,5669
1313,5575
1171,5433
1382,5775
1243,5466
1317,5856
1107,5411
1108,5419
1109,5476
1041,5380
1043,5676
1042,5667
1044,5730
1176,5469
1174,8623
1177,5521
1110,5529
985,5512
986,5555
932,5573
774,2450
730,2424
825,2472
728,2483
729,2441
727,2499
682,2501
684,2447
685,2428
732,2438
683,2482
2134,2484
2194,2493
2068,2251
2129,2280
1905,1753
1907,2190
1906,1830
1953,1694
2002,1815
2064,1848
2125,1869
2137,2919
2196,2697
2195,2651
1859,1828
1810,1855
1755,1965
2131,2380
2192,2418
1862,2381
1861,2335
1812,2291
1860,2247
1809,1698
1756,2135
1869,2452
1822,2522
1821,2471
1916,2490
1819,2405
1764,2381
1820,2410
1698,2170
1757,2189
1566,2335
1567,2338
1488,2394
1489,2442
1412,2439
1413,2445
1414,2449
1818,2415
1568,2388
1410,2400
2128,2271
2189,2283
2066,2221
2065,2210
2067,2234
1643,2548
1571,2498
1491,2497
2004,2251
2003,1868
1697,2295
2135,2554
2075,2613
1642,2524
1955,2224
2130,2440
2005,2328
1858,1782
1816,8008
1864,8001
1766,2502
1910,2421
1868,2442
2188,2635
2127,2604
1903,1906
2001,1924
2063,2262
2062,1822
1813,2373
1758,2229
1639,2375
1640,2401
1952,1670
2126,8090
1569,2411
1965,2742
1966,2788
2014,2738
1490,2462
1917,2545
1870,2581
1871,2595
1570,2445
1707,2538
2076,2630
2013,2736
1964,2780
1487,2396
1908,2403
2251,3201
2199,3145
2198,3008
2136,2603
1641,2545
1954,2266
1765,2511
1857,1856
2187,1885
1904,1910
1856,1858
1951,1608
1708,2748
245,8319
244,8302
357,8306
246,8434
247,8463
197,8557
223,8535
44,8899
43,8959
3,9095
23,9069
22,9058
63,8841
85,8783
84,8738
108,8238
149,8192
172,8583
296,8286
294,8334
355,8434
354,8466
326,8544
295,8443
291,8455
293,8577
260,8463
356,8494
441,8094
412,8117
329,8452
300,8396
148,8166
214,8404
146,8287
110,8368
262,8429
258,8842
292,8605
257,8907
235,8427
187,8327
212,8383
211,8410
186,8331
162,8305
161,8384
165,8283
189,8483
238,8564
237,8529
263,8465
265,8484
266,8462
267,8450
268,8290
26,9059
25,9027
105,65535
62,65535
83,65535
126,8405
175,8840
152,8774
151,8764
150,8723
103,8343
242,8236
191,8190
192,8241
217,8264
218,8317
145,8227
144,8311
167,8219
190,8197
219,8334
159,8431
185,8375
158,8488
188,8319
160,8396
143,65535
122,65535
75,65535
54,65535
198,8968
270,8331
221,8372
301,8429
302,8266
330,8293
331,8315
115,8367
133,8426
139,8323
134,8400
114,8924
48,65535
69,65535
92,8600
164,8393
4,65535
107,8745
129,8830
109,8270
125,8311
124,8285
127,65535
82,65535
67,65535
91,8768
93,8567
137,8702
113,8722
112,8680
136,65535
49,65535
72,65535
71,65535
406,2521
805,6610
858,6415
859,6556
967,3474
1142,3609
1080,6255
1022,6296
1079,6288
968,6411
1206,3566
915,6562
916,6597
914,6534
807,6649
911,7756
1078,6512
1207,3675
1278,3695
1277,3693
1344,3734
1415,3852
1492,3907
1345,3774
1346,3739
1208,3676
1209,3810
1143,3853
1144,3869
1145,3899
1417,3875
1493,3969
1494,4003
1572,4019
1081,6581
970,6784
408,2463
382,2502
437,2420
467,2450
409,2480
403,2549
432,2745
433,2576
404,2550
352,2625
351,2690
349,2557
317,2562
374,2509
346,2687
283,2612
410,2454
438,2465
465,2412
490,2419
491,2422
435,2461
436,2406
379,2582
323,2721
289,2670
377,2509
378,2531
592,2576
593,2547
552,2501
445,2597
424,2805
423,2753
416,2679
361,2738
362,2667
371,2692
372,2649
343,2705
344,2709
286,2763
227,2687
252,2607
284,2589
318,2571
250,2636
312,2627
340,2642
368,2681
369,2735
370,2682
341,2704
367,2695
308,2736
276,2716
277,2670
280,2658
310,2629
338,2717
366,2717
274,2872
305,2853
420,2769
363,2684
418,2776
550,6601
579,6624
576,6569
577,6581
578,6597
520,6577
618,6591
662,6621
619,6608
620,6621
621,6615
665,6597
666,6589
664,6617
580,6636
2260,65535
2257,65535
2206,65535
2146,65535
2314,65535
2313,65535
2312,65535
2373,65535
2256,65535
2205,65535
2434,65535
2435,65535
2375,65535
2376,65535
2433,65535
2491,65535
2490,65535
2492,65535
2546,65535
2597,65535
2596,65535
2544,65535
2145,65535
2082,65535
2020,65535
2494,65535
0,65535
11,65535
1052,3988
1053,3975
941,3965
1740,1968
1796,2010
1615,1831
1681,1909
1545,1726
1797,2281
1544,1785
1741,2201
1795,2856
1617,1690
1546,1715
1616,1737
1683,1769
1467,1674
1547,1661
1465,1734
1387,1884
1388,1849
1464,1869
1462,2024
1461,2050
1542,2133
1463,1980
1682,2169
1543,1925
1618,1682
1742,2334
1460,2274
1248,2262
1850,1354
1801,1353
1803,1354
882,2380
881,2399
938,2478
883,2373
940,6678
1998,1516
1902,1601
1807,1686
1691,1497
1694,1650
1693,2272
1749,1466
1752,1553
1753,1611
1627,1681
1628,1693
1557,1727
1479,1770
1402,1790
1808,1675
1946,1435
1947,1466
1948,1508
1997,1512
1855,1730
1690,1486
2060,1670
1949,1825
1950,1595
1751,1532
1692,1589
1999,1581
1901,1869
1900,1881
1852,1954
1853,1968
1805,1534
1750,1521
1854,1849
1806,1648
1748,1457
2061,1724
2000,1654
1804,1447
1899,2227
2884,65535
2892,65535
2883,65535
2876,65535
2874,65535
2882,65535
2877,65535
2911,65535
2905,65535
2906,65535
2896,65535
2887,65535
2881,65535
2880,65535
2888,65535
2902,65535
2903,65535
2907,65535
2912,65535
2895,65535
2894,65535
2875,65535
2885,65535
2893,65535
2904,65535
2865,65535
2866,65535
2909,65535
2913,65535
2886,65535
2878,65535
2869,65535
2871,65535
2872,65535
2879,65535
2870,65535
1330,1854
1331,1832
1401,1828
1262,1885
1263,1853
1478,1810
1403,1831
1261,1936
1480,2183
1264,1888
1390,1722
1389,1761
1319,1739
1251,2205
1250,2281
1285,3912
1284,3885
1214,3911
1146,3916
1505,4067
1504,4055
1582,4039
1581,4004
1713,3976
1771,3951
1654,4138
1653,4110
1651,4035
2096,5182
2033,5142
1972,5113
1923,5045
1922,5023
1874,5224
1873,5428
1919,4385
1829,5654
1579,3903
1424,3907
1711,3937
1348,3779
1419,3930
1359,4171
1429,4122
1428,4108
1421,3826
1577,3864
1499,3836
1230,4415
1365,4352
1511,4274
1300,4397
1366,4369
1512,4302
1716,4193
1503,4178
1276,5798
1347,3926
1349,3805
1645,3912
1578,3890
1770,3943
1715,4009
1150,4004
1217,4015
1149,3980
1580,3949
1352,3936
1502,3967
1825,4338
1718,4292
1717,4267
1872,4373
1656,4213
1648,4015
1712,3957
1213,3930
1212,3942
1084,3950
1420,3810
1281,3906
1282,3976
1587,4116
1586,4085
1585,4075
1652,4059
1427,4044
1975,5217
1977,5285
1932,5355
1931,5980
1426,3996
1422,3848
1425,3981
1583,4128
1501,3917
1283,3862
1286,4052
1215,3987
1211,3896
1210,3865
1083,3921
1655,4247
2220,5541
1355,5411
1772,4004
1436,4320
1435,4310
1589,4243
1163,4448
1735,5568
1791,5501
1841,5478
1840,5434
1219,4120
1220,4159
1647,3978
1646,3987
1279,3759
1714,3986
1575,3915
1576,3877
1498,3885
1573,3990
1496,3945
1497,3916
2177,130
2176,121
2294,119
2293,0
2237,71
2236,96
2364,819
2302,833
2301,755
2245,714
2056,843
2057,873
2055,833
2184,818
2120,824
2244,738
2538,579
2537,405
2591,568
1940,502
1989,412
1990,520
2539,601
2482,770
2483,638
2424,480
2121,885
2119,805
2050,356
2049,760
2048,275
2185,851
2243,654
2299,784
2241,511
2485,696
2542,737
2353,249
2292,124
2419,293
2478,300
2479,344
2536,372
2484,669
2486,713
2354,230
2416,392
2242,652
2355,228
2300,647
1991,738
1992,785
2477,304
2534,349
2535,428
2588,409
2587,424
2630,695
2051,645
2116,510
2175,108
2586,65535
2541,745
2178,199
2179,279
2240,348
2239,278
2238,246
2052,696
2053,722
1987,845
1988,417
1939,815
2594,710
2593,674
2358,385
2357,348
2420,344
2247,946
2427,786
2428,743
2181,607
2180,571
2417,319
2590,574
2297,520
2361,526
2362,546
2423,451
2422,415
2174,255
2356,211
1941,751
2365,1028
2112,168
2047,250
2182,756
2359,513
2533,1771
2295,171
2115,495
2632,1022
2631,961
2186,1003
2298,604
2360,623
2235,781
2291,794
2487,894
2246,878
2425,814
2117,1010
2543,828
1893,65535
2421,393
2476,334
2592,715
604,6586
