middle_point_id,reach_time_minutes
2835,65535
2836,65535
2806,65535
2822,65535
2823,65535
2807,65535
2846,65535
887,2486
888,2466
1326,2444
1185,2409
999,2450
1057,2597
1552,1534
1120,2403
1473,1595
944,2458
832,2493
1257,2467
1396,2269
1622,1555
1327,3784
1184,2394
1183,2387
1324,2551
1255,2631
1394,1607
1252,2249
1253,2260
1182,2291
1328,65535
1470,1620
1321,2232
1322,2295
1323,2405
1391,2230
1551,1552
1393,1643
1472,2416
1471,1597
1181,2774
1118,2399
1059,2390
1121,2410
1469,1681
1468,1829
1548,1665
1325,2485
1625,1551
1623,1516
1258,2490
1256,2474
791,2429
891,2422
703,2437
704,2431
660,2435
1553,1548
1624,1544
1554,1612
1474,1600
1475,1607
1550,1562
1549,1614
1320,1976
1466,1910
1541,3160
1318,2266
1249,2286
1186,2456
1003,2391
1002,2395
741,2446
788,2435
434,2558
697,2481
752,2440
1056,2470
1006,2361
907,2481
518,2470
1011,2338
1000,2438
1055,3062
997,3031
994,2925
996,2997
995,2981
991,2772
1112,65535
1114,3012
1051,2975
1398,1692
1395,2332
1001,2408
1811,1864
1960,2367
1769,2556
1823,2550
1329,65535
1332,1826
1259,65535
1200,2315
1199,2315
1140,2439
1141,2452
783,2507
1689,1493
1802,1340
1945,1182
2183,504
2418,366
1994,1139
1995,1868
2059,1537
1621,65535
1555,1656
1754,1721
1180,2303
1106,4005
933,4166
827,2588
2122,1219
2124,2271
493,2487
519,2479
544,2466
545,2471
494,2491
470,2500
543,2476
469,2494
517,2475
574,2475
573,2452
495,2497
546,2477
613,2449
612,2463
492,2493
572,2465
571,2479
570,2483
610,2510
575,2448
547,2490
516,2500
611,2481
542,2495
569,2535
609,2514
548,2486
549,2488
1404,2230
1405,2245
1266,2276
1193,2328
743,2459
742,2437
747,2448
746,2440
745,2453
744,2452
790,2428
789,2441
839,2414
838,2424
738,2513
739,2486
740,2463
890,2441
834,2496
784,2499
889,2453
856,2540
855,2520
854,2528
853,2525
852,2516
910,2512
909,2501
908,2487
964,2471
965,2498
1020,2535
966,2523
963,2456
1021,2569
1271,2313
1270,2310
1339,2318
1338,2307
1071,2339
1072,2358
1135,2347
1408,2323
1337,2299
1269,2305
1268,2294
1136,2348
1075,2469
1077,2445
1076,2500
1019,2502
1018,2475
1074,2380
1137,2364
1272,2340
1274,2416
1275,2450
1205,2462
1204,2459
1273,2387
1198,2329
1197,2326
1341,2443
1134,2336
1133,2333
1069,2314
1132,2307
1073,2390
1203,2443
1202,2385
1201,2358
1139,2428
1267,2285
1138,2395
1340,2345
1196,2299
1342,2429
1409,2336
1485,2338
1407,2263
1561,2231
1632,2204
1484,2281
1483,2270
1562,2236
1194,2316
1130,2328
1195,2294
1335,2258
1129,2345
1066,2339
1128,2364
1067,2326
1131,2327
1334,1872
1336,2280
1265,2315
1333,1831
1406,2251
857,2568
803,2582
804,2622
860,2628
969,2637
913,2624
912,2617
861,2640
806,2651
659,2437
751,2421
658,2448
705,2434
702,2450
706,2446
753,2472
614,2442
701,2455
661,2442
616,2450
848,2401
796,2409
797,2418
798,2438
750,2423
707,2453
615,2441
748,2460
845,2379
846,2398
657,2506
749,2453
795,2395
617,2465
663,2468
794,2423
847,2402
849,2430
902,2402
901,2410
900,2360
793,2438
899,2356
898,2348
897,2366
844,2413
842,2432
841,2426
956,2348
792,2431
843,2420
840,2423
850,2469
903,2394
800,2486
755,2513
756,2567
710,2535
711,2578
962,2423
961,2416
904,2400
906,2483
851,2487
802,2527
801,2497
799,2463
959,2429
1014,2379
1013,2373
708,2694
709,2540
754,2501
757,2591
1017,2401
1016,2395
960,2386
905,2436
958,2369
957,2362
1070,2327
1015,2373
1012,2364
1068,2324
1005,2367
1004,2378
1060,2385
1063,2377
1065,2356
1127,2406
1062,2376
1124,2424
1123,2412
1125,2406
1188,2451
1122,2441
1058,2397
947,2405
946,2417
949,2393
945,2437
948,2404
1190,2498
1187,2472
951,2370
895,2376
952,2362
1009,2336
1008,2344
1010,2330
1007,2355
1061,2399
954,2340
896,2370
953,2352
1126,2381
1064,2373
1189,2553
955,2342
950,2397
892,2417
786,2429
836,2425
837,2421
787,2427
700,2493
655,2511
654,2506
653,2491
698,2466
699,2463
608,2534
696,2497
656,2508
833,2488
785,2474
835,2467
693,2504
894,2384
893,2413
1343,2423
1192,1873
1191,1990
828,2578
829,2564
780,2517
830,2559
779,2576
782,2506
529,2658
886,2502
596,2692
556,2722
598,2640
597,2663
526,2712
555,2727
525,2755
524,2723
523,2719
688,2553
607,2500
650,2503
651,2480
652,2490
737,2519
694,2469
695,2456
645,2567
646,2563
690,2536
600,2593
599,2579
781,2511
736,2521
558,2652
644,2569
643,2580
648,2543
692,2519
691,2529
513,2585
541,2517
540,2580
568,2638
530,2664
831,2510
559,2642
560,2639
642,2716
557,2695
496,2765
471,2807
444,2892
446,2823
528,2679
527,2694
562,2596
602,2566
734,2548
466,2626
464,2584
463,2605
478,2870
481,2752
480,2781
479,2815
647,2548
488,2660
502,2689
689,2548
533,2640
532,2651
531,2677
601,2599
484,2682
508,2706
510,2709
509,2715
534,2613
482,2766
506,2691
606,2585
455,2930
429,2710
456,2902
457,2883
428,2794
458,2747
554,2840
594,2750
640,2667
639,2709
551,2742
681,2824
636,2812
635,2820
590,2747
778,2585
777,2592
485,2644
486,2632
462,2591
563,2676
885,2516
943,3731
564,2777
641,2661
504,2714
503,2697
501,2717
500,2784
561,2661
254,2647
350,2609
321,2691
319,2646
251,2687
375,2620
347,2698
687,2599
565,2736
539,2629
511,2690
536,2728
649,2551
603,2735
605,2846
733,2560
735,2537
489,2662
514,2600
461,2830
460,2841
459,2819
468,2509
154,2804
178,2750
203,2735
228,2705
402,2675
401,2687
505,2725
522,2747
451,2941
452,2994
477,2919
476,2915
483,2926
884,2574
431,2685
430,2722
454,2894
595,2734
395,2789
394,2809
422,2901
417,2853
390,2851
538,2612
567,2532
426,2961
397,2800
398,2848
499,2863
475,2951
497,2793
498,2810
311,2714
342,2756
345,2730
421,2858
515,2558
472,3081
448,3112
473,3136
474,3177
353,2662
381,2637
256,2719
290,2693
324,2669
380,2689
407,2625
253,2701
226,2727
201,2740
177,2797
824,2696
775,2669
826,2599
939,2647
936,2758
937,2744
880,2712
566,2715
2821,65535
2834,65535
2833,65535
2789,65535
2790,65535
2770,65535
2788,65535
2776,65535
2795,65535
2775,65535
2794,65535
2825,65535
2824,65535
2826,65535
2811,65535
2812,65535
2796,65535
2827,65535
2858,65535
2855,65535
2849,65535
2838,65535
2814,65535
2813,65535
2828,65535
2839,65535
2791,65535
2792,65535
2803,65535
2830,65535
2815,65535
2819,65535
2818,65535
2817,65535
2831,65535
2810,65535
2829,65535
2783,65535
2820,65535
2804,65535
2785,65535
2784,65535
2762,65535
2768,65535
2751,65535
2750,65535
2733,65535
2769,65535
2720,65535
2761,65535
2741,65535
2837,65535
2793,65535
2808,65535
2753,65535
2736,65535
2735,65535
2809,65535
2772,65535
2845,65535
2844,65535
2848,65535
2777,65535
2778,65535
2779,65535
2759,65535
2780,65535
2797,65535
2843,65535
2832,65535
2842,65535
2758,65535
2738,65535
2774,65535
2773,65535
2771,65535
2851,65535
2847,65535
2854,65535
2721,65535
2756,65535
2737,65535
2840,65535
2752,65535
2754,65535
2755,65535
2852,65535
2853,65535
2856,65535
2841,65535
2742,65535
2727,65535
2744,65535
2726,65535
2743,65535
2725,65535
2746,65535
2787,65535
2766,65535
2763,65535
2765,65535
2745,65535
2764,65535
2552,65535
2501,65535
2443,65535
2442,65535
2320,65535
2381,65535
2382,65535
2498,65535
2499,65535
2438,65535
2439,65535
2497,65535
2441,65535
2379,65535
2380,65535
2319,65535
2551,65535
2550,65535
2563,65535
2321,65535
2322,65535
2383,65535
2384,65535
2446,65535
2445,65535
2503,65535
2385,65535
2504,65535
2505,65535
2557,65535
2558,65535
2559,65535
2560,65535
2564,65535
2562,65535
2561,65535
2605,65535
2609,65535
2565,65535
2566,65535
2515,4756
2397,4519
2457,4736
2458,4720
2401,65535
2337,4432
2336,4436
2399,4478
2398,4499
2402,65535
2333,4656
2273,4691
2219,4715
2218,4727
2159,4752
2454,65535
2393,65535
2512,65535
2502,65535
2608,65535
2156,65535
2155,65535
2154,65535
2213,65535
2212,65535
2211,65535
2210,65535
2264,65535
2324,65535
2323,65535
2030,65535
2094,65535
2157,65535
2450,65535
2388,65535
2387,65535
2326,65535
2266,65535
2265,65535
2508,65535
2396,4588
2335,4606
2334,4617
2158,4777
2279,65535
2278,65535
2222,65535
2221,65535
2276,65535
2275,3804
2261,65535
2207,65535
2149,65535
2554,65535
2599,65535
2633,65535
2664,65535
2689,65535
2690,65535
2691,65535
2692,65535
2152,65535
2089,65535
2088,65535
2025,65535
2603,65535
2602,65535
2556,65535
2693,65535
2671,65535
2670,65535
2694,65535
2553,65535
2665,65535
2705,65535
2710,65535
2668,65535
2639,65535
2463,65535
2521,65535
2572,65535
2451,65535
2390,65535
2391,65535
2392,65535
2215,65535
2268,65535
2093,65535
2092,65535
2028,65535
2024,65535
2150,65535
2086,65535
2209,65535
2023,65535
2087,65535
2148,65535
2262,65535
2327,65535
1560,2247
1630,2209
1631,2217
1559,2206
1629,1851
1558,1748
1634,2292
1633,2239
1482,2302
1481,2297
1699,2200
1700,2258
1701,2262
1563,2299
2070,2363
2008,2355
2009,2359
1959,2379
1958,2390
2006,2366
1957,2375
1956,2406
2193,2459
2132,2401
1912,2406
1911,2415
1865,2527
1866,2521
2007,2321
2069,2303
2010,2366
2011,2424
1961,2385
2072,2391
1913,2461
1867,2532
1962,2395
1914,2527
1915,2560
1909,2380
1636,2294
1635,2321
1564,2334
1702,2275
1637,2304
1638,2325
1565,2301
1486,2347
1760,2298
1704,2305
1703,2298
1763,2356
1762,2341
1817,2487
1705,2364
1863,2380
1815,2346
1759,2307
863,3025
758,3113
808,3069
982,3406
1036,3703
1099,3873
1100,3771
1166,3984
1167,4033
1237,4128
1238,4157
1375,4228
1308,4185
1309,4207
1236,4093
1235,4071
1101,3802
1037,3738
971,2950
1025,2952
1026,2967
1027,2979
1089,3009
720,3197
674,3246
864,3010
865,3031
919,2968
1024,2934
975,3041
974,3015
1028,2998
873,3259
925,3197
924,3180
917,2990
918,2966
623,3285
712,3160
713,3194
667,3199
622,3255
809,3055
719,3171
765,3128
972,2954
868,3041
869,3082
815,3108
920,3197
973,2995
981,3370
926,3284
927,3292
928,3316
1354,2998
1288,2986
1218,2957
1152,2992
1023,2889
1353,2974
1085,2847
1148,2805
1147,2798
1082,2770
772,4168
771,4125
819,4100
584,3386
628,3709
629,3683
1033,3193
978,3150
1031,3123
1030,3076
1029,3056
1091,3033
1035,3708
1034,3217
979,3177
1526,4343
1449,4388
1378,4416
1448,4333
1524,4311
1038,3786
1447,4473
1768,2552
1710,2588
1767,2603
391,2822
365,2783
339,2768
400,2818
393,2838
392,2863
396,2784
399,2951
443,2971
449,2948
450,2923
419,2956
414,3027
415,2968
387,2977
388,2872
389,2865
282,2905
281,2831
314,2800
313,2756
405,2575
411,3092
442,3051
255,2680
376,2683
373,2698
278,2725
275,2791
248,2838
335,2930
334,2895
306,2841
307,2830
176,2813
225,2714
320,2689
249,2921
287,2652
285,2695
776,2646
731,2634
315,2797
316,2874
204,2751
440,2520
439,2557
166,4305
269,4046
383,3872
1247,65535
1246,65535
1384,65535
1679,65535
1178,65535
1105,4009
1172,4028
1173,4078
1242,4080
1241,4072
1314,4229
1313,4135
1171,4054
1382,4335
1243,4277
1317,4416
1107,4017
1108,4196
1109,4481
1041,4026
1043,4236
1042,4227
1044,4290
1176,65535
1174,4303
1177,65535
1110,65535
985,4072
986,4115
932,4133
774,2690
730,2639
825,2712
728,2726
729,2681
727,2851
682,2741
684,2658
685,2638
732,2618
683,2902
2134,2484
2194,2493
2068,2251
2129,2280
1905,2217
1907,2352
1906,2317
1953,2225
2002,2197
2064,2066
2125,2246
2137,2919
2196,2697
2195,2651
1859,2225
1810,2215
1755,1965
2131,2380
2192,2418
1862,2381
1861,2335
1812,2296
1860,2333
1809,1698
1756,2135
1869,2452
1822,2522
1821,2471
1916,2490
1819,2405
1764,2381
1820,2410
1698,2170
1757,2189
1566,2335
1567,2338
1488,2394
1489,2442
1412,2439
1413,2445
1414,2449
1818,2415
1568,2388
1410,2400
2128,2271
2189,2283
2066,2221
2065,2210
2067,2234
1643,2548
1571,2498
1491,2497
2004,2251
2003,2283
1697,2295
2135,2554
2075,2613
1642,2524
1955,2414
2130,2440
2005,2505
1858,2202
1816,3688
1864,3681
1766,2502
1910,2421
1868,2442
2188,2635
2127,2604
1903,1906
2001,2219
2063,2262
2062,1822
1813,2373
1758,2229
1639,2375
1640,2401
1952,1814
2126,3770
1569,2411
1965,2742
1966,2788
2014,2738
1490,2462
1917,2545
1870,2581
1871,2595
1570,2445
1707,2538
2076,2630
2013,2736
1964,2780
1487,2396
1908,2497
2251,65535
2199,65535
2198,65535
2136,2603
1641,2545
1954,2488
1765,2511
1857,1859
2187,2956
1904,1910
1856,1858
1951,1608
1708,2748
245,4110
244,4098
357,3986
246,4135
247,4162
197,4237
223,4215
44,4579
43,4639
3,4775
23,4749
22,4738
63,4521
85,4463
84,4418
108,4384
149,4338
172,4302
296,3966
294,4014
355,4114
354,4146
326,4224
295,4123
291,4135
293,4257
260,4277
356,4174
441,3774
412,3797
329,4132
300,4076
148,4480
214,4296
146,4411
110,4663
262,4109
258,4522
292,4285
257,4587
235,4385
187,4464
212,4491
211,4495
186,4576
162,4590
161,4603
165,4358
189,4414
238,4244
237,4209
263,4145
265,4250
266,4270
267,4295
268,4344
26,4739
25,4707
105,65535
62,65535
83,65535
126,4599
175,4520
152,4454
151,4444
150,4403
103,65535
242,4400
191,4570
192,4624
217,4650
218,65535
145,4390
144,4717
167,4332
190,4558
219,65535
159,65535
185,65535
158,65535
188,4447
160,65535
143,65535
122,65535
75,65535
54,65535
198,4648
270,4404
221,4752
301,65535
302,4354
330,4339
331,4307
115,4692
133,4754
139,65535
134,4728
114,4715
48,65535
69,65535
92,4629
164,65535
4,65535
107,4425
129,4510
109,65535
125,65535
124,65535
127,65535
82,65535
67,65535
91,65535
93,65535
137,65535
113,65535
112,65535
136,65535
49,65535
72,65535
71,65535
406,2641
805,2635
858,2611
859,2712
967,2617
1142,2628
1080,2613
1022,2617
1079,2602
968,2614
1206,2642
915,2662
916,2673
914,2634
807,2688
911,3436
1078,2580
1207,2634
1278,2675
1277,2651
1344,2694
1415,2712
1492,2767
1345,2683
1346,2707
1208,2642
1209,2676
1143,2713
1144,2729
1145,2759
1417,2719
1493,2785
1494,2803
1572,2819
1081,2621
970,3064
408,2666
382,2659
437,2590
467,2570
409,2640
403,2715
432,2949
433,2791
404,2693
352,2692
351,2690
349,2653
317,2845
374,2668
346,2719
283,2879
410,2617
438,2633
465,2592
490,2590
491,2517
435,2615
436,2623
379,2641
323,2721
289,2740
377,2624
378,2649
592,2793
593,2819
552,2741
445,2898
424,2821
423,2838
416,2897
361,2906
362,2891
371,2845
372,2779
343,2923
344,2920
286,2728
227,2706
252,2696
284,2715
318,2723
250,2752
312,2726
340,2719
368,2743
369,2753
370,2918
341,2732
367,2756
308,2879
276,2771
277,2844
280,2778
310,2743
338,2790
366,2837
274,2804
305,2853
420,3000
363,2890
418,2898
550,2499
579,2514
576,2468
577,2478
578,2487
520,2506
618,2474
662,2481
619,2481
620,2488
621,2498
665,2517
666,2511
664,2480
580,2509
2260,65535
2257,65535
2206,65535
2146,65535
2314,65535
2313,65535
2312,65535
2373,65535
2256,65535
2205,65535
2434,65535
2435,65535
2375,65535
2376,65535
2433,65535
2491,65535
2490,65535
2492,65535
2546,65535
2597,65535
2596,65535
2544,65535
2145,65535
2082,65535
2020,65535
2494,65535
0,65535
11,65535
1052,3028
1053,3015
941,3055
1740,2461
1796,2535
1615,2319
1681,2396
1545,2200
1797,2575
1544,2275
1741,2553
1795,2856
1617,2220
1546,2206
1616,2237
1683,2341
1467,1852
1547,1861
1465,2278
1387,2247
1388,2205
1464,2264
1462,3019
1461,3040
1542,3104
1463,2983
1682,2528
1543,2396
1618,2277
1742,2654
1460,3206
1248,2373
1850,1372
1801,2178
1803,1354
882,2599
881,2608
938,2667
883,2619
940,3798
1998,1516
1902,1601
1807,1686
1691,1497
1694,1650
1693,2272
1749,1466
1752,1553
1753,1611
1627,1681
1628,1693
1557,1727
1479,1770
1402,1790
1808,1675
1946,1435
1947,1466
1948,1508
1997,1512
1855,1730
1690,1486
2060,1670
1949,1825
1950,1595
1751,1532
1692,1589
1999,1581
1901,1869
1900,1881
1852,1954
1853,1968
1805,1534
1750,1521
1854,1849
1806,1648
1748,1457
2061,1724
2000,1654
1804,1447
1899,2227
2884,65535
2892,65535
2883,65535
2876,65535
2874,65535
2882,65535
2877,65535
2911,65535
2905,65535
2906,65535
2896,65535
2887,65535
2881,65535
2880,65535
2888,65535
2902,65535
2903,65535
2907,65535
2912,65535
2895,65535
2894,65535
2875,65535
2885,65535
2893,65535
2904,65535
2865,65535
2866,65535
2909,65535
2913,65535
2886,65535
2878,65535
2869,65535
2871,65535
2872,65535
2879,65535
2870,65535
1330,1863
1331,1832
1401,1828
1262,1896
1263,1853
1478,1810
1403,2176
1261,2254
1480,2183
1264,2198
1390,1877
1389,1903
1319,2195
1251,2205
1250,2281
1285,2839
1284,2824
1214,2798
1146,2777
1505,2986
1504,2956
1582,2959
1581,2920
1713,2932
1771,2914
1654,3058
1653,3030
1651,2983
2096,3742
2033,3702
1972,3673
1923,3605
1922,3583
1874,3784
1873,3701
1919,3332
1829,3954
1579,2883
1424,2876
1711,2895
1348,2760
1419,2850
1359,3089
1429,3045
1428,3034
1421,2803
1577,2836
1499,2812
1230,3865
1365,3242
1511,3171
1300,3847
1366,3819
1512,3189
1716,3113
1503,2973
1276,2678
1347,2753
1349,2786
1645,2892
1578,2870
1770,2908
1715,2989
1150,2923
1217,2935
1149,2900
1580,2909
1352,2856
1502,2898
1825,3288
1718,3253
1717,3229
1872,3667
1656,3133
1648,2935
1712,2919
1213,2806
1212,2786
1084,2810
1420,2787
1281,2745
1282,2774
1587,3111
1586,3077
1585,3117
1652,3100
1427,3020
1975,3777
1977,3845
1932,3915
1931,4540
1426,2981
1422,2818
1425,2941
1583,3048
1501,2902
1283,2842
1286,2900
1215,2829
1211,2823
1210,2831
1083,2781
1655,3144
2220,3783
1355,65535
1772,2937
1436,3238
1435,3229
1589,3162
1163,3899
1735,4128
1791,4061
1841,4038
1840,3994
1219,2985
1220,3027
1647,2921
1646,2913
1279,2778
1714,2966
1575,2958
1576,2924
1498,2920
1573,2847
1496,2882
1497,2929
2177,747
2176,695
2294,516
2293,577
2237,644
2236,643
2364,162
2302,256
2301,318
2245,367
2056,963
2057,1007
2055,766
2184,818
2120,824
2244,738
2538,126
2537,208
2591,367
1940,950
1989,958
1990,894
2539,110
2482,123
2483,205
2424,229
2121,885
2119,698
2050,993
2049,952
2048,895
2185,851
2243,577
2299,784
2241,740
2485,78
2542,63
2353,870
2292,558
2419,330
2478,321
2479,265
2536,291
2484,136
2486,117
2354,509
2416,886
2242,652
2355,467
2300,427
1991,898
1992,905
2477,333
2534,349
2535,313
2588,409
2587,424
2630,695
2051,819
2116,713
2175,675
2586,65535
2541,0
2178,803
2179,823
2240,770
2239,773
2238,743
2052,950
2053,916
1987,1190
1988,1038
1939,1062
2594,39
2593,86
2358,385
2357,348
2420,310
2247,946
2427,130
2428,140
2181,617
2180,666
2417,418
2590,348
2297,779
2361,273
2362,291
2423,281
2422,336
2174,1020
2356,730
1941,939
2365,267
2112,786
2047,870
2182,756
2359,513
2533,1771
2295,1096
2115,786
2632,1022
2631,961
2186,1019
2298,604
2360,623
2235,2221
2291,2234
2487,167
2246,600
2425,246
2117,1010
2543,100
1893,65535
2421,341
2476,433
2592,264
604,65535
