middle_point_id,reach_time_minutes
2835,65535
2836,65535
2806,65535
2822,65535
2823,65535
2807,65535
2846,65535
887,4569
888,4547
1326,4660
1185,4569
999,4610
1057,4757
1552,65535
1120,4531
1473,65535
944,4758
832,4538
1257,4636
1396,65535
1622,65535
1327,4744
1184,4559
1183,4570
1324,65535
1255,65535
1394,65535
1252,65535
1253,65535
1182,65535
1328,65535
1470,65535
1321,65535
1322,65535
1323,65535
1391,65535
1551,65535
1393,65535
1472,65535
1471,65535
1181,65535
1118,65535
1059,4499
1121,4522
1469,65535
1468,65535
1548,65535
1325,4765
1625,4732
1623,65535
1258,4537
1256,4694
791,4399
891,4509
703,4357
704,4351
660,4355
1553,65535
1624,65535
1554,65535
1474,65535
1475,65535
1550,65535
1549,65535
1320,65535
1466,65535
1541,65535
1318,65535
1249,65535
1186,4556
1003,4494
1002,4502
741,4477
788,4441
434,4475
697,4450
752,4352
1056,4632
1006,4435
907,4221
518,4389
1011,4385
1000,4533
1055,65535
997,65535
994,65535
996,65535
995,65535
991,65535
1112,65535
1114,65535
1051,65535
1398,65535
1395,65535
1001,4508
1811,4648
1960,4729
1769,4692
1823,4715
1329,65535
1332,4503
1259,65535
1200,4378
1199,4375
1140,4284
1141,4297
783,4526
1689,65535
1802,65535
1945,65535
2183,65535
2418,65535
1994,65535
1995,65535
2059,65535
1621,65535
1555,4687
1754,4688
1180,65535
1106,65535
933,65535
827,4688
2122,65535
2124,65535
493,4404
519,4392
544,4386
545,4389
494,4398
470,4427
543,4387
469,4415
517,4395
574,4395
573,4372
495,4417
546,4393
613,4369
612,4383
492,4413
572,4384
571,4399
570,4403
610,4424
575,4368
547,4410
516,4411
611,4401
542,4412
569,4450
609,4435
548,4406
549,4408
1404,4485
1405,4434
1266,4418
1193,4427
743,4449
742,4460
747,4390
746,4393
745,4403
744,4419
790,4405
789,4421
839,4428
838,4443
738,4514
739,4497
740,4492
890,4541
834,4544
784,4539
889,4547
856,4146
855,4152
854,4178
853,4245
852,4247
910,4163
909,4171
908,4207
964,4218
965,4211
1020,4223
966,4155
963,4233
1021,4059
1271,4380
1270,4379
1339,4387
1338,4400
1071,4335
1072,4329
1135,4358
1408,4423
1337,4417
1269,4394
1268,4420
1136,4422
1075,4280
1077,4281
1076,4254
1019,4247
1018,4268
1074,4352
1137,4405
1272,4393
1274,4426
1275,4467
1205,4413
1204,4379
1273,4427
1198,4391
1197,4426
1341,4461
1134,4344
1133,4351
1069,4354
1132,4370
1073,4316
1203,4363
1202,4422
1201,4398
1139,4302
1267,4405
1138,4429
1340,4393
1196,4403
1342,4469
1409,4444
1485,4447
1407,4433
1561,4463
1632,4502
1484,4482
1483,4437
1562,4454
1194,4391
1130,4387
1195,4392
1335,4421
1129,4410
1066,4415
1128,4462
1067,4372
1131,4379
1334,4514
1336,4410
1265,4437
1333,4497
1406,4425
857,4107
803,4097
804,4095
860,4085
969,4077
913,4064
912,4055
861,4140
806,4151
659,4357
751,4340
658,4368
705,4354
702,4370
706,4362
753,4318
614,4362
701,4378
661,4360
616,4370
848,4290
796,4325
797,4309
798,4298
750,4344
707,4366
615,4361
748,4380
845,4384
846,4333
657,4426
749,4373
795,4361
617,4385
663,4376
794,4404
847,4322
849,4253
902,4328
901,4352
900,4366
793,4407
899,4428
898,4449
897,4437
844,4400
842,4412
841,4403
956,4374
792,4400
843,4420
840,4445
850,4247
903,4307
800,4261
755,4283
756,4303
710,4333
711,4378
962,4242
961,4290
904,4288
906,4226
851,4240
802,4260
801,4275
799,4271
959,4352
1014,4364
1013,4360
708,4745
709,4358
754,4301
757,4331
1017,4284
1016,4310
960,4327
905,4241
958,4375
957,4369
1070,4341
1015,4334
1012,4380
1068,4371
1005,4447
1004,4481
1060,4493
1063,4446
1065,4445
1127,4457
1062,4450
1124,4463
1123,4484
1125,4457
1188,4477
1122,4516
1058,4511
947,4509
946,4541
949,4484
945,4562
948,4504
1190,4538
1187,4512
951,4430
895,4420
952,4427
1009,4402
1008,4445
1010,4375
1007,4431
1061,4498
954,4403
896,4415
953,4449
1126,4473
1064,4446
1189,4593
955,4391
950,4439
892,4456
786,4468
836,4474
837,4450
787,4444
700,4413
655,4431
654,4434
653,4456
698,4428
699,4413
608,4440
696,4480
656,4428
833,4528
785,4514
835,4511
693,4507
894,4425
893,4449
1343,4463
1192,4516
1191,4535
828,4678
829,4664
780,4610
830,4659
779,4676
782,4531
529,4602
886,4593
596,4662
556,4702
598,4620
597,4656
526,4644
555,4710
525,65535
524,65535
523,4639
688,4566
607,4445
650,4481
651,4474
652,4469
737,4517
694,4496
695,4494
645,4556
646,4551
690,4531
600,4575
599,4589
781,4536
736,4525
558,4594
644,4564
643,4573
648,4538
692,4516
691,4522
513,4496
541,4437
540,4475
568,4468
530,4593
831,4551
559,4614
560,65535
642,4698
557,4636
496,4685
471,4770
444,65535
446,65535
528,4622
527,4669
562,4592
602,4606
734,4560
466,4447
464,4482
463,4496
478,4699
481,4618
480,4649
479,4675
647,4584
488,4507
502,4669
689,4571
533,4620
532,4631
531,4641
601,65535
484,4572
508,4553
510,4571
509,4565
534,4604
482,4646
506,65535
606,4475
455,4730
429,4570
456,4702
457,4596
428,4590
458,4582
554,4786
594,65535
640,65535
639,65535
551,4662
681,65535
636,65535
635,65535
590,65535
778,4685
777,4705
485,4580
486,4542
462,4552
563,65535
885,4604
943,65535
564,4633
641,4715
504,4608
503,4622
501,4711
500,4766
561,65535
254,4585
350,4529
321,4561
319,4550
251,4594
375,4566
347,4576
687,4579
565,4593
539,4515
511,4552
536,4587
649,4531
603,4690
605,65535
733,4580
735,4549
489,4467
514,4481
461,4551
460,4581
459,4599
468,4422
154,4713
178,4670
203,4655
228,4625
402,4561
401,4575
505,4630
522,4659
451,65535
452,65535
477,65535
476,65535
483,4616
884,65535
431,4533
430,4575
454,65535
595,65535
395,4742
394,65535
422,65535
417,65535
390,4764
538,4510
567,4461
426,4655
397,4676
398,4642
499,65535
475,65535
497,65535
498,65535
311,4611
342,4643
345,4600
421,65535
515,4433
472,65535
448,65535
473,65535
474,65535
353,4558
381,4538
256,4621
290,4597
324,4580
380,4555
407,4540
253,4626
226,4651
201,65535
177,65535
824,65535
775,65535
826,4699
939,65535
936,65535
937,65535
880,4721
566,4580
2821,65535
2834,65535
2833,65535
2789,65535
2790,65535
2770,65535
2788,65535
2776,65535
2795,65535
2775,65535
2794,65535
2825,65535
2824,65535
2826,65535
2811,65535
2812,65535
2796,65535
2827,65535
2858,65535
2855,65535
2849,65535
2838,65535
2814,65535
2813,65535
2828,65535
2839,65535
2791,65535
2792,65535
2803,65535
2830,65535
2815,65535
2819,65535
2818,65535
2817,65535
2831,65535
2810,65535
2829,65535
2783,65535
2820,65535
2804,65535
2785,65535
2784,65535
2762,65535
2768,65535
2751,65535
2750,65535
2733,65535
2769,65535
2720,65535
2761,65535
2741,65535
2837,65535
2793,65535
2808,65535
2753,65535
2736,65535
2735,65535
2809,65535
2772,65535
2845,65535
2844,65535
2848,65535
2777,65535
2778,65535
2779,65535
2759,65535
2780,65535
2797,65535
2843,65535
2832,65535
2842,65535
2758,65535
2738,65535
2774,65535
2773,65535
2771,65535
2851,65535
2847,65535
2854,65535
2721,65535
2756,65535
2737,65535
2840,65535
2752,65535
2754,65535
2755,65535
2852,65535
2853,65535
2856,65535
2841,65535
2742,65535
2727,65535
2744,65535
2726,65535
2743,65535
2725,65535
2746,65535
2787,65535
2766,65535
2763,65535
2765,65535
2745,65535
2764,65535
2552,65535
2501,65535
2443,65535
2442,65535
2320,65535
2381,65535
2382,65535
2498,65535
2499,65535
2438,65535
2439,65535
2497,65535
2441,65535
2379,65535
2380,65535
2319,65535
2551,65535
2550,65535
2563,2757
2321,2035
2322,2009
2383,2017
2384,2480
2446,2476
2445,2458
2503,1370
2385,2491
2504,1330
2505,1282
2557,1227
2558,1189
2559,535
2560,2937
2564,3105
2562,2825
2561,2865
2605,2880
2609,3152
2565,3228
2566,3244
2515,3255
2397,2253
2457,3285
2458,3307
2401,2456
2337,2393
2336,2362
2399,2344
2398,2315
2402,2492
2333,2176
2273,2158
2219,2146
2218,2131
2159,2106
2454,2464
2393,2430
2512,2724
2502,3509
2608,3143
2156,2004
2155,1976
2154,1964
2213,1955
2212,1936
2211,1912
2210,1942
2264,1947
2324,1976
2323,1987
2030,65535
2094,65535
2157,2045
2450,1681
2388,1730
2387,1798
2326,1835
2266,1870
2265,1889
2508,1652
2396,2230
2335,2221
2334,2203
2158,2075
2279,2545
2278,2509
2222,2478
2221,2460
2276,2442
2275,2409
2261,2486
2207,2523
2149,65535
2554,1403
2599,1444
2633,1485
2664,4467
2689,4520
2690,4599
2691,4622
2692,4663
2152,2167
2089,2246
2088,2234
2025,2379
2603,65535
2602,0
2556,65535
2693,65535
2671,65535
2670,65535
2694,65535
2553,65535
2665,65535
2705,65535
2710,65535
2668,65535
2639,65535
2463,65535
2521,65535
2572,65535
2451,2942
2390,2975
2391,2795
2392,2758
2215,3000
2268,65535
2093,65535
2092,65535
2028,65535
2024,4057
2150,2043
2086,2091
2209,2025
2023,2193
2087,2146
2148,3799
2262,2472
2327,65535
1560,4500
1630,4538
1631,4518
1559,4640
1629,4731
1558,4728
1634,4483
1633,4477
1482,4462
1481,4521
1699,4527
1700,4534
1701,4541
1563,4462
2070,4798
2008,4744
2009,4746
1959,4714
1958,4771
2006,65535
1957,65535
1956,65535
2193,65535
2132,65535
1912,4750
1911,4710
1865,4674
1866,4742
2007,4798
2069,65535
2010,4783
2011,65535
1961,4762
2072,4799
1913,65535
1867,65535
1962,4795
1914,65535
1915,65535
1909,65535
1636,4516
1635,4538
1564,4492
1702,4534
1637,4549
1638,4614
1565,4518
1486,4478
1760,4604
1704,4542
1703,4528
1763,4577
1762,4578
1817,4615
1705,4725
1863,4681
1815,4650
1759,4611
863,4328
758,4420
808,4374
982,4000
1036,3984
1099,3916
1100,4071
1166,4477
1167,4527
1237,4619
1238,4647
1375,4728
1308,4686
1309,4707
1236,4584
1235,4563
1101,4105
1037,4042
971,4112
1025,4102
1026,4085
1027,4105
1089,4069
720,4637
674,4686
864,4264
865,4272
919,4126
1024,4071
975,4242
974,4220
1028,4169
873,4321
925,4352
924,4373
917,4190
918,4166
623,4610
712,4466
713,4502
667,4508
622,4563
809,4360
719,4611
765,4568
972,4104
868,4481
869,4522
815,4548
920,4415
973,4134
981,4099
926,4298
927,4290
928,4238
1354,3892
1288,3918
1218,3950
1152,3986
1023,4043
1353,3877
1085,4016
1148,3918
1147,3905
1082,3900
772,4536
771,4493
819,4468
584,65535
628,65535
629,65535
1033,4511
978,4468
1031,4441
1030,4394
1029,4376
1091,4353
1035,4444
1034,4466
979,4495
1526,65535
1449,65535
1378,65535
1448,65535
1524,65535
1038,4089
1447,65535
1768,4706
1710,4670
1767,4753
391,4742
365,4703
339,4689
400,4605
393,65535
392,65535
396,4716
399,4682
443,65535
449,65535
450,65535
419,65535
414,65535
415,65535
387,65535
388,65535
389,65535
282,4620
281,4660
314,4690
313,4704
405,4495
411,65535
442,65535
255,4619
376,4573
373,4651
278,4636
275,65535
248,65535
335,65535
334,65535
306,65535
307,65535
176,65535
225,4651
320,4547
249,4636
287,4662
285,4567
776,4748
731,4759
315,4662
316,65535
204,4695
440,4433
439,4458
166,65535
269,65535
383,65535
1247,65535
1246,65535
1384,65535
1679,65535
1178,65535
1105,65535
1172,65535
1173,65535
1242,65535
1241,65535
1314,65535
1313,65535
1171,65535
1382,65535
1243,65535
1317,65535
1107,65535
1108,65535
1109,65535
1041,65535
1043,65535
1042,65535
1044,65535
1176,65535
1174,65535
1177,65535
1110,65535
985,65535
986,65535
932,65535
774,65535
730,4773
825,4755
728,65535
729,65535
727,65535
682,65535
684,65535
685,65535
732,65535
683,65535
2134,65535
2194,65535
2068,65535
2129,65535
1905,4787
1907,65535
1906,65535
1953,65535
2002,65535
2064,65535
2125,65535
2137,65535
2196,65535
2195,65535
1859,4711
1810,4701
1755,4641
2131,65535
2192,65535
1862,4702
1861,65535
1812,65535
1860,65535
1809,4694
1756,4602
1869,65535
1822,4704
1821,4679
1916,65535
1819,4678
1764,4620
1820,4753
1698,4545
1757,4590
1566,4568
1567,4540
1488,4513
1489,4546
1412,4477
1413,4500
1414,4473
1818,4668
1568,65535
1410,4441
2128,65535
2189,65535
2066,65535
2065,65535
2067,65535
1643,4639
1571,4584
1491,4567
2004,65535
2003,65535
1697,4616
2135,65535
2075,65535
1642,4614
1955,65535
2130,65535
2005,65535
1858,4715
1816,65535
1864,65535
1766,4660
1910,65535
1868,65535
2188,65535
2127,65535
1903,65535
2001,65535
2063,65535
2062,65535
1813,65535
1758,4593
1639,4725
1640,4682
1952,65535
2126,65535
1569,4636
1965,65535
1966,65535
2014,65535
1490,4519
1917,65535
1870,4748
1871,4762
1570,4614
1707,4704
2076,65535
2013,65535
1964,65535
1487,4494
1908,65535
2251,65535
2199,65535
2198,65535
2136,65535
1641,4661
1954,65535
1765,4728
1857,4736
2187,65535
1904,65535
1856,65535
1951,65535
1708,65535
245,65535
244,65535
357,65535
246,65535
247,65535
197,65535
223,65535
44,65535
43,65535
3,65535
23,65535
22,65535
63,65535
85,65535
84,65535
108,65535
149,65535
172,65535
296,65535
294,65535
355,65535
354,65535
326,65535
295,65535
291,65535
293,65535
260,65535
356,65535
441,65535
412,65535
329,65535
300,65535
148,65535
214,65535
146,65535
110,65535
262,65535
258,65535
292,65535
257,65535
235,65535
187,65535
212,65535
211,65535
186,65535
162,65535
161,65535
165,65535
189,65535
238,65535
237,65535
263,65535
265,65535
266,65535
267,65535
268,65535
26,65535
25,65535
105,65535
62,65535
83,65535
126,65535
175,65535
152,65535
151,65535
150,65535
103,65535
242,65535
191,65535
192,65535
217,65535
218,65535
145,65535
144,65535
167,65535
190,65535
219,65535
159,65535
185,65535
158,65535
188,65535
160,65535
143,65535
122,65535
75,65535
54,65535
198,65535
270,65535
221,65535
301,65535
302,65535
330,65535
331,65535
115,65535
133,65535
139,65535
134,65535
114,65535
48,65535
69,65535
92,65535
164,65535
4,65535
107,65535
129,65535
109,65535
125,65535
124,65535
127,65535
82,65535
67,65535
91,65535
93,65535
137,65535
113,65535
112,65535
136,65535
49,65535
72,65535
71,65535
406,4585
805,4120
858,4048
859,4152
967,4038
1142,4001
1080,4010
1022,4008
1079,4021
968,4045
1206,3994
915,4102
916,4113
914,4074
807,4188
911,65535
1078,4049
1207,4006
1278,3961
1277,3996
1344,3991
1415,4032
1492,4032
1345,3952
1346,3926
1208,4007
1209,4023
1143,4004
1144,3969
1145,3909
1417,3938
1493,3985
1494,4003
1572,4019
1081,4003
970,4504
408,4521
382,4538
437,4469
467,4450
409,4504
403,4553
432,4551
433,4556
404,4514
352,4592
351,4541
349,4556
317,4649
374,4575
346,4636
283,4593
410,4477
438,4493
465,4474
490,4452
491,4439
435,4508
436,4519
379,4628
323,4701
289,4731
377,4550
378,4529
592,65535
593,65535
552,65535
445,65535
424,4697
423,65535
416,65535
361,65535
362,65535
371,4658
372,4628
343,65535
344,65535
286,65535
227,4628
252,4623
284,4576
318,4612
250,4635
312,4645
340,4623
368,4662
369,65535
370,65535
341,65535
367,4726
308,65535
276,65535
277,65535
280,65535
310,4664
338,4711
366,65535
274,65535
305,65535
420,65535
363,65535
418,65535
550,4419
579,4434
576,4388
577,4398
578,4400
520,4426
618,4388
662,4389
619,4401
620,4408
621,4395
665,4377
666,4371
664,4390
580,4416
2260,65535
2257,65535
2206,65535
2146,65535
2314,65535
2313,65535
2312,65535
2373,65535
2256,65535
2205,65535
2434,65535
2435,65535
2375,65535
2376,65535
2433,65535
2491,65535
2490,65535
2492,65535
2546,65535
2597,65535
2596,65535
2544,65535
2145,65535
2082,65535
2020,65535
2494,65535
0,65535
11,65535
1052,65535
1053,65535
941,65535
1740,65535
1796,65535
1615,65535
1681,65535
1545,65535
1797,65535
1544,65535
1741,65535
1795,65535
1617,65535
1546,65535
1616,65535
1683,65535
1467,65535
1547,65535
1465,65535
1387,65535
1388,65535
1464,65535
1462,65535
1461,65535
1542,65535
1463,65535
1682,65535
1543,65535
1618,65535
1742,65535
1460,65535
1248,65535
1850,65535
1801,65535
1803,65535
882,4699
881,4706
938,65535
883,65535
940,65535
1998,65535
1902,65535
1807,65535
1691,65535
1694,65535
1693,65535
1749,65535
1752,65535
1753,65535
1627,65535
1628,65535
1557,65535
1479,4515
1402,4505
1808,4723
1946,65535
1947,65535
1948,65535
1997,65535
1855,65535
1690,65535
2060,65535
1949,65535
1950,65535
1751,65535
1692,65535
1999,65535
1901,65535
1900,65535
1852,65535
1853,65535
1805,65535
1750,65535
1854,65535
1806,65535
1748,65535
2061,65535
2000,65535
1804,65535
1899,65535
2884,65535
2892,65535
2883,65535
2876,65535
2874,65535
2882,65535
2877,65535
2911,65535
2905,65535
2906,65535
2896,65535
2887,65535
2881,65535
2880,65535
2888,65535
2902,65535
2903,65535
2907,65535
2912,65535
2895,65535
2894,65535
2875,65535
2885,65535
2893,65535
2904,65535
2865,65535
2866,65535
2909,65535
2913,65535
2886,65535
2878,65535
2869,65535
2871,65535
2872,65535
2879,65535
2870,65535
1330,4511
1331,4505
1401,4508
1262,4511
1263,4504
1478,4559
1403,4490
1261,4567
1480,4504
1264,4546
1390,65535
1389,65535
1319,65535
1251,65535
1250,65535
1285,3854
1284,3869
1214,3857
1146,3898
1505,3673
1504,3707
1582,3672
1581,3737
1713,3694
1771,3715
1654,3528
1653,3562
1651,3610
2096,2888
2033,2873
1972,3020
1923,3076
1922,3097
1874,3148
1873,3239
1919,3191
1829,3954
1579,3786
1424,3778
1711,3736
1348,3884
1419,3947
1359,3828
1429,3781
1428,3770
1421,3853
1577,3804
1499,3833
1230,3865
1365,3765
1511,3674
1300,3847
1366,3819
1512,3699
1716,3422
1503,3723
1276,4028
1347,3926
1349,3912
1645,3764
1578,3789
1770,3727
1715,3649
1150,4004
1217,4016
1149,3980
1580,3760
1352,3844
1502,3762
1825,3274
1718,3327
1717,3367
1872,3243
1656,3658
1648,3722
1712,3712
1213,3883
1212,4048
1084,3946
1420,3869
1281,3976
1282,4060
1587,3816
1586,3785
1585,3774
1652,3708
1427,3736
1975,2997
1977,3059
1932,3142
1931,3100
1426,3761
1422,3857
1425,3797
1583,3633
1501,3809
1283,3924
1286,3883
1215,3868
1211,4022
1210,4031
1083,3921
1655,3723
2220,2810
1355,65535
1772,3747
1436,3769
1435,3755
1589,3687
1163,3899
1735,4128
1791,4061
1841,4038
1840,3994
1219,4000
1220,4039
1647,3761
1646,3753
1279,3978
1714,3678
1575,3915
1576,3877
1498,3885
1573,3990
1496,3945
1497,3916
2177,65535
2176,65535
2294,65535
2293,65535
2237,65535
2236,65535
2364,65535
2302,65535
2301,65535
2245,65535
2056,65535
2057,65535
2055,65535
2184,65535
2120,65535
2244,65535
2538,65535
2537,65535
2591,65535
1940,65535
1989,65535
1990,65535
2539,65535
2482,65535
2483,65535
2424,65535
2121,65535
2119,65535
2050,65535
2049,65535
2048,65535
2185,65535
2243,65535
2299,65535
2241,65535
2485,65535
2542,65535
2353,65535
2292,65535
2419,65535
2478,65535
2479,65535
2536,65535
2484,65535
2486,65535
2354,65535
2416,65535
2242,65535
2355,65535
2300,65535
1991,65535
1992,65535
2477,65535
2534,65535
2535,65535
2588,65535
2587,65535
2630,65535
2051,65535
2116,65535
2175,65535
2586,65535
2541,65535
2178,65535
2179,65535
2240,65535
2239,65535
2238,65535
2052,65535
2053,65535
1987,65535
1988,65535
1939,65535
2594,65535
2593,65535
2358,65535
2357,65535
2420,65535
2247,65535
2427,65535
2428,65535
2181,65535
2180,65535
2417,65535
2590,65535
2297,65535
2361,65535
2362,65535
2423,65535
2422,65535
2174,65535
2356,65535
1941,65535
2365,65535
2112,65535
2047,65535
2182,65535
2359,65535
2533,65535
2295,65535
2115,65535
2632,65535
2631,65535
2186,65535
2298,65535
2360,65535
2235,65535
2291,65535
2487,65535
2246,65535
2425,65535
2117,65535
2543,65535
1893,65535
2421,65535
2476,65535
2592,65535
604,65535
