middle_point_id,reach_time_minutes
2835,65535
2836,65535
2806,65535
2822,65535
2823,65535
2807,65535
2846,65535
887,65535
888,65535
1326,65535
1185,65535
999,65535
1057,65535
1552,65535
1120,65535
1473,65535
944,65535
832,65535
1257,65535
1396,65535
1622,65535
1327,65535
1184,65535
1183,65535
1324,65535
1255,65535
1394,65535
1252,65535
1253,65535
1182,65535
1328,65535
1470,65535
1321,65535
1322,65535
1323,65535
1391,65535
1551,65535
1393,65535
1472,65535
1471,65535
1181,65535
1118,65535
1059,65535
1121,65535
1469,65535
1468,65535
1548,65535
1325,65535
1625,65535
1623,65535
1258,65535
1256,65535
791,65535
891,65535
703,65535
704,65535
660,65535
1553,65535
1624,65535
1554,65535
1474,65535
1475,65535
1550,65535
1549,65535
1320,65535
1466,65535
1541,65535
1318,65535
1249,65535
1186,65535
1003,65535
1002,65535
741,65535
788,65535
434,65535
697,65535
752,65535
1056,65535
1006,65535
907,65535
518,65535
1011,65535
1000,65535
1055,65535
997,65535
994,65535
996,65535
995,65535
991,65535
1112,65535
1114,65535
1051,65535
1398,65535
1395,65535
1001,65535
1811,65535
1960,65535
1769,65535
1823,65535
1329,65535
1332,65535
1259,65535
1200,65535
1199,65535
1140,65535
1141,65535
783,65535
1689,65535
1802,65535
1945,65535
2183,65535
2418,65535
1994,65535
1995,65535
2059,65535
1621,65535
1555,65535
1754,65535
1180,65535
1106,65535
933,65535
827,65535
2122,65535
2124,65535
493,65535
519,65535
544,65535
545,65535
494,65535
470,65535
543,65535
469,65535
517,65535
574,65535
573,65535
495,65535
546,65535
613,65535
612,65535
492,65535
572,65535
571,65535
570,65535
610,65535
575,65535
547,65535
516,65535
611,65535
542,65535
569,65535
609,65535
548,65535
549,65535
1404,65535
1405,65535
1266,65535
1193,65535
743,65535
742,65535
747,65535
746,65535
745,65535
744,65535
790,65535
789,65535
839,65535
838,65535
738,65535
739,65535
740,65535
890,65535
834,65535
784,65535
889,65535
856,65535
855,65535
854,65535
853,65535
852,65535
910,65535
909,65535
908,65535
964,65535
965,65535
1020,65535
966,65535
963,65535
1021,65535
1271,65535
1270,65535
1339,65535
1338,65535
1071,65535
1072,65535
1135,65535
1408,65535
1337,65535
1269,65535
1268,65535
1136,65535
1075,65535
1077,65535
1076,65535
1019,65535
1018,65535
1074,65535
1137,65535
1272,65535
1274,65535
1275,65535
1205,65535
1204,65535
1273,65535
1198,65535
1197,65535
1341,65535
1134,65535
1133,65535
1069,65535
1132,65535
1073,65535
1203,65535
1202,65535
1201,65535
1139,65535
1267,65535
1138,65535
1340,65535
1196,65535
1342,65535
1409,65535
1485,65535
1407,65535
1561,65535
1632,65535
1484,65535
1483,65535
1562,65535
1194,65535
1130,65535
1195,65535
1335,65535
1129,65535
1066,65535
1128,65535
1067,65535
1131,65535
1334,65535
1336,65535
1265,65535
1333,65535
1406,65535
857,65535
803,65535
804,65535
860,65535
969,65535
913,65535
912,65535
861,65535
806,65535
659,65535
751,65535
658,65535
705,65535
702,65535
706,65535
753,65535
614,65535
701,65535
661,65535
616,65535
848,65535
796,65535
797,65535
798,65535
750,65535
707,65535
615,65535
748,65535
845,65535
846,65535
657,65535
749,65535
795,65535
617,65535
663,65535
794,65535
847,65535
849,65535
902,65535
901,65535
900,65535
793,65535
899,65535
898,65535
897,65535
844,65535
842,65535
841,65535
956,65535
792,65535
843,65535
840,65535
850,65535
903,65535
800,65535
755,65535
756,65535
710,65535
711,65535
962,65535
961,65535
904,65535
906,65535
851,65535
802,65535
801,65535
799,65535
959,65535
1014,65535
1013,65535
708,65535
709,65535
754,65535
757,65535
1017,65535
1016,65535
960,65535
905,65535
958,65535
957,65535
1070,65535
1015,65535
1012,65535
1068,65535
1005,65535
1004,65535
1060,65535
1063,65535
1065,65535
1127,65535
1062,65535
1124,65535
1123,65535
1125,65535
1188,65535
1122,65535
1058,65535
947,65535
946,65535
949,65535
945,65535
948,65535
1190,65535
1187,65535
951,65535
895,65535
952,65535
1009,65535
1008,65535
1010,65535
1007,65535
1061,65535
954,65535
896,65535
953,65535
1126,65535
1064,65535
1189,65535
955,65535
950,65535
892,65535
786,65535
836,65535
837,65535
787,65535
700,65535
655,65535
654,65535
653,65535
698,65535
699,65535
608,65535
696,65535
656,65535
833,65535
785,65535
835,65535
693,65535
894,65535
893,65535
1343,65535
1192,65535
1191,65535
828,65535
829,65535
780,65535
830,65535
779,65535
782,65535
529,4670
886,65535
596,4753
556,4693
598,65535
597,4724
526,4629
555,4657
525,65535
524,65535
523,4582
688,65535
607,65535
650,65535
651,65535
652,65535
737,65535
694,65535
695,65535
645,65535
646,65535
690,65535
600,65535
599,65535
781,65535
736,65535
558,4743
644,65535
643,65535
648,65535
692,65535
691,65535
513,65535
541,65535
540,65535
568,65535
530,4729
831,65535
559,4763
560,65535
642,4750
557,4696
496,4545
471,4496
444,4438
446,4480
528,4685
527,4669
562,65535
602,65535
734,65535
466,65535
464,65535
463,65535
478,65535
481,65535
480,65535
479,65535
647,65535
488,65535
502,4702
689,65535
533,65535
532,4728
531,65535
601,65535
484,65535
508,65535
510,65535
509,65535
534,65535
482,65535
506,65535
606,65535
455,65535
429,65535
456,65535
457,65535
428,65535
458,65535
554,4786
594,65535
640,65535
639,65535
551,4602
681,65535
636,65535
635,65535
590,4642
778,65535
777,65535
485,65535
486,65535
462,65535
563,65535
885,65535
943,65535
564,65535
641,65535
504,4705
503,4682
501,4711
500,4766
561,65535
254,65535
350,65535
321,65535
319,65535
251,65535
375,65535
347,65535
687,65535
565,65535
539,65535
511,65535
536,65535
649,65535
603,65535
605,65535
733,65535
735,65535
489,65535
514,65535
461,65535
460,65535
459,65535
468,65535
154,65535
178,65535
203,65535
228,65535
402,65535
401,65535
505,65535
522,4605
451,65535
452,65535
477,65535
476,65535
483,65535
884,65535
431,65535
430,65535
454,65535
595,65535
395,65535
394,65535
422,65535
417,4502
390,4527
538,65535
567,65535
426,65535
397,65535
398,65535
499,65535
475,65535
497,4652
498,4634
311,65535
342,65535
345,65535
421,4759
515,65535
472,4521
448,4552
473,4576
474,65535
353,65535
381,65535
256,65535
290,65535
324,65535
380,65535
407,65535
253,65535
226,65535
201,65535
177,65535
824,65535
775,65535
826,65535
939,65535
936,65535
937,65535
880,65535
566,65535
2821,65535
2834,65535
2833,65535
2789,65535
2790,65535
2770,65535
2788,65535
2776,65535
2795,65535
2775,65535
2794,65535
2825,65535
2824,65535
2826,65535
2811,65535
2812,65535
2796,65535
2827,65535
2858,65535
2855,65535
2849,65535
2838,65535
2814,65535
2813,65535
2828,65535
2839,65535
2791,65535
2792,65535
2803,65535
2830,65535
2815,65535
2819,65535
2818,65535
2817,65535
2831,65535
2810,65535
2829,65535
2783,65535
2820,65535
2804,65535
2785,65535
2784,65535
2762,65535
2768,65535
2751,65535
2750,65535
2733,65535
2769,65535
2720,65535
2761,65535
2741,65535
2837,65535
2793,65535
2808,65535
2753,65535
2736,65535
2735,65535
2809,65535
2772,65535
2845,65535
2844,65535
2848,65535
2777,65535
2778,65535
2779,65535
2759,65535
2780,65535
2797,65535
2843,65535
2832,65535
2842,65535
2758,65535
2738,65535
2774,65535
2773,65535
2771,65535
2851,65535
2847,65535
2854,65535
2721,65535
2756,65535
2737,65535
2840,65535
2752,65535
2754,65535
2755,65535
2852,65535
2853,65535
2856,65535
2841,65535
2742,65535
2727,65535
2744,65535
2726,65535
2743,65535
2725,65535
2746,65535
2787,65535
2766,65535
2763,65535
2765,65535
2745,65535
2764,65535
2552,65535
2501,65535
2443,65535
2442,65535
2320,65535
2381,65535
2382,65535
2498,65535
2499,65535
2438,65535
2439,65535
2497,65535
2441,65535
2379,65535
2380,65535
2319,65535
2551,65535
2550,65535
2563,65535
2321,65535
2322,65535
2383,65535
2384,65535
2446,65535
2445,65535
2503,65535
2385,65535
2504,65535
2505,65535
2557,65535
2558,65535
2559,65535
2560,65535
2564,65535
2562,65535
2561,65535
2605,65535
2609,65535
2565,65535
2566,65535
2515,65535
2397,65535
2457,65535
2458,65535
2401,65535
2337,65535
2336,65535
2399,65535
2398,65535
2402,65535
2333,65535
2273,65535
2219,65535
2218,65535
2159,65535
2454,65535
2393,65535
2512,65535
2502,65535
2608,65535
2156,65535
2155,65535
2154,65535
2213,65535
2212,65535
2211,65535
2210,65535
2264,65535
2324,65535
2323,65535
2030,65535
2094,65535
2157,65535
2450,65535
2388,65535
2387,65535
2326,65535
2266,65535
2265,65535
2508,65535
2396,65535
2335,65535
2334,65535
2158,65535
2279,65535
2278,65535
2222,65535
2221,65535
2276,65535
2275,65535
2261,65535
2207,65535
2149,65535
2554,65535
2599,65535
2633,65535
2664,65535
2689,65535
2690,65535
2691,65535
2692,65535
2152,65535
2089,65535
2088,65535
2025,65535
2603,65535
2602,65535
2556,65535
2693,65535
2671,65535
2670,65535
2694,65535
2553,65535
2665,65535
2705,65535
2710,65535
2668,65535
2639,65535
2463,65535
2521,65535
2572,65535
2451,65535
2390,65535
2391,65535
2392,65535
2215,65535
2268,65535
2093,65535
2092,65535
2028,65535
2024,65535
2150,65535
2086,65535
2209,65535
2023,65535
2087,65535
2148,65535
2262,65535
2327,65535
1560,65535
1630,65535
1631,65535
1559,65535
1629,65535
1558,65535
1634,65535
1633,65535
1482,65535
1481,65535
1699,65535
1700,65535
1701,65535
1563,65535
2070,65535
2008,65535
2009,65535
1959,65535
1958,65535
2006,65535
1957,65535
1956,65535
2193,65535
2132,65535
1912,65535
1911,65535
1865,65535
1866,65535
2007,65535
2069,65535
2010,65535
2011,65535
1961,65535
2072,65535
1913,65535
1867,65535
1962,65535
1914,65535
1915,65535
1909,65535
1636,65535
1635,65535
1564,65535
1702,65535
1637,65535
1638,65535
1565,65535
1486,65535
1760,65535
1704,65535
1703,65535
1763,65535
1762,65535
1817,65535
1705,65535
1863,65535
1815,65535
1759,65535
863,65535
758,65535
808,65535
982,65535
1036,65535
1099,65535
1100,65535
1166,65535
1167,65535
1237,65535
1238,65535
1375,65535
1308,65535
1309,65535
1236,65535
1235,65535
1101,65535
1037,65535
971,65535
1025,65535
1026,65535
1027,65535
1089,65535
720,65535
674,65535
864,65535
865,65535
919,65535
1024,65535
975,65535
974,65535
1028,65535
873,65535
925,65535
924,65535
917,65535
918,65535
623,65535
712,65535
713,65535
667,65535
622,65535
809,65535
719,65535
765,65535
972,65535
868,65535
869,65535
815,65535
920,65535
973,65535
981,65535
926,65535
927,65535
928,65535
1354,65535
1288,65535
1218,65535
1152,65535
1023,65535
1353,65535
1085,65535
1148,65535
1147,65535
1082,65535
772,65535
771,65535
819,65535
584,65535
628,65535
629,65535
1033,65535
978,65535
1031,65535
1030,65535
1029,65535
1091,65535
1035,65535
1034,65535
979,65535
1526,65535
1449,65535
1378,65535
1448,65535
1524,65535
1038,65535
1447,65535
1768,65535
1710,65535
1767,65535
391,4557
365,4621
339,65535
400,65535
393,4648
392,4613
396,65535
399,65535
443,4411
449,4655
450,4745
419,4571
414,4467
415,4443
387,4537
388,4524
389,4517
282,65535
281,65535
314,65535
313,65535
405,65535
411,4342
442,4394
255,65535
376,65535
373,65535
278,65535
275,65535
248,4545
335,4666
334,4643
306,4732
307,65535
176,65535
225,65535
320,65535
249,65535
287,65535
285,65535
776,65535
731,65535
315,65535
316,65535
204,65535
440,65535
439,65535
166,4054
269,4247
383,4304
1247,65535
1246,65535
1384,65535
1679,65535
1178,65535
1105,65535
1172,65535
1173,65535
1242,65535
1241,65535
1314,65535
1313,65535
1171,65535
1382,65535
1243,65535
1317,65535
1107,65535
1108,65535
1109,65535
1041,65535
1043,65535
1042,65535
1044,65535
1176,65535
1174,65535
1177,65535
1110,65535
985,65535
986,65535
932,65535
774,65535
730,65535
825,65535
728,65535
729,65535
727,65535
682,65535
684,65535
685,65535
732,65535
683,65535
2134,65535
2194,65535
2068,65535
2129,65535
1905,65535
1907,65535
1906,65535
1953,65535
2002,65535
2064,65535
2125,65535
2137,65535
2196,65535
2195,65535
1859,65535
1810,65535
1755,65535
2131,65535
2192,65535
1862,65535
1861,65535
1812,65535
1860,65535
1809,65535
1756,65535
1869,65535
1822,65535
1821,65535
1916,65535
1819,65535
1764,65535
1820,65535
1698,65535
1757,65535
1566,65535
1567,65535
1488,65535
1489,65535
1412,65535
1413,65535
1414,65535
1818,65535
1568,65535
1410,65535
2128,65535
2189,65535
2066,65535
2065,65535
2067,65535
1643,65535
1571,65535
1491,65535
2004,65535
2003,65535
1697,65535
2135,65535
2075,65535
1642,65535
1955,65535
2130,65535
2005,65535
1858,65535
1816,65535
1864,65535
1766,65535
1910,65535
1868,65535
2188,65535
2127,65535
1903,65535
2001,65535
2063,65535
2062,65535
1813,65535
1758,65535
1639,65535
1640,65535
1952,65535
2126,65535
1569,65535
1965,65535
1966,65535
2014,65535
1490,65535
1917,65535
1870,65535
1871,65535
1570,65535
1707,65535
2076,65535
2013,65535
1964,65535
1487,65535
1908,65535
2251,65535
2199,65535
2198,65535
2136,65535
1641,65535
1954,65535
1765,65535
1857,65535
2187,65535
1904,65535
1856,65535
1951,65535
1708,65535
245,4428
244,4407
357,4477
246,4438
247,4407
197,4320
223,4349
44,3971
43,3864
3,3790
23,3809
22,3849
63,4021
85,4090
84,4150
108,4182
149,4228
172,4263
296,4448
294,4384
355,4407
354,4437
326,4493
295,4454
291,4557
293,4422
260,4478
356,4513
441,4388
412,4361
329,65535
300,65535
148,4029
214,4322
146,4024
110,4663
262,4601
258,4540
292,4462
257,4587
235,4459
187,4464
212,4491
211,4495
186,4576
162,4590
161,4603
165,4358
189,4414
238,4427
237,65535
263,65535
265,65535
266,65535
267,65535
268,4395
26,0
25,3732
105,3966
62,3911
83,3932
126,3994
175,4520
152,4454
151,4444
150,4403
103,65535
242,4353
191,4290
192,4375
217,4397
218,4446
145,4140
144,4158
167,4138
190,4328
219,4463
159,65535
185,65535
158,65535
188,4447
160,65535
143,65535
122,65535
75,65535
54,65535
198,4648
270,4404
221,4752
301,65535
302,65535
330,65535
331,65535
115,4692
133,4754
139,65535
134,4728
114,4715
48,65535
69,65535
92,4629
164,65535
4,3749
107,4425
129,4510
109,65535
125,65535
124,65535
127,65535
82,65535
67,65535
91,65535
93,65535
137,65535
113,65535
112,65535
136,65535
49,65535
72,65535
71,65535
406,65535
805,65535
858,65535
859,65535
967,65535
1142,65535
1080,65535
1022,65535
1079,65535
968,65535
1206,65535
915,65535
916,65535
914,65535
807,65535
911,65535
1078,65535
1207,65535
1278,65535
1277,65535
1344,65535
1415,65535
1492,65535
1345,65535
1346,65535
1208,65535
1209,65535
1143,65535
1144,65535
1145,65535
1417,65535
1493,65535
1494,65535
1572,65535
1081,65535
970,65535
408,65535
382,65535
437,65535
467,65535
409,65535
403,65535
432,65535
433,65535
404,65535
352,65535
351,65535
349,65535
317,65535
374,65535
346,65535
283,65535
410,65535
438,65535
465,65535
490,65535
491,65535
435,65535
436,65535
379,65535
323,65535
289,65535
377,65535
378,65535
592,65535
593,65535
552,4601
445,4462
424,65535
423,65535
416,4525
361,4554
362,4527
371,65535
372,65535
343,65535
344,65535
286,65535
227,65535
252,65535
284,65535
318,65535
250,65535
312,65535
340,65535
368,65535
369,65535
370,65535
341,65535
367,65535
308,65535
276,65535
277,65535
280,65535
310,65535
338,65535
366,65535
274,65535
305,65535
420,4639
363,4574
418,4640
550,65535
579,65535
576,65535
577,65535
578,65535
520,65535
618,65535
662,65535
619,65535
620,65535
621,65535
665,65535
666,65535
664,65535
580,65535
2260,65535
2257,65535
2206,65535
2146,65535
2314,65535
2313,65535
2312,65535
2373,65535
2256,65535
2205,65535
2434,65535
2435,65535
2375,65535
2376,65535
2433,65535
2491,65535
2490,65535
2492,65535
2546,65535
2597,65535
2596,65535
2544,65535
2145,65535
2082,65535
2020,65535
2494,65535
0,65535
11,65535
1052,65535
1053,65535
941,65535
1740,65535
1796,65535
1615,65535
1681,65535
1545,65535
1797,65535
1544,65535
1741,65535
1795,65535
1617,65535
1546,65535
1616,65535
1683,65535
1467,65535
1547,65535
1465,65535
1387,65535
1388,65535
1464,65535
1462,65535
1461,65535
1542,65535
1463,65535
1682,65535
1543,65535
1618,65535
1742,65535
1460,65535
1248,65535
1850,65535
1801,65535
1803,65535
882,65535
881,65535
938,65535
883,65535
940,65535
1998,65535
1902,65535
1807,65535
1691,65535
1694,65535
1693,65535
1749,65535
1752,65535
1753,65535
1627,65535
1628,65535
1557,65535
1479,65535
1402,65535
1808,65535
1946,65535
1947,65535
1948,65535
1997,65535
1855,65535
1690,65535
2060,65535
1949,65535
1950,65535
1751,65535
1692,65535
1999,65535
1901,65535
1900,65535
1852,65535
1853,65535
1805,65535
1750,65535
1854,65535
1806,65535
1748,65535
2061,65535
2000,65535
1804,65535
1899,65535
2884,65535
2892,65535
2883,65535
2876,65535
2874,65535
2882,65535
2877,65535
2911,65535
2905,65535
2906,65535
2896,65535
2887,65535
2881,65535
2880,65535
2888,65535
2902,65535
2903,65535
2907,65535
2912,65535
2895,65535
2894,65535
2875,65535
2885,65535
2893,65535
2904,65535
2865,65535
2866,65535
2909,65535
2913,65535
2886,65535
2878,65535
2869,65535
2871,65535
2872,65535
2879,65535
2870,65535
1330,65535
1331,65535
1401,65535
1262,65535
1263,65535
1478,65535
1403,65535
1261,65535
1480,65535
1264,65535
1390,65535
1389,65535
1319,65535
1251,65535
1250,65535
1285,65535
1284,65535
1214,65535
1146,65535
1505,65535
1504,65535
1582,65535
1581,65535
1713,65535
1771,65535
1654,65535
1653,65535
1651,65535
2096,65535
2033,65535
1972,65535
1923,65535
1922,65535
1874,65535
1873,65535
1919,65535
1829,65535
1579,65535
1424,65535
1711,65535
1348,65535
1419,65535
1359,65535
1429,65535
1428,65535
1421,65535
1577,65535
1499,65535
1230,65535
1365,65535
1511,65535
1300,65535
1366,65535
1512,65535
1716,65535
1503,65535
1276,65535
1347,65535
1349,65535
1645,65535
1578,65535
1770,65535
1715,65535
1150,65535
1217,65535
1149,65535
1580,65535
1352,65535
1502,65535
1825,65535
1718,65535
1717,65535
1872,65535
1656,65535
1648,65535
1712,65535
1213,65535
1212,65535
1084,65535
1420,65535
1281,65535
1282,65535
1587,65535
1586,65535
1585,65535
1652,65535
1427,65535
1975,65535
1977,65535
1932,65535
1931,65535
1426,65535
1422,65535
1425,65535
1583,65535
1501,65535
1283,65535
1286,65535
1215,65535
1211,65535
1210,65535
1083,65535
1655,65535
2220,65535
1355,65535
1772,65535
1436,65535
1435,65535
1589,65535
1163,65535
1735,65535
1791,65535
1841,65535
1840,65535
1219,65535
1220,65535
1647,65535
1646,65535
1279,65535
1714,65535
1575,65535
1576,65535
1498,65535
1573,65535
1496,65535
1497,65535
2177,65535
2176,65535
2294,65535
2293,65535
2237,65535
2236,65535
2364,65535
2302,65535
2301,65535
2245,65535
2056,65535
2057,65535
2055,65535
2184,65535
2120,65535
2244,65535
2538,65535
2537,65535
2591,65535
1940,65535
1989,65535
1990,65535
2539,65535
2482,65535
2483,65535
2424,65535
2121,65535
2119,65535
2050,65535
2049,65535
2048,65535
2185,65535
2243,65535
2299,65535
2241,65535
2485,65535
2542,65535
2353,65535
2292,65535
2419,65535
2478,65535
2479,65535
2536,65535
2484,65535
2486,65535
2354,65535
2416,65535
2242,65535
2355,65535
2300,65535
1991,65535
1992,65535
2477,65535
2534,65535
2535,65535
2588,65535
2587,65535
2630,65535
2051,65535
2116,65535
2175,65535
2586,65535
2541,65535
2178,65535
2179,65535
2240,65535
2239,65535
2238,65535
2052,65535
2053,65535
1987,65535
1988,65535
1939,65535
2594,65535
2593,65535
2358,65535
2357,65535
2420,65535
2247,65535
2427,65535
2428,65535
2181,65535
2180,65535
2417,65535
2590,65535
2297,65535
2361,65535
2362,65535
2423,65535
2422,65535
2174,65535
2356,65535
1941,65535
2365,65535
2112,65535
2047,65535
2182,65535
2359,65535
2533,65535
2295,65535
2115,65535
2632,65535
2631,65535
2186,65535
2298,65535
2360,65535
2235,65535
2291,65535
2487,65535
2246,65535
2425,65535
2117,65535
2543,65535
1893,65535
2421,65535
2476,65535
2592,65535
604,65535
