middle_point_id,reach_time_minutes
2835,65535
2836,65535
2806,65535
2822,65535
2823,65535
2807,65535
2846,65535
887,8889
888,8878
1326,65535
1185,9009
999,65535
1057,9077
1552,65535
1120,8998
1473,65535
944,9078
832,8861
1257,65535
1396,65535
1622,65535
1327,65535
1184,9000
1183,9039
1324,65535
1255,65535
1394,65535
1252,65535
1253,65535
1182,65535
1328,65535
1470,65535
1321,65535
1322,65535
1323,65535
1391,65535
1551,65535
1393,65535
1472,65535
1471,65535
1181,65535
1118,65535
1059,8955
1121,8982
1469,65535
1468,65535
1548,65535
1325,65535
1625,65535
1623,65535
1258,9056
1256,65535
791,8993
891,8951
703,9045
704,9068
660,9058
1553,65535
1624,65535
1554,65535
1474,65535
1475,65535
1550,65535
1549,65535
1320,65535
1466,65535
1541,65535
1318,65535
1249,65535
1186,9006
1003,8953
1002,8949
741,8919
788,8961
434,8897
697,9019
752,9098
1056,65535
1006,8990
907,65535
518,9004
1011,65535
1000,8973
1055,65535
997,65535
994,65535
996,65535
995,65535
991,65535
1112,65535
1114,65535
1051,65535
1398,65535
1395,65535
1001,8966
1811,65535
1960,65535
1769,65535
1823,65535
1329,65535
1332,65535
1259,65535
1200,65535
1199,65535
1140,65535
1141,65535
783,8875
1689,65535
1802,65535
1945,65535
2183,65535
2418,65535
1994,65535
1995,65535
2059,65535
1621,65535
1555,65535
1754,65535
1180,65535
1106,65535
933,65535
827,8888
2122,65535
2124,65535
493,8978
519,9015
544,9014
545,9015
494,9005
470,9042
543,9010
469,8979
517,8987
574,9029
573,9028
495,9036
546,9023
613,9040
612,9038
492,8979
572,9027
571,9079
570,65535
610,9091
575,9076
547,9038
516,9008
611,9081
542,9055
569,65535
609,9074
548,9054
549,9059
1404,65535
1405,65535
1266,65535
1193,65535
743,8961
742,8931
747,9017
746,9008
745,8996
744,8990
790,8988
789,8965
839,8991
838,8939
738,8850
739,8900
740,8906
890,8927
834,8870
784,8883
889,8888
856,65535
855,65535
854,65535
853,65535
852,65535
910,65535
909,65535
908,65535
964,65535
965,65535
1020,65535
966,65535
963,65535
1021,65535
1271,65535
1270,65535
1339,65535
1338,65535
1071,65535
1072,65535
1135,65535
1408,65535
1337,65535
1269,65535
1268,65535
1136,65535
1075,65535
1077,65535
1076,65535
1019,65535
1018,65535
1074,65535
1137,65535
1272,65535
1274,65535
1275,65535
1205,65535
1204,65535
1273,65535
1198,65535
1197,65535
1341,65535
1134,65535
1133,65535
1069,65535
1132,65535
1073,65535
1203,65535
1202,65535
1201,65535
1139,65535
1267,65535
1138,65535
1340,65535
1196,65535
1342,65535
1409,65535
1485,65535
1407,65535
1561,65535
1632,65535
1484,65535
1483,65535
1562,65535
1194,65535
1130,65535
1195,65535
1335,65535
1129,65535
1066,65535
1128,9071
1067,65535
1131,65535
1334,65535
1336,65535
1265,65535
1333,65535
1406,65535
857,65535
803,65535
804,65535
860,65535
969,65535
913,65535
912,65535
861,65535
806,65535
659,9051
751,9082
658,9059
705,9075
702,9043
706,9086
753,65535
614,9046
701,9027
661,9067
616,9066
848,65535
796,9097
797,9108
798,65535
750,9068
707,9114
615,9073
748,9091
845,9101
846,65535
657,9072
749,9057
795,9098
617,9059
663,9096
794,9044
847,65535
849,65535
902,65535
901,65535
900,9113
793,9018
899,9091
898,9050
897,9035
844,9094
842,8998
841,8992
956,9072
792,8995
843,9032
840,9006
850,65535
903,65535
800,65535
755,65535
756,65535
710,65535
711,65535
962,65535
961,65535
904,65535
906,65535
851,65535
802,65535
801,65535
799,65535
959,65535
1014,65535
1013,65535
708,65535
709,65535
754,65535
757,65535
1017,65535
1016,65535
960,65535
905,65535
958,65535
957,65535
1070,65535
1015,65535
1012,65535
1068,65535
1005,8974
1004,8964
1060,8967
1063,9034
1065,9055
1127,9052
1062,9018
1124,9026
1123,9004
1125,9029
1188,9046
1122,8988
1058,8968
947,8938
946,8948
949,8966
945,8939
948,8977
1190,65535
1187,9033
951,9002
895,9015
952,9008
1009,9026
1008,9011
1010,65535
1007,8992
1061,9036
954,9053
896,9041
953,9076
1126,9089
1064,9038
1189,9097
955,9064
950,9027
892,8950
786,8924
836,8913
837,8933
787,8937
700,9046
655,9094
654,9047
653,9035
698,9017
699,9053
608,8986
696,8969
656,9104
833,8867
785,8900
835,8900
693,8874
894,9004
893,8948
1343,65535
1192,65535
1191,65535
828,8885
829,8869
780,8870
830,8897
779,8861
782,8851
529,8778
886,8913
596,8823
556,8801
598,8789
597,8820
526,8761
555,8788
525,8748
524,8742
523,8719
688,8831
607,9020
650,8951
651,9037
652,9029
737,8840
694,8912
695,8936
645,8804
646,8812
690,8818
600,8795
599,8788
781,8844
736,8843
558,8770
644,8799
643,8820
648,8871
692,8862
691,8835
513,8983
541,9043
540,9023
568,8965
530,8809
831,8871
559,8774
560,8796
642,8901
557,8811
496,8691
471,8653
444,8550
446,8631
528,8798
527,8778
562,8860
602,8850
734,8848
466,65535
464,8902
463,8887
478,8934
481,8932
480,8928
479,8909
647,8864
488,8961
502,8809
689,8831
533,8860
532,8853
531,8841
601,8839
484,8940
508,8890
510,8929
509,8900
534,8867
482,65535
506,8900
606,8990
455,65535
429,65535
456,65535
457,65535
428,65535
458,65535
554,8786
594,8835
640,8954
639,8916
551,8742
681,8854
636,8832
635,8819
590,8759
778,8889
777,8892
485,8966
486,8955
462,9033
563,8905
885,8924
943,65535
564,8933
641,8926
504,8824
503,8801
501,8842
500,8878
561,8854
254,9020
350,8972
321,9041
319,9028
251,9067
375,8971
347,9005
687,8839
565,8977
539,9075
511,8982
536,8998
649,8893
603,9010
605,65535
733,8860
735,8853
489,8978
514,9010
461,65535
460,65535
459,65535
468,8951
154,65535
178,65535
203,65535
228,65535
402,9018
401,65535
505,8845
522,8742
451,8932
452,8979
477,8946
476,8942
483,65535
884,65535
431,8964
430,65535
454,65535
595,8805
395,8860
394,8814
422,8900
417,8671
390,8716
538,65535
567,65535
426,65535
397,8955
398,65535
499,8815
475,8901
497,8744
498,8770
311,8823
342,8881
345,9053
421,8818
515,9053
472,8841
448,8872
473,8896
474,8937
353,9045
381,8997
256,65535
290,9100
324,9068
380,9031
407,9004
253,65535
226,65535
201,65535
177,65535
824,8936
775,8938
826,8899
939,65535
936,65535
937,65535
880,9041
566,65535
2821,65535
2834,65535
2833,65535
2789,65535
2790,65535
2770,65535
2788,65535
2776,65535
2795,65535
2775,65535
2794,65535
2825,65535
2824,65535
2826,65535
2811,65535
2812,65535
2796,65535
2827,65535
2858,65535
2855,65535
2849,65535
2838,65535
2814,65535
2813,65535
2828,65535
2839,65535
2791,65535
2792,65535
2803,65535
2830,65535
2815,65535
2819,65535
2818,65535
2817,65535
2831,65535
2810,65535
2829,65535
2783,65535
2820,65535
2804,65535
2785,65535
2784,65535
2762,65535
2768,65535
2751,65535
2750,65535
2733,65535
2769,65535
2720,65535
2761,65535
2741,65535
2837,65535
2793,65535
2808,65535
2753,65535
2736,65535
2735,65535
2809,65535
2772,65535
2845,65535
2844,65535
2848,65535
2777,65535
2778,65535
2779,65535
2759,65535
2780,65535
2797,65535
2843,65535
2832,65535
2842,65535
2758,65535
2738,65535
2774,65535
2773,65535
2771,65535
2851,65535
2847,65535
2854,65535
2721,65535
2756,65535
2737,65535
2840,65535
2752,65535
2754,65535
2755,65535
2852,65535
2853,65535
2856,65535
2841,65535
2742,65535
2727,65535
2744,65535
2726,65535
2743,65535
2725,65535
2746,65535
2787,65535
2766,65535
2763,65535
2765,65535
2745,65535
2764,65535
2552,65535
2501,65535
2443,65535
2442,65535
2320,65535
2381,65535
2382,65535
2498,65535
2499,65535
2438,65535
2439,65535
2497,65535
2441,65535
2379,65535
2380,65535
2319,65535
2551,65535
2550,65535
2563,65535
2321,65535
2322,65535
2383,65535
2384,65535
2446,65535
2445,65535
2503,65535
2385,65535
2504,65535
2505,65535
2557,65535
2558,65535
2559,65535
2560,65535
2564,65535
2562,65535
2561,65535
2605,65535
2609,65535
2565,65535
2566,65535
2515,65535
2397,65535
2457,65535
2458,65535
2401,65535
2337,65535
2336,65535
2399,65535
2398,65535
2402,65535
2333,65535
2273,65535
2219,65535
2218,65535
2159,65535
2454,65535
2393,65535
2512,65535
2502,65535
2608,65535
2156,65535
2155,65535
2154,65535
2213,65535
2212,65535
2211,65535
2210,65535
2264,65535
2324,65535
2323,65535
2030,65535
2094,65535
2157,65535
2450,65535
2388,65535
2387,65535
2326,65535
2266,65535
2265,65535
2508,65535
2396,65535
2335,65535
2334,65535
2158,65535
2279,65535
2278,65535
2222,65535
2221,65535
2276,65535
2275,65535
2261,65535
2207,65535
2149,65535
2554,65535
2599,65535
2633,65535
2664,65535
2689,65535
2690,65535
2691,65535
2692,65535
2152,65535
2089,65535
2088,65535
2025,65535
2603,65535
2602,65535
2556,65535
2693,65535
2671,65535
2670,65535
2694,65535
2553,65535
2665,65535
2705,65535
2710,65535
2668,65535
2639,65535
2463,65535
2521,65535
2572,65535
2451,65535
2390,65535
2391,65535
2392,65535
2215,65535
2268,65535
2093,65535
2092,65535
2028,65535
2024,65535
2150,65535
2086,65535
2209,65535
2023,65535
2087,65535
2148,65535
2262,65535
2327,65535
1560,65535
1630,65535
1631,65535
1559,65535
1629,65535
1558,65535
1634,65535
1633,65535
1482,65535
1481,65535
1699,65535
1700,65535
1701,65535
1563,65535
2070,65535
2008,65535
2009,65535
1959,65535
1958,65535
2006,65535
1957,65535
1956,65535
2193,65535
2132,65535
1912,65535
1911,65535
1865,65535
1866,65535
2007,65535
2069,65535
2010,65535
2011,65535
1961,65535
2072,65535
1913,65535
1867,65535
1962,65535
1914,65535
1915,65535
1909,65535
1636,65535
1635,65535
1564,65535
1702,65535
1637,65535
1638,65535
1565,65535
1486,65535
1760,65535
1704,65535
1703,65535
1763,65535
1762,65535
1817,65535
1705,65535
1863,65535
1815,65535
1759,65535
863,65535
758,65535
808,65535
982,65535
1036,65535
1099,65535
1100,65535
1166,65535
1167,65535
1237,65535
1238,65535
1375,65535
1308,65535
1309,65535
1236,65535
1235,65535
1101,65535
1037,65535
971,65535
1025,65535
1026,65535
1027,65535
1089,65535
720,65535
674,65535
864,65535
865,65535
919,65535
1024,65535
975,65535
974,65535
1028,65535
873,65535
925,65535
924,65535
917,65535
918,65535
623,65535
712,65535
713,65535
667,65535
622,65535
809,65535
719,65535
765,65535
972,65535
868,65535
869,65535
815,65535
920,65535
973,65535
981,65535
926,65535
927,65535
928,65535
1354,65535
1288,65535
1218,65535
1152,65535
1023,65535
1353,65535
1085,65535
1148,65535
1147,65535
1082,65535
772,65535
771,65535
819,65535
584,65535
628,65535
629,65535
1033,65535
978,65535
1031,65535
1030,65535
1029,65535
1091,65535
1035,65535
1034,65535
979,65535
1526,65535
1449,65535
1378,65535
1448,65535
1524,65535
1038,65535
1447,65535
1768,65535
1710,65535
1767,65535
391,8728
365,8737
339,8798
400,65535
393,8787
392,8753
396,8900
399,65535
443,8537
449,8855
450,8840
419,8749
414,8667
415,8633
387,8670
388,8680
389,8712
282,65535
281,8951
314,8920
313,8876
405,8905
411,8417
442,8494
255,65535
376,8983
373,9034
278,8847
275,8968
248,9015
335,8829
334,8837
306,8926
307,9002
176,65535
225,65535
320,65535
249,65535
287,65535
285,65535
776,8916
731,8922
315,65535
316,65535
204,65535
440,9000
439,65535
166,8625
269,8542
383,8365
1247,65535
1246,65535
1384,65535
1679,65535
1178,65535
1105,65535
1172,65535
1173,65535
1242,65535
1241,65535
1314,65535
1313,65535
1171,65535
1382,65535
1243,65535
1317,65535
1107,65535
1108,65535
1109,65535
1041,65535
1043,65535
1042,65535
1044,65535
1176,65535
1174,65535
1177,65535
1110,65535
985,65535
986,65535
932,65535
774,8928
730,8934
825,8960
728,8919
729,8960
727,8881
682,8981
684,8958
685,8938
732,8919
683,65535
2134,65535
2194,65535
2068,65535
2129,65535
1905,65535
1907,65535
1906,65535
1953,65535
2002,65535
2064,65535
2125,65535
2137,65535
2196,65535
2195,65535
1859,65535
1810,65535
1755,65535
2131,65535
2192,65535
1862,65535
1861,65535
1812,65535
1860,65535
1809,65535
1756,65535
1869,65535
1822,65535
1821,65535
1916,65535
1819,65535
1764,65535
1820,65535
1698,65535
1757,65535
1566,65535
1567,65535
1488,65535
1489,65535
1412,65535
1413,65535
1414,65535
1818,65535
1568,65535
1410,65535
2128,65535
2189,65535
2066,65535
2065,65535
2067,65535
1643,65535
1571,65535
1491,65535
2004,65535
2003,65535
1697,65535
2135,65535
2075,65535
1642,65535
1955,65535
2130,65535
2005,65535
1858,65535
1816,65535
1864,65535
1766,65535
1910,65535
1868,65535
2188,65535
2127,65535
1903,65535
2001,65535
2063,65535
2062,65535
1813,65535
1758,65535
1639,65535
1640,65535
1952,65535
2126,65535
1569,65535
1965,65535
1966,65535
2014,65535
1490,65535
1917,65535
1870,65535
1871,65535
1570,65535
1707,65535
2076,65535
2013,65535
1964,65535
1487,65535
1908,65535
2251,65535
2199,65535
2198,65535
2136,65535
1641,65535
1954,65535
1765,65535
1857,65535
2187,65535
1904,65535
1856,65535
1951,65535
1708,65535
245,8748
244,8732
357,8797
246,8778
247,8825
197,8912
223,8927
44,65535
43,65535
3,65535
23,65535
22,65535
63,65535
85,65535
84,65535
108,8847
149,8817
172,8852
296,0
294,8311
355,8434
354,8466
326,8544
295,8292
291,8455
293,8577
260,8597
356,8833
441,8468
412,8441
329,65535
300,65535
148,8802
214,8616
146,8731
110,8983
262,8429
258,8842
292,8605
257,8907
235,8705
187,8784
212,8811
211,8815
186,8896
162,8910
161,8923
165,8678
189,8734
238,8564
237,8529
263,8465
265,8570
266,8590
267,8615
268,8664
26,65535
25,65535
105,65535
62,65535
83,65535
126,8919
175,8972
152,8916
151,8884
150,8849
103,65535
242,8720
191,8890
192,8944
217,8970
218,65535
145,8710
144,9037
167,8652
190,8878
219,65535
159,65535
185,65535
158,65535
188,8767
160,65535
143,65535
122,65535
75,65535
54,65535
198,8968
270,8724
221,9072
301,65535
302,65535
330,65535
331,65535
115,9012
133,9074
139,65535
134,9048
114,9035
48,65535
69,65535
92,8949
164,65535
4,65535
107,65535
129,65535
109,65535
125,65535
124,65535
127,65535
82,65535
67,65535
91,65535
93,65535
137,65535
113,65535
112,65535
136,65535
49,65535
72,65535
71,65535
406,9045
805,65535
858,65535
859,65535
967,65535
1142,65535
1080,65535
1022,65535
1079,65535
968,65535
1206,65535
915,65535
916,65535
914,65535
807,65535
911,65535
1078,65535
1207,65535
1278,65535
1277,65535
1344,65535
1415,65535
1492,65535
1345,65535
1346,65535
1208,65535
1209,65535
1143,65535
1144,65535
1145,65535
1417,65535
1493,65535
1494,65535
1572,65535
1081,65535
970,65535
408,9024
382,9024
437,8955
467,8995
409,65535
403,8994
432,65535
433,65535
404,65535
352,65535
351,65535
349,65535
317,9067
374,65535
346,65535
283,65535
410,65535
438,65535
465,8922
490,8931
491,65535
435,8975
436,8951
379,65535
323,65535
289,65535
377,65535
378,9076
592,8764
593,8805
552,8741
445,8600
424,9017
423,65535
416,8753
361,8754
362,8727
371,65535
372,65535
343,65535
344,65535
286,65535
227,65535
252,65535
284,65535
318,65535
250,65535
312,8846
340,8829
368,8862
369,8921
370,65535
341,8855
367,8841
308,8939
276,8928
277,8907
280,8898
310,8818
338,8775
366,8792
274,65535
305,65535
420,8770
363,8744
418,8751
550,9069
579,9114
576,9065
577,9044
578,9049
520,9073
618,9075
662,9066
619,9090
620,65535
621,65535
665,9112
666,65535
664,9103
580,65535
2260,65535
2257,65535
2206,65535
2146,65535
2314,65535
2313,65535
2312,65535
2373,65535
2256,65535
2205,65535
2434,65535
2435,65535
2375,65535
2376,65535
2433,65535
2491,65535
2490,65535
2492,65535
2546,65535
2597,65535
2596,65535
2544,65535
2145,65535
2082,65535
2020,65535
2494,65535
0,65535
11,65535
1052,65535
1053,65535
941,65535
1740,65535
1796,65535
1615,65535
1681,65535
1545,65535
1797,65535
1544,65535
1741,65535
1795,65535
1617,65535
1546,65535
1616,65535
1683,65535
1467,65535
1547,65535
1465,65535
1387,65535
1388,65535
1464,65535
1462,65535
1461,65535
1542,65535
1463,65535
1682,65535
1543,65535
1618,65535
1742,65535
1460,65535
1248,65535
1850,65535
1801,65535
1803,65535
882,8899
881,8908
938,65535
883,8919
940,65535
1998,65535
1902,65535
1807,65535
1691,65535
1694,65535
1693,65535
1749,65535
1752,65535
1753,65535
1627,65535
1628,65535
1557,65535
1479,65535
1402,65535
1808,65535
1946,65535
1947,65535
1948,65535
1997,65535
1855,65535
1690,65535
2060,65535
1949,65535
1950,65535
1751,65535
1692,65535
1999,65535
1901,65535
1900,65535
1852,65535
1853,65535
1805,65535
1750,65535
1854,65535
1806,65535
1748,65535
2061,65535
2000,65535
1804,65535
1899,65535
2884,65535
2892,65535
2883,65535
2876,65535
2874,65535
2882,65535
2877,65535
2911,65535
2905,65535
2906,65535
2896,65535
2887,65535
2881,65535
2880,65535
2888,65535
2902,65535
2903,65535
2907,65535
2912,65535
2895,65535
2894,65535
2875,65535
2885,65535
2893,65535
2904,65535
2865,65535
2866,65535
2909,65535
2913,65535
2886,65535
2878,65535
2869,65535
2871,65535
2872,65535
2879,65535
2870,65535
1330,65535
1331,65535
1401,65535
1262,65535
1263,65535
1478,65535
1403,65535
1261,65535
1480,65535
1264,65535
1390,65535
1389,65535
1319,65535
1251,65535
1250,65535
1285,65535
1284,65535
1214,65535
1146,65535
1505,65535
1504,65535
1582,65535
1581,65535
1713,65535
1771,65535
1654,65535
1653,65535
1651,65535
2096,65535
2033,65535
1972,65535
1923,65535
1922,65535
1874,65535
1873,65535
1919,65535
1829,65535
1579,65535
1424,65535
1711,65535
1348,65535
1419,65535
1359,65535
1429,65535
1428,65535
1421,65535
1577,65535
1499,65535
1230,65535
1365,65535
1511,65535
1300,65535
1366,65535
1512,65535
1716,65535
1503,65535
1276,65535
1347,65535
1349,65535
1645,65535
1578,65535
1770,65535
1715,65535
1150,65535
1217,65535
1149,65535
1580,65535
1352,65535
1502,65535
1825,65535
1718,65535
1717,65535
1872,65535
1656,65535
1648,65535
1712,65535
1213,65535
1212,65535
1084,65535
1420,65535
1281,65535
1282,65535
1587,65535
1586,65535
1585,65535
1652,65535
1427,65535
1975,65535
1977,65535
1932,65535
1931,65535
1426,65535
1422,65535
1425,65535
1583,65535
1501,65535
1283,65535
1286,65535
1215,65535
1211,65535
1210,65535
1083,65535
1655,65535
2220,65535
1355,65535
1772,65535
1436,65535
1435,65535
1589,65535
1163,65535
1735,65535
1791,65535
1841,65535
1840,65535
1219,65535
1220,65535
1647,65535
1646,65535
1279,65535
1714,65535
1575,65535
1576,65535
1498,65535
1573,65535
1496,65535
1497,65535
2177,65535
2176,65535
2294,65535
2293,65535
2237,65535
2236,65535
2364,65535
2302,65535
2301,65535
2245,65535
2056,65535
2057,65535
2055,65535
2184,65535
2120,65535
2244,65535
2538,65535
2537,65535
2591,65535
1940,65535
1989,65535
1990,65535
2539,65535
2482,65535
2483,65535
2424,65535
2121,65535
2119,65535
2050,65535
2049,65535
2048,65535
2185,65535
2243,65535
2299,65535
2241,65535
2485,65535
2542,65535
2353,65535
2292,65535
2419,65535
2478,65535
2479,65535
2536,65535
2484,65535
2486,65535
2354,65535
2416,65535
2242,65535
2355,65535
2300,65535
1991,65535
1992,65535
2477,65535
2534,65535
2535,65535
2588,65535
2587,65535
2630,65535
2051,65535
2116,65535
2175,65535
2586,65535
2541,65535
2178,65535
2179,65535
2240,65535
2239,65535
2238,65535
2052,65535
2053,65535
1987,65535
1988,65535
1939,65535
2594,65535
2593,65535
2358,65535
2357,65535
2420,65535
2247,65535
2427,65535
2428,65535
2181,65535
2180,65535
2417,65535
2590,65535
2297,65535
2361,65535
2362,65535
2423,65535
2422,65535
2174,65535
2356,65535
1941,65535
2365,65535
2112,65535
2047,65535
2182,65535
2359,65535
2533,65535
2295,65535
2115,65535
2632,65535
2631,65535
2186,65535
2298,65535
2360,65535
2235,65535
2291,65535
2487,65535
2246,65535
2425,65535
2117,65535
2543,65535
1893,65535
2421,65535
2476,65535
2592,65535
604,65535
