middle_point_id,reach_time_minutes
2835,65535
2836,65535
2806,65535
2822,65535
2823,65535
2807,65535
2846,65535
887,4569
888,4558
1326,65535
1185,4689
999,65535
1057,4757
1552,65535
1120,4678
1473,65535
944,4758
832,4541
1257,65535
1396,65535
1622,65535
1327,65535
1184,4680
1183,4719
1324,65535
1255,65535
1394,65535
1252,65535
1253,65535
1182,65535
1328,65535
1470,65535
1321,65535
1322,65535
1323,65535
1391,65535
1551,65535
1393,65535
1472,65535
1471,65535
1181,65535
1118,65535
1059,4635
1121,4662
1469,65535
1468,65535
1548,65535
1325,65535
1625,65535
1623,65535
1258,4736
1256,65535
791,4673
891,4631
703,4725
704,4748
660,4738
1553,65535
1624,65535
1554,65535
1474,65535
1475,65535
1550,65535
1549,65535
1320,65535
1466,65535
1541,65535
1318,65535
1249,65535
1186,4686
1003,4633
1002,4629
741,4599
788,4641
434,4577
697,4699
752,4778
1056,65535
1006,4670
907,65535
518,4684
1011,65535
1000,4653
1055,65535
997,65535
994,65535
996,65535
995,65535
991,65535
1112,65535
1114,65535
1051,65535
1398,65535
1395,65535
1001,4646
1811,65535
1960,65535
1769,65535
1823,65535
1329,65535
1332,65535
1259,65535
1200,65535
1199,65535
1140,65535
1141,65535
783,4555
1689,65535
1802,65535
1945,65535
2183,65535
2418,65535
1994,65535
1995,65535
2059,65535
1621,65535
1555,65535
1754,65535
1180,65535
1106,65535
933,65535
827,4568
2122,65535
2124,65535
493,4658
519,4695
544,4694
545,4695
494,4685
470,4722
543,4690
469,4659
517,4667
574,4709
573,4708
495,4716
546,4703
613,4720
612,4718
492,4659
572,4707
571,4759
570,65535
610,4771
575,4756
547,4718
516,4688
611,4761
542,4735
569,65535
609,4754
548,4734
549,4739
1404,65535
1405,65535
1266,65535
1193,65535
743,4641
742,4611
747,4697
746,4688
745,4676
744,4670
790,4668
789,4645
839,4671
838,4619
738,4530
739,4580
740,4586
890,4607
834,4550
784,4563
889,4568
856,65535
855,65535
854,65535
853,65535
852,65535
910,65535
909,65535
908,65535
964,65535
965,65535
1020,65535
966,65535
963,65535
1021,65535
1271,65535
1270,65535
1339,65535
1338,65535
1071,65535
1072,65535
1135,65535
1408,65535
1337,65535
1269,65535
1268,65535
1136,65535
1075,65535
1077,65535
1076,65535
1019,65535
1018,65535
1074,65535
1137,65535
1272,65535
1274,65535
1275,65535
1205,65535
1204,65535
1273,65535
1198,65535
1197,65535
1341,65535
1134,65535
1133,65535
1069,65535
1132,65535
1073,65535
1203,65535
1202,65535
1201,65535
1139,65535
1267,65535
1138,65535
1340,65535
1196,65535
1342,65535
1409,65535
1485,65535
1407,65535
1561,65535
1632,65535
1484,65535
1483,65535
1562,65535
1194,65535
1130,65535
1195,65535
1335,65535
1129,65535
1066,65535
1128,4751
1067,65535
1131,65535
1334,65535
1336,65535
1265,65535
1333,65535
1406,65535
857,65535
803,65535
804,65535
860,65535
969,65535
913,65535
912,65535
861,65535
806,65535
659,4731
751,4762
658,4739
705,4755
702,4723
706,4766
753,65535
614,4726
701,4707
661,4747
616,4746
848,65535
796,4777
797,4788
798,65535
750,4748
707,4794
615,4753
748,4771
845,4781
846,65535
657,4752
749,4737
795,4778
617,4739
663,4776
794,4724
847,65535
849,65535
902,65535
901,65535
900,4793
793,4698
899,4771
898,4730
897,4715
844,4774
842,4678
841,4672
956,4752
792,4675
843,4712
840,4686
850,65535
903,65535
800,65535
755,65535
756,65535
710,65535
711,65535
962,65535
961,65535
904,65535
906,65535
851,65535
802,65535
801,65535
799,65535
959,65535
1014,65535
1013,65535
708,65535
709,65535
754,65535
757,65535
1017,65535
1016,65535
960,65535
905,65535
958,65535
957,65535
1070,65535
1015,65535
1012,65535
1068,65535
1005,4654
1004,4644
1060,4647
1063,4714
1065,4735
1127,4732
1062,4698
1124,4706
1123,4684
1125,4709
1188,4726
1122,4668
1058,4648
947,4618
946,4628
949,4646
945,4619
948,4657
1190,65535
1187,4713
951,4682
895,4695
952,4688
1009,4706
1008,4691
1010,65535
1007,4672
1061,4716
954,4733
896,4721
953,4756
1126,4769
1064,4718
1189,4777
955,4744
950,4707
892,4630
786,4604
836,4593
837,4613
787,4617
700,4726
655,4774
654,4727
653,4715
698,4697
699,4733
608,4666
696,4649
656,4784
833,4547
785,4580
835,4580
693,4554
894,4684
893,4628
1343,65535
1192,65535
1191,65535
828,4565
829,4549
780,4550
830,4577
779,4541
782,4531
529,4458
886,4593
596,4503
556,4481
598,4469
597,4500
526,4441
555,4468
525,4428
524,4422
523,4399
688,4511
607,4700
650,4631
651,4717
652,4709
737,4520
694,4592
695,4616
645,4484
646,4492
690,4498
600,4475
599,4468
781,4524
736,4523
558,4450
644,4479
643,4500
648,4551
692,4542
691,4515
513,4663
541,4723
540,4703
568,4645
530,4489
831,4551
559,4454
560,4476
642,4581
557,4491
496,4371
471,4333
444,4230
446,4311
528,4478
527,4458
562,4540
602,4530
734,4528
466,65535
464,4582
463,4567
478,4614
481,4612
480,4608
479,4589
647,4544
488,4641
502,4489
689,4511
533,4540
532,4533
531,4521
601,4519
484,4620
508,4570
510,4609
509,4580
534,4547
482,65535
506,4580
606,4670
455,65535
429,65535
456,65535
457,65535
428,65535
458,65535
554,4466
594,4515
640,4634
639,4596
551,4422
681,4534
636,4512
635,4499
590,4439
778,4569
777,4572
485,4646
486,4635
462,4713
563,4585
885,4604
943,65535
564,4613
641,4606
504,4504
503,4481
501,4522
500,4558
561,4534
254,4700
350,4652
321,4721
319,4708
251,4747
375,4651
347,4685
687,4519
565,4657
539,4755
511,4662
536,4678
649,4573
603,4690
605,65535
733,4540
735,4533
489,4658
514,4690
461,65535
460,65535
459,65535
468,4631
154,65535
178,65535
203,65535
228,65535
402,4698
401,65535
505,4525
522,4422
451,4612
452,4659
477,4626
476,4622
483,65535
884,65535
431,4644
430,65535
454,65535
595,4485
395,4540
394,4494
422,4580
417,4351
390,4396
538,65535
567,65535
426,65535
397,4635
398,65535
499,4495
475,4581
497,4424
498,4450
311,4503
342,4561
345,4733
421,4498
515,4733
472,4521
448,4552
473,4576
474,4617
353,4725
381,4677
256,65535
290,4780
324,4748
380,4711
407,4684
253,65535
226,65535
201,65535
177,65535
824,4616
775,4618
826,4579
939,65535
936,65535
937,65535
880,4721
566,65535
2821,65535
2834,65535
2833,65535
2789,65535
2790,65535
2770,65535
2788,65535
2776,65535
2795,65535
2775,65535
2794,65535
2825,65535
2824,65535
2826,65535
2811,65535
2812,65535
2796,65535
2827,65535
2858,65535
2855,65535
2849,65535
2838,65535
2814,65535
2813,65535
2828,65535
2839,65535
2791,65535
2792,65535
2803,65535
2830,65535
2815,65535
2819,65535
2818,65535
2817,65535
2831,65535
2810,65535
2829,65535
2783,65535
2820,65535
2804,65535
2785,65535
2784,65535
2762,65535
2768,65535
2751,65535
2750,65535
2733,65535
2769,65535
2720,65535
2761,65535
2741,65535
2837,65535
2793,65535
2808,65535
2753,65535
2736,65535
2735,65535
2809,65535
2772,65535
2845,65535
2844,65535
2848,65535
2777,65535
2778,65535
2779,65535
2759,65535
2780,65535
2797,65535
2843,65535
2832,65535
2842,65535
2758,65535
2738,65535
2774,65535
2773,65535
2771,65535
2851,65535
2847,65535
2854,65535
2721,65535
2756,65535
2737,65535
2840,65535
2752,65535
2754,65535
2755,65535
2852,65535
2853,65535
2856,65535
2841,65535
2742,65535
2727,65535
2744,65535
2726,65535
2743,65535
2725,65535
2746,65535
2787,65535
2766,65535
2763,65535
2765,65535
2745,65535
2764,65535
2552,65535
2501,65535
2443,65535
2442,65535
2320,65535
2381,65535
2382,65535
2498,65535
2499,65535
2438,65535
2439,65535
2497,65535
2441,65535
2379,65535
2380,65535
2319,65535
2551,65535
2550,65535
2563,65535
2321,65535
2322,65535
2383,65535
2384,65535
2446,65535
2445,65535
2503,65535
2385,65535
2504,65535
2505,65535
2557,65535
2558,65535
2559,65535
2560,65535
2564,65535
2562,65535
2561,65535
2605,65535
2609,65535
2565,65535
2566,65535
2515,65535
2397,65535
2457,65535
2458,65535
2401,65535
2337,65535
2336,65535
2399,65535
2398,65535
2402,65535
2333,65535
2273,65535
2219,65535
2218,65535
2159,65535
2454,65535
2393,65535
2512,65535
2502,65535
2608,65535
2156,65535
2155,65535
2154,65535
2213,65535
2212,65535
2211,65535
2210,65535
2264,65535
2324,65535
2323,65535
2030,65535
2094,65535
2157,65535
2450,65535
2388,65535
2387,65535
2326,65535
2266,65535
2265,65535
2508,65535
2396,65535
2335,65535
2334,65535
2158,65535
2279,65535
2278,65535
2222,65535
2221,65535
2276,65535
2275,65535
2261,65535
2207,65535
2149,65535
2554,65535
2599,65535
2633,65535
2664,65535
2689,65535
2690,65535
2691,65535
2692,65535
2152,65535
2089,65535
2088,65535
2025,65535
2603,65535
2602,65535
2556,65535
2693,65535
2671,65535
2670,65535
2694,65535
2553,65535
2665,65535
2705,65535
2710,65535
2668,65535
2639,65535
2463,65535
2521,65535
2572,65535
2451,65535
2390,65535
2391,65535
2392,65535
2215,65535
2268,65535
2093,65535
2092,65535
2028,65535
2024,65535
2150,65535
2086,65535
2209,65535
2023,65535
2087,65535
2148,65535
2262,65535
2327,65535
1560,65535
1630,65535
1631,65535
1559,65535
1629,65535
1558,65535
1634,65535
1633,65535
1482,65535
1481,65535
1699,65535
1700,65535
1701,65535
1563,65535
2070,65535
2008,65535
2009,65535
1959,65535
1958,65535
2006,65535
1957,65535
1956,65535
2193,65535
2132,65535
1912,65535
1911,65535
1865,65535
1866,65535
2007,65535
2069,65535
2010,65535
2011,65535
1961,65535
2072,65535
1913,65535
1867,65535
1962,65535
1914,65535
1915,65535
1909,65535
1636,65535
1635,65535
1564,65535
1702,65535
1637,65535
1638,65535
1565,65535
1486,65535
1760,65535
1704,65535
1703,65535
1763,65535
1762,65535
1817,65535
1705,65535
1863,65535
1815,65535
1759,65535
863,65535
758,65535
808,65535
982,65535
1036,65535
1099,65535
1100,65535
1166,65535
1167,65535
1237,65535
1238,65535
1375,65535
1308,65535
1309,65535
1236,65535
1235,65535
1101,65535
1037,65535
971,65535
1025,65535
1026,65535
1027,65535
1089,65535
720,65535
674,65535
864,65535
865,65535
919,65535
1024,65535
975,65535
974,65535
1028,65535
873,65535
925,65535
924,65535
917,65535
918,65535
623,65535
712,65535
713,65535
667,65535
622,65535
809,65535
719,65535
765,65535
972,65535
868,65535
869,65535
815,65535
920,65535
973,65535
981,65535
926,65535
927,65535
928,65535
1354,65535
1288,65535
1218,65535
1152,65535
1023,65535
1353,65535
1085,65535
1148,65535
1147,65535
1082,65535
772,65535
771,65535
819,65535
584,65535
628,65535
629,65535
1033,65535
978,65535
1031,65535
1030,65535
1029,65535
1091,65535
1035,65535
1034,65535
979,65535
1526,65535
1449,65535
1378,65535
1448,65535
1524,65535
1038,65535
1447,65535
1768,65535
1710,65535
1767,65535
391,4408
365,4417
339,4478
400,65535
393,4467
392,4433
396,4580
399,65535
443,4217
449,4535
450,4520
419,4429
414,4347
415,4313
387,4350
388,4360
389,4392
282,65535
281,4631
314,4600
313,4556
405,4585
411,4097
442,4174
255,65535
376,4663
373,4714
278,4527
275,4648
248,4695
335,4509
334,4517
306,4606
307,4682
176,65535
225,65535
320,65535
249,65535
287,65535
285,65535
776,4596
731,4602
315,65535
316,65535
204,65535
440,4680
439,65535
166,4305
269,4222
383,4045
1247,65535
1246,65535
1384,65535
1679,65535
1178,65535
1105,65535
1172,65535
1173,65535
1242,65535
1241,65535
1314,65535
1313,65535
1171,65535
1382,65535
1243,65535
1317,65535
1107,65535
1108,65535
1109,65535
1041,65535
1043,65535
1042,65535
1044,65535
1176,65535
1174,65535
1177,65535
1110,65535
985,65535
986,65535
932,65535
774,4608
730,4614
825,4640
728,4599
729,4640
727,4561
682,4661
684,4638
685,4618
732,4599
683,65535
2134,65535
2194,65535
2068,65535
2129,65535
1905,65535
1907,65535
1906,65535
1953,65535
2002,65535
2064,65535
2125,65535
2137,65535
2196,65535
2195,65535
1859,65535
1810,65535
1755,65535
2131,65535
2192,65535
1862,65535
1861,65535
1812,65535
1860,65535
1809,65535
1756,65535
1869,65535
1822,65535
1821,65535
1916,65535
1819,65535
1764,65535
1820,65535
1698,65535
1757,65535
1566,65535
1567,65535
1488,65535
1489,65535
1412,65535
1413,65535
1414,65535
1818,65535
1568,65535
1410,65535
2128,65535
2189,65535
2066,65535
2065,65535
2067,65535
1643,65535
1571,65535
1491,65535
2004,65535
2003,65535
1697,65535
2135,65535
2075,65535
1642,65535
1955,65535
2130,65535
2005,65535
1858,65535
1816,65535
1864,65535
1766,65535
1910,65535
1868,65535
2188,65535
2127,65535
1903,65535
2001,65535
2063,65535
2062,65535
1813,65535
1758,65535
1639,65535
1640,65535
1952,65535
2126,65535
1569,65535
1965,65535
1966,65535
2014,65535
1490,65535
1917,65535
1870,65535
1871,65535
1570,65535
1707,65535
2076,65535
2013,65535
1964,65535
1487,65535
1908,65535
2251,65535
2199,65535
2198,65535
2136,65535
1641,65535
1954,65535
1765,65535
1857,65535
2187,65535
1904,65535
1856,65535
1951,65535
1708,65535
245,4428
244,4412
357,4477
246,4458
247,4505
197,4592
223,4607
44,65535
43,65535
3,65535
23,65535
22,65535
63,65535
85,65535
84,65535
108,4527
149,4497
172,4532
296,0
294,3991
355,4114
354,4146
326,4224
295,3972
291,4135
293,4257
260,4277
356,4513
441,4148
412,4121
329,65535
300,65535
148,4482
214,4296
146,4411
110,4663
262,4109
258,4522
292,4285
257,4587
235,4385
187,4464
212,4491
211,4495
186,4576
162,4590
161,4603
165,4358
189,4414
238,4244
237,4209
263,4145
265,4250
266,4270
267,4295
268,4344
26,65535
25,65535
105,65535
62,65535
83,65535
126,4599
175,4652
152,4596
151,4564
150,4529
103,65535
242,4400
191,4570
192,4624
217,4650
218,65535
145,4390
144,4717
167,4332
190,4558
219,65535
159,65535
185,65535
158,65535
188,4447
160,65535
143,65535
122,65535
75,65535
54,65535
198,4648
270,4404
221,4752
301,65535
302,65535
330,65535
331,65535
115,4692
133,4754
139,65535
134,4728
114,4715
48,65535
69,65535
92,4629
164,65535
4,65535
107,65535
129,65535
109,65535
125,65535
124,65535
127,65535
82,65535
67,65535
91,65535
93,65535
137,65535
113,65535
112,65535
136,65535
49,65535
72,65535
71,65535
406,4725
805,65535
858,65535
859,65535
967,65535
1142,65535
1080,65535
1022,65535
1079,65535
968,65535
1206,65535
915,65535
916,65535
914,65535
807,65535
911,65535
1078,65535
1207,65535
1278,65535
1277,65535
1344,65535
1415,65535
1492,65535
1345,65535
1346,65535
1208,65535
1209,65535
1143,65535
1144,65535
1145,65535
1417,65535
1493,65535
1494,65535
1572,65535
1081,65535
970,65535
408,4704
382,4704
437,4635
467,4675
409,65535
403,4674
432,65535
433,65535
404,65535
352,65535
351,65535
349,65535
317,4747
374,65535
346,65535
283,65535
410,65535
438,65535
465,4602
490,4611
491,65535
435,4655
436,4631
379,65535
323,65535
289,65535
377,65535
378,4756
592,4444
593,4485
552,4421
445,4280
424,4697
423,65535
416,4433
361,4434
362,4407
371,65535
372,65535
343,65535
344,65535
286,65535
227,65535
252,65535
284,65535
318,65535
250,65535
312,4526
340,4509
368,4542
369,4601
370,65535
341,4535
367,4521
308,4619
276,4608
277,4587
280,4578
310,4498
338,4455
366,4472
274,65535
305,65535
420,4450
363,4424
418,4431
550,4749
579,4794
576,4745
577,4724
578,4729
520,4753
618,4755
662,4746
619,4770
620,65535
621,65535
665,4792
666,65535
664,4783
580,65535
2260,65535
2257,65535
2206,65535
2146,65535
2314,65535
2313,65535
2312,65535
2373,65535
2256,65535
2205,65535
2434,65535
2435,65535
2375,65535
2376,65535
2433,65535
2491,65535
2490,65535
2492,65535
2546,65535
2597,65535
2596,65535
2544,65535
2145,65535
2082,65535
2020,65535
2494,65535
0,65535
11,65535
1052,65535
1053,65535
941,65535
1740,65535
1796,65535
1615,65535
1681,65535
1545,65535
1797,65535
1544,65535
1741,65535
1795,65535
1617,65535
1546,65535
1616,65535
1683,65535
1467,65535
1547,65535
1465,65535
1387,65535
1388,65535
1464,65535
1462,65535
1461,65535
1542,65535
1463,65535
1682,65535
1543,65535
1618,65535
1742,65535
1460,65535
1248,65535
1850,65535
1801,65535
1803,65535
882,4579
881,4588
938,65535
883,4599
940,65535
1998,65535
1902,65535
1807,65535
1691,65535
1694,65535
1693,65535
1749,65535
1752,65535
1753,65535
1627,65535
1628,65535
1557,65535
1479,65535
1402,65535
1808,65535
1946,65535
1947,65535
1948,65535
1997,65535
1855,65535
1690,65535
2060,65535
1949,65535
1950,65535
1751,65535
1692,65535
1999,65535
1901,65535
1900,65535
1852,65535
1853,65535
1805,65535
1750,65535
1854,65535
1806,65535
1748,65535
2061,65535
2000,65535
1804,65535
1899,65535
2884,65535
2892,65535
2883,65535
2876,65535
2874,65535
2882,65535
2877,65535
2911,65535
2905,65535
2906,65535
2896,65535
2887,65535
2881,65535
2880,65535
2888,65535
2902,65535
2903,65535
2907,65535
2912,65535
2895,65535
2894,65535
2875,65535
2885,65535
2893,65535
2904,65535
2865,65535
2866,65535
2909,65535
2913,65535
2886,65535
2878,65535
2869,65535
2871,65535
2872,65535
2879,65535
2870,65535
1330,65535
1331,65535
1401,65535
1262,65535
1263,65535
1478,65535
1403,65535
1261,65535
1480,65535
1264,65535
1390,65535
1389,65535
1319,65535
1251,65535
1250,65535
1285,65535
1284,65535
1214,65535
1146,65535
1505,65535
1504,65535
1582,65535
1581,65535
1713,65535
1771,65535
1654,65535
1653,65535
1651,65535
2096,65535
2033,65535
1972,65535
1923,65535
1922,65535
1874,65535
1873,65535
1919,65535
1829,65535
1579,65535
1424,65535
1711,65535
1348,65535
1419,65535
1359,65535
1429,65535
1428,65535
1421,65535
1577,65535
1499,65535
1230,65535
1365,65535
1511,65535
1300,65535
1366,65535
1512,65535
1716,65535
1503,65535
1276,65535
1347,65535
1349,65535
1645,65535
1578,65535
1770,65535
1715,65535
1150,65535
1217,65535
1149,65535
1580,65535
1352,65535
1502,65535
1825,65535
1718,65535
1717,65535
1872,65535
1656,65535
1648,65535
1712,65535
1213,65535
1212,65535
1084,65535
1420,65535
1281,65535
1282,65535
1587,65535
1586,65535
1585,65535
1652,65535
1427,65535
1975,65535
1977,65535
1932,65535
1931,65535
1426,65535
1422,65535
1425,65535
1583,65535
1501,65535
1283,65535
1286,65535
1215,65535
1211,65535
1210,65535
1083,65535
1655,65535
2220,65535
1355,65535
1772,65535
1436,65535
1435,65535
1589,65535
1163,65535
1735,65535
1791,65535
1841,65535
1840,65535
1219,65535
1220,65535
1647,65535
1646,65535
1279,65535
1714,65535
1575,65535
1576,65535
1498,65535
1573,65535
1496,65535
1497,65535
2177,65535
2176,65535
2294,65535
2293,65535
2237,65535
2236,65535
2364,65535
2302,65535
2301,65535
2245,65535
2056,65535
2057,65535
2055,65535
2184,65535
2120,65535
2244,65535
2538,65535
2537,65535
2591,65535
1940,65535
1989,65535
1990,65535
2539,65535
2482,65535
2483,65535
2424,65535
2121,65535
2119,65535
2050,65535
2049,65535
2048,65535
2185,65535
2243,65535
2299,65535
2241,65535
2485,65535
2542,65535
2353,65535
2292,65535
2419,65535
2478,65535
2479,65535
2536,65535
2484,65535
2486,65535
2354,65535
2416,65535
2242,65535
2355,65535
2300,65535
1991,65535
1992,65535
2477,65535
2534,65535
2535,65535
2588,65535
2587,65535
2630,65535
2051,65535
2116,65535
2175,65535
2586,65535
2541,65535
2178,65535
2179,65535
2240,65535
2239,65535
2238,65535
2052,65535
2053,65535
1987,65535
1988,65535
1939,65535
2594,65535
2593,65535
2358,65535
2357,65535
2420,65535
2247,65535
2427,65535
2428,65535
2181,65535
2180,65535
2417,65535
2590,65535
2297,65535
2361,65535
2362,65535
2423,65535
2422,65535
2174,65535
2356,65535
1941,65535
2365,65535
2112,65535
2047,65535
2182,65535
2359,65535
2533,65535
2295,65535
2115,65535
2632,65535
2631,65535
2186,65535
2298,65535
2360,65535
2235,65535
2291,65535
2487,65535
2246,65535
2425,65535
2117,65535
2543,65535
1893,65535
2421,65535
2476,65535
2592,65535
604,65535
