middle_point_id,reach_time_minutes
2835,65535
2836,65535
2806,65535
2822,65535
2823,65535
2807,65535
2846,65535
887,1092
888,1067
1326,1180
1185,1149
999,1184
1057,1157
1552,1353
1120,1134
1473,1303
944,1231
832,1053
1257,1156
1396,1199
1622,1375
1327,3784
1184,1139
1183,1149
1324,1351
1255,1428
1394,1482
1252,1247
1253,1216
1182,1201
1328,65535
1470,1445
1321,1263
1322,1273
1323,2405
1391,1357
1551,1372
1393,1453
1472,1515
1471,1429
1181,2774
1118,1259
1059,1110
1121,1122
1469,1425
1468,1383
1548,1419
1325,1225
1625,1431
1623,1366
1258,1239
1256,1274
791,1064
891,1089
703,1073
704,1090
660,1078
1553,1349
1624,1389
1554,1370
1474,1318
1475,1367
1550,1382
1549,1470
1320,1329
1466,1383
1541,2515
1318,1405
1249,1428
1186,1136
1003,1101
1002,1112
741,1001
788,1038
434,405
697,1064
752,1120
1056,1210
1006,1093
907,1229
518,1026
1011,1258
1000,1148
1055,1502
997,1382
994,1288
996,1376
995,1363
991,1332
1112,65535
1114,1334
1051,1315
1398,1692
1395,1290
1001,1128
1811,1545
1960,1691
1769,1720
1823,1739
1329,65535
1332,1383
1259,1345
1200,1317
1199,1315
1140,1351
1141,1357
783,1043
1689,1398
1802,1460
1945,1801
2183,2419
2418,2837
1994,1835
1995,1868
2059,1721
1621,65535
1555,1536
1754,1601
1180,2303
1106,2470
933,2726
827,1148
2122,2659
2124,1769
493,1018
519,1030
544,1029
545,1033
494,1027
470,1067
543,1054
469,1054
517,1037
574,1045
573,1034
495,1060
546,1039
613,1045
612,1064
492,1035
572,1063
571,1099
570,1141
610,1147
575,1076
547,1058
516,1093
611,1161
542,1111
569,1100
609,1083
548,2229
549,2264
1404,1321
1405,1306
1266,1275
1193,1247
743,1030
742,1009
747,1097
746,1072
745,1068
744,1054
790,1058
789,1045
839,1068
838,1055
738,1039
739,1016
740,1010
890,1084
834,1043
784,1033
889,1088
856,1285
855,1260
854,1267
853,1256
852,1247
910,1252
909,1243
908,1238
964,1232
965,1238
1020,1274
966,1258
963,1234
1021,1364
1271,1312
1270,1311
1339,1300
1338,1287
1071,1275
1072,1271
1135,1298
1408,1303
1337,1282
1269,1285
1268,1277
1136,1308
1075,1294
1077,1348
1076,1306
1019,1302
1018,1275
1074,1352
1137,1344
1272,1321
1274,1417
1275,1430
1205,1419
1204,1439
1273,1428
1198,1336
1197,1306
1341,1362
1134,1313
1133,1271
1069,1261
1132,1244
1073,1287
1203,1423
1202,1422
1201,1353
1139,1362
1267,1271
1138,1376
1340,1332
1196,1259
1342,1396
1409,1367
1485,1329
1407,1329
1561,1403
1632,1414
1484,1369
1483,1361
1562,1393
1194,1211
1130,1201
1195,1224
1335,1291
1129,1189
1066,1171
1128,1174
1067,1237
1131,1219
1334,1394
1336,1283
1265,1295
1333,1377
1406,1305
857,1788
803,1822
804,2239
860,2247
969,2200
913,2187
912,2125
861,2257
806,2300
659,1075
751,1104
658,1056
705,1115
702,1076
706,1127
753,1168
614,1061
701,1099
661,1087
616,1088
848,1149
796,1116
797,1126
798,1146
750,1102
707,1173
615,1121
748,1081
845,1144
846,1133
657,1066
749,1095
795,1121
617,1131
663,1196
794,1164
847,1149
849,1170
902,1177
901,1197
900,1193
793,1073
899,1191
898,1156
897,1135
844,1160
842,1078
841,1068
956,1282
792,1070
843,1143
840,1085
850,1209
903,1157
800,1217
755,1229
756,1243
710,1274
711,1317
962,1225
961,1218
904,1162
906,1223
851,1227
802,1264
801,1237
799,1203
959,1229
1014,1304
1013,1274
708,1794
709,1822
754,1207
757,1271
1017,1284
1016,1282
960,1201
905,1176
958,1218
957,1267
1070,1281
1015,1239
1012,1281
1068,1238
1005,1086
1004,1091
1060,1107
1063,1128
1065,1167
1127,1190
1062,1158
1124,1166
1123,1152
1125,1177
1188,1191
1122,1126
1058,1117
947,1126
946,1116
949,1064
945,1083
948,1080
1190,1298
1187,1211
951,1098
895,1098
952,1122
1009,1193
1008,1146
1010,1257
1007,1134
1061,1214
954,1183
896,1115
953,1177
1126,1203
1064,1136
1189,1233
955,1291
950,1107
892,1060
786,1048
836,1060
837,1055
787,1026
700,1130
655,1172
654,1126
653,1106
698,1068
699,1084
608,1074
696,1029
656,1188
833,1048
785,1017
835,1068
693,1023
894,1072
893,1063
1343,1412
1192,1398
1191,1415
828,1138
829,1124
780,1077
830,1119
779,1136
782,1050
529,1054
886,1062
596,1055
556,1117
598,1080
597,1059
526,984
555,1106
525,1022
524,1077
523,1002
688,1090
607,1119
650,1055
651,1083
652,1126
737,1044
694,1029
695,1027
645,1074
646,1087
690,1068
600,1063
599,1047
781,1059
736,1049
558,1029
644,1058
643,1080
648,1076
692,1048
691,1051
513,998
541,1091
540,1059
568,1025
530,982
831,1070
559,1051
560,1118
642,1048
557,1096
496,1055
471,1032
444,1031
446,997
528,1061
527,1055
562,1050
602,1072
734,1076
466,1047
464,962
463,982
478,1219
481,1072
480,1146
479,1160
647,1088
488,1049
502,1099
689,1073
533,1055
532,1036
531,1041
601,1114
484,1007
508,1067
510,1028
509,1042
534,1076
482,1107
506,1051
606,1235
455,1271
429,946
456,1405
457,1244
428,1167
458,1065
554,1192
594,1183
640,1163
639,1269
551,1027
681,1174
636,1168
635,1184
590,1066
778,1145
777,1152
485,964
486,952
462,912
563,1116
885,1076
943,1093
564,1106
641,1129
504,1121
503,1139
501,1277
500,1270
561,1224
254,1059
350,1053
321,1032
319,1023
251,1066
375,954
347,1001
687,1099
565,1083
539,1059
511,1010
536,1049
649,1153
603,1209
605,1412
733,1094
735,1064
489,1107
514,1068
461,1090
460,1101
459,1121
468,1042
154,1298
178,1260
203,1231
228,1150
402,928
401,986
505,1046
522,1055
451,1028
452,1065
477,1211
476,1181
483,1066
884,1102
431,810
430,1057
454,1240
595,1110
395,389
394,495
422,958
417,958
390,309
538,1113
567,1139
426,1216
397,842
398,1006
499,1231
475,1286
497,1112
498,1129
311,215
342,320
345,969
421,799
515,1267
472,1116
448,1141
473,1167
474,1211
353,1066
381,1015
256,1196
290,1120
324,1079
380,1130
407,1010
253,1119
226,1168
201,1181
177,1244
824,1316
775,1262
826,1159
939,1207
936,1318
937,1304
880,1272
566,1229
2821,65535
2834,65535
2833,65535
2789,65535
2790,65535
2770,65535
2788,65535
2776,65535
2795,65535
2775,65535
2794,65535
2825,65535
2824,65535
2826,65535
2811,65535
2812,65535
2796,65535
2827,65535
2858,65535
2855,65535
2849,65535
2838,65535
2814,65535
2813,65535
2828,65535
2839,65535
2791,65535
2792,65535
2803,65535
2830,65535
2815,65535
2819,65535
2818,65535
2817,65535
2831,65535
2810,65535
2829,65535
2783,65535
2820,65535
2804,65535
2785,65535
2784,65535
2762,65535
2768,65535
2751,65535
2750,65535
2733,65535
2769,65535
2720,65535
2761,65535
2741,65535
2837,65535
2793,65535
2808,65535
2753,65535
2736,65535
2735,65535
2809,65535
2772,65535
2845,65535
2844,65535
2848,65535
2777,65535
2778,65535
2779,65535
2759,65535
2780,65535
2797,65535
2843,65535
2832,65535
2842,65535
2758,65535
2738,65535
2774,65535
2773,65535
2771,65535
2851,65535
2847,65535
2854,65535
2721,65535
2756,65535
2737,65535
2840,65535
2752,65535
2754,65535
2755,65535
2852,65535
2853,65535
2856,65535
2841,65535
2742,65535
2727,65535
2744,65535
2726,65535
2743,65535
2725,65535
2746,65535
2787,65535
2766,65535
2763,65535
2765,65535
2745,65535
2764,65535
2552,65535
2501,65535
2443,65535
2442,65535
2320,65535
2381,65535
2382,65535
2498,65535
2499,65535
2438,65535
2439,65535
2497,65535
2441,65535
2379,65535
2380,65535
2319,65535
2551,65535
2550,65535
2563,65535
2321,65535
2322,65535
2383,65535
2384,65535
2446,65535
2445,65535
2503,65535
2385,65535
2504,65535
2505,65535
2557,65535
2558,65535
2559,65535
2560,65535
2564,65535
2562,65535
2561,65535
2605,65535
2609,65535
2565,65535
2566,65535
2515,4756
2397,4519
2457,4736
2458,4720
2401,65535
2337,4432
2336,4436
2399,4478
2398,4499
2402,65535
2333,4656
2273,4691
2219,4715
2218,4727
2159,4752
2454,65535
2393,65535
2512,65535
2502,65535
2608,65535
2156,65535
2155,65535
2154,65535
2213,65535
2212,65535
2211,65535
2210,65535
2264,65535
2324,65535
2323,65535
2030,65535
2094,65535
2157,65535
2450,65535
2388,65535
2387,65535
2326,65535
2266,65535
2265,65535
2508,65535
2396,4588
2335,4606
2334,4617
2158,4777
2279,65535
2278,65535
2222,65535
2221,65535
2276,65535
2275,3804
2261,65535
2207,65535
2149,65535
2554,65535
2599,65535
2633,65535
2664,65535
2689,65535
2690,65535
2691,65535
2692,65535
2152,65535
2089,65535
2088,65535
2025,65535
2603,65535
2602,65535
2556,65535
2693,65535
2671,65535
2670,65535
2694,65535
2553,65535
2665,65535
2705,65535
2710,65535
2668,65535
2639,65535
2463,65535
2521,65535
2572,65535
2451,65535
2390,65535
2391,65535
2392,65535
2215,65535
2268,65535
2093,65535
2092,65535
2028,65535
2024,65535
2150,65535
2086,65535
2209,65535
2023,65535
2087,65535
2148,65535
2262,65535
2327,65535
1560,1433
1630,1462
1631,1420
1559,1470
1629,1525
1558,1473
1634,1416
1633,1412
1482,1342
1481,1416
1699,1427
1700,1438
1701,1421
1563,1438
2070,1743
2008,1707
2009,1708
1959,1689
1958,1674
2006,1699
1957,1670
1956,1663
2193,2387
2132,2327
1912,1691
1911,1665
1865,1612
1866,1711
2007,1737
2069,1772
2010,1713
2011,1739
1961,1705
2072,1729
1913,1777
1867,1757
1962,1738
1914,1804
1915,1893
1909,1698
1636,1468
1635,1474
1564,1453
1702,1470
1637,1497
1638,1536
1565,1434
1486,1399
1760,1494
1704,1547
1703,1491
1763,1573
1762,1551
1817,1573
1705,1624
1863,1576
1815,1542
1759,1457
863,2768
758,2861
808,2812
982,2983
1036,2990
1099,3025
1100,3053
1166,3454
1167,3949
1237,3606
1238,3641
1375,3711
1308,3780
1309,3689
1236,3907
1235,3541
1101,3084
1037,3021
971,2564
1025,2547
1026,2562
1027,2575
1089,2588
720,2824
674,2870
864,2650
865,2671
919,2566
1024,2511
975,2685
974,2655
1028,2610
873,3010
925,2956
924,2933
917,2630
918,2606
623,3045
712,2917
713,2950
667,2955
622,3013
809,2798
719,2798
765,2759
972,2596
868,2708
869,2720
815,2739
920,2975
973,2641
981,2934
926,3035
927,3043
928,3067
1354,2560
1288,2501
1218,2477
1152,2546
1023,2475
1353,2574
1085,2455
1148,2385
1147,2378
1082,2329
772,3096
771,3053
819,3028
584,2944
628,2911
629,2900
1033,2831
978,2786
1031,2759
1030,2713
1029,2696
1091,2673
1035,2912
1034,2855
979,2813
1526,3830
1449,3868
1378,3896
1448,3819
1524,3797
1038,3068
1447,3860
1768,1730
1710,1680
1767,1731
391,317
365,370
339,262
400,911
393,384
392,349
396,804
399,895
443,1111
449,895
450,865
419,360
414,1032
415,496
387,490
388,446
389,295
282,1138
281,1064
314,404
313,384
405,415
411,1234
442,1193
255,1079
376,973
373,1010
278,198
275,117
248,135
335,199
334,173
306,22
307,106
176,1228
225,1123
320,1182
249,1157
287,1156
285,1048
776,1206
731,1203
315,1020
316,1119
204,1264
440,1113
439,1111
166,1425
269,1342
383,1280
1247,65535
1246,65535
1384,65535
1679,65535
1178,3903
1105,2512
1172,2528
1173,2504
1242,3092
1241,2570
1314,3127
1313,3154
1171,2553
1382,4335
1243,2586
1317,4416
1107,2755
1108,3054
1109,3108
1041,2563
1043,3818
1042,3739
1044,4290
1176,3804
1174,4303
1177,3852
1110,3859
985,2632
986,2675
932,2693
774,1310
730,1237
825,1340
728,1320
729,1277
727,1201
682,1309
684,1338
685,1154
732,1181
683,2302
2134,2403
2194,2422
2068,2171
2129,2225
1905,1616
1907,1582
1906,1644
1953,1632
2002,1684
2064,1720
2125,1739
2137,2561
2196,2515
2195,2462
1859,1551
1810,1566
1755,1628
2131,2266
2192,2304
1862,1722
1861,1680
1812,1513
1860,1537
1809,1640
1756,1527
1869,2248
1822,1750
1821,1724
1916,2210
1819,1648
1764,1634
1820,1681
1698,1474
1757,1500
1566,1508
1567,1489
1488,1421
1489,1416
1412,1404
1413,1411
1414,1455
1818,1788
1568,1499
1410,1450
2128,2256
2189,2283
2066,2221
2065,2210
2067,2222
1643,1598
1571,1542
1491,1490
2004,2251
2003,1785
1697,1543
2135,2554
2075,2578
1642,1557
1955,1630
2130,2440
2005,1730
1858,1582
1816,3688
1864,3681
1766,1725
1910,1748
1868,2239
2188,2635
2127,2604
1903,1703
2001,2219
2063,2262
2062,1822
1813,1476
1758,1456
1639,1598
1640,1556
1952,1705
2126,3770
1569,1505
1965,2466
1966,2512
2014,2529
1490,1462
1917,2230
1870,1868
1871,1882
1570,1564
1707,1633
2076,2596
2013,2534
1964,2312
1487,1453
1908,1835
2251,65535
2199,65535
2198,65535
2136,2603
1641,1654
1954,2266
1765,2189
1857,1630
2187,1885
1904,1681
1856,1605
1951,1794
1708,2283
245,3999
244,3982
357,3986
246,4114
247,4143
197,4237
223,4215
44,4579
43,4639
3,4775
23,4749
22,4738
63,4521
85,4463
84,4418
108,3918
149,3872
172,4263
296,3966
294,4014
355,4114
354,4146
326,4224
295,4123
291,4135
293,4257
260,4143
356,4174
441,3774
412,3797
329,4132
300,4076
148,3846
214,4084
146,3967
110,4048
262,4109
258,4522
292,4285
257,4587
235,4107
187,4007
212,4063
211,4090
186,4011
162,3985
161,4064
165,3963
189,4163
238,4244
237,4209
263,4145
265,4164
266,4142
267,4130
268,3970
26,4739
25,4707
105,65535
62,65535
83,65535
126,4085
175,4520
152,4454
151,4444
150,4403
103,4023
242,3916
191,3870
192,3921
217,3944
218,3997
145,3907
144,3991
167,3899
190,3877
219,4014
159,4111
185,4055
158,4168
188,3999
160,4076
143,65535
122,65535
75,65535
54,65535
198,4648
270,4011
221,4052
301,4109
302,3946
330,3973
331,3995
115,4047
133,4106
139,4003
134,4080
114,4604
48,65535
69,65535
92,4280
164,4073
4,65535
107,4425
129,4510
109,3950
125,3991
124,3965
127,65535
82,65535
67,65535
91,4448
93,4247
137,4382
113,4402
112,4360
136,65535
49,65535
72,65535
71,65535
406,1041
805,2290
858,2095
859,2236
967,1972
1142,2109
1080,2115
1022,2106
1079,2124
968,2091
1206,2085
915,2242
916,2277
914,2214
807,2329
911,3436
1078,2192
1207,2184
1278,2228
1277,2231
1344,2251
1415,2292
1492,2347
1345,2308
1346,2278
1208,2176
1209,2256
1143,2293
1144,2309
1145,2324
1417,2304
1493,2364
1494,2383
1572,2398
1081,2261
970,2464
408,1042
382,1023
437,1035
467,1071
409,1052
403,991
432,1123
433,1016
404,1036
352,1162
351,1142
349,1066
317,1059
374,1228
346,1247
283,1113
410,1130
438,1144
465,972
490,1011
491,1106
435,993
436,1000
379,1595
323,1321
289,1184
377,1069
378,1091
592,1353
593,1379
552,1028
445,1036
424,1153
423,968
416,2377
361,242
362,277
371,1099
372,1083
343,1109
344,1094
286,1435
227,1143
252,1084
284,1068
318,1190
250,1078
312,228
340,253
368,342
369,1019
370,1117
341,1091
367,294
308,174
276,166
277,260
280,258
310,226
338,345
366,1068
274,149
305,0
420,1002
363,314
418,1039
550,2281
579,2304
576,2249
577,2261
578,2277
520,2257
618,2271
662,2301
619,2288
620,2301
621,2295
665,2277
666,2269
664,2297
580,2316
2260,65535
2257,65535
2206,65535
2146,65535
2314,65535
2313,65535
2312,65535
2373,65535
2256,65535
2205,65535
2434,65535
2435,65535
2375,65535
2376,65535
2433,65535
2491,65535
2490,65535
2492,65535
2546,65535
2597,65535
2596,65535
2544,65535
2145,65535
2082,65535
2020,65535
2494,65535
0,65535
11,65535
1052,1468
1053,1455
941,1440
1740,2461
1796,2535
1615,2319
1681,2396
1545,2200
1797,2575
1544,2275
1741,2553
1795,2856
1617,2220
1546,2206
1616,2237
1683,2341
1467,1373
1547,1413
1465,2180
1387,2247
1388,1415
1464,2264
1462,3019
1461,3040
1542,2931
1463,2983
1682,2528
1543,2396
1618,2277
1742,2654
1460,2730
1248,2262
1850,1492
1801,2178
1803,1441
882,1159
881,1168
938,1227
883,1179
940,2358
1998,1636
1902,1721
1807,1566
1691,1379
1694,1530
1693,2272
1749,1398
1752,1433
1753,1491
1627,1547
1628,1521
1557,1499
1479,1403
1402,1390
1808,1555
1946,1555
1947,1586
1948,1628
1997,1632
1855,1587
1690,1387
2060,1670
1949,1825
1950,1715
1751,1413
1692,1469
1999,1701
1901,1869
1900,1881
1852,1605
1853,1484
1805,1414
1750,1402
1854,1560
1806,1456
1748,1436
2061,1724
2000,1816
1804,1426
1899,1625
2884,65535
2892,65535
2883,65535
2876,65535
2874,65535
2882,65535
2877,65535
2911,65535
2905,65535
2906,65535
2896,65535
2887,65535
2881,65535
2880,65535
2888,65535
2902,65535
2903,65535
2907,65535
2912,65535
2895,65535
2894,65535
2875,65535
2885,65535
2893,65535
2904,65535
2865,65535
2866,65535
2909,65535
2913,65535
2886,65535
2878,65535
2869,65535
2871,65535
2872,65535
2879,65535
2870,65535
1330,1415
1331,1385
1401,1388
1262,1391
1263,1384
1478,1437
1403,1370
1261,1446
1480,1427
1264,1426
1390,1358
1389,1376
1319,1369
1251,1382
1250,1468
1285,2401
1284,2406
1214,2378
1146,2344
1505,2627
1504,2561
1582,2599
1581,2527
1713,2506
1771,2488
1654,2638
1653,2611
1651,2563
2096,3742
2033,3702
1972,3673
1923,3605
1922,3583
1874,3277
1873,2990
1919,2943
1829,3954
1579,2463
1424,2504
1711,2480
1348,2304
1419,2324
1359,2731
1429,2682
1428,2668
1421,2381
1577,2415
1499,2388
1230,2975
1365,2912
1511,2834
1300,2957
1366,2929
1512,2862
1716,2696
1503,2973
1276,2258
1347,2288
1349,2336
1645,2472
1578,2450
1770,2484
1715,2539
1150,2443
1217,2457
1149,2419
1580,2509
1352,2496
1502,2527
1825,2896
1718,2851
1717,2825
1872,2929
1656,2740
1648,2515
1712,2492
1213,2368
1212,2349
1084,2390
1420,2370
1281,2294
1282,2355
1587,2734
1586,2701
1585,2690
1652,2658
1427,2836
1975,3777
1977,3845
1932,3915
1931,4540
1426,2556
1422,2398
1425,2541
1583,2627
1501,2485
1283,2396
1286,2443
1215,2428
1211,2325
1210,2299
1083,2361
1655,2729
2220,3783
1355,65535
1772,2497
1436,2880
1435,2870
1589,2803
1163,3008
1735,4128
1791,4061
1841,4038
1840,3994
1219,2560
1220,2599
1647,2501
1646,2493
1279,2246
1714,2516
1575,2475
1576,2437
1498,2445
1573,2487
1496,2505
1497,2476
2177,2762
2176,2827
2294,2887
2293,2908
2237,2868
2236,2890
2364,2738
2302,2668
2301,2649
2245,2604
2056,2477
2057,2641
2055,2472
2184,2811
2120,2734
2244,2431
2538,2939
2537,2919
2591,2956
1940,2780
1989,2764
1990,2720
2539,2962
2482,2968
2483,2937
2424,2932
2121,2913
2119,2449
2050,2859
2049,2881
2048,2943
2185,2806
2243,2444
2299,2669
2241,2669
2485,2899
2542,3011
2353,2954
2292,2930
2419,2828
2478,2836
2479,2853
2536,2880
2484,2954
2486,2847
2354,2878
2416,2970
2242,2491
2355,2845
2300,2798
1991,2803
1992,2544
2477,2879
2534,2914
2535,2870
2588,2935
2587,2950
2630,2990
2051,2626
2116,2594
2175,2878
2586,65535
2541,3082
2178,2728
2179,2699
2240,2699
2239,2770
2238,2825
2052,2670
2053,2765
1987,2848
1988,2768
1939,2774
2594,3084
2593,3056
2358,2726
2357,2769
2420,2879
2247,3061
2427,2832
2428,2890
2181,2489
2180,2541
2417,2858
2590,2935
2297,2702
2361,2926
2362,2870
2423,2905
2422,2764
2174,2971
2356,2835
1941,2802
2365,3147
2112,2899
2047,2965
2182,2501
2359,2692
2533,3211
2295,3051
2115,2637
2632,3061
2631,3000
2186,2768
2298,2529
2360,2584
2235,3661
2291,3674
2487,3070
2246,2989
2425,3126
2117,3087
2543,3097
1893,65535
2421,2972
2476,2886
2592,3071
604,2266
