middle_point_id,reach_time_minutes
2835,65535
2836,65535
2806,65535
2822,65535
2823,65535
2807,65535
2846,65535
887,403
888,416
1326,640
1185,563
999,530
1057,721
1552,743
1120,557
1473,720
944,576
832,401
1257,599
1396,739
1622,835
1327,904
1184,595
1183,610
1324,871
1255,1404
1394,1272
1252,1574
1253,1600
1182,1605
1328,65535
1470,1304
1321,1554
1322,1495
1323,1445
1391,1567
1551,751
1393,1273
1472,958
1471,1244
1181,1934
1118,1619
1059,519
1121,543
1469,1381
1468,1621
1548,1403
1325,805
1625,831
1623,766
1258,577
1256,674
791,400
891,468
703,353
704,362
660,359
1553,747
1624,789
1554,770
1474,760
1475,813
1550,1029
1549,1326
1320,1566
1466,1603
1541,2200
1318,1679
1249,1701
1186,556
1003,501
1002,513
741,391
788,413
434,176
697,417
752,375
1056,552
1006,478
907,515
518,271
1011,598
1000,500
1055,2102
997,2071
994,1965
996,2037
995,2021
991,1812
1112,4445
1114,2052
1051,2015
1398,852
1395,750
1001,511
1811,808
1960,1484
1769,1366
1823,1365
1329,65535
1332,702
1259,2216
1200,598
1199,595
1140,636
1141,637
783,412
1689,1193
1802,1200
1945,1916
2183,2398
2418,2847
1994,1952
1995,2348
2059,1477
1621,65535
1555,847
1754,1039
1180,1650
1106,3045
933,3206
827,488
2122,2813
2124,1357
493,261
519,275
544,275
545,278
494,270
470,288
543,280
469,266
517,286
574,294
573,299
495,276
546,285
613,308
612,312
492,285
572,296
571,310
570,321
610,350
575,324
547,318
516,308
611,321
542,295
569,338
609,351
548,350
549,379
1404,670
1405,648
1266,615
1193,587
743,416
742,401
747,385
746,404
745,413
744,425
790,411
789,428
839,438
838,421
738,390
739,403
740,412
890,467
834,409
784,412
889,439
856,599
855,565
854,550
853,536
852,515
910,578
909,586
908,538
964,522
965,584
1020,623
966,603
963,516
1021,649
1271,599
1270,599
1339,607
1338,620
1071,554
1072,555
1135,578
1408,643
1337,629
1269,615
1268,619
1136,619
1075,574
1077,628
1076,586
1019,582
1018,555
1074,632
1137,640
1272,613
1274,697
1275,769
1205,755
1204,719
1273,707
1198,606
1197,614
1341,621
1134,564
1133,571
1069,582
1132,588
1073,590
1203,703
1202,702
1201,633
1139,642
1267,611
1138,656
1340,612
1196,599
1342,648
1409,625
1485,681
1407,683
1561,699
1632,722
1484,794
1483,667
1562,690
1194,574
1130,567
1195,583
1335,628
1129,558
1066,548
1128,556
1067,578
1131,575
1334,724
1336,623
1265,597
1333,699
1406,645
857,828
803,3562
804,7039
860,7047
969,7000
913,6987
912,6925
861,7057
806,7100
659,357
751,368
658,336
705,365
702,356
706,391
753,387
614,342
701,379
661,373
616,368
848,429
796,402
797,408
798,406
750,373
707,441
615,401
748,361
845,424
846,414
657,406
749,375
795,402
617,411
663,476
794,464
847,429
849,450
902,457
901,477
900,503
793,408
899,531
898,496
897,483
844,440
842,418
841,408
956,616
792,398
843,439
840,425
850,457
903,437
800,446
755,473
756,557
710,613
711,658
962,503
961,496
904,450
906,509
851,504
802,493
801,449
799,423
959,512
1014,527
1013,568
708,905
709,879
754,495
757,851
1017,564
1016,590
960,458
905,516
958,558
957,582
1070,561
1015,494
1012,587
1068,582
1005,480
1004,485
1060,522
1063,480
1065,507
1127,529
1062,488
1124,503
1123,523
1125,497
1188,540
1122,538
1058,528
947,524
946,488
949,464
945,483
948,480
1190,533
1187,551
951,483
895,458
952,471
1009,537
1008,482
1010,7152
1007,477
1061,493
954,463
896,455
953,480
1126,493
1064,484
1189,530
955,631
950,486
892,430
786,434
836,430
837,425
787,418
700,410
655,437
654,437
653,409
698,431
699,428
608,348
696,415
656,434
833,407
785,440
835,444
693,377
894,465
893,429
1343,692
1192,816
1191,755
828,478
829,464
780,417
830,459
779,461
782,391
529,296
886,408
596,375
556,378
598,389
597,345
526,324
555,348
525,359
524,373
523,364
688,431
607,359
650,409
651,388
652,389
737,384
694,423
695,399
645,416
646,412
690,391
600,425
599,420
781,396
736,389
558,328
644,424
643,460
648,351
692,368
691,381
513,295
541,351
540,323
568,323
530,349
831,410
559,354
560,346
642,381
557,317
496,386
471,376
444,371
446,359
528,301
527,340
562,297
602,327
734,426
466,293
464,204
463,247
478,432
481,321
480,345
479,389
647,405
488,262
502,308
689,431
533,358
532,314
531,321
601,351
484,347
508,359
510,311
509,380
534,363
482,306
506,332
606,365
455,404
429,223
456,364
457,315
428,274
458,295
554,440
594,408
640,447
639,544
551,402
681,514
636,508
635,524
590,461
778,477
777,482
485,329
486,279
462,311
563,396
885,464
943,1331
564,388
641,400
504,370
503,341
501,317
500,384
561,321
254,265
350,310
321,314
319,274
251,319
375,172
347,298
687,469
565,365
539,319
511,290
536,328
649,451
603,514
605,663
733,447
735,409
489,279
514,310
461,430
460,423
459,313
468,282
154,404
178,350
203,335
228,305
402,230
401,267
505,325
522,414
451,290
452,359
477,441
476,416
483,526
884,502
431,260
430,260
454,435
595,510
395,180
394,123
422,241
417,281
390,228
538,415
567,378
426,422
397,111
398,249
499,463
475,416
497,393
498,410
311,31
342,76
345,121
421,256
515,309
472,627
448,588
473,538
474,467
353,323
381,323
256,356
290,331
324,299
380,272
407,225
253,301
226,327
201,340
177,397
824,536
775,507
826,499
939,547
936,1798
937,613
880,565
566,397
2821,65535
2834,65535
2833,65535
2789,65535
2790,65535
2770,65535
2788,65535
2776,65535
2795,65535
2775,65535
2794,65535
2825,65535
2824,65535
2826,65535
2811,65535
2812,65535
2796,65535
2827,65535
2858,65535
2855,65535
2849,65535
2838,65535
2814,65535
2813,65535
2828,65535
2839,65535
2791,65535
2792,65535
2803,65535
2830,65535
2815,65535
2819,65535
2818,65535
2817,65535
2831,65535
2810,65535
2829,65535
2783,65535
2820,65535
2804,65535
2785,65535
2784,65535
2762,65535
2768,65535
2751,65535
2750,65535
2733,65535
2769,65535
2720,65535
2761,65535
2741,65535
2837,65535
2793,65535
2808,65535
2753,65535
2736,65535
2735,65535
2809,65535
2772,65535
2845,65535
2844,65535
2848,65535
2777,65535
2778,65535
2779,65535
2759,65535
2780,65535
2797,65535
2843,65535
2832,65535
2842,65535
2758,65535
2738,65535
2774,65535
2773,65535
2771,65535
2851,65535
2847,65535
2854,65535
2721,65535
2756,65535
2737,65535
2840,65535
2752,65535
2754,65535
2755,65535
2852,65535
2853,65535
2856,65535
2841,65535
2742,65535
2727,65535
2744,65535
2726,65535
2743,65535
2725,65535
2746,65535
2787,65535
2766,65535
2763,65535
2765,65535
2745,65535
2764,65535
2552,65535
2501,65535
2443,65535
2442,65535
2320,65535
2381,65535
2382,65535
2498,65535
2499,65535
2438,65535
2439,65535
2497,65535
2441,65535
2379,65535
2380,65535
2319,65535
2551,65535
2550,65535
2563,7557
2321,4213
2322,4182
2383,4194
2384,4905
2446,4948
2445,4956
2503,4975
2385,4939
2504,7678
2505,7700
2557,7724
2558,7749
2559,7773
2560,7737
2564,7513
2562,7625
2561,7665
2605,7680
2609,5264
2565,5209
2566,5194
2515,5139
2397,3559
2457,5120
2458,5104
2401,3731
2337,3472
2336,3476
2399,3518
2398,3539
2402,3765
2333,3696
2273,3731
2219,3755
2218,3767
2159,3792
2454,5824
2393,5790
2512,7524
2502,8309
2608,7943
2156,3914
2155,3946
2154,3975
2213,3991
2212,4003
2211,4051
2210,4092
2264,4099
2324,4133
2323,4149
2030,65535
2094,65535
2157,3878
2450,7921
2388,7970
2387,8038
2326,8075
2266,4280
2265,4235
2508,7892
2396,3628
2335,3646
2334,3657
2158,3817
2279,7345
2278,7309
2222,7278
2221,7260
2276,7242
2275,2844
2261,5727
2207,6585
2149,6644
2554,5027
2599,5057
2633,5095
2664,5130
2689,5167
2690,5193
2691,5209
2692,5233
2152,6338
2089,7046
2088,6384
2025,7179
2603,65535
2602,65535
2556,65535
2693,7172
2671,8955
2670,8935
2694,8894
2553,65535
2665,65535
2705,65535
2710,65535
2668,65535
2639,65535
2463,6586
2521,6622
2572,6645
2451,7806
2390,7775
2391,7595
2392,6232
2215,7800
2268,65535
2093,65535
2092,65535
2028,65535
2024,6414
2150,4452
2086,4482
2209,4439
2023,5553
2087,5506
2148,8599
2262,5712
2327,65535
1560,704
1630,798
1631,769
1559,838
1629,891
1558,888
1634,723
1633,707
1482,742
1481,827
1699,740
1700,756
1701,762
1563,743
2070,1498
2008,1494
2009,1494
1959,1488
1958,1470
2006,1452
1957,1440
1956,1446
2193,1747
2132,1689
1912,1512
1911,1505
1865,1328
1866,1365
2007,1474
2069,1480
2010,1533
2011,1620
1961,1525
2072,1549
1913,1461
1867,1398
1962,1558
1914,1567
1915,1600
1909,1421
1636,780
1635,768
1564,749
1702,800
1637,802
1638,842
1565,787
1486,698
1760,954
1704,816
1703,803
1763,919
1762,847
1817,888
1705,1216
1863,1336
1815,1386
1759,778
863,1808
758,1901
808,1852
982,2023
1036,2030
1099,2065
1100,2093
1166,2494
1167,2989
1237,2646
1238,2681
1375,2751
1308,2820
1309,2729
1236,2947
1235,2581
1101,2124
1037,2061
971,1604
1025,1587
1026,1602
1027,1615
1089,1628
720,1864
674,1910
864,1690
865,1711
919,1606
1024,1551
975,1725
974,1695
1028,1650
873,2050
925,1996
924,1973
917,1670
918,1646
623,2085
712,1957
713,1990
667,1995
622,2053
809,1838
719,1838
765,1799
972,1636
868,1748
869,1760
815,1779
920,2015
973,1681
981,1974
926,2075
927,2083
928,2107
1354,1600
1288,1541
1218,1517
1152,1586
1023,1515
1353,1614
1085,1495
1148,1425
1147,1418
1082,1369
772,2136
771,2093
819,2068
584,1984
628,1951
629,1940
1033,1871
978,1826
1031,1799
1030,1753
1029,1736
1091,1713
1035,1952
1034,1895
979,1853
1526,2870
1449,2908
1378,2936
1448,2859
1524,2837
1038,2108
1447,2900
1768,1356
1710,1371
1767,1336
391,184
365,115
339,68
400,185
393,252
392,230
396,158
399,220
443,451
449,314
450,319
419,230
414,507
415,365
387,358
388,323
389,247
282,298
281,234
314,160
313,140
405,229
411,534
442,493
255,280
376,283
373,220
278,56
275,123
248,142
335,227
334,201
306,146
307,134
176,446
225,373
320,313
249,341
287,293
285,301
776,496
731,483
315,287
316,303
204,351
440,317
439,329
166,1905
269,1822
383,1760
1247,4390
1246,4412
1384,4496
1679,4658
1178,4383
1105,3049
1172,3068
1173,3118
1242,3120
1241,3112
1314,3269
1313,3175
1171,3094
1382,3375
1243,3317
1317,3456
1107,3057
1108,3236
1109,3521
1041,3066
1043,3276
1042,3267
1044,3330
1176,4284
1174,3343
1177,4332
1110,4339
985,3112
986,3155
932,3173
774,530
730,498
825,552
728,563
729,521
727,541
682,581
684,558
685,467
732,519
683,562
2134,1848
2194,1871
2068,1430
2129,1458
1905,920
1907,1392
1906,1357
1953,1265
2002,1288
2064,1297
2125,1310
2137,2307
2196,1978
2195,1924
1859,876
1810,866
1755,801
2131,1561
2192,1599
1862,1299
1861,1260
1812,1223
1860,1373
1809,1255
1756,762
1869,1466
1822,1380
1821,1419
1916,1518
1819,1317
1764,1235
1820,1372
1698,747
1757,754
1566,843
1567,781
1488,711
1489,706
1412,687
1413,699
1414,725
1818,1279
1568,1316
1410,766
2128,1464
2189,1594
2066,1378
2065,1320
2067,1424
1643,1318
1571,785
1491,762
2004,1376
2003,1328
1697,776
2135,1889
2075,1618
1642,1298
1955,1451
2130,1480
2005,1545
1858,881
1816,8488
1864,8481
1766,1321
1910,1461
1868,1482
2188,1675
2127,1644
1903,1278
2001,1318
2063,1831
2062,1593
1813,1183
1758,753
1639,885
1640,842
1952,1330
2126,8570
1569,796
1965,1782
1966,1828
2014,1778
1490,759
1917,1470
1870,1391
1871,1404
1570,774
1707,1326
2076,1670
2013,1574
1964,1527
1487,748
1908,1537
2251,3681
2199,3625
2198,3488
2136,1876
1641,1290
1954,1528
1765,1284
1857,896
2187,1996
1904,1282
1856,1257
1951,1343
1708,1534
245,8799
244,8782
357,8786
246,8914
247,8943
197,9037
223,9015
44,9379
43,9439
3,9575
23,9549
22,9538
63,9321
85,9263
84,9218
108,8718
149,8672
172,9063
296,8766
294,8814
355,8914
354,8946
326,9024
295,8923
291,8935
293,9057
260,8943
356,8974
441,8574
412,8597
329,8932
300,8876
148,8646
214,8884
146,8767
110,8848
262,8909
258,9322
292,9085
257,9387
235,8907
187,8807
212,8863
211,8890
186,8811
162,8785
161,8864
165,8763
189,8963
238,9044
237,9009
263,8945
265,8964
266,8942
267,8930
268,8770
26,9539
25,9507
105,65535
62,65535
83,65535
126,8885
175,9320
152,9254
151,9244
150,9203
103,8823
242,8716
191,8670
192,8721
217,8744
218,8797
145,8707
144,8791
167,8699
190,8677
219,8814
159,8911
185,8855
158,8968
188,8799
160,8876
143,65535
122,65535
75,65535
54,65535
198,9448
270,8811
221,8852
301,8909
302,8746
330,8773
331,8795
115,8847
133,8906
139,8803
134,8880
114,9404
48,65535
69,65535
92,9080
164,8873
4,65535
107,9225
129,9310
109,8750
125,8791
124,8765
127,65535
82,65535
67,65535
91,9248
93,9047
137,9182
113,9202
112,9160
136,65535
49,65535
72,65535
71,65535
406,241
805,7090
858,6895
859,7036
967,1074
1142,1209
1080,6735
1022,6776
1079,6768
968,6891
1206,1166
915,7042
916,7077
914,7014
807,7129
911,8236
1078,6992
1207,1224
1278,1268
1277,1271
1344,1291
1415,1332
1492,1387
1345,1348
1346,1318
1208,1216
1209,1296
1143,1333
1144,1349
1145,1364
1417,1344
1493,1404
1494,1423
1572,1438
1081,7061
970,7264
408,324
382,342
437,284
467,341
409,367
403,294
432,375
433,391
404,293
352,452
351,335
349,297
317,413
374,268
346,287
283,307
410,324
438,315
465,226
490,294
491,297
435,215
436,223
379,423
323,497
289,529
377,300
378,272
592,604
593,645
552,401
445,378
424,194
423,226
416,491
361,246
362,267
371,292
372,249
343,305
344,309
286,328
227,306
252,356
284,316
318,323
250,352
312,47
340,15
368,38
369,66
370,282
341,0
367,40
308,336
276,235
277,270
280,138
310,43
338,90
366,182
274,156
305,453
420,278
363,284
418,255
550,7081
579,7104
576,7049
577,7061
578,7077
520,7057
618,7071
662,7101
619,7088
620,7101
621,7095
665,7077
666,7069
664,7097
580,7116
2260,65535
2257,65535
2206,65535
2146,65535
2314,65535
2313,65535
2312,65535
2373,65535
2256,65535
2205,65535
2434,65535
2435,65535
2375,65535
2376,65535
2433,65535
2491,65535
2490,65535
2492,65535
2546,65535
2597,65535
2596,65535
2544,65535
2145,65535
2082,65535
2020,65535
2494,65535
0,65535
11,65535
1052,2068
1053,2055
941,2095
1740,1932
1796,1973
1615,1759
1681,1876
1545,1628
1797,1973
1544,1654
1741,1880
1795,2170
1617,1719
1546,1685
1616,1678
1683,1721
1467,1593
1547,1658
1465,1677
1387,1659
1388,1641
1464,1724
1462,2059
1461,2080
1542,2144
1463,2023
1682,1846
1543,1713
1618,1788
1742,2080
1460,2246
1248,1776
1850,1247
1801,1218
1803,946
882,499
881,508
938,558
883,519
940,2838
1998,1370
1902,1341
1807,1217
1691,838
1694,1453
1693,1312
1749,858
1752,1246
1753,1278
1627,1026
1628,1401
1557,966
1479,719
1402,701
1808,1190
1946,1435
1947,1380
1948,1342
1997,1382
1855,1233
1690,806
2060,1557
1949,1439
1950,1361
1751,1209
1692,869
1999,1366
1901,1305
1900,1246
1852,1218
1853,1180
1805,900
1750,887
1854,1333
1806,1251
1748,919
2061,1552
2000,1393
1804,1211
1899,1267
2884,65535
2892,65535
2883,65535
2876,65535
2874,65535
2882,65535
2877,65535
2911,65535
2905,65535
2906,65535
2896,65535
2887,65535
2881,65535
2880,65535
2888,65535
2902,65535
2903,65535
2907,65535
2912,65535
2895,65535
2894,65535
2875,65535
2885,65535
2893,65535
2904,65535
2865,65535
2866,65535
2909,65535
2913,65535
2886,65535
2878,65535
2869,65535
2871,65535
2872,65535
2879,65535
2870,65535
1330,755
1331,708
1401,706
1262,717
1263,709
1478,719
1403,696
1261,727
1480,707
1264,762
1390,1573
1389,1632
1319,1610
1251,1665
1250,1741
1285,1442
1284,1446
1214,1418
1146,1384
1505,1667
1504,1601
1582,1639
1581,1567
1713,1546
1771,1528
1654,1678
1653,1651
1651,1603
2096,2782
2033,2742
1972,2713
1923,2645
1922,2623
1874,2317
1873,2030
1919,1983
1829,2994
1579,1503
1424,1495
1711,1520
1348,1344
1419,1364
1359,1771
1429,1722
1428,1708
1421,1421
1577,1455
1499,1428
1230,2015
1365,1952
1511,1874
1300,1997
1366,1969
1512,1902
1716,1736
1503,2013
1276,1298
1347,1328
1349,1376
1645,1512
1578,1490
1770,1524
1715,1579
1150,1483
1217,1497
1149,1459
1580,1529
1352,1536
1502,1518
1825,1936
1718,1891
1717,1865
1872,1969
1656,1780
1648,1555
1712,1532
1213,1408
1212,1389
1084,1430
1420,1410
1281,1334
1282,1395
1587,1774
1586,1741
1585,1730
1652,1698
1427,1876
1975,2817
1977,2885
1932,2955
1931,3580
1426,1596
1422,1438
1425,1581
1583,1667
1501,1525
1283,1436
1286,1483
1215,1468
1211,1365
1210,1339
1083,1401
1655,1769
2220,2823
1355,5891
1772,1537
1436,1920
1435,1910
1589,1843
1163,2048
1735,3168
1791,3101
1841,3078
1840,3034
1219,1600
1220,1639
1647,1541
1646,1533
1279,1286
1714,1556
1575,1515
1576,1477
1498,1485
1573,1527
1496,1545
1497,1516
2177,2965
2176,3035
2294,2952
2293,3071
2237,3012
2236,3041
2364,2813
2302,2753
2301,2675
2245,2577
2056,2707
2057,2793
2055,2686
2184,2738
2120,2744
2244,2658
2538,2998
2537,2979
2591,3095
1940,2870
1989,2878
1990,2814
2539,2998
2482,2989
2483,2951
2424,2847
2121,2805
2119,2618
2050,2927
2049,3005
2048,3423
2185,2771
2243,2497
2299,2711
2241,2660
2485,3029
2542,3084
2353,3043
2292,2950
2419,2837
2478,2884
2479,2919
2536,2946
2484,2990
2486,2983
2354,2882
2416,3059
2242,2705
2355,2920
2300,2718
1991,2818
1992,2825
2477,2875
2534,2896
2535,3011
2588,2916
2587,2930
2630,2981
2051,2739
2116,2633
2175,3068
2586,65535
2541,3151
2178,2940
2179,2743
2240,2690
2239,2914
2238,2984
2052,2870
2053,2836
1987,3110
1988,2958
1939,2982
2594,3101
2593,3086
2358,2804
2357,2814
2420,2870
2247,2866
2427,2956
2428,2978
2181,2537
2180,2586
2417,2864
2590,3076
2297,2699
2361,2891
2362,2774
2423,2862
2422,2827
2174,3298
2356,2925
1941,2859
2365,2990
2112,3303
2047,3445
2182,2676
2359,2753
2533,3691
2295,3016
2115,2706
2632,3136
2631,3075
2186,2923
2298,2785
2360,2809
2235,3261
2291,3274
2487,3205
2246,2798
2425,3606
2117,2930
2543,3158
1893,65535
2421,2962
2476,2880
2592,3134
604,7066
