middle_point_id,reach_time_minutes
2835,65535
2836,65535
2806,65535
2822,65535
2823,65535
2807,65535
2846,65535
887,444
888,444
1326,880
1185,862
999,600
1057,631
1552,933
1120,670
1473,906
944,463
832,440
1257,875
1396,899
1622,955
1327,904
1184,898
1183,903
1324,991
1255,964
1394,1002
1252,1187
1253,1156
1182,1141
1328,65535
1470,1020
1321,1194
1322,1135
1323,1085
1391,1207
1551,952
1393,1060
1472,958
1471,997
1181,1454
1118,1199
1059,768
1121,786
1469,1081
1468,1300
1548,1065
1325,925
1625,1018
1623,946
1258,874
1256,923
791,400
891,500
703,375
704,371
660,364
1553,929
1624,969
1554,954
1474,940
1475,947
1550,962
1549,1014
1320,1252
1466,1304
1541,1720
1318,1366
1249,1389
1186,865
1003,765
1002,763
741,385
788,428
434,215
697,443
752,400
1056,612
1006,550
907,745
518,305
1011,789
1000,818
1055,1622
997,1591
994,1485
996,1557
995,1541
991,1332
1112,3965
1114,1572
1051,1535
1398,972
1395,930
1001,772
1811,1101
1960,1311
1769,1403
1823,1409
1329,65535
1332,942
1259,1736
1200,855
1199,853
1140,924
1141,952
783,449
1689,992
1802,1100
1945,1436
2183,1918
2418,2367
1994,1472
1995,1868
2059,1297
1621,65535
1555,1056
1754,1180
1180,2303
1106,2565
933,2726
827,810
2122,2333
2124,1460
493,288
519,315
544,314
545,316
494,305
470,328
543,302
469,314
517,298
574,329
573,328
495,336
546,323
613,340
612,338
492,291
572,327
571,337
570,361
610,367
575,387
547,338
516,308
611,381
542,355
569,372
609,350
548,410
549,439
1404,924
1405,888
1266,855
1193,885
743,452
742,410
747,387
746,430
745,459
744,438
790,409
789,415
839,418
838,428
738,435
739,409
740,401
890,492
834,443
784,432
889,471
856,863
855,840
854,848
853,863
852,762
910,832
909,821
908,810
964,772
965,804
1020,863
966,841
963,751
1021,890
1271,857
1270,856
1339,907
1338,920
1071,809
1072,824
1135,845
1408,952
1337,878
1269,865
1268,859
1136,878
1075,813
1077,916
1076,861
1019,860
1018,795
1074,838
1137,867
1272,900
1274,976
1275,1010
1205,1022
1204,1019
1273,947
1198,846
1197,831
1341,1003
1134,830
1133,815
1069,795
1132,805
1073,830
1203,1003
1202,945
1201,873
1139,942
1267,851
1138,896
1340,905
1196,821
1342,989
1409,924
1485,961
1407,913
1561,981
1632,1021
1484,950
1483,936
1562,972
1194,845
1130,850
1195,835
1335,865
1129,863
1066,834
1128,853
1067,872
1131,826
1334,964
1336,856
1265,875
1333,939
1406,885
857,1788
803,3082
804,6559
860,6567
969,6520
913,6507
912,6445
861,6577
806,6620
659,359
751,384
658,369
705,375
702,376
706,386
753,404
614,356
701,379
661,381
616,404
848,445
796,397
797,408
798,417
750,386
707,393
615,401
748,391
845,506
846,453
657,406
749,413
795,398
617,411
663,416
794,857
847,414
849,450
902,463
901,502
900,529
793,413
899,511
898,487
897,455
844,474
842,418
841,408
956,807
792,398
843,448
840,426
850,489
903,452
800,489
755,477
756,774
710,491
711,1018
962,503
961,497
904,460
906,716
851,712
802,525
801,500
799,483
959,514
1014,821
1013,830
708,432
709,460
754,449
757,851
1017,881
1016,892
960,487
905,516
958,855
957,769
1070,801
1015,825
1012,775
1068,807
1005,774
1004,790
1060,772
1063,588
1065,821
1127,812
1062,771
1124,794
1123,843
1125,783
1188,821
1122,862
1058,788
947,551
946,804
949,783
945,787
948,747
1190,873
1187,848
951,567
895,478
952,544
1009,841
1008,502
1010,853
1007,508
1061,805
954,832
896,464
953,470
1126,789
1064,796
1189,870
955,827
950,805
892,445
786,451
836,469
837,441
787,435
700,406
655,425
654,431
653,433
698,460
699,472
608,304
696,368
656,422
833,435
785,414
835,452
693,419
894,480
893,468
1343,983
1192,969
1191,995
828,534
829,514
780,872
830,859
779,517
782,451
529,352
886,453
596,402
556,442
598,364
597,378
526,384
555,793
525,859
524,828
523,377
688,451
607,318
650,371
651,337
652,326
737,441
694,404
695,433
645,434
646,456
690,452
600,425
599,420
781,456
736,445
558,334
644,429
643,883
648,412
692,428
691,460
513,297
541,403
540,383
568,325
530,387
831,444
559,354
560,829
642,430
557,379
496,388
471,410
444,399
446,358
528,365
527,829
562,357
602,388
734,489
466,310
464,235
463,248
478,379
481,278
480,330
479,355
647,464
488,250
502,382
689,480
533,384
532,368
531,861
601,799
484,349
508,384
510,315
509,850
534,841
482,265
506,920
606,845
455,305
429,216
456,279
457,259
428,234
458,234
554,757
594,860
640,927
639,930
551,400
681,921
636,912
635,899
590,843
778,764
777,795
485,304
486,283
462,252
563,876
885,836
943,851
564,451
641,921
504,385
503,363
501,391
500,446
561,856
254,325
350,271
321,297
319,238
251,274
375,169
347,181
687,888
565,426
539,315
511,296
536,392
649,837
603,855
605,1406
733,552
735,469
489,275
514,292
461,858
460,834
459,255
468,303
154,965
178,920
203,905
228,375
402,184
401,195
505,873
522,847
451,361
452,844
477,810
476,868
483,853
884,893
431,258
430,212
454,863
595,851
395,158
394,206
422,269
417,326
390,277
538,895
567,915
426,319
397,190
398,275
499,1053
475,994
497,827
498,886
311,163
342,91
345,96
421,276
515,353
472,936
448,967
473,992
474,1037
353,348
381,303
256,484
290,460
324,372
380,334
407,273
253,879
226,895
201,920
177,939
824,896
775,869
826,829
939,907
936,1318
937,973
880,900
566,876
2821,65535
2834,65535
2833,65535
2789,65535
2790,65535
2770,65535
2788,65535
2776,65535
2795,65535
2775,65535
2794,65535
2825,65535
2824,65535
2826,65535
2811,65535
2812,65535
2796,65535
2827,65535
2858,65535
2855,65535
2849,65535
2838,65535
2814,65535
2813,65535
2828,65535
2839,65535
2791,65535
2792,65535
2803,65535
2830,65535
2815,65535
2819,65535
2818,65535
2817,65535
2831,65535
2810,65535
2829,65535
2783,65535
2820,65535
2804,65535
2785,65535
2784,65535
2762,65535
2768,65535
2751,65535
2750,65535
2733,65535
2769,65535
2720,65535
2761,65535
2741,65535
2837,65535
2793,65535
2808,65535
2753,65535
2736,65535
2735,65535
2809,65535
2772,65535
2845,65535
2844,65535
2848,65535
2777,65535
2778,65535
2779,65535
2759,65535
2780,65535
2797,65535
2843,65535
2832,65535
2842,65535
2758,65535
2738,65535
2774,65535
2773,65535
2771,65535
2851,65535
2847,65535
2854,65535
2721,65535
2756,65535
2737,65535
2840,65535
2752,65535
2754,65535
2755,65535
2852,65535
2853,65535
2856,65535
2841,65535
2742,65535
2727,65535
2744,65535
2726,65535
2743,65535
2725,65535
2746,65535
2787,65535
2766,65535
2763,65535
2765,65535
2745,65535
2764,65535
2552,65535
2501,65535
2443,65535
2442,65535
2320,65535
2381,65535
2382,65535
2498,65535
2499,65535
2438,65535
2439,65535
2497,65535
2441,65535
2379,65535
2380,65535
2319,65535
2551,65535
2550,65535
2563,7077
2321,6613
2322,6582
2383,6594
2384,6800
2446,6842
2445,6849
2503,6868
2385,6833
2504,7198
2505,7220
2557,7244
2558,7269
2559,7293
2560,7257
2564,7425
2562,7145
2561,7185
2605,7200
2609,7472
2565,7548
2566,7564
2515,7575
2397,5959
2457,7605
2458,7627
2401,6036
2337,5872
2336,5876
2399,5918
2398,5939
2402,6096
2333,6096
2273,6131
2219,6155
2218,6167
2159,6192
2454,6784
2393,6750
2512,7044
2502,7036
2608,7463
2156,6314
2155,6346
2154,6375
2213,6391
2212,6403
2211,6451
2210,6492
2264,6499
2324,6533
2323,6549
2030,65535
2094,65535
2157,6278
2450,7441
2388,7490
2387,7558
2326,7595
2266,7630
2265,6974
2508,7412
2396,6028
2335,6046
2334,6057
2158,6217
2279,8186
2278,8150
2222,8119
2221,8101
2276,8083
2275,3999
2261,6806
2207,6843
2149,65535
2554,6926
2599,6958
2633,7004
2664,8691
2689,8749
2690,8855
2691,8893
2692,8926
2152,6487
2089,6566
2088,6554
2025,6699
2603,65535
2602,65535
2556,65535
2693,65535
2671,65535
2670,65535
2694,65535
2553,65535
2665,65535
2705,65535
2710,65535
2668,65535
2639,65535
2463,6106
2521,6142
2572,6165
2451,7326
2390,7295
2391,7115
2392,7078
2215,7320
2268,65535
2093,65535
2092,65535
2028,65535
2024,8377
2150,7803
2086,7851
2209,7785
2023,7953
2087,7906
2148,8119
2262,6792
2327,65535
1560,1017
1630,1034
1631,1047
1559,1032
1629,1209
1558,993
1634,1008
1633,1006
1482,982
1481,1024
1699,1035
1700,1064
1701,1058
1563,987
2070,1378
2008,1318
2009,1314
1959,1317
1958,1313
2006,1296
1957,1278
1956,1232
2193,1506
2132,1446
1912,1333
1911,1293
1865,1392
1866,1426
2007,1355
2069,1361
2010,1353
2011,1405
1961,1343
2072,1369
1913,1420
1867,1486
1962,1376
1914,1385
1915,1433
1909,1459
1636,1052
1635,1051
1564,1031
1702,1114
1637,1091
1638,1130
1565,1023
1486,984
1760,1127
1704,1076
1703,1062
1763,1146
1762,1168
1817,1207
1705,1214
1863,1208
1815,1175
1759,1081
863,2768
758,2861
808,2812
982,2983
1036,2990
1099,3025
1100,3053
1166,3454
1167,3949
1237,3606
1238,3641
1375,3711
1308,3780
1309,3689
1236,3907
1235,3541
1101,3084
1037,3021
971,2564
1025,2547
1026,2562
1027,2575
1089,2588
720,2824
674,2870
864,2650
865,2671
919,2566
1024,2511
975,2685
974,2655
1028,2610
873,3010
925,2956
924,2933
917,2630
918,2606
623,3045
712,2917
713,2950
667,2955
622,3013
809,2798
719,2798
765,2759
972,2596
868,2708
869,2720
815,2739
920,2854
973,2641
981,2934
926,3035
927,3043
928,3067
1354,2517
1288,2501
1218,2477
1152,2546
1023,2475
1353,2501
1085,2455
1148,2385
1147,2378
1082,2329
772,3096
771,3053
819,3028
584,2944
628,2911
629,2900
1033,2831
978,2786
1031,2759
1030,2713
1029,2696
1091,2673
1035,2912
1034,2855
979,2813
1526,3830
1449,3868
1378,3896
1448,3819
1524,3797
1038,3068
1447,3860
1768,1407
1710,1368
1767,1433
391,249
365,235
339,188
400,248
393,253
392,280
396,194
399,264
443,991
449,363
450,338
419,360
414,1032
415,496
387,490
388,356
389,299
282,298
281,163
314,157
313,184
405,228
411,1234
442,1193
255,358
376,202
373,112
278,176
275,246
248,255
335,352
334,336
306,295
307,284
176,955
225,331
320,251
249,316
287,342
285,247
776,816
731,836
315,127
316,108
204,978
440,335
439,330
166,1425
269,1342
383,1280
1247,3910
1246,3932
1384,4016
1679,4178
1178,3903
1105,2569
1172,2588
1173,2638
1242,2640
1241,2632
1314,2789
1313,2695
1171,2614
1382,2895
1243,2837
1317,2976
1107,2577
1108,2756
1109,3041
1041,2586
1043,2796
1042,2787
1044,2850
1176,3804
1174,2863
1177,3852
1110,3859
985,2632
986,2675
932,2693
774,890
730,847
825,888
728,879
729,860
727,963
682,876
684,858
685,868
732,844
683,922
2134,1603
2194,1593
2068,1403
2129,1457
1905,1215
1907,1164
1906,1154
1953,1345
2002,1386
2064,1405
2125,1427
2137,1827
2196,1780
2195,1737
1859,1146
1810,1202
1755,1081
2131,1427
2192,1464
1862,1314
1861,1267
1812,1125
1860,1249
1809,1218
1756,1066
1869,1417
1822,1422
1821,1426
1916,1446
1819,1206
1764,1181
1820,1365
1698,1042
1757,1052
1566,1122
1567,1108
1488,1082
1489,1019
1412,999
1413,1005
1414,1009
1818,1258
1568,1074
1410,960
2128,1480
2189,1521
2066,1449
2065,1472
2067,1454
1643,1347
1571,1145
1491,1098
2004,1437
2003,1424
1697,1064
2135,1598
2075,1579
1642,1320
1955,1203
2130,1477
2005,1248
1858,1230
1816,8008
1864,8001
1766,1452
1910,1446
1868,1408
2188,1626
2127,1597
1903,1379
2001,1442
2063,1439
2062,1430
1813,1376
1758,1063
1639,1310
1640,1141
1952,1388
2126,8090
1569,1084
1965,1483
1966,1528
2014,1549
1490,1037
1917,1561
1870,1454
1871,1468
1570,1184
1707,1404
2076,1622
2013,1524
1964,1477
1487,1064
1908,1456
2251,3201
2199,3145
2198,3008
2136,1585
1641,1338
1954,1303
1765,1425
1857,1255
2187,1516
1904,1357
1856,1365
1951,1355
1708,2283
245,8319
244,8302
357,8306
246,8434
247,8463
197,8557
223,8535
44,8899
43,8959
3,9095
23,9069
22,9058
63,8841
85,8783
84,8738
108,8238
149,8192
172,8583
296,8286
294,8334
355,8434
354,8466
326,8544
295,8443
291,8455
293,8577
260,8463
356,8494
441,8094
412,8117
329,8452
300,8396
148,8166
214,8404
146,8287
110,8368
262,8429
258,8842
292,8605
257,8907
235,8427
187,8327
212,8383
211,8410
186,8331
162,8305
161,8384
165,8283
189,8483
238,8564
237,8529
263,8465
265,8484
266,8462
267,8450
268,8290
26,9059
25,9027
105,65535
62,65535
83,65535
126,8405
175,8840
152,8774
151,8764
150,8723
103,8343
242,8236
191,8190
192,8241
217,8264
218,8317
145,8227
144,8311
167,8219
190,8197
219,8334
159,8431
185,8375
158,8488
188,8319
160,8396
143,65535
122,65535
75,65535
54,65535
198,8968
270,8331
221,8372
301,8429
302,8266
330,8293
331,8315
115,8367
133,8426
139,8323
134,8400
114,8924
48,65535
69,65535
92,8600
164,8393
4,65535
107,8745
129,8830
109,8270
125,8311
124,8285
127,65535
82,65535
67,65535
91,8768
93,8567
137,8702
113,8722
112,8680
136,65535
49,65535
72,65535
71,65535
406,283
805,6610
858,6415
859,6556
967,2034
1142,2169
1080,6255
1022,6296
1079,6288
968,6411
1206,2126
915,6562
916,6597
914,6534
807,6649
911,7756
1078,6512
1207,2184
1278,2228
1277,2231
1344,2251
1415,2292
1492,2347
1345,2308
1346,2278
1208,2176
1209,2256
1143,2293
1144,2309
1145,2324
1417,2304
1493,2364
1494,2383
1572,2398
1081,6581
970,6784
408,324
382,355
437,264
467,320
409,304
403,228
432,292
433,264
404,246
352,352
351,903
349,282
317,224
374,132
346,129
283,273
410,313
438,304
465,252
490,282
491,322
435,248
436,276
379,308
323,381
289,411
377,295
378,242
592,1027
593,1065
552,828
445,376
424,236
423,194
416,930
361,333
362,309
371,147
372,129
343,0
344,77
286,976
227,888
252,303
284,256
318,292
250,315
312,206
340,147
368,138
369,162
370,226
341,130
367,176
308,251
276,226
277,208
280,258
310,172
338,209
366,900
274,890
305,1092
420,879
363,314
418,320
550,6601
579,6624
576,6569
577,6581
578,6597
520,6577
618,6591
662,6621
619,6608
620,6621
621,6615
665,6597
666,6589
664,6617
580,6636
2260,65535
2257,65535
2206,65535
2146,65535
2314,65535
2313,65535
2312,65535
2373,65535
2256,65535
2205,65535
2434,65535
2435,65535
2375,65535
2376,65535
2433,65535
2491,65535
2490,65535
2492,65535
2546,65535
2597,65535
2596,65535
2544,65535
2145,65535
2082,65535
2020,65535
2494,65535
0,65535
11,65535
1052,1588
1053,1575
941,1615
1740,1452
1796,1493
1615,1355
1681,1396
1545,1316
1797,1540
1544,1330
1741,1508
1795,1690
1617,1316
1546,1321
1616,1333
1683,1428
1467,1290
1547,1295
1465,1365
1387,1401
1388,1362
1464,1426
1462,1579
1461,1600
1542,1664
1463,1543
1682,1407
1543,1385
1618,1308
1742,1600
1460,1766
1248,1410
1850,1132
1801,1118
1803,1066
882,859
881,868
938,919
883,884
940,2358
1998,1276
1902,1313
1807,1206
1691,1007
1694,1093
1693,1132
1749,1098
1752,1167
1753,1124
1627,1070
1628,1041
1557,1019
1479,971
1402,941
1808,1195
1946,1195
1947,1226
1948,1268
1997,1272
1855,1255
1690,986
2060,1375
1949,1407
1950,1334
1751,1132
1692,1109
1999,1336
1901,1415
1900,1456
1852,1605
1853,1484
1805,1226
1750,1050
1854,1250
1806,1168
1748,1030
2061,1416
2000,1414
1804,1306
1899,1625
2884,65535
2892,65535
2883,65535
2876,65535
2874,65535
2882,65535
2877,65535
2911,65535
2905,65535
2906,65535
2896,65535
2887,65535
2881,65535
2880,65535
2888,65535
2902,65535
2903,65535
2907,65535
2912,65535
2895,65535
2894,65535
2875,65535
2885,65535
2893,65535
2904,65535
2865,65535
2866,65535
2909,65535
2913,65535
2886,65535
2878,65535
2869,65535
2871,65535
2872,65535
2879,65535
2870,65535
1330,995
1331,955
1401,946
1262,957
1263,949
1478,1026
1403,936
1261,966
1480,947
1264,1063
1390,1273
1389,1318
1319,1295
1251,1382
1250,1468
1285,2420
1284,2406
1214,2378
1146,2342
1505,2627
1504,2561
1582,2599
1581,2527
1713,2506
1771,2488
1654,2638
1653,2611
1651,2563
2096,3742
2033,3702
1972,3673
1923,3605
1922,3583
1874,3277
1873,2990
1919,2943
1829,5654
1579,2463
1424,2467
1711,2480
1348,2304
1419,2324
1359,2731
1429,2682
1428,2668
1421,2381
1577,2415
1499,2388
1230,2975
1365,2912
1511,2834
1300,2957
1366,2929
1512,2862
1716,2696
1503,2749
1276,2258
1347,2288
1349,2336
1645,2472
1578,2450
1770,2484
1715,2539
1150,2443
1217,2457
1149,2419
1580,2509
1352,2496
1502,2527
1825,2896
1718,2851
1717,2825
1872,2929
1656,2740
1648,2515
1712,2492
1213,2368
1212,2349
1084,2390
1420,2370
1281,2294
1282,2355
1587,2734
1586,2701
1585,2690
1652,2658
1427,2836
1975,3777
1977,3845
1932,3915
1931,4540
1426,2556
1422,2398
1425,2541
1583,2627
1501,2485
1283,2396
1286,2443
1215,2428
1211,2325
1210,2299
1083,2361
1655,2729
2220,3977
1355,5411
1772,2497
1436,2880
1435,2870
1589,2803
1163,3008
1735,4128
1791,4061
1841,4038
1840,3994
1219,2560
1220,2599
1647,2501
1646,2493
1279,2246
1714,2516
1575,2475
1576,2437
1498,2445
1573,2487
1496,2505
1497,2476
2177,2485
2176,2555
2294,2472
2293,2591
2237,2532
2236,2561
2364,2333
2302,2273
2301,2195
2245,2097
2056,2227
2057,2313
2055,2206
2184,2258
2120,2264
2244,2178
2538,2518
2537,2499
2591,2615
1940,2390
1989,2398
1990,2334
2539,2518
2482,2509
2483,2471
2424,2367
2121,2325
2119,2138
2050,2447
2049,2525
2048,2943
2185,2291
2243,2017
2299,2231
2241,2180
2485,2549
2542,2604
2353,2563
2292,2470
2419,2357
2478,2404
2479,2439
2536,2466
2484,2510
2486,2503
2354,2402
2416,2579
2242,2225
2355,2440
2300,2238
1991,2338
1992,2345
2477,2395
2534,2416
2535,2531
2588,2436
2587,2450
2630,2501
2051,2259
2116,2153
2175,2588
2586,65535
2541,2671
2178,2460
2179,2263
2240,2210
2239,2434
2238,2504
2052,2390
2053,2356
1987,2630
1988,2478
1939,2502
2594,2621
2593,2606
2358,2324
2357,2334
2420,2390
2247,2386
2427,2476
2428,2498
2181,2057
2180,2106
2417,2384
2590,2596
2297,2219
2361,2411
2362,2294
2423,2382
2422,2347
2174,2818
2356,2445
1941,2379
2365,2510
2112,2823
2047,2965
2182,2196
2359,2273
2533,3211
2295,2536
2115,2226
2632,2656
2631,2595
2186,2443
2298,2305
2360,2329
2235,2781
2291,2794
2487,2725
2246,2318
2425,3126
2117,2450
2543,2678
1893,65535
2421,2482
2476,2400
2592,2654
604,6586
