middle_point_id,reach_time_minutes
2835,65535
2836,65535
2806,65535
2822,65535
2823,65535
2807,65535
2846,65535
887,9255
888,9238
1326,9460
1185,9369
999,9410
1057,9557
1552,65535
1120,9354
1473,65535
944,9558
832,9221
1257,9436
1396,65535
1622,65535
1327,9544
1184,9359
1183,9370
1324,65535
1255,65535
1394,65535
1252,65535
1253,65535
1182,65535
1328,65535
1470,65535
1321,65535
1322,65535
1323,65535
1391,65535
1551,65535
1393,65535
1472,65535
1471,65535
1181,65535
1118,65535
1059,9330
1121,9342
1469,65535
1468,65535
1548,65535
1325,9565
1625,65535
1623,65535
1258,9457
1256,9494
791,9259
891,9309
703,9233
704,9242
660,9237
1553,65535
1624,65535
1554,65535
1474,65535
1475,65535
1550,65535
1549,65535
1320,65535
1466,65535
1541,65535
1318,65535
1249,65535
1186,9356
1003,9322
1002,9334
741,9221
788,9250
434,9081
697,9203
752,9255
1056,9432
1006,9289
907,9399
518,9175
1011,9399
1000,9368
1055,65535
997,65535
994,65535
996,65535
995,65535
991,65535
1112,65535
1114,65535
1051,65535
1398,65535
1395,65535
1001,9349
1811,65535
1960,65535
1769,65535
1823,65535
1329,65535
1332,9557
1259,65535
1200,9419
1199,9423
1140,9564
1141,9562
783,9207
1689,65535
1802,65535
1945,65535
2183,65535
2418,65535
1994,65535
1995,65535
2059,65535
1621,65535
1555,65535
1754,65535
1180,65535
1106,65535
933,65535
827,9156
2122,65535
2124,65535
493,9168
519,9179
544,9181
545,9185
494,9185
470,9194
543,9182
469,9178
517,9177
574,9196
573,9193
495,9200
546,9190
613,9198
612,9202
492,9170
572,9188
571,9199
570,9203
610,9202
575,9207
547,9218
516,9188
611,9229
542,9212
569,9230
609,9192
548,9224
549,9238
1404,9484
1405,9466
1266,9435
1193,9407
743,9249
742,9228
747,9257
746,9252
745,9245
744,9252
790,9264
789,9259
839,9272
838,9249
738,9200
739,9230
740,9236
890,9290
834,9230
784,9222
889,9248
856,9502
855,9480
854,9472
853,9445
852,9395
910,9472
909,9461
908,9418
964,9402
965,9464
1020,9495
966,9468
963,9394
1021,9529
1271,9422
1270,9424
1339,9438
1338,9449
1071,9434
1072,9429
1135,9427
1408,9465
1337,9458
1269,9434
1268,9460
1136,9409
1075,9429
1077,9558
1076,9497
1019,9462
1018,9435
1074,9392
1137,9444
1272,9433
1274,9496
1275,9530
1205,9572
1204,9557
1273,9467
1198,9496
1197,9466
1341,9525
1134,9429
1133,9425
1069,9421
1132,9404
1073,9385
1203,9523
1202,9465
1201,9438
1139,9508
1267,9431
1138,9475
1340,9433
1196,9419
1342,65535
1409,9594
1485,65535
1407,9514
1561,9546
1632,9588
1484,65535
1483,9501
1562,9538
1194,9371
1130,9361
1195,9384
1335,9451
1129,9349
1066,9340
1128,9327
1067,9397
1131,9379
1334,9552
1336,9443
1265,9455
1333,9542
1406,9465
857,9575
803,65535
804,65535
860,65535
969,65535
913,65535
912,65535
861,65535
806,65535
659,9235
751,9248
658,9216
705,9245
702,9236
706,9271
753,9267
614,9213
701,9259
661,9242
616,9230
848,9309
796,9285
797,9296
798,9286
750,9253
707,9276
615,9218
748,9241
845,9304
846,9313
657,9226
749,9255
795,9282
617,9239
663,9269
794,9284
847,9309
849,9332
902,9337
901,9357
900,9376
793,9266
899,9351
898,9316
897,9295
844,9320
842,9273
841,9263
956,9386
792,9260
843,9280
840,9281
850,9337
903,9317
800,9326
755,9353
756,9354
710,9315
711,9418
962,9383
961,9376
904,9330
906,9393
851,9388
802,9373
801,9329
799,9303
959,9392
1014,9407
1013,9432
708,9545
709,9320
754,9307
757,9371
1017,9401
1016,9393
960,9353
905,9396
958,9431
957,9414
1070,9441
1015,9389
1012,9405
1068,9403
1005,9307
1004,9311
1060,9327
1063,9306
1065,9321
1127,9333
1062,9311
1124,9356
1123,9372
1125,9342
1188,9411
1122,9343
1058,9337
947,9298
946,9308
949,9284
945,9303
948,9309
1190,9476
1187,9434
951,9270
895,9280
952,9282
1009,9374
1008,9317
1010,9383
1007,9294
1061,9363
954,9343
896,9275
953,9341
1126,9333
1064,9305
1189,9454
955,9364
950,9267
892,9250
786,9254
836,9250
837,9245
787,9238
700,9257
655,9212
654,9223
653,9195
698,9224
699,9231
608,9184
696,9221
656,9246
833,9225
785,9260
835,9260
693,9184
894,9285
893,9260
1343,65535
1192,65535
1191,65535
828,9192
829,9213
780,9235
830,9223
779,9205
782,9210
529,8994
886,9252
596,9030
556,9018
598,9089
597,9042
526,8970
555,8988
525,8995
524,8962
523,8919
688,9158
607,9189
650,9222
651,9209
652,9209
737,9190
694,9213
695,9221
645,9149
646,9157
690,9176
600,9163
599,9124
781,9208
736,9180
558,9015
644,9139
643,9163
648,9154
692,9184
691,9195
513,9134
541,9193
540,9172
568,9239
530,9001
831,9234
559,9054
560,9100
642,9054
557,9019
496,8888
471,8856
444,8785
446,8839
528,9010
527,8980
562,9079
602,9112
734,9176
466,9189
464,9114
463,9109
478,9174
481,9112
480,9149
479,9149
647,9164
488,9142
502,9049
689,9163
533,9058
532,9037
531,9021
601,9125
484,9168
508,9130
510,9169
509,9141
534,9122
482,9128
506,9080
606,9216
455,9236
429,9181
456,9283
457,9178
428,9192
458,9177
554,9080
594,9048
640,9087
639,9184
551,8946
681,9064
636,9052
635,9060
590,8956
778,9180
777,9162
485,9149
486,9179
462,9167
563,9168
885,9284
943,65535
564,9208
641,9081
504,9077
503,9050
501,9060
500,9100
561,9090
254,9193
350,9144
321,9173
319,9189
251,9230
375,9215
347,9223
687,9169
565,9212
539,9150
511,9213
536,9186
649,9163
603,9201
605,65535
733,9200
735,9197
489,9159
514,9153
461,9231
460,9218
459,9194
468,9186
154,9337
178,9310
203,9280
228,9252
402,9198
401,9222
505,9085
522,8969
451,9181
452,9234
477,9191
476,9155
483,9416
884,9334
431,9144
430,9157
454,9206
595,9150
395,9086
394,9060
422,9141
417,8860
390,8898
538,9168
567,9194
426,9260
397,9173
398,9206
499,8993
475,9191
497,8910
498,8927
311,9040
342,9080
345,9197
421,9058
515,9195
472,9267
448,9228
473,9178
474,9057
353,9202
381,9177
256,9296
290,9250
324,9222
380,9218
407,9192
253,9205
226,9214
201,9240
177,9281
824,9176
775,9147
826,9145
939,9187
936,65535
937,9253
880,9205
566,9200
2821,65535
2834,65535
2833,65535
2789,65535
2790,65535
2770,65535
2788,65535
2776,65535
2795,65535
2775,65535
2794,65535
2825,65535
2824,65535
2826,65535
2811,65535
2812,65535
2796,65535
2827,65535
2858,65535
2855,65535
2849,65535
2838,65535
2814,65535
2813,65535
2828,65535
2839,65535
2791,65535
2792,65535
2803,65535
2830,65535
2815,65535
2819,65535
2818,65535
2817,65535
2831,65535
2810,65535
2829,65535
2783,65535
2820,65535
2804,65535
2785,65535
2784,65535
2762,65535
2768,65535
2751,65535
2750,65535
2733,65535
2769,65535
2720,65535
2761,65535
2741,65535
2837,65535
2793,65535
2808,65535
2753,65535
2736,65535
2735,65535
2809,65535
2772,65535
2845,65535
2844,65535
2848,65535
2777,65535
2778,65535
2779,65535
2759,65535
2780,65535
2797,65535
2843,65535
2832,65535
2842,65535
2758,65535
2738,65535
2774,65535
2773,65535
2771,65535
2851,65535
2847,65535
2854,65535
2721,65535
2756,65535
2737,65535
2840,65535
2752,65535
2754,65535
2755,65535
2852,65535
2853,65535
2856,65535
2841,65535
2742,65535
2727,65535
2744,65535
2726,65535
2743,65535
2725,65535
2746,65535
2787,65535
2766,65535
2763,65535
2765,65535
2745,65535
2764,65535
2552,65535
2501,65535
2443,65535
2442,65535
2320,65535
2381,65535
2382,65535
2498,65535
2499,65535
2438,65535
2439,65535
2497,65535
2441,65535
2379,65535
2380,65535
2319,65535
2551,65535
2550,65535
2563,65535
2321,65535
2322,65535
2383,65535
2384,65535
2446,65535
2445,65535
2503,65535
2385,65535
2504,65535
2505,65535
2557,65535
2558,65535
2559,65535
2560,65535
2564,65535
2562,65535
2561,65535
2605,65535
2609,65535
2565,65535
2566,65535
2515,65535
2397,65535
2457,65535
2458,65535
2401,65535
2337,65535
2336,65535
2399,65535
2398,65535
2402,65535
2333,65535
2273,65535
2219,65535
2218,65535
2159,65535
2454,65535
2393,65535
2512,65535
2502,65535
2608,65535
2156,65535
2155,65535
2154,65535
2213,65535
2212,65535
2211,65535
2210,65535
2264,65535
2324,65535
2323,65535
2030,65535
2094,65535
2157,65535
2450,65535
2388,65535
2387,65535
2326,65535
2266,65535
2265,65535
2508,65535
2396,65535
2335,65535
2334,65535
2158,65535
2279,65535
2278,65535
2222,65535
2221,65535
2276,65535
2275,65535
2261,65535
2207,65535
2149,65535
2554,65535
2599,65535
2633,65535
2664,65535
2689,65535
2690,65535
2691,65535
2692,65535
2152,65535
2089,65535
2088,65535
2025,65535
2603,65535
2602,65535
2556,65535
2693,65535
2671,65535
2670,65535
2694,65535
2553,65535
2665,65535
2705,65535
2710,65535
2668,65535
2639,65535
2463,65535
2521,65535
2572,65535
2451,65535
2390,65535
2391,65535
2392,65535
2215,65535
2268,65535
2093,65535
2092,65535
2028,65535
2024,65535
2150,65535
2086,65535
2209,65535
2023,65535
2087,65535
2148,65535
2262,65535
2327,65535
1560,9570
1630,65535
1631,65535
1559,65535
1629,65535
1558,65535
1634,65535
1633,9599
1482,65535
1481,65535
1699,65535
1700,65535
1701,65535
1563,65535
2070,65535
2008,65535
2009,65535
1959,65535
1958,65535
2006,65535
1957,65535
1956,65535
2193,65535
2132,65535
1912,65535
1911,65535
1865,65535
1866,65535
2007,65535
2069,65535
2010,65535
2011,65535
1961,65535
2072,65535
1913,65535
1867,65535
1962,65535
1914,65535
1915,65535
1909,65535
1636,65535
1635,65535
1564,65535
1702,65535
1637,65535
1638,65535
1565,65535
1486,65535
1760,65535
1704,65535
1703,65535
1763,65535
1762,65535
1817,65535
1705,65535
1863,65535
1815,65535
1759,65535
863,65535
758,65535
808,65535
982,65535
1036,65535
1099,65535
1100,65535
1166,65535
1167,65535
1237,65535
1238,65535
1375,65535
1308,65535
1309,65535
1236,65535
1235,65535
1101,65535
1037,65535
971,65535
1025,65535
1026,65535
1027,65535
1089,65535
720,65535
674,65535
864,65535
865,65535
919,65535
1024,65535
975,65535
974,65535
1028,65535
873,65535
925,65535
924,65535
917,65535
918,65535
623,65535
712,65535
713,65535
667,65535
622,65535
809,65535
719,65535
765,65535
972,65535
868,65535
869,65535
815,65535
920,65535
973,65535
981,65535
926,65535
927,65535
928,65535
1354,65535
1288,65535
1218,65535
1152,65535
1023,65535
1353,65535
1085,65535
1148,65535
1147,65535
1082,65535
772,65535
771,65535
819,65535
584,65535
628,65535
629,65535
1033,65535
978,65535
1031,65535
1030,65535
1029,65535
1091,65535
1035,65535
1034,65535
979,65535
1526,65535
1449,65535
1378,65535
1448,65535
1524,65535
1038,65535
1447,65535
1768,65535
1710,65535
1767,65535
391,8939
365,8972
339,9039
400,9209
393,9024
392,8990
396,9136
399,9229
443,8765
449,9129
450,9163
419,8952
414,8909
415,8873
387,8912
388,8921
389,8883
282,9274
281,9200
314,9123
313,9103
405,9109
411,8675
442,8748
255,9220
376,9193
373,9232
278,9059
275,9110
248,9135
335,9050
334,9027
306,9160
307,9149
176,9254
225,9253
320,9184
249,9319
287,9196
285,9219
776,9140
731,9123
315,9213
316,9228
204,9361
440,9204
439,9203
166,9105
269,8846
383,8590
1247,65535
1246,65535
1384,65535
1679,65535
1178,65535
1105,65535
1172,65535
1173,65535
1242,65535
1241,65535
1314,65535
1313,65535
1171,65535
1382,65535
1243,65535
1317,65535
1107,65535
1108,65535
1109,65535
1041,65535
1043,65535
1042,65535
1044,65535
1176,65535
1174,65535
1177,65535
1110,65535
985,65535
986,65535
932,65535
774,9170
730,9138
825,9192
728,9159
729,9161
727,9091
682,9221
684,9198
685,9107
732,9180
683,9202
2134,65535
2194,65535
2068,65535
2129,65535
1905,65535
1907,65535
1906,65535
1953,65535
2002,65535
2064,65535
2125,65535
2137,65535
2196,65535
2195,65535
1859,65535
1810,65535
1755,65535
2131,65535
2192,65535
1862,65535
1861,65535
1812,65535
1860,65535
1809,65535
1756,65535
1869,65535
1822,65535
1821,65535
1916,65535
1819,65535
1764,65535
1820,65535
1698,65535
1757,65535
1566,65535
1567,9589
1488,9562
1489,65535
1412,65535
1413,65535
1414,65535
1818,65535
1568,65535
1410,9493
2128,65535
2189,65535
2066,65535
2065,65535
2067,65535
1643,65535
1571,65535
1491,65535
2004,65535
2003,65535
1697,65535
2135,65535
2075,65535
1642,65535
1955,65535
2130,65535
2005,65535
1858,65535
1816,65535
1864,65535
1766,65535
1910,65535
1868,65535
2188,65535
2127,65535
1903,65535
2001,65535
2063,65535
2062,65535
1813,65535
1758,65535
1639,65535
1640,65535
1952,65535
2126,65535
1569,65535
1965,65535
1966,65535
2014,65535
1490,65535
1917,65535
1870,65535
1871,65535
1570,65535
1707,65535
2076,65535
2013,65535
1964,65535
1487,9545
1908,65535
2251,65535
2199,65535
2198,65535
2136,65535
1641,65535
1954,65535
1765,65535
1857,65535
2187,65535
1904,65535
1856,65535
1951,65535
1708,65535
245,8910
244,8898
357,8786
246,8935
247,8962
197,9037
223,9015
44,9379
43,9439
3,9575
23,9549
22,9538
63,9321
85,9263
84,9218
108,9184
149,9138
172,9102
296,8766
294,8814
355,0
354,8946
326,9024
295,8923
291,8935
293,9057
260,9077
356,8736
441,8768
412,8741
329,8762
300,8820
148,9280
214,9096
146,9211
110,9463
262,8909
258,9322
292,9085
257,9387
235,9185
187,9264
212,9291
211,9295
186,9376
162,9390
161,9403
165,9158
189,9214
238,9044
237,9009
263,8945
265,9050
266,9070
267,9095
268,9144
26,9539
25,9507
105,65535
62,65535
83,65535
126,9399
175,9320
152,9254
151,9244
150,9203
103,65535
242,9200
191,9370
192,9424
217,9450
218,65535
145,9190
144,9517
167,9132
190,9358
219,65535
159,65535
185,65535
158,65535
188,9247
160,65535
143,65535
122,65535
75,65535
54,65535
198,9448
270,9204
221,9552
301,8861
302,9154
330,9139
331,9107
115,9492
133,9554
139,65535
134,9528
114,9515
48,65535
69,65535
92,9429
164,65535
4,65535
107,9225
129,9310
109,65535
125,65535
124,65535
127,65535
82,65535
67,65535
91,65535
93,65535
137,65535
113,65535
112,65535
136,65535
49,65535
72,65535
71,65535
406,9229
805,65535
858,9586
859,65535
967,65535
1142,65535
1080,65535
1022,65535
1079,9588
968,65535
1206,65535
915,65535
916,65535
914,65535
807,65535
911,65535
1078,9581
1207,65535
1278,65535
1277,65535
1344,65535
1415,65535
1492,65535
1345,65535
1346,65535
1208,65535
1209,65535
1143,65535
1144,65535
1145,65535
1417,65535
1493,65535
1494,65535
1572,65535
1081,65535
970,65535
408,9202
382,9200
437,9195
467,9231
409,9187
403,9174
432,9215
433,9193
404,9191
352,9221
351,9195
349,9183
317,9285
374,9230
346,9237
283,9273
410,9217
438,9200
465,9134
490,9185
491,9202
435,9156
436,9183
379,9274
323,9331
289,9282
377,9179
378,9152
592,9033
593,9073
552,8981
445,8843
424,9206
423,9146
416,8920
361,8978
362,8907
371,9267
372,9249
343,9163
344,9186
286,9212
227,9251
252,9240
284,9235
318,9229
250,9248
312,9047
340,9061
368,9080
369,9114
370,9226
341,9075
367,9113
308,9119
276,9090
277,9087
280,9138
310,9047
338,9016
366,9077
274,9198
305,9277
420,9009
363,8924
418,9016
550,9249
579,9264
576,9218
577,9228
578,9237
520,9223
618,9255
662,9246
619,9261
620,9268
621,9278
665,9297
666,9291
664,9282
580,9289
2260,65535
2257,65535
2206,65535
2146,65535
2314,65535
2313,65535
2312,65535
2373,65535
2256,65535
2205,65535
2434,65535
2435,65535
2375,65535
2376,65535
2433,65535
2491,65535
2490,65535
2492,65535
2546,65535
2597,65535
2596,65535
2544,65535
2145,65535
2082,65535
2020,65535
2494,65535
0,65535
11,65535
1052,65535
1053,65535
941,65535
1740,65535
1796,65535
1615,65535
1681,65535
1545,65535
1797,65535
1544,65535
1741,65535
1795,65535
1617,65535
1546,65535
1616,65535
1683,65535
1467,65535
1547,65535
1465,65535
1387,65535
1388,65535
1464,65535
1462,65535
1461,65535
1542,65535
1463,65535
1682,65535
1543,65535
1618,65535
1742,65535
1460,65535
1248,65535
1850,65535
1801,65535
1803,65535
882,9199
881,9173
938,9198
883,9219
940,65535
1998,65535
1902,65535
1807,65535
1691,65535
1694,65535
1693,65535
1749,65535
1752,65535
1753,65535
1627,65535
1628,65535
1557,65535
1479,9563
1402,9538
1808,65535
1946,65535
1947,65535
1948,65535
1997,65535
1855,65535
1690,65535
2060,65535
1949,65535
1950,65535
1751,65535
1692,65535
1999,65535
1901,65535
1900,65535
1852,65535
1853,65535
1805,65535
1750,65535
1854,65535
1806,65535
1748,65535
2061,65535
2000,65535
1804,65535
1899,65535
2884,65535
2892,65535
2883,65535
2876,65535
2874,65535
2882,65535
2877,65535
2911,65535
2905,65535
2906,65535
2896,65535
2887,65535
2881,65535
2880,65535
2888,65535
2902,65535
2903,65535
2907,65535
2912,65535
2895,65535
2894,65535
2875,65535
2885,65535
2893,65535
2904,65535
2865,65535
2866,65535
2909,65535
2913,65535
2886,65535
2878,65535
2869,65535
2871,65535
2872,65535
2879,65535
2870,65535
1330,65535
1331,9566
1401,9557
1262,9565
1263,9561
1478,9545
1403,9529
1261,65535
1480,65535
1264,9568
1390,65535
1389,65535
1319,65535
1251,65535
1250,65535
1285,65535
1284,65535
1214,65535
1146,65535
1505,65535
1504,65535
1582,65535
1581,65535
1713,65535
1771,65535
1654,65535
1653,65535
1651,65535
2096,65535
2033,65535
1972,65535
1923,65535
1922,65535
1874,65535
1873,65535
1919,65535
1829,65535
1579,65535
1424,65535
1711,65535
1348,65535
1419,65535
1359,65535
1429,65535
1428,65535
1421,65535
1577,65535
1499,65535
1230,65535
1365,65535
1511,65535
1300,65535
1366,65535
1512,65535
1716,65535
1503,65535
1276,65535
1347,65535
1349,65535
1645,65535
1578,65535
1770,65535
1715,65535
1150,65535
1217,65535
1149,65535
1580,65535
1352,65535
1502,65535
1825,65535
1718,65535
1717,65535
1872,65535
1656,65535
1648,65535
1712,65535
1213,65535
1212,65535
1084,65535
1420,65535
1281,65535
1282,65535
1587,65535
1586,65535
1585,65535
1652,65535
1427,65535
1975,65535
1977,65535
1932,65535
1931,65535
1426,65535
1422,65535
1425,65535
1583,65535
1501,65535
1283,65535
1286,65535
1215,65535
1211,65535
1210,65535
1083,65535
1655,65535
2220,65535
1355,65535
1772,65535
1436,65535
1435,65535
1589,65535
1163,65535
1735,65535
1791,65535
1841,65535
1840,65535
1219,65535
1220,65535
1647,65535
1646,65535
1279,65535
1714,65535
1575,65535
1576,65535
1498,65535
1573,65535
1496,65535
1497,65535
2177,65535
2176,65535
2294,65535
2293,65535
2237,65535
2236,65535
2364,65535
2302,65535
2301,65535
2245,65535
2056,65535
2057,65535
2055,65535
2184,65535
2120,65535
2244,65535
2538,65535
2537,65535
2591,65535
1940,65535
1989,65535
1990,65535
2539,65535
2482,65535
2483,65535
2424,65535
2121,65535
2119,65535
2050,65535
2049,65535
2048,65535
2185,65535
2243,65535
2299,65535
2241,65535
2485,65535
2542,65535
2353,65535
2292,65535
2419,65535
2478,65535
2479,65535
2536,65535
2484,65535
2486,65535
2354,65535
2416,65535
2242,65535
2355,65535
2300,65535
1991,65535
1992,65535
2477,65535
2534,65535
2535,65535
2588,65535
2587,65535
2630,65535
2051,65535
2116,65535
2175,65535
2586,65535
2541,65535
2178,65535
2179,65535
2240,65535
2239,65535
2238,65535
2052,65535
2053,65535
1987,65535
1988,65535
1939,65535
2594,65535
2593,65535
2358,65535
2357,65535
2420,65535
2247,65535
2427,65535
2428,65535
2181,65535
2180,65535
2417,65535
2590,65535
2297,65535
2361,65535
2362,65535
2423,65535
2422,65535
2174,65535
2356,65535
1941,65535
2365,65535
2112,65535
2047,65535
2182,65535
2359,65535
2533,65535
2295,65535
2115,65535
2632,65535
2631,65535
2186,65535
2298,65535
2360,65535
2235,65535
2291,65535
2487,65535
2246,65535
2425,65535
2117,65535
2543,65535
1893,65535
2421,65535
2476,65535
2592,65535
604,65535
