middle_point_id,reach_time_minutes
2835,65535
2836,65535
2806,65535
2822,65535
2823,65535
2807,65535
2846,65535
887,433
888,449
1326,815
1185,569
999,620
1057,590
1552,1225
1120,542
1473,1235
944,463
832,430
1257,775
1396,1199
1622,1255
1327,3784
1184,623
1183,814
1324,1111
1255,1191
1394,1367
1252,1007
1253,985
1182,980
1328,65535
1470,1325
1321,1058
1322,1041
1323,2405
1391,1117
1551,1252
1393,1333
1472,1515
1471,1309
1181,2774
1118,1019
1059,512
1121,531
1469,1305
1468,1141
1548,1248
1325,1045
1625,1132
1623,1197
1258,616
1256,851
791,436
891,442
703,435
704,444
660,441
1553,1227
1624,1147
1554,1250
1474,1240
1475,1247
1550,1262
1549,1350
1320,1086
1466,1161
1541,2515
1318,1199
1249,1221
1186,846
1003,516
1002,507
741,358
788,410
434,214
697,383
752,458
1056,631
1006,872
907,725
518,336
1011,883
1000,538
1055,1502
997,1382
994,1288
996,1376
995,1363
991,1332
1112,65535
1114,1334
1051,1315
1398,1692
1395,1290
1001,527
1811,1226
1960,1596
1769,1258
1823,1286
1329,65535
1332,942
1259,955
1200,880
1199,875
1140,1044
1141,1042
783,425
1689,1279
1802,1340
1945,1801
2183,2419
2418,2837
1994,1835
1995,1868
2059,1417
1621,65535
1555,1087
1754,1180
1180,2303
1106,2470
933,2726
827,810
2122,2659
2124,1499
493,307
519,339
544,339
545,341
494,333
470,347
543,345
469,334
517,346
574,361
573,358
495,358
546,347
613,369
612,373
492,334
572,356
571,379
570,884
610,367
575,416
547,378
516,1002
611,414
542,412
569,860
609,343
548,2229
549,2264
1404,924
1405,885
1266,855
1193,887
743,452
742,395
747,444
746,455
745,444
744,404
790,432
789,415
839,418
838,428
738,399
739,398
740,363
890,429
834,430
784,407
889,436
856,867
855,840
854,848
853,756
852,747
910,799
909,770
908,765
964,742
965,818
1020,974
966,801
963,691
1021,1009
1271,881
1270,879
1339,907
1338,927
1071,594
1072,577
1135,845
1408,943
1337,920
1269,914
1268,890
1136,908
1075,935
1077,1038
1076,1004
1019,1001
1018,915
1074,872
1137,924
1272,900
1274,976
1275,1010
1205,1052
1204,1019
1273,947
1198,856
1197,845
1341,1003
1134,830
1133,815
1069,832
1132,821
1073,830
1203,1003
1202,945
1201,918
1139,988
1267,851
1138,955
1340,912
1196,834
1342,989
1409,924
1485,987
1407,975
1561,1029
1632,1052
1484,1033
1483,998
1562,1052
1194,853
1130,852
1195,841
1335,868
1129,872
1066,878
1128,919
1067,865
1131,839
1334,964
1336,914
1265,935
1333,939
1406,943
857,948
803,982
804,2239
860,2247
969,2200
913,2187
912,2125
861,2257
806,2300
659,436
751,448
658,429
705,448
702,436
706,452
753,507
614,401
701,439
661,457
616,464
848,527
796,457
797,468
798,519
750,450
707,457
615,941
748,451
845,492
846,471
657,466
749,466
795,458
617,471
663,506
794,944
847,474
849,580
902,522
901,564
900,559
793,448
899,887
898,866
897,515
844,474
842,461
841,443
956,919
792,441
843,454
840,486
850,613
903,512
800,604
755,893
756,910
710,973
711,1018
962,562
961,555
904,520
906,712
851,710
802,639
801,620
799,578
959,867
1014,586
1013,873
708,1794
709,1822
754,564
757,971
1017,903
1016,898
960,547
905,936
958,855
957,954
1070,758
1015,568
1012,944
1068,859
1005,860
1004,541
1060,522
1063,886
1065,885
1127,926
1062,876
1124,551
1123,536
1125,581
1188,581
1122,575
1058,528
947,475
946,495
949,464
945,480
948,457
1190,938
1187,913
951,844
895,473
952,882
1009,920
1008,878
1010,888
1007,892
1061,852
954,929
896,464
953,546
1126,878
1064,904
1189,997
955,924
950,857
892,432
786,434
836,430
837,425
787,402
700,467
655,424
654,407
653,348
698,401
699,453
608,304
696,402
656,464
833,435
785,396
835,403
693,419
894,481
893,468
1343,983
1192,981
1191,995
828,565
829,534
780,872
830,859
779,521
782,418
529,352
886,438
596,467
556,441
598,502
597,404
526,509
555,800
525,866
524,883
523,377
688,490
607,352
650,413
651,378
652,924
737,405
694,403
695,412
645,465
646,439
690,422
600,470
599,480
781,411
736,410
558,452
644,515
643,513
648,820
692,419
691,417
513,271
541,440
540,550
568,312
530,447
831,444
559,495
560,889
642,430
557,379
496,343
471,316
444,312
446,279
528,365
527,473
562,935
602,907
734,508
466,314
464,235
463,287
478,382
481,275
480,330
479,360
647,421
488,333
502,378
689,441
533,990
532,936
531,981
601,921
484,349
508,1067
510,372
509,1042
534,1063
482,263
506,984
606,1001
455,410
429,192
456,382
457,362
428,182
458,204
554,762
594,860
640,962
639,930
551,400
681,934
636,928
635,944
590,881
778,595
777,795
485,304
486,293
462,253
563,1089
885,501
943,968
564,451
641,1014
504,505
503,470
501,391
500,446
561,916
254,345
350,285
321,401
319,324
251,365
375,265
347,300
687,518
565,428
539,378
511,350
536,391
649,837
603,853
605,1412
733,552
735,436
489,277
514,569
461,1090
460,1058
459,247
468,281
154,1298
178,1260
203,1231
228,1150
402,317
401,338
505,1046
522,894
451,192
452,997
477,936
476,955
483,1066
884,893
431,231
430,274
454,1001
595,997
395,38
394,83
422,119
417,240
390,203
538,999
567,1113
426,319
397,88
398,105
499,1065
475,1149
497,991
498,1007
311,67
342,188
345,234
421,276
515,1131
472,1116
448,1141
473,1167
474,1211
353,343
381,298
256,476
290,451
324,369
380,331
407,269
253,1119
226,1168
201,1181
177,1244
824,956
775,897
826,829
939,907
936,1318
937,973
880,900
566,974
2821,65535
2834,65535
2833,65535
2789,65535
2790,65535
2770,65535
2788,65535
2776,65535
2795,65535
2775,65535
2794,65535
2825,65535
2824,65535
2826,65535
2811,65535
2812,65535
2796,65535
2827,65535
2858,65535
2855,65535
2849,65535
2838,65535
2814,65535
2813,65535
2828,65535
2839,65535
2791,65535
2792,65535
2803,65535
2830,65535
2815,65535
2819,65535
2818,65535
2817,65535
2831,65535
2810,65535
2829,65535
2783,65535
2820,65535
2804,65535
2785,65535
2784,65535
2762,65535
2768,65535
2751,65535
2750,65535
2733,65535
2769,65535
2720,65535
2761,65535
2741,65535
2837,65535
2793,65535
2808,65535
2753,65535
2736,65535
2735,65535
2809,65535
2772,65535
2845,65535
2844,65535
2848,65535
2777,65535
2778,65535
2779,65535
2759,65535
2780,65535
2797,65535
2843,65535
2832,65535
2842,65535
2758,65535
2738,65535
2774,65535
2773,65535
2771,65535
2851,65535
2847,65535
2854,65535
2721,65535
2756,65535
2737,65535
2840,65535
2752,65535
2754,65535
2755,65535
2852,65535
2853,65535
2856,65535
2841,65535
2742,65535
2727,65535
2744,65535
2726,65535
2743,65535
2725,65535
2746,65535
2787,65535
2766,65535
2763,65535
2765,65535
2745,65535
2764,65535
2552,65535
2501,65535
2443,65535
2442,65535
2320,65535
2381,65535
2382,65535
2498,65535
2499,65535
2438,65535
2439,65535
2497,65535
2441,65535
2379,65535
2380,65535
2319,65535
2551,65535
2550,65535
2563,65535
2321,65535
2322,65535
2383,65535
2384,65535
2446,65535
2445,65535
2503,65535
2385,65535
2504,65535
2505,65535
2557,65535
2558,65535
2559,65535
2560,65535
2564,65535
2562,65535
2561,65535
2605,65535
2609,65535
2565,65535
2566,65535
2515,4756
2397,4519
2457,4736
2458,4720
2401,65535
2337,4432
2336,4436
2399,4478
2398,4499
2402,65535
2333,4656
2273,4691
2219,4715
2218,4727
2159,4752
2454,65535
2393,65535
2512,65535
2502,65535
2608,65535
2156,65535
2155,65535
2154,65535
2213,65535
2212,65535
2211,65535
2210,65535
2264,65535
2324,65535
2323,65535
2030,65535
2094,65535
2157,65535
2450,65535
2388,65535
2387,65535
2326,65535
2266,65535
2265,65535
2508,65535
2396,4588
2335,4606
2334,4617
2158,4777
2279,65535
2278,65535
2222,65535
2221,65535
2276,65535
2275,3804
2261,65535
2207,65535
2149,65535
2554,65535
2599,65535
2633,65535
2664,65535
2689,65535
2690,65535
2691,65535
2692,65535
2152,65535
2089,65535
2088,65535
2025,65535
2603,65535
2602,65535
2556,65535
2693,65535
2671,65535
2670,65535
2694,65535
2553,65535
2665,65535
2705,65535
2710,65535
2668,65535
2639,65535
2463,65535
2521,65535
2572,65535
2451,65535
2390,65535
2391,65535
2392,65535
2215,65535
2268,65535
2093,65535
2092,65535
2028,65535
2024,65535
2150,65535
2086,65535
2209,65535
2023,65535
2087,65535
2148,65535
2262,65535
2327,65535
1560,1028
1630,1034
1631,1047
1559,1032
1629,1078
1558,993
1634,1170
1633,1064
1482,982
1481,1021
1699,1095
1700,1071
1701,1160
1563,1112
2070,1618
2008,1614
2009,1614
1959,1602
1958,1601
2006,1584
1957,1567
1956,1464
2193,1762
2132,1701
1912,1608
1911,1614
1865,1444
1866,1527
2007,1648
2069,1654
2010,1626
2011,1669
1961,1573
2072,1669
1913,1586
1867,1579
1962,1564
1914,1539
1915,1534
1909,1574
1636,1116
1635,1180
1564,1138
1702,1189
1637,1139
1638,1135
1565,1082
1486,1064
1760,1363
1704,1300
1703,1126
1763,1292
1762,1168
1817,1207
1705,1227
1863,1444
1815,1411
1759,1366
863,2768
758,2861
808,2812
982,2983
1036,2990
1099,3025
1100,3053
1166,3454
1167,3949
1237,3606
1238,3641
1375,3711
1308,3780
1309,3689
1236,3907
1235,3541
1101,3084
1037,3021
971,2564
1025,2547
1026,2562
1027,2575
1089,2588
720,2824
674,2870
864,2650
865,2671
919,2566
1024,2511
975,2685
974,2655
1028,2610
873,3010
925,2956
924,2933
917,2630
918,2606
623,3045
712,2917
713,2950
667,2955
622,3013
809,2798
719,2798
765,2759
972,2596
868,2708
869,2720
815,2739
920,2975
973,2641
981,2934
926,3035
927,3043
928,3067
1354,2560
1288,2501
1218,2477
1152,2546
1023,2475
1353,2574
1085,2455
1148,2385
1147,2378
1082,2329
772,3096
771,3053
819,3028
584,2944
628,2911
629,2900
1033,2831
978,2786
1031,2759
1030,2713
1029,2696
1091,2673
1035,2912
1034,2855
979,2813
1526,3830
1449,3868
1378,3896
1448,3819
1524,3797
1038,3068
1447,3860
1768,1280
1710,1215
1767,1396
391,230
365,235
339,188
400,167
393,131
392,225
396,71
399,134
443,1111
449,335
450,338
419,251
414,1032
415,338
387,331
388,296
389,228
282,298
281,234
314,205
313,162
405,229
411,1234
442,1193
255,1079
376,328
373,888
278,85
275,159
248,208
335,282
334,287
306,209
307,198
176,1228
225,414
320,944
249,316
287,1156
285,992
776,846
731,859
315,342
316,1011
204,1264
440,354
439,300
166,1425
269,1342
383,1280
1247,65535
1246,65535
1384,65535
1679,65535
1178,3903
1105,2512
1172,2528
1173,2504
1242,3092
1241,2570
1314,3127
1313,3154
1171,2553
1382,4335
1243,2586
1317,4416
1107,2755
1108,3054
1109,3108
1041,2563
1043,3818
1042,3739
1044,4290
1176,3804
1174,4303
1177,3852
1110,3859
985,2632
986,2675
932,2693
774,950
730,873
825,905
728,926
729,896
727,961
682,941
684,978
685,898
732,941
683,2302
2134,2215
2194,2244
2068,1681
2129,1685
1905,1309
1907,1404
1906,1365
1953,1345
2002,1386
2064,1433
2125,1463
2137,2356
2196,2312
2195,2267
1859,1291
1810,1281
1755,1347
2131,1652
2192,1690
1862,1474
1861,1393
1812,1364
1860,1425
1809,1218
1756,1164
1869,1466
1822,1378
1821,1438
1916,1529
1819,1358
1764,1264
1820,1431
1698,1101
1757,1152
1566,1122
1567,1108
1488,1082
1489,1019
1412,999
1413,1005
1414,1009
1818,1378
1568,1074
1410,1010
2128,1676
2189,1721
2066,1539
2065,1523
2067,1638
1643,1207
1571,1145
1491,1098
2004,1501
2003,1459
1697,1205
2135,2237
2075,1678
1642,1184
1955,1442
2130,1788
2005,1526
1858,1295
1816,3688
1864,3681
1766,1452
1910,1614
1868,1472
2188,1801
2127,1771
1903,1379
2001,1469
2063,2262
2062,1430
1813,1376
1758,1314
1639,1310
1640,1141
1952,1388
2126,3770
1569,1084
1965,1633
1966,1679
2014,1784
1490,1037
1917,1656
1870,1454
1871,1468
1570,1184
1707,1404
2076,1698
2013,1634
1964,1586
1487,1041
1908,1835
2251,65535
2199,65535
2198,65535
2136,2260
1641,1237
1954,1523
1765,1425
1857,1342
2187,1885
1904,1357
1856,1365
1951,1355
1708,1412
245,3999
244,3982
357,3986
246,4114
247,4143
197,4237
223,4215
44,4579
43,4639
3,4775
23,4749
22,4738
63,4521
85,4463
84,4418
108,3918
149,3872
172,4263
296,3966
294,4014
355,4114
354,4146
326,4224
295,4123
291,4135
293,4257
260,4143
356,4174
441,3774
412,3797
329,4132
300,4076
148,3846
214,4084
146,3967
110,4048
262,4109
258,4522
292,4285
257,4587
235,4107
187,4007
212,4063
211,4090
186,4011
162,3985
161,4064
165,3963
189,4163
238,4244
237,4209
263,4145
265,4164
266,4142
267,4130
268,3970
26,4739
25,4707
105,65535
62,65535
83,65535
126,4085
175,4520
152,4454
151,4444
150,4403
103,4023
242,3916
191,3870
192,3921
217,3944
218,3997
145,3907
144,3991
167,3899
190,3877
219,4014
159,4111
185,4055
158,4168
188,3999
160,4076
143,65535
122,65535
75,65535
54,65535
198,4648
270,4011
221,4052
301,4109
302,3946
330,3973
331,3995
115,4047
133,4106
139,4003
134,4080
114,4604
48,65535
69,65535
92,4280
164,4073
4,65535
107,4425
129,4510
109,3950
125,3991
124,3965
127,65535
82,65535
67,65535
91,4448
93,4247
137,4382
113,4402
112,4360
136,65535
49,65535
72,65535
71,65535
406,321
805,2290
858,2095
859,2236
967,1972
1142,2109
1080,2115
1022,2106
1079,2124
968,2091
1206,2085
915,2242
916,2277
914,2214
807,2329
911,3436
1078,2192
1207,2184
1278,2228
1277,2231
1344,2251
1415,2292
1492,2347
1345,2308
1346,2278
1208,2176
1209,2256
1143,2293
1144,2309
1145,2324
1417,2304
1493,2364
1494,2383
1572,2398
1081,2261
970,2464
408,326
382,369
437,314
467,357
409,341
403,294
432,292
433,264
404,266
352,1061
351,1087
349,1066
317,412
374,1228
346,1247
283,967
410,353
438,964
465,254
490,283
491,1019
435,274
436,301
379,1595
323,1091
289,1122
377,295
378,240
592,956
593,926
552,860
445,317
424,192
423,128
416,2377
361,270
362,254
371,143
372,1083
343,1109
344,1094
286,1435
227,1143
252,398
284,994
318,1027
250,1078
312,108
340,28
368,0
369,36
370,160
341,111
367,62
308,174
276,139
277,120
280,138
310,162
338,209
366,272
274,998
305,242
420,319
363,314
418,320
550,2281
579,2304
576,2249
577,2261
578,2277
520,2257
618,2271
662,2301
619,2288
620,2301
621,2295
665,2277
666,2269
664,2297
580,2316
2260,65535
2257,65535
2206,65535
2146,65535
2314,65535
2313,65535
2312,65535
2373,65535
2256,65535
2205,65535
2434,65535
2435,65535
2375,65535
2376,65535
2433,65535
2491,65535
2490,65535
2492,65535
2546,65535
2597,65535
2596,65535
2544,65535
2145,65535
2082,65535
2020,65535
2494,65535
0,65535
11,65535
1052,1468
1053,1455
941,1440
1740,2461
1796,2535
1615,2319
1681,2396
1545,2200
1797,2575
1544,2275
1741,2553
1795,2856
1617,2220
1546,2206
1616,2237
1683,2341
1467,1113
1547,1178
1465,2180
1387,2247
1388,1161
1464,2264
1462,3019
1461,3040
1542,2931
1463,2983
1682,2528
1543,2396
1618,2277
1742,2654
1460,2730
1248,2262
1850,1372
1801,2178
1803,1321
882,859
881,868
938,919
883,896
940,2358
1998,1359
1902,1313
1807,1206
1691,1227
1694,1093
1693,1237
1749,1278
1752,1167
1753,1124
1627,1070
1628,1041
1557,1019
1479,971
1402,941
1808,1195
1946,1435
1947,1466
1948,1373
1997,1369
1855,1255
1690,1226
2060,1375
1949,1407
1950,1334
1751,1210
1692,1229
1999,1349
1901,1415
1900,1456
1852,1605
1853,1484
1805,1294
1750,1223
1854,1320
1806,1288
1748,1314
2061,1416
2000,1414
1804,1306
1899,1625
2884,65535
2892,65535
2883,65535
2876,65535
2874,65535
2882,65535
2877,65535
2911,65535
2905,65535
2906,65535
2896,65535
2887,65535
2881,65535
2880,65535
2888,65535
2902,65535
2903,65535
2907,65535
2912,65535
2895,65535
2894,65535
2875,65535
2885,65535
2893,65535
2904,65535
2865,65535
2866,65535
2909,65535
2913,65535
2886,65535
2878,65535
2869,65535
2871,65535
2872,65535
2879,65535
2870,65535
1330,995
1331,955
1401,946
1262,957
1263,949
1478,957
1403,936
1261,966
1480,947
1264,1006
1390,1093
1389,1152
1319,1130
1251,1185
1250,1261
1285,2401
1284,2406
1214,2378
1146,2344
1505,2627
1504,2561
1582,2599
1581,2527
1713,2506
1771,2488
1654,2638
1653,2611
1651,2563
2096,3742
2033,3702
1972,3673
1923,3605
1922,3583
1874,3277
1873,2990
1919,2943
1829,3954
1579,2463
1424,2504
1711,2480
1348,2304
1419,2324
1359,2731
1429,2682
1428,2668
1421,2381
1577,2415
1499,2388
1230,2975
1365,2912
1511,2834
1300,2957
1366,2929
1512,2862
1716,2696
1503,2973
1276,2258
1347,2288
1349,2336
1645,2472
1578,2450
1770,2484
1715,2539
1150,2443
1217,2457
1149,2419
1580,2509
1352,2496
1502,2527
1825,2896
1718,2851
1717,2825
1872,2929
1656,2740
1648,2515
1712,2492
1213,2368
1212,2349
1084,2390
1420,2370
1281,2294
1282,2355
1587,2734
1586,2701
1585,2690
1652,2658
1427,2836
1975,3777
1977,3845
1932,3915
1931,4540
1426,2556
1422,2398
1425,2541
1583,2627
1501,2485
1283,2396
1286,2443
1215,2428
1211,2325
1210,2299
1083,2361
1655,2729
2220,3783
1355,65535
1772,2497
1436,2880
1435,2870
1589,2803
1163,3008
1735,4128
1791,4061
1841,4038
1840,3994
1219,2560
1220,2599
1647,2501
1646,2493
1279,2246
1714,2516
1575,2475
1576,2437
1498,2445
1573,2487
1496,2505
1497,2476
2177,2762
2176,2827
2294,2887
2293,2908
2237,2868
2236,2890
2364,2738
2302,2668
2301,2649
2245,2604
2056,2477
2057,2641
2055,2472
2184,2811
2120,2734
2244,2431
2538,2939
2537,2919
2591,2956
1940,2780
1989,2764
1990,2720
2539,2962
2482,2968
2483,2937
2424,2932
2121,2913
2119,2449
2050,2859
2049,2881
2048,2943
2185,2806
2243,2444
2299,2669
2241,2669
2485,2899
2542,3011
2353,2954
2292,2930
2419,2828
2478,2836
2479,2853
2536,2880
2484,2954
2486,2847
2354,2878
2416,2970
2242,2491
2355,2845
2300,2798
1991,2803
1992,2544
2477,2879
2534,2914
2535,2870
2588,2935
2587,2950
2630,2990
2051,2626
2116,2594
2175,2878
2586,65535
2541,3082
2178,2728
2179,2699
2240,2699
2239,2770
2238,2825
2052,2670
2053,2765
1987,2848
1988,2768
1939,2774
2594,3084
2593,3056
2358,2726
2357,2769
2420,2879
2247,3061
2427,2832
2428,2890
2181,2489
2180,2541
2417,2858
2590,2935
2297,2702
2361,2926
2362,2870
2423,2905
2422,2764
2174,2971
2356,2835
1941,2802
2365,3147
2112,2899
2047,2965
2182,2501
2359,2692
2533,3211
2295,3051
2115,2637
2632,3061
2631,3000
2186,2768
2298,2529
2360,2584
2235,3661
2291,3674
2487,3070
2246,2989
2425,3126
2117,3087
2543,3097
1893,65535
2421,2972
2476,2886
2592,3071
604,2266
