middle_point_id,reach_time_minutes
2835,65535
2836,65535
2806,65535
2822,65535
2823,65535
2807,65535
2846,65535
887,253
888,253
1326,815
1185,369
999,528
1057,470
1552,1225
1120,358
1473,1235
944,317
832,239
1257,775
1396,1199
1622,1255
1327,3784
1184,360
1183,399
1324,1111
1255,1191
1394,1367
1252,888
1253,861
1182,809
1328,65535
1470,1325
1321,921
1322,1033
1323,2405
1391,979
1551,1252
1393,1333
1472,1515
1471,1309
1181,2774
1118,839
1059,312
1121,326
1469,1305
1468,1022
1548,1248
1325,1045
1625,1132
1623,1197
1258,416
1256,851
791,280
891,310
703,233
704,242
660,238
1553,1227
1624,1147
1554,1250
1474,1240
1475,1247
1550,1262
1549,1350
1320,942
1466,984
1541,2515
1318,986
1249,1070
1186,363
1003,313
1002,309
741,192
788,265
434,66
697,263
752,255
1056,511
1006,363
907,395
518,156
1011,490
1000,333
1055,1502
997,1382
994,1288
996,1376
995,1363
991,1332
1112,65535
1114,1334
1051,1315
1398,1692
1395,1290
1001,319
1811,1075
1960,1195
1769,1184
1823,1203
1329,65535
1332,906
1259,955
1200,490
1199,488
1140,543
1141,562
783,226
1689,1279
1802,1340
1945,1801
2183,2419
2418,2837
1994,1835
1995,1868
2059,1417
1621,65535
1555,1087
1754,1064
1180,2303
1106,2470
933,2726
827,330
2122,2659
2124,1499
493,147
519,159
544,159
545,161
494,153
470,167
543,180
469,152
517,166
574,181
573,178
495,160
546,167
613,189
612,193
492,154
572,212
571,259
570,279
610,247
575,236
547,198
516,184
611,321
542,271
569,239
609,222
548,2229
549,2264
1404,519
1405,492
1266,463
1193,470
743,270
742,229
747,271
746,284
745,284
744,274
790,277
789,269
839,289
838,275
738,223
739,221
740,205
890,287
834,247
784,233
889,262
856,489
855,445
854,430
853,416
852,407
910,458
909,463
908,407
964,402
965,414
1020,432
966,449
963,392
1021,535
1271,491
1270,493
1339,518
1338,575
1071,408
1072,438
1135,479
1408,823
1337,543
1269,503
1268,534
1136,679
1075,813
1077,534
1076,497
1019,478
1018,466
1074,711
1137,696
1272,499
1274,557
1275,889
1205,932
1204,839
1273,526
1198,506
1197,492
1341,524
1134,438
1133,425
1069,427
1132,435
1073,470
1203,569
1202,531
1201,504
1139,820
1267,491
1138,896
1340,830
1196,450
1342,869
1409,896
1485,833
1407,889
1561,844
1632,869
1484,909
1483,804
1562,835
1194,472
1130,451
1195,451
1335,479
1129,464
1066,466
1128,431
1067,472
1131,442
1334,915
1336,503
1265,497
1333,895
1406,543
857,948
803,982
804,2239
860,2247
969,2200
913,2187
912,2125
861,2257
806,2300
659,235
751,248
658,216
705,245
702,236
706,282
753,267
614,221
701,259
661,247
616,248
848,309
796,271
797,286
798,286
750,253
707,286
615,281
748,241
845,314
846,285
657,226
749,254
795,282
617,291
663,296
794,344
847,304
849,330
902,328
901,297
900,309
793,282
899,348
898,326
897,332
844,320
842,298
841,288
956,505
792,278
843,320
840,298
850,337
903,317
800,322
755,353
756,407
710,491
711,1018
962,383
961,377
904,322
906,383
851,387
802,373
801,337
799,299
959,333
1014,386
1013,376
708,432
709,460
754,307
757,431
1017,442
1016,475
960,338
905,336
958,318
957,371
1070,418
1015,368
1012,443
1068,471
1005,320
1004,311
1060,326
1063,406
1065,425
1127,412
1062,378
1124,386
1123,342
1125,389
1188,406
1122,348
1058,316
947,298
946,308
949,286
945,299
948,315
1190,938
1187,393
951,360
895,318
952,374
1009,434
1008,401
1010,481
1007,373
1061,373
954,413
896,335
953,377
1126,449
1064,398
1189,457
955,462
950,338
892,278
786,274
836,277
837,275
787,266
700,286
655,272
654,286
653,232
698,281
699,291
608,168
696,233
656,280
833,245
785,260
835,285
693,251
894,292
893,282
1343,863
1192,981
1191,995
828,324
829,304
780,290
830,317
779,326
782,231
529,210
886,258
596,317
556,322
598,329
597,282
526,204
555,308
525,239
524,255
523,250
688,272
607,175
650,250
651,210
652,209
737,232
694,223
695,248
645,285
646,253
690,245
600,290
599,299
781,245
736,245
558,228
644,289
643,300
648,231
692,239
691,234
513,119
541,193
540,172
568,190
530,228
831,264
559,234
560,225
642,308
557,253
496,281
471,297
444,385
446,332
528,221
527,215
562,177
602,207
734,268
466,129
464,84
463,128
478,241
481,150
480,186
479,217
647,248
488,140
502,229
689,268
533,210
532,187
531,217
601,253
484,168
508,227
510,191
509,205
534,235
482,136
506,217
606,245
455,410
429,98
456,382
457,166
428,129
458,117
554,273
594,369
640,451
639,426
551,251
681,394
636,379
635,369
590,311
778,335
777,342
485,150
486,163
462,131
563,216
885,284
943,968
564,263
641,435
504,258
503,269
501,281
500,337
561,213
254,189
350,93
321,161
319,73
251,118
375,0
347,28
687,475
565,219
539,134
511,176
536,251
649,253
603,370
605,1412
733,287
735,257
489,153
514,153
461,188
460,200
459,174
468,160
154,340
178,295
203,280
228,252
402,29
401,105
505,265
522,294
451,485
452,997
477,247
476,289
483,224
884,893
431,77
430,108
454,1001
595,997
395,300
394,384
422,414
417,958
390,444
538,153
567,179
426,319
397,234
398,199
499,1065
475,1149
497,332
498,314
311,219
342,181
345,141
421,799
515,251
472,1116
448,1141
473,1167
474,1211
353,192
381,164
256,320
290,292
324,219
380,179
407,110
253,190
226,225
201,239
177,277
824,896
775,457
826,349
939,847
936,1318
937,913
880,401
566,197
2821,65535
2834,65535
2833,65535
2789,65535
2790,65535
2770,65535
2788,65535
2776,65535
2795,65535
2775,65535
2794,65535
2825,65535
2824,65535
2826,65535
2811,65535
2812,65535
2796,65535
2827,65535
2858,65535
2855,65535
2849,65535
2838,65535
2814,65535
2813,65535
2828,65535
2839,65535
2791,65535
2792,65535
2803,65535
2830,65535
2815,65535
2819,65535
2818,65535
2817,65535
2831,65535
2810,65535
2829,65535
2783,65535
2820,65535
2804,65535
2785,65535
2784,65535
2762,65535
2768,65535
2751,65535
2750,65535
2733,65535
2769,65535
2720,65535
2761,65535
2741,65535
2837,65535
2793,65535
2808,65535
2753,65535
2736,65535
2735,65535
2809,65535
2772,65535
2845,65535
2844,65535
2848,65535
2777,65535
2778,65535
2779,65535
2759,65535
2780,65535
2797,65535
2843,65535
2832,65535
2842,65535
2758,65535
2738,65535
2774,65535
2773,65535
2771,65535
2851,65535
2847,65535
2854,65535
2721,65535
2756,65535
2737,65535
2840,65535
2752,65535
2754,65535
2755,65535
2852,65535
2853,65535
2856,65535
2841,65535
2742,65535
2727,65535
2744,65535
2726,65535
2743,65535
2725,65535
2746,65535
2787,65535
2766,65535
2763,65535
2765,65535
2745,65535
2764,65535
2552,65535
2501,65535
2443,65535
2442,65535
2320,65535
2381,65535
2382,65535
2498,65535
2499,65535
2438,65535
2439,65535
2497,65535
2441,65535
2379,65535
2380,65535
2319,65535
2551,65535
2550,65535
2563,65535
2321,65535
2322,65535
2383,65535
2384,65535
2446,65535
2445,65535
2503,65535
2385,65535
2504,65535
2505,65535
2557,65535
2558,65535
2559,65535
2560,65535
2564,65535
2562,65535
2561,65535
2605,65535
2609,65535
2565,65535
2566,65535
2515,4756
2397,4519
2457,4736
2458,4720
2401,65535
2337,4432
2336,4436
2399,4478
2398,4499
2402,65535
2333,4656
2273,4691
2219,4715
2218,4727
2159,4752
2454,65535
2393,65535
2512,65535
2502,65535
2608,65535
2156,65535
2155,65535
2154,65535
2213,65535
2212,65535
2211,65535
2210,65535
2264,65535
2324,65535
2323,65535
2030,65535
2094,65535
2157,65535
2450,65535
2388,65535
2387,65535
2326,65535
2266,65535
2265,65535
2508,65535
2396,4588
2335,4606
2334,4617
2158,4777
2279,3866
2278,3830
2222,3799
2221,3781
2276,3763
2275,1885
2261,65535
2207,65535
2149,65535
2554,65535
2599,65535
2633,65535
2664,65535
2689,65535
2690,65535
2691,65535
2692,65535
2152,65535
2089,65535
2088,65535
2025,65535
2603,65535
2602,65535
2556,65535
2693,65535
2671,65535
2670,65535
2694,65535
2553,65535
2665,65535
2705,65535
2710,65535
2668,65535
2639,65535
2463,65535
2521,65535
2572,65535
2451,65535
2390,65535
2391,65535
2392,65535
2215,65535
2268,65535
2093,65535
2092,65535
2028,65535
2024,65535
2150,65535
2086,65535
2209,65535
2023,65535
2087,65535
2148,65535
2262,65535
2327,65535
1560,830
1630,914
1631,876
1559,912
1629,971
1558,968
1634,899
1633,869
1482,808
1481,822
1699,912
1700,891
1701,905
1563,893
2070,1258
2008,1215
2009,1202
1959,1168
1958,1172
2006,1211
1957,1207
1956,1232
2193,1506
2132,1446
1912,1211
1911,1131
1865,1087
1866,1179
2007,1268
2069,1281
2010,1233
2011,1320
1961,1209
2072,1257
1913,1420
1867,1230
1962,1248
1914,1257
1915,1282
1909,1214
1636,937
1635,925
1564,906
1702,935
1637,941
1638,1042
1565,916
1486,906
1760,958
1704,955
1703,942
1763,1035
1762,1009
1817,1047
1705,1102
1863,1039
1815,1006
1759,985
863,1585
758,1673
808,1629
982,1717
1036,1789
1099,2433
1100,1852
1166,2014
1167,2509
1237,2166
1238,2201
1375,2271
1308,2340
1309,2249
1236,2467
1235,2101
1101,1880
1037,1822
971,1292
1025,1282
1026,1265
1027,1285
1089,1250
720,1630
674,1676
864,1554
865,1529
919,1306
1024,1255
975,1419
974,1357
1028,1353
873,1570
925,1516
924,1493
917,1370
918,1346
623,1845
712,1720
713,1754
667,1759
622,1815
809,1615
719,1602
765,1559
972,1306
868,1506
869,1518
815,1539
920,1414
973,1321
981,1686
926,1595
927,1603
928,1627
1354,1137
1288,1161
1218,1226
1152,1202
1023,1209
1353,1122
1085,1167
1148,1120
1147,1113
1082,1090
772,1656
771,1613
819,1588
584,1750
628,1717
629,1744
1033,1631
978,1588
1031,1561
1030,1514
1029,1496
1091,1473
1035,1715
1034,1655
979,1615
1526,2390
1449,2428
1378,2456
1448,2379
1524,2357
1038,1864
1447,2420
1768,1190
1710,1148
1767,1163
391,422
365,370
339,262
400,146
393,431
392,810
396,273
399,166
443,1111
449,895
450,865
419,962
414,1032
415,963
387,955
388,926
389,879
282,206
281,207
314,272
313,259
405,109
411,1234
442,1193
255,299
376,91
373,178
278,249
275,328
248,375
335,439
334,413
306,385
307,362
176,355
225,161
320,136
249,221
287,218
285,100
776,368
731,379
315,176
316,157
204,375
440,203
439,210
166,1425
269,1342
383,1280
1247,65535
1246,65535
1384,65535
1679,65535
1178,3903
1105,2512
1172,2528
1173,2504
1242,3092
1241,2570
1314,3127
1313,3154
1171,2553
1382,4335
1243,2586
1317,4416
1107,2755
1108,3054
1109,3108
1041,2563
1043,3818
1042,3739
1044,4290
1176,3804
1174,4303
1177,3852
1110,3859
985,2632
986,2675
932,2693
774,890
730,387
825,435
728,868
729,486
727,421
682,526
684,978
685,418
732,844
683,2302
2134,1603
2194,1593
2068,1344
2129,1398
1905,1215
1907,1160
1906,1154
1953,1345
2002,1386
2064,1433
2125,1463
2137,1827
2196,1780
2195,1737
1859,1096
1810,1149
1755,1081
2131,1264
2192,1300
1862,1176
1861,1075
1812,1046
1860,1115
1809,1102
1756,1042
1869,1236
1822,1205
1821,1221
1916,1275
1819,1113
1764,1092
1820,1195
1698,919
1757,1010
1566,1005
1567,978
1488,953
1489,1016
1412,927
1413,939
1414,880
1818,1132
1568,1074
1410,889
2128,1422
2189,1481
2066,1416
2065,1472
2067,1395
1643,1108
1571,1058
1491,1022
2004,1501
2003,1459
1697,961
2135,1598
2075,1445
1642,1084
1955,1203
2130,1477
2005,1301
1858,1230
1816,3688
1864,3681
1766,1157
1910,1400
1868,1227
2188,1626
2127,1597
1903,1379
2001,1469
2063,2262
2062,1430
1813,996
1758,1074
1639,1048
1640,1090
1952,1388
2126,3770
1569,1084
1965,1302
1966,1348
2014,1368
1490,980
1917,1261
1870,1250
1871,1264
1570,1043
1707,1098
2076,1435
2013,1400
1964,1354
1487,910
1908,1456
2251,65535
2199,65535
2198,65535
2136,1585
1641,1105
1954,1303
1765,1176
1857,1199
2187,1885
1904,1357
1856,1365
1951,1355
1708,1308
245,3999
244,3982
357,3986
246,4114
247,4143
197,4237
223,4215
44,4579
43,4639
3,4775
23,4749
22,4738
63,4521
85,4463
84,4418
108,3918
149,3872
172,4263
296,3966
294,4014
355,4114
354,4146
326,4224
295,4123
291,4135
293,4257
260,4143
356,4174
441,3774
412,3797
329,4132
300,4076
148,3846
214,4084
146,3967
110,4048
262,4109
258,4522
292,4285
257,4587
235,4107
187,4007
212,4063
211,4090
186,4011
162,3985
161,4064
165,3963
189,4163
238,4244
237,4209
263,4145
265,4164
266,4142
267,4130
268,3970
26,4739
25,4707
105,65535
62,65535
83,65535
126,4085
175,4520
152,4454
151,4444
150,4403
103,4023
242,3916
191,3870
192,3921
217,3944
218,3997
145,3907
144,3991
167,3899
190,3877
219,4014
159,4111
185,4055
158,4168
188,3999
160,4076
143,65535
122,65535
75,65535
54,65535
198,4648
270,4011
221,4052
301,4109
302,3946
330,3973
331,3995
115,4047
133,4106
139,4003
134,4080
114,4604
48,65535
69,65535
92,4280
164,4073
4,65535
107,4425
129,4510
109,3950
125,3991
124,3965
127,65535
82,65535
67,65535
91,4448
93,4247
137,4382
113,4402
112,4360
136,65535
49,65535
72,65535
71,65535
406,148
805,2290
858,2095
859,2236
967,594
1142,729
1080,1935
1022,1976
1079,1968
968,2091
1206,686
915,2242
916,2277
914,2214
807,2329
911,3436
1078,2192
1207,790
1278,815
1277,813
1344,854
1415,1032
1492,1087
1345,894
1346,859
1208,796
1209,996
1143,1033
1144,1049
1145,1079
1417,995
1493,1105
1494,1123
1572,1139
1081,2261
970,2464
408,144
382,180
437,127
467,177
409,197
403,49
432,144
433,114
404,153
352,161
351,128
349,62
317,268
374,128
346,200
283,179
410,192
438,182
465,104
490,153
491,172
435,123
436,114
379,1595
323,196
289,214
377,110
378,121
592,956
593,926
552,281
445,919
424,1153
423,968
416,2377
361,968
362,969
371,221
372,203
343,1109
344,1094
286,1435
227,1058
252,145
284,140
318,170
250,240
312,228
340,224
368,320
369,294
370,1117
341,203
367,294
308,299
276,288
277,268
280,258
310,226
338,345
366,1068
274,998
305,1182
420,1002
363,1031
418,1039
550,2281
579,2304
576,2249
577,2261
578,2277
520,2257
618,2271
662,2301
619,2288
620,2301
621,2295
665,2277
666,2269
664,2297
580,2316
2260,65535
2257,65535
2206,65535
2146,65535
2314,65535
2313,65535
2312,65535
2373,65535
2256,65535
2205,65535
2434,65535
2435,65535
2375,65535
2376,65535
2433,65535
2491,65535
2490,65535
2492,65535
2546,65535
2597,65535
2596,65535
2544,65535
2145,65535
2082,65535
2020,65535
2494,65535
0,65535
11,65535
1052,1468
1053,1455
941,1440
1740,2461
1796,2535
1615,2319
1681,2396
1545,2200
1797,2575
1544,2275
1741,2553
1795,2856
1617,2220
1546,2206
1616,2237
1683,2341
1467,994
1547,1089
1465,2180
1387,2247
1388,1021
1464,2264
1462,3019
1461,3040
1542,2931
1463,2983
1682,2528
1543,2396
1618,2277
1742,2654
1460,2730
1248,2262
1850,1372
1801,2178
1803,1321
882,344
881,359
938,858
883,339
940,2358
1998,1359
1902,1313
1807,1206
1691,1227
1694,1093
1693,1237
1749,1278
1752,1167
1753,1124
1627,1007
1628,1041
1557,970
1479,928
1402,900
1808,1195
1946,1435
1947,1466
1948,1373
1997,1369
1855,1255
1690,1226
2060,1375
1949,1407
1950,1334
1751,1210
1692,1229
1999,1349
1901,1415
1900,1456
1852,1605
1853,1484
1805,1294
1750,1223
1854,1320
1806,1288
1748,1314
2061,1416
2000,1414
1804,1306
1899,1625
2884,65535
2892,65535
2883,65535
2876,65535
2874,65535
2882,65535
2877,65535
2911,65535
2905,65535
2906,65535
2896,65535
2887,65535
2881,65535
2880,65535
2888,65535
2902,65535
2903,65535
2907,65535
2912,65535
2895,65535
2894,65535
2875,65535
2885,65535
2893,65535
2904,65535
2865,65535
2866,65535
2909,65535
2913,65535
2886,65535
2878,65535
2869,65535
2871,65535
2872,65535
2879,65535
2870,65535
1330,935
1331,920
1401,905
1262,957
1263,949
1478,906
1403,890
1261,966
1480,947
1264,1006
1390,959
1389,960
1319,951
1251,1017
1250,1092
1285,1110
1284,1126
1214,1118
1146,1097
1505,1187
1504,1175
1582,1159
1581,1124
1713,1096
1771,1071
1654,1280
1653,1255
1651,1155
2096,1813
2033,1796
1972,1765
1923,1713
1922,1693
1874,1644
1873,1608
1919,1504
1829,2514
1579,1023
1424,1087
1711,1057
1348,899
1419,1050
1359,1291
1429,1242
1428,1228
1421,946
1577,984
1499,956
1230,1645
1365,1581
1511,1504
1300,1627
1366,1598
1512,1531
1716,1336
1503,1211
1276,1478
1347,1046
1349,1032
1645,1032
1578,1010
1770,1063
1715,1129
1150,1264
1217,1258
1149,1241
1580,1069
1352,1161
1502,1105
1825,1455
1718,1409
1717,1384
1872,1492
1656,1395
1648,1135
1712,1077
1213,1140
1212,1181
1084,1190
1420,930
1281,1096
1282,1216
1587,1236
1586,1205
1585,1195
1652,1179
1427,1231
1975,2337
1977,2405
1932,2475
1931,3100
1426,1239
1422,975
1425,1226
1583,1248
1501,1107
1283,1103
1286,1140
1215,1248
1211,1142
1210,1151
1083,1161
1655,1318
2220,1864
1355,1372
1772,1124
1436,1547
1435,1538
1589,1473
1163,2459
1735,2688
1791,2621
1841,2598
1840,2554
1219,1277
1220,1319
1647,1098
1646,1107
1279,879
1714,1106
1575,1035
1576,997
1498,1005
1573,1110
1496,1065
1497,1036
2177,2762
2176,2827
2294,2887
2293,2908
2237,2868
2236,2890
2364,2738
2302,2668
2301,2649
2245,2604
2056,2477
2057,2641
2055,2472
2184,2811
2120,2734
2244,2431
2538,2939
2537,2919
2591,2956
1940,2780
1989,2764
1990,2720
2539,2962
2482,2968
2483,2937
2424,2932
2121,2913
2119,2449
2050,2859
2049,2881
2048,2943
2185,2806
2243,2444
2299,2669
2241,2669
2485,2899
2542,3011
2353,2954
2292,2930
2419,2828
2478,2836
2479,2853
2536,2880
2484,2954
2486,2847
2354,2878
2416,2970
2242,2491
2355,2845
2300,2798
1991,2803
1992,2544
2477,2879
2534,2914
2535,2870
2588,2935
2587,2950
2630,2990
2051,2626
2116,2594
2175,2878
2586,65535
2541,3082
2178,2728
2179,2699
2240,2699
2239,2770
2238,2825
2052,2670
2053,2765
1987,2848
1988,2768
1939,2774
2594,3084
2593,3056
2358,2726
2357,2769
2420,2879
2247,3061
2427,2832
2428,2890
2181,2489
2180,2541
2417,2858
2590,2935
2297,2702
2361,2926
2362,2870
2423,2905
2422,2764
2174,2971
2356,2835
1941,2802
2365,3147
2112,2899
2047,2965
2182,2501
2359,2692
2533,3211
2295,3051
2115,2637
2632,3061
2631,3000
2186,2768
2298,2529
2360,2584
2235,3661
2291,3674
2487,3070
2246,2989
2425,3126
2117,3087
2543,3097
1893,65535
2421,2972
2476,2886
2592,3071
604,2266
