middle_point_id,reach_time_minutes
2835,65535
2836,65535
2806,65535
2822,65535
2823,65535
2807,65535
2846,65535
887,257
888,252
1326,781
1185,369
999,498
1057,437
1552,933
1120,358
1473,906
944,438
832,248
1257,496
1396,823
1622,955
1327,904
1184,360
1183,399
1324,874
1255,924
1394,945
1252,1187
1253,1156
1182,1141
1328,65535
1470,1020
1321,1194
1322,1135
1323,1085
1391,1207
1551,952
1393,1060
1472,958
1471,997
1181,1454
1118,1199
1059,308
1121,326
1469,1081
1468,1300
1548,1065
1325,835
1625,1012
1623,946
1258,416
1256,851
791,254
891,251
703,233
704,242
660,238
1553,929
1624,969
1554,954
1474,940
1475,947
1550,962
1549,1014
1320,1252
1466,1304
1541,1720
1318,1366
1249,1389
1186,366
1003,300
1002,302
741,192
788,226
434,83
697,213
752,255
1056,481
1006,285
907,405
518,157
1011,423
1000,333
1055,1622
997,1591
994,1485
996,1557
995,1541
991,1332
1112,3965
1114,1572
1051,1535
1398,972
1395,855
1001,309
1811,908
1960,1063
1769,1184
1823,1193
1329,65535
1332,787
1259,1736
1200,510
1199,508
1140,543
1141,772
783,253
1689,992
1802,1100
1945,1436
2183,1918
2418,2367
1994,1472
1995,1868
2059,1297
1621,65535
1555,967
1754,1064
1180,2303
1106,2565
933,2726
827,368
2122,2333
2124,1136
493,150
519,160
544,160
545,162
494,161
470,160
543,164
469,154
517,147
574,174
573,171
495,179
546,168
613,188
612,192
492,134
572,176
571,191
570,201
610,202
575,206
547,198
516,133
611,201
542,175
569,218
609,198
548,230
549,259
1404,486
1405,460
1266,435
1193,478
743,221
742,209
747,257
746,252
745,245
744,236
790,250
789,235
839,254
838,234
738,236
739,215
740,203
890,244
834,238
784,227
889,257
856,552
855,489
854,495
853,430
852,416
910,480
909,466
908,418
964,412
965,466
1020,863
966,490
963,422
1021,535
1271,511
1270,511
1339,518
1338,730
1071,438
1072,432
1135,479
1408,741
1337,613
1269,548
1268,604
1136,769
1075,778
1077,534
1076,496
1019,492
1018,466
1074,759
1137,804
1272,723
1274,817
1275,890
1205,877
1204,899
1273,753
1198,569
1197,400
1341,780
1134,424
1133,403
1069,394
1132,374
1073,470
1203,839
1202,825
1201,766
1139,822
1267,420
1138,832
1340,830
1196,383
1342,796
1409,896
1485,792
1407,823
1561,777
1632,804
1484,821
1483,735
1562,767
1194,371
1130,360
1195,387
1335,452
1129,355
1066,352
1128,321
1067,409
1131,367
1334,476
1336,434
1265,814
1333,759
1406,466
857,1788
803,3082
804,6559
860,6567
969,6520
913,6507
912,6445
861,6577
806,6620
659,235
751,248
658,216
705,245
702,236
706,272
753,267
614,221
701,251
661,247
616,248
848,309
796,282
797,288
798,286
750,253
707,333
615,281
748,241
845,314
846,313
657,226
749,254
795,281
617,291
663,356
794,317
847,309
849,330
902,337
901,376
900,353
793,282
899,352
898,310
897,295
844,320
842,273
841,263
956,448
792,260
843,319
840,298
850,337
903,317
800,326
755,355
756,406
710,435
711,1018
962,383
961,377
904,330
906,395
851,391
802,373
801,337
799,303
959,392
1014,409
1013,434
708,432
709,460
754,341
757,431
1017,791
1016,475
960,338
905,396
958,396
957,427
1070,428
1015,392
1012,415
1068,403
1005,295
1004,311
1060,307
1063,288
1065,311
1127,317
1062,318
1124,376
1123,364
1125,327
1188,405
1122,317
1058,316
947,285
946,317
949,271
945,299
948,265
1190,356
1187,393
951,281
895,280
952,307
1009,359
1008,338
1010,429
1007,290
1061,331
954,343
896,275
953,352
1126,320
1064,292
1189,352
955,720
950,267
892,234
786,223
836,229
837,230
787,219
700,228
655,212
654,226
653,203
698,221
699,231
608,184
696,222
656,220
833,242
785,216
835,228
693,228
894,284
893,245
1343,813
1192,914
1191,875
828,358
829,344
780,290
830,339
779,356
782,249
529,210
886,273
596,279
556,262
598,282
597,277
526,251
555,269
525,274
524,263
523,259
688,272
607,202
650,222
651,215
652,246
737,238
694,207
695,206
645,287
646,283
690,256
600,305
599,299
781,252
736,245
558,214
644,289
643,300
648,231
692,241
691,249
513,134
541,163
540,143
568,190
530,207
831,264
559,234
560,225
642,321
557,231
496,268
471,292
444,385
446,306
528,216
527,224
562,177
602,207
734,268
466,96
464,95
463,126
478,294
481,242
480,274
479,269
647,255
488,137
502,229
689,268
533,183
532,186
531,201
601,217
484,169
508,229
510,190
509,203
534,238
482,265
506,260
606,251
455,305
429,182
456,279
457,259
428,226
458,204
554,272
594,369
640,387
639,870
551,282
681,921
636,912
635,899
590,322
778,365
777,385
485,151
486,163
462,172
563,216
885,284
943,851
564,293
641,359
504,222
503,221
501,281
500,337
561,181
254,204
350,149
321,173
319,190
251,230
375,155
347,181
687,383
565,273
539,160
511,175
536,263
649,253
603,370
605,1406
733,287
735,257
489,94
514,127
461,171
460,201
459,220
468,147
154,325
178,295
203,281
228,249
402,177
401,195
505,205
522,285
451,485
452,844
477,350
476,370
483,296
884,893
431,144
430,159
454,863
595,851
395,358
394,393
422,414
417,337
390,383
538,213
567,258
426,319
397,295
398,291
499,1053
475,994
497,332
498,314
311,248
342,210
345,199
421,442
515,112
472,936
448,967
473,992
474,1037
353,22
381,0
256,120
290,100
324,84
380,49
407,45
253,241
226,267
201,293
177,339
824,896
775,831
826,379
939,847
936,1318
937,913
880,401
566,260
2821,65535
2834,65535
2833,65535
2789,65535
2790,65535
2770,65535
2788,65535
2776,65535
2795,65535
2775,65535
2794,65535
2825,65535
2824,65535
2826,65535
2811,65535
2812,65535
2796,65535
2827,65535
2858,65535
2855,65535
2849,65535
2838,65535
2814,65535
2813,65535
2828,65535
2839,65535
2791,65535
2792,65535
2803,65535
2830,65535
2815,65535
2819,65535
2818,65535
2817,65535
2831,65535
2810,65535
2829,65535
2783,65535
2820,65535
2804,65535
2785,65535
2784,65535
2762,65535
2768,65535
2751,65535
2750,65535
2733,65535
2769,65535
2720,65535
2761,65535
2741,65535
2837,65535
2793,65535
2808,65535
2753,65535
2736,65535
2735,65535
2809,65535
2772,65535
2845,65535
2844,65535
2848,65535
2777,65535
2778,65535
2779,65535
2759,65535
2780,65535
2797,65535
2843,65535
2832,65535
2842,65535
2758,65535
2738,65535
2774,65535
2773,65535
2771,65535
2851,65535
2847,65535
2854,65535
2721,65535
2756,65535
2737,65535
2840,65535
2752,65535
2754,65535
2755,65535
2852,65535
2853,65535
2856,65535
2841,65535
2742,65535
2727,65535
2744,65535
2726,65535
2743,65535
2725,65535
2746,65535
2787,65535
2766,65535
2763,65535
2765,65535
2745,65535
2764,65535
2552,65535
2501,65535
2443,65535
2442,65535
2320,65535
2381,65535
2382,65535
2498,65535
2499,65535
2438,65535
2439,65535
2497,65535
2441,65535
2379,65535
2380,65535
2319,65535
2551,65535
2550,65535
2563,7077
2321,6613
2322,6582
2383,6594
2384,6800
2446,6842
2445,6849
2503,6868
2385,6833
2504,7198
2505,7220
2557,7244
2558,7269
2559,7293
2560,7257
2564,7425
2562,7145
2561,7185
2605,7200
2609,7472
2565,7548
2566,7564
2515,7575
2397,5959
2457,7605
2458,7627
2401,6036
2337,5872
2336,5876
2399,5918
2398,5939
2402,6096
2333,6096
2273,6131
2219,6155
2218,6167
2159,6192
2454,6784
2393,6750
2512,7044
2502,7036
2608,7463
2156,6314
2155,6346
2154,6375
2213,6391
2212,6403
2211,6451
2210,6492
2264,6499
2324,6533
2323,6549
2030,65535
2094,65535
2157,6278
2450,7441
2388,7490
2387,7558
2326,7595
2266,7630
2265,6974
2508,7412
2396,6028
2335,6046
2334,6057
2158,6217
2279,8186
2278,8150
2222,8119
2221,8101
2276,8083
2275,3999
2261,6806
2207,6843
2149,65535
2554,6926
2599,6958
2633,7004
2664,8691
2689,8749
2690,8855
2691,8893
2692,8926
2152,6487
2089,6566
2088,6554
2025,6699
2603,65535
2602,65535
2556,65535
2693,65535
2671,65535
2670,65535
2694,65535
2553,65535
2665,65535
2705,65535
2710,65535
2668,65535
2639,65535
2463,6106
2521,6142
2572,6165
2451,7326
2390,7295
2391,7115
2392,7078
2215,7320
2268,65535
2093,65535
2092,65535
2028,65535
2024,8377
2150,7803
2086,7851
2209,7785
2023,7953
2087,7906
2148,8119
2262,6792
2327,65535
1560,785
1630,841
1631,812
1559,848
1629,971
1558,873
1634,899
1633,802
1482,808
1481,823
1699,819
1700,846
1701,874
1563,867
2070,1078
2008,1074
2009,1074
1959,1054
1958,1112
2006,1151
1957,1146
1956,1126
2193,1267
2132,1209
1912,1092
1911,1045
1865,1087
1866,1179
2007,1147
2069,1182
2010,1091
2011,1140
1961,1106
2072,1129
1913,1179
1867,1230
1962,1140
1914,1166
1915,1282
1909,1214
1636,904
1635,917
1564,906
1702,891
1637,941
1638,1042
1565,916
1486,906
1760,958
1704,955
1703,942
1763,1035
1762,1009
1817,1047
1705,1081
1863,1039
1815,1006
1759,887
863,2768
758,2861
808,2812
982,2983
1036,2990
1099,3025
1100,3053
1166,3454
1167,3949
1237,3606
1238,3641
1375,3711
1308,3780
1309,3689
1236,3907
1235,3541
1101,3084
1037,3021
971,2564
1025,2547
1026,2562
1027,2575
1089,2588
720,2824
674,2870
864,2650
865,2671
919,2566
1024,2511
975,2685
974,2655
1028,2610
873,3010
925,2956
924,2933
917,2630
918,2606
623,3045
712,2917
713,2950
667,2955
622,3013
809,2798
719,2798
765,2759
972,2596
868,2708
869,2720
815,2739
920,2854
973,2641
981,2934
926,3035
927,3043
928,3067
1354,2517
1288,2501
1218,2477
1152,2546
1023,2475
1353,2501
1085,2455
1148,2385
1147,2378
1082,2329
772,3096
771,3053
819,3028
584,2944
628,2911
629,2900
1033,2831
978,2786
1031,2759
1030,2713
1029,2696
1091,2673
1035,2912
1034,2855
979,2813
1526,3830
1449,3868
1378,3896
1448,3819
1524,3797
1038,3068
1447,3860
1768,1190
1710,1148
1767,1163
391,422
365,370
339,322
400,223
393,910
392,894
396,396
399,240
443,991
449,528
450,503
419,879
414,1032
415,939
387,932
388,925
389,870
282,298
281,245
314,272
313,259
405,116
411,1234
442,1193
255,235
376,133
373,224
278,265
275,328
248,375
335,439
334,413
306,385
307,362
176,307
225,275
320,180
249,316
287,191
285,238
776,428
731,439
315,201
316,234
204,312
440,176
439,151
166,1425
269,1342
383,1280
1247,3910
1246,3932
1384,4016
1679,4178
1178,3903
1105,2569
1172,2588
1173,2638
1242,2640
1241,2632
1314,2789
1313,2695
1171,2614
1382,2895
1243,2837
1317,2976
1107,2577
1108,2756
1109,3041
1041,2586
1043,2796
1042,2787
1044,2850
1176,3804
1174,2863
1177,3852
1110,3859
985,2632
986,2675
932,2693
774,890
730,453
825,435
728,868
729,486
727,963
682,526
684,858
685,778
732,840
683,862
2134,1368
2194,1391
2068,1213
2129,1267
1905,972
1907,1012
1906,970
1953,992
2002,1011
2064,1035
2125,1110
2137,1827
2196,1498
2195,1444
1859,955
1810,960
1755,909
2131,1264
2192,1300
1862,1176
1861,1020
1812,993
1860,1037
1809,1102
1756,873
1869,1236
1822,1204
1821,1221
1916,1275
1819,1096
1764,1068
1820,1195
1698,826
1757,860
1566,936
1567,922
1488,908
1489,904
1412,825
1413,831
1414,859
1818,1138
1568,1074
1410,889
2128,1301
2189,1329
2066,1286
2065,1325
2067,1264
1643,1108
1571,1058
1491,964
2004,1296
2003,1065
1697,855
2135,1583
2075,1445
1642,1084
1955,1050
2130,1351
2005,1248
1858,974
1816,8008
1864,8001
1766,1157
1910,1286
1868,1227
2188,1411
2127,1380
1903,1285
2001,1099
2063,1351
2062,1364
1813,996
1758,907
1639,1048
1640,1042
1952,1044
2126,8090
1569,1028
1965,1302
1966,1348
2014,1368
1490,980
1917,1261
1870,1250
1871,1264
1570,999
1707,1098
2076,1435
2013,1400
1964,1354
1487,936
1908,1222
2251,3201
2199,3145
2198,3008
2136,1585
1641,1105
1954,1303
1765,1176
1857,1133
2187,1516
1904,1357
1856,1245
1951,1061
1708,1308
245,8319
244,8302
357,8306
246,8434
247,8463
197,8557
223,8535
44,8899
43,8959
3,9095
23,9069
22,9058
63,8841
85,8783
84,8738
108,8238
149,8192
172,8583
296,8286
294,8334
355,8434
354,8466
326,8544
295,8443
291,8455
293,8577
260,8463
356,8494
441,8094
412,8117
329,8452
300,8396
148,8166
214,8404
146,8287
110,8368
262,8429
258,8842
292,8605
257,8907
235,8427
187,8327
212,8383
211,8410
186,8331
162,8305
161,8384
165,8283
189,8483
238,8564
237,8529
263,8465
265,8484
266,8462
267,8450
268,8290
26,9059
25,9027
105,65535
62,65535
83,65535
126,8405
175,8840
152,8774
151,8764
150,8723
103,8343
242,8236
191,8190
192,8241
217,8264
218,8317
145,8227
144,8311
167,8219
190,8197
219,8334
159,8431
185,8375
158,8488
188,8319
160,8396
143,65535
122,65535
75,65535
54,65535
198,8968
270,8331
221,8372
301,8429
302,8266
330,8293
331,8315
115,8367
133,8426
139,8323
134,8400
114,8924
48,65535
69,65535
92,8600
164,8393
4,65535
107,8745
129,8830
109,8270
125,8311
124,8285
127,65535
82,65535
67,65535
91,8768
93,8567
137,8702
113,8722
112,8680
136,65535
49,65535
72,65535
71,65535
406,80
805,6610
858,6415
859,6556
967,2034
1142,2169
1080,6255
1022,6296
1079,6288
968,6411
1206,2126
915,6562
916,6597
914,6534
807,6649
911,7756
1078,6512
1207,2184
1278,2228
1277,2231
1344,2251
1415,2292
1492,2347
1345,2308
1346,2278
1208,2176
1209,2256
1143,2293
1144,2309
1145,2324
1417,2304
1493,2364
1494,2383
1572,2398
1081,6581
970,6784
408,32
382,42
437,70
467,111
409,30
403,148
432,144
433,114
404,132
352,89
351,107
349,175
317,224
374,176
346,231
283,273
410,134
438,80
465,85
490,101
491,116
435,123
436,90
379,219
323,211
289,178
377,177
378,149
592,866
593,837
552,281
445,376
424,377
423,856
416,930
361,847
362,858
371,338
372,308
343,225
344,218
286,255
227,239
252,276
284,250
318,234
250,256
312,266
340,284
368,342
369,436
370,932
341,873
367,406
308,348
276,327
277,308
280,307
310,274
338,345
366,900
274,890
305,1092
420,879
363,852
418,853
550,6601
579,6624
576,6569
577,6581
578,6597
520,6577
618,6591
662,6621
619,6608
620,6621
621,6615
665,6597
666,6589
664,6617
580,6636
2260,65535
2257,65535
2206,65535
2146,65535
2314,65535
2313,65535
2312,65535
2373,65535
2256,65535
2205,65535
2434,65535
2435,65535
2375,65535
2376,65535
2433,65535
2491,65535
2490,65535
2492,65535
2546,65535
2597,65535
2596,65535
2544,65535
2145,65535
2082,65535
2020,65535
2494,65535
0,65535
11,65535
1052,1588
1053,1575
941,1615
1740,1452
1796,1493
1615,1355
1681,1396
1545,1316
1797,1540
1544,1330
1741,1508
1795,1690
1617,1316
1546,1321
1616,1333
1683,1428
1467,1290
1547,1295
1465,1365
1387,1401
1388,1362
1464,1426
1462,1579
1461,1600
1542,1664
1463,1543
1682,1407
1543,1385
1618,1308
1742,1600
1460,1766
1248,1410
1850,1132
1801,1118
1803,1066
882,379
881,386
938,858
883,824
940,2358
1998,1276
1902,1171
1807,1089
1691,1007
1694,973
1693,1132
1749,1098
1752,1047
1753,1004
1627,950
1628,921
1557,899
1479,793
1402,784
1808,1075
1946,1195
1947,1226
1948,1268
1997,1272
1855,1182
1690,986
2060,1375
1949,1407
1950,1262
1751,1090
1692,1109
1999,1289
1901,1415
1900,1456
1852,1605
1853,1484
1805,1226
1750,1050
1854,1250
1806,1168
1748,1030
2061,1416
2000,1414
1804,1306
1899,1625
2884,65535
2892,65535
2883,65535
2876,65535
2874,65535
2882,65535
2877,65535
2911,65535
2905,65535
2906,65535
2896,65535
2887,65535
2881,65535
2880,65535
2888,65535
2902,65535
2903,65535
2907,65535
2912,65535
2895,65535
2894,65535
2875,65535
2885,65535
2893,65535
2904,65535
2865,65535
2866,65535
2909,65535
2913,65535
2886,65535
2878,65535
2869,65535
2871,65535
2872,65535
2879,65535
2870,65535
1330,886
1331,800
1401,796
1262,805
1263,801
1478,837
1403,762
1261,814
1480,782
1264,831
1390,1273
1389,1318
1319,1295
1251,1382
1250,1468
1285,2420
1284,2406
1214,2378
1146,2342
1505,2627
1504,2561
1582,2599
1581,2527
1713,2506
1771,2488
1654,2638
1653,2611
1651,2563
2096,3742
2033,3702
1972,3673
1923,3605
1922,3583
1874,3277
1873,2990
1919,2943
1829,5654
1579,2463
1424,2467
1711,2480
1348,2304
1419,2324
1359,2731
1429,2682
1428,2668
1421,2381
1577,2415
1499,2388
1230,2975
1365,2912
1511,2834
1300,2957
1366,2929
1512,2862
1716,2696
1503,2749
1276,2258
1347,2288
1349,2336
1645,2472
1578,2450
1770,2484
1715,2539
1150,2443
1217,2457
1149,2419
1580,2509
1352,2496
1502,2527
1825,2896
1718,2851
1717,2825
1872,2929
1656,2740
1648,2515
1712,2492
1213,2368
1212,2349
1084,2390
1420,2370
1281,2294
1282,2355
1587,2734
1586,2701
1585,2690
1652,2658
1427,2836
1975,3777
1977,3845
1932,3915
1931,4540
1426,2556
1422,2398
1425,2541
1583,2627
1501,2485
1283,2396
1286,2443
1215,2428
1211,2325
1210,2299
1083,2361
1655,2729
2220,3977
1355,5411
1772,2497
1436,2880
1435,2870
1589,2803
1163,3008
1735,4128
1791,4061
1841,4038
1840,3994
1219,2560
1220,2599
1647,2501
1646,2493
1279,2246
1714,2516
1575,2475
1576,2437
1498,2445
1573,2487
1496,2505
1497,2476
2177,2485
2176,2555
2294,2472
2293,2591
2237,2532
2236,2561
2364,2333
2302,2273
2301,2195
2245,2097
2056,2227
2057,2313
2055,2206
2184,2258
2120,2264
2244,2178
2538,2518
2537,2499
2591,2615
1940,2390
1989,2398
1990,2334
2539,2518
2482,2509
2483,2471
2424,2367
2121,2325
2119,2138
2050,2447
2049,2525
2048,2943
2185,2291
2243,2017
2299,2231
2241,2180
2485,2549
2542,2604
2353,2563
2292,2470
2419,2357
2478,2404
2479,2439
2536,2466
2484,2510
2486,2503
2354,2402
2416,2579
2242,2225
2355,2440
2300,2238
1991,2338
1992,2345
2477,2395
2534,2416
2535,2531
2588,2436
2587,2450
2630,2501
2051,2259
2116,2153
2175,2588
2586,65535
2541,2671
2178,2460
2179,2263
2240,2210
2239,2434
2238,2504
2052,2390
2053,2356
1987,2630
1988,2478
1939,2502
2594,2621
2593,2606
2358,2324
2357,2334
2420,2390
2247,2386
2427,2476
2428,2498
2181,2057
2180,2106
2417,2384
2590,2596
2297,2219
2361,2411
2362,2294
2423,2382
2422,2347
2174,2818
2356,2445
1941,2379
2365,2510
2112,2823
2047,2965
2182,2196
2359,2273
2533,3211
2295,2536
2115,2226
2632,2656
2631,2595
2186,2443
2298,2305
2360,2329
2235,2781
2291,2794
2487,2725
2246,2318
2425,3126
2117,2450
2543,2678
1893,65535
2421,2482
2476,2400
2592,2654
604,6586
