middle_point_id,reach_time_minutes
2835,65535
2836,65535
2806,65535
2822,65535
2823,65535
2807,65535
2846,65535
887,997
888,1005
1326,1451
1185,1394
999,1370
1057,1365
1552,1653
1120,1349
1473,1603
944,1381
832,991
1257,1439
1396,1528
1622,1675
1327,1458
1184,1378
1183,1383
1324,1511
1255,1444
1394,1569
1252,1667
1253,1636
1182,1621
1328,65535
1470,1737
1321,1674
1322,1641
1323,1685
1391,1687
1551,1672
1393,1660
1472,1918
1471,1713
1181,1934
1118,1679
1059,1315
1121,1338
1469,1763
1468,1780
1548,1784
1325,1525
1625,1732
1623,1666
1258,1440
1256,1514
791,1311
891,1289
703,1349
704,1362
660,1358
1553,1649
1624,1689
1554,1670
1474,1618
1475,1653
1550,1682
1549,1731
1320,1732
1466,1784
1541,2200
1318,1846
1249,1869
1186,1409
1003,1305
1002,1313
741,1040
788,1279
434,864
697,1327
752,1390
1056,1369
1006,1358
907,1521
518,1375
1011,1392
1000,1347
1055,2102
997,2071
994,1965
996,2037
995,2021
991,1812
1112,4445
1114,2052
1051,2015
1398,1692
1395,1590
1001,1328
1811,1807
1960,2027
1769,1947
1823,1957
1329,65535
1332,1542
1259,2216
1200,1497
1199,1495
1140,1596
1141,1597
783,974
1689,1759
1802,1820
1945,2281
2183,3838
2418,4344
1994,2315
1995,2348
2059,1897
1621,65535
1555,1687
1754,1799
1180,2783
1106,3045
933,3206
827,1290
2122,4579
2124,2029
493,1371
519,1391
544,1381
545,1382
494,1381
470,1396
543,1381
469,1364
517,1367
574,1384
573,1391
495,1390
546,1389
613,1372
612,1383
492,1363
572,1386
571,1399
570,1397
610,1372
575,1402
547,1418
516,1358
611,1401
542,1402
569,1379
609,1362
548,1490
549,1519
1404,1497
1405,1488
1266,1441
1193,1425
743,1295
742,1252
747,1325
746,1314
745,1322
744,1320
790,1307
789,1286
839,1339
838,1292
738,974
739,989
740,1009
890,1271
834,983
784,1002
889,995
856,1580
855,1560
854,1568
853,1565
852,1556
910,1552
909,1541
908,1527
964,1513
965,1544
1020,1583
966,1563
963,1489
1021,1609
1271,1495
1270,1493
1339,1507
1338,1520
1071,1494
1072,1518
1135,1490
1408,1552
1337,1478
1269,1465
1268,1459
1136,1543
1075,1534
1077,1588
1076,1546
1019,1542
1018,1515
1074,1592
1137,1584
1272,1500
1274,1576
1275,1610
1205,1652
1204,1619
1273,1547
1198,1511
1197,1486
1341,1602
1134,1449
1133,1445
1069,1416
1132,1424
1073,1550
1203,1603
1202,1545
1201,1518
1139,1588
1267,1451
1138,1610
1340,1513
1196,1440
1342,1589
1409,1561
1485,1568
1407,1565
1561,1598
1632,1624
1484,1609
1483,1559
1562,1590
1194,1414
1130,1409
1195,1423
1335,1468
1129,1398
1066,1390
1128,1399
1067,1399
1131,1404
1334,1564
1336,1463
1265,1437
1333,1539
1406,1485
857,2268
803,3562
804,7039
860,7047
969,7000
913,6987
912,6925
861,7057
806,7100
659,1354
751,1373
658,1365
705,1366
702,1341
706,1383
753,1407
614,1362
701,1337
661,1387
616,1388
848,1441
796,1394
797,1425
798,1426
750,1365
707,1418
615,1421
748,1351
845,1416
846,1406
657,1392
749,1359
795,1379
617,1431
663,1436
794,1344
847,1424
849,1470
902,1438
901,1437
900,1486
793,1334
899,1396
898,1375
897,1345
844,1364
842,1318
841,1312
956,1399
792,1321
843,1340
840,1326
850,1477
903,1433
800,1466
755,1493
756,1543
710,1573
711,1618
962,1463
961,1456
904,1440
906,1519
851,1527
802,1513
801,1469
799,1443
959,1473
1014,1488
1013,1480
708,2203
709,2178
754,1447
757,1571
1017,1524
1016,1574
960,1501
905,1476
958,1518
957,1507
1070,1454
1015,1505
1012,1424
1068,1396
1005,1339
1004,1312
1060,1322
1063,1368
1065,1376
1127,1397
1062,1378
1124,1363
1123,1350
1125,1372
1188,1418
1122,1351
1058,1329
947,1309
946,1284
949,1321
945,1267
948,1295
1190,1418
1187,1391
951,1352
895,1336
952,1351
1009,1382
1008,1367
1010,1385
1007,1358
1061,1327
954,1360
896,1343
953,1353
1126,1406
1064,1366
1189,1477
955,1411
950,1337
892,1315
786,1302
836,1300
837,1295
787,1264
700,1370
655,1371
654,1359
653,1340
698,1334
699,1364
608,1349
696,1266
656,1386
833,978
785,1291
835,1303
693,1017
894,1364
893,1322
1343,1583
1192,1482
1191,1655
828,1045
829,1014
780,1352
830,1339
779,1001
782,969
529,775
886,1001
596,871
556,853
598,842
597,824
526,749
555,817
525,774
524,742
523,700
688,931
607,1329
650,1327
651,1309
652,1330
737,963
694,1277
695,1299
645,914
646,936
690,956
600,905
599,900
781,972
736,960
558,812
644,909
643,1363
648,1292
692,980
691,954
513,1381
541,1393
540,1373
568,1374
530,830
831,1254
559,834
560,1309
642,858
557,799
496,672
471,656
444,598
446,640
528,782
527,779
562,859
602,891
734,969
466,1301
464,886
463,1375
478,894
481,1377
480,1347
479,869
647,944
488,1352
502,829
689,960
533,838
532,825
531,1341
601,1279
484,972
508,1329
510,1331
509,1340
534,1321
482,1392
506,1400
606,1385
455,1376
429,1381
456,1476
457,1431
428,1443
458,1409
554,887
594,793
640,1347
639,1409
551,693
681,767
636,759
635,746
590,707
778,1244
777,1275
485,938
486,926
462,1274
563,1356
885,1316
943,1331
564,1373
641,875
504,824
503,806
501,871
500,926
561,1336
254,1440
350,1392
321,1401
319,1392
251,1455
375,1116
347,1351
687,1368
565,1404
539,1422
511,1374
536,1420
649,1317
603,1335
605,1886
733,1032
735,978
489,1343
514,1360
461,1436
460,1465
459,1441
468,1343
154,1585
178,1566
203,1543
228,1507
402,1051
401,1343
505,1405
522,683
451,1409
452,1403
477,1290
476,1348
483,1546
884,1373
431,975
430,1344
454,1343
595,1331
395,1385
394,985
422,1369
417,662
390,687
538,1427
567,1400
426,1439
397,1438
398,1488
499,1533
475,1474
497,692
498,722
311,934
342,1340
345,1384
421,919
515,1371
472,681
448,712
473,736
474,1517
353,1399
381,1379
256,1521
290,1471
324,1409
380,1426
407,1354
253,1501
226,1528
201,1554
177,1591
824,1376
775,1349
826,1309
939,1387
936,1798
937,1453
880,1380
566,1575
2821,65535
2834,65535
2833,65535
2789,65535
2790,65535
2770,65535
2788,65535
2776,65535
2795,65535
2775,65535
2794,65535
2825,65535
2824,65535
2826,65535
2811,65535
2812,65535
2796,65535
2827,65535
2858,65535
2855,65535
2849,65535
2838,65535
2814,65535
2813,65535
2828,65535
2839,65535
2791,65535
2792,65535
2803,65535
2830,65535
2815,65535
2819,65535
2818,65535
2817,65535
2831,65535
2810,65535
2829,65535
2783,65535
2820,65535
2804,65535
2785,65535
2784,65535
2762,65535
2768,65535
2751,65535
2750,65535
2733,65535
2769,65535
2720,65535
2761,65535
2741,65535
2837,65535
2793,65535
2808,65535
2753,65535
2736,65535
2735,65535
2809,65535
2772,65535
2845,65535
2844,65535
2848,65535
2777,65535
2778,65535
2779,65535
2759,65535
2780,65535
2797,65535
2843,65535
2832,65535
2842,65535
2758,65535
2738,65535
2774,65535
2773,65535
2771,65535
2851,65535
2847,65535
2854,65535
2721,65535
2756,65535
2737,65535
2840,65535
2752,65535
2754,65535
2755,65535
2852,65535
2853,65535
2856,65535
2841,65535
2742,65535
2727,65535
2744,65535
2726,65535
2743,65535
2725,65535
2746,65535
2787,65535
2766,65535
2763,65535
2765,65535
2745,65535
2764,65535
2552,65535
2501,65535
2443,65535
2442,65535
2320,65535
2381,65535
2382,65535
2498,65535
2499,65535
2438,65535
2439,65535
2497,65535
2441,65535
2379,65535
2380,65535
2319,65535
2551,65535
2550,65535
2563,7557
2321,7093
2322,7062
2383,7074
2384,7280
2446,7322
2445,7329
2503,7348
2385,7313
2504,7678
2505,7700
2557,7724
2558,7749
2559,7773
2560,7737
2564,7905
2562,7625
2561,7665
2605,7680
2609,7952
2565,8028
2566,8044
2515,8055
2397,6439
2457,8085
2458,8107
2401,6516
2337,6352
2336,6356
2399,6398
2398,6419
2402,6576
2333,6576
2273,6611
2219,6635
2218,6647
2159,6672
2454,7264
2393,7230
2512,7524
2502,7516
2608,7943
2156,6794
2155,6826
2154,6855
2213,6871
2212,6883
2211,6931
2210,6972
2264,6979
2324,7013
2323,7029
2030,65535
2094,65535
2157,6758
2450,7921
2388,7970
2387,8038
2326,8075
2266,8110
2265,7454
2508,7892
2396,6508
2335,6526
2334,6537
2158,6697
2279,8666
2278,8630
2222,8599
2221,8581
2276,8563
2275,4479
2261,7286
2207,7323
2149,65535
2554,7406
2599,7438
2633,7484
2664,9171
2689,9229
2690,9335
2691,9373
2692,9406
2152,6967
2089,7046
2088,7034
2025,7179
2603,65535
2602,65535
2556,65535
2693,65535
2671,65535
2670,65535
2694,65535
2553,65535
2665,65535
2705,65535
2710,65535
2668,65535
2639,65535
2463,6586
2521,6622
2572,6645
2451,7806
2390,7775
2391,7595
2392,7558
2215,7800
2268,65535
2093,65535
2092,65535
2028,65535
2024,8857
2150,8283
2086,8331
2209,8265
2023,8433
2087,8386
2148,8599
2262,7272
2327,65535
1560,1602
1630,1703
1631,1674
1559,1701
1629,1689
1558,1593
1634,1687
1633,1657
1482,1582
1481,1614
1699,1636
1700,1663
1701,1683
1563,1606
2070,2037
2008,2032
2009,2034
1959,2007
1958,2025
2006,2043
1957,2059
1956,2068
2193,2109
2132,2047
1912,1999
1911,1968
1865,1924
1866,2007
2007,2037
2069,2071
2010,2043
2011,2070
1961,2065
2072,2101
1913,2066
1867,2059
1962,2098
1914,2102
1915,2014
1909,2054
1636,1722
1635,1711
1564,1618
1702,1743
1637,1734
1638,1716
1565,1679
1486,1593
1760,1843
1704,1765
1703,1737
1763,1854
1762,1837
1817,1884
1705,1878
1863,1924
1815,1891
1759,1791
863,3248
758,3341
808,3292
982,3463
1036,3470
1099,3505
1100,3533
1166,3934
1167,4429
1237,4086
1238,4121
1375,4191
1308,4260
1309,4169
1236,4387
1235,4021
1101,3564
1037,3501
971,3044
1025,3027
1026,3042
1027,3055
1089,3068
720,3304
674,3350
864,3130
865,3151
919,3046
1024,2991
975,3165
974,3135
1028,3090
873,3490
925,3436
924,3413
917,3110
918,3086
623,3525
712,3397
713,3430
667,3435
622,3493
809,3278
719,3278
765,3239
972,3076
868,3188
869,3200
815,3219
920,3334
973,3121
981,3414
926,3515
927,3523
928,3547
1354,2997
1288,2981
1218,2957
1152,3026
1023,2955
1353,2981
1085,2935
1148,2865
1147,2858
1082,2809
772,3576
771,3533
819,3508
584,3424
628,3391
629,3380
1033,3311
978,3266
1031,3239
1030,3193
1029,3176
1091,3153
1035,3392
1034,3335
979,3293
1526,4310
1449,4348
1378,4376
1448,4299
1524,4277
1038,3548
1447,4340
1768,1950
1710,1908
1767,1938
391,717
365,781
339,1329
400,1466
393,808
392,773
396,1406
399,1484
443,571
449,815
450,905
419,731
414,627
415,603
387,697
388,684
389,677
282,1500
281,1430
314,1420
313,1376
405,895
411,502
442,554
255,1450
376,1354
373,1373
278,1293
275,1298
248,1386
335,826
334,803
306,892
307,1287
176,1576
225,1514
320,1409
249,1572
287,1412
285,1436
776,1296
731,1316
315,1410
316,1389
204,1584
440,1380
439,1362
166,465
269,382
383,0
1247,4390
1246,4412
1384,4496
1679,4658
1178,4383
1105,3049
1172,3068
1173,3118
1242,3120
1241,3112
1314,3269
1313,3175
1171,3094
1382,3375
1243,3317
1317,3456
1107,3057
1108,3236
1109,3521
1041,3066
1043,3276
1042,3267
1044,3330
1176,4284
1174,3343
1177,4332
1110,4339
985,3112
986,3155
932,3173
774,1370
730,1327
825,1368
728,1359
729,1340
727,781
682,1356
684,1338
685,1348
732,1324
683,1402
2134,2200
2194,2221
2068,2161
2129,2165
1905,1946
1907,1987
1906,1926
1953,1908
2002,1922
2064,1959
2125,1991
2137,2836
2196,2792
2195,2747
1859,1860
1810,1890
1755,1827
2131,2132
2192,2170
1862,1954
1861,1873
1812,1844
1860,1943
1809,1878
1756,1760
1869,1961
1822,1980
1821,1959
1916,2009
1819,1907
1764,1887
1820,1911
1698,1703
1757,1748
1566,1711
1567,1673
1488,1630
1489,1625
1412,1601
1413,1608
1414,1593
1818,1926
1568,1643
1410,1582
2128,2156
2189,2201
2066,2043
2065,2003
2067,2118
1643,1892
1571,1825
1491,1740
2004,2031
2003,1982
1697,1720
2135,2717
2075,2158
1642,1861
1955,2030
2130,2268
2005,2095
1858,1923
1816,8488
1864,8481
1766,1932
1910,2094
1868,1952
2188,2281
2127,2251
1903,1871
2001,1931
2063,1919
2062,1910
1813,1856
1758,1793
1639,1819
1640,1838
1952,1868
2126,8570
1569,1797
1965,2113
1966,2159
2014,2264
1490,1752
1917,2041
1870,2004
1871,2014
1570,1788
1707,1884
2076,2178
2013,2114
1964,2066
1487,1631
1908,2315
2251,3681
2199,3625
2198,3488
2136,2740
1641,1993
1954,2746
1765,1905
1857,1931
2187,2365
1904,1910
1856,1845
1951,1835
1708,2763
245,8799
244,8782
357,8786
246,8914
247,8943
197,9037
223,9015
44,9379
43,9439
3,9575
23,9549
22,9538
63,9321
85,9263
84,9218
108,8718
149,8672
172,9063
296,8766
294,8814
355,8914
354,8946
326,9024
295,8923
291,8935
293,9057
260,8943
356,8974
441,8574
412,8597
329,8932
300,8876
148,8646
214,8884
146,8767
110,8848
262,8909
258,9322
292,9085
257,9387
235,8907
187,8807
212,8863
211,8890
186,8811
162,8785
161,8864
165,8763
189,8963
238,9044
237,9009
263,8945
265,8964
266,8942
267,8930
268,8770
26,9539
25,9507
105,65535
62,65535
83,65535
126,8885
175,9320
152,9254
151,9244
150,9203
103,8823
242,8716
191,8670
192,8721
217,8744
218,8797
145,8707
144,8791
167,8699
190,8677
219,8814
159,8911
185,8855
158,8968
188,8799
160,8876
143,65535
122,65535
75,65535
54,65535
198,9448
270,8811
221,8852
301,8909
302,8746
330,8773
331,8795
115,8847
133,8906
139,8803
134,8880
114,9404
48,65535
69,65535
92,9080
164,8873
4,65535
107,9225
129,9310
109,8750
125,8791
124,8765
127,65535
82,65535
67,65535
91,9248
93,9047
137,9182
113,9202
112,9160
136,65535
49,65535
72,65535
71,65535
406,1425
805,7090
858,6895
859,7036
967,2514
1142,2649
1080,6735
1022,6776
1079,6768
968,6891
1206,2606
915,7042
916,7077
914,7014
807,7129
911,8236
1078,6992
1207,2664
1278,2708
1277,2711
1344,2731
1415,2772
1492,2827
1345,2788
1346,2758
1208,2656
1209,2736
1143,2773
1144,2789
1145,2804
1417,2784
1493,2844
1494,2863
1572,2878
1081,7061
970,7264
408,1373
382,1401
437,943
467,1311
409,1354
403,1309
432,1353
433,1334
404,1323
352,1426
351,1405
349,1366
317,1602
374,1343
346,1389
283,1472
410,1344
438,1335
465,909
490,992
491,1325
435,1356
436,1352
379,1476
323,1547
289,1577
377,1387
378,1360
592,724
593,763
552,711
445,622
424,1634
423,1404
416,678
361,714
362,687
371,1531
372,1503
343,1425
344,1416
286,1803
227,1501
252,1494
284,1447
318,1429
250,1676
312,1346
340,1332
368,1373
369,1418
370,1468
341,1353
367,1323
308,1387
276,1331
277,1311
280,1433
310,1350
338,1305
366,1380
274,1370
305,1572
420,799
363,734
418,800
550,7081
579,7104
576,7049
577,7061
578,7077
520,7057
618,7071
662,7101
619,7088
620,7101
621,7095
665,7077
666,7069
664,7097
580,7116
2260,65535
2257,65535
2206,65535
2146,65535
2314,65535
2313,65535
2312,65535
2373,65535
2256,65535
2205,65535
2434,65535
2435,65535
2375,65535
2376,65535
2433,65535
2491,65535
2490,65535
2492,65535
2546,65535
2597,65535
2596,65535
2544,65535
2145,65535
2082,65535
2020,65535
2494,65535
0,65535
11,65535
1052,2068
1053,2055
941,2095
1740,1932
1796,1973
1615,1835
1681,1876
1545,1796
1797,2020
1544,1810
1741,1988
1795,2170
1617,1810
1546,1801
1616,1813
1683,1908
1467,1770
1547,1796
1465,1845
1387,1881
1388,1842
1464,1906
1462,2059
1461,2080
1542,2144
1463,2023
1682,1887
1543,1865
1618,1870
1742,2080
1460,2246
1248,1890
1850,1834
1801,1833
1803,1801
882,1339
881,1348
938,1399
883,1364
940,2838
1998,1839
1902,1793
1807,1746
1691,1727
1694,1693
1693,1861
1749,1758
1752,1767
1753,1724
1627,1671
1628,1641
1557,1619
1479,1571
1402,1541
1808,1735
1946,1915
1947,1946
1948,1853
1997,1849
1855,1785
1690,1706
2060,1855
1949,1887
1950,1814
1751,1810
1692,1829
1999,1829
1901,1895
1900,1936
1852,2085
1853,1964
1805,1826
1750,1770
1854,1800
1806,1786
1748,1794
2061,1896
2000,1894
1804,1786
1899,2105
2884,65535
2892,65535
2883,65535
2876,65535
2874,65535
2882,65535
2877,65535
2911,65535
2905,65535
2906,65535
2896,65535
2887,65535
2881,65535
2880,65535
2888,65535
2902,65535
2903,65535
2907,65535
2912,65535
2895,65535
2894,65535
2875,65535
2885,65535
2893,65535
2904,65535
2865,65535
2866,65535
2909,65535
2913,65535
2886,65535
2878,65535
2869,65535
2871,65535
2872,65535
2879,65535
2870,65535
1330,1595
1331,1553
1401,1546
1262,1580
1263,1549
1478,1557
1403,1536
1261,1631
1480,1547
1264,1543
1390,1753
1389,1798
1319,1775
1251,1862
1250,1948
1285,2900
1284,2886
1214,2858
1146,2822
1505,3107
1504,3041
1582,3079
1581,3007
1713,2986
1771,2968
1654,3118
1653,3091
1651,3043
2096,4222
2033,4182
1972,4153
1923,4085
1922,4063
1874,3757
1873,3470
1919,3423
1829,6134
1579,2943
1424,2947
1711,2960
1348,2784
1419,2804
1359,3211
1429,3162
1428,3148
1421,2861
1577,2895
1499,2868
1230,3455
1365,3392
1511,3314
1300,3437
1366,3409
1512,3342
1716,3176
1503,3229
1276,2738
1347,2768
1349,2816
1645,2952
1578,2930
1770,2964
1715,3019
1150,2923
1217,2937
1149,2899
1580,2989
1352,2976
1502,3007
1825,3376
1718,3331
1717,3305
1872,3409
1656,3220
1648,2995
1712,2972
1213,2848
1212,2829
1084,2870
1420,2850
1281,2774
1282,2835
1587,3214
1586,3181
1585,3170
1652,3138
1427,3316
1975,4257
1977,4325
1932,4395
1931,5020
1426,3036
1422,2878
1425,3021
1583,3107
1501,2965
1283,2876
1286,2923
1215,2908
1211,2805
1210,2779
1083,2841
1655,3209
2220,4457
1355,5891
1772,2977
1436,3360
1435,3350
1589,3283
1163,3488
1735,4608
1791,4541
1841,4518
1840,4474
1219,3040
1220,3079
1647,2981
1646,2973
1279,2726
1714,2996
1575,2955
1576,2917
1498,2925
1573,2967
1496,2985
1497,2956
2177,4405
2176,4475
2294,4444
2293,4520
2237,4452
2236,4481
2364,4253
2302,4193
2301,4115
2245,4017
2056,4323
2057,4367
2055,4126
2184,4178
2120,4184
2244,4098
2538,4548
2537,4510
2591,4535
1940,4310
1989,4318
1990,4254
2539,4526
2482,4626
2483,4391
2424,4287
2121,4245
2119,4058
2050,4383
2049,4445
2048,4863
2185,4211
2243,3937
2299,4151
2241,4100
2485,4469
2542,4524
2353,4483
2292,4390
2419,4303
2478,4364
2479,4381
2536,4467
2484,4430
2486,4423
2354,4378
2416,4499
2242,4145
2355,4372
2300,4158
1991,4258
1992,4265
2477,4356
2534,4366
2535,4466
2588,4403
2587,4418
2630,4438
2051,4179
2116,4073
2175,4573
2586,65535
2541,4660
2178,4380
2179,4183
2240,4130
2239,4354
2238,4424
2052,4310
2053,4276
1987,4550
1988,4587
1939,4500
2594,4632
2593,4604
2358,4260
2357,4267
2420,4310
2247,4306
2427,4396
2428,4418
2181,3977
2180,4026
2417,4358
2590,4516
2297,4139
2361,4331
2362,4214
2423,4302
2422,4267
2174,4738
2356,4397
1941,4299
2365,4430
2112,4743
2047,4885
2182,4116
2359,4193
2533,5131
2295,4456
2115,4146
2632,4576
2631,4515
2186,4379
2298,4225
2360,4249
2235,4701
2291,4714
2487,4645
2246,4238
2425,5046
2117,4370
2543,4598
1893,65535
2421,4402
2476,4412
2592,4682
604,7066
