middle_point_id,reach_time_minutes
2835,65535
2836,65535
2806,65535
2822,65535
2823,65535
2807,65535
2846,65535
887,615
888,598
1326,760
1185,729
999,770
1057,917
1552,1269
1120,691
1473,1297
944,918
832,581
1257,736
1396,764
1622,1375
1327,904
1184,719
1183,730
1324,871
1255,1404
1394,1272
1252,1574
1253,1600
1182,1605
1328,65535
1470,1363
1321,1554
1322,1495
1323,1445
1391,1567
1551,1278
1393,1336
1472,1284
1471,1327
1181,1934
1118,1619
1059,670
1121,682
1469,1381
1468,1621
1548,1403
1325,805
1625,1091
1623,1257
1258,759
1256,854
791,580
891,609
703,533
704,542
660,538
1553,1287
1624,1213
1554,1374
1474,1300
1475,1381
1550,1349
1549,1412
1320,1566
1466,1603
1541,2200
1318,1679
1249,1701
1186,716
1003,621
1002,662
741,549
788,579
434,386
697,563
752,555
1056,792
1006,610
907,705
518,451
1011,704
1000,693
1055,2102
997,2071
994,1965
996,2037
995,2021
991,1812
1112,4445
1114,2052
1051,2015
1398,1452
1395,1285
1001,669
1811,1239
1960,1484
1769,1511
1823,1524
1329,65535
1332,917
1259,2216
1200,717
1199,715
1140,819
1141,817
783,567
1689,1348
1802,1377
1945,1916
2183,2398
2418,2847
1994,1952
1995,2348
2059,1477
1621,65535
1555,1047
1754,1039
1180,1650
1106,3045
933,3206
827,516
2122,2813
2124,1411
493,441
519,455
544,453
545,456
494,450
470,470
543,460
469,446
517,466
574,459
573,471
495,456
546,461
613,488
612,492
492,450
572,473
571,491
570,504
610,530
575,506
547,498
516,503
611,501
542,475
569,537
609,550
548,530
549,559
1404,844
1405,826
1266,758
1193,767
743,564
742,555
747,571
746,584
745,588
744,575
790,589
789,586
839,591
838,579
738,560
739,588
740,563
890,604
834,589
784,582
889,621
856,803
855,780
854,777
853,745
852,695
910,772
909,761
908,718
964,712
965,764
1020,791
966,778
963,695
1021,889
1271,719
1270,719
1339,727
1338,740
1071,674
1072,678
1135,698
1408,825
1337,799
1269,735
1268,759
1136,739
1075,753
1077,813
1076,768
1019,761
1018,745
1074,752
1137,760
1272,733
1274,856
1275,890
1205,932
1204,917
1273,827
1198,736
1197,734
1341,762
1134,713
1133,709
1069,702
1132,713
1073,710
1203,883
1202,825
1201,753
1139,823
1267,748
1138,776
1340,732
1196,731
1342,1214
1409,739
1485,783
1407,874
1561,861
1632,895
1484,888
1483,861
1562,846
1194,731
1130,721
1195,732
1335,761
1129,709
1066,693
1128,679
1067,711
1131,719
1334,912
1336,794
1265,815
1333,902
1406,825
857,828
803,3562
804,7039
860,7047
969,7000
913,6987
912,6925
861,7057
806,7100
659,535
751,548
658,516
705,545
702,536
706,572
753,567
614,522
701,559
661,547
616,548
848,602
796,582
797,588
798,586
750,553
707,633
615,581
748,541
845,601
846,613
657,526
749,547
795,581
617,591
663,656
794,598
847,609
849,630
902,637
901,657
900,706
793,588
899,711
898,676
897,635
844,613
842,598
841,588
956,667
792,578
843,619
840,605
850,637
903,617
800,626
755,653
756,703
710,733
711,778
962,683
961,676
904,630
906,696
851,691
802,673
801,629
799,603
959,692
1014,647
1013,760
708,905
709,879
754,607
757,851
1017,761
1016,682
960,627
905,696
958,678
957,703
1070,681
1015,639
1012,707
1068,711
1005,618
1004,610
1060,653
1063,620
1065,628
1127,649
1062,618
1124,684
1123,672
1125,639
1188,711
1122,704
1058,676
947,669
946,668
949,584
945,663
948,609
1190,836
1187,733
951,593
895,619
952,596
1009,656
1008,620
1010,700
1007,600
1061,723
954,638
896,616
953,608
1126,633
1064,631
1189,753
955,646
950,588
892,580
786,583
836,580
837,575
787,566
700,590
655,617
654,586
653,555
698,584
699,591
608,544
696,559
656,614
833,585
785,576
835,588
693,565
894,592
893,583
1343,1272
1192,1241
1191,1030
828,552
829,573
780,595
830,583
779,565
782,570
529,394
886,612
596,390
556,378
598,449
597,402
526,330
555,348
525,355
524,322
523,292
688,518
607,549
650,582
651,569
652,569
737,550
694,565
695,571
645,509
646,517
690,536
600,523
599,484
781,568
736,540
558,375
644,499
643,523
648,541
692,554
691,555
513,477
541,537
540,532
568,596
530,409
831,594
559,414
560,460
642,414
557,424
496,273
471,257
444,251
446,238
528,374
527,340
562,499
602,526
734,536
466,490
464,425
463,507
478,480
481,466
480,511
479,509
647,524
488,449
502,409
689,523
533,478
532,457
531,441
601,504
484,467
508,474
510,491
509,501
534,487
482,431
506,498
606,576
455,503
429,391
456,506
457,487
428,424
458,414
554,440
594,408
640,447
639,544
551,342
681,424
636,412
635,420
590,346
778,540
777,522
485,449
486,462
462,431
563,528
885,644
943,1331
564,564
641,441
504,437
503,410
501,420
500,443
561,517
254,505
350,451
321,473
319,444
251,486
375,338
347,376
687,529
565,541
539,493
511,474
536,507
649,553
603,613
605,663
733,554
735,557
489,472
514,513
461,591
460,578
459,485
468,437
154,638
178,601
203,571
228,549
402,359
401,370
505,445
522,329
451,290
452,359
477,441
476,416
483,526
884,694
431,438
430,500
454,494
595,510
395,226
394,182
422,241
417,164
390,103
538,513
567,554
426,422
397,335
398,357
499,353
475,416
497,306
498,324
311,212
342,273
345,376
421,176
515,513
472,627
448,588
473,538
474,417
353,502
381,475
256,600
290,580
324,564
380,529
407,465
253,546
226,571
201,600
177,641
824,536
775,507
826,505
939,547
936,1798
937,613
880,565
566,560
2821,65535
2834,65535
2833,65535
2789,65535
2790,65535
2770,65535
2788,65535
2776,65535
2795,65535
2775,65535
2794,65535
2825,65535
2824,65535
2826,65535
2811,65535
2812,65535
2796,65535
2827,65535
2858,65535
2855,65535
2849,65535
2838,65535
2814,65535
2813,65535
2828,65535
2839,65535
2791,65535
2792,65535
2803,65535
2830,65535
2815,65535
2819,65535
2818,65535
2817,65535
2831,65535
2810,65535
2829,65535
2783,65535
2820,65535
2804,65535
2785,65535
2784,65535
2762,65535
2768,65535
2751,65535
2750,65535
2733,65535
2769,65535
2720,65535
2761,65535
2741,65535
2837,65535
2793,65535
2808,65535
2753,65535
2736,65535
2735,65535
2809,65535
2772,65535
2845,65535
2844,65535
2848,65535
2777,65535
2778,65535
2779,65535
2759,65535
2780,65535
2797,65535
2843,65535
2832,65535
2842,65535
2758,65535
2738,65535
2774,65535
2773,65535
2771,65535
2851,65535
2847,65535
2854,65535
2721,65535
2756,65535
2737,65535
2840,65535
2752,65535
2754,65535
2755,65535
2852,65535
2853,65535
2856,65535
2841,65535
2742,65535
2727,65535
2744,65535
2726,65535
2743,65535
2725,65535
2746,65535
2787,65535
2766,65535
2763,65535
2765,65535
2745,65535
2764,65535
2552,65535
2501,65535
2443,65535
2442,65535
2320,65535
2381,65535
2382,65535
2498,65535
2499,65535
2438,65535
2439,65535
2497,65535
2441,65535
2379,65535
2380,65535
2319,65535
2551,65535
2550,65535
2563,7557
2321,4213
2322,4182
2383,4194
2384,4905
2446,4948
2445,4956
2503,4975
2385,4939
2504,7678
2505,7700
2557,7724
2558,7749
2559,7773
2560,7737
2564,7513
2562,7625
2561,7665
2605,7680
2609,5264
2565,5209
2566,5194
2515,5139
2397,3559
2457,5120
2458,5104
2401,3731
2337,3472
2336,3476
2399,3518
2398,3539
2402,3765
2333,3696
2273,3731
2219,3755
2218,3767
2159,3792
2454,5824
2393,5790
2512,7524
2502,8309
2608,7943
2156,3914
2155,3946
2154,3975
2213,3991
2212,4003
2211,4051
2210,4092
2264,4099
2324,4133
2323,4149
2030,65535
2094,65535
2157,3878
2450,7921
2388,7970
2387,8038
2326,8075
2266,4280
2265,4235
2508,7892
2396,3628
2335,3646
2334,3657
2158,3817
2279,7345
2278,7309
2222,7278
2221,7260
2276,7242
2275,2844
2261,5727
2207,6585
2149,6644
2554,5027
2599,5057
2633,5095
2664,5130
2689,5167
2690,5193
2691,5209
2692,5233
2152,6338
2089,7046
2088,6384
2025,7179
2603,65535
2602,65535
2556,65535
2693,7172
2671,8955
2670,8935
2694,8894
2553,65535
2665,65535
2705,65535
2710,65535
2668,65535
2639,65535
2463,6586
2521,6622
2572,6645
2451,7806
2390,7775
2391,7595
2392,6232
2215,7800
2268,65535
2093,65535
2092,65535
2028,65535
2024,6414
2150,4452
2086,4482
2209,4439
2023,5553
2087,5506
2148,8599
2262,5712
2327,65535
1560,880
1630,962
1631,924
1559,1255
1629,1451
1558,1353
1634,900
1633,914
1482,941
1481,929
1699,900
1700,941
1701,981
1563,819
2070,1498
2008,1494
2009,1494
1959,1488
1958,1470
2006,1452
1957,1440
1956,1446
2193,1747
2132,1689
1912,1512
1911,1505
1865,1567
1866,1659
2007,1474
2069,1480
2010,1533
2011,1620
1961,1525
2072,1549
1913,1659
1867,1710
1962,1558
1914,1567
1915,1600
1909,1421
1636,1235
1635,1222
1564,1201
1702,1235
1637,1244
1638,1294
1565,1253
1486,1305
1760,1338
1704,1265
1703,1260
1763,1299
1762,1339
1817,1384
1705,1343
1863,1420
1815,1386
1759,1347
863,1808
758,1901
808,1852
982,2023
1036,2030
1099,2065
1100,2093
1166,2494
1167,2989
1237,2646
1238,2681
1375,2751
1308,2820
1309,2729
1236,2947
1235,2581
1101,2124
1037,2061
971,1604
1025,1587
1026,1602
1027,1615
1089,1628
720,1864
674,1910
864,1690
865,1711
919,1606
1024,1551
975,1725
974,1695
1028,1650
873,2050
925,1996
924,1973
917,1670
918,1646
623,2085
712,1957
713,1990
667,1995
622,2053
809,1838
719,1838
765,1799
972,1636
868,1748
869,1760
815,1779
920,2015
973,1681
981,1974
926,2075
927,2083
928,2107
1354,1600
1288,1541
1218,1517
1152,1586
1023,1515
1353,1614
1085,1495
1148,1425
1147,1418
1082,1369
772,2136
771,2093
819,2068
584,1984
628,1951
629,1940
1033,1871
978,1826
1031,1799
1030,1753
1029,1736
1091,1713
1035,1952
1034,1895
979,1853
1526,2870
1449,2908
1378,2936
1448,2859
1524,2837
1038,2108
1447,2900
1768,1518
1710,1496
1767,1455
391,74
365,145
339,265
400,408
393,0
392,44
396,287
399,375
443,285
449,314
450,319
419,87
414,269
415,210
387,203
388,172
389,128
282,538
281,431
314,365
313,345
405,415
411,534
442,493
255,520
376,482
373,378
278,265
275,382
248,495
335,273
334,250
306,329
307,352
176,614
225,554
320,525
249,581
287,535
285,481
776,500
731,483
315,491
316,474
204,590
440,513
439,498
166,1905
269,1822
383,1760
1247,4390
1246,4412
1384,4496
1679,4658
1178,4383
1105,3049
1172,3068
1173,3118
1242,3120
1241,3112
1314,3269
1313,3175
1171,3094
1382,3375
1243,3317
1317,3456
1107,3057
1108,3236
1109,3521
1041,3066
1043,3276
1042,3267
1044,3330
1176,4284
1174,3343
1177,4332
1110,4339
985,3112
986,3155
932,3173
774,530
730,498
825,552
728,519
729,521
727,451
682,581
684,558
685,467
732,540
683,562
2134,1848
2194,1871
2068,1555
2129,1610
1905,1304
1907,1392
1906,1357
1953,1353
2002,1360
2064,1370
2125,1387
2137,2307
2196,1978
2195,1924
1859,1265
1810,1255
1755,1014
2131,1561
2192,1599
1862,1421
1861,1375
1812,1336
1860,1373
1809,1255
1756,985
1869,1492
1822,1487
1821,1463
1916,1530
1819,1369
1764,1346
1820,1372
1698,906
1757,1211
1566,1205
1567,860
1488,834
1489,1257
1412,1248
1413,1281
1414,1290
1818,1390
1568,1316
1410,766
2128,1657
2189,1684
2066,1766
2065,1805
2067,1607
1643,1372
1571,1315
1491,1305
2004,1776
2003,1395
1697,1335
2135,2063
2075,1925
1642,1360
1955,1451
2130,1831
2005,1545
1858,1273
1816,8488
1864,8481
1766,1448
1910,1461
1868,1482
2188,1891
2127,1860
1903,1278
2001,1437
2063,1831
2062,1692
1813,1413
1758,944
1639,1300
1640,1342
1952,1407
2126,8570
1569,1346
1965,1782
1966,1828
2014,1848
1490,1297
1917,1585
1870,1621
1871,1635
1570,1313
1707,1354
2076,1915
2013,1880
1964,1834
1487,817
1908,1537
2251,3681
2199,3625
2198,3488
2136,2065
1641,1473
1954,1528
1765,1416
1857,1303
2187,1996
1904,1282
1856,1257
1951,1359
1708,1534
245,8799
244,8782
357,8786
246,8914
247,8943
197,9037
223,9015
44,9379
43,9439
3,9575
23,9549
22,9538
63,9321
85,9263
84,9218
108,8718
149,8672
172,9063
296,8766
294,8814
355,8914
354,8946
326,9024
295,8923
291,8935
293,9057
260,8943
356,8974
441,8574
412,8597
329,8932
300,8876
148,8646
214,8884
146,8767
110,8848
262,8909
258,9322
292,9085
257,9387
235,8907
187,8807
212,8863
211,8890
186,8811
162,8785
161,8864
165,8763
189,8963
238,9044
237,9009
263,8945
265,8964
266,8942
267,8930
268,8770
26,9539
25,9507
105,65535
62,65535
83,65535
126,8885
175,9320
152,9254
151,9244
150,9203
103,8823
242,8716
191,8670
192,8721
217,8744
218,8797
145,8707
144,8791
167,8699
190,8677
219,8814
159,8911
185,8855
158,8968
188,8799
160,8876
143,65535
122,65535
75,65535
54,65535
198,9448
270,8811
221,8852
301,8909
302,8746
330,8773
331,8795
115,8847
133,8906
139,8803
134,8880
114,9404
48,65535
69,65535
92,9080
164,8873
4,65535
107,9225
129,9310
109,8750
125,8791
124,8765
127,65535
82,65535
67,65535
91,9248
93,9047
137,9182
113,9202
112,9160
136,65535
49,65535
72,65535
71,65535
406,481
805,7090
858,6895
859,7036
967,1074
1142,1209
1080,6735
1022,6776
1079,6768
968,6891
1206,1166
915,7042
916,7077
914,7014
807,7129
911,8236
1078,6992
1207,1224
1278,1268
1277,1271
1344,1291
1415,1332
1492,1387
1345,1348
1346,1318
1208,1216
1209,1296
1143,1333
1144,1349
1145,1364
1417,1344
1493,1404
1494,1423
1572,1438
1081,7061
970,7264
408,512
382,498
437,539
467,521
409,510
403,409
432,549
433,525
404,430
352,569
351,555
349,462
317,445
374,443
346,479
283,533
410,577
438,560
465,432
490,471
491,537
435,516
436,543
379,634
323,691
289,642
377,467
378,491
592,393
593,433
552,341
445,257
424,406
423,289
416,169
361,199
362,147
371,495
372,546
343,534
344,520
286,572
227,538
252,516
284,496
318,529
250,558
312,228
340,242
368,251
369,353
370,518
341,304
367,199
308,391
276,360
277,330
280,258
310,229
338,255
366,318
274,404
305,453
420,128
363,133
418,255
550,7081
579,7104
576,7049
577,7061
578,7077
520,7057
618,7071
662,7101
619,7088
620,7101
621,7095
665,7077
666,7069
664,7097
580,7116
2260,65535
2257,65535
2206,65535
2146,65535
2314,65535
2313,65535
2312,65535
2373,65535
2256,65535
2205,65535
2434,65535
2435,65535
2375,65535
2376,65535
2433,65535
2491,65535
2490,65535
2492,65535
2546,65535
2597,65535
2596,65535
2544,65535
2145,65535
2082,65535
2020,65535
2494,65535
0,65535
11,65535
1052,2068
1053,2055
941,2095
1740,1932
1796,1973
1615,1759
1681,1876
1545,1628
1797,1973
1544,1654
1741,1880
1795,2170
1617,1719
1546,1685
1616,1678
1683,1721
1467,1593
1547,1658
1465,1677
1387,1659
1388,1641
1464,1724
1462,2059
1461,2080
1542,2144
1463,2023
1682,1846
1543,1713
1618,1788
1742,2080
1460,2246
1248,1776
1850,1382
1801,1386
1803,1372
882,559
881,533
938,558
883,579
940,2838
1998,1370
1902,1341
1807,1217
1691,1274
1694,1453
1693,1312
1749,1315
1752,1266
1753,1278
1627,1243
1628,1401
1557,1294
1479,923
1402,898
1808,1190
1946,1555
1947,1490
1948,1477
1997,1384
1855,1233
1690,1261
2060,1557
1949,1439
1950,1361
1751,1271
1692,1214
1999,1366
1901,1790
1900,1817
1852,2085
1853,1964
1805,1414
1750,1319
1854,1730
1806,1472
1748,1327
2061,1604
2000,1393
1804,1407
1899,2105
2884,65535
2892,65535
2883,65535
2876,65535
2874,65535
2882,65535
2877,65535
2911,65535
2905,65535
2906,65535
2896,65535
2887,65535
2881,65535
2880,65535
2888,65535
2902,65535
2903,65535
2907,65535
2912,65535
2895,65535
2894,65535
2875,65535
2885,65535
2893,65535
2904,65535
2865,65535
2866,65535
2909,65535
2913,65535
2886,65535
2878,65535
2869,65535
2871,65535
2872,65535
2879,65535
2870,65535
1330,1006
1331,926
1401,917
1262,925
1263,921
1478,905
1403,889
1261,976
1480,1223
1264,928
1390,1573
1389,1632
1319,1610
1251,1665
1250,1741
1285,1442
1284,1446
1214,1418
1146,1384
1505,1667
1504,1601
1582,1639
1581,1567
1713,1546
1771,1528
1654,1678
1653,1651
1651,1603
2096,2782
2033,2742
1972,2713
1923,2645
1922,2623
1874,2317
1873,2030
1919,1983
1829,2994
1579,1503
1424,1495
1711,1520
1348,1344
1419,1364
1359,1771
1429,1722
1428,1708
1421,1421
1577,1455
1499,1428
1230,2015
1365,1952
1511,1874
1300,1997
1366,1969
1512,1902
1716,1736
1503,2013
1276,1298
1347,1328
1349,1376
1645,1512
1578,1490
1770,1524
1715,1579
1150,1483
1217,1497
1149,1459
1580,1529
1352,1536
1502,1518
1825,1936
1718,1891
1717,1865
1872,1969
1656,1780
1648,1555
1712,1532
1213,1408
1212,1389
1084,1430
1420,1410
1281,1334
1282,1395
1587,1774
1586,1741
1585,1730
1652,1698
1427,1876
1975,2817
1977,2885
1932,2955
1931,3580
1426,1596
1422,1438
1425,1581
1583,1667
1501,1525
1283,1436
1286,1483
1215,1468
1211,1365
1210,1339
1083,1401
1655,1769
2220,2823
1355,5891
1772,1537
1436,1920
1435,1910
1589,1843
1163,2048
1735,3168
1791,3101
1841,3078
1840,3034
1219,1600
1220,1639
1647,1541
1646,1533
1279,1286
1714,1556
1575,1515
1576,1477
1498,1485
1573,1527
1496,1545
1497,1516
2177,2965
2176,3035
2294,2952
2293,3071
2237,3012
2236,3041
2364,2813
2302,2753
2301,2675
2245,2577
2056,2707
2057,2793
2055,2686
2184,2738
2120,2744
2244,2658
2538,2998
2537,2979
2591,3095
1940,2870
1989,2878
1990,2814
2539,2998
2482,2989
2483,2951
2424,2847
2121,2805
2119,2618
2050,2927
2049,3005
2048,3423
2185,2771
2243,2497
2299,2711
2241,2660
2485,3029
2542,3084
2353,3043
2292,2950
2419,2837
2478,2884
2479,2919
2536,2946
2484,2990
2486,2983
2354,2882
2416,3059
2242,2705
2355,2920
2300,2718
1991,2818
1992,2825
2477,2875
2534,2896
2535,3011
2588,2916
2587,2930
2630,2981
2051,2739
2116,2633
2175,3068
2586,65535
2541,3151
2178,2940
2179,2743
2240,2690
2239,2914
2238,2984
2052,2870
2053,2836
1987,3110
1988,2958
1939,2982
2594,3101
2593,3086
2358,2804
2357,2814
2420,2870
2247,2866
2427,2956
2428,2978
2181,2537
2180,2586
2417,2864
2590,3076
2297,2699
2361,2891
2362,2774
2423,2862
2422,2827
2174,3298
2356,2925
1941,2859
2365,2990
2112,3303
2047,3445
2182,2676
2359,2753
2533,3691
2295,3016
2115,2706
2632,3136
2631,3075
2186,2923
2298,2785
2360,2809
2235,3261
2291,3274
2487,3205
2246,2798
2425,3606
2117,2930
2543,3158
1893,65535
2421,2962
2476,2880
2592,3134
604,7066
