middle_point_id,reach_time_minutes
2835,65535
2836,65535
2806,65535
2822,65535
2823,65535
2807,65535
2846,65535
887,984
888,958
1326,1060
1185,985
999,1010
1057,1157
1552,1353
1120,1013
1473,1303
944,1018
832,955
1257,1035
1396,1199
1622,1375
1327,3784
1184,1015
1183,1029
1324,1231
1255,1311
1394,1482
1252,1195
1253,1156
1182,1100
1328,65535
1470,1385
1321,1194
1322,1161
1323,2405
1391,1237
1551,1372
1393,1453
1472,1515
1471,1429
1181,2774
1118,1139
1059,957
1121,974
1469,1365
1468,1300
1548,1352
1325,1165
1625,1372
1623,1366
1258,997
1256,1154
791,760
891,902
703,554
704,564
660,559
1553,1349
1624,1388
1554,1370
1474,1318
1475,1367
1550,1382
1549,1398
1320,1252
1466,1348
1541,2515
1318,1366
1249,1389
1186,1030
1003,954
1002,961
741,881
788,789
434,292
697,952
752,579
1056,1030
1006,872
907,945
518,426
1011,955
1000,998
1055,1502
997,1382
994,1288
996,1376
995,1363
991,1332
1112,65535
1114,1334
1051,1315
1398,1692
1395,1290
1001,968
1811,1327
1960,1630
1769,1537
1823,1538
1329,65535
1332,1143
1259,1160
1200,955
1199,952
1140,1039
1141,1057
783,941
1689,1398
1802,1460
1945,1801
2183,2419
2418,2837
1994,1835
1995,1868
2059,1597
1621,65535
1555,1327
1754,1420
1180,2303
1106,2470
933,2726
827,1088
2122,2659
2124,1634
493,393
519,430
544,432
545,434
494,427
470,498
543,453
469,454
517,466
574,445
573,465
495,896
546,439
613,509
612,513
492,814
572,859
571,886
570,913
610,915
575,476
547,878
516,1002
611,921
542,871
569,980
609,945
548,2229
549,2264
1404,1081
1405,1037
1266,998
1193,1007
743,913
742,858
747,610
746,834
745,922
744,867
790,769
789,781
839,836
838,817
738,935
739,904
740,891
890,911
834,949
784,939
889,917
856,1049
855,1020
854,990
853,975
852,973
910,1012
909,1003
908,968
964,952
965,969
1020,975
966,1018
963,942
1021,1133
1271,957
1270,956
1339,967
1338,980
1071,882
1072,918
1135,938
1408,1003
1337,997
1269,975
1268,1000
1136,968
1075,994
1077,1041
1076,1004
1019,1001
1018,983
1074,992
1137,984
1272,973
1274,1057
1275,1070
1205,1077
1204,1079
1273,1067
1198,911
1197,974
1341,1002
1134,900
1133,909
1069,961
1132,953
1073,950
1203,1063
1202,1062
1201,993
1139,1033
1267,993
1138,1016
1340,972
1196,983
1342,1036
1409,990
1485,1010
1407,1107
1561,1119
1632,1144
1484,1083
1483,1078
1562,1110
1194,971
1130,961
1195,972
1335,1012
1129,949
1066,943
1128,935
1067,951
1131,959
1334,1125
1336,1034
1265,1055
1333,1137
1406,1042
857,1788
803,1822
804,2239
860,2247
969,2200
913,2187
912,2125
861,2257
806,2300
659,556
751,570
658,549
705,568
702,556
706,573
753,824
614,536
701,579
661,579
616,585
848,771
796,577
797,615
798,759
750,578
707,594
615,941
748,583
845,914
846,872
657,612
749,593
795,638
617,912
663,601
794,944
847,892
849,930
902,908
901,918
900,946
793,785
899,951
898,930
897,883
844,973
842,816
841,772
956,976
792,758
843,964
840,924
850,923
903,818
800,917
755,929
756,943
710,973
711,1018
962,931
961,916
904,881
906,934
851,929
802,973
801,937
799,903
959,932
1014,872
1013,890
708,1794
709,1822
754,941
757,971
1017,984
1016,993
960,857
905,936
958,918
957,954
1070,904
1015,869
1012,947
1068,958
1005,895
1004,941
1060,951
1063,888
1065,922
1127,926
1062,914
1124,923
1123,943
1125,914
1188,948
1122,1008
1058,963
947,944
946,977
949,944
945,997
948,937
1190,938
1187,971
951,844
895,820
952,882
1009,920
1008,878
1010,944
1007,892
1061,973
954,949
896,804
953,873
1126,941
1064,904
1189,997
955,991
950,883
892,865
786,887
836,887
837,850
787,849
700,605
655,870
654,984
653,998
698,919
699,953
608,966
696,1003
656,867
833,945
785,929
835,946
693,916
894,900
893,863
1343,1052
1192,1154
1191,1175
828,1078
829,1064
780,1010
830,1059
779,1061
782,947
529,1004
886,972
596,955
556,923
598,1020
597,999
526,984
555,793
525,1022
524,1077
523,1002
688,992
607,1015
650,1063
651,1034
652,1050
737,940
694,907
695,927
645,1006
646,979
690,961
600,1012
599,1006
781,952
736,951
558,1029
644,1001
643,1020
648,962
692,929
691,945
513,344
541,440
540,550
568,1025
530,982
831,984
559,1042
560,1075
642,1048
557,965
496,1055
471,1032
444,1031
446,997
528,1031
527,1055
562,1016
602,986
734,987
466,363
464,325
463,911
478,382
481,275
480,330
479,360
647,968
488,947
502,1099
689,988
533,1022
532,1014
531,1041
601,1039
484,495
508,1067
510,461
509,1041
534,1063
482,263
506,984
606,1235
455,410
429,192
456,382
457,362
428,182
458,204
554,757
594,860
640,962
639,930
551,1004
681,1084
636,1073
635,1089
590,1024
778,1085
777,1092
485,458
486,427
462,782
563,1089
885,984
943,1033
564,1040
641,1025
504,1096
503,1139
501,1178
500,1201
561,1050
254,429
350,370
321,401
319,324
251,367
375,256
347,300
687,1039
565,1054
539,378
511,439
536,1049
649,982
603,999
605,1406
733,1007
735,977
489,1107
514,569
461,1090
460,1058
459,247
468,431
154,1298
178,1260
203,1231
228,1150
402,317
401,338
505,1046
522,1014
451,192
452,997
477,936
476,955
483,1066
884,1102
431,231
430,274
454,1001
595,997
395,71
394,89
422,119
417,958
390,285
538,999
567,1113
426,319
397,0
398,47
499,1226
475,1159
497,1112
498,1129
311,186
342,193
345,157
421,276
515,1267
472,1116
448,1141
473,1167
474,1211
353,463
381,418
256,476
290,451
324,418
380,446
407,419
253,1119
226,1168
201,1181
177,1244
824,1196
775,1169
826,1099
939,1147
936,1318
937,1213
880,1121
566,1033
2821,65535
2834,65535
2833,65535
2789,65535
2790,65535
2770,65535
2788,65535
2776,65535
2795,65535
2775,65535
2794,65535
2825,65535
2824,65535
2826,65535
2811,65535
2812,65535
2796,65535
2827,65535
2858,65535
2855,65535
2849,65535
2838,65535
2814,65535
2813,65535
2828,65535
2839,65535
2791,65535
2792,65535
2803,65535
2830,65535
2815,65535
2819,65535
2818,65535
2817,65535
2831,65535
2810,65535
2829,65535
2783,65535
2820,65535
2804,65535
2785,65535
2784,65535
2762,65535
2768,65535
2751,65535
2750,65535
2733,65535
2769,65535
2720,65535
2761,65535
2741,65535
2837,65535
2793,65535
2808,65535
2753,65535
2736,65535
2735,65535
2809,65535
2772,65535
2845,65535
2844,65535
2848,65535
2777,65535
2778,65535
2779,65535
2759,65535
2780,65535
2797,65535
2843,65535
2832,65535
2842,65535
2758,65535
2738,65535
2774,65535
2773,65535
2771,65535
2851,65535
2847,65535
2854,65535
2721,65535
2756,65535
2737,65535
2840,65535
2752,65535
2754,65535
2755,65535
2852,65535
2853,65535
2856,65535
2841,65535
2742,65535
2727,65535
2744,65535
2726,65535
2743,65535
2725,65535
2746,65535
2787,65535
2766,65535
2763,65535
2765,65535
2745,65535
2764,65535
2552,65535
2501,65535
2443,65535
2442,65535
2320,65535
2381,65535
2382,65535
2498,65535
2499,65535
2438,65535
2439,65535
2497,65535
2441,65535
2379,65535
2380,65535
2319,65535
2551,65535
2550,65535
2563,65535
2321,65535
2322,65535
2383,65535
2384,65535
2446,65535
2445,65535
2503,65535
2385,65535
2504,65535
2505,65535
2557,65535
2558,65535
2559,65535
2560,65535
2564,65535
2562,65535
2561,65535
2605,65535
2609,65535
2565,65535
2566,65535
2515,4756
2397,4519
2457,4736
2458,4720
2401,65535
2337,4432
2336,4436
2399,4478
2398,4499
2402,65535
2333,4656
2273,4691
2219,4715
2218,4727
2159,4752
2454,65535
2393,65535
2512,65535
2502,65535
2608,65535
2156,65535
2155,65535
2154,65535
2213,65535
2212,65535
2211,65535
2210,65535
2264,65535
2324,65535
2323,65535
2030,65535
2094,65535
2157,65535
2450,65535
2388,65535
2387,65535
2326,65535
2266,65535
2265,65535
2508,65535
2396,4588
2335,4606
2334,4617
2158,4777
2279,65535
2278,65535
2222,65535
2221,65535
2276,65535
2275,3804
2261,65535
2207,65535
2149,65535
2554,65535
2599,65535
2633,65535
2664,65535
2689,65535
2690,65535
2691,65535
2692,65535
2152,65535
2089,65535
2088,65535
2025,65535
2603,65535
2602,65535
2556,65535
2693,65535
2671,65535
2670,65535
2694,65535
2553,65535
2665,65535
2705,65535
2710,65535
2668,65535
2639,65535
2463,65535
2521,65535
2572,65535
2451,65535
2390,65535
2391,65535
2392,65535
2215,65535
2268,65535
2093,65535
2092,65535
2028,65535
2024,65535
2150,65535
2086,65535
2209,65535
2023,65535
2087,65535
2148,65535
2262,65535
2327,65535
1560,1177
1630,1279
1631,1194
1559,1302
1629,1390
1558,1233
1634,1199
1633,1170
1482,1102
1481,1167
1699,1156
1700,1180
1701,1233
1563,1112
2070,1695
2008,1647
2009,1644
1959,1632
1958,1658
2006,1689
1957,1670
1956,1622
2193,1762
2132,1701
1912,1639
1911,1622
1865,1444
1866,1527
2007,1677
2069,1711
2010,1653
2011,1669
1961,1648
2072,1669
1913,1586
1867,1579
1962,1673
1914,1680
1915,1723
1909,1574
1636,1116
1635,1180
1564,1138
1702,1193
1637,1139
1638,1236
1565,1082
1486,1064
1760,1363
1704,1300
1703,1126
1763,1374
1762,1168
1817,1207
1705,1398
1863,1444
1815,1411
1759,1366
863,2768
758,2861
808,2812
982,2983
1036,2990
1099,3025
1100,3053
1166,3454
1167,3949
1237,3606
1238,3641
1375,3711
1308,3780
1309,3689
1236,3907
1235,3541
1101,3084
1037,3021
971,2564
1025,2547
1026,2562
1027,2575
1089,2588
720,2824
674,2870
864,2650
865,2671
919,2566
1024,2511
975,2685
974,2655
1028,2610
873,3010
925,2956
924,2933
917,2630
918,2606
623,3045
712,2917
713,2950
667,2955
622,3013
809,2798
719,2798
765,2759
972,2596
868,2708
869,2720
815,2739
920,2975
973,2641
981,2934
926,3035
927,3043
928,3067
1354,2560
1288,2501
1218,2477
1152,2546
1023,2475
1353,2574
1085,2455
1148,2385
1147,2378
1082,2329
772,3096
771,3053
819,3028
584,2944
628,2911
629,2900
1033,2831
978,2786
1031,2759
1030,2713
1029,2696
1091,2673
1035,2912
1034,2855
979,2813
1526,3830
1449,3868
1378,3896
1448,3819
1524,3797
1038,3068
1447,3860
1768,1542
1710,1492
1767,1458
391,256
365,295
339,262
400,113
393,131
392,225
396,20
399,78
443,1111
449,363
450,338
419,360
414,1032
415,496
387,490
388,446
389,299
282,994
281,311
314,280
313,236
405,415
411,1234
442,1193
255,1079
376,328
373,213
278,205
275,328
248,375
335,406
334,383
306,385
307,362
176,1228
225,414
320,944
249,1095
287,1156
285,992
776,1100
731,1083
315,342
316,1011
204,1264
440,1008
439,991
166,1425
269,1342
383,1280
1247,65535
1246,65535
1384,65535
1679,65535
1178,3903
1105,2512
1172,2528
1173,2504
1242,3092
1241,2570
1314,3127
1313,3154
1171,2553
1382,4335
1243,2586
1317,4416
1107,2755
1108,3054
1109,3108
1041,2563
1043,3818
1042,3739
1044,4290
1176,3804
1174,4303
1177,3852
1110,3859
985,2632
986,2675
932,2693
774,1190
730,1113
825,1212
728,1166
729,1136
727,1116
682,1181
684,1218
685,1034
732,1181
683,2302
2134,2215
2194,2244
2068,2171
2129,2225
1905,1506
1907,1507
1906,1446
1953,1533
2002,1564
2064,1601
2125,1608
2137,2356
2196,2312
2195,2267
1859,1380
1810,1410
1755,1347
2131,1726
2192,1740
1862,1474
1861,1393
1812,1364
1860,1463
1809,1398
1756,1292
1869,1604
1822,1500
1821,1479
1916,1642
1819,1431
1764,1407
1820,1515
1698,1251
1757,1272
1566,1122
1567,1108
1488,1082
1489,1112
1412,1059
1413,1128
1414,1113
1818,1444
1568,1163
1410,1010
2128,2256
2189,2283
2066,2221
2065,2210
2067,2222
1643,1412
1571,1345
1491,1260
2004,2251
2003,1650
1697,1328
2135,2237
2075,2197
1642,1381
1955,1550
2130,2440
2005,1730
1858,1461
1816,3688
1864,3681
1766,1452
1910,1614
1868,1595
2188,2635
2127,2604
1903,1486
2001,1627
2063,2262
2062,1822
1813,1376
1758,1314
1639,1339
1640,1358
1952,1586
2126,3770
1569,1344
1965,1749
1966,1795
2014,1812
1490,1272
1917,1656
1870,1524
1871,1534
1570,1308
1707,1404
2076,1878
2013,2246
1964,1683
1487,1041
1908,1835
2251,65535
2199,65535
2198,65535
2136,2260
1641,1513
1954,2266
1765,1425
1857,1492
2187,1885
1904,1490
1856,1449
1951,1595
1708,2283
245,3999
244,3982
357,3986
246,4114
247,4143
197,4237
223,4215
44,4579
43,4639
3,4775
23,4749
22,4738
63,4521
85,4463
84,4418
108,3918
149,3872
172,4263
296,3966
294,4014
355,4114
354,4146
326,4224
295,4123
291,4135
293,4257
260,4143
356,4174
441,3774
412,3797
329,4132
300,4076
148,3846
214,4084
146,3967
110,4048
262,4109
258,4522
292,4285
257,4587
235,4107
187,4007
212,4063
211,4090
186,4011
162,3985
161,4064
165,3963
189,4163
238,4244
237,4209
263,4145
265,4164
266,4142
267,4130
268,3970
26,4739
25,4707
105,65535
62,65535
83,65535
126,4085
175,4520
152,4454
151,4444
150,4403
103,4023
242,3916
191,3870
192,3921
217,3944
218,3997
145,3907
144,3991
167,3899
190,3877
219,4014
159,4111
185,4055
158,4168
188,3999
160,4076
143,65535
122,65535
75,65535
54,65535
198,4648
270,4011
221,4052
301,4109
302,3946
330,3973
331,3995
115,4047
133,4106
139,4003
134,4080
114,4604
48,65535
69,65535
92,4280
164,4073
4,65535
107,4425
129,4510
109,3950
125,3991
124,3965
127,65535
82,65535
67,65535
91,4448
93,4247
137,4382
113,4402
112,4360
136,65535
49,65535
72,65535
71,65535
406,988
805,2290
858,2095
859,2236
967,1972
1142,2109
1080,2115
1022,2106
1079,2124
968,2091
1206,2085
915,2242
916,2277
914,2214
807,2329
911,3436
1078,2192
1207,2184
1278,2228
1277,2231
1344,2251
1415,2292
1492,2347
1345,2308
1346,2278
1208,2176
1209,2256
1143,2293
1144,2309
1145,2324
1417,2304
1493,2364
1494,2383
1572,2398
1081,2261
970,2464
408,444
382,920
437,376
467,1017
409,963
403,294
432,1123
433,1016
404,1036
352,1061
351,1087
349,1066
317,412
374,1228
346,200
283,1053
410,973
438,964
465,345
490,471
491,1019
435,400
436,425
379,1595
323,1091
289,1122
377,1069
378,1091
592,956
593,926
552,1028
445,1036
424,192
423,128
416,2377
361,333
362,309
371,85
372,112
343,1109
344,1094
286,1435
227,1143
252,398
284,1007
318,1027
250,1078
312,206
340,147
368,83
369,57
370,38
341,139
367,179
308,299
276,288
277,268
280,258
310,226
338,345
366,1068
274,998
305,1182
420,1002
363,314
418,320
550,2281
579,2304
576,2249
577,2261
578,2277
520,2257
618,2271
662,2301
619,2288
620,2301
621,2295
665,2277
666,2269
664,2297
580,2316
2260,65535
2257,65535
2206,65535
2146,65535
2314,65535
2313,65535
2312,65535
2373,65535
2256,65535
2205,65535
2434,65535
2435,65535
2375,65535
2376,65535
2433,65535
2491,65535
2490,65535
2492,65535
2546,65535
2597,65535
2596,65535
2544,65535
2145,65535
2082,65535
2020,65535
2494,65535
0,65535
11,65535
1052,1468
1053,1455
941,1440
1740,2461
1796,2535
1615,2319
1681,2396
1545,2200
1797,2575
1544,2275
1741,2553
1795,2856
1617,2220
1546,2206
1616,2237
1683,2341
1467,1290
1547,1316
1465,2180
1387,2247
1388,1362
1464,2264
1462,3019
1461,3040
1542,2931
1463,2983
1682,2528
1543,2396
1618,2277
1742,2654
1460,2730
1248,2262
1850,1492
1801,2178
1803,1441
882,1099
881,1106
938,1158
883,1119
940,2358
1998,1537
1902,1478
1807,1386
1691,1379
1694,1333
1693,1381
1749,1398
1752,1407
1753,1364
1627,1311
1628,1281
1557,1259
1479,1163
1402,1150
1808,1375
1946,1555
1947,1586
1948,1597
1997,1552
1855,1399
1690,1387
2060,1670
1949,1825
1950,1521
1751,1413
1692,1409
1999,1529
1901,1869
1900,1881
1852,1605
1853,1484
1805,1414
1750,1402
1854,1440
1806,1426
1748,1436
2061,1724
2000,1654
1804,1426
1899,1625
2884,65535
2892,65535
2883,65535
2876,65535
2874,65535
2882,65535
2877,65535
2911,65535
2905,65535
2906,65535
2896,65535
2887,65535
2881,65535
2880,65535
2888,65535
2902,65535
2903,65535
2907,65535
2912,65535
2895,65535
2894,65535
2875,65535
2885,65535
2893,65535
2904,65535
2865,65535
2866,65535
2909,65535
2913,65535
2886,65535
2878,65535
2869,65535
2871,65535
2872,65535
2879,65535
2870,65535
1330,1160
1331,1145
1401,1152
1262,1151
1263,1144
1478,1199
1403,1130
1261,1206
1480,1187
1264,1186
1390,1273
1389,1322
1319,1295
1251,1382
1250,1468
1285,2401
1284,2406
1214,2378
1146,2344
1505,2627
1504,2561
1582,2599
1581,2527
1713,2506
1771,2488
1654,2638
1653,2611
1651,2563
2096,3742
2033,3702
1972,3673
1923,3605
1922,3583
1874,3277
1873,2990
1919,2943
1829,3954
1579,2463
1424,2504
1711,2480
1348,2304
1419,2324
1359,2731
1429,2682
1428,2668
1421,2381
1577,2415
1499,2388
1230,2975
1365,2912
1511,2834
1300,2957
1366,2929
1512,2862
1716,2696
1503,2973
1276,2258
1347,2288
1349,2336
1645,2472
1578,2450
1770,2484
1715,2539
1150,2443
1217,2457
1149,2419
1580,2509
1352,2496
1502,2527
1825,2896
1718,2851
1717,2825
1872,2929
1656,2740
1648,2515
1712,2492
1213,2368
1212,2349
1084,2390
1420,2370
1281,2294
1282,2355
1587,2734
1586,2701
1585,2690
1652,2658
1427,2836
1975,3777
1977,3845
1932,3915
1931,4540
1426,2556
1422,2398
1425,2541
1583,2627
1501,2485
1283,2396
1286,2443
1215,2428
1211,2325
1210,2299
1083,2361
1655,2729
2220,3783
1355,65535
1772,2497
1436,2880
1435,2870
1589,2803
1163,3008
1735,4128
1791,4061
1841,4038
1840,3994
1219,2560
1220,2599
1647,2501
1646,2493
1279,2246
1714,2516
1575,2475
1576,2437
1498,2445
1573,2487
1496,2505
1497,2476
2177,2762
2176,2827
2294,2887
2293,2908
2237,2868
2236,2890
2364,2738
2302,2668
2301,2649
2245,2604
2056,2477
2057,2641
2055,2472
2184,2811
2120,2734
2244,2431
2538,2939
2537,2919
2591,2956
1940,2780
1989,2764
1990,2720
2539,2962
2482,2968
2483,2937
2424,2932
2121,2913
2119,2449
2050,2859
2049,2881
2048,2943
2185,2806
2243,2444
2299,2669
2241,2669
2485,2899
2542,3011
2353,2954
2292,2930
2419,2828
2478,2836
2479,2853
2536,2880
2484,2954
2486,2847
2354,2878
2416,2970
2242,2491
2355,2845
2300,2798
1991,2803
1992,2544
2477,2879
2534,2914
2535,2870
2588,2935
2587,2950
2630,2990
2051,2626
2116,2594
2175,2878
2586,65535
2541,3082
2178,2728
2179,2699
2240,2699
2239,2770
2238,2825
2052,2670
2053,2765
1987,2848
1988,2768
1939,2774
2594,3084
2593,3056
2358,2726
2357,2769
2420,2879
2247,3061
2427,2832
2428,2890
2181,2489
2180,2541
2417,2858
2590,2935
2297,2702
2361,2926
2362,2870
2423,2905
2422,2764
2174,2971
2356,2835
1941,2802
2365,3147
2112,2899
2047,2965
2182,2501
2359,2692
2533,3211
2295,3051
2115,2637
2632,3061
2631,3000
2186,2768
2298,2529
2360,2584
2235,3661
2291,3674
2487,3070
2246,2989
2425,3126
2117,3087
2543,3097
1893,65535
2421,2972
2476,2886
2592,3071
604,2266
