middle_point_id,reach_time_minutes
2835,65535
2836,65535
2806,65535
2822,65535
2823,65535
2807,65535
2846,65535
887,4329
888,4318
1326,4660
1185,4465
999,4490
1057,4561
1552,65535
1120,4461
1473,65535
944,4416
832,4301
1257,4636
1396,65535
1622,65535
1327,4744
1184,4495
1183,4539
1324,65535
1255,65535
1394,65535
1252,65535
1253,65535
1182,65535
1328,65535
1470,65535
1321,65535
1322,65535
1323,65535
1391,65535
1551,65535
1393,65535
1472,65535
1471,65535
1181,65535
1118,65535
1059,4427
1121,4450
1469,65535
1468,65535
1548,65535
1325,4765
1625,65535
1623,65535
1258,4537
1256,4694
791,4424
891,4389
703,4433
704,4442
660,4437
1553,65535
1624,65535
1554,65535
1474,65535
1475,65535
1550,65535
1549,65535
1320,65535
1466,65535
1541,65535
1318,65535
1249,65535
1186,4494
1003,4420
1002,4420
741,4369
788,4390
434,4273
697,4403
752,4455
1056,4512
1006,4458
907,4599
518,4375
1011,4561
1000,4400
1055,65535
997,65535
994,65535
996,65535
995,65535
991,65535
1112,65535
1114,65535
1051,65535
1398,65535
1395,65535
1001,4411
1811,65535
1960,65535
1769,65535
1823,65535
1329,65535
1332,4757
1259,65535
1200,4619
1199,4623
1140,4764
1141,4762
783,4292
1689,65535
1802,65535
1945,65535
2183,65535
2418,65535
1994,65535
1995,65535
2059,65535
1621,65535
1555,65535
1754,65535
1180,65535
1106,65535
933,65535
827,4328
2122,65535
2124,65535
493,4368
519,4379
544,4381
545,4385
494,4385
470,4394
543,4382
469,4378
517,4377
574,4396
573,4393
495,4400
546,4390
613,4398
612,4402
492,4370
572,4388
571,4399
570,4403
610,4402
575,4407
547,4418
516,4388
611,4429
542,4412
569,4430
609,4392
548,4424
549,4438
1404,4684
1405,4666
1266,4635
1193,4607
743,4394
742,4379
747,4449
746,4432
745,4428
744,4408
790,4414
789,4398
839,4409
838,4380
738,4290
739,4339
740,4356
890,4367
834,4309
784,4302
889,4328
856,4702
855,4680
854,4672
853,4645
852,4595
910,4672
909,4661
908,4618
964,4602
965,4664
1020,4695
966,4668
963,4594
1021,4729
1271,4622
1270,4624
1339,4638
1338,4649
1071,4614
1072,4629
1135,4627
1408,4665
1337,4658
1269,4634
1268,4660
1136,4609
1075,4629
1077,4758
1076,4697
1019,4662
1018,4635
1074,4592
1137,4644
1272,4633
1274,4696
1275,4730
1205,4772
1204,4757
1273,4667
1198,4631
1197,4609
1341,4725
1134,4613
1133,4608
1069,4573
1132,4585
1073,4585
1203,4723
1202,4665
1201,4638
1139,4708
1267,4631
1138,4675
1340,4633
1196,4601
1342,65535
1409,4794
1485,65535
1407,4714
1561,4746
1632,4788
1484,65535
1483,4701
1562,4738
1194,4571
1130,4561
1195,4584
1335,4651
1129,4549
1066,4533
1128,4519
1067,4551
1131,4579
1334,4752
1336,4643
1265,4655
1333,4742
1406,4665
857,4775
803,65535
804,65535
860,65535
969,65535
913,65535
912,65535
861,65535
806,65535
659,4435
751,4448
658,4416
705,4445
702,4436
706,4471
753,4467
614,4413
701,4459
661,4442
616,4430
848,4509
796,4485
797,4496
798,4486
750,4453
707,4476
615,4418
748,4441
845,4491
846,4513
657,4426
749,4455
795,4482
617,4439
663,4469
794,4484
847,4509
849,4532
902,4537
901,4557
900,4576
793,4433
899,4551
898,4516
897,4475
844,4480
842,4438
841,4428
956,4576
792,4430
843,4459
840,4445
850,4537
903,4517
800,4526
755,4553
756,4554
710,4515
711,4618
962,4583
961,4576
904,4530
906,4593
851,4588
802,4573
801,4529
799,4503
959,4592
1014,4607
1013,4600
708,4745
709,4520
754,4507
757,4571
1017,4601
1016,4593
960,4553
905,4596
958,4631
957,4614
1070,4581
1015,4589
1012,4605
1068,4565
1005,4462
1004,4424
1060,4427
1063,4483
1065,4468
1127,4489
1062,4487
1124,4466
1123,4452
1125,4477
1188,4477
1122,4433
1058,4447
947,4378
946,4388
949,4421
945,4383
948,4417
1190,4538
1187,4512
951,4430
895,4459
952,4460
1009,4496
1008,4463
1010,4540
1007,4460
1061,4453
954,4543
896,4475
953,4482
1126,4504
1064,4471
1189,4593
955,4564
950,4439
892,4375
786,4364
836,4357
837,4372
787,4377
700,4457
655,4412
654,4423
653,4395
698,4424
699,4431
608,4384
696,4389
656,4446
833,4305
785,4340
835,4340
693,4314
894,4425
893,4388
1343,65535
1192,65535
1191,65535
828,4325
829,4309
780,4317
830,4337
779,4301
782,4291
529,4160
886,4353
596,4215
556,4184
598,4174
597,4188
526,4123
555,4167
525,4140
524,4106
523,4075
688,4271
607,4378
650,4362
651,4357
652,4387
737,4281
694,4352
695,4361
645,4247
646,4257
690,4273
600,4243
599,4204
781,4288
736,4276
558,4158
644,4232
643,4300
648,4318
692,4301
691,4293
513,4334
541,4393
540,4372
568,4439
530,4189
831,4314
559,4194
560,4235
642,4221
557,4203
496,4041
471,4037
444,3937
446,3975
528,4179
527,4180
562,4279
602,4303
734,4288
466,4389
464,4314
463,4307
478,4374
481,4312
480,4349
479,4349
647,4304
488,4342
502,4189
689,4272
533,4258
532,4237
531,4221
601,4280
484,4368
508,4330
510,4369
509,4341
534,4322
482,4328
506,4280
606,4385
455,4436
429,4381
456,4483
457,4378
428,4392
458,4377
554,4280
594,4248
640,4287
639,4384
551,4103
681,4247
636,4235
635,4209
590,4151
778,4317
777,4322
485,4349
486,4379
462,4367
563,4368
885,4364
943,65535
564,4395
641,4240
504,4210
503,4181
501,4260
500,4300
561,4290
254,4393
350,4344
321,4373
319,4389
251,4430
375,4415
347,4423
687,4309
565,4412
539,4350
511,4413
536,4386
649,4337
603,4354
605,65535
733,4300
735,4279
489,4359
514,4353
461,4431
460,4418
459,4394
468,4386
154,4537
178,4510
203,4480
228,4452
402,4398
401,4422
505,4285
522,4090
451,4381
452,4434
477,4391
476,4355
483,4616
884,4354
431,4344
430,4357
454,4406
595,4187
395,4286
394,4260
422,4341
417,4060
390,4098
538,4368
567,4392
426,4460
397,4373
398,4406
499,4193
475,4391
497,4110
498,4127
311,4240
342,4280
345,4397
421,4258
515,4395
472,4467
448,4428
473,4378
474,4257
353,4402
381,4377
256,4496
290,4450
324,4422
380,4418
407,4392
253,4405
226,4414
201,4440
177,4481
824,4376
775,4347
826,4339
939,4387
936,65535
937,4453
880,4405
566,4400
2821,65535
2834,65535
2833,65535
2789,65535
2790,65535
2770,65535
2788,65535
2776,65535
2795,65535
2775,65535
2794,65535
2825,65535
2824,65535
2826,65535
2811,65535
2812,65535
2796,65535
2827,65535
2858,65535
2855,65535
2849,65535
2838,65535
2814,65535
2813,65535
2828,65535
2839,65535
2791,65535
2792,65535
2803,65535
2830,65535
2815,65535
2819,65535
2818,65535
2817,65535
2831,65535
2810,65535
2829,65535
2783,65535
2820,65535
2804,65535
2785,65535
2784,65535
2762,65535
2768,65535
2751,65535
2750,65535
2733,65535
2769,65535
2720,65535
2761,65535
2741,65535
2837,65535
2793,65535
2808,65535
2753,65535
2736,65535
2735,65535
2809,65535
2772,65535
2845,65535
2844,65535
2848,65535
2777,65535
2778,65535
2779,65535
2759,65535
2780,65535
2797,65535
2843,65535
2832,65535
2842,65535
2758,65535
2738,65535
2774,65535
2773,65535
2771,65535
2851,65535
2847,65535
2854,65535
2721,65535
2756,65535
2737,65535
2840,65535
2752,65535
2754,65535
2755,65535
2852,65535
2853,65535
2856,65535
2841,65535
2742,65535
2727,65535
2744,65535
2726,65535
2743,65535
2725,65535
2746,65535
2787,65535
2766,65535
2763,65535
2765,65535
2745,65535
2764,65535
2552,65535
2501,65535
2443,65535
2442,65535
2320,65535
2381,65535
2382,65535
2498,65535
2499,65535
2438,65535
2439,65535
2497,65535
2441,65535
2379,65535
2380,65535
2319,65535
2551,65535
2550,65535
2563,65535
2321,65535
2322,65535
2383,65535
2384,65535
2446,65535
2445,65535
2503,65535
2385,65535
2504,65535
2505,65535
2557,65535
2558,65535
2559,65535
2560,65535
2564,65535
2562,65535
2561,65535
2605,65535
2609,65535
2565,65535
2566,65535
2515,65535
2397,65535
2457,65535
2458,65535
2401,65535
2337,65535
2336,65535
2399,65535
2398,65535
2402,65535
2333,65535
2273,65535
2219,65535
2218,65535
2159,65535
2454,65535
2393,65535
2512,65535
2502,65535
2608,65535
2156,65535
2155,65535
2154,65535
2213,65535
2212,65535
2211,65535
2210,65535
2264,65535
2324,65535
2323,65535
2030,65535
2094,65535
2157,65535
2450,65535
2388,65535
2387,65535
2326,65535
2266,65535
2265,65535
2508,65535
2396,65535
2335,65535
2334,65535
2158,65535
2279,65535
2278,65535
2222,65535
2221,65535
2276,65535
2275,65535
2261,65535
2207,65535
2149,65535
2554,65535
2599,65535
2633,65535
2664,65535
2689,65535
2690,65535
2691,65535
2692,65535
2152,65535
2089,65535
2088,65535
2025,65535
2603,65535
2602,65535
2556,65535
2693,65535
2671,65535
2670,65535
2694,65535
2553,65535
2665,65535
2705,65535
2710,65535
2668,65535
2639,65535
2463,65535
2521,65535
2572,65535
2451,65535
2390,65535
2391,65535
2392,65535
2215,65535
2268,65535
2093,65535
2092,65535
2028,65535
2024,65535
2150,65535
2086,65535
2209,65535
2023,65535
2087,65535
2148,65535
2262,65535
2327,65535
1560,4770
1630,65535
1631,65535
1559,65535
1629,65535
1558,65535
1634,65535
1633,4799
1482,65535
1481,65535
1699,65535
1700,65535
1701,65535
1563,65535
2070,65535
2008,65535
2009,65535
1959,65535
1958,65535
2006,65535
1957,65535
1956,65535
2193,65535
2132,65535
1912,65535
1911,65535
1865,65535
1866,65535
2007,65535
2069,65535
2010,65535
2011,65535
1961,65535
2072,65535
1913,65535
1867,65535
1962,65535
1914,65535
1915,65535
1909,65535
1636,65535
1635,65535
1564,65535
1702,65535
1637,65535
1638,65535
1565,65535
1486,65535
1760,65535
1704,65535
1703,65535
1763,65535
1762,65535
1817,65535
1705,65535
1863,65535
1815,65535
1759,65535
863,65535
758,65535
808,65535
982,65535
1036,65535
1099,65535
1100,65535
1166,65535
1167,65535
1237,65535
1238,65535
1375,65535
1308,65535
1309,65535
1236,65535
1235,65535
1101,65535
1037,65535
971,65535
1025,65535
1026,65535
1027,65535
1089,65535
720,65535
674,65535
864,65535
865,65535
919,65535
1024,65535
975,65535
974,65535
1028,65535
873,65535
925,65535
924,65535
917,65535
918,65535
623,65535
712,65535
713,65535
667,65535
622,65535
809,65535
719,65535
765,65535
972,65535
868,65535
869,65535
815,65535
920,65535
973,65535
981,65535
926,65535
927,65535
928,65535
1354,65535
1288,65535
1218,65535
1152,65535
1023,65535
1353,65535
1085,65535
1148,65535
1147,65535
1082,65535
772,65535
771,65535
819,65535
584,65535
628,65535
629,65535
1033,65535
978,65535
1031,65535
1030,65535
1029,65535
1091,65535
1035,65535
1034,65535
979,65535
1526,65535
1449,65535
1378,65535
1448,65535
1524,65535
1038,65535
1447,65535
1768,65535
1710,65535
1767,65535
391,4139
365,4172
339,4239
400,4409
393,4224
392,4190
396,4336
399,4429
443,3887
449,4329
450,4363
419,4152
414,3991
415,3953
387,4058
388,4067
389,4083
282,4474
281,4400
314,4323
313,4303
405,4309
411,3827
442,3842
255,4420
376,4393
373,4432
278,4259
275,4310
248,4335
335,4250
334,4227
306,4360
307,4349
176,4454
225,4453
320,4384
249,4519
287,4396
285,4419
776,4336
731,4323
315,4413
316,4428
204,4561
440,4404
439,4403
166,4305
269,4046
383,3949
1247,65535
1246,65535
1384,65535
1679,65535
1178,65535
1105,65535
1172,65535
1173,65535
1242,65535
1241,65535
1314,65535
1313,65535
1171,65535
1382,65535
1243,65535
1317,65535
1107,65535
1108,65535
1109,65535
1041,65535
1043,65535
1042,65535
1044,65535
1176,65535
1174,65535
1177,65535
1110,65535
985,65535
986,65535
932,65535
774,4370
730,4338
825,4392
728,4359
729,4361
727,4261
682,4421
684,4398
685,4307
732,4359
683,4402
2134,65535
2194,65535
2068,65535
2129,65535
1905,65535
1907,65535
1906,65535
1953,65535
2002,65535
2064,65535
2125,65535
2137,65535
2196,65535
2195,65535
1859,65535
1810,65535
1755,65535
2131,65535
2192,65535
1862,65535
1861,65535
1812,65535
1860,65535
1809,65535
1756,65535
1869,65535
1822,65535
1821,65535
1916,65535
1819,65535
1764,65535
1820,65535
1698,65535
1757,65535
1566,65535
1567,4789
1488,4762
1489,65535
1412,65535
1413,65535
1414,65535
1818,65535
1568,65535
1410,4693
2128,65535
2189,65535
2066,65535
2065,65535
2067,65535
1643,65535
1571,65535
1491,65535
2004,65535
2003,65535
1697,65535
2135,65535
2075,65535
1642,65535
1955,65535
2130,65535
2005,65535
1858,65535
1816,65535
1864,65535
1766,65535
1910,65535
1868,65535
2188,65535
2127,65535
1903,65535
2001,65535
2063,65535
2062,65535
1813,65535
1758,65535
1639,65535
1640,65535
1952,65535
2126,65535
1569,65535
1965,65535
1966,65535
2014,65535
1490,65535
1917,65535
1870,65535
1871,65535
1570,65535
1707,65535
2076,65535
2013,65535
1964,65535
1487,4745
1908,65535
2251,65535
2199,65535
2198,65535
2136,65535
1641,65535
1954,65535
1765,65535
1857,65535
2187,65535
1904,65535
1856,65535
1951,65535
1708,65535
245,4110
244,4098
357,3986
246,4135
247,4162
197,4237
223,4215
44,4579
43,4639
3,4775
23,4749
22,4738
63,4521
85,4463
84,4418
108,4384
149,4338
172,4302
296,4298
294,4368
355,4114
354,4146
326,4253
295,4329
291,4557
293,4422
260,4478
356,4174
441,3813
412,0
329,4132
300,4076
148,4480
214,4630
146,4411
110,4663
262,4601
258,4540
292,4462
257,4587
235,4459
187,4464
212,4491
211,4495
186,4576
162,4590
161,4603
165,4358
189,65535
238,65535
237,65535
263,65535
265,65535
266,65535
267,65535
268,4395
26,4739
25,4707
105,65535
62,65535
83,65535
126,4599
175,4520
152,4454
151,4444
150,4403
103,65535
242,4400
191,4570
192,4624
217,4650
218,65535
145,4390
144,4717
167,4332
190,4558
219,65535
159,65535
185,65535
158,65535
188,4447
160,65535
143,65535
122,65535
75,65535
54,65535
198,4648
270,4404
221,4752
301,65535
302,4354
330,4339
331,4307
115,4692
133,4754
139,65535
134,4728
114,4715
48,65535
69,65535
92,4629
164,65535
4,65535
107,4425
129,4510
109,65535
125,65535
124,65535
127,65535
82,65535
67,65535
91,65535
93,65535
137,65535
113,65535
112,65535
136,65535
49,65535
72,65535
71,65535
406,4429
805,65535
858,4786
859,65535
967,65535
1142,65535
1080,65535
1022,65535
1079,4788
968,65535
1206,65535
915,65535
916,65535
914,65535
807,65535
911,65535
1078,4781
1207,65535
1278,65535
1277,65535
1344,65535
1415,65535
1492,65535
1345,65535
1346,65535
1208,65535
1209,65535
1143,65535
1144,65535
1145,65535
1417,65535
1493,65535
1494,65535
1572,65535
1081,65535
970,65535
408,4402
382,4400
437,4395
467,4431
409,4387
403,4374
432,4415
433,4393
404,4391
352,4421
351,4395
349,4383
317,4485
374,4430
346,4437
283,4473
410,4417
438,4400
465,4334
490,4385
491,4402
435,4356
436,4383
379,4474
323,4531
289,4482
377,4379
378,4352
592,4233
593,4273
552,4090
445,3980
424,4406
423,4346
416,4120
361,4178
362,4107
371,4467
372,4449
343,4363
344,4386
286,4412
227,4451
252,4440
284,4435
318,4429
250,4448
312,4247
340,4261
368,4280
369,4314
370,4426
341,4275
367,4313
308,4319
276,4290
277,4287
280,4338
310,4247
338,4216
366,4277
274,4398
305,4477
420,4209
363,4124
418,4216
550,4449
579,4464
576,4418
577,4428
578,4437
520,4423
618,4455
662,4446
619,4461
620,4468
621,4478
665,4497
666,4491
664,4482
580,4489
2260,65535
2257,65535
2206,65535
2146,65535
2314,65535
2313,65535
2312,65535
2373,65535
2256,65535
2205,65535
2434,65535
2435,65535
2375,65535
2376,65535
2433,65535
2491,65535
2490,65535
2492,65535
2546,65535
2597,65535
2596,65535
2544,65535
2145,65535
2082,65535
2020,65535
2494,65535
0,65535
11,65535
1052,65535
1053,65535
941,65535
1740,65535
1796,65535
1615,65535
1681,65535
1545,65535
1797,65535
1544,65535
1741,65535
1795,65535
1617,65535
1546,65535
1616,65535
1683,65535
1467,65535
1547,65535
1465,65535
1387,65535
1388,65535
1464,65535
1462,65535
1461,65535
1542,65535
1463,65535
1682,65535
1543,65535
1618,65535
1742,65535
1460,65535
1248,65535
1850,65535
1801,65535
1803,65535
882,4339
881,4348
938,4398
883,4359
940,65535
1998,65535
1902,65535
1807,65535
1691,65535
1694,65535
1693,65535
1749,65535
1752,65535
1753,65535
1627,65535
1628,65535
1557,65535
1479,4763
1402,4738
1808,65535
1946,65535
1947,65535
1948,65535
1997,65535
1855,65535
1690,65535
2060,65535
1949,65535
1950,65535
1751,65535
1692,65535
1999,65535
1901,65535
1900,65535
1852,65535
1853,65535
1805,65535
1750,65535
1854,65535
1806,65535
1748,65535
2061,65535
2000,65535
1804,65535
1899,65535
2884,65535
2892,65535
2883,65535
2876,65535
2874,65535
2882,65535
2877,65535
2911,65535
2905,65535
2906,65535
2896,65535
2887,65535
2881,65535
2880,65535
2888,65535
2902,65535
2903,65535
2907,65535
2912,65535
2895,65535
2894,65535
2875,65535
2885,65535
2893,65535
2904,65535
2865,65535
2866,65535
2909,65535
2913,65535
2886,65535
2878,65535
2869,65535
2871,65535
2872,65535
2879,65535
2870,65535
1330,65535
1331,4766
1401,4757
1262,4765
1263,4761
1478,4745
1403,4729
1261,65535
1480,65535
1264,4768
1390,65535
1389,65535
1319,65535
1251,65535
1250,65535
1285,65535
1284,65535
1214,65535
1146,65535
1505,65535
1504,65535
1582,65535
1581,65535
1713,65535
1771,65535
1654,65535
1653,65535
1651,65535
2096,65535
2033,65535
1972,65535
1923,65535
1922,65535
1874,65535
1873,65535
1919,65535
1829,65535
1579,65535
1424,65535
1711,65535
1348,65535
1419,65535
1359,65535
1429,65535
1428,65535
1421,65535
1577,65535
1499,65535
1230,65535
1365,65535
1511,65535
1300,65535
1366,65535
1512,65535
1716,65535
1503,65535
1276,65535
1347,65535
1349,65535
1645,65535
1578,65535
1770,65535
1715,65535
1150,65535
1217,65535
1149,65535
1580,65535
1352,65535
1502,65535
1825,65535
1718,65535
1717,65535
1872,65535
1656,65535
1648,65535
1712,65535
1213,65535
1212,65535
1084,65535
1420,65535
1281,65535
1282,65535
1587,65535
1586,65535
1585,65535
1652,65535
1427,65535
1975,65535
1977,65535
1932,65535
1931,65535
1426,65535
1422,65535
1425,65535
1583,65535
1501,65535
1283,65535
1286,65535
1215,65535
1211,65535
1210,65535
1083,65535
1655,65535
2220,65535
1355,65535
1772,65535
1436,65535
1435,65535
1589,65535
1163,65535
1735,65535
1791,65535
1841,65535
1840,65535
1219,65535
1220,65535
1647,65535
1646,65535
1279,65535
1714,65535
1575,65535
1576,65535
1498,65535
1573,65535
1496,65535
1497,65535
2177,65535
2176,65535
2294,65535
2293,65535
2237,65535
2236,65535
2364,65535
2302,65535
2301,65535
2245,65535
2056,65535
2057,65535
2055,65535
2184,65535
2120,65535
2244,65535
2538,65535
2537,65535
2591,65535
1940,65535
1989,65535
1990,65535
2539,65535
2482,65535
2483,65535
2424,65535
2121,65535
2119,65535
2050,65535
2049,65535
2048,65535
2185,65535
2243,65535
2299,65535
2241,65535
2485,65535
2542,65535
2353,65535
2292,65535
2419,65535
2478,65535
2479,65535
2536,65535
2484,65535
2486,65535
2354,65535
2416,65535
2242,65535
2355,65535
2300,65535
1991,65535
1992,65535
2477,65535
2534,65535
2535,65535
2588,65535
2587,65535
2630,65535
2051,65535
2116,65535
2175,65535
2586,65535
2541,65535
2178,65535
2179,65535
2240,65535
2239,65535
2238,65535
2052,65535
2053,65535
1987,65535
1988,65535
1939,65535
2594,65535
2593,65535
2358,65535
2357,65535
2420,65535
2247,65535
2427,65535
2428,65535
2181,65535
2180,65535
2417,65535
2590,65535
2297,65535
2361,65535
2362,65535
2423,65535
2422,65535
2174,65535
2356,65535
1941,65535
2365,65535
2112,65535
2047,65535
2182,65535
2359,65535
2533,65535
2295,65535
2115,65535
2632,65535
2631,65535
2186,65535
2298,65535
2360,65535
2235,65535
2291,65535
2487,65535
2246,65535
2425,65535
2117,65535
2543,65535
1893,65535
2421,65535
2476,65535
2592,65535
604,65535
