middle_point_id,reach_time_minutes
2835,65535
2836,65535
2806,65535
2822,65535
2823,65535
2807,65535
2846,65535
887,1026
888,1009
1326,1180
1185,1105
999,1130
1057,1157
1552,1585
1120,1134
1473,1595
944,1176
832,993
1257,1156
1396,1473
1622,1615
1327,1238
1184,1135
1183,1149
1324,1351
1255,1373
1394,1465
1252,1247
1253,1216
1182,1201
1328,65535
1470,1445
1321,1263
1322,1273
1323,1397
1391,1327
1551,1549
1393,1441
1472,1515
1471,1480
1181,1454
1118,1259
1059,1068
1121,1095
1469,1425
1468,1383
1548,1419
1325,1225
1625,1612
1623,1606
1258,1193
1256,1274
791,1055
891,1089
703,1013
704,1022
660,1018
1553,1587
1624,1627
1554,1612
1474,1600
1475,1653
1550,1541
1549,1484
1320,1329
1466,1363
1541,1720
1318,1405
1249,1428
1186,1136
1003,1065
1002,1060
741,1001
788,1028
434,420
697,1085
752,1035
1056,1152
1006,1125
907,1173
518,952
1011,1246
1000,1040
1055,1622
997,1591
994,1485
996,1557
995,1541
991,1332
1112,3965
1114,1572
1051,1535
1398,1692
1395,1457
1001,1051
1811,1516
1960,1691
1769,1582
1823,1600
1329,65535
1332,1392
1259,1736
1200,1261
1199,1255
1140,1284
1141,1297
783,986
1689,1649
1802,1700
1945,2876
2183,3358
2418,3864
1994,2912
1995,3308
2059,2251
1621,65535
1555,1567
1754,1601
1180,2303
1106,2565
933,2726
827,1073
2122,4099
2124,1769
493,948
519,954
544,960
545,959
494,960
470,980
543,958
469,944
517,948
574,960
573,971
495,996
546,963
613,989
612,998
492,942
572,962
571,979
570,988
610,1010
575,986
547,998
516,968
611,1041
542,965
569,1058
609,1026
548,1070
549,1099
1404,1312
1405,1306
1266,1275
1193,1187
743,1054
742,1019
747,1051
746,1060
745,1068
744,1048
790,1044
789,1039
839,1068
838,1044
738,980
739,1011
740,1010
890,1067
834,991
784,1002
889,1037
856,1285
855,1260
854,1267
853,1298
852,1190
910,1252
909,1241
908,1178
964,1182
965,1194
1020,1223
966,1258
963,1174
1021,1364
1271,1262
1270,1259
1339,1267
1338,1280
1071,1214
1072,1218
1135,1238
1408,1303
1337,1297
1269,1285
1268,1279
1136,1302
1075,1280
1077,1281
1076,1254
1019,1247
1018,1275
1074,1292
1137,1344
1272,1273
1274,1336
1275,1370
1205,1412
1204,1379
1273,1307
1198,1271
1197,1306
1341,1362
1134,1253
1133,1248
1069,1234
1132,1244
1073,1227
1203,1363
1202,1305
1201,1278
1139,1302
1267,1271
1138,1376
1340,1273
1196,1259
1342,1349
1409,1279
1485,1328
1407,1329
1561,1407
1632,1412
1484,1369
1483,1365
1562,1397
1194,1196
1130,1190
1195,1213
1335,1291
1129,1178
1066,1171
1128,1174
1067,1252
1131,1219
1334,1394
1336,1283
1265,1295
1333,1382
1406,1305
857,1788
803,3082
804,6559
860,6567
969,6520
913,6507
912,6445
861,6577
806,6620
659,1015
751,1028
658,996
705,1025
702,1016
706,1052
753,1047
614,1002
701,1039
661,1027
616,1028
848,1082
796,1051
797,1068
798,1066
750,1033
707,1113
615,1061
748,1021
845,1081
846,1065
657,1006
749,1027
795,1061
617,1071
663,1136
794,1078
847,1084
849,1110
902,1090
901,1077
900,1126
793,1068
899,1191
898,1156
897,1135
844,1093
842,1078
841,1062
956,1767
792,1058
843,1099
840,1085
850,1117
903,1097
800,1106
755,1133
756,1183
710,1213
711,1258
962,1163
961,1156
904,1102
906,1163
851,1167
802,1153
801,1117
799,1083
959,1113
1014,1187
1013,1240
708,1723
709,1698
754,1087
757,1211
1017,1284
1016,1222
960,1141
905,1116
958,1158
957,1147
1070,1221
1015,1169
1012,1280
1068,1242
1005,1086
1004,1070
1060,1070
1063,1128
1065,1156
1127,1190
1062,1130
1124,1106
1123,1092
1125,1123
1188,1191
1122,1073
1058,1094
947,1073
946,1052
949,1064
945,1023
948,1084
1190,1298
1187,1151
951,1120
895,1098
952,1141
1009,1193
1008,1146
1010,1251
1007,1134
1061,1093
954,1183
896,1107
953,1117
1126,1173
1064,1132
1189,1233
955,1781
950,1107
892,1045
786,1048
836,1045
837,1040
787,1025
700,1070
655,1097
654,1074
653,1068
698,1068
699,1084
608,1011
696,1057
656,1094
833,988
785,1018
835,1049
693,985
894,1072
893,1051
1343,1343
1192,1466
1191,1475
828,1078
829,1064
780,1017
830,1059
779,1061
782,991
529,936
886,1002
596,955
556,923
598,1000
597,945
526,870
555,900
525,859
524,828
523,442
688,1026
607,1008
650,1063
651,1032
652,1028
737,988
694,1012
695,1004
645,1014
646,1008
690,1004
600,1033
599,991
781,996
736,1000
558,941
644,998
643,1020
648,961
692,974
691,998
513,918
541,951
540,923
568,1005
530,949
831,1010
559,954
560,997
642,964
557,920
496,371
471,340
444,312
446,279
528,910
527,889
562,927
602,950
734,1020
466,891
464,869
463,895
478,923
481,919
480,932
479,946
647,1028
488,897
502,917
689,1031
533,936
532,915
531,921
601,960
484,498
508,889
510,851
509,864
534,898
482,905
506,970
606,1025
455,1000
429,882
456,1103
457,951
428,862
458,895
554,931
594,1071
640,1047
639,1149
551,853
681,921
636,912
635,899
590,874
778,1085
777,1069
485,493
486,484
462,794
563,936
885,1064
943,2291
564,997
641,983
504,994
503,957
501,934
500,957
561,971
254,960
350,912
321,921
319,912
251,975
375,636
347,871
687,1039
565,975
539,942
511,894
536,940
649,991
603,1007
605,1406
733,1034
735,1007
489,894
514,909
461,956
460,985
459,961
468,927
154,1105
178,1086
203,1063
228,1027
402,571
401,863
505,925
522,847
451,361
452,844
477,916
476,902
483,1066
884,1114
431,495
430,864
454,933
595,915
395,280
394,234
422,269
417,212
390,165
538,964
567,995
426,901
397,777
398,808
499,1053
475,994
497,827
498,886
311,281
342,320
345,882
421,246
515,990
472,936
448,967
473,992
474,1037
353,919
381,913
256,1041
290,991
324,929
380,946
407,874
253,1021
226,1048
201,1074
177,1111
824,1076
775,1047
826,1077
939,1147
936,1318
937,1213
880,1121
566,1095
2821,65535
2834,65535
2833,65535
2789,65535
2790,65535
2770,65535
2788,65535
2776,65535
2795,65535
2775,65535
2794,65535
2825,65535
2824,65535
2826,65535
2811,65535
2812,65535
2796,65535
2827,65535
2858,65535
2855,65535
2849,65535
2838,65535
2814,65535
2813,65535
2828,65535
2839,65535
2791,65535
2792,65535
2803,65535
2830,65535
2815,65535
2819,65535
2818,65535
2817,65535
2831,65535
2810,65535
2829,65535
2783,65535
2820,65535
2804,65535
2785,65535
2784,65535
2762,65535
2768,65535
2751,65535
2750,65535
2733,65535
2769,65535
2720,65535
2761,65535
2741,65535
2837,65535
2793,65535
2808,65535
2753,65535
2736,65535
2735,65535
2809,65535
2772,65535
2845,65535
2844,65535
2848,65535
2777,65535
2778,65535
2779,65535
2759,65535
2780,65535
2797,65535
2843,65535
2832,65535
2842,65535
2758,65535
2738,65535
2774,65535
2773,65535
2771,65535
2851,65535
2847,65535
2854,65535
2721,65535
2756,65535
2737,65535
2840,65535
2752,65535
2754,65535
2755,65535
2852,65535
2853,65535
2856,65535
2841,65535
2742,65535
2727,65535
2744,65535
2726,65535
2743,65535
2725,65535
2746,65535
2787,65535
2766,65535
2763,65535
2765,65535
2745,65535
2764,65535
2552,65535
2501,65535
2443,65535
2442,65535
2320,65535
2381,65535
2382,65535
2498,65535
2499,65535
2438,65535
2439,65535
2497,65535
2441,65535
2379,65535
2380,65535
2319,65535
2551,65535
2550,65535
2563,7077
2321,6613
2322,6582
2383,6594
2384,6800
2446,6842
2445,6849
2503,6868
2385,6833
2504,7198
2505,7220
2557,7244
2558,7269
2559,7293
2560,7257
2564,7425
2562,7145
2561,7185
2605,7200
2609,7472
2565,7548
2566,7564
2515,7575
2397,5959
2457,7605
2458,7627
2401,6036
2337,5872
2336,5876
2399,5918
2398,5939
2402,6096
2333,6096
2273,6131
2219,6155
2218,6167
2159,6192
2454,6784
2393,6750
2512,7044
2502,7036
2608,7463
2156,6314
2155,6346
2154,6375
2213,6391
2212,6403
2211,6451
2210,6492
2264,6499
2324,6533
2323,6549
2030,65535
2094,65535
2157,6278
2450,7441
2388,7490
2387,7558
2326,7595
2266,7630
2265,6974
2508,7412
2396,6028
2335,6046
2334,6057
2158,6217
2279,8186
2278,8150
2222,8119
2221,8101
2276,8083
2275,3999
2261,6806
2207,6843
2149,65535
2554,6926
2599,6958
2633,7004
2664,8691
2689,8749
2690,8855
2691,8893
2692,8926
2152,6487
2089,6566
2088,6554
2025,6699
2603,65535
2602,65535
2556,65535
2693,65535
2671,65535
2670,65535
2694,65535
2553,65535
2665,65535
2705,65535
2710,65535
2668,65535
2639,65535
2463,6106
2521,6142
2572,6165
2451,7326
2390,7295
2391,7115
2392,7078
2215,7320
2268,65535
2093,65535
2092,65535
2028,65535
2024,8377
2150,7803
2086,7851
2209,7785
2023,7953
2087,7906
2148,8119
2262,6792
2327,65535
1560,1433
1630,1451
1631,1419
1559,1470
1629,1522
1558,1473
1634,1416
1633,1412
1482,1342
1481,1416
1699,1422
1700,1438
1701,1421
1563,1404
2070,1743
2008,1707
2009,1708
1959,1689
1958,1674
2006,1699
1957,1670
1956,1663
2193,2356
2132,2327
1912,1691
1911,1665
1865,1612
1866,1711
2007,1737
2069,1772
2010,1713
2011,1739
1961,1705
2072,1729
1913,1777
1867,1808
1962,1738
1914,1804
1915,1760
1909,1698
1636,1451
1635,1440
1564,1421
1702,1470
1637,1457
1638,1426
1565,1425
1486,1391
1760,1494
1704,1482
1703,1468
1763,1514
1762,1487
1817,1491
1705,1507
1863,1576
1815,1542
1759,1457
863,2768
758,2861
808,2812
982,2983
1036,2990
1099,3025
1100,3053
1166,3454
1167,3949
1237,3606
1238,3641
1375,3711
1308,3780
1309,3689
1236,3907
1235,3541
1101,3084
1037,3021
971,2564
1025,2547
1026,2562
1027,2575
1089,2588
720,2824
674,2870
864,2650
865,2671
919,2566
1024,2511
975,2685
974,2655
1028,2610
873,3010
925,2956
924,2933
917,2630
918,2606
623,3045
712,2917
713,2950
667,2955
622,3013
809,2798
719,2798
765,2759
972,2596
868,2708
869,2720
815,2739
920,2854
973,2641
981,2934
926,3035
927,3043
928,3067
1354,2517
1288,2501
1218,2477
1152,2546
1023,2475
1353,2501
1085,2455
1148,2385
1147,2378
1082,2329
772,3096
771,3053
819,3028
584,2944
628,2911
629,2900
1033,2831
978,2786
1031,2759
1030,2713
1029,2696
1091,2673
1035,2912
1034,2855
979,2813
1526,3830
1449,3868
1378,3896
1448,3819
1524,3797
1038,3068
1447,3860
1768,1593
1710,1535
1767,1545
391,157
365,216
339,276
400,846
393,209
392,175
396,804
399,894
443,327
449,215
450,338
419,177
414,330
415,273
387,266
388,204
389,187
282,1020
281,864
314,404
313,384
405,854
411,1234
442,1193
255,970
376,874
373,893
278,296
275,818
248,906
335,285
334,257
306,323
307,807
176,1096
225,1034
320,929
249,1092
287,932
285,956
776,1033
731,1023
315,873
316,888
204,1104
440,960
439,967
166,1425
269,1342
383,1280
1247,3910
1246,3932
1384,4016
1679,4178
1178,3903
1105,2569
1172,2588
1173,2638
1242,2640
1241,2632
1314,2789
1313,2695
1171,2614
1382,2895
1243,2837
1317,2976
1107,2577
1108,2756
1109,3041
1041,2586
1043,2796
1042,2787
1044,2850
1176,3804
1174,2863
1177,3852
1110,3859
985,2632
986,2675
932,2693
774,1070
730,1038
825,1092
728,1080
729,1061
727,963
682,1116
684,1098
685,1007
732,1080
683,1462
2134,2321
2194,2322
2068,2171
2129,2225
1905,1621
1907,1582
1906,1588
1953,1632
2002,1684
2064,1720
2125,1739
2137,2561
2196,2515
2195,2462
1859,1523
1810,1566
1755,1475
2131,1753
2192,1790
1862,1722
1861,1568
1812,1513
1860,1537
1809,1640
1756,1465
1869,1604
1822,1589
1821,1622
1916,1642
1819,1547
1764,1533
1820,1555
1698,1428
1757,1470
1566,1508
1567,1409
1488,1382
1489,1399
1412,1355
1413,1361
1414,1382
1818,1521
1568,1499
1410,1313
2128,2256
2189,2283
2066,2221
2065,2210
2067,2222
1643,1514
1571,1466
1491,1429
2004,2251
2003,1785
1697,1449
2135,2273
2075,2197
1642,1492
1955,1630
2130,2440
2005,1730
1858,1582
1816,8008
1864,8001
1766,1538
1910,1748
1868,1595
2188,2635
2127,2604
1903,1703
2001,1813
2063,2262
2062,2274
1813,1476
1758,1456
1639,1438
1640,1480
1952,1705
2126,8090
1569,1505
1965,1749
1966,1795
2014,1812
1490,1394
1917,1656
1870,1645
1871,1659
1570,1451
1707,1488
2076,1878
2013,2246
1964,1753
1487,1365
1908,1835
2251,3201
2199,3145
2198,3008
2136,2260
1641,1513
1954,2266
1765,1549
1857,1630
2187,1885
1904,1681
1856,1681
1951,1742
1708,2283
245,8319
244,8302
357,8306
246,8434
247,8463
197,8557
223,8535
44,8899
43,8959
3,9095
23,9069
22,9058
63,8841
85,8783
84,8738
108,8238
149,8192
172,8583
296,8286
294,8334
355,8434
354,8466
326,8544
295,8443
291,8455
293,8577
260,8463
356,8494
441,8094
412,8117
329,8452
300,8396
148,8166
214,8404
146,8287
110,8368
262,8429
258,8842
292,8605
257,8907
235,8427
187,8327
212,8383
211,8410
186,8331
162,8305
161,8384
165,8283
189,8483
238,8564
237,8529
263,8465
265,8484
266,8462
267,8450
268,8290
26,9059
25,9027
105,65535
62,65535
83,65535
126,8405
175,8840
152,8774
151,8764
150,8723
103,8343
242,8236
191,8190
192,8241
217,8264
218,8317
145,8227
144,8311
167,8219
190,8197
219,8334
159,8431
185,8375
158,8488
188,8319
160,8396
143,65535
122,65535
75,65535
54,65535
198,8968
270,8331
221,8372
301,8429
302,8266
330,8293
331,8315
115,8367
133,8426
139,8323
134,8400
114,8924
48,65535
69,65535
92,8600
164,8393
4,65535
107,8745
129,8830
109,8270
125,8311
124,8285
127,65535
82,65535
67,65535
91,8768
93,8567
137,8702
113,8722
112,8680
136,65535
49,65535
72,65535
71,65535
406,945
805,6610
858,6415
859,6556
967,2034
1142,2169
1080,6255
1022,6296
1079,6288
968,6411
1206,2126
915,6562
916,6597
914,6534
807,6649
911,7756
1078,6512
1207,2184
1278,2228
1277,2231
1344,2251
1415,2292
1492,2347
1345,2308
1346,2278
1208,2176
1209,2256
1143,2293
1144,2309
1145,2324
1417,2304
1493,2364
1494,2383
1572,2398
1081,6581
970,6784
408,893
382,921
437,906
467,912
409,930
403,829
432,873
433,854
404,931
352,946
351,925
349,886
317,1122
374,863
346,909
283,992
410,984
438,920
465,880
490,900
491,912
435,876
436,894
379,996
323,1067
289,1097
377,907
378,880
592,1027
593,1065
552,828
445,317
424,929
423,885
416,930
361,208
362,193
371,804
372,846
343,867
344,889
286,1323
227,1021
252,1014
284,967
318,949
250,1196
312,287
340,303
368,342
369,778
370,932
341,873
367,406
308,907
276,851
277,831
280,307
310,297
338,252
366,233
274,890
305,1092
420,198
363,195
418,0
550,6601
579,6624
576,6569
577,6581
578,6597
520,6577
618,6591
662,6621
619,6608
620,6621
621,6615
665,6597
666,6589
664,6617
580,6636
2260,65535
2257,65535
2206,65535
2146,65535
2314,65535
2313,65535
2312,65535
2373,65535
2256,65535
2205,65535
2434,65535
2435,65535
2375,65535
2376,65535
2433,65535
2491,65535
2490,65535
2492,65535
2546,65535
2597,65535
2596,65535
2544,65535
2145,65535
2082,65535
2020,65535
2494,65535
0,65535
11,65535
1052,1588
1053,1575
941,1615
1740,1591
1796,1617
1615,1456
1681,1517
1545,1375
1797,1654
1544,1395
1741,1649
1795,1690
1617,1441
1546,1428
1616,1451
1683,1484
1467,1355
1547,1413
1465,1439
1387,1435
1388,1415
1464,1502
1462,1579
1461,1600
1542,1664
1463,1543
1682,1592
1543,1503
1618,1455
1742,1675
1460,1766
1248,1541
1850,1719
1801,1728
1803,1674
882,1099
881,1106
938,1158
883,1119
940,2358
1998,2225
1902,1849
1807,1626
1691,1619
1694,1573
1693,2272
1749,1638
1752,1647
1753,1604
1627,1547
1628,1521
1557,1499
1479,1393
1402,1389
1808,1615
1946,2395
1947,2340
1948,2244
1997,2240
1855,1629
1690,1629
2060,2350
1949,2399
1950,1887
1751,1662
1692,1709
1999,2206
1901,2256
1900,2206
1852,2178
1853,2140
1805,1789
1750,1650
1854,1849
1806,1768
1748,1688
2061,2300
2000,2254
1804,1659
1899,2227
2884,65535
2892,65535
2883,65535
2876,65535
2874,65535
2882,65535
2877,65535
2911,65535
2905,65535
2906,65535
2896,65535
2887,65535
2881,65535
2880,65535
2888,65535
2902,65535
2903,65535
2907,65535
2912,65535
2895,65535
2894,65535
2875,65535
2885,65535
2893,65535
2904,65535
2865,65535
2866,65535
2909,65535
2913,65535
2886,65535
2878,65535
2869,65535
2871,65535
2872,65535
2879,65535
2870,65535
1330,1415
1331,1398
1401,1396
1262,1437
1263,1429
1478,1439
1403,1370
1261,1446
1480,1384
1264,1427
1390,1349
1389,1376
1319,1369
1251,1382
1250,1468
1285,2420
1284,2406
1214,2378
1146,2342
1505,2627
1504,2561
1582,2599
1581,2527
1713,2506
1771,2488
1654,2638
1653,2611
1651,2563
2096,3742
2033,3702
1972,3673
1923,3605
1922,3583
1874,3277
1873,2990
1919,2943
1829,5654
1579,2463
1424,2467
1711,2480
1348,2304
1419,2324
1359,2731
1429,2682
1428,2668
1421,2381
1577,2415
1499,2388
1230,2975
1365,2912
1511,2834
1300,2957
1366,2929
1512,2862
1716,2696
1503,2749
1276,2258
1347,2288
1349,2336
1645,2472
1578,2450
1770,2484
1715,2539
1150,2443
1217,2457
1149,2419
1580,2509
1352,2496
1502,2527
1825,2896
1718,2851
1717,2825
1872,2929
1656,2740
1648,2515
1712,2492
1213,2368
1212,2349
1084,2390
1420,2370
1281,2294
1282,2355
1587,2734
1586,2701
1585,2690
1652,2658
1427,2836
1975,3777
1977,3845
1932,3915
1931,4540
1426,2556
1422,2398
1425,2541
1583,2627
1501,2485
1283,2396
1286,2443
1215,2428
1211,2325
1210,2299
1083,2361
1655,2729
2220,3977
1355,5411
1772,2497
1436,2880
1435,2870
1589,2803
1163,3008
1735,4128
1791,4061
1841,4038
1840,3994
1219,2560
1220,2599
1647,2501
1646,2493
1279,2246
1714,2516
1575,2475
1576,2437
1498,2445
1573,2487
1496,2505
1497,2476
2177,3925
2176,3995
2294,3964
2293,4040
2237,3972
2236,4001
2364,3773
2302,3713
2301,3635
2245,3537
2056,3843
2057,3887
2055,3646
2184,3698
2120,3704
2244,3618
2538,4068
2537,4030
2591,4055
1940,3830
1989,3838
1990,3774
2539,4046
2482,4146
2483,3911
2424,3807
2121,3765
2119,3578
2050,3903
2049,3965
2048,4383
2185,3731
2243,3457
2299,3671
2241,3620
2485,3989
2542,4044
2353,4003
2292,3910
2419,3823
2478,3884
2479,3901
2536,3987
2484,3950
2486,3943
2354,3898
2416,4019
2242,3665
2355,3892
2300,3678
1991,3778
1992,3785
2477,3876
2534,3886
2535,3986
2588,3923
2587,3938
2630,3958
2051,3699
2116,3593
2175,4093
2586,65535
2541,4180
2178,3900
2179,3703
2240,3650
2239,3874
2238,3944
2052,3830
2053,3796
1987,4070
1988,4107
1939,4020
2594,4152
2593,4124
2358,3780
2357,3787
2420,3830
2247,3826
2427,3916
2428,3938
2181,3497
2180,3546
2417,3878
2590,4036
2297,3659
2361,3851
2362,3734
2423,3822
2422,3787
2174,4258
2356,3917
1941,3819
2365,3950
2112,4263
2047,4405
2182,3636
2359,3713
2533,4651
2295,3976
2115,3666
2632,4096
2631,4035
2186,3899
2298,3745
2360,3769
2235,4221
2291,4234
2487,4165
2246,3758
2425,4566
2117,3890
2543,4118
1893,65535
2421,3922
2476,3932
2592,4202
604,6586
