middle_point_id,reach_time_minutes
2835,65535
2836,65535
2806,65535
2822,65535
2823,65535
2807,65535
2846,65535
887,283
888,289
1326,781
1185,369
999,498
1057,437
1552,933
1120,358
1473,906
944,438
832,281
1257,496
1396,823
1622,955
1327,904
1184,360
1183,399
1324,874
1255,924
1394,945
1252,1187
1253,1156
1182,1141
1328,65535
1470,1020
1321,1194
1322,1135
1323,1085
1391,1207
1551,952
1393,1060
1472,958
1471,997
1181,1454
1118,1199
1059,310
1121,326
1469,1081
1468,1300
1548,1065
1325,835
1625,1012
1623,946
1258,416
1256,851
791,220
891,251
703,174
704,182
660,178
1553,929
1624,969
1554,954
1474,940
1475,947
1550,962
1549,1014
1320,1252
1466,1304
1541,1720
1318,1366
1249,1389
1186,366
1003,300
1002,315
741,214
788,243
434,128
697,213
752,195
1056,481
1006,285
907,345
518,120
1011,345
1000,333
1055,1622
997,1591
994,1485
996,1557
995,1541
991,1332
1112,3965
1114,1572
1051,1535
1398,972
1395,855
1001,319
1811,908
1960,1063
1769,1031
1823,1044
1329,65535
1332,787
1259,1736
1200,430
1199,428
1140,543
1141,772
783,266
1689,992
1802,1100
1945,1436
2183,1918
2418,2367
1994,1472
1995,1868
2059,1297
1621,65535
1555,967
1754,1064
1180,2303
1106,2565
933,2726
827,428
2122,2333
2124,1136
493,102
519,123
544,122
545,124
494,114
470,100
543,123
469,88
517,107
574,136
573,134
495,119
546,129
613,149
612,158
492,90
572,131
571,139
570,148
610,170
575,145
547,158
516,128
611,201
542,143
569,195
609,183
548,230
549,259
1404,486
1405,460
1266,435
1193,478
743,255
742,222
747,211
746,224
745,233
744,245
790,229
789,240
839,258
838,239
738,262
739,264
740,244
890,281
834,277
784,265
889,287
856,419
855,388
854,373
853,357
852,335
910,398
909,406
908,358
964,352
965,405
1020,436
966,449
963,332
1021,535
1271,431
1270,431
1339,460
1338,467
1071,361
1072,343
1135,372
1408,474
1337,484
1269,443
1268,475
1136,409
1075,429
1077,534
1076,493
1019,462
1018,453
1074,392
1137,444
1272,440
1274,504
1275,770
1205,813
1204,797
1273,476
1198,442
1197,400
1341,466
1134,382
1133,375
1069,367
1132,372
1073,350
1203,801
1202,462
1201,446
1139,497
1267,420
1138,832
1340,493
1196,383
1342,734
1409,883
1485,792
1407,823
1561,777
1632,804
1484,821
1483,735
1562,767
1194,371
1130,360
1195,387
1335,452
1129,355
1066,352
1128,321
1067,378
1131,367
1334,476
1336,434
1265,814
1333,759
1406,466
857,1788
803,3082
804,6559
860,6567
969,6520
913,6507
912,6445
861,6577
806,6620
659,175
751,190
658,156
705,185
702,176
706,211
753,207
614,162
701,199
661,187
616,188
848,242
796,211
797,226
798,226
750,191
707,273
615,221
748,181
845,244
846,225
657,166
749,187
795,221
617,231
663,296
794,238
847,244
849,270
902,250
901,237
900,286
793,233
899,291
898,260
897,275
844,253
842,238
841,228
956,327
792,218
843,248
840,245
850,271
903,257
800,266
755,293
756,343
710,373
711,418
962,323
961,316
904,270
906,336
851,331
802,313
801,277
799,243
959,273
1014,334
1013,372
708,425
709,399
754,315
757,371
1017,424
1016,412
960,301
905,336
958,318
957,371
1070,381
1015,316
1012,363
1068,354
1005,295
1004,311
1060,307
1063,288
1065,311
1127,317
1062,318
1124,376
1123,364
1125,327
1188,405
1122,317
1058,316
947,322
946,368
949,271
945,363
948,265
1190,356
1187,393
951,281
895,280
952,307
1009,359
1008,338
1010,358
1007,290
1061,331
954,343
896,275
953,352
1126,320
1064,292
1189,352
955,341
950,267
892,235
786,223
836,229
837,232
787,237
700,226
655,256
654,226
653,203
698,221
699,231
608,168
696,212
656,254
833,268
785,255
835,251
693,254
894,284
893,245
1343,792
1192,914
1191,875
828,418
829,404
780,350
830,399
779,401
782,271
529,240
886,288
596,309
556,292
598,282
597,277
526,264
555,329
525,296
524,309
523,303
688,319
607,175
650,222
651,196
652,189
737,268
694,233
695,224
645,313
646,288
690,284
600,324
599,317
781,276
736,280
558,268
644,319
643,400
648,300
692,267
691,278
513,120
541,133
540,113
568,190
530,246
831,291
559,247
560,296
642,321
557,259
496,326
471,364
444,432
446,396
528,245
527,253
562,237
602,261
734,300
466,53
464,95
463,126
478,379
481,298
480,329
479,355
647,314
488,137
502,267
689,311
533,301
532,312
531,321
601,253
484,227
508,233
510,224
509,245
534,283
482,326
506,920
606,186
455,410
429,241
456,382
457,276
428,270
458,266
554,466
594,860
640,387
639,870
551,319
681,921
636,912
635,899
590,372
778,425
777,432
485,204
486,183
462,172
563,265
885,348
943,851
564,293
641,359
504,288
503,281
501,281
500,337
561,270
254,249
350,209
321,206
319,249
251,260
375,215
347,263
687,383
565,273
539,139
511,204
536,263
649,387
603,370
605,1406
733,314
735,289
489,85
514,101
461,231
460,261
459,279
468,87
154,393
178,350
203,335
228,305
402,238
401,255
505,310
522,335
451,929
452,923
477,810
476,868
483,296
884,893
431,204
430,217
454,863
595,851
395,422
394,769
422,889
417,869
390,444
538,162
567,191
426,335
397,356
398,322
499,1053
475,994
497,332
498,349
311,254
342,274
345,225
421,807
515,100
472,936
448,967
473,992
474,1037
353,197
381,164
256,301
290,277
324,232
380,173
407,167
253,306
226,331
201,889
177,886
824,896
775,831
826,439
939,847
936,1318
937,913
880,900
566,260
2821,65535
2834,65535
2833,65535
2789,65535
2790,65535
2770,65535
2788,65535
2776,65535
2795,65535
2775,65535
2794,65535
2825,65535
2824,65535
2826,65535
2811,65535
2812,65535
2796,65535
2827,65535
2858,65535
2855,65535
2849,65535
2838,65535
2814,65535
2813,65535
2828,65535
2839,65535
2791,65535
2792,65535
2803,65535
2830,65535
2815,65535
2819,65535
2818,65535
2817,65535
2831,65535
2810,65535
2829,65535
2783,65535
2820,65535
2804,65535
2785,65535
2784,65535
2762,65535
2768,65535
2751,65535
2750,65535
2733,65535
2769,65535
2720,65535
2761,65535
2741,65535
2837,65535
2793,65535
2808,65535
2753,65535
2736,65535
2735,65535
2809,65535
2772,65535
2845,65535
2844,65535
2848,65535
2777,65535
2778,65535
2779,65535
2759,65535
2780,65535
2797,65535
2843,65535
2832,65535
2842,65535
2758,65535
2738,65535
2774,65535
2773,65535
2771,65535
2851,65535
2847,65535
2854,65535
2721,65535
2756,65535
2737,65535
2840,65535
2752,65535
2754,65535
2755,65535
2852,65535
2853,65535
2856,65535
2841,65535
2742,65535
2727,65535
2744,65535
2726,65535
2743,65535
2725,65535
2746,65535
2787,65535
2766,65535
2763,65535
2765,65535
2745,65535
2764,65535
2552,65535
2501,65535
2443,65535
2442,65535
2320,65535
2381,65535
2382,65535
2498,65535
2499,65535
2438,65535
2439,65535
2497,65535
2441,65535
2379,65535
2380,65535
2319,65535
2551,65535
2550,65535
2563,7077
2321,3733
2322,3702
2383,3714
2384,4425
2446,4468
2445,4476
2503,4495
2385,4459
2504,7198
2505,7220
2557,7244
2558,7269
2559,7293
2560,7257
2564,7033
2562,7145
2561,7185
2605,7200
2609,4784
2565,4729
2566,4714
2515,4659
2397,3079
2457,4640
2458,4624
2401,3251
2337,2992
2336,2996
2399,3038
2398,3059
2402,3285
2333,3216
2273,3251
2219,3275
2218,3287
2159,3312
2454,5344
2393,5310
2512,7044
2502,7829
2608,7463
2156,3434
2155,3466
2154,3495
2213,3511
2212,3523
2211,3571
2210,3612
2264,3619
2324,3653
2323,3669
2030,65535
2094,65535
2157,3398
2450,7441
2388,7490
2387,7558
2326,7595
2266,3800
2265,3755
2508,7412
2396,3148
2335,3166
2334,3177
2158,3337
2279,6865
2278,6829
2222,6798
2221,6780
2276,6762
2275,2364
2261,5247
2207,6105
2149,6164
2554,4547
2599,4577
2633,4615
2664,4650
2689,4687
2690,4713
2691,4729
2692,4753
2152,5858
2089,6566
2088,5904
2025,6699
2603,65535
2602,65535
2556,65535
2693,6692
2671,8475
2670,8455
2694,8414
2553,65535
2665,65535
2705,65535
2710,65535
2668,65535
2639,65535
2463,6106
2521,6142
2572,6165
2451,7326
2390,7295
2391,7115
2392,5752
2215,7320
2268,65535
2093,65535
2092,65535
2028,65535
2024,5934
2150,3972
2086,4002
2209,3959
2023,5073
2087,5026
2148,8119
2262,5232
2327,65535
1560,785
1630,841
1631,812
1559,848
1629,971
1558,873
1634,899
1633,802
1482,808
1481,823
1699,819
1700,846
1701,874
1563,867
2070,1078
2008,1074
2009,1074
1959,1054
1958,1112
2006,1151
1957,1146
1956,1126
2193,1267
2132,1209
1912,1092
1911,1045
1865,1087
1866,1179
2007,1147
2069,1182
2010,1091
2011,1140
1961,1106
2072,1129
1913,1179
1867,1230
1962,1140
1914,1166
1915,1170
1909,1214
1636,857
1635,881
1564,894
1702,865
1637,864
1638,885
1565,848
1486,825
1760,958
1704,888
1703,873
1763,916
1762,901
1817,1047
1705,924
1863,1039
1815,1006
1759,887
863,1328
758,1421
808,1372
982,1543
1036,1550
1099,1585
1100,1613
1166,2014
1167,2509
1237,2166
1238,2201
1375,2271
1308,2340
1309,2249
1236,2467
1235,2101
1101,1644
1037,1581
971,1124
1025,1107
1026,1122
1027,1135
1089,1148
720,1384
674,1430
864,1210
865,1231
919,1126
1024,1071
975,1245
974,1215
1028,1170
873,1570
925,1516
924,1493
917,1190
918,1166
623,1605
712,1477
713,1510
667,1515
622,1573
809,1358
719,1358
765,1319
972,1156
868,1268
869,1280
815,1299
920,1535
973,1201
981,1494
926,1595
927,1603
928,1627
1354,1120
1288,1061
1218,1037
1152,1106
1023,1035
1353,1134
1085,1015
1148,945
1147,938
1082,889
772,1656
771,1613
819,1588
584,1504
628,1471
629,1460
1033,1391
978,1346
1031,1319
1030,1273
1029,1256
1091,1233
1035,1472
1034,1415
979,1373
1526,2390
1449,2428
1378,2456
1448,2379
1524,2357
1038,1628
1447,2420
1768,1038
1710,1016
1767,1163
391,422
365,370
339,322
400,285
393,910
392,894
396,396
399,362
443,991
449,906
450,873
419,879
414,1032
415,939
387,932
388,925
389,870
282,345
281,322
314,340
313,296
405,145
411,1234
442,1193
255,283
376,193
373,250
278,265
275,328
248,375
335,439
334,413
306,385
307,362
176,916
225,331
320,224
249,374
287,226
285,283
776,442
731,499
315,278
316,260
204,375
440,67
439,42
166,1425
269,1342
383,1280
1247,3910
1246,3932
1384,4016
1679,4178
1178,3903
1105,2569
1172,2588
1173,2638
1242,2640
1241,2632
1314,2789
1313,2695
1171,2614
1382,2895
1243,2837
1317,2976
1107,2577
1108,2756
1109,3041
1041,2586
1043,2796
1042,2787
1044,2850
1176,3804
1174,2863
1177,3852
1110,3859
985,2632
986,2675
932,2693
774,890
730,787
825,495
728,879
729,821
727,963
682,876
684,858
685,778
732,840
683,862
2134,1368
2194,1391
2068,1213
2129,1267
1905,972
1907,1012
1906,970
1953,992
2002,1011
2064,1035
2125,1110
2137,1827
2196,1498
2195,1444
1859,955
1810,960
1755,909
2131,1264
2192,1300
1862,1176
1861,1020
1812,993
1860,1037
1809,1102
1756,873
1869,1012
1822,1082
1821,1031
1916,1050
1819,965
1764,941
1820,970
1698,826
1757,860
1566,895
1567,898
1488,895
1489,777
1412,768
1413,801
1414,810
1818,975
1568,836
1410,780
2128,1301
2189,1329
2066,1286
2065,1325
2067,1264
1643,892
1571,835
1491,825
2004,1296
2003,1065
1697,855
2135,1583
2075,1445
1642,880
1955,1050
2130,1351
2005,1248
1858,974
1816,8008
1864,8001
1766,1062
1910,1286
1868,1002
2188,1411
2127,1380
1903,1285
2001,1099
2063,1351
2062,1364
1813,996
1758,907
1639,935
1640,911
1952,1044
2126,8090
1569,866
1965,1302
1966,1348
2014,1368
1490,817
1917,1105
1870,1141
1871,1155
1570,833
1707,1098
2076,1435
2013,1400
1964,1354
1487,803
1908,1222
2251,3201
2199,3145
2198,3008
2136,1585
1641,993
1954,1303
1765,1071
1857,1133
2187,1516
1904,1357
1856,1245
1951,1061
1708,1308
245,8319
244,8302
357,8306
246,8434
247,8463
197,8557
223,8535
44,8899
43,8959
3,9095
23,9069
22,9058
63,8841
85,8783
84,8738
108,8238
149,8192
172,8583
296,8286
294,8334
355,8434
354,8466
326,8544
295,8443
291,8455
293,8577
260,8463
356,8494
441,8094
412,8117
329,8452
300,8396
148,8166
214,8404
146,8287
110,8368
262,8429
258,8842
292,8605
257,8907
235,8427
187,8327
212,8383
211,8410
186,8331
162,8305
161,8384
165,8283
189,8483
238,8564
237,8529
263,8465
265,8484
266,8462
267,8450
268,8290
26,9059
25,9027
105,65535
62,65535
83,65535
126,8405
175,8840
152,8774
151,8764
150,8723
103,8343
242,8236
191,8190
192,8241
217,8264
218,8317
145,8227
144,8311
167,8219
190,8197
219,8334
159,8431
185,8375
158,8488
188,8319
160,8396
143,65535
122,65535
75,65535
54,65535
198,8968
270,8331
221,8372
301,8429
302,8266
330,8293
331,8315
115,8367
133,8426
139,8323
134,8400
114,8924
48,65535
69,65535
92,8600
164,8393
4,65535
107,8745
129,8830
109,8270
125,8311
124,8285
127,65535
82,65535
67,65535
91,8768
93,8567
137,8702
113,8722
112,8680
136,65535
49,65535
72,65535
71,65535
406,185
805,6610
858,6415
859,6556
967,594
1142,729
1080,6255
1022,6296
1079,6288
968,6411
1206,686
915,6562
916,6597
914,6534
807,6649
911,7756
1078,6512
1207,744
1278,788
1277,791
1344,811
1415,852
1492,907
1345,868
1346,838
1208,736
1209,816
1143,853
1144,869
1145,884
1417,864
1493,924
1494,943
1572,958
1081,6581
970,6784
408,149
382,158
437,40
467,67
409,124
403,209
432,198
433,188
404,194
352,262
351,221
349,236
317,329
374,255
346,253
283,397
410,24
438,0
465,85
490,72
491,103
435,123
436,90
379,219
323,381
289,411
377,230
378,181
592,1027
593,1065
552,828
445,830
424,377
423,856
416,930
361,847
362,858
371,338
372,308
343,867
344,884
286,976
227,308
252,303
284,269
318,292
250,315
312,266
340,284
368,342
369,436
370,932
341,873
367,406
308,348
276,327
277,308
280,307
310,274
338,345
366,900
274,890
305,1092
420,879
363,852
418,853
550,6601
579,6624
576,6569
577,6581
578,6597
520,6577
618,6591
662,6621
619,6608
620,6621
621,6615
665,6597
666,6589
664,6617
580,6636
2260,65535
2257,65535
2206,65535
2146,65535
2314,65535
2313,65535
2312,65535
2373,65535
2256,65535
2205,65535
2434,65535
2435,65535
2375,65535
2376,65535
2433,65535
2491,65535
2490,65535
2492,65535
2546,65535
2597,65535
2596,65535
2544,65535
2145,65535
2082,65535
2020,65535
2494,65535
0,65535
11,65535
1052,1588
1053,1575
941,1615
1740,1452
1796,1493
1615,1355
1681,1396
1545,1316
1797,1540
1544,1330
1741,1508
1795,1690
1617,1316
1546,1321
1616,1333
1683,1428
1467,1290
1547,1295
1465,1365
1387,1401
1388,1362
1464,1426
1462,1579
1461,1600
1542,1664
1463,1543
1682,1407
1543,1385
1618,1308
1742,1600
1460,1766
1248,1410
1850,1132
1801,1118
1803,1066
882,439
881,479
938,858
883,824
940,2358
1998,1276
1902,1171
1807,1089
1691,1007
1694,973
1693,1132
1749,1098
1752,1047
1753,1004
1627,950
1628,921
1557,899
1479,793
1402,784
1808,1075
1946,1195
1947,1226
1948,1268
1997,1272
1855,1182
1690,986
2060,1375
1949,1407
1950,1262
1751,1090
1692,1109
1999,1289
1901,1415
1900,1456
1852,1605
1853,1484
1805,1226
1750,1050
1854,1250
1806,1168
1748,1030
2061,1416
2000,1414
1804,1306
1899,1625
2884,65535
2892,65535
2883,65535
2876,65535
2874,65535
2882,65535
2877,65535
2911,65535
2905,65535
2906,65535
2896,65535
2887,65535
2881,65535
2880,65535
2888,65535
2902,65535
2903,65535
2907,65535
2912,65535
2895,65535
2894,65535
2875,65535
2885,65535
2893,65535
2904,65535
2865,65535
2866,65535
2909,65535
2913,65535
2886,65535
2878,65535
2869,65535
2871,65535
2872,65535
2879,65535
2870,65535
1330,886
1331,800
1401,796
1262,805
1263,801
1478,837
1403,762
1261,814
1480,782
1264,831
1390,1273
1389,1318
1319,1295
1251,1382
1250,1468
1285,962
1284,966
1214,938
1146,904
1505,1187
1504,1121
1582,1159
1581,1087
1713,1066
1771,1048
1654,1198
1653,1171
1651,1123
2096,2302
2033,2262
1972,2233
1923,2165
1922,2143
1874,1837
1873,1550
1919,1503
1829,2514
1579,1023
1424,1015
1711,1040
1348,864
1419,884
1359,1291
1429,1242
1428,1228
1421,941
1577,975
1499,948
1230,1535
1365,1472
1511,1394
1300,1517
1366,1489
1512,1422
1716,1256
1503,1533
1276,818
1347,848
1349,896
1645,1032
1578,1010
1770,1044
1715,1099
1150,1003
1217,1017
1149,979
1580,1049
1352,1056
1502,1038
1825,1456
1718,1411
1717,1385
1872,1489
1656,1300
1648,1075
1712,1052
1213,928
1212,909
1084,950
1420,930
1281,854
1282,915
1587,1294
1586,1261
1585,1250
1652,1218
1427,1396
1975,2337
1977,2405
1932,2475
1931,3100
1426,1116
1422,958
1425,1101
1583,1187
1501,1045
1283,956
1286,1003
1215,988
1211,885
1210,859
1083,921
1655,1289
2220,2343
1355,5411
1772,1057
1436,1440
1435,1430
1589,1363
1163,1568
1735,2688
1791,2621
1841,2598
1840,2554
1219,1120
1220,1159
1647,1061
1646,1053
1279,806
1714,1076
1575,1035
1576,997
1498,1005
1573,1047
1496,1065
1497,1036
2177,2485
2176,2555
2294,2472
2293,2591
2237,2532
2236,2561
2364,2333
2302,2273
2301,2195
2245,2097
2056,2227
2057,2313
2055,2206
2184,2258
2120,2264
2244,2178
2538,2518
2537,2499
2591,2615
1940,2390
1989,2398
1990,2334
2539,2518
2482,2509
2483,2471
2424,2367
2121,2325
2119,2138
2050,2447
2049,2525
2048,2943
2185,2291
2243,2017
2299,2231
2241,2180
2485,2549
2542,2604
2353,2563
2292,2470
2419,2357
2478,2404
2479,2439
2536,2466
2484,2510
2486,2503
2354,2402
2416,2579
2242,2225
2355,2440
2300,2238
1991,2338
1992,2345
2477,2395
2534,2416
2535,2531
2588,2436
2587,2450
2630,2501
2051,2259
2116,2153
2175,2588
2586,65535
2541,2671
2178,2460
2179,2263
2240,2210
2239,2434
2238,2504
2052,2390
2053,2356
1987,2630
1988,2478
1939,2502
2594,2621
2593,2606
2358,2324
2357,2334
2420,2390
2247,2386
2427,2476
2428,2498
2181,2057
2180,2106
2417,2384
2590,2596
2297,2219
2361,2411
2362,2294
2423,2382
2422,2347
2174,2818
2356,2445
1941,2379
2365,2510
2112,2823
2047,2965
2182,2196
2359,2273
2533,3211
2295,2536
2115,2226
2632,2656
2631,2595
2186,2443
2298,2305
2360,2329
2235,2781
2291,2794
2487,2725
2246,2318
2425,3126
2117,2450
2543,2678
1893,65535
2421,2482
2476,2400
2592,2654
604,6586
