middle_point_id,reach_time_minutes
2835,65535
2836,65535
2806,65535
2822,65535
2823,65535
2807,65535
2846,65535
887,324
888,329
1326,815
1185,538
999,620
1057,590
1552,1345
1120,478
1473,1303
944,338
832,316
1257,775
1396,1199
1622,1375
1327,3784
1184,490
1183,588
1324,1111
1255,1191
1394,1367
1252,888
1253,861
1182,809
1328,65535
1470,1325
1321,921
1322,1033
1323,2405
1391,979
1551,1372
1393,1333
1472,1515
1471,1364
1181,2774
1118,839
1059,430
1121,441
1469,1305
1468,1022
1548,1248
1325,1045
1625,1252
1623,1317
1258,570
1256,851
791,402
891,374
703,495
704,505
660,501
1553,1347
1624,1267
1554,1370
1474,1318
1475,1367
1550,1382
1549,1350
1320,942
1466,984
1541,2515
1318,986
1249,1070
1186,481
1003,437
1002,423
741,339
788,381
434,351
697,439
752,519
1056,631
1006,483
907,725
518,816
1011,945
1000,454
1055,1502
997,1382
994,1288
996,1376
995,1363
991,1332
1112,65535
1114,1334
1051,1315
1398,1692
1395,1290
1001,428
1811,1226
1960,1596
1769,1258
1823,1286
1329,65535
1332,1044
1259,955
1200,898
1199,895
1140,1044
1141,1042
783,314
1689,1347
1802,1460
1945,1801
2183,2419
2418,2837
1994,1835
1995,1868
2059,1417
1621,65535
1555,1207
1754,1319
1180,2303
1106,2470
933,2726
827,353
2122,2659
2124,1499
493,460
519,830
544,821
545,824
494,813
470,892
543,870
469,934
517,826
574,925
573,813
495,896
546,852
613,507
612,513
492,814
572,859
571,903
570,884
610,456
575,956
547,878
516,1002
611,474
542,947
569,860
609,451
548,2229
549,2264
1404,1017
1405,972
1266,959
1193,947
743,452
742,348
747,439
746,437
745,428
744,409
790,399
789,389
839,411
838,359
738,310
739,317
740,324
890,383
834,327
784,323
889,368
856,867
855,840
854,848
853,756
852,747
910,799
909,770
908,765
964,742
965,818
1020,974
966,801
963,726
1021,1009
1271,899
1270,899
1339,907
1338,956
1071,874
1072,868
1135,878
1408,964
1337,948
1269,914
1268,936
1136,942
1075,935
1077,1038
1076,1004
1019,1001
1018,915
1074,960
1137,984
1272,913
1274,976
1275,1010
1205,1052
1204,1019
1273,947
1198,910
1197,974
1341,1003
1134,898
1133,893
1069,930
1132,950
1073,890
1203,1003
1202,945
1201,918
1139,988
1267,946
1138,1016
1340,912
1196,983
1342,989
1409,924
1485,987
1407,975
1561,1046
1632,1052
1484,1033
1483,1044
1562,1052
1194,956
1130,946
1195,972
1335,963
1129,924
1066,895
1128,884
1067,951
1131,950
1334,991
1336,974
1265,1024
1333,1004
1406,1005
857,948
803,982
804,2239
860,2247
969,2200
913,2187
912,2125
861,2257
806,2300
659,496
751,509
658,486
705,508
702,483
706,513
753,567
614,522
701,452
661,517
616,525
848,626
796,517
797,555
798,616
750,518
707,517
615,941
748,523
845,506
846,872
657,492
749,533
795,578
617,912
663,566
794,944
847,648
849,643
902,682
901,794
900,559
793,448
899,511
898,487
897,455
844,474
842,418
841,408
956,927
792,418
843,454
840,418
850,673
903,630
800,679
755,893
756,910
710,973
711,1018
962,753
961,746
904,636
906,715
851,710
802,898
801,737
799,652
959,867
1014,847
1013,1000
708,1794
709,1822
754,639
757,971
1017,903
1016,898
960,694
905,936
958,855
957,954
1070,882
1015,829
1012,944
1068,951
1005,441
1004,432
1060,447
1063,508
1065,565
1127,851
1062,531
1124,495
1123,462
1125,521
1188,510
1122,468
1058,436
947,406
946,368
949,400
945,363
948,397
1190,938
1187,496
951,492
895,473
952,500
1009,920
1008,517
1010,944
1007,493
1061,487
954,949
896,464
953,527
1126,878
1064,535
1189,568
955,931
950,525
892,355
786,334
836,349
837,352
787,357
700,467
655,484
654,470
653,462
698,427
699,453
608,411
696,402
656,530
833,320
785,331
835,348
693,327
894,481
893,393
1343,983
1192,1106
1191,1175
828,362
829,364
780,350
830,399
779,386
782,309
529,205
886,337
596,291
556,322
598,222
597,245
526,223
555,308
525,191
524,175
523,139
688,278
607,504
650,1029
651,910
652,924
737,303
694,337
695,412
645,269
646,277
690,296
600,283
599,244
781,312
736,300
558,208
644,259
643,300
648,331
692,318
691,294
513,922
541,1017
540,1012
568,894
530,228
831,324
559,234
560,889
642,258
557,253
496,96
471,69
444,40
446,46
528,221
527,235
562,319
602,352
734,296
466,951
464,406
463,428
478,382
481,316
480,280
479,360
647,284
488,947
502,229
689,284
533,295
532,275
531,261
601,921
484,495
508,907
510,461
509,917
534,898
482,342
506,984
606,1001
455,1000
429,946
456,1405
457,836
428,1030
458,358
554,273
594,255
640,314
639,276
551,162
681,214
636,208
635,224
590,184
778,389
777,362
485,458
486,427
462,782
563,1089
885,348
943,968
564,893
641,277
504,305
503,269
501,281
500,337
561,916
254,1059
350,1053
321,1032
319,1023
251,1066
375,510
347,1001
687,475
565,919
539,980
511,439
536,941
649,760
603,853
605,1406
733,314
735,312
489,1107
514,999
461,1090
460,1058
459,375
468,431
154,1298
178,1260
203,1231
228,1150
402,489
401,986
505,265
522,159
451,418
452,997
477,936
476,955
483,1066
884,893
431,450
430,1057
454,1001
595,997
395,336
394,291
422,386
417,86
390,134
538,999
567,1113
426,1216
397,842
398,1006
499,231
475,1149
497,132
498,169
311,281
342,320
345,969
421,304
515,1267
472,201
448,232
473,256
474,297
353,463
381,465
256,1099
290,1065
324,489
380,446
407,419
253,1119
226,1168
201,1181
177,1244
824,296
775,313
826,360
939,847
936,1318
937,913
880,401
566,974
2821,65535
2834,65535
2833,65535
2789,65535
2790,65535
2770,65535
2788,65535
2776,65535
2795,65535
2775,65535
2794,65535
2825,65535
2824,65535
2826,65535
2811,65535
2812,65535
2796,65535
2827,65535
2858,65535
2855,65535
2849,65535
2838,65535
2814,65535
2813,65535
2828,65535
2839,65535
2791,65535
2792,65535
2803,65535
2830,65535
2815,65535
2819,65535
2818,65535
2817,65535
2831,65535
2810,65535
2829,65535
2783,65535
2820,65535
2804,65535
2785,65535
2784,65535
2762,65535
2768,65535
2751,65535
2750,65535
2733,65535
2769,65535
2720,65535
2761,65535
2741,65535
2837,65535
2793,65535
2808,65535
2753,65535
2736,65535
2735,65535
2809,65535
2772,65535
2845,65535
2844,65535
2848,65535
2777,65535
2778,65535
2779,65535
2759,65535
2780,65535
2797,65535
2843,65535
2832,65535
2842,65535
2758,65535
2738,65535
2774,65535
2773,65535
2771,65535
2851,65535
2847,65535
2854,65535
2721,65535
2756,65535
2737,65535
2840,65535
2752,65535
2754,65535
2755,65535
2852,65535
2853,65535
2856,65535
2841,65535
2742,65535
2727,65535
2744,65535
2726,65535
2743,65535
2725,65535
2746,65535
2787,65535
2766,65535
2763,65535
2765,65535
2745,65535
2764,65535
2552,65535
2501,65535
2443,65535
2442,65535
2320,65535
2381,65535
2382,65535
2498,65535
2499,65535
2438,65535
2439,65535
2497,65535
2441,65535
2379,65535
2380,65535
2319,65535
2551,65535
2550,65535
2563,65535
2321,65535
2322,65535
2383,65535
2384,65535
2446,65535
2445,65535
2503,65535
2385,65535
2504,65535
2505,65535
2557,65535
2558,65535
2559,65535
2560,65535
2564,65535
2562,65535
2561,65535
2605,65535
2609,65535
2565,65535
2566,65535
2515,4756
2397,4519
2457,4736
2458,4720
2401,65535
2337,4432
2336,4436
2399,4478
2398,4499
2402,65535
2333,4656
2273,4691
2219,4715
2218,4727
2159,4752
2454,65535
2393,65535
2512,65535
2502,65535
2608,65535
2156,65535
2155,65535
2154,65535
2213,65535
2212,65535
2211,65535
2210,65535
2264,65535
2324,65535
2323,65535
2030,65535
2094,65535
2157,65535
2450,65535
2388,65535
2387,65535
2326,65535
2266,65535
2265,65535
2508,65535
2396,4588
2335,4606
2334,4617
2158,4777
2279,65535
2278,65535
2222,65535
2221,65535
2276,65535
2275,3804
2261,65535
2207,65535
2149,65535
2554,65535
2599,65535
2633,65535
2664,65535
2689,65535
2690,65535
2691,65535
2692,65535
2152,65535
2089,65535
2088,65535
2025,65535
2603,65535
2602,65535
2556,65535
2693,65535
2671,65535
2670,65535
2694,65535
2553,65535
2665,65535
2705,65535
2710,65535
2668,65535
2639,65535
2463,65535
2521,65535
2572,65535
2451,65535
2390,65535
2391,65535
2392,65535
2215,65535
2268,65535
2093,65535
2092,65535
2028,65535
2024,65535
2150,65535
2086,65535
2209,65535
2023,65535
2087,65535
2148,65535
2262,65535
2327,65535
1560,1028
1630,1066
1631,1095
1559,1052
1629,1079
1558,1074
1634,1170
1633,1064
1482,982
1481,1021
1699,1095
1700,1071
1701,1160
1563,1112
2070,1618
2008,1614
2009,1614
1959,1602
1958,1601
2006,1584
1957,1567
1956,1464
2193,1762
2132,1701
1912,1608
1911,1614
1865,1444
1866,1527
2007,1648
2069,1654
2010,1626
2011,1669
1961,1573
2072,1669
1913,1586
1867,1579
1962,1564
1914,1539
1915,1534
1909,1574
1636,1116
1635,1180
1564,1138
1702,1189
1637,1139
1638,1135
1565,1082
1486,1064
1760,1363
1704,1300
1703,1126
1763,1292
1762,1168
1817,1207
1705,1227
1863,1444
1815,1411
1759,1366
863,2768
758,2861
808,2812
982,2983
1036,2990
1099,3025
1100,3053
1166,3454
1167,3949
1237,3606
1238,3641
1375,3711
1308,3780
1309,3689
1236,3907
1235,3541
1101,3084
1037,3021
971,2564
1025,2547
1026,2562
1027,2575
1089,2588
720,2824
674,2870
864,2650
865,2671
919,2566
1024,2511
975,2685
974,2655
1028,2610
873,3010
925,2956
924,2933
917,2630
918,2606
623,3045
712,2917
713,2950
667,2955
622,3013
809,2798
719,2798
765,2759
972,2596
868,2708
869,2720
815,2739
920,2975
973,2641
981,2934
926,3035
927,3043
928,3067
1354,2560
1288,2501
1218,2477
1152,2546
1023,2475
1353,2574
1085,2455
1148,2385
1147,2378
1082,2329
772,3096
771,3053
819,3028
584,2944
628,2911
629,2900
1033,2831
978,2786
1031,2759
1030,2713
1029,2696
1091,2673
1035,2912
1034,2855
979,2813
1526,3830
1449,3868
1378,3896
1448,3819
1524,3797
1038,3068
1447,3860
1768,1280
1710,1215
1767,1396
391,174
365,179
339,276
400,911
393,264
392,230
396,804
399,895
443,154
449,274
450,338
419,193
414,157
415,52
387,96
388,106
389,124
282,1138
281,1064
314,404
313,384
405,415
411,212
442,171
255,1079
376,943
373,1010
278,325
275,1054
248,1102
335,285
334,262
306,1066
307,1094
176,1228
225,1123
320,1182
249,1157
287,1156
285,1048
776,313
731,303
315,1020
316,1119
204,1264
440,1008
439,991
166,1425
269,1342
383,1280
1247,65535
1246,65535
1384,65535
1679,65535
1178,3903
1105,2512
1172,2528
1173,2504
1242,3092
1241,2570
1314,3127
1313,3154
1171,2553
1382,4335
1243,2586
1317,4416
1107,2755
1108,3054
1109,3108
1041,2563
1043,3818
1042,3739
1044,4290
1176,3804
1174,4303
1177,3852
1110,3859
985,2632
986,2675
932,2693
774,288
730,333
825,435
728,279
729,325
727,241
682,341
684,978
685,287
732,844
683,2302
2134,2215
2194,2244
2068,1681
2129,1685
1905,1309
1907,1404
1906,1365
1953,1345
2002,1386
2064,1433
2125,1463
2137,2356
2196,2312
2195,2267
1859,1291
1810,1281
1755,1347
2131,1652
2192,1690
1862,1474
1861,1393
1812,1364
1860,1425
1809,1398
1756,1164
1869,1466
1822,1378
1821,1438
1916,1529
1819,1358
1764,1264
1820,1431
1698,1101
1757,1152
1566,1122
1567,1108
1488,1082
1489,1019
1412,999
1413,1005
1414,1009
1818,1378
1568,1074
1410,1010
2128,1676
2189,1721
2066,1539
2065,1523
2067,1638
1643,1207
1571,1145
1491,1098
2004,1501
2003,1459
1697,1205
2135,2237
2075,1678
1642,1184
1955,1442
2130,1788
2005,1526
1858,1295
1816,3688
1864,3681
1766,1452
1910,1614
1868,1472
2188,1801
2127,1771
1903,1379
2001,1469
2063,2262
2062,1430
1813,1376
1758,1314
1639,1310
1640,1141
1952,1388
2126,3770
1569,1084
1965,1633
1966,1679
2014,1784
1490,1037
1917,1656
1870,1454
1871,1468
1570,1184
1707,1404
2076,1698
2013,1634
1964,1586
1487,1041
1908,1835
2251,65535
2199,65535
2198,65535
2136,2260
1641,1237
1954,1523
1765,1425
1857,1342
2187,1885
1904,1357
1856,1365
1951,1355
1708,1412
245,3999
244,3982
357,3986
246,4114
247,4143
197,4237
223,4215
44,4579
43,4639
3,4775
23,4749
22,4738
63,4521
85,4463
84,4418
108,3918
149,3872
172,4263
296,3966
294,4014
355,4114
354,4146
326,4224
295,4123
291,4135
293,4257
260,4143
356,4174
441,3774
412,3797
329,4132
300,4076
148,3846
214,4084
146,3967
110,4048
262,4109
258,4522
292,4285
257,4587
235,4107
187,4007
212,4063
211,4090
186,4011
162,3985
161,4064
165,3963
189,4163
238,4244
237,4209
263,4145
265,4164
266,4142
267,4130
268,3970
26,4739
25,4707
105,65535
62,65535
83,65535
126,4085
175,4520
152,4454
151,4444
150,4403
103,4023
242,3916
191,3870
192,3921
217,3944
218,3997
145,3907
144,3991
167,3899
190,3877
219,4014
159,4111
185,4055
158,4168
188,3999
160,4076
143,65535
122,65535
75,65535
54,65535
198,4648
270,4011
221,4052
301,4109
302,3946
330,3973
331,3995
115,4047
133,4106
139,4003
134,4080
114,4604
48,65535
69,65535
92,4280
164,4073
4,65535
107,4425
129,4510
109,3950
125,3991
124,3965
127,65535
82,65535
67,65535
91,4448
93,4247
137,4382
113,4402
112,4360
136,65535
49,65535
72,65535
71,65535
406,988
805,2290
858,2095
859,2236
967,1972
1142,2109
1080,2115
1022,2106
1079,2124
968,2091
1206,2085
915,2242
916,2277
914,2214
807,2329
911,3436
1078,2192
1207,2184
1278,2228
1277,2231
1344,2251
1415,2292
1492,2347
1345,2308
1346,2278
1208,2176
1209,2256
1143,2293
1144,2309
1145,2324
1417,2304
1493,2364
1494,2383
1572,2398
1081,2261
970,2464
408,444
382,920
437,463
467,1017
409,963
403,991
432,1123
433,1016
404,1036
352,1061
351,1087
349,1066
317,1059
374,1228
346,1247
283,1113
410,973
438,964
465,429
490,471
491,1019
435,400
436,425
379,1595
323,1091
289,1122
377,1069
378,1091
592,184
593,223
552,161
445,0
424,1153
423,968
416,113
361,211
362,147
371,1099
372,1083
343,1109
344,1094
286,1435
227,1143
252,1084
284,1068
318,1190
250,1078
312,1034
340,302
368,342
369,1019
370,1117
341,1091
367,406
308,1070
276,1034
277,1015
280,1098
310,297
338,253
366,272
274,1173
305,1182
420,259
363,195
418,200
550,2281
579,2304
576,2249
577,2261
578,2277
520,2257
618,2271
662,2301
619,2288
620,2301
621,2295
665,2277
666,2269
664,2297
580,2316
2260,65535
2257,65535
2206,65535
2146,65535
2314,65535
2313,65535
2312,65535
2373,65535
2256,65535
2205,65535
2434,65535
2435,65535
2375,65535
2376,65535
2433,65535
2491,65535
2490,65535
2492,65535
2546,65535
2597,65535
2596,65535
2544,65535
2145,65535
2082,65535
2020,65535
2494,65535
0,65535
11,65535
1052,1468
1053,1455
941,1440
1740,2461
1796,2535
1615,2319
1681,2396
1545,2200
1797,2575
1544,2275
1741,2553
1795,2856
1617,2220
1546,2206
1616,2237
1683,2341
1467,994
1547,1089
1465,2180
1387,2247
1388,1021
1464,2264
1462,3019
1461,3040
1542,2931
1463,2983
1682,2528
1543,2396
1618,2277
1742,2654
1460,2730
1248,2262
1850,1492
1801,2178
1803,1426
882,379
881,386
938,858
883,858
940,2358
1998,1359
1902,1313
1807,1266
1691,1344
1694,1213
1693,1381
1749,1338
1752,1287
1753,1244
1627,1191
1628,1161
1557,1139
1479,1056
1402,1045
1808,1255
1946,1555
1947,1490
1948,1373
1997,1369
1855,1305
1690,1327
2060,1375
1949,1407
1950,1334
1751,1330
1692,1349
1999,1349
1901,1415
1900,1456
1852,1605
1853,1484
1805,1346
1750,1343
1854,1320
1806,1306
1748,1387
2061,1416
2000,1414
1804,1426
1899,1625
2884,65535
2892,65535
2883,65535
2876,65535
2874,65535
2882,65535
2877,65535
2911,65535
2905,65535
2906,65535
2896,65535
2887,65535
2881,65535
2880,65535
2888,65535
2902,65535
2903,65535
2907,65535
2912,65535
2895,65535
2894,65535
2875,65535
2885,65535
2893,65535
2904,65535
2865,65535
2866,65535
2909,65535
2913,65535
2886,65535
2878,65535
2869,65535
2871,65535
2872,65535
2879,65535
2870,65535
1330,1115
1331,1054
1401,1066
1262,1086
1263,1069
1478,1077
1403,1007
1261,1151
1480,1067
1264,1063
1390,959
1389,960
1319,951
1251,1017
1250,1092
1285,2401
1284,2406
1214,2378
1146,2344
1505,2627
1504,2561
1582,2599
1581,2527
1713,2506
1771,2488
1654,2638
1653,2611
1651,2563
2096,3742
2033,3702
1972,3673
1923,3605
1922,3583
1874,3277
1873,2990
1919,2943
1829,3954
1579,2463
1424,2504
1711,2480
1348,2304
1419,2324
1359,2731
1429,2682
1428,2668
1421,2381
1577,2415
1499,2388
1230,2975
1365,2912
1511,2834
1300,2957
1366,2929
1512,2862
1716,2696
1503,2973
1276,2258
1347,2288
1349,2336
1645,2472
1578,2450
1770,2484
1715,2539
1150,2443
1217,2457
1149,2419
1580,2509
1352,2496
1502,2527
1825,2896
1718,2851
1717,2825
1872,2929
1656,2740
1648,2515
1712,2492
1213,2368
1212,2349
1084,2390
1420,2370
1281,2294
1282,2355
1587,2734
1586,2701
1585,2690
1652,2658
1427,2836
1975,3777
1977,3845
1932,3915
1931,4540
1426,2556
1422,2398
1425,2541
1583,2627
1501,2485
1283,2396
1286,2443
1215,2428
1211,2325
1210,2299
1083,2361
1655,2729
2220,3783
1355,65535
1772,2497
1436,2880
1435,2870
1589,2803
1163,3008
1735,4128
1791,4061
1841,4038
1840,3994
1219,2560
1220,2599
1647,2501
1646,2493
1279,2246
1714,2516
1575,2475
1576,2437
1498,2445
1573,2487
1496,2505
1497,2476
2177,2762
2176,2827
2294,2887
2293,2908
2237,2868
2236,2890
2364,2738
2302,2668
2301,2649
2245,2604
2056,2477
2057,2641
2055,2472
2184,2811
2120,2734
2244,2431
2538,2939
2537,2919
2591,2956
1940,2780
1989,2764
1990,2720
2539,2962
2482,2968
2483,2937
2424,2932
2121,2913
2119,2449
2050,2859
2049,2881
2048,2943
2185,2806
2243,2444
2299,2669
2241,2669
2485,2899
2542,3011
2353,2954
2292,2930
2419,2828
2478,2836
2479,2853
2536,2880
2484,2954
2486,2847
2354,2878
2416,2970
2242,2491
2355,2845
2300,2798
1991,2803
1992,2544
2477,2879
2534,2914
2535,2870
2588,2935
2587,2950
2630,2990
2051,2626
2116,2594
2175,2878
2586,65535
2541,3082
2178,2728
2179,2699
2240,2699
2239,2770
2238,2825
2052,2670
2053,2765
1987,2848
1988,2768
1939,2774
2594,3084
2593,3056
2358,2726
2357,2769
2420,2879
2247,3061
2427,2832
2428,2890
2181,2489
2180,2541
2417,2858
2590,2935
2297,2702
2361,2926
2362,2870
2423,2905
2422,2764
2174,2971
2356,2835
1941,2802
2365,3147
2112,2899
2047,2965
2182,2501
2359,2692
2533,3211
2295,3051
2115,2637
2632,3061
2631,3000
2186,2768
2298,2529
2360,2584
2235,3661
2291,3674
2487,3070
2246,2989
2425,3126
2117,3087
2543,3097
1893,65535
2421,2972
2476,2886
2592,3071
604,2266
