middle_point_id,reach_time_minutes
2835,65535
2836,65535
2806,65535
2822,65535
2823,65535
2807,65535
2846,65535
887,517
888,525
1326,971
1185,914
999,890
1057,885
1552,1173
1120,869
1473,1123
944,901
832,511
1257,959
1396,1048
1622,1195
1327,978
1184,898
1183,903
1324,1031
1255,964
1394,1089
1252,1187
1253,1156
1182,1141
1328,65535
1470,1257
1321,1194
1322,1161
1323,1205
1391,1207
1551,1192
1393,1180
1472,1438
1471,1233
1181,1454
1118,1199
1059,835
1121,858
1469,1283
1468,1300
1548,1304
1325,1045
1625,1252
1623,1186
1258,960
1256,1034
791,831
891,809
703,869
704,882
660,878
1553,1169
1624,1209
1554,1190
1474,1138
1475,1173
1550,1202
1549,1251
1320,1252
1466,1304
1541,1720
1318,1366
1249,1389
1186,929
1003,825
1002,833
741,560
788,799
434,417
697,847
752,910
1056,889
1006,878
907,1041
518,935
1011,912
1000,867
1055,1622
997,1591
994,1485
996,1557
995,1541
991,1332
1112,3965
1114,1572
1051,1535
1398,1212
1395,1110
1001,848
1811,1327
1960,1547
1769,1467
1823,1477
1329,65535
1332,1062
1259,1736
1200,1017
1199,1015
1140,1116
1141,1117
783,494
1689,1279
1802,1340
1945,1801
2183,3358
2418,3864
1994,1835
1995,1868
2059,1417
1621,65535
1555,1207
1754,1319
1180,2303
1106,2565
933,2726
827,810
2122,4099
2124,1549
493,942
519,939
544,928
545,932
494,946
470,962
543,924
469,944
517,937
574,925
573,912
495,960
546,941
613,892
612,903
492,942
572,919
571,935
570,917
610,892
575,986
547,978
516,952
611,921
542,936
569,899
609,882
548,1010
549,1039
1404,1017
1405,1008
1266,961
1193,945
743,815
742,772
747,845
746,834
745,842
744,840
790,827
789,806
839,859
838,812
738,494
739,509
740,529
890,791
834,503
784,522
889,515
856,1100
855,1080
854,1088
853,1085
852,1076
910,1072
909,1061
908,1047
964,1033
965,1064
1020,1103
966,1083
963,1009
1021,1129
1271,1015
1270,1013
1339,1027
1338,1040
1071,1014
1072,1038
1135,1010
1408,1072
1337,998
1269,985
1268,979
1136,1063
1075,1054
1077,1108
1076,1066
1019,1062
1018,1035
1074,1112
1137,1104
1272,1020
1274,1096
1275,1130
1205,1172
1204,1139
1273,1067
1198,1031
1197,1006
1341,1122
1134,969
1133,965
1069,936
1132,944
1073,1070
1203,1123
1202,1065
1201,1038
1139,1108
1267,971
1138,1130
1340,1033
1196,960
1342,1109
1409,1081
1485,1088
1407,1085
1561,1118
1632,1144
1484,1129
1483,1079
1562,1110
1194,934
1130,929
1195,943
1335,988
1129,918
1066,910
1128,919
1067,919
1131,924
1334,1084
1336,983
1265,957
1333,1059
1406,1005
857,1788
803,3082
804,6559
860,6567
969,6520
913,6507
912,6445
861,6577
806,6620
659,874
751,893
658,885
705,886
702,861
706,903
753,927
614,882
701,857
661,907
616,908
848,961
796,914
797,945
798,946
750,885
707,938
615,941
748,871
845,936
846,926
657,912
749,879
795,899
617,951
663,956
794,864
847,944
849,990
902,958
901,957
900,1006
793,854
899,916
898,895
897,865
844,884
842,838
841,832
956,919
792,841
843,860
840,846
850,997
903,953
800,986
755,1013
756,1063
710,1093
711,1138
962,983
961,976
904,960
906,1039
851,1047
802,1033
801,989
799,963
959,993
1014,1008
1013,1000
708,1723
709,1698
754,967
757,1091
1017,1044
1016,1094
960,1021
905,996
958,1038
957,1027
1070,974
1015,1025
1012,944
1068,916
1005,859
1004,832
1060,842
1063,888
1065,896
1127,917
1062,898
1124,883
1123,870
1125,892
1188,938
1122,871
1058,849
947,829
946,804
949,841
945,787
948,815
1190,938
1187,911
951,872
895,856
952,871
1009,902
1008,887
1010,905
1007,878
1061,847
954,880
896,863
953,873
1126,926
1064,886
1189,997
955,931
950,857
892,835
786,822
836,820
837,815
787,784
700,890
655,891
654,879
653,860
698,854
699,884
608,869
696,786
656,906
833,498
785,811
835,823
693,537
894,884
893,842
1343,1103
1192,1002
1191,1175
828,565
829,534
780,872
830,859
779,521
782,489
529,307
886,521
596,391
556,382
598,362
597,344
526,391
555,819
525,859
524,828
523,366
688,451
607,849
650,847
651,829
652,850
737,483
694,797
695,819
645,434
646,456
690,476
600,425
599,420
781,492
736,480
558,332
644,429
643,883
648,812
692,500
691,474
513,918
541,951
540,923
568,894
530,350
831,774
559,354
560,829
642,378
557,319
496,402
471,438
444,505
446,469
528,300
527,354
562,861
602,824
734,489
466,891
464,869
463,895
478,168
481,273
480,214
479,177
647,464
488,897
502,270
689,480
533,854
532,396
531,861
601,799
484,498
508,889
510,851
509,864
534,898
482,777
506,920
606,905
455,253
429,343
456,492
457,473
428,443
458,792
554,874
594,1043
640,867
639,1009
551,400
681,921
636,912
635,899
590,843
778,764
777,795
485,493
486,484
462,794
563,876
885,836
943,851
564,893
641,395
504,256
503,326
501,227
500,196
561,856
254,960
350,912
321,921
319,912
251,975
375,636
347,871
687,888
565,924
539,942
511,894
536,940
649,837
603,855
605,1406
733,552
735,498
489,894
514,909
461,858
460,834
459,812
468,927
154,1105
178,1086
203,1063
228,1027
402,571
401,839
505,310
522,847
451,45
452,0
477,133
476,106
483,853
884,893
431,380
430,849
454,863
595,851
395,179
394,149
422,86
417,869
390,319
538,947
567,920
426,319
397,242
398,275
499,216
475,156
497,349
498,287
311,294
342,860
345,882
421,174
515,990
472,936
448,967
473,992
474,297
353,919
381,913
256,1041
290,991
324,929
380,946
407,874
253,1021
226,1048
201,1074
177,1111
824,896
775,869
826,829
939,907
936,1318
937,973
880,900
566,1095
2821,65535
2834,65535
2833,65535
2789,65535
2790,65535
2770,65535
2788,65535
2776,65535
2795,65535
2775,65535
2794,65535
2825,65535
2824,65535
2826,65535
2811,65535
2812,65535
2796,65535
2827,65535
2858,65535
2855,65535
2849,65535
2838,65535
2814,65535
2813,65535
2828,65535
2839,65535
2791,65535
2792,65535
2803,65535
2830,65535
2815,65535
2819,65535
2818,65535
2817,65535
2831,65535
2810,65535
2829,65535
2783,65535
2820,65535
2804,65535
2785,65535
2784,65535
2762,65535
2768,65535
2751,65535
2750,65535
2733,65535
2769,65535
2720,65535
2761,65535
2741,65535
2837,65535
2793,65535
2808,65535
2753,65535
2736,65535
2735,65535
2809,65535
2772,65535
2845,65535
2844,65535
2848,65535
2777,65535
2778,65535
2779,65535
2759,65535
2780,65535
2797,65535
2843,65535
2832,65535
2842,65535
2758,65535
2738,65535
2774,65535
2773,65535
2771,65535
2851,65535
2847,65535
2854,65535
2721,65535
2756,65535
2737,65535
2840,65535
2752,65535
2754,65535
2755,65535
2852,65535
2853,65535
2856,65535
2841,65535
2742,65535
2727,65535
2744,65535
2726,65535
2743,65535
2725,65535
2746,65535
2787,65535
2766,65535
2763,65535
2765,65535
2745,65535
2764,65535
2552,65535
2501,65535
2443,65535
2442,65535
2320,65535
2381,65535
2382,65535
2498,65535
2499,65535
2438,65535
2439,65535
2497,65535
2441,65535
2379,65535
2380,65535
2319,65535
2551,65535
2550,65535
2563,7077
2321,6613
2322,6582
2383,6594
2384,6800
2446,6842
2445,6849
2503,6868
2385,6833
2504,7198
2505,7220
2557,7244
2558,7269
2559,7293
2560,7257
2564,7425
2562,7145
2561,7185
2605,7200
2609,7472
2565,7548
2566,7564
2515,7575
2397,5959
2457,7605
2458,7627
2401,6036
2337,5872
2336,5876
2399,5918
2398,5939
2402,6096
2333,6096
2273,6131
2219,6155
2218,6167
2159,6192
2454,6784
2393,6750
2512,7044
2502,7036
2608,7463
2156,6314
2155,6346
2154,6375
2213,6391
2212,6403
2211,6451
2210,6492
2264,6499
2324,6533
2323,6549
2030,65535
2094,65535
2157,6278
2450,7441
2388,7490
2387,7558
2326,7595
2266,7630
2265,6974
2508,7412
2396,6028
2335,6046
2334,6057
2158,6217
2279,8186
2278,8150
2222,8119
2221,8101
2276,8083
2275,3999
2261,6806
2207,6843
2149,65535
2554,6926
2599,6958
2633,7004
2664,8691
2689,8749
2690,8855
2691,8893
2692,8926
2152,6487
2089,6566
2088,6554
2025,6699
2603,65535
2602,65535
2556,65535
2693,65535
2671,65535
2670,65535
2694,65535
2553,65535
2665,65535
2705,65535
2710,65535
2668,65535
2639,65535
2463,6106
2521,6142
2572,6165
2451,7326
2390,7295
2391,7115
2392,7078
2215,7320
2268,65535
2093,65535
2092,65535
2028,65535
2024,8377
2150,7803
2086,7851
2209,7785
2023,7953
2087,7906
2148,8119
2262,6792
2327,65535
1560,1122
1630,1223
1631,1194
1559,1221
1629,1209
1558,1113
1634,1207
1633,1177
1482,1102
1481,1134
1699,1156
1700,1183
1701,1203
1563,1126
2070,1557
2008,1552
2009,1554
1959,1527
1958,1545
2006,1563
1957,1579
1956,1588
2193,1629
2132,1567
1912,1519
1911,1488
1865,1444
1866,1527
2007,1557
2069,1591
2010,1563
2011,1590
1961,1585
2072,1621
1913,1586
1867,1579
1962,1618
1914,1622
1915,1534
1909,1574
1636,1242
1635,1231
1564,1138
1702,1263
1637,1254
1638,1236
1565,1199
1486,1113
1760,1363
1704,1285
1703,1257
1763,1374
1762,1357
1817,1404
1705,1398
1863,1444
1815,1411
1759,1311
863,2768
758,2861
808,2812
982,2983
1036,2990
1099,3025
1100,3053
1166,3454
1167,3949
1237,3606
1238,3641
1375,3711
1308,3780
1309,3689
1236,3907
1235,3541
1101,3084
1037,3021
971,2564
1025,2547
1026,2562
1027,2575
1089,2588
720,2824
674,2870
864,2650
865,2671
919,2566
1024,2511
975,2685
974,2655
1028,2610
873,3010
925,2956
924,2933
917,2630
918,2606
623,3045
712,2917
713,2950
667,2955
622,3013
809,2798
719,2798
765,2759
972,2596
868,2708
869,2720
815,2739
920,2854
973,2641
981,2934
926,3035
927,3043
928,3067
1354,2517
1288,2501
1218,2477
1152,2546
1023,2475
1353,2501
1085,2455
1148,2385
1147,2378
1082,2329
772,3096
771,3053
819,3028
584,2944
628,2911
629,2900
1033,2831
978,2786
1031,2759
1030,2713
1029,2696
1091,2673
1035,2912
1034,2855
979,2813
1526,3830
1449,3868
1378,3896
1448,3819
1524,3797
1038,3068
1447,3860
1768,1470
1710,1428
1767,1458
391,294
365,301
339,369
400,308
393,253
392,280
396,211
399,362
443,991
449,225
450,200
419,360
414,1032
415,496
387,490
388,446
389,377
282,1020
281,950
314,940
313,896
405,854
411,1234
442,1193
255,970
376,874
373,893
278,316
275,871
248,906
335,940
334,944
306,908
307,896
176,1096
225,1034
320,929
249,1092
287,932
285,956
776,816
731,836
315,930
316,909
204,1104
440,960
439,967
166,1425
269,1342
383,1280
1247,3910
1246,3932
1384,4016
1679,4178
1178,3903
1105,2569
1172,2588
1173,2638
1242,2640
1241,2632
1314,2789
1313,2695
1171,2614
1382,2895
1243,2837
1317,2976
1107,2577
1108,2756
1109,3041
1041,2586
1043,2796
1042,2787
1044,2850
1176,3804
1174,2863
1177,3852
1110,3859
985,2632
986,2675
932,2693
774,890
730,847
825,888
728,879
729,860
727,963
682,876
684,858
685,868
732,844
683,922
2134,1720
2194,1741
2068,1681
2129,1685
1905,1466
1907,1507
1906,1446
1953,1428
2002,1442
2064,1479
2125,1511
2137,2356
2196,2312
2195,2267
1859,1380
1810,1410
1755,1347
2131,1652
2192,1690
1862,1474
1861,1393
1812,1364
1860,1463
1809,1398
1756,1280
1869,1481
1822,1500
1821,1479
1916,1529
1819,1427
1764,1407
1820,1431
1698,1223
1757,1268
1566,1231
1567,1193
1488,1150
1489,1145
1412,1121
1413,1128
1414,1113
1818,1446
1568,1163
1410,1102
2128,1676
2189,1721
2066,1563
2065,1523
2067,1638
1643,1412
1571,1345
1491,1260
2004,1551
2003,1502
1697,1240
2135,2237
2075,1678
1642,1381
1955,1550
2130,1788
2005,1615
1858,1443
1816,8008
1864,8001
1766,1452
1910,1614
1868,1472
2188,1801
2127,1771
1903,1391
2001,1451
2063,1439
2062,1430
1813,1376
1758,1313
1639,1339
1640,1358
1952,1388
2126,8090
1569,1317
1965,1633
1966,1679
2014,1784
1490,1272
1917,1561
1870,1524
1871,1534
1570,1308
1707,1404
2076,1698
2013,1634
1964,1586
1487,1151
1908,1835
2251,3201
2199,3145
2198,3008
2136,2260
1641,1513
1954,2266
1765,1425
1857,1451
2187,1885
1904,1430
1856,1365
1951,1355
1708,2283
245,8319
244,8302
357,8306
246,8434
247,8463
197,8557
223,8535
44,8899
43,8959
3,9095
23,9069
22,9058
63,8841
85,8783
84,8738
108,8238
149,8192
172,8583
296,8286
294,8334
355,8434
354,8466
326,8544
295,8443
291,8455
293,8577
260,8463
356,8494
441,8094
412,8117
329,8452
300,8396
148,8166
214,8404
146,8287
110,8368
262,8429
258,8842
292,8605
257,8907
235,8427
187,8327
212,8383
211,8410
186,8331
162,8305
161,8384
165,8283
189,8483
238,8564
237,8529
263,8465
265,8484
266,8462
267,8450
268,8290
26,9059
25,9027
105,65535
62,65535
83,65535
126,8405
175,8840
152,8774
151,8764
150,8723
103,8343
242,8236
191,8190
192,8241
217,8264
218,8317
145,8227
144,8311
167,8219
190,8197
219,8334
159,8431
185,8375
158,8488
188,8319
160,8396
143,65535
122,65535
75,65535
54,65535
198,8968
270,8331
221,8372
301,8429
302,8266
330,8293
331,8315
115,8367
133,8426
139,8323
134,8400
114,8924
48,65535
69,65535
92,8600
164,8393
4,65535
107,8745
129,8830
109,8270
125,8311
124,8285
127,65535
82,65535
67,65535
91,8768
93,8567
137,8702
113,8722
112,8680
136,65535
49,65535
72,65535
71,65535
406,945
805,6610
858,6415
859,6556
967,2034
1142,2169
1080,6255
1022,6296
1079,6288
968,6411
1206,2126
915,6562
916,6597
914,6534
807,6649
911,7756
1078,6512
1207,2184
1278,2228
1277,2231
1344,2251
1415,2292
1492,2347
1345,2308
1346,2278
1208,2176
1209,2256
1143,2293
1144,2309
1145,2324
1417,2304
1493,2364
1494,2383
1572,2398
1081,6581
970,6784
408,893
382,921
437,906
467,912
409,930
403,829
432,873
433,854
404,931
352,946
351,925
349,886
317,1122
374,863
346,909
283,992
410,984
438,920
465,880
490,900
491,912
435,876
436,894
379,996
323,1067
289,1097
377,907
378,880
592,1027
593,1065
552,828
445,830
424,236
423,194
416,930
361,895
362,387
371,265
372,846
343,945
344,936
286,1323
227,1021
252,1014
284,967
318,949
250,1196
312,325
340,263
368,251
369,281
370,932
341,873
367,201
308,907
276,851
277,831
280,953
310,344
338,391
366,900
274,890
305,1092
420,348
363,852
418,320
550,6601
579,6624
576,6569
577,6581
578,6597
520,6577
618,6591
662,6621
619,6608
620,6621
621,6615
665,6597
666,6589
664,6617
580,6636
2260,65535
2257,65535
2206,65535
2146,65535
2314,65535
2313,65535
2312,65535
2373,65535
2256,65535
2205,65535
2434,65535
2435,65535
2375,65535
2376,65535
2433,65535
2491,65535
2490,65535
2492,65535
2546,65535
2597,65535
2596,65535
2544,65535
2145,65535
2082,65535
2020,65535
2494,65535
0,65535
11,65535
1052,1588
1053,1575
941,1615
1740,1452
1796,1493
1615,1355
1681,1396
1545,1316
1797,1540
1544,1330
1741,1508
1795,1690
1617,1330
1546,1321
1616,1333
1683,1428
1467,1290
1547,1316
1465,1365
1387,1401
1388,1362
1464,1426
1462,1579
1461,1600
1542,1664
1463,1543
1682,1407
1543,1385
1618,1390
1742,1600
1460,1766
1248,1410
1850,1354
1801,1353
1803,1321
882,859
881,868
938,919
883,884
940,2358
1998,1359
1902,1313
1807,1266
1691,1247
1694,1213
1693,1381
1749,1278
1752,1287
1753,1244
1627,1191
1628,1161
1557,1139
1479,1091
1402,1061
1808,1255
1946,1435
1947,1466
1948,1373
1997,1369
1855,1305
1690,1226
2060,1375
1949,1407
1950,1334
1751,1330
1692,1349
1999,1349
1901,1415
1900,1456
1852,1605
1853,1484
1805,1346
1750,1290
1854,1320
1806,1306
1748,1314
2061,1416
2000,1414
1804,1306
1899,1625
2884,65535
2892,65535
2883,65535
2876,65535
2874,65535
2882,65535
2877,65535
2911,65535
2905,65535
2906,65535
2896,65535
2887,65535
2881,65535
2880,65535
2888,65535
2902,65535
2903,65535
2907,65535
2912,65535
2895,65535
2894,65535
2875,65535
2885,65535
2893,65535
2904,65535
2865,65535
2866,65535
2909,65535
2913,65535
2886,65535
2878,65535
2869,65535
2871,65535
2872,65535
2879,65535
2870,65535
1330,1115
1331,1073
1401,1066
1262,1100
1263,1069
1478,1077
1403,1056
1261,1151
1480,1067
1264,1063
1390,1273
1389,1318
1319,1295
1251,1382
1250,1468
1285,2420
1284,2406
1214,2378
1146,2342
1505,2627
1504,2561
1582,2599
1581,2527
1713,2506
1771,2488
1654,2638
1653,2611
1651,2563
2096,3742
2033,3702
1972,3673
1923,3605
1922,3583
1874,3277
1873,2990
1919,2943
1829,5654
1579,2463
1424,2467
1711,2480
1348,2304
1419,2324
1359,2731
1429,2682
1428,2668
1421,2381
1577,2415
1499,2388
1230,2975
1365,2912
1511,2834
1300,2957
1366,2929
1512,2862
1716,2696
1503,2749
1276,2258
1347,2288
1349,2336
1645,2472
1578,2450
1770,2484
1715,2539
1150,2443
1217,2457
1149,2419
1580,2509
1352,2496
1502,2527
1825,2896
1718,2851
1717,2825
1872,2929
1656,2740
1648,2515
1712,2492
1213,2368
1212,2349
1084,2390
1420,2370
1281,2294
1282,2355
1587,2734
1586,2701
1585,2690
1652,2658
1427,2836
1975,3777
1977,3845
1932,3915
1931,4540
1426,2556
1422,2398
1425,2541
1583,2627
1501,2485
1283,2396
1286,2443
1215,2428
1211,2325
1210,2299
1083,2361
1655,2729
2220,3977
1355,5411
1772,2497
1436,2880
1435,2870
1589,2803
1163,3008
1735,4128
1791,4061
1841,4038
1840,3994
1219,2560
1220,2599
1647,2501
1646,2493
1279,2246
1714,2516
1575,2475
1576,2437
1498,2445
1573,2487
1496,2505
1497,2476
2177,3925
2176,3995
2294,3964
2293,4040
2237,3972
2236,4001
2364,3773
2302,3713
2301,3635
2245,3537
2056,3843
2057,3887
2055,3646
2184,3698
2120,3704
2244,3618
2538,4068
2537,4030
2591,4055
1940,3830
1989,3838
1990,3774
2539,4046
2482,4146
2483,3911
2424,3807
2121,3765
2119,3578
2050,3903
2049,3965
2048,4383
2185,3731
2243,3457
2299,3671
2241,3620
2485,3989
2542,4044
2353,4003
2292,3910
2419,3823
2478,3884
2479,3901
2536,3987
2484,3950
2486,3943
2354,3898
2416,4019
2242,3665
2355,3892
2300,3678
1991,3778
1992,3785
2477,3876
2534,3886
2535,3986
2588,3923
2587,3938
2630,3958
2051,3699
2116,3593
2175,4093
2586,65535
2541,4180
2178,3900
2179,3703
2240,3650
2239,3874
2238,3944
2052,3830
2053,3796
1987,4070
1988,4107
1939,4020
2594,4152
2593,4124
2358,3780
2357,3787
2420,3830
2247,3826
2427,3916
2428,3938
2181,3497
2180,3546
2417,3878
2590,4036
2297,3659
2361,3851
2362,3734
2423,3822
2422,3787
2174,4258
2356,3917
1941,3819
2365,3950
2112,4263
2047,4405
2182,3636
2359,3713
2533,4651
2295,3976
2115,3666
2632,4096
2631,4035
2186,3899
2298,3745
2360,3769
2235,4221
2291,4234
2487,4165
2246,3758
2425,4566
2117,3890
2543,4118
1893,65535
2421,3922
2476,3932
2592,4202
604,6586
