middle_point_id,reach_time_minutes
2835,65535
2836,65535
2806,65535
2822,65535
2823,65535
2807,65535
2846,65535
887,306
888,298
1326,449
1185,383
999,410
1057,499
1552,694
1120,354
1473,720
944,421
832,290
1257,436
1396,739
1622,835
1327,904
1184,400
1183,406
1324,511
1255,533
1394,627
1252,1343
1253,1381
1182,1425
1328,65535
1470,715
1321,1339
1322,1362
1323,665
1391,1332
1551,712
1393,640
1472,958
1471,676
1181,1934
1118,1439
1059,330
1121,342
1469,808
1468,1260
1548,825
1325,475
1625,652
1623,681
1258,459
1256,554
791,280
891,309
703,255
704,264
660,261
1553,708
1624,667
1554,711
1474,720
1475,757
1550,718
1549,771
1320,1336
1466,1322
1541,2200
1318,1386
1249,1406
1186,375
1003,321
1002,332
741,230
788,276
434,114
697,263
752,280
1056,432
1006,310
907,399
518,206
1011,391
1000,361
1055,2102
997,2071
994,1965
996,2037
995,2021
991,1812
1112,4445
1114,2052
1051,2015
1398,852
1395,750
1001,349
1811,673
1960,1239
1769,760
1823,789
1329,65535
1332,462
1259,2216
1200,454
1199,453
1140,516
1141,517
783,299
1689,798
1802,1200
1945,1916
2183,2398
2418,2847
1994,1952
1995,2348
2059,1477
1621,65535
1555,607
1754,641
1180,1650
1106,3045
933,3206
827,374
2122,2813
2124,1357
493,198
519,211
544,212
545,216
494,210
470,230
543,214
469,206
517,226
574,219
573,225
495,216
546,221
613,237
612,243
492,213
572,219
571,250
570,261
610,290
575,266
547,258
516,263
611,261
542,235
569,282
609,300
548,290
549,319
1404,439
1405,408
1266,375
1193,347
743,261
742,251
747,271
746,284
745,293
744,274
790,284
789,286
839,291
838,279
738,304
739,264
740,242
890,300
834,290
784,279
889,287
856,539
855,505
854,491
853,476
852,416
910,518
909,526
908,418
964,402
965,464
1020,503
966,478
963,394
1021,529
1271,451
1270,449
1339,460
1338,447
1071,434
1072,429
1135,458
1408,463
1337,439
1269,420
1268,410
1136,468
1075,454
1077,508
1076,466
1019,462
1018,435
1074,452
1137,504
1272,480
1274,577
1275,590
1205,597
1204,599
1273,587
1198,469
1197,409
1341,503
1134,452
1133,431
1069,387
1132,384
1073,387
1203,583
1202,582
1201,519
1139,522
1267,388
1138,536
1340,467
1196,401
1342,529
1409,490
1485,469
1407,490
1561,515
1632,539
1484,533
1483,475
1562,506
1194,350
1130,350
1195,357
1335,388
1129,338
1066,332
1128,334
1067,379
1131,377
1334,477
1336,411
1265,357
1333,459
1406,421
857,828
803,3562
804,7039
860,7047
969,7000
913,6987
912,6925
861,7057
806,7100
659,259
751,271
658,249
705,268
702,256
706,286
753,327
614,265
701,259
661,277
616,278
848,309
796,282
797,288
798,306
750,266
707,333
615,281
748,271
845,304
846,293
657,286
749,286
795,281
617,291
663,356
794,344
847,309
849,332
902,337
901,357
900,377
793,293
899,411
898,376
897,363
844,320
842,298
841,288
956,807
792,278
843,319
840,306
850,369
903,317
800,386
755,413
756,463
710,493
711,538
962,383
961,376
904,330
906,392
851,386
802,427
801,389
799,363
959,364
1014,407
1013,448
708,905
709,879
754,435
757,491
1017,401
1016,382
960,338
905,396
958,438
957,385
1070,441
1015,358
1012,396
1068,384
1005,320
1004,311
1060,327
1063,314
1065,327
1127,352
1062,318
1124,384
1123,373
1125,340
1188,411
1122,348
1058,337
947,346
946,368
949,284
945,363
948,309
1190,533
1187,432
951,295
895,296
952,297
1009,408
1008,317
1010,401
1007,313
1061,363
954,463
896,319
953,313
1126,333
1064,327
1189,513
955,821
950,307
892,280
786,274
836,277
837,275
787,266
700,290
655,317
654,286
653,256
698,288
699,312
608,238
696,280
656,314
833,285
785,260
835,272
693,284
894,291
893,283
1343,572
1192,506
1191,515
828,371
829,349
780,350
830,377
779,341
782,300
529,236
886,312
596,317
556,296
598,283
597,287
526,264
555,327
525,355
524,322
523,303
688,332
607,224
650,284
651,257
652,243
737,317
694,249
695,257
645,314
646,336
690,319
600,305
599,300
781,305
736,315
558,270
644,309
643,343
648,258
692,288
691,321
513,194
541,254
540,233
568,323
530,235
831,294
559,248
560,346
642,336
557,259
496,341
471,378
444,445
446,409
528,243
527,280
562,199
602,234
734,328
466,233
464,179
463,175
478,221
481,104
480,186
479,210
647,325
488,209
502,276
689,328
533,178
532,163
531,199
601,351
484,228
508,306
510,311
509,315
534,284
482,90
506,133
606,275
455,244
429,128
456,217
457,197
428,161
458,82
554,440
594,408
640,387
639,424
551,342
681,424
636,412
635,420
590,346
778,355
777,362
485,210
486,232
462,191
563,300
885,344
943,1331
564,383
641,363
504,250
503,269
501,317
500,384
561,321
254,247
350,210
321,291
319,246
251,287
375,186
347,298
687,349
565,336
539,259
511,290
536,328
649,283
603,321
605,663
733,347
735,319
489,262
514,220
461,0
460,25
459,44
468,221
154,404
178,350
203,335
228,305
402,193
401,177
505,204
522,329
451,438
452,389
477,267
476,330
483,526
884,382
431,171
430,150
454,280
595,334
395,364
394,391
422,410
417,412
390,395
538,266
567,251
426,422
397,298
398,249
499,463
475,402
497,330
498,357
311,254
342,263
345,220
421,458
515,276
472,627
448,588
473,538
474,467
353,224
381,224
256,319
290,280
324,247
380,209
407,183
253,301
226,327
201,340
177,397
824,472
775,418
826,379
939,427
936,1798
937,455
880,565
566,315
2821,65535
2834,65535
2833,65535
2789,65535
2790,65535
2770,65535
2788,65535
2776,65535
2795,65535
2775,65535
2794,65535
2825,65535
2824,65535
2826,65535
2811,65535
2812,65535
2796,65535
2827,65535
2858,65535
2855,65535
2849,65535
2838,65535
2814,65535
2813,65535
2828,65535
2839,65535
2791,65535
2792,65535
2803,65535
2830,65535
2815,65535
2819,65535
2818,65535
2817,65535
2831,65535
2810,65535
2829,65535
2783,65535
2820,65535
2804,65535
2785,65535
2784,65535
2762,65535
2768,65535
2751,65535
2750,65535
2733,65535
2769,65535
2720,65535
2761,65535
2741,65535
2837,65535
2793,65535
2808,65535
2753,65535
2736,65535
2735,65535
2809,65535
2772,65535
2845,65535
2844,65535
2848,65535
2777,65535
2778,65535
2779,65535
2759,65535
2780,65535
2797,65535
2843,65535
2832,65535
2842,65535
2758,65535
2738,65535
2774,65535
2773,65535
2771,65535
2851,65535
2847,65535
2854,65535
2721,65535
2756,65535
2737,65535
2840,65535
2752,65535
2754,65535
2755,65535
2852,65535
2853,65535
2856,65535
2841,65535
2742,65535
2727,65535
2744,65535
2726,65535
2743,65535
2725,65535
2746,65535
2787,65535
2766,65535
2763,65535
2765,65535
2745,65535
2764,65535
2552,65535
2501,65535
2443,65535
2442,65535
2320,65535
2381,65535
2382,65535
2498,65535
2499,65535
2438,65535
2439,65535
2497,65535
2441,65535
2379,65535
2380,65535
2319,65535
2551,65535
2550,65535
2563,7557
2321,4213
2322,4182
2383,4194
2384,4905
2446,4948
2445,4956
2503,4975
2385,4939
2504,7678
2505,7700
2557,7724
2558,7749
2559,7773
2560,7737
2564,7513
2562,7625
2561,7665
2605,7680
2609,5264
2565,5209
2566,5194
2515,5139
2397,3559
2457,5120
2458,5104
2401,3731
2337,3472
2336,3476
2399,3518
2398,3539
2402,3765
2333,3696
2273,3731
2219,3755
2218,3767
2159,3792
2454,5824
2393,5790
2512,7524
2502,8309
2608,7943
2156,3914
2155,3946
2154,3975
2213,3991
2212,4003
2211,4051
2210,4092
2264,4099
2324,4133
2323,4149
2030,65535
2094,65535
2157,3878
2450,7921
2388,7970
2387,8038
2326,8075
2266,4280
2265,4235
2508,7892
2396,3628
2335,3646
2334,3657
2158,3817
2279,7345
2278,7309
2222,7278
2221,7260
2276,7242
2275,2844
2261,5727
2207,6585
2149,6644
2554,5027
2599,5057
2633,5095
2664,5130
2689,5167
2690,5193
2691,5209
2692,5233
2152,6338
2089,7046
2088,6384
2025,7179
2603,65535
2602,65535
2556,65535
2693,7172
2671,8955
2670,8935
2694,8894
2553,65535
2665,65535
2705,65535
2710,65535
2668,65535
2639,65535
2463,6586
2521,6622
2572,6645
2451,7806
2390,7775
2391,7595
2392,6232
2215,7800
2268,65535
2093,65535
2092,65535
2028,65535
2024,6414
2150,4452
2086,4482
2209,4439
2023,5553
2087,5506
2148,8599
2262,5712
2327,65535
1560,534
1630,570
1631,548
1559,568
1629,562
1558,513
1634,541
1633,519
1482,502
1481,518
1699,553
1700,551
1701,581
1563,547
2070,1318
2008,1254
2009,1254
1959,1236
1958,1230
2006,1222
1957,1218
1956,910
2193,1427
2132,1367
1912,1274
1911,1242
1865,652
1866,751
2007,1275
2069,1309
2010,1315
2011,1387
1961,1273
2072,1339
1913,1211
1867,848
1962,1336
1914,1391
1915,1365
1909,1263
1636,550
1635,559
1564,572
1702,592
1637,608
1638,621
1565,526
1486,505
1760,632
1704,587
1703,573
1763,619
1762,593
1817,613
1705,664
1863,1310
1815,1386
1759,627
863,1808
758,1901
808,1852
982,2023
1036,2030
1099,2065
1100,2093
1166,2494
1167,2989
1237,2646
1238,2681
1375,2751
1308,2820
1309,2729
1236,2947
1235,2581
1101,2124
1037,2061
971,1604
1025,1587
1026,1602
1027,1615
1089,1628
720,1864
674,1910
864,1690
865,1711
919,1606
1024,1551
975,1725
974,1695
1028,1650
873,2050
925,1996
924,1973
917,1670
918,1646
623,2085
712,1957
713,1990
667,1995
622,2053
809,1838
719,1838
765,1799
972,1636
868,1748
869,1760
815,1779
920,2015
973,1681
981,1974
926,2075
927,2083
928,2107
1354,1600
1288,1541
1218,1517
1152,1586
1023,1515
1353,1614
1085,1495
1148,1425
1147,1418
1082,1369
772,2136
771,2093
819,2068
584,1984
628,1951
629,1940
1033,1871
978,1826
1031,1799
1030,1753
1029,1736
1091,1713
1035,1952
1034,1895
979,1853
1526,2870
1449,2908
1378,2936
1448,2859
1524,2837
1038,2108
1447,2900
1768,775
1710,720
1767,771
391,367
365,331
339,368
400,204
393,438
392,463
396,338
399,220
443,476
449,489
450,523
419,410
414,507
415,449
387,442
388,408
389,401
282,505
281,353
314,365
313,345
405,175
411,534
442,493
255,280
376,283
373,298
278,265
275,405
248,495
335,530
334,495
306,441
307,430
176,446
225,314
320,289
249,521
287,252
285,295
776,394
731,402
315,322
316,303
204,351
440,295
439,271
166,1905
269,1822
383,1760
1247,4390
1246,4412
1384,4496
1679,4658
1178,4383
1105,3049
1172,3068
1173,3118
1242,3120
1241,3112
1314,3269
1313,3175
1171,3094
1382,3375
1243,3317
1317,3456
1107,3057
1108,3236
1109,3521
1041,3066
1043,3276
1042,3267
1044,3330
1176,4284
1174,3343
1177,4332
1110,4339
985,3112
986,3155
932,3173
774,424
730,414
825,492
728,480
729,440
727,451
682,469
684,438
685,407
732,420
683,502
2134,1443
2194,1462
2068,1323
2129,1383
1905,731
1907,802
1906,773
1953,1265
2002,1288
2064,1297
2125,1310
2137,1601
2196,1555
2195,1502
1859,714
1810,720
1755,668
2131,1362
2192,1402
1862,1299
1861,901
1812,670
1860,892
1809,680
1756,630
1869,1288
1822,813
1821,823
1916,1327
1819,721
1764,685
1820,856
1698,567
1757,615
1566,605
1567,590
1488,564
1489,564
1412,535
1413,580
1414,602
1818,793
1568,697
1410,490
2128,1391
2189,1463
2066,1378
2065,1320
2067,1380
1643,666
1571,615
1491,580
2004,1376
2003,1328
1697,583
2135,1594
2075,1618
1642,642
1955,842
2130,1480
2005,1282
1858,717
1816,8488
1864,8481
1766,765
1910,1286
1868,1279
2188,1675
2127,1644
1903,743
2001,1318
2063,1831
2062,1593
1813,705
1758,617
1639,638
1640,660
1952,1330
2126,8570
1569,633
1965,1506
1966,1552
2014,1569
1490,544
1917,1338
1870,908
1871,922
1570,604
1707,673
2076,1636
2013,1574
1964,1352
1487,498
1908,1249
2251,3681
2199,3625
2198,3488
2136,1643
1641,694
1954,1306
1765,888
1857,694
2187,1996
1904,721
1856,721
1951,1343
1708,1323
245,8799
244,8782
357,8786
246,8914
247,8943
197,9037
223,9015
44,9379
43,9439
3,9575
23,9549
22,9538
63,9321
85,9263
84,9218
108,8718
149,8672
172,9063
296,8766
294,8814
355,8914
354,8946
326,9024
295,8923
291,8935
293,9057
260,8943
356,8974
441,8574
412,8597
329,8932
300,8876
148,8646
214,8884
146,8767
110,8848
262,8909
258,9322
292,9085
257,9387
235,8907
187,8807
212,8863
211,8890
186,8811
162,8785
161,8864
165,8763
189,8963
238,9044
237,9009
263,8945
265,8964
266,8942
267,8930
268,8770
26,9539
25,9507
105,65535
62,65535
83,65535
126,8885
175,9320
152,9254
151,9244
150,9203
103,8823
242,8716
191,8670
192,8721
217,8744
218,8797
145,8707
144,8791
167,8699
190,8677
219,8814
159,8911
185,8855
158,8968
188,8799
160,8876
143,65535
122,65535
75,65535
54,65535
198,9448
270,8811
221,8852
301,8909
302,8746
330,8773
331,8795
115,8847
133,8906
139,8803
134,8880
114,9404
48,65535
69,65535
92,9080
164,8873
4,65535
107,9225
129,9310
109,8750
125,8791
124,8765
127,65535
82,65535
67,65535
91,9248
93,9047
137,9182
113,9202
112,9160
136,65535
49,65535
72,65535
71,65535
406,241
805,7090
858,6895
859,7036
967,1074
1142,1209
1080,6735
1022,6776
1079,6768
968,6891
1206,1166
915,7042
916,7077
914,7014
807,7129
911,8236
1078,6992
1207,1224
1278,1268
1277,1271
1344,1291
1415,1332
1492,1387
1345,1348
1346,1318
1208,1216
1209,1296
1143,1333
1144,1349
1145,1364
1417,1344
1493,1404
1494,1423
1572,1438
1081,7061
970,7264
408,204
382,259
437,210
467,246
409,240
403,271
432,375
433,176
404,204
352,292
351,290
349,253
317,445
374,268
346,287
283,479
410,253
438,244
465,192
490,232
491,237
435,155
436,181
379,241
323,321
289,340
377,224
378,249
592,393
593,433
552,341
445,438
424,421
423,438
416,491
361,446
362,431
371,344
372,379
343,305
344,309
286,328
227,306
252,296
284,315
318,323
250,352
312,288
340,284
368,343
369,353
370,518
341,304
367,356
308,391
276,360
277,330
280,318
310,287
338,376
366,437
274,472
305,453
420,464
363,433
418,376
550,7081
579,7104
576,7049
577,7061
578,7077
520,7057
618,7071
662,7101
619,7088
620,7101
621,7095
665,7077
666,7069
664,7097
580,7116
2260,65535
2257,65535
2206,65535
2146,65535
2314,65535
2313,65535
2312,65535
2373,65535
2256,65535
2205,65535
2434,65535
2435,65535
2375,65535
2376,65535
2433,65535
2491,65535
2490,65535
2492,65535
2546,65535
2597,65535
2596,65535
2544,65535
2145,65535
2082,65535
2020,65535
2494,65535
0,65535
11,65535
1052,2068
1053,2055
941,2095
1740,1501
1796,1575
1615,1359
1681,1436
1545,1304
1797,1615
1544,1315
1741,1593
1795,1896
1617,1290
1546,1274
1616,1344
1683,1381
1467,1309
1547,1250
1465,1372
1387,1448
1388,1412
1464,1432
1462,2059
1461,2080
1542,2144
1463,2023
1682,1568
1543,1436
1618,1317
1742,1694
1460,2246
1248,1413
1850,1247
1801,1218
1803,946
882,379
881,388
938,438
883,399
940,2838
1998,1370
1902,1341
1807,666
1691,714
1694,613
1693,1312
1749,738
1752,687
1753,644
1627,587
1628,561
1557,539
1479,491
1402,461
1808,655
1946,1435
1947,1380
1948,1342
1997,1382
1855,669
1690,686
2060,1557
1949,1439
1950,1361
1751,730
1692,749
1999,1366
1901,1305
1900,1246
1852,1218
1853,1180
1805,829
1750,743
1854,889
1806,808
1748,787
2061,1552
2000,1393
1804,1211
1899,1267
2884,65535
2892,65535
2883,65535
2876,65535
2874,65535
2882,65535
2877,65535
2911,65535
2905,65535
2906,65535
2896,65535
2887,65535
2881,65535
2880,65535
2888,65535
2902,65535
2903,65535
2907,65535
2912,65535
2895,65535
2894,65535
2875,65535
2885,65535
2893,65535
2904,65535
2865,65535
2866,65535
2909,65535
2913,65535
2886,65535
2878,65535
2869,65535
2871,65535
2872,65535
2879,65535
2870,65535
1330,515
1331,468
1401,466
1262,477
1263,469
1478,479
1403,453
1261,486
1480,467
1264,467
1390,1323
1389,1342
1319,1369
1251,1355
1250,1387
1285,1442
1284,1446
1214,1418
1146,1384
1505,1667
1504,1601
1582,1639
1581,1567
1713,1546
1771,1528
1654,1678
1653,1651
1651,1603
2096,2782
2033,2742
1972,2713
1923,2645
1922,2623
1874,2317
1873,2030
1919,1983
1829,2994
1579,1503
1424,1495
1711,1520
1348,1344
1419,1364
1359,1771
1429,1722
1428,1708
1421,1421
1577,1455
1499,1428
1230,2015
1365,1952
1511,1874
1300,1997
1366,1969
1512,1902
1716,1736
1503,2013
1276,1298
1347,1328
1349,1376
1645,1512
1578,1490
1770,1524
1715,1579
1150,1483
1217,1497
1149,1459
1580,1529
1352,1536
1502,1518
1825,1936
1718,1891
1717,1865
1872,1969
1656,1780
1648,1555
1712,1532
1213,1408
1212,1389
1084,1430
1420,1410
1281,1334
1282,1395
1587,1774
1586,1741
1585,1730
1652,1698
1427,1876
1975,2817
1977,2885
1932,2955
1931,3580
1426,1596
1422,1438
1425,1581
1583,1667
1501,1525
1283,1436
1286,1483
1215,1468
1211,1365
1210,1339
1083,1401
1655,1769
2220,2823
1355,5891
1772,1537
1436,1920
1435,1910
1589,1843
1163,2048
1735,3168
1791,3101
1841,3078
1840,3034
1219,1600
1220,1639
1647,1541
1646,1533
1279,1286
1714,1556
1575,1515
1576,1477
1498,1485
1573,1527
1496,1545
1497,1516
2177,2965
2176,3035
2294,2952
2293,3071
2237,3012
2236,3041
2364,2813
2302,2753
2301,2675
2245,2577
2056,2707
2057,2793
2055,2686
2184,2738
2120,2744
2244,2658
2538,2998
2537,2979
2591,3095
1940,2870
1989,2878
1990,2814
2539,2998
2482,2989
2483,2951
2424,2847
2121,2805
2119,2618
2050,2927
2049,3005
2048,3423
2185,2771
2243,2497
2299,2711
2241,2660
2485,3029
2542,3084
2353,3043
2292,2950
2419,2837
2478,2884
2479,2919
2536,2946
2484,2990
2486,2983
2354,2882
2416,3059
2242,2705
2355,2920
2300,2718
1991,2818
1992,2825
2477,2875
2534,2896
2535,3011
2588,2916
2587,2930
2630,2981
2051,2739
2116,2633
2175,3068
2586,65535
2541,3151
2178,2940
2179,2743
2240,2690
2239,2914
2238,2984
2052,2870
2053,2836
1987,3110
1988,2958
1939,2982
2594,3101
2593,3086
2358,2804
2357,2814
2420,2870
2247,2866
2427,2956
2428,2978
2181,2537
2180,2586
2417,2864
2590,3076
2297,2699
2361,2891
2362,2774
2423,2862
2422,2827
2174,3298
2356,2925
1941,2859
2365,2990
2112,3303
2047,3445
2182,2676
2359,2753
2533,3691
2295,3016
2115,2706
2632,3136
2631,3075
2186,2923
2298,2785
2360,2809
2235,3261
2291,3274
2487,3205
2246,2798
2425,3606
2117,2930
2543,3158
1893,65535
2421,2962
2476,2880
2592,3134
604,7066
