middle_point_id,reach_time_minutes
2835,65535
2836,65535
2806,65535
2822,65535
2823,65535
2807,65535
2846,65535
887,506
888,518
1326,880
1185,862
999,890
1057,885
1552,933
1120,869
1473,906
944,901
832,500
1257,875
1396,899
1622,955
1327,904
1184,898
1183,903
1324,991
1255,964
1394,1002
1252,1187
1253,1156
1182,1141
1328,65535
1470,1020
1321,1194
1322,1135
1323,1085
1391,1207
1551,952
1393,1060
1472,958
1471,997
1181,1454
1118,1199
1059,768
1121,805
1469,1081
1468,1300
1548,1065
1325,925
1625,1018
1623,946
1258,892
1256,923
791,460
891,500
703,435
704,444
660,441
1553,929
1624,969
1554,954
1474,940
1475,947
1550,962
1549,1014
1320,1252
1466,1304
1541,1720
1318,1366
1249,1389
1186,865
1003,765
1002,763
741,424
788,466
434,289
697,443
752,465
1056,889
1006,790
907,815
518,379
1011,983
1000,818
1055,1622
997,1591
994,1485
996,1557
995,1541
991,1332
1112,3965
1114,1572
1051,1535
1398,972
1395,930
1001,772
1811,1101
1960,1311
1769,1467
1823,1477
1329,65535
1332,1050
1259,1736
1200,955
1199,952
1140,985
1141,997
783,481
1689,992
1802,1100
1945,1436
2183,1918
2418,2367
1994,1472
1995,1868
2059,1297
1621,65535
1555,1056
1754,1264
1180,2303
1106,2565
933,2726
827,848
2122,2333
2124,1460
493,359
519,375
544,381
545,379
494,367
470,410
543,394
469,405
517,388
574,389
573,388
495,396
546,383
613,417
612,432
492,380
572,392
571,439
570,808
610,764
575,463
547,398
516,395
611,441
542,415
569,849
609,883
548,950
549,979
1404,979
1405,971
1266,938
1193,885
743,758
742,435
747,444
746,495
745,510
744,495
790,469
789,475
839,529
838,483
738,449
739,452
740,453
890,519
834,503
784,486
889,515
856,923
855,900
854,908
853,950
852,828
910,892
909,881
908,838
964,822
965,864
1020,915
966,898
963,843
1021,1009
1271,957
1270,956
1339,967
1338,980
1071,875
1072,885
1135,938
1408,1003
1337,997
1269,975
1268,972
1136,949
1075,935
1077,965
1076,946
1019,942
1018,915
1074,932
1137,984
1272,973
1274,1057
1275,1070
1205,1022
1204,1043
1273,1067
1198,911
1197,915
1341,1003
1134,900
1133,893
1069,901
1132,897
1073,901
1203,1063
1202,1062
1201,998
1139,1002
1267,925
1138,1016
1340,972
1196,923
1342,1036
1409,977
1485,1010
1407,1085
1561,1026
1632,1030
1484,1083
1483,996
1562,1055
1194,896
1130,886
1195,912
1335,941
1129,863
1066,834
1128,854
1067,872
1131,891
1334,1034
1336,951
1265,957
1333,1029
1406,961
857,1788
803,3082
804,6559
860,6567
969,6520
913,6507
912,6445
861,6577
806,6620
659,436
751,459
658,429
705,448
702,436
706,452
753,511
614,462
701,439
661,457
616,464
848,771
796,494
797,576
798,751
750,450
707,474
615,941
748,451
845,759
846,803
657,466
749,473
795,458
617,471
663,506
794,857
847,797
849,810
902,788
901,799
900,826
793,466
899,858
898,794
897,515
844,769
842,478
841,468
956,6594
792,457
843,746
840,488
850,786
903,780
800,778
755,833
756,850
710,973
711,1018
962,863
961,856
904,810
906,809
851,805
802,838
801,795
799,768
959,812
1014,847
1013,1000
708,1723
709,1698
754,810
757,911
1017,881
1016,892
960,787
905,874
958,855
957,6588
1070,882
1015,829
1012,944
1068,881
1005,807
1004,790
1060,772
1063,814
1065,821
1127,851
1062,808
1124,836
1123,851
1125,823
1188,863
1122,862
1058,788
947,551
946,804
949,783
945,787
948,747
1190,873
1187,911
951,782
895,748
952,782
1009,841
1008,774
1010,985
1007,781
1061,826
954,880
896,525
953,546
1126,835
1064,823
1189,870
955,6595
950,825
892,490
786,494
836,490
837,485
787,456
700,467
655,480
654,470
653,433
698,477
699,813
608,384
696,786
656,477
833,495
785,480
835,491
693,438
894,817
893,488
1343,1053
1192,1002
1191,1175
828,844
829,829
780,872
830,859
779,821
782,485
529,379
886,521
596,590
556,555
598,838
597,815
526,890
555,793
525,902
524,917
523,887
688,536
607,410
650,847
651,793
652,850
737,468
694,464
695,791
645,505
646,490
690,485
600,534
599,544
781,489
736,477
558,423
644,795
643,883
648,412
692,428
691,477
513,343
541,403
540,383
568,894
530,355
831,504
559,443
560,829
642,895
557,470
496,901
471,942
444,972
446,959
528,400
527,853
562,363
602,389
734,540
466,821
464,308
463,895
478,325
481,218
480,274
479,301
647,504
488,321
502,797
689,508
533,342
532,302
531,338
601,799
484,492
508,384
510,462
509,850
534,840
482,205
506,272
606,845
455,410
429,231
456,382
457,276
428,246
458,196
554,757
594,860
640,927
639,930
551,865
681,921
636,912
635,899
590,874
778,854
777,863
485,458
486,432
462,793
563,876
885,836
943,851
564,860
641,921
504,505
503,470
501,843
500,921
561,856
254,429
350,370
321,401
319,388
251,427
375,290
347,357
687,888
565,838
539,435
511,441
536,801
649,837
603,855
605,1406
733,552
735,498
489,338
514,370
461,0
460,141
459,160
468,402
154,965
178,920
203,905
228,876
402,284
401,255
505,873
522,886
451,972
452,923
477,350
476,370
483,853
884,893
431,268
430,249
454,863
595,851
395,422
394,842
422,958
417,932
390,882
538,895
567,915
426,335
397,356
398,322
499,1053
475,994
497,893
498,930
311,426
342,386
345,413
421,884
515,413
472,1116
448,1141
473,1167
474,1182
353,405
381,404
256,484
290,460
324,428
380,391
407,364
253,879
226,895
201,920
177,939
824,918
775,897
826,859
939,907
936,1318
937,973
880,900
566,876
2821,65535
2834,65535
2833,65535
2789,65535
2790,65535
2770,65535
2788,65535
2776,65535
2795,65535
2775,65535
2794,65535
2825,65535
2824,65535
2826,65535
2811,65535
2812,65535
2796,65535
2827,65535
2858,65535
2855,65535
2849,65535
2838,65535
2814,65535
2813,65535
2828,65535
2839,65535
2791,65535
2792,65535
2803,65535
2830,65535
2815,65535
2819,65535
2818,65535
2817,65535
2831,65535
2810,65535
2829,65535
2783,65535
2820,65535
2804,65535
2785,65535
2784,65535
2762,65535
2768,65535
2751,65535
2750,65535
2733,65535
2769,65535
2720,65535
2761,65535
2741,65535
2837,65535
2793,65535
2808,65535
2753,65535
2736,65535
2735,65535
2809,65535
2772,65535
2845,65535
2844,65535
2848,65535
2777,65535
2778,65535
2779,65535
2759,65535
2780,65535
2797,65535
2843,65535
2832,65535
2842,65535
2758,65535
2738,65535
2774,65535
2773,65535
2771,65535
2851,65535
2847,65535
2854,65535
2721,65535
2756,65535
2737,65535
2840,65535
2752,65535
2754,65535
2755,65535
2852,65535
2853,65535
2856,65535
2841,65535
2742,65535
2727,65535
2744,65535
2726,65535
2743,65535
2725,65535
2746,65535
2787,65535
2766,65535
2763,65535
2765,65535
2745,65535
2764,65535
2552,65535
2501,65535
2443,65535
2442,65535
2320,65535
2381,65535
2382,65535
2498,65535
2499,65535
2438,65535
2439,65535
2497,65535
2441,65535
2379,65535
2380,65535
2319,65535
2551,65535
2550,65535
2563,7077
2321,6613
2322,6582
2383,6594
2384,6800
2446,6842
2445,6849
2503,6868
2385,6833
2504,7198
2505,7220
2557,7244
2558,7269
2559,7293
2560,7257
2564,7425
2562,7145
2561,7185
2605,7200
2609,7472
2565,7548
2566,7564
2515,7575
2397,5959
2457,7605
2458,7627
2401,6036
2337,5872
2336,5876
2399,5918
2398,5939
2402,6096
2333,6096
2273,6131
2219,6155
2218,6167
2159,6192
2454,6784
2393,6750
2512,7044
2502,7036
2608,7463
2156,6314
2155,6346
2154,6375
2213,6391
2212,6403
2211,6451
2210,6492
2264,6499
2324,6533
2323,6549
2030,65535
2094,65535
2157,6278
2450,7441
2388,7490
2387,7558
2326,7595
2266,7630
2265,6974
2508,7412
2396,6028
2335,6046
2334,6057
2158,6217
2279,8186
2278,8150
2222,8119
2221,8101
2276,8083
2275,3999
2261,6806
2207,6843
2149,65535
2554,6926
2599,6958
2633,7004
2664,8691
2689,8749
2690,8855
2691,8893
2692,8926
2152,6487
2089,6566
2088,6554
2025,6699
2603,65535
2602,65535
2556,65535
2693,65535
2671,65535
2670,65535
2694,65535
2553,65535
2665,65535
2705,65535
2710,65535
2668,65535
2639,65535
2463,6106
2521,6142
2572,6165
2451,7326
2390,7295
2391,7115
2392,7078
2215,7320
2268,65535
2093,65535
2092,65535
2028,65535
2024,8377
2150,7803
2086,7851
2209,7785
2023,7953
2087,7906
2148,8119
2262,6792
2327,65535
1560,1070
1630,1147
1631,1108
1559,1186
1629,1209
1558,1113
1634,1170
1633,1064
1482,982
1481,1055
1699,1035
1700,1183
1701,1203
1563,1102
2070,1378
2008,1318
2009,1314
1959,1317
1958,1313
2006,1296
1957,1278
1956,1232
2193,1506
2132,1446
1912,1333
1911,1335
1865,1392
1866,1426
2007,1355
2069,1361
2010,1353
2011,1405
1961,1343
2072,1369
1913,1420
1867,1486
1962,1376
1914,1385
1915,1433
1909,1459
1636,1175
1635,1180
1564,1138
1702,1193
1637,1165
1638,1170
1565,1199
1486,1113
1760,1363
1704,1226
1703,1200
1763,1257
1762,1247
1817,1291
1705,1227
1863,1354
1815,1379
1759,1164
863,2768
758,2861
808,2812
982,2983
1036,2990
1099,3025
1100,3053
1166,3454
1167,3949
1237,3606
1238,3641
1375,3711
1308,3780
1309,3689
1236,3907
1235,3541
1101,3084
1037,3021
971,2564
1025,2547
1026,2562
1027,2575
1089,2588
720,2824
674,2870
864,2650
865,2671
919,2566
1024,2511
975,2685
974,2655
1028,2610
873,3010
925,2956
924,2933
917,2630
918,2606
623,3045
712,2917
713,2950
667,2955
622,3013
809,2798
719,2798
765,2759
972,2596
868,2708
869,2720
815,2739
920,2854
973,2641
981,2934
926,3035
927,3043
928,3067
1354,2517
1288,2501
1218,2477
1152,2546
1023,2475
1353,2501
1085,2455
1148,2385
1147,2378
1082,2329
772,3096
771,3053
819,3028
584,2944
628,2911
629,2900
1033,2831
978,2786
1031,2759
1030,2713
1029,2696
1091,2673
1035,2912
1034,2855
979,2813
1526,3830
1449,3868
1378,3896
1448,3819
1524,3797
1038,3068
1447,3860
1768,1470
1710,1428
1767,1458
391,841
365,900
339,929
400,265
393,910
392,894
396,396
399,362
443,991
449,959
450,949
419,879
414,1032
415,939
387,932
388,925
389,879
282,881
281,923
314,915
313,896
405,295
411,1234
442,1193
255,894
376,330
373,394
278,813
275,871
248,906
335,940
334,944
306,908
307,896
176,955
225,914
320,845
249,906
287,833
285,841
776,874
731,882
315,891
316,873
204,978
440,813
439,848
166,1425
269,1342
383,1280
1247,3910
1246,3932
1384,4016
1679,4178
1178,3903
1105,2569
1172,2588
1173,2638
1242,2640
1241,2632
1314,2789
1313,2695
1171,2614
1382,2895
1243,2837
1317,2976
1107,2577
1108,2756
1109,3041
1041,2586
1043,2796
1042,2787
1044,2850
1176,3804
1174,2863
1177,3852
1110,3859
985,2632
986,2675
932,2693
774,909
730,888
825,905
728,926
729,896
727,963
682,941
684,918
685,898
732,878
683,922
2134,1603
2194,1593
2068,1403
2129,1457
1905,1215
1907,1164
1906,1154
1953,1345
2002,1386
2064,1405
2125,1427
2137,1827
2196,1780
2195,1737
1859,1146
1810,1202
1755,1081
2131,1427
2192,1464
1862,1314
1861,1267
1812,1125
1860,1249
1809,1398
1756,1066
1869,1417
1822,1472
1821,1426
1916,1446
1819,1281
1764,1264
1820,1365
1698,1042
1757,1052
1566,1122
1567,1108
1488,1082
1489,1112
1412,1059
1413,1128
1414,1113
1818,1322
1568,1163
1410,1010
2128,1480
2189,1521
2066,1449
2065,1472
2067,1454
1643,1412
1571,1345
1491,1260
2004,1437
2003,1424
1697,1064
2135,1598
2075,1579
1642,1381
1955,1203
2130,1477
2005,1248
1858,1230
1816,8008
1864,8001
1766,1452
1910,1446
1868,1408
2188,1626
2127,1597
1903,1379
2001,1442
2063,1439
2062,1430
1813,1376
1758,1063
1639,1339
1640,1358
1952,1388
2126,8090
1569,1317
1965,1483
1966,1528
2014,1549
1490,1272
1917,1561
1870,1524
1871,1534
1570,1308
1707,1404
2076,1622
2013,1524
1964,1477
1487,1064
1908,1456
2251,3201
2199,3145
2198,3008
2136,1585
1641,1513
1954,1303
1765,1425
1857,1255
2187,1516
1904,1357
1856,1365
1951,1355
1708,2283
245,8319
244,8302
357,8306
246,8434
247,8463
197,8557
223,8535
44,8899
43,8959
3,9095
23,9069
22,9058
63,8841
85,8783
84,8738
108,8238
149,8192
172,8583
296,8286
294,8334
355,8434
354,8466
326,8544
295,8443
291,8455
293,8577
260,8463
356,8494
441,8094
412,8117
329,8452
300,8396
148,8166
214,8404
146,8287
110,8368
262,8429
258,8842
292,8605
257,8907
235,8427
187,8327
212,8383
211,8410
186,8331
162,8305
161,8384
165,8283
189,8483
238,8564
237,8529
263,8465
265,8484
266,8462
267,8450
268,8290
26,9059
25,9027
105,65535
62,65535
83,65535
126,8405
175,8840
152,8774
151,8764
150,8723
103,8343
242,8236
191,8190
192,8241
217,8264
218,8317
145,8227
144,8311
167,8219
190,8197
219,8334
159,8431
185,8375
158,8488
188,8319
160,8396
143,65535
122,65535
75,65535
54,65535
198,8968
270,8331
221,8372
301,8429
302,8266
330,8293
331,8315
115,8367
133,8426
139,8323
134,8400
114,8924
48,65535
69,65535
92,8600
164,8393
4,65535
107,8745
129,8830
109,8270
125,8311
124,8285
127,65535
82,65535
67,65535
91,8768
93,8567
137,8702
113,8722
112,8680
136,65535
49,65535
72,65535
71,65535
406,806
805,6610
858,6415
859,6556
967,2034
1142,2169
1080,6255
1022,6296
1079,6288
968,6411
1206,2126
915,6562
916,6597
914,6534
807,6649
911,7756
1078,6512
1207,2184
1278,2228
1277,2231
1344,2251
1415,2292
1492,2347
1345,2308
1346,2278
1208,2176
1209,2256
1143,2293
1144,2309
1145,2324
1417,2304
1493,2364
1494,2383
1572,2398
1081,6581
970,6784
408,384
382,815
437,376
467,831
409,870
403,294
432,873
433,854
404,836
352,887
351,903
349,866
317,427
374,863
346,839
283,862
410,864
438,855
465,345
490,413
491,817
435,335
436,361
379,937
323,1057
289,949
377,830
378,436
592,1027
593,1065
552,891
445,978
424,377
423,856
416,1129
361,928
362,894
371,804
372,846
343,867
344,884
286,976
227,888
252,876
284,852
318,883
250,960
312,866
340,789
368,517
369,436
370,932
341,873
367,875
308,907
276,851
277,831
280,953
310,885
338,919
366,987
274,890
305,1092
420,944
363,911
418,853
550,6601
579,6624
576,6569
577,6581
578,6597
520,6577
618,6591
662,6621
619,6608
620,6621
621,6615
665,6597
666,6589
664,6617
580,6636
2260,65535
2257,65535
2206,65535
2146,65535
2314,65535
2313,65535
2312,65535
2373,65535
2256,65535
2205,65535
2434,65535
2435,65535
2375,65535
2376,65535
2433,65535
2491,65535
2490,65535
2492,65535
2546,65535
2597,65535
2596,65535
2544,65535
2145,65535
2082,65535
2020,65535
2494,65535
0,65535
11,65535
1052,1588
1053,1575
941,1615
1740,1452
1796,1493
1615,1355
1681,1396
1545,1316
1797,1540
1544,1330
1741,1508
1795,1690
1617,1316
1546,1321
1616,1333
1683,1428
1467,1290
1547,1295
1465,1365
1387,1401
1388,1362
1464,1426
1462,1579
1461,1600
1542,1664
1463,1543
1682,1407
1543,1385
1618,1308
1742,1600
1460,1766
1248,1410
1850,1132
1801,1118
1803,1066
882,859
881,868
938,919
883,884
940,2358
1998,1276
1902,1313
1807,1266
1691,1007
1694,1213
1693,1132
1749,1098
1752,1193
1753,1244
1627,1191
1628,1161
1557,1139
1479,1091
1402,1061
1808,1255
1946,1195
1947,1226
1948,1268
1997,1272
1855,1305
1690,986
2060,1375
1949,1407
1950,1334
1751,1132
1692,1109
1999,1336
1901,1415
1900,1456
1852,1605
1853,1484
1805,1226
1750,1050
1854,1250
1806,1168
1748,1030
2061,1416
2000,1414
1804,1306
1899,1625
2884,65535
2892,65535
2883,65535
2876,65535
2874,65535
2882,65535
2877,65535
2911,65535
2905,65535
2906,65535
2896,65535
2887,65535
2881,65535
2880,65535
2888,65535
2902,65535
2903,65535
2907,65535
2912,65535
2895,65535
2894,65535
2875,65535
2885,65535
2893,65535
2904,65535
2865,65535
2866,65535
2909,65535
2913,65535
2886,65535
2878,65535
2869,65535
2871,65535
2872,65535
2879,65535
2870,65535
1330,1115
1331,1054
1401,1066
1262,1100
1263,1069
1478,1077
1403,1010
1261,1151
1480,1024
1264,1063
1390,1273
1389,1318
1319,1295
1251,1382
1250,1468
1285,2420
1284,2406
1214,2378
1146,2342
1505,2627
1504,2561
1582,2599
1581,2527
1713,2506
1771,2488
1654,2638
1653,2611
1651,2563
2096,3742
2033,3702
1972,3673
1923,3605
1922,3583
1874,3277
1873,2990
1919,2943
1829,5654
1579,2463
1424,2467
1711,2480
1348,2304
1419,2324
1359,2731
1429,2682
1428,2668
1421,2381
1577,2415
1499,2388
1230,2975
1365,2912
1511,2834
1300,2957
1366,2929
1512,2862
1716,2696
1503,2749
1276,2258
1347,2288
1349,2336
1645,2472
1578,2450
1770,2484
1715,2539
1150,2443
1217,2457
1149,2419
1580,2509
1352,2496
1502,2527
1825,2896
1718,2851
1717,2825
1872,2929
1656,2740
1648,2515
1712,2492
1213,2368
1212,2349
1084,2390
1420,2370
1281,2294
1282,2355
1587,2734
1586,2701
1585,2690
1652,2658
1427,2836
1975,3777
1977,3845
1932,3915
1931,4540
1426,2556
1422,2398
1425,2541
1583,2627
1501,2485
1283,2396
1286,2443
1215,2428
1211,2325
1210,2299
1083,2361
1655,2729
2220,3977
1355,5411
1772,2497
1436,2880
1435,2870
1589,2803
1163,3008
1735,4128
1791,4061
1841,4038
1840,3994
1219,2560
1220,2599
1647,2501
1646,2493
1279,2246
1714,2516
1575,2475
1576,2437
1498,2445
1573,2487
1496,2505
1497,2476
2177,2485
2176,2555
2294,2472
2293,2591
2237,2532
2236,2561
2364,2333
2302,2273
2301,2195
2245,2097
2056,2227
2057,2313
2055,2206
2184,2258
2120,2264
2244,2178
2538,2518
2537,2499
2591,2615
1940,2390
1989,2398
1990,2334
2539,2518
2482,2509
2483,2471
2424,2367
2121,2325
2119,2138
2050,2447
2049,2525
2048,2943
2185,2291
2243,2017
2299,2231
2241,2180
2485,2549
2542,2604
2353,2563
2292,2470
2419,2357
2478,2404
2479,2439
2536,2466
2484,2510
2486,2503
2354,2402
2416,2579
2242,2225
2355,2440
2300,2238
1991,2338
1992,2345
2477,2395
2534,2416
2535,2531
2588,2436
2587,2450
2630,2501
2051,2259
2116,2153
2175,2588
2586,65535
2541,2671
2178,2460
2179,2263
2240,2210
2239,2434
2238,2504
2052,2390
2053,2356
1987,2630
1988,2478
1939,2502
2594,2621
2593,2606
2358,2324
2357,2334
2420,2390
2247,2386
2427,2476
2428,2498
2181,2057
2180,2106
2417,2384
2590,2596
2297,2219
2361,2411
2362,2294
2423,2382
2422,2347
2174,2818
2356,2445
1941,2379
2365,2510
2112,2823
2047,2965
2182,2196
2359,2273
2533,3211
2295,2536
2115,2226
2632,2656
2631,2595
2186,2443
2298,2305
2360,2329
2235,2781
2291,2794
2487,2725
2246,2318
2425,3126
2117,2450
2543,2678
1893,65535
2421,2482
2476,2400
2592,2654
604,6586
