middle_point_id,reach_time_minutes
2835,65535
2836,65535
2806,65535
2822,65535
2823,65535
2807,65535
2846,65535
887,324
888,312
1326,781
1185,488
999,600
1057,590
1552,933
1120,478
1473,906
944,438
832,299
1257,496
1396,823
1622,955
1327,904
1184,490
1183,812
1324,874
1255,924
1394,945
1252,1187
1253,1156
1182,1141
1328,65535
1470,1020
1321,1194
1322,1135
1323,1085
1391,1207
1551,952
1393,1060
1472,958
1471,997
1181,1454
1118,1199
1059,428
1121,441
1469,1081
1468,1300
1548,1065
1325,835
1625,1018
1623,946
1258,570
1256,851
791,402
891,374
703,435
704,444
660,441
1553,929
1624,969
1554,954
1474,940
1475,947
1550,962
1549,1014
1320,1252
1466,1304
1541,1720
1318,1366
1249,1389
1186,481
1003,437
1002,423
741,339
788,381
434,237
697,439
752,465
1056,612
1006,405
907,815
518,362
1011,789
1000,454
1055,1622
997,1591
994,1485
996,1557
995,1541
991,1332
1112,3965
1114,1572
1051,1535
1398,972
1395,855
1001,428
1811,1101
1960,1311
1769,1184
1823,1193
1329,65535
1332,902
1259,1736
1200,835
1199,832
1140,985
1141,997
783,292
1689,992
1802,1100
1945,1436
2183,1918
2418,2367
1994,1472
1995,1868
2059,1297
1621,65535
1555,1056
1754,1064
1180,2303
1106,2565
933,2726
827,428
2122,2333
2124,1460
493,338
519,367
544,364
545,368
494,365
470,402
543,370
469,339
517,347
574,376
573,373
495,396
546,383
613,389
612,398
492,339
572,379
571,423
570,397
610,367
575,387
547,398
516,368
611,383
542,415
569,372
609,350
548,950
549,979
1404,864
1405,850
1266,818
1193,767
743,452
742,364
747,439
746,430
745,459
744,409
790,399
789,389
839,411
838,357
738,288
739,300
740,309
890,365
834,307
784,304
889,347
856,923
855,900
854,908
853,950
852,828
910,892
909,881
908,838
964,822
965,864
1020,915
966,898
963,843
1021,1009
1271,837
1270,836
1339,847
1338,861
1071,809
1072,824
1135,830
1408,883
1337,859
1269,855
1268,846
1136,848
1075,909
1077,965
1076,946
1019,942
1018,915
1074,872
1137,864
1272,850
1274,937
1275,1010
1205,1022
1204,1019
1273,947
1198,794
1197,794
1341,882
1134,789
1133,785
1069,784
1132,779
1073,830
1203,980
1202,945
1201,857
1139,988
1267,808
1138,897
1340,852
1196,803
1342,916
1409,896
1485,921
1407,913
1561,920
1632,938
1484,950
1483,888
1562,921
1194,776
1130,766
1195,793
1335,843
1129,485
1066,480
1128,462
1067,774
1131,771
1334,915
1336,831
1265,875
1333,895
1406,841
857,1788
803,3082
804,6559
860,6567
969,6520
913,6507
912,6445
861,6577
806,6620
659,436
751,459
658,429
705,448
702,436
706,452
753,511
614,417
701,439
661,457
616,464
848,771
796,494
797,576
798,751
750,450
707,474
615,941
748,451
845,506
846,803
657,466
749,473
795,458
617,471
663,506
794,857
847,797
849,810
902,788
901,790
900,743
793,427
899,511
898,487
897,455
844,474
842,418
841,408
956,807
792,418
843,448
840,426
850,786
903,780
800,778
755,833
756,850
710,973
711,1018
962,863
961,856
904,810
906,809
851,805
802,838
801,795
799,768
959,812
1014,821
1013,830
708,1723
709,1698
754,810
757,911
1017,881
1016,892
960,787
905,874
958,855
957,769
1070,801
1015,825
1012,775
1068,807
1005,421
1004,444
1060,432
1063,408
1065,430
1127,464
1062,441
1124,466
1123,451
1125,449
1188,510
1122,461
1058,432
947,406
946,368
949,430
945,363
948,392
1190,774
1187,496
951,401
895,474
952,424
1009,453
1008,428
1010,812
1007,420
1061,487
954,747
896,464
953,436
1126,449
1064,420
1189,568
955,792
950,387
892,355
786,334
836,349
837,352
787,357
700,467
655,480
654,470
653,411
698,427
699,472
608,334
696,382
656,477
833,298
785,320
835,329
693,296
894,481
893,371
1343,933
1192,914
1191,935
828,418
829,404
780,350
830,399
779,401
782,293
529,166
886,302
596,231
556,232
598,219
597,224
526,211
555,269
525,239
524,255
523,244
688,278
607,352
650,431
651,375
652,389
737,283
694,328
695,433
645,254
646,257
690,262
600,253
599,214
781,282
736,273
558,179
644,249
643,300
648,274
692,288
691,267
513,343
541,403
540,383
568,325
530,180
831,291
559,195
560,217
642,321
557,196
496,282
471,297
444,385
446,332
528,176
527,192
562,204
602,232
734,296
466,778
464,269
463,287
478,21
481,117
480,40
479,0
647,255
488,321
502,168
689,281
533,185
532,174
531,201
601,253
484,300
508,250
510,289
509,261
534,241
482,129
506,144
606,350
455,116
429,188
456,196
457,178
428,226
458,161
554,272
594,369
640,327
639,870
551,266
681,407
636,395
635,369
590,311
778,425
777,432
485,326
486,315
462,793
563,216
885,348
943,851
564,293
641,286
504,136
503,149
501,202
500,196
561,213
254,354
350,296
321,401
319,324
251,367
375,265
347,300
687,383
565,337
539,435
511,342
536,358
649,387
603,370
605,1406
733,314
735,279
489,338
514,370
461,228
460,205
459,174
468,311
154,965
178,920
203,905
228,876
402,284
401,255
505,170
522,285
451,177
452,148
477,39
476,86
483,853
884,893
431,232
430,203
454,30
595,289
395,358
394,393
422,414
417,396
390,442
538,895
567,915
426,319
397,295
398,291
499,216
475,156
497,332
498,287
311,426
342,386
345,413
421,442
515,413
472,936
448,967
473,992
474,297
353,349
381,316
256,484
290,460
324,372
380,334
407,273
253,879
226,895
201,920
177,939
824,896
775,831
826,439
939,847
936,1318
937,913
880,900
566,876
2821,65535
2834,65535
2833,65535
2789,65535
2790,65535
2770,65535
2788,65535
2776,65535
2795,65535
2775,65535
2794,65535
2825,65535
2824,65535
2826,65535
2811,65535
2812,65535
2796,65535
2827,65535
2858,65535
2855,65535
2849,65535
2838,65535
2814,65535
2813,65535
2828,65535
2839,65535
2791,65535
2792,65535
2803,65535
2830,65535
2815,65535
2819,65535
2818,65535
2817,65535
2831,65535
2810,65535
2829,65535
2783,65535
2820,65535
2804,65535
2785,65535
2784,65535
2762,65535
2768,65535
2751,65535
2750,65535
2733,65535
2769,65535
2720,65535
2761,65535
2741,65535
2837,65535
2793,65535
2808,65535
2753,65535
2736,65535
2735,65535
2809,65535
2772,65535
2845,65535
2844,65535
2848,65535
2777,65535
2778,65535
2779,65535
2759,65535
2780,65535
2797,65535
2843,65535
2832,65535
2842,65535
2758,65535
2738,65535
2774,65535
2773,65535
2771,65535
2851,65535
2847,65535
2854,65535
2721,65535
2756,65535
2737,65535
2840,65535
2752,65535
2754,65535
2755,65535
2852,65535
2853,65535
2856,65535
2841,65535
2742,65535
2727,65535
2744,65535
2726,65535
2743,65535
2725,65535
2746,65535
2787,65535
2766,65535
2763,65535
2765,65535
2745,65535
2764,65535
2552,65535
2501,65535
2443,65535
2442,65535
2320,65535
2381,65535
2382,65535
2498,65535
2499,65535
2438,65535
2439,65535
2497,65535
2441,65535
2379,65535
2380,65535
2319,65535
2551,65535
2550,65535
2563,7077
2321,6613
2322,6582
2383,6594
2384,6800
2446,6842
2445,6849
2503,6868
2385,6833
2504,7198
2505,7220
2557,7244
2558,7269
2559,7293
2560,7257
2564,7425
2562,7145
2561,7185
2605,7200
2609,7472
2565,7548
2566,7564
2515,7575
2397,5959
2457,7605
2458,7627
2401,6036
2337,5872
2336,5876
2399,5918
2398,5939
2402,6096
2333,6096
2273,6131
2219,6155
2218,6167
2159,6192
2454,6784
2393,6750
2512,7044
2502,7036
2608,7463
2156,6314
2155,6346
2154,6375
2213,6391
2212,6403
2211,6451
2210,6492
2264,6499
2324,6533
2323,6549
2030,65535
2094,65535
2157,6278
2450,7441
2388,7490
2387,7558
2326,7595
2266,7630
2265,6974
2508,7412
2396,6028
2335,6046
2334,6057
2158,6217
2279,8186
2278,8150
2222,8119
2221,8101
2276,8083
2275,3999
2261,6806
2207,6843
2149,65535
2554,6926
2599,6958
2633,7004
2664,8691
2689,8749
2690,8855
2691,8893
2692,8926
2152,6487
2089,6566
2088,6554
2025,6699
2603,65535
2602,65535
2556,65535
2693,65535
2671,65535
2670,65535
2694,65535
2553,65535
2665,65535
2705,65535
2710,65535
2668,65535
2639,65535
2463,6106
2521,6142
2572,6165
2451,7326
2390,7295
2391,7115
2392,7078
2215,7320
2268,65535
2093,65535
2092,65535
2028,65535
2024,8377
2150,7803
2086,7851
2209,7785
2023,7953
2087,7906
2148,8119
2262,6792
2327,65535
1560,892
1630,920
1631,976
1559,912
1629,971
1558,967
1634,946
1633,936
1482,862
1481,876
1699,949
1700,1014
1701,1034
1563,944
2070,1378
2008,1318
2009,1314
1959,1317
1958,1313
2006,1296
1957,1278
1956,1232
2193,1506
2132,1446
1912,1333
1911,1293
1865,1087
1866,1179
2007,1355
2069,1361
2010,1353
2011,1405
1961,1343
2072,1369
1913,1346
1867,1230
1962,1358
1914,1332
1915,1289
1909,1459
1636,934
1635,925
1564,921
1702,995
1637,941
1638,1042
1565,916
1486,909
1760,1127
1704,955
1703,942
1763,1035
1762,1009
1817,1047
1705,1081
1863,1208
1815,1175
1759,1081
863,2768
758,2861
808,2812
982,2983
1036,2990
1099,3025
1100,3053
1166,3454
1167,3949
1237,3606
1238,3641
1375,3711
1308,3780
1309,3689
1236,3907
1235,3541
1101,3084
1037,3021
971,2564
1025,2547
1026,2562
1027,2575
1089,2588
720,2824
674,2870
864,2650
865,2671
919,2566
1024,2511
975,2685
974,2655
1028,2610
873,3010
925,2956
924,2933
917,2630
918,2606
623,3045
712,2917
713,2950
667,2955
622,3013
809,2798
719,2798
765,2759
972,2596
868,2708
869,2720
815,2739
920,2854
973,2641
981,2934
926,3035
927,3043
928,3067
1354,2517
1288,2501
1218,2477
1152,2546
1023,2475
1353,2501
1085,2455
1148,2385
1147,2378
1082,2329
772,3096
771,3053
819,3028
584,2944
628,2911
629,2900
1033,2831
978,2786
1031,2759
1030,2713
1029,2696
1091,2673
1035,2912
1034,2855
979,2813
1526,3830
1449,3868
1378,3896
1448,3819
1524,3797
1038,3068
1447,3860
1768,1190
1710,1148
1767,1163
391,841
365,900
339,929
400,223
393,910
392,894
396,396
399,240
443,991
449,528
450,503
419,879
414,1032
415,939
387,932
388,925
389,870
282,425
281,923
314,915
313,896
405,265
411,1234
442,1193
255,894
376,330
373,394
278,813
275,871
248,906
335,940
334,944
306,908
307,896
176,955
225,414
320,845
249,906
287,833
285,841
776,442
731,499
315,891
316,873
204,978
440,360
439,788
166,1425
269,1342
383,1280
1247,3910
1246,3932
1384,4016
1679,4178
1178,3903
1105,2569
1172,2588
1173,2638
1242,2640
1241,2632
1314,2789
1313,2695
1171,2614
1382,2895
1243,2837
1317,2976
1107,2577
1108,2756
1109,3041
1041,2586
1043,2796
1042,2787
1044,2850
1176,3804
1174,2863
1177,3852
1110,3859
985,2632
986,2675
932,2693
774,890
730,787
825,495
728,879
729,821
727,871
682,876
684,858
685,778
732,840
683,862
2134,1603
2194,1593
2068,1403
2129,1457
1905,1215
1907,1164
1906,1154
1953,1345
2002,1386
2064,1405
2125,1427
2137,1827
2196,1780
2195,1737
1859,1146
1810,1202
1755,1081
2131,1427
2192,1464
1862,1314
1861,1267
1812,1125
1860,1249
1809,1102
1756,1042
1869,1236
1822,1204
1821,1221
1916,1275
1819,1096
1764,1068
1820,1195
1698,956
1757,1021
1566,963
1567,978
1488,953
1489,1016
1412,927
1413,961
1414,963
1818,1138
1568,1074
1410,889
2128,1480
2189,1521
2066,1449
2065,1472
2067,1454
1643,1108
1571,1058
1491,1022
2004,1437
2003,1424
1697,1062
2135,1598
2075,1445
1642,1084
1955,1203
2130,1477
2005,1248
1858,1230
1816,8008
1864,8001
1766,1157
1910,1446
1868,1227
2188,1626
2127,1597
1903,1379
2001,1442
2063,1439
2062,1430
1813,1376
1758,978
1639,1048
1640,1042
1952,1388
2126,8090
1569,1033
1965,1302
1966,1348
2014,1368
1490,980
1917,1261
1870,1250
1871,1264
1570,1043
1707,1098
2076,1435
2013,1400
1964,1354
1487,936
1908,1456
2251,3201
2199,3145
2198,3008
2136,1585
1641,1105
1954,1303
1765,1176
1857,1199
2187,1516
1904,1357
1856,1365
1951,1355
1708,1308
245,8319
244,8302
357,8306
246,8434
247,8463
197,8557
223,8535
44,8899
43,8959
3,9095
23,9069
22,9058
63,8841
85,8783
84,8738
108,8238
149,8192
172,8583
296,8286
294,8334
355,8434
354,8466
326,8544
295,8443
291,8455
293,8577
260,8463
356,8494
441,8094
412,8117
329,8452
300,8396
148,8166
214,8404
146,8287
110,8368
262,8429
258,8842
292,8605
257,8907
235,8427
187,8327
212,8383
211,8410
186,8331
162,8305
161,8384
165,8283
189,8483
238,8564
237,8529
263,8465
265,8484
266,8462
267,8450
268,8290
26,9059
25,9027
105,65535
62,65535
83,65535
126,8405
175,8840
152,8774
151,8764
150,8723
103,8343
242,8236
191,8190
192,8241
217,8264
218,8317
145,8227
144,8311
167,8219
190,8197
219,8334
159,8431
185,8375
158,8488
188,8319
160,8396
143,65535
122,65535
75,65535
54,65535
198,8968
270,8331
221,8372
301,8429
302,8266
330,8293
331,8315
115,8367
133,8426
139,8323
134,8400
114,8924
48,65535
69,65535
92,8600
164,8393
4,65535
107,8745
129,8830
109,8270
125,8311
124,8285
127,65535
82,65535
67,65535
91,8768
93,8567
137,8702
113,8722
112,8680
136,65535
49,65535
72,65535
71,65535
406,288
805,6610
858,6415
859,6556
967,2034
1142,2169
1080,6255
1022,6296
1079,6288
968,6411
1206,2126
915,6562
916,6597
914,6534
807,6649
911,7756
1078,6512
1207,2184
1278,2228
1277,2231
1344,2251
1415,2292
1492,2347
1345,2308
1346,2278
1208,2176
1209,2256
1143,2293
1144,2309
1145,2324
1417,2304
1493,2364
1494,2383
1572,2398
1081,6581
970,6784
408,324
382,355
437,315
467,355
409,341
403,294
432,873
433,854
404,836
352,887
351,903
349,866
317,329
374,863
346,839
283,397
410,807
438,824
465,282
490,291
491,817
435,274
436,301
379,937
323,1057
289,949
377,830
378,436
592,866
593,837
552,281
445,376
424,377
423,856
416,930
361,895
362,865
371,804
372,846
343,867
344,884
286,976
227,888
252,398
284,364
318,348
250,960
312,866
340,789
368,517
369,436
370,932
341,873
367,843
308,907
276,851
277,831
280,953
310,885
338,919
366,987
274,890
305,1092
420,879
363,852
418,853
550,6601
579,6624
576,6569
577,6581
578,6597
520,6577
618,6591
662,6621
619,6608
620,6621
621,6615
665,6597
666,6589
664,6617
580,6636
2260,65535
2257,65535
2206,65535
2146,65535
2314,65535
2313,65535
2312,65535
2373,65535
2256,65535
2205,65535
2434,65535
2435,65535
2375,65535
2376,65535
2433,65535
2491,65535
2490,65535
2492,65535
2546,65535
2597,65535
2596,65535
2544,65535
2145,65535
2082,65535
2020,65535
2494,65535
0,65535
11,65535
1052,1588
1053,1575
941,1615
1740,1452
1796,1493
1615,1355
1681,1396
1545,1316
1797,1540
1544,1330
1741,1508
1795,1690
1617,1316
1546,1321
1616,1333
1683,1428
1467,1290
1547,1295
1465,1365
1387,1401
1388,1362
1464,1426
1462,1579
1461,1600
1542,1664
1463,1543
1682,1407
1543,1385
1618,1308
1742,1600
1460,1766
1248,1410
1850,1132
1801,1118
1803,1066
882,439
881,479
938,858
883,824
940,2358
1998,1276
1902,1313
1807,1206
1691,1007
1694,1093
1693,1132
1749,1098
1752,1167
1753,1124
1627,1007
1628,1041
1557,970
1479,928
1402,900
1808,1195
1946,1195
1947,1226
1948,1268
1997,1272
1855,1255
1690,986
2060,1375
1949,1407
1950,1334
1751,1132
1692,1109
1999,1336
1901,1415
1900,1456
1852,1605
1853,1484
1805,1226
1750,1050
1854,1250
1806,1168
1748,1030
2061,1416
2000,1414
1804,1306
1899,1625
2884,65535
2892,65535
2883,65535
2876,65535
2874,65535
2882,65535
2877,65535
2911,65535
2905,65535
2906,65535
2896,65535
2887,65535
2881,65535
2880,65535
2888,65535
2902,65535
2903,65535
2907,65535
2912,65535
2895,65535
2894,65535
2875,65535
2885,65535
2893,65535
2904,65535
2865,65535
2866,65535
2909,65535
2913,65535
2886,65535
2878,65535
2869,65535
2871,65535
2872,65535
2879,65535
2870,65535
1330,935
1331,905
1401,905
1262,911
1263,904
1478,906
1403,890
1261,966
1480,906
1264,946
1390,1273
1389,1318
1319,1295
1251,1382
1250,1468
1285,2420
1284,2406
1214,2378
1146,2342
1505,2627
1504,2561
1582,2599
1581,2527
1713,2506
1771,2488
1654,2638
1653,2611
1651,2563
2096,3742
2033,3702
1972,3673
1923,3605
1922,3583
1874,3277
1873,2990
1919,2943
1829,5654
1579,2463
1424,2467
1711,2480
1348,2304
1419,2324
1359,2731
1429,2682
1428,2668
1421,2381
1577,2415
1499,2388
1230,2975
1365,2912
1511,2834
1300,2957
1366,2929
1512,2862
1716,2696
1503,2749
1276,2258
1347,2288
1349,2336
1645,2472
1578,2450
1770,2484
1715,2539
1150,2443
1217,2457
1149,2419
1580,2509
1352,2496
1502,2527
1825,2896
1718,2851
1717,2825
1872,2929
1656,2740
1648,2515
1712,2492
1213,2368
1212,2349
1084,2390
1420,2370
1281,2294
1282,2355
1587,2734
1586,2701
1585,2690
1652,2658
1427,2836
1975,3777
1977,3845
1932,3915
1931,4540
1426,2556
1422,2398
1425,2541
1583,2627
1501,2485
1283,2396
1286,2443
1215,2428
1211,2325
1210,2299
1083,2361
1655,2729
2220,3977
1355,5411
1772,2497
1436,2880
1435,2870
1589,2803
1163,3008
1735,4128
1791,4061
1841,4038
1840,3994
1219,2560
1220,2599
1647,2501
1646,2493
1279,2246
1714,2516
1575,2475
1576,2437
1498,2445
1573,2487
1496,2505
1497,2476
2177,2485
2176,2555
2294,2472
2293,2591
2237,2532
2236,2561
2364,2333
2302,2273
2301,2195
2245,2097
2056,2227
2057,2313
2055,2206
2184,2258
2120,2264
2244,2178
2538,2518
2537,2499
2591,2615
1940,2390
1989,2398
1990,2334
2539,2518
2482,2509
2483,2471
2424,2367
2121,2325
2119,2138
2050,2447
2049,2525
2048,2943
2185,2291
2243,2017
2299,2231
2241,2180
2485,2549
2542,2604
2353,2563
2292,2470
2419,2357
2478,2404
2479,2439
2536,2466
2484,2510
2486,2503
2354,2402
2416,2579
2242,2225
2355,2440
2300,2238
1991,2338
1992,2345
2477,2395
2534,2416
2535,2531
2588,2436
2587,2450
2630,2501
2051,2259
2116,2153
2175,2588
2586,65535
2541,2671
2178,2460
2179,2263
2240,2210
2239,2434
2238,2504
2052,2390
2053,2356
1987,2630
1988,2478
1939,2502
2594,2621
2593,2606
2358,2324
2357,2334
2420,2390
2247,2386
2427,2476
2428,2498
2181,2057
2180,2106
2417,2384
2590,2596
2297,2219
2361,2411
2362,2294
2423,2382
2422,2347
2174,2818
2356,2445
1941,2379
2365,2510
2112,2823
2047,2965
2182,2196
2359,2273
2533,3211
2295,2536
2115,2226
2632,2656
2631,2595
2186,2443
2298,2305
2360,2329
2235,2781
2291,2794
2487,2725
2246,2318
2425,3126
2117,2450
2543,2678
1893,65535
2421,2482
2476,2400
2592,2654
604,6586
