middle_point_id,reach_time_minutes
2835,65535
2836,65535
2806,65535
2822,65535
2823,65535
2807,65535
2846,65535
887,324
888,329
1326,569
1185,489
999,466
1057,499
1552,743
1120,474
1473,720
944,421
832,316
1257,556
1396,739
1622,835
1327,904
1184,479
1183,490
1324,871
1255,1404
1394,1272
1252,1574
1253,1600
1182,1605
1328,65535
1470,1304
1321,1554
1322,1495
1323,1445
1391,1567
1551,751
1393,1273
1472,958
1471,1244
1181,1934
1118,1619
1059,415
1121,439
1469,1381
1468,1621
1548,1403
1325,805
1625,772
1623,766
1258,519
1256,674
791,398
891,369
703,413
704,422
660,418
1553,747
1624,789
1554,770
1474,760
1475,813
1550,1029
1549,1326
1320,1566
1466,1603
1541,2200
1318,1679
1249,1701
1186,496
1003,405
1002,413
741,322
788,370
434,249
697,411
752,435
1056,490
1006,406
907,552
518,356
1011,478
1000,454
1055,2102
997,2071
994,1965
996,2037
995,2021
991,1812
1112,4445
1114,2052
1051,2015
1398,852
1395,750
1001,429
1811,708
1960,1239
1769,1261
1823,1243
1329,65535
1332,582
1259,2216
1200,530
1199,528
1140,678
1141,682
783,308
1689,1193
1802,1200
1945,1916
2183,2398
2418,2847
1994,1952
1995,2348
2059,1477
1621,65535
1555,727
1754,1039
1180,1650
1106,3045
933,3206
827,353
2122,2813
2124,1357
493,334
519,349
544,358
545,358
494,341
470,340
543,363
469,323
517,347
574,360
573,371
495,359
546,363
613,389
612,398
492,342
572,379
571,408
570,421
610,439
575,383
547,399
516,368
611,441
542,394
569,419
609,396
548,470
549,499
1404,550
1405,528
1266,495
1193,467
743,368
742,341
747,408
746,401
745,404
744,388
790,384
789,378
839,408
838,359
738,304
739,290
740,309
890,364
834,324
784,318
889,377
856,719
855,685
854,671
853,656
852,543
910,669
909,656
908,558
964,562
965,584
1020,623
966,603
963,576
1021,649
1271,531
1270,531
1339,547
1338,560
1071,534
1072,555
1135,530
1408,583
1337,518
1269,505
1268,499
1136,548
1075,633
1077,678
1076,646
1019,641
1018,623
1074,580
1137,564
1272,540
1274,616
1275,650
1205,692
1204,659
1273,587
1198,499
1197,494
1341,621
1134,489
1133,485
1069,481
1132,464
1073,590
1203,643
1202,585
1201,558
1139,628
1267,491
1138,589
1340,553
1196,479
1342,629
1409,604
1485,607
1407,593
1561,591
1632,617
1484,642
1483,549
1562,582
1194,454
1130,449
1195,463
1335,508
1129,444
1066,435
1128,456
1067,442
1131,455
1334,520
1336,503
1265,477
1333,579
1406,525
857,828
803,3562
804,7039
860,7047
969,7000
913,6987
912,6925
861,7057
806,7100
659,415
751,430
658,396
705,425
702,416
706,452
753,447
614,402
701,415
661,427
616,428
848,482
796,451
797,468
798,466
750,433
707,513
615,461
748,421
845,484
846,480
657,406
749,435
795,461
617,471
663,536
794,464
847,489
849,510
902,517
901,537
900,503
793,408
899,531
898,496
897,483
844,473
842,418
841,402
956,496
792,402
843,439
840,414
850,517
903,497
800,506
755,533
756,557
710,613
711,658
962,563
961,556
904,510
906,556
851,567
802,532
801,509
799,483
959,572
1014,527
1013,520
708,905
709,879
754,555
757,851
1017,603
1016,598
960,507
905,576
958,558
957,582
1070,494
1015,519
1012,500
1068,462
1005,401
1004,410
1060,428
1063,425
1065,447
1127,469
1062,421
1124,444
1123,466
1125,432
1188,471
1122,468
1058,429
947,406
946,368
949,392
945,363
948,385
1190,533
1187,491
951,401
895,414
952,419
1009,428
1008,425
1010,438
1007,415
1061,483
954,463
896,439
953,440
1126,441
1064,425
1189,513
955,511
950,382
892,355
786,334
836,349
837,352
787,357
700,453
655,452
654,437
653,409
698,409
699,413
608,374
696,412
656,462
833,320
785,322
835,348
693,285
894,412
893,365
1343,623
1192,630
1191,635
828,362
829,349
780,350
830,377
779,341
782,309
529,114
886,333
596,189
556,161
598,219
597,173
526,128
555,148
525,82
524,59
523,21
688,278
607,360
650,382
651,388
652,389
737,303
694,305
695,334
645,269
646,277
690,296
600,283
599,244
781,312
736,300
558,148
644,259
643,283
648,258
692,288
691,294
513,303
541,372
540,352
568,425
530,169
831,324
559,174
560,234
642,246
557,139
496,63
471,89
444,160
446,105
528,130
527,165
562,199
602,234
734,296
466,334
464,274
463,287
478,288
481,236
480,279
479,312
647,284
488,322
502,168
689,283
533,178
532,163
531,199
601,271
484,347
508,306
510,342
509,315
534,284
482,272
506,204
606,365
455,359
429,320
456,364
457,298
428,363
458,296
554,172
594,223
640,327
639,329
551,62
681,244
636,208
635,224
590,94
778,355
777,349
485,329
486,342
462,312
563,300
885,344
943,1331
564,384
641,266
504,205
503,182
501,285
500,167
561,261
254,369
350,310
321,341
319,360
251,380
375,305
347,376
687,289
565,414
539,319
511,354
536,435
649,283
603,321
605,663
733,314
735,317
489,339
514,340
461,430
460,423
459,313
468,310
154,515
178,479
203,450
228,433
402,333
401,370
505,204
522,40
451,338
452,289
477,251
476,231
483,526
884,382
431,365
430,371
454,304
595,169
395,353
394,306
422,399
417,136
390,182
538,425
567,379
426,506
397,416
398,448
499,105
475,189
497,15
498,0
311,333
342,394
345,393
421,418
515,398
472,156
448,181
473,207
474,222
353,351
381,344
256,476
290,451
324,366
380,358
407,288
253,510
226,447
201,460
177,517
824,356
775,327
826,360
939,427
936,1798
937,455
880,565
566,477
2821,65535
2834,65535
2833,65535
2789,65535
2790,65535
2770,65535
2788,65535
2776,65535
2795,65535
2775,65535
2794,65535
2825,65535
2824,65535
2826,65535
2811,65535
2812,65535
2796,65535
2827,65535
2858,65535
2855,65535
2849,65535
2838,65535
2814,65535
2813,65535
2828,65535
2839,65535
2791,65535
2792,65535
2803,65535
2830,65535
2815,65535
2819,65535
2818,65535
2817,65535
2831,65535
2810,65535
2829,65535
2783,65535
2820,65535
2804,65535
2785,65535
2784,65535
2762,65535
2768,65535
2751,65535
2750,65535
2733,65535
2769,65535
2720,65535
2761,65535
2741,65535
2837,65535
2793,65535
2808,65535
2753,65535
2736,65535
2735,65535
2809,65535
2772,65535
2845,65535
2844,65535
2848,65535
2777,65535
2778,65535
2779,65535
2759,65535
2780,65535
2797,65535
2843,65535
2832,65535
2842,65535
2758,65535
2738,65535
2774,65535
2773,65535
2771,65535
2851,65535
2847,65535
2854,65535
2721,65535
2756,65535
2737,65535
2840,65535
2752,65535
2754,65535
2755,65535
2852,65535
2853,65535
2856,65535
2841,65535
2742,65535
2727,65535
2744,65535
2726,65535
2743,65535
2725,65535
2746,65535
2787,65535
2766,65535
2763,65535
2765,65535
2745,65535
2764,65535
2552,65535
2501,65535
2443,65535
2442,65535
2320,65535
2381,65535
2382,65535
2498,65535
2499,65535
2438,65535
2439,65535
2497,65535
2441,65535
2379,65535
2380,65535
2319,65535
2551,65535
2550,65535
2563,7557
2321,4213
2322,4182
2383,4194
2384,4905
2446,4948
2445,4956
2503,4975
2385,4939
2504,7678
2505,7700
2557,7724
2558,7749
2559,7773
2560,7737
2564,7513
2562,7625
2561,7665
2605,7680
2609,5264
2565,5209
2566,5194
2515,5139
2397,3559
2457,5120
2458,5104
2401,3731
2337,3472
2336,3476
2399,3518
2398,3539
2402,3765
2333,3696
2273,3731
2219,3755
2218,3767
2159,3792
2454,5824
2393,5790
2512,7524
2502,8309
2608,7943
2156,3914
2155,3946
2154,3975
2213,3991
2212,4003
2211,4051
2210,4092
2264,4099
2324,4133
2323,4149
2030,65535
2094,65535
2157,3878
2450,7921
2388,7970
2387,8038
2326,8075
2266,4280
2265,4235
2508,7892
2396,3628
2335,3646
2334,3657
2158,3817
2279,7345
2278,7309
2222,7278
2221,7260
2276,7242
2275,2844
2261,5727
2207,6585
2149,6644
2554,5027
2599,5057
2633,5095
2664,5130
2689,5167
2690,5193
2691,5209
2692,5233
2152,6338
2089,7046
2088,6384
2025,7179
2603,65535
2602,65535
2556,65535
2693,7172
2671,8955
2670,8935
2694,8894
2553,65535
2665,65535
2705,65535
2710,65535
2668,65535
2639,65535
2463,6586
2521,6622
2572,6645
2451,7806
2390,7775
2391,7595
2392,6232
2215,7800
2268,65535
2093,65535
2092,65535
2028,65535
2024,6414
2150,4452
2086,4482
2209,4439
2023,5553
2087,5506
2148,8599
2262,5712
2327,65535
1560,623
1630,698
1631,669
1559,800
1629,891
1558,888
1634,612
1633,636
1482,622
1481,645
1699,624
1700,641
1701,701
1563,593
2070,1318
2008,1254
2009,1254
1959,1236
1958,1230
2006,1222
1957,1218
1956,910
2193,1427
2132,1367
1912,1274
1911,1242
1865,1328
1866,1365
2007,1275
2069,1309
2010,1315
2011,1387
1961,1291
2072,1339
1913,1327
1867,1398
1962,1336
1914,1391
1915,1365
1909,1263
1636,673
1635,646
1564,623
1702,694
1637,677
1638,697
1565,659
1486,668
1760,764
1704,702
1703,688
1763,818
1762,738
1817,775
1705,717
1863,1310
1815,1386
1759,677
863,1808
758,1901
808,1852
982,2023
1036,2030
1099,2065
1100,2093
1166,2494
1167,2989
1237,2646
1238,2681
1375,2751
1308,2820
1309,2729
1236,2947
1235,2581
1101,2124
1037,2061
971,1604
1025,1587
1026,1602
1027,1615
1089,1628
720,1864
674,1910
864,1690
865,1711
919,1606
1024,1551
975,1725
974,1695
1028,1650
873,2050
925,1996
924,1973
917,1670
918,1646
623,2085
712,1957
713,1990
667,1995
622,2053
809,1838
719,1838
765,1799
972,1636
868,1748
869,1760
815,1779
920,2015
973,1681
981,1974
926,2075
927,2083
928,2107
1354,1600
1288,1541
1218,1517
1152,1586
1023,1515
1353,1614
1085,1495
1148,1425
1147,1418
1082,1369
772,2136
771,2093
819,2068
584,1984
628,1951
629,1940
1033,1871
978,1826
1031,1799
1030,1753
1029,1736
1091,1713
1035,1952
1034,1895
979,1853
1526,2870
1449,2908
1378,2936
1448,2859
1524,2837
1038,2108
1447,2900
1768,1240
1710,1302
1767,1228
391,198
365,266
339,341
400,418
393,265
392,230
396,485
399,551
443,216
449,314
450,448
419,230
414,269
415,233
387,272
388,221
389,196
282,505
281,474
314,445
313,402
405,295
411,274
442,233
255,414
376,313
373,378
278,385
275,448
248,495
335,410
334,387
306,520
307,509
176,496
225,455
320,409
249,521
287,436
285,403
776,320
731,303
315,491
316,474
204,466
440,351
439,330
166,465
269,382
383,320
1247,4390
1246,4412
1384,4496
1679,4658
1178,4383
1105,3049
1172,3068
1173,3118
1242,3120
1241,3112
1314,3269
1313,3175
1171,3094
1382,3375
1243,3317
1317,3456
1107,3057
1108,3236
1109,3521
1041,3066
1043,3276
1042,3267
1044,3330
1176,4284
1174,3343
1177,4332
1110,4339
985,3112
986,3155
932,3173
774,350
730,318
825,372
728,360
729,341
727,271
682,396
684,347
685,287
732,329
683,502
2134,1443
2194,1462
2068,1323
2129,1383
1905,767
1907,802
1906,773
1953,1265
2002,1288
2064,1297
2125,1310
2137,1601
2196,1555
2195,1502
1859,714
1810,720
1755,801
2131,1362
2192,1402
1862,1299
1861,901
1812,670
1860,892
1809,773
1756,670
1869,1288
1822,1270
1821,1287
1916,1327
1819,838
1764,805
1820,913
1698,631
1757,655
1566,686
1567,700
1488,673
1489,706
1412,637
1413,660
1414,633
1818,828
1568,1316
1410,601
2128,1391
2189,1463
2066,1378
2065,1320
2067,1380
1643,1318
1571,771
1491,740
2004,1376
2003,1328
1697,741
2135,1594
2075,1618
1642,1298
1955,842
2130,1480
2005,1282
1858,734
1816,8488
1864,8481
1766,925
1910,1286
1868,1279
2188,1675
2127,1644
1903,1278
2001,1318
2063,1831
2062,1593
1813,705
1758,753
1639,885
1640,842
1952,1330
2126,8570
1569,796
1965,1506
1966,1552
2014,1569
1490,690
1917,1338
1870,1307
1871,1321
1570,774
1707,1326
2076,1636
2013,1574
1964,1352
1487,654
1908,1249
2251,3681
2199,3625
2198,3488
2136,1643
1641,1290
1954,1306
1765,888
1857,746
2187,1996
1904,1282
1856,1257
1951,1343
1708,1534
245,8799
244,8782
357,8786
246,8914
247,8943
197,9037
223,9015
44,9379
43,9439
3,9575
23,9549
22,9538
63,9321
85,9263
84,9218
108,8718
149,8672
172,9063
296,8766
294,8814
355,8914
354,8946
326,9024
295,8923
291,8935
293,9057
260,8943
356,8974
441,8574
412,8597
329,8932
300,8876
148,8646
214,8884
146,8767
110,8848
262,8909
258,9322
292,9085
257,9387
235,8907
187,8807
212,8863
211,8890
186,8811
162,8785
161,8864
165,8763
189,8963
238,9044
237,9009
263,8945
265,8964
266,8942
267,8930
268,8770
26,9539
25,9507
105,65535
62,65535
83,65535
126,8885
175,9320
152,9254
151,9244
150,9203
103,8823
242,8716
191,8670
192,8721
217,8744
218,8797
145,8707
144,8791
167,8699
190,8677
219,8814
159,8911
185,8855
158,8968
188,8799
160,8876
143,65535
122,65535
75,65535
54,65535
198,9448
270,8811
221,8852
301,8909
302,8746
330,8773
331,8795
115,8847
133,8906
139,8803
134,8880
114,9404
48,65535
69,65535
92,9080
164,8873
4,65535
107,9225
129,9310
109,8750
125,8791
124,8765
127,65535
82,65535
67,65535
91,9248
93,9047
137,9182
113,9202
112,9160
136,65535
49,65535
72,65535
71,65535
406,361
805,7090
858,6895
859,7036
967,1074
1142,1209
1080,6735
1022,6776
1079,6768
968,6891
1206,1166
915,7042
916,7077
914,7014
807,7129
911,8236
1078,6992
1207,1224
1278,1268
1277,1271
1344,1291
1415,1332
1492,1387
1345,1348
1346,1318
1208,1216
1209,1296
1143,1333
1144,1349
1145,1364
1417,1344
1493,1404
1494,1423
1572,1438
1081,7061
970,7264
408,324
382,378
437,345
467,342
409,367
403,354
432,549
433,391
404,311
352,452
351,335
349,423
317,445
374,443
346,479
283,479
410,439
438,430
465,313
490,352
491,357
435,335
436,321
379,423
323,497
289,529
377,351
378,374
592,393
593,419
552,41
445,137
424,566
423,438
416,169
361,338
362,267
371,495
372,546
343,534
344,520
286,530
227,529
252,418
284,389
318,529
250,464
312,348
340,372
368,395
369,423
370,518
341,435
367,420
308,479
276,450
277,447
280,378
310,343
338,317
366,317
274,472
305,637
420,297
363,284
418,255
550,7081
579,7104
576,7049
577,7061
578,7077
520,7057
618,7071
662,7101
619,7088
620,7101
621,7095
665,7077
666,7069
664,7097
580,7116
2260,65535
2257,65535
2206,65535
2146,65535
2314,65535
2313,65535
2312,65535
2373,65535
2256,65535
2205,65535
2434,65535
2435,65535
2375,65535
2376,65535
2433,65535
2491,65535
2490,65535
2492,65535
2546,65535
2597,65535
2596,65535
2544,65535
2145,65535
2082,65535
2020,65535
2494,65535
0,65535
11,65535
1052,2068
1053,2055
941,2095
1740,1932
1796,1973
1615,1759
1681,1876
1545,1628
1797,1973
1544,1654
1741,1880
1795,2170
1617,1719
1546,1685
1616,1678
1683,1721
1467,1593
1547,1658
1465,1677
1387,1659
1388,1641
1464,1724
1462,2059
1461,2080
1542,2144
1463,2023
1682,1846
1543,1713
1618,1788
1742,2080
1460,2246
1248,1776
1850,1247
1801,1218
1803,946
882,379
881,388
938,438
883,399
940,2838
1998,1370
1902,1341
1807,1217
1691,838
1694,1453
1693,1312
1749,858
1752,1246
1753,969
1627,1026
1628,1401
1557,966
1479,599
1402,581
1808,883
1946,1435
1947,1380
1948,1342
1997,1382
1855,1233
1690,806
2060,1557
1949,1439
1950,1361
1751,1209
1692,869
1999,1366
1901,1305
1900,1246
1852,1218
1853,1180
1805,900
1750,887
1854,1333
1806,1251
1748,919
2061,1552
2000,1393
1804,1211
1899,1267
2884,65535
2892,65535
2883,65535
2876,65535
2874,65535
2882,65535
2877,65535
2911,65535
2905,65535
2906,65535
2896,65535
2887,65535
2881,65535
2880,65535
2888,65535
2902,65535
2903,65535
2907,65535
2912,65535
2895,65535
2894,65535
2875,65535
2885,65535
2893,65535
2904,65535
2865,65535
2866,65535
2909,65535
2913,65535
2886,65535
2878,65535
2869,65535
2871,65535
2872,65535
2879,65535
2870,65535
1330,620
1331,588
1401,586
1262,597
1263,589
1478,599
1403,576
1261,606
1480,587
1264,586
1390,1573
1389,1632
1319,1610
1251,1665
1250,1741
1285,1442
1284,1446
1214,1418
1146,1384
1505,1667
1504,1601
1582,1639
1581,1567
1713,1546
1771,1528
1654,1678
1653,1651
1651,1603
2096,2782
2033,2742
1972,2713
1923,2645
1922,2623
1874,2317
1873,2030
1919,1983
1829,2994
1579,1503
1424,1495
1711,1520
1348,1344
1419,1364
1359,1771
1429,1722
1428,1708
1421,1421
1577,1455
1499,1428
1230,2015
1365,1952
1511,1874
1300,1997
1366,1969
1512,1902
1716,1736
1503,2013
1276,1298
1347,1328
1349,1376
1645,1512
1578,1490
1770,1524
1715,1579
1150,1483
1217,1497
1149,1459
1580,1529
1352,1536
1502,1518
1825,1936
1718,1891
1717,1865
1872,1969
1656,1780
1648,1555
1712,1532
1213,1408
1212,1389
1084,1430
1420,1410
1281,1334
1282,1395
1587,1774
1586,1741
1585,1730
1652,1698
1427,1876
1975,2817
1977,2885
1932,2955
1931,3580
1426,1596
1422,1438
1425,1581
1583,1667
1501,1525
1283,1436
1286,1483
1215,1468
1211,1365
1210,1339
1083,1401
1655,1769
2220,2823
1355,5891
1772,1537
1436,1920
1435,1910
1589,1843
1163,2048
1735,3168
1791,3101
1841,3078
1840,3034
1219,1600
1220,1639
1647,1541
1646,1533
1279,1286
1714,1556
1575,1515
1576,1477
1498,1485
1573,1527
1496,1545
1497,1516
2177,2965
2176,3035
2294,2952
2293,3071
2237,3012
2236,3041
2364,2813
2302,2753
2301,2675
2245,2577
2056,2707
2057,2793
2055,2686
2184,2738
2120,2744
2244,2658
2538,2998
2537,2979
2591,3095
1940,2870
1989,2878
1990,2814
2539,2998
2482,2989
2483,2951
2424,2847
2121,2805
2119,2618
2050,2927
2049,3005
2048,3423
2185,2771
2243,2497
2299,2711
2241,2660
2485,3029
2542,3084
2353,3043
2292,2950
2419,2837
2478,2884
2479,2919
2536,2946
2484,2990
2486,2983
2354,2882
2416,3059
2242,2705
2355,2920
2300,2718
1991,2818
1992,2825
2477,2875
2534,2896
2535,3011
2588,2916
2587,2930
2630,2981
2051,2739
2116,2633
2175,3068
2586,65535
2541,3151
2178,2940
2179,2743
2240,2690
2239,2914
2238,2984
2052,2870
2053,2836
1987,3110
1988,2958
1939,2982
2594,3101
2593,3086
2358,2804
2357,2814
2420,2870
2247,2866
2427,2956
2428,2978
2181,2537
2180,2586
2417,2864
2590,3076
2297,2699
2361,2891
2362,2774
2423,2862
2422,2827
2174,3298
2356,2925
1941,2859
2365,2990
2112,3303
2047,3445
2182,2676
2359,2753
2533,3691
2295,3016
2115,2706
2632,3136
2631,3075
2186,2923
2298,2785
2360,2809
2235,3261
2291,3274
2487,3205
2246,2798
2425,3606
2117,2930
2543,3158
1893,65535
2421,2962
2476,2880
2592,3134
604,7066
