middle_point_id,reach_time_minutes
2835,65535
2836,65535
2806,65535
2822,65535
2823,65535
2807,65535
2846,65535
887,6883
888,6889
1326,7000
1185,6909
999,6944
1057,6917
1552,7174
1120,6894
1473,7440
944,6991
832,6871
1257,6976
1396,7444
1622,7195
1327,8104
1184,6899
1183,6909
1324,7231
1255,7311
1394,7242
1252,7007
1253,6976
1182,6961
1328,65535
1470,7260
1321,7023
1322,7033
1323,7325
1391,7087
1551,7192
1393,7300
1472,7198
1471,7237
1181,7094
1118,7019
1059,6870
1121,6882
1469,7528
1468,7143
1548,7179
1325,7165
1625,7132
1623,7161
1258,6999
1256,7034
791,6760
891,6849
703,6728
704,6728
660,6717
1553,7179
1624,7148
1554,7192
1474,7200
1475,7681
1550,7202
1549,7254
1320,7089
1466,7123
1541,7480
1318,7165
1249,7188
1186,6915
1003,6861
1002,6872
741,6819
788,6781
434,6815
697,6801
752,6742
1056,6970
1006,6853
907,6825
518,6730
1011,6805
1000,6908
1055,7382
997,7351
994,7245
996,7317
995,7301
991,7092
1112,65535
1114,7332
1051,7295
1398,8172
1395,7470
1001,6888
1811,7129
1960,7390
1769,7311
1823,7298
1329,65535
1332,6942
1259,65535
1200,6934
1199,6933
1140,6996
1141,6997
783,6863
1689,7229
1802,7340
1945,7561
2183,9118
2418,65535
1994,7595
1995,7628
2059,7357
1621,65535
1555,7087
1754,7180
1180,8063
1106,8325
933,8486
827,6968
2122,65535
2124,7394
493,6742
519,6727
544,6732
545,6729
494,6720
470,6740
543,6737
469,6746
517,6735
574,6736
573,6748
495,6714
546,6720
613,6747
612,6758
492,6765
572,6747
571,6769
570,6781
610,6799
575,6717
547,6696
516,6760
611,6801
542,6755
569,6818
609,6831
548,6704
549,6706
1404,6919
1405,6913
1266,6878
1193,6887
743,6788
742,6798
747,6744
746,6764
745,6773
744,6785
790,6769
789,6773
839,6798
838,6793
738,6853
739,6828
740,6824
890,6844
834,6865
784,6854
889,6864
856,6892
855,6868
854,6854
853,6845
852,6828
910,6878
909,6881
908,6838
964,6828
965,6878
1020,6915
966,6898
963,6832
1021,6999
1271,6931
1270,6929
1339,6938
1338,6927
1071,6858
1072,6879
1135,6938
1408,6952
1337,6919
1269,6900
1268,6890
1136,6949
1075,6934
1077,6988
1076,6943
1019,6942
1018,6915
1074,6932
1137,6984
1272,6961
1274,7057
1275,7070
1205,7077
1204,7079
1273,7067
1198,6911
1197,6886
1341,7002
1134,6893
1133,6888
1069,6847
1132,6855
1073,6890
1203,7063
1202,7062
1201,7006
1139,7002
1267,6873
1138,7016
1340,6950
1196,6863
1342,7036
1409,6962
1485,7011
1407,6980
1561,6997
1632,7021
1484,7055
1483,6957
1562,6988
1194,6851
1130,6847
1195,6864
1335,6881
1129,6864
1066,6835
1128,6916
1067,6821
1131,6859
1334,6954
1336,6914
1265,6897
1333,6939
1406,6923
857,6922
803,6962
804,6975
860,6965
969,6957
913,6944
912,6937
861,7020
806,7031
659,6723
751,6739
658,6729
705,6738
702,6735
706,6721
753,6740
614,6749
701,6739
661,6727
616,6704
848,6789
796,6751
797,6759
798,6766
750,6733
707,6688
615,6717
748,6751
845,6784
846,6765
657,6766
749,6766
795,6762
617,6686
663,6675
794,6804
847,6784
849,6810
902,6817
901,6777
900,6789
793,6768
899,6816
898,6824
897,6811
844,6800
842,6778
841,6768
956,6810
792,6758
843,6784
840,6785
850,6773
903,6797
800,6757
755,6744
756,6714
710,6675
711,6778
962,6870
961,6856
904,6810
906,6816
851,6811
802,6793
801,6767
799,6783
959,6869
1014,6850
1013,6825
708,7014
709,6680
754,6787
757,6731
1017,6924
1016,6922
960,6818
905,6876
958,6798
957,6799
1070,6861
1015,6867
1012,6803
1068,6823
1005,6846
1004,6851
1060,6867
1063,6883
1065,6872
1127,6890
1062,6908
1124,6923
1123,6912
1125,6917
1188,6951
1122,6888
1058,6877
947,6886
946,6919
949,6824
945,6903
948,6840
1190,7058
1187,6971
951,6852
895,6812
952,6846
1009,6831
1008,6885
1010,6812
1007,6856
1061,6974
954,6821
896,6815
953,6877
1126,6904
1064,6870
1189,6993
955,6815
950,6867
892,6805
786,6808
836,6805
837,6800
787,6784
700,6770
655,6801
654,6808
653,6811
698,6786
699,6783
608,6862
696,6817
656,6798
833,6868
785,6822
835,6825
693,6851
894,6824
893,6800
1343,7053
1192,7018
1191,7055
828,6958
829,6944
780,6897
830,6939
779,6956
782,6864
529,6956
886,6882
596,7002
556,7016
598,6986
597,7007
526,6984
555,7047
525,7020
524,7006
523,6979
688,6906
607,6896
650,6914
651,6894
652,6891
737,6857
694,6838
695,6824
645,6916
646,6891
690,6871
600,6945
599,6947
781,6876
736,6865
558,6936
644,6948
643,6913
648,6896
692,6868
691,6862
513,6871
541,6777
540,6840
568,6958
530,6984
831,6890
559,6954
560,6959
642,7056
557,6979
496,7014
471,7045
444,7121
446,7074
528,6963
527,7000
562,6921
602,6936
734,6900
466,6909
464,6833
463,6847
478,7053
481,7035
480,7048
479,7026
647,6908
488,6859
502,6996
689,6911
533,6960
532,6971
531,6997
601,6933
484,6948
508,7006
510,6916
509,6979
534,6933
482,7063
506,7011
606,6905
455,7013
429,7011
456,6983
457,6964
428,6929
458,7037
554,7160
594,7128
640,7047
639,7144
551,7002
681,7144
636,7132
635,7140
590,7036
778,6965
777,6972
485,6930
486,6882
462,6911
563,6996
885,6893
943,8051
564,7097
641,7041
504,7004
503,7013
501,7037
500,7104
561,6981
254,6921
350,6874
321,6977
319,6913
251,6954
375,6906
347,6972
687,6919
565,7056
539,6910
511,6894
536,7044
649,6913
603,7055
605,7166
733,6920
735,6889
489,6839
514,6860
461,7150
460,7143
459,7075
468,6761
154,7045
178,7027
203,7005
228,6973
402,6950
401,6987
505,7045
522,7014
451,7158
452,7109
477,7061
476,7068
483,7246
884,7054
431,6984
430,6980
454,7155
595,7054
395,7084
394,7111
422,7130
417,7109
390,7115
538,6993
567,6912
426,7099
397,7018
398,6984
499,7073
475,7122
497,7012
498,7044
311,6974
342,6983
345,6940
421,7178
515,6818
472,7347
448,7308
473,7258
474,7137
353,6944
381,6944
256,7039
290,7000
324,6967
380,6929
407,6903
253,6972
226,6990
201,7016
177,7072
824,7076
775,7022
826,6979
939,7027
936,7078
937,7064
880,7032
566,7035
2821,65535
2834,65535
2833,65535
2789,65535
2790,65535
2770,65535
2788,65535
2776,65535
2795,65535
2775,65535
2794,65535
2825,65535
2824,65535
2826,65535
2811,65535
2812,65535
2796,65535
2827,65535
2858,65535
2855,65535
2849,65535
2838,65535
2814,65535
2813,65535
2828,65535
2839,65535
2791,65535
2792,65535
2803,65535
2830,65535
2815,65535
2819,65535
2818,65535
2817,65535
2831,65535
2810,65535
2829,65535
2783,65535
2820,65535
2804,65535
2785,65535
2784,65535
2762,65535
2768,65535
2751,65535
2750,65535
2733,65535
2769,65535
2720,65535
2761,65535
2741,65535
2837,65535
2793,65535
2808,65535
2753,65535
2736,65535
2735,65535
2809,65535
2772,65535
2845,65535
2844,65535
2848,65535
2777,65535
2778,65535
2779,65535
2759,65535
2780,65535
2797,65535
2843,65535
2832,65535
2842,65535
2758,65535
2738,65535
2774,65535
2773,65535
2771,65535
2851,65535
2847,65535
2854,65535
2721,65535
2756,65535
2737,65535
2840,65535
2752,65535
2754,65535
2755,65535
2852,65535
2853,65535
2856,65535
2841,65535
2742,65535
2727,65535
2744,65535
2726,65535
2743,65535
2725,65535
2746,65535
2787,65535
2766,65535
2763,65535
2765,65535
2745,65535
2764,65535
2552,65535
2501,65535
2443,65535
2442,65535
2320,65535
2381,65535
2382,65535
2498,65535
2499,65535
2438,65535
2439,65535
2497,65535
2441,65535
2379,65535
2380,65535
2319,65535
2551,65535
2550,65535
2563,65535
2321,65535
2322,65535
2383,65535
2384,65535
2446,65535
2445,65535
2503,65535
2385,65535
2504,65535
2505,65535
2557,65535
2558,65535
2559,65535
2560,65535
2564,65535
2562,65535
2561,65535
2605,65535
2609,65535
2565,65535
2566,65535
2515,9076
2397,8839
2457,9056
2458,9040
2401,65535
2337,8752
2336,8756
2399,8798
2398,8819
2402,65535
2333,8976
2273,9011
2219,9035
2218,9047
2159,9072
2454,65535
2393,65535
2512,65535
2502,65535
2608,65535
2156,65535
2155,65535
2154,65535
2213,65535
2212,65535
2211,65535
2210,65535
2264,65535
2324,65535
2323,65535
2030,65535
2094,65535
2157,65535
2450,65535
2388,65535
2387,65535
2326,65535
2266,65535
2265,65535
2508,65535
2396,8908
2335,8926
2334,8937
2158,9097
2279,65535
2278,65535
2222,65535
2221,65535
2276,65535
2275,8124
2261,65535
2207,65535
2149,65535
2554,65535
2599,65535
2633,65535
2664,65535
2689,65535
2690,65535
2691,65535
2692,65535
2152,65535
2089,65535
2088,65535
2025,65535
2603,65535
2602,65535
2556,65535
2693,65535
2671,65535
2670,65535
2694,65535
2553,65535
2665,65535
2705,65535
2710,65535
2668,65535
2639,65535
2463,65535
2521,65535
2572,65535
2451,65535
2390,65535
2391,65535
2392,65535
2215,65535
2268,65535
2093,65535
2092,65535
2028,65535
2024,65535
2150,65535
2086,65535
2209,65535
2023,65535
2087,65535
2148,65535
2262,65535
2327,65535
1560,7004
1630,7100
1631,7044
1559,7088
1629,7160
1558,6993
1634,7069
1633,7031
1482,7040
1481,7020
1699,7036
1700,7084
1701,7157
1563,7020
2070,7455
2008,7413
2009,7404
1959,7392
1958,7418
2006,7450
1957,7430
1956,7382
2193,7522
2132,7461
1912,7420
1911,7400
1865,7204
1866,7287
2007,7437
2069,7471
2010,7413
2011,7429
1961,7408
2072,7429
1913,7346
1867,7339
1962,7433
1914,7382
1915,7294
1909,7334
1636,7036
1635,7040
1564,7013
1702,7115
1637,7055
1638,7105
1565,7000
1486,6971
1760,7254
1704,7060
1703,7046
1763,7134
1762,7117
1817,7164
1705,7158
1863,7276
1815,7302
1759,7126
863,7345
758,7433
808,7389
982,7726
1036,8023
1099,8193
1100,8091
1166,8304
1167,8353
1237,8448
1238,8477
1375,8548
1308,8505
1309,8527
1236,8413
1235,8391
1101,8122
1037,8058
971,7270
1025,7272
1026,7287
1027,7299
1089,7329
720,7517
674,7566
864,7330
865,7351
919,7288
1024,7254
975,7361
974,7335
1028,7318
873,7579
925,7517
924,7500
917,7310
918,7286
623,7605
712,7480
713,7514
667,7519
622,7575
809,7375
719,7491
765,7448
972,7274
868,7361
869,7402
815,7428
920,7517
973,7315
981,7690
926,7604
927,7612
928,7636
1354,7318
1288,7306
1218,7277
1152,7312
1023,7209
1353,7294
1085,7167
1148,7125
1147,7118
1082,7090
772,8488
771,8445
819,8420
584,7706
628,8029
629,8003
1033,7513
978,7470
1031,7443
1030,7396
1029,7376
1091,7353
1035,8028
1034,7537
979,7497
1526,8663
1449,8708
1378,8736
1448,8653
1524,8631
1038,8106
1447,8793
1768,7303
1710,7295
1767,7218
391,7087
365,7051
339,7088
400,6943
393,7158
392,7183
396,7058
399,6960
443,7171
449,7209
450,7243
419,7130
414,7227
415,7193
387,7230
388,7192
389,7145
282,6994
281,7059
314,7085
313,7065
405,6828
411,7254
442,7213
255,6958
376,7003
373,7018
278,6985
275,7048
248,7085
335,7159
334,7133
306,7105
307,7082
176,7050
225,6995
320,6906
249,7035
287,6972
285,6957
776,6994
731,7002
315,7042
316,7023
204,7044
440,6753
439,6785
166,8625
269,8366
383,8192
1247,65535
1246,65535
1384,65535
1679,65535
1178,65535
1105,8329
1172,8348
1173,8398
1242,8400
1241,8392
1314,8549
1313,8455
1171,8374
1382,8655
1243,8597
1317,8736
1107,8337
1108,8516
1109,8801
1041,8346
1043,8556
1042,8547
1044,8610
1176,65535
1174,8623
1177,65535
1110,65535
985,8392
986,8435
932,8453
774,7070
730,7014
825,7032
728,7080
729,7040
727,7171
682,7069
684,7038
685,7018
732,6998
683,7222
2134,7975
2194,8004
2068,7931
2129,7985
1905,7226
1907,7267
1906,7206
1953,7293
2002,7324
2064,7361
2125,7368
2137,8116
2196,8072
2195,8027
1859,7140
1810,7170
1755,7210
2131,7486
2192,7500
1862,7234
1861,7153
1812,7131
1860,7223
1809,7158
1756,7118
1869,7241
1822,7260
1821,7239
1916,7289
1819,7187
1764,7167
1820,7191
1698,7067
1757,7104
1566,7096
1567,7096
1488,7071
1489,7159
1412,7088
1413,7095
1414,7123
1818,7206
1568,7177
1410,7004
2128,8016
2189,8043
2066,7502
2065,7526
2067,7982
1643,7274
1571,7226
1491,7189
2004,7491
2003,7372
1697,7088
2135,7997
2075,7438
1642,7252
1955,7310
2130,8141
2005,7490
1858,7203
1816,8008
1864,8001
1766,7212
1910,7374
1868,7232
2188,8395
2127,8364
1903,7246
2001,7335
2063,7988
2062,7582
1813,7136
1758,7073
1639,7114
1640,7133
1952,7346
2126,8962
1569,7168
1965,7393
1966,7439
2014,7544
1490,7154
1917,7321
1870,7284
1871,7294
1570,7188
1707,7164
2076,7458
2013,7394
1964,7346
1487,7054
1908,7595
2251,65535
2199,65535
2198,65535
2136,8020
1641,7273
1954,8026
1765,7185
1857,7219
2187,7645
1904,7250
1856,7209
1951,7355
1708,8043
245,8430
244,8418
357,8306
246,8455
247,8482
197,8557
223,8535
44,8899
43,8959
3,9095
23,9069
22,9058
63,8841
85,8783
84,8738
108,8704
149,8658
172,8622
296,8286
294,8334
355,8434
354,8466
326,8544
295,8443
291,8455
293,8577
260,8597
356,8494
441,8094
412,8117
329,8452
300,8396
148,8800
214,8616
146,8731
110,8983
262,8429
258,8842
292,8605
257,8907
235,8705
187,8784
212,8811
211,8815
186,8896
162,8910
161,8923
165,8678
189,8734
238,8564
237,8529
263,8465
265,8570
266,8590
267,8615
268,8664
26,9059
25,9027
105,65535
62,65535
83,65535
126,8919
175,8840
152,8774
151,8764
150,8723
103,65535
242,8720
191,8890
192,8944
217,8970
218,65535
145,8710
144,9037
167,8652
190,8878
219,65535
159,65535
185,65535
158,65535
188,8767
160,65535
143,65535
122,65535
75,65535
54,65535
198,8968
270,8724
221,9072
301,65535
302,8674
330,8659
331,8627
115,9012
133,9074
139,65535
134,9048
114,9035
48,65535
69,65535
92,8949
164,65535
4,65535
107,8745
129,8830
109,65535
125,65535
124,65535
127,65535
82,65535
67,65535
91,65535
93,65535
137,65535
113,65535
112,65535
136,65535
49,65535
72,65535
71,65535
406,6872
805,7000
858,6931
859,7032
967,6937
1142,6961
1080,6957
1022,6951
1079,6965
968,6934
1206,6969
915,6982
916,6993
914,6954
807,7068
911,7756
1078,6989
1207,6981
1278,7007
1277,6993
1344,7014
1415,7032
1492,7087
1345,7022
1346,7043
1208,6976
1209,6996
1143,7033
1144,7049
1145,7079
1417,7058
1493,7105
1494,7123
1572,7139
1081,6968
970,7384
408,6924
382,6979
437,6850
467,6830
409,6960
403,6991
432,7269
433,6896
404,6870
352,6926
351,7010
349,6973
317,7133
374,6988
346,7007
283,7019
410,6867
438,6884
465,6857
490,6794
491,6779
435,6875
436,6884
379,6899
323,7041
289,6990
377,6896
378,6869
592,7113
593,7153
552,6998
445,7098
424,7141
423,7158
416,7217
361,7166
362,7151
371,7064
372,7099
343,7025
344,7029
286,7048
227,7007
252,7017
284,6967
318,6950
250,7072
312,7008
340,7004
368,7063
369,7073
370,7238
341,7024
367,7076
308,7075
276,7068
277,7048
280,7038
310,7009
338,7096
366,7157
274,7124
305,7173
420,7184
363,7153
418,7096
550,6716
579,6729
576,6707
577,6692
578,6699
520,6705
618,6673
662,6699
619,6669
620,6642
621,6629
665,6657
666,6651
664,6670
580,0
2260,65535
2257,65535
2206,65535
2146,65535
2314,65535
2313,65535
2312,65535
2373,65535
2256,65535
2205,65535
2434,65535
2435,65535
2375,65535
2376,65535
2433,65535
2491,65535
2490,65535
2492,65535
2546,65535
2597,65535
2596,65535
2544,65535
2145,65535
2082,65535
2020,65535
2494,65535
0,65535
11,65535
1052,7348
1053,7335
941,7375
1740,7351
1796,7377
1615,7216
1681,7277
1545,7135
1797,7414
1544,7155
1741,7409
1795,7450
1617,7201
1546,7188
1616,7211
1683,7244
1467,7115
1547,7173
1465,7199
1387,7195
1388,7175
1464,7262
1462,7339
1461,7360
1542,7424
1463,7303
1682,7352
1543,7263
1618,7215
1742,7435
1460,7526
1248,7301
1850,7354
1801,7353
1803,7306
882,6979
881,6988
938,7038
883,6999
940,8118
1998,7297
1902,7238
1807,7146
1691,7187
1694,7093
1693,7141
1749,7218
1752,7167
1753,7124
1627,7071
1628,7041
1557,7019
1479,6971
1402,6941
1808,7135
1946,7435
1947,7370
1948,7357
1997,7312
1855,7159
1690,7166
2060,7430
1949,7585
1950,7281
1751,7210
1692,7169
1999,7289
1901,7629
1900,7641
1852,7365
1853,7244
1805,7226
1750,7223
1854,7200
1806,7186
1748,7267
2061,7484
2000,7414
1804,7419
1899,7385
2884,65535
2892,65535
2883,65535
2876,65535
2874,65535
2882,65535
2877,65535
2911,65535
2905,65535
2906,65535
2896,65535
2887,65535
2881,65535
2880,65535
2888,65535
2902,65535
2903,65535
2907,65535
2912,65535
2895,65535
2894,65535
2875,65535
2885,65535
2893,65535
2904,65535
2865,65535
2866,65535
2909,65535
2913,65535
2886,65535
2878,65535
2869,65535
2871,65535
2872,65535
2879,65535
2870,65535
1330,6995
1331,6953
1401,6946
1262,6983
1263,6977
1478,6957
1403,6936
1261,7086
1480,6947
1264,7003
1390,7109
1389,7136
1319,7129
1251,7142
1250,7228
1285,7159
1284,7144
1214,7118
1146,7097
1505,7306
1504,7276
1582,7279
1581,7240
1713,7252
1771,7234
1654,7378
1653,7350
1651,7303
2096,8062
2033,8022
1972,7993
1923,7925
1922,7903
1874,8104
1873,8021
1919,7652
1829,8274
1579,7203
1424,7196
1711,7215
1348,7080
1419,7170
1359,7409
1429,7365
1428,7354
1421,7123
1577,7156
1499,7132
1230,8185
1365,7562
1511,7491
1300,8167
1366,8139
1512,7509
1716,7433
1503,7293
1276,6998
1347,7081
1349,7106
1645,7212
1578,7190
1770,7228
1715,7309
1150,7243
1217,7255
1149,7220
1580,7229
1352,7176
1502,7218
1825,7608
1718,7573
1717,7549
1872,7987
1656,7453
1648,7255
1712,7239
1213,7126
1212,7183
1084,7130
1420,7107
1281,7098
1282,7306
1587,7431
1586,7397
1585,7437
1652,7420
1427,7340
1975,8097
1977,8165
1932,8235
1931,8860
1426,7301
1422,7138
1425,7261
1583,7368
1501,7222
1283,7162
1286,7220
1215,7149
1211,7143
1210,7151
1083,7101
1655,7464
2220,8103
1355,65535
1772,7257
1436,7558
1435,7549
1589,7482
1163,8219
1735,8448
1791,8381
1841,8358
1840,8314
1219,7305
1220,7347
1647,7241
1646,7233
1279,7098
1714,7286
1575,7278
1576,7244
1498,7240
1573,7167
1496,7202
1497,7249
2177,65535
2176,65535
2294,65535
2293,65535
2237,65535
2236,65535
2364,65535
2302,65535
2301,65535
2245,65535
2056,65535
2057,65535
2055,65535
2184,65535
2120,65535
2244,65535
2538,65535
2537,65535
2591,65535
1940,65535
1989,65535
1990,65535
2539,65535
2482,65535
2483,65535
2424,65535
2121,65535
2119,65535
2050,65535
2049,65535
2048,65535
2185,65535
2243,65535
2299,65535
2241,65535
2485,65535
2542,65535
2353,65535
2292,65535
2419,65535
2478,65535
2479,65535
2536,65535
2484,65535
2486,65535
2354,65535
2416,65535
2242,65535
2355,65535
2300,65535
1991,65535
1992,65535
2477,65535
2534,65535
2535,65535
2588,65535
2587,65535
2630,65535
2051,65535
2116,65535
2175,65535
2586,65535
2541,65535
2178,65535
2179,65535
2240,65535
2239,65535
2238,65535
2052,65535
2053,65535
1987,65535
1988,65535
1939,65535
2594,65535
2593,65535
2358,65535
2357,65535
2420,65535
2247,65535
2427,65535
2428,65535
2181,65535
2180,65535
2417,65535
2590,65535
2297,65535
2361,65535
2362,65535
2423,65535
2422,65535
2174,65535
2356,65535
1941,65535
2365,65535
2112,65535
2047,65535
2182,65535
2359,65535
2533,65535
2295,65535
2115,65535
2632,65535
2631,65535
2186,65535
2298,65535
2360,65535
2235,65535
2291,65535
2487,65535
2246,65535
2425,65535
2117,65535
2543,65535
1893,65535
2421,65535
2476,65535
2592,65535
604,65535
