middle_point_id,reach_time_minutes
2835,65535
2836,65535
2806,65535
2822,65535
2823,65535
2807,65535
2846,65535
887,2535
888,2518
1326,2560
1185,2545
999,2570
1057,2597
1552,2854
1120,2514
1473,3120
944,2671
832,2510
1257,2536
1396,2639
1622,2875
1327,3784
1184,2575
1183,2589
1324,2671
1255,2751
1394,2922
1252,2687
1253,2656
1182,2641
1328,65535
1470,2940
1321,2703
1322,2713
1323,3005
1391,2767
1551,2872
1393,2980
1472,2878
1471,2917
1181,2774
1118,2699
1059,2488
1121,2502
1469,3208
1468,2823
1548,2859
1325,2605
1625,2812
1623,2841
1258,2609
1256,2594
791,2391
891,2469
703,2343
704,2341
660,2337
1553,2859
1624,2828
1554,2872
1474,2880
1475,3361
1550,2882
1549,2934
1320,2769
1466,2803
1541,3160
1318,2845
1249,2868
1186,2516
1003,2481
1002,2485
741,2446
788,2412
434,2444
697,2451
752,2330
1056,2592
1006,2500
907,2429
518,2353
1011,2485
1000,2528
1055,3062
997,3031
994,2925
996,2997
995,2981
991,2772
1112,65535
1114,3012
1051,2975
1398,3852
1395,2730
1001,2509
1811,2809
1960,2987
1769,2907
1823,2916
1329,65535
1332,2622
1259,65535
1200,2517
1199,2515
1140,2556
1141,2557
783,2519
1689,2909
1802,3020
1945,3241
2183,4798
2418,65535
1994,3275
1995,3308
2059,3037
1621,65535
1555,2767
1754,2860
1180,3743
1106,4005
933,4166
827,2648
2122,65535
2124,3074
493,2364
519,2347
544,2352
545,2351
494,2340
470,2356
543,2360
469,2364
517,2369
574,2342
573,2351
495,2336
546,2357
613,2339
612,2343
492,2373
572,2359
571,2381
570,2401
610,2419
575,2325
547,2303
516,2392
611,2361
542,2376
569,2438
609,2451
548,2298
549,2281
1404,2599
1405,2593
1266,2558
1193,2567
743,2422
742,2437
747,2376
746,2384
745,2392
744,2415
790,2404
789,2407
839,2418
838,2435
738,2516
739,2486
740,2463
890,2497
834,2510
784,2499
889,2507
856,2481
855,2460
854,2471
853,2456
852,2427
910,2452
909,2443
908,2438
964,2432
965,2438
1020,2475
966,2458
963,2449
1021,2569
1271,2520
1270,2519
1339,2527
1338,2540
1071,2474
1072,2469
1135,2498
1408,2572
1337,2557
1269,2535
1268,2560
1136,2508
1075,2494
1077,2548
1076,2503
1019,2502
1018,2475
1074,2552
1137,2544
1272,2533
1274,2617
1275,2630
1205,2637
1204,2639
1273,2615
1198,2536
1197,2566
1341,2562
1134,2513
1133,2509
1069,2494
1132,2510
1073,2487
1203,2623
1202,2622
1201,2566
1139,2562
1267,2553
1138,2570
1340,2532
1196,2543
1342,2595
1409,2543
1485,2607
1407,2594
1561,2677
1632,2701
1484,2620
1483,2632
1562,2668
1194,2531
1130,2527
1195,2532
1335,2561
1129,2544
1066,2507
1128,2542
1067,2501
1131,2519
1334,2634
1336,2594
1265,2577
1333,2619
1406,2603
857,2495
803,2522
804,2567
860,2546
969,2539
913,2524
912,2510
861,2580
806,2566
659,2339
751,2359
658,2347
705,2337
702,2356
706,2305
753,2325
614,2335
701,2359
661,2336
616,2324
848,2364
796,2362
797,2355
798,2351
750,2353
707,2278
615,2328
748,2371
845,2401
846,2385
657,2352
749,2386
795,2381
617,2300
663,2263
794,2398
847,2402
849,2370
902,2398
901,2397
900,2432
793,2393
899,2448
898,2469
897,2491
844,2413
842,2432
841,2396
956,2490
792,2386
843,2419
840,2406
850,2377
903,2378
800,2366
755,2393
756,2394
710,2325
711,2458
962,2423
961,2416
904,2400
906,2424
851,2420
802,2413
801,2369
799,2360
959,2432
1014,2447
1013,2472
708,2694
709,2330
754,2347
757,2411
1017,2484
1016,2482
960,2417
905,2436
958,2478
957,2479
1070,2481
1015,2429
1012,2483
1068,2503
1005,2480
1004,2471
1060,2487
1063,2531
1065,2502
1127,2510
1062,2538
1124,2546
1123,2532
1125,2557
1188,2562
1122,2503
1058,2497
947,2523
946,2539
949,2444
945,2557
948,2469
1190,2738
1187,2591
951,2474
895,2438
952,2466
1009,2511
1008,2505
1010,2492
1007,2476
1061,2533
954,2495
896,2435
953,2497
1126,2523
1064,2490
1189,2673
955,2486
950,2498
892,2440
786,2444
836,2440
837,2435
787,2427
700,2390
655,2421
654,2424
653,2443
698,2438
699,2412
608,2459
696,2497
656,2418
833,2505
785,2474
835,2471
693,2504
894,2444
893,2443
1343,2612
1192,2698
1191,2735
828,2638
829,2624
780,2570
830,2619
779,2636
782,2520
529,2567
886,2532
596,2679
556,2662
598,2640
597,2663
526,2645
555,2664
525,2680
524,2686
523,2659
688,2553
607,2465
650,2503
651,2480
652,2490
737,2518
694,2469
695,2456
645,2567
646,2563
690,2536
600,2593
599,2579
781,2525
736,2525
558,2615
644,2569
643,2580
648,2543
692,2519
691,2529
513,2460
541,2403
540,2435
568,2517
530,2635
831,2514
559,2634
560,2639
642,2736
557,2614
496,2694
471,2725
444,2801
446,2754
528,2590
527,2633
562,2578
602,2566
734,2548
466,2477
464,2443
463,2458
478,2658
481,2578
480,2608
479,2633
647,2548
488,2483
502,2616
689,2548
533,2583
532,2592
531,2599
601,2599
484,2566
508,2538
510,2589
509,2563
534,2613
482,2605
506,2606
606,2499
455,2693
429,2562
456,2663
457,2644
428,2590
458,2583
554,2745
594,2808
640,2727
639,2824
551,2651
681,2807
636,2795
635,2769
590,2711
778,2645
777,2652
485,2524
486,2512
462,2471
563,2676
885,2564
943,3731
564,2777
641,2721
504,2605
503,2582
501,2717
500,2784
561,2661
254,2545
350,2554
321,2657
319,2559
251,2592
375,2500
347,2517
687,2599
565,2637
539,2535
511,2571
536,2712
649,2551
603,2735
605,2846
733,2560
735,2537
489,2439
514,2448
461,2529
460,2541
459,2561
468,2381
154,2725
178,2707
203,2685
228,2653
402,2527
401,2577
505,2604
522,2676
451,2838
452,2789
477,2667
476,2730
483,2926
884,2734
431,2524
430,2660
454,2680
595,2734
395,2715
394,2791
422,2810
417,2789
390,2795
538,2553
567,2531
426,2779
397,2698
398,2649
499,2753
475,2802
497,2692
498,2724
311,2596
342,2603
345,2560
421,2858
515,2430
472,3027
448,2988
473,2938
474,2817
353,2602
381,2574
256,2719
290,2680
324,2609
380,2609
407,2505
253,2583
226,2608
201,2621
177,2684
824,2756
775,2702
826,2659
939,2707
936,2758
937,2744
880,2712
566,2610
2821,65535
2834,65535
2833,65535
2789,65535
2790,65535
2770,65535
2788,65535
2776,65535
2795,65535
2775,65535
2794,65535
2825,65535
2824,65535
2826,65535
2811,65535
2812,65535
2796,65535
2827,65535
2858,65535
2855,65535
2849,65535
2838,65535
2814,65535
2813,65535
2828,65535
2839,65535
2791,65535
2792,65535
2803,65535
2830,65535
2815,65535
2819,65535
2818,65535
2817,65535
2831,65535
2810,65535
2829,65535
2783,65535
2820,65535
2804,65535
2785,65535
2784,65535
2762,65535
2768,65535
2751,65535
2750,65535
2733,65535
2769,65535
2720,65535
2761,65535
2741,65535
2837,65535
2793,65535
2808,65535
2753,65535
2736,65535
2735,65535
2809,65535
2772,65535
2845,65535
2844,65535
2848,65535
2777,65535
2778,65535
2779,65535
2759,65535
2780,65535
2797,65535
2843,65535
2832,65535
2842,65535
2758,65535
2738,65535
2774,65535
2773,65535
2771,65535
2851,65535
2847,65535
2854,65535
2721,65535
2756,65535
2737,65535
2840,65535
2752,65535
2754,65535
2755,65535
2852,65535
2853,65535
2856,65535
2841,65535
2742,65535
2727,65535
2744,65535
2726,65535
2743,65535
2725,65535
2746,65535
2787,65535
2766,65535
2763,65535
2765,65535
2745,65535
2764,65535
2552,65535
2501,65535
2443,65535
2442,65535
2320,65535
2381,65535
2382,65535
2498,65535
2499,65535
2438,65535
2439,65535
2497,65535
2441,65535
2379,65535
2380,65535
2319,65535
2551,65535
2550,65535
2563,65535
2321,65535
2322,65535
2383,65535
2384,65535
2446,65535
2445,65535
2503,65535
2385,65535
2504,65535
2505,65535
2557,65535
2558,65535
2559,65535
2560,65535
2564,65535
2562,65535
2561,65535
2605,65535
2609,65535
2565,65535
2566,65535
2515,4756
2397,4519
2457,4736
2458,4720
2401,65535
2337,4432
2336,4436
2399,4478
2398,4499
2402,65535
2333,4656
2273,4691
2219,4715
2218,4727
2159,4752
2454,65535
2393,65535
2512,65535
2502,65535
2608,65535
2156,65535
2155,65535
2154,65535
2213,65535
2212,65535
2211,65535
2210,65535
2264,65535
2324,65535
2323,65535
2030,65535
2094,65535
2157,65535
2450,65535
2388,65535
2387,65535
2326,65535
2266,65535
2265,65535
2508,65535
2396,4588
2335,4606
2334,4617
2158,4777
2279,65535
2278,65535
2222,65535
2221,65535
2276,65535
2275,3804
2261,65535
2207,65535
2149,65535
2554,65535
2599,65535
2633,65535
2664,65535
2689,65535
2690,65535
2691,65535
2692,65535
2152,65535
2089,65535
2088,65535
2025,65535
2603,65535
2602,65535
2556,65535
2693,65535
2671,65535
2670,65535
2694,65535
2553,65535
2665,65535
2705,65535
2710,65535
2668,65535
2639,65535
2463,65535
2521,65535
2572,65535
2451,65535
2390,65535
2391,65535
2392,65535
2215,65535
2268,65535
2093,65535
2092,65535
2028,65535
2024,65535
2150,65535
2086,65535
2209,65535
2023,65535
2087,65535
2148,65535
2262,65535
2327,65535
1560,2684
1630,2780
1631,2724
1559,2768
1629,2840
1558,2673
1634,2694
1633,2699
1482,2720
1481,2700
1699,2716
1700,2764
1701,2743
1563,2679
2070,3027
2008,2998
2009,2994
1959,2967
1958,2985
2006,3024
1957,3019
1956,3028
2193,3202
2132,3141
1912,2959
1911,2928
1865,2884
1866,2967
2007,3049
2069,3055
2010,3003
2011,3030
1961,3025
2072,3061
1913,3026
1867,3019
1962,3058
1914,3062
1915,2974
1909,3014
1636,2716
1635,2720
1564,2693
1702,2770
1637,2710
1638,2730
1565,2680
1486,2627
1760,2803
1704,2740
1703,2726
1763,2814
1762,2797
1817,2844
1705,2838
1863,2884
1815,2851
1759,2806
863,3025
758,3113
808,3069
982,3279
1036,3336
1099,3873
1100,3392
1166,3454
1167,3949
1237,3606
1238,3641
1375,3711
1308,3780
1309,3689
1236,3907
1235,3541
1101,3414
1037,3380
971,2890
1025,2896
1026,2909
1027,2935
1089,2949
720,3197
674,3246
864,2994
865,2969
919,2908
1024,2871
975,3007
974,2986
1028,2959
873,3128
925,3073
924,3051
917,2930
918,2906
623,3285
712,3160
713,3194
667,3199
622,3255
809,3055
719,3171
765,3128
972,2904
868,3041
869,3082
815,3108
920,2975
973,2916
981,3248
926,3156
927,3164
928,3193
1354,2908
1288,2863
1218,2837
1152,2895
1023,2843
1353,2974
1085,2817
1148,2745
1147,2738
1082,2710
772,3216
771,3173
819,3148
584,3386
628,3709
629,3683
1033,3193
978,3150
1031,3123
1030,3076
1029,3056
1091,3033
1035,3708
1034,3217
979,3177
1526,3830
1449,3868
1378,3896
1448,3819
1524,3797
1038,3420
1447,3860
1768,2910
1710,2868
1767,2898
391,2767
365,2731
339,2768
400,2604
393,2838
392,2863
396,2738
399,2620
443,2851
449,2889
450,2923
419,2810
414,2907
415,2873
387,2910
388,2872
389,2825
282,2640
281,2665
314,2641
313,2622
405,2455
411,2934
442,2893
255,2590
376,2683
373,2620
278,2605
275,2728
248,2765
335,2839
334,2813
306,2785
307,2762
176,2668
225,2675
320,2586
249,2668
287,2652
285,2623
776,2674
731,2682
315,2621
316,2603
204,2724
440,2373
439,2407
166,4305
269,4046
383,3872
1247,65535
1246,65535
1384,65535
1679,65535
1178,65535
1105,4009
1172,4028
1173,4078
1242,4080
1241,4072
1314,4229
1313,4135
1171,4054
1382,4335
1243,4277
1317,4416
1107,4017
1108,4196
1109,4481
1041,4026
1043,4236
1042,4227
1044,4290
1176,65535
1174,4303
1177,65535
1110,65535
985,4072
986,4115
932,4133
774,2750
730,2694
825,2712
728,2760
729,2720
727,2821
682,2749
684,2718
685,2698
732,2678
683,2902
2134,3655
2194,3684
2068,3145
2129,3199
1905,2906
1907,2947
1906,2886
1953,2973
2002,3004
2064,3041
2125,3048
2137,3796
2196,3752
2195,3707
1859,2820
1810,2850
1755,2890
2131,3092
2192,3130
1862,2914
1861,2833
1812,2811
1860,2903
1809,2838
1756,2798
1869,2921
1822,2940
1821,2919
1916,2969
1819,2867
1764,2847
1820,2871
1698,2747
1757,2784
1566,2671
1567,2633
1488,2608
1489,2650
1412,2658
1413,2637
1414,2618
1818,2886
1568,2857
1410,2542
2128,3229
2189,3256
2066,3182
2065,3206
2067,3196
1643,2852
1571,2785
1491,2700
2004,3171
2003,3052
1697,2768
2135,3677
2075,3118
1642,2821
1955,2990
2130,3228
2005,3055
1858,2883
1816,3688
1864,3681
1766,2892
1910,3054
1868,2912
2188,4075
2127,4044
1903,2926
2001,3015
2063,3668
2062,3262
1813,2816
1758,2753
1639,2779
1640,2798
1952,3026
2126,4642
1569,2757
1965,3073
1966,3119
2014,3224
1490,2712
1917,3001
1870,2964
1871,2974
1570,2748
1707,2844
2076,3138
2013,3074
1964,3026
1487,2591
1908,3275
2251,65535
2199,65535
2198,65535
2136,3700
1641,2953
1954,3706
1765,2865
1857,2899
2187,3325
1904,2930
1856,2889
1951,3035
1708,3723
245,4110
244,4098
357,3986
246,4135
247,4162
197,4237
223,4215
44,4579
43,4639
3,4775
23,4749
22,4738
63,4521
85,4463
84,4418
108,4384
149,4338
172,4302
296,3966
294,4014
355,4114
354,4146
326,4224
295,4123
291,4135
293,4257
260,4277
356,4174
441,3774
412,3797
329,4132
300,4076
148,4480
214,4296
146,4411
110,4663
262,4109
258,4522
292,4285
257,4587
235,4385
187,4464
212,4491
211,4495
186,4576
162,4590
161,4603
165,4358
189,4414
238,4244
237,4209
263,4145
265,4250
266,4270
267,4295
268,4344
26,4739
25,4707
105,65535
62,65535
83,65535
126,4599
175,4520
152,4454
151,4444
150,4403
103,65535
242,4400
191,4570
192,4624
217,4650
218,65535
145,4390
144,4717
167,4332
190,4558
219,65535
159,65535
185,65535
158,65535
188,4447
160,65535
143,65535
122,65535
75,65535
54,65535
198,4648
270,4404
221,4752
301,65535
302,4354
330,4339
331,4307
115,4692
133,4754
139,65535
134,4728
114,4715
48,65535
69,65535
92,4629
164,65535
4,65535
107,4425
129,4510
109,65535
125,65535
124,65535
127,65535
82,65535
67,65535
91,65535
93,65535
137,65535
113,65535
112,65535
136,65535
49,65535
72,65535
71,65535
406,2521
805,2560
858,2506
859,2536
967,2530
1142,2572
1080,2570
1022,2544
1079,2562
968,2526
1206,2582
915,2566
916,2590
914,2539
807,2688
911,3436
1078,2580
1207,2577
1278,2615
1277,2591
1344,2634
1415,2652
1492,2707
1345,2642
1346,2663
1208,2582
1209,2616
1143,2653
1144,2669
1145,2699
1417,2689
1493,2727
1494,2745
1572,2764
1081,2555
970,3064
408,2604
382,2579
437,2467
467,2450
409,2524
403,2549
432,2949
433,2576
404,2550
352,2606
351,2690
349,2561
317,2562
374,2509
346,2687
283,2612
410,2427
438,2444
465,2458
490,2418
491,2401
435,2483
436,2471
379,2579
323,2721
289,2670
377,2576
378,2549
592,2793
593,2833
552,2678
445,2778
424,2806
423,2753
416,2897
361,2846
362,2831
371,2692
372,2649
343,2705
344,2709
286,2728
227,2687
252,2619
284,2587
318,2568
250,2636
312,2628
340,2642
368,2681
369,2753
370,2918
341,2704
367,2695
308,2755
276,2748
277,2728
280,2658
310,2689
338,2776
366,2837
274,2804
305,2853
420,2864
363,2833
418,2776
550,2290
579,2304
576,2315
577,2293
578,2270
520,2325
618,0
662,2319
619,2266
620,2301
621,2318
665,2307
666,2318
664,2299
580,2329
2260,65535
2257,65535
2206,65535
2146,65535
2314,65535
2313,65535
2312,65535
2373,65535
2256,65535
2205,65535
2434,65535
2435,65535
2375,65535
2376,65535
2433,65535
2491,65535
2490,65535
2492,65535
2546,65535
2597,65535
2596,65535
2544,65535
2145,65535
2082,65535
2020,65535
2494,65535
0,65535
11,65535
1052,3028
1053,3015
941,3055
1740,3031
1796,3057
1615,2896
1681,2957
1545,2815
1797,3094
1544,2835
1741,3089
1795,3130
1617,2881
1546,2868
1616,2891
1683,2924
1467,2795
1547,2853
1465,2879
1387,2875
1388,2855
1464,2942
1462,3019
1461,3040
1542,3104
1463,2983
1682,3032
1543,2943
1618,2895
1742,3115
1460,3206
1248,2981
1850,3034
1801,3033
1803,2986
882,2659
881,2668
938,2718
883,2679
940,3798
1998,2977
1902,2918
1807,2826
1691,2867
1694,2773
1693,2821
1749,2898
1752,2847
1753,2804
1627,2751
1628,2721
1557,2699
1479,2651
1402,2621
1808,2815
1946,3115
1947,3050
1948,3037
1997,2992
1855,2839
1690,2846
2060,3110
1949,3265
1950,2961
1751,2890
1692,2849
1999,2969
1901,3309
1900,3321
1852,3045
1853,2924
1805,2906
1750,2903
1854,2880
1806,2866
1748,2947
2061,3164
2000,3094
1804,3099
1899,3065
2884,65535
2892,65535
2883,65535
2876,65535
2874,65535
2882,65535
2877,65535
2911,65535
2905,65535
2906,65535
2896,65535
2887,65535
2881,65535
2880,65535
2888,65535
2902,65535
2903,65535
2907,65535
2912,65535
2895,65535
2894,65535
2875,65535
2885,65535
2893,65535
2904,65535
2865,65535
2866,65535
2909,65535
2913,65535
2886,65535
2878,65535
2869,65535
2871,65535
2872,65535
2879,65535
2870,65535
1330,2675
1331,2633
1401,2626
1262,2663
1263,2657
1478,2637
1403,2616
1261,2766
1480,2627
1264,2683
1390,2789
1389,2816
1319,2809
1251,2822
1250,2908
1285,2765
1284,2751
1214,2738
1146,2720
1505,2968
1504,2925
1582,2959
1581,2903
1713,2872
1771,2854
1654,2998
1653,2968
1651,2923
2096,3742
2033,3702
1972,3673
1923,3605
1922,3583
1874,3277
1873,3239
1919,3214
1829,3954
1579,2823
1424,2827
1711,2856
1348,2700
1419,2730
1359,3089
1429,3045
1428,3034
1421,2740
1577,2780
1499,2756
1230,3865
1365,3242
1511,3171
1300,3847
1366,3819
1512,3189
1716,3053
1503,2973
1276,2618
1347,2700
1349,2726
1645,2833
1578,2810
1770,2859
1715,2914
1150,2799
1217,2811
1149,2775
1580,2865
1352,2833
1502,2854
1825,3169
1718,3134
1717,3110
1872,3292
1656,3075
1648,2875
1712,2859
1213,2806
1212,2786
1084,2750
1420,2734
1281,2706
1282,2774
1587,3046
1586,3013
1585,3003
1652,2989
1427,2961
1975,3777
1977,3845
1932,3915
1931,4540
1426,2917
1422,2745
1425,2876
1583,2934
1501,2862
1283,2782
1286,2800
1215,2829
1211,2696
1210,2666
1083,2721
1655,3056
2220,3783
1355,65535
1772,2894
1436,3238
1435,3229
1589,3162
1163,3899
1735,4128
1791,4061
1841,4038
1840,3994
1219,2897
1220,2936
1647,2888
1646,2880
1279,2658
1714,2906
1575,2838
1576,2804
1498,2800
1573,2847
1496,2868
1497,2839
2177,65535
2176,65535
2294,65535
2293,65535
2237,65535
2236,65535
2364,65535
2302,65535
2301,65535
2245,65535
2056,65535
2057,65535
2055,65535
2184,65535
2120,65535
2244,65535
2538,65535
2537,65535
2591,65535
1940,65535
1989,65535
1990,65535
2539,65535
2482,65535
2483,65535
2424,65535
2121,65535
2119,65535
2050,65535
2049,65535
2048,65535
2185,65535
2243,65535
2299,65535
2241,65535
2485,65535
2542,65535
2353,65535
2292,65535
2419,65535
2478,65535
2479,65535
2536,65535
2484,65535
2486,65535
2354,65535
2416,65535
2242,65535
2355,65535
2300,65535
1991,65535
1992,65535
2477,65535
2534,65535
2535,65535
2588,65535
2587,65535
2630,65535
2051,65535
2116,65535
2175,65535
2586,65535
2541,65535
2178,65535
2179,65535
2240,65535
2239,65535
2238,65535
2052,65535
2053,65535
1987,65535
1988,65535
1939,65535
2594,65535
2593,65535
2358,65535
2357,65535
2420,65535
2247,65535
2427,65535
2428,65535
2181,65535
2180,65535
2417,65535
2590,65535
2297,65535
2361,65535
2362,65535
2423,65535
2422,65535
2174,65535
2356,65535
1941,65535
2365,65535
2112,65535
2047,65535
2182,65535
2359,65535
2533,65535
2295,65535
2115,65535
2632,65535
2631,65535
2186,65535
2298,65535
2360,65535
2235,65535
2291,65535
2487,65535
2246,65535
2425,65535
2117,65535
2543,65535
1893,65535
2421,65535
2476,65535
2592,65535
604,65535
