middle_point_id,reach_time_minutes
2835,65535
2836,65535
2806,65535
2822,65535
2823,65535
2807,65535
2846,65535
887,84
888,72
1326,220
1185,189
999,224
1057,197
1552,625
1120,174
1473,699
944,271
832,59
1257,196
1396,739
1622,655
1327,904
1184,179
1183,189
1324,391
1255,413
1394,505
1252,287
1253,256
1182,241
1328,65535
1470,540
1321,303
1322,313
1323,437
1391,367
1551,589
1393,481
1472,555
1471,520
1181,494
1118,299
1059,150
1121,162
1469,645
1468,423
1548,459
1325,265
1625,652
1623,646
1258,279
1256,314
791,134
891,129
703,169
704,182
660,178
1553,627
1624,667
1554,652
1474,640
1475,693
1550,581
1549,524
1320,369
1466,403
1541,760
1318,445
1249,468
1186,176
1003,141
1002,152
741,76
788,107
434,158
697,164
752,195
1056,250
1006,165
907,345
518,211
1011,286
1000,188
1055,662
997,631
994,525
996,597
995,581
991,372
1112,4071
1114,612
1051,575
1398,732
1395,750
1001,169
1811,556
1960,756
1769,760
1823,759
1329,65535
1332,432
1259,2216
1200,355
1199,355
1140,516
1141,517
783,49
1689,689
1802,740
1945,1916
2183,2398
2418,2847
1994,1952
1995,2348
2059,1291
1621,65535
1555,607
1754,641
1180,1343
1106,1510
933,1766
827,128
2122,2813
2124,809
493,222
519,215
544,207
545,208
494,220
470,242
543,203
469,227
517,226
574,210
573,192
495,238
546,213
613,172
612,183
492,230
572,199
571,217
570,224
610,210
575,266
547,258
516,263
611,201
542,214
569,250
609,225
548,290
549,319
1404,352
1405,346
1266,315
1193,227
743,94
742,89
747,144
746,155
745,147
744,137
790,130
789,115
839,111
838,100
738,45
739,60
740,69
890,107
834,74
784,73
889,82
856,433
855,420
854,428
853,441
852,356
910,412
909,401
908,358
964,352
965,398
1020,503
966,418
963,334
1021,529
1271,353
1270,351
1339,367
1338,380
1071,337
1072,349
1135,367
1408,403
1337,338
1269,325
1268,319
1136,368
1075,429
1077,508
1076,466
1019,462
1018,435
1074,392
1137,384
1272,361
1274,457
1275,470
1205,477
1204,518
1273,468
1198,376
1197,346
1341,402
1134,353
1133,311
1069,304
1132,284
1073,383
1203,500
1202,465
1201,399
1139,508
1267,311
1138,416
1340,372
1196,299
1342,436
1409,407
1485,443
1407,408
1561,446
1632,451
1484,438
1483,402
1562,436
1194,236
1130,230
1195,253
1335,331
1129,218
1066,211
1128,214
1067,292
1131,259
1334,434
1336,323
1265,335
1333,422
1406,345
857,828
803,3562
804,7039
860,7047
969,7000
913,6987
912,6925
861,7057
806,7100
659,176
751,190
658,166
705,185
702,160
706,211
753,208
614,176
701,148
661,187
616,188
848,242
796,222
797,228
798,226
750,193
707,273
615,221
748,181
845,243
846,253
657,226
749,195
795,222
617,231
663,296
794,224
847,249
849,270
902,277
901,297
900,309
793,162
899,231
898,196
897,175
844,233
842,153
841,143
956,807
792,140
843,183
840,168
850,277
903,257
800,266
755,293
756,317
710,373
711,418
962,323
961,316
904,270
906,337
851,332
802,313
801,277
799,243
959,332
1014,344
1013,328
708,905
709,879
754,315
757,341
1017,401
1016,382
960,301
905,336
958,438
957,1266
1070,321
1015,329
1012,320
1068,282
1005,126
1004,131
1060,147
1063,168
1065,196
1127,230
1062,188
1124,204
1123,192
1125,192
1188,231
1122,166
1058,157
947,166
946,156
949,104
945,123
948,129
1190,338
1187,251
951,161
895,138
952,186
1009,233
1008,186
1010,291
1007,174
1061,253
954,223
896,147
953,157
1126,213
1064,172
1189,273
955,821
950,147
892,100
786,94
836,94
837,97
787,99
700,170
655,197
654,174
653,196
698,168
699,153
608,238
696,97
656,194
833,65
785,80
835,89
693,55
894,112
893,103
1343,452
1192,506
1191,515
828,118
829,104
780,57
830,99
779,101
782,52
529,116
886,72
596,189
556,172
598,60
597,83
526,194
555,264
525,239
524,253
523,232
688,16
607,220
650,209
651,174
652,204
737,43
694,93
695,85
645,7
646,0
690,24
600,20
599,30
781,42
736,33
558,148
644,37
643,60
648,58
692,48
691,27
513,295
541,267
540,302
568,323
530,115
831,84
559,132
560,41
642,144
557,139
496,265
471,325
444,401
446,354
528,123
527,174
562,58
602,22
734,28
466,293
464,204
463,247
478,333
481,236
480,279
479,324
647,44
488,262
502,134
689,17
533,62
532,72
531,96
601,13
484,282
508,306
510,311
509,315
534,284
482,272
506,204
606,275
455,404
429,310
456,364
457,298
428,363
458,296
554,345
594,350
640,203
639,309
551,263
681,407
636,395
635,369
590,311
778,125
777,132
485,244
486,232
462,191
563,156
885,104
943,1331
564,221
641,169
504,184
503,147
501,143
500,201
561,90
254,247
350,208
321,291
319,246
251,287
375,220
347,298
687,79
565,292
539,319
511,290
536,312
649,103
603,141
605,663
733,47
735,33
489,279
514,310
461,430
460,423
459,313
468,221
154,404
178,350
203,335
228,305
402,275
401,287
505,204
522,250
451,438
452,389
477,341
476,292
483,526
884,142
431,285
430,322
454,435
595,277
395,389
394,409
422,483
417,389
390,435
538,266
567,251
426,506
397,400
398,448
499,353
475,402
497,270
498,287
311,314
342,356
345,330
421,458
515,276
472,627
448,588
473,538
474,417
353,262
381,237
256,319
290,293
324,269
380,272
407,225
253,301
226,327
201,340
177,397
824,296
775,238
826,139
939,187
936,358
937,253
880,161
566,315
2821,65535
2834,65535
2833,65535
2789,65535
2790,65535
2770,65535
2788,65535
2776,65535
2795,65535
2775,65535
2794,65535
2825,65535
2824,65535
2826,65535
2811,65535
2812,65535
2796,65535
2827,65535
2858,65535
2855,65535
2849,65535
2838,65535
2814,65535
2813,65535
2828,65535
2839,65535
2791,65535
2792,65535
2803,65535
2830,65535
2815,65535
2819,65535
2818,65535
2817,65535
2831,65535
2810,65535
2829,65535
2783,65535
2820,65535
2804,65535
2785,65535
2784,65535
2762,65535
2768,65535
2751,65535
2750,65535
2733,65535
2769,65535
2720,65535
2761,65535
2741,65535
2837,65535
2793,65535
2808,65535
2753,65535
2736,65535
2735,65535
2809,65535
2772,65535
2845,65535
2844,65535
2848,65535
2777,65535
2778,65535
2779,65535
2759,65535
2780,65535
2797,65535
2843,65535
2832,65535
2842,65535
2758,65535
2738,65535
2774,65535
2773,65535
2771,65535
2851,65535
2847,65535
2854,65535
2721,65535
2756,65535
2737,65535
2840,65535
2752,65535
2754,65535
2755,65535
2852,65535
2853,65535
2856,65535
2841,65535
2742,65535
2727,65535
2744,65535
2726,65535
2743,65535
2725,65535
2746,65535
2787,65535
2766,65535
2763,65535
2765,65535
2745,65535
2764,65535
2552,65535
2501,65535
2443,65535
2442,65535
2320,65535
2381,65535
2382,65535
2498,65535
2499,65535
2438,65535
2439,65535
2497,65535
2441,65535
2379,65535
2380,65535
2319,65535
2551,65535
2550,65535
2563,7557
2321,4213
2322,4182
2383,4194
2384,4905
2446,4948
2445,4956
2503,4975
2385,4939
2504,7678
2505,7700
2557,7724
2558,7749
2559,7773
2560,7737
2564,7513
2562,7625
2561,7665
2605,7680
2609,5264
2565,5209
2566,5194
2515,5139
2397,3559
2457,5120
2458,5104
2401,3731
2337,3472
2336,3476
2399,3518
2398,3539
2402,3765
2333,3696
2273,3731
2219,3755
2218,3767
2159,3792
2454,5824
2393,5790
2512,7524
2502,8309
2608,7943
2156,3914
2155,3946
2154,3975
2213,3991
2212,4003
2211,4051
2210,4092
2264,4099
2324,4133
2323,4149
2030,65535
2094,65535
2157,3878
2450,7921
2388,7970
2387,8038
2326,8075
2266,4280
2265,4235
2508,7892
2396,3628
2335,3646
2334,3657
2158,3817
2279,7345
2278,7309
2222,7278
2221,7260
2276,7242
2275,2844
2261,5727
2207,6585
2149,6644
2554,5027
2599,5057
2633,5095
2664,5130
2689,5167
2690,5193
2691,5209
2692,5233
2152,6338
2089,7046
2088,6384
2025,7179
2603,65535
2602,65535
2556,65535
2693,7172
2671,8955
2670,8935
2694,8894
2553,65535
2665,65535
2705,65535
2710,65535
2668,65535
2639,65535
2463,6586
2521,6622
2572,6645
2451,7806
2390,7775
2391,7595
2392,6232
2215,7800
2268,65535
2093,65535
2092,65535
2028,65535
2024,6414
2150,4452
2086,4482
2209,4439
2023,5553
2087,5506
2148,8599
2262,5712
2327,65535
1560,473
1630,501
1631,459
1559,510
1629,562
1558,513
1634,456
1633,452
1482,382
1481,456
1699,462
1700,478
1701,461
1563,469
2070,783
2008,772
2009,779
1959,752
1958,714
2006,739
1957,710
1956,703
2193,1396
2132,1367
1912,788
1911,803
1865,652
1866,751
2007,777
2069,812
2010,823
2011,909
1961,793
2072,839
1913,817
1867,848
1962,835
1914,844
1915,800
1909,738
1636,499
1635,505
1564,478
1702,535
1637,537
1638,576
1565,465
1486,431
1760,632
1704,522
1703,508
1763,554
1762,527
1817,531
1705,582
1863,1310
1815,1386
1759,497
863,1808
758,1901
808,1852
982,2023
1036,2030
1099,2065
1100,2093
1166,2494
1167,2989
1237,2646
1238,2681
1375,2751
1308,2820
1309,2729
1236,2947
1235,2581
1101,2124
1037,2061
971,1604
1025,1587
1026,1602
1027,1615
1089,1628
720,1864
674,1910
864,1690
865,1711
919,1606
1024,1551
975,1725
974,1695
1028,1650
873,2050
925,1996
924,1973
917,1670
918,1646
623,2085
712,1957
713,1990
667,1995
622,2053
809,1838
719,1838
765,1799
972,1636
868,1748
869,1760
815,1779
920,2015
973,1681
981,1974
926,2075
927,2083
928,2107
1354,1600
1288,1541
1218,1517
1152,1586
1023,1515
1353,1614
1085,1495
1148,1425
1147,1418
1082,1369
772,2136
771,2093
819,2068
584,1984
628,1951
629,1940
1033,1871
978,1826
1031,1799
1030,1753
1029,1736
1091,1713
1035,1952
1034,1895
979,1853
1526,2870
1449,2908
1378,2936
1448,2859
1524,2837
1038,2108
1447,2900
1768,764
1710,720
1767,771
391,422
365,383
339,368
400,418
393,438
392,463
396,384
399,551
443,451
449,548
450,523
419,556
414,507
415,473
387,510
388,472
389,440
282,505
281,431
314,400
313,356
405,175
411,534
442,493
255,280
376,283
373,298
278,325
275,448
248,495
335,585
334,557
306,520
307,509
176,446
225,314
320,289
249,521
287,252
285,295
776,184
731,195
315,491
316,474
204,351
440,317
439,329
166,1905
269,1822
383,1760
1247,4390
1246,4412
1384,4496
1679,4658
1178,1728
1105,1526
1172,1533
1173,1544
1242,1581
1241,1610
1314,1829
1313,1735
1171,1593
1382,1935
1243,1626
1317,2016
1107,1542
1108,1579
1109,1636
1041,1540
1043,1836
1042,1827
1044,1890
1176,1629
1174,1903
1177,1681
1110,1689
985,1672
986,1715
932,1733
774,244
730,213
825,252
728,279
729,221
727,421
682,276
684,258
685,208
732,218
683,502
2134,1361
2194,1362
2068,1211
2129,1265
1905,661
1907,622
1906,628
1953,672
2002,724
2064,760
2125,779
2137,1601
2196,1555
2195,1502
1859,563
1810,606
1755,515
2131,793
2192,830
1862,1299
1861,608
1812,553
1860,577
1809,680
1756,505
1869,644
1822,722
1821,698
1916,682
1819,587
1764,581
1820,595
1698,468
1757,510
1566,548
1567,510
1488,461
1489,456
1412,444
1413,451
1414,495
1818,561
1568,539
1410,415
2128,1296
2189,1323
2066,1261
2065,1250
2067,1262
1643,638
1571,582
1491,530
2004,1291
2003,825
1697,489
2135,1313
2075,1237
1642,597
1955,670
2130,1480
2005,770
1858,622
1816,8488
1864,8481
1766,623
1910,1286
1868,635
2188,1675
2127,1644
1903,743
2001,853
2063,1302
2062,1314
1813,516
1758,496
1639,638
1640,576
1952,745
2126,8570
1569,545
1965,789
1966,835
2014,852
1490,502
1917,696
1870,747
1871,791
1570,604
1707,673
2076,918
2013,1286
1964,793
1487,467
1908,1249
2251,3681
2199,3625
2198,3488
2136,1300
1641,694
1954,1306
1765,589
1857,670
2187,925
1904,721
1856,721
1951,782
1708,1323
245,8799
244,8782
357,8786
246,8914
247,8943
197,9037
223,9015
44,9379
43,9439
3,9575
23,9549
22,9538
63,9321
85,9263
84,9218
108,8718
149,8672
172,9063
296,8766
294,8814
355,8914
354,8946
326,9024
295,8923
291,8935
293,9057
260,8943
356,8974
441,8574
412,8597
329,8932
300,8876
148,8646
214,8884
146,8767
110,8848
262,8909
258,9322
292,9085
257,9387
235,8907
187,8807
212,8863
211,8890
186,8811
162,8785
161,8864
165,8763
189,8963
238,9044
237,9009
263,8945
265,8964
266,8942
267,8930
268,8770
26,9539
25,9507
105,65535
62,65535
83,65535
126,8885
175,9320
152,9254
151,9244
150,9203
103,8823
242,8716
191,8670
192,8721
217,8744
218,8797
145,8707
144,8791
167,8699
190,8677
219,8814
159,8911
185,8855
158,8968
188,8799
160,8876
143,65535
122,65535
75,65535
54,65535
198,9448
270,8811
221,8852
301,8909
302,8746
330,8773
331,8795
115,8847
133,8906
139,8803
134,8880
114,9404
48,65535
69,65535
92,9080
164,8873
4,65535
107,9225
129,9310
109,8750
125,8791
124,8765
127,65535
82,65535
67,65535
91,9248
93,9047
137,9182
113,9202
112,9160
136,65535
49,65535
72,65535
71,65535
406,241
805,7090
858,6895
859,7036
967,1074
1142,1209
1080,6735
1022,6776
1079,6768
968,6891
1206,1166
915,7042
916,7077
914,7014
807,7129
911,8236
1078,6992
1207,1224
1278,1268
1277,1271
1344,1291
1415,1332
1492,1387
1345,1348
1346,1318
1208,1216
1209,1296
1143,1333
1144,1349
1145,1364
1417,1344
1493,1404
1494,1423
1572,1438
1081,7061
970,7264
408,266
382,259
437,284
467,246
409,270
403,315
432,375
433,391
404,293
352,292
351,290
349,253
317,445
374,268
346,319
283,479
410,324
438,315
465,226
490,294
491,270
435,215
436,223
379,241
323,321
289,340
377,224
378,249
592,393
593,419
552,250
445,378
424,421
423,438
416,491
361,506
362,491
371,445
372,379
343,534
344,520
286,328
227,306
252,296
284,315
318,323
250,352
312,326
340,319
368,343
369,353
370,518
341,332
367,356
308,479
276,450
277,447
280,378
310,343
338,390
366,437
274,472
305,637
420,600
363,490
418,498
550,7081
579,7104
576,7049
577,7061
578,7077
520,7057
618,7071
662,7101
619,7088
620,7101
621,7095
665,7077
666,7069
664,7097
580,7116
2260,65535
2257,65535
2206,65535
2146,65535
2314,65535
2313,65535
2312,65535
2373,65535
2256,65535
2205,65535
2434,65535
2435,65535
2375,65535
2376,65535
2433,65535
2491,65535
2490,65535
2492,65535
2546,65535
2597,65535
2596,65535
2544,65535
2145,65535
2082,65535
2020,65535
2494,65535
0,65535
11,65535
1052,628
1053,615
941,655
1740,631
1796,672
1615,496
1681,557
1545,415
1797,694
1544,435
1741,689
1795,730
1617,481
1546,468
1616,491
1683,524
1467,395
1547,453
1465,479
1387,475
1388,455
1464,542
1462,619
1461,640
1542,704
1463,583
1682,632
1543,543
1618,495
1742,715
1460,806
1248,581
1850,759
1801,768
1803,714
882,139
881,146
938,198
883,159
940,1398
1998,1265
1902,889
1807,666
1691,659
1694,613
1693,1312
1749,678
1752,687
1753,644
1627,587
1628,561
1557,539
1479,433
1402,429
1808,655
1946,1435
1947,1380
1948,1284
1997,1280
1855,669
1690,669
2060,1390
1949,1439
1950,927
1751,702
1692,749
1999,1246
1901,1305
1900,1246
1852,1218
1853,1180
1805,829
1750,690
1854,889
1806,808
1748,728
2061,1340
2000,1294
1804,699
1899,1267
2884,65535
2892,65535
2883,65535
2876,65535
2874,65535
2882,65535
2877,65535
2911,65535
2905,65535
2906,65535
2896,65535
2887,65535
2881,65535
2880,65535
2888,65535
2902,65535
2903,65535
2907,65535
2912,65535
2895,65535
2894,65535
2875,65535
2885,65535
2893,65535
2904,65535
2865,65535
2866,65535
2909,65535
2913,65535
2886,65535
2878,65535
2869,65535
2871,65535
2872,65535
2879,65535
2870,65535
1330,455
1331,438
1401,436
1262,477
1263,469
1478,479
1403,410
1261,486
1480,424
1264,467
1390,389
1389,416
1319,409
1251,422
1250,508
1285,1442
1284,1446
1214,1418
1146,1384
1505,1667
1504,1601
1582,1639
1581,1567
1713,1546
1771,1528
1654,1678
1653,1651
1651,1603
2096,2782
2033,2742
1972,2713
1923,2645
1922,2623
1874,2317
1873,2030
1919,1983
1829,2994
1579,1503
1424,1495
1711,1520
1348,1344
1419,1364
1359,1771
1429,1722
1428,1708
1421,1421
1577,1455
1499,1428
1230,2015
1365,1952
1511,1874
1300,1997
1366,1969
1512,1902
1716,1736
1503,2013
1276,1298
1347,1328
1349,1376
1645,1512
1578,1490
1770,1524
1715,1579
1150,1483
1217,1497
1149,1459
1580,1529
1352,1536
1502,1518
1825,1936
1718,1891
1717,1865
1872,1969
1656,1780
1648,1555
1712,1532
1213,1408
1212,1389
1084,1430
1420,1410
1281,1334
1282,1395
1587,1774
1586,1741
1585,1730
1652,1698
1427,1876
1975,2817
1977,2885
1932,2955
1931,3580
1426,1596
1422,1438
1425,1581
1583,1667
1501,1525
1283,1436
1286,1483
1215,1468
1211,1365
1210,1339
1083,1401
1655,1769
2220,2823
1355,5891
1772,1537
1436,1920
1435,1910
1589,1843
1163,2048
1735,3168
1791,3101
1841,3078
1840,3034
1219,1600
1220,1639
1647,1541
1646,1533
1279,1286
1714,1556
1575,1515
1576,1477
1498,1485
1573,1527
1496,1545
1497,1516
2177,2965
2176,3035
2294,2952
2293,3071
2237,3012
2236,3041
2364,2813
2302,2753
2301,2675
2245,2577
2056,2707
2057,2793
2055,2686
2184,2738
2120,2744
2244,2658
2538,2998
2537,2979
2591,3095
1940,2870
1989,2878
1990,2814
2539,2998
2482,2989
2483,2951
2424,2847
2121,2805
2119,2618
2050,2927
2049,3005
2048,3423
2185,2771
2243,2497
2299,2711
2241,2660
2485,3029
2542,3084
2353,3043
2292,2950
2419,2837
2478,2884
2479,2919
2536,2946
2484,2990
2486,2983
2354,2882
2416,3059
2242,2705
2355,2920
2300,2718
1991,2818
1992,2825
2477,2875
2534,2896
2535,3011
2588,2916
2587,2930
2630,2981
2051,2739
2116,2633
2175,3068
2586,65535
2541,3151
2178,2940
2179,2743
2240,2690
2239,2914
2238,2984
2052,2870
2053,2836
1987,3110
1988,2958
1939,2982
2594,3101
2593,3086
2358,2804
2357,2814
2420,2870
2247,2866
2427,2956
2428,2978
2181,2537
2180,2586
2417,2864
2590,3076
2297,2699
2361,2891
2362,2774
2423,2862
2422,2827
2174,3298
2356,2925
1941,2859
2365,2990
2112,3303
2047,3445
2182,2676
2359,2753
2533,3691
2295,3016
2115,2706
2632,3136
2631,3075
2186,2923
2298,2785
2360,2809
2235,3261
2291,3274
2487,3205
2246,2798
2425,3606
2117,2930
2543,3158
1893,65535
2421,2962
2476,2880
2592,3134
604,7066
