middle_point_id,reach_time_minutes
2835,65535
2836,65535
2806,65535
2822,65535
2823,65535
2807,65535
2846,65535
887,193
888,193
1326,815
1185,249
999,290
1057,470
1552,1069
1120,234
1473,1094
944,317
832,179
1257,775
1396,1199
1622,1135
1327,3784
1184,239
1183,250
1324,780
1255,951
1394,1242
1252,355
1253,316
1182,260
1328,65535
1470,1205
1321,354
1322,321
1323,2405
1391,852
1551,1075
1393,1213
1472,1515
1471,1189
1181,434
1118,298
1059,210
1121,222
1469,932
1468,837
1548,1248
1325,871
1625,1012
1623,1077
1258,337
1256,851
791,79
891,129
703,69
704,84
660,81
1553,1072
1624,1027
1554,1130
1474,1103
1475,1127
1550,1127
1549,1251
1320,756
1466,869
1541,2515
1318,826
1249,846
1186,296
1003,202
1002,215
741,135
788,92
434,233
697,77
752,99
1056,312
1006,161
907,209
518,132
1011,220
1000,248
1055,1502
997,1382
994,1288
996,1376
995,1363
991,1332
1112,65535
1114,1334
1051,1315
1398,1692
1395,1290
1001,228
1811,962
1960,1195
1769,1076
1823,1050
1329,65535
1332,458
1259,955
1200,264
1199,270
1140,339
1141,337
783,166
1689,1158
1802,1340
1945,1801
2183,2419
2418,2837
1994,1835
1995,1868
2059,1417
1621,65535
1555,967
1754,1064
1180,863
1106,2470
933,2726
827,248
2122,2659
2124,1499
493,172
519,138
544,127
545,129
494,151
470,167
543,127
469,209
517,137
574,145
573,111
495,160
546,135
613,112
612,123
492,175
572,90
571,64
570,44
610,30
575,176
547,158
516,160
611,201
542,107
569,60
609,42
548,2229
549,2264
1404,310
1405,286
1266,255
1193,227
743,117
742,111
747,56
746,73
745,83
744,93
790,81
789,86
839,108
838,95
738,163
739,157
740,142
890,161
834,179
784,167
889,177
856,256
855,240
854,248
853,236
852,227
910,232
909,223
908,218
964,212
965,218
1020,254
966,243
963,219
1021,289
1271,267
1270,269
1339,278
1338,296
1071,254
1072,249
1135,278
1408,307
1337,319
1269,300
1268,279
1136,237
1075,309
1077,333
1076,294
1019,287
1018,311
1074,272
1137,264
1272,300
1274,376
1275,410
1205,452
1204,437
1273,347
1198,259
1197,254
1341,405
1134,249
1133,245
1069,225
1132,224
1073,207
1203,403
1202,345
1201,273
1139,343
1267,268
1138,296
1340,313
1196,251
1342,854
1409,474
1485,792
1407,448
1561,426
1632,468
1484,821
1483,381
1562,418
1194,228
1130,196
1195,237
1335,268
1129,173
1066,158
1128,192
1067,199
1131,201
1334,432
1336,314
1265,335
1333,422
1406,345
857,348
803,382
804,2239
860,2247
969,2200
913,2187
912,2125
861,2257
806,2300
659,79
751,91
658,89
705,88
702,64
706,92
753,122
614,102
701,41
661,97
616,103
848,129
796,102
797,108
798,126
750,86
707,138
615,101
748,84
845,124
846,133
657,106
749,107
795,101
617,111
663,146
794,104
847,129
849,150
902,157
901,153
900,142
793,88
899,168
898,150
897,123
844,133
842,95
841,87
956,162
792,80
843,172
840,125
850,189
903,137
800,200
755,209
756,223
710,253
711,298
962,203
961,196
904,142
906,203
851,207
802,238
801,209
799,183
959,177
1014,227
1013,280
708,425
709,399
754,187
757,251
1017,281
1016,202
960,158
905,156
958,198
957,182
1070,254
1015,178
1012,285
1068,211
1005,175
1004,191
1060,207
1063,191
1065,148
1127,169
1062,198
1124,248
1123,252
1125,222
1188,291
1122,228
1058,217
947,178
946,199
949,159
945,216
948,145
1190,356
1187,314
951,133
895,100
952,126
1009,131
1008,130
1010,227
1007,136
1061,253
954,103
896,95
953,103
1126,213
1064,155
1189,334
955,156
950,147
892,115
786,119
836,115
837,100
787,101
700,17
655,0
654,28
653,76
698,72
699,93
608,80
696,129
656,6
833,178
785,146
835,165
693,168
894,105
893,110
1343,429
1192,914
1191,550
828,245
829,229
780,230
830,257
779,221
782,171
529,322
886,192
596,317
556,353
598,253
597,264
526,375
555,795
525,866
524,883
523,887
688,213
607,119
650,163
651,151
652,146
737,176
694,164
695,150
645,225
646,199
690,198
600,230
599,239
781,185
736,185
558,297
644,229
643,240
648,249
692,179
691,181
513,195
541,117
540,182
568,165
530,350
831,204
559,324
560,889
642,308
557,330
496,923
471,985
444,1031
446,997
528,326
527,336
562,320
602,286
734,208
466,252
464,228
463,287
478,565
481,1069
480,1045
479,542
647,188
488,242
502,349
689,208
533,384
532,406
531,937
601,921
484,349
508,907
510,335
509,917
534,898
482,1107
506,1040
606,155
455,1000
429,1028
456,1405
457,1244
428,1167
458,1065
554,760
594,860
640,387
639,870
551,865
681,964
636,955
635,964
590,913
778,249
777,252
485,331
486,353
462,312
563,1089
885,224
943,246
564,427
641,381
504,385
503,362
501,391
500,446
561,916
254,345
350,285
321,401
319,331
251,372
375,331
347,365
687,259
565,406
539,210
511,420
536,372
649,211
603,853
605,1406
733,227
735,197
489,193
514,201
461,1090
460,1101
459,1121
468,215
154,1298
178,1260
203,1231
228,1150
402,396
401,1096
505,1046
522,894
451,1028
452,997
477,936
476,955
483,1066
884,893
431,317
430,1057
454,1001
595,997
395,1017
394,761
422,958
417,958
390,1014
538,190
567,144
426,1216
397,1082
398,1103
499,1065
475,1149
497,991
498,1007
311,1040
342,1021
345,969
421,799
515,142
472,1116
448,1141
473,1167
474,1211
353,345
381,314
256,476
290,451
324,369
380,331
407,270
253,1119
226,1168
201,1181
177,1244
824,416
775,326
826,259
939,847
936,1318
937,913
880,401
566,974
2821,65535
2834,65535
2833,65535
2789,65535
2790,65535
2770,65535
2788,65535
2776,65535
2795,65535
2775,65535
2794,65535
2825,65535
2824,65535
2826,65535
2811,65535
2812,65535
2796,65535
2827,65535
2858,65535
2855,65535
2849,65535
2838,65535
2814,65535
2813,65535
2828,65535
2839,65535
2791,65535
2792,65535
2803,65535
2830,65535
2815,65535
2819,65535
2818,65535
2817,65535
2831,65535
2810,65535
2829,65535
2783,65535
2820,65535
2804,65535
2785,65535
2784,65535
2762,65535
2768,65535
2751,65535
2750,65535
2733,65535
2769,65535
2720,65535
2761,65535
2741,65535
2837,65535
2793,65535
2808,65535
2753,65535
2736,65535
2735,65535
2809,65535
2772,65535
2845,65535
2844,65535
2848,65535
2777,65535
2778,65535
2779,65535
2759,65535
2780,65535
2797,65535
2843,65535
2832,65535
2842,65535
2758,65535
2738,65535
2774,65535
2773,65535
2771,65535
2851,65535
2847,65535
2854,65535
2721,65535
2756,65535
2737,65535
2840,65535
2752,65535
2754,65535
2755,65535
2852,65535
2853,65535
2856,65535
2841,65535
2742,65535
2727,65535
2744,65535
2726,65535
2743,65535
2725,65535
2746,65535
2787,65535
2766,65535
2763,65535
2765,65535
2745,65535
2764,65535
2552,65535
2501,65535
2443,65535
2442,65535
2320,65535
2381,65535
2382,65535
2498,65535
2499,65535
2438,65535
2439,65535
2497,65535
2441,65535
2379,65535
2380,65535
2319,65535
2551,65535
2550,65535
2563,65535
2321,65535
2322,65535
2383,65535
2384,65535
2446,65535
2445,65535
2503,65535
2385,65535
2504,65535
2505,65535
2557,65535
2558,65535
2559,65535
2560,65535
2564,65535
2562,65535
2561,65535
2605,65535
2609,65535
2565,65535
2566,65535
2515,4756
2397,4519
2457,4736
2458,4720
2401,65535
2337,4432
2336,4436
2399,4478
2398,4499
2402,65535
2333,4656
2273,4691
2219,4715
2218,4727
2159,4752
2454,65535
2393,65535
2512,65535
2502,65535
2608,65535
2156,65535
2155,65535
2154,65535
2213,65535
2212,65535
2211,65535
2210,65535
2264,65535
2324,65535
2323,65535
2030,65535
2094,65535
2157,65535
2450,65535
2388,65535
2387,65535
2326,65535
2266,65535
2265,65535
2508,65535
2396,4588
2335,4606
2334,4617
2158,4777
2279,3866
2278,3830
2222,3799
2221,3781
2276,3763
2275,1885
2261,65535
2207,65535
2149,65535
2554,65535
2599,65535
2633,65535
2664,65535
2689,65535
2690,65535
2691,65535
2692,65535
2152,65535
2089,65535
2088,65535
2025,65535
2603,65535
2602,65535
2556,65535
2693,65535
2671,65535
2670,65535
2694,65535
2553,65535
2665,65535
2705,65535
2710,65535
2668,65535
2639,65535
2463,65535
2521,65535
2572,65535
2451,65535
2390,65535
2391,65535
2392,65535
2215,65535
2268,65535
2093,65535
2092,65535
2028,65535
2024,65535
2150,65535
2086,65535
2209,65535
2023,65535
2087,65535
2148,65535
2262,65535
2327,65535
1560,446
1630,914
1631,876
1559,912
1629,971
1558,873
1634,866
1633,479
1482,798
1481,777
1699,793
1700,824
1701,503
1563,871
2070,1258
2008,1215
2009,1202
1959,1168
1958,1172
2006,1091
1957,1087
1956,1071
2193,1506
2132,1446
1912,1211
1911,1131
1865,1087
1866,1179
2007,1145
2069,1151
2010,1233
2011,1320
1961,1209
2072,1257
1913,1420
1867,1230
1962,1248
1914,1257
1915,1282
1909,1003
1636,818
1635,835
1564,849
1702,774
1637,827
1638,814
1565,853
1486,857
1760,818
1704,955
1703,942
1763,937
1762,1009
1817,1047
1705,863
1863,900
1815,866
1759,985
863,1585
758,1673
808,1629
982,1717
1036,1789
1099,2433
1100,1852
1166,2014
1167,2509
1237,2166
1238,2201
1375,2271
1308,2340
1309,2249
1236,2467
1235,2101
1101,1880
1037,1822
971,1292
1025,1282
1026,1265
1027,1285
1089,1250
720,1630
674,1676
864,1554
865,1529
919,1306
1024,1255
975,1419
974,1357
1028,1353
873,1570
925,1516
924,1493
917,1370
918,1346
623,1845
712,1720
713,1754
667,1759
622,1815
809,1615
719,1602
765,1559
972,1306
868,1506
869,1518
815,1539
920,1414
973,1321
981,1686
926,1595
927,1603
928,1627
1354,1137
1288,1161
1218,1226
1152,1202
1023,1209
1353,1122
1085,1167
1148,1120
1147,1113
1082,1090
772,1656
771,1613
819,1588
584,1750
628,1717
629,1744
1033,1631
978,1588
1031,1561
1030,1514
1029,1496
1091,1473
1035,1715
1034,1655
979,1615
1526,2390
1449,2428
1378,2456
1448,2379
1524,2357
1038,1864
1447,2420
1768,1055
1710,1094
1767,975
391,1037
365,1097
339,1177
400,1060
393,1051
392,1063
396,1045
399,1077
443,1111
449,895
450,865
419,1047
414,1032
415,963
387,955
388,926
389,879
282,994
281,1059
314,1070
313,1097
405,295
411,1234
442,1193
255,1079
376,943
373,1010
278,1105
275,1139
248,1237
335,1067
334,1044
306,1094
307,1128
176,1228
225,414
320,944
249,1095
287,1156
285,992
776,276
731,282
315,1020
316,1119
204,1264
440,302
439,247
166,1425
269,1342
383,1280
1247,65535
1246,65535
1384,65535
1679,65535
1178,3903
1105,2512
1172,2528
1173,2504
1242,3092
1241,2570
1314,3127
1313,3154
1171,2553
1382,4335
1243,2586
1317,4416
1107,2755
1108,3054
1109,3108
1041,2563
1043,3818
1042,3739
1044,4290
1176,3804
1174,4303
1177,3852
1110,3859
985,2632
986,2675
932,2693
774,364
730,294
825,320
728,394
729,320
727,991
682,350
684,978
685,298
732,300
683,2302
2134,1603
2194,1593
2068,1213
2129,1267
1905,1049
1907,1140
1906,1090
1953,1345
2002,1386
2064,1433
2125,1463
2137,1827
2196,1780
2195,1737
1859,1026
1810,1019
1755,909
2131,1264
2192,1300
1862,1176
1861,1075
1812,993
1860,1115
1809,1102
1756,880
1869,1012
1822,1007
1821,983
1916,1050
1819,954
1764,905
1820,970
1698,826
1757,867
1566,786
1567,469
1488,442
1489,1016
1412,844
1413,817
1414,789
1818,975
1568,1074
1410,373
2128,1301
2189,1329
2066,1286
2065,1408
2067,1264
1643,1108
1571,1058
1491,1022
2004,1369
2003,1387
1697,930
2135,1598
2075,1445
1642,1084
1955,1122
2130,1477
2005,1301
1858,1034
1816,3688
1864,3681
1766,968
1910,981
1868,1002
2188,1411
2127,1380
1903,1285
2001,1469
2063,2262
2062,1430
1813,996
1758,917
1639,820
1640,862
1952,1388
2126,3770
1569,971
1965,1302
1966,1348
2014,1368
1490,980
1917,1105
1870,1141
1871,1155
1570,1005
1707,874
2076,1435
2013,1400
1964,1354
1487,425
1908,1057
2251,65535
2199,65535
2198,65535
2136,1585
1641,1105
1954,1303
1765,936
1857,1133
2187,1885
1904,1357
1856,1245
1951,1355
1708,1308
245,3999
244,3982
357,3986
246,4114
247,4143
197,4237
223,4215
44,4579
43,4639
3,4775
23,4749
22,4738
63,4521
85,4463
84,4418
108,3918
149,3872
172,4263
296,3966
294,4014
355,4114
354,4146
326,4224
295,4123
291,4135
293,4257
260,4143
356,4174
441,3774
412,3797
329,4132
300,4076
148,3846
214,4084
146,3967
110,4048
262,4109
258,4522
292,4285
257,4587
235,4107
187,4007
212,4063
211,4090
186,4011
162,3985
161,4064
165,3963
189,4163
238,4244
237,4209
263,4145
265,4164
266,4142
267,4130
268,3970
26,4739
25,4707
105,65535
62,65535
83,65535
126,4085
175,4520
152,4454
151,4444
150,4403
103,4023
242,3916
191,3870
192,3921
217,3944
218,3997
145,3907
144,3991
167,3899
190,3877
219,4014
159,4111
185,4055
158,4168
188,3999
160,4076
143,65535
122,65535
75,65535
54,65535
198,4648
270,4011
221,4052
301,4109
302,3946
330,3973
331,3995
115,4047
133,4106
139,4003
134,4080
114,4604
48,65535
69,65535
92,4280
164,4073
4,65535
107,4425
129,4510
109,3950
125,3991
124,3965
127,65535
82,65535
67,65535
91,4448
93,4247
137,4382
113,4402
112,4360
136,65535
49,65535
72,65535
71,65535
406,321
805,2290
858,2095
859,2236
967,594
1142,729
1080,1935
1022,1976
1079,1968
968,2091
1206,686
915,2242
916,2277
914,2214
807,2329
911,3436
1078,2192
1207,790
1278,815
1277,813
1344,854
1415,1032
1492,1087
1345,894
1346,859
1208,796
1209,996
1143,1033
1144,1049
1145,1079
1417,995
1493,1105
1494,1123
1572,1139
1081,2261
970,2464
408,326
382,369
437,263
467,232
409,341
403,991
432,292
433,264
404,1036
352,1061
351,1087
349,1066
317,412
374,1228
346,1247
283,1053
410,266
438,283
465,212
490,179
491,219
435,274
436,301
379,1595
323,1091
289,1122
377,1069
378,1091
592,956
593,926
552,917
445,1036
424,1153
423,1110
416,2377
361,993
362,969
371,1099
372,1083
343,1109
344,1094
286,1435
227,1143
252,398
284,1007
318,1027
250,1078
312,1068
340,1035
368,1041
369,1174
370,1117
341,1091
367,970
308,1174
276,1158
277,1285
280,1098
310,1084
338,1155
366,1068
274,1173
305,1182
420,1002
363,1031
418,1215
550,2281
579,2304
576,2249
577,2261
578,2277
520,2257
618,2271
662,2301
619,2288
620,2301
621,2295
665,2277
666,2269
664,2297
580,2316
2260,65535
2257,65535
2206,65535
2146,65535
2314,65535
2313,65535
2312,65535
2373,65535
2256,65535
2205,65535
2434,65535
2435,65535
2375,65535
2376,65535
2433,65535
2491,65535
2490,65535
2492,65535
2546,65535
2597,65535
2596,65535
2544,65535
2145,65535
2082,65535
2020,65535
2494,65535
0,65535
11,65535
1052,1468
1053,1455
941,1440
1740,2461
1796,2535
1615,2319
1681,2396
1545,2200
1797,2575
1544,2275
1741,2553
1795,2856
1617,2220
1546,2206
1616,2237
1683,2341
1467,809
1547,887
1465,2180
1387,2247
1388,806
1464,2264
1462,3019
1461,3040
1542,2931
1463,2983
1682,2528
1543,2396
1618,2277
1742,2654
1460,2730
1248,2262
1850,1372
1801,2178
1803,1306
882,259
881,268
938,858
883,279
940,2358
1998,1359
1902,1313
1807,1089
1691,1107
1694,973
1693,1132
1749,1218
1752,1047
1753,1004
1627,950
1628,921
1557,899
1479,741
1402,471
1808,1075
1946,1435
1947,1466
1948,1373
1997,1369
1855,1182
1690,1105
2060,1375
1949,1407
1950,1334
1751,1090
1692,1109
1999,1349
1901,1415
1900,1456
1852,1605
1853,1484
1805,1226
1750,1103
1854,1250
1806,1168
1748,1195
2061,1416
2000,1414
1804,1306
1899,1625
2884,65535
2892,65535
2883,65535
2876,65535
2874,65535
2882,65535
2877,65535
2911,65535
2905,65535
2906,65535
2896,65535
2887,65535
2881,65535
2880,65535
2888,65535
2902,65535
2903,65535
2907,65535
2912,65535
2895,65535
2894,65535
2875,65535
2885,65535
2893,65535
2904,65535
2865,65535
2866,65535
2909,65535
2913,65535
2886,65535
2878,65535
2869,65535
2871,65535
2872,65535
2879,65535
2870,65535
1330,526
1331,475
1401,474
1262,512
1263,508
1478,497
1403,409
1261,900
1480,743
1264,736
1390,788
1389,790
1319,762
1251,765
1250,841
1285,1110
1284,1126
1214,1118
1146,1097
1505,1187
1504,1175
1582,1159
1581,1124
1713,1096
1771,1071
1654,1280
1653,1255
1651,1155
2096,1813
2033,1796
1972,1765
1923,1713
1922,1693
1874,1644
1873,1608
1919,1504
1829,2514
1579,1023
1424,1087
1711,1057
1348,899
1419,1050
1359,1291
1429,1242
1428,1228
1421,946
1577,984
1499,956
1230,1645
1365,1581
1511,1504
1300,1627
1366,1598
1512,1531
1716,1336
1503,1211
1276,1478
1347,1046
1349,1032
1645,1032
1578,1010
1770,1063
1715,1129
1150,1264
1217,1258
1149,1241
1580,1069
1352,1161
1502,1105
1825,1455
1718,1409
1717,1384
1872,1492
1656,1395
1648,1135
1712,1077
1213,1140
1212,1181
1084,1190
1420,930
1281,1096
1282,1216
1587,1236
1586,1205
1585,1195
1652,1179
1427,1231
1975,2337
1977,2405
1932,2475
1931,3100
1426,1239
1422,975
1425,1226
1583,1248
1501,1107
1283,1103
1286,1140
1215,1248
1211,1142
1210,1151
1083,1161
1655,1318
2220,1864
1355,1372
1772,1124
1436,1547
1435,1538
1589,1473
1163,2459
1735,2688
1791,2621
1841,2598
1840,2554
1219,1277
1220,1319
1647,1098
1646,1107
1279,879
1714,1106
1575,1035
1576,997
1498,1005
1573,1110
1496,1065
1497,1036
2177,2762
2176,2827
2294,2887
2293,2908
2237,2868
2236,2890
2364,2738
2302,2668
2301,2649
2245,2604
2056,2477
2057,2641
2055,2472
2184,2811
2120,2734
2244,2431
2538,2939
2537,2919
2591,2956
1940,2780
1989,2764
1990,2720
2539,2962
2482,2968
2483,2937
2424,2932
2121,2913
2119,2449
2050,2859
2049,2881
2048,2943
2185,2806
2243,2444
2299,2669
2241,2669
2485,2899
2542,3011
2353,2954
2292,2930
2419,2828
2478,2836
2479,2853
2536,2880
2484,2954
2486,2847
2354,2878
2416,2970
2242,2491
2355,2845
2300,2798
1991,2803
1992,2544
2477,2879
2534,2914
2535,2870
2588,2935
2587,2950
2630,2990
2051,2626
2116,2594
2175,2878
2586,65535
2541,3082
2178,2728
2179,2699
2240,2699
2239,2770
2238,2825
2052,2670
2053,2765
1987,2848
1988,2768
1939,2774
2594,3084
2593,3056
2358,2726
2357,2769
2420,2879
2247,3061
2427,2832
2428,2890
2181,2489
2180,2541
2417,2858
2590,2935
2297,2702
2361,2926
2362,2870
2423,2905
2422,2764
2174,2971
2356,2835
1941,2802
2365,3147
2112,2899
2047,2965
2182,2501
2359,2692
2533,3211
2295,3051
2115,2637
2632,3061
2631,3000
2186,2768
2298,2529
2360,2584
2235,3661
2291,3674
2487,3070
2246,2989
2425,3126
2117,3087
2543,3097
1893,65535
2421,2972
2476,2886
2592,3071
604,2266
