middle_point_id,reach_time_minutes
2835,65535
2836,65535
2806,65535
2822,65535
2823,65535
2807,65535
2846,65535
887,186
888,178
1326,329
1185,249
999,290
1057,499
1552,574
1120,234
1473,699
944,421
832,188
1257,316
1396,739
1622,595
1327,904
1184,239
1183,250
1324,511
1255,533
1394,505
1252,347
1253,316
1182,301
1328,65535
1470,540
1321,354
1322,321
1323,437
1391,367
1551,589
1393,481
1472,555
1471,520
1181,494
1118,359
1059,175
1121,197
1469,645
1468,423
1548,459
1325,445
1625,532
1623,561
1258,279
1256,434
791,79
891,146
703,37
704,33
660,41
1553,579
1624,547
1554,590
1474,640
1475,693
1550,581
1549,524
1320,398
1466,403
1541,760
1318,445
1249,468
1186,282
1003,165
1002,173
741,161
788,121
434,194
697,171
752,70
1056,310
1006,163
907,175
518,91
1011,238
1000,214
1055,2102
997,2071
994,1965
996,2037
995,2021
991,1812
1112,4445
1114,2052
1051,2015
1398,732
1395,750
1001,189
1811,469
1960,670
1769,591
1823,578
1329,65535
1332,318
1259,2216
1200,238
1199,235
1140,276
1141,277
783,202
1689,619
1802,680
1945,841
2183,2398
2418,2847
1994,875
1995,908
2059,970
1621,65535
1555,487
1754,630
1180,1343
1106,3045
933,3206
827,308
2122,2813
2124,674
493,102
519,95
544,87
545,88
494,101
470,122
543,92
469,147
517,106
574,90
573,79
495,122
546,93
613,69
612,73
492,110
572,85
571,106
570,121
610,139
575,147
547,138
516,128
611,141
542,115
569,158
609,171
548,170
549,199
1404,317
1405,288
1266,255
1193,227
743,128
742,140
747,70
746,73
745,83
744,114
790,85
789,101
839,108
838,123
738,210
739,204
740,172
890,161
834,194
784,193
889,173
856,325
855,300
854,307
853,338
852,192
910,292
909,281
908,198
964,182
965,224
1020,263
966,243
963,155
1021,289
1271,239
1270,239
1339,247
1338,260
1071,194
1072,191
1135,218
1408,292
1337,277
1269,255
1268,259
1136,259
1075,214
1077,268
1076,226
1019,222
1018,195
1074,272
1137,280
1272,253
1274,337
1275,350
1205,357
1204,359
1273,347
1198,256
1197,285
1341,282
1134,233
1133,229
1069,214
1132,224
1073,230
1203,343
1202,342
1201,279
1139,282
1267,251
1138,296
1340,252
1196,239
1342,316
1409,319
1485,323
1407,311
1561,367
1632,395
1484,335
1483,330
1562,360
1194,228
1130,196
1195,235
1335,268
1129,173
1066,146
1128,192
1067,199
1131,206
1334,364
1336,263
1265,237
1333,320
1406,285
857,828
803,3562
804,7039
860,7047
969,7000
913,6987
912,6925
861,7057
806,7100
659,41
751,43
658,48
705,30
702,50
706,25
753,87
614,52
701,58
661,62
616,68
848,121
796,74
797,94
798,101
750,38
707,6
615,101
748,60
845,121
846,86
657,106
749,53
795,75
617,111
663,0
794,104
847,104
849,150
902,128
901,117
900,166
793,88
899,171
898,150
897,123
844,133
842,95
841,86
956,222
792,80
843,138
840,125
850,157
903,113
800,146
755,173
756,223
710,253
711,298
962,143
961,136
904,120
906,169
851,207
802,193
801,157
799,123
959,152
1014,167
1013,218
708,905
709,879
754,195
757,251
1017,204
1016,290
960,127
905,156
958,198
957,7399
1070,201
1015,149
1012,224
1068,222
1005,175
1004,170
1060,182
1063,168
1065,152
1127,208
1062,188
1124,204
1123,227
1125,192
1188,231
1122,228
1058,187
947,226
946,250
949,164
945,243
948,157
1190,338
1187,251
951,132
895,100
952,126
1009,131
1008,165
1010,203
1007,136
1061,253
954,103
896,95
953,157
1126,213
1064,172
1189,273
955,215
950,147
892,136
786,148
836,154
837,130
787,124
700,93
655,111
654,144
653,158
698,168
699,93
608,200
696,160
656,108
833,182
785,194
835,187
693,224
894,104
893,128
1343,332
1192,395
1191,395
828,298
829,284
780,230
830,279
779,296
782,197
529,305
886,213
596,350
556,378
598,298
597,305
526,324
555,348
525,359
524,373
523,364
688,246
607,224
650,222
651,205
652,232
737,208
694,178
695,165
645,236
646,228
690,224
600,255
599,269
781,201
736,215
558,291
644,244
643,253
648,236
692,222
691,218
513,233
541,184
540,240
568,238
530,291
831,204
559,283
560,346
642,336
557,336
496,386
471,423
444,492
446,456
528,339
527,340
562,297
602,283
734,240
466,233
464,184
463,205
478,470
481,352
480,381
479,415
647,248
488,262
502,349
689,233
533,358
532,314
531,321
601,306
484,347
508,359
510,313
509,380
534,363
482,387
506,332
606,275
455,533
429,391
456,506
457,487
428,457
458,402
554,440
594,408
640,387
639,424
551,402
681,514
636,508
635,524
590,461
778,305
777,312
485,329
486,282
462,311
563,396
885,224
943,1331
564,383
641,363
504,314
503,341
501,420
500,460
561,321
254,369
350,310
321,341
319,360
251,380
375,305
347,376
687,259
565,336
539,251
511,294
536,331
649,283
603,321
605,663
733,254
735,224
489,262
514,250
461,430
460,441
459,419
468,134
154,515
178,479
203,450
228,433
402,333
401,370
505,325
522,414
451,657
452,628
477,519
476,515
483,526
884,262
431,365
430,397
454,494
595,510
395,566
394,590
422,740
417,511
390,517
538,266
567,251
426,620
397,528
398,566
499,467
475,551
497,393
498,410
311,374
342,394
345,393
421,617
515,158
472,681
448,712
473,736
474,777
353,351
381,344
256,476
290,451
324,366
380,358
407,288
253,510
226,447
201,460
177,517
824,416
775,354
826,319
939,367
936,1798
937,433
880,565
566,315
2821,65535
2834,65535
2833,65535
2789,65535
2790,65535
2770,65535
2788,65535
2776,65535
2795,65535
2775,65535
2794,65535
2825,65535
2824,65535
2826,65535
2811,65535
2812,65535
2796,65535
2827,65535
2858,65535
2855,65535
2849,65535
2838,65535
2814,65535
2813,65535
2828,65535
2839,65535
2791,65535
2792,65535
2803,65535
2830,65535
2815,65535
2819,65535
2818,65535
2817,65535
2831,65535
2810,65535
2829,65535
2783,65535
2820,65535
2804,65535
2785,65535
2784,65535
2762,65535
2768,65535
2751,65535
2750,65535
2733,65535
2769,65535
2720,65535
2761,65535
2741,65535
2837,65535
2793,65535
2808,65535
2753,65535
2736,65535
2735,65535
2809,65535
2772,65535
2845,65535
2844,65535
2848,65535
2777,65535
2778,65535
2779,65535
2759,65535
2780,65535
2797,65535
2843,65535
2832,65535
2842,65535
2758,65535
2738,65535
2774,65535
2773,65535
2771,65535
2851,65535
2847,65535
2854,65535
2721,65535
2756,65535
2737,65535
2840,65535
2752,65535
2754,65535
2755,65535
2852,65535
2853,65535
2856,65535
2841,65535
2742,65535
2727,65535
2744,65535
2726,65535
2743,65535
2725,65535
2746,65535
2787,65535
2766,65535
2763,65535
2765,65535
2745,65535
2764,65535
2552,65535
2501,65535
2443,65535
2442,65535
2320,65535
2381,65535
2382,65535
2498,65535
2499,65535
2438,65535
2439,65535
2497,65535
2441,65535
2379,65535
2380,65535
2319,65535
2551,65535
2550,65535
2563,7557
2321,4213
2322,4182
2383,4194
2384,4905
2446,4948
2445,4956
2503,4975
2385,4939
2504,7678
2505,7700
2557,7724
2558,7749
2559,7773
2560,7737
2564,7513
2562,7625
2561,7665
2605,7680
2609,5264
2565,5209
2566,5194
2515,5139
2397,3559
2457,5120
2458,5104
2401,3731
2337,3472
2336,3476
2399,3518
2398,3539
2402,3765
2333,3696
2273,3731
2219,3755
2218,3767
2159,3792
2454,5824
2393,5790
2512,7524
2502,8309
2608,7943
2156,3914
2155,3946
2154,3975
2213,3991
2212,4003
2211,4051
2210,4092
2264,4099
2324,4133
2323,4149
2030,65535
2094,65535
2157,3878
2450,7921
2388,7970
2387,8038
2326,8075
2266,4280
2265,4235
2508,7892
2396,3628
2335,3646
2334,3657
2158,3817
2279,7345
2278,7309
2222,7278
2221,7260
2276,7242
2275,2844
2261,5727
2207,6585
2149,6644
2554,5027
2599,5057
2633,5095
2664,5130
2689,5167
2690,5193
2691,5209
2692,5233
2152,6338
2089,7046
2088,6384
2025,7179
2603,65535
2602,65535
2556,65535
2693,7172
2671,8955
2670,8935
2694,8894
2553,65535
2665,65535
2705,65535
2710,65535
2668,65535
2639,65535
2463,6586
2521,6622
2572,6645
2451,7806
2390,7775
2391,7595
2392,6232
2215,7800
2268,65535
2093,65535
2092,65535
2028,65535
2024,6414
2150,4452
2086,4482
2209,4439
2023,5553
2087,5506
2148,8599
2262,5712
2327,65535
1560,384
1630,433
1631,405
1559,467
1629,440
1558,393
1634,411
1633,400
1482,382
1481,423
1699,405
1700,421
1701,449
1563,394
2070,691
2008,687
2009,684
1959,672
1958,698
2006,730
1957,710
1956,662
2193,802
2132,741
1912,700
1911,680
1865,652
1866,751
2007,717
2069,701
2010,693
2011,709
1961,688
2072,709
1913,817
1867,848
1962,713
1914,720
1915,763
1909,614
1636,399
1635,413
1564,381
1702,425
1637,415
1638,385
1565,366
1486,347
1760,632
1704,457
1703,434
1763,485
1762,449
1817,522
1705,438
1863,1310
1815,1386
1759,447
863,1808
758,1901
808,1852
982,2023
1036,2030
1099,2065
1100,2093
1166,2494
1167,2989
1237,2646
1238,2681
1375,2751
1308,2820
1309,2729
1236,2947
1235,2581
1101,2124
1037,2061
971,1604
1025,1587
1026,1602
1027,1615
1089,1628
720,1864
674,1910
864,1690
865,1711
919,1606
1024,1551
975,1725
974,1695
1028,1650
873,2050
925,1996
924,1973
917,1670
918,1646
623,2085
712,1957
713,1990
667,1995
622,2053
809,1838
719,1838
765,1799
972,1636
868,1748
869,1760
815,1779
920,2015
973,1681
981,1974
926,2075
927,2083
928,2107
1354,1600
1288,1541
1218,1517
1152,1586
1023,1515
1353,1614
1085,1495
1148,1425
1147,1418
1082,1369
772,2136
771,2093
819,2068
584,1984
628,1951
629,1940
1033,1871
978,1826
1031,1799
1030,1753
1029,1736
1091,1713
1035,1952
1034,1895
979,1853
1526,2870
1449,2908
1378,2936
1448,2859
1524,2837
1038,2108
1447,2900
1768,583
1710,575
1767,498
391,489
365,451
339,488
400,526
393,584
392,558
396,513
399,551
443,571
449,695
450,680
419,556
414,627
415,603
387,625
388,560
389,547
282,505
281,536
314,483
313,463
405,229
411,692
442,651
255,414
376,313
373,378
278,385
275,448
248,495
335,654
334,619
306,520
307,509
176,496
225,455
320,409
249,521
287,436
285,403
776,334
731,342
315,491
316,474
204,466
440,144
439,157
166,1905
269,1822
383,1760
1247,4390
1246,4412
1384,4496
1679,4658
1178,4383
1105,3049
1172,3068
1173,3118
1242,3120
1241,3112
1314,3269
1313,3175
1171,3094
1382,3375
1243,3317
1317,3456
1107,3057
1108,3236
1109,3521
1041,3066
1043,3276
1042,3267
1044,3330
1176,4284
1174,3343
1177,4332
1110,4339
985,3112
986,3155
932,3173
774,364
730,359
825,372
728,399
729,380
727,541
682,396
684,378
685,358
732,338
683,502
2134,1255
2194,1284
2068,745
2129,799
1905,546
1907,563
1906,553
1953,573
2002,604
2064,641
2125,648
2137,1396
2196,1352
2195,1307
1859,481
1810,488
1755,490
2131,766
2192,780
1862,1299
1861,608
1812,553
1860,577
1809,680
1756,446
1869,612
1822,540
1821,519
1916,643
1819,515
1764,476
1820,536
1698,420
1757,432
1566,426
1567,376
1488,351
1489,439
1412,368
1413,375
1414,403
1818,561
1568,457
1410,284
2128,829
2189,856
2066,782
2065,806
2067,796
1643,554
1571,506
1491,469
2004,771
2003,652
1697,433
2135,1277
2075,1237
1642,532
1955,601
2130,828
2005,770
1858,501
1816,8488
1864,8481
1766,492
1910,654
1868,635
2188,1675
2127,1644
1903,743
2001,615
2063,1302
2062,1314
1813,516
1758,468
1639,394
1640,413
1952,626
2126,8570
1569,448
1965,673
1966,719
2014,852
1490,434
1917,601
1870,564
1871,574
1570,468
1707,444
2076,918
2013,1286
1964,793
1487,334
1908,1249
2251,3681
2199,3625
2198,3488
2136,1300
1641,553
1954,1306
1765,529
1857,565
2187,925
1904,721
1856,645
1951,684
1708,1323
245,8799
244,8782
357,8786
246,8914
247,8943
197,9037
223,9015
44,9379
43,9439
3,9575
23,9549
22,9538
63,9321
85,9263
84,9218
108,8718
149,8672
172,9063
296,8766
294,8814
355,8914
354,8946
326,9024
295,8923
291,8935
293,9057
260,8943
356,8974
441,8574
412,8597
329,8932
300,8876
148,8646
214,8884
146,8767
110,8848
262,8909
258,9322
292,9085
257,9387
235,8907
187,8807
212,8863
211,8890
186,8811
162,8785
161,8864
165,8763
189,8963
238,9044
237,9009
263,8945
265,8964
266,8942
267,8930
268,8770
26,9539
25,9507
105,65535
62,65535
83,65535
126,8885
175,9320
152,9254
151,9244
150,9203
103,8823
242,8716
191,8670
192,8721
217,8744
218,8797
145,8707
144,8791
167,8699
190,8677
219,8814
159,8911
185,8855
158,8968
188,8799
160,8876
143,65535
122,65535
75,65535
54,65535
198,9448
270,8811
221,8852
301,8909
302,8746
330,8773
331,8795
115,8847
133,8906
139,8803
134,8880
114,9404
48,65535
69,65535
92,9080
164,8873
4,65535
107,9225
129,9310
109,8750
125,8791
124,8765
127,65535
82,65535
67,65535
91,9248
93,9047
137,9182
113,9202
112,9160
136,65535
49,65535
72,65535
71,65535
406,361
805,7090
858,6895
859,7036
967,1074
1142,1209
1080,6735
1022,6776
1079,6768
968,6891
1206,1166
915,7042
916,7077
914,7014
807,7129
911,8236
1078,6992
1207,1224
1278,1268
1277,1271
1344,1291
1415,1332
1492,1387
1345,1348
1346,1318
1208,1216
1209,1296
1143,1333
1144,1349
1145,1364
1417,1344
1493,1404
1494,1423
1572,1438
1081,7061
970,7264
408,324
382,378
437,260
467,223
409,367
403,354
432,549
433,391
404,293
352,452
351,335
349,423
317,445
374,443
346,479
283,479
410,217
438,233
465,192
490,190
491,142
435,241
436,223
379,423
323,497
289,529
377,300
378,272
592,604
593,645
552,401
445,498
424,619
423,576
416,600
361,594
362,567
371,627
372,609
343,534
344,520
286,530
227,529
252,418
284,389
318,529
250,464
312,407
340,421
368,440
369,474
370,586
341,435
367,540
308,479
276,450
277,447
280,498
310,407
338,495
366,564
274,472
305,637
420,610
363,551
418,498
550,7081
579,7104
576,7049
577,7061
578,7077
520,7057
618,7071
662,7101
619,7088
620,7101
621,7095
665,7077
666,7069
664,7097
580,7116
2260,65535
2257,65535
2206,65535
2146,65535
2314,65535
2313,65535
2312,65535
2373,65535
2256,65535
2205,65535
2434,65535
2435,65535
2375,65535
2376,65535
2433,65535
2491,65535
2490,65535
2492,65535
2546,65535
2597,65535
2596,65535
2544,65535
2145,65535
2082,65535
2020,65535
2494,65535
0,65535
11,65535
1052,2068
1053,2055
941,2095
1740,631
1796,672
1615,496
1681,557
1545,415
1797,694
1544,435
1741,689
1795,730
1617,481
1546,468
1616,491
1683,524
1467,395
1547,453
1465,479
1387,475
1388,455
1464,542
1462,619
1461,640
1542,704
1463,583
1682,632
1543,543
1618,495
1742,715
1460,806
1248,581
1850,697
1801,698
1803,676
882,319
881,328
938,378
883,339
940,2838
1998,1215
1902,889
1807,546
1691,587
1694,493
1693,1312
1749,618
1752,567
1753,524
1627,471
1628,441
1557,419
1479,336
1402,323
1808,535
1946,1435
1947,1380
1948,1284
1997,1170
1855,580
1690,566
2060,1390
1949,1439
1950,927
1751,578
1692,629
1999,1231
1901,1305
1900,1246
1852,1218
1853,1180
1805,694
1750,623
1854,889
1806,688
1748,655
2061,1340
2000,1294
1804,699
1899,1267
2884,65535
2892,65535
2883,65535
2876,65535
2874,65535
2882,65535
2877,65535
2911,65535
2905,65535
2906,65535
2896,65535
2887,65535
2881,65535
2880,65535
2888,65535
2902,65535
2903,65535
2907,65535
2912,65535
2895,65535
2894,65535
2875,65535
2885,65535
2893,65535
2904,65535
2865,65535
2866,65535
2909,65535
2913,65535
2886,65535
2878,65535
2869,65535
2871,65535
2872,65535
2879,65535
2870,65535
1330,335
1331,320
1401,335
1262,357
1263,349
1478,357
1403,336
1261,366
1480,347
1264,347
1390,389
1389,416
1319,405
1251,422
1250,508
1285,1442
1284,1446
1214,1418
1146,1384
1505,1667
1504,1601
1582,1639
1581,1567
1713,1546
1771,1528
1654,1678
1653,1651
1651,1603
2096,2782
2033,2742
1972,2713
1923,2645
1922,2623
1874,2317
1873,2030
1919,1983
1829,2994
1579,1503
1424,1495
1711,1520
1348,1344
1419,1364
1359,1771
1429,1722
1428,1708
1421,1421
1577,1455
1499,1428
1230,2015
1365,1952
1511,1874
1300,1997
1366,1969
1512,1902
1716,1736
1503,2013
1276,1298
1347,1328
1349,1376
1645,1512
1578,1490
1770,1524
1715,1579
1150,1483
1217,1497
1149,1459
1580,1529
1352,1536
1502,1518
1825,1936
1718,1891
1717,1865
1872,1969
1656,1780
1648,1555
1712,1532
1213,1408
1212,1389
1084,1430
1420,1410
1281,1334
1282,1395
1587,1774
1586,1741
1585,1730
1652,1698
1427,1876
1975,2817
1977,2885
1932,2955
1931,3580
1426,1596
1422,1438
1425,1581
1583,1667
1501,1525
1283,1436
1286,1483
1215,1468
1211,1365
1210,1339
1083,1401
1655,1769
2220,2823
1355,5891
1772,1537
1436,1920
1435,1910
1589,1843
1163,2048
1735,3168
1791,3101
1841,3078
1840,3034
1219,1600
1220,1639
1647,1541
1646,1533
1279,1286
1714,1556
1575,1515
1576,1477
1498,1485
1573,1527
1496,1545
1497,1516
2177,2965
2176,3035
2294,2952
2293,3071
2237,3012
2236,3041
2364,2813
2302,2753
2301,2675
2245,2577
2056,2707
2057,2793
2055,2686
2184,2738
2120,2744
2244,2658
2538,2998
2537,2979
2591,3095
1940,2870
1989,2878
1990,2814
2539,2998
2482,2989
2483,2951
2424,2847
2121,2805
2119,2618
2050,2927
2049,3005
2048,3423
2185,2771
2243,2497
2299,2711
2241,2660
2485,3029
2542,3084
2353,3043
2292,2950
2419,2837
2478,2884
2479,2919
2536,2946
2484,2990
2486,2983
2354,2882
2416,3059
2242,2705
2355,2920
2300,2718
1991,2818
1992,2825
2477,2875
2534,2896
2535,3011
2588,2916
2587,2930
2630,2981
2051,2739
2116,2633
2175,3068
2586,65535
2541,3151
2178,2940
2179,2743
2240,2690
2239,2914
2238,2984
2052,2870
2053,2836
1987,3110
1988,2958
1939,2982
2594,3101
2593,3086
2358,2804
2357,2814
2420,2870
2247,2866
2427,2956
2428,2978
2181,2537
2180,2586
2417,2864
2590,3076
2297,2699
2361,2891
2362,2774
2423,2862
2422,2827
2174,3298
2356,2925
1941,2859
2365,2990
2112,3303
2047,3445
2182,2676
2359,2753
2533,3691
2295,3016
2115,2706
2632,3136
2631,3075
2186,2923
2298,2785
2360,2809
2235,3261
2291,3274
2487,3205
2246,2798
2425,3606
2117,2930
2543,3158
1893,65535
2421,2962
2476,2880
2592,3134
604,7066
