middle_point_id,reach_time_minutes
2835,65535
2836,65535
2806,65535
2822,65535
2823,65535
2807,65535
2846,65535
887,7363
888,7369
1326,7480
1185,7389
999,7424
1057,7397
1552,7654
1120,7374
1473,7920
944,7471
832,7351
1257,7456
1396,7924
1622,7675
1327,8584
1184,7379
1183,7389
1324,7711
1255,7791
1394,7722
1252,7487
1253,7456
1182,7441
1328,65535
1470,7740
1321,7503
1322,7513
1323,7805
1391,7567
1551,7672
1393,7780
1472,7678
1471,7717
1181,7574
1118,7499
1059,7350
1121,7362
1469,8008
1468,7623
1548,7659
1325,7645
1625,7612
1623,7641
1258,7479
1256,7514
791,7218
891,7329
703,7173
704,7165
660,7161
1553,7659
1624,7628
1554,7672
1474,7680
1475,8161
1550,7682
1549,7734
1320,7569
1466,7603
1541,7960
1318,7645
1249,7668
1186,7395
1003,7341
1002,7352
741,7299
788,7261
434,7271
697,7281
752,7162
1056,7450
1006,7305
907,7305
518,7184
1011,7285
1000,7388
1055,7862
997,7831
994,7725
996,7797
995,7781
991,7572
1112,65535
1114,7812
1051,7775
1398,8652
1395,7950
1001,7368
1811,7609
1960,7787
1769,7707
1823,7716
1329,65535
1332,7422
1259,65535
1200,7317
1199,7315
1140,7476
1141,7459
783,7343
1689,7709
1802,7820
1945,8041
2183,9598
2418,65535
1994,8075
1995,8108
2059,7837
1621,65535
1555,7567
1754,7660
1180,8543
1106,8805
933,8966
827,7448
2122,65535
2124,7874
493,7192
519,7183
544,7181
545,7178
494,7186
470,7202
543,7186
469,7198
517,7196
574,7177
573,7191
495,7194
546,7168
613,7189
612,7203
492,7203
572,7198
571,7219
570,7223
610,7250
575,7158
547,7146
516,7213
611,7221
542,7235
569,7275
609,7254
548,7155
549,7139
1404,7399
1405,7393
1266,7358
1193,7367
743,7268
742,7278
747,7203
746,7213
745,7232
744,7252
790,7235
789,7241
839,7249
838,7263
738,7333
739,7308
740,7304
890,7324
834,7345
784,7334
889,7344
856,7372
855,7348
854,7334
853,7325
852,7308
910,7358
909,7361
908,7318
964,7308
965,7358
1020,7395
966,7378
963,7294
1021,7479
1271,7320
1270,7319
1339,7327
1338,7340
1071,7275
1072,7269
1135,7298
1408,7372
1337,7357
1269,7335
1268,7360
1136,7308
1075,7389
1077,7463
1076,7423
1019,7422
1018,7395
1074,7352
1137,7344
1272,7333
1274,7417
1275,7430
1205,7437
1204,7463
1273,7415
1198,7336
1197,7366
1341,7362
1134,7313
1133,7309
1069,7294
1132,7310
1073,7287
1203,7460
1202,7425
1201,7366
1139,7468
1267,7353
1138,7370
1340,7332
1196,7343
1342,7395
1409,7343
1485,7407
1407,7394
1561,7477
1632,7501
1484,7420
1483,7432
1562,7468
1194,7331
1130,7327
1195,7332
1335,7361
1129,7344
1066,7307
1128,7342
1067,7301
1131,7319
1334,7434
1336,7394
1265,7377
1333,7419
1406,7403
857,7402
803,7442
804,7455
860,7445
969,7437
913,7424
912,7417
861,7500
806,7511
659,7173
751,7178
658,7188
705,7158
702,7190
706,7141
753,7167
614,7169
701,7198
661,7153
616,7139
848,7202
796,7205
797,7194
798,7186
750,7170
707,7108
615,7153
748,7200
845,7201
846,7213
657,7246
749,7193
795,7181
617,7124
663,7095
794,7223
847,7209
849,7230
902,7237
901,7257
900,7269
793,7223
899,7296
898,7304
897,7291
844,7213
842,7232
841,7220
956,7290
792,7214
843,7220
840,7258
850,7237
903,7217
800,7226
755,7224
756,7194
710,7125
711,7258
962,7283
961,7276
904,7230
906,7296
851,7291
802,7273
801,7229
799,7203
959,7292
1014,7302
1013,7288
708,7494
709,7130
754,7207
757,7211
1017,7301
1016,7282
960,7238
905,7296
958,7278
957,7279
1070,7281
1015,7258
1012,7283
1068,7303
1005,7315
1004,7331
1060,7347
1063,7331
1065,7302
1127,7310
1062,7338
1124,7404
1123,7392
1125,7360
1188,7431
1122,7368
1058,7357
947,7366
946,7399
949,7304
945,7383
948,7320
1190,7538
1187,7451
951,7274
895,7243
952,7266
1009,7311
1008,7305
1010,7292
1007,7276
1061,7378
954,7301
896,7235
953,7297
1126,7323
1064,7290
1189,7473
955,7295
950,7317
892,7276
786,7288
836,7285
837,7270
787,7264
700,7233
655,7251
654,7283
653,7291
698,7266
699,7252
608,7259
696,7297
656,7248
833,7348
785,7302
835,7305
693,7331
894,7304
893,7268
1343,7412
1192,7498
1191,7535
828,7438
829,7424
780,7377
830,7419
779,7436
782,7344
529,7380
886,7362
596,7479
556,7462
598,7466
597,7487
526,7426
555,7464
525,7439
524,7453
523,7459
688,7386
607,7265
650,7303
651,7291
652,7295
737,7337
694,7318
695,7304
645,7396
646,7371
690,7351
600,7425
599,7427
781,7356
736,7345
558,7416
644,7428
643,7393
648,7376
692,7348
691,7342
513,7288
541,7257
540,7313
568,7317
530,7435
831,7370
559,7434
560,7439
642,7536
557,7414
496,7494
471,7525
444,7601
446,7554
528,7419
527,7433
562,7378
602,7410
734,7380
466,7277
464,7243
463,7258
478,7533
481,7419
480,7478
479,7506
647,7388
488,7283
502,7429
689,7391
533,7383
532,7392
531,7399
601,7413
484,7357
508,7338
510,7389
509,7363
534,7413
482,7405
506,7406
606,7299
455,7493
429,7441
456,7463
457,7444
428,7409
458,7396
554,7545
594,7608
640,7527
639,7624
551,7482
681,7624
636,7612
635,7620
590,7516
778,7445
777,7452
485,7349
486,7359
462,7391
563,7476
885,7373
943,8531
564,7577
641,7521
504,7474
503,7437
501,7517
500,7584
561,7461
254,7401
350,7354
321,7457
319,7393
251,7434
375,7326
347,7452
687,7399
565,7437
539,7335
511,7371
536,7512
649,7351
603,7535
605,7646
733,7400
735,7369
489,7300
514,7300
461,7329
460,7341
459,7361
468,7211
154,7525
178,7507
203,7485
228,7453
402,7398
401,7466
505,7404
522,7494
451,7638
452,7589
477,7541
476,7548
483,7726
884,7534
431,7347
430,7460
454,7635
595,7534
395,7515
394,7591
422,7610
417,7589
390,7595
538,7353
567,7331
426,7579
397,7498
398,7464
499,7553
475,7602
497,7492
498,7524
311,7396
342,7403
345,7360
421,7658
515,7230
472,7827
448,7788
473,7738
474,7617
353,7402
381,7374
256,7519
290,7480
324,7409
380,7409
407,7383
253,7452
226,7470
201,7496
177,7552
824,7556
775,7502
826,7459
939,7507
936,7558
937,7544
880,7512
566,7410
2821,65535
2834,65535
2833,65535
2789,65535
2790,65535
2770,65535
2788,65535
2776,65535
2795,65535
2775,65535
2794,65535
2825,65535
2824,65535
2826,65535
2811,65535
2812,65535
2796,65535
2827,65535
2858,65535
2855,65535
2849,65535
2838,65535
2814,65535
2813,65535
2828,65535
2839,65535
2791,65535
2792,65535
2803,65535
2830,65535
2815,65535
2819,65535
2818,65535
2817,65535
2831,65535
2810,65535
2829,65535
2783,65535
2820,65535
2804,65535
2785,65535
2784,65535
2762,65535
2768,65535
2751,65535
2750,65535
2733,65535
2769,65535
2720,65535
2761,65535
2741,65535
2837,65535
2793,65535
2808,65535
2753,65535
2736,65535
2735,65535
2809,65535
2772,65535
2845,65535
2844,65535
2848,65535
2777,65535
2778,65535
2779,65535
2759,65535
2780,65535
2797,65535
2843,65535
2832,65535
2842,65535
2758,65535
2738,65535
2774,65535
2773,65535
2771,65535
2851,65535
2847,65535
2854,65535
2721,65535
2756,65535
2737,65535
2840,65535
2752,65535
2754,65535
2755,65535
2852,65535
2853,65535
2856,65535
2841,65535
2742,65535
2727,65535
2744,65535
2726,65535
2743,65535
2725,65535
2746,65535
2787,65535
2766,65535
2763,65535
2765,65535
2745,65535
2764,65535
2552,65535
2501,65535
2443,65535
2442,65535
2320,65535
2381,65535
2382,65535
2498,65535
2499,65535
2438,65535
2439,65535
2497,65535
2441,65535
2379,65535
2380,65535
2319,65535
2551,65535
2550,65535
2563,65535
2321,65535
2322,65535
2383,65535
2384,65535
2446,65535
2445,65535
2503,65535
2385,65535
2504,65535
2505,65535
2557,65535
2558,65535
2559,65535
2560,65535
2564,65535
2562,65535
2561,65535
2605,65535
2609,65535
2565,65535
2566,65535
2515,9556
2397,9319
2457,9536
2458,9520
2401,65535
2337,9232
2336,9236
2399,9278
2398,9299
2402,65535
2333,9456
2273,9491
2219,9515
2218,9527
2159,9552
2454,65535
2393,65535
2512,65535
2502,65535
2608,65535
2156,65535
2155,65535
2154,65535
2213,65535
2212,65535
2211,65535
2210,65535
2264,65535
2324,65535
2323,65535
2030,65535
2094,65535
2157,65535
2450,65535
2388,65535
2387,65535
2326,65535
2266,65535
2265,65535
2508,65535
2396,9388
2335,9406
2334,9417
2158,9577
2279,65535
2278,65535
2222,65535
2221,65535
2276,65535
2275,8604
2261,65535
2207,65535
2149,65535
2554,65535
2599,65535
2633,65535
2664,65535
2689,65535
2690,65535
2691,65535
2692,65535
2152,65535
2089,65535
2088,65535
2025,65535
2603,65535
2602,65535
2556,65535
2693,65535
2671,65535
2670,65535
2694,65535
2553,65535
2665,65535
2705,65535
2710,65535
2668,65535
2639,65535
2463,65535
2521,65535
2572,65535
2451,65535
2390,65535
2391,65535
2392,65535
2215,65535
2268,65535
2093,65535
2092,65535
2028,65535
2024,65535
2150,65535
2086,65535
2209,65535
2023,65535
2087,65535
2148,65535
2262,65535
2327,65535
1560,7484
1630,7580
1631,7524
1559,7568
1629,7640
1558,7473
1634,7494
1633,7499
1482,7520
1481,7500
1699,7516
1700,7564
1701,7543
1563,7479
2070,7827
2008,7798
2009,7794
1959,7767
1958,7785
2006,7824
1957,7819
1956,7828
2193,8002
2132,7941
1912,7759
1911,7728
1865,7684
1866,7767
2007,7849
2069,7855
2010,7803
2011,7830
1961,7825
2072,7861
1913,7826
1867,7819
1962,7858
1914,7862
1915,7774
1909,7814
1636,7516
1635,7520
1564,7493
1702,7570
1637,7510
1638,7530
1565,7480
1486,7427
1760,7603
1704,7540
1703,7526
1763,7614
1762,7597
1817,7644
1705,7638
1863,7684
1815,7651
1759,7606
863,7825
758,7913
808,7869
982,8206
1036,8503
1099,8673
1100,8571
1166,8784
1167,8833
1237,8928
1238,8957
1375,9028
1308,8985
1309,9007
1236,8893
1235,8871
1101,8602
1037,8538
971,7750
1025,7752
1026,7767
1027,7779
1089,7809
720,7997
674,8046
864,7810
865,7831
919,7768
1024,7734
975,7841
974,7815
1028,7798
873,8059
925,7997
924,7980
917,7790
918,7766
623,8085
712,7960
713,7994
667,7999
622,8055
809,7855
719,7971
765,7928
972,7754
868,7841
869,7882
815,7908
920,7997
973,7795
981,8170
926,8084
927,8092
928,8116
1354,7798
1288,7786
1218,7757
1152,7792
1023,7689
1353,7774
1085,7647
1148,7605
1147,7598
1082,7570
772,8968
771,8925
819,8900
584,8186
628,8509
629,8483
1033,7993
978,7950
1031,7923
1030,7876
1029,7856
1091,7833
1035,8508
1034,8017
979,7977
1526,9143
1449,9188
1378,9216
1448,9133
1524,9111
1038,8586
1447,9273
1768,7710
1710,7668
1767,7698
391,7567
365,7531
339,7568
400,7423
393,7638
392,7663
396,7538
399,7440
443,7651
449,7689
450,7723
419,7610
414,7707
415,7673
387,7710
388,7672
389,7625
282,7474
281,7465
314,7441
313,7422
405,7308
411,7734
442,7693
255,7438
376,7483
373,7420
278,7405
275,7528
248,7565
335,7639
334,7613
306,7585
307,7562
176,7530
225,7475
320,7386
249,7515
287,7452
285,7437
776,7474
731,7482
315,7421
316,7403
204,7524
440,7218
439,7259
166,9105
269,8846
383,8672
1247,65535
1246,65535
1384,65535
1679,65535
1178,65535
1105,8809
1172,8828
1173,8878
1242,8880
1241,8872
1314,9029
1313,8935
1171,8854
1382,9135
1243,9077
1317,9216
1107,8817
1108,8996
1109,9281
1041,8826
1043,9036
1042,9027
1044,9090
1176,65535
1174,9103
1177,65535
1110,65535
985,8872
986,8915
932,8933
774,7550
730,7494
825,7512
728,7560
729,7520
727,7651
682,7549
684,7518
685,7498
732,7478
683,7702
2134,8455
2194,8484
2068,7945
2129,7999
1905,7706
1907,7747
1906,7686
1953,7773
2002,7804
2064,7841
2125,7848
2137,8596
2196,8552
2195,8507
1859,7620
1810,7650
1755,7690
2131,7892
2192,7930
1862,7714
1861,7633
1812,7611
1860,7703
1809,7638
1756,7598
1869,7721
1822,7740
1821,7719
1916,7769
1819,7667
1764,7647
1820,7671
1698,7547
1757,7584
1566,7471
1567,7433
1488,7408
1489,7450
1412,7458
1413,7437
1414,7418
1818,7686
1568,7657
1410,7342
2128,8029
2189,8056
2066,7982
2065,8006
2067,7996
1643,7652
1571,7585
1491,7500
2004,7971
2003,7852
1697,7568
2135,8477
2075,7918
1642,7621
1955,7790
2130,8028
2005,7855
1858,7683
1816,8488
1864,8481
1766,7692
1910,7854
1868,7712
2188,8875
2127,8844
1903,7726
2001,7815
2063,8468
2062,8062
1813,7616
1758,7553
1639,7579
1640,7598
1952,7826
2126,9442
1569,7557
1965,7873
1966,7919
2014,8024
1490,7512
1917,7801
1870,7764
1871,7774
1570,7548
1707,7644
2076,7938
2013,7874
1964,7826
1487,7391
1908,8075
2251,65535
2199,65535
2198,65535
2136,8500
1641,7753
1954,8506
1765,7665
1857,7699
2187,8125
1904,7730
1856,7689
1951,7835
1708,8523
245,8910
244,8898
357,8786
246,8935
247,8962
197,9037
223,9015
44,9379
43,9439
3,9575
23,9549
22,9538
63,9321
85,9263
84,9218
108,9184
149,9138
172,9102
296,8766
294,8814
355,8914
354,8946
326,9024
295,8923
291,8935
293,9057
260,9077
356,8974
441,8574
412,8597
329,8932
300,8876
148,9280
214,9096
146,9211
110,9463
262,8909
258,9322
292,9085
257,9387
235,9185
187,9264
212,9291
211,9295
186,9376
162,9390
161,9403
165,9158
189,9214
238,9044
237,9009
263,8945
265,9050
266,9070
267,9095
268,9144
26,9539
25,9507
105,65535
62,65535
83,65535
126,9399
175,9320
152,9254
151,9244
150,9203
103,65535
242,9200
191,9370
192,9424
217,9450
218,65535
145,9190
144,9517
167,9132
190,9358
219,65535
159,65535
185,65535
158,65535
188,9247
160,65535
143,65535
122,65535
75,65535
54,65535
198,9448
270,9204
221,9552
301,65535
302,9154
330,9139
331,9107
115,9492
133,9554
139,65535
134,9528
114,9515
48,65535
69,65535
92,9429
164,65535
4,65535
107,9225
129,9310
109,65535
125,65535
124,65535
127,65535
82,65535
67,65535
91,65535
93,65535
137,65535
113,65535
112,65535
136,65535
49,65535
72,65535
71,65535
406,7352
805,7480
858,7411
859,7512
967,7417
1142,7441
1080,7437
1022,7431
1079,7445
968,7414
1206,7449
915,7462
916,7473
914,7434
807,7548
911,8236
1078,7469
1207,7461
1278,7487
1277,7473
1344,7494
1415,7512
1492,7567
1345,7502
1346,7523
1208,7456
1209,7476
1143,7513
1144,7529
1145,7559
1417,7538
1493,7585
1494,7603
1572,7619
1081,7448
970,7864
408,7404
382,7379
437,7270
467,7250
409,7324
403,7374
432,7749
433,7376
404,7350
352,7406
351,7490
349,7453
317,7613
374,7468
346,7487
283,7499
410,7347
438,7364
465,7272
490,7274
491,7250
435,7355
436,7271
379,7379
323,7521
289,7470
377,7376
378,7349
592,7593
593,7633
552,7478
445,7578
424,7606
423,7553
416,7697
361,7646
362,7631
371,7492
372,7449
343,7505
344,7509
286,7528
227,7487
252,7497
284,7447
318,7430
250,7552
312,7428
340,7442
368,7481
369,7553
370,7718
341,7504
367,7495
308,7555
276,7548
277,7528
280,7458
310,7489
338,7576
366,7637
274,7604
305,7653
420,7664
363,7633
418,7576
550,7149
579,7164
576,7150
577,7138
578,7130
520,7157
618,7095
662,7119
619,7080
620,7101
621,7095
665,0
666,7058
664,7067
580,7116
2260,65535
2257,65535
2206,65535
2146,65535
2314,65535
2313,65535
2312,65535
2373,65535
2256,65535
2205,65535
2434,65535
2435,65535
2375,65535
2376,65535
2433,65535
2491,65535
2490,65535
2492,65535
2546,65535
2597,65535
2596,65535
2544,65535
2145,65535
2082,65535
2020,65535
2494,65535
0,65535
11,65535
1052,7828
1053,7815
941,7855
1740,7831
1796,7857
1615,7696
1681,7757
1545,7615
1797,7894
1544,7635
1741,7889
1795,7930
1617,7681
1546,7668
1616,7691
1683,7724
1467,7595
1547,7653
1465,7679
1387,7675
1388,7655
1464,7742
1462,7819
1461,7840
1542,7904
1463,7783
1682,7832
1543,7743
1618,7695
1742,7915
1460,8006
1248,7781
1850,7834
1801,7833
1803,7786
882,7459
881,7468
938,7518
883,7479
940,8598
1998,7777
1902,7718
1807,7626
1691,7667
1694,7573
1693,7621
1749,7698
1752,7647
1753,7604
1627,7551
1628,7521
1557,7499
1479,7451
1402,7421
1808,7615
1946,7915
1947,7850
1948,7837
1997,7792
1855,7639
1690,7646
2060,7910
1949,8065
1950,7761
1751,7690
1692,7649
1999,7769
1901,8109
1900,8121
1852,7845
1853,7724
1805,7706
1750,7703
1854,7680
1806,7666
1748,7747
2061,7964
2000,7894
1804,7899
1899,7865
2884,65535
2892,65535
2883,65535
2876,65535
2874,65535
2882,65535
2877,65535
2911,65535
2905,65535
2906,65535
2896,65535
2887,65535
2881,65535
2880,65535
2888,65535
2902,65535
2903,65535
2907,65535
2912,65535
2895,65535
2894,65535
2875,65535
2885,65535
2893,65535
2904,65535
2865,65535
2866,65535
2909,65535
2913,65535
2886,65535
2878,65535
2869,65535
2871,65535
2872,65535
2879,65535
2870,65535
1330,7475
1331,7433
1401,7426
1262,7463
1263,7457
1478,7437
1403,7416
1261,7566
1480,7427
1264,7483
1390,7589
1389,7616
1319,7609
1251,7622
1250,7708
1285,7639
1284,7624
1214,7598
1146,7577
1505,7786
1504,7756
1582,7759
1581,7720
1713,7732
1771,7714
1654,7858
1653,7830
1651,7783
2096,8542
2033,8502
1972,8473
1923,8405
1922,8383
1874,8584
1873,8501
1919,8132
1829,8754
1579,7683
1424,7676
1711,7695
1348,7560
1419,7650
1359,7889
1429,7845
1428,7834
1421,7603
1577,7636
1499,7612
1230,8665
1365,8042
1511,7971
1300,8647
1366,8619
1512,7989
1716,7913
1503,7773
1276,7478
1347,7561
1349,7586
1645,7692
1578,7670
1770,7708
1715,7789
1150,7723
1217,7735
1149,7700
1580,7709
1352,7656
1502,7698
1825,8088
1718,8053
1717,8029
1872,8467
1656,7933
1648,7735
1712,7719
1213,7606
1212,7663
1084,7610
1420,7587
1281,7578
1282,7786
1587,7911
1586,7877
1585,7917
1652,7900
1427,7820
1975,8577
1977,8645
1932,8715
1931,9340
1426,7781
1422,7618
1425,7741
1583,7848
1501,7702
1283,7642
1286,7700
1215,7629
1211,7623
1210,7631
1083,7581
1655,7944
2220,8583
1355,65535
1772,7737
1436,8038
1435,8029
1589,7962
1163,8699
1735,8928
1791,8861
1841,8838
1840,8794
1219,7785
1220,7827
1647,7721
1646,7713
1279,7578
1714,7766
1575,7758
1576,7724
1498,7720
1573,7647
1496,7682
1497,7729
2177,65535
2176,65535
2294,65535
2293,65535
2237,65535
2236,65535
2364,65535
2302,65535
2301,65535
2245,65535
2056,65535
2057,65535
2055,65535
2184,65535
2120,65535
2244,65535
2538,65535
2537,65535
2591,65535
1940,65535
1989,65535
1990,65535
2539,65535
2482,65535
2483,65535
2424,65535
2121,65535
2119,65535
2050,65535
2049,65535
2048,65535
2185,65535
2243,65535
2299,65535
2241,65535
2485,65535
2542,65535
2353,65535
2292,65535
2419,65535
2478,65535
2479,65535
2536,65535
2484,65535
2486,65535
2354,65535
2416,65535
2242,65535
2355,65535
2300,65535
1991,65535
1992,65535
2477,65535
2534,65535
2535,65535
2588,65535
2587,65535
2630,65535
2051,65535
2116,65535
2175,65535
2586,65535
2541,65535
2178,65535
2179,65535
2240,65535
2239,65535
2238,65535
2052,65535
2053,65535
1987,65535
1988,65535
1939,65535
2594,65535
2593,65535
2358,65535
2357,65535
2420,65535
2247,65535
2427,65535
2428,65535
2181,65535
2180,65535
2417,65535
2590,65535
2297,65535
2361,65535
2362,65535
2423,65535
2422,65535
2174,65535
2356,65535
1941,65535
2365,65535
2112,65535
2047,65535
2182,65535
2359,65535
2533,65535
2295,65535
2115,65535
2632,65535
2631,65535
2186,65535
2298,65535
2360,65535
2235,65535
2291,65535
2487,65535
2246,65535
2425,65535
2117,65535
2543,65535
1893,65535
2421,65535
2476,65535
2592,65535
604,65535
