middle_point_id,reach_time_minutes
2835,65535
2836,65535
2806,65535
2822,65535
2823,65535
2807,65535
2846,65535
887,84
888,89
1326,220
1185,145
999,170
1057,197
1552,574
1120,114
1473,699
944,216
832,80
1257,196
1396,739
1622,595
1327,904
1184,175
1183,189
1324,391
1255,413
1394,505
1252,287
1253,256
1182,241
1328,65535
1470,540
1321,303
1322,313
1323,437
1391,367
1551,589
1393,481
1472,555
1471,520
1181,494
1118,299
1059,88
1121,102
1469,645
1468,423
1548,459
1325,265
1625,532
1623,561
1258,233
1256,314
791,44
891,69
703,108
704,121
660,118
1553,579
1624,547
1554,590
1474,640
1475,693
1550,581
1549,524
1320,369
1466,403
1541,760
1318,445
1249,468
1186,162
1003,81
1002,85
741,26
788,26
434,140
697,44
752,130
1056,192
1006,100
907,239
518,127
1011,238
1000,128
1055,662
997,631
994,525
996,597
995,581
991,372
1112,4071
1114,612
1051,575
1398,732
1395,750
1001,109
1811,469
1960,670
1769,622
1823,640
1329,65535
1332,318
1259,2216
1200,297
1199,295
1140,396
1141,397
783,83
1689,619
1802,680
1945,841
2183,2398
2418,2847
1994,875
1995,908
2059,970
1621,65535
1555,487
1754,630
1180,1343
1106,1510
933,1766
827,188
2122,2813
2124,674
493,146
519,132
544,126
545,131
494,148
470,160
543,119
469,154
517,124
574,135
573,117
495,156
546,137
613,112
612,123
492,131
572,106
571,99
570,77
610,52
575,147
547,158
516,143
611,141
542,107
569,75
609,41
548,230
549,259
1404,317
1405,288
1266,255
1193,227
743,20
742,9
747,77
746,54
745,44
744,34
790,37
789,29
839,48
838,35
738,79
739,56
740,50
890,97
834,83
784,72
889,107
856,325
855,300
854,307
853,338
852,252
910,292
909,281
908,258
964,242
965,284
1020,383
966,298
963,214
1021,404
1271,295
1270,293
1339,307
1338,320
1071,254
1072,258
1135,278
1408,343
1337,278
1269,265
1268,259
1136,342
1075,334
1077,388
1076,346
1019,342
1018,315
1074,332
1137,384
1272,300
1274,376
1275,410
1205,452
1204,419
1273,347
1198,311
1197,286
1341,402
1134,249
1133,245
1069,241
1132,224
1073,267
1203,403
1202,345
1201,318
1139,388
1267,251
1138,416
1340,313
1196,239
1342,389
1409,320
1485,368
1407,311
1561,367
1632,395
1484,409
1483,330
1562,360
1194,228
1130,196
1195,235
1335,268
1129,173
1066,146
1128,192
1067,199
1131,206
1334,364
1336,263
1265,237
1333,320
1406,285
857,828
803,3562
804,7039
860,7047
969,7000
913,6987
912,6925
861,7057
806,7100
659,115
751,126
658,105
705,125
702,89
706,151
753,147
614,116
701,87
661,127
616,128
848,189
796,134
797,154
798,161
750,116
707,201
615,161
748,84
845,123
846,146
657,166
749,106
795,135
617,171
663,236
794,104
847,164
849,210
902,188
901,177
900,189
793,74
899,111
898,104
897,91
844,113
842,58
841,48
956,222
792,58
843,79
840,58
850,217
903,182
800,206
755,233
756,287
710,373
711,418
962,203
961,196
904,187
906,232
851,267
802,253
801,217
799,183
959,212
1014,227
1013,280
708,905
709,879
754,255
757,311
1017,324
1016,262
960,197
905,216
958,198
957,7399
1070,254
1015,209
1012,320
1068,222
1005,80
1004,71
1060,92
1063,131
1065,146
1127,170
1062,138
1124,146
1123,132
1125,157
1188,231
1122,108
1058,97
947,123
946,139
949,44
945,123
948,69
1190,338
1187,191
951,119
895,78
952,120
1009,131
1008,130
1010,203
1007,112
1061,133
954,103
896,86
953,97
1126,184
1064,125
1189,273
955,215
950,98
892,40
786,43
836,40
837,35
787,26
700,108
655,92
654,54
653,55
698,48
699,63
608,29
696,0
656,100
833,75
785,48
835,71
693,63
894,52
893,43
1343,383
1192,395
1191,395
828,178
829,164
780,117
830,159
779,176
782,84
529,258
886,93
596,231
556,277
598,180
597,214
526,305
555,297
525,355
524,322
523,303
688,126
607,19
650,42
651,25
652,12
737,88
694,52
695,44
645,136
646,108
690,104
600,165
599,166
781,96
736,100
558,252
644,157
643,133
648,116
692,88
691,98
513,185
541,117
540,180
568,77
530,264
831,84
559,242
560,239
642,246
557,295
496,341
471,378
444,445
446,409
528,278
527,294
562,196
602,166
734,120
466,233
464,179
463,175
478,470
481,352
480,381
479,415
647,128
488,209
502,289
689,113
533,240
532,251
531,277
601,192
484,228
508,306
510,311
509,315
534,284
482,366
506,291
606,65
455,533
429,310
456,506
457,487
428,394
458,347
554,345
594,350
640,267
639,309
551,342
681,424
636,412
635,420
590,346
778,185
777,192
485,210
486,232
462,191
563,300
885,104
943,1331
564,383
641,261
504,314
503,297
501,317
500,384
561,261
254,247
350,210
321,291
319,246
251,287
375,220
347,298
687,139
565,336
539,259
511,290
536,328
649,151
603,321
605,663
733,134
735,107
489,262
514,200
461,430
460,441
459,419
468,150
154,404
178,350
203,335
228,305
402,275
401,287
505,325
522,329
451,541
452,594
477,519
476,515
483,526
884,142
431,285
430,322
454,494
595,277
395,389
394,409
422,501
417,453
390,451
538,266
567,63
426,561
397,400
398,448
499,463
475,551
497,330
498,357
311,314
342,356
345,330
421,458
515,177
472,681
448,712
473,736
474,777
353,262
381,237
256,319
290,293
324,269
380,272
407,225
253,301
226,327
201,340
177,397
824,296
775,269
826,199
939,247
936,358
937,344
880,312
566,315
2821,65535
2834,65535
2833,65535
2789,65535
2790,65535
2770,65535
2788,65535
2776,65535
2795,65535
2775,65535
2794,65535
2825,65535
2824,65535
2826,65535
2811,65535
2812,65535
2796,65535
2827,65535
2858,65535
2855,65535
2849,65535
2838,65535
2814,65535
2813,65535
2828,65535
2839,65535
2791,65535
2792,65535
2803,65535
2830,65535
2815,65535
2819,65535
2818,65535
2817,65535
2831,65535
2810,65535
2829,65535
2783,65535
2820,65535
2804,65535
2785,65535
2784,65535
2762,65535
2768,65535
2751,65535
2750,65535
2733,65535
2769,65535
2720,65535
2761,65535
2741,65535
2837,65535
2793,65535
2808,65535
2753,65535
2736,65535
2735,65535
2809,65535
2772,65535
2845,65535
2844,65535
2848,65535
2777,65535
2778,65535
2779,65535
2759,65535
2780,65535
2797,65535
2843,65535
2832,65535
2842,65535
2758,65535
2738,65535
2774,65535
2773,65535
2771,65535
2851,65535
2847,65535
2854,65535
2721,65535
2756,65535
2737,65535
2840,65535
2752,65535
2754,65535
2755,65535
2852,65535
2853,65535
2856,65535
2841,65535
2742,65535
2727,65535
2744,65535
2726,65535
2743,65535
2725,65535
2746,65535
2787,65535
2766,65535
2763,65535
2765,65535
2745,65535
2764,65535
2552,65535
2501,65535
2443,65535
2442,65535
2320,65535
2381,65535
2382,65535
2498,65535
2499,65535
2438,65535
2439,65535
2497,65535
2441,65535
2379,65535
2380,65535
2319,65535
2551,65535
2550,65535
2563,7557
2321,4213
2322,4182
2383,4194
2384,4905
2446,4948
2445,4956
2503,4975
2385,4939
2504,7678
2505,7700
2557,7724
2558,7749
2559,7773
2560,7737
2564,7513
2562,7625
2561,7665
2605,7680
2609,5264
2565,5209
2566,5194
2515,5139
2397,3559
2457,5120
2458,5104
2401,3731
2337,3472
2336,3476
2399,3518
2398,3539
2402,3765
2333,3696
2273,3731
2219,3755
2218,3767
2159,3792
2454,5824
2393,5790
2512,7524
2502,8309
2608,7943
2156,3914
2155,3946
2154,3975
2213,3991
2212,4003
2211,4051
2210,4092
2264,4099
2324,4133
2323,4149
2030,65535
2094,65535
2157,3878
2450,7921
2388,7970
2387,8038
2326,8075
2266,4280
2265,4235
2508,7892
2396,3628
2335,3646
2334,3657
2158,3817
2279,7345
2278,7309
2222,7278
2221,7260
2276,7242
2275,2844
2261,5727
2207,6585
2149,6644
2554,5027
2599,5057
2633,5095
2664,5130
2689,5167
2690,5193
2691,5209
2692,5233
2152,6338
2089,7046
2088,6384
2025,7179
2603,65535
2602,65535
2556,65535
2693,7172
2671,8955
2670,8935
2694,8894
2553,65535
2665,65535
2705,65535
2710,65535
2668,65535
2639,65535
2463,6586
2521,6622
2572,6645
2451,7806
2390,7775
2391,7595
2392,6232
2215,7800
2268,65535
2093,65535
2092,65535
2028,65535
2024,6414
2150,4452
2086,4482
2209,4439
2023,5553
2087,5506
2148,8599
2262,5712
2327,65535
1560,384
1630,433
1631,405
1559,467
1629,440
1558,393
1634,411
1633,400
1482,382
1481,423
1699,405
1700,421
1701,449
1563,394
2070,691
2008,687
2009,684
1959,672
1958,698
2006,730
1957,710
1956,662
2193,802
2132,741
1912,700
1911,680
1865,652
1866,751
2007,717
2069,701
2010,693
2011,709
1961,688
2072,709
1913,817
1867,848
1962,713
1914,720
1915,763
1909,614
1636,453
1635,441
1564,422
1702,480
1637,478
1638,466
1565,459
1486,431
1760,632
1704,470
1703,457
1763,485
1762,478
1817,522
1705,527
1863,1310
1815,1386
1759,447
863,1808
758,1901
808,1852
982,2023
1036,2030
1099,2065
1100,2093
1166,2494
1167,2989
1237,2646
1238,2681
1375,2751
1308,2820
1309,2729
1236,2947
1235,2581
1101,2124
1037,2061
971,1604
1025,1587
1026,1602
1027,1615
1089,1628
720,1864
674,1910
864,1690
865,1711
919,1606
1024,1551
975,1725
974,1695
1028,1650
873,2050
925,1996
924,1973
917,1670
918,1646
623,2085
712,1957
713,1990
667,1995
622,2053
809,1838
719,1838
765,1799
972,1636
868,1748
869,1760
815,1779
920,2015
973,1681
981,1974
926,2075
927,2083
928,2107
1354,1600
1288,1541
1218,1517
1152,1586
1023,1515
1353,1614
1085,1495
1148,1425
1147,1418
1082,1369
772,2136
771,2093
819,2068
584,1984
628,1951
629,1940
1033,1871
978,1826
1031,1799
1030,1753
1029,1736
1091,1713
1035,1952
1034,1895
979,1853
1526,2870
1449,2908
1378,2936
1448,2859
1524,2837
1038,2108
1447,2900
1768,633
1710,575
1767,585
391,422
365,383
339,368
400,418
393,438
392,463
396,384
399,551
443,476
449,548
450,523
419,556
414,507
415,473
387,510
388,472
389,465
282,505
281,431
314,400
313,356
405,175
411,534
442,493
255,280
376,283
373,298
278,325
275,448
248,495
335,585
334,557
306,520
307,509
176,446
225,314
320,289
249,521
287,252
285,295
776,246
731,234
315,491
316,474
204,351
440,217
439,271
166,1905
269,1822
383,1760
1247,4390
1246,4412
1384,4496
1679,4658
1178,1728
1105,1526
1172,1533
1173,1544
1242,1581
1241,1610
1314,1829
1313,1735
1171,1593
1382,1935
1243,1626
1317,2016
1107,1542
1108,1579
1109,1636
1041,1540
1043,1836
1042,1827
1044,1890
1176,1629
1174,1903
1177,1681
1110,1689
985,1672
986,1715
932,1733
774,290
730,239
825,312
728,326
729,281
727,451
682,341
684,258
685,238
732,218
683,502
2134,1255
2194,1284
2068,745
2129,799
1905,546
1907,563
1906,553
1953,573
2002,604
2064,641
2125,648
2137,1396
2196,1352
2195,1307
1859,481
1810,488
1755,490
2131,766
2192,780
1862,1299
1861,608
1812,553
1860,577
1809,680
1756,446
1869,644
1822,629
1821,662
1916,682
1819,562
1764,522
1820,595
1698,420
1757,432
1566,498
1567,449
1488,422
1489,439
1412,395
1413,401
1414,422
1818,561
1568,539
1410,353
2128,829
2189,856
2066,782
2065,806
2067,796
1643,554
1571,506
1491,469
2004,771
2003,652
1697,433
2135,1277
2075,1237
1642,532
1955,601
2130,828
2005,770
1858,501
1816,8488
1864,8481
1766,578
1910,654
1868,635
2188,1675
2127,1644
1903,743
2001,615
2063,1302
2062,1314
1813,516
1758,468
1639,478
1640,520
1952,626
2126,8570
1569,545
1965,789
1966,835
2014,852
1490,434
1917,696
1870,685
1871,699
1570,491
1707,528
2076,918
2013,1286
1964,793
1487,405
1908,1249
2251,3681
2199,3625
2198,3488
2136,1300
1641,553
1954,1306
1765,589
1857,565
2187,925
1904,721
1856,645
1951,684
1708,1323
245,8799
244,8782
357,8786
246,8914
247,8943
197,9037
223,9015
44,9379
43,9439
3,9575
23,9549
22,9538
63,9321
85,9263
84,9218
108,8718
149,8672
172,9063
296,8766
294,8814
355,8914
354,8946
326,9024
295,8923
291,8935
293,9057
260,8943
356,8974
441,8574
412,8597
329,8932
300,8876
148,8646
214,8884
146,8767
110,8848
262,8909
258,9322
292,9085
257,9387
235,8907
187,8807
212,8863
211,8890
186,8811
162,8785
161,8864
165,8763
189,8963
238,9044
237,9009
263,8945
265,8964
266,8942
267,8930
268,8770
26,9539
25,9507
105,65535
62,65535
83,65535
126,8885
175,9320
152,9254
151,9244
150,9203
103,8823
242,8716
191,8670
192,8721
217,8744
218,8797
145,8707
144,8791
167,8699
190,8677
219,8814
159,8911
185,8855
158,8968
188,8799
160,8876
143,65535
122,65535
75,65535
54,65535
198,9448
270,8811
221,8852
301,8909
302,8746
330,8773
331,8795
115,8847
133,8906
139,8803
134,8880
114,9404
48,65535
69,65535
92,9080
164,8873
4,65535
107,9225
129,9310
109,8750
125,8791
124,8765
127,65535
82,65535
67,65535
91,9248
93,9047
137,9182
113,9202
112,9160
136,65535
49,65535
72,65535
71,65535
406,241
805,7090
858,6895
859,7036
967,1074
1142,1209
1080,6735
1022,6776
1079,6768
968,6891
1206,1166
915,7042
916,7077
914,7014
807,7129
911,8236
1078,6992
1207,1224
1278,1268
1277,1271
1344,1291
1415,1332
1492,1387
1345,1348
1346,1318
1208,1216
1209,1296
1143,1333
1144,1349
1145,1364
1417,1344
1493,1404
1494,1423
1572,1438
1081,7061
970,7264
408,266
382,259
437,210
467,223
409,240
403,315
432,375
433,391
404,293
352,292
351,290
349,253
317,445
374,268
346,319
283,479
410,253
438,244
465,192
490,190
491,142
435,215
436,223
379,241
323,321
289,340
377,224
378,249
592,393
593,419
552,341
445,438
424,421
423,438
416,491
361,506
362,491
371,445
372,379
343,534
344,520
286,328
227,306
252,296
284,315
318,323
250,352
312,326
340,319
368,343
369,353
370,518
341,332
367,356
308,479
276,450
277,447
280,378
310,343
338,390
366,437
274,472
305,637
420,600
363,490
418,498
550,7081
579,7104
576,7049
577,7061
578,7077
520,7057
618,7071
662,7101
619,7088
620,7101
621,7095
665,7077
666,7069
664,7097
580,7116
2260,65535
2257,65535
2206,65535
2146,65535
2314,65535
2313,65535
2312,65535
2373,65535
2256,65535
2205,65535
2434,65535
2435,65535
2375,65535
2376,65535
2433,65535
2491,65535
2490,65535
2492,65535
2546,65535
2597,65535
2596,65535
2544,65535
2145,65535
2082,65535
2020,65535
2494,65535
0,65535
11,65535
1052,628
1053,615
941,655
1740,631
1796,672
1615,496
1681,557
1545,415
1797,694
1544,435
1741,689
1795,730
1617,481
1546,468
1616,491
1683,524
1467,395
1547,453
1465,479
1387,475
1388,455
1464,542
1462,619
1461,640
1542,704
1463,583
1682,632
1543,543
1618,495
1742,715
1460,806
1248,581
1850,697
1801,698
1803,676
882,199
881,208
938,267
883,219
940,1398
1998,1215
1902,889
1807,546
1691,587
1694,493
1693,1312
1749,618
1752,567
1753,524
1627,471
1628,441
1557,419
1479,336
1402,323
1808,535
1946,1435
1947,1380
1948,1284
1997,1170
1855,580
1690,566
2060,1390
1949,1439
1950,927
1751,578
1692,629
1999,1231
1901,1305
1900,1246
1852,1218
1853,1180
1805,694
1750,623
1854,889
1806,688
1748,655
2061,1340
2000,1294
1804,699
1899,1267
2884,65535
2892,65535
2883,65535
2876,65535
2874,65535
2882,65535
2877,65535
2911,65535
2905,65535
2906,65535
2896,65535
2887,65535
2881,65535
2880,65535
2888,65535
2902,65535
2903,65535
2907,65535
2912,65535
2895,65535
2894,65535
2875,65535
2885,65535
2893,65535
2904,65535
2865,65535
2866,65535
2909,65535
2913,65535
2886,65535
2878,65535
2869,65535
2871,65535
2872,65535
2879,65535
2870,65535
1330,335
1331,320
1401,335
1262,357
1263,349
1478,357
1403,336
1261,366
1480,347
1264,347
1390,389
1389,416
1319,409
1251,422
1250,508
1285,1442
1284,1446
1214,1418
1146,1384
1505,1667
1504,1601
1582,1639
1581,1567
1713,1546
1771,1528
1654,1678
1653,1651
1651,1603
2096,2782
2033,2742
1972,2713
1923,2645
1922,2623
1874,2317
1873,2030
1919,1983
1829,2994
1579,1503
1424,1495
1711,1520
1348,1344
1419,1364
1359,1771
1429,1722
1428,1708
1421,1421
1577,1455
1499,1428
1230,2015
1365,1952
1511,1874
1300,1997
1366,1969
1512,1902
1716,1736
1503,2013
1276,1298
1347,1328
1349,1376
1645,1512
1578,1490
1770,1524
1715,1579
1150,1483
1217,1497
1149,1459
1580,1529
1352,1536
1502,1518
1825,1936
1718,1891
1717,1865
1872,1969
1656,1780
1648,1555
1712,1532
1213,1408
1212,1389
1084,1430
1420,1410
1281,1334
1282,1395
1587,1774
1586,1741
1585,1730
1652,1698
1427,1876
1975,2817
1977,2885
1932,2955
1931,3580
1426,1596
1422,1438
1425,1581
1583,1667
1501,1525
1283,1436
1286,1483
1215,1468
1211,1365
1210,1339
1083,1401
1655,1769
2220,2823
1355,5891
1772,1537
1436,1920
1435,1910
1589,1843
1163,2048
1735,3168
1791,3101
1841,3078
1840,3034
1219,1600
1220,1639
1647,1541
1646,1533
1279,1286
1714,1556
1575,1515
1576,1477
1498,1485
1573,1527
1496,1545
1497,1516
2177,2965
2176,3035
2294,2952
2293,3071
2237,3012
2236,3041
2364,2813
2302,2753
2301,2675
2245,2577
2056,2707
2057,2793
2055,2686
2184,2738
2120,2744
2244,2658
2538,2998
2537,2979
2591,3095
1940,2870
1989,2878
1990,2814
2539,2998
2482,2989
2483,2951
2424,2847
2121,2805
2119,2618
2050,2927
2049,3005
2048,3423
2185,2771
2243,2497
2299,2711
2241,2660
2485,3029
2542,3084
2353,3043
2292,2950
2419,2837
2478,2884
2479,2919
2536,2946
2484,2990
2486,2983
2354,2882
2416,3059
2242,2705
2355,2920
2300,2718
1991,2818
1992,2825
2477,2875
2534,2896
2535,3011
2588,2916
2587,2930
2630,2981
2051,2739
2116,2633
2175,3068
2586,65535
2541,3151
2178,2940
2179,2743
2240,2690
2239,2914
2238,2984
2052,2870
2053,2836
1987,3110
1988,2958
1939,2982
2594,3101
2593,3086
2358,2804
2357,2814
2420,2870
2247,2866
2427,2956
2428,2978
2181,2537
2180,2586
2417,2864
2590,3076
2297,2699
2361,2891
2362,2774
2423,2862
2422,2827
2174,3298
2356,2925
1941,2859
2365,2990
2112,3303
2047,3445
2182,2676
2359,2753
2533,3691
2295,3016
2115,2706
2632,3136
2631,3075
2186,2923
2298,2785
2360,2809
2235,3261
2291,3274
2487,3205
2246,2798
2425,3606
2117,2930
2543,3158
1893,65535
2421,2962
2476,2880
2592,3134
604,7066
