middle_point_id,reach_time_minutes
2835,65535
2836,65535
2806,65535
2822,65535
2823,65535
2807,65535
2846,65535
887,163
888,176
1326,280
1185,249
999,290
1057,437
1552,789
1120,211
1473,817
944,438
832,151
1257,256
1396,284
1622,895
1327,424
1184,239
1183,250
1324,391
1255,924
1394,792
1252,1094
1253,1120
1182,1125
1328,65535
1470,883
1321,1074
1322,1015
1323,965
1391,1087
1551,798
1393,856
1472,804
1471,847
1181,1454
1118,1139
1059,190
1121,202
1469,901
1468,1141
1548,923
1325,325
1625,611
1623,777
1258,279
1256,374
791,40
891,129
703,0
704,4
660,8
1553,807
1624,733
1554,894
1474,820
1475,901
1550,869
1549,932
1320,1086
1466,1123
1541,1720
1318,1199
1249,1221
1186,236
1003,141
1002,182
741,97
788,61
434,128
697,111
752,15
1056,312
1006,130
907,132
518,65
1011,163
1000,213
1055,1622
997,1591
994,1485
996,1557
995,1541
991,1332
1112,3965
1114,1572
1051,1535
1398,972
1395,805
1001,189
1811,759
1960,1004
1769,886
1823,885
1329,65535
1332,437
1259,1736
1200,178
1199,175
1140,276
1141,277
783,143
1689,868
1802,897
1945,1436
2183,1918
2418,2367
1994,1472
1995,1868
2059,997
1621,65535
1555,567
1754,559
1180,1170
1106,2565
933,2726
827,248
2122,2333
2124,931
493,75
519,65
544,58
545,55
494,74
470,100
543,57
469,83
517,61
574,54
573,33
495,80
546,62
613,27
612,38
492,66
572,38
571,50
570,61
610,79
575,87
547,98
516,92
611,81
542,78
569,98
609,111
548,170
549,199
1404,364
1405,233
1266,218
1193,227
743,86
742,80
747,31
746,44
745,53
744,65
790,44
789,52
839,68
838,69
738,149
739,142
740,121
890,124
834,144
784,134
889,144
856,239
855,205
854,191
853,176
852,123
910,232
909,221
908,138
964,142
965,158
1020,254
966,178
963,155
1021,289
1271,179
1270,179
1339,187
1338,200
1071,134
1072,129
1135,158
1408,345
1337,218
1269,205
1268,213
1136,222
1075,214
1077,268
1076,244
1019,222
1018,195
1074,212
1137,264
1272,184
1274,256
1275,290
1205,332
1204,317
1273,227
1198,229
1197,226
1341,201
1134,173
1133,168
1069,154
1132,170
1073,170
1203,283
1202,225
1201,198
1139,268
1267,205
1138,296
1340,193
1196,191
1342,227
1409,247
1485,293
1407,265
1561,273
1632,284
1484,314
1483,232
1562,265
1194,191
1130,187
1195,192
1335,221
1129,173
1066,158
1128,199
1067,171
1131,179
1334,432
1336,210
1265,237
1333,422
1406,225
857,348
803,3082
804,6559
860,6567
969,6520
913,6507
912,6445
861,6577
806,6620
659,3
751,8
658,7
705,7
702,13
706,31
753,27
614,42
701,19
661,21
616,38
848,69
796,42
797,48
798,46
750,13
707,81
615,41
748,31
845,64
846,53
657,46
749,46
795,42
617,51
663,116
794,104
847,69
849,90
902,66
901,88
900,106
793,53
899,171
898,136
897,117
844,80
842,58
841,48
956,202
792,38
843,79
840,65
850,97
903,77
800,86
755,113
756,223
710,253
711,298
962,143
961,136
904,90
906,136
851,147
802,112
801,89
799,63
959,93
1014,107
1013,160
708,425
709,399
754,127
757,371
1017,183
1016,178
960,88
905,156
958,198
957,223
1070,141
1015,99
1012,177
1068,171
1005,138
1004,130
1060,173
1063,140
1065,148
1127,169
1062,138
1124,204
1123,192
1125,159
1188,231
1122,224
1058,196
947,189
946,221
949,104
945,242
948,129
1190,356
1187,253
951,113
895,98
952,116
1009,131
1008,114
1010,154
1007,120
1061,243
954,103
896,95
953,103
1126,153
1064,151
1189,273
955,6595
950,108
892,85
786,88
836,94
837,73
787,64
700,50
655,77
654,88
653,103
698,128
699,84
608,150
696,99
656,74
833,148
785,102
835,105
693,135
894,105
893,80
1343,263
1192,761
1191,550
828,245
829,229
780,230
830,257
779,221
782,144
529,266
886,162
596,291
556,322
598,240
597,251
526,264
555,337
525,296
524,309
523,303
688,190
607,143
650,134
651,126
652,126
737,151
694,115
695,112
645,196
646,168
690,164
600,225
599,227
781,156
736,160
558,268
644,217
643,193
648,176
692,149
691,158
513,177
541,117
540,155
568,190
530,273
831,170
559,247
560,225
642,321
557,270
496,326
471,364
444,432
446,396
528,281
527,296
562,220
602,193
734,186
466,121
464,130
463,148
478,379
481,298
480,288
479,355
647,188
488,143
502,289
689,173
533,240
532,251
531,261
601,199
484,227
508,233
510,224
509,245
534,227
482,326
506,920
606,176
455,410
429,241
456,382
457,276
428,270
458,266
554,466
594,860
640,327
639,870
551,319
681,921
636,912
635,899
590,372
778,249
777,252
485,204
486,183
462,172
563,265
885,224
943,851
564,293
641,321
504,288
503,281
501,391
500,446
561,214
254,249
350,209
321,206
319,249
251,260
375,215
347,263
687,199
565,273
539,195
511,204
536,263
649,211
603,370
605,1406
733,207
735,167
489,147
514,161
461,231
460,261
459,279
468,73
154,393
178,350
203,335
228,305
402,238
401,255
505,265
522,335
451,929
452,923
477,810
476,868
483,296
884,893
431,204
430,217
454,863
595,851
395,422
394,769
422,889
417,869
390,444
538,213
567,190
426,335
397,356
398,322
499,1053
475,994
497,332
498,349
311,254
342,274
345,225
421,807
515,113
472,936
448,967
473,992
474,1037
353,237
381,218
256,301
290,277
324,260
380,222
407,196
253,306
226,331
201,889
177,886
824,416
775,298
826,259
939,847
936,1318
937,913
880,401
566,260
2821,65535
2834,65535
2833,65535
2789,65535
2790,65535
2770,65535
2788,65535
2776,65535
2795,65535
2775,65535
2794,65535
2825,65535
2824,65535
2826,65535
2811,65535
2812,65535
2796,65535
2827,65535
2858,65535
2855,65535
2849,65535
2838,65535
2814,65535
2813,65535
2828,65535
2839,65535
2791,65535
2792,65535
2803,65535
2830,65535
2815,65535
2819,65535
2818,65535
2817,65535
2831,65535
2810,65535
2829,65535
2783,65535
2820,65535
2804,65535
2785,65535
2784,65535
2762,65535
2768,65535
2751,65535
2750,65535
2733,65535
2769,65535
2720,65535
2761,65535
2741,65535
2837,65535
2793,65535
2808,65535
2753,65535
2736,65535
2735,65535
2809,65535
2772,65535
2845,65535
2844,65535
2848,65535
2777,65535
2778,65535
2779,65535
2759,65535
2780,65535
2797,65535
2843,65535
2832,65535
2842,65535
2758,65535
2738,65535
2774,65535
2773,65535
2771,65535
2851,65535
2847,65535
2854,65535
2721,65535
2756,65535
2737,65535
2840,65535
2752,65535
2754,65535
2755,65535
2852,65535
2853,65535
2856,65535
2841,65535
2742,65535
2727,65535
2744,65535
2726,65535
2743,65535
2725,65535
2746,65535
2787,65535
2766,65535
2763,65535
2765,65535
2745,65535
2764,65535
2552,65535
2501,65535
2443,65535
2442,65535
2320,65535
2381,65535
2382,65535
2498,65535
2499,65535
2438,65535
2439,65535
2497,65535
2441,65535
2379,65535
2380,65535
2319,65535
2551,65535
2550,65535
2563,7077
2321,3733
2322,3702
2383,3714
2384,4425
2446,4468
2445,4476
2503,4495
2385,4459
2504,7198
2505,7220
2557,7244
2558,7269
2559,7293
2560,7257
2564,7033
2562,7145
2561,7185
2605,7200
2609,4784
2565,4729
2566,4714
2515,4659
2397,3079
2457,4640
2458,4624
2401,3251
2337,2992
2336,2996
2399,3038
2398,3059
2402,3285
2333,3216
2273,3251
2219,3275
2218,3287
2159,3312
2454,5344
2393,5310
2512,7044
2502,7829
2608,7463
2156,3434
2155,3466
2154,3495
2213,3511
2212,3523
2211,3571
2210,3612
2264,3619
2324,3653
2323,3669
2030,65535
2094,65535
2157,3398
2450,7441
2388,7490
2387,7558
2326,7595
2266,3800
2265,3755
2508,7412
2396,3148
2335,3166
2334,3177
2158,3337
2279,6865
2278,6829
2222,6798
2221,6780
2276,6762
2275,2364
2261,5247
2207,6105
2149,6164
2554,4547
2599,4577
2633,4615
2664,4650
2689,4687
2690,4713
2691,4729
2692,4753
2152,5858
2089,6566
2088,5904
2025,6699
2603,65535
2602,65535
2556,65535
2693,6692
2671,8475
2670,8455
2694,8414
2553,65535
2665,65535
2705,65535
2710,65535
2668,65535
2639,65535
2463,6106
2521,6142
2572,6165
2451,7326
2390,7295
2391,7115
2392,5752
2215,7320
2268,65535
2093,65535
2092,65535
2028,65535
2024,5934
2150,3972
2086,4002
2209,3959
2023,5073
2087,5026
2148,8119
2262,5232
2327,65535
1560,331
1630,318
1631,303
1559,358
1629,411
1558,408
1634,337
1633,304
1482,262
1481,347
1699,299
1700,333
1701,315
1563,330
2070,1018
2008,1014
2009,1014
1959,1008
1958,990
2006,972
1957,960
1956,966
2193,1267
2132,1209
1912,1032
1911,1025
1865,848
1866,885
2007,994
2069,1000
2010,1053
2011,1140
1961,1045
2072,1069
1913,981
1867,918
1962,1078
1914,1087
1915,1120
1909,941
1636,361
1635,374
1564,362
1702,320
1637,402
1638,459
1565,339
1486,306
1760,474
1704,412
1703,383
1763,439
1762,429
1817,806
1705,736
1863,940
1815,906
1759,867
863,1328
758,1421
808,1372
982,1543
1036,1550
1099,1585
1100,1613
1166,2014
1167,2509
1237,2166
1238,2201
1375,2271
1308,2340
1309,2249
1236,2467
1235,2101
1101,1644
1037,1581
971,1124
1025,1107
1026,1122
1027,1135
1089,1148
720,1384
674,1430
864,1210
865,1231
919,1126
1024,1071
975,1245
974,1215
1028,1170
873,1570
925,1516
924,1493
917,1190
918,1166
623,1605
712,1477
713,1510
667,1515
622,1573
809,1358
719,1358
765,1319
972,1156
868,1268
869,1280
815,1299
920,1535
973,1201
981,1494
926,1595
927,1603
928,1627
1354,1120
1288,1061
1218,1037
1152,1106
1023,1035
1353,1134
1085,1015
1148,945
1147,938
1082,889
772,1656
771,1613
819,1588
584,1504
628,1471
629,1460
1033,1391
978,1346
1031,1319
1030,1273
1029,1256
1091,1233
1035,1472
1034,1415
979,1373
1526,2390
1449,2428
1378,2456
1448,2379
1524,2357
1038,1628
1447,2420
1768,876
1710,891
1767,856
391,422
365,370
339,322
400,285
393,910
392,894
396,396
399,362
443,991
449,906
450,873
419,879
414,1032
415,939
387,932
388,925
389,870
282,345
281,322
314,340
313,296
405,145
411,1234
442,1193
255,283
376,193
373,250
278,265
275,328
248,375
335,439
334,413
306,385
307,362
176,916
225,331
320,224
249,374
287,226
285,283
776,276
731,282
315,278
316,260
204,375
440,93
439,138
166,1425
269,1342
383,1280
1247,3910
1246,3932
1384,4016
1679,4178
1178,3903
1105,2569
1172,2588
1173,2638
1242,2640
1241,2632
1314,2789
1313,2695
1171,2614
1382,2895
1243,2837
1317,2976
1107,2577
1108,2756
1109,3041
1041,2586
1043,2796
1042,2787
1044,2850
1176,3804
1174,2863
1177,3852
1110,3859
985,2632
986,2675
932,2693
774,304
730,294
825,320
728,360
729,320
727,963
682,350
684,318
685,298
732,279
683,862
2134,1368
2194,1391
2068,1075
2129,1130
1905,824
1907,912
1906,877
1953,873
2002,880
2064,890
2125,907
2137,1827
2196,1498
2195,1444
1859,785
1810,775
1755,531
2131,1081
2192,1119
1862,941
1861,895
1812,856
1860,893
1809,775
1756,381
1869,986
1822,900
1821,939
1916,1038
1819,846
1764,755
1820,892
1698,328
1757,369
1566,433
1567,380
1488,354
1489,455
1412,266
1413,286
1414,276
1818,910
1568,836
1410,286
2128,1177
2189,1204
2066,1286
2065,1325
2067,1127
1643,838
1571,305
1491,282
2004,1296
2003,915
1697,344
2135,1409
2075,1138
1642,818
1955,971
2130,1351
2005,1065
1858,793
1816,8008
1864,8001
1766,841
1910,981
1868,1002
2188,1411
2127,1380
1903,798
2001,957
2063,1351
2062,1212
1813,933
1758,464
1639,820
1640,362
1952,927
2126,8090
1569,316
1965,1302
1966,1348
2014,1298
1490,279
1917,990
1870,911
1871,924
1570,294
1707,846
2076,1190
2013,1094
1964,1047
1487,337
1908,1057
2251,3201
2199,3145
2198,3008
2136,1396
1641,810
1954,1048
1765,804
1857,823
2187,1516
1904,802
1856,777
1951,879
1708,1054
245,8319
244,8302
357,8306
246,8434
247,8463
197,8557
223,8535
44,8899
43,8959
3,9095
23,9069
22,9058
63,8841
85,8783
84,8738
108,8238
149,8192
172,8583
296,8286
294,8334
355,8434
354,8466
326,8544
295,8443
291,8455
293,8577
260,8463
356,8494
441,8094
412,8117
329,8452
300,8396
148,8166
214,8404
146,8287
110,8368
262,8429
258,8842
292,8605
257,8907
235,8427
187,8327
212,8383
211,8410
186,8331
162,8305
161,8384
165,8283
189,8483
238,8564
237,8529
263,8465
265,8484
266,8462
267,8450
268,8290
26,9059
25,9027
105,65535
62,65535
83,65535
126,8405
175,8840
152,8774
151,8764
150,8723
103,8343
242,8236
191,8190
192,8241
217,8264
218,8317
145,8227
144,8311
167,8219
190,8197
219,8334
159,8431
185,8375
158,8488
188,8319
160,8396
143,65535
122,65535
75,65535
54,65535
198,8968
270,8331
221,8372
301,8429
302,8266
330,8293
331,8315
115,8367
133,8426
139,8323
134,8400
114,8924
48,65535
69,65535
92,8600
164,8393
4,65535
107,8745
129,8830
109,8270
125,8311
124,8285
127,65535
82,65535
67,65535
91,8768
93,8567
137,8702
113,8722
112,8680
136,65535
49,65535
72,65535
71,65535
406,193
805,6610
858,6415
859,6556
967,594
1142,729
1080,6255
1022,6296
1079,6288
968,6411
1206,686
915,6562
916,6597
914,6534
807,6649
911,7756
1078,6512
1207,744
1278,788
1277,791
1344,811
1415,852
1492,907
1345,868
1346,838
1208,736
1209,816
1143,853
1144,869
1145,884
1417,864
1493,924
1494,943
1572,958
1081,6581
970,6784
408,201
382,218
437,132
467,111
409,184
403,209
432,198
433,188
404,194
352,262
351,221
349,236
317,329
374,255
346,253
283,397
410,157
438,140
465,135
490,131
491,88
435,184
436,160
379,219
323,381
289,411
377,230
378,181
592,1027
593,1065
552,828
445,830
424,377
423,856
416,930
361,847
362,858
371,338
372,308
343,867
344,884
286,976
227,308
252,303
284,269
318,292
250,315
312,266
340,284
368,342
369,436
370,932
341,873
367,406
308,348
276,327
277,308
280,307
310,274
338,345
366,900
274,890
305,1092
420,879
363,852
418,853
550,6601
579,6624
576,6569
577,6581
578,6597
520,6577
618,6591
662,6621
619,6608
620,6621
621,6615
665,6597
666,6589
664,6617
580,6636
2260,65535
2257,65535
2206,65535
2146,65535
2314,65535
2313,65535
2312,65535
2373,65535
2256,65535
2205,65535
2434,65535
2435,65535
2375,65535
2376,65535
2433,65535
2491,65535
2490,65535
2492,65535
2546,65535
2597,65535
2596,65535
2544,65535
2145,65535
2082,65535
2020,65535
2494,65535
0,65535
11,65535
1052,1588
1053,1575
941,1615
1740,1452
1796,1493
1615,1279
1681,1396
1545,1148
1797,1493
1544,1174
1741,1400
1795,1690
1617,1239
1546,1205
1616,1198
1683,1241
1467,1113
1547,1178
1465,1197
1387,1179
1388,1161
1464,1244
1462,1579
1461,1600
1542,1664
1463,1543
1682,1366
1543,1233
1618,1308
1742,1600
1460,1766
1248,1296
1850,902
1801,906
1803,892
882,259
881,268
938,858
883,279
940,2358
1998,890
1902,861
1807,737
1691,794
1694,973
1693,832
1749,835
1752,786
1753,798
1627,763
1628,921
1557,814
1479,443
1402,418
1808,710
1946,1075
1947,1010
1948,997
1997,904
1855,753
1690,781
2060,1077
1949,959
1950,881
1751,791
1692,734
1999,886
1901,1310
1900,1337
1852,1605
1853,1484
1805,934
1750,839
1854,1250
1806,992
1748,847
2061,1124
2000,913
1804,927
1899,1625
2884,65535
2892,65535
2883,65535
2876,65535
2874,65535
2882,65535
2877,65535
2911,65535
2905,65535
2906,65535
2896,65535
2887,65535
2881,65535
2880,65535
2888,65535
2902,65535
2903,65535
2907,65535
2912,65535
2895,65535
2894,65535
2875,65535
2885,65535
2893,65535
2904,65535
2865,65535
2866,65535
2909,65535
2913,65535
2886,65535
2878,65535
2869,65535
2871,65535
2872,65535
2879,65535
2870,65535
1330,526
1331,446
1401,437
1262,445
1263,441
1478,425
1403,409
1261,496
1480,743
1264,448
1390,1093
1389,1152
1319,1130
1251,1185
1250,1261
1285,962
1284,966
1214,938
1146,904
1505,1187
1504,1121
1582,1159
1581,1087
1713,1066
1771,1048
1654,1198
1653,1171
1651,1123
2096,2302
2033,2262
1972,2233
1923,2165
1922,2143
1874,1837
1873,1550
1919,1503
1829,2514
1579,1023
1424,1015
1711,1040
1348,864
1419,884
1359,1291
1429,1242
1428,1228
1421,941
1577,975
1499,948
1230,1535
1365,1472
1511,1394
1300,1517
1366,1489
1512,1422
1716,1256
1503,1533
1276,818
1347,848
1349,896
1645,1032
1578,1010
1770,1044
1715,1099
1150,1003
1217,1017
1149,979
1580,1049
1352,1056
1502,1038
1825,1456
1718,1411
1717,1385
1872,1489
1656,1300
1648,1075
1712,1052
1213,928
1212,909
1084,950
1420,930
1281,854
1282,915
1587,1294
1586,1261
1585,1250
1652,1218
1427,1396
1975,2337
1977,2405
1932,2475
1931,3100
1426,1116
1422,958
1425,1101
1583,1187
1501,1045
1283,956
1286,1003
1215,988
1211,885
1210,859
1083,921
1655,1289
2220,2343
1355,5411
1772,1057
1436,1440
1435,1430
1589,1363
1163,1568
1735,2688
1791,2621
1841,2598
1840,2554
1219,1120
1220,1159
1647,1061
1646,1053
1279,806
1714,1076
1575,1035
1576,997
1498,1005
1573,1047
1496,1065
1497,1036
2177,2485
2176,2555
2294,2472
2293,2591
2237,2532
2236,2561
2364,2333
2302,2273
2301,2195
2245,2097
2056,2227
2057,2313
2055,2206
2184,2258
2120,2264
2244,2178
2538,2518
2537,2499
2591,2615
1940,2390
1989,2398
1990,2334
2539,2518
2482,2509
2483,2471
2424,2367
2121,2325
2119,2138
2050,2447
2049,2525
2048,2943
2185,2291
2243,2017
2299,2231
2241,2180
2485,2549
2542,2604
2353,2563
2292,2470
2419,2357
2478,2404
2479,2439
2536,2466
2484,2510
2486,2503
2354,2402
2416,2579
2242,2225
2355,2440
2300,2238
1991,2338
1992,2345
2477,2395
2534,2416
2535,2531
2588,2436
2587,2450
2630,2501
2051,2259
2116,2153
2175,2588
2586,65535
2541,2671
2178,2460
2179,2263
2240,2210
2239,2434
2238,2504
2052,2390
2053,2356
1987,2630
1988,2478
1939,2502
2594,2621
2593,2606
2358,2324
2357,2334
2420,2390
2247,2386
2427,2476
2428,2498
2181,2057
2180,2106
2417,2384
2590,2596
2297,2219
2361,2411
2362,2294
2423,2382
2422,2347
2174,2818
2356,2445
1941,2379
2365,2510
2112,2823
2047,2965
2182,2196
2359,2273
2533,3211
2295,2536
2115,2226
2632,2656
2631,2595
2186,2443
2298,2305
2360,2329
2235,2781
2291,2794
2487,2725
2246,2318
2425,3126
2117,2450
2543,2678
1893,65535
2421,2482
2476,2400
2592,2654
604,6586
