middle_point_id,reach_time_minutes
2835,65535
2836,65535
2806,65535
2822,65535
2823,65535
2807,65535
2846,65535
887,1449
888,1427
1326,1540
1185,1449
999,1490
1057,1637
1552,1653
1120,1433
1473,1603
944,1498
832,1423
1257,1515
1396,1544
1622,1675
1327,1458
1184,1439
1183,1450
1324,1511
1255,1444
1394,1569
1252,1667
1253,1636
1182,1621
1328,65535
1470,1737
1321,1674
1322,1641
1323,1685
1391,1687
1551,1672
1393,1660
1472,1918
1471,1713
1181,1934
1118,1679
1059,1410
1121,1422
1469,1763
1468,1780
1548,1784
1325,1645
1625,1732
1623,1666
1258,1440
1256,1634
791,1277
891,1382
703,997
704,993
660,1005
1553,1649
1624,1689
1554,1670
1474,1618
1475,1653
1550,1682
1549,1731
1320,1732
1466,1784
1541,2200
1318,1846
1249,1869
1186,1496
1003,1401
1002,1411
741,1354
788,1317
434,1418
697,1351
752,969
1056,1510
1006,1365
907,1295
518,1327
1011,1392
1000,1448
1055,2102
997,2071
994,1965
996,2037
995,2021
991,1812
1112,4445
1114,2052
1051,2015
1398,1692
1395,1590
1001,1429
1811,1581
1960,1791
1769,1947
1823,1957
1329,65535
1332,1530
1259,2216
1200,1435
1199,1432
1140,1465
1141,1477
783,1416
1689,1759
1802,1820
1945,2281
2183,3838
2418,4344
1994,2315
1995,2348
2059,1897
1621,65535
1555,1687
1754,1744
1180,2783
1106,3045
933,3206
827,1568
2122,4579
2124,1940
493,1355
519,1331
544,1326
545,1331
494,1348
470,1370
543,1319
469,1364
517,1325
574,1335
573,1309
495,1356
546,1340
613,1050
612,1304
492,1331
572,1317
571,1331
570,1348
610,1351
575,1402
547,1358
516,1343
611,1401
542,1338
569,1377
609,1373
548,1430
549,1459
1404,1459
1405,1451
1266,1418
1193,1425
743,1325
742,1338
747,1270
746,1273
745,1290
744,1315
790,1285
789,1297
839,1339
838,1343
738,1415
739,1406
740,1371
890,1393
834,1408
784,1394
889,1414
856,1403
855,1380
854,1388
853,1430
852,1308
910,1372
909,1361
908,1318
964,1302
965,1344
1020,1395
966,1378
963,1323
1021,1489
1271,1437
1270,1436
1339,1447
1338,1460
1071,1355
1072,1365
1135,1418
1408,1483
1337,1477
1269,1455
1268,1452
1136,1429
1075,1415
1077,1445
1076,1426
1019,1422
1018,1395
1074,1412
1137,1464
1272,1453
1274,1537
1275,1550
1205,1502
1204,1523
1273,1547
1198,1391
1197,1395
1341,1483
1134,1380
1133,1373
1069,1381
1132,1395
1073,1381
1203,1543
1202,1542
1201,1478
1139,1482
1267,1405
1138,1496
1340,1452
1196,1403
1342,1516
1409,1457
1485,1490
1407,1565
1561,1506
1632,1510
1484,1563
1483,1476
1562,1535
1194,1414
1130,1409
1195,1423
1335,1421
1129,1398
1066,1390
1128,1399
1067,1399
1131,1400
1334,1514
1336,1431
1265,1437
1333,1509
1406,1441
857,2268
803,3562
804,7039
860,7047
969,7000
913,6987
912,6925
861,7057
806,7100
659,1006
751,979
658,1008
705,989
702,1016
706,961
753,991
614,1152
701,1239
661,1022
616,1065
848,1251
796,997
797,1056
798,1231
750,991
707,936
615,1421
748,1063
845,1239
846,1283
657,1332
749,1205
795,998
617,1371
663,986
794,1337
847,1277
849,1290
902,1268
901,1279
900,1306
793,1308
899,1367
898,1346
897,1345
844,1327
842,1296
841,1287
956,1399
792,1281
843,1339
840,1313
850,1266
903,1260
800,1258
755,1284
756,1254
710,971
711,1498
962,1343
961,1336
904,1290
906,1289
851,1285
802,1318
801,1275
799,1248
959,1292
1014,1327
1013,1480
708,0
709,940
754,1290
757,1331
1017,1361
1016,1372
960,1267
905,1354
958,1335
957,7068
1070,1362
1015,1309
1012,1424
1068,1396
1005,1375
1004,1391
1060,1403
1063,1368
1065,1376
1127,1397
1062,1389
1124,1403
1123,1425
1125,1392
1188,1418
1122,1429
1058,1417
947,1394
946,1447
949,1356
945,1443
948,1386
1190,1418
1187,1428
951,1366
895,1336
952,1351
1009,1382
1008,1367
1010,1385
1007,1358
1061,1439
954,1360
896,1343
953,1353
1126,1406
1064,1366
1189,1477
955,1411
950,1371
892,1345
786,1344
836,1346
837,1340
787,1324
700,1295
655,1333
654,1370
653,1365
698,1348
699,1293
608,1381
696,1357
656,1330
833,1416
785,1374
835,1381
693,1392
894,1364
893,1351
1343,1533
1192,1482
1191,1655
828,1558
829,1544
780,1490
830,1539
779,1541
782,1417
529,1556
886,1452
596,1604
556,1601
598,1560
597,1613
526,1571
555,1588
525,1596
524,1583
523,1579
688,1472
607,1385
650,1393
651,1389
652,1371
737,1420
694,1378
695,1358
645,1487
646,1459
690,1441
600,1513
599,1499
781,1431
736,1430
558,1539
644,1489
643,1500
648,1438
692,1409
691,1425
513,1440
541,1377
540,1424
568,1410
530,1555
831,1434
559,1569
560,1559
642,1663
557,1579
496,1610
471,1624
444,1692
446,1656
528,1563
527,1603
562,1462
602,1447
734,1467
466,1372
464,1395
463,1462
478,1661
481,1584
480,1626
479,1651
647,1432
488,1436
502,1574
689,1468
533,1498
532,1510
531,1536
601,1519
484,1548
508,1505
510,1514
509,1515
534,1497
482,1645
506,1644
606,1414
455,1690
429,1512
456,1654
457,1624
428,1567
458,1545
554,1612
594,1663
640,1707
639,1749
551,1602
681,1727
636,1714
635,1679
590,1636
778,1565
777,1572
485,1531
486,1482
462,1511
563,1476
885,1484
943,2771
564,1527
641,1663
504,1624
503,1587
501,1583
500,1641
561,1530
254,1525
350,1473
321,1489
319,1511
251,1550
375,1506
347,1517
687,1519
565,1557
539,1458
511,1494
536,1577
649,1471
603,1487
605,1886
733,1487
735,1457
489,1402
514,1421
461,1570
460,1581
459,1601
468,1348
154,1659
178,1624
203,1594
228,1565
402,1503
401,1595
505,1644
522,1617
451,1878
452,1828
477,1707
476,1732
483,1571
884,1594
431,1474
430,1537
454,1720
595,1609
395,1684
394,1766
422,1850
417,1709
390,1717
538,1480
567,1453
426,1862
397,1618
398,1584
499,1707
475,1842
497,1594
498,1642
311,1578
342,1583
345,1517
421,1858
515,1433
472,2067
448,2028
473,1978
474,1857
353,1459
381,1441
256,1521
290,1495
324,1480
380,1488
407,1484
253,1623
226,1648
201,1661
177,1669
824,1736
775,1678
826,1579
939,1627
936,1798
937,1693
880,1601
566,1575
2821,65535
2834,65535
2833,65535
2789,65535
2790,65535
2770,65535
2788,65535
2776,65535
2795,65535
2775,65535
2794,65535
2825,65535
2824,65535
2826,65535
2811,65535
2812,65535
2796,65535
2827,65535
2858,65535
2855,65535
2849,65535
2838,65535
2814,65535
2813,65535
2828,65535
2839,65535
2791,65535
2792,65535
2803,65535
2830,65535
2815,65535
2819,65535
2818,65535
2817,65535
2831,65535
2810,65535
2829,65535
2783,65535
2820,65535
2804,65535
2785,65535
2784,65535
2762,65535
2768,65535
2751,65535
2750,65535
2733,65535
2769,65535
2720,65535
2761,65535
2741,65535
2837,65535
2793,65535
2808,65535
2753,65535
2736,65535
2735,65535
2809,65535
2772,65535
2845,65535
2844,65535
2848,65535
2777,65535
2778,65535
2779,65535
2759,65535
2780,65535
2797,65535
2843,65535
2832,65535
2842,65535
2758,65535
2738,65535
2774,65535
2773,65535
2771,65535
2851,65535
2847,65535
2854,65535
2721,65535
2756,65535
2737,65535
2840,65535
2752,65535
2754,65535
2755,65535
2852,65535
2853,65535
2856,65535
2841,65535
2742,65535
2727,65535
2744,65535
2726,65535
2743,65535
2725,65535
2746,65535
2787,65535
2766,65535
2763,65535
2765,65535
2745,65535
2764,65535
2552,65535
2501,65535
2443,65535
2442,65535
2320,65535
2381,65535
2382,65535
2498,65535
2499,65535
2438,65535
2439,65535
2497,65535
2441,65535
2379,65535
2380,65535
2319,65535
2551,65535
2550,65535
2563,7557
2321,7093
2322,7062
2383,7074
2384,7280
2446,7322
2445,7329
2503,7348
2385,7313
2504,7678
2505,7700
2557,7724
2558,7749
2559,7773
2560,7737
2564,7905
2562,7625
2561,7665
2605,7680
2609,7952
2565,8028
2566,8044
2515,8055
2397,6439
2457,8085
2458,8107
2401,6516
2337,6352
2336,6356
2399,6398
2398,6419
2402,6576
2333,6576
2273,6611
2219,6635
2218,6647
2159,6672
2454,7264
2393,7230
2512,7524
2502,7516
2608,7943
2156,6794
2155,6826
2154,6855
2213,6871
2212,6883
2211,6931
2210,6972
2264,6979
2324,7013
2323,7029
2030,65535
2094,65535
2157,6758
2450,7921
2388,7970
2387,8038
2326,8075
2266,8110
2265,7454
2508,7892
2396,6508
2335,6526
2334,6537
2158,6697
2279,8666
2278,8630
2222,8599
2221,8581
2276,8563
2275,4479
2261,7286
2207,7323
2149,65535
2554,7406
2599,7438
2633,7484
2664,9171
2689,9229
2690,9335
2691,9373
2692,9406
2152,6967
2089,7046
2088,7034
2025,7179
2603,65535
2602,65535
2556,65535
2693,65535
2671,65535
2670,65535
2694,65535
2553,65535
2665,65535
2705,65535
2710,65535
2668,65535
2639,65535
2463,6586
2521,6622
2572,6645
2451,7806
2390,7775
2391,7595
2392,7558
2215,7800
2268,65535
2093,65535
2092,65535
2028,65535
2024,8857
2150,8283
2086,8331
2209,8265
2023,8433
2087,8386
2148,8599
2262,7272
2327,65535
1560,1550
1630,1627
1631,1588
1559,1666
1629,1689
1558,1593
1634,1650
1633,1544
1482,1462
1481,1535
1699,1515
1700,1663
1701,1683
1563,1582
2070,1858
2008,1798
2009,1794
1959,1797
1958,1793
2006,1776
1957,1758
1956,1712
2193,1986
2132,1926
1912,1813
1911,1815
1865,1872
1866,1906
2007,1835
2069,1841
2010,1833
2011,1885
1961,1823
2072,1849
1913,1900
1867,1966
1962,1856
1914,1865
1915,1913
1909,1939
1636,1655
1635,1660
1564,1618
1702,1673
1637,1645
1638,1650
1565,1679
1486,1593
1760,1843
1704,1706
1703,1680
1763,1737
1762,1727
1817,1771
1705,1707
1863,1834
1815,1859
1759,1644
863,3248
758,3341
808,3292
982,3463
1036,3470
1099,3505
1100,3533
1166,3934
1167,4429
1237,4086
1238,4121
1375,4191
1308,4260
1309,4169
1236,4387
1235,4021
1101,3564
1037,3501
971,3044
1025,3027
1026,3042
1027,3055
1089,3068
720,3304
674,3350
864,3130
865,3151
919,3046
1024,2991
975,3165
974,3135
1028,3090
873,3490
925,3436
924,3413
917,3110
918,3086
623,3525
712,3397
713,3430
667,3435
622,3493
809,3278
719,3278
765,3239
972,3076
868,3188
869,3200
815,3219
920,3334
973,3121
981,3414
926,3515
927,3523
928,3547
1354,2997
1288,2981
1218,2957
1152,3026
1023,2955
1353,2981
1085,2935
1148,2865
1147,2858
1082,2809
772,3576
771,3533
819,3508
584,3424
628,3391
629,3380
1033,3311
978,3266
1031,3239
1030,3193
1029,3176
1091,3153
1035,3392
1034,3335
979,3293
1526,4310
1449,4348
1378,4376
1448,4299
1524,4277
1038,3548
1447,4340
1768,1950
1710,1908
1767,1938
391,1688
365,1650
339,1628
400,1545
393,1814
392,1790
396,1657
399,1660
443,1725
449,1929
450,1963
419,1752
414,1947
415,1793
387,1798
388,1763
389,1744
282,1680
281,1705
314,1681
313,1662
405,1436
411,1974
442,1933
255,1553
376,1723
373,1660
278,1645
275,1845
248,1935
335,1850
334,1827
306,1881
307,1870
176,1687
225,1605
320,1488
249,1708
287,1585
285,1616
776,1624
731,1635
315,1661
316,1643
204,1624
440,1380
439,1398
166,3345
269,3262
383,3200
1247,4390
1246,4412
1384,4496
1679,4658
1178,4383
1105,3049
1172,3068
1173,3118
1242,3120
1241,3112
1314,3269
1313,3175
1171,3094
1382,3375
1243,3317
1317,3456
1107,3057
1108,3236
1109,3521
1041,3066
1043,3276
1042,3267
1044,3330
1176,4284
1174,3343
1177,4332
1110,4339
985,3112
986,3155
932,3173
774,1684
730,1653
825,1692
728,1719
729,1661
727,1771
682,1716
684,1698
685,1648
732,1658
683,1942
2134,2083
2194,2073
2068,1883
2129,1937
1905,1695
1907,1644
1906,1634
1953,1825
2002,1866
2064,1885
2125,1907
2137,2307
2196,2260
2195,2217
1859,1626
1810,1682
1755,1561
2131,1907
2192,1944
1862,1794
1861,1747
1812,1605
1860,1729
1809,1878
1756,1546
1869,1897
1822,1952
1821,1906
1916,1926
1819,1761
1764,1744
1820,1845
1698,1522
1757,1532
1566,1602
1567,1588
1488,1562
1489,1592
1412,1539
1413,1608
1414,1593
1818,1802
1568,1643
1410,1490
2128,1960
2189,2001
2066,1929
2065,1952
2067,1934
1643,1892
1571,1825
1491,1740
2004,1917
2003,1904
1697,1544
2135,2078
2075,2059
1642,1861
1955,1683
2130,1957
2005,1728
1858,1710
1816,8488
1864,8481
1766,1932
1910,1926
1868,1888
2188,2106
2127,2077
1903,1859
2001,1922
2063,1919
2062,1910
1813,1856
1758,1543
1639,1819
1640,1838
1952,1868
2126,8570
1569,1797
1965,1963
1966,2008
2014,2029
1490,1752
1917,2041
1870,2004
1871,2014
1570,1788
1707,1884
2076,2102
2013,2004
1964,1957
1487,1544
1908,1936
2251,3681
2199,3625
2198,3488
2136,2065
1641,1993
1954,1783
1765,1905
1857,1735
2187,1996
1904,1837
1856,1845
1951,1835
1708,2763
245,8799
244,8782
357,8786
246,8914
247,8943
197,9037
223,9015
44,9379
43,9439
3,9575
23,9549
22,9538
63,9321
85,9263
84,9218
108,8718
149,8672
172,9063
296,8766
294,8814
355,8914
354,8946
326,9024
295,8923
291,8935
293,9057
260,8943
356,8974
441,8574
412,8597
329,8932
300,8876
148,8646
214,8884
146,8767
110,8848
262,8909
258,9322
292,9085
257,9387
235,8907
187,8807
212,8863
211,8890
186,8811
162,8785
161,8864
165,8763
189,8963
238,9044
237,9009
263,8945
265,8964
266,8942
267,8930
268,8770
26,9539
25,9507
105,65535
62,65535
83,65535
126,8885
175,9320
152,9254
151,9244
150,9203
103,8823
242,8716
191,8670
192,8721
217,8744
218,8797
145,8707
144,8791
167,8699
190,8677
219,8814
159,8911
185,8855
158,8968
188,8799
160,8876
143,65535
122,65535
75,65535
54,65535
198,9448
270,8811
221,8852
301,8909
302,8746
330,8773
331,8795
115,8847
133,8906
139,8803
134,8880
114,9404
48,65535
69,65535
92,9080
164,8873
4,65535
107,9225
129,9310
109,8750
125,8791
124,8765
127,65535
82,65535
67,65535
91,9248
93,9047
137,9182
113,9202
112,9160
136,65535
49,65535
72,65535
71,65535
406,1561
805,7090
858,6895
859,7036
967,2514
1142,2649
1080,6735
1022,6776
1079,6768
968,6891
1206,2606
915,7042
916,7077
914,7014
807,7129
911,8236
1078,6992
1207,2664
1278,2708
1277,2711
1344,2731
1415,2772
1492,2827
1345,2788
1346,2758
1208,2656
1209,2736
1143,2773
1144,2789
1145,2804
1417,2784
1493,2844
1494,2863
1572,2878
1081,7061
970,7264
408,1448
382,1440
437,1386
467,1360
409,1414
403,1494
432,1989
433,1496
404,1466
352,1589
351,1589
349,1543
317,1602
374,1549
346,1727
283,1652
410,1417
438,1400
465,1379
490,1392
491,1379
435,1442
436,1410
379,1622
323,1694
289,1604
377,1549
378,1500
592,1833
593,1859
552,1601
445,1697
424,1634
423,1729
416,1719
361,1778
362,1754
371,1732
372,1689
343,1745
344,1749
286,1803
227,1727
252,1587
284,1608
318,1611
250,1676
312,1668
340,1634
368,1657
369,1685
370,1722
341,1667
367,1674
308,1776
276,1756
277,1710
280,1698
310,1603
338,1650
366,1757
274,1912
305,1893
420,1809
363,1724
418,1695
550,7081
579,7104
576,7049
577,7061
578,7077
520,7057
618,7071
662,7101
619,7088
620,7101
621,7095
665,7077
666,7069
664,7097
580,7116
2260,65535
2257,65535
2206,65535
2146,65535
2314,65535
2313,65535
2312,65535
2373,65535
2256,65535
2205,65535
2434,65535
2435,65535
2375,65535
2376,65535
2433,65535
2491,65535
2490,65535
2492,65535
2546,65535
2597,65535
2596,65535
2544,65535
2145,65535
2082,65535
2020,65535
2494,65535
0,65535
11,65535
1052,2068
1053,2055
941,2095
1740,1932
1796,1973
1615,1835
1681,1876
1545,1796
1797,2020
1544,1810
1741,1988
1795,2170
1617,1810
1546,1801
1616,1813
1683,1908
1467,1770
1547,1796
1465,1845
1387,1881
1388,1842
1464,1906
1462,2059
1461,2080
1542,2144
1463,2023
1682,1887
1543,1865
1618,1870
1742,2080
1460,2246
1248,1890
1850,1834
1801,1833
1803,1801
882,1579
881,1586
938,1638
883,1599
940,2838
1998,1839
1902,1793
1807,1746
1691,1727
1694,1693
1693,1861
1749,1758
1752,1767
1753,1724
1627,1671
1628,1641
1557,1619
1479,1571
1402,1541
1808,1735
1946,1915
1947,1946
1948,1853
1997,1849
1855,1785
1690,1706
2060,1855
1949,1887
1950,1814
1751,1810
1692,1829
1999,1829
1901,1895
1900,1936
1852,2085
1853,1964
1805,1826
1750,1770
1854,1800
1806,1786
1748,1794
2061,1896
2000,1894
1804,1786
1899,2105
2884,65535
2892,65535
2883,65535
2876,65535
2874,65535
2882,65535
2877,65535
2911,65535
2905,65535
2906,65535
2896,65535
2887,65535
2881,65535
2880,65535
2888,65535
2902,65535
2903,65535
2907,65535
2912,65535
2895,65535
2894,65535
2875,65535
2885,65535
2893,65535
2904,65535
2865,65535
2866,65535
2909,65535
2913,65535
2886,65535
2878,65535
2869,65535
2871,65535
2872,65535
2879,65535
2870,65535
1330,1595
1331,1534
1401,1546
1262,1580
1263,1549
1478,1557
1403,1490
1261,1631
1480,1504
1264,1543
1390,1753
1389,1798
1319,1775
1251,1862
1250,1948
1285,2900
1284,2886
1214,2858
1146,2822
1505,3107
1504,3041
1582,3079
1581,3007
1713,2986
1771,2968
1654,3118
1653,3091
1651,3043
2096,4222
2033,4182
1972,4153
1923,4085
1922,4063
1874,3757
1873,3470
1919,3423
1829,6134
1579,2943
1424,2947
1711,2960
1348,2784
1419,2804
1359,3211
1429,3162
1428,3148
1421,2861
1577,2895
1499,2868
1230,3455
1365,3392
1511,3314
1300,3437
1366,3409
1512,3342
1716,3176
1503,3229
1276,2738
1347,2768
1349,2816
1645,2952
1578,2930
1770,2964
1715,3019
1150,2923
1217,2937
1149,2899
1580,2989
1352,2976
1502,3007
1825,3376
1718,3331
1717,3305
1872,3409
1656,3220
1648,2995
1712,2972
1213,2848
1212,2829
1084,2870
1420,2850
1281,2774
1282,2835
1587,3214
1586,3181
1585,3170
1652,3138
1427,3316
1975,4257
1977,4325
1932,4395
1931,5020
1426,3036
1422,2878
1425,3021
1583,3107
1501,2965
1283,2876
1286,2923
1215,2908
1211,2805
1210,2779
1083,2841
1655,3209
2220,4457
1355,5891
1772,2977
1436,3360
1435,3350
1589,3283
1163,3488
1735,4608
1791,4541
1841,4518
1840,4474
1219,3040
1220,3079
1647,2981
1646,2973
1279,2726
1714,2996
1575,2955
1576,2917
1498,2925
1573,2967
1496,2985
1497,2956
2177,4405
2176,4475
2294,4444
2293,4520
2237,4452
2236,4481
2364,4253
2302,4193
2301,4115
2245,4017
2056,4323
2057,4367
2055,4126
2184,4178
2120,4184
2244,4098
2538,4548
2537,4510
2591,4535
1940,4310
1989,4318
1990,4254
2539,4526
2482,4626
2483,4391
2424,4287
2121,4245
2119,4058
2050,4383
2049,4445
2048,4863
2185,4211
2243,3937
2299,4151
2241,4100
2485,4469
2542,4524
2353,4483
2292,4390
2419,4303
2478,4364
2479,4381
2536,4467
2484,4430
2486,4423
2354,4378
2416,4499
2242,4145
2355,4372
2300,4158
1991,4258
1992,4265
2477,4356
2534,4366
2535,4466
2588,4403
2587,4418
2630,4438
2051,4179
2116,4073
2175,4573
2586,65535
2541,4660
2178,4380
2179,4183
2240,4130
2239,4354
2238,4424
2052,4310
2053,4276
1987,4550
1988,4587
1939,4500
2594,4632
2593,4604
2358,4260
2357,4267
2420,4310
2247,4306
2427,4396
2428,4418
2181,3977
2180,4026
2417,4358
2590,4516
2297,4139
2361,4331
2362,4214
2423,4302
2422,4267
2174,4738
2356,4397
1941,4299
2365,4430
2112,4743
2047,4885
2182,4116
2359,4193
2533,5131
2295,4456
2115,4146
2632,4576
2631,4515
2186,4379
2298,4225
2360,4249
2235,4701
2291,4714
2487,4645
2246,4238
2425,5046
2117,4370
2543,4598
1893,65535
2421,4402
2476,4412
2592,4682
604,7066
