middle_point_id,reach_time_minutes
2835,65535
2836,65535
2806,65535
2822,65535
2823,65535
2807,65535
2846,65535
887,489
888,478
1326,569
1185,503
999,530
1057,721
1552,743
1120,534
1473,720
944,576
832,470
1257,556
1396,739
1622,835
1327,904
1184,535
1183,545
1324,871
1255,1404
1394,1272
1252,1574
1253,1600
1182,1605
1328,65535
1470,1304
1321,1554
1322,1495
1323,1445
1391,1567
1551,751
1393,1273
1472,958
1471,1244
1181,1934
1118,1619
1059,456
1121,492
1469,1381
1468,1621
1548,1403
1325,805
1625,772
1623,766
1258,519
1256,674
791,340
891,429
703,297
704,291
660,293
1553,747
1624,789
1554,770
1474,760
1475,813
1550,1029
1549,1326
1320,1566
1466,1603
1541,2200
1318,1679
1249,1701
1186,496
1003,441
1002,443
741,400
788,362
434,464
697,377
752,272
1056,552
1006,430
907,225
518,335
1011,454
1000,454
1055,2102
997,2071
994,1965
996,2037
995,2021
991,1812
1112,4445
1114,2052
1051,2015
1398,852
1395,750
1001,447
1811,673
1960,1239
1769,760
1823,789
1329,65535
1332,558
1259,2216
1200,418
1199,415
1140,396
1141,397
783,479
1689,1193
1802,1200
1945,1916
2183,2398
2418,2847
1994,1952
1995,2348
2059,1477
1621,65535
1555,727
1754,1039
1180,1650
1106,3045
933,3206
827,548
2122,2813
2124,1357
493,342
519,335
544,327
545,328
494,342
470,362
543,332
469,358
517,346
574,331
573,319
495,359
546,333
613,309
612,312
492,350
572,325
571,337
570,361
610,379
575,383
547,378
516,368
611,321
542,347
569,398
609,411
548,410
549,439
1404,504
1405,474
1266,458
1193,467
743,389
742,381
747,331
746,344
745,353
744,365
790,348
789,352
839,374
838,395
738,476
739,446
740,412
890,437
834,469
784,459
889,467
856,325
855,300
854,307
853,338
852,236
910,292
909,281
908,238
964,232
965,284
1020,383
966,298
963,246
1021,404
1271,420
1270,419
1339,427
1338,440
1071,374
1072,369
1135,398
1408,463
1337,457
1269,434
1268,460
1136,462
1075,334
1077,388
1076,346
1019,342
1018,315
1074,392
1137,445
1272,433
1274,496
1275,507
1205,459
1204,469
1273,468
1198,431
1197,441
1341,503
1134,384
1133,391
1069,412
1132,413
1073,356
1203,463
1202,462
1201,438
1139,402
1267,445
1138,475
1340,433
1196,443
1342,509
1409,490
1485,469
1407,490
1561,515
1632,539
1484,533
1483,475
1562,506
1194,427
1130,424
1195,432
1335,461
1129,450
1066,464
1128,502
1067,458
1131,419
1334,520
1336,450
1265,477
1333,549
1406,465
857,828
803,3562
804,7039
860,7047
969,7000
913,6987
912,6925
861,7057
806,7100
659,294
751,285
658,308
705,296
702,313
706,282
753,266
614,304
701,319
661,302
616,308
848,264
796,278
797,260
798,243
750,294
707,321
615,341
748,331
845,316
846,293
657,406
749,305
795,315
617,351
663,356
794,358
847,302
849,233
902,308
901,318
900,346
793,353
899,411
898,376
897,390
844,320
842,358
841,348
956,807
792,338
843,368
840,365
850,173
903,278
800,157
755,144
756,114
710,77
711,0
962,271
961,281
904,268
906,215
851,210
802,193
801,167
799,191
959,332
1014,347
1013,400
708,905
709,879
754,195
757,131
1017,324
1016,350
960,317
905,221
958,438
957,1266
1070,381
1015,329
1012,440
1068,445
1005,440
1004,431
1060,461
1063,442
1065,473
1127,469
1062,438
1124,475
1123,492
1125,459
1188,502
1122,472
1058,468
947,467
946,489
949,404
945,516
948,429
1190,533
1187,551
951,416
895,398
952,425
1009,471
1008,465
1010,466
1007,433
1061,483
954,463
896,395
953,461
1126,453
1064,450
1189,513
955,821
950,428
892,400
786,404
836,400
837,395
787,386
700,351
655,377
654,388
653,398
698,374
699,363
608,415
696,402
656,374
833,465
785,434
835,431
693,464
894,405
893,403
1343,503
1192,630
1191,635
828,538
829,524
780,497
830,519
779,536
782,480
529,540
886,513
596,590
556,592
598,565
597,584
526,571
555,601
525,599
524,614
523,608
688,512
607,442
650,491
651,455
652,463
737,478
694,429
695,410
645,527
646,523
690,496
600,553
599,539
781,485
736,485
558,571
644,529
643,523
648,535
692,479
691,489
513,451
541,357
540,418
568,439
530,559
831,474
559,594
560,599
642,607
557,559
496,617
471,630
444,702
446,659
528,545
527,553
562,595
602,581
734,508
466,483
464,412
463,425
478,654
481,592
480,631
479,629
647,584
488,456
502,557
689,508
533,575
532,551
531,562
601,541
484,587
508,595
510,610
509,620
534,658
482,609
506,571
606,513
455,651
429,600
456,676
457,645
428,627
458,616
554,626
594,704
640,627
639,746
551,631
681,694
636,672
635,659
590,634
778,545
777,552
485,570
486,570
462,527
563,632
885,524
943,1331
564,599
641,621
504,584
503,567
501,582
500,648
561,621
254,618
350,568
321,596
319,612
251,654
375,575
347,598
687,529
565,572
539,501
511,590
536,615
649,553
603,621
605,663
733,527
735,497
489,472
514,437
461,591
460,621
459,640
468,374
154,755
178,719
203,690
228,669
402,606
401,618
505,565
522,639
451,841
452,819
477,701
476,748
483,776
884,565
431,564
430,576
454,1343
595,630
395,720
394,722
422,749
417,698
390,741
538,515
567,492
426,799
397,670
398,679
499,696
475,741
497,628
498,649
311,614
342,606
345,565
421,756
515,398
472,681
448,712
473,736
474,777
353,593
381,584
256,656
290,610
324,599
380,578
407,552
253,644
226,687
201,700
177,735
824,656
775,597
826,559
939,607
936,1798
937,673
880,729
566,560
2821,65535
2834,65535
2833,65535
2789,65535
2790,65535
2770,65535
2788,65535
2776,65535
2795,65535
2775,65535
2794,65535
2825,65535
2824,65535
2826,65535
2811,65535
2812,65535
2796,65535
2827,65535
2858,65535
2855,65535
2849,65535
2838,65535
2814,65535
2813,65535
2828,65535
2839,65535
2791,65535
2792,65535
2803,65535
2830,65535
2815,65535
2819,65535
2818,65535
2817,65535
2831,65535
2810,65535
2829,65535
2783,65535
2820,65535
2804,65535
2785,65535
2784,65535
2762,65535
2768,65535
2751,65535
2750,65535
2733,65535
2769,65535
2720,65535
2761,65535
2741,65535
2837,65535
2793,65535
2808,65535
2753,65535
2736,65535
2735,65535
2809,65535
2772,65535
2845,65535
2844,65535
2848,65535
2777,65535
2778,65535
2779,65535
2759,65535
2780,65535
2797,65535
2843,65535
2832,65535
2842,65535
2758,65535
2738,65535
2774,65535
2773,65535
2771,65535
2851,65535
2847,65535
2854,65535
2721,65535
2756,65535
2737,65535
2840,65535
2752,65535
2754,65535
2755,65535
2852,65535
2853,65535
2856,65535
2841,65535
2742,65535
2727,65535
2744,65535
2726,65535
2743,65535
2725,65535
2746,65535
2787,65535
2766,65535
2763,65535
2765,65535
2745,65535
2764,65535
2552,65535
2501,65535
2443,65535
2442,65535
2320,65535
2381,65535
2382,65535
2498,65535
2499,65535
2438,65535
2439,65535
2497,65535
2441,65535
2379,65535
2380,65535
2319,65535
2551,65535
2550,65535
2563,7557
2321,4213
2322,4182
2383,4194
2384,4905
2446,4948
2445,4956
2503,4975
2385,4939
2504,7678
2505,7700
2557,7724
2558,7749
2559,7773
2560,7737
2564,7513
2562,7625
2561,7665
2605,7680
2609,5264
2565,5209
2566,5194
2515,5139
2397,3559
2457,5120
2458,5104
2401,3731
2337,3472
2336,3476
2399,3518
2398,3539
2402,3765
2333,3696
2273,3731
2219,3755
2218,3767
2159,3792
2454,5824
2393,5790
2512,7524
2502,8309
2608,7943
2156,3914
2155,3946
2154,3975
2213,3991
2212,4003
2211,4051
2210,4092
2264,4099
2324,4133
2323,4149
2030,65535
2094,65535
2157,3878
2450,7921
2388,7970
2387,8038
2326,8075
2266,4280
2265,4235
2508,7892
2396,3628
2335,3646
2334,3657
2158,3817
2279,7345
2278,7309
2222,7278
2221,7260
2276,7242
2275,2844
2261,5727
2207,6585
2149,6644
2554,5027
2599,5057
2633,5095
2664,5130
2689,5167
2690,5193
2691,5209
2692,5233
2152,6338
2089,7046
2088,6384
2025,7179
2603,65535
2602,65535
2556,65535
2693,7172
2671,8955
2670,8935
2694,8894
2553,65535
2665,65535
2705,65535
2710,65535
2668,65535
2639,65535
2463,6586
2521,6622
2572,6645
2451,7806
2390,7775
2391,7595
2392,6232
2215,7800
2268,65535
2093,65535
2092,65535
2028,65535
2024,6414
2150,4452
2086,4482
2209,4439
2023,5553
2087,5506
2148,8599
2262,5712
2327,65535
1560,534
1630,570
1631,548
1559,568
1629,658
1558,653
1634,541
1633,519
1482,502
1481,518
1699,553
1700,551
1701,581
1563,547
2070,1318
2008,1254
2009,1254
1959,1236
1958,1230
2006,1222
1957,1218
1956,910
2193,1427
2132,1367
1912,1274
1911,1242
1865,652
1866,751
2007,1275
2069,1309
2010,1315
2011,1387
1961,1273
2072,1339
1913,1211
1867,848
1962,1336
1914,1391
1915,1365
1909,1263
1636,550
1635,559
1564,572
1702,592
1637,608
1638,621
1565,526
1486,505
1760,632
1704,587
1703,573
1763,619
1762,593
1817,613
1705,664
1863,1310
1815,1386
1759,627
863,1808
758,1901
808,1852
982,2023
1036,2030
1099,2065
1100,2093
1166,2494
1167,2989
1237,2646
1238,2681
1375,2751
1308,2820
1309,2729
1236,2947
1235,2581
1101,2124
1037,2061
971,1604
1025,1587
1026,1602
1027,1615
1089,1628
720,1864
674,1910
864,1690
865,1711
919,1606
1024,1551
975,1725
974,1695
1028,1650
873,2050
925,1996
924,1973
917,1670
918,1646
623,2085
712,1957
713,1990
667,1995
622,2053
809,1838
719,1838
765,1799
972,1636
868,1748
869,1760
815,1779
920,2015
973,1681
981,1974
926,2075
927,2083
928,2107
1354,1600
1288,1541
1218,1517
1152,1586
1023,1515
1353,1614
1085,1495
1148,1425
1147,1418
1082,1369
772,2136
771,2093
819,2068
584,1984
628,1951
629,1940
1033,1871
978,1826
1031,1799
1030,1753
1029,1736
1091,1713
1035,1952
1034,1895
979,1853
1526,2870
1449,2908
1378,2936
1448,2859
1524,2837
1038,2108
1447,2900
1768,775
1710,720
1767,771
391,729
365,715
339,666
400,642
393,808
392,773
396,709
399,687
443,807
449,843
450,818
419,840
414,810
415,723
387,761
388,743
389,734
282,685
281,593
314,632
313,664
405,535
411,1714
442,1673
255,640
376,553
373,592
278,626
275,688
248,735
335,832
334,816
306,775
307,764
176,787
225,674
320,604
249,796
287,610
285,657
776,557
731,575
315,577
316,588
204,721
440,373
439,421
166,1905
269,1822
383,1760
1247,4390
1246,4412
1384,4496
1679,4658
1178,4383
1105,3049
1172,3068
1173,3118
1242,3120
1241,3112
1314,3269
1313,3175
1171,3094
1382,3375
1243,3317
1317,3456
1107,3057
1108,3236
1109,3521
1041,3066
1043,3276
1042,3267
1044,3330
1176,4284
1174,3343
1177,4332
1110,4339
985,3112
986,3155
932,3173
774,604
730,581
825,612
728,639
729,620
727,721
682,636
684,587
685,598
732,578
683,687
2134,1443
2194,1462
2068,1323
2129,1383
1905,767
1907,802
1906,773
1953,1265
2002,1288
2064,1297
2125,1310
2137,1601
2196,1555
2195,1502
1859,714
1810,720
1755,668
2131,1362
2192,1402
1862,1299
1861,901
1812,670
1860,892
1809,773
1756,630
1869,1288
1822,813
1821,823
1916,1327
1819,721
1764,685
1820,856
1698,567
1757,615
1566,605
1567,590
1488,564
1489,564
1412,535
1413,531
1414,517
1818,793
1568,697
1410,490
2128,1391
2189,1463
2066,1378
2065,1320
2067,1380
1643,638
1571,582
1491,530
2004,1376
2003,1328
1697,583
2135,1594
2075,1618
1642,597
1955,842
2130,1480
2005,1282
1858,734
1816,8488
1864,8481
1766,765
1910,1286
1868,1279
2188,1675
2127,1644
1903,1278
2001,1318
2063,1831
2062,1593
1813,705
1758,617
1639,638
1640,660
1952,1330
2126,8570
1569,633
1965,1506
1966,1552
2014,1569
1490,544
1917,1338
1870,908
1871,922
1570,604
1707,673
2076,1636
2013,1574
1964,1352
1487,498
1908,1249
2251,3681
2199,3625
2198,3488
2136,1643
1641,694
1954,1306
1765,888
1857,746
2187,1996
1904,1282
1856,1257
1951,1343
1708,1323
245,8799
244,8782
357,8786
246,8914
247,8943
197,9037
223,9015
44,9379
43,9439
3,9575
23,9549
22,9538
63,9321
85,9263
84,9218
108,8718
149,8672
172,9063
296,8766
294,8814
355,8914
354,8946
326,9024
295,8923
291,8935
293,9057
260,8943
356,8974
441,8574
412,8597
329,8932
300,8876
148,8646
214,8884
146,8767
110,8848
262,8909
258,9322
292,9085
257,9387
235,8907
187,8807
212,8863
211,8890
186,8811
162,8785
161,8864
165,8763
189,8963
238,9044
237,9009
263,8945
265,8964
266,8942
267,8930
268,8770
26,9539
25,9507
105,65535
62,65535
83,65535
126,8885
175,9320
152,9254
151,9244
150,9203
103,8823
242,8716
191,8670
192,8721
217,8744
218,8797
145,8707
144,8791
167,8699
190,8677
219,8814
159,8911
185,8855
158,8968
188,8799
160,8876
143,65535
122,65535
75,65535
54,65535
198,9448
270,8811
221,8852
301,8909
302,8746
330,8773
331,8795
115,8847
133,8906
139,8803
134,8880
114,9404
48,65535
69,65535
92,9080
164,8873
4,65535
107,9225
129,9310
109,8750
125,8791
124,8765
127,65535
82,65535
67,65535
91,9248
93,9047
137,9182
113,9202
112,9160
136,65535
49,65535
72,65535
71,65535
406,589
805,7090
858,6895
859,7036
967,1074
1142,1209
1080,6735
1022,6776
1079,6768
968,6891
1206,1166
915,7042
916,7077
914,7014
807,7129
911,8236
1078,6992
1207,1224
1278,1268
1277,1271
1344,1291
1415,1332
1492,1387
1345,1348
1346,1318
1208,1216
1209,1296
1143,1333
1144,1349
1145,1364
1417,1344
1493,1404
1494,1423
1572,1438
1081,7061
970,7264
408,564
382,599
437,430
467,410
409,581
403,594
432,575
433,553
404,551
352,581
351,575
349,604
317,645
374,590
346,609
283,658
410,457
438,438
465,434
490,430
491,382
435,516
436,518
379,634
323,691
289,658
377,590
378,600
592,665
593,705
552,618
445,676
424,734
423,1336
416,1410
361,813
362,789
371,627
372,609
343,598
344,578
286,651
227,658
252,654
284,644
318,628
250,736
312,648
340,634
368,673
369,761
370,706
341,682
367,656
308,731
276,706
277,688
280,678
310,642
338,689
366,1380
274,1370
305,1572
420,1359
363,794
418,800
550,7081
579,7104
576,7049
577,7061
578,7077
520,7057
618,7071
662,7101
619,7088
620,7101
621,7095
665,7077
666,7069
664,7097
580,7116
2260,65535
2257,65535
2206,65535
2146,65535
2314,65535
2313,65535
2312,65535
2373,65535
2256,65535
2205,65535
2434,65535
2435,65535
2375,65535
2376,65535
2433,65535
2491,65535
2490,65535
2492,65535
2546,65535
2597,65535
2596,65535
2544,65535
2145,65535
2082,65535
2020,65535
2494,65535
0,65535
11,65535
1052,2068
1053,2055
941,2095
1740,1932
1796,1973
1615,1759
1681,1876
1545,1628
1797,1973
1544,1654
1741,1880
1795,2170
1617,1719
1546,1685
1616,1678
1683,1721
1467,1593
1547,1658
1465,1677
1387,1659
1388,1641
1464,1724
1462,2059
1461,2080
1542,2144
1463,2023
1682,1846
1543,1713
1618,1788
1742,2080
1460,2246
1248,1776
1850,1247
1801,1218
1803,946
882,559
881,569
938,618
883,579
940,2838
1998,1370
1902,1341
1807,1217
1691,838
1694,1453
1693,1312
1749,858
1752,1246
1753,969
1627,1026
1628,1401
1557,966
1479,576
1402,563
1808,883
1946,1435
1947,1380
1948,1342
1997,1382
1855,1233
1690,806
2060,1557
1949,1439
1950,1361
1751,1209
1692,869
1999,1366
1901,1305
1900,1246
1852,1218
1853,1180
1805,900
1750,887
1854,1333
1806,1251
1748,919
2061,1552
2000,1393
1804,1211
1899,1267
2884,65535
2892,65535
2883,65535
2876,65535
2874,65535
2882,65535
2877,65535
2911,65535
2905,65535
2906,65535
2896,65535
2887,65535
2881,65535
2880,65535
2888,65535
2902,65535
2903,65535
2907,65535
2912,65535
2895,65535
2894,65535
2875,65535
2885,65535
2893,65535
2904,65535
2865,65535
2866,65535
2909,65535
2913,65535
2886,65535
2878,65535
2869,65535
2871,65535
2872,65535
2879,65535
2870,65535
1330,575
1331,560
1401,571
1262,597
1263,589
1478,599
1403,530
1261,606
1480,544
1264,586
1390,1573
1389,1632
1319,1610
1251,1665
1250,1741
1285,1442
1284,1446
1214,1418
1146,1384
1505,1667
1504,1601
1582,1639
1581,1567
1713,1546
1771,1528
1654,1678
1653,1651
1651,1603
2096,2782
2033,2742
1972,2713
1923,2645
1922,2623
1874,2317
1873,2030
1919,1983
1829,2994
1579,1503
1424,1495
1711,1520
1348,1344
1419,1364
1359,1771
1429,1722
1428,1708
1421,1421
1577,1455
1499,1428
1230,2015
1365,1952
1511,1874
1300,1997
1366,1969
1512,1902
1716,1736
1503,2013
1276,1298
1347,1328
1349,1376
1645,1512
1578,1490
1770,1524
1715,1579
1150,1483
1217,1497
1149,1459
1580,1529
1352,1536
1502,1518
1825,1936
1718,1891
1717,1865
1872,1969
1656,1780
1648,1555
1712,1532
1213,1408
1212,1389
1084,1430
1420,1410
1281,1334
1282,1395
1587,1774
1586,1741
1585,1730
1652,1698
1427,1876
1975,2817
1977,2885
1932,2955
1931,3580
1426,1596
1422,1438
1425,1581
1583,1667
1501,1525
1283,1436
1286,1483
1215,1468
1211,1365
1210,1339
1083,1401
1655,1769
2220,2823
1355,5891
1772,1537
1436,1920
1435,1910
1589,1843
1163,2048
1735,3168
1791,3101
1841,3078
1840,3034
1219,1600
1220,1639
1647,1541
1646,1533
1279,1286
1714,1556
1575,1515
1576,1477
1498,1485
1573,1527
1496,1545
1497,1516
2177,2965
2176,3035
2294,2952
2293,3071
2237,3012
2236,3041
2364,2813
2302,2753
2301,2675
2245,2577
2056,2707
2057,2793
2055,2686
2184,2738
2120,2744
2244,2658
2538,2998
2537,2979
2591,3095
1940,2870
1989,2878
1990,2814
2539,2998
2482,2989
2483,2951
2424,2847
2121,2805
2119,2618
2050,2927
2049,3005
2048,3423
2185,2771
2243,2497
2299,2711
2241,2660
2485,3029
2542,3084
2353,3043
2292,2950
2419,2837
2478,2884
2479,2919
2536,2946
2484,2990
2486,2983
2354,2882
2416,3059
2242,2705
2355,2920
2300,2718
1991,2818
1992,2825
2477,2875
2534,2896
2535,3011
2588,2916
2587,2930
2630,2981
2051,2739
2116,2633
2175,3068
2586,65535
2541,3151
2178,2940
2179,2743
2240,2690
2239,2914
2238,2984
2052,2870
2053,2836
1987,3110
1988,2958
1939,2982
2594,3101
2593,3086
2358,2804
2357,2814
2420,2870
2247,2866
2427,2956
2428,2978
2181,2537
2180,2586
2417,2864
2590,3076
2297,2699
2361,2891
2362,2774
2423,2862
2422,2827
2174,3298
2356,2925
1941,2859
2365,2990
2112,3303
2047,3445
2182,2676
2359,2753
2533,3691
2295,3016
2115,2706
2632,3136
2631,3075
2186,2923
2298,2785
2360,2809
2235,3261
2291,3274
2487,3205
2246,2798
2425,3606
2117,2930
2543,3158
1893,65535
2421,2962
2476,2880
2592,3134
604,7066
