middle_point_id,reach_time_minutes
2835,65535
2836,65535
2806,65535
2822,65535
2823,65535
2807,65535
2846,65535
887,144
888,149
1326,340
1185,309
999,290
1057,437
1552,885
1120,298
1473,906
944,438
832,136
1257,316
1396,823
1622,955
1327,424
1184,302
1183,309
1324,505
1255,924
1394,792
1252,1094
1253,1120
1182,1125
1328,65535
1470,883
1321,1074
1322,1015
1323,965
1391,1087
1551,879
1393,856
1472,870
1471,847
1181,1454
1118,1139
1059,248
1121,266
1469,901
1468,1141
1548,923
1325,445
1625,951
1623,892
1258,337
1256,374
791,254
891,251
703,289
704,294
660,301
1553,888
1624,909
1554,894
1474,904
1475,901
1550,869
1549,932
1320,1086
1466,1123
1541,1720
1318,1199
1249,1221
1186,296
1003,246
1002,241
741,203
788,226
434,338
697,291
752,315
1056,312
1006,285
907,451
518,331
1011,423
1000,274
1055,1622
997,1591
994,1485
996,1557
995,1541
991,1332
1112,3965
1114,1572
1051,1535
1398,972
1395,855
1001,249
1811,908
1960,1063
1769,1184
1823,1193
1329,65535
1332,787
1259,1736
1200,510
1199,508
1140,543
1141,772
783,140
1689,924
1802,1100
1945,1436
2183,1918
2418,2367
1994,1472
1995,1868
2059,1297
1621,65535
1555,967
1754,1064
1180,1170
1106,2565
933,2726
827,33
2122,2333
2124,1136
493,342
519,335
544,327
545,329
494,340
470,362
543,324
469,387
517,357
574,330
573,312
495,359
546,334
613,292
612,303
492,350
572,319
571,337
570,337
610,344
575,387
547,378
516,368
611,321
542,355
569,315
609,279
548,410
549,439
1404,486
1405,460
1266,435
1193,478
743,221
742,212
747,264
746,279
745,284
744,236
790,250
789,235
839,254
838,234
738,144
739,170
740,189
890,227
834,163
784,163
889,196
856,552
855,493
854,495
853,459
852,438
910,485
909,473
908,458
964,462
965,466
1020,863
966,490
963,449
1021,535
1271,511
1270,511
1339,518
1338,730
1071,438
1072,432
1135,479
1408,741
1337,613
1269,548
1268,604
1136,769
1075,778
1077,534
1076,496
1019,492
1018,466
1074,759
1137,804
1272,723
1274,817
1275,890
1205,877
1204,899
1273,753
1198,569
1197,400
1341,780
1134,424
1133,403
1069,394
1132,374
1073,470
1203,839
1202,825
1201,766
1139,822
1267,420
1138,832
1340,830
1196,383
1342,796
1409,896
1485,792
1407,823
1561,777
1632,804
1484,821
1483,735
1562,767
1194,371
1130,360
1195,387
1335,452
1129,355
1066,352
1128,321
1067,409
1131,367
1334,476
1336,434
1265,814
1333,759
1406,466
857,1788
803,3082
804,6559
860,6567
969,6520
913,6507
912,6445
861,6577
806,6620
659,291
751,304
658,284
705,298
702,280
706,303
753,327
614,296
701,269
661,313
616,308
848,361
796,314
797,334
798,341
750,304
707,333
615,341
748,301
845,363
846,326
657,346
749,314
795,315
617,351
663,356
794,344
847,344
849,390
902,368
901,384
900,411
793,282
899,352
898,310
897,295
844,353
842,273
841,263
956,448
792,260
843,319
840,298
850,414
903,353
800,386
755,413
756,430
710,491
711,1018
962,383
961,377
904,360
906,443
851,447
802,433
801,397
799,363
959,392
1014,409
1013,434
708,432
709,460
754,367
757,442
1017,791
1016,475
960,367
905,396
958,396
957,427
1070,428
1015,392
1012,415
1068,403
1005,295
1004,260
1060,252
1063,288
1065,311
1127,317
1062,310
1124,282
1123,269
1125,302
1188,300
1122,278
1058,256
947,233
946,188
949,267
945,183
948,265
1190,356
1187,314
951,281
895,280
952,307
1009,359
1008,338
1010,429
1007,290
1061,331
954,343
896,275
953,352
1126,320
1064,292
1189,334
955,720
950,267
892,234
786,214
836,229
837,230
787,219
700,286
655,351
654,346
653,284
698,295
699,295
608,254
696,231
656,348
833,140
785,178
835,209
693,150
894,284
893,245
1343,813
1192,914
1191,875
828,42
829,59
780,90
830,77
779,61
782,131
529,232
886,153
596,169
556,186
598,160
597,139
526,218
555,209
525,239
524,255
523,288
688,142
607,238
650,210
651,215
652,246
737,130
694,183
695,195
645,167
646,163
690,144
600,171
599,179
781,110
736,121
558,206
644,169
643,163
648,176
692,157
691,144
513,318
541,403
540,383
568,894
530,237
831,144
559,229
560,225
642,124
557,210
496,326
471,364
444,432
446,396
528,229
527,235
562,220
602,193
734,135
466,821
464,406
463,895
478,379
481,325
480,288
479,355
647,188
488,821
502,248
689,148
533,240
532,251
531,260
601,199
484,300
508,250
510,289
509,261
534,227
482,777
506,920
606,251
455,896
429,850
456,996
457,886
428,902
458,792
554,272
594,144
640,87
639,109
551,242
681,125
636,146
635,164
590,194
778,29
777,24
485,326
486,430
462,793
563,265
885,118
943,851
564,293
641,81
504,250
503,244
501,281
500,337
561,214
254,960
350,876
321,899
319,907
251,975
375,636
347,871
687,169
565,337
539,435
511,441
536,358
649,253
603,370
605,1406
733,147
735,137
489,861
514,370
461,858
460,834
459,812
468,402
154,1105
178,1086
203,1063
228,1027
402,571
401,863
505,265
522,253
451,972
452,923
477,810
476,868
483,853
884,94
431,406
430,864
454,863
595,217
395,997
394,954
422,990
417,869
390,882
538,873
567,258
426,959
397,1003
398,970
499,1053
475,994
497,332
498,349
311,974
342,976
345,921
421,1007
515,413
472,936
448,967
473,992
474,1037
353,919
381,899
256,1041
290,991
324,929
380,946
407,874
253,1021
226,1048
201,1074
177,1111
824,56
775,27
826,25
939,67
936,1318
937,133
880,85
566,876
2821,65535
2834,65535
2833,65535
2789,65535
2790,65535
2770,65535
2788,65535
2776,65535
2795,65535
2775,65535
2794,65535
2825,65535
2824,65535
2826,65535
2811,65535
2812,65535
2796,65535
2827,65535
2858,65535
2855,65535
2849,65535
2838,65535
2814,65535
2813,65535
2828,65535
2839,65535
2791,65535
2792,65535
2803,65535
2830,65535
2815,65535
2819,65535
2818,65535
2817,65535
2831,65535
2810,65535
2829,65535
2783,65535
2820,65535
2804,65535
2785,65535
2784,65535
2762,65535
2768,65535
2751,65535
2750,65535
2733,65535
2769,65535
2720,65535
2761,65535
2741,65535
2837,65535
2793,65535
2808,65535
2753,65535
2736,65535
2735,65535
2809,65535
2772,65535
2845,65535
2844,65535
2848,65535
2777,65535
2778,65535
2779,65535
2759,65535
2780,65535
2797,65535
2843,65535
2832,65535
2842,65535
2758,65535
2738,65535
2774,65535
2773,65535
2771,65535
2851,65535
2847,65535
2854,65535
2721,65535
2756,65535
2737,65535
2840,65535
2752,65535
2754,65535
2755,65535
2852,65535
2853,65535
2856,65535
2841,65535
2742,65535
2727,65535
2744,65535
2726,65535
2743,65535
2725,65535
2746,65535
2787,65535
2766,65535
2763,65535
2765,65535
2745,65535
2764,65535
2552,65535
2501,65535
2443,65535
2442,65535
2320,65535
2381,65535
2382,65535
2498,65535
2499,65535
2438,65535
2439,65535
2497,65535
2441,65535
2379,65535
2380,65535
2319,65535
2551,65535
2550,65535
2563,7077
2321,6613
2322,6582
2383,6594
2384,6800
2446,6842
2445,6849
2503,6868
2385,6833
2504,7198
2505,7220
2557,7244
2558,7269
2559,7293
2560,7257
2564,7425
2562,7145
2561,7185
2605,7200
2609,7472
2565,7548
2566,7564
2515,7575
2397,5959
2457,7605
2458,7627
2401,6036
2337,5872
2336,5876
2399,5918
2398,5939
2402,6096
2333,6096
2273,6131
2219,6155
2218,6167
2159,6192
2454,6784
2393,6750
2512,7044
2502,7036
2608,7463
2156,6314
2155,6346
2154,6375
2213,6391
2212,6403
2211,6451
2210,6492
2264,6499
2324,6533
2323,6549
2030,65535
2094,65535
2157,6278
2450,7441
2388,7490
2387,7558
2326,7595
2266,7630
2265,6974
2508,7412
2396,6028
2335,6046
2334,6057
2158,6217
2279,8186
2278,8150
2222,8119
2221,8101
2276,8083
2275,3999
2261,6806
2207,6843
2149,65535
2554,6926
2599,6958
2633,7004
2664,8691
2689,8749
2690,8855
2691,8893
2692,8926
2152,6487
2089,6566
2088,6554
2025,6699
2603,65535
2602,65535
2556,65535
2693,65535
2671,65535
2670,65535
2694,65535
2553,65535
2665,65535
2705,65535
2710,65535
2668,65535
2639,65535
2463,6106
2521,6142
2572,6165
2451,7326
2390,7295
2391,7115
2392,7078
2215,7320
2268,65535
2093,65535
2092,65535
2028,65535
2024,8377
2150,7803
2086,7851
2209,7785
2023,7953
2087,7906
2148,8119
2262,6792
2327,65535
1560,785
1630,841
1631,812
1559,848
1629,971
1558,873
1634,899
1633,802
1482,808
1481,823
1699,819
1700,846
1701,874
1563,867
2070,1078
2008,1074
2009,1074
1959,1054
1958,1112
2006,1151
1957,1146
1956,1126
2193,1267
2132,1209
1912,1092
1911,1045
1865,1087
1866,1179
2007,1147
2069,1182
2010,1091
2011,1140
1961,1106
2072,1129
1913,1179
1867,1230
1962,1140
1914,1166
1915,1282
1909,1214
1636,904
1635,917
1564,906
1702,891
1637,941
1638,1042
1565,916
1486,906
1760,958
1704,955
1703,942
1763,1035
1762,1009
1817,1047
1705,1081
1863,1039
1815,1006
1759,887
863,2768
758,2861
808,2812
982,2983
1036,2990
1099,3025
1100,3053
1166,3454
1167,3949
1237,3606
1238,3641
1375,3711
1308,3780
1309,3689
1236,3907
1235,3541
1101,3084
1037,3021
971,2564
1025,2547
1026,2562
1027,2575
1089,2588
720,2824
674,2870
864,2650
865,2671
919,2566
1024,2511
975,2685
974,2655
1028,2610
873,3010
925,2956
924,2933
917,2630
918,2606
623,3045
712,2917
713,2950
667,2955
622,3013
809,2798
719,2798
765,2759
972,2596
868,2708
869,2720
815,2739
920,2854
973,2641
981,2934
926,3035
927,3043
928,3067
1354,2517
1288,2501
1218,2477
1152,2546
1023,2475
1353,2501
1085,2455
1148,2385
1147,2378
1082,2329
772,3096
771,3053
819,3028
584,2944
628,2911
629,2900
1033,2831
978,2786
1031,2759
1030,2713
1029,2696
1091,2673
1035,2912
1034,2855
979,2813
1526,3830
1449,3868
1378,3896
1448,3819
1524,3797
1038,3068
1447,3860
1768,1190
1710,1148
1767,1163
391,841
365,900
339,942
400,924
393,928
392,894
396,1015
399,941
443,991
449,959
450,1028
419,879
414,1032
415,939
387,932
388,925
389,904
282,1020
281,1040
314,1112
313,1100
405,350
411,1234
442,1193
255,970
376,874
373,893
278,985
275,1054
248,1102
335,1006
334,978
306,1067
307,1094
176,1096
225,1034
320,903
249,1092
287,937
285,956
776,20
731,13
315,1009
316,990
204,1104
440,373
439,788
166,1425
269,1342
383,1280
1247,3910
1246,3932
1384,4016
1679,4178
1178,3903
1105,2569
1172,2588
1173,2638
1242,2640
1241,2632
1314,2789
1313,2695
1171,2614
1382,2895
1243,2837
1317,2976
1107,2577
1108,2756
1109,3041
1041,2586
1043,2796
1042,2787
1044,2850
1176,3804
1174,2863
1177,3852
1110,3859
985,2632
986,2675
932,2693
774,50
730,18
825,72
728,83
729,41
727,98
682,101
684,78
685,28
732,0
683,82
2134,1368
2194,1391
2068,1213
2129,1267
1905,972
1907,1012
1906,970
1953,992
2002,1011
2064,1035
2125,1110
2137,1827
2196,1498
2195,1444
1859,955
1810,960
1755,909
2131,1264
2192,1300
1862,1176
1861,1020
1812,993
1860,1037
1809,1102
1756,873
1869,1236
1822,1204
1821,1221
1916,1275
1819,1096
1764,1068
1820,1195
1698,826
1757,860
1566,936
1567,922
1488,908
1489,904
1412,825
1413,831
1414,859
1818,1138
1568,1074
1410,889
2128,1301
2189,1329
2066,1286
2065,1325
2067,1264
1643,1108
1571,1058
1491,964
2004,1296
2003,1065
1697,855
2135,1583
2075,1445
1642,1084
1955,1050
2130,1351
2005,1248
1858,974
1816,8008
1864,8001
1766,1157
1910,1286
1868,1227
2188,1411
2127,1380
1903,1285
2001,1099
2063,1351
2062,1364
1813,996
1758,907
1639,1048
1640,1042
1952,1044
2126,8090
1569,1028
1965,1302
1966,1348
2014,1368
1490,980
1917,1261
1870,1250
1871,1264
1570,999
1707,1098
2076,1435
2013,1400
1964,1354
1487,936
1908,1222
2251,3201
2199,3145
2198,3008
2136,1585
1641,1105
1954,1303
1765,1176
1857,1133
2187,1516
1904,1357
1856,1245
1951,1061
1708,1308
245,8319
244,8302
357,8306
246,8434
247,8463
197,8557
223,8535
44,8899
43,8959
3,9095
23,9069
22,9058
63,8841
85,8783
84,8738
108,8238
149,8192
172,8583
296,8286
294,8334
355,8434
354,8466
326,8544
295,8443
291,8455
293,8577
260,8463
356,8494
441,8094
412,8117
329,8452
300,8396
148,8166
214,8404
146,8287
110,8368
262,8429
258,8842
292,8605
257,8907
235,8427
187,8327
212,8383
211,8410
186,8331
162,8305
161,8384
165,8283
189,8483
238,8564
237,8529
263,8465
265,8484
266,8462
267,8450
268,8290
26,9059
25,9027
105,65535
62,65535
83,65535
126,8405
175,8840
152,8774
151,8764
150,8723
103,8343
242,8236
191,8190
192,8241
217,8264
218,8317
145,8227
144,8311
167,8219
190,8197
219,8334
159,8431
185,8375
158,8488
188,8319
160,8396
143,65535
122,65535
75,65535
54,65535
198,8968
270,8331
221,8372
301,8429
302,8266
330,8293
331,8315
115,8367
133,8426
139,8323
134,8400
114,8924
48,65535
69,65535
92,8600
164,8393
4,65535
107,8745
129,8830
109,8270
125,8311
124,8285
127,65535
82,65535
67,65535
91,8768
93,8567
137,8702
113,8722
112,8680
136,65535
49,65535
72,65535
71,65535
406,945
805,6610
858,6415
859,6556
967,2034
1142,2169
1080,6255
1022,6296
1079,6288
968,6411
1206,2126
915,6562
916,6597
914,6534
807,6649
911,7756
1078,6512
1207,2184
1278,2228
1277,2231
1344,2251
1415,2292
1492,2347
1345,2308
1346,2278
1208,2176
1209,2256
1143,2293
1144,2309
1145,2324
1417,2304
1493,2364
1494,2383
1572,2398
1081,6581
970,6784
408,893
382,921
437,463
467,831
409,874
403,829
432,873
433,854
404,843
352,946
351,925
349,886
317,1122
374,863
346,954
283,992
410,807
438,824
465,429
490,512
491,817
435,876
436,872
379,996
323,1067
289,1097
377,849
378,436
592,238
593,208
552,291
445,830
424,1154
423,1015
416,930
361,928
362,911
371,1051
372,1023
343,945
344,936
286,1323
227,1021
252,1014
284,967
318,949
250,1196
312,980
340,1022
368,1061
369,1133
370,1242
341,1081
367,1072
308,1296
276,1034
277,1015
280,1008
310,965
338,919
366,987
274,1116
305,1092
420,944
363,911
418,853
550,6601
579,6624
576,6569
577,6581
578,6597
520,6577
618,6591
662,6621
619,6608
620,6621
621,6615
665,6597
666,6589
664,6617
580,6636
2260,65535
2257,65535
2206,65535
2146,65535
2314,65535
2313,65535
2312,65535
2373,65535
2256,65535
2205,65535
2434,65535
2435,65535
2375,65535
2376,65535
2433,65535
2491,65535
2490,65535
2492,65535
2546,65535
2597,65535
2596,65535
2544,65535
2145,65535
2082,65535
2020,65535
2494,65535
0,65535
11,65535
1052,1588
1053,1575
941,1615
1740,1452
1796,1493
1615,1279
1681,1396
1545,1148
1797,1493
1544,1174
1741,1400
1795,1690
1617,1239
1546,1205
1616,1198
1683,1241
1467,1113
1547,1178
1465,1197
1387,1179
1388,1161
1464,1244
1462,1579
1461,1600
1542,1664
1463,1543
1682,1366
1543,1233
1618,1308
1742,1600
1460,1766
1248,1296
1850,1132
1801,1118
1803,1066
882,79
881,53
938,78
883,99
940,2358
1998,1276
1902,1171
1807,1089
1691,899
1694,973
1693,1012
1749,978
1752,951
1753,1004
1627,950
1628,921
1557,899
1479,793
1402,784
1808,1075
1946,1195
1947,1226
1948,1268
1997,1272
1855,1182
1690,900
2060,1375
1949,1407
1950,1262
1751,921
1692,939
1999,1289
1901,1415
1900,1456
1852,1605
1853,1484
1805,934
1750,906
1854,1250
1806,992
1748,960
2061,1416
2000,1414
1804,1306
1899,1625
2884,65535
2892,65535
2883,65535
2876,65535
2874,65535
2882,65535
2877,65535
2911,65535
2905,65535
2906,65535
2896,65535
2887,65535
2881,65535
2880,65535
2888,65535
2902,65535
2903,65535
2907,65535
2912,65535
2895,65535
2894,65535
2875,65535
2885,65535
2893,65535
2904,65535
2865,65535
2866,65535
2909,65535
2913,65535
2886,65535
2878,65535
2869,65535
2871,65535
2872,65535
2879,65535
2870,65535
1330,886
1331,800
1401,796
1262,805
1263,801
1478,837
1403,762
1261,814
1480,782
1264,831
1390,1093
1389,1152
1319,1130
1251,1185
1250,1261
1285,2420
1284,2406
1214,2378
1146,2342
1505,2627
1504,2561
1582,2599
1581,2527
1713,2506
1771,2488
1654,2638
1653,2611
1651,2563
2096,3742
2033,3702
1972,3673
1923,3605
1922,3583
1874,3277
1873,2990
1919,2943
1829,5654
1579,2463
1424,2467
1711,2480
1348,2304
1419,2324
1359,2731
1429,2682
1428,2668
1421,2381
1577,2415
1499,2388
1230,2975
1365,2912
1511,2834
1300,2957
1366,2929
1512,2862
1716,2696
1503,2749
1276,2258
1347,2288
1349,2336
1645,2472
1578,2450
1770,2484
1715,2539
1150,2443
1217,2457
1149,2419
1580,2509
1352,2496
1502,2527
1825,2896
1718,2851
1717,2825
1872,2929
1656,2740
1648,2515
1712,2492
1213,2368
1212,2349
1084,2390
1420,2370
1281,2294
1282,2355
1587,2734
1586,2701
1585,2690
1652,2658
1427,2836
1975,3777
1977,3845
1932,3915
1931,4540
1426,2556
1422,2398
1425,2541
1583,2627
1501,2485
1283,2396
1286,2443
1215,2428
1211,2325
1210,2299
1083,2361
1655,2729
2220,3977
1355,5411
1772,2497
1436,2880
1435,2870
1589,2803
1163,3008
1735,4128
1791,4061
1841,4038
1840,3994
1219,2560
1220,2599
1647,2501
1646,2493
1279,2246
1714,2516
1575,2475
1576,2437
1498,2445
1573,2487
1496,2505
1497,2476
2177,2485
2176,2555
2294,2472
2293,2591
2237,2532
2236,2561
2364,2333
2302,2273
2301,2195
2245,2097
2056,2227
2057,2313
2055,2206
2184,2258
2120,2264
2244,2178
2538,2518
2537,2499
2591,2615
1940,2390
1989,2398
1990,2334
2539,2518
2482,2509
2483,2471
2424,2367
2121,2325
2119,2138
2050,2447
2049,2525
2048,2943
2185,2291
2243,2017
2299,2231
2241,2180
2485,2549
2542,2604
2353,2563
2292,2470
2419,2357
2478,2404
2479,2439
2536,2466
2484,2510
2486,2503
2354,2402
2416,2579
2242,2225
2355,2440
2300,2238
1991,2338
1992,2345
2477,2395
2534,2416
2535,2531
2588,2436
2587,2450
2630,2501
2051,2259
2116,2153
2175,2588
2586,65535
2541,2671
2178,2460
2179,2263
2240,2210
2239,2434
2238,2504
2052,2390
2053,2356
1987,2630
1988,2478
1939,2502
2594,2621
2593,2606
2358,2324
2357,2334
2420,2390
2247,2386
2427,2476
2428,2498
2181,2057
2180,2106
2417,2384
2590,2596
2297,2219
2361,2411
2362,2294
2423,2382
2422,2347
2174,2818
2356,2445
1941,2379
2365,2510
2112,2823
2047,2965
2182,2196
2359,2273
2533,3211
2295,2536
2115,2226
2632,2656
2631,2595
2186,2443
2298,2305
2360,2329
2235,2781
2291,2794
2487,2725
2246,2318
2425,3126
2117,2450
2543,2678
1893,65535
2421,2482
2476,2400
2592,2654
604,6586
