middle_point_id,reach_time_minutes
2835,65535
2836,65535
2806,65535
2822,65535
2823,65535
2807,65535
2846,65535
887,441
888,444
1326,781
1185,488
999,600
1057,590
1552,789
1120,478
1473,819
944,463
832,419
1257,496
1396,823
1622,895
1327,904
1184,490
1183,812
1324,874
1255,924
1394,945
1252,1187
1253,1156
1182,1141
1328,65535
1470,1020
1321,1194
1322,1135
1323,1085
1391,1207
1551,798
1393,1060
1472,804
1471,949
1181,1454
1118,1199
1059,428
1121,441
1469,1081
1468,1300
1548,1065
1325,835
1625,611
1623,777
1258,570
1256,851
791,319
891,374
703,279
704,277
660,283
1553,807
1624,733
1554,894
1474,820
1475,901
1550,916
1549,1014
1320,1252
1466,1304
1541,1720
1318,1366
1249,1389
1186,481
1003,437
1002,423
741,403
788,355
434,908
697,378
752,272
1056,612
1006,396
907,132
518,352
1011,329
1000,454
1055,1622
997,1591
994,1485
996,1557
995,1541
991,1332
1112,3965
1114,1572
1051,1535
1398,972
1395,855
1001,428
1811,842
1960,1039
1769,1031
1823,1044
1329,65535
1332,437
1259,1736
1200,298
1199,295
1140,276
1141,277
783,409
1689,868
1802,897
1945,1436
2183,1918
2418,2367
1994,1472
1995,1868
2059,1177
1621,65535
1555,567
1754,1001
1180,2303
1106,2565
933,2726
827,810
2122,2333
2124,1136
493,361
519,354
544,349
545,352
494,364
470,410
543,355
469,405
517,358
574,354
573,333
495,396
546,362
613,309
612,312
492,363
572,332
571,376
570,397
610,344
575,387
547,398
516,395
611,321
542,415
569,372
609,358
548,950
549,979
1404,364
1405,347
1266,338
1193,347
743,349
742,364
747,310
746,313
745,320
744,326
790,321
789,337
839,360
838,368
738,399
739,398
740,394
890,388
834,430
784,407
889,398
856,239
855,205
854,191
853,176
852,123
910,232
909,221
908,138
964,142
965,158
1020,254
966,178
963,155
1021,289
1271,300
1270,299
1339,307
1338,320
1071,255
1072,249
1135,278
1408,345
1337,374
1269,314
1268,340
1136,289
1075,214
1077,268
1076,244
1019,222
1018,195
1074,272
1137,324
1272,313
1274,376
1275,410
1205,339
1204,359
1273,347
1198,311
1197,321
1341,405
1134,293
1133,288
1069,274
1132,290
1073,236
1203,343
1202,342
1201,318
1139,282
1267,333
1138,355
1340,313
1196,311
1342,734
1409,474
1485,792
1407,394
1561,426
1632,468
1484,821
1483,381
1562,418
1194,316
1130,318
1195,312
1335,341
1129,339
1066,344
1128,431
1067,331
1131,299
1334,432
1336,374
1265,395
1333,422
1406,352
857,348
803,3082
804,6559
860,6567
969,6520
913,6507
912,6445
861,6577
806,6620
659,283
751,263
658,288
705,286
702,290
706,282
753,244
614,292
701,298
661,302
616,308
848,210
796,245
797,229
798,218
750,271
707,333
615,341
748,301
845,266
846,253
657,346
749,293
795,282
617,351
663,356
794,317
847,242
849,173
902,248
901,272
900,286
793,328
899,451
898,410
897,395
844,320
842,335
841,327
956,395
792,321
843,336
840,366
850,108
903,227
800,97
755,85
756,103
710,133
711,178
962,165
961,210
904,208
906,136
851,147
802,112
801,107
799,134
959,272
1014,278
1013,280
708,425
709,399
754,0
757,371
1017,204
1016,230
960,247
905,161
958,318
957,371
1070,261
1015,269
1012,320
1068,291
1005,421
1004,444
1060,432
1063,406
1065,407
1127,464
1062,441
1124,466
1123,451
1125,449
1188,510
1122,461
1058,432
947,406
946,429
949,430
945,448
948,392
1190,774
1187,496
951,373
895,340
952,374
1009,375
1008,401
1010,358
1007,391
1061,487
954,343
896,335
953,377
1126,449
1064,420
1189,568
955,720
950,387
892,370
786,374
836,370
837,365
787,361
700,346
655,368
654,388
653,395
698,366
699,333
608,428
696,382
656,365
833,418
785,386
835,384
693,419
894,344
893,372
1343,792
1192,761
1191,550
828,534
829,514
780,872
830,859
779,517
782,412
529,874
886,453
596,891
556,906
598,844
597,863
526,912
555,930
525,924
524,938
523,948
688,462
607,839
650,847
651,793
652,850
737,405
694,464
695,433
645,447
646,441
690,422
600,464
599,480
781,425
736,412
558,870
644,457
643,883
648,461
692,419
691,417
513,901
541,834
540,874
568,894
530,889
831,444
559,880
560,930
642,895
557,904
496,1000
471,1017
444,1120
446,1046
528,881
527,895
562,861
602,824
734,489
466,848
464,879
463,895
478,1014
481,952
480,1001
479,989
647,444
488,907
502,889
689,441
533,871
532,897
531,921
601,799
484,960
508,898
510,945
509,917
534,898
482,978
506,920
606,845
455,1210
429,995
456,1174
457,1144
428,1026
458,1014
554,1044
594,1043
640,927
639,1009
551,990
681,1054
636,1042
635,1019
590,994
778,764
777,795
485,988
486,1002
462,1031
563,876
885,836
943,851
564,893
641,921
504,904
503,897
501,918
500,957
561,918
254,1045
350,993
321,1009
319,1031
251,1070
375,995
347,1037
687,888
565,924
539,942
511,993
536,944
649,837
603,855
605,1406
733,552
735,436
489,861
514,880
461,956
460,985
459,1004
468,402
154,1179
178,1144
203,1114
228,1085
402,998
401,1115
505,925
522,982
451,1247
452,1216
477,1021
476,962
483,1066
884,893
431,964
430,974
454,1240
595,947
395,1204
394,1202
422,1338
417,1096
390,1141
538,947
567,920
426,1382
397,1138
398,1104
499,1053
475,994
497,964
498,991
311,1034
342,1103
345,1037
421,1216
515,413
472,1116
448,1141
473,1167
474,1182
353,919
381,899
256,1041
290,991
324,929
380,954
407,930
253,1143
226,1168
201,1181
177,1189
824,896
775,869
826,829
939,907
936,1318
937,973
880,900
566,1095
2821,65535
2834,65535
2833,65535
2789,65535
2790,65535
2770,65535
2788,65535
2776,65535
2795,65535
2775,65535
2794,65535
2825,65535
2824,65535
2826,65535
2811,65535
2812,65535
2796,65535
2827,65535
2858,65535
2855,65535
2849,65535
2838,65535
2814,65535
2813,65535
2828,65535
2839,65535
2791,65535
2792,65535
2803,65535
2830,65535
2815,65535
2819,65535
2818,65535
2817,65535
2831,65535
2810,65535
2829,65535
2783,65535
2820,65535
2804,65535
2785,65535
2784,65535
2762,65535
2768,65535
2751,65535
2750,65535
2733,65535
2769,65535
2720,65535
2761,65535
2741,65535
2837,65535
2793,65535
2808,65535
2753,65535
2736,65535
2735,65535
2809,65535
2772,65535
2845,65535
2844,65535
2848,65535
2777,65535
2778,65535
2779,65535
2759,65535
2780,65535
2797,65535
2843,65535
2832,65535
2842,65535
2758,65535
2738,65535
2774,65535
2773,65535
2771,65535
2851,65535
2847,65535
2854,65535
2721,65535
2756,65535
2737,65535
2840,65535
2752,65535
2754,65535
2755,65535
2852,65535
2853,65535
2856,65535
2841,65535
2742,65535
2727,65535
2744,65535
2726,65535
2743,65535
2725,65535
2746,65535
2787,65535
2766,65535
2763,65535
2765,65535
2745,65535
2764,65535
2552,65535
2501,65535
2443,65535
2442,65535
2320,65535
2381,65535
2382,65535
2498,65535
2499,65535
2438,65535
2439,65535
2497,65535
2441,65535
2379,65535
2380,65535
2319,65535
2551,65535
2550,65535
2563,7077
2321,3733
2322,3702
2383,3714
2384,4425
2446,4468
2445,4476
2503,4495
2385,4459
2504,7198
2505,7220
2557,7244
2558,7269
2559,7293
2560,7257
2564,7033
2562,7145
2561,7185
2605,7200
2609,4784
2565,4729
2566,4714
2515,4659
2397,3079
2457,4640
2458,4624
2401,3251
2337,2992
2336,2996
2399,3038
2398,3059
2402,3285
2333,3216
2273,3251
2219,3275
2218,3287
2159,3312
2454,5344
2393,5310
2512,7044
2502,7829
2608,7463
2156,3434
2155,3466
2154,3495
2213,3511
2212,3523
2211,3571
2210,3612
2264,3619
2324,3653
2323,3669
2030,65535
2094,65535
2157,3398
2450,7441
2388,7490
2387,7558
2326,7595
2266,3800
2265,3755
2508,7412
2396,3148
2335,3166
2334,3177
2158,3337
2279,6865
2278,6829
2222,6798
2221,6780
2276,6762
2275,2364
2261,5247
2207,6105
2149,6164
2554,4547
2599,4577
2633,4615
2664,4650
2689,4687
2690,4713
2691,4729
2692,4753
2152,5858
2089,6566
2088,5904
2025,6699
2603,65535
2602,65535
2556,65535
2693,6692
2671,8475
2670,8455
2694,8414
2553,65535
2665,65535
2705,65535
2710,65535
2668,65535
2639,65535
2463,6106
2521,6142
2572,6165
2451,7326
2390,7295
2391,7115
2392,5752
2215,7320
2268,65535
2093,65535
2092,65535
2028,65535
2024,5934
2150,3972
2086,4002
2209,3959
2023,5073
2087,5026
2148,8119
2262,5232
2327,65535
1560,450
1630,841
1631,777
1559,848
1629,971
1558,873
1634,866
1633,475
1482,807
1481,786
1699,757
1700,787
1701,501
1563,867
2070,1078
2008,1051
2009,1044
1959,1042
1958,1052
2006,1061
1957,1055
1956,1001
2193,1267
2132,1209
1912,1092
1911,1045
1865,1087
1866,1179
2007,1145
2069,1151
2010,1053
2011,1140
1961,1045
2072,1069
1913,1179
1867,1230
1962,1078
1914,1087
1915,1120
1909,968
1636,773
1635,835
1564,849
1702,755
1637,764
1638,814
1565,815
1486,825
1760,858
1704,785
1703,780
1763,819
1762,859
1817,904
1705,863
1863,940
1815,906
1759,867
863,1328
758,1421
808,1372
982,1543
1036,1550
1099,1585
1100,1613
1166,2014
1167,2509
1237,2166
1238,2201
1375,2271
1308,2340
1309,2249
1236,2467
1235,2101
1101,1644
1037,1581
971,1124
1025,1107
1026,1122
1027,1135
1089,1148
720,1384
674,1430
864,1210
865,1231
919,1126
1024,1071
975,1245
974,1215
1028,1170
873,1570
925,1516
924,1493
917,1190
918,1166
623,1605
712,1477
713,1510
667,1515
622,1573
809,1358
719,1358
765,1319
972,1156
868,1268
869,1280
815,1299
920,1535
973,1201
981,1494
926,1595
927,1603
928,1627
1354,1120
1288,1061
1218,1037
1152,1106
1023,1035
1353,1134
1085,1015
1148,945
1147,938
1082,889
772,1656
771,1613
819,1588
584,1504
628,1471
629,1460
1033,1391
978,1346
1031,1319
1030,1273
1029,1256
1091,1233
1035,1472
1034,1415
979,1373
1526,2390
1449,2428
1378,2456
1448,2379
1524,2357
1038,1628
1447,2420
1768,1038
1710,1016
1767,975
391,1158
365,1170
339,1148
400,1043
393,1225
392,1190
396,1177
399,1061
443,1176
449,1274
450,1279
419,1190
414,1229
415,1193
387,1232
388,1181
389,1156
282,1200
281,1194
314,1165
313,1122
405,919
411,1234
442,1193
255,1073
376,972
373,1027
278,1045
275,1108
248,1155
335,1370
334,1347
306,1280
307,1269
176,1207
225,1125
320,1008
249,1228
287,1105
285,1136
776,816
731,836
315,1181
316,1163
204,1144
440,813
439,848
166,1425
269,1342
383,1280
1247,3910
1246,3932
1384,4016
1679,4178
1178,3903
1105,2569
1172,2588
1173,2638
1242,2640
1241,2632
1314,2789
1313,2695
1171,2614
1382,2895
1243,2837
1317,2976
1107,2577
1108,2756
1109,3041
1041,2586
1043,2796
1042,2787
1044,2850
1176,3804
1174,2863
1177,3852
1110,3859
985,2632
986,2675
932,2693
774,890
730,847
825,888
728,879
729,860
727,1059
682,876
684,858
685,868
732,844
683,922
2134,1368
2194,1391
2068,1213
2129,1267
1905,927
1907,938
1906,970
1953,972
2002,1011
2064,1035
2125,1110
2137,1827
2196,1498
2195,1444
1859,859
1810,903
1755,849
2131,1264
2192,1300
1862,941
1861,895
1812,856
1860,893
1809,984
1756,832
1869,1012
1822,1007
1821,983
1916,1050
1819,889
1764,866
1820,892
1698,806
1757,818
1566,725
1567,469
1488,442
1489,777
1412,768
1413,801
1414,810
1818,910
1568,836
1410,373
2128,1301
2189,1329
2066,1286
2065,1325
2067,1264
1643,892
1571,835
1491,825
2004,1296
2003,1065
1697,855
2135,1583
2075,1445
1642,880
1955,971
2130,1351
2005,1065
1858,901
1816,8008
1864,8001
1766,968
1910,981
1868,1002
2188,1411
2127,1380
1903,1084
2001,1099
2063,1351
2062,1364
1813,933
1758,789
1639,820
1640,862
1952,1044
2126,8090
1569,866
1965,1302
1966,1348
2014,1368
1490,817
1917,1105
1870,1141
1871,1155
1570,833
1707,874
2076,1435
2013,1400
1964,1354
1487,425
1908,1057
2251,3201
2199,3145
2198,3008
2136,1585
1641,993
1954,1048
1765,936
1857,953
2187,1516
1904,1063
1856,1087
1951,1061
1708,1054
245,8319
244,8302
357,8306
246,8434
247,8463
197,8557
223,8535
44,8899
43,8959
3,9095
23,9069
22,9058
63,8841
85,8783
84,8738
108,8238
149,8192
172,8583
296,8286
294,8334
355,8434
354,8466
326,8544
295,8443
291,8455
293,8577
260,8463
356,8494
441,8094
412,8117
329,8452
300,8396
148,8166
214,8404
146,8287
110,8368
262,8429
258,8842
292,8605
257,8907
235,8427
187,8327
212,8383
211,8410
186,8331
162,8305
161,8384
165,8283
189,8483
238,8564
237,8529
263,8465
265,8484
266,8462
267,8450
268,8290
26,9059
25,9027
105,65535
62,65535
83,65535
126,8405
175,8840
152,8774
151,8764
150,8723
103,8343
242,8236
191,8190
192,8241
217,8264
218,8317
145,8227
144,8311
167,8219
190,8197
219,8334
159,8431
185,8375
158,8488
188,8319
160,8396
143,65535
122,65535
75,65535
54,65535
198,8968
270,8331
221,8372
301,8429
302,8266
330,8293
331,8315
115,8367
133,8426
139,8323
134,8400
114,8924
48,65535
69,65535
92,8600
164,8393
4,65535
107,8745
129,8830
109,8270
125,8311
124,8285
127,65535
82,65535
67,65535
91,8768
93,8567
137,8702
113,8722
112,8680
136,65535
49,65535
72,65535
71,65535
406,945
805,6610
858,6415
859,6556
967,594
1142,729
1080,6255
1022,6296
1079,6288
968,6411
1206,686
915,6562
916,6597
914,6534
807,6649
911,7756
1078,6512
1207,744
1278,788
1277,791
1344,811
1415,852
1492,907
1345,868
1346,838
1208,736
1209,816
1143,853
1144,869
1145,884
1417,864
1493,924
1494,943
1572,958
1081,6581
970,6784
408,903
382,921
437,869
467,880
409,874
403,974
432,1509
433,948
404,931
352,946
351,964
349,1063
317,1122
374,1031
346,1247
283,1172
410,866
438,883
465,869
490,859
491,817
435,902
436,894
379,996
323,1067
289,1097
377,986
378,959
592,1027
593,1065
552,972
445,1097
424,1154
423,1249
416,1129
361,1298
362,1227
371,1252
372,1209
343,1265
344,1269
286,1323
227,1247
252,1107
284,1128
318,1131
250,1196
312,1067
340,1092
368,1177
369,1205
370,1242
341,1187
367,1136
308,1296
276,1195
277,1230
280,1098
310,1075
338,1170
366,1277
274,1364
305,1413
420,1238
363,1244
418,1215
550,6601
579,6624
576,6569
577,6581
578,6597
520,6577
618,6591
662,6621
619,6608
620,6621
621,6615
665,6597
666,6589
664,6617
580,6636
2260,65535
2257,65535
2206,65535
2146,65535
2314,65535
2313,65535
2312,65535
2373,65535
2256,65535
2205,65535
2434,65535
2435,65535
2375,65535
2376,65535
2433,65535
2491,65535
2490,65535
2492,65535
2546,65535
2597,65535
2596,65535
2544,65535
2145,65535
2082,65535
2020,65535
2494,65535
0,65535
11,65535
1052,1588
1053,1575
941,1615
1740,1452
1796,1493
1615,1355
1681,1396
1545,1316
1797,1540
1544,1330
1741,1508
1795,1690
1617,1316
1546,1321
1616,1333
1683,1428
1467,1290
1547,1295
1465,1365
1387,1401
1388,1362
1464,1426
1462,1579
1461,1600
1542,1664
1463,1543
1682,1407
1543,1385
1618,1308
1742,1600
1460,1766
1248,1410
1850,902
1801,906
1803,892
882,859
881,868
938,919
883,884
940,2358
1998,1156
1902,1171
1807,1089
1691,794
1694,973
1693,832
1749,835
1752,871
1753,1004
1627,950
1628,921
1557,899
1479,443
1402,418
1808,1067
1946,1075
1947,1106
1948,1148
1997,1152
1855,1161
1690,781
2060,1375
1949,1407
1950,1235
1751,856
1692,734
1999,1221
1901,1415
1900,1456
1852,1605
1853,1484
1805,934
1750,845
1854,1250
1806,992
1748,847
2061,1416
2000,1294
1804,927
1899,1625
2884,65535
2892,65535
2883,65535
2876,65535
2874,65535
2882,65535
2877,65535
2911,65535
2905,65535
2906,65535
2896,65535
2887,65535
2881,65535
2880,65535
2888,65535
2902,65535
2903,65535
2907,65535
2912,65535
2895,65535
2894,65535
2875,65535
2885,65535
2893,65535
2904,65535
2865,65535
2866,65535
2909,65535
2913,65535
2886,65535
2878,65535
2869,65535
2871,65535
2872,65535
2879,65535
2870,65535
1330,526
1331,446
1401,437
1262,445
1263,441
1478,425
1403,409
1261,496
1480,743
1264,448
1390,1273
1389,1318
1319,1295
1251,1382
1250,1468
1285,962
1284,966
1214,938
1146,904
1505,1187
1504,1121
1582,1159
1581,1087
1713,1066
1771,1048
1654,1198
1653,1171
1651,1123
2096,2302
2033,2262
1972,2233
1923,2165
1922,2143
1874,1837
1873,1550
1919,1503
1829,2514
1579,1023
1424,1015
1711,1040
1348,864
1419,884
1359,1291
1429,1242
1428,1228
1421,941
1577,975
1499,948
1230,1535
1365,1472
1511,1394
1300,1517
1366,1489
1512,1422
1716,1256
1503,1533
1276,818
1347,848
1349,896
1645,1032
1578,1010
1770,1044
1715,1099
1150,1003
1217,1017
1149,979
1580,1049
1352,1056
1502,1038
1825,1456
1718,1411
1717,1385
1872,1489
1656,1300
1648,1075
1712,1052
1213,928
1212,909
1084,950
1420,930
1281,854
1282,915
1587,1294
1586,1261
1585,1250
1652,1218
1427,1396
1975,2337
1977,2405
1932,2475
1931,3100
1426,1116
1422,958
1425,1101
1583,1187
1501,1045
1283,956
1286,1003
1215,988
1211,885
1210,859
1083,921
1655,1289
2220,2343
1355,5411
1772,1057
1436,1440
1435,1430
1589,1363
1163,1568
1735,2688
1791,2621
1841,2598
1840,2554
1219,1120
1220,1159
1647,1061
1646,1053
1279,806
1714,1076
1575,1035
1576,997
1498,1005
1573,1047
1496,1065
1497,1036
2177,2485
2176,2555
2294,2472
2293,2591
2237,2532
2236,2561
2364,2333
2302,2273
2301,2195
2245,2097
2056,2227
2057,2313
2055,2206
2184,2258
2120,2264
2244,2178
2538,2518
2537,2499
2591,2615
1940,2390
1989,2398
1990,2334
2539,2518
2482,2509
2483,2471
2424,2367
2121,2325
2119,2138
2050,2447
2049,2525
2048,2943
2185,2291
2243,2017
2299,2231
2241,2180
2485,2549
2542,2604
2353,2563
2292,2470
2419,2357
2478,2404
2479,2439
2536,2466
2484,2510
2486,2503
2354,2402
2416,2579
2242,2225
2355,2440
2300,2238
1991,2338
1992,2345
2477,2395
2534,2416
2535,2531
2588,2436
2587,2450
2630,2501
2051,2259
2116,2153
2175,2588
2586,65535
2541,2671
2178,2460
2179,2263
2240,2210
2239,2434
2238,2504
2052,2390
2053,2356
1987,2630
1988,2478
1939,2502
2594,2621
2593,2606
2358,2324
2357,2334
2420,2390
2247,2386
2427,2476
2428,2498
2181,2057
2180,2106
2417,2384
2590,2596
2297,2219
2361,2411
2362,2294
2423,2382
2422,2347
2174,2818
2356,2445
1941,2379
2365,2510
2112,2823
2047,2965
2182,2196
2359,2273
2533,3211
2295,2536
2115,2226
2632,2656
2631,2595
2186,2443
2298,2305
2360,2329
2235,2781
2291,2794
2487,2725
2246,2318
2425,3126
2117,2450
2543,2678
1893,65535
2421,2482
2476,2400
2592,2654
604,6586
