middle_point_id,reach_time_minutes
2835,65535
2836,65535
2806,65535
2822,65535
2823,65535
2807,65535
2846,65535
887,969
888,947
1326,1060
1185,998
999,1010
1057,1157
1552,1173
1120,1013
1473,1123
944,1018
832,943
1257,1035
1396,1064
1622,1195
1327,978
1184,1015
1183,1072
1324,1231
1255,1253
1394,1242
1252,1187
1253,1156
1182,1141
1328,65535
1470,1257
1321,1194
1322,1161
1323,1325
1391,1207
1551,1192
1393,1300
1472,1438
1471,1233
1181,1454
1118,1199
1059,935
1121,956
1469,1283
1468,1300
1548,1304
1325,1165
1625,1132
1623,1186
1258,960
1256,1154
791,831
891,902
703,819
704,811
660,815
1553,1169
1624,1147
1554,1190
1474,1138
1475,1173
1550,1202
1549,1251
1320,1252
1466,1304
1541,1720
1318,1366
1249,1389
1186,1016
1003,921
1002,931
741,881
788,853
434,944
697,889
752,812
1056,1030
1006,885
907,388
518,869
1011,789
1000,968
1055,1622
997,1591
994,1485
996,1557
995,1541
991,1332
1112,3965
1114,1572
1051,1535
1398,1212
1395,1110
1001,949
1811,1101
1960,1311
1769,1403
1823,1409
1329,65535
1332,942
1259,1736
1200,855
1199,853
1140,543
1141,772
783,938
1689,1279
1802,1340
1945,1801
2183,3358
2418,3864
1994,1835
1995,1868
2059,1417
1621,65535
1555,1087
1754,1180
1180,2303
1106,2565
933,2726
827,1088
2122,4099
2124,1460
493,877
519,875
544,867
545,868
494,881
470,902
543,864
469,887
517,886
574,865
573,853
495,899
546,873
613,849
612,854
492,897
572,859
571,880
570,891
610,907
575,922
547,918
516,906
611,921
542,871
569,908
609,900
548,950
549,979
1404,924
1405,888
1266,855
1193,885
743,865
742,872
747,845
746,834
745,842
744,865
790,842
789,847
839,859
838,863
738,935
739,926
740,891
890,913
834,928
784,920
889,934
856,306
855,347
854,405
853,416
852,407
910,366
909,375
908,381
964,392
965,404
1020,436
966,408
963,409
1021,535
1271,857
1270,856
1339,907
1338,920
1071,809
1072,824
1135,845
1408,952
1337,878
1269,865
1268,859
1136,878
1075,778
1077,534
1076,496
1019,492
1018,466
1074,838
1137,867
1272,900
1274,946
1275,1008
1205,877
1204,899
1273,947
1198,846
1197,831
1341,1003
1134,830
1133,815
1069,795
1132,805
1073,830
1203,883
1202,942
1201,873
1139,822
1267,851
1138,896
1340,905
1196,821
1342,989
1409,924
1485,961
1407,913
1561,981
1632,1021
1484,950
1483,936
1562,972
1194,845
1130,850
1195,835
1335,865
1129,872
1066,878
1128,911
1067,895
1131,826
1334,964
1336,856
1265,875
1333,939
1406,885
857,267
803,0
804,6559
860,6567
969,6520
913,6507
912,6445
861,6577
806,6620
659,817
751,800
658,828
705,814
702,824
706,822
753,514
614,822
701,838
661,820
616,878
848,450
796,785
797,533
798,483
750,804
707,891
615,941
748,871
845,788
846,803
657,852
749,833
795,834
617,891
663,926
794,857
847,512
849,413
902,488
901,502
900,529
793,828
899,768
898,776
897,808
844,831
842,816
841,830
956,807
792,821
843,833
840,833
850,408
903,470
800,426
755,443
756,467
710,973
711,1018
962,451
961,497
904,448
906,392
851,402
802,432
801,440
799,446
959,514
1014,821
1013,830
708,1723
709,1698
754,764
757,491
1017,881
1016,892
960,487
905,401
958,855
957,769
1070,801
1015,825
1012,775
1068,807
1005,905
1004,923
1060,945
1063,888
1065,896
1127,917
1062,909
1124,923
1123,945
1125,912
1188,938
1122,965
1058,948
947,914
946,967
949,909
945,963
948,906
1190,938
1187,948
951,886
895,856
952,871
1009,920
1008,887
1010,853
1007,878
1061,959
954,832
896,853
953,873
1126,926
1064,886
1189,997
955,827
950,905
892,880
786,888
836,904
837,872
787,863
700,869
655,878
654,890
653,902
698,878
699,884
608,923
696,887
656,875
833,936
785,908
835,922
693,912
894,884
893,871
1343,955
1192,969
1191,995
828,1078
829,1064
780,1010
830,1059
779,1061
782,941
529,1076
886,972
596,1149
556,1132
598,1080
597,1133
526,1104
555,1116
525,1137
524,1150
523,1152
688,992
607,932
650,914
651,919
652,922
737,940
694,898
695,890
645,1007
646,979
690,961
600,1033
599,1019
781,951
736,950
558,1108
644,1009
643,1020
648,958
692,929
691,945
513,969
541,897
540,944
568,930
530,1075
831,954
559,1090
560,1079
642,1183
557,1099
496,1182
471,1216
444,1285
446,1249
528,1083
527,1123
562,982
602,967
734,987
466,947
464,954
463,982
478,1181
481,1104
480,1146
479,1171
647,952
488,983
502,1094
689,988
533,1018
532,1030
531,1056
601,1039
484,1068
508,1025
510,1062
509,1035
534,1017
482,1165
506,1164
606,949
455,1210
429,1039
456,1174
457,1144
428,1087
458,1066
554,1132
594,1183
640,1227
639,1269
551,1195
681,1294
636,1272
635,1257
590,1241
778,1085
777,1092
485,1050
486,1059
462,1031
563,996
885,1004
943,2291
564,1047
641,1183
504,1144
503,1107
501,1103
500,1161
561,1050
254,1045
350,993
321,1009
319,1068
251,1134
375,1026
347,1037
687,1039
565,1077
539,1011
511,1070
536,1097
649,991
603,1007
605,1406
733,1007
735,977
489,987
514,979
461,1089
460,1101
459,1121
468,880
154,1179
178,1144
203,1114
228,1085
402,1023
401,1115
505,1164
522,1176
451,1398
452,1348
477,1227
476,1252
483,1091
884,1114
431,994
430,1057
454,1240
595,1187
395,1259
394,1286
422,1370
417,1289
390,1237
538,1049
567,972
426,1382
397,1197
398,1162
499,1227
475,1362
497,1196
498,1224
311,1098
342,1103
345,1037
421,1378
515,953
472,1587
448,1548
473,1498
474,1377
353,1040
381,1034
256,1196
290,1120
324,1060
380,1083
407,1007
253,1143
226,1168
201,1181
177,1189
824,1256
775,1198
826,1099
939,1147
936,1318
937,1213
880,1121
566,1095
2821,65535
2834,65535
2833,65535
2789,65535
2790,65535
2770,65535
2788,65535
2776,65535
2795,65535
2775,65535
2794,65535
2825,65535
2824,65535
2826,65535
2811,65535
2812,65535
2796,65535
2827,65535
2858,65535
2855,65535
2849,65535
2838,65535
2814,65535
2813,65535
2828,65535
2839,65535
2791,65535
2792,65535
2803,65535
2830,65535
2815,65535
2819,65535
2818,65535
2817,65535
2831,65535
2810,65535
2829,65535
2783,65535
2820,65535
2804,65535
2785,65535
2784,65535
2762,65535
2768,65535
2751,65535
2750,65535
2733,65535
2769,65535
2720,65535
2761,65535
2741,65535
2837,65535
2793,65535
2808,65535
2753,65535
2736,65535
2735,65535
2809,65535
2772,65535
2845,65535
2844,65535
2848,65535
2777,65535
2778,65535
2779,65535
2759,65535
2780,65535
2797,65535
2843,65535
2832,65535
2842,65535
2758,65535
2738,65535
2774,65535
2773,65535
2771,65535
2851,65535
2847,65535
2854,65535
2721,65535
2756,65535
2737,65535
2840,65535
2752,65535
2754,65535
2755,65535
2852,65535
2853,65535
2856,65535
2841,65535
2742,65535
2727,65535
2744,65535
2726,65535
2743,65535
2725,65535
2746,65535
2787,65535
2766,65535
2763,65535
2765,65535
2745,65535
2764,65535
2552,65535
2501,65535
2443,65535
2442,65535
2320,65535
2381,65535
2382,65535
2498,65535
2499,65535
2438,65535
2439,65535
2497,65535
2441,65535
2379,65535
2380,65535
2319,65535
2551,65535
2550,65535
2563,7077
2321,3733
2322,3702
2383,3714
2384,4425
2446,4468
2445,4476
2503,4495
2385,4459
2504,7198
2505,7220
2557,7244
2558,7269
2559,7293
2560,7257
2564,7033
2562,7145
2561,7185
2605,7200
2609,4784
2565,4729
2566,4714
2515,4659
2397,3079
2457,4640
2458,4624
2401,3251
2337,2992
2336,2996
2399,3038
2398,3059
2402,3285
2333,3216
2273,3251
2219,3275
2218,3287
2159,3312
2454,5344
2393,5310
2512,7044
2502,7829
2608,7463
2156,3434
2155,3466
2154,3495
2213,3511
2212,3523
2211,3571
2210,3612
2264,3619
2324,3653
2323,3669
2030,65535
2094,65535
2157,3398
2450,7441
2388,7490
2387,7558
2326,7595
2266,3800
2265,3755
2508,7412
2396,3148
2335,3166
2334,3177
2158,3337
2279,6865
2278,6829
2222,6798
2221,6780
2276,6762
2275,2364
2261,5247
2207,6105
2149,6164
2554,4547
2599,4577
2633,4615
2664,4650
2689,4687
2690,4713
2691,4729
2692,4753
2152,5858
2089,6566
2088,5904
2025,6699
2603,65535
2602,65535
2556,65535
2693,6692
2671,8475
2670,8455
2694,8414
2553,65535
2665,65535
2705,65535
2710,65535
2668,65535
2639,65535
2463,6106
2521,6142
2572,6165
2451,7326
2390,7295
2391,7115
2392,5752
2215,7320
2268,65535
2093,65535
2092,65535
2028,65535
2024,5934
2150,3972
2086,4002
2209,3959
2023,5073
2087,5026
2148,8119
2262,5232
2327,65535
1560,1017
1630,1034
1631,1047
1559,1032
1629,1209
1558,993
1634,1008
1633,1006
1482,982
1481,1024
1699,1035
1700,1064
1701,1058
1563,987
2070,1378
2008,1318
2009,1314
1959,1317
1958,1313
2006,1296
1957,1278
1956,1232
2193,1506
2132,1446
1912,1333
1911,1293
1865,1392
1866,1426
2007,1355
2069,1361
2010,1353
2011,1405
1961,1343
2072,1369
1913,1420
1867,1486
1962,1376
1914,1385
1915,1433
1909,1459
1636,1052
1635,1051
1564,1031
1702,1114
1637,1091
1638,1130
1565,1023
1486,984
1760,1127
1704,1076
1703,1062
1763,1146
1762,1168
1817,1207
1705,1214
1863,1208
1815,1175
1759,1081
863,1328
758,1421
808,1372
982,1543
1036,1550
1099,1585
1100,1613
1166,2014
1167,2509
1237,2166
1238,2201
1375,2271
1308,2340
1309,2249
1236,2467
1235,2101
1101,1644
1037,1581
971,1124
1025,1107
1026,1122
1027,1135
1089,1148
720,1384
674,1430
864,1210
865,1231
919,1126
1024,1071
975,1245
974,1215
1028,1170
873,1570
925,1516
924,1493
917,1190
918,1166
623,1605
712,1477
713,1510
667,1515
622,1573
809,1358
719,1358
765,1319
972,1156
868,1268
869,1280
815,1299
920,1535
973,1201
981,1494
926,1595
927,1603
928,1627
1354,1120
1288,1061
1218,1037
1152,1106
1023,1035
1353,1134
1085,1015
1148,945
1147,938
1082,889
772,1656
771,1613
819,1588
584,1504
628,1471
629,1460
1033,1391
978,1346
1031,1319
1030,1273
1029,1256
1091,1233
1035,1472
1034,1415
979,1373
1526,2390
1449,2428
1378,2456
1448,2379
1524,2357
1038,1628
1447,2420
1768,1407
1710,1368
1767,1433
391,1208
365,1170
339,1148
400,1123
393,1334
392,1310
396,1239
399,1180
443,1411
449,1449
450,1483
419,1272
414,1467
415,1313
387,1318
388,1283
389,1264
282,1200
281,1225
314,1201
313,1182
405,956
411,1494
442,1453
255,1073
376,1243
373,1180
278,1165
275,1365
248,1455
335,1370
334,1347
306,1401
307,1390
176,1207
225,1184
320,1087
249,1228
287,1105
285,1136
776,1144
731,1155
315,1181
316,1163
204,1144
440,900
439,918
166,2865
269,2782
383,2720
1247,3910
1246,3932
1384,4016
1679,4178
1178,3903
1105,2569
1172,2588
1173,2638
1242,2640
1241,2632
1314,2789
1313,2695
1171,2614
1382,2895
1243,2837
1317,2976
1107,2577
1108,2756
1109,3041
1041,2586
1043,2796
1042,2787
1044,2850
1176,3804
1174,2863
1177,3852
1110,3859
985,2632
986,2675
932,2693
774,1204
730,1173
825,1212
728,1239
729,1181
727,1327
682,1236
684,1218
685,1168
732,1178
683,1462
2134,1603
2194,1593
2068,1403
2129,1457
1905,1215
1907,1164
1906,1154
1953,1345
2002,1386
2064,1405
2125,1427
2137,1827
2196,1780
2195,1737
1859,1146
1810,1202
1755,1081
2131,1427
2192,1464
1862,1314
1861,1267
1812,1125
1860,1249
1809,1218
1756,1066
1869,1417
1822,1422
1821,1426
1916,1446
1819,1206
1764,1181
1820,1365
1698,1042
1757,1052
1566,1122
1567,1108
1488,1082
1489,1019
1412,998
1413,990
1414,963
1818,1258
1568,1074
1410,960
2128,1480
2189,1521
2066,1449
2065,1472
2067,1454
1643,1347
1571,1145
1491,1098
2004,1437
2003,1424
1697,1064
2135,1598
2075,1579
1642,1320
1955,1203
2130,1477
2005,1248
1858,1230
1816,8008
1864,8001
1766,1452
1910,1446
1868,1408
2188,1626
2127,1597
1903,1379
2001,1442
2063,1439
2062,1430
1813,1376
1758,1063
1639,1310
1640,1141
1952,1388
2126,8090
1569,1084
1965,1483
1966,1528
2014,1549
1490,1037
1917,1561
1870,1454
1871,1468
1570,1184
1707,1404
2076,1622
2013,1524
1964,1477
1487,1064
1908,1456
2251,3201
2199,3145
2198,3008
2136,1585
1641,1338
1954,1303
1765,1425
1857,1255
2187,1516
1904,1357
1856,1365
1951,1355
1708,2283
245,8319
244,8302
357,8306
246,8434
247,8463
197,8557
223,8535
44,8899
43,8959
3,9095
23,9069
22,9058
63,8841
85,8783
84,8738
108,8238
149,8192
172,8583
296,8286
294,8334
355,8434
354,8466
326,8544
295,8443
291,8455
293,8577
260,8463
356,8494
441,8094
412,8117
329,8452
300,8396
148,8166
214,8404
146,8287
110,8368
262,8429
258,8842
292,8605
257,8907
235,8427
187,8327
212,8383
211,8410
186,8331
162,8305
161,8384
165,8283
189,8483
238,8564
237,8529
263,8465
265,8484
266,8462
267,8450
268,8290
26,9059
25,9027
105,65535
62,65535
83,65535
126,8405
175,8840
152,8774
151,8764
150,8723
103,8343
242,8236
191,8190
192,8241
217,8264
218,8317
145,8227
144,8311
167,8219
190,8197
219,8334
159,8431
185,8375
158,8488
188,8319
160,8396
143,65535
122,65535
75,65535
54,65535
198,8968
270,8331
221,8372
301,8429
302,8266
330,8293
331,8315
115,8367
133,8426
139,8323
134,8400
114,8924
48,65535
69,65535
92,8600
164,8393
4,65535
107,8745
129,8830
109,8270
125,8311
124,8285
127,65535
82,65535
67,65535
91,8768
93,8567
137,8702
113,8722
112,8680
136,65535
49,65535
72,65535
71,65535
406,1081
805,6610
858,6415
859,6556
967,594
1142,729
1080,6255
1022,6296
1079,6288
968,6411
1206,686
915,6562
916,6597
914,6534
807,6649
911,7756
1078,6512
1207,744
1278,788
1277,791
1344,811
1415,852
1492,907
1345,868
1346,838
1208,736
1209,816
1143,853
1144,869
1145,884
1417,864
1493,924
1494,943
1572,958
1081,6581
970,6784
408,1023
382,1062
437,962
467,949
409,1040
403,1014
432,1509
433,1016
404,986
352,1154
351,1109
349,1117
317,1122
374,1069
346,1247
283,1172
410,937
438,953
465,972
490,970
491,922
435,1021
436,966
379,1142
323,1281
289,1230
377,1069
378,1020
592,1353
593,1379
552,1210
445,1280
424,1366
423,1313
416,1451
361,1298
362,1274
371,1252
372,1209
343,1265
344,1269
286,1323
227,1247
252,1167
284,1149
318,1131
250,1196
312,1188
340,1154
368,1177
369,1205
370,1242
341,1187
367,1194
308,1296
276,1276
277,1230
280,1218
310,1123
338,1170
366,1277
274,1432
305,1413
420,1329
363,1244
418,1215
550,6601
579,6624
576,6569
577,6581
578,6597
520,6577
618,6591
662,6621
619,6608
620,6621
621,6615
665,6597
666,6589
664,6617
580,6636
2260,65535
2257,65535
2206,65535
2146,65535
2314,65535
2313,65535
2312,65535
2373,65535
2256,65535
2205,65535
2434,65535
2435,65535
2375,65535
2376,65535
2433,65535
2491,65535
2490,65535
2492,65535
2546,65535
2597,65535
2596,65535
2544,65535
2145,65535
2082,65535
2020,65535
2494,65535
0,65535
11,65535
1052,1588
1053,1575
941,1615
1740,1452
1796,1493
1615,1355
1681,1396
1545,1316
1797,1540
1544,1330
1741,1508
1795,1690
1617,1330
1546,1321
1616,1333
1683,1428
1467,1290
1547,1316
1465,1365
1387,1401
1388,1362
1464,1426
1462,1579
1461,1600
1542,1664
1463,1543
1682,1407
1543,1385
1618,1390
1742,1600
1460,1766
1248,1410
1850,1354
1801,1353
1803,1321
882,1099
881,1106
938,1158
883,1119
940,2358
1998,1359
1902,1313
1807,1206
1691,1227
1694,1093
1693,1237
1749,1278
1752,1167
1753,1124
1627,1070
1628,1041
1557,1019
1479,971
1402,941
1808,1195
1946,1435
1947,1466
1948,1373
1997,1369
1855,1255
1690,1226
2060,1375
1949,1407
1950,1334
1751,1210
1692,1229
1999,1349
1901,1415
1900,1456
1852,1605
1853,1484
1805,1294
1750,1223
1854,1320
1806,1288
1748,1314
2061,1416
2000,1414
1804,1306
1899,1625
2884,65535
2892,65535
2883,65535
2876,65535
2874,65535
2882,65535
2877,65535
2911,65535
2905,65535
2906,65535
2896,65535
2887,65535
2881,65535
2880,65535
2888,65535
2902,65535
2903,65535
2907,65535
2912,65535
2895,65535
2894,65535
2875,65535
2885,65535
2893,65535
2904,65535
2865,65535
2866,65535
2909,65535
2913,65535
2886,65535
2878,65535
2869,65535
2871,65535
2872,65535
2879,65535
2870,65535
1330,995
1331,955
1401,946
1262,957
1263,949
1478,1026
1403,936
1261,966
1480,947
1264,1063
1390,1273
1389,1318
1319,1295
1251,1382
1250,1468
1285,962
1284,966
1214,938
1146,904
1505,1187
1504,1121
1582,1159
1581,1087
1713,1066
1771,1048
1654,1198
1653,1171
1651,1123
2096,2302
2033,2262
1972,2233
1923,2165
1922,2143
1874,1837
1873,1550
1919,1503
1829,2514
1579,1023
1424,1015
1711,1040
1348,864
1419,884
1359,1291
1429,1242
1428,1228
1421,941
1577,975
1499,948
1230,1535
1365,1472
1511,1394
1300,1517
1366,1489
1512,1422
1716,1256
1503,1533
1276,818
1347,848
1349,896
1645,1032
1578,1010
1770,1044
1715,1099
1150,1003
1217,1017
1149,979
1580,1049
1352,1056
1502,1038
1825,1456
1718,1411
1717,1385
1872,1489
1656,1300
1648,1075
1712,1052
1213,928
1212,909
1084,950
1420,930
1281,854
1282,915
1587,1294
1586,1261
1585,1250
1652,1218
1427,1396
1975,2337
1977,2405
1932,2475
1931,3100
1426,1116
1422,958
1425,1101
1583,1187
1501,1045
1283,956
1286,1003
1215,988
1211,885
1210,859
1083,921
1655,1289
2220,2343
1355,5411
1772,1057
1436,1440
1435,1430
1589,1363
1163,1568
1735,2688
1791,2621
1841,2598
1840,2554
1219,1120
1220,1159
1647,1061
1646,1053
1279,806
1714,1076
1575,1035
1576,997
1498,1005
1573,1047
1496,1065
1497,1036
2177,3925
2176,3995
2294,3964
2293,4040
2237,3972
2236,4001
2364,3773
2302,3713
2301,3635
2245,3537
2056,3843
2057,3887
2055,3646
2184,3698
2120,3704
2244,3618
2538,4068
2537,4030
2591,4055
1940,3830
1989,3838
1990,3774
2539,4046
2482,4146
2483,3911
2424,3807
2121,3765
2119,3578
2050,3903
2049,3965
2048,4383
2185,3731
2243,3457
2299,3671
2241,3620
2485,3989
2542,4044
2353,4003
2292,3910
2419,3823
2478,3884
2479,3901
2536,3987
2484,3950
2486,3943
2354,3898
2416,4019
2242,3665
2355,3892
2300,3678
1991,3778
1992,3785
2477,3876
2534,3886
2535,3986
2588,3923
2587,3938
2630,3958
2051,3699
2116,3593
2175,4093
2586,65535
2541,4180
2178,3900
2179,3703
2240,3650
2239,3874
2238,3944
2052,3830
2053,3796
1987,4070
1988,4107
1939,4020
2594,4152
2593,4124
2358,3780
2357,3787
2420,3830
2247,3826
2427,3916
2428,3938
2181,3497
2180,3546
2417,3878
2590,4036
2297,3659
2361,3851
2362,3734
2423,3822
2422,3787
2174,4258
2356,3917
1941,3819
2365,3950
2112,4263
2047,4405
2182,3636
2359,3713
2533,4651
2295,3976
2115,3666
2632,4096
2631,4035
2186,3899
2298,3745
2360,3769
2235,4221
2291,4234
2487,4165
2246,3758
2425,4566
2117,3890
2543,4118
1893,65535
2421,3922
2476,3932
2592,4202
604,6586
