middle_point_id,reach_time_minutes
2835,65535
2836,65535
2806,65535
2822,65535
2823,65535
2807,65535
2846,65535
887,433
888,449
1326,815
1185,538
999,620
1057,590
1552,1069
1120,478
1473,1094
944,463
832,428
1257,775
1396,1199
1622,1135
1327,3784
1184,490
1183,588
1324,1111
1255,1191
1394,1242
1252,888
1253,861
1182,809
1328,65535
1470,1257
1321,921
1322,1033
1323,2405
1391,979
1551,1075
1393,1283
1472,1515
1471,1189
1181,2774
1118,839
1059,430
1121,441
1469,1305
1468,1022
1548,1248
1325,1045
1625,1012
1623,1077
1258,570
1256,851
791,319
891,374
703,277
704,271
660,275
1553,1072
1624,1027
1554,1130
1474,1103
1475,1127
1550,1127
1549,1251
1320,942
1466,984
1541,2515
1318,986
1249,1070
1186,481
1003,437
1002,423
741,402
788,334
434,986
697,381
752,242
1056,631
1006,401
907,128
518,351
1011,370
1000,454
1055,1502
997,1382
994,1288
996,1376
995,1363
991,1332
1112,65535
1114,1334
1051,1315
1398,1692
1395,1290
1001,428
1811,1075
1960,1195
1769,1076
1823,1050
1329,65535
1332,783
1259,955
1200,297
1199,295
1140,199
1141,207
783,425
1689,1158
1802,1340
1945,1801
2183,2419
2418,2837
1994,1835
1995,1868
2059,1417
1621,65535
1555,967
1754,1064
1180,2303
1106,2470
933,2726
827,810
2122,2659
2124,1499
493,362
519,355
544,349
545,353
494,364
470,407
543,363
469,394
517,368
574,361
573,328
495,418
546,369
613,309
612,313
492,376
572,332
571,379
570,884
610,420
575,416
547,398
516,1002
611,441
542,412
569,860
609,447
548,2229
549,2264
1404,486
1405,406
1266,374
1193,470
743,338
742,372
747,310
746,313
745,320
744,327
790,321
789,326
839,350
838,341
738,399
739,398
740,394
890,392
834,410
784,407
889,407
856,67
855,72
854,98
853,105
852,117
910,98
909,106
908,110
964,133
965,114
1020,134
966,130
963,169
1021,169
1271,298
1270,299
1339,307
1338,320
1071,314
1072,249
1135,278
1408,345
1337,337
1269,314
1268,340
1136,284
1075,200
1077,201
1076,174
1019,167
1018,195
1074,267
1137,240
1272,310
1274,286
1275,287
1205,275
1204,239
1273,347
1198,349
1197,374
1341,405
1134,312
1133,357
1069,334
1132,362
1073,236
1203,223
1202,222
1201,261
1139,193
1267,359
1138,214
1340,313
1196,371
1342,854
1409,474
1485,792
1407,448
1561,844
1632,869
1484,821
1483,804
1562,835
1194,398
1130,378
1195,405
1335,397
1129,392
1066,390
1128,431
1067,358
1131,371
1334,481
1336,374
1265,497
1333,759
1406,405
857,28
803,0
804,2239
860,2247
969,2200
913,2187
912,2125
861,2257
806,2300
659,283
751,259
658,288
705,274
702,290
706,260
753,238
614,304
701,298
661,280
616,308
848,207
796,256
797,229
798,218
750,264
707,258
615,281
748,301
845,265
846,253
657,346
749,293
795,281
617,351
663,266
794,344
847,249
849,173
902,248
901,272
900,286
793,328
899,348
898,369
897,379
844,320
842,335
841,327
956,395
792,321
843,336
840,366
850,153
903,227
800,161
755,173
756,190
710,253
711,298
962,193
961,216
904,208
906,132
851,147
802,170
801,165
799,191
959,272
1014,287
1013,376
708,425
709,399
754,195
757,251
1017,204
1016,230
960,247
905,161
958,318
957,302
1070,321
1015,269
1012,347
1068,351
1005,418
1004,432
1060,447
1063,406
1065,407
1127,464
1062,441
1124,482
1123,462
1125,449
1188,510
1122,468
1058,436
947,406
946,429
949,400
945,448
948,397
1190,938
1187,496
951,373
895,340
952,374
1009,383
1008,401
1010,369
1007,391
1061,487
954,413
896,335
953,377
1126,449
1064,420
1189,568
955,462
950,387
892,370
786,374
836,370
837,359
787,361
700,346
655,411
654,407
653,399
698,366
699,333
608,460
696,402
656,408
833,422
785,387
835,384
693,419
894,344
893,357
1343,307
1192,914
1191,935
828,565
829,534
780,872
830,859
779,521
782,418
529,1042
886,438
596,1010
556,1057
598,550
597,984
526,1113
555,1109
525,1149
524,1226
523,1127
688,490
607,504
650,1029
651,910
652,924
737,405
694,464
695,412
645,465
646,439
690,422
600,470
599,480
781,411
736,410
558,1002
644,515
643,513
648,820
692,419
691,417
513,922
541,1017
540,1012
568,894
530,1069
831,444
559,1001
560,959
642,1095
557,1051
496,1159
471,1212
444,1285
446,1230
528,1046
527,1076
562,943
602,907
734,508
466,951
464,954
463,976
478,1219
481,1072
480,1146
479,1160
647,421
488,947
502,1099
689,441
533,990
532,1017
531,1041
601,921
484,1101
508,1067
510,970
509,1041
534,1063
482,1107
506,1040
606,1001
455,1271
429,1176
456,1405
457,1244
428,1167
458,1121
554,1148
594,1043
640,994
639,1009
551,1098
681,1085
636,1106
635,1157
590,1150
778,595
777,795
485,1084
486,1003
462,1023
563,1089
885,501
943,968
564,893
641,1014
504,1121
503,1139
501,1277
500,1344
561,1050
254,1105
350,1053
321,1175
319,1098
251,1138
375,1086
347,1270
687,518
565,919
539,980
511,992
536,941
649,837
603,853
605,1406
733,552
735,436
489,1107
514,999
461,1090
460,1101
459,1121
468,971
154,1298
178,1260
203,1231
228,1150
402,1095
401,1129
505,1046
522,1115
451,1398
452,1348
477,1231
476,1300
483,1244
884,893
431,1052
430,1123
454,1240
595,1110
395,1259
394,1286
422,1452
417,1266
390,1278
538,999
567,1113
426,1216
397,1197
398,1162
499,1313
475,1362
497,1230
498,1247
311,1156
342,1163
345,1120
421,1338
515,1267
472,1587
448,1548
473,1501
474,1379
353,1128
381,1076
256,1196
290,1171
324,1138
380,1134
407,1114
253,1143
226,1168
201,1181
177,1244
824,956
775,897
826,829
939,907
936,1318
937,973
880,900
566,974
2821,65535
2834,65535
2833,65535
2789,65535
2790,65535
2770,65535
2788,65535
2776,65535
2795,65535
2775,65535
2794,65535
2825,65535
2824,65535
2826,65535
2811,65535
2812,65535
2796,65535
2827,65535
2858,65535
2855,65535
2849,65535
2838,65535
2814,65535
2813,65535
2828,65535
2839,65535
2791,65535
2792,65535
2803,65535
2830,65535
2815,65535
2819,65535
2818,65535
2817,65535
2831,65535
2810,65535
2829,65535
2783,65535
2820,65535
2804,65535
2785,65535
2784,65535
2762,65535
2768,65535
2751,65535
2750,65535
2733,65535
2769,65535
2720,65535
2761,65535
2741,65535
2837,65535
2793,65535
2808,65535
2753,65535
2736,65535
2735,65535
2809,65535
2772,65535
2845,65535
2844,65535
2848,65535
2777,65535
2778,65535
2779,65535
2759,65535
2780,65535
2797,65535
2843,65535
2832,65535
2842,65535
2758,65535
2738,65535
2774,65535
2773,65535
2771,65535
2851,65535
2847,65535
2854,65535
2721,65535
2756,65535
2737,65535
2840,65535
2752,65535
2754,65535
2755,65535
2852,65535
2853,65535
2856,65535
2841,65535
2742,65535
2727,65535
2744,65535
2726,65535
2743,65535
2725,65535
2746,65535
2787,65535
2766,65535
2763,65535
2765,65535
2745,65535
2764,65535
2552,65535
2501,65535
2443,65535
2442,65535
2320,65535
2381,65535
2382,65535
2498,65535
2499,65535
2438,65535
2439,65535
2497,65535
2441,65535
2379,65535
2380,65535
2319,65535
2551,65535
2550,65535
2563,65535
2321,65535
2322,65535
2383,65535
2384,65535
2446,65535
2445,65535
2503,65535
2385,65535
2504,65535
2505,65535
2557,65535
2558,65535
2559,65535
2560,65535
2564,65535
2562,65535
2561,65535
2605,65535
2609,65535
2565,65535
2566,65535
2515,4756
2397,4519
2457,4736
2458,4720
2401,65535
2337,4432
2336,4436
2399,4478
2398,4499
2402,65535
2333,4656
2273,4691
2219,4715
2218,4727
2159,4752
2454,65535
2393,65535
2512,65535
2502,65535
2608,65535
2156,65535
2155,65535
2154,65535
2213,65535
2212,65535
2211,65535
2210,65535
2264,65535
2324,65535
2323,65535
2030,65535
2094,65535
2157,65535
2450,65535
2388,65535
2387,65535
2326,65535
2266,65535
2265,65535
2508,65535
2396,4588
2335,4606
2334,4617
2158,4777
2279,3866
2278,3830
2222,3799
2221,3781
2276,3763
2275,1885
2261,65535
2207,65535
2149,65535
2554,65535
2599,65535
2633,65535
2664,65535
2689,65535
2690,65535
2691,65535
2692,65535
2152,65535
2089,65535
2088,65535
2025,65535
2603,65535
2602,65535
2556,65535
2693,65535
2671,65535
2670,65535
2694,65535
2553,65535
2665,65535
2705,65535
2710,65535
2668,65535
2639,65535
2463,65535
2521,65535
2572,65535
2451,65535
2390,65535
2391,65535
2392,65535
2215,65535
2268,65535
2093,65535
2092,65535
2028,65535
2024,65535
2150,65535
2086,65535
2209,65535
2023,65535
2087,65535
2148,65535
2262,65535
2327,65535
1560,830
1630,914
1631,876
1559,912
1629,971
1558,873
1634,899
1633,869
1482,808
1481,822
1699,912
1700,891
1701,905
1563,893
2070,1258
2008,1215
2009,1202
1959,1168
1958,1172
2006,1211
1957,1207
1956,1232
2193,1506
2132,1446
1912,1211
1911,1131
1865,1087
1866,1179
2007,1268
2069,1281
2010,1233
2011,1320
1961,1209
2072,1257
1913,1420
1867,1230
1962,1248
1914,1257
1915,1282
1909,1214
1636,836
1635,917
1564,899
1702,865
1637,827
1638,814
1565,861
1486,857
1760,958
1704,955
1703,942
1763,937
1762,1009
1817,1047
1705,863
1863,1039
1815,1006
1759,985
863,1585
758,1673
808,1629
982,1717
1036,1789
1099,2433
1100,1852
1166,2014
1167,2509
1237,2166
1238,2201
1375,2271
1308,2340
1309,2249
1236,2467
1235,2101
1101,1880
1037,1822
971,1292
1025,1282
1026,1265
1027,1285
1089,1250
720,1630
674,1676
864,1554
865,1529
919,1306
1024,1255
975,1419
974,1357
1028,1353
873,1570
925,1516
924,1493
917,1370
918,1346
623,1845
712,1720
713,1754
667,1759
622,1815
809,1615
719,1602
765,1559
972,1306
868,1506
869,1518
815,1539
920,1414
973,1321
981,1686
926,1595
927,1603
928,1627
1354,1137
1288,1161
1218,1226
1152,1202
1023,1209
1353,1122
1085,1167
1148,1120
1147,1113
1082,1090
772,1656
771,1613
819,1588
584,1750
628,1717
629,1744
1033,1631
978,1588
1031,1561
1030,1514
1029,1496
1091,1473
1035,1715
1034,1655
979,1615
1526,2390
1449,2428
1378,2456
1448,2379
1524,2357
1038,1864
1447,2420
1768,1055
1710,1094
1767,975
391,1262
365,1224
339,1212
400,1123
393,1334
392,1310
396,1220
399,1242
443,1350
449,1422
450,1398
419,1293
414,1480
415,1351
387,1344
388,1312
389,1297
282,1234
281,1225
314,1201
313,1182
405,1015
411,1494
442,1453
255,1198
376,1243
373,1258
278,1165
275,1288
248,1335
335,1399
334,1373
306,1345
307,1322
176,1228
225,1184
320,1182
249,1275
287,1156
285,1195
776,846
731,859
315,1181
316,1163
204,1264
440,1043
439,1002
166,2865
269,2782
383,2720
1247,65535
1246,65535
1384,65535
1679,65535
1178,3903
1105,2512
1172,2528
1173,2504
1242,3092
1241,2570
1314,3127
1313,3154
1171,2553
1382,4335
1243,2586
1317,4416
1107,2755
1108,3054
1109,3108
1041,2563
1043,3818
1042,3739
1044,4290
1176,3804
1174,4303
1177,3852
1110,3859
985,2632
986,2675
932,2693
774,950
730,873
825,905
728,926
729,896
727,1059
682,941
684,978
685,898
732,941
683,2302
2134,1603
2194,1593
2068,1344
2129,1398
1905,1215
1907,1160
1906,1154
1953,1345
2002,1386
2064,1433
2125,1463
2137,1827
2196,1780
2195,1737
1859,1096
1810,1149
1755,1081
2131,1264
2192,1300
1862,1176
1861,1075
1812,1046
1860,1115
1809,1102
1756,1042
1869,1012
1822,1007
1821,983
1916,1050
1819,954
1764,905
1820,970
1698,919
1757,1010
1566,786
1567,469
1488,442
1489,1016
1412,844
1413,817
1414,789
1818,975
1568,1074
1410,373
2128,1422
2189,1481
2066,1416
2065,1472
2067,1395
1643,1108
1571,1058
1491,1022
2004,1501
2003,1459
1697,961
2135,1598
2075,1445
1642,1084
1955,1203
2130,1477
2005,1301
1858,1230
1816,3688
1864,3681
1766,968
1910,1400
1868,1002
2188,1626
2127,1597
1903,1285
2001,1469
2063,2262
2062,1430
1813,996
1758,1074
1639,820
1640,862
1952,1388
2126,3770
1569,971
1965,1302
1966,1348
2014,1368
1490,980
1917,1105
1870,1141
1871,1155
1570,1005
1707,874
2076,1435
2013,1400
1964,1354
1487,425
1908,1456
2251,65535
2199,65535
2198,65535
2136,1585
1641,1105
1954,1303
1765,936
1857,1199
2187,1885
1904,1357
1856,1245
1951,1355
1708,1308
245,3999
244,3982
357,3986
246,4114
247,4143
197,4237
223,4215
44,4579
43,4639
3,4775
23,4749
22,4738
63,4521
85,4463
84,4418
108,3918
149,3872
172,4263
296,3966
294,4014
355,4114
354,4146
326,4224
295,4123
291,4135
293,4257
260,4143
356,4174
441,3774
412,3797
329,4132
300,4076
148,3846
214,4084
146,3967
110,4048
262,4109
258,4522
292,4285
257,4587
235,4107
187,4007
212,4063
211,4090
186,4011
162,3985
161,4064
165,3963
189,4163
238,4244
237,4209
263,4145
265,4164
266,4142
267,4130
268,3970
26,4739
25,4707
105,65535
62,65535
83,65535
126,4085
175,4520
152,4454
151,4444
150,4403
103,4023
242,3916
191,3870
192,3921
217,3944
218,3997
145,3907
144,3991
167,3899
190,3877
219,4014
159,4111
185,4055
158,4168
188,3999
160,4076
143,65535
122,65535
75,65535
54,65535
198,4648
270,4011
221,4052
301,4109
302,3946
330,3973
331,3995
115,4047
133,4106
139,4003
134,4080
114,4604
48,65535
69,65535
92,4280
164,4073
4,65535
107,4425
129,4510
109,3950
125,3991
124,3965
127,65535
82,65535
67,65535
91,4448
93,4247
137,4382
113,4402
112,4360
136,65535
49,65535
72,65535
71,65535
406,1228
805,2290
858,2095
859,2236
967,594
1142,729
1080,1935
1022,1976
1079,1968
968,2091
1206,686
915,2242
916,2277
914,2214
807,2329
911,3436
1078,2192
1207,790
1278,815
1277,813
1344,854
1415,1032
1492,1087
1345,894
1346,859
1208,796
1209,996
1143,1033
1144,1049
1145,1079
1417,995
1493,1105
1494,1123
1572,1139
1081,2261
970,2464
408,1100
382,1099
437,988
467,1017
409,1084
403,1129
432,1123
433,1134
404,1036
352,1162
351,1142
349,1137
317,1329
374,1228
346,1247
283,1242
410,1046
438,1062
465,972
490,1011
491,1106
435,1055
436,1000
379,1595
323,1321
289,1352
377,1069
378,1091
592,1136
593,1107
552,1149
445,1277
424,1331
423,1313
416,2377
361,1412
362,1347
371,1342
372,1326
343,1516
344,1556
286,1435
227,1143
252,1166
284,1188
318,1190
250,1192
312,1243
340,1213
368,1242
369,1233
370,1242
341,1237
367,1260
308,1315
276,1308
277,1288
280,1278
310,1187
338,1233
366,1277
274,1349
305,1413
420,1329
363,1393
418,1336
550,2281
579,2304
576,2249
577,2261
578,2277
520,2257
618,2271
662,2301
619,2288
620,2301
621,2295
665,2277
666,2269
664,2297
580,2316
2260,65535
2257,65535
2206,65535
2146,65535
2314,65535
2313,65535
2312,65535
2373,65535
2256,65535
2205,65535
2434,65535
2435,65535
2375,65535
2376,65535
2433,65535
2491,65535
2490,65535
2492,65535
2546,65535
2597,65535
2596,65535
2544,65535
2145,65535
2082,65535
2020,65535
2494,65535
0,65535
11,65535
1052,1468
1053,1455
941,1440
1740,2461
1796,2535
1615,2319
1681,2396
1545,2200
1797,2575
1544,2275
1741,2553
1795,2856
1617,2220
1546,2206
1616,2237
1683,2341
1467,994
1547,1089
1465,2180
1387,2247
1388,1021
1464,2264
1462,3019
1461,3040
1542,2931
1463,2983
1682,2528
1543,2396
1618,2277
1742,2654
1460,2730
1248,2262
1850,1372
1801,2178
1803,1306
882,859
881,868
938,919
883,896
940,2358
1998,1359
1902,1313
1807,1089
1691,1107
1694,973
1693,1132
1749,1218
1752,1047
1753,1004
1627,950
1628,921
1557,899
1479,851
1402,784
1808,1075
1946,1435
1947,1466
1948,1373
1997,1369
1855,1182
1690,1105
2060,1375
1949,1407
1950,1334
1751,1090
1692,1109
1999,1349
1901,1415
1900,1456
1852,1605
1853,1484
1805,1226
1750,1103
1854,1250
1806,1168
1748,1195
2061,1416
2000,1414
1804,1306
1899,1625
2884,65535
2892,65535
2883,65535
2876,65535
2874,65535
2882,65535
2877,65535
2911,65535
2905,65535
2906,65535
2896,65535
2887,65535
2881,65535
2880,65535
2888,65535
2902,65535
2903,65535
2907,65535
2912,65535
2895,65535
2894,65535
2875,65535
2885,65535
2893,65535
2904,65535
2865,65535
2866,65535
2909,65535
2913,65535
2886,65535
2878,65535
2869,65535
2871,65535
2872,65535
2879,65535
2870,65535
1330,887
1331,814
1401,826
1262,863
1263,857
1478,840
1403,762
1261,900
1480,827
1264,883
1390,959
1389,960
1319,951
1251,1017
1250,1092
1285,1110
1284,1126
1214,1118
1146,1097
1505,1187
1504,1175
1582,1159
1581,1124
1713,1096
1771,1071
1654,1280
1653,1255
1651,1155
2096,1813
2033,1796
1972,1765
1923,1713
1922,1693
1874,1644
1873,1608
1919,1504
1829,2514
1579,1023
1424,1087
1711,1057
1348,899
1419,1050
1359,1291
1429,1242
1428,1228
1421,946
1577,984
1499,956
1230,1645
1365,1581
1511,1504
1300,1627
1366,1598
1512,1531
1716,1336
1503,1211
1276,1478
1347,1046
1349,1032
1645,1032
1578,1010
1770,1063
1715,1129
1150,1264
1217,1258
1149,1241
1580,1069
1352,1161
1502,1105
1825,1455
1718,1409
1717,1384
1872,1492
1656,1395
1648,1135
1712,1077
1213,1140
1212,1181
1084,1190
1420,930
1281,1096
1282,1216
1587,1236
1586,1205
1585,1195
1652,1179
1427,1231
1975,2337
1977,2405
1932,2475
1931,3100
1426,1239
1422,975
1425,1226
1583,1248
1501,1107
1283,1103
1286,1140
1215,1248
1211,1142
1210,1151
1083,1161
1655,1318
2220,1864
1355,1372
1772,1124
1436,1547
1435,1538
1589,1473
1163,2459
1735,2688
1791,2621
1841,2598
1840,2554
1219,1277
1220,1319
1647,1098
1646,1107
1279,879
1714,1106
1575,1035
1576,997
1498,1005
1573,1110
1496,1065
1497,1036
2177,2762
2176,2827
2294,2887
2293,2908
2237,2868
2236,2890
2364,2738
2302,2668
2301,2649
2245,2604
2056,2477
2057,2641
2055,2472
2184,2811
2120,2734
2244,2431
2538,2939
2537,2919
2591,2956
1940,2780
1989,2764
1990,2720
2539,2962
2482,2968
2483,2937
2424,2932
2121,2913
2119,2449
2050,2859
2049,2881
2048,2943
2185,2806
2243,2444
2299,2669
2241,2669
2485,2899
2542,3011
2353,2954
2292,2930
2419,2828
2478,2836
2479,2853
2536,2880
2484,2954
2486,2847
2354,2878
2416,2970
2242,2491
2355,2845
2300,2798
1991,2803
1992,2544
2477,2879
2534,2914
2535,2870
2588,2935
2587,2950
2630,2990
2051,2626
2116,2594
2175,2878
2586,65535
2541,3082
2178,2728
2179,2699
2240,2699
2239,2770
2238,2825
2052,2670
2053,2765
1987,2848
1988,2768
1939,2774
2594,3084
2593,3056
2358,2726
2357,2769
2420,2879
2247,3061
2427,2832
2428,2890
2181,2489
2180,2541
2417,2858
2590,2935
2297,2702
2361,2926
2362,2870
2423,2905
2422,2764
2174,2971
2356,2835
1941,2802
2365,3147
2112,2899
2047,2965
2182,2501
2359,2692
2533,3211
2295,3051
2115,2637
2632,3061
2631,3000
2186,2768
2298,2529
2360,2584
2235,3661
2291,3674
2487,3070
2246,2989
2425,3126
2117,3087
2543,3097
1893,65535
2421,2972
2476,2886
2592,3071
604,2266
