middle_point_id,reach_time_minutes
2835,65535
2836,65535
2806,65535
2822,65535
2823,65535
2807,65535
2846,65535
887,7569
888,7547
1326,7649
1185,7585
999,7610
1057,7699
1552,7774
1120,7554
1473,7920
944,7621
832,7538
1257,7636
1396,7924
1622,7795
1327,8584
1184,7600
1183,7606
1324,7711
1255,7791
1394,7842
1252,7735
1253,7727
1182,7694
1328,65535
1470,7835
1321,7764
1322,7761
1323,7925
1391,7807
1551,7792
1393,7884
1472,7918
1471,7811
1181,9134
1118,7739
1059,7490
1121,7520
1469,8008
1468,7842
1548,7905
1325,7675
1625,7732
1623,7761
1258,7599
1256,7754
791,7399
891,7509
703,7357
704,7351
660,7355
1553,7779
1624,7747
1554,7792
1474,7808
1475,8161
1550,7802
1549,7829
1320,7810
1466,7844
1541,9400
1318,7879
1249,7901
1186,7575
1003,7494
1002,7495
741,7485
788,7441
434,7475
697,7450
752,7352
1056,7632
1006,7436
907,7228
518,7390
1011,7405
1000,7533
1055,9302
997,9271
994,9165
996,9237
995,9221
991,9012
1112,65535
1114,9252
1051,9215
1398,8652
1395,7950
1001,7509
1811,7669
1960,7870
1769,7707
1823,7716
1329,65535
1332,7542
1259,65535
1200,7372
1199,7373
1140,7356
1141,7357
783,7526
1689,7819
1802,7880
1945,8041
2183,9598
2418,65535
1994,8075
1995,8108
2059,8170
1621,65535
1555,7687
1754,7830
1180,8543
1106,65535
933,65535
827,7653
2122,65535
2124,7874
493,7407
519,7399
544,7386
545,7391
494,7408
470,7430
543,7397
469,7414
517,7395
574,7395
573,7372
495,7416
546,7397
613,7369
612,7383
492,7413
572,7385
571,7399
570,7408
610,7430
575,7368
547,7410
516,7538
611,7401
542,7411
569,7450
609,7434
548,7406
549,7409
1404,7517
1405,7452
1266,7439
1193,7487
743,7469
742,7460
747,7390
746,7393
745,7403
744,7418
790,7423
789,7426
839,7454
838,7464
738,7522
739,7521
740,7502
890,7536
834,7544
784,7539
889,7547
856,7178
855,7188
854,7208
853,7249
852,7247
910,7203
909,7212
908,7222
964,7232
965,7238
1020,7275
966,7258
963,7249
1021,7179
1271,7375
1270,7376
1339,7387
1338,7400
1071,7345
1072,7329
1135,7358
1408,7432
1337,7417
1269,7394
1268,7420
1136,7388
1075,7294
1077,7348
1076,7303
1019,7302
1018,7275
1074,7352
1137,7404
1272,7380
1274,7456
1275,7489
1205,7475
1204,7439
1273,7415
1198,7391
1197,7485
1341,7398
1134,7380
1133,7386
1069,7414
1132,7430
1073,7316
1203,7423
1202,7422
1201,7398
1139,7362
1267,7426
1138,7435
1340,7393
1196,7454
1342,7424
1409,7442
1485,7491
1407,7511
1561,7567
1632,7579
1484,7535
1483,7531
1562,7560
1194,7451
1130,7447
1195,7452
1335,7443
1129,7470
1066,7443
1128,7511
1067,7421
1131,7439
1334,7564
1336,7454
1265,7471
1333,7539
1406,7483
857,7117
803,7109
804,7086
860,7066
969,7088
913,7073
912,7083
861,7028
806,0
659,7357
751,7340
658,7368
705,7354
702,7364
706,7362
753,7318
614,7362
701,7378
661,7363
616,7370
848,7290
796,7325
797,7309
798,7298
750,7344
707,7366
615,7361
748,7380
845,7356
846,7333
657,7426
749,7373
795,7362
617,7385
663,7365
794,7404
847,7322
849,7253
902,7328
901,7352
900,7366
793,7408
899,7428
898,7434
897,7435
844,7400
842,7415
841,7403
956,7412
792,7400
843,7448
840,7445
850,7242
903,7307
800,7266
755,7283
756,7303
710,7333
711,7378
962,7302
961,7336
904,7288
906,7232
851,7235
802,7258
801,7275
799,7271
959,7352
1014,7364
1013,7392
708,7494
709,7340
754,7301
757,7331
1017,7299
1016,7310
960,7327
905,7241
958,7398
957,7399
1070,7372
1015,7349
1012,7403
1068,7424
1005,7447
1004,7478
1060,7485
1063,7459
1065,7472
1127,7489
1062,7458
1124,7524
1123,7512
1125,7481
1188,7551
1122,7541
1058,7497
947,7522
946,7568
949,7484
945,7563
948,7504
1190,7538
1187,7573
951,7432
895,7420
952,7442
1009,7431
1008,7467
1010,7412
1007,7439
1061,7498
954,7421
896,7415
953,7474
1126,7504
1064,7470
1189,7593
955,7415
950,7443
892,7465
786,7468
836,7465
837,7460
787,7444
700,7413
655,7431
654,7434
653,7456
698,7428
699,7413
608,7454
696,7480
656,7428
833,7528
785,7514
835,7511
693,7514
894,7425
893,7452
1343,7463
1192,7595
1191,7595
828,7618
829,7604
780,7557
830,7599
779,7616
782,7531
529,7616
886,7572
596,7690
556,7673
598,7649
597,7659
526,7690
555,7708
525,7676
524,7643
523,7639
688,7566
607,7461
650,7511
651,7489
652,7481
737,7528
694,7504
695,7496
645,7576
646,7548
690,7544
600,7605
599,7607
781,7536
736,7540
558,7594
644,7597
643,7573
648,7543
692,7522
691,7538
513,7535
541,7467
540,7502
568,7529
530,7582
831,7554
559,7614
560,7660
642,7687
557,7639
496,7673
471,7705
444,7781
446,7734
528,7624
527,7674
562,7636
602,7567
734,7560
466,7516
464,7502
463,7477
478,7702
481,7618
480,7650
479,7679
647,7568
488,7522
502,7669
689,7553
533,7678
532,7634
531,7641
601,7639
484,7609
508,7607
510,7571
509,7584
534,7616
482,7652
506,7698
606,7475
455,7796
429,7694
456,7843
457,7726
428,7752
458,7668
554,7753
594,7784
640,7707
639,7789
551,7662
681,7767
636,7760
635,7739
590,7723
778,7625
777,7645
485,7563
486,7538
462,7512
563,7728
885,7587
943,8531
564,7651
641,7701
504,7664
503,7679
501,7702
500,7760
561,7650
254,7564
350,7529
321,7623
319,7574
251,7614
375,7588
347,7607
687,7579
565,7653
539,7568
511,7550
536,7647
649,7594
603,7611
605,9092
733,7580
735,7549
489,7539
514,7521
461,7630
460,7641
459,7660
468,7422
154,7715
178,7679
203,7650
228,7633
402,7696
401,7703
505,7645
522,7660
451,7857
452,7828
477,7719
476,7715
483,7726
884,7654
431,7655
430,7717
454,7710
595,7710
395,7766
394,7790
422,7940
417,7752
390,7771
538,7550
567,7512
426,7820
397,7793
398,7778
499,7855
475,7836
497,7712
498,7729
311,7634
342,7594
345,7623
421,7817
515,7581
472,7881
448,7912
473,7936
474,7977
353,7577
381,7556
256,7676
290,7651
324,7589
380,7617
407,7545
253,7710
226,7647
201,7660
177,7717
824,7736
775,7709
826,7669
939,7687
936,8998
937,7813
880,7765
566,7640
2821,65535
2834,65535
2833,65535
2789,65535
2790,65535
2770,65535
2788,65535
2776,65535
2795,65535
2775,65535
2794,65535
2825,65535
2824,65535
2826,65535
2811,65535
2812,65535
2796,65535
2827,65535
2858,65535
2855,65535
2849,65535
2838,65535
2814,65535
2813,65535
2828,65535
2839,65535
2791,65535
2792,65535
2803,65535
2830,65535
2815,65535
2819,65535
2818,65535
2817,65535
2831,65535
2810,65535
2829,65535
2783,65535
2820,65535
2804,65535
2785,65535
2784,65535
2762,65535
2768,65535
2751,65535
2750,65535
2733,65535
2769,65535
2720,65535
2761,65535
2741,65535
2837,65535
2793,65535
2808,65535
2753,65535
2736,65535
2735,65535
2809,65535
2772,65535
2845,65535
2844,65535
2848,65535
2777,65535
2778,65535
2779,65535
2759,65535
2780,65535
2797,65535
2843,65535
2832,65535
2842,65535
2758,65535
2738,65535
2774,65535
2773,65535
2771,65535
2851,65535
2847,65535
2854,65535
2721,65535
2756,65535
2737,65535
2840,65535
2752,65535
2754,65535
2755,65535
2852,65535
2853,65535
2856,65535
2841,65535
2742,65535
2727,65535
2744,65535
2726,65535
2743,65535
2725,65535
2746,65535
2787,65535
2766,65535
2763,65535
2765,65535
2745,65535
2764,65535
2552,65535
2501,65535
2443,65535
2442,65535
2320,65535
2381,65535
2382,65535
2498,65535
2499,65535
2438,65535
2439,65535
2497,65535
2441,65535
2379,65535
2380,65535
2319,65535
2551,65535
2550,65535
2563,65535
2321,65535
2322,65535
2383,65535
2384,65535
2446,65535
2445,65535
2503,65535
2385,65535
2504,65535
2505,65535
2557,65535
2558,65535
2559,65535
2560,65535
2564,65535
2562,65535
2561,65535
2605,65535
2609,65535
2565,65535
2566,65535
2515,9556
2397,9319
2457,9536
2458,9520
2401,65535
2337,9232
2336,9236
2399,9278
2398,9299
2402,65535
2333,9456
2273,9491
2219,9515
2218,9527
2159,9552
2454,65535
2393,65535
2512,65535
2502,65535
2608,65535
2156,65535
2155,65535
2154,65535
2213,65535
2212,65535
2211,65535
2210,65535
2264,65535
2324,65535
2323,65535
2030,65535
2094,65535
2157,65535
2450,65535
2388,65535
2387,65535
2326,65535
2266,65535
2265,65535
2508,65535
2396,9388
2335,9406
2334,9417
2158,9577
2279,65535
2278,65535
2222,65535
2221,65535
2276,65535
2275,8604
2261,65535
2207,65535
2149,65535
2554,65535
2599,65535
2633,65535
2664,65535
2689,65535
2690,65535
2691,65535
2692,65535
2152,65535
2089,65535
2088,65535
2025,65535
2603,65535
2602,65535
2556,65535
2693,65535
2671,65535
2670,65535
2694,65535
2553,65535
2665,65535
2705,65535
2710,65535
2668,65535
2639,65535
2463,65535
2521,65535
2572,65535
2451,65535
2390,65535
2391,65535
2392,65535
2215,65535
2268,65535
2093,65535
2092,65535
2028,65535
2024,65535
2150,65535
2086,65535
2209,65535
2023,65535
2087,65535
2148,65535
2262,65535
2327,65535
1560,7585
1630,7630
1631,7593
1559,7667
1629,7640
1558,7593
1634,7549
1633,7574
1482,7582
1481,7623
1699,7605
1700,7621
1701,7637
1563,7500
2070,7935
2008,7893
2009,7884
1959,7872
1958,7898
2006,7930
1957,7910
1956,7862
2193,8002
2132,7941
1912,7900
1911,7880
1865,7684
1866,7767
2007,7917
2069,7951
2010,7893
2011,7909
1961,7888
2072,7909
1913,7826
1867,7819
1962,7913
1914,7862
1915,7774
1909,7814
1636,7516
1635,7520
1564,7493
1702,7595
1637,7535
1638,7585
1565,7480
1486,7451
1760,7734
1704,7540
1703,7526
1763,7614
1762,7597
1817,7644
1705,7638
1863,7816
1815,7782
1759,7647
863,7688
758,7780
808,7734
982,7957
1036,7971
1099,8673
1100,8035
1166,8254
1167,8749
1237,8406
1238,8441
1375,8511
1308,8580
1309,8489
1236,8707
1235,8341
1101,8066
1037,8003
971,7484
1025,7467
1026,7482
1027,7495
1089,7508
720,7997
674,8046
864,7624
865,7632
919,7486
1024,7431
975,7602
974,7580
1028,7529
873,7810
925,7756
924,7733
917,7550
918,7526
623,7970
712,7826
713,7862
667,7868
622,7923
809,7720
719,7971
765,7928
972,7514
868,7841
869,7882
815,7908
920,7775
973,7561
981,7926
926,7835
927,7843
928,7867
1354,7461
1288,7427
1218,7397
1152,7535
1023,7403
1353,7511
1085,7376
1148,7305
1147,7298
1082,7270
772,7896
771,7853
819,7828
584,8186
628,8509
629,8483
1033,7871
978,7828
1031,7801
1030,7754
1029,7736
1091,7713
1035,7955
1034,7895
979,7855
1526,8630
1449,8668
1378,8696
1448,8619
1524,8597
1038,8050
1447,8660
1768,7710
1710,7668
1767,7698
391,7741
365,7702
339,7688
400,7726
393,7784
392,7758
396,7809
399,7751
443,7805
449,7895
450,7880
419,7756
414,7827
415,7803
387,7825
388,7791
389,7778
282,7705
281,7736
314,7683
313,7663
405,7495
411,7892
442,7851
255,7614
376,7682
373,7639
278,7645
275,7770
248,7799
335,7879
334,7853
306,7825
307,7801
176,7696
225,7655
320,7609
249,7721
287,7636
285,7615
776,7686
731,7674
315,7691
316,7674
204,7666
440,7500
439,7529
166,9105
269,8846
383,8672
1247,65535
1246,65535
1384,65535
1679,65535
1178,65535
1105,65535
1172,65535
1173,65535
1242,65535
1241,65535
1314,65535
1313,65535
1171,65535
1382,65535
1243,65535
1317,65535
1107,65535
1108,65535
1109,65535
1041,65535
1043,65535
1042,65535
1044,65535
1176,65535
1174,65535
1177,65535
1110,65535
985,65535
986,65535
932,65535
774,7730
730,7679
825,7752
728,7719
729,7700
727,7778
682,7716
684,7698
685,7678
732,7658
683,7762
2134,8455
2194,8484
2068,8411
2129,8465
1905,7746
1907,7769
1906,7753
1953,7773
2002,7804
2064,7841
2125,7848
2137,8596
2196,8552
2195,8507
1859,7681
1810,7688
1755,7690
2131,7966
2192,7980
1862,7962
1861,7808
1812,7753
1860,7777
1809,7880
1756,7646
1869,7721
1822,7740
1821,7719
1916,7769
1819,7667
1764,7647
1820,7671
1698,7620
1757,7632
1566,7576
1567,7576
1488,7539
1489,7534
1412,7459
1413,7509
1414,7491
1818,7686
1568,7657
1410,7484
2128,8496
2189,8523
2066,7982
2065,8006
2067,8462
1643,7652
1571,7585
1491,7500
2004,7971
2003,7852
1697,7633
2135,8477
2075,7918
1642,7621
1955,7790
2130,8621
2005,7970
1858,7701
1816,8488
1864,8481
1766,7692
1910,7854
1868,7712
2188,8875
2127,8844
1903,7943
2001,7815
2063,8502
2062,8514
1813,7716
1758,7668
1639,7594
1640,7598
1952,7826
2126,9442
1569,7557
1965,7873
1966,7919
2014,8024
1490,7512
1917,7801
1870,7764
1871,7774
1570,7548
1707,7644
2076,7938
2013,7874
1964,7826
1487,7534
1908,8075
2251,65535
2199,65535
2198,65535
2136,8500
1641,7753
1954,8506
1765,7665
1857,7765
2187,8125
1904,7921
1856,7845
1951,7884
1708,8523
245,8910
244,8898
357,8786
246,8935
247,8962
197,9037
223,9015
44,9379
43,9439
3,9575
23,9549
22,9538
63,9321
85,9263
84,9218
108,9184
149,9138
172,9102
296,8766
294,8814
355,8914
354,8946
326,9024
295,8923
291,8935
293,9057
260,9077
356,8974
441,8574
412,8597
329,8932
300,8876
148,9280
214,9096
146,9211
110,9463
262,8909
258,9322
292,9085
257,9387
235,9185
187,9264
212,9291
211,9295
186,9376
162,9390
161,9403
165,9158
189,9214
238,9044
237,9009
263,8945
265,9050
266,9070
267,9095
268,9144
26,9539
25,9507
105,65535
62,65535
83,65535
126,9399
175,9320
152,9254
151,9244
150,9203
103,65535
242,9200
191,9370
192,9424
217,9450
218,65535
145,9190
144,9517
167,9132
190,9358
219,65535
159,65535
185,65535
158,65535
188,9247
160,65535
143,65535
122,65535
75,65535
54,65535
198,9448
270,9204
221,9552
301,65535
302,9154
330,9139
331,9107
115,9492
133,9554
139,65535
134,9528
114,9515
48,65535
69,65535
92,9429
164,65535
4,65535
107,9225
129,9310
109,65535
125,65535
124,65535
127,65535
82,65535
67,65535
91,65535
93,65535
137,65535
113,65535
112,65535
136,65535
49,65535
72,65535
71,65535
406,7561
805,7066
858,7089
859,7119
967,7112
1142,7137
1080,7133
1022,7124
1079,7136
968,7103
1206,7149
915,7125
916,7150
914,7098
807,7015
911,8236
1078,7169
1207,7161
1278,7178
1277,7173
1344,7194
1415,7212
1492,7267
1345,7202
1346,7223
1208,7156
1209,7170
1143,7213
1144,7229
1145,7259
1417,7235
1493,7286
1494,7303
1572,7320
1081,7151
970,7264
408,7608
382,7578
437,7510
467,7490
409,7567
403,7666
432,7749
433,7591
404,7511
352,7652
351,7669
349,7623
317,7645
374,7643
346,7679
283,7679
410,7550
438,7520
465,7513
490,7552
491,7437
435,7535
436,7521
379,7623
323,7697
289,7729
377,7551
378,7574
592,7804
593,7845
552,7661
445,7756
424,7819
423,7776
416,7793
361,7826
362,7794
371,7827
372,7809
343,7723
344,7720
286,7730
227,7729
252,7676
284,7636
318,7729
250,7664
312,7668
340,7685
368,7724
369,7772
370,7840
341,7734
367,7740
308,7793
276,7785
277,7765
280,7698
310,7663
338,7710
366,7764
274,7845
305,7837
420,7810
363,7784
418,7754
550,7419
579,7434
576,7388
577,7398
578,7400
520,7426
618,7380
662,7389
619,7372
620,7408
621,7395
665,7347
666,7341
664,7360
580,7416
2260,65535
2257,65535
2206,65535
2146,65535
2314,65535
2313,65535
2312,65535
2373,65535
2256,65535
2205,65535
2434,65535
2435,65535
2375,65535
2376,65535
2433,65535
2491,65535
2490,65535
2492,65535
2546,65535
2597,65535
2596,65535
2544,65535
2145,65535
2082,65535
2020,65535
2494,65535
0,65535
11,65535
1052,9268
1053,9255
941,9295
1740,8097
1796,8161
1615,7971
1681,8033
1545,7868
1797,8516
1544,7891
1741,8441
1795,8402
1617,7912
1546,7906
1616,7967
1683,8009
1467,7835
1547,7890
1465,7853
1387,7924
1388,7965
1464,7912
1462,9259
1461,9280
1542,9344
1463,9223
1682,8027
1543,7946
1618,7922
1742,8574
1460,9446
1248,7947
1850,7897
1801,7898
1803,7876
882,7664
881,7673
938,7707
883,7659
940,65535
1998,8415
1902,8089
1807,7746
1691,7787
1694,7693
1693,8512
1749,7818
1752,7767
1753,7724
1627,7671
1628,7641
1557,7619
1479,7571
1402,7541
1808,7735
1946,8635
1947,8580
1948,8484
1997,8370
1855,7780
1690,7766
2060,8590
1949,8639
1950,8127
1751,7778
1692,7829
1999,8431
1901,8505
1900,8446
1852,8418
1853,8380
1805,7894
1750,7823
1854,8089
1806,7888
1748,7855
2061,8540
2000,8494
1804,7899
1899,8467
2884,65535
2892,65535
2883,65535
2876,65535
2874,65535
2882,65535
2877,65535
2911,65535
2905,65535
2906,65535
2896,65535
2887,65535
2881,65535
2880,65535
2888,65535
2902,65535
2903,65535
2907,65535
2912,65535
2895,65535
2894,65535
2875,65535
2885,65535
2893,65535
2904,65535
2865,65535
2866,65535
2909,65535
2913,65535
2886,65535
2878,65535
2869,65535
2871,65535
2872,65535
2879,65535
2870,65535
1330,7595
1331,7548
1401,7546
1262,7557
1263,7549
1478,7557
1403,7536
1261,7566
1480,7547
1264,7547
1390,7814
1389,7882
1319,7864
1251,7908
1250,7977
1285,7354
1284,7325
1214,7297
1146,7276
1505,7547
1504,7481
1582,7519
1581,7447
1713,7444
1771,7416
1654,7584
1653,7557
1651,7496
2096,8542
2033,8502
1972,8473
1923,8405
1922,8383
1874,8077
1873,7867
1919,7828
1829,8754
1579,7383
1424,7387
1711,7408
1348,7260
1419,7307
1359,7657
1429,7609
1428,7598
1421,7300
1577,7340
1499,7316
1230,7955
1365,7875
1511,7780
1300,7942
1366,7973
1512,7819
1716,7653
1503,7773
1276,7178
1347,7260
1349,7290
1645,7393
1578,7370
1770,7412
1715,7474
1150,7364
1217,7376
1149,7340
1580,7429
1352,7409
1502,7447
1825,7784
1718,7749
1717,7725
1872,7866
1656,7670
1648,7495
1712,7436
1213,7319
1212,7408
1084,7310
1420,7291
1281,7266
1282,7420
1587,7656
1586,7625
1585,7615
1652,7550
1427,7636
1975,8577
1977,8645
1932,8715
1931,9340
1426,7479
1422,7305
1425,7466
1583,7547
1501,7457
1283,7343
1286,7379
1215,7310
1211,7256
1210,7225
1083,7281
1655,7631
2220,8583
1355,65535
1772,7474
1436,7840
1435,7827
1589,7748
1163,8699
1735,8928
1791,8861
1841,8838
1840,8794
1219,7555
1220,7603
1647,7458
1646,7467
1279,7218
1714,7466
1575,7399
1576,7364
1498,7380
1573,7407
1496,7428
1497,7399
2177,65535
2176,65535
2294,65535
2293,65535
2237,65535
2236,65535
2364,65535
2302,65535
2301,65535
2245,65535
2056,65535
2057,65535
2055,65535
2184,65535
2120,65535
2244,65535
2538,65535
2537,65535
2591,65535
1940,65535
1989,65535
1990,65535
2539,65535
2482,65535
2483,65535
2424,65535
2121,65535
2119,65535
2050,65535
2049,65535
2048,65535
2185,65535
2243,65535
2299,65535
2241,65535
2485,65535
2542,65535
2353,65535
2292,65535
2419,65535
2478,65535
2479,65535
2536,65535
2484,65535
2486,65535
2354,65535
2416,65535
2242,65535
2355,65535
2300,65535
1991,65535
1992,65535
2477,65535
2534,65535
2535,65535
2588,65535
2587,65535
2630,65535
2051,65535
2116,65535
2175,65535
2586,65535
2541,65535
2178,65535
2179,65535
2240,65535
2239,65535
2238,65535
2052,65535
2053,65535
1987,65535
1988,65535
1939,65535
2594,65535
2593,65535
2358,65535
2357,65535
2420,65535
2247,65535
2427,65535
2428,65535
2181,65535
2180,65535
2417,65535
2590,65535
2297,65535
2361,65535
2362,65535
2423,65535
2422,65535
2174,65535
2356,65535
1941,65535
2365,65535
2112,65535
2047,65535
2182,65535
2359,65535
2533,65535
2295,65535
2115,65535
2632,65535
2631,65535
2186,65535
2298,65535
2360,65535
2235,65535
2291,65535
2487,65535
2246,65535
2425,65535
2117,65535
2543,65535
1893,65535
2421,65535
2476,65535
2592,65535
604,65535
