middle_point_id,reach_time_minutes
2835,65535
2836,65535
2806,65535
2822,65535
2823,65535
2807,65535
2846,65535
887,2844
888,2832
1326,2909
1185,2829
999,2810
1057,2899
1552,3094
1120,2814
1473,3120
944,2976
832,2833
1257,2895
1396,3124
1622,3663
1327,3784
1184,2819
1183,2829
1324,3815
1255,3831
1394,3711
1252,2935
1253,2927
1182,2894
1328,65535
1470,3691
1321,2964
1322,2961
1323,3792
1391,3007
1551,3112
1393,3736
1472,3118
1471,3704
1181,4334
1118,2939
1059,2788
1121,2802
1469,3765
1468,3042
1548,3166
1325,3385
1625,3052
1623,3081
1258,2859
1256,2954
791,2719
891,2785
703,2677
704,2671
660,2675
1553,3101
1624,3067
1554,3111
1474,3120
1475,3361
1550,3696
1549,3661
1320,3010
1466,3044
1541,4600
1318,3079
1249,3101
1186,2835
1003,2781
1002,2785
741,2800
788,2762
434,2795
697,2781
752,2672
1056,2832
1006,2755
907,2541
518,2710
1011,2721
1000,2793
1055,4502
997,4471
994,4365
996,4437
995,4421
991,4212
1112,65535
1114,4452
1051,4415
1398,3852
1395,3150
1001,2788
1811,3073
1960,3225
1769,3022
1823,3040
1329,65535
1332,2862
1259,65535
1200,2757
1199,2755
1140,2619
1141,2617
783,2843
1689,3198
1802,3600
1945,4316
2183,4798
2418,65535
1994,4352
1995,4748
2059,3877
1621,65535
1555,3007
1754,3041
1180,3743
1106,65535
933,65535
827,2948
2122,65535
2124,3757
493,2735
519,2719
544,2706
545,2711
494,2728
470,2751
543,2716
469,2747
517,2715
574,2715
573,2692
495,2736
546,2717
613,2689
612,2703
492,2747
572,2706
571,2719
570,2728
610,2750
575,2688
547,2730
516,2783
611,2721
542,2731
569,2781
609,2754
548,2726
549,2729
1404,2839
1405,2833
1266,2798
1193,2807
743,2789
742,2781
747,2710
746,2713
745,2723
744,2765
790,2725
789,2741
839,2748
838,2763
738,2849
739,2846
740,2812
890,2793
834,2821
784,2832
889,2819
856,2466
855,2474
854,2498
853,2508
852,2567
910,2483
909,2491
908,2527
964,2538
965,2531
1020,2543
966,2480
963,2569
1021,2469
1271,2760
1270,2759
1339,2767
1338,2780
1071,2714
1072,2709
1135,2738
1408,2812
1337,2797
1269,2775
1268,2800
1136,2742
1075,2607
1077,2610
1076,2574
1019,2567
1018,2595
1074,2698
1137,2725
1272,2773
1274,2746
1275,2787
1205,2732
1204,2699
1273,2868
1198,2776
1197,2755
1341,2802
1134,2753
1133,2749
1069,2734
1132,2750
1073,2696
1203,2683
1202,2742
1201,2781
1139,2624
1267,2788
1138,2755
1340,2772
1196,2783
1342,2789
1409,2807
1485,2843
1407,2890
1561,2915
1632,2939
1484,2870
1483,2874
1562,2906
1194,2771
1130,2767
1195,2772
1335,2801
1129,2784
1066,2752
1128,2782
1067,2730
1131,2759
1334,2877
1336,2811
1265,2855
1333,2859
1406,2821
857,2427
803,2401
804,2365
860,2358
969,2382
913,2377
912,2384
861,2340
806,2296
659,2677
751,2660
658,2688
705,2674
702,2690
706,2682
753,2638
614,2682
701,2698
661,2680
616,2690
848,2610
796,2645
797,2629
798,2618
750,2664
707,2686
615,2681
748,2700
845,2664
846,2653
657,2806
749,2693
795,2682
617,2705
663,2685
794,2724
847,2642
849,2573
902,2648
901,2672
900,2686
793,2728
899,2725
898,2724
897,2737
844,2720
842,2735
841,2723
956,2715
792,2720
843,2752
840,2765
850,2556
903,2627
800,2561
755,2573
756,2623
710,2653
711,2698
962,2622
961,2656
904,2608
906,2546
851,2550
802,2585
801,2565
799,2591
959,2672
1014,2687
1013,2712
708,2694
709,2660
754,2595
757,2651
1017,2679
1016,2690
960,2647
905,2561
958,2717
957,2710
1070,2721
1015,2669
1012,2720
1068,2728
1005,2767
1004,2778
1060,2787
1063,2758
1065,2754
1127,2777
1062,2769
1124,2784
1123,2807
1125,2772
1188,2811
1122,2808
1058,2797
947,2806
946,2839
949,2764
945,2854
948,2769
1190,2858
1187,2832
951,2749
895,2740
952,2752
1009,2730
1008,2736
1010,2731
1007,2748
1061,2818
954,2723
896,2735
953,2752
1126,2775
1064,2770
1189,2913
955,2719
950,2758
892,2777
786,2808
836,2809
837,2770
787,2786
700,2733
655,2752
654,2761
653,2776
698,2766
699,2733
608,2761
696,2802
656,2749
833,2826
785,2834
835,2827
693,2864
894,2745
893,2765
1343,2783
1192,2906
1191,2915
828,2938
829,2924
780,2877
830,2919
779,2936
782,2843
529,2936
886,2853
596,2962
556,2977
598,2940
597,2951
526,2964
555,3000
525,2988
524,2982
523,2959
688,2886
607,2782
650,2825
651,2811
652,2804
737,2851
694,2830
695,2810
645,2896
646,2868
690,2864
600,2899
599,2910
781,2856
736,2860
558,2914
644,2917
643,2893
648,2879
692,2861
691,2858
513,2851
541,2757
540,2818
568,2839
530,2959
831,2844
559,2934
560,2975
642,2960
557,2959
496,2968
471,2985
444,3040
446,2999
528,2943
527,2953
562,2912
602,2906
734,2880
466,2777
464,2813
463,2828
478,3054
481,2961
480,3030
479,3029
647,2894
488,2845
502,2957
689,2873
533,2917
532,2940
531,2962
601,2941
484,2919
508,2873
510,2895
509,2883
534,2887
482,2946
506,2960
606,2825
455,3051
429,2894
456,3043
457,2985
428,2952
458,2934
554,3026
594,3075
640,3027
639,3146
551,2982
681,3094
636,3072
635,3059
590,2999
778,2945
777,2952
485,2884
486,2863
462,2831
563,2917
885,2864
943,3731
564,2948
641,2979
504,2984
503,2967
501,2982
500,3048
561,2967
254,2905
350,2853
321,2873
319,2889
251,2930
375,2915
347,2939
687,2899
565,2917
539,2855
511,2874
536,2911
649,2851
603,2905
605,4292
733,2900
735,2869
489,2861
514,2837
461,2991
460,2978
459,2954
468,2742
154,3038
178,3001
203,2971
228,2949
402,2896
401,2903
505,2965
522,2982
451,3241
452,3219
477,3101
476,3148
483,2930
884,2955
431,2855
430,2917
454,3743
595,2977
395,3038
394,3057
422,3149
417,3031
390,3046
538,2833
567,2805
426,3020
397,2993
398,2978
499,3055
475,3141
497,2984
498,3010
311,2954
342,2996
345,2964
421,3156
515,2817
472,3081
448,3112
473,3136
474,3177
353,2902
381,2875
256,3000
290,2980
324,2964
380,2929
407,2865
253,2946
226,2971
201,3000
177,3041
824,3056
775,2997
826,2959
939,3007
936,4198
937,3073
880,3129
566,2892
2821,65535
2834,65535
2833,65535
2789,65535
2790,65535
2770,65535
2788,65535
2776,65535
2795,65535
2775,65535
2794,65535
2825,65535
2824,65535
2826,65535
2811,65535
2812,65535
2796,65535
2827,65535
2858,65535
2855,65535
2849,65535
2838,65535
2814,65535
2813,65535
2828,65535
2839,65535
2791,65535
2792,65535
2803,65535
2830,65535
2815,65535
2819,65535
2818,65535
2817,65535
2831,65535
2810,65535
2829,65535
2783,65535
2820,65535
2804,65535
2785,65535
2784,65535
2762,65535
2768,65535
2751,65535
2750,65535
2733,65535
2769,65535
2720,65535
2761,65535
2741,65535
2837,65535
2793,65535
2808,65535
2753,65535
2736,65535
2735,65535
2809,65535
2772,65535
2845,65535
2844,65535
2848,65535
2777,65535
2778,65535
2779,65535
2759,65535
2780,65535
2797,65535
2843,65535
2832,65535
2842,65535
2758,65535
2738,65535
2774,65535
2773,65535
2771,65535
2851,65535
2847,65535
2854,65535
2721,65535
2756,65535
2737,65535
2840,65535
2752,65535
2754,65535
2755,65535
2852,65535
2853,65535
2856,65535
2841,65535
2742,65535
2727,65535
2744,65535
2726,65535
2743,65535
2725,65535
2746,65535
2787,65535
2766,65535
2763,65535
2765,65535
2745,65535
2764,65535
2552,65535
2501,65535
2443,65535
2442,65535
2320,65535
2381,65535
2382,65535
2498,65535
2499,65535
2438,65535
2439,65535
2497,65535
2441,65535
2379,65535
2380,65535
2319,65535
2551,65535
2550,65535
2563,65535
2321,65535
2322,65535
2383,65535
2384,65535
2446,65535
2445,65535
2503,65535
2385,65535
2504,65535
2505,65535
2557,65535
2558,65535
2559,65535
2560,65535
2564,65535
2562,65535
2561,65535
2605,65535
2609,65535
2565,65535
2566,65535
2515,4756
2397,4519
2457,4736
2458,4720
2401,65535
2337,4432
2336,4436
2399,4478
2398,4499
2402,65535
2333,4656
2273,4691
2219,4715
2218,4727
2159,4752
2454,65535
2393,65535
2512,65535
2502,65535
2608,65535
2156,65535
2155,65535
2154,65535
2213,65535
2212,65535
2211,65535
2210,65535
2264,65535
2324,65535
2323,65535
2030,65535
2094,65535
2157,65535
2450,65535
2388,65535
2387,65535
2326,65535
2266,65535
2265,65535
2508,65535
2396,4588
2335,4606
2334,4617
2158,4777
2279,65535
2278,65535
2222,65535
2221,65535
2276,65535
2275,3804
2261,65535
2207,65535
2149,65535
2554,65535
2599,65535
2633,65535
2664,65535
2689,65535
2690,65535
2691,65535
2692,65535
2152,65535
2089,65535
2088,65535
2025,65535
2603,65535
2602,65535
2556,65535
2693,65535
2671,65535
2670,65535
2694,65535
2553,65535
2665,65535
2705,65535
2710,65535
2668,65535
2639,65535
2463,65535
2521,65535
2572,65535
2451,65535
2390,65535
2391,65535
2392,65535
2215,65535
2268,65535
2093,65535
2092,65535
2028,65535
2024,65535
2150,65535
2086,65535
2209,65535
2023,65535
2087,65535
2148,65535
2262,65535
2327,65535
1560,2934
1630,2983
1631,2959
1559,2968
1629,2962
1558,2913
1634,2932
1633,2919
1482,2902
1481,2918
1699,2953
1700,2951
1701,2950
1563,2902
2070,3298
2008,3238
2009,3244
1959,3214
1958,3272
2006,3311
1957,3306
1956,3310
2193,3796
2132,3767
1912,3244
1911,3199
1865,3052
1866,3151
2007,3296
2069,3330
2010,3266
2011,3309
1961,3267
2072,3299
1913,3611
1867,3248
1962,3300
1914,3309
1915,3200
1909,3228
1636,2908
1635,2920
1564,2931
1702,2935
1637,2937
1638,2976
1565,2874
1486,2831
1760,3032
1704,2940
1703,2931
1763,2946
1762,2991
1817,3013
1705,2982
1863,3123
1815,3090
1759,3027
863,2888
758,2980
808,2934
982,3157
1036,3171
1099,3873
1100,3235
1166,3454
1167,3949
1237,3606
1238,3641
1375,3711
1308,3780
1309,3689
1236,3907
1235,3541
1101,3266
1037,3203
971,2770
1025,2775
1026,2789
1027,2815
1089,2828
720,3197
674,3246
864,2824
865,2848
919,2806
1024,2751
975,2890
974,2862
1028,2839
873,3010
925,2956
924,2933
917,2810
918,2786
623,3170
712,3026
713,3062
667,3068
622,3123
809,2920
719,3171
765,3128
972,2774
868,3041
869,3082
815,3108
920,2975
973,2812
981,3126
926,3035
927,3043
928,3067
1354,2800
1288,2744
1218,2716
1152,2735
1023,2719
1353,2974
1085,2697
1148,2625
1147,2618
1082,2590
772,3096
771,3053
819,3028
584,3386
628,3709
629,3683
1033,3071
978,3028
1031,3001
1030,2954
1029,2936
1091,2913
1035,3155
1034,3095
979,3055
1526,3830
1449,3868
1378,3896
1448,3819
1524,3797
1038,3250
1447,3860
1768,3033
1710,2975
1767,3124
391,3073
365,3055
339,3008
400,2926
393,3133
392,3113
396,3045
399,2951
443,3065
449,3154
450,3218
419,3100
414,3100
415,3067
387,3097
388,3051
389,3036
282,2999
281,2993
314,3032
313,2998
405,2815
411,3827
442,3742
255,2920
376,2882
373,2942
278,2965
275,3039
248,3088
335,3120
334,3105
306,3089
307,3078
176,3014
225,2954
320,2926
249,3014
287,2914
285,2935
776,2957
731,2975
315,2977
316,2988
204,2990
440,2773
439,2781
166,4305
269,4046
383,3949
1247,65535
1246,65535
1384,65535
1679,65535
1178,65535
1105,65535
1172,65535
1173,65535
1242,65535
1241,65535
1314,65535
1313,65535
1171,65535
1382,65535
1243,65535
1317,65535
1107,65535
1108,65535
1109,65535
1041,65535
1043,65535
1042,65535
1044,65535
1176,65535
1174,65535
1177,65535
1110,65535
985,65535
986,65535
932,65535
774,3004
730,2981
825,3012
728,3039
729,3020
727,3121
682,3036
684,2987
685,2987
732,2978
683,3087
2134,3761
2194,3762
2068,3611
2129,3665
1905,3131
1907,3202
1906,3173
1953,3329
2002,3688
2064,3697
2125,3710
2137,4001
2196,3955
2195,3902
1859,3114
1810,3122
1755,3068
2131,3706
2192,3744
1862,3162
1861,3120
1812,3070
1860,3292
1809,3080
1756,3030
1869,3078
1822,3053
1821,3062
1916,3143
1819,3008
1764,2981
1820,3079
1698,2967
1757,3015
1566,2948
1567,2910
1488,2861
1489,2856
1412,2795
1413,2801
1414,2822
1818,3020
1568,2939
1410,2815
2128,3696
2189,3723
2066,3767
2065,3720
2067,3662
1643,2954
1571,2906
1491,2869
2004,3776
2003,3728
1697,2983
2135,3713
2075,3637
1642,2932
1955,3242
2130,3821
2005,3682
1858,3117
1816,3688
1864,3681
1766,3023
1910,3208
1868,3138
2188,4075
2127,4044
1903,3143
2001,3718
2063,4132
2062,3993
1813,3105
1758,3017
1639,3038
1640,2976
1952,3656
2126,4642
1569,2945
1965,3189
1966,3235
2014,3252
1490,2834
1917,3101
1870,3085
1871,3099
1570,2891
1707,3073
2076,3318
2013,3686
1964,3193
1487,2867
1908,3275
2251,65535
2199,65535
2198,65535
2136,3700
1641,2964
1954,3706
1765,2989
1857,3094
2187,4396
1904,3121
1856,3121
1951,3694
1708,3723
245,4110
244,4098
357,3986
246,4135
247,4162
197,4237
223,4215
44,4579
43,4639
3,4775
23,4749
22,4738
63,4521
85,4463
84,4418
108,4384
149,4338
172,4302
296,4298
294,4368
355,4114
354,4146
326,4253
295,4329
291,4557
293,4422
260,4478
356,4174
441,3774
412,3809
329,4132
300,4076
148,4480
214,4630
146,4411
110,4663
262,4601
258,4540
292,4462
257,4587
235,4459
187,4464
212,4491
211,4495
186,4576
162,4590
161,4603
165,4358
189,65535
238,65535
237,65535
263,65535
265,65535
266,65535
267,65535
268,4395
26,4739
25,4707
105,65535
62,65535
83,65535
126,4599
175,4520
152,4454
151,4444
150,4403
103,65535
242,4400
191,4570
192,4624
217,4650
218,65535
145,4390
144,4717
167,4332
190,4558
219,65535
159,65535
185,65535
158,65535
188,4447
160,65535
143,65535
122,65535
75,65535
54,65535
198,4648
270,4404
221,4752
301,65535
302,4354
330,4339
331,4307
115,4692
133,4754
139,65535
134,4728
114,4715
48,65535
69,65535
92,4629
164,65535
4,65535
107,4425
129,4510
109,65535
125,65535
124,65535
127,65535
82,65535
67,65535
91,65535
93,65535
137,65535
113,65535
112,65535
136,65535
49,65535
72,65535
71,65535
406,2881
805,2317
858,2396
859,2412
967,2403
1142,2435
1080,2426
1022,2415
1079,2427
968,2399
1206,2450
915,2422
916,2433
914,2394
807,0
911,3436
1078,2440
1207,2439
1278,2467
1277,2450
1344,2474
1415,2532
1492,2587
1345,2522
1346,2543
1208,2450
1209,2496
1143,2533
1144,2549
1145,2579
1417,2552
1493,2605
1494,2623
1572,2639
1081,2441
970,2464
408,2912
382,2898
437,2789
467,2761
409,2910
403,2866
432,2949
433,2925
404,2830
352,2969
351,2955
349,2901
317,3045
374,2931
346,2979
283,2973
410,2839
438,2830
465,2827
490,2830
491,2782
435,2916
436,2918
379,3034
323,3091
289,3042
377,2867
378,2891
592,3004
593,3045
552,2981
445,3016
424,3072
423,3074
416,3085
361,3086
362,3054
371,3027
372,3009
343,2998
344,2978
286,2972
227,2938
252,2966
284,2947
318,2929
250,2958
312,2965
340,2960
368,2981
369,3042
370,3040
341,2973
367,3002
308,3058
276,3019
277,3000
280,3018
310,2983
338,3030
366,3113
274,3770
305,3122
420,3139
363,3075
418,3080
550,2739
579,2754
576,2708
577,2718
578,2720
520,2746
618,2700
662,2709
619,2692
620,2700
621,2685
665,2667
666,2661
664,2680
580,2706
2260,65535
2257,65535
2206,65535
2146,65535
2314,65535
2313,65535
2312,65535
2373,65535
2256,65535
2205,65535
2434,65535
2435,65535
2375,65535
2376,65535
2433,65535
2491,65535
2490,65535
2492,65535
2546,65535
2597,65535
2596,65535
2544,65535
2145,65535
2082,65535
2020,65535
2494,65535
0,65535
11,65535
1052,4468
1053,4455
941,4495
1740,3297
1796,3361
1615,3171
1681,3233
1545,3068
1797,3716
1544,3091
1741,3641
1795,3602
1617,3112
1546,3106
1616,3167
1683,3209
1467,3035
1547,3090
1465,3053
1387,3124
1388,3165
1464,3112
1462,4459
1461,4480
1542,4544
1463,4423
1682,3227
1543,3146
1618,3122
1742,3774
1460,4646
1248,3147
1850,3647
1801,3618
1803,3346
882,2959
881,2969
938,3018
883,2979
940,65535
1998,3770
1902,3720
1807,3066
1691,3114
1694,3013
1693,3712
1749,3138
1752,3087
1753,3044
1627,2987
1628,2961
1557,2939
1479,2891
1402,2861
1808,3055
1946,3835
1947,3780
1948,3742
1997,3782
1855,3069
1690,3086
2060,3957
1949,3839
1950,3761
1751,3130
1692,3149
1999,3766
1901,3705
1900,3646
1852,3618
1853,3580
1805,3229
1750,3143
1854,3289
1806,3208
1748,3187
2061,3952
2000,3793
1804,3611
1899,3667
2884,65535
2892,65535
2883,65535
2876,65535
2874,65535
2882,65535
2877,65535
2911,65535
2905,65535
2906,65535
2896,65535
2887,65535
2881,65535
2880,65535
2888,65535
2902,65535
2903,65535
2907,65535
2912,65535
2895,65535
2894,65535
2875,65535
2885,65535
2893,65535
2904,65535
2865,65535
2866,65535
2909,65535
2913,65535
2886,65535
2878,65535
2869,65535
2871,65535
2872,65535
2879,65535
2870,65535
1330,2915
1331,2868
1401,2866
1262,2877
1263,2869
1478,2879
1403,2853
1261,2886
1480,2867
1264,2867
1390,3014
1389,3082
1319,3064
1251,3108
1250,3177
1285,2664
1284,2646
1214,2618
1146,2597
1505,2876
1504,2861
1582,2916
1581,2780
1713,2752
1771,2734
1654,2880
1653,2850
1651,2805
2096,3742
2033,3702
1972,3673
1923,3605
1922,3583
1874,3277
1873,3239
1919,3118
1829,3954
1579,2703
1424,2707
1711,2736
1348,2580
1419,2610
1359,2969
1429,2925
1428,2915
1421,2620
1577,2660
1499,2636
1230,3155
1365,3087
1511,3020
1300,3142
1366,3173
1512,3043
1716,2946
1503,2973
1276,2468
1347,2611
1349,2607
1645,2713
1578,2690
1770,2746
1715,2794
1150,2683
1217,2695
1149,2659
1580,2749
1352,2736
1502,2767
1825,3076
1718,3036
1717,3011
1872,3106
1656,2956
1648,2755
1712,2739
1213,2697
1212,2668
1084,2630
1420,2608
1281,2625
1282,2656
1587,2914
1586,2882
1585,2871
1652,2853
1427,2836
1975,3777
1977,3845
1932,3915
1931,4540
1426,2795
1422,2625
1425,2781
1583,2867
1501,2777
1283,2663
1286,2689
1215,2723
1211,2696
1210,2666
1083,2601
1655,3012
2220,3783
1355,65535
1772,2794
1436,3096
1435,3113
1589,3046
1163,3899
1735,4128
1791,4061
1841,4038
1840,3994
1219,2755
1220,2803
1647,2778
1646,2787
1279,2538
1714,2786
1575,2718
1576,2683
1498,2699
1573,2727
1496,2748
1497,2719
2177,65535
2176,65535
2294,65535
2293,65535
2237,65535
2236,65535
2364,65535
2302,65535
2301,65535
2245,65535
2056,65535
2057,65535
2055,65535
2184,65535
2120,65535
2244,65535
2538,65535
2537,65535
2591,65535
1940,65535
1989,65535
1990,65535
2539,65535
2482,65535
2483,65535
2424,65535
2121,65535
2119,65535
2050,65535
2049,65535
2048,65535
2185,65535
2243,65535
2299,65535
2241,65535
2485,65535
2542,65535
2353,65535
2292,65535
2419,65535
2478,65535
2479,65535
2536,65535
2484,65535
2486,65535
2354,65535
2416,65535
2242,65535
2355,65535
2300,65535
1991,65535
1992,65535
2477,65535
2534,65535
2535,65535
2588,65535
2587,65535
2630,65535
2051,65535
2116,65535
2175,65535
2586,65535
2541,65535
2178,65535
2179,65535
2240,65535
2239,65535
2238,65535
2052,65535
2053,65535
1987,65535
1988,65535
1939,65535
2594,65535
2593,65535
2358,65535
2357,65535
2420,65535
2247,65535
2427,65535
2428,65535
2181,65535
2180,65535
2417,65535
2590,65535
2297,65535
2361,65535
2362,65535
2423,65535
2422,65535
2174,65535
2356,65535
1941,65535
2365,65535
2112,65535
2047,65535
2182,65535
2359,65535
2533,65535
2295,65535
2115,65535
2632,65535
2631,65535
2186,65535
2298,65535
2360,65535
2235,65535
2291,65535
2487,65535
2246,65535
2425,65535
2117,65535
2543,65535
1893,65535
2421,65535
2476,65535
2592,65535
604,65535
