middle_point_id,reach_time_minutes
2835,65535
2836,65535
2806,65535
2822,65535
2823,65535
2807,65535
2846,65535
887,84
888,58
1326,160
1185,129
999,170
1057,241
1552,263
1120,114
1473,240
944,96
832,50
1257,136
1396,259
1622,355
1327,424
1184,119
1183,130
1324,391
1255,924
1394,792
1252,1094
1253,1120
1182,1125
1328,65535
1470,824
1321,1074
1322,1015
1323,965
1391,1087
1551,271
1393,793
1472,478
1471,764
1181,1454
1118,1139
1059,57
1121,77
1469,901
1468,1141
1548,923
1325,325
1625,351
1623,286
1258,97
1256,194
791,23
891,54
703,69
704,82
660,78
1553,267
1624,309
1554,290
1474,280
1475,333
1550,549
1549,846
1320,1086
1466,1123
1541,1720
1318,1199
1249,1221
1186,116
1003,54
1002,63
741,46
788,15
434,185
697,51
752,100
1056,192
1006,30
907,225
518,123
1011,118
1000,93
1055,1622
997,1591
994,1485
996,1557
995,1541
991,1332
1112,3965
1114,1572
1051,1535
1398,372
1395,270
1001,69
1811,328
1960,1004
1769,886
1823,885
1329,65535
1332,222
1259,1736
1200,170
1199,168
1140,324
1141,322
783,41
1689,713
1802,720
1945,1436
2183,1918
2418,2367
1994,1472
1995,1868
2059,997
1621,65535
1555,367
1754,559
1180,1170
1106,2565
933,2726
827,134
2122,2333
2124,877
493,130
519,125
544,120
545,115
494,135
470,160
543,117
469,143
517,121
574,114
573,93
495,157
546,122
613,87
612,98
492,125
572,104
571,123
570,104
610,90
575,145
547,158
516,133
611,109
542,138
569,130
609,93
548,230
549,259
1404,190
1405,168
1266,135
1193,107
743,29
742,35
747,39
746,40
745,49
744,17
790,17
789,12
839,0
838,3
738,47
739,48
740,36
890,64
834,37
784,32
889,47
856,323
855,300
854,297
853,265
852,215
910,292
909,281
908,238
964,232
965,284
1020,311
966,298
963,215
1021,409
1271,171
1270,171
1339,187
1338,200
1071,174
1072,198
1135,170
1408,345
1337,149
1269,145
1268,139
1136,188
1075,259
1077,318
1076,288
1019,281
1018,265
1074,220
1137,204
1272,180
1274,256
1275,290
1205,332
1204,317
1273,227
1198,139
1197,134
1341,201
1134,129
1133,125
1069,121
1132,108
1073,209
1203,283
1202,225
1201,198
1139,268
1267,131
1138,235
1340,193
1196,119
1342,227
1409,247
1485,293
1407,265
1561,219
1632,242
1484,314
1483,187
1562,210
1194,94
1130,87
1195,103
1335,148
1129,78
1066,68
1128,76
1067,98
1131,95
1334,244
1336,143
1265,117
1333,219
1406,165
857,348
803,3082
804,6559
860,6567
969,6520
913,6507
912,6445
861,6577
806,6620
659,75
751,91
658,80
705,87
702,64
706,92
753,146
614,90
701,46
661,85
616,94
848,129
796,102
797,108
798,126
750,86
707,153
615,101
748,84
845,123
846,133
657,106
749,107
795,102
617,111
663,176
794,104
847,129
849,150
902,157
901,177
900,226
793,42
899,111
898,90
897,55
844,101
842,33
841,20
956,136
792,31
843,79
840,40
850,163
903,137
800,186
755,203
756,223
710,253
711,298
962,203
961,196
904,150
906,216
851,211
802,202
801,195
799,183
959,212
1014,167
1013,160
708,425
709,399
754,315
757,371
1017,281
1016,202
960,147
905,216
958,198
957,223
1070,134
1015,159
1012,156
1068,102
1005,23
1004,41
1060,50
1063,38
1065,62
1127,73
1062,33
1124,55
1123,72
1125,44
1188,82
1122,103
1058,69
947,93
946,105
949,29
945,122
948,60
1190,53
1187,131
951,35
895,40
952,43
1009,57
1008,46
1010,6672
1007,36
1061,58
954,103
896,35
953,51
1126,81
1064,53
1189,50
955,151
950,21
892,16
786,19
836,34
837,10
787,27
700,50
655,77
654,54
653,76
698,48
699,84
608,89
696,50
656,74
833,45
785,25
835,32
693,55
894,45
893,8
1343,263
1192,336
1191,275
828,131
829,109
780,110
830,137
779,101
782,47
529,154
886,72
596,171
556,186
598,133
597,143
526,200
555,208
525,239
524,255
523,244
688,92
607,99
650,86
651,74
652,83
737,52
694,57
695,62
645,107
646,77
690,71
600,111
599,119
781,52
736,61
558,150
644,109
643,103
648,90
692,57
691,54
513,147
541,177
540,173
568,116
530,169
831,54
559,161
560,119
642,201
557,171
496,282
471,297
444,385
446,332
528,161
527,174
562,119
602,101
734,88
466,172
464,194
463,208
478,294
481,292
480,288
479,269
647,104
488,162
502,169
689,88
533,124
532,145
531,156
601,95
484,240
508,189
510,229
509,200
534,181
482,326
506,199
606,105
455,410
429,276
456,382
457,362
428,333
458,308
554,272
594,310
640,207
639,266
551,266
681,407
636,395
635,369
590,311
778,124
777,140
485,260
486,252
462,232
563,152
885,104
943,851
564,185
641,201
504,190
503,182
501,202
500,250
561,141
254,325
350,267
321,297
319,291
251,333
375,246
347,261
687,109
565,216
539,157
511,290
536,251
649,103
603,141
605,1406
733,107
735,77
489,173
514,160
461,858
460,834
459,812
468,133
154,965
178,920
203,905
228,375
402,273
401,338
505,205
522,285
451,929
452,923
477,350
476,370
483,296
884,142
431,244
430,255
454,863
595,217
395,482
394,769
422,889
417,396
390,442
538,130
567,111
426,869
397,365
398,386
499,1053
475,994
497,332
498,314
311,314
342,323
345,280
421,807
515,150
472,936
448,967
473,992
474,1037
353,238
381,218
256,301
290,277
324,260
380,235
407,225
253,879
226,895
201,920
177,939
824,176
775,147
826,139
939,187
936,1318
937,215
880,249
566,243
2821,65535
2834,65535
2833,65535
2789,65535
2790,65535
2770,65535
2788,65535
2776,65535
2795,65535
2775,65535
2794,65535
2825,65535
2824,65535
2826,65535
2811,65535
2812,65535
2796,65535
2827,65535
2858,65535
2855,65535
2849,65535
2838,65535
2814,65535
2813,65535
2828,65535
2839,65535
2791,65535
2792,65535
2803,65535
2830,65535
2815,65535
2819,65535
2818,65535
2817,65535
2831,65535
2810,65535
2829,65535
2783,65535
2820,65535
2804,65535
2785,65535
2784,65535
2762,65535
2768,65535
2751,65535
2750,65535
2733,65535
2769,65535
2720,65535
2761,65535
2741,65535
2837,65535
2793,65535
2808,65535
2753,65535
2736,65535
2735,65535
2809,65535
2772,65535
2845,65535
2844,65535
2848,65535
2777,65535
2778,65535
2779,65535
2759,65535
2780,65535
2797,65535
2843,65535
2832,65535
2842,65535
2758,65535
2738,65535
2774,65535
2773,65535
2771,65535
2851,65535
2847,65535
2854,65535
2721,65535
2756,65535
2737,65535
2840,65535
2752,65535
2754,65535
2755,65535
2852,65535
2853,65535
2856,65535
2841,65535
2742,65535
2727,65535
2744,65535
2726,65535
2743,65535
2725,65535
2746,65535
2787,65535
2766,65535
2763,65535
2765,65535
2745,65535
2764,65535
2552,65535
2501,65535
2443,65535
2442,65535
2320,65535
2381,65535
2382,65535
2498,65535
2499,65535
2438,65535
2439,65535
2497,65535
2441,65535
2379,65535
2380,65535
2319,65535
2551,65535
2550,65535
2563,7077
2321,3733
2322,3702
2383,3714
2384,4425
2446,4468
2445,4476
2503,4495
2385,4459
2504,7198
2505,7220
2557,7244
2558,7269
2559,7293
2560,7257
2564,7033
2562,7145
2561,7185
2605,7200
2609,4784
2565,4729
2566,4714
2515,4659
2397,3079
2457,4640
2458,4624
2401,3251
2337,2992
2336,2996
2399,3038
2398,3059
2402,3285
2333,3216
2273,3251
2219,3275
2218,3287
2159,3312
2454,5344
2393,5310
2512,7044
2502,7829
2608,7463
2156,3434
2155,3466
2154,3495
2213,3511
2212,3523
2211,3571
2210,3612
2264,3619
2324,3653
2323,3669
2030,65535
2094,65535
2157,3398
2450,7441
2388,7490
2387,7558
2326,7595
2266,3800
2265,3755
2508,7412
2396,3148
2335,3166
2334,3177
2158,3337
2279,6865
2278,6829
2222,6798
2221,6780
2276,6762
2275,2364
2261,5247
2207,6105
2149,6164
2554,4547
2599,4577
2633,4615
2664,4650
2689,4687
2690,4713
2691,4729
2692,4753
2152,5858
2089,6566
2088,5904
2025,6699
2603,65535
2602,65535
2556,65535
2693,6692
2671,8475
2670,8455
2694,8414
2553,65535
2665,65535
2705,65535
2710,65535
2668,65535
2639,65535
2463,6106
2521,6142
2572,6165
2451,7326
2390,7295
2391,7115
2392,5752
2215,7320
2268,65535
2093,65535
2092,65535
2028,65535
2024,5934
2150,3972
2086,4002
2209,3959
2023,5073
2087,5026
2148,8119
2262,5232
2327,65535
1560,224
1630,318
1631,289
1559,358
1629,411
1558,408
1634,243
1633,227
1482,262
1481,347
1699,260
1700,276
1701,282
1563,263
2070,1018
2008,1014
2009,1014
1959,1008
1958,990
2006,972
1957,960
1956,966
2193,1267
2132,1209
1912,1032
1911,1025
1865,848
1866,885
2007,994
2069,1000
2010,1053
2011,1140
1961,1045
2072,1069
1913,981
1867,918
1962,1078
1914,1087
1915,1120
1909,941
1636,300
1635,288
1564,269
1702,320
1637,322
1638,362
1565,307
1486,306
1760,474
1704,336
1703,323
1763,439
1762,367
1817,408
1705,736
1863,856
1815,906
1759,298
863,1328
758,1421
808,1372
982,1543
1036,1550
1099,1585
1100,1613
1166,2014
1167,2509
1237,2166
1238,2201
1375,2271
1308,2340
1309,2249
1236,2467
1235,2101
1101,1644
1037,1581
971,1124
1025,1107
1026,1122
1027,1135
1089,1148
720,1384
674,1430
864,1210
865,1231
919,1126
1024,1071
975,1245
974,1215
1028,1170
873,1570
925,1516
924,1493
917,1190
918,1166
623,1605
712,1477
713,1510
667,1515
622,1573
809,1358
719,1358
765,1319
972,1156
868,1268
869,1280
815,1299
920,1535
973,1201
981,1494
926,1595
927,1603
928,1627
1354,1120
1288,1061
1218,1037
1152,1106
1023,1035
1353,1134
1085,1015
1148,945
1147,938
1082,889
772,1656
771,1613
819,1588
584,1504
628,1471
629,1460
1033,1391
978,1346
1031,1319
1030,1273
1029,1256
1091,1233
1035,1472
1034,1415
979,1373
1526,2390
1449,2428
1378,2456
1448,2379
1524,2357
1038,1628
1447,2420
1768,876
1710,891
1767,856
391,422
365,383
339,369
400,346
393,910
392,894
396,408
399,362
443,991
449,906
450,873
419,879
414,1032
415,939
387,932
388,925
389,870
282,425
281,386
314,404
313,384
405,205
411,1234
442,1193
255,358
376,253
373,331
278,325
275,871
248,906
335,940
334,944
306,908
307,896
176,955
225,414
320,845
249,906
287,342
285,841
776,142
731,155
315,342
316,873
204,978
440,153
439,145
166,1425
269,1342
383,1280
1247,3910
1246,3932
1384,4016
1679,4178
1178,3903
1105,2569
1172,2588
1173,2638
1242,2640
1241,2632
1314,2789
1313,2695
1171,2614
1382,2895
1243,2837
1317,2976
1107,2577
1108,2756
1109,3041
1041,2586
1043,2796
1042,2787
1044,2850
1176,3804
1174,2863
1177,3852
1110,3859
985,2632
986,2675
932,2693
774,170
730,152
825,192
728,177
729,161
727,871
682,181
684,167
685,178
732,158
683,207
2134,1368
2194,1391
2068,950
2129,978
1905,440
1907,912
1906,877
1953,785
2002,808
2064,817
2125,830
2137,1827
2196,1498
2195,1444
1859,396
1810,386
1755,321
2131,1081
2192,1119
1862,819
1861,780
1812,743
1860,893
1809,775
1756,282
1869,986
1822,900
1821,939
1916,1038
1819,837
1764,755
1820,892
1698,267
1757,274
1566,363
1567,380
1488,354
1489,455
1412,266
1413,286
1414,276
1818,799
1568,836
1410,286
2128,984
2189,1114
2066,898
2065,840
2067,944
1643,838
1571,305
1491,282
2004,896
2003,848
1697,296
2135,1409
2075,1138
1642,818
1955,971
2130,1000
2005,1065
1858,401
1816,8008
1864,8001
1766,841
1910,981
1868,1002
2188,1195
2127,1164
1903,798
2001,838
2063,1351
2062,1113
1813,703
1758,273
1639,405
1640,362
1952,850
2126,8090
1569,316
1965,1302
1966,1348
2014,1298
1490,279
1917,990
1870,911
1871,924
1570,294
1707,846
2076,1190
2013,1094
1964,1047
1487,337
1908,1057
2251,3201
2199,3145
2198,3008
2136,1396
1641,810
1954,1048
1765,804
1857,416
2187,1516
1904,802
1856,777
1951,863
1708,1054
245,8319
244,8302
357,8306
246,8434
247,8463
197,8557
223,8535
44,8899
43,8959
3,9095
23,9069
22,9058
63,8841
85,8783
84,8738
108,8238
149,8192
172,8583
296,8286
294,8334
355,8434
354,8466
326,8544
295,8443
291,8455
293,8577
260,8463
356,8494
441,8094
412,8117
329,8452
300,8396
148,8166
214,8404
146,8287
110,8368
262,8429
258,8842
292,8605
257,8907
235,8427
187,8327
212,8383
211,8410
186,8331
162,8305
161,8384
165,8283
189,8483
238,8564
237,8529
263,8465
265,8484
266,8462
267,8450
268,8290
26,9059
25,9027
105,65535
62,65535
83,65535
126,8405
175,8840
152,8774
151,8764
150,8723
103,8343
242,8236
191,8190
192,8241
217,8264
218,8317
145,8227
144,8311
167,8219
190,8197
219,8334
159,8431
185,8375
158,8488
188,8319
160,8396
143,65535
122,65535
75,65535
54,65535
198,8968
270,8331
221,8372
301,8429
302,8266
330,8293
331,8315
115,8367
133,8426
139,8323
134,8400
114,8924
48,65535
69,65535
92,8600
164,8393
4,65535
107,8745
129,8830
109,8270
125,8311
124,8285
127,65535
82,65535
67,65535
91,8768
93,8567
137,8702
113,8722
112,8680
136,65535
49,65535
72,65535
71,65535
406,265
805,6610
858,6415
859,6556
967,594
1142,729
1080,6255
1022,6296
1079,6288
968,6411
1206,686
915,6562
916,6597
914,6534
807,6649
911,7756
1078,6512
1207,744
1278,788
1277,791
1344,811
1415,852
1492,907
1345,868
1346,838
1208,736
1209,816
1143,853
1144,869
1145,884
1417,864
1493,924
1494,943
1572,958
1081,6581
970,6784
408,201
382,218
437,177
467,169
409,184
403,294
432,292
433,236
404,264
352,272
351,275
349,866
317,329
374,255
346,316
283,397
410,157
438,173
465,190
490,176
491,148
435,215
436,199
379,308
323,381
289,411
377,295
378,242
592,866
593,837
552,281
445,376
424,929
423,885
416,930
361,895
362,865
371,338
372,308
343,867
344,884
286,976
227,888
252,398
284,364
318,348
250,960
312,325
340,362
368,401
369,436
370,932
341,873
367,406
308,907
276,851
277,831
280,953
310,344
338,391
366,900
274,890
305,1092
420,879
363,852
418,853
550,6601
579,6624
576,6569
577,6581
578,6597
520,6577
618,6591
662,6621
619,6608
620,6621
621,6615
665,6597
666,6589
664,6617
580,6636
2260,65535
2257,65535
2206,65535
2146,65535
2314,65535
2313,65535
2312,65535
2373,65535
2256,65535
2205,65535
2434,65535
2435,65535
2375,65535
2376,65535
2433,65535
2491,65535
2490,65535
2492,65535
2546,65535
2597,65535
2596,65535
2544,65535
2145,65535
2082,65535
2020,65535
2494,65535
0,65535
11,65535
1052,1588
1053,1575
941,1615
1740,1452
1796,1493
1615,1279
1681,1396
1545,1148
1797,1493
1544,1174
1741,1400
1795,1690
1617,1239
1546,1205
1616,1198
1683,1241
1467,1113
1547,1178
1465,1197
1387,1179
1388,1161
1464,1244
1462,1579
1461,1600
1542,1664
1463,1543
1682,1366
1543,1233
1618,1308
1742,1600
1460,1766
1248,1296
1850,767
1801,738
1803,466
882,139
881,149
938,198
883,159
940,2358
1998,890
1902,861
1807,737
1691,358
1694,973
1693,832
1749,378
1752,766
1753,798
1627,546
1628,921
1557,486
1479,239
1402,221
1808,710
1946,955
1947,900
1948,862
1997,902
1855,753
1690,326
2060,1077
1949,959
1950,881
1751,729
1692,389
1999,886
1901,825
1900,766
1852,738
1853,700
1805,420
1750,407
1854,853
1806,771
1748,439
2061,1072
2000,913
1804,731
1899,787
2884,65535
2892,65535
2883,65535
2876,65535
2874,65535
2882,65535
2877,65535
2911,65535
2905,65535
2906,65535
2896,65535
2887,65535
2881,65535
2880,65535
2888,65535
2902,65535
2903,65535
2907,65535
2912,65535
2895,65535
2894,65535
2875,65535
2885,65535
2893,65535
2904,65535
2865,65535
2866,65535
2909,65535
2913,65535
2886,65535
2878,65535
2869,65535
2871,65535
2872,65535
2879,65535
2870,65535
1330,275
1331,228
1401,226
1262,237
1263,229
1478,239
1403,216
1261,247
1480,227
1264,282
1390,1093
1389,1152
1319,1130
1251,1185
1250,1261
1285,962
1284,966
1214,938
1146,904
1505,1187
1504,1121
1582,1159
1581,1087
1713,1066
1771,1048
1654,1198
1653,1171
1651,1123
2096,2302
2033,2262
1972,2233
1923,2165
1922,2143
1874,1837
1873,1550
1919,1503
1829,2514
1579,1023
1424,1015
1711,1040
1348,864
1419,884
1359,1291
1429,1242
1428,1228
1421,941
1577,975
1499,948
1230,1535
1365,1472
1511,1394
1300,1517
1366,1489
1512,1422
1716,1256
1503,1533
1276,818
1347,848
1349,896
1645,1032
1578,1010
1770,1044
1715,1099
1150,1003
1217,1017
1149,979
1580,1049
1352,1056
1502,1038
1825,1456
1718,1411
1717,1385
1872,1489
1656,1300
1648,1075
1712,1052
1213,928
1212,909
1084,950
1420,930
1281,854
1282,915
1587,1294
1586,1261
1585,1250
1652,1218
1427,1396
1975,2337
1977,2405
1932,2475
1931,3100
1426,1116
1422,958
1425,1101
1583,1187
1501,1045
1283,956
1286,1003
1215,988
1211,885
1210,859
1083,921
1655,1289
2220,2343
1355,5411
1772,1057
1436,1440
1435,1430
1589,1363
1163,1568
1735,2688
1791,2621
1841,2598
1840,2554
1219,1120
1220,1159
1647,1061
1646,1053
1279,806
1714,1076
1575,1035
1576,997
1498,1005
1573,1047
1496,1065
1497,1036
2177,2485
2176,2555
2294,2472
2293,2591
2237,2532
2236,2561
2364,2333
2302,2273
2301,2195
2245,2097
2056,2227
2057,2313
2055,2206
2184,2258
2120,2264
2244,2178
2538,2518
2537,2499
2591,2615
1940,2390
1989,2398
1990,2334
2539,2518
2482,2509
2483,2471
2424,2367
2121,2325
2119,2138
2050,2447
2049,2525
2048,2943
2185,2291
2243,2017
2299,2231
2241,2180
2485,2549
2542,2604
2353,2563
2292,2470
2419,2357
2478,2404
2479,2439
2536,2466
2484,2510
2486,2503
2354,2402
2416,2579
2242,2225
2355,2440
2300,2238
1991,2338
1992,2345
2477,2395
2534,2416
2535,2531
2588,2436
2587,2450
2630,2501
2051,2259
2116,2153
2175,2588
2586,65535
2541,2671
2178,2460
2179,2263
2240,2210
2239,2434
2238,2504
2052,2390
2053,2356
1987,2630
1988,2478
1939,2502
2594,2621
2593,2606
2358,2324
2357,2334
2420,2390
2247,2386
2427,2476
2428,2498
2181,2057
2180,2106
2417,2384
2590,2596
2297,2219
2361,2411
2362,2294
2423,2382
2422,2347
2174,2818
2356,2445
1941,2379
2365,2510
2112,2823
2047,2965
2182,2196
2359,2273
2533,3211
2295,2536
2115,2226
2632,2656
2631,2595
2186,2443
2298,2305
2360,2329
2235,2781
2291,2794
2487,2725
2246,2318
2425,3126
2117,2450
2543,2678
1893,65535
2421,2482
2476,2400
2592,2654
604,6586
