middle_point_id,reach_time_minutes
2835,65535
2836,65535
2806,65535
2822,65535
2823,65535
2807,65535
2846,65535
887,403
888,409
1326,509
1185,429
999,410
1057,499
1552,694
1120,414
1473,720
944,576
832,391
1257,495
1396,739
1622,835
1327,904
1184,419
1183,429
1324,871
1255,1404
1394,1272
1252,1574
1253,1600
1182,1605
1328,65535
1470,1304
1321,1554
1322,1495
1323,1445
1391,1567
1551,712
1393,1273
1472,958
1471,1244
1181,1934
1118,1619
1059,386
1121,402
1469,1381
1468,1621
1548,1403
1325,805
1625,652
1623,681
1258,459
1256,554
791,280
891,369
703,237
704,231
660,233
1553,708
1624,667
1554,711
1474,720
1475,757
1550,1029
1549,1326
1320,1566
1466,1603
1541,2200
1318,1679
1249,1701
1186,435
1003,369
1002,378
741,332
788,303
434,374
697,351
752,250
1056,432
1006,347
907,88
518,275
1011,319
1000,393
1055,2102
997,2071
994,1965
996,2037
995,2021
991,1812
1112,4445
1114,2052
1051,2015
1398,852
1395,750
1001,384
1811,556
1960,756
1769,622
1823,640
1329,65535
1332,432
1259,2216
1200,301
1199,295
1140,219
1141,217
783,383
1689,798
1802,1200
1945,1916
2183,2398
2418,2847
1994,1952
1995,2348
2059,1291
1621,65535
1555,607
1754,641
1180,1650
1106,3045
933,3206
827,488
2122,2813
2124,809
493,282
519,275
544,267
545,268
494,282
470,302
543,272
469,298
517,286
574,271
573,259
495,298
546,273
613,249
612,252
492,290
572,265
571,310
570,321
610,330
575,324
547,318
516,308
611,261
542,295
569,338
609,345
548,350
549,379
1404,387
1405,371
1266,338
1193,347
743,323
742,322
747,271
746,284
745,293
744,305
790,284
789,293
839,308
838,308
738,389
739,384
740,362
890,364
834,385
784,374
889,384
856,0
855,9
854,17
853,49
852,116
910,35
909,43
908,82
964,92
965,104
1020,143
966,70
963,109
1021,169
1271,302
1270,299
1339,307
1338,320
1071,254
1072,258
1135,278
1408,343
1337,337
1269,314
1268,340
1136,342
1075,207
1077,210
1076,174
1019,167
1018,195
1074,298
1137,325
1272,313
1274,346
1275,387
1205,332
1204,299
1273,347
1198,311
1197,346
1341,402
1134,293
1133,288
1069,274
1132,290
1073,267
1203,283
1202,342
1201,318
1139,224
1267,328
1138,355
1340,313
1196,323
1342,389
1409,320
1485,368
1407,369
1561,446
1632,451
1484,409
1483,405
1562,436
1194,306
1130,303
1195,312
1335,341
1129,330
1066,335
1128,382
1067,338
1131,299
1334,434
1336,374
1265,357
1333,422
1406,400
857,828
803,3562
804,7039
860,7047
969,7000
913,6987
912,6925
861,7057
806,7100
659,234
751,228
658,247
705,236
702,253
706,243
753,244
614,244
701,259
661,242
616,248
848,181
796,221
797,228
798,218
750,234
707,273
615,281
748,271
845,211
846,193
657,286
749,254
795,235
617,291
663,296
794,263
847,182
849,173
902,188
901,198
900,226
793,277
899,291
898,256
897,270
844,236
842,298
841,288
956,807
792,278
843,248
840,306
850,153
903,171
800,161
755,173
756,223
710,253
711,298
962,151
961,161
904,148
906,92
851,112
802,127
801,165
799,191
959,212
1014,227
1013,280
708,905
709,879
754,195
757,251
1017,204
1016,262
960,197
905,101
958,320
957,1266
1070,261
1015,209
1012,320
1068,291
1005,345
1004,352
1060,392
1063,349
1065,360
1127,387
1062,346
1124,384
1123,407
1125,366
1188,411
1122,408
1058,397
947,406
946,428
949,342
945,422
948,369
1190,533
1187,432
951,348
895,338
952,344
1009,346
1008,351
1010,331
1007,346
1061,363
954,353
896,305
953,356
1126,375
1064,349
1189,513
955,821
950,331
892,325
786,328
836,325
837,313
787,320
700,290
655,317
654,324
653,343
698,364
699,312
608,377
696,339
656,314
833,388
785,342
835,345
693,373
894,345
893,320
1343,383
1192,506
1191,515
828,478
829,464
780,417
830,459
779,461
782,384
529,480
886,402
596,531
556,532
598,480
597,513
526,554
555,569
525,568
524,557
523,550
688,439
607,396
650,431
651,380
652,387
737,391
694,358
695,344
645,436
646,413
690,404
600,465
599,467
781,396
736,400
558,485
644,457
643,463
648,416
692,389
691,398
513,451
541,357
540,418
568,439
530,519
831,410
559,488
560,527
642,547
557,499
496,581
471,597
444,670
446,617
528,485
527,492
562,479
602,448
734,426
466,377
464,353
463,367
478,578
481,561
480,617
479,600
647,428
488,391
502,492
689,431
533,510
532,523
531,537
601,485
484,467
508,473
510,491
509,501
534,487
482,546
506,560
606,425
455,651
429,494
456,643
457,586
428,552
458,534
554,610
594,624
640,567
639,589
551,581
681,605
636,626
635,644
590,599
778,477
777,482
485,449
486,462
462,431
563,530
885,464
943,1331
564,555
641,561
504,545
503,509
501,502
500,560
561,517
254,505
350,451
321,473
319,489
251,530
375,439
347,494
687,469
565,517
539,468
511,474
536,507
649,451
603,514
605,663
733,447
735,409
489,408
514,437
461,591
460,578
459,554
468,297
154,638
178,601
203,571
228,549
402,496
401,503
505,565
522,582
451,657
452,628
477,568
476,515
483,526
884,502
431,455
430,517
454,580
595,577
395,638
394,657
422,749
417,639
390,637
538,450
567,405
426,620
397,593
398,578
499,655
475,636
497,584
498,610
311,494
342,515
345,474
421,726
515,398
472,681
448,712
473,736
474,777
353,502
381,475
256,600
290,580
324,564
380,529
407,465
253,546
226,571
201,600
177,641
824,656
775,537
826,499
939,547
936,1798
937,613
880,565
566,492
2821,65535
2834,65535
2833,65535
2789,65535
2790,65535
2770,65535
2788,65535
2776,65535
2795,65535
2775,65535
2794,65535
2825,65535
2824,65535
2826,65535
2811,65535
2812,65535
2796,65535
2827,65535
2858,65535
2855,65535
2849,65535
2838,65535
2814,65535
2813,65535
2828,65535
2839,65535
2791,65535
2792,65535
2803,65535
2830,65535
2815,65535
2819,65535
2818,65535
2817,65535
2831,65535
2810,65535
2829,65535
2783,65535
2820,65535
2804,65535
2785,65535
2784,65535
2762,65535
2768,65535
2751,65535
2750,65535
2733,65535
2769,65535
2720,65535
2761,65535
2741,65535
2837,65535
2793,65535
2808,65535
2753,65535
2736,65535
2735,65535
2809,65535
2772,65535
2845,65535
2844,65535
2848,65535
2777,65535
2778,65535
2779,65535
2759,65535
2780,65535
2797,65535
2843,65535
2832,65535
2842,65535
2758,65535
2738,65535
2774,65535
2773,65535
2771,65535
2851,65535
2847,65535
2854,65535
2721,65535
2756,65535
2737,65535
2840,65535
2752,65535
2754,65535
2755,65535
2852,65535
2853,65535
2856,65535
2841,65535
2742,65535
2727,65535
2744,65535
2726,65535
2743,65535
2725,65535
2746,65535
2787,65535
2766,65535
2763,65535
2765,65535
2745,65535
2764,65535
2552,65535
2501,65535
2443,65535
2442,65535
2320,65535
2381,65535
2382,65535
2498,65535
2499,65535
2438,65535
2439,65535
2497,65535
2441,65535
2379,65535
2380,65535
2319,65535
2551,65535
2550,65535
2563,7557
2321,4213
2322,4182
2383,4194
2384,4905
2446,4948
2445,4956
2503,4975
2385,4939
2504,7678
2505,7700
2557,7724
2558,7749
2559,7773
2560,7737
2564,7513
2562,7625
2561,7665
2605,7680
2609,5264
2565,5209
2566,5194
2515,5139
2397,3559
2457,5120
2458,5104
2401,3731
2337,3472
2336,3476
2399,3518
2398,3539
2402,3765
2333,3696
2273,3731
2219,3755
2218,3767
2159,3792
2454,5824
2393,5790
2512,7524
2502,8309
2608,7943
2156,3914
2155,3946
2154,3975
2213,3991
2212,4003
2211,4051
2210,4092
2264,4099
2324,4133
2323,4149
2030,65535
2094,65535
2157,3878
2450,7921
2388,7970
2387,8038
2326,8075
2266,4280
2265,4235
2508,7892
2396,3628
2335,3646
2334,3657
2158,3817
2279,7345
2278,7309
2222,7278
2221,7260
2276,7242
2275,2844
2261,5727
2207,6585
2149,6644
2554,5027
2599,5057
2633,5095
2664,5130
2689,5167
2690,5193
2691,5209
2692,5233
2152,6338
2089,7046
2088,6384
2025,7179
2603,65535
2602,65535
2556,65535
2693,7172
2671,8955
2670,8935
2694,8894
2553,65535
2665,65535
2705,65535
2710,65535
2668,65535
2639,65535
2463,6586
2521,6622
2572,6645
2451,7806
2390,7775
2391,7595
2392,6232
2215,7800
2268,65535
2093,65535
2092,65535
2028,65535
2024,6414
2150,4452
2086,4482
2209,4439
2023,5553
2087,5506
2148,8599
2262,5712
2327,65535
1560,473
1630,501
1631,459
1559,510
1629,562
1558,513
1634,456
1633,452
1482,382
1481,456
1699,462
1700,478
1701,461
1563,444
2070,783
2008,772
2009,779
1959,752
1958,714
2006,739
1957,710
1956,703
2193,1396
2132,1367
1912,788
1911,803
1865,652
1866,751
2007,777
2069,812
2010,823
2011,909
1961,793
2072,839
1913,817
1867,848
1962,835
1914,844
1915,800
1909,738
1636,491
1635,480
1564,461
1702,535
1637,497
1638,466
1565,465
1486,431
1760,632
1704,522
1703,508
1763,554
1762,527
1817,531
1705,547
1863,1310
1815,1386
1759,497
863,1808
758,1901
808,1852
982,2023
1036,2030
1099,2065
1100,2093
1166,2494
1167,2989
1237,2646
1238,2681
1375,2751
1308,2820
1309,2729
1236,2947
1235,2581
1101,2124
1037,2061
971,1604
1025,1587
1026,1602
1027,1615
1089,1628
720,1864
674,1910
864,1690
865,1711
919,1606
1024,1551
975,1725
974,1695
1028,1650
873,2050
925,1996
924,1973
917,1670
918,1646
623,2085
712,1957
713,1990
667,1995
622,2053
809,1838
719,1838
765,1799
972,1636
868,1748
869,1760
815,1779
920,2015
973,1681
981,1974
926,2075
927,2083
928,2107
1354,1600
1288,1541
1218,1517
1152,1586
1023,1515
1353,1614
1085,1495
1148,1425
1147,1418
1082,1369
772,2136
771,2093
819,2068
584,1984
628,1951
629,1940
1033,1871
978,1826
1031,1799
1030,1753
1029,1736
1091,1713
1035,1952
1034,1895
979,1853
1526,2870
1449,2908
1378,2936
1448,2859
1524,2837
1038,2108
1447,2900
1768,633
1710,575
1767,585
391,609
365,571
339,548
400,526
393,689
392,655
396,645
399,551
443,691
449,695
450,818
419,632
414,810
415,723
387,746
388,684
389,667
282,599
281,593
314,602
313,581
405,415
411,1714
442,1673
255,520
376,482
373,492
278,505
275,570
248,599
335,679
334,653
306,625
307,601
176,614
225,554
320,525
249,614
287,535
285,537
776,496
731,515
315,562
316,541
204,590
440,317
439,329
166,1905
269,1822
383,1760
1247,4390
1246,4412
1384,4496
1679,4658
1178,4383
1105,3049
1172,3068
1173,3118
1242,3120
1241,3112
1314,3269
1313,3175
1171,3094
1382,3375
1243,3317
1317,3456
1107,3057
1108,3236
1109,3521
1041,3066
1043,3276
1042,3267
1044,3330
1176,4284
1174,3343
1177,4332
1110,4339
985,3112
986,3155
932,3173
774,544
730,521
825,552
728,566
729,536
727,578
682,581
684,558
685,538
732,519
683,562
2134,1361
2194,1362
2068,1211
2129,1265
1905,661
1907,622
1906,628
1953,672
2002,724
2064,760
2125,779
2137,1601
2196,1555
2195,1502
1859,563
1810,606
1755,515
2131,793
2192,830
1862,1299
1861,608
1812,553
1860,577
1809,680
1756,505
1869,644
1822,629
1821,662
1916,682
1819,587
1764,573
1820,595
1698,468
1757,510
1566,548
1567,449
1488,422
1489,439
1412,395
1413,401
1414,422
1818,561
1568,539
1410,353
2128,1296
2189,1323
2066,1261
2065,1250
2067,1262
1643,554
1571,506
1491,469
2004,1291
2003,825
1697,489
2135,1313
2075,1237
1642,532
1955,670
2130,1480
2005,770
1858,622
1816,8488
1864,8481
1766,578
1910,1286
1868,635
2188,1675
2127,1644
1903,743
2001,853
2063,1302
2062,1314
1813,516
1758,496
1639,478
1640,520
1952,745
2126,8570
1569,545
1965,789
1966,835
2014,852
1490,434
1917,696
1870,685
1871,699
1570,491
1707,528
2076,918
2013,1286
1964,793
1487,405
1908,1249
2251,3681
2199,3625
2198,3488
2136,1300
1641,553
1954,1306
1765,589
1857,670
2187,925
1904,721
1856,721
1951,782
1708,1323
245,8799
244,8782
357,8786
246,8914
247,8943
197,9037
223,9015
44,9379
43,9439
3,9575
23,9549
22,9538
63,9321
85,9263
84,9218
108,8718
149,8672
172,9063
296,8766
294,8814
355,8914
354,8946
326,9024
295,8923
291,8935
293,9057
260,8943
356,8974
441,8574
412,8597
329,8932
300,8876
148,8646
214,8884
146,8767
110,8848
262,8909
258,9322
292,9085
257,9387
235,8907
187,8807
212,8863
211,8890
186,8811
162,8785
161,8864
165,8763
189,8963
238,9044
237,9009
263,8945
265,8964
266,8942
267,8930
268,8770
26,9539
25,9507
105,65535
62,65535
83,65535
126,8885
175,9320
152,9254
151,9244
150,9203
103,8823
242,8716
191,8670
192,8721
217,8744
218,8797
145,8707
144,8791
167,8699
190,8677
219,8814
159,8911
185,8855
158,8968
188,8799
160,8876
143,65535
122,65535
75,65535
54,65535
198,9448
270,8811
221,8852
301,8909
302,8746
330,8773
331,8795
115,8847
133,8906
139,8803
134,8880
114,9404
48,65535
69,65535
92,9080
164,8873
4,65535
107,9225
129,9310
109,8750
125,8791
124,8765
127,65535
82,65535
67,65535
91,9248
93,9047
137,9182
113,9202
112,9160
136,65535
49,65535
72,65535
71,65535
406,481
805,7090
858,6895
859,7036
967,1074
1142,1209
1080,6735
1022,6776
1079,6768
968,6891
1206,1166
915,7042
916,7077
914,7014
807,7129
911,8236
1078,6992
1207,1224
1278,1268
1277,1271
1344,1291
1415,1332
1492,1387
1345,1348
1346,1318
1208,1216
1209,1296
1143,1333
1144,1349
1145,1364
1417,1344
1493,1404
1494,1423
1572,1438
1081,7061
970,7264
408,512
382,498
437,372
467,342
409,510
403,466
432,549
433,525
404,430
352,569
351,555
349,501
317,645
374,471
346,479
283,573
410,439
438,430
465,378
490,370
491,322
435,421
436,372
379,634
323,691
289,642
377,467
378,491
592,604
593,645
552,560
445,647
424,672
423,674
416,678
361,688
362,673
371,627
372,609
343,534
344,520
286,572
227,538
252,566
284,547
318,529
250,558
312,527
340,542
368,581
369,642
370,640
341,573
367,602
308,593
276,585
277,565
280,618
310,523
338,570
366,632
274,645
305,637
420,668
363,644
418,615
550,7081
579,7104
576,7049
577,7061
578,7077
520,7057
618,7071
662,7101
619,7088
620,7101
621,7095
665,7077
666,7069
664,7097
580,7116
2260,65535
2257,65535
2206,65535
2146,65535
2314,65535
2313,65535
2312,65535
2373,65535
2256,65535
2205,65535
2434,65535
2435,65535
2375,65535
2376,65535
2433,65535
2491,65535
2490,65535
2492,65535
2546,65535
2597,65535
2596,65535
2544,65535
2145,65535
2082,65535
2020,65535
2494,65535
0,65535
11,65535
1052,2068
1053,2055
941,2095
1740,1932
1796,1973
1615,1759
1681,1876
1545,1628
1797,1973
1544,1654
1741,1880
1795,2170
1617,1719
1546,1685
1616,1678
1683,1721
1467,1593
1547,1658
1465,1677
1387,1659
1388,1641
1464,1724
1462,2059
1461,2080
1542,2144
1463,2023
1682,1846
1543,1713
1618,1788
1742,2080
1460,2246
1248,1776
1850,1247
1801,1218
1803,946
882,499
881,508
938,558
883,519
940,2838
1998,1265
1902,889
1807,666
1691,714
1694,613
1693,1312
1749,738
1752,687
1753,644
1627,587
1628,561
1557,539
1479,433
1402,429
1808,655
1946,1435
1947,1380
1948,1284
1997,1280
1855,669
1690,686
2060,1390
1949,1439
1950,927
1751,730
1692,749
1999,1246
1901,1305
1900,1246
1852,1218
1853,1180
1805,829
1750,743
1854,889
1806,808
1748,787
2061,1340
2000,1294
1804,1211
1899,1267
2884,65535
2892,65535
2883,65535
2876,65535
2874,65535
2882,65535
2877,65535
2911,65535
2905,65535
2906,65535
2896,65535
2887,65535
2881,65535
2880,65535
2888,65535
2902,65535
2903,65535
2907,65535
2912,65535
2895,65535
2894,65535
2875,65535
2885,65535
2893,65535
2904,65535
2865,65535
2866,65535
2909,65535
2913,65535
2886,65535
2878,65535
2869,65535
2871,65535
2872,65535
2879,65535
2870,65535
1330,455
1331,438
1401,436
1262,477
1263,469
1478,479
1403,410
1261,486
1480,424
1264,467
1390,1573
1389,1632
1319,1610
1251,1665
1250,1741
1285,1442
1284,1446
1214,1418
1146,1384
1505,1667
1504,1601
1582,1639
1581,1567
1713,1546
1771,1528
1654,1678
1653,1651
1651,1603
2096,2782
2033,2742
1972,2713
1923,2645
1922,2623
1874,2317
1873,2030
1919,1983
1829,2994
1579,1503
1424,1495
1711,1520
1348,1344
1419,1364
1359,1771
1429,1722
1428,1708
1421,1421
1577,1455
1499,1428
1230,2015
1365,1952
1511,1874
1300,1997
1366,1969
1512,1902
1716,1736
1503,2013
1276,1298
1347,1328
1349,1376
1645,1512
1578,1490
1770,1524
1715,1579
1150,1483
1217,1497
1149,1459
1580,1529
1352,1536
1502,1518
1825,1936
1718,1891
1717,1865
1872,1969
1656,1780
1648,1555
1712,1532
1213,1408
1212,1389
1084,1430
1420,1410
1281,1334
1282,1395
1587,1774
1586,1741
1585,1730
1652,1698
1427,1876
1975,2817
1977,2885
1932,2955
1931,3580
1426,1596
1422,1438
1425,1581
1583,1667
1501,1525
1283,1436
1286,1483
1215,1468
1211,1365
1210,1339
1083,1401
1655,1769
2220,2823
1355,5891
1772,1537
1436,1920
1435,1910
1589,1843
1163,2048
1735,3168
1791,3101
1841,3078
1840,3034
1219,1600
1220,1639
1647,1541
1646,1533
1279,1286
1714,1556
1575,1515
1576,1477
1498,1485
1573,1527
1496,1545
1497,1516
2177,2965
2176,3035
2294,2952
2293,3071
2237,3012
2236,3041
2364,2813
2302,2753
2301,2675
2245,2577
2056,2707
2057,2793
2055,2686
2184,2738
2120,2744
2244,2658
2538,2998
2537,2979
2591,3095
1940,2870
1989,2878
1990,2814
2539,2998
2482,2989
2483,2951
2424,2847
2121,2805
2119,2618
2050,2927
2049,3005
2048,3423
2185,2771
2243,2497
2299,2711
2241,2660
2485,3029
2542,3084
2353,3043
2292,2950
2419,2837
2478,2884
2479,2919
2536,2946
2484,2990
2486,2983
2354,2882
2416,3059
2242,2705
2355,2920
2300,2718
1991,2818
1992,2825
2477,2875
2534,2896
2535,3011
2588,2916
2587,2930
2630,2981
2051,2739
2116,2633
2175,3068
2586,65535
2541,3151
2178,2940
2179,2743
2240,2690
2239,2914
2238,2984
2052,2870
2053,2836
1987,3110
1988,2958
1939,2982
2594,3101
2593,3086
2358,2804
2357,2814
2420,2870
2247,2866
2427,2956
2428,2978
2181,2537
2180,2586
2417,2864
2590,3076
2297,2699
2361,2891
2362,2774
2423,2862
2422,2827
2174,3298
2356,2925
1941,2859
2365,2990
2112,3303
2047,3445
2182,2676
2359,2753
2533,3691
2295,3016
2115,2706
2632,3136
2631,3075
2186,2923
2298,2785
2360,2809
2235,3261
2291,3274
2487,3205
2246,2798
2425,3606
2117,2930
2543,3158
1893,65535
2421,2962
2476,2880
2592,3134
604,7066
