middle_point_id,reach_time_minutes
2835,65535
2836,65535
2806,65535
2822,65535
2823,65535
2807,65535
2846,65535
887,1449
888,1427
1326,1540
1185,1478
999,1490
1057,1637
1552,1653
1120,1493
1473,1603
944,1498
832,1423
1257,1515
1396,1544
1622,1675
1327,1458
1184,1495
1183,1552
1324,1711
1255,1733
1394,1722
1252,1667
1253,1636
1182,1621
1328,65535
1470,1737
1321,1674
1322,1641
1323,1805
1391,1687
1551,1672
1393,1780
1472,1918
1471,1713
1181,1934
1118,1679
1059,1415
1121,1436
1469,1763
1468,1780
1548,1784
1325,1645
1625,1612
1623,1666
1258,1440
1256,1634
791,1311
891,1382
703,1299
704,1291
660,1295
1553,1649
1624,1627
1554,1670
1474,1618
1475,1653
1550,1682
1549,1731
1320,1732
1466,1784
1541,2200
1318,1846
1249,1869
1186,1496
1003,1401
1002,1411
741,1361
788,1333
434,1424
697,1369
752,1292
1056,1510
1006,1365
907,868
518,1349
1011,1269
1000,1448
1055,2102
997,2071
994,1965
996,2037
995,2021
991,1812
1112,4445
1114,2052
1051,2015
1398,1692
1395,1590
1001,1429
1811,1581
1960,1791
1769,1883
1823,1889
1329,65535
1332,1422
1259,2216
1200,1335
1199,1333
1140,1023
1141,1252
783,1418
1689,1759
1802,1820
1945,2281
2183,3838
2418,4344
1994,2315
1995,2348
2059,1897
1621,65535
1555,1567
1754,1660
1180,2783
1106,3045
933,3206
827,1568
2122,4579
2124,1940
493,1357
519,1355
544,1347
545,1348
494,1361
470,1382
543,1344
469,1367
517,1366
574,1345
573,1333
495,1379
546,1353
613,1329
612,1334
492,1377
572,1339
571,1360
570,1371
610,1387
575,1402
547,1398
516,1386
611,1401
542,1351
569,1388
609,1380
548,1430
549,1459
1404,1404
1405,1368
1266,1335
1193,1365
743,1345
742,1352
747,1325
746,1314
745,1322
744,1345
790,1322
789,1327
839,1339
838,1343
738,1415
739,1406
740,1371
890,1393
834,1408
784,1400
889,1414
856,786
855,827
854,885
853,896
852,887
910,846
909,855
908,861
964,872
965,884
1020,916
966,888
963,889
1021,1015
1271,1337
1270,1336
1339,1387
1338,1400
1071,1289
1072,1304
1135,1325
1408,1432
1337,1358
1269,1345
1268,1339
1136,1358
1075,1258
1077,1014
1076,976
1019,972
1018,946
1074,1318
1137,1347
1272,1380
1274,1426
1275,1488
1205,1357
1204,1379
1273,1427
1198,1326
1197,1311
1341,1483
1134,1310
1133,1295
1069,1275
1132,1285
1073,1310
1203,1363
1202,1422
1201,1353
1139,1302
1267,1331
1138,1376
1340,1385
1196,1301
1342,1469
1409,1404
1485,1441
1407,1393
1561,1461
1632,1501
1484,1430
1483,1416
1562,1452
1194,1325
1130,1330
1195,1315
1335,1345
1129,1352
1066,1358
1128,1391
1067,1375
1131,1306
1334,1444
1336,1336
1265,1355
1333,1419
1406,1365
857,0
803,3562
804,7039
860,7047
969,7000
913,6987
912,6925
861,7057
806,7100
659,1297
751,1280
658,1308
705,1294
702,1304
706,1302
753,994
614,1302
701,1318
661,1300
616,1358
848,930
796,1265
797,1013
798,963
750,1284
707,1371
615,1421
748,1351
845,1268
846,1283
657,1332
749,1313
795,1314
617,1371
663,1406
794,1337
847,992
849,893
902,968
901,982
900,1009
793,1308
899,1248
898,1256
897,1288
844,1311
842,1296
841,1310
956,1287
792,1301
843,1313
840,1313
850,888
903,950
800,906
755,923
756,947
710,1453
711,1498
962,931
961,977
904,928
906,872
851,882
802,912
801,920
799,926
959,994
1014,1301
1013,1310
708,2203
709,2178
754,1244
757,971
1017,1361
1016,1372
960,967
905,881
958,1335
957,1249
1070,1281
1015,1305
1012,1255
1068,1287
1005,1385
1004,1403
1060,1425
1063,1368
1065,1376
1127,1397
1062,1389
1124,1403
1123,1425
1125,1392
1188,1418
1122,1445
1058,1428
947,1394
946,1447
949,1389
945,1443
948,1386
1190,1418
1187,1428
951,1366
895,1336
952,1351
1009,1400
1008,1367
1010,1333
1007,1358
1061,1439
954,1312
896,1333
953,1353
1126,1406
1064,1366
1189,1477
955,1307
950,1385
892,1360
786,1368
836,1384
837,1352
787,1343
700,1349
655,1358
654,1370
653,1382
698,1358
699,1364
608,1403
696,1367
656,1355
833,1416
785,1388
835,1402
693,1392
894,1364
893,1351
1343,1435
1192,1449
1191,1475
828,1558
829,1544
780,1490
830,1539
779,1541
782,1421
529,1556
886,1452
596,1629
556,1612
598,1560
597,1613
526,1584
555,1596
525,1617
524,1630
523,1632
688,1472
607,1412
650,1394
651,1399
652,1402
737,1420
694,1378
695,1370
645,1487
646,1459
690,1441
600,1513
599,1499
781,1431
736,1430
558,1588
644,1489
643,1500
648,1438
692,1409
691,1425
513,1449
541,1377
540,1424
568,1410
530,1555
831,1434
559,1570
560,1559
642,1663
557,1579
496,1662
471,1696
444,1765
446,1729
528,1563
527,1603
562,1462
602,1447
734,1467
466,1427
464,1434
463,1462
478,1661
481,1584
480,1626
479,1651
647,1432
488,1463
502,1574
689,1468
533,1498
532,1510
531,1536
601,1519
484,1548
508,1505
510,1542
509,1515
534,1497
482,1645
506,1644
606,1429
455,1690
429,1519
456,1654
457,1624
428,1567
458,1546
554,1612
594,1663
640,1707
639,1749
551,1675
681,1774
636,1752
635,1737
590,1721
778,1565
777,1572
485,1530
486,1539
462,1511
563,1476
885,1484
943,2771
564,1527
641,1663
504,1624
503,1587
501,1583
500,1641
561,1530
254,1525
350,1473
321,1489
319,1548
251,1614
375,1506
347,1517
687,1519
565,1557
539,1491
511,1550
536,1577
649,1471
603,1487
605,1886
733,1487
735,1457
489,1467
514,1459
461,1569
460,1581
459,1601
468,1360
154,1659
178,1624
203,1594
228,1565
402,1503
401,1595
505,1644
522,1656
451,1878
452,1828
477,1707
476,1732
483,1571
884,1594
431,1474
430,1537
454,1720
595,1667
395,1739
394,1766
422,1850
417,1769
390,1717
538,1529
567,1452
426,1862
397,1677
398,1642
499,1707
475,1842
497,1676
498,1704
311,1578
342,1583
345,1517
421,1858
515,1433
472,2067
448,2028
473,1978
474,1857
353,1520
381,1514
256,1676
290,1600
324,1540
380,1563
407,1487
253,1623
226,1648
201,1661
177,1669
824,1736
775,1678
826,1579
939,1627
936,1798
937,1693
880,1601
566,1575
2821,65535
2834,65535
2833,65535
2789,65535
2790,65535
2770,65535
2788,65535
2776,65535
2795,65535
2775,65535
2794,65535
2825,65535
2824,65535
2826,65535
2811,65535
2812,65535
2796,65535
2827,65535
2858,65535
2855,65535
2849,65535
2838,65535
2814,65535
2813,65535
2828,65535
2839,65535
2791,65535
2792,65535
2803,65535
2830,65535
2815,65535
2819,65535
2818,65535
2817,65535
2831,65535
2810,65535
2829,65535
2783,65535
2820,65535
2804,65535
2785,65535
2784,65535
2762,65535
2768,65535
2751,65535
2750,65535
2733,65535
2769,65535
2720,65535
2761,65535
2741,65535
2837,65535
2793,65535
2808,65535
2753,65535
2736,65535
2735,65535
2809,65535
2772,65535
2845,65535
2844,65535
2848,65535
2777,65535
2778,65535
2779,65535
2759,65535
2780,65535
2797,65535
2843,65535
2832,65535
2842,65535
2758,65535
2738,65535
2774,65535
2773,65535
2771,65535
2851,65535
2847,65535
2854,65535
2721,65535
2756,65535
2737,65535
2840,65535
2752,65535
2754,65535
2755,65535
2852,65535
2853,65535
2856,65535
2841,65535
2742,65535
2727,65535
2744,65535
2726,65535
2743,65535
2725,65535
2746,65535
2787,65535
2766,65535
2763,65535
2765,65535
2745,65535
2764,65535
2552,65535
2501,65535
2443,65535
2442,65535
2320,65535
2381,65535
2382,65535
2498,65535
2499,65535
2438,65535
2439,65535
2497,65535
2441,65535
2379,65535
2380,65535
2319,65535
2551,65535
2550,65535
2563,7557
2321,4213
2322,4182
2383,4194
2384,4905
2446,4948
2445,4956
2503,4975
2385,4939
2504,7678
2505,7700
2557,7724
2558,7749
2559,7773
2560,7737
2564,7513
2562,7625
2561,7665
2605,7680
2609,5264
2565,5209
2566,5194
2515,5139
2397,3559
2457,5120
2458,5104
2401,3731
2337,3472
2336,3476
2399,3518
2398,3539
2402,3765
2333,3696
2273,3731
2219,3755
2218,3767
2159,3792
2454,5824
2393,5790
2512,7524
2502,8309
2608,7943
2156,3914
2155,3946
2154,3975
2213,3991
2212,4003
2211,4051
2210,4092
2264,4099
2324,4133
2323,4149
2030,65535
2094,65535
2157,3878
2450,7921
2388,7970
2387,8038
2326,8075
2266,4280
2265,4235
2508,7892
2396,3628
2335,3646
2334,3657
2158,3817
2279,7345
2278,7309
2222,7278
2221,7260
2276,7242
2275,2844
2261,5727
2207,6585
2149,6644
2554,5027
2599,5057
2633,5095
2664,5130
2689,5167
2690,5193
2691,5209
2692,5233
2152,6338
2089,7046
2088,6384
2025,7179
2603,65535
2602,65535
2556,65535
2693,7172
2671,8955
2670,8935
2694,8894
2553,65535
2665,65535
2705,65535
2710,65535
2668,65535
2639,65535
2463,6586
2521,6622
2572,6645
2451,7806
2390,7775
2391,7595
2392,6232
2215,7800
2268,65535
2093,65535
2092,65535
2028,65535
2024,6414
2150,4452
2086,4482
2209,4439
2023,5553
2087,5506
2148,8599
2262,5712
2327,65535
1560,1497
1630,1514
1631,1527
1559,1512
1629,1689
1558,1473
1634,1488
1633,1486
1482,1462
1481,1504
1699,1515
1700,1544
1701,1538
1563,1467
2070,1858
2008,1798
2009,1794
1959,1797
1958,1793
2006,1776
1957,1758
1956,1712
2193,1986
2132,1926
1912,1813
1911,1773
1865,1872
1866,1906
2007,1835
2069,1841
2010,1833
2011,1885
1961,1823
2072,1849
1913,1900
1867,1966
1962,1856
1914,1865
1915,1913
1909,1939
1636,1532
1635,1531
1564,1511
1702,1594
1637,1571
1638,1610
1565,1503
1486,1464
1760,1607
1704,1556
1703,1542
1763,1626
1762,1648
1817,1687
1705,1694
1863,1688
1815,1655
1759,1561
863,1808
758,1901
808,1852
982,2023
1036,2030
1099,2065
1100,2093
1166,2494
1167,2989
1237,2646
1238,2681
1375,2751
1308,2820
1309,2729
1236,2947
1235,2581
1101,2124
1037,2061
971,1604
1025,1587
1026,1602
1027,1615
1089,1628
720,1864
674,1910
864,1690
865,1711
919,1606
1024,1551
975,1725
974,1695
1028,1650
873,2050
925,1996
924,1973
917,1670
918,1646
623,2085
712,1957
713,1990
667,1995
622,2053
809,1838
719,1838
765,1799
972,1636
868,1748
869,1760
815,1779
920,2015
973,1681
981,1974
926,2075
927,2083
928,2107
1354,1600
1288,1541
1218,1517
1152,1586
1023,1515
1353,1614
1085,1495
1148,1425
1147,1418
1082,1369
772,2136
771,2093
819,2068
584,1984
628,1951
629,1940
1033,1871
978,1826
1031,1799
1030,1753
1029,1736
1091,1713
1035,1952
1034,1895
979,1853
1526,2870
1449,2908
1378,2936
1448,2859
1524,2837
1038,2108
1447,2900
1768,1887
1710,1848
1767,1913
391,1688
365,1650
339,1628
400,1603
393,1814
392,1790
396,1719
399,1660
443,1891
449,1929
450,1963
419,1752
414,1947
415,1793
387,1798
388,1763
389,1744
282,1680
281,1705
314,1681
313,1662
405,1436
411,1974
442,1933
255,1553
376,1723
373,1660
278,1645
275,1845
248,1935
335,1850
334,1827
306,1881
307,1870
176,1687
225,1664
320,1567
249,1708
287,1585
285,1616
776,1624
731,1635
315,1661
316,1643
204,1624
440,1380
439,1398
166,3345
269,3262
383,3200
1247,4390
1246,4412
1384,4496
1679,4658
1178,4383
1105,3049
1172,3068
1173,3118
1242,3120
1241,3112
1314,3269
1313,3175
1171,3094
1382,3375
1243,3317
1317,3456
1107,3057
1108,3236
1109,3521
1041,3066
1043,3276
1042,3267
1044,3330
1176,4284
1174,3343
1177,4332
1110,4339
985,3112
986,3155
932,3173
774,1684
730,1653
825,1692
728,1719
729,1661
727,1807
682,1716
684,1698
685,1648
732,1658
683,1942
2134,2083
2194,2073
2068,1883
2129,1937
1905,1695
1907,1644
1906,1634
1953,1825
2002,1866
2064,1885
2125,1907
2137,2307
2196,2260
2195,2217
1859,1626
1810,1682
1755,1561
2131,1907
2192,1944
1862,1794
1861,1747
1812,1605
1860,1729
1809,1698
1756,1546
1869,1897
1822,1902
1821,1906
1916,1926
1819,1686
1764,1661
1820,1845
1698,1522
1757,1532
1566,1602
1567,1588
1488,1562
1489,1499
1412,1478
1413,1470
1414,1443
1818,1738
1568,1554
1410,1440
2128,1960
2189,2001
2066,1929
2065,1952
2067,1934
1643,1827
1571,1625
1491,1578
2004,1917
2003,1904
1697,1544
2135,2078
2075,2059
1642,1800
1955,1683
2130,1957
2005,1728
1858,1710
1816,8488
1864,8481
1766,1932
1910,1926
1868,1888
2188,2106
2127,2077
1903,1859
2001,1922
2063,1919
2062,1910
1813,1856
1758,1543
1639,1790
1640,1621
1952,1868
2126,8570
1569,1564
1965,1963
1966,2008
2014,2029
1490,1517
1917,2041
1870,1934
1871,1948
1570,1664
1707,1884
2076,2102
2013,2004
1964,1957
1487,1544
1908,1936
2251,3681
2199,3625
2198,3488
2136,2065
1641,1818
1954,1783
1765,1905
1857,1735
2187,1996
1904,1837
1856,1845
1951,1835
1708,2763
245,8799
244,8782
357,8786
246,8914
247,8943
197,9037
223,9015
44,9379
43,9439
3,9575
23,9549
22,9538
63,9321
85,9263
84,9218
108,8718
149,8672
172,9063
296,8766
294,8814
355,8914
354,8946
326,9024
295,8923
291,8935
293,9057
260,8943
356,8974
441,8574
412,8597
329,8932
300,8876
148,8646
214,8884
146,8767
110,8848
262,8909
258,9322
292,9085
257,9387
235,8907
187,8807
212,8863
211,8890
186,8811
162,8785
161,8864
165,8763
189,8963
238,9044
237,9009
263,8945
265,8964
266,8942
267,8930
268,8770
26,9539
25,9507
105,65535
62,65535
83,65535
126,8885
175,9320
152,9254
151,9244
150,9203
103,8823
242,8716
191,8670
192,8721
217,8744
218,8797
145,8707
144,8791
167,8699
190,8677
219,8814
159,8911
185,8855
158,8968
188,8799
160,8876
143,65535
122,65535
75,65535
54,65535
198,9448
270,8811
221,8852
301,8909
302,8746
330,8773
331,8795
115,8847
133,8906
139,8803
134,8880
114,9404
48,65535
69,65535
92,9080
164,8873
4,65535
107,9225
129,9310
109,8750
125,8791
124,8765
127,65535
82,65535
67,65535
91,9248
93,9047
137,9182
113,9202
112,9160
136,65535
49,65535
72,65535
71,65535
406,1561
805,7090
858,6895
859,7036
967,1074
1142,1209
1080,6735
1022,6776
1079,6768
968,6891
1206,1166
915,7042
916,7077
914,7014
807,7129
911,8236
1078,6992
1207,1224
1278,1268
1277,1271
1344,1291
1415,1332
1492,1387
1345,1348
1346,1318
1208,1216
1209,1296
1143,1333
1144,1349
1145,1364
1417,1344
1493,1404
1494,1423
1572,1438
1081,7061
970,7264
408,1503
382,1542
437,1442
467,1429
409,1520
403,1494
432,1989
433,1496
404,1466
352,1634
351,1589
349,1597
317,1602
374,1549
346,1727
283,1652
410,1417
438,1433
465,1452
490,1450
491,1402
435,1501
436,1446
379,1622
323,1761
289,1710
377,1549
378,1500
592,1833
593,1859
552,1690
445,1760
424,1846
423,1793
416,1931
361,1778
362,1754
371,1732
372,1689
343,1745
344,1749
286,1803
227,1727
252,1647
284,1629
318,1611
250,1676
312,1668
340,1634
368,1657
369,1685
370,1722
341,1667
367,1674
308,1776
276,1756
277,1710
280,1698
310,1603
338,1650
366,1757
274,1912
305,1893
420,1809
363,1724
418,1695
550,7081
579,7104
576,7049
577,7061
578,7077
520,7057
618,7071
662,7101
619,7088
620,7101
621,7095
665,7077
666,7069
664,7097
580,7116
2260,65535
2257,65535
2206,65535
2146,65535
2314,65535
2313,65535
2312,65535
2373,65535
2256,65535
2205,65535
2434,65535
2435,65535
2375,65535
2376,65535
2433,65535
2491,65535
2490,65535
2492,65535
2546,65535
2597,65535
2596,65535
2544,65535
2145,65535
2082,65535
2020,65535
2494,65535
0,65535
11,65535
1052,2068
1053,2055
941,2095
1740,1932
1796,1973
1615,1835
1681,1876
1545,1796
1797,2020
1544,1810
1741,1988
1795,2170
1617,1810
1546,1801
1616,1813
1683,1908
1467,1770
1547,1796
1465,1845
1387,1881
1388,1842
1464,1906
1462,2059
1461,2080
1542,2144
1463,2023
1682,1887
1543,1865
1618,1870
1742,2080
1460,2246
1248,1890
1850,1834
1801,1833
1803,1801
882,1579
881,1586
938,1638
883,1599
940,2838
1998,1839
1902,1793
1807,1686
1691,1707
1694,1573
1693,1717
1749,1758
1752,1647
1753,1604
1627,1550
1628,1521
1557,1499
1479,1451
1402,1421
1808,1675
1946,1915
1947,1946
1948,1853
1997,1849
1855,1735
1690,1706
2060,1855
1949,1887
1950,1814
1751,1690
1692,1709
1999,1829
1901,1895
1900,1936
1852,2085
1853,1964
1805,1774
1750,1703
1854,1800
1806,1768
1748,1794
2061,1896
2000,1894
1804,1786
1899,2105
2884,65535
2892,65535
2883,65535
2876,65535
2874,65535
2882,65535
2877,65535
2911,65535
2905,65535
2906,65535
2896,65535
2887,65535
2881,65535
2880,65535
2888,65535
2902,65535
2903,65535
2907,65535
2912,65535
2895,65535
2894,65535
2875,65535
2885,65535
2893,65535
2904,65535
2865,65535
2866,65535
2909,65535
2913,65535
2886,65535
2878,65535
2869,65535
2871,65535
2872,65535
2879,65535
2870,65535
1330,1475
1331,1435
1401,1426
1262,1437
1263,1429
1478,1506
1403,1416
1261,1446
1480,1427
1264,1543
1390,1753
1389,1798
1319,1775
1251,1862
1250,1948
1285,1442
1284,1446
1214,1418
1146,1384
1505,1667
1504,1601
1582,1639
1581,1567
1713,1546
1771,1528
1654,1678
1653,1651
1651,1603
2096,2782
2033,2742
1972,2713
1923,2645
1922,2623
1874,2317
1873,2030
1919,1983
1829,2994
1579,1503
1424,1495
1711,1520
1348,1344
1419,1364
1359,1771
1429,1722
1428,1708
1421,1421
1577,1455
1499,1428
1230,2015
1365,1952
1511,1874
1300,1997
1366,1969
1512,1902
1716,1736
1503,2013
1276,1298
1347,1328
1349,1376
1645,1512
1578,1490
1770,1524
1715,1579
1150,1483
1217,1497
1149,1459
1580,1529
1352,1536
1502,1518
1825,1936
1718,1891
1717,1865
1872,1969
1656,1780
1648,1555
1712,1532
1213,1408
1212,1389
1084,1430
1420,1410
1281,1334
1282,1395
1587,1774
1586,1741
1585,1730
1652,1698
1427,1876
1975,2817
1977,2885
1932,2955
1931,3580
1426,1596
1422,1438
1425,1581
1583,1667
1501,1525
1283,1436
1286,1483
1215,1468
1211,1365
1210,1339
1083,1401
1655,1769
2220,2823
1355,5891
1772,1537
1436,1920
1435,1910
1589,1843
1163,2048
1735,3168
1791,3101
1841,3078
1840,3034
1219,1600
1220,1639
1647,1541
1646,1533
1279,1286
1714,1556
1575,1515
1576,1477
1498,1485
1573,1527
1496,1545
1497,1516
2177,4405
2176,4475
2294,4444
2293,4520
2237,4452
2236,4481
2364,4253
2302,4193
2301,4115
2245,4017
2056,4323
2057,4367
2055,4126
2184,4178
2120,4184
2244,4098
2538,4548
2537,4510
2591,4535
1940,4310
1989,4318
1990,4254
2539,4526
2482,4626
2483,4391
2424,4287
2121,4245
2119,4058
2050,4383
2049,4445
2048,4863
2185,4211
2243,3937
2299,4151
2241,4100
2485,4469
2542,4524
2353,4483
2292,4390
2419,4303
2478,4364
2479,4381
2536,4467
2484,4430
2486,4423
2354,4378
2416,4499
2242,4145
2355,4372
2300,4158
1991,4258
1992,4265
2477,4356
2534,4366
2535,4466
2588,4403
2587,4418
2630,4438
2051,4179
2116,4073
2175,4573
2586,65535
2541,4660
2178,4380
2179,4183
2240,4130
2239,4354
2238,4424
2052,4310
2053,4276
1987,4550
1988,4587
1939,4500
2594,4632
2593,4604
2358,4260
2357,4267
2420,4310
2247,4306
2427,4396
2428,4418
2181,3977
2180,4026
2417,4358
2590,4516
2297,4139
2361,4331
2362,4214
2423,4302
2422,4267
2174,4738
2356,4397
1941,4299
2365,4430
2112,4743
2047,4885
2182,4116
2359,4193
2533,5131
2295,4456
2115,4146
2632,4576
2631,4515
2186,4379
2298,4225
2360,4249
2235,4701
2291,4714
2487,4645
2246,4238
2425,5046
2117,4370
2543,4598
1893,65535
2421,4402
2476,4412
2592,4682
604,7066
