middle_point_id,reach_time_minutes
2835,65535
2836,65535
2806,65535
2822,65535
2823,65535
2807,65535
2846,65535
887,103
888,110
1326,280
1185,203
999,170
1057,470
1552,1069
1120,234
1473,1094
944,317
832,96
1257,239
1396,823
1622,1135
1327,3784
1184,235
1183,250
1324,505
1255,951
1394,1242
1252,355
1253,316
1182,260
1328,65535
1470,1205
1321,354
1322,321
1323,2405
1391,852
1551,1075
1393,1213
1472,1515
1471,1189
1181,434
1118,298
1059,155
1121,195
1469,932
1468,837
1548,1248
1325,445
1625,1012
1623,1077
1258,279
1256,314
791,221
891,189
703,289
704,294
660,301
1553,1072
1624,1027
1554,1130
1474,1103
1475,1127
1550,1127
1549,1251
1320,756
1466,869
1541,2515
1318,826
1249,846
1186,196
1003,157
1002,153
741,172
788,195
434,280
697,250
752,315
1056,192
1006,229
907,422
518,351
1011,304
1000,140
1055,1502
997,1382
994,1288
996,1376
995,1363
991,1332
1112,65535
1114,1334
1051,1315
1398,1692
1395,930
1001,151
1811,1075
1960,1195
1769,1184
1823,1203
1329,65535
1332,783
1259,955
1200,490
1199,488
1140,543
1141,562
783,106
1689,1158
1802,1340
1945,1801
2183,2419
2418,2837
1994,1835
1995,1868
2059,1417
1621,65535
1555,967
1754,1064
1180,863
1106,2470
933,2726
827,38
2122,2659
2124,1499
493,348
519,355
544,349
545,353
494,364
470,407
543,363
469,394
517,368
574,361
573,328
495,418
546,369
613,292
612,303
492,376
572,332
571,363
570,344
610,307
575,416
547,398
516,1002
611,321
542,412
569,398
609,282
548,2229
549,2264
1404,486
1405,406
1266,375
1193,347
743,211
742,195
747,257
746,232
745,228
744,208
790,217
789,199
839,228
838,179
738,113
739,141
740,156
890,170
834,110
784,113
889,128
856,552
855,482
854,495
853,450
852,432
910,474
909,463
908,438
964,427
965,466
1020,911
966,468
963,392
1021,535
1271,491
1270,493
1339,518
1338,575
1071,416
1072,438
1135,479
1408,823
1337,458
1269,503
1268,534
1136,679
1075,813
1077,534
1076,497
1019,478
1018,466
1074,711
1137,696
1272,499
1274,557
1275,889
1205,932
1204,839
1273,526
1198,506
1197,381
1341,524
1134,424
1133,375
1069,344
1132,344
1073,470
1203,569
1202,531
1201,504
1139,820
1267,401
1138,896
1340,830
1196,371
1342,869
1409,896
1485,833
1407,889
1561,844
1632,869
1484,909
1483,804
1562,835
1194,348
1130,316
1195,331
1335,397
1129,293
1066,272
1128,302
1067,291
1131,321
1334,481
1336,434
1265,497
1333,759
1406,447
857,948
803,982
804,2239
860,2247
969,2200
913,2187
912,2125
861,2257
806,2300
659,291
751,304
658,284
705,298
702,280
706,303
753,327
614,296
701,267
661,313
616,308
848,361
796,314
797,334
798,341
750,304
707,333
615,341
748,289
845,354
846,326
657,346
749,314
795,315
617,351
663,356
794,284
847,344
849,390
902,368
901,376
900,316
793,233
899,291
898,260
897,268
844,353
842,238
841,228
956,321
792,230
843,248
840,245
850,414
903,353
800,386
755,413
756,430
710,491
711,1018
962,383
961,377
904,360
906,409
851,447
802,433
801,397
799,363
959,392
1014,409
1013,435
708,432
709,460
754,367
757,442
1017,442
1016,475
960,367
905,396
958,396
957,388
1070,381
1015,394
1012,362
1068,318
1005,200
1004,170
1060,162
1063,240
1065,267
1127,317
1062,230
1124,206
1123,192
1125,223
1188,231
1122,175
1058,168
947,173
946,128
949,207
945,123
948,212
1190,356
1187,253
951,239
895,258
952,274
1009,268
1008,260
1010,282
1007,253
1061,253
954,392
896,267
953,277
1126,255
1064,251
1189,273
955,339
950,218
892,175
786,154
836,157
837,172
787,177
700,286
655,272
654,234
653,256
698,228
699,244
608,240
696,233
656,280
833,101
785,140
835,140
693,138
894,232
893,188
1343,863
1192,914
1191,935
828,34
829,26
780,90
830,77
779,36
782,102
529,246
886,107
596,230
556,262
598,205
597,180
526,268
555,286
525,299
524,883
523,305
688,142
607,228
650,173
651,189
652,259
737,119
694,148
695,185
645,165
646,139
690,138
600,170
599,179
781,110
736,121
558,252
644,169
643,163
648,151
692,119
691,121
513,305
541,440
540,550
568,343
530,266
831,91
559,229
560,225
642,165
557,210
496,326
471,364
444,432
446,396
528,229
527,235
562,220
602,162
734,122
466,363
464,325
463,428
478,395
481,318
480,347
479,371
647,128
488,947
502,235
689,148
533,242
532,264
531,937
601,154
484,401
508,907
510,470
509,917
534,898
482,342
506,286
606,245
455,1000
429,959
456,1405
457,836
428,1030
458,358
554,330
594,310
640,147
639,266
551,324
681,424
636,406
635,422
590,346
778,44
777,54
485,364
486,353
462,312
563,265
885,52
943,133
564,293
641,141
504,305
503,269
501,281
500,337
561,214
254,380
350,332
321,401
319,356
251,395
375,331
347,365
687,169
565,919
539,378
511,420
536,941
649,211
603,370
605,1406
733,147
735,137
489,1107
514,569
461,1090
460,1058
459,375
468,431
154,1298
178,1260
203,1231
228,1150
402,396
401,986
505,1046
522,335
451,1028
452,997
477,936
476,955
483,1066
884,0
431,388
430,1057
454,1001
595,997
395,1017
394,707
422,958
417,958
390,882
538,999
567,260
426,1216
397,1082
398,1103
499,1065
475,1149
497,332
498,349
311,1040
342,1021
345,969
421,799
515,1267
472,1116
448,1141
473,1167
474,1211
353,412
381,361
256,476
290,451
324,418
380,446
407,419
253,1119
226,1168
201,1181
177,1244
824,176
775,117
826,49
939,67
936,1318
937,133
880,85
566,974
2821,65535
2834,65535
2833,65535
2789,65535
2790,65535
2770,65535
2788,65535
2776,65535
2795,65535
2775,65535
2794,65535
2825,65535
2824,65535
2826,65535
2811,65535
2812,65535
2796,65535
2827,65535
2858,65535
2855,65535
2849,65535
2838,65535
2814,65535
2813,65535
2828,65535
2839,65535
2791,65535
2792,65535
2803,65535
2830,65535
2815,65535
2819,65535
2818,65535
2817,65535
2831,65535
2810,65535
2829,65535
2783,65535
2820,65535
2804,65535
2785,65535
2784,65535
2762,65535
2768,65535
2751,65535
2750,65535
2733,65535
2769,65535
2720,65535
2761,65535
2741,65535
2837,65535
2793,65535
2808,65535
2753,65535
2736,65535
2735,65535
2809,65535
2772,65535
2845,65535
2844,65535
2848,65535
2777,65535
2778,65535
2779,65535
2759,65535
2780,65535
2797,65535
2843,65535
2832,65535
2842,65535
2758,65535
2738,65535
2774,65535
2773,65535
2771,65535
2851,65535
2847,65535
2854,65535
2721,65535
2756,65535
2737,65535
2840,65535
2752,65535
2754,65535
2755,65535
2852,65535
2853,65535
2856,65535
2841,65535
2742,65535
2727,65535
2744,65535
2726,65535
2743,65535
2725,65535
2746,65535
2787,65535
2766,65535
2763,65535
2765,65535
2745,65535
2764,65535
2552,65535
2501,65535
2443,65535
2442,65535
2320,65535
2381,65535
2382,65535
2498,65535
2499,65535
2438,65535
2439,65535
2497,65535
2441,65535
2379,65535
2380,65535
2319,65535
2551,65535
2550,65535
2563,65535
2321,65535
2322,65535
2383,65535
2384,65535
2446,65535
2445,65535
2503,65535
2385,65535
2504,65535
2505,65535
2557,65535
2558,65535
2559,65535
2560,65535
2564,65535
2562,65535
2561,65535
2605,65535
2609,65535
2565,65535
2566,65535
2515,4756
2397,4519
2457,4736
2458,4720
2401,65535
2337,4432
2336,4436
2399,4478
2398,4499
2402,65535
2333,4656
2273,4691
2219,4715
2218,4727
2159,4752
2454,65535
2393,65535
2512,65535
2502,65535
2608,65535
2156,65535
2155,65535
2154,65535
2213,65535
2212,65535
2211,65535
2210,65535
2264,65535
2324,65535
2323,65535
2030,65535
2094,65535
2157,65535
2450,65535
2388,65535
2387,65535
2326,65535
2266,65535
2265,65535
2508,65535
2396,4588
2335,4606
2334,4617
2158,4777
2279,65535
2278,65535
2222,65535
2221,65535
2276,65535
2275,3804
2261,65535
2207,65535
2149,65535
2554,65535
2599,65535
2633,65535
2664,65535
2689,65535
2690,65535
2691,65535
2692,65535
2152,65535
2089,65535
2088,65535
2025,65535
2603,65535
2602,65535
2556,65535
2693,65535
2671,65535
2670,65535
2694,65535
2553,65535
2665,65535
2705,65535
2710,65535
2668,65535
2639,65535
2463,65535
2521,65535
2572,65535
2451,65535
2390,65535
2391,65535
2392,65535
2215,65535
2268,65535
2093,65535
2092,65535
2028,65535
2024,65535
2150,65535
2086,65535
2209,65535
2023,65535
2087,65535
2148,65535
2262,65535
2327,65535
1560,830
1630,914
1631,876
1559,912
1629,971
1558,873
1634,899
1633,869
1482,808
1481,822
1699,912
1700,891
1701,905
1563,893
2070,1258
2008,1215
2009,1202
1959,1168
1958,1172
2006,1211
1957,1207
1956,1232
2193,1506
2132,1446
1912,1211
1911,1131
1865,1087
1866,1179
2007,1268
2069,1281
2010,1233
2011,1320
1961,1209
2072,1257
1913,1420
1867,1230
1962,1248
1914,1257
1915,1282
1909,1214
1636,937
1635,925
1564,906
1702,935
1637,941
1638,1042
1565,916
1486,906
1760,958
1704,955
1703,942
1763,1035
1762,1009
1817,1047
1705,1102
1863,1039
1815,1006
1759,985
863,2768
758,2861
808,2812
982,2983
1036,2990
1099,3025
1100,3053
1166,3454
1167,3949
1237,3606
1238,3641
1375,3711
1308,3780
1309,3689
1236,3907
1235,3541
1101,3084
1037,3021
971,2564
1025,2547
1026,2562
1027,2575
1089,2588
720,2824
674,2870
864,2650
865,2671
919,2566
1024,2511
975,2685
974,2655
1028,2610
873,3010
925,2956
924,2933
917,2630
918,2606
623,3045
712,2917
713,2950
667,2955
622,3013
809,2798
719,2798
765,2759
972,2596
868,2708
869,2720
815,2739
920,2975
973,2641
981,2934
926,3035
927,3043
928,3067
1354,2560
1288,2501
1218,2477
1152,2546
1023,2475
1353,2574
1085,2455
1148,2385
1147,2378
1082,2329
772,3096
771,3053
819,3028
584,2944
628,2911
629,2900
1033,2831
978,2786
1031,2759
1030,2713
1029,2696
1091,2673
1035,2912
1034,2855
979,2813
1526,3830
1449,3868
1378,3896
1448,3819
1524,3797
1038,3068
1447,3860
1768,1190
1710,1148
1767,1163
391,836
365,1020
339,1063
400,1060
393,772
392,810
396,1045
399,1077
443,1111
449,895
450,865
419,962
414,1032
415,963
387,955
388,926
389,879
282,994
281,1059
314,1070
313,1097
405,295
411,1234
442,1193
255,1079
376,943
373,1010
278,1105
275,1139
248,1237
335,1067
334,1044
306,1094
307,1128
176,1228
225,1061
320,944
249,1095
287,1156
285,992
776,66
731,79
315,1020
316,1119
204,1264
440,1008
439,991
166,1425
269,1342
383,1280
1247,65535
1246,65535
1384,65535
1679,65535
1178,3903
1105,2512
1172,2528
1173,2504
1242,3092
1241,2570
1314,3127
1313,3154
1171,2553
1382,4335
1243,2586
1317,4416
1107,2755
1108,3054
1109,3108
1041,2563
1043,3818
1042,3739
1044,4290
1176,3804
1174,4303
1177,3852
1110,3859
985,2632
986,2675
932,2693
774,124
730,97
825,132
728,159
729,140
727,871
682,156
684,138
685,88
732,98
683,2302
2134,1603
2194,1593
2068,1344
2129,1398
1905,1215
1907,1160
1906,1154
1953,1345
2002,1386
2064,1433
2125,1463
2137,1827
2196,1780
2195,1737
1859,1096
1810,1149
1755,1081
2131,1264
2192,1300
1862,1176
1861,1075
1812,1046
1860,1115
1809,1102
1756,1042
1869,1236
1822,1205
1821,1221
1916,1275
1819,1113
1764,1092
1820,1195
1698,919
1757,1010
1566,1005
1567,978
1488,953
1489,1016
1412,927
1413,939
1414,880
1818,1132
1568,1074
1410,889
2128,1422
2189,1481
2066,1416
2065,1472
2067,1395
1643,1108
1571,1058
1491,1022
2004,1501
2003,1459
1697,961
2135,1598
2075,1445
1642,1084
1955,1203
2130,1477
2005,1301
1858,1230
1816,3688
1864,3681
1766,1157
1910,1400
1868,1227
2188,1626
2127,1597
1903,1285
2001,1469
2063,2262
2062,1430
1813,996
1758,1074
1639,1048
1640,1090
1952,1388
2126,3770
1569,1084
1965,1302
1966,1348
2014,1368
1490,980
1917,1261
1870,1250
1871,1264
1570,1043
1707,1098
2076,1435
2013,1400
1964,1354
1487,910
1908,1456
2251,65535
2199,65535
2198,65535
2136,1585
1641,1105
1954,1303
1765,1176
1857,1199
2187,1885
1904,1357
1856,1245
1951,1355
1708,1308
245,3999
244,3982
357,3986
246,4114
247,4143
197,4237
223,4215
44,4579
43,4639
3,4775
23,4749
22,4738
63,4521
85,4463
84,4418
108,3918
149,3872
172,4263
296,3966
294,4014
355,4114
354,4146
326,4224
295,4123
291,4135
293,4257
260,4143
356,4174
441,3774
412,3797
329,4132
300,4076
148,3846
214,4084
146,3967
110,4048
262,4109
258,4522
292,4285
257,4587
235,4107
187,4007
212,4063
211,4090
186,4011
162,3985
161,4064
165,3963
189,4163
238,4244
237,4209
263,4145
265,4164
266,4142
267,4130
268,3970
26,4739
25,4707
105,65535
62,65535
83,65535
126,4085
175,4520
152,4454
151,4444
150,4403
103,4023
242,3916
191,3870
192,3921
217,3944
218,3997
145,3907
144,3991
167,3899
190,3877
219,4014
159,4111
185,4055
158,4168
188,3999
160,4076
143,65535
122,65535
75,65535
54,65535
198,4648
270,4011
221,4052
301,4109
302,3946
330,3973
331,3995
115,4047
133,4106
139,4003
134,4080
114,4604
48,65535
69,65535
92,4280
164,4073
4,65535
107,4425
129,4510
109,3950
125,3991
124,3965
127,65535
82,65535
67,65535
91,4448
93,4247
137,4382
113,4402
112,4360
136,65535
49,65535
72,65535
71,65535
406,988
805,2290
858,2095
859,2236
967,1972
1142,2109
1080,2115
1022,2106
1079,2124
968,2091
1206,2085
915,2242
916,2277
914,2214
807,2329
911,3436
1078,2192
1207,2184
1278,2228
1277,2231
1344,2251
1415,2292
1492,2347
1345,2308
1346,2278
1208,2176
1209,2256
1143,2293
1144,2309
1145,2324
1417,2304
1493,2364
1494,2383
1572,2398
1081,2261
970,2464
408,444
382,384
437,376
467,1017
409,963
403,991
432,1123
433,1016
404,1036
352,1061
351,1087
349,1066
317,412
374,1228
346,1247
283,1053
410,973
438,964
465,345
490,471
491,1019
435,400
436,425
379,1595
323,1091
289,1122
377,1069
378,1091
592,956
593,926
552,860
445,919
424,1153
423,1110
416,2377
361,993
362,969
371,1099
372,1083
343,1109
344,1094
286,1435
227,1143
252,1045
284,1007
318,1027
250,1078
312,1068
340,1035
368,1041
369,1174
370,1117
341,1091
367,970
308,1174
276,1158
277,1285
280,1098
310,1084
338,1040
366,1068
274,1173
305,1182
420,1002
363,1031
418,1039
550,2281
579,2304
576,2249
577,2261
578,2277
520,2257
618,2271
662,2301
619,2288
620,2301
621,2295
665,2277
666,2269
664,2297
580,2316
2260,65535
2257,65535
2206,65535
2146,65535
2314,65535
2313,65535
2312,65535
2373,65535
2256,65535
2205,65535
2434,65535
2435,65535
2375,65535
2376,65535
2433,65535
2491,65535
2490,65535
2492,65535
2546,65535
2597,65535
2596,65535
2544,65535
2145,65535
2082,65535
2020,65535
2494,65535
0,65535
11,65535
1052,1468
1053,1455
941,1440
1740,2461
1796,2535
1615,2319
1681,2396
1545,2200
1797,2575
1544,2275
1741,2553
1795,2856
1617,2220
1546,2206
1616,2237
1683,2341
1467,809
1547,887
1465,2180
1387,2247
1388,806
1464,2264
1462,3019
1461,3040
1542,2931
1463,2983
1682,2528
1543,2396
1618,2277
1742,2654
1460,2730
1248,2262
1850,1372
1801,2178
1803,1306
882,44
881,53
938,78
883,39
940,2358
1998,1359
1902,1313
1807,1089
1691,1107
1694,973
1693,1132
1749,1218
1752,1047
1753,1004
1627,950
1628,921
1557,899
1479,851
1402,784
1808,1075
1946,1435
1947,1466
1948,1373
1997,1369
1855,1182
1690,1105
2060,1375
1949,1407
1950,1334
1751,1090
1692,1109
1999,1349
1901,1415
1900,1456
1852,1605
1853,1484
1805,1226
1750,1103
1854,1250
1806,1168
1748,1195
2061,1416
2000,1414
1804,1306
1899,1625
2884,65535
2892,65535
2883,65535
2876,65535
2874,65535
2882,65535
2877,65535
2911,65535
2905,65535
2906,65535
2896,65535
2887,65535
2881,65535
2880,65535
2888,65535
2902,65535
2903,65535
2907,65535
2912,65535
2895,65535
2894,65535
2875,65535
2885,65535
2893,65535
2904,65535
2865,65535
2866,65535
2909,65535
2913,65535
2886,65535
2878,65535
2869,65535
2871,65535
2872,65535
2879,65535
2870,65535
1330,887
1331,814
1401,826
1262,863
1263,857
1478,840
1403,762
1261,900
1480,827
1264,883
1390,788
1389,790
1319,762
1251,765
1250,841
1285,2401
1284,2406
1214,2378
1146,2344
1505,2627
1504,2561
1582,2599
1581,2527
1713,2506
1771,2488
1654,2638
1653,2611
1651,2563
2096,3742
2033,3702
1972,3673
1923,3605
1922,3583
1874,3277
1873,2990
1919,2943
1829,3954
1579,2463
1424,2504
1711,2480
1348,2304
1419,2324
1359,2731
1429,2682
1428,2668
1421,2381
1577,2415
1499,2388
1230,2975
1365,2912
1511,2834
1300,2957
1366,2929
1512,2862
1716,2696
1503,2973
1276,2258
1347,2288
1349,2336
1645,2472
1578,2450
1770,2484
1715,2539
1150,2443
1217,2457
1149,2419
1580,2509
1352,2496
1502,2527
1825,2896
1718,2851
1717,2825
1872,2929
1656,2740
1648,2515
1712,2492
1213,2368
1212,2349
1084,2390
1420,2370
1281,2294
1282,2355
1587,2734
1586,2701
1585,2690
1652,2658
1427,2836
1975,3777
1977,3845
1932,3915
1931,4540
1426,2556
1422,2398
1425,2541
1583,2627
1501,2485
1283,2396
1286,2443
1215,2428
1211,2325
1210,2299
1083,2361
1655,2729
2220,3783
1355,65535
1772,2497
1436,2880
1435,2870
1589,2803
1163,3008
1735,4128
1791,4061
1841,4038
1840,3994
1219,2560
1220,2599
1647,2501
1646,2493
1279,2246
1714,2516
1575,2475
1576,2437
1498,2445
1573,2487
1496,2505
1497,2476
2177,2762
2176,2827
2294,2887
2293,2908
2237,2868
2236,2890
2364,2738
2302,2668
2301,2649
2245,2604
2056,2477
2057,2641
2055,2472
2184,2811
2120,2734
2244,2431
2538,2939
2537,2919
2591,2956
1940,2780
1989,2764
1990,2720
2539,2962
2482,2968
2483,2937
2424,2932
2121,2913
2119,2449
2050,2859
2049,2881
2048,2943
2185,2806
2243,2444
2299,2669
2241,2669
2485,2899
2542,3011
2353,2954
2292,2930
2419,2828
2478,2836
2479,2853
2536,2880
2484,2954
2486,2847
2354,2878
2416,2970
2242,2491
2355,2845
2300,2798
1991,2803
1992,2544
2477,2879
2534,2914
2535,2870
2588,2935
2587,2950
2630,2990
2051,2626
2116,2594
2175,2878
2586,65535
2541,3082
2178,2728
2179,2699
2240,2699
2239,2770
2238,2825
2052,2670
2053,2765
1987,2848
1988,2768
1939,2774
2594,3084
2593,3056
2358,2726
2357,2769
2420,2879
2247,3061
2427,2832
2428,2890
2181,2489
2180,2541
2417,2858
2590,2935
2297,2702
2361,2926
2362,2870
2423,2905
2422,2764
2174,2971
2356,2835
1941,2802
2365,3147
2112,2899
2047,2965
2182,2501
2359,2692
2533,3211
2295,3051
2115,2637
2632,3061
2631,3000
2186,2768
2298,2529
2360,2584
2235,3661
2291,3674
2487,3070
2246,2989
2425,3126
2117,3087
2543,3097
1893,65535
2421,2972
2476,2886
2592,3071
604,2266
