middle_point_id,reach_time_minutes
2835,65535
2836,65535
2806,65535
2822,65535
2823,65535
2807,65535
2846,65535
887,377
888,358
1326,815
1185,369
999,528
1057,470
1552,865
1120,358
1473,879
944,438
832,341
1257,775
1396,919
1622,895
1327,3784
1184,360
1183,399
1324,1111
1255,1191
1394,1122
1252,888
1253,861
1182,809
1328,65535
1470,1069
1321,921
1322,1033
1323,2405
1391,979
1551,892
1393,1043
1472,976
1471,1010
1181,2774
1118,839
1059,330
1121,342
1469,1245
1468,1022
1548,1185
1325,1045
1625,735
1623,834
1258,416
1256,851
791,220
891,310
703,157
704,151
660,155
1553,888
1624,781
1554,954
1474,898
1475,947
1550,959
1549,1134
1320,942
1466,984
1541,2515
1318,986
1249,1070
1186,363
1003,321
1002,335
741,263
788,243
434,368
697,257
752,152
1056,511
1006,285
907,0
518,231
1011,242
1000,368
1055,1502
997,1382
994,1288
996,1376
995,1363
991,1332
1112,65535
1114,1334
1051,1315
1398,1692
1395,930
1001,348
1811,759
1960,1004
1769,1054
1823,1050
1329,65535
1332,458
1259,955
1200,179
1199,181
1140,84
1141,89
783,330
1689,924
1802,920
1945,1436
2183,1918
2418,2367
1994,1472
1995,1868
2059,997
1621,65535
1555,816
1754,559
1180,2303
1106,2470
933,2726
827,450
2122,1723
2124,997
493,242
519,235
544,229
545,233
494,244
470,275
543,243
469,257
517,248
574,241
573,208
495,298
546,249
613,189
612,193
492,256
572,212
571,259
570,284
610,270
575,296
547,278
516,337
611,321
542,271
569,398
609,282
548,2229
549,2264
1404,310
1405,252
1266,239
1193,287
743,249
742,260
747,211
746,224
745,233
744,242
790,229
789,240
839,258
838,248
738,326
739,289
740,284
890,344
834,344
784,339
889,357
856,81
855,60
854,68
853,56
852,16
910,52
909,41
908,14
964,2
965,9
1020,15
966,58
963,20
1021,169
1271,181
1270,183
1339,198
1338,209
1071,195
1072,189
1135,187
1408,223
1337,217
1269,194
1268,220
1136,164
1075,85
1077,81
1076,56
1019,47
1018,75
1074,146
1137,120
1272,190
1274,166
1275,147
1205,99
1204,119
1273,227
1198,229
1197,254
1341,282
1134,192
1133,229
1069,222
1132,233
1073,169
1203,103
1202,102
1201,141
1139,73
1267,226
1138,94
1340,193
1196,251
1342,213
1409,258
1485,229
1407,265
1561,310
1632,318
1484,270
1483,279
1562,323
1194,251
1130,247
1195,252
1335,243
1129,251
1066,267
1128,302
1067,238
1131,239
1334,432
1336,254
1265,335
1333,422
1406,258
857,108
803,142
804,2239
860,2247
969,2200
913,2187
912,2125
861,2257
806,2300
659,163
751,140
658,168
705,150
702,176
706,145
753,118
614,184
701,199
661,182
616,188
848,87
796,133
797,109
798,98
750,144
707,138
615,161
748,180
845,145
846,133
657,226
749,173
795,161
617,231
663,146
794,224
847,129
849,53
902,128
901,152
900,166
793,191
899,228
898,248
897,268
844,200
842,238
841,228
956,222
792,208
843,199
840,245
850,33
903,107
800,41
755,53
756,70
710,133
711,178
962,42
961,96
904,88
906,6
851,27
802,50
801,45
799,71
959,152
1014,224
1013,280
708,425
709,399
754,75
757,101
1017,84
1016,164
960,127
905,41
958,198
957,182
1070,201
1015,159
1012,227
1068,231
1005,292
1004,311
1060,327
1063,288
1065,275
1127,327
1062,318
1124,376
1123,342
1125,327
1188,405
1122,348
1058,337
947,365
946,377
949,286
945,411
948,315
1190,356
1187,393
951,281
895,280
952,307
1009,261
1008,274
1010,249
1007,290
1061,373
954,253
896,275
953,293
1126,320
1064,322
1189,352
955,236
950,267
892,265
786,268
836,289
837,253
787,245
700,226
655,256
654,264
653,278
698,254
699,244
608,315
696,270
656,254
833,332
785,320
835,348
693,298
894,284
893,260
1343,159
1192,914
1191,550
828,444
829,414
780,872
830,859
779,401
782,331
529,1030
886,397
596,951
556,984
598,490
597,512
526,984
555,1106
525,1022
524,1077
523,1002
688,371
607,314
650,310
651,295
652,305
737,323
694,284
695,325
645,359
646,343
690,327
600,375
599,391
781,339
736,329
558,1002
644,364
643,513
648,331
692,309
691,321
513,922
541,1017
540,1012
568,894
530,982
831,384
559,1001
560,959
642,1048
557,990
496,1055
471,1032
444,1060
446,997
528,1059
527,1055
562,943
602,907
734,366
466,376
464,406
463,911
478,1219
481,1072
480,1146
479,1160
647,331
488,947
502,1099
689,371
533,990
532,1017
531,1041
601,921
484,495
508,1067
510,466
509,1041
534,1063
482,1107
506,1040
606,1001
455,1271
429,1028
456,1405
457,1244
428,1167
458,1065
554,1148
594,1043
640,900
639,1009
551,1027
681,1085
636,1106
635,1157
590,1066
778,455
777,462
485,458
486,432
462,782
563,1089
885,408
943,968
564,893
641,894
504,1121
503,1139
501,1277
500,1270
561,1050
254,1059
350,1053
321,1032
319,1023
251,1066
375,510
347,1001
687,518
565,919
539,980
511,445
536,941
649,760
603,853
605,1406
733,402
735,349
489,1107
514,999
461,1090
460,1101
459,1121
468,280
154,1298
178,1260
203,1231
228,1150
402,489
401,1096
505,1046
522,1055
451,1028
452,1065
477,1211
476,1181
483,1066
884,893
431,450
430,1057
454,1240
595,997
395,1017
394,707
422,958
417,958
390,882
538,999
567,1113
426,1216
397,1082
398,1103
499,1231
475,1286
497,1112
498,1129
311,1040
342,1021
345,969
421,799
515,1267
472,1116
448,1141
473,1167
474,1211
353,463
381,465
256,1099
290,1065
324,489
380,446
407,410
253,1119
226,1168
201,1181
177,1244
824,896
775,869
826,480
939,907
936,1318
937,973
880,900
566,974
2821,65535
2834,65535
2833,65535
2789,65535
2790,65535
2770,65535
2788,65535
2776,65535
2795,65535
2775,65535
2794,65535
2825,65535
2824,65535
2826,65535
2811,65535
2812,65535
2796,65535
2827,65535
2858,65535
2855,65535
2849,65535
2838,65535
2814,65535
2813,65535
2828,65535
2839,65535
2791,65535
2792,65535
2803,65535
2830,65535
2815,65535
2819,65535
2818,65535
2817,65535
2831,65535
2810,65535
2829,65535
2783,65535
2820,65535
2804,65535
2785,65535
2784,65535
2762,65535
2768,65535
2751,65535
2750,65535
2733,65535
2769,65535
2720,65535
2761,65535
2741,65535
2837,65535
2793,65535
2808,65535
2753,65535
2736,65535
2735,65535
2809,65535
2772,65535
2845,65535
2844,65535
2848,65535
2777,65535
2778,65535
2779,65535
2759,65535
2780,65535
2797,65535
2843,65535
2832,65535
2842,65535
2758,65535
2738,65535
2774,65535
2773,65535
2771,65535
2851,65535
2847,65535
2854,65535
2721,65535
2756,65535
2737,65535
2840,65535
2752,65535
2754,65535
2755,65535
2852,65535
2853,65535
2856,65535
2841,65535
2742,65535
2727,65535
2744,65535
2726,65535
2743,65535
2725,65535
2746,65535
2787,65535
2766,65535
2763,65535
2765,65535
2745,65535
2764,65535
2552,65535
2501,65535
2443,65535
2442,65535
2320,65535
2381,65535
2382,65535
2498,65535
2499,65535
2438,65535
2439,65535
2497,65535
2441,65535
2379,65535
2380,65535
2319,65535
2551,65535
2550,65535
2563,65535
2321,65535
2322,65535
2383,65535
2384,65535
2446,65535
2445,65535
2503,65535
2385,65535
2504,65535
2505,65535
2557,65535
2558,65535
2559,65535
2560,65535
2564,65535
2562,65535
2561,65535
2605,65535
2609,65535
2565,65535
2566,65535
2515,4756
2397,4519
2457,4736
2458,4720
2401,65535
2337,4432
2336,4436
2399,4478
2398,4499
2402,65535
2333,4656
2273,4691
2219,4715
2218,4727
2159,4752
2454,65535
2393,65535
2512,65535
2502,65535
2608,65535
2156,65535
2155,65535
2154,65535
2213,65535
2212,65535
2211,65535
2210,65535
2264,65535
2324,65535
2323,65535
2030,65535
2094,65535
2157,65535
2450,65535
2388,65535
2387,65535
2326,65535
2266,65535
2265,65535
2508,65535
2396,4588
2335,4606
2334,4617
2158,4777
2279,3866
2278,3830
2222,3799
2221,3781
2276,3763
2275,1885
2261,65535
2207,65535
2149,65535
2554,65535
2599,65535
2633,65535
2664,65535
2689,65535
2690,65535
2691,65535
2692,65535
2152,65535
2089,65535
2088,65535
2025,65535
2603,65535
2602,65535
2556,65535
2693,65535
2671,65535
2670,65535
2694,65535
2553,65535
2665,65535
2705,65535
2710,65535
2668,65535
2639,65535
2463,65535
2521,65535
2572,65535
2451,65535
2390,65535
2391,65535
2392,65535
2215,65535
2268,65535
2093,65535
2092,65535
2028,65535
2024,65535
2150,65535
2086,65535
2209,65535
2023,65535
2087,65535
2148,65535
2262,65535
2327,65535
1560,343
1630,375
1631,444
1559,358
1629,411
1558,408
1634,420
1633,367
1482,262
1481,325
1699,322
1700,333
1701,381
1563,302
2070,1018
2008,1014
2009,1014
1959,1008
1958,1052
2006,1061
1957,1055
1956,1001
2193,1267
2132,1209
1912,1032
1911,1043
1865,848
1866,885
2007,1028
2069,1043
2010,1053
2011,1140
1961,1045
2072,1129
1913,981
1867,937
1962,1078
1914,1087
1915,1120
1909,941
1636,372
1635,431
1564,362
1702,408
1637,416
1638,384
1565,339
1486,306
1760,818
1704,412
1703,396
1763,436
1762,502
1817,806
1705,863
1863,900
1815,866
1759,973
863,1585
758,1673
808,1629
982,1717
1036,1789
1099,2433
1100,1852
1166,2014
1167,2509
1237,2166
1238,2201
1375,2271
1308,2340
1309,2249
1236,2467
1235,2101
1101,1880
1037,1822
971,1292
1025,1282
1026,1265
1027,1285
1089,1250
720,1630
674,1676
864,1554
865,1529
919,1306
1024,1255
975,1419
974,1357
1028,1353
873,1570
925,1516
924,1493
917,1370
918,1346
623,1845
712,1720
713,1754
667,1759
622,1815
809,1615
719,1602
765,1559
972,1306
868,1506
869,1518
815,1539
920,1414
973,1321
981,1686
926,1595
927,1603
928,1627
1354,1137
1288,1161
1218,1226
1152,1202
1023,1209
1353,1122
1085,1167
1148,1120
1147,1113
1082,1090
772,1656
771,1613
819,1588
584,1750
628,1717
629,1744
1033,1631
978,1588
1031,1561
1030,1514
1029,1496
1091,1473
1035,1715
1034,1655
979,1615
1526,2390
1449,2428
1378,2456
1448,2379
1524,2357
1038,1864
1447,2420
1768,1055
1710,1016
1767,975
391,836
365,1020
339,1063
400,1060
393,772
392,810
396,1045
399,1077
443,1111
449,895
450,865
419,962
414,1110
415,1052
387,1045
388,1011
389,946
282,1138
281,1064
314,1070
313,1097
405,415
411,1234
442,1193
255,1079
376,943
373,1010
278,1105
275,1139
248,1237
335,1067
334,1044
306,1094
307,1128
176,1228
225,1123
320,1182
249,1157
287,1156
285,1048
776,488
731,499
315,1020
316,1119
204,1264
440,302
439,300
166,1425
269,1342
383,1280
1247,65535
1246,65535
1384,65535
1679,65535
1178,3903
1105,2512
1172,2528
1173,2504
1242,3092
1241,2570
1314,3127
1313,3154
1171,2553
1382,4335
1243,2586
1317,4416
1107,2755
1108,3054
1109,3108
1041,2563
1043,3818
1042,3739
1044,4290
1176,3804
1174,4303
1177,3852
1110,3859
985,2632
986,2675
932,2693
774,890
730,813
825,495
728,879
729,836
727,1059
682,876
684,978
685,838
732,844
683,2302
2134,1368
2194,1391
2068,1075
2129,1130
1905,824
1907,912
1906,877
1953,873
2002,914
2064,956
2125,971
2137,1827
2196,1498
2195,1444
1859,785
1810,775
1755,531
2131,1081
2192,1119
1862,941
1861,895
1812,856
1860,893
1809,775
1756,381
1869,1012
1822,1007
1821,983
1916,1050
1819,846
1764,819
1820,970
1698,328
1757,369
1566,433
1567,301
1488,231
1489,226
1412,202
1413,181
1414,169
1818,910
1568,1074
1410,286
2128,1177
2189,1204
2066,1286
2065,1389
2067,1127
1643,990
1571,389
1491,282
2004,1296
2003,1252
1697,930
2135,1583
2075,1445
1642,949
1955,974
2130,1477
2005,1065
1858,793
1816,3688
1864,3681
1766,968
1910,981
1868,1002
2188,1411
2127,1380
1903,805
2001,957
2063,1404
2062,1212
1813,933
1758,464
1639,820
1640,862
1952,927
2126,3770
1569,971
1965,1302
1966,1348
2014,1368
1490,322
1917,1105
1870,1141
1871,1155
1570,379
1707,874
2076,1435
2013,1400
1964,1354
1487,294
1908,1057
2251,65535
2199,65535
2198,65535
2136,1585
1641,1105
1954,1048
1765,936
1857,889
2187,984
1904,1029
1856,777
1951,879
1708,1308
245,3999
244,3982
357,3986
246,4114
247,4143
197,4237
223,4215
44,4579
43,4639
3,4775
23,4749
22,4738
63,4521
85,4463
84,4418
108,3918
149,3872
172,4263
296,3966
294,4014
355,4114
354,4146
326,4224
295,4123
291,4135
293,4257
260,4143
356,4174
441,3774
412,3797
329,4132
300,4076
148,3846
214,4084
146,3967
110,4048
262,4109
258,4522
292,4285
257,4587
235,4107
187,4007
212,4063
211,4090
186,4011
162,3985
161,4064
165,3963
189,4163
238,4244
237,4209
263,4145
265,4164
266,4142
267,4130
268,3970
26,4739
25,4707
105,65535
62,65535
83,65535
126,4085
175,4520
152,4454
151,4444
150,4403
103,4023
242,3916
191,3870
192,3921
217,3944
218,3997
145,3907
144,3991
167,3899
190,3877
219,4014
159,4111
185,4055
158,4168
188,3999
160,4076
143,65535
122,65535
75,65535
54,65535
198,4648
270,4011
221,4052
301,4109
302,3946
330,3973
331,3995
115,4047
133,4106
139,4003
134,4080
114,4604
48,65535
69,65535
92,4280
164,4073
4,65535
107,4425
129,4510
109,3950
125,3991
124,3965
127,65535
82,65535
67,65535
91,4448
93,4247
137,4382
113,4402
112,4360
136,65535
49,65535
72,65535
71,65535
406,988
805,2290
858,2095
859,2236
967,594
1142,729
1080,1935
1022,1976
1079,1968
968,2091
1206,686
915,2242
916,2277
914,2214
807,2329
911,3436
1078,2192
1207,790
1278,815
1277,813
1344,854
1415,1032
1492,1087
1345,894
1346,859
1208,796
1209,996
1143,1033
1144,1049
1145,1079
1417,995
1493,1105
1494,1123
1572,1139
1081,2261
970,2464
408,444
382,920
437,388
467,357
409,963
403,991
432,1123
433,1016
404,1036
352,1061
351,1087
349,1066
317,1059
374,1228
346,1247
283,1113
410,973
438,964
465,429
490,471
491,303
435,993
436,1000
379,1595
323,1091
289,1122
377,1069
378,1091
592,1136
593,1107
552,1028
445,1036
424,1153
423,1110
416,2377
361,993
362,969
371,1099
372,1083
343,1109
344,1094
286,1435
227,1143
252,1084
284,1068
318,1190
250,1078
312,1068
340,1035
368,1041
369,1174
370,1117
341,1091
367,970
308,1174
276,1158
277,1285
280,1098
310,1084
338,1040
366,1068
274,1173
305,1182
420,1002
363,1031
418,1039
550,2281
579,2304
576,2249
577,2261
578,2277
520,2257
618,2271
662,2301
619,2288
620,2301
621,2295
665,2277
666,2269
664,2297
580,2316
2260,65535
2257,65535
2206,65535
2146,65535
2314,65535
2313,65535
2312,65535
2373,65535
2256,65535
2205,65535
2434,65535
2435,65535
2375,65535
2376,65535
2433,65535
2491,65535
2490,65535
2492,65535
2546,65535
2597,65535
2596,65535
2544,65535
2145,65535
2082,65535
2020,65535
2494,65535
0,65535
11,65535
1052,1468
1053,1455
941,1440
1740,2461
1796,2535
1615,2319
1681,2396
1545,2200
1797,2575
1544,2275
1741,2553
1795,2856
1617,2220
1546,2206
1616,2237
1683,2341
1467,994
1547,1089
1465,2180
1387,2247
1388,1021
1464,2264
1462,3019
1461,3040
1542,2931
1463,2983
1682,2528
1543,2396
1618,2277
1742,2654
1460,2730
1248,2262
1850,952
1801,2178
1803,916
882,859
881,868
938,919
883,896
940,2358
1998,890
1902,861
1807,737
1691,851
1694,973
1693,832
1749,876
1752,786
1753,798
1627,763
1628,921
1557,814
1479,741
1402,471
1808,710
1946,1075
1947,1010
1948,997
1997,904
1855,753
1690,877
2060,1077
1949,959
1950,881
1751,791
1692,820
1999,886
1901,1310
1900,1337
1852,1605
1853,1484
1805,934
1750,839
1854,1250
1806,992
1748,907
2061,1124
2000,913
1804,927
1899,1625
2884,65535
2892,65535
2883,65535
2876,65535
2874,65535
2882,65535
2877,65535
2911,65535
2905,65535
2906,65535
2896,65535
2887,65535
2881,65535
2880,65535
2888,65535
2902,65535
2903,65535
2907,65535
2912,65535
2895,65535
2894,65535
2875,65535
2885,65535
2893,65535
2904,65535
2865,65535
2866,65535
2909,65535
2913,65535
2886,65535
2878,65535
2869,65535
2871,65535
2872,65535
2879,65535
2870,65535
1330,526
1331,475
1401,474
1262,512
1263,508
1478,497
1403,409
1261,900
1480,743
1264,736
1390,959
1389,960
1319,951
1251,1017
1250,1092
1285,1110
1284,1126
1214,1118
1146,1097
1505,1187
1504,1175
1582,1159
1581,1124
1713,1096
1771,1071
1654,1280
1653,1255
1651,1155
2096,1813
2033,1796
1972,1765
1923,1713
1922,1693
1874,1644
1873,1608
1919,1504
1829,2514
1579,1023
1424,1087
1711,1057
1348,899
1419,1050
1359,1291
1429,1242
1428,1228
1421,946
1577,984
1499,956
1230,1645
1365,1581
1511,1504
1300,1627
1366,1598
1512,1531
1716,1336
1503,1211
1276,1478
1347,1046
1349,1032
1645,1032
1578,1010
1770,1063
1715,1129
1150,1264
1217,1258
1149,1241
1580,1069
1352,1161
1502,1105
1825,1455
1718,1409
1717,1384
1872,1492
1656,1395
1648,1135
1712,1077
1213,1140
1212,1181
1084,1190
1420,930
1281,1096
1282,1216
1587,1236
1586,1205
1585,1195
1652,1179
1427,1231
1975,2337
1977,2405
1932,2475
1931,3100
1426,1239
1422,975
1425,1226
1583,1248
1501,1107
1283,1103
1286,1140
1215,1248
1211,1142
1210,1151
1083,1161
1655,1318
2220,1864
1355,1372
1772,1124
1436,1547
1435,1538
1589,1473
1163,2459
1735,2688
1791,2621
1841,2598
1840,2554
1219,1277
1220,1319
1647,1098
1646,1107
1279,879
1714,1106
1575,1035
1576,997
1498,1005
1573,1110
1496,1065
1497,1036
2177,2485
2176,2555
2294,2472
2293,2591
2237,2532
2236,2561
2364,2333
2302,2273
2301,2195
2245,2097
2056,2227
2057,2313
2055,2206
2184,2258
2120,2264
2244,2178
2538,2518
2537,2499
2591,2615
1940,2390
1989,2398
1990,2334
2539,2518
2482,2509
2483,2471
2424,2367
2121,2325
2119,2138
2050,2447
2049,2525
2048,2943
2185,2291
2243,2017
2299,2231
2241,2180
2485,2549
2542,2604
2353,2563
2292,2470
2419,2357
2478,2404
2479,2439
2536,2466
2484,2510
2486,2503
2354,2402
2416,2579
2242,2225
2355,2440
2300,2238
1991,2338
1992,2345
2477,2395
2534,2416
2535,2531
2588,2436
2587,2450
2630,2501
2051,2259
2116,2153
2175,2588
2586,65535
2541,2671
2178,2460
2179,2263
2240,2210
2239,2434
2238,2504
2052,2390
2053,2356
1987,2630
1988,2478
1939,2502
2594,2621
2593,2606
2358,2324
2357,2334
2420,2390
2247,2386
2427,2476
2428,2498
2181,2057
2180,2106
2417,2384
2590,2596
2297,2219
2361,2411
2362,2294
2423,2382
2422,2347
2174,2818
2356,2445
1941,2379
2365,2510
2112,2823
2047,2965
2182,2196
2359,2273
2533,3211
2295,2536
2115,2226
2632,2656
2631,2595
2186,1756
2298,2305
2360,2329
2235,2781
2291,2794
2487,2725
2246,2318
2425,3126
2117,2450
2543,2678
1893,65535
2421,2482
2476,2400
2592,2654
604,2266
