middle_point_id,reach_time_minutes
2835,65535
2836,65535
2806,65535
2822,65535
2823,65535
2807,65535
2846,65535
887,1603
888,1609
1326,1660
1185,1629
999,1664
1057,1637
1552,1894
1120,1614
1473,1924
944,1711
832,1591
1257,1636
1396,1939
1622,1915
1327,1898
1184,1619
1183,1629
1324,1831
1255,1853
1394,1945
1252,1727
1253,1696
1182,1681
1328,65535
1470,1925
1321,1743
1322,1753
1323,1877
1391,1807
1551,1912
1393,1921
1472,1918
1471,1957
1181,1934
1118,1739
1059,1590
1121,1602
1469,1905
1468,1863
1548,1899
1325,1705
1625,1852
1623,1881
1258,1719
1256,1754
791,1480
891,1569
703,1438
704,1431
660,1433
1553,1899
1624,1868
1554,1912
1474,1920
1475,2013
1550,1922
1549,1964
1320,1809
1466,1843
1541,2200
1318,1885
1249,1908
1186,1616
1003,1581
1002,1592
741,1539
788,1503
434,1574
697,1521
752,1412
1056,1690
1006,1598
907,1282
518,1475
1011,1519
1000,1628
1055,2102
997,2071
994,1965
996,2037
995,2021
991,1812
1112,4445
1114,2052
1051,2015
1398,2052
1395,1937
1001,1609
1811,1849
1960,2027
1769,1947
1823,1957
1329,65535
1332,1662
1259,2216
1200,1484
1199,1489
1140,1404
1141,1432
783,1583
1689,1949
1802,2060
1945,2281
2183,3838
2418,4344
1994,2315
1995,2348
2059,2077
1621,65535
1555,1807
1754,1900
1180,2783
1106,3045
933,3206
827,1688
2122,4579
2124,2114
493,1482
519,1475
544,1467
545,1468
494,1482
470,1502
543,1471
469,1498
517,1486
574,1470
573,1460
495,1501
546,1473
613,1449
612,1452
492,1490
572,1465
571,1509
570,1513
610,1484
575,1527
547,1518
516,1508
611,1461
542,1495
569,1538
609,1551
548,1550
549,1579
1404,1630
1405,1571
1266,1538
1193,1547
743,1508
742,1519
747,1464
746,1484
745,1493
744,1505
790,1491
789,1500
839,1518
838,1513
738,1589
739,1584
740,1561
890,1564
834,1585
784,1574
889,1584
856,1172
855,1233
854,1245
853,1257
852,1269
910,1261
909,1270
908,1290
964,1293
965,1296
1020,1343
966,1278
963,1329
1021,1370
1271,1487
1270,1489
1339,1507
1338,1520
1071,1455
1072,1449
1135,1478
1408,1552
1337,1537
1269,1514
1268,1540
1136,1484
1075,1400
1077,1396
1076,1376
1019,1367
1018,1388
1074,1440
1137,1467
1272,1500
1274,1546
1275,1587
1205,1502
1204,1499
1273,1547
1198,1511
1197,1546
1341,1602
1134,1493
1133,1488
1069,1474
1132,1490
1073,1430
1203,1483
1202,1542
1201,1518
1139,1422
1267,1525
1138,1496
1340,1500
1196,1523
1342,1589
1409,1561
1485,1568
1407,1565
1561,1717
1632,1741
1484,1660
1483,1672
1562,1708
1194,1525
1130,1510
1195,1512
1335,1541
1129,1530
1066,1535
1128,1582
1067,1538
1131,1499
1334,1674
1336,1574
1265,1557
1333,1659
1406,1605
857,2268
803,3562
804,7039
860,7047
969,7000
913,6987
912,6925
861,7057
806,7100
659,1434
751,1425
658,1447
705,1436
702,1453
706,1422
753,1378
614,1444
701,1459
661,1447
616,1448
848,1381
796,1423
797,1400
798,1393
750,1434
707,1401
615,1481
748,1471
845,1423
846,1413
657,1486
749,1454
795,1435
617,1491
663,1436
794,1463
847,1397
849,1373
902,1388
901,1402
900,1429
793,1467
899,1551
898,1516
897,1530
844,1453
842,1498
841,1488
956,2247
792,1473
843,1460
840,1505
850,1313
903,1377
800,1321
755,1349
756,1367
710,1453
711,1498
962,1343
961,1356
904,1366
906,1292
851,1306
802,1302
801,1309
799,1331
959,1413
1014,1481
1013,1480
708,2203
709,2178
754,1361
757,1391
1017,1361
1016,1425
960,1418
905,1354
958,1518
957,2706
1070,1461
1015,1469
1012,1539
1068,1491
1005,1566
1004,1571
1060,1587
1063,1600
1065,1565
1127,1577
1062,1628
1124,1644
1123,1632
1125,1632
1188,1671
1122,1606
1058,1597
947,1606
946,1639
949,1544
945,1623
948,1569
1190,1778
1187,1691
951,1572
895,1538
952,1566
1009,1571
1008,1605
1010,2312
1007,1576
1061,1693
954,1543
896,1535
953,1597
1126,1624
1064,1583
1189,1713
955,2261
950,1587
892,1525
786,1528
836,1534
837,1521
787,1520
700,1490
655,1517
654,1523
653,1531
698,1506
699,1503
608,1582
696,1537
656,1514
833,1588
785,1542
835,1545
693,1574
894,1544
893,1520
1343,1583
1192,1738
1191,1775
828,1678
829,1664
780,1617
830,1659
779,1661
782,1584
529,1680
886,1602
596,1732
556,1736
598,1680
597,1703
526,1704
555,1767
525,1795
524,1762
523,1743
688,1626
607,1615
650,1633
651,1614
652,1611
737,1591
694,1558
695,1544
645,1616
646,1608
690,1604
600,1635
599,1650
781,1596
736,1600
558,1711
644,1624
643,1633
648,1616
692,1589
691,1598
513,1634
541,1557
540,1620
568,1678
530,1702
831,1610
559,1689
560,1679
642,1776
557,1699
496,1782
471,1818
444,1885
446,1849
528,1686
527,1720
562,1677
602,1656
734,1620
466,1629
464,1553
463,1568
478,1794
481,1792
480,1781
479,1769
647,1628
488,1583
502,1716
689,1631
533,1710
532,1737
531,1761
601,1653
484,1670
508,1745
510,1751
509,1755
534,1725
482,1806
506,1760
606,1625
455,1974
429,1750
456,1946
457,1927
428,1834
458,1787
554,1880
594,1848
640,1767
639,1864
551,1782
681,1864
636,1852
635,1860
590,1786
778,1685
777,1692
485,1653
486,1672
462,1631
563,1716
885,1613
943,2771
564,1817
641,1761
504,1724
503,1733
501,1757
500,1824
561,1701
254,1687
350,1650
321,1731
319,1686
251,1727
375,1660
347,1738
687,1639
565,1805
539,1699
511,1730
536,1768
649,1633
603,1761
605,1886
733,1634
735,1609
489,1600
514,1640
461,1870
460,1881
459,1859
468,1503
154,1844
178,1790
203,1775
228,1745
402,1715
401,1727
505,1765
522,1769
451,1920
452,1968
477,1847
476,1901
483,1966
884,1681
431,1725
430,1762
454,1875
595,1774
395,1829
394,1849
422,1895
417,1893
390,1891
538,1745
567,1632
426,2001
397,1840
398,1888
499,1903
475,1991
497,1770
498,1797
311,1754
342,1796
345,1770
421,1898
515,1538
472,2121
448,2152
473,2176
474,2217
353,1702
381,1677
256,1759
290,1733
324,1709
380,1729
407,1665
253,1741
226,1767
201,1780
177,1837
824,1796
775,1742
826,1699
939,1747
936,1798
937,1784
880,1752
566,1825
2821,65535
2834,65535
2833,65535
2789,65535
2790,65535
2770,65535
2788,65535
2776,65535
2795,65535
2775,65535
2794,65535
2825,65535
2824,65535
2826,65535
2811,65535
2812,65535
2796,65535
2827,65535
2858,65535
2855,65535
2849,65535
2838,65535
2814,65535
2813,65535
2828,65535
2839,65535
2791,65535
2792,65535
2803,65535
2830,65535
2815,65535
2819,65535
2818,65535
2817,65535
2831,65535
2810,65535
2829,65535
2783,65535
2820,65535
2804,65535
2785,65535
2784,65535
2762,65535
2768,65535
2751,65535
2750,65535
2733,65535
2769,65535
2720,65535
2761,65535
2741,65535
2837,65535
2793,65535
2808,65535
2753,65535
2736,65535
2735,65535
2809,65535
2772,65535
2845,65535
2844,65535
2848,65535
2777,65535
2778,65535
2779,65535
2759,65535
2780,65535
2797,65535
2843,65535
2832,65535
2842,65535
2758,65535
2738,65535
2774,65535
2773,65535
2771,65535
2851,65535
2847,65535
2854,65535
2721,65535
2756,65535
2737,65535
2840,65535
2752,65535
2754,65535
2755,65535
2852,65535
2853,65535
2856,65535
2841,65535
2742,65535
2727,65535
2744,65535
2726,65535
2743,65535
2725,65535
2746,65535
2787,65535
2766,65535
2763,65535
2765,65535
2745,65535
2764,65535
2552,65535
2501,65535
2443,65535
2442,65535
2320,65535
2381,65535
2382,65535
2498,65535
2499,65535
2438,65535
2439,65535
2497,65535
2441,65535
2379,65535
2380,65535
2319,65535
2551,65535
2550,65535
2563,7557
2321,4213
2322,4182
2383,4194
2384,4905
2446,4948
2445,4956
2503,4975
2385,4939
2504,7678
2505,7700
2557,7724
2558,7749
2559,7773
2560,7737
2564,7513
2562,7625
2561,7665
2605,7680
2609,5264
2565,5209
2566,5194
2515,5139
2397,3559
2457,5120
2458,5104
2401,3731
2337,3472
2336,3476
2399,3518
2398,3539
2402,3765
2333,3696
2273,3731
2219,3755
2218,3767
2159,3792
2454,5824
2393,5790
2512,7524
2502,8309
2608,7943
2156,3914
2155,3946
2154,3975
2213,3991
2212,4003
2211,4051
2210,4092
2264,4099
2324,4133
2323,4149
2030,65535
2094,65535
2157,3878
2450,7921
2388,7970
2387,8038
2326,8075
2266,4280
2265,4235
2508,7892
2396,3628
2335,3646
2334,3657
2158,3817
2279,8666
2278,8630
2222,8599
2221,8581
2276,8563
2275,1404
2261,5727
2207,6585
2149,6644
2554,5027
2599,5057
2633,5095
2664,5130
2689,5167
2690,5193
2691,5209
2692,5233
2152,6338
2089,7046
2088,6384
2025,7179
2603,65535
2602,65535
2556,65535
2693,7172
2671,8955
2670,8935
2694,8894
2553,65535
2665,65535
2705,65535
2710,65535
2668,65535
2639,65535
2463,6586
2521,6622
2572,6645
2451,7806
2390,7775
2391,7595
2392,6232
2215,7800
2268,65535
2093,65535
2092,65535
2028,65535
2024,6414
2150,4452
2086,4482
2209,4439
2023,5553
2087,5506
2148,8599
2262,5712
2327,65535
1560,1657
1630,1759
1631,1730
1559,1808
1629,1869
1558,1713
1634,1733
1633,1739
1482,1582
1481,1647
1699,1780
1700,1861
1701,1783
1563,1719
2070,2037
2008,2032
2009,2034
1959,2007
1958,2025
2006,2043
1957,2059
1956,2068
2193,2109
2132,2047
1912,1999
1911,1968
1865,1924
1866,2007
2007,2037
2069,2071
2010,2043
2011,2070
1961,2065
2072,2101
1913,2066
1867,2059
1962,2098
1914,2102
1915,2014
1909,2054
1636,1756
1635,1760
1564,1733
1702,1810
1637,1750
1638,1716
1565,1720
1486,1593
1760,1843
1704,1780
1703,1766
1763,1854
1762,1837
1817,1884
1705,1878
1863,1924
1815,1891
1759,1846
863,125
758,218
808,170
982,583
1036,590
1099,1473
1100,653
1166,1054
1167,1549
1237,1206
1238,1241
1375,1311
1308,1380
1309,1289
1236,1507
1235,1141
1101,684
1037,621
971,51
1025,64
1026,77
1027,85
1089,128
720,290
674,349
864,92
865,68
919,0
1024,58
975,220
974,167
1028,150
873,377
925,325
924,308
917,110
918,86
623,398
712,271
713,307
667,312
622,365
809,156
719,277
765,233
972,107
868,182
869,194
815,213
920,575
973,124
981,534
926,635
927,643
928,667
1354,508
1288,344
1218,316
1152,335
1023,69
1353,574
1085,169
1148,215
1147,240
1082,280
772,483
771,432
819,407
584,436
628,403
629,377
1033,431
978,386
1031,359
1030,313
1029,296
1091,273
1035,512
1034,455
979,413
1526,1430
1449,1468
1378,1496
1448,1419
1524,1397
1038,668
1447,1460
1768,1950
1710,1908
1767,1938
391,1862
365,1823
339,1808
400,1858
393,1879
392,1903
396,1824
399,1991
443,1916
449,1988
450,1963
419,1996
414,1947
415,1913
387,1950
388,1912
389,1905
282,1945
281,1871
314,1840
313,1796
405,1615
411,1974
442,1933
255,1720
376,1723
373,1738
278,1765
275,1888
248,1935
335,2025
334,1997
306,1960
307,1949
176,1886
225,1754
320,1729
249,1961
287,1692
285,1735
776,1714
731,1722
315,1931
316,1914
204,1791
440,1559
439,1554
166,3345
269,3262
383,3200
1247,4390
1246,4412
1384,4496
1679,4658
1178,4383
1105,3049
1172,3068
1173,3118
1242,3120
1241,3112
1314,3269
1313,3175
1171,3094
1382,3375
1243,3317
1317,3456
1107,3057
1108,3236
1109,3521
1041,3066
1043,3276
1042,3267
1044,3330
1176,4284
1174,3343
1177,4332
1110,4339
985,3112
986,3155
932,3173
774,1790
730,1734
825,1752
728,1800
729,1760
727,1891
682,1789
684,1758
685,1738
732,1718
683,1942
2134,2200
2194,2221
2068,2185
2129,2239
1905,1946
1907,1987
1906,1926
1953,2013
2002,2044
2064,2081
2125,2088
2137,2836
2196,2792
2195,2747
1859,1860
1810,1890
1755,1930
2131,2132
2192,2170
1862,1954
1861,1873
1812,1851
1860,1943
1809,1878
1756,1838
1869,1961
1822,1980
1821,1959
1916,2009
1819,1907
1764,1887
1820,1911
1698,1787
1757,1824
1566,1711
1567,1673
1488,1630
1489,1625
1412,1601
1413,1608
1414,1593
1818,1926
1568,1643
1410,1582
2128,2269
2189,2296
2066,2222
2065,2246
2067,2236
1643,1892
1571,1825
1491,1740
2004,2211
2003,2092
1697,1808
2135,2717
2075,2158
1642,1861
1955,2030
2130,2268
2005,2095
1858,1923
1816,8488
1864,8481
1766,1932
1910,2094
1868,1952
2188,3115
2127,3084
1903,1966
2001,2055
2063,2742
2062,2302
1813,1856
1758,1793
1639,1819
1640,1838
1952,2066
2126,8570
1569,1797
1965,2113
1966,2159
2014,2264
1490,1752
1917,2041
1870,2004
1871,2014
1570,1788
1707,1884
2076,2178
2013,2114
1964,2066
1487,1631
1908,2315
2251,3681
2199,3625
2198,3488
2136,2740
1641,1993
1954,2746
1765,1905
1857,1939
2187,2365
1904,1970
1856,1929
1951,2075
1708,2763
245,8799
244,8782
357,8786
246,8914
247,8943
197,9037
223,9015
44,9379
43,9439
3,9575
23,9549
22,9538
63,9321
85,9263
84,9218
108,8718
149,8672
172,9063
296,8766
294,8814
355,8914
354,8946
326,9024
295,8923
291,8935
293,9057
260,8943
356,8974
441,8574
412,8597
329,8932
300,8876
148,8646
214,8884
146,8767
110,8848
262,8909
258,9322
292,9085
257,9387
235,8907
187,8807
212,8863
211,8890
186,8811
162,8785
161,8864
165,8763
189,8963
238,9044
237,9009
263,8945
265,8964
266,8942
267,8930
268,8770
26,9539
25,9507
105,65535
62,65535
83,65535
126,8885
175,9320
152,9254
151,9244
150,9203
103,8823
242,8716
191,8670
192,8721
217,8744
218,8797
145,8707
144,8791
167,8699
190,8677
219,8814
159,8911
185,8855
158,8968
188,8799
160,8876
143,65535
122,65535
75,65535
54,65535
198,9448
270,8811
221,8852
301,8909
302,8746
330,8773
331,8795
115,8847
133,8906
139,8803
134,8880
114,9404
48,65535
69,65535
92,9080
164,8873
4,65535
107,9225
129,9310
109,8750
125,8791
124,8765
127,65535
82,65535
67,65535
91,9248
93,9047
137,9182
113,9202
112,9160
136,65535
49,65535
72,65535
71,65535
406,1681
805,7090
858,6895
859,7036
967,1077
1142,420
1080,6735
1022,6776
1079,6768
968,6891
1206,417
915,7042
916,7077
914,7014
807,7129
911,8236
1078,6992
1207,409
1278,428
1277,431
1344,451
1415,492
1492,547
1345,456
1346,414
1208,394
1209,363
1143,344
1144,324
1145,299
1417,443
1493,505
1494,523
1572,539
1081,7061
970,7264
408,1706
382,1699
437,1627
467,1603
409,1680
403,1755
432,1989
433,1831
404,1733
352,1732
351,1730
349,1693
317,1885
374,1708
346,1759
283,1919
410,1587
438,1604
465,1632
490,1570
491,1522
435,1621
436,1604
379,1681
323,1761
289,1780
377,1664
378,1689
592,1833
593,1873
552,1781
445,1878
424,1861
423,1878
416,1931
361,1946
362,1931
371,1885
372,1819
343,1963
344,1960
286,1803
227,1746
252,1736
284,1755
318,1763
250,1792
312,1766
340,1759
368,1783
369,1793
370,1958
341,1772
367,1796
308,1919
276,1890
277,1887
280,1818
310,1783
338,1830
366,1877
274,1912
305,2077
420,2040
363,1930
418,1938
550,7081
579,7104
576,7049
577,7061
578,7077
520,7057
618,7071
662,7101
619,7088
620,7101
621,7095
665,7077
666,7069
664,7097
580,7116
2260,65535
2257,65535
2206,65535
2146,65535
2314,65535
2313,65535
2312,65535
2373,65535
2256,65535
2205,65535
2434,65535
2435,65535
2375,65535
2376,65535
2433,65535
2491,65535
2490,65535
2492,65535
2546,65535
2597,65535
2596,65535
2544,65535
2145,65535
2082,65535
2020,65535
2494,65535
0,65535
11,65535
1052,2068
1053,2055
941,2095
1740,2071
1796,2097
1615,1936
1681,1997
1545,1855
1797,2134
1544,1875
1741,2129
1795,2170
1617,1921
1546,1908
1616,1931
1683,1964
1467,1835
1547,1893
1465,1919
1387,1915
1388,1895
1464,1982
1462,2059
1461,2080
1542,2144
1463,2023
1682,2072
1543,1983
1618,1935
1742,2155
1460,2246
1248,2021
1850,2074
1801,2073
1803,2026
882,1699
881,1708
938,1758
883,1719
940,2838
1998,2017
1902,1958
1807,1866
1691,1907
1694,1813
1693,1861
1749,1938
1752,1887
1753,1844
1627,1791
1628,1761
1557,1739
1479,1691
1402,1661
1808,1855
1946,2155
1947,2090
1948,2077
1997,2032
1855,1879
1690,1886
2060,2150
1949,2305
1950,2001
1751,1930
1692,1889
1999,2009
1901,2349
1900,2361
1852,2085
1853,1964
1805,1946
1750,1943
1854,1920
1806,1906
1748,1987
2061,2204
2000,2134
1804,2139
1899,2105
2884,65535
2892,65535
2883,65535
2876,65535
2874,65535
2882,65535
2877,65535
2911,65535
2905,65535
2906,65535
2896,65535
2887,65535
2881,65535
2880,65535
2888,65535
2902,65535
2903,65535
2907,65535
2912,65535
2895,65535
2894,65535
2875,65535
2885,65535
2893,65535
2904,65535
2865,65535
2866,65535
2909,65535
2913,65535
2886,65535
2878,65535
2869,65535
2871,65535
2872,65535
2879,65535
2870,65535
1330,1715
1331,1673
1401,1666
1262,1703
1263,1697
1478,1677
1403,1656
1261,1806
1480,1667
1264,1723
1390,1829
1389,1856
1319,1849
1251,1862
1250,1948
1285,319
1284,304
1214,254
1146,271
1505,540
1504,525
1582,559
1581,503
1713,466
1771,447
1654,598
1653,568
1651,523
2096,1342
2033,1302
1972,1273
1923,1205
1922,1183
1874,877
1873,839
1919,814
1829,1554
1579,392
1424,378
1711,440
1348,368
1419,450
1359,689
1429,591
1428,581
1421,403
1577,442
1499,426
1230,1465
1365,842
1511,771
1300,1447
1366,1419
1512,789
1716,653
1503,573
1276,428
1347,394
1349,346
1645,492
1578,470
1770,444
1715,499
1150,283
1217,295
1149,259
1580,449
1352,336
1502,428
1825,769
1718,734
1717,710
1872,892
1656,675
1648,475
1712,452
1213,329
1212,368
1084,194
1420,387
1281,417
1282,586
1587,646
1586,613
1585,603
1652,589
1427,499
1975,1377
1977,1445
1932,1515
1931,2140
1426,457
1422,420
1425,442
1583,534
1501,462
1283,328
1286,400
1215,323
1211,527
1210,497
1083,262
1655,656
2220,1383
1355,5891
1772,454
1436,838
1435,829
1589,762
1163,1499
1735,1728
1791,1661
1841,1638
1840,1594
1219,355
1220,403
1647,461
1646,453
1279,491
1714,476
1575,558
1576,524
1498,520
1573,567
1496,588
1497,559
2177,4405
2176,4475
2294,4444
2293,4520
2237,4452
2236,4481
2364,4253
2302,4193
2301,4115
2245,4017
2056,4323
2057,4367
2055,4126
2184,4178
2120,4184
2244,4098
2538,4548
2537,4510
2591,4535
1940,4310
1989,4318
1990,4254
2539,4526
2482,4626
2483,4391
2424,4287
2121,4245
2119,4058
2050,4383
2049,4445
2048,4863
2185,4211
2243,3937
2299,4151
2241,4100
2485,4469
2542,4524
2353,4483
2292,4390
2419,4303
2478,4364
2479,4381
2536,4467
2484,4430
2486,4423
2354,4378
2416,4499
2242,4145
2355,4372
2300,4158
1991,4258
1992,4265
2477,4356
2534,4366
2535,4466
2588,4403
2587,4418
2630,4438
2051,4179
2116,4073
2175,4573
2586,65535
2541,4660
2178,4380
2179,4183
2240,4130
2239,4354
2238,4424
2052,4310
2053,4276
1987,4550
1988,4587
1939,4500
2594,4632
2593,4604
2358,4260
2357,4267
2420,4310
2247,4306
2427,4396
2428,4418
2181,3977
2180,4026
2417,4358
2590,4516
2297,4139
2361,4331
2362,4214
2423,4302
2422,4267
2174,4738
2356,4397
1941,4299
2365,4430
2112,4743
2047,4885
2182,4116
2359,4193
2533,5131
2295,4456
2115,4146
2632,4576
2631,4515
2186,4379
2298,4225
2360,4249
2235,4701
2291,4714
2487,4645
2246,4238
2425,5046
2117,4370
2543,4598
1893,65535
2421,4402
2476,4412
2592,4682
604,7066
