middle_point_id,reach_time_minutes
2835,65535
2836,65535
2806,65535
2822,65535
2823,65535
2807,65535
2846,65535
887,2064
888,2078
1326,2260
1185,2229
999,2210
1057,2357
1552,2852
1120,2218
1473,2878
944,2358
832,2059
1257,2236
1396,2743
1622,2875
1327,2344
1184,2222
1183,2229
1324,2425
1255,2844
1394,2712
1252,3014
1253,3040
1182,3045
1328,65535
1470,2803
1321,2994
1322,2935
1323,2885
1391,3007
1551,2834
1393,2776
1472,2878
1471,2767
1181,3374
1118,3059
1059,2168
1121,2186
1469,3001
1468,3061
1548,2985
1325,2365
1625,2932
1623,2866
1258,2257
1256,2294
791,2174
891,2171
703,2209
704,2214
660,2221
1553,2859
1624,2889
1554,2990
1474,2903
1475,2927
1550,2789
1549,2852
1320,3006
1466,3081
1541,3640
1318,3119
1249,3141
1186,2216
1003,2166
1002,2161
741,2123
788,2147
434,2193
697,2211
752,2235
1056,2232
1006,2205
907,2374
518,2251
1011,2338
1000,2194
1055,1622
997,1353
994,1368
996,1323
995,1331
991,1810
1112,4445
1114,2052
1051,2015
1398,3852
1395,2812
1001,2169
1811,2828
1960,2983
1769,3104
1823,3113
1329,65535
1332,2707
1259,4315
1200,2430
1199,2428
1140,2463
1141,2692
783,2060
1689,2912
1802,3020
1945,3356
2183,3838
2418,4344
1994,3392
1995,3788
2059,3217
1621,65535
1555,2887
1754,2984
1180,3090
1106,3045
933,3206
827,1896
2122,4579
2124,3056
493,2262
519,2257
544,2247
545,2252
494,2262
470,2282
543,2244
469,2325
517,2277
574,2250
573,2232
495,2279
546,2261
613,2212
612,2223
492,2270
572,2239
571,2257
570,2257
610,2264
575,2307
547,2298
516,2288
611,2241
542,2275
569,2235
609,2199
548,2330
549,2359
1404,2693
1405,2380
1266,2355
1193,2398
743,2141
742,2132
747,2184
746,2199
745,2204
744,2156
790,2170
789,2156
839,2174
838,2154
738,2064
739,2090
740,2109
890,2147
834,2084
784,2082
889,2116
856,2472
855,2409
854,2415
853,2396
852,2387
910,2400
909,2389
908,2378
964,2382
965,2386
1020,2783
966,2410
963,2350
1021,2455
1271,2431
1270,2431
1339,2438
1338,2650
1071,2358
1072,2352
1135,2399
1408,2661
1337,2533
1269,2494
1268,2524
1136,2599
1075,2408
1077,2454
1076,2417
1019,2412
1018,2386
1074,2631
1137,2616
1272,2643
1274,2737
1275,2810
1205,2797
1204,2819
1273,2673
1198,2489
1197,2311
1341,2700
1134,2344
1133,2302
1069,2314
1132,2294
1073,2390
1203,2759
1202,2745
1201,2686
1139,2742
1267,2340
1138,2752
1340,2750
1196,2302
1342,2717
1409,2816
1485,2712
1407,2743
1561,2697
1632,2724
1484,2741
1483,2655
1562,2687
1194,2291
1130,2280
1195,2307
1335,2372
1129,2275
1066,2272
1128,2241
1067,2329
1131,2287
1334,2396
1336,2354
1265,2734
1333,2679
1406,2386
857,3528
803,3562
804,7039
860,7047
969,7000
913,6987
912,6925
861,7057
806,7100
659,2211
751,2224
658,2204
705,2218
702,2200
706,2223
753,2247
614,2216
701,2188
661,2233
616,2228
848,2281
796,2234
797,2254
798,2261
750,2224
707,2253
615,2261
748,2221
845,2283
846,2246
657,2266
749,2234
795,2235
617,2271
663,2276
794,2264
847,2264
849,2310
902,2288
901,2304
900,2331
793,2202
899,2272
898,2230
897,2215
844,2273
842,2193
841,2183
956,2368
792,2180
843,2239
840,2218
850,2334
903,2273
800,2306
755,2333
756,2350
710,2411
711,2938
962,2303
961,2297
904,2280
906,2363
851,2367
802,2353
801,2317
799,2283
959,2312
1014,2329
1013,2354
708,2352
709,2380
754,2287
757,2411
1017,2711
1016,2395
960,2287
905,2316
958,2316
957,2347
1070,2310
1015,2312
1012,2335
1068,2323
1005,2215
1004,2180
1060,2172
1063,2208
1065,2231
1127,2237
1062,2230
1124,2202
1123,2189
1125,2222
1188,2220
1122,2198
1058,2176
947,2153
946,2108
949,2187
945,2103
948,2185
1190,2276
1187,2234
951,2201
895,2200
952,2227
1009,2279
1008,2258
1010,2349
1007,2210
1061,2251
954,2263
896,2195
953,2272
1126,2240
1064,2212
1189,2254
955,2640
950,2187
892,2154
786,2134
836,2149
837,2150
787,2139
700,2206
655,2271
654,2266
653,2204
698,2226
699,2215
608,2174
696,2151
656,2268
833,2068
785,2098
835,2129
693,2070
894,2204
893,2165
1343,2733
1192,2834
1191,2795
828,1932
829,1957
780,2010
830,1997
779,1976
782,2051
529,2046
886,2073
596,2002
556,2017
598,1997
597,1992
526,2045
555,2037
525,2068
524,2084
523,2097
688,2062
607,2158
650,2130
651,2135
652,2166
737,2050
694,2103
695,2115
645,2069
646,2081
690,2064
600,2080
599,2044
781,2030
736,2041
558,2066
644,2059
643,2083
648,2096
692,2077
691,2064
513,2238
541,2323
540,2303
568,2232
530,2059
831,2064
559,2094
560,2137
642,1977
557,2012
496,2135
471,2164
444,2232
446,2196
528,2027
527,2036
562,2140
602,2122
734,2055
466,2741
464,2220
463,2207
478,2154
481,2193
480,2141
479,2129
647,2129
488,2241
502,2046
689,2068
533,2140
532,2135
531,2121
601,2110
484,2220
508,2170
510,2209
509,2181
534,2147
482,2697
506,2180
606,2171
455,2173
429,2770
456,2746
457,2765
428,2781
458,2712
554,2066
594,2064
640,1947
639,2029
551,2130
681,2045
636,2066
635,2084
590,2114
778,1920
777,1909
485,2246
486,2238
462,2713
563,2185
885,2084
943,2771
564,2213
641,1941
504,2067
503,2064
501,2078
500,2136
561,2134
254,2300
350,2252
321,2321
319,2308
251,2347
375,2251
347,2285
687,2089
565,2257
539,2298
511,2227
536,2278
649,2173
603,2290
605,3550
733,2067
735,2057
489,2258
514,2290
461,2778
460,2754
459,2729
468,2322
154,2885
178,2840
203,2825
228,2796
402,2309
401,2783
505,2090
522,2139
451,2300
452,2259
477,2167
476,2188
483,2773
884,2014
431,2299
430,2784
454,2783
595,2017
395,2825
394,2797
422,2735
417,2257
390,2304
538,2793
567,2178
426,2789
397,2835
398,2843
499,2973
475,2181
497,2138
498,2162
311,2346
342,2306
345,2333
421,2843
515,2333
472,2856
448,2887
473,2912
474,2957
353,2325
381,2277
256,2404
290,2380
324,2348
380,2311
407,2284
253,2799
226,2815
201,2840
177,2859
824,1976
775,1918
826,1871
939,1846
936,2043
937,1895
880,2005
566,2796
2821,65535
2834,65535
2833,65535
2789,65535
2790,65535
2770,65535
2788,65535
2776,65535
2795,65535
2775,65535
2794,65535
2825,65535
2824,65535
2826,65535
2811,65535
2812,65535
2796,65535
2827,65535
2858,65535
2855,65535
2849,65535
2838,65535
2814,65535
2813,65535
2828,65535
2839,65535
2791,65535
2792,65535
2803,65535
2830,65535
2815,65535
2819,65535
2818,65535
2817,65535
2831,65535
2810,65535
2829,65535
2783,65535
2820,65535
2804,65535
2785,65535
2784,65535
2762,65535
2768,65535
2751,65535
2750,65535
2733,65535
2769,65535
2720,65535
2761,65535
2741,65535
2837,65535
2793,65535
2808,65535
2753,65535
2736,65535
2735,65535
2809,65535
2772,65535
2845,65535
2844,65535
2848,65535
2777,65535
2778,65535
2779,65535
2759,65535
2780,65535
2797,65535
2843,65535
2832,65535
2842,65535
2758,65535
2738,65535
2774,65535
2773,65535
2771,65535
2851,65535
2847,65535
2854,65535
2721,65535
2756,65535
2737,65535
2840,65535
2752,65535
2754,65535
2755,65535
2852,65535
2853,65535
2856,65535
2841,65535
2742,65535
2727,65535
2744,65535
2726,65535
2743,65535
2725,65535
2746,65535
2787,65535
2766,65535
2763,65535
2765,65535
2745,65535
2764,65535
2552,65535
2501,65535
2443,65535
2442,65535
2320,65535
2381,65535
2382,65535
2498,65535
2499,65535
2438,65535
2439,65535
2497,65535
2441,65535
2379,65535
2380,65535
2319,65535
2551,65535
2550,65535
2563,7557
2321,7093
2322,7062
2383,7074
2384,7280
2446,7322
2445,7329
2503,7348
2385,7313
2504,7678
2505,7700
2557,7724
2558,7749
2559,7773
2560,7737
2564,7905
2562,7625
2561,7665
2605,7680
2609,7952
2565,8028
2566,8044
2515,8055
2397,6439
2457,8085
2458,8107
2401,6516
2337,6352
2336,6356
2399,6398
2398,6419
2402,6576
2333,6576
2273,6611
2219,6635
2218,6647
2159,6672
2454,7264
2393,7230
2512,7524
2502,7516
2608,7943
2156,6794
2155,6826
2154,6855
2213,6871
2212,6883
2211,6931
2210,6972
2264,6979
2324,7013
2323,7029
2030,65535
2094,65535
2157,6758
2450,7921
2388,7970
2387,8038
2326,8075
2266,8110
2265,7454
2508,7892
2396,6508
2335,6526
2334,6537
2158,6697
2279,8666
2278,8630
2222,8599
2221,8581
2276,8563
2275,6043
2261,7286
2207,7323
2149,65535
2554,7406
2599,7438
2633,7484
2664,9171
2689,9229
2690,9335
2691,9373
2692,9406
2152,6967
2089,7046
2088,7034
2025,7179
2603,65535
2602,65535
2556,65535
2693,65535
2671,65535
2670,65535
2694,65535
2553,65535
2665,65535
2705,65535
2710,65535
2668,65535
2639,65535
2463,6586
2521,6622
2572,6645
2451,7806
2390,7775
2391,7595
2392,7558
2215,7800
2268,65535
2093,65535
2092,65535
2028,65535
2024,8857
2150,8283
2086,8331
2209,8265
2023,8433
2087,8386
2148,8599
2262,7272
2327,65535
1560,2705
1630,2761
1631,2732
1559,2768
1629,2838
1558,2793
1634,2772
1633,2722
1482,2724
1481,2743
1699,2739
1700,2738
1701,2755
1563,2787
2070,2998
2008,2994
2009,2994
1959,2974
1958,3032
2006,3071
1957,3066
1956,2991
2193,3187
2132,3129
1912,3012
1911,2965
1865,3007
1866,3099
2007,3067
2069,3102
2010,3011
2011,3060
1961,3026
2072,3049
1913,3099
1867,3150
1962,3060
1914,3086
1915,3202
1909,2923
1636,2796
1635,2801
1564,2814
1702,2785
1637,2806
1638,2862
1565,2811
1486,2826
1760,2778
1704,2852
1703,2812
1763,2955
1762,2821
1817,2967
1705,2901
1863,2860
1815,2826
1759,2807
863,4808
758,4900
808,4854
982,5052
1036,5042
1099,4945
1100,5093
1166,5374
1167,5928
1237,5526
1238,5561
1375,5631
1308,5750
1309,5609
1236,5860
1235,5461
1101,5124
1037,5061
971,4592
1025,4582
1026,4565
1027,4585
1089,4549
720,5117
674,5166
864,4776
865,4752
919,4606
1024,4602
975,4722
974,4700
1028,4649
873,4930
925,4876
924,4853
917,4670
918,4646
623,5090
712,4946
713,4982
667,4988
622,5043
809,4840
719,5091
765,5048
972,4584
868,4961
869,5002
815,5028
920,4895
973,4614
981,5046
926,4955
927,4963
928,4987
1354,4437
1288,4461
1218,4517
1152,4502
1023,4629
1353,4421
1085,4617
1148,4425
1147,4418
1082,4390
772,5016
771,4973
819,4948
584,5325
628,5692
629,5663
1033,4991
978,4948
1031,4921
1030,4874
1029,4856
1091,4833
1035,5075
1034,5015
979,4975
1526,5750
1449,5788
1378,5816
1448,5739
1524,5717
1038,5108
1447,6180
1768,3110
1710,3068
1767,3083
391,2761
365,2820
339,2849
400,2844
393,2830
392,2814
396,2846
399,2861
443,2247
449,2879
450,2869
419,2799
414,2952
415,2859
387,2852
388,2845
389,2790
282,2801
281,2843
314,2835
313,2816
405,2215
411,3154
442,3113
255,2814
376,2263
373,2314
278,2733
275,2791
248,2826
335,2860
334,2864
306,2828
307,2816
176,2875
225,2834
320,2765
249,2826
287,2753
285,2761
776,1894
731,1902
315,2811
316,2793
204,2898
440,2293
439,2708
166,3345
269,3262
383,3200
1247,4390
1246,4412
1384,4496
1679,4658
1178,4383
1105,3049
1172,3068
1173,3118
1242,3120
1241,3112
1314,3269
1313,3175
1171,3094
1382,3375
1243,3317
1317,3456
1107,3057
1108,3236
1109,3521
1041,3066
1043,3276
1042,3267
1044,3330
1176,4284
1174,3343
1177,4332
1110,4339
985,3112
986,3155
932,3173
774,1929
730,1919
825,1932
728,1959
729,1940
727,2018
682,1956
684,1938
685,1918
732,1920
683,2002
2134,3288
2194,3311
2068,3133
2129,3187
1905,2892
1907,2932
1906,2890
1953,2912
2002,2931
2064,2955
2125,3030
2137,3747
2196,3418
2195,3364
1859,2875
1810,2880
1755,2829
2131,3184
2192,3220
1862,2913
1861,2940
1812,2913
1860,2957
1809,3022
1756,2793
1869,3156
1822,3124
1821,3141
1916,3195
1819,3016
1764,2941
1820,3115
1698,2746
1757,2780
1566,2815
1567,2842
1488,2828
1489,2824
1412,2745
1413,2751
1414,2779
1818,3052
1568,2994
1410,2809
2128,3221
2189,3249
2066,3206
2065,3245
2067,3184
1643,3028
1571,2978
1491,2884
2004,3216
2003,2985
1697,2775
2135,3503
2075,3365
1642,3004
1955,2970
2130,3271
2005,3168
1858,2894
1816,8488
1864,8481
1766,3077
1910,2901
1868,3147
2188,3331
2127,3300
1903,3205
2001,3019
2063,3271
2062,3284
1813,2916
1758,2827
1639,2968
1640,2962
1952,2964
2126,8570
1569,2948
1965,3222
1966,3268
2014,3288
1490,2900
1917,3181
1870,3170
1871,3184
1570,2919
1707,3018
2076,3355
2013,3320
1964,3274
1487,2856
1908,2977
2251,5121
2199,5065
2198,4928
2136,3505
1641,3025
1954,3223
1765,3096
1857,3053
2187,3436
1904,3277
1856,3165
1951,2981
1708,3228
245,8799
244,8782
357,8786
246,8914
247,8943
197,9037
223,9015
44,9379
43,9439
3,9575
23,9549
22,9538
63,9321
85,9263
84,9218
108,8718
149,8672
172,9063
296,8766
294,8814
355,8914
354,8946
326,9024
295,8923
291,8935
293,9057
260,8943
356,8974
441,8574
412,8597
329,8932
300,8876
148,8646
214,8884
146,8767
110,8848
262,8909
258,9322
292,9085
257,9387
235,8907
187,8807
212,8863
211,8890
186,8811
162,8785
161,8864
165,8763
189,8963
238,9044
237,9009
263,8945
265,8964
266,8942
267,8930
268,8770
26,9539
25,9507
105,65535
62,65535
83,65535
126,8885
175,9320
152,9254
151,9244
150,9203
103,8823
242,8716
191,8670
192,8721
217,8744
218,8797
145,8707
144,8791
167,8699
190,8677
219,8814
159,8911
185,8855
158,8968
188,8799
160,8876
143,65535
122,65535
75,65535
54,65535
198,9448
270,8811
221,8852
301,8909
302,8746
330,8773
331,8795
115,8847
133,8906
139,8803
134,8880
114,9404
48,65535
69,65535
92,9080
164,8873
4,65535
107,9225
129,9310
109,8750
125,8791
124,8765
127,65535
82,65535
67,65535
91,9248
93,9047
137,9182
113,9202
112,9160
136,65535
49,65535
72,65535
71,65535
406,2726
805,7090
858,6895
859,7036
967,3954
1142,4089
1080,6735
1022,6776
1079,6768
968,6891
1206,4046
915,7042
916,7077
914,7014
807,7129
911,8236
1078,6992
1207,4155
1278,4175
1277,4173
1344,4214
1415,4332
1492,4387
1345,4254
1346,4219
1208,4156
1209,4290
1143,4333
1144,4349
1145,4379
1417,4355
1493,4449
1494,4483
1572,4499
1081,7061
970,7264
408,2304
382,2304
437,2296
467,2751
409,2737
403,2330
432,2793
433,2774
404,2756
352,2807
351,2823
349,2786
317,2347
374,2783
346,2759
283,2782
410,2727
438,2744
465,2232
490,2271
491,2737
435,2255
436,2281
379,2857
323,2977
289,2869
377,2750
378,2356
592,2158
593,2128
552,2132
445,2237
424,3062
423,2844
416,2850
361,2815
362,2785
371,2808
372,2776
343,2787
344,2804
286,2896
227,2808
252,2796
284,2772
318,2803
250,2880
312,2786
340,2780
368,2814
369,2858
370,2852
341,2793
367,2839
308,2827
276,2771
277,2751
280,2873
310,2805
338,2839
366,2907
274,2810
305,3012
420,2864
363,2772
418,2773
550,7081
579,7104
576,7049
577,7061
578,7077
520,7057
618,7071
662,7101
619,7088
620,7101
621,7095
665,7077
666,7069
664,7097
580,7116
2260,65535
2257,65535
2206,65535
2146,65535
2314,65535
2313,65535
2312,65535
2373,65535
2256,65535
2205,65535
2434,65535
2435,65535
2375,65535
2376,65535
2433,65535
2491,65535
2490,65535
2492,65535
2546,65535
2597,65535
2596,65535
2544,65535
2145,65535
2082,65535
2020,65535
2494,65535
0,65535
11,65535
1052,1344
1053,1335
941,708
1740,3511
1796,3522
1615,3199
1681,3437
1545,3085
1797,3516
1544,3094
1741,3428
1795,4440
1617,3236
1546,3241
1616,3118
1683,3348
1467,3033
1547,3098
1465,3214
1387,3099
1388,3081
1464,3277
1462,3499
1461,3520
1542,3584
1463,3463
1682,3393
1543,3153
1618,3228
1742,3595
1460,4288
1248,3461
1850,3052
1801,3038
1803,2986
882,1894
881,1859
938,1878
883,1902
940,0
1998,3196
1902,3091
1807,3009
1691,2927
1694,2893
1693,3052
1749,3018
1752,2967
1753,2924
1627,2870
1628,2841
1557,2819
1479,2713
1402,2704
1808,2995
1946,3115
1947,3146
1948,3188
1997,3192
1855,3102
1690,2906
2060,3295
1949,3327
1950,3182
1751,3010
1692,3029
1999,3209
1901,3335
1900,3376
1852,3525
1853,3404
1805,3146
1750,2970
1854,3170
1806,3088
1748,2950
2061,3336
2000,3334
1804,3226
1899,3545
2884,65535
2892,65535
2883,65535
2876,65535
2874,65535
2882,65535
2877,65535
2911,65535
2905,65535
2906,65535
2896,65535
2887,65535
2881,65535
2880,65535
2888,65535
2902,65535
2903,65535
2907,65535
2912,65535
2895,65535
2894,65535
2875,65535
2885,65535
2893,65535
2904,65535
2865,65535
2866,65535
2909,65535
2913,65535
2886,65535
2878,65535
2869,65535
2871,65535
2872,65535
2879,65535
2870,65535
1330,2806
1331,2720
1401,2716
1262,2725
1263,2721
1478,2757
1403,2682
1261,2734
1480,2702
1264,2751
1390,3013
1389,3072
1319,3050
1251,3105
1250,3181
1285,4392
1284,4365
1214,4391
1146,4396
1505,4547
1504,4535
1582,4519
1581,4484
1713,4456
1771,4431
1654,4618
1653,4590
1651,4515
2096,5662
2033,5622
1972,5593
1923,5525
1922,5503
1874,5704
1873,5908
1919,4865
1829,6134
1579,4383
1424,4387
1711,4417
1348,4259
1419,4410
1359,4651
1429,4602
1428,4588
1421,4306
1577,4344
1499,4316
1230,4895
1365,4832
1511,4754
1300,4877
1366,4849
1512,4782
1716,4673
1503,4658
1276,6278
1347,4406
1349,4285
1645,4392
1578,4370
1770,4423
1715,4489
1150,4484
1217,4495
1149,4460
1580,4429
1352,4416
1502,4447
1825,4818
1718,4772
1717,4747
1872,4853
1656,4693
1648,4495
1712,4437
1213,4410
1212,4422
1084,4430
1420,4290
1281,4386
1282,4456
1587,4596
1586,4565
1585,4555
1652,4539
1427,4524
1975,5697
1977,5765
1932,5835
1931,6460
1426,4476
1422,4328
1425,4461
1583,4608
1501,4397
1283,4342
1286,4532
1215,4467
1211,4376
1210,4345
1083,4401
1655,4727
2220,6021
1355,5891
1772,4484
1436,4800
1435,4790
1589,4723
1163,4928
1735,6048
1791,5981
1841,5958
1840,5914
1219,4600
1220,4639
1647,4458
1646,4467
1279,4239
1714,4466
1575,4395
1576,4357
1498,4365
1573,4470
1496,4425
1497,4396
2177,4405
2176,4475
2294,4444
2293,4520
2237,4452
2236,4481
2364,4253
2302,4193
2301,4115
2245,4017
2056,4323
2057,4367
2055,4126
2184,4178
2120,4184
2244,4098
2538,4548
2537,4510
2591,4535
1940,4310
1989,4318
1990,4254
2539,4526
2482,4626
2483,4391
2424,4287
2121,4245
2119,4058
2050,4383
2049,4445
2048,4863
2185,4211
2243,3937
2299,4151
2241,4100
2485,4469
2542,4524
2353,4483
2292,4390
2419,4303
2478,4364
2479,4381
2536,4467
2484,4430
2486,4423
2354,4378
2416,4499
2242,4145
2355,4372
2300,4158
1991,4258
1992,4265
2477,4356
2534,4366
2535,4466
2588,4403
2587,4418
2630,4438
2051,4179
2116,4073
2175,4573
2586,65535
2541,4660
2178,4380
2179,4183
2240,4130
2239,4354
2238,4424
2052,4310
2053,4276
1987,4550
1988,4587
1939,4500
2594,4632
2593,4604
2358,4260
2357,4267
2420,4310
2247,4306
2427,4396
2428,4418
2181,3977
2180,4026
2417,4358
2590,4516
2297,4139
2361,4331
2362,4214
2423,4302
2422,4267
2174,4738
2356,4397
1941,4299
2365,4430
2112,4743
2047,4885
2182,4116
2359,4193
2533,5131
2295,4456
2115,4146
2632,4576
2631,4515
2186,4379
2298,4225
2360,4249
2235,4701
2291,4714
2487,4645
2246,4238
2425,5046
2117,4370
2543,4598
1893,65535
2421,4402
2476,4412
2592,4682
604,7066
