middle_point_id,reach_time_minutes
2835,65535
2836,65535
2806,65535
2822,65535
2823,65535
2807,65535
2846,65535
887,3024
888,3038
1326,3661
1185,3189
999,3170
1057,3350
1552,3813
1120,3178
1473,3786
944,3318
832,3019
1257,3376
1396,3703
1622,3835
1327,3784
1184,3182
1183,3189
1324,3871
1255,3844
1394,3882
1252,4067
1253,4036
1182,4021
1328,65535
1470,3900
1321,4074
1322,4015
1323,3965
1391,4087
1551,3832
1393,3940
1472,3838
1471,3877
1181,4334
1118,4079
1059,3127
1121,3146
1469,3961
1468,4180
1548,3945
1325,3805
1625,3892
1623,3826
1258,3217
1256,3731
791,3134
891,3131
703,3169
704,3174
660,3181
1553,3809
1624,3849
1554,3834
1474,3820
1475,3827
1550,3842
1549,3894
1320,4132
1466,4184
1541,4600
1318,4246
1249,4269
1186,3176
1003,3126
1002,3121
741,3079
788,3106
434,3153
697,3171
752,3195
1056,3192
1006,3165
907,3336
518,3211
1011,3303
1000,3154
1055,2582
997,2515
994,2535
996,2496
995,2501
991,2770
1112,65535
1114,3012
1051,2975
1398,3852
1395,3772
1001,3129
1811,3788
1960,3852
1769,3873
1823,3885
1329,65535
1332,3667
1259,65535
1200,3377
1199,3375
1140,3423
1141,3652
783,3020
1689,3872
1802,3980
1945,4316
2183,4798
2418,65535
1994,4352
1995,4748
2059,4177
1621,65535
1555,3847
1754,3943
1180,65535
1106,4005
933,4166
827,2856
2122,65535
2124,4016
493,3222
519,3217
544,3207
545,3212
494,3222
470,3242
543,3204
469,3285
517,3237
574,3210
573,3192
495,3239
546,3221
613,3172
612,3183
492,3230
572,3199
571,3217
570,3217
610,3224
575,3228
547,3240
516,3248
611,3201
542,3235
569,3195
609,3159
548,3264
549,3257
1404,3653
1405,3340
1266,3315
1193,3374
743,3101
742,3096
747,3144
746,3159
745,3164
744,3116
790,3125
789,3115
839,3134
838,3114
738,3024
739,3047
740,3069
890,3107
834,3044
784,3043
889,3076
856,3432
855,3404
854,3375
853,3356
852,3347
910,3420
909,3377
908,3358
964,3342
965,3346
1020,3690
966,3370
963,3318
1021,3415
1271,3379
1270,3379
1339,3398
1338,3610
1071,3318
1072,3312
1135,3359
1408,3621
1337,3423
1269,3392
1268,3414
1136,3649
1075,3658
1077,3414
1076,3376
1019,3372
1018,3346
1074,3639
1137,3684
1272,3603
1274,3697
1275,3770
1205,3757
1204,3779
1273,3633
1198,3386
1197,3280
1341,3660
1134,3304
1133,3283
1069,3274
1132,3254
1073,3350
1203,3719
1202,3705
1201,3646
1139,3702
1267,3300
1138,3712
1340,3710
1196,3263
1342,3677
1409,3763
1485,3672
1407,3703
1561,3657
1632,3684
1484,3701
1483,3615
1562,3647
1194,3251
1130,3240
1195,3267
1335,3332
1129,3235
1066,3232
1128,3266
1067,3289
1131,3247
1334,3356
1336,3314
1265,3694
1333,3639
1406,3346
857,3688
803,3731
804,3789
860,3738
969,3758
913,3731
912,3727
861,3748
806,3791
659,3171
751,3184
658,3164
705,3182
702,3160
706,3212
753,3207
614,3176
701,3148
661,3193
616,3188
848,3241
796,3194
797,3214
798,3221
750,3184
707,3233
615,3193
748,3181
845,3243
846,3206
657,3226
749,3194
795,3195
617,3215
663,3239
794,3224
847,3224
849,3270
902,3248
901,3272
900,3256
793,3158
899,3232
898,3206
897,3175
844,3233
842,3153
841,3143
956,3312
792,3140
843,3200
840,3129
850,3294
903,3233
800,3266
755,3293
756,3310
710,3322
711,3840
962,3263
961,3257
904,3240
906,3323
851,3327
802,3313
801,3277
799,3243
959,3272
1014,3289
1013,3314
708,3312
709,3329
754,3247
757,3322
1017,3671
1016,3355
960,3247
905,3276
958,3276
957,3307
1070,3308
1015,3272
1012,3295
1068,3283
1005,3156
1004,3140
1060,3132
1063,3168
1065,3222
1127,3211
1062,3190
1124,3162
1123,3149
1125,3182
1188,3171
1122,3158
1058,3136
947,3113
946,3068
949,3147
945,3063
948,3145
1190,3236
1187,3194
951,3161
895,3160
952,3187
1009,3239
1008,3218
1010,3305
1007,3170
1061,3200
954,3293
896,3155
953,3232
1126,3200
1064,3207
1189,3214
955,3301
950,3147
892,3114
786,3100
836,3109
837,3110
787,3099
700,3166
655,3231
654,3226
653,3164
698,3175
699,3173
608,3133
696,3111
656,3228
833,3028
785,3058
835,3089
693,3030
894,3164
893,3125
1343,3693
1192,3794
1191,3755
828,2892
829,2917
780,2970
830,2957
779,2936
782,3011
529,3006
886,3033
596,2962
556,2977
598,2957
597,2952
526,3008
555,3000
525,3028
524,3044
523,3064
688,3022
607,3119
650,3090
651,3093
652,3126
737,3010
694,3063
695,3075
645,3029
646,3041
690,3024
600,3040
599,3004
781,2990
736,3001
558,3026
644,3019
643,3043
648,3056
692,3037
691,3024
513,3190
541,3283
540,3263
568,3215
530,3046
831,3024
559,3054
560,3097
642,2937
557,2972
496,3086
471,3125
444,3192
446,3156
528,2987
527,2996
562,3100
602,3082
734,3015
466,3701
464,3180
463,3167
478,3114
481,3153
480,3101
479,3089
647,3089
488,3201
502,3006
689,3028
533,3100
532,3093
531,3081
601,3070
484,3180
508,3130
510,3169
509,3141
534,3107
482,3657
506,3140
606,3131
455,3133
429,3730
456,3706
457,3725
428,3741
458,3672
554,3026
594,3024
640,2907
639,2989
551,3090
681,3005
636,3026
635,3044
590,3074
778,2880
777,2862
485,3206
486,3198
462,3192
563,3145
885,3044
943,3731
564,3173
641,2901
504,3034
503,3024
501,3038
500,3096
561,3094
254,3260
350,3212
321,3281
319,3268
251,3307
375,3211
347,3245
687,3049
565,3217
539,3258
511,3187
536,3238
649,3133
603,3250
605,4292
733,3040
735,3017
489,3218
514,3250
461,3738
460,3714
459,3692
468,3282
154,3845
178,3800
203,3785
228,3756
402,3269
401,3743
505,3085
522,3099
451,3260
452,3219
477,3144
476,3151
483,3733
884,2974
431,3263
430,3744
454,3743
595,2977
395,3785
394,3757
422,3695
417,3217
390,3263
538,3753
567,3157
426,3749
397,3795
398,3803
499,3933
475,3141
497,3098
498,3122
311,3306
342,3266
345,3293
421,3803
515,3293
472,3816
448,3847
473,3872
474,3917
353,3285
381,3237
256,3364
290,3340
324,3308
380,3271
407,3244
253,3759
226,3775
201,3800
177,3819
824,2936
775,2878
826,2831
939,2806
936,3003
937,2855
880,2965
566,3756
2821,65535
2834,65535
2833,65535
2789,65535
2790,65535
2770,65535
2788,65535
2776,65535
2795,65535
2775,65535
2794,65535
2825,65535
2824,65535
2826,65535
2811,65535
2812,65535
2796,65535
2827,65535
2858,65535
2855,65535
2849,65535
2838,65535
2814,65535
2813,65535
2828,65535
2839,65535
2791,65535
2792,65535
2803,65535
2830,65535
2815,65535
2819,65535
2818,65535
2817,65535
2831,65535
2810,65535
2829,65535
2783,65535
2820,65535
2804,65535
2785,65535
2784,65535
2762,65535
2768,65535
2751,65535
2750,65535
2733,65535
2769,65535
2720,65535
2761,65535
2741,65535
2837,65535
2793,65535
2808,65535
2753,65535
2736,65535
2735,65535
2809,65535
2772,65535
2845,65535
2844,65535
2848,65535
2777,65535
2778,65535
2779,65535
2759,65535
2780,65535
2797,65535
2843,65535
2832,65535
2842,65535
2758,65535
2738,65535
2774,65535
2773,65535
2771,65535
2851,65535
2847,65535
2854,65535
2721,65535
2756,65535
2737,65535
2840,65535
2752,65535
2754,65535
2755,65535
2852,65535
2853,65535
2856,65535
2841,65535
2742,65535
2727,65535
2744,65535
2726,65535
2743,65535
2725,65535
2746,65535
2787,65535
2766,65535
2763,65535
2765,65535
2745,65535
2764,65535
2552,65535
2501,65535
2443,65535
2442,65535
2320,65535
2381,65535
2382,65535
2498,65535
2499,65535
2438,65535
2439,65535
2497,65535
2441,65535
2379,65535
2380,65535
2319,65535
2551,65535
2550,65535
2563,65535
2321,65535
2322,65535
2383,65535
2384,65535
2446,65535
2445,65535
2503,65535
2385,65535
2504,65535
2505,65535
2557,65535
2558,65535
2559,65535
2560,65535
2564,65535
2562,65535
2561,65535
2605,65535
2609,65535
2565,65535
2566,65535
2515,65535
2397,65535
2457,65535
2458,65535
2401,65535
2337,65535
2336,65535
2399,65535
2398,65535
2402,65535
2333,65535
2273,65535
2219,65535
2218,65535
2159,65535
2454,65535
2393,65535
2512,65535
2502,65535
2608,65535
2156,65535
2155,65535
2154,65535
2213,65535
2212,65535
2211,65535
2210,65535
2264,65535
2324,65535
2323,65535
2030,65535
2094,65535
2157,65535
2450,65535
2388,65535
2387,65535
2326,65535
2266,65535
2265,65535
2508,65535
2396,65535
2335,65535
2334,65535
2158,65535
2279,65535
2278,65535
2222,65535
2221,65535
2276,65535
2275,65535
2261,65535
2207,65535
2149,65535
2554,65535
2599,65535
2633,65535
2664,65535
2689,65535
2690,65535
2691,65535
2692,65535
2152,65535
2089,65535
2088,65535
2025,65535
2603,65535
2602,65535
2556,65535
2693,65535
2671,65535
2670,65535
2694,65535
2553,65535
2665,65535
2705,65535
2710,65535
2668,65535
2639,65535
2463,65535
2521,65535
2572,65535
2451,65535
2390,65535
2391,65535
2392,65535
2215,65535
2268,65535
2093,65535
2092,65535
2028,65535
2024,65535
2150,65535
2086,65535
2209,65535
2023,65535
2087,65535
2148,65535
2262,65535
2327,65535
1560,3665
1630,3717
1631,3692
1559,3728
1629,3804
1558,3753
1634,3732
1633,3682
1482,3684
1481,3703
1699,3699
1700,3698
1701,3715
1563,3747
2070,3887
2008,3855
2009,3864
1959,3849
1958,3872
2006,3941
1957,3929
1956,3951
2193,3963
2132,3989
1912,3862
1911,3845
1865,3870
1866,3940
2007,3908
2069,3895
2010,3873
2011,4020
1961,3855
2072,3907
1913,3901
1867,3972
1962,3896
1914,3967
1915,3963
1909,3890
1636,3756
1635,3761
1564,3774
1702,3745
1637,3766
1638,3822
1565,3766
1486,3726
1760,3732
1704,3804
1703,3772
1763,3825
1762,3781
1817,3899
1705,3852
1863,3797
1815,3765
1759,3767
863,4328
758,4420
808,4374
982,4597
1036,4611
1099,65535
1100,4675
1166,65535
1167,65535
1237,65535
1238,65535
1375,65535
1308,65535
1309,65535
1236,65535
1235,65535
1101,4706
1037,4643
971,4124
1025,4107
1026,4122
1027,4135
1089,4148
720,4637
674,4686
864,4264
865,4272
919,4126
1024,4071
975,4242
974,4220
1028,4169
873,4450
925,4396
924,4373
917,4190
918,4166
623,4610
712,4466
713,4502
667,4508
622,4563
809,4360
719,4611
765,4568
972,4154
868,4481
869,4522
815,4548
920,4415
973,4201
981,4566
926,4475
927,4483
928,4507
1354,4057
1288,4067
1218,4037
1152,4175
1023,4043
1353,4044
1085,4016
1148,3885
1147,3878
1082,3850
772,4536
771,4493
819,4468
584,65535
628,65535
629,65535
1033,4511
978,4468
1031,4441
1030,4394
1029,4376
1091,4353
1035,4595
1034,4535
979,4495
1526,65535
1449,65535
1378,65535
1448,65535
1524,65535
1038,4690
1447,65535
1768,3883
1710,3837
1767,3922
391,3721
365,3780
339,3809
400,3804
393,3790
392,3774
396,3806
399,3821
443,3207
449,3839
450,3829
419,3759
414,3912
415,3819
387,3812
388,3805
389,3750
282,3761
281,3803
314,3795
313,3776
405,3175
411,3827
442,3742
255,3774
376,3223
373,3274
278,3693
275,3751
248,3786
335,3820
334,3824
306,3788
307,3776
176,3835
225,3794
320,3727
249,3786
287,3713
285,3721
776,2854
731,2862
315,3771
316,3753
204,3858
440,3253
439,3668
166,4305
269,4046
383,3949
1247,65535
1246,65535
1384,65535
1679,65535
1178,65535
1105,4009
1172,4028
1173,4078
1242,4080
1241,4072
1314,4229
1313,4135
1171,4054
1382,4335
1243,4277
1317,4416
1107,4017
1108,4196
1109,4481
1041,4026
1043,4236
1042,4227
1044,4290
1176,65535
1174,4303
1177,65535
1110,65535
985,4072
986,4115
932,4133
774,2889
730,2879
825,2892
728,2919
729,2900
727,2978
682,2916
684,2898
685,2878
732,2880
683,2962
2134,3941
2194,3951
2068,3910
2129,3939
1905,3891
1907,3890
1906,3861
1953,3914
2002,3944
2064,3975
2125,3990
2137,4103
2196,4079
2195,4055
1859,3850
1810,3840
1755,3789
2131,3924
2192,3938
1862,3824
1861,3854
1812,3779
1860,3823
1809,3982
1756,3753
1869,3930
1822,3909
1821,3912
1916,3966
1819,3863
1764,3854
1820,3901
1698,3706
1757,3740
1566,3775
1567,3815
1488,3775
1489,3745
1412,3705
1413,3711
1414,3739
1818,3927
1568,3954
1410,3769
2128,3966
2189,3994
2066,4015
2065,4048
2067,3992
1643,3806
1571,3762
1491,3741
2004,4176
2003,4018
1697,3735
2135,3994
2075,4053
1642,3822
1955,3933
2130,4110
2005,4128
1858,3854
1816,3915
1864,3908
1766,3891
1910,3860
1868,4091
2188,4075
2127,4044
1903,4064
2001,3979
2063,4132
2062,4145
1813,3813
1758,3787
1639,3854
1640,3791
1952,3924
2126,4642
1569,3746
1965,4182
1966,4228
2014,4178
1490,3730
1917,3985
1870,4021
1871,4005
1570,3755
1707,3945
2076,4070
2013,4090
1964,4039
1487,3758
1908,3937
2251,65535
2199,65535
2198,65535
2136,4043
1641,3873
1954,4183
1765,3951
1857,4013
2187,4396
1904,4070
1856,4125
1951,3941
1708,3934
245,4110
244,4098
357,3986
246,4135
247,4162
197,4237
223,4215
44,4579
43,4639
3,4775
23,4749
22,4738
63,4521
85,4463
84,4418
108,4384
149,4338
172,4302
296,4298
294,4368
355,4114
354,4146
326,4253
295,4329
291,4557
293,4422
260,4478
356,4174
441,3774
412,3809
329,4132
300,4076
148,4480
214,4630
146,4411
110,4663
262,4601
258,4540
292,4462
257,4587
235,4459
187,4464
212,4491
211,4495
186,4576
162,4590
161,4603
165,4358
189,65535
238,65535
237,65535
263,65535
265,65535
266,65535
267,65535
268,4395
26,4739
25,4707
105,65535
62,65535
83,65535
126,4599
175,4520
152,4454
151,4444
150,4403
103,65535
242,4400
191,4570
192,4624
217,4650
218,65535
145,4390
144,4717
167,4332
190,4558
219,65535
159,65535
185,65535
158,65535
188,4447
160,65535
143,65535
122,65535
75,65535
54,65535
198,4648
270,4404
221,4752
301,65535
302,4354
330,4339
331,4307
115,4692
133,4754
139,65535
134,4728
114,4715
48,65535
69,65535
92,4629
164,65535
4,65535
107,4425
129,4510
109,65535
125,65535
124,65535
127,65535
82,65535
67,65535
91,65535
93,65535
137,65535
113,65535
112,65535
136,65535
49,65535
72,65535
71,65535
406,3686
805,3760
858,3699
859,3759
967,3713
1142,3687
1080,3679
1022,3716
1079,3665
968,3704
1206,3693
915,3765
916,3790
914,3738
807,3831
911,65535
1078,3632
1207,3699
1278,3728
1277,3719
1344,3734
1415,3761
1492,3787
1345,3748
1346,3772
1208,3710
1209,3750
1143,3793
1144,3809
1145,3839
1417,3797
1493,3849
1494,3883
1572,3899
1081,3701
970,3904
408,3264
382,3264
437,3256
467,3711
409,3697
403,3289
432,3753
433,3734
404,3716
352,3767
351,3783
349,3746
317,3307
374,3743
346,3719
283,3742
410,3687
438,3704
465,3192
490,3231
491,3665
435,3215
436,3241
379,3817
323,3937
289,3829
377,3710
378,3316
592,3118
593,3088
552,3092
445,3197
424,4034
423,3804
416,3817
361,3775
362,3745
371,3768
372,3736
343,3747
344,3764
286,3856
227,3768
252,3756
284,3732
318,3763
250,3840
312,3746
340,3740
368,3774
369,3818
370,3812
341,3753
367,3799
308,3787
276,3731
277,3711
280,3833
310,3765
338,3799
366,3867
274,3770
305,3972
420,3824
363,3732
418,3733
550,3279
579,3294
576,3223
577,3242
578,3246
520,3253
618,3232
662,3231
619,3248
620,3268
621,3295
665,3267
666,3289
664,3252
580,3289
2260,65535
2257,65535
2206,65535
2146,65535
2314,65535
2313,65535
2312,65535
2373,65535
2256,65535
2205,65535
2434,65535
2435,65535
2375,65535
2376,65535
2433,65535
2491,65535
2490,65535
2492,65535
2546,65535
2597,65535
2596,65535
2544,65535
2145,65535
2082,65535
2020,65535
2494,65535
0,65535
11,65535
1052,2548
1053,2535
941,2396
1740,4332
1796,4373
1615,4235
1681,4276
1545,4196
1797,4420
1544,4210
1741,4388
1795,4570
1617,4196
1546,4201
1616,4213
1683,4308
1467,4170
1547,4175
1465,4245
1387,4281
1388,4242
1464,4306
1462,4459
1461,4480
1542,4544
1463,4423
1682,4287
1543,4265
1618,4188
1742,4480
1460,4646
1248,4290
1850,4012
1801,3998
1803,3946
882,2854
881,2819
938,2838
883,2862
940,0
1998,4156
1902,4051
1807,3969
1691,3887
1694,3853
1693,4012
1749,3978
1752,3927
1753,3884
1627,3830
1628,3801
1557,3779
1479,3673
1402,3664
1808,3955
1946,4075
1947,4106
1948,4148
1997,4152
1855,4062
1690,3866
2060,4255
1949,4287
1950,4142
1751,3970
1692,3989
1999,4169
1901,4295
1900,4336
1852,4485
1853,4364
1805,4106
1750,3930
1854,4130
1806,4048
1748,3910
2061,4219
2000,4294
1804,4186
1899,4505
2884,65535
2892,65535
2883,65535
2876,65535
2874,65535
2882,65535
2877,65535
2911,65535
2905,65535
2906,65535
2896,65535
2887,65535
2881,65535
2880,65535
2888,65535
2902,65535
2903,65535
2907,65535
2912,65535
2895,65535
2894,65535
2875,65535
2885,65535
2893,65535
2904,65535
2865,65535
2866,65535
2909,65535
2913,65535
2886,65535
2878,65535
2869,65535
2871,65535
2872,65535
2879,65535
2870,65535
1330,3766
1331,3680
1401,3676
1262,3685
1263,3681
1478,3717
1403,3642
1261,3694
1480,3662
1264,3711
1390,4153
1389,4198
1319,4175
1251,4262
1250,4348
1285,3912
1284,3885
1214,3878
1146,3857
1505,4166
1504,4061
1582,4116
1581,4044
1713,4012
1771,3994
1654,4198
1653,4170
1651,4076
2096,65535
2033,65535
1972,65535
1923,65535
1922,65535
1874,4717
1873,4507
1919,4442
1829,65535
1579,3963
1424,3969
1711,3996
1348,3820
1419,3834
1359,4297
1429,4249
1428,4238
1421,3889
1577,3920
1499,3896
1230,4595
1365,4515
1511,4420
1300,4582
1366,4613
1512,4459
1716,4256
1503,4413
1276,3728
1347,3798
1349,3834
1645,3973
1578,3950
1770,3999
1715,4054
1150,4004
1217,4016
1149,3980
1580,4009
1352,3936
1502,4028
1825,4392
1718,4351
1717,4325
1872,4428
1656,4275
1648,4062
1712,3999
1213,3871
1212,4048
1084,3890
1420,3873
1281,3808
1282,4060
1587,4174
1586,4141
1585,4130
1652,4113
1427,4276
1975,65535
1977,65535
1932,65535
1931,65535
1426,4056
1422,3900
1425,4041
1583,4129
1501,3987
1283,3862
1286,4019
1215,3950
1211,3896
1210,3865
1083,3861
1655,4271
2220,65535
1355,65535
1772,4054
1436,4480
1435,4467
1589,4388
1163,65535
1735,65535
1791,65535
1841,65535
1840,65535
1219,4195
1220,4243
1647,4038
1646,4047
1279,3759
1714,4046
1575,4039
1576,4004
1498,4020
1573,3927
1496,3962
1497,4009
2177,65535
2176,65535
2294,65535
2293,65535
2237,65535
2236,65535
2364,65535
2302,65535
2301,65535
2245,65535
2056,65535
2057,65535
2055,65535
2184,65535
2120,65535
2244,65535
2538,65535
2537,65535
2591,65535
1940,65535
1989,65535
1990,65535
2539,65535
2482,65535
2483,65535
2424,65535
2121,65535
2119,65535
2050,65535
2049,65535
2048,65535
2185,65535
2243,65535
2299,65535
2241,65535
2485,65535
2542,65535
2353,65535
2292,65535
2419,65535
2478,65535
2479,65535
2536,65535
2484,65535
2486,65535
2354,65535
2416,65535
2242,65535
2355,65535
2300,65535
1991,65535
1992,65535
2477,65535
2534,65535
2535,65535
2588,65535
2587,65535
2630,65535
2051,65535
2116,65535
2175,65535
2586,65535
2541,65535
2178,65535
2179,65535
2240,65535
2239,65535
2238,65535
2052,65535
2053,65535
1987,65535
1988,65535
1939,65535
2594,65535
2593,65535
2358,65535
2357,65535
2420,65535
2247,65535
2427,65535
2428,65535
2181,65535
2180,65535
2417,65535
2590,65535
2297,65535
2361,65535
2362,65535
2423,65535
2422,65535
2174,65535
2356,65535
1941,65535
2365,65535
2112,65535
2047,65535
2182,65535
2359,65535
2533,65535
2295,65535
2115,65535
2632,65535
2631,65535
2186,65535
2298,65535
2360,65535
2235,65535
2291,65535
2487,65535
2246,65535
2425,65535
2117,65535
2543,65535
1893,65535
2421,65535
2476,65535
2592,65535
604,65535
