middle_point_id,reach_time_minutes
2835,65535
2836,65535
2806,65535
2822,65535
2823,65535
2807,65535
2846,65535
887,204
888,178
1326,209
1185,145
999,25
1057,241
1552,789
1120,141
1473,817
944,0
832,170
1257,196
1396,268
1622,895
1327,424
1184,175
1183,219
1324,391
1255,924
1394,792
1252,1094
1253,1120
1182,1125
1328,65535
1470,883
1321,1074
1322,1015
1323,965
1391,1087
1551,798
1393,856
1472,804
1471,847
1181,1454
1118,1139
1059,107
1121,130
1469,901
1468,1141
1548,923
1325,325
1625,611
1623,777
1258,217
1256,374
791,204
891,140
703,249
704,264
660,261
1553,807
1624,733
1554,894
1474,820
1475,901
1550,869
1549,932
1320,1086
1466,1123
1541,1720
1318,1199
1249,1221
1186,162
1003,119
1002,100
741,189
788,178
434,362
697,224
752,290
1056,72
1006,168
907,451
518,292
1011,298
1000,74
1055,1622
997,1591
994,1485
996,1557
995,1541
991,1332
1112,3965
1114,1572
1051,1535
1398,972
1395,805
1001,91
1811,842
1960,1039
1769,1031
1823,1044
1329,65535
1332,437
1259,1736
1200,358
1199,355
1140,543
1141,772
783,179
1689,868
1802,897
1945,1436
2183,1918
2418,2367
1994,1472
1995,1868
2059,1177
1621,65535
1555,567
1754,1001
1180,1170
1106,2565
933,2726
827,248
2122,2333
2124,1136
493,301
519,294
544,289
545,292
494,304
470,328
543,298
469,314
517,298
574,294
573,273
495,336
546,302
613,267
612,278
492,303
572,284
571,319
570,337
610,344
575,327
547,338
516,323
611,321
542,355
569,315
609,279
548,410
549,439
1404,364
1405,346
1266,315
1193,287
743,193
742,185
747,228
746,220
745,228
744,197
790,199
789,192
839,176
838,172
738,202
739,207
740,203
890,132
834,158
784,172
889,137
856,552
855,493
854,495
853,459
852,438
910,485
909,473
908,458
964,462
965,466
1020,863
966,490
963,449
1021,535
1271,359
1270,359
1339,378
1338,389
1071,355
1072,364
1135,350
1408,463
1337,338
1269,375
1268,375
1136,379
1075,429
1077,534
1076,493
1019,462
1018,453
1074,400
1137,394
1272,379
1274,504
1275,770
1205,813
1204,797
1273,476
1198,376
1197,321
1341,405
1134,309
1133,305
1069,301
1132,289
1073,410
1203,801
1202,462
1201,446
1139,497
1267,311
1138,832
1340,372
1196,299
1342,734
1409,474
1485,792
1407,823
1561,426
1632,468
1484,821
1483,381
1562,418
1194,251
1130,241
1195,264
1335,331
1129,229
1066,220
1128,214
1067,277
1131,259
1334,432
1336,323
1265,335
1333,422
1406,345
857,1788
803,3082
804,6559
860,6567
969,6520
913,6507
912,6445
861,6577
806,6620
659,255
751,279
658,260
705,268
702,244
706,272
753,327
614,282
701,235
661,277
616,278
848,361
796,313
797,315
798,341
750,266
707,333
615,281
748,272
845,291
846,326
657,346
749,293
795,281
617,291
663,356
794,284
847,344
849,390
902,368
901,376
900,353
793,218
899,291
898,260
897,243
844,279
842,216
841,207
956,321
792,211
843,248
840,245
850,414
903,353
800,386
755,413
756,430
710,491
711,1018
962,383
961,377
904,360
906,443
851,447
802,433
801,397
799,363
959,392
1014,376
1013,435
708,432
709,460
754,367
757,442
1017,424
1016,418
960,367
905,396
958,396
957,769
1070,333
1015,392
1012,320
1068,283
1005,139
1004,124
1060,112
1063,180
1065,207
1127,228
1062,167
1124,146
1123,132
1125,157
1188,157
1122,162
1058,117
947,125
946,137
949,136
945,156
948,123
1190,356
1187,192
951,180
895,198
952,179
1009,310
1008,187
1010,300
1007,170
1061,133
954,223
896,215
953,180
1126,213
1064,185
1189,273
955,341
950,159
892,155
786,194
836,180
837,171
787,177
700,286
655,272
654,234
653,256
698,228
699,244
608,254
696,205
656,280
833,166
785,194
835,187
693,210
894,172
893,163
1343,792
1192,761
1191,550
828,245
829,229
780,230
830,257
779,221
782,180
529,322
886,192
596,317
556,355
598,253
597,264
526,391
555,819
525,859
524,828
523,422
688,213
607,238
650,222
651,215
652,246
737,197
694,207
695,206
645,230
646,223
690,199
600,253
599,239
781,185
736,195
558,297
644,229
643,240
648,218
692,207
691,202
513,318
541,403
540,383
568,894
530,350
831,174
559,304
560,829
642,321
557,330
496,446
471,863
444,940
446,892
528,326
527,354
562,320
602,286
734,208
466,778
464,406
463,895
478,910
481,952
480,941
479,932
647,264
488,821
502,349
689,208
533,384
532,396
531,861
601,799
484,492
508,849
510,462
509,860
534,840
482,966
506,920
606,251
455,1000
429,901
456,1103
457,951
428,963
458,929
554,874
594,907
640,327
639,870
551,446
681,921
636,912
635,899
590,843
778,249
777,252
485,458
486,430
462,793
563,876
885,224
943,851
564,860
641,321
504,385
503,362
501,391
500,446
561,856
254,960
350,912
321,921
319,912
251,975
375,636
347,871
687,259
565,838
539,435
511,441
536,801
649,253
603,855
605,1406
733,227
735,199
489,861
514,370
461,956
460,985
459,961
468,325
154,1105
178,1086
203,1063
228,1027
402,571
401,863
505,925
522,847
451,972
452,923
477,894
476,883
483,1066
884,893
431,495
430,864
454,917
595,851
395,1140
394,1101
422,990
417,928
390,946
538,873
567,258
426,1382
397,1074
398,1104
499,1053
475,994
497,827
498,886
311,974
342,976
345,921
421,1037
515,353
472,936
448,967
473,992
474,1037
353,919
381,899
256,1041
290,991
324,929
380,946
407,874
253,1021
226,1048
201,1074
177,1111
824,416
775,298
826,259
939,847
936,1318
937,913
880,401
566,876
2821,65535
2834,65535
2833,65535
2789,65535
2790,65535
2770,65535
2788,65535
2776,65535
2795,65535
2775,65535
2794,65535
2825,65535
2824,65535
2826,65535
2811,65535
2812,65535
2796,65535
2827,65535
2858,65535
2855,65535
2849,65535
2838,65535
2814,65535
2813,65535
2828,65535
2839,65535
2791,65535
2792,65535
2803,65535
2830,65535
2815,65535
2819,65535
2818,65535
2817,65535
2831,65535
2810,65535
2829,65535
2783,65535
2820,65535
2804,65535
2785,65535
2784,65535
2762,65535
2768,65535
2751,65535
2750,65535
2733,65535
2769,65535
2720,65535
2761,65535
2741,65535
2837,65535
2793,65535
2808,65535
2753,65535
2736,65535
2735,65535
2809,65535
2772,65535
2845,65535
2844,65535
2848,65535
2777,65535
2778,65535
2779,65535
2759,65535
2780,65535
2797,65535
2843,65535
2832,65535
2842,65535
2758,65535
2738,65535
2774,65535
2773,65535
2771,65535
2851,65535
2847,65535
2854,65535
2721,65535
2756,65535
2737,65535
2840,65535
2752,65535
2754,65535
2755,65535
2852,65535
2853,65535
2856,65535
2841,65535
2742,65535
2727,65535
2744,65535
2726,65535
2743,65535
2725,65535
2746,65535
2787,65535
2766,65535
2763,65535
2765,65535
2745,65535
2764,65535
2552,65535
2501,65535
2443,65535
2442,65535
2320,65535
2381,65535
2382,65535
2498,65535
2499,65535
2438,65535
2439,65535
2497,65535
2441,65535
2379,65535
2380,65535
2319,65535
2551,65535
2550,65535
2563,7077
2321,6613
2322,6582
2383,6594
2384,6800
2446,6842
2445,6849
2503,6868
2385,6833
2504,7198
2505,7220
2557,7244
2558,7269
2559,7293
2560,7257
2564,7425
2562,7145
2561,7185
2605,7200
2609,7472
2565,7548
2566,7564
2515,7575
2397,5959
2457,7605
2458,7627
2401,6036
2337,5872
2336,5876
2399,5918
2398,5939
2402,6096
2333,6096
2273,6131
2219,6155
2218,6167
2159,6192
2454,6784
2393,6750
2512,7044
2502,7036
2608,7463
2156,6314
2155,6346
2154,6375
2213,6391
2212,6403
2211,6451
2210,6492
2264,6499
2324,6533
2323,6549
2030,65535
2094,65535
2157,6278
2450,7441
2388,7490
2387,7558
2326,7595
2266,7630
2265,6974
2508,7412
2396,6028
2335,6046
2334,6057
2158,6217
2279,8186
2278,8150
2222,8119
2221,8101
2276,8083
2275,3999
2261,6806
2207,6843
2149,65535
2554,6926
2599,6958
2633,7004
2664,8691
2689,8749
2690,8855
2691,8893
2692,8926
2152,6487
2089,6566
2088,6554
2025,6699
2603,65535
2602,65535
2556,65535
2693,65535
2671,65535
2670,65535
2694,65535
2553,65535
2665,65535
2705,65535
2710,65535
2668,65535
2639,65535
2463,6106
2521,6142
2572,6165
2451,7326
2390,7295
2391,7115
2392,7078
2215,7320
2268,65535
2093,65535
2092,65535
2028,65535
2024,8377
2150,7803
2086,7851
2209,7785
2023,7953
2087,7906
2148,8119
2262,6792
2327,65535
1560,450
1630,841
1631,777
1559,848
1629,971
1558,873
1634,866
1633,475
1482,807
1481,786
1699,757
1700,787
1701,501
1563,867
2070,1078
2008,1051
2009,1044
1959,1042
1958,1052
2006,1061
1957,1055
1956,1001
2193,1267
2132,1209
1912,1092
1911,1045
1865,1087
1866,1179
2007,1145
2069,1151
2010,1053
2011,1140
1961,1045
2072,1069
1913,1179
1867,1230
1962,1078
1914,1087
1915,1120
1909,968
1636,818
1635,835
1564,849
1702,755
1637,851
1638,885
1565,848
1486,825
1760,858
1704,865
1703,851
1763,916
1762,859
1817,904
1705,924
1863,940
1815,906
1759,867
863,2768
758,2861
808,2812
982,2983
1036,2990
1099,3025
1100,3053
1166,3454
1167,3949
1237,3606
1238,3641
1375,3711
1308,3780
1309,3689
1236,3907
1235,3541
1101,3084
1037,3021
971,2564
1025,2547
1026,2562
1027,2575
1089,2588
720,2824
674,2870
864,2650
865,2671
919,2566
1024,2511
975,2685
974,2655
1028,2610
873,3010
925,2956
924,2933
917,2630
918,2606
623,3045
712,2917
713,2950
667,2955
622,3013
809,2798
719,2798
765,2759
972,2596
868,2708
869,2720
815,2739
920,2854
973,2641
981,2934
926,3035
927,3043
928,3067
1354,2517
1288,2501
1218,2477
1152,2546
1023,2475
1353,2501
1085,2455
1148,2385
1147,2378
1082,2329
772,3096
771,3053
819,3028
584,2944
628,2911
629,2900
1033,2831
978,2786
1031,2759
1030,2713
1029,2696
1091,2673
1035,2912
1034,2855
979,2813
1526,3830
1449,3868
1378,3896
1448,3819
1524,3797
1038,3068
1447,3860
1768,1038
1710,1016
1767,1163
391,965
365,1001
339,1025
400,986
393,1105
392,1070
396,1118
399,1004
443,991
449,1097
450,1072
419,1047
414,1032
415,955
387,983
388,950
389,937
282,1020
281,1040
314,1112
313,1100
405,415
411,1234
442,1193
255,970
376,874
373,893
278,985
275,1054
248,1102
335,1067
334,1044
306,1104
307,1094
176,1096
225,1034
320,929
249,1092
287,932
285,956
776,276
731,282
315,1009
316,990
204,1104
440,335
439,788
166,1425
269,1342
383,1280
1247,3910
1246,3932
1384,4016
1679,4178
1178,3903
1105,2569
1172,2588
1173,2638
1242,2640
1241,2632
1314,2789
1313,2695
1171,2614
1382,2895
1243,2837
1317,2976
1107,2577
1108,2756
1109,3041
1041,2586
1043,2796
1042,2787
1044,2850
1176,3804
1174,2863
1177,3852
1110,3859
985,2632
986,2675
932,2693
774,304
730,294
825,320
728,360
729,320
727,963
682,350
684,318
685,298
732,279
683,862
2134,1368
2194,1391
2068,1213
2129,1267
1905,927
1907,938
1906,970
1953,972
2002,1011
2064,1035
2125,1110
2137,1827
2196,1498
2195,1444
1859,859
1810,903
1755,849
2131,1264
2192,1300
1862,941
1861,895
1812,856
1860,893
1809,984
1756,832
1869,1012
1822,1082
1821,1031
1916,1050
1819,947
1764,941
1820,970
1698,806
1757,818
1566,895
1567,898
1488,895
1489,777
1412,768
1413,801
1414,810
1818,910
1568,836
1410,780
2128,1301
2189,1329
2066,1286
2065,1325
2067,1264
1643,892
1571,835
1491,825
2004,1296
2003,1065
1697,855
2135,1583
2075,1445
1642,880
1955,971
2130,1351
2005,1065
1858,901
1816,8008
1864,8001
1766,1062
1910,981
1868,1002
2188,1411
2127,1380
1903,1084
2001,1099
2063,1351
2062,1364
1813,933
1758,789
1639,935
1640,911
1952,1044
2126,8090
1569,866
1965,1302
1966,1348
2014,1368
1490,817
1917,1105
1870,1141
1871,1155
1570,833
1707,1098
2076,1435
2013,1400
1964,1354
1487,803
1908,1057
2251,3201
2199,3145
2198,3008
2136,1585
1641,993
1954,1048
1765,1071
1857,953
2187,1516
1904,1063
1856,1087
1951,1061
1708,1308
245,8319
244,8302
357,8306
246,8434
247,8463
197,8557
223,8535
44,8899
43,8959
3,9095
23,9069
22,9058
63,8841
85,8783
84,8738
108,8238
149,8192
172,8583
296,8286
294,8334
355,8434
354,8466
326,8544
295,8443
291,8455
293,8577
260,8463
356,8494
441,8094
412,8117
329,8452
300,8396
148,8166
214,8404
146,8287
110,8368
262,8429
258,8842
292,8605
257,8907
235,8427
187,8327
212,8383
211,8410
186,8331
162,8305
161,8384
165,8283
189,8483
238,8564
237,8529
263,8465
265,8484
266,8462
267,8450
268,8290
26,9059
25,9027
105,65535
62,65535
83,65535
126,8405
175,8840
152,8774
151,8764
150,8723
103,8343
242,8236
191,8190
192,8241
217,8264
218,8317
145,8227
144,8311
167,8219
190,8197
219,8334
159,8431
185,8375
158,8488
188,8319
160,8396
143,65535
122,65535
75,65535
54,65535
198,8968
270,8331
221,8372
301,8429
302,8266
330,8293
331,8315
115,8367
133,8426
139,8323
134,8400
114,8924
48,65535
69,65535
92,8600
164,8393
4,65535
107,8745
129,8830
109,8270
125,8311
124,8285
127,65535
82,65535
67,65535
91,8768
93,8567
137,8702
113,8722
112,8680
136,65535
49,65535
72,65535
71,65535
406,945
805,6610
858,6415
859,6556
967,2034
1142,2169
1080,6255
1022,6296
1079,6288
968,6411
1206,2126
915,6562
916,6597
914,6534
807,6649
911,7756
1078,6512
1207,2184
1278,2228
1277,2231
1344,2251
1415,2292
1492,2347
1345,2308
1346,2278
1208,2176
1209,2256
1143,2293
1144,2309
1145,2324
1417,2304
1493,2364
1494,2383
1572,2398
1081,6581
970,6784
408,893
382,921
437,374
467,355
409,874
403,829
432,873
433,854
404,843
352,946
351,925
349,886
317,1122
374,863
346,954
283,992
410,807
438,824
465,429
490,512
491,817
435,876
436,872
379,996
323,1067
289,1097
377,907
378,880
592,1027
593,1065
552,828
445,916
424,1154
423,1186
416,1129
361,993
362,969
371,1051
372,1023
343,945
344,936
286,1323
227,1021
252,1014
284,967
318,949
250,1196
312,980
340,1022
368,1061
369,1133
370,1242
341,1081
367,1072
308,1296
276,1034
277,1015
280,1008
310,1003
338,1038
366,1062
274,1116
305,1413
420,1088
363,972
418,983
550,6601
579,6624
576,6569
577,6581
578,6597
520,6577
618,6591
662,6621
619,6608
620,6621
621,6615
665,6597
666,6589
664,6617
580,6636
2260,65535
2257,65535
2206,65535
2146,65535
2314,65535
2313,65535
2312,65535
2373,65535
2256,65535
2205,65535
2434,65535
2435,65535
2375,65535
2376,65535
2433,65535
2491,65535
2490,65535
2492,65535
2546,65535
2597,65535
2596,65535
2544,65535
2145,65535
2082,65535
2020,65535
2494,65535
0,65535
11,65535
1052,1588
1053,1575
941,1615
1740,1452
1796,1493
1615,1279
1681,1396
1545,1148
1797,1493
1544,1174
1741,1400
1795,1690
1617,1239
1546,1205
1616,1198
1683,1241
1467,1113
1547,1178
1465,1197
1387,1179
1388,1161
1464,1244
1462,1579
1461,1600
1542,1664
1463,1543
1682,1366
1543,1233
1618,1308
1742,1600
1460,1766
1248,1296
1850,902
1801,906
1803,892
882,259
881,268
938,858
883,279
940,2358
1998,1156
1902,1171
1807,1089
1691,794
1694,973
1693,832
1749,835
1752,871
1753,1004
1627,950
1628,921
1557,899
1479,443
1402,418
1808,1067
1946,1075
1947,1106
1948,1148
1997,1152
1855,1161
1690,781
2060,1375
1949,1407
1950,1235
1751,856
1692,734
1999,1221
1901,1415
1900,1456
1852,1605
1853,1484
1805,934
1750,845
1854,1250
1806,992
1748,847
2061,1416
2000,1294
1804,927
1899,1625
2884,65535
2892,65535
2883,65535
2876,65535
2874,65535
2882,65535
2877,65535
2911,65535
2905,65535
2906,65535
2896,65535
2887,65535
2881,65535
2880,65535
2888,65535
2902,65535
2903,65535
2907,65535
2912,65535
2895,65535
2894,65535
2875,65535
2885,65535
2893,65535
2904,65535
2865,65535
2866,65535
2909,65535
2913,65535
2886,65535
2878,65535
2869,65535
2871,65535
2872,65535
2879,65535
2870,65535
1330,526
1331,446
1401,437
1262,445
1263,441
1478,425
1403,409
1261,496
1480,743
1264,448
1390,1093
1389,1152
1319,1130
1251,1185
1250,1261
1285,2420
1284,2406
1214,2378
1146,2342
1505,2627
1504,2561
1582,2599
1581,2527
1713,2506
1771,2488
1654,2638
1653,2611
1651,2563
2096,3742
2033,3702
1972,3673
1923,3605
1922,3583
1874,3277
1873,2990
1919,2943
1829,5654
1579,2463
1424,2467
1711,2480
1348,2304
1419,2324
1359,2731
1429,2682
1428,2668
1421,2381
1577,2415
1499,2388
1230,2975
1365,2912
1511,2834
1300,2957
1366,2929
1512,2862
1716,2696
1503,2749
1276,2258
1347,2288
1349,2336
1645,2472
1578,2450
1770,2484
1715,2539
1150,2443
1217,2457
1149,2419
1580,2509
1352,2496
1502,2527
1825,2896
1718,2851
1717,2825
1872,2929
1656,2740
1648,2515
1712,2492
1213,2368
1212,2349
1084,2390
1420,2370
1281,2294
1282,2355
1587,2734
1586,2701
1585,2690
1652,2658
1427,2836
1975,3777
1977,3845
1932,3915
1931,4540
1426,2556
1422,2398
1425,2541
1583,2627
1501,2485
1283,2396
1286,2443
1215,2428
1211,2325
1210,2299
1083,2361
1655,2729
2220,3977
1355,5411
1772,2497
1436,2880
1435,2870
1589,2803
1163,3008
1735,4128
1791,4061
1841,4038
1840,3994
1219,2560
1220,2599
1647,2501
1646,2493
1279,2246
1714,2516
1575,2475
1576,2437
1498,2445
1573,2487
1496,2505
1497,2476
2177,2485
2176,2555
2294,2472
2293,2591
2237,2532
2236,2561
2364,2333
2302,2273
2301,2195
2245,2097
2056,2227
2057,2313
2055,2206
2184,2258
2120,2264
2244,2178
2538,2518
2537,2499
2591,2615
1940,2390
1989,2398
1990,2334
2539,2518
2482,2509
2483,2471
2424,2367
2121,2325
2119,2138
2050,2447
2049,2525
2048,2943
2185,2291
2243,2017
2299,2231
2241,2180
2485,2549
2542,2604
2353,2563
2292,2470
2419,2357
2478,2404
2479,2439
2536,2466
2484,2510
2486,2503
2354,2402
2416,2579
2242,2225
2355,2440
2300,2238
1991,2338
1992,2345
2477,2395
2534,2416
2535,2531
2588,2436
2587,2450
2630,2501
2051,2259
2116,2153
2175,2588
2586,65535
2541,2671
2178,2460
2179,2263
2240,2210
2239,2434
2238,2504
2052,2390
2053,2356
1987,2630
1988,2478
1939,2502
2594,2621
2593,2606
2358,2324
2357,2334
2420,2390
2247,2386
2427,2476
2428,2498
2181,2057
2180,2106
2417,2384
2590,2596
2297,2219
2361,2411
2362,2294
2423,2382
2422,2347
2174,2818
2356,2445
1941,2379
2365,2510
2112,2823
2047,2965
2182,2196
2359,2273
2533,3211
2295,2536
2115,2226
2632,2656
2631,2595
2186,2443
2298,2305
2360,2329
2235,2781
2291,2794
2487,2725
2246,2318
2425,3126
2117,2450
2543,2678
1893,65535
2421,2482
2476,2400
2592,2654
604,6586
