middle_point_id,reach_time_minutes
2835,65535
2836,65535
2806,65535
2822,65535
2823,65535
2807,65535
2846,65535
887,135
888,118
1326,220
1185,129
999,170
1057,470
1552,843
1120,114
1473,463
944,317
832,115
1257,195
1396,244
1622,895
1327,3784
1184,119
1183,130
1324,505
1255,951
1394,1122
1252,235
1253,196
1182,140
1328,65535
1470,899
1321,234
1322,201
1323,2405
1391,302
1551,892
1393,1043
1472,976
1471,949
1181,434
1118,298
1059,50
1121,77
1469,781
1468,425
1548,694
1325,445
1625,735
1623,834
1258,159
1256,314
791,53
891,26
703,110
704,114
660,118
1553,811
1624,781
1554,954
1474,518
1475,887
1550,941
1549,867
1320,290
1466,334
1541,2515
1318,305
1249,326
1186,136
1003,32
1002,45
741,46
788,35
434,173
697,77
752,135
1056,192
1006,45
907,239
518,171
1011,172
1000,68
1055,1502
997,1382
994,1288
996,1376
995,1363
991,1332
1112,65535
1114,1334
1051,1315
1398,1692
1395,930
1001,48
1811,759
1960,1004
1769,1076
1823,1050
1329,65535
1332,458
1259,955
1200,234
1199,235
1140,339
1141,337
783,119
1689,924
1802,920
1945,1436
2183,1918
2418,2367
1994,1472
1995,1868
2059,997
1621,65535
1555,816
1754,559
1180,863
1106,2470
933,2726
827,248
2122,1723
2124,997
493,182
519,175
544,169
545,173
494,184
470,227
543,183
469,214
517,188
574,181
573,148
495,220
546,189
613,112
612,123
492,196
572,154
571,184
570,159
610,142
575,236
547,218
516,217
611,201
542,227
569,140
609,127
548,2229
549,2264
1404,310
1405,226
1266,195
1193,167
743,59
742,35
747,77
746,70
745,83
744,53
790,46
789,41
839,48
838,28
738,117
739,86
740,62
890,41
834,109
784,99
889,58
856,299
855,287
854,270
853,265
852,251
910,292
909,281
908,254
964,242
965,249
1020,255
966,298
963,219
1021,409
1271,232
1270,231
1339,220
1338,207
1071,234
1072,258
1135,247
1408,223
1337,202
1269,205
1268,197
1136,248
1075,309
1077,333
1076,294
1019,287
1018,311
1074,272
1137,264
1272,241
1274,376
1275,410
1205,452
1204,437
1273,347
1198,256
1197,226
1341,282
1134,233
1133,191
1069,181
1132,164
1073,263
1203,403
1202,345
1201,273
1139,343
1267,191
1138,296
1340,252
1196,179
1342,854
1409,247
1485,229
1407,265
1561,269
1632,284
1484,270
1483,232
1562,260
1194,131
1130,121
1195,144
1335,211
1129,109
1066,92
1128,94
1067,157
1131,139
1334,432
1336,203
1265,215
1333,422
1406,225
857,348
803,382
804,2239
860,2247
969,2200
913,2187
912,2125
861,2257
806,2300
659,115
751,124
658,104
705,118
702,89
706,123
753,147
614,116
701,87
661,127
616,128
848,181
796,134
797,154
798,161
750,124
707,153
615,161
748,84
845,123
846,146
657,166
749,107
795,135
617,171
663,176
794,104
847,164
849,212
902,163
901,153
900,142
793,74
899,168
898,136
897,123
844,113
842,58
841,53
956,162
792,55
843,79
840,58
850,217
903,167
800,206
755,233
756,283
710,314
711,357
962,203
961,196
904,180
906,229
851,230
802,253
801,209
799,183
959,177
1014,227
1013,280
708,425
709,399
754,187
757,311
1017,281
1016,273
960,184
905,216
958,198
957,182
1070,203
1015,209
1012,215
1068,158
1005,25
1004,19
1060,37
1063,71
1065,87
1127,109
1062,78
1124,86
1123,72
1125,103
1188,111
1122,108
1058,67
947,58
946,72
949,0
945,97
948,37
1190,218
1187,131
951,53
895,79
952,67
1009,114
1008,69
1010,176
1007,54
1061,133
954,103
896,95
953,101
1126,95
1064,65
1189,153
955,156
950,38
892,17
786,29
836,25
837,21
787,27
700,110
655,137
654,106
653,94
698,74
699,93
608,117
696,101
656,134
833,105
785,78
835,68
693,104
894,50
893,33
1343,429
1192,914
1191,550
828,238
829,224
780,170
830,219
779,221
782,120
529,258
886,153
596,291
556,322
598,205
597,245
526,324
555,331
525,866
524,883
523,370
688,152
607,99
650,87
651,75
652,89
737,133
694,65
695,55
645,167
646,163
690,139
600,172
599,179
781,125
736,135
558,252
644,169
643,163
648,151
692,119
691,141
513,122
541,193
540,172
568,165
530,266
831,144
559,229
560,299
642,258
557,263
496,402
471,438
444,505
446,469
528,279
527,296
562,220
602,202
734,148
466,234
464,204
463,207
478,382
481,298
480,330
479,360
647,151
488,140
502,289
689,148
533,242
532,264
531,937
601,253
484,244
508,348
510,215
509,322
534,356
482,342
506,286
606,155
455,410
429,289
456,382
457,362
428,333
458,308
554,466
594,860
640,387
639,870
551,400
681,934
636,928
635,944
590,881
778,245
777,252
485,270
486,258
462,253
563,265
885,164
943,193
564,263
641,277
504,305
503,281
501,391
500,446
561,270
254,265
350,250
321,281
319,324
251,367
375,258
347,300
687,169
565,219
539,139
511,247
536,251
649,211
603,370
605,1412
733,167
735,139
489,173
514,153
461,1090
460,1058
459,375
468,193
154,393
178,350
203,335
228,305
402,317
401,338
505,1046
522,894
451,1028
452,997
477,936
476,955
483,1066
884,893
431,244
430,274
454,1001
595,997
395,480
394,761
422,958
417,958
390,444
538,161
567,144
426,1216
397,417
398,382
499,1065
475,1149
497,991
498,1007
311,314
342,328
345,295
421,799
515,251
472,1116
448,1141
473,1167
474,1211
353,343
381,284
256,356
290,331
324,298
380,331
407,243
253,306
226,331
201,344
177,1023
824,416
775,326
826,259
939,847
936,1318
937,913
880,401
566,197
2821,65535
2834,65535
2833,65535
2789,65535
2790,65535
2770,65535
2788,65535
2776,65535
2795,65535
2775,65535
2794,65535
2825,65535
2824,65535
2826,65535
2811,65535
2812,65535
2796,65535
2827,65535
2858,65535
2855,65535
2849,65535
2838,65535
2814,65535
2813,65535
2828,65535
2839,65535
2791,65535
2792,65535
2803,65535
2830,65535
2815,65535
2819,65535
2818,65535
2817,65535
2831,65535
2810,65535
2829,65535
2783,65535
2820,65535
2804,65535
2785,65535
2784,65535
2762,65535
2768,65535
2751,65535
2750,65535
2733,65535
2769,65535
2720,65535
2761,65535
2741,65535
2837,65535
2793,65535
2808,65535
2753,65535
2736,65535
2735,65535
2809,65535
2772,65535
2845,65535
2844,65535
2848,65535
2777,65535
2778,65535
2779,65535
2759,65535
2780,65535
2797,65535
2843,65535
2832,65535
2842,65535
2758,65535
2738,65535
2774,65535
2773,65535
2771,65535
2851,65535
2847,65535
2854,65535
2721,65535
2756,65535
2737,65535
2840,65535
2752,65535
2754,65535
2755,65535
2852,65535
2853,65535
2856,65535
2841,65535
2742,65535
2727,65535
2744,65535
2726,65535
2743,65535
2725,65535
2746,65535
2787,65535
2766,65535
2763,65535
2765,65535
2745,65535
2764,65535
2552,65535
2501,65535
2443,65535
2442,65535
2320,65535
2381,65535
2382,65535
2498,65535
2499,65535
2438,65535
2439,65535
2497,65535
2441,65535
2379,65535
2380,65535
2319,65535
2551,65535
2550,65535
2563,65535
2321,65535
2322,65535
2383,65535
2384,65535
2446,65535
2445,65535
2503,65535
2385,65535
2504,65535
2505,65535
2557,65535
2558,65535
2559,65535
2560,65535
2564,65535
2562,65535
2561,65535
2605,65535
2609,65535
2565,65535
2566,65535
2515,4756
2397,4519
2457,4736
2458,4720
2401,65535
2337,4432
2336,4436
2399,4478
2398,4499
2402,65535
2333,4656
2273,4691
2219,4715
2218,4727
2159,4752
2454,65535
2393,65535
2512,65535
2502,65535
2608,65535
2156,65535
2155,65535
2154,65535
2213,65535
2212,65535
2211,65535
2210,65535
2264,65535
2324,65535
2323,65535
2030,65535
2094,65535
2157,65535
2450,65535
2388,65535
2387,65535
2326,65535
2266,65535
2265,65535
2508,65535
2396,4588
2335,4606
2334,4617
2158,4777
2279,3866
2278,3830
2222,3799
2221,3781
2276,3763
2275,1885
2261,65535
2207,65535
2149,65535
2554,65535
2599,65535
2633,65535
2664,65535
2689,65535
2690,65535
2691,65535
2692,65535
2152,65535
2089,65535
2088,65535
2025,65535
2603,65535
2602,65535
2556,65535
2693,65535
2671,65535
2670,65535
2694,65535
2553,65535
2665,65535
2705,65535
2710,65535
2668,65535
2639,65535
2463,65535
2521,65535
2572,65535
2451,65535
2390,65535
2391,65535
2392,65535
2215,65535
2268,65535
2093,65535
2092,65535
2028,65535
2024,65535
2150,65535
2086,65535
2209,65535
2023,65535
2087,65535
2148,65535
2262,65535
2327,65535
1560,276
1630,318
1631,289
1559,358
1629,411
1558,408
1634,342
1633,307
1482,262
1481,325
1699,306
1700,333
1701,315
1563,302
2070,1018
2008,1014
2009,1014
1959,1008
1958,1052
2006,1061
1957,1055
1956,1001
2193,1267
2132,1209
1912,1032
1911,1043
1865,848
1866,885
2007,1028
2069,1043
2010,1053
2011,1140
1961,1045
2072,1129
1913,981
1867,937
1962,1078
1914,1087
1915,1120
1909,941
1636,361
1635,374
1564,362
1702,320
1637,416
1638,459
1565,339
1486,306
1760,818
1704,412
1703,396
1763,436
1762,502
1817,806
1705,863
1863,900
1815,866
1759,973
863,1585
758,1673
808,1629
982,1717
1036,1789
1099,2433
1100,1852
1166,2014
1167,2509
1237,2166
1238,2201
1375,2271
1308,2340
1309,2249
1236,2467
1235,2101
1101,1880
1037,1822
971,1292
1025,1282
1026,1265
1027,1285
1089,1250
720,1630
674,1676
864,1554
865,1529
919,1306
1024,1255
975,1419
974,1357
1028,1353
873,1570
925,1516
924,1493
917,1370
918,1346
623,1845
712,1720
713,1754
667,1759
622,1815
809,1615
719,1602
765,1559
972,1306
868,1506
869,1518
815,1539
920,1414
973,1321
981,1686
926,1595
927,1603
928,1627
1354,1137
1288,1161
1218,1226
1152,1202
1023,1209
1353,1122
1085,1167
1148,1120
1147,1113
1082,1090
772,1656
771,1613
819,1588
584,1750
628,1717
629,1744
1033,1631
978,1588
1031,1561
1030,1514
1029,1496
1091,1473
1035,1715
1034,1655
979,1615
1526,2390
1449,2428
1378,2456
1448,2379
1524,2357
1038,1864
1447,2420
1768,1055
1710,1094
1767,975
391,422
365,383
339,1025
400,341
393,984
392,949
396,804
399,358
443,1111
449,895
450,865
419,962
414,1032
415,963
387,955
388,926
389,879
282,994
281,386
314,404
313,384
405,229
411,1234
442,1193
255,299
376,253
373,888
278,325
275,1054
248,1102
335,1067
334,1044
306,1094
307,1094
176,1043
225,414
320,944
249,1095
287,302
285,992
776,276
731,282
315,342
316,1011
204,375
440,302
439,247
166,1425
269,1342
383,1280
1247,65535
1246,65535
1384,65535
1679,65535
1178,3903
1105,2512
1172,2528
1173,2504
1242,3092
1241,2570
1314,3127
1313,3154
1171,2553
1382,4335
1243,2586
1317,4416
1107,2755
1108,3054
1109,3108
1041,2563
1043,3818
1042,3739
1044,4290
1176,3804
1174,4303
1177,3852
1110,3859
985,2632
986,2675
932,2693
774,364
730,294
825,320
728,394
729,320
727,961
682,350
684,978
685,287
732,300
683,2302
2134,1368
2194,1391
2068,1075
2129,1130
1905,824
1907,912
1906,877
1953,873
2002,914
2064,956
2125,971
2137,1827
2196,1498
2195,1444
1859,785
1810,775
1755,531
2131,1081
2192,1119
1862,941
1861,895
1812,856
1860,893
1809,775
1756,381
1869,1012
1822,1007
1821,983
1916,1050
1819,846
1764,819
1820,970
1698,328
1757,369
1566,433
1567,380
1488,354
1489,1016
1412,844
1413,817
1414,789
1818,910
1568,1074
1410,286
2128,1177
2189,1204
2066,1286
2065,1389
2067,1127
1643,1108
1571,1058
1491,1022
2004,1296
2003,1252
1697,930
2135,1583
2075,1445
1642,1084
1955,974
2130,1477
2005,1065
1858,793
1816,3688
1864,3681
1766,968
1910,981
1868,1002
2188,1411
2127,1380
1903,805
2001,957
2063,1404
2062,1212
1813,933
1758,464
1639,820
1640,862
1952,927
2126,3770
1569,971
1965,1302
1966,1348
2014,1368
1490,980
1917,1105
1870,1141
1871,1155
1570,1005
1707,874
2076,1435
2013,1400
1964,1354
1487,337
1908,1057
2251,65535
2199,65535
2198,65535
2136,1585
1641,1105
1954,1048
1765,936
1857,889
2187,984
1904,1029
1856,777
1951,879
1708,1308
245,3999
244,3982
357,3986
246,4114
247,4143
197,4237
223,4215
44,4579
43,4639
3,4775
23,4749
22,4738
63,4521
85,4463
84,4418
108,3918
149,3872
172,4263
296,3966
294,4014
355,4114
354,4146
326,4224
295,4123
291,4135
293,4257
260,4143
356,4174
441,3774
412,3797
329,4132
300,4076
148,3846
214,4084
146,3967
110,4048
262,4109
258,4522
292,4285
257,4587
235,4107
187,4007
212,4063
211,4090
186,4011
162,3985
161,4064
165,3963
189,4163
238,4244
237,4209
263,4145
265,4164
266,4142
267,4130
268,3970
26,4739
25,4707
105,65535
62,65535
83,65535
126,4085
175,4520
152,4454
151,4444
150,4403
103,4023
242,3916
191,3870
192,3921
217,3944
218,3997
145,3907
144,3991
167,3899
190,3877
219,4014
159,4111
185,4055
158,4168
188,3999
160,4076
143,65535
122,65535
75,65535
54,65535
198,4648
270,4011
221,4052
301,4109
302,3946
330,3973
331,3995
115,4047
133,4106
139,4003
134,4080
114,4604
48,65535
69,65535
92,4280
164,4073
4,65535
107,4425
129,4510
109,3950
125,3991
124,3965
127,65535
82,65535
67,65535
91,4448
93,4247
137,4382
113,4402
112,4360
136,65535
49,65535
72,65535
71,65535
406,268
805,2290
858,2095
859,2236
967,594
1142,729
1080,1935
1022,1976
1079,1968
968,2091
1206,686
915,2242
916,2277
914,2214
807,2329
911,3436
1078,2192
1207,790
1278,815
1277,813
1344,854
1415,1032
1492,1087
1345,894
1346,859
1208,796
1209,996
1143,1033
1144,1049
1145,1079
1417,995
1493,1105
1494,1123
1572,1139
1081,2261
970,2464
408,264
382,369
437,247
467,232
409,341
403,294
432,292
433,236
404,264
352,1061
351,275
349,1066
317,412
374,1228
346,1247
283,1053
410,266
438,283
465,212
490,228
491,303
435,215
436,208
379,1595
323,1091
289,1122
377,295
378,240
592,956
593,926
552,860
445,919
424,1153
423,968
416,2377
361,993
362,969
371,1099
372,1083
343,1109
344,1094
286,1435
227,1058
252,398
284,1007
318,1027
250,1078
312,1034
340,362
368,401
369,1019
370,1117
341,1091
367,406
308,1070
276,1034
277,1015
280,1098
310,367
338,1040
366,1068
274,1173
305,1182
420,1002
363,1031
418,1039
550,2281
579,2304
576,2249
577,2261
578,2277
520,2257
618,2271
662,2301
619,2288
620,2301
621,2295
665,2277
666,2269
664,2297
580,2316
2260,65535
2257,65535
2206,65535
2146,65535
2314,65535
2313,65535
2312,65535
2373,65535
2256,65535
2205,65535
2434,65535
2435,65535
2375,65535
2376,65535
2433,65535
2491,65535
2490,65535
2492,65535
2546,65535
2597,65535
2596,65535
2544,65535
2145,65535
2082,65535
2020,65535
2494,65535
0,65535
11,65535
1052,1468
1053,1455
941,1440
1740,2307
1796,2348
1615,497
1681,2223
1545,385
1797,2350
1544,431
1741,2335
1795,2520
1617,467
1546,412
1616,477
1683,2292
1467,396
1547,500
1465,370
1387,448
1388,409
1464,429
1462,3019
1461,3040
1542,2931
1463,2983
1682,2241
1543,485
1618,2193
1742,2405
1460,2730
1248,2262
1850,952
1801,2178
1803,916
882,259
881,268
938,858
883,279
940,2358
1998,890
1902,861
1807,737
1691,851
1694,973
1693,832
1749,876
1752,786
1753,798
1627,763
1628,921
1557,814
1479,741
1402,471
1808,710
1946,1075
1947,1010
1948,997
1997,904
1855,753
1690,877
2060,1077
1949,959
1950,881
1751,791
1692,820
1999,886
1901,1310
1900,1337
1852,1605
1853,1484
1805,934
1750,839
1854,1250
1806,992
1748,907
2061,1124
2000,913
1804,927
1899,1625
2884,65535
2892,65535
2883,65535
2876,65535
2874,65535
2882,65535
2877,65535
2911,65535
2905,65535
2906,65535
2896,65535
2887,65535
2881,65535
2880,65535
2888,65535
2902,65535
2903,65535
2907,65535
2912,65535
2895,65535
2894,65535
2875,65535
2885,65535
2893,65535
2904,65535
2865,65535
2866,65535
2909,65535
2913,65535
2886,65535
2878,65535
2869,65535
2871,65535
2872,65535
2879,65535
2870,65535
1330,526
1331,475
1401,474
1262,512
1263,508
1478,497
1403,409
1261,900
1480,743
1264,736
1390,329
1389,322
1319,299
1251,765
1250,841
1285,1110
1284,1126
1214,1118
1146,1097
1505,1187
1504,1175
1582,1159
1581,1124
1713,1096
1771,1071
1654,1280
1653,1255
1651,1155
2096,1813
2033,1796
1972,1765
1923,1713
1922,1693
1874,1644
1873,1608
1919,1504
1829,2514
1579,1023
1424,1087
1711,1057
1348,899
1419,1050
1359,1291
1429,1242
1428,1228
1421,946
1577,984
1499,956
1230,1645
1365,1581
1511,1504
1300,1627
1366,1598
1512,1531
1716,1336
1503,1211
1276,1478
1347,1046
1349,1032
1645,1032
1578,1010
1770,1063
1715,1129
1150,1264
1217,1258
1149,1241
1580,1069
1352,1161
1502,1105
1825,1455
1718,1409
1717,1384
1872,1492
1656,1395
1648,1135
1712,1077
1213,1140
1212,1181
1084,1190
1420,930
1281,1096
1282,1216
1587,1236
1586,1205
1585,1195
1652,1179
1427,1231
1975,2337
1977,2405
1932,2475
1931,3100
1426,1239
1422,975
1425,1226
1583,1248
1501,1107
1283,1103
1286,1140
1215,1248
1211,1142
1210,1151
1083,1161
1655,1318
2220,1864
1355,1372
1772,1124
1436,1547
1435,1538
1589,1473
1163,2459
1735,2688
1791,2621
1841,2598
1840,2554
1219,1277
1220,1319
1647,1098
1646,1107
1279,879
1714,1106
1575,1035
1576,997
1498,1005
1573,1110
1496,1065
1497,1036
2177,2485
2176,2555
2294,2472
2293,2591
2237,2532
2236,2561
2364,2333
2302,2273
2301,2195
2245,2097
2056,2227
2057,2313
2055,2206
2184,2258
2120,2264
2244,2178
2538,2518
2537,2499
2591,2615
1940,2390
1989,2398
1990,2334
2539,2518
2482,2509
2483,2471
2424,2367
2121,2325
2119,2138
2050,2447
2049,2525
2048,2943
2185,2291
2243,2017
2299,2231
2241,2180
2485,2549
2542,2604
2353,2563
2292,2470
2419,2357
2478,2404
2479,2439
2536,2466
2484,2510
2486,2503
2354,2402
2416,2579
2242,2225
2355,2440
2300,2238
1991,2338
1992,2345
2477,2395
2534,2416
2535,2531
2588,2436
2587,2450
2630,2501
2051,2259
2116,2153
2175,2588
2586,65535
2541,2671
2178,2460
2179,2263
2240,2210
2239,2434
2238,2504
2052,2390
2053,2356
1987,2630
1988,2478
1939,2502
2594,2621
2593,2606
2358,2324
2357,2334
2420,2390
2247,2386
2427,2476
2428,2498
2181,2057
2180,2106
2417,2384
2590,2596
2297,2219
2361,2411
2362,2294
2423,2382
2422,2347
2174,2818
2356,2445
1941,2379
2365,2510
2112,2823
2047,2965
2182,2196
2359,2273
2533,3211
2295,2536
2115,2226
2632,2656
2631,2595
2186,1756
2298,2305
2360,2329
2235,2781
2291,2794
2487,2725
2246,2318
2425,3126
2117,2450
2543,2678
1893,65535
2421,2482
2476,2400
2592,2654
604,2266
