middle_point_id,reach_time_minutes
2835,65535
2836,65535
2806,65535
2822,65535
2823,65535
2807,65535
2846,65535
887,1584
888,1598
1326,1780
1185,1749
999,1730
1057,1877
1552,2372
1120,1738
1473,2398
944,1878
832,1579
1257,1756
1396,2263
1622,2395
1327,1864
1184,1742
1183,1749
1324,1945
1255,2364
1394,2232
1252,2534
1253,2560
1182,2565
1328,65535
1470,2323
1321,2514
1322,2455
1323,2405
1391,2527
1551,2354
1393,2296
1472,2398
1471,2287
1181,2894
1118,2579
1059,1688
1121,1706
1469,2521
1468,2581
1548,2505
1325,1885
1625,2452
1623,2386
1258,1777
1256,1814
791,1694
891,1691
703,1729
704,1734
660,1741
1553,2379
1624,2409
1554,2510
1474,2423
1475,2447
1550,2309
1549,2372
1320,2526
1466,2601
1541,3160
1318,2639
1249,2661
1186,1736
1003,1686
1002,1681
741,1643
788,1667
434,1713
697,1731
752,1755
1056,1752
1006,1725
907,1894
518,1771
1011,1858
1000,1714
1055,182
997,65
994,0
996,58
995,43
991,256
1112,3591
1114,132
1051,95
1398,3372
1395,2332
1001,1689
1811,2348
1960,2503
1769,2624
1823,2633
1329,65535
1332,2227
1259,3835
1200,1950
1199,1948
1140,1983
1141,2212
783,1580
1689,2432
1802,2540
1945,2876
2183,3358
2418,3864
1994,2912
1995,3308
2059,2737
1621,65535
1555,2407
1754,2504
1180,2610
1106,1030
933,1286
827,1416
2122,4099
2124,2576
493,1782
519,1777
544,1767
545,1772
494,1782
470,1802
543,1764
469,1845
517,1797
574,1770
573,1752
495,1799
546,1781
613,1732
612,1743
492,1790
572,1759
571,1777
570,1777
610,1784
575,1827
547,1818
516,1808
611,1761
542,1795
569,1755
609,1719
548,1850
549,1879
1404,2213
1405,1900
1266,1875
1193,1918
743,1661
742,1652
747,1704
746,1719
745,1724
744,1676
790,1690
789,1676
839,1694
838,1674
738,1584
739,1610
740,1629
890,1667
834,1604
784,1602
889,1636
856,1992
855,1929
854,1935
853,1916
852,1907
910,1920
909,1909
908,1898
964,1902
965,1906
1020,2303
966,1930
963,1870
1021,1975
1271,1951
1270,1951
1339,1958
1338,2170
1071,1878
1072,1872
1135,1919
1408,2181
1337,2053
1269,2014
1268,2044
1136,2119
1075,1928
1077,1974
1076,1937
1019,1932
1018,1906
1074,2151
1137,2136
1272,2163
1274,2257
1275,2330
1205,2317
1204,2339
1273,2193
1198,2009
1197,1831
1341,2220
1134,1864
1133,1822
1069,1834
1132,1814
1073,1910
1203,2279
1202,2265
1201,2206
1139,2262
1267,1860
1138,2272
1340,2270
1196,1822
1342,2237
1409,2336
1485,2232
1407,2263
1561,2217
1632,2244
1484,2261
1483,2175
1562,2207
1194,1811
1130,1800
1195,1827
1335,1892
1129,1795
1066,1792
1128,1761
1067,1849
1131,1807
1334,1916
1336,1874
1265,2254
1333,2199
1406,1906
857,3048
803,3082
804,6559
860,6567
969,6520
913,6507
912,6445
861,6577
806,6620
659,1731
751,1744
658,1724
705,1738
702,1720
706,1743
753,1767
614,1736
701,1708
661,1753
616,1748
848,1801
796,1754
797,1774
798,1781
750,1744
707,1773
615,1781
748,1741
845,1803
846,1766
657,1786
749,1754
795,1755
617,1791
663,1796
794,1784
847,1784
849,1830
902,1808
901,1824
900,1851
793,1722
899,1792
898,1750
897,1735
844,1793
842,1713
841,1703
956,1888
792,1700
843,1759
840,1738
850,1854
903,1793
800,1826
755,1853
756,1870
710,1931
711,2458
962,1823
961,1817
904,1800
906,1883
851,1887
802,1873
801,1837
799,1803
959,1832
1014,1849
1013,1874
708,1872
709,1900
754,1807
757,1931
1017,2231
1016,1915
960,1807
905,1836
958,1836
957,1867
1070,1830
1015,1832
1012,1855
1068,1843
1005,1735
1004,1700
1060,1692
1063,1728
1065,1751
1127,1757
1062,1750
1124,1722
1123,1709
1125,1742
1188,1740
1122,1718
1058,1696
947,1673
946,1628
949,1707
945,1623
948,1705
1190,1796
1187,1754
951,1721
895,1720
952,1747
1009,1799
1008,1778
1010,1869
1007,1730
1061,1771
954,1783
896,1715
953,1792
1126,1760
1064,1732
1189,1774
955,2160
950,1707
892,1674
786,1654
836,1669
837,1670
787,1659
700,1726
655,1791
654,1786
653,1724
698,1746
699,1735
608,1694
696,1671
656,1788
833,1588
785,1618
835,1649
693,1590
894,1724
893,1685
1343,2253
1192,2354
1191,2315
828,1452
829,1477
780,1530
830,1517
779,1496
782,1571
529,1566
886,1593
596,1522
556,1537
598,1517
597,1512
526,1565
555,1557
525,1588
524,1604
523,1617
688,1582
607,1678
650,1650
651,1655
652,1686
737,1570
694,1623
695,1635
645,1589
646,1601
690,1584
600,1600
599,1564
781,1550
736,1561
558,1586
644,1579
643,1603
648,1616
692,1597
691,1584
513,1758
541,1843
540,1823
568,1752
530,1579
831,1584
559,1614
560,1657
642,1497
557,1532
496,1655
471,1684
444,1752
446,1716
528,1547
527,1556
562,1660
602,1642
734,1575
466,2261
464,1740
463,1727
478,1674
481,1713
480,1661
479,1649
647,1649
488,1761
502,1566
689,1588
533,1660
532,1655
531,1641
601,1630
484,1740
508,1690
510,1729
509,1701
534,1667
482,2217
506,1700
606,1691
455,1693
429,2290
456,2266
457,2285
428,2301
458,2232
554,1586
594,1584
640,1467
639,1549
551,1650
681,1565
636,1586
635,1604
590,1634
778,1440
777,1429
485,1766
486,1758
462,2233
563,1705
885,1604
943,2291
564,1733
641,1461
504,1587
503,1584
501,1598
500,1656
561,1654
254,1820
350,1772
321,1841
319,1828
251,1867
375,1771
347,1805
687,1609
565,1777
539,1818
511,1747
536,1798
649,1693
603,1810
605,3070
733,1587
735,1577
489,1778
514,1810
461,2298
460,2274
459,2249
468,1842
154,2405
178,2360
203,2345
228,2316
402,1829
401,2303
505,1610
522,1659
451,1820
452,1779
477,1687
476,1708
483,2293
884,1534
431,1819
430,2304
454,2303
595,1537
395,2345
394,2317
422,2255
417,1777
390,1824
538,2313
567,1698
426,2309
397,2355
398,2363
499,2493
475,1701
497,1658
498,1682
311,1866
342,1826
345,1853
421,2363
515,1853
472,2376
448,2407
473,2432
474,2477
353,1845
381,1797
256,1924
290,1900
324,1868
380,1831
407,1804
253,2319
226,2335
201,2360
177,2379
824,1496
775,1438
826,1391
939,1366
936,1563
937,1415
880,1525
566,2316
2821,65535
2834,65535
2833,65535
2789,65535
2790,65535
2770,65535
2788,65535
2776,65535
2795,65535
2775,65535
2794,65535
2825,65535
2824,65535
2826,65535
2811,65535
2812,65535
2796,65535
2827,65535
2858,65535
2855,65535
2849,65535
2838,65535
2814,65535
2813,65535
2828,65535
2839,65535
2791,65535
2792,65535
2803,65535
2830,65535
2815,65535
2819,65535
2818,65535
2817,65535
2831,65535
2810,65535
2829,65535
2783,65535
2820,65535
2804,65535
2785,65535
2784,65535
2762,65535
2768,65535
2751,65535
2750,65535
2733,65535
2769,65535
2720,65535
2761,65535
2741,65535
2837,65535
2793,65535
2808,65535
2753,65535
2736,65535
2735,65535
2809,65535
2772,65535
2845,65535
2844,65535
2848,65535
2777,65535
2778,65535
2779,65535
2759,65535
2780,65535
2797,65535
2843,65535
2832,65535
2842,65535
2758,65535
2738,65535
2774,65535
2773,65535
2771,65535
2851,65535
2847,65535
2854,65535
2721,65535
2756,65535
2737,65535
2840,65535
2752,65535
2754,65535
2755,65535
2852,65535
2853,65535
2856,65535
2841,65535
2742,65535
2727,65535
2744,65535
2726,65535
2743,65535
2725,65535
2746,65535
2787,65535
2766,65535
2763,65535
2765,65535
2745,65535
2764,65535
2552,65535
2501,65535
2443,65535
2442,65535
2320,65535
2381,65535
2382,65535
2498,65535
2499,65535
2438,65535
2439,65535
2497,65535
2441,65535
2379,65535
2380,65535
2319,65535
2551,65535
2550,65535
2563,7077
2321,6613
2322,6582
2383,6594
2384,6800
2446,6842
2445,6849
2503,6868
2385,6833
2504,7198
2505,7220
2557,7244
2558,7269
2559,7293
2560,7257
2564,7425
2562,7145
2561,7185
2605,7200
2609,7472
2565,7548
2566,7564
2515,7575
2397,5959
2457,7605
2458,7627
2401,6036
2337,5872
2336,5876
2399,5918
2398,5939
2402,6096
2333,6096
2273,6131
2219,6155
2218,6167
2159,6192
2454,6784
2393,6750
2512,7044
2502,7036
2608,7463
2156,6314
2155,6346
2154,6375
2213,6391
2212,6403
2211,6451
2210,6492
2264,6499
2324,6533
2323,6549
2030,65535
2094,65535
2157,6278
2450,7441
2388,7490
2387,7558
2326,7595
2266,7630
2265,6974
2508,7412
2396,6028
2335,6046
2334,6057
2158,6217
2279,8186
2278,8150
2222,8119
2221,8101
2276,8083
2275,5563
2261,6806
2207,6843
2149,65535
2554,6926
2599,6958
2633,7004
2664,8691
2689,8749
2690,8855
2691,8893
2692,8926
2152,6487
2089,6566
2088,6554
2025,6699
2603,65535
2602,65535
2556,65535
2693,65535
2671,65535
2670,65535
2694,65535
2553,65535
2665,65535
2705,65535
2710,65535
2668,65535
2639,65535
2463,6106
2521,6142
2572,6165
2451,7326
2390,7295
2391,7115
2392,7078
2215,7320
2268,65535
2093,65535
2092,65535
2028,65535
2024,8377
2150,7803
2086,7851
2209,7785
2023,7953
2087,7906
2148,8119
2262,6792
2327,65535
1560,2225
1630,2281
1631,2252
1559,2288
1629,2358
1558,2313
1634,2292
1633,2242
1482,2244
1481,2263
1699,2259
1700,2258
1701,2275
1563,2307
2070,2518
2008,2514
2009,2514
1959,2494
1958,2552
2006,2591
1957,2586
1956,2511
2193,2707
2132,2649
1912,2532
1911,2485
1865,2527
1866,2619
2007,2587
2069,2622
2010,2531
2011,2580
1961,2546
2072,2569
1913,2619
1867,2670
1962,2580
1914,2606
1915,2722
1909,2443
1636,2316
1635,2321
1564,2334
1702,2305
1637,2326
1638,2382
1565,2331
1486,2346
1760,2298
1704,2372
1703,2332
1763,2475
1762,2341
1817,2487
1705,2421
1863,2380
1815,2346
1759,2327
863,4328
758,4420
808,4374
982,4572
1036,4562
1099,4465
1100,4613
1166,4894
1167,5448
1237,5046
1238,5081
1375,5151
1308,5270
1309,5129
1236,5380
1235,4981
1101,4644
1037,4581
971,4112
1025,4102
1026,4085
1027,4105
1089,4069
720,4637
674,4686
864,4296
865,4272
919,4126
1024,4122
975,4242
974,4220
1028,4169
873,4450
925,4396
924,4373
917,4190
918,4166
623,4610
712,4466
713,4502
667,4508
622,4563
809,4360
719,4611
765,4568
972,4104
868,4481
869,4522
815,4548
920,4415
973,4134
981,4566
926,4475
927,4483
928,4507
1354,3957
1288,3981
1218,4037
1152,4022
1023,4149
1353,3941
1085,4137
1148,3945
1147,3938
1082,3910
772,4536
771,4493
819,4468
584,4845
628,5212
629,5183
1033,4511
978,4468
1031,4441
1030,4394
1029,4376
1091,4353
1035,4595
1034,4535
979,4495
1526,5270
1449,5308
1378,5336
1448,5259
1524,5237
1038,4628
1447,5700
1768,2630
1710,2588
1767,2603
391,2281
365,2340
339,2369
400,2364
393,2350
392,2334
396,2366
399,2381
443,1767
449,2399
450,2389
419,2319
414,2472
415,2379
387,2372
388,2365
389,2310
282,2321
281,2363
314,2355
313,2336
405,1735
411,2674
442,2633
255,2334
376,1783
373,1834
278,2253
275,2311
248,2346
335,2380
334,2384
306,2348
307,2336
176,2395
225,2354
320,2285
249,2346
287,2273
285,2281
776,1414
731,1422
315,2331
316,2313
204,2418
440,1813
439,2228
166,2865
269,2782
383,2720
1247,3910
1246,3932
1384,4016
1679,4178
1178,1248
1105,1046
1172,1053
1173,1064
1242,1101
1241,1130
1314,1349
1313,1255
1171,1113
1382,1455
1243,1146
1317,1536
1107,1062
1108,1099
1109,1156
1041,1060
1043,1356
1042,1347
1044,1410
1176,1149
1174,1423
1177,1201
1110,1209
985,1192
986,1235
932,1253
774,1449
730,1439
825,1452
728,1479
729,1460
727,1538
682,1476
684,1458
685,1438
732,1440
683,1522
2134,2808
2194,2831
2068,2653
2129,2707
1905,2412
1907,2452
1906,2410
1953,2432
2002,2451
2064,2475
2125,2550
2137,3267
2196,2938
2195,2884
1859,2395
1810,2400
1755,2349
2131,2704
2192,2740
1862,2433
1861,2460
1812,2433
1860,2477
1809,2542
1756,2313
1869,2676
1822,2644
1821,2661
1916,2715
1819,2536
1764,2461
1820,2635
1698,2266
1757,2300
1566,2335
1567,2362
1488,2348
1489,2344
1412,2265
1413,2271
1414,2299
1818,2572
1568,2514
1410,2329
2128,2741
2189,2769
2066,2726
2065,2765
2067,2704
1643,2548
1571,2498
1491,2404
2004,2736
2003,2505
1697,2295
2135,3023
2075,2885
1642,2524
1955,2490
2130,2791
2005,2688
1858,2414
1816,8008
1864,8001
1766,2597
1910,2421
1868,2667
2188,2851
2127,2820
1903,2725
2001,2539
2063,2791
2062,2804
1813,2436
1758,2347
1639,2488
1640,2482
1952,2484
2126,8090
1569,2468
1965,2742
1966,2788
2014,2808
1490,2420
1917,2701
1870,2690
1871,2704
1570,2439
1707,2538
2076,2875
2013,2840
1964,2794
1487,2376
1908,2497
2251,4641
2199,4585
2198,4448
2136,3025
1641,2545
1954,2743
1765,2616
1857,2573
2187,2956
1904,2797
1856,2685
1951,2501
1708,2748
245,8319
244,8302
357,8306
246,8434
247,8463
197,8557
223,8535
44,8899
43,8959
3,9095
23,9069
22,9058
63,8841
85,8783
84,8738
108,8238
149,8192
172,8583
296,8286
294,8334
355,8434
354,8466
326,8544
295,8443
291,8455
293,8577
260,8463
356,8494
441,8094
412,8117
329,8452
300,8396
148,8166
214,8404
146,8287
110,8368
262,8429
258,8842
292,8605
257,8907
235,8427
187,8327
212,8383
211,8410
186,8331
162,8305
161,8384
165,8283
189,8483
238,8564
237,8529
263,8465
265,8484
266,8462
267,8450
268,8290
26,9059
25,9027
105,65535
62,65535
83,65535
126,8405
175,8840
152,8774
151,8764
150,8723
103,8343
242,8236
191,8190
192,8241
217,8264
218,8317
145,8227
144,8311
167,8219
190,8197
219,8334
159,8431
185,8375
158,8488
188,8319
160,8396
143,65535
122,65535
75,65535
54,65535
198,8968
270,8331
221,8372
301,8429
302,8266
330,8293
331,8315
115,8367
133,8426
139,8323
134,8400
114,8924
48,65535
69,65535
92,8600
164,8393
4,65535
107,8745
129,8830
109,8270
125,8311
124,8285
127,65535
82,65535
67,65535
91,8768
93,8567
137,8702
113,8722
112,8680
136,65535
49,65535
72,65535
71,65535
406,2246
805,6610
858,6415
859,6556
967,3474
1142,3609
1080,6255
1022,6296
1079,6288
968,6411
1206,3566
915,6562
916,6597
914,6534
807,6649
911,7756
1078,6512
1207,3675
1278,3695
1277,3693
1344,3734
1415,3852
1492,3907
1345,3774
1346,3739
1208,3676
1209,3810
1143,3853
1144,3869
1145,3899
1417,3875
1493,3969
1494,4003
1572,4019
1081,6581
970,6784
408,1824
382,1824
437,1816
467,2271
409,2257
403,1850
432,2313
433,2294
404,2276
352,2327
351,2343
349,2306
317,1867
374,2303
346,2279
283,2302
410,2247
438,2264
465,1752
490,1791
491,2257
435,1775
436,1801
379,2377
323,2497
289,2389
377,2270
378,1876
592,1678
593,1648
552,1652
445,1757
424,2582
423,2364
416,2370
361,2335
362,2305
371,2328
372,2296
343,2307
344,2324
286,2416
227,2328
252,2316
284,2292
318,2323
250,2400
312,2306
340,2300
368,2334
369,2378
370,2372
341,2313
367,2359
308,2347
276,2291
277,2271
280,2393
310,2325
338,2359
366,2427
274,2330
305,2532
420,2384
363,2292
418,2293
550,6601
579,6624
576,6569
577,6581
578,6597
520,6577
618,6591
662,6621
619,6608
620,6621
621,6615
665,6597
666,6589
664,6617
580,6636
2260,65535
2257,65535
2206,65535
2146,65535
2314,65535
2313,65535
2312,65535
2373,65535
2256,65535
2205,65535
2434,65535
2435,65535
2375,65535
2376,65535
2433,65535
2491,65535
2490,65535
2492,65535
2546,65535
2597,65535
2596,65535
2544,65535
2145,65535
2082,65535
2020,65535
2494,65535
0,65535
11,65535
1052,88
1053,75
941,111
1740,3031
1796,3042
1615,2719
1681,2957
1545,2605
1797,3036
1544,2614
1741,2948
1795,3960
1617,2756
1546,2761
1616,2638
1683,2868
1467,2553
1547,2618
1465,2734
1387,2619
1388,2601
1464,2797
1462,3019
1461,3040
1542,3104
1463,2983
1682,2913
1543,2673
1618,2748
1742,3115
1460,3808
1248,2981
1850,2572
1801,2558
1803,2506
882,1414
881,1379
938,1398
883,1422
940,918
1998,2716
1902,2611
1807,2529
1691,2447
1694,2413
1693,2572
1749,2538
1752,2487
1753,2444
1627,2390
1628,2361
1557,2339
1479,2233
1402,2224
1808,2515
1946,2635
1947,2666
1948,2708
1997,2712
1855,2622
1690,2426
2060,2815
1949,2847
1950,2702
1751,2530
1692,2549
1999,2729
1901,2855
1900,2896
1852,3045
1853,2924
1805,2666
1750,2490
1854,2690
1806,2608
1748,2470
2061,2856
2000,2854
1804,2746
1899,3065
2884,65535
2892,65535
2883,65535
2876,65535
2874,65535
2882,65535
2877,65535
2911,65535
2905,65535
2906,65535
2896,65535
2887,65535
2881,65535
2880,65535
2888,65535
2902,65535
2903,65535
2907,65535
2912,65535
2895,65535
2894,65535
2875,65535
2885,65535
2893,65535
2904,65535
2865,65535
2866,65535
2909,65535
2913,65535
2886,65535
2878,65535
2869,65535
2871,65535
2872,65535
2879,65535
2870,65535
1330,2326
1331,2240
1401,2236
1262,2245
1263,2241
1478,2277
1403,2202
1261,2254
1480,2222
1264,2271
1390,2533
1389,2592
1319,2570
1251,2625
1250,2701
1285,3912
1284,3885
1214,3911
1146,3916
1505,4067
1504,4055
1582,4039
1581,4004
1713,3976
1771,3951
1654,4138
1653,4110
1651,4035
2096,5182
2033,5142
1972,5113
1923,5045
1922,5023
1874,5224
1873,5428
1919,4385
1829,5654
1579,3903
1424,3907
1711,3937
1348,3779
1419,3930
1359,4171
1429,4122
1428,4108
1421,3826
1577,3864
1499,3836
1230,4415
1365,4352
1511,4274
1300,4397
1366,4369
1512,4302
1716,4193
1503,4178
1276,5798
1347,3926
1349,3805
1645,3912
1578,3890
1770,3943
1715,4009
1150,4004
1217,4015
1149,3980
1580,3949
1352,3936
1502,3967
1825,4338
1718,4292
1717,4267
1872,4373
1656,4213
1648,4015
1712,3957
1213,3930
1212,3942
1084,3950
1420,3810
1281,3906
1282,3976
1587,4116
1586,4085
1585,4075
1652,4059
1427,4044
1975,5217
1977,5285
1932,5355
1931,5980
1426,3996
1422,3848
1425,3981
1583,4128
1501,3917
1283,3862
1286,4052
1215,3987
1211,3896
1210,3865
1083,3921
1655,4247
2220,5541
1355,5411
1772,4004
1436,4320
1435,4310
1589,4243
1163,4448
1735,5568
1791,5501
1841,5478
1840,5434
1219,4120
1220,4159
1647,3978
1646,3987
1279,3759
1714,3986
1575,3915
1576,3877
1498,3885
1573,3990
1496,3945
1497,3916
2177,3925
2176,3995
2294,3964
2293,4040
2237,3972
2236,4001
2364,3773
2302,3713
2301,3635
2245,3537
2056,3843
2057,3887
2055,3646
2184,3698
2120,3704
2244,3618
2538,4068
2537,4030
2591,4055
1940,3830
1989,3838
1990,3774
2539,4046
2482,4146
2483,3911
2424,3807
2121,3765
2119,3578
2050,3903
2049,3965
2048,4383
2185,3731
2243,3457
2299,3671
2241,3620
2485,3989
2542,4044
2353,4003
2292,3910
2419,3823
2478,3884
2479,3901
2536,3987
2484,3950
2486,3943
2354,3898
2416,4019
2242,3665
2355,3892
2300,3678
1991,3778
1992,3785
2477,3876
2534,3886
2535,3986
2588,3923
2587,3938
2630,3958
2051,3699
2116,3593
2175,4093
2586,65535
2541,4180
2178,3900
2179,3703
2240,3650
2239,3874
2238,3944
2052,3830
2053,3796
1987,4070
1988,4107
1939,4020
2594,4152
2593,4124
2358,3780
2357,3787
2420,3830
2247,3826
2427,3916
2428,3938
2181,3497
2180,3546
2417,3878
2590,4036
2297,3659
2361,3851
2362,3734
2423,3822
2422,3787
2174,4258
2356,3917
1941,3819
2365,3950
2112,4263
2047,4405
2182,3636
2359,3713
2533,4651
2295,3976
2115,3666
2632,4096
2631,4035
2186,3899
2298,3745
2360,3769
2235,4221
2291,4234
2487,4165
2246,3758
2425,4566
2117,3890
2543,4118
1893,65535
2421,3922
2476,3932
2592,4202
604,6586
