51.56399999999999,-0.4100000000000028,65535
51.887999999999984,-0.4100000000000028,65535
50.91599999999999,-1.7060000000000022,65535
51.23999999999999,-1.0580000000000025,65535
51.56399999999999,-1.0580000000000025,65535
51.23999999999999,-1.7060000000000022,65535
51.56399999999999,0.2379999999999968,65535
47.16466399999993,9.845143999999989,283
47.48866399999993,9.845143999999989,287
48.136663999999925,14.381143999999988,329
47.81266399999993,13.085143999999987,265
47.16466399999993,11.141143999999988,290
47.48866399999993,11.789143999999988,499
48.136663999999925,16.325143999999987,454
47.48866399999993,12.437143999999988,295
48.136663999999925,15.677143999999986,523
47.16466399999993,10.493143999999988,421
47.16466399999993,9.197143999999987,271
48.136663999999925,13.733143999999989,316
48.136663999999925,15.029143999999986,739
47.81266399999993,16.973143999999984,475
48.46066399999992,14.381143999999988,904
47.48866399999993,13.085143999999987,295
47.16466399999993,13.085143999999987,305
47.48866399999993,14.381143999999988,511
47.48866399999993,13.733143999999989,533
47.48866399999993,15.029143999999986,522
46.516663999999935,13.733143999999989,407
46.84066399999993,13.733143999999989,376
46.84066399999993,13.085143999999987,361
48.78466399999992,14.381143999999988,65535
47.16466399999993,15.677143999999986,540
46.516663999999935,14.381143999999988,444
46.84066399999993,14.381143999999988,441
47.16466399999993,14.381143999999988,557
46.516663999999935,15.029143999999986,487
47.81266399999993,16.325143999999987,472
47.16466399999993,15.029143999999986,580
47.81266399999993,15.677143999999986,504
47.48866399999993,15.677143999999986,517
46.516663999999935,13.085143999999987,494
46.84066399999993,12.437143999999988,419
48.136663999999925,11.789143999999988,230
47.81266399999993,12.437143999999988,256
46.84066399999993,15.677143999999986,645
46.516663999999935,15.677143999999986,542
46.84066399999993,16.325143999999987,599
47.81266399999993,14.381143999999988,445
48.78466399999992,16.973143999999984,412
48.136663999999925,16.973143999999984,441
48.46066399999992,13.733143999999989,337
47.81266399999993,13.733143999999989,434
50.08066399999991,8.54914399999999,160
48.46066399999992,9.845143999999989,249
51.05266399999991,7.25314399999999,117
51.37666399999991,7.25314399999999,111
51.37666399999991,6.60514399999999,113
48.46066399999992,16.325143999999987,459
48.46066399999992,16.973143999999984,428
48.78466399999992,16.325143999999987,470
48.46066399999992,15.677143999999986,480
48.78466399999992,15.677143999999986,573
47.48866399999993,16.325143999999987,482
47.16466399999993,16.325143999999987,534
46.19266399999994,14.381143999999988,471
45.86866399999994,15.677143999999986,506
43.60066399999995,16.325143999999987,1555
45.54466399999994,14.381143999999988,513
45.54466399999994,13.733143999999989,521
48.136663999999925,13.085143999999987,282
48.46066399999992,11.141143999999988,234
48.136663999999925,11.141143999999988,235
48.46066399999992,7.90114399999999,217
49.10866399999992,8.54914399999999,182
48.78466399999992,2.0691439999999925,248
49.10866399999992,7.25314399999999,231
52.0246639999999,7.90114399999999,130
47.16466399999993,11.789143999999988,310
49.43266399999992,11.141143999999988,203
53.64466399999989,9.845143999999989,115
50.72866399999991,4.013143999999992,151
51.05266399999991,11.141143999999988,122
47.48866399999993,11.141143999999988,274
46.84066399999993,11.789143999999988,2102
46.516663999999935,11.141143999999988,2071
45.54466399999994,11.141143999999988,1965
46.19266399999994,11.141143999999988,2037
45.86866399999994,11.141143999999988,2021
44.572663999999946,11.141143999999988,1812
43.92466399999995,12.437143999999988,4445
45.54466399999994,12.437143999999988,2052
45.54466399999994,11.789143999999988,2015
48.78466399999992,15.029143999999986,612
47.81266399999993,15.029143999999986,750
47.81266399999993,11.141143999999988,249
50.40466399999991,18.917143999999983,409
52.3486639999999,20.86114399999998,670
54.616663999999886,18.269143999999983,507
54.29266399999989,18.917143999999983,517
49.10866399999992,14.381143999999988,65535
50.08066399999991,14.381143999999988,222
48.78466399999992,13.733143999999989,2216
52.6726639999999,13.085143999999987,27
52.3486639999999,13.085143999999987,31
53.96866399999989,12.437143999999988,156
54.29266399999989,12.437143999999988,157
47.48866399999993,8.54914399999999,263
47.81266399999993,17.621143999999987,509
47.48866399999993,18.917143999999983,620
47.48866399999993,20.86114399999998,841
46.84066399999993,23.45314399999998,2398
44.572663999999946,26.04514399999998,2847
47.48866399999993,21.50914399999997,875
47.81266399999993,21.50914399999997,908
48.46066399999992,22.15714399999998,637
47.48866399999993,16.973143999999984,65535
49.10866399999992,16.325143999999987,367
49.75666399999992,18.269143999999983,460
46.19266399999994,13.085143999999987,1343
41.98066399999996,12.437143999999988,3045
43.60066399999995,10.493143999999988,3206
45.54466399999994,9.197143999999987,374
47.81266399999993,22.805143999999984,2813
49.75666399999992,22.805143999999984,674
50.72866399999991,3.365143999999992,162
51.05266399999991,4.013143999999992,155
50.72866399999991,4.661143999999991,147
51.05266399999991,4.661143999999991,148
51.05266399999991,3.365143999999992,160
51.05266399999991,2.717143999999992,182
50.40466399999991,4.661143999999991,152
50.72866399999991,2.717143999999992,178
50.40466399999991,4.013143999999992,166
51.05266399999991,5.309143999999991,150
50.72866399999991,5.309143999999991,139
51.37666399999991,3.365143999999992,179
51.37666399999991,4.661143999999991,154
50.72866399999991,5.957143999999991,129
50.40466399999991,5.957143999999991,132
50.40466399999991,3.365143999999992,170
50.40466399999991,5.309143999999991,145
50.08066399999991,5.309143999999991,190
49.75666399999992,5.309143999999991,201
49.75666399999992,5.957143999999991,210
51.37666399999991,5.309143999999991,206
51.700663999999904,4.661143999999991,198
50.08066399999991,4.013143999999992,193
50.08066399999991,5.957143999999991,141
50.08066399999991,4.661143999999991,175
49.43266399999992,5.309143999999991,218
49.43266399999992,5.957143999999991,225
52.0246639999999,4.661143999999991,230
52.3486639999999,4.661143999999991,259
50.72866399999991,15.029143999999986,190
51.05266399999991,15.029143999999986,137
51.05266399999991,13.733143999999989,119
50.40466399999991,13.085143999999987,167
49.10866399999992,7.90114399999999,188
48.78466399999992,7.90114399999999,200
50.40466399999991,7.90114399999999,151
50.08066399999991,7.90114399999999,164
49.75666399999992,7.90114399999999,173
49.43266399999992,7.90114399999999,185
49.75666399999992,8.54914399999999,164
49.43266399999992,8.54914399999999,172
49.43266399999992,9.197143999999987,198
49.10866399999992,9.197143999999987,193
47.48866399999993,7.90114399999999,269
47.81266399999993,7.90114399999999,264
48.136663999999925,7.90114399999999,242
48.136663999999925,9.845143999999989,244
47.81266399999993,9.197143999999987,265
47.81266399999993,8.54914399999999,254
47.81266399999993,9.845143999999989,264
54.940663999999884,9.197143999999987,193
54.616663999999886,9.197143999999987,180
54.29266399999989,9.197143999999987,188
53.96866399999989,9.197143999999987,218
53.64466399999989,9.197143999999987,133
54.616663999999886,9.845143999999989,172
54.29266399999989,9.845143999999989,161
53.96866399999989,9.845143999999989,138
53.64466399999989,10.493143999999988,118
53.96866399999989,10.493143999999988,164
53.96866399999989,11.141143999999988,191
54.29266399999989,10.493143999999988,178
53.32066399999989,10.493143999999988,94
54.940663999999884,11.141143999999988,289
52.6726639999999,13.733143999999989,30
52.3486639999999,13.733143999999989,31
52.3486639999999,14.381143999999988,67
52.0246639999999,14.381143999999988,80
52.0246639999999,11.789143999999988,74
52.3486639999999,11.789143999999988,69
52.3486639999999,12.437143999999988,67
52.0246639999999,15.029143999999986,112
51.700663999999904,14.381143999999988,97
52.0246639999999,13.733143999999989,74
51.700663999999904,13.733143999999989,100
52.6726639999999,12.437143999999988,0
53.32066399999989,11.789143999999988,69
53.96866399999989,11.789143999999988,148
53.64466399999989,11.789143999999988,106
53.64466399999989,11.141143999999988,102
53.32066399999989,11.141143999999988,93
52.996663999999896,11.789143999999988,32
52.996663999999896,12.437143999999988,24
52.996663999999896,13.733143999999989,52
53.64466399999989,13.733143999999989,136
53.96866399999989,13.733143999999989,170
54.29266399999989,13.085143999999987,212
53.96866399999989,13.085143999999987,179
53.32066399999989,13.733143999999989,107
52.0246639999999,13.085143999999987,49
51.700663999999904,13.085143999999987,166
52.996663999999896,14.381143999999988,162
52.0246639999999,12.437143999999988,72
51.700663999999904,12.437143999999988,109
51.37666399999991,11.789143999999988,94
51.37666399999991,12.437143999999988,110
52.6726639999999,11.789143999999988,23
53.64466399999989,13.085143999999987,163
53.32066399999989,13.085143999999987,105
52.996663999999896,13.085143999999987,38
53.64466399999989,12.437143999999988,148
51.37666399999991,13.733143999999989,106
53.32066399999989,12.437143999999988,56
52.6726639999999,14.381143999999988,60
51.37666399999991,13.085143999999987,143
53.32066399999989,14.381143999999988,149
52.3486639999999,15.029143999999986,121
52.0246639999999,15.677143999999986,128
51.700663999999904,15.029143999999986,125
51.05266399999991,16.325143999999987,277
51.05266399999991,16.973143999999984,301
51.700663999999904,15.677143999999986,220
51.37666399999991,15.677143999999986,232
51.37666399999991,16.325143999999987,268
50.72866399999991,13.085143999999987,145
50.72866399999991,12.437143999999988,132
51.05266399999991,13.085143999999987,132
51.05266399999991,14.381143999999988,123
50.40466399999991,12.437143999999988,139
50.40466399999991,11.789143999999988,155
50.08066399999991,12.437143999999988,192
50.72866399999991,11.789143999999988,157
51.05266399999991,12.437143999999988,119
50.72866399999991,14.381143999999988,234
51.37666399999991,14.381143999999988,134
50.72866399999991,13.733143999999989,155
50.40466399999991,14.381143999999988,219
51.37666399999991,15.029143999999986,165
55.26466399999988,9.197143999999987,828
55.58866399999988,8.54914399999999,3562
55.91266399999988,8.54914399999999,7039
56.23666399999988,9.197143999999987,7047
56.23666399999988,10.493143999999988,7000
56.23666399999988,9.845143999999989,6987
55.91266399999988,9.845143999999989,6925
56.56066399999988,9.197143999999987,7057
56.56066399999988,8.54914399999999,7100
51.05266399999991,6.60514399999999,114
51.700663999999904,7.90114399999999,108
50.72866399999991,6.60514399999999,127
51.700663999999904,7.25314399999999,116
50.72866399999991,7.25314399999999,133
52.0246639999999,7.25314399999999,123
52.3486639999999,7.90114399999999,124
51.05266399999991,5.957143999999991,124
50.40466399999991,7.25314399999999,139
51.700663999999904,6.60514399999999,122
51.700663999999904,5.957143999999991,128
52.3486639999999,9.197143999999987,61
51.700663999999904,8.54914399999999,101
52.0246639999999,8.54914399999999,108
52.3486639999999,8.54914399999999,98
51.37666399999991,7.90114399999999,114
52.3486639999999,7.25314399999999,153
51.37666399999991,5.957143999999991,161
50.72866399999991,7.90114399999999,152
51.37666399999991,9.197143999999987,91
51.700663999999904,9.197143999999987,73
50.40466399999991,6.60514399999999,166
51.05266399999991,7.90114399999999,126
51.37666399999991,8.54914399999999,115
52.0246639999999,5.957143999999991,171
52.3486639999999,6.60514399999999,176
51.05266399999991,8.54914399999999,143
52.0246639999999,9.197143999999987,62
52.6726639999999,9.197143999999987,90
52.0246639999999,9.845143999999989,62
51.700663999999904,9.845143999999989,78
51.37666399999991,9.845143999999989,106
50.72866399999991,8.54914399999999,157
51.05266399999991,9.845143999999989,171
50.72866399999991,9.845143999999989,135
50.40466399999991,9.845143999999989,149
51.05266399999991,9.197143999999987,116
50.40466399999991,9.197143999999987,178
50.08066399999991,9.197143999999987,168
51.05266399999991,10.493143999999988,136
50.40466399999991,8.54914399999999,158
50.72866399999991,9.197143999999987,128
49.75666399999992,9.197143999999987,185
52.996663999999896,9.197143999999987,129
52.3486639999999,9.845143999999989,54
52.996663999999896,8.54914399999999,146
52.996663999999896,7.90114399999999,173
53.32066399999989,7.90114399999999,223
53.32066399999989,7.25314399999999,253
53.64466399999989,7.25314399999999,298
52.996663999999896,10.493143999999988,83
52.6726639999999,10.493143999999988,76
52.6726639999999,9.845143999999989,60
53.32066399999989,9.845143999999989,109
53.32066399999989,9.197143999999987,147
53.64466399999989,8.54914399999999,170
53.32066399999989,8.54914399999999,157
52.6726639999999,8.54914399999999,123
52.0246639999999,10.493143999999988,92
52.0246639999999,11.141143999999988,47
51.700663999999904,11.141143999999988,88
52.6726639999999,7.25314399999999,905
52.996663999999896,7.25314399999999,879
52.6726639999999,7.90114399999999,195
53.64466399999989,7.90114399999999,251
52.996663999999896,11.141143999999988,123
52.6726639999999,11.141143999999988,33
52.3486639999999,10.493143999999988,45
52.996663999999896,9.845143999999989,96
51.700663999999904,10.493143999999988,80
51.37666399999991,10.493143999999988,7307
51.700663999999904,11.789143999999988,81
52.3486639999999,11.141143999999988,39
51.37666399999991,11.141143999999988,104
51.05266399999991,11.789143999999988,111
49.10866399999992,11.141143999999988,206
48.78466399999992,11.141143999999988,212
48.46066399999992,11.789143999999988,225
49.43266399999992,11.789143999999988,223
50.08066399999991,11.789143999999988,211
49.75666399999992,12.437143999999988,208
49.10866399999992,11.789143999999988,218
48.78466399999992,12.437143999999988,264
48.46066399999992,12.437143999999988,252
49.10866399999992,12.437143999999988,231
48.78466399999992,13.085143999999987,291
48.136663999999925,12.437143999999988,282
47.81266399999993,11.789143999999988,245
48.136663999999925,10.493143999999988,245
47.81266399999993,10.493143999999988,259
48.78466399999992,10.493143999999988,226
47.48866399999993,10.493143999999988,277
48.46066399999992,10.493143999999988,244
49.43266399999992,13.085143999999987,338
48.46066399999992,13.085143999999987,311
49.43266399999992,10.493143999999988,223
49.75666399999992,9.845143999999989,218
49.75666399999992,10.493143999999988,198
50.40466399999991,11.141143999999988,151
50.08066399999991,11.141143999999988,171
50.72866399999991,11.141143999999988,145
49.75666399999992,11.141143999999988,196
48.78466399999992,11.789143999999988,253
50.40466399999991,10.493143999999988,158
50.08066399999991,9.845143999999989,185
50.08066399999991,10.493143999999988,188
49.43266399999992,12.437143999999988,243
49.75666399999992,11.789143999999988,215
49.10866399999992,13.085143999999987,338
50.72866399999991,10.493143999999988,151
49.10866399999992,10.493143999999988,224
48.78466399999992,9.845143999999989,205
48.46066399999992,8.54914399999999,208
48.46066399999992,9.197143999999987,205
48.78466399999992,9.197143999999987,200
48.78466399999992,8.54914399999999,185
50.08066399999991,7.25314399999999,170
49.75666399999992,6.60514399999999,197
49.43266399999992,6.60514399999999,204
49.10866399999992,6.60514399999999,223
49.43266399999992,7.25314399999999,228
49.75666399999992,7.25314399999999,191
49.10866399999992,5.957143999999991,246
48.78466399999992,7.25314399999999,220
50.08066399999991,6.60514399999999,194
47.48866399999993,9.197143999999987,268
48.136663999999925,8.54914399999999,222
48.136663999999925,9.197143999999987,225
47.81266399999993,7.25314399999999,284
49.43266399999992,9.845143999999989,225
49.10866399999992,9.845143999999989,200
53.64466399999989,14.381143999999988,143
50.08066399999991,13.085143999999987,298
49.75666399999992,13.085143999999987,335
45.86866399999994,9.197143999999987,371
46.19266399999994,9.197143999999987,349
46.516663999999935,8.54914399999999,350
46.516663999999935,9.197143999999987,377
46.19266399999994,8.54914399999999,341
47.16466399999993,8.54914399999999,264
45.86866399999994,4.661143999999991,360
46.84066399999993,9.845143999999989,282
45.22066399999994,5.957143999999991,429
45.22066399999994,5.309143999999991,402
45.86866399999994,5.957143999999991,360
45.54466399999994,5.957143999999991,383
44.89666399999994,4.661143999999991,383
44.89666399999994,5.309143999999991,390
44.572663999999946,4.661143999999991,430
44.24866399999995,4.661143999999991,443
43.92466399999995,4.661143999999991,423
46.19266399999994,7.25314399999999,311
48.78466399999992,5.957143999999991,259
48.136663999999925,6.60514399999999,257
48.46066399999992,6.60514399999999,251
48.78466399999992,6.60514399999999,232
47.16466399999993,7.90114399999999,271
48.136663999999925,7.25314399999999,238
48.46066399999992,7.25314399999999,222
46.516663999999935,6.60514399999999,296
46.84066399999993,6.60514399999999,288
46.84066399999993,7.25314399999999,284
46.516663999999935,5.957143999999991,315
46.19266399999994,5.957143999999991,329
46.84066399999993,8.54914399999999,276
46.84066399999993,7.90114399999999,280
45.86866399999994,5.309143999999991,391
46.19266399999994,6.60514399999999,304
45.86866399999994,6.60514399999999,343
47.48866399999993,6.60514399999999,296
47.48866399999993,7.25314399999999,284
47.16466399999993,7.25314399999999,278
49.10866399999992,4.013143999999992,271
49.75666399999992,4.661143999999991,184
49.43266399999992,4.661143999999991,240
49.10866399999992,5.309143999999991,323
46.19266399999994,4.661143999999991,367
46.84066399999993,9.197143999999987,290
46.19266399999994,5.309143999999991,369
46.516663999999935,5.309143999999991,395
45.54466399999994,6.60514399999999,392
45.54466399999994,5.309143999999991,379
43.60066399999995,4.013143999999992,451
43.60066399999995,3.365143999999992,505
42.62866399999996,2.717143999999992,581
43.276663999999954,2.717143999999992,534
45.54466399999994,4.661143999999991,365
45.22066399999994,4.661143999999991,372
47.16466399999993,5.309143999999991,357
47.16466399999993,5.957143999999991,307
46.19266399999994,7.90114399999999,306
49.75666399999992,2.717143999999992,233
49.10866399999992,2.717143999999992,232
48.78466399999992,2.717143999999992,247
45.86866399999994,3.365143999999992,500
46.84066399999993,3.365143999999992,418
46.516663999999935,3.365143999999992,450
46.19266399999994,3.365143999999992,476
47.16466399999993,6.60514399999999,308
49.10866399999992,3.365143999999992,262
45.54466399999994,4.013143999999992,409
46.516663999999935,7.25314399999999,311
47.16466399999993,4.661143999999991,362
46.84066399999993,4.661143999999991,371
46.516663999999935,4.661143999999991,397
46.84066399999993,5.957143999999991,306
47.81266399999993,3.365143999999992,347
47.48866399999993,4.013143999999992,407
48.136663999999925,4.013143999999992,369
47.81266399999993,4.013143999999992,381
47.48866399999993,4.661143999999991,416
47.16466399999993,3.365143999999992,431
46.84066399999993,4.013143999999992,440
48.46066399999992,5.957143999999991,275
46.19266399999994,2.717143999999992,533
47.16466399999993,2.0691439999999925,391
46.516663999999935,2.717143999999992,506
46.84066399999993,2.717143999999992,487
46.84066399999993,2.0691439999999925,457
47.16466399999993,2.717143999999992,414
44.572663999999946,5.309143999999991,440
44.572663999999946,5.957143999999991,538
44.89666399999994,6.60514399999999,447
44.572663999999946,6.60514399999999,589
43.60066399999995,5.309143999999991,450
43.92466399999995,7.25314399999999,567
43.60066399999995,6.60514399999999,560
43.276663999999954,6.60514399999999,539
43.276663999999954,5.957143999999991,466
45.86866399999994,8.54914399999999,355
45.54466399999994,8.54914399999999,362
48.136663999999925,3.365143999999992,329
48.46066399999992,3.365143999999992,342
48.46066399999992,2.717143999999992,312
47.48866399999993,5.309143999999991,396
46.516663999999935,9.845143999999989,344
46.84066399999993,10.493143999999988,1331
47.81266399999993,5.309143999999991,384
45.22066399999994,6.60514399999999,400
46.19266399999994,4.013143999999992,437
45.86866399999994,4.013143999999992,410
45.22066399999994,4.013143999999992,420
44.89666399999994,4.013143999999992,460
46.84066399999993,5.309143999999991,385
48.136663999999925,-1.8188560000000056,369
48.136663999999925,0.1251439999999934,310
48.136663999999925,-0.5228560000000062,341
47.48866399999993,-0.5228560000000062,360
47.16466399999993,-1.8188560000000056,380
47.48866399999993,0.7731439999999932,305
47.16466399999993,0.1251439999999934,376
45.86866399999994,7.25314399999999,349
48.136663999999925,5.309143999999991,414
49.10866399999992,4.661143999999991,319
48.46066399999992,4.013143999999992,354
48.136663999999925,4.661143999999991,435
47.81266399999993,6.60514399999999,329
47.48866399999993,5.957143999999991,347
48.136663999999925,5.957143999999991,663
45.86866399999994,7.90114399999999,327
46.516663999999935,7.90114399999999,289
49.43266399999992,3.365143999999992,264
49.43266399999992,4.013143999999992,260
48.136663999999925,2.717143999999992,430
47.81266399999993,2.717143999999992,441
47.48866399999993,2.717143999999992,460
50.40466399999991,2.717143999999992,185
48.46066399999992,-4.410856000000004,515
48.46066399999992,-3.7628560000000046,479
48.46066399999992,-3.114856000000005,450
48.46066399999992,-2.4668560000000053,433
47.48866399999993,1.4211439999999929,333
47.16466399999993,1.4211439999999929,370
46.516663999999935,4.013143999999992,445
43.60066399999995,4.661143999999991,460
44.89666399999994,2.717143999999992,657
45.22066399999994,2.717143999999992,628
45.54466399999994,3.365143999999992,519
45.22066399999994,3.365143999999992,515
47.48866399999993,3.365143999999992,526
46.19266399999994,9.845143999999989,382
47.81266399999993,2.0691439999999925,365
47.48866399999993,2.0691439999999925,397
45.86866399999994,2.717143999999992,510
44.89666399999994,5.957143999999991,510
45.22066399999994,1.4211439999999929,566
44.89666399999994,1.4211439999999929,590
44.89666399999994,2.0691439999999925,740
43.276663999999954,2.0691439999999925,552
43.60066399999995,1.4211439999999929,517
48.78466399999992,4.661143999999991,350
48.78466399999992,5.309143999999991,313
46.19266399999994,2.0691439999999925,620
45.86866399999994,1.4211439999999929,528
46.19266399999994,1.4211439999999929,566
44.572663999999946,4.013143999999992,655
44.89666399999994,3.365143999999992,551
43.92466399999995,4.013143999999992,452
44.24866399999995,4.013143999999992,469
44.89666399999994,-0.5228560000000062,374
45.54466399999994,0.1251439999999934,394
46.516663999999935,0.1251439999999934,393
44.572663999999946,2.0691439999999925,617
49.75666399999992,4.013143999999992,218
43.92466399999995,3.365143999999992,681
43.92466399999995,2.717143999999992,712
44.24866399999995,3.365143999999992,736
44.572663999999946,3.365143999999992,777
49.10866399999992,0.1251439999999934,351
49.43266399999992,0.7731439999999932,344
49.43266399999992,-1.8188560000000056,476
49.10866399999992,-1.170856000000006,451
49.10866399999992,-0.5228560000000062,366
49.10866399999992,0.7731439999999932,358
49.10866399999992,1.4211439999999929,288
47.81266399999993,-1.8188560000000056,510
47.81266399999993,-2.4668560000000053,447
47.81266399999993,-3.114856000000005,460
48.136663999999925,-3.7628560000000046,517
44.572663999999946,9.197143999999987,472
44.89666399999994,8.54914399999999,418
45.22066399999994,9.197143999999987,379
45.54466399999994,10.493143999999988,427
44.572663999999946,10.493143999999988,1798
44.89666399999994,10.493143999999988,455
44.89666399999994,9.845143999999989,565
48.46066399999992,5.309143999999991,440
50.91599999999999,-1.0580000000000025,65535
51.23999999999999,-0.4100000000000028,65535
50.91599999999999,-0.4100000000000028,65535
51.23999999999999,-2.354000000000002,65535
51.56399999999999,-2.354000000000002,65535
51.56399999999999,-3.0020000000000016,65535
50.91599999999999,-2.354000000000002,65535
53.50799999999997,-3.0020000000000016,65535
53.183999999999976,-2.354000000000002,65535
53.183999999999976,-3.0020000000000016,65535
52.85999999999998,-2.354000000000002,65535
52.21199999999998,-1.0580000000000025,65535
51.887999999999984,-1.0580000000000025,65535
52.53599999999998,-1.0580000000000025,65535
52.53599999999998,-1.7060000000000022,65535
52.85999999999998,-1.7060000000000022,65535
53.50799999999997,-2.354000000000002,65535
52.85999999999998,-1.0580000000000025,65535
52.53599999999998,1.5339999999999965,65535
52.53599999999998,0.8859999999999966,65535
52.53599999999998,0.2379999999999968,65535
52.53599999999998,-0.4100000000000028,65535
53.50799999999997,-1.7060000000000022,65535
53.183999999999976,-1.7060000000000022,65535
53.183999999999976,-1.0580000000000025,65535
52.85999999999998,-0.4100000000000028,65535
51.887999999999984,-2.354000000000002,65535
52.21199999999998,-2.354000000000002,65535
55.77599999999996,-2.354000000000002,65535
53.83199999999997,-1.0580000000000025,65535
53.83199999999997,-1.7060000000000022,65535
55.127999999999965,-1.7060000000000022,65535
54.80399999999997,-1.7060000000000022,65535
54.47999999999997,-1.7060000000000022,65535
54.15599999999997,-1.0580000000000025,65535
52.21199999999998,-1.7060000000000022,65535
53.50799999999997,-1.0580000000000025,65535
55.77599999999996,-3.0020000000000016,65535
55.45199999999996,-1.7060000000000022,65535
57.07199999999995,-2.354000000000002,65535
56.74799999999996,-3.0020000000000016,65535
56.42399999999996,-3.0020000000000016,65535
56.09999999999996,-3.650000000000001,65535
50.91599999999999,-3.0020000000000016,65535
50.91599999999999,-3.650000000000001,65535
50.59199999999999,-3.650000000000001,65535
50.59199999999999,-4.298000000000001,65535
51.23999999999999,-3.0020000000000016,65535
50.268,-4.946000000000001,65535
55.77599999999996,-3.650000000000001,65535
55.77599999999996,-4.298000000000001,65535
52.21199999999998,-0.4100000000000028,65535
52.53599999999998,-2.354000000000002,65535
51.56399999999999,-1.7060000000000022,65535
51.56399999999999,-3.650000000000001,65535
51.887999999999984,-4.298000000000001,65535
51.56399999999999,-4.298000000000001,65535
51.887999999999984,-1.7060000000000022,65535
52.21199999999998,-3.0020000000000016,65535
51.23999999999999,0.2379999999999968,65535
50.91599999999999,0.2379999999999968,65535
52.21199999999998,0.2379999999999968,65535
53.83199999999997,-3.0020000000000016,65535
54.15599999999997,-3.0020000000000016,65535
54.47999999999997,-3.0020000000000016,65535
55.127999999999965,-3.650000000000001,65535
54.80399999999997,-3.0020000000000016,65535
53.83199999999997,-2.354000000000002,65535
54.15599999999997,-0.4100000000000028,65535
54.47999999999997,-1.0580000000000025,65535
53.83199999999997,-0.4100000000000028,65535
53.183999999999976,-3.650000000000001,65535
53.183999999999976,-4.298000000000001,65535
52.85999999999998,-3.0020000000000016,65535
52.53599999999998,-3.0020000000000016,65535
51.887999999999984,-3.0020000000000016,65535
51.23999999999999,0.8859999999999966,65535
51.887999999999984,0.2379999999999968,65535
52.21199999999998,0.8859999999999966,65535
51.887999999999984,-4.946000000000001,65535
52.53599999999998,-3.650000000000001,65535
52.21199999999998,-4.298000000000001,65535
53.183999999999976,-0.4100000000000028,65535
51.23999999999999,-3.650000000000001,65535
51.887999999999984,-3.650000000000001,65535
52.21199999999998,-3.650000000000001,65535
51.56399999999999,0.8859999999999966,65535
51.887999999999984,0.8859999999999966,65535
52.85999999999998,0.8859999999999966,65535
53.50799999999997,-0.4100000000000028,65535
56.09999999999996,-4.298000000000001,65535
56.74799999999996,-4.946000000000001,65535
56.74799999999996,-4.298000000000001,65535
56.42399999999996,-4.946000000000001,65535
56.42399999999996,-4.298000000000001,65535
56.09999999999996,-4.946000000000001,65535
57.39599999999995,-4.298000000000001,65535
57.39599999999995,-3.0020000000000016,65535
57.39599999999995,-3.650000000000001,65535
56.42399999999996,-3.650000000000001,65535
57.07199999999995,-3.650000000000001,65535
57.07199999999995,-4.298000000000001,65535
56.74799999999996,-3.650000000000001,65535
59.15266399999986,27.34114399999998,65535
59.47666399999986,26.69314399999997,65535
59.47666399999986,26.04514399999998,65535
59.15266399999986,26.04514399999998,65535
59.15266399999986,24.74914399999998,65535
59.15266399999986,25.397143999999983,65535
59.47666399999986,25.397143999999983,65535
58.50466399999986,26.69314399999997,65535
58.82866399999986,26.69314399999997,65535
57.85666399999987,26.04514399999998,65535
58.180663999999865,26.04514399999998,65535
58.180663999999865,26.69314399999997,65535
58.82866399999986,26.04514399999998,65535
58.50466399999986,25.397143999999983,65535
58.82866399999986,25.397143999999983,65535
58.82866399999986,24.74914399999998,65535
58.180663999999865,27.34114399999998,65535
57.85666399999987,27.34114399999998,65535
63.68866399999983,27.34114399999998,7557
60.124663999999854,24.74914399999998,4213
60.44866399999985,24.74914399999998,4182
60.44866399999985,25.397143999999983,4194
60.77266399999985,25.397143999999983,4905
61.09666399999985,26.04514399999998,4948
60.77266399999985,26.04514399999998,4956
60.77266399999985,26.69314399999997,4975
61.09666399999985,25.397143999999983,4939
61.09666399999985,26.69314399999997,7678
61.420663999999846,26.69314399999997,7700
61.74466399999984,27.34114399999998,7724
62.06866399999984,27.34114399999998,7749
62.39266399999984,27.34114399999998,7773
62.71666399999984,27.34114399999998,7737
64.01266399999983,27.34114399999998,7513
63.36466399999984,27.34114399999998,7625
63.04066399999984,27.34114399999998,7665
63.04066399999984,27.989143999999985,7680
64.33666399999983,27.989143999999985,5264
64.33666399999983,27.34114399999998,5209
64.66066399999983,27.34114399999998,5194
64.66066399999983,26.69314399999997,5139
64.98466399999982,25.397143999999983,3559
64.66066399999983,26.04514399999998,5120
64.98466399999982,26.04514399999998,5104
66.28066399999982,25.397143999999983,3731
65.95666399999982,24.74914399999998,3472
65.63266399999982,24.74914399999998,3476
65.63266399999982,25.397143999999983,3518
65.30866399999982,25.397143999999983,3539
66.60466399999981,25.397143999999983,3765
64.01266399999983,24.74914399999998,3696
64.01266399999983,24.101143999999977,3731
64.01266399999983,23.45314399999998,3755
63.68866399999983,23.45314399999998,3767
63.68866399999983,22.805143999999984,3792
63.68866399999983,26.04514399999998,5824
63.68866399999983,25.397143999999983,5790
63.68866399999983,26.69314399999997,7524
60.44866399999985,26.69314399999997,8309
64.01266399999983,27.989143999999985,7943
62.71666399999984,22.805143999999984,3914
62.39266399999984,22.805143999999984,3946
62.06866399999984,22.805143999999984,3975
62.06866399999984,23.45314399999998,3991
61.74466399999984,23.45314399999998,4003
61.420663999999846,23.45314399999998,4051
61.09666399999985,23.45314399999998,4092
61.09666399999985,24.101143999999977,4099
61.09666399999985,24.74914399999998,4133
60.77266399999985,24.74914399999998,4149
63.04066399999984,21.50914399999997,65535
63.04066399999984,22.15714399999998,65535
63.04066399999984,22.805143999999984,3878
62.39266399999984,26.04514399999998,7921
62.06866399999984,25.397143999999983,7970
61.74466399999984,25.397143999999983,8038
61.74466399999984,24.74914399999998,8075
61.74466399999984,24.101143999999977,4280
61.420663999999846,24.101143999999977,4235
62.39266399999984,26.69314399999997,7892
64.66066399999983,25.397143999999983,3628
64.66066399999983,24.74914399999998,3646
64.33666399999983,24.74914399999998,3657
63.36466399999984,22.805143999999984,3817
67.25266399999981,24.101143999999977,7345
66.92866399999981,24.101143999999977,7309
66.60466399999981,23.45314399999998,7278
66.28066399999982,23.45314399999998,7260
66.28066399999982,24.101143999999977,7242
65.95666399999982,24.101143999999977,2844
60.124663999999854,24.101143999999977,5727
60.124663999999854,23.45314399999998,6585
60.44866399999985,22.805143999999984,6644
60.77266399999985,27.34114399999998,5027
61.09666399999985,27.989143999999985,5057
61.09666399999985,28.63714399999997,5095
61.420663999999846,29.28514399999997,5130
61.74466399999984,29.933143999999977,5167
62.06866399999984,29.933143999999977,5193
62.39266399999984,29.933143999999977,5209
62.71666399999984,29.933143999999977,5233
61.420663999999846,22.805143999999984,6338
61.420663999999846,22.15714399999998,7046
61.09666399999985,22.15714399999998,6384
61.420663999999846,21.50914399999997,7179
62.39266399999984,27.989143999999985,65535
62.06866399999984,27.989143999999985,65535
61.420663999999846,27.34114399999998,65535
63.04066399999984,29.933143999999977,7172
63.68866399999983,29.28514399999997,8955
63.36466399999984,29.28514399999997,8935
63.36466399999984,29.933143999999977,8894
60.44866399999985,27.34114399999998,65535
61.74466399999984,29.28514399999997,65535
62.39266399999984,30.58114399999998,65535
62.71666399999984,31.229143999999977,65535
62.71666399999984,29.28514399999997,65535
63.04066399999984,28.63714399999997,65535
66.60466399999981,26.04514399999998,6586
66.60466399999981,26.69314399999997,6622
66.60466399999981,27.34114399999998,6645
62.71666399999984,26.04514399999998,7806
62.71666399999984,25.397143999999983,7775
63.04066399999984,25.397143999999983,7595
63.36466399999984,25.397143999999983,6232
62.71666399999984,23.45314399999998,7800
62.39266399999984,24.101143999999977,65535
62.71666399999984,22.15714399999998,65535
62.39266399999984,22.15714399999998,65535
62.39266399999984,21.50914399999997,65535
61.09666399999985,21.50914399999997,6414
60.77266399999985,22.805143999999984,4452
60.44866399999985,22.15714399999998,4482
60.77266399999985,23.45314399999998,4439
60.77266399999985,21.50914399999997,5553
60.77266399999985,22.15714399999998,5506
60.124663999999854,22.805143999999984,8599
60.44866399999985,24.101143999999977,5712
62.06866399999984,24.74914399999998,65535
50.72866399999991,16.325143999999987,284
50.40466399999991,16.973143999999984,351
50.72866399999991,16.973143999999984,313
50.40466399999991,16.325143999999987,368
50.08066399999991,16.973143999999984,440
50.08066399999991,16.325143999999987,273
51.700663999999904,16.973143999999984,293
51.37666399999991,16.973143999999984,299
51.05266399999991,15.677143999999986,320
50.72866399999991,15.677143999999986,300
51.05266399999991,17.621143999999987,316
51.37666399999991,17.621143999999987,364
51.700663999999904,17.621143999999987,343
51.700663999999904,16.325143999999987,279
52.0246639999999,22.15714399999998,691
52.0246639999999,21.50914399999997,687
52.3486639999999,21.50914399999997,684
52.0246639999999,20.86114399999998,672
51.700663999999904,20.86114399999998,698
51.37666399999991,21.50914399999997,730
51.37666399999991,20.86114399999998,710
51.05266399999991,20.86114399999998,662
52.6726639999999,23.45314399999998,802
52.3486639999999,22.805143999999984,741
52.3486639999999,20.213143999999986,700
52.0246639999999,20.213143999999986,680
52.3486639999999,19.565143999999982,484
52.6726639999999,19.565143999999982,567
51.700663999999904,21.50914399999997,717
51.700663999999904,22.15714399999998,701
52.6726639999999,21.50914399999997,693
52.996663999999896,21.50914399999997,709
52.6726639999999,20.86114399999998,688
52.6726639999999,22.15714399999998,709
52.6726639999999,20.213143999999986,626
52.996663999999896,19.565143999999982,619
52.996663999999896,20.86114399999998,713
52.996663999999896,20.213143999999986,662
53.32066399999989,20.213143999999986,574
51.37666399999991,20.213143999999986,614
52.3486639999999,16.973143999999984,316
52.0246639999999,16.973143999999984,320
52.0246639999999,16.325143999999987,293
52.0246639999999,17.621143999999987,370
52.6726639999999,16.973143999999984,310
52.996663999999896,16.973143999999984,276
52.3486639999999,16.325143999999987,280
52.3486639999999,15.677143999999986,153
51.700663999999904,18.269143999999983,632
52.6726639999999,17.621143999999987,340
52.3486639999999,17.621143999999987,326
52.6726639999999,18.269143999999983,414
52.3486639999999,18.269143999999983,397
52.3486639999999,18.917143999999983,444
52.996663999999896,17.621143999999987,438
51.700663999999904,19.565143999999982,611
51.700663999999904,18.917143999999983,1293
51.37666399999991,18.269143999999983,406
58.82866399999986,9.197143999999987,1808
58.180663999999865,7.90114399999999,1901
58.50466399999986,8.54914399999999,1852
63.36466399999984,10.493143999999988,2023
63.36466399999984,11.141143999999988,2030
63.36466399999984,11.789143999999988,2065
63.68866399999983,11.789143999999988,2093
64.33666399999983,12.437143999999988,2494
64.66066399999983,12.437143999999988,2989
65.63266399999982,13.085143999999987,2646
65.95666399999982,13.085143999999987,2681
66.28066399999982,14.381143999999988,2751
65.95666399999982,13.733143999999989,2820
66.28066399999982,13.733143999999989,2729
65.30866399999982,13.085143999999987,2947
64.98466399999982,13.085143999999987,2581
64.01266399999983,11.789143999999988,2124
63.68866399999983,11.141143999999988,2061
59.800663999999855,10.493143999999988,1604
59.800663999999855,11.141143999999988,1587
60.124663999999854,11.141143999999988,1602
60.44866399999985,11.141143999999988,1615
60.124663999999854,11.789143999999988,1628
60.77266399999985,7.25314399999999,1864
60.77266399999985,6.60514399999999,1910
59.15266399999986,9.197143999999987,1690
59.47666399999986,9.197143999999987,1711
59.800663999999855,9.845143999999989,1606
59.47666399999986,11.141143999999988,1551
61.09666399999985,10.493143999999988,1725
60.77266399999985,10.493143999999988,1695
60.77266399999985,11.141143999999988,1650
62.06866399999984,9.197143999999987,2050
61.74466399999984,9.845143999999989,1996
61.420663999999846,9.845143999999989,1973
59.15266399999986,9.845143999999989,1670
59.47666399999986,9.845143999999989,1646
58.82866399999986,5.957143999999991,2085
58.180663999999865,7.25314399999999,1957
58.50466399999986,7.25314399999999,1990
58.50466399999986,6.60514399999999,1995
58.50466399999986,5.957143999999991,2053
58.82866399999986,8.54914399999999,1838
60.44866399999985,7.25314399999999,1838
60.44866399999985,7.90114399999999,1799
60.124663999999854,10.493143999999988,1636
60.44866399999985,9.197143999999987,1748
60.77266399999985,9.197143999999987,1760
60.77266399999985,8.54914399999999,1779
60.124663999999854,9.845143999999989,2015
60.44866399999985,10.493143999999988,1681
63.04066399999984,10.493143999999988,1974
62.06866399999984,9.845143999999989,2075
62.39266399999984,9.845143999999989,2083
62.71666399999984,9.845143999999989,2107
59.47666399999986,14.381143999999988,1600
59.47666399999986,13.733143999999989,1541
59.47666399999986,13.085143999999987,1517
59.800663999999855,12.437143999999988,1586
59.15266399999986,11.141143999999988,1515
59.15266399999986,14.381143999999988,1614
58.82866399999986,11.789143999999988,1495
58.50466399999986,12.437143999999988,1425
58.180663999999865,12.437143999999988,1418
57.85666399999987,11.789143999999988,1369
62.71666399999984,7.90114399999999,2136
62.39266399999984,7.90114399999999,2093
62.06866399999984,8.54914399999999,2068
60.44866399999985,5.309143999999991,1984
60.44866399999985,5.957143999999991,1951
60.77266399999985,5.957143999999991,1940
62.39266399999984,11.141143999999988,1871
62.06866399999984,10.493143999999988,1826
61.74466399999984,11.141143999999988,1799
61.420663999999846,11.141143999999988,1753
61.09666399999985,11.141143999999988,1736
60.77266399999985,11.789143999999988,1713
63.04066399999984,11.141143999999988,1952
62.71666399999984,11.141143999999988,1895
62.39266399999984,10.493143999999988,1853
67.25266399999981,15.677143999999986,2870
67.25266399999981,15.029143999999986,2908
67.25266399999981,14.381143999999988,2936
66.92866399999981,15.029143999999986,2859
66.60466399999981,15.677143999999986,2837
64.01266399999983,11.141143999999988,2108
66.60466399999981,15.029143999999986,2900
54.29266399999989,18.269143999999983,510
54.616663999999886,17.621143999999987,468
53.96866399999989,18.269143999999983,498
43.92466399999995,1.4211439999999929,489
44.24866399999995,0.7731439999999932,451
44.572663999999946,0.1251439999999934,488
46.84066399999993,1.4211439999999929,526
44.572663999999946,1.4211439999999929,584
44.24866399999995,1.4211439999999929,558
45.54466399999994,1.4211439999999929,513
46.516663999999935,1.4211439999999929,551
42.30466399999996,2.717143999999992,605
44.24866399999995,2.717143999999992,695
44.572663999999946,2.717143999999992,680
43.92466399999995,2.0691439999999925,556
42.30466399999996,2.0691439999999925,627
42.62866399999996,2.0691439999999925,603
42.62866399999996,1.4211439999999929,625
42.95266399999996,1.4211439999999929,560
43.276663999999954,1.4211439999999929,547
46.516663999999935,-1.170856000000006,505
46.19266399999994,-1.170856000000006,536
45.86866399999994,-0.5228560000000062,483
45.54466399999994,-0.5228560000000062,463
48.46066399999992,1.4211439999999929,295
41.332663999999966,2.0691439999999925,692
41.98066399999996,2.717143999999992,651
48.46066399999992,-1.8188560000000056,414
47.81266399999993,0.7731439999999932,313
46.84066399999993,0.7731439999999932,378
44.572663999999946,-1.170856000000006,385
43.60066399999995,-1.170856000000006,448
43.276663999999954,-1.8188560000000056,495
43.276663999999954,0.1251439999999934,654
42.95266399999996,0.1251439999999934,619
43.276663999999954,-0.5228560000000062,520
43.60066399999995,-0.5228560000000062,509
47.81266399999993,-3.7628560000000046,496
47.48866399999993,-2.4668560000000053,455
47.81266399999993,-0.5228560000000062,409
46.516663999999935,-1.8188560000000056,521
48.136663999999925,-1.170856000000006,436
47.48866399999993,-1.170856000000006,403
45.22066399999994,8.54914399999999,394
45.22066399999994,7.90114399999999,402
46.19266399999994,-0.5228560000000062,491
46.516663999999935,-0.5228560000000062,474
48.78466399999992,-3.114856000000005,466
50.72866399999991,2.0691439999999925,217
50.40466399999991,2.0691439999999925,285
40.36066399999997,-3.7628560000000046,1905
41.65666399999997,-1.170856000000006,1822
41.332663999999966,1.4211439999999929,1760
43.276663999999954,13.733143999999989,4390
42.95266399999996,13.733143999999989,4412
41.65666399999997,15.029143999999986,4496
40.68466399999997,17.621143999999987,4658
43.60066399999995,13.085143999999987,4383
41.65666399999997,12.437143999999988,3049
41.65666399999997,13.085143999999987,3068
41.98066399999996,13.085143999999987,3118
41.65666399999997,13.733143999999989,3120
41.332663999999966,13.733143999999989,3112
41.332663999999966,14.381143999999988,3269
41.00866399999997,14.381143999999988,3175
41.332663999999966,13.085143999999987,3094
41.00866399999997,15.029143999999986,3375
41.98066399999996,13.733143999999989,3317
42.30466399999996,14.381143999999988,3456
42.30466399999996,12.437143999999988,3057
42.62866399999996,12.437143999999988,3236
42.95266399999996,12.437143999999988,3521
42.30466399999996,11.789143999999988,3066
42.95266399999996,11.789143999999988,3276
42.62866399999996,11.789143999999988,3267
43.276663999999954,11.789143999999988,3330
42.95266399999996,13.085143999999987,4284
42.30466399999996,13.085143999999987,3343
43.276663999999954,13.085143999999987,4332
43.276663999999954,12.437143999999988,4339
42.62866399999996,11.141143999999988,3112
42.95266399999996,11.141143999999988,3155
42.95266399999996,10.493143999999988,3173
44.572663999999946,8.54914399999999,424
44.89666399999994,7.90114399999999,414
44.89666399999994,9.197143999999987,492
44.24866399999995,7.90114399999999,480
44.572663999999946,7.90114399999999,440
43.92466399999995,7.90114399999999,578
44.24866399999995,7.25314399999999,469
44.89666399999994,7.25314399999999,438
45.22066399999994,7.25314399999999,418
45.54466399999994,7.90114399999999,420
44.572663999999946,7.25314399999999,502
52.996663999999896,22.805143999999984,1255
52.996663999999896,23.45314399999998,1284
51.37666399999991,22.15714399999998,745
51.37666399999991,22.805143999999984,799
50.08066399999991,20.213143999999986,506
50.72866399999991,20.213143999999986,563
50.40466399999991,20.213143999999986,486
50.08066399999991,20.86114399999998,573
50.08066399999991,21.50914399999997,604
50.08066399999991,22.15714399999998,641
50.08066399999991,22.805143999999984,648
53.96866399999989,22.805143999999984,1396
53.64466399999989,23.45314399999998,1352
53.32066399999989,23.45314399999998,1307
50.40466399999991,19.565143999999982,420
50.08066399999991,18.917143999999983,450
50.08066399999991,18.269143999999983,490
52.0246639999999,22.805143999999984,766
52.0246639999999,23.45314399999998,780
51.37666399999991,19.565143999999982,571
51.05266399999991,19.565143999999982,433
50.72866399999991,18.917143999999983,411
50.72866399999991,19.565143999999982,577
49.75666399999992,18.917143999999983,438
50.40466399999991,18.269143999999983,398
53.64466399999989,19.565143999999982,521
53.96866399999989,18.917143999999983,540
53.64466399999989,18.917143999999983,519
53.64466399999989,20.213143999999986,569
52.996663999999896,18.917143999999983,467
52.996663999999896,18.269143999999983,447
53.32066399999989,18.917143999999983,471
50.72866399999991,17.621143999999987,347
50.72866399999991,18.269143999999983,384
52.6726639999999,16.325143999999987,271
52.996663999999896,16.325143999999987,233
52.996663999999896,15.677143999999986,190
53.32066399999989,15.677143999999986,185
53.32066399999989,15.029143999999986,161
53.64466399999989,15.029143999999986,168
53.96866399999989,15.029143999999986,153
52.6726639999999,18.917143999999983,486
53.32066399999989,16.325143999999987,203
52.6726639999999,15.029143999999986,142
51.05266399999991,22.805143999999984,829
51.05266399999991,23.45314399999998,856
50.72866399999991,22.15714399999998,782
50.40466399999991,22.15714399999998,806
51.05266399999991,22.15714399999998,796
54.616663999999886,16.973143999999984,452
54.29266399999989,16.325143999999987,385
53.96866399999989,15.677143999999986,300
50.72866399999991,21.50914399999997,771
50.40466399999991,21.50914399999997,652
50.40466399999991,17.621143999999987,368
53.32066399999989,22.805143999999984,1277
53.64466399999989,22.15714399999998,718
54.29266399999989,16.973143999999984,421
50.72866399999991,20.86114399999998,601
51.700663999999904,22.805143999999984,828
51.05266399999991,21.50914399999997,770
50.08066399999991,19.565143999999982,483
52.0246639999999,18.917143999999983,8488
52.0246639999999,19.565143999999982,8481
53.64466399999989,18.269143999999983,492
51.700663999999904,20.213143999999986,654
53.32066399999989,19.565143999999982,512
50.72866399999991,23.45314399999998,1675
50.72866399999991,22.805143999999984,1644
49.43266399999992,20.213143999999986,526
49.75666399999992,21.50914399999997,615
49.75666399999992,22.15714399999998,1302
49.43266399999992,22.15714399999998,862
51.05266399999991,18.917143999999983,416
51.05266399999991,18.269143999999983,353
53.32066399999989,16.973143999999984,379
53.64466399999989,16.973143999999984,398
49.75666399999992,20.86114399999998,626
50.40466399999991,22.805143999999984,8570
53.64466399999989,16.325143999999987,357
53.96866399999989,20.86114399999998,673
54.29266399999989,20.86114399999998,719
53.96866399999989,21.50914399999997,824
53.64466399999989,15.677143999999986,312
53.96866399999989,20.213143999999986,601
53.96866399999989,19.565143999999982,564
54.29266399999989,19.565143999999982,574
53.96866399999989,16.325143999999987,348
53.64466399999989,17.621143999999987,444
53.96866399999989,22.15714399999998,738
53.64466399999989,21.50914399999997,674
53.64466399999989,20.86114399999998,626
52.6726639999999,15.677143999999986,191
51.05266399999991,20.213143999999986,1249
54.940663999999884,24.101143999999977,3681
54.616663999999886,23.45314399999998,3625
54.29266399999989,23.45314399999998,3488
53.64466399999989,22.805143999999984,1300
53.96866399999989,16.973143999999984,553
50.40466399999991,20.86114399999998,1306
53.32066399999989,18.269143999999983,465
49.75666399999992,19.565143999999982,499
50.40466399999991,23.45314399999998,925
49.75666399999992,20.213143999999986,530
49.43266399999992,19.565143999999982,489
49.43266399999992,20.86114399999998,635
53.96866399999989,17.621143999999987,1323
42.30466399999996,-1.8188560000000056,8799
41.98066399999996,-1.8188560000000056,8782
41.65666399999997,0.7731439999999932,8786
42.62866399999996,-1.8188560000000056,8914
42.95266399999996,-1.8188560000000056,8943
42.62866399999996,-3.114856000000005,9037
42.95266399999996,-2.4668560000000053,9015
42.62866399999996,-7.650856000000003,9379
42.30466399999996,-7.650856000000003,9439
42.30466399999996,-8.946856000000002,9575
42.30466399999996,-8.298856000000002,9549
41.98066399999996,-8.298856000000002,9538
42.30466399999996,-7.002856000000003,9321
42.62866399999996,-6.354856000000003,9263
42.30466399999996,-6.354856000000003,9218
42.62866399999996,-5.706856000000004,8718
41.98066399999996,-4.410856000000004,8672
42.30466399999996,-3.7628560000000046,9063
40.03666399999997,-0.5228560000000062,8766
39.38866399999998,-0.5228560000000062,8814
41.00866399999997,0.7731439999999932,8914
40.68466399999997,0.7731439999999932,8946
40.36066399999997,0.1251439999999934,9024
39.712663999999975,-0.5228560000000062,8923
38.41666399999998,-0.5228560000000062,8935
39.06466399999998,-0.5228560000000062,9057
38.74066399999998,-1.170856000000006,8943
41.332663999999966,0.7731439999999932,8974
41.65666399999997,2.717143999999992,8574
41.65666399999997,2.0691439999999925,8597
41.332663999999966,0.1251439999999934,8932
41.332663999999966,-0.5228560000000062,8876
41.65666399999997,-4.410856000000004,8646
40.03666399999997,-2.4668560000000053,8884
41.00866399999997,-4.410856000000004,8767
43.276663999999954,-5.706856000000004,8848
39.38866399999998,-1.170856000000006,8909
38.09266399999999,-1.170856000000006,9322
38.74066399999998,-0.5228560000000062,9085
37.76866399999999,-1.170856000000006,9387
39.06466399999998,-1.8188560000000056,8907
39.38866399999998,-3.114856000000005,8807
39.38866399999998,-2.4668560000000053,8863
39.06466399999998,-2.4668560000000053,8890
39.06466399999998,-3.114856000000005,8811
39.06466399999998,-3.7628560000000046,8785
38.74066399999998,-3.7628560000000046,8864
40.03666399999997,-3.7628560000000046,8763
40.03666399999997,-3.114856000000005,8963
40.03666399999997,-1.8188560000000056,9044
39.712663999999975,-1.8188560000000056,9009
39.712663999999975,-1.170856000000006,8945
40.36066399999997,-1.170856000000006,8964
40.68466399999997,-1.170856000000006,8942
41.00866399999997,-1.170856000000006,8930
41.332663999999966,-1.170856000000006,8770
43.276663999999954,-8.298856000000002,9539
42.95266399999996,-8.298856000000002,9507
41.65666399999997,-5.706856000000004,65535
41.98066399999996,-7.002856000000003,65535
41.98066399999996,-6.354856000000003,65535
41.332663999999966,-5.058856000000004,8885
43.276663999999954,-3.7628560000000046,9320
42.95266399999996,-4.410856000000004,9254
42.62866399999996,-4.410856000000004,9244
42.30466399999996,-4.410856000000004,9203
41.00866399999997,-5.706856000000004,8823
41.332663999999966,-1.8188560000000056,8716
40.68466399999997,-3.114856000000005,8670
41.00866399999997,-3.114856000000005,8721
41.00866399999997,-2.4668560000000053,8744
41.332663999999966,-2.4668560000000053,8797
40.68466399999997,-4.410856000000004,8707
40.36066399999997,-4.410856000000004,8791
40.68466399999997,-3.7628560000000046,8699
40.36066399999997,-3.114856000000005,8677
41.65666399999997,-2.4668560000000053,8814
38.09266399999999,-3.7628560000000046,8911
38.74066399999998,-3.114856000000005,8855
37.76866399999999,-3.7628560000000046,8968
39.712663999999975,-3.114856000000005,8799
38.41666399999998,-3.7628560000000046,8876
40.03666399999997,-4.410856000000004,65535
40.03666399999997,-5.058856000000004,65535
39.38866399999998,-6.354856000000003,65535
39.38866399999998,-7.002856000000003,65535
42.95266399999996,-3.114856000000005,9448
41.98066399999996,-1.170856000000006,8811
42.30466399999996,-2.4668560000000053,8852
41.65666399999997,-0.5228560000000062,8909
41.98066399999996,-0.5228560000000062,8746
41.65666399999997,0.1251439999999934,8773
41.98066399999996,0.1251439999999934,8795
37.76866399999999,-5.058856000000004,8847
36.79666399999999,-4.410856000000004,8906
38.74066399999998,-4.410856000000004,8803
37.12066399999999,-4.410856000000004,8880
37.44466399999999,-5.058856000000004,9404
37.44466399999999,-7.002856000000003,65535
37.44466399999999,-6.354856000000003,65535
37.44466399999999,-5.706856000000004,9080
39.712663999999975,-3.7628560000000046,8873
42.62866399999996,-8.946856000000002,65535
42.30466399999996,-5.706856000000004,9225
42.30466399999996,-5.058856000000004,9310
42.95266399999996,-5.706856000000004,8750
41.00866399999997,-5.058856000000004,8791
40.68466399999997,-5.058856000000004,8765
41.65666399999997,-5.058856000000004,65535
41.65666399999997,-6.354856000000003,65535
36.79666399999999,-6.354856000000003,65535
37.12066399999999,-5.706856000000004,9248
37.76866399999999,-5.706856000000004,9047
38.09266399999999,-4.410856000000004,9182
37.12066399999999,-5.058856000000004,9202
36.79666399999999,-5.058856000000004,9160
37.76866399999999,-4.410856000000004,65535
37.76866399999999,-7.002856000000003,65535
38.41666399999998,-6.354856000000003,65535
38.09266399999999,-6.354856000000003,65535
48.78466399999992,1.4211439999999929,361
56.23666399999988,8.54914399999999,7090
55.58866399999988,9.197143999999987,6895
55.91266399999988,9.197143999999987,7036
55.26466399999988,10.493143999999988,1074
55.91266399999988,12.437143999999988,1209
55.58866399999988,11.789143999999988,6735
55.58866399999988,11.141143999999988,6776
55.26466399999988,11.789143999999988,6768
55.58866399999988,10.493143999999988,6891
55.58866399999988,13.085143999999987,1166
56.88466399999987,9.845143999999989,7042
57.20866399999987,9.845143999999989,7077
56.56066399999988,9.845143999999989,7014
56.88466399999987,8.54914399999999,7129
54.940663999999884,9.845143999999989,8236
54.940663999999884,11.789143999999988,6992
55.91266399999988,13.085143999999987,1224
56.23666399999988,13.733143999999989,1268
55.91266399999988,13.733143999999989,1271
56.23666399999988,14.381143999999988,1291
56.23666399999988,15.029143999999986,1332
56.23666399999988,15.677143999999986,1387
56.56066399999988,14.381143999999988,1348
56.88466399999987,14.381143999999988,1318
56.23666399999988,13.085143999999987,1216
56.56066399999988,13.085143999999987,1296
56.88466399999987,12.437143999999988,1333
57.20866399999987,12.437143999999988,1349
57.53266399999987,12.437143999999988,1364
56.88466399999987,15.029143999999986,1344
56.56066399999988,15.677143999999986,1404
56.88466399999987,15.677143999999986,1423
56.88466399999987,16.325143999999987,1438
55.91266399999988,11.789143999999988,7061
57.20866399999987,10.493143999999988,7264
49.43266399999992,1.4211439999999929,324
49.75666399999992,0.7731439999999932,378
49.75666399999992,2.0691439999999925,284
50.08066399999991,2.717143999999992,246
49.75666399999992,1.4211439999999929,367
47.81266399999993,1.4211439999999929,354
48.136663999999925,2.0691439999999925,549
48.46066399999992,2.0691439999999925,391
48.136663999999925,1.4211439999999929,311
48.78466399999992,0.1251439999999934,452
48.46066399999992,0.1251439999999934,335
47.81266399999993,0.1251439999999934,423
46.84066399999993,-0.5228560000000062,445
47.16466399999993,0.7731439999999932,443
46.84066399999993,0.1251439999999934,479
46.84066399999993,-1.170856000000006,479
50.08066399999991,1.4211439999999929,324
50.08066399999991,2.0691439999999925,315
49.43266399999992,2.717143999999992,250
49.75666399999992,3.365143999999992,263
50.08066399999991,3.365143999999992,237
49.10866399999992,2.0691439999999925,335
49.43266399999992,2.0691439999999925,321
48.78466399999992,0.7731439999999932,423
48.78466399999992,-0.5228560000000062,497
48.78466399999992,-1.170856000000006,529
48.136663999999925,0.7731439999999932,351
48.46066399999992,0.7731439999999932,374
43.92466399999995,5.957143999999991,604
44.24866399999995,5.957143999999991,645
43.92466399999995,5.309143999999991,461
42.95266399999996,2.717143999999992,556
45.54466399999994,2.0691439999999925,619
45.22066399999994,2.0691439999999925,576
42.95266399999996,2.0691439999999925,600
42.95266399999996,0.7731439999999932,594
43.276663999999954,0.7731439999999932,567
46.19266399999994,0.7731439999999932,627
46.516663999999935,0.7731439999999932,609
45.86866399999994,0.1251439999999934,534
46.19266399999994,0.1251439999999934,520
47.81266399999993,-1.170856000000006,530
48.136663999999925,-2.4668560000000053,529
47.48866399999993,-1.8188560000000056,418
47.16466399999993,-1.170856000000006,389
47.16466399999993,-0.5228560000000062,529
46.84066399999993,-1.8188560000000056,464
45.22066399999994,-0.5228560000000062,407
44.89666399999994,0.1251439999999934,421
45.22066399999994,0.7731439999999932,440
45.54466399999994,0.7731439999999932,474
45.86866399999994,0.7731439999999932,586
45.22066399999994,0.1251439999999934,435
44.89666399999994,0.7731439999999932,540
43.92466399999995,-0.5228560000000062,479
43.92466399999995,-1.170856000000006,450
44.24866399999995,-1.170856000000006,447
45.22066399999994,-1.170856000000006,498
44.572663999999946,-0.5228560000000062,407
44.24866399999995,0.1251439999999934,495
44.572663999999946,0.7731439999999932,564
43.276663999999954,-1.170856000000006,472
42.95266399999996,-0.5228560000000062,637
44.24866399999995,2.0691439999999925,610
43.60066399999995,0.7731439999999932,551
43.60066399999995,2.0691439999999925,498
52.6726639999999,4.661143999999991,7081
52.6726639999999,5.309143999999991,7104
51.700663999999904,5.309143999999991,7049
52.0246639999999,5.309143999999991,7061
52.3486639999999,5.309143999999991,7077
51.37666399999991,4.013143999999992,7057
52.3486639999999,5.957143999999991,7071
52.0246639999999,6.60514399999999,7101
52.6726639999999,5.957143999999991,7088
52.996663999999896,5.957143999999991,7101
53.32066399999989,5.957143999999991,7095
52.996663999999896,6.60514399999999,7077
53.32066399999989,6.60514399999999,7069
52.6726639999999,6.60514399999999,7097
52.996663999999896,5.309143999999991,7116
59.15266399999986,24.101143999999977,65535
56.88466399999987,24.101143999999977,65535
56.88466399999987,23.45314399999998,65535
56.88466399999987,22.805143999999984,65535
57.20866399999987,24.74914399999998,65535
56.88466399999987,24.74914399999998,65535
56.56066399999988,24.74914399999998,65535
56.56066399999988,25.397143999999983,65535
56.56066399999988,24.101143999999977,65535
56.56066399999988,23.45314399999998,65535
56.56066399999988,26.04514399999998,65535
56.88466399999987,26.04514399999998,65535
57.20866399999987,25.397143999999983,65535
57.53266399999987,25.397143999999983,65535
56.23666399999988,26.04514399999998,65535
56.23666399999988,26.69314399999997,65535
55.91266399999988,26.69314399999997,65535
56.56066399999988,26.69314399999997,65535
56.56066399999988,27.34114399999998,65535
56.56066399999988,27.989143999999985,65535
56.23666399999988,27.989143999999985,65535
55.91266399999988,27.34114399999998,65535
56.56066399999988,22.805143999999984,65535
56.56066399999988,22.15714399999998,65535
56.56066399999988,21.50914399999997,65535
57.20866399999987,26.69314399999997,65535
39.06466399999998,-8.946856000000002,65535
38.41666399999998,-8.298856000000002,65535
45.86866399999994,11.789143999999988,2068
46.19266399999994,11.789143999999988,2055
46.19266399999994,10.493143999999988,2095
45.22066399999994,18.269143999999983,706
45.22066399999994,18.917143999999983,746
45.54466399999994,16.973143999999984,586
45.22066399999994,17.621143999999987,643
45.86866399999994,16.325143999999987,550
45.54466399999994,18.917143999999983,769
45.54466399999994,16.325143999999987,555
45.54466399999994,18.269143999999983,741
44.89666399999994,18.917143999999983,1202
46.19266399999994,16.973143999999984,561
46.19266399999994,16.325143999999987,533
45.86866399999994,16.973143999999984,610
45.86866399999994,17.621143999999987,675
46.19266399999994,15.677143999999986,525
46.516663999999935,16.325143999999987,561
45.54466399999994,15.677143999999986,538
45.22066399999994,15.029143999999986,557
45.54466399999994,15.029143999999986,502
45.22066399999994,15.677143999999986,556
44.572663999999946,15.677143999999986,2059
44.24866399999995,15.677143999999986,2080
43.92466399999995,16.325143999999987,1971
44.89666399999994,15.677143999999986,2023
45.54466399999994,17.621143999999987,706
45.22066399999994,16.325143999999987,646
46.516663999999935,16.973143999999984,592
45.86866399999994,18.269143999999983,1300
43.92466399999995,15.677143999999986,1770
45.22066399999994,13.733143999999989,581
47.48866399999993,19.565143999999982,634
47.16466399999993,18.917143999999983,633
47.81266399999993,18.917143999999983,586
45.54466399999994,9.845143999999989,379
45.22066399999994,9.845143999999989,388
45.22066399999994,10.493143999999988,438
45.86866399999994,9.845143999999989,399
45.86866399999994,10.493143999999988,2838
48.78466399999992,21.50914399999997,577
49.10866399999992,20.213143999999986,518
49.10866399999992,18.917143999999983,426
48.46066399999992,17.621143999999987,467
49.43266399999992,17.621143999999987,373
49.10866399999992,17.621143999999987,421
48.136663999999925,18.269143999999983,498
49.10866399999992,18.269143999999983,447
49.43266399999992,18.269143999999983,404
49.43266399999992,16.973143999999984,351
49.75666399999992,16.973143999999984,321
49.75666399999992,16.325143999999987,299
50.08066399999991,15.677143999999986,251
50.08066399999991,15.029143999999986,221
49.43266399999992,18.917143999999983,415
47.81266399999993,20.86114399999998,715
48.136663999999925,20.86114399999998,650
48.46066399999992,20.86114399999998,637
48.46066399999992,21.50914399999997,592
49.10866399999992,19.565143999999982,439
48.136663999999925,17.621143999999987,446
48.78466399999992,22.15714399999998,710
48.78466399999992,20.86114399999998,865
49.10866399999992,20.86114399999998,561
48.78466399999992,18.269143999999983,490
48.78466399999992,17.621143999999987,449
49.10866399999992,21.50914399999997,569
48.78466399999992,20.213143999999986,909
48.46066399999992,20.213143999999986,921
48.136663999999925,19.565143999999982,645
48.46066399999992,19.565143999999982,524
48.46066399999992,18.917143999999983,506
48.46066399999992,18.269143999999983,503
48.78466399999992,19.565143999999982,480
48.78466399999992,18.917143999999983,466
47.81266399999993,18.269143999999983,547
49.10866399999992,22.15714399999998,764
49.43266399999992,21.50914399999997,694
48.136663999999925,18.917143999999983,699
48.136663999999925,20.213143999999986,665
52.636,-8.018,65535
52.312,-7.370000000000001,65535
52.312,-8.018,65535
52.636,-8.666,65535
51.988,-8.666,65535
51.988,-8.018,65535
52.96,-8.666,65535
52.96,-6.074000000000002,65535
53.28399999999999,-6.722000000000001,65535
53.60799999999999,-6.722000000000001,65535
53.60799999999999,-7.370000000000001,65535
53.60799999999999,-8.018,65535
54.25599999999999,-8.666,65535
53.93199999999999,-8.666,65535
53.93199999999999,-8.018,65535
52.312,-6.722000000000001,65535
52.636,-6.722000000000001,65535
53.93199999999999,-6.722000000000001,65535
54.25599999999999,-6.074000000000002,65535
53.28399999999999,-7.370000000000001,65535
52.96,-7.370000000000001,65535
52.312,-8.666,65535
52.96,-8.018,65535
52.636,-7.370000000000001,65535
52.96,-6.722000000000001,65535
51.988,-9.314,65535
52.312,-9.314,65535
54.579999999999984,-6.722000000000001,65535
54.579999999999984,-6.074000000000002,65535
53.28399999999999,-8.018,65535
53.28399999999999,-8.666,65535
53.28399999999999,-9.314,65535
53.93199999999999,-9.314,65535
54.25599999999999,-9.314,65535
53.60799999999999,-8.666,65535
53.60799999999999,-9.314,65535
49.43266399999992,14.381143999999988,275
49.75666399999992,14.381143999999988,233
49.75666399999992,15.029143999999986,226
49.75666399999992,13.733143999999989,263
50.08066399999991,13.733143999999989,257
49.75666399999992,15.677143999999986,237
50.40466399999991,15.029143999999986,216
49.43266399999992,13.733143999999989,366
50.40466399999991,15.677143999999986,227
50.40466399999991,13.733143999999989,283
46.19266399999994,15.029143999999986,515
45.86866399999994,15.029143999999986,493
45.86866399999994,14.381143999999988,477
46.19266399999994,13.733143999999989,560
45.86866399999994,13.733143999999989,635
58.50466399999986,13.733143999999989,1442
58.180663999999865,13.733143999999989,1446
58.180663999999865,13.085143999999987,1418
57.85666399999987,12.437143999999988,1384
60.44866399999985,15.677143999999986,1667
60.124663999999854,15.677143999999986,1601
60.124663999999854,16.325143999999987,1639
59.800663999999855,16.325143999999987,1567
59.800663999999855,17.621143999999987,1546
59.47666399999986,18.269143999999983,1528
61.74466399999984,16.973143999999984,1678
61.420663999999846,16.973143999999984,1651
60.77266399999985,16.973143999999984,1603
65.63266399999982,22.15714399999998,2782
65.95666399999982,21.50914399999997,2742
65.63266399999982,20.86114399999998,2713
64.98466399999982,20.213143999999986,2645
64.66066399999983,20.213143999999986,2623
64.33666399999983,19.565143999999982,2317
64.01266399999983,19.565143999999982,2030
63.68866399999983,20.213143999999986,1983
64.66066399999983,18.917143999999983,2994
59.15266399999986,16.325143999999987,1503
59.15266399999986,15.029143999999986,1495
59.15266399999986,17.621143999999987,1520
57.53266399999987,14.381143999999988,1344
57.53266399999987,15.029143999999986,1364
61.09666399999985,14.381143999999988,1771
60.77266399999985,15.029143999999986,1722
60.44866399999985,15.029143999999986,1708
58.180663999999865,15.029143999999986,1421
58.50466399999986,16.325143999999987,1455
58.50466399999986,15.677143999999986,1428
63.36466399999984,13.085143999999987,2015
63.04066399999984,14.381143999999988,1952
62.39266399999984,15.677143999999986,1874
63.36466399999984,13.733143999999989,1997
63.36466399999984,14.381143999999988,1969
62.71666399999984,15.677143999999986,1902
62.39266399999984,17.621143999999987,1736
59.800663999999855,15.677143999999986,2013
55.58866399999988,13.733143999999989,1298
57.20866399999987,14.381143999999988,1328
57.85666399999987,14.381143999999988,1376
58.82866399999986,16.973143999999984,1512
58.82866399999986,16.325143999999987,1490
59.15266399999986,18.269143999999983,1524
60.44866399999985,17.621143999999987,1579
59.15266399999986,12.437143999999988,1483
59.15266399999986,13.085143999999987,1497
58.82866399999986,12.437143999999988,1459
59.47666399999986,16.325143999999987,1529
58.82866399999986,14.381143999999988,1536
59.47666399999986,15.677143999999986,1518
63.36466399999984,18.917143999999983,1936
63.04066399999984,17.621143999999987,1891
62.71666399999984,17.621143999999987,1865
63.68866399999983,19.565143999999982,1969
62.39266399999984,16.973143999999984,1780
59.800663999999855,16.973143999999984,1555
59.47666399999986,17.621143999999987,1532
57.85666399999987,13.085143999999987,1408
57.53266399999987,13.085143999999987,1389
58.50466399999986,11.789143999999988,1430
57.85666399999987,15.029143999999986,1410
57.20866399999987,13.733143999999989,1334
57.53266399999987,13.733143999999989,1395
61.74466399999984,16.325143999999987,1774
61.420663999999846,16.325143999999987,1741
61.09666399999985,16.325143999999987,1730
61.09666399999985,16.973143999999984,1698
60.124663999999854,15.029143999999986,1876
66.60466399999981,20.86114399999998,2817
67.25266399999981,20.86114399999998,2885
67.90066399999981,20.213143999999986,2955
67.57666399999981,20.213143999999986,3580
59.800663999999855,15.029143999999986,1596
58.50466399999986,15.029143999999986,1438
59.47666399999986,15.029143999999986,1581
60.44866399999985,16.325143999999987,1667
59.15266399999986,15.677143999999986,1525
57.85666399999987,13.733143999999989,1436
58.82866399999986,13.733143999999989,1483
58.50466399999986,13.085143999999987,1468
57.20866399999987,13.085143999999987,1365
56.88466399999987,13.085143999999987,1339
58.180663999999865,11.789143999999988,1401
62.06866399999984,16.973143999999984,1769
65.95666399999982,23.45314399999998,2823
59.800663999999855,14.381143999999988,5891
59.800663999999855,18.269143999999983,1537
63.04066399999984,15.029143999999986,1920
62.71666399999984,15.029143999999986,1910
62.39266399999984,16.325143999999987,1843
63.36466399999984,12.437143999999988,2048
68.5486639999998,17.621143999999987,3168
68.5486639999998,18.269143999999983,3101
68.5486639999998,18.917143999999983,3078
68.2246639999998,18.917143999999983,3034
59.800663999999855,13.085143999999987,1600
60.124663999999854,13.085143999999987,1639
59.47666399999986,16.973143999999984,1541
59.15266399999986,16.973143999999984,1533
56.56066399999988,13.733143999999989,1286
60.124663999999854,17.621143999999987,1556
57.85666399999987,16.325143999999987,1515
58.180663999999865,16.325143999999987,1477
58.180663999999865,15.677143999999986,1485
57.20866399999987,16.325143999999987,1527
57.53266399999987,15.677143999999986,1545
57.85666399999987,15.677143999999986,1516
44.89666399999994,23.45314399999998,2965
44.572663999999946,23.45314399999998,3035
44.89666399999994,24.74914399999998,2952
44.572663999999946,24.74914399999998,3071
44.572663999999946,24.101143999999977,3012
44.24866399999995,24.101143999999977,3041
47.48866399999993,25.397143999999983,2813
47.48866399999993,24.74914399999998,2753
47.16466399999993,24.74914399999998,2675
47.16466399999993,24.101143999999977,2577
47.48866399999993,22.15714399999998,2707
47.81266399999993,22.15714399999998,2793
47.16466399999993,22.15714399999998,2686
47.16466399999993,23.45314399999998,2738
47.16466399999993,22.805143999999984,2744
46.84066399999993,24.101143999999977,2658
45.86866399999994,27.34114399999998,2998
45.54466399999994,27.34114399999998,2979
45.54466399999994,27.989143999999985,3095
45.86866399999994,20.86114399999998,2870
45.86866399999994,21.50914399999997,2878
46.19266399999994,21.50914399999997,2814
46.19266399999994,27.34114399999998,2998
46.19266399999994,26.69314399999997,2989
46.516663999999935,26.69314399999997,2951
46.516663999999935,26.04514399999998,2847
47.48866399999993,22.805143999999984,2805
46.84066399999993,22.805143999999984,2618
45.54466399999994,22.15714399999998,2927
45.22066399999994,22.15714399999998,3005
44.89666399999994,22.15714399999998,3423
47.48866399999993,23.45314399999998,2771
46.516663999999935,24.101143999999977,2497
46.516663999999935,24.74914399999998,2711
45.86866399999994,24.101143999999977,2660
47.16466399999993,26.69314399999997,3029
47.16466399999993,27.34114399999998,3084
43.92466399999995,25.397143999999983,3043
44.24866399999995,24.74914399999998,2950
44.89666399999994,26.04514399999998,2837
44.89666399999994,26.69314399999997,2884
45.22066399999994,26.69314399999997,2919
45.22066399999994,27.34114399999998,2946
46.84066399999993,26.69314399999997,2990
47.48866399999993,26.69314399999997,2983
44.24866399999995,25.397143999999983,2882
43.92466399999995,26.04514399999998,3059
46.19266399999994,24.101143999999977,2705
44.572663999999946,25.397143999999983,2920
46.84066399999993,24.74914399999998,2718
46.516663999999935,21.50914399999997,2818
46.84066399999993,21.50914399999997,2825
44.572663999999946,26.69314399999997,2875
44.572663999999946,27.34114399999998,2896
44.89666399999994,27.34114399999998,3011
44.572663999999946,27.989143999999985,2916
44.24866399999995,27.989143999999985,2930
44.572663999999946,28.63714399999997,2981
45.86866399999994,22.15714399999998,2739
45.86866399999994,22.805143999999984,2633
44.24866399999995,23.45314399999998,3068
43.92466399999995,27.989143999999985,65535
46.84066399999993,27.34114399999998,3151
45.22066399999994,23.45314399999998,2940
45.54466399999994,23.45314399999998,2743
45.54466399999994,24.101143999999977,2690
45.22066399999994,24.101143999999977,2914
44.89666399999994,24.101143999999977,2984
46.19266399999994,22.15714399999998,2870
46.516663999999935,22.15714399999998,2836
45.22066399999994,21.50914399999997,3110
45.54466399999994,21.50914399999997,2958
45.54466399999994,20.86114399999998,2982
46.516663999999935,27.989143999999985,3101
46.19266399999994,27.989143999999985,3086
45.54466399999994,25.397143999999983,2804
45.22066399999994,25.397143999999983,2814
45.22066399999994,26.04514399999998,2870
47.81266399999993,24.101143999999977,2866
47.48866399999993,26.04514399999998,2956
47.81266399999993,26.04514399999998,2978
46.19266399999994,23.45314399999998,2537
45.86866399999994,23.45314399999998,2586
44.24866399999995,26.04514399999998,2864
45.22066399999994,27.989143999999985,3076
45.86866399999994,24.74914399999998,2699
46.516663999999935,25.397143999999983,2891
46.84066399999993,25.397143999999983,2774
46.19266399999994,26.04514399999998,2862
45.86866399999994,26.04514399999998,2827
43.92466399999995,23.45314399999998,3298
44.89666399999994,25.397143999999983,2925
46.19266399999994,20.86114399999998,2859
47.81266399999993,25.397143999999983,2990
44.572663999999946,22.805143999999984,3303
44.572663999999946,22.15714399999998,3445
46.516663999999935,23.45314399999998,2676
45.86866399999994,25.397143999999983,2753
44.24866399999995,27.34114399999998,3691
45.22066399999994,24.74914399999998,3016
45.54466399999994,22.805143999999984,2706
45.22066399999994,28.63714399999997,3136
44.89666399999994,28.63714399999997,3075
47.81266399999993,23.45314399999998,2923
46.19266399999994,24.74914399999998,2785
46.19266399999994,25.397143999999983,2809
43.92466399999995,24.101143999999977,3261
43.92466399999995,24.74914399999998,3274
47.81266399999993,26.69314399999997,3205
47.48866399999993,24.101143999999977,2798
46.84066399999993,26.04514399999998,3606
46.19266399999994,22.805143999999984,2930
47.48866399999993,27.34114399999998,3158
46.19266399999994,20.213143999999986,65535
45.54466399999994,26.04514399999998,2962
44.24866399999995,26.69314399999997,2880
45.86866399999994,27.989143999999985,3134
47.81266399999993,5.957143999999991,7066
