51.56399999999999,-0.4100000000000028,65535
51.887999999999984,-0.4100000000000028,65535
50.91599999999999,-1.7060000000000022,65535
51.23999999999999,-1.0580000000000025,65535
51.56399999999999,-1.0580000000000025,65535
51.23999999999999,-1.7060000000000022,65535
51.56399999999999,0.2379999999999968,65535
47.16466399999993,9.845143999999989,306
47.48866399999993,9.845143999999989,298
48.136663999999925,14.381143999999988,280
47.81266399999993,13.085143999999987,189
47.16466399999993,11.141143999999988,224
47.48866399999993,11.789143999999988,197
48.136663999999925,16.325143999999987,371
47.48866399999993,12.437143999999988,183
48.136663999999925,15.677143999999986,459
47.16466399999993,10.493143999999988,271
47.16466399999993,9.197143999999987,308
48.136663999999925,13.733143999999989,256
48.136663999999925,15.029143999999986,499
47.81266399999993,16.973143999999984,388
48.46066399999992,14.381143999999988,904
47.48866399999993,13.085143999999987,177
47.16466399999993,13.085143999999987,151
47.48866399999993,14.381143999999988,215
47.48866399999993,13.733143999999989,231
47.48866399999993,15.029143999999986,145
46.516663999999935,13.733143999999989,24
46.84066399999993,13.733143999999989,40
46.84066399999993,13.085143999999987,45
48.78466399999992,14.381143999999988,65535
47.16466399999993,15.677143999999986,325
46.516663999999935,14.381143999999988,0
46.84066399999993,14.381143999999988,13
47.16466399999993,14.381143999999988,77
46.516663999999935,15.029143999999986,38
47.81266399999993,16.325143999999987,365
47.16466399999993,15.029143999999986,121
47.81266399999993,15.677143999999986,504
47.48866399999993,15.677143999999986,349
46.516663999999935,13.085143999999987,494
46.84066399999993,12.437143999999988,59
48.136663999999925,11.789143999999988,213
47.81266399999993,12.437143999999988,189
46.84066399999993,15.677143999999986,645
46.516663999999935,15.677143999999986,113
46.84066399999993,16.325143999999987,288
47.81266399999993,14.381143999999988,337
48.78466399999992,16.973143999999984,418
48.136663999999925,16.973143999999984,382
48.46066399999992,13.733143999999989,337
47.81266399999993,13.733143999999989,314
50.08066399999991,8.54914399999999,316
48.46066399999992,9.845143999999989,260
51.05266399999991,7.25314399999999,349
51.37666399999991,7.25314399999999,362
51.37666399999991,6.60514399999999,361
48.46066399999992,16.325143999999987,378
48.46066399999992,16.973143999999984,404
48.78466399999992,16.325143999999987,410
48.46066399999992,15.677143999999986,400
48.78466399999992,15.677143999999986,573
47.48866399999993,16.325143999999987,341
47.16466399999993,16.325143999999987,332
46.19266399999994,14.381143999999988,48
45.86866399999994,15.677143999999986,108
43.60066399999995,16.325143999999987,760
45.54466399999994,14.381143999999988,140
45.54466399999994,13.733143999999989,160
48.136663999999925,13.085143999999987,222
48.46066399999992,11.141143999999988,225
48.136663999999925,11.141143999999988,222
48.46066399999992,7.90114399999999,337
49.10866399999992,8.54914399999999,293
48.78466399999992,2.0691439999999925,511
49.10866399999992,7.25314399999999,351
52.0246639999999,7.90114399999999,375
47.16466399999993,11.789143999999988,250
49.43266399999992,11.141143999999988,245
53.64466399999989,9.845143999999989,515
50.72866399999991,4.013143999999992,412
51.05266399999991,11.141143999999988,391
47.48866399999993,11.141143999999988,248
46.84066399999993,11.789143999999988,2102
46.516663999999935,11.141143999999988,2071
45.54466399999994,11.141143999999988,1965
46.19266399999994,11.141143999999988,2037
45.86866399999994,11.141143999999988,2021
44.572663999999946,11.141143999999988,1812
43.92466399999995,12.437143999999988,4445
45.54466399999994,12.437143999999988,2052
45.54466399999994,11.789143999999988,2015
48.78466399999992,15.029143999999986,612
47.81266399999993,15.029143999999986,570
47.81266399999993,11.141143999999988,229
50.40466399999991,18.917143999999983,650
52.3486639999999,20.86114399999998,821
54.616663999999886,18.269143999999983,760
54.29266399999989,18.917143999999983,789
49.10866399999992,14.381143999999988,65535
50.08066399999991,14.381143999999988,462
48.78466399999992,13.733143999999989,2216
52.6726639999999,13.085143999999987,454
52.3486639999999,13.085143999999987,453
53.96866399999989,12.437143999999988,636
54.29266399999989,12.437143999999988,619
47.48866399999993,8.54914399999999,311
47.81266399999993,17.621143999999987,438
47.48866399999993,18.917143999999983,492
47.48866399999993,20.86114399999998,841
46.84066399999993,23.45314399999998,2398
44.572663999999946,26.04514399999998,2847
47.48866399999993,21.50914399999997,875
47.81266399999993,21.50914399999997,908
48.46066399999992,22.15714399999998,761
47.48866399999993,16.973143999999984,65535
49.10866399999992,16.325143999999987,456
49.75666399999992,18.269143999999983,556
46.19266399999994,13.085143999999987,210
41.98066399999996,12.437143999999988,3045
43.60066399999995,10.493143999999988,3206
45.54466399999994,9.197143999999987,453
47.81266399999993,22.805143999999984,2813
49.75666399999992,22.805143999999984,1311
50.72866399999991,3.365143999999992,421
51.05266399999991,4.013143999999992,414
50.72866399999991,4.661143999999991,409
51.05266399999991,4.661143999999991,412
51.05266399999991,3.365143999999992,424
51.05266399999991,2.717143999999992,470
50.40466399999991,4.661143999999991,418
50.72866399999991,2.717143999999992,446
50.40466399999991,4.013143999999992,418
51.05266399999991,5.309143999999991,414
50.72866399999991,5.309143999999991,393
51.37666399999991,3.365143999999992,456
51.37666399999991,4.661143999999991,421
50.72866399999991,5.957143999999991,369
50.40466399999991,5.957143999999991,372
50.40466399999991,3.365143999999992,423
50.40466399999991,5.309143999999991,392
50.08066399999991,5.309143999999991,409
49.75666399999992,5.309143999999991,421
49.75666399999992,5.957143999999991,439
51.37666399999991,5.309143999999991,445
51.700663999999904,4.661143999999991,438
50.08066399999991,4.013143999999992,455
50.08066399999991,5.957143999999991,381
50.08066399999991,4.661143999999991,436
49.43266399999992,5.309143999999991,435
49.43266399999992,5.957143999999991,410
52.0246639999999,4.661143999999991,470
52.3486639999999,4.661143999999991,499
50.72866399999991,15.029143999999986,439
51.05266399999991,15.029143999999986,408
51.05266399999991,13.733143999999989,375
50.40466399999991,13.085143999999987,347
49.10866399999992,7.90114399999999,299
48.78466399999992,7.90114399999999,320
50.40466399999991,7.90114399999999,324
50.08066399999991,7.90114399999999,321
49.75666399999992,7.90114399999999,345
49.43266399999992,7.90114399999999,317
49.75666399999992,8.54914399999999,311
49.43266399999992,8.54914399999999,301
49.43266399999992,9.197143999999987,296
49.10866399999992,9.197143999999987,288
47.48866399999993,7.90114399999999,315
47.81266399999993,7.90114399999999,327
48.136663999999925,7.90114399999999,336
48.136663999999925,9.845143999999989,252
47.81266399999993,9.197143999999987,292
47.81266399999993,8.54914399999999,303
47.81266399999993,9.845143999999989,257
54.940663999999884,9.197143999999987,599
54.616663999999886,9.197143999999987,565
54.29266399999989,9.197143999999987,550
53.96866399999989,9.197143999999987,536
53.64466399999989,9.197143999999987,515
54.616663999999886,9.845143999999989,578
54.29266399999989,9.845143999999989,586
53.96866399999989,9.845143999999989,538
53.64466399999989,10.493143999999988,522
53.96866399999989,10.493143999999988,584
53.96866399999989,11.141143999999988,623
54.29266399999989,10.493143999999988,603
53.32066399999989,10.493143999999988,516
54.940663999999884,11.141143999999988,649
52.6726639999999,13.733143999999989,451
52.3486639999999,13.733143999999989,449
52.3486639999999,14.381143999999988,460
52.0246639999999,14.381143999999988,447
52.0246639999999,11.789143999999988,457
52.3486639999999,11.789143999999988,469
52.3486639999999,12.437143999999988,470
52.0246639999999,15.029143999999986,463
51.700663999999904,14.381143999999988,439
52.0246639999999,13.733143999999989,420
51.700663999999904,13.733143999999989,410
52.6726639999999,12.437143999999988,488
53.32066399999989,11.789143999999988,549
53.96866399999989,11.789143999999988,623
53.64466399999989,11.789143999999988,586
53.64466399999989,11.141143999999988,582
53.32066399999989,11.141143999999988,555
52.996663999999896,11.789143999999988,512
52.996663999999896,12.437143999999988,504
52.996663999999896,13.733143999999989,480
53.64466399999989,13.733143999999989,577
53.96866399999989,13.733143999999989,590
54.29266399999989,13.085143999999987,597
53.96866399999989,13.085143999999987,637
53.32066399999989,13.733143999999989,587
52.0246639999999,13.085143999999987,469
51.700663999999904,13.085143999999987,409
52.996663999999896,14.381143999999988,503
52.0246639999999,12.437143999999988,452
51.700663999999904,12.437143999999988,431
51.37666399999991,11.789143999999988,387
51.37666399999991,12.437143999999988,384
52.6726639999999,11.789143999999988,497
53.64466399999989,13.085143999999987,620
53.32066399999989,13.085143999999987,585
52.996663999999896,13.085143999999987,519
53.64466399999989,12.437143999999988,628
51.37666399999991,13.733143999999989,388
53.32066399999989,12.437143999999988,536
52.6726639999999,14.381143999999988,467
51.37666399999991,13.085143999999987,401
53.32066399999989,14.381143999999988,529
52.3486639999999,15.029143999999986,490
52.0246639999999,15.677143999999986,469
51.700663999999904,15.029143999999986,490
51.05266399999991,16.325143999999987,515
51.05266399999991,16.973143999999984,539
51.700663999999904,15.677143999999986,533
51.37666399999991,15.677143999999986,475
51.37666399999991,16.325143999999987,506
50.72866399999991,13.085143999999987,350
50.72866399999991,12.437143999999988,350
51.05266399999991,13.085143999999987,357
51.05266399999991,14.381143999999988,388
50.40466399999991,12.437143999999988,338
50.40466399999991,11.789143999999988,332
50.08066399999991,12.437143999999988,316
50.72866399999991,11.789143999999988,379
51.05266399999991,12.437143999999988,377
50.72866399999991,14.381143999999988,477
51.37666399999991,14.381143999999988,411
50.72866399999991,13.733143999999989,357
50.40466399999991,14.381143999999988,459
51.37666399999991,15.029143999999986,421
55.26466399999988,9.197143999999987,828
55.58866399999988,8.54914399999999,3562
55.91266399999988,8.54914399999999,7039
56.23666399999988,9.197143999999987,7047
56.23666399999988,10.493143999999988,7000
56.23666399999988,9.845143999999989,6987
55.91266399999988,9.845143999999989,6925
56.56066399999988,9.197143999999987,7057
56.56066399999988,8.54914399999999,7100
51.05266399999991,6.60514399999999,354
51.700663999999904,7.90114399999999,368
50.72866399999991,6.60514399999999,359
51.700663999999904,7.25314399999999,365
50.72866399999991,7.25314399999999,343
52.0246639999999,7.25314399999999,391
52.3486639999999,7.90114399999999,387
51.05266399999991,5.957143999999991,364
50.40466399999991,7.25314399999999,331
51.700663999999904,6.60514399999999,373
51.700663999999904,5.957143999999991,368
52.3486639999999,9.197143999999987,429
51.700663999999904,8.54914399999999,402
52.0246639999999,8.54914399999999,408
52.3486639999999,8.54914399999999,406
51.37666399999991,7.90114399999999,373
52.3486639999999,7.25314399999999,441
51.37666399999991,5.957143999999991,401
50.72866399999991,7.90114399999999,361
51.37666399999991,9.197143999999987,363
51.700663999999904,9.197143999999987,410
50.40466399999991,6.60514399999999,406
51.05266399999991,7.90114399999999,371
51.37666399999991,8.54914399999999,397
52.0246639999999,5.957143999999991,411
52.3486639999999,6.60514399999999,476
51.05266399999991,8.54914399999999,344
52.0246639999999,9.197143999999987,429
52.6726639999999,9.197143999999987,450
52.0246639999999,9.845143999999989,457
51.700663999999904,9.845143999999989,477
51.37666399999991,9.845143999999989,503
50.72866399999991,8.54914399999999,328
51.05266399999991,9.845143999999989,411
50.72866399999991,9.845143999999989,376
50.40466399999991,9.845143999999989,363
51.05266399999991,9.197143999999987,353
50.40466399999991,9.197143999999987,335
50.08066399999991,9.197143999999987,320
51.05266399999991,10.493143999999988,702
50.40466399999991,8.54914399999999,320
50.72866399999991,9.197143999999987,340
49.75666399999992,9.197143999999987,324
52.996663999999896,9.197143999999987,457
52.3486639999999,9.845143999999989,437
52.996663999999896,8.54914399999999,446
52.996663999999896,7.90114399999999,473
53.32066399999989,7.90114399999999,557
53.32066399999989,7.25314399999999,613
53.64466399999989,7.25314399999999,658
52.996663999999896,10.493143999999988,503
52.6726639999999,10.493143999999988,496
52.6726639999999,9.845143999999989,450
53.32066399999989,9.845143999999989,509
53.32066399999989,9.197143999999987,504
53.64466399999989,8.54914399999999,493
53.32066399999989,8.54914399999999,449
52.6726639999999,8.54914399999999,423
52.0246639999999,10.493143999999988,512
52.0246639999999,11.141143999999988,462
51.700663999999904,11.141143999999988,448
52.6726639999999,7.25314399999999,905
52.996663999999896,7.25314399999999,879
52.6726639999999,7.90114399999999,495
53.64466399999989,7.90114399999999,851
52.996663999999896,11.141143999999988,564
52.6726639999999,11.141143999999988,590
52.3486639999999,10.493143999999988,458
52.996663999999896,9.845143999999989,516
51.700663999999904,10.493143999999988,558
51.37666399999991,10.493143999999988,582
51.700663999999904,11.789143999999988,441
52.3486639999999,11.141143999999988,485
51.37666399999991,11.141143999999988,396
51.05266399999991,11.789143999999988,384
49.10866399999992,11.141143999999988,240
48.78466399999992,11.141143999999988,230
48.46066399999992,11.789143999999988,222
49.43266399999992,11.789143999999988,252
50.08066399999991,11.789143999999988,282
49.75666399999992,12.437143999999988,289
49.10866399999992,11.789143999999988,258
48.78466399999992,12.437143999999988,266
48.46066399999992,12.437143999999988,252
49.10866399999992,12.437143999999988,277
48.78466399999992,13.085143999999987,291
48.136663999999925,12.437143999999988,228
47.81266399999993,11.789143999999988,200
48.136663999999925,10.493143999999988,245
47.81266399999993,10.493143999999988,259
48.78466399999992,10.493143999999988,266
47.48866399999993,10.493143999999988,277
48.46066399999992,10.493143999999988,244
49.43266399999992,13.085143999999987,338
48.46066399999992,13.085143999999987,311
49.43266399999992,10.493143999999988,249
49.75666399999992,9.845143999999989,264
49.75666399999992,10.493143999999988,258
50.40466399999991,11.141143999999988,297
50.08066399999991,11.141143999999988,272
50.72866399999991,11.141143999999988,401
49.75666399999992,11.141143999999988,253
48.78466399999992,11.789143999999988,253
50.40466399999991,10.493143999999988,303
50.08066399999991,9.845143999999989,293
50.08066399999991,10.493143999999988,280
49.43266399999992,12.437143999999988,304
49.75666399999992,11.789143999999988,267
49.10866399999992,13.085143999999987,338
50.72866399999991,10.493143999999988,716
49.10866399999992,10.493143999999988,266
48.78466399999992,9.845143999999989,292
48.46066399999992,8.54914399999999,314
48.46066399999992,9.197143999999987,310
48.78466399999992,9.197143999999987,295
48.78466399999992,8.54914399999999,301
50.08066399999991,7.25314399999999,342
49.75666399999992,6.60514399999999,352
49.43266399999992,6.60514399999999,361
49.10866399999992,6.60514399999999,376
49.43266399999992,7.25314399999999,364
49.75666399999992,7.25314399999999,355
49.10866399999992,5.957143999999991,404
48.78466399999992,7.25314399999999,339
50.08066399999991,6.60514399999999,349
47.48866399999993,9.197143999999987,302
48.136663999999925,8.54914399999999,314
48.136663999999925,9.197143999999987,307
47.81266399999993,7.25314399999999,330
49.43266399999992,9.845143999999989,280
49.10866399999992,9.845143999999989,278
53.64466399999989,14.381143999999988,572
50.08066399999991,13.085143999999987,506
49.75666399999992,13.085143999999987,515
45.86866399999994,9.197143999999987,418
46.19266399999994,9.197143999999987,404
46.516663999999935,8.54914399999999,350
46.516663999999935,9.197143999999987,399
46.19266399999994,8.54914399999999,416
47.16466399999993,8.54914399999999,317
45.86866399999994,4.661143999999991,498
46.84066399999993,9.845143999999989,333
45.22066399999994,5.957143999999991,530
45.22066399999994,5.309143999999991,546
45.86866399999994,5.957143999999991,480
45.54466399999994,5.957143999999991,485
44.89666399999994,4.661143999999991,554
44.89666399999994,5.309143999999991,569
44.572663999999946,4.661143999999991,568
44.24866399999995,4.661143999999991,584
43.92466399999995,4.661143999999991,593
46.19266399999994,7.25314399999999,366
48.78466399999992,5.957143999999991,396
48.136663999999925,6.60514399999999,369
48.46066399999992,6.60514399999999,380
48.78466399999992,6.60514399999999,387
47.16466399999993,7.90114399999999,319
48.136663999999925,7.25314399999999,349
48.46066399999992,7.25314399999999,344
46.516663999999935,6.60514399999999,356
46.84066399999993,6.60514399999999,351
46.84066399999993,7.25314399999999,331
46.516663999999935,5.957143999999991,375
46.19266399999994,5.957143999999991,391
46.84066399999993,8.54914399999999,321
46.84066399999993,7.90114399999999,325
45.86866399999994,5.309143999999991,492
46.19266399999994,6.60514399999999,364
45.86866399999994,6.60514399999999,373
47.48866399999993,6.60514399999999,343
47.48866399999993,7.25314399999999,329
47.16466399999993,7.25314399999999,322
49.10866399999992,4.013143999999992,468
49.75666399999992,4.661143999999991,477
49.43266399999992,4.661143999999991,532
49.10866399999992,5.309143999999991,439
46.19266399999994,4.661143999999991,529
46.84066399999993,9.197143999999987,324
46.19266399999994,5.309143999999991,485
46.516663999999935,5.309143999999991,481
45.54466399999994,6.60514399999999,537
45.54466399999994,5.309143999999991,510
43.60066399999995,4.013143999999992,617
43.60066399999995,3.365143999999992,630
42.62866399999996,2.717143999999992,702
43.276663999999954,2.717143999999992,659
45.54466399999994,4.661143999999991,518
45.22066399999994,4.661143999999991,534
47.16466399999993,5.309143999999991,436
47.16466399999993,5.957143999999991,367
46.19266399999994,7.90114399999999,360
49.75666399999992,2.717143999999992,490
49.10866399999992,2.717143999999992,522
48.78466399999992,2.717143999999992,508
45.86866399999994,3.365143999999992,654
46.84066399999993,3.365143999999992,592
46.516663999999935,3.365143999999992,631
46.19266399999994,3.365143999999992,629
47.16466399999993,6.60514399999999,368
49.10866399999992,3.365143999999992,521
45.54466399999994,4.013143999999992,529
46.516663999999935,7.25314399999999,353
47.16466399999993,4.661143999999991,480
46.84066399999993,4.661143999999991,490
46.516663999999935,4.661143999999991,501
46.84066399999993,5.957143999999991,439
47.81266399999993,3.365143999999992,540
47.48866399999993,4.013143999999992,490
48.136663999999925,4.013143999999992,529
47.81266399999993,4.013143999999992,501
47.48866399999993,4.661143999999991,481
47.16466399999993,3.365143999999992,609
46.84066399999993,4.013143999999992,560
48.46066399999992,5.957143999999991,425
46.19266399999994,2.717143999999992,651
47.16466399999993,2.0691439999999925,635
46.516663999999935,2.717143999999992,676
46.84066399999993,2.717143999999992,658
46.84066399999993,2.0691439999999925,627
47.16466399999993,2.717143999999992,641
44.572663999999946,5.309143999999991,610
44.572663999999946,5.957143999999991,624
44.89666399999994,6.60514399999999,507
44.572663999999946,6.60514399999999,589
43.60066399999995,5.309143999999991,623
43.92466399999995,7.25314399999999,605
43.60066399999995,6.60514399999999,626
43.276663999999954,6.60514399999999,644
43.276663999999954,5.957143999999991,671
45.86866399999994,8.54914399999999,425
45.54466399999994,8.54914399999999,445
48.136663999999925,3.365143999999992,567
48.46066399999992,3.365143999999992,582
48.46066399999992,2.717143999999992,592
47.48866399999993,5.309143999999991,528
46.516663999999935,9.845143999999989,344
46.84066399999993,10.493143999999988,1331
47.81266399999993,5.309143999999991,555
45.22066399999994,6.60514399999999,501
46.19266399999994,4.013143999999992,565
45.86866399999994,4.013143999999992,542
45.22066399999994,4.013143999999992,582
44.89666399999994,4.013143999999992,648
46.84066399999993,5.309143999999991,450
48.136663999999925,-1.8188560000000056,618
48.136663999999925,0.1251439999999934,568
48.136663999999925,-0.5228560000000062,596
47.48866399999993,-0.5228560000000062,612
47.16466399999993,-1.8188560000000056,654
47.48866399999993,0.7731439999999932,575
47.16466399999993,0.1251439999999934,598
45.86866399999994,7.25314399999999,379
48.136663999999925,5.309143999999991,517
49.10866399999992,4.661143999999991,455
48.46066399999992,4.013143999999992,573
48.136663999999925,4.661143999999991,546
47.81266399999993,6.60514399999999,451
47.48866399999993,5.957143999999991,514
48.136663999999925,5.957143999999991,663
45.86866399999994,7.90114399999999,374
46.516663999999935,7.90114399999999,344
49.43266399999992,3.365143999999992,533
49.43266399999992,4.013143999999992,513
48.136663999999925,2.717143999999992,591
47.81266399999993,2.717143999999992,621
47.48866399999993,2.717143999999992,640
50.40466399999991,2.717143999999992,432
48.46066399999992,-4.410856000000004,755
48.46066399999992,-3.7628560000000046,719
48.46066399999992,-3.114856000000005,690
48.46066399999992,-2.4668560000000053,669
47.48866399999993,1.4211439999999929,606
47.16466399999993,1.4211439999999929,618
46.516663999999935,4.013143999999992,505
43.60066399999995,4.661143999999991,626
44.89666399999994,2.717143999999992,841
45.22066399999994,2.717143999999992,819
45.54466399999994,3.365143999999992,701
45.22066399999994,3.365143999999992,748
47.48866399999993,3.365143999999992,776
46.19266399999994,9.845143999999989,382
47.81266399999993,2.0691439999999925,604
47.48866399999993,2.0691439999999925,613
45.86866399999994,2.717143999999992,1343
44.89666399999994,5.957143999999991,577
45.22066399999994,1.4211439999999929,720
44.89666399999994,1.4211439999999929,722
44.89666399999994,2.0691439999999925,749
43.276663999999954,2.0691439999999925,698
43.60066399999995,1.4211439999999929,741
48.78466399999992,4.661143999999991,433
48.78466399999992,5.309143999999991,425
46.19266399999994,2.0691439999999925,799
45.86866399999994,1.4211439999999929,713
46.19266399999994,1.4211439999999929,679
44.572663999999946,4.013143999999992,696
44.89666399999994,3.365143999999992,741
43.92466399999995,4.013143999999992,628
44.24866399999995,4.013143999999992,649
44.89666399999994,-0.5228560000000062,674
45.54466399999994,0.1251439999999934,683
46.516663999999935,0.1251439999999934,622
44.572663999999946,2.0691439999999925,756
49.75666399999992,4.013143999999992,545
43.92466399999995,3.365143999999992,681
43.92466399999995,2.717143999999992,712
44.24866399999995,3.365143999999992,736
44.572663999999946,3.365143999999992,777
49.10866399999992,0.1251439999999934,610
49.43266399999992,0.7731439999999932,596
49.43266399999992,-1.8188560000000056,656
49.10866399999992,-1.170856000000006,640
49.10866399999992,-0.5228560000000062,631
49.10866399999992,0.7731439999999932,590
49.10866399999992,1.4211439999999929,566
47.81266399999993,-1.8188560000000056,644
47.81266399999993,-2.4668560000000053,687
47.81266399999993,-3.114856000000005,700
48.136663999999925,-3.7628560000000046,735
44.572663999999946,9.197143999999987,536
44.89666399999994,8.54914399999999,509
45.22066399999994,9.197143999999987,469
45.54466399999994,10.493143999999988,487
44.572663999999946,10.493143999999988,1798
44.89666399999994,10.493143999999988,613
44.89666399999994,9.845143999999989,565
48.46066399999992,5.309143999999991,492
50.91599999999999,-1.0580000000000025,65535
51.23999999999999,-0.4100000000000028,65535
50.91599999999999,-0.4100000000000028,65535
51.23999999999999,-2.354000000000002,65535
51.56399999999999,-2.354000000000002,65535
51.56399999999999,-3.0020000000000016,65535
50.91599999999999,-2.354000000000002,65535
53.50799999999997,-3.0020000000000016,65535
53.183999999999976,-2.354000000000002,65535
53.183999999999976,-3.0020000000000016,65535
52.85999999999998,-2.354000000000002,65535
52.21199999999998,-1.0580000000000025,65535
51.887999999999984,-1.0580000000000025,65535
52.53599999999998,-1.0580000000000025,65535
52.53599999999998,-1.7060000000000022,65535
52.85999999999998,-1.7060000000000022,65535
53.50799999999997,-2.354000000000002,65535
52.85999999999998,-1.0580000000000025,65535
52.53599999999998,1.5339999999999965,65535
52.53599999999998,0.8859999999999966,65535
52.53599999999998,0.2379999999999968,65535
52.53599999999998,-0.4100000000000028,65535
53.50799999999997,-1.7060000000000022,65535
53.183999999999976,-1.7060000000000022,65535
53.183999999999976,-1.0580000000000025,65535
52.85999999999998,-0.4100000000000028,65535
51.887999999999984,-2.354000000000002,65535
52.21199999999998,-2.354000000000002,65535
55.77599999999996,-2.354000000000002,65535
53.83199999999997,-1.0580000000000025,65535
53.83199999999997,-1.7060000000000022,65535
55.127999999999965,-1.7060000000000022,65535
54.80399999999997,-1.7060000000000022,65535
54.47999999999997,-1.7060000000000022,65535
54.15599999999997,-1.0580000000000025,65535
52.21199999999998,-1.7060000000000022,65535
53.50799999999997,-1.0580000000000025,65535
55.77599999999996,-3.0020000000000016,65535
55.45199999999996,-1.7060000000000022,65535
57.07199999999995,-2.354000000000002,65535
56.74799999999996,-3.0020000000000016,65535
56.42399999999996,-3.0020000000000016,65535
56.09999999999996,-3.650000000000001,65535
50.91599999999999,-3.0020000000000016,65535
50.91599999999999,-3.650000000000001,65535
50.59199999999999,-3.650000000000001,65535
50.59199999999999,-4.298000000000001,65535
51.23999999999999,-3.0020000000000016,65535
50.268,-4.946000000000001,65535
55.77599999999996,-3.650000000000001,65535
55.77599999999996,-4.298000000000001,65535
52.21199999999998,-0.4100000000000028,65535
52.53599999999998,-2.354000000000002,65535
51.56399999999999,-1.7060000000000022,65535
51.56399999999999,-3.650000000000001,65535
51.887999999999984,-4.298000000000001,65535
51.56399999999999,-4.298000000000001,65535
51.887999999999984,-1.7060000000000022,65535
52.21199999999998,-3.0020000000000016,65535
51.23999999999999,0.2379999999999968,65535
50.91599999999999,0.2379999999999968,65535
52.21199999999998,0.2379999999999968,65535
53.83199999999997,-3.0020000000000016,65535
54.15599999999997,-3.0020000000000016,65535
54.47999999999997,-3.0020000000000016,65535
55.127999999999965,-3.650000000000001,65535
54.80399999999997,-3.0020000000000016,65535
53.83199999999997,-2.354000000000002,65535
54.15599999999997,-0.4100000000000028,65535
54.47999999999997,-1.0580000000000025,65535
53.83199999999997,-0.4100000000000028,65535
53.183999999999976,-3.650000000000001,65535
53.183999999999976,-4.298000000000001,65535
52.85999999999998,-3.0020000000000016,65535
52.53599999999998,-3.0020000000000016,65535
51.887999999999984,-3.0020000000000016,65535
51.23999999999999,0.8859999999999966,65535
51.887999999999984,0.2379999999999968,65535
52.21199999999998,0.8859999999999966,65535
51.887999999999984,-4.946000000000001,65535
52.53599999999998,-3.650000000000001,65535
52.21199999999998,-4.298000000000001,65535
53.183999999999976,-0.4100000000000028,65535
51.23999999999999,-3.650000000000001,65535
51.887999999999984,-3.650000000000001,65535
52.21199999999998,-3.650000000000001,65535
51.56399999999999,0.8859999999999966,65535
51.887999999999984,0.8859999999999966,65535
52.85999999999998,0.8859999999999966,65535
53.50799999999997,-0.4100000000000028,65535
56.09999999999996,-4.298000000000001,65535
56.74799999999996,-4.946000000000001,65535
56.74799999999996,-4.298000000000001,65535
56.42399999999996,-4.946000000000001,65535
56.42399999999996,-4.298000000000001,65535
56.09999999999996,-4.946000000000001,65535
57.39599999999995,-4.298000000000001,65535
57.39599999999995,-3.0020000000000016,65535
57.39599999999995,-3.650000000000001,65535
56.42399999999996,-3.650000000000001,65535
57.07199999999995,-3.650000000000001,65535
57.07199999999995,-4.298000000000001,65535
56.74799999999996,-3.650000000000001,65535
59.15266399999986,27.34114399999998,65535
59.47666399999986,26.69314399999997,65535
59.47666399999986,26.04514399999998,65535
59.15266399999986,26.04514399999998,65535
59.15266399999986,24.74914399999998,65535
59.15266399999986,25.397143999999983,65535
59.47666399999986,25.397143999999983,65535
58.50466399999986,26.69314399999997,65535
58.82866399999986,26.69314399999997,65535
57.85666399999987,26.04514399999998,65535
58.180663999999865,26.04514399999998,65535
58.180663999999865,26.69314399999997,65535
58.82866399999986,26.04514399999998,65535
58.50466399999986,25.397143999999983,65535
58.82866399999986,25.397143999999983,65535
58.82866399999986,24.74914399999998,65535
58.180663999999865,27.34114399999998,65535
57.85666399999987,27.34114399999998,65535
63.68866399999983,27.34114399999998,7557
60.124663999999854,24.74914399999998,4213
60.44866399999985,24.74914399999998,4182
60.44866399999985,25.397143999999983,4194
60.77266399999985,25.397143999999983,4905
61.09666399999985,26.04514399999998,4948
60.77266399999985,26.04514399999998,4956
60.77266399999985,26.69314399999997,4975
61.09666399999985,25.397143999999983,4939
61.09666399999985,26.69314399999997,7678
61.420663999999846,26.69314399999997,7700
61.74466399999984,27.34114399999998,7724
62.06866399999984,27.34114399999998,7749
62.39266399999984,27.34114399999998,7773
62.71666399999984,27.34114399999998,7737
64.01266399999983,27.34114399999998,7513
63.36466399999984,27.34114399999998,7625
63.04066399999984,27.34114399999998,7665
63.04066399999984,27.989143999999985,7680
64.33666399999983,27.989143999999985,5264
64.33666399999983,27.34114399999998,5209
64.66066399999983,27.34114399999998,5194
64.66066399999983,26.69314399999997,5139
64.98466399999982,25.397143999999983,3559
64.66066399999983,26.04514399999998,5120
64.98466399999982,26.04514399999998,5104
66.28066399999982,25.397143999999983,3731
65.95666399999982,24.74914399999998,3472
65.63266399999982,24.74914399999998,3476
65.63266399999982,25.397143999999983,3518
65.30866399999982,25.397143999999983,3539
66.60466399999981,25.397143999999983,3765
64.01266399999983,24.74914399999998,3696
64.01266399999983,24.101143999999977,3731
64.01266399999983,23.45314399999998,3755
63.68866399999983,23.45314399999998,3767
63.68866399999983,22.805143999999984,3792
63.68866399999983,26.04514399999998,5824
63.68866399999983,25.397143999999983,5790
63.68866399999983,26.69314399999997,7524
60.44866399999985,26.69314399999997,8309
64.01266399999983,27.989143999999985,7943
62.71666399999984,22.805143999999984,3914
62.39266399999984,22.805143999999984,3946
62.06866399999984,22.805143999999984,3975
62.06866399999984,23.45314399999998,3991
61.74466399999984,23.45314399999998,4003
61.420663999999846,23.45314399999998,4051
61.09666399999985,23.45314399999998,4092
61.09666399999985,24.101143999999977,4099
61.09666399999985,24.74914399999998,4133
60.77266399999985,24.74914399999998,4149
63.04066399999984,21.50914399999997,65535
63.04066399999984,22.15714399999998,65535
63.04066399999984,22.805143999999984,3878
62.39266399999984,26.04514399999998,7921
62.06866399999984,25.397143999999983,7970
61.74466399999984,25.397143999999983,8038
61.74466399999984,24.74914399999998,8075
61.74466399999984,24.101143999999977,4280
61.420663999999846,24.101143999999977,4235
62.39266399999984,26.69314399999997,7892
64.66066399999983,25.397143999999983,3628
64.66066399999983,24.74914399999998,3646
64.33666399999983,24.74914399999998,3657
63.36466399999984,22.805143999999984,3817
67.25266399999981,24.101143999999977,7345
66.92866399999981,24.101143999999977,7309
66.60466399999981,23.45314399999998,7278
66.28066399999982,23.45314399999998,7260
66.28066399999982,24.101143999999977,7242
65.95666399999982,24.101143999999977,2844
60.124663999999854,24.101143999999977,5727
60.124663999999854,23.45314399999998,6585
60.44866399999985,22.805143999999984,6644
60.77266399999985,27.34114399999998,5027
61.09666399999985,27.989143999999985,5057
61.09666399999985,28.63714399999997,5095
61.420663999999846,29.28514399999997,5130
61.74466399999984,29.933143999999977,5167
62.06866399999984,29.933143999999977,5193
62.39266399999984,29.933143999999977,5209
62.71666399999984,29.933143999999977,5233
61.420663999999846,22.805143999999984,6338
61.420663999999846,22.15714399999998,7046
61.09666399999985,22.15714399999998,6384
61.420663999999846,21.50914399999997,7179
62.39266399999984,27.989143999999985,65535
62.06866399999984,27.989143999999985,65535
61.420663999999846,27.34114399999998,65535
63.04066399999984,29.933143999999977,7172
63.68866399999983,29.28514399999997,8955
63.36466399999984,29.28514399999997,8935
63.36466399999984,29.933143999999977,8894
60.44866399999985,27.34114399999998,65535
61.74466399999984,29.28514399999997,65535
62.39266399999984,30.58114399999998,65535
62.71666399999984,31.229143999999977,65535
62.71666399999984,29.28514399999997,65535
63.04066399999984,28.63714399999997,65535
66.60466399999981,26.04514399999998,6586
66.60466399999981,26.69314399999997,6622
66.60466399999981,27.34114399999998,6645
62.71666399999984,26.04514399999998,7806
62.71666399999984,25.397143999999983,7775
63.04066399999984,25.397143999999983,7595
63.36466399999984,25.397143999999983,6232
62.71666399999984,23.45314399999998,7800
62.39266399999984,24.101143999999977,65535
62.71666399999984,22.15714399999998,65535
62.39266399999984,22.15714399999998,65535
62.39266399999984,21.50914399999997,65535
61.09666399999985,21.50914399999997,6414
60.77266399999985,22.805143999999984,4452
60.44866399999985,22.15714399999998,4482
60.77266399999985,23.45314399999998,4439
60.77266399999985,21.50914399999997,5553
60.77266399999985,22.15714399999998,5506
60.124663999999854,22.805143999999984,8599
60.44866399999985,24.101143999999977,5712
62.06866399999984,24.74914399999998,65535
50.72866399999991,16.325143999999987,534
50.40466399999991,16.973143999999984,570
50.72866399999991,16.973143999999984,548
50.40466399999991,16.325143999999987,568
50.08066399999991,16.973143999999984,562
50.08066399999991,16.325143999999987,513
51.700663999999904,16.973143999999984,541
51.37666399999991,16.973143999999984,519
51.05266399999991,15.677143999999986,502
50.72866399999991,15.677143999999986,518
51.05266399999991,17.621143999999987,553
51.37666399999991,17.621143999999987,551
51.700663999999904,17.621143999999987,581
51.700663999999904,16.325143999999987,547
52.0246639999999,22.15714399999998,898
52.0246639999999,21.50914399999997,837
52.3486639999999,21.50914399999997,844
52.0246639999999,20.86114399999998,828
51.700663999999904,20.86114399999998,872
51.37666399999991,21.50914399999997,911
51.37666399999991,20.86114399999998,906
51.05266399999991,20.86114399999998,910
52.6726639999999,23.45314399999998,1427
52.3486639999999,22.805143999999984,1367
52.3486639999999,20.213143999999986,844
52.0246639999999,20.213143999999986,855
52.3486639999999,19.565143999999982,652
52.6726639999999,19.565143999999982,751
51.700663999999904,21.50914399999997,896
51.700663999999904,22.15714399999998,930
52.6726639999999,21.50914399999997,866
52.996663999999896,21.50914399999997,909
52.6726639999999,20.86114399999998,867
52.6726639999999,22.15714399999998,899
52.6726639999999,20.213143999999986,1211
52.996663999999896,19.565143999999982,848
52.996663999999896,20.86114399999998,900
52.996663999999896,20.213143999999986,909
53.32066399999989,20.213143999999986,933
51.37666399999991,20.213143999999986,1263
52.3486639999999,16.973143999999984,550
52.0246639999999,16.973143999999984,559
52.0246639999999,16.325143999999987,572
52.0246639999999,17.621143999999987,592
52.6726639999999,16.973143999999984,608
52.996663999999896,16.973143999999984,621
52.3486639999999,16.325143999999987,526
52.3486639999999,15.677143999999986,505
51.700663999999904,18.269143999999983,632
52.6726639999999,17.621143999999987,587
52.3486639999999,17.621143999999987,573
52.6726639999999,18.269143999999983,619
52.3486639999999,18.269143999999983,593
52.3486639999999,18.917143999999983,613
52.996663999999896,17.621143999999987,664
51.700663999999904,19.565143999999982,1310
51.700663999999904,18.917143999999983,1386
51.37666399999991,18.269143999999983,627
58.82866399999986,9.197143999999987,1808
58.180663999999865,7.90114399999999,1901
58.50466399999986,8.54914399999999,1852
63.36466399999984,10.493143999999988,2023
63.36466399999984,11.141143999999988,2030
63.36466399999984,11.789143999999988,2065
63.68866399999983,11.789143999999988,2093
64.33666399999983,12.437143999999988,2494
64.66066399999983,12.437143999999988,2989
65.63266399999982,13.085143999999987,2646
65.95666399999982,13.085143999999987,2681
66.28066399999982,14.381143999999988,2751
65.95666399999982,13.733143999999989,2820
66.28066399999982,13.733143999999989,2729
65.30866399999982,13.085143999999987,2947
64.98466399999982,13.085143999999987,2581
64.01266399999983,11.789143999999988,2124
63.68866399999983,11.141143999999988,2061
59.800663999999855,10.493143999999988,1604
59.800663999999855,11.141143999999988,1587
60.124663999999854,11.141143999999988,1602
60.44866399999985,11.141143999999988,1615
60.124663999999854,11.789143999999988,1628
60.77266399999985,7.25314399999999,1864
60.77266399999985,6.60514399999999,1910
59.15266399999986,9.197143999999987,1690
59.47666399999986,9.197143999999987,1711
59.800663999999855,9.845143999999989,1606
59.47666399999986,11.141143999999988,1551
61.09666399999985,10.493143999999988,1725
60.77266399999985,10.493143999999988,1695
60.77266399999985,11.141143999999988,1650
62.06866399999984,9.197143999999987,2050
61.74466399999984,9.845143999999989,1996
61.420663999999846,9.845143999999989,1973
59.15266399999986,9.845143999999989,1670
59.47666399999986,9.845143999999989,1646
58.82866399999986,5.957143999999991,2085
58.180663999999865,7.25314399999999,1957
58.50466399999986,7.25314399999999,1990
58.50466399999986,6.60514399999999,1995
58.50466399999986,5.957143999999991,2053
58.82866399999986,8.54914399999999,1838
60.44866399999985,7.25314399999999,1838
60.44866399999985,7.90114399999999,1799
60.124663999999854,10.493143999999988,1636
60.44866399999985,9.197143999999987,1748
60.77266399999985,9.197143999999987,1760
60.77266399999985,8.54914399999999,1779
60.124663999999854,9.845143999999989,2015
60.44866399999985,10.493143999999988,1681
63.04066399999984,10.493143999999988,1974
62.06866399999984,9.845143999999989,2075
62.39266399999984,9.845143999999989,2083
62.71666399999984,9.845143999999989,2107
59.47666399999986,14.381143999999988,1600
59.47666399999986,13.733143999999989,1541
59.47666399999986,13.085143999999987,1517
59.800663999999855,12.437143999999988,1586
59.15266399999986,11.141143999999988,1515
59.15266399999986,14.381143999999988,1614
58.82866399999986,11.789143999999988,1495
58.50466399999986,12.437143999999988,1425
58.180663999999865,12.437143999999988,1418
57.85666399999987,11.789143999999988,1369
62.71666399999984,7.90114399999999,2136
62.39266399999984,7.90114399999999,2093
62.06866399999984,8.54914399999999,2068
60.44866399999985,5.309143999999991,1984
60.44866399999985,5.957143999999991,1951
60.77266399999985,5.957143999999991,1940
62.39266399999984,11.141143999999988,1871
62.06866399999984,10.493143999999988,1826
61.74466399999984,11.141143999999988,1799
61.420663999999846,11.141143999999988,1753
61.09666399999985,11.141143999999988,1736
60.77266399999985,11.789143999999988,1713
63.04066399999984,11.141143999999988,1952
62.71666399999984,11.141143999999988,1895
62.39266399999984,10.493143999999988,1853
67.25266399999981,15.677143999999986,2870
67.25266399999981,15.029143999999986,2908
67.25266399999981,14.381143999999988,2936
66.92866399999981,15.029143999999986,2859
66.60466399999981,15.677143999999986,2837
64.01266399999983,11.141143999999988,2108
66.60466399999981,15.029143999999986,2900
54.29266399999989,18.269143999999983,775
54.616663999999886,17.621143999999987,720
53.96866399999989,18.269143999999983,771
43.92466399999995,1.4211439999999929,769
44.24866399999995,0.7731439999999932,744
44.572663999999946,0.1251439999999934,723
46.84066399999993,1.4211439999999929,642
44.572663999999946,1.4211439999999929,853
44.24866399999995,1.4211439999999929,1362
45.54466399999994,1.4211439999999929,752
46.516663999999935,1.4211439999999929,687
42.30466399999996,2.717143999999992,807
44.24866399999995,2.717143999999992,843
44.572663999999946,2.717143999999992,818
43.92466399999995,2.0691439999999925,840
42.30466399999996,2.0691439999999925,810
42.62866399999996,2.0691439999999925,723
42.62866399999996,1.4211439999999929,761
42.95266399999996,1.4211439999999929,743
43.276663999999954,1.4211439999999929,734
46.516663999999935,-1.170856000000006,685
46.19266399999994,-1.170856000000006,687
45.86866399999994,-0.5228560000000062,688
45.54466399999994,-0.5228560000000062,698
48.46066399999992,1.4211439999999929,535
41.332663999999966,2.0691439999999925,1714
41.98066399999996,2.717143999999992,1673
48.46066399999992,-1.8188560000000056,640
47.81266399999993,0.7731439999999932,553
46.84066399999993,0.7731439999999932,599
44.572663999999946,-1.170856000000006,687
43.60066399999995,-1.170856000000006,808
43.276663999999954,-1.8188560000000056,855
43.276663999999954,0.1251439999999934,886
42.95266399999996,0.1251439999999934,863
43.276663999999954,-0.5228560000000062,865
43.60066399999995,-0.5228560000000062,842
47.81266399999993,-3.7628560000000046,787
47.48866399999993,-2.4668560000000053,674
47.81266399999993,-0.5228560000000062,604
46.516663999999935,-1.8188560000000056,796
48.136663999999925,-1.170856000000006,610
47.48866399999993,-1.170856000000006,657
45.22066399999994,8.54914399999999,486
45.22066399999994,7.90114399999999,474
46.19266399999994,-0.5228560000000062,656
46.516663999999935,-0.5228560000000062,637
48.78466399999992,-3.114856000000005,721
50.72866399999991,2.0691439999999925,513
50.40466399999991,2.0691439999999925,498
40.36066399999997,-3.7628560000000046,1905
41.65666399999997,-1.170856000000006,1822
41.332663999999966,1.4211439999999929,1760
43.276663999999954,13.733143999999989,4390
42.95266399999996,13.733143999999989,4412
41.65666399999997,15.029143999999986,4496
40.68466399999997,17.621143999999987,4658
43.60066399999995,13.085143999999987,4383
41.65666399999997,12.437143999999988,3049
41.65666399999997,13.085143999999987,3068
41.98066399999996,13.085143999999987,3118
41.65666399999997,13.733143999999989,3120
41.332663999999966,13.733143999999989,3112
41.332663999999966,14.381143999999988,3269
41.00866399999997,14.381143999999988,3175
41.332663999999966,13.085143999999987,3094
41.00866399999997,15.029143999999986,3375
41.98066399999996,13.733143999999989,3317
42.30466399999996,14.381143999999988,3456
42.30466399999996,12.437143999999988,3057
42.62866399999996,12.437143999999988,3236
42.95266399999996,12.437143999999988,3521
42.30466399999996,11.789143999999988,3066
42.95266399999996,11.789143999999988,3276
42.62866399999996,11.789143999999988,3267
43.276663999999954,11.789143999999988,3330
42.95266399999996,13.085143999999987,4284
42.30466399999996,13.085143999999987,3343
43.276663999999954,13.085143999999987,4332
43.276663999999954,12.437143999999988,4339
42.62866399999996,11.141143999999988,3112
42.95266399999996,11.141143999999988,3155
42.95266399999996,10.493143999999988,3173
44.572663999999946,8.54914399999999,530
44.89666399999994,7.90114399999999,479
44.89666399999994,9.197143999999987,552
44.24866399999995,7.90114399999999,519
44.572663999999946,7.90114399999999,500
43.92466399999995,7.90114399999999,578
44.24866399999995,7.25314399999999,516
44.89666399999994,7.25314399999999,498
45.22066399999994,7.25314399999999,478
45.54466399999994,7.90114399999999,458
44.572663999999946,7.25314399999999,562
52.996663999999896,22.805143999999984,1443
52.996663999999896,23.45314399999998,1462
51.37666399999991,22.15714399999998,1211
51.37666399999991,22.805143999999984,1265
50.08066399999991,20.213143999999986,731
50.72866399999991,20.213143999999986,802
50.40466399999991,20.213143999999986,773
50.08066399999991,20.86114399999998,1265
50.08066399999991,21.50914399999997,1237
50.08066399999991,22.15714399999998,1106
50.08066399999991,22.805143999999984,1286
53.96866399999989,22.805143999999984,1601
53.64466399999989,23.45314399999998,1555
53.32066399999989,23.45314399999998,1502
50.40466399999991,19.565143999999982,714
50.08066399999991,18.917143999999983,720
50.08066399999991,18.269143999999983,668
52.0246639999999,22.805143999999984,1306
52.0246639999999,23.45314399999998,1344
51.37666399999991,19.565143999999982,1299
51.05266399999991,19.565143999999982,901
50.72866399999991,18.917143999999983,662
50.72866399999991,19.565143999999982,892
49.75666399999992,18.917143999999983,680
50.40466399999991,18.269143999999983,630
53.64466399999989,19.565143999999982,1288
53.96866399999989,18.917143999999983,813
53.64466399999989,18.917143999999983,823
53.64466399999989,20.213143999999986,1250
52.996663999999896,18.917143999999983,721
52.996663999999896,18.269143999999983,685
53.32066399999989,18.917143999999983,856
50.72866399999991,17.621143999999987,567
50.72866399999991,18.269143999999983,615
52.6726639999999,16.325143999999987,605
52.996663999999896,16.325143999999987,590
52.996663999999896,15.677143999999986,564
53.32066399999989,15.677143999999986,564
53.32066399999989,15.029143999999986,535
53.64466399999989,15.029143999999986,580
53.96866399999989,15.029143999999986,602
52.6726639999999,18.917143999999983,793
53.32066399999989,16.325143999999987,697
52.6726639999999,15.029143999999986,490
51.05266399999991,22.805143999999984,1296
51.05266399999991,23.45314399999998,1323
50.72866399999991,22.15714399999998,1261
50.40466399999991,22.15714399999998,1250
51.05266399999991,22.15714399999998,1262
54.616663999999886,16.973143999999984,666
54.29266399999989,16.325143999999987,615
53.96866399999989,15.677143999999986,580
50.72866399999991,21.50914399999997,1291
50.40466399999991,21.50914399999997,1323
50.40466399999991,17.621143999999987,583
53.32066399999989,22.805143999999984,1594
53.64466399999989,22.15714399999998,1618
54.29266399999989,16.973143999999984,642
50.72866399999991,20.86114399999998,842
51.700663999999904,22.805143999999984,1480
51.05266399999991,21.50914399999997,1282
50.08066399999991,19.565143999999982,717
52.0246639999999,18.917143999999983,8488
52.0246639999999,19.565143999999982,8481
53.64466399999989,18.269143999999983,765
51.700663999999904,20.213143999999986,1286
53.32066399999989,19.565143999999982,1279
50.72866399999991,23.45314399999998,1675
50.72866399999991,22.805143999999984,1644
49.43266399999992,20.213143999999986,743
49.75666399999992,21.50914399999997,1259
49.75666399999992,22.15714399999998,1302
49.43266399999992,22.15714399999998,862
51.05266399999991,18.917143999999983,705
51.05266399999991,18.269143999999983,617
53.32066399999989,16.973143999999984,638
53.64466399999989,16.973143999999984,660
49.75666399999992,20.86114399999998,1252
50.40466399999991,22.805143999999984,8570
53.64466399999989,16.325143999999987,633
53.96866399999989,20.86114399999998,1506
54.29266399999989,20.86114399999998,1552
53.96866399999989,21.50914399999997,1569
53.64466399999989,15.677143999999986,544
53.96866399999989,20.213143999999986,1270
53.96866399999989,19.565143999999982,908
54.29266399999989,19.565143999999982,922
53.96866399999989,16.325143999999987,604
53.64466399999989,17.621143999999987,673
53.96866399999989,22.15714399999998,1636
53.64466399999989,21.50914399999997,1574
53.64466399999989,20.86114399999998,1352
52.6726639999999,15.677143999999986,498
51.05266399999991,20.213143999999986,1249
54.940663999999884,24.101143999999977,3681
54.616663999999886,23.45314399999998,3625
54.29266399999989,23.45314399999998,3488
53.64466399999989,22.805143999999984,1643
53.96866399999989,16.973143999999984,694
50.40466399999991,20.86114399999998,1306
53.32066399999989,18.269143999999983,888
49.75666399999992,19.565143999999982,694
50.40466399999991,23.45314399999998,1996
49.75666399999992,20.213143999999986,721
49.43266399999992,19.565143999999982,645
49.43266399999992,20.86114399999998,896
53.96866399999989,17.621143999999987,1323
42.30466399999996,-1.8188560000000056,8799
41.98066399999996,-1.8188560000000056,8782
41.65666399999997,0.7731439999999932,8786
42.62866399999996,-1.8188560000000056,8914
42.95266399999996,-1.8188560000000056,8943
42.62866399999996,-3.114856000000005,9037
42.95266399999996,-2.4668560000000053,9015
42.62866399999996,-7.650856000000003,9379
42.30466399999996,-7.650856000000003,9439
42.30466399999996,-8.946856000000002,9575
42.30466399999996,-8.298856000000002,9549
41.98066399999996,-8.298856000000002,9538
42.30466399999996,-7.002856000000003,9321
42.62866399999996,-6.354856000000003,9263
42.30466399999996,-6.354856000000003,9218
42.62866399999996,-5.706856000000004,8718
41.98066399999996,-4.410856000000004,8672
42.30466399999996,-3.7628560000000046,9063
40.03666399999997,-0.5228560000000062,8766
39.38866399999998,-0.5228560000000062,8814
41.00866399999997,0.7731439999999932,8914
40.68466399999997,0.7731439999999932,8946
40.36066399999997,0.1251439999999934,9024
39.712663999999975,-0.5228560000000062,8923
38.41666399999998,-0.5228560000000062,8935
39.06466399999998,-0.5228560000000062,9057
38.74066399999998,-1.170856000000006,8943
41.332663999999966,0.7731439999999932,8974
41.65666399999997,2.717143999999992,8574
41.65666399999997,2.0691439999999925,8597
41.332663999999966,0.1251439999999934,8932
41.332663999999966,-0.5228560000000062,8876
41.65666399999997,-4.410856000000004,8646
40.03666399999997,-2.4668560000000053,8884
41.00866399999997,-4.410856000000004,8767
43.276663999999954,-5.706856000000004,8848
39.38866399999998,-1.170856000000006,8909
38.09266399999999,-1.170856000000006,9322
38.74066399999998,-0.5228560000000062,9085
37.76866399999999,-1.170856000000006,9387
39.06466399999998,-1.8188560000000056,8907
39.38866399999998,-3.114856000000005,8807
39.38866399999998,-2.4668560000000053,8863
39.06466399999998,-2.4668560000000053,8890
39.06466399999998,-3.114856000000005,8811
39.06466399999998,-3.7628560000000046,8785
38.74066399999998,-3.7628560000000046,8864
40.03666399999997,-3.7628560000000046,8763
40.03666399999997,-3.114856000000005,8963
40.03666399999997,-1.8188560000000056,9044
39.712663999999975,-1.8188560000000056,9009
39.712663999999975,-1.170856000000006,8945
40.36066399999997,-1.170856000000006,8964
40.68466399999997,-1.170856000000006,8942
41.00866399999997,-1.170856000000006,8930
41.332663999999966,-1.170856000000006,8770
43.276663999999954,-8.298856000000002,9539
42.95266399999996,-8.298856000000002,9507
41.65666399999997,-5.706856000000004,65535
41.98066399999996,-7.002856000000003,65535
41.98066399999996,-6.354856000000003,65535
41.332663999999966,-5.058856000000004,8885
43.276663999999954,-3.7628560000000046,9320
42.95266399999996,-4.410856000000004,9254
42.62866399999996,-4.410856000000004,9244
42.30466399999996,-4.410856000000004,9203
41.00866399999997,-5.706856000000004,8823
41.332663999999966,-1.8188560000000056,8716
40.68466399999997,-3.114856000000005,8670
41.00866399999997,-3.114856000000005,8721
41.00866399999997,-2.4668560000000053,8744
41.332663999999966,-2.4668560000000053,8797
40.68466399999997,-4.410856000000004,8707
40.36066399999997,-4.410856000000004,8791
40.68466399999997,-3.7628560000000046,8699
40.36066399999997,-3.114856000000005,8677
41.65666399999997,-2.4668560000000053,8814
38.09266399999999,-3.7628560000000046,8911
38.74066399999998,-3.114856000000005,8855
37.76866399999999,-3.7628560000000046,8968
39.712663999999975,-3.114856000000005,8799
38.41666399999998,-3.7628560000000046,8876
40.03666399999997,-4.410856000000004,65535
40.03666399999997,-5.058856000000004,65535
39.38866399999998,-6.354856000000003,65535
39.38866399999998,-7.002856000000003,65535
42.95266399999996,-3.114856000000005,9448
41.98066399999996,-1.170856000000006,8811
42.30466399999996,-2.4668560000000053,8852
41.65666399999997,-0.5228560000000062,8909
41.98066399999996,-0.5228560000000062,8746
41.65666399999997,0.1251439999999934,8773
41.98066399999996,0.1251439999999934,8795
37.76866399999999,-5.058856000000004,8847
36.79666399999999,-4.410856000000004,8906
38.74066399999998,-4.410856000000004,8803
37.12066399999999,-4.410856000000004,8880
37.44466399999999,-5.058856000000004,9404
37.44466399999999,-7.002856000000003,65535
37.44466399999999,-6.354856000000003,65535
37.44466399999999,-5.706856000000004,9080
39.712663999999975,-3.7628560000000046,8873
42.62866399999996,-8.946856000000002,65535
42.30466399999996,-5.706856000000004,9225
42.30466399999996,-5.058856000000004,9310
42.95266399999996,-5.706856000000004,8750
41.00866399999997,-5.058856000000004,8791
40.68466399999997,-5.058856000000004,8765
41.65666399999997,-5.058856000000004,65535
41.65666399999997,-6.354856000000003,65535
36.79666399999999,-6.354856000000003,65535
37.12066399999999,-5.706856000000004,9248
37.76866399999999,-5.706856000000004,9047
38.09266399999999,-4.410856000000004,9182
37.12066399999999,-5.058856000000004,9202
36.79666399999999,-5.058856000000004,9160
37.76866399999999,-4.410856000000004,65535
37.76866399999999,-7.002856000000003,65535
38.41666399999998,-6.354856000000003,65535
38.09266399999999,-6.354856000000003,65535
48.78466399999992,1.4211439999999929,589
56.23666399999988,8.54914399999999,7090
55.58866399999988,9.197143999999987,6895
55.91266399999988,9.197143999999987,7036
55.26466399999988,10.493143999999988,1074
55.91266399999988,12.437143999999988,1209
55.58866399999988,11.789143999999988,6735
55.58866399999988,11.141143999999988,6776
55.26466399999988,11.789143999999988,6768
55.58866399999988,10.493143999999988,6891
55.58866399999988,13.085143999999987,1166
56.88466399999987,9.845143999999989,7042
57.20866399999987,9.845143999999989,7077
56.56066399999988,9.845143999999989,7014
56.88466399999987,8.54914399999999,7129
54.940663999999884,9.845143999999989,8236
54.940663999999884,11.789143999999988,6992
55.91266399999988,13.085143999999987,1224
56.23666399999988,13.733143999999989,1268
55.91266399999988,13.733143999999989,1271
56.23666399999988,14.381143999999988,1291
56.23666399999988,15.029143999999986,1332
56.23666399999988,15.677143999999986,1387
56.56066399999988,14.381143999999988,1348
56.88466399999987,14.381143999999988,1318
56.23666399999988,13.085143999999987,1216
56.56066399999988,13.085143999999987,1296
56.88466399999987,12.437143999999988,1333
57.20866399999987,12.437143999999988,1349
57.53266399999987,12.437143999999988,1364
56.88466399999987,15.029143999999986,1344
56.56066399999988,15.677143999999986,1404
56.88466399999987,15.677143999999986,1423
56.88466399999987,16.325143999999987,1438
55.91266399999988,11.789143999999988,7061
57.20866399999987,10.493143999999988,7264
49.43266399999992,1.4211439999999929,607
49.75666399999992,0.7731439999999932,619
49.75666399999992,2.0691439999999925,539
50.08066399999991,2.717143999999992,521
49.75666399999992,1.4211439999999929,604
47.81266399999993,1.4211439999999929,615
48.136663999999925,2.0691439999999925,624
48.46066399999992,2.0691439999999925,583
48.136663999999925,1.4211439999999929,551
48.78466399999992,0.1251439999999934,581
48.46066399999992,0.1251439999999934,575
47.81266399999993,0.1251439999999934,604
46.84066399999993,-0.5228560000000062,645
47.16466399999993,0.7731439999999932,590
46.84066399999993,0.1251439999999934,651
46.84066399999993,-1.170856000000006,658
50.08066399999991,1.4211439999999929,577
50.08066399999991,2.0691439999999925,560
49.43266399999992,2.717143999999992,527
49.75666399999992,3.365143999999992,503
50.08066399999991,3.365143999999992,537
49.10866399999992,2.0691439999999925,552
49.43266399999992,2.0691439999999925,547
48.78466399999992,0.7731439999999932,634
48.78466399999992,-0.5228560000000062,691
48.78466399999992,-1.170856000000006,664
48.136663999999925,0.7731439999999932,590
48.46066399999992,0.7731439999999932,600
43.92466399999995,5.957143999999991,665
44.24866399999995,5.957143999999991,688
43.92466399999995,5.309143999999991,612
42.95266399999996,2.717143999999992,676
45.54466399999994,2.0691439999999925,734
45.22066399999994,2.0691439999999925,1336
42.95266399999996,2.0691439999999925,1410
42.95266399999996,0.7731439999999932,813
43.276663999999954,0.7731439999999932,789
46.19266399999994,0.7731439999999932,689
46.516663999999935,0.7731439999999932,670
45.86866399999994,0.1251439999999934,705
46.19266399999994,0.1251439999999934,698
47.81266399999993,-1.170856000000006,651
48.136663999999925,-2.4668560000000053,658
47.48866399999993,-1.8188560000000056,654
47.16466399999993,-1.170856000000006,644
47.16466399999993,-0.5228560000000062,628
46.84066399999993,-1.8188560000000056,736
45.22066399999994,-0.5228560000000062,686
44.89666399999994,0.1251439999999934,684
45.22066399999994,0.7731439999999932,702
45.54466399999994,0.7731439999999932,761
45.86866399999994,0.7731439999999932,1412
45.22066399999994,0.1251439999999934,695
44.89666399999994,0.7731439999999932,701
43.92466399999995,-0.5228560000000062,779
43.92466399999995,-1.170856000000006,768
44.24866399999995,-1.170856000000006,747
45.22066399999994,-1.170856000000006,738
44.572663999999946,-0.5228560000000062,701
44.24866399999995,0.1251439999999934,755
44.572663999999946,0.7731439999999932,1380
43.276663999999954,-1.170856000000006,1370
42.95266399999996,-0.5228560000000062,1572
44.24866399999995,2.0691439999999925,1359
43.60066399999995,0.7731439999999932,794
43.60066399999995,2.0691439999999925,800
52.6726639999999,4.661143999999991,7081
52.6726639999999,5.309143999999991,7104
51.700663999999904,5.309143999999991,7049
52.0246639999999,5.309143999999991,7061
52.3486639999999,5.309143999999991,7077
51.37666399999991,4.013143999999992,7057
52.3486639999999,5.957143999999991,7071
52.0246639999999,6.60514399999999,7101
52.6726639999999,5.957143999999991,7088
52.996663999999896,5.957143999999991,7101
53.32066399999989,5.957143999999991,7095
52.996663999999896,6.60514399999999,7077
53.32066399999989,6.60514399999999,7069
52.6726639999999,6.60514399999999,7097
52.996663999999896,5.309143999999991,7116
59.15266399999986,24.101143999999977,65535
56.88466399999987,24.101143999999977,65535
56.88466399999987,23.45314399999998,65535
56.88466399999987,22.805143999999984,65535
57.20866399999987,24.74914399999998,65535
56.88466399999987,24.74914399999998,65535
56.56066399999988,24.74914399999998,65535
56.56066399999988,25.397143999999983,65535
56.56066399999988,24.101143999999977,65535
56.56066399999988,23.45314399999998,65535
56.56066399999988,26.04514399999998,65535
56.88466399999987,26.04514399999998,65535
57.20866399999987,25.397143999999983,65535
57.53266399999987,25.397143999999983,65535
56.23666399999988,26.04514399999998,65535
56.23666399999988,26.69314399999997,65535
55.91266399999988,26.69314399999997,65535
56.56066399999988,26.69314399999997,65535
56.56066399999988,27.34114399999998,65535
56.56066399999988,27.989143999999985,65535
56.23666399999988,27.989143999999985,65535
55.91266399999988,27.34114399999998,65535
56.56066399999988,22.805143999999984,65535
56.56066399999988,22.15714399999998,65535
56.56066399999988,21.50914399999997,65535
57.20866399999987,26.69314399999997,65535
39.06466399999998,-8.946856000000002,65535
38.41666399999998,-8.298856000000002,65535
45.86866399999994,11.789143999999988,2068
46.19266399999994,11.789143999999988,2055
46.19266399999994,10.493143999999988,2095
45.22066399999994,18.269143999999983,333
45.22066399999994,18.917143999999983,374
45.54466399999994,16.973143999999984,205
45.22066399999994,17.621143999999987,269
45.86866399999994,16.325143999999987,141
45.54466399999994,18.917143999999983,461
45.54466399999994,16.325143999999987,157
45.54466399999994,18.269143999999983,440
44.89666399999994,18.917143999999983,456
46.19266399999994,16.973143999999984,171
46.19266399999994,16.325143999999987,149
45.86866399999994,16.973143999999984,238
45.86866399999994,17.621143999999987,281
46.19266399999994,15.677143999999986,102
46.516663999999935,16.325143999999987,129
45.54466399999994,15.677143999999986,127
45.22066399999994,15.029143999999986,211
45.54466399999994,15.029143999999986,201
45.22066399999994,15.677143999999986,188
44.572663999999946,15.677143999999986,619
44.24866399999995,15.677143999999986,640
43.92466399999995,16.325143999999987,704
44.89666399999994,15.677143999999986,583
45.54466399999994,17.621143999999987,331
45.22066399999994,16.325143999999987,273
46.516663999999935,16.973143999999984,190
45.86866399999994,18.269143999999983,474
43.92466399999995,15.677143999999986,806
45.22066399999994,13.733143999999989,216
47.48866399999993,19.565143999999982,502
47.16466399999993,18.917143999999983,498
47.81266399999993,18.917143999999983,481
45.54466399999994,9.845143999999989,464
45.22066399999994,9.845143999999989,473
45.22066399999994,10.493143999999988,507
45.86866399999994,9.845143999999989,459
45.86866399999994,10.493143999999988,2838
48.78466399999992,21.50914399999997,676
49.10866399999992,20.213143999999986,761
49.10866399999992,18.917143999999983,606
48.46066399999992,17.621143999999987,407
49.43266399999992,17.621143999999987,570
49.10866399999992,17.621143999999987,1312
48.136663999999925,18.269143999999983,438
49.10866399999992,18.269143999999983,473
49.43266399999992,18.269143999999983,531
49.43266399999992,16.973143999999984,587
49.75666399999992,16.973143999999984,561
49.75666399999992,16.325143999999987,539
50.08066399999991,15.677143999999986,491
50.08066399999991,15.029143999999986,461
49.43266399999992,18.917143999999983,595
47.81266399999993,20.86114399999998,595
48.136663999999925,20.86114399999998,626
48.46066399999992,20.86114399999998,668
48.46066399999992,21.50914399999997,672
49.10866399999992,19.565143999999982,627
48.136663999999925,17.621143999999987,386
48.78466399999992,22.15714399999998,710
48.78466399999992,20.86114399999998,865
49.10866399999992,20.86114399999998,755
48.78466399999992,18.269143999999983,453
48.78466399999992,17.621143999999987,449
49.10866399999992,21.50914399999997,741
48.78466399999992,20.213143999999986,909
48.46066399999992,20.213143999999986,921
48.136663999999925,19.565143999999982,645
48.46066399999992,19.565143999999982,524
48.46066399999992,18.917143999999983,454
48.46066399999992,18.269143999999983,442
48.78466399999992,19.565143999999982,600
48.78466399999992,18.917143999999983,496
47.81266399999993,18.269143999999983,476
49.10866399999992,22.15714399999998,764
49.43266399999992,21.50914399999997,856
48.136663999999925,18.917143999999983,466
48.136663999999925,20.213143999999986,665
52.636,-8.018,65535
52.312,-7.370000000000001,65535
52.312,-8.018,65535
52.636,-8.666,65535
51.988,-8.666,65535
51.988,-8.018,65535
52.96,-8.666,65535
52.96,-6.074000000000002,65535
53.28399999999999,-6.722000000000001,65535
53.60799999999999,-6.722000000000001,65535
53.60799999999999,-7.370000000000001,65535
53.60799999999999,-8.018,65535
54.25599999999999,-8.666,65535
53.93199999999999,-8.666,65535
53.93199999999999,-8.018,65535
52.312,-6.722000000000001,65535
52.636,-6.722000000000001,65535
53.93199999999999,-6.722000000000001,65535
54.25599999999999,-6.074000000000002,65535
53.28399999999999,-7.370000000000001,65535
52.96,-7.370000000000001,65535
52.312,-8.666,65535
52.96,-8.018,65535
52.636,-7.370000000000001,65535
52.96,-6.722000000000001,65535
51.988,-9.314,65535
52.312,-9.314,65535
54.579999999999984,-6.722000000000001,65535
54.579999999999984,-6.074000000000002,65535
53.28399999999999,-8.018,65535
53.28399999999999,-8.666,65535
53.28399999999999,-9.314,65535
53.93199999999999,-9.314,65535
54.25599999999999,-9.314,65535
53.60799999999999,-8.666,65535
53.60799999999999,-9.314,65535
49.43266399999992,14.381143999999988,515
49.75666399999992,14.381143999999988,468
49.75666399999992,15.029143999999986,466
49.75666399999992,13.733143999999989,477
50.08066399999991,13.733143999999989,469
49.75666399999992,15.677143999999986,479
50.40466399999991,15.029143999999986,453
49.43266399999992,13.733143999999989,486
50.40466399999991,15.677143999999986,467
50.40466399999991,13.733143999999989,467
46.19266399999994,15.029143999999986,74
45.86866399999994,15.029143999999986,95
45.86866399999994,14.381143999999988,88
46.19266399999994,13.733143999999989,57
45.86866399999994,13.733143999999989,132
58.50466399999986,13.733143999999989,1442
58.180663999999865,13.733143999999989,1446
58.180663999999865,13.085143999999987,1418
57.85666399999987,12.437143999999988,1384
60.44866399999985,15.677143999999986,1667
60.124663999999854,15.677143999999986,1601
60.124663999999854,16.325143999999987,1639
59.800663999999855,16.325143999999987,1567
59.800663999999855,17.621143999999987,1546
59.47666399999986,18.269143999999983,1528
61.74466399999984,16.973143999999984,1678
61.420663999999846,16.973143999999984,1651
60.77266399999985,16.973143999999984,1603
65.63266399999982,22.15714399999998,2782
65.95666399999982,21.50914399999997,2742
65.63266399999982,20.86114399999998,2713
64.98466399999982,20.213143999999986,2645
64.66066399999983,20.213143999999986,2623
64.33666399999983,19.565143999999982,2317
64.01266399999983,19.565143999999982,2030
63.68866399999983,20.213143999999986,1983
64.66066399999983,18.917143999999983,2994
59.15266399999986,16.325143999999987,1503
59.15266399999986,15.029143999999986,1495
59.15266399999986,17.621143999999987,1520
57.53266399999987,14.381143999999988,1344
57.53266399999987,15.029143999999986,1364
61.09666399999985,14.381143999999988,1771
60.77266399999985,15.029143999999986,1722
60.44866399999985,15.029143999999986,1708
58.180663999999865,15.029143999999986,1421
58.50466399999986,16.325143999999987,1455
58.50466399999986,15.677143999999986,1428
63.36466399999984,13.085143999999987,2015
63.04066399999984,14.381143999999988,1952
62.39266399999984,15.677143999999986,1874
63.36466399999984,13.733143999999989,1997
63.36466399999984,14.381143999999988,1969
62.71666399999984,15.677143999999986,1902
62.39266399999984,17.621143999999987,1736
59.800663999999855,15.677143999999986,2013
55.58866399999988,13.733143999999989,1298
57.20866399999987,14.381143999999988,1328
57.85666399999987,14.381143999999988,1376
58.82866399999986,16.973143999999984,1512
58.82866399999986,16.325143999999987,1490
59.15266399999986,18.269143999999983,1524
60.44866399999985,17.621143999999987,1579
59.15266399999986,12.437143999999988,1483
59.15266399999986,13.085143999999987,1497
58.82866399999986,12.437143999999988,1459
59.47666399999986,16.325143999999987,1529
58.82866399999986,14.381143999999988,1536
59.47666399999986,15.677143999999986,1518
63.36466399999984,18.917143999999983,1936
63.04066399999984,17.621143999999987,1891
62.71666399999984,17.621143999999987,1865
63.68866399999983,19.565143999999982,1969
62.39266399999984,16.973143999999984,1780
59.800663999999855,16.973143999999984,1555
59.47666399999986,17.621143999999987,1532
57.85666399999987,13.085143999999987,1408
57.53266399999987,13.085143999999987,1389
58.50466399999986,11.789143999999988,1430
57.85666399999987,15.029143999999986,1410
57.20866399999987,13.733143999999989,1334
57.53266399999987,13.733143999999989,1395
61.74466399999984,16.325143999999987,1774
61.420663999999846,16.325143999999987,1741
61.09666399999985,16.325143999999987,1730
61.09666399999985,16.973143999999984,1698
60.124663999999854,15.029143999999986,1876
66.60466399999981,20.86114399999998,2817
67.25266399999981,20.86114399999998,2885
67.90066399999981,20.213143999999986,2955
67.57666399999981,20.213143999999986,3580
59.800663999999855,15.029143999999986,1596
58.50466399999986,15.029143999999986,1438
59.47666399999986,15.029143999999986,1581
60.44866399999985,16.325143999999987,1667
59.15266399999986,15.677143999999986,1525
57.85666399999987,13.733143999999989,1436
58.82866399999986,13.733143999999989,1483
58.50466399999986,13.085143999999987,1468
57.20866399999987,13.085143999999987,1365
56.88466399999987,13.085143999999987,1339
58.180663999999865,11.789143999999988,1401
62.06866399999984,16.973143999999984,1769
65.95666399999982,23.45314399999998,2823
59.800663999999855,14.381143999999988,5891
59.800663999999855,18.269143999999983,1537
63.04066399999984,15.029143999999986,1920
62.71666399999984,15.029143999999986,1910
62.39266399999984,16.325143999999987,1843
63.36466399999984,12.437143999999988,2048
68.5486639999998,17.621143999999987,3168
68.5486639999998,18.269143999999983,3101
68.5486639999998,18.917143999999983,3078
68.2246639999998,18.917143999999983,3034
59.800663999999855,13.085143999999987,1600
60.124663999999854,13.085143999999987,1639
59.47666399999986,16.973143999999984,1541
59.15266399999986,16.973143999999984,1533
56.56066399999988,13.733143999999989,1286
60.124663999999854,17.621143999999987,1556
57.85666399999987,16.325143999999987,1515
58.180663999999865,16.325143999999987,1477
58.180663999999865,15.677143999999986,1485
57.20866399999987,16.325143999999987,1527
57.53266399999987,15.677143999999986,1545
57.85666399999987,15.677143999999986,1516
44.89666399999994,23.45314399999998,2965
44.572663999999946,23.45314399999998,3035
44.89666399999994,24.74914399999998,2952
44.572663999999946,24.74914399999998,3071
44.572663999999946,24.101143999999977,3012
44.24866399999995,24.101143999999977,3041
47.48866399999993,25.397143999999983,2813
47.48866399999993,24.74914399999998,2753
47.16466399999993,24.74914399999998,2675
47.16466399999993,24.101143999999977,2577
47.48866399999993,22.15714399999998,2707
47.81266399999993,22.15714399999998,2793
47.16466399999993,22.15714399999998,2686
47.16466399999993,23.45314399999998,2738
47.16466399999993,22.805143999999984,2744
46.84066399999993,24.101143999999977,2658
45.86866399999994,27.34114399999998,2998
45.54466399999994,27.34114399999998,2979
45.54466399999994,27.989143999999985,3095
45.86866399999994,20.86114399999998,2870
45.86866399999994,21.50914399999997,2878
46.19266399999994,21.50914399999997,2814
46.19266399999994,27.34114399999998,2998
46.19266399999994,26.69314399999997,2989
46.516663999999935,26.69314399999997,2951
46.516663999999935,26.04514399999998,2847
47.48866399999993,22.805143999999984,2805
46.84066399999993,22.805143999999984,2618
45.54466399999994,22.15714399999998,2927
45.22066399999994,22.15714399999998,3005
44.89666399999994,22.15714399999998,3423
47.48866399999993,23.45314399999998,2771
46.516663999999935,24.101143999999977,2497
46.516663999999935,24.74914399999998,2711
45.86866399999994,24.101143999999977,2660
47.16466399999993,26.69314399999997,3029
47.16466399999993,27.34114399999998,3084
43.92466399999995,25.397143999999983,3043
44.24866399999995,24.74914399999998,2950
44.89666399999994,26.04514399999998,2837
44.89666399999994,26.69314399999997,2884
45.22066399999994,26.69314399999997,2919
45.22066399999994,27.34114399999998,2946
46.84066399999993,26.69314399999997,2990
47.48866399999993,26.69314399999997,2983
44.24866399999995,25.397143999999983,2882
43.92466399999995,26.04514399999998,3059
46.19266399999994,24.101143999999977,2705
44.572663999999946,25.397143999999983,2920
46.84066399999993,24.74914399999998,2718
46.516663999999935,21.50914399999997,2818
46.84066399999993,21.50914399999997,2825
44.572663999999946,26.69314399999997,2875
44.572663999999946,27.34114399999998,2896
44.89666399999994,27.34114399999998,3011
44.572663999999946,27.989143999999985,2916
44.24866399999995,27.989143999999985,2930
44.572663999999946,28.63714399999997,2981
45.86866399999994,22.15714399999998,2739
45.86866399999994,22.805143999999984,2633
44.24866399999995,23.45314399999998,3068
43.92466399999995,27.989143999999985,65535
46.84066399999993,27.34114399999998,3151
45.22066399999994,23.45314399999998,2940
45.54466399999994,23.45314399999998,2743
45.54466399999994,24.101143999999977,2690
45.22066399999994,24.101143999999977,2914
44.89666399999994,24.101143999999977,2984
46.19266399999994,22.15714399999998,2870
46.516663999999935,22.15714399999998,2836
45.22066399999994,21.50914399999997,3110
45.54466399999994,21.50914399999997,2958
45.54466399999994,20.86114399999998,2982
46.516663999999935,27.989143999999985,3101
46.19266399999994,27.989143999999985,3086
45.54466399999994,25.397143999999983,2804
45.22066399999994,25.397143999999983,2814
45.22066399999994,26.04514399999998,2870
47.81266399999993,24.101143999999977,2866
47.48866399999993,26.04514399999998,2956
47.81266399999993,26.04514399999998,2978
46.19266399999994,23.45314399999998,2537
45.86866399999994,23.45314399999998,2586
44.24866399999995,26.04514399999998,2864
45.22066399999994,27.989143999999985,3076
45.86866399999994,24.74914399999998,2699
46.516663999999935,25.397143999999983,2891
46.84066399999993,25.397143999999983,2774
46.19266399999994,26.04514399999998,2862
45.86866399999994,26.04514399999998,2827
43.92466399999995,23.45314399999998,3298
44.89666399999994,25.397143999999983,2925
46.19266399999994,20.86114399999998,2859
47.81266399999993,25.397143999999983,2990
44.572663999999946,22.805143999999984,3303
44.572663999999946,22.15714399999998,3445
46.516663999999935,23.45314399999998,2676
45.86866399999994,25.397143999999983,2753
44.24866399999995,27.34114399999998,3691
45.22066399999994,24.74914399999998,3016
45.54466399999994,22.805143999999984,2706
45.22066399999994,28.63714399999997,3136
44.89666399999994,28.63714399999997,3075
47.81266399999993,23.45314399999998,2923
46.19266399999994,24.74914399999998,2785
46.19266399999994,25.397143999999983,2809
43.92466399999995,24.101143999999977,3261
43.92466399999995,24.74914399999998,3274
47.81266399999993,26.69314399999997,3205
47.48866399999993,24.101143999999977,2798
46.84066399999993,26.04514399999998,3606
46.19266399999994,22.805143999999984,2930
47.48866399999993,27.34114399999998,3158
46.19266399999994,20.213143999999986,65535
45.54466399999994,26.04514399999998,2962
44.24866399999995,26.69314399999997,2880
45.86866399999994,27.989143999999985,3134
47.81266399999993,5.957143999999991,7066
