51.56399999999999,-0.4100000000000028,65535
51.887999999999984,-0.4100000000000028,65535
50.91599999999999,-1.7060000000000022,65535
51.23999999999999,-1.0580000000000025,65535
51.56399999999999,-1.0580000000000025,65535
51.23999999999999,-1.7060000000000022,65535
51.56399999999999,0.2379999999999968,65535
47.16466399999993,9.845143999999989,426
47.48866399999993,9.845143999999989,418
48.136663999999925,14.381143999999988,449
47.81266399999993,13.085143999999987,385
47.16466399999993,11.141143999999988,410
47.48866399999993,11.789143999999988,499
48.136663999999925,16.325143999999987,369
47.48866399999993,12.437143999999988,414
48.136663999999925,15.677143999999986,459
47.16466399999993,10.493143999999988,576
47.16466399999993,9.197143999999987,428
48.136663999999925,13.733143999999989,436
48.136663999999925,15.029143999999986,499
47.81266399999993,16.973143999999984,388
48.46066399999992,14.381143999999988,904
47.48866399999993,13.085143999999987,415
47.16466399999993,13.085143999999987,429
47.48866399999993,14.381143999999988,455
47.48866399999993,13.733143999999989,471
47.48866399999993,15.029143999999986,402
46.516663999999935,13.733143999999989,574
46.84066399999993,13.733143999999989,580
46.84066399999993,13.085143999999987,585
48.78466399999992,14.381143999999988,65535
47.16466399999993,15.677143999999986,420
46.516663999999935,14.381143999999988,562
46.84066399999993,14.381143999999988,535
47.16466399999993,14.381143999999988,485
46.516663999999935,15.029143999999986,607
47.81266399999993,16.325143999999987,372
47.16466399999993,15.029143999999986,443
47.81266399999993,15.677143999999986,504
47.48866399999993,15.677143999999986,397
46.516663999999935,13.085143999999987,1934
46.84066399999993,12.437143999999988,599
48.136663999999925,11.789143999999988,355
47.81266399999993,12.437143999999988,374
46.84066399999993,15.677143999999986,645
46.516663999999935,15.677143999999986,557
46.84066399999993,16.325143999999987,465
47.81266399999993,14.381143999999988,475
48.78466399999992,16.973143999999984,292
48.136663999999925,16.973143999999984,357
48.46066399999992,13.733143999999989,399
47.81266399999993,13.733143999999989,554
50.08066399999991,8.54914399999999,371
48.46066399999992,9.845143999999989,360
51.05266399999991,7.25314399999999,409
51.37666399999991,7.25314399999999,422
51.37666399999991,6.60514399999999,421
48.46066399999992,16.325143999999987,378
48.46066399999992,16.973143999999984,307
48.78466399999992,16.325143999999987,410
48.46066399999992,15.677143999999986,400
48.78466399999992,15.677143999999986,573
47.48866399999993,16.325143999999987,380
47.16466399999993,16.325143999999987,414
46.19266399999994,14.381143999999988,610
45.86866399999994,15.677143999999986,602
43.60066399999995,16.325143999999987,1555
45.54466399999994,14.381143999999988,679
45.54466399999994,13.733143999999989,701
48.136663999999925,13.085143999999987,402
48.46066399999992,11.141143999999988,331
48.136663999999925,11.141143999999988,353
48.46066399999992,7.90114399999999,376
49.10866399999992,8.54914399999999,353
48.78466399999992,2.0691439999999925,511
49.10866399999992,7.25314399999999,381
52.0246639999999,7.90114399999999,435
47.16466399999993,11.789143999999988,432
49.43266399999992,11.141143999999988,303
53.64466399999989,9.845143999999989,429
50.72866399999991,4.013143999999992,455
51.05266399999991,11.141143999999988,238
47.48866399999993,11.141143999999988,393
46.84066399999993,11.789143999999988,2102
46.516663999999935,11.141143999999988,2071
45.54466399999994,11.141143999999988,1965
46.19266399999994,11.141143999999988,2037
45.86866399999994,11.141143999999988,2021
44.572663999999946,11.141143999999988,1812
43.92466399999995,12.437143999999988,4445
45.54466399999994,12.437143999999988,2052
45.54466399999994,11.789143999999988,2015
48.78466399999992,15.029143999999986,612
47.81266399999993,15.029143999999986,570
47.81266399999993,11.141143999999988,358
50.40466399999991,18.917143999999983,367
52.3486639999999,20.86114399999998,670
54.616663999999886,18.269143999999983,591
54.29266399999989,18.917143999999983,578
49.10866399999992,14.381143999999988,65535
50.08066399999991,14.381143999999988,14
48.78466399999992,13.733143999999989,2216
52.6726639999999,13.085143999999987,214
52.3486639999999,13.085143999999987,213
53.96866399999989,12.437143999999988,396
54.29266399999989,12.437143999999988,397
47.48866399999993,8.54914399999999,442
47.81266399999993,17.621143999999987,387
47.48866399999993,18.917143999999983,500
47.48866399999993,20.86114399999998,841
46.84066399999993,23.45314399999998,2398
44.572663999999946,26.04514399999998,2847
47.48866399999993,21.50914399999997,875
47.81266399999993,21.50914399999997,908
48.46066399999992,22.15714399999998,457
47.48866399999993,16.973143999999984,65535
49.10866399999992,16.325143999999987,247
49.75666399999992,18.269143999999983,220
46.19266399999994,13.085143999999987,1343
41.98066399999996,12.437143999999988,3045
43.60066399999995,10.493143999999988,3206
45.54466399999994,9.197143999999987,548
47.81266399999993,22.805143999999984,2813
49.75666399999992,22.805143999999984,589
50.72866399999991,3.365143999999992,462
51.05266399999991,4.013143999999992,455
50.72866399999991,4.661143999999991,447
51.05266399999991,4.661143999999991,449
51.05266399999991,3.365143999999992,460
51.05266399999991,2.717143999999992,482
50.40466399999991,4.661143999999991,443
50.72866399999991,2.717143999999992,478
50.40466399999991,4.013143999999992,466
51.05266399999991,5.309143999999991,450
50.72866399999991,5.309143999999991,432
51.37666399999991,3.365143999999992,478
51.37666399999991,4.661143999999991,453
50.72866399999991,5.957143999999991,412
50.40466399999991,5.957143999999991,423
50.40466399999991,3.365143999999992,470
50.40466399999991,5.309143999999991,439
50.08066399999991,5.309143999999991,457
49.75666399999992,5.309143999999991,464
49.75666399999992,5.957143999999991,450
51.37666399999991,5.309143999999991,506
51.700663999999904,4.661143999999991,459
50.08066399999991,4.013143999999992,503
50.08066399999991,5.957143999999991,441
50.08066399999991,4.661143999999991,454
49.43266399999992,5.309143999999991,495
49.43266399999992,5.957143999999991,424
52.0246639999999,4.661143999999991,530
52.3486639999999,4.661143999999991,559
50.72866399999991,15.029143999999986,65
51.05266399999991,15.029143999999986,98
51.05266399999991,13.733143999999989,116
50.40466399999991,13.085143999999987,227
49.10866399999992,7.90114399999999,359
48.78466399999992,7.90114399999999,365
50.40466399999991,7.90114399999999,384
50.08066399999991,7.90114399999999,395
49.75666399999992,7.90114399999999,387
49.43266399999992,7.90114399999999,354
49.75666399999992,8.54914399999999,354
49.43266399999992,8.54914399999999,348
49.43266399999992,9.197143999999987,343
49.10866399999992,9.197143999999987,337
47.48866399999993,7.90114399999999,446
47.81266399999993,7.90114399999999,397
48.136663999999925,7.90114399999999,382
48.136663999999925,9.845143999999989,370
47.81266399999993,9.197143999999987,414
47.81266399999993,8.54914399999999,407
47.81266399999993,9.845143999999989,377
54.940663999999884,9.197143999999987,539
54.616663999999886,9.197143999999987,505
54.29266399999989,9.197143999999987,491
53.96866399999989,9.197143999999987,476
53.64466399999989,9.197143999999987,455
54.616663999999886,9.845143999999989,518
54.29266399999989,9.845143999999989,526
53.96866399999989,9.845143999999989,438
53.64466399999989,10.493143999999988,432
53.96866399999989,10.493143999999988,461
53.96866399999989,11.141143999999988,431
54.29266399999989,10.493143999999988,483
53.32066399999989,10.493143999999988,409
54.940663999999884,11.141143999999988,529
52.6726639999999,13.733143999999989,211
52.3486639999999,13.733143999999989,209
52.3486639999999,14.381143999999988,220
52.0246639999999,14.381143999999988,207
52.0246639999999,11.789143999999988,243
52.3486639999999,11.789143999999988,258
52.3486639999999,12.437143999999988,247
52.0246639999999,15.029143999999986,222
51.700663999999904,14.381143999999988,158
52.0246639999999,13.733143999999989,180
51.700663999999904,13.733143999999989,170
52.6726639999999,12.437143999999988,248
53.32066399999989,11.789143999999988,309
53.96866399999989,11.789143999999988,388
53.64466399999989,11.789143999999988,346
53.64466399999989,11.141143999999988,342
53.32066399999989,11.141143999999988,333
52.996663999999896,11.789143999999988,272
52.996663999999896,12.437143999999988,264
52.996663999999896,13.733143999999989,241
53.64466399999989,13.733143999999989,337
53.96866399999989,13.733143999999989,350
54.29266399999989,13.085143999999987,357
53.96866399999989,13.085143999999987,397
53.32066399999989,13.733143999999989,347
52.0246639999999,13.085143999999987,256
51.700663999999904,13.085143999999987,166
52.996663999999896,14.381143999999988,282
52.0246639999999,12.437143999999988,234
51.700663999999904,12.437143999999988,231
51.37666399999991,11.789143999999988,207
51.37666399999991,12.437143999999988,204
52.6726639999999,11.789143999999988,263
53.64466399999989,13.085143999999987,380
53.32066399999989,13.085143999999987,345
52.996663999999896,13.085143999999987,279
53.64466399999989,12.437143999999988,388
51.37666399999991,13.733143999999989,138
53.32066399999989,12.437143999999988,296
52.6726639999999,14.381143999999988,230
51.37666399999991,13.085143999999987,152
53.32066399999989,14.381143999999988,316
52.3486639999999,15.029143999999986,231
52.0246639999999,15.677143999999986,231
51.700663999999904,15.029143999999986,147
51.05266399999991,16.325143999999987,158
51.05266399999991,16.973143999999984,184
51.700663999999904,15.677143999999986,169
51.37666399999991,15.677143999999986,118
51.37666399999991,16.325143999999987,151
50.72866399999991,13.085143999999987,178
50.72866399999991,12.437143999999988,185
51.05266399999991,13.085143999999987,166
51.05266399999991,14.381143999999988,105
50.40466399999991,12.437143999999988,210
50.40466399999991,11.789143999999988,253
50.08066399999991,12.437143999999988,311
50.72866399999991,11.789143999999988,226
51.05266399999991,12.437143999999988,197
50.72866399999991,14.381143999999988,74
51.37666399999991,14.381143999999988,139
50.72866399999991,13.733143999999989,155
50.40466399999991,14.381143999999988,0
51.37666399999991,15.029143999999986,114
55.26466399999988,9.197143999999987,828
55.58866399999988,8.54914399999999,3562
55.91266399999988,8.54914399999999,7039
56.23666399999988,9.197143999999987,7047
56.23666399999988,10.493143999999988,7000
56.23666399999988,9.845143999999989,6987
55.91266399999988,9.845143999999989,6925
56.56066399999988,9.197143999999987,7057
56.56066399999988,8.54914399999999,7100
51.05266399999991,6.60514399999999,414
51.700663999999904,7.90114399999999,430
50.72866399999991,6.60514399999999,404
51.700663999999904,7.25314399999999,425
50.72866399999991,7.25314399999999,400
52.0246639999999,7.25314399999999,452
52.3486639999999,7.90114399999999,447
51.05266399999991,5.957143999999991,416
50.40466399999991,7.25314399999999,388
51.700663999999904,6.60514399999999,433
51.700663999999904,5.957143999999991,428
52.3486639999999,9.197143999999987,421
51.700663999999904,8.54914399999999,451
52.0246639999999,8.54914399999999,440
52.3486639999999,8.54914399999999,433
51.37666399999991,7.90114399999999,433
52.3486639999999,7.25314399999999,513
51.37666399999991,5.957143999999991,461
50.72866399999991,7.90114399999999,421
51.37666399999991,9.197143999999987,451
51.700663999999904,9.197143999999987,426
50.40466399999991,6.60514399999999,466
51.05266399999991,7.90114399999999,435
51.37666399999991,8.54914399999999,461
52.0246639999999,5.957143999999991,471
52.3486639999999,6.60514399999999,536
51.05266399999991,8.54914399999999,464
52.0246639999999,9.197143999999987,437
52.6726639999999,9.197143999999987,450
52.0246639999999,9.845143999999989,428
51.700663999999904,9.845143999999989,403
51.37666399999991,9.845143999999989,411
50.72866399999991,8.54914399999999,402
51.05266399999991,9.845143999999989,411
50.72866399999991,9.845143999999989,390
50.40466399999991,9.845143999999989,363
51.05266399999991,9.197143999999987,473
50.40466399999991,9.197143999999987,382
50.08066399999991,9.197143999999987,380
51.05266399999991,10.493143999999988,256
50.40466399999991,8.54914399999999,380
50.72866399999991,9.197143999999987,412
49.75666399999992,9.197143999999987,369
52.996663999999896,9.197143999999987,453
52.3486639999999,9.845143999999989,417
52.996663999999896,8.54914399999999,461
52.996663999999896,7.90114399999999,473
53.32066399999989,7.90114399999999,557
53.32066399999989,7.25314399999999,613
53.64466399999989,7.25314399999999,658
52.996663999999896,10.493143999999988,390
52.6726639999999,10.493143999999988,397
52.6726639999999,9.845143999999989,406
53.32066399999989,9.845143999999989,424
53.32066399999989,9.197143999999987,447
53.64466399999989,8.54914399999999,470
53.32066399999989,8.54914399999999,465
52.6726639999999,8.54914399999999,483
52.0246639999999,10.493143999999988,389
52.0246639999999,11.141143999999988,281
51.700663999999904,11.141143999999988,280
52.6726639999999,7.25314399999999,905
52.996663999999896,7.25314399999999,879
52.6726639999999,7.90114399999999,495
53.64466399999989,7.90114399999999,851
52.996663999999896,11.141143999999988,341
52.6726639999999,11.141143999999988,273
52.3486639999999,10.493143999999988,423
52.996663999999896,9.845143999999989,456
51.700663999999904,10.493143999999988,320
51.37666399999991,10.493143999999988,427
51.700663999999904,11.789143999999988,254
52.3486639999999,11.141143999999988,298
51.37666399999991,11.141143999999988,224
51.05266399999991,11.789143999999988,222
49.10866399999992,11.141143999999988,307
48.78466399999992,11.141143999999988,320
48.46066399999992,11.789143999999988,349
49.43266399999992,11.789143999999988,283
50.08066399999991,11.789143999999988,272
49.75666399999992,12.437143999999988,289
49.10866399999992,11.789143999999988,309
48.78466399999992,12.437143999999988,324
48.46066399999992,12.437143999999988,346
49.10866399999992,12.437143999999988,312
48.78466399999992,13.085143999999987,351
48.136663999999925,12.437143999999988,405
47.81266399999993,11.789143999999988,363
48.136663999999925,10.493143999999988,365
47.81266399999993,10.493143999999988,379
48.78466399999992,10.493143999999988,325
47.48866399999993,10.493143999999988,396
48.46066399999992,10.493143999999988,337
49.43266399999992,13.085143999999987,338
48.46066399999992,13.085143999999987,373
49.43266399999992,10.493143999999988,318
49.75666399999992,9.845143999999989,324
49.75666399999992,10.493143999999988,313
50.40466399999991,11.141143999999988,313
50.08066399999991,11.141143999999988,301
50.72866399999991,11.141143999999988,233
49.75666399999992,11.141143999999988,305
48.78466399999992,11.789143999999988,363
50.40466399999991,10.493143999999988,463
50.08066399999991,9.845143999999989,335
50.08066399999991,10.493143999999988,314
49.43266399999992,12.437143999999988,304
49.75666399999992,11.789143999999988,278
49.10866399999992,13.085143999999987,338
50.72866399999991,10.493143999999988,271
49.10866399999992,10.493143999999988,315
48.78466399999992,9.845143999999989,355
48.46066399999992,8.54914399999999,359
48.46066399999992,9.197143999999987,355
48.78466399999992,9.197143999999987,340
48.78466399999992,8.54914399999999,357
50.08066399999991,7.25314399999999,410
49.75666399999992,6.60514399999999,437
49.43266399999992,6.60514399999999,406
49.10866399999992,6.60514399999999,398
49.43266399999992,7.25314399999999,364
49.75666399999992,7.25314399999999,393
49.10866399999992,5.957143999999991,416
48.78466399999992,7.25314399999999,402
50.08066399999991,6.60514399999999,434
47.48866399999993,9.197143999999987,422
48.136663999999925,8.54914399999999,375
48.136663999999925,9.197143999999987,371
47.81266399999993,7.25314399999999,415
49.43266399999992,9.845143999999989,327
49.10866399999992,9.845143999999989,327
53.64466399999989,14.381143999999988,332
50.08066399999991,13.085143999999987,76
49.75666399999992,13.085143999999987,35
45.86866399999994,9.197143999999987,538
46.19266399999994,9.197143999999987,524
46.516663999999935,8.54914399999999,470
46.516663999999935,9.197143999999987,519
46.19266399999994,8.54914399999999,536
47.16466399999993,8.54914399999999,437
45.86866399999994,4.661143999999991,596
46.84066399999993,9.845143999999989,453
45.22066399999994,5.957143999999991,562
45.22066399999994,5.309143999999991,577
45.86866399999994,5.957143999999991,540
45.54466399999994,5.957143999999991,551
44.89666399999994,4.661143999999991,608
44.89666399999994,5.309143999999991,600
44.572663999999946,4.661143999999991,628
44.24866399999995,4.661143999999991,644
43.92466399999995,4.661143999999991,660
46.19266399999994,7.25314399999999,486
48.78466399999992,5.957143999999991,442
48.136663999999925,6.60514399999999,491
48.46066399999992,6.60514399999999,455
48.78466399999992,6.60514399999999,463
47.16466399999993,7.90114399999999,448
48.136663999999925,7.25314399999999,429
48.46066399999992,7.25314399999999,384
46.516663999999935,6.60514399999999,496
46.84066399999993,6.60514399999999,468
46.84066399999993,7.25314399999999,464
46.516663999999935,5.957143999999991,499
46.19266399999994,5.957143999999991,510
46.84066399999993,8.54914399999999,441
46.84066399999993,7.90114399999999,455
45.86866399999994,5.309143999999991,599
46.19266399999994,6.60514399999999,517
45.86866399999994,6.60514399999999,493
47.48866399999993,6.60514399999999,478
47.48866399999993,7.25314399999999,461
47.16466399999993,7.25314399999999,458
49.10866399999992,4.013143999999992,468
49.75666399999992,4.661143999999991,477
49.43266399999992,4.661143999999991,532
49.10866399999992,5.309143999999991,439
46.19266399999994,4.661143999999991,558
46.84066399999993,9.197143999999987,444
46.19266399999994,5.309143999999991,604
46.516663999999935,5.309143999999991,599
45.54466399999994,6.60514399999999,560
45.54466399999994,5.309143999999991,572
43.60066399999995,4.013143999999992,695
43.60066399999995,3.365143999999992,724
42.62866399999996,2.717143999999992,792
43.276663999999954,2.717143999999992,756
45.54466399999994,4.661143999999991,587
45.22066399999994,4.661143999999991,596
47.16466399999993,5.309143999999991,479
47.16466399999993,5.957143999999991,501
46.19266399999994,7.90114399999999,480
49.75666399999992,2.717143999999992,532
49.10866399999992,2.717143999999992,522
48.78466399999992,2.717143999999992,508
45.86866399999994,3.365143999999992,682
46.84066399999993,3.365143999999992,592
46.516663999999935,3.365143999999992,631
46.19266399999994,3.365143999999992,659
47.16466399999993,6.60514399999999,488
49.10866399999992,3.365143999999992,521
45.54466399999994,4.013143999999992,606
46.516663999999935,7.25314399999999,473
47.16466399999993,4.661143999999991,510
46.84066399999993,4.661143999999991,537
46.516663999999935,4.661143999999991,562
46.84066399999993,5.957143999999991,541
47.81266399999993,3.365143999999992,599
47.48866399999993,4.013143999999992,550
48.136663999999925,4.013143999999992,588
47.81266399999993,4.013143999999992,560
47.48866399999993,4.661143999999991,541
47.16466399999993,3.365143999999992,609
46.84066399999993,4.013143999999992,560
48.46066399999992,5.957143999999991,513
46.19266399999994,2.717143999999992,733
47.16466399999993,2.0691439999999925,635
46.516663999999935,2.717143999999992,759
46.84066399999993,2.717143999999992,658
46.84066399999993,2.0691439999999925,627
47.16466399999993,2.717143999999992,641
44.572663999999946,5.309143999999991,626
44.572663999999946,5.957143999999991,704
44.89666399999994,6.60514399999999,627
44.572663999999946,6.60514399999999,746
43.60066399999995,5.309143999999991,690
43.92466399999995,7.25314399999999,767
43.60066399999995,6.60514399999999,759
43.276663999999954,6.60514399999999,746
43.276663999999954,5.957143999999991,707
45.86866399999994,8.54914399999999,545
45.54466399999994,8.54914399999999,552
48.136663999999925,3.365143999999992,624
48.46066399999992,3.365143999999992,582
48.46066399999992,2.717143999999992,592
47.48866399999993,5.309143999999991,530
46.516663999999935,9.845143999999989,464
46.84066399999993,10.493143999999988,1331
47.81266399999993,5.309143999999991,555
45.22066399999994,6.60514399999999,579
46.19266399999994,4.013143999999992,627
45.86866399999994,4.013143999999992,624
45.22066399999994,4.013143999999992,638
44.89666399999994,4.013143999999992,696
46.84066399999993,5.309143999999991,567
48.136663999999925,-1.8188560000000056,618
48.136663999999925,0.1251439999999934,568
48.136663999999925,-0.5228560000000062,596
47.48866399999993,-0.5228560000000062,612
47.16466399999993,-1.8188560000000056,654
47.48866399999993,0.7731439999999932,575
47.16466399999993,0.1251439999999934,598
45.86866399999994,7.25314399999999,499
48.136663999999925,5.309143999999991,572
49.10866399999992,4.661143999999991,491
48.46066399999992,4.013143999999992,595
48.136663999999925,4.661143999999991,615
47.81266399999993,6.60514399999999,497
47.48866399999993,5.957143999999991,514
48.136663999999925,5.957143999999991,663
45.86866399999994,7.90114399999999,494
46.516663999999935,7.90114399999999,464
49.43266399999992,3.365143999999992,533
49.43266399999992,4.013143999999992,513
48.136663999999925,2.717143999999992,591
47.81266399999993,2.717143999999992,621
47.48866399999993,2.717143999999992,640
50.40466399999991,2.717143999999992,483
48.46066399999992,-4.410856000000004,755
48.46066399999992,-3.7628560000000046,719
48.46066399999992,-3.114856000000005,690
48.46066399999992,-2.4668560000000053,669
47.48866399999993,1.4211439999999929,606
47.16466399999993,1.4211439999999929,618
46.516663999999935,4.013143999999992,565
43.60066399999995,4.661143999999991,699
44.89666399999994,2.717143999999992,841
45.22066399999994,2.717143999999992,819
45.54466399999994,3.365143999999992,708
45.22066399999994,3.365143999999992,748
47.48866399999993,3.365143999999992,776
46.19266399999994,9.845143999999989,502
47.81266399999993,2.0691439999999925,604
47.48866399999993,2.0691439999999925,613
45.86866399999994,2.717143999999992,1343
44.89666399999994,5.957143999999991,577
45.22066399999994,1.4211439999999929,720
44.89666399999994,1.4211439999999929,722
44.89666399999994,2.0691439999999925,749
43.276663999999954,2.0691439999999925,817
43.60066399999995,1.4211439999999929,811
48.78466399999992,4.661143999999991,513
48.78466399999992,5.309143999999991,492
46.19266399999994,2.0691439999999925,799
45.86866399999994,1.4211439999999929,713
46.19266399999994,1.4211439999999929,679
44.572663999999946,4.013143999999992,1533
44.89666399999994,3.365143999999992,741
43.92466399999995,4.013143999999992,698
44.24866399999995,4.013143999999992,722
44.89666399999994,-0.5228560000000062,674
45.54466399999994,0.1251439999999934,683
46.516663999999935,0.1251439999999934,622
44.572663999999946,2.0691439999999925,756
49.75666399999992,4.013143999999992,545
43.92466399999995,3.365143999999992,1416
43.92466399999995,2.717143999999992,1447
44.24866399999995,3.365143999999992,1472
44.572663999999946,3.365143999999992,1517
49.10866399999992,0.1251439999999934,610
49.43266399999992,0.7731439999999932,596
49.43266399999992,-1.8188560000000056,656
49.10866399999992,-1.170856000000006,640
49.10866399999992,-0.5228560000000062,631
49.10866399999992,0.7731439999999932,590
49.10866399999992,1.4211439999999929,566
47.81266399999993,-1.8188560000000056,644
47.81266399999993,-2.4668560000000053,687
47.81266399999993,-3.114856000000005,700
48.136663999999925,-3.7628560000000046,735
44.572663999999946,9.197143999999987,656
44.89666399999994,8.54914399999999,597
45.22066399999994,9.197143999999987,559
45.54466399999994,10.493143999999988,607
44.572663999999946,10.493143999999988,1798
44.89666399999994,10.493143999999988,673
44.89666399999994,9.845143999999989,729
48.46066399999992,5.309143999999991,560
50.91599999999999,-1.0580000000000025,65535
51.23999999999999,-0.4100000000000028,65535
50.91599999999999,-0.4100000000000028,65535
51.23999999999999,-2.354000000000002,65535
51.56399999999999,-2.354000000000002,65535
51.56399999999999,-3.0020000000000016,65535
50.91599999999999,-2.354000000000002,65535
53.50799999999997,-3.0020000000000016,65535
53.183999999999976,-2.354000000000002,65535
53.183999999999976,-3.0020000000000016,65535
52.85999999999998,-2.354000000000002,65535
52.21199999999998,-1.0580000000000025,65535
51.887999999999984,-1.0580000000000025,65535
52.53599999999998,-1.0580000000000025,65535
52.53599999999998,-1.7060000000000022,65535
52.85999999999998,-1.7060000000000022,65535
53.50799999999997,-2.354000000000002,65535
52.85999999999998,-1.0580000000000025,65535
52.53599999999998,1.5339999999999965,65535
52.53599999999998,0.8859999999999966,65535
52.53599999999998,0.2379999999999968,65535
52.53599999999998,-0.4100000000000028,65535
53.50799999999997,-1.7060000000000022,65535
53.183999999999976,-1.7060000000000022,65535
53.183999999999976,-1.0580000000000025,65535
52.85999999999998,-0.4100000000000028,65535
51.887999999999984,-2.354000000000002,65535
52.21199999999998,-2.354000000000002,65535
55.77599999999996,-2.354000000000002,65535
53.83199999999997,-1.0580000000000025,65535
53.83199999999997,-1.7060000000000022,65535
55.127999999999965,-1.7060000000000022,65535
54.80399999999997,-1.7060000000000022,65535
54.47999999999997,-1.7060000000000022,65535
54.15599999999997,-1.0580000000000025,65535
52.21199999999998,-1.7060000000000022,65535
53.50799999999997,-1.0580000000000025,65535
55.77599999999996,-3.0020000000000016,65535
55.45199999999996,-1.7060000000000022,65535
57.07199999999995,-2.354000000000002,65535
56.74799999999996,-3.0020000000000016,65535
56.42399999999996,-3.0020000000000016,65535
56.09999999999996,-3.650000000000001,65535
50.91599999999999,-3.0020000000000016,65535
50.91599999999999,-3.650000000000001,65535
50.59199999999999,-3.650000000000001,65535
50.59199999999999,-4.298000000000001,65535
51.23999999999999,-3.0020000000000016,65535
50.268,-4.946000000000001,65535
55.77599999999996,-3.650000000000001,65535
55.77599999999996,-4.298000000000001,65535
52.21199999999998,-0.4100000000000028,65535
52.53599999999998,-2.354000000000002,65535
51.56399999999999,-1.7060000000000022,65535
51.56399999999999,-3.650000000000001,65535
51.887999999999984,-4.298000000000001,65535
51.56399999999999,-4.298000000000001,65535
51.887999999999984,-1.7060000000000022,65535
52.21199999999998,-3.0020000000000016,65535
51.23999999999999,0.2379999999999968,65535
50.91599999999999,0.2379999999999968,65535
52.21199999999998,0.2379999999999968,65535
53.83199999999997,-3.0020000000000016,65535
54.15599999999997,-3.0020000000000016,65535
54.47999999999997,-3.0020000000000016,65535
55.127999999999965,-3.650000000000001,65535
54.80399999999997,-3.0020000000000016,65535
53.83199999999997,-2.354000000000002,65535
54.15599999999997,-0.4100000000000028,65535
54.47999999999997,-1.0580000000000025,65535
53.83199999999997,-0.4100000000000028,65535
53.183999999999976,-3.650000000000001,65535
53.183999999999976,-4.298000000000001,65535
52.85999999999998,-3.0020000000000016,65535
52.53599999999998,-3.0020000000000016,65535
51.887999999999984,-3.0020000000000016,65535
51.23999999999999,0.8859999999999966,65535
51.887999999999984,0.2379999999999968,65535
52.21199999999998,0.8859999999999966,65535
51.887999999999984,-4.946000000000001,65535
52.53599999999998,-3.650000000000001,65535
52.21199999999998,-4.298000000000001,65535
53.183999999999976,-0.4100000000000028,65535
51.23999999999999,-3.650000000000001,65535
51.887999999999984,-3.650000000000001,65535
52.21199999999998,-3.650000000000001,65535
51.56399999999999,0.8859999999999966,65535
51.887999999999984,0.8859999999999966,65535
52.85999999999998,0.8859999999999966,65535
53.50799999999997,-0.4100000000000028,65535
56.09999999999996,-4.298000000000001,65535
56.74799999999996,-4.946000000000001,65535
56.74799999999996,-4.298000000000001,65535
56.42399999999996,-4.946000000000001,65535
56.42399999999996,-4.298000000000001,65535
56.09999999999996,-4.946000000000001,65535
57.39599999999995,-4.298000000000001,65535
57.39599999999995,-3.0020000000000016,65535
57.39599999999995,-3.650000000000001,65535
56.42399999999996,-3.650000000000001,65535
57.07199999999995,-3.650000000000001,65535
57.07199999999995,-4.298000000000001,65535
56.74799999999996,-3.650000000000001,65535
59.15266399999986,27.34114399999998,65535
59.47666399999986,26.69314399999997,65535
59.47666399999986,26.04514399999998,65535
59.15266399999986,26.04514399999998,65535
59.15266399999986,24.74914399999998,65535
59.15266399999986,25.397143999999983,65535
59.47666399999986,25.397143999999983,65535
58.50466399999986,26.69314399999997,65535
58.82866399999986,26.69314399999997,65535
57.85666399999987,26.04514399999998,65535
58.180663999999865,26.04514399999998,65535
58.180663999999865,26.69314399999997,65535
58.82866399999986,26.04514399999998,65535
58.50466399999986,25.397143999999983,65535
58.82866399999986,25.397143999999983,65535
58.82866399999986,24.74914399999998,65535
58.180663999999865,27.34114399999998,65535
57.85666399999987,27.34114399999998,65535
63.68866399999983,27.34114399999998,7557
60.124663999999854,24.74914399999998,4213
60.44866399999985,24.74914399999998,4182
60.44866399999985,25.397143999999983,4194
60.77266399999985,25.397143999999983,4905
61.09666399999985,26.04514399999998,4948
60.77266399999985,26.04514399999998,4956
60.77266399999985,26.69314399999997,4975
61.09666399999985,25.397143999999983,4939
61.09666399999985,26.69314399999997,7678
61.420663999999846,26.69314399999997,7700
61.74466399999984,27.34114399999998,7724
62.06866399999984,27.34114399999998,7749
62.39266399999984,27.34114399999998,7773
62.71666399999984,27.34114399999998,7737
64.01266399999983,27.34114399999998,7513
63.36466399999984,27.34114399999998,7625
63.04066399999984,27.34114399999998,7665
63.04066399999984,27.989143999999985,7680
64.33666399999983,27.989143999999985,5264
64.33666399999983,27.34114399999998,5209
64.66066399999983,27.34114399999998,5194
64.66066399999983,26.69314399999997,5139
64.98466399999982,25.397143999999983,3559
64.66066399999983,26.04514399999998,5120
64.98466399999982,26.04514399999998,5104
66.28066399999982,25.397143999999983,3731
65.95666399999982,24.74914399999998,3472
65.63266399999982,24.74914399999998,3476
65.63266399999982,25.397143999999983,3518
65.30866399999982,25.397143999999983,3539
66.60466399999981,25.397143999999983,3765
64.01266399999983,24.74914399999998,3696
64.01266399999983,24.101143999999977,3731
64.01266399999983,23.45314399999998,3755
63.68866399999983,23.45314399999998,3767
63.68866399999983,22.805143999999984,3792
63.68866399999983,26.04514399999998,5824
63.68866399999983,25.397143999999983,5790
63.68866399999983,26.69314399999997,7524
60.44866399999985,26.69314399999997,8309
64.01266399999983,27.989143999999985,7943
62.71666399999984,22.805143999999984,3914
62.39266399999984,22.805143999999984,3946
62.06866399999984,22.805143999999984,3975
62.06866399999984,23.45314399999998,3991
61.74466399999984,23.45314399999998,4003
61.420663999999846,23.45314399999998,4051
61.09666399999985,23.45314399999998,4092
61.09666399999985,24.101143999999977,4099
61.09666399999985,24.74914399999998,4133
60.77266399999985,24.74914399999998,4149
63.04066399999984,21.50914399999997,65535
63.04066399999984,22.15714399999998,65535
63.04066399999984,22.805143999999984,3878
62.39266399999984,26.04514399999998,7921
62.06866399999984,25.397143999999983,7970
61.74466399999984,25.397143999999983,8038
61.74466399999984,24.74914399999998,8075
61.74466399999984,24.101143999999977,4280
61.420663999999846,24.101143999999977,4235
62.39266399999984,26.69314399999997,7892
64.66066399999983,25.397143999999983,3628
64.66066399999983,24.74914399999998,3646
64.33666399999983,24.74914399999998,3657
63.36466399999984,22.805143999999984,3817
67.25266399999981,24.101143999999977,7345
66.92866399999981,24.101143999999977,7309
66.60466399999981,23.45314399999998,7278
66.28066399999982,23.45314399999998,7260
66.28066399999982,24.101143999999977,7242
65.95666399999982,24.101143999999977,2844
60.124663999999854,24.101143999999977,5727
60.124663999999854,23.45314399999998,6585
60.44866399999985,22.805143999999984,6644
60.77266399999985,27.34114399999998,5027
61.09666399999985,27.989143999999985,5057
61.09666399999985,28.63714399999997,5095
61.420663999999846,29.28514399999997,5130
61.74466399999984,29.933143999999977,5167
62.06866399999984,29.933143999999977,5193
62.39266399999984,29.933143999999977,5209
62.71666399999984,29.933143999999977,5233
61.420663999999846,22.805143999999984,6338
61.420663999999846,22.15714399999998,7046
61.09666399999985,22.15714399999998,6384
61.420663999999846,21.50914399999997,7179
62.39266399999984,27.989143999999985,65535
62.06866399999984,27.989143999999985,65535
61.420663999999846,27.34114399999998,65535
63.04066399999984,29.933143999999977,7172
63.68866399999983,29.28514399999997,8955
63.36466399999984,29.28514399999997,8935
63.36466399999984,29.933143999999977,8894
60.44866399999985,27.34114399999998,65535
61.74466399999984,29.28514399999997,65535
62.39266399999984,30.58114399999998,65535
62.71666399999984,31.229143999999977,65535
62.71666399999984,29.28514399999997,65535
63.04066399999984,28.63714399999997,65535
66.60466399999981,26.04514399999998,6586
66.60466399999981,26.69314399999997,6622
66.60466399999981,27.34114399999998,6645
62.71666399999984,26.04514399999998,7806
62.71666399999984,25.397143999999983,7775
63.04066399999984,25.397143999999983,7595
63.36466399999984,25.397143999999983,6232
62.71666399999984,23.45314399999998,7800
62.39266399999984,24.101143999999977,65535
62.71666399999984,22.15714399999998,65535
62.39266399999984,22.15714399999998,65535
62.39266399999984,21.50914399999997,65535
61.09666399999985,21.50914399999997,6414
60.77266399999985,22.805143999999984,4452
60.44866399999985,22.15714399999998,4482
60.77266399999985,23.45314399999998,4439
60.77266399999985,21.50914399999997,5553
60.77266399999985,22.15714399999998,5506
60.124663999999854,22.805143999999984,8599
60.44866399999985,24.101143999999977,5712
62.06866399999984,24.74914399999998,65535
50.72866399999991,16.325143999999987,162
50.40466399999991,16.973143999999984,210
50.72866399999991,16.973143999999984,178
50.40466399999991,16.325143999999987,195
50.08066399999991,16.973143999999984,117
50.08066399999991,16.325143999999987,93
51.700663999999904,16.973143999999984,247
51.37666399999991,16.973143999999984,217
51.05266399999991,15.677143999999986,142
50.72866399999991,15.677143999999986,174
51.05266399999991,17.621143999999987,196
51.37666399999991,17.621143999999987,223
51.700663999999904,17.621143999999987,243
51.700663999999904,16.325143999999987,166
52.0246639999999,22.15714399999998,691
52.0246639999999,21.50914399999997,687
52.3486639999999,21.50914399999997,684
52.0246639999999,20.86114399999998,672
51.700663999999904,20.86114399999998,698
51.37666399999991,21.50914399999997,730
51.37666399999991,20.86114399999998,710
51.05266399999991,20.86114399999998,662
52.6726639999999,23.45314399999998,802
52.3486639999999,22.805143999999984,741
52.3486639999999,20.213143999999986,700
52.0246639999999,20.213143999999986,680
52.3486639999999,19.565143999999982,484
52.6726639999999,19.565143999999982,567
51.700663999999904,21.50914399999997,717
51.700663999999904,22.15714399999998,701
52.6726639999999,21.50914399999997,693
52.996663999999896,21.50914399999997,709
52.6726639999999,20.86114399999998,688
52.6726639999999,22.15714399999998,709
52.6726639999999,20.213143999999986,626
52.996663999999896,19.565143999999982,619
52.996663999999896,20.86114399999998,713
52.996663999999896,20.213143999999986,662
53.32066399999989,20.213143999999986,574
51.37666399999991,20.213143999999986,614
52.3486639999999,16.973143999999984,282
52.0246639999999,16.973143999999984,271
52.0246639999999,16.325143999999987,178
52.0246639999999,17.621143999999987,328
52.6726639999999,16.973143999999984,294
52.996663999999896,16.973143999999984,330
52.3486639999999,16.325143999999987,239
52.3486639999999,15.677143999999986,244
51.700663999999904,18.269143999999983,632
52.6726639999999,17.621143999999987,325
52.3486639999999,17.621143999999987,297
52.6726639999999,18.269143999999983,414
52.3486639999999,18.269143999999983,397
52.3486639999999,18.917143999999983,444
52.996663999999896,17.621143999999987,438
51.700663999999904,19.565143999999982,611
51.700663999999904,18.917143999999983,1293
51.37666399999991,18.269143999999983,351
58.82866399999986,9.197143999999987,1808
58.180663999999865,7.90114399999999,1901
58.50466399999986,8.54914399999999,1852
63.36466399999984,10.493143999999988,2023
63.36466399999984,11.141143999999988,2030
63.36466399999984,11.789143999999988,2065
63.68866399999983,11.789143999999988,2093
64.33666399999983,12.437143999999988,2494
64.66066399999983,12.437143999999988,2989
65.63266399999982,13.085143999999987,2646
65.95666399999982,13.085143999999987,2681
66.28066399999982,14.381143999999988,2751
65.95666399999982,13.733143999999989,2820
66.28066399999982,13.733143999999989,2729
65.30866399999982,13.085143999999987,2947
64.98466399999982,13.085143999999987,2581
64.01266399999983,11.789143999999988,2124
63.68866399999983,11.141143999999988,2061
59.800663999999855,10.493143999999988,1604
59.800663999999855,11.141143999999988,1587
60.124663999999854,11.141143999999988,1602
60.44866399999985,11.141143999999988,1615
60.124663999999854,11.789143999999988,1628
60.77266399999985,7.25314399999999,1864
60.77266399999985,6.60514399999999,1910
59.15266399999986,9.197143999999987,1690
59.47666399999986,9.197143999999987,1711
59.800663999999855,9.845143999999989,1606
59.47666399999986,11.141143999999988,1551
61.09666399999985,10.493143999999988,1725
60.77266399999985,10.493143999999988,1695
60.77266399999985,11.141143999999988,1650
62.06866399999984,9.197143999999987,2050
61.74466399999984,9.845143999999989,1996
61.420663999999846,9.845143999999989,1973
59.15266399999986,9.845143999999989,1670
59.47666399999986,9.845143999999989,1646
58.82866399999986,5.957143999999991,2085
58.180663999999865,7.25314399999999,1957
58.50466399999986,7.25314399999999,1990
58.50466399999986,6.60514399999999,1995
58.50466399999986,5.957143999999991,2053
58.82866399999986,8.54914399999999,1838
60.44866399999985,7.25314399999999,1838
60.44866399999985,7.90114399999999,1799
60.124663999999854,10.493143999999988,1636
60.44866399999985,9.197143999999987,1748
60.77266399999985,9.197143999999987,1760
60.77266399999985,8.54914399999999,1779
60.124663999999854,9.845143999999989,2015
60.44866399999985,10.493143999999988,1681
63.04066399999984,10.493143999999988,1974
62.06866399999984,9.845143999999989,2075
62.39266399999984,9.845143999999989,2083
62.71666399999984,9.845143999999989,2107
59.47666399999986,14.381143999999988,1600
59.47666399999986,13.733143999999989,1541
59.47666399999986,13.085143999999987,1517
59.800663999999855,12.437143999999988,1586
59.15266399999986,11.141143999999988,1515
59.15266399999986,14.381143999999988,1614
58.82866399999986,11.789143999999988,1495
58.50466399999986,12.437143999999988,1425
58.180663999999865,12.437143999999988,1418
57.85666399999987,11.789143999999988,1369
62.71666399999984,7.90114399999999,2136
62.39266399999984,7.90114399999999,2093
62.06866399999984,8.54914399999999,2068
60.44866399999985,5.309143999999991,1984
60.44866399999985,5.957143999999991,1951
60.77266399999985,5.957143999999991,1940
62.39266399999984,11.141143999999988,1871
62.06866399999984,10.493143999999988,1826
61.74466399999984,11.141143999999988,1799
61.420663999999846,11.141143999999988,1753
61.09666399999985,11.141143999999988,1736
60.77266399999985,11.789143999999988,1713
63.04066399999984,11.141143999999988,1952
62.71666399999984,11.141143999999988,1895
62.39266399999984,10.493143999999988,1853
67.25266399999981,15.677143999999986,2870
67.25266399999981,15.029143999999986,2908
67.25266399999981,14.381143999999988,2936
66.92866399999981,15.029143999999986,2859
66.60466399999981,15.677143999999986,2837
64.01266399999983,11.141143999999988,2108
66.60466399999981,15.029143999999986,2900
54.29266399999989,18.269143999999983,583
54.616663999999886,17.621143999999987,575
53.96866399999989,18.269143999999983,498
43.92466399999995,1.4211439999999929,782
44.24866399999995,0.7731439999999932,744
44.572663999999946,0.1251439999999934,723
46.84066399999993,1.4211439999999929,642
44.572663999999946,1.4211439999999929,853
44.24866399999995,1.4211439999999929,1362
45.54466399999994,1.4211439999999929,752
46.516663999999935,1.4211439999999929,687
42.30466399999996,2.717143999999992,807
44.24866399999995,2.717143999999992,843
44.572663999999946,2.717143999999992,818
43.92466399999995,2.0691439999999925,840
42.30466399999996,2.0691439999999925,1512
42.62866399999996,2.0691439999999925,976
42.62866399999996,1.4211439999999929,970
42.95266399999996,1.4211439999999929,926
43.276663999999954,1.4211439999999929,857
46.516663999999935,-1.170856000000006,685
46.19266399999994,-1.170856000000006,687
45.86866399999994,-0.5228560000000062,688
45.54466399999994,-0.5228560000000062,698
48.46066399999992,1.4211439999999929,535
41.332663999999966,2.0691439999999925,1714
41.98066399999996,2.717143999999992,1673
48.46066399999992,-1.8188560000000056,640
47.81266399999993,0.7731439999999932,553
46.84066399999993,0.7731439999999932,599
44.572663999999946,-1.170856000000006,687
43.60066399999995,-1.170856000000006,808
43.276663999999954,-1.8188560000000056,855
43.276663999999954,0.1251439999999934,919
42.95266399999996,0.1251439999999934,893
43.276663999999954,-0.5228560000000062,865
43.60066399999995,-0.5228560000000062,842
47.81266399999993,-3.7628560000000046,787
47.48866399999993,-2.4668560000000053,674
47.81266399999993,-0.5228560000000062,604
46.516663999999935,-1.8188560000000056,796
48.136663999999925,-1.170856000000006,610
47.48866399999993,-1.170856000000006,657
45.22066399999994,8.54914399999999,557
45.22066399999994,7.90114399999999,575
46.19266399999994,-0.5228560000000062,656
46.516663999999935,-0.5228560000000062,637
48.78466399999992,-3.114856000000005,721
50.72866399999991,2.0691439999999925,513
50.40466399999991,2.0691439999999925,498
40.36066399999997,-3.7628560000000046,1905
41.65666399999997,-1.170856000000006,1822
41.332663999999966,1.4211439999999929,1760
43.276663999999954,13.733143999999989,4390
42.95266399999996,13.733143999999989,4412
41.65666399999997,15.029143999999986,4496
40.68466399999997,17.621143999999987,4658
43.60066399999995,13.085143999999987,4383
41.65666399999997,12.437143999999988,3049
41.65666399999997,13.085143999999987,3068
41.98066399999996,13.085143999999987,3118
41.65666399999997,13.733143999999989,3120
41.332663999999966,13.733143999999989,3112
41.332663999999966,14.381143999999988,3269
41.00866399999997,14.381143999999988,3175
41.332663999999966,13.085143999999987,3094
41.00866399999997,15.029143999999986,3375
41.98066399999996,13.733143999999989,3317
42.30466399999996,14.381143999999988,3456
42.30466399999996,12.437143999999988,3057
42.62866399999996,12.437143999999988,3236
42.95266399999996,12.437143999999988,3521
42.30466399999996,11.789143999999988,3066
42.95266399999996,11.789143999999988,3276
42.62866399999996,11.789143999999988,3267
43.276663999999954,11.789143999999988,3330
42.95266399999996,13.085143999999987,4284
42.30466399999996,13.085143999999987,3343
43.276663999999954,13.085143999999987,4332
43.276663999999954,12.437143999999988,4339
42.62866399999996,11.141143999999988,3112
42.95266399999996,11.141143999999988,3155
42.95266399999996,10.493143999999988,3173
44.572663999999946,8.54914399999999,604
44.89666399999994,7.90114399999999,581
44.89666399999994,9.197143999999987,612
44.24866399999995,7.90114399999999,639
44.572663999999946,7.90114399999999,620
43.92466399999995,7.90114399999999,781
44.24866399999995,7.25314399999999,636
44.89666399999994,7.25314399999999,587
45.22066399999994,7.25314399999999,587
45.54466399999994,7.90114399999999,578
44.572663999999946,7.25314399999999,687
52.996663999999896,22.805143999999984,1255
52.996663999999896,23.45314399999998,1284
51.37666399999991,22.15714399999998,721
51.37666399999991,22.805143999999984,725
50.08066399999991,20.213143999999986,506
50.72866399999991,20.213143999999986,563
50.40466399999991,20.213143999999986,486
50.08066399999991,20.86114399999998,468
50.08066399999991,21.50914399999997,482
50.08066399999991,22.15714399999998,519
50.08066399999991,22.805143999999984,551
53.96866399999989,22.805143999999984,1396
53.64466399999989,23.45314399999998,1352
53.32066399999989,23.45314399999998,1307
50.40466399999991,19.565143999999982,420
50.08066399999991,18.917143999999983,450
50.08066399999991,18.269143999999983,387
52.0246639999999,22.805143999999984,766
52.0246639999999,23.45314399999998,780
51.37666399999991,19.565143999999982,571
51.05266399999991,19.565143999999982,433
50.72866399999991,18.917143999999983,404
50.72866399999991,19.565143999999982,577
49.75666399999992,18.917143999999983,270
50.40466399999991,18.269143999999983,320
53.64466399999989,19.565143999999982,521
53.96866399999989,18.917143999999983,540
53.64466399999989,18.917143999999983,519
53.64466399999989,20.213143999999986,569
52.996663999999896,18.917143999999983,467
52.996663999999896,18.269143999999983,447
53.32066399999989,18.917143999999983,471
50.72866399999991,17.621143999999987,263
50.72866399999991,18.269143999999983,308
52.6726639999999,16.325143999999987,310
52.996663999999896,16.325143999999987,320
52.996663999999896,15.677143999999986,336
53.32066399999989,15.677143999999986,439
53.32066399999989,15.029143999999986,368
53.64466399999989,15.029143999999986,375
53.96866399999989,15.029143999999986,403
52.6726639999999,18.917143999999983,486
53.32066399999989,16.325143999999987,457
52.6726639999999,15.029143999999986,284
51.05266399999991,22.805143999999984,716
51.05266399999991,23.45314399999998,761
50.72866399999991,22.15714399999998,603
50.40466399999991,22.15714399999998,563
51.05266399999991,22.15714399999998,678
54.616663999999886,16.973143999999984,554
54.29266399999989,16.325143999999987,506
53.96866399999989,15.677143999999986,469
50.72866399999991,21.50914399999997,591
50.40466399999991,21.50914399999997,542
50.40466399999991,17.621143999999987,280
53.32066399999989,22.805143999999984,1277
53.64466399999989,22.15714399999998,718
54.29266399999989,16.973143999999984,532
50.72866399999991,20.86114399999998,601
51.700663999999904,22.805143999999984,828
51.05266399999991,21.50914399999997,770
50.08066399999991,19.565143999999982,483
52.0246639999999,18.917143999999983,8488
52.0246639999999,19.565143999999982,8481
53.64466399999989,18.269143999999983,492
51.700663999999904,20.213143999999986,654
53.32066399999989,19.565143999999982,512
50.72866399999991,23.45314399999998,841
50.72866399999991,22.805143999999984,811
49.43266399999992,20.213143999999986,431
49.75666399999992,21.50914399999997,491
49.75666399999992,22.15714399999998,479
49.43266399999992,22.15714399999998,470
51.05266399999991,18.917143999999983,416
51.05266399999991,18.269143999999983,353
53.32066399999989,16.973143999999984,379
53.64466399999989,16.973143999999984,413
49.75666399999992,20.86114399999998,428
50.40466399999991,22.805143999999984,8570
53.64466399999989,16.325143999999987,448
53.96866399999989,20.86114399999998,673
54.29266399999989,20.86114399999998,719
53.96866399999989,21.50914399999997,824
53.64466399999989,15.677143999999986,434
53.96866399999989,20.213143999999986,601
53.96866399999989,19.565143999999982,564
54.29266399999989,19.565143999999982,574
53.96866399999989,16.325143999999987,468
53.64466399999989,17.621143999999987,444
53.96866399999989,22.15714399999998,738
53.64466399999989,21.50914399999997,674
53.64466399999989,20.86114399999998,626
52.6726639999999,15.677143999999986,334
51.05266399999991,20.213143999999986,1249
54.940663999999884,24.101143999999977,3681
54.616663999999886,23.45314399999998,3625
54.29266399999989,23.45314399999998,3488
53.64466399999989,22.805143999999984,1300
53.96866399999989,16.973143999999984,553
50.40466399999991,20.86114399999998,1306
53.32066399999989,18.269143999999983,465
49.75666399999992,19.565143999999982,441
50.40466399999991,23.45314399999998,925
49.75666399999992,20.213143999999986,470
49.43266399999992,19.565143999999982,405
49.43266399999992,20.86114399999998,395
53.96866399999989,17.621143999999987,1323
42.30466399999996,-1.8188560000000056,8799
41.98066399999996,-1.8188560000000056,8782
41.65666399999997,0.7731439999999932,8786
42.62866399999996,-1.8188560000000056,8914
42.95266399999996,-1.8188560000000056,8943
42.62866399999996,-3.114856000000005,9037
42.95266399999996,-2.4668560000000053,9015
42.62866399999996,-7.650856000000003,9379
42.30466399999996,-7.650856000000003,9439
42.30466399999996,-8.946856000000002,9575
42.30466399999996,-8.298856000000002,9549
41.98066399999996,-8.298856000000002,9538
42.30466399999996,-7.002856000000003,9321
42.62866399999996,-6.354856000000003,9263
42.30466399999996,-6.354856000000003,9218
42.62866399999996,-5.706856000000004,8718
41.98066399999996,-4.410856000000004,8672
42.30466399999996,-3.7628560000000046,9063
40.03666399999997,-0.5228560000000062,8766
39.38866399999998,-0.5228560000000062,8814
41.00866399999997,0.7731439999999932,8914
40.68466399999997,0.7731439999999932,8946
40.36066399999997,0.1251439999999934,9024
39.712663999999975,-0.5228560000000062,8923
38.41666399999998,-0.5228560000000062,8935
39.06466399999998,-0.5228560000000062,9057
38.74066399999998,-1.170856000000006,8943
41.332663999999966,0.7731439999999932,8974
41.65666399999997,2.717143999999992,8574
41.65666399999997,2.0691439999999925,8597
41.332663999999966,0.1251439999999934,8932
41.332663999999966,-0.5228560000000062,8876
41.65666399999997,-4.410856000000004,8646
40.03666399999997,-2.4668560000000053,8884
41.00866399999997,-4.410856000000004,8767
43.276663999999954,-5.706856000000004,8848
39.38866399999998,-1.170856000000006,8909
38.09266399999999,-1.170856000000006,9322
38.74066399999998,-0.5228560000000062,9085
37.76866399999999,-1.170856000000006,9387
39.06466399999998,-1.8188560000000056,8907
39.38866399999998,-3.114856000000005,8807
39.38866399999998,-2.4668560000000053,8863
39.06466399999998,-2.4668560000000053,8890
39.06466399999998,-3.114856000000005,8811
39.06466399999998,-3.7628560000000046,8785
38.74066399999998,-3.7628560000000046,8864
40.03666399999997,-3.7628560000000046,8763
40.03666399999997,-3.114856000000005,8963
40.03666399999997,-1.8188560000000056,9044
39.712663999999975,-1.8188560000000056,9009
39.712663999999975,-1.170856000000006,8945
40.36066399999997,-1.170856000000006,8964
40.68466399999997,-1.170856000000006,8942
41.00866399999997,-1.170856000000006,8930
41.332663999999966,-1.170856000000006,8770
43.276663999999954,-8.298856000000002,9539
42.95266399999996,-8.298856000000002,9507
41.65666399999997,-5.706856000000004,65535
41.98066399999996,-7.002856000000003,65535
41.98066399999996,-6.354856000000003,65535
41.332663999999966,-5.058856000000004,8885
43.276663999999954,-3.7628560000000046,9320
42.95266399999996,-4.410856000000004,9254
42.62866399999996,-4.410856000000004,9244
42.30466399999996,-4.410856000000004,9203
41.00866399999997,-5.706856000000004,8823
41.332663999999966,-1.8188560000000056,8716
40.68466399999997,-3.114856000000005,8670
41.00866399999997,-3.114856000000005,8721
41.00866399999997,-2.4668560000000053,8744
41.332663999999966,-2.4668560000000053,8797
40.68466399999997,-4.410856000000004,8707
40.36066399999997,-4.410856000000004,8791
40.68466399999997,-3.7628560000000046,8699
40.36066399999997,-3.114856000000005,8677
41.65666399999997,-2.4668560000000053,8814
38.09266399999999,-3.7628560000000046,8911
38.74066399999998,-3.114856000000005,8855
37.76866399999999,-3.7628560000000046,8968
39.712663999999975,-3.114856000000005,8799
38.41666399999998,-3.7628560000000046,8876
40.03666399999997,-4.410856000000004,65535
40.03666399999997,-5.058856000000004,65535
39.38866399999998,-6.354856000000003,65535
39.38866399999998,-7.002856000000003,65535
42.95266399999996,-3.114856000000005,9448
41.98066399999996,-1.170856000000006,8811
42.30466399999996,-2.4668560000000053,8852
41.65666399999997,-0.5228560000000062,8909
41.98066399999996,-0.5228560000000062,8746
41.65666399999997,0.1251439999999934,8773
41.98066399999996,0.1251439999999934,8795
37.76866399999999,-5.058856000000004,8847
36.79666399999999,-4.410856000000004,8906
38.74066399999998,-4.410856000000004,8803
37.12066399999999,-4.410856000000004,8880
37.44466399999999,-5.058856000000004,9404
37.44466399999999,-7.002856000000003,65535
37.44466399999999,-6.354856000000003,65535
37.44466399999999,-5.706856000000004,9080
39.712663999999975,-3.7628560000000046,8873
42.62866399999996,-8.946856000000002,65535
42.30466399999996,-5.706856000000004,9225
42.30466399999996,-5.058856000000004,9310
42.95266399999996,-5.706856000000004,8750
41.00866399999997,-5.058856000000004,8791
40.68466399999997,-5.058856000000004,8765
41.65666399999997,-5.058856000000004,65535
41.65666399999997,-6.354856000000003,65535
36.79666399999999,-6.354856000000003,65535
37.12066399999999,-5.706856000000004,9248
37.76866399999999,-5.706856000000004,9047
38.09266399999999,-4.410856000000004,9182
37.12066399999999,-5.058856000000004,9202
36.79666399999999,-5.058856000000004,9160
37.76866399999999,-4.410856000000004,65535
37.76866399999999,-7.002856000000003,65535
38.41666399999998,-6.354856000000003,65535
38.09266399999999,-6.354856000000003,65535
48.78466399999992,1.4211439999999929,589
56.23666399999988,8.54914399999999,7090
55.58866399999988,9.197143999999987,6895
55.91266399999988,9.197143999999987,7036
55.26466399999988,10.493143999999988,1074
55.91266399999988,12.437143999999988,1209
55.58866399999988,11.789143999999988,6735
55.58866399999988,11.141143999999988,6776
55.26466399999988,11.789143999999988,6768
55.58866399999988,10.493143999999988,6891
55.58866399999988,13.085143999999987,1166
56.88466399999987,9.845143999999989,7042
57.20866399999987,9.845143999999989,7077
56.56066399999988,9.845143999999989,7014
56.88466399999987,8.54914399999999,7129
54.940663999999884,9.845143999999989,8236
54.940663999999884,11.789143999999988,6992
55.91266399999988,13.085143999999987,1224
56.23666399999988,13.733143999999989,1268
55.91266399999988,13.733143999999989,1271
56.23666399999988,14.381143999999988,1291
56.23666399999988,15.029143999999986,1332
56.23666399999988,15.677143999999986,1387
56.56066399999988,14.381143999999988,1348
56.88466399999987,14.381143999999988,1318
56.23666399999988,13.085143999999987,1216
56.56066399999988,13.085143999999987,1296
56.88466399999987,12.437143999999988,1333
57.20866399999987,12.437143999999988,1349
57.53266399999987,12.437143999999988,1364
56.88466399999987,15.029143999999986,1344
56.56066399999988,15.677143999999986,1404
56.88466399999987,15.677143999999986,1423
56.88466399999987,16.325143999999987,1438
55.91266399999988,11.789143999999988,7061
57.20866399999987,10.493143999999988,7264
49.43266399999992,1.4211439999999929,607
49.75666399999992,0.7731439999999932,619
49.75666399999992,2.0691439999999925,539
50.08066399999991,2.717143999999992,521
49.75666399999992,1.4211439999999929,604
47.81266399999993,1.4211439999999929,615
48.136663999999925,2.0691439999999925,624
48.46066399999992,2.0691439999999925,583
48.136663999999925,1.4211439999999929,551
48.78466399999992,0.1251439999999934,581
48.46066399999992,0.1251439999999934,575
47.81266399999993,0.1251439999999934,604
46.84066399999993,-0.5228560000000062,645
47.16466399999993,0.7731439999999932,590
46.84066399999993,0.1251439999999934,651
46.84066399999993,-1.170856000000006,658
50.08066399999991,1.4211439999999929,577
50.08066399999991,2.0691439999999925,560
49.43266399999992,2.717143999999992,527
49.75666399999992,3.365143999999992,545
50.08066399999991,3.365143999999992,537
49.10866399999992,2.0691439999999925,552
49.43266399999992,2.0691439999999925,547
48.78466399999992,0.7731439999999932,634
48.78466399999992,-0.5228560000000062,691
48.78466399999992,-1.170856000000006,664
48.136663999999925,0.7731439999999932,590
48.46066399999992,0.7731439999999932,600
43.92466399999995,5.957143999999991,724
44.24866399999995,5.957143999999991,763
43.92466399999995,5.309143999999991,692
42.95266399999996,2.717143999999992,797
45.54466399999994,2.0691439999999925,734
45.22066399999994,2.0691439999999925,1336
42.95266399999996,2.0691439999999925,1410
42.95266399999996,0.7731439999999932,1327
43.276663999999954,0.7731439999999932,867
46.19266399999994,0.7731439999999932,689
46.516663999999935,0.7731439999999932,670
45.86866399999994,0.1251439999999934,705
46.19266399999994,0.1251439999999934,698
47.81266399999993,-1.170856000000006,651
48.136663999999925,-2.4668560000000053,658
47.48866399999993,-1.8188560000000056,654
47.16466399999993,-1.170856000000006,644
47.16466399999993,-0.5228560000000062,628
46.84066399999993,-1.8188560000000056,736
45.22066399999994,-0.5228560000000062,686
44.89666399999994,0.1251439999999934,684
45.22066399999994,0.7731439999999932,702
45.54466399999994,0.7731439999999932,761
45.86866399999994,0.7731439999999932,1412
45.22066399999994,0.1251439999999934,695
44.89666399999994,0.7731439999999932,701
43.92466399999995,-0.5228560000000062,779
43.92466399999995,-1.170856000000006,768
44.24866399999995,-1.170856000000006,747
45.22066399999994,-1.170856000000006,738
44.572663999999946,-0.5228560000000062,701
44.24866399999995,0.1251439999999934,755
44.572663999999946,0.7731439999999932,1380
43.276663999999954,-1.170856000000006,1370
42.95266399999996,-0.5228560000000062,1572
44.24866399999995,2.0691439999999925,1359
43.60066399999995,0.7731439999999932,1332
43.60066399999995,2.0691439999999925,800
52.6726639999999,4.661143999999991,7081
52.6726639999999,5.309143999999991,7104
51.700663999999904,5.309143999999991,7049
52.0246639999999,5.309143999999991,7061
52.3486639999999,5.309143999999991,7077
51.37666399999991,4.013143999999992,7057
52.3486639999999,5.957143999999991,7071
52.0246639999999,6.60514399999999,7101
52.6726639999999,5.957143999999991,7088
52.996663999999896,5.957143999999991,7101
53.32066399999989,5.957143999999991,7095
52.996663999999896,6.60514399999999,7077
53.32066399999989,6.60514399999999,7069
52.6726639999999,6.60514399999999,7097
52.996663999999896,5.309143999999991,7116
59.15266399999986,24.101143999999977,65535
56.88466399999987,24.101143999999977,65535
56.88466399999987,23.45314399999998,65535
56.88466399999987,22.805143999999984,65535
57.20866399999987,24.74914399999998,65535
56.88466399999987,24.74914399999998,65535
56.56066399999988,24.74914399999998,65535
56.56066399999988,25.397143999999983,65535
56.56066399999988,24.101143999999977,65535
56.56066399999988,23.45314399999998,65535
56.56066399999988,26.04514399999998,65535
56.88466399999987,26.04514399999998,65535
57.20866399999987,25.397143999999983,65535
57.53266399999987,25.397143999999983,65535
56.23666399999988,26.04514399999998,65535
56.23666399999988,26.69314399999997,65535
55.91266399999988,26.69314399999997,65535
56.56066399999988,26.69314399999997,65535
56.56066399999988,27.34114399999998,65535
56.56066399999988,27.989143999999985,65535
56.23666399999988,27.989143999999985,65535
55.91266399999988,27.34114399999998,65535
56.56066399999988,22.805143999999984,65535
56.56066399999988,22.15714399999998,65535
56.56066399999988,21.50914399999997,65535
57.20866399999987,26.69314399999997,65535
39.06466399999998,-8.946856000000002,65535
38.41666399999998,-8.298856000000002,65535
45.86866399999994,11.789143999999988,2068
46.19266399999994,11.789143999999988,2055
46.19266399999994,10.493143999999988,2095
45.22066399999994,18.269143999999983,706
45.22066399999994,18.917143999999983,746
45.54466399999994,16.973143999999984,629
45.22066399999994,17.621143999999987,643
45.86866399999994,16.325143999999987,592
45.54466399999994,18.917143999999983,769
45.54466399999994,16.325143999999987,618
45.54466399999994,18.269143999999983,741
44.89666399999994,18.917143999999983,1202
46.19266399999994,16.973143999999984,600
46.19266399999994,16.325143999999987,575
45.86866399999994,16.973143999999984,610
45.86866399999994,17.621143999999987,675
46.19266399999994,15.677143999999986,592
46.516663999999935,16.325143999999987,517
45.54466399999994,15.677143999999986,653
45.22066399999994,15.029143999999986,720
45.54466399999994,15.029143999999986,643
45.22066399999994,15.677143999999986,712
44.572663999999946,15.677143999999986,2059
44.24866399999995,15.677143999999986,2080
43.92466399999995,16.325143999999987,1971
44.89666399999994,15.677143999999986,2023
45.54466399999994,17.621143999999987,706
45.22066399999994,16.325143999999987,646
46.516663999999935,16.973143999999984,592
45.86866399999994,18.269143999999983,1300
43.92466399999995,15.677143999999986,1770
45.22066399999994,13.733143999999989,747
47.48866399999993,19.565143999999982,514
47.16466399999993,18.917143999999983,513
47.81266399999993,18.917143999999983,466
45.54466399999994,9.845143999999989,559
45.22066399999994,9.845143999999989,569
45.22066399999994,10.493143999999988,618
45.86866399999994,9.845143999999989,579
45.86866399999994,10.493143999999988,2838
48.78466399999992,21.50914399999997,399
49.10866399999992,20.213143999999986,353
49.10866399999992,18.917143999999983,306
48.46066399999992,17.621143999999987,384
49.43266399999992,17.621143999999987,192
49.10866399999992,17.621143999999987,421
48.136663999999925,18.269143999999983,378
49.10866399999992,18.269143999999983,327
49.43266399999992,18.269143999999983,284
49.43266399999992,16.973143999999984,163
49.75666399999992,16.973143999999984,141
49.75666399999992,16.325143999999987,120
50.08066399999991,15.677143999999986,23
50.08066399999991,15.029143999999986,16
49.43266399999992,18.917143999999983,287
47.81266399999993,20.86114399999998,595
48.136663999999925,20.86114399999998,530
48.46066399999992,20.86114399999998,413
48.46066399999992,21.50914399999997,409
49.10866399999992,19.565143999999982,345
48.136663999999925,17.621143999999987,367
48.78466399999992,22.15714399999998,415
48.78466399999992,20.86114399999998,447
49.10866399999992,20.86114399999998,374
48.78466399999992,18.269143999999983,370
48.78466399999992,17.621143999999987,389
49.10866399999992,21.50914399999997,389
48.78466399999992,20.213143999999986,455
48.46066399999992,20.213143999999986,496
48.136663999999925,19.565143999999982,645
48.46066399999992,19.565143999999982,524
48.46066399999992,18.917143999999983,386
48.46066399999992,18.269143999999983,383
48.78466399999992,19.565143999999982,360
48.78466399999992,18.917143999999983,346
47.81266399999993,18.269143999999983,427
49.10866399999992,22.15714399999998,456
49.43266399999992,21.50914399999997,454
48.136663999999925,18.917143999999983,466
48.136663999999925,20.213143999999986,665
52.636,-8.018,65535
52.312,-7.370000000000001,65535
52.312,-8.018,65535
52.636,-8.666,65535
51.988,-8.666,65535
51.988,-8.018,65535
52.96,-8.666,65535
52.96,-6.074000000000002,65535
53.28399999999999,-6.722000000000001,65535
53.60799999999999,-6.722000000000001,65535
53.60799999999999,-7.370000000000001,65535
53.60799999999999,-8.018,65535
54.25599999999999,-8.666,65535
53.93199999999999,-8.666,65535
53.93199999999999,-8.018,65535
52.312,-6.722000000000001,65535
52.636,-6.722000000000001,65535
53.93199999999999,-6.722000000000001,65535
54.25599999999999,-6.074000000000002,65535
53.28399999999999,-7.370000000000001,65535
52.96,-7.370000000000001,65535
52.312,-8.666,65535
52.96,-8.018,65535
52.636,-7.370000000000001,65535
52.96,-6.722000000000001,65535
51.988,-9.314,65535
52.312,-9.314,65535
54.579999999999984,-6.722000000000001,65535
54.579999999999984,-6.074000000000002,65535
53.28399999999999,-8.018,65535
53.28399999999999,-8.666,65535
53.28399999999999,-9.314,65535
53.93199999999999,-9.314,65535
54.25599999999999,-9.314,65535
53.60799999999999,-8.666,65535
53.60799999999999,-9.314,65535
49.43266399999992,14.381143999999988,35
49.75666399999992,14.381143999999988,18
49.75666399999992,15.029143999999986,35
49.75666399999992,13.733143999999989,20
50.08066399999991,13.733143999999989,15
49.75666399999992,15.677143999999986,66
50.40466399999991,15.029143999999986,17
49.43266399999992,13.733143999999989,71
50.40466399999991,15.677143999999986,64
50.40466399999991,13.733143999999989,103
46.19266399999994,15.029143999999986,614
45.86866399999994,15.029143999999986,634
45.86866399999994,14.381143999999988,664
46.19266399999994,13.733143999999989,708
45.86866399999994,13.733143999999989,777
58.50466399999986,13.733143999999989,1442
58.180663999999865,13.733143999999989,1446
58.180663999999865,13.085143999999987,1418
57.85666399999987,12.437143999999988,1384
60.44866399999985,15.677143999999986,1667
60.124663999999854,15.677143999999986,1601
60.124663999999854,16.325143999999987,1639
59.800663999999855,16.325143999999987,1567
59.800663999999855,17.621143999999987,1546
59.47666399999986,18.269143999999983,1528
61.74466399999984,16.973143999999984,1678
61.420663999999846,16.973143999999984,1651
60.77266399999985,16.973143999999984,1603
65.63266399999982,22.15714399999998,2782
65.95666399999982,21.50914399999997,2742
65.63266399999982,20.86114399999998,2713
64.98466399999982,20.213143999999986,2645
64.66066399999983,20.213143999999986,2623
64.33666399999983,19.565143999999982,2317
64.01266399999983,19.565143999999982,2030
63.68866399999983,20.213143999999986,1983
64.66066399999983,18.917143999999983,2994
59.15266399999986,16.325143999999987,1503
59.15266399999986,15.029143999999986,1495
59.15266399999986,17.621143999999987,1520
57.53266399999987,14.381143999999988,1344
57.53266399999987,15.029143999999986,1364
61.09666399999985,14.381143999999988,1771
60.77266399999985,15.029143999999986,1722
60.44866399999985,15.029143999999986,1708
58.180663999999865,15.029143999999986,1421
58.50466399999986,16.325143999999987,1455
58.50466399999986,15.677143999999986,1428
63.36466399999984,13.085143999999987,2015
63.04066399999984,14.381143999999988,1952
62.39266399999984,15.677143999999986,1874
63.36466399999984,13.733143999999989,1997
63.36466399999984,14.381143999999988,1969
62.71666399999984,15.677143999999986,1902
62.39266399999984,17.621143999999987,1736
59.800663999999855,15.677143999999986,2013
55.58866399999988,13.733143999999989,1298
57.20866399999987,14.381143999999988,1328
57.85666399999987,14.381143999999988,1376
58.82866399999986,16.973143999999984,1512
58.82866399999986,16.325143999999987,1490
59.15266399999986,18.269143999999983,1524
60.44866399999985,17.621143999999987,1579
59.15266399999986,12.437143999999988,1483
59.15266399999986,13.085143999999987,1497
58.82866399999986,12.437143999999988,1459
59.47666399999986,16.325143999999987,1529
58.82866399999986,14.381143999999988,1536
59.47666399999986,15.677143999999986,1518
63.36466399999984,18.917143999999983,1936
63.04066399999984,17.621143999999987,1891
62.71666399999984,17.621143999999987,1865
63.68866399999983,19.565143999999982,1969
62.39266399999984,16.973143999999984,1780
59.800663999999855,16.973143999999984,1555
59.47666399999986,17.621143999999987,1532
57.85666399999987,13.085143999999987,1408
57.53266399999987,13.085143999999987,1389
58.50466399999986,11.789143999999988,1430
57.85666399999987,15.029143999999986,1410
57.20866399999987,13.733143999999989,1334
57.53266399999987,13.733143999999989,1395
61.74466399999984,16.325143999999987,1774
61.420663999999846,16.325143999999987,1741
61.09666399999985,16.325143999999987,1730
61.09666399999985,16.973143999999984,1698
60.124663999999854,15.029143999999986,1876
66.60466399999981,20.86114399999998,2817
67.25266399999981,20.86114399999998,2885
67.90066399999981,20.213143999999986,2955
67.57666399999981,20.213143999999986,3580
59.800663999999855,15.029143999999986,1596
58.50466399999986,15.029143999999986,1438
59.47666399999986,15.029143999999986,1581
60.44866399999985,16.325143999999987,1667
59.15266399999986,15.677143999999986,1525
57.85666399999987,13.733143999999989,1436
58.82866399999986,13.733143999999989,1483
58.50466399999986,13.085143999999987,1468
57.20866399999987,13.085143999999987,1365
56.88466399999987,13.085143999999987,1339
58.180663999999865,11.789143999999988,1401
62.06866399999984,16.973143999999984,1769
65.95666399999982,23.45314399999998,2823
59.800663999999855,14.381143999999988,5891
59.800663999999855,18.269143999999983,1537
63.04066399999984,15.029143999999986,1920
62.71666399999984,15.029143999999986,1910
62.39266399999984,16.325143999999987,1843
63.36466399999984,12.437143999999988,2048
68.5486639999998,17.621143999999987,3168
68.5486639999998,18.269143999999983,3101
68.5486639999998,18.917143999999983,3078
68.2246639999998,18.917143999999983,3034
59.800663999999855,13.085143999999987,1600
60.124663999999854,13.085143999999987,1639
59.47666399999986,16.973143999999984,1541
59.15266399999986,16.973143999999984,1533
56.56066399999988,13.733143999999989,1286
60.124663999999854,17.621143999999987,1556
57.85666399999987,16.325143999999987,1515
58.180663999999865,16.325143999999987,1477
58.180663999999865,15.677143999999986,1485
57.20866399999987,16.325143999999987,1527
57.53266399999987,15.677143999999986,1545
57.85666399999987,15.677143999999986,1516
44.89666399999994,23.45314399999998,2965
44.572663999999946,23.45314399999998,3035
44.89666399999994,24.74914399999998,2952
44.572663999999946,24.74914399999998,3071
44.572663999999946,24.101143999999977,3012
44.24866399999995,24.101143999999977,3041
47.48866399999993,25.397143999999983,2813
47.48866399999993,24.74914399999998,2753
47.16466399999993,24.74914399999998,2675
47.16466399999993,24.101143999999977,2577
47.48866399999993,22.15714399999998,2707
47.81266399999993,22.15714399999998,2793
47.16466399999993,22.15714399999998,2686
47.16466399999993,23.45314399999998,2738
47.16466399999993,22.805143999999984,2744
46.84066399999993,24.101143999999977,2658
45.86866399999994,27.34114399999998,2998
45.54466399999994,27.34114399999998,2979
45.54466399999994,27.989143999999985,3095
45.86866399999994,20.86114399999998,2870
45.86866399999994,21.50914399999997,2878
46.19266399999994,21.50914399999997,2814
46.19266399999994,27.34114399999998,2998
46.19266399999994,26.69314399999997,2989
46.516663999999935,26.69314399999997,2951
46.516663999999935,26.04514399999998,2847
47.48866399999993,22.805143999999984,2805
46.84066399999993,22.805143999999984,2618
45.54466399999994,22.15714399999998,2927
45.22066399999994,22.15714399999998,3005
44.89666399999994,22.15714399999998,3423
47.48866399999993,23.45314399999998,2771
46.516663999999935,24.101143999999977,2497
46.516663999999935,24.74914399999998,2711
45.86866399999994,24.101143999999977,2660
47.16466399999993,26.69314399999997,3029
47.16466399999993,27.34114399999998,3084
43.92466399999995,25.397143999999983,3043
44.24866399999995,24.74914399999998,2950
44.89666399999994,26.04514399999998,2837
44.89666399999994,26.69314399999997,2884
45.22066399999994,26.69314399999997,2919
45.22066399999994,27.34114399999998,2946
46.84066399999993,26.69314399999997,2990
47.48866399999993,26.69314399999997,2983
44.24866399999995,25.397143999999983,2882
43.92466399999995,26.04514399999998,3059
46.19266399999994,24.101143999999977,2705
44.572663999999946,25.397143999999983,2920
46.84066399999993,24.74914399999998,2718
46.516663999999935,21.50914399999997,2818
46.84066399999993,21.50914399999997,2825
44.572663999999946,26.69314399999997,2875
44.572663999999946,27.34114399999998,2896
44.89666399999994,27.34114399999998,3011
44.572663999999946,27.989143999999985,2916
44.24866399999995,27.989143999999985,2930
44.572663999999946,28.63714399999997,2981
45.86866399999994,22.15714399999998,2739
45.86866399999994,22.805143999999984,2633
44.24866399999995,23.45314399999998,3068
43.92466399999995,27.989143999999985,65535
46.84066399999993,27.34114399999998,3151
45.22066399999994,23.45314399999998,2940
45.54466399999994,23.45314399999998,2743
45.54466399999994,24.101143999999977,2690
45.22066399999994,24.101143999999977,2914
44.89666399999994,24.101143999999977,2984
46.19266399999994,22.15714399999998,2870
46.516663999999935,22.15714399999998,2836
45.22066399999994,21.50914399999997,3110
45.54466399999994,21.50914399999997,2958
45.54466399999994,20.86114399999998,2982
46.516663999999935,27.989143999999985,3101
46.19266399999994,27.989143999999985,3086
45.54466399999994,25.397143999999983,2804
45.22066399999994,25.397143999999983,2814
45.22066399999994,26.04514399999998,2870
47.81266399999993,24.101143999999977,2866
47.48866399999993,26.04514399999998,2956
47.81266399999993,26.04514399999998,2978
46.19266399999994,23.45314399999998,2537
45.86866399999994,23.45314399999998,2586
44.24866399999995,26.04514399999998,2864
45.22066399999994,27.989143999999985,3076
45.86866399999994,24.74914399999998,2699
46.516663999999935,25.397143999999983,2891
46.84066399999993,25.397143999999983,2774
46.19266399999994,26.04514399999998,2862
45.86866399999994,26.04514399999998,2827
43.92466399999995,23.45314399999998,3298
44.89666399999994,25.397143999999983,2925
46.19266399999994,20.86114399999998,2859
47.81266399999993,25.397143999999983,2990
44.572663999999946,22.805143999999984,3303
44.572663999999946,22.15714399999998,3445
46.516663999999935,23.45314399999998,2676
45.86866399999994,25.397143999999983,2753
44.24866399999995,27.34114399999998,3691
45.22066399999994,24.74914399999998,3016
45.54466399999994,22.805143999999984,2706
45.22066399999994,28.63714399999997,3136
44.89666399999994,28.63714399999997,3075
47.81266399999993,23.45314399999998,2923
46.19266399999994,24.74914399999998,2785
46.19266399999994,25.397143999999983,2809
43.92466399999995,24.101143999999977,3261
43.92466399999995,24.74914399999998,3274
47.81266399999993,26.69314399999997,3205
47.48866399999993,24.101143999999977,2798
46.84066399999993,26.04514399999998,3606
46.19266399999994,22.805143999999984,2930
47.48866399999993,27.34114399999998,3158
46.19266399999994,20.213143999999986,65535
45.54466399999994,26.04514399999998,2962
44.24866399999995,26.69314399999997,2880
45.86866399999994,27.989143999999985,3134
47.81266399999993,5.957143999999991,7066
