51.56399999999999,-0.4100000000000028,65535
51.887999999999984,-0.4100000000000028,65535
50.91599999999999,-1.7060000000000022,65535
51.23999999999999,-1.0580000000000025,65535
51.56399999999999,-1.0580000000000025,65535
51.23999999999999,-1.7060000000000022,65535
51.56399999999999,0.2379999999999968,65535
47.16466399999993,9.845143999999989,441
47.48866399999993,9.845143999999989,418
48.136663999999925,14.381143999999988,815
47.81266399999993,13.085143999999987,447
47.16466399999993,11.141143999999988,620
47.48866399999993,11.789143999999988,590
48.136663999999925,16.325143999999987,789
47.48866399999993,12.437143999999988,478
48.136663999999925,15.677143999999986,875
47.16466399999993,10.493143999999988,463
47.16466399999993,9.197143999999987,410
48.136663999999925,13.733143999999989,775
48.136663999999925,15.029143999999986,919
47.81266399999993,16.973143999999984,895
48.46066399999992,14.381143999999988,3784
47.48866399999993,13.085143999999987,490
47.16466399999993,13.085143999999987,588
47.48866399999993,14.381143999999988,1111
47.48866399999993,13.733143999999989,1191
47.48866399999993,15.029143999999986,1122
46.516663999999935,13.733143999999989,888
46.84066399999993,13.733143999999989,861
46.84066399999993,13.085143999999987,809
48.78466399999992,14.381143999999988,65535
47.16466399999993,15.677143999999986,1069
46.516663999999935,14.381143999999988,921
46.84066399999993,14.381143999999988,1033
47.16466399999993,14.381143999999988,2405
46.516663999999935,15.029143999999986,979
47.81266399999993,16.325143999999987,835
47.16466399999993,15.029143999999986,1043
47.81266399999993,15.677143999999986,976
47.48866399999993,15.677143999999986,1010
46.516663999999935,13.085143999999987,2774
46.84066399999993,12.437143999999988,839
48.136663999999925,11.789143999999988,417
47.81266399999993,12.437143999999988,441
46.84066399999993,15.677143999999986,1245
46.516663999999935,15.677143999999986,1022
46.84066399999993,16.325143999999987,1185
47.81266399999993,14.381143999999988,1045
48.78466399999992,16.973143999999984,611
48.136663999999925,16.973143999999984,777
48.46066399999992,13.733143999999989,505
47.81266399999993,13.733143999999989,851
50.08066399999991,8.54914399999999,280
48.46066399999992,9.845143999999989,372
51.05266399999991,7.25314399999999,239
51.37666399999991,7.25314399999999,231
51.37666399999991,6.60514399999999,233
48.46066399999992,16.325143999999987,827
48.46066399999992,16.973143999999984,733
48.78466399999992,16.325143999999987,954
48.46066399999992,15.677143999999986,880
48.78466399999992,15.677143999999986,887
47.48866399999993,16.325143999999987,959
47.16466399999993,16.325143999999987,1134
46.19266399999994,14.381143999999988,942
45.86866399999994,15.677143999999986,984
43.60066399999995,16.325143999999987,2515
45.54466399999994,14.381143999999988,986
45.54466399999994,13.733143999999989,1070
48.136663999999925,13.085143999999987,442
48.46066399999992,11.141143999999988,411
48.136663999999925,11.141143999999988,419
48.46066399999992,7.90114399999999,321
49.10866399999992,8.54914399999999,303
48.78466399999992,2.0691439999999925,926
49.10866399999992,7.25314399999999,319
52.0246639999999,7.90114399999999,230
47.16466399999993,11.789143999999988,631
49.43266399999992,11.141143999999988,345
53.64466399999989,9.845143999999989,239
50.72866399999991,4.013143999999992,291
51.05266399999991,11.141143999999988,228
47.48866399999993,11.141143999999988,454
46.84066399999993,11.789143999999988,1502
46.516663999999935,11.141143999999988,1382
45.54466399999994,11.141143999999988,1288
46.19266399999994,11.141143999999988,1376
45.86866399999994,11.141143999999988,1363
44.572663999999946,11.141143999999988,1332
43.92466399999995,12.437143999999988,65535
45.54466399999994,12.437143999999988,1334
45.54466399999994,11.789143999999988,1315
48.78466399999992,15.029143999999986,1692
47.81266399999993,15.029143999999986,930
47.81266399999993,11.141143999999988,428
50.40466399999991,18.917143999999983,759
52.3486639999999,20.86114399999998,1004
54.616663999999886,18.269143999999983,280
54.29266399999989,18.917143999999983,303
49.10866399999992,14.381143999999988,65535
50.08066399999991,14.381143999999988,303
48.78466399999992,13.733143999999989,955
52.6726639999999,13.085143999999987,106
52.3486639999999,13.085143999999987,108
53.96866399999989,12.437143999999988,151
54.29266399999989,12.437143999999988,139
47.48866399999993,8.54914399999999,394
47.81266399999993,17.621143999999987,868
47.48866399999993,18.917143999999983,900
47.48866399999993,20.86114399999998,1436
46.84066399999993,23.45314399999998,1918
44.572663999999946,26.04514399999998,2367
47.48866399999993,21.50914399999997,1472
47.81266399999993,21.50914399999997,1868
48.46066399999992,22.15714399999998,997
47.48866399999993,16.973143999999984,65535
49.10866399999992,16.325143999999987,567
49.75666399999992,18.269143999999983,559
46.19266399999994,13.085143999999987,2303
41.98066399999996,12.437143999999988,2470
43.60066399999995,10.493143999999988,2726
45.54466399999994,9.197143999999987,810
47.81266399999993,22.805143999999984,1723
49.75666399999992,22.805143999999984,997
50.72866399999991,3.365143999999992,302
51.05266399999991,4.013143999999992,295
50.72866399999991,4.661143999999991,289
51.05266399999991,4.661143999999991,293
51.05266399999991,3.365143999999992,304
51.05266399999991,2.717143999999992,347
50.40466399999991,4.661143999999991,303
50.72866399999991,2.717143999999992,334
50.40466399999991,4.013143999999992,308
51.05266399999991,5.309143999999991,301
50.72866399999991,5.309143999999991,268
51.37666399999991,3.365143999999992,358
51.37666399999991,4.661143999999991,309
50.72866399999991,5.957143999999991,249
50.40466399999991,5.957143999999991,253
50.40466399999991,3.365143999999992,316
50.40466399999991,5.309143999999991,274
50.08066399999991,5.309143999999991,319
49.75666399999992,5.309143999999991,361
49.75666399999992,5.957143999999991,360
51.37666399999991,5.309143999999991,356
51.700663999999904,4.661143999999991,338
50.08066399999991,4.013143999999992,337
50.08066399999991,5.957143999999991,321
50.08066399999991,4.661143999999991,412
49.43266399999992,5.309143999999991,398
49.43266399999992,5.957143999999991,388
52.0246639999999,4.661143999999991,2229
52.3486639999999,4.661143999999991,2264
50.72866399999991,15.029143999999986,231
51.05266399999991,15.029143999999986,207
51.05266399999991,13.733143999999989,179
50.40466399999991,13.085143999999987,227
49.10866399999992,7.90114399999999,314
48.78466399999992,7.90114399999999,310
50.40466399999991,7.90114399999999,271
50.08066399999991,7.90114399999999,284
49.75666399999992,7.90114399999999,293
49.43266399999992,7.90114399999999,308
49.75666399999992,8.54914399999999,291
49.43266399999992,8.54914399999999,300
49.43266399999992,9.197143999999987,318
49.10866399999992,9.197143999999987,308
47.48866399999993,7.90114399999999,398
47.81266399999993,7.90114399999999,352
48.136663999999925,7.90114399999999,344
48.136663999999925,9.845143999999989,383
47.81266399999993,9.197143999999987,410
47.81266399999993,8.54914399999999,378
47.81266399999993,9.845143999999989,407
54.940663999999884,9.197143999999987,299
54.616663999999886,9.197143999999987,287
54.29266399999989,9.197143999999987,270
53.96866399999989,9.197143999999987,265
53.64466399999989,9.197143999999987,251
54.616663999999886,9.845143999999989,292
54.29266399999989,9.845143999999989,281
53.96866399999989,9.845143999999989,254
53.64466399999989,10.493143999999988,234
53.96866399999989,10.493143999999988,221
53.96866399999989,11.141143999999988,191
54.29266399999989,10.493143999999988,243
53.32066399999989,10.493143999999988,219
54.940663999999884,11.141143999999988,289
52.6726639999999,13.733143999999989,104
52.3486639999999,13.733143999999989,106
52.3486639999999,14.381143999999988,127
52.0246639999999,14.381143999999988,140
52.0246639999999,11.789143999999988,154
52.3486639999999,11.789143999999988,147
52.3486639999999,12.437143999999988,127
52.0246639999999,15.029143999999986,163
51.700663999999904,14.381143999999988,157
52.0246639999999,13.733143999999989,135
51.700663999999904,13.733143999999989,160
52.6726639999999,12.437143999999988,128
53.32066399999989,11.789143999999988,178
53.96866399999989,11.789143999999988,143
53.64466399999989,11.789143999999988,158
53.64466399999989,11.141143999999988,164
53.32066399999989,11.141143999999988,202
52.996663999999896,11.789143999999988,152
52.996663999999896,12.437143999999988,144
52.996663999999896,13.733143999999989,86
53.64466399999989,13.733143999999989,97
53.96866399999989,13.733143999999989,110
54.29266399999989,13.085143999999987,117
53.96866399999989,13.085143999999987,157
53.32066399999989,13.733143999999989,107
52.0246639999999,13.085143999999987,136
51.700663999999904,13.085143999999987,165
52.996663999999896,14.381143999999988,50
52.0246639999999,12.437143999999988,132
51.700663999999904,12.437143999999988,169
51.37666399999991,11.789143999999988,181
51.37666399999991,12.437143999999988,173
52.6726639999999,11.789143999999988,143
53.64466399999989,13.085143999999987,140
53.32066399999989,13.085143999999987,164
52.996663999999896,13.085143999999987,106
53.64466399999989,12.437143999999988,162
51.37666399999991,13.733143999999989,166
53.32066399999989,12.437143999999988,176
52.6726639999999,14.381143999999988,77
51.37666399999991,13.085143999999987,191
53.32066399999989,14.381143999999988,0
52.3486639999999,15.029143999999986,156
52.0246639999999,15.677143999999986,201
51.700663999999904,15.029143999999986,170
51.05266399999991,16.325143999999987,269
51.05266399999991,16.973143999999984,284
51.700663999999904,15.677143999999986,212
51.37666399999991,15.677143999999986,224
51.37666399999991,16.325143999999987,242
50.72866399999991,13.085143999999987,205
50.72866399999991,12.437143999999988,190
51.05266399999991,13.085143999999987,192
51.05266399999991,14.381143999999988,183
50.40466399999991,12.437143999999988,210
50.40466399999991,11.789143999999988,253
50.08066399999991,12.437143999999988,302
50.72866399999991,11.789143999999988,237
51.05266399999991,12.437143999999988,179
50.72866399999991,14.381143999999988,314
51.37666399999991,14.381143999999988,194
50.72866399999991,13.733143999999989,215
50.40466399999991,14.381143999999988,297
51.37666399999991,15.029143999999986,225
55.26466399999988,9.197143999999987,348
55.58866399999988,8.54914399999999,382
55.91266399999988,8.54914399999999,2239
56.23666399999988,9.197143999999987,2247
56.23666399999988,10.493143999999988,2200
56.23666399999988,9.845143999999989,2187
55.91266399999988,9.845143999999989,2125
56.56066399999988,9.197143999999987,2257
56.56066399999988,8.54914399999999,2300
51.05266399999991,6.60514399999999,238
51.700663999999904,7.90114399999999,228
50.72866399999991,6.60514399999999,247
51.700663999999904,7.25314399999999,236
50.72866399999991,7.25314399999999,253
52.0246639999999,7.25314399999999,243
52.3486639999999,7.90114399999999,244
51.05266399999991,5.957143999999991,244
50.40466399999991,7.25314399999999,259
51.700663999999904,6.60514399999999,242
51.700663999999904,5.957143999999991,248
52.3486639999999,9.197143999999987,181
51.700663999999904,8.54914399999999,217
52.0246639999999,8.54914399999999,200
52.3486639999999,8.54914399999999,193
51.37666399999991,7.90114399999999,234
52.3486639999999,7.25314399999999,258
51.37666399999991,5.957143999999991,281
50.72866399999991,7.90114399999999,271
51.37666399999991,9.197143999999987,234
51.700663999999904,9.197143999999987,213
50.40466399999991,6.60514399999999,286
51.05266399999991,7.90114399999999,254
51.37666399999991,8.54914399999999,281
52.0246639999999,5.957143999999991,291
52.3486639999999,6.60514399999999,266
51.05266399999991,8.54914399999999,344
52.0246639999999,9.197143999999987,197
52.6726639999999,9.197143999999987,212
52.0246639999999,9.845143999999989,182
51.700663999999904,9.845143999999989,191
51.37666399999991,9.845143999999989,210
50.72866399999991,8.54914399999999,282
51.05266399999991,9.845143999999989,228
50.72866399999991,9.845143999999989,248
50.40466399999991,9.845143999999989,277
51.05266399999991,9.197143999999987,320
50.40466399999991,9.197143999999987,298
50.08066399999991,9.197143999999987,288
51.05266399999991,10.493143999999988,256
50.40466399999991,8.54914399999999,278
50.72866399999991,9.197143999999987,270
49.75666399999992,9.197143999999987,305
52.996663999999896,9.197143999999987,249
52.3486639999999,9.845143999999989,173
52.996663999999896,8.54914399999999,266
52.996663999999896,7.90114399999999,293
53.32066399999989,7.90114399999999,310
53.32066399999989,7.25314399999999,373
53.64466399999989,7.25314399999999,418
52.996663999999896,10.493143999999988,203
52.6726639999999,10.493143999999988,196
52.6726639999999,9.845143999999989,180
53.32066399999989,9.845143999999989,229
53.32066399999989,9.197143999999987,240
53.64466399999989,8.54914399999999,290
53.32066399999989,8.54914399999999,269
52.6726639999999,8.54914399999999,243
52.0246639999999,10.493143999999988,212
52.0246639999999,11.141143999999988,182
51.700663999999904,11.141143999999988,196
52.6726639999999,7.25314399999999,425
52.996663999999896,7.25314399999999,399
52.6726639999999,7.90114399999999,281
53.64466399999989,7.90114399999999,341
52.996663999999896,11.141143999999988,163
52.6726639999999,11.141143999999988,153
52.3486639999999,10.493143999999988,165
52.996663999999896,9.845143999999989,216
51.700663999999904,10.493143999999988,198
51.37666399999991,10.493143999999988,243
51.700663999999904,11.789143999999988,172
52.3486639999999,11.141143999999988,159
51.37666399999991,11.141143999999988,224
51.05266399999991,11.789143999999988,231
49.10866399999992,11.141143999999988,355
48.78466399999992,11.141143999999988,400
48.46066399999992,11.789143999999988,410
49.43266399999992,11.789143999999988,348
50.08066399999991,11.789143999999988,275
49.75666399999992,12.437143999999988,327
49.10866399999992,11.789143999999988,376
48.78466399999992,12.437143999999988,444
48.46066399999992,12.437143999999988,451
49.10866399999992,12.437143999999988,386
48.78466399999992,13.085143999999987,471
48.136663999999925,12.437143999999988,433
47.81266399999993,11.789143999999988,428
48.136663999999925,10.493143999999988,406
47.81266399999993,10.493143999999988,429
48.78466399999992,10.493143999999988,400
47.48866399999993,10.493143999999988,448
48.46066399999992,10.493143999999988,397
49.43266399999992,13.085143999999987,938
48.46066399999992,13.085143999999987,496
49.43266399999992,10.493143999999988,368
49.75666399999992,9.845143999999989,333
49.75666399999992,10.493143999999988,334
50.40466399999991,11.141143999999988,255
50.08066399999991,11.141143999999988,274
50.72866399999991,11.141143999999988,232
49.75666399999992,11.141143999999988,320
48.78466399999992,11.789143999999988,396
50.40466399999991,10.493143999999988,265
50.08066399999991,9.845143999999989,305
50.08066399999991,10.493143999999988,293
49.43266399999992,12.437143999999988,330
49.75666399999992,11.789143999999988,322
49.10866399999992,13.085143999999987,568
50.72866399999991,10.493143999999988,258
49.10866399999992,10.493143999999988,387
48.78466399999992,9.845143999999989,325
48.46066399999992,8.54914399999999,324
48.46066399999992,9.197143999999987,325
48.78466399999992,9.197143999999987,313
48.78466399999992,8.54914399999999,305
50.08066399999991,7.25314399999999,286
49.75666399999992,6.60514399999999,351
49.43266399999992,6.60514399999999,346
49.10866399999992,6.60514399999999,338
49.43266399999992,7.25314399999999,317
49.75666399999992,7.25314399999999,311
49.10866399999992,5.957143999999991,411
48.78466399999992,7.25314399999999,402
50.08066399999991,6.60514399999999,348
47.48866399999993,9.197143999999987,405
48.136663999999925,8.54914399999999,341
48.136663999999925,9.197143999999987,345
47.81266399999993,7.25314399999999,374
49.43266399999992,9.845143999999989,344
49.10866399999992,9.845143999999989,320
53.64466399999989,14.381143999999988,93
50.08066399999991,13.085143999999987,433
49.75666399999992,13.085143999999987,395
45.86866399999994,9.197143999999987,565
46.19266399999994,9.197143999999987,534
46.516663999999935,8.54914399999999,872
46.516663999999935,9.197143999999987,859
46.19266399999994,8.54914399999999,521
47.16466399999993,8.54914399999999,418
45.86866399999994,4.661143999999991,1042
46.84066399999993,9.845143999999989,458
45.22066399999994,5.957143999999991,1010
45.22066399999994,5.309143999999991,1057
45.86866399999994,5.957143999999991,550
45.54466399999994,5.957143999999991,984
44.89666399999994,4.661143999999991,1104
44.89666399999994,5.309143999999991,1109
44.572663999999946,4.661143999999991,1135
44.24866399999995,4.661143999999991,1102
43.92466399999995,4.661143999999991,1067
46.19266399999994,7.25314399999999,490
48.78466399999992,5.957143999999991,504
48.136663999999925,6.60514399999999,1029
48.46066399999992,6.60514399999999,910
48.78466399999992,6.60514399999999,924
47.16466399999993,7.90114399999999,405
48.136663999999925,7.25314399999999,336
48.46066399999992,7.25314399999999,325
46.516663999999935,6.60514399999999,469
46.84066399999993,6.60514399999999,427
46.84066399999993,7.25314399999999,419
46.516663999999935,5.957143999999991,474
46.19266399999994,5.957143999999991,480
46.84066399999993,8.54914399999999,411
46.84066399999993,7.90114399999999,410
45.86866399999994,5.309143999999991,1002
46.19266399999994,6.60514399999999,515
45.86866399999994,6.60514399999999,513
47.48866399999993,6.60514399999999,820
47.48866399999993,7.25314399999999,389
47.16466399999993,7.25314399999999,411
49.10866399999992,4.013143999999992,922
49.75666399999992,4.661143999999991,1017
49.43266399999992,4.661143999999991,1012
49.10866399999992,5.309143999999991,894
46.19266399999994,4.661143999999991,1069
46.84066399999993,9.197143999999987,444
46.19266399999994,5.309143999999991,1001
46.516663999999935,5.309143999999991,959
45.54466399999994,6.60514399999999,1095
45.54466399999994,5.309143999999991,1051
43.60066399999995,4.013143999999992,1106
43.60066399999995,3.365143999999992,1144
42.62866399999996,2.717143999999992,1214
43.276663999999954,2.717143999999992,1176
45.54466399999994,4.661143999999991,1046
45.22066399999994,4.661143999999991,1076
47.16466399999993,5.309143999999991,943
47.16466399999993,5.957143999999991,907
46.19266399999994,7.90114399999999,508
49.75666399999992,2.717143999999992,376
49.10866399999992,2.717143999999992,896
48.78466399999992,2.717143999999992,911
45.86866399999994,3.365143999999992,1219
46.84066399999993,3.365143999999992,1072
46.516663999999935,3.365143999999992,1146
46.19266399999994,3.365143999999992,1160
47.16466399999993,6.60514399999999,421
49.10866399999992,3.365143999999992,947
45.54466399999994,4.013143999999992,1099
46.516663999999935,7.25314399999999,441
47.16466399999993,4.661143999999991,990
46.84066399999993,4.661143999999991,1017
46.516663999999935,4.661143999999991,1041
46.84066399999993,5.957143999999991,921
47.81266399999993,3.365143999999992,1008
47.48866399999993,4.013143999999992,1067
48.136663999999925,4.013143999999992,970
47.81266399999993,4.013143999999992,1041
47.48866399999993,4.661143999999991,1063
47.16466399999993,3.365143999999992,1107
46.84066399999993,4.013143999999992,1040
48.46066399999992,5.957143999999991,1001
46.19266399999994,2.717143999999992,1271
47.16466399999993,2.0691439999999925,1028
46.516663999999935,2.717143999999992,1405
46.84066399999993,2.717143999999992,1244
46.84066399999993,2.0691439999999925,1167
47.16466399999993,2.717143999999992,1065
44.572663999999946,5.309143999999991,1148
44.572663999999946,5.957143999999991,1043
44.89666399999994,6.60514399999999,994
44.572663999999946,6.60514399999999,1009
43.60066399999995,5.309143999999991,1089
43.92466399999995,7.25314399999999,1085
43.60066399999995,6.60514399999999,1106
43.276663999999954,6.60514399999999,1157
43.276663999999954,5.957143999999991,1150
45.86866399999994,8.54914399999999,595
45.54466399999994,8.54914399999999,795
48.136663999999925,3.365143999999992,989
48.46066399999992,3.365143999999992,998
48.46066399999992,2.717143999999992,1023
47.48866399999993,5.309143999999991,1089
46.516663999999935,9.845143999999989,501
46.84066399999993,10.493143999999988,968
47.81266399999993,5.309143999999991,893
45.22066399999994,6.60514399999999,1014
46.19266399999994,4.013143999999992,1121
45.86866399999994,4.013143999999992,1139
45.22066399999994,4.013143999999992,1277
44.89666399999994,4.013143999999992,1344
46.84066399999993,5.309143999999991,1050
48.136663999999925,-1.8188560000000056,1059
48.136663999999925,0.1251439999999934,1053
48.136663999999925,-0.5228560000000062,1032
47.48866399999993,-0.5228560000000062,1098
47.16466399999993,-1.8188560000000056,1138
47.48866399999993,0.7731439999999932,995
47.16466399999993,0.1251439999999934,1108
45.86866399999994,7.25314399999999,518
48.136663999999925,5.309143999999991,919
49.10866399999992,4.661143999999991,980
48.46066399999992,4.013143999999992,992
48.136663999999925,4.661143999999991,941
47.81266399999993,6.60514399999999,837
47.48866399999993,5.957143999999991,853
48.136663999999925,5.957143999999991,1406
45.86866399999994,7.90114399999999,552
46.516663999999935,7.90114399999999,436
49.43266399999992,3.365143999999992,1107
49.43266399999992,4.013143999999992,999
48.136663999999925,2.717143999999992,1090
47.81266399999993,2.717143999999992,1101
47.48866399999993,2.717143999999992,1121
50.40466399999991,2.717143999999992,343
48.46066399999992,-4.410856000000004,1298
48.46066399999992,-3.7628560000000046,1260
48.46066399999992,-3.114856000000005,1231
48.46066399999992,-2.4668560000000053,1150
47.48866399999993,1.4211439999999929,1014
47.16466399999993,1.4211439999999929,1096
46.516663999999935,4.013143999999992,1046
43.60066399999995,4.661143999999991,1095
44.89666399999994,2.717143999999992,1398
45.22066399999994,2.717143999999992,1348
45.54466399999994,3.365143999999992,1231
45.22066399999994,3.365143999999992,1300
47.48866399999993,3.365143999999992,1066
46.19266399999994,9.845143999999989,893
47.81266399999993,2.0691439999999925,982
47.48866399999993,2.0691439999999925,1057
45.86866399999994,2.717143999999992,1240
44.89666399999994,5.957143999999991,1110
45.22066399999994,1.4211439999999929,1209
44.89666399999994,1.4211439999999929,1286
44.89666399999994,2.0691439999999925,1452
43.276663999999954,2.0691439999999925,1229
43.60066399999995,1.4211439999999929,1276
48.78466399999992,4.661143999999991,999
48.78466399999992,5.309143999999991,1113
46.19266399999994,2.0691439999999925,1216
45.86866399999994,1.4211439999999929,1138
46.19266399999994,1.4211439999999929,1103
44.572663999999946,4.013143999999992,1313
44.89666399999994,3.365143999999992,1362
43.92466399999995,4.013143999999992,1112
44.24866399999995,4.013143999999992,1129
44.89666399999994,-0.5228560000000062,1142
45.54466399999994,0.1251439999999934,1103
46.516663999999935,0.1251439999999934,1042
44.572663999999946,2.0691439999999925,1338
49.75666399999992,4.013143999999992,1267
43.92466399999995,3.365143999999992,1587
43.92466399999995,2.717143999999992,1548
44.24866399999995,3.365143999999992,1501
44.572663999999946,3.365143999999992,1379
49.10866399999992,0.1251439999999934,1066
49.43266399999992,0.7731439999999932,1015
49.43266399999992,-1.8188560000000056,1196
49.10866399999992,-1.170856000000006,1120
49.10866399999992,-0.5228560000000062,1079
49.10866399999992,0.7731439999999932,1130
49.10866399999992,1.4211439999999929,1010
47.81266399999993,-1.8188560000000056,1143
47.81266399999993,-2.4668560000000053,1168
47.81266399999993,-3.114856000000005,1181
48.136663999999925,-3.7628560000000046,1244
44.572663999999946,9.197143999999987,956
44.89666399999994,8.54914399999999,897
45.22066399999994,9.197143999999987,829
45.54466399999994,10.493143999999988,907
44.572663999999946,10.493143999999988,1318
44.89666399999994,10.493143999999988,973
44.89666399999994,9.845143999999989,900
48.46066399999992,5.309143999999991,974
50.91599999999999,-1.0580000000000025,65535
51.23999999999999,-0.4100000000000028,65535
50.91599999999999,-0.4100000000000028,65535
51.23999999999999,-2.354000000000002,65535
51.56399999999999,-2.354000000000002,65535
51.56399999999999,-3.0020000000000016,65535
50.91599999999999,-2.354000000000002,65535
53.50799999999997,-3.0020000000000016,65535
53.183999999999976,-2.354000000000002,65535
53.183999999999976,-3.0020000000000016,65535
52.85999999999998,-2.354000000000002,65535
52.21199999999998,-1.0580000000000025,65535
51.887999999999984,-1.0580000000000025,65535
52.53599999999998,-1.0580000000000025,65535
52.53599999999998,-1.7060000000000022,65535
52.85999999999998,-1.7060000000000022,65535
53.50799999999997,-2.354000000000002,65535
52.85999999999998,-1.0580000000000025,65535
52.53599999999998,1.5339999999999965,65535
52.53599999999998,0.8859999999999966,65535
52.53599999999998,0.2379999999999968,65535
52.53599999999998,-0.4100000000000028,65535
53.50799999999997,-1.7060000000000022,65535
53.183999999999976,-1.7060000000000022,65535
53.183999999999976,-1.0580000000000025,65535
52.85999999999998,-0.4100000000000028,65535
51.887999999999984,-2.354000000000002,65535
52.21199999999998,-2.354000000000002,65535
55.77599999999996,-2.354000000000002,65535
53.83199999999997,-1.0580000000000025,65535
53.83199999999997,-1.7060000000000022,65535
55.127999999999965,-1.7060000000000022,65535
54.80399999999997,-1.7060000000000022,65535
54.47999999999997,-1.7060000000000022,65535
54.15599999999997,-1.0580000000000025,65535
52.21199999999998,-1.7060000000000022,65535
53.50799999999997,-1.0580000000000025,65535
55.77599999999996,-3.0020000000000016,65535
55.45199999999996,-1.7060000000000022,65535
57.07199999999995,-2.354000000000002,65535
56.74799999999996,-3.0020000000000016,65535
56.42399999999996,-3.0020000000000016,65535
56.09999999999996,-3.650000000000001,65535
50.91599999999999,-3.0020000000000016,65535
50.91599999999999,-3.650000000000001,65535
50.59199999999999,-3.650000000000001,65535
50.59199999999999,-4.298000000000001,65535
51.23999999999999,-3.0020000000000016,65535
50.268,-4.946000000000001,65535
55.77599999999996,-3.650000000000001,65535
55.77599999999996,-4.298000000000001,65535
52.21199999999998,-0.4100000000000028,65535
52.53599999999998,-2.354000000000002,65535
51.56399999999999,-1.7060000000000022,65535
51.56399999999999,-3.650000000000001,65535
51.887999999999984,-4.298000000000001,65535
51.56399999999999,-4.298000000000001,65535
51.887999999999984,-1.7060000000000022,65535
52.21199999999998,-3.0020000000000016,65535
51.23999999999999,0.2379999999999968,65535
50.91599999999999,0.2379999999999968,65535
52.21199999999998,0.2379999999999968,65535
53.83199999999997,-3.0020000000000016,65535
54.15599999999997,-3.0020000000000016,65535
54.47999999999997,-3.0020000000000016,65535
55.127999999999965,-3.650000000000001,65535
54.80399999999997,-3.0020000000000016,65535
53.83199999999997,-2.354000000000002,65535
54.15599999999997,-0.4100000000000028,65535
54.47999999999997,-1.0580000000000025,65535
53.83199999999997,-0.4100000000000028,65535
53.183999999999976,-3.650000000000001,65535
53.183999999999976,-4.298000000000001,65535
52.85999999999998,-3.0020000000000016,65535
52.53599999999998,-3.0020000000000016,65535
51.887999999999984,-3.0020000000000016,65535
51.23999999999999,0.8859999999999966,65535
51.887999999999984,0.2379999999999968,65535
52.21199999999998,0.8859999999999966,65535
51.887999999999984,-4.946000000000001,65535
52.53599999999998,-3.650000000000001,65535
52.21199999999998,-4.298000000000001,65535
53.183999999999976,-0.4100000000000028,65535
51.23999999999999,-3.650000000000001,65535
51.887999999999984,-3.650000000000001,65535
52.21199999999998,-3.650000000000001,65535
51.56399999999999,0.8859999999999966,65535
51.887999999999984,0.8859999999999966,65535
52.85999999999998,0.8859999999999966,65535
53.50799999999997,-0.4100000000000028,65535
56.09999999999996,-4.298000000000001,65535
56.74799999999996,-4.946000000000001,65535
56.74799999999996,-4.298000000000001,65535
56.42399999999996,-4.946000000000001,65535
56.42399999999996,-4.298000000000001,65535
56.09999999999996,-4.946000000000001,65535
57.39599999999995,-4.298000000000001,65535
57.39599999999995,-3.0020000000000016,65535
57.39599999999995,-3.650000000000001,65535
56.42399999999996,-3.650000000000001,65535
57.07199999999995,-3.650000000000001,65535
57.07199999999995,-4.298000000000001,65535
56.74799999999996,-3.650000000000001,65535
59.15266399999986,27.34114399999998,65535
59.47666399999986,26.69314399999997,65535
59.47666399999986,26.04514399999998,65535
59.15266399999986,26.04514399999998,65535
59.15266399999986,24.74914399999998,65535
59.15266399999986,25.397143999999983,65535
59.47666399999986,25.397143999999983,65535
58.50466399999986,26.69314399999997,65535
58.82866399999986,26.69314399999997,65535
57.85666399999987,26.04514399999998,65535
58.180663999999865,26.04514399999998,65535
58.180663999999865,26.69314399999997,65535
58.82866399999986,26.04514399999998,65535
58.50466399999986,25.397143999999983,65535
58.82866399999986,25.397143999999983,65535
58.82866399999986,24.74914399999998,65535
58.180663999999865,27.34114399999998,65535
57.85666399999987,27.34114399999998,65535
63.68866399999983,27.34114399999998,65535
60.124663999999854,24.74914399999998,65535
60.44866399999985,24.74914399999998,65535
60.44866399999985,25.397143999999983,65535
60.77266399999985,25.397143999999983,65535
61.09666399999985,26.04514399999998,65535
60.77266399999985,26.04514399999998,65535
60.77266399999985,26.69314399999997,65535
61.09666399999985,25.397143999999983,65535
61.09666399999985,26.69314399999997,65535
61.420663999999846,26.69314399999997,65535
61.74466399999984,27.34114399999998,65535
62.06866399999984,27.34114399999998,65535
62.39266399999984,27.34114399999998,65535
62.71666399999984,27.34114399999998,65535
64.01266399999983,27.34114399999998,65535
63.36466399999984,27.34114399999998,65535
63.04066399999984,27.34114399999998,65535
63.04066399999984,27.989143999999985,65535
64.33666399999983,27.989143999999985,65535
64.33666399999983,27.34114399999998,65535
64.66066399999983,27.34114399999998,65535
64.66066399999983,26.69314399999997,4756
64.98466399999982,25.397143999999983,4519
64.66066399999983,26.04514399999998,4736
64.98466399999982,26.04514399999998,4720
66.28066399999982,25.397143999999983,65535
65.95666399999982,24.74914399999998,4432
65.63266399999982,24.74914399999998,4436
65.63266399999982,25.397143999999983,4478
65.30866399999982,25.397143999999983,4499
66.60466399999981,25.397143999999983,65535
64.01266399999983,24.74914399999998,4656
64.01266399999983,24.101143999999977,4691
64.01266399999983,23.45314399999998,4715
63.68866399999983,23.45314399999998,4727
63.68866399999983,22.805143999999984,4752
63.68866399999983,26.04514399999998,65535
63.68866399999983,25.397143999999983,65535
63.68866399999983,26.69314399999997,65535
60.44866399999985,26.69314399999997,65535
64.01266399999983,27.989143999999985,65535
62.71666399999984,22.805143999999984,65535
62.39266399999984,22.805143999999984,65535
62.06866399999984,22.805143999999984,65535
62.06866399999984,23.45314399999998,65535
61.74466399999984,23.45314399999998,65535
61.420663999999846,23.45314399999998,65535
61.09666399999985,23.45314399999998,65535
61.09666399999985,24.101143999999977,65535
61.09666399999985,24.74914399999998,65535
60.77266399999985,24.74914399999998,65535
63.04066399999984,21.50914399999997,65535
63.04066399999984,22.15714399999998,65535
63.04066399999984,22.805143999999984,65535
62.39266399999984,26.04514399999998,65535
62.06866399999984,25.397143999999983,65535
61.74466399999984,25.397143999999983,65535
61.74466399999984,24.74914399999998,65535
61.74466399999984,24.101143999999977,65535
61.420663999999846,24.101143999999977,65535
62.39266399999984,26.69314399999997,65535
64.66066399999983,25.397143999999983,4588
64.66066399999983,24.74914399999998,4606
64.33666399999983,24.74914399999998,4617
63.36466399999984,22.805143999999984,4777
67.25266399999981,24.101143999999977,3866
66.92866399999981,24.101143999999977,3830
66.60466399999981,23.45314399999998,3799
66.28066399999982,23.45314399999998,3781
66.28066399999982,24.101143999999977,3763
65.95666399999982,24.101143999999977,1885
60.124663999999854,24.101143999999977,65535
60.124663999999854,23.45314399999998,65535
60.44866399999985,22.805143999999984,65535
60.77266399999985,27.34114399999998,65535
61.09666399999985,27.989143999999985,65535
61.09666399999985,28.63714399999997,65535
61.420663999999846,29.28514399999997,65535
61.74466399999984,29.933143999999977,65535
62.06866399999984,29.933143999999977,65535
62.39266399999984,29.933143999999977,65535
62.71666399999984,29.933143999999977,65535
61.420663999999846,22.805143999999984,65535
61.420663999999846,22.15714399999998,65535
61.09666399999985,22.15714399999998,65535
61.420663999999846,21.50914399999997,65535
62.39266399999984,27.989143999999985,65535
62.06866399999984,27.989143999999985,65535
61.420663999999846,27.34114399999998,65535
63.04066399999984,29.933143999999977,65535
63.68866399999983,29.28514399999997,65535
63.36466399999984,29.28514399999997,65535
63.36466399999984,29.933143999999977,65535
60.44866399999985,27.34114399999998,65535
61.74466399999984,29.28514399999997,65535
62.39266399999984,30.58114399999998,65535
62.71666399999984,31.229143999999977,65535
62.71666399999984,29.28514399999997,65535
63.04066399999984,28.63714399999997,65535
66.60466399999981,26.04514399999998,65535
66.60466399999981,26.69314399999997,65535
66.60466399999981,27.34114399999998,65535
62.71666399999984,26.04514399999998,65535
62.71666399999984,25.397143999999983,65535
63.04066399999984,25.397143999999983,65535
63.36466399999984,25.397143999999983,65535
62.71666399999984,23.45314399999998,65535
62.39266399999984,24.101143999999977,65535
62.71666399999984,22.15714399999998,65535
62.39266399999984,22.15714399999998,65535
62.39266399999984,21.50914399999997,65535
61.09666399999985,21.50914399999997,65535
60.77266399999985,22.805143999999984,65535
60.44866399999985,22.15714399999998,65535
60.77266399999985,23.45314399999998,65535
60.77266399999985,21.50914399999997,65535
60.77266399999985,22.15714399999998,65535
60.124663999999854,22.805143999999984,65535
60.44866399999985,24.101143999999977,65535
62.06866399999984,24.74914399999998,65535
50.72866399999991,16.325143999999987,276
50.40466399999991,16.973143999999984,318
50.72866399999991,16.973143999999984,289
50.40466399999991,16.325143999999987,358
50.08066399999991,16.973143999999984,411
50.08066399999991,16.325143999999987,408
51.700663999999904,16.973143999999984,237
51.37666399999991,16.973143999999984,259
51.05266399999991,15.677143999999986,262
50.72866399999991,15.677143999999986,325
51.05266399999991,17.621143999999987,306
51.37666399999991,17.621143999999987,281
51.700663999999904,17.621143999999987,252
51.700663999999904,16.325143999999987,223
52.0246639999999,22.15714399999998,1018
52.0246639999999,21.50914399999997,1014
52.3486639999999,21.50914399999997,1014
52.0246639999999,20.86114399999998,1008
51.700663999999904,20.86114399999998,1052
51.37666399999991,21.50914399999997,1061
51.37666399999991,20.86114399999998,1055
51.05266399999991,20.86114399999998,1001
52.6726639999999,23.45314399999998,1267
52.3486639999999,22.805143999999984,1209
52.3486639999999,20.213143999999986,1032
52.0246639999999,20.213143999999986,1043
52.3486639999999,19.565143999999982,848
52.6726639999999,19.565143999999982,885
51.700663999999904,21.50914399999997,1028
51.700663999999904,22.15714399999998,1043
52.6726639999999,21.50914399999997,1053
52.996663999999896,21.50914399999997,1140
52.6726639999999,20.86114399999998,1045
52.6726639999999,22.15714399999998,1129
52.6726639999999,20.213143999999986,981
52.996663999999896,19.565143999999982,937
52.996663999999896,20.86114399999998,1078
52.996663999999896,20.213143999999986,1087
53.32066399999989,20.213143999999986,1120
51.37666399999991,20.213143999999986,881
52.3486639999999,16.973143999999984,175
52.0246639999999,16.973143999999984,191
52.0246639999999,16.325143999999987,204
52.0246639999999,17.621143999999987,214
52.6726639999999,16.973143999999984,168
52.996663999999896,16.973143999999984,141
52.3486639999999,16.325143999999987,184
52.3486639999999,15.677143999999986,188
51.700663999999904,18.269143999999983,284
52.6726639999999,17.621143999999987,308
52.3486639999999,17.621143999999987,213
52.6726639999999,18.269143999999983,338
52.3486639999999,18.269143999999983,258
52.3486639999999,18.917143999999983,295
52.996663999999896,17.621143999999987,184
51.700663999999904,19.565143999999982,398
51.700663999999904,18.917143999999983,365
51.37666399999991,18.269143999999983,298
58.82866399999986,9.197143999999987,1585
58.180663999999865,7.90114399999999,1673
58.50466399999986,8.54914399999999,1629
63.36466399999984,10.493143999999988,1717
63.36466399999984,11.141143999999988,1789
63.36466399999984,11.789143999999988,2433
63.68866399999983,11.789143999999988,1852
64.33666399999983,12.437143999999988,2014
64.66066399999983,12.437143999999988,2509
65.63266399999982,13.085143999999987,2166
65.95666399999982,13.085143999999987,2201
66.28066399999982,14.381143999999988,2271
65.95666399999982,13.733143999999989,2340
66.28066399999982,13.733143999999989,2249
65.30866399999982,13.085143999999987,2467
64.98466399999982,13.085143999999987,2101
64.01266399999983,11.789143999999988,1880
63.68866399999983,11.141143999999988,1822
59.800663999999855,10.493143999999988,1292
59.800663999999855,11.141143999999988,1282
60.124663999999854,11.141143999999988,1265
60.44866399999985,11.141143999999988,1285
60.124663999999854,11.789143999999988,1250
60.77266399999985,7.25314399999999,1630
60.77266399999985,6.60514399999999,1676
59.15266399999986,9.197143999999987,1554
59.47666399999986,9.197143999999987,1529
59.800663999999855,9.845143999999989,1306
59.47666399999986,11.141143999999988,1255
61.09666399999985,10.493143999999988,1419
60.77266399999985,10.493143999999988,1357
60.77266399999985,11.141143999999988,1353
62.06866399999984,9.197143999999987,1570
61.74466399999984,9.845143999999989,1516
61.420663999999846,9.845143999999989,1493
59.15266399999986,9.845143999999989,1370
59.47666399999986,9.845143999999989,1346
58.82866399999986,5.957143999999991,1845
58.180663999999865,7.25314399999999,1720
58.50466399999986,7.25314399999999,1754
58.50466399999986,6.60514399999999,1759
58.50466399999986,5.957143999999991,1815
58.82866399999986,8.54914399999999,1615
60.44866399999985,7.25314399999999,1602
60.44866399999985,7.90114399999999,1559
60.124663999999854,10.493143999999988,1306
60.44866399999985,9.197143999999987,1506
60.77266399999985,9.197143999999987,1518
60.77266399999985,8.54914399999999,1539
60.124663999999854,9.845143999999989,1414
60.44866399999985,10.493143999999988,1321
63.04066399999984,10.493143999999988,1686
62.06866399999984,9.845143999999989,1595
62.39266399999984,9.845143999999989,1603
62.71666399999984,9.845143999999989,1627
59.47666399999986,14.381143999999988,1137
59.47666399999986,13.733143999999989,1161
59.47666399999986,13.085143999999987,1226
59.800663999999855,12.437143999999988,1202
59.15266399999986,11.141143999999988,1209
59.15266399999986,14.381143999999988,1122
58.82866399999986,11.789143999999988,1167
58.50466399999986,12.437143999999988,1120
58.180663999999865,12.437143999999988,1113
57.85666399999987,11.789143999999988,1090
62.71666399999984,7.90114399999999,1656
62.39266399999984,7.90114399999999,1613
62.06866399999984,8.54914399999999,1588
60.44866399999985,5.309143999999991,1750
60.44866399999985,5.957143999999991,1717
60.77266399999985,5.957143999999991,1744
62.39266399999984,11.141143999999988,1631
62.06866399999984,10.493143999999988,1588
61.74466399999984,11.141143999999988,1561
61.420663999999846,11.141143999999988,1514
61.09666399999985,11.141143999999988,1496
60.77266399999985,11.789143999999988,1473
63.04066399999984,11.141143999999988,1715
62.71666399999984,11.141143999999988,1655
62.39266399999984,10.493143999999988,1615
67.25266399999981,15.677143999999986,2390
67.25266399999981,15.029143999999986,2428
67.25266399999981,14.381143999999988,2456
66.92866399999981,15.029143999999986,2379
66.60466399999981,15.677143999999986,2357
64.01266399999983,11.141143999999988,1864
66.60466399999981,15.029143999999986,2420
54.29266399999989,18.269143999999983,290
54.616663999999886,17.621143999999987,240
53.96866399999989,18.269143999999983,321
43.92466399999995,1.4211439999999929,1262
44.24866399999995,0.7731439999999932,1224
44.572663999999946,0.1251439999999934,1212
46.84066399999993,1.4211439999999929,1060
44.572663999999946,1.4211439999999929,1334
44.24866399999995,1.4211439999999929,1310
45.54466399999994,1.4211439999999929,1183
46.516663999999935,1.4211439999999929,1077
42.30466399999996,2.717143999999992,1229
44.24866399999995,2.717143999999992,1422
44.572663999999946,2.717143999999992,1398
43.92466399999995,2.0691439999999925,1293
42.30466399999996,2.0691439999999925,1290
42.62866399999996,2.0691439999999925,1252
42.62866399999996,1.4211439999999929,1344
42.95266399999996,1.4211439999999929,1312
43.276663999999954,1.4211439999999929,1297
46.516663999999935,-1.170856000000006,1234
46.19266399999994,-1.170856000000006,1169
45.86866399999994,-0.5228560000000062,1201
45.54466399999994,-0.5228560000000062,1182
48.46066399999992,1.4211439999999929,1015
41.332663999999966,2.0691439999999925,1494
41.98066399999996,2.717143999999992,1453
48.46066399999992,-1.8188560000000056,1079
47.81266399999993,0.7731439999999932,973
46.84066399999993,0.7731439999999932,1027
44.572663999999946,-1.170856000000006,1165
43.60066399999995,-1.170856000000006,1288
43.276663999999954,-1.8188560000000056,1335
43.276663999999954,0.1251439999999934,1399
42.95266399999996,0.1251439999999934,1373
43.276663999999954,-0.5228560000000062,1345
43.60066399999995,-0.5228560000000062,1322
47.81266399999993,-3.7628560000000046,1228
47.48866399999993,-2.4668560000000053,1184
47.81266399999993,-0.5228560000000062,1182
46.516663999999935,-1.8188560000000056,1275
48.136663999999925,-1.170856000000006,1156
47.48866399999993,-1.170856000000006,1195
45.22066399999994,8.54914399999999,846
45.22066399999994,7.90114399999999,859
46.19266399999994,-0.5228560000000062,1137
46.516663999999935,-0.5228560000000062,1119
48.78466399999992,-3.114856000000005,1264
50.72866399999991,2.0691439999999925,1008
50.40466399999991,2.0691439999999925,991
40.36066399999997,-3.7628560000000046,2865
41.65666399999997,-1.170856000000006,2782
41.332663999999966,1.4211439999999929,2720
43.276663999999954,13.733143999999989,65535
42.95266399999996,13.733143999999989,65535
41.65666399999997,15.029143999999986,65535
40.68466399999997,17.621143999999987,65535
43.60066399999995,13.085143999999987,3903
41.65666399999997,12.437143999999988,2512
41.65666399999997,13.085143999999987,2528
41.98066399999996,13.085143999999987,2504
41.65666399999997,13.733143999999989,3092
41.332663999999966,13.733143999999989,2570
41.332663999999966,14.381143999999988,3127
41.00866399999997,14.381143999999988,3154
41.332663999999966,13.085143999999987,2553
41.00866399999997,15.029143999999986,4335
41.98066399999996,13.733143999999989,2586
42.30466399999996,14.381143999999988,4416
42.30466399999996,12.437143999999988,2755
42.62866399999996,12.437143999999988,3054
42.95266399999996,12.437143999999988,3108
42.30466399999996,11.789143999999988,2563
42.95266399999996,11.789143999999988,3818
42.62866399999996,11.789143999999988,3739
43.276663999999954,11.789143999999988,4290
42.95266399999996,13.085143999999987,3804
42.30466399999996,13.085143999999987,4303
43.276663999999954,13.085143999999987,3852
43.276663999999954,12.437143999999988,3859
42.62866399999996,11.141143999999988,2632
42.95266399999996,11.141143999999988,2675
42.95266399999996,10.493143999999988,2693
44.572663999999946,8.54914399999999,950
44.89666399999994,7.90114399999999,873
44.89666399999994,9.197143999999987,905
44.24866399999995,7.90114399999999,926
44.572663999999946,7.90114399999999,896
43.92466399999995,7.90114399999999,1059
44.24866399999995,7.25314399999999,941
44.89666399999994,7.25314399999999,978
45.22066399999994,7.25314399999999,898
45.54466399999994,7.90114399999999,941
44.572663999999946,7.25314399999999,2302
52.996663999999896,22.805143999999984,1368
52.996663999999896,23.45314399999998,1391
51.37666399999991,22.15714399999998,1075
51.37666399999991,22.805143999999984,1130
50.08066399999991,20.213143999999986,824
50.72866399999991,20.213143999999986,912
50.40466399999991,20.213143999999986,877
50.08066399999991,20.86114399999998,873
50.08066399999991,21.50914399999997,914
50.08066399999991,22.15714399999998,956
50.08066399999991,22.805143999999984,971
53.96866399999989,22.805143999999984,1827
53.64466399999989,23.45314399999998,1498
53.32066399999989,23.45314399999998,1444
50.40466399999991,19.565143999999982,785
50.08066399999991,18.917143999999983,775
50.08066399999991,18.269143999999983,531
52.0246639999999,22.805143999999984,1081
52.0246639999999,23.45314399999998,1119
51.37666399999991,19.565143999999982,800
51.05266399999991,19.565143999999982,764
50.72866399999991,18.917143999999983,743
50.72866399999991,19.565143999999982,893
49.75666399999992,18.917143999999983,775
50.40466399999991,18.269143999999983,381
53.64466399999989,19.565143999999982,890
53.96866399999989,18.917143999999983,310
53.64466399999989,18.917143999999983,343
53.64466399999989,20.213143999999986,904
52.996663999999896,18.917143999999983,358
52.996663999999896,18.269143999999983,221
53.32066399999989,18.917143999999983,376
50.72866399999991,17.621143999999987,328
50.72866399999991,18.269143999999983,369
52.6726639999999,16.325143999999987,125
52.996663999999896,16.325143999999987,110
52.996663999999896,15.677143999999986,94
53.32066399999989,15.677143999999986,84
53.32066399999989,15.029143999999986,11
53.64466399999989,15.029143999999986,180
53.96866399999989,15.029143999999986,153
52.6726639999999,18.917143999999983,348
53.32066399999989,16.325143999999987,217
52.6726639999999,15.029143999999986,121
51.05266399999991,22.805143999999984,1177
51.05266399999991,23.45314399999998,1204
50.72866399999991,22.15714399999998,1286
50.40466399999991,22.15714399999998,1389
51.05266399999991,22.15714399999998,1127
54.616663999999886,16.973143999999984,186
54.29266399999989,16.325143999999987,135
53.96866399999989,15.677143999999986,100
50.72866399999991,21.50914399999997,1296
50.40466399999991,21.50914399999997,1252
50.40466399999991,17.621143999999987,930
53.32066399999989,22.805143999999984,1409
53.64466399999989,22.15714399999998,1138
54.29266399999989,16.973143999999984,162
50.72866399999991,20.86114399999998,974
51.700663999999904,22.805143999999984,1477
51.05266399999991,21.50914399999997,1065
50.08066399999991,19.565143999999982,793
52.0246639999999,18.917143999999983,3688
52.0246639999999,19.565143999999982,3681
53.64466399999989,18.269143999999983,378
51.700663999999904,20.213143999999986,861
53.32066399999989,19.565143999999982,933
50.72866399999991,23.45314399999998,1411
50.72866399999991,22.805143999999984,1380
49.43266399999992,20.213143999999986,805
49.75666399999992,21.50914399999997,957
49.75666399999992,22.15714399999998,1404
49.43266399999992,22.15714399999998,1212
51.05266399999991,18.917143999999983,703
51.05266399999991,18.269143999999983,464
53.32066399999989,16.973143999999984,158
53.64466399999989,16.973143999999984,116
49.75666399999992,20.86114399999998,927
50.40466399999991,22.805143999999984,3770
53.64466399999989,16.325143999999987,65
53.96866399999989,20.86114399999998,1026
54.29266399999989,20.86114399999998,1072
53.96866399999989,21.50914399999997,1089
53.64466399999989,15.677143999999986,22
53.96866399999989,20.213143999999986,858
53.96866399999989,19.565143999999982,428
54.29266399999989,19.565143999999982,442
53.96866399999989,16.325143999999987,124
53.64466399999989,17.621143999999987,193
53.96866399999989,22.15714399999998,1156
53.64466399999989,21.50914399999997,1094
53.64466399999989,20.86114399999998,1047
52.6726639999999,15.677143999999986,174
51.05266399999991,20.213143999999986,1057
54.940663999999884,24.101143999999977,65535
54.616663999999886,23.45314399999998,65535
54.29266399999989,23.45314399999998,65535
53.64466399999989,22.805143999999984,1396
53.96866399999989,16.973143999999984,214
50.40466399999991,20.86114399999998,1048
53.32066399999989,18.269143999999983,866
49.75666399999992,19.565143999999982,889
50.40466399999991,23.45314399999998,984
49.75666399999992,20.213143999999986,1029
49.43266399999992,19.565143999999982,777
49.43266399999992,20.86114399999998,879
53.96866399999989,17.621143999999987,1308
42.30466399999996,-1.8188560000000056,3999
41.98066399999996,-1.8188560000000056,3982
41.65666399999997,0.7731439999999932,3986
42.62866399999996,-1.8188560000000056,4114
42.95266399999996,-1.8188560000000056,4143
42.62866399999996,-3.114856000000005,4237
42.95266399999996,-2.4668560000000053,4215
42.62866399999996,-7.650856000000003,4579
42.30466399999996,-7.650856000000003,4639
42.30466399999996,-8.946856000000002,4775
42.30466399999996,-8.298856000000002,4749
41.98066399999996,-8.298856000000002,4738
42.30466399999996,-7.002856000000003,4521
42.62866399999996,-6.354856000000003,4463
42.30466399999996,-6.354856000000003,4418
42.62866399999996,-5.706856000000004,3918
41.98066399999996,-4.410856000000004,3872
42.30466399999996,-3.7628560000000046,4263
40.03666399999997,-0.5228560000000062,3966
39.38866399999998,-0.5228560000000062,4014
41.00866399999997,0.7731439999999932,4114
40.68466399999997,0.7731439999999932,4146
40.36066399999997,0.1251439999999934,4224
39.712663999999975,-0.5228560000000062,4123
38.41666399999998,-0.5228560000000062,4135
39.06466399999998,-0.5228560000000062,4257
38.74066399999998,-1.170856000000006,4143
41.332663999999966,0.7731439999999932,4174
41.65666399999997,2.717143999999992,3774
41.65666399999997,2.0691439999999925,3797
41.332663999999966,0.1251439999999934,4132
41.332663999999966,-0.5228560000000062,4076
41.65666399999997,-4.410856000000004,3846
40.03666399999997,-2.4668560000000053,4084
41.00866399999997,-4.410856000000004,3967
43.276663999999954,-5.706856000000004,4048
39.38866399999998,-1.170856000000006,4109
38.09266399999999,-1.170856000000006,4522
38.74066399999998,-0.5228560000000062,4285
37.76866399999999,-1.170856000000006,4587
39.06466399999998,-1.8188560000000056,4107
39.38866399999998,-3.114856000000005,4007
39.38866399999998,-2.4668560000000053,4063
39.06466399999998,-2.4668560000000053,4090
39.06466399999998,-3.114856000000005,4011
39.06466399999998,-3.7628560000000046,3985
38.74066399999998,-3.7628560000000046,4064
40.03666399999997,-3.7628560000000046,3963
40.03666399999997,-3.114856000000005,4163
40.03666399999997,-1.8188560000000056,4244
39.712663999999975,-1.8188560000000056,4209
39.712663999999975,-1.170856000000006,4145
40.36066399999997,-1.170856000000006,4164
40.68466399999997,-1.170856000000006,4142
41.00866399999997,-1.170856000000006,4130
41.332663999999966,-1.170856000000006,3970
43.276663999999954,-8.298856000000002,4739
42.95266399999996,-8.298856000000002,4707
41.65666399999997,-5.706856000000004,65535
41.98066399999996,-7.002856000000003,65535
41.98066399999996,-6.354856000000003,65535
41.332663999999966,-5.058856000000004,4085
43.276663999999954,-3.7628560000000046,4520
42.95266399999996,-4.410856000000004,4454
42.62866399999996,-4.410856000000004,4444
42.30466399999996,-4.410856000000004,4403
41.00866399999997,-5.706856000000004,4023
41.332663999999966,-1.8188560000000056,3916
40.68466399999997,-3.114856000000005,3870
41.00866399999997,-3.114856000000005,3921
41.00866399999997,-2.4668560000000053,3944
41.332663999999966,-2.4668560000000053,3997
40.68466399999997,-4.410856000000004,3907
40.36066399999997,-4.410856000000004,3991
40.68466399999997,-3.7628560000000046,3899
40.36066399999997,-3.114856000000005,3877
41.65666399999997,-2.4668560000000053,4014
38.09266399999999,-3.7628560000000046,4111
38.74066399999998,-3.114856000000005,4055
37.76866399999999,-3.7628560000000046,4168
39.712663999999975,-3.114856000000005,3999
38.41666399999998,-3.7628560000000046,4076
40.03666399999997,-4.410856000000004,65535
40.03666399999997,-5.058856000000004,65535
39.38866399999998,-6.354856000000003,65535
39.38866399999998,-7.002856000000003,65535
42.95266399999996,-3.114856000000005,4648
41.98066399999996,-1.170856000000006,4011
42.30466399999996,-2.4668560000000053,4052
41.65666399999997,-0.5228560000000062,4109
41.98066399999996,-0.5228560000000062,3946
41.65666399999997,0.1251439999999934,3973
41.98066399999996,0.1251439999999934,3995
37.76866399999999,-5.058856000000004,4047
36.79666399999999,-4.410856000000004,4106
38.74066399999998,-4.410856000000004,4003
37.12066399999999,-4.410856000000004,4080
37.44466399999999,-5.058856000000004,4604
37.44466399999999,-7.002856000000003,65535
37.44466399999999,-6.354856000000003,65535
37.44466399999999,-5.706856000000004,4280
39.712663999999975,-3.7628560000000046,4073
42.62866399999996,-8.946856000000002,65535
42.30466399999996,-5.706856000000004,4425
42.30466399999996,-5.058856000000004,4510
42.95266399999996,-5.706856000000004,3950
41.00866399999997,-5.058856000000004,3991
40.68466399999997,-5.058856000000004,3965
41.65666399999997,-5.058856000000004,65535
41.65666399999997,-6.354856000000003,65535
36.79666399999999,-6.354856000000003,65535
37.12066399999999,-5.706856000000004,4448
37.76866399999999,-5.706856000000004,4247
38.09266399999999,-4.410856000000004,4382
37.12066399999999,-5.058856000000004,4402
36.79666399999999,-5.058856000000004,4360
37.76866399999999,-4.410856000000004,65535
37.76866399999999,-7.002856000000003,65535
38.41666399999998,-6.354856000000003,65535
38.09266399999999,-6.354856000000003,65535
48.78466399999992,1.4211439999999929,1041
56.23666399999988,8.54914399999999,2290
55.58866399999988,9.197143999999987,2095
55.91266399999988,9.197143999999987,2236
55.26466399999988,10.493143999999988,594
55.91266399999988,12.437143999999988,729
55.58866399999988,11.789143999999988,1935
55.58866399999988,11.141143999999988,1976
55.26466399999988,11.789143999999988,1968
55.58866399999988,10.493143999999988,2091
55.58866399999988,13.085143999999987,686
56.88466399999987,9.845143999999989,2242
57.20866399999987,9.845143999999989,2277
56.56066399999988,9.845143999999989,2214
56.88466399999987,8.54914399999999,2329
54.940663999999884,9.845143999999989,3436
54.940663999999884,11.789143999999988,2192
55.91266399999988,13.085143999999987,790
56.23666399999988,13.733143999999989,815
55.91266399999988,13.733143999999989,813
56.23666399999988,14.381143999999988,854
56.23666399999988,15.029143999999986,1032
56.23666399999988,15.677143999999986,1087
56.56066399999988,14.381143999999988,894
56.88466399999987,14.381143999999988,859
56.23666399999988,13.085143999999987,796
56.56066399999988,13.085143999999987,996
56.88466399999987,12.437143999999988,1033
57.20866399999987,12.437143999999988,1049
57.53266399999987,12.437143999999988,1079
56.88466399999987,15.029143999999986,995
56.56066399999988,15.677143999999986,1105
56.88466399999987,15.677143999999986,1123
56.88466399999987,16.325143999999987,1139
55.91266399999988,11.789143999999988,2261
57.20866399999987,10.493143999999988,2464
49.43266399999992,1.4211439999999929,1042
49.75666399999992,0.7731439999999932,1023
49.75666399999992,2.0691439999999925,388
50.08066399999991,2.717143999999992,357
49.75666399999992,1.4211439999999929,1052
47.81266399999993,1.4211439999999929,1014
48.136663999999925,2.0691439999999925,1123
48.46066399999992,2.0691439999999925,1016
48.136663999999925,1.4211439999999929,1036
48.78466399999992,0.1251439999999934,1162
48.46066399999992,0.1251439999999934,1142
47.81266399999993,0.1251439999999934,1066
46.84066399999993,-0.5228560000000062,1329
47.16466399999993,0.7731439999999932,1228
46.84066399999993,0.1251439999999934,1247
46.84066399999993,-1.170856000000006,1242
50.08066399999991,1.4211439999999929,973
50.08066399999991,2.0691439999999925,964
49.43266399999992,2.717143999999992,886
49.75666399999992,3.365143999999992,1011
50.08066399999991,3.365143999999992,1106
49.10866399999992,2.0691439999999925,993
49.43266399999992,2.0691439999999925,1000
48.78466399999992,0.7731439999999932,1595
48.78466399999992,-0.5228560000000062,1321
48.78466399999992,-1.170856000000006,1184
48.136663999999925,0.7731439999999932,1069
48.46066399999992,0.7731439999999932,1091
43.92466399999995,5.957143999999991,1136
44.24866399999995,5.957143999999991,1107
43.92466399999995,5.309143999999991,1149
42.95266399999996,2.717143999999992,1220
45.54466399999994,2.0691439999999925,1154
45.22066399999994,2.0691439999999925,1283
42.95266399999996,2.0691439999999925,2377
42.95266399999996,0.7731439999999932,1412
43.276663999999954,0.7731439999999932,1347
46.19266399999994,0.7731439999999932,1110
46.516663999999935,0.7731439999999932,1083
45.86866399999994,0.1251439999999934,1109
46.19266399999994,0.1251439999999934,1094
47.81266399999993,-1.170856000000006,1435
48.136663999999925,-2.4668560000000053,1143
47.48866399999993,-1.8188560000000056,1166
47.16466399999993,-1.170856000000006,1188
47.16466399999993,-0.5228560000000062,1190
46.84066399999993,-1.8188560000000056,1192
45.22066399999994,-0.5228560000000062,1243
44.89666399999994,0.1251439999999934,1213
45.22066399999994,0.7731439999999932,1242
45.54466399999994,0.7731439999999932,1233
45.86866399999994,0.7731439999999932,1242
45.22066399999994,0.1251439999999934,1237
44.89666399999994,0.7731439999999932,1260
43.92466399999995,-0.5228560000000062,1315
43.92466399999995,-1.170856000000006,1308
44.24866399999995,-1.170856000000006,1288
45.22066399999994,-1.170856000000006,1278
44.572663999999946,-0.5228560000000062,1187
44.24866399999995,0.1251439999999934,1233
44.572663999999946,0.7731439999999932,1277
43.276663999999954,-1.170856000000006,1349
42.95266399999996,-0.5228560000000062,1413
44.24866399999995,2.0691439999999925,1329
43.60066399999995,0.7731439999999932,1393
43.60066399999995,2.0691439999999925,1336
52.6726639999999,4.661143999999991,2281
52.6726639999999,5.309143999999991,2304
51.700663999999904,5.309143999999991,2249
52.0246639999999,5.309143999999991,2261
52.3486639999999,5.309143999999991,2277
51.37666399999991,4.013143999999992,2257
52.3486639999999,5.957143999999991,2271
52.0246639999999,6.60514399999999,2301
52.6726639999999,5.957143999999991,2288
52.996663999999896,5.957143999999991,2301
53.32066399999989,5.957143999999991,2295
52.996663999999896,6.60514399999999,2277
53.32066399999989,6.60514399999999,2269
52.6726639999999,6.60514399999999,2297
52.996663999999896,5.309143999999991,2316
59.15266399999986,24.101143999999977,65535
56.88466399999987,24.101143999999977,65535
56.88466399999987,23.45314399999998,65535
56.88466399999987,22.805143999999984,65535
57.20866399999987,24.74914399999998,65535
56.88466399999987,24.74914399999998,65535
56.56066399999988,24.74914399999998,65535
56.56066399999988,25.397143999999983,65535
56.56066399999988,24.101143999999977,65535
56.56066399999988,23.45314399999998,65535
56.56066399999988,26.04514399999998,65535
56.88466399999987,26.04514399999998,65535
57.20866399999987,25.397143999999983,65535
57.53266399999987,25.397143999999983,65535
56.23666399999988,26.04514399999998,65535
56.23666399999988,26.69314399999997,65535
55.91266399999988,26.69314399999997,65535
56.56066399999988,26.69314399999997,65535
56.56066399999988,27.34114399999998,65535
56.56066399999988,27.989143999999985,65535
56.23666399999988,27.989143999999985,65535
55.91266399999988,27.34114399999998,65535
56.56066399999988,22.805143999999984,65535
56.56066399999988,22.15714399999998,65535
56.56066399999988,21.50914399999997,65535
57.20866399999987,26.69314399999997,65535
39.06466399999998,-8.946856000000002,65535
38.41666399999998,-8.298856000000002,65535
45.86866399999994,11.789143999999988,1468
46.19266399999994,11.789143999999988,1455
46.19266399999994,10.493143999999988,1440
45.22066399999994,18.269143999999983,2461
45.22066399999994,18.917143999999983,2535
45.54466399999994,16.973143999999984,2319
45.22066399999994,17.621143999999987,2396
45.86866399999994,16.325143999999987,2200
45.54466399999994,18.917143999999983,2575
45.54466399999994,16.325143999999987,2275
45.54466399999994,18.269143999999983,2553
44.89666399999994,18.917143999999983,2856
46.19266399999994,16.973143999999984,2220
46.19266399999994,16.325143999999987,2206
45.86866399999994,16.973143999999984,2237
45.86866399999994,17.621143999999987,2341
46.19266399999994,15.677143999999986,994
46.516663999999935,16.325143999999987,1089
45.54466399999994,15.677143999999986,2180
45.22066399999994,15.029143999999986,2247
45.54466399999994,15.029143999999986,1021
45.22066399999994,15.677143999999986,2264
44.572663999999946,15.677143999999986,3019
44.24866399999995,15.677143999999986,3040
43.92466399999995,16.325143999999987,2931
44.89666399999994,15.677143999999986,2983
45.54466399999994,17.621143999999987,2528
45.22066399999994,16.325143999999987,2396
46.516663999999935,16.973143999999984,2277
45.86866399999994,18.269143999999983,2654
43.92466399999995,15.677143999999986,2730
45.22066399999994,13.733143999999989,2262
47.48866399999993,19.565143999999982,922
47.16466399999993,18.917143999999983,2178
47.81266399999993,18.917143999999983,892
45.54466399999994,9.845143999999989,859
45.22066399999994,9.845143999999989,868
45.22066399999994,10.493143999999988,919
45.86866399999994,9.845143999999989,896
45.86866399999994,10.493143999999988,2358
48.78466399999992,21.50914399999997,890
49.10866399999992,20.213143999999986,861
49.10866399999992,18.917143999999983,737
48.46066399999992,17.621143999999987,794
49.43266399999992,17.621143999999987,973
49.10866399999992,17.621143999999987,832
48.136663999999925,18.269143999999983,835
49.10866399999992,18.269143999999983,786
49.43266399999992,18.269143999999983,798
49.43266399999992,16.973143999999984,546
49.75666399999992,16.973143999999984,921
49.75666399999992,16.325143999999987,486
50.08066399999991,15.677143999999986,323
50.08066399999991,15.029143999999986,310
49.43266399999992,18.917143999999983,710
47.81266399999993,20.86114399999998,1075
48.136663999999925,20.86114399999998,1010
48.46066399999992,20.86114399999998,997
48.46066399999992,21.50914399999997,904
49.10866399999992,19.565143999999982,753
48.136663999999925,17.621143999999987,781
48.78466399999992,22.15714399999998,1077
48.78466399999992,20.86114399999998,959
49.10866399999992,20.86114399999998,881
48.78466399999992,18.269143999999983,791
48.78466399999992,17.621143999999987,734
49.10866399999992,21.50914399999997,886
48.78466399999992,20.213143999999986,1310
48.46066399999992,20.213143999999986,1337
48.136663999999925,19.565143999999982,1605
48.46066399999992,19.565143999999982,1484
48.46066399999992,18.917143999999983,934
48.46066399999992,18.269143999999983,839
48.78466399999992,19.565143999999982,1250
48.78466399999992,18.917143999999983,992
47.81266399999993,18.269143999999983,847
49.10866399999992,22.15714399999998,1124
49.43266399999992,21.50914399999997,913
48.136663999999925,18.917143999999983,927
48.136663999999925,20.213143999999986,1625
52.636,-8.018,65535
52.312,-7.370000000000001,65535
52.312,-8.018,65535
52.636,-8.666,65535
51.988,-8.666,65535
51.988,-8.018,65535
52.96,-8.666,65535
52.96,-6.074000000000002,65535
53.28399999999999,-6.722000000000001,65535
53.60799999999999,-6.722000000000001,65535
53.60799999999999,-7.370000000000001,65535
53.60799999999999,-8.018,65535
54.25599999999999,-8.666,65535
53.93199999999999,-8.666,65535
53.93199999999999,-8.018,65535
52.312,-6.722000000000001,65535
52.636,-6.722000000000001,65535
53.93199999999999,-6.722000000000001,65535
54.25599999999999,-6.074000000000002,65535
53.28399999999999,-7.370000000000001,65535
52.96,-7.370000000000001,65535
52.312,-8.666,65535
52.96,-8.018,65535
52.636,-7.370000000000001,65535
52.96,-6.722000000000001,65535
51.988,-9.314,65535
52.312,-9.314,65535
54.579999999999984,-6.722000000000001,65535
54.579999999999984,-6.074000000000002,65535
53.28399999999999,-8.018,65535
53.28399999999999,-8.666,65535
53.28399999999999,-9.314,65535
53.93199999999999,-9.314,65535
54.25599999999999,-9.314,65535
53.60799999999999,-8.666,65535
53.60799999999999,-9.314,65535
49.43266399999992,14.381143999999988,335
49.75666399999992,14.381143999999988,305
49.75666399999992,15.029143999999986,307
49.75666399999992,13.733143999999989,325
50.08066399999991,13.733143999999989,318
49.75666399999992,15.677143999999986,370
50.40466399999991,15.029143999999986,289
49.43266399999992,13.733143999999989,382
50.40466399999991,15.677143999999986,364
50.40466399999991,13.733143999999989,358
46.19266399999994,15.029143999999986,959
45.86866399999994,15.029143999999986,960
45.86866399999994,14.381143999999988,951
46.19266399999994,13.733143999999989,1017
45.86866399999994,13.733143999999989,1092
58.50466399999986,13.733143999999989,1110
58.180663999999865,13.733143999999989,1126
58.180663999999865,13.085143999999987,1118
57.85666399999987,12.437143999999988,1097
60.44866399999985,15.677143999999986,1187
60.124663999999854,15.677143999999986,1175
60.124663999999854,16.325143999999987,1159
59.800663999999855,16.325143999999987,1124
59.800663999999855,17.621143999999987,1096
59.47666399999986,18.269143999999983,1071
61.74466399999984,16.973143999999984,1280
61.420663999999846,16.973143999999984,1255
60.77266399999985,16.973143999999984,1155
65.63266399999982,22.15714399999998,1813
65.95666399999982,21.50914399999997,1796
65.63266399999982,20.86114399999998,1765
64.98466399999982,20.213143999999986,1713
64.66066399999983,20.213143999999986,1693
64.33666399999983,19.565143999999982,1644
64.01266399999983,19.565143999999982,1608
63.68866399999983,20.213143999999986,1504
64.66066399999983,18.917143999999983,2514
59.15266399999986,16.325143999999987,1023
59.15266399999986,15.029143999999986,1087
59.15266399999986,17.621143999999987,1057
57.53266399999987,14.381143999999988,899
57.53266399999987,15.029143999999986,1050
61.09666399999985,14.381143999999988,1291
60.77266399999985,15.029143999999986,1242
60.44866399999985,15.029143999999986,1228
58.180663999999865,15.029143999999986,946
58.50466399999986,16.325143999999987,984
58.50466399999986,15.677143999999986,956
63.36466399999984,13.085143999999987,1645
63.04066399999984,14.381143999999988,1581
62.39266399999984,15.677143999999986,1504
63.36466399999984,13.733143999999989,1627
63.36466399999984,14.381143999999988,1598
62.71666399999984,15.677143999999986,1531
62.39266399999984,17.621143999999987,1336
59.800663999999855,15.677143999999986,1211
55.58866399999988,13.733143999999989,1478
57.20866399999987,14.381143999999988,1046
57.85666399999987,14.381143999999988,1032
58.82866399999986,16.973143999999984,1032
58.82866399999986,16.325143999999987,1010
59.15266399999986,18.269143999999983,1063
60.44866399999985,17.621143999999987,1129
59.15266399999986,12.437143999999988,1264
59.15266399999986,13.085143999999987,1258
58.82866399999986,12.437143999999988,1241
59.47666399999986,16.325143999999987,1069
58.82866399999986,14.381143999999988,1161
59.47666399999986,15.677143999999986,1105
63.36466399999984,18.917143999999983,1455
63.04066399999984,17.621143999999987,1409
62.71666399999984,17.621143999999987,1384
63.68866399999983,19.565143999999982,1492
62.39266399999984,16.973143999999984,1395
59.800663999999855,16.973143999999984,1135
59.47666399999986,17.621143999999987,1077
57.85666399999987,13.085143999999987,1140
57.53266399999987,13.085143999999987,1181
58.50466399999986,11.789143999999988,1190
57.85666399999987,15.029143999999986,930
57.20866399999987,13.733143999999989,1096
57.53266399999987,13.733143999999989,1216
61.74466399999984,16.325143999999987,1236
61.420663999999846,16.325143999999987,1205
61.09666399999985,16.325143999999987,1195
61.09666399999985,16.973143999999984,1179
60.124663999999854,15.029143999999986,1231
66.60466399999981,20.86114399999998,2337
67.25266399999981,20.86114399999998,2405
67.90066399999981,20.213143999999986,2475
67.57666399999981,20.213143999999986,3100
59.800663999999855,15.029143999999986,1239
58.50466399999986,15.029143999999986,975
59.47666399999986,15.029143999999986,1226
60.44866399999985,16.325143999999987,1248
59.15266399999986,15.677143999999986,1107
57.85666399999987,13.733143999999989,1103
58.82866399999986,13.733143999999989,1140
58.50466399999986,13.085143999999987,1248
57.20866399999987,13.085143999999987,1142
56.88466399999987,13.085143999999987,1151
58.180663999999865,11.789143999999988,1161
62.06866399999984,16.973143999999984,1318
65.95666399999982,23.45314399999998,1864
59.800663999999855,14.381143999999988,1372
59.800663999999855,18.269143999999983,1124
63.04066399999984,15.029143999999986,1547
62.71666399999984,15.029143999999986,1538
62.39266399999984,16.325143999999987,1473
63.36466399999984,12.437143999999988,2459
68.5486639999998,17.621143999999987,2688
68.5486639999998,18.269143999999983,2621
68.5486639999998,18.917143999999983,2598
68.2246639999998,18.917143999999983,2554
59.800663999999855,13.085143999999987,1277
60.124663999999854,13.085143999999987,1319
59.47666399999986,16.973143999999984,1098
59.15266399999986,16.973143999999984,1107
56.56066399999988,13.733143999999989,879
60.124663999999854,17.621143999999987,1106
57.85666399999987,16.325143999999987,1035
58.180663999999865,16.325143999999987,997
58.180663999999865,15.677143999999986,1005
57.20866399999987,16.325143999999987,1110
57.53266399999987,15.677143999999986,1065
57.85666399999987,15.677143999999986,1036
44.89666399999994,23.45314399999998,2485
44.572663999999946,23.45314399999998,2555
44.89666399999994,24.74914399999998,2472
44.572663999999946,24.74914399999998,2591
44.572663999999946,24.101143999999977,2532
44.24866399999995,24.101143999999977,2561
47.48866399999993,25.397143999999983,2333
47.48866399999993,24.74914399999998,2273
47.16466399999993,24.74914399999998,2195
47.16466399999993,24.101143999999977,2097
47.48866399999993,22.15714399999998,2227
47.81266399999993,22.15714399999998,2313
47.16466399999993,22.15714399999998,2206
47.16466399999993,23.45314399999998,2258
47.16466399999993,22.805143999999984,2264
46.84066399999993,24.101143999999977,2178
45.86866399999994,27.34114399999998,2518
45.54466399999994,27.34114399999998,2499
45.54466399999994,27.989143999999985,2615
45.86866399999994,20.86114399999998,2390
45.86866399999994,21.50914399999997,2398
46.19266399999994,21.50914399999997,2334
46.19266399999994,27.34114399999998,2518
46.19266399999994,26.69314399999997,2509
46.516663999999935,26.69314399999997,2471
46.516663999999935,26.04514399999998,2367
47.48866399999993,22.805143999999984,2325
46.84066399999993,22.805143999999984,2138
45.54466399999994,22.15714399999998,2447
45.22066399999994,22.15714399999998,2525
44.89666399999994,22.15714399999998,2943
47.48866399999993,23.45314399999998,2291
46.516663999999935,24.101143999999977,2017
46.516663999999935,24.74914399999998,2231
45.86866399999994,24.101143999999977,2180
47.16466399999993,26.69314399999997,2549
47.16466399999993,27.34114399999998,2604
43.92466399999995,25.397143999999983,2563
44.24866399999995,24.74914399999998,2470
44.89666399999994,26.04514399999998,2357
44.89666399999994,26.69314399999997,2404
45.22066399999994,26.69314399999997,2439
45.22066399999994,27.34114399999998,2466
46.84066399999993,26.69314399999997,2510
47.48866399999993,26.69314399999997,2503
44.24866399999995,25.397143999999983,2402
43.92466399999995,26.04514399999998,2579
46.19266399999994,24.101143999999977,2225
44.572663999999946,25.397143999999983,2440
46.84066399999993,24.74914399999998,2238
46.516663999999935,21.50914399999997,2338
46.84066399999993,21.50914399999997,2345
44.572663999999946,26.69314399999997,2395
44.572663999999946,27.34114399999998,2416
44.89666399999994,27.34114399999998,2531
44.572663999999946,27.989143999999985,2436
44.24866399999995,27.989143999999985,2450
44.572663999999946,28.63714399999997,2501
45.86866399999994,22.15714399999998,2259
45.86866399999994,22.805143999999984,2153
44.24866399999995,23.45314399999998,2588
43.92466399999995,27.989143999999985,65535
46.84066399999993,27.34114399999998,2671
45.22066399999994,23.45314399999998,2460
45.54466399999994,23.45314399999998,2263
45.54466399999994,24.101143999999977,2210
45.22066399999994,24.101143999999977,2434
44.89666399999994,24.101143999999977,2504
46.19266399999994,22.15714399999998,2390
46.516663999999935,22.15714399999998,2356
45.22066399999994,21.50914399999997,2630
45.54466399999994,21.50914399999997,2478
45.54466399999994,20.86114399999998,2502
46.516663999999935,27.989143999999985,2621
46.19266399999994,27.989143999999985,2606
45.54466399999994,25.397143999999983,2324
45.22066399999994,25.397143999999983,2334
45.22066399999994,26.04514399999998,2390
47.81266399999993,24.101143999999977,2386
47.48866399999993,26.04514399999998,2476
47.81266399999993,26.04514399999998,2498
46.19266399999994,23.45314399999998,2057
45.86866399999994,23.45314399999998,2106
44.24866399999995,26.04514399999998,2384
45.22066399999994,27.989143999999985,2596
45.86866399999994,24.74914399999998,2219
46.516663999999935,25.397143999999983,2411
46.84066399999993,25.397143999999983,2294
46.19266399999994,26.04514399999998,2382
45.86866399999994,26.04514399999998,2347
43.92466399999995,23.45314399999998,2818
44.89666399999994,25.397143999999983,2445
46.19266399999994,20.86114399999998,2379
47.81266399999993,25.397143999999983,2510
44.572663999999946,22.805143999999984,2823
44.572663999999946,22.15714399999998,2965
46.516663999999935,23.45314399999998,2196
45.86866399999994,25.397143999999983,2273
44.24866399999995,27.34114399999998,3211
45.22066399999994,24.74914399999998,2536
45.54466399999994,22.805143999999984,2226
45.22066399999994,28.63714399999997,2656
44.89666399999994,28.63714399999997,2595
47.81266399999993,23.45314399999998,1756
46.19266399999994,24.74914399999998,2305
46.19266399999994,25.397143999999983,2329
43.92466399999995,24.101143999999977,2781
43.92466399999995,24.74914399999998,2794
47.81266399999993,26.69314399999997,2725
47.48866399999993,24.101143999999977,2318
46.84066399999993,26.04514399999998,3126
46.19266399999994,22.805143999999984,2450
47.48866399999993,27.34114399999998,2678
46.19266399999994,20.213143999999986,65535
45.54466399999994,26.04514399999998,2482
44.24866399999995,26.69314399999997,2400
45.86866399999994,27.989143999999985,2654
47.81266399999993,5.957143999999991,2266
