51.56399999999999,-0.4100000000000028,65535
51.887999999999984,-0.4100000000000028,65535
50.91599999999999,-1.7060000000000022,65535
51.23999999999999,-1.0580000000000025,65535
51.56399999999999,-1.0580000000000025,65535
51.23999999999999,-1.7060000000000022,65535
51.56399999999999,0.2379999999999968,65535
47.16466399999993,9.845143999999989,1123
47.48866399999993,9.845143999999989,1129
48.136663999999925,14.381143999999988,1180
47.81266399999993,13.085143999999987,1149
47.16466399999993,11.141143999999988,1184
47.48866399999993,11.789143999999988,1157
48.136663999999925,16.325143999999987,1414
47.48866399999993,12.437143999999988,1134
48.136663999999925,15.677143999999986,1444
47.16466399999993,10.493143999999988,1231
47.16466399999993,9.197143999999987,1111
48.136663999999925,13.733143999999989,1156
48.136663999999925,15.029143999999986,1459
47.81266399999993,16.973143999999984,1435
48.46066399999992,14.381143999999988,1418
47.48866399999993,13.085143999999987,1139
47.16466399999993,13.085143999999987,1149
47.48866399999993,14.381143999999988,1351
47.48866399999993,13.733143999999989,1373
47.48866399999993,15.029143999999986,1465
46.516663999999935,13.733143999999989,1247
46.84066399999993,13.733143999999989,1216
46.84066399999993,13.085143999999987,1201
48.78466399999992,14.381143999999988,65535
47.16466399999993,15.677143999999986,1445
46.516663999999935,14.381143999999988,1263
46.84066399999993,14.381143999999988,1273
47.16466399999993,14.381143999999988,1397
46.516663999999935,15.029143999999986,1327
47.81266399999993,16.325143999999987,1432
47.16466399999993,15.029143999999986,1441
47.81266399999993,15.677143999999986,1438
47.48866399999993,15.677143999999986,1477
46.516663999999935,13.085143999999987,1454
46.84066399999993,12.437143999999988,1259
48.136663999999925,11.789143999999988,1110
47.81266399999993,12.437143999999988,1122
46.84066399999993,15.677143999999986,1425
46.516663999999935,15.677143999999986,1383
46.84066399999993,16.325143999999987,1419
47.81266399999993,14.381143999999988,1225
48.78466399999992,16.973143999999984,1372
48.136663999999925,16.973143999999984,1401
48.46066399999992,13.733143999999989,1239
47.81266399999993,13.733143999999989,1274
50.08066399999991,8.54914399999999,1000
48.46066399999992,9.845143999999989,1089
51.05266399999991,7.25314399999999,958
51.37666399999991,7.25314399999999,951
51.37666399999991,6.60514399999999,953
48.46066399999992,16.325143999999987,1419
48.46066399999992,16.973143999999984,1388
48.78466399999992,16.325143999999987,1432
48.46066399999992,15.677143999999986,1440
48.78466399999992,15.677143999999986,1533
47.48866399999993,16.325143999999987,1442
47.16466399999993,16.325143999999987,1484
46.19266399999994,14.381143999999988,1329
45.86866399999994,15.677143999999986,1363
43.60066399999995,16.325143999999987,1720
45.54466399999994,14.381143999999988,1405
45.54466399999994,13.733143999999989,1428
48.136663999999925,13.085143999999987,1136
48.46066399999992,11.141143999999988,1101
48.136663999999925,11.141143999999988,1112
48.46066399999992,7.90114399999999,1059
49.10866399999992,8.54914399999999,1023
48.78466399999992,2.0691439999999925,1094
49.10866399999992,7.25314399999999,1041
52.0246639999999,7.90114399999999,932
47.16466399999993,11.789143999999988,1210
49.43266399999992,11.141143999999988,1118
53.64466399999989,9.845143999999989,802
50.72866399999991,4.013143999999992,995
51.05266399999991,11.141143999999988,1039
47.48866399999993,11.141143999999988,1148
46.84066399999993,11.789143999999988,1622
46.516663999999935,11.141143999999988,1591
45.54466399999994,11.141143999999988,1485
46.19266399999994,11.141143999999988,1557
45.86866399999994,11.141143999999988,1541
44.572663999999946,11.141143999999988,1332
43.92466399999995,12.437143999999988,3965
45.54466399999994,12.437143999999988,1572
45.54466399999994,11.789143999999988,1535
48.78466399999992,15.029143999999986,1572
47.81266399999993,15.029143999999986,1457
47.81266399999993,11.141143999999988,1129
50.40466399999991,18.917143999999983,1369
52.3486639999999,20.86114399999998,1547
54.616663999999886,18.269143999999983,1467
54.29266399999989,18.917143999999983,1477
49.10866399999992,14.381143999999988,65535
50.08066399999991,14.381143999999988,1182
48.78466399999992,13.733143999999989,1736
52.6726639999999,13.085143999999987,1004
52.3486639999999,13.085143999999987,1009
53.96866399999989,12.437143999999988,924
54.29266399999989,12.437143999999988,952
47.48866399999993,8.54914399999999,1103
47.81266399999993,17.621143999999987,1469
47.48866399999993,18.917143999999983,1580
47.48866399999993,20.86114399999998,1801
46.84066399999993,23.45314399999998,3358
44.572663999999946,26.04514399999998,3864
47.48866399999993,21.50914399999997,1835
47.81266399999993,21.50914399999997,1868
48.46066399999992,22.15714399999998,1597
47.48866399999993,16.973143999999984,65535
49.10866399999992,16.325143999999987,1327
49.75666399999992,18.269143999999983,1420
46.19266399999994,13.085143999999987,2303
41.98066399999996,12.437143999999988,2565
43.60066399999995,10.493143999999988,2726
45.54466399999994,9.197143999999987,1208
47.81266399999993,22.805143999999984,4099
49.75666399999992,22.805143999999984,1634
50.72866399999991,3.365143999999992,1002
51.05266399999991,4.013143999999992,995
50.72866399999991,4.661143999999991,987
51.05266399999991,4.661143999999991,988
51.05266399999991,3.365143999999992,1002
51.05266399999991,2.717143999999992,1022
50.40466399999991,4.661143999999991,991
50.72866399999991,2.717143999999992,1018
50.40466399999991,4.013143999999992,1006
51.05266399999991,5.309143999999991,990
50.72866399999991,5.309143999999991,980
51.37666399999991,3.365143999999992,1021
51.37666399999991,4.661143999999991,993
50.72866399999991,5.957143999999991,969
50.40466399999991,5.957143999999991,972
50.40466399999991,3.365143999999992,1010
50.40466399999991,5.309143999999991,985
50.08066399999991,5.309143999999991,1029
49.75666399999992,5.309143999999991,1033
49.75666399999992,5.957143999999991,1004
51.37666399999991,5.309143999999991,1047
51.700663999999904,4.661143999999991,1038
50.08066399999991,4.013143999999992,1028
50.08066399999991,5.957143999999991,981
50.08066399999991,4.661143999999991,1015
49.43266399999992,5.309143999999991,1058
49.43266399999992,5.957143999999991,1071
52.0246639999999,4.661143999999991,1070
52.3486639999999,4.661143999999991,1099
50.72866399999991,15.029143999999986,1150
51.05266399999991,15.029143999999986,1091
51.05266399999991,13.733143999999989,1058
50.40466399999991,13.085143999999987,1067
49.10866399999992,7.90114399999999,1028
48.78466399999992,7.90114399999999,1039
50.40466399999991,7.90114399999999,984
50.08066399999991,7.90114399999999,1004
49.75666399999992,7.90114399999999,1013
49.43266399999992,7.90114399999999,1025
49.75666399999992,8.54914399999999,1011
49.43266399999992,8.54914399999999,1020
49.43266399999992,9.197143999999987,1038
49.10866399999992,9.197143999999987,1033
47.48866399999993,7.90114399999999,1109
47.81266399999993,7.90114399999999,1104
48.136663999999925,7.90114399999999,1081
48.136663999999925,9.845143999999989,1084
47.81266399999993,9.197143999999987,1105
47.81266399999993,8.54914399999999,1094
47.81266399999993,9.845143999999989,1104
54.940663999999884,9.197143999999987,692
54.616663999999886,9.197143999999987,753
54.29266399999989,9.197143999999987,765
53.96866399999989,9.197143999999987,777
53.64466399999989,9.197143999999987,789
54.616663999999886,9.845143999999989,781
54.29266399999989,9.845143999999989,790
53.96866399999989,9.845143999999989,810
53.64466399999989,10.493143999999988,813
53.96866399999989,10.493143999999988,816
53.96866399999989,11.141143999999988,863
54.29266399999989,10.493143999999988,798
53.32066399999989,10.493143999999988,849
54.940663999999884,11.141143999999988,890
52.6726639999999,13.733143999999989,1007
52.3486639999999,13.733143999999989,1009
52.3486639999999,14.381143999999988,1027
52.0246639999999,14.381143999999988,1040
52.0246639999999,11.789143999999988,975
52.3486639999999,11.789143999999988,969
52.3486639999999,12.437143999999988,998
52.0246639999999,15.029143999999986,1072
51.700663999999904,14.381143999999988,1057
52.0246639999999,13.733143999999989,1034
51.700663999999904,13.733143999999989,1060
52.6726639999999,12.437143999999988,1004
53.32066399999989,11.789143999999988,920
53.96866399999989,11.789143999999988,916
53.64466399999989,11.789143999999988,896
53.64466399999989,11.141143999999988,887
53.32066399999989,11.141143999999988,908
52.996663999999896,11.789143999999988,960
52.996663999999896,12.437143999999988,987
52.996663999999896,13.733143999999989,1020
53.64466399999989,13.733143999999989,1066
53.96866399999989,13.733143999999989,1107
54.29266399999989,13.085143999999987,1022
53.96866399999989,13.085143999999987,1019
53.32066399999989,13.733143999999989,1067
52.0246639999999,13.085143999999987,1031
51.700663999999904,13.085143999999987,1066
52.996663999999896,14.381143999999988,1122
52.0246639999999,12.437143999999988,1013
51.700663999999904,12.437143999999988,1008
51.37666399999991,11.789143999999988,994
51.37666399999991,12.437143999999988,1010
52.6726639999999,11.789143999999988,950
53.64466399999989,13.085143999999987,1003
53.32066399999989,13.085143999999987,1062
52.996663999999896,13.085143999999987,1038
53.64466399999989,12.437143999999988,942
51.37666399999991,13.733143999999989,1045
53.32066399999989,12.437143999999988,1016
52.6726639999999,14.381143999999988,1020
51.37666399999991,13.085143999999987,1043
53.32066399999989,14.381143999999988,1109
52.3486639999999,15.029143999999986,1081
52.0246639999999,15.677143999999986,1088
51.700663999999904,15.029143999999986,1085
51.05266399999991,16.325143999999987,1237
51.05266399999991,16.973143999999984,1261
51.700663999999904,15.677143999999986,1180
51.37666399999991,15.677143999999986,1192
51.37666399999991,16.325143999999987,1228
50.72866399999991,13.085143999999987,1045
50.72866399999991,12.437143999999988,1030
51.05266399999991,13.085143999999987,1032
51.05266399999991,14.381143999999988,1061
50.40466399999991,12.437143999999988,1050
50.40466399999991,11.789143999999988,1055
50.08066399999991,12.437143999999988,1102
50.72866399999991,11.789143999999988,1058
51.05266399999991,12.437143999999988,1019
50.72866399999991,14.381143999999988,1194
51.37666399999991,14.381143999999988,1094
50.72866399999991,13.733143999999989,1077
50.40466399999991,14.381143999999988,1179
51.37666399999991,15.029143999999986,1125
55.26466399999988,9.197143999999987,1788
55.58866399999988,8.54914399999999,3082
55.91266399999988,8.54914399999999,6559
56.23666399999988,9.197143999999987,6567
56.23666399999988,10.493143999999988,6520
56.23666399999988,9.845143999999989,6507
55.91266399999988,9.845143999999989,6445
56.56066399999988,9.197143999999987,6577
56.56066399999988,8.54914399999999,6620
51.05266399999991,6.60514399999999,954
51.700663999999904,7.90114399999999,945
50.72866399999991,6.60514399999999,967
51.700663999999904,7.25314399999999,956
50.72866399999991,7.25314399999999,973
52.0246639999999,7.25314399999999,942
52.3486639999999,7.90114399999999,898
51.05266399999991,5.957143999999991,964
50.40466399999991,7.25314399999999,979
51.700663999999904,6.60514399999999,967
51.700663999999904,5.957143999999991,968
52.3486639999999,9.197143999999987,901
51.700663999999904,8.54914399999999,943
52.0246639999999,8.54914399999999,920
52.3486639999999,8.54914399999999,913
51.37666399999991,7.90114399999999,954
52.3486639999999,7.25314399999999,921
51.37666399999991,5.957143999999991,1001
50.72866399999991,7.90114399999999,991
51.37666399999991,9.197143999999987,943
51.700663999999904,9.197143999999987,933
50.40466399999991,6.60514399999999,1006
51.05266399999991,7.90114399999999,974
51.37666399999991,8.54914399999999,955
52.0246639999999,5.957143999999991,1011
52.3486639999999,6.60514399999999,956
51.05266399999991,8.54914399999999,983
52.0246639999999,9.197143999999987,917
52.6726639999999,9.197143999999987,893
52.0246639999999,9.845143999999989,908
51.700663999999904,9.845143999999989,922
51.37666399999991,9.845143999999989,949
50.72866399999991,8.54914399999999,987
51.05266399999991,9.845143999999989,1071
50.72866399999991,9.845143999999989,1036
50.40466399999991,9.845143999999989,1050
51.05266399999991,9.197143999999987,973
50.40466399999991,9.197143999999987,1018
50.08066399999991,9.197143999999987,1008
51.05266399999991,10.493143999999988,1767
50.40466399999991,8.54914399999999,993
50.72866399999991,9.197143999999987,980
49.75666399999992,9.197143999999987,1025
52.996663999999896,9.197143999999987,833
52.3486639999999,9.845143999999989,897
52.996663999999896,8.54914399999999,841
52.996663999999896,7.90114399999999,869
53.32066399999989,7.90114399999999,887
53.32066399999989,7.25314399999999,973
53.64466399999989,7.25314399999999,1018
52.996663999999896,10.493143999999988,863
52.6726639999999,10.493143999999988,876
52.6726639999999,9.845143999999989,886
53.32066399999989,9.845143999999989,812
53.32066399999989,9.197143999999987,826
53.64466399999989,8.54914399999999,822
53.32066399999989,8.54914399999999,829
52.6726639999999,8.54914399999999,851
52.0246639999999,10.493143999999988,933
52.0246639999999,11.141143999999988,1001
51.700663999999904,11.141143999999988,1000
52.6726639999999,7.25314399999999,1723
52.996663999999896,7.25314399999999,1698
52.6726639999999,7.90114399999999,881
53.64466399999989,7.90114399999999,911
52.996663999999896,11.141143999999988,881
52.6726639999999,11.141143999999988,945
52.3486639999999,10.493143999999988,938
52.996663999999896,9.845143999999989,874
51.700663999999904,10.493143999999988,1038
51.37666399999991,10.493143999999988,2226
51.700663999999904,11.789143999999988,981
52.3486639999999,11.141143999999988,989
51.37666399999991,11.141143999999988,1059
51.05266399999991,11.789143999999988,1011
49.10866399999992,11.141143999999988,1086
48.78466399999992,11.141143999999988,1091
48.46066399999992,11.789143999999988,1107
49.43266399999992,11.789143999999988,1120
50.08066399999991,11.789143999999988,1085
49.75666399999992,12.437143999999988,1097
49.10866399999992,11.789143999999988,1148
48.78466399999992,12.437143999999988,1164
48.46066399999992,12.437143999999988,1152
49.10866399999992,12.437143999999988,1152
48.78466399999992,13.085143999999987,1191
48.136663999999925,12.437143999999988,1126
47.81266399999993,11.789143999999988,1117
48.136663999999925,10.493143999999988,1126
47.81266399999993,10.493143999999988,1159
48.78466399999992,10.493143999999988,1064
47.48866399999993,10.493143999999988,1143
48.46066399999992,10.493143999999988,1089
49.43266399999992,13.085143999999987,1298
48.46066399999992,13.085143999999987,1211
49.43266399999992,10.493143999999988,1092
49.75666399999992,9.845143999999989,1058
49.75666399999992,10.493143999999988,1086
50.40466399999991,11.141143999999988,1091
50.08066399999991,11.141143999999988,1125
50.72866399999991,11.141143999999988,1832
49.75666399999992,11.141143999999988,1096
48.78466399999992,11.789143999999988,1213
50.40466399999991,10.493143999999988,1063
50.08066399999991,9.845143999999989,1055
50.08066399999991,10.493143999999988,1117
49.43266399999992,12.437143999999988,1144
49.75666399999992,11.789143999999988,1103
49.10866399999992,13.085143999999987,1233
50.72866399999991,10.493143999999988,1781
49.10866399999992,10.493143999999988,1107
48.78466399999992,9.845143999999989,1045
48.46066399999992,8.54914399999999,1048
48.46066399999992,9.197143999999987,1054
48.78466399999992,9.197143999999987,1041
48.78466399999992,8.54914399999999,1040
50.08066399999991,7.25314399999999,1010
49.75666399999992,6.60514399999999,1037
49.43266399999992,6.60514399999999,1043
49.10866399999992,6.60514399999999,1051
49.43266399999992,7.25314399999999,1026
49.75666399999992,7.25314399999999,1023
49.10866399999992,5.957143999999991,1102
48.78466399999992,7.25314399999999,1057
50.08066399999991,6.60514399999999,1034
47.48866399999993,9.197143999999987,1108
48.136663999999925,8.54914399999999,1062
48.136663999999925,9.197143999999987,1065
47.81266399999993,7.25314399999999,1094
49.43266399999992,9.845143999999989,1064
49.10866399999992,9.845143999999989,1040
53.64466399999989,14.381143999999988,1103
50.08066399999991,13.085143999999987,1258
49.75666399999992,13.085143999999987,1295
45.86866399999994,9.197143999999987,1198
46.19266399999994,9.197143999999987,1184
46.516663999999935,8.54914399999999,1137
46.516663999999935,9.197143999999987,1179
46.19266399999994,8.54914399999999,1181
47.16466399999993,8.54914399999999,1104
45.86866399999994,4.661143999999991,1200
46.84066399999993,9.845143999999989,1122
45.22066399999994,5.957143999999991,1252
45.22066399999994,5.309143999999991,1256
45.86866399999994,5.957143999999991,1200
45.54466399999994,5.957143999999991,1223
44.89666399999994,4.661143999999991,1224
44.89666399999994,5.309143999999991,1287
44.572663999999946,4.661143999999991,1315
44.24866399999995,4.661143999999991,1282
43.92466399999995,4.661143999999991,1263
46.19266399999994,7.25314399999999,1146
48.78466399999992,5.957143999999991,1135
48.136663999999925,6.60514399999999,1153
48.46066399999992,6.60514399999999,1134
48.78466399999992,6.60514399999999,1131
47.16466399999993,7.90114399999999,1111
48.136663999999925,7.25314399999999,1078
48.46066399999992,7.25314399999999,1064
46.516663999999935,6.60514399999999,1136
46.84066399999993,6.60514399999999,1128
46.84066399999993,7.25314399999999,1124
46.516663999999935,5.957143999999991,1155
46.19266399999994,5.957143999999991,1170
46.84066399999993,8.54914399999999,1116
46.84066399999993,7.90114399999999,1120
45.86866399999994,5.309143999999991,1231
46.19266399999994,6.60514399999999,1144
45.86866399999994,6.60514399999999,1153
47.48866399999993,6.60514399999999,1136
47.48866399999993,7.25314399999999,1109
47.16466399999993,7.25314399999999,1118
49.10866399999992,4.013143999999992,1154
49.75666399999992,4.661143999999991,1077
49.43266399999992,4.661143999999991,1140
49.10866399999992,5.309143999999991,1198
46.19266399999994,4.661143999999991,1222
46.84066399999993,9.197143999999987,1130
46.19266399999994,5.309143999999991,1209
46.516663999999935,5.309143999999991,1199
45.54466399999994,6.60514399999999,1296
45.54466399999994,5.309143999999991,1219
43.60066399999995,4.013143999999992,1302
43.60066399999995,3.365143999999992,1338
42.62866399999996,2.717143999999992,1405
43.276663999999954,2.717143999999992,1369
45.54466399999994,4.661143999999991,1206
45.22066399999994,4.661143999999991,1240
47.16466399999993,5.309143999999991,1197
47.16466399999993,5.957143999999991,1176
46.19266399999994,7.90114399999999,1140
49.75666399999992,2.717143999999992,1149
49.10866399999992,2.717143999999992,1073
48.78466399999992,2.717143999999992,1088
45.86866399999994,3.365143999999992,1314
46.84066399999993,3.365143999999992,1312
46.516663999999935,3.365143999999992,1301
46.19266399999994,3.365143999999992,1289
47.16466399999993,6.60514399999999,1148
49.10866399999992,3.365143999999992,1103
45.54466399999994,4.013143999999992,1236
46.516663999999935,7.25314399999999,1151
47.16466399999993,4.661143999999991,1230
46.84066399999993,4.661143999999991,1257
46.516663999999935,4.661143999999991,1281
46.84066399999993,5.957143999999991,1173
47.81266399999993,3.365143999999992,1190
47.48866399999993,4.013143999999992,1265
48.136663999999925,4.013143999999992,1271
47.81266399999993,4.013143999999992,1275
47.48866399999993,4.661143999999991,1245
47.16466399999993,3.365143999999992,1326
46.84066399999993,4.013143999999992,1280
48.46066399999992,5.957143999999991,1145
46.19266399999994,2.717143999999992,1494
47.16466399999993,2.0691439999999925,1270
46.516663999999935,2.717143999999992,1466
46.84066399999993,2.717143999999992,1447
46.84066399999993,2.0691439999999925,1354
47.16466399999993,2.717143999999992,1307
44.572663999999946,5.309143999999991,1400
44.572663999999946,5.957143999999991,1368
44.89666399999994,6.60514399999999,1287
44.572663999999946,6.60514399999999,1384
43.60066399999995,5.309143999999991,1302
43.92466399999995,7.25314399999999,1384
43.60066399999995,6.60514399999999,1372
43.276663999999954,6.60514399999999,1380
43.276663999999954,5.957143999999991,1306
45.86866399999994,8.54914399999999,1205
45.54466399999994,8.54914399999999,1212
48.136663999999925,3.365143999999992,1173
48.46066399999992,3.365143999999992,1192
48.46066399999992,2.717143999999992,1151
47.48866399999993,5.309143999999991,1236
46.516663999999935,9.845143999999989,1133
46.84066399999993,10.493143999999988,2291
47.81266399999993,5.309143999999991,1337
45.22066399999994,6.60514399999999,1281
46.19266399999994,4.013143999999992,1244
45.86866399999994,4.013143999999992,1253
45.22066399999994,4.013143999999992,1277
44.89666399999994,4.013143999999992,1344
46.84066399999993,5.309143999999991,1221
48.136663999999925,-1.8188560000000056,1207
48.136663999999925,0.1251439999999934,1170
48.136663999999925,-0.5228560000000062,1251
47.48866399999993,-0.5228560000000062,1206
47.16466399999993,-1.8188560000000056,1247
47.48866399999993,0.7731439999999932,1180
47.16466399999993,0.1251439999999934,1258
45.86866399999994,7.25314399999999,1159
48.136663999999925,5.309143999999991,1325
49.10866399999992,4.661143999999991,1219
48.46066399999992,4.013143999999992,1250
48.136663999999925,4.661143999999991,1288
47.81266399999993,6.60514399999999,1153
47.48866399999993,5.957143999999991,1281
48.136663999999925,5.957143999999991,1406
45.86866399999994,7.90114399999999,1154
46.516663999999935,7.90114399999999,1129
49.43266399999992,3.365143999999992,1120
49.43266399999992,4.013143999999992,1160
48.136663999999925,2.717143999999992,1390
47.81266399999993,2.717143999999992,1401
47.48866399999993,2.717143999999992,1379
50.40466399999991,2.717143999999992,1023
48.46066399999992,-4.410856000000004,1364
48.46066399999992,-3.7628560000000046,1310
48.46066399999992,-3.114856000000005,1295
48.46066399999992,-2.4668560000000053,1265
47.48866399999993,1.4211439999999929,1235
47.16466399999993,1.4211439999999929,1247
46.516663999999935,4.013143999999992,1285
43.60066399999995,4.661143999999991,1289
44.89666399999994,2.717143999999992,1440
45.22066399999994,2.717143999999992,1488
45.54466399999994,3.365143999999992,1367
45.22066399999994,3.365143999999992,1421
47.48866399999993,3.365143999999992,1486
46.19266399999994,9.845143999999989,1201
47.81266399999993,2.0691439999999925,1245
47.48866399999993,2.0691439999999925,1282
45.86866399999994,2.717143999999992,1395
44.89666399999994,5.957143999999991,1294
45.22066399999994,1.4211439999999929,1349
44.89666399999994,1.4211439999999929,1369
44.89666399999994,2.0691439999999925,1415
43.276663999999954,2.0691439999999925,1413
43.60066399999995,1.4211439999999929,1411
48.78466399999992,4.661143999999991,1265
48.78466399999992,5.309143999999991,1152
46.19266399999994,2.0691439999999925,1521
45.86866399999994,1.4211439999999929,1360
46.19266399999994,1.4211439999999929,1408
44.572663999999946,4.013143999999992,1423
44.89666399999994,3.365143999999992,1511
43.92466399999995,4.013143999999992,1290
44.24866399999995,4.013143999999992,1317
44.89666399999994,-0.5228560000000062,1274
45.54466399999994,0.1251439999999934,1316
46.516663999999935,0.1251439999999934,1290
44.572663999999946,2.0691439999999925,1418
49.75666399999992,4.013143999999992,1058
43.92466399999995,3.365143999999992,1641
43.92466399999995,2.717143999999992,1672
44.24866399999995,3.365143999999992,1696
44.572663999999946,3.365143999999992,1737
49.10866399999992,0.1251439999999934,1222
49.43266399999992,0.7731439999999932,1197
49.43266399999992,-1.8188560000000056,1279
49.10866399999992,-1.170856000000006,1253
49.10866399999992,-0.5228560000000062,1229
49.10866399999992,0.7731439999999932,1249
49.10866399999992,1.4211439999999929,1185
47.81266399999993,-1.8188560000000056,1261
47.81266399999993,-2.4668560000000053,1287
47.81266399999993,-3.114856000000005,1300
48.136663999999925,-3.7628560000000046,1357
44.572663999999946,9.197143999999987,1316
44.89666399999994,8.54914399999999,1262
45.22066399999994,9.197143999999987,1219
45.54466399999994,10.493143999999988,1267
44.572663999999946,10.493143999999988,1318
44.89666399999994,10.493143999999988,1304
44.89666399999994,9.845143999999989,1272
48.46066399999992,5.309143999999991,1345
50.91599999999999,-1.0580000000000025,65535
51.23999999999999,-0.4100000000000028,65535
50.91599999999999,-0.4100000000000028,65535
51.23999999999999,-2.354000000000002,65535
51.56399999999999,-2.354000000000002,65535
51.56399999999999,-3.0020000000000016,65535
50.91599999999999,-2.354000000000002,65535
53.50799999999997,-3.0020000000000016,65535
53.183999999999976,-2.354000000000002,65535
53.183999999999976,-3.0020000000000016,65535
52.85999999999998,-2.354000000000002,65535
52.21199999999998,-1.0580000000000025,65535
51.887999999999984,-1.0580000000000025,65535
52.53599999999998,-1.0580000000000025,65535
52.53599999999998,-1.7060000000000022,65535
52.85999999999998,-1.7060000000000022,65535
53.50799999999997,-2.354000000000002,65535
52.85999999999998,-1.0580000000000025,65535
52.53599999999998,1.5339999999999965,65535
52.53599999999998,0.8859999999999966,65535
52.53599999999998,0.2379999999999968,65535
52.53599999999998,-0.4100000000000028,65535
53.50799999999997,-1.7060000000000022,65535
53.183999999999976,-1.7060000000000022,65535
53.183999999999976,-1.0580000000000025,65535
52.85999999999998,-0.4100000000000028,65535
51.887999999999984,-2.354000000000002,65535
52.21199999999998,-2.354000000000002,65535
55.77599999999996,-2.354000000000002,65535
53.83199999999997,-1.0580000000000025,65535
53.83199999999997,-1.7060000000000022,65535
55.127999999999965,-1.7060000000000022,65535
54.80399999999997,-1.7060000000000022,65535
54.47999999999997,-1.7060000000000022,65535
54.15599999999997,-1.0580000000000025,65535
52.21199999999998,-1.7060000000000022,65535
53.50799999999997,-1.0580000000000025,65535
55.77599999999996,-3.0020000000000016,65535
55.45199999999996,-1.7060000000000022,65535
57.07199999999995,-2.354000000000002,65535
56.74799999999996,-3.0020000000000016,65535
56.42399999999996,-3.0020000000000016,65535
56.09999999999996,-3.650000000000001,65535
50.91599999999999,-3.0020000000000016,65535
50.91599999999999,-3.650000000000001,65535
50.59199999999999,-3.650000000000001,65535
50.59199999999999,-4.298000000000001,65535
51.23999999999999,-3.0020000000000016,65535
50.268,-4.946000000000001,65535
55.77599999999996,-3.650000000000001,65535
55.77599999999996,-4.298000000000001,65535
52.21199999999998,-0.4100000000000028,65535
52.53599999999998,-2.354000000000002,65535
51.56399999999999,-1.7060000000000022,65535
51.56399999999999,-3.650000000000001,65535
51.887999999999984,-4.298000000000001,65535
51.56399999999999,-4.298000000000001,65535
51.887999999999984,-1.7060000000000022,65535
52.21199999999998,-3.0020000000000016,65535
51.23999999999999,0.2379999999999968,65535
50.91599999999999,0.2379999999999968,65535
52.21199999999998,0.2379999999999968,65535
53.83199999999997,-3.0020000000000016,65535
54.15599999999997,-3.0020000000000016,65535
54.47999999999997,-3.0020000000000016,65535
55.127999999999965,-3.650000000000001,65535
54.80399999999997,-3.0020000000000016,65535
53.83199999999997,-2.354000000000002,65535
54.15599999999997,-0.4100000000000028,65535
54.47999999999997,-1.0580000000000025,65535
53.83199999999997,-0.4100000000000028,65535
53.183999999999976,-3.650000000000001,65535
53.183999999999976,-4.298000000000001,65535
52.85999999999998,-3.0020000000000016,65535
52.53599999999998,-3.0020000000000016,65535
51.887999999999984,-3.0020000000000016,65535
51.23999999999999,0.8859999999999966,65535
51.887999999999984,0.2379999999999968,65535
52.21199999999998,0.8859999999999966,65535
51.887999999999984,-4.946000000000001,65535
52.53599999999998,-3.650000000000001,65535
52.21199999999998,-4.298000000000001,65535
53.183999999999976,-0.4100000000000028,65535
51.23999999999999,-3.650000000000001,65535
51.887999999999984,-3.650000000000001,65535
52.21199999999998,-3.650000000000001,65535
51.56399999999999,0.8859999999999966,65535
51.887999999999984,0.8859999999999966,65535
52.85999999999998,0.8859999999999966,65535
53.50799999999997,-0.4100000000000028,65535
56.09999999999996,-4.298000000000001,65535
56.74799999999996,-4.946000000000001,65535
56.74799999999996,-4.298000000000001,65535
56.42399999999996,-4.946000000000001,65535
56.42399999999996,-4.298000000000001,65535
56.09999999999996,-4.946000000000001,65535
57.39599999999995,-4.298000000000001,65535
57.39599999999995,-3.0020000000000016,65535
57.39599999999995,-3.650000000000001,65535
56.42399999999996,-3.650000000000001,65535
57.07199999999995,-3.650000000000001,65535
57.07199999999995,-4.298000000000001,65535
56.74799999999996,-3.650000000000001,65535
59.15266399999986,27.34114399999998,65535
59.47666399999986,26.69314399999997,65535
59.47666399999986,26.04514399999998,65535
59.15266399999986,26.04514399999998,65535
59.15266399999986,24.74914399999998,65535
59.15266399999986,25.397143999999983,65535
59.47666399999986,25.397143999999983,65535
58.50466399999986,26.69314399999997,65535
58.82866399999986,26.69314399999997,65535
57.85666399999987,26.04514399999998,65535
58.180663999999865,26.04514399999998,65535
58.180663999999865,26.69314399999997,65535
58.82866399999986,26.04514399999998,65535
58.50466399999986,25.397143999999983,65535
58.82866399999986,25.397143999999983,65535
58.82866399999986,24.74914399999998,65535
58.180663999999865,27.34114399999998,65535
57.85666399999987,27.34114399999998,65535
63.68866399999983,27.34114399999998,7077
60.124663999999854,24.74914399999998,3733
60.44866399999985,24.74914399999998,3702
60.44866399999985,25.397143999999983,3714
60.77266399999985,25.397143999999983,4425
61.09666399999985,26.04514399999998,4468
60.77266399999985,26.04514399999998,4476
60.77266399999985,26.69314399999997,4495
61.09666399999985,25.397143999999983,4459
61.09666399999985,26.69314399999997,7198
61.420663999999846,26.69314399999997,7220
61.74466399999984,27.34114399999998,7244
62.06866399999984,27.34114399999998,7269
62.39266399999984,27.34114399999998,7293
62.71666399999984,27.34114399999998,7257
64.01266399999983,27.34114399999998,7033
63.36466399999984,27.34114399999998,7145
63.04066399999984,27.34114399999998,7185
63.04066399999984,27.989143999999985,7200
64.33666399999983,27.989143999999985,4784
64.33666399999983,27.34114399999998,4729
64.66066399999983,27.34114399999998,4714
64.66066399999983,26.69314399999997,4659
64.98466399999982,25.397143999999983,3079
64.66066399999983,26.04514399999998,4640
64.98466399999982,26.04514399999998,4624
66.28066399999982,25.397143999999983,3251
65.95666399999982,24.74914399999998,2992
65.63266399999982,24.74914399999998,2996
65.63266399999982,25.397143999999983,3038
65.30866399999982,25.397143999999983,3059
66.60466399999981,25.397143999999983,3285
64.01266399999983,24.74914399999998,3216
64.01266399999983,24.101143999999977,3251
64.01266399999983,23.45314399999998,3275
63.68866399999983,23.45314399999998,3287
63.68866399999983,22.805143999999984,3312
63.68866399999983,26.04514399999998,5344
63.68866399999983,25.397143999999983,5310
63.68866399999983,26.69314399999997,7044
60.44866399999985,26.69314399999997,7829
64.01266399999983,27.989143999999985,7463
62.71666399999984,22.805143999999984,3434
62.39266399999984,22.805143999999984,3466
62.06866399999984,22.805143999999984,3495
62.06866399999984,23.45314399999998,3511
61.74466399999984,23.45314399999998,3523
61.420663999999846,23.45314399999998,3571
61.09666399999985,23.45314399999998,3612
61.09666399999985,24.101143999999977,3619
61.09666399999985,24.74914399999998,3653
60.77266399999985,24.74914399999998,3669
63.04066399999984,21.50914399999997,65535
63.04066399999984,22.15714399999998,65535
63.04066399999984,22.805143999999984,3398
62.39266399999984,26.04514399999998,7441
62.06866399999984,25.397143999999983,7490
61.74466399999984,25.397143999999983,7558
61.74466399999984,24.74914399999998,7595
61.74466399999984,24.101143999999977,3800
61.420663999999846,24.101143999999977,3755
62.39266399999984,26.69314399999997,7412
64.66066399999983,25.397143999999983,3148
64.66066399999983,24.74914399999998,3166
64.33666399999983,24.74914399999998,3177
63.36466399999984,22.805143999999984,3337
67.25266399999981,24.101143999999977,8186
66.92866399999981,24.101143999999977,8150
66.60466399999981,23.45314399999998,8119
66.28066399999982,23.45314399999998,8101
66.28066399999982,24.101143999999977,8083
65.95666399999982,24.101143999999977,924
60.124663999999854,24.101143999999977,5247
60.124663999999854,23.45314399999998,6105
60.44866399999985,22.805143999999984,6164
60.77266399999985,27.34114399999998,4547
61.09666399999985,27.989143999999985,4577
61.09666399999985,28.63714399999997,4615
61.420663999999846,29.28514399999997,4650
61.74466399999984,29.933143999999977,4687
62.06866399999984,29.933143999999977,4713
62.39266399999984,29.933143999999977,4729
62.71666399999984,29.933143999999977,4753
61.420663999999846,22.805143999999984,5858
61.420663999999846,22.15714399999998,6566
61.09666399999985,22.15714399999998,5904
61.420663999999846,21.50914399999997,6699
62.39266399999984,27.989143999999985,65535
62.06866399999984,27.989143999999985,65535
61.420663999999846,27.34114399999998,65535
63.04066399999984,29.933143999999977,6692
63.68866399999983,29.28514399999997,8475
63.36466399999984,29.28514399999997,8455
63.36466399999984,29.933143999999977,8414
60.44866399999985,27.34114399999998,65535
61.74466399999984,29.28514399999997,65535
62.39266399999984,30.58114399999998,65535
62.71666399999984,31.229143999999977,65535
62.71666399999984,29.28514399999997,65535
63.04066399999984,28.63714399999997,65535
66.60466399999981,26.04514399999998,6106
66.60466399999981,26.69314399999997,6142
66.60466399999981,27.34114399999998,6165
62.71666399999984,26.04514399999998,7326
62.71666399999984,25.397143999999983,7295
63.04066399999984,25.397143999999983,7115
63.36466399999984,25.397143999999983,5752
62.71666399999984,23.45314399999998,7320
62.39266399999984,24.101143999999977,65535
62.71666399999984,22.15714399999998,65535
62.39266399999984,22.15714399999998,65535
62.39266399999984,21.50914399999997,65535
61.09666399999985,21.50914399999997,5934
60.77266399999985,22.805143999999984,3972
60.44866399999985,22.15714399999998,4002
60.77266399999985,23.45314399999998,3959
60.77266399999985,21.50914399999997,5073
60.77266399999985,22.15714399999998,5026
60.124663999999854,22.805143999999984,8119
60.44866399999985,24.101143999999977,5232
62.06866399999984,24.74914399999998,65535
50.72866399999991,16.325143999999987,1177
50.40466399999991,16.973143999999984,1279
50.72866399999991,16.973143999999984,1250
50.40466399999991,16.325143999999987,1328
50.08066399999991,16.973143999999984,1389
50.08066399999991,16.325143999999987,1233
51.700663999999904,16.973143999999984,1253
51.37666399999991,16.973143999999984,1259
51.05266399999991,15.677143999999986,1102
50.72866399999991,15.677143999999986,1167
51.05266399999991,17.621143999999987,1300
51.37666399999991,17.621143999999987,1381
51.700663999999904,17.621143999999987,1303
51.700663999999904,16.325143999999987,1239
52.0246639999999,22.15714399999998,1557
52.0246639999999,21.50914399999997,1552
52.3486639999999,21.50914399999997,1554
52.0246639999999,20.86114399999998,1527
51.700663999999904,20.86114399999998,1545
51.37666399999991,21.50914399999997,1563
51.37666399999991,20.86114399999998,1579
51.05266399999991,20.86114399999998,1588
52.6726639999999,23.45314399999998,1629
52.3486639999999,22.805143999999984,1567
52.3486639999999,20.213143999999986,1519
52.0246639999999,20.213143999999986,1488
52.3486639999999,19.565143999999982,1444
52.6726639999999,19.565143999999982,1527
51.700663999999904,21.50914399999997,1557
51.700663999999904,22.15714399999998,1591
52.6726639999999,21.50914399999997,1563
52.996663999999896,21.50914399999997,1590
52.6726639999999,20.86114399999998,1585
52.6726639999999,22.15714399999998,1621
52.6726639999999,20.213143999999986,1586
52.996663999999896,19.565143999999982,1579
52.996663999999896,20.86114399999998,1618
52.996663999999896,20.213143999999986,1622
53.32066399999989,20.213143999999986,1534
51.37666399999991,20.213143999999986,1574
52.3486639999999,16.973143999999984,1276
52.0246639999999,16.973143999999984,1280
52.0246639999999,16.325143999999987,1253
52.0246639999999,17.621143999999987,1330
52.6726639999999,16.973143999999984,1270
52.996663999999896,16.973143999999984,1236
52.3486639999999,16.325143999999987,1240
52.3486639999999,15.677143999999986,1113
51.700663999999904,18.269143999999983,1363
52.6726639999999,17.621143999999987,1300
52.3486639999999,17.621143999999987,1286
52.6726639999999,18.269143999999983,1374
52.3486639999999,18.269143999999983,1357
52.3486639999999,18.917143999999983,1404
52.996663999999896,17.621143999999987,1398
51.700663999999904,19.565143999999982,1444
51.700663999999904,18.917143999999983,1411
51.37666399999991,18.269143999999983,1366
58.82866399999986,9.197143999999987,563
58.180663999999865,7.90114399999999,673
58.50466399999986,8.54914399999999,614
63.36466399999984,10.493143999999988,854
63.36466399999984,11.141143999999988,890
63.36466399999984,11.789143999999988,993
63.68866399999983,11.789143999999988,950
64.33666399999983,12.437143999999988,1104
64.66066399999983,12.437143999999988,1153
65.63266399999982,13.085143999999987,1248
65.95666399999982,13.085143999999987,1277
66.28066399999982,14.381143999999988,1348
65.95666399999982,13.733143999999989,1305
66.28066399999982,13.733143999999989,1327
65.30866399999982,13.085143999999987,1213
64.98466399999982,13.085143999999987,1191
64.01266399999983,11.789143999999988,981
63.68866399999983,11.141143999999988,919
59.800663999999855,10.493143999999988,404
59.800663999999855,11.141143999999988,387
60.124663999999854,11.141143999999988,402
60.44866399999985,11.141143999999988,415
60.124663999999854,11.789143999999988,428
60.77266399999985,7.25314399999999,1250
60.77266399999985,6.60514399999999,1309
59.15266399999986,9.197143999999987,527
59.47666399999986,9.197143999999987,499
59.800663999999855,9.845143999999989,406
59.47666399999986,11.141143999999988,351
61.09666399999985,10.493143999999988,520
60.77266399999985,10.493143999999988,499
60.77266399999985,11.141143999999988,450
62.06866399999984,9.197143999999987,690
61.74466399999984,9.845143999999989,622
61.420663999999846,9.845143999999989,606
59.15266399999986,9.845143999999989,470
59.47666399999986,9.845143999999989,446
58.82866399999986,5.957143999999991,885
58.180663999999865,7.25314399999999,735
58.50466399999986,7.25314399999999,772
58.50466399999986,6.60514399999999,778
58.50466399999986,5.957143999999991,839
58.82866399999986,8.54914399999999,599
60.44866399999985,7.25314399999999,1237
60.44866399999985,7.90114399999999,1193
60.124663999999854,10.493143999999988,434
60.44866399999985,9.197143999999987,1142
60.77266399999985,9.197143999999987,1154
60.77266399999985,8.54914399999999,1173
60.124663999999854,9.845143999999989,1535
60.44866399999985,10.493143999999988,486
63.04066399999984,10.493143999999988,810
62.06866399999984,9.845143999999989,716
62.39266399999984,9.845143999999989,724
62.71666399999984,9.845143999999989,750
59.47666399999986,14.381143999999988,357
59.47666399999986,13.733143999999989,339
59.47666399999986,13.085143999999987,311
59.800663999999855,12.437143999999988,391
59.15266399999986,11.141143999999988,320
59.15266399999986,14.381143999999988,341
58.82866399999986,11.789143999999988,299
58.50466399999986,12.437143999999988,195
58.180663999999865,12.437143999999988,189
57.85666399999987,11.789143999999988,185
62.71666399999984,7.90114399999999,1288
62.39266399999984,7.90114399999999,1245
62.06866399999984,8.54914399999999,1220
60.44866399999985,5.309143999999991,1380
60.44866399999985,5.957143999999991,1363
60.77266399999985,5.957143999999991,1337
62.39266399999984,11.141143999999988,991
62.06866399999984,10.493143999999988,1028
61.74466399999984,11.141143999999988,1065
61.420663999999846,11.141143999999988,1033
61.09666399999985,11.141143999999988,1016
60.77266399999985,11.789143999999988,993
63.04066399999984,11.141143999999988,920
62.71666399999984,11.141143999999988,942
62.39266399999984,10.493143999999988,1019
67.25266399999981,15.677143999999986,1463
67.25266399999981,15.029143999999986,1508
67.25266399999981,14.381143999999988,1536
66.92866399999981,15.029143999999986,1453
66.60466399999981,15.677143999999986,1431
64.01266399999983,11.141143999999988,965
66.60466399999981,15.029143999999986,1593
54.29266399999989,18.269143999999983,1470
54.616663999999886,17.621143999999987,1428
53.96866399999989,18.269143999999983,1458
43.92466399999995,1.4211439999999929,1382
44.24866399999995,0.7731439999999932,1343
44.572663999999946,0.1251439999999934,1328
46.84066399999993,1.4211439999999929,1378
44.572663999999946,1.4211439999999929,1399
44.24866399999995,1.4211439999999929,1423
45.54466399999994,1.4211439999999929,1344
46.516663999999935,1.4211439999999929,1511
42.30466399999996,2.717143999999992,1436
44.24866399999995,2.717143999999992,1508
44.572663999999946,2.717143999999992,1483
43.92466399999995,2.0691439999999925,1516
42.30466399999996,2.0691439999999925,1467
42.62866399999996,2.0691439999999925,1433
42.62866399999996,1.4211439999999929,1470
42.95266399999996,1.4211439999999929,1432
43.276663999999954,1.4211439999999929,1425
46.516663999999935,-1.170856000000006,1465
46.19266399999994,-1.170856000000006,1391
45.86866399999994,-0.5228560000000062,1360
45.54466399999994,-0.5228560000000062,1316
48.46066399999992,1.4211439999999929,1135
41.332663999999966,2.0691439999999925,1494
41.98066399999996,2.717143999999992,1453
48.46066399999992,-1.8188560000000056,1240
47.81266399999993,0.7731439999999932,1243
46.84066399999993,0.7731439999999932,1258
44.572663999999946,-1.170856000000006,1285
43.60066399999995,-1.170856000000006,1408
43.276663999999954,-1.8188560000000056,1455
43.276663999999954,0.1251439999999934,1545
42.95266399999996,0.1251439999999934,1517
43.276663999999954,-0.5228560000000062,1480
43.60066399999995,-0.5228560000000062,1469
47.81266399999993,-3.7628560000000046,1406
47.48866399999993,-2.4668560000000053,1274
47.81266399999993,-0.5228560000000062,1249
46.516663999999935,-1.8188560000000056,1481
48.136663999999925,-1.170856000000006,1212
47.48866399999993,-1.170856000000006,1255
45.22066399999994,8.54914399999999,1234
45.22066399999994,7.90114399999999,1242
46.19266399999994,-0.5228560000000062,1451
46.516663999999935,-0.5228560000000062,1434
48.78466399999992,-3.114856000000005,1311
50.72866399999991,2.0691439999999925,1079
50.40466399999991,2.0691439999999925,1074
40.36066399999997,-3.7628560000000046,2865
41.65666399999997,-1.170856000000006,2782
41.332663999999966,1.4211439999999929,2720
43.276663999999954,13.733143999999989,3910
42.95266399999996,13.733143999999989,3932
41.65666399999997,15.029143999999986,4016
40.68466399999997,17.621143999999987,4178
43.60066399999995,13.085143999999987,3903
41.65666399999997,12.437143999999988,2569
41.65666399999997,13.085143999999987,2588
41.98066399999996,13.085143999999987,2638
41.65666399999997,13.733143999999989,2640
41.332663999999966,13.733143999999989,2632
41.332663999999966,14.381143999999988,2789
41.00866399999997,14.381143999999988,2695
41.332663999999966,13.085143999999987,2614
41.00866399999997,15.029143999999986,2895
41.98066399999996,13.733143999999989,2837
42.30466399999996,14.381143999999988,2976
42.30466399999996,12.437143999999988,2577
42.62866399999996,12.437143999999988,2756
42.95266399999996,12.437143999999988,3041
42.30466399999996,11.789143999999988,2586
42.95266399999996,11.789143999999988,2796
42.62866399999996,11.789143999999988,2787
43.276663999999954,11.789143999999988,2850
42.95266399999996,13.085143999999987,3804
42.30466399999996,13.085143999999987,2863
43.276663999999954,13.085143999999987,3852
43.276663999999954,12.437143999999988,3859
42.62866399999996,11.141143999999988,2632
42.95266399999996,11.141143999999988,2675
42.95266399999996,10.493143999999988,2693
44.572663999999946,8.54914399999999,1310
44.89666399999994,7.90114399999999,1254
44.89666399999994,9.197143999999987,1272
44.24866399999995,7.90114399999999,1320
44.572663999999946,7.90114399999999,1280
43.92466399999995,7.90114399999999,1411
44.24866399999995,7.25314399999999,1309
44.89666399999994,7.25314399999999,1278
45.22066399999994,7.25314399999999,1258
45.54466399999994,7.90114399999999,1238
44.572663999999946,7.25314399999999,1462
52.996663999999896,22.805143999999984,1720
52.996663999999896,23.45314399999998,1741
51.37666399999991,22.15714399999998,1705
51.37666399999991,22.805143999999984,1759
50.08066399999991,20.213143999999986,1466
50.72866399999991,20.213143999999986,1507
50.40466399999991,20.213143999999986,1446
50.08066399999991,20.86114399999998,1533
50.08066399999991,21.50914399999997,1564
50.08066399999991,22.15714399999998,1601
50.08066399999991,22.805143999999984,1608
53.96866399999989,22.805143999999984,2356
53.64466399999989,23.45314399999998,2312
53.32066399999989,23.45314399999998,2267
50.40466399999991,19.565143999999982,1380
50.08066399999991,18.917143999999983,1410
50.08066399999991,18.269143999999983,1450
52.0246639999999,22.805143999999984,1652
52.0246639999999,23.45314399999998,1690
51.37666399999991,19.565143999999982,1474
51.05266399999991,19.565143999999982,1393
50.72866399999991,18.917143999999983,1371
50.72866399999991,19.565143999999982,1463
49.75666399999992,18.917143999999983,1398
50.40466399999991,18.269143999999983,1358
53.64466399999989,19.565143999999982,1481
53.96866399999989,18.917143999999983,1500
53.64466399999989,18.917143999999983,1479
53.64466399999989,20.213143999999986,1529
52.996663999999896,18.917143999999983,1427
52.996663999999896,18.269143999999983,1407
53.32066399999989,18.917143999999983,1431
50.72866399999991,17.621143999999987,1307
50.72866399999991,18.269143999999983,1344
52.6726639999999,16.325143999999987,1231
52.996663999999896,16.325143999999987,1193
52.996663999999896,15.677143999999986,1150
53.32066399999989,15.677143999999986,1145
53.32066399999989,15.029143999999986,1121
53.64466399999989,15.029143999999986,1128
53.96866399999989,15.029143999999986,1113
52.6726639999999,18.917143999999983,1446
53.32066399999989,16.325143999999987,1163
52.6726639999999,15.029143999999986,1102
51.05266399999991,22.805143999999984,1789
51.05266399999991,23.45314399999998,1816
50.72866399999991,22.15714399999998,1742
50.40466399999991,22.15714399999998,1766
51.05266399999991,22.15714399999998,1756
54.616663999999886,16.973143999999984,1412
54.29266399999989,16.325143999999987,1345
53.96866399999989,15.677143999999986,1260
50.72866399999991,21.50914399999997,1731
50.40466399999991,21.50914399999997,1612
50.40466399999991,17.621143999999987,1328
53.32066399999989,22.805143999999984,2237
53.64466399999989,22.15714399999998,1678
54.29266399999989,16.973143999999984,1381
50.72866399999991,20.86114399999998,1550
51.700663999999904,22.805143999999984,1788
51.05266399999991,21.50914399999997,1615
50.08066399999991,19.565143999999982,1443
52.0246639999999,18.917143999999983,8008
52.0246639999999,19.565143999999982,8001
53.64466399999989,18.269143999999983,1452
51.700663999999904,20.213143999999986,1614
53.32066399999989,19.565143999999982,1472
50.72866399999991,23.45314399999998,2635
50.72866399999991,22.805143999999984,2604
49.43266399999992,20.213143999999986,1486
49.75666399999992,21.50914399999997,1575
49.75666399999992,22.15714399999998,2262
49.43266399999992,22.15714399999998,1822
51.05266399999991,18.917143999999983,1376
51.05266399999991,18.269143999999983,1313
53.32066399999989,16.973143999999984,1339
53.64466399999989,16.973143999999984,1358
49.75666399999992,20.86114399999998,1586
50.40466399999991,22.805143999999984,8090
53.64466399999989,16.325143999999987,1317
53.96866399999989,20.86114399999998,1633
54.29266399999989,20.86114399999998,1679
53.96866399999989,21.50914399999997,1784
53.64466399999989,15.677143999999986,1272
53.96866399999989,20.213143999999986,1561
53.96866399999989,19.565143999999982,1524
54.29266399999989,19.565143999999982,1534
53.96866399999989,16.325143999999987,1308
53.64466399999989,17.621143999999987,1404
53.96866399999989,22.15714399999998,1698
53.64466399999989,21.50914399999997,1634
53.64466399999989,20.86114399999998,1586
52.6726639999999,15.677143999999986,1151
51.05266399999991,20.213143999999986,1835
54.940663999999884,24.101143999999977,3201
54.616663999999886,23.45314399999998,3145
54.29266399999989,23.45314399999998,3008
53.64466399999989,22.805143999999984,2260
53.96866399999989,16.973143999999984,1513
50.40466399999991,20.86114399999998,2266
53.32066399999989,18.269143999999983,1425
49.75666399999992,19.565143999999982,1459
50.40466399999991,23.45314399999998,1885
49.75666399999992,20.213143999999986,1490
49.43266399999992,19.565143999999982,1449
49.43266399999992,20.86114399999998,1595
53.96866399999989,17.621143999999987,2283
42.30466399999996,-1.8188560000000056,8319
41.98066399999996,-1.8188560000000056,8302
41.65666399999997,0.7731439999999932,8306
42.62866399999996,-1.8188560000000056,8434
42.95266399999996,-1.8188560000000056,8463
42.62866399999996,-3.114856000000005,8557
42.95266399999996,-2.4668560000000053,8535
42.62866399999996,-7.650856000000003,8899
42.30466399999996,-7.650856000000003,8959
42.30466399999996,-8.946856000000002,9095
42.30466399999996,-8.298856000000002,9069
41.98066399999996,-8.298856000000002,9058
42.30466399999996,-7.002856000000003,8841
42.62866399999996,-6.354856000000003,8783
42.30466399999996,-6.354856000000003,8738
42.62866399999996,-5.706856000000004,8238
41.98066399999996,-4.410856000000004,8192
42.30466399999996,-3.7628560000000046,8583
40.03666399999997,-0.5228560000000062,8286
39.38866399999998,-0.5228560000000062,8334
41.00866399999997,0.7731439999999932,8434
40.68466399999997,0.7731439999999932,8466
40.36066399999997,0.1251439999999934,8544
39.712663999999975,-0.5228560000000062,8443
38.41666399999998,-0.5228560000000062,8455
39.06466399999998,-0.5228560000000062,8577
38.74066399999998,-1.170856000000006,8463
41.332663999999966,0.7731439999999932,8494
41.65666399999997,2.717143999999992,8094
41.65666399999997,2.0691439999999925,8117
41.332663999999966,0.1251439999999934,8452
41.332663999999966,-0.5228560000000062,8396
41.65666399999997,-4.410856000000004,8166
40.03666399999997,-2.4668560000000053,8404
41.00866399999997,-4.410856000000004,8287
43.276663999999954,-5.706856000000004,8368
39.38866399999998,-1.170856000000006,8429
38.09266399999999,-1.170856000000006,8842
38.74066399999998,-0.5228560000000062,8605
37.76866399999999,-1.170856000000006,8907
39.06466399999998,-1.8188560000000056,8427
39.38866399999998,-3.114856000000005,8327
39.38866399999998,-2.4668560000000053,8383
39.06466399999998,-2.4668560000000053,8410
39.06466399999998,-3.114856000000005,8331
39.06466399999998,-3.7628560000000046,8305
38.74066399999998,-3.7628560000000046,8384
40.03666399999997,-3.7628560000000046,8283
40.03666399999997,-3.114856000000005,8483
40.03666399999997,-1.8188560000000056,8564
39.712663999999975,-1.8188560000000056,8529
39.712663999999975,-1.170856000000006,8465
40.36066399999997,-1.170856000000006,8484
40.68466399999997,-1.170856000000006,8462
41.00866399999997,-1.170856000000006,8450
41.332663999999966,-1.170856000000006,8290
43.276663999999954,-8.298856000000002,9059
42.95266399999996,-8.298856000000002,9027
41.65666399999997,-5.706856000000004,65535
41.98066399999996,-7.002856000000003,65535
41.98066399999996,-6.354856000000003,65535
41.332663999999966,-5.058856000000004,8405
43.276663999999954,-3.7628560000000046,8840
42.95266399999996,-4.410856000000004,8774
42.62866399999996,-4.410856000000004,8764
42.30466399999996,-4.410856000000004,8723
41.00866399999997,-5.706856000000004,8343
41.332663999999966,-1.8188560000000056,8236
40.68466399999997,-3.114856000000005,8190
41.00866399999997,-3.114856000000005,8241
41.00866399999997,-2.4668560000000053,8264
41.332663999999966,-2.4668560000000053,8317
40.68466399999997,-4.410856000000004,8227
40.36066399999997,-4.410856000000004,8311
40.68466399999997,-3.7628560000000046,8219
40.36066399999997,-3.114856000000005,8197
41.65666399999997,-2.4668560000000053,8334
38.09266399999999,-3.7628560000000046,8431
38.74066399999998,-3.114856000000005,8375
37.76866399999999,-3.7628560000000046,8488
39.712663999999975,-3.114856000000005,8319
38.41666399999998,-3.7628560000000046,8396
40.03666399999997,-4.410856000000004,65535
40.03666399999997,-5.058856000000004,65535
39.38866399999998,-6.354856000000003,65535
39.38866399999998,-7.002856000000003,65535
42.95266399999996,-3.114856000000005,8968
41.98066399999996,-1.170856000000006,8331
42.30466399999996,-2.4668560000000053,8372
41.65666399999997,-0.5228560000000062,8429
41.98066399999996,-0.5228560000000062,8266
41.65666399999997,0.1251439999999934,8293
41.98066399999996,0.1251439999999934,8315
37.76866399999999,-5.058856000000004,8367
36.79666399999999,-4.410856000000004,8426
38.74066399999998,-4.410856000000004,8323
37.12066399999999,-4.410856000000004,8400
37.44466399999999,-5.058856000000004,8924
37.44466399999999,-7.002856000000003,65535
37.44466399999999,-6.354856000000003,65535
37.44466399999999,-5.706856000000004,8600
39.712663999999975,-3.7628560000000046,8393
42.62866399999996,-8.946856000000002,65535
42.30466399999996,-5.706856000000004,8745
42.30466399999996,-5.058856000000004,8830
42.95266399999996,-5.706856000000004,8270
41.00866399999997,-5.058856000000004,8311
40.68466399999997,-5.058856000000004,8285
41.65666399999997,-5.058856000000004,65535
41.65666399999997,-6.354856000000003,65535
36.79666399999999,-6.354856000000003,65535
37.12066399999999,-5.706856000000004,8768
37.76866399999999,-5.706856000000004,8567
38.09266399999999,-4.410856000000004,8702
37.12066399999999,-5.058856000000004,8722
36.79666399999999,-5.058856000000004,8680
37.76866399999999,-4.410856000000004,65535
37.76866399999999,-7.002856000000003,65535
38.41666399999998,-6.354856000000003,65535
38.09266399999999,-6.354856000000003,65535
48.78466399999992,1.4211439999999929,1201
56.23666399999988,8.54914399999999,6610
55.58866399999988,9.197143999999987,6415
55.91266399999988,9.197143999999987,6556
55.26466399999988,10.493143999999988,597
55.91266399999988,12.437143999999988,137
55.58866399999988,11.789143999999988,6255
55.58866399999988,11.141143999999988,6296
55.26466399999988,11.789143999999988,6288
55.58866399999988,10.493143999999988,6411
55.58866399999988,13.085143999999987,136
56.88466399999987,9.845143999999989,6562
57.20866399999987,9.845143999999989,6597
56.56066399999988,9.845143999999989,6534
56.88466399999987,8.54914399999999,6649
54.940663999999884,9.845143999999989,7756
54.940663999999884,11.789143999999988,6512
55.91266399999988,13.085143999999987,126
56.23666399999988,13.733143999999989,95
55.91266399999988,13.733143999999989,107
56.23666399999988,14.381143999999988,114
56.23666399999988,15.029143999999986,132
56.23666399999988,15.677143999999986,187
56.56066399999988,14.381143999999988,75
56.88466399999987,14.381143999999988,53
56.23666399999988,13.085143999999987,107
56.56066399999988,13.085143999999987,115
56.88466399999987,12.437143999999988,133
57.20866399999987,12.437143999999988,149
57.53266399999987,12.437143999999988,179
56.88466399999987,15.029143999999986,79
56.56066399999988,15.677143999999986,145
56.88466399999987,15.677143999999986,163
56.88466399999987,16.325143999999987,179
55.91266399999988,11.789143999999988,6581
57.20866399999987,10.493143999999988,6784
49.43266399999992,1.4211439999999929,1226
49.75666399999992,0.7731439999999932,1219
49.75666399999992,2.0691439999999925,1147
50.08066399999991,2.717143999999992,1123
49.75666399999992,1.4211439999999929,1200
47.81266399999993,1.4211439999999929,1275
48.136663999999925,2.0691439999999925,1509
48.46066399999992,2.0691439999999925,1351
48.136663999999925,1.4211439999999929,1253
48.78466399999992,0.1251439999999934,1252
48.46066399999992,0.1251439999999934,1250
47.81266399999993,0.1251439999999934,1213
46.84066399999993,-0.5228560000000062,1405
47.16466399999993,0.7731439999999932,1228
46.84066399999993,0.1251439999999934,1279
46.84066399999993,-1.170856000000006,1439
50.08066399999991,1.4211439999999929,1107
50.08066399999991,2.0691439999999925,1124
49.43266399999992,2.717143999999992,1152
49.75666399999992,3.365143999999992,1090
50.08066399999991,3.365143999999992,1042
49.10866399999992,2.0691439999999925,1141
49.43266399999992,2.0691439999999925,1124
48.78466399999992,0.7731439999999932,1201
48.78466399999992,-0.5228560000000062,1281
48.78466399999992,-1.170856000000006,1300
48.136663999999925,0.7731439999999932,1184
48.46066399999992,0.7731439999999932,1209
43.92466399999995,5.957143999999991,1353
44.24866399999995,5.957143999999991,1393
43.92466399999995,5.309143999999991,1301
42.95266399999996,2.717143999999992,1398
45.54466399999994,2.0691439999999925,1381
45.22066399999994,2.0691439999999925,1398
42.95266399999996,2.0691439999999925,1451
42.95266399999996,0.7731439999999932,1466
43.276663999999954,0.7731439999999932,1451
46.19266399999994,0.7731439999999932,1405
46.516663999999935,0.7731439999999932,1339
45.86866399999994,0.1251439999999934,1483
46.19266399999994,0.1251439999999934,1480
47.81266399999993,-1.170856000000006,1323
48.136663999999925,-2.4668560000000053,1266
47.48866399999993,-1.8188560000000056,1256
47.16466399999993,-1.170856000000006,1275
47.16466399999993,-0.5228560000000062,1283
46.84066399999993,-1.8188560000000056,1312
45.22066399999994,-0.5228560000000062,1286
44.89666399999994,0.1251439999999934,1279
45.22066399999994,0.7731439999999932,1303
45.54466399999994,0.7731439999999932,1313
45.86866399999994,0.7731439999999932,1478
45.22066399999994,0.1251439999999934,1292
44.89666399999994,0.7731439999999932,1316
43.92466399999995,-0.5228560000000062,1439
43.92466399999995,-1.170856000000006,1410
44.24866399999995,-1.170856000000006,1407
45.22066399999994,-1.170856000000006,1338
44.572663999999946,-0.5228560000000062,1303
44.24866399999995,0.1251439999999934,1350
44.572663999999946,0.7731439999999932,1397
43.276663999999954,-1.170856000000006,1432
42.95266399999996,-0.5228560000000062,1597
44.24866399999995,2.0691439999999925,1560
43.60066399999995,0.7731439999999932,1450
43.60066399999995,2.0691439999999925,1458
52.6726639999999,4.661143999999991,6601
52.6726639999999,5.309143999999991,6624
51.700663999999904,5.309143999999991,6569
52.0246639999999,5.309143999999991,6581
52.3486639999999,5.309143999999991,6597
51.37666399999991,4.013143999999992,6577
52.3486639999999,5.957143999999991,6591
52.0246639999999,6.60514399999999,6621
52.6726639999999,5.957143999999991,6608
52.996663999999896,5.957143999999991,6621
53.32066399999989,5.957143999999991,6615
52.996663999999896,6.60514399999999,6597
53.32066399999989,6.60514399999999,6589
52.6726639999999,6.60514399999999,6617
52.996663999999896,5.309143999999991,6636
59.15266399999986,24.101143999999977,65535
56.88466399999987,24.101143999999977,65535
56.88466399999987,23.45314399999998,65535
56.88466399999987,22.805143999999984,65535
57.20866399999987,24.74914399999998,65535
56.88466399999987,24.74914399999998,65535
56.56066399999988,24.74914399999998,65535
56.56066399999988,25.397143999999983,65535
56.56066399999988,24.101143999999977,65535
56.56066399999988,23.45314399999998,65535
56.56066399999988,26.04514399999998,65535
56.88466399999987,26.04514399999998,65535
57.20866399999987,25.397143999999983,65535
57.53266399999987,25.397143999999983,65535
56.23666399999988,26.04514399999998,65535
56.23666399999988,26.69314399999997,65535
55.91266399999988,26.69314399999997,65535
56.56066399999988,26.69314399999997,65535
56.56066399999988,27.34114399999998,65535
56.56066399999988,27.989143999999985,65535
56.23666399999988,27.989143999999985,65535
55.91266399999988,27.34114399999998,65535
56.56066399999988,22.805143999999984,65535
56.56066399999988,22.15714399999998,65535
56.56066399999988,21.50914399999997,65535
57.20866399999987,26.69314399999997,65535
39.06466399999998,-8.946856000000002,65535
38.41666399999998,-8.298856000000002,65535
45.86866399999994,11.789143999999988,1588
46.19266399999994,11.789143999999988,1575
46.19266399999994,10.493143999999988,1615
45.22066399999994,18.269143999999983,1591
45.22066399999994,18.917143999999983,1617
45.54466399999994,16.973143999999984,1456
45.22066399999994,17.621143999999987,1517
45.86866399999994,16.325143999999987,1375
45.54466399999994,18.917143999999983,1654
45.54466399999994,16.325143999999987,1395
45.54466399999994,18.269143999999983,1649
44.89666399999994,18.917143999999983,1690
46.19266399999994,16.973143999999984,1441
46.19266399999994,16.325143999999987,1428
45.86866399999994,16.973143999999984,1451
45.86866399999994,17.621143999999987,1484
46.19266399999994,15.677143999999986,1355
46.516663999999935,16.325143999999987,1413
45.54466399999994,15.677143999999986,1439
45.22066399999994,15.029143999999986,1435
45.54466399999994,15.029143999999986,1415
45.22066399999994,15.677143999999986,1502
44.572663999999946,15.677143999999986,1579
44.24866399999995,15.677143999999986,1600
43.92466399999995,16.325143999999987,1664
44.89666399999994,15.677143999999986,1543
45.54466399999994,17.621143999999987,1592
45.22066399999994,16.325143999999987,1503
46.516663999999935,16.973143999999984,1455
45.86866399999994,18.269143999999983,1675
43.92466399999995,15.677143999999986,1766
45.22066399999994,13.733143999999989,1541
47.48866399999993,19.565143999999982,1594
47.16466399999993,18.917143999999983,1593
47.81266399999993,18.917143999999983,1546
45.54466399999994,9.845143999999989,1219
45.22066399999994,9.845143999999989,1228
45.22066399999994,10.493143999999988,1278
45.86866399999994,9.845143999999989,1239
45.86866399999994,10.493143999999988,2358
48.78466399999992,21.50914399999997,1537
49.10866399999992,20.213143999999986,1478
49.10866399999992,18.917143999999983,1386
48.46066399999992,17.621143999999987,1427
49.43266399999992,17.621143999999987,1333
49.10866399999992,17.621143999999987,1381
48.136663999999925,18.269143999999983,1458
49.10866399999992,18.269143999999983,1407
49.43266399999992,18.269143999999983,1364
49.43266399999992,16.973143999999984,1311
49.75666399999992,16.973143999999984,1281
49.75666399999992,16.325143999999987,1259
50.08066399999991,15.677143999999986,1211
50.08066399999991,15.029143999999986,1181
49.43266399999992,18.917143999999983,1375
47.81266399999993,20.86114399999998,1675
48.136663999999925,20.86114399999998,1610
48.46066399999992,20.86114399999998,1597
48.46066399999992,21.50914399999997,1552
49.10866399999992,19.565143999999982,1399
48.136663999999925,17.621143999999987,1406
48.78466399999992,22.15714399999998,1670
48.78466399999992,20.86114399999998,1825
49.10866399999992,20.86114399999998,1521
48.78466399999992,18.269143999999983,1450
48.78466399999992,17.621143999999987,1409
49.10866399999992,21.50914399999997,1529
48.78466399999992,20.213143999999986,1869
48.46066399999992,20.213143999999986,1881
48.136663999999925,19.565143999999982,1605
48.46066399999992,19.565143999999982,1484
48.46066399999992,18.917143999999983,1466
48.46066399999992,18.269143999999983,1463
48.78466399999992,19.565143999999982,1440
48.78466399999992,18.917143999999983,1426
47.81266399999993,18.269143999999983,1507
49.10866399999992,22.15714399999998,1724
49.43266399999992,21.50914399999997,1654
48.136663999999925,18.917143999999983,1659
48.136663999999925,20.213143999999986,1625
52.636,-8.018,65535
52.312,-7.370000000000001,65535
52.312,-8.018,65535
52.636,-8.666,65535
51.988,-8.666,65535
51.988,-8.018,65535
52.96,-8.666,65535
52.96,-6.074000000000002,65535
53.28399999999999,-6.722000000000001,65535
53.60799999999999,-6.722000000000001,65535
53.60799999999999,-7.370000000000001,65535
53.60799999999999,-8.018,65535
54.25599999999999,-8.666,65535
53.93199999999999,-8.666,65535
53.93199999999999,-8.018,65535
52.312,-6.722000000000001,65535
52.636,-6.722000000000001,65535
53.93199999999999,-6.722000000000001,65535
54.25599999999999,-6.074000000000002,65535
53.28399999999999,-7.370000000000001,65535
52.96,-7.370000000000001,65535
52.312,-8.666,65535
52.96,-8.018,65535
52.636,-7.370000000000001,65535
52.96,-6.722000000000001,65535
51.988,-9.314,65535
52.312,-9.314,65535
54.579999999999984,-6.722000000000001,65535
54.579999999999984,-6.074000000000002,65535
53.28399999999999,-8.018,65535
53.28399999999999,-8.666,65535
53.28399999999999,-9.314,65535
53.93199999999999,-9.314,65535
54.25599999999999,-9.314,65535
53.60799999999999,-8.666,65535
53.60799999999999,-9.314,65535
49.43266399999992,14.381143999999988,1235
49.75666399999992,14.381143999999988,1193
49.75666399999992,15.029143999999986,1186
49.75666399999992,13.733143999999989,1223
50.08066399999991,13.733143999999989,1217
49.75666399999992,15.677143999999986,1197
50.40466399999991,15.029143999999986,1176
49.43266399999992,13.733143999999989,1326
50.40466399999991,15.677143999999986,1187
50.40466399999991,13.733143999999989,1243
46.19266399999994,15.029143999999986,1349
45.86866399999994,15.029143999999986,1376
45.86866399999994,14.381143999999988,1369
46.19266399999994,13.733143999999989,1382
45.86866399999994,13.733143999999989,1468
58.50466399999986,13.733143999999989,105
58.180663999999865,13.733143999999989,87
58.180663999999865,13.085143999999987,122
57.85666399999987,12.437143999999988,157
60.44866399999985,15.677143999999986,329
60.124663999999854,15.677143999999986,226
60.124663999999854,16.325143999999987,275
59.800663999999855,16.325143999999987,204
59.800663999999855,17.621143999999987,184
59.47666399999986,18.269143999999983,163
61.74466399999984,16.973143999999984,335
61.420663999999846,16.973143999999984,295
60.77266399999985,16.973143999999984,238
65.63266399999982,22.15714399999998,862
65.95666399999982,21.50914399999997,822
65.63266399999982,20.86114399999998,793
64.98466399999982,20.213143999999986,725
64.66066399999983,20.213143999999986,703
64.33666399999983,19.565143999999982,904
64.01266399999983,19.565143999999982,821
63.68866399999983,20.213143999999986,600
64.66066399999983,18.917143999999983,1074
59.15266399999986,16.325143999999987,123
59.15266399999986,15.029143999999986,162
59.15266399999986,17.621143999999987,150
57.53266399999987,14.381143999999988,9
57.53266399999987,15.029143999999986,20
61.09666399999985,14.381143999999988,445
60.77266399999985,15.029143999999986,401
60.44866399999985,15.029143999999986,390
58.180663999999865,15.029143999999986,37
58.50466399999986,16.325143999999987,96
58.50466399999986,15.677143999999986,66
63.36466399999984,13.085143999999987,985
63.04066399999984,14.381143999999988,885
62.39266399999984,15.677143999999986,794
63.36466399999984,13.733143999999989,967
63.36466399999984,14.381143999999988,939
62.71666399999984,15.677143999999986,819
62.39266399999984,17.621143999999987,393
59.800663999999855,15.677143999999986,303
55.58866399999988,13.733143999999989,158
57.20866399999987,14.381143999999988,0
57.85666399999987,14.381143999999988,29
58.82866399999986,16.973143999999984,193
58.82866399999986,16.325143999999987,170
59.15266399999986,18.269143999999983,159
60.44866399999985,17.621143999999987,216
59.15266399999986,12.437143999999988,241
59.15266399999986,13.085143999999987,293
58.82866399999986,12.437143999999988,215
59.47666399999986,16.325143999999987,169
58.82866399999986,14.381143999999988,138
59.47666399999986,15.677143999999986,198
63.36466399999984,18.917143999999983,536
63.04066399999984,17.621143999999987,490
62.71666399999984,17.621143999999987,460
63.68866399999983,19.565143999999982,787
62.39266399999984,16.973143999999984,450
59.800663999999855,16.973143999999984,205
59.47666399999986,17.621143999999987,169
57.85666399999987,13.085143999999987,181
57.53266399999987,13.085143999999987,152
58.50466399999986,11.789143999999988,230
57.85666399999987,15.029143999999986,22
57.20866399999987,13.733143999999989,15
57.53266399999987,13.733143999999989,140
61.74466399999984,16.325143999999987,336
61.420663999999846,16.325143999999987,307
61.09666399999985,16.325143999999987,296
61.09666399999985,16.973143999999984,279
60.124663999999854,15.029143999999986,270
66.60466399999981,20.86114399999998,897
67.25266399999981,20.86114399999998,965
67.90066399999981,20.213143999999986,1035
67.57666399999981,20.213143999999986,1660
59.800663999999855,15.029143999999986,272
58.50466399999986,15.029143999999986,45
59.47666399999986,15.029143999999986,260
60.44866399999985,16.325143999999987,286
59.15266399999986,15.677143999999986,143
57.85666399999987,13.733143999999989,59
58.82866399999986,13.733143999999989,128
58.50466399999986,13.085143999999987,150
57.20866399999987,13.085143999999987,72
56.88466399999987,13.085143999999987,80
58.180663999999865,11.789143999999988,201
62.06866399999984,16.973143999999984,415
65.95666399999982,23.45314399999998,903
59.800663999999855,14.381143999999988,5411
59.800663999999855,18.269143999999983,171
63.04066399999984,15.029143999999986,889
62.71666399999984,15.029143999999986,875
62.39266399999984,16.325143999999987,807
63.36466399999984,12.437143999999988,1019
68.5486639999998,17.621143999999987,1248
68.5486639999998,18.269143999999983,1181
68.5486639999998,18.917143999999983,1158
68.2246639999998,18.917143999999983,1114
59.800663999999855,13.085143999999987,437
60.124663999999854,13.085143999999987,477
59.47666399999986,16.973143999999984,198
59.15266399999986,16.973143999999984,207
56.56066399999988,13.733143999999989,166
60.124663999999854,17.621143999999987,206
57.85666399999987,16.325143999999987,200
58.180663999999865,16.325143999999987,167
58.180663999999865,15.677143999999986,162
57.20866399999987,16.325143999999987,207
57.53266399999987,15.677143999999986,228
57.85666399999987,15.677143999999986,199
44.89666399999994,23.45314399999998,3925
44.572663999999946,23.45314399999998,3995
44.89666399999994,24.74914399999998,3964
44.572663999999946,24.74914399999998,4040
44.572663999999946,24.101143999999977,3972
44.24866399999995,24.101143999999977,4001
47.48866399999993,25.397143999999983,3773
47.48866399999993,24.74914399999998,3713
47.16466399999993,24.74914399999998,3635
47.16466399999993,24.101143999999977,3537
47.48866399999993,22.15714399999998,3843
47.81266399999993,22.15714399999998,3887
47.16466399999993,22.15714399999998,3646
47.16466399999993,23.45314399999998,3698
47.16466399999993,22.805143999999984,3704
46.84066399999993,24.101143999999977,3618
45.86866399999994,27.34114399999998,4068
45.54466399999994,27.34114399999998,4030
45.54466399999994,27.989143999999985,4055
45.86866399999994,20.86114399999998,3830
45.86866399999994,21.50914399999997,3838
46.19266399999994,21.50914399999997,3774
46.19266399999994,27.34114399999998,4046
46.19266399999994,26.69314399999997,4146
46.516663999999935,26.69314399999997,3911
46.516663999999935,26.04514399999998,3807
47.48866399999993,22.805143999999984,3765
46.84066399999993,22.805143999999984,3578
45.54466399999994,22.15714399999998,3903
45.22066399999994,22.15714399999998,3965
44.89666399999994,22.15714399999998,4383
47.48866399999993,23.45314399999998,3731
46.516663999999935,24.101143999999977,3457
46.516663999999935,24.74914399999998,3671
45.86866399999994,24.101143999999977,3620
47.16466399999993,26.69314399999997,3989
47.16466399999993,27.34114399999998,4044
43.92466399999995,25.397143999999983,4003
44.24866399999995,24.74914399999998,3910
44.89666399999994,26.04514399999998,3823
44.89666399999994,26.69314399999997,3884
45.22066399999994,26.69314399999997,3901
45.22066399999994,27.34114399999998,3987
46.84066399999993,26.69314399999997,3950
47.48866399999993,26.69314399999997,3943
44.24866399999995,25.397143999999983,3898
43.92466399999995,26.04514399999998,4019
46.19266399999994,24.101143999999977,3665
44.572663999999946,25.397143999999983,3892
46.84066399999993,24.74914399999998,3678
46.516663999999935,21.50914399999997,3778
46.84066399999993,21.50914399999997,3785
44.572663999999946,26.69314399999997,3876
44.572663999999946,27.34114399999998,3886
44.89666399999994,27.34114399999998,3986
44.572663999999946,27.989143999999985,3923
44.24866399999995,27.989143999999985,3938
44.572663999999946,28.63714399999997,3958
45.86866399999994,22.15714399999998,3699
45.86866399999994,22.805143999999984,3593
44.24866399999995,23.45314399999998,4093
43.92466399999995,27.989143999999985,65535
46.84066399999993,27.34114399999998,4180
45.22066399999994,23.45314399999998,3900
45.54466399999994,23.45314399999998,3703
45.54466399999994,24.101143999999977,3650
45.22066399999994,24.101143999999977,3874
44.89666399999994,24.101143999999977,3944
46.19266399999994,22.15714399999998,3830
46.516663999999935,22.15714399999998,3796
45.22066399999994,21.50914399999997,4070
45.54466399999994,21.50914399999997,4107
45.54466399999994,20.86114399999998,4020
46.516663999999935,27.989143999999985,4152
46.19266399999994,27.989143999999985,4124
45.54466399999994,25.397143999999983,3780
45.22066399999994,25.397143999999983,3787
45.22066399999994,26.04514399999998,3830
47.81266399999993,24.101143999999977,3826
47.48866399999993,26.04514399999998,3916
47.81266399999993,26.04514399999998,3938
46.19266399999994,23.45314399999998,3497
45.86866399999994,23.45314399999998,3546
44.24866399999995,26.04514399999998,3878
45.22066399999994,27.989143999999985,4036
45.86866399999994,24.74914399999998,3659
46.516663999999935,25.397143999999983,3851
46.84066399999993,25.397143999999983,3734
46.19266399999994,26.04514399999998,3822
45.86866399999994,26.04514399999998,3787
43.92466399999995,23.45314399999998,4258
44.89666399999994,25.397143999999983,3917
46.19266399999994,20.86114399999998,3819
47.81266399999993,25.397143999999983,3950
44.572663999999946,22.805143999999984,4263
44.572663999999946,22.15714399999998,4405
46.516663999999935,23.45314399999998,3636
45.86866399999994,25.397143999999983,3713
44.24866399999995,27.34114399999998,4651
45.22066399999994,24.74914399999998,3976
45.54466399999994,22.805143999999984,3666
45.22066399999994,28.63714399999997,4096
44.89666399999994,28.63714399999997,4035
47.81266399999993,23.45314399999998,3899
46.19266399999994,24.74914399999998,3745
46.19266399999994,25.397143999999983,3769
43.92466399999995,24.101143999999977,4221
43.92466399999995,24.74914399999998,4234
47.81266399999993,26.69314399999997,4165
47.48866399999993,24.101143999999977,3758
46.84066399999993,26.04514399999998,4566
46.19266399999994,22.805143999999984,3890
47.48866399999993,27.34114399999998,4118
46.19266399999994,20.213143999999986,65535
45.54466399999994,26.04514399999998,3922
44.24866399999995,26.69314399999997,3932
45.86866399999994,27.989143999999985,4202
47.81266399999993,5.957143999999991,6586
