51.56399999999999,-0.4100000000000028,65535
51.887999999999984,-0.4100000000000028,65535
50.91599999999999,-1.7060000000000022,65535
51.23999999999999,-1.0580000000000025,65535
51.56399999999999,-1.0580000000000025,65535
51.23999999999999,-1.7060000000000022,65535
51.56399999999999,0.2379999999999968,65535
47.16466399999993,9.845143999999989,1266
47.48866399999993,9.845143999999989,1258
48.136663999999925,14.381143999999988,1409
47.81266399999993,13.085143999999987,1345
47.16466399999993,11.141143999999988,1370
47.48866399999993,11.789143999999988,1481
48.136663999999925,16.325143999999987,1534
47.48866399999993,12.437143999999988,1314
48.136663999999925,15.677143999999986,1595
47.16466399999993,10.493143999999988,1381
47.16466399999993,9.197143999999987,1259
48.136663999999925,13.733143999999989,1396
48.136663999999925,15.029143999999986,1684
47.81266399999993,16.973143999999984,1555
48.46066399999992,14.381143999999988,3784
47.48866399999993,13.085143999999987,1375
47.16466399999993,13.085143999999987,1389
47.48866399999993,14.381143999999988,1449
47.48866399999993,13.733143999999989,1428
47.48866399999993,15.029143999999986,1607
46.516663999999935,13.733143999999989,1495
46.84066399999993,13.733143999999989,1487
46.84066399999993,13.085143999999987,1454
48.78466399999992,14.381143999999988,65535
47.16466399999993,15.677143999999986,1620
46.516663999999935,14.381143999999988,1538
46.84066399999993,14.381143999999988,1521
47.16466399999993,14.381143999999988,2405
46.516663999999935,15.029143999999986,1597
47.81266399999993,16.325143999999987,1552
47.16466399999993,15.029143999999986,1643
47.81266399999993,15.677143999999986,2416
47.48866399999993,15.677143999999986,1597
46.516663999999935,13.085143999999987,2774
46.84066399999993,12.437143999999988,1499
48.136663999999925,11.789143999999988,1250
47.81266399999993,12.437143999999988,1280
46.84066399999993,15.677143999999986,1681
46.516663999999935,15.677143999999986,1622
46.84066399999993,16.325143999999987,1665
47.81266399999993,14.381143999999988,1465
48.78466399999992,16.973143999999984,1492
48.136663999999925,16.973143999999984,1521
48.46066399999992,13.733143999999989,1359
47.81266399999993,13.733143999999989,1514
50.08066399999991,8.54914399999999,1159
48.46066399999992,9.845143999999989,1209
51.05266399999991,7.25314399999999,1117
51.37666399999991,7.25314399999999,1111
51.37666399999991,6.60514399999999,1117
48.46066399999992,16.325143999999987,1548
48.46066399999992,16.973143999999984,1507
48.78466399999992,16.325143999999987,1612
48.46066399999992,15.677143999999986,1600
48.78466399999992,15.677143999999986,1607
47.48866399999993,16.325143999999987,1562
47.16466399999993,16.325143999999987,1614
46.19266399999994,14.381143999999988,1570
45.86866399999994,15.677143999999986,1649
43.60066399999995,16.325143999999987,3160
45.54466399999994,14.381143999999988,1639
45.54466399999994,13.733143999999989,1661
48.136663999999925,13.085143999999987,1335
48.46066399999992,11.141143999999988,1254
48.136663999999925,11.141143999999988,1257
48.46066399999992,7.90114399999999,1214
49.10866399999992,8.54914399999999,1171
48.78466399999992,2.0691439999999925,1280
49.10866399999992,7.25314399999999,1210
52.0246639999999,7.90114399999999,1112
47.16466399999993,11.789143999999988,1392
49.43266399999992,11.141143999999988,1212
53.64466399999989,9.845143999999989,928
50.72866399999991,4.013143999999992,1191
51.05266399999991,11.141143999999988,1174
47.48866399999993,11.141143999999988,1293
46.84066399999993,11.789143999999988,3062
46.516663999999935,11.141143999999988,3031
45.54466399999994,11.141143999999988,2925
46.19266399999994,11.141143999999988,2997
45.86866399999994,11.141143999999988,2981
44.572663999999946,11.141143999999988,2772
43.92466399999995,12.437143999999988,65535
45.54466399999994,12.437143999999988,3012
45.54466399999994,11.789143999999988,2975
48.78466399999992,15.029143999999986,1692
47.81266399999993,15.029143999999986,1710
47.81266399999993,11.141143999999988,1268
50.40466399999991,18.917143999999983,1464
52.3486639999999,20.86114399999998,1630
54.616663999999886,18.269143999999983,1537
54.29266399999989,18.917143999999983,1538
49.10866399999992,14.381143999999988,65535
50.08066399999991,14.381143999999988,1263
48.78466399999992,13.733143999999989,1530
52.6726639999999,13.085143999999987,1077
52.3486639999999,13.085143999999987,1079
53.96866399999989,12.437143999999988,1039
54.29266399999989,12.437143999999988,1057
47.48866399999993,8.54914399999999,1246
47.81266399999993,17.621143999999987,1579
47.48866399999993,18.917143999999983,1640
47.48866399999993,20.86114399999998,1801
46.84066399999993,23.45314399999998,2419
44.572663999999946,26.04514399999998,2837
47.48866399999993,21.50914399999997,1835
47.81266399999993,21.50914399999997,1868
48.46066399999992,22.15714399999998,1930
47.48866399999993,16.973143999999984,65535
49.10866399999992,16.325143999999987,1447
49.75666399999992,18.269143999999983,1590
46.19266399999994,13.085143999999987,2303
41.98066399999996,12.437143999999988,4005
43.60066399999995,10.493143999999988,4166
45.54466399999994,9.197143999999987,1328
47.81266399999993,22.805143999999984,2659
49.75666399999992,22.805143999999984,1634
50.72866399999991,3.365143999999992,1202
51.05266399999991,4.013143999999992,1195
50.72866399999991,4.661143999999991,1189
51.05266399999991,4.661143999999991,1193
51.05266399999991,3.365143999999992,1204
51.05266399999991,2.717143999999992,1235
50.40466399999991,4.661143999999991,1203
50.72866399999991,2.717143999999992,1216
50.40466399999991,4.013143999999992,1208
51.05266399999991,5.309143999999991,1201
50.72866399999991,5.309143999999991,1168
51.37666399999991,3.365143999999992,1240
51.37666399999991,4.661143999999991,1209
50.72866399999991,5.957143999999991,1149
50.40466399999991,5.957143999999991,1153
50.40466399999991,3.365143999999992,1216
50.40466399999991,5.309143999999991,1172
50.08066399999991,5.309143999999991,1219
49.75666399999992,5.309143999999991,1244
49.75666399999992,5.957143999999991,1215
51.37666399999991,5.309143999999991,1256
51.700663999999904,4.661143999999991,1244
50.08066399999991,4.013143999999992,1275
50.08066399999991,5.957143999999991,1254
50.08066399999991,4.661143999999991,1231
49.43266399999992,5.309143999999991,1317
49.43266399999992,5.957143999999991,1228
52.0246639999999,4.661143999999991,2229
52.3486639999999,4.661143999999991,2264
50.72866399999991,15.029143999999986,1191
51.05266399999991,15.029143999999986,1157
51.05266399999991,13.733143999999989,1139
50.40466399999991,13.085143999999987,1157
49.10866399999992,7.90114399999999,1197
48.78466399999992,7.90114399999999,1196
50.40466399999991,7.90114399999999,1150
50.08066399999991,7.90114399999999,1153
49.75666399999992,7.90114399999999,1163
49.43266399999992,7.90114399999999,1173
49.75666399999992,8.54914399999999,1161
49.43266399999992,8.54914399999999,1167
49.43266399999992,9.197143999999987,1184
49.10866399999992,9.197143999999987,1175
47.48866399999993,7.90114399999999,1243
47.81266399999993,7.90114399999999,1242
48.136663999999925,7.90114399999999,1236
48.136663999999925,9.845143999999989,1241
47.81266399999993,9.197143999999987,1258
47.81266399999993,8.54914399999999,1247
47.81266399999993,9.845143999999989,1253
54.940663999999884,9.197143999999987,842
54.616663999999886,9.197143999999987,880
54.29266399999989,9.197143999999987,908
53.96866399999989,9.197143999999987,937
53.64466399999989,9.197143999999987,947
54.616663999999886,9.845143999999989,906
54.29266399999989,9.845143999999989,915
53.96866399999989,9.845143999999989,918
53.64466399999989,10.493143999999988,932
53.96866399999989,10.493143999999988,938
53.96866399999989,11.141143999999988,974
54.29266399999989,10.493143999999988,963
53.32066399999989,10.493143999999988,949
54.940663999999884,11.141143999999988,1009
52.6726639999999,13.733143999999989,1078
52.3486639999999,13.733143999999989,1080
52.3486639999999,14.381143999999988,1087
52.0246639999999,14.381143999999988,1100
52.0246639999999,11.789143999999988,1094
52.3486639999999,11.789143999999988,1089
52.3486639999999,12.437143999999988,1087
52.0246639999999,15.029143999999986,1123
51.700663999999904,14.381143999999988,1117
52.0246639999999,13.733143999999989,1095
51.700663999999904,13.733143999999989,1111
52.6726639999999,12.437143999999988,1062
53.32066399999989,11.789143999999988,994
53.96866399999989,11.789143999999988,1041
53.64466399999989,11.789143999999988,1004
53.64466399999989,11.141143999999988,1001
53.32066399999989,11.141143999999988,983
52.996663999999896,11.789143999999988,1019
52.996663999999896,12.437143999999988,1044
52.996663999999896,13.733143999999989,1093
53.64466399999989,13.733143999999989,1126
53.96866399999989,13.733143999999989,1129
54.29266399999989,13.085143999999987,1115
53.96866399999989,13.085143999999987,1079
53.32066399999989,13.733143999999989,1175
52.0246639999999,13.085143999999987,1096
51.700663999999904,13.085143999999987,1126
52.996663999999896,14.381143999999988,1122
52.0246639999999,12.437143999999988,1092
51.700663999999904,12.437143999999988,1128
51.37666399999991,11.789143999999988,1114
51.37666399999991,12.437143999999988,1130
52.6726639999999,11.789143999999988,1049
53.64466399999989,13.085143999999987,1063
53.32066399999989,13.085143999999987,1062
52.996663999999896,13.085143999999987,1101
53.64466399999989,12.437143999999988,1033
51.37666399999991,13.733143999999989,1122
53.32066399999989,12.437143999999988,1054
52.6726639999999,14.381143999999988,1092
51.37666399999991,13.085143999999987,1129
53.32066399999989,14.381143999999988,1155
52.3486639999999,15.029143999999986,1103
52.0246639999999,15.677143999999986,1167
51.700663999999904,15.029143999999986,1154
51.05266399999991,16.325143999999987,1237
51.05266399999991,16.973143999999984,1251
51.700663999999904,15.677143999999986,1179
51.37666399999991,15.677143999999986,1191
51.37666399999991,16.325143999999987,1227
50.72866399999991,13.085143999999987,1153
50.72866399999991,12.437143999999988,1150
51.05266399999991,13.085143999999987,1141
51.05266399999991,14.381143999999988,1143
50.40466399999991,12.437143999999988,1170
50.40466399999991,11.789143999999988,1213
50.08066399999991,12.437143999999988,1271
50.72866399999991,11.789143999999988,1197
51.05266399999991,12.437143999999988,1139
50.72866399999991,14.381143999999988,1194
51.37666399999991,14.381143999999988,1154
50.72866399999991,13.733143999999989,1175
50.40466399999991,14.381143999999988,1244
51.37666399999991,15.029143999999986,1163
55.26466399999988,9.197143999999987,948
55.58866399999988,8.54914399999999,982
55.91266399999988,8.54914399999999,2239
56.23666399999988,9.197143999999987,2247
56.23666399999988,10.493143999999988,2200
56.23666399999988,9.845143999999989,2187
55.91266399999988,9.845143999999989,2125
56.56066399999988,9.197143999999987,2257
56.56066399999988,8.54914399999999,2300
51.05266399999991,6.60514399999999,1129
51.700663999999904,7.90114399999999,1100
50.72866399999991,6.60514399999999,1128
51.700663999999904,7.25314399999999,1112
50.72866399999991,7.25314399999999,1124
52.0246639999999,7.25314399999999,1105
52.3486639999999,7.90114399999999,1078
51.05266399999991,5.957143999999991,1144
50.40466399999991,7.25314399999999,1138
51.700663999999904,6.60514399999999,1123
51.700663999999904,5.957143999999991,1148
52.3486639999999,9.197143999999987,1021
51.700663999999904,8.54914399999999,1066
52.0246639999999,8.54914399999999,1040
52.3486639999999,8.54914399999999,1023
51.37666399999991,7.90114399999999,1104
52.3486639999999,7.25314399999999,1098
51.37666399999991,5.957143999999991,1121
50.72866399999991,7.90114399999999,1141
51.37666399999991,9.197143999999987,1088
51.700663999999904,9.197143999999987,1053
50.40466399999991,6.60514399999999,1186
51.05266399999991,7.90114399999999,1133
51.37666399999991,8.54914399999999,1117
52.0246639999999,5.957143999999991,1191
52.3486639999999,6.60514399999999,1106
51.05266399999991,8.54914399999999,1103
52.0246639999999,9.197143999999987,1037
52.6726639999999,9.197143999999987,1013
52.0246639999999,9.845143999999989,1028
51.700663999999904,9.845143999999989,1038
51.37666399999991,9.845143999999989,1066
50.72866399999991,8.54914399999999,1132
51.05266399999991,9.845143999999989,1128
50.72866399999991,9.845143999999989,1149
50.40466399999991,9.845143999999989,1165
51.05266399999991,9.197143999999987,1093
50.40466399999991,9.197143999999987,1182
50.08066399999991,9.197143999999987,1167
51.05266399999991,10.493143999999988,1181
50.40466399999991,8.54914399999999,1160
50.72866399999991,9.197143999999987,1143
49.75666399999992,9.197143999999987,1205
52.996663999999896,9.197143999999987,981
52.3486639999999,9.845143999999989,1018
52.996663999999896,8.54914399999999,977
52.996663999999896,7.90114399999999,989
53.32066399999989,7.90114399999999,1003
53.32066399999989,7.25314399999999,1034
53.64466399999989,7.25314399999999,1138
52.996663999999896,10.493143999999988,991
52.6726639999999,10.493143999999988,1001
52.6726639999999,9.845143999999989,988
53.32066399999989,9.845143999999989,932
53.32066399999989,9.197143999999987,960
53.64466399999989,8.54914399999999,958
53.32066399999989,8.54914399999999,974
52.6726639999999,8.54914399999999,998
52.0246639999999,10.493143999999988,1052
52.0246639999999,11.141143999999988,1067
51.700663999999904,11.141143999999988,1120
52.6726639999999,7.25314399999999,1794
52.996663999999896,7.25314399999999,1822
52.6726639999999,7.90114399999999,1035
53.64466399999989,7.90114399999999,1031
52.996663999999896,11.141143999999988,1044
52.6726639999999,11.141143999999988,1070
52.3486639999999,10.493143999999988,1027
52.996663999999896,9.845143999999989,941
51.700663999999904,10.493143999999988,1098
51.37666399999991,10.493143999999988,1147
51.700663999999904,11.789143999999988,1101
52.3486639999999,11.141143999999988,1049
51.37666399999991,11.141143999999988,1161
51.05266399999991,11.789143999999988,1131
49.10866399999992,11.141143999999988,1227
48.78466399999992,11.141143999999988,1236
48.46066399999992,11.789143999999988,1245
49.43266399999992,11.789143999999988,1271
50.08066399999991,11.789143999999988,1226
49.75666399999992,12.437143999999988,1312
49.10866399999992,11.789143999999988,1278
48.78466399999992,12.437143999999988,1286
48.46066399999992,12.437143999999988,1272
49.10866399999992,12.437143999999988,1297
48.78466399999992,13.085143999999987,1311
48.136663999999925,12.437143999999988,1308
47.81266399999993,11.789143999999988,1268
48.136663999999925,10.493143999999988,1258
47.81266399999993,10.493143999999988,1279
48.78466399999992,10.493143999999988,1240
47.48866399999993,10.493143999999988,1296
48.46066399999992,10.493143999999988,1224
49.43266399999992,13.085143999999987,1418
48.46066399999992,13.085143999999987,1333
49.43266399999992,10.493143999999988,1204
49.75666399999992,9.845143999999989,1180
49.75666399999992,10.493143999999988,1206
50.40466399999991,11.141143999999988,1211
50.08066399999991,11.141143999999988,1210
50.72866399999991,11.141143999999988,1192
49.75666399999992,11.141143999999988,1216
48.78466399999992,11.789143999999988,1334
50.40466399999991,10.493143999999988,1183
50.08066399999991,9.845143999999989,1175
50.08066399999991,10.493143999999988,1184
49.43266399999992,12.437143999999988,1304
49.75666399999992,11.789143999999988,1265
49.10866399999992,13.085143999999987,1353
50.72866399999991,10.493143999999988,1196
49.10866399999992,10.493143999999988,1227
48.78466399999992,9.845143999999989,1195
48.46066399999992,8.54914399999999,1214
48.46066399999992,9.197143999999987,1200
48.78466399999992,9.197143999999987,1180
48.78466399999992,8.54914399999999,1184
50.08066399999991,7.25314399999999,1173
49.75666399999992,6.60514399999999,1191
49.43266399999992,6.60514399999999,1194
49.10866399999992,6.60514399999999,1216
49.43266399999992,7.25314399999999,1188
49.75666399999992,7.25314399999999,1173
49.10866399999992,5.957143999999991,1279
48.78466399999992,7.25314399999999,1213
50.08066399999991,6.60514399999999,1188
47.48866399999993,9.197143999999987,1258
48.136663999999925,8.54914399999999,1226
48.136663999999925,9.197143999999987,1245
47.81266399999993,7.25314399999999,1262
49.43266399999992,9.845143999999989,1185
49.10866399999992,9.845143999999989,1208
53.64466399999989,14.381143999999988,1149
50.08066399999991,13.085143999999987,1398
49.75666399999992,13.085143999999987,1295
45.86866399999994,9.197143999999987,1318
46.19266399999994,9.197143999999987,1304
46.516663999999935,8.54914399999999,1287
46.516663999999935,9.197143999999987,1299
46.19266399999994,8.54914399999999,1301
47.16466399999993,8.54914399999999,1251
45.86866399999994,4.661143999999991,1402
46.84066399999993,9.845143999999989,1272
45.22066399999994,5.957143999999991,1403
45.22066399999994,5.309143999999991,1423
45.86866399999994,5.957143999999991,1333
45.54466399999994,5.957143999999991,1391
44.89666399999994,4.661143999999991,1470
44.89666399999994,5.309143999999991,1469
44.572663999999946,4.661143999999991,1496
44.24866399999995,4.661143999999991,1509
43.92466399999995,4.661143999999991,1510
46.19266399999994,7.25314399999999,1292
48.78466399999992,5.957143999999991,1300
48.136663999999925,6.60514399999999,1331
48.46066399999992,6.60514399999999,1284
48.78466399999992,6.60514399999999,1289
47.16466399999993,7.90114399999999,1252
48.136663999999925,7.25314399999999,1260
48.46066399999992,7.25314399999999,1267
46.516663999999935,6.60514399999999,1307
46.84066399999993,6.60514399999999,1273
46.84066399999993,7.25314399999999,1265
46.516663999999935,5.957143999999991,1312
46.19266399999994,5.957143999999991,1320
46.84066399999993,8.54914399999999,1265
46.84066399999993,7.90114399999999,1265
45.86866399999994,5.309143999999991,1377
46.19266399999994,6.60514399999999,1309
45.86866399999994,6.60514399999999,1303
47.48866399999993,6.60514399999999,1314
47.48866399999993,7.25314399999999,1259
47.16466399999993,7.25314399999999,1254
49.10866399999992,4.013143999999992,1347
49.75666399999992,4.661143999999991,1257
49.43266399999992,4.661143999999991,1328
49.10866399999992,5.309143999999991,1315
46.19266399999994,4.661143999999991,1429
46.84066399999993,9.197143999999987,1284
46.19266399999994,5.309143999999991,1398
46.516663999999935,5.309143999999991,1420
45.54466399999994,6.60514399999999,1448
45.54466399999994,5.309143999999991,1413
43.60066399999995,4.013143999999992,1541
43.60066399999995,3.365143999999992,1590
42.62866399999996,2.717143999999992,1662
43.276663999999954,2.717143999999992,1619
45.54466399999994,4.661143999999991,1406
45.22066399999994,4.661143999999991,1433
47.16466399999993,5.309143999999991,1396
47.16466399999993,5.957143999999991,1327
46.19266399999994,7.90114399999999,1288
49.75666399999992,2.717143999999992,1331
49.10866399999992,2.717143999999992,1313
48.78466399999992,2.717143999999992,1327
45.86866399999994,3.365143999999992,1522
46.84066399999993,3.365143999999992,1438
46.516663999999935,3.365143999999992,1469
46.19266399999994,3.365143999999992,1499
47.16466399999993,6.60514399999999,1268
49.10866399999992,3.365143999999992,1341
45.54466399999994,4.013143999999992,1452
46.516663999999935,7.25314399999999,1288
47.16466399999993,4.661143999999991,1442
46.84066399999993,4.661143999999991,1393
46.516663999999935,4.661143999999991,1417
46.84066399999993,5.957143999999991,1399
47.81266399999993,3.365143999999992,1423
47.48866399999993,4.013143999999992,1434
48.136663999999925,4.013143999999992,1389
47.81266399999993,4.013143999999992,1461
47.48866399999993,4.661143999999991,1442
47.16466399999993,3.365143999999992,1465
46.84066399999993,4.013143999999992,1458
48.46066399999992,5.957143999999991,1415
46.19266399999994,2.717143999999992,1556
47.16466399999993,2.0691439999999925,1454
46.516663999999935,2.717143999999992,1609
46.84066399999993,2.717143999999992,1606
46.84066399999993,2.0691439999999925,1540
47.16466399999993,2.717143999999992,1480
44.572663999999946,5.309143999999991,1509
44.572663999999946,5.957143999999991,1544
44.89666399999994,6.60514399999999,1523
44.572663999999946,6.60514399999999,1546
43.60066399999995,5.309143999999991,1541
43.92466399999995,7.25314399999999,1565
43.60066399999995,6.60514399999999,1577
43.276663999999954,6.60514399999999,1602
43.276663999999954,5.957143999999991,1601
45.86866399999994,8.54914399999999,1325
45.54466399999994,8.54914399999999,1332
48.136663999999925,3.365143999999992,1444
48.46066399999992,3.365143999999992,1358
48.46066399999992,2.717143999999992,1382
47.48866399999993,5.309143999999991,1477
46.516663999999935,9.845143999999989,1304
46.84066399999993,10.493143999999988,1333
47.81266399999993,5.309143999999991,1411
45.22066399999994,6.60514399999999,1489
46.19266399999994,4.013143999999992,1473
45.86866399999994,4.013143999999992,1499
45.22066399999994,4.013143999999992,1462
44.89666399999994,4.013143999999992,1520
46.84066399999993,5.309143999999991,1524
48.136663999999925,-1.8188560000000056,1405
48.136663999999925,0.1251439999999934,1346
48.136663999999925,-0.5228560000000062,1394
47.48866399999993,-0.5228560000000062,1393
47.16466399999993,-1.8188560000000056,1434
47.48866399999993,0.7731439999999932,1348
47.16466399999993,0.1251439999999934,1381
45.86866399999994,7.25314399999999,1309
48.136663999999925,5.309143999999991,1444
49.10866399999992,4.661143999999991,1375
48.46066399999992,4.013143999999992,1370
48.136663999999925,4.661143999999991,1407
47.81266399999993,6.60514399999999,1354
47.48866399999993,5.957143999999991,1371
48.136663999999925,5.957143999999991,2846
45.86866399999994,7.90114399999999,1307
46.516663999999935,7.90114399999999,1277
49.43266399999992,3.365143999999992,1358
49.43266399999992,4.013143999999992,1347
48.136663999999925,2.717143999999992,1545
47.81266399999993,2.717143999999992,1512
47.48866399999993,2.717143999999992,1497
50.40466399999991,2.717143999999992,1225
48.46066399999992,-4.410856000000004,1598
48.46066399999992,-3.7628560000000046,1561
48.46066399999992,-3.114856000000005,1531
48.46066399999992,-2.4668560000000053,1510
47.48866399999993,1.4211439999999929,1399
47.16466399999993,1.4211439999999929,1420
46.516663999999935,4.013143999999992,1477
43.60066399999995,4.661143999999991,1542
44.89666399999994,2.717143999999992,1617
45.22066399999994,2.717143999999992,1588
45.54466399999994,3.365143999999992,1528
45.22066399999994,3.365143999999992,1475
47.48866399999993,3.365143999999992,1509
46.19266399999994,9.845143999999989,1354
47.81266399999993,2.0691439999999925,1344
47.48866399999993,2.0691439999999925,1477
45.86866399999994,2.717143999999992,1547
44.89666399999994,5.957143999999991,1470
45.22066399999994,1.4211439999999929,1598
44.89666399999994,1.4211439999999929,1646
44.89666399999994,2.0691439999999925,1826
43.276663999999954,2.0691439999999925,1658
43.60066399999995,1.4211439999999929,1643
48.78466399999992,4.661143999999991,1422
48.78466399999992,5.309143999999991,1391
46.19266399999994,2.0691439999999925,1622
45.86866399999994,1.4211439999999929,1553
46.19266399999994,1.4211439999999929,1594
44.572663999999946,4.013143999999992,1656
44.89666399999994,3.365143999999992,1596
43.92466399999995,4.013143999999992,1588
44.24866399999995,4.013143999999992,1610
44.89666399999994,-0.5228560000000062,1447
45.54466399999994,0.1251439999999934,1475
46.516663999999935,0.1251439999999934,1383
44.572663999999946,2.0691439999999925,1716
49.75666399999992,4.013143999999992,1341
43.92466399999995,3.365143999999992,1641
43.92466399999995,2.717143999999992,1672
44.24866399999995,3.365143999999992,1696
44.572663999999946,3.365143999999992,1739
49.10866399999992,0.1251439999999934,1431
49.43266399999992,0.7731439999999932,1379
49.43266399999992,-1.8188560000000056,1556
49.10866399999992,-1.170856000000006,1531
49.10866399999992,-0.5228560000000062,1485
49.10866399999992,0.7731439999999932,1443
49.10866399999992,1.4211439999999929,1370
47.81266399999993,-1.8188560000000056,1428
47.81266399999993,-2.4668560000000053,1528
47.81266399999993,-3.114856000000005,1542
48.136663999999925,-3.7628560000000046,1597
44.572663999999946,9.197143999999987,1432
44.89666399999994,8.54914399999999,1377
45.22066399999994,9.197143999999987,1339
45.54466399999994,10.493143999999988,1387
44.572663999999946,10.493143999999988,2758
44.89666399999994,10.493143999999988,1415
44.89666399999994,9.845143999999989,1525
48.46066399999992,5.309143999999991,1488
50.91599999999999,-1.0580000000000025,65535
51.23999999999999,-0.4100000000000028,65535
50.91599999999999,-0.4100000000000028,65535
51.23999999999999,-2.354000000000002,65535
51.56399999999999,-2.354000000000002,65535
51.56399999999999,-3.0020000000000016,65535
50.91599999999999,-2.354000000000002,65535
53.50799999999997,-3.0020000000000016,65535
53.183999999999976,-2.354000000000002,65535
53.183999999999976,-3.0020000000000016,65535
52.85999999999998,-2.354000000000002,65535
52.21199999999998,-1.0580000000000025,65535
51.887999999999984,-1.0580000000000025,65535
52.53599999999998,-1.0580000000000025,65535
52.53599999999998,-1.7060000000000022,65535
52.85999999999998,-1.7060000000000022,65535
53.50799999999997,-2.354000000000002,65535
52.85999999999998,-1.0580000000000025,65535
52.53599999999998,1.5339999999999965,65535
52.53599999999998,0.8859999999999966,65535
52.53599999999998,0.2379999999999968,65535
52.53599999999998,-0.4100000000000028,65535
53.50799999999997,-1.7060000000000022,65535
53.183999999999976,-1.7060000000000022,65535
53.183999999999976,-1.0580000000000025,65535
52.85999999999998,-0.4100000000000028,65535
51.887999999999984,-2.354000000000002,65535
52.21199999999998,-2.354000000000002,65535
55.77599999999996,-2.354000000000002,65535
53.83199999999997,-1.0580000000000025,65535
53.83199999999997,-1.7060000000000022,65535
55.127999999999965,-1.7060000000000022,65535
54.80399999999997,-1.7060000000000022,65535
54.47999999999997,-1.7060000000000022,65535
54.15599999999997,-1.0580000000000025,65535
52.21199999999998,-1.7060000000000022,65535
53.50799999999997,-1.0580000000000025,65535
55.77599999999996,-3.0020000000000016,65535
55.45199999999996,-1.7060000000000022,65535
57.07199999999995,-2.354000000000002,65535
56.74799999999996,-3.0020000000000016,65535
56.42399999999996,-3.0020000000000016,65535
56.09999999999996,-3.650000000000001,65535
50.91599999999999,-3.0020000000000016,65535
50.91599999999999,-3.650000000000001,65535
50.59199999999999,-3.650000000000001,65535
50.59199999999999,-4.298000000000001,65535
51.23999999999999,-3.0020000000000016,65535
50.268,-4.946000000000001,65535
55.77599999999996,-3.650000000000001,65535
55.77599999999996,-4.298000000000001,65535
52.21199999999998,-0.4100000000000028,65535
52.53599999999998,-2.354000000000002,65535
51.56399999999999,-1.7060000000000022,65535
51.56399999999999,-3.650000000000001,65535
51.887999999999984,-4.298000000000001,65535
51.56399999999999,-4.298000000000001,65535
51.887999999999984,-1.7060000000000022,65535
52.21199999999998,-3.0020000000000016,65535
51.23999999999999,0.2379999999999968,65535
50.91599999999999,0.2379999999999968,65535
52.21199999999998,0.2379999999999968,65535
53.83199999999997,-3.0020000000000016,65535
54.15599999999997,-3.0020000000000016,65535
54.47999999999997,-3.0020000000000016,65535
55.127999999999965,-3.650000000000001,65535
54.80399999999997,-3.0020000000000016,65535
53.83199999999997,-2.354000000000002,65535
54.15599999999997,-0.4100000000000028,65535
54.47999999999997,-1.0580000000000025,65535
53.83199999999997,-0.4100000000000028,65535
53.183999999999976,-3.650000000000001,65535
53.183999999999976,-4.298000000000001,65535
52.85999999999998,-3.0020000000000016,65535
52.53599999999998,-3.0020000000000016,65535
51.887999999999984,-3.0020000000000016,65535
51.23999999999999,0.8859999999999966,65535
51.887999999999984,0.2379999999999968,65535
52.21199999999998,0.8859999999999966,65535
51.887999999999984,-4.946000000000001,65535
52.53599999999998,-3.650000000000001,65535
52.21199999999998,-4.298000000000001,65535
53.183999999999976,-0.4100000000000028,65535
51.23999999999999,-3.650000000000001,65535
51.887999999999984,-3.650000000000001,65535
52.21199999999998,-3.650000000000001,65535
51.56399999999999,0.8859999999999966,65535
51.887999999999984,0.8859999999999966,65535
52.85999999999998,0.8859999999999966,65535
53.50799999999997,-0.4100000000000028,65535
56.09999999999996,-4.298000000000001,65535
56.74799999999996,-4.946000000000001,65535
56.74799999999996,-4.298000000000001,65535
56.42399999999996,-4.946000000000001,65535
56.42399999999996,-4.298000000000001,65535
56.09999999999996,-4.946000000000001,65535
57.39599999999995,-4.298000000000001,65535
57.39599999999995,-3.0020000000000016,65535
57.39599999999995,-3.650000000000001,65535
56.42399999999996,-3.650000000000001,65535
57.07199999999995,-3.650000000000001,65535
57.07199999999995,-4.298000000000001,65535
56.74799999999996,-3.650000000000001,65535
59.15266399999986,27.34114399999998,65535
59.47666399999986,26.69314399999997,65535
59.47666399999986,26.04514399999998,65535
59.15266399999986,26.04514399999998,65535
59.15266399999986,24.74914399999998,65535
59.15266399999986,25.397143999999983,65535
59.47666399999986,25.397143999999983,65535
58.50466399999986,26.69314399999997,65535
58.82866399999986,26.69314399999997,65535
57.85666399999987,26.04514399999998,65535
58.180663999999865,26.04514399999998,65535
58.180663999999865,26.69314399999997,65535
58.82866399999986,26.04514399999998,65535
58.50466399999986,25.397143999999983,65535
58.82866399999986,25.397143999999983,65535
58.82866399999986,24.74914399999998,65535
58.180663999999865,27.34114399999998,65535
57.85666399999987,27.34114399999998,65535
63.68866399999983,27.34114399999998,2757
60.124663999999854,24.74914399999998,2293
60.44866399999985,24.74914399999998,2262
60.44866399999985,25.397143999999983,2274
60.77266399999985,25.397143999999983,2480
61.09666399999985,26.04514399999998,2522
60.77266399999985,26.04514399999998,2529
60.77266399999985,26.69314399999997,2548
61.09666399999985,25.397143999999983,2513
61.09666399999985,26.69314399999997,2878
61.420663999999846,26.69314399999997,2900
61.74466399999984,27.34114399999998,2924
62.06866399999984,27.34114399999998,2949
62.39266399999984,27.34114399999998,2973
62.71666399999984,27.34114399999998,2937
64.01266399999983,27.34114399999998,3105
63.36466399999984,27.34114399999998,2825
63.04066399999984,27.34114399999998,2865
63.04066399999984,27.989143999999985,2880
64.33666399999983,27.989143999999985,3152
64.33666399999983,27.34114399999998,3228
64.66066399999983,27.34114399999998,3244
64.66066399999983,26.69314399999997,3255
64.98466399999982,25.397143999999983,1639
64.66066399999983,26.04514399999998,3285
64.98466399999982,26.04514399999998,3307
66.28066399999982,25.397143999999983,1716
65.95666399999982,24.74914399999998,1552
65.63266399999982,24.74914399999998,1556
65.63266399999982,25.397143999999983,1598
65.30866399999982,25.397143999999983,1619
66.60466399999981,25.397143999999983,1776
64.01266399999983,24.74914399999998,1776
64.01266399999983,24.101143999999977,1811
64.01266399999983,23.45314399999998,1835
63.68866399999983,23.45314399999998,1847
63.68866399999983,22.805143999999984,1872
63.68866399999983,26.04514399999998,2464
63.68866399999983,25.397143999999983,2430
63.68866399999983,26.69314399999997,2724
60.44866399999985,26.69314399999997,2716
64.01266399999983,27.989143999999985,3143
62.71666399999984,22.805143999999984,1994
62.39266399999984,22.805143999999984,2026
62.06866399999984,22.805143999999984,2055
62.06866399999984,23.45314399999998,2071
61.74466399999984,23.45314399999998,2083
61.420663999999846,23.45314399999998,2131
61.09666399999985,23.45314399999998,2172
61.09666399999985,24.101143999999977,2179
61.09666399999985,24.74914399999998,2213
60.77266399999985,24.74914399999998,2229
63.04066399999984,21.50914399999997,65535
63.04066399999984,22.15714399999998,65535
63.04066399999984,22.805143999999984,1958
62.39266399999984,26.04514399999998,3121
62.06866399999984,25.397143999999983,3170
61.74466399999984,25.397143999999983,3238
61.74466399999984,24.74914399999998,3275
61.74466399999984,24.101143999999977,3310
61.420663999999846,24.101143999999977,2654
62.39266399999984,26.69314399999997,3092
64.66066399999983,25.397143999999983,1708
64.66066399999983,24.74914399999998,1726
64.33666399999983,24.74914399999998,1737
63.36466399999984,22.805143999999984,1897
67.25266399999981,24.101143999999977,3866
66.92866399999981,24.101143999999977,3830
66.60466399999981,23.45314399999998,3799
66.28066399999982,23.45314399999998,3781
66.28066399999982,24.101143999999977,3763
65.95666399999982,24.101143999999977,1243
60.124663999999854,24.101143999999977,2486
60.124663999999854,23.45314399999998,2523
60.44866399999985,22.805143999999984,65535
60.77266399999985,27.34114399999998,2606
61.09666399999985,27.989143999999985,2638
61.09666399999985,28.63714399999997,2684
61.420663999999846,29.28514399999997,4371
61.74466399999984,29.933143999999977,4429
62.06866399999984,29.933143999999977,4535
62.39266399999984,29.933143999999977,4573
62.71666399999984,29.933143999999977,4606
61.420663999999846,22.805143999999984,2167
61.420663999999846,22.15714399999998,2246
61.09666399999985,22.15714399999998,2234
61.420663999999846,21.50914399999997,2379
62.39266399999984,27.989143999999985,65535
62.06866399999984,27.989143999999985,65535
61.420663999999846,27.34114399999998,65535
63.04066399999984,29.933143999999977,65535
63.68866399999983,29.28514399999997,65535
63.36466399999984,29.28514399999997,65535
63.36466399999984,29.933143999999977,65535
60.44866399999985,27.34114399999998,65535
61.74466399999984,29.28514399999997,65535
62.39266399999984,30.58114399999998,65535
62.71666399999984,31.229143999999977,65535
62.71666399999984,29.28514399999997,65535
63.04066399999984,28.63714399999997,65535
66.60466399999981,26.04514399999998,1786
66.60466399999981,26.69314399999997,1822
66.60466399999981,27.34114399999998,1845
62.71666399999984,26.04514399999998,3006
62.71666399999984,25.397143999999983,2975
63.04066399999984,25.397143999999983,2795
63.36466399999984,25.397143999999983,2758
62.71666399999984,23.45314399999998,3000
62.39266399999984,24.101143999999977,65535
62.71666399999984,22.15714399999998,65535
62.39266399999984,22.15714399999998,65535
62.39266399999984,21.50914399999997,65535
61.09666399999985,21.50914399999997,4057
60.77266399999985,22.805143999999984,3483
60.44866399999985,22.15714399999998,3531
60.77266399999985,23.45314399999998,3465
60.77266399999985,21.50914399999997,3633
60.77266399999985,22.15714399999998,3586
60.124663999999854,22.805143999999984,3799
60.44866399999985,24.101143999999977,2472
62.06866399999984,24.74914399999998,65535
50.72866399999991,16.325143999999987,1245
50.40466399999991,16.973143999999984,1333
50.72866399999991,16.973143999999984,1296
50.40466399999991,16.325143999999987,1302
50.08066399999991,16.973143999999984,1390
50.08066399999991,16.325143999999987,1353
51.700663999999904,16.973143999999984,1253
51.37666399999991,16.973143999999984,1259
51.05266399999991,15.677143999999986,1279
50.72866399999991,15.677143999999986,1259
51.05266399999991,17.621143999999987,1332
51.37666399999991,17.621143999999987,1381
51.700663999999904,17.621143999999987,1303
51.700663999999904,16.325143999999987,1239
52.0246639999999,22.15714399999998,1695
52.0246639999999,21.50914399999997,1647
52.3486639999999,21.50914399999997,1644
52.0246639999999,20.86114399999998,1632
51.700663999999904,20.86114399999998,1658
51.37666399999991,21.50914399999997,1689
51.37666399999991,20.86114399999998,1670
51.05266399999991,20.86114399999998,1622
52.6726639999999,23.45314399999998,1762
52.3486639999999,22.805143999999984,1701
52.3486639999999,20.213143999999986,1639
52.0246639999999,20.213143999999986,1622
52.3486639999999,19.565143999999982,1444
52.6726639999999,19.565143999999982,1527
51.700663999999904,21.50914399999997,1677
51.700663999999904,22.15714399999998,1711
52.6726639999999,21.50914399999997,1653
52.996663999999896,21.50914399999997,1669
52.6726639999999,20.86114399999998,1648
52.6726639999999,22.15714399999998,1669
52.6726639999999,20.213143999999986,1586
52.996663999999896,19.565143999999982,1579
52.996663999999896,20.86114399999998,1673
52.996663999999896,20.213143999999986,1680
53.32066399999989,20.213143999999986,1723
51.37666399999991,20.213143999999986,1574
52.3486639999999,16.973143999999984,1276
52.0246639999999,16.973143999999984,1280
52.0246639999999,16.325143999999987,1253
52.0246639999999,17.621143999999987,1346
52.6726639999999,16.973143999999984,1270
52.996663999999896,16.973143999999984,1290
52.3486639999999,16.325143999999987,1240
52.3486639999999,15.677143999999986,1206
51.700663999999904,18.269143999999983,1363
52.6726639999999,17.621143999999987,1300
52.3486639999999,17.621143999999987,1286
52.6726639999999,18.269143999999983,1374
52.3486639999999,18.269143999999983,1357
52.3486639999999,18.917143999999983,1404
52.996663999999896,17.621143999999987,1398
51.700663999999904,19.565143999999982,1444
51.700663999999904,18.917143999999983,1411
51.37666399999991,18.269143999999983,1457
58.82866399999986,9.197143999999987,1085
58.180663999999865,7.90114399999999,1178
58.50466399999986,8.54914399999999,1130
63.36466399999984,10.493143999999988,1144
63.36466399999984,11.141143999999988,1134
63.36466399999984,11.789143999999988,1032
63.68866399999983,11.789143999999988,1253
64.33666399999983,12.437143999999988,1597
64.66066399999983,12.437143999999988,1647
65.63266399999982,13.085143999999987,1739
65.95666399999982,13.085143999999987,1767
66.28066399999982,14.381143999999988,1848
65.95666399999982,13.733143999999989,1806
66.28066399999982,13.733143999999989,1827
65.30866399999982,13.085143999999987,1704
64.98466399999982,13.085143999999987,1683
64.01266399999983,11.789143999999988,1284
63.68866399999983,11.141143999999988,1222
59.800663999999855,10.493143999999988,344
59.800663999999855,11.141143999999988,329
60.124663999999854,11.141143999999988,355
60.44866399999985,11.141143999999988,371
60.124663999999854,11.789143999999988,428
60.77266399999985,7.25314399999999,1250
60.77266399999985,6.60514399999999,1309
59.15266399999986,9.197143999999987,1052
59.47666399999986,9.197143999999987,1028
59.800663999999855,9.845143999999989,349
59.47666399999986,11.141143999999988,295
61.09666399999985,10.493143999999988,460
60.77266399999985,10.493143999999988,398
60.77266399999985,11.141143999999988,390
62.06866399999984,9.197143999999987,1201
61.74466399999984,9.845143999999989,1146
61.420663999999846,9.845143999999989,1129
59.15266399999986,9.845143999999989,423
59.47666399999986,9.845143999999989,401
58.82866399999986,5.957143999999991,1358
58.180663999999865,7.25314399999999,1231
58.50466399999986,7.25314399999999,1267
58.50466399999986,6.60514399999999,1272
58.50466399999986,5.957143999999991,1325
58.82866399999986,8.54914399999999,1116
60.44866399999985,7.25314399999999,1237
60.44866399999985,7.90114399999999,1193
60.124663999999854,10.493143999999988,355
60.44866399999985,9.197143999999987,1142
60.77266399999985,9.197143999999987,1154
60.77266399999985,8.54914399999999,1173
60.124663999999854,9.845143999999989,1414
60.44866399999985,10.493143999999988,362
63.04066399999984,10.493143999999988,1219
62.06866399999984,9.845143999999989,1227
62.39266399999984,9.845143999999989,1410
62.71666399999984,9.845143999999989,1258
59.47666399999986,14.381143999999988,0
59.47666399999986,13.733143999999989,13
59.47666399999986,13.085143999999987,43
59.800663999999855,12.437143999999988,83
59.15266399999986,11.141143999999988,249
59.15266399999986,14.381143999999988,255
58.82866399999986,11.789143999999988,207
58.50466399999986,12.437143999999988,170
58.180663999999865,12.437143999999988,176
57.85666399999987,11.789143999999988,215
62.71666399999984,7.90114399999999,1288
62.39266399999984,7.90114399999999,1245
62.06866399999984,8.54914399999999,1220
60.44866399999985,5.309143999999991,1396
60.44866399999985,5.957143999999991,1363
60.77266399999985,5.957143999999991,1337
62.39266399999984,11.141143999999988,1391
62.06866399999984,10.493143999999988,1346
61.74466399999984,11.141143999999988,1319
61.420663999999846,11.141143999999988,1273
61.09666399999985,11.141143999999988,1256
60.77266399999985,11.789143999999988,1233
63.04066399999984,11.141143999999988,1388
62.71666399999984,11.141143999999988,1410
62.39266399999984,10.493143999999988,1373
67.25266399999981,15.677143999999986,2390
67.25266399999981,15.029143999999986,2428
67.25266399999981,14.381143999999988,2456
66.92866399999981,15.029143999999986,2379
66.60466399999981,15.677143999999986,2357
64.01266399999983,11.141143999999988,1268
66.60466399999981,15.029143999999986,2420
54.29266399999989,18.269143999999983,1542
54.616663999999886,17.621143999999987,1492
53.96866399999989,18.269143999999983,1458
43.92466399999995,1.4211439999999929,1621
44.24866399999995,0.7731439999999932,1615
44.572663999999946,0.1251439999999934,1521
46.84066399999993,1.4211439999999929,1486
44.572663999999946,1.4211439999999929,1693
44.24866399999995,1.4211439999999929,1670
45.54466399999994,1.4211439999999929,1611
46.516663999999935,1.4211439999999929,1605
42.30466399999996,2.717143999999992,1711
44.24866399999995,2.717143999999992,1714
44.572663999999946,2.717143999999992,1778
43.92466399999995,2.0691439999999925,1633
42.30466399999996,2.0691439999999925,1713
42.62866399999996,2.0691439999999925,1675
42.62866399999996,1.4211439999999929,1720
42.95266399999996,1.4211439999999929,1731
43.276663999999954,1.4211439999999929,1668
46.516663999999935,-1.170856000000006,1474
46.19266399999994,-1.170856000000006,1461
45.86866399999994,-0.5228560000000062,1483
45.54466399999994,-0.5228560000000062,1536
48.46066399999992,1.4211439999999929,1309
41.332663999999966,2.0691439999999925,2674
41.98066399999996,2.717143999999992,2633
48.46066399999992,-1.8188560000000056,1451
47.81266399999993,0.7731439999999932,1442
46.84066399999993,0.7731439999999932,1480
44.572663999999946,-1.170856000000006,1465
43.60066399999995,-1.170856000000006,1530
43.276663999999954,-1.8188560000000056,1648
43.276663999999954,0.1251439999999934,1639
42.95266399999996,0.1251439999999934,1613
43.276663999999954,-0.5228560000000062,1585
43.60066399999995,-0.5228560000000062,1561
47.81266399999993,-3.7628560000000046,1590
47.48866399999993,-2.4668560000000053,1601
47.81266399999993,-0.5228560000000062,1370
46.516663999999935,-1.8188560000000056,1515
48.136663999999925,-1.170856000000006,1456
47.48866399999993,-1.170856000000006,1435
45.22066399999994,8.54914399999999,1337
45.22066399999994,7.90114399999999,1399
46.19266399999994,-0.5228560000000062,1418
46.516663999999935,-0.5228560000000062,1400
48.78466399999992,-3.114856000000005,1548
50.72866399999991,2.0691439999999925,1290
50.40466399999991,2.0691439999999925,1337
40.36066399999997,-3.7628560000000046,2865
41.65666399999997,-1.170856000000006,2782
41.332663999999966,1.4211439999999929,2720
43.276663999999954,13.733143999999989,65535
42.95266399999996,13.733143999999989,65535
41.65666399999997,15.029143999999986,65535
40.68466399999997,17.621143999999987,65535
43.60066399999995,13.085143999999987,65535
41.65666399999997,12.437143999999988,4009
41.65666399999997,13.085143999999987,4028
41.98066399999996,13.085143999999987,4078
41.65666399999997,13.733143999999989,4080
41.332663999999966,13.733143999999989,4072
41.332663999999966,14.381143999999988,4229
41.00866399999997,14.381143999999988,4135
41.332663999999966,13.085143999999987,4054
41.00866399999997,15.029143999999986,4335
41.98066399999996,13.733143999999989,4277
42.30466399999996,14.381143999999988,4416
42.30466399999996,12.437143999999988,4017
42.62866399999996,12.437143999999988,4196
42.95266399999996,12.437143999999988,4481
42.30466399999996,11.789143999999988,4026
42.95266399999996,11.789143999999988,4236
42.62866399999996,11.789143999999988,4227
43.276663999999954,11.789143999999988,4290
42.95266399999996,13.085143999999987,65535
42.30466399999996,13.085143999999987,4303
43.276663999999954,13.085143999999987,65535
43.276663999999954,12.437143999999988,65535
42.62866399999996,11.141143999999988,4072
42.95266399999996,11.141143999999988,4115
42.95266399999996,10.493143999999988,4133
44.572663999999946,8.54914399999999,1430
44.89666399999994,7.90114399999999,1413
44.89666399999994,9.197143999999987,1452
44.24866399999995,7.90114399999999,1440
44.572663999999946,7.90114399999999,1436
43.92466399999995,7.90114399999999,1538
44.24866399999995,7.25314399999999,1476
44.89666399999994,7.25314399999999,1458
45.22066399999994,7.25314399999999,1438
45.54466399999994,7.90114399999999,1421
44.572663999999946,7.25314399999999,2302
52.996663999999896,22.805143999999984,2215
52.996663999999896,23.45314399999998,2244
51.37666399999991,22.15714399999998,2171
51.37666399999991,22.805143999999984,2225
50.08066399999991,20.213143999999986,1506
50.72866399999991,20.213143999999986,1529
50.40466399999991,20.213143999999986,1513
50.08066399999991,20.86114399999998,1533
50.08066399999991,21.50914399999997,1564
50.08066399999991,22.15714399999998,1601
50.08066399999991,22.805143999999984,1608
53.96866399999989,22.805143999999984,2356
53.64466399999989,23.45314399999998,2312
53.32066399999989,23.45314399999998,2267
50.40466399999991,19.565143999999982,1500
50.08066399999991,18.917143999999983,1490
50.08066399999991,18.269143999999983,1450
52.0246639999999,22.805143999999984,1726
52.0246639999999,23.45314399999998,1740
51.37666399999991,19.565143999999982,1521
51.05266399999991,19.565143999999982,1560
50.72866399999991,18.917143999999983,1513
50.72866399999991,19.565143999999982,1537
49.75666399999992,18.917143999999983,1563
50.40466399999991,18.269143999999983,1406
53.64466399999989,19.565143999999982,1604
53.96866399999989,18.917143999999983,1500
53.64466399999989,18.917143999999983,1479
53.64466399999989,20.213143999999986,1642
52.996663999999896,18.917143999999983,1431
52.996663999999896,18.269143999999983,1407
53.32066399999989,18.917143999999983,1515
50.72866399999991,17.621143999999987,1347
50.72866399999991,18.269143999999983,1363
52.6726639999999,16.325143999999987,1231
52.996663999999896,16.325143999999987,1193
52.996663999999896,15.677143999999986,1168
53.32066399999989,15.677143999999986,1210
53.32066399999989,15.029143999999986,1218
53.64466399999989,15.029143999999986,1280
53.96866399999989,15.029143999999986,1178
52.6726639999999,18.917143999999983,1444
53.32066399999989,16.325143999999987,1417
52.6726639999999,15.029143999999986,1102
51.05266399999991,22.805143999999984,2256
51.05266399999991,23.45314399999998,2283
50.72866399999991,22.15714399999998,2221
50.40466399999991,22.15714399999998,2210
51.05266399999991,22.15714399999998,2222
54.616663999999886,16.973143999999984,1412
54.29266399999989,16.325143999999987,1345
53.96866399999989,15.677143999999986,1260
50.72866399999991,21.50914399999997,2251
50.40466399999991,21.50914399999997,1650
50.40466399999991,17.621143999999987,1432
53.32066399999989,22.805143999999984,2237
53.64466399999989,22.15714399999998,2197
54.29266399999989,16.973143999999984,1381
50.72866399999991,20.86114399999998,1550
51.700663999999904,22.805143999999984,2440
51.05266399999991,21.50914399999997,1730
50.08066399999991,19.565143999999982,1504
52.0246639999999,18.917143999999983,3688
52.0246639999999,19.565143999999982,3681
53.64466399999989,18.269143999999983,1452
51.700663999999904,20.213143999999986,1614
53.32066399999989,19.565143999999982,1595
50.72866399999991,23.45314399999998,2635
50.72866399999991,22.805143999999984,2604
49.43266399999992,20.213143999999986,1703
49.75666399999992,21.50914399999997,1627
49.75666399999992,22.15714399999998,2262
49.43266399999992,22.15714399999998,2274
51.05266399999991,18.917143999999983,1476
51.05266399999991,18.269143999999983,1456
53.32066399999989,16.973143999999984,1339
53.64466399999989,16.973143999999984,1358
49.75666399999992,20.86114399999998,1586
50.40466399999991,22.805143999999984,3770
53.64466399999989,16.325143999999987,1344
53.96866399999989,20.86114399999998,1749
54.29266399999989,20.86114399999998,1795
53.96866399999989,21.50914399999997,1812
53.64466399999989,15.677143999999986,1272
53.96866399999989,20.213143999999986,1656
53.96866399999989,19.565143999999982,1524
54.29266399999989,19.565143999999982,1534
53.96866399999989,16.325143999999987,1308
53.64466399999989,17.621143999999987,1404
53.96866399999989,22.15714399999998,1878
53.64466399999989,21.50914399999997,2246
53.64466399999989,20.86114399999998,1683
52.6726639999999,15.677143999999986,1151
51.05266399999991,20.213143999999986,1835
54.940663999999884,24.101143999999977,65535
54.616663999999886,23.45314399999998,65535
54.29266399999989,23.45314399999998,65535
53.64466399999989,22.805143999999984,2260
53.96866399999989,16.973143999999984,1513
50.40466399999991,20.86114399999998,2266
53.32066399999989,18.269143999999983,1425
49.75666399999992,19.565143999999982,1525
50.40466399999991,23.45314399999998,1885
49.75666399999992,20.213143999999986,1681
49.43266399999992,19.565143999999982,1605
49.43266399999992,20.86114399999998,1694
53.96866399999989,17.621143999999987,2283
42.30466399999996,-1.8188560000000056,3999
41.98066399999996,-1.8188560000000056,3982
41.65666399999997,0.7731439999999932,3986
42.62866399999996,-1.8188560000000056,4114
42.95266399999996,-1.8188560000000056,4143
42.62866399999996,-3.114856000000005,4237
42.95266399999996,-2.4668560000000053,4215
42.62866399999996,-7.650856000000003,4579
42.30466399999996,-7.650856000000003,4639
42.30466399999996,-8.946856000000002,4775
42.30466399999996,-8.298856000000002,4749
41.98066399999996,-8.298856000000002,4738
42.30466399999996,-7.002856000000003,4521
42.62866399999996,-6.354856000000003,4463
42.30466399999996,-6.354856000000003,4418
42.62866399999996,-5.706856000000004,3918
41.98066399999996,-4.410856000000004,3872
42.30466399999996,-3.7628560000000046,4263
40.03666399999997,-0.5228560000000062,3966
39.38866399999998,-0.5228560000000062,4014
41.00866399999997,0.7731439999999932,4114
40.68466399999997,0.7731439999999932,4146
40.36066399999997,0.1251439999999934,4224
39.712663999999975,-0.5228560000000062,4123
38.41666399999998,-0.5228560000000062,4135
39.06466399999998,-0.5228560000000062,4257
38.74066399999998,-1.170856000000006,4143
41.332663999999966,0.7731439999999932,4174
41.65666399999997,2.717143999999992,3774
41.65666399999997,2.0691439999999925,3797
41.332663999999966,0.1251439999999934,4132
41.332663999999966,-0.5228560000000062,4076
41.65666399999997,-4.410856000000004,3846
40.03666399999997,-2.4668560000000053,4084
41.00866399999997,-4.410856000000004,3967
43.276663999999954,-5.706856000000004,4048
39.38866399999998,-1.170856000000006,4109
38.09266399999999,-1.170856000000006,4522
38.74066399999998,-0.5228560000000062,4285
37.76866399999999,-1.170856000000006,4587
39.06466399999998,-1.8188560000000056,4107
39.38866399999998,-3.114856000000005,4007
39.38866399999998,-2.4668560000000053,4063
39.06466399999998,-2.4668560000000053,4090
39.06466399999998,-3.114856000000005,4011
39.06466399999998,-3.7628560000000046,3985
38.74066399999998,-3.7628560000000046,4064
40.03666399999997,-3.7628560000000046,3963
40.03666399999997,-3.114856000000005,4163
40.03666399999997,-1.8188560000000056,4244
39.712663999999975,-1.8188560000000056,4209
39.712663999999975,-1.170856000000006,4145
40.36066399999997,-1.170856000000006,4164
40.68466399999997,-1.170856000000006,4142
41.00866399999997,-1.170856000000006,4130
41.332663999999966,-1.170856000000006,3970
43.276663999999954,-8.298856000000002,4739
42.95266399999996,-8.298856000000002,4707
41.65666399999997,-5.706856000000004,65535
41.98066399999996,-7.002856000000003,65535
41.98066399999996,-6.354856000000003,65535
41.332663999999966,-5.058856000000004,4085
43.276663999999954,-3.7628560000000046,4520
42.95266399999996,-4.410856000000004,4454
42.62866399999996,-4.410856000000004,4444
42.30466399999996,-4.410856000000004,4403
41.00866399999997,-5.706856000000004,4023
41.332663999999966,-1.8188560000000056,3916
40.68466399999997,-3.114856000000005,3870
41.00866399999997,-3.114856000000005,3921
41.00866399999997,-2.4668560000000053,3944
41.332663999999966,-2.4668560000000053,3997
40.68466399999997,-4.410856000000004,3907
40.36066399999997,-4.410856000000004,3991
40.68466399999997,-3.7628560000000046,3899
40.36066399999997,-3.114856000000005,3877
41.65666399999997,-2.4668560000000053,4014
38.09266399999999,-3.7628560000000046,4111
38.74066399999998,-3.114856000000005,4055
37.76866399999999,-3.7628560000000046,4168
39.712663999999975,-3.114856000000005,3999
38.41666399999998,-3.7628560000000046,4076
40.03666399999997,-4.410856000000004,65535
40.03666399999997,-5.058856000000004,65535
39.38866399999998,-6.354856000000003,65535
39.38866399999998,-7.002856000000003,65535
42.95266399999996,-3.114856000000005,4648
41.98066399999996,-1.170856000000006,4011
42.30466399999996,-2.4668560000000053,4052
41.65666399999997,-0.5228560000000062,4109
41.98066399999996,-0.5228560000000062,3946
41.65666399999997,0.1251439999999934,3973
41.98066399999996,0.1251439999999934,3995
37.76866399999999,-5.058856000000004,4047
36.79666399999999,-4.410856000000004,4106
38.74066399999998,-4.410856000000004,4003
37.12066399999999,-4.410856000000004,4080
37.44466399999999,-5.058856000000004,4604
37.44466399999999,-7.002856000000003,65535
37.44466399999999,-6.354856000000003,65535
37.44466399999999,-5.706856000000004,4280
39.712663999999975,-3.7628560000000046,4073
42.62866399999996,-8.946856000000002,65535
42.30466399999996,-5.706856000000004,4425
42.30466399999996,-5.058856000000004,4510
42.95266399999996,-5.706856000000004,3950
41.00866399999997,-5.058856000000004,3991
40.68466399999997,-5.058856000000004,3965
41.65666399999997,-5.058856000000004,65535
41.65666399999997,-6.354856000000003,65535
36.79666399999999,-6.354856000000003,65535
37.12066399999999,-5.706856000000004,4448
37.76866399999999,-5.706856000000004,4247
38.09266399999999,-4.410856000000004,4382
37.12066399999999,-5.058856000000004,4402
36.79666399999999,-5.058856000000004,4360
37.76866399999999,-4.410856000000004,65535
37.76866399999999,-7.002856000000003,65535
38.41666399999998,-6.354856000000003,65535
38.09266399999999,-6.354856000000003,65535
48.78466399999992,1.4211439999999929,1468
56.23666399999988,8.54914399999999,2290
55.58866399999988,9.197143999999987,2095
55.91266399999988,9.197143999999987,2236
55.26466399999988,10.493143999999988,597
55.91266399999988,12.437143999999988,364
55.58866399999988,11.789143999999988,1935
55.58866399999988,11.141143999999988,1976
55.26466399999988,11.789143999999988,1968
55.58866399999988,10.493143999999988,2091
55.58866399999988,13.085143999999987,373
56.88466399999987,9.845143999999989,2242
57.20866399999987,9.845143999999989,2277
56.56066399999988,9.845143999999989,2214
56.88466399999987,8.54914399999999,2329
54.940663999999884,9.845143999999989,3436
54.940663999999884,11.789143999999988,2192
55.91266399999988,13.085143999999987,366
56.23666399999988,13.733143999999989,368
55.91266399999988,13.733143999999989,381
56.23666399999988,14.381143999999988,391
56.23666399999988,15.029143999999986,432
56.23666399999988,15.677143999999986,487
56.56066399999988,14.381143999999988,428
56.88466399999987,14.381143999999988,449
56.23666399999988,13.085143999999987,334
56.56066399999988,13.085143999999987,303
56.88466399999987,12.437143999999988,283
57.20866399999987,12.437143999999988,248
57.53266399999987,12.437143999999988,239
56.88466399999987,15.029143999999986,467
56.56066399999988,15.677143999999986,1089
56.88466399999987,15.677143999999986,1123
56.88466399999987,16.325143999999987,1139
55.91266399999988,11.789143999999988,2261
57.20866399999987,10.493143999999988,2464
49.43266399999992,1.4211439999999929,1409
49.75666399999992,0.7731439999999932,1402
49.75666399999992,2.0691439999999925,1343
50.08066399999991,2.717143999999992,1311
49.75666399999992,1.4211439999999929,1384
47.81266399999993,1.4211439999999929,1374
48.136663999999925,2.0691439999999925,1584
48.46066399999992,2.0691439999999925,1351
48.136663999999925,1.4211439999999929,1378
48.78466399999992,0.1251439999999934,1531
48.46066399999992,0.1251439999999934,1546
47.81266399999993,0.1251439999999934,1384
46.84066399999993,-0.5228560000000062,1482
47.16466399999993,0.7731439999999932,1403
46.84066399999993,0.1251439999999934,1687
46.84066399999993,-1.170856000000006,1473
50.08066399999991,1.4211439999999929,1358
50.08066399999991,2.0691439999999925,1377
49.43266399999992,2.717143999999992,1408
49.75666399999992,3.365143999999992,1403
50.08066399999991,3.365143999999992,1345
49.10866399999992,2.0691439999999925,1355
49.43266399999992,2.0691439999999925,1380
48.78466399999992,0.7731439999999932,1625
48.78466399999992,-0.5228560000000062,1764
48.78466399999992,-1.170856000000006,1593
48.136663999999925,0.7731439999999932,1427
48.46066399999992,0.7731439999999932,1353
43.92466399999995,5.957143999999991,1564
44.24866399999995,5.957143999999991,1605
43.92466399999995,5.309143999999991,1520
42.95266399999996,2.717143999999992,1636
45.54466399999994,2.0691439999999925,1632
45.22066399999994,2.0691439999999925,1634
42.95266399999996,2.0691439999999925,2377
42.95266399999996,0.7731439999999932,1682
43.276663999999954,0.7731439999999932,1694
46.19266399999994,0.7731439999999932,1583
46.516663999999935,0.7731439999999932,1562
45.86866399999994,0.1251439999999934,1516
46.19266399999994,0.1251439999999934,1556
47.81266399999993,-1.170856000000006,1435
48.136663999999925,-2.4668560000000053,1504
47.48866399999993,-1.8188560000000056,1440
47.16466399999993,-1.170856000000006,1464
47.16466399999993,-0.5228560000000062,1489
46.84066399999993,-1.8188560000000056,1492
45.22066399999994,-0.5228560000000062,1488
44.89666399999994,0.1251439999999934,1454
45.22066399999994,0.7731439999999932,1541
45.54466399999994,0.7731439999999932,1611
45.86866399999994,0.7731439999999932,1600
45.22066399999994,0.1251439999999934,1467
44.89666399999994,0.7731439999999932,1502
43.92466399999995,-0.5228560000000062,1614
43.92466399999995,-1.170856000000006,1579
44.24866399999995,-1.170856000000006,1560
45.22066399999994,-1.170856000000006,1518
44.572663999999946,-0.5228560000000062,1487
44.24866399999995,0.1251439999999934,1590
44.572663999999946,0.7731439999999932,1672
43.276663999999954,-1.170856000000006,1659
42.95266399999996,-0.5228560000000062,1597
44.24866399999995,2.0691439999999925,1699
43.60066399999995,0.7731439999999932,1754
43.60066399999995,2.0691439999999925,1640
52.6726639999999,4.661143999999991,2281
52.6726639999999,5.309143999999991,2304
51.700663999999904,5.309143999999991,2249
52.0246639999999,5.309143999999991,2261
52.3486639999999,5.309143999999991,2277
51.37666399999991,4.013143999999992,2257
52.3486639999999,5.957143999999991,2271
52.0246639999999,6.60514399999999,2301
52.6726639999999,5.957143999999991,2288
52.996663999999896,5.957143999999991,2301
53.32066399999989,5.957143999999991,2295
52.996663999999896,6.60514399999999,2277
53.32066399999989,6.60514399999999,2269
52.6726639999999,6.60514399999999,2297
52.996663999999896,5.309143999999991,2316
59.15266399999986,24.101143999999977,65535
56.88466399999987,24.101143999999977,65535
56.88466399999987,23.45314399999998,65535
56.88466399999987,22.805143999999984,65535
57.20866399999987,24.74914399999998,65535
56.88466399999987,24.74914399999998,65535
56.56066399999988,24.74914399999998,65535
56.56066399999988,25.397143999999983,65535
56.56066399999988,24.101143999999977,65535
56.56066399999988,23.45314399999998,65535
56.56066399999988,26.04514399999998,65535
56.88466399999987,26.04514399999998,65535
57.20866399999987,25.397143999999983,65535
57.53266399999987,25.397143999999983,65535
56.23666399999988,26.04514399999998,65535
56.23666399999988,26.69314399999997,65535
55.91266399999988,26.69314399999997,65535
56.56066399999988,26.69314399999997,65535
56.56066399999988,27.34114399999998,65535
56.56066399999988,27.989143999999985,65535
56.23666399999988,27.989143999999985,65535
55.91266399999988,27.34114399999998,65535
56.56066399999988,22.805143999999984,65535
56.56066399999988,22.15714399999998,65535
56.56066399999988,21.50914399999997,65535
57.20866399999987,26.69314399999997,65535
39.06466399999998,-8.946856000000002,65535
38.41666399999998,-8.298856000000002,65535
45.86866399999994,11.789143999999988,3028
46.19266399999994,11.789143999999988,3015
46.19266399999994,10.493143999999988,3055
45.22066399999994,18.269143999999983,2461
45.22066399999994,18.917143999999983,2535
45.54466399999994,16.973143999999984,2319
45.22066399999994,17.621143999999987,2396
45.86866399999994,16.325143999999987,2200
45.54466399999994,18.917143999999983,2575
45.54466399999994,16.325143999999987,2275
45.54466399999994,18.269143999999983,2553
44.89666399999994,18.917143999999983,2856
46.19266399999994,16.973143999999984,2220
46.19266399999994,16.325143999999987,2206
45.86866399999994,16.973143999999984,2237
45.86866399999994,17.621143999999987,2341
46.19266399999994,15.677143999999986,1595
46.516663999999935,16.325143999999987,1650
45.54466399999994,15.677143999999986,2180
45.22066399999994,15.029143999999986,2247
45.54466399999994,15.029143999999986,1733
45.22066399999994,15.677143999999986,2264
44.572663999999946,15.677143999999986,3019
44.24866399999995,15.677143999999986,3040
43.92466399999995,16.325143999999987,3104
44.89666399999994,15.677143999999986,2983
45.54466399999994,17.621143999999987,2528
45.22066399999994,16.325143999999987,2396
46.516663999999935,16.973143999999984,2277
45.86866399999994,18.269143999999983,2654
43.92466399999995,15.677143999999986,3206
45.22066399999994,13.733143999999989,2262
47.48866399999993,19.565143999999982,1657
47.16466399999993,18.917143999999983,2178
47.81266399999993,18.917143999999983,1636
45.54466399999994,9.845143999999989,1339
45.22066399999994,9.845143999999989,1348
45.22066399999994,10.493143999999988,1398
45.86866399999994,9.845143999999989,1359
45.86866399999994,10.493143999999988,3798
48.78466399999992,21.50914399999997,2175
49.10866399999992,20.213143999999986,1849
49.10866399999992,18.917143999999983,1506
48.46066399999992,17.621143999999987,1547
49.43266399999992,17.621143999999987,1453
49.10866399999992,17.621143999999987,2272
48.136663999999925,18.269143999999983,1578
49.10866399999992,18.269143999999983,1527
49.43266399999992,18.269143999999983,1484
49.43266399999992,16.973143999999984,1431
49.75666399999992,16.973143999999984,1401
49.75666399999992,16.325143999999987,1379
50.08066399999991,15.677143999999986,1283
50.08066399999991,15.029143999999986,1270
49.43266399999992,18.917143999999983,1495
47.81266399999993,20.86114399999998,2395
48.136663999999925,20.86114399999998,2340
48.46066399999992,20.86114399999998,2244
48.46066399999992,21.50914399999997,2130
49.10866399999992,19.565143999999982,1540
48.136663999999925,17.621143999999987,1526
48.78466399999992,22.15714399999998,2350
48.78466399999992,20.86114399999998,2399
49.10866399999992,20.86114399999998,1887
48.78466399999992,18.269143999999983,1538
48.78466399999992,17.621143999999987,1589
49.10866399999992,21.50914399999997,2191
48.78466399999992,20.213143999999986,2256
48.46066399999992,20.213143999999986,2206
48.136663999999925,19.565143999999982,2178
48.46066399999992,19.565143999999982,2140
48.46066399999992,18.917143999999983,1654
48.46066399999992,18.269143999999983,1583
48.78466399999992,19.565143999999982,1849
48.78466399999992,18.917143999999983,1648
47.81266399999993,18.269143999999983,1615
49.10866399999992,22.15714399999998,2300
49.43266399999992,21.50914399999997,2254
48.136663999999925,18.917143999999983,1659
48.136663999999925,20.213143999999986,2227
52.636,-8.018,65535
52.312,-7.370000000000001,65535
52.312,-8.018,65535
52.636,-8.666,65535
51.988,-8.666,65535
51.988,-8.018,65535
52.96,-8.666,65535
52.96,-6.074000000000002,65535
53.28399999999999,-6.722000000000001,65535
53.60799999999999,-6.722000000000001,65535
53.60799999999999,-7.370000000000001,65535
53.60799999999999,-8.018,65535
54.25599999999999,-8.666,65535
53.93199999999999,-8.666,65535
53.93199999999999,-8.018,65535
52.312,-6.722000000000001,65535
52.636,-6.722000000000001,65535
53.93199999999999,-6.722000000000001,65535
54.25599999999999,-6.074000000000002,65535
53.28399999999999,-7.370000000000001,65535
52.96,-7.370000000000001,65535
52.312,-8.666,65535
52.96,-8.018,65535
52.636,-7.370000000000001,65535
52.96,-6.722000000000001,65535
51.988,-9.314,65535
52.312,-9.314,65535
54.579999999999984,-6.722000000000001,65535
54.579999999999984,-6.074000000000002,65535
53.28399999999999,-8.018,65535
53.28399999999999,-8.666,65535
53.28399999999999,-9.314,65535
53.93199999999999,-9.314,65535
54.25599999999999,-9.314,65535
53.60799999999999,-8.666,65535
53.60799999999999,-9.314,65535
49.43266399999992,14.381143999999988,1355
49.75666399999992,14.381143999999988,1280
49.75666399999992,15.029143999999986,1276
49.75666399999992,13.733143999999989,1271
50.08066399999991,13.733143999999989,1264
49.75666399999992,15.677143999999986,1317
50.40466399999991,15.029143999999986,1247
49.43266399999992,13.733143999999989,1326
50.40466399999991,15.677143999999986,1307
50.40466399999991,13.733143999999989,1306
46.19266399999994,15.029143999999986,1574
45.86866399999994,15.029143999999986,1642
45.86866399999994,14.381143999999988,1624
46.19266399999994,13.733143999999989,1668
45.86866399999994,13.733143999999989,1737
58.50466399999986,13.733143999999989,325
58.180663999999865,13.733143999999989,307
58.180663999999865,13.085143999999987,279
57.85666399999987,12.437143999999988,215
60.44866399999985,15.677143999999986,1173
60.124663999999854,15.677143999999986,1106
60.124663999999854,16.325143999999987,1159
59.800663999999855,16.325143999999987,885
59.800663999999855,17.621143999999987,399
59.47666399999986,18.269143999999983,381
61.74466399999984,16.973143999999984,556
61.420663999999846,16.973143999999984,522
60.77266399999985,16.973143999999984,467
65.63266399999982,22.15714399999998,1121
65.95666399999982,21.50914399999997,1083
65.63266399999982,20.86114399999998,1051
64.98466399999982,20.213143999999986,995
64.66066399999983,20.213143999999986,973
64.33666399999983,19.565143999999982,904
64.01266399999983,19.565143999999982,1108
63.68866399999983,20.213143999999986,848
64.66066399999983,18.917143999999983,1334
59.15266399999986,16.325143999999987,316
59.15266399999986,15.029143999999986,285
59.15266399999986,17.621143999999987,363
57.53266399999987,14.381143999999988,461
57.53266399999987,15.029143999999986,1050
61.09666399999985,14.381143999999988,1291
60.77266399999985,15.029143999999986,1242
60.44866399999985,15.029143999999986,1228
58.180663999999865,15.029143999999986,605
58.50466399999986,16.325143999999987,543
58.50466399999986,15.677143999999986,569
63.36466399999984,13.085143999999987,982
63.04066399999984,14.381143999999988,885
62.39266399999984,15.677143999999986,794
63.36466399999984,13.733143999999989,964
63.36466399999984,14.381143999999988,936
62.71666399999984,15.677143999999986,819
62.39266399999984,17.621143999999987,624
59.800663999999855,15.677143999999986,1211
55.58866399999988,13.733143999999989,1478
57.20866399999987,14.381143999999988,1046
57.85666399999987,14.381143999999988,409
58.82866399999986,16.973143999999984,503
58.82866399999986,16.325143999999987,527
59.15266399999986,18.269143999999983,373
60.44866399999985,17.621143999999987,439
59.15266399999986,12.437143999999988,119
59.15266399999986,13.085143999999987,109
58.82866399999986,12.437143999999988,150
59.47666399999986,16.325143999999987,329
58.82866399999986,14.381143999999988,342
59.47666399999986,15.677143999999986,318
63.36466399999984,18.917143999999983,775
63.04066399999984,17.621143999999987,727
62.71666399999984,17.621143999999987,691
63.68866399999983,19.565143999999982,815
62.39266399999984,16.973143999999984,1028
59.800663999999855,16.973143999999984,363
59.47666399999986,17.621143999999987,375
57.85666399999987,13.085143999999987,300
57.53266399999987,13.085143999999987,281
58.50466399999986,11.789143999999988,275
57.85666399999987,15.029143999999986,930
57.20866399999987,13.733143999999989,1026
57.53266399999987,13.733143999999989,1216
61.74466399999984,16.325143999999987,1116
61.420663999999846,16.325143999999987,1086
61.09666399999985,16.325143999999987,1076
61.09666399999985,16.973143999999984,981
60.124663999999854,15.029143999999986,1142
66.60466399999981,20.86114399999998,1161
67.25266399999981,20.86114399999998,1241
67.90066399999981,20.213143999999986,1347
67.57666399999981,20.213143999999986,1660
59.800663999999855,15.029143999999986,1120
58.50466399999986,15.029143999999986,598
59.47666399999986,15.029143999999986,1108
60.44866399999985,16.325143999999987,1131
59.15266399999986,15.677143999999986,527
57.85666399999987,13.733143999999989,391
58.82866399999986,13.733143999999989,1140
58.50466399999986,13.085143999999987,389
57.20866399999987,13.085143999999987,1016
56.88466399999987,13.085143999999987,985
58.180663999999865,11.789143999999988,261
62.06866399999984,16.973143999999984,1030
65.95666399999982,23.45314399999998,1221
59.800663999999855,14.381143999999988,1091
59.800663999999855,18.269143999999983,404
63.04066399999984,15.029143999999986,1057
62.71666399999984,15.029143999999986,1089
62.39266399999984,16.325143999999987,1121
63.36466399999984,12.437143999999988,1015
68.5486639999998,17.621143999999987,1523
68.5486639999998,18.269143999999983,1470
68.5486639999998,18.917143999999983,1450
68.2246639999998,18.917143999999983,1436
59.800663999999855,13.085143999999987,192
60.124663999999854,13.085143999999987,1319
59.47666399999986,16.973143999999984,378
59.15266399999986,16.973143999999984,387
56.56066399999988,13.733143999999989,422
60.124663999999854,17.621143999999987,416
57.85666399999987,16.325143999999987,1035
58.180663999999865,16.325143999999987,997
58.180663999999865,15.677143999999986,1005
57.20866399999987,16.325143999999987,1110
57.53266399999987,15.677143999999986,1065
57.85666399999987,15.677143999999986,1036
44.89666399999994,23.45314399999998,2762
44.572663999999946,23.45314399999998,2827
44.89666399999994,24.74914399999998,2887
44.572663999999946,24.74914399999998,2908
44.572663999999946,24.101143999999977,2868
44.24866399999995,24.101143999999977,2890
47.48866399999993,25.397143999999983,2738
47.48866399999993,24.74914399999998,2668
47.16466399999993,24.74914399999998,2649
47.16466399999993,24.101143999999977,2604
47.48866399999993,22.15714399999998,2477
47.81266399999993,22.15714399999998,2641
47.16466399999993,22.15714399999998,2472
47.16466399999993,23.45314399999998,2811
47.16466399999993,22.805143999999984,2734
46.84066399999993,24.101143999999977,2431
45.86866399999994,27.34114399999998,2939
45.54466399999994,27.34114399999998,2919
45.54466399999994,27.989143999999985,2956
45.86866399999994,20.86114399999998,2780
45.86866399999994,21.50914399999997,2764
46.19266399999994,21.50914399999997,2720
46.19266399999994,27.34114399999998,2962
46.19266399999994,26.69314399999997,2968
46.516663999999935,26.69314399999997,2937
46.516663999999935,26.04514399999998,2932
47.48866399999993,22.805143999999984,2913
46.84066399999993,22.805143999999984,2449
45.54466399999994,22.15714399999998,2859
45.22066399999994,22.15714399999998,2881
44.89666399999994,22.15714399999998,2943
47.48866399999993,23.45314399999998,2806
46.516663999999935,24.101143999999977,2444
46.516663999999935,24.74914399999998,2669
45.86866399999994,24.101143999999977,2669
47.16466399999993,26.69314399999997,2899
47.16466399999993,27.34114399999998,3011
43.92466399999995,25.397143999999983,2954
44.24866399999995,24.74914399999998,2930
44.89666399999994,26.04514399999998,2828
44.89666399999994,26.69314399999997,2836
45.22066399999994,26.69314399999997,2853
45.22066399999994,27.34114399999998,2880
46.84066399999993,26.69314399999997,2954
47.48866399999993,26.69314399999997,2847
44.24866399999995,25.397143999999983,2878
43.92466399999995,26.04514399999998,2970
46.19266399999994,24.101143999999977,2491
44.572663999999946,25.397143999999983,2845
46.84066399999993,24.74914399999998,2798
46.516663999999935,21.50914399999997,2803
46.84066399999993,21.50914399999997,2544
44.572663999999946,26.69314399999997,2879
44.572663999999946,27.34114399999998,2914
44.89666399999994,27.34114399999998,2870
44.572663999999946,27.989143999999985,2935
44.24866399999995,27.989143999999985,2950
44.572663999999946,28.63714399999997,2990
45.86866399999994,22.15714399999998,2626
45.86866399999994,22.805143999999984,2594
44.24866399999995,23.45314399999998,2878
43.92466399999995,27.989143999999985,65535
46.84066399999993,27.34114399999998,3082
45.22066399999994,23.45314399999998,2728
45.54466399999994,23.45314399999998,2699
45.54466399999994,24.101143999999977,2699
45.22066399999994,24.101143999999977,2770
44.89666399999994,24.101143999999977,2825
46.19266399999994,22.15714399999998,2670
46.516663999999935,22.15714399999998,2765
45.22066399999994,21.50914399999997,2848
45.54466399999994,21.50914399999997,2768
45.54466399999994,20.86114399999998,2774
46.516663999999935,27.989143999999985,3084
46.19266399999994,27.989143999999985,3056
45.54466399999994,25.397143999999983,2726
45.22066399999994,25.397143999999983,2769
45.22066399999994,26.04514399999998,2879
47.81266399999993,24.101143999999977,3061
47.48866399999993,26.04514399999998,2832
47.81266399999993,26.04514399999998,2890
46.19266399999994,23.45314399999998,2489
45.86866399999994,23.45314399999998,2541
44.24866399999995,26.04514399999998,2858
45.22066399999994,27.989143999999985,2935
45.86866399999994,24.74914399999998,2702
46.516663999999935,25.397143999999983,2926
46.84066399999993,25.397143999999983,2870
46.19266399999994,26.04514399999998,2905
45.86866399999994,26.04514399999998,2764
43.92466399999995,23.45314399999998,2971
44.89666399999994,25.397143999999983,2835
46.19266399999994,20.86114399999998,2802
47.81266399999993,25.397143999999983,3147
44.572663999999946,22.805143999999984,2899
44.572663999999946,22.15714399999998,2965
46.516663999999935,23.45314399999998,2501
45.86866399999994,25.397143999999983,2692
44.24866399999995,27.34114399999998,3211
45.22066399999994,24.74914399999998,3051
45.54466399999994,22.805143999999984,2637
45.22066399999994,28.63714399999997,3061
44.89666399999994,28.63714399999997,3000
47.81266399999993,23.45314399999998,2768
46.19266399999994,24.74914399999998,2529
46.19266399999994,25.397143999999983,2584
43.92466399999995,24.101143999999977,3661
43.92466399999995,24.74914399999998,3674
47.81266399999993,26.69314399999997,3070
47.48866399999993,24.101143999999977,2989
46.84066399999993,26.04514399999998,3126
46.19266399999994,22.805143999999984,3087
47.48866399999993,27.34114399999998,3097
46.19266399999994,20.213143999999986,65535
45.54466399999994,26.04514399999998,2972
44.24866399999995,26.69314399999997,2886
45.86866399999994,27.989143999999985,3071
47.81266399999993,5.957143999999991,2266
