51.56399999999999,-0.4100000000000028,65535
51.887999999999984,-0.4100000000000028,65535
50.91599999999999,-1.7060000000000022,65535
51.23999999999999,-1.0580000000000025,65535
51.56399999999999,-1.0580000000000025,65535
51.23999999999999,-1.7060000000000022,65535
51.56399999999999,0.2379999999999968,65535
47.16466399999993,9.845143999999989,6906
47.48866399999993,9.845143999999989,6898
48.136663999999925,14.381143999999988,7109
47.81266399999993,13.085143999999987,6969
47.16466399999993,11.141143999999988,7010
47.48866399999993,11.789143999999988,7219
48.136663999999925,16.325143999999987,7174
47.48866399999993,12.437143999999988,6954
48.136663999999925,15.677143999999986,7440
47.16466399999993,10.493143999999988,7141
47.16466399999993,9.197143999999987,6908
48.136663999999925,13.733143999999989,7079
48.136663999999925,15.029143999999986,7444
47.81266399999993,16.973143999999984,7195
48.46066399999992,14.381143999999988,8104
47.48866399999993,13.085143999999987,6959
47.16466399999993,13.085143999999987,6970
47.48866399999993,14.381143999999988,7231
47.48866399999993,13.733143999999989,7311
47.48866399999993,15.029143999999986,7242
46.516663999999935,13.733143999999989,7075
46.84066399999993,13.733143999999989,7036
46.84066399999993,13.085143999999987,6980
48.78466399999992,14.381143999999988,65535
47.16466399999993,15.677143999999986,7260
46.516663999999935,14.381143999999988,7044
46.84066399999993,14.381143999999988,7041
47.16466399999993,14.381143999999988,7325
46.516663999999935,15.029143999999986,7087
47.81266399999993,16.325143999999987,7192
47.16466399999993,15.029143999999986,7300
47.81266399999993,15.677143999999986,7198
47.48866399999993,15.677143999999986,7237
46.516663999999935,13.085143999999987,7094
46.84066399999993,12.437143999999988,7019
48.136663999999925,11.789143999999988,6895
47.81266399999993,12.437143999999988,6917
46.84066399999993,15.677143999999986,7528
46.516663999999935,15.677143999999986,7143
46.84066399999993,16.325143999999987,7179
47.81266399999993,14.381143999999988,7165
48.78466399999992,16.973143999999984,7132
48.136663999999925,16.973143999999984,7161
48.46066399999992,13.733143999999989,6999
47.81266399999993,13.733143999999989,7154
50.08066399999991,8.54914399999999,6799
48.46066399999992,9.845143999999989,6866
51.05266399999991,7.25314399999999,6757
51.37666399999991,7.25314399999999,6751
51.37666399999991,6.60514399999999,6755
48.46066399999992,16.325143999999987,7179
48.46066399999992,16.973143999999984,7148
48.78466399999992,16.325143999999987,7192
48.46066399999992,15.677143999999986,7200
48.78466399999992,15.677143999999986,7681
47.48866399999993,16.325143999999987,7202
47.16466399999993,16.325143999999987,7254
46.19266399999994,14.381143999999988,7089
45.86866399999994,15.677143999999986,7123
43.60066399999995,16.325143999999987,7480
45.54466399999994,14.381143999999988,7165
45.54466399999994,13.733143999999989,7188
48.136663999999925,13.085143999999987,6975
48.46066399999992,11.141143999999988,6885
48.136663999999925,11.141143999999988,6893
48.46066399999992,7.90114399999999,6881
49.10866399999992,8.54914399999999,6841
48.78466399999992,2.0691439999999925,6878
49.10866399999992,7.25314399999999,6863
52.0246639999999,7.90114399999999,6722
47.16466399999993,11.789143999999988,7030
49.43266399999992,11.141143999999988,6878
53.64466399999989,9.845143999999989,6628
50.72866399999991,4.013143999999992,6790
51.05266399999991,11.141143999999988,6805
47.48866399999993,11.141143999999988,6934
46.84066399999993,11.789143999999988,8822
46.516663999999935,11.141143999999988,8791
45.54466399999994,11.141143999999988,8685
46.19266399999994,11.141143999999988,8757
45.86866399999994,11.141143999999988,8741
44.572663999999946,11.141143999999988,8532
43.92466399999995,12.437143999999988,65535
45.54466399999994,12.437143999999988,8772
45.54466399999994,11.789143999999988,8735
48.78466399999992,15.029143999999986,8172
47.81266399999993,15.029143999999986,7470
47.81266399999993,11.141143999999988,6908
50.40466399999991,18.917143999999983,7129
52.3486639999999,20.86114399999998,7307
54.616663999999886,18.269143999999983,7227
54.29266399999989,18.917143999999983,7236
49.10866399999992,14.381143999999988,65535
50.08066399999991,14.381143999999988,6942
48.78466399999992,13.733143999999989,65535
52.6726639999999,13.085143999999987,6764
52.3486639999999,13.085143999999987,6769
53.96866399999989,12.437143999999988,6745
54.29266399999989,12.437143999999988,6754
47.48866399999993,8.54914399999999,6922
47.81266399999993,17.621143999999987,7229
47.48866399999993,18.917143999999983,7340
47.48866399999993,20.86114399999998,7561
46.84066399999993,23.45314399999998,9118
44.572663999999946,26.04514399999998,65535
47.48866399999993,21.50914399999997,7595
47.81266399999993,21.50914399999997,7628
48.46066399999992,22.15714399999998,7357
47.48866399999993,16.973143999999984,65535
49.10866399999992,16.325143999999987,7087
49.75666399999992,18.269143999999983,7180
46.19266399999994,13.085143999999987,8063
41.98066399999996,12.437143999999988,65535
43.60066399999995,10.493143999999988,65535
45.54466399999994,9.197143999999987,7028
47.81266399999993,22.805143999999984,65535
49.75666399999992,22.805143999999984,7394
50.72866399999991,3.365143999999992,6807
51.05266399999991,4.013143999999992,6799
50.72866399999991,4.661143999999991,6786
51.05266399999991,4.661143999999991,6791
51.05266399999991,3.365143999999992,6811
51.05266399999991,2.717143999999992,6820
50.40466399999991,4.661143999999991,6796
50.72866399999991,2.717143999999992,6814
50.40466399999991,4.013143999999992,6795
51.05266399999991,5.309143999999991,6795
50.72866399999991,5.309143999999991,6772
51.37666399999991,3.365143999999992,6817
51.37666399999991,4.661143999999991,6797
50.72866399999991,5.957143999999991,6769
50.40466399999991,5.957143999999991,6783
50.40466399999991,3.365143999999992,6813
50.40466399999991,5.309143999999991,6785
50.08066399999991,5.309143999999991,6799
49.75666399999992,5.309143999999991,6803
49.75666399999992,5.957143999999991,6830
51.37666399999991,5.309143999999991,6768
51.700663999999904,4.661143999999991,6810
50.08066399999991,4.013143999999992,6820
50.08066399999991,5.957143999999991,6801
50.08066399999991,4.661143999999991,6815
49.43266399999992,5.309143999999991,6855
49.43266399999992,5.957143999999991,6834
52.0246639999999,4.661143999999991,6806
52.3486639999999,4.661143999999991,6808
50.72866399999991,15.029143999999986,6910
51.05266399999991,15.029143999999986,6852
51.05266399999991,13.733143999999989,6839
50.40466399999991,13.085143999999987,6887
49.10866399999992,7.90114399999999,6848
48.78466399999992,7.90114399999999,6860
50.40466399999991,7.90114399999999,6790
50.08066399999991,7.90114399999999,6793
49.75666399999992,7.90114399999999,6803
49.43266399999992,7.90114399999999,6834
49.75666399999992,8.54914399999999,6805
49.43266399999992,8.54914399999999,6821
49.43266399999992,9.197143999999987,6828
49.10866399999992,9.197143999999987,6843
47.48866399999993,7.90114399999999,6913
47.81266399999993,7.90114399999999,6888
48.136663999999925,7.90114399999999,6876
48.136663999999925,9.845143999999989,6881
47.81266399999993,9.197143999999987,6899
47.81266399999993,8.54914399999999,6887
47.81266399999993,9.845143999999989,6887
54.940663999999884,9.197143999999987,6563
54.616663999999886,9.197143999999987,6580
54.29266399999989,9.197143999999987,6608
53.96866399999989,9.197143999999987,6623
53.64466399999989,9.197143999999987,6645
54.616663999999886,9.845143999999989,6606
54.29266399999989,9.845143999999989,6615
53.96866399999989,9.845143999999989,6618
53.64466399999989,10.493143999999988,6632
53.96866399999989,10.493143999999988,6638
53.96866399999989,11.141143999999988,6675
54.29266399999989,10.493143999999988,6658
53.32066399999989,10.493143999999988,6646
54.940663999999884,11.141143999999988,6639
52.6726639999999,13.733143999999989,6767
52.3486639999999,13.733143999999989,6769
52.3486639999999,14.381143999999988,6787
52.0246639999999,14.381143999999988,6800
52.0246639999999,11.789143999999988,6794
52.3486639999999,11.789143999999988,6789
52.3486639999999,12.437143999999988,6787
52.0246639999999,15.029143999999986,6823
51.700663999999904,14.381143999999988,6817
52.0246639999999,13.733143999999989,6794
51.700663999999904,13.733143999999989,6820
52.6726639999999,12.437143999999988,6764
53.32066399999989,11.789143999999988,6695
53.96866399999989,11.789143999999988,6725
53.64466399999989,11.789143999999988,6703
53.64466399999989,11.141143999999988,6702
53.32066399999989,11.141143999999988,6675
52.996663999999896,11.789143999999988,6720
52.996663999999896,12.437143999999988,6747
52.996663999999896,13.733143999999989,6780
53.64466399999989,13.733143999999989,6856
53.96866399999989,13.733143999999989,6867
54.29266399999989,13.085143999999987,6782
53.96866399999989,13.085143999999987,6803
53.32066399999989,13.733143999999989,6827
52.0246639999999,13.085143999999987,6828
51.700663999999904,13.085143999999987,6886
52.996663999999896,14.381143999999988,6882
52.0246639999999,12.437143999999988,6792
51.700663999999904,12.437143999999988,6829
51.37666399999991,11.789143999999988,6814
51.37666399999991,12.437143999999988,6830
52.6726639999999,11.789143999999988,6749
53.64466399999989,13.085143999999987,6823
53.32066399999989,13.085143999999987,6822
52.996663999999896,13.085143999999987,6798
53.64466399999989,12.437143999999988,6762
51.37666399999991,13.733143999999989,6826
53.32066399999989,12.437143999999988,6776
52.6726639999999,14.381143999999988,6780
51.37666399999991,13.085143999999987,6854
53.32066399999989,14.381143999999988,6869
52.3486639999999,15.029143999999986,6841
52.0246639999999,15.677143999999986,6848
51.700663999999904,15.029143999999986,6845
51.05266399999991,16.325143999999987,6997
51.05266399999991,16.973143999999984,7021
51.700663999999904,15.677143999999986,6940
51.37666399999991,15.677143999999986,6952
51.37666399999991,16.325143999999987,6988
50.72866399999991,13.085143999999987,6851
50.72866399999991,12.437143999999988,6847
51.05266399999991,13.085143999999987,6852
51.05266399999991,14.381143999999988,6843
50.40466399999991,12.437143999999988,6864
50.40466399999991,11.789143999999988,6835
50.08066399999991,12.437143999999988,6916
50.72866399999991,11.789143999999988,6821
51.05266399999991,12.437143999999988,6839
50.72866399999991,14.381143999999988,6954
51.37666399999991,14.381143999999988,6854
50.72866399999991,13.733143999999989,6875
50.40466399999991,14.381143999999988,6939
51.37666399999991,15.029143999999986,6883
55.26466399999988,9.197143999999987,6615
55.58866399999988,8.54914399999999,6629
55.91266399999988,8.54914399999999,6606
56.23666399999988,9.197143999999987,6567
56.23666399999988,10.493143999999988,6520
56.23666399999988,9.845143999999989,6507
55.91266399999988,9.845143999999989,6445
56.56066399999988,9.197143999999987,6577
56.56066399999988,8.54914399999999,6620
51.05266399999991,6.60514399999999,6757
51.700663999999904,7.90114399999999,6739
50.72866399999991,6.60514399999999,6768
51.700663999999904,7.25314399999999,6750
50.72866399999991,7.25314399999999,6770
52.0246639999999,7.25314399999999,6740
52.3486639999999,7.90114399999999,6718
51.05266399999991,5.957143999999991,6762
50.40466399999991,7.25314399999999,6778
51.700663999999904,6.60514399999999,6762
51.700663999999904,5.957143999999991,6770
52.3486639999999,9.197143999999987,6690
51.700663999999904,8.54914399999999,6725
52.0246639999999,8.54914399999999,6709
52.3486639999999,8.54914399999999,6698
51.37666399999991,7.90114399999999,6744
52.3486639999999,7.25314399999999,6753
51.37666399999991,5.957143999999991,6761
50.72866399999991,7.90114399999999,6780
51.37666399999991,9.197143999999987,6744
51.700663999999904,9.197143999999987,6733
50.40466399999991,6.60514399999999,6826
51.05266399999991,7.90114399999999,6773
51.37666399999991,8.54914399999999,6762
52.0246639999999,5.957143999999991,6785
52.3486639999999,6.60514399999999,6765
51.05266399999991,8.54914399999999,6804
52.0246639999999,9.197143999999987,6722
52.6726639999999,9.197143999999987,6653
52.0246639999999,9.845143999999989,6718
51.700663999999904,9.845143999999989,6752
51.37666399999991,9.845143999999989,6766
50.72866399999991,8.54914399999999,6808
51.05266399999991,9.845143999999989,6816
50.72866399999991,9.845143999999989,6838
50.40466399999991,9.845143999999989,6843
51.05266399999991,9.197143999999987,6800
50.40466399999991,9.197143999999987,6815
50.08066399999991,9.197143999999987,6806
51.05266399999991,10.493143999999988,6810
50.40466399999991,8.54914399999999,6800
50.72866399999991,9.197143999999987,6848
49.75666399999992,9.197143999999987,6845
52.996663999999896,9.197143999999987,6644
52.3486639999999,9.845143999999989,6710
52.996663999999896,8.54914399999999,6666
52.996663999999896,7.90114399999999,6683
53.32066399999989,7.90114399999999,6703
53.32066399999989,7.25314399999999,6733
53.64466399999989,7.25314399999999,6778
52.996663999999896,10.493143999999988,6692
52.6726639999999,10.493143999999988,6703
52.6726639999999,9.845143999999989,6715
53.32066399999989,9.845143999999989,6632
53.32066399999989,9.197143999999987,6638
53.64466399999989,8.54914399999999,6658
53.32066399999989,8.54914399999999,6667
52.6726639999999,8.54914399999999,6671
52.0246639999999,10.493143999999988,6752
52.0246639999999,11.141143999999988,6767
51.700663999999904,11.141143999999988,6792
52.6726639999999,7.25314399999999,7014
52.996663999999896,7.25314399999999,6740
52.6726639999999,7.90114399999999,6701
53.64466399999989,7.90114399999999,6731
52.996663999999896,11.141143999999988,6744
52.6726639999999,11.141143999999988,6753
52.3486639999999,10.493143999999988,6737
52.996663999999896,9.845143999999989,6698
51.700663999999904,10.493143999999988,6798
51.37666399999991,10.493143999999988,6799
51.700663999999904,11.789143999999988,6801
52.3486639999999,11.141143999999988,6749
51.37666399999991,11.141143999999988,6803
51.05266399999991,11.789143999999988,6823
49.10866399999992,11.141143999999988,6895
48.78466399999992,11.141143999999988,6890
48.46066399999992,11.789143999999988,6902
49.43266399999992,11.789143999999988,6883
50.08066399999991,11.789143999999988,6872
49.75666399999992,12.437143999999988,6913
49.10866399999992,11.789143999999988,6908
48.78466399999992,12.437143999999988,6923
48.46066399999992,12.437143999999988,6943
49.10866399999992,12.437143999999988,6917
48.78466399999992,13.085143999999987,6951
48.136663999999925,12.437143999999988,6948
47.81266399999993,11.789143999999988,6907
48.136663999999925,10.493143999999988,6922
47.81266399999993,10.493143999999988,6970
48.78466399999992,10.493143999999988,6881
47.48866399999993,10.493143999999988,6963
48.46066399999992,10.493143999999988,6877
49.43266399999992,13.085143999999987,7058
48.46066399999992,13.085143999999987,6971
49.43266399999992,10.493143999999988,6852
49.75666399999992,9.845143999999989,6820
49.75666399999992,10.493143999999988,6846
50.40466399999991,11.141143999999988,6831
50.08066399999991,11.141143999999988,6885
50.72866399999991,11.141143999999988,6812
49.75666399999992,11.141143999999988,6856
48.78466399999992,11.789143999999988,6973
50.40466399999991,10.493143999999988,6821
50.08066399999991,9.845143999999989,6815
50.08066399999991,10.493143999999988,6877
49.43266399999992,12.437143999999988,6933
49.75666399999992,11.789143999999988,6892
49.10866399999992,13.085143999999987,6993
50.72866399999991,10.493143999999988,6815
49.10866399999992,10.493143999999988,6867
48.78466399999992,9.845143999999989,6856
48.46066399999992,8.54914399999999,6848
48.46066399999992,9.197143999999987,6859
48.78466399999992,9.197143999999987,6850
48.78466399999992,8.54914399999999,6844
50.08066399999991,7.25314399999999,6813
49.75666399999992,6.60514399999999,6831
49.43266399999992,6.60514399999999,6864
49.10866399999992,6.60514399999999,6878
49.43266399999992,7.25314399999999,6846
49.75666399999992,7.25314399999999,6813
49.10866399999992,5.957143999999991,6867
48.78466399999992,7.25314399999999,6880
50.08066399999991,6.60514399999999,6828
47.48866399999993,9.197143999999987,6902
48.136663999999925,8.54914399999999,6866
48.136663999999925,9.197143999999987,6864
47.81266399999993,7.25314399999999,6899
49.43266399999992,9.845143999999989,6824
49.10866399999992,9.845143999999989,6848
53.64466399999989,14.381143999999988,6863
50.08066399999991,13.085143999999987,7018
49.75666399999992,13.085143999999987,7055
45.86866399999994,9.197143999999987,7018
46.19266399999994,9.197143999999987,7004
46.516663999999935,8.54914399999999,6950
46.516663999999935,9.197143999999987,6999
46.19266399999994,8.54914399999999,7016
47.16466399999993,8.54914399999999,6917
45.86866399999994,4.661143999999991,7016
46.84066399999993,9.845143999999989,6933
45.22066399999994,5.957143999999991,7071
45.22066399999994,5.309143999999991,7098
45.86866399999994,5.957143999999991,7029
45.54466399999994,5.957143999999991,7044
44.89666399999994,4.661143999999991,7044
44.89666399999994,5.309143999999991,7068
44.572663999999946,4.661143999999991,7075
44.24866399999995,4.661143999999991,7043
43.92466399999995,4.661143999999991,7039
46.19266399999994,7.25314399999999,6966
48.78466399999992,5.957143999999991,6896
48.136663999999925,6.60514399999999,6942
48.46066399999992,6.60514399999999,6924
48.78466399999992,6.60514399999999,6911
47.16466399999993,7.90114399999999,6917
48.136663999999925,7.25314399999999,6898
48.46066399999992,7.25314399999999,6885
46.516663999999935,6.60514399999999,6976
46.84066399999993,6.60514399999999,6951
46.84066399999993,7.25314399999999,6931
46.516663999999935,5.957143999999991,7005
46.19266399999994,5.957143999999991,7006
46.84066399999993,8.54914399999999,6921
46.84066399999993,7.90114399999999,6925
45.86866399999994,5.309143999999991,7048
46.19266399999994,6.60514399999999,6997
45.86866399999994,6.60514399999999,6973
47.48866399999993,6.60514399999999,6956
47.48866399999993,7.25314399999999,6905
47.16466399999993,7.25314399999999,6921
49.10866399999992,4.013143999999992,6931
49.75666399999992,4.661143999999991,6837
49.43266399999992,4.661143999999991,6900
49.10866399999992,5.309143999999991,6958
46.19266399999994,4.661143999999991,6984
46.84066399999993,9.197143999999987,6924
46.19266399999994,5.309143999999991,7035
46.516663999999935,5.309143999999991,7066
45.54466399999994,6.60514399999999,7101
45.54466399999994,5.309143999999991,7037
43.60066399999995,4.013143999999992,7085
43.60066399999995,3.365143999999992,7127
42.62866399999996,2.717143999999992,7212
43.276663999999954,2.717143999999992,7143
45.54466399999994,4.661143999999991,7021
45.22066399999994,4.661143999999991,7060
47.16466399999993,5.309143999999991,7017
47.16466399999993,5.957143999999991,7004
46.19266399999994,7.90114399999999,6960
49.75666399999992,2.717143999999992,6946
49.10866399999992,2.717143999999992,6904
48.78466399999992,2.717143999999992,6925
45.86866399999994,3.365143999999992,7190
46.84066399999993,3.365143999999992,7072
46.516663999999935,3.365143999999992,7101
46.19266399999994,3.365143999999992,7135
47.16466399999993,6.60514399999999,6968
49.10866399999992,3.365143999999992,6980
45.54466399999994,4.013143999999992,7028
46.516663999999935,7.25314399999999,6953
47.16466399999993,4.661143999999991,7078
46.84066399999993,4.661143999999991,7034
46.516663999999935,4.661143999999991,7041
46.84066399999993,5.957143999999991,7026
47.81266399999993,3.365143999999992,7002
47.48866399999993,4.013143999999992,7082
48.136663999999925,4.013143999999992,7029
47.81266399999993,4.013143999999992,7100
47.48866399999993,4.661143999999991,7078
47.16466399999993,3.365143999999992,7086
46.84066399999993,4.013143999999992,7052
48.46066399999992,5.957143999999991,6905
46.19266399999994,2.717143999999992,7250
47.16466399999993,2.0691439999999925,7030
46.516663999999935,2.717143999999992,7222
46.84066399999993,2.717143999999992,7203
46.84066399999993,2.0691439999999925,7114
47.16466399999993,2.717143999999992,7067
44.572663999999946,5.309143999999991,7160
44.572663999999946,5.957143999999991,7128
44.89666399999994,6.60514399999999,7107
44.572663999999946,6.60514399999999,7144
43.60066399999995,5.309143999999991,7062
43.92466399999995,7.25314399999999,7144
43.60066399999995,6.60514399999999,7132
43.276663999999954,6.60514399999999,7140
43.276663999999954,5.957143999999991,7067
45.86866399999994,8.54914399999999,7025
45.54466399999994,8.54914399999999,7032
48.136663999999925,3.365143999999992,6964
48.46066399999992,3.365143999999992,6952
48.46066399999992,2.717143999999992,6911
47.48866399999993,5.309143999999991,7116
46.516663999999935,9.845143999999989,6944
46.84066399999993,10.493143999999988,8051
47.81266399999993,5.309143999999991,7097
45.22066399999994,6.60514399999999,7101
46.19266399999994,4.013143999999992,7034
45.86866399999994,4.013143999999992,7061
45.22066399999994,4.013143999999992,7037
44.89666399999994,4.013143999999992,7104
46.84066399999993,5.309143999999991,7041
48.136663999999925,-1.8188560000000056,6967
48.136663999999925,0.1251439999999934,6929
48.136663999999925,-0.5228560000000062,7011
47.48866399999993,-0.5228560000000062,6966
47.16466399999993,-1.8188560000000056,7007
47.48866399999993,0.7731439999999932,6940
47.16466399999993,0.1251439999999934,7018
45.86866399999994,7.25314399999999,6979
48.136663999999925,5.309143999999991,7081
49.10866399999992,4.661143999999991,6979
48.46066399999992,4.013143999999992,7010
48.136663999999925,4.661143999999991,7048
47.81266399999993,6.60514399999999,7013
47.48866399999993,5.957143999999991,7055
48.136663999999925,5.957143999999991,7166
45.86866399999994,7.90114399999999,6980
46.516663999999935,7.90114399999999,6944
49.43266399999992,3.365143999999992,6982
49.43266399999992,4.013143999999992,6920
48.136663999999925,2.717143999999992,7150
47.81266399999993,2.717143999999992,7161
47.48866399999993,2.717143999999992,7139
50.40466399999991,2.717143999999992,6829
48.46066399999992,-4.410856000000004,7124
48.46066399999992,-3.7628560000000046,7070
48.46066399999992,-3.114856000000005,7055
48.46066399999992,-2.4668560000000053,7025
47.48866399999993,1.4211439999999929,6995
47.16466399999993,1.4211439999999929,7007
46.516663999999935,4.013143999999992,7045
43.60066399999995,4.661143999999991,7067
44.89666399999994,2.717143999999992,7261
45.22066399999994,2.717143999999992,7314
45.54466399999994,3.365143999999992,7239
45.22066399999994,3.365143999999992,7235
47.48866399999993,3.365143999999992,7246
46.19266399999994,9.845143999999989,7054
47.81266399999993,2.0691439999999925,7005
47.48866399999993,2.0691439999999925,7042
45.86866399999994,2.717143999999992,7214
44.89666399999994,5.957143999999991,7230
45.22066399999994,1.4211439999999929,7109
44.89666399999994,1.4211439999999929,7129
44.89666399999994,2.0691439999999925,7221
43.276663999999954,2.0691439999999925,7173
43.60066399999995,1.4211439999999929,7171
48.78466399999992,4.661143999999991,7025
48.78466399999992,5.309143999999991,6912
46.19266399999994,2.0691439999999925,7281
45.86866399999994,1.4211439999999929,7120
46.19266399999994,1.4211439999999929,7168
44.572663999999946,4.013143999999992,7183
44.89666399999994,3.365143999999992,7271
43.92466399999995,4.013143999999992,7113
44.24866399999995,4.013143999999992,7130
44.89666399999994,-0.5228560000000062,7034
45.54466399999994,0.1251439999999934,7076
46.516663999999935,0.1251439999999934,7050
44.572663999999946,2.0691439999999925,7178
49.75666399999992,4.013143999999992,6878
43.92466399999995,3.365143999999992,7401
43.92466399999995,2.717143999999992,7432
44.24866399999995,3.365143999999992,7456
44.572663999999946,3.365143999999992,7497
49.10866399999992,0.1251439999999934,6982
49.43266399999992,0.7731439999999932,6957
49.43266399999992,-1.8188560000000056,7039
49.10866399999992,-1.170856000000006,7013
49.10866399999992,-0.5228560000000062,6989
49.10866399999992,0.7731439999999932,7009
49.10866399999992,1.4211439999999929,6945
47.81266399999993,-1.8188560000000056,7021
47.81266399999993,-2.4668560000000053,7047
47.81266399999993,-3.114856000000005,7060
48.136663999999925,-3.7628560000000046,7117
44.572663999999946,9.197143999999987,7136
44.89666399999994,8.54914399999999,7074
45.22066399999994,9.197143999999987,7039
45.54466399999994,10.493143999999988,7087
44.572663999999946,10.493143999999988,8518
44.89666399999994,10.493143999999988,7153
44.89666399999994,9.845143999999989,7285
48.46066399999992,5.309143999999991,7105
50.91599999999999,-1.0580000000000025,65535
51.23999999999999,-0.4100000000000028,65535
50.91599999999999,-0.4100000000000028,65535
51.23999999999999,-2.354000000000002,65535
51.56399999999999,-2.354000000000002,65535
51.56399999999999,-3.0020000000000016,65535
50.91599999999999,-2.354000000000002,65535
53.50799999999997,-3.0020000000000016,65535
53.183999999999976,-2.354000000000002,65535
53.183999999999976,-3.0020000000000016,65535
52.85999999999998,-2.354000000000002,65535
52.21199999999998,-1.0580000000000025,65535
51.887999999999984,-1.0580000000000025,65535
52.53599999999998,-1.0580000000000025,65535
52.53599999999998,-1.7060000000000022,65535
52.85999999999998,-1.7060000000000022,65535
53.50799999999997,-2.354000000000002,65535
52.85999999999998,-1.0580000000000025,65535
52.53599999999998,1.5339999999999965,65535
52.53599999999998,0.8859999999999966,65535
52.53599999999998,0.2379999999999968,65535
52.53599999999998,-0.4100000000000028,65535
53.50799999999997,-1.7060000000000022,65535
53.183999999999976,-1.7060000000000022,65535
53.183999999999976,-1.0580000000000025,65535
52.85999999999998,-0.4100000000000028,65535
51.887999999999984,-2.354000000000002,65535
52.21199999999998,-2.354000000000002,65535
55.77599999999996,-2.354000000000002,65535
53.83199999999997,-1.0580000000000025,65535
53.83199999999997,-1.7060000000000022,65535
55.127999999999965,-1.7060000000000022,65535
54.80399999999997,-1.7060000000000022,65535
54.47999999999997,-1.7060000000000022,65535
54.15599999999997,-1.0580000000000025,65535
52.21199999999998,-1.7060000000000022,65535
53.50799999999997,-1.0580000000000025,65535
55.77599999999996,-3.0020000000000016,65535
55.45199999999996,-1.7060000000000022,65535
57.07199999999995,-2.354000000000002,65535
56.74799999999996,-3.0020000000000016,65535
56.42399999999996,-3.0020000000000016,65535
56.09999999999996,-3.650000000000001,65535
50.91599999999999,-3.0020000000000016,65535
50.91599999999999,-3.650000000000001,65535
50.59199999999999,-3.650000000000001,65535
50.59199999999999,-4.298000000000001,65535
51.23999999999999,-3.0020000000000016,65535
50.268,-4.946000000000001,65535
55.77599999999996,-3.650000000000001,65535
55.77599999999996,-4.298000000000001,65535
52.21199999999998,-0.4100000000000028,65535
52.53599999999998,-2.354000000000002,65535
51.56399999999999,-1.7060000000000022,65535
51.56399999999999,-3.650000000000001,65535
51.887999999999984,-4.298000000000001,65535
51.56399999999999,-4.298000000000001,65535
51.887999999999984,-1.7060000000000022,65535
52.21199999999998,-3.0020000000000016,65535
51.23999999999999,0.2379999999999968,65535
50.91599999999999,0.2379999999999968,65535
52.21199999999998,0.2379999999999968,65535
53.83199999999997,-3.0020000000000016,65535
54.15599999999997,-3.0020000000000016,65535
54.47999999999997,-3.0020000000000016,65535
55.127999999999965,-3.650000000000001,65535
54.80399999999997,-3.0020000000000016,65535
53.83199999999997,-2.354000000000002,65535
54.15599999999997,-0.4100000000000028,65535
54.47999999999997,-1.0580000000000025,65535
53.83199999999997,-0.4100000000000028,65535
53.183999999999976,-3.650000000000001,65535
53.183999999999976,-4.298000000000001,65535
52.85999999999998,-3.0020000000000016,65535
52.53599999999998,-3.0020000000000016,65535
51.887999999999984,-3.0020000000000016,65535
51.23999999999999,0.8859999999999966,65535
51.887999999999984,0.2379999999999968,65535
52.21199999999998,0.8859999999999966,65535
51.887999999999984,-4.946000000000001,65535
52.53599999999998,-3.650000000000001,65535
52.21199999999998,-4.298000000000001,65535
53.183999999999976,-0.4100000000000028,65535
51.23999999999999,-3.650000000000001,65535
51.887999999999984,-3.650000000000001,65535
52.21199999999998,-3.650000000000001,65535
51.56399999999999,0.8859999999999966,65535
51.887999999999984,0.8859999999999966,65535
52.85999999999998,0.8859999999999966,65535
53.50799999999997,-0.4100000000000028,65535
56.09999999999996,-4.298000000000001,65535
56.74799999999996,-4.946000000000001,65535
56.74799999999996,-4.298000000000001,65535
56.42399999999996,-4.946000000000001,65535
56.42399999999996,-4.298000000000001,65535
56.09999999999996,-4.946000000000001,65535
57.39599999999995,-4.298000000000001,65535
57.39599999999995,-3.0020000000000016,65535
57.39599999999995,-3.650000000000001,65535
56.42399999999996,-3.650000000000001,65535
57.07199999999995,-3.650000000000001,65535
57.07199999999995,-4.298000000000001,65535
56.74799999999996,-3.650000000000001,65535
59.15266399999986,27.34114399999998,65535
59.47666399999986,26.69314399999997,65535
59.47666399999986,26.04514399999998,65535
59.15266399999986,26.04514399999998,65535
59.15266399999986,24.74914399999998,65535
59.15266399999986,25.397143999999983,65535
59.47666399999986,25.397143999999983,65535
58.50466399999986,26.69314399999997,65535
58.82866399999986,26.69314399999997,65535
57.85666399999987,26.04514399999998,65535
58.180663999999865,26.04514399999998,65535
58.180663999999865,26.69314399999997,65535
58.82866399999986,26.04514399999998,65535
58.50466399999986,25.397143999999983,65535
58.82866399999986,25.397143999999983,65535
58.82866399999986,24.74914399999998,65535
58.180663999999865,27.34114399999998,65535
57.85666399999987,27.34114399999998,65535
63.68866399999983,27.34114399999998,65535
60.124663999999854,24.74914399999998,65535
60.44866399999985,24.74914399999998,65535
60.44866399999985,25.397143999999983,65535
60.77266399999985,25.397143999999983,65535
61.09666399999985,26.04514399999998,65535
60.77266399999985,26.04514399999998,65535
60.77266399999985,26.69314399999997,65535
61.09666399999985,25.397143999999983,65535
61.09666399999985,26.69314399999997,65535
61.420663999999846,26.69314399999997,65535
61.74466399999984,27.34114399999998,65535
62.06866399999984,27.34114399999998,65535
62.39266399999984,27.34114399999998,65535
62.71666399999984,27.34114399999998,65535
64.01266399999983,27.34114399999998,65535
63.36466399999984,27.34114399999998,65535
63.04066399999984,27.34114399999998,65535
63.04066399999984,27.989143999999985,65535
64.33666399999983,27.989143999999985,65535
64.33666399999983,27.34114399999998,65535
64.66066399999983,27.34114399999998,65535
64.66066399999983,26.69314399999997,9076
64.98466399999982,25.397143999999983,8839
64.66066399999983,26.04514399999998,9056
64.98466399999982,26.04514399999998,9040
66.28066399999982,25.397143999999983,65535
65.95666399999982,24.74914399999998,8752
65.63266399999982,24.74914399999998,8756
65.63266399999982,25.397143999999983,8798
65.30866399999982,25.397143999999983,8819
66.60466399999981,25.397143999999983,65535
64.01266399999983,24.74914399999998,8976
64.01266399999983,24.101143999999977,9011
64.01266399999983,23.45314399999998,9035
63.68866399999983,23.45314399999998,9047
63.68866399999983,22.805143999999984,9072
63.68866399999983,26.04514399999998,65535
63.68866399999983,25.397143999999983,65535
63.68866399999983,26.69314399999997,65535
60.44866399999985,26.69314399999997,65535
64.01266399999983,27.989143999999985,65535
62.71666399999984,22.805143999999984,65535
62.39266399999984,22.805143999999984,65535
62.06866399999984,22.805143999999984,65535
62.06866399999984,23.45314399999998,65535
61.74466399999984,23.45314399999998,65535
61.420663999999846,23.45314399999998,65535
61.09666399999985,23.45314399999998,65535
61.09666399999985,24.101143999999977,65535
61.09666399999985,24.74914399999998,65535
60.77266399999985,24.74914399999998,65535
63.04066399999984,21.50914399999997,65535
63.04066399999984,22.15714399999998,65535
63.04066399999984,22.805143999999984,65535
62.39266399999984,26.04514399999998,65535
62.06866399999984,25.397143999999983,65535
61.74466399999984,25.397143999999983,65535
61.74466399999984,24.74914399999998,65535
61.74466399999984,24.101143999999977,65535
61.420663999999846,24.101143999999977,65535
62.39266399999984,26.69314399999997,65535
64.66066399999983,25.397143999999983,8908
64.66066399999983,24.74914399999998,8926
64.33666399999983,24.74914399999998,8937
63.36466399999984,22.805143999999984,9097
67.25266399999981,24.101143999999977,8186
66.92866399999981,24.101143999999977,8150
66.60466399999981,23.45314399999998,8119
66.28066399999982,23.45314399999998,8101
66.28066399999982,24.101143999999977,8083
65.95666399999982,24.101143999999977,6205
60.124663999999854,24.101143999999977,65535
60.124663999999854,23.45314399999998,65535
60.44866399999985,22.805143999999984,65535
60.77266399999985,27.34114399999998,65535
61.09666399999985,27.989143999999985,65535
61.09666399999985,28.63714399999997,65535
61.420663999999846,29.28514399999997,65535
61.74466399999984,29.933143999999977,65535
62.06866399999984,29.933143999999977,65535
62.39266399999984,29.933143999999977,65535
62.71666399999984,29.933143999999977,65535
61.420663999999846,22.805143999999984,65535
61.420663999999846,22.15714399999998,65535
61.09666399999985,22.15714399999998,65535
61.420663999999846,21.50914399999997,65535
62.39266399999984,27.989143999999985,65535
62.06866399999984,27.989143999999985,65535
61.420663999999846,27.34114399999998,65535
63.04066399999984,29.933143999999977,65535
63.68866399999983,29.28514399999997,65535
63.36466399999984,29.28514399999997,65535
63.36466399999984,29.933143999999977,65535
60.44866399999985,27.34114399999998,65535
61.74466399999984,29.28514399999997,65535
62.39266399999984,30.58114399999998,65535
62.71666399999984,31.229143999999977,65535
62.71666399999984,29.28514399999997,65535
63.04066399999984,28.63714399999997,65535
66.60466399999981,26.04514399999998,65535
66.60466399999981,26.69314399999997,65535
66.60466399999981,27.34114399999998,65535
62.71666399999984,26.04514399999998,65535
62.71666399999984,25.397143999999983,65535
63.04066399999984,25.397143999999983,65535
63.36466399999984,25.397143999999983,65535
62.71666399999984,23.45314399999998,65535
62.39266399999984,24.101143999999977,65535
62.71666399999984,22.15714399999998,65535
62.39266399999984,22.15714399999998,65535
62.39266399999984,21.50914399999997,65535
61.09666399999985,21.50914399999997,65535
60.77266399999985,22.805143999999984,65535
60.44866399999985,22.15714399999998,65535
60.77266399999985,23.45314399999998,65535
60.77266399999985,21.50914399999997,65535
60.77266399999985,22.15714399999998,65535
60.124663999999854,22.805143999999984,65535
60.44866399999985,24.101143999999977,65535
62.06866399999984,24.74914399999998,65535
50.72866399999991,16.325143999999987,6937
50.40466399999991,16.973143999999984,7039
50.72866399999991,16.973143999999984,7010
50.40466399999991,16.325143999999987,7088
50.08066399999991,16.973143999999984,7160
50.08066399999991,16.325143999999987,6993
51.700663999999904,16.973143999999984,7014
51.37666399999991,16.973143999999984,7019
51.05266399999991,15.677143999999986,6862
50.72866399999991,15.677143999999986,6927
51.05266399999991,17.621143999999987,7036
51.37666399999991,17.621143999999987,7084
51.700663999999904,17.621143999999987,7063
51.700663999999904,16.325143999999987,6999
52.0246639999999,22.15714399999998,7347
52.0246639999999,21.50914399999997,7318
52.3486639999999,21.50914399999997,7314
52.0246639999999,20.86114399999998,7287
51.700663999999904,20.86114399999998,7305
51.37666399999991,21.50914399999997,7344
51.37666399999991,20.86114399999998,7339
51.05266399999991,20.86114399999998,7348
52.6726639999999,23.45314399999998,7522
52.3486639999999,22.805143999999984,7461
52.3486639999999,20.213143999999986,7279
52.0246639999999,20.213143999999986,7248
52.3486639999999,19.565143999999982,7204
52.6726639999999,19.565143999999982,7287
51.700663999999904,21.50914399999997,7369
51.700663999999904,22.15714399999998,7375
52.6726639999999,21.50914399999997,7323
52.996663999999896,21.50914399999997,7350
52.6726639999999,20.86114399999998,7345
52.6726639999999,22.15714399999998,7381
52.6726639999999,20.213143999999986,7346
52.996663999999896,19.565143999999982,7339
52.996663999999896,20.86114399999998,7378
52.996663999999896,20.213143999999986,7382
53.32066399999989,20.213143999999986,7294
51.37666399999991,20.213143999999986,7334
52.3486639999999,16.973143999999984,7036
52.0246639999999,16.973143999999984,7040
52.0246639999999,16.325143999999987,7013
52.0246639999999,17.621143999999987,7090
52.6726639999999,16.973143999999984,7030
52.996663999999896,16.973143999999984,6996
52.3486639999999,16.325143999999987,7000
52.3486639999999,15.677143999999986,6873
51.700663999999904,18.269143999999983,7123
52.6726639999999,17.621143999999987,7060
52.3486639999999,17.621143999999987,7046
52.6726639999999,18.269143999999983,7134
52.3486639999999,18.269143999999983,7117
52.3486639999999,18.917143999999983,7164
52.996663999999896,17.621143999999987,7158
51.700663999999904,19.565143999999982,7204
51.700663999999904,18.917143999999983,7171
51.37666399999991,18.269143999999983,7126
58.82866399999986,9.197143999999987,6262
58.180663999999865,7.90114399999999,6355
58.50466399999986,8.54914399999999,6309
63.36466399999984,10.493143999999988,6614
63.36466399999984,11.141143999999988,6650
63.36466399999984,11.789143999999988,6753
63.68866399999983,11.789143999999988,6710
64.33666399999983,12.437143999999988,6864
64.66066399999983,12.437143999999988,6913
65.63266399999982,13.085143999999987,7008
65.95666399999982,13.085143999999987,7037
66.28066399999982,14.381143999999988,7108
65.95666399999982,13.733143999999989,7065
66.28066399999982,13.733143999999989,7087
65.30866399999982,13.085143999999987,6973
64.98466399999982,13.085143999999987,6951
64.01266399999983,11.789143999999988,6741
63.68866399999983,11.141143999999988,6679
59.800663999999855,10.493143999999988,6044
59.800663999999855,11.141143999999988,6027
60.124663999999854,11.141143999999988,6042
60.44866399999985,11.141143999999988,6055
60.124663999999854,11.789143999999988,6068
60.77266399999985,7.25314399999999,7010
60.77266399999985,6.60514399999999,7069
59.15266399999986,9.197143999999987,6230
59.47666399999986,9.197143999999987,6205
59.800663999999855,9.845143999999989,6046
59.47666399999986,11.141143999999988,5991
61.09666399999985,10.493143999999988,6157
60.77266399999985,10.493143999999988,6135
60.77266399999985,11.141143999999988,6090
62.06866399999984,9.197143999999987,6450
61.74466399999984,9.845143999999989,6382
61.420663999999846,9.845143999999989,6366
59.15266399999986,9.845143999999989,6110
59.47666399999986,9.845143999999989,6086
58.82866399999986,5.957143999999991,6645
58.180663999999865,7.25314399999999,6495
58.50466399999986,7.25314399999999,6532
58.50466399999986,6.60514399999999,6538
58.50466399999986,5.957143999999991,6599
58.82866399999986,8.54914399999999,6293
60.44866399999985,7.25314399999999,6997
60.44866399999985,7.90114399999999,6953
60.124663999999854,10.493143999999988,6074
60.44866399999985,9.197143999999987,6902
60.77266399999985,9.197143999999987,6914
60.77266399999985,8.54914399999999,6933
60.124663999999854,9.845143999999989,7295
60.44866399999985,10.493143999999988,6122
63.04066399999984,10.493143999999988,6570
62.06866399999984,9.845143999999989,6476
62.39266399999984,9.845143999999989,6484
62.71666399999984,9.845143999999989,6510
59.47666399999986,14.381143999999988,5764
59.47666399999986,13.733143999999989,5816
59.47666399999986,13.085143999999987,5831
59.800663999999855,12.437143999999988,5903
59.15266399999986,11.141143999999988,5963
59.15266399999986,14.381143999999988,5811
58.82866399999986,11.789143999999988,5937
58.50466399999986,12.437143999999988,5739
58.180663999999865,12.437143999999988,5733
57.85666399999987,11.789143999999988,5730
62.71666399999984,7.90114399999999,7048
62.39266399999984,7.90114399999999,7005
62.06866399999984,8.54914399999999,6980
60.44866399999985,5.309143999999991,7140
60.44866399999985,5.957143999999991,7123
60.77266399999985,5.957143999999991,7097
62.39266399999984,11.141143999999988,6751
62.06866399999984,10.493143999999988,6788
61.74466399999984,11.141143999999988,6825
61.420663999999846,11.141143999999988,6793
61.09666399999985,11.141143999999988,6776
60.77266399999985,11.789143999999988,6753
63.04066399999984,11.141143999999988,6680
62.71666399999984,11.141143999999988,6702
62.39266399999984,10.493143999999988,6779
67.25266399999981,15.677143999999986,7223
67.25266399999981,15.029143999999986,7268
67.25266399999981,14.381143999999988,7296
66.92866399999981,15.029143999999986,7213
66.60466399999981,15.677143999999986,7191
64.01266399999983,11.141143999999988,6725
66.60466399999981,15.029143999999986,7353
54.29266399999989,18.269143999999983,7230
54.616663999999886,17.621143999999987,7188
53.96866399999989,18.269143999999983,7218
43.92466399999995,1.4211439999999929,7142
44.24866399999995,0.7731439999999932,7103
44.572663999999946,0.1251439999999934,7088
46.84066399999993,1.4211439999999929,7138
44.572663999999946,1.4211439999999929,7158
44.24866399999995,1.4211439999999929,7183
45.54466399999994,1.4211439999999929,7104
46.516663999999935,1.4211439999999929,7271
42.30466399999996,2.717143999999992,7291
44.24866399999995,2.717143999999992,7268
44.572663999999946,2.717143999999992,7243
43.92466399999995,2.0691439999999925,7276
42.30466399999996,2.0691439999999925,7347
42.62866399999996,2.0691439999999925,7288
42.62866399999996,1.4211439999999929,7297
42.95266399999996,1.4211439999999929,7192
43.276663999999954,1.4211439999999929,7185
46.516663999999935,-1.170856000000006,7225
46.19266399999994,-1.170856000000006,7151
45.86866399999994,-0.5228560000000062,7120
45.54466399999994,-0.5228560000000062,7076
48.46066399999992,1.4211439999999929,6895
41.332663999999966,2.0691439999999925,7412
41.98066399999996,2.717143999999992,7371
48.46066399999992,-1.8188560000000056,7000
47.81266399999993,0.7731439999999932,7003
46.84066399999993,0.7731439999999932,7018
44.572663999999946,-1.170856000000006,7045
43.60066399999995,-1.170856000000006,7111
43.276663999999954,-1.8188560000000056,7158
43.276663999999954,0.1251439999999934,7250
42.95266399999996,0.1251439999999934,7215
43.276663999999954,-0.5228560000000062,7161
43.60066399999995,-0.5228560000000062,7150
47.81266399999993,-3.7628560000000046,7133
47.48866399999993,-2.4668560000000053,7034
47.81266399999993,-0.5228560000000062,7009
46.516663999999935,-1.8188560000000056,7241
48.136663999999925,-1.170856000000006,6972
47.48866399999993,-1.170856000000006,7015
45.22066399999994,8.54914399999999,7054
45.22066399999994,7.90114399999999,7062
46.19266399999994,-0.5228560000000062,7117
46.516663999999935,-0.5228560000000062,7194
48.78466399999992,-3.114856000000005,7071
50.72866399999991,2.0691439999999925,6840
50.40466399999991,2.0691439999999925,6877
40.36066399999997,-3.7628560000000046,8625
41.65666399999997,-1.170856000000006,8366
41.332663999999966,1.4211439999999929,8192
43.276663999999954,13.733143999999989,65535
42.95266399999996,13.733143999999989,65535
41.65666399999997,15.029143999999986,65535
40.68466399999997,17.621143999999987,65535
43.60066399999995,13.085143999999987,65535
41.65666399999997,12.437143999999988,65535
41.65666399999997,13.085143999999987,65535
41.98066399999996,13.085143999999987,65535
41.65666399999997,13.733143999999989,65535
41.332663999999966,13.733143999999989,65535
41.332663999999966,14.381143999999988,65535
41.00866399999997,14.381143999999988,65535
41.332663999999966,13.085143999999987,65535
41.00866399999997,15.029143999999986,65535
41.98066399999996,13.733143999999989,65535
42.30466399999996,14.381143999999988,65535
42.30466399999996,12.437143999999988,65535
42.62866399999996,12.437143999999988,65535
42.95266399999996,12.437143999999988,65535
42.30466399999996,11.789143999999988,65535
42.95266399999996,11.789143999999988,65535
42.62866399999996,11.789143999999988,65535
43.276663999999954,11.789143999999988,65535
42.95266399999996,13.085143999999987,65535
42.30466399999996,13.085143999999987,65535
43.276663999999954,13.085143999999987,65535
43.276663999999954,12.437143999999988,65535
42.62866399999996,11.141143999999988,65535
42.95266399999996,11.141143999999988,65535
42.95266399999996,10.493143999999988,65535
44.572663999999946,8.54914399999999,7084
44.89666399999994,7.90114399999999,7079
44.89666399999994,9.197143999999987,7092
44.24866399999995,7.90114399999999,7119
44.572663999999946,7.90114399999999,7100
43.92466399999995,7.90114399999999,7171
44.24866399999995,7.25314399999999,7116
44.89666399999994,7.25314399999999,7098
45.22066399999994,7.25314399999999,7078
45.54466399999994,7.90114399999999,7058
44.572663999999946,7.25314399999999,7222
52.996663999999896,22.805143999999984,7975
52.996663999999896,23.45314399999998,8004
51.37666399999991,22.15714399999998,7465
51.37666399999991,22.805143999999984,7519
50.08066399999991,20.213143999999986,7226
50.72866399999991,20.213143999999986,7267
50.40466399999991,20.213143999999986,7206
50.08066399999991,20.86114399999998,7293
50.08066399999991,21.50914399999997,7324
50.08066399999991,22.15714399999998,7361
50.08066399999991,22.805143999999984,7368
53.96866399999989,22.805143999999984,8116
53.64466399999989,23.45314399999998,8072
53.32066399999989,23.45314399999998,8027
50.40466399999991,19.565143999999982,7140
50.08066399999991,18.917143999999983,7170
50.08066399999991,18.269143999999983,7210
52.0246639999999,22.805143999999984,7412
52.0246639999999,23.45314399999998,7450
51.37666399999991,19.565143999999982,7234
51.05266399999991,19.565143999999982,7153
50.72866399999991,18.917143999999983,7131
50.72866399999991,19.565143999999982,7223
49.75666399999992,18.917143999999983,7158
50.40466399999991,18.269143999999983,7118
53.64466399999989,19.565143999999982,7241
53.96866399999989,18.917143999999983,7260
53.64466399999989,18.917143999999983,7239
53.64466399999989,20.213143999999986,7289
52.996663999999896,18.917143999999983,7187
52.996663999999896,18.269143999999983,7167
53.32066399999989,18.917143999999983,7191
50.72866399999991,17.621143999999987,7067
50.72866399999991,18.269143999999983,7104
52.6726639999999,16.325143999999987,6991
52.996663999999896,16.325143999999987,6953
52.996663999999896,15.677143999999986,6910
53.32066399999989,15.677143999999986,6905
53.32066399999989,15.029143999999986,6881
53.64466399999989,15.029143999999986,6888
53.96866399999989,15.029143999999986,6873
52.6726639999999,18.917143999999983,7206
53.32066399999989,16.325143999999987,6923
52.6726639999999,15.029143999999986,6862
51.05266399999991,22.805143999999984,7549
51.05266399999991,23.45314399999998,7576
50.72866399999991,22.15714399999998,7502
50.40466399999991,22.15714399999998,7526
51.05266399999991,22.15714399999998,7516
54.616663999999886,16.973143999999984,7172
54.29266399999989,16.325143999999987,7105
53.96866399999989,15.677143999999986,7020
50.72866399999991,21.50914399999997,7491
50.40466399999991,21.50914399999997,7372
50.40466399999991,17.621143999999987,7088
53.32066399999989,22.805143999999984,7997
53.64466399999989,22.15714399999998,7438
54.29266399999989,16.973143999999984,7141
50.72866399999991,20.86114399999998,7310
51.700663999999904,22.805143999999984,7548
51.05266399999991,21.50914399999997,7375
50.08066399999991,19.565143999999982,7203
52.0246639999999,18.917143999999983,8008
52.0246639999999,19.565143999999982,8001
53.64466399999989,18.269143999999983,7212
51.700663999999904,20.213143999999986,7374
53.32066399999989,19.565143999999982,7232
50.72866399999991,23.45314399999998,8395
50.72866399999991,22.805143999999984,8364
49.43266399999992,20.213143999999986,7246
49.75666399999992,21.50914399999997,7335
49.75666399999992,22.15714399999998,7988
49.43266399999992,22.15714399999998,7582
51.05266399999991,18.917143999999983,7136
51.05266399999991,18.269143999999983,7073
53.32066399999989,16.973143999999984,7099
53.64466399999989,16.973143999999984,7118
49.75666399999992,20.86114399999998,7346
50.40466399999991,22.805143999999984,8962
53.64466399999989,16.325143999999987,7077
53.96866399999989,20.86114399999998,7393
54.29266399999989,20.86114399999998,7439
53.96866399999989,21.50914399999997,7544
53.64466399999989,15.677143999999986,7032
53.96866399999989,20.213143999999986,7321
53.96866399999989,19.565143999999982,7284
54.29266399999989,19.565143999999982,7294
53.96866399999989,16.325143999999987,7068
53.64466399999989,17.621143999999987,7164
53.96866399999989,22.15714399999998,7458
53.64466399999989,21.50914399999997,7394
53.64466399999989,20.86114399999998,7346
52.6726639999999,15.677143999999986,6911
51.05266399999991,20.213143999999986,7595
54.940663999999884,24.101143999999977,65535
54.616663999999886,23.45314399999998,65535
54.29266399999989,23.45314399999998,65535
53.64466399999989,22.805143999999984,8020
53.96866399999989,16.973143999999984,7273
50.40466399999991,20.86114399999998,8026
53.32066399999989,18.269143999999983,7185
49.75666399999992,19.565143999999982,7219
50.40466399999991,23.45314399999998,7645
49.75666399999992,20.213143999999986,7250
49.43266399999992,19.565143999999982,7209
49.43266399999992,20.86114399999998,7355
53.96866399999989,17.621143999999987,8043
42.30466399999996,-1.8188560000000056,8430
41.98066399999996,-1.8188560000000056,8418
41.65666399999997,0.7731439999999932,8306
42.62866399999996,-1.8188560000000056,8455
42.95266399999996,-1.8188560000000056,8482
42.62866399999996,-3.114856000000005,8557
42.95266399999996,-2.4668560000000053,8535
42.62866399999996,-7.650856000000003,8899
42.30466399999996,-7.650856000000003,8959
42.30466399999996,-8.946856000000002,9095
42.30466399999996,-8.298856000000002,9069
41.98066399999996,-8.298856000000002,9058
42.30466399999996,-7.002856000000003,8841
42.62866399999996,-6.354856000000003,8783
42.30466399999996,-6.354856000000003,8738
42.62866399999996,-5.706856000000004,8704
41.98066399999996,-4.410856000000004,8658
42.30466399999996,-3.7628560000000046,8622
40.03666399999997,-0.5228560000000062,8286
39.38866399999998,-0.5228560000000062,8334
41.00866399999997,0.7731439999999932,8434
40.68466399999997,0.7731439999999932,8466
40.36066399999997,0.1251439999999934,8544
39.712663999999975,-0.5228560000000062,8443
38.41666399999998,-0.5228560000000062,8455
39.06466399999998,-0.5228560000000062,8577
38.74066399999998,-1.170856000000006,8597
41.332663999999966,0.7731439999999932,8494
41.65666399999997,2.717143999999992,8094
41.65666399999997,2.0691439999999925,8117
41.332663999999966,0.1251439999999934,8452
41.332663999999966,-0.5228560000000062,8396
41.65666399999997,-4.410856000000004,8800
40.03666399999997,-2.4668560000000053,8616
41.00866399999997,-4.410856000000004,8731
43.276663999999954,-5.706856000000004,8983
39.38866399999998,-1.170856000000006,8429
38.09266399999999,-1.170856000000006,8842
38.74066399999998,-0.5228560000000062,8605
37.76866399999999,-1.170856000000006,8907
39.06466399999998,-1.8188560000000056,8705
39.38866399999998,-3.114856000000005,8784
39.38866399999998,-2.4668560000000053,8811
39.06466399999998,-2.4668560000000053,8815
39.06466399999998,-3.114856000000005,8896
39.06466399999998,-3.7628560000000046,8910
38.74066399999998,-3.7628560000000046,8923
40.03666399999997,-3.7628560000000046,8678
40.03666399999997,-3.114856000000005,8734
40.03666399999997,-1.8188560000000056,8564
39.712663999999975,-1.8188560000000056,8529
39.712663999999975,-1.170856000000006,8465
40.36066399999997,-1.170856000000006,8570
40.68466399999997,-1.170856000000006,8590
41.00866399999997,-1.170856000000006,8615
41.332663999999966,-1.170856000000006,8664
43.276663999999954,-8.298856000000002,9059
42.95266399999996,-8.298856000000002,9027
41.65666399999997,-5.706856000000004,65535
41.98066399999996,-7.002856000000003,65535
41.98066399999996,-6.354856000000003,65535
41.332663999999966,-5.058856000000004,8919
43.276663999999954,-3.7628560000000046,8840
42.95266399999996,-4.410856000000004,8774
42.62866399999996,-4.410856000000004,8764
42.30466399999996,-4.410856000000004,8723
41.00866399999997,-5.706856000000004,65535
41.332663999999966,-1.8188560000000056,8720
40.68466399999997,-3.114856000000005,8890
41.00866399999997,-3.114856000000005,8944
41.00866399999997,-2.4668560000000053,8970
41.332663999999966,-2.4668560000000053,65535
40.68466399999997,-4.410856000000004,8710
40.36066399999997,-4.410856000000004,9037
40.68466399999997,-3.7628560000000046,8652
40.36066399999997,-3.114856000000005,8878
41.65666399999997,-2.4668560000000053,65535
38.09266399999999,-3.7628560000000046,65535
38.74066399999998,-3.114856000000005,65535
37.76866399999999,-3.7628560000000046,65535
39.712663999999975,-3.114856000000005,8767
38.41666399999998,-3.7628560000000046,65535
40.03666399999997,-4.410856000000004,65535
40.03666399999997,-5.058856000000004,65535
39.38866399999998,-6.354856000000003,65535
39.38866399999998,-7.002856000000003,65535
42.95266399999996,-3.114856000000005,8968
41.98066399999996,-1.170856000000006,8724
42.30466399999996,-2.4668560000000053,9072
41.65666399999997,-0.5228560000000062,65535
41.98066399999996,-0.5228560000000062,8674
41.65666399999997,0.1251439999999934,8659
41.98066399999996,0.1251439999999934,8627
37.76866399999999,-5.058856000000004,9012
36.79666399999999,-4.410856000000004,9074
38.74066399999998,-4.410856000000004,65535
37.12066399999999,-4.410856000000004,9048
37.44466399999999,-5.058856000000004,9035
37.44466399999999,-7.002856000000003,65535
37.44466399999999,-6.354856000000003,65535
37.44466399999999,-5.706856000000004,8949
39.712663999999975,-3.7628560000000046,65535
42.62866399999996,-8.946856000000002,65535
42.30466399999996,-5.706856000000004,8745
42.30466399999996,-5.058856000000004,8830
42.95266399999996,-5.706856000000004,65535
41.00866399999997,-5.058856000000004,65535
40.68466399999997,-5.058856000000004,65535
41.65666399999997,-5.058856000000004,65535
41.65666399999997,-6.354856000000003,65535
36.79666399999999,-6.354856000000003,65535
37.12066399999999,-5.706856000000004,65535
37.76866399999999,-5.706856000000004,65535
38.09266399999999,-4.410856000000004,65535
37.12066399999999,-5.058856000000004,65535
36.79666399999999,-5.058856000000004,65535
37.76866399999999,-4.410856000000004,65535
37.76866399999999,-7.002856000000003,65535
38.41666399999998,-6.354856000000003,65535
38.09266399999999,-6.354856000000003,65535
48.78466399999992,1.4211439999999929,6961
56.23666399999988,8.54914399999999,6610
55.58866399999988,9.197143999999987,6415
55.91266399999988,9.197143999999987,6556
55.26466399999988,10.493143999999988,6318
55.91266399999988,12.437143999999988,5809
55.58866399999988,11.789143999999988,6255
55.58866399999988,11.141143999999988,6296
55.26466399999988,11.789143999999988,6288
55.58866399999988,10.493143999999988,6411
55.58866399999988,13.085143999999987,5794
56.88466399999987,9.845143999999989,6562
57.20866399999987,9.845143999999989,6597
56.56066399999988,9.845143999999989,6534
56.88466399999987,8.54914399999999,6649
54.940663999999884,9.845143999999989,7756
54.940663999999884,11.789143999999988,6629
55.91266399999988,13.085143999999987,5806
56.23666399999988,13.733143999999989,5762
55.91266399999988,13.733143999999989,5796
56.23666399999988,14.381143999999988,5791
56.23666399999988,15.029143999999986,5832
56.23666399999988,15.677143999999986,5832
56.56066399999988,14.381143999999988,5752
56.88466399999987,14.381143999999988,5726
56.23666399999988,13.085143999999987,5807
56.56066399999988,13.085143999999987,5823
56.88466399999987,12.437143999999988,5804
57.20866399999987,12.437143999999988,5768
57.53266399999987,12.437143999999988,5741
56.88466399999987,15.029143999999986,5736
56.56066399999988,15.677143999999986,5785
56.88466399999987,15.677143999999986,5803
56.88466399999987,16.325143999999987,5819
55.91266399999988,11.789143999999988,6581
57.20866399999987,10.493143999999988,6784
49.43266399999992,1.4211439999999929,6986
49.75666399999992,0.7731439999999932,6979
49.75666399999992,2.0691439999999925,6910
50.08066399999991,2.717143999999992,6890
49.75666399999992,1.4211439999999929,6960
47.81266399999993,1.4211439999999929,7035
48.136663999999925,2.0691439999999925,7269
48.46066399999992,2.0691439999999925,7111
48.136663999999925,1.4211439999999929,7013
48.78466399999992,0.1251439999999934,7012
48.46066399999992,0.1251439999999934,7010
47.81266399999993,0.1251439999999934,6973
46.84066399999993,-0.5228560000000062,7165
47.16466399999993,0.7731439999999932,6988
46.84066399999993,0.1251439999999934,7039
46.84066399999993,-1.170856000000006,7199
50.08066399999991,1.4211439999999929,6937
50.08066399999991,2.0691439999999925,6953
49.43266399999992,2.717143999999992,6912
49.75666399999992,3.365143999999992,6910
50.08066399999991,3.365143999999992,6837
49.10866399999992,2.0691439999999925,6935
49.43266399999992,2.0691439999999925,6943
48.78466399999992,0.7731439999999932,6961
48.78466399999992,-0.5228560000000062,7041
48.78466399999992,-1.170856000000006,7060
48.136663999999925,0.7731439999999932,6944
48.46066399999992,0.7731439999999932,6969
43.92466399999995,5.957143999999991,7113
44.24866399999995,5.957143999999991,7153
43.92466399999995,5.309143999999991,7061
42.95266399999996,2.717143999999992,7218
45.54466399999994,2.0691439999999925,7141
45.22066399999994,2.0691439999999925,7158
42.95266399999996,2.0691439999999925,7217
42.95266399999996,0.7731439999999932,7226
43.276663999999954,0.7731439999999932,7211
46.19266399999994,0.7731439999999932,7165
46.516663999999935,0.7731439999999932,7099
45.86866399999994,0.1251439999999934,7243
46.19266399999994,0.1251439999999934,7240
47.81266399999993,-1.170856000000006,7048
48.136663999999925,-2.4668560000000053,7026
47.48866399999993,-1.8188560000000056,7016
47.16466399999993,-1.170856000000006,7035
47.16466399999993,-0.5228560000000062,7043
46.84066399999993,-1.8188560000000056,7072
45.22066399999994,-0.5228560000000062,7046
44.89666399999994,0.1251439999999934,7039
45.22066399999994,0.7731439999999932,7063
45.54466399999994,0.7731439999999932,7073
45.86866399999994,0.7731439999999932,7238
45.22066399999994,0.1251439999999934,7052
44.89666399999994,0.7731439999999932,7076
43.92466399999995,-0.5228560000000062,7199
43.92466399999995,-1.170856000000006,7091
44.24866399999995,-1.170856000000006,7164
45.22066399999994,-1.170856000000006,7098
44.572663999999946,-0.5228560000000062,7063
44.24866399999995,0.1251439999999934,7110
44.572663999999946,0.7731439999999932,7157
43.276663999999954,-1.170856000000006,7124
42.95266399999996,-0.5228560000000062,7173
44.24866399999995,2.0691439999999925,7320
43.60066399999995,0.7731439999999932,7210
43.60066399999995,2.0691439999999925,7218
52.6726639999999,4.661143999999991,6819
52.6726639999999,5.309143999999991,6834
51.700663999999904,5.309143999999991,6788
52.0246639999999,5.309143999999991,6798
52.3486639999999,5.309143999999991,6800
51.37666399999991,4.013143999999992,6826
52.3486639999999,5.957143999999991,6780
52.0246639999999,6.60514399999999,6789
52.6726639999999,5.957143999999991,6772
52.996663999999896,5.957143999999991,6780
53.32066399999989,5.957143999999991,6765
52.996663999999896,6.60514399999999,6747
53.32066399999989,6.60514399999999,6741
52.6726639999999,6.60514399999999,6760
52.996663999999896,5.309143999999991,6786
59.15266399999986,24.101143999999977,65535
56.88466399999987,24.101143999999977,65535
56.88466399999987,23.45314399999998,65535
56.88466399999987,22.805143999999984,65535
57.20866399999987,24.74914399999998,65535
56.88466399999987,24.74914399999998,65535
56.56066399999988,24.74914399999998,65535
56.56066399999988,25.397143999999983,65535
56.56066399999988,24.101143999999977,65535
56.56066399999988,23.45314399999998,65535
56.56066399999988,26.04514399999998,65535
56.88466399999987,26.04514399999998,65535
57.20866399999987,25.397143999999983,65535
57.53266399999987,25.397143999999983,65535
56.23666399999988,26.04514399999998,65535
56.23666399999988,26.69314399999997,65535
55.91266399999988,26.69314399999997,65535
56.56066399999988,26.69314399999997,65535
56.56066399999988,27.34114399999998,65535
56.56066399999988,27.989143999999985,65535
56.23666399999988,27.989143999999985,65535
55.91266399999988,27.34114399999998,65535
56.56066399999988,22.805143999999984,65535
56.56066399999988,22.15714399999998,65535
56.56066399999988,21.50914399999997,65535
57.20866399999987,26.69314399999997,65535
39.06466399999998,-8.946856000000002,65535
38.41666399999998,-8.298856000000002,65535
45.86866399999994,11.789143999999988,8788
46.19266399999994,11.789143999999988,8775
46.19266399999994,10.493143999999988,8815
45.22066399999994,18.269143999999983,7351
45.22066399999994,18.917143999999983,7377
45.54466399999994,16.973143999999984,7216
45.22066399999994,17.621143999999987,7277
45.86866399999994,16.325143999999987,7135
45.54466399999994,18.917143999999983,7414
45.54466399999994,16.325143999999987,7155
45.54466399999994,18.269143999999983,7409
44.89666399999994,18.917143999999983,7450
46.19266399999994,16.973143999999984,7201
46.19266399999994,16.325143999999987,7188
45.86866399999994,16.973143999999984,7211
45.86866399999994,17.621143999999987,7244
46.19266399999994,15.677143999999986,7115
46.516663999999935,16.325143999999987,7173
45.54466399999994,15.677143999999986,7199
45.22066399999994,15.029143999999986,7195
45.54466399999994,15.029143999999986,7175
45.22066399999994,15.677143999999986,7262
44.572663999999946,15.677143999999986,7339
44.24866399999995,15.677143999999986,7360
43.92466399999995,16.325143999999987,7424
44.89666399999994,15.677143999999986,7303
45.54466399999994,17.621143999999987,7352
45.22066399999994,16.325143999999987,7263
46.516663999999935,16.973143999999984,7215
45.86866399999994,18.269143999999983,7435
43.92466399999995,15.677143999999986,7526
45.22066399999994,13.733143999999989,7301
47.48866399999993,19.565143999999982,7354
47.16466399999993,18.917143999999983,7353
47.81266399999993,18.917143999999983,7306
45.54466399999994,9.845143999999989,7039
45.22066399999994,9.845143999999989,7048
45.22066399999994,10.493143999999988,7098
45.86866399999994,9.845143999999989,7059
45.86866399999994,10.493143999999988,65535
48.78466399999992,21.50914399999997,7297
49.10866399999992,20.213143999999986,7238
49.10866399999992,18.917143999999983,7146
48.46066399999992,17.621143999999987,7187
49.43266399999992,17.621143999999987,7093
49.10866399999992,17.621143999999987,7141
48.136663999999925,18.269143999999983,7218
49.10866399999992,18.269143999999983,7167
49.43266399999992,18.269143999999983,7124
49.43266399999992,16.973143999999984,7071
49.75666399999992,16.973143999999984,7041
49.75666399999992,16.325143999999987,7019
50.08066399999991,15.677143999999986,6971
50.08066399999991,15.029143999999986,6941
49.43266399999992,18.917143999999983,7135
47.81266399999993,20.86114399999998,7435
48.136663999999925,20.86114399999998,7370
48.46066399999992,20.86114399999998,7357
48.46066399999992,21.50914399999997,7312
49.10866399999992,19.565143999999982,7159
48.136663999999925,17.621143999999987,7166
48.78466399999992,22.15714399999998,7430
48.78466399999992,20.86114399999998,7585
49.10866399999992,20.86114399999998,7281
48.78466399999992,18.269143999999983,7210
48.78466399999992,17.621143999999987,7169
49.10866399999992,21.50914399999997,7289
48.78466399999992,20.213143999999986,7629
48.46066399999992,20.213143999999986,7641
48.136663999999925,19.565143999999982,7365
48.46066399999992,19.565143999999982,7244
48.46066399999992,18.917143999999983,7226
48.46066399999992,18.269143999999983,7223
48.78466399999992,19.565143999999982,7200
48.78466399999992,18.917143999999983,7186
47.81266399999993,18.269143999999983,7267
49.10866399999992,22.15714399999998,7484
49.43266399999992,21.50914399999997,7414
48.136663999999925,18.917143999999983,7419
48.136663999999925,20.213143999999986,7385
52.636,-8.018,65535
52.312,-7.370000000000001,65535
52.312,-8.018,65535
52.636,-8.666,65535
51.988,-8.666,65535
51.988,-8.018,65535
52.96,-8.666,65535
52.96,-6.074000000000002,65535
53.28399999999999,-6.722000000000001,65535
53.60799999999999,-6.722000000000001,65535
53.60799999999999,-7.370000000000001,65535
53.60799999999999,-8.018,65535
54.25599999999999,-8.666,65535
53.93199999999999,-8.666,65535
53.93199999999999,-8.018,65535
52.312,-6.722000000000001,65535
52.636,-6.722000000000001,65535
53.93199999999999,-6.722000000000001,65535
54.25599999999999,-6.074000000000002,65535
53.28399999999999,-7.370000000000001,65535
52.96,-7.370000000000001,65535
52.312,-8.666,65535
52.96,-8.018,65535
52.636,-7.370000000000001,65535
52.96,-6.722000000000001,65535
51.988,-9.314,65535
52.312,-9.314,65535
54.579999999999984,-6.722000000000001,65535
54.579999999999984,-6.074000000000002,65535
53.28399999999999,-8.018,65535
53.28399999999999,-8.666,65535
53.28399999999999,-9.314,65535
53.93199999999999,-9.314,65535
54.25599999999999,-9.314,65535
53.60799999999999,-8.666,65535
53.60799999999999,-9.314,65535
49.43266399999992,14.381143999999988,6995
49.75666399999992,14.381143999999988,6953
49.75666399999992,15.029143999999986,6946
49.75666399999992,13.733143999999989,6983
50.08066399999991,13.733143999999989,6977
49.75666399999992,15.677143999999986,6957
50.40466399999991,15.029143999999986,6936
49.43266399999992,13.733143999999989,7086
50.40466399999991,15.677143999999986,6947
50.40466399999991,13.733143999999989,7003
46.19266399999994,15.029143999999986,7109
45.86866399999994,15.029143999999986,7136
45.86866399999994,14.381143999999988,7129
46.19266399999994,13.733143999999989,7142
45.86866399999994,13.733143999999989,7228
58.50466399999986,13.733143999999989,5657
58.180663999999865,13.733143999999989,5672
58.180663999999865,13.085143999999987,5710
57.85666399999987,12.437143999999988,5702
60.44866399999985,15.677143999999986,5508
60.124663999999854,15.677143999999986,5541
60.124663999999854,16.325143999999987,5556
59.800663999999855,16.325143999999987,5577
59.800663999999855,17.621143999999987,5613
59.47666399999986,18.269143999999983,5616
61.74466399999984,16.973143999999984,5698
61.420663999999846,16.973143999999984,5670
60.77266399999985,16.973143999999984,5596
65.63266399999982,22.15714399999998,6133
65.95666399999982,21.50914399999997,6116
65.63266399999982,20.86114399999998,6085
64.98466399999982,20.213143999999986,6033
64.66066399999983,20.213143999999986,6013
64.33666399999983,19.565143999999982,5964
64.01266399999983,19.565143999999982,5928
63.68866399999983,20.213143999999986,5908
64.66066399999983,18.917143999999983,6834
59.15266399999986,16.325143999999987,5574
59.15266399999986,15.029143999999986,5518
59.15266399999986,17.621143999999987,5616
57.53266399999987,14.381143999999988,5685
57.53266399999987,15.029143999999986,5780
61.09666399999985,14.381143999999988,5611
60.77266399999985,15.029143999999986,5562
60.44866399999985,15.029143999999986,5548
58.180663999999865,15.029143999999986,5615
58.50466399999986,16.325143999999987,5601
58.50466399999986,15.677143999999986,5616
63.36466399999984,13.085143999999987,5965
63.04066399999984,14.381143999999988,5901
62.39266399999984,15.677143999999986,5824
63.36466399999984,13.733143999999989,5947
63.36466399999984,14.381143999999988,5918
62.71666399999984,15.677143999999986,5851
62.39266399999984,17.621143999999987,5753
59.800663999999855,15.677143999999986,5873
55.58866399999988,13.733143999999989,5828
57.20866399999987,14.381143999999988,5763
57.85666399999987,14.381143999999988,5726
58.82866399999986,16.973143999999984,5684
58.82866399999986,16.325143999999987,5690
59.15266399999986,18.269143999999983,5619
60.44866399999985,17.621143999999987,5629
59.15266399999986,12.437143999999988,5803
59.15266399999986,13.085143999999987,5815
58.82866399999986,12.437143999999988,5780
59.47666399999986,16.325143999999987,5549
58.82866399999986,14.381143999999988,5589
59.47666399999986,15.677143999999986,5502
63.36466399999984,18.917143999999983,5864
63.04066399999984,17.621143999999987,5829
62.71666399999984,17.621143999999987,5805
63.68866399999983,19.565143999999982,5945
62.39266399999984,16.973143999999984,5765
59.800663999999855,16.973143999999984,5583
59.47666399999986,17.621143999999987,5595
57.85666399999987,13.085143999999987,5732
57.53266399999987,13.085143999999987,5773
58.50466399999986,11.789143999999988,5810
57.85666399999987,15.029143999999986,5670
57.20866399999987,13.733143999999989,5775
57.53266399999987,13.733143999999989,5866
61.74466399999984,16.325143999999987,5675
61.420663999999846,16.325143999999987,5645
61.09666399999985,16.325143999999987,5635
61.09666399999985,16.973143999999984,5619
60.124663999999854,15.029143999999986,5462
66.60466399999981,20.86114399999998,6657
67.25266399999981,20.86114399999998,6725
67.90066399999981,20.213143999999986,6795
67.57666399999981,20.213143999999986,7420
59.800663999999855,15.029143999999986,5444
58.50466399999986,15.029143999999986,5608
59.47666399999986,15.029143999999986,5486
60.44866399999985,16.325143999999987,5568
59.15266399999986,15.677143999999986,5622
57.85666399999987,13.733143999999989,5727
58.82866399999986,13.733143999999989,5619
58.50466399999986,13.085143999999987,5681
57.20866399999987,13.085143999999987,5832
56.88466399999987,13.085143999999987,5840
58.180663999999865,11.789143999999988,5781
62.06866399999984,16.973143999999984,5831
65.95666399999982,23.45314399999998,6184
59.800663999999855,14.381143999999988,0
59.800663999999855,18.269143999999983,5624
63.04066399999984,15.029143999999986,5867
62.71666399999984,15.029143999999986,5858
62.39266399999984,16.325143999999987,5793
63.36466399999984,12.437143999999988,6779
68.5486639999998,17.621143999999987,7008
68.5486639999998,18.269143999999983,6941
68.5486639999998,18.917143999999983,6918
68.2246639999998,18.917143999999983,6874
59.800663999999855,13.085143999999987,5875
60.124663999999854,13.085143999999987,5915
59.47666399999986,16.973143999999984,5598
59.15266399999986,16.973143999999984,5607
56.56066399999988,13.733143999999989,5771
60.124663999999854,17.621143999999987,5636
57.85666399999987,16.325143999999987,5718
58.180663999999865,16.325143999999987,5684
58.180663999999865,15.677143999999986,5680
57.20866399999987,16.325143999999987,5790
57.53266399999987,15.677143999999986,5748
57.85666399999987,15.677143999999986,5719
44.89666399999994,23.45314399999998,65535
44.572663999999946,23.45314399999998,65535
44.89666399999994,24.74914399999998,65535
44.572663999999946,24.74914399999998,65535
44.572663999999946,24.101143999999977,65535
44.24866399999995,24.101143999999977,65535
47.48866399999993,25.397143999999983,65535
47.48866399999993,24.74914399999998,65535
47.16466399999993,24.74914399999998,65535
47.16466399999993,24.101143999999977,65535
47.48866399999993,22.15714399999998,65535
47.81266399999993,22.15714399999998,65535
47.16466399999993,22.15714399999998,65535
47.16466399999993,23.45314399999998,65535
47.16466399999993,22.805143999999984,65535
46.84066399999993,24.101143999999977,65535
45.86866399999994,27.34114399999998,65535
45.54466399999994,27.34114399999998,65535
45.54466399999994,27.989143999999985,65535
45.86866399999994,20.86114399999998,65535
45.86866399999994,21.50914399999997,65535
46.19266399999994,21.50914399999997,65535
46.19266399999994,27.34114399999998,65535
46.19266399999994,26.69314399999997,65535
46.516663999999935,26.69314399999997,65535
46.516663999999935,26.04514399999998,65535
47.48866399999993,22.805143999999984,65535
46.84066399999993,22.805143999999984,65535
45.54466399999994,22.15714399999998,65535
45.22066399999994,22.15714399999998,65535
44.89666399999994,22.15714399999998,65535
47.48866399999993,23.45314399999998,65535
46.516663999999935,24.101143999999977,65535
46.516663999999935,24.74914399999998,65535
45.86866399999994,24.101143999999977,65535
47.16466399999993,26.69314399999997,65535
47.16466399999993,27.34114399999998,65535
43.92466399999995,25.397143999999983,65535
44.24866399999995,24.74914399999998,65535
44.89666399999994,26.04514399999998,65535
44.89666399999994,26.69314399999997,65535
45.22066399999994,26.69314399999997,65535
45.22066399999994,27.34114399999998,65535
46.84066399999993,26.69314399999997,65535
47.48866399999993,26.69314399999997,65535
44.24866399999995,25.397143999999983,65535
43.92466399999995,26.04514399999998,65535
46.19266399999994,24.101143999999977,65535
44.572663999999946,25.397143999999983,65535
46.84066399999993,24.74914399999998,65535
46.516663999999935,21.50914399999997,65535
46.84066399999993,21.50914399999997,65535
44.572663999999946,26.69314399999997,65535
44.572663999999946,27.34114399999998,65535
44.89666399999994,27.34114399999998,65535
44.572663999999946,27.989143999999985,65535
44.24866399999995,27.989143999999985,65535
44.572663999999946,28.63714399999997,65535
45.86866399999994,22.15714399999998,65535
45.86866399999994,22.805143999999984,65535
44.24866399999995,23.45314399999998,65535
43.92466399999995,27.989143999999985,65535
46.84066399999993,27.34114399999998,65535
45.22066399999994,23.45314399999998,65535
45.54466399999994,23.45314399999998,65535
45.54466399999994,24.101143999999977,65535
45.22066399999994,24.101143999999977,65535
44.89666399999994,24.101143999999977,65535
46.19266399999994,22.15714399999998,65535
46.516663999999935,22.15714399999998,65535
45.22066399999994,21.50914399999997,65535
45.54466399999994,21.50914399999997,65535
45.54466399999994,20.86114399999998,65535
46.516663999999935,27.989143999999985,65535
46.19266399999994,27.989143999999985,65535
45.54466399999994,25.397143999999983,65535
45.22066399999994,25.397143999999983,65535
45.22066399999994,26.04514399999998,65535
47.81266399999993,24.101143999999977,65535
47.48866399999993,26.04514399999998,65535
47.81266399999993,26.04514399999998,65535
46.19266399999994,23.45314399999998,65535
45.86866399999994,23.45314399999998,65535
44.24866399999995,26.04514399999998,65535
45.22066399999994,27.989143999999985,65535
45.86866399999994,24.74914399999998,65535
46.516663999999935,25.397143999999983,65535
46.84066399999993,25.397143999999983,65535
46.19266399999994,26.04514399999998,65535
45.86866399999994,26.04514399999998,65535
43.92466399999995,23.45314399999998,65535
44.89666399999994,25.397143999999983,65535
46.19266399999994,20.86114399999998,65535
47.81266399999993,25.397143999999983,65535
44.572663999999946,22.805143999999984,65535
44.572663999999946,22.15714399999998,65535
46.516663999999935,23.45314399999998,65535
45.86866399999994,25.397143999999983,65535
44.24866399999995,27.34114399999998,65535
45.22066399999994,24.74914399999998,65535
45.54466399999994,22.805143999999984,65535
45.22066399999994,28.63714399999997,65535
44.89666399999994,28.63714399999997,65535
47.81266399999993,23.45314399999998,65535
46.19266399999994,24.74914399999998,65535
46.19266399999994,25.397143999999983,65535
43.92466399999995,24.101143999999977,65535
43.92466399999995,24.74914399999998,65535
47.81266399999993,26.69314399999997,65535
47.48866399999993,24.101143999999977,65535
46.84066399999993,26.04514399999998,65535
46.19266399999994,22.805143999999984,65535
47.48866399999993,27.34114399999998,65535
46.19266399999994,20.213143999999986,65535
45.54466399999994,26.04514399999998,65535
44.24866399999995,26.69314399999997,65535
45.86866399999994,27.989143999999985,65535
47.81266399999993,5.957143999999991,65535
