51.56399999999999,-0.4100000000000028,65535
51.887999999999984,-0.4100000000000028,65535
50.91599999999999,-1.7060000000000022,65535
51.23999999999999,-1.0580000000000025,65535
51.56399999999999,-1.0580000000000025,65535
51.23999999999999,-1.7060000000000022,65535
51.56399999999999,0.2379999999999968,65535
47.16466399999993,9.845143999999989,441
47.48866399999993,9.845143999999989,413
48.136663999999925,14.381143999999988,504
47.81266399999993,13.085143999999987,369
47.16466399999993,11.141143999999988,498
47.48866399999993,11.789143999999988,437
48.136663999999925,16.325143999999987,349
47.48866399999993,12.437143999999988,358
48.136663999999925,15.677143999999986,379
47.16466399999993,10.493143999999988,463
47.16466399999993,9.197143999999987,410
48.136663999999925,13.733143999999989,496
48.136663999999925,15.029143999999986,501
47.81266399999993,16.973143999999984,783
48.46066399999992,14.381143999999988,904
47.48866399999993,13.085143999999987,360
47.16466399999993,13.085143999999987,399
47.48866399999993,14.381143999999988,863
47.48866399999993,13.733143999999989,924
47.48866399999993,15.029143999999986,812
46.516663999999935,13.733143999999989,1094
46.84066399999993,13.733143999999989,1120
46.84066399999993,13.085143999999987,1125
48.78466399999992,14.381143999999988,65535
47.16466399999993,15.677143999999986,824
46.516663999999935,14.381143999999988,1074
46.84066399999993,14.381143999999988,1015
47.16466399999993,14.381143999999988,965
46.516663999999935,15.029143999999986,1087
47.81266399999993,16.325143999999987,404
47.16466399999993,15.029143999999986,793
47.81266399999993,15.677143999999986,478
47.48866399999993,15.677143999999986,764
46.516663999999935,13.085143999999987,1454
46.84066399999993,12.437143999999988,1139
48.136663999999925,11.789143999999988,310
47.81266399999993,12.437143999999988,326
46.84066399999993,15.677143999999986,901
46.516663999999935,15.677143999999986,1141
46.84066399999993,16.325143999999987,923
47.81266399999993,14.381143999999988,835
48.78466399999992,16.973143999999984,292
48.136663999999925,16.973143999999984,354
48.46066399999992,13.733143999999989,337
47.81266399999993,13.733143999999989,851
50.08066399999991,8.54914399999999,274
48.46066399999992,9.845143999999989,325
51.05266399999991,7.25314399999999,239
51.37666399999991,7.25314399999999,231
51.37666399999991,6.60514399999999,233
48.46066399999992,16.325143999999987,352
48.46066399999992,16.973143999999984,337
48.78466399999992,16.325143999999987,410
48.46066399999992,15.677143999999986,365
48.78466399999992,15.677143999999986,393
47.48866399999993,16.325143999999987,549
47.16466399999993,16.325143999999987,846
46.19266399999994,14.381143999999988,1086
45.86866399999994,15.677143999999986,1123
43.60066399999995,16.325143999999987,1720
45.54466399999994,14.381143999999988,1199
45.54466399999994,13.733143999999989,1221
48.136663999999925,13.085143999999987,366
48.46066399999992,11.141143999999988,296
48.136663999999925,11.141143999999988,313
48.46066399999992,7.90114399999999,340
49.10866399999992,8.54914399999999,303
48.78466399999992,2.0691439999999925,410
49.10866399999992,7.25314399999999,378
52.0246639999999,7.90114399999999,255
47.16466399999993,11.789143999999988,481
49.43266399999992,11.141143999999988,208
53.64466399999989,9.845143999999989,239
50.72866399999991,4.013143999999992,292
51.05266399999991,11.141143999999988,122
47.48866399999993,11.141143999999988,333
46.84066399999993,11.789143999999988,1622
46.516663999999935,11.141143999999988,1591
45.54466399999994,11.141143999999988,1485
46.19266399999994,11.141143999999988,1557
45.86866399999994,11.141143999999988,1541
44.572663999999946,11.141143999999988,1332
43.92466399999995,12.437143999999988,3965
45.54466399999994,12.437143999999988,1572
45.54466399999994,11.789143999999988,1535
48.78466399999992,15.029143999999986,492
47.81266399999993,15.029143999999986,805
47.81266399999993,11.141143999999988,326
50.40466399999991,18.917143999999983,228
52.3486639999999,20.86114399999998,759
54.616663999999886,18.269143999999983,781
54.29266399999989,18.917143999999983,763
49.10866399999992,14.381143999999988,65535
50.08066399999991,14.381143999999988,39
48.78466399999992,13.733143999999989,1736
52.6726639999999,13.085143999999987,94
52.3486639999999,13.085143999999987,93
53.96866399999989,12.437143999999988,276
54.29266399999989,12.437143999999988,277
47.48866399999993,8.54914399999999,394
47.81266399999993,17.621143999999987,713
47.48866399999993,18.917143999999983,720
47.48866399999993,20.86114399999998,1436
46.84066399999993,23.45314399999998,1918
44.572663999999946,26.04514399999998,2367
47.48866399999993,21.50914399999997,1472
47.81266399999993,21.50914399999997,1868
48.46066399999992,22.15714399999998,997
47.48866399999993,16.973143999999984,65535
49.10866399999992,16.325143999999987,247
49.75666399999992,18.269143999999983,220
46.19266399999994,13.085143999999987,1170
41.98066399999996,12.437143999999988,2565
43.60066399999995,10.493143999999988,2726
45.54466399999994,9.197143999999987,810
47.81266399999993,22.805143999999984,2333
49.75666399999992,22.805143999999984,877
50.72866399999991,3.365143999999992,301
51.05266399999991,4.013143999999992,294
50.72866399999991,4.661143999999991,289
51.05266399999991,4.661143999999991,292
51.05266399999991,3.365143999999992,304
51.05266399999991,2.717143999999992,328
50.40466399999991,4.661143999999991,298
50.72866399999991,2.717143999999992,314
50.40466399999991,4.013143999999992,298
51.05266399999991,5.309143999999991,294
50.72866399999991,5.309143999999991,273
51.37666399999991,3.365143999999992,336
51.37666399999991,4.661143999999991,302
50.72866399999991,5.957143999999991,249
50.40466399999991,5.957143999999991,252
50.40466399999991,3.365143999999992,303
50.40466399999991,5.309143999999991,272
50.08066399999991,5.309143999999991,319
49.75666399999992,5.309143999999991,317
49.75666399999992,5.957143999999991,284
51.37666399999991,5.309143999999991,327
51.700663999999904,4.661143999999991,338
50.08066399999991,4.013143999999992,323
50.08066399999991,5.957143999999991,261
50.08066399999991,4.661143999999991,355
49.43266399999992,5.309143999999991,315
49.43266399999992,5.957143999999991,298
52.0246639999999,4.661143999999991,410
52.3486639999999,4.661143999999991,439
50.72866399999991,15.029143999999986,24
51.05266399999991,15.029143999999986,34
51.05266399999991,13.733143999999989,56
50.40466399999991,13.085143999999987,108
49.10866399999992,7.90114399999999,309
48.78466399999992,7.90114399999999,323
50.40466399999991,7.90114399999999,271
50.08066399999991,7.90114399999999,279
49.75666399999992,7.90114399999999,293
49.43266399999992,7.90114399999999,294
49.75666399999992,8.54914399999999,279
49.43266399999992,8.54914399999999,281
49.43266399999992,9.197143999999987,289
49.10866399999992,9.197143999999987,303
47.48866399999993,7.90114399999999,399
47.81266399999993,7.90114399999999,398
48.136663999999925,7.90114399999999,363
48.136663999999925,9.845143999999989,344
47.81266399999993,9.197143999999987,413
47.81266399999993,8.54914399999999,383
47.81266399999993,9.845143999999989,353
54.940663999999884,9.197143999999987,323
54.616663999999886,9.197143999999987,300
54.29266399999989,9.197143999999987,297
53.96866399999989,9.197143999999987,265
53.64466399999989,9.197143999999987,251
54.616663999999886,9.845143999999989,292
54.29266399999989,9.845143999999989,281
53.96866399999989,9.845143999999989,258
53.64466399999989,10.493143999999988,242
53.96866399999989,10.493143999999988,284
53.96866399999989,11.141143999999988,311
54.29266399999989,10.493143999999988,298
53.32066399999989,10.493143999999988,215
54.940663999999884,11.141143999999988,409
52.6726639999999,13.733143999999989,91
52.3486639999999,13.733143999999989,89
52.3486639999999,14.381143999999988,100
52.0246639999999,14.381143999999988,87
52.0246639999999,11.789143999999988,123
52.3486639999999,11.789143999999988,138
52.3486639999999,12.437143999999988,120
52.0246639999999,15.029143999999986,103
51.700663999999904,14.381143999999988,79
52.0246639999999,13.733143999999989,78
51.700663999999904,13.733143999999989,74
52.6726639999999,12.437143999999988,128
53.32066399999989,11.789143999999988,189
53.96866399999989,11.789143999999988,268
53.64466399999989,11.789143999999988,244
53.64466399999989,11.141143999999988,222
53.32066399999989,11.141143999999988,213
52.996663999999896,11.789143999999988,152
52.996663999999896,12.437143999999988,144
52.996663999999896,13.733143999999989,126
53.64466399999989,13.733143999999989,217
53.96866399999989,13.733143999999989,290
54.29266399999989,13.085143999999987,332
53.96866399999989,13.085143999999987,317
53.32066399999989,13.733143999999989,227
52.0246639999999,13.085143999999987,109
51.700663999999904,13.085143999999987,106
52.996663999999896,14.381143999999988,141
52.0246639999999,12.437143999999988,114
51.700663999999904,12.437143999999988,110
51.37666399999991,11.789143999999988,94
51.37666399999991,12.437143999999988,87
52.6726639999999,11.789143999999988,143
53.64466399999989,13.085143999999987,260
53.32066399999989,13.085143999999987,225
52.996663999999896,13.085143999999987,153
53.64466399999989,12.437143999999988,268
51.37666399999991,13.733143999999989,65
53.32066399999989,12.437143999999988,176
52.6726639999999,14.381143999999988,110
51.37666399999991,13.085143999999987,79
53.32066399999989,14.381143999999988,168
52.3486639999999,15.029143999999986,124
52.0246639999999,15.677143999999986,127
51.700663999999904,15.029143999999986,113
51.05266399999991,16.325143999999987,111
51.05266399999991,16.973143999999984,137
51.700663999999904,15.677143999999986,162
51.37666399999991,15.677143999999986,69
51.37666399999991,16.325143999999987,102
50.72866399999991,13.085143999999987,96
50.72866399999991,12.437143999999988,108
51.05266399999991,13.085143999999987,74
51.05266399999991,14.381143999999988,43
50.40466399999991,12.437143999999988,117
50.40466399999991,11.789143999999988,132
50.08066399999991,12.437143999999988,199
50.72866399999991,11.789143999999988,157
51.05266399999991,12.437143999999988,107
50.72866399999991,14.381143999999988,74
51.37666399999991,14.381143999999988,58
50.72866399999991,13.733143999999989,93
50.40466399999991,14.381143999999988,31
51.37666399999991,15.029143999999986,48
55.26466399999988,9.197143999999987,348
55.58866399999988,8.54914399999999,3082
55.91266399999988,8.54914399999999,6559
56.23666399999988,9.197143999999987,6567
56.23666399999988,10.493143999999988,6520
56.23666399999988,9.845143999999989,6507
55.91266399999988,9.845143999999989,6445
56.56066399999988,9.197143999999987,6577
56.56066399999988,8.54914399999999,6620
51.05266399999991,6.60514399999999,236
51.700663999999904,7.90114399999999,228
50.72866399999991,6.60514399999999,247
51.700663999999904,7.25314399999999,236
50.72866399999991,7.25314399999999,253
52.0246639999999,7.25314399999999,243
52.3486639999999,7.90114399999999,244
51.05266399999991,5.957143999999991,244
50.40466399999991,7.25314399999999,259
51.700663999999904,6.60514399999999,242
51.700663999999904,5.957143999999991,248
52.3486639999999,9.197143999999987,181
51.700663999999904,8.54914399999999,213
52.0246639999999,8.54914399999999,200
52.3486639999999,8.54914399999999,193
51.37666399999991,7.90114399999999,234
52.3486639999999,7.25314399999999,273
51.37666399999991,5.957143999999991,281
50.72866399999991,7.90114399999999,271
51.37666399999991,9.197143999999987,211
51.700663999999904,9.197143999999987,193
50.40466399999991,6.60514399999999,346
51.05266399999991,7.90114399999999,254
51.37666399999991,8.54914399999999,235
52.0246639999999,5.957143999999991,291
52.3486639999999,6.60514399999999,296
51.05266399999991,8.54914399999999,263
52.0246639999999,9.197143999999987,182
52.6726639999999,9.197143999999987,212
52.0246639999999,9.845143999999989,182
51.700663999999904,9.845143999999989,198
51.37666399999991,9.845143999999989,226
50.72866399999991,8.54914399999999,277
51.05266399999991,9.845143999999989,272
50.72866399999991,9.845143999999989,260
50.40466399999991,9.845143999999989,277
51.05266399999991,9.197143999999987,236
50.40466399999991,9.197143999999987,273
50.08066399999991,9.197143999999987,265
51.05266399999991,10.493143999999988,136
50.40466399999991,8.54914399999999,278
50.72866399999991,9.197143999999987,248
49.75666399999992,9.197143999999987,264
52.996663999999896,9.197143999999987,249
52.3486639999999,9.845143999999989,173
52.996663999999896,8.54914399999999,266
52.996663999999896,7.90114399999999,293
53.32066399999989,7.90114399999999,343
53.32066399999989,7.25314399999999,373
53.64466399999989,7.25314399999999,418
52.996663999999896,10.493143999999988,203
52.6726639999999,10.493143999999988,196
52.6726639999999,9.845143999999989,180
53.32066399999989,9.845143999999989,229
53.32066399999989,9.197143999999987,248
53.64466399999989,8.54914399999999,290
53.32066399999989,8.54914399999999,277
52.6726639999999,8.54914399999999,243
52.0246639999999,10.493143999999988,212
52.0246639999999,11.141143999999988,161
51.700663999999904,11.141143999999988,160
52.6726639999999,7.25314399999999,425
52.996663999999896,7.25314399999999,399
52.6726639999999,7.90114399999999,315
53.64466399999989,7.90114399999999,371
52.996663999999896,11.141143999999988,163
52.6726639999999,11.141143999999988,153
52.3486639999999,10.493143999999988,165
52.996663999999896,9.845143999999989,216
51.700663999999904,10.493143999999988,200
51.37666399999991,10.493143999999988,223
51.700663999999904,11.789143999999988,134
52.3486639999999,11.141143999999988,159
51.37666399999991,11.141143999999988,177
51.05266399999991,11.789143999999988,111
49.10866399999992,11.141143999999988,234
48.78466399999992,11.141143999999988,280
48.46066399999992,11.789143999999988,296
49.43266399999992,11.789143999999988,220
50.08066399999991,11.789143999999988,152
49.75666399999992,12.437143999999988,213
49.10866399999992,11.789143999999988,249
48.78466399999992,12.437143999999988,263
48.46066399999992,12.437143999999988,283
49.10866399999992,12.437143999999988,257
48.78466399999992,13.085143999999987,300
48.136663999999925,12.437143999999988,317
47.81266399999993,11.789143999999988,316
48.136663999999925,10.493143999999988,322
47.81266399999993,10.493143999999988,372
48.78466399999992,10.493143999999988,295
47.48866399999993,10.493143999999988,411
48.46066399999992,10.493143999999988,304
49.43266399999992,13.085143999999987,356
48.46066399999992,13.085143999999987,314
49.43266399999992,10.493143999999988,243
49.75666399999992,9.845143999999989,236
49.75666399999992,10.493143999999988,214
50.40466399999991,11.141143999999988,148
50.08066399999991,11.141143999999988,171
50.72866399999991,11.141143999999988,154
49.75666399999992,11.141143999999988,202
48.78466399999992,11.789143999999988,268
50.40466399999991,10.493143999999988,343
50.08066399999991,9.845143999999989,256
50.08066399999991,10.493143999999988,221
49.43266399999992,12.437143999999988,249
49.75666399999992,11.789143999999988,191
49.10866399999992,13.085143999999987,334
50.72866399999991,10.493143999999988,151
49.10866399999992,10.493143999999988,278
48.78466399999992,9.845143999999989,325
48.46066399999992,8.54914399999999,324
48.46066399999992,9.197143999999987,349
48.78466399999992,9.197143999999987,310
48.78466399999992,8.54914399999999,317
50.08066399999991,7.25314399999999,286
49.75666399999992,6.60514399999999,351
49.43266399999992,6.60514399999999,388
49.10866399999992,6.60514399999999,395
49.43266399999992,7.25314399999999,366
49.75666399999992,7.25314399999999,311
49.10866399999992,5.957143999999991,428
48.78466399999992,7.25314399999999,361
50.08066399999991,6.60514399999999,348
47.48866399999993,9.197143999999987,405
48.136663999999925,8.54914399999999,375
48.136663999999925,9.197143999999987,367
47.81266399999993,7.25314399999999,419
49.43266399999992,9.845143999999989,284
49.10866399999992,9.845143999999989,308
53.64466399999989,14.381143999999988,212
50.08066399999991,13.085143999999987,79
49.75666399999992,13.085143999999987,95
45.86866399999994,9.197143999999987,534
46.19266399999994,9.197143999999987,514
46.516663999999935,8.54914399999999,872
46.516663999999935,9.197143999999987,859
46.19266399999994,8.54914399999999,517
47.16466399999993,8.54914399999999,418
45.86866399999994,4.661143999999991,874
46.84066399999993,9.845143999999989,453
45.22066399999994,5.957143999999991,891
45.22066399999994,5.309143999999991,906
45.86866399999994,5.957143999999991,844
45.54466399999994,5.957143999999991,863
44.89666399999994,4.661143999999991,912
44.89666399999994,5.309143999999991,930
44.572663999999946,4.661143999999991,924
44.24866399999995,4.661143999999991,938
43.92466399999995,4.661143999999991,948
46.19266399999994,7.25314399999999,462
48.78466399999992,5.957143999999991,839
48.136663999999925,6.60514399999999,847
48.46066399999992,6.60514399999999,793
48.78466399999992,6.60514399999999,850
47.16466399999993,7.90114399999999,405
48.136663999999925,7.25314399999999,404
48.46066399999992,7.25314399999999,433
46.516663999999935,6.60514399999999,447
46.84066399999993,6.60514399999999,441
46.84066399999993,7.25314399999999,422
46.516663999999935,5.957143999999991,464
46.19266399999994,5.957143999999991,480
46.84066399999993,8.54914399999999,425
46.84066399999993,7.90114399999999,412
45.86866399999994,5.309143999999991,870
46.19266399999994,6.60514399999999,457
45.86866399999994,6.60514399999999,883
47.48866399999993,6.60514399999999,461
47.48866399999993,7.25314399999999,419
47.16466399999993,7.25314399999999,417
49.10866399999992,4.013143999999992,901
49.75666399999992,4.661143999999991,834
49.43266399999992,4.661143999999991,874
49.10866399999992,5.309143999999991,894
46.19266399999994,4.661143999999991,889
46.84066399999993,9.197143999999987,444
46.19266399999994,5.309143999999991,880
46.516663999999935,5.309143999999991,930
45.54466399999994,6.60514399999999,895
45.54466399999994,5.309143999999991,904
43.60066399999995,4.013143999999992,1000
43.60066399999995,3.365143999999992,1017
42.62866399999996,2.717143999999992,1120
43.276663999999954,2.717143999999992,1046
45.54466399999994,4.661143999999991,881
45.22066399999994,4.661143999999991,895
47.16466399999993,5.309143999999991,861
47.16466399999993,5.957143999999991,824
46.19266399999994,7.90114399999999,489
49.75666399999992,2.717143999999992,778
49.10866399999992,2.717143999999992,796
48.78466399999992,2.717143999999992,895
45.86866399999994,3.365143999999992,1014
46.84066399999993,3.365143999999992,952
46.516663999999935,3.365143999999992,1001
46.19266399999994,3.365143999999992,989
47.16466399999993,6.60514399999999,444
49.10866399999992,3.365143999999992,872
45.54466399999994,4.013143999999992,889
46.516663999999935,7.25314399999999,441
47.16466399999993,4.661143999999991,871
46.84066399999993,4.661143999999991,897
46.516663999999935,4.661143999999991,921
46.84066399999993,5.957143999999991,799
47.81266399999993,3.365143999999992,492
47.48866399999993,4.013143999999992,889
48.136663999999925,4.013143999999992,851
47.81266399999993,4.013143999999992,864
47.48866399999993,4.661143999999991,898
47.16466399999993,3.365143999999992,966
46.84066399999993,4.013143999999992,920
48.46066399999992,5.957143999999991,845
46.19266399999994,2.717143999999992,1078
47.16466399999993,2.0691439999999925,901
46.516663999999935,2.717143999999992,1174
46.84066399999993,2.717143999999992,951
46.84066399999993,2.0691439999999925,963
47.16466399999993,2.717143999999992,929
44.572663999999946,5.309143999999991,1044
44.572663999999946,5.957143999999991,1043
44.89666399999994,6.60514399999999,927
44.572663999999946,6.60514399999999,1009
43.60066399999995,5.309143999999991,990
43.92466399999995,7.25314399999999,1054
43.60066399999995,6.60514399999999,1042
43.276663999999954,6.60514399999999,1019
43.276663999999954,5.957143999999991,994
45.86866399999994,8.54914399999999,764
45.54466399999994,8.54914399999999,795
48.136663999999925,3.365143999999992,469
48.46066399999992,3.365143999999992,463
48.46066399999992,2.717143999999992,794
47.48866399999993,5.309143999999991,876
46.516663999999935,9.845143999999989,836
46.84066399999993,10.493143999999988,851
47.81266399999993,5.309143999999991,893
45.22066399999994,6.60514399999999,921
46.19266399999994,4.013143999999992,904
45.86866399999994,4.013143999999992,897
45.22066399999994,4.013143999999992,918
44.89666399999994,4.013143999999992,957
46.84066399999993,5.309143999999991,918
48.136663999999925,-1.8188560000000056,960
48.136663999999925,0.1251439999999934,912
48.136663999999925,-0.5228560000000062,921
47.48866399999993,-0.5228560000000062,912
47.16466399999993,-1.8188560000000056,975
47.48866399999993,0.7731439999999932,636
47.16466399999993,0.1251439999999934,871
45.86866399999994,7.25314399999999,888
48.136663999999925,5.309143999999991,924
49.10866399999992,4.661143999999991,942
48.46066399999992,4.013143999999992,894
48.136663999999925,4.661143999999991,940
47.81266399999993,6.60514399999999,837
47.48866399999993,5.957143999999991,855
48.136663999999925,5.957143999999991,1406
45.86866399999994,7.90114399999999,552
46.516663999999935,7.90114399999999,436
49.43266399999992,3.365143999999992,861
49.43266399999992,4.013143999999992,880
48.136663999999925,2.717143999999992,956
47.81266399999993,2.717143999999992,985
47.48866399999993,2.717143999999992,961
50.40466399999991,2.717143999999992,325
48.46066399999992,-4.410856000000004,1105
48.46066399999992,-3.7628560000000046,1086
48.46066399999992,-3.114856000000005,1063
48.46066399999992,-2.4668560000000053,1027
47.48866399999993,1.4211439999999929,571
47.16466399999993,1.4211439999999929,863
46.516663999999935,4.013143999999992,925
43.60066399999995,4.661143999999991,982
44.89666399999994,2.717143999999992,1247
45.22066399999994,2.717143999999992,1216
45.54466399999994,3.365143999999992,1021
45.22066399999994,3.365143999999992,962
47.48866399999993,3.365143999999992,1066
46.19266399999994,9.845143999999989,893
47.81266399999993,2.0691439999999925,495
47.48866399999993,2.0691439999999925,864
45.86866399999994,2.717143999999992,1240
44.89666399999994,5.957143999999991,947
45.22066399999994,1.4211439999999929,1140
44.89666399999994,1.4211439999999929,1166
44.89666399999994,2.0691439999999925,1201
43.276663999999954,2.0691439999999925,1096
43.60066399999995,1.4211439999999929,1104
48.78466399999992,4.661143999999991,947
48.78466399999992,5.309143999999991,920
46.19266399999994,2.0691439999999925,1382
45.86866399999994,1.4211439999999929,1074
46.19266399999994,1.4211439999999929,1104
44.572663999999946,4.013143999999992,1053
44.89666399999994,3.365143999999992,994
43.92466399999995,4.013143999999992,964
44.24866399999995,4.013143999999992,991
44.89666399999994,-0.5228560000000062,974
45.54466399999994,0.1251439999999934,976
46.516663999999935,0.1251439999999934,921
44.572663999999946,2.0691439999999925,1216
49.75666399999992,4.013143999999992,353
43.92466399999995,3.365143999999992,1116
43.92466399999995,2.717143999999992,1141
44.24866399999995,3.365143999999992,1167
44.572663999999946,3.365143999999992,1182
49.10866399999992,0.1251439999999934,919
49.43266399999992,0.7731439999999932,899
49.43266399999992,-1.8188560000000056,1041
49.10866399999992,-1.170856000000006,991
49.10866399999992,-0.5228560000000062,929
49.10866399999992,0.7731439999999932,946
49.10866399999992,1.4211439999999929,874
47.81266399999993,-1.8188560000000056,1021
47.81266399999993,-2.4668560000000053,1048
47.81266399999993,-3.114856000000005,1074
48.136663999999925,-3.7628560000000046,1111
44.572663999999946,9.197143999999987,896
44.89666399999994,8.54914399999999,869
45.22066399999994,9.197143999999987,829
45.54466399999994,10.493143999999988,907
44.572663999999946,10.493143999999988,1318
44.89666399999994,10.493143999999988,973
44.89666399999994,9.845143999999989,900
48.46066399999992,5.309143999999991,1095
50.91599999999999,-1.0580000000000025,65535
51.23999999999999,-0.4100000000000028,65535
50.91599999999999,-0.4100000000000028,65535
51.23999999999999,-2.354000000000002,65535
51.56399999999999,-2.354000000000002,65535
51.56399999999999,-3.0020000000000016,65535
50.91599999999999,-2.354000000000002,65535
53.50799999999997,-3.0020000000000016,65535
53.183999999999976,-2.354000000000002,65535
53.183999999999976,-3.0020000000000016,65535
52.85999999999998,-2.354000000000002,65535
52.21199999999998,-1.0580000000000025,65535
51.887999999999984,-1.0580000000000025,65535
52.53599999999998,-1.0580000000000025,65535
52.53599999999998,-1.7060000000000022,65535
52.85999999999998,-1.7060000000000022,65535
53.50799999999997,-2.354000000000002,65535
52.85999999999998,-1.0580000000000025,65535
52.53599999999998,1.5339999999999965,65535
52.53599999999998,0.8859999999999966,65535
52.53599999999998,0.2379999999999968,65535
52.53599999999998,-0.4100000000000028,65535
53.50799999999997,-1.7060000000000022,65535
53.183999999999976,-1.7060000000000022,65535
53.183999999999976,-1.0580000000000025,65535
52.85999999999998,-0.4100000000000028,65535
51.887999999999984,-2.354000000000002,65535
52.21199999999998,-2.354000000000002,65535
55.77599999999996,-2.354000000000002,65535
53.83199999999997,-1.0580000000000025,65535
53.83199999999997,-1.7060000000000022,65535
55.127999999999965,-1.7060000000000022,65535
54.80399999999997,-1.7060000000000022,65535
54.47999999999997,-1.7060000000000022,65535
54.15599999999997,-1.0580000000000025,65535
52.21199999999998,-1.7060000000000022,65535
53.50799999999997,-1.0580000000000025,65535
55.77599999999996,-3.0020000000000016,65535
55.45199999999996,-1.7060000000000022,65535
57.07199999999995,-2.354000000000002,65535
56.74799999999996,-3.0020000000000016,65535
56.42399999999996,-3.0020000000000016,65535
56.09999999999996,-3.650000000000001,65535
50.91599999999999,-3.0020000000000016,65535
50.91599999999999,-3.650000000000001,65535
50.59199999999999,-3.650000000000001,65535
50.59199999999999,-4.298000000000001,65535
51.23999999999999,-3.0020000000000016,65535
50.268,-4.946000000000001,65535
55.77599999999996,-3.650000000000001,65535
55.77599999999996,-4.298000000000001,65535
52.21199999999998,-0.4100000000000028,65535
52.53599999999998,-2.354000000000002,65535
51.56399999999999,-1.7060000000000022,65535
51.56399999999999,-3.650000000000001,65535
51.887999999999984,-4.298000000000001,65535
51.56399999999999,-4.298000000000001,65535
51.887999999999984,-1.7060000000000022,65535
52.21199999999998,-3.0020000000000016,65535
51.23999999999999,0.2379999999999968,65535
50.91599999999999,0.2379999999999968,65535
52.21199999999998,0.2379999999999968,65535
53.83199999999997,-3.0020000000000016,65535
54.15599999999997,-3.0020000000000016,65535
54.47999999999997,-3.0020000000000016,65535
55.127999999999965,-3.650000000000001,65535
54.80399999999997,-3.0020000000000016,65535
53.83199999999997,-2.354000000000002,65535
54.15599999999997,-0.4100000000000028,65535
54.47999999999997,-1.0580000000000025,65535
53.83199999999997,-0.4100000000000028,65535
53.183999999999976,-3.650000000000001,65535
53.183999999999976,-4.298000000000001,65535
52.85999999999998,-3.0020000000000016,65535
52.53599999999998,-3.0020000000000016,65535
51.887999999999984,-3.0020000000000016,65535
51.23999999999999,0.8859999999999966,65535
51.887999999999984,0.2379999999999968,65535
52.21199999999998,0.8859999999999966,65535
51.887999999999984,-4.946000000000001,65535
52.53599999999998,-3.650000000000001,65535
52.21199999999998,-4.298000000000001,65535
53.183999999999976,-0.4100000000000028,65535
51.23999999999999,-3.650000000000001,65535
51.887999999999984,-3.650000000000001,65535
52.21199999999998,-3.650000000000001,65535
51.56399999999999,0.8859999999999966,65535
51.887999999999984,0.8859999999999966,65535
52.85999999999998,0.8859999999999966,65535
53.50799999999997,-0.4100000000000028,65535
56.09999999999996,-4.298000000000001,65535
56.74799999999996,-4.946000000000001,65535
56.74799999999996,-4.298000000000001,65535
56.42399999999996,-4.946000000000001,65535
56.42399999999996,-4.298000000000001,65535
56.09999999999996,-4.946000000000001,65535
57.39599999999995,-4.298000000000001,65535
57.39599999999995,-3.0020000000000016,65535
57.39599999999995,-3.650000000000001,65535
56.42399999999996,-3.650000000000001,65535
57.07199999999995,-3.650000000000001,65535
57.07199999999995,-4.298000000000001,65535
56.74799999999996,-3.650000000000001,65535
59.15266399999986,27.34114399999998,65535
59.47666399999986,26.69314399999997,65535
59.47666399999986,26.04514399999998,65535
59.15266399999986,26.04514399999998,65535
59.15266399999986,24.74914399999998,65535
59.15266399999986,25.397143999999983,65535
59.47666399999986,25.397143999999983,65535
58.50466399999986,26.69314399999997,65535
58.82866399999986,26.69314399999997,65535
57.85666399999987,26.04514399999998,65535
58.180663999999865,26.04514399999998,65535
58.180663999999865,26.69314399999997,65535
58.82866399999986,26.04514399999998,65535
58.50466399999986,25.397143999999983,65535
58.82866399999986,25.397143999999983,65535
58.82866399999986,24.74914399999998,65535
58.180663999999865,27.34114399999998,65535
57.85666399999987,27.34114399999998,65535
63.68866399999983,27.34114399999998,7077
60.124663999999854,24.74914399999998,3733
60.44866399999985,24.74914399999998,3702
60.44866399999985,25.397143999999983,3714
60.77266399999985,25.397143999999983,4425
61.09666399999985,26.04514399999998,4468
60.77266399999985,26.04514399999998,4476
60.77266399999985,26.69314399999997,4495
61.09666399999985,25.397143999999983,4459
61.09666399999985,26.69314399999997,7198
61.420663999999846,26.69314399999997,7220
61.74466399999984,27.34114399999998,7244
62.06866399999984,27.34114399999998,7269
62.39266399999984,27.34114399999998,7293
62.71666399999984,27.34114399999998,7257
64.01266399999983,27.34114399999998,7033
63.36466399999984,27.34114399999998,7145
63.04066399999984,27.34114399999998,7185
63.04066399999984,27.989143999999985,7200
64.33666399999983,27.989143999999985,4784
64.33666399999983,27.34114399999998,4729
64.66066399999983,27.34114399999998,4714
64.66066399999983,26.69314399999997,4659
64.98466399999982,25.397143999999983,3079
64.66066399999983,26.04514399999998,4640
64.98466399999982,26.04514399999998,4624
66.28066399999982,25.397143999999983,3251
65.95666399999982,24.74914399999998,2992
65.63266399999982,24.74914399999998,2996
65.63266399999982,25.397143999999983,3038
65.30866399999982,25.397143999999983,3059
66.60466399999981,25.397143999999983,3285
64.01266399999983,24.74914399999998,3216
64.01266399999983,24.101143999999977,3251
64.01266399999983,23.45314399999998,3275
63.68866399999983,23.45314399999998,3287
63.68866399999983,22.805143999999984,3312
63.68866399999983,26.04514399999998,5344
63.68866399999983,25.397143999999983,5310
63.68866399999983,26.69314399999997,7044
60.44866399999985,26.69314399999997,7829
64.01266399999983,27.989143999999985,7463
62.71666399999984,22.805143999999984,3434
62.39266399999984,22.805143999999984,3466
62.06866399999984,22.805143999999984,3495
62.06866399999984,23.45314399999998,3511
61.74466399999984,23.45314399999998,3523
61.420663999999846,23.45314399999998,3571
61.09666399999985,23.45314399999998,3612
61.09666399999985,24.101143999999977,3619
61.09666399999985,24.74914399999998,3653
60.77266399999985,24.74914399999998,3669
63.04066399999984,21.50914399999997,65535
63.04066399999984,22.15714399999998,65535
63.04066399999984,22.805143999999984,3398
62.39266399999984,26.04514399999998,7441
62.06866399999984,25.397143999999983,7490
61.74466399999984,25.397143999999983,7558
61.74466399999984,24.74914399999998,7595
61.74466399999984,24.101143999999977,3800
61.420663999999846,24.101143999999977,3755
62.39266399999984,26.69314399999997,7412
64.66066399999983,25.397143999999983,3148
64.66066399999983,24.74914399999998,3166
64.33666399999983,24.74914399999998,3177
63.36466399999984,22.805143999999984,3337
67.25266399999981,24.101143999999977,6865
66.92866399999981,24.101143999999977,6829
66.60466399999981,23.45314399999998,6798
66.28066399999982,23.45314399999998,6780
66.28066399999982,24.101143999999977,6762
65.95666399999982,24.101143999999977,2364
60.124663999999854,24.101143999999977,5247
60.124663999999854,23.45314399999998,6105
60.44866399999985,22.805143999999984,6164
60.77266399999985,27.34114399999998,4547
61.09666399999985,27.989143999999985,4577
61.09666399999985,28.63714399999997,4615
61.420663999999846,29.28514399999997,4650
61.74466399999984,29.933143999999977,4687
62.06866399999984,29.933143999999977,4713
62.39266399999984,29.933143999999977,4729
62.71666399999984,29.933143999999977,4753
61.420663999999846,22.805143999999984,5858
61.420663999999846,22.15714399999998,6566
61.09666399999985,22.15714399999998,5904
61.420663999999846,21.50914399999997,6699
62.39266399999984,27.989143999999985,65535
62.06866399999984,27.989143999999985,65535
61.420663999999846,27.34114399999998,65535
63.04066399999984,29.933143999999977,6692
63.68866399999983,29.28514399999997,8475
63.36466399999984,29.28514399999997,8455
63.36466399999984,29.933143999999977,8414
60.44866399999985,27.34114399999998,65535
61.74466399999984,29.28514399999997,65535
62.39266399999984,30.58114399999998,65535
62.71666399999984,31.229143999999977,65535
62.71666399999984,29.28514399999997,65535
63.04066399999984,28.63714399999997,65535
66.60466399999981,26.04514399999998,6106
66.60466399999981,26.69314399999997,6142
66.60466399999981,27.34114399999998,6165
62.71666399999984,26.04514399999998,7326
62.71666399999984,25.397143999999983,7295
63.04066399999984,25.397143999999983,7115
63.36466399999984,25.397143999999983,5752
62.71666399999984,23.45314399999998,7320
62.39266399999984,24.101143999999977,65535
62.71666399999984,22.15714399999998,65535
62.39266399999984,22.15714399999998,65535
62.39266399999984,21.50914399999997,65535
61.09666399999985,21.50914399999997,5934
60.77266399999985,22.805143999999984,3972
60.44866399999985,22.15714399999998,4002
60.77266399999985,23.45314399999998,3959
60.77266399999985,21.50914399999997,5073
60.77266399999985,22.15714399999998,5026
60.124663999999854,22.805143999999984,8119
60.44866399999985,24.101143999999977,5232
62.06866399999984,24.74914399999998,65535
50.72866399999991,16.325143999999987,143
50.40466399999991,16.973143999999984,193
50.72866399999991,16.973143999999984,189
50.40466399999991,16.325143999999987,191
50.08066399999991,16.973143999999984,178
50.08066399999991,16.325143999999987,93
51.700663999999904,16.973143999999984,132
51.37666399999991,16.973143999999984,156
51.05266399999991,15.677143999999986,142
50.72866399999991,15.677143999999986,165
51.05266399999991,17.621143999999987,144
51.37666399999991,17.621143999999987,161
51.700663999999904,17.621143999999987,221
51.700663999999904,16.325143999999987,113
52.0246639999999,22.15714399999998,838
52.0246639999999,21.50914399999997,774
52.3486639999999,21.50914399999997,774
52.0246639999999,20.86114399999998,756
51.700663999999904,20.86114399999998,750
51.37666399999991,21.50914399999997,742
51.37666399999991,20.86114399999998,738
51.05266399999991,20.86114399999998,430
52.6726639999999,23.45314399999998,947
52.3486639999999,22.805143999999984,887
52.3486639999999,20.213143999999986,794
52.0246639999999,20.213143999999986,762
52.3486639999999,19.565143999999982,848
52.6726639999999,19.565143999999982,885
51.700663999999904,21.50914399999997,795
51.700663999999904,22.15714399999998,829
52.6726639999999,21.50914399999997,835
52.996663999999896,21.50914399999997,907
52.6726639999999,20.86114399999998,811
52.6726639999999,22.15714399999998,859
52.6726639999999,20.213143999999986,847
52.996663999999896,19.565143999999982,918
52.996663999999896,20.86114399999998,856
52.996663999999896,20.213143999999986,911
53.32066399999989,20.213143999999986,885
51.37666399999991,20.213143999999986,783
52.3486639999999,16.973143999999984,193
52.0246639999999,16.973143999999984,166
52.0246639999999,16.325143999999987,143
52.0246639999999,17.621143999999987,214
52.6726639999999,16.973143999999984,197
52.996663999999896,16.973143999999984,217
52.3486639999999,16.325143999999987,179
52.3486639999999,15.677143999999986,188
51.700663999999904,18.269143999999983,284
52.6726639999999,17.621143999999987,222
52.3486639999999,17.621143999999987,208
52.6726639999999,18.269143999999983,338
52.3486639999999,18.269143999999983,258
52.3486639999999,18.917143999999983,295
52.996663999999896,17.621143999999987,237
51.700663999999904,19.565143999999982,830
51.700663999999904,18.917143999999983,906
51.37666399999991,18.269143999999983,197
58.82866399999986,9.197143999999987,1328
58.180663999999865,7.90114399999999,1421
58.50466399999986,8.54914399999999,1372
63.36466399999984,10.493143999999988,1543
63.36466399999984,11.141143999999988,1550
63.36466399999984,11.789143999999988,1585
63.68866399999983,11.789143999999988,1613
64.33666399999983,12.437143999999988,2014
64.66066399999983,12.437143999999988,2509
65.63266399999982,13.085143999999987,2166
65.95666399999982,13.085143999999987,2201
66.28066399999982,14.381143999999988,2271
65.95666399999982,13.733143999999989,2340
66.28066399999982,13.733143999999989,2249
65.30866399999982,13.085143999999987,2467
64.98466399999982,13.085143999999987,2101
64.01266399999983,11.789143999999988,1644
63.68866399999983,11.141143999999988,1581
59.800663999999855,10.493143999999988,1124
59.800663999999855,11.141143999999988,1107
60.124663999999854,11.141143999999988,1122
60.44866399999985,11.141143999999988,1135
60.124663999999854,11.789143999999988,1148
60.77266399999985,7.25314399999999,1384
60.77266399999985,6.60514399999999,1430
59.15266399999986,9.197143999999987,1210
59.47666399999986,9.197143999999987,1231
59.800663999999855,9.845143999999989,1126
59.47666399999986,11.141143999999988,1071
61.09666399999985,10.493143999999988,1245
60.77266399999985,10.493143999999988,1215
60.77266399999985,11.141143999999988,1170
62.06866399999984,9.197143999999987,1570
61.74466399999984,9.845143999999989,1516
61.420663999999846,9.845143999999989,1493
59.15266399999986,9.845143999999989,1190
59.47666399999986,9.845143999999989,1166
58.82866399999986,5.957143999999991,1605
58.180663999999865,7.25314399999999,1477
58.50466399999986,7.25314399999999,1510
58.50466399999986,6.60514399999999,1515
58.50466399999986,5.957143999999991,1573
58.82866399999986,8.54914399999999,1358
60.44866399999985,7.25314399999999,1358
60.44866399999985,7.90114399999999,1319
60.124663999999854,10.493143999999988,1156
60.44866399999985,9.197143999999987,1268
60.77266399999985,9.197143999999987,1280
60.77266399999985,8.54914399999999,1299
60.124663999999854,9.845143999999989,1535
60.44866399999985,10.493143999999988,1201
63.04066399999984,10.493143999999988,1494
62.06866399999984,9.845143999999989,1595
62.39266399999984,9.845143999999989,1603
62.71666399999984,9.845143999999989,1627
59.47666399999986,14.381143999999988,1120
59.47666399999986,13.733143999999989,1061
59.47666399999986,13.085143999999987,1037
59.800663999999855,12.437143999999988,1106
59.15266399999986,11.141143999999988,1035
59.15266399999986,14.381143999999988,1134
58.82866399999986,11.789143999999988,1015
58.50466399999986,12.437143999999988,945
58.180663999999865,12.437143999999988,938
57.85666399999987,11.789143999999988,889
62.71666399999984,7.90114399999999,1656
62.39266399999984,7.90114399999999,1613
62.06866399999984,8.54914399999999,1588
60.44866399999985,5.309143999999991,1504
60.44866399999985,5.957143999999991,1471
60.77266399999985,5.957143999999991,1460
62.39266399999984,11.141143999999988,1391
62.06866399999984,10.493143999999988,1346
61.74466399999984,11.141143999999988,1319
61.420663999999846,11.141143999999988,1273
61.09666399999985,11.141143999999988,1256
60.77266399999985,11.789143999999988,1233
63.04066399999984,11.141143999999988,1472
62.71666399999984,11.141143999999988,1415
62.39266399999984,10.493143999999988,1373
67.25266399999981,15.677143999999986,2390
67.25266399999981,15.029143999999986,2428
67.25266399999981,14.381143999999988,2456
66.92866399999981,15.029143999999986,2379
66.60466399999981,15.677143999999986,2357
64.01266399999983,11.141143999999988,1628
66.60466399999981,15.029143999999986,2420
54.29266399999989,18.269143999999983,760
54.616663999999886,17.621143999999987,822
53.96866399999989,18.269143999999983,748
43.92466399999995,1.4211439999999929,1088
44.24866399999995,0.7731439999999932,1042
44.572663999999946,0.1251439999999934,1025
46.84066399999993,1.4211439999999929,986
44.572663999999946,1.4211439999999929,1212
44.24866399999995,1.4211439999999929,1190
45.54466399999994,1.4211439999999929,1118
46.516663999999935,1.4211439999999929,1004
42.30466399999996,2.717143999999992,1176
44.24866399999995,2.717143999999992,1274
44.572663999999946,2.717143999999992,1279
43.92466399999995,2.0691439999999925,1190
42.30466399999996,2.0691439999999925,1229
42.62866399999996,2.0691439999999925,1170
42.62866399999996,1.4211439999999929,1163
42.95266399999996,1.4211439999999929,1132
43.276663999999954,1.4211439999999929,1112
46.516663999999935,-1.170856000000006,1020
46.19266399999994,-1.170856000000006,1040
45.86866399999994,-0.5228560000000062,1112
45.54466399999994,-0.5228560000000062,1100
48.46066399999992,1.4211439999999929,415
41.332663999999966,2.0691439999999925,1234
41.98066399999996,2.717143999999992,1193
48.46066399999992,-1.8188560000000056,970
47.81266399999993,0.7731439999999932,874
46.84066399999993,0.7731439999999932,893
44.572663999999946,-1.170856000000006,985
43.60066399999995,-1.170856000000006,1054
43.276663999999954,-1.8188560000000056,1102
43.276663999999954,0.1251439999999934,1187
42.95266399999996,0.1251439999999934,1161
43.276663999999954,-0.5228560000000062,1106
43.60066399999995,-0.5228560000000062,1094
47.81266399999993,-3.7628560000000046,1096
47.48866399999993,-2.4668560000000053,1034
47.81266399999993,-0.5228560000000062,929
46.516663999999935,-1.8188560000000056,1092
48.136663999999925,-1.170856000000006,932
47.48866399999993,-1.170856000000006,956
45.22066399999994,8.54914399999999,816
45.22066399999994,7.90114399999999,836
46.19266399999994,-0.5228560000000062,1009
46.516663999999935,-0.5228560000000062,990
48.78466399999992,-3.114856000000005,1104
50.72866399999991,2.0691439999999925,335
50.40466399999991,2.0691439999999925,788
40.36066399999997,-3.7628560000000046,1425
41.65666399999997,-1.170856000000006,1342
41.332663999999966,1.4211439999999929,1280
43.276663999999954,13.733143999999989,3910
42.95266399999996,13.733143999999989,3932
41.65666399999997,15.029143999999986,4016
40.68466399999997,17.621143999999987,4178
43.60066399999995,13.085143999999987,3903
41.65666399999997,12.437143999999988,2569
41.65666399999997,13.085143999999987,2588
41.98066399999996,13.085143999999987,2638
41.65666399999997,13.733143999999989,2640
41.332663999999966,13.733143999999989,2632
41.332663999999966,14.381143999999988,2789
41.00866399999997,14.381143999999988,2695
41.332663999999966,13.085143999999987,2614
41.00866399999997,15.029143999999986,2895
41.98066399999996,13.733143999999989,2837
42.30466399999996,14.381143999999988,2976
42.30466399999996,12.437143999999988,2577
42.62866399999996,12.437143999999988,2756
42.95266399999996,12.437143999999988,3041
42.30466399999996,11.789143999999988,2586
42.95266399999996,11.789143999999988,2796
42.62866399999996,11.789143999999988,2787
43.276663999999954,11.789143999999988,2850
42.95266399999996,13.085143999999987,3804
42.30466399999996,13.085143999999987,2863
43.276663999999954,13.085143999999987,3852
43.276663999999954,12.437143999999988,3859
42.62866399999996,11.141143999999988,2632
42.95266399999996,11.141143999999988,2675
42.95266399999996,10.493143999999988,2693
44.572663999999946,8.54914399999999,890
44.89666399999994,7.90114399999999,847
44.89666399999994,9.197143999999987,888
44.24866399999995,7.90114399999999,879
44.572663999999946,7.90114399999999,860
43.92466399999995,7.90114399999999,1059
44.24866399999995,7.25314399999999,876
44.89666399999994,7.25314399999999,858
45.22066399999994,7.25314399999999,868
45.54466399999994,7.90114399999999,844
44.572663999999946,7.25314399999999,922
52.996663999999896,22.805143999999984,963
52.996663999999896,23.45314399999998,982
51.37666399999991,22.15714399999998,843
51.37666399999991,22.805143999999984,903
50.08066399999991,20.213143999999986,287
50.72866399999991,20.213143999999986,322
50.40466399999991,20.213143999999986,293
50.08066399999991,20.86114399999998,785
50.08066399999991,21.50914399999997,808
50.08066399999991,22.15714399999998,817
50.08066399999991,22.805143999999984,830
53.96866399999989,22.805143999999984,1121
53.64466399999989,23.45314399999998,1075
53.32066399999989,23.45314399999998,1022
50.40466399999991,19.565143999999982,234
50.08066399999991,18.917143999999983,240
50.08066399999991,18.269143999999983,321
52.0246639999999,22.805143999999984,882
52.0246639999999,23.45314399999998,922
51.37666399999991,19.565143999999982,819
51.05266399999991,19.565143999999982,421
50.72866399999991,18.917143999999983,190
50.72866399999991,19.565143999999982,412
49.75666399999992,18.917143999999983,270
50.40466399999991,18.269143999999983,190
53.64466399999989,19.565143999999982,808
53.96866399999989,18.917143999999983,790
53.64466399999989,18.917143999999983,807
53.64466399999989,20.213143999999986,847
52.996663999999896,18.917143999999983,358
52.996663999999896,18.269143999999983,325
53.32066399999989,18.917143999999983,433
50.72866399999991,17.621143999999987,151
50.72866399999991,18.269143999999983,175
52.6726639999999,16.325143999999987,206
52.996663999999896,16.325143999999987,220
52.996663999999896,15.677143999999986,193
53.32066399999989,15.677143999999986,226
53.32066399999989,15.029143999999986,207
53.64466399999989,15.029143999999986,219
53.96866399999989,15.029143999999986,245
52.6726639999999,18.917143999999983,348
53.32066399999989,16.325143999999987,836
52.6726639999999,15.029143999999986,121
51.05266399999991,22.805143999999984,911
51.05266399999991,23.45314399999998,983
50.72866399999991,22.15714399999998,898
50.40466399999991,22.15714399999998,840
51.05266399999991,22.15714399999998,900
54.616663999999886,16.973143999999984,838
54.29266399999989,16.325143999999987,305
53.96866399999989,15.677143999999986,282
50.72866399999991,21.50914399999997,896
50.40466399999991,21.50914399999997,848
50.40466399999991,17.621143999999987,261
53.32066399999989,22.805143999999984,1114
53.64466399999989,22.15714399999998,1138
54.29266399999989,16.973143999999984,818
50.72866399999991,20.86114399999998,362
51.700663999999904,22.805143999999984,1000
51.05266399999991,21.50914399999997,802
50.08066399999991,19.565143999999982,254
52.0246639999999,18.917143999999983,8008
52.0246639999999,19.565143999999982,8001
53.64466399999989,18.269143999999983,445
51.700663999999904,20.213143999999986,806
53.32066399999989,19.565143999999982,799
50.72866399999991,23.45314399999998,1195
50.72866399999991,22.805143999999984,1164
49.43266399999992,20.213143999999986,466
49.75666399999992,21.50914399999997,838
49.75666399999992,22.15714399999998,1351
49.43266399999992,22.15714399999998,1113
51.05266399999991,18.917143999999983,225
51.05266399999991,18.269143999999983,273
53.32066399999989,16.973143999999984,405
53.64466399999989,16.973143999999984,362
49.75666399999992,20.86114399999998,850
50.40466399999991,22.805143999999984,8090
53.64466399999989,16.325143999999987,316
53.96866399999989,20.86114399999998,1026
54.29266399999989,20.86114399999998,1072
53.96866399999989,21.50914399999997,1089
53.64466399999989,15.677143999999986,279
53.96866399999989,20.213143999999986,858
53.96866399999989,19.565143999999982,827
54.29266399999989,19.565143999999982,841
53.96866399999989,16.325143999999987,294
53.64466399999989,17.621143999999987,846
53.96866399999989,22.15714399999998,1156
53.64466399999989,21.50914399999997,1094
53.64466399999989,20.86114399999998,872
52.6726639999999,15.677143999999986,174
51.05266399999991,20.213143999999986,769
54.940663999999884,24.101143999999977,3201
54.616663999999886,23.45314399999998,3145
54.29266399999989,23.45314399999998,3008
53.64466399999989,22.805143999999984,1163
53.96866399999989,16.973143999999984,810
50.40466399999991,20.86114399999998,826
53.32066399999989,18.269143999999983,408
49.75666399999992,19.565143999999982,266
50.40466399999991,23.45314399999998,1516
49.75666399999992,20.213143999999986,470
49.43266399999992,19.565143999999982,418
49.43266399999992,20.86114399999998,863
53.96866399999989,17.621143999999987,1054
42.30466399999996,-1.8188560000000056,8319
41.98066399999996,-1.8188560000000056,8302
41.65666399999997,0.7731439999999932,8306
42.62866399999996,-1.8188560000000056,8434
42.95266399999996,-1.8188560000000056,8463
42.62866399999996,-3.114856000000005,8557
42.95266399999996,-2.4668560000000053,8535
42.62866399999996,-7.650856000000003,8899
42.30466399999996,-7.650856000000003,8959
42.30466399999996,-8.946856000000002,9095
42.30466399999996,-8.298856000000002,9069
41.98066399999996,-8.298856000000002,9058
42.30466399999996,-7.002856000000003,8841
42.62866399999996,-6.354856000000003,8783
42.30466399999996,-6.354856000000003,8738
42.62866399999996,-5.706856000000004,8238
41.98066399999996,-4.410856000000004,8192
42.30466399999996,-3.7628560000000046,8583
40.03666399999997,-0.5228560000000062,8286
39.38866399999998,-0.5228560000000062,8334
41.00866399999997,0.7731439999999932,8434
40.68466399999997,0.7731439999999932,8466
40.36066399999997,0.1251439999999934,8544
39.712663999999975,-0.5228560000000062,8443
38.41666399999998,-0.5228560000000062,8455
39.06466399999998,-0.5228560000000062,8577
38.74066399999998,-1.170856000000006,8463
41.332663999999966,0.7731439999999932,8494
41.65666399999997,2.717143999999992,8094
41.65666399999997,2.0691439999999925,8117
41.332663999999966,0.1251439999999934,8452
41.332663999999966,-0.5228560000000062,8396
41.65666399999997,-4.410856000000004,8166
40.03666399999997,-2.4668560000000053,8404
41.00866399999997,-4.410856000000004,8287
43.276663999999954,-5.706856000000004,8368
39.38866399999998,-1.170856000000006,8429
38.09266399999999,-1.170856000000006,8842
38.74066399999998,-0.5228560000000062,8605
37.76866399999999,-1.170856000000006,8907
39.06466399999998,-1.8188560000000056,8427
39.38866399999998,-3.114856000000005,8327
39.38866399999998,-2.4668560000000053,8383
39.06466399999998,-2.4668560000000053,8410
39.06466399999998,-3.114856000000005,8331
39.06466399999998,-3.7628560000000046,8305
38.74066399999998,-3.7628560000000046,8384
40.03666399999997,-3.7628560000000046,8283
40.03666399999997,-3.114856000000005,8483
40.03666399999997,-1.8188560000000056,8564
39.712663999999975,-1.8188560000000056,8529
39.712663999999975,-1.170856000000006,8465
40.36066399999997,-1.170856000000006,8484
40.68466399999997,-1.170856000000006,8462
41.00866399999997,-1.170856000000006,8450
41.332663999999966,-1.170856000000006,8290
43.276663999999954,-8.298856000000002,9059
42.95266399999996,-8.298856000000002,9027
41.65666399999997,-5.706856000000004,65535
41.98066399999996,-7.002856000000003,65535
41.98066399999996,-6.354856000000003,65535
41.332663999999966,-5.058856000000004,8405
43.276663999999954,-3.7628560000000046,8840
42.95266399999996,-4.410856000000004,8774
42.62866399999996,-4.410856000000004,8764
42.30466399999996,-4.410856000000004,8723
41.00866399999997,-5.706856000000004,8343
41.332663999999966,-1.8188560000000056,8236
40.68466399999997,-3.114856000000005,8190
41.00866399999997,-3.114856000000005,8241
41.00866399999997,-2.4668560000000053,8264
41.332663999999966,-2.4668560000000053,8317
40.68466399999997,-4.410856000000004,8227
40.36066399999997,-4.410856000000004,8311
40.68466399999997,-3.7628560000000046,8219
40.36066399999997,-3.114856000000005,8197
41.65666399999997,-2.4668560000000053,8334
38.09266399999999,-3.7628560000000046,8431
38.74066399999998,-3.114856000000005,8375
37.76866399999999,-3.7628560000000046,8488
39.712663999999975,-3.114856000000005,8319
38.41666399999998,-3.7628560000000046,8396
40.03666399999997,-4.410856000000004,65535
40.03666399999997,-5.058856000000004,65535
39.38866399999998,-6.354856000000003,65535
39.38866399999998,-7.002856000000003,65535
42.95266399999996,-3.114856000000005,8968
41.98066399999996,-1.170856000000006,8331
42.30466399999996,-2.4668560000000053,8372
41.65666399999997,-0.5228560000000062,8429
41.98066399999996,-0.5228560000000062,8266
41.65666399999997,0.1251439999999934,8293
41.98066399999996,0.1251439999999934,8315
37.76866399999999,-5.058856000000004,8367
36.79666399999999,-4.410856000000004,8426
38.74066399999998,-4.410856000000004,8323
37.12066399999999,-4.410856000000004,8400
37.44466399999999,-5.058856000000004,8924
37.44466399999999,-7.002856000000003,65535
37.44466399999999,-6.354856000000003,65535
37.44466399999999,-5.706856000000004,8600
39.712663999999975,-3.7628560000000046,8393
42.62866399999996,-8.946856000000002,65535
42.30466399999996,-5.706856000000004,8745
42.30466399999996,-5.058856000000004,8830
42.95266399999996,-5.706856000000004,8270
41.00866399999997,-5.058856000000004,8311
40.68466399999997,-5.058856000000004,8285
41.65666399999997,-5.058856000000004,65535
41.65666399999997,-6.354856000000003,65535
36.79666399999999,-6.354856000000003,65535
37.12066399999999,-5.706856000000004,8768
37.76866399999999,-5.706856000000004,8567
38.09266399999999,-4.410856000000004,8702
37.12066399999999,-5.058856000000004,8722
36.79666399999999,-5.058856000000004,8680
37.76866399999999,-4.410856000000004,65535
37.76866399999999,-7.002856000000003,65535
38.41666399999998,-6.354856000000003,65535
38.09266399999999,-6.354856000000003,65535
48.78466399999992,1.4211439999999929,945
56.23666399999988,8.54914399999999,6610
55.58866399999988,9.197143999999987,6415
55.91266399999988,9.197143999999987,6556
55.26466399999988,10.493143999999988,594
55.91266399999988,12.437143999999988,729
55.58866399999988,11.789143999999988,6255
55.58866399999988,11.141143999999988,6296
55.26466399999988,11.789143999999988,6288
55.58866399999988,10.493143999999988,6411
55.58866399999988,13.085143999999987,686
56.88466399999987,9.845143999999989,6562
57.20866399999987,9.845143999999989,6597
56.56066399999988,9.845143999999989,6534
56.88466399999987,8.54914399999999,6649
54.940663999999884,9.845143999999989,7756
54.940663999999884,11.789143999999988,6512
55.91266399999988,13.085143999999987,744
56.23666399999988,13.733143999999989,788
55.91266399999988,13.733143999999989,791
56.23666399999988,14.381143999999988,811
56.23666399999988,15.029143999999986,852
56.23666399999988,15.677143999999986,907
56.56066399999988,14.381143999999988,868
56.88466399999987,14.381143999999988,838
56.23666399999988,13.085143999999987,736
56.56066399999988,13.085143999999987,816
56.88466399999987,12.437143999999988,853
57.20866399999987,12.437143999999988,869
57.53266399999987,12.437143999999988,884
56.88466399999987,15.029143999999986,864
56.56066399999988,15.677143999999986,924
56.88466399999987,15.677143999999986,943
56.88466399999987,16.325143999999987,958
55.91266399999988,11.789143999999988,6581
57.20866399999987,10.493143999999988,6784
49.43266399999992,1.4211439999999929,893
49.75666399999992,0.7731439999999932,921
49.75666399999992,2.0691439999999925,374
50.08066399999991,2.717143999999992,355
49.75666399999992,1.4211439999999929,874
47.81266399999993,1.4211439999999929,829
48.136663999999925,2.0691439999999925,873
48.46066399999992,2.0691439999999925,854
48.136663999999925,1.4211439999999929,843
48.78466399999992,0.1251439999999934,946
48.46066399999992,0.1251439999999934,925
47.81266399999993,0.1251439999999934,886
46.84066399999993,-0.5228560000000062,1122
47.16466399999993,0.7731439999999932,863
46.84066399999993,0.1251439999999934,954
46.84066399999993,-1.170856000000006,992
50.08066399999991,1.4211439999999929,807
50.08066399999991,2.0691439999999925,824
49.43266399999992,2.717143999999992,771
49.75666399999992,3.365143999999992,859
50.08066399999991,3.365143999999992,817
49.10866399999992,2.0691439999999925,876
49.43266399999992,2.0691439999999925,872
48.78466399999992,0.7731439999999932,996
48.78466399999992,-0.5228560000000062,1067
48.78466399999992,-1.170856000000006,1097
48.136663999999925,0.7731439999999932,907
48.46066399999992,0.7731439999999932,880
43.92466399999995,5.957143999999991,1027
44.24866399999995,5.957143999999991,1065
43.92466399999995,5.309143999999991,972
42.95266399999996,2.717143999999992,1097
45.54466399999994,2.0691439999999925,1154
45.22066399999994,2.0691439999999925,1186
42.95266399999996,2.0691439999999925,1129
42.95266399999996,0.7731439999999932,1159
43.276663999999954,0.7731439999999932,1135
46.19266399999994,0.7731439999999932,1051
46.516663999999935,0.7731439999999932,1023
45.86866399999994,0.1251439999999934,945
46.19266399999994,0.1251439999999934,936
47.81266399999993,-1.170856000000006,1323
48.136663999999925,-2.4668560000000053,1021
47.48866399999993,-1.8188560000000056,1014
47.16466399999993,-1.170856000000006,967
47.16466399999993,-0.5228560000000062,949
46.84066399999993,-1.8188560000000056,1196
45.22066399999994,-0.5228560000000062,980
44.89666399999994,0.1251439999999934,1022
45.22066399999994,0.7731439999999932,1061
45.54466399999994,0.7731439999999932,1133
45.86866399999994,0.7731439999999932,1242
45.22066399999994,0.1251439999999934,1081
44.89666399999994,0.7731439999999932,1072
43.92466399999995,-0.5228560000000062,1296
43.92466399999995,-1.170856000000006,1034
44.24866399999995,-1.170856000000006,1015
45.22066399999994,-1.170856000000006,1008
44.572663999999946,-0.5228560000000062,1003
44.24866399999995,0.1251439999999934,1050
44.572663999999946,0.7731439999999932,1062
43.276663999999954,-1.170856000000006,1116
42.95266399999996,-0.5228560000000062,1413
44.24866399999995,2.0691439999999925,1238
43.60066399999995,0.7731439999999932,1151
43.60066399999995,2.0691439999999925,1215
52.6726639999999,4.661143999999991,6601
52.6726639999999,5.309143999999991,6624
51.700663999999904,5.309143999999991,6569
52.0246639999999,5.309143999999991,6581
52.3486639999999,5.309143999999991,6597
51.37666399999991,4.013143999999992,6577
52.3486639999999,5.957143999999991,6591
52.0246639999999,6.60514399999999,6621
52.6726639999999,5.957143999999991,6608
52.996663999999896,5.957143999999991,6621
53.32066399999989,5.957143999999991,6615
52.996663999999896,6.60514399999999,6597
53.32066399999989,6.60514399999999,6589
52.6726639999999,6.60514399999999,6617
52.996663999999896,5.309143999999991,6636
59.15266399999986,24.101143999999977,65535
56.88466399999987,24.101143999999977,65535
56.88466399999987,23.45314399999998,65535
56.88466399999987,22.805143999999984,65535
57.20866399999987,24.74914399999998,65535
56.88466399999987,24.74914399999998,65535
56.56066399999988,24.74914399999998,65535
56.56066399999988,25.397143999999983,65535
56.56066399999988,24.101143999999977,65535
56.56066399999988,23.45314399999998,65535
56.56066399999988,26.04514399999998,65535
56.88466399999987,26.04514399999998,65535
57.20866399999987,25.397143999999983,65535
57.53266399999987,25.397143999999983,65535
56.23666399999988,26.04514399999998,65535
56.23666399999988,26.69314399999997,65535
55.91266399999988,26.69314399999997,65535
56.56066399999988,26.69314399999997,65535
56.56066399999988,27.34114399999998,65535
56.56066399999988,27.989143999999985,65535
56.23666399999988,27.989143999999985,65535
55.91266399999988,27.34114399999998,65535
56.56066399999988,22.805143999999984,65535
56.56066399999988,22.15714399999998,65535
56.56066399999988,21.50914399999997,65535
57.20866399999987,26.69314399999997,65535
39.06466399999998,-8.946856000000002,65535
38.41666399999998,-8.298856000000002,65535
45.86866399999994,11.789143999999988,1588
46.19266399999994,11.789143999999988,1575
46.19266399999994,10.493143999999988,1615
45.22066399999994,18.269143999999983,1452
45.22066399999994,18.917143999999983,1493
45.54466399999994,16.973143999999984,1279
45.22066399999994,17.621143999999987,1396
45.86866399999994,16.325143999999987,1148
45.54466399999994,18.917143999999983,1493
45.54466399999994,16.325143999999987,1174
45.54466399999994,18.269143999999983,1400
44.89666399999994,18.917143999999983,1690
46.19266399999994,16.973143999999984,1239
46.19266399999994,16.325143999999987,1205
45.86866399999994,16.973143999999984,1198
45.86866399999994,17.621143999999987,1241
46.19266399999994,15.677143999999986,1113
46.516663999999935,16.325143999999987,1178
45.54466399999994,15.677143999999986,1197
45.22066399999994,15.029143999999986,1179
45.54466399999994,15.029143999999986,1161
45.22066399999994,15.677143999999986,1244
44.572663999999946,15.677143999999986,1579
44.24866399999995,15.677143999999986,1600
43.92466399999995,16.325143999999987,1664
44.89666399999994,15.677143999999986,1543
45.54466399999994,17.621143999999987,1366
45.22066399999994,16.325143999999987,1233
46.516663999999935,16.973143999999984,1308
45.86866399999994,18.269143999999983,1600
43.92466399999995,15.677143999999986,1766
45.22066399999994,13.733143999999989,1296
47.48866399999993,19.565143999999982,767
47.16466399999993,18.917143999999983,738
47.81266399999993,18.917143999999983,466
45.54466399999994,9.845143999999989,859
45.22066399999994,9.845143999999989,868
45.22066399999994,10.493143999999988,919
45.86866399999994,9.845143999999989,884
45.86866399999994,10.493143999999988,2358
48.78466399999992,21.50914399999997,890
49.10866399999992,20.213143999999986,861
49.10866399999992,18.917143999999983,306
48.46066399999992,17.621143999999987,418
49.43266399999992,17.621143999999987,192
49.10866399999992,17.621143999999987,832
48.136663999999925,18.269143999999983,418
49.10866399999992,18.269143999999983,313
49.43266399999992,18.269143999999983,368
49.43266399999992,16.973143999999984,163
49.75666399999992,16.973143999999984,141
49.75666399999992,16.325143999999987,120
50.08066399999991,15.677143999999986,36
50.08066399999991,15.029143999999986,31
49.43266399999992,18.917143999999983,287
47.81266399999993,20.86114399999998,955
48.136663999999925,20.86114399999998,900
48.46066399999992,20.86114399999998,862
48.46066399999992,21.50914399999997,902
49.10866399999992,19.565143999999982,367
48.136663999999925,17.621143999999987,388
48.78466399999992,22.15714399999998,1077
48.78466399999992,20.86114399999998,959
49.10866399999992,20.86114399999998,881
48.78466399999992,18.269143999999983,383
48.78466399999992,17.621143999999987,389
49.10866399999992,21.50914399999997,886
48.78466399999992,20.213143999999986,825
48.46066399999992,20.213143999999986,766
48.136663999999925,19.565143999999982,738
48.46066399999992,19.565143999999982,700
48.46066399999992,18.917143999999983,611
48.46066399999992,18.269143999999983,442
48.78466399999992,19.565143999999982,853
48.78466399999992,18.917143999999983,771
47.81266399999993,18.269143999999983,439
49.10866399999992,22.15714399999998,1072
49.43266399999992,21.50914399999997,913
48.136663999999925,18.917143999999983,731
48.136663999999925,20.213143999999986,787
52.636,-8.018,65535
52.312,-7.370000000000001,65535
52.312,-8.018,65535
52.636,-8.666,65535
51.988,-8.666,65535
51.988,-8.018,65535
52.96,-8.666,65535
52.96,-6.074000000000002,65535
53.28399999999999,-6.722000000000001,65535
53.60799999999999,-6.722000000000001,65535
53.60799999999999,-7.370000000000001,65535
53.60799999999999,-8.018,65535
54.25599999999999,-8.666,65535
53.93199999999999,-8.666,65535
53.93199999999999,-8.018,65535
52.312,-6.722000000000001,65535
52.636,-6.722000000000001,65535
53.93199999999999,-6.722000000000001,65535
54.25599999999999,-6.074000000000002,65535
53.28399999999999,-7.370000000000001,65535
52.96,-7.370000000000001,65535
52.312,-8.666,65535
52.96,-8.018,65535
52.636,-7.370000000000001,65535
52.96,-6.722000000000001,65535
51.988,-9.314,65535
52.312,-9.314,65535
54.579999999999984,-6.722000000000001,65535
54.579999999999984,-6.074000000000002,65535
53.28399999999999,-8.018,65535
53.28399999999999,-8.666,65535
53.28399999999999,-9.314,65535
53.93199999999999,-9.314,65535
54.25599999999999,-9.314,65535
53.60799999999999,-8.666,65535
53.60799999999999,-9.314,65535
49.43266399999992,14.381143999999988,95
49.75666399999992,14.381143999999988,48
49.75666399999992,15.029143999999986,46
49.75666399999992,13.733143999999989,57
50.08066399999991,13.733143999999989,53
49.75666399999992,15.677143999999986,57
50.40466399999991,15.029143999999986,0
49.43266399999992,13.733143999999989,71
50.40466399999991,15.677143999999986,4
50.40466399999991,13.733143999999989,43
46.19266399999994,15.029143999999986,1093
45.86866399999994,15.029143999999986,1152
45.86866399999994,14.381143999999988,1130
46.19266399999994,13.733143999999989,1185
45.86866399999994,13.733143999999989,1261
58.50466399999986,13.733143999999989,962
58.180663999999865,13.733143999999989,966
58.180663999999865,13.085143999999987,938
57.85666399999987,12.437143999999988,904
60.44866399999985,15.677143999999986,1187
60.124663999999854,15.677143999999986,1121
60.124663999999854,16.325143999999987,1159
59.800663999999855,16.325143999999987,1087
59.800663999999855,17.621143999999987,1066
59.47666399999986,18.269143999999983,1048
61.74466399999984,16.973143999999984,1198
61.420663999999846,16.973143999999984,1171
60.77266399999985,16.973143999999984,1123
65.63266399999982,22.15714399999998,2302
65.95666399999982,21.50914399999997,2262
65.63266399999982,20.86114399999998,2233
64.98466399999982,20.213143999999986,2165
64.66066399999983,20.213143999999986,2143
64.33666399999983,19.565143999999982,1837
64.01266399999983,19.565143999999982,1550
63.68866399999983,20.213143999999986,1503
64.66066399999983,18.917143999999983,2514
59.15266399999986,16.325143999999987,1023
59.15266399999986,15.029143999999986,1015
59.15266399999986,17.621143999999987,1040
57.53266399999987,14.381143999999988,864
57.53266399999987,15.029143999999986,884
61.09666399999985,14.381143999999988,1291
60.77266399999985,15.029143999999986,1242
60.44866399999985,15.029143999999986,1228
58.180663999999865,15.029143999999986,941
58.50466399999986,16.325143999999987,975
58.50466399999986,15.677143999999986,948
63.36466399999984,13.085143999999987,1535
63.04066399999984,14.381143999999988,1472
62.39266399999984,15.677143999999986,1394
63.36466399999984,13.733143999999989,1517
63.36466399999984,14.381143999999988,1489
62.71666399999984,15.677143999999986,1422
62.39266399999984,17.621143999999987,1256
59.800663999999855,15.677143999999986,1533
55.58866399999988,13.733143999999989,818
57.20866399999987,14.381143999999988,848
57.85666399999987,14.381143999999988,896
58.82866399999986,16.973143999999984,1032
58.82866399999986,16.325143999999987,1010
59.15266399999986,18.269143999999983,1044
60.44866399999985,17.621143999999987,1099
59.15266399999986,12.437143999999988,1003
59.15266399999986,13.085143999999987,1017
58.82866399999986,12.437143999999988,979
59.47666399999986,16.325143999999987,1049
58.82866399999986,14.381143999999988,1056
59.47666399999986,15.677143999999986,1038
63.36466399999984,18.917143999999983,1456
63.04066399999984,17.621143999999987,1411
62.71666399999984,17.621143999999987,1385
63.68866399999983,19.565143999999982,1489
62.39266399999984,16.973143999999984,1300
59.800663999999855,16.973143999999984,1075
59.47666399999986,17.621143999999987,1052
57.85666399999987,13.085143999999987,928
57.53266399999987,13.085143999999987,909
58.50466399999986,11.789143999999988,950
57.85666399999987,15.029143999999986,930
57.20866399999987,13.733143999999989,854
57.53266399999987,13.733143999999989,915
61.74466399999984,16.325143999999987,1294
61.420663999999846,16.325143999999987,1261
61.09666399999985,16.325143999999987,1250
61.09666399999985,16.973143999999984,1218
60.124663999999854,15.029143999999986,1396
66.60466399999981,20.86114399999998,2337
67.25266399999981,20.86114399999998,2405
67.90066399999981,20.213143999999986,2475
67.57666399999981,20.213143999999986,3100
59.800663999999855,15.029143999999986,1116
58.50466399999986,15.029143999999986,958
59.47666399999986,15.029143999999986,1101
60.44866399999985,16.325143999999987,1187
59.15266399999986,15.677143999999986,1045
57.85666399999987,13.733143999999989,956
58.82866399999986,13.733143999999989,1003
58.50466399999986,13.085143999999987,988
57.20866399999987,13.085143999999987,885
56.88466399999987,13.085143999999987,859
58.180663999999865,11.789143999999988,921
62.06866399999984,16.973143999999984,1289
65.95666399999982,23.45314399999998,2343
59.800663999999855,14.381143999999988,5411
59.800663999999855,18.269143999999983,1057
63.04066399999984,15.029143999999986,1440
62.71666399999984,15.029143999999986,1430
62.39266399999984,16.325143999999987,1363
63.36466399999984,12.437143999999988,1568
68.5486639999998,17.621143999999987,2688
68.5486639999998,18.269143999999983,2621
68.5486639999998,18.917143999999983,2598
68.2246639999998,18.917143999999983,2554
59.800663999999855,13.085143999999987,1120
60.124663999999854,13.085143999999987,1159
59.47666399999986,16.973143999999984,1061
59.15266399999986,16.973143999999984,1053
56.56066399999988,13.733143999999989,806
60.124663999999854,17.621143999999987,1076
57.85666399999987,16.325143999999987,1035
58.180663999999865,16.325143999999987,997
58.180663999999865,15.677143999999986,1005
57.20866399999987,16.325143999999987,1047
57.53266399999987,15.677143999999986,1065
57.85666399999987,15.677143999999986,1036
44.89666399999994,23.45314399999998,2485
44.572663999999946,23.45314399999998,2555
44.89666399999994,24.74914399999998,2472
44.572663999999946,24.74914399999998,2591
44.572663999999946,24.101143999999977,2532
44.24866399999995,24.101143999999977,2561
47.48866399999993,25.397143999999983,2333
47.48866399999993,24.74914399999998,2273
47.16466399999993,24.74914399999998,2195
47.16466399999993,24.101143999999977,2097
47.48866399999993,22.15714399999998,2227
47.81266399999993,22.15714399999998,2313
47.16466399999993,22.15714399999998,2206
47.16466399999993,23.45314399999998,2258
47.16466399999993,22.805143999999984,2264
46.84066399999993,24.101143999999977,2178
45.86866399999994,27.34114399999998,2518
45.54466399999994,27.34114399999998,2499
45.54466399999994,27.989143999999985,2615
45.86866399999994,20.86114399999998,2390
45.86866399999994,21.50914399999997,2398
46.19266399999994,21.50914399999997,2334
46.19266399999994,27.34114399999998,2518
46.19266399999994,26.69314399999997,2509
46.516663999999935,26.69314399999997,2471
46.516663999999935,26.04514399999998,2367
47.48866399999993,22.805143999999984,2325
46.84066399999993,22.805143999999984,2138
45.54466399999994,22.15714399999998,2447
45.22066399999994,22.15714399999998,2525
44.89666399999994,22.15714399999998,2943
47.48866399999993,23.45314399999998,2291
46.516663999999935,24.101143999999977,2017
46.516663999999935,24.74914399999998,2231
45.86866399999994,24.101143999999977,2180
47.16466399999993,26.69314399999997,2549
47.16466399999993,27.34114399999998,2604
43.92466399999995,25.397143999999983,2563
44.24866399999995,24.74914399999998,2470
44.89666399999994,26.04514399999998,2357
44.89666399999994,26.69314399999997,2404
45.22066399999994,26.69314399999997,2439
45.22066399999994,27.34114399999998,2466
46.84066399999993,26.69314399999997,2510
47.48866399999993,26.69314399999997,2503
44.24866399999995,25.397143999999983,2402
43.92466399999995,26.04514399999998,2579
46.19266399999994,24.101143999999977,2225
44.572663999999946,25.397143999999983,2440
46.84066399999993,24.74914399999998,2238
46.516663999999935,21.50914399999997,2338
46.84066399999993,21.50914399999997,2345
44.572663999999946,26.69314399999997,2395
44.572663999999946,27.34114399999998,2416
44.89666399999994,27.34114399999998,2531
44.572663999999946,27.989143999999985,2436
44.24866399999995,27.989143999999985,2450
44.572663999999946,28.63714399999997,2501
45.86866399999994,22.15714399999998,2259
45.86866399999994,22.805143999999984,2153
44.24866399999995,23.45314399999998,2588
43.92466399999995,27.989143999999985,65535
46.84066399999993,27.34114399999998,2671
45.22066399999994,23.45314399999998,2460
45.54466399999994,23.45314399999998,2263
45.54466399999994,24.101143999999977,2210
45.22066399999994,24.101143999999977,2434
44.89666399999994,24.101143999999977,2504
46.19266399999994,22.15714399999998,2390
46.516663999999935,22.15714399999998,2356
45.22066399999994,21.50914399999997,2630
45.54466399999994,21.50914399999997,2478
45.54466399999994,20.86114399999998,2502
46.516663999999935,27.989143999999985,2621
46.19266399999994,27.989143999999985,2606
45.54466399999994,25.397143999999983,2324
45.22066399999994,25.397143999999983,2334
45.22066399999994,26.04514399999998,2390
47.81266399999993,24.101143999999977,2386
47.48866399999993,26.04514399999998,2476
47.81266399999993,26.04514399999998,2498
46.19266399999994,23.45314399999998,2057
45.86866399999994,23.45314399999998,2106
44.24866399999995,26.04514399999998,2384
45.22066399999994,27.989143999999985,2596
45.86866399999994,24.74914399999998,2219
46.516663999999935,25.397143999999983,2411
46.84066399999993,25.397143999999983,2294
46.19266399999994,26.04514399999998,2382
45.86866399999994,26.04514399999998,2347
43.92466399999995,23.45314399999998,2818
44.89666399999994,25.397143999999983,2445
46.19266399999994,20.86114399999998,2379
47.81266399999993,25.397143999999983,2510
44.572663999999946,22.805143999999984,2823
44.572663999999946,22.15714399999998,2965
46.516663999999935,23.45314399999998,2196
45.86866399999994,25.397143999999983,2273
44.24866399999995,27.34114399999998,3211
45.22066399999994,24.74914399999998,2536
45.54466399999994,22.805143999999984,2226
45.22066399999994,28.63714399999997,2656
44.89666399999994,28.63714399999997,2595
47.81266399999993,23.45314399999998,2443
46.19266399999994,24.74914399999998,2305
46.19266399999994,25.397143999999983,2329
43.92466399999995,24.101143999999977,2781
43.92466399999995,24.74914399999998,2794
47.81266399999993,26.69314399999997,2725
47.48866399999993,24.101143999999977,2318
46.84066399999993,26.04514399999998,3126
46.19266399999994,22.805143999999984,2450
47.48866399999993,27.34114399999998,2678
46.19266399999994,20.213143999999986,65535
45.54466399999994,26.04514399999998,2482
44.24866399999995,26.69314399999997,2400
45.86866399999994,27.989143999999985,2654
47.81266399999993,5.957143999999991,6586
