51.56399999999999,-0.4100000000000028,65535
51.887999999999984,-0.4100000000000028,65535
50.91599999999999,-1.7060000000000022,65535
51.23999999999999,-1.0580000000000025,65535
51.56399999999999,-1.0580000000000025,65535
51.23999999999999,-1.7060000000000022,65535
51.56399999999999,0.2379999999999968,65535
47.16466399999993,9.845143999999989,1626
47.48866399999993,9.845143999999989,1618
48.136663999999925,14.381143999999988,1395
47.81266399999993,13.085143999999987,1434
47.16466399999993,11.141143999999988,1610
47.48866399999993,11.789143999999988,1637
48.136663999999925,16.325143999999987,1275
47.48866399999993,12.437143999999988,1493
48.136663999999925,15.677143999999986,1299
47.16466399999993,10.493143999999988,1656
47.16466399999993,9.197143999999987,1628
48.136663999999925,13.733143999999989,1403
48.136663999999925,15.029143999999986,1309
47.81266399999993,16.973143999999984,1375
48.46066399999992,14.381143999999988,1444
47.48866399999993,13.085143999999987,1450
47.16466399999993,13.085143999999987,1479
47.48866399999993,14.381143999999988,1343
47.48866399999993,13.733143999999989,1404
47.48866399999993,15.029143999999986,745
46.516663999999935,13.733143999999989,520
46.84066399999993,13.733143999999989,545
46.84066399999993,13.085143999999987,585
48.78466399999992,14.381143999999988,65535
47.16466399999993,15.677143999999986,660
46.516663999999935,14.381143999999988,503
46.84066399999993,14.381143999999988,553
47.16466399999993,14.381143999999988,677
46.516663999999935,15.029143999999986,547
47.81266399999993,16.325143999999987,1268
47.16466399999993,15.029143999999986,721
47.81266399999993,15.677143999999986,1284
47.48866399999993,15.677143999999986,711
46.516663999999935,13.085143999999987,1934
46.84066399999993,12.437143999999988,599
48.136663999999925,11.789143999999988,1469
47.81266399999993,12.437143999999988,1455
46.84066399999993,15.677143999999986,645
46.516663999999935,15.677143999999986,480
46.84066399999993,16.325143999999987,604
47.81266399999993,14.381143999999988,1405
48.78466399999992,16.973143999999984,1367
48.136663999999925,16.973143999999984,1306
48.46066399999992,13.733143999999989,1427
47.81266399999993,13.733143999999989,1408
50.08066399999991,8.54914399999999,1596
48.46066399999992,9.845143999999989,1529
51.05266399999991,7.25314399999999,1629
51.37666399999991,7.25314399999999,1644
51.37666399999991,6.60514399999999,1641
48.46066399999992,16.325143999999987,1287
48.46066399999992,16.973143999999984,1317
48.78466399999992,16.325143999999987,1374
48.46066399999992,15.677143999999986,1300
48.78466399999992,15.677143999999986,1381
47.48866399999993,16.325143999999987,703
47.16466399999993,16.325143999999987,630
46.19266399999994,14.381143999999988,490
45.86866399999994,15.677143999999986,414
43.60066399999995,16.325143999999987,760
45.54466399999994,14.381143999999988,462
45.54466399999994,13.733143999999989,484
48.136663999999925,13.085143999999987,1428
48.46066399999992,11.141143999999988,1476
48.136663999999925,11.141143999999988,1478
48.46066399999992,7.90114399999999,1601
49.10866399999992,8.54914399999999,1575
48.78466399999992,2.0691439999999925,1714
49.10866399999992,7.25314399999999,1630
52.0246639999999,7.90114399999999,1662
47.16466399999993,11.789143999999988,1632
49.43266399999992,11.141143999999988,1540
53.64466399999989,9.845143999999989,1769
50.72866399999991,4.013143999999992,1715
51.05266399999991,11.141143999999988,1685
47.48866399999993,11.141143999999988,1508
46.84066399999993,11.789143999999988,4502
46.516663999999935,11.141143999999988,4471
45.54466399999994,11.141143999999988,4367
46.19266399999994,11.141143999999988,4437
45.86866399999994,11.141143999999988,4421
44.572663999999946,11.141143999999988,3252
43.92466399999995,12.437143999999988,65535
45.54466399999994,12.437143999999988,4710
45.54466399999994,11.789143999999988,4675
48.78466399999992,15.029143999999986,1452
47.81266399999993,15.029143999999986,1372
47.81266399999993,11.141143999999988,1489
50.40466399999991,18.917143999999983,1612
52.3486639999999,20.86114399999998,1791
54.616663999999886,18.269143999999983,1983
54.29266399999989,18.917143999999983,1968
49.10866399999992,14.381143999999988,65535
50.08066399999991,14.381143999999988,1602
48.78466399999992,13.733143999999989,2216
52.6726639999999,13.085143999999987,1735
52.3486639999999,13.085143999999987,1735
53.96866399999989,12.437143999999988,1878
54.29266399999989,12.437143999999988,1881
47.48866399999993,8.54914399999999,1642
47.81266399999993,17.621143999999987,1404
47.48866399999993,18.917143999999983,1400
47.48866399999993,20.86114399999998,1916
46.84066399999993,23.45314399999998,2398
44.572663999999946,26.04514399999998,2847
47.48866399999993,21.50914399999997,1952
47.81266399999993,21.50914399999997,2348
48.46066399999992,22.15714399999998,1657
47.48866399999993,16.973143999999984,65535
49.10866399999992,16.325143999999987,1416
49.75666399999992,18.269143999999983,1516
46.19266399999994,13.085143999999987,1343
41.98066399999996,12.437143999999988,5830
43.60066399999995,10.493143999999988,6086
45.54466399999994,9.197143999999987,1748
47.81266399999993,22.805143999999984,2813
49.75666399999992,22.805143999999984,1940
50.72866399999991,3.365143999999992,1722
51.05266399999991,4.013143999999992,1715
50.72866399999991,4.661143999999991,1707
51.05266399999991,4.661143999999991,1708
51.05266399999991,3.365143999999992,1720
51.05266399999991,2.717143999999992,1742
50.40466399999991,4.661143999999991,1704
50.72866399999991,2.717143999999992,1738
50.40466399999991,4.013143999999992,1726
51.05266399999991,5.309143999999991,1711
50.72866399999991,5.309143999999991,1692
51.37666399999991,3.365143999999992,1738
51.37666399999991,4.661143999999991,1713
50.72866399999991,5.957143999999991,1672
50.40466399999991,5.957143999999991,1683
50.40466399999991,3.365143999999992,1730
50.40466399999991,5.309143999999991,1699
50.08066399999991,5.309143999999991,1749
49.75666399999992,5.309143999999991,1753
49.75666399999992,5.957143999999991,1724
51.37666399999991,5.309143999999991,1764
51.700663999999904,4.661143999999991,1758
50.08066399999991,4.013143999999992,1748
50.08066399999991,5.957143999999991,1701
50.08066399999991,4.661143999999991,1735
49.43266399999992,5.309143999999991,1760
49.43266399999992,5.957143999999991,1744
52.0246639999999,4.661143999999991,1790
52.3486639999999,4.661143999999991,1819
50.72866399999991,15.029143999999986,1579
51.05266399999991,15.029143999999986,1605
51.05266399999991,13.733143999999989,1651
50.40466399999991,13.085143999999987,1667
49.10866399999992,7.90114399999999,1617
48.78466399999992,7.90114399999999,1580
50.40466399999991,7.90114399999999,1608
50.08066399999991,7.90114399999999,1600
49.75666399999992,7.90114399999999,1604
49.43266399999992,7.90114399999999,1588
49.75666399999992,8.54914399999999,1584
49.43266399999992,8.54914399999999,1579
49.43266399999992,9.197143999999987,1608
49.10866399999992,9.197143999999987,1570
47.48866399999993,7.90114399999999,1639
47.81266399999993,7.90114399999999,1608
48.136663999999925,7.90114399999999,1596
48.136663999999925,9.845143999999989,1541
47.81266399999993,9.197143999999987,1612
47.81266399999993,8.54914399999999,1607
47.81266399999993,9.845143999999989,1553
54.940663999999884,9.197143999999987,1811
54.616663999999886,9.197143999999987,1800
54.29266399999989,9.197143999999987,1807
53.96866399999989,9.197143999999987,1845
53.64466399999989,9.197143999999987,1796
54.616663999999886,9.845143999999989,1792
54.29266399999989,9.845143999999989,1783
53.96866399999989,9.845143999999989,1778
53.64466399999989,10.493143999999988,1772
53.96866399999989,10.493143999999988,1784
53.96866399999989,11.141143999999988,1823
54.29266399999989,10.493143999999988,1798
53.32066399999989,10.493143999999988,1789
54.940663999999884,11.141143999999988,1844
52.6726639999999,13.733143999999989,1733
52.3486639999999,13.733143999999989,1731
52.3486639999999,14.381143999999988,1720
52.0246639999999,14.381143999999988,1707
52.0246639999999,11.789143999999988,1774
52.3486639999999,11.789143999999988,1767
52.3486639999999,12.437143999999988,1747
52.0246639999999,15.029143999999986,1723
51.700663999999904,14.381143999999988,1658
52.0246639999999,13.733143999999989,1705
51.700663999999904,13.733143999999989,1686
52.6726639999999,12.437143999999988,1748
53.32066399999989,11.789143999999988,1869
53.96866399999989,11.789143999999988,1878
53.64466399999989,11.789143999999988,1854
53.64466399999989,11.141143999999988,1847
53.32066399999989,11.141143999999988,1868
52.996663999999896,11.789143999999988,1780
52.996663999999896,12.437143999999988,1764
52.996663999999896,13.733143999999989,1740
53.64466399999989,13.733143999999989,1816
53.96866399999989,13.733143999999989,1850
54.29266399999989,13.085143999999987,1892
53.96866399999989,13.085143999999987,1859
53.32066399999989,13.733143999999989,1787
52.0246639999999,13.085143999999987,1789
51.700663999999904,13.085143999999987,1726
52.996663999999896,14.381143999999988,1842
52.0246639999999,12.437143999999988,1751
51.700663999999904,12.437143999999988,1747
51.37666399999991,11.789143999999988,1707
51.37666399999991,12.437143999999988,1704
52.6726639999999,11.789143999999988,1790
53.64466399999989,13.085143999999987,1843
53.32066399999989,13.085143999999987,1785
52.996663999999896,13.085143999999987,1758
53.64466399999989,12.437143999999988,1828
51.37666399999991,13.733143999999989,1654
53.32066399999989,12.437143999999988,1795
52.6726639999999,14.381143999999988,1753
51.37666399999991,13.085143999999987,1665
53.32066399999989,14.381143999999988,1829
52.3486639999999,15.029143999999986,1759
52.0246639999999,15.677143999999986,1763
51.700663999999904,15.029143999999986,1700
51.05266399999991,16.325143999999987,1717
51.05266399999991,16.973143999999984,1741
51.700663999999904,15.677143999999986,1775
51.37666399999991,15.677143999999986,1677
51.37666399999991,16.325143999999987,1708
50.72866399999991,13.085143999999987,1676
50.72866399999991,12.437143999999988,1670
51.05266399999991,13.085143999999987,1666
51.05266399999991,14.381143999999988,1640
50.40466399999991,12.437143999999988,1658
50.40466399999991,11.789143999999988,1651
50.08066399999991,12.437143999999988,1636
50.72866399999991,11.789143999999988,1671
51.05266399999991,12.437143999999988,1697
50.72866399999991,14.381143999999988,1634
51.37666399999991,14.381143999999988,1642
50.72866399999991,13.733143999999989,1655
50.40466399999991,14.381143999999988,1617
51.37666399999991,15.029143999999986,1635
55.26466399999988,9.197143999999987,2268
55.58866399999988,8.54914399999999,3562
55.91266399999988,8.54914399999999,7039
56.23666399999988,9.197143999999987,7047
56.23666399999988,10.493143999999988,7000
56.23666399999988,9.845143999999989,6987
55.91266399999988,9.845143999999989,6925
56.56066399999988,9.197143999999987,7057
56.56066399999988,8.54914399999999,7100
51.05266399999991,6.60514399999999,1639
51.700663999999904,7.90114399999999,1651
50.72866399999991,6.60514399999999,1649
51.700663999999904,7.25314399999999,1648
50.72866399999991,7.25314399999999,1624
52.0246639999999,7.25314399999999,1666
52.3486639999999,7.90114399999999,1687
51.05266399999991,5.957143999999991,1662
50.40466399999991,7.25314399999999,1615
51.700663999999904,6.60514399999999,1657
51.700663999999904,5.957143999999991,1658
52.3486639999999,9.197143999999987,1689
51.700663999999904,8.54914399999999,1662
52.0246639999999,8.54914399999999,1668
52.3486639999999,8.54914399999999,1686
51.37666399999991,7.90114399999999,1646
52.3486639999999,7.25314399999999,1713
51.37666399999991,5.957143999999991,1661
50.72866399999991,7.90114399999999,1644
51.37666399999991,9.197143999999987,1681
51.700663999999904,9.197143999999987,1693
50.40466399999991,6.60514399999999,1666
51.05266399999991,7.90114399999999,1666
51.37666399999991,8.54914399999999,1662
52.0246639999999,5.957143999999991,1671
52.3486639999999,6.60514399999999,1736
51.05266399999991,8.54914399999999,1664
52.0246639999999,9.197143999999987,1689
52.6726639999999,9.197143999999987,1710
52.0246639999999,9.845143999999989,1717
51.700663999999904,9.845143999999989,1737
51.37666399999991,9.845143999999989,1749
50.72866399999991,8.54914399999999,1613
51.05266399999991,9.845143999999989,1671
50.72866399999991,9.845143999999989,1636
50.40466399999991,9.845143999999989,1615
51.05266399999991,9.197143999999987,1673
50.40466399999991,9.197143999999987,1593
50.08066399999991,9.197143999999987,1585
51.05266399999991,10.493143999999988,1696
50.40466399999991,8.54914399999999,1602
50.72866399999991,9.197143999999987,1623
49.75666399999992,9.197143999999987,1584
52.996663999999896,9.197143999999987,1749
52.3486639999999,9.845143999999989,1697
52.996663999999896,8.54914399999999,1766
52.996663999999896,7.90114399999999,1793
53.32066399999989,7.90114399999999,1847
53.32066399999989,7.25314399999999,1933
53.64466399999989,7.25314399999999,1978
52.996663999999896,10.493143999999988,1770
52.6726639999999,10.493143999999988,1756
52.6726639999999,9.845143999999989,1702
53.32066399999989,9.845143999999989,1763
53.32066399999989,9.197143999999987,1767
53.64466399999989,8.54914399999999,1807
53.32066399999989,8.54914399999999,1769
52.6726639999999,8.54914399999999,1743
52.0246639999999,10.493143999999988,1772
52.0246639999999,11.141143999999988,1784
51.700663999999904,11.141143999999988,1768
52.6726639999999,7.25314399999999,2203
52.996663999999896,7.25314399999999,2178
52.6726639999999,7.90114399999999,1747
53.64466399999989,7.90114399999999,1871
52.996663999999896,11.141143999999988,1841
52.6726639999999,11.141143999999988,1836
52.3486639999999,10.493143999999988,1741
52.996663999999896,9.845143999999989,1716
51.700663999999904,10.493143999999988,1878
51.37666399999991,10.493143999999988,7466
51.700663999999904,11.789143999999988,1753
52.3486639999999,11.141143999999988,1769
51.37666399999991,11.141143999999988,1716
51.05266399999991,11.789143999999988,1699
49.10866399999992,11.141143999999988,1520
48.78466399999992,11.141143999999988,1490
48.46066399999992,11.789143999999988,1472
49.43266399999992,11.789143999999988,1571
50.08066399999991,11.789143999999988,1602
49.75666399999992,12.437143999999988,1610
49.10866399999992,11.789143999999988,1578
48.78466399999992,12.437143999999988,1526
48.46066399999992,12.437143999999988,1485
49.10866399999992,12.437143999999988,1600
48.78466399999992,13.085143999999987,1473
48.136663999999925,12.437143999999988,1449
47.81266399999993,11.789143999999988,1460
48.136663999999925,10.493143999999988,1563
47.81266399999993,10.493143999999988,1579
48.78466399999992,10.493143999999988,1532
47.48866399999993,10.493143999999988,1597
48.46066399999992,10.493143999999988,1504
49.43266399999992,13.085143999999987,1778
48.46066399999992,13.085143999999987,1449
49.43266399999992,10.493143999999988,1559
49.75666399999992,9.845143999999989,1570
49.75666399999992,10.493143999999988,1567
50.40466399999991,11.141143999999988,1615
50.08066399999991,11.141143999999988,1605
50.72866399999991,11.141143999999988,1660
49.75666399999992,11.141143999999988,1552
48.78466399999992,11.789143999999988,1573
50.40466399999991,10.493143999999988,1663
50.08066399999991,9.845143999999989,1579
50.08066399999991,10.493143999999988,1597
49.43266399999992,12.437143999999988,1624
49.75666399999992,11.789143999999988,1565
49.10866399999992,13.085143999999987,1593
50.72866399999991,10.493143999999988,1711
49.10866399999992,10.493143999999988,1538
48.78466399999992,9.845143999999989,1552
48.46066399999992,8.54914399999999,1574
48.46066399999992,9.197143999999987,1570
48.78466399999992,9.197143999999987,1566
48.78466399999992,8.54914399999999,1572
50.08066399999991,7.25314399999999,1653
49.75666399999992,6.60514399999999,1652
49.43266399999992,6.60514399999999,1614
49.10866399999992,6.60514399999999,1636
49.43266399999992,7.25314399999999,1608
49.75666399999992,7.25314399999999,1614
49.10866399999992,5.957143999999991,1678
48.78466399999992,7.25314399999999,1600
50.08066399999991,6.60514399999999,1660
47.48866399999993,9.197143999999987,1622
48.136663999999925,8.54914399999999,1582
48.136663999999925,9.197143999999987,1567
47.81266399999993,7.25314399999999,1619
49.43266399999992,9.845143999999989,1599
49.10866399999992,9.845143999999989,1580
53.64466399999989,14.381143999999988,1823
50.08066399999991,13.085143999999987,1634
49.75666399999992,13.085143999999987,1655
45.86866399999994,9.197143999999987,1738
46.19266399999994,9.197143999999987,1724
46.516663999999935,8.54914399999999,1670
46.516663999999935,9.197143999999987,1719
46.19266399999994,8.54914399999999,1736
47.16466399999993,8.54914399999999,1637
45.86866399999994,4.661143999999991,1745
46.84066399999993,9.845143999999989,1653
45.22066399999994,5.957143999999991,1790
45.22066399999994,5.309143999999991,1821
45.86866399999994,5.957143999999991,1738
45.54466399999994,5.957143999999991,1745
44.89666399999994,4.661143999999991,1787
44.89666399999994,5.309143999999991,1804
44.572663999999946,4.661143999999991,1834
44.24866399999995,4.661143999999991,1862
43.92466399999995,4.661143999999991,1827
46.19266399999994,7.25314399999999,1686
48.78466399999992,5.957143999999991,1664
48.136663999999925,6.60514399999999,1662
48.46066399999992,6.60514399999999,1644
48.78466399999992,6.60514399999999,1672
47.16466399999993,7.90114399999999,1644
48.136663999999925,7.25314399999999,1618
48.46066399999992,7.25314399999999,1605
46.516663999999935,6.60514399999999,1676
46.84066399999993,6.60514399999999,1671
46.84066399999993,7.25314399999999,1651
46.516663999999935,5.957143999999991,1695
46.19266399999994,5.957143999999991,1709
46.84066399999993,8.54914399999999,1641
46.84066399999993,7.90114399999999,1649
45.86866399999994,5.309143999999991,1731
46.19266399999994,6.60514399999999,1684
45.86866399999994,6.60514399999999,1693
47.48866399999993,6.60514399999999,1676
47.48866399999993,7.25314399999999,1625
47.16466399999993,7.25314399999999,1641
49.10866399999992,4.013143999999992,1777
49.75666399999992,4.661143999999991,1797
49.43266399999992,4.661143999999991,1853
49.10866399999992,5.309143999999991,1769
46.19266399999994,4.661143999999991,1731
46.84066399999993,9.197143999999987,1644
46.19266399999994,5.309143999999991,1723
46.516663999999935,5.309143999999991,1786
45.54466399999994,6.60514399999999,1776
45.54466399999994,5.309143999999991,1774
43.60066399999995,4.013143999999992,1862
43.60066399999995,3.365143999999992,1902
42.62866399999996,2.717143999999992,1961
43.276663999999954,2.717143999999992,1919
45.54466399999994,4.661143999999991,1779
45.22066399999994,4.661143999999991,1793
47.16466399999993,5.309143999999991,1754
47.16466399999993,5.957143999999991,1723
46.19266399999994,7.90114399999999,1680
49.75666399999992,2.717143999999992,1774
49.10866399999992,2.717143999999992,1740
48.78466399999992,2.717143999999992,1807
45.86866399999994,3.365143999999992,1910
46.84066399999993,3.365143999999992,1857
46.516663999999935,3.365143999999992,1822
46.19266399999994,3.365143999999992,1855
47.16466399999993,6.60514399999999,1688
49.10866399999992,3.365143999999992,1762
45.54466399999994,4.013143999999992,1789
46.516663999999935,7.25314399999999,1673
47.16466399999993,4.661143999999991,1798
46.84066399999993,4.661143999999991,1777
46.516663999999935,4.661143999999991,1761
46.84066399999993,5.957143999999991,1746
47.81266399999993,3.365143999999992,1849
47.48866399999993,4.013143999999992,1799
48.136663999999925,4.013143999999992,1814
47.81266399999993,4.013143999999992,1820
47.48866399999993,4.661143999999991,1808
47.16466399999993,3.365143999999992,1892
46.84066399999993,4.013143999999992,1880
48.46066399999992,5.957143999999991,1715
46.19266399999994,2.717143999999992,2036
47.16466399999993,2.0691439999999925,1934
46.516663999999935,2.717143999999992,2083
46.84066399999993,2.717143999999992,1966
46.84066399999993,2.0691439999999925,1992
47.16466399999993,2.717143999999992,1908
44.572663999999946,5.309143999999991,1880
44.572663999999946,5.957143999999991,1848
44.89666399999994,6.60514399999999,1827
44.572663999999946,6.60514399999999,1864
43.60066399999995,5.309143999999991,1850
43.92466399999995,7.25314399999999,1954
43.60066399999995,6.60514399999999,1948
43.276663999999954,6.60514399999999,1964
43.276663999999954,5.957143999999991,1901
45.86866399999994,8.54914399999999,1745
45.54466399999994,8.54914399999999,1752
48.136663999999925,3.365143999999992,1803
48.46066399999992,3.365143999999992,1782
48.46066399999992,2.717143999999992,1752
47.48866399999993,5.309143999999991,1836
46.516663999999935,9.845143999999989,1664
46.84066399999993,10.493143999999988,2771
47.81266399999993,5.309143999999991,1817
45.22066399999994,6.60514399999999,1803
46.19266399999994,4.013143999999992,1754
45.86866399999994,4.013143999999992,1781
45.22066399999994,4.013143999999992,1860
44.89666399999994,4.013143999999992,1900
46.84066399999993,5.309143999999991,1761
48.136663999999925,-1.8188560000000056,1804
48.136663999999925,0.1251439999999934,1769
48.136663999999925,-0.5228560000000062,1863
47.48866399999993,-0.5228560000000062,1814
47.16466399999993,-1.8188560000000056,1854
47.48866399999993,0.7731439999999932,1828
47.16466399999993,0.1251439999999934,1847
45.86866399999994,7.25314399999999,1696
48.136663999999925,5.309143999999991,1853
49.10866399999992,4.661143999999991,1809
48.46066399999992,4.013143999999992,1795
48.136663999999925,4.661143999999991,1873
47.81266399999993,6.60514399999999,1723
47.48866399999993,5.957143999999991,1761
48.136663999999925,5.957143999999991,1886
45.86866399999994,7.90114399999999,1694
46.516663999999935,7.90114399999999,1664
49.43266399999992,3.365143999999992,1779
49.43266399999992,4.013143999999992,1840
48.136663999999925,2.717143999999992,1870
47.81266399999993,2.717143999999992,1881
47.48866399999993,2.717143999999992,1900
50.40466399999991,2.717143999999992,1737
48.46066399999992,-4.410856000000004,1955
48.46066399999992,-3.7628560000000046,1919
48.46066399999992,-3.114856000000005,1890
48.46066399999992,-2.4668560000000053,1873
47.48866399999993,1.4211439999999929,1936
47.16466399999993,1.4211439999999929,1943
46.516663999999935,4.013143999999992,1765
43.60066399999995,4.661143999999991,1872
44.89666399999994,2.717143999999992,2117
45.22066399999994,2.717143999999992,2068
45.54466399999994,3.365143999999992,1959
45.22066399999994,3.365143999999992,1955
47.48866399999993,3.365143999999992,1966
46.19266399999994,9.845143999999989,1774
47.81266399999993,2.0691439999999925,1895
47.48866399999993,2.0691439999999925,1957
45.86866399999994,2.717143999999992,1934
44.89666399999994,5.957143999999991,1950
45.22066399999994,1.4211439999999929,2006
44.89666399999994,1.4211439999999929,2030
44.89666399999994,2.0691439999999925,2180
43.276663999999954,2.0691439999999925,1951
43.60066399999995,1.4211439999999929,1996
48.78466399999992,4.661143999999991,1790
48.78466399999992,5.309143999999991,1691
46.19266399999994,2.0691439999999925,2060
45.86866399999994,1.4211439999999929,2033
46.19266399999994,1.4211439999999929,2018
44.572663999999946,4.013143999999992,2095
44.89666399999994,3.365143999999992,1991
43.92466399999995,4.013143999999992,1892
44.24866399999995,4.013143999999992,1909
44.89666399999994,-0.5228560000000062,1874
45.54466399999994,0.1251439999999934,1834
46.516663999999935,0.1251439999999934,1863
44.572663999999946,2.0691439999999925,2057
49.75666399999992,4.013143999999992,1838
43.92466399999995,3.365143999999992,2121
43.92466399999995,2.717143999999992,2152
44.24866399999995,3.365143999999992,2176
44.572663999999946,3.365143999999992,2217
49.10866399999992,0.1251439999999934,1817
49.43266399999992,0.7731439999999932,1796
49.43266399999992,-1.8188560000000056,1916
49.10866399999992,-1.170856000000006,1891
49.10866399999992,-0.5228560000000062,1829
49.10866399999992,0.7731439999999932,1857
49.10866399999992,1.4211439999999929,1785
47.81266399999993,-1.8188560000000056,1950
47.81266399999993,-2.4668560000000053,1887
47.81266399999993,-3.114856000000005,1900
48.136663999999925,-3.7628560000000046,1957
44.572663999999946,9.197143999999987,1856
44.89666399999994,8.54914399999999,1794
45.22066399999994,9.197143999999987,1759
45.54466399999994,10.493143999999988,1807
44.572663999999946,10.493143999999988,3238
44.89666399999994,10.493143999999988,1873
44.89666399999994,9.845143999999989,2005
48.46066399999992,5.309143999999991,1880
50.91599999999999,-1.0580000000000025,65535
51.23999999999999,-0.4100000000000028,65535
50.91599999999999,-0.4100000000000028,65535
51.23999999999999,-2.354000000000002,65535
51.56399999999999,-2.354000000000002,65535
51.56399999999999,-3.0020000000000016,65535
50.91599999999999,-2.354000000000002,65535
53.50799999999997,-3.0020000000000016,65535
53.183999999999976,-2.354000000000002,65535
53.183999999999976,-3.0020000000000016,65535
52.85999999999998,-2.354000000000002,65535
52.21199999999998,-1.0580000000000025,65535
51.887999999999984,-1.0580000000000025,65535
52.53599999999998,-1.0580000000000025,65535
52.53599999999998,-1.7060000000000022,65535
52.85999999999998,-1.7060000000000022,65535
53.50799999999997,-2.354000000000002,65535
52.85999999999998,-1.0580000000000025,65535
52.53599999999998,1.5339999999999965,65535
52.53599999999998,0.8859999999999966,65535
52.53599999999998,0.2379999999999968,65535
52.53599999999998,-0.4100000000000028,65535
53.50799999999997,-1.7060000000000022,65535
53.183999999999976,-1.7060000000000022,65535
53.183999999999976,-1.0580000000000025,65535
52.85999999999998,-0.4100000000000028,65535
51.887999999999984,-2.354000000000002,65535
52.21199999999998,-2.354000000000002,65535
55.77599999999996,-2.354000000000002,65535
53.83199999999997,-1.0580000000000025,65535
53.83199999999997,-1.7060000000000022,65535
55.127999999999965,-1.7060000000000022,65535
54.80399999999997,-1.7060000000000022,65535
54.47999999999997,-1.7060000000000022,65535
54.15599999999997,-1.0580000000000025,65535
52.21199999999998,-1.7060000000000022,65535
53.50799999999997,-1.0580000000000025,65535
55.77599999999996,-3.0020000000000016,65535
55.45199999999996,-1.7060000000000022,65535
57.07199999999995,-2.354000000000002,65535
56.74799999999996,-3.0020000000000016,65535
56.42399999999996,-3.0020000000000016,65535
56.09999999999996,-3.650000000000001,65535
50.91599999999999,-3.0020000000000016,65535
50.91599999999999,-3.650000000000001,65535
50.59199999999999,-3.650000000000001,65535
50.59199999999999,-4.298000000000001,65535
51.23999999999999,-3.0020000000000016,65535
50.268,-4.946000000000001,65535
55.77599999999996,-3.650000000000001,65535
55.77599999999996,-4.298000000000001,65535
52.21199999999998,-0.4100000000000028,65535
52.53599999999998,-2.354000000000002,65535
51.56399999999999,-1.7060000000000022,65535
51.56399999999999,-3.650000000000001,65535
51.887999999999984,-4.298000000000001,65535
51.56399999999999,-4.298000000000001,65535
51.887999999999984,-1.7060000000000022,65535
52.21199999999998,-3.0020000000000016,65535
51.23999999999999,0.2379999999999968,65535
50.91599999999999,0.2379999999999968,65535
52.21199999999998,0.2379999999999968,65535
53.83199999999997,-3.0020000000000016,65535
54.15599999999997,-3.0020000000000016,65535
54.47999999999997,-3.0020000000000016,65535
55.127999999999965,-3.650000000000001,65535
54.80399999999997,-3.0020000000000016,65535
53.83199999999997,-2.354000000000002,65535
54.15599999999997,-0.4100000000000028,65535
54.47999999999997,-1.0580000000000025,65535
53.83199999999997,-0.4100000000000028,65535
53.183999999999976,-3.650000000000001,65535
53.183999999999976,-4.298000000000001,65535
52.85999999999998,-3.0020000000000016,65535
52.53599999999998,-3.0020000000000016,65535
51.887999999999984,-3.0020000000000016,65535
51.23999999999999,0.8859999999999966,65535
51.887999999999984,0.2379999999999968,65535
52.21199999999998,0.8859999999999966,65535
51.887999999999984,-4.946000000000001,65535
52.53599999999998,-3.650000000000001,65535
52.21199999999998,-4.298000000000001,65535
53.183999999999976,-0.4100000000000028,65535
51.23999999999999,-3.650000000000001,65535
51.887999999999984,-3.650000000000001,65535
52.21199999999998,-3.650000000000001,65535
51.56399999999999,0.8859999999999966,65535
51.887999999999984,0.8859999999999966,65535
52.85999999999998,0.8859999999999966,65535
53.50799999999997,-0.4100000000000028,65535
56.09999999999996,-4.298000000000001,65535
56.74799999999996,-4.946000000000001,65535
56.74799999999996,-4.298000000000001,65535
56.42399999999996,-4.946000000000001,65535
56.42399999999996,-4.298000000000001,65535
56.09999999999996,-4.946000000000001,65535
57.39599999999995,-4.298000000000001,65535
57.39599999999995,-3.0020000000000016,65535
57.39599999999995,-3.650000000000001,65535
56.42399999999996,-3.650000000000001,65535
57.07199999999995,-3.650000000000001,65535
57.07199999999995,-4.298000000000001,65535
56.74799999999996,-3.650000000000001,65535
59.15266399999986,27.34114399999998,65535
59.47666399999986,26.69314399999997,65535
59.47666399999986,26.04514399999998,65535
59.15266399999986,26.04514399999998,65535
59.15266399999986,24.74914399999998,65535
59.15266399999986,25.397143999999983,65535
59.47666399999986,25.397143999999983,65535
58.50466399999986,26.69314399999997,65535
58.82866399999986,26.69314399999997,65535
57.85666399999987,26.04514399999998,65535
58.180663999999865,26.04514399999998,65535
58.180663999999865,26.69314399999997,65535
58.82866399999986,26.04514399999998,65535
58.50466399999986,25.397143999999983,65535
58.82866399999986,25.397143999999983,65535
58.82866399999986,24.74914399999998,65535
58.180663999999865,27.34114399999998,65535
57.85666399999987,27.34114399999998,65535
63.68866399999983,27.34114399999998,7557
60.124663999999854,24.74914399999998,7093
60.44866399999985,24.74914399999998,7062
60.44866399999985,25.397143999999983,7074
60.77266399999985,25.397143999999983,7280
61.09666399999985,26.04514399999998,7322
60.77266399999985,26.04514399999998,7329
60.77266399999985,26.69314399999997,7348
61.09666399999985,25.397143999999983,7313
61.09666399999985,26.69314399999997,7678
61.420663999999846,26.69314399999997,7700
61.74466399999984,27.34114399999998,7724
62.06866399999984,27.34114399999998,7749
62.39266399999984,27.34114399999998,7773
62.71666399999984,27.34114399999998,7737
64.01266399999983,27.34114399999998,7905
63.36466399999984,27.34114399999998,7625
63.04066399999984,27.34114399999998,7665
63.04066399999984,27.989143999999985,7680
64.33666399999983,27.989143999999985,7952
64.33666399999983,27.34114399999998,8028
64.66066399999983,27.34114399999998,8044
64.66066399999983,26.69314399999997,8055
64.98466399999982,25.397143999999983,6439
64.66066399999983,26.04514399999998,8085
64.98466399999982,26.04514399999998,8107
66.28066399999982,25.397143999999983,6516
65.95666399999982,24.74914399999998,6352
65.63266399999982,24.74914399999998,6356
65.63266399999982,25.397143999999983,6398
65.30866399999982,25.397143999999983,6419
66.60466399999981,25.397143999999983,6576
64.01266399999983,24.74914399999998,6576
64.01266399999983,24.101143999999977,6611
64.01266399999983,23.45314399999998,6635
63.68866399999983,23.45314399999998,6647
63.68866399999983,22.805143999999984,6672
63.68866399999983,26.04514399999998,7264
63.68866399999983,25.397143999999983,7230
63.68866399999983,26.69314399999997,7524
60.44866399999985,26.69314399999997,7516
64.01266399999983,27.989143999999985,7943
62.71666399999984,22.805143999999984,6794
62.39266399999984,22.805143999999984,6826
62.06866399999984,22.805143999999984,6855
62.06866399999984,23.45314399999998,6871
61.74466399999984,23.45314399999998,6883
61.420663999999846,23.45314399999998,6931
61.09666399999985,23.45314399999998,6972
61.09666399999985,24.101143999999977,6979
61.09666399999985,24.74914399999998,7013
60.77266399999985,24.74914399999998,7029
63.04066399999984,21.50914399999997,65535
63.04066399999984,22.15714399999998,65535
63.04066399999984,22.805143999999984,6758
62.39266399999984,26.04514399999998,7921
62.06866399999984,25.397143999999983,7970
61.74466399999984,25.397143999999983,8038
61.74466399999984,24.74914399999998,8075
61.74466399999984,24.101143999999977,8110
61.420663999999846,24.101143999999977,7454
62.39266399999984,26.69314399999997,7892
64.66066399999983,25.397143999999983,6508
64.66066399999983,24.74914399999998,6526
64.33666399999983,24.74914399999998,6537
63.36466399999984,22.805143999999984,6697
67.25266399999981,24.101143999999977,8666
66.92866399999981,24.101143999999977,8630
66.60466399999981,23.45314399999998,8599
66.28066399999982,23.45314399999998,8581
66.28066399999982,24.101143999999977,8563
65.95666399999982,24.101143999999977,4479
60.124663999999854,24.101143999999977,7286
60.124663999999854,23.45314399999998,7323
60.44866399999985,22.805143999999984,65535
60.77266399999985,27.34114399999998,7406
61.09666399999985,27.989143999999985,7438
61.09666399999985,28.63714399999997,7484
61.420663999999846,29.28514399999997,9171
61.74466399999984,29.933143999999977,9229
62.06866399999984,29.933143999999977,9335
62.39266399999984,29.933143999999977,9373
62.71666399999984,29.933143999999977,9406
61.420663999999846,22.805143999999984,6967
61.420663999999846,22.15714399999998,7046
61.09666399999985,22.15714399999998,7034
61.420663999999846,21.50914399999997,7179
62.39266399999984,27.989143999999985,65535
62.06866399999984,27.989143999999985,65535
61.420663999999846,27.34114399999998,65535
63.04066399999984,29.933143999999977,65535
63.68866399999983,29.28514399999997,65535
63.36466399999984,29.28514399999997,65535
63.36466399999984,29.933143999999977,65535
60.44866399999985,27.34114399999998,65535
61.74466399999984,29.28514399999997,65535
62.39266399999984,30.58114399999998,65535
62.71666399999984,31.229143999999977,65535
62.71666399999984,29.28514399999997,65535
63.04066399999984,28.63714399999997,65535
66.60466399999981,26.04514399999998,6586
66.60466399999981,26.69314399999997,6622
66.60466399999981,27.34114399999998,6645
62.71666399999984,26.04514399999998,7806
62.71666399999984,25.397143999999983,7775
63.04066399999984,25.397143999999983,7595
63.36466399999984,25.397143999999983,7558
62.71666399999984,23.45314399999998,7800
62.39266399999984,24.101143999999977,65535
62.71666399999984,22.15714399999998,65535
62.39266399999984,22.15714399999998,65535
62.39266399999984,21.50914399999997,65535
61.09666399999985,21.50914399999997,8857
60.77266399999985,22.805143999999984,8283
60.44866399999985,22.15714399999998,8331
60.77266399999985,23.45314399999998,8265
60.77266399999985,21.50914399999997,8433
60.77266399999985,22.15714399999998,8386
60.124663999999854,22.805143999999984,8599
60.44866399999985,24.101143999999977,7272
62.06866399999984,24.74914399999998,65535
50.72866399999991,16.325143999999987,1724
50.40466399999991,16.973143999999984,1703
50.72866399999991,16.973143999999984,1764
50.40466399999991,16.325143999999987,1701
50.08066399999991,16.973143999999984,1689
50.08066399999991,16.325143999999987,1593
51.700663999999904,16.973143999999984,1789
51.37666399999991,16.973143999999984,1751
51.05266399999991,15.677143999999986,1760
50.72866399999991,15.677143999999986,1740
51.05266399999991,17.621143999999987,1744
51.37666399999991,17.621143999999987,1861
51.700663999999904,17.621143999999987,1877
51.700663999999904,16.325143999999987,1740
52.0246639999999,22.15714399999998,1858
52.0246639999999,21.50914399999997,1798
52.3486639999999,21.50914399999997,1794
52.0246639999999,20.86114399999998,1797
51.700663999999904,20.86114399999998,1793
51.37666399999991,21.50914399999997,1776
51.37666399999991,20.86114399999998,1758
51.05266399999991,20.86114399999998,1712
52.6726639999999,23.45314399999998,1986
52.3486639999999,22.805143999999984,1926
52.3486639999999,20.213143999999986,1813
52.0246639999999,20.213143999999986,1815
52.3486639999999,19.565143999999982,2047
52.6726639999999,19.565143999999982,1960
51.700663999999904,21.50914399999997,1835
51.700663999999904,22.15714399999998,1841
52.6726639999999,21.50914399999997,1833
52.996663999999896,21.50914399999997,1885
52.6726639999999,20.86114399999998,1823
52.6726639999999,22.15714399999998,1849
52.6726639999999,20.213143999999986,1900
52.996663999999896,19.565143999999982,1971
52.996663999999896,20.86114399999998,1856
52.996663999999896,20.213143999999986,1865
53.32066399999989,20.213143999999986,1961
51.37666399999991,20.213143999999986,1939
52.3486639999999,16.973143999999984,1832
52.0246639999999,16.973143999999984,1821
52.0246639999999,16.325143999999987,1764
52.0246639999999,17.621143999999987,1865
52.6726639999999,16.973143999999984,1855
52.996663999999896,16.973143999999984,1882
52.3486639999999,16.325143999999987,1806
52.3486639999999,15.677143999999986,1787
51.700663999999904,18.269143999999983,1896
52.6726639999999,17.621143999999987,1848
52.3486639999999,17.621143999999987,1841
52.6726639999999,18.269143999999983,1925
52.3486639999999,18.269143999999983,1889
52.3486639999999,18.917143999999983,1962
52.996663999999896,17.621143999999987,1903
51.700663999999904,19.565143999999982,1834
51.700663999999904,18.917143999999983,1859
51.37666399999991,18.269143999999983,1846
58.82866399999986,9.197143999999987,3248
58.180663999999865,7.90114399999999,3341
58.50466399999986,8.54914399999999,3292
63.36466399999984,10.493143999999988,3463
63.36466399999984,11.141143999999988,3470
63.36466399999984,11.789143999999988,3505
63.68866399999983,11.789143999999988,3533
64.33666399999983,12.437143999999988,3934
64.66066399999983,12.437143999999988,4429
65.63266399999982,13.085143999999987,4086
65.95666399999982,13.085143999999987,4121
66.28066399999982,14.381143999999988,4191
65.95666399999982,13.733143999999989,4260
66.28066399999982,13.733143999999989,4169
65.30866399999982,13.085143999999987,4387
64.98466399999982,13.085143999999987,4021
64.01266399999983,11.789143999999988,3564
63.68866399999983,11.141143999999988,3501
59.800663999999855,10.493143999999988,3044
59.800663999999855,11.141143999999988,3027
60.124663999999854,11.141143999999988,3042
60.44866399999985,11.141143999999988,3055
60.124663999999854,11.789143999999988,3068
60.77266399999985,7.25314399999999,3304
60.77266399999985,6.60514399999999,3350
59.15266399999986,9.197143999999987,3130
59.47666399999986,9.197143999999987,3151
59.800663999999855,9.845143999999989,3046
59.47666399999986,11.141143999999988,2991
61.09666399999985,10.493143999999988,3165
60.77266399999985,10.493143999999988,3135
60.77266399999985,11.141143999999988,3090
62.06866399999984,9.197143999999987,3490
61.74466399999984,9.845143999999989,3436
61.420663999999846,9.845143999999989,3413
59.15266399999986,9.845143999999989,3110
59.47666399999986,9.845143999999989,3086
58.82866399999986,5.957143999999991,3525
58.180663999999865,7.25314399999999,3397
58.50466399999986,7.25314399999999,3430
58.50466399999986,6.60514399999999,3435
58.50466399999986,5.957143999999991,3493
58.82866399999986,8.54914399999999,3278
60.44866399999985,7.25314399999999,3278
60.44866399999985,7.90114399999999,3239
60.124663999999854,10.493143999999988,3076
60.44866399999985,9.197143999999987,3188
60.77266399999985,9.197143999999987,3200
60.77266399999985,8.54914399999999,3219
60.124663999999854,9.845143999999989,3334
60.44866399999985,10.493143999999988,3121
63.04066399999984,10.493143999999988,3414
62.06866399999984,9.845143999999989,3515
62.39266399999984,9.845143999999989,3523
62.71666399999984,9.845143999999989,3547
59.47666399999986,14.381143999999988,2997
59.47666399999986,13.733143999999989,2981
59.47666399999986,13.085143999999987,2957
59.800663999999855,12.437143999999988,3026
59.15266399999986,11.141143999999988,2955
59.15266399999986,14.381143999999988,2981
58.82866399999986,11.789143999999988,2935
58.50466399999986,12.437143999999988,2865
58.180663999999865,12.437143999999988,2858
57.85666399999987,11.789143999999988,2809
62.71666399999984,7.90114399999999,3576
62.39266399999984,7.90114399999999,3533
62.06866399999984,8.54914399999999,3508
60.44866399999985,5.309143999999991,3424
60.44866399999985,5.957143999999991,3391
60.77266399999985,5.957143999999991,3380
62.39266399999984,11.141143999999988,3311
62.06866399999984,10.493143999999988,3266
61.74466399999984,11.141143999999988,3239
61.420663999999846,11.141143999999988,3193
61.09666399999985,11.141143999999988,3176
60.77266399999985,11.789143999999988,3153
63.04066399999984,11.141143999999988,3392
62.71666399999984,11.141143999999988,3335
62.39266399999984,10.493143999999988,3293
67.25266399999981,15.677143999999986,4310
67.25266399999981,15.029143999999986,4348
67.25266399999981,14.381143999999988,4376
66.92866399999981,15.029143999999986,4299
66.60466399999981,15.677143999999986,4277
64.01266399999983,11.141143999999988,3548
66.60466399999981,15.029143999999986,4340
54.29266399999989,18.269143999999983,1976
54.616663999999886,17.621143999999987,1994
53.96866399999989,18.269143999999983,1987
43.92466399999995,1.4211439999999929,1981
44.24866399999995,0.7731439999999932,1942
44.572663999999946,0.1251439999999934,1928
46.84066399999993,1.4211439999999929,1966
44.572663999999946,1.4211439999999929,2024
44.24866399999995,1.4211439999999929,1998
45.54466399999994,1.4211439999999929,2049
46.516663999999935,1.4211439999999929,1991
42.30466399999996,2.717143999999992,2011
44.24866399999995,2.717143999999992,2135
44.572663999999946,2.717143999999992,2120
43.92466399999995,2.0691439999999925,1996
42.30466399999996,2.0691439999999925,2067
42.62866399999996,2.0691439999999925,2043
42.62866399999996,1.4211439999999929,2065
42.95266399999996,1.4211439999999929,2000
43.276663999999954,1.4211439999999929,1993
46.516663999999935,-1.170856000000006,1945
46.19266399999994,-1.170856000000006,1976
45.86866399999994,-0.5228560000000062,1923
45.54466399999994,-0.5228560000000062,1903
48.46066399999992,1.4211439999999929,1735
41.332663999999966,2.0691439999999925,2132
41.98066399999996,2.717143999999992,2091
48.46066399999992,-1.8188560000000056,1854
47.81266399999993,0.7731439999999932,1922
46.84066399999993,0.7731439999999932,1879
44.572663999999946,-1.170856000000006,1885
43.60066399999995,-1.170856000000006,2010
43.276663999999954,-1.8188560000000056,2039
43.276663999999954,0.1251439999999934,2109
42.95266399999996,0.1251439999999934,2093
43.276663999999954,-0.5228560000000062,2065
43.60066399999995,-0.5228560000000062,2041
47.81266399999993,-3.7628560000000046,1936
47.48866399999993,-2.4668560000000053,1895
47.81266399999993,-0.5228560000000062,1849
46.516663999999935,-1.8188560000000056,1961
48.136663999999925,-1.170856000000006,1876
47.48866399999993,-1.170856000000006,1855
45.22066399999994,8.54914399999999,1774
45.22066399999994,7.90114399999999,1782
46.19266399999994,-0.5228560000000062,1931
46.516663999999935,-0.5228560000000062,1914
48.78466399999992,-3.114856000000005,1906
50.72866399999991,2.0691439999999925,1757
50.40466399999991,2.0691439999999925,1769
40.36066399999997,-3.7628560000000046,3345
41.65666399999997,-1.170856000000006,3262
41.332663999999966,1.4211439999999929,3200
43.276663999999954,13.733143999999989,65535
42.95266399999996,13.733143999999989,65535
41.65666399999997,15.029143999999986,65535
40.68466399999997,17.621143999999987,65535
43.60066399999995,13.085143999999987,6048
41.65666399999997,12.437143999999988,5846
41.65666399999997,13.085143999999987,5853
41.98066399999996,13.085143999999987,5864
41.65666399999997,13.733143999999989,5901
41.332663999999966,13.733143999999989,5930
41.332663999999966,14.381143999999988,6149
41.00866399999997,14.381143999999988,6055
41.332663999999966,13.085143999999987,5913
41.00866399999997,15.029143999999986,6255
41.98066399999996,13.733143999999989,5946
42.30466399999996,14.381143999999988,6336
42.30466399999996,12.437143999999988,5891
42.62866399999996,12.437143999999988,5899
42.95266399999996,12.437143999999988,5956
42.30466399999996,11.789143999999988,5860
42.95266399999996,11.789143999999988,6156
42.62866399999996,11.789143999999988,6147
43.276663999999954,11.789143999999988,6210
42.95266399999996,13.085143999999987,5949
42.30466399999996,13.085143999999987,9103
43.276663999999954,13.085143999999987,6001
43.276663999999954,12.437143999999988,6009
42.62866399999996,11.141143999999988,5992
42.95266399999996,11.141143999999988,6035
42.95266399999996,10.493143999999988,6053
44.572663999999946,8.54914399999999,1804
44.89666399999994,7.90114399999999,1799
44.89666399999994,9.197143999999987,1812
44.24866399999995,7.90114399999999,1839
44.572663999999946,7.90114399999999,1820
43.92466399999995,7.90114399999999,1981
44.24866399999995,7.25314399999999,1836
44.89666399999994,7.25314399999999,1818
45.22066399999994,7.25314399999999,1798
45.54466399999994,7.90114399999999,1778
44.572663999999946,7.25314399999999,1942
52.996663999999896,22.805143999999984,2083
52.996663999999896,23.45314399999998,2073
51.37666399999991,22.15714399999998,1883
51.37666399999991,22.805143999999984,1937
50.08066399999991,20.213143999999986,1695
50.72866399999991,20.213143999999986,1644
50.40466399999991,20.213143999999986,1634
50.08066399999991,20.86114399999998,1825
50.08066399999991,21.50914399999997,1866
50.08066399999991,22.15714399999998,1885
50.08066399999991,22.805143999999984,1907
53.96866399999989,22.805143999999984,2307
53.64466399999989,23.45314399999998,2260
53.32066399999989,23.45314399999998,2217
50.40466399999991,19.565143999999982,1626
50.08066399999991,18.917143999999983,1682
50.08066399999991,18.269143999999983,1712
52.0246639999999,22.805143999999984,1907
52.0246639999999,23.45314399999998,1944
51.37666399999991,19.565143999999982,1794
51.05266399999991,19.565143999999982,1747
50.72866399999991,18.917143999999983,1629
50.72866399999991,19.565143999999982,1729
49.75666399999992,18.917143999999983,1582
50.40466399999991,18.269143999999983,1658
53.64466399999989,19.565143999999982,2052
53.96866399999989,18.917143999999983,1975
53.64466399999989,18.917143999999983,1989
53.64466399999989,20.213143999999986,2083
52.996663999999896,18.917143999999983,1955
52.996663999999896,18.269143999999983,1916
53.32066399999989,18.917143999999983,1976
50.72866399999991,17.621143999999987,1687
50.72866399999991,18.269143999999983,1677
52.6726639999999,16.325143999999987,1873
52.996663999999896,16.325143999999987,1889
52.996663999999896,15.677143999999986,1862
53.32066399999989,15.677143999999986,1879
53.32066399999989,15.029143999999986,1835
53.64466399999989,15.029143999999986,1841
53.96866399999989,15.029143999999986,1862
52.6726639999999,18.917143999999983,2001
53.32066399999989,16.325143999999987,1897
52.6726639999999,15.029143999999986,1793
51.05266399999991,22.805143999999984,1960
51.05266399999991,23.45314399999998,2001
50.72866399999991,22.15714399999998,1929
50.40466399999991,22.15714399999998,1952
51.05266399999991,22.15714399999998,1934
54.616663999999886,16.973143999999984,1994
54.29266399999989,16.325143999999987,1946
53.96866399999989,15.677143999999986,1909
50.72866399999991,21.50914399999997,1917
50.40466399999991,21.50914399999997,1904
50.40466399999991,17.621143999999987,1720
53.32066399999989,22.805143999999984,2717
53.64466399999989,22.15714399999998,2677
54.29266399999989,16.973143999999984,1972
50.72866399999991,20.86114399999998,1683
51.700663999999904,22.805143999999984,1957
51.05266399999991,21.50914399999997,1728
50.08066399999991,19.565143999999982,1710
52.0246639999999,18.917143999999983,8488
52.0246639999999,19.565143999999982,8481
53.64466399999989,18.269143999999983,2007
51.700663999999904,20.213143999999986,1926
53.32066399999989,19.565143999999982,2075
50.72866399999991,23.45314399999998,2106
50.72866399999991,22.805143999999984,2077
49.43266399999992,20.213143999999986,1765
49.75666399999992,21.50914399999997,1922
49.75666399999992,22.15714399999998,1919
49.43266399999992,22.15714399999998,1910
51.05266399999991,18.917143999999983,1856
51.05266399999991,18.269143999999983,1793
53.32066399999989,16.973143999999984,1918
53.64466399999989,16.973143999999984,1960
49.75666399999992,20.86114399999998,1868
50.40466399999991,22.805143999999984,8570
53.64466399999989,16.325143999999987,1985
53.96866399999989,20.86114399999998,2113
54.29266399999989,20.86114399999998,2159
53.96866399999989,21.50914399999997,2292
53.64466399999989,15.677143999999986,1874
53.96866399999989,20.213143999999986,2041
53.96866399999989,19.565143999999982,2004
54.29266399999989,19.565143999999982,2014
53.96866399999989,16.325143999999987,1931
53.64466399999989,17.621143999999987,1968
53.96866399999989,22.15714399999998,2358
53.64466399999989,21.50914399999997,2726
53.64466399999989,20.86114399999998,2233
52.6726639999999,15.677143999999986,1837
51.05266399999991,20.213143999999986,1936
54.940663999999884,24.101143999999977,3681
54.616663999999886,23.45314399999998,3625
54.29266399999989,23.45314399999998,3488
53.64466399999989,22.805143999999984,2740
53.96866399999989,16.973143999999984,1993
50.40466399999991,20.86114399999998,1783
53.32066399999989,18.269143999999983,2029
49.75666399999992,19.565143999999982,1679
50.40466399999991,23.45314399999998,1996
49.75666399999992,20.213143999999986,1837
49.43266399999992,19.565143999999982,1725
49.43266399999992,20.86114399999998,1835
53.96866399999989,17.621143999999987,2763
42.30466399999996,-1.8188560000000056,8799
41.98066399999996,-1.8188560000000056,8782
41.65666399999997,0.7731439999999932,8786
42.62866399999996,-1.8188560000000056,8914
42.95266399999996,-1.8188560000000056,8943
42.62866399999996,-3.114856000000005,9037
42.95266399999996,-2.4668560000000053,9015
42.62866399999996,-7.650856000000003,9379
42.30466399999996,-7.650856000000003,9439
42.30466399999996,-8.946856000000002,9575
42.30466399999996,-8.298856000000002,9549
41.98066399999996,-8.298856000000002,9538
42.30466399999996,-7.002856000000003,9321
42.62866399999996,-6.354856000000003,9263
42.30466399999996,-6.354856000000003,9218
42.62866399999996,-5.706856000000004,8718
41.98066399999996,-4.410856000000004,8672
42.30466399999996,-3.7628560000000046,9063
40.03666399999997,-0.5228560000000062,8766
39.38866399999998,-0.5228560000000062,8814
41.00866399999997,0.7731439999999932,8914
40.68466399999997,0.7731439999999932,8946
40.36066399999997,0.1251439999999934,9024
39.712663999999975,-0.5228560000000062,8923
38.41666399999998,-0.5228560000000062,8935
39.06466399999998,-0.5228560000000062,9057
38.74066399999998,-1.170856000000006,8943
41.332663999999966,0.7731439999999932,8974
41.65666399999997,2.717143999999992,8574
41.65666399999997,2.0691439999999925,8597
41.332663999999966,0.1251439999999934,8932
41.332663999999966,-0.5228560000000062,8876
41.65666399999997,-4.410856000000004,8646
40.03666399999997,-2.4668560000000053,8884
41.00866399999997,-4.410856000000004,8767
43.276663999999954,-5.706856000000004,8848
39.38866399999998,-1.170856000000006,8909
38.09266399999999,-1.170856000000006,9322
38.74066399999998,-0.5228560000000062,9085
37.76866399999999,-1.170856000000006,9387
39.06466399999998,-1.8188560000000056,8907
39.38866399999998,-3.114856000000005,8807
39.38866399999998,-2.4668560000000053,8863
39.06466399999998,-2.4668560000000053,8890
39.06466399999998,-3.114856000000005,8811
39.06466399999998,-3.7628560000000046,8785
38.74066399999998,-3.7628560000000046,8864
40.03666399999997,-3.7628560000000046,8763
40.03666399999997,-3.114856000000005,8963
40.03666399999997,-1.8188560000000056,9044
39.712663999999975,-1.8188560000000056,9009
39.712663999999975,-1.170856000000006,8945
40.36066399999997,-1.170856000000006,8964
40.68466399999997,-1.170856000000006,8942
41.00866399999997,-1.170856000000006,8930
41.332663999999966,-1.170856000000006,8770
43.276663999999954,-8.298856000000002,9539
42.95266399999996,-8.298856000000002,9507
41.65666399999997,-5.706856000000004,65535
41.98066399999996,-7.002856000000003,65535
41.98066399999996,-6.354856000000003,65535
41.332663999999966,-5.058856000000004,8885
43.276663999999954,-3.7628560000000046,9320
42.95266399999996,-4.410856000000004,9254
42.62866399999996,-4.410856000000004,9244
42.30466399999996,-4.410856000000004,9203
41.00866399999997,-5.706856000000004,8823
41.332663999999966,-1.8188560000000056,8716
40.68466399999997,-3.114856000000005,8670
41.00866399999997,-3.114856000000005,8721
41.00866399999997,-2.4668560000000053,8744
41.332663999999966,-2.4668560000000053,8797
40.68466399999997,-4.410856000000004,8707
40.36066399999997,-4.410856000000004,8791
40.68466399999997,-3.7628560000000046,8699
40.36066399999997,-3.114856000000005,8677
41.65666399999997,-2.4668560000000053,8814
38.09266399999999,-3.7628560000000046,8911
38.74066399999998,-3.114856000000005,8855
37.76866399999999,-3.7628560000000046,8968
39.712663999999975,-3.114856000000005,8799
38.41666399999998,-3.7628560000000046,8876
40.03666399999997,-4.410856000000004,65535
40.03666399999997,-5.058856000000004,65535
39.38866399999998,-6.354856000000003,65535
39.38866399999998,-7.002856000000003,65535
42.95266399999996,-3.114856000000005,9448
41.98066399999996,-1.170856000000006,8811
42.30466399999996,-2.4668560000000053,8852
41.65666399999997,-0.5228560000000062,8909
41.98066399999996,-0.5228560000000062,8746
41.65666399999997,0.1251439999999934,8773
41.98066399999996,0.1251439999999934,8795
37.76866399999999,-5.058856000000004,8847
36.79666399999999,-4.410856000000004,8906
38.74066399999998,-4.410856000000004,8803
37.12066399999999,-4.410856000000004,8880
37.44466399999999,-5.058856000000004,9404
37.44466399999999,-7.002856000000003,65535
37.44466399999999,-6.354856000000003,65535
37.44466399999999,-5.706856000000004,9080
39.712663999999975,-3.7628560000000046,8873
42.62866399999996,-8.946856000000002,65535
42.30466399999996,-5.706856000000004,9225
42.30466399999996,-5.058856000000004,9310
42.95266399999996,-5.706856000000004,8750
41.00866399999997,-5.058856000000004,8791
40.68466399999997,-5.058856000000004,8765
41.65666399999997,-5.058856000000004,65535
41.65666399999997,-6.354856000000003,65535
36.79666399999999,-6.354856000000003,65535
37.12066399999999,-5.706856000000004,9248
37.76866399999999,-5.706856000000004,9047
38.09266399999999,-4.410856000000004,9182
37.12066399999999,-5.058856000000004,9202
36.79666399999999,-5.058856000000004,9160
37.76866399999999,-4.410856000000004,65535
37.76866399999999,-7.002856000000003,65535
38.41666399999998,-6.354856000000003,65535
38.09266399999999,-6.354856000000003,65535
48.78466399999992,1.4211439999999929,1801
56.23666399999988,8.54914399999999,7090
55.58866399999988,9.197143999999987,6895
55.91266399999988,9.197143999999987,7036
55.26466399999988,10.493143999999988,2514
55.91266399999988,12.437143999999988,2649
55.58866399999988,11.789143999999988,6735
55.58866399999988,11.141143999999988,6776
55.26466399999988,11.789143999999988,6768
55.58866399999988,10.493143999999988,6891
55.58866399999988,13.085143999999987,2606
56.88466399999987,9.845143999999989,7042
57.20866399999987,9.845143999999989,7077
56.56066399999988,9.845143999999989,7014
56.88466399999987,8.54914399999999,7129
54.940663999999884,9.845143999999989,8236
54.940663999999884,11.789143999999988,6992
55.91266399999988,13.085143999999987,2664
56.23666399999988,13.733143999999989,2708
55.91266399999988,13.733143999999989,2711
56.23666399999988,14.381143999999988,2731
56.23666399999988,15.029143999999986,2772
56.23666399999988,15.677143999999986,2827
56.56066399999988,14.381143999999988,2788
56.88466399999987,14.381143999999988,2758
56.23666399999988,13.085143999999987,2656
56.56066399999988,13.085143999999987,2736
56.88466399999987,12.437143999999988,2773
57.20866399999987,12.437143999999988,2789
57.53266399999987,12.437143999999988,2804
56.88466399999987,15.029143999999986,2784
56.56066399999988,15.677143999999986,2844
56.88466399999987,15.677143999999986,2863
56.88466399999987,16.325143999999987,2878
55.91266399999988,11.789143999999988,7061
57.20866399999987,10.493143999999988,7264
49.43266399999992,1.4211439999999929,1848
49.75666399999992,0.7731439999999932,1818
49.75666399999992,2.0691439999999925,1785
50.08066399999991,2.717143999999992,1782
49.75666399999992,1.4211439999999929,1807
47.81266399999993,1.4211439999999929,1906
48.136663999999925,2.0691439999999925,1989
48.46066399999992,2.0691439999999925,1831
48.136663999999925,1.4211439999999929,1751
48.78466399999992,0.1251439999999934,1892
48.46066399999992,0.1251439999999934,1909
47.81266399999993,0.1251439999999934,1863
46.84066399999993,-0.5228560000000062,1885
47.16466399999993,0.7731439999999932,1883
46.84066399999993,0.1251439999999934,1919
46.84066399999993,-1.170856000000006,1919
50.08066399999991,1.4211439999999929,1879
50.08066399999991,2.0691439999999925,1870
49.43266399999992,2.717143999999992,1753
49.75666399999992,3.365143999999992,1792
50.08066399999991,3.365143999999992,1762
49.10866399999992,2.0691439999999925,1775
49.43266399999992,2.0691439999999925,1761
48.78466399999992,0.7731439999999932,1863
48.78466399999992,-0.5228560000000062,1937
48.78466399999992,-1.170856000000006,1969
48.136663999999925,0.7731439999999932,1791
48.46066399999992,0.7731439999999932,1814
43.92466399999995,5.957143999999991,2044
44.24866399999995,5.957143999999991,2085
43.92466399999995,5.309143999999991,1841
42.95266399999996,2.717143999999992,1938
45.54466399999994,2.0691439999999925,2059
45.22066399999994,2.0691439999999925,2016
42.95266399999996,2.0691439999999925,2040
42.95266399999996,0.7731439999999932,2034
43.276663999999954,0.7731439999999932,2007
46.19266399999994,0.7731439999999932,2067
46.516663999999935,0.7731439999999932,2049
45.86866399999994,0.1251439999999934,1963
46.19266399999994,0.1251439999999934,1960
47.81266399999993,-1.170856000000006,1970
48.136663999999925,-2.4668560000000053,1969
47.48866399999993,-1.8188560000000056,1916
47.16466399999993,-1.170856000000006,1876
47.16466399999993,-0.5228560000000062,1969
46.84066399999993,-1.8188560000000056,1904
45.22066399999994,-0.5228560000000062,1908
44.89666399999994,0.1251439999999934,1925
45.22066399999994,0.7731439999999932,1964
45.54466399999994,0.7731439999999932,2012
45.86866399999994,0.7731439999999932,2080
45.22066399999994,0.1251439999999934,1974
44.89666399999994,0.7731439999999932,1980
43.92466399999995,-0.5228560000000062,2033
43.92466399999995,-1.170856000000006,2025
44.24866399999995,-1.170856000000006,2005
45.22066399999994,-1.170856000000006,1938
44.572663999999946,-0.5228560000000062,1903
44.24866399999995,0.1251439999999934,1950
44.572663999999946,0.7731439999999932,2004
43.276663999999954,-1.170856000000006,2085
42.95266399999996,-0.5228560000000062,2077
44.24866399999995,2.0691439999999925,2050
43.60066399999995,0.7731439999999932,2024
43.60066399999995,2.0691439999999925,1994
52.6726639999999,4.661143999999991,7081
52.6726639999999,5.309143999999991,7104
51.700663999999904,5.309143999999991,7049
52.0246639999999,5.309143999999991,7061
52.3486639999999,5.309143999999991,7077
51.37666399999991,4.013143999999992,7057
52.3486639999999,5.957143999999991,7071
52.0246639999999,6.60514399999999,7101
52.6726639999999,5.957143999999991,7088
52.996663999999896,5.957143999999991,7101
53.32066399999989,5.957143999999991,7095
52.996663999999896,6.60514399999999,7077
53.32066399999989,6.60514399999999,7069
52.6726639999999,6.60514399999999,7097
52.996663999999896,5.309143999999991,7116
59.15266399999986,24.101143999999977,65535
56.88466399999987,24.101143999999977,65535
56.88466399999987,23.45314399999998,65535
56.88466399999987,22.805143999999984,65535
57.20866399999987,24.74914399999998,65535
56.88466399999987,24.74914399999998,65535
56.56066399999988,24.74914399999998,65535
56.56066399999988,25.397143999999983,65535
56.56066399999988,24.101143999999977,65535
56.56066399999988,23.45314399999998,65535
56.56066399999988,26.04514399999998,65535
56.88466399999987,26.04514399999998,65535
57.20866399999987,25.397143999999983,65535
57.53266399999987,25.397143999999983,65535
56.23666399999988,26.04514399999998,65535
56.23666399999988,26.69314399999997,65535
55.91266399999988,26.69314399999997,65535
56.56066399999988,26.69314399999997,65535
56.56066399999988,27.34114399999998,65535
56.56066399999988,27.989143999999985,65535
56.23666399999988,27.989143999999985,65535
55.91266399999988,27.34114399999998,65535
56.56066399999988,22.805143999999984,65535
56.56066399999988,22.15714399999998,65535
56.56066399999988,21.50914399999997,65535
57.20866399999987,26.69314399999997,65535
39.06466399999998,-8.946856000000002,65535
38.41666399999998,-8.298856000000002,65535
45.86866399999994,11.789143999999988,4468
46.19266399999994,11.789143999999988,4455
46.19266399999994,10.493143999999988,4445
45.22066399999994,18.269143999999983,631
45.22066399999994,18.917143999999983,672
45.54466399999994,16.973143999999984,496
45.22066399999994,17.621143999999987,557
45.86866399999994,16.325143999999987,427
45.54466399999994,18.917143999999983,694
45.54466399999994,16.325143999999987,435
45.54466399999994,18.269143999999983,689
44.89666399999994,18.917143999999983,730
46.19266399999994,16.973143999999984,481
46.19266399999994,16.325143999999987,468
45.86866399999994,16.973143999999984,491
45.86866399999994,17.621143999999987,524
46.19266399999994,15.677143999999986,460
46.516663999999935,16.325143999999987,507
45.54466399999994,15.677143999999986,370
45.22066399999994,15.029143999999986,320
45.54466399999994,15.029143999999986,394
45.22066399999994,15.677143999999986,307
44.572663999999946,15.677143999999986,229
44.24866399999995,15.677143999999986,0
43.92466399999995,16.325143999999987,704
44.89666399999994,15.677143999999986,254
45.54466399999994,17.621143999999987,632
45.22066399999994,16.325143999999987,543
46.516663999999935,16.973143999999984,528
45.86866399999994,18.269143999999983,715
43.92466399999995,15.677143999999986,806
45.22066399999994,13.733143999999989,581
47.48866399999993,19.565143999999982,1412
47.16466399999993,18.917143999999983,1422
47.81266399999993,18.917143999999983,1396
45.54466399999994,9.845143999999989,1759
45.22066399999994,9.845143999999989,1768
45.22066399999994,10.493143999999988,1818
45.86866399999994,9.845143999999989,1779
45.86866399999994,10.493143999999988,7158
48.78466399999992,21.50914399999997,1636
49.10866399999992,20.213143999999986,1721
49.10866399999992,18.917143999999983,1569
48.46066399999992,17.621143999999987,1367
49.43266399999992,17.621143999999987,1530
49.10866399999992,17.621143999999987,1492
48.136663999999925,18.269143999999983,1369
49.10866399999992,18.269143999999983,1431
49.43266399999992,18.269143999999983,1491
49.43266399999992,16.973143999999984,1561
49.75666399999992,16.973143999999984,1574
49.75666399999992,16.325143999999987,1619
50.08066399999991,15.677143999999986,1562
50.08066399999991,15.029143999999986,1557
49.43266399999992,18.917143999999983,1555
47.81266399999993,20.86114399999998,1555
48.136663999999925,20.86114399999998,1586
48.46066399999992,20.86114399999998,1628
48.46066399999992,21.50914399999997,1632
49.10866399999992,19.565143999999982,1662
48.136663999999925,17.621143999999987,1357
48.78466399999992,22.15714399999998,1855
48.78466399999992,20.86114399999998,1887
49.10866399999992,20.86114399999998,1715
48.78466399999992,18.269143999999983,1401
48.78466399999992,17.621143999999987,1409
49.10866399999992,21.50914399999997,1701
48.78466399999992,20.213143999999986,1895
48.46066399999992,20.213143999999986,1936
48.136663999999925,19.565143999999982,2085
48.46066399999992,19.565143999999982,1964
48.46066399999992,18.917143999999983,1414
48.46066399999992,18.269143999999983,1386
48.78466399999992,19.565143999999982,1730
48.78466399999992,18.917143999999983,1472
47.81266399999993,18.269143999999983,1387
49.10866399999992,22.15714399999998,1896
49.43266399999992,21.50914399999997,1774
48.136663999999925,18.917143999999983,1407
48.136663999999925,20.213143999999986,2105
52.636,-8.018,65535
52.312,-7.370000000000001,65535
52.312,-8.018,65535
52.636,-8.666,65535
51.988,-8.666,65535
51.988,-8.018,65535
52.96,-8.666,65535
52.96,-6.074000000000002,65535
53.28399999999999,-6.722000000000001,65535
53.60799999999999,-6.722000000000001,65535
53.60799999999999,-7.370000000000001,65535
53.60799999999999,-8.018,65535
54.25599999999999,-8.666,65535
53.93199999999999,-8.666,65535
53.93199999999999,-8.018,65535
52.312,-6.722000000000001,65535
52.636,-6.722000000000001,65535
53.93199999999999,-6.722000000000001,65535
54.25599999999999,-6.074000000000002,65535
53.28399999999999,-7.370000000000001,65535
52.96,-7.370000000000001,65535
52.312,-8.666,65535
52.96,-8.018,65535
52.636,-7.370000000000001,65535
52.96,-6.722000000000001,65535
51.988,-9.314,65535
52.312,-9.314,65535
54.579999999999984,-6.722000000000001,65535
54.579999999999984,-6.074000000000002,65535
53.28399999999999,-8.018,65535
53.28399999999999,-8.666,65535
53.28399999999999,-9.314,65535
53.93199999999999,-9.314,65535
54.25599999999999,-9.314,65535
53.60799999999999,-8.666,65535
53.60799999999999,-9.314,65535
49.43266399999992,14.381143999999988,1640
49.75666399999992,14.381143999999988,1610
49.75666399999992,15.029143999999986,1606
49.75666399999992,13.733143999999989,1617
50.08066399999991,13.733143999999989,1613
49.75666399999992,15.677143999999986,1626
50.40466399999991,15.029143999999986,1575
49.43266399999992,13.733143999999989,1631
50.40466399999991,15.677143999999986,1667
50.40466399999991,13.733143999999989,1666
46.19266399999994,15.029143999999986,466
45.86866399999994,15.029143999999986,449
45.86866399999994,14.381143999999988,454
46.19266399999994,13.733143999999989,560
45.86866399999994,13.733143999999989,527
58.50466399999986,13.733143999999989,2900
58.180663999999865,13.733143999999989,2886
58.180663999999865,13.085143999999987,2858
57.85666399999987,12.437143999999988,2822
60.44866399999985,15.677143999999986,3107
60.124663999999854,15.677143999999986,3041
60.124663999999854,16.325143999999987,3079
59.800663999999855,16.325143999999987,3007
59.800663999999855,17.621143999999987,2986
59.47666399999986,18.269143999999983,2968
61.74466399999984,16.973143999999984,3118
61.420663999999846,16.973143999999984,3091
60.77266399999985,16.973143999999984,3043
65.63266399999982,22.15714399999998,4222
65.95666399999982,21.50914399999997,4182
65.63266399999982,20.86114399999998,4153
64.98466399999982,20.213143999999986,4085
64.66066399999983,20.213143999999986,4063
64.33666399999983,19.565143999999982,3757
64.01266399999983,19.565143999999982,3470
63.68866399999983,20.213143999999986,3423
64.66066399999983,18.917143999999983,6134
59.15266399999986,16.325143999999987,2943
59.15266399999986,15.029143999999986,2947
59.15266399999986,17.621143999999987,2960
57.53266399999987,14.381143999999988,2784
57.53266399999987,15.029143999999986,2804
61.09666399999985,14.381143999999988,3211
60.77266399999985,15.029143999999986,3162
60.44866399999985,15.029143999999986,3148
58.180663999999865,15.029143999999986,2861
58.50466399999986,16.325143999999987,2895
58.50466399999986,15.677143999999986,2868
63.36466399999984,13.085143999999987,3455
63.04066399999984,14.381143999999988,3392
62.39266399999984,15.677143999999986,3314
63.36466399999984,13.733143999999989,3437
63.36466399999984,14.381143999999988,3409
62.71666399999984,15.677143999999986,3342
62.39266399999984,17.621143999999987,3176
59.800663999999855,15.677143999999986,3229
55.58866399999988,13.733143999999989,2738
57.20866399999987,14.381143999999988,2768
57.85666399999987,14.381143999999988,2816
58.82866399999986,16.973143999999984,2952
58.82866399999986,16.325143999999987,2930
59.15266399999986,18.269143999999983,2964
60.44866399999985,17.621143999999987,3019
59.15266399999986,12.437143999999988,2923
59.15266399999986,13.085143999999987,2937
58.82866399999986,12.437143999999988,2899
59.47666399999986,16.325143999999987,2989
58.82866399999986,14.381143999999988,2976
59.47666399999986,15.677143999999986,3007
63.36466399999984,18.917143999999983,3376
63.04066399999984,17.621143999999987,3331
62.71666399999984,17.621143999999987,3305
63.68866399999983,19.565143999999982,3409
62.39266399999984,16.973143999999984,3220
59.800663999999855,16.973143999999984,2995
59.47666399999986,17.621143999999987,2972
57.85666399999987,13.085143999999987,2848
57.53266399999987,13.085143999999987,2829
58.50466399999986,11.789143999999988,2870
57.85666399999987,15.029143999999986,2850
57.20866399999987,13.733143999999989,2774
57.53266399999987,13.733143999999989,2835
61.74466399999984,16.325143999999987,3214
61.420663999999846,16.325143999999987,3181
61.09666399999985,16.325143999999987,3170
61.09666399999985,16.973143999999984,3138
60.124663999999854,15.029143999999986,3316
66.60466399999981,20.86114399999998,4257
67.25266399999981,20.86114399999998,4325
67.90066399999981,20.213143999999986,4395
67.57666399999981,20.213143999999986,5020
59.800663999999855,15.029143999999986,3036
58.50466399999986,15.029143999999986,2878
59.47666399999986,15.029143999999986,3021
60.44866399999985,16.325143999999987,3107
59.15266399999986,15.677143999999986,2965
57.85666399999987,13.733143999999989,2876
58.82866399999986,13.733143999999989,2923
58.50466399999986,13.085143999999987,2908
57.20866399999987,13.085143999999987,2805
56.88466399999987,13.085143999999987,2779
58.180663999999865,11.789143999999988,2841
62.06866399999984,16.973143999999984,3209
65.95666399999982,23.45314399999998,4457
59.800663999999855,14.381143999999988,5891
59.800663999999855,18.269143999999983,2977
63.04066399999984,15.029143999999986,3360
62.71666399999984,15.029143999999986,3350
62.39266399999984,16.325143999999987,3283
63.36466399999984,12.437143999999988,3488
68.5486639999998,17.621143999999987,4608
68.5486639999998,18.269143999999983,4541
68.5486639999998,18.917143999999983,4518
68.2246639999998,18.917143999999983,4474
59.800663999999855,13.085143999999987,3040
60.124663999999854,13.085143999999987,3079
59.47666399999986,16.973143999999984,2981
59.15266399999986,16.973143999999984,2973
56.56066399999988,13.733143999999989,2726
60.124663999999854,17.621143999999987,2996
57.85666399999987,16.325143999999987,2955
58.180663999999865,16.325143999999987,2917
58.180663999999865,15.677143999999986,2925
57.20866399999987,16.325143999999987,2967
57.53266399999987,15.677143999999986,2985
57.85666399999987,15.677143999999986,2956
44.89666399999994,23.45314399999998,2965
44.572663999999946,23.45314399999998,3035
44.89666399999994,24.74914399999998,2952
44.572663999999946,24.74914399999998,3071
44.572663999999946,24.101143999999977,3012
44.24866399999995,24.101143999999977,3041
47.48866399999993,25.397143999999983,2813
47.48866399999993,24.74914399999998,2753
47.16466399999993,24.74914399999998,2675
47.16466399999993,24.101143999999977,2577
47.48866399999993,22.15714399999998,2707
47.81266399999993,22.15714399999998,2793
47.16466399999993,22.15714399999998,2686
47.16466399999993,23.45314399999998,2738
47.16466399999993,22.805143999999984,2744
46.84066399999993,24.101143999999977,2658
45.86866399999994,27.34114399999998,2998
45.54466399999994,27.34114399999998,2979
45.54466399999994,27.989143999999985,3095
45.86866399999994,20.86114399999998,2870
45.86866399999994,21.50914399999997,2878
46.19266399999994,21.50914399999997,2814
46.19266399999994,27.34114399999998,2998
46.19266399999994,26.69314399999997,2989
46.516663999999935,26.69314399999997,2951
46.516663999999935,26.04514399999998,2847
47.48866399999993,22.805143999999984,2805
46.84066399999993,22.805143999999984,2618
45.54466399999994,22.15714399999998,2927
45.22066399999994,22.15714399999998,3005
44.89666399999994,22.15714399999998,3423
47.48866399999993,23.45314399999998,2771
46.516663999999935,24.101143999999977,2497
46.516663999999935,24.74914399999998,2711
45.86866399999994,24.101143999999977,2660
47.16466399999993,26.69314399999997,3029
47.16466399999993,27.34114399999998,3084
43.92466399999995,25.397143999999983,3043
44.24866399999995,24.74914399999998,2950
44.89666399999994,26.04514399999998,2837
44.89666399999994,26.69314399999997,2884
45.22066399999994,26.69314399999997,2919
45.22066399999994,27.34114399999998,2946
46.84066399999993,26.69314399999997,2990
47.48866399999993,26.69314399999997,2983
44.24866399999995,25.397143999999983,2882
43.92466399999995,26.04514399999998,3059
46.19266399999994,24.101143999999977,2705
44.572663999999946,25.397143999999983,2920
46.84066399999993,24.74914399999998,2718
46.516663999999935,21.50914399999997,2818
46.84066399999993,21.50914399999997,2825
44.572663999999946,26.69314399999997,2875
44.572663999999946,27.34114399999998,2896
44.89666399999994,27.34114399999998,3011
44.572663999999946,27.989143999999985,2916
44.24866399999995,27.989143999999985,2930
44.572663999999946,28.63714399999997,2981
45.86866399999994,22.15714399999998,2739
45.86866399999994,22.805143999999984,2633
44.24866399999995,23.45314399999998,3068
43.92466399999995,27.989143999999985,65535
46.84066399999993,27.34114399999998,3151
45.22066399999994,23.45314399999998,2940
45.54466399999994,23.45314399999998,2743
45.54466399999994,24.101143999999977,2690
45.22066399999994,24.101143999999977,2914
44.89666399999994,24.101143999999977,2984
46.19266399999994,22.15714399999998,2870
46.516663999999935,22.15714399999998,2836
45.22066399999994,21.50914399999997,3110
45.54466399999994,21.50914399999997,2958
45.54466399999994,20.86114399999998,2982
46.516663999999935,27.989143999999985,3101
46.19266399999994,27.989143999999985,3086
45.54466399999994,25.397143999999983,2804
45.22066399999994,25.397143999999983,2814
45.22066399999994,26.04514399999998,2870
47.81266399999993,24.101143999999977,2866
47.48866399999993,26.04514399999998,2956
47.81266399999993,26.04514399999998,2978
46.19266399999994,23.45314399999998,2537
45.86866399999994,23.45314399999998,2586
44.24866399999995,26.04514399999998,2864
45.22066399999994,27.989143999999985,3076
45.86866399999994,24.74914399999998,2699
46.516663999999935,25.397143999999983,2891
46.84066399999993,25.397143999999983,2774
46.19266399999994,26.04514399999998,2862
45.86866399999994,26.04514399999998,2827
43.92466399999995,23.45314399999998,3298
44.89666399999994,25.397143999999983,2925
46.19266399999994,20.86114399999998,2859
47.81266399999993,25.397143999999983,2990
44.572663999999946,22.805143999999984,3303
44.572663999999946,22.15714399999998,3445
46.516663999999935,23.45314399999998,2676
45.86866399999994,25.397143999999983,2753
44.24866399999995,27.34114399999998,3691
45.22066399999994,24.74914399999998,3016
45.54466399999994,22.805143999999984,2706
45.22066399999994,28.63714399999997,3136
44.89666399999994,28.63714399999997,3075
47.81266399999993,23.45314399999998,2923
46.19266399999994,24.74914399999998,2785
46.19266399999994,25.397143999999983,2809
43.92466399999995,24.101143999999977,3261
43.92466399999995,24.74914399999998,3274
47.81266399999993,26.69314399999997,3205
47.48866399999993,24.101143999999977,2798
46.84066399999993,26.04514399999998,3606
46.19266399999994,22.805143999999984,2930
47.48866399999993,27.34114399999998,3158
46.19266399999994,20.213143999999986,65535
45.54466399999994,26.04514399999998,2962
44.24866399999995,26.69314399999997,2880
45.86866399999994,27.989143999999985,3134
47.81266399999993,5.957143999999991,7066
