51.56399999999999,-0.4100000000000028,65535
51.887999999999984,-0.4100000000000028,65535
50.91599999999999,-1.7060000000000022,65535
51.23999999999999,-1.0580000000000025,65535
51.56399999999999,-1.0580000000000025,65535
51.23999999999999,-1.7060000000000022,65535
51.56399999999999,0.2379999999999968,65535
47.16466399999993,9.845143999999989,567
47.48866399999993,9.845143999999989,555
48.136663999999925,14.381143999999988,815
47.81266399999993,13.085143999999987,429
47.16466399999993,11.141143999999988,620
47.48866399999993,11.789143999999988,590
48.136663999999925,16.325143999999987,971
47.48866399999993,12.437143999999988,478
48.136663999999925,15.677143999999986,1034
47.16466399999993,10.493143999999988,901
47.16466399999993,9.197143999999987,553
48.136663999999925,13.733143999999989,775
48.136663999999925,15.029143999999986,1199
47.81266399999993,16.973143999999984,1015
48.46066399999992,14.381143999999988,3784
47.48866399999993,13.085143999999987,377
47.16466399999993,13.085143999999987,347
47.48866399999993,14.381143999999988,780
47.48866399999993,13.733143999999989,951
47.48866399999993,15.029143999999986,1122
46.516663999999935,13.733143999999989,183
46.84066399999993,13.733143999999989,193
46.84066399999993,13.085143999999987,225
48.78466399999992,14.381143999999988,65535
47.16466399999993,15.677143999999986,899
46.516663999999935,14.381143999999988,169
46.84066399999993,14.381143999999988,193
47.16466399999993,14.381143999999988,2405
46.516663999999935,15.029143999999986,195
47.81266399999993,16.325143999999987,965
47.16466399999993,15.029143999999986,1043
47.81266399999993,15.677143999999986,976
47.48866399999993,15.677143999999986,949
46.516663999999935,13.085143999999987,434
46.84066399999993,12.437143999999988,298
48.136663999999925,11.789143999999988,465
47.81266399999993,12.437143999999988,448
46.84066399999993,15.677143999999986,781
46.516663999999935,15.677143999999986,218
46.84066399999993,16.325143999999987,286
47.81266399999993,14.381143999999988,871
48.78466399999992,16.973143999999984,1071
48.136663999999925,16.973143999999984,982
48.46066399999992,13.733143999999989,570
47.81266399999993,13.733143999999989,851
50.08066399999991,8.54914399999999,584
48.46066399999992,9.845143999999989,505
51.05266399999991,7.25314399999999,861
51.37666399999991,7.25314399999999,864
51.37666399999991,6.60514399999999,875
48.46066399999992,16.325143999999987,1008
48.46066399999992,16.973143999999984,1029
48.78466399999992,16.325143999999987,1130
48.46066399999992,15.677143999999986,1043
48.78466399999992,15.677143999999986,1067
47.48866399999993,16.325143999999987,941
47.16466399999993,16.325143999999987,867
46.19266399999994,14.381143999999988,157
45.86866399999994,15.677143999999986,131
43.60066399999995,16.325143999999987,280
45.54466399999994,14.381143999999988,117
45.54466399999994,13.733143999999989,159
48.136663999999925,13.085143999999987,465
48.46066399999992,11.141143999999988,473
48.136663999999925,11.141143999999988,467
48.46066399999992,7.90114399999999,780
49.10866399999992,8.54914399999999,596
48.78466399999992,2.0691439999999925,986
49.10866399999992,7.25314399999999,840
52.0246639999999,7.90114399999999,940
47.16466399999993,11.789143999999988,631
49.43266399999992,11.141143999999988,516
53.64466399999989,9.845143999999989,1015
50.72866399999991,4.013143999999992,951
51.05266399999991,11.141143999999988,945
47.48866399999993,11.141143999999988,513
46.84066399999993,11.789143999999988,1502
46.516663999999935,11.141143999999988,1382
45.54466399999994,11.141143999999988,1288
46.19266399999994,11.141143999999988,1376
45.86866399999994,11.141143999999988,1363
44.572663999999946,11.141143999999988,1332
43.92466399999995,12.437143999999988,65535
45.54466399999994,12.437143999999988,1334
45.54466399999994,11.789143999999988,1315
48.78466399999992,15.029143999999986,1692
47.81266399999993,15.029143999999986,1290
47.81266399999993,11.141143999999988,488
50.40466399999991,18.917143999999983,1327
52.3486639999999,20.86114399999998,1630
54.616663999999886,18.269143999999983,1537
54.29266399999989,18.917143999999983,1538
49.10866399999992,14.381143999999988,65535
50.08066399999991,14.381143999999988,1143
48.78466399999992,13.733143999999989,955
52.6726639999999,13.085143999999987,1076
52.3486639999999,13.085143999999987,1075
53.96866399999989,12.437143999999988,1126
54.29266399999989,12.437143999999988,1132
47.48866399999993,8.54914399999999,546
47.81266399999993,17.621143999999987,992
47.48866399999993,18.917143999999983,1100
47.48866399999993,20.86114399999998,1436
46.84066399999993,23.45314399999998,1918
44.572663999999946,26.04514399999998,2367
47.48866399999993,21.50914399999997,1472
47.81266399999993,21.50914399999997,1868
48.46066399999992,22.15714399999998,1297
47.48866399999993,16.973143999999984,65535
49.10866399999992,16.325143999999987,1116
49.75666399999992,18.269143999999983,1319
46.19266399999994,13.085143999999987,863
41.98066399999996,12.437143999999988,2470
43.60066399999995,10.493143999999988,2726
45.54466399999994,9.197143999999987,938
47.81266399999993,22.805143999999984,1723
49.75666399999992,22.805143999999984,1634
50.72866399999991,3.365143999999992,962
51.05266399999991,4.013143999999992,955
50.72866399999991,4.661143999999991,949
51.05266399999991,4.661143999999991,953
51.05266399999991,3.365143999999992,964
51.05266399999991,2.717143999999992,1007
50.40466399999991,4.661143999999991,963
50.72866399999991,2.717143999999992,982
50.40466399999991,4.013143999999992,967
51.05266399999991,5.309143999999991,961
50.72866399999991,5.309143999999991,928
51.37666399999991,3.365143999999992,1000
51.37666399999991,4.661143999999991,969
50.72866399999991,5.957143999999991,892
50.40466399999991,5.957143999999991,903
50.40466399999991,3.365143999999992,976
50.40466399999991,5.309143999999991,932
50.08066399999991,5.309143999999991,960
49.75666399999992,5.309143999999991,944
49.75666399999992,5.957143999999991,915
51.37666399999991,5.309143999999991,1016
51.700663999999904,4.661143999999991,998
50.08066399999991,4.013143999999992,1002
50.08066399999991,5.957143999999991,921
50.08066399999991,4.661143999999991,978
49.43266399999992,5.309143999999991,980
49.43266399999992,5.957143999999991,945
52.0246639999999,4.661143999999991,2229
52.3486639999999,4.661143999999991,2264
50.72866399999991,15.029143999999986,1081
51.05266399999991,15.029143999999986,1037
51.05266399999991,13.733143999999989,998
50.40466399999991,13.085143999999987,947
49.10866399999992,7.90114399999999,913
48.78466399999992,7.90114399999999,578
50.40466399999991,7.90114399999999,594
50.08066399999991,7.90114399999999,587
49.75666399999992,7.90114399999999,600
49.43266399999992,7.90114399999999,623
49.75666399999992,8.54914399999999,591
49.43266399999992,8.54914399999999,602
49.43266399999992,9.197143999999987,596
49.10866399999992,9.197143999999987,564
47.48866399999993,7.90114399999999,568
47.81266399999993,7.90114399999999,760
48.136663999999925,7.90114399999999,786
48.136663999999925,9.845143999999989,515
47.81266399999993,9.197143999999987,535
47.81266399999993,8.54914399999999,541
47.81266399999993,9.845143999999989,527
54.940663999999884,9.197143999999987,1109
54.616663999999886,9.197143999999987,1080
54.29266399999989,9.197143999999987,1088
53.96866399999989,9.197143999999987,1085
53.64466399999989,9.197143999999987,1035
54.616663999999886,9.845143999999989,1072
54.29266399999989,9.845143999999989,1061
53.96866399999989,9.845143999999989,1028
53.64466399999989,10.493143999999988,1023
53.96866399999989,10.493143999999988,1029
53.96866399999989,11.141143999999988,1035
54.29266399999989,10.493143999999988,1078
53.32066399999989,10.493143999999988,999
54.940663999999884,11.141143999999988,1133
52.6726639999999,13.733143999999989,1073
52.3486639999999,13.733143999999989,1071
52.3486639999999,14.381143999999988,1060
52.0246639999999,14.381143999999988,1047
52.0246639999999,11.789143999999988,1014
52.3486639999999,11.789143999999988,1038
52.3486639999999,12.437143999999988,1058
52.0246639999999,15.029143999999986,1063
51.700663999999904,14.381143999999988,1039
52.0246639999999,13.733143999999989,1038
51.700663999999904,13.733143999999989,1010
52.6726639999999,12.437143999999988,1088
53.32066399999989,11.789143999999988,1054
53.96866399999989,11.789143999999988,1123
53.64466399999989,11.789143999999988,1097
53.64466399999989,11.141143999999988,1062
53.32066399999989,11.141143999999988,1031
52.996663999999896,11.789143999999988,1112
52.996663999999896,12.437143999999988,1104
52.996663999999896,13.733143999999989,1093
53.64466399999989,13.733143999999989,1177
53.96866399999989,13.733143999999989,1190
54.29266399999989,13.085143999999987,1179
53.96866399999989,13.085143999999987,1199
53.32066399999989,13.733143999999989,1175
52.0246639999999,13.085143999999987,1031
51.700663999999904,13.085143999999987,1006
52.996663999999896,14.381143999999988,1122
52.0246639999999,12.437143999999988,1013
51.700663999999904,12.437143999999988,971
51.37666399999991,11.789143999999988,967
51.37666399999991,12.437143999999988,964
52.6726639999999,11.789143999999988,1070
53.64466399999989,13.085143999999987,1162
53.32066399999989,13.085143999999987,1155
52.996663999999896,13.085143999999987,1113
53.64466399999989,12.437143999999988,1153
51.37666399999991,13.733143999999989,993
53.32066399999989,12.437143999999988,1136
52.6726639999999,14.381143999999988,1092
51.37666399999991,13.085143999999987,983
53.32066399999989,14.381143999999988,1155
52.3486639999999,15.029143999999986,1081
52.0246639999999,15.677143999999986,1108
51.700663999999904,15.029143999999986,1107
51.05266399999991,16.325143999999987,1119
51.05266399999991,16.973143999999984,1144
51.700663999999904,15.677143999999986,1128
51.37666399999991,15.677143999999986,1078
51.37666399999991,16.325143999999987,1110
50.72866399999991,13.085143999999987,956
50.72866399999991,12.437143999999988,946
51.05266399999991,13.085143999999987,972
51.05266399999991,14.381143999999988,1012
50.40466399999991,12.437143999999988,924
50.40466399999991,11.789143999999988,895
50.08066399999991,12.437143999999988,884
50.72866399999991,11.789143999999988,951
51.05266399999991,12.437143999999988,950
50.72866399999991,14.381143999999988,1125
51.37666399999991,14.381143999999988,1034
50.72866399999991,13.733143999999989,1055
50.40466399999991,14.381143999999988,1137
51.37666399999991,15.029143999999986,1042
55.26466399999988,9.197143999999987,1788
55.58866399999988,8.54914399999999,1822
55.91266399999988,8.54914399999999,2239
56.23666399999988,9.197143999999987,2247
56.23666399999988,10.493143999999988,2200
56.23666399999988,9.845143999999989,2187
55.91266399999988,9.845143999999989,2125
56.56066399999988,9.197143999999987,2257
56.56066399999988,8.54914399999999,2300
51.05266399999991,6.60514399999999,870
51.700663999999904,7.90114399999999,883
50.72866399999991,6.60514399999999,885
51.700663999999904,7.25314399999999,868
50.72866399999991,7.25314399999999,843
52.0246639999999,7.25314399999999,963
52.3486639999999,7.90114399999999,962
51.05266399999991,5.957143999999991,882
50.40466399999991,7.25314399999999,786
51.700663999999904,6.60514399999999,880
51.700663999999904,5.957143999999991,944
52.3486639999999,9.197143999999987,961
51.700663999999904,8.54914399999999,914
52.0246639999999,8.54914399999999,945
52.3486639999999,8.54914399999999,966
51.37666399999991,7.90114399999999,870
52.3486639999999,7.25314399999999,1006
51.37666399999991,5.957143999999991,941
50.72866399999991,7.90114399999999,931
51.37666399999991,9.197143999999987,954
51.700663999999904,9.197143999999987,926
50.40466399999991,6.60514399999999,912
51.05266399999991,7.90114399999999,906
51.37666399999991,8.54914399999999,975
52.0246639999999,5.957143999999991,951
52.3486639999999,6.60514399999999,1046
51.05266399999991,8.54914399999999,944
52.0246639999999,9.197143999999987,944
52.6726639999999,9.197143999999987,990
52.0246639999999,9.845143999999989,968
51.700663999999904,9.845143999999989,956
51.37666399999991,9.845143999999989,916
50.72866399999991,8.54914399999999,608
51.05266399999991,9.845143999999989,887
50.72866399999991,9.845143999999989,866
50.40466399999991,9.845143999999989,606
51.05266399999991,9.197143999999987,973
50.40466399999991,9.197143999999987,592
50.08066399999991,9.197143999999987,581
51.05266399999991,10.493143999999988,927
50.40466399999991,8.54914399999999,591
50.72866399999991,9.197143999999987,964
49.75666399999992,9.197143999999987,607
52.996663999999896,9.197143999999987,1029
52.3486639999999,9.845143999999989,953
52.996663999999896,8.54914399999999,1037
52.996663999999896,7.90114399999999,1049
53.32066399999989,7.90114399999999,1063
53.32066399999989,7.25314399999999,1093
53.64466399999989,7.25314399999999,1138
52.996663999999896,10.493143999999988,983
52.6726639999999,10.493143999999988,976
52.6726639999999,9.845143999999989,960
53.32066399999989,9.845143999999989,1009
53.32066399999989,9.197143999999987,1020
53.64466399999989,8.54914399999999,1070
53.32066399999989,8.54914399999999,1057
52.6726639999999,8.54914399999999,1023
52.0246639999999,10.493143999999988,989
52.0246639999999,11.141143999999988,1007
51.700663999999904,11.141143999999988,1000
52.6726639999999,7.25314399999999,1794
52.996663999999896,7.25314399999999,1822
52.6726639999999,7.90114399999999,1027
53.64466399999989,7.90114399999999,1091
52.996663999999896,11.141143999999988,1044
52.6726639999999,11.141143999999988,1070
52.3486639999999,10.493143999999988,967
52.996663999999896,9.845143999999989,996
51.700663999999904,10.493143999999988,978
51.37666399999991,10.493143999999988,978
51.700663999999904,11.789143999999988,981
52.3486639999999,11.141143999999988,989
51.37666399999991,11.141143999999988,981
51.05266399999991,11.789143999999988,958
49.10866399999992,11.141143999999988,495
48.78466399999992,11.141143999999988,484
48.46066399999992,11.789143999999988,472
49.43266399999992,11.789143999999988,549
50.08066399999991,11.789143999999988,565
49.75666399999992,12.437143999999988,851
49.10866399999992,11.789143999999988,531
48.78466399999992,12.437143999999988,504
48.46066399999992,12.437143999999988,491
49.10866399999992,12.437143999999988,521
48.78466399999992,13.085143999999987,531
48.136663999999925,12.437143999999988,468
47.81266399999993,11.789143999999988,456
48.136663999999925,10.493143999999988,483
47.81266399999993,10.493143999999988,497
48.78466399999992,10.493143999999988,514
47.48866399999993,10.493143999999988,836
48.46066399999992,10.493143999999988,484
49.43266399999992,13.085143999999987,938
48.46066399999992,13.085143999999987,496
49.43266399999992,10.493143999999988,527
49.75666399999992,9.845143999999989,541
49.75666399999992,10.493143999999988,624
50.40466399999991,11.141143999999988,920
50.08066399999991,11.141143999999988,552
50.72866399999991,11.141143999999988,944
49.75666399999992,11.141143999999988,548
48.78466399999992,11.789143999999988,852
50.40466399999991,10.493143999999988,949
50.08066399999991,9.845143999999989,544
50.08066399999991,10.493143999999988,575
49.43266399999992,12.437143999999988,878
49.75666399999992,11.789143999999988,535
49.10866399999992,13.085143999999987,568
50.72866399999991,10.493143999999988,931
49.10866399999992,10.493143999999988,764
48.78466399999992,9.845143999999989,529
48.46066399999992,8.54914399999999,554
48.46066399999992,9.197143999999987,550
48.78466399999992,9.197143999999987,546
48.78466399999992,8.54914399999999,565
50.08066399999991,7.25314399999999,808
49.75666399999992,6.60514399999999,870
49.43266399999992,6.60514399999999,910
49.10866399999992,6.60514399999999,902
49.43266399999992,7.25314399999999,817
49.75666399999992,7.25314399999999,605
49.10866399999992,5.957143999999991,873
48.78466399999992,7.25314399999999,942
50.08066399999991,6.60514399999999,867
47.48866399999993,9.197143999999987,547
48.136663999999925,8.54914399999999,803
48.136663999999925,9.197143999999987,541
47.81266399999993,7.25314399999999,739
49.43266399999992,9.845143999999989,900
49.10866399999992,9.845143999999989,571
53.64466399999989,14.381143999999988,1172
50.08066399999991,13.085143999999987,1154
49.75666399999992,13.085143999999987,1175
45.86866399999994,9.197143999999987,934
46.19266399999994,9.197143999999987,924
46.516663999999935,8.54914399999999,890
46.516663999999935,9.197143999999987,939
46.19266399999994,8.54914399999999,903
47.16466399999993,8.54914399999999,549
45.86866399999994,4.661143999999991,1042
46.84066399999993,9.845143999999989,571
45.22066399999994,5.957143999999991,1010
45.22066399999994,5.309143999999991,1057
45.86866399999994,5.957143999999991,900
45.54466399999994,5.957143999999991,983
44.89666399999994,4.661143999999991,1113
44.89666399999994,5.309143999999991,1109
44.572663999999946,4.661143999999991,1149
44.24866399999995,4.661143999999991,1226
43.92466399999995,4.661143999999991,1127
46.19266399999994,7.25314399999999,818
48.78466399999992,5.957143999999991,940
48.136663999999925,6.60514399999999,1029
48.46066399999992,6.60514399999999,910
48.78466399999992,6.60514399999999,924
47.16466399999993,7.90114399999999,583
48.136663999999925,7.25314399999999,902
48.46066399999992,7.25314399999999,927
46.516663999999935,6.60514399999999,749
46.84066399999993,6.60514399999999,734
46.84066399999993,7.25314399999999,609
46.516663999999935,5.957143999999991,758
46.19266399999994,5.957143999999991,767
46.84066399999993,8.54914399999999,561
46.84066399999993,7.90114399999999,825
45.86866399999994,5.309143999999991,1002
46.19266399999994,6.60514399999999,843
45.86866399999994,6.60514399999999,883
47.48866399999993,6.60514399999999,820
47.48866399999993,7.25314399999999,576
47.16466399999993,7.25314399999999,785
49.10866399999992,4.013143999999992,922
49.75666399999992,4.661143999999991,1017
49.43266399999992,4.661143999999991,1012
49.10866399999992,5.309143999999991,894
46.19266399999994,4.661143999999991,1069
46.84066399999993,9.197143999999987,842
46.19266399999994,5.309143999999991,1001
46.516663999999935,5.309143999999991,959
45.54466399999994,6.60514399999999,1095
45.54466399999994,5.309143999999991,1051
43.60066399999995,4.013143999999992,1159
43.60066399999995,3.365143999999992,1212
42.62866399999996,2.717143999999992,1285
43.276663999999954,2.717143999999992,1230
45.54466399999994,4.661143999999991,1046
45.22066399999994,4.661143999999991,1076
47.16466399999993,5.309143999999991,943
47.16466399999993,5.957143999999991,907
46.19266399999994,7.90114399999999,868
49.75666399999992,2.717143999999992,1047
49.10866399999992,2.717143999999992,958
48.78466399999992,2.717143999999992,976
45.86866399999994,3.365143999999992,1219
46.84066399999993,3.365143999999992,1072
46.516663999999935,3.365143999999992,1146
46.19266399999994,3.365143999999992,1160
47.16466399999993,6.60514399999999,884
49.10866399999992,3.365143999999992,947
45.54466399999994,4.013143999999992,1099
46.516663999999935,7.25314399999999,792
47.16466399999993,4.661143999999991,990
46.84066399999993,4.661143999999991,1017
46.516663999999935,4.661143999999991,1041
46.84066399999993,5.957143999999991,921
47.81266399999993,3.365143999999992,1101
47.48866399999993,4.013143999999992,1067
48.136663999999925,4.013143999999992,970
47.81266399999993,4.013143999999992,1041
47.48866399999993,4.661143999999991,1063
47.16466399999993,3.365143999999992,1107
46.84066399999993,4.013143999999992,1040
48.46066399999992,5.957143999999991,1001
46.19266399999994,2.717143999999992,1271
47.16466399999993,2.0691439999999925,1176
46.516663999999935,2.717143999999992,1405
46.84066399999993,2.717143999999992,1244
46.84066399999993,2.0691439999999925,1167
47.16466399999993,2.717143999999992,1121
44.572663999999946,5.309143999999991,1192
44.572663999999946,5.957143999999991,1183
44.89666399999994,6.60514399999999,1163
44.572663999999946,6.60514399999999,1269
43.60066399999995,5.309143999999991,1098
43.92466399999995,7.25314399999999,1085
43.60066399999995,6.60514399999999,1106
43.276663999999954,6.60514399999999,1157
43.276663999999954,5.957143999999991,1150
45.86866399999994,8.54914399999999,944
45.54466399999994,8.54914399999999,942
48.136663999999925,3.365143999999992,1084
48.46066399999992,3.365143999999992,1003
48.46066399999992,2.717143999999992,1023
47.48866399999993,5.309143999999991,1089
46.516663999999935,9.845143999999989,924
46.84066399999993,10.493143999999988,968
47.81266399999993,5.309143999999991,893
45.22066399999994,6.60514399999999,1129
46.19266399999994,4.013143999999992,1121
45.86866399999994,4.013143999999992,1139
45.22066399999994,4.013143999999992,1277
44.89666399999994,4.013143999999992,1344
46.84066399999993,5.309143999999991,1050
48.136663999999925,-1.8188560000000056,1105
48.136663999999925,0.1251439999999934,1053
48.136663999999925,-0.5228560000000062,1175
47.48866399999993,-0.5228560000000062,1098
47.16466399999993,-1.8188560000000056,1138
47.48866399999993,0.7731439999999932,1086
47.16466399999993,0.1251439999999934,1270
45.86866399999994,7.25314399999999,888
48.136663999999925,5.309143999999991,919
49.10866399999992,4.661143999999991,980
48.46066399999992,4.013143999999992,992
48.136663999999925,4.661143999999991,941
47.81266399999993,6.60514399999999,837
47.48866399999993,5.957143999999991,853
48.136663999999925,5.957143999999991,1406
45.86866399999994,7.90114399999999,887
46.516663999999935,7.90114399999999,832
49.43266399999992,3.365143999999992,1107
49.43266399999992,4.013143999999992,999
48.136663999999925,2.717143999999992,1090
47.81266399999993,2.717143999999992,1101
47.48866399999993,2.717143999999992,1121
50.40466399999991,2.717143999999992,995
48.46066399999992,-4.410856000000004,1298
48.46066399999992,-3.7628560000000046,1260
48.46066399999992,-3.114856000000005,1231
48.46066399999992,-2.4668560000000053,1150
47.48866399999993,1.4211439999999929,1095
47.16466399999993,1.4211439999999929,1129
46.516663999999935,4.013143999999992,1046
43.60066399999995,4.661143999999991,1115
44.89666399999994,2.717143999999992,1398
45.22066399999994,2.717143999999992,1348
45.54466399999994,3.365143999999992,1231
45.22066399999994,3.365143999999992,1300
47.48866399999993,3.365143999999992,1244
46.19266399999994,9.845143999999989,1102
47.81266399999993,2.0691439999999925,1052
47.48866399999993,2.0691439999999925,1123
45.86866399999994,2.717143999999992,1240
44.89666399999994,5.957143999999991,1110
45.22066399999994,1.4211439999999929,1259
44.89666399999994,1.4211439999999929,1286
44.89666399999994,2.0691439999999925,1452
43.276663999999954,2.0691439999999925,1266
43.60066399999995,1.4211439999999929,1278
48.78466399999992,4.661143999999991,999
48.78466399999992,5.309143999999991,1113
46.19266399999994,2.0691439999999925,1216
45.86866399999994,1.4211439999999929,1197
46.19266399999994,1.4211439999999929,1162
44.572663999999946,4.013143999999992,1313
44.89666399999994,3.365143999999992,1362
43.92466399999995,4.013143999999992,1230
44.24866399999995,4.013143999999992,1247
44.89666399999994,-0.5228560000000062,1156
45.54466399999994,0.1251439999999934,1163
46.516663999999935,0.1251439999999934,1120
44.572663999999946,2.0691439999999925,1338
49.75666399999992,4.013143999999992,1267
43.92466399999995,3.365143999999992,1587
43.92466399999995,2.717143999999992,1548
44.24866399999995,3.365143999999992,1501
44.572663999999946,3.365143999999992,1379
49.10866399999992,0.1251439999999934,1128
49.43266399999992,0.7731439999999932,1076
49.43266399999992,-1.8188560000000056,1196
49.10866399999992,-1.170856000000006,1171
49.10866399999992,-0.5228560000000062,1138
49.10866399999992,0.7731439999999932,1134
49.10866399999992,1.4211439999999929,1114
47.81266399999993,-1.8188560000000056,1143
47.81266399999993,-2.4668560000000053,1168
47.81266399999993,-3.114856000000005,1181
48.136663999999925,-3.7628560000000046,1244
44.572663999999946,9.197143999999987,1076
44.89666399999994,8.54914399999999,1017
45.22066399999994,9.197143999999987,949
45.54466399999994,10.493143999999988,1027
44.572663999999946,10.493143999999988,1318
44.89666399999994,10.493143999999988,1093
44.89666399999994,9.845143999999989,1061
48.46066399999992,5.309143999999991,974
50.91599999999999,-1.0580000000000025,65535
51.23999999999999,-0.4100000000000028,65535
50.91599999999999,-0.4100000000000028,65535
51.23999999999999,-2.354000000000002,65535
51.56399999999999,-2.354000000000002,65535
51.56399999999999,-3.0020000000000016,65535
50.91599999999999,-2.354000000000002,65535
53.50799999999997,-3.0020000000000016,65535
53.183999999999976,-2.354000000000002,65535
53.183999999999976,-3.0020000000000016,65535
52.85999999999998,-2.354000000000002,65535
52.21199999999998,-1.0580000000000025,65535
51.887999999999984,-1.0580000000000025,65535
52.53599999999998,-1.0580000000000025,65535
52.53599999999998,-1.7060000000000022,65535
52.85999999999998,-1.7060000000000022,65535
53.50799999999997,-2.354000000000002,65535
52.85999999999998,-1.0580000000000025,65535
52.53599999999998,1.5339999999999965,65535
52.53599999999998,0.8859999999999966,65535
52.53599999999998,0.2379999999999968,65535
52.53599999999998,-0.4100000000000028,65535
53.50799999999997,-1.7060000000000022,65535
53.183999999999976,-1.7060000000000022,65535
53.183999999999976,-1.0580000000000025,65535
52.85999999999998,-0.4100000000000028,65535
51.887999999999984,-2.354000000000002,65535
52.21199999999998,-2.354000000000002,65535
55.77599999999996,-2.354000000000002,65535
53.83199999999997,-1.0580000000000025,65535
53.83199999999997,-1.7060000000000022,65535
55.127999999999965,-1.7060000000000022,65535
54.80399999999997,-1.7060000000000022,65535
54.47999999999997,-1.7060000000000022,65535
54.15599999999997,-1.0580000000000025,65535
52.21199999999998,-1.7060000000000022,65535
53.50799999999997,-1.0580000000000025,65535
55.77599999999996,-3.0020000000000016,65535
55.45199999999996,-1.7060000000000022,65535
57.07199999999995,-2.354000000000002,65535
56.74799999999996,-3.0020000000000016,65535
56.42399999999996,-3.0020000000000016,65535
56.09999999999996,-3.650000000000001,65535
50.91599999999999,-3.0020000000000016,65535
50.91599999999999,-3.650000000000001,65535
50.59199999999999,-3.650000000000001,65535
50.59199999999999,-4.298000000000001,65535
51.23999999999999,-3.0020000000000016,65535
50.268,-4.946000000000001,65535
55.77599999999996,-3.650000000000001,65535
55.77599999999996,-4.298000000000001,65535
52.21199999999998,-0.4100000000000028,65535
52.53599999999998,-2.354000000000002,65535
51.56399999999999,-1.7060000000000022,65535
51.56399999999999,-3.650000000000001,65535
51.887999999999984,-4.298000000000001,65535
51.56399999999999,-4.298000000000001,65535
51.887999999999984,-1.7060000000000022,65535
52.21199999999998,-3.0020000000000016,65535
51.23999999999999,0.2379999999999968,65535
50.91599999999999,0.2379999999999968,65535
52.21199999999998,0.2379999999999968,65535
53.83199999999997,-3.0020000000000016,65535
54.15599999999997,-3.0020000000000016,65535
54.47999999999997,-3.0020000000000016,65535
55.127999999999965,-3.650000000000001,65535
54.80399999999997,-3.0020000000000016,65535
53.83199999999997,-2.354000000000002,65535
54.15599999999997,-0.4100000000000028,65535
54.47999999999997,-1.0580000000000025,65535
53.83199999999997,-0.4100000000000028,65535
53.183999999999976,-3.650000000000001,65535
53.183999999999976,-4.298000000000001,65535
52.85999999999998,-3.0020000000000016,65535
52.53599999999998,-3.0020000000000016,65535
51.887999999999984,-3.0020000000000016,65535
51.23999999999999,0.8859999999999966,65535
51.887999999999984,0.2379999999999968,65535
52.21199999999998,0.8859999999999966,65535
51.887999999999984,-4.946000000000001,65535
52.53599999999998,-3.650000000000001,65535
52.21199999999998,-4.298000000000001,65535
53.183999999999976,-0.4100000000000028,65535
51.23999999999999,-3.650000000000001,65535
51.887999999999984,-3.650000000000001,65535
52.21199999999998,-3.650000000000001,65535
51.56399999999999,0.8859999999999966,65535
51.887999999999984,0.8859999999999966,65535
52.85999999999998,0.8859999999999966,65535
53.50799999999997,-0.4100000000000028,65535
56.09999999999996,-4.298000000000001,65535
56.74799999999996,-4.946000000000001,65535
56.74799999999996,-4.298000000000001,65535
56.42399999999996,-4.946000000000001,65535
56.42399999999996,-4.298000000000001,65535
56.09999999999996,-4.946000000000001,65535
57.39599999999995,-4.298000000000001,65535
57.39599999999995,-3.0020000000000016,65535
57.39599999999995,-3.650000000000001,65535
56.42399999999996,-3.650000000000001,65535
57.07199999999995,-3.650000000000001,65535
57.07199999999995,-4.298000000000001,65535
56.74799999999996,-3.650000000000001,65535
59.15266399999986,27.34114399999998,65535
59.47666399999986,26.69314399999997,65535
59.47666399999986,26.04514399999998,65535
59.15266399999986,26.04514399999998,65535
59.15266399999986,24.74914399999998,65535
59.15266399999986,25.397143999999983,65535
59.47666399999986,25.397143999999983,65535
58.50466399999986,26.69314399999997,65535
58.82866399999986,26.69314399999997,65535
57.85666399999987,26.04514399999998,65535
58.180663999999865,26.04514399999998,65535
58.180663999999865,26.69314399999997,65535
58.82866399999986,26.04514399999998,65535
58.50466399999986,25.397143999999983,65535
58.82866399999986,25.397143999999983,65535
58.82866399999986,24.74914399999998,65535
58.180663999999865,27.34114399999998,65535
57.85666399999987,27.34114399999998,65535
63.68866399999983,27.34114399999998,65535
60.124663999999854,24.74914399999998,65535
60.44866399999985,24.74914399999998,65535
60.44866399999985,25.397143999999983,65535
60.77266399999985,25.397143999999983,65535
61.09666399999985,26.04514399999998,65535
60.77266399999985,26.04514399999998,65535
60.77266399999985,26.69314399999997,65535
61.09666399999985,25.397143999999983,65535
61.09666399999985,26.69314399999997,65535
61.420663999999846,26.69314399999997,65535
61.74466399999984,27.34114399999998,65535
62.06866399999984,27.34114399999998,65535
62.39266399999984,27.34114399999998,65535
62.71666399999984,27.34114399999998,65535
64.01266399999983,27.34114399999998,65535
63.36466399999984,27.34114399999998,65535
63.04066399999984,27.34114399999998,65535
63.04066399999984,27.989143999999985,65535
64.33666399999983,27.989143999999985,65535
64.33666399999983,27.34114399999998,65535
64.66066399999983,27.34114399999998,65535
64.66066399999983,26.69314399999997,4756
64.98466399999982,25.397143999999983,4519
64.66066399999983,26.04514399999998,4736
64.98466399999982,26.04514399999998,4720
66.28066399999982,25.397143999999983,65535
65.95666399999982,24.74914399999998,4432
65.63266399999982,24.74914399999998,4436
65.63266399999982,25.397143999999983,4478
65.30866399999982,25.397143999999983,4499
66.60466399999981,25.397143999999983,65535
64.01266399999983,24.74914399999998,4656
64.01266399999983,24.101143999999977,4691
64.01266399999983,23.45314399999998,4715
63.68866399999983,23.45314399999998,4727
63.68866399999983,22.805143999999984,4752
63.68866399999983,26.04514399999998,65535
63.68866399999983,25.397143999999983,65535
63.68866399999983,26.69314399999997,65535
60.44866399999985,26.69314399999997,65535
64.01266399999983,27.989143999999985,65535
62.71666399999984,22.805143999999984,65535
62.39266399999984,22.805143999999984,65535
62.06866399999984,22.805143999999984,65535
62.06866399999984,23.45314399999998,65535
61.74466399999984,23.45314399999998,65535
61.420663999999846,23.45314399999998,65535
61.09666399999985,23.45314399999998,65535
61.09666399999985,24.101143999999977,65535
61.09666399999985,24.74914399999998,65535
60.77266399999985,24.74914399999998,65535
63.04066399999984,21.50914399999997,65535
63.04066399999984,22.15714399999998,65535
63.04066399999984,22.805143999999984,65535
62.39266399999984,26.04514399999998,65535
62.06866399999984,25.397143999999983,65535
61.74466399999984,25.397143999999983,65535
61.74466399999984,24.74914399999998,65535
61.74466399999984,24.101143999999977,65535
61.420663999999846,24.101143999999977,65535
62.39266399999984,26.69314399999997,65535
64.66066399999983,25.397143999999983,4588
64.66066399999983,24.74914399999998,4606
64.33666399999983,24.74914399999998,4617
63.36466399999984,22.805143999999984,4777
67.25266399999981,24.101143999999977,65535
66.92866399999981,24.101143999999977,65535
66.60466399999981,23.45314399999998,65535
66.28066399999982,23.45314399999998,65535
66.28066399999982,24.101143999999977,65535
65.95666399999982,24.101143999999977,3804
60.124663999999854,24.101143999999977,65535
60.124663999999854,23.45314399999998,65535
60.44866399999985,22.805143999999984,65535
60.77266399999985,27.34114399999998,65535
61.09666399999985,27.989143999999985,65535
61.09666399999985,28.63714399999997,65535
61.420663999999846,29.28514399999997,65535
61.74466399999984,29.933143999999977,65535
62.06866399999984,29.933143999999977,65535
62.39266399999984,29.933143999999977,65535
62.71666399999984,29.933143999999977,65535
61.420663999999846,22.805143999999984,65535
61.420663999999846,22.15714399999998,65535
61.09666399999985,22.15714399999998,65535
61.420663999999846,21.50914399999997,65535
62.39266399999984,27.989143999999985,65535
62.06866399999984,27.989143999999985,65535
61.420663999999846,27.34114399999998,65535
63.04066399999984,29.933143999999977,65535
63.68866399999983,29.28514399999997,65535
63.36466399999984,29.28514399999997,65535
63.36466399999984,29.933143999999977,65535
60.44866399999985,27.34114399999998,65535
61.74466399999984,29.28514399999997,65535
62.39266399999984,30.58114399999998,65535
62.71666399999984,31.229143999999977,65535
62.71666399999984,29.28514399999997,65535
63.04066399999984,28.63714399999997,65535
66.60466399999981,26.04514399999998,65535
66.60466399999981,26.69314399999997,65535
66.60466399999981,27.34114399999998,65535
62.71666399999984,26.04514399999998,65535
62.71666399999984,25.397143999999983,65535
63.04066399999984,25.397143999999983,65535
63.36466399999984,25.397143999999983,65535
62.71666399999984,23.45314399999998,65535
62.39266399999984,24.101143999999977,65535
62.71666399999984,22.15714399999998,65535
62.39266399999984,22.15714399999998,65535
62.39266399999984,21.50914399999997,65535
61.09666399999985,21.50914399999997,65535
60.77266399999985,22.805143999999984,65535
60.44866399999985,22.15714399999998,65535
60.77266399999985,23.45314399999998,65535
60.77266399999985,21.50914399999997,65535
60.77266399999985,22.15714399999998,65535
60.124663999999854,22.805143999999984,65535
60.44866399999985,24.101143999999977,65535
62.06866399999984,24.74914399999998,65535
50.72866399999991,16.325143999999987,1177
50.40466399999991,16.973143999999984,1279
50.72866399999991,16.973143999999984,1194
50.40466399999991,16.325143999999987,1302
50.08066399999991,16.973143999999984,1390
50.08066399999991,16.325143999999987,1233
51.700663999999904,16.973143999999984,1199
51.37666399999991,16.973143999999984,1170
51.05266399999991,15.677143999999986,1102
50.72866399999991,15.677143999999986,1167
51.05266399999991,17.621143999999987,1156
51.37666399999991,17.621143999999987,1180
51.700663999999904,17.621143999999987,1303
51.700663999999904,16.325143999999987,1126
52.0246639999999,22.15714399999998,1695
52.0246639999999,21.50914399999997,1647
52.3486639999999,21.50914399999997,1644
52.0246639999999,20.86114399999998,1632
51.700663999999904,20.86114399999998,1658
51.37666399999991,21.50914399999997,1689
51.37666399999991,20.86114399999998,1670
51.05266399999991,20.86114399999998,1622
52.6726639999999,23.45314399999998,1762
52.3486639999999,22.805143999999984,1701
52.3486639999999,20.213143999999986,1639
52.0246639999999,20.213143999999986,1622
52.3486639999999,19.565143999999982,1444
52.6726639999999,19.565143999999982,1527
51.700663999999904,21.50914399999997,1677
51.700663999999904,22.15714399999998,1711
52.6726639999999,21.50914399999997,1653
52.996663999999896,21.50914399999997,1669
52.6726639999999,20.86114399999998,1648
52.6726639999999,22.15714399999998,1669
52.6726639999999,20.213143999999986,1586
52.996663999999896,19.565143999999982,1579
52.996663999999896,20.86114399999998,1673
52.996663999999896,20.213143999999986,1680
53.32066399999989,20.213143999999986,1723
51.37666399999991,20.213143999999986,1574
52.3486639999999,16.973143999999984,1242
52.0246639999999,16.973143999999984,1231
52.0246639999999,16.325143999999987,1138
52.0246639999999,17.621143999999987,1280
52.6726639999999,16.973143999999984,1254
52.996663999999896,16.973143999999984,1290
52.3486639999999,16.325143999999987,1199
52.3486639999999,15.677143999999986,1204
51.700663999999904,18.269143999999983,1363
52.6726639999999,17.621143999999987,1300
52.3486639999999,17.621143999999987,1286
52.6726639999999,18.269143999999983,1374
52.3486639999999,18.269143999999983,1357
52.3486639999999,18.917143999999983,1404
52.996663999999896,17.621143999999987,1398
51.700663999999904,19.565143999999982,1444
51.700663999999904,18.917143999999983,1411
51.37666399999991,18.269143999999983,1366
58.82866399999986,9.197143999999987,2768
58.180663999999865,7.90114399999999,2861
58.50466399999986,8.54914399999999,2812
63.36466399999984,10.493143999999988,2983
63.36466399999984,11.141143999999988,2990
63.36466399999984,11.789143999999988,3025
63.68866399999983,11.789143999999988,3053
64.33666399999983,12.437143999999988,3454
64.66066399999983,12.437143999999988,3949
65.63266399999982,13.085143999999987,3606
65.95666399999982,13.085143999999987,3641
66.28066399999982,14.381143999999988,3711
65.95666399999982,13.733143999999989,3780
66.28066399999982,13.733143999999989,3689
65.30866399999982,13.085143999999987,3907
64.98466399999982,13.085143999999987,3541
64.01266399999983,11.789143999999988,3084
63.68866399999983,11.141143999999988,3021
59.800663999999855,10.493143999999988,2564
59.800663999999855,11.141143999999988,2547
60.124663999999854,11.141143999999988,2562
60.44866399999985,11.141143999999988,2575
60.124663999999854,11.789143999999988,2588
60.77266399999985,7.25314399999999,2824
60.77266399999985,6.60514399999999,2870
59.15266399999986,9.197143999999987,2650
59.47666399999986,9.197143999999987,2671
59.800663999999855,9.845143999999989,2566
59.47666399999986,11.141143999999988,2511
61.09666399999985,10.493143999999988,2685
60.77266399999985,10.493143999999988,2655
60.77266399999985,11.141143999999988,2610
62.06866399999984,9.197143999999987,3010
61.74466399999984,9.845143999999989,2956
61.420663999999846,9.845143999999989,2933
59.15266399999986,9.845143999999989,2630
59.47666399999986,9.845143999999989,2606
58.82866399999986,5.957143999999991,3045
58.180663999999865,7.25314399999999,2917
58.50466399999986,7.25314399999999,2950
58.50466399999986,6.60514399999999,2955
58.50466399999986,5.957143999999991,3013
58.82866399999986,8.54914399999999,2798
60.44866399999985,7.25314399999999,2798
60.44866399999985,7.90114399999999,2759
60.124663999999854,10.493143999999988,2596
60.44866399999985,9.197143999999987,2708
60.77266399999985,9.197143999999987,2720
60.77266399999985,8.54914399999999,2739
60.124663999999854,9.845143999999989,2975
60.44866399999985,10.493143999999988,2641
63.04066399999984,10.493143999999988,2934
62.06866399999984,9.845143999999989,3035
62.39266399999984,9.845143999999989,3043
62.71666399999984,9.845143999999989,3067
59.47666399999986,14.381143999999988,2560
59.47666399999986,13.733143999999989,2501
59.47666399999986,13.085143999999987,2477
59.800663999999855,12.437143999999988,2546
59.15266399999986,11.141143999999988,2475
59.15266399999986,14.381143999999988,2574
58.82866399999986,11.789143999999988,2455
58.50466399999986,12.437143999999988,2385
58.180663999999865,12.437143999999988,2378
57.85666399999987,11.789143999999988,2329
62.71666399999984,7.90114399999999,3096
62.39266399999984,7.90114399999999,3053
62.06866399999984,8.54914399999999,3028
60.44866399999985,5.309143999999991,2944
60.44866399999985,5.957143999999991,2911
60.77266399999985,5.957143999999991,2900
62.39266399999984,11.141143999999988,2831
62.06866399999984,10.493143999999988,2786
61.74466399999984,11.141143999999988,2759
61.420663999999846,11.141143999999988,2713
61.09666399999985,11.141143999999988,2696
60.77266399999985,11.789143999999988,2673
63.04066399999984,11.141143999999988,2912
62.71666399999984,11.141143999999988,2855
62.39266399999984,10.493143999999988,2813
67.25266399999981,15.677143999999986,3830
67.25266399999981,15.029143999999986,3868
67.25266399999981,14.381143999999988,3896
66.92866399999981,15.029143999999986,3819
66.60466399999981,15.677143999999986,3797
64.01266399999983,11.141143999999988,3068
66.60466399999981,15.029143999999986,3860
54.29266399999989,18.269143999999983,1542
54.616663999999886,17.621143999999987,1492
53.96866399999989,18.269143999999983,1458
43.92466399999995,1.4211439999999929,1262
44.24866399999995,0.7731439999999932,1224
44.572663999999946,0.1251439999999934,1212
46.84066399999993,1.4211439999999929,1123
44.572663999999946,1.4211439999999929,1334
44.24866399999995,1.4211439999999929,1310
45.54466399999994,1.4211439999999929,1220
46.516663999999935,1.4211439999999929,1242
42.30466399999996,2.717143999999992,1350
44.24866399999995,2.717143999999992,1422
44.572663999999946,2.717143999999992,1398
43.92466399999995,2.0691439999999925,1293
42.30466399999996,2.0691439999999925,1480
42.62866399999996,2.0691439999999925,1351
42.62866399999996,1.4211439999999929,1344
42.95266399999996,1.4211439999999929,1312
43.276663999999954,1.4211439999999929,1297
46.516663999999935,-1.170856000000006,1234
46.19266399999994,-1.170856000000006,1225
45.86866399999994,-0.5228560000000062,1201
45.54466399999994,-0.5228560000000062,1182
48.46066399999992,1.4211439999999929,1015
41.332663999999966,2.0691439999999925,1494
41.98066399999996,2.717143999999992,1453
48.46066399999992,-1.8188560000000056,1198
47.81266399999993,0.7731439999999932,1243
46.84066399999993,0.7731439999999932,1258
44.572663999999946,-1.170856000000006,1165
43.60066399999995,-1.170856000000006,1288
43.276663999999954,-1.8188560000000056,1335
43.276663999999954,0.1251439999999934,1399
42.95266399999996,0.1251439999999934,1373
43.276663999999954,-0.5228560000000062,1345
43.60066399999995,-0.5228560000000062,1322
47.81266399999993,-3.7628560000000046,1228
47.48866399999993,-2.4668560000000053,1184
47.81266399999993,-0.5228560000000062,1182
46.516663999999935,-1.8188560000000056,1275
48.136663999999925,-1.170856000000006,1156
47.48866399999993,-1.170856000000006,1195
45.22066399999994,8.54914399999999,966
45.22066399999994,7.90114399999999,979
46.19266399999994,-0.5228560000000062,1181
46.516663999999935,-0.5228560000000062,1163
48.78466399999992,-3.114856000000005,1264
50.72866399999991,2.0691439999999925,1043
50.40466399999991,2.0691439999999925,1097
40.36066399999997,-3.7628560000000046,2865
41.65666399999997,-1.170856000000006,2782
41.332663999999966,1.4211439999999929,2720
43.276663999999954,13.733143999999989,65535
42.95266399999996,13.733143999999989,65535
41.65666399999997,15.029143999999986,65535
40.68466399999997,17.621143999999987,65535
43.60066399999995,13.085143999999987,3903
41.65666399999997,12.437143999999988,2512
41.65666399999997,13.085143999999987,2528
41.98066399999996,13.085143999999987,2504
41.65666399999997,13.733143999999989,3092
41.332663999999966,13.733143999999989,2570
41.332663999999966,14.381143999999988,3127
41.00866399999997,14.381143999999988,3154
41.332663999999966,13.085143999999987,2553
41.00866399999997,15.029143999999986,4335
41.98066399999996,13.733143999999989,2586
42.30466399999996,14.381143999999988,4416
42.30466399999996,12.437143999999988,2755
42.62866399999996,12.437143999999988,3054
42.95266399999996,12.437143999999988,3108
42.30466399999996,11.789143999999988,2563
42.95266399999996,11.789143999999988,3818
42.62866399999996,11.789143999999988,3739
43.276663999999954,11.789143999999988,4290
42.95266399999996,13.085143999999987,3804
42.30466399999996,13.085143999999987,4303
43.276663999999954,13.085143999999987,3852
43.276663999999954,12.437143999999988,3859
42.62866399999996,11.141143999999988,2632
42.95266399999996,11.141143999999988,2675
42.95266399999996,10.493143999999988,2693
44.572663999999946,8.54914399999999,1070
44.89666399999994,7.90114399999999,986
44.89666399999994,9.197143999999987,1092
44.24866399999995,7.90114399999999,1046
44.572663999999946,7.90114399999999,1016
43.92466399999995,7.90114399999999,1059
44.24866399999995,7.25314399999999,1061
44.89666399999994,7.25314399999999,1098
45.22066399999994,7.25314399999999,1018
45.54466399999994,7.90114399999999,1025
44.572663999999946,7.25314399999999,2302
52.996663999999896,22.805143999999984,2215
52.996663999999896,23.45314399999998,2244
51.37666399999991,22.15714399999998,2171
51.37666399999991,22.805143999999984,2225
50.08066399999991,20.213143999999986,1506
50.72866399999991,20.213143999999986,1507
50.40466399999991,20.213143999999986,1446
50.08066399999991,20.86114399999998,1507
50.08066399999991,21.50914399999997,1564
50.08066399999991,22.15714399999998,1601
50.08066399999991,22.805143999999984,1608
53.96866399999989,22.805143999999984,2356
53.64466399999989,23.45314399999998,2312
53.32066399999989,23.45314399999998,2267
50.40466399999991,19.565143999999982,1380
50.08066399999991,18.917143999999983,1410
50.08066399999991,18.269143999999983,1347
52.0246639999999,22.805143999999984,1726
52.0246639999999,23.45314399999998,1740
51.37666399999991,19.565143999999982,1474
51.05266399999991,19.565143999999982,1393
50.72866399999991,18.917143999999983,1364
50.72866399999991,19.565143999999982,1463
49.75666399999992,18.917143999999983,1398
50.40466399999991,18.269143999999983,1292
53.64466399999989,19.565143999999982,1604
53.96866399999989,18.917143999999983,1500
53.64466399999989,18.917143999999983,1479
53.64466399999989,20.213143999999986,1642
52.996663999999896,18.917143999999983,1431
52.996663999999896,18.269143999999983,1407
53.32066399999989,18.917143999999983,1515
50.72866399999991,17.621143999999987,1251
50.72866399999991,18.269143999999983,1272
52.6726639999999,16.325143999999987,1231
52.996663999999896,16.325143999999987,1193
52.996663999999896,15.677143999999986,1168
53.32066399999989,15.677143999999986,1210
53.32066399999989,15.029143999999986,1218
53.64466399999989,15.029143999999986,1280
53.96866399999989,15.029143999999986,1178
52.6726639999999,18.917143999999983,1444
53.32066399999989,16.325143999999987,1417
52.6726639999999,15.029143999999986,1102
51.05266399999991,22.805143999999984,2256
51.05266399999991,23.45314399999998,2283
50.72866399999991,22.15714399999998,2221
50.40466399999991,22.15714399999998,2210
51.05266399999991,22.15714399999998,2222
54.616663999999886,16.973143999999984,1412
54.29266399999989,16.325143999999987,1345
53.96866399999989,15.677143999999986,1260
50.72866399999991,21.50914399999997,2251
50.40466399999991,21.50914399999997,1650
50.40466399999991,17.621143999999987,1328
53.32066399999989,22.805143999999984,2237
53.64466399999989,22.15714399999998,2197
54.29266399999989,16.973143999999984,1381
50.72866399999991,20.86114399999998,1550
51.700663999999904,22.805143999999984,2440
51.05266399999991,21.50914399999997,1730
50.08066399999991,19.565143999999982,1461
52.0246639999999,18.917143999999983,3688
52.0246639999999,19.565143999999982,3681
53.64466399999989,18.269143999999983,1452
51.700663999999904,20.213143999999986,1614
53.32066399999989,19.565143999999982,1595
50.72866399999991,23.45314399999998,2635
50.72866399999991,22.805143999999984,2604
49.43266399999992,20.213143999999986,1391
49.75666399999992,21.50914399999997,1627
49.75666399999992,22.15714399999998,2262
49.43266399999992,22.15714399999998,1430
51.05266399999991,18.917143999999983,1376
51.05266399999991,18.269143999999983,1314
53.32066399999989,16.973143999999984,1339
53.64466399999989,16.973143999999984,1358
49.75666399999992,20.86114399999998,1481
50.40466399999991,22.805143999999984,3770
53.64466399999989,16.325143999999987,1344
53.96866399999989,20.86114399999998,1749
54.29266399999989,20.86114399999998,1795
53.96866399999989,21.50914399999997,1812
53.64466399999989,15.677143999999986,1272
53.96866399999989,20.213143999999986,1656
53.96866399999989,19.565143999999982,1524
54.29266399999989,19.565143999999982,1534
53.96866399999989,16.325143999999987,1308
53.64466399999989,17.621143999999987,1404
53.96866399999989,22.15714399999998,1878
53.64466399999989,21.50914399999997,2246
53.64466399999989,20.86114399999998,1683
52.6726639999999,15.677143999999986,1151
51.05266399999991,20.213143999999986,1835
54.940663999999884,24.101143999999977,65535
54.616663999999886,23.45314399999998,65535
54.29266399999989,23.45314399999998,65535
53.64466399999989,22.805143999999984,2260
53.96866399999989,16.973143999999984,1513
50.40466399999991,20.86114399999998,2266
53.32066399999989,18.269143999999983,1425
49.75666399999992,19.565143999999982,1451
50.40466399999991,23.45314399999998,1885
49.75666399999992,20.213143999999986,1430
49.43266399999992,19.565143999999982,1365
49.43266399999992,20.86114399999998,1473
53.96866399999989,17.621143999999987,2283
42.30466399999996,-1.8188560000000056,3999
41.98066399999996,-1.8188560000000056,3982
41.65666399999997,0.7731439999999932,3986
42.62866399999996,-1.8188560000000056,4114
42.95266399999996,-1.8188560000000056,4143
42.62866399999996,-3.114856000000005,4237
42.95266399999996,-2.4668560000000053,4215
42.62866399999996,-7.650856000000003,4579
42.30466399999996,-7.650856000000003,4639
42.30466399999996,-8.946856000000002,4775
42.30466399999996,-8.298856000000002,4749
41.98066399999996,-8.298856000000002,4738
42.30466399999996,-7.002856000000003,4521
42.62866399999996,-6.354856000000003,4463
42.30466399999996,-6.354856000000003,4418
42.62866399999996,-5.706856000000004,3918
41.98066399999996,-4.410856000000004,3872
42.30466399999996,-3.7628560000000046,4263
40.03666399999997,-0.5228560000000062,3966
39.38866399999998,-0.5228560000000062,4014
41.00866399999997,0.7731439999999932,4114
40.68466399999997,0.7731439999999932,4146
40.36066399999997,0.1251439999999934,4224
39.712663999999975,-0.5228560000000062,4123
38.41666399999998,-0.5228560000000062,4135
39.06466399999998,-0.5228560000000062,4257
38.74066399999998,-1.170856000000006,4143
41.332663999999966,0.7731439999999932,4174
41.65666399999997,2.717143999999992,3774
41.65666399999997,2.0691439999999925,3797
41.332663999999966,0.1251439999999934,4132
41.332663999999966,-0.5228560000000062,4076
41.65666399999997,-4.410856000000004,3846
40.03666399999997,-2.4668560000000053,4084
41.00866399999997,-4.410856000000004,3967
43.276663999999954,-5.706856000000004,4048
39.38866399999998,-1.170856000000006,4109
38.09266399999999,-1.170856000000006,4522
38.74066399999998,-0.5228560000000062,4285
37.76866399999999,-1.170856000000006,4587
39.06466399999998,-1.8188560000000056,4107
39.38866399999998,-3.114856000000005,4007
39.38866399999998,-2.4668560000000053,4063
39.06466399999998,-2.4668560000000053,4090
39.06466399999998,-3.114856000000005,4011
39.06466399999998,-3.7628560000000046,3985
38.74066399999998,-3.7628560000000046,4064
40.03666399999997,-3.7628560000000046,3963
40.03666399999997,-3.114856000000005,4163
40.03666399999997,-1.8188560000000056,4244
39.712663999999975,-1.8188560000000056,4209
39.712663999999975,-1.170856000000006,4145
40.36066399999997,-1.170856000000006,4164
40.68466399999997,-1.170856000000006,4142
41.00866399999997,-1.170856000000006,4130
41.332663999999966,-1.170856000000006,3970
43.276663999999954,-8.298856000000002,4739
42.95266399999996,-8.298856000000002,4707
41.65666399999997,-5.706856000000004,65535
41.98066399999996,-7.002856000000003,65535
41.98066399999996,-6.354856000000003,65535
41.332663999999966,-5.058856000000004,4085
43.276663999999954,-3.7628560000000046,4520
42.95266399999996,-4.410856000000004,4454
42.62866399999996,-4.410856000000004,4444
42.30466399999996,-4.410856000000004,4403
41.00866399999997,-5.706856000000004,4023
41.332663999999966,-1.8188560000000056,3916
40.68466399999997,-3.114856000000005,3870
41.00866399999997,-3.114856000000005,3921
41.00866399999997,-2.4668560000000053,3944
41.332663999999966,-2.4668560000000053,3997
40.68466399999997,-4.410856000000004,3907
40.36066399999997,-4.410856000000004,3991
40.68466399999997,-3.7628560000000046,3899
40.36066399999997,-3.114856000000005,3877
41.65666399999997,-2.4668560000000053,4014
38.09266399999999,-3.7628560000000046,4111
38.74066399999998,-3.114856000000005,4055
37.76866399999999,-3.7628560000000046,4168
39.712663999999975,-3.114856000000005,3999
38.41666399999998,-3.7628560000000046,4076
40.03666399999997,-4.410856000000004,65535
40.03666399999997,-5.058856000000004,65535
39.38866399999998,-6.354856000000003,65535
39.38866399999998,-7.002856000000003,65535
42.95266399999996,-3.114856000000005,4648
41.98066399999996,-1.170856000000006,4011
42.30466399999996,-2.4668560000000053,4052
41.65666399999997,-0.5228560000000062,4109
41.98066399999996,-0.5228560000000062,3946
41.65666399999997,0.1251439999999934,3973
41.98066399999996,0.1251439999999934,3995
37.76866399999999,-5.058856000000004,4047
36.79666399999999,-4.410856000000004,4106
38.74066399999998,-4.410856000000004,4003
37.12066399999999,-4.410856000000004,4080
37.44466399999999,-5.058856000000004,4604
37.44466399999999,-7.002856000000003,65535
37.44466399999999,-6.354856000000003,65535
37.44466399999999,-5.706856000000004,4280
39.712663999999975,-3.7628560000000046,4073
42.62866399999996,-8.946856000000002,65535
42.30466399999996,-5.706856000000004,4425
42.30466399999996,-5.058856000000004,4510
42.95266399999996,-5.706856000000004,3950
41.00866399999997,-5.058856000000004,3991
40.68466399999997,-5.058856000000004,3965
41.65666399999997,-5.058856000000004,65535
41.65666399999997,-6.354856000000003,65535
36.79666399999999,-6.354856000000003,65535
37.12066399999999,-5.706856000000004,4448
37.76866399999999,-5.706856000000004,4247
38.09266399999999,-4.410856000000004,4382
37.12066399999999,-5.058856000000004,4402
36.79666399999999,-5.058856000000004,4360
37.76866399999999,-4.410856000000004,65535
37.76866399999999,-7.002856000000003,65535
38.41666399999998,-6.354856000000003,65535
38.09266399999999,-6.354856000000003,65535
48.78466399999992,1.4211439999999929,1228
56.23666399999988,8.54914399999999,2290
55.58866399999988,9.197143999999987,2095
55.91266399999988,9.197143999999987,2236
55.26466399999988,10.493143999999988,1972
55.91266399999988,12.437143999999988,2109
55.58866399999988,11.789143999999988,2115
55.58866399999988,11.141143999999988,2106
55.26466399999988,11.789143999999988,2124
55.58866399999988,10.493143999999988,2091
55.58866399999988,13.085143999999987,2085
56.88466399999987,9.845143999999989,2242
57.20866399999987,9.845143999999989,2277
56.56066399999988,9.845143999999989,2214
56.88466399999987,8.54914399999999,2329
54.940663999999884,9.845143999999989,3436
54.940663999999884,11.789143999999988,2192
55.91266399999988,13.085143999999987,2184
56.23666399999988,13.733143999999989,2228
55.91266399999988,13.733143999999989,2231
56.23666399999988,14.381143999999988,2251
56.23666399999988,15.029143999999986,2292
56.23666399999988,15.677143999999986,2347
56.56066399999988,14.381143999999988,2308
56.88466399999987,14.381143999999988,2278
56.23666399999988,13.085143999999987,2176
56.56066399999988,13.085143999999987,2256
56.88466399999987,12.437143999999988,2293
57.20866399999987,12.437143999999988,2309
57.53266399999987,12.437143999999988,2324
56.88466399999987,15.029143999999986,2304
56.56066399999988,15.677143999999986,2364
56.88466399999987,15.677143999999986,2383
56.88466399999987,16.325143999999987,2398
55.91266399999988,11.789143999999988,2261
57.20866399999987,10.493143999999988,2464
49.43266399999992,1.4211439999999929,1100
49.75666399999992,0.7731439999999932,1099
49.75666399999992,2.0691439999999925,1035
50.08066399999991,2.717143999999992,1071
49.75666399999992,1.4211439999999929,1084
47.81266399999993,1.4211439999999929,1129
48.136663999999925,2.0691439999999925,1123
48.46066399999992,2.0691439999999925,1134
48.136663999999925,1.4211439999999929,1036
48.78466399999992,0.1251439999999934,1162
48.46066399999992,0.1251439999999934,1142
47.81266399999993,0.1251439999999934,1137
46.84066399999993,-0.5228560000000062,1329
47.16466399999993,0.7731439999999932,1228
46.84066399999993,0.1251439999999934,1247
46.84066399999993,-1.170856000000006,1242
50.08066399999991,1.4211439999999929,1116
50.08066399999991,2.0691439999999925,1133
49.43266399999992,2.717143999999992,972
49.75666399999992,3.365143999999992,1011
50.08066399999991,3.365143999999992,1106
49.10866399999992,2.0691439999999925,1055
49.43266399999992,2.0691439999999925,1000
48.78466399999992,0.7731439999999932,1595
48.78466399999992,-0.5228560000000062,1321
48.78466399999992,-1.170856000000006,1352
48.136663999999925,0.7731439999999932,1069
48.46066399999992,0.7731439999999932,1091
43.92466399999995,5.957143999999991,1353
44.24866399999995,5.957143999999991,1379
43.92466399999995,5.309143999999991,1149
42.95266399999996,2.717143999999992,1277
45.54466399999994,2.0691439999999925,1331
45.22066399999994,2.0691439999999925,1313
42.95266399999996,2.0691439999999925,2377
42.95266399999996,0.7731439999999932,1412
43.276663999999954,0.7731439999999932,1347
46.19266399999994,0.7731439999999932,1342
46.516663999999935,0.7731439999999932,1326
45.86866399999994,0.1251439999999934,1516
46.19266399999994,0.1251439999999934,1556
47.81266399999993,-1.170856000000006,1435
48.136663999999925,-2.4668560000000053,1143
47.48866399999993,-1.8188560000000056,1166
47.16466399999993,-1.170856000000006,1188
47.16466399999993,-0.5228560000000062,1190
46.84066399999993,-1.8188560000000056,1192
45.22066399999994,-0.5228560000000062,1243
44.89666399999994,0.1251439999999934,1213
45.22066399999994,0.7731439999999932,1242
45.54466399999994,0.7731439999999932,1233
45.86866399999994,0.7731439999999932,1242
45.22066399999994,0.1251439999999934,1237
44.89666399999994,0.7731439999999932,1260
43.92466399999995,-0.5228560000000062,1315
43.92466399999995,-1.170856000000006,1308
44.24866399999995,-1.170856000000006,1288
45.22066399999994,-1.170856000000006,1278
44.572663999999946,-0.5228560000000062,1187
44.24866399999995,0.1251439999999934,1233
44.572663999999946,0.7731439999999932,1277
43.276663999999954,-1.170856000000006,1349
42.95266399999996,-0.5228560000000062,1413
44.24866399999995,2.0691439999999925,1329
43.60066399999995,0.7731439999999932,1393
43.60066399999995,2.0691439999999925,1336
52.6726639999999,4.661143999999991,2281
52.6726639999999,5.309143999999991,2304
51.700663999999904,5.309143999999991,2249
52.0246639999999,5.309143999999991,2261
52.3486639999999,5.309143999999991,2277
51.37666399999991,4.013143999999992,2257
52.3486639999999,5.957143999999991,2271
52.0246639999999,6.60514399999999,2301
52.6726639999999,5.957143999999991,2288
52.996663999999896,5.957143999999991,2301
53.32066399999989,5.957143999999991,2295
52.996663999999896,6.60514399999999,2277
53.32066399999989,6.60514399999999,2269
52.6726639999999,6.60514399999999,2297
52.996663999999896,5.309143999999991,2316
59.15266399999986,24.101143999999977,65535
56.88466399999987,24.101143999999977,65535
56.88466399999987,23.45314399999998,65535
56.88466399999987,22.805143999999984,65535
57.20866399999987,24.74914399999998,65535
56.88466399999987,24.74914399999998,65535
56.56066399999988,24.74914399999998,65535
56.56066399999988,25.397143999999983,65535
56.56066399999988,24.101143999999977,65535
56.56066399999988,23.45314399999998,65535
56.56066399999988,26.04514399999998,65535
56.88466399999987,26.04514399999998,65535
57.20866399999987,25.397143999999983,65535
57.53266399999987,25.397143999999983,65535
56.23666399999988,26.04514399999998,65535
56.23666399999988,26.69314399999997,65535
55.91266399999988,26.69314399999997,65535
56.56066399999988,26.69314399999997,65535
56.56066399999988,27.34114399999998,65535
56.56066399999988,27.989143999999985,65535
56.23666399999988,27.989143999999985,65535
55.91266399999988,27.34114399999998,65535
56.56066399999988,22.805143999999984,65535
56.56066399999988,22.15714399999998,65535
56.56066399999988,21.50914399999997,65535
57.20866399999987,26.69314399999997,65535
39.06466399999998,-8.946856000000002,65535
38.41666399999998,-8.298856000000002,65535
45.86866399999994,11.789143999999988,1468
46.19266399999994,11.789143999999988,1455
46.19266399999994,10.493143999999988,1440
45.22066399999994,18.269143999999983,417
45.22066399999994,18.917143999999983,481
45.54466399999994,16.973143999999984,291
45.22066399999994,17.621143999999987,353
45.86866399999994,16.325143999999987,168
45.54466399999994,18.917143999999983,2276
45.54466399999994,16.325143999999987,211
45.54466399999994,18.269143999999983,2201
44.89666399999994,18.917143999999983,2162
46.19266399999994,16.973143999999984,232
46.19266399999994,16.325143999999987,226
45.86866399999994,16.973143999999984,287
45.86866399999994,17.621143999999987,329
46.19266399999994,15.677143999999986,189
46.516663999999935,16.325143999999987,243
45.54466399999994,15.677143999999986,72
45.22066399999994,15.029143999999986,95
45.54466399999994,15.029143999999986,148
45.22066399999994,15.677143999999986,0
44.572663999999946,15.677143999999986,139
44.24866399999995,15.677143999999986,160
43.92466399999995,16.325143999999987,224
44.89666399999994,15.677143999999986,103
45.54466399999994,17.621143999999987,347
45.22066399999994,16.325143999999987,266
46.516663999999935,16.973143999999984,329
45.86866399999994,18.269143999999983,2334
43.92466399999995,15.677143999999986,2294
45.22066399999994,13.733143999999989,267
47.48866399999993,19.565143999999982,1132
47.16466399999993,18.917143999999983,2178
47.81266399999993,18.917143999999983,1066
45.54466399999994,9.845143999999989,979
45.22066399999994,9.845143999999989,959
45.22066399999994,10.493143999999988,1038
45.86866399999994,9.845143999999989,999
45.86866399999994,10.493143999999988,2358
48.78466399999992,21.50914399999997,1276
49.10866399999992,20.213143999999986,1361
49.10866399999992,18.917143999999983,1326
48.46066399999992,17.621143999999987,1007
49.43266399999992,17.621143999999987,1272
49.10866399999992,17.621143999999987,1132
48.136663999999925,18.269143999999983,1098
49.10866399999992,18.269143999999983,1193
49.43266399999992,18.269143999999983,1251
49.43266399999992,16.973143999999984,1311
49.75666399999992,16.973143999999984,1281
49.75666399999992,16.325143999999987,1259
50.08066399999991,15.677143999999986,1163
50.08066399999991,15.029143999999986,1150
49.43266399999992,18.917143999999983,1315
47.81266399999993,20.86114399999998,1195
48.136663999999925,20.86114399999998,1226
48.46066399999992,20.86114399999998,1268
48.46066399999992,21.50914399999997,1272
49.10866399999992,19.565143999999982,1357
48.136663999999925,17.621143999999987,986
48.78466399999992,22.15714399999998,1375
48.78466399999992,20.86114399999998,1407
49.10866399999992,20.86114399999998,1355
48.78466399999992,18.269143999999983,1132
48.78466399999992,17.621143999999987,1109
49.10866399999992,21.50914399999997,1336
48.78466399999992,20.213143999999986,1415
48.46066399999992,20.213143999999986,1456
48.136663999999925,19.565143999999982,1605
48.46066399999992,19.565143999999982,1484
48.46066399999992,18.917143999999983,1226
48.46066399999992,18.269143999999983,1050
48.78466399999992,19.565143999999982,1250
48.78466399999992,18.917143999999983,1168
47.81266399999993,18.269143999999983,1030
49.10866399999992,22.15714399999998,1416
49.43266399999992,21.50914399999997,1414
48.136663999999925,18.917143999999983,1306
48.136663999999925,20.213143999999986,1625
52.636,-8.018,65535
52.312,-7.370000000000001,65535
52.312,-8.018,65535
52.636,-8.666,65535
51.988,-8.666,65535
51.988,-8.018,65535
52.96,-8.666,65535
52.96,-6.074000000000002,65535
53.28399999999999,-6.722000000000001,65535
53.60799999999999,-6.722000000000001,65535
53.60799999999999,-7.370000000000001,65535
53.60799999999999,-8.018,65535
54.25599999999999,-8.666,65535
53.93199999999999,-8.666,65535
53.93199999999999,-8.018,65535
52.312,-6.722000000000001,65535
52.636,-6.722000000000001,65535
53.93199999999999,-6.722000000000001,65535
54.25599999999999,-6.074000000000002,65535
53.28399999999999,-7.370000000000001,65535
52.96,-7.370000000000001,65535
52.312,-8.666,65535
52.96,-8.018,65535
52.636,-7.370000000000001,65535
52.96,-6.722000000000001,65535
51.988,-9.314,65535
52.312,-9.314,65535
54.579999999999984,-6.722000000000001,65535
54.579999999999984,-6.074000000000002,65535
53.28399999999999,-8.018,65535
53.28399999999999,-8.666,65535
53.28399999999999,-9.314,65535
53.93199999999999,-9.314,65535
54.25599999999999,-9.314,65535
53.60799999999999,-8.666,65535
53.60799999999999,-9.314,65535
49.43266399999992,14.381143999999988,1160
49.75666399999992,14.381143999999988,1145
49.75666399999992,15.029143999999986,1152
49.75666399999992,13.733143999999989,1151
50.08066399999991,13.733143999999989,1144
49.75666399999992,15.677143999999986,1199
50.40466399999991,15.029143999999986,1130
49.43266399999992,13.733143999999989,1206
50.40466399999991,15.677143999999986,1187
50.40466399999991,13.733143999999989,1186
46.19266399999994,15.029143999999986,162
45.86866399999994,15.029143999999986,154
45.86866399999994,14.381143999999988,151
46.19266399999994,13.733143999999989,228
45.86866399999994,13.733143999999989,297
58.50466399999986,13.733143999999989,2401
58.180663999999865,13.733143999999989,2406
58.180663999999865,13.085143999999987,2378
57.85666399999987,12.437143999999988,2344
60.44866399999985,15.677143999999986,2627
60.124663999999854,15.677143999999986,2561
60.124663999999854,16.325143999999987,2599
59.800663999999855,16.325143999999987,2527
59.800663999999855,17.621143999999987,2506
59.47666399999986,18.269143999999983,2488
61.74466399999984,16.973143999999984,2638
61.420663999999846,16.973143999999984,2611
60.77266399999985,16.973143999999984,2563
65.63266399999982,22.15714399999998,3742
65.95666399999982,21.50914399999997,3702
65.63266399999982,20.86114399999998,3673
64.98466399999982,20.213143999999986,3605
64.66066399999983,20.213143999999986,3583
64.33666399999983,19.565143999999982,3277
64.01266399999983,19.565143999999982,2990
63.68866399999983,20.213143999999986,2943
64.66066399999983,18.917143999999983,3954
59.15266399999986,16.325143999999987,2463
59.15266399999986,15.029143999999986,2504
59.15266399999986,17.621143999999987,2480
57.53266399999987,14.381143999999988,2304
57.53266399999987,15.029143999999986,2324
61.09666399999985,14.381143999999988,2731
60.77266399999985,15.029143999999986,2682
60.44866399999985,15.029143999999986,2668
58.180663999999865,15.029143999999986,2381
58.50466399999986,16.325143999999987,2415
58.50466399999986,15.677143999999986,2388
63.36466399999984,13.085143999999987,2975
63.04066399999984,14.381143999999988,2912
62.39266399999984,15.677143999999986,2834
63.36466399999984,13.733143999999989,2957
63.36466399999984,14.381143999999988,2929
62.71666399999984,15.677143999999986,2862
62.39266399999984,17.621143999999987,2696
59.800663999999855,15.677143999999986,2973
55.58866399999988,13.733143999999989,2258
57.20866399999987,14.381143999999988,2288
57.85666399999987,14.381143999999988,2336
58.82866399999986,16.973143999999984,2472
58.82866399999986,16.325143999999987,2450
59.15266399999986,18.269143999999983,2484
60.44866399999985,17.621143999999987,2539
59.15266399999986,12.437143999999988,2443
59.15266399999986,13.085143999999987,2457
58.82866399999986,12.437143999999988,2419
59.47666399999986,16.325143999999987,2509
58.82866399999986,14.381143999999988,2496
59.47666399999986,15.677143999999986,2527
63.36466399999984,18.917143999999983,2896
63.04066399999984,17.621143999999987,2851
62.71666399999984,17.621143999999987,2825
63.68866399999983,19.565143999999982,2929
62.39266399999984,16.973143999999984,2740
59.800663999999855,16.973143999999984,2515
59.47666399999986,17.621143999999987,2492
57.85666399999987,13.085143999999987,2368
57.53266399999987,13.085143999999987,2349
58.50466399999986,11.789143999999988,2390
57.85666399999987,15.029143999999986,2370
57.20866399999987,13.733143999999989,2294
57.53266399999987,13.733143999999989,2355
61.74466399999984,16.325143999999987,2734
61.420663999999846,16.325143999999987,2701
61.09666399999985,16.325143999999987,2690
61.09666399999985,16.973143999999984,2658
60.124663999999854,15.029143999999986,2836
66.60466399999981,20.86114399999998,3777
67.25266399999981,20.86114399999998,3845
67.90066399999981,20.213143999999986,3915
67.57666399999981,20.213143999999986,4540
59.800663999999855,15.029143999999986,2556
58.50466399999986,15.029143999999986,2398
59.47666399999986,15.029143999999986,2541
60.44866399999985,16.325143999999987,2627
59.15266399999986,15.677143999999986,2485
57.85666399999987,13.733143999999989,2396
58.82866399999986,13.733143999999989,2443
58.50466399999986,13.085143999999987,2428
57.20866399999987,13.085143999999987,2325
56.88466399999987,13.085143999999987,2299
58.180663999999865,11.789143999999988,2361
62.06866399999984,16.973143999999984,2729
65.95666399999982,23.45314399999998,3783
59.800663999999855,14.381143999999988,65535
59.800663999999855,18.269143999999983,2497
63.04066399999984,15.029143999999986,2880
62.71666399999984,15.029143999999986,2870
62.39266399999984,16.325143999999987,2803
63.36466399999984,12.437143999999988,3008
68.5486639999998,17.621143999999987,4128
68.5486639999998,18.269143999999983,4061
68.5486639999998,18.917143999999983,4038
68.2246639999998,18.917143999999983,3994
59.800663999999855,13.085143999999987,2560
60.124663999999854,13.085143999999987,2599
59.47666399999986,16.973143999999984,2501
59.15266399999986,16.973143999999984,2493
56.56066399999988,13.733143999999989,2246
60.124663999999854,17.621143999999987,2516
57.85666399999987,16.325143999999987,2475
58.180663999999865,16.325143999999987,2437
58.180663999999865,15.677143999999986,2445
57.20866399999987,16.325143999999987,2487
57.53266399999987,15.677143999999986,2505
57.85666399999987,15.677143999999986,2476
44.89666399999994,23.45314399999998,2485
44.572663999999946,23.45314399999998,2555
44.89666399999994,24.74914399999998,2472
44.572663999999946,24.74914399999998,2591
44.572663999999946,24.101143999999977,2532
44.24866399999995,24.101143999999977,2561
47.48866399999993,25.397143999999983,2333
47.48866399999993,24.74914399999998,2273
47.16466399999993,24.74914399999998,2195
47.16466399999993,24.101143999999977,2097
47.48866399999993,22.15714399999998,2227
47.81266399999993,22.15714399999998,2313
47.16466399999993,22.15714399999998,2206
47.16466399999993,23.45314399999998,2258
47.16466399999993,22.805143999999984,2264
46.84066399999993,24.101143999999977,2178
45.86866399999994,27.34114399999998,2518
45.54466399999994,27.34114399999998,2499
45.54466399999994,27.989143999999985,2615
45.86866399999994,20.86114399999998,2390
45.86866399999994,21.50914399999997,2398
46.19266399999994,21.50914399999997,2334
46.19266399999994,27.34114399999998,2518
46.19266399999994,26.69314399999997,2509
46.516663999999935,26.69314399999997,2471
46.516663999999935,26.04514399999998,2367
47.48866399999993,22.805143999999984,2325
46.84066399999993,22.805143999999984,2138
45.54466399999994,22.15714399999998,2447
45.22066399999994,22.15714399999998,2525
44.89666399999994,22.15714399999998,2943
47.48866399999993,23.45314399999998,2291
46.516663999999935,24.101143999999977,2017
46.516663999999935,24.74914399999998,2231
45.86866399999994,24.101143999999977,2180
47.16466399999993,26.69314399999997,2549
47.16466399999993,27.34114399999998,2604
43.92466399999995,25.397143999999983,2563
44.24866399999995,24.74914399999998,2470
44.89666399999994,26.04514399999998,2357
44.89666399999994,26.69314399999997,2404
45.22066399999994,26.69314399999997,2439
45.22066399999994,27.34114399999998,2466
46.84066399999993,26.69314399999997,2510
47.48866399999993,26.69314399999997,2503
44.24866399999995,25.397143999999983,2402
43.92466399999995,26.04514399999998,2579
46.19266399999994,24.101143999999977,2225
44.572663999999946,25.397143999999983,2440
46.84066399999993,24.74914399999998,2238
46.516663999999935,21.50914399999997,2338
46.84066399999993,21.50914399999997,2345
44.572663999999946,26.69314399999997,2395
44.572663999999946,27.34114399999998,2416
44.89666399999994,27.34114399999998,2531
44.572663999999946,27.989143999999985,2436
44.24866399999995,27.989143999999985,2450
44.572663999999946,28.63714399999997,2501
45.86866399999994,22.15714399999998,2259
45.86866399999994,22.805143999999984,2153
44.24866399999995,23.45314399999998,2588
43.92466399999995,27.989143999999985,65535
46.84066399999993,27.34114399999998,2671
45.22066399999994,23.45314399999998,2460
45.54466399999994,23.45314399999998,2263
45.54466399999994,24.101143999999977,2210
45.22066399999994,24.101143999999977,2434
44.89666399999994,24.101143999999977,2504
46.19266399999994,22.15714399999998,2390
46.516663999999935,22.15714399999998,2356
45.22066399999994,21.50914399999997,2630
45.54466399999994,21.50914399999997,2478
45.54466399999994,20.86114399999998,2502
46.516663999999935,27.989143999999985,2621
46.19266399999994,27.989143999999985,2606
45.54466399999994,25.397143999999983,2324
45.22066399999994,25.397143999999983,2334
45.22066399999994,26.04514399999998,2390
47.81266399999993,24.101143999999977,2386
47.48866399999993,26.04514399999998,2476
47.81266399999993,26.04514399999998,2498
46.19266399999994,23.45314399999998,2057
45.86866399999994,23.45314399999998,2106
44.24866399999995,26.04514399999998,2384
45.22066399999994,27.989143999999985,2596
45.86866399999994,24.74914399999998,2219
46.516663999999935,25.397143999999983,2411
46.84066399999993,25.397143999999983,2294
46.19266399999994,26.04514399999998,2382
45.86866399999994,26.04514399999998,2347
43.92466399999995,23.45314399999998,2818
44.89666399999994,25.397143999999983,2445
46.19266399999994,20.86114399999998,2379
47.81266399999993,25.397143999999983,2510
44.572663999999946,22.805143999999984,2823
44.572663999999946,22.15714399999998,2965
46.516663999999935,23.45314399999998,2196
45.86866399999994,25.397143999999983,2273
44.24866399999995,27.34114399999998,3211
45.22066399999994,24.74914399999998,2536
45.54466399999994,22.805143999999984,2226
45.22066399999994,28.63714399999997,2656
44.89666399999994,28.63714399999997,2595
47.81266399999993,23.45314399999998,1756
46.19266399999994,24.74914399999998,2305
46.19266399999994,25.397143999999983,2329
43.92466399999995,24.101143999999977,2781
43.92466399999995,24.74914399999998,2794
47.81266399999993,26.69314399999997,2725
47.48866399999993,24.101143999999977,2318
46.84066399999993,26.04514399999998,3126
46.19266399999994,22.805143999999984,2450
47.48866399999993,27.34114399999998,2678
46.19266399999994,20.213143999999986,65535
45.54466399999994,26.04514399999998,2482
44.24866399999995,26.69314399999997,2400
45.86866399999994,27.989143999999985,2654
47.81266399999993,5.957143999999991,2266
