51.56399999999999,-0.4100000000000028,65535
51.887999999999984,-0.4100000000000028,65535
50.91599999999999,-1.7060000000000022,65535
51.23999999999999,-1.0580000000000025,65535
51.56399999999999,-1.0580000000000025,65535
51.23999999999999,-1.7060000000000022,65535
51.56399999999999,0.2379999999999968,65535
47.16466399999993,9.845143999999989,1146
47.48866399999993,9.845143999999989,1138
48.136663999999925,14.381143999999988,915
47.81266399999993,13.085143999999987,954
47.16466399999993,11.141143999999988,1130
47.48866399999993,11.789143999999988,1157
48.136663999999925,16.325143999999987,795
47.48866399999993,12.437143999999988,1013
48.136663999999925,15.677143999999986,819
47.16466399999993,10.493143999999988,1176
47.16466399999993,9.197143999999987,1148
48.136663999999925,13.733143999999989,923
48.136663999999925,15.029143999999986,829
47.81266399999993,16.973143999999984,895
48.46066399999992,14.381143999999988,964
47.48866399999993,13.085143999999987,970
47.16466399999993,13.085143999999987,999
47.48866399999993,14.381143999999988,863
47.48866399999993,13.733143999999989,924
47.48866399999993,15.029143999999986,265
46.516663999999935,13.733143999999989,94
46.84066399999993,13.733143999999989,104
46.84066399999993,13.085143999999987,165
48.78466399999992,14.381143999999988,65535
47.16466399999993,15.677143999999986,180
46.516663999999935,14.381143999999988,80
46.84066399999993,14.381143999999988,113
47.16466399999993,14.381143999999988,197
46.516663999999935,15.029143999999986,85
47.81266399999993,16.325143999999987,788
47.16466399999993,15.029143999999986,241
47.81266399999993,15.677143999999986,804
47.48866399999993,15.677143999999986,231
46.516663999999935,13.085143999999987,1454
46.84066399999993,12.437143999999988,239
48.136663999999925,11.789143999999988,989
47.81266399999993,12.437143999999988,975
46.84066399999993,15.677143999999986,165
46.516663999999935,15.677143999999986,62
46.84066399999993,16.325143999999987,124
47.81266399999993,14.381143999999988,925
48.78466399999992,16.973143999999984,887
48.136663999999925,16.973143999999984,826
48.46066399999992,13.733143999999989,947
47.81266399999993,13.733143999999989,928
50.08066399999991,8.54914399999999,1116
48.46066399999992,9.845143999999989,1049
51.05266399999991,7.25314399999999,1149
51.37666399999991,7.25314399999999,1164
51.37666399999991,6.60514399999999,1161
48.46066399999992,16.325143999999987,807
48.46066399999992,16.973143999999984,837
48.78466399999992,16.325143999999987,894
48.46066399999992,15.677143999999986,820
48.78466399999992,15.677143999999986,901
47.48866399999993,16.325143999999987,223
47.16466399999993,16.325143999999987,150
46.19266399999994,14.381143999999988,75
45.86866399999994,15.677143999999986,0
43.60066399999995,16.325143999999987,1720
45.54466399999994,14.381143999999988,90
45.54466399999994,13.733143999999989,112
48.136663999999925,13.085143999999987,948
48.46066399999992,11.141143999999988,996
48.136663999999925,11.141143999999988,998
48.46066399999992,7.90114399999999,1121
49.10866399999992,8.54914399999999,1095
48.78466399999992,2.0691439999999925,1234
49.10866399999992,7.25314399999999,1150
52.0246639999999,7.90114399999999,1182
47.16466399999993,11.789143999999988,1152
49.43266399999992,11.141143999999988,1060
53.64466399999989,9.845143999999989,1289
50.72866399999991,4.013143999999992,1235
51.05266399999991,11.141143999999988,1205
47.48866399999993,11.141143999999988,1028
46.84066399999993,11.789143999999988,4022
46.516663999999935,11.141143999999988,3991
45.54466399999994,11.141143999999988,3887
46.19266399999994,11.141143999999988,3957
45.86866399999994,11.141143999999988,3941
44.572663999999946,11.141143999999988,2772
43.92466399999995,12.437143999999988,65535
45.54466399999994,12.437143999999988,4230
45.54466399999994,11.789143999999988,4195
48.78466399999992,15.029143999999986,972
47.81266399999993,15.029143999999986,892
47.81266399999993,11.141143999999988,1009
50.40466399999991,18.917143999999983,1132
52.3486639999999,20.86114399999998,1311
54.616663999999886,18.269143999999983,1503
54.29266399999989,18.917143999999983,1488
49.10866399999992,14.381143999999988,65535
50.08066399999991,14.381143999999988,1122
48.78466399999992,13.733143999999989,1736
52.6726639999999,13.085143999999987,1255
52.3486639999999,13.085143999999987,1255
53.96866399999989,12.437143999999988,1398
54.29266399999989,12.437143999999988,1401
47.48866399999993,8.54914399999999,1162
47.81266399999993,17.621143999999987,924
47.48866399999993,18.917143999999983,920
47.48866399999993,20.86114399999998,1436
46.84066399999993,23.45314399999998,1918
44.572663999999946,26.04514399999998,2367
47.48866399999993,21.50914399999997,1472
47.81266399999993,21.50914399999997,1868
48.46066399999992,22.15714399999998,1177
47.48866399999993,16.973143999999984,65535
49.10866399999992,16.325143999999987,936
49.75666399999992,18.269143999999983,1036
46.19266399999994,13.085143999999987,863
41.98066399999996,12.437143999999988,5350
43.60066399999995,10.493143999999988,5606
45.54466399999994,9.197143999999987,1268
47.81266399999993,22.805143999999984,2333
49.75666399999992,22.805143999999984,1460
50.72866399999991,3.365143999999992,1242
51.05266399999991,4.013143999999992,1235
50.72866399999991,4.661143999999991,1227
51.05266399999991,4.661143999999991,1228
51.05266399999991,3.365143999999992,1240
51.05266399999991,2.717143999999992,1262
50.40466399999991,4.661143999999991,1224
50.72866399999991,2.717143999999992,1258
50.40466399999991,4.013143999999992,1246
51.05266399999991,5.309143999999991,1231
50.72866399999991,5.309143999999991,1212
51.37666399999991,3.365143999999992,1258
51.37666399999991,4.661143999999991,1233
50.72866399999991,5.957143999999991,1192
50.40466399999991,5.957143999999991,1203
50.40466399999991,3.365143999999992,1250
50.40466399999991,5.309143999999991,1219
50.08066399999991,5.309143999999991,1269
49.75666399999992,5.309143999999991,1273
49.75666399999992,5.957143999999991,1244
51.37666399999991,5.309143999999991,1284
51.700663999999904,4.661143999999991,1278
50.08066399999991,4.013143999999992,1268
50.08066399999991,5.957143999999991,1221
50.08066399999991,4.661143999999991,1255
49.43266399999992,5.309143999999991,1280
49.43266399999992,5.957143999999991,1264
52.0246639999999,4.661143999999991,1310
52.3486639999999,4.661143999999991,1339
50.72866399999991,15.029143999999986,1099
51.05266399999991,15.029143999999986,1125
51.05266399999991,13.733143999999989,1171
50.40466399999991,13.085143999999987,1187
49.10866399999992,7.90114399999999,1137
48.78466399999992,7.90114399999999,1100
50.40466399999991,7.90114399999999,1128
50.08066399999991,7.90114399999999,1120
49.75666399999992,7.90114399999999,1124
49.43266399999992,7.90114399999999,1108
49.75666399999992,8.54914399999999,1104
49.43266399999992,8.54914399999999,1099
49.43266399999992,9.197143999999987,1128
49.10866399999992,9.197143999999987,1090
47.48866399999993,7.90114399999999,1159
47.81266399999993,7.90114399999999,1128
48.136663999999925,7.90114399999999,1116
48.136663999999925,9.845143999999989,1061
47.81266399999993,9.197143999999987,1132
47.81266399999993,8.54914399999999,1127
47.81266399999993,9.845143999999989,1073
54.940663999999884,9.197143999999987,1331
54.616663999999886,9.197143999999987,1320
54.29266399999989,9.197143999999987,1327
53.96866399999989,9.197143999999987,1365
53.64466399999989,9.197143999999987,1316
54.616663999999886,9.845143999999989,1312
54.29266399999989,9.845143999999989,1303
53.96866399999989,9.845143999999989,1298
53.64466399999989,10.493143999999988,1292
53.96866399999989,10.493143999999988,1304
53.96866399999989,11.141143999999988,1343
54.29266399999989,10.493143999999988,1318
53.32066399999989,10.493143999999988,1309
54.940663999999884,11.141143999999988,1364
52.6726639999999,13.733143999999989,1253
52.3486639999999,13.733143999999989,1251
52.3486639999999,14.381143999999988,1240
52.0246639999999,14.381143999999988,1227
52.0246639999999,11.789143999999988,1294
52.3486639999999,11.789143999999988,1287
52.3486639999999,12.437143999999988,1267
52.0246639999999,15.029143999999986,1243
51.700663999999904,14.381143999999988,1178
52.0246639999999,13.733143999999989,1225
51.700663999999904,13.733143999999989,1206
52.6726639999999,12.437143999999988,1268
53.32066399999989,11.789143999999988,1389
53.96866399999989,11.789143999999988,1398
53.64466399999989,11.789143999999988,1374
53.64466399999989,11.141143999999988,1367
53.32066399999989,11.141143999999988,1388
52.996663999999896,11.789143999999988,1300
52.996663999999896,12.437143999999988,1284
52.996663999999896,13.733143999999989,1260
53.64466399999989,13.733143999999989,1336
53.96866399999989,13.733143999999989,1370
54.29266399999989,13.085143999999987,1412
53.96866399999989,13.085143999999987,1379
53.32066399999989,13.733143999999989,1307
52.0246639999999,13.085143999999987,1309
51.700663999999904,13.085143999999987,1246
52.996663999999896,14.381143999999988,1362
52.0246639999999,12.437143999999988,1271
51.700663999999904,12.437143999999988,1267
51.37666399999991,11.789143999999988,1227
51.37666399999991,12.437143999999988,1224
52.6726639999999,11.789143999999988,1310
53.64466399999989,13.085143999999987,1363
53.32066399999989,13.085143999999987,1305
52.996663999999896,13.085143999999987,1278
53.64466399999989,12.437143999999988,1348
51.37666399999991,13.733143999999989,1174
53.32066399999989,12.437143999999988,1315
52.6726639999999,14.381143999999988,1273
51.37666399999991,13.085143999999987,1185
53.32066399999989,14.381143999999988,1349
52.3486639999999,15.029143999999986,1279
52.0246639999999,15.677143999999986,1283
51.700663999999904,15.029143999999986,1220
51.05266399999991,16.325143999999987,1237
51.05266399999991,16.973143999999984,1261
51.700663999999904,15.677143999999986,1295
51.37666399999991,15.677143999999986,1197
51.37666399999991,16.325143999999987,1228
50.72866399999991,13.085143999999987,1196
50.72866399999991,12.437143999999988,1190
51.05266399999991,13.085143999999987,1186
51.05266399999991,14.381143999999988,1160
50.40466399999991,12.437143999999988,1178
50.40466399999991,11.789143999999988,1171
50.08066399999991,12.437143999999988,1156
50.72866399999991,11.789143999999988,1191
51.05266399999991,12.437143999999988,1217
50.72866399999991,14.381143999999988,1154
51.37666399999991,14.381143999999988,1162
50.72866399999991,13.733143999999989,1175
50.40466399999991,14.381143999999988,1137
51.37666399999991,15.029143999999986,1155
55.26466399999988,9.197143999999987,1788
55.58866399999988,8.54914399999999,3082
55.91266399999988,8.54914399999999,6559
56.23666399999988,9.197143999999987,6567
56.23666399999988,10.493143999999988,6520
56.23666399999988,9.845143999999989,6507
55.91266399999988,9.845143999999989,6445
56.56066399999988,9.197143999999987,6577
56.56066399999988,8.54914399999999,6620
51.05266399999991,6.60514399999999,1159
51.700663999999904,7.90114399999999,1171
50.72866399999991,6.60514399999999,1169
51.700663999999904,7.25314399999999,1168
50.72866399999991,7.25314399999999,1144
52.0246639999999,7.25314399999999,1186
52.3486639999999,7.90114399999999,1207
51.05266399999991,5.957143999999991,1182
50.40466399999991,7.25314399999999,1135
51.700663999999904,6.60514399999999,1177
51.700663999999904,5.957143999999991,1178
52.3486639999999,9.197143999999987,1209
51.700663999999904,8.54914399999999,1182
52.0246639999999,8.54914399999999,1188
52.3486639999999,8.54914399999999,1206
51.37666399999991,7.90114399999999,1166
52.3486639999999,7.25314399999999,1233
51.37666399999991,5.957143999999991,1181
50.72866399999991,7.90114399999999,1164
51.37666399999991,9.197143999999987,1201
51.700663999999904,9.197143999999987,1213
50.40466399999991,6.60514399999999,1186
51.05266399999991,7.90114399999999,1186
51.37666399999991,8.54914399999999,1182
52.0246639999999,5.957143999999991,1191
52.3486639999999,6.60514399999999,1256
51.05266399999991,8.54914399999999,1184
52.0246639999999,9.197143999999987,1209
52.6726639999999,9.197143999999987,1230
52.0246639999999,9.845143999999989,1237
51.700663999999904,9.845143999999989,1257
51.37666399999991,9.845143999999989,1269
50.72866399999991,8.54914399999999,1133
51.05266399999991,9.845143999999989,1191
50.72866399999991,9.845143999999989,1156
50.40466399999991,9.845143999999989,1135
51.05266399999991,9.197143999999987,1193
50.40466399999991,9.197143999999987,1113
50.08066399999991,9.197143999999987,1105
51.05266399999991,10.493143999999988,1216
50.40466399999991,8.54914399999999,1122
50.72866399999991,9.197143999999987,1143
49.75666399999992,9.197143999999987,1104
52.996663999999896,9.197143999999987,1269
52.3486639999999,9.845143999999989,1217
52.996663999999896,8.54914399999999,1286
52.996663999999896,7.90114399999999,1313
53.32066399999989,7.90114399999999,1367
53.32066399999989,7.25314399999999,1453
53.64466399999989,7.25314399999999,1498
52.996663999999896,10.493143999999988,1290
52.6726639999999,10.493143999999988,1276
52.6726639999999,9.845143999999989,1222
53.32066399999989,9.845143999999989,1283
53.32066399999989,9.197143999999987,1287
53.64466399999989,8.54914399999999,1327
53.32066399999989,8.54914399999999,1289
52.6726639999999,8.54914399999999,1263
52.0246639999999,10.493143999999988,1292
52.0246639999999,11.141143999999988,1304
51.700663999999904,11.141143999999988,1288
52.6726639999999,7.25314399999999,1723
52.996663999999896,7.25314399999999,1698
52.6726639999999,7.90114399999999,1267
53.64466399999989,7.90114399999999,1391
52.996663999999896,11.141143999999988,1361
52.6726639999999,11.141143999999988,1356
52.3486639999999,10.493143999999988,1261
52.996663999999896,9.845143999999989,1236
51.700663999999904,10.493143999999988,1398
51.37666399999991,10.493143999999988,6986
51.700663999999904,11.789143999999988,1273
52.3486639999999,11.141143999999988,1289
51.37666399999991,11.141143999999988,1236
51.05266399999991,11.789143999999988,1219
49.10866399999992,11.141143999999988,1040
48.78466399999992,11.141143999999988,1010
48.46066399999992,11.789143999999988,992
49.43266399999992,11.789143999999988,1091
50.08066399999991,11.789143999999988,1122
49.75666399999992,12.437143999999988,1130
49.10866399999992,11.789143999999988,1098
48.78466399999992,12.437143999999988,1046
48.46066399999992,12.437143999999988,1005
49.10866399999992,12.437143999999988,1120
48.78466399999992,13.085143999999987,993
48.136663999999925,12.437143999999988,969
47.81266399999993,11.789143999999988,980
48.136663999999925,10.493143999999988,1083
47.81266399999993,10.493143999999988,1099
48.78466399999992,10.493143999999988,1052
47.48866399999993,10.493143999999988,1117
48.46066399999992,10.493143999999988,1024
49.43266399999992,13.085143999999987,1298
48.46066399999992,13.085143999999987,969
49.43266399999992,10.493143999999988,1079
49.75666399999992,9.845143999999989,1090
49.75666399999992,10.493143999999988,1087
50.40466399999991,11.141143999999988,1135
50.08066399999991,11.141143999999988,1125
50.72866399999991,11.141143999999988,1180
49.75666399999992,11.141143999999988,1072
48.78466399999992,11.789143999999988,1093
50.40466399999991,10.493143999999988,1183
50.08066399999991,9.845143999999989,1099
50.08066399999991,10.493143999999988,1117
49.43266399999992,12.437143999999988,1144
49.75666399999992,11.789143999999988,1085
49.10866399999992,13.085143999999987,1113
50.72866399999991,10.493143999999988,1231
49.10866399999992,10.493143999999988,1058
48.78466399999992,9.845143999999989,1072
48.46066399999992,8.54914399999999,1094
48.46066399999992,9.197143999999987,1090
48.78466399999992,9.197143999999987,1086
48.78466399999992,8.54914399999999,1092
50.08066399999991,7.25314399999999,1173
49.75666399999992,6.60514399999999,1172
49.43266399999992,6.60514399999999,1134
49.10866399999992,6.60514399999999,1156
49.43266399999992,7.25314399999999,1128
49.75666399999992,7.25314399999999,1134
49.10866399999992,5.957143999999991,1198
48.78466399999992,7.25314399999999,1120
50.08066399999991,6.60514399999999,1180
47.48866399999993,9.197143999999987,1142
48.136663999999925,8.54914399999999,1102
48.136663999999925,9.197143999999987,1087
47.81266399999993,7.25314399999999,1139
49.43266399999992,9.845143999999989,1119
49.10866399999992,9.845143999999989,1100
53.64466399999989,14.381143999999988,1343
50.08066399999991,13.085143999999987,1154
49.75666399999992,13.085143999999987,1175
45.86866399999994,9.197143999999987,1258
46.19266399999994,9.197143999999987,1244
46.516663999999935,8.54914399999999,1190
46.516663999999935,9.197143999999987,1239
46.19266399999994,8.54914399999999,1256
47.16466399999993,8.54914399999999,1157
45.86866399999994,4.661143999999991,1265
46.84066399999993,9.845143999999989,1173
45.22066399999994,5.957143999999991,1310
45.22066399999994,5.309143999999991,1341
45.86866399999994,5.957143999999991,1258
45.54466399999994,5.957143999999991,1265
44.89666399999994,4.661143999999991,1307
44.89666399999994,5.309143999999991,1324
44.572663999999946,4.661143999999991,1354
44.24866399999995,4.661143999999991,1382
43.92466399999995,4.661143999999991,1347
46.19266399999994,7.25314399999999,1206
48.78466399999992,5.957143999999991,1184
48.136663999999925,6.60514399999999,1182
48.46066399999992,6.60514399999999,1164
48.78466399999992,6.60514399999999,1192
47.16466399999993,7.90114399999999,1164
48.136663999999925,7.25314399999999,1138
48.46066399999992,7.25314399999999,1125
46.516663999999935,6.60514399999999,1196
46.84066399999993,6.60514399999999,1191
46.84066399999993,7.25314399999999,1171
46.516663999999935,5.957143999999991,1215
46.19266399999994,5.957143999999991,1229
46.84066399999993,8.54914399999999,1161
46.84066399999993,7.90114399999999,1169
45.86866399999994,5.309143999999991,1251
46.19266399999994,6.60514399999999,1204
45.86866399999994,6.60514399999999,1213
47.48866399999993,6.60514399999999,1196
47.48866399999993,7.25314399999999,1145
47.16466399999993,7.25314399999999,1161
49.10866399999992,4.013143999999992,1297
49.75666399999992,4.661143999999991,1317
49.43266399999992,4.661143999999991,1373
49.10866399999992,5.309143999999991,1289
46.19266399999994,4.661143999999991,1251
46.84066399999993,9.197143999999987,1164
46.19266399999994,5.309143999999991,1243
46.516663999999935,5.309143999999991,1306
45.54466399999994,6.60514399999999,1296
45.54466399999994,5.309143999999991,1294
43.60066399999995,4.013143999999992,1382
43.60066399999995,3.365143999999992,1422
42.62866399999996,2.717143999999992,1481
43.276663999999954,2.717143999999992,1439
45.54466399999994,4.661143999999991,1299
45.22066399999994,4.661143999999991,1313
47.16466399999993,5.309143999999991,1274
47.16466399999993,5.957143999999991,1243
46.19266399999994,7.90114399999999,1200
49.75666399999992,2.717143999999992,1294
49.10866399999992,2.717143999999992,1260
48.78466399999992,2.717143999999992,1327
45.86866399999994,3.365143999999992,1430
46.84066399999993,3.365143999999992,1377
46.516663999999935,3.365143999999992,1342
46.19266399999994,3.365143999999992,1375
47.16466399999993,6.60514399999999,1208
49.10866399999992,3.365143999999992,1282
45.54466399999994,4.013143999999992,1309
46.516663999999935,7.25314399999999,1193
47.16466399999993,4.661143999999991,1318
46.84066399999993,4.661143999999991,1297
46.516663999999935,4.661143999999991,1281
46.84066399999993,5.957143999999991,1266
47.81266399999993,3.365143999999992,1369
47.48866399999993,4.013143999999992,1319
48.136663999999925,4.013143999999992,1334
47.81266399999993,4.013143999999992,1340
47.48866399999993,4.661143999999991,1328
47.16466399999993,3.365143999999992,1412
46.84066399999993,4.013143999999992,1400
48.46066399999992,5.957143999999991,1235
46.19266399999994,2.717143999999992,1556
47.16466399999993,2.0691439999999925,1454
46.516663999999935,2.717143999999992,1603
46.84066399999993,2.717143999999992,1486
46.84066399999993,2.0691439999999925,1512
47.16466399999993,2.717143999999992,1428
44.572663999999946,5.309143999999991,1400
44.572663999999946,5.957143999999991,1368
44.89666399999994,6.60514399999999,1347
44.572663999999946,6.60514399999999,1384
43.60066399999995,5.309143999999991,1370
43.92466399999995,7.25314399999999,1474
43.60066399999995,6.60514399999999,1468
43.276663999999954,6.60514399999999,1484
43.276663999999954,5.957143999999991,1421
45.86866399999994,8.54914399999999,1265
45.54466399999994,8.54914399999999,1272
48.136663999999925,3.365143999999992,1323
48.46066399999992,3.365143999999992,1302
48.46066399999992,2.717143999999992,1272
47.48866399999993,5.309143999999991,1356
46.516663999999935,9.845143999999989,1184
46.84066399999993,10.493143999999988,2291
47.81266399999993,5.309143999999991,1337
45.22066399999994,6.60514399999999,1323
46.19266399999994,4.013143999999992,1274
45.86866399999994,4.013143999999992,1301
45.22066399999994,4.013143999999992,1380
44.89666399999994,4.013143999999992,1420
46.84066399999993,5.309143999999991,1281
48.136663999999925,-1.8188560000000056,1324
48.136663999999925,0.1251439999999934,1289
48.136663999999925,-0.5228560000000062,1383
47.48866399999993,-0.5228560000000062,1334
47.16466399999993,-1.8188560000000056,1374
47.48866399999993,0.7731439999999932,1348
47.16466399999993,0.1251439999999934,1367
45.86866399999994,7.25314399999999,1216
48.136663999999925,5.309143999999991,1373
49.10866399999992,4.661143999999991,1329
48.46066399999992,4.013143999999992,1315
48.136663999999925,4.661143999999991,1393
47.81266399999993,6.60514399999999,1243
47.48866399999993,5.957143999999991,1281
48.136663999999925,5.957143999999991,1406
45.86866399999994,7.90114399999999,1214
46.516663999999935,7.90114399999999,1184
49.43266399999992,3.365143999999992,1299
49.43266399999992,4.013143999999992,1360
48.136663999999925,2.717143999999992,1390
47.81266399999993,2.717143999999992,1401
47.48866399999993,2.717143999999992,1420
50.40466399999991,2.717143999999992,1257
48.46066399999992,-4.410856000000004,1475
48.46066399999992,-3.7628560000000046,1439
48.46066399999992,-3.114856000000005,1410
48.46066399999992,-2.4668560000000053,1393
47.48866399999993,1.4211439999999929,1456
47.16466399999993,1.4211439999999929,1463
46.516663999999935,4.013143999999992,1285
43.60066399999995,4.661143999999991,1392
44.89666399999994,2.717143999999992,1637
45.22066399999994,2.717143999999992,1588
45.54466399999994,3.365143999999992,1479
45.22066399999994,3.365143999999992,1475
47.48866399999993,3.365143999999992,1486
46.19266399999994,9.845143999999989,1294
47.81266399999993,2.0691439999999925,1415
47.48866399999993,2.0691439999999925,1477
45.86866399999994,2.717143999999992,1454
44.89666399999994,5.957143999999991,1470
45.22066399999994,1.4211439999999929,1526
44.89666399999994,1.4211439999999929,1550
44.89666399999994,2.0691439999999925,1700
43.276663999999954,2.0691439999999925,1471
43.60066399999995,1.4211439999999929,1516
48.78466399999992,4.661143999999991,1310
48.78466399999992,5.309143999999991,1211
46.19266399999994,2.0691439999999925,1580
45.86866399999994,1.4211439999999929,1553
46.19266399999994,1.4211439999999929,1538
44.572663999999946,4.013143999999992,1615
44.89666399999994,3.365143999999992,1511
43.92466399999995,4.013143999999992,1412
44.24866399999995,4.013143999999992,1429
44.89666399999994,-0.5228560000000062,1394
45.54466399999994,0.1251439999999934,1354
46.516663999999935,0.1251439999999934,1383
44.572663999999946,2.0691439999999925,1577
49.75666399999992,4.013143999999992,1358
43.92466399999995,3.365143999999992,1641
43.92466399999995,2.717143999999992,1672
44.24866399999995,3.365143999999992,1696
44.572663999999946,3.365143999999992,1737
49.10866399999992,0.1251439999999934,1337
49.43266399999992,0.7731439999999932,1316
49.43266399999992,-1.8188560000000056,1436
49.10866399999992,-1.170856000000006,1411
49.10866399999992,-0.5228560000000062,1349
49.10866399999992,0.7731439999999932,1377
49.10866399999992,1.4211439999999929,1305
47.81266399999993,-1.8188560000000056,1470
47.81266399999993,-2.4668560000000053,1407
47.81266399999993,-3.114856000000005,1420
48.136663999999925,-3.7628560000000046,1477
44.572663999999946,9.197143999999987,1376
44.89666399999994,8.54914399999999,1314
45.22066399999994,9.197143999999987,1279
45.54466399999994,10.493143999999988,1327
44.572663999999946,10.493143999999988,2758
44.89666399999994,10.493143999999988,1393
44.89666399999994,9.845143999999989,1525
48.46066399999992,5.309143999999991,1400
50.91599999999999,-1.0580000000000025,65535
51.23999999999999,-0.4100000000000028,65535
50.91599999999999,-0.4100000000000028,65535
51.23999999999999,-2.354000000000002,65535
51.56399999999999,-2.354000000000002,65535
51.56399999999999,-3.0020000000000016,65535
50.91599999999999,-2.354000000000002,65535
53.50799999999997,-3.0020000000000016,65535
53.183999999999976,-2.354000000000002,65535
53.183999999999976,-3.0020000000000016,65535
52.85999999999998,-2.354000000000002,65535
52.21199999999998,-1.0580000000000025,65535
51.887999999999984,-1.0580000000000025,65535
52.53599999999998,-1.0580000000000025,65535
52.53599999999998,-1.7060000000000022,65535
52.85999999999998,-1.7060000000000022,65535
53.50799999999997,-2.354000000000002,65535
52.85999999999998,-1.0580000000000025,65535
52.53599999999998,1.5339999999999965,65535
52.53599999999998,0.8859999999999966,65535
52.53599999999998,0.2379999999999968,65535
52.53599999999998,-0.4100000000000028,65535
53.50799999999997,-1.7060000000000022,65535
53.183999999999976,-1.7060000000000022,65535
53.183999999999976,-1.0580000000000025,65535
52.85999999999998,-0.4100000000000028,65535
51.887999999999984,-2.354000000000002,65535
52.21199999999998,-2.354000000000002,65535
55.77599999999996,-2.354000000000002,65535
53.83199999999997,-1.0580000000000025,65535
53.83199999999997,-1.7060000000000022,65535
55.127999999999965,-1.7060000000000022,65535
54.80399999999997,-1.7060000000000022,65535
54.47999999999997,-1.7060000000000022,65535
54.15599999999997,-1.0580000000000025,65535
52.21199999999998,-1.7060000000000022,65535
53.50799999999997,-1.0580000000000025,65535
55.77599999999996,-3.0020000000000016,65535
55.45199999999996,-1.7060000000000022,65535
57.07199999999995,-2.354000000000002,65535
56.74799999999996,-3.0020000000000016,65535
56.42399999999996,-3.0020000000000016,65535
56.09999999999996,-3.650000000000001,65535
50.91599999999999,-3.0020000000000016,65535
50.91599999999999,-3.650000000000001,65535
50.59199999999999,-3.650000000000001,65535
50.59199999999999,-4.298000000000001,65535
51.23999999999999,-3.0020000000000016,65535
50.268,-4.946000000000001,65535
55.77599999999996,-3.650000000000001,65535
55.77599999999996,-4.298000000000001,65535
52.21199999999998,-0.4100000000000028,65535
52.53599999999998,-2.354000000000002,65535
51.56399999999999,-1.7060000000000022,65535
51.56399999999999,-3.650000000000001,65535
51.887999999999984,-4.298000000000001,65535
51.56399999999999,-4.298000000000001,65535
51.887999999999984,-1.7060000000000022,65535
52.21199999999998,-3.0020000000000016,65535
51.23999999999999,0.2379999999999968,65535
50.91599999999999,0.2379999999999968,65535
52.21199999999998,0.2379999999999968,65535
53.83199999999997,-3.0020000000000016,65535
54.15599999999997,-3.0020000000000016,65535
54.47999999999997,-3.0020000000000016,65535
55.127999999999965,-3.650000000000001,65535
54.80399999999997,-3.0020000000000016,65535
53.83199999999997,-2.354000000000002,65535
54.15599999999997,-0.4100000000000028,65535
54.47999999999997,-1.0580000000000025,65535
53.83199999999997,-0.4100000000000028,65535
53.183999999999976,-3.650000000000001,65535
53.183999999999976,-4.298000000000001,65535
52.85999999999998,-3.0020000000000016,65535
52.53599999999998,-3.0020000000000016,65535
51.887999999999984,-3.0020000000000016,65535
51.23999999999999,0.8859999999999966,65535
51.887999999999984,0.2379999999999968,65535
52.21199999999998,0.8859999999999966,65535
51.887999999999984,-4.946000000000001,65535
52.53599999999998,-3.650000000000001,65535
52.21199999999998,-4.298000000000001,65535
53.183999999999976,-0.4100000000000028,65535
51.23999999999999,-3.650000000000001,65535
51.887999999999984,-3.650000000000001,65535
52.21199999999998,-3.650000000000001,65535
51.56399999999999,0.8859999999999966,65535
51.887999999999984,0.8859999999999966,65535
52.85999999999998,0.8859999999999966,65535
53.50799999999997,-0.4100000000000028,65535
56.09999999999996,-4.298000000000001,65535
56.74799999999996,-4.946000000000001,65535
56.74799999999996,-4.298000000000001,65535
56.42399999999996,-4.946000000000001,65535
56.42399999999996,-4.298000000000001,65535
56.09999999999996,-4.946000000000001,65535
57.39599999999995,-4.298000000000001,65535
57.39599999999995,-3.0020000000000016,65535
57.39599999999995,-3.650000000000001,65535
56.42399999999996,-3.650000000000001,65535
57.07199999999995,-3.650000000000001,65535
57.07199999999995,-4.298000000000001,65535
56.74799999999996,-3.650000000000001,65535
59.15266399999986,27.34114399999998,65535
59.47666399999986,26.69314399999997,65535
59.47666399999986,26.04514399999998,65535
59.15266399999986,26.04514399999998,65535
59.15266399999986,24.74914399999998,65535
59.15266399999986,25.397143999999983,65535
59.47666399999986,25.397143999999983,65535
58.50466399999986,26.69314399999997,65535
58.82866399999986,26.69314399999997,65535
57.85666399999987,26.04514399999998,65535
58.180663999999865,26.04514399999998,65535
58.180663999999865,26.69314399999997,65535
58.82866399999986,26.04514399999998,65535
58.50466399999986,25.397143999999983,65535
58.82866399999986,25.397143999999983,65535
58.82866399999986,24.74914399999998,65535
58.180663999999865,27.34114399999998,65535
57.85666399999987,27.34114399999998,65535
63.68866399999983,27.34114399999998,7077
60.124663999999854,24.74914399999998,6613
60.44866399999985,24.74914399999998,6582
60.44866399999985,25.397143999999983,6594
60.77266399999985,25.397143999999983,6800
61.09666399999985,26.04514399999998,6842
60.77266399999985,26.04514399999998,6849
60.77266399999985,26.69314399999997,6868
61.09666399999985,25.397143999999983,6833
61.09666399999985,26.69314399999997,7198
61.420663999999846,26.69314399999997,7220
61.74466399999984,27.34114399999998,7244
62.06866399999984,27.34114399999998,7269
62.39266399999984,27.34114399999998,7293
62.71666399999984,27.34114399999998,7257
64.01266399999983,27.34114399999998,7425
63.36466399999984,27.34114399999998,7145
63.04066399999984,27.34114399999998,7185
63.04066399999984,27.989143999999985,7200
64.33666399999983,27.989143999999985,7472
64.33666399999983,27.34114399999998,7548
64.66066399999983,27.34114399999998,7564
64.66066399999983,26.69314399999997,7575
64.98466399999982,25.397143999999983,5959
64.66066399999983,26.04514399999998,7605
64.98466399999982,26.04514399999998,7627
66.28066399999982,25.397143999999983,6036
65.95666399999982,24.74914399999998,5872
65.63266399999982,24.74914399999998,5876
65.63266399999982,25.397143999999983,5918
65.30866399999982,25.397143999999983,5939
66.60466399999981,25.397143999999983,6096
64.01266399999983,24.74914399999998,6096
64.01266399999983,24.101143999999977,6131
64.01266399999983,23.45314399999998,6155
63.68866399999983,23.45314399999998,6167
63.68866399999983,22.805143999999984,6192
63.68866399999983,26.04514399999998,6784
63.68866399999983,25.397143999999983,6750
63.68866399999983,26.69314399999997,7044
60.44866399999985,26.69314399999997,7036
64.01266399999983,27.989143999999985,7463
62.71666399999984,22.805143999999984,6314
62.39266399999984,22.805143999999984,6346
62.06866399999984,22.805143999999984,6375
62.06866399999984,23.45314399999998,6391
61.74466399999984,23.45314399999998,6403
61.420663999999846,23.45314399999998,6451
61.09666399999985,23.45314399999998,6492
61.09666399999985,24.101143999999977,6499
61.09666399999985,24.74914399999998,6533
60.77266399999985,24.74914399999998,6549
63.04066399999984,21.50914399999997,65535
63.04066399999984,22.15714399999998,65535
63.04066399999984,22.805143999999984,6278
62.39266399999984,26.04514399999998,7441
62.06866399999984,25.397143999999983,7490
61.74466399999984,25.397143999999983,7558
61.74466399999984,24.74914399999998,7595
61.74466399999984,24.101143999999977,7630
61.420663999999846,24.101143999999977,6974
62.39266399999984,26.69314399999997,7412
64.66066399999983,25.397143999999983,6028
64.66066399999983,24.74914399999998,6046
64.33666399999983,24.74914399999998,6057
63.36466399999984,22.805143999999984,6217
67.25266399999981,24.101143999999977,8186
66.92866399999981,24.101143999999977,8150
66.60466399999981,23.45314399999998,8119
66.28066399999982,23.45314399999998,8101
66.28066399999982,24.101143999999977,8083
65.95666399999982,24.101143999999977,3999
60.124663999999854,24.101143999999977,6806
60.124663999999854,23.45314399999998,6843
60.44866399999985,22.805143999999984,65535
60.77266399999985,27.34114399999998,6926
61.09666399999985,27.989143999999985,6958
61.09666399999985,28.63714399999997,7004
61.420663999999846,29.28514399999997,8691
61.74466399999984,29.933143999999977,8749
62.06866399999984,29.933143999999977,8855
62.39266399999984,29.933143999999977,8893
62.71666399999984,29.933143999999977,8926
61.420663999999846,22.805143999999984,6487
61.420663999999846,22.15714399999998,6566
61.09666399999985,22.15714399999998,6554
61.420663999999846,21.50914399999997,6699
62.39266399999984,27.989143999999985,65535
62.06866399999984,27.989143999999985,65535
61.420663999999846,27.34114399999998,65535
63.04066399999984,29.933143999999977,65535
63.68866399999983,29.28514399999997,65535
63.36466399999984,29.28514399999997,65535
63.36466399999984,29.933143999999977,65535
60.44866399999985,27.34114399999998,65535
61.74466399999984,29.28514399999997,65535
62.39266399999984,30.58114399999998,65535
62.71666399999984,31.229143999999977,65535
62.71666399999984,29.28514399999997,65535
63.04066399999984,28.63714399999997,65535
66.60466399999981,26.04514399999998,6106
66.60466399999981,26.69314399999997,6142
66.60466399999981,27.34114399999998,6165
62.71666399999984,26.04514399999998,7326
62.71666399999984,25.397143999999983,7295
63.04066399999984,25.397143999999983,7115
63.36466399999984,25.397143999999983,7078
62.71666399999984,23.45314399999998,7320
62.39266399999984,24.101143999999977,65535
62.71666399999984,22.15714399999998,65535
62.39266399999984,22.15714399999998,65535
62.39266399999984,21.50914399999997,65535
61.09666399999985,21.50914399999997,8377
60.77266399999985,22.805143999999984,7803
60.44866399999985,22.15714399999998,7851
60.77266399999985,23.45314399999998,7785
60.77266399999985,21.50914399999997,7953
60.77266399999985,22.15714399999998,7906
60.124663999999854,22.805143999999984,8119
60.44866399999985,24.101143999999977,6792
62.06866399999984,24.74914399999998,65535
50.72866399999991,16.325143999999987,1244
50.40466399999991,16.973143999999984,1223
50.72866399999991,16.973143999999984,1284
50.40466399999991,16.325143999999987,1221
50.08066399999991,16.973143999999984,1209
50.08066399999991,16.325143999999987,1113
51.700663999999904,16.973143999999984,1309
51.37666399999991,16.973143999999984,1271
51.05266399999991,15.677143999999986,1280
50.72866399999991,15.677143999999986,1260
51.05266399999991,17.621143999999987,1264
51.37666399999991,17.621143999999987,1381
51.700663999999904,17.621143999999987,1397
51.700663999999904,16.325143999999987,1260
52.0246639999999,22.15714399999998,1378
52.0246639999999,21.50914399999997,1318
52.3486639999999,21.50914399999997,1314
52.0246639999999,20.86114399999998,1317
51.700663999999904,20.86114399999998,1313
51.37666399999991,21.50914399999997,1296
51.37666399999991,20.86114399999998,1278
51.05266399999991,20.86114399999998,1232
52.6726639999999,23.45314399999998,1506
52.3486639999999,22.805143999999984,1446
52.3486639999999,20.213143999999986,1333
52.0246639999999,20.213143999999986,1335
52.3486639999999,19.565143999999982,1567
52.6726639999999,19.565143999999982,1480
51.700663999999904,21.50914399999997,1355
51.700663999999904,22.15714399999998,1361
52.6726639999999,21.50914399999997,1353
52.996663999999896,21.50914399999997,1405
52.6726639999999,20.86114399999998,1343
52.6726639999999,22.15714399999998,1369
52.6726639999999,20.213143999999986,1420
52.996663999999896,19.565143999999982,1491
52.996663999999896,20.86114399999998,1376
52.996663999999896,20.213143999999986,1385
53.32066399999989,20.213143999999986,1481
51.37666399999991,20.213143999999986,1459
52.3486639999999,16.973143999999984,1352
52.0246639999999,16.973143999999984,1341
52.0246639999999,16.325143999999987,1284
52.0246639999999,17.621143999999987,1385
52.6726639999999,16.973143999999984,1375
52.996663999999896,16.973143999999984,1402
52.3486639999999,16.325143999999987,1326
52.3486639999999,15.677143999999986,1307
51.700663999999904,18.269143999999983,1416
52.6726639999999,17.621143999999987,1368
52.3486639999999,17.621143999999987,1361
52.6726639999999,18.269143999999983,1445
52.3486639999999,18.269143999999983,1409
52.3486639999999,18.917143999999983,1482
52.996663999999896,17.621143999999987,1423
51.700663999999904,19.565143999999982,1354
51.700663999999904,18.917143999999983,1379
51.37666399999991,18.269143999999983,1366
58.82866399999986,9.197143999999987,2768
58.180663999999865,7.90114399999999,2861
58.50466399999986,8.54914399999999,2812
63.36466399999984,10.493143999999988,2983
63.36466399999984,11.141143999999988,2990
63.36466399999984,11.789143999999988,3025
63.68866399999983,11.789143999999988,3053
64.33666399999983,12.437143999999988,3454
64.66066399999983,12.437143999999988,3949
65.63266399999982,13.085143999999987,3606
65.95666399999982,13.085143999999987,3641
66.28066399999982,14.381143999999988,3711
65.95666399999982,13.733143999999989,3780
66.28066399999982,13.733143999999989,3689
65.30866399999982,13.085143999999987,3907
64.98466399999982,13.085143999999987,3541
64.01266399999983,11.789143999999988,3084
63.68866399999983,11.141143999999988,3021
59.800663999999855,10.493143999999988,2564
59.800663999999855,11.141143999999988,2547
60.124663999999854,11.141143999999988,2562
60.44866399999985,11.141143999999988,2575
60.124663999999854,11.789143999999988,2588
60.77266399999985,7.25314399999999,2824
60.77266399999985,6.60514399999999,2870
59.15266399999986,9.197143999999987,2650
59.47666399999986,9.197143999999987,2671
59.800663999999855,9.845143999999989,2566
59.47666399999986,11.141143999999988,2511
61.09666399999985,10.493143999999988,2685
60.77266399999985,10.493143999999988,2655
60.77266399999985,11.141143999999988,2610
62.06866399999984,9.197143999999987,3010
61.74466399999984,9.845143999999989,2956
61.420663999999846,9.845143999999989,2933
59.15266399999986,9.845143999999989,2630
59.47666399999986,9.845143999999989,2606
58.82866399999986,5.957143999999991,3045
58.180663999999865,7.25314399999999,2917
58.50466399999986,7.25314399999999,2950
58.50466399999986,6.60514399999999,2955
58.50466399999986,5.957143999999991,3013
58.82866399999986,8.54914399999999,2798
60.44866399999985,7.25314399999999,2798
60.44866399999985,7.90114399999999,2759
60.124663999999854,10.493143999999988,2596
60.44866399999985,9.197143999999987,2708
60.77266399999985,9.197143999999987,2720
60.77266399999985,8.54914399999999,2739
60.124663999999854,9.845143999999989,2854
60.44866399999985,10.493143999999988,2641
63.04066399999984,10.493143999999988,2934
62.06866399999984,9.845143999999989,3035
62.39266399999984,9.845143999999989,3043
62.71666399999984,9.845143999999989,3067
59.47666399999986,14.381143999999988,2517
59.47666399999986,13.733143999999989,2501
59.47666399999986,13.085143999999987,2477
59.800663999999855,12.437143999999988,2546
59.15266399999986,11.141143999999988,2475
59.15266399999986,14.381143999999988,2501
58.82866399999986,11.789143999999988,2455
58.50466399999986,12.437143999999988,2385
58.180663999999865,12.437143999999988,2378
57.85666399999987,11.789143999999988,2329
62.71666399999984,7.90114399999999,3096
62.39266399999984,7.90114399999999,3053
62.06866399999984,8.54914399999999,3028
60.44866399999985,5.309143999999991,2944
60.44866399999985,5.957143999999991,2911
60.77266399999985,5.957143999999991,2900
62.39266399999984,11.141143999999988,2831
62.06866399999984,10.493143999999988,2786
61.74466399999984,11.141143999999988,2759
61.420663999999846,11.141143999999988,2713
61.09666399999985,11.141143999999988,2696
60.77266399999985,11.789143999999988,2673
63.04066399999984,11.141143999999988,2912
62.71666399999984,11.141143999999988,2855
62.39266399999984,10.493143999999988,2813
67.25266399999981,15.677143999999986,3830
67.25266399999981,15.029143999999986,3868
67.25266399999981,14.381143999999988,3896
66.92866399999981,15.029143999999986,3819
66.60466399999981,15.677143999999986,3797
64.01266399999983,11.141143999999988,3068
66.60466399999981,15.029143999999986,3860
54.29266399999989,18.269143999999983,1496
54.616663999999886,17.621143999999987,1514
53.96866399999989,18.269143999999983,1507
43.92466399999995,1.4211439999999929,1501
44.24866399999995,0.7731439999999932,1462
44.572663999999946,0.1251439999999934,1448
46.84066399999993,1.4211439999999929,1486
44.572663999999946,1.4211439999999929,1544
44.24866399999995,1.4211439999999929,1518
45.54466399999994,1.4211439999999929,1569
46.516663999999935,1.4211439999999929,1511
42.30466399999996,2.717143999999992,1531
44.24866399999995,2.717143999999992,1655
44.572663999999946,2.717143999999992,1640
43.92466399999995,2.0691439999999925,1516
42.30466399999996,2.0691439999999925,1587
42.62866399999996,2.0691439999999925,1563
42.62866399999996,1.4211439999999929,1585
42.95266399999996,1.4211439999999929,1520
43.276663999999954,1.4211439999999929,1513
46.516663999999935,-1.170856000000006,1465
46.19266399999994,-1.170856000000006,1496
45.86866399999994,-0.5228560000000062,1443
45.54466399999994,-0.5228560000000062,1423
48.46066399999992,1.4211439999999929,1255
41.332663999999966,2.0691439999999925,1652
41.98066399999996,2.717143999999992,1611
48.46066399999992,-1.8188560000000056,1374
47.81266399999993,0.7731439999999932,1442
46.84066399999993,0.7731439999999932,1399
44.572663999999946,-1.170856000000006,1405
43.60066399999995,-1.170856000000006,1530
43.276663999999954,-1.8188560000000056,1559
43.276663999999954,0.1251439999999934,1629
42.95266399999996,0.1251439999999934,1613
43.276663999999954,-0.5228560000000062,1585
43.60066399999995,-0.5228560000000062,1561
47.81266399999993,-3.7628560000000046,1456
47.48866399999993,-2.4668560000000053,1415
47.81266399999993,-0.5228560000000062,1369
46.516663999999935,-1.8188560000000056,1481
48.136663999999925,-1.170856000000006,1396
47.48866399999993,-1.170856000000006,1375
45.22066399999994,8.54914399999999,1294
45.22066399999994,7.90114399999999,1302
46.19266399999994,-0.5228560000000062,1451
46.516663999999935,-0.5228560000000062,1434
48.78466399999992,-3.114856000000005,1426
50.72866399999991,2.0691439999999925,1277
50.40466399999991,2.0691439999999925,1289
40.36066399999997,-3.7628560000000046,2865
41.65666399999997,-1.170856000000006,2782
41.332663999999966,1.4211439999999929,2720
43.276663999999954,13.733143999999989,65535
42.95266399999996,13.733143999999989,65535
41.65666399999997,15.029143999999986,65535
40.68466399999997,17.621143999999987,65535
43.60066399999995,13.085143999999987,5568
41.65666399999997,12.437143999999988,5366
41.65666399999997,13.085143999999987,5373
41.98066399999996,13.085143999999987,5384
41.65666399999997,13.733143999999989,5421
41.332663999999966,13.733143999999989,5450
41.332663999999966,14.381143999999988,5669
41.00866399999997,14.381143999999988,5575
41.332663999999966,13.085143999999987,5433
41.00866399999997,15.029143999999986,5775
41.98066399999996,13.733143999999989,5466
42.30466399999996,14.381143999999988,5856
42.30466399999996,12.437143999999988,5411
42.62866399999996,12.437143999999988,5419
42.95266399999996,12.437143999999988,5476
42.30466399999996,11.789143999999988,5380
42.95266399999996,11.789143999999988,5676
42.62866399999996,11.789143999999988,5667
43.276663999999954,11.789143999999988,5730
42.95266399999996,13.085143999999987,5469
42.30466399999996,13.085143999999987,8623
43.276663999999954,13.085143999999987,5521
43.276663999999954,12.437143999999988,5529
42.62866399999996,11.141143999999988,5512
42.95266399999996,11.141143999999988,5555
42.95266399999996,10.493143999999988,5573
44.572663999999946,8.54914399999999,1324
44.89666399999994,7.90114399999999,1319
44.89666399999994,9.197143999999987,1332
44.24866399999995,7.90114399999999,1359
44.572663999999946,7.90114399999999,1340
43.92466399999995,7.90114399999999,1501
44.24866399999995,7.25314399999999,1356
44.89666399999994,7.25314399999999,1338
45.22066399999994,7.25314399999999,1318
45.54466399999994,7.90114399999999,1298
44.572663999999946,7.25314399999999,1462
52.996663999999896,22.805143999999984,1603
52.996663999999896,23.45314399999998,1593
51.37666399999991,22.15714399999998,1403
51.37666399999991,22.805143999999984,1457
50.08066399999991,20.213143999999986,1215
50.72866399999991,20.213143999999986,1164
50.40466399999991,20.213143999999986,1154
50.08066399999991,20.86114399999998,1345
50.08066399999991,21.50914399999997,1386
50.08066399999991,22.15714399999998,1405
50.08066399999991,22.805143999999984,1427
53.96866399999989,22.805143999999984,1827
53.64466399999989,23.45314399999998,1780
53.32066399999989,23.45314399999998,1737
50.40466399999991,19.565143999999982,1146
50.08066399999991,18.917143999999983,1202
50.08066399999991,18.269143999999983,1232
52.0246639999999,22.805143999999984,1427
52.0246639999999,23.45314399999998,1464
51.37666399999991,19.565143999999982,1314
51.05266399999991,19.565143999999982,1267
50.72866399999991,18.917143999999983,1149
50.72866399999991,19.565143999999982,1249
49.75666399999992,18.917143999999983,1102
50.40466399999991,18.269143999999983,1178
53.64466399999989,19.565143999999982,1572
53.96866399999989,18.917143999999983,1495
53.64466399999989,18.917143999999983,1509
53.64466399999989,20.213143999999986,1603
52.996663999999896,18.917143999999983,1475
52.996663999999896,18.269143999999983,1436
53.32066399999989,18.917143999999983,1496
50.72866399999991,17.621143999999987,1207
50.72866399999991,18.269143999999983,1197
52.6726639999999,16.325143999999987,1393
52.996663999999896,16.325143999999987,1409
52.996663999999896,15.677143999999986,1382
53.32066399999989,15.677143999999986,1399
53.32066399999989,15.029143999999986,1355
53.64466399999989,15.029143999999986,1361
53.96866399999989,15.029143999999986,1382
52.6726639999999,18.917143999999983,1521
53.32066399999989,16.325143999999987,1417
52.6726639999999,15.029143999999986,1313
51.05266399999991,22.805143999999984,1480
51.05266399999991,23.45314399999998,1521
50.72866399999991,22.15714399999998,1449
50.40466399999991,22.15714399999998,1472
51.05266399999991,22.15714399999998,1454
54.616663999999886,16.973143999999984,1514
54.29266399999989,16.325143999999987,1466
53.96866399999989,15.677143999999986,1429
50.72866399999991,21.50914399999997,1437
50.40466399999991,21.50914399999997,1424
50.40466399999991,17.621143999999987,1240
53.32066399999989,22.805143999999984,2237
53.64466399999989,22.15714399999998,2197
54.29266399999989,16.973143999999984,1492
50.72866399999991,20.86114399999998,1203
51.700663999999904,22.805143999999984,1477
51.05266399999991,21.50914399999997,1248
50.08066399999991,19.565143999999982,1230
52.0246639999999,18.917143999999983,8008
52.0246639999999,19.565143999999982,8001
53.64466399999989,18.269143999999983,1527
51.700663999999904,20.213143999999986,1446
53.32066399999989,19.565143999999982,1595
50.72866399999991,23.45314399999998,1626
50.72866399999991,22.805143999999984,1597
49.43266399999992,20.213143999999986,1285
49.75666399999992,21.50914399999997,1442
49.75666399999992,22.15714399999998,1439
49.43266399999992,22.15714399999998,1430
51.05266399999991,18.917143999999983,1376
51.05266399999991,18.269143999999983,1313
53.32066399999989,16.973143999999984,1438
53.64466399999989,16.973143999999984,1480
49.75666399999992,20.86114399999998,1388
50.40466399999991,22.805143999999984,8090
53.64466399999989,16.325143999999987,1505
53.96866399999989,20.86114399999998,1633
54.29266399999989,20.86114399999998,1679
53.96866399999989,21.50914399999997,1812
53.64466399999989,15.677143999999986,1394
53.96866399999989,20.213143999999986,1561
53.96866399999989,19.565143999999982,1524
54.29266399999989,19.565143999999982,1534
53.96866399999989,16.325143999999987,1451
53.64466399999989,17.621143999999987,1488
53.96866399999989,22.15714399999998,1878
53.64466399999989,21.50914399999997,2246
53.64466399999989,20.86114399999998,1753
52.6726639999999,15.677143999999986,1357
51.05266399999991,20.213143999999986,1456
54.940663999999884,24.101143999999977,3201
54.616663999999886,23.45314399999998,3145
54.29266399999989,23.45314399999998,3008
53.64466399999989,22.805143999999984,2260
53.96866399999989,16.973143999999984,1513
50.40466399999991,20.86114399999998,1303
53.32066399999989,18.269143999999983,1549
49.75666399999992,19.565143999999982,1199
50.40466399999991,23.45314399999998,1516
49.75666399999992,20.213143999999986,1357
49.43266399999992,19.565143999999982,1245
49.43266399999992,20.86114399999998,1355
53.96866399999989,17.621143999999987,2283
42.30466399999996,-1.8188560000000056,8319
41.98066399999996,-1.8188560000000056,8302
41.65666399999997,0.7731439999999932,8306
42.62866399999996,-1.8188560000000056,8434
42.95266399999996,-1.8188560000000056,8463
42.62866399999996,-3.114856000000005,8557
42.95266399999996,-2.4668560000000053,8535
42.62866399999996,-7.650856000000003,8899
42.30466399999996,-7.650856000000003,8959
42.30466399999996,-8.946856000000002,9095
42.30466399999996,-8.298856000000002,9069
41.98066399999996,-8.298856000000002,9058
42.30466399999996,-7.002856000000003,8841
42.62866399999996,-6.354856000000003,8783
42.30466399999996,-6.354856000000003,8738
42.62866399999996,-5.706856000000004,8238
41.98066399999996,-4.410856000000004,8192
42.30466399999996,-3.7628560000000046,8583
40.03666399999997,-0.5228560000000062,8286
39.38866399999998,-0.5228560000000062,8334
41.00866399999997,0.7731439999999932,8434
40.68466399999997,0.7731439999999932,8466
40.36066399999997,0.1251439999999934,8544
39.712663999999975,-0.5228560000000062,8443
38.41666399999998,-0.5228560000000062,8455
39.06466399999998,-0.5228560000000062,8577
38.74066399999998,-1.170856000000006,8463
41.332663999999966,0.7731439999999932,8494
41.65666399999997,2.717143999999992,8094
41.65666399999997,2.0691439999999925,8117
41.332663999999966,0.1251439999999934,8452
41.332663999999966,-0.5228560000000062,8396
41.65666399999997,-4.410856000000004,8166
40.03666399999997,-2.4668560000000053,8404
41.00866399999997,-4.410856000000004,8287
43.276663999999954,-5.706856000000004,8368
39.38866399999998,-1.170856000000006,8429
38.09266399999999,-1.170856000000006,8842
38.74066399999998,-0.5228560000000062,8605
37.76866399999999,-1.170856000000006,8907
39.06466399999998,-1.8188560000000056,8427
39.38866399999998,-3.114856000000005,8327
39.38866399999998,-2.4668560000000053,8383
39.06466399999998,-2.4668560000000053,8410
39.06466399999998,-3.114856000000005,8331
39.06466399999998,-3.7628560000000046,8305
38.74066399999998,-3.7628560000000046,8384
40.03666399999997,-3.7628560000000046,8283
40.03666399999997,-3.114856000000005,8483
40.03666399999997,-1.8188560000000056,8564
39.712663999999975,-1.8188560000000056,8529
39.712663999999975,-1.170856000000006,8465
40.36066399999997,-1.170856000000006,8484
40.68466399999997,-1.170856000000006,8462
41.00866399999997,-1.170856000000006,8450
41.332663999999966,-1.170856000000006,8290
43.276663999999954,-8.298856000000002,9059
42.95266399999996,-8.298856000000002,9027
41.65666399999997,-5.706856000000004,65535
41.98066399999996,-7.002856000000003,65535
41.98066399999996,-6.354856000000003,65535
41.332663999999966,-5.058856000000004,8405
43.276663999999954,-3.7628560000000046,8840
42.95266399999996,-4.410856000000004,8774
42.62866399999996,-4.410856000000004,8764
42.30466399999996,-4.410856000000004,8723
41.00866399999997,-5.706856000000004,8343
41.332663999999966,-1.8188560000000056,8236
40.68466399999997,-3.114856000000005,8190
41.00866399999997,-3.114856000000005,8241
41.00866399999997,-2.4668560000000053,8264
41.332663999999966,-2.4668560000000053,8317
40.68466399999997,-4.410856000000004,8227
40.36066399999997,-4.410856000000004,8311
40.68466399999997,-3.7628560000000046,8219
40.36066399999997,-3.114856000000005,8197
41.65666399999997,-2.4668560000000053,8334
38.09266399999999,-3.7628560000000046,8431
38.74066399999998,-3.114856000000005,8375
37.76866399999999,-3.7628560000000046,8488
39.712663999999975,-3.114856000000005,8319
38.41666399999998,-3.7628560000000046,8396
40.03666399999997,-4.410856000000004,65535
40.03666399999997,-5.058856000000004,65535
39.38866399999998,-6.354856000000003,65535
39.38866399999998,-7.002856000000003,65535
42.95266399999996,-3.114856000000005,8968
41.98066399999996,-1.170856000000006,8331
42.30466399999996,-2.4668560000000053,8372
41.65666399999997,-0.5228560000000062,8429
41.98066399999996,-0.5228560000000062,8266
41.65666399999997,0.1251439999999934,8293
41.98066399999996,0.1251439999999934,8315
37.76866399999999,-5.058856000000004,8367
36.79666399999999,-4.410856000000004,8426
38.74066399999998,-4.410856000000004,8323
37.12066399999999,-4.410856000000004,8400
37.44466399999999,-5.058856000000004,8924
37.44466399999999,-7.002856000000003,65535
37.44466399999999,-6.354856000000003,65535
37.44466399999999,-5.706856000000004,8600
39.712663999999975,-3.7628560000000046,8393
42.62866399999996,-8.946856000000002,65535
42.30466399999996,-5.706856000000004,8745
42.30466399999996,-5.058856000000004,8830
42.95266399999996,-5.706856000000004,8270
41.00866399999997,-5.058856000000004,8311
40.68466399999997,-5.058856000000004,8285
41.65666399999997,-5.058856000000004,65535
41.65666399999997,-6.354856000000003,65535
36.79666399999999,-6.354856000000003,65535
37.12066399999999,-5.706856000000004,8768
37.76866399999999,-5.706856000000004,8567
38.09266399999999,-4.410856000000004,8702
37.12066399999999,-5.058856000000004,8722
36.79666399999999,-5.058856000000004,8680
37.76866399999999,-4.410856000000004,65535
37.76866399999999,-7.002856000000003,65535
38.41666399999998,-6.354856000000003,65535
38.09266399999999,-6.354856000000003,65535
48.78466399999992,1.4211439999999929,1321
56.23666399999988,8.54914399999999,6610
55.58866399999988,9.197143999999987,6415
55.91266399999988,9.197143999999987,6556
55.26466399999988,10.493143999999988,2034
55.91266399999988,12.437143999999988,2169
55.58866399999988,11.789143999999988,6255
55.58866399999988,11.141143999999988,6296
55.26466399999988,11.789143999999988,6288
55.58866399999988,10.493143999999988,6411
55.58866399999988,13.085143999999987,2126
56.88466399999987,9.845143999999989,6562
57.20866399999987,9.845143999999989,6597
56.56066399999988,9.845143999999989,6534
56.88466399999987,8.54914399999999,6649
54.940663999999884,9.845143999999989,7756
54.940663999999884,11.789143999999988,6512
55.91266399999988,13.085143999999987,2184
56.23666399999988,13.733143999999989,2228
55.91266399999988,13.733143999999989,2231
56.23666399999988,14.381143999999988,2251
56.23666399999988,15.029143999999986,2292
56.23666399999988,15.677143999999986,2347
56.56066399999988,14.381143999999988,2308
56.88466399999987,14.381143999999988,2278
56.23666399999988,13.085143999999987,2176
56.56066399999988,13.085143999999987,2256
56.88466399999987,12.437143999999988,2293
57.20866399999987,12.437143999999988,2309
57.53266399999987,12.437143999999988,2324
56.88466399999987,15.029143999999986,2304
56.56066399999988,15.677143999999986,2364
56.88466399999987,15.677143999999986,2383
56.88466399999987,16.325143999999987,2398
55.91266399999988,11.789143999999988,6581
57.20866399999987,10.493143999999988,6784
49.43266399999992,1.4211439999999929,1368
49.75666399999992,0.7731439999999932,1338
49.75666399999992,2.0691439999999925,1305
50.08066399999991,2.717143999999992,1302
49.75666399999992,1.4211439999999929,1327
47.81266399999993,1.4211439999999929,1426
48.136663999999925,2.0691439999999925,1509
48.46066399999992,2.0691439999999925,1351
48.136663999999925,1.4211439999999929,1271
48.78466399999992,0.1251439999999934,1412
48.46066399999992,0.1251439999999934,1429
47.81266399999993,0.1251439999999934,1383
46.84066399999993,-0.5228560000000062,1405
47.16466399999993,0.7731439999999932,1403
46.84066399999993,0.1251439999999934,1439
46.84066399999993,-1.170856000000006,1439
50.08066399999991,1.4211439999999929,1399
50.08066399999991,2.0691439999999925,1390
49.43266399999992,2.717143999999992,1273
49.75666399999992,3.365143999999992,1312
50.08066399999991,3.365143999999992,1282
49.10866399999992,2.0691439999999925,1295
49.43266399999992,2.0691439999999925,1281
48.78466399999992,0.7731439999999932,1383
48.78466399999992,-0.5228560000000062,1457
48.78466399999992,-1.170856000000006,1489
48.136663999999925,0.7731439999999932,1311
48.46066399999992,0.7731439999999932,1334
43.92466399999995,5.957143999999991,1564
44.24866399999995,5.957143999999991,1605
43.92466399999995,5.309143999999991,1361
42.95266399999996,2.717143999999992,1458
45.54466399999994,2.0691439999999925,1579
45.22066399999994,2.0691439999999925,1536
42.95266399999996,2.0691439999999925,1560
42.95266399999996,0.7731439999999932,1554
43.276663999999954,0.7731439999999932,1527
46.19266399999994,0.7731439999999932,1587
46.516663999999935,0.7731439999999932,1569
45.86866399999994,0.1251439999999934,1483
46.19266399999994,0.1251439999999934,1480
47.81266399999993,-1.170856000000006,1490
48.136663999999925,-2.4668560000000053,1489
47.48866399999993,-1.8188560000000056,1436
47.16466399999993,-1.170856000000006,1396
47.16466399999993,-0.5228560000000062,1489
46.84066399999993,-1.8188560000000056,1424
45.22066399999994,-0.5228560000000062,1428
44.89666399999994,0.1251439999999934,1445
45.22066399999994,0.7731439999999932,1484
45.54466399999994,0.7731439999999932,1532
45.86866399999994,0.7731439999999932,1600
45.22066399999994,0.1251439999999934,1494
44.89666399999994,0.7731439999999932,1500
43.92466399999995,-0.5228560000000062,1553
43.92466399999995,-1.170856000000006,1545
44.24866399999995,-1.170856000000006,1525
45.22066399999994,-1.170856000000006,1458
44.572663999999946,-0.5228560000000062,1423
44.24866399999995,0.1251439999999934,1470
44.572663999999946,0.7731439999999932,1524
43.276663999999954,-1.170856000000006,1605
42.95266399999996,-0.5228560000000062,1597
44.24866399999995,2.0691439999999925,1570
43.60066399999995,0.7731439999999932,1544
43.60066399999995,2.0691439999999925,1514
52.6726639999999,4.661143999999991,6601
52.6726639999999,5.309143999999991,6624
51.700663999999904,5.309143999999991,6569
52.0246639999999,5.309143999999991,6581
52.3486639999999,5.309143999999991,6597
51.37666399999991,4.013143999999992,6577
52.3486639999999,5.957143999999991,6591
52.0246639999999,6.60514399999999,6621
52.6726639999999,5.957143999999991,6608
52.996663999999896,5.957143999999991,6621
53.32066399999989,5.957143999999991,6615
52.996663999999896,6.60514399999999,6597
53.32066399999989,6.60514399999999,6589
52.6726639999999,6.60514399999999,6617
52.996663999999896,5.309143999999991,6636
59.15266399999986,24.101143999999977,65535
56.88466399999987,24.101143999999977,65535
56.88466399999987,23.45314399999998,65535
56.88466399999987,22.805143999999984,65535
57.20866399999987,24.74914399999998,65535
56.88466399999987,24.74914399999998,65535
56.56066399999988,24.74914399999998,65535
56.56066399999988,25.397143999999983,65535
56.56066399999988,24.101143999999977,65535
56.56066399999988,23.45314399999998,65535
56.56066399999988,26.04514399999998,65535
56.88466399999987,26.04514399999998,65535
57.20866399999987,25.397143999999983,65535
57.53266399999987,25.397143999999983,65535
56.23666399999988,26.04514399999998,65535
56.23666399999988,26.69314399999997,65535
55.91266399999988,26.69314399999997,65535
56.56066399999988,26.69314399999997,65535
56.56066399999988,27.34114399999998,65535
56.56066399999988,27.989143999999985,65535
56.23666399999988,27.989143999999985,65535
55.91266399999988,27.34114399999998,65535
56.56066399999988,22.805143999999984,65535
56.56066399999988,22.15714399999998,65535
56.56066399999988,21.50914399999997,65535
57.20866399999987,26.69314399999997,65535
39.06466399999998,-8.946856000000002,65535
38.41666399999998,-8.298856000000002,65535
45.86866399999994,11.789143999999988,3988
46.19266399999994,11.789143999999988,3975
46.19266399999994,10.493143999999988,3965
45.22066399999994,18.269143999999983,226
45.22066399999994,18.917143999999983,266
45.54466399999994,16.973143999999984,106
45.22066399999994,17.621143999999987,163
45.86866399999994,16.325143999999987,7
45.54466399999994,18.917143999999983,289
45.54466399999994,16.325143999999987,52
45.54466399999994,18.269143999999983,261
44.89666399999994,18.917143999999983,722
46.19266399999994,16.973143999999984,46
46.19266399999994,16.325143999999987,53
45.86866399999994,16.973143999999984,11
45.86866399999994,17.621143999999987,44
46.19266399999994,15.677143999999986,45
46.516663999999935,16.325143999999987,81
45.54466399999994,15.677143999999986,6
45.22066399999994,15.029143999999986,77
45.54466399999994,15.029143999999986,63
45.22066399999994,15.677143999999986,76
44.572663999999946,15.677143999999986,1579
44.24866399999995,15.677143999999986,1600
43.92466399999995,16.325143999999987,1664
44.89666399999994,15.677143999999986,1543
45.54466399999994,17.621143999999987,226
45.22066399999994,16.325143999999987,63
46.516663999999935,16.973143999999984,112
45.86866399999994,18.269143999999983,820
43.92466399999995,15.677143999999986,1766
45.22066399999994,13.733143999999989,101
47.48866399999993,19.565143999999982,932
47.16466399999993,18.917143999999983,942
47.81266399999993,18.917143999999983,916
45.54466399999994,9.845143999999989,1279
45.22066399999994,9.845143999999989,1288
45.22066399999994,10.493143999999988,1338
45.86866399999994,9.845143999999989,1299
45.86866399999994,10.493143999999988,6678
48.78466399999992,21.50914399999997,1156
49.10866399999992,20.213143999999986,1241
49.10866399999992,18.917143999999983,1089
48.46066399999992,17.621143999999987,887
49.43266399999992,17.621143999999987,1050
49.10866399999992,17.621143999999987,1012
48.136663999999925,18.269143999999983,889
49.10866399999992,18.269143999999983,951
49.43266399999992,18.269143999999983,1011
49.43266399999992,16.973143999999984,1081
49.75666399999992,16.973143999999984,1094
49.75666399999992,16.325143999999987,1139
50.08066399999991,15.677143999999986,1082
50.08066399999991,15.029143999999986,1077
49.43266399999992,18.917143999999983,1075
47.81266399999993,20.86114399999998,1075
48.136663999999925,20.86114399999998,1106
48.46066399999992,20.86114399999998,1148
48.46066399999992,21.50914399999997,1152
49.10866399999992,19.565143999999982,1182
48.136663999999925,17.621143999999987,877
48.78466399999992,22.15714399999998,1375
48.78466399999992,20.86114399999998,1407
49.10866399999992,20.86114399999998,1235
48.78466399999992,18.269143999999983,921
48.78466399999992,17.621143999999987,929
49.10866399999992,21.50914399999997,1221
48.78466399999992,20.213143999999986,1415
48.46066399999992,20.213143999999986,1456
48.136663999999925,19.565143999999982,1605
48.46066399999992,19.565143999999982,1484
48.46066399999992,18.917143999999983,934
48.46066399999992,18.269143999999983,906
48.78466399999992,19.565143999999982,1250
48.78466399999992,18.917143999999983,992
47.81266399999993,18.269143999999983,907
49.10866399999992,22.15714399999998,1416
49.43266399999992,21.50914399999997,1294
48.136663999999925,18.917143999999983,927
48.136663999999925,20.213143999999986,1625
52.636,-8.018,65535
52.312,-7.370000000000001,65535
52.312,-8.018,65535
52.636,-8.666,65535
51.988,-8.666,65535
51.988,-8.018,65535
52.96,-8.666,65535
52.96,-6.074000000000002,65535
53.28399999999999,-6.722000000000001,65535
53.60799999999999,-6.722000000000001,65535
53.60799999999999,-7.370000000000001,65535
53.60799999999999,-8.018,65535
54.25599999999999,-8.666,65535
53.93199999999999,-8.666,65535
53.93199999999999,-8.018,65535
52.312,-6.722000000000001,65535
52.636,-6.722000000000001,65535
53.93199999999999,-6.722000000000001,65535
54.25599999999999,-6.074000000000002,65535
53.28399999999999,-7.370000000000001,65535
52.96,-7.370000000000001,65535
52.312,-8.666,65535
52.96,-8.018,65535
52.636,-7.370000000000001,65535
52.96,-6.722000000000001,65535
51.988,-9.314,65535
52.312,-9.314,65535
54.579999999999984,-6.722000000000001,65535
54.579999999999984,-6.074000000000002,65535
53.28399999999999,-8.018,65535
53.28399999999999,-8.666,65535
53.28399999999999,-9.314,65535
53.93199999999999,-9.314,65535
54.25599999999999,-9.314,65535
53.60799999999999,-8.666,65535
53.60799999999999,-9.314,65535
49.43266399999992,14.381143999999988,1160
49.75666399999992,14.381143999999988,1130
49.75666399999992,15.029143999999986,1126
49.75666399999992,13.733143999999989,1137
50.08066399999991,13.733143999999989,1133
49.75666399999992,15.677143999999986,1146
50.40466399999991,15.029143999999986,1095
49.43266399999992,13.733143999999989,1151
50.40466399999991,15.677143999999986,1187
50.40466399999991,13.733143999999989,1186
46.19266399999994,15.029143999999986,46
45.86866399999994,15.029143999999986,38
45.86866399999994,14.381143999999988,70
46.19266399999994,13.733143999999989,228
45.86866399999994,13.733143999999989,297
58.50466399999986,13.733143999999989,2420
58.180663999999865,13.733143999999989,2406
58.180663999999865,13.085143999999987,2378
57.85666399999987,12.437143999999988,2342
60.44866399999985,15.677143999999986,2627
60.124663999999854,15.677143999999986,2561
60.124663999999854,16.325143999999987,2599
59.800663999999855,16.325143999999987,2527
59.800663999999855,17.621143999999987,2506
59.47666399999986,18.269143999999983,2488
61.74466399999984,16.973143999999984,2638
61.420663999999846,16.973143999999984,2611
60.77266399999985,16.973143999999984,2563
65.63266399999982,22.15714399999998,3742
65.95666399999982,21.50914399999997,3702
65.63266399999982,20.86114399999998,3673
64.98466399999982,20.213143999999986,3605
64.66066399999983,20.213143999999986,3583
64.33666399999983,19.565143999999982,3277
64.01266399999983,19.565143999999982,2990
63.68866399999983,20.213143999999986,2943
64.66066399999983,18.917143999999983,5654
59.15266399999986,16.325143999999987,2463
59.15266399999986,15.029143999999986,2467
59.15266399999986,17.621143999999987,2480
57.53266399999987,14.381143999999988,2304
57.53266399999987,15.029143999999986,2324
61.09666399999985,14.381143999999988,2731
60.77266399999985,15.029143999999986,2682
60.44866399999985,15.029143999999986,2668
58.180663999999865,15.029143999999986,2381
58.50466399999986,16.325143999999987,2415
58.50466399999986,15.677143999999986,2388
63.36466399999984,13.085143999999987,2975
63.04066399999984,14.381143999999988,2912
62.39266399999984,15.677143999999986,2834
63.36466399999984,13.733143999999989,2957
63.36466399999984,14.381143999999988,2929
62.71666399999984,15.677143999999986,2862
62.39266399999984,17.621143999999987,2696
59.800663999999855,15.677143999999986,2749
55.58866399999988,13.733143999999989,2258
57.20866399999987,14.381143999999988,2288
57.85666399999987,14.381143999999988,2336
58.82866399999986,16.973143999999984,2472
58.82866399999986,16.325143999999987,2450
59.15266399999986,18.269143999999983,2484
60.44866399999985,17.621143999999987,2539
59.15266399999986,12.437143999999988,2443
59.15266399999986,13.085143999999987,2457
58.82866399999986,12.437143999999988,2419
59.47666399999986,16.325143999999987,2509
58.82866399999986,14.381143999999988,2496
59.47666399999986,15.677143999999986,2527
63.36466399999984,18.917143999999983,2896
63.04066399999984,17.621143999999987,2851
62.71666399999984,17.621143999999987,2825
63.68866399999983,19.565143999999982,2929
62.39266399999984,16.973143999999984,2740
59.800663999999855,16.973143999999984,2515
59.47666399999986,17.621143999999987,2492
57.85666399999987,13.085143999999987,2368
57.53266399999987,13.085143999999987,2349
58.50466399999986,11.789143999999988,2390
57.85666399999987,15.029143999999986,2370
57.20866399999987,13.733143999999989,2294
57.53266399999987,13.733143999999989,2355
61.74466399999984,16.325143999999987,2734
61.420663999999846,16.325143999999987,2701
61.09666399999985,16.325143999999987,2690
61.09666399999985,16.973143999999984,2658
60.124663999999854,15.029143999999986,2836
66.60466399999981,20.86114399999998,3777
67.25266399999981,20.86114399999998,3845
67.90066399999981,20.213143999999986,3915
67.57666399999981,20.213143999999986,4540
59.800663999999855,15.029143999999986,2556
58.50466399999986,15.029143999999986,2398
59.47666399999986,15.029143999999986,2541
60.44866399999985,16.325143999999987,2627
59.15266399999986,15.677143999999986,2485
57.85666399999987,13.733143999999989,2396
58.82866399999986,13.733143999999989,2443
58.50466399999986,13.085143999999987,2428
57.20866399999987,13.085143999999987,2325
56.88466399999987,13.085143999999987,2299
58.180663999999865,11.789143999999988,2361
62.06866399999984,16.973143999999984,2729
65.95666399999982,23.45314399999998,3977
59.800663999999855,14.381143999999988,5411
59.800663999999855,18.269143999999983,2497
63.04066399999984,15.029143999999986,2880
62.71666399999984,15.029143999999986,2870
62.39266399999984,16.325143999999987,2803
63.36466399999984,12.437143999999988,3008
68.5486639999998,17.621143999999987,4128
68.5486639999998,18.269143999999983,4061
68.5486639999998,18.917143999999983,4038
68.2246639999998,18.917143999999983,3994
59.800663999999855,13.085143999999987,2560
60.124663999999854,13.085143999999987,2599
59.47666399999986,16.973143999999984,2501
59.15266399999986,16.973143999999984,2493
56.56066399999988,13.733143999999989,2246
60.124663999999854,17.621143999999987,2516
57.85666399999987,16.325143999999987,2475
58.180663999999865,16.325143999999987,2437
58.180663999999865,15.677143999999986,2445
57.20866399999987,16.325143999999987,2487
57.53266399999987,15.677143999999986,2505
57.85666399999987,15.677143999999986,2476
44.89666399999994,23.45314399999998,2485
44.572663999999946,23.45314399999998,2555
44.89666399999994,24.74914399999998,2472
44.572663999999946,24.74914399999998,2591
44.572663999999946,24.101143999999977,2532
44.24866399999995,24.101143999999977,2561
47.48866399999993,25.397143999999983,2333
47.48866399999993,24.74914399999998,2273
47.16466399999993,24.74914399999998,2195
47.16466399999993,24.101143999999977,2097
47.48866399999993,22.15714399999998,2227
47.81266399999993,22.15714399999998,2313
47.16466399999993,22.15714399999998,2206
47.16466399999993,23.45314399999998,2258
47.16466399999993,22.805143999999984,2264
46.84066399999993,24.101143999999977,2178
45.86866399999994,27.34114399999998,2518
45.54466399999994,27.34114399999998,2499
45.54466399999994,27.989143999999985,2615
45.86866399999994,20.86114399999998,2390
45.86866399999994,21.50914399999997,2398
46.19266399999994,21.50914399999997,2334
46.19266399999994,27.34114399999998,2518
46.19266399999994,26.69314399999997,2509
46.516663999999935,26.69314399999997,2471
46.516663999999935,26.04514399999998,2367
47.48866399999993,22.805143999999984,2325
46.84066399999993,22.805143999999984,2138
45.54466399999994,22.15714399999998,2447
45.22066399999994,22.15714399999998,2525
44.89666399999994,22.15714399999998,2943
47.48866399999993,23.45314399999998,2291
46.516663999999935,24.101143999999977,2017
46.516663999999935,24.74914399999998,2231
45.86866399999994,24.101143999999977,2180
47.16466399999993,26.69314399999997,2549
47.16466399999993,27.34114399999998,2604
43.92466399999995,25.397143999999983,2563
44.24866399999995,24.74914399999998,2470
44.89666399999994,26.04514399999998,2357
44.89666399999994,26.69314399999997,2404
45.22066399999994,26.69314399999997,2439
45.22066399999994,27.34114399999998,2466
46.84066399999993,26.69314399999997,2510
47.48866399999993,26.69314399999997,2503
44.24866399999995,25.397143999999983,2402
43.92466399999995,26.04514399999998,2579
46.19266399999994,24.101143999999977,2225
44.572663999999946,25.397143999999983,2440
46.84066399999993,24.74914399999998,2238
46.516663999999935,21.50914399999997,2338
46.84066399999993,21.50914399999997,2345
44.572663999999946,26.69314399999997,2395
44.572663999999946,27.34114399999998,2416
44.89666399999994,27.34114399999998,2531
44.572663999999946,27.989143999999985,2436
44.24866399999995,27.989143999999985,2450
44.572663999999946,28.63714399999997,2501
45.86866399999994,22.15714399999998,2259
45.86866399999994,22.805143999999984,2153
44.24866399999995,23.45314399999998,2588
43.92466399999995,27.989143999999985,65535
46.84066399999993,27.34114399999998,2671
45.22066399999994,23.45314399999998,2460
45.54466399999994,23.45314399999998,2263
45.54466399999994,24.101143999999977,2210
45.22066399999994,24.101143999999977,2434
44.89666399999994,24.101143999999977,2504
46.19266399999994,22.15714399999998,2390
46.516663999999935,22.15714399999998,2356
45.22066399999994,21.50914399999997,2630
45.54466399999994,21.50914399999997,2478
45.54466399999994,20.86114399999998,2502
46.516663999999935,27.989143999999985,2621
46.19266399999994,27.989143999999985,2606
45.54466399999994,25.397143999999983,2324
45.22066399999994,25.397143999999983,2334
45.22066399999994,26.04514399999998,2390
47.81266399999993,24.101143999999977,2386
47.48866399999993,26.04514399999998,2476
47.81266399999993,26.04514399999998,2498
46.19266399999994,23.45314399999998,2057
45.86866399999994,23.45314399999998,2106
44.24866399999995,26.04514399999998,2384
45.22066399999994,27.989143999999985,2596
45.86866399999994,24.74914399999998,2219
46.516663999999935,25.397143999999983,2411
46.84066399999993,25.397143999999983,2294
46.19266399999994,26.04514399999998,2382
45.86866399999994,26.04514399999998,2347
43.92466399999995,23.45314399999998,2818
44.89666399999994,25.397143999999983,2445
46.19266399999994,20.86114399999998,2379
47.81266399999993,25.397143999999983,2510
44.572663999999946,22.805143999999984,2823
44.572663999999946,22.15714399999998,2965
46.516663999999935,23.45314399999998,2196
45.86866399999994,25.397143999999983,2273
44.24866399999995,27.34114399999998,3211
45.22066399999994,24.74914399999998,2536
45.54466399999994,22.805143999999984,2226
45.22066399999994,28.63714399999997,2656
44.89666399999994,28.63714399999997,2595
47.81266399999993,23.45314399999998,2443
46.19266399999994,24.74914399999998,2305
46.19266399999994,25.397143999999983,2329
43.92466399999995,24.101143999999977,2781
43.92466399999995,24.74914399999998,2794
47.81266399999993,26.69314399999997,2725
47.48866399999993,24.101143999999977,2318
46.84066399999993,26.04514399999998,3126
46.19266399999994,22.805143999999984,2450
47.48866399999993,27.34114399999998,2678
46.19266399999994,20.213143999999986,65535
45.54466399999994,26.04514399999998,2482
44.24866399999995,26.69314399999997,2400
45.86866399999994,27.989143999999985,2654
47.81266399999993,5.957143999999991,6586
