51.56399999999999,-0.4100000000000028,65535
51.887999999999984,-0.4100000000000028,65535
50.91599999999999,-1.7060000000000022,65535
51.23999999999999,-1.0580000000000025,65535
51.56399999999999,-1.0580000000000025,65535
51.23999999999999,-1.7060000000000022,65535
51.56399999999999,0.2379999999999968,65535
47.16466399999993,9.845143999999989,777
47.48866399999993,9.845143999999989,650
48.136663999999925,14.381143999999988,781
47.81266399999993,13.085143999999987,447
47.16466399999993,11.141143999999988,648
47.48866399999993,11.789143999999988,590
48.136663999999925,16.325143999999987,789
47.48866399999993,12.437143999999988,478
48.136663999999925,15.677143999999986,819
47.16466399999993,10.493143999999988,727
47.16466399999993,9.197143999999987,785
48.136663999999925,13.733143999999989,496
48.136663999999925,15.029143999999986,823
47.81266399999993,16.973143999999984,895
48.46066399999992,14.381143999999988,904
47.48866399999993,13.085143999999987,490
47.16466399999993,13.085143999999987,812
47.48866399999993,14.381143999999988,874
47.48866399999993,13.733143999999989,924
47.48866399999993,15.029143999999986,945
46.516663999999935,13.733143999999989,1187
46.84066399999993,13.733143999999989,1156
46.84066399999993,13.085143999999987,1141
48.78466399999992,14.381143999999988,65535
47.16466399999993,15.677143999999986,1020
46.516663999999935,14.381143999999988,1194
46.84066399999993,14.381143999999988,1135
47.16466399999993,14.381143999999988,1085
46.516663999999935,15.029143999999986,1207
47.81266399999993,16.325143999999987,798
47.16466399999993,15.029143999999986,1060
47.81266399999993,15.677143999999986,804
47.48866399999993,15.677143999999986,949
46.516663999999935,13.085143999999987,1454
46.84066399999993,12.437143999999988,1199
48.136663999999925,11.789143999999988,417
47.81266399999993,12.437143999999988,438
46.84066399999993,15.677143999999986,1081
46.516663999999935,15.677143999999986,1300
46.84066399999993,16.325143999999987,1065
47.81266399999993,14.381143999999988,835
48.78466399999992,16.973143999999984,611
48.136663999999925,16.973143999999984,777
48.46066399999992,13.733143999999989,505
47.81266399999993,13.733143999999989,851
50.08066399999991,8.54914399999999,400
48.46066399999992,9.845143999999989,448
51.05266399999991,7.25314399999999,367
51.37666399999991,7.25314399999999,361
51.37666399999991,6.60514399999999,365
48.46066399999992,16.325143999999987,807
48.46066399999992,16.973143999999984,733
48.78466399999992,16.325143999999987,894
48.46066399999992,15.677143999999986,820
48.78466399999992,15.677143999999986,901
47.48866399999993,16.325143999999987,916
47.16466399999993,16.325143999999987,1014
46.19266399999994,14.381143999999988,1252
45.86866399999994,15.677143999999986,1304
43.60066399999995,16.325143999999987,1720
45.54466399999994,14.381143999999988,1366
45.54466399999994,13.733143999999989,1389
48.136663999999925,13.085143999999987,443
48.46066399999992,11.141143999999988,411
48.136663999999925,11.141143999999988,421
48.46066399999992,7.90114399999999,472
49.10866399999992,8.54914399999999,428
48.78466399999992,2.0691439999999925,908
49.10866399999992,7.25314399999999,443
52.0246639999999,7.90114399999999,375
47.16466399999993,11.789143999999988,631
49.43266399999992,11.141143999999988,363
53.64466399999989,9.845143999999989,261
50.72866399999991,4.013143999999992,465
51.05266399999991,11.141143999999988,274
47.48866399999993,11.141143999999988,454
46.84066399999993,11.789143999999988,1622
46.516663999999935,11.141143999999988,1591
45.54466399999994,11.141143999999988,1485
46.19266399999994,11.141143999999988,1557
45.86866399999994,11.141143999999988,1541
44.572663999999946,11.141143999999988,1332
43.92466399999995,12.437143999999988,3965
45.54466399999994,12.437143999999988,1572
45.54466399999994,11.789143999999988,1535
48.78466399999992,15.029143999999986,972
47.81266399999993,15.029143999999986,855
47.81266399999993,11.141143999999988,428
50.40466399999991,18.917143999999983,759
52.3486639999999,20.86114399999998,972
54.616663999999886,18.269143999999983,280
54.29266399999989,18.917143999999983,309
49.10866399999992,14.381143999999988,65535
50.08066399999991,14.381143999999988,437
48.78466399999992,13.733143999999989,1736
52.6726639999999,13.085143999999987,175
52.3486639999999,13.085143999999987,173
53.96866399999989,12.437143999999988,156
54.29266399999989,12.437143999999988,139
47.48866399999993,8.54914399999999,559
47.81266399999993,17.621143999999987,868
47.48866399999993,18.917143999999983,897
47.48866399999993,20.86114399999998,1436
46.84066399999993,23.45314399999998,1918
44.572663999999946,26.04514399999998,2367
47.48866399999993,21.50914399999997,1472
47.81266399999993,21.50914399999997,1868
48.46066399999992,22.15714399999998,997
47.48866399999993,16.973143999999984,65535
49.10866399999992,16.325143999999987,567
49.75666399999992,18.269143999999983,559
46.19266399999994,13.085143999999987,2303
41.98066399999996,12.437143999999988,2565
43.60066399999995,10.493143999999988,2726
45.54466399999994,9.197143999999987,908
47.81266399999993,22.805143999999984,2333
49.75666399999992,22.805143999999984,931
50.72866399999991,3.365143999999992,806
51.05266399999991,4.013143999999992,470
50.72866399999991,4.661143999999991,461
51.05266399999991,4.661143999999991,462
51.05266399999991,3.365143999999992,491
51.05266399999991,2.717143999999992,523
50.40466399999991,4.661143999999991,486
50.72866399999991,2.717143999999992,804
50.40466399999991,4.013143999999992,478
51.05266399999991,5.309143999999991,450
50.72866399999991,5.309143999999991,412
51.37666399999991,3.365143999999992,778
51.37666399999991,4.661143999999991,468
50.72866399999991,5.957143999999991,390
50.40466399999991,5.957143999999991,398
50.40466399999991,3.365143999999992,791
50.40466399999991,5.309143999999991,452
50.08066399999991,5.309143999999991,842
49.75666399999992,5.309143999999991,824
49.75666399999992,5.957143999999991,764
51.37666399999991,5.309143999999991,463
51.700663999999904,4.661143999999991,878
50.08066399999991,4.013143999999992,803
50.08066399999991,5.957143999999991,441
50.08066399999991,4.661143999999991,858
49.43266399999992,5.309143999999991,849
49.43266399999992,5.957143999999991,842
52.0246639999999,4.661143999999991,950
52.3486639999999,4.661143999999991,979
50.72866399999991,15.029143999999986,364
51.05266399999991,15.029143999999986,257
51.05266399999991,13.733143999999989,239
50.40466399999991,13.085143999999987,287
49.10866399999992,7.90114399999999,452
48.78466399999992,7.90114399999999,448
50.40466399999991,7.90114399999999,387
50.08066399999991,7.90114399999999,430
49.75666399999992,7.90114399999999,459
49.43266399999992,7.90114399999999,438
49.75666399999992,8.54914399999999,409
49.43266399999992,8.54914399999999,415
49.43266399999992,9.197143999999987,418
49.10866399999992,9.197143999999987,428
47.48866399999993,7.90114399999999,545
47.81266399999993,7.90114399999999,513
48.136663999999925,7.90114399999999,502
48.136663999999925,9.845143999999989,461
47.81266399999993,9.197143999999987,535
47.81266399999993,8.54914399999999,622
47.81266399999993,9.845143999999989,502
54.940663999999884,9.197143999999987,323
54.616663999999886,9.197143999999987,300
54.29266399999989,9.197143999999987,308
53.96866399999989,9.197143999999987,325
53.64466399999989,9.197143999999987,275
54.616663999999886,9.845143999999989,292
54.29266399999989,9.845143999999989,281
53.96866399999989,9.845143999999989,254
53.64466399999989,10.493143999999988,258
53.96866399999989,10.493143999999988,221
53.96866399999989,11.141143999999988,191
54.29266399999989,10.493143999999988,243
53.32066399999989,10.493143999999988,250
54.940663999999884,11.141143999999988,289
52.6726639999999,13.733143999999989,164
52.3486639999999,13.733143999999989,166
52.3486639999999,14.381143999999988,187
52.0246639999999,14.381143999999988,200
52.0246639999999,11.789143999999988,214
52.3486639999999,11.789143999999988,207
52.3486639999999,12.437143999999988,187
52.0246639999999,15.029143999999986,345
51.700663999999904,14.381143999999988,219
52.0246639999999,13.733143999999989,205
51.700663999999904,13.733143999999989,213
52.6726639999999,12.437143999999988,188
53.32066399999989,11.789143999999988,200
53.96866399999989,11.789143999999988,143
53.64466399999989,11.789143999999988,158
53.64466399999989,11.141143999999988,164
53.32066399999989,11.141143999999988,202
52.996663999999896,11.789143999999988,220
52.996663999999896,12.437143999999988,204
52.996663999999896,13.733143999999989,140
53.64466399999989,13.733143999999989,97
53.96866399999989,13.733143999999989,110
54.29266399999989,13.085143999999987,117
53.96866399999989,13.085143999999987,157
53.32066399999989,13.733143999999989,111
52.0246639999999,13.085143999999987,229
51.700663999999904,13.085143999999987,254
52.996663999999896,14.381143999999988,162
52.0246639999999,12.437143999999988,192
51.700663999999904,12.437143999999988,229
51.37666399999991,11.789143999999988,232
51.37666399999991,12.437143999999988,233
52.6726639999999,11.789143999999988,209
53.64466399999989,13.085143999999987,140
53.32066399999989,13.085143999999987,164
52.996663999999896,13.085143999999987,166
53.64466399999989,12.437143999999988,162
51.37666399999991,13.733143999999989,222
53.32066399999989,12.437143999999988,235
52.6726639999999,14.381143999999988,193
51.37666399999991,13.085143999999987,251
53.32066399999989,14.381143999999988,84
52.3486639999999,15.029143999999986,247
52.0246639999999,15.677143999999986,279
51.700663999999904,15.029143999999986,323
51.05266399999991,16.325143999999987,273
51.05266399999991,16.973143999999984,284
51.700663999999904,15.677143999999986,314
51.37666399999991,15.677143999999986,278
51.37666399999991,16.325143999999987,243
50.72866399999991,13.085143999999987,256
50.72866399999991,12.437143999999988,252
51.05266399999991,13.085143999999987,252
51.05266399999991,14.381143999999988,243
50.40466399999991,12.437143999999988,271
50.40466399999991,11.789143999999988,278
50.08066399999991,12.437143999999988,302
50.72866399999991,11.789143999999988,277
51.05266399999991,12.437143999999988,239
50.72866399999991,14.381143999999988,432
51.37666399999991,14.381143999999988,254
50.72866399999991,13.733143999999989,276
50.40466399999991,14.381143999999988,422
51.37666399999991,15.029143999999986,283
55.26466399999988,9.197143999999987,348
55.58866399999988,8.54914399999999,3082
55.91266399999988,8.54914399999999,6559
56.23666399999988,9.197143999999987,6567
56.23666399999988,10.493143999999988,6520
56.23666399999988,9.845143999999989,6507
55.91266399999988,9.845143999999989,6445
56.56066399999988,9.197143999999987,6577
56.56066399999988,8.54914399999999,6620
51.05266399999991,6.60514399999999,370
51.700663999999904,7.90114399999999,345
50.72866399999991,6.60514399999999,383
51.700663999999904,7.25314399999999,365
50.72866399999991,7.25314399999999,375
52.0246639999999,7.25314399999999,386
52.3486639999999,7.90114399999999,358
51.05266399999991,5.957143999999991,402
50.40466399999991,7.25314399999999,379
51.700663999999904,6.60514399999999,381
51.700663999999904,5.957143999999991,404
52.3486639999999,9.197143999999987,301
51.700663999999904,8.54914399999999,322
52.0246639999999,8.54914399999999,311
52.3486639999999,8.54914399999999,313
51.37666399999991,7.90114399999999,354
52.3486639999999,7.25314399999999,393
51.37666399999991,5.957143999999991,401
50.72866399999991,7.90114399999999,391
51.37666399999991,9.197143999999987,368
51.700663999999904,9.197143999999987,313
50.40466399999991,6.60514399999999,406
51.05266399999991,7.90114399999999,413
51.37666399999991,8.54914399999999,398
52.0246639999999,5.957143999999991,411
52.3486639999999,6.60514399999999,416
51.05266399999991,8.54914399999999,383
52.0246639999999,9.197143999999987,302
52.6726639999999,9.197143999999987,293
52.0246639999999,9.845143999999989,302
51.700663999999904,9.845143999999989,318
51.37666399999991,9.845143999999989,346
50.72866399999991,8.54914399999999,413
51.05266399999991,9.845143999999989,334
50.72866399999991,9.845143999999989,369
50.40466399999991,9.845143999999989,397
51.05266399999991,9.197143999999987,373
50.40466399999991,9.197143999999987,418
50.08066399999991,9.197143999999987,408
51.05266399999991,10.493143999999988,321
50.40466399999991,8.54914399999999,398
50.72866399999991,9.197143999999987,447
49.75666399999992,9.197143999999987,426
52.996663999999896,9.197143999999987,278
52.3486639999999,9.845143999999989,285
52.996663999999896,8.54914399999999,281
52.996663999999896,7.90114399999999,293
53.32066399999989,7.90114399999999,343
53.32066399999989,7.25314399999999,373
53.64466399999989,7.25314399999999,418
52.996663999999896,10.493143999999988,282
52.6726639999999,10.493143999999988,316
52.6726639999999,9.845143999999989,300
53.32066399999989,9.845143999999989,266
53.32066399999989,9.197143999999987,271
53.64466399999989,8.54914399999999,290
53.32066399999989,8.54914399999999,285
52.6726639999999,8.54914399999999,311
52.0246639999999,10.493143999999988,272
52.0246639999999,11.141143999999988,224
51.700663999999904,11.141143999999988,280
52.6726639999999,7.25314399999999,425
52.996663999999896,7.25314399999999,399
52.6726639999999,7.90114399999999,315
53.64466399999989,7.90114399999999,371
52.996663999999896,11.141143999999988,281
52.6726639999999,11.141143999999988,273
52.3486639999999,10.493143999999988,264
52.996663999999896,9.845143999999989,281
51.700663999999904,10.493143999999988,320
51.37666399999991,10.493143999999988,371
51.700663999999904,11.789143999999988,227
52.3486639999999,11.141143999999988,238
51.37666399999991,11.141143999999988,285
51.05266399999991,11.789143999999988,267
49.10866399999992,11.141143999999988,367
48.78466399999992,11.141143999999988,400
48.46066399999992,11.789143999999988,410
49.43266399999992,11.789143999999988,356
50.08066399999991,11.789143999999988,342
49.75666399999992,12.437143999999988,327
49.10866399999992,11.789143999999988,376
48.78466399999992,12.437143999999988,444
48.46066399999992,12.437143999999988,451
49.10866399999992,12.437143999999988,386
48.78466399999992,13.085143999999987,471
48.136663999999925,12.437143999999988,433
47.81266399999993,11.789143999999988,423
48.136663999999925,10.493143999999988,484
47.81266399999993,10.493143999999988,497
48.78466399999992,10.493143999999988,415
47.48866399999993,10.493143999999988,787
48.46066399999992,10.493143999999988,424
49.43266399999992,13.085143999999987,774
48.46066399999992,13.085143999999987,496
49.43266399999992,10.493143999999988,368
49.75666399999992,9.845143999999989,416
49.75666399999992,10.493143999999988,402
50.40466399999991,11.141143999999988,375
50.08066399999991,11.141143999999988,401
50.72866399999991,11.141143999999988,291
49.75666399999992,11.141143999999988,373
48.78466399999992,11.789143999999988,396
50.40466399999991,10.493143999999988,747
50.08066399999991,9.845143999999989,449
50.08066399999991,10.493143999999988,436
49.43266399999992,12.437143999999988,330
49.75666399999992,11.789143999999988,336
49.10866399999992,13.085143999999987,568
50.72866399999991,10.493143999999988,341
49.10866399999992,10.493143999999988,398
48.78466399999992,9.845143999999989,445
48.46066399999992,8.54914399999999,451
48.46066399999992,9.197143999999987,469
48.78466399999992,9.197143999999987,441
48.78466399999992,8.54914399999999,435
50.08066399999991,7.25314399999999,406
49.75666399999992,6.60514399999999,425
49.43266399999992,6.60514399999999,431
49.10866399999992,6.60514399999999,436
49.43266399999992,7.25314399999999,460
49.75666399999992,7.25314399999999,472
49.10866399999992,5.957143999999991,830
48.78466399999992,7.25314399999999,786
50.08066399999991,6.60514399999999,422
47.48866399999993,9.197143999999987,547
48.136663999999925,8.54914399999999,522
48.136663999999925,9.197143999999987,503
47.81266399999993,7.25314399999999,537
49.43266399999992,9.845143999999989,433
49.10866399999992,9.845143999999989,458
53.64466399999989,14.381143999999988,92
50.08066399999991,13.085143999999987,761
49.75666399999992,13.085143999999987,550
45.86866399999994,9.197143999999987,904
46.19266399999994,9.197143999999987,894
46.516663999999935,8.54914399999999,890
46.516663999999935,9.197143999999987,908
46.19266399999994,8.54914399999999,881
47.16466399999993,8.54914399999999,789
45.86866399999994,4.661143999999991,874
46.84066399999993,9.845143999999989,828
45.22066399999994,5.957143999999991,891
45.22066399999994,5.309143999999991,906
45.86866399999994,5.957143999999991,844
45.54466399999994,5.957143999999991,863
44.89666399999994,4.661143999999991,912
44.89666399999994,5.309143999999991,930
44.572663999999946,4.661143999999991,924
44.24866399999995,4.661143999999991,938
43.92466399999995,4.661143999999991,948
46.19266399999994,7.25314399999999,818
48.78466399999992,5.957143999999991,849
48.136663999999925,6.60514399999999,847
48.46066399999992,6.60514399999999,829
48.78466399999992,6.60514399999999,850
47.16466399999993,7.90114399999999,773
48.136663999999925,7.25314399999999,797
48.46066399999992,7.25314399999999,819
46.516663999999935,6.60514399999999,806
46.84066399999993,6.60514399999999,793
46.84066399999993,7.25314399999999,788
46.516663999999935,5.957143999999991,830
46.19266399999994,5.957143999999991,827
46.84066399999993,8.54914399999999,793
46.84066399999993,7.90114399999999,783
45.86866399999994,5.309143999999991,870
46.19266399999994,6.60514399999999,817
45.86866399999994,6.60514399999999,883
47.48866399999993,6.60514399999999,812
47.48866399999993,7.25314399999999,552
47.16466399999993,7.25314399999999,790
49.10866399999992,4.013143999999992,918
49.75666399999992,4.661143999999991,897
49.43266399999992,4.661143999999991,923
49.10866399999992,5.309143999999991,894
46.19266399999994,4.661143999999991,889
46.84066399999993,9.197143999999987,846
46.19266399999994,5.309143999999991,880
46.516663999999935,5.309143999999991,930
45.54466399999994,6.60514399999999,895
45.54466399999994,5.309143999999991,904
43.60066399999995,4.013143999999992,1000
43.60066399999995,3.365143999999992,1017
42.62866399999996,2.717143999999992,1120
43.276663999999954,2.717143999999992,1046
45.54466399999994,4.661143999999991,881
45.22066399999994,4.661143999999991,895
47.16466399999993,5.309143999999991,897
47.16466399999993,5.957143999999991,864
46.19266399999994,7.90114399999999,836
49.75666399999992,2.717143999999992,856
49.10866399999992,2.717143999999992,887
48.78466399999992,2.717143999999992,896
45.86866399999994,3.365143999999992,1014
46.84066399999993,3.365143999999992,1012
46.516663999999935,3.365143999999992,1001
46.19266399999994,3.365143999999992,989
47.16466399999993,6.60514399999999,854
49.10866399999992,3.365143999999992,907
45.54466399999994,4.013143999999992,889
46.516663999999935,7.25314399999999,848
47.16466399999993,4.661143999999991,903
46.84066399999993,4.661143999999991,924
46.516663999999935,4.661143999999991,921
46.84066399999993,5.957143999999991,806
47.81266399999993,3.365143999999992,1008
47.48866399999993,4.013143999999992,959
48.136663999999925,4.013143999999992,973
47.81266399999993,4.013143999999992,981
47.48866399999993,4.661143999999991,961
47.16466399999993,3.365143999999992,1027
46.84066399999993,4.013143999999992,980
48.46066399999992,5.957143999999991,905
46.19266399999994,2.717143999999992,1210
47.16466399999993,2.0691439999999925,995
46.516663999999935,2.717143999999992,1174
46.84066399999993,2.717143999999992,1144
46.84066399999993,2.0691439999999925,1026
47.16466399999993,2.717143999999992,1014
44.572663999999946,5.309143999999991,1044
44.572663999999946,5.957143999999991,1043
44.89666399999994,6.60514399999999,927
44.572663999999946,6.60514399999999,1009
43.60066399999995,5.309143999999991,990
43.92466399999995,7.25314399999999,1054
43.60066399999995,6.60514399999999,1042
43.276663999999954,6.60514399999999,1019
43.276663999999954,5.957143999999991,994
45.86866399999994,8.54914399999999,900
45.54466399999994,8.54914399999999,911
48.136663999999925,3.365143999999992,989
48.46066399999992,3.365143999999992,1002
48.46066399999992,2.717143999999992,1031
47.48866399999993,5.309143999999991,920
46.516663999999935,9.845143999999989,853
46.84066399999993,10.493143999999988,851
47.81266399999993,5.309143999999991,893
45.22066399999994,6.60514399999999,922
46.19266399999994,4.013143999999992,904
45.86866399999994,4.013143999999992,897
45.22066399999994,4.013143999999992,918
44.89666399999994,4.013143999999992,957
46.84066399999993,5.309143999999991,918
48.136663999999925,-1.8188560000000056,1045
48.136663999999925,0.1251439999999934,993
48.136663999999925,-0.5228560000000062,1009
47.48866399999993,-0.5228560000000062,1031
47.16466399999993,-1.8188560000000056,1070
47.48866399999993,0.7731439999999932,995
47.16466399999993,0.1251439999999934,1037
45.86866399999994,7.25314399999999,888
48.136663999999925,5.309143999999991,924
49.10866399999992,4.661143999999991,942
48.46066399999992,4.013143999999992,993
48.136663999999925,4.661143999999991,944
47.81266399999993,6.60514399999999,837
47.48866399999993,5.957143999999991,855
48.136663999999925,5.957143999999991,1406
45.86866399999994,7.90114399999999,867
46.516663999999935,7.90114399999999,832
49.43266399999992,3.365143999999992,894
49.43266399999992,4.013143999999992,909
48.136663999999925,2.717143999999992,956
47.81266399999993,2.717143999999992,985
47.48866399999993,2.717143999999992,1004
50.40466399999991,2.717143999999992,836
48.46066399999992,-4.410856000000004,1179
48.46066399999992,-3.7628560000000046,1144
48.46066399999992,-3.114856000000005,1114
48.46066399999992,-2.4668560000000053,1085
47.48866399999993,1.4211439999999929,998
47.16466399999993,1.4211439999999929,1115
46.516663999999935,4.013143999999992,925
43.60066399999995,4.661143999999991,982
44.89666399999994,2.717143999999992,1247
45.22066399999994,2.717143999999992,1216
45.54466399999994,3.365143999999992,1021
45.22066399999994,3.365143999999992,962
47.48866399999993,3.365143999999992,1066
46.19266399999994,9.845143999999989,917
47.81266399999993,2.0691439999999925,964
47.48866399999993,2.0691439999999925,974
45.86866399999994,2.717143999999992,1240
44.89666399999994,5.957143999999991,947
45.22066399999994,1.4211439999999929,1204
44.89666399999994,1.4211439999999929,1202
44.89666399999994,2.0691439999999925,1338
43.276663999999954,2.0691439999999925,1096
43.60066399999995,1.4211439999999929,1141
48.78466399999992,4.661143999999991,947
48.78466399999992,5.309143999999991,920
46.19266399999994,2.0691439999999925,1382
45.86866399999994,1.4211439999999929,1138
46.19266399999994,1.4211439999999929,1104
44.572663999999946,4.013143999999992,1053
44.89666399999994,3.365143999999992,994
43.92466399999995,4.013143999999992,964
44.24866399999995,4.013143999999992,991
44.89666399999994,-0.5228560000000062,1034
45.54466399999994,0.1251439999999934,1103
46.516663999999935,0.1251439999999934,1037
44.572663999999946,2.0691439999999925,1216
49.75666399999992,4.013143999999992,953
43.92466399999995,3.365143999999992,1116
43.92466399999995,2.717143999999992,1141
44.24866399999995,3.365143999999992,1167
44.572663999999946,3.365143999999992,1182
49.10866399999992,0.1251439999999934,919
49.43266399999992,0.7731439999999932,899
49.43266399999992,-1.8188560000000056,1041
49.10866399999992,-1.170856000000006,991
49.10866399999992,-0.5228560000000062,929
49.10866399999992,0.7731439999999932,954
49.10866399999992,1.4211439999999929,930
47.81266399999993,-1.8188560000000056,1143
47.81266399999993,-2.4668560000000053,1168
47.81266399999993,-3.114856000000005,1181
48.136663999999925,-3.7628560000000046,1189
44.572663999999946,9.197143999999987,982
44.89666399999994,8.54914399999999,957
45.22066399999994,9.197143999999987,919
45.54466399999994,10.493143999999988,967
44.572663999999946,10.493143999999988,1318
44.89666399999994,10.493143999999988,1033
44.89666399999994,9.845143999999989,1061
48.46066399999992,5.309143999999991,1095
50.91599999999999,-1.0580000000000025,65535
51.23999999999999,-0.4100000000000028,65535
50.91599999999999,-0.4100000000000028,65535
51.23999999999999,-2.354000000000002,65535
51.56399999999999,-2.354000000000002,65535
51.56399999999999,-3.0020000000000016,65535
50.91599999999999,-2.354000000000002,65535
53.50799999999997,-3.0020000000000016,65535
53.183999999999976,-2.354000000000002,65535
53.183999999999976,-3.0020000000000016,65535
52.85999999999998,-2.354000000000002,65535
52.21199999999998,-1.0580000000000025,65535
51.887999999999984,-1.0580000000000025,65535
52.53599999999998,-1.0580000000000025,65535
52.53599999999998,-1.7060000000000022,65535
52.85999999999998,-1.7060000000000022,65535
53.50799999999997,-2.354000000000002,65535
52.85999999999998,-1.0580000000000025,65535
52.53599999999998,1.5339999999999965,65535
52.53599999999998,0.8859999999999966,65535
52.53599999999998,0.2379999999999968,65535
52.53599999999998,-0.4100000000000028,65535
53.50799999999997,-1.7060000000000022,65535
53.183999999999976,-1.7060000000000022,65535
53.183999999999976,-1.0580000000000025,65535
52.85999999999998,-0.4100000000000028,65535
51.887999999999984,-2.354000000000002,65535
52.21199999999998,-2.354000000000002,65535
55.77599999999996,-2.354000000000002,65535
53.83199999999997,-1.0580000000000025,65535
53.83199999999997,-1.7060000000000022,65535
55.127999999999965,-1.7060000000000022,65535
54.80399999999997,-1.7060000000000022,65535
54.47999999999997,-1.7060000000000022,65535
54.15599999999997,-1.0580000000000025,65535
52.21199999999998,-1.7060000000000022,65535
53.50799999999997,-1.0580000000000025,65535
55.77599999999996,-3.0020000000000016,65535
55.45199999999996,-1.7060000000000022,65535
57.07199999999995,-2.354000000000002,65535
56.74799999999996,-3.0020000000000016,65535
56.42399999999996,-3.0020000000000016,65535
56.09999999999996,-3.650000000000001,65535
50.91599999999999,-3.0020000000000016,65535
50.91599999999999,-3.650000000000001,65535
50.59199999999999,-3.650000000000001,65535
50.59199999999999,-4.298000000000001,65535
51.23999999999999,-3.0020000000000016,65535
50.268,-4.946000000000001,65535
55.77599999999996,-3.650000000000001,65535
55.77599999999996,-4.298000000000001,65535
52.21199999999998,-0.4100000000000028,65535
52.53599999999998,-2.354000000000002,65535
51.56399999999999,-1.7060000000000022,65535
51.56399999999999,-3.650000000000001,65535
51.887999999999984,-4.298000000000001,65535
51.56399999999999,-4.298000000000001,65535
51.887999999999984,-1.7060000000000022,65535
52.21199999999998,-3.0020000000000016,65535
51.23999999999999,0.2379999999999968,65535
50.91599999999999,0.2379999999999968,65535
52.21199999999998,0.2379999999999968,65535
53.83199999999997,-3.0020000000000016,65535
54.15599999999997,-3.0020000000000016,65535
54.47999999999997,-3.0020000000000016,65535
55.127999999999965,-3.650000000000001,65535
54.80399999999997,-3.0020000000000016,65535
53.83199999999997,-2.354000000000002,65535
54.15599999999997,-0.4100000000000028,65535
54.47999999999997,-1.0580000000000025,65535
53.83199999999997,-0.4100000000000028,65535
53.183999999999976,-3.650000000000001,65535
53.183999999999976,-4.298000000000001,65535
52.85999999999998,-3.0020000000000016,65535
52.53599999999998,-3.0020000000000016,65535
51.887999999999984,-3.0020000000000016,65535
51.23999999999999,0.8859999999999966,65535
51.887999999999984,0.2379999999999968,65535
52.21199999999998,0.8859999999999966,65535
51.887999999999984,-4.946000000000001,65535
52.53599999999998,-3.650000000000001,65535
52.21199999999998,-4.298000000000001,65535
53.183999999999976,-0.4100000000000028,65535
51.23999999999999,-3.650000000000001,65535
51.887999999999984,-3.650000000000001,65535
52.21199999999998,-3.650000000000001,65535
51.56399999999999,0.8859999999999966,65535
51.887999999999984,0.8859999999999966,65535
52.85999999999998,0.8859999999999966,65535
53.50799999999997,-0.4100000000000028,65535
56.09999999999996,-4.298000000000001,65535
56.74799999999996,-4.946000000000001,65535
56.74799999999996,-4.298000000000001,65535
56.42399999999996,-4.946000000000001,65535
56.42399999999996,-4.298000000000001,65535
56.09999999999996,-4.946000000000001,65535
57.39599999999995,-4.298000000000001,65535
57.39599999999995,-3.0020000000000016,65535
57.39599999999995,-3.650000000000001,65535
56.42399999999996,-3.650000000000001,65535
57.07199999999995,-3.650000000000001,65535
57.07199999999995,-4.298000000000001,65535
56.74799999999996,-3.650000000000001,65535
59.15266399999986,27.34114399999998,65535
59.47666399999986,26.69314399999997,65535
59.47666399999986,26.04514399999998,65535
59.15266399999986,26.04514399999998,65535
59.15266399999986,24.74914399999998,65535
59.15266399999986,25.397143999999983,65535
59.47666399999986,25.397143999999983,65535
58.50466399999986,26.69314399999997,65535
58.82866399999986,26.69314399999997,65535
57.85666399999987,26.04514399999998,65535
58.180663999999865,26.04514399999998,65535
58.180663999999865,26.69314399999997,65535
58.82866399999986,26.04514399999998,65535
58.50466399999986,25.397143999999983,65535
58.82866399999986,25.397143999999983,65535
58.82866399999986,24.74914399999998,65535
58.180663999999865,27.34114399999998,65535
57.85666399999987,27.34114399999998,65535
63.68866399999983,27.34114399999998,7077
60.124663999999854,24.74914399999998,3733
60.44866399999985,24.74914399999998,3702
60.44866399999985,25.397143999999983,3714
60.77266399999985,25.397143999999983,4425
61.09666399999985,26.04514399999998,4468
60.77266399999985,26.04514399999998,4476
60.77266399999985,26.69314399999997,4495
61.09666399999985,25.397143999999983,4459
61.09666399999985,26.69314399999997,7198
61.420663999999846,26.69314399999997,7220
61.74466399999984,27.34114399999998,7244
62.06866399999984,27.34114399999998,7269
62.39266399999984,27.34114399999998,7293
62.71666399999984,27.34114399999998,7257
64.01266399999983,27.34114399999998,7033
63.36466399999984,27.34114399999998,7145
63.04066399999984,27.34114399999998,7185
63.04066399999984,27.989143999999985,7200
64.33666399999983,27.989143999999985,4784
64.33666399999983,27.34114399999998,4729
64.66066399999983,27.34114399999998,4714
64.66066399999983,26.69314399999997,4659
64.98466399999982,25.397143999999983,3079
64.66066399999983,26.04514399999998,4640
64.98466399999982,26.04514399999998,4624
66.28066399999982,25.397143999999983,3251
65.95666399999982,24.74914399999998,2992
65.63266399999982,24.74914399999998,2996
65.63266399999982,25.397143999999983,3038
65.30866399999982,25.397143999999983,3059
66.60466399999981,25.397143999999983,3285
64.01266399999983,24.74914399999998,3216
64.01266399999983,24.101143999999977,3251
64.01266399999983,23.45314399999998,3275
63.68866399999983,23.45314399999998,3287
63.68866399999983,22.805143999999984,3312
63.68866399999983,26.04514399999998,5344
63.68866399999983,25.397143999999983,5310
63.68866399999983,26.69314399999997,7044
60.44866399999985,26.69314399999997,7829
64.01266399999983,27.989143999999985,7463
62.71666399999984,22.805143999999984,3434
62.39266399999984,22.805143999999984,3466
62.06866399999984,22.805143999999984,3495
62.06866399999984,23.45314399999998,3511
61.74466399999984,23.45314399999998,3523
61.420663999999846,23.45314399999998,3571
61.09666399999985,23.45314399999998,3612
61.09666399999985,24.101143999999977,3619
61.09666399999985,24.74914399999998,3653
60.77266399999985,24.74914399999998,3669
63.04066399999984,21.50914399999997,65535
63.04066399999984,22.15714399999998,65535
63.04066399999984,22.805143999999984,3398
62.39266399999984,26.04514399999998,7441
62.06866399999984,25.397143999999983,7490
61.74466399999984,25.397143999999983,7558
61.74466399999984,24.74914399999998,7595
61.74466399999984,24.101143999999977,3800
61.420663999999846,24.101143999999977,3755
62.39266399999984,26.69314399999997,7412
64.66066399999983,25.397143999999983,3148
64.66066399999983,24.74914399999998,3166
64.33666399999983,24.74914399999998,3177
63.36466399999984,22.805143999999984,3337
67.25266399999981,24.101143999999977,6865
66.92866399999981,24.101143999999977,6829
66.60466399999981,23.45314399999998,6798
66.28066399999982,23.45314399999998,6780
66.28066399999982,24.101143999999977,6762
65.95666399999982,24.101143999999977,2364
60.124663999999854,24.101143999999977,5247
60.124663999999854,23.45314399999998,6105
60.44866399999985,22.805143999999984,6164
60.77266399999985,27.34114399999998,4547
61.09666399999985,27.989143999999985,4577
61.09666399999985,28.63714399999997,4615
61.420663999999846,29.28514399999997,4650
61.74466399999984,29.933143999999977,4687
62.06866399999984,29.933143999999977,4713
62.39266399999984,29.933143999999977,4729
62.71666399999984,29.933143999999977,4753
61.420663999999846,22.805143999999984,5858
61.420663999999846,22.15714399999998,6566
61.09666399999985,22.15714399999998,5904
61.420663999999846,21.50914399999997,6699
62.39266399999984,27.989143999999985,65535
62.06866399999984,27.989143999999985,65535
61.420663999999846,27.34114399999998,65535
63.04066399999984,29.933143999999977,6692
63.68866399999983,29.28514399999997,8475
63.36466399999984,29.28514399999997,8455
63.36466399999984,29.933143999999977,8414
60.44866399999985,27.34114399999998,65535
61.74466399999984,29.28514399999997,65535
62.39266399999984,30.58114399999998,65535
62.71666399999984,31.229143999999977,65535
62.71666399999984,29.28514399999997,65535
63.04066399999984,28.63714399999997,65535
66.60466399999981,26.04514399999998,6106
66.60466399999981,26.69314399999997,6142
66.60466399999981,27.34114399999998,6165
62.71666399999984,26.04514399999998,7326
62.71666399999984,25.397143999999983,7295
63.04066399999984,25.397143999999983,7115
63.36466399999984,25.397143999999983,5752
62.71666399999984,23.45314399999998,7320
62.39266399999984,24.101143999999977,65535
62.71666399999984,22.15714399999998,65535
62.39266399999984,22.15714399999998,65535
62.39266399999984,21.50914399999997,65535
61.09666399999985,21.50914399999997,5934
60.77266399999985,22.805143999999984,3972
60.44866399999985,22.15714399999998,4002
60.77266399999985,23.45314399999998,3959
60.77266399999985,21.50914399999997,5073
60.77266399999985,22.15714399999998,5026
60.124663999999854,22.805143999999984,8119
60.44866399999985,24.101143999999977,5232
62.06866399999984,24.74914399999998,65535
50.72866399999991,16.325143999999987,331
50.40466399999991,16.973143999999984,318
50.72866399999991,16.973143999999984,303
50.40466399999991,16.325143999999987,358
50.08066399999991,16.973143999999984,411
50.08066399999991,16.325143999999987,408
51.700663999999904,16.973143999999984,237
51.37666399999991,16.973143999999984,259
51.05266399999991,15.677143999999986,372
50.72866399999991,15.677143999999986,347
51.05266399999991,17.621143999999987,299
51.37666399999991,17.621143999999987,281
51.700663999999904,17.621143999999987,252
51.700663999999904,16.325143999999987,226
52.0246639999999,22.15714399999998,1018
52.0246639999999,21.50914399999997,975
52.3486639999999,21.50914399999997,984
52.0246639999999,20.86114399999998,980
51.700663999999904,20.86114399999998,990
51.37666399999991,21.50914399999997,972
51.37666399999991,20.86114399999998,960
51.05266399999991,20.86114399999998,966
52.6726639999999,23.45314399999998,1267
52.3486639999999,22.805143999999984,1209
52.3486639999999,20.213143999999986,994
52.0246639999999,20.213143999999986,1025
52.3486639999999,19.565143999999982,848
52.6726639999999,19.565143999999982,885
51.700663999999904,21.50914399999997,994
51.700663999999904,22.15714399999998,1000
52.6726639999999,21.50914399999997,993
52.996663999999896,21.50914399999997,1140
52.6726639999999,20.86114399999998,955
52.6726639999999,22.15714399999998,1019
52.6726639999999,20.213143999999986,981
52.996663999999896,19.565143999999982,918
52.996663999999896,20.86114399999998,937
52.996663999999896,20.213143999999986,911
53.32066399999989,20.213143999999986,885
51.37666399999991,20.213143999999986,941
52.3486639999999,16.973143999999984,175
52.0246639999999,16.973143999999984,191
52.0246639999999,16.325143999999987,204
52.0246639999999,17.621143999999987,214
52.6726639999999,16.973143999999984,160
52.996663999999896,16.973143999999984,141
52.3486639999999,16.325143999999987,184
52.3486639999999,15.677143999999986,188
51.700663999999904,18.269143999999983,284
52.6726639999999,17.621143999999987,222
52.3486639999999,17.621143999999987,208
52.6726639999999,18.269143999999983,338
52.3486639999999,18.269143999999983,258
52.3486639999999,18.917143999999983,295
52.996663999999896,17.621143999999987,184
51.700663999999904,19.565143999999982,856
51.700663999999904,18.917143999999983,906
51.37666399999991,18.269143999999983,298
58.82866399999986,9.197143999999987,1328
58.180663999999865,7.90114399999999,1421
58.50466399999986,8.54914399999999,1372
63.36466399999984,10.493143999999988,1543
63.36466399999984,11.141143999999988,1550
63.36466399999984,11.789143999999988,1585
63.68866399999983,11.789143999999988,1613
64.33666399999983,12.437143999999988,2014
64.66066399999983,12.437143999999988,2509
65.63266399999982,13.085143999999987,2166
65.95666399999982,13.085143999999987,2201
66.28066399999982,14.381143999999988,2271
65.95666399999982,13.733143999999989,2340
66.28066399999982,13.733143999999989,2249
65.30866399999982,13.085143999999987,2467
64.98466399999982,13.085143999999987,2101
64.01266399999983,11.789143999999988,1644
63.68866399999983,11.141143999999988,1581
59.800663999999855,10.493143999999988,1124
59.800663999999855,11.141143999999988,1107
60.124663999999854,11.141143999999988,1122
60.44866399999985,11.141143999999988,1135
60.124663999999854,11.789143999999988,1148
60.77266399999985,7.25314399999999,1384
60.77266399999985,6.60514399999999,1430
59.15266399999986,9.197143999999987,1210
59.47666399999986,9.197143999999987,1231
59.800663999999855,9.845143999999989,1126
59.47666399999986,11.141143999999988,1071
61.09666399999985,10.493143999999988,1245
60.77266399999985,10.493143999999988,1215
60.77266399999985,11.141143999999988,1170
62.06866399999984,9.197143999999987,1570
61.74466399999984,9.845143999999989,1516
61.420663999999846,9.845143999999989,1493
59.15266399999986,9.845143999999989,1190
59.47666399999986,9.845143999999989,1166
58.82866399999986,5.957143999999991,1605
58.180663999999865,7.25314399999999,1477
58.50466399999986,7.25314399999999,1510
58.50466399999986,6.60514399999999,1515
58.50466399999986,5.957143999999991,1573
58.82866399999986,8.54914399999999,1358
60.44866399999985,7.25314399999999,1358
60.44866399999985,7.90114399999999,1319
60.124663999999854,10.493143999999988,1156
60.44866399999985,9.197143999999987,1268
60.77266399999985,9.197143999999987,1280
60.77266399999985,8.54914399999999,1299
60.124663999999854,9.845143999999989,1535
60.44866399999985,10.493143999999988,1201
63.04066399999984,10.493143999999988,1494
62.06866399999984,9.845143999999989,1595
62.39266399999984,9.845143999999989,1603
62.71666399999984,9.845143999999989,1627
59.47666399999986,14.381143999999988,1120
59.47666399999986,13.733143999999989,1061
59.47666399999986,13.085143999999987,1037
59.800663999999855,12.437143999999988,1106
59.15266399999986,11.141143999999988,1035
59.15266399999986,14.381143999999988,1134
58.82866399999986,11.789143999999988,1015
58.50466399999986,12.437143999999988,945
58.180663999999865,12.437143999999988,938
57.85666399999987,11.789143999999988,889
62.71666399999984,7.90114399999999,1656
62.39266399999984,7.90114399999999,1613
62.06866399999984,8.54914399999999,1588
60.44866399999985,5.309143999999991,1504
60.44866399999985,5.957143999999991,1471
60.77266399999985,5.957143999999991,1460
62.39266399999984,11.141143999999988,1391
62.06866399999984,10.493143999999988,1346
61.74466399999984,11.141143999999988,1319
61.420663999999846,11.141143999999988,1273
61.09666399999985,11.141143999999988,1256
60.77266399999985,11.789143999999988,1233
63.04066399999984,11.141143999999988,1472
62.71666399999984,11.141143999999988,1415
62.39266399999984,10.493143999999988,1373
67.25266399999981,15.677143999999986,2390
67.25266399999981,15.029143999999986,2428
67.25266399999981,14.381143999999988,2456
66.92866399999981,15.029143999999986,2379
66.60466399999981,15.677143999999986,2357
64.01266399999983,11.141143999999988,1628
66.60466399999981,15.029143999999986,2420
54.29266399999989,18.269143999999983,295
54.616663999999886,17.621143999999987,240
53.96866399999989,18.269143999999983,291
43.92466399999995,1.4211439999999929,1158
44.24866399999995,0.7731439999999932,1170
44.572663999999946,0.1251439999999934,1148
46.84066399999993,1.4211439999999929,1043
44.572663999999946,1.4211439999999929,1225
44.24866399999995,1.4211439999999929,1190
45.54466399999994,1.4211439999999929,1177
46.516663999999935,1.4211439999999929,1061
42.30466399999996,2.717143999999992,1176
44.24866399999995,2.717143999999992,1274
44.572663999999946,2.717143999999992,1279
43.92466399999995,2.0691439999999925,1190
42.30466399999996,2.0691439999999925,1229
42.62866399999996,2.0691439999999925,1193
42.62866399999996,1.4211439999999929,1232
42.95266399999996,1.4211439999999929,1181
43.276663999999954,1.4211439999999929,1156
46.516663999999935,-1.170856000000006,1200
46.19266399999994,-1.170856000000006,1194
45.86866399999994,-0.5228560000000062,1165
45.54466399999994,-0.5228560000000062,1122
48.46066399999992,1.4211439999999929,919
41.332663999999966,2.0691439999999925,1234
41.98066399999996,2.717143999999992,1193
48.46066399999992,-1.8188560000000056,1073
47.81266399999993,0.7731439999999932,972
46.84066399999993,0.7731439999999932,1027
44.572663999999946,-1.170856000000006,1045
43.60066399999995,-1.170856000000006,1108
43.276663999999954,-1.8188560000000056,1155
43.276663999999954,0.1251439999999934,1370
42.95266399999996,0.1251439999999934,1347
43.276663999999954,-0.5228560000000062,1280
43.60066399999995,-0.5228560000000062,1269
47.81266399999993,-3.7628560000000046,1207
47.48866399999993,-2.4668560000000053,1125
47.81266399999993,-0.5228560000000062,1008
46.516663999999935,-1.8188560000000056,1228
48.136663999999925,-1.170856000000006,1105
47.48866399999993,-1.170856000000006,1136
45.22066399999994,8.54914399999999,917
45.22066399999994,7.90114399999999,935
46.19266399999994,-0.5228560000000062,1181
46.516663999999935,-0.5228560000000062,1163
48.78466399999992,-3.114856000000005,1144
50.72866399999991,2.0691439999999925,813
50.40466399999991,2.0691439999999925,848
40.36066399999997,-3.7628560000000046,1425
41.65666399999997,-1.170856000000006,1342
41.332663999999966,1.4211439999999929,1280
43.276663999999954,13.733143999999989,3910
42.95266399999996,13.733143999999989,3932
41.65666399999997,15.029143999999986,4016
40.68466399999997,17.621143999999987,4178
43.60066399999995,13.085143999999987,3903
41.65666399999997,12.437143999999988,2569
41.65666399999997,13.085143999999987,2588
41.98066399999996,13.085143999999987,2638
41.65666399999997,13.733143999999989,2640
41.332663999999966,13.733143999999989,2632
41.332663999999966,14.381143999999988,2789
41.00866399999997,14.381143999999988,2695
41.332663999999966,13.085143999999987,2614
41.00866399999997,15.029143999999986,2895
41.98066399999996,13.733143999999989,2837
42.30466399999996,14.381143999999988,2976
42.30466399999996,12.437143999999988,2577
42.62866399999996,12.437143999999988,2756
42.95266399999996,12.437143999999988,3041
42.30466399999996,11.789143999999988,2586
42.95266399999996,11.789143999999988,2796
42.62866399999996,11.789143999999988,2787
43.276663999999954,11.789143999999988,2850
42.95266399999996,13.085143999999987,3804
42.30466399999996,13.085143999999987,2863
43.276663999999954,13.085143999999987,3852
43.276663999999954,12.437143999999988,3859
42.62866399999996,11.141143999999988,2632
42.95266399999996,11.141143999999988,2675
42.95266399999996,10.493143999999988,2693
44.572663999999946,8.54914399999999,964
44.89666399999994,7.90114399999999,941
44.89666399999994,9.197143999999987,972
44.24866399999995,7.90114399999999,999
44.572663999999946,7.90114399999999,956
43.92466399999995,7.90114399999999,1059
44.24866399999995,7.25314399999999,996
44.89666399999994,7.25314399999999,947
45.22066399999994,7.25314399999999,947
45.54466399999994,7.90114399999999,938
44.572663999999946,7.25314399999999,982
52.996663999999896,22.805143999999984,1368
52.996663999999896,23.45314399999998,1391
51.37666399999991,22.15714399999998,1075
51.37666399999991,22.805143999999984,1130
50.08066399999991,20.213143999999986,824
50.72866399999991,20.213143999999986,912
50.40466399999991,20.213143999999986,877
50.08066399999991,20.86114399999998,873
50.08066399999991,21.50914399999997,880
50.08066399999991,22.15714399999998,890
50.08066399999991,22.805143999999984,907
53.96866399999989,22.805143999999984,1827
53.64466399999989,23.45314399999998,1498
53.32066399999989,23.45314399999998,1444
50.40466399999991,19.565143999999982,785
50.08066399999991,18.917143999999983,775
50.08066399999991,18.269143999999983,531
52.0246639999999,22.805143999999984,1081
52.0246639999999,23.45314399999998,1119
51.37666399999991,19.565143999999982,819
51.05266399999991,19.565143999999982,780
50.72866399999991,18.917143999999983,743
50.72866399999991,19.565143999999982,893
49.75666399999992,18.917143999999983,775
50.40466399999991,18.269143999999983,381
53.64466399999989,19.565143999999982,808
53.96866399999989,18.917143999999983,333
53.64466399999989,18.917143999999983,343
53.64466399999989,20.213143999999986,847
52.996663999999896,18.917143999999983,241
52.996663999999896,18.269143999999983,221
53.32066399999989,18.917143999999983,376
50.72866399999991,17.621143999999987,328
50.72866399999991,18.269143999999983,369
52.6726639999999,16.325143999999987,125
52.996663999999896,16.325143999999987,110
52.996663999999896,15.677143999999986,94
53.32066399999989,15.677143999999986,84
53.32066399999989,15.029143999999986,73
53.64466399999989,15.029143999999986,100
53.96866399999989,15.029143999999986,122
52.6726639999999,18.917143999999983,313
53.32066399999989,16.325143999999987,217
52.6726639999999,15.029143999999986,203
51.05266399999991,22.805143999999984,1177
51.05266399999991,23.45314399999998,1204
50.72866399999991,22.15714399999998,1286
50.40466399999991,22.15714399999998,1325
51.05266399999991,22.15714399999998,1127
54.616663999999886,16.973143999999984,186
54.29266399999989,16.325143999999987,135
53.96866399999989,15.677143999999986,100
50.72866399999991,21.50914399999997,1296
50.40466399999991,21.50914399999997,915
50.40466399999991,17.621143999999987,344
53.32066399999989,22.805143999999984,1409
53.64466399999989,22.15714399999998,1138
54.29266399999989,16.973143999999984,162
50.72866399999991,20.86114399999998,971
51.700663999999904,22.805143999999984,1351
51.05266399999991,21.50914399999997,1065
50.08066399999991,19.565143999999982,793
52.0246639999999,18.917143999999983,8008
52.0246639999999,19.565143999999982,8001
53.64466399999989,18.269143999999983,285
51.700663999999904,20.213143999999986,981
53.32066399999989,19.565143999999982,799
50.72866399999991,23.45314399999998,1411
50.72866399999991,22.805143999999984,1380
49.43266399999992,20.213143999999986,798
49.75666399999992,21.50914399999997,957
49.75666399999992,22.15714399999998,1351
49.43266399999992,22.15714399999998,1212
51.05266399999991,18.917143999999983,703
51.05266399999991,18.269143999999983,464
53.32066399999989,16.973143999999984,158
53.64466399999989,16.973143999999984,96
49.75666399999992,20.86114399999998,927
50.40466399999991,22.805143999999984,8090
53.64466399999989,16.325143999999987,65
53.96866399999989,20.86114399999998,1026
54.29266399999989,20.86114399999998,1072
53.96866399999989,21.50914399999997,1089
53.64466399999989,15.677143999999986,0
53.96866399999989,20.213143999999986,858
53.96866399999989,19.565143999999982,428
54.29266399999989,19.565143999999982,442
53.96866399999989,16.325143999999987,124
53.64466399999989,17.621143999999987,193
53.96866399999989,22.15714399999998,1156
53.64466399999989,21.50914399999997,1094
53.64466399999989,20.86114399999998,872
52.6726639999999,15.677143999999986,174
51.05266399999991,20.213143999999986,1057
54.940663999999884,24.101143999999977,3201
54.616663999999886,23.45314399999998,3145
54.29266399999989,23.45314399999998,3008
53.64466399999989,22.805143999999984,1396
53.96866399999989,16.973143999999984,214
50.40466399999991,20.86114399999998,1048
53.32066399999989,18.269143999999983,408
49.75666399999992,19.565143999999982,823
50.40466399999991,23.45314399999998,1516
49.75666399999992,20.213143999999986,802
49.43266399999992,19.565143999999982,777
49.43266399999992,20.86114399999998,879
53.96866399999989,17.621143999999987,843
42.30466399999996,-1.8188560000000056,8319
41.98066399999996,-1.8188560000000056,8302
41.65666399999997,0.7731439999999932,8306
42.62866399999996,-1.8188560000000056,8434
42.95266399999996,-1.8188560000000056,8463
42.62866399999996,-3.114856000000005,8557
42.95266399999996,-2.4668560000000053,8535
42.62866399999996,-7.650856000000003,8899
42.30466399999996,-7.650856000000003,8959
42.30466399999996,-8.946856000000002,9095
42.30466399999996,-8.298856000000002,9069
41.98066399999996,-8.298856000000002,9058
42.30466399999996,-7.002856000000003,8841
42.62866399999996,-6.354856000000003,8783
42.30466399999996,-6.354856000000003,8738
42.62866399999996,-5.706856000000004,8238
41.98066399999996,-4.410856000000004,8192
42.30466399999996,-3.7628560000000046,8583
40.03666399999997,-0.5228560000000062,8286
39.38866399999998,-0.5228560000000062,8334
41.00866399999997,0.7731439999999932,8434
40.68466399999997,0.7731439999999932,8466
40.36066399999997,0.1251439999999934,8544
39.712663999999975,-0.5228560000000062,8443
38.41666399999998,-0.5228560000000062,8455
39.06466399999998,-0.5228560000000062,8577
38.74066399999998,-1.170856000000006,8463
41.332663999999966,0.7731439999999932,8494
41.65666399999997,2.717143999999992,8094
41.65666399999997,2.0691439999999925,8117
41.332663999999966,0.1251439999999934,8452
41.332663999999966,-0.5228560000000062,8396
41.65666399999997,-4.410856000000004,8166
40.03666399999997,-2.4668560000000053,8404
41.00866399999997,-4.410856000000004,8287
43.276663999999954,-5.706856000000004,8368
39.38866399999998,-1.170856000000006,8429
38.09266399999999,-1.170856000000006,8842
38.74066399999998,-0.5228560000000062,8605
37.76866399999999,-1.170856000000006,8907
39.06466399999998,-1.8188560000000056,8427
39.38866399999998,-3.114856000000005,8327
39.38866399999998,-2.4668560000000053,8383
39.06466399999998,-2.4668560000000053,8410
39.06466399999998,-3.114856000000005,8331
39.06466399999998,-3.7628560000000046,8305
38.74066399999998,-3.7628560000000046,8384
40.03666399999997,-3.7628560000000046,8283
40.03666399999997,-3.114856000000005,8483
40.03666399999997,-1.8188560000000056,8564
39.712663999999975,-1.8188560000000056,8529
39.712663999999975,-1.170856000000006,8465
40.36066399999997,-1.170856000000006,8484
40.68466399999997,-1.170856000000006,8462
41.00866399999997,-1.170856000000006,8450
41.332663999999966,-1.170856000000006,8290
43.276663999999954,-8.298856000000002,9059
42.95266399999996,-8.298856000000002,9027
41.65666399999997,-5.706856000000004,65535
41.98066399999996,-7.002856000000003,65535
41.98066399999996,-6.354856000000003,65535
41.332663999999966,-5.058856000000004,8405
43.276663999999954,-3.7628560000000046,8840
42.95266399999996,-4.410856000000004,8774
42.62866399999996,-4.410856000000004,8764
42.30466399999996,-4.410856000000004,8723
41.00866399999997,-5.706856000000004,8343
41.332663999999966,-1.8188560000000056,8236
40.68466399999997,-3.114856000000005,8190
41.00866399999997,-3.114856000000005,8241
41.00866399999997,-2.4668560000000053,8264
41.332663999999966,-2.4668560000000053,8317
40.68466399999997,-4.410856000000004,8227
40.36066399999997,-4.410856000000004,8311
40.68466399999997,-3.7628560000000046,8219
40.36066399999997,-3.114856000000005,8197
41.65666399999997,-2.4668560000000053,8334
38.09266399999999,-3.7628560000000046,8431
38.74066399999998,-3.114856000000005,8375
37.76866399999999,-3.7628560000000046,8488
39.712663999999975,-3.114856000000005,8319
38.41666399999998,-3.7628560000000046,8396
40.03666399999997,-4.410856000000004,65535
40.03666399999997,-5.058856000000004,65535
39.38866399999998,-6.354856000000003,65535
39.38866399999998,-7.002856000000003,65535
42.95266399999996,-3.114856000000005,8968
41.98066399999996,-1.170856000000006,8331
42.30466399999996,-2.4668560000000053,8372
41.65666399999997,-0.5228560000000062,8429
41.98066399999996,-0.5228560000000062,8266
41.65666399999997,0.1251439999999934,8293
41.98066399999996,0.1251439999999934,8315
37.76866399999999,-5.058856000000004,8367
36.79666399999999,-4.410856000000004,8426
38.74066399999998,-4.410856000000004,8323
37.12066399999999,-4.410856000000004,8400
37.44466399999999,-5.058856000000004,8924
37.44466399999999,-7.002856000000003,65535
37.44466399999999,-6.354856000000003,65535
37.44466399999999,-5.706856000000004,8600
39.712663999999975,-3.7628560000000046,8393
42.62866399999996,-8.946856000000002,65535
42.30466399999996,-5.706856000000004,8745
42.30466399999996,-5.058856000000004,8830
42.95266399999996,-5.706856000000004,8270
41.00866399999997,-5.058856000000004,8311
40.68466399999997,-5.058856000000004,8285
41.65666399999997,-5.058856000000004,65535
41.65666399999997,-6.354856000000003,65535
36.79666399999999,-6.354856000000003,65535
37.12066399999999,-5.706856000000004,8768
37.76866399999999,-5.706856000000004,8567
38.09266399999999,-4.410856000000004,8702
37.12066399999999,-5.058856000000004,8722
36.79666399999999,-5.058856000000004,8680
37.76866399999999,-4.410856000000004,65535
37.76866399999999,-7.002856000000003,65535
38.41666399999998,-6.354856000000003,65535
38.09266399999999,-6.354856000000003,65535
48.78466399999992,1.4211439999999929,945
56.23666399999988,8.54914399999999,6610
55.58866399999988,9.197143999999987,6415
55.91266399999988,9.197143999999987,6556
55.26466399999988,10.493143999999988,594
55.91266399999988,12.437143999999988,729
55.58866399999988,11.789143999999988,6255
55.58866399999988,11.141143999999988,6296
55.26466399999988,11.789143999999988,6288
55.58866399999988,10.493143999999988,6411
55.58866399999988,13.085143999999987,686
56.88466399999987,9.845143999999989,6562
57.20866399999987,9.845143999999989,6597
56.56066399999988,9.845143999999989,6534
56.88466399999987,8.54914399999999,6649
54.940663999999884,9.845143999999989,7756
54.940663999999884,11.789143999999988,6512
55.91266399999988,13.085143999999987,744
56.23666399999988,13.733143999999989,788
55.91266399999988,13.733143999999989,791
56.23666399999988,14.381143999999988,811
56.23666399999988,15.029143999999986,852
56.23666399999988,15.677143999999986,907
56.56066399999988,14.381143999999988,868
56.88466399999987,14.381143999999988,838
56.23666399999988,13.085143999999987,736
56.56066399999988,13.085143999999987,816
56.88466399999987,12.437143999999988,853
57.20866399999987,12.437143999999988,869
57.53266399999987,12.437143999999988,884
56.88466399999987,15.029143999999986,864
56.56066399999988,15.677143999999986,924
56.88466399999987,15.677143999999986,943
56.88466399999987,16.325143999999987,958
55.91266399999988,11.789143999999988,6581
57.20866399999987,10.493143999999988,6784
49.43266399999992,1.4211439999999929,903
49.75666399999992,0.7731439999999932,921
49.75666399999992,2.0691439999999925,869
50.08066399999991,2.717143999999992,880
49.75666399999992,1.4211439999999929,874
47.81266399999993,1.4211439999999929,974
48.136663999999925,2.0691439999999925,1509
48.46066399999992,2.0691439999999925,948
48.136663999999925,1.4211439999999929,931
48.78466399999992,0.1251439999999934,946
48.46066399999992,0.1251439999999934,964
47.81266399999993,0.1251439999999934,1063
46.84066399999993,-0.5228560000000062,1122
47.16466399999993,0.7731439999999932,1031
46.84066399999993,0.1251439999999934,1247
46.84066399999993,-1.170856000000006,1172
50.08066399999991,1.4211439999999929,866
50.08066399999991,2.0691439999999925,883
49.43266399999992,2.717143999999992,872
49.75666399999992,3.365143999999992,859
50.08066399999991,3.365143999999992,817
49.10866399999992,2.0691439999999925,902
49.43266399999992,2.0691439999999925,894
48.78466399999992,0.7731439999999932,996
48.78466399999992,-0.5228560000000062,1067
48.78466399999992,-1.170856000000006,1097
48.136663999999925,0.7731439999999932,986
48.46066399999992,0.7731439999999932,959
43.92466399999995,5.957143999999991,1027
44.24866399999995,5.957143999999991,1065
43.92466399999995,5.309143999999991,972
42.95266399999996,2.717143999999992,1097
45.54466399999994,2.0691439999999925,1154
45.22066399999994,2.0691439999999925,1249
42.95266399999996,2.0691439999999925,1129
42.95266399999996,0.7731439999999932,1298
43.276663999999954,0.7731439999999932,1227
46.19266399999994,0.7731439999999932,1252
46.516663999999935,0.7731439999999932,1209
45.86866399999994,0.1251439999999934,1265
46.19266399999994,0.1251439999999934,1269
47.81266399999993,-1.170856000000006,1323
48.136663999999925,-2.4668560000000053,1247
47.48866399999993,-1.8188560000000056,1107
47.16466399999993,-1.170856000000006,1128
47.16466399999993,-0.5228560000000062,1131
46.84066399999993,-1.8188560000000056,1196
45.22066399999994,-0.5228560000000062,1067
44.89666399999994,0.1251439999999934,1092
45.22066399999994,0.7731439999999932,1177
45.54466399999994,0.7731439999999932,1205
45.86866399999994,0.7731439999999932,1242
45.22066399999994,0.1251439999999934,1187
44.89666399999994,0.7731439999999932,1136
43.92466399999995,-0.5228560000000062,1296
43.92466399999995,-1.170856000000006,1195
44.24866399999995,-1.170856000000006,1230
45.22066399999994,-1.170856000000006,1098
44.572663999999946,-0.5228560000000062,1075
44.24866399999995,0.1251439999999934,1170
44.572663999999946,0.7731439999999932,1277
43.276663999999954,-1.170856000000006,1364
42.95266399999996,-0.5228560000000062,1413
44.24866399999995,2.0691439999999925,1238
43.60066399999995,0.7731439999999932,1244
43.60066399999995,2.0691439999999925,1215
52.6726639999999,4.661143999999991,6601
52.6726639999999,5.309143999999991,6624
51.700663999999904,5.309143999999991,6569
52.0246639999999,5.309143999999991,6581
52.3486639999999,5.309143999999991,6597
51.37666399999991,4.013143999999992,6577
52.3486639999999,5.957143999999991,6591
52.0246639999999,6.60514399999999,6621
52.6726639999999,5.957143999999991,6608
52.996663999999896,5.957143999999991,6621
53.32066399999989,5.957143999999991,6615
52.996663999999896,6.60514399999999,6597
53.32066399999989,6.60514399999999,6589
52.6726639999999,6.60514399999999,6617
52.996663999999896,5.309143999999991,6636
59.15266399999986,24.101143999999977,65535
56.88466399999987,24.101143999999977,65535
56.88466399999987,23.45314399999998,65535
56.88466399999987,22.805143999999984,65535
57.20866399999987,24.74914399999998,65535
56.88466399999987,24.74914399999998,65535
56.56066399999988,24.74914399999998,65535
56.56066399999988,25.397143999999983,65535
56.56066399999988,24.101143999999977,65535
56.56066399999988,23.45314399999998,65535
56.56066399999988,26.04514399999998,65535
56.88466399999987,26.04514399999998,65535
57.20866399999987,25.397143999999983,65535
57.53266399999987,25.397143999999983,65535
56.23666399999988,26.04514399999998,65535
56.23666399999988,26.69314399999997,65535
55.91266399999988,26.69314399999997,65535
56.56066399999988,26.69314399999997,65535
56.56066399999988,27.34114399999998,65535
56.56066399999988,27.989143999999985,65535
56.23666399999988,27.989143999999985,65535
55.91266399999988,27.34114399999998,65535
56.56066399999988,22.805143999999984,65535
56.56066399999988,22.15714399999998,65535
56.56066399999988,21.50914399999997,65535
57.20866399999987,26.69314399999997,65535
39.06466399999998,-8.946856000000002,65535
38.41666399999998,-8.298856000000002,65535
45.86866399999994,11.789143999999988,1588
46.19266399999994,11.789143999999988,1575
46.19266399999994,10.493143999999988,1615
45.22066399999994,18.269143999999983,1452
45.22066399999994,18.917143999999983,1493
45.54466399999994,16.973143999999984,1355
45.22066399999994,17.621143999999987,1396
45.86866399999994,16.325143999999987,1316
45.54466399999994,18.917143999999983,1540
45.54466399999994,16.325143999999987,1330
45.54466399999994,18.269143999999983,1508
44.89666399999994,18.917143999999983,1690
46.19266399999994,16.973143999999984,1316
46.19266399999994,16.325143999999987,1321
45.86866399999994,16.973143999999984,1333
45.86866399999994,17.621143999999987,1428
46.19266399999994,15.677143999999986,1290
46.516663999999935,16.325143999999987,1295
45.54466399999994,15.677143999999986,1365
45.22066399999994,15.029143999999986,1401
45.54466399999994,15.029143999999986,1362
45.22066399999994,15.677143999999986,1426
44.572663999999946,15.677143999999986,1579
44.24866399999995,15.677143999999986,1600
43.92466399999995,16.325143999999987,1664
44.89666399999994,15.677143999999986,1543
45.54466399999994,17.621143999999987,1407
45.22066399999994,16.325143999999987,1385
46.516663999999935,16.973143999999984,1308
45.86866399999994,18.269143999999983,1600
43.92466399999995,15.677143999999986,1766
45.22066399999994,13.733143999999989,1410
47.48866399999993,19.565143999999982,902
47.16466399999993,18.917143999999983,906
47.81266399999993,18.917143999999983,892
45.54466399999994,9.845143999999989,919
45.22066399999994,9.845143999999989,932
45.22066399999994,10.493143999999988,978
45.86866399999994,9.845143999999989,933
45.86866399999994,10.493143999999988,2358
48.78466399999992,21.50914399999997,890
49.10866399999992,20.213143999999986,861
49.10866399999992,18.917143999999983,737
48.46066399999992,17.621143999999987,794
49.43266399999992,17.621143999999987,973
49.10866399999992,17.621143999999987,832
48.136663999999925,18.269143999999983,835
49.10866399999992,18.269143999999983,786
49.43266399999992,18.269143999999983,798
49.43266399999992,16.973143999999984,763
49.75666399999992,16.973143999999984,921
49.75666399999992,16.325143999999987,814
50.08066399999991,15.677143999999986,443
50.08066399999991,15.029143999999986,418
49.43266399999992,18.917143999999983,710
47.81266399999993,20.86114399999998,1075
48.136663999999925,20.86114399999998,1010
48.46066399999992,20.86114399999998,997
48.46066399999992,21.50914399999997,904
49.10866399999992,19.565143999999982,753
48.136663999999925,17.621143999999987,781
48.78466399999992,22.15714399999998,1077
48.78466399999992,20.86114399999998,959
49.10866399999992,20.86114399999998,881
48.78466399999992,18.269143999999983,791
48.78466399999992,17.621143999999987,734
49.10866399999992,21.50914399999997,886
48.78466399999992,20.213143999999986,1310
48.46066399999992,20.213143999999986,1337
48.136663999999925,19.565143999999982,1605
48.46066399999992,19.565143999999982,1484
48.46066399999992,18.917143999999983,934
48.46066399999992,18.269143999999983,839
48.78466399999992,19.565143999999982,1250
48.78466399999992,18.917143999999983,992
47.81266399999993,18.269143999999983,847
49.10866399999992,22.15714399999998,1124
49.43266399999992,21.50914399999997,913
48.136663999999925,18.917143999999983,927
48.136663999999925,20.213143999999986,1625
52.636,-8.018,65535
52.312,-7.370000000000001,65535
52.312,-8.018,65535
52.636,-8.666,65535
51.988,-8.666,65535
51.988,-8.018,65535
52.96,-8.666,65535
52.96,-6.074000000000002,65535
53.28399999999999,-6.722000000000001,65535
53.60799999999999,-6.722000000000001,65535
53.60799999999999,-7.370000000000001,65535
53.60799999999999,-8.018,65535
54.25599999999999,-8.666,65535
53.93199999999999,-8.666,65535
53.93199999999999,-8.018,65535
52.312,-6.722000000000001,65535
52.636,-6.722000000000001,65535
53.93199999999999,-6.722000000000001,65535
54.25599999999999,-6.074000000000002,65535
53.28399999999999,-7.370000000000001,65535
52.96,-7.370000000000001,65535
52.312,-8.666,65535
52.96,-8.018,65535
52.636,-7.370000000000001,65535
52.96,-6.722000000000001,65535
51.988,-9.314,65535
52.312,-9.314,65535
54.579999999999984,-6.722000000000001,65535
54.579999999999984,-6.074000000000002,65535
53.28399999999999,-8.018,65535
53.28399999999999,-8.666,65535
53.28399999999999,-9.314,65535
53.93199999999999,-9.314,65535
54.25599999999999,-9.314,65535
53.60799999999999,-8.666,65535
53.60799999999999,-9.314,65535
49.43266399999992,14.381143999999988,526
49.75666399999992,14.381143999999988,446
49.75666399999992,15.029143999999986,437
49.75666399999992,13.733143999999989,445
50.08066399999991,13.733143999999989,441
49.75666399999992,15.677143999999986,425
50.40466399999991,15.029143999999986,409
49.43266399999992,13.733143999999989,496
50.40466399999991,15.677143999999986,743
50.40466399999991,13.733143999999989,448
46.19266399999994,15.029143999999986,1273
45.86866399999994,15.029143999999986,1318
45.86866399999994,14.381143999999988,1295
46.19266399999994,13.733143999999989,1382
45.86866399999994,13.733143999999989,1468
58.50466399999986,13.733143999999989,962
58.180663999999865,13.733143999999989,966
58.180663999999865,13.085143999999987,938
57.85666399999987,12.437143999999988,904
60.44866399999985,15.677143999999986,1187
60.124663999999854,15.677143999999986,1121
60.124663999999854,16.325143999999987,1159
59.800663999999855,16.325143999999987,1087
59.800663999999855,17.621143999999987,1066
59.47666399999986,18.269143999999983,1048
61.74466399999984,16.973143999999984,1198
61.420663999999846,16.973143999999984,1171
60.77266399999985,16.973143999999984,1123
65.63266399999982,22.15714399999998,2302
65.95666399999982,21.50914399999997,2262
65.63266399999982,20.86114399999998,2233
64.98466399999982,20.213143999999986,2165
64.66066399999983,20.213143999999986,2143
64.33666399999983,19.565143999999982,1837
64.01266399999983,19.565143999999982,1550
63.68866399999983,20.213143999999986,1503
64.66066399999983,18.917143999999983,2514
59.15266399999986,16.325143999999987,1023
59.15266399999986,15.029143999999986,1015
59.15266399999986,17.621143999999987,1040
57.53266399999987,14.381143999999988,864
57.53266399999987,15.029143999999986,884
61.09666399999985,14.381143999999988,1291
60.77266399999985,15.029143999999986,1242
60.44866399999985,15.029143999999986,1228
58.180663999999865,15.029143999999986,941
58.50466399999986,16.325143999999987,975
58.50466399999986,15.677143999999986,948
63.36466399999984,13.085143999999987,1535
63.04066399999984,14.381143999999988,1472
62.39266399999984,15.677143999999986,1394
63.36466399999984,13.733143999999989,1517
63.36466399999984,14.381143999999988,1489
62.71666399999984,15.677143999999986,1422
62.39266399999984,17.621143999999987,1256
59.800663999999855,15.677143999999986,1533
55.58866399999988,13.733143999999989,818
57.20866399999987,14.381143999999988,848
57.85666399999987,14.381143999999988,896
58.82866399999986,16.973143999999984,1032
58.82866399999986,16.325143999999987,1010
59.15266399999986,18.269143999999983,1044
60.44866399999985,17.621143999999987,1099
59.15266399999986,12.437143999999988,1003
59.15266399999986,13.085143999999987,1017
58.82866399999986,12.437143999999988,979
59.47666399999986,16.325143999999987,1049
58.82866399999986,14.381143999999988,1056
59.47666399999986,15.677143999999986,1038
63.36466399999984,18.917143999999983,1456
63.04066399999984,17.621143999999987,1411
62.71666399999984,17.621143999999987,1385
63.68866399999983,19.565143999999982,1489
62.39266399999984,16.973143999999984,1300
59.800663999999855,16.973143999999984,1075
59.47666399999986,17.621143999999987,1052
57.85666399999987,13.085143999999987,928
57.53266399999987,13.085143999999987,909
58.50466399999986,11.789143999999988,950
57.85666399999987,15.029143999999986,930
57.20866399999987,13.733143999999989,854
57.53266399999987,13.733143999999989,915
61.74466399999984,16.325143999999987,1294
61.420663999999846,16.325143999999987,1261
61.09666399999985,16.325143999999987,1250
61.09666399999985,16.973143999999984,1218
60.124663999999854,15.029143999999986,1396
66.60466399999981,20.86114399999998,2337
67.25266399999981,20.86114399999998,2405
67.90066399999981,20.213143999999986,2475
67.57666399999981,20.213143999999986,3100
59.800663999999855,15.029143999999986,1116
58.50466399999986,15.029143999999986,958
59.47666399999986,15.029143999999986,1101
60.44866399999985,16.325143999999987,1187
59.15266399999986,15.677143999999986,1045
57.85666399999987,13.733143999999989,956
58.82866399999986,13.733143999999989,1003
58.50466399999986,13.085143999999987,988
57.20866399999987,13.085143999999987,885
56.88466399999987,13.085143999999987,859
58.180663999999865,11.789143999999988,921
62.06866399999984,16.973143999999984,1289
65.95666399999982,23.45314399999998,2343
59.800663999999855,14.381143999999988,5411
59.800663999999855,18.269143999999983,1057
63.04066399999984,15.029143999999986,1440
62.71666399999984,15.029143999999986,1430
62.39266399999984,16.325143999999987,1363
63.36466399999984,12.437143999999988,1568
68.5486639999998,17.621143999999987,2688
68.5486639999998,18.269143999999983,2621
68.5486639999998,18.917143999999983,2598
68.2246639999998,18.917143999999983,2554
59.800663999999855,13.085143999999987,1120
60.124663999999854,13.085143999999987,1159
59.47666399999986,16.973143999999984,1061
59.15266399999986,16.973143999999984,1053
56.56066399999988,13.733143999999989,806
60.124663999999854,17.621143999999987,1076
57.85666399999987,16.325143999999987,1035
58.180663999999865,16.325143999999987,997
58.180663999999865,15.677143999999986,1005
57.20866399999987,16.325143999999987,1047
57.53266399999987,15.677143999999986,1065
57.85666399999987,15.677143999999986,1036
44.89666399999994,23.45314399999998,2485
44.572663999999946,23.45314399999998,2555
44.89666399999994,24.74914399999998,2472
44.572663999999946,24.74914399999998,2591
44.572663999999946,24.101143999999977,2532
44.24866399999995,24.101143999999977,2561
47.48866399999993,25.397143999999983,2333
47.48866399999993,24.74914399999998,2273
47.16466399999993,24.74914399999998,2195
47.16466399999993,24.101143999999977,2097
47.48866399999993,22.15714399999998,2227
47.81266399999993,22.15714399999998,2313
47.16466399999993,22.15714399999998,2206
47.16466399999993,23.45314399999998,2258
47.16466399999993,22.805143999999984,2264
46.84066399999993,24.101143999999977,2178
45.86866399999994,27.34114399999998,2518
45.54466399999994,27.34114399999998,2499
45.54466399999994,27.989143999999985,2615
45.86866399999994,20.86114399999998,2390
45.86866399999994,21.50914399999997,2398
46.19266399999994,21.50914399999997,2334
46.19266399999994,27.34114399999998,2518
46.19266399999994,26.69314399999997,2509
46.516663999999935,26.69314399999997,2471
46.516663999999935,26.04514399999998,2367
47.48866399999993,22.805143999999984,2325
46.84066399999993,22.805143999999984,2138
45.54466399999994,22.15714399999998,2447
45.22066399999994,22.15714399999998,2525
44.89666399999994,22.15714399999998,2943
47.48866399999993,23.45314399999998,2291
46.516663999999935,24.101143999999977,2017
46.516663999999935,24.74914399999998,2231
45.86866399999994,24.101143999999977,2180
47.16466399999993,26.69314399999997,2549
47.16466399999993,27.34114399999998,2604
43.92466399999995,25.397143999999983,2563
44.24866399999995,24.74914399999998,2470
44.89666399999994,26.04514399999998,2357
44.89666399999994,26.69314399999997,2404
45.22066399999994,26.69314399999997,2439
45.22066399999994,27.34114399999998,2466
46.84066399999993,26.69314399999997,2510
47.48866399999993,26.69314399999997,2503
44.24866399999995,25.397143999999983,2402
43.92466399999995,26.04514399999998,2579
46.19266399999994,24.101143999999977,2225
44.572663999999946,25.397143999999983,2440
46.84066399999993,24.74914399999998,2238
46.516663999999935,21.50914399999997,2338
46.84066399999993,21.50914399999997,2345
44.572663999999946,26.69314399999997,2395
44.572663999999946,27.34114399999998,2416
44.89666399999994,27.34114399999998,2531
44.572663999999946,27.989143999999985,2436
44.24866399999995,27.989143999999985,2450
44.572663999999946,28.63714399999997,2501
45.86866399999994,22.15714399999998,2259
45.86866399999994,22.805143999999984,2153
44.24866399999995,23.45314399999998,2588
43.92466399999995,27.989143999999985,65535
46.84066399999993,27.34114399999998,2671
45.22066399999994,23.45314399999998,2460
45.54466399999994,23.45314399999998,2263
45.54466399999994,24.101143999999977,2210
45.22066399999994,24.101143999999977,2434
44.89666399999994,24.101143999999977,2504
46.19266399999994,22.15714399999998,2390
46.516663999999935,22.15714399999998,2356
45.22066399999994,21.50914399999997,2630
45.54466399999994,21.50914399999997,2478
45.54466399999994,20.86114399999998,2502
46.516663999999935,27.989143999999985,2621
46.19266399999994,27.989143999999985,2606
45.54466399999994,25.397143999999983,2324
45.22066399999994,25.397143999999983,2334
45.22066399999994,26.04514399999998,2390
47.81266399999993,24.101143999999977,2386
47.48866399999993,26.04514399999998,2476
47.81266399999993,26.04514399999998,2498
46.19266399999994,23.45314399999998,2057
45.86866399999994,23.45314399999998,2106
44.24866399999995,26.04514399999998,2384
45.22066399999994,27.989143999999985,2596
45.86866399999994,24.74914399999998,2219
46.516663999999935,25.397143999999983,2411
46.84066399999993,25.397143999999983,2294
46.19266399999994,26.04514399999998,2382
45.86866399999994,26.04514399999998,2347
43.92466399999995,23.45314399999998,2818
44.89666399999994,25.397143999999983,2445
46.19266399999994,20.86114399999998,2379
47.81266399999993,25.397143999999983,2510
44.572663999999946,22.805143999999984,2823
44.572663999999946,22.15714399999998,2965
46.516663999999935,23.45314399999998,2196
45.86866399999994,25.397143999999983,2273
44.24866399999995,27.34114399999998,3211
45.22066399999994,24.74914399999998,2536
45.54466399999994,22.805143999999984,2226
45.22066399999994,28.63714399999997,2656
44.89666399999994,28.63714399999997,2595
47.81266399999993,23.45314399999998,2443
46.19266399999994,24.74914399999998,2305
46.19266399999994,25.397143999999983,2329
43.92466399999995,24.101143999999977,2781
43.92466399999995,24.74914399999998,2794
47.81266399999993,26.69314399999997,2725
47.48866399999993,24.101143999999977,2318
46.84066399999993,26.04514399999998,3126
46.19266399999994,22.805143999999984,2450
47.48866399999993,27.34114399999998,2678
46.19266399999994,20.213143999999986,65535
45.54466399999994,26.04514399999998,2482
44.24866399999995,26.69314399999997,2400
45.86866399999994,27.989143999999985,2654
47.81266399999993,5.957143999999991,6586
