51.56399999999999,-0.4100000000000028,65535
51.887999999999984,-0.4100000000000028,65535
50.91599999999999,-1.7060000000000022,65535
51.23999999999999,-1.0580000000000025,65535
51.56399999999999,-1.0580000000000025,65535
51.23999999999999,-1.7060000000000022,65535
51.56399999999999,0.2379999999999968,65535
47.16466399999993,9.845143999999989,1603
47.48866399999993,9.845143999999989,1609
48.136663999999925,14.381143999999988,1660
47.81266399999993,13.085143999999987,1629
47.16466399999993,11.141143999999988,1664
47.48866399999993,11.789143999999988,1637
48.136663999999925,16.325143999999987,1894
47.48866399999993,12.437143999999988,1614
48.136663999999925,15.677143999999986,1924
47.16466399999993,10.493143999999988,1711
47.16466399999993,9.197143999999987,1591
48.136663999999925,13.733143999999989,1636
48.136663999999925,15.029143999999986,1939
47.81266399999993,16.973143999999984,1915
48.46066399999992,14.381143999999988,1898
47.48866399999993,13.085143999999987,1619
47.16466399999993,13.085143999999987,1629
47.48866399999993,14.381143999999988,1831
47.48866399999993,13.733143999999989,1853
47.48866399999993,15.029143999999986,1945
46.516663999999935,13.733143999999989,1727
46.84066399999993,13.733143999999989,1696
46.84066399999993,13.085143999999987,1681
48.78466399999992,14.381143999999988,65535
47.16466399999993,15.677143999999986,1925
46.516663999999935,14.381143999999988,1743
46.84066399999993,14.381143999999988,1753
47.16466399999993,14.381143999999988,1877
46.516663999999935,15.029143999999986,1807
47.81266399999993,16.325143999999987,1912
47.16466399999993,15.029143999999986,1921
47.81266399999993,15.677143999999986,1918
47.48866399999993,15.677143999999986,1957
46.516663999999935,13.085143999999987,1934
46.84066399999993,12.437143999999988,1739
48.136663999999925,11.789143999999988,1590
47.81266399999993,12.437143999999988,1602
46.84066399999993,15.677143999999986,1905
46.516663999999935,15.677143999999986,1863
46.84066399999993,16.325143999999987,1899
47.81266399999993,14.381143999999988,1705
48.78466399999992,16.973143999999984,1852
48.136663999999925,16.973143999999984,1881
48.46066399999992,13.733143999999989,1719
47.81266399999993,13.733143999999989,1754
50.08066399999991,8.54914399999999,1480
48.46066399999992,9.845143999999989,1569
51.05266399999991,7.25314399999999,1438
51.37666399999991,7.25314399999999,1431
51.37666399999991,6.60514399999999,1433
48.46066399999992,16.325143999999987,1899
48.46066399999992,16.973143999999984,1868
48.78466399999992,16.325143999999987,1912
48.46066399999992,15.677143999999986,1920
48.78466399999992,15.677143999999986,2013
47.48866399999993,16.325143999999987,1922
47.16466399999993,16.325143999999987,1964
46.19266399999994,14.381143999999988,1809
45.86866399999994,15.677143999999986,1843
43.60066399999995,16.325143999999987,2200
45.54466399999994,14.381143999999988,1885
45.54466399999994,13.733143999999989,1908
48.136663999999925,13.085143999999987,1616
48.46066399999992,11.141143999999988,1581
48.136663999999925,11.141143999999988,1592
48.46066399999992,7.90114399999999,1539
49.10866399999992,8.54914399999999,1503
48.78466399999992,2.0691439999999925,1574
49.10866399999992,7.25314399999999,1521
52.0246639999999,7.90114399999999,1412
47.16466399999993,11.789143999999988,1690
49.43266399999992,11.141143999999988,1598
53.64466399999989,9.845143999999989,1282
50.72866399999991,4.013143999999992,1475
51.05266399999991,11.141143999999988,1519
47.48866399999993,11.141143999999988,1628
46.84066399999993,11.789143999999988,2102
46.516663999999935,11.141143999999988,2071
45.54466399999994,11.141143999999988,1965
46.19266399999994,11.141143999999988,2037
45.86866399999994,11.141143999999988,2021
44.572663999999946,11.141143999999988,1812
43.92466399999995,12.437143999999988,4445
45.54466399999994,12.437143999999988,2052
45.54466399999994,11.789143999999988,2015
48.78466399999992,15.029143999999986,2052
47.81266399999993,15.029143999999986,1937
47.81266399999993,11.141143999999988,1609
50.40466399999991,18.917143999999983,1849
52.3486639999999,20.86114399999998,2027
54.616663999999886,18.269143999999983,1947
54.29266399999989,18.917143999999983,1957
49.10866399999992,14.381143999999988,65535
50.08066399999991,14.381143999999988,1662
48.78466399999992,13.733143999999989,2216
52.6726639999999,13.085143999999987,1484
52.3486639999999,13.085143999999987,1489
53.96866399999989,12.437143999999988,1404
54.29266399999989,12.437143999999988,1432
47.48866399999993,8.54914399999999,1583
47.81266399999993,17.621143999999987,1949
47.48866399999993,18.917143999999983,2060
47.48866399999993,20.86114399999998,2281
46.84066399999993,23.45314399999998,3838
44.572663999999946,26.04514399999998,4344
47.48866399999993,21.50914399999997,2315
47.81266399999993,21.50914399999997,2348
48.46066399999992,22.15714399999998,2077
47.48866399999993,16.973143999999984,65535
49.10866399999992,16.325143999999987,1807
49.75666399999992,18.269143999999983,1900
46.19266399999994,13.085143999999987,2783
41.98066399999996,12.437143999999988,3045
43.60066399999995,10.493143999999988,3206
45.54466399999994,9.197143999999987,1688
47.81266399999993,22.805143999999984,4579
49.75666399999992,22.805143999999984,2114
50.72866399999991,3.365143999999992,1482
51.05266399999991,4.013143999999992,1475
50.72866399999991,4.661143999999991,1467
51.05266399999991,4.661143999999991,1468
51.05266399999991,3.365143999999992,1482
51.05266399999991,2.717143999999992,1502
50.40466399999991,4.661143999999991,1471
50.72866399999991,2.717143999999992,1498
50.40466399999991,4.013143999999992,1486
51.05266399999991,5.309143999999991,1470
50.72866399999991,5.309143999999991,1460
51.37666399999991,3.365143999999992,1501
51.37666399999991,4.661143999999991,1473
50.72866399999991,5.957143999999991,1449
50.40466399999991,5.957143999999991,1452
50.40466399999991,3.365143999999992,1490
50.40466399999991,5.309143999999991,1465
50.08066399999991,5.309143999999991,1509
49.75666399999992,5.309143999999991,1513
49.75666399999992,5.957143999999991,1484
51.37666399999991,5.309143999999991,1527
51.700663999999904,4.661143999999991,1518
50.08066399999991,4.013143999999992,1508
50.08066399999991,5.957143999999991,1461
50.08066399999991,4.661143999999991,1495
49.43266399999992,5.309143999999991,1538
49.43266399999992,5.957143999999991,1551
52.0246639999999,4.661143999999991,1550
52.3486639999999,4.661143999999991,1579
50.72866399999991,15.029143999999986,1630
51.05266399999991,15.029143999999986,1571
51.05266399999991,13.733143999999989,1538
50.40466399999991,13.085143999999987,1547
49.10866399999992,7.90114399999999,1508
48.78466399999992,7.90114399999999,1519
50.40466399999991,7.90114399999999,1464
50.08066399999991,7.90114399999999,1484
49.75666399999992,7.90114399999999,1493
49.43266399999992,7.90114399999999,1505
49.75666399999992,8.54914399999999,1491
49.43266399999992,8.54914399999999,1500
49.43266399999992,9.197143999999987,1518
49.10866399999992,9.197143999999987,1513
47.48866399999993,7.90114399999999,1589
47.81266399999993,7.90114399999999,1584
48.136663999999925,7.90114399999999,1561
48.136663999999925,9.845143999999989,1564
47.81266399999993,9.197143999999987,1585
47.81266399999993,8.54914399999999,1574
47.81266399999993,9.845143999999989,1584
54.940663999999884,9.197143999999987,1172
54.616663999999886,9.197143999999987,1233
54.29266399999989,9.197143999999987,1245
53.96866399999989,9.197143999999987,1257
53.64466399999989,9.197143999999987,1269
54.616663999999886,9.845143999999989,1261
54.29266399999989,9.845143999999989,1270
53.96866399999989,9.845143999999989,1290
53.64466399999989,10.493143999999988,1293
53.96866399999989,10.493143999999988,1296
53.96866399999989,11.141143999999988,1343
54.29266399999989,10.493143999999988,1278
53.32066399999989,10.493143999999988,1329
54.940663999999884,11.141143999999988,1370
52.6726639999999,13.733143999999989,1487
52.3486639999999,13.733143999999989,1489
52.3486639999999,14.381143999999988,1507
52.0246639999999,14.381143999999988,1520
52.0246639999999,11.789143999999988,1455
52.3486639999999,11.789143999999988,1449
52.3486639999999,12.437143999999988,1478
52.0246639999999,15.029143999999986,1552
51.700663999999904,14.381143999999988,1537
52.0246639999999,13.733143999999989,1514
51.700663999999904,13.733143999999989,1540
52.6726639999999,12.437143999999988,1484
53.32066399999989,11.789143999999988,1400
53.96866399999989,11.789143999999988,1396
53.64466399999989,11.789143999999988,1376
53.64466399999989,11.141143999999988,1367
53.32066399999989,11.141143999999988,1388
52.996663999999896,11.789143999999988,1440
52.996663999999896,12.437143999999988,1467
52.996663999999896,13.733143999999989,1500
53.64466399999989,13.733143999999989,1546
53.96866399999989,13.733143999999989,1587
54.29266399999989,13.085143999999987,1502
53.96866399999989,13.085143999999987,1499
53.32066399999989,13.733143999999989,1547
52.0246639999999,13.085143999999987,1511
51.700663999999904,13.085143999999987,1546
52.996663999999896,14.381143999999988,1602
52.0246639999999,12.437143999999988,1493
51.700663999999904,12.437143999999988,1488
51.37666399999991,11.789143999999988,1474
51.37666399999991,12.437143999999988,1490
52.6726639999999,11.789143999999988,1430
53.64466399999989,13.085143999999987,1483
53.32066399999989,13.085143999999987,1542
52.996663999999896,13.085143999999987,1518
53.64466399999989,12.437143999999988,1422
51.37666399999991,13.733143999999989,1525
53.32066399999989,12.437143999999988,1496
52.6726639999999,14.381143999999988,1500
51.37666399999991,13.085143999999987,1523
53.32066399999989,14.381143999999988,1589
52.3486639999999,15.029143999999986,1561
52.0246639999999,15.677143999999986,1568
51.700663999999904,15.029143999999986,1565
51.05266399999991,16.325143999999987,1717
51.05266399999991,16.973143999999984,1741
51.700663999999904,15.677143999999986,1660
51.37666399999991,15.677143999999986,1672
51.37666399999991,16.325143999999987,1708
50.72866399999991,13.085143999999987,1525
50.72866399999991,12.437143999999988,1510
51.05266399999991,13.085143999999987,1512
51.05266399999991,14.381143999999988,1541
50.40466399999991,12.437143999999988,1530
50.40466399999991,11.789143999999988,1535
50.08066399999991,12.437143999999988,1582
50.72866399999991,11.789143999999988,1538
51.05266399999991,12.437143999999988,1499
50.72866399999991,14.381143999999988,1674
51.37666399999991,14.381143999999988,1574
50.72866399999991,13.733143999999989,1557
50.40466399999991,14.381143999999988,1659
51.37666399999991,15.029143999999986,1605
55.26466399999988,9.197143999999987,2268
55.58866399999988,8.54914399999999,3562
55.91266399999988,8.54914399999999,7039
56.23666399999988,9.197143999999987,7047
56.23666399999988,10.493143999999988,7000
56.23666399999988,9.845143999999989,6987
55.91266399999988,9.845143999999989,6925
56.56066399999988,9.197143999999987,7057
56.56066399999988,8.54914399999999,7100
51.05266399999991,6.60514399999999,1434
51.700663999999904,7.90114399999999,1425
50.72866399999991,6.60514399999999,1447
51.700663999999904,7.25314399999999,1436
50.72866399999991,7.25314399999999,1453
52.0246639999999,7.25314399999999,1422
52.3486639999999,7.90114399999999,1378
51.05266399999991,5.957143999999991,1444
50.40466399999991,7.25314399999999,1459
51.700663999999904,6.60514399999999,1447
51.700663999999904,5.957143999999991,1448
52.3486639999999,9.197143999999987,1381
51.700663999999904,8.54914399999999,1423
52.0246639999999,8.54914399999999,1400
52.3486639999999,8.54914399999999,1393
51.37666399999991,7.90114399999999,1434
52.3486639999999,7.25314399999999,1401
51.37666399999991,5.957143999999991,1481
50.72866399999991,7.90114399999999,1471
51.37666399999991,9.197143999999987,1423
51.700663999999904,9.197143999999987,1413
50.40466399999991,6.60514399999999,1486
51.05266399999991,7.90114399999999,1454
51.37666399999991,8.54914399999999,1435
52.0246639999999,5.957143999999991,1491
52.3486639999999,6.60514399999999,1436
51.05266399999991,8.54914399999999,1463
52.0246639999999,9.197143999999987,1397
52.6726639999999,9.197143999999987,1373
52.0246639999999,9.845143999999989,1388
51.700663999999904,9.845143999999989,1402
51.37666399999991,9.845143999999989,1429
50.72866399999991,8.54914399999999,1467
51.05266399999991,9.845143999999989,1551
50.72866399999991,9.845143999999989,1516
50.40466399999991,9.845143999999989,1530
51.05266399999991,9.197143999999987,1453
50.40466399999991,9.197143999999987,1498
50.08066399999991,9.197143999999987,1488
51.05266399999991,10.493143999999988,2247
50.40466399999991,8.54914399999999,1473
50.72866399999991,9.197143999999987,1460
49.75666399999992,9.197143999999987,1505
52.996663999999896,9.197143999999987,1313
52.3486639999999,9.845143999999989,1377
52.996663999999896,8.54914399999999,1321
52.996663999999896,7.90114399999999,1349
53.32066399999989,7.90114399999999,1367
53.32066399999989,7.25314399999999,1453
53.64466399999989,7.25314399999999,1498
52.996663999999896,10.493143999999988,1343
52.6726639999999,10.493143999999988,1356
52.6726639999999,9.845143999999989,1366
53.32066399999989,9.845143999999989,1292
53.32066399999989,9.197143999999987,1306
53.64466399999989,8.54914399999999,1302
53.32066399999989,8.54914399999999,1309
52.6726639999999,8.54914399999999,1331
52.0246639999999,10.493143999999988,1413
52.0246639999999,11.141143999999988,1481
51.700663999999904,11.141143999999988,1480
52.6726639999999,7.25314399999999,2203
52.996663999999896,7.25314399999999,2178
52.6726639999999,7.90114399999999,1361
53.64466399999989,7.90114399999999,1391
52.996663999999896,11.141143999999988,1361
52.6726639999999,11.141143999999988,1425
52.3486639999999,10.493143999999988,1418
52.996663999999896,9.845143999999989,1354
51.700663999999904,10.493143999999988,1518
51.37666399999991,10.493143999999988,2706
51.700663999999904,11.789143999999988,1461
52.3486639999999,11.141143999999988,1469
51.37666399999991,11.141143999999988,1539
51.05266399999991,11.789143999999988,1491
49.10866399999992,11.141143999999988,1566
48.78466399999992,11.141143999999988,1571
48.46066399999992,11.789143999999988,1587
49.43266399999992,11.789143999999988,1600
50.08066399999991,11.789143999999988,1565
49.75666399999992,12.437143999999988,1577
49.10866399999992,11.789143999999988,1628
48.78466399999992,12.437143999999988,1644
48.46066399999992,12.437143999999988,1632
49.10866399999992,12.437143999999988,1632
48.78466399999992,13.085143999999987,1671
48.136663999999925,12.437143999999988,1606
47.81266399999993,11.789143999999988,1597
48.136663999999925,10.493143999999988,1606
47.81266399999993,10.493143999999988,1639
48.78466399999992,10.493143999999988,1544
47.48866399999993,10.493143999999988,1623
48.46066399999992,10.493143999999988,1569
49.43266399999992,13.085143999999987,1778
48.46066399999992,13.085143999999987,1691
49.43266399999992,10.493143999999988,1572
49.75666399999992,9.845143999999989,1538
49.75666399999992,10.493143999999988,1566
50.40466399999991,11.141143999999988,1571
50.08066399999991,11.141143999999988,1605
50.72866399999991,11.141143999999988,2312
49.75666399999992,11.141143999999988,1576
48.78466399999992,11.789143999999988,1693
50.40466399999991,10.493143999999988,1543
50.08066399999991,9.845143999999989,1535
50.08066399999991,10.493143999999988,1597
49.43266399999992,12.437143999999988,1624
49.75666399999992,11.789143999999988,1583
49.10866399999992,13.085143999999987,1713
50.72866399999991,10.493143999999988,2261
49.10866399999992,10.493143999999988,1587
48.78466399999992,9.845143999999989,1525
48.46066399999992,8.54914399999999,1528
48.46066399999992,9.197143999999987,1534
48.78466399999992,9.197143999999987,1521
48.78466399999992,8.54914399999999,1520
50.08066399999991,7.25314399999999,1490
49.75666399999992,6.60514399999999,1517
49.43266399999992,6.60514399999999,1523
49.10866399999992,6.60514399999999,1531
49.43266399999992,7.25314399999999,1506
49.75666399999992,7.25314399999999,1503
49.10866399999992,5.957143999999991,1582
48.78466399999992,7.25314399999999,1537
50.08066399999991,6.60514399999999,1514
47.48866399999993,9.197143999999987,1588
48.136663999999925,8.54914399999999,1542
48.136663999999925,9.197143999999987,1545
47.81266399999993,7.25314399999999,1574
49.43266399999992,9.845143999999989,1544
49.10866399999992,9.845143999999989,1520
53.64466399999989,14.381143999999988,1583
50.08066399999991,13.085143999999987,1738
49.75666399999992,13.085143999999987,1775
45.86866399999994,9.197143999999987,1678
46.19266399999994,9.197143999999987,1664
46.516663999999935,8.54914399999999,1617
46.516663999999935,9.197143999999987,1659
46.19266399999994,8.54914399999999,1661
47.16466399999993,8.54914399999999,1584
45.86866399999994,4.661143999999991,1680
46.84066399999993,9.845143999999989,1602
45.22066399999994,5.957143999999991,1732
45.22066399999994,5.309143999999991,1736
45.86866399999994,5.957143999999991,1680
45.54466399999994,5.957143999999991,1703
44.89666399999994,4.661143999999991,1704
44.89666399999994,5.309143999999991,1767
44.572663999999946,4.661143999999991,1795
44.24866399999995,4.661143999999991,1762
43.92466399999995,4.661143999999991,1743
46.19266399999994,7.25314399999999,1626
48.78466399999992,5.957143999999991,1615
48.136663999999925,6.60514399999999,1633
48.46066399999992,6.60514399999999,1614
48.78466399999992,6.60514399999999,1611
47.16466399999993,7.90114399999999,1591
48.136663999999925,7.25314399999999,1558
48.46066399999992,7.25314399999999,1544
46.516663999999935,6.60514399999999,1616
46.84066399999993,6.60514399999999,1608
46.84066399999993,7.25314399999999,1604
46.516663999999935,5.957143999999991,1635
46.19266399999994,5.957143999999991,1650
46.84066399999993,8.54914399999999,1596
46.84066399999993,7.90114399999999,1600
45.86866399999994,5.309143999999991,1711
46.19266399999994,6.60514399999999,1624
45.86866399999994,6.60514399999999,1633
47.48866399999993,6.60514399999999,1616
47.48866399999993,7.25314399999999,1589
47.16466399999993,7.25314399999999,1598
49.10866399999992,4.013143999999992,1634
49.75666399999992,4.661143999999991,1557
49.43266399999992,4.661143999999991,1620
49.10866399999992,5.309143999999991,1678
46.19266399999994,4.661143999999991,1702
46.84066399999993,9.197143999999987,1610
46.19266399999994,5.309143999999991,1689
46.516663999999935,5.309143999999991,1679
45.54466399999994,6.60514399999999,1776
45.54466399999994,5.309143999999991,1699
43.60066399999995,4.013143999999992,1782
43.60066399999995,3.365143999999992,1818
42.62866399999996,2.717143999999992,1885
43.276663999999954,2.717143999999992,1849
45.54466399999994,4.661143999999991,1686
45.22066399999994,4.661143999999991,1720
47.16466399999993,5.309143999999991,1677
47.16466399999993,5.957143999999991,1656
46.19266399999994,7.90114399999999,1620
49.75666399999992,2.717143999999992,1629
49.10866399999992,2.717143999999992,1553
48.78466399999992,2.717143999999992,1568
45.86866399999994,3.365143999999992,1794
46.84066399999993,3.365143999999992,1792
46.516663999999935,3.365143999999992,1781
46.19266399999994,3.365143999999992,1769
47.16466399999993,6.60514399999999,1628
49.10866399999992,3.365143999999992,1583
45.54466399999994,4.013143999999992,1716
46.516663999999935,7.25314399999999,1631
47.16466399999993,4.661143999999991,1710
46.84066399999993,4.661143999999991,1737
46.516663999999935,4.661143999999991,1761
46.84066399999993,5.957143999999991,1653
47.81266399999993,3.365143999999992,1670
47.48866399999993,4.013143999999992,1745
48.136663999999925,4.013143999999992,1751
47.81266399999993,4.013143999999992,1755
47.48866399999993,4.661143999999991,1725
47.16466399999993,3.365143999999992,1806
46.84066399999993,4.013143999999992,1760
48.46066399999992,5.957143999999991,1625
46.19266399999994,2.717143999999992,1974
47.16466399999993,2.0691439999999925,1750
46.516663999999935,2.717143999999992,1946
46.84066399999993,2.717143999999992,1927
46.84066399999993,2.0691439999999925,1834
47.16466399999993,2.717143999999992,1787
44.572663999999946,5.309143999999991,1880
44.572663999999946,5.957143999999991,1848
44.89666399999994,6.60514399999999,1767
44.572663999999946,6.60514399999999,1864
43.60066399999995,5.309143999999991,1782
43.92466399999995,7.25314399999999,1864
43.60066399999995,6.60514399999999,1852
43.276663999999954,6.60514399999999,1860
43.276663999999954,5.957143999999991,1786
45.86866399999994,8.54914399999999,1685
45.54466399999994,8.54914399999999,1692
48.136663999999925,3.365143999999992,1653
48.46066399999992,3.365143999999992,1672
48.46066399999992,2.717143999999992,1631
47.48866399999993,5.309143999999991,1716
46.516663999999935,9.845143999999989,1613
46.84066399999993,10.493143999999988,2771
47.81266399999993,5.309143999999991,1817
45.22066399999994,6.60514399999999,1761
46.19266399999994,4.013143999999992,1724
45.86866399999994,4.013143999999992,1733
45.22066399999994,4.013143999999992,1757
44.89666399999994,4.013143999999992,1824
46.84066399999993,5.309143999999991,1701
48.136663999999925,-1.8188560000000056,1687
48.136663999999925,0.1251439999999934,1650
48.136663999999925,-0.5228560000000062,1731
47.48866399999993,-0.5228560000000062,1686
47.16466399999993,-1.8188560000000056,1727
47.48866399999993,0.7731439999999932,1660
47.16466399999993,0.1251439999999934,1738
45.86866399999994,7.25314399999999,1639
48.136663999999925,5.309143999999991,1805
49.10866399999992,4.661143999999991,1699
48.46066399999992,4.013143999999992,1730
48.136663999999925,4.661143999999991,1768
47.81266399999993,6.60514399999999,1633
47.48866399999993,5.957143999999991,1761
48.136663999999925,5.957143999999991,1886
45.86866399999994,7.90114399999999,1634
46.516663999999935,7.90114399999999,1609
49.43266399999992,3.365143999999992,1600
49.43266399999992,4.013143999999992,1640
48.136663999999925,2.717143999999992,1870
47.81266399999993,2.717143999999992,1881
47.48866399999993,2.717143999999992,1859
50.40466399999991,2.717143999999992,1503
48.46066399999992,-4.410856000000004,1844
48.46066399999992,-3.7628560000000046,1790
48.46066399999992,-3.114856000000005,1775
48.46066399999992,-2.4668560000000053,1745
47.48866399999993,1.4211439999999929,1715
47.16466399999993,1.4211439999999929,1727
46.516663999999935,4.013143999999992,1765
43.60066399999995,4.661143999999991,1769
44.89666399999994,2.717143999999992,1920
45.22066399999994,2.717143999999992,1968
45.54466399999994,3.365143999999992,1847
45.22066399999994,3.365143999999992,1901
47.48866399999993,3.365143999999992,1966
46.19266399999994,9.845143999999989,1681
47.81266399999993,2.0691439999999925,1725
47.48866399999993,2.0691439999999925,1762
45.86866399999994,2.717143999999992,1875
44.89666399999994,5.957143999999991,1774
45.22066399999994,1.4211439999999929,1829
44.89666399999994,1.4211439999999929,1849
44.89666399999994,2.0691439999999925,1895
43.276663999999954,2.0691439999999925,1893
43.60066399999995,1.4211439999999929,1891
48.78466399999992,4.661143999999991,1745
48.78466399999992,5.309143999999991,1632
46.19266399999994,2.0691439999999925,2001
45.86866399999994,1.4211439999999929,1840
46.19266399999994,1.4211439999999929,1888
44.572663999999946,4.013143999999992,1903
44.89666399999994,3.365143999999992,1991
43.92466399999995,4.013143999999992,1770
44.24866399999995,4.013143999999992,1797
44.89666399999994,-0.5228560000000062,1754
45.54466399999994,0.1251439999999934,1796
46.516663999999935,0.1251439999999934,1770
44.572663999999946,2.0691439999999925,1898
49.75666399999992,4.013143999999992,1538
43.92466399999995,3.365143999999992,2121
43.92466399999995,2.717143999999992,2152
44.24866399999995,3.365143999999992,2176
44.572663999999946,3.365143999999992,2217
49.10866399999992,0.1251439999999934,1702
49.43266399999992,0.7731439999999932,1677
49.43266399999992,-1.8188560000000056,1759
49.10866399999992,-1.170856000000006,1733
49.10866399999992,-0.5228560000000062,1709
49.10866399999992,0.7731439999999932,1729
49.10866399999992,1.4211439999999929,1665
47.81266399999993,-1.8188560000000056,1741
47.81266399999993,-2.4668560000000053,1767
47.81266399999993,-3.114856000000005,1780
48.136663999999925,-3.7628560000000046,1837
44.572663999999946,9.197143999999987,1796
44.89666399999994,8.54914399999999,1742
45.22066399999994,9.197143999999987,1699
45.54466399999994,10.493143999999988,1747
44.572663999999946,10.493143999999988,1798
44.89666399999994,10.493143999999988,1784
44.89666399999994,9.845143999999989,1752
48.46066399999992,5.309143999999991,1825
50.91599999999999,-1.0580000000000025,65535
51.23999999999999,-0.4100000000000028,65535
50.91599999999999,-0.4100000000000028,65535
51.23999999999999,-2.354000000000002,65535
51.56399999999999,-2.354000000000002,65535
51.56399999999999,-3.0020000000000016,65535
50.91599999999999,-2.354000000000002,65535
53.50799999999997,-3.0020000000000016,65535
53.183999999999976,-2.354000000000002,65535
53.183999999999976,-3.0020000000000016,65535
52.85999999999998,-2.354000000000002,65535
52.21199999999998,-1.0580000000000025,65535
51.887999999999984,-1.0580000000000025,65535
52.53599999999998,-1.0580000000000025,65535
52.53599999999998,-1.7060000000000022,65535
52.85999999999998,-1.7060000000000022,65535
53.50799999999997,-2.354000000000002,65535
52.85999999999998,-1.0580000000000025,65535
52.53599999999998,1.5339999999999965,65535
52.53599999999998,0.8859999999999966,65535
52.53599999999998,0.2379999999999968,65535
52.53599999999998,-0.4100000000000028,65535
53.50799999999997,-1.7060000000000022,65535
53.183999999999976,-1.7060000000000022,65535
53.183999999999976,-1.0580000000000025,65535
52.85999999999998,-0.4100000000000028,65535
51.887999999999984,-2.354000000000002,65535
52.21199999999998,-2.354000000000002,65535
55.77599999999996,-2.354000000000002,65535
53.83199999999997,-1.0580000000000025,65535
53.83199999999997,-1.7060000000000022,65535
55.127999999999965,-1.7060000000000022,65535
54.80399999999997,-1.7060000000000022,65535
54.47999999999997,-1.7060000000000022,65535
54.15599999999997,-1.0580000000000025,65535
52.21199999999998,-1.7060000000000022,65535
53.50799999999997,-1.0580000000000025,65535
55.77599999999996,-3.0020000000000016,65535
55.45199999999996,-1.7060000000000022,65535
57.07199999999995,-2.354000000000002,65535
56.74799999999996,-3.0020000000000016,65535
56.42399999999996,-3.0020000000000016,65535
56.09999999999996,-3.650000000000001,65535
50.91599999999999,-3.0020000000000016,65535
50.91599999999999,-3.650000000000001,65535
50.59199999999999,-3.650000000000001,65535
50.59199999999999,-4.298000000000001,65535
51.23999999999999,-3.0020000000000016,65535
50.268,-4.946000000000001,65535
55.77599999999996,-3.650000000000001,65535
55.77599999999996,-4.298000000000001,65535
52.21199999999998,-0.4100000000000028,65535
52.53599999999998,-2.354000000000002,65535
51.56399999999999,-1.7060000000000022,65535
51.56399999999999,-3.650000000000001,65535
51.887999999999984,-4.298000000000001,65535
51.56399999999999,-4.298000000000001,65535
51.887999999999984,-1.7060000000000022,65535
52.21199999999998,-3.0020000000000016,65535
51.23999999999999,0.2379999999999968,65535
50.91599999999999,0.2379999999999968,65535
52.21199999999998,0.2379999999999968,65535
53.83199999999997,-3.0020000000000016,65535
54.15599999999997,-3.0020000000000016,65535
54.47999999999997,-3.0020000000000016,65535
55.127999999999965,-3.650000000000001,65535
54.80399999999997,-3.0020000000000016,65535
53.83199999999997,-2.354000000000002,65535
54.15599999999997,-0.4100000000000028,65535
54.47999999999997,-1.0580000000000025,65535
53.83199999999997,-0.4100000000000028,65535
53.183999999999976,-3.650000000000001,65535
53.183999999999976,-4.298000000000001,65535
52.85999999999998,-3.0020000000000016,65535
52.53599999999998,-3.0020000000000016,65535
51.887999999999984,-3.0020000000000016,65535
51.23999999999999,0.8859999999999966,65535
51.887999999999984,0.2379999999999968,65535
52.21199999999998,0.8859999999999966,65535
51.887999999999984,-4.946000000000001,65535
52.53599999999998,-3.650000000000001,65535
52.21199999999998,-4.298000000000001,65535
53.183999999999976,-0.4100000000000028,65535
51.23999999999999,-3.650000000000001,65535
51.887999999999984,-3.650000000000001,65535
52.21199999999998,-3.650000000000001,65535
51.56399999999999,0.8859999999999966,65535
51.887999999999984,0.8859999999999966,65535
52.85999999999998,0.8859999999999966,65535
53.50799999999997,-0.4100000000000028,65535
56.09999999999996,-4.298000000000001,65535
56.74799999999996,-4.946000000000001,65535
56.74799999999996,-4.298000000000001,65535
56.42399999999996,-4.946000000000001,65535
56.42399999999996,-4.298000000000001,65535
56.09999999999996,-4.946000000000001,65535
57.39599999999995,-4.298000000000001,65535
57.39599999999995,-3.0020000000000016,65535
57.39599999999995,-3.650000000000001,65535
56.42399999999996,-3.650000000000001,65535
57.07199999999995,-3.650000000000001,65535
57.07199999999995,-4.298000000000001,65535
56.74799999999996,-3.650000000000001,65535
59.15266399999986,27.34114399999998,65535
59.47666399999986,26.69314399999997,65535
59.47666399999986,26.04514399999998,65535
59.15266399999986,26.04514399999998,65535
59.15266399999986,24.74914399999998,65535
59.15266399999986,25.397143999999983,65535
59.47666399999986,25.397143999999983,65535
58.50466399999986,26.69314399999997,65535
58.82866399999986,26.69314399999997,65535
57.85666399999987,26.04514399999998,65535
58.180663999999865,26.04514399999998,65535
58.180663999999865,26.69314399999997,65535
58.82866399999986,26.04514399999998,65535
58.50466399999986,25.397143999999983,65535
58.82866399999986,25.397143999999983,65535
58.82866399999986,24.74914399999998,65535
58.180663999999865,27.34114399999998,65535
57.85666399999987,27.34114399999998,65535
63.68866399999983,27.34114399999998,8761
60.124663999999854,24.74914399999998,8762
60.44866399999985,24.74914399999998,8730
60.44866399999985,25.397143999999983,8743
60.77266399999985,25.397143999999983,9055
61.09666399999985,26.04514399999998,9039
60.77266399999985,26.04514399999998,9030
60.77266399999985,26.69314399999997,9003
61.09666399999985,25.397143999999983,9047
61.09666399999985,26.69314399999997,8979
61.420663999999846,26.69314399999997,8947
61.74466399999984,27.34114399999998,8921
62.06866399999984,27.34114399999998,8902
62.39266399999984,27.34114399999998,8873
62.71666399999984,27.34114399999998,8849
64.01266399999983,27.34114399999998,8735
63.36466399999984,27.34114399999998,8777
63.04066399999984,27.34114399999998,8801
63.04066399999984,27.989143999999985,8812
64.33666399999983,27.989143999999985,8686
64.33666399999983,27.34114399999998,8672
64.66066399999983,27.34114399999998,8663
64.66066399999983,26.69314399999997,8631
64.98466399999982,25.397143999999983,8163
64.66066399999983,26.04514399999998,8614
64.98466399999982,26.04514399999998,8603
66.28066399999982,25.397143999999983,8696
65.95666399999982,24.74914399999998,8073
65.63266399999982,24.74914399999998,8080
65.63266399999982,25.397143999999983,8123
65.30866399999982,25.397143999999983,8140
66.60466399999981,25.397143999999983,8732
64.01266399999983,24.74914399999998,8302
64.01266399999983,24.101143999999977,8335
64.01266399999983,23.45314399999998,8355
63.68866399999983,23.45314399999998,8364
63.68866399999983,22.805143999999984,8384
63.68866399999983,26.04514399999998,65535
63.68866399999983,25.397143999999983,65535
63.68866399999983,26.69314399999997,65535
60.44866399999985,26.69314399999997,65535
64.01266399999983,27.989143999999985,65535
62.71666399999984,22.805143999999984,8469
62.39266399999984,22.805143999999984,8499
62.06866399999984,22.805143999999984,8540
62.06866399999984,23.45314399999998,8552
61.74466399999984,23.45314399999998,8562
61.420663999999846,23.45314399999998,8582
61.09666399999985,23.45314399999998,8634
61.09666399999985,24.101143999999977,8640
61.09666399999985,24.74914399999998,8667
60.77266399999985,24.74914399999998,8699
63.04066399999984,21.50914399999997,65535
63.04066399999984,22.15714399999998,65535
63.04066399999984,22.805143999999984,8434
62.39266399999984,26.04514399999998,8979
62.06866399999984,25.397143999999983,8962
61.74466399999984,25.397143999999983,8951
61.74466399999984,24.74914399999998,8925
61.74466399999984,24.101143999999977,8916
61.420663999999846,24.101143999999977,8894
62.39266399999984,26.69314399999997,9007
64.66066399999983,25.397143999999983,8245
64.66066399999983,24.74914399999998,8270
64.33666399999983,24.74914399999998,8278
63.36466399999984,22.805143999999984,8407
67.25266399999981,24.101143999999977,8666
66.92866399999981,24.101143999999977,8630
66.60466399999981,23.45314399999998,8599
66.28066399999982,23.45314399999998,8581
66.28066399999982,24.101143999999977,8563
65.95666399999982,24.101143999999977,635
60.124663999999854,24.101143999999977,65535
60.124663999999854,23.45314399999998,65535
60.44866399999985,22.805143999999984,65535
60.77266399999985,27.34114399999998,9083
61.09666399999985,27.989143999999985,9124
61.09666399999985,28.63714399999997,9165
61.420663999999846,29.28514399999997,9267
61.74466399999984,29.933143999999977,9320
62.06866399999984,29.933143999999977,9399
62.39266399999984,29.933143999999977,9422
62.71666399999984,29.933143999999977,9463
61.420663999999846,22.805143999999984,8770
61.420663999999846,22.15714399999998,8851
61.09666399999985,22.15714399999998,8827
61.420663999999846,21.50914399999997,8868
62.39266399999984,27.989143999999985,65535
62.06866399999984,27.989143999999985,65535
61.420663999999846,27.34114399999998,65535
63.04066399999984,29.933143999999977,65535
63.68866399999983,29.28514399999997,65535
63.36466399999984,29.28514399999997,65535
63.36466399999984,29.933143999999977,65535
60.44866399999985,27.34114399999998,65535
61.74466399999984,29.28514399999997,65535
62.39266399999984,30.58114399999998,65535
62.71666399999984,31.229143999999977,65535
62.71666399999984,29.28514399999997,65535
63.04066399999984,28.63714399999997,65535
66.60466399999981,26.04514399999998,65535
66.60466399999981,26.69314399999997,65535
66.60466399999981,27.34114399999998,65535
62.71666399999984,26.04514399999998,65535
62.71666399999984,25.397143999999983,65535
63.04066399999984,25.397143999999983,65535
63.36466399999984,25.397143999999983,65535
62.71666399999984,23.45314399999998,9240
62.39266399999984,24.101143999999977,65535
62.71666399999984,22.15714399999998,65535
62.39266399999984,22.15714399999998,65535
62.39266399999984,21.50914399999997,65535
61.09666399999985,21.50914399999997,8857
60.77266399999985,22.805143999999984,65535
60.44866399999985,22.15714399999998,65535
60.77266399999985,23.45314399999998,65535
60.77266399999985,21.50914399999997,65535
60.77266399999985,22.15714399999998,65535
60.124663999999854,22.805143999999984,65535
60.44866399999985,24.101143999999977,65535
62.06866399999984,24.74914399999998,65535
50.72866399999991,16.325143999999987,1657
50.40466399999991,16.973143999999984,1759
50.72866399999991,16.973143999999984,1730
50.40466399999991,16.325143999999987,1808
50.08066399999991,16.973143999999984,1869
50.08066399999991,16.325143999999987,1713
51.700663999999904,16.973143999999984,1733
51.37666399999991,16.973143999999984,1739
51.05266399999991,15.677143999999986,1582
50.72866399999991,15.677143999999986,1647
51.05266399999991,17.621143999999987,1780
51.37666399999991,17.621143999999987,1861
51.700663999999904,17.621143999999987,1783
51.700663999999904,16.325143999999987,1719
52.0246639999999,22.15714399999998,2037
52.0246639999999,21.50914399999997,2032
52.3486639999999,21.50914399999997,2034
52.0246639999999,20.86114399999998,2007
51.700663999999904,20.86114399999998,2025
51.37666399999991,21.50914399999997,2043
51.37666399999991,20.86114399999998,2059
51.05266399999991,20.86114399999998,2068
52.6726639999999,23.45314399999998,2109
52.3486639999999,22.805143999999984,2047
52.3486639999999,20.213143999999986,1999
52.0246639999999,20.213143999999986,1968
52.3486639999999,19.565143999999982,1924
52.6726639999999,19.565143999999982,2007
51.700663999999904,21.50914399999997,2037
51.700663999999904,22.15714399999998,2071
52.6726639999999,21.50914399999997,2043
52.996663999999896,21.50914399999997,2070
52.6726639999999,20.86114399999998,2065
52.6726639999999,22.15714399999998,2101
52.6726639999999,20.213143999999986,2066
52.996663999999896,19.565143999999982,2059
52.996663999999896,20.86114399999998,2098
52.996663999999896,20.213143999999986,2102
53.32066399999989,20.213143999999986,2014
51.37666399999991,20.213143999999986,2054
52.3486639999999,16.973143999999984,1756
52.0246639999999,16.973143999999984,1760
52.0246639999999,16.325143999999987,1733
52.0246639999999,17.621143999999987,1810
52.6726639999999,16.973143999999984,1750
52.996663999999896,16.973143999999984,1716
52.3486639999999,16.325143999999987,1720
52.3486639999999,15.677143999999986,1593
51.700663999999904,18.269143999999983,1843
52.6726639999999,17.621143999999987,1780
52.3486639999999,17.621143999999987,1766
52.6726639999999,18.269143999999983,1854
52.3486639999999,18.269143999999983,1837
52.3486639999999,18.917143999999983,1884
52.996663999999896,17.621143999999987,1878
51.700663999999904,19.565143999999982,1924
51.700663999999904,18.917143999999983,1891
51.37666399999991,18.269143999999983,1846
58.82866399999986,9.197143999999987,1043
58.180663999999865,7.90114399999999,1153
58.50466399999986,8.54914399999999,1094
63.36466399999984,10.493143999999988,720
63.36466399999984,11.141143999999988,704
63.36466399999984,11.789143999999988,625
63.68866399999983,11.789143999999988,773
64.33666399999983,12.437143999999988,1054
64.66066399999983,12.437143999999988,1549
65.63266399999982,13.085143999999987,1206
65.95666399999982,13.085143999999987,1241
66.28066399999982,14.381143999999988,1311
65.95666399999982,13.733143999999989,1380
66.28066399999982,13.733143999999989,1289
65.30866399999982,13.085143999999987,1507
64.98466399999982,13.085143999999987,1141
64.01266399999983,11.789143999999988,804
63.68866399999983,11.141143999999988,741
59.800663999999855,10.493143999999988,764
59.800663999999855,11.141143999999988,747
60.124663999999854,11.141143999999988,762
60.44866399999985,11.141143999999988,775
60.124663999999854,11.789143999999988,788
60.77266399999985,7.25314399999999,1730
60.77266399999985,6.60514399999999,1789
59.15266399999986,9.197143999999987,1007
59.47666399999986,9.197143999999987,979
59.800663999999855,9.845143999999989,766
59.47666399999986,11.141143999999988,711
61.09666399999985,10.493143999999988,877
60.77266399999985,10.493143999999988,855
60.77266399999985,11.141143999999988,810
62.06866399999984,9.197143999999987,1087
61.74466399999984,9.845143999999989,1102
61.420663999999846,9.845143999999989,1086
59.15266399999986,9.845143999999989,830
59.47666399999986,9.845143999999989,806
58.82866399999986,5.957143999999991,1365
58.180663999999865,7.25314399999999,1215
58.50466399999986,7.25314399999999,1252
58.50466399999986,6.60514399999999,1258
58.50466399999986,5.957143999999991,1319
58.82866399999986,8.54914399999999,1079
60.44866399999985,7.25314399999999,1717
60.44866399999985,7.90114399999999,1673
60.124663999999854,10.493143999999988,794
60.44866399999985,9.197143999999987,1622
60.77266399999985,9.197143999999987,1634
60.77266399999985,8.54914399999999,1653
60.124663999999854,9.845143999999989,2015
60.44866399999985,10.493143999999988,817
63.04066399999984,10.493143999999988,739
62.06866399999984,9.845143999999989,1058
62.39266399999984,9.845143999999989,1050
62.71666399999984,9.845143999999989,996
59.47666399999986,14.381143999999988,598
59.47666399999986,13.733143999999989,624
59.47666399999986,13.085143999999987,658
59.800663999999855,12.437143999999988,722
59.15266399999986,11.141143999999988,663
59.15266399999986,14.381143999999988,574
58.82866399999986,11.789143999999988,639
58.50466399999986,12.437143999999988,614
58.180663999999865,12.437143999999988,601
57.85666399999987,11.789143999999988,575
62.71666399999984,7.90114399999999,1768
62.39266399999984,7.90114399999999,1725
62.06866399999984,8.54914399999999,1700
60.44866399999985,5.309143999999991,1860
60.44866399999985,5.957143999999991,1843
60.77266399999985,5.957143999999991,1817
62.39266399999984,11.141143999999988,1471
62.06866399999984,10.493143999999988,1508
61.74466399999984,11.141143999999988,1545
61.420663999999846,11.141143999999988,1513
61.09666399999985,11.141143999999988,1496
60.77266399999985,11.789143999999988,1473
63.04066399999984,11.141143999999988,1400
62.71666399999984,11.141143999999988,1422
62.39266399999984,10.493143999999988,1499
67.25266399999981,15.677143999999986,1430
67.25266399999981,15.029143999999986,1468
67.25266399999981,14.381143999999988,1496
66.92866399999981,15.029143999999986,1419
66.60466399999981,15.677143999999986,1397
64.01266399999983,11.141143999999988,788
66.60466399999981,15.029143999999986,1460
54.29266399999989,18.269143999999983,1950
54.616663999999886,17.621143999999987,1908
53.96866399999989,18.269143999999983,1938
43.92466399999995,1.4211439999999929,1862
44.24866399999995,0.7731439999999932,1823
44.572663999999946,0.1251439999999934,1808
46.84066399999993,1.4211439999999929,1858
44.572663999999946,1.4211439999999929,1879
44.24866399999995,1.4211439999999929,1903
45.54466399999994,1.4211439999999929,1824
46.516663999999935,1.4211439999999929,1991
42.30466399999996,2.717143999999992,1916
44.24866399999995,2.717143999999992,1988
44.572663999999946,2.717143999999992,1963
43.92466399999995,2.0691439999999925,1996
42.30466399999996,2.0691439999999925,1947
42.62866399999996,2.0691439999999925,1913
42.62866399999996,1.4211439999999929,1950
42.95266399999996,1.4211439999999929,1912
43.276663999999954,1.4211439999999929,1905
46.516663999999935,-1.170856000000006,1945
46.19266399999994,-1.170856000000006,1871
45.86866399999994,-0.5228560000000062,1840
45.54466399999994,-0.5228560000000062,1796
48.46066399999992,1.4211439999999929,1615
41.332663999999966,2.0691439999999925,1974
41.98066399999996,2.717143999999992,1933
48.46066399999992,-1.8188560000000056,1720
47.81266399999993,0.7731439999999932,1723
46.84066399999993,0.7731439999999932,1738
44.572663999999946,-1.170856000000006,1765
43.60066399999995,-1.170856000000006,1888
43.276663999999954,-1.8188560000000056,1935
43.276663999999954,0.1251439999999934,2025
42.95266399999996,0.1251439999999934,1997
43.276663999999954,-0.5228560000000062,1960
43.60066399999995,-0.5228560000000062,1949
47.81266399999993,-3.7628560000000046,1886
47.48866399999993,-2.4668560000000053,1754
47.81266399999993,-0.5228560000000062,1729
46.516663999999935,-1.8188560000000056,1961
48.136663999999925,-1.170856000000006,1692
47.48866399999993,-1.170856000000006,1735
45.22066399999994,8.54914399999999,1714
45.22066399999994,7.90114399999999,1722
46.19266399999994,-0.5228560000000062,1931
46.516663999999935,-0.5228560000000062,1914
48.78466399999992,-3.114856000000005,1791
50.72866399999991,2.0691439999999925,1559
50.40466399999991,2.0691439999999925,1554
40.36066399999997,-3.7628560000000046,3345
41.65666399999997,-1.170856000000006,3262
41.332663999999966,1.4211439999999929,3200
43.276663999999954,13.733143999999989,4390
42.95266399999996,13.733143999999989,4412
41.65666399999997,15.029143999999986,4496
40.68466399999997,17.621143999999987,4658
43.60066399999995,13.085143999999987,4383
41.65666399999997,12.437143999999988,3049
41.65666399999997,13.085143999999987,3068
41.98066399999996,13.085143999999987,3118
41.65666399999997,13.733143999999989,3120
41.332663999999966,13.733143999999989,3112
41.332663999999966,14.381143999999988,3269
41.00866399999997,14.381143999999988,3175
41.332663999999966,13.085143999999987,3094
41.00866399999997,15.029143999999986,3375
41.98066399999996,13.733143999999989,3317
42.30466399999996,14.381143999999988,3456
42.30466399999996,12.437143999999988,3057
42.62866399999996,12.437143999999988,3236
42.95266399999996,12.437143999999988,3521
42.30466399999996,11.789143999999988,3066
42.95266399999996,11.789143999999988,3276
42.62866399999996,11.789143999999988,3267
43.276663999999954,11.789143999999988,3330
42.95266399999996,13.085143999999987,4284
42.30466399999996,13.085143999999987,3343
43.276663999999954,13.085143999999987,4332
43.276663999999954,12.437143999999988,4339
42.62866399999996,11.141143999999988,3112
42.95266399999996,11.141143999999988,3155
42.95266399999996,10.493143999999988,3173
44.572663999999946,8.54914399999999,1790
44.89666399999994,7.90114399999999,1734
44.89666399999994,9.197143999999987,1752
44.24866399999995,7.90114399999999,1800
44.572663999999946,7.90114399999999,1760
43.92466399999995,7.90114399999999,1891
44.24866399999995,7.25314399999999,1789
44.89666399999994,7.25314399999999,1758
45.22066399999994,7.25314399999999,1738
45.54466399999994,7.90114399999999,1718
44.572663999999946,7.25314399999999,1942
52.996663999999896,22.805143999999984,2200
52.996663999999896,23.45314399999998,2221
51.37666399999991,22.15714399999998,2185
51.37666399999991,22.805143999999984,2239
50.08066399999991,20.213143999999986,1946
50.72866399999991,20.213143999999986,1987
50.40466399999991,20.213143999999986,1926
50.08066399999991,20.86114399999998,2013
50.08066399999991,21.50914399999997,2044
50.08066399999991,22.15714399999998,2081
50.08066399999991,22.805143999999984,2088
53.96866399999989,22.805143999999984,2836
53.64466399999989,23.45314399999998,2792
53.32066399999989,23.45314399999998,2747
50.40466399999991,19.565143999999982,1860
50.08066399999991,18.917143999999983,1890
50.08066399999991,18.269143999999983,1930
52.0246639999999,22.805143999999984,2132
52.0246639999999,23.45314399999998,2170
51.37666399999991,19.565143999999982,1954
51.05266399999991,19.565143999999982,1873
50.72866399999991,18.917143999999983,1851
50.72866399999991,19.565143999999982,1943
49.75666399999992,18.917143999999983,1878
50.40466399999991,18.269143999999983,1838
53.64466399999989,19.565143999999982,1961
53.96866399999989,18.917143999999983,1980
53.64466399999989,18.917143999999983,1959
53.64466399999989,20.213143999999986,2009
52.996663999999896,18.917143999999983,1907
52.996663999999896,18.269143999999983,1887
53.32066399999989,18.917143999999983,1911
50.72866399999991,17.621143999999987,1787
50.72866399999991,18.269143999999983,1824
52.6726639999999,16.325143999999987,1711
52.996663999999896,16.325143999999987,1673
52.996663999999896,15.677143999999986,1630
53.32066399999989,15.677143999999986,1625
53.32066399999989,15.029143999999986,1601
53.64466399999989,15.029143999999986,1608
53.96866399999989,15.029143999999986,1593
52.6726639999999,18.917143999999983,1926
53.32066399999989,16.325143999999987,1643
52.6726639999999,15.029143999999986,1582
51.05266399999991,22.805143999999984,2269
51.05266399999991,23.45314399999998,2296
50.72866399999991,22.15714399999998,2222
50.40466399999991,22.15714399999998,2246
51.05266399999991,22.15714399999998,2236
54.616663999999886,16.973143999999984,1892
54.29266399999989,16.325143999999987,1825
53.96866399999989,15.677143999999986,1740
50.72866399999991,21.50914399999997,2211
50.40466399999991,21.50914399999997,2092
50.40466399999991,17.621143999999987,1808
53.32066399999989,22.805143999999984,2717
53.64466399999989,22.15714399999998,2158
54.29266399999989,16.973143999999984,1861
50.72866399999991,20.86114399999998,2030
51.700663999999904,22.805143999999984,2268
51.05266399999991,21.50914399999997,2095
50.08066399999991,19.565143999999982,1923
52.0246639999999,18.917143999999983,8488
52.0246639999999,19.565143999999982,8481
53.64466399999989,18.269143999999983,1932
51.700663999999904,20.213143999999986,2094
53.32066399999989,19.565143999999982,1952
50.72866399999991,23.45314399999998,3115
50.72866399999991,22.805143999999984,3084
49.43266399999992,20.213143999999986,1966
49.75666399999992,21.50914399999997,2055
49.75666399999992,22.15714399999998,2742
49.43266399999992,22.15714399999998,2302
51.05266399999991,18.917143999999983,1856
51.05266399999991,18.269143999999983,1793
53.32066399999989,16.973143999999984,1819
53.64466399999989,16.973143999999984,1838
49.75666399999992,20.86114399999998,2066
50.40466399999991,22.805143999999984,8570
53.64466399999989,16.325143999999987,1797
53.96866399999989,20.86114399999998,2113
54.29266399999989,20.86114399999998,2159
53.96866399999989,21.50914399999997,2264
53.64466399999989,15.677143999999986,1752
53.96866399999989,20.213143999999986,2041
53.96866399999989,19.565143999999982,2004
54.29266399999989,19.565143999999982,2014
53.96866399999989,16.325143999999987,1788
53.64466399999989,17.621143999999987,1884
53.96866399999989,22.15714399999998,2178
53.64466399999989,21.50914399999997,2114
53.64466399999989,20.86114399999998,2066
52.6726639999999,15.677143999999986,1631
51.05266399999991,20.213143999999986,2315
54.940663999999884,24.101143999999977,3681
54.616663999999886,23.45314399999998,3625
54.29266399999989,23.45314399999998,3488
53.64466399999989,22.805143999999984,2740
53.96866399999989,16.973143999999984,1993
50.40466399999991,20.86114399999998,2746
53.32066399999989,18.269143999999983,1905
49.75666399999992,19.565143999999982,1939
50.40466399999991,23.45314399999998,2365
49.75666399999992,20.213143999999986,1970
49.43266399999992,19.565143999999982,1929
49.43266399999992,20.86114399999998,2075
53.96866399999989,17.621143999999987,2763
42.30466399999996,-1.8188560000000056,8799
41.98066399999996,-1.8188560000000056,8782
41.65666399999997,0.7731439999999932,8786
42.62866399999996,-1.8188560000000056,8914
42.95266399999996,-1.8188560000000056,8943
42.62866399999996,-3.114856000000005,9037
42.95266399999996,-2.4668560000000053,9015
42.62866399999996,-7.650856000000003,9379
42.30466399999996,-7.650856000000003,9439
42.30466399999996,-8.946856000000002,9575
42.30466399999996,-8.298856000000002,9549
41.98066399999996,-8.298856000000002,9538
42.30466399999996,-7.002856000000003,9321
42.62866399999996,-6.354856000000003,9263
42.30466399999996,-6.354856000000003,9218
42.62866399999996,-5.706856000000004,8718
41.98066399999996,-4.410856000000004,8672
42.30466399999996,-3.7628560000000046,9063
40.03666399999997,-0.5228560000000062,8766
39.38866399999998,-0.5228560000000062,8814
41.00866399999997,0.7731439999999932,8914
40.68466399999997,0.7731439999999932,8946
40.36066399999997,0.1251439999999934,9024
39.712663999999975,-0.5228560000000062,8923
38.41666399999998,-0.5228560000000062,8935
39.06466399999998,-0.5228560000000062,9057
38.74066399999998,-1.170856000000006,8943
41.332663999999966,0.7731439999999932,8974
41.65666399999997,2.717143999999992,8574
41.65666399999997,2.0691439999999925,8597
41.332663999999966,0.1251439999999934,8932
41.332663999999966,-0.5228560000000062,8876
41.65666399999997,-4.410856000000004,8646
40.03666399999997,-2.4668560000000053,8884
41.00866399999997,-4.410856000000004,8767
43.276663999999954,-5.706856000000004,8848
39.38866399999998,-1.170856000000006,8909
38.09266399999999,-1.170856000000006,9322
38.74066399999998,-0.5228560000000062,9085
37.76866399999999,-1.170856000000006,9387
39.06466399999998,-1.8188560000000056,8907
39.38866399999998,-3.114856000000005,8807
39.38866399999998,-2.4668560000000053,8863
39.06466399999998,-2.4668560000000053,8890
39.06466399999998,-3.114856000000005,8811
39.06466399999998,-3.7628560000000046,8785
38.74066399999998,-3.7628560000000046,8864
40.03666399999997,-3.7628560000000046,8763
40.03666399999997,-3.114856000000005,8963
40.03666399999997,-1.8188560000000056,9044
39.712663999999975,-1.8188560000000056,9009
39.712663999999975,-1.170856000000006,8945
40.36066399999997,-1.170856000000006,8964
40.68466399999997,-1.170856000000006,8942
41.00866399999997,-1.170856000000006,8930
41.332663999999966,-1.170856000000006,8770
43.276663999999954,-8.298856000000002,9539
42.95266399999996,-8.298856000000002,9507
41.65666399999997,-5.706856000000004,65535
41.98066399999996,-7.002856000000003,65535
41.98066399999996,-6.354856000000003,65535
41.332663999999966,-5.058856000000004,8885
43.276663999999954,-3.7628560000000046,9320
42.95266399999996,-4.410856000000004,9254
42.62866399999996,-4.410856000000004,9244
42.30466399999996,-4.410856000000004,9203
41.00866399999997,-5.706856000000004,8823
41.332663999999966,-1.8188560000000056,8716
40.68466399999997,-3.114856000000005,8670
41.00866399999997,-3.114856000000005,8721
41.00866399999997,-2.4668560000000053,8744
41.332663999999966,-2.4668560000000053,8797
40.68466399999997,-4.410856000000004,8707
40.36066399999997,-4.410856000000004,8791
40.68466399999997,-3.7628560000000046,8699
40.36066399999997,-3.114856000000005,8677
41.65666399999997,-2.4668560000000053,8814
38.09266399999999,-3.7628560000000046,8911
38.74066399999998,-3.114856000000005,8855
37.76866399999999,-3.7628560000000046,8968
39.712663999999975,-3.114856000000005,8799
38.41666399999998,-3.7628560000000046,8876
40.03666399999997,-4.410856000000004,65535
40.03666399999997,-5.058856000000004,65535
39.38866399999998,-6.354856000000003,65535
39.38866399999998,-7.002856000000003,65535
42.95266399999996,-3.114856000000005,9448
41.98066399999996,-1.170856000000006,8811
42.30466399999996,-2.4668560000000053,8852
41.65666399999997,-0.5228560000000062,8909
41.98066399999996,-0.5228560000000062,8746
41.65666399999997,0.1251439999999934,8773
41.98066399999996,0.1251439999999934,8795
37.76866399999999,-5.058856000000004,8847
36.79666399999999,-4.410856000000004,8906
38.74066399999998,-4.410856000000004,8803
37.12066399999999,-4.410856000000004,8880
37.44466399999999,-5.058856000000004,9404
37.44466399999999,-7.002856000000003,65535
37.44466399999999,-6.354856000000003,65535
37.44466399999999,-5.706856000000004,9080
39.712663999999975,-3.7628560000000046,8873
42.62866399999996,-8.946856000000002,65535
42.30466399999996,-5.706856000000004,9225
42.30466399999996,-5.058856000000004,9310
42.95266399999996,-5.706856000000004,8750
41.00866399999997,-5.058856000000004,8791
40.68466399999997,-5.058856000000004,8765
41.65666399999997,-5.058856000000004,65535
41.65666399999997,-6.354856000000003,65535
36.79666399999999,-6.354856000000003,65535
37.12066399999999,-5.706856000000004,9248
37.76866399999999,-5.706856000000004,9047
38.09266399999999,-4.410856000000004,9182
37.12066399999999,-5.058856000000004,9202
36.79666399999999,-5.058856000000004,9160
37.76866399999999,-4.410856000000004,65535
37.76866399999999,-7.002856000000003,65535
38.41666399999998,-6.354856000000003,65535
38.09266399999999,-6.354856000000003,65535
48.78466399999992,1.4211439999999929,1681
56.23666399999988,8.54914399999999,7090
55.58866399999988,9.197143999999987,6895
55.91266399999988,9.197143999999987,7036
55.26466399999988,10.493143999999988,1077
55.91266399999988,12.437143999999988,678
55.58866399999988,11.789143999999988,6735
55.58866399999988,11.141143999999988,6776
55.26466399999988,11.789143999999988,6768
55.58866399999988,10.493143999999988,6891
55.58866399999988,13.085143999999987,684
56.88466399999987,9.845143999999989,7042
57.20866399999987,9.845143999999989,7077
56.56066399999988,9.845143999999989,7014
56.88466399999987,8.54914399999999,7129
54.940663999999884,9.845143999999989,8236
54.940663999999884,11.789143999999988,6992
55.91266399999988,13.085143999999987,679
56.23666399999988,13.733143999999989,662
55.91266399999988,13.733143999999989,693
56.23666399999988,14.381143999999988,691
56.23666399999988,15.029143999999986,732
56.23666399999988,15.677143999999986,748
56.56066399999988,14.381143999999988,643
56.88466399999987,14.381143999999988,623
56.23666399999988,13.085143999999987,674
56.56066399999988,13.085143999999987,633
56.88466399999987,12.437143999999988,614
57.20866399999987,12.437143999999988,592
57.53266399999987,12.437143999999988,583
56.88466399999987,15.029143999999986,637
56.56066399999988,15.677143999999986,704
56.88466399999987,15.677143999999986,720
56.88466399999987,16.325143999999987,663
55.91266399999988,11.789143999999988,7061
57.20866399999987,10.493143999999988,7264
49.43266399999992,1.4211439999999929,1706
49.75666399999992,0.7731439999999932,1699
49.75666399999992,2.0691439999999925,1627
50.08066399999991,2.717143999999992,1603
49.75666399999992,1.4211439999999929,1680
47.81266399999993,1.4211439999999929,1755
48.136663999999925,2.0691439999999925,1989
48.46066399999992,2.0691439999999925,1831
48.136663999999925,1.4211439999999929,1733
48.78466399999992,0.1251439999999934,1732
48.46066399999992,0.1251439999999934,1730
47.81266399999993,0.1251439999999934,1693
46.84066399999993,-0.5228560000000062,1885
47.16466399999993,0.7731439999999932,1708
46.84066399999993,0.1251439999999934,1759
46.84066399999993,-1.170856000000006,1919
50.08066399999991,1.4211439999999929,1587
50.08066399999991,2.0691439999999925,1604
49.43266399999992,2.717143999999992,1632
49.75666399999992,3.365143999999992,1570
50.08066399999991,3.365143999999992,1522
49.10866399999992,2.0691439999999925,1621
49.43266399999992,2.0691439999999925,1604
48.78466399999992,0.7731439999999932,1681
48.78466399999992,-0.5228560000000062,1761
48.78466399999992,-1.170856000000006,1780
48.136663999999925,0.7731439999999932,1664
48.46066399999992,0.7731439999999932,1689
43.92466399999995,5.957143999999991,1833
44.24866399999995,5.957143999999991,1873
43.92466399999995,5.309143999999991,1781
42.95266399999996,2.717143999999992,1878
45.54466399999994,2.0691439999999925,1861
45.22066399999994,2.0691439999999925,1878
42.95266399999996,2.0691439999999925,1931
42.95266399999996,0.7731439999999932,1946
43.276663999999954,0.7731439999999932,1931
46.19266399999994,0.7731439999999932,1885
46.516663999999935,0.7731439999999932,1819
45.86866399999994,0.1251439999999934,1963
46.19266399999994,0.1251439999999934,1960
47.81266399999993,-1.170856000000006,1803
48.136663999999925,-2.4668560000000053,1746
47.48866399999993,-1.8188560000000056,1736
47.16466399999993,-1.170856000000006,1755
47.16466399999993,-0.5228560000000062,1763
46.84066399999993,-1.8188560000000056,1792
45.22066399999994,-0.5228560000000062,1766
44.89666399999994,0.1251439999999934,1759
45.22066399999994,0.7731439999999932,1783
45.54466399999994,0.7731439999999932,1793
45.86866399999994,0.7731439999999932,1958
45.22066399999994,0.1251439999999934,1772
44.89666399999994,0.7731439999999932,1796
43.92466399999995,-0.5228560000000062,1919
43.92466399999995,-1.170856000000006,1890
44.24866399999995,-1.170856000000006,1887
45.22066399999994,-1.170856000000006,1818
44.572663999999946,-0.5228560000000062,1783
44.24866399999995,0.1251439999999934,1830
44.572663999999946,0.7731439999999932,1877
43.276663999999954,-1.170856000000006,1912
42.95266399999996,-0.5228560000000062,2077
44.24866399999995,2.0691439999999925,2040
43.60066399999995,0.7731439999999932,1930
43.60066399999995,2.0691439999999925,1938
52.6726639999999,4.661143999999991,7081
52.6726639999999,5.309143999999991,7104
51.700663999999904,5.309143999999991,7049
52.0246639999999,5.309143999999991,7061
52.3486639999999,5.309143999999991,7077
51.37666399999991,4.013143999999992,7057
52.3486639999999,5.957143999999991,7071
52.0246639999999,6.60514399999999,7101
52.6726639999999,5.957143999999991,7088
52.996663999999896,5.957143999999991,7101
53.32066399999989,5.957143999999991,7095
52.996663999999896,6.60514399999999,7077
53.32066399999989,6.60514399999999,7069
52.6726639999999,6.60514399999999,7097
52.996663999999896,5.309143999999991,7116
59.15266399999986,24.101143999999977,65535
56.88466399999987,24.101143999999977,65535
56.88466399999987,23.45314399999998,65535
56.88466399999987,22.805143999999984,65535
57.20866399999987,24.74914399999998,65535
56.88466399999987,24.74914399999998,65535
56.56066399999988,24.74914399999998,65535
56.56066399999988,25.397143999999983,65535
56.56066399999988,24.101143999999977,65535
56.56066399999988,23.45314399999998,65535
56.56066399999988,26.04514399999998,65535
56.88466399999987,26.04514399999998,65535
57.20866399999987,25.397143999999983,65535
57.53266399999987,25.397143999999983,65535
56.23666399999988,26.04514399999998,65535
56.23666399999988,26.69314399999997,65535
55.91266399999988,26.69314399999997,65535
56.56066399999988,26.69314399999997,65535
56.56066399999988,27.34114399999998,65535
56.56066399999988,27.989143999999985,65535
56.23666399999988,27.989143999999985,65535
55.91266399999988,27.34114399999998,65535
56.56066399999988,22.805143999999984,65535
56.56066399999988,22.15714399999998,65535
56.56066399999988,21.50914399999997,65535
57.20866399999987,26.69314399999997,65535
39.06466399999998,-8.946856000000002,65535
38.41666399999998,-8.298856000000002,65535
45.86866399999994,11.789143999999988,2068
46.19266399999994,11.789143999999988,2055
46.19266399999994,10.493143999999988,2095
45.22066399999994,18.269143999999983,2071
45.22066399999994,18.917143999999983,2097
45.54466399999994,16.973143999999984,1936
45.22066399999994,17.621143999999987,1997
45.86866399999994,16.325143999999987,1855
45.54466399999994,18.917143999999983,2134
45.54466399999994,16.325143999999987,1875
45.54466399999994,18.269143999999983,2129
44.89666399999994,18.917143999999983,2170
46.19266399999994,16.973143999999984,1921
46.19266399999994,16.325143999999987,1908
45.86866399999994,16.973143999999984,1931
45.86866399999994,17.621143999999987,1964
46.19266399999994,15.677143999999986,1835
46.516663999999935,16.325143999999987,1893
45.54466399999994,15.677143999999986,1919
45.22066399999994,15.029143999999986,1915
45.54466399999994,15.029143999999986,1895
45.22066399999994,15.677143999999986,1982
44.572663999999946,15.677143999999986,2059
44.24866399999995,15.677143999999986,2080
43.92466399999995,16.325143999999987,2144
44.89666399999994,15.677143999999986,2023
45.54466399999994,17.621143999999987,2072
45.22066399999994,16.325143999999987,1983
46.516663999999935,16.973143999999984,1935
45.86866399999994,18.269143999999983,2155
43.92466399999995,15.677143999999986,2246
45.22066399999994,13.733143999999989,2021
47.48866399999993,19.565143999999982,2074
47.16466399999993,18.917143999999983,2073
47.81266399999993,18.917143999999983,2026
45.54466399999994,9.845143999999989,1699
45.22066399999994,9.845143999999989,1708
45.22066399999994,10.493143999999988,1758
45.86866399999994,9.845143999999989,1719
45.86866399999994,10.493143999999988,2838
48.78466399999992,21.50914399999997,2017
49.10866399999992,20.213143999999986,1958
49.10866399999992,18.917143999999983,1866
48.46066399999992,17.621143999999987,1907
49.43266399999992,17.621143999999987,1813
49.10866399999992,17.621143999999987,1861
48.136663999999925,18.269143999999983,1938
49.10866399999992,18.269143999999983,1887
49.43266399999992,18.269143999999983,1844
49.43266399999992,16.973143999999984,1791
49.75666399999992,16.973143999999984,1761
49.75666399999992,16.325143999999987,1739
50.08066399999991,15.677143999999986,1691
50.08066399999991,15.029143999999986,1661
49.43266399999992,18.917143999999983,1855
47.81266399999993,20.86114399999998,2155
48.136663999999925,20.86114399999998,2090
48.46066399999992,20.86114399999998,2077
48.46066399999992,21.50914399999997,2032
49.10866399999992,19.565143999999982,1879
48.136663999999925,17.621143999999987,1886
48.78466399999992,22.15714399999998,2150
48.78466399999992,20.86114399999998,2305
49.10866399999992,20.86114399999998,2001
48.78466399999992,18.269143999999983,1930
48.78466399999992,17.621143999999987,1889
49.10866399999992,21.50914399999997,2009
48.78466399999992,20.213143999999986,2349
48.46066399999992,20.213143999999986,2361
48.136663999999925,19.565143999999982,2085
48.46066399999992,19.565143999999982,1964
48.46066399999992,18.917143999999983,1946
48.46066399999992,18.269143999999983,1943
48.78466399999992,19.565143999999982,1920
48.78466399999992,18.917143999999983,1906
47.81266399999993,18.269143999999983,1987
49.10866399999992,22.15714399999998,2204
49.43266399999992,21.50914399999997,2134
48.136663999999925,18.917143999999983,2139
48.136663999999925,20.213143999999986,2105
52.636,-8.018,65535
52.312,-7.370000000000001,65535
52.312,-8.018,65535
52.636,-8.666,65535
51.988,-8.666,65535
51.988,-8.018,65535
52.96,-8.666,65535
52.96,-6.074000000000002,65535
53.28399999999999,-6.722000000000001,65535
53.60799999999999,-6.722000000000001,65535
53.60799999999999,-7.370000000000001,65535
53.60799999999999,-8.018,65535
54.25599999999999,-8.666,65535
53.93199999999999,-8.666,65535
53.93199999999999,-8.018,65535
52.312,-6.722000000000001,65535
52.636,-6.722000000000001,65535
53.93199999999999,-6.722000000000001,65535
54.25599999999999,-6.074000000000002,65535
53.28399999999999,-7.370000000000001,65535
52.96,-7.370000000000001,65535
52.312,-8.666,65535
52.96,-8.018,65535
52.636,-7.370000000000001,65535
52.96,-6.722000000000001,65535
51.988,-9.314,65535
52.312,-9.314,65535
54.579999999999984,-6.722000000000001,65535
54.579999999999984,-6.074000000000002,65535
53.28399999999999,-8.018,65535
53.28399999999999,-8.666,65535
53.28399999999999,-9.314,65535
53.93199999999999,-9.314,65535
54.25599999999999,-9.314,65535
53.60799999999999,-8.666,65535
53.60799999999999,-9.314,65535
49.43266399999992,14.381143999999988,1715
49.75666399999992,14.381143999999988,1673
49.75666399999992,15.029143999999986,1666
49.75666399999992,13.733143999999989,1703
50.08066399999991,13.733143999999989,1697
49.75666399999992,15.677143999999986,1677
50.40466399999991,15.029143999999986,1656
49.43266399999992,13.733143999999989,1806
50.40466399999991,15.677143999999986,1667
50.40466399999991,13.733143999999989,1723
46.19266399999994,15.029143999999986,1829
45.86866399999994,15.029143999999986,1856
45.86866399999994,14.381143999999988,1849
46.19266399999994,13.733143999999989,1862
45.86866399999994,13.733143999999989,1948
58.50466399999986,13.733143999999989,512
58.180663999999865,13.733143999999989,534
58.180663999999865,13.085143999999987,550
57.85666399999987,12.437143999999988,572
60.44866399999985,15.677143999999986,386
60.124663999999854,15.677143999999986,461
60.124663999999854,16.325143999999987,516
59.800663999999855,16.325143999999987,445
59.800663999999855,17.621143999999987,359
59.47666399999986,18.269143999999983,385
61.74466399999984,16.973143999999984,240
61.420663999999846,16.973143999999984,268
60.77266399999985,16.973143999999984,311
65.63266399999982,22.15714399999998,552
65.95666399999982,21.50914399999997,521
65.63266399999982,20.86114399999998,494
64.98466399999982,20.213143999999986,442
64.66066399999983,20.213143999999986,422
64.33666399999983,19.565143999999982,375
64.01266399999983,19.565143999999982,349
63.68866399999983,20.213143999999986,268
64.66066399999983,18.917143999999983,632
59.15266399999986,16.325143999999987,446
59.15266399999986,15.029143999999986,465
59.15266399999986,17.621143999999987,406
57.53266399999987,14.381143999999988,584
57.53266399999987,15.029143999999986,690
61.09666399999985,14.381143999999988,569
60.77266399999985,15.029143999999986,486
60.44866399999985,15.029143999999986,475
58.180663999999865,15.029143999999986,515
58.50466399999986,16.325143999999987,482
58.50466399999986,15.677143999999986,494
63.36466399999984,13.085143999999987,228
63.04066399999984,14.381143999999988,156
62.39266399999984,15.677143999999986,0
63.36466399999984,13.733143999999989,210
63.36466399999984,14.381143999999988,179
62.71666399999984,15.677143999999986,103
62.39266399999984,17.621143999999987,114
59.800663999999855,15.677143999999986,573
55.58866399999988,13.733143999999989,698
57.20866399999987,14.381143999999988,605
57.85666399999987,14.381143999999988,589
58.82866399999986,16.973143999999984,463
58.82866399999986,16.325143999999987,490
59.15266399999986,18.269143999999983,395
60.44866399999985,17.621143999999987,349
59.15266399999986,12.437143999999988,721
59.15266399999986,13.085143999999987,773
58.82866399999986,12.437143999999988,695
59.47666399999986,16.325143999999987,430
58.82866399999986,14.381143999999988,491
59.47666399999986,15.677143999999986,445
63.36466399999984,18.917143999999983,224
63.04066399999984,17.621143999999987,189
62.71666399999984,17.621143999999987,165
63.68866399999983,19.565143999999982,286
62.39266399999984,16.973143999999984,110
59.800663999999855,16.973143999999984,415
59.47666399999986,17.621143999999987,382
57.85666399999987,13.085143999999987,603
57.53266399999987,13.085143999999987,652
58.50466399999986,11.789143999999988,624
57.85666399999987,15.029143999999986,570
57.20866399999987,13.733143999999989,617
57.53266399999987,13.733143999999989,705
61.74466399999984,16.325143999999987,395
61.420663999999846,16.325143999999987,365
61.09666399999985,16.325143999999987,355
61.09666399999985,16.973143999999984,339
60.124663999999854,15.029143999999986,444
66.60466399999981,20.86114399999998,597
67.25266399999981,20.86114399999998,659
67.90066399999981,20.213143999999986,742
67.57666399999981,20.213143999999986,700
59.800663999999855,15.029143999999986,470
58.50466399999986,15.029143999999986,508
59.47666399999986,15.029143999999986,476
60.44866399999985,16.325143999999987,347
59.15266399999986,15.677143999999986,502
57.85666399999987,13.733143999999989,567
58.82866399999986,13.733143999999989,584
58.50466399999986,13.085143999999987,533
57.20866399999987,13.085143999999987,775
56.88466399999987,13.085143999999987,783
58.180663999999865,11.789143999999988,591
62.06866399999984,16.973143999999984,303
65.95666399999982,23.45314399999998,613
59.800663999999855,14.381143999999988,5891
59.800663999999855,18.269143999999983,394
63.04066399999984,15.029143999999986,120
62.71666399999984,15.029143999999986,111
62.39266399999984,16.325143999999987,55
63.36466399999984,12.437143999999988,608
68.5486639999998,17.621143999999987,1728
68.5486639999998,18.269143999999983,1661
68.5486639999998,18.917143999999983,1638
68.2246639999998,18.917143999999983,1594
59.800663999999855,13.085143999999987,679
60.124663999999854,13.085143999999987,719
59.47666399999986,16.973143999999984,461
59.15266399999986,16.973143999999984,453
56.56066399999988,13.733143999999989,738
60.124663999999854,17.621143999999987,378
57.85666399999987,16.325143999999987,680
58.180663999999865,16.325143999999987,647
58.180663999999865,15.677143999999986,541
57.20866399999987,16.325143999999987,630
57.53266399999987,15.677143999999986,588
57.85666399999987,15.677143999999986,559
44.89666399999994,23.45314399999998,4405
44.572663999999946,23.45314399999998,4475
44.89666399999994,24.74914399999998,4444
44.572663999999946,24.74914399999998,4520
44.572663999999946,24.101143999999977,4452
44.24866399999995,24.101143999999977,4481
47.48866399999993,25.397143999999983,4253
47.48866399999993,24.74914399999998,4193
47.16466399999993,24.74914399999998,4115
47.16466399999993,24.101143999999977,4017
47.48866399999993,22.15714399999998,4323
47.81266399999993,22.15714399999998,4367
47.16466399999993,22.15714399999998,4126
47.16466399999993,23.45314399999998,4178
47.16466399999993,22.805143999999984,4184
46.84066399999993,24.101143999999977,4098
45.86866399999994,27.34114399999998,4548
45.54466399999994,27.34114399999998,4510
45.54466399999994,27.989143999999985,4535
45.86866399999994,20.86114399999998,4310
45.86866399999994,21.50914399999997,4318
46.19266399999994,21.50914399999997,4254
46.19266399999994,27.34114399999998,4526
46.19266399999994,26.69314399999997,4626
46.516663999999935,26.69314399999997,4391
46.516663999999935,26.04514399999998,4287
47.48866399999993,22.805143999999984,4245
46.84066399999993,22.805143999999984,4058
45.54466399999994,22.15714399999998,4383
45.22066399999994,22.15714399999998,4445
44.89666399999994,22.15714399999998,4863
47.48866399999993,23.45314399999998,4211
46.516663999999935,24.101143999999977,3937
46.516663999999935,24.74914399999998,4151
45.86866399999994,24.101143999999977,4100
47.16466399999993,26.69314399999997,4469
47.16466399999993,27.34114399999998,4524
43.92466399999995,25.397143999999983,4483
44.24866399999995,24.74914399999998,4390
44.89666399999994,26.04514399999998,4303
44.89666399999994,26.69314399999997,4364
45.22066399999994,26.69314399999997,4381
45.22066399999994,27.34114399999998,4467
46.84066399999993,26.69314399999997,4430
47.48866399999993,26.69314399999997,4423
44.24866399999995,25.397143999999983,4378
43.92466399999995,26.04514399999998,4499
46.19266399999994,24.101143999999977,4145
44.572663999999946,25.397143999999983,4372
46.84066399999993,24.74914399999998,4158
46.516663999999935,21.50914399999997,4258
46.84066399999993,21.50914399999997,4265
44.572663999999946,26.69314399999997,4356
44.572663999999946,27.34114399999998,4366
44.89666399999994,27.34114399999998,4466
44.572663999999946,27.989143999999985,4403
44.24866399999995,27.989143999999985,4418
44.572663999999946,28.63714399999997,4438
45.86866399999994,22.15714399999998,4179
45.86866399999994,22.805143999999984,4073
44.24866399999995,23.45314399999998,4573
43.92466399999995,27.989143999999985,65535
46.84066399999993,27.34114399999998,4660
45.22066399999994,23.45314399999998,4380
45.54466399999994,23.45314399999998,4183
45.54466399999994,24.101143999999977,4130
45.22066399999994,24.101143999999977,4354
44.89666399999994,24.101143999999977,4424
46.19266399999994,22.15714399999998,4310
46.516663999999935,22.15714399999998,4276
45.22066399999994,21.50914399999997,4550
45.54466399999994,21.50914399999997,4587
45.54466399999994,20.86114399999998,4500
46.516663999999935,27.989143999999985,4632
46.19266399999994,27.989143999999985,4604
45.54466399999994,25.397143999999983,4260
45.22066399999994,25.397143999999983,4267
45.22066399999994,26.04514399999998,4310
47.81266399999993,24.101143999999977,4306
47.48866399999993,26.04514399999998,4396
47.81266399999993,26.04514399999998,4418
46.19266399999994,23.45314399999998,3977
45.86866399999994,23.45314399999998,4026
44.24866399999995,26.04514399999998,4358
45.22066399999994,27.989143999999985,4516
45.86866399999994,24.74914399999998,4139
46.516663999999935,25.397143999999983,4331
46.84066399999993,25.397143999999983,4214
46.19266399999994,26.04514399999998,4302
45.86866399999994,26.04514399999998,4267
43.92466399999995,23.45314399999998,4738
44.89666399999994,25.397143999999983,4397
46.19266399999994,20.86114399999998,4299
47.81266399999993,25.397143999999983,4430
44.572663999999946,22.805143999999984,4743
44.572663999999946,22.15714399999998,4885
46.516663999999935,23.45314399999998,4116
45.86866399999994,25.397143999999983,4193
44.24866399999995,27.34114399999998,5131
45.22066399999994,24.74914399999998,4456
45.54466399999994,22.805143999999984,4146
45.22066399999994,28.63714399999997,4576
44.89666399999994,28.63714399999997,4515
47.81266399999993,23.45314399999998,4379
46.19266399999994,24.74914399999998,4225
46.19266399999994,25.397143999999983,4249
43.92466399999995,24.101143999999977,4701
43.92466399999995,24.74914399999998,4714
47.81266399999993,26.69314399999997,4645
47.48866399999993,24.101143999999977,4238
46.84066399999993,26.04514399999998,5046
46.19266399999994,22.805143999999984,4370
47.48866399999993,27.34114399999998,4598
46.19266399999994,20.213143999999986,65535
45.54466399999994,26.04514399999998,4402
44.24866399999995,26.69314399999997,4412
45.86866399999994,27.989143999999985,4682
47.81266399999993,5.957143999999991,7066
