51.56399999999999,-0.4100000000000028,65535
51.887999999999984,-0.4100000000000028,65535
50.91599999999999,-1.7060000000000022,65535
51.23999999999999,-1.0580000000000025,65535
51.56399999999999,-1.0580000000000025,65535
51.23999999999999,-1.7060000000000022,65535
51.56399999999999,0.2379999999999968,65535
47.16466399999993,9.845143999999989,564
47.48866399999993,9.845143999999989,538
48.136663999999925,14.381143999999988,355
47.81266399999993,13.085143999999987,443
47.16466399999993,11.141143999999988,530
47.48866399999993,11.789143999999988,721
48.136663999999925,16.325143999999987,3
47.48866399999993,12.437143999999988,474
48.136663999999925,15.677143999999986,134
47.16466399999993,10.493143999999988,576
47.16466399999993,9.197143999999987,548
48.136663999999925,13.733143999999989,367
48.136663999999925,15.029143999999986,319
47.81266399999993,16.973143999999984,28
48.46066399999992,14.381143999999988,904
47.48866399999993,13.085143999999987,475
47.16466399999993,13.085143999999987,490
47.48866399999993,14.381143999999988,215
47.48866399999993,13.733143999999989,231
47.48866399999993,15.029143999999986,162
46.516663999999935,13.733143999999989,347
46.84066399999993,13.733143999999989,340
46.84066399999993,13.085143999999987,345
48.78466399999992,14.381143999999988,65535
47.16466399999993,15.677143999999986,180
46.516663999999935,14.381143999999988,354
46.84066399999993,14.381143999999988,295
47.16466399999993,14.381143999999988,245
46.516663999999935,15.029143999999986,367
47.81266399999993,16.325143999999987,12
47.16466399999993,15.029143999999986,220
47.81266399999993,15.677143999999986,58
47.48866399999993,15.677143999999986,109
46.516663999999935,13.085143999999987,494
46.84066399999993,12.437143999999988,359
48.136663999999925,11.789143999999988,440
47.81266399999993,12.437143999999988,434
46.84066399999993,15.677143999999986,645
46.516663999999935,15.677143999999986,380
46.84066399999993,16.325143999999987,225
47.81266399999993,14.381143999999988,337
48.78466399999992,16.973143999999984,111
48.136663999999925,16.973143999999984,22
48.46066399999992,13.733143999999989,387
47.81266399999993,13.733143999999989,434
50.08066399999991,8.54914399999999,554
48.46066399999992,9.845143999999989,500
51.05266399999991,7.25314399999999,589
51.37666399999991,7.25314399999999,602
51.37666399999991,6.60514399999999,598
48.46066399999992,16.325143999999987,0
48.46066399999992,16.973143999999984,69
48.78466399999992,16.325143999999987,25
48.46066399999992,15.677143999999986,40
48.78466399999992,15.677143999999986,61
47.48866399999993,16.325143999999987,62
47.16466399999993,16.325143999999987,174
46.19266399999994,14.381143999999988,398
45.86866399999994,15.677143999999986,398
43.60066399999995,16.325143999999987,760
45.54466399999994,14.381143999999988,445
45.54466399999994,13.733143999999989,468
48.136663999999925,13.085143999999987,408
48.46066399999992,11.141143999999988,457
48.136663999999925,11.141143999999988,446
48.46066399999992,7.90114399999999,555
49.10866399999992,8.54914399999999,534
48.78466399999992,2.0691439999999925,666
49.10866399999992,7.25314399999999,584
52.0246639999999,7.90114399999999,615
47.16466399999993,11.789143999999988,552
49.43266399999992,11.141143999999988,510
53.64466399999989,9.845143999999989,631
50.72866399999991,4.013143999999992,635
51.05266399999991,11.141143999999988,482
47.48866399999993,11.141143999999988,488
46.84066399999993,11.789143999999988,2102
46.516663999999935,11.141143999999988,2071
45.54466399999994,11.141143999999988,1965
46.19266399999994,11.141143999999988,2037
45.86866399999994,11.141143999999988,2021
44.572663999999946,11.141143999999988,1812
43.92466399999995,12.437143999999988,4445
45.54466399999994,12.437143999999988,2052
45.54466399999994,11.789143999999988,2015
48.78466399999992,15.029143999999986,252
47.81266399999993,15.029143999999986,330
47.81266399999993,11.141143999999988,449
50.40466399999991,18.917143999999983,487
52.3486639999999,20.86114399999998,670
54.616663999999886,18.269143999999983,760
54.29266399999989,18.917143999999983,789
49.10866399999992,14.381143999999988,65535
50.08066399999991,14.381143999999988,386
48.78466399999992,13.733143999999989,2216
52.6726639999999,13.085143999999987,454
52.3486639999999,13.085143999999987,453
53.96866399999989,12.437143999999988,636
54.29266399999989,12.437143999999988,619
47.48866399999993,8.54914399999999,551
47.81266399999993,17.621143999999987,32
47.48866399999993,18.917143999999983,140
47.48866399999993,20.86114399999998,476
46.84066399999993,23.45314399999998,958
44.572663999999946,26.04514399999998,1407
47.48866399999993,21.50914399999997,512
47.81266399999993,21.50914399999997,908
48.46066399999992,22.15714399999998,337
47.48866399999993,16.973143999999984,65535
49.10866399999992,16.325143999999987,216
49.75666399999992,18.269143999999983,359
46.19266399999994,13.085143999999987,1343
41.98066399999996,12.437143999999988,3045
43.60066399999995,10.493143999999988,3206
45.54466399999994,9.197143999999987,676
47.81266399999993,22.805143999999984,1373
49.75666399999992,22.805143999999984,620
50.72866399999991,3.365143999999992,642
51.05266399999991,4.013143999999992,635
50.72866399999991,4.661143999999991,627
51.05266399999991,4.661143999999991,628
51.05266399999991,3.365143999999992,641
51.05266399999991,2.717143999999992,660
50.40466399999991,4.661143999999991,624
50.72866399999991,2.717143999999992,648
50.40466399999991,4.013143999999992,646
51.05266399999991,5.309143999999991,634
50.72866399999991,5.309143999999991,612
51.37666399999991,3.365143999999992,659
51.37666399999991,4.661143999999991,634
50.72866399999991,5.957143999999991,592
50.40466399999991,5.957143999999991,603
50.40466399999991,3.365143999999992,650
50.40466399999991,5.309143999999991,619
50.08066399999991,5.309143999999991,646
49.75666399999992,5.309143999999991,644
49.75666399999992,5.957143999999991,622
51.37666399999991,5.309143999999991,656
51.700663999999904,4.661143999999991,678
50.08066399999991,4.013143999999992,674
50.08066399999991,5.957143999999991,621
50.08066399999991,4.661143999999991,631
49.43266399999992,5.309143999999991,629
49.43266399999992,5.957143999999991,615
52.0246639999999,4.661143999999991,710
52.3486639999999,4.661143999999991,739
50.72866399999991,15.029143999999986,379
51.05266399999991,15.029143999999986,396
51.05266399999991,13.733143999999989,416
50.40466399999991,13.085143999999987,469
49.10866399999992,7.90114399999999,539
48.78466399999992,7.90114399999999,545
50.40466399999991,7.90114399999999,565
50.08066399999991,7.90114399999999,580
49.75666399999992,7.90114399999999,588
49.43266399999992,7.90114399999999,557
49.75666399999992,8.54914399999999,549
49.43266399999992,8.54914399999999,540
49.43266399999992,9.197143999999987,536
49.10866399999992,9.197143999999987,528
47.48866399999993,7.90114399999999,558
47.81266399999993,7.90114399999999,567
48.136663999999925,7.90114399999999,562
48.136663999999925,9.845143999999989,492
47.81266399999993,9.197143999999987,532
47.81266399999993,8.54914399999999,543
47.81266399999993,9.845143999999989,497
54.940663999999884,9.197143999999987,719
54.616663999999886,9.197143999999987,685
54.29266399999989,9.197143999999987,671
53.96866399999989,9.197143999999987,656
53.64466399999989,9.197143999999987,635
54.616663999999886,9.845143999999989,712
54.29266399999989,9.845143999999989,701
53.96866399999989,9.845143999999989,638
53.64466399999989,10.493143999999988,626
53.96866399999989,10.493143999999988,638
53.96866399999989,11.141143999999988,671
54.29266399999989,10.493143999999988,658
53.32066399999989,10.493143999999988,610
54.940663999999884,11.141143999999988,769
52.6726639999999,13.733143999999989,451
52.3486639999999,13.733143999999989,449
52.3486639999999,14.381143999999988,460
52.0246639999999,14.381143999999988,447
52.0246639999999,11.789143999999988,483
52.3486639999999,11.789143999999988,498
52.3486639999999,12.437143999999988,487
52.0246639999999,15.029143999999986,463
51.700663999999904,14.381143999999988,439
52.0246639999999,13.733143999999989,438
51.700663999999904,13.733143999999989,434
52.6726639999999,12.437143999999988,488
53.32066399999989,11.789143999999988,549
53.96866399999989,11.789143999999988,623
53.64466399999989,11.789143999999988,586
53.64466399999989,11.141143999999988,582
53.32066399999989,11.141143999999988,573
52.996663999999896,11.789143999999988,512
52.996663999999896,12.437143999999988,504
52.996663999999896,13.733143999999989,480
53.64466399999989,13.733143999999989,577
53.96866399999989,13.733143999999989,590
54.29266399999989,13.085143999999987,597
53.96866399999989,13.085143999999987,637
53.32066399999989,13.733143999999989,587
52.0246639999999,13.085143999999987,469
51.700663999999904,13.085143999999987,466
52.996663999999896,14.381143999999988,503
52.0246639999999,12.437143999999988,474
51.700663999999904,12.437143999999988,471
51.37666399999991,11.789143999999988,454
51.37666399999991,12.437143999999988,447
52.6726639999999,11.789143999999988,497
53.64466399999989,13.085143999999987,620
53.32066399999989,13.085143999999987,585
52.996663999999896,13.085143999999987,519
53.64466399999989,12.437143999999988,628
51.37666399999991,13.733143999999989,425
53.32066399999989,12.437143999999988,536
52.6726639999999,14.381143999999988,467
51.37666399999991,13.085143999999987,438
53.32066399999989,14.381143999999988,529
52.3486639999999,15.029143999999986,490
52.0246639999999,15.677143999999986,469
51.700663999999904,15.029143999999986,490
51.05266399999991,16.325143999999987,515
51.05266399999991,16.973143999999984,538
51.700663999999904,15.677143999999986,533
51.37666399999991,15.677143999999986,474
51.37666399999991,16.325143999999987,506
50.72866399999991,13.085143999999987,456
50.72866399999991,12.437143999999988,468
51.05266399999991,13.085143999999987,434
51.05266399999991,14.381143999999988,403
50.40466399999991,12.437143999999988,477
50.40466399999991,11.789143999999988,492
50.08066399999991,12.437143999999988,552
50.72866399999991,11.789143999999988,477
51.05266399999991,12.437143999999988,467
50.72866399999991,14.381143999999988,434
51.37666399999991,14.381143999999988,418
50.72866399999991,13.733143999999989,455
50.40466399999991,14.381143999999988,393
51.37666399999991,15.029143999999986,414
55.26466399999988,9.197143999999987,828
55.58866399999988,8.54914399999999,3562
55.91266399999988,8.54914399999999,7039
56.23666399999988,9.197143999999987,7047
56.23666399999988,10.493143999999988,7000
56.23666399999988,9.845143999999989,6987
55.91266399999988,9.845143999999989,6925
56.56066399999988,9.197143999999987,7057
56.56066399999988,8.54914399999999,7100
51.05266399999991,6.60514399999999,595
51.700663999999904,7.90114399999999,608
50.72866399999991,6.60514399999999,584
51.700663999999904,7.25314399999999,605
50.72866399999991,7.25314399999999,580
52.0246639999999,7.25314399999999,631
52.3486639999999,7.90114399999999,604
51.05266399999991,5.957143999999991,596
50.40466399999991,7.25314399999999,568
51.700663999999904,6.60514399999999,607
51.700663999999904,5.957143999999991,608
52.3486639999999,9.197143999999987,573
51.700663999999904,8.54914399999999,605
52.0246639999999,8.54914399999999,589
52.3486639999999,8.54914399999999,578
51.37666399999991,7.90114399999999,613
52.3486639999999,7.25314399999999,681
51.37666399999991,5.957143999999991,641
50.72866399999991,7.90114399999999,601
51.37666399999991,9.197143999999987,603
51.700663999999904,9.197143999999987,613
50.40466399999991,6.60514399999999,646
51.05266399999991,7.90114399999999,611
51.37666399999991,8.54914399999999,637
52.0246639999999,5.957143999999991,651
52.3486639999999,6.60514399999999,716
51.05266399999991,8.54914399999999,584
52.0246639999999,9.197143999999987,572
52.6726639999999,9.197143999999987,630
52.0246639999999,9.845143999999989,602
51.700663999999904,9.845143999999989,628
51.37666399999991,9.845143999999989,646
50.72866399999991,8.54914399999999,568
51.05266399999991,9.845143999999989,651
50.72866399999991,9.845143999999989,616
50.40466399999991,9.845143999999989,597
51.05266399999991,9.197143999999987,593
50.40466399999991,9.197143999999987,572
50.08066399999991,9.197143999999987,560
51.05266399999991,10.493143999999988,496
50.40466399999991,8.54914399999999,560
50.72866399999991,9.197143999999987,580
49.75666399999992,9.197143999999987,564
52.996663999999896,9.197143999999987,633
52.3486639999999,9.845143999999989,560
52.996663999999896,8.54914399999999,626
52.996663999999896,7.90114399999999,653
53.32066399999989,7.90114399999999,703
53.32066399999989,7.25314399999999,733
53.64466399999989,7.25314399999999,778
52.996663999999896,10.493143999999988,623
52.6726639999999,10.493143999999988,616
52.6726639999999,9.845143999999989,570
53.32066399999989,9.845143999999989,623
53.32066399999989,9.197143999999987,627
53.64466399999989,8.54914399999999,650
53.32066399999989,8.54914399999999,629
52.6726639999999,8.54914399999999,603
52.0246639999999,10.493143999999988,572
52.0246639999999,11.141143999999988,521
51.700663999999904,11.141143999999988,520
52.6726639999999,7.25314399999999,905
52.996663999999896,7.25314399999999,879
52.6726639999999,7.90114399999999,795
53.64466399999989,7.90114399999999,851
52.996663999999896,11.141143999999988,684
52.6726639999999,11.141143999999988,710
52.3486639999999,10.493143999999988,564
52.996663999999896,9.845143999999989,636
51.700663999999904,10.493143999999988,560
51.37666399999991,10.493143999999988,7667
51.700663999999904,11.789143999999988,494
52.3486639999999,11.141143999999988,545
51.37666399999991,11.141143999999988,464
51.05266399999991,11.789143999999988,471
49.10866399999992,11.141143999999988,500
48.78466399999992,11.141143999999988,470
48.46066399999992,11.789143999999988,442
49.43266399999992,11.789143999999988,518
50.08066399999991,11.789143999999988,512
49.75666399999992,12.437143999999988,537
49.10866399999992,11.789143999999988,513
48.78466399999992,12.437143999999988,489
48.46066399999992,12.437143999999988,464
49.10866399999992,12.437143999999988,523
48.78466399999992,13.085143999999987,453
48.136663999999925,12.437143999999988,429
47.81266399999993,11.789143999999988,440
48.136663999999925,10.493143999999988,485
47.81266399999993,10.493143999999988,499
48.78466399999992,10.493143999999988,499
47.48866399999993,10.493143999999988,516
48.46066399999992,10.493143999999988,483
49.43266399999992,13.085143999999987,533
48.46066399999992,13.085143999999987,432
49.43266399999992,10.493143999999988,524
49.75666399999992,9.845143999999989,533
49.75666399999992,10.493143999999988,523
50.40466399999991,11.141143999999988,499
50.08066399999991,11.141143999999988,526
50.72866399999991,11.141143999999988,489
49.75666399999992,11.141143999999988,516
48.78466399999992,11.789143999999988,493
50.40466399999991,10.493143999999988,583
50.08066399999991,9.845143999999989,547
50.08066399999991,10.493143999999988,533
49.43266399999992,12.437143999999988,544
49.75666399999992,11.789143999999988,525
49.10866399999992,13.085143999999987,513
50.72866399999991,10.493143999999988,511
49.10866399999992,10.493143999999988,518
48.78466399999992,9.845143999999989,515
48.46066399999992,8.54914399999999,532
48.46066399999992,9.197143999999987,528
48.78466399999992,9.197143999999987,531
48.78466399999992,8.54914399999999,537
50.08066399999991,7.25314399999999,590
49.75666399999992,6.60514399999999,617
49.43266399999992,6.60514399999999,623
49.10866399999992,6.60514399999999,622
49.43266399999992,7.25314399999999,608
49.75666399999992,7.25314399999999,604
49.10866399999992,5.957143999999991,607
48.78466399999992,7.25314399999999,559
50.08066399999991,6.60514399999999,614
47.48866399999993,9.197143999999987,542
48.136663999999925,8.54914399999999,554
48.136663999999925,9.197143999999987,548
47.81266399999993,7.25314399999999,570
49.43266399999992,9.845143999999989,532
49.10866399999992,9.845143999999989,524
53.64466399999989,14.381143999999988,572
50.08066399999991,13.085143999999987,438
49.75666399999992,13.085143999999987,455
45.86866399999994,9.197143999999987,658
46.19266399999994,9.197143999999987,644
46.516663999999935,8.54914399999999,590
46.516663999999935,9.197143999999987,639
46.19266399999994,8.54914399999999,641
47.16466399999993,8.54914399999999,557
45.86866399999994,4.661143999999991,694
46.84066399999993,9.845143999999989,573
45.22066399999994,5.957143999999991,711
45.22066399999994,5.309143999999991,737
45.86866399999994,5.957143999999991,660
45.54466399999994,5.957143999999991,683
44.89666399999994,4.661143999999991,731
44.89666399999994,5.309143999999991,749
44.572663999999946,4.661143999999991,754
44.24866399999995,4.661143999999991,782
43.92466399999995,4.661143999999991,759
46.19266399999994,7.25314399999999,610
48.78466399999992,5.957143999999991,622
48.136663999999925,6.60514399999999,597
48.46066399999992,6.60514399999999,606
48.78466399999992,6.60514399999999,607
47.16466399999993,7.90114399999999,561
48.136663999999925,7.25314399999999,565
48.46066399999992,7.25314399999999,571
46.516663999999935,6.60514399999999,616
46.84066399999993,6.60514399999999,591
46.84066399999993,7.25314399999999,572
46.516663999999935,5.957143999999991,645
46.19266399999994,5.957143999999991,646
46.84066399999993,8.54914399999999,561
46.84066399999993,7.90114399999999,565
45.86866399999994,5.309143999999991,690
46.19266399999994,6.60514399999999,637
45.86866399999994,6.60514399999999,613
47.48866399999993,6.60514399999999,600
47.48866399999993,7.25314399999999,567
47.16466399999993,7.25314399999999,577
49.10866399999992,4.013143999999992,627
49.75666399999992,4.661143999999991,657
49.43266399999992,4.661143999999991,653
49.10866399999992,5.309143999999991,628
46.19266399999994,4.661143999999991,708
46.84066399999993,9.197143999999987,564
46.19266399999994,5.309143999999991,688
46.516663999999935,5.309143999999991,659
45.54466399999994,6.60514399999999,741
45.54466399999994,5.309143999999991,711
43.60066399999995,4.013143999999992,788
43.60066399999995,3.365143999999992,828
42.62866399999996,2.717143999999992,912
43.276663999999954,2.717143999999992,845
45.54466399999994,4.661143999999991,701
45.22066399999994,4.661143999999991,715
47.16466399999993,5.309143999999991,657
47.16466399999993,5.957143999999991,626
46.19266399999994,7.90114399999999,606
49.75666399999992,2.717143999999992,680
49.10866399999992,2.717143999999992,674
48.78466399999992,2.717143999999992,688
45.86866399999994,3.365143999999992,834
46.84066399999993,3.365143999999992,772
46.516663999999935,3.365143999999992,768
46.19266399999994,3.365143999999992,835
47.16466399999993,6.60514399999999,608
49.10866399999992,3.365143999999992,642
45.54466399999994,4.013143999999992,709
46.516663999999935,7.25314399999999,593
47.16466399999993,4.661143999999991,663
46.84066399999993,4.661143999999991,684
46.516663999999935,4.661143999999991,740
46.84066399999993,5.957143999999991,634
47.81266399999993,3.365143999999992,771
47.48866399999993,4.013143999999992,730
48.136663999999925,4.013143999999992,760
47.81266399999993,4.013143999999992,741
47.48866399999993,4.661143999999991,721
47.16466399999993,3.365143999999992,806
46.84066399999993,4.013143999999992,740
48.46066399999992,5.957143999999991,635
46.19266399999994,2.717143999999992,890
47.16466399999993,2.0691439999999925,756
46.516663999999935,2.717143999999992,862
46.84066399999993,2.717143999999992,842
46.84066399999993,2.0691439999999925,813
47.16466399999993,2.717143999999992,788
44.572663999999946,5.309143999999991,752
44.572663999999946,5.957143999999991,849
44.89666399999994,6.60514399999999,747
44.572663999999946,6.60514399999999,1350
43.60066399999995,5.309143999999991,781
43.92466399999995,7.25314399999999,1401
43.60066399999995,6.60514399999999,1392
43.276663999999954,6.60514399999999,1379
43.276663999999954,5.957143999999991,802
45.86866399999994,8.54914399999999,658
45.54466399999994,8.54914399999999,662
48.136663999999925,3.365143999999992,744
48.46066399999992,3.365143999999992,732
48.46066399999992,2.717143999999992,712
47.48866399999993,5.309143999999991,696
46.516663999999935,9.845143999999989,584
46.84066399999993,10.493143999999988,1331
47.81266399999993,5.309143999999991,680
45.22066399999994,6.60514399999999,741
46.19266399999994,4.013143999999992,730
45.86866399999994,4.013143999999992,722
45.22066399999994,4.013143999999992,761
44.89666399999994,4.013143999999992,817
46.84066399999993,5.309143999999991,661
48.136663999999925,-1.8188560000000056,805
48.136663999999925,0.1251439999999934,747
48.136663999999925,-0.5228560000000062,777
47.48866399999993,-0.5228560000000062,771
47.16466399999993,-1.8188560000000056,813
47.48866399999993,0.7731439999999932,726
47.16466399999993,0.1251439999999934,741
45.86866399999994,7.25314399999999,619
48.136663999999925,5.309143999999991,710
49.10866399999992,4.661143999999991,675
48.46066399999992,4.013143999999992,770
48.136663999999925,4.661143999999991,731
47.81266399999993,6.60514399999999,623
47.48866399999993,5.957143999999991,640
48.136663999999925,5.957143999999991,1886
45.86866399999994,7.90114399999999,627
46.516663999999935,7.90114399999999,584
49.43266399999992,3.365143999999992,653
49.43266399999992,4.013143999999992,640
48.136663999999925,2.717143999999992,1338
47.81266399999993,2.717143999999992,1314
47.48866399999993,2.717143999999992,1292
50.40466399999991,2.717143999999992,656
48.46066399999992,-4.410856000000004,1445
48.46066399999992,-3.7628560000000046,1400
48.46066399999992,-3.114856000000005,1385
48.46066399999992,-2.4668560000000053,855
47.48866399999993,1.4211439999999929,753
47.16466399999993,1.4211439999999929,818
46.516663999999935,4.013143999999992,745
43.60066399999995,4.661143999999991,796
44.89666399999994,2.717143999999992,1409
45.22066399999994,2.717143999999992,1403
45.54466399999994,3.365143999999992,1290
45.22066399999994,3.365143999999992,1348
47.48866399999993,3.365143999999992,1333
46.19266399999994,9.845143999999989,622
47.81266399999993,2.0691439999999925,724
47.48866399999993,2.0691439999999925,735
45.86866399999994,2.717143999999992,1343
44.89666399999994,5.957143999999991,769
45.22066399999994,1.4211439999999929,962
44.89666399999994,1.4211439999999929,1249
44.89666399999994,2.0691439999999925,1369
43.276663999999954,2.0691439999999925,876
43.60066399999995,1.4211439999999929,922
48.78466399999992,4.661143999999991,693
48.78466399999992,5.309143999999991,670
46.19266399999994,2.0691439999999925,1349
45.86866399999994,1.4211439999999929,845
46.19266399999994,1.4211439999999929,866
44.572663999999946,4.013143999999992,1533
44.89666399999994,3.365143999999992,1474
43.92466399999995,4.013143999999992,812
44.24866399999995,4.013143999999992,829
44.89666399999994,-0.5228560000000062,794
45.54466399999994,0.1251439999999934,803
46.516663999999935,0.1251439999999934,760
44.572663999999946,2.0691439999999925,1287
49.75666399999992,4.013143999999992,689
43.92466399999995,3.365143999999992,1416
43.92466399999995,2.717143999999992,1447
44.24866399999995,3.365143999999992,1472
44.572663999999946,3.365143999999992,1517
49.10866399999992,0.1251439999999934,742
49.43266399999992,0.7731439999999932,734
49.43266399999992,-1.8188560000000056,842
49.10866399999992,-1.170856000000006,818
49.10866399999992,-0.5228560000000062,763
49.10866399999992,0.7731439999999932,767
49.10866399999992,1.4211439999999929,738
47.81266399999993,-1.8188560000000056,1359
47.81266399999993,-2.4668560000000053,1375
47.81266399999993,-3.114856000000005,1400
48.136663999999925,-3.7628560000000046,1419
44.572663999999946,9.197143999999987,716
44.89666399999994,8.54914399999999,686
45.22066399999994,9.197143999999987,679
45.54466399999994,10.493143999999988,727
44.572663999999946,10.493143999999988,1798
44.89666399999994,10.493143999999988,1295
44.89666399999994,9.845143999999989,729
48.46066399999992,5.309143999999991,723
50.91599999999999,-1.0580000000000025,65535
51.23999999999999,-0.4100000000000028,65535
50.91599999999999,-0.4100000000000028,65535
51.23999999999999,-2.354000000000002,65535
51.56399999999999,-2.354000000000002,65535
51.56399999999999,-3.0020000000000016,65535
50.91599999999999,-2.354000000000002,65535
53.50799999999997,-3.0020000000000016,65535
53.183999999999976,-2.354000000000002,65535
53.183999999999976,-3.0020000000000016,65535
52.85999999999998,-2.354000000000002,65535
52.21199999999998,-1.0580000000000025,65535
51.887999999999984,-1.0580000000000025,65535
52.53599999999998,-1.0580000000000025,65535
52.53599999999998,-1.7060000000000022,65535
52.85999999999998,-1.7060000000000022,65535
53.50799999999997,-2.354000000000002,65535
52.85999999999998,-1.0580000000000025,65535
52.53599999999998,1.5339999999999965,65535
52.53599999999998,0.8859999999999966,65535
52.53599999999998,0.2379999999999968,65535
52.53599999999998,-0.4100000000000028,65535
53.50799999999997,-1.7060000000000022,65535
53.183999999999976,-1.7060000000000022,65535
53.183999999999976,-1.0580000000000025,65535
52.85999999999998,-0.4100000000000028,65535
51.887999999999984,-2.354000000000002,65535
52.21199999999998,-2.354000000000002,65535
55.77599999999996,-2.354000000000002,65535
53.83199999999997,-1.0580000000000025,65535
53.83199999999997,-1.7060000000000022,65535
55.127999999999965,-1.7060000000000022,65535
54.80399999999997,-1.7060000000000022,65535
54.47999999999997,-1.7060000000000022,65535
54.15599999999997,-1.0580000000000025,65535
52.21199999999998,-1.7060000000000022,65535
53.50799999999997,-1.0580000000000025,65535
55.77599999999996,-3.0020000000000016,65535
55.45199999999996,-1.7060000000000022,65535
57.07199999999995,-2.354000000000002,65535
56.74799999999996,-3.0020000000000016,65535
56.42399999999996,-3.0020000000000016,65535
56.09999999999996,-3.650000000000001,65535
50.91599999999999,-3.0020000000000016,65535
50.91599999999999,-3.650000000000001,65535
50.59199999999999,-3.650000000000001,65535
50.59199999999999,-4.298000000000001,65535
51.23999999999999,-3.0020000000000016,65535
50.268,-4.946000000000001,65535
55.77599999999996,-3.650000000000001,65535
55.77599999999996,-4.298000000000001,65535
52.21199999999998,-0.4100000000000028,65535
52.53599999999998,-2.354000000000002,65535
51.56399999999999,-1.7060000000000022,65535
51.56399999999999,-3.650000000000001,65535
51.887999999999984,-4.298000000000001,65535
51.56399999999999,-4.298000000000001,65535
51.887999999999984,-1.7060000000000022,65535
52.21199999999998,-3.0020000000000016,65535
51.23999999999999,0.2379999999999968,65535
50.91599999999999,0.2379999999999968,65535
52.21199999999998,0.2379999999999968,65535
53.83199999999997,-3.0020000000000016,65535
54.15599999999997,-3.0020000000000016,65535
54.47999999999997,-3.0020000000000016,65535
55.127999999999965,-3.650000000000001,65535
54.80399999999997,-3.0020000000000016,65535
53.83199999999997,-2.354000000000002,65535
54.15599999999997,-0.4100000000000028,65535
54.47999999999997,-1.0580000000000025,65535
53.83199999999997,-0.4100000000000028,65535
53.183999999999976,-3.650000000000001,65535
53.183999999999976,-4.298000000000001,65535
52.85999999999998,-3.0020000000000016,65535
52.53599999999998,-3.0020000000000016,65535
51.887999999999984,-3.0020000000000016,65535
51.23999999999999,0.8859999999999966,65535
51.887999999999984,0.2379999999999968,65535
52.21199999999998,0.8859999999999966,65535
51.887999999999984,-4.946000000000001,65535
52.53599999999998,-3.650000000000001,65535
52.21199999999998,-4.298000000000001,65535
53.183999999999976,-0.4100000000000028,65535
51.23999999999999,-3.650000000000001,65535
51.887999999999984,-3.650000000000001,65535
52.21199999999998,-3.650000000000001,65535
51.56399999999999,0.8859999999999966,65535
51.887999999999984,0.8859999999999966,65535
52.85999999999998,0.8859999999999966,65535
53.50799999999997,-0.4100000000000028,65535
56.09999999999996,-4.298000000000001,65535
56.74799999999996,-4.946000000000001,65535
56.74799999999996,-4.298000000000001,65535
56.42399999999996,-4.946000000000001,65535
56.42399999999996,-4.298000000000001,65535
56.09999999999996,-4.946000000000001,65535
57.39599999999995,-4.298000000000001,65535
57.39599999999995,-3.0020000000000016,65535
57.39599999999995,-3.650000000000001,65535
56.42399999999996,-3.650000000000001,65535
57.07199999999995,-3.650000000000001,65535
57.07199999999995,-4.298000000000001,65535
56.74799999999996,-3.650000000000001,65535
59.15266399999986,27.34114399999998,65535
59.47666399999986,26.69314399999997,65535
59.47666399999986,26.04514399999998,65535
59.15266399999986,26.04514399999998,65535
59.15266399999986,24.74914399999998,65535
59.15266399999986,25.397143999999983,65535
59.47666399999986,25.397143999999983,65535
58.50466399999986,26.69314399999997,65535
58.82866399999986,26.69314399999997,65535
57.85666399999987,26.04514399999998,65535
58.180663999999865,26.04514399999998,65535
58.180663999999865,26.69314399999997,65535
58.82866399999986,26.04514399999998,65535
58.50466399999986,25.397143999999983,65535
58.82866399999986,25.397143999999983,65535
58.82866399999986,24.74914399999998,65535
58.180663999999865,27.34114399999998,65535
57.85666399999987,27.34114399999998,65535
63.68866399999983,27.34114399999998,7557
60.124663999999854,24.74914399999998,4213
60.44866399999985,24.74914399999998,4182
60.44866399999985,25.397143999999983,4194
60.77266399999985,25.397143999999983,4905
61.09666399999985,26.04514399999998,4948
60.77266399999985,26.04514399999998,4956
60.77266399999985,26.69314399999997,4975
61.09666399999985,25.397143999999983,4939
61.09666399999985,26.69314399999997,7678
61.420663999999846,26.69314399999997,7700
61.74466399999984,27.34114399999998,7724
62.06866399999984,27.34114399999998,7749
62.39266399999984,27.34114399999998,7773
62.71666399999984,27.34114399999998,7737
64.01266399999983,27.34114399999998,7513
63.36466399999984,27.34114399999998,7625
63.04066399999984,27.34114399999998,7665
63.04066399999984,27.989143999999985,7680
64.33666399999983,27.989143999999985,5264
64.33666399999983,27.34114399999998,5209
64.66066399999983,27.34114399999998,5194
64.66066399999983,26.69314399999997,5139
64.98466399999982,25.397143999999983,3559
64.66066399999983,26.04514399999998,5120
64.98466399999982,26.04514399999998,5104
66.28066399999982,25.397143999999983,3731
65.95666399999982,24.74914399999998,3472
65.63266399999982,24.74914399999998,3476
65.63266399999982,25.397143999999983,3518
65.30866399999982,25.397143999999983,3539
66.60466399999981,25.397143999999983,3765
64.01266399999983,24.74914399999998,3696
64.01266399999983,24.101143999999977,3731
64.01266399999983,23.45314399999998,3755
63.68866399999983,23.45314399999998,3767
63.68866399999983,22.805143999999984,3792
63.68866399999983,26.04514399999998,5824
63.68866399999983,25.397143999999983,5790
63.68866399999983,26.69314399999997,7524
60.44866399999985,26.69314399999997,8309
64.01266399999983,27.989143999999985,7943
62.71666399999984,22.805143999999984,3914
62.39266399999984,22.805143999999984,3946
62.06866399999984,22.805143999999984,3975
62.06866399999984,23.45314399999998,3991
61.74466399999984,23.45314399999998,4003
61.420663999999846,23.45314399999998,4051
61.09666399999985,23.45314399999998,4092
61.09666399999985,24.101143999999977,4099
61.09666399999985,24.74914399999998,4133
60.77266399999985,24.74914399999998,4149
63.04066399999984,21.50914399999997,65535
63.04066399999984,22.15714399999998,65535
63.04066399999984,22.805143999999984,3878
62.39266399999984,26.04514399999998,7921
62.06866399999984,25.397143999999983,7970
61.74466399999984,25.397143999999983,8038
61.74466399999984,24.74914399999998,8075
61.74466399999984,24.101143999999977,4280
61.420663999999846,24.101143999999977,4235
62.39266399999984,26.69314399999997,7892
64.66066399999983,25.397143999999983,3628
64.66066399999983,24.74914399999998,3646
64.33666399999983,24.74914399999998,3657
63.36466399999984,22.805143999999984,3817
67.25266399999981,24.101143999999977,7345
66.92866399999981,24.101143999999977,7309
66.60466399999981,23.45314399999998,7278
66.28066399999982,23.45314399999998,7260
66.28066399999982,24.101143999999977,7242
65.95666399999982,24.101143999999977,2844
60.124663999999854,24.101143999999977,5727
60.124663999999854,23.45314399999998,6585
60.44866399999985,22.805143999999984,6644
60.77266399999985,27.34114399999998,5027
61.09666399999985,27.989143999999985,5057
61.09666399999985,28.63714399999997,5095
61.420663999999846,29.28514399999997,5130
61.74466399999984,29.933143999999977,5167
62.06866399999984,29.933143999999977,5193
62.39266399999984,29.933143999999977,5209
62.71666399999984,29.933143999999977,5233
61.420663999999846,22.805143999999984,6338
61.420663999999846,22.15714399999998,7046
61.09666399999985,22.15714399999998,6384
61.420663999999846,21.50914399999997,7179
62.39266399999984,27.989143999999985,65535
62.06866399999984,27.989143999999985,65535
61.420663999999846,27.34114399999998,65535
63.04066399999984,29.933143999999977,7172
63.68866399999983,29.28514399999997,8955
63.36466399999984,29.28514399999997,8935
63.36466399999984,29.933143999999977,8894
60.44866399999985,27.34114399999998,65535
61.74466399999984,29.28514399999997,65535
62.39266399999984,30.58114399999998,65535
62.71666399999984,31.229143999999977,65535
62.71666399999984,29.28514399999997,65535
63.04066399999984,28.63714399999997,65535
66.60466399999981,26.04514399999998,6586
66.60466399999981,26.69314399999997,6622
66.60466399999981,27.34114399999998,6645
62.71666399999984,26.04514399999998,7806
62.71666399999984,25.397143999999983,7775
63.04066399999984,25.397143999999983,7595
63.36466399999984,25.397143999999983,6232
62.71666399999984,23.45314399999998,7800
62.39266399999984,24.101143999999977,65535
62.71666399999984,22.15714399999998,65535
62.39266399999984,22.15714399999998,65535
62.39266399999984,21.50914399999997,65535
61.09666399999985,21.50914399999997,6414
60.77266399999985,22.805143999999984,4452
60.44866399999985,22.15714399999998,4482
60.77266399999985,23.45314399999998,4439
60.77266399999985,21.50914399999997,5553
60.77266399999985,22.15714399999998,5506
60.124663999999854,22.805143999999984,8599
60.44866399999985,24.101143999999977,5712
62.06866399999984,24.74914399999998,65535
50.72866399999991,16.325143999999987,534
50.40466399999991,16.973143999999984,504
50.72866399999991,16.973143999999984,548
50.40466399999991,16.325143999999987,501
50.08066399999991,16.973143999999984,440
50.08066399999991,16.325143999999987,393
51.700663999999904,16.973143999999984,541
51.37666399999991,16.973143999999984,519
51.05266399999991,15.677143999999986,502
50.72866399999991,15.677143999999986,518
51.05266399999991,17.621143999999987,531
51.37666399999991,17.621143999999987,544
51.700663999999904,17.621143999999987,581
51.700663999999904,16.325143999999987,547
52.0246639999999,22.15714399999998,691
52.0246639999999,21.50914399999997,687
52.3486639999999,21.50914399999997,684
52.0246639999999,20.86114399999998,672
51.700663999999904,20.86114399999998,698
51.37666399999991,21.50914399999997,730
51.37666399999991,20.86114399999998,710
51.05266399999991,20.86114399999998,662
52.6726639999999,23.45314399999998,802
52.3486639999999,22.805143999999984,741
52.3486639999999,20.213143999999986,700
52.0246639999999,20.213143999999986,680
52.3486639999999,19.565143999999982,652
52.6726639999999,19.565143999999982,751
51.700663999999904,21.50914399999997,717
51.700663999999904,22.15714399999998,701
52.6726639999999,21.50914399999997,693
52.996663999999896,21.50914399999997,709
52.6726639999999,20.86114399999998,688
52.6726639999999,22.15714399999998,709
52.6726639999999,20.213143999999986,817
52.996663999999896,19.565143999999982,848
52.996663999999896,20.86114399999998,713
52.996663999999896,20.213143999999986,720
53.32066399999989,20.213143999999986,763
51.37666399999991,20.213143999999986,614
52.3486639999999,16.973143999999984,550
52.0246639999999,16.973143999999984,559
52.0246639999999,16.325143999999987,572
52.0246639999999,17.621143999999987,592
52.6726639999999,16.973143999999984,608
52.996663999999896,16.973143999999984,621
52.3486639999999,16.325143999999987,526
52.3486639999999,15.677143999999986,505
51.700663999999904,18.269143999999983,632
52.6726639999999,17.621143999999987,587
52.3486639999999,17.621143999999987,573
52.6726639999999,18.269143999999983,619
52.3486639999999,18.269143999999983,593
52.3486639999999,18.917143999999983,613
52.996663999999896,17.621143999999987,664
51.700663999999904,19.565143999999982,1310
51.700663999999904,18.917143999999983,1386
51.37666399999991,18.269143999999983,546
58.82866399999986,9.197143999999987,1808
58.180663999999865,7.90114399999999,1901
58.50466399999986,8.54914399999999,1852
63.36466399999984,10.493143999999988,2023
63.36466399999984,11.141143999999988,2030
63.36466399999984,11.789143999999988,2065
63.68866399999983,11.789143999999988,2093
64.33666399999983,12.437143999999988,2494
64.66066399999983,12.437143999999988,2989
65.63266399999982,13.085143999999987,2646
65.95666399999982,13.085143999999987,2681
66.28066399999982,14.381143999999988,2751
65.95666399999982,13.733143999999989,2820
66.28066399999982,13.733143999999989,2729
65.30866399999982,13.085143999999987,2947
64.98466399999982,13.085143999999987,2581
64.01266399999983,11.789143999999988,2124
63.68866399999983,11.141143999999988,2061
59.800663999999855,10.493143999999988,1604
59.800663999999855,11.141143999999988,1587
60.124663999999854,11.141143999999988,1602
60.44866399999985,11.141143999999988,1615
60.124663999999854,11.789143999999988,1628
60.77266399999985,7.25314399999999,1864
60.77266399999985,6.60514399999999,1910
59.15266399999986,9.197143999999987,1690
59.47666399999986,9.197143999999987,1711
59.800663999999855,9.845143999999989,1606
59.47666399999986,11.141143999999988,1551
61.09666399999985,10.493143999999988,1725
60.77266399999985,10.493143999999988,1695
60.77266399999985,11.141143999999988,1650
62.06866399999984,9.197143999999987,2050
61.74466399999984,9.845143999999989,1996
61.420663999999846,9.845143999999989,1973
59.15266399999986,9.845143999999989,1670
59.47666399999986,9.845143999999989,1646
58.82866399999986,5.957143999999991,2085
58.180663999999865,7.25314399999999,1957
58.50466399999986,7.25314399999999,1990
58.50466399999986,6.60514399999999,1995
58.50466399999986,5.957143999999991,2053
58.82866399999986,8.54914399999999,1838
60.44866399999985,7.25314399999999,1838
60.44866399999985,7.90114399999999,1799
60.124663999999854,10.493143999999988,1636
60.44866399999985,9.197143999999987,1748
60.77266399999985,9.197143999999987,1760
60.77266399999985,8.54914399999999,1779
60.124663999999854,9.845143999999989,2015
60.44866399999985,10.493143999999988,1681
63.04066399999984,10.493143999999988,1974
62.06866399999984,9.845143999999989,2075
62.39266399999984,9.845143999999989,2083
62.71666399999984,9.845143999999989,2107
59.47666399999986,14.381143999999988,1600
59.47666399999986,13.733143999999989,1541
59.47666399999986,13.085143999999987,1517
59.800663999999855,12.437143999999988,1586
59.15266399999986,11.141143999999988,1515
59.15266399999986,14.381143999999988,1614
58.82866399999986,11.789143999999988,1495
58.50466399999986,12.437143999999988,1425
58.180663999999865,12.437143999999988,1418
57.85666399999987,11.789143999999988,1369
62.71666399999984,7.90114399999999,2136
62.39266399999984,7.90114399999999,2093
62.06866399999984,8.54914399999999,2068
60.44866399999985,5.309143999999991,1984
60.44866399999985,5.957143999999991,1951
60.77266399999985,5.957143999999991,1940
62.39266399999984,11.141143999999988,1871
62.06866399999984,10.493143999999988,1826
61.74466399999984,11.141143999999988,1799
61.420663999999846,11.141143999999988,1753
61.09666399999985,11.141143999999988,1736
60.77266399999985,11.789143999999988,1713
63.04066399999984,11.141143999999988,1952
62.71666399999984,11.141143999999988,1895
62.39266399999984,10.493143999999988,1853
67.25266399999981,15.677143999999986,2870
67.25266399999981,15.029143999999986,2908
67.25266399999981,14.381143999999988,2936
66.92866399999981,15.029143999999986,2859
66.60466399999981,15.677143999999986,2837
64.01266399999983,11.141143999999988,2108
66.60466399999981,15.029143999999986,2900
54.29266399999989,18.269143999999983,775
54.616663999999886,17.621143999999987,720
53.96866399999989,18.269143999999983,771
43.92466399999995,1.4211439999999929,902
44.24866399999995,0.7731439999999932,863
44.572663999999946,0.1251439999999934,849
46.84066399999993,1.4211439999999929,826
44.572663999999946,1.4211439999999929,1390
44.24866399999995,1.4211439999999929,1374
45.54466399999994,1.4211439999999929,888
46.516663999999935,1.4211439999999929,842
42.30466399999996,2.717143999999992,1471
44.24866399999995,2.717143999999992,1386
44.572663999999946,2.717143999999992,1353
43.92466399999995,2.0691439999999925,1359
42.30466399999996,2.0691439999999925,1512
42.62866399999996,2.0691439999999925,1419
42.62866399999996,1.4211439999999929,1412
42.95266399999996,1.4211439999999929,1405
43.276663999999954,1.4211439999999929,1350
46.516663999999935,-1.170856000000006,905
46.19266399999994,-1.170856000000006,866
45.86866399999994,-0.5228560000000062,884
45.54466399999994,-0.5228560000000062,864
48.46066399999992,1.4211439999999929,685
41.332663999999966,2.0691439999999925,1714
41.98066399999996,2.717143999999992,1673
48.46066399999992,-1.8188560000000056,838
47.81266399999993,0.7731439999999932,733
46.84066399999993,0.7731439999999932,811
44.572663999999946,-1.170856000000006,805
43.60066399999995,-1.170856000000006,1351
43.276663999999954,-1.8188560000000056,1386
43.276663999999954,0.1251439999999934,1420
42.95266399999996,0.1251439999999934,1424
43.276663999999954,-0.5228560000000062,1388
43.60066399999995,-0.5228560000000062,1376
47.81266399999993,-3.7628560000000046,1435
47.48866399999993,-2.4668560000000053,894
47.81266399999993,-0.5228560000000062,1325
46.516663999999935,-1.8188560000000056,1386
48.136663999999925,-1.170856000000006,822
47.48866399999993,-1.170856000000006,1321
45.22066399999994,8.54914399999999,676
45.22066399999994,7.90114399999999,695
46.19266399999994,-0.5228560000000062,822
46.516663999999935,-0.5228560000000062,1353
48.78466399999992,-3.114856000000005,1458
50.72866399999991,2.0691439999999925,660
50.40466399999991,2.0691439999999925,687
40.36066399999997,-3.7628560000000046,1905
41.65666399999997,-1.170856000000006,1822
41.332663999999966,1.4211439999999929,1760
43.276663999999954,13.733143999999989,4390
42.95266399999996,13.733143999999989,4412
41.65666399999997,15.029143999999986,4496
40.68466399999997,17.621143999999987,4658
43.60066399999995,13.085143999999987,4383
41.65666399999997,12.437143999999988,3049
41.65666399999997,13.085143999999987,3068
41.98066399999996,13.085143999999987,3118
41.65666399999997,13.733143999999989,3120
41.332663999999966,13.733143999999989,3112
41.332663999999966,14.381143999999988,3269
41.00866399999997,14.381143999999988,3175
41.332663999999966,13.085143999999987,3094
41.00866399999997,15.029143999999986,3375
41.98066399999996,13.733143999999989,3317
42.30466399999996,14.381143999999988,3456
42.30466399999996,12.437143999999988,3057
42.62866399999996,12.437143999999988,3236
42.95266399999996,12.437143999999988,3521
42.30466399999996,11.789143999999988,3066
42.95266399999996,11.789143999999988,3276
42.62866399999996,11.789143999999988,3267
43.276663999999954,11.789143999999988,3330
42.95266399999996,13.085143999999987,4284
42.30466399999996,13.085143999999987,3343
43.276663999999954,13.085143999999987,4332
43.276663999999954,12.437143999999988,4339
42.62866399999996,11.141143999999988,3112
42.95266399999996,11.141143999999988,3155
42.95266399999996,10.493143999999988,3173
44.572663999999946,8.54914399999999,710
44.89666399999994,7.90114399999999,692
44.89666399999994,9.197143999999987,732
44.24866399999995,7.90114399999999,714
44.572663999999946,7.90114399999999,701
43.92466399999995,7.90114399999999,1443
44.24866399999995,7.25314399999999,756
44.89666399999994,7.25314399999999,738
45.22066399999994,7.25314399999999,718
45.54466399999994,7.90114399999999,698
44.572663999999946,7.25314399999999,1342
52.996663999999896,22.805143999999984,1255
52.996663999999896,23.45314399999998,1284
51.37666399999991,22.15714399999998,721
51.37666399999991,22.805143999999984,725
50.08066399999991,20.213143999999986,546
50.72866399999991,20.213143999999986,563
50.40466399999991,20.213143999999986,553
50.08066399999991,20.86114399999998,547
50.08066399999991,21.50914399999997,535
50.08066399999991,22.15714399999998,546
50.08066399999991,22.805143999999984,594
53.96866399999989,22.805143999999984,1396
53.64466399999989,23.45314399999998,1352
53.32066399999989,23.45314399999998,1307
50.40466399999991,19.565143999999982,530
50.08066399999991,18.917143999999983,530
50.08066399999991,18.269143999999983,420
52.0246639999999,22.805143999999984,766
52.0246639999999,23.45314399999998,780
51.37666399999991,19.565143999999982,1299
51.05266399999991,19.565143999999982,608
50.72866399999991,18.917143999999983,553
50.72866399999991,19.565143999999982,577
49.75666399999992,18.917143999999983,438
50.40466399999991,18.269143999999983,489
53.64466399999989,19.565143999999982,1288
53.96866399999989,18.917143999999983,813
53.64466399999989,18.917143999999983,823
53.64466399999989,20.213143999999986,1250
52.996663999999896,18.917143999999983,721
52.996663999999896,18.269143999999983,685
53.32066399999989,18.917143999999983,856
50.72866399999991,17.621143999999987,510
50.72866399999991,18.269143999999983,493
52.6726639999999,16.325143999999987,605
52.996663999999896,16.325143999999987,590
52.996663999999896,15.677143999999986,564
53.32066399999989,15.677143999999986,564
53.32066399999989,15.029143999999986,535
53.64466399999989,15.029143999999986,580
53.96866399999989,15.029143999999986,602
52.6726639999999,18.917143999999983,793
53.32066399999989,16.325143999999987,697
52.6726639999999,15.029143999999986,490
51.05266399999991,22.805143999999984,716
51.05266399999991,23.45314399999998,761
50.72866399999991,22.15714399999998,603
50.40466399999991,22.15714399999998,563
51.05266399999991,22.15714399999998,678
54.616663999999886,16.973143999999984,666
54.29266399999989,16.325143999999987,615
53.96866399999989,15.677143999999986,580
50.72866399999991,21.50914399999997,591
50.40466399999991,21.50914399999997,577
50.40466399999991,17.621143999999987,541
53.32066399999989,22.805143999999984,1277
53.64466399999989,22.15714399999998,1336
54.29266399999989,16.973143999999984,642
50.72866399999991,20.86114399999998,601
51.700663999999904,22.805143999999984,828
51.05266399999991,21.50914399999997,770
50.08066399999991,19.565143999999982,544
52.0246639999999,18.917143999999983,8488
52.0246639999999,19.565143999999982,8481
53.64466399999989,18.269143999999983,765
51.700663999999904,20.213143999999986,654
53.32066399999989,19.565143999999982,1279
50.72866399999991,23.45314399999998,841
50.72866399999991,22.805143999999984,811
49.43266399999992,20.213143999999986,431
49.75666399999992,21.50914399999997,491
49.75666399999992,22.15714399999998,479
49.43266399999992,22.15714399999998,470
51.05266399999991,18.917143999999983,597
51.05266399999991,18.269143999999983,498
53.32066399999989,16.973143999999984,638
53.64466399999989,16.973143999999984,660
49.75666399999992,20.86114399999998,521
50.40466399999991,22.805143999999984,8570
53.64466399999989,16.325143999999987,633
53.96866399999989,20.86114399999998,1506
54.29266399999989,20.86114399999998,1525
53.96866399999989,21.50914399999997,1465
53.64466399999989,15.677143999999986,544
53.96866399999989,20.213143999999986,1270
53.96866399999989,19.565143999999982,908
54.29266399999989,19.565143999999982,922
53.96866399999989,16.325143999999987,604
53.64466399999989,17.621143999999987,673
53.96866399999989,22.15714399999998,1382
53.64466399999989,21.50914399999997,1574
53.64466399999989,20.86114399999998,1352
52.6726639999999,15.677143999999986,498
51.05266399999991,20.213143999999986,1249
54.940663999999884,24.101143999999977,3681
54.616663999999886,23.45314399999998,3625
54.29266399999989,23.45314399999998,3488
53.64466399999989,22.805143999999984,1326
53.96866399999989,16.973143999999984,694
50.40466399999991,20.86114399999998,1306
53.32066399999989,18.269143999999983,888
49.75666399999992,19.565143999999982,491
50.40466399999991,23.45314399999998,925
49.75666399999992,20.213143999999986,470
49.43266399999992,19.565143999999982,405
49.43266399999992,20.86114399999998,513
53.96866399999989,17.621143999999987,1323
42.30466399999996,-1.8188560000000056,8799
41.98066399999996,-1.8188560000000056,8782
41.65666399999997,0.7731439999999932,8786
42.62866399999996,-1.8188560000000056,8914
42.95266399999996,-1.8188560000000056,8943
42.62866399999996,-3.114856000000005,9037
42.95266399999996,-2.4668560000000053,9015
42.62866399999996,-7.650856000000003,9379
42.30466399999996,-7.650856000000003,9439
42.30466399999996,-8.946856000000002,9575
42.30466399999996,-8.298856000000002,9549
41.98066399999996,-8.298856000000002,9538
42.30466399999996,-7.002856000000003,9321
42.62866399999996,-6.354856000000003,9263
42.30466399999996,-6.354856000000003,9218
42.62866399999996,-5.706856000000004,8718
41.98066399999996,-4.410856000000004,8672
42.30466399999996,-3.7628560000000046,9063
40.03666399999997,-0.5228560000000062,8766
39.38866399999998,-0.5228560000000062,8814
41.00866399999997,0.7731439999999932,8914
40.68466399999997,0.7731439999999932,8946
40.36066399999997,0.1251439999999934,9024
39.712663999999975,-0.5228560000000062,8923
38.41666399999998,-0.5228560000000062,8935
39.06466399999998,-0.5228560000000062,9057
38.74066399999998,-1.170856000000006,8943
41.332663999999966,0.7731439999999932,8974
41.65666399999997,2.717143999999992,8574
41.65666399999997,2.0691439999999925,8597
41.332663999999966,0.1251439999999934,8932
41.332663999999966,-0.5228560000000062,8876
41.65666399999997,-4.410856000000004,8646
40.03666399999997,-2.4668560000000053,8884
41.00866399999997,-4.410856000000004,8767
43.276663999999954,-5.706856000000004,8848
39.38866399999998,-1.170856000000006,8909
38.09266399999999,-1.170856000000006,9322
38.74066399999998,-0.5228560000000062,9085
37.76866399999999,-1.170856000000006,9387
39.06466399999998,-1.8188560000000056,8907
39.38866399999998,-3.114856000000005,8807
39.38866399999998,-2.4668560000000053,8863
39.06466399999998,-2.4668560000000053,8890
39.06466399999998,-3.114856000000005,8811
39.06466399999998,-3.7628560000000046,8785
38.74066399999998,-3.7628560000000046,8864
40.03666399999997,-3.7628560000000046,8763
40.03666399999997,-3.114856000000005,8963
40.03666399999997,-1.8188560000000056,9044
39.712663999999975,-1.8188560000000056,9009
39.712663999999975,-1.170856000000006,8945
40.36066399999997,-1.170856000000006,8964
40.68466399999997,-1.170856000000006,8942
41.00866399999997,-1.170856000000006,8930
41.332663999999966,-1.170856000000006,8770
43.276663999999954,-8.298856000000002,9539
42.95266399999996,-8.298856000000002,9507
41.65666399999997,-5.706856000000004,65535
41.98066399999996,-7.002856000000003,65535
41.98066399999996,-6.354856000000003,65535
41.332663999999966,-5.058856000000004,8885
43.276663999999954,-3.7628560000000046,9320
42.95266399999996,-4.410856000000004,9254
42.62866399999996,-4.410856000000004,9244
42.30466399999996,-4.410856000000004,9203
41.00866399999997,-5.706856000000004,8823
41.332663999999966,-1.8188560000000056,8716
40.68466399999997,-3.114856000000005,8670
41.00866399999997,-3.114856000000005,8721
41.00866399999997,-2.4668560000000053,8744
41.332663999999966,-2.4668560000000053,8797
40.68466399999997,-4.410856000000004,8707
40.36066399999997,-4.410856000000004,8791
40.68466399999997,-3.7628560000000046,8699
40.36066399999997,-3.114856000000005,8677
41.65666399999997,-2.4668560000000053,8814
38.09266399999999,-3.7628560000000046,8911
38.74066399999998,-3.114856000000005,8855
37.76866399999999,-3.7628560000000046,8968
39.712663999999975,-3.114856000000005,8799
38.41666399999998,-3.7628560000000046,8876
40.03666399999997,-4.410856000000004,65535
40.03666399999997,-5.058856000000004,65535
39.38866399999998,-6.354856000000003,65535
39.38866399999998,-7.002856000000003,65535
42.95266399999996,-3.114856000000005,9448
41.98066399999996,-1.170856000000006,8811
42.30466399999996,-2.4668560000000053,8852
41.65666399999997,-0.5228560000000062,8909
41.98066399999996,-0.5228560000000062,8746
41.65666399999997,0.1251439999999934,8773
41.98066399999996,0.1251439999999934,8795
37.76866399999999,-5.058856000000004,8847
36.79666399999999,-4.410856000000004,8906
38.74066399999998,-4.410856000000004,8803
37.12066399999999,-4.410856000000004,8880
37.44466399999999,-5.058856000000004,9404
37.44466399999999,-7.002856000000003,65535
37.44466399999999,-6.354856000000003,65535
37.44466399999999,-5.706856000000004,9080
39.712663999999975,-3.7628560000000046,8873
42.62866399999996,-8.946856000000002,65535
42.30466399999996,-5.706856000000004,9225
42.30466399999996,-5.058856000000004,9310
42.95266399999996,-5.706856000000004,8750
41.00866399999997,-5.058856000000004,8791
40.68466399999997,-5.058856000000004,8765
41.65666399999997,-5.058856000000004,65535
41.65666399999997,-6.354856000000003,65535
36.79666399999999,-6.354856000000003,65535
37.12066399999999,-5.706856000000004,9248
37.76866399999999,-5.706856000000004,9047
38.09266399999999,-4.410856000000004,9182
37.12066399999999,-5.058856000000004,9202
36.79666399999999,-5.058856000000004,9160
37.76866399999999,-4.410856000000004,65535
37.76866399999999,-7.002856000000003,65535
38.41666399999998,-6.354856000000003,65535
38.09266399999999,-6.354856000000003,65535
48.78466399999992,1.4211439999999929,763
56.23666399999988,8.54914399999999,7090
55.58866399999988,9.197143999999987,6895
55.91266399999988,9.197143999999987,7036
55.26466399999988,10.493143999999988,1074
55.91266399999988,12.437143999999988,1209
55.58866399999988,11.789143999999988,6735
55.58866399999988,11.141143999999988,6776
55.26466399999988,11.789143999999988,6768
55.58866399999988,10.493143999999988,6891
55.58866399999988,13.085143999999987,1166
56.88466399999987,9.845143999999989,7042
57.20866399999987,9.845143999999989,7077
56.56066399999988,9.845143999999989,7014
56.88466399999987,8.54914399999999,7129
54.940663999999884,9.845143999999989,8236
54.940663999999884,11.789143999999988,6992
55.91266399999988,13.085143999999987,1224
56.23666399999988,13.733143999999989,1268
55.91266399999988,13.733143999999989,1271
56.23666399999988,14.381143999999988,1291
56.23666399999988,15.029143999999986,1332
56.23666399999988,15.677143999999986,1387
56.56066399999988,14.381143999999988,1348
56.88466399999987,14.381143999999988,1318
56.23666399999988,13.085143999999987,1216
56.56066399999988,13.085143999999987,1296
56.88466399999987,12.437143999999988,1333
57.20866399999987,12.437143999999988,1349
57.53266399999987,12.437143999999988,1364
56.88466399999987,15.029143999999986,1344
56.56066399999988,15.677143999999986,1404
56.88466399999987,15.677143999999986,1423
56.88466399999987,16.325143999999987,1438
55.91266399999988,11.789143999999988,7061
57.20866399999987,10.493143999999988,7264
49.43266399999992,1.4211439999999929,727
49.75666399999992,0.7731439999999932,762
49.75666399999992,2.0691439999999925,693
50.08066399999991,2.717143999999992,701
49.75666399999992,1.4211439999999929,734
47.81266399999993,1.4211439999999929,774
48.136663999999925,2.0691439999999925,772
48.46066399999992,2.0691439999999925,716
48.136663999999925,1.4211439999999929,744
48.78466399999992,0.1251439999999934,832
48.46066399999992,0.1251439999999934,755
47.81266399999993,0.1251439999999934,1346
46.84066399999993,-0.5228560000000062,809
47.16466399999993,0.7731439999999932,735
46.84066399999993,0.1251439999999934,796
46.84066399999993,-1.170856000000006,877
50.08066399999991,1.4211439999999929,712
50.08066399999991,2.0691439999999925,734
49.43266399999992,2.717143999999992,676
49.75666399999992,3.365143999999992,664
50.08066399999991,3.365143999999992,682
49.10866399999992,2.0691439999999925,695
49.43266399999992,2.0691439999999925,679
48.78466399999992,0.7731439999999932,788
48.78466399999992,-0.5228560000000062,861
48.78466399999992,-1.170856000000006,891
48.136663999999925,0.7731439999999932,775
48.46066399999992,0.7731439999999932,722
43.92466399999995,5.957143999999991,1346
44.24866399999995,5.957143999999991,1317
43.92466399999995,5.309143999999991,1308
42.95266399999996,2.717143999999992,1310
45.54466399999994,2.0691439999999925,1409
45.22066399999994,2.0691439999999925,1365
42.95266399999996,2.0691439999999925,1410
42.95266399999996,0.7731439999999932,1375
43.276663999999954,0.7731439999999932,1345
46.19266399999994,0.7731439999999932,818
46.516663999999935,0.7731439999999932,788
45.86866399999994,0.1251439999999934,1347
46.19266399999994,0.1251439999999934,1364
47.81266399999993,-1.170856000000006,1456
48.136663999999925,-2.4668560000000053,1368
47.48866399999993,-1.8188560000000056,878
47.16466399999993,-1.170856000000006,844
47.16466399999993,-0.5228560000000062,828
46.84066399999993,-1.8188560000000056,1440
45.22066399999994,-0.5228560000000062,805
44.89666399999994,0.1251439999999934,842
45.22066399999994,0.7731439999999932,881
45.54466399999994,0.7731439999999932,916
45.86866399999994,0.7731439999999932,1412
45.22066399999994,0.1251439999999934,1353
44.89666399999994,0.7731439999999932,886
43.92466399999995,-0.5228560000000062,1387
43.92466399999995,-1.170856000000006,1331
44.24866399999995,-1.170856000000006,1311
45.22066399999994,-1.170856000000006,1433
44.572663999999946,-0.5228560000000062,824
44.24866399999995,0.1251439999999934,871
44.572663999999946,0.7731439999999932,1380
43.276663999999954,-1.170856000000006,1370
42.95266399999996,-0.5228560000000062,1572
44.24866399999995,2.0691439999999925,1359
43.60066399999995,0.7731439999999932,1332
43.60066399999995,2.0691439999999925,1333
52.6726639999999,4.661143999999991,7081
52.6726639999999,5.309143999999991,7104
51.700663999999904,5.309143999999991,7049
52.0246639999999,5.309143999999991,7061
52.3486639999999,5.309143999999991,7077
51.37666399999991,4.013143999999992,7057
52.3486639999999,5.957143999999991,7071
52.0246639999999,6.60514399999999,7101
52.6726639999999,5.957143999999991,7088
52.996663999999896,5.957143999999991,7101
53.32066399999989,5.957143999999991,7095
52.996663999999896,6.60514399999999,7077
53.32066399999989,6.60514399999999,7069
52.6726639999999,6.60514399999999,7097
52.996663999999896,5.309143999999991,7116
59.15266399999986,24.101143999999977,65535
56.88466399999987,24.101143999999977,65535
56.88466399999987,23.45314399999998,65535
56.88466399999987,22.805143999999984,65535
57.20866399999987,24.74914399999998,65535
56.88466399999987,24.74914399999998,65535
56.56066399999988,24.74914399999998,65535
56.56066399999988,25.397143999999983,65535
56.56066399999988,24.101143999999977,65535
56.56066399999988,23.45314399999998,65535
56.56066399999988,26.04514399999998,65535
56.88466399999987,26.04514399999998,65535
57.20866399999987,25.397143999999983,65535
57.53266399999987,25.397143999999983,65535
56.23666399999988,26.04514399999998,65535
56.23666399999988,26.69314399999997,65535
55.91266399999988,26.69314399999997,65535
56.56066399999988,26.69314399999997,65535
56.56066399999988,27.34114399999998,65535
56.56066399999988,27.989143999999985,65535
56.23666399999988,27.989143999999985,65535
55.91266399999988,27.34114399999998,65535
56.56066399999988,22.805143999999984,65535
56.56066399999988,22.15714399999998,65535
56.56066399999988,21.50914399999997,65535
57.20866399999987,26.69314399999997,65535
39.06466399999998,-8.946856000000002,65535
38.41666399999998,-8.298856000000002,65535
45.86866399999994,11.789143999999988,2068
46.19266399999994,11.789143999999988,2055
46.19266399999994,10.493143999999988,2095
45.22066399999994,18.269143999999983,631
45.22066399999994,18.917143999999983,642
45.54466399999994,16.973143999999984,496
45.22066399999994,17.621143999999987,557
45.86866399999994,16.325143999999987,384
45.54466399999994,18.917143999999983,580
45.54466399999994,16.325143999999987,435
45.54466399999994,18.269143999999983,548
44.89666399999994,18.917143999999983,730
46.19266399999994,16.973143999999984,356
46.19266399999994,16.325143999999987,367
45.86866399999994,16.973143999999984,435
45.86866399999994,17.621143999999987,468
46.19266399999994,15.677143999999986,395
46.516663999999935,16.325143999999987,335
45.54466399999994,15.677143999999986,405
45.22066399999994,15.029143999999986,475
45.54466399999994,15.029143999999986,455
45.22066399999994,15.677143999999986,466
44.572663999999946,15.677143999999986,619
44.24866399999995,15.677143999999986,640
43.92466399999995,16.325143999999987,704
44.89666399999994,15.677143999999986,583
45.54466399999994,17.621143999999987,513
45.22066399999994,16.325143999999987,543
46.516663999999935,16.973143999999984,348
45.86866399999994,18.269143999999983,640
43.92466399999995,15.677143999999986,806
45.22066399999994,13.733143999999989,581
47.48866399999993,19.565143999999982,172
47.16466399999993,18.917143999999983,158
47.81266399999993,18.917143999999983,106
45.54466399999994,9.845143999999989,704
45.22066399999994,9.845143999999989,689
45.22066399999994,10.493143999999988,738
45.86866399999994,9.845143999999989,699
45.86866399999994,10.493143999999988,2838
48.78466399999992,21.50914399999997,316
49.10866399999992,20.213143999999986,401
49.10866399999992,18.917143999999983,366
48.46066399999992,17.621143999999987,47
49.43266399999992,17.621143999999987,312
49.10866399999992,17.621143999999987,172
48.136663999999925,18.269143999999983,138
49.10866399999992,18.269143999999983,233
49.43266399999992,18.269143999999983,291
49.43266399999992,16.973143999999984,361
49.75666399999992,16.973143999999984,374
49.75666399999992,16.325143999999987,419
50.08066399999991,15.677143999999986,362
50.08066399999991,15.029143999999986,357
49.43266399999992,18.917143999999983,355
47.81266399999993,20.86114399999998,235
48.136663999999925,20.86114399999998,266
48.46066399999992,20.86114399999998,308
48.46066399999992,21.50914399999997,312
49.10866399999992,19.565143999999982,397
48.136663999999925,17.621143999999987,26
48.78466399999992,22.15714399999998,415
48.78466399999992,20.86114399999998,447
49.10866399999992,20.86114399999998,395
48.78466399999992,18.269143999999983,172
48.78466399999992,17.621143999999987,149
49.10866399999992,21.50914399999997,376
48.78466399999992,20.213143999999986,455
48.46066399999992,20.213143999999986,496
48.136663999999925,19.565143999999982,645
48.46066399999992,19.565143999999982,524
48.46066399999992,18.917143999999983,266
48.46066399999992,18.269143999999983,90
48.78466399999992,19.565143999999982,290
48.78466399999992,18.917143999999983,208
47.81266399999993,18.269143999999983,70
49.10866399999992,22.15714399999998,456
49.43266399999992,21.50914399999997,454
48.136663999999925,18.917143999999983,346
48.136663999999925,20.213143999999986,665
52.636,-8.018,65535
52.312,-7.370000000000001,65535
52.312,-8.018,65535
52.636,-8.666,65535
51.988,-8.666,65535
51.988,-8.018,65535
52.96,-8.666,65535
52.96,-6.074000000000002,65535
53.28399999999999,-6.722000000000001,65535
53.60799999999999,-6.722000000000001,65535
53.60799999999999,-7.370000000000001,65535
53.60799999999999,-8.018,65535
54.25599999999999,-8.666,65535
53.93199999999999,-8.666,65535
53.93199999999999,-8.018,65535
52.312,-6.722000000000001,65535
52.636,-6.722000000000001,65535
53.93199999999999,-6.722000000000001,65535
54.25599999999999,-6.074000000000002,65535
53.28399999999999,-7.370000000000001,65535
52.96,-7.370000000000001,65535
52.312,-8.666,65535
52.96,-8.018,65535
52.636,-7.370000000000001,65535
52.96,-6.722000000000001,65535
51.988,-9.314,65535
52.312,-9.314,65535
54.579999999999984,-6.722000000000001,65535
54.579999999999984,-6.074000000000002,65535
53.28399999999999,-8.018,65535
53.28399999999999,-8.666,65535
53.28399999999999,-9.314,65535
53.93199999999999,-9.314,65535
54.25599999999999,-9.314,65535
53.60799999999999,-8.666,65535
53.60799999999999,-9.314,65535
49.43266399999992,14.381143999999988,395
49.75666399999992,14.381143999999988,383
49.75666399999992,15.029143999999986,372
49.75666399999992,13.733143999999989,417
50.08066399999991,13.733143999999989,409
49.75666399999992,15.677143999999986,416
50.40466399999991,15.029143999999986,375
49.43266399999992,13.733143999999989,431
50.40466399999991,15.677143999999986,407
50.40466399999991,13.733143999999989,403
46.19266399999994,15.029143999999986,389
45.86866399999994,15.029143999999986,416
45.86866399999994,14.381143999999988,405
46.19266399999994,13.733143999999989,422
45.86866399999994,13.733143999999989,508
58.50466399999986,13.733143999999989,1442
58.180663999999865,13.733143999999989,1446
58.180663999999865,13.085143999999987,1418
57.85666399999987,12.437143999999988,1384
60.44866399999985,15.677143999999986,1667
60.124663999999854,15.677143999999986,1601
60.124663999999854,16.325143999999987,1639
59.800663999999855,16.325143999999987,1567
59.800663999999855,17.621143999999987,1546
59.47666399999986,18.269143999999983,1528
61.74466399999984,16.973143999999984,1678
61.420663999999846,16.973143999999984,1651
60.77266399999985,16.973143999999984,1603
65.63266399999982,22.15714399999998,2782
65.95666399999982,21.50914399999997,2742
65.63266399999982,20.86114399999998,2713
64.98466399999982,20.213143999999986,2645
64.66066399999983,20.213143999999986,2623
64.33666399999983,19.565143999999982,2317
64.01266399999983,19.565143999999982,2030
63.68866399999983,20.213143999999986,1983
64.66066399999983,18.917143999999983,2994
59.15266399999986,16.325143999999987,1503
59.15266399999986,15.029143999999986,1495
59.15266399999986,17.621143999999987,1520
57.53266399999987,14.381143999999988,1344
57.53266399999987,15.029143999999986,1364
61.09666399999985,14.381143999999988,1771
60.77266399999985,15.029143999999986,1722
60.44866399999985,15.029143999999986,1708
58.180663999999865,15.029143999999986,1421
58.50466399999986,16.325143999999987,1455
58.50466399999986,15.677143999999986,1428
63.36466399999984,13.085143999999987,2015
63.04066399999984,14.381143999999988,1952
62.39266399999984,15.677143999999986,1874
63.36466399999984,13.733143999999989,1997
63.36466399999984,14.381143999999988,1969
62.71666399999984,15.677143999999986,1902
62.39266399999984,17.621143999999987,1736
59.800663999999855,15.677143999999986,2013
55.58866399999988,13.733143999999989,1298
57.20866399999987,14.381143999999988,1328
57.85666399999987,14.381143999999988,1376
58.82866399999986,16.973143999999984,1512
58.82866399999986,16.325143999999987,1490
59.15266399999986,18.269143999999983,1524
60.44866399999985,17.621143999999987,1579
59.15266399999986,12.437143999999988,1483
59.15266399999986,13.085143999999987,1497
58.82866399999986,12.437143999999988,1459
59.47666399999986,16.325143999999987,1529
58.82866399999986,14.381143999999988,1536
59.47666399999986,15.677143999999986,1518
63.36466399999984,18.917143999999983,1936
63.04066399999984,17.621143999999987,1891
62.71666399999984,17.621143999999987,1865
63.68866399999983,19.565143999999982,1969
62.39266399999984,16.973143999999984,1780
59.800663999999855,16.973143999999984,1555
59.47666399999986,17.621143999999987,1532
57.85666399999987,13.085143999999987,1408
57.53266399999987,13.085143999999987,1389
58.50466399999986,11.789143999999988,1430
57.85666399999987,15.029143999999986,1410
57.20866399999987,13.733143999999989,1334
57.53266399999987,13.733143999999989,1395
61.74466399999984,16.325143999999987,1774
61.420663999999846,16.325143999999987,1741
61.09666399999985,16.325143999999987,1730
61.09666399999985,16.973143999999984,1698
60.124663999999854,15.029143999999986,1876
66.60466399999981,20.86114399999998,2817
67.25266399999981,20.86114399999998,2885
67.90066399999981,20.213143999999986,2955
67.57666399999981,20.213143999999986,3580
59.800663999999855,15.029143999999986,1596
58.50466399999986,15.029143999999986,1438
59.47666399999986,15.029143999999986,1581
60.44866399999985,16.325143999999987,1667
59.15266399999986,15.677143999999986,1525
57.85666399999987,13.733143999999989,1436
58.82866399999986,13.733143999999989,1483
58.50466399999986,13.085143999999987,1468
57.20866399999987,13.085143999999987,1365
56.88466399999987,13.085143999999987,1339
58.180663999999865,11.789143999999988,1401
62.06866399999984,16.973143999999984,1769
65.95666399999982,23.45314399999998,2823
59.800663999999855,14.381143999999988,5891
59.800663999999855,18.269143999999983,1537
63.04066399999984,15.029143999999986,1920
62.71666399999984,15.029143999999986,1910
62.39266399999984,16.325143999999987,1843
63.36466399999984,12.437143999999988,2048
68.5486639999998,17.621143999999987,3168
68.5486639999998,18.269143999999983,3101
68.5486639999998,18.917143999999983,3078
68.2246639999998,18.917143999999983,3034
59.800663999999855,13.085143999999987,1600
60.124663999999854,13.085143999999987,1639
59.47666399999986,16.973143999999984,1541
59.15266399999986,16.973143999999984,1533
56.56066399999988,13.733143999999989,1286
60.124663999999854,17.621143999999987,1556
57.85666399999987,16.325143999999987,1515
58.180663999999865,16.325143999999987,1477
58.180663999999865,15.677143999999986,1485
57.20866399999987,16.325143999999987,1527
57.53266399999987,15.677143999999986,1545
57.85666399999987,15.677143999999986,1516
44.89666399999994,23.45314399999998,1525
44.572663999999946,23.45314399999998,1595
44.89666399999994,24.74914399999998,1512
44.572663999999946,24.74914399999998,1631
44.572663999999946,24.101143999999977,1572
44.24866399999995,24.101143999999977,1601
47.48866399999993,25.397143999999983,1373
47.48866399999993,24.74914399999998,1313
47.16466399999993,24.74914399999998,1235
47.16466399999993,24.101143999999977,1137
47.48866399999993,22.15714399999998,1267
47.81266399999993,22.15714399999998,1353
47.16466399999993,22.15714399999998,1246
47.16466399999993,23.45314399999998,1298
47.16466399999993,22.805143999999984,1304
46.84066399999993,24.101143999999977,1218
45.86866399999994,27.34114399999998,1558
45.54466399999994,27.34114399999998,1539
45.54466399999994,27.989143999999985,1655
45.86866399999994,20.86114399999998,1430
45.86866399999994,21.50914399999997,1438
46.19266399999994,21.50914399999997,1374
46.19266399999994,27.34114399999998,1558
46.19266399999994,26.69314399999997,1549
46.516663999999935,26.69314399999997,1511
46.516663999999935,26.04514399999998,1407
47.48866399999993,22.805143999999984,1365
46.84066399999993,22.805143999999984,1178
45.54466399999994,22.15714399999998,1487
45.22066399999994,22.15714399999998,1565
44.89666399999994,22.15714399999998,1983
47.48866399999993,23.45314399999998,1331
46.516663999999935,24.101143999999977,1057
46.516663999999935,24.74914399999998,1271
45.86866399999994,24.101143999999977,1220
47.16466399999993,26.69314399999997,1589
47.16466399999993,27.34114399999998,1644
43.92466399999995,25.397143999999983,1603
44.24866399999995,24.74914399999998,1510
44.89666399999994,26.04514399999998,1397
44.89666399999994,26.69314399999997,1444
45.22066399999994,26.69314399999997,1479
45.22066399999994,27.34114399999998,1506
46.84066399999993,26.69314399999997,1550
47.48866399999993,26.69314399999997,1543
44.24866399999995,25.397143999999983,1442
43.92466399999995,26.04514399999998,1619
46.19266399999994,24.101143999999977,1265
44.572663999999946,25.397143999999983,1480
46.84066399999993,24.74914399999998,1278
46.516663999999935,21.50914399999997,1378
46.84066399999993,21.50914399999997,1385
44.572663999999946,26.69314399999997,1435
44.572663999999946,27.34114399999998,1456
44.89666399999994,27.34114399999998,1571
44.572663999999946,27.989143999999985,1476
44.24866399999995,27.989143999999985,1490
44.572663999999946,28.63714399999997,1541
45.86866399999994,22.15714399999998,1299
45.86866399999994,22.805143999999984,1193
44.24866399999995,23.45314399999998,1628
43.92466399999995,27.989143999999985,65535
46.84066399999993,27.34114399999998,1711
45.22066399999994,23.45314399999998,1500
45.54466399999994,23.45314399999998,1303
45.54466399999994,24.101143999999977,1250
45.22066399999994,24.101143999999977,1474
44.89666399999994,24.101143999999977,1544
46.19266399999994,22.15714399999998,1430
46.516663999999935,22.15714399999998,1396
45.22066399999994,21.50914399999997,1670
45.54466399999994,21.50914399999997,1518
45.54466399999994,20.86114399999998,1542
46.516663999999935,27.989143999999985,1661
46.19266399999994,27.989143999999985,1646
45.54466399999994,25.397143999999983,1364
45.22066399999994,25.397143999999983,1374
45.22066399999994,26.04514399999998,1430
47.81266399999993,24.101143999999977,1426
47.48866399999993,26.04514399999998,1516
47.81266399999993,26.04514399999998,1538
46.19266399999994,23.45314399999998,1097
45.86866399999994,23.45314399999998,1146
44.24866399999995,26.04514399999998,1424
45.22066399999994,27.989143999999985,1636
45.86866399999994,24.74914399999998,1259
46.516663999999935,25.397143999999983,1451
46.84066399999993,25.397143999999983,1334
46.19266399999994,26.04514399999998,1422
45.86866399999994,26.04514399999998,1387
43.92466399999995,23.45314399999998,1858
44.89666399999994,25.397143999999983,1485
46.19266399999994,20.86114399999998,1419
47.81266399999993,25.397143999999983,1550
44.572663999999946,22.805143999999984,1863
44.572663999999946,22.15714399999998,2005
46.516663999999935,23.45314399999998,1236
45.86866399999994,25.397143999999983,1313
44.24866399999995,27.34114399999998,2251
45.22066399999994,24.74914399999998,1576
45.54466399999994,22.805143999999984,1266
45.22066399999994,28.63714399999997,1696
44.89666399999994,28.63714399999997,1635
47.81266399999993,23.45314399999998,1483
46.19266399999994,24.74914399999998,1345
46.19266399999994,25.397143999999983,1369
43.92466399999995,24.101143999999977,1821
43.92466399999995,24.74914399999998,1834
47.81266399999993,26.69314399999997,1765
47.48866399999993,24.101143999999977,1358
46.84066399999993,26.04514399999998,2166
46.19266399999994,22.805143999999984,1490
47.48866399999993,27.34114399999998,1718
46.19266399999994,20.213143999999986,65535
45.54466399999994,26.04514399999998,1522
44.24866399999995,26.69314399999997,1440
45.86866399999994,27.989143999999985,1694
47.81266399999993,5.957143999999991,7066
