51.56399999999999,-0.4100000000000028,65535
51.887999999999984,-0.4100000000000028,65535
50.91599999999999,-1.7060000000000022,65535
51.23999999999999,-1.0580000000000025,65535
51.56399999999999,-1.0580000000000025,65535
51.23999999999999,-1.7060000000000022,65535
51.56399999999999,0.2379999999999968,65535
47.16466399999993,9.845143999999989,617
47.48866399999993,9.845143999999989,612
48.136663999999925,14.381143999999988,640
47.81266399999993,13.085143999999987,609
47.16466399999993,11.141143999999988,650
47.48866399999993,11.789143999999988,721
48.136663999999925,16.325143999999987,694
47.48866399999993,12.437143999999988,594
48.136663999999925,15.677143999999986,720
47.16466399999993,10.493143999999988,918
47.16466399999993,9.197143999999987,613
48.136663999999925,13.733143999999989,616
48.136663999999925,15.029143999999986,739
47.81266399999993,16.973143999999984,835
48.46066399999992,14.381143999999988,904
47.48866399999993,13.085143999999987,599
47.16466399999993,13.085143999999987,610
47.48866399999993,14.381143999999988,871
47.48866399999993,13.733143999999989,1404
47.48866399999993,15.029143999999986,1272
46.516663999999935,13.733143999999989,1574
46.84066399999993,13.733143999999989,1600
46.84066399999993,13.085143999999987,1605
48.78466399999992,14.381143999999988,65535
47.16466399999993,15.677143999999986,1304
46.516663999999935,14.381143999999988,1554
46.84066399999993,14.381143999999988,1495
47.16466399999993,14.381143999999988,1445
46.516663999999935,15.029143999999986,1567
47.81266399999993,16.325143999999987,712
47.16466399999993,15.029143999999986,1273
47.81266399999993,15.677143999999986,958
47.48866399999993,15.677143999999986,1244
46.516663999999935,13.085143999999987,1934
46.84066399999993,12.437143999999988,1619
48.136663999999925,11.789143999999988,537
47.81266399999993,12.437143999999988,557
46.84066399999993,15.677143999999986,1381
46.516663999999935,15.677143999999986,1621
46.84066399999993,16.325143999999987,1403
47.81266399999993,14.381143999999988,805
48.78466399999992,16.973143999999984,652
48.136663999999925,16.973143999999984,681
48.46066399999992,13.733143999999989,577
47.81266399999993,13.733143999999989,674
50.08066399999991,8.54914399999999,520
48.46066399999992,9.845143999999989,565
51.05266399999991,7.25314399999999,477
51.37666399999991,7.25314399999999,471
51.37666399999991,6.60514399999999,473
48.46066399999992,16.325143999999987,708
48.46066399999992,16.973143999999984,667
48.78466399999992,16.325143999999987,711
48.46066399999992,15.677143999999986,720
48.78466399999992,15.677143999999986,757
47.48866399999993,16.325143999999987,1029
47.16466399999993,16.325143999999987,1326
46.19266399999994,14.381143999999988,1566
45.86866399999994,15.677143999999986,1603
43.60066399999995,16.325143999999987,2200
45.54466399999994,14.381143999999988,1679
45.54466399999994,13.733143999999989,1701
48.136663999999925,13.085143999999987,596
48.46066399999992,11.141143999999988,534
48.136663999999925,11.141143999999988,543
48.46066399999992,7.90114399999999,577
49.10866399999992,8.54914399999999,534
48.78466399999992,2.0691439999999925,608
49.10866399999992,7.25314399999999,591
52.0246639999999,7.90114399999999,490
47.16466399999993,11.789143999999988,672
49.43266399999992,11.141143999999988,501
53.64466399999989,9.845143999999989,475
50.72866399999991,4.013143999999992,510
51.05266399999991,11.141143999999988,454
47.48866399999993,11.141143999999988,573
46.84066399999993,11.789143999999988,2102
46.516663999999935,11.141143999999988,2071
45.54466399999994,11.141143999999988,1965
46.19266399999994,11.141143999999988,2037
45.86866399999994,11.141143999999988,2021
44.572663999999946,11.141143999999988,1812
43.92466399999995,12.437143999999988,4445
45.54466399999994,12.437143999999988,2052
45.54466399999994,11.789143999999988,2015
48.78466399999992,15.029143999999986,852
47.81266399999993,15.029143999999986,750
47.81266399999993,11.141143999999988,549
50.40466399999991,18.917143999999983,367
52.3486639999999,20.86114399999998,565
54.616663999999886,18.269143999999983,290
54.29266399999989,18.917143999999983,287
49.10866399999992,14.381143999999988,65535
50.08066399999991,14.381143999999988,432
48.78466399999992,13.733143999999989,2216
52.6726639999999,13.085143999999987,347
52.3486639999999,13.085143999999987,351
53.96866399999989,12.437143999999988,498
54.29266399999989,12.437143999999988,501
47.48866399999993,8.54914399999999,611
47.81266399999993,17.621143999999987,798
47.48866399999993,18.917143999999983,1200
47.48866399999993,20.86114399999998,1916
46.84066399999993,23.45314399999998,2398
44.572663999999946,26.04514399999998,2847
47.48866399999993,21.50914399999997,1952
47.81266399999993,21.50914399999997,2348
48.46066399999992,22.15714399999998,1291
47.48866399999993,16.973143999999984,65535
49.10866399999992,16.325143999999987,607
49.75666399999992,18.269143999999983,501
46.19266399999994,13.085143999999987,1650
41.98066399999996,12.437143999999988,3045
43.60066399999995,10.493143999999988,3206
45.54466399999994,9.197143999999987,728
47.81266399999993,22.805143999999984,2813
49.75666399999992,22.805143999999984,674
50.72866399999991,3.365143999999992,522
51.05266399999991,4.013143999999992,517
50.72866399999991,4.661143999999991,507
51.05266399999991,4.661143999999991,512
51.05266399999991,3.365143999999992,522
51.05266399999991,2.717143999999992,542
50.40466399999991,4.661143999999991,511
50.72866399999991,2.717143999999992,538
50.40466399999991,4.013143999999992,519
51.05266399999991,5.309143999999991,510
50.72866399999991,5.309143999999991,499
51.37666399999991,3.365143999999992,539
51.37666399999991,4.661143999999991,521
50.72866399999991,5.957143999999991,489
50.40466399999991,5.957143999999991,492
50.40466399999991,3.365143999999992,526
50.40466399999991,5.309143999999991,505
50.08066399999991,5.309143999999991,530
49.75666399999992,5.309143999999991,541
49.75666399999992,5.957143999999991,559
51.37666399999991,5.309143999999991,567
51.700663999999904,4.661143999999991,558
50.08066399999991,4.013143999999992,548
50.08066399999991,5.957143999999991,501
50.08066399999991,4.661143999999991,535
49.43266399999992,5.309143999999991,578
49.43266399999992,5.957143999999991,591
52.0246639999999,4.661143999999991,590
52.3486639999999,4.661143999999991,619
50.72866399999991,15.029143999999986,361
51.05266399999991,15.029143999999986,354
51.05266399999991,13.733143999999989,391
50.40466399999991,13.085143999999987,467
49.10866399999992,7.90114399999999,539
48.78466399999992,7.90114399999999,560
50.40466399999991,7.90114399999999,511
50.08066399999991,7.90114399999999,524
49.75666399999992,7.90114399999999,533
49.43266399999992,7.90114399999999,545
49.75666399999992,8.54914399999999,524
49.43266399999992,8.54914399999999,532
49.43266399999992,9.197143999999987,536
49.10866399999992,9.197143999999987,528
47.48866399999993,7.90114399999999,618
47.81266399999993,7.90114399999999,588
48.136663999999925,7.90114399999999,576
48.136663999999925,9.845143999999989,581
47.81266399999993,9.197143999999987,598
47.81266399999993,8.54914399999999,587
47.81266399999993,9.845143999999989,587
54.940663999999884,9.197143999999987,599
54.616663999999886,9.197143999999987,565
54.29266399999989,9.197143999999987,550
53.96866399999989,9.197143999999987,536
53.64466399999989,9.197143999999987,496
54.616663999999886,9.845143999999989,578
54.29266399999989,9.845143999999989,586
53.96866399999989,9.845143999999989,498
53.64466399999989,10.493143999999988,483
53.96866399999989,10.493143999999988,524
53.96866399999989,11.141143999999988,551
54.29266399999989,10.493143999999988,538
53.32066399999989,10.493143999999988,456
54.940663999999884,11.141143999999988,649
52.6726639999999,13.733143999999989,344
52.3486639999999,13.733143999999989,346
52.3486639999999,14.381143999999988,367
52.0246639999999,14.381143999999988,365
52.0246639999999,11.789143999999988,394
52.3486639999999,11.789143999999988,387
52.3486639999999,12.437143999999988,367
52.0246639999999,15.029143999999986,360
51.700663999999904,14.381143999999988,397
52.0246639999999,13.733143999999989,375
51.700663999999904,13.733143999999989,400
52.6726639999999,12.437143999999988,368
53.32066399999989,11.789143999999988,429
53.96866399999989,11.789143999999988,498
53.64466399999989,11.789143999999988,466
53.64466399999989,11.141143999999988,462
53.32066399999989,11.141143999999988,453
52.996663999999896,11.789143999999988,392
52.996663999999896,12.437143999999988,384
52.996663999999896,13.733143999999989,326
53.64466399999989,13.733143999999989,337
53.96866399999989,13.733143999999989,350
54.29266399999989,13.085143999999987,357
53.96866399999989,13.085143999999987,397
53.32066399999989,13.733143999999989,347
52.0246639999999,13.085143999999987,376
51.700663999999904,13.085143999999987,405
52.996663999999896,14.381143999999988,301
52.0246639999999,12.437143999999988,372
51.700663999999904,12.437143999999988,391
51.37666399999991,11.789143999999988,424
51.37666399999991,12.437143999999988,413
52.6726639999999,11.789143999999988,383
53.64466399999989,13.085143999999987,380
53.32066399999989,13.085143999999987,404
52.996663999999896,13.085143999999987,346
53.64466399999989,12.437143999999988,443
51.37666399999991,13.733143999999989,394
53.32066399999989,12.437143999999988,416
52.6726639999999,14.381143999999988,350
51.37666399999991,13.085143999999987,405
53.32066399999989,14.381143999999988,256
52.3486639999999,15.029143999999986,407
52.0246639999999,15.677143999999986,291
51.700663999999904,15.029143999999986,348
51.05266399999991,16.325143999999987,298
51.05266399999991,16.973143999999984,281
51.700663999999904,15.677143999999986,335
51.37666399999991,15.677143999999986,290
51.37666399999991,16.325143999999987,283
50.72866399999991,13.085143999999987,418
50.72866399999991,12.437143999999988,424
51.05266399999991,13.085143999999987,406
51.05266399999991,14.381143999999988,386
50.40466399999991,12.437143999999988,450
50.40466399999991,11.789143999999988,464
50.08066399999991,12.437143999999988,552
50.72866399999991,11.789143999999988,458
51.05266399999991,12.437143999999988,419
50.72866399999991,14.381143999999988,434
51.37666399999991,14.381143999999988,379
50.72866399999991,13.733143999999989,395
50.40466399999991,14.381143999999988,422
51.37666399999991,15.029143999999986,324
55.26466399999988,9.197143999999987,828
55.58866399999988,8.54914399999999,3562
55.91266399999988,8.54914399999999,7039
56.23666399999988,9.197143999999987,7047
56.23666399999988,10.493143999999988,7000
56.23666399999988,9.845143999999989,6987
55.91266399999988,9.845143999999989,6925
56.56066399999988,9.197143999999987,7057
56.56066399999988,8.54914399999999,7100
51.05266399999991,6.60514399999999,474
51.700663999999904,7.90114399999999,468
50.72866399999991,6.60514399999999,487
51.700663999999904,7.25314399999999,476
50.72866399999991,7.25314399999999,493
52.0246639999999,7.25314399999999,483
52.3486639999999,7.90114399999999,484
51.05266399999991,5.957143999999991,484
50.40466399999991,7.25314399999999,499
51.700663999999904,6.60514399999999,482
51.700663999999904,5.957143999999991,488
52.3486639999999,9.197143999999987,421
51.700663999999904,8.54914399999999,457
52.0246639999999,8.54914399999999,440
52.3486639999999,8.54914399999999,433
51.37666399999991,7.90114399999999,474
52.3486639999999,7.25314399999999,513
51.37666399999991,5.957143999999991,521
50.72866399999991,7.90114399999999,508
51.37666399999991,9.197143999999987,451
51.700663999999904,9.197143999999987,433
50.40466399999991,6.60514399999999,526
51.05266399999991,7.90114399999999,494
51.37666399999991,8.54914399999999,475
52.0246639999999,5.957143999999991,531
52.3486639999999,6.60514399999999,536
51.05266399999991,8.54914399999999,503
52.0246639999999,9.197143999999987,422
52.6726639999999,9.197143999999987,450
52.0246639999999,9.845143999999989,422
51.700663999999904,9.845143999999989,438
51.37666399999991,9.845143999999989,466
50.72866399999991,8.54914399999999,532
51.05266399999991,9.845143999999989,591
50.72866399999991,9.845143999999989,570
50.40466399999991,9.845143999999989,543
51.05266399999991,9.197143999999987,493
50.40466399999991,9.197143999999987,538
50.08066399999991,9.197143999999987,528
51.05266399999991,10.493143999999988,807
50.40466399999991,8.54914399999999,518
50.72866399999991,9.197143999999987,559
49.75666399999992,9.197143999999987,545
52.996663999999896,9.197143999999987,489
52.3486639999999,9.845143999999989,414
52.996663999999896,8.54914399999999,506
52.996663999999896,7.90114399999999,533
53.32066399999989,7.90114399999999,557
53.32066399999989,7.25314399999999,613
53.64466399999989,7.25314399999999,658
52.996663999999896,10.493143999999988,443
52.6726639999999,10.493143999999988,436
52.6726639999999,9.845143999999989,420
53.32066399999989,9.845143999999989,469
53.32066399999989,9.197143999999987,488
53.64466399999989,8.54914399999999,530
53.32066399999989,8.54914399999999,509
52.6726639999999,8.54914399999999,483
52.0246639999999,10.493143999999988,452
52.0246639999999,11.141143999999988,404
51.700663999999904,11.141143999999988,448
52.6726639999999,7.25314399999999,905
52.996663999999896,7.25314399999999,879
52.6726639999999,7.90114399999999,555
53.64466399999989,7.90114399999999,851
52.996663999999896,11.141143999999988,401
52.6726639999999,11.141143999999988,393
52.3486639999999,10.493143999999988,405
52.996663999999896,9.845143999999989,456
51.700663999999904,10.493143999999988,440
51.37666399999991,10.493143999999988,1266
51.700663999999904,11.789143999999988,433
52.3486639999999,11.141143999999988,399
51.37666399999991,11.141143999999988,440
51.05266399999991,11.789143999999988,445
49.10866399999992,11.141143999999988,507
48.78466399999992,11.141143999999988,521
48.46066399999992,11.789143999999988,530
49.43266399999992,11.789143999999988,512
50.08066399999991,11.789143999999988,512
49.75666399999992,12.437143999999988,537
49.10866399999992,11.789143999999988,513
48.78466399999992,12.437143999999988,535
48.46066399999992,12.437143999999988,552
49.10866399999992,12.437143999999988,524
48.78466399999992,13.085143999999987,562
48.136663999999925,12.437143999999988,583
47.81266399999993,11.789143999999988,549
48.136663999999925,10.493143999999988,605
47.81266399999993,10.493143999999988,617
48.78466399999992,10.493143999999988,537
47.48866399999993,10.493143999999988,636
48.46066399999992,10.493143999999988,544
49.43266399999992,13.085143999999987,533
48.46066399999992,13.085143999999987,611
49.43266399999992,10.493143999999988,510
49.75666399999992,9.845143999999989,515
49.75666399999992,10.493143999999988,498
50.40466399999991,11.141143999999988,471
50.08066399999991,11.141143999999988,485
50.72866399999991,11.141143999999988,466
49.75666399999992,11.141143999999988,496
48.78466399999992,11.789143999999988,538
50.40466399999991,10.493143999999988,583
50.08066399999991,9.845143999999989,534
50.08066399999991,10.493143999999988,494
49.43266399999992,12.437143999999988,544
49.75666399999992,11.789143999999988,525
49.10866399999992,13.085143999999987,530
50.72866399999991,10.493143999999988,821
49.10866399999992,10.493143999999988,513
48.78466399999992,9.845143999999989,550
48.46066399999992,8.54914399999999,554
48.46066399999992,9.197143999999987,550
48.78466399999992,9.197143999999987,535
48.78466399999992,8.54914399999999,542
50.08066399999991,7.25314399999999,530
49.75666399999992,6.60514399999999,557
49.43266399999992,6.60514399999999,568
49.10866399999992,6.60514399999999,583
49.43266399999992,7.25314399999999,608
49.75666399999992,7.25314399999999,564
49.10866399999992,5.957143999999991,630
48.78466399999992,7.25314399999999,579
50.08066399999991,6.60514399999999,554
47.48866399999993,9.197143999999987,606
48.136663999999925,8.54914399999999,565
48.136663999999925,9.197143999999987,564
47.81266399999993,7.25314399999999,612
49.43266399999992,9.845143999999989,525
49.10866399999992,9.845143999999989,518
53.64466399999989,14.381143999999988,333
50.08066399999991,13.085143999999987,506
49.75666399999992,13.085143999999987,515
45.86866399999994,9.197143999999987,725
46.19266399999994,9.197143999999987,709
46.516663999999935,8.54914399999999,710
46.516663999999935,9.197143999999987,737
46.19266399999994,8.54914399999999,701
47.16466399999993,8.54914399999999,619
45.86866399999994,4.661143999999991,720
46.84066399999993,9.845143999999989,633
45.22066399999994,5.957143999999991,771
45.22066399999994,5.309143999999991,772
45.86866399999994,5.957143999999991,720
45.54466399999994,5.957143999999991,731
44.89666399999994,4.661143999999991,744
44.89666399999994,5.309143999999991,809
44.572663999999946,4.661143999999991,776
44.24866399999995,4.661143999999991,789
43.92466399999995,4.661143999999991,783
46.19266399999994,7.25314399999999,670
48.78466399999992,5.957143999999991,623
48.136663999999925,6.60514399999999,614
48.46066399999992,6.60514399999999,606
48.78466399999992,6.60514399999999,606
47.16466399999993,7.90114399999999,621
48.136663999999925,7.25314399999999,595
48.46066399999992,7.25314399999999,592
46.516663999999935,6.60514399999999,676
46.84066399999993,6.60514399999999,652
46.84066399999993,7.25314399999999,632
46.516663999999935,5.957143999999991,705
46.19266399999994,5.957143999999991,707
46.84066399999993,8.54914399999999,636
46.84066399999993,7.90114399999999,625
45.86866399999994,5.309143999999991,748
46.19266399999994,6.60514399999999,697
45.86866399999994,6.60514399999999,673
47.48866399999993,6.60514399999999,656
47.48866399999993,7.25314399999999,628
47.16466399999993,7.25314399999999,637
49.10866399999992,4.013143999999992,657
49.75666399999992,4.661143999999991,597
49.43266399999992,4.661143999999991,635
49.10866399999992,5.309143999999991,670
46.19266399999994,4.661143999999991,726
46.84066399999993,9.197143999999987,624
46.19266399999994,5.309143999999991,727
46.516663999999935,5.309143999999991,705
45.54466399999994,6.60514399999999,801
45.54466399999994,5.309143999999991,739
43.60066399999995,4.013143999999992,806
43.60066399999995,3.365143999999992,844
42.62866399999996,2.717143999999992,912
43.276663999999954,2.717143999999992,876
45.54466399999994,4.661143999999991,725
45.22066399999994,4.661143999999991,733
47.16466399999993,5.309143999999991,700
47.16466399999993,5.957143999999991,673
46.19266399999994,7.90114399999999,666
49.75666399999992,2.717143999999992,601
49.10866399999992,2.717143999999992,593
48.78466399999992,2.717143999999992,606
45.86866399999994,3.365143999999992,859
46.84066399999993,3.365143999999992,778
46.516663999999935,3.365143999999992,768
46.19266399999994,3.365143999999992,835
47.16466399999993,6.60514399999999,668
49.10866399999992,3.365143999999992,623
45.54466399999994,4.013143999999992,747
46.516663999999935,7.25314399999999,653
47.16466399999993,4.661143999999991,720
46.84066399999993,4.661143999999991,731
46.516663999999935,4.661143999999991,741
46.84066399999993,5.957143999999991,670
47.81266399999993,3.365143999999992,707
47.48866399999993,4.013143999999992,713
48.136663999999925,4.013143999999992,704
47.81266399999993,4.013143999999992,725
47.48866399999993,4.661143999999991,707
47.16466399999993,3.365143999999992,806
46.84066399999993,4.013143999999992,1400
48.46066399999992,5.957143999999991,656
46.19266399999994,2.717143999999992,890
47.16466399999993,2.0691439999999925,721
46.516663999999935,2.717143999999992,862
46.84066399999993,2.717143999999992,756
46.84066399999993,2.0691439999999925,750
47.16466399999993,2.717143999999992,746
44.572663999999946,5.309143999999991,946
44.572663999999946,5.957143999999991,1340
44.89666399999994,6.60514399999999,807
44.572663999999946,6.60514399999999,1350
43.60066399999995,5.309143999999991,799
43.92466399999995,7.25314399999999,1401
43.60066399999995,6.60514399999999,1392
43.276663999999954,6.60514399999999,1379
43.276663999999954,5.957143999999991,852
45.86866399999994,8.54914399999999,729
45.54466399999994,8.54914399999999,732
48.136663999999925,3.365143999999992,684
48.46066399999992,3.365143999999992,663
48.46066399999992,2.717143999999992,652
47.48866399999993,5.309143999999991,745
46.516663999999935,9.845143999999989,644
46.84066399999993,10.493143999999988,1331
47.81266399999993,5.309143999999991,773
45.22066399999994,6.60514399999999,801
46.19266399999994,4.013143999999992,768
45.86866399999994,4.013143999999992,761
45.22066399999994,4.013143999999992,761
44.89666399999994,4.013143999999992,817
46.84066399999993,5.309143999999991,694
48.136663999999925,-1.8188560000000056,729
48.136663999999925,0.1251439999999934,689
48.136663999999925,-0.5228560000000062,686
47.48866399999993,-0.5228560000000062,729
47.16466399999993,-1.8188560000000056,740
47.48866399999993,0.7731439999999932,695
47.16466399999993,0.1251439999999934,743
45.86866399999994,7.25314399999999,679
48.136663999999925,5.309143999999991,753
49.10866399999992,4.661143999999991,675
48.46066399999992,4.013143999999992,684
48.136663999999925,4.661143999999991,743
47.81266399999993,6.60514399999999,691
47.48866399999993,5.957143999999991,850
48.136663999999925,5.957143999999991,1886
45.86866399999994,7.90114399999999,687
46.516663999999935,7.90114399999999,644
49.43266399999992,3.365143999999992,627
49.43266399999992,4.013143999999992,641
48.136663999999925,2.717143999999992,711
47.81266399999993,2.717143999999992,741
47.48866399999993,2.717143999999992,759
50.40466399999991,2.717143999999992,546
48.46066399999992,-4.410856000000004,873
48.46066399999992,-3.7628560000000046,830
48.46066399999992,-3.114856000000005,815
48.46066399999992,-2.4668560000000053,785
47.48866399999993,1.4211439999999929,718
47.16466399999993,1.4211439999999929,735
46.516663999999935,4.013143999999992,745
43.60066399999995,4.661143999999991,815
44.89666399999994,2.717143999999992,1409
45.22066399999994,2.717143999999992,1403
45.54466399999994,3.365143999999992,1290
45.22066399999994,3.365143999999992,1348
47.48866399999993,3.365143999999992,776
46.19266399999994,9.845143999999989,1373
47.81266399999993,2.0691439999999925,684
47.48866399999993,2.0691439999999925,697
45.86866399999994,2.717143999999992,1343
44.89666399999994,5.957143999999991,1331
45.22066399999994,1.4211439999999929,902
44.89666399999994,1.4211439999999929,1249
44.89666399999994,2.0691439999999925,1369
43.276663999999954,2.0691439999999925,1349
43.60066399999995,1.4211439999999929,924
48.78466399999992,4.661143999999991,693
48.78466399999992,5.309143999999991,670
46.19266399999994,2.0691439999999925,815
45.86866399999994,1.4211439999999929,836
46.19266399999994,1.4211439999999929,802
44.572663999999946,4.013143999999992,1533
44.89666399999994,3.365143999999992,1474
43.92466399999995,4.013143999999992,812
44.24866399999995,4.013143999999992,829
44.89666399999994,-0.5228560000000062,734
45.54466399999994,0.1251439999999934,754
46.516663999999935,0.1251439999999934,705
44.572663999999946,2.0691439999999925,1287
49.75666399999992,4.013143999999992,555
43.92466399999995,3.365143999999992,1416
43.92466399999995,2.717143999999992,1447
44.24866399999995,3.365143999999992,1472
44.572663999999946,3.365143999999992,1517
49.10866399999992,0.1251439999999934,677
49.43266399999992,0.7731439999999932,644
49.43266399999992,-1.8188560000000056,781
49.10866399999992,-1.170856000000006,757
49.10866399999992,-0.5228560000000062,712
49.10866399999992,0.7731439999999932,653
49.10866399999992,1.4211439999999929,647
47.81266399999993,-1.8188560000000056,786
47.81266399999993,-2.4668560000000053,811
47.81266399999993,-3.114856000000005,1369
48.136663999999925,-3.7628560000000046,1366
44.572663999999946,9.197143999999987,896
44.89666399999994,8.54914399999999,778
45.22066399999994,9.197143999999987,739
45.54466399999994,10.493143999999988,1327
44.572663999999946,10.493143999999988,1798
44.89666399999994,10.493143999999988,1393
44.89666399999994,9.845143999999989,881
48.46066399999992,5.309143999999991,740
50.91599999999999,-1.0580000000000025,65535
51.23999999999999,-0.4100000000000028,65535
50.91599999999999,-0.4100000000000028,65535
51.23999999999999,-2.354000000000002,65535
51.56399999999999,-2.354000000000002,65535
51.56399999999999,-3.0020000000000016,65535
50.91599999999999,-2.354000000000002,65535
53.50799999999997,-3.0020000000000016,65535
53.183999999999976,-2.354000000000002,65535
53.183999999999976,-3.0020000000000016,65535
52.85999999999998,-2.354000000000002,65535
52.21199999999998,-1.0580000000000025,65535
51.887999999999984,-1.0580000000000025,65535
52.53599999999998,-1.0580000000000025,65535
52.53599999999998,-1.7060000000000022,65535
52.85999999999998,-1.7060000000000022,65535
53.50799999999997,-2.354000000000002,65535
52.85999999999998,-1.0580000000000025,65535
52.53599999999998,1.5339999999999965,65535
52.53599999999998,0.8859999999999966,65535
52.53599999999998,0.2379999999999968,65535
52.53599999999998,-0.4100000000000028,65535
53.50799999999997,-1.7060000000000022,65535
53.183999999999976,-1.7060000000000022,65535
53.183999999999976,-1.0580000000000025,65535
52.85999999999998,-0.4100000000000028,65535
51.887999999999984,-2.354000000000002,65535
52.21199999999998,-2.354000000000002,65535
55.77599999999996,-2.354000000000002,65535
53.83199999999997,-1.0580000000000025,65535
53.83199999999997,-1.7060000000000022,65535
55.127999999999965,-1.7060000000000022,65535
54.80399999999997,-1.7060000000000022,65535
54.47999999999997,-1.7060000000000022,65535
54.15599999999997,-1.0580000000000025,65535
52.21199999999998,-1.7060000000000022,65535
53.50799999999997,-1.0580000000000025,65535
55.77599999999996,-3.0020000000000016,65535
55.45199999999996,-1.7060000000000022,65535
57.07199999999995,-2.354000000000002,65535
56.74799999999996,-3.0020000000000016,65535
56.42399999999996,-3.0020000000000016,65535
56.09999999999996,-3.650000000000001,65535
50.91599999999999,-3.0020000000000016,65535
50.91599999999999,-3.650000000000001,65535
50.59199999999999,-3.650000000000001,65535
50.59199999999999,-4.298000000000001,65535
51.23999999999999,-3.0020000000000016,65535
50.268,-4.946000000000001,65535
55.77599999999996,-3.650000000000001,65535
55.77599999999996,-4.298000000000001,65535
52.21199999999998,-0.4100000000000028,65535
52.53599999999998,-2.354000000000002,65535
51.56399999999999,-1.7060000000000022,65535
51.56399999999999,-3.650000000000001,65535
51.887999999999984,-4.298000000000001,65535
51.56399999999999,-4.298000000000001,65535
51.887999999999984,-1.7060000000000022,65535
52.21199999999998,-3.0020000000000016,65535
51.23999999999999,0.2379999999999968,65535
50.91599999999999,0.2379999999999968,65535
52.21199999999998,0.2379999999999968,65535
53.83199999999997,-3.0020000000000016,65535
54.15599999999997,-3.0020000000000016,65535
54.47999999999997,-3.0020000000000016,65535
55.127999999999965,-3.650000000000001,65535
54.80399999999997,-3.0020000000000016,65535
53.83199999999997,-2.354000000000002,65535
54.15599999999997,-0.4100000000000028,65535
54.47999999999997,-1.0580000000000025,65535
53.83199999999997,-0.4100000000000028,65535
53.183999999999976,-3.650000000000001,65535
53.183999999999976,-4.298000000000001,65535
52.85999999999998,-3.0020000000000016,65535
52.53599999999998,-3.0020000000000016,65535
51.887999999999984,-3.0020000000000016,65535
51.23999999999999,0.8859999999999966,65535
51.887999999999984,0.2379999999999968,65535
52.21199999999998,0.8859999999999966,65535
51.887999999999984,-4.946000000000001,65535
52.53599999999998,-3.650000000000001,65535
52.21199999999998,-4.298000000000001,65535
53.183999999999976,-0.4100000000000028,65535
51.23999999999999,-3.650000000000001,65535
51.887999999999984,-3.650000000000001,65535
52.21199999999998,-3.650000000000001,65535
51.56399999999999,0.8859999999999966,65535
51.887999999999984,0.8859999999999966,65535
52.85999999999998,0.8859999999999966,65535
53.50799999999997,-0.4100000000000028,65535
56.09999999999996,-4.298000000000001,65535
56.74799999999996,-4.946000000000001,65535
56.74799999999996,-4.298000000000001,65535
56.42399999999996,-4.946000000000001,65535
56.42399999999996,-4.298000000000001,65535
56.09999999999996,-4.946000000000001,65535
57.39599999999995,-4.298000000000001,65535
57.39599999999995,-3.0020000000000016,65535
57.39599999999995,-3.650000000000001,65535
56.42399999999996,-3.650000000000001,65535
57.07199999999995,-3.650000000000001,65535
57.07199999999995,-4.298000000000001,65535
56.74799999999996,-3.650000000000001,65535
59.15266399999986,27.34114399999998,65535
59.47666399999986,26.69314399999997,65535
59.47666399999986,26.04514399999998,65535
59.15266399999986,26.04514399999998,65535
59.15266399999986,24.74914399999998,65535
59.15266399999986,25.397143999999983,65535
59.47666399999986,25.397143999999983,65535
58.50466399999986,26.69314399999997,65535
58.82866399999986,26.69314399999997,65535
57.85666399999987,26.04514399999998,65535
58.180663999999865,26.04514399999998,65535
58.180663999999865,26.69314399999997,65535
58.82866399999986,26.04514399999998,65535
58.50466399999986,25.397143999999983,65535
58.82866399999986,25.397143999999983,65535
58.82866399999986,24.74914399999998,65535
58.180663999999865,27.34114399999998,65535
57.85666399999987,27.34114399999998,65535
63.68866399999983,27.34114399999998,7557
60.124663999999854,24.74914399999998,4213
60.44866399999985,24.74914399999998,4182
60.44866399999985,25.397143999999983,4194
60.77266399999985,25.397143999999983,4905
61.09666399999985,26.04514399999998,4948
60.77266399999985,26.04514399999998,4956
60.77266399999985,26.69314399999997,4975
61.09666399999985,25.397143999999983,4939
61.09666399999985,26.69314399999997,7678
61.420663999999846,26.69314399999997,7700
61.74466399999984,27.34114399999998,7724
62.06866399999984,27.34114399999998,7749
62.39266399999984,27.34114399999998,7773
62.71666399999984,27.34114399999998,7737
64.01266399999983,27.34114399999998,7513
63.36466399999984,27.34114399999998,7625
63.04066399999984,27.34114399999998,7665
63.04066399999984,27.989143999999985,7680
64.33666399999983,27.989143999999985,5264
64.33666399999983,27.34114399999998,5209
64.66066399999983,27.34114399999998,5194
64.66066399999983,26.69314399999997,5139
64.98466399999982,25.397143999999983,3559
64.66066399999983,26.04514399999998,5120
64.98466399999982,26.04514399999998,5104
66.28066399999982,25.397143999999983,3731
65.95666399999982,24.74914399999998,3472
65.63266399999982,24.74914399999998,3476
65.63266399999982,25.397143999999983,3518
65.30866399999982,25.397143999999983,3539
66.60466399999981,25.397143999999983,3765
64.01266399999983,24.74914399999998,3696
64.01266399999983,24.101143999999977,3731
64.01266399999983,23.45314399999998,3755
63.68866399999983,23.45314399999998,3767
63.68866399999983,22.805143999999984,3792
63.68866399999983,26.04514399999998,5824
63.68866399999983,25.397143999999983,5790
63.68866399999983,26.69314399999997,7524
60.44866399999985,26.69314399999997,8309
64.01266399999983,27.989143999999985,7943
62.71666399999984,22.805143999999984,3914
62.39266399999984,22.805143999999984,3946
62.06866399999984,22.805143999999984,3975
62.06866399999984,23.45314399999998,3991
61.74466399999984,23.45314399999998,4003
61.420663999999846,23.45314399999998,4051
61.09666399999985,23.45314399999998,4092
61.09666399999985,24.101143999999977,4099
61.09666399999985,24.74914399999998,4133
60.77266399999985,24.74914399999998,4149
63.04066399999984,21.50914399999997,65535
63.04066399999984,22.15714399999998,65535
63.04066399999984,22.805143999999984,3878
62.39266399999984,26.04514399999998,7921
62.06866399999984,25.397143999999983,7970
61.74466399999984,25.397143999999983,8038
61.74466399999984,24.74914399999998,8075
61.74466399999984,24.101143999999977,4280
61.420663999999846,24.101143999999977,4235
62.39266399999984,26.69314399999997,7892
64.66066399999983,25.397143999999983,3628
64.66066399999983,24.74914399999998,3646
64.33666399999983,24.74914399999998,3657
63.36466399999984,22.805143999999984,3817
67.25266399999981,24.101143999999977,7345
66.92866399999981,24.101143999999977,7309
66.60466399999981,23.45314399999998,7278
66.28066399999982,23.45314399999998,7260
66.28066399999982,24.101143999999977,7242
65.95666399999982,24.101143999999977,2844
60.124663999999854,24.101143999999977,5727
60.124663999999854,23.45314399999998,6585
60.44866399999985,22.805143999999984,6644
60.77266399999985,27.34114399999998,5027
61.09666399999985,27.989143999999985,5057
61.09666399999985,28.63714399999997,5095
61.420663999999846,29.28514399999997,5130
61.74466399999984,29.933143999999977,5167
62.06866399999984,29.933143999999977,5193
62.39266399999984,29.933143999999977,5209
62.71666399999984,29.933143999999977,5233
61.420663999999846,22.805143999999984,6338
61.420663999999846,22.15714399999998,7046
61.09666399999985,22.15714399999998,6384
61.420663999999846,21.50914399999997,7179
62.39266399999984,27.989143999999985,65535
62.06866399999984,27.989143999999985,65535
61.420663999999846,27.34114399999998,65535
63.04066399999984,29.933143999999977,7172
63.68866399999983,29.28514399999997,8955
63.36466399999984,29.28514399999997,8935
63.36466399999984,29.933143999999977,8894
60.44866399999985,27.34114399999998,65535
61.74466399999984,29.28514399999997,65535
62.39266399999984,30.58114399999998,65535
62.71666399999984,31.229143999999977,65535
62.71666399999984,29.28514399999997,65535
63.04066399999984,28.63714399999997,65535
66.60466399999981,26.04514399999998,6586
66.60466399999981,26.69314399999997,6622
66.60466399999981,27.34114399999998,6645
62.71666399999984,26.04514399999998,7806
62.71666399999984,25.397143999999983,7775
63.04066399999984,25.397143999999983,7595
63.36466399999984,25.397143999999983,6232
62.71666399999984,23.45314399999998,7800
62.39266399999984,24.101143999999977,65535
62.71666399999984,22.15714399999998,65535
62.39266399999984,22.15714399999998,65535
62.39266399999984,21.50914399999997,65535
61.09666399999985,21.50914399999997,6414
60.77266399999985,22.805143999999984,4452
60.44866399999985,22.15714399999998,4482
60.77266399999985,23.45314399999998,4439
60.77266399999985,21.50914399999997,5553
60.77266399999985,22.15714399999998,5506
60.124663999999854,22.805143999999984,8599
60.44866399999985,24.101143999999977,5712
62.06866399999984,24.74914399999998,65535
50.72866399999991,16.325143999999987,316
50.40466399999991,16.973143999999984,351
50.72866399999991,16.973143999999984,324
50.40466399999991,16.325143999999987,368
50.08066399999991,16.973143999999984,440
50.08066399999991,16.325143999999987,437
51.700663999999904,16.973143999999984,267
51.37666399999991,16.973143999999984,273
51.05266399999991,15.677143999999986,382
50.72866399999991,15.677143999999986,370
51.05266399999991,17.621143999999987,286
51.37666399999991,17.621143999999987,333
51.700663999999904,17.621143999999987,303
51.700663999999904,16.325143999999987,257
52.0246639999999,22.15714399999998,597
52.0246639999999,21.50914399999997,578
52.3486639999999,21.50914399999997,574
52.0246639999999,20.86114399999998,570
51.700663999999904,20.86114399999998,585
51.37666399999991,21.50914399999997,603
51.37666399999991,20.86114399999998,619
51.05266399999991,20.86114399999998,628
52.6726639999999,23.45314399999998,669
52.3486639999999,22.805143999999984,607
52.3486639999999,20.213143999999986,578
52.0246639999999,20.213143999999986,578
52.3486639999999,19.565143999999982,432
52.6726639999999,19.565143999999982,466
51.700663999999904,21.50914399999997,597
51.700663999999904,22.15714399999998,631
52.6726639999999,21.50914399999997,582
52.996663999999896,21.50914399999997,630
52.6726639999999,20.86114399999998,553
52.6726639999999,22.15714399999998,598
52.6726639999999,20.213143999999986,485
52.996663999999896,19.565143999999982,526
52.996663999999896,20.86114399999998,591
52.996663999999896,20.213143999999986,558
53.32066399999989,20.213143999999986,454
51.37666399999991,20.213143999999986,614
52.3486639999999,16.973143999999984,215
52.0246639999999,16.973143999999984,220
52.0246639999999,16.325143999999987,234
52.0246639999999,17.621143999999987,266
52.6726639999999,16.973143999999984,203
52.996663999999896,16.973143999999984,158
52.3486639999999,16.325143999999987,239
52.3486639999999,15.677143999999986,244
51.700663999999904,18.269143999999983,632
52.6726639999999,17.621143999999987,266
52.3486639999999,17.621143999999987,240
52.6726639999999,18.269143999999983,297
52.3486639999999,18.269143999999983,287
52.3486639999999,18.917143999999983,331
52.996663999999896,17.621143999999987,267
51.700663999999904,19.565143999999982,611
51.700663999999904,18.917143999999983,1293
51.37666399999991,18.269143999999983,351
58.82866399999986,9.197143999999987,1808
58.180663999999865,7.90114399999999,1901
58.50466399999986,8.54914399999999,1852
63.36466399999984,10.493143999999988,2023
63.36466399999984,11.141143999999988,2030
63.36466399999984,11.789143999999988,2065
63.68866399999983,11.789143999999988,2093
64.33666399999983,12.437143999999988,2494
64.66066399999983,12.437143999999988,2989
65.63266399999982,13.085143999999987,2646
65.95666399999982,13.085143999999987,2681
66.28066399999982,14.381143999999988,2751
65.95666399999982,13.733143999999989,2820
66.28066399999982,13.733143999999989,2729
65.30866399999982,13.085143999999987,2947
64.98466399999982,13.085143999999987,2581
64.01266399999983,11.789143999999988,2124
63.68866399999983,11.141143999999988,2061
59.800663999999855,10.493143999999988,1604
59.800663999999855,11.141143999999988,1587
60.124663999999854,11.141143999999988,1602
60.44866399999985,11.141143999999988,1615
60.124663999999854,11.789143999999988,1628
60.77266399999985,7.25314399999999,1864
60.77266399999985,6.60514399999999,1910
59.15266399999986,9.197143999999987,1690
59.47666399999986,9.197143999999987,1711
59.800663999999855,9.845143999999989,1606
59.47666399999986,11.141143999999988,1551
61.09666399999985,10.493143999999988,1725
60.77266399999985,10.493143999999988,1695
60.77266399999985,11.141143999999988,1650
62.06866399999984,9.197143999999987,2050
61.74466399999984,9.845143999999989,1996
61.420663999999846,9.845143999999989,1973
59.15266399999986,9.845143999999989,1670
59.47666399999986,9.845143999999989,1646
58.82866399999986,5.957143999999991,2085
58.180663999999865,7.25314399999999,1957
58.50466399999986,7.25314399999999,1990
58.50466399999986,6.60514399999999,1995
58.50466399999986,5.957143999999991,2053
58.82866399999986,8.54914399999999,1838
60.44866399999985,7.25314399999999,1838
60.44866399999985,7.90114399999999,1799
60.124663999999854,10.493143999999988,1636
60.44866399999985,9.197143999999987,1748
60.77266399999985,9.197143999999987,1760
60.77266399999985,8.54914399999999,1779
60.124663999999854,9.845143999999989,2015
60.44866399999985,10.493143999999988,1681
63.04066399999984,10.493143999999988,1974
62.06866399999984,9.845143999999989,2075
62.39266399999984,9.845143999999989,2083
62.71666399999984,9.845143999999989,2107
59.47666399999986,14.381143999999988,1600
59.47666399999986,13.733143999999989,1541
59.47666399999986,13.085143999999987,1517
59.800663999999855,12.437143999999988,1586
59.15266399999986,11.141143999999988,1515
59.15266399999986,14.381143999999988,1614
58.82866399999986,11.789143999999988,1495
58.50466399999986,12.437143999999988,1425
58.180663999999865,12.437143999999988,1418
57.85666399999987,11.789143999999988,1369
62.71666399999984,7.90114399999999,2136
62.39266399999984,7.90114399999999,2093
62.06866399999984,8.54914399999999,2068
60.44866399999985,5.309143999999991,1984
60.44866399999985,5.957143999999991,1951
60.77266399999985,5.957143999999991,1940
62.39266399999984,11.141143999999988,1871
62.06866399999984,10.493143999999988,1826
61.74466399999984,11.141143999999988,1799
61.420663999999846,11.141143999999988,1753
61.09666399999985,11.141143999999988,1736
60.77266399999985,11.789143999999988,1713
63.04066399999984,11.141143999999988,1952
62.71666399999984,11.141143999999988,1895
62.39266399999984,10.493143999999988,1853
67.25266399999981,15.677143999999986,2870
67.25266399999981,15.029143999999986,2908
67.25266399999981,14.381143999999988,2936
66.92866399999981,15.029143999999986,2859
66.60466399999981,15.677143999999986,2837
64.01266399999983,11.141143999999988,2108
66.60466399999981,15.029143999999986,2900
54.29266399999989,18.269143999999983,292
54.616663999999886,17.621143999999987,255
53.96866399999989,18.269143999999983,203
43.92466399999995,1.4211439999999929,902
44.24866399999995,0.7731439999999932,850
44.572663999999946,0.1251439999999934,802
46.84066399999993,1.4211439999999929,765
44.572663999999946,1.4211439999999929,1390
44.24866399999995,1.4211439999999929,1374
45.54466399999994,1.4211439999999929,876
46.516663999999935,1.4211439999999929,842
42.30466399999996,2.717143999999992,1471
44.24866399999995,2.717143999999992,1386
44.572663999999946,2.717143999999992,1353
43.92466399999995,2.0691439999999925,1359
42.30466399999996,2.0691439999999925,1512
42.62866399999996,2.0691439999999925,1419
42.62866399999996,1.4211439999999929,1412
42.95266399999996,1.4211439999999929,1405
43.276663999999954,1.4211439999999929,1350
46.516663999999935,-1.170856000000006,825
46.19266399999994,-1.170856000000006,802
45.86866399999994,-0.5228560000000062,820
45.54466399999994,-0.5228560000000062,776
48.46066399999992,1.4211439999999929,625
41.332663999999966,2.0691439999999925,1714
41.98066399999996,2.717143999999992,1673
48.46066399999992,-1.8188560000000056,763
47.81266399999993,0.7731439999999932,673
46.84066399999993,0.7731439999999932,730
44.572663999999946,-1.170856000000006,745
43.60066399999995,-1.170856000000006,808
43.276663999999954,-1.8188560000000056,855
43.276663999999954,0.1251439999999934,919
42.95266399999996,0.1251439999999934,893
43.276663999999954,-0.5228560000000062,865
43.60066399999995,-0.5228560000000062,842
47.81266399999993,-3.7628560000000046,1396
47.48866399999993,-2.4668560000000053,811
47.81266399999993,-0.5228560000000062,704
46.516663999999935,-1.8188560000000056,854
48.136663999999925,-1.170856000000006,706
47.48866399999993,-1.170856000000006,763
45.22066399999994,8.54914399999999,756
45.22066399999994,7.90114399999999,762
46.19266399999994,-0.5228560000000062,758
46.516663999999935,-0.5228560000000062,740
48.78466399999992,-3.114856000000005,855
50.72866399999991,2.0691439999999925,564
50.40466399999991,2.0691439999999925,563
40.36066399999997,-3.7628560000000046,1905
41.65666399999997,-1.170856000000006,1822
41.332663999999966,1.4211439999999929,1760
43.276663999999954,13.733143999999989,4390
42.95266399999996,13.733143999999989,4412
41.65666399999997,15.029143999999986,4496
40.68466399999997,17.621143999999987,4658
43.60066399999995,13.085143999999987,4383
41.65666399999997,12.437143999999988,3049
41.65666399999997,13.085143999999987,3068
41.98066399999996,13.085143999999987,3118
41.65666399999997,13.733143999999989,3120
41.332663999999966,13.733143999999989,3112
41.332663999999966,14.381143999999988,3269
41.00866399999997,14.381143999999988,3175
41.332663999999966,13.085143999999987,3094
41.00866399999997,15.029143999999986,3375
41.98066399999996,13.733143999999989,3317
42.30466399999996,14.381143999999988,3456
42.30466399999996,12.437143999999988,3057
42.62866399999996,12.437143999999988,3236
42.95266399999996,12.437143999999988,3521
42.30466399999996,11.789143999999988,3066
42.95266399999996,11.789143999999988,3276
42.62866399999996,11.789143999999988,3267
43.276663999999954,11.789143999999988,3330
42.95266399999996,13.085143999999987,4284
42.30466399999996,13.085143999999987,3343
43.276663999999954,13.085143999999987,4332
43.276663999999954,12.437143999999988,4339
42.62866399999996,11.141143999999988,3112
42.95266399999996,11.141143999999988,3155
42.95266399999996,10.493143999999988,3173
44.572663999999946,8.54914399999999,784
44.89666399999994,7.90114399999999,774
44.89666399999994,9.197143999999987,800
44.24866399999995,7.90114399999999,840
44.572663999999946,7.90114399999999,800
43.92466399999995,7.90114399999999,1443
44.24866399999995,7.25314399999999,830
44.89666399999994,7.25314399999999,798
45.22066399999994,7.25314399999999,778
45.54466399999994,7.90114399999999,759
44.572663999999946,7.25314399999999,1342
52.996663999999896,22.805143999999984,686
52.996663999999896,23.45314399999998,697
51.37666399999991,22.15714399999998,745
51.37666399999991,22.805143999999984,799
50.08066399999991,20.213143999999986,506
50.72866399999991,20.213143999999986,563
50.40466399999991,20.213143999999986,486
50.08066399999991,20.86114399999998,573
50.08066399999991,21.50914399999997,604
50.08066399999991,22.15714399999998,641
50.08066399999991,22.805143999999984,648
53.96866399999989,22.805143999999984,867
53.64466399999989,23.45314399999998,820
53.32066399999989,23.45314399999998,777
50.40466399999991,19.565143999999982,420
50.08066399999991,18.917143999999983,450
50.08066399999991,18.269143999999983,387
52.0246639999999,22.805143999999984,692
52.0246639999999,23.45314399999998,730
51.37666399999991,19.565143999999982,571
51.05266399999991,19.565143999999982,433
50.72866399999991,18.917143999999983,404
50.72866399999991,19.565143999999982,577
49.75666399999992,18.917143999999983,552
50.40466399999991,18.269143999999983,320
53.64466399999989,19.565143999999982,368
53.96866399999989,18.917143999999983,245
53.64466399999989,18.917143999999983,261
53.64466399999989,20.213143999999986,343
52.996663999999896,18.917143999999983,321
52.996663999999896,18.269143999999983,304
53.32066399999989,18.917143999999983,401
50.72866399999991,17.621143999999987,292
50.72866399999991,18.269143999999983,308
52.6726639999999,16.325143999999987,268
52.996663999999896,16.325143999999987,232
52.996663999999896,15.677143999999986,269
53.32066399999989,15.677143999999986,284
53.32066399999989,15.029143999999986,247
53.64466399999989,15.029143999999986,309
53.96866399999989,15.029143999999986,356
52.6726639999999,18.917143999999983,362
53.32066399999989,16.325143999999987,227
52.6726639999999,15.029143999999986,313
51.05266399999991,22.805143999999984,829
51.05266399999991,23.45314399999998,856
50.72866399999991,22.15714399999998,782
50.40466399999991,22.15714399999998,806
51.05266399999991,22.15714399999998,796
54.616663999999886,16.973143999999984,227
54.29266399999989,16.325143999999987,213
53.96866399999989,15.677143999999986,259
50.72866399999991,21.50914399999997,771
50.40466399999991,21.50914399999997,652
50.40466399999991,17.621143999999987,350
53.32066399999989,22.805143999999984,638
53.64466399999989,22.15714399999998,485
54.29266399999989,16.973143999999984,188
50.72866399999991,20.86114399999998,601
51.700663999999904,22.805143999999984,828
51.05266399999991,21.50914399999997,655
50.08066399999991,19.565143999999982,483
52.0246639999999,18.917143999999983,8488
52.0246639999999,19.565143999999982,8481
53.64466399999989,18.269143999999983,197
51.700663999999904,20.213143999999986,654
53.32066399999989,19.565143999999982,403
50.72866399999991,23.45314399999998,1675
50.72866399999991,22.805143999999984,1644
49.43266399999992,20.213143999999986,743
49.75666399999992,21.50914399999997,615
49.75666399999992,22.15714399999998,1302
49.43266399999992,22.15714399999998,1314
51.05266399999991,18.917143999999983,416
51.05266399999991,18.269143999999983,353
53.32066399999989,16.973143999999984,123
53.64466399999989,16.973143999999984,76
49.75666399999992,20.86114399999998,626
50.40466399999991,22.805143999999984,8570
53.64466399999989,16.325143999999987,151
53.96866399999989,20.86114399999998,472
54.29266399999989,20.86114399999998,518
53.96866399999989,21.50914399999997,589
53.64466399999989,15.677143999999986,202
53.96866399999989,20.213143999999986,301
53.96866399999989,19.565143999999982,290
54.29266399999989,19.565143999999982,304
53.96866399999989,16.325143999999987,224
53.64466399999989,17.621143999999987,138
53.96866399999989,22.15714399999998,519
53.64466399999989,21.50914399999997,440
53.64466399999989,20.86114399999998,394
52.6726639999999,15.677143999999986,291
51.05266399999991,20.213143999999986,1249
54.940663999999884,24.101143999999977,3681
54.616663999999886,23.45314399999998,3625
54.29266399999989,23.45314399999998,3488
53.64466399999989,22.805143999999984,625
53.96866399999989,16.973143999999984,0
50.40466399999991,20.86114399999998,1306
53.32066399999989,18.269143999999983,297
49.75666399999992,19.565143999999982,499
50.40466399999991,23.45314399999998,925
49.75666399999992,20.213143999999986,721
49.43266399999992,19.565143999999982,645
49.43266399999992,20.86114399999998,684
53.96866399999989,17.621143999999987,348
42.30466399999996,-1.8188560000000056,8799
41.98066399999996,-1.8188560000000056,8782
41.65666399999997,0.7731439999999932,8786
42.62866399999996,-1.8188560000000056,8914
42.95266399999996,-1.8188560000000056,8943
42.62866399999996,-3.114856000000005,9037
42.95266399999996,-2.4668560000000053,9015
42.62866399999996,-7.650856000000003,9379
42.30466399999996,-7.650856000000003,9439
42.30466399999996,-8.946856000000002,9575
42.30466399999996,-8.298856000000002,9549
41.98066399999996,-8.298856000000002,9538
42.30466399999996,-7.002856000000003,9321
42.62866399999996,-6.354856000000003,9263
42.30466399999996,-6.354856000000003,9218
42.62866399999996,-5.706856000000004,8718
41.98066399999996,-4.410856000000004,8672
42.30466399999996,-3.7628560000000046,9063
40.03666399999997,-0.5228560000000062,8766
39.38866399999998,-0.5228560000000062,8814
41.00866399999997,0.7731439999999932,8914
40.68466399999997,0.7731439999999932,8946
40.36066399999997,0.1251439999999934,9024
39.712663999999975,-0.5228560000000062,8923
38.41666399999998,-0.5228560000000062,8935
39.06466399999998,-0.5228560000000062,9057
38.74066399999998,-1.170856000000006,8943
41.332663999999966,0.7731439999999932,8974
41.65666399999997,2.717143999999992,8574
41.65666399999997,2.0691439999999925,8597
41.332663999999966,0.1251439999999934,8932
41.332663999999966,-0.5228560000000062,8876
41.65666399999997,-4.410856000000004,8646
40.03666399999997,-2.4668560000000053,8884
41.00866399999997,-4.410856000000004,8767
43.276663999999954,-5.706856000000004,8848
39.38866399999998,-1.170856000000006,8909
38.09266399999999,-1.170856000000006,9322
38.74066399999998,-0.5228560000000062,9085
37.76866399999999,-1.170856000000006,9387
39.06466399999998,-1.8188560000000056,8907
39.38866399999998,-3.114856000000005,8807
39.38866399999998,-2.4668560000000053,8863
39.06466399999998,-2.4668560000000053,8890
39.06466399999998,-3.114856000000005,8811
39.06466399999998,-3.7628560000000046,8785
38.74066399999998,-3.7628560000000046,8864
40.03666399999997,-3.7628560000000046,8763
40.03666399999997,-3.114856000000005,8963
40.03666399999997,-1.8188560000000056,9044
39.712663999999975,-1.8188560000000056,9009
39.712663999999975,-1.170856000000006,8945
40.36066399999997,-1.170856000000006,8964
40.68466399999997,-1.170856000000006,8942
41.00866399999997,-1.170856000000006,8930
41.332663999999966,-1.170856000000006,8770
43.276663999999954,-8.298856000000002,9539
42.95266399999996,-8.298856000000002,9507
41.65666399999997,-5.706856000000004,65535
41.98066399999996,-7.002856000000003,65535
41.98066399999996,-6.354856000000003,65535
41.332663999999966,-5.058856000000004,8885
43.276663999999954,-3.7628560000000046,9320
42.95266399999996,-4.410856000000004,9254
42.62866399999996,-4.410856000000004,9244
42.30466399999996,-4.410856000000004,9203
41.00866399999997,-5.706856000000004,8823
41.332663999999966,-1.8188560000000056,8716
40.68466399999997,-3.114856000000005,8670
41.00866399999997,-3.114856000000005,8721
41.00866399999997,-2.4668560000000053,8744
41.332663999999966,-2.4668560000000053,8797
40.68466399999997,-4.410856000000004,8707
40.36066399999997,-4.410856000000004,8791
40.68466399999997,-3.7628560000000046,8699
40.36066399999997,-3.114856000000005,8677
41.65666399999997,-2.4668560000000053,8814
38.09266399999999,-3.7628560000000046,8911
38.74066399999998,-3.114856000000005,8855
37.76866399999999,-3.7628560000000046,8968
39.712663999999975,-3.114856000000005,8799
38.41666399999998,-3.7628560000000046,8876
40.03666399999997,-4.410856000000004,65535
40.03666399999997,-5.058856000000004,65535
39.38866399999998,-6.354856000000003,65535
39.38866399999998,-7.002856000000003,65535
42.95266399999996,-3.114856000000005,9448
41.98066399999996,-1.170856000000006,8811
42.30466399999996,-2.4668560000000053,8852
41.65666399999997,-0.5228560000000062,8909
41.98066399999996,-0.5228560000000062,8746
41.65666399999997,0.1251439999999934,8773
41.98066399999996,0.1251439999999934,8795
37.76866399999999,-5.058856000000004,8847
36.79666399999999,-4.410856000000004,8906
38.74066399999998,-4.410856000000004,8803
37.12066399999999,-4.410856000000004,8880
37.44466399999999,-5.058856000000004,9404
37.44466399999999,-7.002856000000003,65535
37.44466399999999,-6.354856000000003,65535
37.44466399999999,-5.706856000000004,9080
39.712663999999975,-3.7628560000000046,8873
42.62866399999996,-8.946856000000002,65535
42.30466399999996,-5.706856000000004,9225
42.30466399999996,-5.058856000000004,9310
42.95266399999996,-5.706856000000004,8750
41.00866399999997,-5.058856000000004,8791
40.68466399999997,-5.058856000000004,8765
41.65666399999997,-5.058856000000004,65535
41.65666399999997,-6.354856000000003,65535
36.79666399999999,-6.354856000000003,65535
37.12066399999999,-5.706856000000004,9248
37.76866399999999,-5.706856000000004,9047
38.09266399999999,-4.410856000000004,9182
37.12066399999999,-5.058856000000004,9202
36.79666399999999,-5.058856000000004,9160
37.76866399999999,-4.410856000000004,65535
37.76866399999999,-7.002856000000003,65535
38.41666399999998,-6.354856000000003,65535
38.09266399999999,-6.354856000000003,65535
48.78466399999992,1.4211439999999929,665
56.23666399999988,8.54914399999999,7090
55.58866399999988,9.197143999999987,6895
55.91266399999988,9.197143999999987,7036
55.26466399999988,10.493143999999988,1074
55.91266399999988,12.437143999999988,1209
55.58866399999988,11.789143999999988,6735
55.58866399999988,11.141143999999988,6776
55.26466399999988,11.789143999999988,6768
55.58866399999988,10.493143999999988,6891
55.58866399999988,13.085143999999987,1166
56.88466399999987,9.845143999999989,7042
57.20866399999987,9.845143999999989,7077
56.56066399999988,9.845143999999989,7014
56.88466399999987,8.54914399999999,7129
54.940663999999884,9.845143999999989,8236
54.940663999999884,11.789143999999988,6992
55.91266399999988,13.085143999999987,1224
56.23666399999988,13.733143999999989,1268
55.91266399999988,13.733143999999989,1271
56.23666399999988,14.381143999999988,1291
56.23666399999988,15.029143999999986,1332
56.23666399999988,15.677143999999986,1387
56.56066399999988,14.381143999999988,1348
56.88466399999987,14.381143999999988,1318
56.23666399999988,13.085143999999987,1216
56.56066399999988,13.085143999999987,1296
56.88466399999987,12.437143999999988,1333
57.20866399999987,12.437143999999988,1349
57.53266399999987,12.437143999999988,1364
56.88466399999987,15.029143999999986,1344
56.56066399999988,15.677143999999986,1404
56.88466399999987,15.677143999999986,1423
56.88466399999987,16.325143999999987,1438
55.91266399999988,11.789143999999988,7061
57.20866399999987,10.493143999999988,7264
49.43266399999992,1.4211439999999929,629
49.75666399999992,0.7731439999999932,659
49.75666399999992,2.0691439999999925,612
50.08066399999991,2.717143999999992,591
49.75666399999992,1.4211439999999929,646
47.81266399999993,1.4211439999999929,689
48.136663999999925,2.0691439999999925,678
48.46066399999992,2.0691439999999925,668
48.136663999999925,1.4211439999999929,674
48.78466399999992,0.1251439999999934,742
48.46066399999992,0.1251439999999934,701
47.81266399999993,0.1251439999999934,716
46.84066399999993,-0.5228560000000062,809
47.16466399999993,0.7731439999999932,735
46.84066399999993,0.1251439999999934,733
46.84066399999993,-1.170856000000006,877
50.08066399999991,1.4211439999999929,577
50.08066399999991,2.0691439999999925,593
49.43266399999992,2.717143999999992,612
49.75666399999992,3.365143999999992,611
50.08066399999991,3.365143999999992,537
49.10866399999992,2.0691439999999925,632
49.43266399999992,2.0691439999999925,605
48.78466399999992,0.7731439999999932,699
48.78466399999992,-0.5228560000000062,861
48.78466399999992,-1.170856000000006,891
48.136663999999925,0.7731439999999932,710
48.46066399999992,0.7731439999999932,661
43.92466399999995,5.957143999999991,1507
44.24866399999995,5.957143999999991,1545
43.92466399999995,5.309143999999991,1308
42.95266399999996,2.717143999999992,1310
45.54466399999994,2.0691439999999925,857
45.22066399999994,2.0691439999999925,1336
42.95266399999996,2.0691439999999925,1410
42.95266399999996,0.7731439999999932,1327
43.276663999999954,0.7731439999999932,1338
46.19266399999994,0.7731439999999932,818
46.516663999999935,0.7731439999999932,788
45.86866399999994,0.1251439999999934,1347
46.19266399999994,0.1251439999999934,1364
47.81266399999993,-1.170856000000006,1456
48.136663999999925,-2.4668560000000053,788
47.48866399999993,-1.8188560000000056,783
47.16466399999993,-1.170856000000006,749
47.16466399999993,-0.5228560000000062,772
46.84066399999993,-1.8188560000000056,795
45.22066399999994,-0.5228560000000062,746
44.89666399999994,0.1251439999999934,764
45.22066399999994,0.7731439999999932,822
45.54466399999994,0.7731439999999932,916
45.86866399999994,0.7731439999999932,1412
45.22066399999994,0.1251439999999934,1353
44.89666399999994,0.7731439999999932,886
43.92466399999995,-0.5228560000000062,828
43.92466399999995,-1.170856000000006,807
44.24866399999995,-1.170856000000006,788
45.22066399999994,-1.170856000000006,787
44.572663999999946,-0.5228560000000062,754
44.24866399999995,0.1251439999999934,825
44.572663999999946,0.7731439999999932,1380
43.276663999999954,-1.170856000000006,1370
42.95266399999996,-0.5228560000000062,1572
44.24866399999995,2.0691439999999925,1359
43.60066399999995,0.7731439999999932,1332
43.60066399999995,2.0691439999999925,1333
52.6726639999999,4.661143999999991,7081
52.6726639999999,5.309143999999991,7104
51.700663999999904,5.309143999999991,7049
52.0246639999999,5.309143999999991,7061
52.3486639999999,5.309143999999991,7077
51.37666399999991,4.013143999999992,7057
52.3486639999999,5.957143999999991,7071
52.0246639999999,6.60514399999999,7101
52.6726639999999,5.957143999999991,7088
52.996663999999896,5.957143999999991,7101
53.32066399999989,5.957143999999991,7095
52.996663999999896,6.60514399999999,7077
53.32066399999989,6.60514399999999,7069
52.6726639999999,6.60514399999999,7097
52.996663999999896,5.309143999999991,7116
59.15266399999986,24.101143999999977,65535
56.88466399999987,24.101143999999977,65535
56.88466399999987,23.45314399999998,65535
56.88466399999987,22.805143999999984,65535
57.20866399999987,24.74914399999998,65535
56.88466399999987,24.74914399999998,65535
56.56066399999988,24.74914399999998,65535
56.56066399999988,25.397143999999983,65535
56.56066399999988,24.101143999999977,65535
56.56066399999988,23.45314399999998,65535
56.56066399999988,26.04514399999998,65535
56.88466399999987,26.04514399999998,65535
57.20866399999987,25.397143999999983,65535
57.53266399999987,25.397143999999983,65535
56.23666399999988,26.04514399999998,65535
56.23666399999988,26.69314399999997,65535
55.91266399999988,26.69314399999997,65535
56.56066399999988,26.69314399999997,65535
56.56066399999988,27.34114399999998,65535
56.56066399999988,27.989143999999985,65535
56.23666399999988,27.989143999999985,65535
55.91266399999988,27.34114399999998,65535
56.56066399999988,22.805143999999984,65535
56.56066399999988,22.15714399999998,65535
56.56066399999988,21.50914399999997,65535
57.20866399999987,26.69314399999997,65535
39.06466399999998,-8.946856000000002,65535
38.41666399999998,-8.298856000000002,65535
45.86866399999994,11.789143999999988,2068
46.19266399999994,11.789143999999988,2055
46.19266399999994,10.493143999999988,2095
45.22066399999994,18.269143999999983,1932
45.22066399999994,18.917143999999983,1973
45.54466399999994,16.973143999999984,1759
45.22066399999994,17.621143999999987,1876
45.86866399999994,16.325143999999987,1628
45.54466399999994,18.917143999999983,1973
45.54466399999994,16.325143999999987,1654
45.54466399999994,18.269143999999983,1880
44.89666399999994,18.917143999999983,2170
46.19266399999994,16.973143999999984,1719
46.19266399999994,16.325143999999987,1685
45.86866399999994,16.973143999999984,1678
45.86866399999994,17.621143999999987,1721
46.19266399999994,15.677143999999986,1593
46.516663999999935,16.325143999999987,1658
45.54466399999994,15.677143999999986,1677
45.22066399999994,15.029143999999986,1659
45.54466399999994,15.029143999999986,1641
45.22066399999994,15.677143999999986,1724
44.572663999999946,15.677143999999986,2059
44.24866399999995,15.677143999999986,2080
43.92466399999995,16.325143999999987,2144
44.89666399999994,15.677143999999986,2023
45.54466399999994,17.621143999999987,1846
45.22066399999994,16.325143999999987,1713
46.516663999999935,16.973143999999984,1788
45.86866399999994,18.269143999999983,2080
43.92466399999995,15.677143999999986,2246
45.22066399999994,13.733143999999989,1776
47.48866399999993,19.565143999999982,1247
47.16466399999993,18.917143999999983,1218
47.81266399999993,18.917143999999983,946
45.54466399999994,9.845143999999989,739
45.22066399999994,9.845143999999989,748
45.22066399999994,10.493143999999988,1338
45.86866399999994,9.845143999999989,759
45.86866399999994,10.493143999999988,2838
48.78466399999992,21.50914399999997,1265
49.10866399999992,20.213143999999986,889
49.10866399999992,18.917143999999983,606
48.46066399999992,17.621143999999987,714
49.43266399999992,17.621143999999987,613
49.10866399999992,17.621143999999987,1312
48.136663999999925,18.269143999999983,738
49.10866399999992,18.269143999999983,687
49.43266399999992,18.269143999999983,618
49.43266399999992,16.973143999999984,587
49.75666399999992,16.973143999999984,561
49.75666399999992,16.325143999999987,539
50.08066399999991,15.677143999999986,433
50.08066399999991,15.029143999999986,429
49.43266399999992,18.917143999999983,587
47.81266399999993,20.86114399999998,1435
48.136663999999925,20.86114399999998,1380
48.46066399999992,20.86114399999998,1284
48.46066399999992,21.50914399999997,1280
49.10866399999992,19.565143999999982,627
48.136663999999925,17.621143999999987,686
48.78466399999992,22.15714399999998,1390
48.78466399999992,20.86114399999998,1439
49.10866399999992,20.86114399999998,927
48.78466399999992,18.269143999999983,730
48.78466399999992,17.621143999999987,749
49.10866399999992,21.50914399999997,1246
48.78466399999992,20.213143999999986,1305
48.46066399999992,20.213143999999986,1246
48.136663999999925,19.565143999999982,1218
48.46066399999992,19.565143999999982,1180
48.46066399999992,18.917143999999983,829
48.46066399999992,18.269143999999983,743
48.78466399999992,19.565143999999982,889
48.78466399999992,18.917143999999983,808
47.81266399999993,18.269143999999983,787
49.10866399999992,22.15714399999998,1340
49.43266399999992,21.50914399999997,1294
48.136663999999925,18.917143999999983,1211
48.136663999999925,20.213143999999986,1267
52.636,-8.018,65535
52.312,-7.370000000000001,65535
52.312,-8.018,65535
52.636,-8.666,65535
51.988,-8.666,65535
51.988,-8.018,65535
52.96,-8.666,65535
52.96,-6.074000000000002,65535
53.28399999999999,-6.722000000000001,65535
53.60799999999999,-6.722000000000001,65535
53.60799999999999,-7.370000000000001,65535
53.60799999999999,-8.018,65535
54.25599999999999,-8.666,65535
53.93199999999999,-8.666,65535
53.93199999999999,-8.018,65535
52.312,-6.722000000000001,65535
52.636,-6.722000000000001,65535
53.93199999999999,-6.722000000000001,65535
54.25599999999999,-6.074000000000002,65535
53.28399999999999,-7.370000000000001,65535
52.96,-7.370000000000001,65535
52.312,-8.666,65535
52.96,-8.018,65535
52.636,-7.370000000000001,65535
52.96,-6.722000000000001,65535
51.988,-9.314,65535
52.312,-9.314,65535
54.579999999999984,-6.722000000000001,65535
54.579999999999984,-6.074000000000002,65535
53.28399999999999,-8.018,65535
53.28399999999999,-8.666,65535
53.28399999999999,-9.314,65535
53.93199999999999,-9.314,65535
54.25599999999999,-9.314,65535
53.60799999999999,-8.666,65535
53.60799999999999,-9.314,65535
49.43266399999992,14.381143999999988,455
49.75666399999992,14.381143999999988,438
49.75666399999992,15.029143999999986,436
49.75666399999992,13.733143999999989,477
50.08066399999991,13.733143999999989,469
49.75666399999992,15.677143999999986,479
50.40466399999991,15.029143999999986,410
49.43266399999992,13.733143999999989,486
50.40466399999991,15.677143999999986,424
50.40466399999991,13.733143999999989,467
46.19266399999994,15.029143999999986,1573
45.86866399999994,15.029143999999986,1632
45.86866399999994,14.381143999999988,1610
46.19266399999994,13.733143999999989,1665
45.86866399999994,13.733143999999989,1741
58.50466399999986,13.733143999999989,1442
58.180663999999865,13.733143999999989,1446
58.180663999999865,13.085143999999987,1418
57.85666399999987,12.437143999999988,1384
60.44866399999985,15.677143999999986,1667
60.124663999999854,15.677143999999986,1601
60.124663999999854,16.325143999999987,1639
59.800663999999855,16.325143999999987,1567
59.800663999999855,17.621143999999987,1546
59.47666399999986,18.269143999999983,1528
61.74466399999984,16.973143999999984,1678
61.420663999999846,16.973143999999984,1651
60.77266399999985,16.973143999999984,1603
65.63266399999982,22.15714399999998,2782
65.95666399999982,21.50914399999997,2742
65.63266399999982,20.86114399999998,2713
64.98466399999982,20.213143999999986,2645
64.66066399999983,20.213143999999986,2623
64.33666399999983,19.565143999999982,2317
64.01266399999983,19.565143999999982,2030
63.68866399999983,20.213143999999986,1983
64.66066399999983,18.917143999999983,2994
59.15266399999986,16.325143999999987,1503
59.15266399999986,15.029143999999986,1495
59.15266399999986,17.621143999999987,1520
57.53266399999987,14.381143999999988,1344
57.53266399999987,15.029143999999986,1364
61.09666399999985,14.381143999999988,1771
60.77266399999985,15.029143999999986,1722
60.44866399999985,15.029143999999986,1708
58.180663999999865,15.029143999999986,1421
58.50466399999986,16.325143999999987,1455
58.50466399999986,15.677143999999986,1428
63.36466399999984,13.085143999999987,2015
63.04066399999984,14.381143999999988,1952
62.39266399999984,15.677143999999986,1874
63.36466399999984,13.733143999999989,1997
63.36466399999984,14.381143999999988,1969
62.71666399999984,15.677143999999986,1902
62.39266399999984,17.621143999999987,1736
59.800663999999855,15.677143999999986,2013
55.58866399999988,13.733143999999989,1298
57.20866399999987,14.381143999999988,1328
57.85666399999987,14.381143999999988,1376
58.82866399999986,16.973143999999984,1512
58.82866399999986,16.325143999999987,1490
59.15266399999986,18.269143999999983,1524
60.44866399999985,17.621143999999987,1579
59.15266399999986,12.437143999999988,1483
59.15266399999986,13.085143999999987,1497
58.82866399999986,12.437143999999988,1459
59.47666399999986,16.325143999999987,1529
58.82866399999986,14.381143999999988,1536
59.47666399999986,15.677143999999986,1518
63.36466399999984,18.917143999999983,1936
63.04066399999984,17.621143999999987,1891
62.71666399999984,17.621143999999987,1865
63.68866399999983,19.565143999999982,1969
62.39266399999984,16.973143999999984,1780
59.800663999999855,16.973143999999984,1555
59.47666399999986,17.621143999999987,1532
57.85666399999987,13.085143999999987,1408
57.53266399999987,13.085143999999987,1389
58.50466399999986,11.789143999999988,1430
57.85666399999987,15.029143999999986,1410
57.20866399999987,13.733143999999989,1334
57.53266399999987,13.733143999999989,1395
61.74466399999984,16.325143999999987,1774
61.420663999999846,16.325143999999987,1741
61.09666399999985,16.325143999999987,1730
61.09666399999985,16.973143999999984,1698
60.124663999999854,15.029143999999986,1876
66.60466399999981,20.86114399999998,2817
67.25266399999981,20.86114399999998,2885
67.90066399999981,20.213143999999986,2955
67.57666399999981,20.213143999999986,3580
59.800663999999855,15.029143999999986,1596
58.50466399999986,15.029143999999986,1438
59.47666399999986,15.029143999999986,1581
60.44866399999985,16.325143999999987,1667
59.15266399999986,15.677143999999986,1525
57.85666399999987,13.733143999999989,1436
58.82866399999986,13.733143999999989,1483
58.50466399999986,13.085143999999987,1468
57.20866399999987,13.085143999999987,1365
56.88466399999987,13.085143999999987,1339
58.180663999999865,11.789143999999988,1401
62.06866399999984,16.973143999999984,1769
65.95666399999982,23.45314399999998,2823
59.800663999999855,14.381143999999988,5891
59.800663999999855,18.269143999999983,1537
63.04066399999984,15.029143999999986,1920
62.71666399999984,15.029143999999986,1910
62.39266399999984,16.325143999999987,1843
63.36466399999984,12.437143999999988,2048
68.5486639999998,17.621143999999987,3168
68.5486639999998,18.269143999999983,3101
68.5486639999998,18.917143999999983,3078
68.2246639999998,18.917143999999983,3034
59.800663999999855,13.085143999999987,1600
60.124663999999854,13.085143999999987,1639
59.47666399999986,16.973143999999984,1541
59.15266399999986,16.973143999999984,1533
56.56066399999988,13.733143999999989,1286
60.124663999999854,17.621143999999987,1556
57.85666399999987,16.325143999999987,1515
58.180663999999865,16.325143999999987,1477
58.180663999999865,15.677143999999986,1485
57.20866399999987,16.325143999999987,1527
57.53266399999987,15.677143999999986,1545
57.85666399999987,15.677143999999986,1516
44.89666399999994,23.45314399999998,2965
44.572663999999946,23.45314399999998,3035
44.89666399999994,24.74914399999998,2952
44.572663999999946,24.74914399999998,3071
44.572663999999946,24.101143999999977,3012
44.24866399999995,24.101143999999977,3041
47.48866399999993,25.397143999999983,2813
47.48866399999993,24.74914399999998,2753
47.16466399999993,24.74914399999998,2675
47.16466399999993,24.101143999999977,2577
47.48866399999993,22.15714399999998,2707
47.81266399999993,22.15714399999998,2793
47.16466399999993,22.15714399999998,2686
47.16466399999993,23.45314399999998,2738
47.16466399999993,22.805143999999984,2744
46.84066399999993,24.101143999999977,2658
45.86866399999994,27.34114399999998,2998
45.54466399999994,27.34114399999998,2979
45.54466399999994,27.989143999999985,3095
45.86866399999994,20.86114399999998,2870
45.86866399999994,21.50914399999997,2878
46.19266399999994,21.50914399999997,2814
46.19266399999994,27.34114399999998,2998
46.19266399999994,26.69314399999997,2989
46.516663999999935,26.69314399999997,2951
46.516663999999935,26.04514399999998,2847
47.48866399999993,22.805143999999984,2805
46.84066399999993,22.805143999999984,2618
45.54466399999994,22.15714399999998,2927
45.22066399999994,22.15714399999998,3005
44.89666399999994,22.15714399999998,3423
47.48866399999993,23.45314399999998,2771
46.516663999999935,24.101143999999977,2497
46.516663999999935,24.74914399999998,2711
45.86866399999994,24.101143999999977,2660
47.16466399999993,26.69314399999997,3029
47.16466399999993,27.34114399999998,3084
43.92466399999995,25.397143999999983,3043
44.24866399999995,24.74914399999998,2950
44.89666399999994,26.04514399999998,2837
44.89666399999994,26.69314399999997,2884
45.22066399999994,26.69314399999997,2919
45.22066399999994,27.34114399999998,2946
46.84066399999993,26.69314399999997,2990
47.48866399999993,26.69314399999997,2983
44.24866399999995,25.397143999999983,2882
43.92466399999995,26.04514399999998,3059
46.19266399999994,24.101143999999977,2705
44.572663999999946,25.397143999999983,2920
46.84066399999993,24.74914399999998,2718
46.516663999999935,21.50914399999997,2818
46.84066399999993,21.50914399999997,2825
44.572663999999946,26.69314399999997,2875
44.572663999999946,27.34114399999998,2896
44.89666399999994,27.34114399999998,3011
44.572663999999946,27.989143999999985,2916
44.24866399999995,27.989143999999985,2930
44.572663999999946,28.63714399999997,2981
45.86866399999994,22.15714399999998,2739
45.86866399999994,22.805143999999984,2633
44.24866399999995,23.45314399999998,3068
43.92466399999995,27.989143999999985,65535
46.84066399999993,27.34114399999998,3151
45.22066399999994,23.45314399999998,2940
45.54466399999994,23.45314399999998,2743
45.54466399999994,24.101143999999977,2690
45.22066399999994,24.101143999999977,2914
44.89666399999994,24.101143999999977,2984
46.19266399999994,22.15714399999998,2870
46.516663999999935,22.15714399999998,2836
45.22066399999994,21.50914399999997,3110
45.54466399999994,21.50914399999997,2958
45.54466399999994,20.86114399999998,2982
46.516663999999935,27.989143999999985,3101
46.19266399999994,27.989143999999985,3086
45.54466399999994,25.397143999999983,2804
45.22066399999994,25.397143999999983,2814
45.22066399999994,26.04514399999998,2870
47.81266399999993,24.101143999999977,2866
47.48866399999993,26.04514399999998,2956
47.81266399999993,26.04514399999998,2978
46.19266399999994,23.45314399999998,2537
45.86866399999994,23.45314399999998,2586
44.24866399999995,26.04514399999998,2864
45.22066399999994,27.989143999999985,3076
45.86866399999994,24.74914399999998,2699
46.516663999999935,25.397143999999983,2891
46.84066399999993,25.397143999999983,2774
46.19266399999994,26.04514399999998,2862
45.86866399999994,26.04514399999998,2827
43.92466399999995,23.45314399999998,3298
44.89666399999994,25.397143999999983,2925
46.19266399999994,20.86114399999998,2859
47.81266399999993,25.397143999999983,2990
44.572663999999946,22.805143999999984,3303
44.572663999999946,22.15714399999998,3445
46.516663999999935,23.45314399999998,2676
45.86866399999994,25.397143999999983,2753
44.24866399999995,27.34114399999998,3691
45.22066399999994,24.74914399999998,3016
45.54466399999994,22.805143999999984,2706
45.22066399999994,28.63714399999997,3136
44.89666399999994,28.63714399999997,3075
47.81266399999993,23.45314399999998,2923
46.19266399999994,24.74914399999998,2785
46.19266399999994,25.397143999999983,2809
43.92466399999995,24.101143999999977,3261
43.92466399999995,24.74914399999998,3274
47.81266399999993,26.69314399999997,3205
47.48866399999993,24.101143999999977,2798
46.84066399999993,26.04514399999998,3606
46.19266399999994,22.805143999999984,2930
47.48866399999993,27.34114399999998,3158
46.19266399999994,20.213143999999986,65535
45.54466399999994,26.04514399999998,2962
44.24866399999995,26.69314399999997,2880
45.86866399999994,27.989143999999985,3134
47.81266399999993,5.957143999999991,7066
