51.56399999999999,-0.4100000000000028,65535
51.887999999999984,-0.4100000000000028,65535
50.91599999999999,-1.7060000000000022,65535
51.23999999999999,-1.0580000000000025,65535
51.56399999999999,-1.0580000000000025,65535
51.23999999999999,-1.7060000000000022,65535
51.56399999999999,0.2379999999999968,65535
47.16466399999993,9.845143999999989,777
47.48866399999993,9.845143999999989,650
48.136663999999925,14.381143999999988,781
47.81266399999993,13.085143999999987,447
47.16466399999993,11.141143999999988,648
47.48866399999993,11.789143999999988,590
48.136663999999925,16.325143999999987,789
47.48866399999993,12.437143999999988,478
48.136663999999925,15.677143999999986,819
47.16466399999993,10.493143999999988,727
47.16466399999993,9.197143999999987,785
48.136663999999925,13.733143999999989,496
48.136663999999925,15.029143999999986,823
47.81266399999993,16.973143999999984,895
48.46066399999992,14.381143999999988,904
47.48866399999993,13.085143999999987,490
47.16466399999993,13.085143999999987,812
47.48866399999993,14.381143999999988,874
47.48866399999993,13.733143999999989,924
47.48866399999993,15.029143999999986,945
46.516663999999935,13.733143999999989,1187
46.84066399999993,13.733143999999989,1156
46.84066399999993,13.085143999999987,1141
48.78466399999992,14.381143999999988,65535
47.16466399999993,15.677143999999986,1020
46.516663999999935,14.381143999999988,1194
46.84066399999993,14.381143999999988,1135
47.16466399999993,14.381143999999988,1085
46.516663999999935,15.029143999999986,1207
47.81266399999993,16.325143999999987,798
47.16466399999993,15.029143999999986,1060
47.81266399999993,15.677143999999986,804
47.48866399999993,15.677143999999986,949
46.516663999999935,13.085143999999987,1454
46.84066399999993,12.437143999999988,1199
48.136663999999925,11.789143999999988,417
47.81266399999993,12.437143999999988,438
46.84066399999993,15.677143999999986,1081
46.516663999999935,15.677143999999986,1300
46.84066399999993,16.325143999999987,1065
47.81266399999993,14.381143999999988,835
48.78466399999992,16.973143999999984,412
48.136663999999925,16.973143999999984,777
48.46066399999992,13.733143999999989,505
47.81266399999993,13.733143999999989,851
50.08066399999991,8.54914399999999,516
48.46066399999992,9.845143999999989,448
51.05266399999991,7.25314399999999,457
51.37666399999991,7.25314399999999,451
51.37666399999991,6.60514399999999,455
48.46066399999992,16.325143999999987,807
48.46066399999992,16.973143999999984,733
48.78466399999992,16.325143999999987,894
48.46066399999992,15.677143999999986,820
48.78466399999992,15.677143999999986,901
47.48866399999993,16.325143999999987,916
47.16466399999993,16.325143999999987,1014
46.19266399999994,14.381143999999988,1252
45.86866399999994,15.677143999999986,1304
43.60066399999995,16.325143999999987,1720
45.54466399999994,14.381143999999988,1366
45.54466399999994,13.733143999999989,1389
48.136663999999925,13.085143999999987,443
48.46066399999992,11.141143999999988,411
48.136663999999925,11.141143999999988,421
48.46066399999992,7.90114399999999,532
49.10866399999992,8.54914399999999,486
48.78466399999992,2.0691439999999925,938
49.10866399999992,7.25314399999999,778
52.0246639999999,7.90114399999999,452
47.16466399999993,11.789143999999988,631
49.43266399999992,11.141143999999988,363
53.64466399999989,9.845143999999989,456
50.72866399999991,4.013143999999992,780
51.05266399999991,11.141143999999988,274
47.48866399999993,11.141143999999988,454
46.84066399999993,11.789143999999988,1622
46.516663999999935,11.141143999999988,1591
45.54466399999994,11.141143999999988,1485
46.19266399999994,11.141143999999988,1557
45.86866399999994,11.141143999999988,1541
44.572663999999946,11.141143999999988,1332
43.92466399999995,12.437143999999988,3965
45.54466399999994,12.437143999999988,1572
45.54466399999994,11.789143999999988,1535
48.78466399999992,15.029143999999986,972
47.81266399999993,15.029143999999986,855
47.81266399999993,11.141143999999988,428
50.40466399999991,18.917143999999983,76
52.3486639999999,20.86114399999998,276
54.616663999999886,18.269143999999983,781
54.29266399999989,18.917143999999983,763
49.10866399999992,14.381143999999988,65535
50.08066399999991,14.381143999999988,222
48.78466399999992,13.733143999999989,1736
52.6726639999999,13.085143999999987,291
52.3486639999999,13.085143999999987,289
53.96866399999989,12.437143999999988,444
54.29266399999989,12.437143999999988,442
47.48866399999993,8.54914399999999,692
47.81266399999993,17.621143999999987,868
47.48866399999993,18.917143999999983,897
47.48866399999993,20.86114399999998,1436
46.84066399999993,23.45314399999998,1918
44.572663999999946,26.04514399999998,2367
47.48866399999993,21.50914399999997,1472
47.81266399999993,21.50914399999997,1868
48.46066399999992,22.15714399999998,811
47.48866399999993,16.973143999999984,65535
49.10866399999992,16.325143999999987,367
49.75666399999992,18.269143999999983,559
46.19266399999994,13.085143999999987,2303
41.98066399999996,12.437143999999988,2565
43.60066399999995,10.493143999999988,2726
45.54466399999994,9.197143999999987,908
47.81266399999993,22.805143999999984,2333
49.75666399999992,22.805143999999984,329
50.72866399999991,3.365143999999992,837
51.05266399999991,4.013143999999992,802
50.72866399999991,4.661143999999991,769
51.05266399999991,4.661143999999991,777
51.05266399999991,3.365143999999992,822
51.05266399999991,2.717143999999992,842
50.40466399999991,4.661143999999991,792
50.72866399999991,2.717143999999992,864
50.40466399999991,4.013143999999992,823
51.05266399999991,5.309143999999991,834
50.72866399999991,5.309143999999991,492
51.37666399999991,3.365143999999992,839
51.37666399999991,4.661143999999991,803
50.72866399999991,5.957143999999991,474
50.40466399999991,5.957143999999991,513
50.40466399999991,3.365143999999992,848
50.40466399999991,5.309143999999991,785
50.08066399999991,5.309143999999991,851
49.75666399999992,5.309143999999991,868
49.75666399999992,5.957143999999991,855
51.37666399999991,5.309143999999991,922
51.700663999999904,4.661143999999991,878
50.08066399999991,4.013143999999992,870
50.08066399999991,5.957143999999991,863
50.08066399999991,4.661143999999991,858
49.43266399999992,5.309143999999991,859
49.43266399999992,5.957143999999991,842
52.0246639999999,4.661143999999991,950
52.3486639999999,4.661143999999991,979
50.72866399999991,15.029143999999986,190
51.05266399999991,15.029143999999986,168
51.05266399999991,13.733143999999989,211
50.40466399999991,13.085143999999987,243
49.10866399999992,7.90114399999999,758
48.78466399999992,7.90114399999999,500
50.40466399999991,7.90114399999999,490
50.08066399999991,7.90114399999999,784
49.75666399999992,7.90114399999999,810
49.43266399999992,7.90114399999999,523
49.75666399999992,8.54914399999999,504
49.43266399999992,8.54914399999999,493
49.43266399999992,9.197143999999987,529
49.10866399999992,9.197143999999987,479
47.48866399999993,7.90114399999999,636
47.81266399999993,7.90114399999999,597
48.136663999999925,7.90114399999999,561
48.136663999999925,9.845143999999989,461
47.81266399999993,9.197143999999987,535
47.81266399999993,8.54914399999999,622
47.81266399999993,9.845143999999989,502
54.940663999999884,9.197143999999987,552
54.616663999999886,9.197143999999987,513
54.29266399999989,9.197143999999987,495
53.96866399999989,9.197143999999987,476
53.64466399999989,9.197143999999987,467
54.616663999999886,9.845143999999989,505
54.29266399999989,9.845143999999989,497
53.96866399999989,9.845143999999989,478
53.64466399999989,10.493143999999988,462
53.96866399999989,10.493143999999988,466
53.96866399999989,11.141143999999988,863
54.29266399999989,10.493143999999988,490
53.32066399999989,10.493143999999988,449
54.940663999999884,11.141143999999988,535
52.6726639999999,13.733143999999989,294
52.3486639999999,13.733143999999989,293
52.3486639999999,14.381143999999988,307
52.0246639999999,14.381143999999988,320
52.0246639999999,11.789143999999988,294
52.3486639999999,11.789143999999988,318
52.3486639999999,12.437143999999988,290
52.0246639999999,15.029143999999986,345
51.700663999999904,14.381143999999988,218
52.0246639999999,13.733143999999989,265
51.700663999999904,13.733143999999989,255
52.6726639999999,12.437143999999988,308
53.32066399999989,11.789143999999988,429
53.96866399999989,11.789143999999988,438
53.64466399999989,11.789143999999988,466
53.64466399999989,11.141143999999988,462
53.32066399999989,11.141143999999988,453
52.996663999999896,11.789143999999988,340
52.996663999999896,12.437143999999988,324
52.996663999999896,13.733143999999989,300
53.64466399999989,13.733143999999989,376
53.96866399999989,13.733143999999989,410
54.29266399999989,13.085143999999987,452
53.96866399999989,13.085143999999987,437
53.32066399999989,13.733143999999989,347
52.0246639999999,13.085143999999987,259
51.700663999999904,13.085143999999987,254
52.996663999999896,14.381143999999988,405
52.0246639999999,12.437143999999988,249
51.700663999999904,12.437143999999988,245
51.37666399999991,11.789143999999988,241
51.37666399999991,12.437143999999988,237
52.6726639999999,11.789143999999988,350
53.64466399999989,13.085143999999987,403
53.32066399999989,13.085143999999987,345
52.996663999999896,13.085143999999987,318
53.64466399999989,12.437143999999988,388
51.37666399999991,13.733143999999989,214
53.32066399999989,12.437143999999988,355
52.6726639999999,14.381143999999988,313
51.37666399999991,13.085143999999987,225
53.32066399999989,14.381143999999988,734
52.3486639999999,15.029143999999986,286
52.0246639999999,15.677143999999986,279
51.700663999999904,15.029143999999986,265
51.05266399999991,16.325143999999987,71
51.05266399999991,16.973143999999984,41
51.700663999999904,15.677143999999986,314
51.37666399999991,15.677143999999986,110
51.37666399999991,16.325143999999987,70
50.72866399999991,13.085143999999987,238
50.72866399999991,12.437143999999988,245
51.05266399999991,13.085143999999987,226
51.05266399999991,14.381143999999988,204
50.40466399999991,12.437143999999988,270
50.40466399999991,11.789143999999988,278
50.08066399999991,12.437143999999988,302
50.72866399999991,11.789143999999988,277
51.05266399999991,12.437143999999988,242
50.72866399999991,14.381143999999988,244
51.37666399999991,14.381143999999988,178
50.72866399999991,13.733143999999989,215
50.40466399999991,14.381143999999988,219
51.37666399999991,15.029143999999986,143
55.26466399999988,9.197143999999987,1788
55.58866399999988,8.54914399999999,3082
55.91266399999988,8.54914399999999,6559
56.23666399999988,9.197143999999987,6567
56.23666399999988,10.493143999999988,6520
56.23666399999988,9.845143999999989,6507
55.91266399999988,9.845143999999989,6445
56.56066399999988,9.197143999999987,6577
56.56066399999988,8.54914399999999,6620
51.05266399999991,6.60514399999999,469
51.700663999999904,7.90114399999999,440
50.72866399999991,6.60514399999999,468
51.700663999999904,7.25314399999999,454
50.72866399999991,7.25314399999999,470
52.0246639999999,7.25314399999999,467
52.3486639999999,7.90114399999999,424
51.05266399999991,5.957143999999991,484
50.40466399999991,7.25314399999999,478
51.700663999999904,6.60514399999999,482
51.700663999999904,5.957143999999991,488
52.3486639999999,9.197143999999987,361
51.700663999999904,8.54914399999999,401
52.0246639999999,8.54914399999999,399
52.3486639999999,8.54914399999999,398
51.37666399999991,7.90114399999999,444
52.3486639999999,7.25314399999999,441
51.37666399999991,5.957143999999991,941
50.72866399999991,7.90114399999999,524
51.37666399999991,9.197143999999987,386
51.700663999999904,9.197143999999987,373
50.40466399999991,6.60514399999999,852
51.05266399999991,7.90114399999999,473
51.37666399999991,8.54914399999999,415
52.0246639999999,5.957143999999991,891
52.3486639999999,6.60514399999999,446
51.05266399999991,8.54914399999999,857
52.0246639999999,9.197143999999987,362
52.6726639999999,9.197143999999987,390
52.0246639999999,9.845143999999989,362
51.700663999999904,9.845143999999989,384
51.37666399999991,9.845143999999989,411
50.72866399999991,8.54914399999999,530
51.05266399999991,9.845143999999989,334
50.72866399999991,9.845143999999989,369
50.40466399999991,9.845143999999989,397
51.05266399999991,9.197143999999987,393
50.40466399999991,9.197143999999987,453
50.08066399999991,9.197143999999987,513
51.05266399999991,10.493143999999988,321
50.40466399999991,8.54914399999999,523
50.72866399999991,9.197143999999987,447
49.75666399999992,9.197143999999987,550
52.996663999999896,9.197143999999987,429
52.3486639999999,9.845143999999989,345
52.996663999999896,8.54914399999999,444
52.996663999999896,7.90114399999999,473
53.32066399999989,7.90114399999999,790
53.32066399999989,7.25314399999999,973
53.64466399999989,7.25314399999999,1018
52.996663999999896,10.493143999999988,383
52.6726639999999,10.493143999999988,377
52.6726639999999,9.845143999999989,360
53.32066399999989,9.845143999999989,443
53.32066399999989,9.197143999999987,447
53.64466399999989,8.54914399999999,474
53.32066399999989,8.54914399999999,465
52.6726639999999,8.54914399999999,423
52.0246639999999,10.493143999999988,332
52.0246639999999,11.141143999999988,288
51.700663999999904,11.141143999999988,280
52.6726639999999,7.25314399999999,1723
52.996663999999896,7.25314399999999,1698
52.6726639999999,7.90114399999999,449
53.64466399999989,7.90114399999999,851
52.996663999999896,11.141143999999988,424
52.6726639999999,11.141143999999988,412
52.3486639999999,10.493143999999988,324
52.996663999999896,9.845143999999989,396
51.700663999999904,10.493143999999988,320
51.37666399999991,10.493143999999988,371
51.700663999999904,11.789143999999988,254
52.3486639999999,11.141143999999988,305
51.37666399999991,11.141143999999988,285
51.05266399999991,11.789143999999988,267
49.10866399999992,11.141143999999988,367
48.78466399999992,11.141143999999988,400
48.46066399999992,11.789143999999988,410
49.43266399999992,11.789143999999988,356
50.08066399999991,11.789143999999988,342
49.75666399999992,12.437143999999988,327
49.10866399999992,11.789143999999988,376
48.78466399999992,12.437143999999988,444
48.46066399999992,12.437143999999988,451
49.10866399999992,12.437143999999988,386
48.78466399999992,13.085143999999987,471
48.136663999999925,12.437143999999988,433
47.81266399999993,11.789143999999988,423
48.136663999999925,10.493143999999988,484
47.81266399999993,10.493143999999988,497
48.78466399999992,10.493143999999988,415
47.48866399999993,10.493143999999988,787
48.46066399999992,10.493143999999988,424
49.43266399999992,13.085143999999987,774
48.46066399999992,13.085143999999987,496
49.43266399999992,10.493143999999988,368
49.75666399999992,9.845143999999989,416
49.75666399999992,10.493143999999988,402
50.40466399999991,11.141143999999988,375
50.08066399999991,11.141143999999988,401
50.72866399999991,11.141143999999988,291
49.75666399999992,11.141143999999988,373
48.78466399999992,11.789143999999988,396
50.40466399999991,10.493143999999988,747
50.08066399999991,9.845143999999989,449
50.08066399999991,10.493143999999988,436
49.43266399999992,12.437143999999988,330
49.75666399999992,11.789143999999988,336
49.10866399999992,13.085143999999987,568
50.72866399999991,10.493143999999988,341
49.10866399999992,10.493143999999988,398
48.78466399999992,9.845143999999989,458
48.46066399999992,8.54914399999999,488
48.46066399999992,9.197143999999987,480
48.78466399999992,9.197143999999987,471
48.78466399999992,8.54914399999999,477
50.08066399999991,7.25314399999999,515
49.75666399999992,6.60514399999999,801
49.43266399999992,6.60514399999999,811
49.10866399999992,6.60514399999999,803
49.43266399999992,7.25314399999999,761
49.75666399999992,7.25314399999999,813
49.10866399999992,5.957143999999991,830
48.78466399999992,7.25314399999999,786
50.08066399999991,6.60514399999999,798
47.48866399999993,9.197143999999987,547
48.136663999999925,8.54914399999999,522
48.136663999999925,9.197143999999987,503
47.81266399999993,7.25314399999999,616
49.43266399999992,9.845143999999989,433
49.10866399999992,9.845143999999989,458
53.64466399999989,14.381143999999988,792
50.08066399999991,13.085143999999987,336
49.75666399999992,13.085143999999987,275
45.86866399999994,9.197143999999987,904
46.19266399999994,9.197143999999987,894
46.516663999999935,8.54914399999999,890
46.516663999999935,9.197143999999987,908
46.19266399999994,8.54914399999999,881
47.16466399999993,8.54914399999999,789
45.86866399999994,4.661143999999991,874
46.84066399999993,9.845143999999989,828
45.22066399999994,5.957143999999991,891
45.22066399999994,5.309143999999991,906
45.86866399999994,5.957143999999991,844
45.54466399999994,5.957143999999991,863
44.89666399999994,4.661143999999991,912
44.89666399999994,5.309143999999991,930
44.572663999999946,4.661143999999991,924
44.24866399999995,4.661143999999991,938
43.92466399999995,4.661143999999991,948
46.19266399999994,7.25314399999999,818
48.78466399999992,5.957143999999991,849
48.136663999999925,6.60514399999999,847
48.46066399999992,6.60514399999999,829
48.78466399999992,6.60514399999999,850
47.16466399999993,7.90114399999999,773
48.136663999999925,7.25314399999999,797
48.46066399999992,7.25314399999999,819
46.516663999999935,6.60514399999999,806
46.84066399999993,6.60514399999999,793
46.84066399999993,7.25314399999999,788
46.516663999999935,5.957143999999991,830
46.19266399999994,5.957143999999991,827
46.84066399999993,8.54914399999999,793
46.84066399999993,7.90114399999999,783
45.86866399999994,5.309143999999991,870
46.19266399999994,6.60514399999999,817
45.86866399999994,6.60514399999999,883
47.48866399999993,6.60514399999999,812
47.48866399999993,7.25314399999999,666
47.16466399999993,7.25314399999999,790
49.10866399999992,4.013143999999992,922
49.75666399999992,4.661143999999991,897
49.43266399999992,4.661143999999991,944
49.10866399999992,5.309143999999991,894
46.19266399999994,4.661143999999991,889
46.84066399999993,9.197143999999987,846
46.19266399999994,5.309143999999991,880
46.516663999999935,5.309143999999991,930
45.54466399999994,6.60514399999999,895
45.54466399999994,5.309143999999991,904
43.60066399999995,4.013143999999992,1000
43.60066399999995,3.365143999999992,1017
42.62866399999996,2.717143999999992,1120
43.276663999999954,2.717143999999992,1046
45.54466399999994,4.661143999999991,881
45.22066399999994,4.661143999999991,895
47.16466399999993,5.309143999999991,897
47.16466399999993,5.957143999999991,864
46.19266399999994,7.90114399999999,836
49.75666399999992,2.717143999999992,892
49.10866399999992,2.717143999999992,915
48.78466399999992,2.717143999999992,976
45.86866399999994,3.365143999999992,1014
46.84066399999993,3.365143999999992,1012
46.516663999999935,3.365143999999992,1001
46.19266399999994,3.365143999999992,989
47.16466399999993,6.60514399999999,854
49.10866399999992,3.365143999999992,942
45.54466399999994,4.013143999999992,889
46.516663999999935,7.25314399999999,848
47.16466399999993,4.661143999999991,903
46.84066399999993,4.661143999999991,924
46.516663999999935,4.661143999999991,921
46.84066399999993,5.957143999999991,806
47.81266399999993,3.365143999999992,1021
47.48866399999993,4.013143999999992,959
48.136663999999925,4.013143999999992,973
47.81266399999993,4.013143999999992,981
47.48866399999993,4.661143999999991,961
47.16466399999993,3.365143999999992,1027
46.84066399999993,4.013143999999992,980
48.46066399999992,5.957143999999991,905
46.19266399999994,2.717143999999992,1210
47.16466399999993,2.0691439999999925,1032
46.516663999999935,2.717143999999992,1174
46.84066399999993,2.717143999999992,1144
46.84066399999993,2.0691439999999925,1087
47.16466399999993,2.717143999999992,1065
44.572663999999946,5.309143999999991,1044
44.572663999999946,5.957143999999991,1043
44.89666399999994,6.60514399999999,927
44.572663999999946,6.60514399999999,1009
43.60066399999995,5.309143999999991,990
43.92466399999995,7.25314399999999,1054
43.60066399999995,6.60514399999999,1042
43.276663999999954,6.60514399999999,1019
43.276663999999954,5.957143999999991,994
45.86866399999994,8.54914399999999,900
45.54466399999994,8.54914399999999,911
48.136663999999925,3.365143999999992,1046
48.46066399999992,3.365143999999992,1002
48.46066399999992,2.717143999999992,1031
47.48866399999993,5.309143999999991,920
46.516663999999935,9.845143999999989,853
46.84066399999993,10.493143999999988,851
47.81266399999993,5.309143999999991,893
45.22066399999994,6.60514399999999,922
46.19266399999994,4.013143999999992,904
45.86866399999994,4.013143999999992,897
45.22066399999994,4.013143999999992,918
44.89666399999994,4.013143999999992,957
46.84066399999993,5.309143999999991,918
48.136663999999925,-1.8188560000000056,1045
48.136663999999925,0.1251439999999934,993
48.136663999999925,-0.5228560000000062,1009
47.48866399999993,-0.5228560000000062,1031
47.16466399999993,-1.8188560000000056,1070
47.48866399999993,0.7731439999999932,1026
47.16466399999993,0.1251439999999934,1037
45.86866399999994,7.25314399999999,888
48.136663999999925,5.309143999999991,924
49.10866399999992,4.661143999999991,942
48.46066399999992,4.013143999999992,993
48.136663999999925,4.661143999999991,944
47.81266399999993,6.60514399999999,837
47.48866399999993,5.957143999999991,855
48.136663999999925,5.957143999999991,1406
45.86866399999994,7.90114399999999,867
46.516663999999935,7.90114399999999,832
49.43266399999992,3.365143999999992,922
49.43266399999992,4.013143999999992,933
48.136663999999925,2.717143999999992,1090
47.81266399999993,2.717143999999992,1101
47.48866399999993,2.717143999999992,1121
50.40466399999991,2.717143999999992,868
48.46066399999992,-4.410856000000004,1179
48.46066399999992,-3.7628560000000046,1144
48.46066399999992,-3.114856000000005,1114
48.46066399999992,-2.4668560000000053,1085
47.48866399999993,1.4211439999999929,1023
47.16466399999993,1.4211439999999929,1115
46.516663999999935,4.013143999999992,925
43.60066399999995,4.661143999999991,982
44.89666399999994,2.717143999999992,1247
45.22066399999994,2.717143999999992,1216
45.54466399999994,3.365143999999992,1021
45.22066399999994,3.365143999999992,962
47.48866399999993,3.365143999999992,1066
46.19266399999994,9.845143999999989,917
47.81266399999993,2.0691439999999925,994
47.48866399999993,2.0691439999999925,1057
45.86866399999994,2.717143999999992,1240
44.89666399999994,5.957143999999991,947
45.22066399999994,1.4211439999999929,1204
44.89666399999994,1.4211439999999929,1266
44.89666399999994,2.0691439999999925,1359
43.276663999999954,2.0691439999999925,1096
43.60066399999995,1.4211439999999929,1141
48.78466399999992,4.661143999999991,947
48.78466399999992,5.309143999999991,920
46.19266399999994,2.0691439999999925,1382
45.86866399999994,1.4211439999999929,1138
46.19266399999994,1.4211439999999929,1104
44.572663999999946,4.013143999999992,1053
44.89666399999994,3.365143999999992,994
43.92466399999995,4.013143999999992,964
44.24866399999995,4.013143999999992,991
44.89666399999994,-0.5228560000000062,1098
45.54466399999994,0.1251439999999934,1103
46.516663999999935,0.1251439999999934,1037
44.572663999999946,2.0691439999999925,1378
49.75666399999992,4.013143999999992,953
43.92466399999995,3.365143999999992,1116
43.92466399999995,2.717143999999992,1141
44.24866399999995,3.365143999999992,1167
44.572663999999946,3.365143999999992,1182
49.10866399999992,0.1251439999999934,979
49.43266399999992,0.7731439999999932,961
49.43266399999992,-1.8188560000000056,1041
49.10866399999992,-1.170856000000006,1015
49.10866399999992,-0.5228560000000062,1000
49.10866399999992,0.7731439999999932,1008
49.10866399999992,1.4211439999999929,1004
47.81266399999993,-1.8188560000000056,1143
47.81266399999993,-2.4668560000000053,1168
47.81266399999993,-3.114856000000005,1181
48.136663999999925,-3.7628560000000046,1189
44.572663999999946,9.197143999999987,982
44.89666399999994,8.54914399999999,957
45.22066399999994,9.197143999999987,919
45.54466399999994,10.493143999999988,967
44.572663999999946,10.493143999999988,1318
44.89666399999994,10.493143999999988,1033
44.89666399999994,9.845143999999989,1061
48.46066399999992,5.309143999999991,1095
50.91599999999999,-1.0580000000000025,65535
51.23999999999999,-0.4100000000000028,65535
50.91599999999999,-0.4100000000000028,65535
51.23999999999999,-2.354000000000002,65535
51.56399999999999,-2.354000000000002,65535
51.56399999999999,-3.0020000000000016,65535
50.91599999999999,-2.354000000000002,65535
53.50799999999997,-3.0020000000000016,65535
53.183999999999976,-2.354000000000002,65535
53.183999999999976,-3.0020000000000016,65535
52.85999999999998,-2.354000000000002,65535
52.21199999999998,-1.0580000000000025,65535
51.887999999999984,-1.0580000000000025,65535
52.53599999999998,-1.0580000000000025,65535
52.53599999999998,-1.7060000000000022,65535
52.85999999999998,-1.7060000000000022,65535
53.50799999999997,-2.354000000000002,65535
52.85999999999998,-1.0580000000000025,65535
52.53599999999998,1.5339999999999965,65535
52.53599999999998,0.8859999999999966,65535
52.53599999999998,0.2379999999999968,65535
52.53599999999998,-0.4100000000000028,65535
53.50799999999997,-1.7060000000000022,65535
53.183999999999976,-1.7060000000000022,65535
53.183999999999976,-1.0580000000000025,65535
52.85999999999998,-0.4100000000000028,65535
51.887999999999984,-2.354000000000002,65535
52.21199999999998,-2.354000000000002,65535
55.77599999999996,-2.354000000000002,65535
53.83199999999997,-1.0580000000000025,65535
53.83199999999997,-1.7060000000000022,65535
55.127999999999965,-1.7060000000000022,65535
54.80399999999997,-1.7060000000000022,65535
54.47999999999997,-1.7060000000000022,65535
54.15599999999997,-1.0580000000000025,65535
52.21199999999998,-1.7060000000000022,65535
53.50799999999997,-1.0580000000000025,65535
55.77599999999996,-3.0020000000000016,65535
55.45199999999996,-1.7060000000000022,65535
57.07199999999995,-2.354000000000002,65535
56.74799999999996,-3.0020000000000016,65535
56.42399999999996,-3.0020000000000016,65535
56.09999999999996,-3.650000000000001,65535
50.91599999999999,-3.0020000000000016,65535
50.91599999999999,-3.650000000000001,65535
50.59199999999999,-3.650000000000001,65535
50.59199999999999,-4.298000000000001,65535
51.23999999999999,-3.0020000000000016,65535
50.268,-4.946000000000001,65535
55.77599999999996,-3.650000000000001,65535
55.77599999999996,-4.298000000000001,65535
52.21199999999998,-0.4100000000000028,65535
52.53599999999998,-2.354000000000002,65535
51.56399999999999,-1.7060000000000022,65535
51.56399999999999,-3.650000000000001,65535
51.887999999999984,-4.298000000000001,65535
51.56399999999999,-4.298000000000001,65535
51.887999999999984,-1.7060000000000022,65535
52.21199999999998,-3.0020000000000016,65535
51.23999999999999,0.2379999999999968,65535
50.91599999999999,0.2379999999999968,65535
52.21199999999998,0.2379999999999968,65535
53.83199999999997,-3.0020000000000016,65535
54.15599999999997,-3.0020000000000016,65535
54.47999999999997,-3.0020000000000016,65535
55.127999999999965,-3.650000000000001,65535
54.80399999999997,-3.0020000000000016,65535
53.83199999999997,-2.354000000000002,65535
54.15599999999997,-0.4100000000000028,65535
54.47999999999997,-1.0580000000000025,65535
53.83199999999997,-0.4100000000000028,65535
53.183999999999976,-3.650000000000001,65535
53.183999999999976,-4.298000000000001,65535
52.85999999999998,-3.0020000000000016,65535
52.53599999999998,-3.0020000000000016,65535
51.887999999999984,-3.0020000000000016,65535
51.23999999999999,0.8859999999999966,65535
51.887999999999984,0.2379999999999968,65535
52.21199999999998,0.8859999999999966,65535
51.887999999999984,-4.946000000000001,65535
52.53599999999998,-3.650000000000001,65535
52.21199999999998,-4.298000000000001,65535
53.183999999999976,-0.4100000000000028,65535
51.23999999999999,-3.650000000000001,65535
51.887999999999984,-3.650000000000001,65535
52.21199999999998,-3.650000000000001,65535
51.56399999999999,0.8859999999999966,65535
51.887999999999984,0.8859999999999966,65535
52.85999999999998,0.8859999999999966,65535
53.50799999999997,-0.4100000000000028,65535
56.09999999999996,-4.298000000000001,65535
56.74799999999996,-4.946000000000001,65535
56.74799999999996,-4.298000000000001,65535
56.42399999999996,-4.946000000000001,65535
56.42399999999996,-4.298000000000001,65535
56.09999999999996,-4.946000000000001,65535
57.39599999999995,-4.298000000000001,65535
57.39599999999995,-3.0020000000000016,65535
57.39599999999995,-3.650000000000001,65535
56.42399999999996,-3.650000000000001,65535
57.07199999999995,-3.650000000000001,65535
57.07199999999995,-4.298000000000001,65535
56.74799999999996,-3.650000000000001,65535
59.15266399999986,27.34114399999998,65535
59.47666399999986,26.69314399999997,65535
59.47666399999986,26.04514399999998,65535
59.15266399999986,26.04514399999998,65535
59.15266399999986,24.74914399999998,65535
59.15266399999986,25.397143999999983,65535
59.47666399999986,25.397143999999983,65535
58.50466399999986,26.69314399999997,65535
58.82866399999986,26.69314399999997,65535
57.85666399999987,26.04514399999998,65535
58.180663999999865,26.04514399999998,65535
58.180663999999865,26.69314399999997,65535
58.82866399999986,26.04514399999998,65535
58.50466399999986,25.397143999999983,65535
58.82866399999986,25.397143999999983,65535
58.82866399999986,24.74914399999998,65535
58.180663999999865,27.34114399999998,65535
57.85666399999987,27.34114399999998,65535
63.68866399999983,27.34114399999998,7077
60.124663999999854,24.74914399999998,6613
60.44866399999985,24.74914399999998,6582
60.44866399999985,25.397143999999983,6594
60.77266399999985,25.397143999999983,6800
61.09666399999985,26.04514399999998,6842
60.77266399999985,26.04514399999998,6849
60.77266399999985,26.69314399999997,6868
61.09666399999985,25.397143999999983,6833
61.09666399999985,26.69314399999997,7198
61.420663999999846,26.69314399999997,7220
61.74466399999984,27.34114399999998,7244
62.06866399999984,27.34114399999998,7269
62.39266399999984,27.34114399999998,7293
62.71666399999984,27.34114399999998,7257
64.01266399999983,27.34114399999998,7425
63.36466399999984,27.34114399999998,7145
63.04066399999984,27.34114399999998,7185
63.04066399999984,27.989143999999985,7200
64.33666399999983,27.989143999999985,7472
64.33666399999983,27.34114399999998,7548
64.66066399999983,27.34114399999998,7564
64.66066399999983,26.69314399999997,7575
64.98466399999982,25.397143999999983,5959
64.66066399999983,26.04514399999998,7605
64.98466399999982,26.04514399999998,7627
66.28066399999982,25.397143999999983,6036
65.95666399999982,24.74914399999998,5872
65.63266399999982,24.74914399999998,5876
65.63266399999982,25.397143999999983,5918
65.30866399999982,25.397143999999983,5939
66.60466399999981,25.397143999999983,6096
64.01266399999983,24.74914399999998,6096
64.01266399999983,24.101143999999977,6131
64.01266399999983,23.45314399999998,6155
63.68866399999983,23.45314399999998,6167
63.68866399999983,22.805143999999984,6192
63.68866399999983,26.04514399999998,6784
63.68866399999983,25.397143999999983,6750
63.68866399999983,26.69314399999997,7044
60.44866399999985,26.69314399999997,7036
64.01266399999983,27.989143999999985,7463
62.71666399999984,22.805143999999984,6314
62.39266399999984,22.805143999999984,6346
62.06866399999984,22.805143999999984,6375
62.06866399999984,23.45314399999998,6391
61.74466399999984,23.45314399999998,6403
61.420663999999846,23.45314399999998,6451
61.09666399999985,23.45314399999998,6492
61.09666399999985,24.101143999999977,6499
61.09666399999985,24.74914399999998,6533
60.77266399999985,24.74914399999998,6549
63.04066399999984,21.50914399999997,65535
63.04066399999984,22.15714399999998,65535
63.04066399999984,22.805143999999984,6278
62.39266399999984,26.04514399999998,7441
62.06866399999984,25.397143999999983,7490
61.74466399999984,25.397143999999983,7558
61.74466399999984,24.74914399999998,7595
61.74466399999984,24.101143999999977,7630
61.420663999999846,24.101143999999977,6974
62.39266399999984,26.69314399999997,7412
64.66066399999983,25.397143999999983,6028
64.66066399999983,24.74914399999998,6046
64.33666399999983,24.74914399999998,6057
63.36466399999984,22.805143999999984,6217
67.25266399999981,24.101143999999977,8186
66.92866399999981,24.101143999999977,8150
66.60466399999981,23.45314399999998,8119
66.28066399999982,23.45314399999998,8101
66.28066399999982,24.101143999999977,8083
65.95666399999982,24.101143999999977,3999
60.124663999999854,24.101143999999977,6806
60.124663999999854,23.45314399999998,6843
60.44866399999985,22.805143999999984,65535
60.77266399999985,27.34114399999998,6926
61.09666399999985,27.989143999999985,6958
61.09666399999985,28.63714399999997,7004
61.420663999999846,29.28514399999997,8691
61.74466399999984,29.933143999999977,8749
62.06866399999984,29.933143999999977,8855
62.39266399999984,29.933143999999977,8893
62.71666399999984,29.933143999999977,8926
61.420663999999846,22.805143999999984,6487
61.420663999999846,22.15714399999998,6566
61.09666399999985,22.15714399999998,6554
61.420663999999846,21.50914399999997,6699
62.39266399999984,27.989143999999985,65535
62.06866399999984,27.989143999999985,65535
61.420663999999846,27.34114399999998,65535
63.04066399999984,29.933143999999977,65535
63.68866399999983,29.28514399999997,65535
63.36466399999984,29.28514399999997,65535
63.36466399999984,29.933143999999977,65535
60.44866399999985,27.34114399999998,65535
61.74466399999984,29.28514399999997,65535
62.39266399999984,30.58114399999998,65535
62.71666399999984,31.229143999999977,65535
62.71666399999984,29.28514399999997,65535
63.04066399999984,28.63714399999997,65535
66.60466399999981,26.04514399999998,6106
66.60466399999981,26.69314399999997,6142
66.60466399999981,27.34114399999998,6165
62.71666399999984,26.04514399999998,7326
62.71666399999984,25.397143999999983,7295
63.04066399999984,25.397143999999983,7115
63.36466399999984,25.397143999999983,7078
62.71666399999984,23.45314399999998,7320
62.39266399999984,24.101143999999977,65535
62.71666399999984,22.15714399999998,65535
62.39266399999984,22.15714399999998,65535
62.39266399999984,21.50914399999997,65535
61.09666399999985,21.50914399999997,8377
60.77266399999985,22.805143999999984,7803
60.44866399999985,22.15714399999998,7851
60.77266399999985,23.45314399999998,7785
60.77266399999985,21.50914399999997,7953
60.77266399999985,22.15714399999998,7906
60.124663999999854,22.805143999999984,8119
60.44866399999985,24.101143999999977,6792
62.06866399999984,24.74914399999998,65535
50.72866399999991,16.325143999999987,88
50.40466399999991,16.973143999999984,97
50.72866399999991,16.973143999999984,79
50.40466399999991,16.325143999999987,154
50.08066399999991,16.973143999999984,178
50.08066399999991,16.325143999999987,173
51.700663999999904,16.973143999999984,61
51.37666399999991,16.973143999999984,48
51.05266399999991,15.677143999999986,139
50.72866399999991,15.677143999999986,96
51.05266399999991,17.621143999999987,35
51.37666399999991,17.621143999999987,64
51.700663999999904,17.621143999999987,101
51.700663999999904,16.325143999999987,113
52.0246639999999,22.15714399999998,303
52.0246639999999,21.50914399999997,292
52.3486639999999,21.50914399999997,299
52.0246639999999,20.86114399999998,272
51.700663999999904,20.86114399999998,234
51.37666399999991,21.50914399999997,259
51.37666399999991,20.86114399999998,230
51.05266399999991,20.86114399999998,223
52.6726639999999,23.45314399999998,947
52.3486639999999,22.805143999999984,887
52.3486639999999,20.213143999999986,308
52.0246639999999,20.213143999999986,323
52.3486639999999,19.565143999999982,797
52.6726639999999,19.565143999999982,397
51.700663999999904,21.50914399999997,297
51.700663999999904,22.15714399999998,332
52.6726639999999,21.50914399999997,343
52.996663999999896,21.50914399999997,429
52.6726639999999,20.86114399999998,313
52.6726639999999,22.15714399999998,359
52.6726639999999,20.213143999999986,337
52.996663999999896,19.565143999999982,408
52.996663999999896,20.86114399999998,355
52.996663999999896,20.213143999999986,364
53.32066399999989,20.213143999999986,453
51.37666399999991,20.213143999999986,258
52.3486639999999,16.973143999999984,160
52.0246639999999,16.973143999999984,163
52.0246639999999,16.325143999999987,143
52.0246639999999,17.621143999999987,121
52.6726639999999,16.973143999999984,172
52.996663999999896,16.973143999999984,217
52.3486639999999,16.325143999999987,179
52.3486639999999,15.677143999999986,188
51.700663999999904,18.269143999999983,152
52.6726639999999,17.621143999999987,222
52.3486639999999,17.621143999999987,208
52.6726639999999,18.269143999999983,338
52.3486639999999,18.269143999999983,258
52.3486639999999,18.917143999999983,295
52.996663999999896,17.621143999999987,237
51.700663999999904,19.565143999999982,830
51.700663999999904,18.917143999999983,906
51.37666399999991,18.269143999999983,76
58.82866399999986,9.197143999999987,2768
58.180663999999865,7.90114399999999,2861
58.50466399999986,8.54914399999999,2812
63.36466399999984,10.493143999999988,2983
63.36466399999984,11.141143999999988,2990
63.36466399999984,11.789143999999988,3025
63.68866399999983,11.789143999999988,3053
64.33666399999983,12.437143999999988,3454
64.66066399999983,12.437143999999988,3949
65.63266399999982,13.085143999999987,3606
65.95666399999982,13.085143999999987,3641
66.28066399999982,14.381143999999988,3711
65.95666399999982,13.733143999999989,3780
66.28066399999982,13.733143999999989,3689
65.30866399999982,13.085143999999987,3907
64.98466399999982,13.085143999999987,3541
64.01266399999983,11.789143999999988,3084
63.68866399999983,11.141143999999988,3021
59.800663999999855,10.493143999999988,2564
59.800663999999855,11.141143999999988,2547
60.124663999999854,11.141143999999988,2562
60.44866399999985,11.141143999999988,2575
60.124663999999854,11.789143999999988,2588
60.77266399999985,7.25314399999999,2824
60.77266399999985,6.60514399999999,2870
59.15266399999986,9.197143999999987,2650
59.47666399999986,9.197143999999987,2671
59.800663999999855,9.845143999999989,2566
59.47666399999986,11.141143999999988,2511
61.09666399999985,10.493143999999988,2685
60.77266399999985,10.493143999999988,2655
60.77266399999985,11.141143999999988,2610
62.06866399999984,9.197143999999987,3010
61.74466399999984,9.845143999999989,2956
61.420663999999846,9.845143999999989,2933
59.15266399999986,9.845143999999989,2630
59.47666399999986,9.845143999999989,2606
58.82866399999986,5.957143999999991,3045
58.180663999999865,7.25314399999999,2917
58.50466399999986,7.25314399999999,2950
58.50466399999986,6.60514399999999,2955
58.50466399999986,5.957143999999991,3013
58.82866399999986,8.54914399999999,2798
60.44866399999985,7.25314399999999,2798
60.44866399999985,7.90114399999999,2759
60.124663999999854,10.493143999999988,2596
60.44866399999985,9.197143999999987,2708
60.77266399999985,9.197143999999987,2720
60.77266399999985,8.54914399999999,2739
60.124663999999854,9.845143999999989,2854
60.44866399999985,10.493143999999988,2641
63.04066399999984,10.493143999999988,2934
62.06866399999984,9.845143999999989,3035
62.39266399999984,9.845143999999989,3043
62.71666399999984,9.845143999999989,3067
59.47666399999986,14.381143999999988,2517
59.47666399999986,13.733143999999989,2501
59.47666399999986,13.085143999999987,2477
59.800663999999855,12.437143999999988,2546
59.15266399999986,11.141143999999988,2475
59.15266399999986,14.381143999999988,2501
58.82866399999986,11.789143999999988,2455
58.50466399999986,12.437143999999988,2385
58.180663999999865,12.437143999999988,2378
57.85666399999987,11.789143999999988,2329
62.71666399999984,7.90114399999999,3096
62.39266399999984,7.90114399999999,3053
62.06866399999984,8.54914399999999,3028
60.44866399999985,5.309143999999991,2944
60.44866399999985,5.957143999999991,2911
60.77266399999985,5.957143999999991,2900
62.39266399999984,11.141143999999988,2831
62.06866399999984,10.493143999999988,2786
61.74466399999984,11.141143999999988,2759
61.420663999999846,11.141143999999988,2713
61.09666399999985,11.141143999999988,2696
60.77266399999985,11.789143999999988,2673
63.04066399999984,11.141143999999988,2912
62.71666399999984,11.141143999999988,2855
62.39266399999984,10.493143999999988,2813
67.25266399999981,15.677143999999986,3830
67.25266399999981,15.029143999999986,3868
67.25266399999981,14.381143999999988,3896
66.92866399999981,15.029143999999986,3819
66.60466399999981,15.677143999999986,3797
64.01266399999983,11.141143999999988,3068
66.60466399999981,15.029143999999986,3860
54.29266399999989,18.269143999999983,760
54.616663999999886,17.621143999999987,822
53.96866399999989,18.269143999999983,748
43.92466399999995,1.4211439999999929,1158
44.24866399999995,0.7731439999999932,1170
44.572663999999946,0.1251439999999934,1148
46.84066399999993,1.4211439999999929,1065
44.572663999999946,1.4211439999999929,1225
44.24866399999995,1.4211439999999929,1190
45.54466399999994,1.4211439999999929,1177
46.516663999999935,1.4211439999999929,1180
42.30466399999996,2.717143999999992,1176
44.24866399999995,2.717143999999992,1274
44.572663999999946,2.717143999999992,1408
43.92466399999995,2.0691439999999925,1190
42.30466399999996,2.0691439999999925,1229
42.62866399999996,2.0691439999999925,1193
42.62866399999996,1.4211439999999929,1232
42.95266399999996,1.4211439999999929,1181
43.276663999999954,1.4211439999999929,1156
46.516663999999935,-1.170856000000006,1200
46.19266399999994,-1.170856000000006,1225
45.86866399999994,-0.5228560000000062,1201
45.54466399999994,-0.5228560000000062,1182
48.46066399999992,1.4211439999999929,956
41.332663999999966,2.0691439999999925,1234
41.98066399999996,2.717143999999992,1193
48.46066399999992,-1.8188560000000056,1073
47.81266399999993,0.7731439999999932,1243
46.84066399999993,0.7731439999999932,1180
44.572663999999946,-1.170856000000006,1165
43.60066399999995,-1.170856000000006,1365
43.276663999999954,-1.8188560000000056,1455
43.276663999999954,0.1251439999999934,1370
42.95266399999996,0.1251439999999934,1347
43.276663999999954,-0.5228560000000062,1401
43.60066399999995,-0.5228560000000062,1390
47.81266399999993,-3.7628560000000046,1207
47.48866399999993,-2.4668560000000053,1125
47.81266399999993,-0.5228560000000062,1008
46.516663999999935,-1.8188560000000056,1228
48.136663999999925,-1.170856000000006,1105
47.48866399999993,-1.170856000000006,1136
45.22066399999994,8.54914399999999,917
45.22066399999994,7.90114399999999,935
46.19266399999994,-0.5228560000000062,1181
46.516663999999935,-0.5228560000000062,1163
48.78466399999992,-3.114856000000005,1144
50.72866399999991,2.0691439999999925,856
50.40466399999991,2.0691439999999925,902
40.36066399999997,-3.7628560000000046,1425
41.65666399999997,-1.170856000000006,1342
41.332663999999966,1.4211439999999929,1280
43.276663999999954,13.733143999999989,3910
42.95266399999996,13.733143999999989,3932
41.65666399999997,15.029143999999986,4016
40.68466399999997,17.621143999999987,4178
43.60066399999995,13.085143999999987,3903
41.65666399999997,12.437143999999988,2569
41.65666399999997,13.085143999999987,2588
41.98066399999996,13.085143999999987,2638
41.65666399999997,13.733143999999989,2640
41.332663999999966,13.733143999999989,2632
41.332663999999966,14.381143999999988,2789
41.00866399999997,14.381143999999988,2695
41.332663999999966,13.085143999999987,2614
41.00866399999997,15.029143999999986,2895
41.98066399999996,13.733143999999989,2837
42.30466399999996,14.381143999999988,2976
42.30466399999996,12.437143999999988,2577
42.62866399999996,12.437143999999988,2756
42.95266399999996,12.437143999999988,3041
42.30466399999996,11.789143999999988,2586
42.95266399999996,11.789143999999988,2796
42.62866399999996,11.789143999999988,2787
43.276663999999954,11.789143999999988,2850
42.95266399999996,13.085143999999987,3804
42.30466399999996,13.085143999999987,2863
43.276663999999954,13.085143999999987,3852
43.276663999999954,12.437143999999988,3859
42.62866399999996,11.141143999999988,2632
42.95266399999996,11.141143999999988,2675
42.95266399999996,10.493143999999988,2693
44.572663999999946,8.54914399999999,964
44.89666399999994,7.90114399999999,941
44.89666399999994,9.197143999999987,972
44.24866399999995,7.90114399999999,999
44.572663999999946,7.90114399999999,956
43.92466399999995,7.90114399999999,1059
44.24866399999995,7.25314399999999,996
44.89666399999994,7.25314399999999,947
45.22066399999994,7.25314399999999,947
45.54466399999994,7.90114399999999,938
44.572663999999946,7.25314399999999,982
52.996663999999896,22.805143999999984,963
52.996663999999896,23.45314399999998,982
51.37666399999991,22.15714399999998,731
51.37666399999991,22.805143999999984,785
50.08066399999991,20.213143999999986,181
50.72866399999991,20.213143999999986,142
50.40466399999991,20.213143999999986,148
50.08066399999991,20.86114399999998,192
50.08066399999991,21.50914399999997,244
50.08066399999991,22.15714399999998,280
50.08066399999991,22.805143999999984,299
53.96866399999989,22.805143999999984,1121
53.64466399999989,23.45314399999998,1075
53.32066399999989,23.45314399999998,1022
50.40466399999991,19.565143999999982,83
50.08066399999991,18.917143999999983,126
50.08066399999991,18.269143999999983,35
52.0246639999999,22.805143999999984,313
52.0246639999999,23.45314399999998,350
51.37666399999991,19.565143999999982,819
51.05266399999991,19.565143999999982,128
50.72866399999991,18.917143999999983,73
50.72866399999991,19.565143999999982,97
49.75666399999992,18.917143999999983,293
50.40466399999991,18.269143999999983,25
53.64466399999989,19.565143999999982,808
53.96866399999989,18.917143999999983,790
53.64466399999989,18.917143999999983,807
53.64466399999989,20.213143999999986,770
52.996663999999896,18.917143999999983,358
52.996663999999896,18.269143999999983,325
53.32066399999989,18.917143999999983,433
50.72866399999991,17.621143999999987,24
50.72866399999991,18.269143999999983,30
52.6726639999999,16.325143999999987,206
52.996663999999896,16.325143999999987,246
52.996663999999896,15.677143999999986,270
53.32066399999989,15.677143999999986,777
53.32066399999989,15.029143999999986,768
53.64466399999989,15.029143999999986,801
53.96866399999989,15.029143999999986,810
52.6726639999999,18.917143999999983,348
53.32066399999989,16.325143999999987,836
52.6726639999999,15.029143999999986,290
51.05266399999991,22.805143999999984,816
51.05266399999991,23.45314399999998,843
50.72866399999991,22.15714399999998,781
50.40466399999991,22.15714399999998,770
51.05266399999991,22.15714399999998,782
54.616663999999886,16.973143999999984,860
54.29266399999989,16.325143999999987,835
53.96866399999989,15.677143999999986,825
50.72866399999991,21.50914399999997,811
50.40466399999991,21.50914399999997,345
50.40466399999991,17.621143999999987,0
53.32066399999989,22.805143999999984,1114
53.64466399999989,22.15714399999998,1138
54.29266399999989,16.973143999999984,880
50.72866399999991,20.86114399999998,190
51.700663999999904,22.805143999999984,1000
51.05266399999991,21.50914399999997,290
50.08066399999991,19.565143999999982,142
52.0246639999999,18.917143999999983,8008
52.0246639999999,19.565143999999982,8001
53.64466399999989,18.269143999999983,445
51.700663999999904,20.213143999999986,806
53.32066399999989,19.565143999999982,799
50.72866399999991,23.45314399999998,1195
50.72866399999991,22.805143999999984,1164
49.43266399999992,20.213143999999986,263
49.75666399999992,21.50914399999997,373
49.75666399999992,22.15714399999998,822
49.43266399999992,22.15714399999998,834
51.05266399999991,18.917143999999983,117
51.05266399999991,18.269143999999983,99
53.32066399999989,16.973143999999984,405
53.64466399999989,16.973143999999984,862
49.75666399999992,20.86114399999998,265
50.40466399999991,22.805143999999984,8090
53.64466399999989,16.325143999999987,866
53.96866399999989,20.86114399999998,1026
54.29266399999989,20.86114399999998,1072
53.96866399999989,21.50914399999997,1089
53.64466399999989,15.677143999999986,817
53.96866399999989,20.213143999999986,790
53.96866399999989,19.565143999999982,827
54.29266399999989,19.565143999999982,841
53.96866399999989,16.325143999999987,833
53.64466399999989,17.621143999999987,846
53.96866399999989,22.15714399999998,1156
53.64466399999989,21.50914399999997,1094
53.64466399999989,20.86114399999998,872
52.6726639999999,15.677143999999986,268
51.05266399999991,20.213143999999986,769
54.940663999999884,24.101143999999977,3201
54.616663999999886,23.45314399999998,3145
54.29266399999989,23.45314399999998,3008
53.64466399999989,22.805143999999984,1163
53.96866399999989,16.973143999999984,993
50.40466399999991,20.86114399999998,826
53.32066399999989,18.269143999999983,408
49.75666399999992,19.565143999999982,190
50.40466399999991,23.45314399999998,445
49.75666399999992,20.213143999999986,241
49.43266399999992,19.565143999999982,266
49.43266399999992,20.86114399999998,302
53.96866399999989,17.621143999999987,1054
42.30466399999996,-1.8188560000000056,8319
41.98066399999996,-1.8188560000000056,8302
41.65666399999997,0.7731439999999932,8306
42.62866399999996,-1.8188560000000056,8434
42.95266399999996,-1.8188560000000056,8463
42.62866399999996,-3.114856000000005,8557
42.95266399999996,-2.4668560000000053,8535
42.62866399999996,-7.650856000000003,8899
42.30466399999996,-7.650856000000003,8959
42.30466399999996,-8.946856000000002,9095
42.30466399999996,-8.298856000000002,9069
41.98066399999996,-8.298856000000002,9058
42.30466399999996,-7.002856000000003,8841
42.62866399999996,-6.354856000000003,8783
42.30466399999996,-6.354856000000003,8738
42.62866399999996,-5.706856000000004,8238
41.98066399999996,-4.410856000000004,8192
42.30466399999996,-3.7628560000000046,8583
40.03666399999997,-0.5228560000000062,8286
39.38866399999998,-0.5228560000000062,8334
41.00866399999997,0.7731439999999932,8434
40.68466399999997,0.7731439999999932,8466
40.36066399999997,0.1251439999999934,8544
39.712663999999975,-0.5228560000000062,8443
38.41666399999998,-0.5228560000000062,8455
39.06466399999998,-0.5228560000000062,8577
38.74066399999998,-1.170856000000006,8463
41.332663999999966,0.7731439999999932,8494
41.65666399999997,2.717143999999992,8094
41.65666399999997,2.0691439999999925,8117
41.332663999999966,0.1251439999999934,8452
41.332663999999966,-0.5228560000000062,8396
41.65666399999997,-4.410856000000004,8166
40.03666399999997,-2.4668560000000053,8404
41.00866399999997,-4.410856000000004,8287
43.276663999999954,-5.706856000000004,8368
39.38866399999998,-1.170856000000006,8429
38.09266399999999,-1.170856000000006,8842
38.74066399999998,-0.5228560000000062,8605
37.76866399999999,-1.170856000000006,8907
39.06466399999998,-1.8188560000000056,8427
39.38866399999998,-3.114856000000005,8327
39.38866399999998,-2.4668560000000053,8383
39.06466399999998,-2.4668560000000053,8410
39.06466399999998,-3.114856000000005,8331
39.06466399999998,-3.7628560000000046,8305
38.74066399999998,-3.7628560000000046,8384
40.03666399999997,-3.7628560000000046,8283
40.03666399999997,-3.114856000000005,8483
40.03666399999997,-1.8188560000000056,8564
39.712663999999975,-1.8188560000000056,8529
39.712663999999975,-1.170856000000006,8465
40.36066399999997,-1.170856000000006,8484
40.68466399999997,-1.170856000000006,8462
41.00866399999997,-1.170856000000006,8450
41.332663999999966,-1.170856000000006,8290
43.276663999999954,-8.298856000000002,9059
42.95266399999996,-8.298856000000002,9027
41.65666399999997,-5.706856000000004,65535
41.98066399999996,-7.002856000000003,65535
41.98066399999996,-6.354856000000003,65535
41.332663999999966,-5.058856000000004,8405
43.276663999999954,-3.7628560000000046,8840
42.95266399999996,-4.410856000000004,8774
42.62866399999996,-4.410856000000004,8764
42.30466399999996,-4.410856000000004,8723
41.00866399999997,-5.706856000000004,8343
41.332663999999966,-1.8188560000000056,8236
40.68466399999997,-3.114856000000005,8190
41.00866399999997,-3.114856000000005,8241
41.00866399999997,-2.4668560000000053,8264
41.332663999999966,-2.4668560000000053,8317
40.68466399999997,-4.410856000000004,8227
40.36066399999997,-4.410856000000004,8311
40.68466399999997,-3.7628560000000046,8219
40.36066399999997,-3.114856000000005,8197
41.65666399999997,-2.4668560000000053,8334
38.09266399999999,-3.7628560000000046,8431
38.74066399999998,-3.114856000000005,8375
37.76866399999999,-3.7628560000000046,8488
39.712663999999975,-3.114856000000005,8319
38.41666399999998,-3.7628560000000046,8396
40.03666399999997,-4.410856000000004,65535
40.03666399999997,-5.058856000000004,65535
39.38866399999998,-6.354856000000003,65535
39.38866399999998,-7.002856000000003,65535
42.95266399999996,-3.114856000000005,8968
41.98066399999996,-1.170856000000006,8331
42.30466399999996,-2.4668560000000053,8372
41.65666399999997,-0.5228560000000062,8429
41.98066399999996,-0.5228560000000062,8266
41.65666399999997,0.1251439999999934,8293
41.98066399999996,0.1251439999999934,8315
37.76866399999999,-5.058856000000004,8367
36.79666399999999,-4.410856000000004,8426
38.74066399999998,-4.410856000000004,8323
37.12066399999999,-4.410856000000004,8400
37.44466399999999,-5.058856000000004,8924
37.44466399999999,-7.002856000000003,65535
37.44466399999999,-6.354856000000003,65535
37.44466399999999,-5.706856000000004,8600
39.712663999999975,-3.7628560000000046,8393
42.62866399999996,-8.946856000000002,65535
42.30466399999996,-5.706856000000004,8745
42.30466399999996,-5.058856000000004,8830
42.95266399999996,-5.706856000000004,8270
41.00866399999997,-5.058856000000004,8311
40.68466399999997,-5.058856000000004,8285
41.65666399999997,-5.058856000000004,65535
41.65666399999997,-6.354856000000003,65535
36.79666399999999,-6.354856000000003,65535
37.12066399999999,-5.706856000000004,8768
37.76866399999999,-5.706856000000004,8567
38.09266399999999,-4.410856000000004,8702
37.12066399999999,-5.058856000000004,8722
36.79666399999999,-5.058856000000004,8680
37.76866399999999,-4.410856000000004,65535
37.76866399999999,-7.002856000000003,65535
38.41666399999998,-6.354856000000003,65535
38.09266399999999,-6.354856000000003,65535
48.78466399999992,1.4211439999999929,1081
56.23666399999988,8.54914399999999,6610
55.58866399999988,9.197143999999987,6415
55.91266399999988,9.197143999999987,6556
55.26466399999988,10.493143999999988,2034
55.91266399999988,12.437143999999988,2169
55.58866399999988,11.789143999999988,6255
55.58866399999988,11.141143999999988,6296
55.26466399999988,11.789143999999988,6288
55.58866399999988,10.493143999999988,6411
55.58866399999988,13.085143999999987,2126
56.88466399999987,9.845143999999989,6562
57.20866399999987,9.845143999999989,6597
56.56066399999988,9.845143999999989,6534
56.88466399999987,8.54914399999999,6649
54.940663999999884,9.845143999999989,7756
54.940663999999884,11.789143999999988,6512
55.91266399999988,13.085143999999987,2184
56.23666399999988,13.733143999999989,2228
55.91266399999988,13.733143999999989,2231
56.23666399999988,14.381143999999988,2251
56.23666399999988,15.029143999999986,2292
56.23666399999988,15.677143999999986,2347
56.56066399999988,14.381143999999988,2308
56.88466399999987,14.381143999999988,2278
56.23666399999988,13.085143999999987,2176
56.56066399999988,13.085143999999987,2256
56.88466399999987,12.437143999999988,2293
57.20866399999987,12.437143999999988,2309
57.53266399999987,12.437143999999988,2324
56.88466399999987,15.029143999999986,2304
56.56066399999988,15.677143999999986,2364
56.88466399999987,15.677143999999986,2383
56.88466399999987,16.325143999999987,2398
55.91266399999988,11.789143999999988,6581
57.20866399999987,10.493143999999988,6784
49.43266399999992,1.4211439999999929,968
49.75666399999992,0.7731439999999932,960
49.75666399999992,2.0691439999999925,906
50.08066399999991,2.717143999999992,880
49.75666399999992,1.4211439999999929,934
47.81266399999993,1.4211439999999929,1014
48.136663999999925,2.0691439999999925,1509
48.46066399999992,2.0691439999999925,1016
48.136663999999925,1.4211439999999929,986
48.78466399999992,0.1251439999999934,1109
48.46066399999992,0.1251439999999934,1109
47.81266399999993,0.1251439999999934,1063
46.84066399999993,-0.5228560000000062,1122
47.16466399999993,0.7731439999999932,1069
46.84066399999993,0.1251439999999934,1247
46.84066399999993,-1.170856000000006,1172
50.08066399999991,1.4211439999999929,937
50.08066399999991,2.0691439999999925,920
49.43266399999992,2.717143999999992,899
49.75666399999992,3.365143999999992,912
50.08066399999991,3.365143999999992,899
49.10866399999992,2.0691439999999925,962
49.43266399999992,2.0691439999999925,930
48.78466399999992,0.7731439999999932,1142
48.78466399999992,-0.5228560000000062,1214
48.78466399999992,-1.170856000000006,1124
48.136663999999925,0.7731439999999932,1069
48.46066399999992,0.7731439999999932,1020
43.92466399999995,5.957143999999991,1027
44.24866399999995,5.957143999999991,1065
43.92466399999995,5.309143999999991,972
42.95266399999996,2.717143999999992,1097
45.54466399999994,2.0691439999999925,1154
45.22066399999994,2.0691439999999925,1249
42.95266399999996,2.0691439999999925,1129
42.95266399999996,0.7731439999999932,1298
43.276663999999954,0.7731439999999932,1227
46.19266399999994,0.7731439999999932,1252
46.516663999999935,0.7731439999999932,1209
45.86866399999994,0.1251439999999934,1265
46.19266399999994,0.1251439999999934,1269
47.81266399999993,-1.170856000000006,1323
48.136663999999925,-2.4668560000000053,1247
47.48866399999993,-1.8188560000000056,1107
47.16466399999993,-1.170856000000006,1128
47.16466399999993,-0.5228560000000062,1131
46.84066399999993,-1.8188560000000056,1196
45.22066399999994,-0.5228560000000062,1188
44.89666399999994,0.1251439999999934,1154
45.22066399999994,0.7731439999999932,1177
45.54466399999994,0.7731439999999932,1205
45.86866399999994,0.7731439999999932,1242
45.22066399999994,0.1251439999999934,1187
44.89666399999994,0.7731439999999932,1194
43.92466399999995,-0.5228560000000062,1296
43.92466399999995,-1.170856000000006,1276
44.24866399999995,-1.170856000000006,1230
45.22066399999994,-1.170856000000006,1218
44.572663999999946,-0.5228560000000062,1123
44.24866399999995,0.1251439999999934,1170
44.572663999999946,0.7731439999999932,1277
43.276663999999954,-1.170856000000006,1432
42.95266399999996,-0.5228560000000062,1413
44.24866399999995,2.0691439999999925,1257
43.60066399999995,0.7731439999999932,1244
43.60066399999995,2.0691439999999925,1215
52.6726639999999,4.661143999999991,6601
52.6726639999999,5.309143999999991,6624
51.700663999999904,5.309143999999991,6569
52.0246639999999,5.309143999999991,6581
52.3486639999999,5.309143999999991,6597
51.37666399999991,4.013143999999992,6577
52.3486639999999,5.957143999999991,6591
52.0246639999999,6.60514399999999,6621
52.6726639999999,5.957143999999991,6608
52.996663999999896,5.957143999999991,6621
53.32066399999989,5.957143999999991,6615
52.996663999999896,6.60514399999999,6597
53.32066399999989,6.60514399999999,6589
52.6726639999999,6.60514399999999,6617
52.996663999999896,5.309143999999991,6636
59.15266399999986,24.101143999999977,65535
56.88466399999987,24.101143999999977,65535
56.88466399999987,23.45314399999998,65535
56.88466399999987,22.805143999999984,65535
57.20866399999987,24.74914399999998,65535
56.88466399999987,24.74914399999998,65535
56.56066399999988,24.74914399999998,65535
56.56066399999988,25.397143999999983,65535
56.56066399999988,24.101143999999977,65535
56.56066399999988,23.45314399999998,65535
56.56066399999988,26.04514399999998,65535
56.88466399999987,26.04514399999998,65535
57.20866399999987,25.397143999999983,65535
57.53266399999987,25.397143999999983,65535
56.23666399999988,26.04514399999998,65535
56.23666399999988,26.69314399999997,65535
55.91266399999988,26.69314399999997,65535
56.56066399999988,26.69314399999997,65535
56.56066399999988,27.34114399999998,65535
56.56066399999988,27.989143999999985,65535
56.23666399999988,27.989143999999985,65535
55.91266399999988,27.34114399999998,65535
56.56066399999988,22.805143999999984,65535
56.56066399999988,22.15714399999998,65535
56.56066399999988,21.50914399999997,65535
57.20866399999987,26.69314399999997,65535
39.06466399999998,-8.946856000000002,65535
38.41666399999998,-8.298856000000002,65535
45.86866399999994,11.789143999999988,1588
46.19266399999994,11.789143999999988,1575
46.19266399999994,10.493143999999988,1615
45.22066399999994,18.269143999999983,1452
45.22066399999994,18.917143999999983,1493
45.54466399999994,16.973143999999984,1355
45.22066399999994,17.621143999999987,1396
45.86866399999994,16.325143999999987,1316
45.54466399999994,18.917143999999983,1540
45.54466399999994,16.325143999999987,1330
45.54466399999994,18.269143999999983,1508
44.89666399999994,18.917143999999983,1690
46.19266399999994,16.973143999999984,1316
46.19266399999994,16.325143999999987,1321
45.86866399999994,16.973143999999984,1333
45.86866399999994,17.621143999999987,1428
46.19266399999994,15.677143999999986,1290
46.516663999999935,16.325143999999987,1295
45.54466399999994,15.677143999999986,1365
45.22066399999994,15.029143999999986,1401
45.54466399999994,15.029143999999986,1362
45.22066399999994,15.677143999999986,1426
44.572663999999946,15.677143999999986,1579
44.24866399999995,15.677143999999986,1600
43.92466399999995,16.325143999999987,1664
44.89666399999994,15.677143999999986,1543
45.54466399999994,17.621143999999987,1407
45.22066399999994,16.325143999999987,1385
46.516663999999935,16.973143999999984,1308
45.86866399999994,18.269143999999983,1600
43.92466399999995,15.677143999999986,1766
45.22066399999994,13.733143999999989,1410
47.48866399999993,19.565143999999982,902
47.16466399999993,18.917143999999983,906
47.81266399999993,18.917143999999983,892
45.54466399999994,9.845143999999989,919
45.22066399999994,9.845143999999989,932
45.22066399999994,10.493143999999988,978
45.86866399999994,9.845143999999989,933
45.86866399999994,10.493143999999988,2358
48.78466399999992,21.50914399999997,785
49.10866399999992,20.213143999999986,409
49.10866399999992,18.917143999999983,388
48.46066399999992,17.621143999999987,794
49.43266399999992,17.621143999999987,973
49.10866399999992,17.621143999999987,832
48.136663999999925,18.269143999999983,835
49.10866399999992,18.269143999999983,786
49.43266399999992,18.269143999999983,489
49.43266399999992,16.973143999999984,546
49.75666399999992,16.973143999999984,921
49.75666399999992,16.325143999999987,486
50.08066399999991,15.677143999999986,223
50.08066399999991,15.029143999999986,221
49.43266399999992,18.917143999999983,403
47.81266399999993,20.86114399999998,955
48.136663999999925,20.86114399999998,900
48.46066399999992,20.86114399999998,804
48.46066399999992,21.50914399999997,800
49.10866399999992,19.565143999999982,321
48.136663999999925,17.621143999999987,781
48.78466399999992,22.15714399999998,910
48.78466399999992,20.86114399999998,959
49.10866399999992,20.86114399999998,447
48.78466399999992,18.269143999999983,791
48.78466399999992,17.621143999999987,734
49.10866399999992,21.50914399999997,766
48.78466399999992,20.213143999999986,1310
48.46066399999992,20.213143999999986,1337
48.136663999999925,19.565143999999982,1605
48.46066399999992,19.565143999999982,1484
48.46066399999992,18.917143999999983,934
48.46066399999992,18.269143999999983,839
48.78466399999992,19.565143999999982,1250
48.78466399999992,18.917143999999983,992
47.81266399999993,18.269143999999983,847
49.10866399999992,22.15714399999998,860
49.43266399999992,21.50914399999997,814
48.136663999999925,18.917143999999983,927
48.136663999999925,20.213143999999986,1625
52.636,-8.018,65535
52.312,-7.370000000000001,65535
52.312,-8.018,65535
52.636,-8.666,65535
51.988,-8.666,65535
51.988,-8.018,65535
52.96,-8.666,65535
52.96,-6.074000000000002,65535
53.28399999999999,-6.722000000000001,65535
53.60799999999999,-6.722000000000001,65535
53.60799999999999,-7.370000000000001,65535
53.60799999999999,-8.018,65535
54.25599999999999,-8.666,65535
53.93199999999999,-8.666,65535
53.93199999999999,-8.018,65535
52.312,-6.722000000000001,65535
52.636,-6.722000000000001,65535
53.93199999999999,-6.722000000000001,65535
54.25599999999999,-6.074000000000002,65535
53.28399999999999,-7.370000000000001,65535
52.96,-7.370000000000001,65535
52.312,-8.666,65535
52.96,-8.018,65535
52.636,-7.370000000000001,65535
52.96,-6.722000000000001,65535
51.988,-9.314,65535
52.312,-9.314,65535
54.579999999999984,-6.722000000000001,65535
54.579999999999984,-6.074000000000002,65535
53.28399999999999,-8.018,65535
53.28399999999999,-8.666,65535
53.28399999999999,-9.314,65535
53.93199999999999,-9.314,65535
54.25599999999999,-9.314,65535
53.60799999999999,-8.666,65535
53.60799999999999,-9.314,65535
49.43266399999992,14.381143999999988,275
49.75666399999992,14.381143999999988,228
49.75666399999992,15.029143999999986,226
49.75666399999992,13.733143999999989,237
50.08066399999991,13.733143999999989,229
49.75666399999992,15.677143999999986,239
50.40466399999991,15.029143999999986,216
49.43266399999992,13.733143999999989,247
50.40466399999991,15.677143999999986,227
50.40466399999991,13.733143999999989,282
46.19266399999994,15.029143999999986,1273
45.86866399999994,15.029143999999986,1318
45.86866399999994,14.381143999999988,1295
46.19266399999994,13.733143999999989,1382
45.86866399999994,13.733143999999989,1468
58.50466399999986,13.733143999999989,2420
58.180663999999865,13.733143999999989,2406
58.180663999999865,13.085143999999987,2378
57.85666399999987,12.437143999999988,2342
60.44866399999985,15.677143999999986,2627
60.124663999999854,15.677143999999986,2561
60.124663999999854,16.325143999999987,2599
59.800663999999855,16.325143999999987,2527
59.800663999999855,17.621143999999987,2506
59.47666399999986,18.269143999999983,2488
61.74466399999984,16.973143999999984,2638
61.420663999999846,16.973143999999984,2611
60.77266399999985,16.973143999999984,2563
65.63266399999982,22.15714399999998,3742
65.95666399999982,21.50914399999997,3702
65.63266399999982,20.86114399999998,3673
64.98466399999982,20.213143999999986,3605
64.66066399999983,20.213143999999986,3583
64.33666399999983,19.565143999999982,3277
64.01266399999983,19.565143999999982,2990
63.68866399999983,20.213143999999986,2943
64.66066399999983,18.917143999999983,5654
59.15266399999986,16.325143999999987,2463
59.15266399999986,15.029143999999986,2467
59.15266399999986,17.621143999999987,2480
57.53266399999987,14.381143999999988,2304
57.53266399999987,15.029143999999986,2324
61.09666399999985,14.381143999999988,2731
60.77266399999985,15.029143999999986,2682
60.44866399999985,15.029143999999986,2668
58.180663999999865,15.029143999999986,2381
58.50466399999986,16.325143999999987,2415
58.50466399999986,15.677143999999986,2388
63.36466399999984,13.085143999999987,2975
63.04066399999984,14.381143999999988,2912
62.39266399999984,15.677143999999986,2834
63.36466399999984,13.733143999999989,2957
63.36466399999984,14.381143999999988,2929
62.71666399999984,15.677143999999986,2862
62.39266399999984,17.621143999999987,2696
59.800663999999855,15.677143999999986,2749
55.58866399999988,13.733143999999989,2258
57.20866399999987,14.381143999999988,2288
57.85666399999987,14.381143999999988,2336
58.82866399999986,16.973143999999984,2472
58.82866399999986,16.325143999999987,2450
59.15266399999986,18.269143999999983,2484
60.44866399999985,17.621143999999987,2539
59.15266399999986,12.437143999999988,2443
59.15266399999986,13.085143999999987,2457
58.82866399999986,12.437143999999988,2419
59.47666399999986,16.325143999999987,2509
58.82866399999986,14.381143999999988,2496
59.47666399999986,15.677143999999986,2527
63.36466399999984,18.917143999999983,2896
63.04066399999984,17.621143999999987,2851
62.71666399999984,17.621143999999987,2825
63.68866399999983,19.565143999999982,2929
62.39266399999984,16.973143999999984,2740
59.800663999999855,16.973143999999984,2515
59.47666399999986,17.621143999999987,2492
57.85666399999987,13.085143999999987,2368
57.53266399999987,13.085143999999987,2349
58.50466399999986,11.789143999999988,2390
57.85666399999987,15.029143999999986,2370
57.20866399999987,13.733143999999989,2294
57.53266399999987,13.733143999999989,2355
61.74466399999984,16.325143999999987,2734
61.420663999999846,16.325143999999987,2701
61.09666399999985,16.325143999999987,2690
61.09666399999985,16.973143999999984,2658
60.124663999999854,15.029143999999986,2836
66.60466399999981,20.86114399999998,3777
67.25266399999981,20.86114399999998,3845
67.90066399999981,20.213143999999986,3915
67.57666399999981,20.213143999999986,4540
59.800663999999855,15.029143999999986,2556
58.50466399999986,15.029143999999986,2398
59.47666399999986,15.029143999999986,2541
60.44866399999985,16.325143999999987,2627
59.15266399999986,15.677143999999986,2485
57.85666399999987,13.733143999999989,2396
58.82866399999986,13.733143999999989,2443
58.50466399999986,13.085143999999987,2428
57.20866399999987,13.085143999999987,2325
56.88466399999987,13.085143999999987,2299
58.180663999999865,11.789143999999988,2361
62.06866399999984,16.973143999999984,2729
65.95666399999982,23.45314399999998,3977
59.800663999999855,14.381143999999988,5411
59.800663999999855,18.269143999999983,2497
63.04066399999984,15.029143999999986,2880
62.71666399999984,15.029143999999986,2870
62.39266399999984,16.325143999999987,2803
63.36466399999984,12.437143999999988,3008
68.5486639999998,17.621143999999987,4128
68.5486639999998,18.269143999999983,4061
68.5486639999998,18.917143999999983,4038
68.2246639999998,18.917143999999983,3994
59.800663999999855,13.085143999999987,2560
60.124663999999854,13.085143999999987,2599
59.47666399999986,16.973143999999984,2501
59.15266399999986,16.973143999999984,2493
56.56066399999988,13.733143999999989,2246
60.124663999999854,17.621143999999987,2516
57.85666399999987,16.325143999999987,2475
58.180663999999865,16.325143999999987,2437
58.180663999999865,15.677143999999986,2445
57.20866399999987,16.325143999999987,2487
57.53266399999987,15.677143999999986,2505
57.85666399999987,15.677143999999986,2476
44.89666399999994,23.45314399999998,2485
44.572663999999946,23.45314399999998,2555
44.89666399999994,24.74914399999998,2472
44.572663999999946,24.74914399999998,2591
44.572663999999946,24.101143999999977,2532
44.24866399999995,24.101143999999977,2561
47.48866399999993,25.397143999999983,2333
47.48866399999993,24.74914399999998,2273
47.16466399999993,24.74914399999998,2195
47.16466399999993,24.101143999999977,2097
47.48866399999993,22.15714399999998,2227
47.81266399999993,22.15714399999998,2313
47.16466399999993,22.15714399999998,2206
47.16466399999993,23.45314399999998,2258
47.16466399999993,22.805143999999984,2264
46.84066399999993,24.101143999999977,2178
45.86866399999994,27.34114399999998,2518
45.54466399999994,27.34114399999998,2499
45.54466399999994,27.989143999999985,2615
45.86866399999994,20.86114399999998,2390
45.86866399999994,21.50914399999997,2398
46.19266399999994,21.50914399999997,2334
46.19266399999994,27.34114399999998,2518
46.19266399999994,26.69314399999997,2509
46.516663999999935,26.69314399999997,2471
46.516663999999935,26.04514399999998,2367
47.48866399999993,22.805143999999984,2325
46.84066399999993,22.805143999999984,2138
45.54466399999994,22.15714399999998,2447
45.22066399999994,22.15714399999998,2525
44.89666399999994,22.15714399999998,2943
47.48866399999993,23.45314399999998,2291
46.516663999999935,24.101143999999977,2017
46.516663999999935,24.74914399999998,2231
45.86866399999994,24.101143999999977,2180
47.16466399999993,26.69314399999997,2549
47.16466399999993,27.34114399999998,2604
43.92466399999995,25.397143999999983,2563
44.24866399999995,24.74914399999998,2470
44.89666399999994,26.04514399999998,2357
44.89666399999994,26.69314399999997,2404
45.22066399999994,26.69314399999997,2439
45.22066399999994,27.34114399999998,2466
46.84066399999993,26.69314399999997,2510
47.48866399999993,26.69314399999997,2503
44.24866399999995,25.397143999999983,2402
43.92466399999995,26.04514399999998,2579
46.19266399999994,24.101143999999977,2225
44.572663999999946,25.397143999999983,2440
46.84066399999993,24.74914399999998,2238
46.516663999999935,21.50914399999997,2338
46.84066399999993,21.50914399999997,2345
44.572663999999946,26.69314399999997,2395
44.572663999999946,27.34114399999998,2416
44.89666399999994,27.34114399999998,2531
44.572663999999946,27.989143999999985,2436
44.24866399999995,27.989143999999985,2450
44.572663999999946,28.63714399999997,2501
45.86866399999994,22.15714399999998,2259
45.86866399999994,22.805143999999984,2153
44.24866399999995,23.45314399999998,2588
43.92466399999995,27.989143999999985,65535
46.84066399999993,27.34114399999998,2671
45.22066399999994,23.45314399999998,2460
45.54466399999994,23.45314399999998,2263
45.54466399999994,24.101143999999977,2210
45.22066399999994,24.101143999999977,2434
44.89666399999994,24.101143999999977,2504
46.19266399999994,22.15714399999998,2390
46.516663999999935,22.15714399999998,2356
45.22066399999994,21.50914399999997,2630
45.54466399999994,21.50914399999997,2478
45.54466399999994,20.86114399999998,2502
46.516663999999935,27.989143999999985,2621
46.19266399999994,27.989143999999985,2606
45.54466399999994,25.397143999999983,2324
45.22066399999994,25.397143999999983,2334
45.22066399999994,26.04514399999998,2390
47.81266399999993,24.101143999999977,2386
47.48866399999993,26.04514399999998,2476
47.81266399999993,26.04514399999998,2498
46.19266399999994,23.45314399999998,2057
45.86866399999994,23.45314399999998,2106
44.24866399999995,26.04514399999998,2384
45.22066399999994,27.989143999999985,2596
45.86866399999994,24.74914399999998,2219
46.516663999999935,25.397143999999983,2411
46.84066399999993,25.397143999999983,2294
46.19266399999994,26.04514399999998,2382
45.86866399999994,26.04514399999998,2347
43.92466399999995,23.45314399999998,2818
44.89666399999994,25.397143999999983,2445
46.19266399999994,20.86114399999998,2379
47.81266399999993,25.397143999999983,2510
44.572663999999946,22.805143999999984,2823
44.572663999999946,22.15714399999998,2965
46.516663999999935,23.45314399999998,2196
45.86866399999994,25.397143999999983,2273
44.24866399999995,27.34114399999998,3211
45.22066399999994,24.74914399999998,2536
45.54466399999994,22.805143999999984,2226
45.22066399999994,28.63714399999997,2656
44.89666399999994,28.63714399999997,2595
47.81266399999993,23.45314399999998,2443
46.19266399999994,24.74914399999998,2305
46.19266399999994,25.397143999999983,2329
43.92466399999995,24.101143999999977,2781
43.92466399999995,24.74914399999998,2794
47.81266399999993,26.69314399999997,2725
47.48866399999993,24.101143999999977,2318
46.84066399999993,26.04514399999998,3126
46.19266399999994,22.805143999999984,2450
47.48866399999993,27.34114399999998,2678
46.19266399999994,20.213143999999986,65535
45.54466399999994,26.04514399999998,2482
44.24866399999995,26.69314399999997,2400
45.86866399999994,27.989143999999985,2654
47.81266399999993,5.957143999999991,6586
