51.56399999999999,-0.4100000000000028,65535
51.887999999999984,-0.4100000000000028,65535
50.91599999999999,-1.7060000000000022,65535
51.23999999999999,-1.0580000000000025,65535
51.56399999999999,-1.0580000000000025,65535
51.23999999999999,-1.7060000000000022,65535
51.56399999999999,0.2379999999999968,65535
47.16466399999993,9.845143999999989,926
47.48866399999993,9.845143999999989,907
48.136663999999925,14.381143999999988,880
47.81266399999993,13.085143999999987,862
47.16466399999993,11.141143999999988,890
47.48866399999993,11.789143999999988,885
48.136663999999925,16.325143999999987,789
47.48866399999993,12.437143999999988,869
48.136663999999925,15.677143999999986,819
47.16466399999993,10.493143999999988,903
47.16466399999993,9.197143999999987,930
48.136663999999925,13.733143999999989,875
48.136663999999925,15.029143999999986,829
47.81266399999993,16.973143999999984,895
48.46066399999992,14.381143999999988,904
47.48866399999993,13.085143999999987,898
47.16466399999993,13.085143999999987,903
47.48866399999993,14.381143999999988,991
47.48866399999993,13.733143999999989,964
47.48866399999993,15.029143999999986,1002
46.516663999999935,13.733143999999989,1187
46.84066399999993,13.733143999999989,1156
46.84066399999993,13.085143999999987,1141
48.78466399999992,14.381143999999988,65535
47.16466399999993,15.677143999999986,1020
46.516663999999935,14.381143999999988,1194
46.84066399999993,14.381143999999988,1135
47.16466399999993,14.381143999999988,1085
46.516663999999935,15.029143999999986,1207
47.81266399999993,16.325143999999987,798
47.16466399999993,15.029143999999986,1060
47.81266399999993,15.677143999999986,804
47.48866399999993,15.677143999999986,949
46.516663999999935,13.085143999999987,1454
46.84066399999993,12.437143999999988,1199
48.136663999999925,11.789143999999988,800
47.81266399999993,12.437143999999988,830
46.84066399999993,15.677143999999986,1081
46.516663999999935,15.677143999999986,1300
46.84066399999993,16.325143999999987,1065
47.81266399999993,14.381143999999988,925
48.78466399999992,16.973143999999984,611
48.136663999999925,16.973143999999984,777
48.46066399999992,13.733143999999989,874
47.81266399999993,13.733143999999989,923
50.08066399999991,8.54914399999999,801
48.46066399999992,9.845143999999989,819
51.05266399999991,7.25314399999999,869
51.37666399999991,7.25314399999999,871
51.37666399999991,6.60514399999999,875
48.46066399999992,16.325143999999987,807
48.46066399999992,16.973143999999984,733
48.78466399999992,16.325143999999987,894
48.46066399999992,15.677143999999986,820
48.78466399999992,15.677143999999986,901
47.48866399999993,16.325143999999987,916
47.16466399999993,16.325143999999987,1014
46.19266399999994,14.381143999999988,1252
45.86866399999994,15.677143999999986,1304
43.60066399999995,16.325143999999987,1720
45.54466399999994,14.381143999999988,1366
45.54466399999994,13.733143999999989,1389
48.136663999999925,13.085143999999987,865
48.46066399999992,11.141143999999988,777
48.136663999999925,11.141143999999988,794
48.46066399999992,7.90114399999999,874
49.10866399999992,8.54914399999999,837
48.78466399999992,2.0691439999999925,998
49.10866399999992,7.25314399999999,871
52.0246639999999,7.90114399999999,872
47.16466399999993,11.789143999999988,889
49.43266399999992,11.141143999999988,505
53.64466399999989,9.845143999999989,839
50.72866399999991,4.013143999999992,935
51.05266399999991,11.141143999999988,510
47.48866399999993,11.141143999999988,818
46.84066399999993,11.789143999999988,1622
46.516663999999935,11.141143999999988,1591
45.54466399999994,11.141143999999988,1485
46.19266399999994,11.141143999999988,1557
45.86866399999994,11.141143999999988,1541
44.572663999999946,11.141143999999988,1332
43.92466399999995,12.437143999999988,3965
45.54466399999994,12.437143999999988,1572
45.54466399999994,11.789143999999988,1535
48.78466399999992,15.029143999999986,972
47.81266399999993,15.029143999999986,892
47.81266399999993,11.141143999999988,809
50.40466399999991,18.917143999999983,759
52.3486639999999,20.86114399999998,774
54.616663999999886,18.269143999999983,111
54.29266399999989,18.917143999999983,98
49.10866399999992,14.381143999999988,65535
50.08066399999991,14.381143999999988,437
48.78466399999992,13.733143999999989,1736
52.6726639999999,13.085143999999987,379
52.3486639999999,13.085143999999987,380
53.96866399999989,12.437143999999988,778
54.29266399999989,12.437143999999988,802
47.48866399999993,8.54914399999999,936
47.81266399999993,17.621143999999987,868
47.48866399999993,18.917143999999983,897
47.48866399999993,20.86114399999998,1436
46.84066399999993,23.45314399999998,1918
44.572663999999946,26.04514399999998,2367
47.48866399999993,21.50914399999997,1472
47.81266399999993,21.50914399999997,1868
48.46066399999992,22.15714399999998,997
47.48866399999993,16.973143999999984,65535
49.10866399999992,16.325143999999987,567
49.75666399999992,18.269143999999983,559
46.19266399999994,13.085143999999987,2303
41.98066399999996,12.437143999999988,2565
43.60066399999995,10.493143999999988,2726
45.54466399999994,9.197143999999987,1088
47.81266399999993,22.805143999999984,2333
49.75666399999992,22.805143999999984,931
50.72866399999991,3.365143999999992,942
51.05266399999991,4.013143999999992,939
50.72866399999991,4.661143999999991,928
51.05266399999991,4.661143999999991,932
51.05266399999991,3.365143999999992,946
51.05266399999991,2.717143999999992,962
50.40466399999991,4.661143999999991,924
50.72866399999991,2.717143999999992,958
50.40466399999991,4.013143999999992,937
51.05266399999991,5.309143999999991,925
50.72866399999991,5.309143999999991,912
51.37666399999991,3.365143999999992,960
51.37666399999991,4.661143999999991,941
50.72866399999991,5.957143999999991,892
50.40466399999991,5.957143999999991,903
50.40466399999991,3.365143999999992,950
50.40466399999991,5.309143999999991,919
50.08066399999991,5.309143999999991,935
49.75666399999992,5.309143999999991,917
49.75666399999992,5.957143999999991,907
51.37666399999991,5.309143999999991,986
51.700663999999904,4.661143999999991,978
50.08066399999991,4.013143999999992,952
50.08066399999991,5.957143999999991,921
50.08066399999991,4.661143999999991,936
49.43266399999992,5.309143999999991,920
49.43266399999992,5.957143999999991,900
52.0246639999999,4.661143999999991,1010
52.3486639999999,4.661143999999991,1039
50.72866399999991,15.029143999999986,364
51.05266399999991,15.029143999999986,356
51.05266399999991,13.733143999999989,398
50.40466399999991,13.085143999999987,478
49.10866399999992,7.90114399999999,845
48.78466399999992,7.90114399999999,858
50.40466399999991,7.90114399999999,836
50.08066399999991,7.90114399999999,821
49.75666399999992,7.90114399999999,818
49.43266399999992,7.90114399999999,835
49.75666399999992,8.54914399999999,812
49.43266399999992,8.54914399999999,817
49.43266399999992,9.197143999999987,853
49.10866399999992,9.197143999999987,850
47.48866399999993,7.90114399999999,935
47.81266399999993,7.90114399999999,926
48.136663999999925,7.90114399999999,891
48.136663999999925,9.845143999999989,844
47.81266399999993,9.197143999999987,928
47.81266399999993,8.54914399999999,914
47.81266399999993,9.845143999999989,859
54.940663999999884,9.197143999999987,923
54.616663999999886,9.197143999999987,900
54.29266399999989,9.197143999999987,908
53.96866399999989,9.197143999999987,950
53.64466399999989,9.197143999999987,875
54.616663999999886,9.845143999999989,892
54.29266399999989,9.845143999999989,881
53.96866399999989,9.845143999999989,858
53.64466399999989,10.493143999999988,835
53.96866399999989,10.493143999999988,864
53.96866399999989,11.141143999999988,911
54.29266399999989,10.493143999999988,898
53.32066399999989,10.493143999999988,827
54.940663999999884,11.141143999999988,1009
52.6726639999999,13.733143999999989,377
52.3486639999999,13.733143999999989,379
52.3486639999999,14.381143999999988,398
52.0246639999999,14.381143999999988,394
52.0246639999999,11.789143999999988,446
52.3486639999999,11.789143999999988,430
52.3486639999999,12.437143999999988,390
52.0246639999999,15.029143999999986,385
51.700663999999904,14.381143999999988,398
52.0246639999999,13.733143999999989,434
51.700663999999904,13.733143999999989,403
52.6726639999999,12.437143999999988,428
53.32066399999989,11.789143999999988,843
53.96866399999989,11.789143999999988,785
53.64466399999989,11.789143999999988,820
53.64466399999989,11.141143999999988,884
53.32066399999989,11.141143999999988,875
52.996663999999896,11.789143999999988,460
52.996663999999896,12.437143999999988,444
52.996663999999896,13.733143999999989,420
53.64466399999989,13.733143999999989,504
53.96866399999989,13.733143999999989,770
54.29266399999989,13.085143999999987,813
53.96866399999989,13.085143999999987,797
53.32066399999989,13.733143999999989,476
52.0246639999999,13.085143999999987,401
51.700663999999904,13.085143999999987,405
52.996663999999896,14.381143999999988,421
52.0246639999999,12.437143999999988,432
51.700663999999904,12.437143999999988,459
51.37666399999991,11.789143999999988,459
51.37666399999991,12.437143999999988,432
52.6726639999999,11.789143999999988,443
53.64466399999989,13.085143999999987,801
53.32066399999989,13.085143999999987,462
52.996663999999896,13.085143999999987,446
53.64466399999989,12.437143999999988,497
51.37666399999991,13.733143999999989,394
53.32066399999989,12.437143999999988,832
52.6726639999999,14.381143999999988,359
51.37666399999991,13.085143999999987,409
53.32066399999989,14.381143999999988,378
52.3486639999999,15.029143999999986,286
52.0246639999999,15.677143999999986,279
51.700663999999904,15.029143999999986,323
51.05266399999991,16.325143999999987,273
51.05266399999991,16.973143999999984,284
51.700663999999904,15.677143999999986,314
51.37666399999991,15.677143999999986,278
51.37666399999991,16.325143999999987,243
50.72866399999991,13.085143999999987,412
50.72866399999991,12.437143999999988,417
51.05266399999991,13.085143999999987,406
51.05266399999991,14.381143999999988,389
50.40466399999991,12.437143999999988,420
50.40466399999991,11.789143999999988,422
50.08066399999991,12.437143999999988,462
50.72866399999991,11.789143999999988,472
51.05266399999991,12.437143999999988,439
50.72866399999991,14.381143999999988,432
51.37666399999991,14.381143999999988,379
50.72866399999991,13.733143999999989,814
50.40466399999991,14.381143999999988,422
51.37666399999991,15.029143999999986,326
55.26466399999988,9.197143999999987,1788
55.58866399999988,8.54914399999999,3082
55.91266399999988,8.54914399999999,6559
56.23666399999988,9.197143999999987,6567
56.23666399999988,10.493143999999988,6520
56.23666399999988,9.845143999999989,6507
55.91266399999988,9.845143999999989,6445
56.56066399999988,9.197143999999987,6577
56.56066399999988,8.54914399999999,6620
51.05266399999991,6.60514399999999,874
51.700663999999904,7.90114399999999,860
50.72866399999991,6.60514399999999,885
51.700663999999904,7.25314399999999,874
50.72866399999991,7.25314399999999,861
52.0246639999999,7.25314399999999,882
52.3486639999999,7.90114399999999,866
51.05266399999991,5.957143999999991,882
50.40466399999991,7.25314399999999,854
51.700663999999904,6.60514399999999,880
51.700663999999904,5.957143999999991,908
52.3486639999999,9.197143999999987,827
51.700663999999904,8.54914399999999,845
52.0246639999999,8.54914399999999,837
52.3486639999999,8.54914399999999,843
51.37666399999991,7.90114399999999,863
52.3486639999999,7.25314399999999,891
51.37666399999991,5.957143999999991,941
50.72866399999991,7.90114399999999,871
51.37666399999991,9.197143999999987,788
51.700663999999904,9.197143999999987,805
50.40466399999991,6.60514399999999,912
51.05266399999991,7.90114399999999,879
51.37666399999991,8.54914399999999,834
52.0246639999999,5.957143999999991,951
52.3486639999999,6.60514399999999,926
51.05266399999991,8.54914399999999,857
52.0246639999999,9.197143999999987,829
52.6726639999999,9.197143999999987,870
52.0246639999999,9.845143999999989,817
51.700663999999904,9.845143999999989,790
51.37666399999991,9.845143999999989,757
50.72866399999991,8.54914399999999,828
51.05266399999991,9.845143999999989,768
50.72866399999991,9.845143999999989,776
50.40466399999991,9.845143999999989,808
51.05266399999991,9.197143999999987,831
50.40466399999991,9.197143999999987,816
50.08066399999991,9.197143999999987,794
51.05266399999991,10.493143999999988,794
50.40466399999991,8.54914399999999,811
50.72866399999991,9.197143999999987,833
49.75666399999992,9.197143999999987,833
52.996663999999896,9.197143999999987,873
52.3486639999999,9.845143999999989,813
52.996663999999896,8.54914399999999,881
52.996663999999896,7.90114399999999,893
53.32066399999989,7.90114399999999,943
53.32066399999989,7.25314399999999,973
53.64466399999989,7.25314399999999,1018
52.996663999999896,10.493143999999988,815
52.6726639999999,10.493143999999988,856
52.6726639999999,9.845143999999989,820
53.32066399999989,9.845143999999989,832
53.32066399999989,9.197143999999987,867
53.64466399999989,8.54914399999999,888
53.32066399999989,8.54914399999999,885
52.6726639999999,8.54914399999999,903
52.0246639999999,10.493143999999988,807
52.0246639999999,11.141143999999988,468
51.700663999999904,11.141143999999988,469
52.6726639999999,7.25314399999999,1723
52.996663999999896,7.25314399999999,1698
52.6726639999999,7.90114399999999,907
53.64466399999989,7.90114399999999,1031
52.996663999999896,11.141143999999988,791
52.6726639999999,11.141143999999988,786
52.3486639999999,10.493143999999988,780
52.996663999999896,9.845143999999989,874
51.700663999999904,10.493143999999988,795
51.37666399999991,10.493143999999988,521
51.700663999999904,11.789143999999988,457
52.3486639999999,11.141143999999988,472
51.37666399999991,11.141143999999988,479
51.05266399999991,11.789143999999988,471
49.10866399999992,11.141143999999988,526
48.78466399999992,11.141143999999988,769
48.46066399999992,11.789143999999988,808
49.43266399999992,11.789143999999988,495
50.08066399999991,11.789143999999988,450
49.75666399999992,12.437143999999988,467
49.10866399999992,11.789143999999988,545
48.78466399999992,12.437143999999988,794
48.46066399999992,12.437143999999988,843
49.10866399999992,12.437143999999988,783
48.78466399999992,13.085143999999987,821
48.136663999999925,12.437143999999988,862
47.81266399999993,11.789143999999988,817
48.136663999999925,10.493143999999988,802
47.81266399999993,10.493143999999988,844
48.78466399999992,10.493143999999988,830
47.48866399999993,10.493143999999988,870
48.46066399999992,10.493143999999988,814
49.43266399999992,13.085143999999987,873
48.46066399999992,13.085143999999987,848
49.43266399999992,10.493143999999988,511
49.75666399999992,9.845143999999989,788
49.75666399999992,10.493143999999988,752
50.40466399999991,11.141143999999988,767
50.08066399999991,11.141143999999988,769
50.72866399999991,11.141143999999988,481
49.75666399999992,11.141143999999988,548
48.78466399999992,11.789143999999988,730
50.40466399999991,10.493143999999988,560
50.08066399999991,9.845143999999989,780
50.08066399999991,10.493143999999988,777
49.43266399999992,12.437143999999988,789
49.75666399999992,11.789143999999988,492
49.10866399999992,13.085143999999987,870
50.72866399999991,10.493143999999988,522
49.10866399999992,10.493143999999988,525
48.78466399999992,9.845143999999989,860
48.46066399999992,8.54914399999999,864
48.46066399999992,9.197143999999987,866
48.78466399999992,9.197143999999987,853
48.78466399999992,8.54914399999999,844
50.08066399999991,7.25314399999999,869
49.75666399999992,6.60514399999999,878
49.43266399999992,6.60514399999999,890
49.10866399999992,6.60514399999999,885
49.43266399999992,7.25314399999999,868
49.75666399999992,7.25314399999999,842
49.10866399999992,5.957143999999991,910
48.78466399999992,7.25314399999999,877
50.08066399999991,6.60514399999999,875
47.48866399999993,9.197143999999987,928
48.136663999999925,8.54914399999999,894
48.136663999999925,9.197143999999987,887
47.81266399999993,7.25314399999999,912
49.43266399999992,9.845143999999989,823
49.10866399999992,9.845143999999989,842
53.64466399999989,14.381143999999988,780
50.08066399999991,13.085143999999987,761
49.75666399999992,13.085143999999987,550
45.86866399999994,9.197143999999987,1078
46.19266399999994,9.197143999999987,1064
46.516663999999935,8.54914399999999,1010
46.516663999999935,9.197143999999987,1059
46.19266399999994,8.54914399999999,1061
47.16466399999993,8.54914399999999,937
45.86866399999994,4.661143999999991,1076
46.84066399999993,9.845143999999989,937
45.22066399999994,5.957143999999991,1149
45.22066399999994,5.309143999999991,1132
45.86866399999994,5.957143999999991,1080
45.54466399999994,5.957143999999991,1133
44.89666399999994,4.661143999999991,1154
44.89666399999994,5.309143999999991,1169
44.572663999999946,4.661143999999991,1199
44.24866399999995,4.661143999999991,1213
43.92466399999995,4.661143999999991,1192
46.19266399999994,7.25314399999999,992
48.78466399999992,5.957143999999991,914
48.136663999999925,6.60514399999999,913
48.46066399999992,6.60514399999999,909
48.78466399999992,6.60514399999999,891
47.16466399999993,7.90114399999999,940
48.136663999999925,7.25314399999999,898
48.46066399999992,7.25314399999999,878
46.516663999999935,6.60514399999999,1007
46.84066399999993,6.60514399999999,979
46.84066399999993,7.25314399999999,961
46.516663999999935,5.957143999999991,1033
46.19266399999994,5.957143999999991,1019
46.84066399999993,8.54914399999999,951
46.84066399999993,7.90114399999999,950
45.86866399999994,5.309143999999991,1108
46.19266399999994,6.60514399999999,1009
45.86866399999994,6.60514399999999,1020
47.48866399999993,6.60514399999999,958
47.48866399999993,7.25314399999999,929
47.16466399999993,7.25314399999999,945
49.10866399999992,4.013143999999992,1007
49.75666399999992,4.661143999999991,955
49.43266399999992,4.661143999999991,995
49.10866399999992,5.309143999999991,930
46.19266399999994,4.661143999999991,1075
46.84066399999993,9.197143999999987,950
46.19266399999994,5.309143999999991,1092
46.516663999999935,5.309143999999991,1079
45.54466399999994,6.60514399999999,1183
45.54466399999994,5.309143999999991,1099
43.60066399999995,4.013143999999992,1225
43.60066399999995,3.365143999999992,1262
42.62866399999996,2.717143999999992,1328
43.276663999999954,2.717143999999992,1293
45.54466399999994,4.661143999999991,1083
45.22066399999994,4.661143999999991,1134
47.16466399999993,5.309143999999991,982
47.16466399999993,5.957143999999991,967
46.19266399999994,7.90114399999999,987
49.75666399999992,2.717143999999992,1037
49.10866399999992,2.717143999999992,1003
48.78466399999992,2.717143999999992,1018
45.86866399999994,3.365143999999992,1218
46.84066399999993,3.365143999999992,1135
46.516663999999935,3.365143999999992,1166
46.19266399999994,3.365143999999992,1193
47.16466399999993,6.60514399999999,952
49.10866399999992,3.365143999999992,1043
45.54466399999994,4.013143999999992,1094
46.516663999999935,7.25314399999999,988
47.16466399999993,4.661143999999991,1018
46.84066399999993,4.661143999999991,1030
46.516663999999935,4.661143999999991,1056
46.84066399999993,5.957143999999991,1039
47.81266399999993,3.365143999999992,1072
47.48866399999993,4.013143999999992,1025
48.136663999999925,4.013143999999992,1062
47.81266399999993,4.013143999999992,1035
47.48866399999993,4.661143999999991,1017
47.16466399999993,3.365143999999992,1165
46.84066399999993,4.013143999999992,1164
48.46066399999992,5.957143999999991,930
46.19266399999994,2.717143999999992,1253
47.16466399999993,2.0691439999999925,1122
46.516663999999935,2.717143999999992,1223
46.84066399999993,2.717143999999992,1204
46.84066399999993,2.0691439999999925,1150
47.16466399999993,2.717143999999992,1143
44.572663999999946,5.309143999999991,1191
44.572663999999946,5.957143999999991,1232
44.89666399999994,6.60514399999999,1227
44.572663999999946,6.60514399999999,1269
43.60066399999995,5.309143999999991,1211
43.92466399999995,7.25314399999999,1367
43.60066399999995,6.60514399999999,1355
43.276663999999954,6.60514399999999,1329
43.276663999999954,5.957143999999991,1271
45.86866399999994,8.54914399999999,1085
45.54466399999994,8.54914399999999,1092
48.136663999999925,3.365143999999992,1084
48.46066399999992,3.365143999999992,1058
48.46066399999992,2.717143999999992,1031
47.48866399999993,5.309143999999991,996
46.516663999999935,9.845143999999989,1004
46.84066399999993,10.493143999999988,2291
47.81266399999993,5.309143999999991,1047
45.22066399999994,6.60514399999999,1183
46.19266399999994,4.013143999999992,1144
45.86866399999994,4.013143999999992,1107
45.22066399999994,4.013143999999992,1103
44.89666399999994,4.013143999999992,1161
46.84066399999993,5.309143999999991,1050
48.136663999999925,-1.8188560000000056,1105
48.136663999999925,0.1251439999999934,1049
48.136663999999925,-0.5228560000000062,1081
47.48866399999993,-0.5228560000000062,1089
47.16466399999993,-1.8188560000000056,1134
47.48866399999993,0.7731439999999932,1060
47.16466399999993,0.1251439999999934,1077
45.86866399999994,7.25314399999999,1039
48.136663999999925,5.309143999999991,1077
49.10866399999992,4.661143999999991,1030
48.46066399999992,4.013143999999992,1070
48.136663999999925,4.661143999999991,1097
47.81266399999993,6.60514399999999,991
47.48866399999993,5.957143999999991,1007
48.136663999999925,5.957143999999991,1406
45.86866399999994,7.90114399999999,1007
46.516663999999935,7.90114399999999,977
49.43266399999992,3.365143999999992,999
49.43266399999992,4.013143999999992,1008
48.136663999999925,2.717143999999992,1089
47.81266399999993,2.717143999999992,1101
47.48866399999993,2.717143999999992,1121
50.40466399999991,2.717143999999992,963
48.46066399999992,-4.410856000000004,1291
48.46066399999992,-3.7628560000000046,1267
48.46066399999992,-3.114856000000005,1245
48.46066399999992,-2.4668560000000053,1225
47.48866399999993,1.4211439999999929,1088
47.16466399999993,1.4211439999999929,1137
46.516663999999935,4.013143999999992,1164
43.60066399999995,4.661143999999991,1210
44.89666399999994,2.717143999999992,1398
45.22066399999994,2.717143999999992,1348
45.54466399999994,3.365143999999992,1227
45.22066399999994,3.365143999999992,1252
47.48866399999993,3.365143999999992,1091
46.19266399999994,9.845143999999989,1114
47.81266399999993,2.0691439999999925,1084
47.48866399999993,2.0691439999999925,1220
45.86866399999994,2.717143999999992,1240
44.89666399999994,5.957143999999991,1187
45.22066399999994,1.4211439999999929,1275
44.89666399999994,1.4211439999999929,1352
44.89666399999994,2.0691439999999925,1370
43.276663999999954,2.0691439999999925,1318
43.60066399999995,1.4211439999999929,1278
48.78466399999992,4.661143999999991,1049
48.78466399999992,5.309143999999991,973
46.19266399999994,2.0691439999999925,1382
45.86866399999994,1.4211439999999929,1258
46.19266399999994,1.4211439999999929,1209
44.572663999999946,4.013143999999992,1227
44.89666399999994,3.365143999999992,1362
43.92466399999995,4.013143999999992,1230
44.24866399999995,4.013143999999992,1247
44.89666399999994,-0.5228560000000062,1156
45.54466399999994,0.1251439999999934,1163
46.516663999999935,0.1251439999999934,1120
44.572663999999946,2.0691439999999925,1378
49.75666399999992,4.013143999999992,990
43.92466399999995,3.365143999999992,1587
43.92466399999995,2.717143999999992,1548
44.24866399999995,3.365143999999992,1498
44.572663999999946,3.365143999999992,1377
49.10866399999992,0.1251439999999934,1097
49.43266399999992,0.7731439999999932,1075
49.43266399999992,-1.8188560000000056,1196
49.10866399999992,-1.170856000000006,1171
49.10866399999992,-0.5228560000000062,1126
49.10866399999992,0.7731439999999932,1139
49.10866399999992,1.4211439999999929,1065
47.81266399999993,-1.8188560000000056,1143
47.81266399999993,-2.4668560000000053,1168
47.81266399999993,-3.114856000000005,1181
48.136663999999925,-3.7628560000000046,1244
44.572663999999946,9.197143999999987,1256
44.89666399999994,8.54914399999999,1198
45.22066399999994,9.197143999999987,1099
45.54466399999994,10.493143999999988,1147
44.572663999999946,10.493143999999988,1318
44.89666399999994,10.493143999999988,1213
44.89666399999994,9.845143999999989,1121
48.46066399999992,5.309143999999991,1095
50.91599999999999,-1.0580000000000025,65535
51.23999999999999,-0.4100000000000028,65535
50.91599999999999,-0.4100000000000028,65535
51.23999999999999,-2.354000000000002,65535
51.56399999999999,-2.354000000000002,65535
51.56399999999999,-3.0020000000000016,65535
50.91599999999999,-2.354000000000002,65535
53.50799999999997,-3.0020000000000016,65535
53.183999999999976,-2.354000000000002,65535
53.183999999999976,-3.0020000000000016,65535
52.85999999999998,-2.354000000000002,65535
52.21199999999998,-1.0580000000000025,65535
51.887999999999984,-1.0580000000000025,65535
52.53599999999998,-1.0580000000000025,65535
52.53599999999998,-1.7060000000000022,65535
52.85999999999998,-1.7060000000000022,65535
53.50799999999997,-2.354000000000002,65535
52.85999999999998,-1.0580000000000025,65535
52.53599999999998,1.5339999999999965,65535
52.53599999999998,0.8859999999999966,65535
52.53599999999998,0.2379999999999968,65535
52.53599999999998,-0.4100000000000028,65535
53.50799999999997,-1.7060000000000022,65535
53.183999999999976,-1.7060000000000022,65535
53.183999999999976,-1.0580000000000025,65535
52.85999999999998,-0.4100000000000028,65535
51.887999999999984,-2.354000000000002,65535
52.21199999999998,-2.354000000000002,65535
55.77599999999996,-2.354000000000002,65535
53.83199999999997,-1.0580000000000025,65535
53.83199999999997,-1.7060000000000022,65535
55.127999999999965,-1.7060000000000022,65535
54.80399999999997,-1.7060000000000022,65535
54.47999999999997,-1.7060000000000022,65535
54.15599999999997,-1.0580000000000025,65535
52.21199999999998,-1.7060000000000022,65535
53.50799999999997,-1.0580000000000025,65535
55.77599999999996,-3.0020000000000016,65535
55.45199999999996,-1.7060000000000022,65535
57.07199999999995,-2.354000000000002,65535
56.74799999999996,-3.0020000000000016,65535
56.42399999999996,-3.0020000000000016,65535
56.09999999999996,-3.650000000000001,65535
50.91599999999999,-3.0020000000000016,65535
50.91599999999999,-3.650000000000001,65535
50.59199999999999,-3.650000000000001,65535
50.59199999999999,-4.298000000000001,65535
51.23999999999999,-3.0020000000000016,65535
50.268,-4.946000000000001,65535
55.77599999999996,-3.650000000000001,65535
55.77599999999996,-4.298000000000001,65535
52.21199999999998,-0.4100000000000028,65535
52.53599999999998,-2.354000000000002,65535
51.56399999999999,-1.7060000000000022,65535
51.56399999999999,-3.650000000000001,65535
51.887999999999984,-4.298000000000001,65535
51.56399999999999,-4.298000000000001,65535
51.887999999999984,-1.7060000000000022,65535
52.21199999999998,-3.0020000000000016,65535
51.23999999999999,0.2379999999999968,65535
50.91599999999999,0.2379999999999968,65535
52.21199999999998,0.2379999999999968,65535
53.83199999999997,-3.0020000000000016,65535
54.15599999999997,-3.0020000000000016,65535
54.47999999999997,-3.0020000000000016,65535
55.127999999999965,-3.650000000000001,65535
54.80399999999997,-3.0020000000000016,65535
53.83199999999997,-2.354000000000002,65535
54.15599999999997,-0.4100000000000028,65535
54.47999999999997,-1.0580000000000025,65535
53.83199999999997,-0.4100000000000028,65535
53.183999999999976,-3.650000000000001,65535
53.183999999999976,-4.298000000000001,65535
52.85999999999998,-3.0020000000000016,65535
52.53599999999998,-3.0020000000000016,65535
51.887999999999984,-3.0020000000000016,65535
51.23999999999999,0.8859999999999966,65535
51.887999999999984,0.2379999999999968,65535
52.21199999999998,0.8859999999999966,65535
51.887999999999984,-4.946000000000001,65535
52.53599999999998,-3.650000000000001,65535
52.21199999999998,-4.298000000000001,65535
53.183999999999976,-0.4100000000000028,65535
51.23999999999999,-3.650000000000001,65535
51.887999999999984,-3.650000000000001,65535
52.21199999999998,-3.650000000000001,65535
51.56399999999999,0.8859999999999966,65535
51.887999999999984,0.8859999999999966,65535
52.85999999999998,0.8859999999999966,65535
53.50799999999997,-0.4100000000000028,65535
56.09999999999996,-4.298000000000001,65535
56.74799999999996,-4.946000000000001,65535
56.74799999999996,-4.298000000000001,65535
56.42399999999996,-4.946000000000001,65535
56.42399999999996,-4.298000000000001,65535
56.09999999999996,-4.946000000000001,65535
57.39599999999995,-4.298000000000001,65535
57.39599999999995,-3.0020000000000016,65535
57.39599999999995,-3.650000000000001,65535
56.42399999999996,-3.650000000000001,65535
57.07199999999995,-3.650000000000001,65535
57.07199999999995,-4.298000000000001,65535
56.74799999999996,-3.650000000000001,65535
59.15266399999986,27.34114399999998,65535
59.47666399999986,26.69314399999997,65535
59.47666399999986,26.04514399999998,65535
59.15266399999986,26.04514399999998,65535
59.15266399999986,24.74914399999998,65535
59.15266399999986,25.397143999999983,65535
59.47666399999986,25.397143999999983,65535
58.50466399999986,26.69314399999997,65535
58.82866399999986,26.69314399999997,65535
57.85666399999987,26.04514399999998,65535
58.180663999999865,26.04514399999998,65535
58.180663999999865,26.69314399999997,65535
58.82866399999986,26.04514399999998,65535
58.50466399999986,25.397143999999983,65535
58.82866399999986,25.397143999999983,65535
58.82866399999986,24.74914399999998,65535
58.180663999999865,27.34114399999998,65535
57.85666399999987,27.34114399999998,65535
63.68866399999983,27.34114399999998,7077
60.124663999999854,24.74914399999998,6613
60.44866399999985,24.74914399999998,6582
60.44866399999985,25.397143999999983,6594
60.77266399999985,25.397143999999983,6800
61.09666399999985,26.04514399999998,6842
60.77266399999985,26.04514399999998,6849
60.77266399999985,26.69314399999997,6868
61.09666399999985,25.397143999999983,6833
61.09666399999985,26.69314399999997,7198
61.420663999999846,26.69314399999997,7220
61.74466399999984,27.34114399999998,7244
62.06866399999984,27.34114399999998,7269
62.39266399999984,27.34114399999998,7293
62.71666399999984,27.34114399999998,7257
64.01266399999983,27.34114399999998,7425
63.36466399999984,27.34114399999998,7145
63.04066399999984,27.34114399999998,7185
63.04066399999984,27.989143999999985,7200
64.33666399999983,27.989143999999985,7472
64.33666399999983,27.34114399999998,7548
64.66066399999983,27.34114399999998,7564
64.66066399999983,26.69314399999997,7575
64.98466399999982,25.397143999999983,5959
64.66066399999983,26.04514399999998,7605
64.98466399999982,26.04514399999998,7627
66.28066399999982,25.397143999999983,6036
65.95666399999982,24.74914399999998,5872
65.63266399999982,24.74914399999998,5876
65.63266399999982,25.397143999999983,5918
65.30866399999982,25.397143999999983,5939
66.60466399999981,25.397143999999983,6096
64.01266399999983,24.74914399999998,6096
64.01266399999983,24.101143999999977,6131
64.01266399999983,23.45314399999998,6155
63.68866399999983,23.45314399999998,6167
63.68866399999983,22.805143999999984,6192
63.68866399999983,26.04514399999998,6784
63.68866399999983,25.397143999999983,6750
63.68866399999983,26.69314399999997,7044
60.44866399999985,26.69314399999997,7036
64.01266399999983,27.989143999999985,7463
62.71666399999984,22.805143999999984,6314
62.39266399999984,22.805143999999984,6346
62.06866399999984,22.805143999999984,6375
62.06866399999984,23.45314399999998,6391
61.74466399999984,23.45314399999998,6403
61.420663999999846,23.45314399999998,6451
61.09666399999985,23.45314399999998,6492
61.09666399999985,24.101143999999977,6499
61.09666399999985,24.74914399999998,6533
60.77266399999985,24.74914399999998,6549
63.04066399999984,21.50914399999997,65535
63.04066399999984,22.15714399999998,65535
63.04066399999984,22.805143999999984,6278
62.39266399999984,26.04514399999998,7441
62.06866399999984,25.397143999999983,7490
61.74466399999984,25.397143999999983,7558
61.74466399999984,24.74914399999998,7595
61.74466399999984,24.101143999999977,7630
61.420663999999846,24.101143999999977,6974
62.39266399999984,26.69314399999997,7412
64.66066399999983,25.397143999999983,6028
64.66066399999983,24.74914399999998,6046
64.33666399999983,24.74914399999998,6057
63.36466399999984,22.805143999999984,6217
67.25266399999981,24.101143999999977,8186
66.92866399999981,24.101143999999977,8150
66.60466399999981,23.45314399999998,8119
66.28066399999982,23.45314399999998,8101
66.28066399999982,24.101143999999977,8083
65.95666399999982,24.101143999999977,3999
60.124663999999854,24.101143999999977,6806
60.124663999999854,23.45314399999998,6843
60.44866399999985,22.805143999999984,65535
60.77266399999985,27.34114399999998,6926
61.09666399999985,27.989143999999985,6958
61.09666399999985,28.63714399999997,7004
61.420663999999846,29.28514399999997,8691
61.74466399999984,29.933143999999977,8749
62.06866399999984,29.933143999999977,8855
62.39266399999984,29.933143999999977,8893
62.71666399999984,29.933143999999977,8926
61.420663999999846,22.805143999999984,6487
61.420663999999846,22.15714399999998,6566
61.09666399999985,22.15714399999998,6554
61.420663999999846,21.50914399999997,6699
62.39266399999984,27.989143999999985,65535
62.06866399999984,27.989143999999985,65535
61.420663999999846,27.34114399999998,65535
63.04066399999984,29.933143999999977,65535
63.68866399999983,29.28514399999997,65535
63.36466399999984,29.28514399999997,65535
63.36466399999984,29.933143999999977,65535
60.44866399999985,27.34114399999998,65535
61.74466399999984,29.28514399999997,65535
62.39266399999984,30.58114399999998,65535
62.71666399999984,31.229143999999977,65535
62.71666399999984,29.28514399999997,65535
63.04066399999984,28.63714399999997,65535
66.60466399999981,26.04514399999998,6106
66.60466399999981,26.69314399999997,6142
66.60466399999981,27.34114399999998,6165
62.71666399999984,26.04514399999998,7326
62.71666399999984,25.397143999999983,7295
63.04066399999984,25.397143999999983,7115
63.36466399999984,25.397143999999983,7078
62.71666399999984,23.45314399999998,7320
62.39266399999984,24.101143999999977,65535
62.71666399999984,22.15714399999998,65535
62.39266399999984,22.15714399999998,65535
62.39266399999984,21.50914399999997,65535
61.09666399999985,21.50914399999997,8377
60.77266399999985,22.805143999999984,7803
60.44866399999985,22.15714399999998,7851
60.77266399999985,23.45314399999998,7785
60.77266399999985,21.50914399999997,7953
60.77266399999985,22.15714399999998,7906
60.124663999999854,22.805143999999984,8119
60.44866399999985,24.101143999999977,6792
62.06866399999984,24.74914399999998,65535
50.72866399999991,16.325143999999987,331
50.40466399999991,16.973143999999984,318
50.72866399999991,16.973143999999984,303
50.40466399999991,16.325143999999987,358
50.08066399999991,16.973143999999984,411
50.08066399999991,16.325143999999987,408
51.700663999999904,16.973143999999984,237
51.37666399999991,16.973143999999984,259
51.05266399999991,15.677143999999986,372
50.72866399999991,15.677143999999986,347
51.05266399999991,17.621143999999987,299
51.37666399999991,17.621143999999987,281
51.700663999999904,17.621143999999987,252
51.700663999999904,16.325143999999987,226
52.0246639999999,22.15714399999998,838
52.0246639999999,21.50914399999997,784
52.3486639999999,21.50914399999997,788
52.0246639999999,20.86114399999998,779
51.700663999999904,20.86114399999998,809
51.37666399999991,21.50914399999997,848
51.37666399999991,20.86114399999998,844
51.05266399999991,20.86114399999998,885
52.6726639999999,23.45314399999998,916
52.3486639999999,22.805143999999984,887
52.3486639999999,20.213143999999986,794
52.0246639999999,20.213143999999986,787
52.3486639999999,19.565143999999982,216
52.6726639999999,19.565143999999982,271
51.700663999999904,21.50914399999997,795
51.700663999999904,22.15714399999998,829
52.6726639999999,21.50914399999997,835
52.996663999999896,21.50914399999997,907
52.6726639999999,20.86114399999998,743
52.6726639999999,22.15714399999998,859
52.6726639999999,20.213143999999986,731
52.996663999999896,19.565143999999982,368
52.996663999999896,20.86114399999998,734
52.996663999999896,20.213143999999986,708
53.32066399999989,20.213143999999986,320
51.37666399999991,20.213143999999986,940
52.3486639999999,16.973143999999984,165
52.0246639999999,16.973143999999984,191
52.0246639999999,16.325143999999987,204
52.0246639999999,17.621143999999987,188
52.6726639999999,16.973143999999984,160
52.996663999999896,16.973143999999984,139
52.3486639999999,16.325143999999987,184
52.3486639999999,15.677143999999986,188
51.700663999999904,18.269143999999983,284
52.6726639999999,17.621143999999987,123
52.3486639999999,17.621143999999987,146
52.6726639999999,18.269143999999983,95
52.3486639999999,18.269143999999983,205
52.3486639999999,18.917143999999983,183
52.996663999999896,17.621143999999987,105
51.700663999999904,19.565143999999982,856
51.700663999999904,18.917143999999983,906
51.37666399999991,18.269143999999983,298
58.82866399999986,9.197143999999987,2768
58.180663999999865,7.90114399999999,2861
58.50466399999986,8.54914399999999,2812
63.36466399999984,10.493143999999988,2983
63.36466399999984,11.141143999999988,2990
63.36466399999984,11.789143999999988,3025
63.68866399999983,11.789143999999988,3053
64.33666399999983,12.437143999999988,3454
64.66066399999983,12.437143999999988,3949
65.63266399999982,13.085143999999987,3606
65.95666399999982,13.085143999999987,3641
66.28066399999982,14.381143999999988,3711
65.95666399999982,13.733143999999989,3780
66.28066399999982,13.733143999999989,3689
65.30866399999982,13.085143999999987,3907
64.98466399999982,13.085143999999987,3541
64.01266399999983,11.789143999999988,3084
63.68866399999983,11.141143999999988,3021
59.800663999999855,10.493143999999988,2564
59.800663999999855,11.141143999999988,2547
60.124663999999854,11.141143999999988,2562
60.44866399999985,11.141143999999988,2575
60.124663999999854,11.789143999999988,2588
60.77266399999985,7.25314399999999,2824
60.77266399999985,6.60514399999999,2870
59.15266399999986,9.197143999999987,2650
59.47666399999986,9.197143999999987,2671
59.800663999999855,9.845143999999989,2566
59.47666399999986,11.141143999999988,2511
61.09666399999985,10.493143999999988,2685
60.77266399999985,10.493143999999988,2655
60.77266399999985,11.141143999999988,2610
62.06866399999984,9.197143999999987,3010
61.74466399999984,9.845143999999989,2956
61.420663999999846,9.845143999999989,2933
59.15266399999986,9.845143999999989,2630
59.47666399999986,9.845143999999989,2606
58.82866399999986,5.957143999999991,3045
58.180663999999865,7.25314399999999,2917
58.50466399999986,7.25314399999999,2950
58.50466399999986,6.60514399999999,2955
58.50466399999986,5.957143999999991,3013
58.82866399999986,8.54914399999999,2798
60.44866399999985,7.25314399999999,2798
60.44866399999985,7.90114399999999,2759
60.124663999999854,10.493143999999988,2596
60.44866399999985,9.197143999999987,2708
60.77266399999985,9.197143999999987,2720
60.77266399999985,8.54914399999999,2739
60.124663999999854,9.845143999999989,2854
60.44866399999985,10.493143999999988,2641
63.04066399999984,10.493143999999988,2934
62.06866399999984,9.845143999999989,3035
62.39266399999984,9.845143999999989,3043
62.71666399999984,9.845143999999989,3067
59.47666399999986,14.381143999999988,2517
59.47666399999986,13.733143999999989,2501
59.47666399999986,13.085143999999987,2477
59.800663999999855,12.437143999999988,2546
59.15266399999986,11.141143999999988,2475
59.15266399999986,14.381143999999988,2501
58.82866399999986,11.789143999999988,2455
58.50466399999986,12.437143999999988,2385
58.180663999999865,12.437143999999988,2378
57.85666399999987,11.789143999999988,2329
62.71666399999984,7.90114399999999,3096
62.39266399999984,7.90114399999999,3053
62.06866399999984,8.54914399999999,3028
60.44866399999985,5.309143999999991,2944
60.44866399999985,5.957143999999991,2911
60.77266399999985,5.957143999999991,2900
62.39266399999984,11.141143999999988,2831
62.06866399999984,10.493143999999988,2786
61.74466399999984,11.141143999999988,2759
61.420663999999846,11.141143999999988,2713
61.09666399999985,11.141143999999988,2696
60.77266399999985,11.789143999999988,2673
63.04066399999984,11.141143999999988,2912
62.71666399999984,11.141143999999988,2855
62.39266399999984,10.493143999999988,2813
67.25266399999981,15.677143999999986,3830
67.25266399999981,15.029143999999986,3868
67.25266399999981,14.381143999999988,3896
66.92866399999981,15.029143999999986,3819
66.60466399999981,15.677143999999986,3797
64.01266399999983,11.141143999999988,3068
66.60466399999981,15.029143999999986,3860
54.29266399999989,18.269143999999983,103
54.616663999999886,17.621143999999987,188
53.96866399999989,18.269143999999983,94
43.92466399999995,1.4211439999999929,1262
44.24866399999995,0.7731439999999932,1224
44.572663999999946,0.1251439999999934,1225
46.84066399999993,1.4211439999999929,1164
44.572663999999946,1.4211439999999929,1344
44.24866399999995,1.4211439999999929,1310
45.54466399999994,1.4211439999999929,1299
46.516663999999935,1.4211439999999929,1180
42.30466399999996,2.717143999999992,1411
44.24866399999995,2.717143999999992,1449
44.572663999999946,2.717143999999992,1483
43.92466399999995,2.0691439999999925,1272
42.30466399999996,2.0691439999999925,1467
42.62866399999996,2.0691439999999925,1409
42.62866399999996,1.4211439999999929,1402
42.95266399999996,1.4211439999999929,1312
43.276663999999954,1.4211439999999929,1306
46.516663999999935,-1.170856000000006,1200
46.19266399999994,-1.170856000000006,1225
45.86866399999994,-0.5228560000000062,1201
45.54466399999994,-0.5228560000000062,1182
48.46066399999992,1.4211439999999929,1015
41.332663999999966,2.0691439999999925,1494
41.98066399999996,2.717143999999992,1453
48.46066399999992,-1.8188560000000056,1150
47.81266399999993,0.7731439999999932,1243
46.84066399999993,0.7731439999999932,1180
44.572663999999946,-1.170856000000006,1165
43.60066399999995,-1.170856000000006,1365
43.276663999999954,-1.8188560000000056,1455
43.276663999999954,0.1251439999999934,1490
42.95266399999996,0.1251439999999934,1455
43.276663999999954,-0.5228560000000062,1401
43.60066399999995,-0.5228560000000062,1390
47.81266399999993,-3.7628560000000046,1228
47.48866399999993,-2.4668560000000053,1184
47.81266399999993,-0.5228560000000062,1129
46.516663999999935,-1.8188560000000056,1228
48.136663999999925,-1.170856000000006,1212
47.48866399999993,-1.170856000000006,1136
45.22066399999994,8.54914399999999,1144
45.22066399999994,7.90114399999999,1155
46.19266399999994,-0.5228560000000062,1181
46.516663999999935,-0.5228560000000062,1163
48.78466399999992,-3.114856000000005,1284
50.72866399999991,2.0691439999999925,978
50.40466399999991,2.0691439999999925,992
40.36066399999997,-3.7628560000000046,2865
41.65666399999997,-1.170856000000006,2782
41.332663999999966,1.4211439999999929,2720
43.276663999999954,13.733143999999989,3910
42.95266399999996,13.733143999999989,3932
41.65666399999997,15.029143999999986,4016
40.68466399999997,17.621143999999987,4178
43.60066399999995,13.085143999999987,3903
41.65666399999997,12.437143999999988,2569
41.65666399999997,13.085143999999987,2588
41.98066399999996,13.085143999999987,2638
41.65666399999997,13.733143999999989,2640
41.332663999999966,13.733143999999989,2632
41.332663999999966,14.381143999999988,2789
41.00866399999997,14.381143999999988,2695
41.332663999999966,13.085143999999987,2614
41.00866399999997,15.029143999999986,2895
41.98066399999996,13.733143999999989,2837
42.30466399999996,14.381143999999988,2976
42.30466399999996,12.437143999999988,2577
42.62866399999996,12.437143999999988,2756
42.95266399999996,12.437143999999988,3041
42.30466399999996,11.789143999999988,2586
42.95266399999996,11.789143999999988,2796
42.62866399999996,11.789143999999988,2787
43.276663999999954,11.789143999999988,2850
42.95266399999996,13.085143999999987,3804
42.30466399999996,13.085143999999987,2863
43.276663999999954,13.085143999999987,3852
43.276663999999954,12.437143999999988,3859
42.62866399999996,11.141143999999988,2632
42.95266399999996,11.141143999999988,2675
42.95266399999996,10.493143999999988,2693
44.572663999999946,8.54914399999999,1204
44.89666399999994,7.90114399999999,1173
44.89666399999994,9.197143999999987,1212
44.24866399999995,7.90114399999999,1239
44.572663999999946,7.90114399999999,1181
43.92466399999995,7.90114399999999,1381
44.24866399999995,7.25314399999999,1236
44.89666399999994,7.25314399999999,1218
45.22066399999994,7.25314399999999,1168
45.54466399999994,7.90114399999999,1178
44.572663999999946,7.25314399999999,1462
52.996663999999896,22.805143999999984,881
52.996663999999896,23.45314399999998,882
51.37666399999991,22.15714399999998,843
51.37666399999991,22.805143999999984,903
50.08066399999991,20.213143999999986,824
50.72866399999991,20.213143999999986,912
50.40466399999991,20.213143999999986,877
50.08066399999991,20.86114399999998,873
50.08066399999991,21.50914399999997,880
50.08066399999991,22.15714399999998,890
50.08066399999991,22.805143999999984,907
53.96866399999989,22.805143999999984,1121
53.64466399999989,23.45314399999998,1075
53.32066399999989,23.45314399999998,1022
50.40466399999991,19.565143999999982,785
50.08066399999991,18.917143999999983,775
50.08066399999991,18.269143999999983,531
52.0246639999999,22.805143999999984,882
52.0246639999999,23.45314399999998,922
51.37666399999991,19.565143999999982,819
51.05266399999991,19.565143999999982,780
50.72866399999991,18.917143999999983,743
50.72866399999991,19.565143999999982,893
49.75666399999992,18.917143999999983,775
50.40466399999991,18.269143999999983,381
53.64466399999989,19.565143999999982,132
53.96866399999989,18.917143999999983,63
53.64466399999989,18.917143999999983,39
53.64466399999989,20.213143999999986,163
52.996663999999896,18.917143999999983,128
52.996663999999896,18.269143999999983,80
53.32066399999989,18.917143999999983,75
50.72866399999991,17.621143999999987,328
50.72866399999991,18.269143999999983,369
52.6726639999999,16.325143999999987,206
52.996663999999896,16.325143999999987,246
52.996663999999896,15.677143999999986,270
53.32066399999989,15.677143999999986,271
53.32066399999989,15.029143999999986,325
53.64466399999989,15.029143999999986,397
53.96866399999989,15.029143999999986,755
52.6726639999999,18.917143999999983,146
53.32066399999989,16.325143999999987,217
52.6726639999999,15.029143999999986,290
51.05266399999991,22.805143999999984,911
51.05266399999991,23.45314399999998,983
50.72866399999991,22.15714399999998,1013
50.40466399999991,22.15714399999998,1325
51.05266399999991,22.15714399999998,900
54.616663999999886,16.973143999999984,222
54.29266399999989,16.325143999999987,268
53.96866399999989,15.677143999999986,276
50.72866399999991,21.50914399999997,1296
50.40466399999991,21.50914399999997,915
50.40466399999991,17.621143999999987,344
53.32066399999989,22.805143999999984,833
53.64466399999989,22.15714399999998,757
54.29266399999989,16.973143999999984,247
50.72866399999991,20.86114399999998,921
51.700663999999904,22.805143999999984,1000
51.05266399999991,21.50914399999997,888
50.08066399999991,19.565143999999982,793
52.0246639999999,18.917143999999983,8008
52.0246639999999,19.565143999999982,8001
53.64466399999989,18.269143999999983,28
51.700663999999904,20.213143999999986,981
53.32066399999989,19.565143999999982,155
50.72866399999991,23.45314399999998,1195
50.72866399999991,22.805143999999984,1164
49.43266399999992,20.213143999999986,798
49.75666399999992,21.50914399999997,957
49.75666399999992,22.15714399999998,1351
49.43266399999992,22.15714399999998,1212
51.05266399999991,18.917143999999983,703
51.05266399999991,18.269143999999983,464
53.32066399999989,16.973143999999984,158
53.64466399999989,16.973143999999984,189
49.75666399999992,20.86114399999998,927
50.40466399999991,22.805143999999984,8090
53.64466399999989,16.325143999999987,229
53.96866399999989,20.86114399999998,193
54.29266399999989,20.86114399999998,239
53.96866399999989,21.50914399999997,372
53.64466399999989,15.677143999999986,448
53.96866399999989,20.213143999999986,121
53.96866399999989,19.565143999999982,84
54.29266399999989,19.565143999999982,94
53.96866399999989,16.325143999999987,242
53.64466399999989,17.621143999999987,44
53.96866399999989,22.15714399999998,438
53.64466399999989,21.50914399999997,806
53.64466399999989,20.86114399999998,313
52.6726639999999,15.677143999999986,268
51.05266399999991,20.213143999999986,963
54.940663999999884,24.101143999999977,3201
54.616663999999886,23.45314399999998,3145
54.29266399999989,23.45314399999998,3008
53.64466399999989,22.805143999999984,820
53.96866399999989,16.973143999999984,248
50.40466399999991,20.86114399999998,1048
53.32066399999989,18.269143999999983,0
49.75666399999992,19.565143999999982,823
50.40466399999991,23.45314399999998,1516
49.75666399999992,20.213143999999986,802
49.43266399999992,19.565143999999982,777
49.43266399999992,20.86114399999998,879
53.96866399999989,17.621143999999987,843
42.30466399999996,-1.8188560000000056,8319
41.98066399999996,-1.8188560000000056,8302
41.65666399999997,0.7731439999999932,8306
42.62866399999996,-1.8188560000000056,8434
42.95266399999996,-1.8188560000000056,8463
42.62866399999996,-3.114856000000005,8557
42.95266399999996,-2.4668560000000053,8535
42.62866399999996,-7.650856000000003,8899
42.30466399999996,-7.650856000000003,8959
42.30466399999996,-8.946856000000002,9095
42.30466399999996,-8.298856000000002,9069
41.98066399999996,-8.298856000000002,9058
42.30466399999996,-7.002856000000003,8841
42.62866399999996,-6.354856000000003,8783
42.30466399999996,-6.354856000000003,8738
42.62866399999996,-5.706856000000004,8238
41.98066399999996,-4.410856000000004,8192
42.30466399999996,-3.7628560000000046,8583
40.03666399999997,-0.5228560000000062,8286
39.38866399999998,-0.5228560000000062,8334
41.00866399999997,0.7731439999999932,8434
40.68466399999997,0.7731439999999932,8466
40.36066399999997,0.1251439999999934,8544
39.712663999999975,-0.5228560000000062,8443
38.41666399999998,-0.5228560000000062,8455
39.06466399999998,-0.5228560000000062,8577
38.74066399999998,-1.170856000000006,8463
41.332663999999966,0.7731439999999932,8494
41.65666399999997,2.717143999999992,8094
41.65666399999997,2.0691439999999925,8117
41.332663999999966,0.1251439999999934,8452
41.332663999999966,-0.5228560000000062,8396
41.65666399999997,-4.410856000000004,8166
40.03666399999997,-2.4668560000000053,8404
41.00866399999997,-4.410856000000004,8287
43.276663999999954,-5.706856000000004,8368
39.38866399999998,-1.170856000000006,8429
38.09266399999999,-1.170856000000006,8842
38.74066399999998,-0.5228560000000062,8605
37.76866399999999,-1.170856000000006,8907
39.06466399999998,-1.8188560000000056,8427
39.38866399999998,-3.114856000000005,8327
39.38866399999998,-2.4668560000000053,8383
39.06466399999998,-2.4668560000000053,8410
39.06466399999998,-3.114856000000005,8331
39.06466399999998,-3.7628560000000046,8305
38.74066399999998,-3.7628560000000046,8384
40.03666399999997,-3.7628560000000046,8283
40.03666399999997,-3.114856000000005,8483
40.03666399999997,-1.8188560000000056,8564
39.712663999999975,-1.8188560000000056,8529
39.712663999999975,-1.170856000000006,8465
40.36066399999997,-1.170856000000006,8484
40.68466399999997,-1.170856000000006,8462
41.00866399999997,-1.170856000000006,8450
41.332663999999966,-1.170856000000006,8290
43.276663999999954,-8.298856000000002,9059
42.95266399999996,-8.298856000000002,9027
41.65666399999997,-5.706856000000004,65535
41.98066399999996,-7.002856000000003,65535
41.98066399999996,-6.354856000000003,65535
41.332663999999966,-5.058856000000004,8405
43.276663999999954,-3.7628560000000046,8840
42.95266399999996,-4.410856000000004,8774
42.62866399999996,-4.410856000000004,8764
42.30466399999996,-4.410856000000004,8723
41.00866399999997,-5.706856000000004,8343
41.332663999999966,-1.8188560000000056,8236
40.68466399999997,-3.114856000000005,8190
41.00866399999997,-3.114856000000005,8241
41.00866399999997,-2.4668560000000053,8264
41.332663999999966,-2.4668560000000053,8317
40.68466399999997,-4.410856000000004,8227
40.36066399999997,-4.410856000000004,8311
40.68466399999997,-3.7628560000000046,8219
40.36066399999997,-3.114856000000005,8197
41.65666399999997,-2.4668560000000053,8334
38.09266399999999,-3.7628560000000046,8431
38.74066399999998,-3.114856000000005,8375
37.76866399999999,-3.7628560000000046,8488
39.712663999999975,-3.114856000000005,8319
38.41666399999998,-3.7628560000000046,8396
40.03666399999997,-4.410856000000004,65535
40.03666399999997,-5.058856000000004,65535
39.38866399999998,-6.354856000000003,65535
39.38866399999998,-7.002856000000003,65535
42.95266399999996,-3.114856000000005,8968
41.98066399999996,-1.170856000000006,8331
42.30466399999996,-2.4668560000000053,8372
41.65666399999997,-0.5228560000000062,8429
41.98066399999996,-0.5228560000000062,8266
41.65666399999997,0.1251439999999934,8293
41.98066399999996,0.1251439999999934,8315
37.76866399999999,-5.058856000000004,8367
36.79666399999999,-4.410856000000004,8426
38.74066399999998,-4.410856000000004,8323
37.12066399999999,-4.410856000000004,8400
37.44466399999999,-5.058856000000004,8924
37.44466399999999,-7.002856000000003,65535
37.44466399999999,-6.354856000000003,65535
37.44466399999999,-5.706856000000004,8600
39.712663999999975,-3.7628560000000046,8393
42.62866399999996,-8.946856000000002,65535
42.30466399999996,-5.706856000000004,8745
42.30466399999996,-5.058856000000004,8830
42.95266399999996,-5.706856000000004,8270
41.00866399999997,-5.058856000000004,8311
40.68466399999997,-5.058856000000004,8285
41.65666399999997,-5.058856000000004,65535
41.65666399999997,-6.354856000000003,65535
36.79666399999999,-6.354856000000003,65535
37.12066399999999,-5.706856000000004,8768
37.76866399999999,-5.706856000000004,8567
38.09266399999999,-4.410856000000004,8702
37.12066399999999,-5.058856000000004,8722
36.79666399999999,-5.058856000000004,8680
37.76866399999999,-4.410856000000004,65535
37.76866399999999,-7.002856000000003,65535
38.41666399999998,-6.354856000000003,65535
38.09266399999999,-6.354856000000003,65535
48.78466399999992,1.4211439999999929,1081
56.23666399999988,8.54914399999999,6610
55.58866399999988,9.197143999999987,6415
55.91266399999988,9.197143999999987,6556
55.26466399999988,10.493143999999988,2034
55.91266399999988,12.437143999999988,2169
55.58866399999988,11.789143999999988,6255
55.58866399999988,11.141143999999988,6296
55.26466399999988,11.789143999999988,6288
55.58866399999988,10.493143999999988,6411
55.58866399999988,13.085143999999987,2126
56.88466399999987,9.845143999999989,6562
57.20866399999987,9.845143999999989,6597
56.56066399999988,9.845143999999989,6534
56.88466399999987,8.54914399999999,6649
54.940663999999884,9.845143999999989,7756
54.940663999999884,11.789143999999988,6512
55.91266399999988,13.085143999999987,2184
56.23666399999988,13.733143999999989,2228
55.91266399999988,13.733143999999989,2231
56.23666399999988,14.381143999999988,2251
56.23666399999988,15.029143999999986,2292
56.23666399999988,15.677143999999986,2347
56.56066399999988,14.381143999999988,2308
56.88466399999987,14.381143999999988,2278
56.23666399999988,13.085143999999987,2176
56.56066399999988,13.085143999999987,2256
56.88466399999987,12.437143999999988,2293
57.20866399999987,12.437143999999988,2309
57.53266399999987,12.437143999999988,2324
56.88466399999987,15.029143999999986,2304
56.56066399999988,15.677143999999986,2364
56.88466399999987,15.677143999999986,2383
56.88466399999987,16.325143999999987,2398
55.91266399999988,11.789143999999988,6581
57.20866399999987,10.493143999999988,6784
49.43266399999992,1.4211439999999929,1106
49.75666399999992,0.7731439999999932,1098
49.75666399999992,2.0691439999999925,1030
50.08066399999991,2.717143999999992,1010
49.75666399999992,1.4211439999999929,1084
47.81266399999993,1.4211439999999929,1110
48.136663999999925,2.0691439999999925,1509
48.46066399999992,2.0691439999999925,1136
48.136663999999925,1.4211439999999929,1110
48.78466399999992,0.1251439999999934,1185
48.46066399999992,0.1251439999999934,1250
47.81266399999993,0.1251439999999934,1117
46.84066399999993,-0.5228560000000062,1122
47.16466399999993,0.7731439999999932,1069
46.84066399999993,0.1251439999999934,1247
46.84066399999993,-1.170856000000006,1172
50.08066399999991,1.4211439999999929,1107
50.08066399999991,2.0691439999999925,1124
49.43266399999992,2.717143999999992,1018
49.75666399999992,3.365143999999992,983
50.08066399999991,3.365143999999992,982
49.10866399999992,2.0691439999999925,1043
49.43266399999992,2.0691439999999925,1031
48.78466399999992,0.7731439999999932,1142
48.78466399999992,-0.5228560000000062,1281
48.78466399999992,-1.170856000000006,1230
48.136663999999925,0.7731439999999932,1069
48.46066399999992,0.7731439999999932,1091
43.92466399999995,5.957143999999991,1353
44.24866399999995,5.957143999999991,1379
43.92466399999995,5.309143999999991,1210
42.95266399999996,2.717143999999992,1338
45.54466399999994,2.0691439999999925,1366
45.22066399999994,2.0691439999999925,1313
42.95266399999996,2.0691439999999925,1451
42.95266399999996,0.7731439999999932,1406
43.276663999999954,0.7731439999999932,1347
46.19266399999994,0.7731439999999932,1252
46.516663999999935,0.7731439999999932,1209
45.86866399999994,0.1251439999999934,1265
46.19266399999994,0.1251439999999934,1269
47.81266399999993,-1.170856000000006,1323
48.136663999999925,-2.4668560000000053,1247
47.48866399999993,-1.8188560000000056,1167
47.16466399999993,-1.170856000000006,1149
47.16466399999993,-0.5228560000000062,1131
46.84066399999993,-1.8188560000000056,1196
45.22066399999994,-0.5228560000000062,1187
44.89666399999994,0.1251439999999934,1202
45.22066399999994,0.7731439999999932,1241
45.54466399999994,0.7731439999999932,1313
45.86866399999994,0.7731439999999932,1478
45.22066399999994,0.1251439999999934,1264
44.89666399999994,0.7731439999999932,1255
43.92466399999995,-0.5228560000000062,1296
43.92466399999995,-1.170856000000006,1276
44.24866399999995,-1.170856000000006,1230
45.22066399999994,-1.170856000000006,1218
44.572663999999946,-0.5228560000000062,1189
44.24866399999995,0.1251439999999934,1277
44.572663999999946,0.7731439999999932,1277
43.276663999999954,-1.170856000000006,1432
42.95266399999996,-0.5228560000000062,1413
44.24866399999995,2.0691439999999925,1329
43.60066399999995,0.7731439999999932,1334
43.60066399999995,2.0691439999999925,1336
52.6726639999999,4.661143999999991,6601
52.6726639999999,5.309143999999991,6624
51.700663999999904,5.309143999999991,6569
52.0246639999999,5.309143999999991,6581
52.3486639999999,5.309143999999991,6597
51.37666399999991,4.013143999999992,6577
52.3486639999999,5.957143999999991,6591
52.0246639999999,6.60514399999999,6621
52.6726639999999,5.957143999999991,6608
52.996663999999896,5.957143999999991,6621
53.32066399999989,5.957143999999991,6615
52.996663999999896,6.60514399999999,6597
53.32066399999989,6.60514399999999,6589
52.6726639999999,6.60514399999999,6617
52.996663999999896,5.309143999999991,6636
59.15266399999986,24.101143999999977,65535
56.88466399999987,24.101143999999977,65535
56.88466399999987,23.45314399999998,65535
56.88466399999987,22.805143999999984,65535
57.20866399999987,24.74914399999998,65535
56.88466399999987,24.74914399999998,65535
56.56066399999988,24.74914399999998,65535
56.56066399999988,25.397143999999983,65535
56.56066399999988,24.101143999999977,65535
56.56066399999988,23.45314399999998,65535
56.56066399999988,26.04514399999998,65535
56.88466399999987,26.04514399999998,65535
57.20866399999987,25.397143999999983,65535
57.53266399999987,25.397143999999983,65535
56.23666399999988,26.04514399999998,65535
56.23666399999988,26.69314399999997,65535
55.91266399999988,26.69314399999997,65535
56.56066399999988,26.69314399999997,65535
56.56066399999988,27.34114399999998,65535
56.56066399999988,27.989143999999985,65535
56.23666399999988,27.989143999999985,65535
55.91266399999988,27.34114399999998,65535
56.56066399999988,22.805143999999984,65535
56.56066399999988,22.15714399999998,65535
56.56066399999988,21.50914399999997,65535
57.20866399999987,26.69314399999997,65535
39.06466399999998,-8.946856000000002,65535
38.41666399999998,-8.298856000000002,65535
45.86866399999994,11.789143999999988,1588
46.19266399999994,11.789143999999988,1575
46.19266399999994,10.493143999999988,1615
45.22066399999994,18.269143999999983,1452
45.22066399999994,18.917143999999983,1493
45.54466399999994,16.973143999999984,1355
45.22066399999994,17.621143999999987,1396
45.86866399999994,16.325143999999987,1316
45.54466399999994,18.917143999999983,1540
45.54466399999994,16.325143999999987,1330
45.54466399999994,18.269143999999983,1508
44.89666399999994,18.917143999999983,1690
46.19266399999994,16.973143999999984,1316
46.19266399999994,16.325143999999987,1321
45.86866399999994,16.973143999999984,1333
45.86866399999994,17.621143999999987,1428
46.19266399999994,15.677143999999986,1290
46.516663999999935,16.325143999999987,1295
45.54466399999994,15.677143999999986,1365
45.22066399999994,15.029143999999986,1401
45.54466399999994,15.029143999999986,1362
45.22066399999994,15.677143999999986,1426
44.572663999999946,15.677143999999986,1579
44.24866399999995,15.677143999999986,1600
43.92466399999995,16.325143999999987,1664
44.89666399999994,15.677143999999986,1543
45.54466399999994,17.621143999999987,1407
45.22066399999994,16.325143999999987,1385
46.516663999999935,16.973143999999984,1308
45.86866399999994,18.269143999999983,1600
43.92466399999995,15.677143999999986,1766
45.22066399999994,13.733143999999989,1410
47.48866399999993,19.565143999999982,902
47.16466399999993,18.917143999999983,906
47.81266399999993,18.917143999999983,892
45.54466399999994,9.845143999999989,1099
45.22066399999994,9.845143999999989,1106
45.22066399999994,10.493143999999988,1158
45.86866399999994,9.845143999999989,1119
45.86866399999994,10.493143999999988,2358
48.78466399999992,21.50914399999997,890
49.10866399999992,20.213143999999986,861
49.10866399999992,18.917143999999983,737
48.46066399999992,17.621143999999987,794
49.43266399999992,17.621143999999987,973
49.10866399999992,17.621143999999987,832
48.136663999999925,18.269143999999983,835
49.10866399999992,18.269143999999983,786
49.43266399999992,18.269143999999983,798
49.43266399999992,16.973143999999984,763
49.75666399999992,16.973143999999984,921
49.75666399999992,16.325143999999987,814
50.08066399999991,15.677143999999986,443
50.08066399999991,15.029143999999986,418
49.43266399999992,18.917143999999983,710
47.81266399999993,20.86114399999998,1075
48.136663999999925,20.86114399999998,1010
48.46066399999992,20.86114399999998,997
48.46066399999992,21.50914399999997,904
49.10866399999992,19.565143999999982,753
48.136663999999925,17.621143999999987,781
48.78466399999992,22.15714399999998,1077
48.78466399999992,20.86114399999998,959
49.10866399999992,20.86114399999998,881
48.78466399999992,18.269143999999983,791
48.78466399999992,17.621143999999987,734
49.10866399999992,21.50914399999997,886
48.78466399999992,20.213143999999986,1310
48.46066399999992,20.213143999999986,1337
48.136663999999925,19.565143999999982,1605
48.46066399999992,19.565143999999982,1484
48.46066399999992,18.917143999999983,934
48.46066399999992,18.269143999999983,839
48.78466399999992,19.565143999999982,1250
48.78466399999992,18.917143999999983,992
47.81266399999993,18.269143999999983,847
49.10866399999992,22.15714399999998,1124
49.43266399999992,21.50914399999997,913
48.136663999999925,18.917143999999983,927
48.136663999999925,20.213143999999986,1625
52.636,-8.018,65535
52.312,-7.370000000000001,65535
52.312,-8.018,65535
52.636,-8.666,65535
51.988,-8.666,65535
51.988,-8.018,65535
52.96,-8.666,65535
52.96,-6.074000000000002,65535
53.28399999999999,-6.722000000000001,65535
53.60799999999999,-6.722000000000001,65535
53.60799999999999,-7.370000000000001,65535
53.60799999999999,-8.018,65535
54.25599999999999,-8.666,65535
53.93199999999999,-8.666,65535
53.93199999999999,-8.018,65535
52.312,-6.722000000000001,65535
52.636,-6.722000000000001,65535
53.93199999999999,-6.722000000000001,65535
54.25599999999999,-6.074000000000002,65535
53.28399999999999,-7.370000000000001,65535
52.96,-7.370000000000001,65535
52.312,-8.666,65535
52.96,-8.018,65535
52.636,-7.370000000000001,65535
52.96,-6.722000000000001,65535
51.988,-9.314,65535
52.312,-9.314,65535
54.579999999999984,-6.722000000000001,65535
54.579999999999984,-6.074000000000002,65535
53.28399999999999,-8.018,65535
53.28399999999999,-8.666,65535
53.28399999999999,-9.314,65535
53.93199999999999,-9.314,65535
54.25599999999999,-9.314,65535
53.60799999999999,-8.666,65535
53.60799999999999,-9.314,65535
49.43266399999992,14.381143999999988,526
49.75666399999992,14.381143999999988,446
49.75666399999992,15.029143999999986,437
49.75666399999992,13.733143999999989,445
50.08066399999991,13.733143999999989,441
49.75666399999992,15.677143999999986,425
50.40466399999991,15.029143999999986,409
49.43266399999992,13.733143999999989,496
50.40466399999991,15.677143999999986,743
50.40466399999991,13.733143999999989,448
46.19266399999994,15.029143999999986,1273
45.86866399999994,15.029143999999986,1318
45.86866399999994,14.381143999999988,1295
46.19266399999994,13.733143999999989,1382
45.86866399999994,13.733143999999989,1468
58.50466399999986,13.733143999999989,2420
58.180663999999865,13.733143999999989,2406
58.180663999999865,13.085143999999987,2378
57.85666399999987,12.437143999999988,2342
60.44866399999985,15.677143999999986,2627
60.124663999999854,15.677143999999986,2561
60.124663999999854,16.325143999999987,2599
59.800663999999855,16.325143999999987,2527
59.800663999999855,17.621143999999987,2506
59.47666399999986,18.269143999999983,2488
61.74466399999984,16.973143999999984,2638
61.420663999999846,16.973143999999984,2611
60.77266399999985,16.973143999999984,2563
65.63266399999982,22.15714399999998,3742
65.95666399999982,21.50914399999997,3702
65.63266399999982,20.86114399999998,3673
64.98466399999982,20.213143999999986,3605
64.66066399999983,20.213143999999986,3583
64.33666399999983,19.565143999999982,3277
64.01266399999983,19.565143999999982,2990
63.68866399999983,20.213143999999986,2943
64.66066399999983,18.917143999999983,5654
59.15266399999986,16.325143999999987,2463
59.15266399999986,15.029143999999986,2467
59.15266399999986,17.621143999999987,2480
57.53266399999987,14.381143999999988,2304
57.53266399999987,15.029143999999986,2324
61.09666399999985,14.381143999999988,2731
60.77266399999985,15.029143999999986,2682
60.44866399999985,15.029143999999986,2668
58.180663999999865,15.029143999999986,2381
58.50466399999986,16.325143999999987,2415
58.50466399999986,15.677143999999986,2388
63.36466399999984,13.085143999999987,2975
63.04066399999984,14.381143999999988,2912
62.39266399999984,15.677143999999986,2834
63.36466399999984,13.733143999999989,2957
63.36466399999984,14.381143999999988,2929
62.71666399999984,15.677143999999986,2862
62.39266399999984,17.621143999999987,2696
59.800663999999855,15.677143999999986,2749
55.58866399999988,13.733143999999989,2258
57.20866399999987,14.381143999999988,2288
57.85666399999987,14.381143999999988,2336
58.82866399999986,16.973143999999984,2472
58.82866399999986,16.325143999999987,2450
59.15266399999986,18.269143999999983,2484
60.44866399999985,17.621143999999987,2539
59.15266399999986,12.437143999999988,2443
59.15266399999986,13.085143999999987,2457
58.82866399999986,12.437143999999988,2419
59.47666399999986,16.325143999999987,2509
58.82866399999986,14.381143999999988,2496
59.47666399999986,15.677143999999986,2527
63.36466399999984,18.917143999999983,2896
63.04066399999984,17.621143999999987,2851
62.71666399999984,17.621143999999987,2825
63.68866399999983,19.565143999999982,2929
62.39266399999984,16.973143999999984,2740
59.800663999999855,16.973143999999984,2515
59.47666399999986,17.621143999999987,2492
57.85666399999987,13.085143999999987,2368
57.53266399999987,13.085143999999987,2349
58.50466399999986,11.789143999999988,2390
57.85666399999987,15.029143999999986,2370
57.20866399999987,13.733143999999989,2294
57.53266399999987,13.733143999999989,2355
61.74466399999984,16.325143999999987,2734
61.420663999999846,16.325143999999987,2701
61.09666399999985,16.325143999999987,2690
61.09666399999985,16.973143999999984,2658
60.124663999999854,15.029143999999986,2836
66.60466399999981,20.86114399999998,3777
67.25266399999981,20.86114399999998,3845
67.90066399999981,20.213143999999986,3915
67.57666399999981,20.213143999999986,4540
59.800663999999855,15.029143999999986,2556
58.50466399999986,15.029143999999986,2398
59.47666399999986,15.029143999999986,2541
60.44866399999985,16.325143999999987,2627
59.15266399999986,15.677143999999986,2485
57.85666399999987,13.733143999999989,2396
58.82866399999986,13.733143999999989,2443
58.50466399999986,13.085143999999987,2428
57.20866399999987,13.085143999999987,2325
56.88466399999987,13.085143999999987,2299
58.180663999999865,11.789143999999988,2361
62.06866399999984,16.973143999999984,2729
65.95666399999982,23.45314399999998,3977
59.800663999999855,14.381143999999988,5411
59.800663999999855,18.269143999999983,2497
63.04066399999984,15.029143999999986,2880
62.71666399999984,15.029143999999986,2870
62.39266399999984,16.325143999999987,2803
63.36466399999984,12.437143999999988,3008
68.5486639999998,17.621143999999987,4128
68.5486639999998,18.269143999999983,4061
68.5486639999998,18.917143999999983,4038
68.2246639999998,18.917143999999983,3994
59.800663999999855,13.085143999999987,2560
60.124663999999854,13.085143999999987,2599
59.47666399999986,16.973143999999984,2501
59.15266399999986,16.973143999999984,2493
56.56066399999988,13.733143999999989,2246
60.124663999999854,17.621143999999987,2516
57.85666399999987,16.325143999999987,2475
58.180663999999865,16.325143999999987,2437
58.180663999999865,15.677143999999986,2445
57.20866399999987,16.325143999999987,2487
57.53266399999987,15.677143999999986,2505
57.85666399999987,15.677143999999986,2476
44.89666399999994,23.45314399999998,2485
44.572663999999946,23.45314399999998,2555
44.89666399999994,24.74914399999998,2472
44.572663999999946,24.74914399999998,2591
44.572663999999946,24.101143999999977,2532
44.24866399999995,24.101143999999977,2561
47.48866399999993,25.397143999999983,2333
47.48866399999993,24.74914399999998,2273
47.16466399999993,24.74914399999998,2195
47.16466399999993,24.101143999999977,2097
47.48866399999993,22.15714399999998,2227
47.81266399999993,22.15714399999998,2313
47.16466399999993,22.15714399999998,2206
47.16466399999993,23.45314399999998,2258
47.16466399999993,22.805143999999984,2264
46.84066399999993,24.101143999999977,2178
45.86866399999994,27.34114399999998,2518
45.54466399999994,27.34114399999998,2499
45.54466399999994,27.989143999999985,2615
45.86866399999994,20.86114399999998,2390
45.86866399999994,21.50914399999997,2398
46.19266399999994,21.50914399999997,2334
46.19266399999994,27.34114399999998,2518
46.19266399999994,26.69314399999997,2509
46.516663999999935,26.69314399999997,2471
46.516663999999935,26.04514399999998,2367
47.48866399999993,22.805143999999984,2325
46.84066399999993,22.805143999999984,2138
45.54466399999994,22.15714399999998,2447
45.22066399999994,22.15714399999998,2525
44.89666399999994,22.15714399999998,2943
47.48866399999993,23.45314399999998,2291
46.516663999999935,24.101143999999977,2017
46.516663999999935,24.74914399999998,2231
45.86866399999994,24.101143999999977,2180
47.16466399999993,26.69314399999997,2549
47.16466399999993,27.34114399999998,2604
43.92466399999995,25.397143999999983,2563
44.24866399999995,24.74914399999998,2470
44.89666399999994,26.04514399999998,2357
44.89666399999994,26.69314399999997,2404
45.22066399999994,26.69314399999997,2439
45.22066399999994,27.34114399999998,2466
46.84066399999993,26.69314399999997,2510
47.48866399999993,26.69314399999997,2503
44.24866399999995,25.397143999999983,2402
43.92466399999995,26.04514399999998,2579
46.19266399999994,24.101143999999977,2225
44.572663999999946,25.397143999999983,2440
46.84066399999993,24.74914399999998,2238
46.516663999999935,21.50914399999997,2338
46.84066399999993,21.50914399999997,2345
44.572663999999946,26.69314399999997,2395
44.572663999999946,27.34114399999998,2416
44.89666399999994,27.34114399999998,2531
44.572663999999946,27.989143999999985,2436
44.24866399999995,27.989143999999985,2450
44.572663999999946,28.63714399999997,2501
45.86866399999994,22.15714399999998,2259
45.86866399999994,22.805143999999984,2153
44.24866399999995,23.45314399999998,2588
43.92466399999995,27.989143999999985,65535
46.84066399999993,27.34114399999998,2671
45.22066399999994,23.45314399999998,2460
45.54466399999994,23.45314399999998,2263
45.54466399999994,24.101143999999977,2210
45.22066399999994,24.101143999999977,2434
44.89666399999994,24.101143999999977,2504
46.19266399999994,22.15714399999998,2390
46.516663999999935,22.15714399999998,2356
45.22066399999994,21.50914399999997,2630
45.54466399999994,21.50914399999997,2478
45.54466399999994,20.86114399999998,2502
46.516663999999935,27.989143999999985,2621
46.19266399999994,27.989143999999985,2606
45.54466399999994,25.397143999999983,2324
45.22066399999994,25.397143999999983,2334
45.22066399999994,26.04514399999998,2390
47.81266399999993,24.101143999999977,2386
47.48866399999993,26.04514399999998,2476
47.81266399999993,26.04514399999998,2498
46.19266399999994,23.45314399999998,2057
45.86866399999994,23.45314399999998,2106
44.24866399999995,26.04514399999998,2384
45.22066399999994,27.989143999999985,2596
45.86866399999994,24.74914399999998,2219
46.516663999999935,25.397143999999983,2411
46.84066399999993,25.397143999999983,2294
46.19266399999994,26.04514399999998,2382
45.86866399999994,26.04514399999998,2347
43.92466399999995,23.45314399999998,2818
44.89666399999994,25.397143999999983,2445
46.19266399999994,20.86114399999998,2379
47.81266399999993,25.397143999999983,2510
44.572663999999946,22.805143999999984,2823
44.572663999999946,22.15714399999998,2965
46.516663999999935,23.45314399999998,2196
45.86866399999994,25.397143999999983,2273
44.24866399999995,27.34114399999998,3211
45.22066399999994,24.74914399999998,2536
45.54466399999994,22.805143999999984,2226
45.22066399999994,28.63714399999997,2656
44.89666399999994,28.63714399999997,2595
47.81266399999993,23.45314399999998,2443
46.19266399999994,24.74914399999998,2305
46.19266399999994,25.397143999999983,2329
43.92466399999995,24.101143999999977,2781
43.92466399999995,24.74914399999998,2794
47.81266399999993,26.69314399999997,2725
47.48866399999993,24.101143999999977,2318
46.84066399999993,26.04514399999998,3126
46.19266399999994,22.805143999999984,2450
47.48866399999993,27.34114399999998,2678
46.19266399999994,20.213143999999986,65535
45.54466399999994,26.04514399999998,2482
44.24866399999995,26.69314399999997,2400
45.86866399999994,27.989143999999985,2654
47.81266399999993,5.957143999999991,6586
