51.56399999999999,-0.4100000000000028,65535
51.887999999999984,-0.4100000000000028,65535
50.91599999999999,-1.7060000000000022,65535
51.23999999999999,-1.0580000000000025,65535
51.56399999999999,-1.0580000000000025,65535
51.23999999999999,-1.7060000000000022,65535
51.56399999999999,0.2379999999999968,65535
47.16466399999993,9.845143999999989,1092
47.48866399999993,9.845143999999989,1067
48.136663999999925,14.381143999999988,1060
47.81266399999993,13.085143999999987,985
47.16466399999993,11.141143999999988,1010
47.48866399999993,11.789143999999988,1157
48.136663999999925,16.325143999999987,1225
47.48866399999993,12.437143999999988,1013
48.136663999999925,15.677143999999986,1235
47.16466399999993,10.493143999999988,1018
47.16466399999993,9.197143999999987,1053
48.136663999999925,13.733143999999989,1035
48.136663999999925,15.029143999999986,1199
47.81266399999993,16.973143999999984,1255
48.46066399999992,14.381143999999988,3784
47.48866399999993,13.085143999999987,1015
47.16466399999993,13.085143999999987,1029
47.48866399999993,14.381143999999988,1231
47.48866399999993,13.733143999999989,1311
47.48866399999993,15.029143999999986,1367
46.516663999999935,13.733143999999989,1195
46.84066399999993,13.733143999999989,1156
46.84066399999993,13.085143999999987,1100
48.78466399999992,14.381143999999988,65535
47.16466399999993,15.677143999999986,1380
46.516663999999935,14.381143999999988,1194
46.84066399999993,14.381143999999988,1161
47.16466399999993,14.381143999999988,2405
46.516663999999935,15.029143999999986,1237
47.81266399999993,16.325143999999987,1252
47.16466399999993,15.029143999999986,1403
47.81266399999993,15.677143999999986,1515
47.48866399999993,15.677143999999986,1309
46.516663999999935,13.085143999999987,2774
46.84066399999993,12.437143999999988,1139
48.136663999999925,11.789143999999988,957
47.81266399999993,12.437143999999988,974
46.84066399999993,15.677143999999986,1365
46.516663999999935,15.677143999999986,1300
46.84066399999993,16.325143999999987,1352
47.81266399999993,14.381143999999988,1165
48.78466399999992,16.973143999999984,1132
48.136663999999925,16.973143999999984,1197
48.46066399999992,13.733143999999989,997
47.81266399999993,13.733143999999989,1154
50.08066399999991,8.54914399999999,936
48.46066399999992,9.845143999999989,1029
51.05266399999991,7.25314399999999,999
51.37666399999991,7.25314399999999,997
51.37666399999991,6.60514399999999,1009
48.46066399999992,16.325143999999987,1227
48.46066399999992,16.973143999999984,1147
48.78466399999992,16.325143999999987,1250
48.46066399999992,15.677143999999986,1240
48.78466399999992,15.677143999999986,1247
47.48866399999993,16.325143999999987,1262
47.16466399999993,16.325143999999987,1374
46.19266399999994,14.381143999999988,1252
45.86866399999994,15.677143999999986,1348
43.60066399999995,16.325143999999987,2515
45.54466399999994,14.381143999999988,1366
45.54466399999994,13.733143999999989,1389
48.136663999999925,13.085143999999987,1030
48.46066399999992,11.141143999999988,954
48.136663999999925,11.141143999999988,963
48.46066399999992,7.90114399999999,994
49.10866399999992,8.54914399999999,962
48.78466399999992,2.0691439999999925,1119
49.10866399999992,7.25314399999999,1011
52.0246639999999,7.90114399999999,992
47.16466399999993,11.789143999999988,1030
49.43266399999992,11.141143999999988,885
53.64466399999989,9.845143999999989,915
50.72866399999991,4.013143999999992,1071
51.05266399999991,11.141143999999988,547
47.48866399999993,11.141143999999988,998
46.84066399999993,11.789143999999988,1502
46.516663999999935,11.141143999999988,1382
45.54466399999994,11.141143999999988,1288
46.19266399999994,11.141143999999988,1376
45.86866399999994,11.141143999999988,1363
44.572663999999946,11.141143999999988,1332
43.92466399999995,12.437143999999988,65535
45.54466399999994,12.437143999999988,1334
45.54466399999994,11.789143999999988,1315
48.78466399999992,15.029143999999986,1692
47.81266399999993,15.029143999999986,1290
47.81266399999993,11.141143999999988,968
50.40466399999991,18.917143999999983,962
52.3486639999999,20.86114399999998,774
54.616663999999886,18.269143999999983,146
54.29266399999989,18.917143999999983,124
49.10866399999992,14.381143999999988,65535
50.08066399999991,14.381143999999988,906
48.78466399999992,13.733143999999989,1160
52.6726639999999,13.085143999999987,452
52.3486639999999,13.085143999999987,453
53.96866399999989,12.437143999999988,858
54.29266399999989,12.437143999999988,862
47.48866399999993,8.54914399999999,1043
47.81266399999993,17.621143999999987,1279
47.48866399999993,18.917143999999983,1340
47.48866399999993,20.86114399999998,1801
46.84066399999993,23.45314399999998,2419
44.572663999999946,26.04514399999998,2837
47.48866399999993,21.50914399999997,1835
47.81266399999993,21.50914399999997,1868
48.46066399999992,22.15714399999998,1417
47.48866399999993,16.973143999999984,65535
49.10866399999992,16.325143999999987,1087
49.75666399999992,18.269143999999983,1064
46.19266399999994,13.085143999999987,2303
41.98066399999996,12.437143999999988,2470
43.60066399999995,10.493143999999988,2726
45.54466399999994,9.197143999999987,1148
47.81266399999993,22.805143999999984,2659
49.75666399999992,22.805143999999984,1499
50.72866399999991,3.365143999999992,1082
51.05266399999991,4.013143999999992,1075
50.72866399999991,4.661143999999991,1069
51.05266399999991,4.661143999999991,1073
51.05266399999991,3.365143999999992,1084
51.05266399999991,2.717143999999992,1127
50.40466399999991,4.661143999999991,1083
50.72866399999991,2.717143999999992,1114
50.40466399999991,4.013143999999992,1088
51.05266399999991,5.309143999999991,1081
50.72866399999991,5.309143999999991,1048
51.37666399999991,3.365143999999992,1120
51.37666399999991,4.661143999999991,1089
50.72866399999991,5.957143999999991,1012
50.40466399999991,5.957143999999991,1023
50.40466399999991,3.365143999999992,1096
50.40466399999991,5.309143999999991,1052
50.08066399999991,5.309143999999991,1099
49.75666399999992,5.309143999999991,1124
49.75666399999992,5.957143999999991,1088
51.37666399999991,5.309143999999991,1136
51.700663999999904,4.661143999999991,1118
50.08066399999991,4.013143999999992,1160
50.08066399999991,5.957143999999991,1041
50.08066399999991,4.661143999999991,1111
49.43266399999992,5.309143999999991,1100
49.43266399999992,5.957143999999991,1083
52.0246639999999,4.661143999999991,2229
52.3486639999999,4.661143999999991,2264
50.72866399999991,15.029143999999986,519
51.05266399999991,15.029143999999986,484
51.05266399999991,13.733143999999989,554
50.40466399999991,13.085143999999987,827
49.10866399999992,7.90114399999999,973
48.78466399999992,7.90114399999999,980
50.40466399999991,7.90114399999999,977
50.08066399999991,7.90114399999999,941
49.75666399999992,7.90114399999999,952
49.43266399999992,7.90114399999999,977
49.75666399999992,8.54914399999999,941
49.43266399999992,8.54914399999999,950
49.43266399999992,9.197143999999987,978
49.10866399999992,9.197143999999987,968
47.48866399999993,7.90114399999999,1039
47.81266399999993,7.90114399999999,1009
48.136663999999925,7.90114399999999,1004
48.136663999999925,9.845143999999989,1026
47.81266399999993,9.197143999999987,1043
47.81266399999993,8.54914399999999,1033
47.81266399999993,9.845143999999989,1031
54.940663999999884,9.197143999999987,1019
54.616663999999886,9.197143999999987,960
54.29266399999989,9.197143999999987,968
53.96866399999989,9.197143999999987,955
53.64466399999989,9.197143999999987,947
54.616663999999886,9.845143999999989,952
54.29266399999989,9.845143999999989,943
53.96866399999989,9.845143999999989,938
53.64466399999989,10.493143999999988,911
53.96866399999989,10.493143999999988,938
53.96866399999989,11.141143999999988,911
54.29266399999989,10.493143999999988,963
53.32066399999989,10.493143999999988,891
54.940663999999884,11.141143999999988,1009
52.6726639999999,13.733143999999989,449
52.3486639999999,13.733143999999989,451
52.3486639999999,14.381143999999988,460
52.0246639999999,14.381143999999988,467
52.0246639999999,11.789143999999988,783
52.3486639999999,11.789143999999988,606
52.3486639999999,12.437143999999988,490
52.0246639999999,15.029143999999986,474
51.700663999999904,14.381143999999988,494
52.0246639999999,13.733143999999989,498
51.700663999999904,13.733143999999989,534
52.6726639999999,12.437143999999988,468
53.32066399999989,11.789143999999988,852
53.96866399999989,11.789143999999988,858
53.64466399999989,11.789143999999988,871
53.64466399999989,11.141143999999988,884
53.32066399999989,11.141143999999988,875
52.996663999999896,11.789143999999988,711
52.996663999999896,12.437143999999988,696
52.996663999999896,13.733143999999989,489
53.64466399999989,13.733143999999989,557
53.96866399999989,13.733143999999989,889
54.29266399999989,13.085143999999987,932
53.96866399999989,13.085143999999987,839
53.32066399999989,13.733143999999989,526
52.0246639999999,13.085143999999987,472
51.700663999999904,13.085143999999987,538
52.996663999999896,14.381143999999988,524
52.0246639999999,12.437143999999988,480
51.700663999999904,12.437143999999988,489
51.37666399999991,11.789143999999988,519
51.37666399999991,12.437143999999988,513
52.6726639999999,11.789143999999988,501
53.64466399999989,13.085143999999987,569
53.32066399999989,13.085143999999987,531
52.996663999999896,13.085143999999987,504
53.64466399999989,12.437143999999988,820
51.37666399999991,13.733143999999989,543
53.32066399999989,12.437143999999988,896
52.6726639999999,14.381143999999988,424
51.37666399999991,13.085143999999987,530
53.32066399999989,14.381143999999988,854
52.3486639999999,15.029143999999986,883
52.0246639999999,15.677143999999986,784
51.700663999999904,15.029143999999986,889
51.05266399999991,16.325143999999987,426
51.05266399999991,16.973143999999984,468
51.700663999999904,15.677143999999986,810
51.37666399999991,15.677143999999986,421
51.37666399999991,16.325143999999987,413
50.72866399999991,13.085143999999987,546
50.72866399999991,12.437143999999988,534
51.05266399999991,13.085143999999987,532
51.05266399999991,14.381143999999988,519
50.40466399999991,12.437143999999988,605
50.40466399999991,11.789143999999988,842
50.08066399999991,12.437143999999988,919
50.72866399999991,11.789143999999988,557
51.05266399999991,12.437143999999988,521
50.72866399999991,14.381143999999988,915
51.37666399999991,14.381143999999988,527
50.72866399999991,13.733143999999989,617
50.40466399999991,14.381143999999988,895
51.37666399999991,15.029143999999986,458
55.26466399999988,9.197143999999987,1788
55.58866399999988,8.54914399999999,1822
55.91266399999988,8.54914399999999,2239
56.23666399999988,9.197143999999987,2247
56.23666399999988,10.493143999999988,2200
56.23666399999988,9.845143999999989,2187
55.91266399999988,9.845143999999989,2125
56.56066399999988,9.197143999999987,2257
56.56066399999988,8.54914399999999,2300
51.05266399999991,6.60514399999999,1012
51.700663999999904,7.90114399999999,983
50.72866399999991,6.60514399999999,1005
51.700663999999904,7.25314399999999,1006
50.72866399999991,7.25314399999999,1000
52.0246639999999,7.25314399999999,1002
52.3486639999999,7.90114399999999,964
51.05266399999991,5.957143999999991,1016
50.40466399999991,7.25314399999999,987
51.700663999999904,6.60514399999999,1022
51.700663999999904,5.957143999999991,1028
52.3486639999999,9.197143999999987,901
51.700663999999904,8.54914399999999,976
52.0246639999999,8.54914399999999,920
52.3486639999999,8.54914399999999,913
51.37666399999991,7.90114399999999,991
52.3486639999999,7.25314399999999,1006
51.37666399999991,5.957143999999991,1061
50.72866399999991,7.90114399999999,1044
51.37666399999991,9.197143999999987,954
51.700663999999904,9.197143999999987,966
50.40466399999991,6.60514399999999,1066
51.05266399999991,7.90114399999999,1013
51.37666399999991,8.54914399999999,1002
52.0246639999999,5.957143999999991,1071
52.3486639999999,6.60514399999999,1046
51.05266399999991,8.54914399999999,983
52.0246639999999,9.197143999999987,932
52.6726639999999,9.197143999999987,930
52.0246639999999,9.845143999999989,905
51.700663999999904,9.845143999999989,910
51.37666399999991,9.845143999999989,904
50.72866399999991,8.54914399999999,974
51.05266399999991,9.845143999999989,948
50.72866399999991,9.845143999999989,969
50.40466399999991,9.845143999999989,997
51.05266399999991,9.197143999999987,973
50.40466399999991,9.197143999999987,958
50.08066399999991,9.197143999999987,925
51.05266399999991,10.493143999999988,763
50.40466399999991,8.54914399999999,950
50.72866399999991,9.197143999999987,1012
49.75666399999992,9.197143999999987,928
52.996663999999896,9.197143999999987,933
52.3486639999999,9.845143999999989,885
52.996663999999896,8.54914399999999,941
52.996663999999896,7.90114399999999,953
53.32066399999989,7.90114399999999,1003
53.32066399999989,7.25314399999999,1034
53.64466399999989,7.25314399999999,1138
52.996663999999896,10.493143999999988,929
52.6726639999999,10.493143999999988,917
52.6726639999999,9.845143999999989,900
53.32066399999989,9.845143999999989,904
53.32066399999989,9.197143999999987,927
53.64466399999989,8.54914399999999,958
53.32066399999989,8.54914399999999,948
52.6726639999999,8.54914399999999,963
52.0246639999999,10.493143999999988,867
52.0246639999999,11.141143999999988,801
51.700663999999904,11.141143999999988,830
52.6726639999999,7.25314399999999,1794
52.996663999999896,7.25314399999999,1822
52.6726639999999,7.90114399999999,975
53.64466399999989,7.90114399999999,1031
52.996663999999896,11.141143999999988,538
52.6726639999999,11.141143999999988,533
52.3486639999999,10.493143999999988,843
52.996663999999896,9.845143999999989,936
51.700663999999904,10.493143999999988,855
51.37666399999991,10.493143999999988,552
51.700663999999904,11.789143999999988,782
52.3486639999999,11.141143999999988,825
51.37666399999991,11.141143999999988,543
51.05266399999991,11.789143999999988,539
49.10866399999992,11.141143999999988,895
48.78466399999992,11.141143999999988,941
48.46066399999992,11.789143999999988,951
49.43266399999992,11.789143999999988,887
50.08066399999991,11.789143999999988,856
49.75666399999992,12.437143999999988,926
49.10866399999992,11.789143999999988,914
48.78466399999992,12.437143999999988,923
48.46066399999992,12.437143999999988,943
49.10866399999992,12.437143999999988,914
48.78466399999992,13.085143999999987,948
48.136663999999925,12.437143999999988,1008
47.81266399999993,11.789143999999988,963
48.136663999999925,10.493143999999988,982
47.81266399999993,10.493143999999988,1011
48.78466399999992,10.493143999999988,966
47.48866399999993,10.493143999999988,1057
48.46066399999992,10.493143999999988,998
49.43266399999992,13.085143999999987,938
48.46066399999992,13.085143999999987,971
49.43266399999992,10.493143999999988,893
49.75666399999992,9.845143999999989,936
49.75666399999992,10.493143999999988,904
50.40466399999991,11.141143999999988,902
50.08066399999991,11.141143999999988,865
50.72866399999991,11.141143999999988,576
49.75666399999992,11.141143999999988,868
48.78466399999992,11.789143999999988,973
50.40466399999991,10.493143999999988,589
50.08066399999991,9.845143999999989,853
50.08066399999991,10.493143999999988,873
49.43266399999992,12.437143999999988,941
49.75666399999992,11.789143999999988,871
49.10866399999992,13.085143999999987,997
50.72866399999991,10.493143999999988,579
49.10866399999992,10.493143999999988,920
48.78466399999992,9.845143999999989,976
48.46066399999992,8.54914399999999,988
48.46066399999992,9.197143999999987,1009
48.78466399999992,9.197143999999987,981
48.78466399999992,8.54914399999999,973
50.08066399999991,7.25314399999999,1010
49.75666399999992,6.60514399999999,1052
49.43266399999992,6.60514399999999,1039
49.10866399999992,6.60514399999999,1030
49.43266399999992,7.25314399999999,1008
49.75666399999992,7.25314399999999,972
49.10866399999992,5.957143999999991,1074
48.78466399999992,7.25314399999999,999
50.08066399999991,6.60514399999999,1068
47.48866399999993,9.197143999999987,1048
48.136663999999925,8.54914399999999,1008
48.136663999999925,9.197143999999987,1040
47.81266399999993,7.25314399999999,1017
49.43266399999992,9.845143999999989,944
49.10866399999992,9.845143999999989,938
53.64466399999989,14.381143999999988,863
50.08066399999991,13.085143999999987,981
49.75666399999992,13.085143999999987,995
45.86866399999994,9.197143999999987,1138
46.19266399999994,9.197143999999987,1124
46.516663999999935,8.54914399999999,1077
46.516663999999935,9.197143999999987,1119
46.19266399999994,8.54914399999999,1136
47.16466399999993,8.54914399999999,1050
45.86866399999994,4.661143999999991,1264
46.84066399999993,9.845143999999989,1062
45.22066399999994,5.957143999999991,1209
45.22066399999994,5.309143999999991,1237
45.86866399999994,5.957143999999991,1140
45.54466399999994,5.957143999999991,1163
44.89666399999994,4.661143999999991,1265
44.89666399999994,5.309143999999991,1257
44.572663999999946,4.661143999999991,1315
44.24866399999995,4.661143999999991,1283
43.92466399999995,4.661143999999991,1279
46.19266399999994,7.25314399999999,1090
48.78466399999992,5.957143999999991,1065
48.136663999999925,6.60514399999999,1055
48.46066399999992,6.60514399999999,1046
48.78466399999992,6.60514399999999,1109
47.16466399999993,7.90114399999999,1044
48.136663999999925,7.25314399999999,1029
48.46066399999992,7.25314399999999,1027
46.516663999999935,6.60514399999999,1099
46.84066399999993,6.60514399999999,1087
46.84066399999993,7.25314399999999,1068
46.516663999999935,5.957143999999991,1125
46.19266399999994,5.957143999999991,1126
46.84066399999993,8.54914399999999,1059
46.84066399999993,7.90114399999999,1049
45.86866399999994,5.309143999999991,1245
46.19266399999994,6.60514399999999,1117
45.86866399999994,6.60514399999999,1093
47.48866399999993,6.60514399999999,1076
47.48866399999993,7.25314399999999,1048
47.16466399999993,7.25314399999999,1051
49.10866399999992,4.013143999999992,1145
49.75666399999992,4.661143999999991,1137
49.43266399999992,4.661143999999991,1200
49.10866399999992,5.309143999999991,1254
46.19266399999994,4.661143999999991,1222
46.84066399999993,9.197143999999987,1070
46.19266399999994,5.309143999999991,1202
46.516663999999935,5.309143999999991,1307
45.54466399999994,6.60514399999999,1238
45.54466399999994,5.309143999999991,1267
43.60066399999995,4.013143999999992,1326
43.60066399999995,3.365143999999992,1383
42.62866399999996,2.717143999999992,1452
43.276663999999954,2.717143999999992,1416
45.54466399999994,4.661143999999991,1299
45.22066399999994,4.661143999999991,1298
47.16466399999993,5.309143999999991,1156
47.16466399999993,5.957143999999991,1126
46.19266399999994,7.90114399999999,1076
49.75666399999992,2.717143999999992,1211
49.10866399999992,2.717143999999992,1165
48.78466399999992,2.717143999999992,1207
45.86866399999994,3.365143999999992,1461
46.84066399999993,3.365143999999992,1312
46.516663999999935,3.365143999999992,1341
46.19266399999994,3.365143999999992,1439
47.16466399999993,6.60514399999999,1088
49.10866399999992,3.365143999999992,1220
45.54466399999994,4.013143999999992,1359
46.516663999999935,7.25314399999999,1073
47.16466399999993,4.661143999999991,1230
46.84066399999993,4.661143999999991,1257
46.516663999999935,4.661143999999991,1281
46.84066399999993,5.957143999999991,1152
47.81266399999993,3.365143999999992,1225
47.48866399999993,4.013143999999992,1268
48.136663999999925,4.013143999999992,1248
47.81266399999993,4.013143999999992,1262
47.48866399999993,4.661143999999991,1222
47.16466399999993,3.365143999999992,1412
46.84066399999993,4.013143999999992,1280
48.46066399999992,5.957143999999991,1235
46.19266399999994,2.717143999999992,1432
47.16466399999993,2.0691439999999925,1208
46.516663999999935,2.717143999999992,1405
46.84066399999993,2.717143999999992,1386
46.84066399999993,2.0691439999999925,1230
47.16466399999993,2.717143999999992,1307
44.572663999999946,5.309143999999991,1400
44.572663999999946,5.957143999999991,1311
44.89666399999994,6.60514399999999,1354
44.572663999999946,6.60514399999999,1365
43.60066399999995,5.309143999999991,1302
43.92466399999995,7.25314399999999,1414
43.60066399999995,6.60514399999999,1392
43.276663999999954,6.60514399999999,1380
43.276663999999954,5.957143999999991,1337
45.86866399999994,8.54914399999999,1145
45.54466399999994,8.54914399999999,1152
48.136663999999925,3.365143999999992,1204
48.46066399999992,3.365143999999992,1192
48.46066399999992,2.717143999999992,1151
47.48866399999993,5.309143999999991,1236
46.516663999999935,9.845143999999989,1076
46.84066399999993,10.493143999999988,1093
47.81266399999993,5.309143999999991,1336
45.22066399999994,6.60514399999999,1265
46.19266399999994,4.013143999999992,1274
45.86866399999994,4.013143999999992,1301
45.22066399999994,4.013143999999992,1462
44.89666399999994,4.013143999999992,1488
46.84066399999993,5.309143999999991,1281
48.136663999999925,-1.8188560000000056,1213
48.136663999999925,0.1251439999999934,1166
48.136663999999925,-0.5228560000000062,1189
47.48866399999993,-0.5228560000000062,1214
47.16466399999993,-1.8188560000000056,1254
47.48866399999993,0.7731439999999932,1180
47.16466399999993,0.1251439999999934,1270
45.86866399999994,7.25314399999999,1099
48.136663999999925,5.309143999999991,1293
49.10866399999992,4.661143999999991,1189
48.46066399999992,4.013143999999992,1249
48.136663999999925,4.661143999999991,1289
47.81266399999993,6.60514399999999,1153
47.48866399999993,5.957143999999991,1294
48.136663999999925,5.957143999999991,1406
45.86866399999994,7.90114399999999,1094
46.516663999999935,7.90114399999999,1064
49.43266399999992,3.365143999999992,1227
49.43266399999992,4.013143999999992,1188
48.136663999999925,2.717143999999992,1545
47.81266399999993,2.717143999999992,1512
47.48866399999993,2.717143999999992,1445
50.40466399999991,2.717143999999992,1142
48.46066399999992,-4.410856000000004,1364
48.46066399999992,-3.7628560000000046,1310
48.46066399999992,-3.114856000000005,1295
48.46066399999992,-2.4668560000000053,1265
47.48866399999993,1.4211439999999929,1235
47.16466399999993,1.4211439999999929,1247
46.516663999999935,4.013143999999992,1285
43.60066399999995,4.661143999999991,1304
44.89666399999994,2.717143999999992,1501
45.22066399999994,2.717143999999992,1588
45.54466399999994,3.365143999999992,1507
45.22066399999994,3.365143999999992,1475
47.48866399999993,3.365143999999992,1244
46.19266399999994,9.845143999999989,1102
47.81266399999993,2.0691439999999925,1226
47.48866399999993,2.0691439999999925,1307
45.86866399999994,2.717143999999992,1509
44.89666399999994,5.957143999999991,1237
45.22066399999994,1.4211439999999929,1387
44.89666399999994,1.4211439999999929,1425
44.89666399999994,2.0691439999999925,1452
43.276663999999954,2.0691439999999925,1432
43.60066399999995,1.4211439999999929,1411
48.78466399999992,4.661143999999991,1172
48.78466399999992,5.309143999999991,1113
46.19266399999994,2.0691439999999925,1478
45.86866399999994,1.4211439999999929,1322
46.19266399999994,1.4211439999999929,1342
44.572663999999946,4.013143999999992,1427
44.89666399999994,3.365143999999992,1511
43.92466399999995,4.013143999999992,1353
44.24866399999995,4.013143999999992,1370
44.89666399999994,-0.5228560000000062,1274
45.54466399999994,0.1251439999999934,1335
46.516663999999935,0.1251439999999934,1290
44.572663999999946,2.0691439999999925,1524
49.75666399999992,4.013143999999992,1267
43.92466399999995,3.365143999999992,1641
43.92466399999995,2.717143999999992,1672
44.24866399999995,3.365143999999992,1696
44.572663999999946,3.365143999999992,1739
49.10866399999992,0.1251439999999934,1222
49.43266399999992,0.7731439999999932,1200
49.43266399999992,-1.8188560000000056,1316
49.10866399999992,-1.170856000000006,1291
49.10866399999992,-0.5228560000000062,1259
49.10866399999992,0.7731439999999932,1246
49.10866399999992,1.4211439999999929,1203
47.81266399999993,-1.8188560000000056,1255
47.81266399999993,-2.4668560000000053,1287
47.81266399999993,-3.114856000000005,1300
48.136663999999925,-3.7628560000000046,1357
44.572663999999946,9.197143999999987,1316
44.89666399999994,8.54914399999999,1262
45.22066399999994,9.197143999999987,1159
45.54466399999994,10.493143999999988,1207
44.572663999999946,10.493143999999988,1318
44.89666399999994,10.493143999999988,1304
44.89666399999994,9.845143999999989,1272
48.46066399999992,5.309143999999991,1280
50.91599999999999,-1.0580000000000025,65535
51.23999999999999,-0.4100000000000028,65535
50.91599999999999,-0.4100000000000028,65535
51.23999999999999,-2.354000000000002,65535
51.56399999999999,-2.354000000000002,65535
51.56399999999999,-3.0020000000000016,65535
50.91599999999999,-2.354000000000002,65535
53.50799999999997,-3.0020000000000016,65535
53.183999999999976,-2.354000000000002,65535
53.183999999999976,-3.0020000000000016,65535
52.85999999999998,-2.354000000000002,65535
52.21199999999998,-1.0580000000000025,65535
51.887999999999984,-1.0580000000000025,65535
52.53599999999998,-1.0580000000000025,65535
52.53599999999998,-1.7060000000000022,65535
52.85999999999998,-1.7060000000000022,65535
53.50799999999997,-2.354000000000002,65535
52.85999999999998,-1.0580000000000025,65535
52.53599999999998,1.5339999999999965,65535
52.53599999999998,0.8859999999999966,65535
52.53599999999998,0.2379999999999968,65535
52.53599999999998,-0.4100000000000028,65535
53.50799999999997,-1.7060000000000022,65535
53.183999999999976,-1.7060000000000022,65535
53.183999999999976,-1.0580000000000025,65535
52.85999999999998,-0.4100000000000028,65535
51.887999999999984,-2.354000000000002,65535
52.21199999999998,-2.354000000000002,65535
55.77599999999996,-2.354000000000002,65535
53.83199999999997,-1.0580000000000025,65535
53.83199999999997,-1.7060000000000022,65535
55.127999999999965,-1.7060000000000022,65535
54.80399999999997,-1.7060000000000022,65535
54.47999999999997,-1.7060000000000022,65535
54.15599999999997,-1.0580000000000025,65535
52.21199999999998,-1.7060000000000022,65535
53.50799999999997,-1.0580000000000025,65535
55.77599999999996,-3.0020000000000016,65535
55.45199999999996,-1.7060000000000022,65535
57.07199999999995,-2.354000000000002,65535
56.74799999999996,-3.0020000000000016,65535
56.42399999999996,-3.0020000000000016,65535
56.09999999999996,-3.650000000000001,65535
50.91599999999999,-3.0020000000000016,65535
50.91599999999999,-3.650000000000001,65535
50.59199999999999,-3.650000000000001,65535
50.59199999999999,-4.298000000000001,65535
51.23999999999999,-3.0020000000000016,65535
50.268,-4.946000000000001,65535
55.77599999999996,-3.650000000000001,65535
55.77599999999996,-4.298000000000001,65535
52.21199999999998,-0.4100000000000028,65535
52.53599999999998,-2.354000000000002,65535
51.56399999999999,-1.7060000000000022,65535
51.56399999999999,-3.650000000000001,65535
51.887999999999984,-4.298000000000001,65535
51.56399999999999,-4.298000000000001,65535
51.887999999999984,-1.7060000000000022,65535
52.21199999999998,-3.0020000000000016,65535
51.23999999999999,0.2379999999999968,65535
50.91599999999999,0.2379999999999968,65535
52.21199999999998,0.2379999999999968,65535
53.83199999999997,-3.0020000000000016,65535
54.15599999999997,-3.0020000000000016,65535
54.47999999999997,-3.0020000000000016,65535
55.127999999999965,-3.650000000000001,65535
54.80399999999997,-3.0020000000000016,65535
53.83199999999997,-2.354000000000002,65535
54.15599999999997,-0.4100000000000028,65535
54.47999999999997,-1.0580000000000025,65535
53.83199999999997,-0.4100000000000028,65535
53.183999999999976,-3.650000000000001,65535
53.183999999999976,-4.298000000000001,65535
52.85999999999998,-3.0020000000000016,65535
52.53599999999998,-3.0020000000000016,65535
51.887999999999984,-3.0020000000000016,65535
51.23999999999999,0.8859999999999966,65535
51.887999999999984,0.2379999999999968,65535
52.21199999999998,0.8859999999999966,65535
51.887999999999984,-4.946000000000001,65535
52.53599999999998,-3.650000000000001,65535
52.21199999999998,-4.298000000000001,65535
53.183999999999976,-0.4100000000000028,65535
51.23999999999999,-3.650000000000001,65535
51.887999999999984,-3.650000000000001,65535
52.21199999999998,-3.650000000000001,65535
51.56399999999999,0.8859999999999966,65535
51.887999999999984,0.8859999999999966,65535
52.85999999999998,0.8859999999999966,65535
53.50799999999997,-0.4100000000000028,65535
56.09999999999996,-4.298000000000001,65535
56.74799999999996,-4.946000000000001,65535
56.74799999999996,-4.298000000000001,65535
56.42399999999996,-4.946000000000001,65535
56.42399999999996,-4.298000000000001,65535
56.09999999999996,-4.946000000000001,65535
57.39599999999995,-4.298000000000001,65535
57.39599999999995,-3.0020000000000016,65535
57.39599999999995,-3.650000000000001,65535
56.42399999999996,-3.650000000000001,65535
57.07199999999995,-3.650000000000001,65535
57.07199999999995,-4.298000000000001,65535
56.74799999999996,-3.650000000000001,65535
59.15266399999986,27.34114399999998,65535
59.47666399999986,26.69314399999997,65535
59.47666399999986,26.04514399999998,65535
59.15266399999986,26.04514399999998,65535
59.15266399999986,24.74914399999998,65535
59.15266399999986,25.397143999999983,65535
59.47666399999986,25.397143999999983,65535
58.50466399999986,26.69314399999997,65535
58.82866399999986,26.69314399999997,65535
57.85666399999987,26.04514399999998,65535
58.180663999999865,26.04514399999998,65535
58.180663999999865,26.69314399999997,65535
58.82866399999986,26.04514399999998,65535
58.50466399999986,25.397143999999983,65535
58.82866399999986,25.397143999999983,65535
58.82866399999986,24.74914399999998,65535
58.180663999999865,27.34114399999998,65535
57.85666399999987,27.34114399999998,65535
63.68866399999983,27.34114399999998,65535
60.124663999999854,24.74914399999998,65535
60.44866399999985,24.74914399999998,65535
60.44866399999985,25.397143999999983,65535
60.77266399999985,25.397143999999983,65535
61.09666399999985,26.04514399999998,65535
60.77266399999985,26.04514399999998,65535
60.77266399999985,26.69314399999997,65535
61.09666399999985,25.397143999999983,65535
61.09666399999985,26.69314399999997,65535
61.420663999999846,26.69314399999997,65535
61.74466399999984,27.34114399999998,65535
62.06866399999984,27.34114399999998,65535
62.39266399999984,27.34114399999998,65535
62.71666399999984,27.34114399999998,65535
64.01266399999983,27.34114399999998,65535
63.36466399999984,27.34114399999998,65535
63.04066399999984,27.34114399999998,65535
63.04066399999984,27.989143999999985,65535
64.33666399999983,27.989143999999985,65535
64.33666399999983,27.34114399999998,65535
64.66066399999983,27.34114399999998,65535
64.66066399999983,26.69314399999997,4756
64.98466399999982,25.397143999999983,4519
64.66066399999983,26.04514399999998,4736
64.98466399999982,26.04514399999998,4720
66.28066399999982,25.397143999999983,65535
65.95666399999982,24.74914399999998,4432
65.63266399999982,24.74914399999998,4436
65.63266399999982,25.397143999999983,4478
65.30866399999982,25.397143999999983,4499
66.60466399999981,25.397143999999983,65535
64.01266399999983,24.74914399999998,4656
64.01266399999983,24.101143999999977,4691
64.01266399999983,23.45314399999998,4715
63.68866399999983,23.45314399999998,4727
63.68866399999983,22.805143999999984,4752
63.68866399999983,26.04514399999998,65535
63.68866399999983,25.397143999999983,65535
63.68866399999983,26.69314399999997,65535
60.44866399999985,26.69314399999997,65535
64.01266399999983,27.989143999999985,65535
62.71666399999984,22.805143999999984,65535
62.39266399999984,22.805143999999984,65535
62.06866399999984,22.805143999999984,65535
62.06866399999984,23.45314399999998,65535
61.74466399999984,23.45314399999998,65535
61.420663999999846,23.45314399999998,65535
61.09666399999985,23.45314399999998,65535
61.09666399999985,24.101143999999977,65535
61.09666399999985,24.74914399999998,65535
60.77266399999985,24.74914399999998,65535
63.04066399999984,21.50914399999997,65535
63.04066399999984,22.15714399999998,65535
63.04066399999984,22.805143999999984,65535
62.39266399999984,26.04514399999998,65535
62.06866399999984,25.397143999999983,65535
61.74466399999984,25.397143999999983,65535
61.74466399999984,24.74914399999998,65535
61.74466399999984,24.101143999999977,65535
61.420663999999846,24.101143999999977,65535
62.39266399999984,26.69314399999997,65535
64.66066399999983,25.397143999999983,4588
64.66066399999983,24.74914399999998,4606
64.33666399999983,24.74914399999998,4617
63.36466399999984,22.805143999999984,4777
67.25266399999981,24.101143999999977,65535
66.92866399999981,24.101143999999977,65535
66.60466399999981,23.45314399999998,65535
66.28066399999982,23.45314399999998,65535
66.28066399999982,24.101143999999977,65535
65.95666399999982,24.101143999999977,3804
60.124663999999854,24.101143999999977,65535
60.124663999999854,23.45314399999998,65535
60.44866399999985,22.805143999999984,65535
60.77266399999985,27.34114399999998,65535
61.09666399999985,27.989143999999985,65535
61.09666399999985,28.63714399999997,65535
61.420663999999846,29.28514399999997,65535
61.74466399999984,29.933143999999977,65535
62.06866399999984,29.933143999999977,65535
62.39266399999984,29.933143999999977,65535
62.71666399999984,29.933143999999977,65535
61.420663999999846,22.805143999999984,65535
61.420663999999846,22.15714399999998,65535
61.09666399999985,22.15714399999998,65535
61.420663999999846,21.50914399999997,65535
62.39266399999984,27.989143999999985,65535
62.06866399999984,27.989143999999985,65535
61.420663999999846,27.34114399999998,65535
63.04066399999984,29.933143999999977,65535
63.68866399999983,29.28514399999997,65535
63.36466399999984,29.28514399999997,65535
63.36466399999984,29.933143999999977,65535
60.44866399999985,27.34114399999998,65535
61.74466399999984,29.28514399999997,65535
62.39266399999984,30.58114399999998,65535
62.71666399999984,31.229143999999977,65535
62.71666399999984,29.28514399999997,65535
63.04066399999984,28.63714399999997,65535
66.60466399999981,26.04514399999998,65535
66.60466399999981,26.69314399999997,65535
66.60466399999981,27.34114399999998,65535
62.71666399999984,26.04514399999998,65535
62.71666399999984,25.397143999999983,65535
63.04066399999984,25.397143999999983,65535
63.36466399999984,25.397143999999983,65535
62.71666399999984,23.45314399999998,65535
62.39266399999984,24.101143999999977,65535
62.71666399999984,22.15714399999998,65535
62.39266399999984,22.15714399999998,65535
62.39266399999984,21.50914399999997,65535
61.09666399999985,21.50914399999997,65535
60.77266399999985,22.805143999999984,65535
60.44866399999985,22.15714399999998,65535
60.77266399999985,23.45314399999998,65535
60.77266399999985,21.50914399999997,65535
60.77266399999985,22.15714399999998,65535
60.124663999999854,22.805143999999984,65535
60.44866399999985,24.101143999999977,65535
62.06866399999984,24.74914399999998,65535
50.72866399999991,16.325143999999987,446
50.40466399999991,16.973143999999984,914
50.72866399999991,16.973143999999984,876
50.40466399999991,16.325143999999987,912
50.08066399999991,16.973143999999984,971
50.08066399999991,16.325143999999987,968
51.700663999999904,16.973143999999984,420
51.37666399999991,16.973143999999984,479
51.05266399999991,15.677143999999986,798
50.72866399999991,15.677143999999986,777
51.05266399999991,17.621143999999987,793
51.37666399999991,17.621143999999987,824
51.700663999999904,17.621143999999987,377
51.700663999999904,16.325143999999987,355
52.0246639999999,22.15714399999998,838
52.0246639999999,21.50914399999997,808
52.3486639999999,21.50914399999997,788
52.0246639999999,20.86114399999998,786
51.700663999999904,20.86114399999998,809
51.37666399999991,21.50914399999997,848
51.37666399999991,20.86114399999998,844
51.05266399999991,20.86114399999998,885
52.6726639999999,23.45314399999998,947
52.3486639999999,22.805143999999984,887
52.3486639999999,20.213143999999986,794
52.0246639999999,20.213143999999986,816
52.3486639999999,19.565143999999982,848
52.6726639999999,19.565143999999982,885
51.700663999999904,21.50914399999997,881
51.700663999999904,22.15714399999998,866
52.6726639999999,21.50914399999997,843
52.996663999999896,21.50914399999997,984
52.6726639999999,20.86114399999998,743
52.6726639999999,22.15714399999998,859
52.6726639999999,20.213143999999986,981
52.996663999999896,19.565143999999982,937
52.996663999999896,20.86114399999998,734
52.996663999999896,20.213143999999986,708
53.32066399999989,20.213143999999986,320
51.37666399999991,20.213143999999986,940
52.3486639999999,16.973143999999984,295
52.0246639999999,16.973143999999984,314
52.0246639999999,16.325143999999987,329
52.0246639999999,17.621143999999987,337
52.6726639999999,16.973143999999984,280
52.996663999999896,16.973143999999984,253
52.3486639999999,16.325143999999987,324
52.3486639999999,15.677143999999986,404
51.700663999999904,18.269143999999983,818
52.6726639999999,17.621143999999987,412
52.3486639999999,17.621143999999987,323
52.6726639999999,18.269143999999983,436
52.3486639999999,18.269143999999983,367
52.3486639999999,18.917143999999983,408
52.996663999999896,17.621143999999987,285
51.700663999999904,19.565143999999982,859
51.700663999999904,18.917143999999983,866
51.37666399999991,18.269143999999983,985
58.82866399999986,9.197143999999987,2768
58.180663999999865,7.90114399999999,2861
58.50466399999986,8.54914399999999,2812
63.36466399999984,10.493143999999988,2983
63.36466399999984,11.141143999999988,2990
63.36466399999984,11.789143999999988,3025
63.68866399999983,11.789143999999988,3053
64.33666399999983,12.437143999999988,3454
64.66066399999983,12.437143999999988,3949
65.63266399999982,13.085143999999987,3606
65.95666399999982,13.085143999999987,3641
66.28066399999982,14.381143999999988,3711
65.95666399999982,13.733143999999989,3780
66.28066399999982,13.733143999999989,3689
65.30866399999982,13.085143999999987,3907
64.98466399999982,13.085143999999987,3541
64.01266399999983,11.789143999999988,3084
63.68866399999983,11.141143999999988,3021
59.800663999999855,10.493143999999988,2564
59.800663999999855,11.141143999999988,2547
60.124663999999854,11.141143999999988,2562
60.44866399999985,11.141143999999988,2575
60.124663999999854,11.789143999999988,2588
60.77266399999985,7.25314399999999,2824
60.77266399999985,6.60514399999999,2870
59.15266399999986,9.197143999999987,2650
59.47666399999986,9.197143999999987,2671
59.800663999999855,9.845143999999989,2566
59.47666399999986,11.141143999999988,2511
61.09666399999985,10.493143999999988,2685
60.77266399999985,10.493143999999988,2655
60.77266399999985,11.141143999999988,2610
62.06866399999984,9.197143999999987,3010
61.74466399999984,9.845143999999989,2956
61.420663999999846,9.845143999999989,2933
59.15266399999986,9.845143999999989,2630
59.47666399999986,9.845143999999989,2606
58.82866399999986,5.957143999999991,3045
58.180663999999865,7.25314399999999,2917
58.50466399999986,7.25314399999999,2950
58.50466399999986,6.60514399999999,2955
58.50466399999986,5.957143999999991,3013
58.82866399999986,8.54914399999999,2798
60.44866399999985,7.25314399999999,2798
60.44866399999985,7.90114399999999,2759
60.124663999999854,10.493143999999988,2596
60.44866399999985,9.197143999999987,2708
60.77266399999985,9.197143999999987,2720
60.77266399999985,8.54914399999999,2739
60.124663999999854,9.845143999999989,2975
60.44866399999985,10.493143999999988,2641
63.04066399999984,10.493143999999988,2934
62.06866399999984,9.845143999999989,3035
62.39266399999984,9.845143999999989,3043
62.71666399999984,9.845143999999989,3067
59.47666399999986,14.381143999999988,2560
59.47666399999986,13.733143999999989,2501
59.47666399999986,13.085143999999987,2477
59.800663999999855,12.437143999999988,2546
59.15266399999986,11.141143999999988,2475
59.15266399999986,14.381143999999988,2574
58.82866399999986,11.789143999999988,2455
58.50466399999986,12.437143999999988,2385
58.180663999999865,12.437143999999988,2378
57.85666399999987,11.789143999999988,2329
62.71666399999984,7.90114399999999,3096
62.39266399999984,7.90114399999999,3053
62.06866399999984,8.54914399999999,3028
60.44866399999985,5.309143999999991,2944
60.44866399999985,5.957143999999991,2911
60.77266399999985,5.957143999999991,2900
62.39266399999984,11.141143999999988,2831
62.06866399999984,10.493143999999988,2786
61.74466399999984,11.141143999999988,2759
61.420663999999846,11.141143999999988,2713
61.09666399999985,11.141143999999988,2696
60.77266399999985,11.789143999999988,2673
63.04066399999984,11.141143999999988,2912
62.71666399999984,11.141143999999988,2855
62.39266399999984,10.493143999999988,2813
67.25266399999981,15.677143999999986,3830
67.25266399999981,15.029143999999986,3868
67.25266399999981,14.381143999999988,3896
66.92866399999981,15.029143999999986,3819
66.60466399999981,15.677143999999986,3797
64.01266399999983,11.141143999999988,3068
66.60466399999981,15.029143999999986,3860
54.29266399999989,18.269143999999983,123
54.616663999999886,17.621143999999987,188
53.96866399999989,18.269143999999983,0
43.92466399999995,1.4211439999999929,1382
44.24866399999995,0.7731439999999932,1343
44.572663999999946,0.1251439999999934,1388
46.84066399999993,1.4211439999999929,1247
44.572663999999946,1.4211439999999929,1464
44.24866399999995,1.4211439999999929,1430
45.54466399999994,1.4211439999999929,1361
46.516663999999935,1.4211439999999929,1376
42.30466399999996,2.717143999999992,1471
44.24866399999995,2.717143999999992,1655
44.572663999999946,2.717143999999992,1778
43.92466399999995,2.0691439999999925,1516
42.30466399999996,2.0691439999999925,1597
42.62866399999996,2.0691439999999925,1492
42.62866399999996,1.4211439999999929,1536
42.95266399999996,1.4211439999999929,1432
43.276663999999954,1.4211439999999929,1421
46.516663999999935,-1.170856000000006,1320
46.19266399999994,-1.170856000000006,1391
45.86866399999994,-0.5228560000000062,1360
45.54466399999994,-0.5228560000000062,1316
48.46066399999992,1.4211439999999929,1135
41.332663999999966,2.0691439999999925,1652
41.98066399999996,2.717143999999992,1611
48.46066399999992,-1.8188560000000056,1320
47.81266399999993,0.7731439999999932,1243
46.84066399999993,0.7731439999999932,1258
44.572663999999946,-1.170856000000006,1285
43.60066399999995,-1.170856000000006,1408
43.276663999999954,-1.8188560000000056,1455
43.276663999999954,0.1251439999999934,1545
42.95266399999996,0.1251439999999934,1517
43.276663999999954,-0.5228560000000062,1585
43.60066399999995,-0.5228560000000062,1561
47.81266399999993,-3.7628560000000046,1405
47.48866399999993,-2.4668560000000053,1415
47.81266399999993,-0.5228560000000062,1252
46.516663999999935,-1.8188560000000056,1335
48.136663999999925,-1.170856000000006,1238
47.48866399999993,-1.170856000000006,1252
45.22066399999994,8.54914399999999,1206
45.22066399999994,7.90114399999999,1219
46.19266399999994,-0.5228560000000062,1359
46.516663999999935,-0.5228560000000062,1400
48.78466399999992,-3.114856000000005,1345
50.72866399999991,2.0691439999999925,1113
50.40466399999991,2.0691439999999925,1145
40.36066399999997,-3.7628560000000046,2865
41.65666399999997,-1.170856000000006,2782
41.332663999999966,1.4211439999999929,2720
43.276663999999954,13.733143999999989,65535
42.95266399999996,13.733143999999989,65535
41.65666399999997,15.029143999999986,65535
40.68466399999997,17.621143999999987,65535
43.60066399999995,13.085143999999987,3903
41.65666399999997,12.437143999999988,2512
41.65666399999997,13.085143999999987,2528
41.98066399999996,13.085143999999987,2504
41.65666399999997,13.733143999999989,3092
41.332663999999966,13.733143999999989,2570
41.332663999999966,14.381143999999988,3127
41.00866399999997,14.381143999999988,3154
41.332663999999966,13.085143999999987,2553
41.00866399999997,15.029143999999986,4335
41.98066399999996,13.733143999999989,2586
42.30466399999996,14.381143999999988,4416
42.30466399999996,12.437143999999988,2755
42.62866399999996,12.437143999999988,3054
42.95266399999996,12.437143999999988,3108
42.30466399999996,11.789143999999988,2563
42.95266399999996,11.789143999999988,3818
42.62866399999996,11.789143999999988,3739
43.276663999999954,11.789143999999988,4290
42.95266399999996,13.085143999999987,3804
42.30466399999996,13.085143999999987,4303
43.276663999999954,13.085143999999987,3852
43.276663999999954,12.437143999999988,3859
42.62866399999996,11.141143999999988,2632
42.95266399999996,11.141143999999988,2675
42.95266399999996,10.493143999999988,2693
44.572663999999946,8.54914399999999,1310
44.89666399999994,7.90114399999999,1237
44.89666399999994,9.197143999999987,1340
44.24866399999995,7.90114399999999,1320
44.572663999999946,7.90114399999999,1277
43.92466399999995,7.90114399999999,1441
44.24866399999995,7.25314399999999,1309
44.89666399999994,7.25314399999999,1338
45.22066399999994,7.25314399999999,1258
45.54466399999994,7.90114399999999,1181
44.572663999999946,7.25314399999999,2302
52.996663999999896,22.805143999999984,963
52.996663999999896,23.45314399999998,985
51.37666399999991,22.15714399999998,1075
51.37666399999991,22.805143999999984,1130
50.08066399999991,20.213143999999986,1049
50.72866399999991,20.213143999999986,992
50.40466399999991,20.213143999999986,1090
50.08066399999991,20.86114399999998,1345
50.08066399999991,21.50914399999997,1386
50.08066399999991,22.15714399999998,1433
50.08066399999991,22.805143999999984,1463
53.96866399999989,22.805143999999984,1121
53.64466399999989,23.45314399999998,1075
53.32066399999989,23.45314399999998,1022
50.40466399999991,19.565143999999982,1026
50.08066399999991,18.917143999999983,1019
50.08066399999991,18.269143999999983,909
52.0246639999999,22.805143999999984,940
52.0246639999999,23.45314399999998,978
51.37666399999991,19.565143999999982,874
51.05266399999991,19.565143999999982,913
50.72866399999991,18.917143999999983,952
50.72866399999991,19.565143999999982,1037
49.75666399999992,18.917143999999983,1102
50.40466399999991,18.269143999999983,880
53.64466399999989,19.565143999999982,198
53.96866399999989,18.917143999999983,60
53.64466399999989,18.917143999999983,117
53.64466399999989,20.213143999999986,263
52.996663999999896,18.917143999999983,300
52.996663999999896,18.269143999999983,325
53.32066399999989,18.917143999999983,248
50.72866399999991,17.621143999999987,826
50.72866399999991,18.269143999999983,867
52.6726639999999,16.325143999999987,363
52.996663999999896,16.325143999999987,276
52.996663999999896,15.677143999999986,336
53.32066399999989,15.677143999999986,1016
53.32066399999989,15.029143999999986,834
53.64466399999989,15.029143999999986,939
53.96866399999989,15.029143999999986,880
52.6726639999999,18.917143999999983,378
53.32066399999989,16.325143999999987,1074
52.6726639999999,15.029143999999986,382
51.05266399999991,22.805143999999984,1177
51.05266399999991,23.45314399999998,1204
50.72866399999991,22.15714399999998,1286
50.40466399999991,22.15714399999998,1408
51.05266399999991,22.15714399999998,1127
54.616663999999886,16.973143999999984,222
54.29266399999989,16.325143999999987,268
53.96866399999989,15.677143999999986,364
50.72866399999991,21.50914399999997,1369
50.40466399999991,21.50914399999997,1387
50.40466399999991,17.621143999999987,930
53.32066399999989,22.805143999999984,1114
53.64466399999989,22.15714399999998,1138
54.29266399999989,16.973143999999984,247
50.72866399999991,20.86114399999998,975
51.700663999999904,22.805143999999984,1477
51.05266399999991,21.50914399999997,888
50.08066399999991,19.565143999999982,1034
52.0246639999999,18.917143999999983,3688
52.0246639999999,19.565143999999982,3681
53.64466399999989,18.269143999999983,36
51.700663999999904,20.213143999999986,981
53.32066399999989,19.565143999999982,258
50.72866399999991,23.45314399999998,1411
50.72866399999991,22.805143999999984,1380
49.43266399999992,20.213143999999986,1379
49.75666399999992,21.50914399999997,1469
49.75666399999992,22.15714399999998,2262
49.43266399999992,22.15714399999998,1430
51.05266399999991,18.917143999999983,996
51.05266399999991,18.269143999999983,917
53.32066399999989,16.973143999999984,216
53.64466399999989,16.973143999999984,189
49.75666399999992,20.86114399999998,1388
50.40466399999991,22.805143999999984,3770
53.64466399999989,16.325143999999987,971
53.96866399999989,20.86114399999998,309
54.29266399999989,20.86114399999998,355
53.96866399999989,21.50914399999997,1089
53.64466399999989,15.677143999999986,786
53.96866399999989,20.213143999999986,221
53.96866399999989,19.565143999999982,84
54.29266399999989,19.565143999999982,94
53.96866399999989,16.325143999999987,353
53.64466399999989,17.621143999999987,44
53.96866399999989,22.15714399999998,1156
53.64466399999989,21.50914399999997,1094
53.64466399999989,20.86114399999998,1047
52.6726639999999,15.677143999999986,360
51.05266399999991,20.213143999999986,963
54.940663999999884,24.101143999999977,65535
54.616663999999886,23.45314399999998,65535
54.29266399999989,23.45314399999998,65535
53.64466399999989,22.805143999999984,1163
53.96866399999989,16.973143999999984,341
50.40466399999991,20.86114399999998,1048
53.32066399999989,18.269143999999983,866
49.75666399999992,19.565143999999982,1133
50.40466399999991,23.45314399999998,1885
49.75666399999992,20.213143999999986,1357
49.43266399999992,19.565143999999982,1365
49.43266399999992,20.86114399999998,1355
53.96866399999989,17.621143999999987,1308
42.30466399999996,-1.8188560000000056,3999
41.98066399999996,-1.8188560000000056,3982
41.65666399999997,0.7731439999999932,3986
42.62866399999996,-1.8188560000000056,4114
42.95266399999996,-1.8188560000000056,4143
42.62866399999996,-3.114856000000005,4237
42.95266399999996,-2.4668560000000053,4215
42.62866399999996,-7.650856000000003,4579
42.30466399999996,-7.650856000000003,4639
42.30466399999996,-8.946856000000002,4775
42.30466399999996,-8.298856000000002,4749
41.98066399999996,-8.298856000000002,4738
42.30466399999996,-7.002856000000003,4521
42.62866399999996,-6.354856000000003,4463
42.30466399999996,-6.354856000000003,4418
42.62866399999996,-5.706856000000004,3918
41.98066399999996,-4.410856000000004,3872
42.30466399999996,-3.7628560000000046,4263
40.03666399999997,-0.5228560000000062,3966
39.38866399999998,-0.5228560000000062,4014
41.00866399999997,0.7731439999999932,4114
40.68466399999997,0.7731439999999932,4146
40.36066399999997,0.1251439999999934,4224
39.712663999999975,-0.5228560000000062,4123
38.41666399999998,-0.5228560000000062,4135
39.06466399999998,-0.5228560000000062,4257
38.74066399999998,-1.170856000000006,4143
41.332663999999966,0.7731439999999932,4174
41.65666399999997,2.717143999999992,3774
41.65666399999997,2.0691439999999925,3797
41.332663999999966,0.1251439999999934,4132
41.332663999999966,-0.5228560000000062,4076
41.65666399999997,-4.410856000000004,3846
40.03666399999997,-2.4668560000000053,4084
41.00866399999997,-4.410856000000004,3967
43.276663999999954,-5.706856000000004,4048
39.38866399999998,-1.170856000000006,4109
38.09266399999999,-1.170856000000006,4522
38.74066399999998,-0.5228560000000062,4285
37.76866399999999,-1.170856000000006,4587
39.06466399999998,-1.8188560000000056,4107
39.38866399999998,-3.114856000000005,4007
39.38866399999998,-2.4668560000000053,4063
39.06466399999998,-2.4668560000000053,4090
39.06466399999998,-3.114856000000005,4011
39.06466399999998,-3.7628560000000046,3985
38.74066399999998,-3.7628560000000046,4064
40.03666399999997,-3.7628560000000046,3963
40.03666399999997,-3.114856000000005,4163
40.03666399999997,-1.8188560000000056,4244
39.712663999999975,-1.8188560000000056,4209
39.712663999999975,-1.170856000000006,4145
40.36066399999997,-1.170856000000006,4164
40.68466399999997,-1.170856000000006,4142
41.00866399999997,-1.170856000000006,4130
41.332663999999966,-1.170856000000006,3970
43.276663999999954,-8.298856000000002,4739
42.95266399999996,-8.298856000000002,4707
41.65666399999997,-5.706856000000004,65535
41.98066399999996,-7.002856000000003,65535
41.98066399999996,-6.354856000000003,65535
41.332663999999966,-5.058856000000004,4085
43.276663999999954,-3.7628560000000046,4520
42.95266399999996,-4.410856000000004,4454
42.62866399999996,-4.410856000000004,4444
42.30466399999996,-4.410856000000004,4403
41.00866399999997,-5.706856000000004,4023
41.332663999999966,-1.8188560000000056,3916
40.68466399999997,-3.114856000000005,3870
41.00866399999997,-3.114856000000005,3921
41.00866399999997,-2.4668560000000053,3944
41.332663999999966,-2.4668560000000053,3997
40.68466399999997,-4.410856000000004,3907
40.36066399999997,-4.410856000000004,3991
40.68466399999997,-3.7628560000000046,3899
40.36066399999997,-3.114856000000005,3877
41.65666399999997,-2.4668560000000053,4014
38.09266399999999,-3.7628560000000046,4111
38.74066399999998,-3.114856000000005,4055
37.76866399999999,-3.7628560000000046,4168
39.712663999999975,-3.114856000000005,3999
38.41666399999998,-3.7628560000000046,4076
40.03666399999997,-4.410856000000004,65535
40.03666399999997,-5.058856000000004,65535
39.38866399999998,-6.354856000000003,65535
39.38866399999998,-7.002856000000003,65535
42.95266399999996,-3.114856000000005,4648
41.98066399999996,-1.170856000000006,4011
42.30466399999996,-2.4668560000000053,4052
41.65666399999997,-0.5228560000000062,4109
41.98066399999996,-0.5228560000000062,3946
41.65666399999997,0.1251439999999934,3973
41.98066399999996,0.1251439999999934,3995
37.76866399999999,-5.058856000000004,4047
36.79666399999999,-4.410856000000004,4106
38.74066399999998,-4.410856000000004,4003
37.12066399999999,-4.410856000000004,4080
37.44466399999999,-5.058856000000004,4604
37.44466399999999,-7.002856000000003,65535
37.44466399999999,-6.354856000000003,65535
37.44466399999999,-5.706856000000004,4280
39.712663999999975,-3.7628560000000046,4073
42.62866399999996,-8.946856000000002,65535
42.30466399999996,-5.706856000000004,4425
42.30466399999996,-5.058856000000004,4510
42.95266399999996,-5.706856000000004,3950
41.00866399999997,-5.058856000000004,3991
40.68466399999997,-5.058856000000004,3965
41.65666399999997,-5.058856000000004,65535
41.65666399999997,-6.354856000000003,65535
36.79666399999999,-6.354856000000003,65535
37.12066399999999,-5.706856000000004,4448
37.76866399999999,-5.706856000000004,4247
38.09266399999999,-4.410856000000004,4382
37.12066399999999,-5.058856000000004,4402
36.79666399999999,-5.058856000000004,4360
37.76866399999999,-4.410856000000004,65535
37.76866399999999,-7.002856000000003,65535
38.41666399999998,-6.354856000000003,65535
38.09266399999999,-6.354856000000003,65535
48.78466399999992,1.4211439999999929,1228
56.23666399999988,8.54914399999999,2290
55.58866399999988,9.197143999999987,2095
55.91266399999988,9.197143999999987,2236
55.26466399999988,10.493143999999988,1972
55.91266399999988,12.437143999999988,2109
55.58866399999988,11.789143999999988,2115
55.58866399999988,11.141143999999988,2106
55.26466399999988,11.789143999999988,2124
55.58866399999988,10.493143999999988,2091
55.58866399999988,13.085143999999987,2085
56.88466399999987,9.845143999999989,2242
57.20866399999987,9.845143999999989,2277
56.56066399999988,9.845143999999989,2214
56.88466399999987,8.54914399999999,2329
54.940663999999884,9.845143999999989,3436
54.940663999999884,11.789143999999988,2192
55.91266399999988,13.085143999999987,2184
56.23666399999988,13.733143999999989,2228
55.91266399999988,13.733143999999989,2231
56.23666399999988,14.381143999999988,2251
56.23666399999988,15.029143999999986,2292
56.23666399999988,15.677143999999986,2347
56.56066399999988,14.381143999999988,2308
56.88466399999987,14.381143999999988,2278
56.23666399999988,13.085143999999987,2176
56.56066399999988,13.085143999999987,2256
56.88466399999987,12.437143999999988,2293
57.20866399999987,12.437143999999988,2309
57.53266399999987,12.437143999999988,2324
56.88466399999987,15.029143999999986,2304
56.56066399999988,15.677143999999986,2364
56.88466399999987,15.677143999999986,2383
56.88466399999987,16.325143999999987,2398
55.91266399999988,11.789143999999988,2261
57.20866399999987,10.493143999999988,2464
49.43266399999992,1.4211439999999929,1220
49.75666399999992,0.7731439999999932,1223
49.75666399999992,2.0691439999999925,1204
50.08066399999991,2.717143999999992,1191
49.75666399999992,1.4211439999999929,1230
47.81266399999993,1.4211439999999929,1254
48.136663999999925,2.0691439999999925,1584
48.46066399999992,2.0691439999999925,1351
48.136663999999925,1.4211439999999929,1378
48.78466399999992,0.1251439999999934,1293
48.46066399999992,0.1251439999999934,1311
47.81266399999993,0.1251439999999934,1232
46.84066399999993,-0.5228560000000062,1329
47.16466399999993,0.7731439999999932,1228
46.84066399999993,0.1251439999999934,1279
46.84066399999993,-1.170856000000006,1293
50.08066399999991,1.4211439999999929,1164
50.08066399999991,2.0691439999999925,1181
49.43266399999992,2.717143999999992,1184
49.75666399999992,3.365143999999992,1217
50.08066399999991,3.365143999999992,1141
49.10866399999992,2.0691439999999925,1175
49.43266399999992,2.0691439999999925,1201
48.78466399999992,0.7731439999999932,1595
48.78466399999992,-0.5228560000000062,1321
48.78466399999992,-1.170856000000006,1352
48.136663999999925,0.7731439999999932,1184
48.46066399999992,0.7731439999999932,1209
43.92466399999995,5.957143999999991,1353
44.24866399999995,5.957143999999991,1379
43.92466399999995,5.309143999999991,1301
42.95266399999996,2.717143999999992,1458
45.54466399999994,2.0691439999999925,1582
45.22066399999994,2.0691439999999925,1426
42.95266399999996,2.0691439999999925,2377
42.95266399999996,0.7731439999999932,1466
43.276663999999954,0.7731439999999932,1451
46.19266399999994,0.7731439999999932,1342
46.516663999999935,0.7731439999999932,1326
45.86866399999994,0.1251439999999934,1516
46.19266399999994,0.1251439999999934,1556
47.81266399999993,-1.170856000000006,1435
48.136663999999925,-2.4668560000000053,1307
47.48866399999993,-1.8188560000000056,1440
47.16466399999993,-1.170856000000006,1284
47.16466399999993,-0.5228560000000062,1328
46.84066399999993,-1.8188560000000056,1312
45.22066399999994,-0.5228560000000062,1286
44.89666399999994,0.1251439999999934,1332
45.22066399999994,0.7731439999999932,1420
45.54466399999994,0.7731439999999932,1466
45.86866399999994,0.7731439999999932,1419
45.22066399999994,0.1251439999999934,1467
44.89666399999994,0.7731439999999932,1373
43.92466399999995,-0.5228560000000062,1497
43.92466399999995,-1.170856000000006,1487
44.24866399999995,-1.170856000000006,1467
45.22066399999994,-1.170856000000006,1398
44.572663999999946,-0.5228560000000062,1363
44.24866399999995,0.1251439999999934,1410
44.572663999999946,0.7731439999999932,1482
43.276663999999954,-1.170856000000006,1659
42.95266399999996,-0.5228560000000062,1597
44.24866399999995,2.0691439999999925,1570
43.60066399999995,0.7731439999999932,1453
43.60066399999995,2.0691439999999925,1477
52.6726639999999,4.661143999999991,2281
52.6726639999999,5.309143999999991,2304
51.700663999999904,5.309143999999991,2249
52.0246639999999,5.309143999999991,2261
52.3486639999999,5.309143999999991,2277
51.37666399999991,4.013143999999992,2257
52.3486639999999,5.957143999999991,2271
52.0246639999999,6.60514399999999,2301
52.6726639999999,5.957143999999991,2288
52.996663999999896,5.957143999999991,2301
53.32066399999989,5.957143999999991,2295
52.996663999999896,6.60514399999999,2277
53.32066399999989,6.60514399999999,2269
52.6726639999999,6.60514399999999,2297
52.996663999999896,5.309143999999991,2316
59.15266399999986,24.101143999999977,65535
56.88466399999987,24.101143999999977,65535
56.88466399999987,23.45314399999998,65535
56.88466399999987,22.805143999999984,65535
57.20866399999987,24.74914399999998,65535
56.88466399999987,24.74914399999998,65535
56.56066399999988,24.74914399999998,65535
56.56066399999988,25.397143999999983,65535
56.56066399999988,24.101143999999977,65535
56.56066399999988,23.45314399999998,65535
56.56066399999988,26.04514399999998,65535
56.88466399999987,26.04514399999998,65535
57.20866399999987,25.397143999999983,65535
57.53266399999987,25.397143999999983,65535
56.23666399999988,26.04514399999998,65535
56.23666399999988,26.69314399999997,65535
55.91266399999988,26.69314399999997,65535
56.56066399999988,26.69314399999997,65535
56.56066399999988,27.34114399999998,65535
56.56066399999988,27.989143999999985,65535
56.23666399999988,27.989143999999985,65535
55.91266399999988,27.34114399999998,65535
56.56066399999988,22.805143999999984,65535
56.56066399999988,22.15714399999998,65535
56.56066399999988,21.50914399999997,65535
57.20866399999987,26.69314399999997,65535
39.06466399999998,-8.946856000000002,65535
38.41666399999998,-8.298856000000002,65535
45.86866399999994,11.789143999999988,1468
46.19266399999994,11.789143999999988,1455
46.19266399999994,10.493143999999988,1440
45.22066399999994,18.269143999999983,2461
45.22066399999994,18.917143999999983,2535
45.54466399999994,16.973143999999984,2319
45.22066399999994,17.621143999999987,2396
45.86866399999994,16.325143999999987,2200
45.54466399999994,18.917143999999983,2575
45.54466399999994,16.325143999999987,2275
45.54466399999994,18.269143999999983,2553
44.89666399999994,18.917143999999983,2856
46.19266399999994,16.973143999999984,2220
46.19266399999994,16.325143999999987,2206
45.86866399999994,16.973143999999984,2237
45.86866399999994,17.621143999999987,2341
46.19266399999994,15.677143999999986,1290
46.516663999999935,16.325143999999987,1316
45.54466399999994,15.677143999999986,2180
45.22066399999994,15.029143999999986,2247
45.54466399999994,15.029143999999986,1362
45.22066399999994,15.677143999999986,2264
44.572663999999946,15.677143999999986,3019
44.24866399999995,15.677143999999986,3040
43.92466399999995,16.325143999999987,2931
44.89666399999994,15.677143999999986,2983
45.54466399999994,17.621143999999987,2528
45.22066399999994,16.325143999999987,2396
46.516663999999935,16.973143999999984,2277
45.86866399999994,18.269143999999983,2654
43.92466399999995,15.677143999999986,2730
45.22066399999994,13.733143999999989,2262
47.48866399999993,19.565143999999982,1372
47.16466399999993,18.917143999999983,2178
47.81266399999993,18.917143999999983,1321
45.54466399999994,9.845143999999989,1159
45.22066399999994,9.845143999999989,1168
45.22066399999994,10.493143999999988,1227
45.86866399999994,9.845143999999989,1179
45.86866399999994,10.493143999999988,2358
48.78466399999992,21.50914399999997,1359
49.10866399999992,20.213143999999986,1313
49.10866399999992,18.917143999999983,1206
48.46066399999992,17.621143999999987,1227
49.43266399999992,17.621143999999987,1093
49.10866399999992,17.621143999999987,1237
48.136663999999925,18.269143999999983,1278
49.10866399999992,18.269143999999983,1167
49.43266399999992,18.269143999999983,1124
49.43266399999992,16.973143999999984,1007
49.75666399999992,16.973143999999984,1041
49.75666399999992,16.325143999999987,970
50.08066399999991,15.677143999999986,928
50.08066399999991,15.029143999999986,900
49.43266399999992,18.917143999999983,1195
47.81266399999993,20.86114399999998,1435
48.136663999999925,20.86114399999998,1466
48.46066399999992,20.86114399999998,1373
48.46066399999992,21.50914399999997,1369
49.10866399999992,19.565143999999982,1255
48.136663999999925,17.621143999999987,1226
48.78466399999992,22.15714399999998,1375
48.78466399999992,20.86114399999998,1407
49.10866399999992,20.86114399999998,1334
48.78466399999992,18.269143999999983,1210
48.78466399999992,17.621143999999987,1229
49.10866399999992,21.50914399999997,1349
48.78466399999992,20.213143999999986,1415
48.46066399999992,20.213143999999986,1456
48.136663999999925,19.565143999999982,1605
48.46066399999992,19.565143999999982,1484
48.46066399999992,18.917143999999983,1294
48.46066399999992,18.269143999999983,1223
48.78466399999992,19.565143999999982,1320
48.78466399999992,18.917143999999983,1288
47.81266399999993,18.269143999999983,1314
49.10866399999992,22.15714399999998,1416
49.43266399999992,21.50914399999997,1414
48.136663999999925,18.917143999999983,1306
48.136663999999925,20.213143999999986,1625
52.636,-8.018,65535
52.312,-7.370000000000001,65535
52.312,-8.018,65535
52.636,-8.666,65535
51.988,-8.666,65535
51.988,-8.018,65535
52.96,-8.666,65535
52.96,-6.074000000000002,65535
53.28399999999999,-6.722000000000001,65535
53.60799999999999,-6.722000000000001,65535
53.60799999999999,-7.370000000000001,65535
53.60799999999999,-8.018,65535
54.25599999999999,-8.666,65535
53.93199999999999,-8.666,65535
53.93199999999999,-8.018,65535
52.312,-6.722000000000001,65535
52.636,-6.722000000000001,65535
53.93199999999999,-6.722000000000001,65535
54.25599999999999,-6.074000000000002,65535
53.28399999999999,-7.370000000000001,65535
52.96,-7.370000000000001,65535
52.312,-8.666,65535
52.96,-8.018,65535
52.636,-7.370000000000001,65535
52.96,-6.722000000000001,65535
51.988,-9.314,65535
52.312,-9.314,65535
54.579999999999984,-6.722000000000001,65535
54.579999999999984,-6.074000000000002,65535
53.28399999999999,-8.018,65535
53.28399999999999,-8.666,65535
53.28399999999999,-9.314,65535
53.93199999999999,-9.314,65535
54.25599999999999,-9.314,65535
53.60799999999999,-8.666,65535
53.60799999999999,-9.314,65535
49.43266399999992,14.381143999999988,935
49.75666399999992,14.381143999999988,920
49.75666399999992,15.029143999999986,905
49.75666399999992,13.733143999999989,957
50.08066399999991,13.733143999999989,949
49.75666399999992,15.677143999999986,906
50.40466399999991,15.029143999999986,890
49.43266399999992,13.733143999999989,966
50.40466399999991,15.677143999999986,947
50.40466399999991,13.733143999999989,1006
46.19266399999994,15.029143999999986,1273
45.86866399999994,15.029143999999986,1322
45.86866399999994,14.381143999999988,1295
46.19266399999994,13.733143999999989,1382
45.86866399999994,13.733143999999989,1468
58.50466399999986,13.733143999999989,2401
58.180663999999865,13.733143999999989,2406
58.180663999999865,13.085143999999987,2378
57.85666399999987,12.437143999999988,2344
60.44866399999985,15.677143999999986,2627
60.124663999999854,15.677143999999986,2561
60.124663999999854,16.325143999999987,2599
59.800663999999855,16.325143999999987,2527
59.800663999999855,17.621143999999987,2506
59.47666399999986,18.269143999999983,2488
61.74466399999984,16.973143999999984,2638
61.420663999999846,16.973143999999984,2611
60.77266399999985,16.973143999999984,2563
65.63266399999982,22.15714399999998,3742
65.95666399999982,21.50914399999997,3702
65.63266399999982,20.86114399999998,3673
64.98466399999982,20.213143999999986,3605
64.66066399999983,20.213143999999986,3583
64.33666399999983,19.565143999999982,3277
64.01266399999983,19.565143999999982,2990
63.68866399999983,20.213143999999986,2943
64.66066399999983,18.917143999999983,3954
59.15266399999986,16.325143999999987,2463
59.15266399999986,15.029143999999986,2504
59.15266399999986,17.621143999999987,2480
57.53266399999987,14.381143999999988,2304
57.53266399999987,15.029143999999986,2324
61.09666399999985,14.381143999999988,2731
60.77266399999985,15.029143999999986,2682
60.44866399999985,15.029143999999986,2668
58.180663999999865,15.029143999999986,2381
58.50466399999986,16.325143999999987,2415
58.50466399999986,15.677143999999986,2388
63.36466399999984,13.085143999999987,2975
63.04066399999984,14.381143999999988,2912
62.39266399999984,15.677143999999986,2834
63.36466399999984,13.733143999999989,2957
63.36466399999984,14.381143999999988,2929
62.71666399999984,15.677143999999986,2862
62.39266399999984,17.621143999999987,2696
59.800663999999855,15.677143999999986,2973
55.58866399999988,13.733143999999989,2258
57.20866399999987,14.381143999999988,2288
57.85666399999987,14.381143999999988,2336
58.82866399999986,16.973143999999984,2472
58.82866399999986,16.325143999999987,2450
59.15266399999986,18.269143999999983,2484
60.44866399999985,17.621143999999987,2539
59.15266399999986,12.437143999999988,2443
59.15266399999986,13.085143999999987,2457
58.82866399999986,12.437143999999988,2419
59.47666399999986,16.325143999999987,2509
58.82866399999986,14.381143999999988,2496
59.47666399999986,15.677143999999986,2527
63.36466399999984,18.917143999999983,2896
63.04066399999984,17.621143999999987,2851
62.71666399999984,17.621143999999987,2825
63.68866399999983,19.565143999999982,2929
62.39266399999984,16.973143999999984,2740
59.800663999999855,16.973143999999984,2515
59.47666399999986,17.621143999999987,2492
57.85666399999987,13.085143999999987,2368
57.53266399999987,13.085143999999987,2349
58.50466399999986,11.789143999999988,2390
57.85666399999987,15.029143999999986,2370
57.20866399999987,13.733143999999989,2294
57.53266399999987,13.733143999999989,2355
61.74466399999984,16.325143999999987,2734
61.420663999999846,16.325143999999987,2701
61.09666399999985,16.325143999999987,2690
61.09666399999985,16.973143999999984,2658
60.124663999999854,15.029143999999986,2836
66.60466399999981,20.86114399999998,3777
67.25266399999981,20.86114399999998,3845
67.90066399999981,20.213143999999986,3915
67.57666399999981,20.213143999999986,4540
59.800663999999855,15.029143999999986,2556
58.50466399999986,15.029143999999986,2398
59.47666399999986,15.029143999999986,2541
60.44866399999985,16.325143999999987,2627
59.15266399999986,15.677143999999986,2485
57.85666399999987,13.733143999999989,2396
58.82866399999986,13.733143999999989,2443
58.50466399999986,13.085143999999987,2428
57.20866399999987,13.085143999999987,2325
56.88466399999987,13.085143999999987,2299
58.180663999999865,11.789143999999988,2361
62.06866399999984,16.973143999999984,2729
65.95666399999982,23.45314399999998,3783
59.800663999999855,14.381143999999988,65535
59.800663999999855,18.269143999999983,2497
63.04066399999984,15.029143999999986,2880
62.71666399999984,15.029143999999986,2870
62.39266399999984,16.325143999999987,2803
63.36466399999984,12.437143999999988,3008
68.5486639999998,17.621143999999987,4128
68.5486639999998,18.269143999999983,4061
68.5486639999998,18.917143999999983,4038
68.2246639999998,18.917143999999983,3994
59.800663999999855,13.085143999999987,2560
60.124663999999854,13.085143999999987,2599
59.47666399999986,16.973143999999984,2501
59.15266399999986,16.973143999999984,2493
56.56066399999988,13.733143999999989,2246
60.124663999999854,17.621143999999987,2516
57.85666399999987,16.325143999999987,2475
58.180663999999865,16.325143999999987,2437
58.180663999999865,15.677143999999986,2445
57.20866399999987,16.325143999999987,2487
57.53266399999987,15.677143999999986,2505
57.85666399999987,15.677143999999986,2476
44.89666399999994,23.45314399999998,2762
44.572663999999946,23.45314399999998,2827
44.89666399999994,24.74914399999998,2887
44.572663999999946,24.74914399999998,2908
44.572663999999946,24.101143999999977,2868
44.24866399999995,24.101143999999977,2890
47.48866399999993,25.397143999999983,2738
47.48866399999993,24.74914399999998,2668
47.16466399999993,24.74914399999998,2649
47.16466399999993,24.101143999999977,2604
47.48866399999993,22.15714399999998,2477
47.81266399999993,22.15714399999998,2641
47.16466399999993,22.15714399999998,2472
47.16466399999993,23.45314399999998,2811
47.16466399999993,22.805143999999984,2734
46.84066399999993,24.101143999999977,2431
45.86866399999994,27.34114399999998,2939
45.54466399999994,27.34114399999998,2919
45.54466399999994,27.989143999999985,2956
45.86866399999994,20.86114399999998,2780
45.86866399999994,21.50914399999997,2764
46.19266399999994,21.50914399999997,2720
46.19266399999994,27.34114399999998,2962
46.19266399999994,26.69314399999997,2968
46.516663999999935,26.69314399999997,2937
46.516663999999935,26.04514399999998,2932
47.48866399999993,22.805143999999984,2913
46.84066399999993,22.805143999999984,2449
45.54466399999994,22.15714399999998,2859
45.22066399999994,22.15714399999998,2881
44.89666399999994,22.15714399999998,2943
47.48866399999993,23.45314399999998,2806
46.516663999999935,24.101143999999977,2444
46.516663999999935,24.74914399999998,2669
45.86866399999994,24.101143999999977,2669
47.16466399999993,26.69314399999997,2899
47.16466399999993,27.34114399999998,3011
43.92466399999995,25.397143999999983,2954
44.24866399999995,24.74914399999998,2930
44.89666399999994,26.04514399999998,2828
44.89666399999994,26.69314399999997,2836
45.22066399999994,26.69314399999997,2853
45.22066399999994,27.34114399999998,2880
46.84066399999993,26.69314399999997,2954
47.48866399999993,26.69314399999997,2847
44.24866399999995,25.397143999999983,2878
43.92466399999995,26.04514399999998,2970
46.19266399999994,24.101143999999977,2491
44.572663999999946,25.397143999999983,2845
46.84066399999993,24.74914399999998,2798
46.516663999999935,21.50914399999997,2803
46.84066399999993,21.50914399999997,2544
44.572663999999946,26.69314399999997,2879
44.572663999999946,27.34114399999998,2914
44.89666399999994,27.34114399999998,2870
44.572663999999946,27.989143999999985,2935
44.24866399999995,27.989143999999985,2950
44.572663999999946,28.63714399999997,2990
45.86866399999994,22.15714399999998,2626
45.86866399999994,22.805143999999984,2594
44.24866399999995,23.45314399999998,2878
43.92466399999995,27.989143999999985,65535
46.84066399999993,27.34114399999998,3082
45.22066399999994,23.45314399999998,2728
45.54466399999994,23.45314399999998,2699
45.54466399999994,24.101143999999977,2699
45.22066399999994,24.101143999999977,2770
44.89666399999994,24.101143999999977,2825
46.19266399999994,22.15714399999998,2670
46.516663999999935,22.15714399999998,2765
45.22066399999994,21.50914399999997,2848
45.54466399999994,21.50914399999997,2768
45.54466399999994,20.86114399999998,2774
46.516663999999935,27.989143999999985,3084
46.19266399999994,27.989143999999985,3056
45.54466399999994,25.397143999999983,2726
45.22066399999994,25.397143999999983,2769
45.22066399999994,26.04514399999998,2879
47.81266399999993,24.101143999999977,3061
47.48866399999993,26.04514399999998,2832
47.81266399999993,26.04514399999998,2890
46.19266399999994,23.45314399999998,2489
45.86866399999994,23.45314399999998,2541
44.24866399999995,26.04514399999998,2858
45.22066399999994,27.989143999999985,2935
45.86866399999994,24.74914399999998,2702
46.516663999999935,25.397143999999983,2926
46.84066399999993,25.397143999999983,2870
46.19266399999994,26.04514399999998,2905
45.86866399999994,26.04514399999998,2764
43.92466399999995,23.45314399999998,2971
44.89666399999994,25.397143999999983,2835
46.19266399999994,20.86114399999998,2802
47.81266399999993,25.397143999999983,3147
44.572663999999946,22.805143999999984,2899
44.572663999999946,22.15714399999998,2965
46.516663999999935,23.45314399999998,2501
45.86866399999994,25.397143999999983,2692
44.24866399999995,27.34114399999998,3211
45.22066399999994,24.74914399999998,3051
45.54466399999994,22.805143999999984,2637
45.22066399999994,28.63714399999997,3061
44.89666399999994,28.63714399999997,3000
47.81266399999993,23.45314399999998,2768
46.19266399999994,24.74914399999998,2529
46.19266399999994,25.397143999999983,2584
43.92466399999995,24.101143999999977,3661
43.92466399999995,24.74914399999998,3674
47.81266399999993,26.69314399999997,3070
47.48866399999993,24.101143999999977,2989
46.84066399999993,26.04514399999998,3126
46.19266399999994,22.805143999999984,3087
47.48866399999993,27.34114399999998,3097
46.19266399999994,20.213143999999986,65535
45.54466399999994,26.04514399999998,2972
44.24866399999995,26.69314399999997,2886
45.86866399999994,27.989143999999985,3071
47.81266399999993,5.957143999999991,2266
