51.56399999999999,-0.4100000000000028,65535
51.887999999999984,-0.4100000000000028,65535
50.91599999999999,-1.7060000000000022,65535
51.23999999999999,-1.0580000000000025,65535
51.56399999999999,-1.0580000000000025,65535
51.23999999999999,-1.7060000000000022,65535
51.56399999999999,0.2379999999999968,65535
47.16466399999993,9.845143999999989,804
47.48866399999993,9.845143999999989,778
48.136663999999925,14.381143999999988,760
47.81266399999993,13.085143999999987,639
47.16466399999993,11.141143999999988,770
47.48866399999993,11.789143999999988,917
48.136663999999925,16.325143999999987,625
47.48866399999993,12.437143999999988,664
48.136663999999925,15.677143999999986,699
47.16466399999993,10.493143999999988,918
47.16466399999993,9.197143999999987,770
48.136663999999925,13.733143999999989,719
48.136663999999925,15.029143999999986,739
47.81266399999993,16.973143999999984,655
48.46066399999992,14.381143999999988,904
47.48866399999993,13.085143999999987,620
47.16466399999993,13.085143999999987,639
47.48866399999993,14.381143999999988,575
47.48866399999993,13.733143999999989,591
47.48866399999993,15.029143999999986,505
46.516663999999935,13.733143999999989,364
46.84066399999993,13.733143999999989,400
46.84066399999993,13.085143999999987,405
48.78466399999992,14.381143999999988,65535
47.16466399999993,15.677143999999986,540
46.516663999999935,14.381143999999988,345
46.84066399999993,14.381143999999988,373
47.16466399999993,14.381143999999988,437
46.516663999999935,15.029143999999986,325
47.81266399999993,16.325143999999987,589
47.16466399999993,15.029143999999986,481
47.81266399999993,15.677143999999986,555
47.48866399999993,15.677143999999986,520
46.516663999999935,13.085143999999987,494
46.84066399999993,12.437143999999988,419
48.136663999999925,11.789143999999988,689
47.81266399999993,12.437143999999988,669
46.84066399999993,15.677143999999986,645
46.516663999999935,15.677143999999986,300
46.84066399999993,16.325143999999987,392
47.81266399999993,14.381143999999988,697
48.78466399999992,16.973143999999984,711
48.136663999999925,16.973143999999984,646
48.46066399999992,13.733143999999989,767
47.81266399999993,13.733143999999989,854
50.08066399999991,8.54914399999999,762
48.46066399999992,9.845143999999989,708
51.05266399999991,7.25314399999999,825
51.37666399999991,7.25314399999999,851
51.37666399999991,6.60514399999999,841
48.46066399999992,16.325143999999987,627
48.46066399999992,16.973143999999984,669
48.78466399999992,16.325143999999987,652
48.46066399999992,15.677143999999986,640
48.78466399999992,15.677143999999986,693
47.48866399999993,16.325143999999987,581
47.16466399999993,16.325143999999987,524
46.19266399999994,14.381143999999988,314
45.86866399999994,15.677143999999986,253
43.60066399999995,16.325143999999987,760
45.54466399999994,14.381143999999988,406
45.54466399999994,13.733143999999989,429
48.136663999999925,13.085143999999987,702
48.46066399999992,11.141143999999988,696
48.136663999999925,11.141143999999988,701
48.46066399999992,7.90114399999999,762
49.10866399999992,8.54914399999999,736
48.78466399999992,2.0691439999999925,894
49.10866399999992,7.25314399999999,771
52.0246639999999,7.90114399999999,880
47.16466399999993,11.789143999999988,792
49.43266399999992,11.141143999999988,753
53.64466399999989,9.845143999999989,1225
50.72866399999991,4.013143999999992,897
51.05266399999991,11.141143999999988,903
47.48866399999993,11.141143999999988,728
46.84066399999993,11.789143999999988,2102
46.516663999999935,11.141143999999988,2071
45.54466399999994,11.141143999999988,1965
46.19266399999994,11.141143999999988,2037
45.86866399999994,11.141143999999988,2021
44.572663999999946,11.141143999999988,1812
43.92466399999995,12.437143999999988,4445
45.54466399999994,12.437143999999988,2052
45.54466399999994,11.789143999999988,2015
48.78466399999992,15.029143999999986,732
47.81266399999993,15.029143999999986,750
47.81266399999993,11.141143999999988,709
50.40466399999991,18.917143999999983,1239
52.3486639999999,20.86114399999998,1484
54.616663999999886,18.269143999999983,1664
54.29266399999989,18.917143999999983,1673
49.10866399999992,14.381143999999988,65535
50.08066399999991,14.381143999999988,1267
48.78466399999992,13.733143999999989,2216
52.6726639999999,13.085143999999987,990
52.3486639999999,13.085143999999987,988
53.96866399999989,12.437143999999988,1404
54.29266399999989,12.437143999999988,1432
47.48866399999993,8.54914399999999,779
47.81266399999993,17.621143999999987,689
47.48866399999993,18.917143999999983,740
47.48866399999993,20.86114399999998,1916
46.84066399999993,23.45314399999998,2398
44.572663999999946,26.04514399999998,2847
47.48866399999993,21.50914399999997,1952
47.81266399999993,21.50914399999997,2348
48.46066399999992,22.15714399999998,1477
47.48866399999993,16.973143999999984,65535
49.10866399999992,16.325143999999987,816
49.75666399999992,18.269143999999983,1051
46.19266399999994,13.085143999999987,1343
41.98066399999996,12.437143999999988,3045
43.60066399999995,10.493143999999988,3206
45.54466399999994,9.197143999999987,908
47.81266399999993,22.805143999999984,2813
49.75666399999992,22.805143999999984,1411
50.72866399999991,3.365143999999992,935
51.05266399999991,4.013143999999992,921
50.72866399999991,4.661143999999991,891
51.05266399999991,4.661143999999991,896
51.05266399999991,3.365143999999992,928
51.05266399999991,2.717143999999992,1003
50.40466399999991,4.661143999999991,895
50.72866399999991,2.717143999999992,1284
50.40466399999991,4.013143999999992,903
51.05266399999991,5.309143999999991,900
50.72866399999991,5.309143999999991,873
51.37666399999991,3.365143999999992,1258
51.37666399999991,4.661143999999991,902
50.72866399999991,5.957143999999991,849
50.40466399999991,5.957143999999991,852
50.40466399999991,3.365143999999992,926
50.40466399999991,5.309143999999991,872
50.08066399999991,5.309143999999991,919
49.75666399999992,5.309143999999991,1244
49.75666399999992,5.957143999999991,884
51.37666399999991,5.309143999999991,943
51.700663999999904,4.661143999999991,1358
50.08066399999991,4.013143999999992,1283
50.08066399999991,5.957143999999991,861
50.08066399999991,4.661143999999991,1268
49.43266399999992,5.309143999999991,1315
49.43266399999992,5.957143999999991,898
52.0246639999999,4.661143999999991,1430
52.3486639999999,4.661143999999991,1459
50.72866399999991,15.029143999999986,966
51.05266399999991,15.029143999999986,940
51.05266399999991,13.733143999999989,915
50.40466399999991,13.085143999999987,958
49.10866399999992,7.90114399999999,748
48.78466399999992,7.90114399999999,742
50.40466399999991,7.90114399999999,797
50.08066399999991,7.90114399999999,772
49.75666399999992,7.90114399999999,764
49.43266399999992,7.90114399999999,748
49.75666399999992,8.54914399999999,757
49.43266399999992,8.54914399999999,740
49.43266399999992,9.197143999999987,769
49.10866399999992,9.197143999999987,730
47.48866399999993,7.90114399999999,787
47.81266399999993,7.90114399999999,769
48.136663999999925,7.90114399999999,756
48.136663999999925,9.845143999999989,730
47.81266399999993,9.197143999999987,758
47.81266399999993,8.54914399999999,767
47.81266399999993,9.845143999999989,737
54.940663999999884,9.197143999999987,1343
54.616663999999886,9.197143999999987,1320
54.29266399999989,9.197143999999987,1328
53.96866399999989,9.197143999999987,1343
53.64466399999989,9.197143999999987,1242
54.616663999999886,9.845143999999989,1312
54.29266399999989,9.845143999999989,1301
53.96866399999989,9.845143999999989,1290
53.64466399999989,10.493143999999988,1252
53.96866399999989,10.493143999999988,1284
53.96866399999989,11.141143999999988,1343
54.29266399999989,10.493143999999988,1321
53.32066399999989,10.493143999999988,1231
54.940663999999884,11.141143999999988,1370
52.6726639999999,13.733143999999989,991
52.3486639999999,13.733143999999989,991
52.3486639999999,14.381143999999988,998
52.0246639999999,14.381143999999988,1210
52.0246639999999,11.789143999999988,927
52.3486639999999,11.789143999999988,938
52.3486639999999,12.437143999999988,959
52.0246639999999,15.029143999999986,1221
51.700663999999904,14.381143999999988,1093
52.0246639999999,13.733143999999989,1028
51.700663999999904,13.733143999999989,1084
52.6726639999999,12.437143999999988,1249
53.32066399999989,11.789143999999988,1293
53.96866399999989,11.789143999999988,1396
53.64466399999989,11.789143999999988,1341
53.64466399999989,11.141143999999988,1340
53.32066399999989,11.141143999999988,1275
52.996663999999896,11.789143999999988,1239
52.996663999999896,12.437143999999988,1284
52.996663999999896,13.733143999999989,1203
53.64466399999989,13.733143999999989,1297
53.96866399999989,13.733143999999989,1370
54.29266399999989,13.085143999999987,1412
53.96866399999989,13.085143999999987,1379
53.32066399999989,13.733143999999989,1233
52.0246639999999,13.085143999999987,1049
51.700663999999904,13.085143999999987,880
52.996663999999896,14.381143999999988,1260
52.0246639999999,12.437143999999988,904
51.700663999999904,12.437143999999988,883
51.37666399999991,11.789143999999988,874
51.37666399999991,12.437143999999988,854
52.6726639999999,11.789143999999988,950
53.64466399999989,13.085143999999987,1319
53.32066399999989,13.085143999999987,1305
52.996663999999896,13.085143999999987,1246
53.64466399999989,12.437143999999988,1348
51.37666399999991,13.733143999999989,900
53.32066399999989,12.437143999999988,1312
52.6726639999999,14.381143999999988,1310
51.37666399999991,13.085143999999987,863
53.32066399999989,14.381143999999988,1276
52.3486639999999,15.029143999999986,1376
52.0246639999999,15.677143999999986,1272
51.700663999999904,15.029143999999986,1303
51.05266399999991,16.325143999999987,1257
51.05266399999991,16.973143999999984,1244
51.700663999999904,15.677143999999986,1301
51.37666399999991,15.677143999999986,1215
51.37666399999991,16.325143999999987,1247
50.72866399999991,13.085143999999987,851
50.72866399999991,12.437143999999988,840
51.05266399999991,13.085143999999987,867
51.05266399999991,14.381143999999988,932
50.40466399999991,12.437143999999988,835
50.40466399999991,11.789143999999988,832
50.08066399999991,12.437143999999988,801
50.72866399999991,11.789143999999988,889
51.05266399999991,12.437143999999988,847
50.72866399999991,14.381143999999988,956
51.37666399999991,14.381143999999988,914
50.72866399999991,13.733143999999989,1294
50.40466399999991,14.381143999999988,1239
51.37666399999991,15.029143999999986,946
55.26466399999988,9.197143999999987,2268
55.58866399999988,8.54914399999999,3562
55.91266399999988,8.54914399999999,7039
56.23666399999988,9.197143999999987,7047
56.23666399999988,10.493143999999988,7000
56.23666399999988,9.845143999999989,6987
55.91266399999988,9.845143999999989,6925
56.56066399999988,9.197143999999987,7057
56.56066399999988,8.54914399999999,7100
51.05266399999991,6.60514399999999,833
51.700663999999904,7.90114399999999,864
50.72866399999991,6.60514399999999,841
51.700663999999904,7.25314399999999,855
50.72866399999991,7.25314399999999,823
52.0246639999999,7.25314399999999,866
52.3486639999999,7.90114399999999,884
51.05266399999991,5.957143999999991,844
50.40466399999991,7.25314399999999,807
51.700663999999904,6.60514399999999,853
51.700663999999904,5.957143999999991,848
52.3486639999999,9.197143999999987,925
51.700663999999904,8.54914399999999,877
52.0246639999999,8.54914399999999,888
52.3486639999999,8.54914399999999,897
51.37666399999991,7.90114399999999,848
52.3486639999999,7.25314399999999,873
51.37666399999991,5.957143999999991,881
50.72866399999991,7.90114399999999,871
51.37666399999991,9.197143999999987,843
51.700663999999904,9.197143999999987,933
50.40466399999991,6.60514399999999,852
51.05266399999991,7.90114399999999,837
51.37666399999991,8.54914399999999,878
52.0246639999999,5.957143999999991,891
52.3486639999999,6.60514399999999,896
51.05266399999991,8.54914399999999,824
52.0246639999999,9.197143999999987,894
52.6726639999999,9.197143999999987,930
52.0246639999999,9.845143999999989,943
51.700663999999904,9.845143999999989,917
51.37666399999991,9.845143999999989,893
50.72866399999991,8.54914399999999,794
51.05266399999991,9.845143999999989,832
50.72866399999991,9.845143999999989,806
50.40466399999991,9.845143999999989,812
51.05266399999991,9.197143999999987,833
50.40466399999991,9.197143999999987,778
50.08066399999991,9.197143999999987,768
51.05266399999991,10.493143999999988,928
50.40466399999991,8.54914399999999,778
50.72866399999991,9.197143999999987,800
49.75666399999992,9.197143999999987,778
52.996663999999896,9.197143999999987,969
52.3486639999999,9.845143999999989,932
52.996663999999896,8.54914399999999,969
52.996663999999896,7.90114399999999,957
53.32066399999989,7.90114399999999,1254
53.32066399999989,7.25314399999999,971
53.64466399999989,7.25314399999999,1498
52.996663999999896,10.493143999999988,983
52.6726639999999,10.493143999999988,977
52.6726639999999,9.845143999999989,940
53.32066399999989,9.845143999999989,1196
53.32066399999989,9.197143999999987,1192
53.64466399999989,8.54914399999999,1005
53.32066399999989,8.54914399999999,980
52.6726639999999,8.54914399999999,963
52.0246639999999,10.493143999999988,994
52.0246639999999,11.141143999999988,948
51.700663999999904,11.141143999999988,914
52.6726639999999,7.25314399999999,912
52.996663999999896,7.25314399999999,940
52.6726639999999,7.90114399999999,929
53.64466399999989,7.90114399999999,1331
52.996663999999896,11.141143999999988,1271
52.6726639999999,11.141143999999988,1266
52.3486639999999,10.493143999999988,967
52.996663999999896,9.845143999999989,996
51.700663999999904,10.493143999999988,1275
51.37666399999991,10.493143999999988,907
51.700663999999904,11.789143999999988,908
52.3486639999999,11.141143999999988,952
51.37666399999991,11.141143999999988,895
51.05266399999991,11.789143999999988,883
49.10866399999992,11.141143999999988,736
48.78466399999992,11.141143999999988,708
48.46066399999992,11.789143999999988,692
49.43266399999992,11.789143999999988,763
50.08066399999991,11.789143999999988,791
49.75666399999992,12.437143999999988,797
49.10866399999992,11.789143999999988,771
48.78466399999992,12.437143999999988,746
48.46066399999992,12.437143999999988,732
49.10866399999992,12.437143999999988,757
48.78466399999992,13.085143999999987,780
48.136663999999925,12.437143999999988,704
47.81266399999993,11.789143999999988,680
48.136663999999925,10.493143999999988,725
47.81266399999993,10.493143999999988,739
48.78466399999992,10.493143999999988,712
47.48866399999993,10.493143999999988,769
48.46066399999992,10.493143999999988,699
49.43266399999992,13.085143999999987,836
48.46066399999992,13.085143999999987,794
49.43266399999992,10.493143999999988,761
49.75666399999992,9.845143999999989,771
49.75666399999992,10.493143999999988,787
50.40466399999991,11.141143999999988,839
50.08066399999991,11.141143999999988,818
50.72866399999991,11.141143999999988,909
49.75666399999992,11.141143999999988,773
48.78466399999992,11.789143999999988,734
50.40466399999991,10.493143999999988,823
50.08066399999991,9.845143999999989,801
50.08066399999991,10.493143999999988,832
49.43266399999992,12.437143999999988,800
49.75666399999992,11.789143999999988,772
49.10866399999992,13.085143999999987,814
50.72866399999991,10.493143999999988,1200
49.10866399999992,10.493143999999988,747
48.78466399999992,9.845143999999989,712
48.46066399999992,8.54914399999999,734
48.46066399999992,9.197143999999987,730
48.78466399999992,9.197143999999987,726
48.78466399999992,8.54914399999999,732
50.08066399999991,7.25314399999999,826
49.75666399999992,6.60514399999999,848
49.43266399999992,6.60514399999999,826
49.10866399999992,6.60514399999999,789
49.43266399999992,7.25314399999999,775
49.75666399999992,7.25314399999999,775
49.10866399999992,5.957143999999991,860
48.78466399999992,7.25314399999999,769
50.08066399999991,6.60514399999999,845
47.48866399999993,9.197143999999987,766
48.136663999999925,8.54914399999999,746
48.136663999999925,9.197143999999987,752
47.81266399999993,7.25314399999999,778
49.43266399999992,9.845143999999989,781
49.10866399999992,9.845143999999989,740
53.64466399999989,14.381143999999988,1293
50.08066399999991,13.085143999999987,1394
49.75666399999992,13.085143999999987,1355
45.86866399999994,9.197143999999987,898
46.19266399999994,9.197143999999987,884
46.516663999999935,8.54914399999999,830
46.516663999999935,9.197143999999987,879
46.19266399999994,8.54914399999999,881
47.16466399999993,8.54914399999999,780
45.86866399999994,4.661143999999991,1354
46.84066399999993,9.845143999999989,817
45.22066399999994,5.957143999999991,1371
45.22066399999994,5.309143999999991,1386
45.86866399999994,5.957143999999991,1324
45.54466399999994,5.957143999999991,1343
44.89666399999994,4.661143999999991,1392
44.89666399999994,5.309143999999991,1410
44.572663999999946,4.661143999999991,1404
44.24866399999995,4.661143999999991,1418
43.92466399999995,4.661143999999991,1428
46.19266399999994,7.25314399999999,850
48.78466399999992,5.957143999999991,890
48.136663999999925,6.60514399999999,1327
48.46066399999992,6.60514399999999,1273
48.78466399999992,6.60514399999999,1330
47.16466399999993,7.90114399999999,795
48.136663999999925,7.25314399999999,784
48.46066399999992,7.25314399999999,776
46.516663999999935,6.60514399999999,839
46.84066399999993,6.60514399999999,823
46.84066399999993,7.25314399999999,799
46.516663999999935,5.957143999999991,849
46.19266399999994,5.957143999999991,870
46.84066399999993,8.54914399999999,785
46.84066399999993,7.90114399999999,795
45.86866399999994,5.309143999999991,1350
46.19266399999994,6.60514399999999,847
45.86866399999994,6.60514399999999,880
47.48866399999993,6.60514399999999,811
47.48866399999993,7.25314399999999,789
47.16466399999993,7.25314399999999,801
49.10866399999992,4.013143999999992,1381
49.75666399999992,4.661143999999991,1314
49.43266399999992,4.661143999999991,1354
49.10866399999992,5.309143999999991,1374
46.19266399999994,4.661143999999991,1369
46.84066399999993,9.197143999999987,804
46.19266399999994,5.309143999999991,1361
46.516663999999935,5.309143999999991,1410
45.54466399999994,6.60514399999999,1363
45.54466399999994,5.309143999999991,1384
43.60066399999995,4.013143999999992,1480
43.60066399999995,3.365143999999992,1497
42.62866399999996,2.717143999999992,1600
43.276663999999954,2.717143999999992,1526
45.54466399999994,4.661143999999991,1361
45.22066399999994,4.661143999999991,1375
47.16466399999993,5.309143999999991,1341
47.16466399999993,5.957143999999991,1304
46.19266399999994,7.90114399999999,846
49.75666399999992,2.717143999999992,1328
49.10866399999992,2.717143999999992,1349
48.78466399999992,2.717143999999992,1375
45.86866399999994,3.365143999999992,1494
46.84066399999993,3.365143999999992,1432
46.516663999999935,3.365143999999992,1481
46.19266399999994,3.365143999999992,1469
47.16466399999993,6.60514399999999,813
49.10866399999992,3.365143999999992,1377
45.54466399999994,4.013143999999992,1369
46.516663999999935,7.25314399999999,846
47.16466399999993,4.661143999999991,1351
46.84066399999993,4.661143999999991,1377
46.516663999999935,4.661143999999991,1401
46.84066399999993,5.957143999999991,1279
47.81266399999993,3.365143999999992,978
47.48866399999993,4.013143999999992,1369
48.136663999999925,4.013143999999992,1331
47.81266399999993,4.013143999999992,1344
47.48866399999993,4.661143999999991,1378
47.16466399999993,3.365143999999992,1446
46.84066399999993,4.013143999999992,1400
48.46066399999992,5.957143999999991,1325
46.19266399999994,2.717143999999992,1558
47.16466399999993,2.0691439999999925,1381
46.516663999999935,2.717143999999992,1654
46.84066399999993,2.717143999999992,1431
46.84066399999993,2.0691439999999925,1443
47.16466399999993,2.717143999999992,1409
44.572663999999946,5.309143999999991,1524
44.572663999999946,5.957143999999991,1523
44.89666399999994,6.60514399999999,1347
44.572663999999946,6.60514399999999,1489
43.60066399999995,5.309143999999991,1470
43.92466399999995,7.25314399999999,1534
43.60066399999995,6.60514399999999,1522
43.276663999999954,6.60514399999999,1499
43.276663999999954,5.957143999999991,1474
45.86866399999994,8.54914399999999,905
45.54466399999994,8.54914399999999,912
48.136663999999925,3.365143999999992,973
48.46066399999992,3.365143999999992,964
48.46066399999992,2.717143999999992,1274
47.48866399999993,5.309143999999991,1356
46.516663999999935,9.845143999999989,828
46.84066399999993,10.493143999999988,1331
47.81266399999993,5.309143999999991,1373
45.22066399999994,6.60514399999999,1341
46.19266399999994,4.013143999999992,1384
45.86866399999994,4.013143999999992,1377
45.22066399999994,4.013143999999992,1398
44.89666399999994,4.013143999999992,1437
46.84066399999993,5.309143999999991,1398
48.136663999999925,-1.8188560000000056,1440
48.136663999999925,0.1251439999999934,1392
48.136663999999925,-0.5228560000000062,1401
47.48866399999993,-0.5228560000000062,1392
47.16466399999993,-1.8188560000000056,1455
47.48866399999993,0.7731439999999932,1116
47.16466399999993,0.1251439999999934,1351
45.86866399999994,7.25314399999999,863
48.136663999999925,5.309143999999991,1404
49.10866399999992,4.661143999999991,1422
48.46066399999992,4.013143999999992,1374
48.136663999999925,4.661143999999991,1420
47.81266399999993,6.60514399999999,1317
47.48866399999993,5.957143999999991,1335
48.136663999999925,5.957143999999991,1886
45.86866399999994,7.90114399999999,882
46.516663999999935,7.90114399999999,799
49.43266399999992,3.365143999999992,1374
49.43266399999992,4.013143999999992,1367
48.136663999999925,2.717143999999992,1436
47.81266399999993,2.717143999999992,1465
47.48866399999993,2.717143999999992,1441
50.40466399999991,2.717143999999992,1316
48.46066399999992,-4.410856000000004,1585
48.46066399999992,-3.7628560000000046,1566
48.46066399999992,-3.114856000000005,1543
48.46066399999992,-2.4668560000000053,1507
47.48866399999993,1.4211439999999929,1051
47.16466399999993,1.4211439999999929,1343
46.516663999999935,4.013143999999992,1405
43.60066399999995,4.661143999999991,1462
44.89666399999994,2.717143999999992,1727
45.22066399999994,2.717143999999992,1696
45.54466399999994,3.365143999999992,1501
45.22066399999994,3.365143999999992,1442
47.48866399999993,3.365143999999992,1546
46.19266399999994,9.845143999999989,1373
47.81266399999993,2.0691439999999925,975
47.48866399999993,2.0691439999999925,1344
45.86866399999994,2.717143999999992,1720
44.89666399999994,5.957143999999991,1427
45.22066399999994,1.4211439999999929,1620
44.89666399999994,1.4211439999999929,1646
44.89666399999994,2.0691439999999925,1681
43.276663999999954,2.0691439999999925,1576
43.60066399999995,1.4211439999999929,1584
48.78466399999992,4.661143999999991,1427
48.78466399999992,5.309143999999991,1400
46.19266399999994,2.0691439999999925,1862
45.86866399999994,1.4211439999999929,1554
46.19266399999994,1.4211439999999929,1584
44.572663999999946,4.013143999999992,1533
44.89666399999994,3.365143999999992,1474
43.92466399999995,4.013143999999992,1444
44.24866399999995,4.013143999999992,1471
44.89666399999994,-0.5228560000000062,1454
45.54466399999994,0.1251439999999934,1456
46.516663999999935,0.1251439999999934,1401
44.572663999999946,2.0691439999999925,1696
49.75666399999992,4.013143999999992,1384
43.92466399999995,3.365143999999992,1596
43.92466399999995,2.717143999999992,1621
44.24866399999995,3.365143999999992,1647
44.572663999999946,3.365143999999992,1662
49.10866399999992,0.1251439999999934,1399
49.43266399999992,0.7731439999999932,1379
49.43266399999992,-1.8188560000000056,1521
49.10866399999992,-1.170856000000006,1471
49.10866399999992,-0.5228560000000062,1409
49.10866399999992,0.7731439999999932,1426
49.10866399999992,1.4211439999999929,1354
47.81266399999993,-1.8188560000000056,1501
47.81266399999993,-2.4668560000000053,1528
47.81266399999993,-3.114856000000005,1554
48.136663999999925,-3.7628560000000046,1591
44.572663999999946,9.197143999999987,1376
44.89666399999994,8.54914399999999,1311
45.22066399999994,9.197143999999987,919
45.54466399999994,10.493143999999988,1327
44.572663999999946,10.493143999999988,1798
44.89666399999994,10.493143999999988,1393
44.89666399999994,9.845143999999989,1380
48.46066399999992,5.309143999999991,1575
50.91599999999999,-1.0580000000000025,65535
51.23999999999999,-0.4100000000000028,65535
50.91599999999999,-0.4100000000000028,65535
51.23999999999999,-2.354000000000002,65535
51.56399999999999,-2.354000000000002,65535
51.56399999999999,-3.0020000000000016,65535
50.91599999999999,-2.354000000000002,65535
53.50799999999997,-3.0020000000000016,65535
53.183999999999976,-2.354000000000002,65535
53.183999999999976,-3.0020000000000016,65535
52.85999999999998,-2.354000000000002,65535
52.21199999999998,-1.0580000000000025,65535
51.887999999999984,-1.0580000000000025,65535
52.53599999999998,-1.0580000000000025,65535
52.53599999999998,-1.7060000000000022,65535
52.85999999999998,-1.7060000000000022,65535
53.50799999999997,-2.354000000000002,65535
52.85999999999998,-1.0580000000000025,65535
52.53599999999998,1.5339999999999965,65535
52.53599999999998,0.8859999999999966,65535
52.53599999999998,0.2379999999999968,65535
52.53599999999998,-0.4100000000000028,65535
53.50799999999997,-1.7060000000000022,65535
53.183999999999976,-1.7060000000000022,65535
53.183999999999976,-1.0580000000000025,65535
52.85999999999998,-0.4100000000000028,65535
51.887999999999984,-2.354000000000002,65535
52.21199999999998,-2.354000000000002,65535
55.77599999999996,-2.354000000000002,65535
53.83199999999997,-1.0580000000000025,65535
53.83199999999997,-1.7060000000000022,65535
55.127999999999965,-1.7060000000000022,65535
54.80399999999997,-1.7060000000000022,65535
54.47999999999997,-1.7060000000000022,65535
54.15599999999997,-1.0580000000000025,65535
52.21199999999998,-1.7060000000000022,65535
53.50799999999997,-1.0580000000000025,65535
55.77599999999996,-3.0020000000000016,65535
55.45199999999996,-1.7060000000000022,65535
57.07199999999995,-2.354000000000002,65535
56.74799999999996,-3.0020000000000016,65535
56.42399999999996,-3.0020000000000016,65535
56.09999999999996,-3.650000000000001,65535
50.91599999999999,-3.0020000000000016,65535
50.91599999999999,-3.650000000000001,65535
50.59199999999999,-3.650000000000001,65535
50.59199999999999,-4.298000000000001,65535
51.23999999999999,-3.0020000000000016,65535
50.268,-4.946000000000001,65535
55.77599999999996,-3.650000000000001,65535
55.77599999999996,-4.298000000000001,65535
52.21199999999998,-0.4100000000000028,65535
52.53599999999998,-2.354000000000002,65535
51.56399999999999,-1.7060000000000022,65535
51.56399999999999,-3.650000000000001,65535
51.887999999999984,-4.298000000000001,65535
51.56399999999999,-4.298000000000001,65535
51.887999999999984,-1.7060000000000022,65535
52.21199999999998,-3.0020000000000016,65535
51.23999999999999,0.2379999999999968,65535
50.91599999999999,0.2379999999999968,65535
52.21199999999998,0.2379999999999968,65535
53.83199999999997,-3.0020000000000016,65535
54.15599999999997,-3.0020000000000016,65535
54.47999999999997,-3.0020000000000016,65535
55.127999999999965,-3.650000000000001,65535
54.80399999999997,-3.0020000000000016,65535
53.83199999999997,-2.354000000000002,65535
54.15599999999997,-0.4100000000000028,65535
54.47999999999997,-1.0580000000000025,65535
53.83199999999997,-0.4100000000000028,65535
53.183999999999976,-3.650000000000001,65535
53.183999999999976,-4.298000000000001,65535
52.85999999999998,-3.0020000000000016,65535
52.53599999999998,-3.0020000000000016,65535
51.887999999999984,-3.0020000000000016,65535
51.23999999999999,0.8859999999999966,65535
51.887999999999984,0.2379999999999968,65535
52.21199999999998,0.8859999999999966,65535
51.887999999999984,-4.946000000000001,65535
52.53599999999998,-3.650000000000001,65535
52.21199999999998,-4.298000000000001,65535
53.183999999999976,-0.4100000000000028,65535
51.23999999999999,-3.650000000000001,65535
51.887999999999984,-3.650000000000001,65535
52.21199999999998,-3.650000000000001,65535
51.56399999999999,0.8859999999999966,65535
51.887999999999984,0.8859999999999966,65535
52.85999999999998,0.8859999999999966,65535
53.50799999999997,-0.4100000000000028,65535
56.09999999999996,-4.298000000000001,65535
56.74799999999996,-4.946000000000001,65535
56.74799999999996,-4.298000000000001,65535
56.42399999999996,-4.946000000000001,65535
56.42399999999996,-4.298000000000001,65535
56.09999999999996,-4.946000000000001,65535
57.39599999999995,-4.298000000000001,65535
57.39599999999995,-3.0020000000000016,65535
57.39599999999995,-3.650000000000001,65535
56.42399999999996,-3.650000000000001,65535
57.07199999999995,-3.650000000000001,65535
57.07199999999995,-4.298000000000001,65535
56.74799999999996,-3.650000000000001,65535
59.15266399999986,27.34114399999998,65535
59.47666399999986,26.69314399999997,65535
59.47666399999986,26.04514399999998,65535
59.15266399999986,26.04514399999998,65535
59.15266399999986,24.74914399999998,65535
59.15266399999986,25.397143999999983,65535
59.47666399999986,25.397143999999983,65535
58.50466399999986,26.69314399999997,65535
58.82866399999986,26.69314399999997,65535
57.85666399999987,26.04514399999998,65535
58.180663999999865,26.04514399999998,65535
58.180663999999865,26.69314399999997,65535
58.82866399999986,26.04514399999998,65535
58.50466399999986,25.397143999999983,65535
58.82866399999986,25.397143999999983,65535
58.82866399999986,24.74914399999998,65535
58.180663999999865,27.34114399999998,65535
57.85666399999987,27.34114399999998,65535
63.68866399999983,27.34114399999998,7557
60.124663999999854,24.74914399999998,7093
60.44866399999985,24.74914399999998,7062
60.44866399999985,25.397143999999983,7074
60.77266399999985,25.397143999999983,7280
61.09666399999985,26.04514399999998,7322
60.77266399999985,26.04514399999998,7329
60.77266399999985,26.69314399999997,7348
61.09666399999985,25.397143999999983,7313
61.09666399999985,26.69314399999997,7678
61.420663999999846,26.69314399999997,7700
61.74466399999984,27.34114399999998,7724
62.06866399999984,27.34114399999998,7749
62.39266399999984,27.34114399999998,7773
62.71666399999984,27.34114399999998,7737
64.01266399999983,27.34114399999998,7905
63.36466399999984,27.34114399999998,7625
63.04066399999984,27.34114399999998,7665
63.04066399999984,27.989143999999985,7680
64.33666399999983,27.989143999999985,7952
64.33666399999983,27.34114399999998,8028
64.66066399999983,27.34114399999998,8044
64.66066399999983,26.69314399999997,8055
64.98466399999982,25.397143999999983,6439
64.66066399999983,26.04514399999998,8085
64.98466399999982,26.04514399999998,8107
66.28066399999982,25.397143999999983,6516
65.95666399999982,24.74914399999998,6352
65.63266399999982,24.74914399999998,6356
65.63266399999982,25.397143999999983,6398
65.30866399999982,25.397143999999983,6419
66.60466399999981,25.397143999999983,6576
64.01266399999983,24.74914399999998,6576
64.01266399999983,24.101143999999977,6611
64.01266399999983,23.45314399999998,6635
63.68866399999983,23.45314399999998,6647
63.68866399999983,22.805143999999984,6672
63.68866399999983,26.04514399999998,7264
63.68866399999983,25.397143999999983,7230
63.68866399999983,26.69314399999997,7524
60.44866399999985,26.69314399999997,7516
64.01266399999983,27.989143999999985,7943
62.71666399999984,22.805143999999984,6794
62.39266399999984,22.805143999999984,6826
62.06866399999984,22.805143999999984,6855
62.06866399999984,23.45314399999998,6871
61.74466399999984,23.45314399999998,6883
61.420663999999846,23.45314399999998,6931
61.09666399999985,23.45314399999998,6972
61.09666399999985,24.101143999999977,6979
61.09666399999985,24.74914399999998,7013
60.77266399999985,24.74914399999998,7029
63.04066399999984,21.50914399999997,65535
63.04066399999984,22.15714399999998,65535
63.04066399999984,22.805143999999984,6758
62.39266399999984,26.04514399999998,7921
62.06866399999984,25.397143999999983,7970
61.74466399999984,25.397143999999983,8038
61.74466399999984,24.74914399999998,8075
61.74466399999984,24.101143999999977,8110
61.420663999999846,24.101143999999977,7454
62.39266399999984,26.69314399999997,7892
64.66066399999983,25.397143999999983,6508
64.66066399999983,24.74914399999998,6526
64.33666399999983,24.74914399999998,6537
63.36466399999984,22.805143999999984,6697
67.25266399999981,24.101143999999977,8666
66.92866399999981,24.101143999999977,8630
66.60466399999981,23.45314399999998,8599
66.28066399999982,23.45314399999998,8581
66.28066399999982,24.101143999999977,8563
65.95666399999982,24.101143999999977,4479
60.124663999999854,24.101143999999977,7286
60.124663999999854,23.45314399999998,7323
60.44866399999985,22.805143999999984,65535
60.77266399999985,27.34114399999998,7406
61.09666399999985,27.989143999999985,7438
61.09666399999985,28.63714399999997,7484
61.420663999999846,29.28514399999997,9171
61.74466399999984,29.933143999999977,9229
62.06866399999984,29.933143999999977,9335
62.39266399999984,29.933143999999977,9373
62.71666399999984,29.933143999999977,9406
61.420663999999846,22.805143999999984,6967
61.420663999999846,22.15714399999998,7046
61.09666399999985,22.15714399999998,7034
61.420663999999846,21.50914399999997,7179
62.39266399999984,27.989143999999985,65535
62.06866399999984,27.989143999999985,65535
61.420663999999846,27.34114399999998,65535
63.04066399999984,29.933143999999977,65535
63.68866399999983,29.28514399999997,65535
63.36466399999984,29.28514399999997,65535
63.36466399999984,29.933143999999977,65535
60.44866399999985,27.34114399999998,65535
61.74466399999984,29.28514399999997,65535
62.39266399999984,30.58114399999998,65535
62.71666399999984,31.229143999999977,65535
62.71666399999984,29.28514399999997,65535
63.04066399999984,28.63714399999997,65535
66.60466399999981,26.04514399999998,6586
66.60466399999981,26.69314399999997,6622
66.60466399999981,27.34114399999998,6645
62.71666399999984,26.04514399999998,7806
62.71666399999984,25.397143999999983,7775
63.04066399999984,25.397143999999983,7595
63.36466399999984,25.397143999999983,7558
62.71666399999984,23.45314399999998,7800
62.39266399999984,24.101143999999977,65535
62.71666399999984,22.15714399999998,65535
62.39266399999984,22.15714399999998,65535
62.39266399999984,21.50914399999997,65535
61.09666399999985,21.50914399999997,8857
60.77266399999985,22.805143999999984,8283
60.44866399999985,22.15714399999998,8331
60.77266399999985,23.45314399999998,8265
60.77266399999985,21.50914399999997,8433
60.77266399999985,22.15714399999998,8386
60.124663999999854,22.805143999999984,8599
60.44866399999985,24.101143999999977,7272
62.06866399999984,24.74914399999998,65535
50.72866399999991,16.325143999999987,1265
50.40466399999991,16.973143999999984,1321
50.72866399999991,16.973143999999984,1257
50.40466399999991,16.325143999999987,1328
50.08066399999991,16.973143999999984,1451
50.08066399999991,16.325143999999987,1353
51.700663999999904,16.973143999999984,1379
51.37666399999991,16.973143999999984,1282
51.05266399999991,15.677143999999986,1288
50.72866399999991,15.677143999999986,1303
51.05266399999991,17.621143999999987,1240
51.37666399999991,17.621143999999987,1326
51.700663999999904,17.621143999999987,1354
51.700663999999904,16.325143999999987,1347
52.0246639999999,22.15714399999998,1498
52.0246639999999,21.50914399999997,1494
52.3486639999999,21.50914399999997,1494
52.0246639999999,20.86114399999998,1488
51.700663999999904,20.86114399999998,1470
51.37666399999991,21.50914399999997,1452
51.37666399999991,20.86114399999998,1440
51.05266399999991,20.86114399999998,1446
52.6726639999999,23.45314399999998,1747
52.3486639999999,22.805143999999984,1689
52.3486639999999,20.213143999999986,1512
52.0246639999999,20.213143999999986,1505
52.3486639999999,19.565143999999982,1567
52.6726639999999,19.565143999999982,1659
51.700663999999904,21.50914399999997,1474
51.700663999999904,22.15714399999998,1480
52.6726639999999,21.50914399999997,1533
52.996663999999896,21.50914399999997,1620
52.6726639999999,20.86114399999998,1525
52.6726639999999,22.15714399999998,1549
52.6726639999999,20.213143999999986,1659
52.996663999999896,19.565143999999982,1710
52.996663999999896,20.86114399999998,1558
52.996663999999896,20.213143999999986,1567
53.32066399999989,20.213143999999986,1600
51.37666399999991,20.213143999999986,1421
52.3486639999999,16.973143999999984,1384
52.0246639999999,16.973143999999984,1397
52.0246639999999,16.325143999999987,1386
52.0246639999999,17.621143999999987,1371
52.6726639999999,16.973143999999984,1421
52.996663999999896,16.973143999999984,1522
52.3486639999999,16.325143999999987,1396
52.3486639999999,15.677143999999986,1386
51.700663999999904,18.269143999999983,1438
52.6726639999999,17.621143999999987,1435
52.3486639999999,17.621143999999987,1422
52.6726639999999,18.269143999999983,1515
52.3486639999999,18.269143999999983,1489
52.3486639999999,18.917143999999983,1527
52.996663999999896,17.621143999999987,1561
51.700663999999904,19.565143999999982,1469
51.700663999999904,18.917143999999983,1486
51.37666399999991,18.269143999999983,1347
58.82866399999986,9.197143999999987,3248
58.180663999999865,7.90114399999999,3341
58.50466399999986,8.54914399999999,3292
63.36466399999984,10.493143999999988,3463
63.36466399999984,11.141143999999988,3470
63.36466399999984,11.789143999999988,3505
63.68866399999983,11.789143999999988,3533
64.33666399999983,12.437143999999988,3934
64.66066399999983,12.437143999999988,4429
65.63266399999982,13.085143999999987,4086
65.95666399999982,13.085143999999987,4121
66.28066399999982,14.381143999999988,4191
65.95666399999982,13.733143999999989,4260
66.28066399999982,13.733143999999989,4169
65.30866399999982,13.085143999999987,4387
64.98466399999982,13.085143999999987,4021
64.01266399999983,11.789143999999988,3564
63.68866399999983,11.141143999999988,3501
59.800663999999855,10.493143999999988,3044
59.800663999999855,11.141143999999988,3027
60.124663999999854,11.141143999999988,3042
60.44866399999985,11.141143999999988,3055
60.124663999999854,11.789143999999988,3068
60.77266399999985,7.25314399999999,3304
60.77266399999985,6.60514399999999,3350
59.15266399999986,9.197143999999987,3130
59.47666399999986,9.197143999999987,3151
59.800663999999855,9.845143999999989,3046
59.47666399999986,11.141143999999988,2991
61.09666399999985,10.493143999999988,3165
60.77266399999985,10.493143999999988,3135
60.77266399999985,11.141143999999988,3090
62.06866399999984,9.197143999999987,3490
61.74466399999984,9.845143999999989,3436
61.420663999999846,9.845143999999989,3413
59.15266399999986,9.845143999999989,3110
59.47666399999986,9.845143999999989,3086
58.82866399999986,5.957143999999991,3525
58.180663999999865,7.25314399999999,3397
58.50466399999986,7.25314399999999,3430
58.50466399999986,6.60514399999999,3435
58.50466399999986,5.957143999999991,3493
58.82866399999986,8.54914399999999,3278
60.44866399999985,7.25314399999999,3278
60.44866399999985,7.90114399999999,3239
60.124663999999854,10.493143999999988,3076
60.44866399999985,9.197143999999987,3188
60.77266399999985,9.197143999999987,3200
60.77266399999985,8.54914399999999,3219
60.124663999999854,9.845143999999989,3334
60.44866399999985,10.493143999999988,3121
63.04066399999984,10.493143999999988,3414
62.06866399999984,9.845143999999989,3515
62.39266399999984,9.845143999999989,3523
62.71666399999984,9.845143999999989,3547
59.47666399999986,14.381143999999988,2997
59.47666399999986,13.733143999999989,2981
59.47666399999986,13.085143999999987,2957
59.800663999999855,12.437143999999988,3026
59.15266399999986,11.141143999999988,2955
59.15266399999986,14.381143999999988,2981
58.82866399999986,11.789143999999988,2935
58.50466399999986,12.437143999999988,2865
58.180663999999865,12.437143999999988,2858
57.85666399999987,11.789143999999988,2809
62.71666399999984,7.90114399999999,3576
62.39266399999984,7.90114399999999,3533
62.06866399999984,8.54914399999999,3508
60.44866399999985,5.309143999999991,3424
60.44866399999985,5.957143999999991,3391
60.77266399999985,5.957143999999991,3380
62.39266399999984,11.141143999999988,3311
62.06866399999984,10.493143999999988,3266
61.74466399999984,11.141143999999988,3239
61.420663999999846,11.141143999999988,3193
61.09666399999985,11.141143999999988,3176
60.77266399999985,11.789143999999988,3153
63.04066399999984,11.141143999999988,3392
62.71666399999984,11.141143999999988,3335
62.39266399999984,10.493143999999988,3293
67.25266399999981,15.677143999999986,4310
67.25266399999981,15.029143999999986,4348
67.25266399999981,14.381143999999988,4376
66.92866399999981,15.029143999999986,4299
66.60466399999981,15.677143999999986,4277
64.01266399999983,11.141143999999988,3548
66.60466399999981,15.029143999999986,4340
54.29266399999989,18.269143999999983,1670
54.616663999999886,17.621143999999987,1628
53.96866399999989,18.269143999999983,1643
43.92466399999995,1.4211439999999929,1568
44.24866399999995,0.7731439999999932,1522
44.572663999999946,0.1251439999999934,1505
46.84066399999993,1.4211439999999929,1466
44.572663999999946,1.4211439999999929,1692
44.24866399999995,1.4211439999999929,1670
45.54466399999994,1.4211439999999929,1598
46.516663999999935,1.4211439999999929,1484
42.30466399999996,2.717143999999992,1656
44.24866399999995,2.717143999999992,1754
44.572663999999946,2.717143999999992,1759
43.92466399999995,2.0691439999999925,1670
42.30466399999996,2.0691439999999925,1709
42.62866399999996,2.0691439999999925,1650
42.62866399999996,1.4211439999999929,1643
42.95266399999996,1.4211439999999929,1612
43.276663999999954,1.4211439999999929,1592
46.516663999999935,-1.170856000000006,1500
46.19266399999994,-1.170856000000006,1520
45.86866399999994,-0.5228560000000062,1592
45.54466399999994,-0.5228560000000062,1580
48.46066399999992,1.4211439999999929,1334
41.332663999999966,2.0691439999999925,1714
41.98066399999996,2.717143999999992,1673
48.46066399999992,-1.8188560000000056,1450
47.81266399999993,0.7731439999999932,1354
46.84066399999993,0.7731439999999932,1373
44.572663999999946,-1.170856000000006,1465
43.60066399999995,-1.170856000000006,1534
43.276663999999954,-1.8188560000000056,1582
43.276663999999954,0.1251439999999934,1667
42.95266399999996,0.1251439999999934,1641
43.276663999999954,-0.5228560000000062,1586
43.60066399999995,-0.5228560000000062,1574
47.81266399999993,-3.7628560000000046,1576
47.48866399999993,-2.4668560000000053,1514
47.81266399999993,-0.5228560000000062,1409
46.516663999999935,-1.8188560000000056,1572
48.136663999999925,-1.170856000000006,1412
47.48866399999993,-1.170856000000006,1436
45.22066399999994,8.54914399999999,922
45.22066399999994,7.90114399999999,979
46.19266399999994,-0.5228560000000062,1489
46.516663999999935,-0.5228560000000062,1470
48.78466399999992,-3.114856000000005,1584
50.72866399999991,2.0691439999999925,1293
50.40466399999991,2.0691439999999925,1328
40.36066399999997,-3.7628560000000046,1905
41.65666399999997,-1.170856000000006,1822
41.332663999999966,1.4211439999999929,1760
43.276663999999954,13.733143999999989,4390
42.95266399999996,13.733143999999989,4412
41.65666399999997,15.029143999999986,4496
40.68466399999997,17.621143999999987,4658
43.60066399999995,13.085143999999987,4383
41.65666399999997,12.437143999999988,3049
41.65666399999997,13.085143999999987,3068
41.98066399999996,13.085143999999987,3118
41.65666399999997,13.733143999999989,3120
41.332663999999966,13.733143999999989,3112
41.332663999999966,14.381143999999988,3269
41.00866399999997,14.381143999999988,3175
41.332663999999966,13.085143999999987,3094
41.00866399999997,15.029143999999986,3375
41.98066399999996,13.733143999999989,3317
42.30466399999996,14.381143999999988,3456
42.30466399999996,12.437143999999988,3057
42.62866399999996,12.437143999999988,3236
42.95266399999996,12.437143999999988,3521
42.30466399999996,11.789143999999988,3066
42.95266399999996,11.789143999999988,3276
42.62866399999996,11.789143999999988,3267
43.276663999999954,11.789143999999988,3330
42.95266399999996,13.085143999999987,4284
42.30466399999996,13.085143999999987,3343
43.276663999999954,13.085143999999987,4332
43.276663999999954,12.437143999999988,4339
42.62866399999996,11.141143999999988,3112
42.95266399999996,11.141143999999988,3155
42.95266399999996,10.493143999999988,3173
44.572663999999946,8.54914399999999,1370
44.89666399999994,7.90114399999999,1267
44.89666399999994,9.197143999999987,975
44.24866399999995,7.90114399999999,1359
44.572663999999946,7.90114399999999,1301
43.92466399999995,7.90114399999999,1539
44.24866399999995,7.25314399999999,1356
44.89666399999994,7.25314399999999,1338
45.22066399999994,7.25314399999999,1258
45.54466399999994,7.90114399999999,1320
44.572663999999946,7.25314399999999,1342
52.996663999999896,22.805143999999984,1848
52.996663999999896,23.45314399999998,1871
51.37666399999991,22.15714399999998,1555
51.37666399999991,22.805143999999984,1610
50.08066399999991,20.213143999999986,1304
50.72866399999991,20.213143999999986,1392
50.40466399999991,20.213143999999986,1357
50.08066399999991,20.86114399999998,1353
50.08066399999991,21.50914399999997,1360
50.08066399999991,22.15714399999998,1370
50.08066399999991,22.805143999999984,1387
53.96866399999989,22.805143999999984,2307
53.64466399999989,23.45314399999998,1978
53.32066399999989,23.45314399999998,1924
50.40466399999991,19.565143999999982,1265
50.08066399999991,18.917143999999983,1255
50.08066399999991,18.269143999999983,1126
52.0246639999999,22.805143999999984,1561
52.0246639999999,23.45314399999998,1599
51.37666399999991,19.565143999999982,1421
51.05266399999991,19.565143999999982,1375
50.72866399999991,18.917143999999983,1336
50.72866399999991,19.565143999999982,1373
49.75666399999992,18.917143999999983,1255
50.40466399999991,18.269143999999983,1175
53.64466399999989,19.565143999999982,1716
53.96866399999989,18.917143999999983,1684
53.64466399999989,18.917143999999983,1701
53.64466399999989,20.213143999999986,1755
52.996663999999896,18.917143999999983,1576
52.996663999999896,18.269143999999983,1548
53.32066399999989,18.917143999999983,1675
50.72866399999991,17.621143999999987,1210
50.72866399999991,18.269143999999983,1229
52.6726639999999,16.325143999999987,1416
52.996663999999896,16.325143999999987,1402
52.996663999999896,15.677143999999986,1388
53.32066399999989,15.677143999999986,1384
53.32066399999989,15.029143999999986,1305
53.64466399999989,15.029143999999986,1311
53.96866399999989,15.029143999999986,1339
52.6726639999999,18.917143999999983,1618
53.32066399999989,16.325143999999987,1554
52.6726639999999,15.029143999999986,1369
51.05266399999991,22.805143999999984,1657
51.05266399999991,23.45314399999998,1684
50.72866399999991,22.15714399999998,1766
50.40466399999991,22.15714399999998,1805
51.05266399999991,22.15714399999998,1607
54.616663999999886,16.973143999999984,1588
54.29266399999989,16.325143999999987,1538
53.96866399999989,15.677143999999986,1444
50.72866399999991,21.50914399999997,1776
50.40466399999991,21.50914399999997,1395
50.40466399999991,17.621143999999987,1335
53.32066399999989,22.805143999999984,2063
53.64466399999989,22.15714399999998,1925
54.29266399999989,16.973143999999984,1564
50.72866399999991,20.86114399999998,1451
51.700663999999904,22.805143999999984,1831
51.05266399999991,21.50914399999997,1545
50.08066399999991,19.565143999999982,1273
52.0246639999999,18.917143999999983,8488
52.0246639999999,19.565143999999982,8481
53.64466399999989,18.269143999999983,1637
51.700663999999904,20.213143999999986,1505
53.32066399999989,19.565143999999982,1707
50.72866399999991,23.45314399999998,1891
50.72866399999991,22.805143999999984,1860
49.43266399999992,20.213143999999986,1278
49.75666399999992,21.50914399999997,1437
49.75666399999992,22.15714399999998,1831
49.43266399999992,22.15714399999998,1692
51.05266399999991,18.917143999999983,1413
51.05266399999991,18.269143999999983,1269
53.32066399999989,16.973143999999984,1528
53.64466399999989,16.973143999999984,1522
49.75666399999992,20.86114399999998,1407
50.40466399999991,22.805143999999984,8570
53.64466399999989,16.325143999999987,1508
53.96866399999989,20.86114399999998,1782
54.29266399999989,20.86114399999998,1828
53.96866399999989,21.50914399999997,1848
53.64466399999989,15.677143999999986,1460
53.96866399999989,20.213143999999986,1741
53.96866399999989,19.565143999999982,1730
54.29266399999989,19.565143999999982,1744
53.96866399999989,16.325143999999987,1479
53.64466399999989,17.621143999999987,1578
53.96866399999989,22.15714399999998,1915
53.64466399999989,21.50914399999997,1880
53.64466399999989,20.86114399999998,1834
52.6726639999999,15.677143999999986,1416
51.05266399999991,20.213143999999986,1537
54.940663999999884,24.101143999999977,3681
54.616663999999886,23.45314399999998,3625
54.29266399999989,23.45314399999998,3488
53.64466399999989,22.805143999999984,2065
53.96866399999989,16.973143999999984,1585
50.40466399999991,20.86114399999998,1528
53.32066399999989,18.269143999999983,1656
49.75666399999992,19.565143999999982,1303
50.40466399999991,23.45314399999998,1996
49.75666399999992,20.213143999999986,1282
49.43266399999992,19.565143999999982,1257
49.43266399999992,20.86114399999998,1359
53.96866399999989,17.621143999999987,1788
42.30466399999996,-1.8188560000000056,8799
41.98066399999996,-1.8188560000000056,8782
41.65666399999997,0.7731439999999932,8786
42.62866399999996,-1.8188560000000056,8914
42.95266399999996,-1.8188560000000056,8943
42.62866399999996,-3.114856000000005,9037
42.95266399999996,-2.4668560000000053,9015
42.62866399999996,-7.650856000000003,9379
42.30466399999996,-7.650856000000003,9439
42.30466399999996,-8.946856000000002,9575
42.30466399999996,-8.298856000000002,9549
41.98066399999996,-8.298856000000002,9538
42.30466399999996,-7.002856000000003,9321
42.62866399999996,-6.354856000000003,9263
42.30466399999996,-6.354856000000003,9218
42.62866399999996,-5.706856000000004,8718
41.98066399999996,-4.410856000000004,8672
42.30466399999996,-3.7628560000000046,9063
40.03666399999997,-0.5228560000000062,8766
39.38866399999998,-0.5228560000000062,8814
41.00866399999997,0.7731439999999932,8914
40.68466399999997,0.7731439999999932,8946
40.36066399999997,0.1251439999999934,9024
39.712663999999975,-0.5228560000000062,8923
38.41666399999998,-0.5228560000000062,8935
39.06466399999998,-0.5228560000000062,9057
38.74066399999998,-1.170856000000006,8943
41.332663999999966,0.7731439999999932,8974
41.65666399999997,2.717143999999992,8574
41.65666399999997,2.0691439999999925,8597
41.332663999999966,0.1251439999999934,8932
41.332663999999966,-0.5228560000000062,8876
41.65666399999997,-4.410856000000004,8646
40.03666399999997,-2.4668560000000053,8884
41.00866399999997,-4.410856000000004,8767
43.276663999999954,-5.706856000000004,8848
39.38866399999998,-1.170856000000006,8909
38.09266399999999,-1.170856000000006,9322
38.74066399999998,-0.5228560000000062,9085
37.76866399999999,-1.170856000000006,9387
39.06466399999998,-1.8188560000000056,8907
39.38866399999998,-3.114856000000005,8807
39.38866399999998,-2.4668560000000053,8863
39.06466399999998,-2.4668560000000053,8890
39.06466399999998,-3.114856000000005,8811
39.06466399999998,-3.7628560000000046,8785
38.74066399999998,-3.7628560000000046,8864
40.03666399999997,-3.7628560000000046,8763
40.03666399999997,-3.114856000000005,8963
40.03666399999997,-1.8188560000000056,9044
39.712663999999975,-1.8188560000000056,9009
39.712663999999975,-1.170856000000006,8945
40.36066399999997,-1.170856000000006,8964
40.68466399999997,-1.170856000000006,8942
41.00866399999997,-1.170856000000006,8930
41.332663999999966,-1.170856000000006,8770
43.276663999999954,-8.298856000000002,9539
42.95266399999996,-8.298856000000002,9507
41.65666399999997,-5.706856000000004,65535
41.98066399999996,-7.002856000000003,65535
41.98066399999996,-6.354856000000003,65535
41.332663999999966,-5.058856000000004,8885
43.276663999999954,-3.7628560000000046,9320
42.95266399999996,-4.410856000000004,9254
42.62866399999996,-4.410856000000004,9244
42.30466399999996,-4.410856000000004,9203
41.00866399999997,-5.706856000000004,8823
41.332663999999966,-1.8188560000000056,8716
40.68466399999997,-3.114856000000005,8670
41.00866399999997,-3.114856000000005,8721
41.00866399999997,-2.4668560000000053,8744
41.332663999999966,-2.4668560000000053,8797
40.68466399999997,-4.410856000000004,8707
40.36066399999997,-4.410856000000004,8791
40.68466399999997,-3.7628560000000046,8699
40.36066399999997,-3.114856000000005,8677
41.65666399999997,-2.4668560000000053,8814
38.09266399999999,-3.7628560000000046,8911
38.74066399999998,-3.114856000000005,8855
37.76866399999999,-3.7628560000000046,8968
39.712663999999975,-3.114856000000005,8799
38.41666399999998,-3.7628560000000046,8876
40.03666399999997,-4.410856000000004,65535
40.03666399999997,-5.058856000000004,65535
39.38866399999998,-6.354856000000003,65535
39.38866399999998,-7.002856000000003,65535
42.95266399999996,-3.114856000000005,9448
41.98066399999996,-1.170856000000006,8811
42.30466399999996,-2.4668560000000053,8852
41.65666399999997,-0.5228560000000062,8909
41.98066399999996,-0.5228560000000062,8746
41.65666399999997,0.1251439999999934,8773
41.98066399999996,0.1251439999999934,8795
37.76866399999999,-5.058856000000004,8847
36.79666399999999,-4.410856000000004,8906
38.74066399999998,-4.410856000000004,8803
37.12066399999999,-4.410856000000004,8880
37.44466399999999,-5.058856000000004,9404
37.44466399999999,-7.002856000000003,65535
37.44466399999999,-6.354856000000003,65535
37.44466399999999,-5.706856000000004,9080
39.712663999999975,-3.7628560000000046,8873
42.62866399999996,-8.946856000000002,65535
42.30466399999996,-5.706856000000004,9225
42.30466399999996,-5.058856000000004,9310
42.95266399999996,-5.706856000000004,8750
41.00866399999997,-5.058856000000004,8791
40.68466399999997,-5.058856000000004,8765
41.65666399999997,-5.058856000000004,65535
41.65666399999997,-6.354856000000003,65535
36.79666399999999,-6.354856000000003,65535
37.12066399999999,-5.706856000000004,9248
37.76866399999999,-5.706856000000004,9047
38.09266399999999,-4.410856000000004,9182
37.12066399999999,-5.058856000000004,9202
36.79666399999999,-5.058856000000004,9160
37.76866399999999,-4.410856000000004,65535
37.76866399999999,-7.002856000000003,65535
38.41666399999998,-6.354856000000003,65535
38.09266399999999,-6.354856000000003,65535
48.78466399999992,1.4211439999999929,1425
56.23666399999988,8.54914399999999,7090
55.58866399999988,9.197143999999987,6895
55.91266399999988,9.197143999999987,7036
55.26466399999988,10.493143999999988,2514
55.91266399999988,12.437143999999988,2649
55.58866399999988,11.789143999999988,6735
55.58866399999988,11.141143999999988,6776
55.26466399999988,11.789143999999988,6768
55.58866399999988,10.493143999999988,6891
55.58866399999988,13.085143999999987,2606
56.88466399999987,9.845143999999989,7042
57.20866399999987,9.845143999999989,7077
56.56066399999988,9.845143999999989,7014
56.88466399999987,8.54914399999999,7129
54.940663999999884,9.845143999999989,8236
54.940663999999884,11.789143999999988,6992
55.91266399999988,13.085143999999987,2664
56.23666399999988,13.733143999999989,2708
55.91266399999988,13.733143999999989,2711
56.23666399999988,14.381143999999988,2731
56.23666399999988,15.029143999999986,2772
56.23666399999988,15.677143999999986,2827
56.56066399999988,14.381143999999988,2788
56.88466399999987,14.381143999999988,2758
56.23666399999988,13.085143999999987,2656
56.56066399999988,13.085143999999987,2736
56.88466399999987,12.437143999999988,2773
57.20866399999987,12.437143999999988,2789
57.53266399999987,12.437143999999988,2804
56.88466399999987,15.029143999999986,2784
56.56066399999988,15.677143999999986,2844
56.88466399999987,15.677143999999986,2863
56.88466399999987,16.325143999999987,2878
55.91266399999988,11.789143999999988,7061
57.20866399999987,10.493143999999988,7264
49.43266399999992,1.4211439999999929,1373
49.75666399999992,0.7731439999999932,1401
49.75666399999992,2.0691439999999925,1349
50.08066399999991,2.717143999999992,1360
49.75666399999992,1.4211439999999929,1354
47.81266399999993,1.4211439999999929,1309
48.136663999999925,2.0691439999999925,1353
48.46066399999992,2.0691439999999925,1334
48.136663999999925,1.4211439999999929,1411
48.78466399999992,0.1251439999999934,1426
48.46066399999992,0.1251439999999934,1405
47.81266399999993,0.1251439999999934,1366
46.84066399999993,-0.5228560000000062,1602
47.16466399999993,0.7731439999999932,1343
46.84066399999993,0.1251439999999934,1434
46.84066399999993,-1.170856000000006,1472
50.08066399999991,1.4211439999999929,1346
50.08066399999991,2.0691439999999925,1363
49.43266399999992,2.717143999999992,1352
49.75666399999992,3.365143999999992,1339
50.08066399999991,3.365143999999992,1297
49.10866399999992,2.0691439999999925,1356
49.43266399999992,2.0691439999999925,1374
48.78466399999992,0.7731439999999932,1476
48.78466399999992,-0.5228560000000062,1547
48.78466399999992,-1.170856000000006,1577
48.136663999999925,0.7731439999999932,1387
48.46066399999992,0.7731439999999932,1360
43.92466399999995,5.957143999999991,1507
44.24866399999995,5.957143999999991,1545
43.92466399999995,5.309143999999991,1452
42.95266399999996,2.717143999999992,1577
45.54466399999994,2.0691439999999925,1634
45.22066399999994,2.0691439999999925,1666
42.95266399999996,2.0691439999999925,1609
42.95266399999996,0.7731439999999932,1639
43.276663999999954,0.7731439999999932,1615
46.19266399999994,0.7731439999999932,1531
46.516663999999935,0.7731439999999932,1503
45.86866399999994,0.1251439999999934,1425
46.19266399999994,0.1251439999999934,1416
47.81266399999993,-1.170856000000006,1803
48.136663999999925,-2.4668560000000053,1501
47.48866399999993,-1.8188560000000056,1494
47.16466399999993,-1.170856000000006,1447
47.16466399999993,-0.5228560000000062,1429
46.84066399999993,-1.8188560000000056,1676
45.22066399999994,-0.5228560000000062,1460
44.89666399999994,0.1251439999999934,1502
45.22066399999994,0.7731439999999932,1541
45.54466399999994,0.7731439999999932,1613
45.86866399999994,0.7731439999999932,1722
45.22066399999994,0.1251439999999934,1561
44.89666399999994,0.7731439999999932,1552
43.92466399999995,-0.5228560000000062,1776
43.92466399999995,-1.170856000000006,1514
44.24866399999995,-1.170856000000006,1495
45.22066399999994,-1.170856000000006,1488
44.572663999999946,-0.5228560000000062,1483
44.24866399999995,0.1251439999999934,1530
44.572663999999946,0.7731439999999932,1542
43.276663999999954,-1.170856000000006,1596
42.95266399999996,-0.5228560000000062,1893
44.24866399999995,2.0691439999999925,1718
43.60066399999995,0.7731439999999932,1631
43.60066399999995,2.0691439999999925,1695
52.6726639999999,4.661143999999991,7081
52.6726639999999,5.309143999999991,7104
51.700663999999904,5.309143999999991,7049
52.0246639999999,5.309143999999991,7061
52.3486639999999,5.309143999999991,7077
51.37666399999991,4.013143999999992,7057
52.3486639999999,5.957143999999991,7071
52.0246639999999,6.60514399999999,7101
52.6726639999999,5.957143999999991,7088
52.996663999999896,5.957143999999991,7101
53.32066399999989,5.957143999999991,7095
52.996663999999896,6.60514399999999,7077
53.32066399999989,6.60514399999999,7069
52.6726639999999,6.60514399999999,7097
52.996663999999896,5.309143999999991,7116
59.15266399999986,24.101143999999977,65535
56.88466399999987,24.101143999999977,65535
56.88466399999987,23.45314399999998,65535
56.88466399999987,22.805143999999984,65535
57.20866399999987,24.74914399999998,65535
56.88466399999987,24.74914399999998,65535
56.56066399999988,24.74914399999998,65535
56.56066399999988,25.397143999999983,65535
56.56066399999988,24.101143999999977,65535
56.56066399999988,23.45314399999998,65535
56.56066399999988,26.04514399999998,65535
56.88466399999987,26.04514399999998,65535
57.20866399999987,25.397143999999983,65535
57.53266399999987,25.397143999999983,65535
56.23666399999988,26.04514399999998,65535
56.23666399999988,26.69314399999997,65535
55.91266399999988,26.69314399999997,65535
56.56066399999988,26.69314399999997,65535
56.56066399999988,27.34114399999998,65535
56.56066399999988,27.989143999999985,65535
56.23666399999988,27.989143999999985,65535
55.91266399999988,27.34114399999998,65535
56.56066399999988,22.805143999999984,65535
56.56066399999988,22.15714399999998,65535
56.56066399999988,21.50914399999997,65535
57.20866399999987,26.69314399999997,65535
39.06466399999998,-8.946856000000002,65535
38.41666399999998,-8.298856000000002,65535
45.86866399999994,11.789143999999988,2068
46.19266399999994,11.789143999999988,2055
46.19266399999994,10.493143999999988,2095
45.22066399999994,18.269143999999983,71
45.22066399999994,18.917143999999983,0
45.54466399999994,16.973143999999984,154
45.22066399999994,17.621143999999987,117
45.86866399999994,16.325143999999987,242
45.54466399999994,18.917143999999983,55
45.54466399999994,16.325143999999987,218
45.54466399999994,18.269143999999983,97
44.89666399999994,18.917143999999983,120
46.19266399999994,16.973143999999984,284
46.19266399999994,16.325143999999987,276
45.86866399999994,16.973143999999984,341
45.86866399999994,17.621143999999987,260
46.19266399999994,15.677143999999986,280
46.516663999999935,16.325143999999987,298
45.54466399999994,15.677143999999986,334
45.22066399999994,15.029143999999986,353
45.54466399999994,15.029143999999986,307
45.22066399999994,15.677143999999986,397
44.572663999999946,15.677143999999986,619
44.24866399999995,15.677143999999986,640
43.92466399999995,16.325143999999987,704
44.89666399999994,15.677143999999986,583
45.54466399999994,17.621143999999987,226
45.22066399999994,16.325143999999987,196
46.516663999999935,16.973143999999984,348
45.86866399999994,18.269143999999983,161
43.92466399999995,15.677143999999986,806
45.22066399999994,13.733143999999989,450
47.48866399999993,19.565143999999982,759
47.16466399999993,18.917143999999983,768
47.81266399999993,18.917143999999983,714
45.54466399999994,9.845143999999989,919
45.22066399999994,9.845143999999989,959
45.22066399999994,10.493143999999988,1338
45.86866399999994,9.845143999999989,1304
45.86866399999994,10.493143999999988,2838
48.78466399999992,21.50914399999997,1370
49.10866399999992,20.213143999999986,1341
49.10866399999992,18.917143999999983,876
48.46066399999992,17.621143999999987,659
49.43266399999992,17.621143999999987,1453
49.10866399999992,17.621143999999987,1312
48.136663999999925,18.269143999999983,678
49.10866399999992,18.269143999999983,713
49.43266399999992,18.269143999999983,969
49.43266399999992,16.973143999999984,1243
49.75666399999992,16.973143999999984,1401
49.75666399999992,16.325143999999987,1294
50.08066399999991,15.677143999999986,1273
50.08066399999991,15.029143999999986,1264
49.43266399999992,18.917143999999983,895
47.81266399999993,20.86114399999998,1435
48.136663999999925,20.86114399999998,1380
48.46066399999992,20.86114399999998,1342
48.46066399999992,21.50914399999997,1382
49.10866399999992,19.565143999999982,900
48.136663999999925,17.621143999999987,669
48.78466399999992,22.15714399999998,1557
48.78466399999992,20.86114399999998,1439
49.10866399999992,20.86114399999998,1361
48.78466399999992,18.269143999999983,702
48.78466399999992,17.621143999999987,749
49.10866399999992,21.50914399999997,1366
48.78466399999992,20.213143999999986,1305
48.46066399999992,20.213143999999986,1246
48.136663999999925,19.565143999999982,1218
48.46066399999992,19.565143999999982,1180
48.46066399999992,18.917143999999983,829
48.46066399999992,18.269143999999983,690
48.78466399999992,19.565143999999982,889
48.78466399999992,18.917143999999983,808
47.81266399999993,18.269143999999983,728
49.10866399999992,22.15714399999998,1604
49.43266399999992,21.50914399999997,1393
48.136663999999925,18.917143999999983,699
48.136663999999925,20.213143999999986,1267
52.636,-8.018,65535
52.312,-7.370000000000001,65535
52.312,-8.018,65535
52.636,-8.666,65535
51.988,-8.666,65535
51.988,-8.018,65535
52.96,-8.666,65535
52.96,-6.074000000000002,65535
53.28399999999999,-6.722000000000001,65535
53.60799999999999,-6.722000000000001,65535
53.60799999999999,-7.370000000000001,65535
53.60799999999999,-8.018,65535
54.25599999999999,-8.666,65535
53.93199999999999,-8.666,65535
53.93199999999999,-8.018,65535
52.312,-6.722000000000001,65535
52.636,-6.722000000000001,65535
53.93199999999999,-6.722000000000001,65535
54.25599999999999,-6.074000000000002,65535
53.28399999999999,-7.370000000000001,65535
52.96,-7.370000000000001,65535
52.312,-8.666,65535
52.96,-8.018,65535
52.636,-7.370000000000001,65535
52.96,-6.722000000000001,65535
51.988,-9.314,65535
52.312,-9.314,65535
54.579999999999984,-6.722000000000001,65535
54.579999999999984,-6.074000000000002,65535
53.28399999999999,-8.018,65535
53.28399999999999,-8.666,65535
53.28399999999999,-9.314,65535
53.93199999999999,-9.314,65535
54.25599999999999,-9.314,65535
53.60799999999999,-8.666,65535
53.60799999999999,-9.314,65535
49.43266399999992,14.381143999999988,1366
49.75666399999992,14.381143999999988,1280
49.75666399999992,15.029143999999986,1276
49.75666399999992,13.733143999999989,1285
50.08066399999991,13.733143999999989,1281
49.75666399999992,15.677143999999986,1317
50.40466399999991,15.029143999999986,1242
49.43266399999992,13.733143999999989,1294
50.40466399999991,15.677143999999986,1262
50.40466399999991,13.733143999999989,1311
46.19266399999994,15.029143999999986,285
45.86866399999994,15.029143999999986,277
45.86866399999994,14.381143999999988,332
46.19266399999994,13.733143999999989,422
45.86866399999994,13.733143999999989,508
58.50466399999986,13.733143999999989,2900
58.180663999999865,13.733143999999989,2886
58.180663999999865,13.085143999999987,2858
57.85666399999987,12.437143999999988,2822
60.44866399999985,15.677143999999986,3107
60.124663999999854,15.677143999999986,3041
60.124663999999854,16.325143999999987,3079
59.800663999999855,16.325143999999987,3007
59.800663999999855,17.621143999999987,2986
59.47666399999986,18.269143999999983,2968
61.74466399999984,16.973143999999984,3118
61.420663999999846,16.973143999999984,3091
60.77266399999985,16.973143999999984,3043
65.63266399999982,22.15714399999998,4222
65.95666399999982,21.50914399999997,4182
65.63266399999982,20.86114399999998,4153
64.98466399999982,20.213143999999986,4085
64.66066399999983,20.213143999999986,4063
64.33666399999983,19.565143999999982,3757
64.01266399999983,19.565143999999982,3470
63.68866399999983,20.213143999999986,3423
64.66066399999983,18.917143999999983,6134
59.15266399999986,16.325143999999987,2943
59.15266399999986,15.029143999999986,2947
59.15266399999986,17.621143999999987,2960
57.53266399999987,14.381143999999988,2784
57.53266399999987,15.029143999999986,2804
61.09666399999985,14.381143999999988,3211
60.77266399999985,15.029143999999986,3162
60.44866399999985,15.029143999999986,3148
58.180663999999865,15.029143999999986,2861
58.50466399999986,16.325143999999987,2895
58.50466399999986,15.677143999999986,2868
63.36466399999984,13.085143999999987,3455
63.04066399999984,14.381143999999988,3392
62.39266399999984,15.677143999999986,3314
63.36466399999984,13.733143999999989,3437
63.36466399999984,14.381143999999988,3409
62.71666399999984,15.677143999999986,3342
62.39266399999984,17.621143999999987,3176
59.800663999999855,15.677143999999986,3229
55.58866399999988,13.733143999999989,2738
57.20866399999987,14.381143999999988,2768
57.85666399999987,14.381143999999988,2816
58.82866399999986,16.973143999999984,2952
58.82866399999986,16.325143999999987,2930
59.15266399999986,18.269143999999983,2964
60.44866399999985,17.621143999999987,3019
59.15266399999986,12.437143999999988,2923
59.15266399999986,13.085143999999987,2937
58.82866399999986,12.437143999999988,2899
59.47666399999986,16.325143999999987,2989
58.82866399999986,14.381143999999988,2976
59.47666399999986,15.677143999999986,3007
63.36466399999984,18.917143999999983,3376
63.04066399999984,17.621143999999987,3331
62.71666399999984,17.621143999999987,3305
63.68866399999983,19.565143999999982,3409
62.39266399999984,16.973143999999984,3220
59.800663999999855,16.973143999999984,2995
59.47666399999986,17.621143999999987,2972
57.85666399999987,13.085143999999987,2848
57.53266399999987,13.085143999999987,2829
58.50466399999986,11.789143999999988,2870
57.85666399999987,15.029143999999986,2850
57.20866399999987,13.733143999999989,2774
57.53266399999987,13.733143999999989,2835
61.74466399999984,16.325143999999987,3214
61.420663999999846,16.325143999999987,3181
61.09666399999985,16.325143999999987,3170
61.09666399999985,16.973143999999984,3138
60.124663999999854,15.029143999999986,3316
66.60466399999981,20.86114399999998,4257
67.25266399999981,20.86114399999998,4325
67.90066399999981,20.213143999999986,4395
67.57666399999981,20.213143999999986,5020
59.800663999999855,15.029143999999986,3036
58.50466399999986,15.029143999999986,2878
59.47666399999986,15.029143999999986,3021
60.44866399999985,16.325143999999987,3107
59.15266399999986,15.677143999999986,2965
57.85666399999987,13.733143999999989,2876
58.82866399999986,13.733143999999989,2923
58.50466399999986,13.085143999999987,2908
57.20866399999987,13.085143999999987,2805
56.88466399999987,13.085143999999987,2779
58.180663999999865,11.789143999999988,2841
62.06866399999984,16.973143999999984,3209
65.95666399999982,23.45314399999998,4457
59.800663999999855,14.381143999999988,5891
59.800663999999855,18.269143999999983,2977
63.04066399999984,15.029143999999986,3360
62.71666399999984,15.029143999999986,3350
62.39266399999984,16.325143999999987,3283
63.36466399999984,12.437143999999988,3488
68.5486639999998,17.621143999999987,4608
68.5486639999998,18.269143999999983,4541
68.5486639999998,18.917143999999983,4518
68.2246639999998,18.917143999999983,4474
59.800663999999855,13.085143999999987,3040
60.124663999999854,13.085143999999987,3079
59.47666399999986,16.973143999999984,2981
59.15266399999986,16.973143999999984,2973
56.56066399999988,13.733143999999989,2726
60.124663999999854,17.621143999999987,2996
57.85666399999987,16.325143999999987,2955
58.180663999999865,16.325143999999987,2917
58.180663999999865,15.677143999999986,2925
57.20866399999987,16.325143999999987,2967
57.53266399999987,15.677143999999986,2985
57.85666399999987,15.677143999999986,2956
44.89666399999994,23.45314399999998,2965
44.572663999999946,23.45314399999998,3035
44.89666399999994,24.74914399999998,2952
44.572663999999946,24.74914399999998,3071
44.572663999999946,24.101143999999977,3012
44.24866399999995,24.101143999999977,3041
47.48866399999993,25.397143999999983,2813
47.48866399999993,24.74914399999998,2753
47.16466399999993,24.74914399999998,2675
47.16466399999993,24.101143999999977,2577
47.48866399999993,22.15714399999998,2707
47.81266399999993,22.15714399999998,2793
47.16466399999993,22.15714399999998,2686
47.16466399999993,23.45314399999998,2738
47.16466399999993,22.805143999999984,2744
46.84066399999993,24.101143999999977,2658
45.86866399999994,27.34114399999998,2998
45.54466399999994,27.34114399999998,2979
45.54466399999994,27.989143999999985,3095
45.86866399999994,20.86114399999998,2870
45.86866399999994,21.50914399999997,2878
46.19266399999994,21.50914399999997,2814
46.19266399999994,27.34114399999998,2998
46.19266399999994,26.69314399999997,2989
46.516663999999935,26.69314399999997,2951
46.516663999999935,26.04514399999998,2847
47.48866399999993,22.805143999999984,2805
46.84066399999993,22.805143999999984,2618
45.54466399999994,22.15714399999998,2927
45.22066399999994,22.15714399999998,3005
44.89666399999994,22.15714399999998,3423
47.48866399999993,23.45314399999998,2771
46.516663999999935,24.101143999999977,2497
46.516663999999935,24.74914399999998,2711
45.86866399999994,24.101143999999977,2660
47.16466399999993,26.69314399999997,3029
47.16466399999993,27.34114399999998,3084
43.92466399999995,25.397143999999983,3043
44.24866399999995,24.74914399999998,2950
44.89666399999994,26.04514399999998,2837
44.89666399999994,26.69314399999997,2884
45.22066399999994,26.69314399999997,2919
45.22066399999994,27.34114399999998,2946
46.84066399999993,26.69314399999997,2990
47.48866399999993,26.69314399999997,2983
44.24866399999995,25.397143999999983,2882
43.92466399999995,26.04514399999998,3059
46.19266399999994,24.101143999999977,2705
44.572663999999946,25.397143999999983,2920
46.84066399999993,24.74914399999998,2718
46.516663999999935,21.50914399999997,2818
46.84066399999993,21.50914399999997,2825
44.572663999999946,26.69314399999997,2875
44.572663999999946,27.34114399999998,2896
44.89666399999994,27.34114399999998,3011
44.572663999999946,27.989143999999985,2916
44.24866399999995,27.989143999999985,2930
44.572663999999946,28.63714399999997,2981
45.86866399999994,22.15714399999998,2739
45.86866399999994,22.805143999999984,2633
44.24866399999995,23.45314399999998,3068
43.92466399999995,27.989143999999985,65535
46.84066399999993,27.34114399999998,3151
45.22066399999994,23.45314399999998,2940
45.54466399999994,23.45314399999998,2743
45.54466399999994,24.101143999999977,2690
45.22066399999994,24.101143999999977,2914
44.89666399999994,24.101143999999977,2984
46.19266399999994,22.15714399999998,2870
46.516663999999935,22.15714399999998,2836
45.22066399999994,21.50914399999997,3110
45.54466399999994,21.50914399999997,2958
45.54466399999994,20.86114399999998,2982
46.516663999999935,27.989143999999985,3101
46.19266399999994,27.989143999999985,3086
45.54466399999994,25.397143999999983,2804
45.22066399999994,25.397143999999983,2814
45.22066399999994,26.04514399999998,2870
47.81266399999993,24.101143999999977,2866
47.48866399999993,26.04514399999998,2956
47.81266399999993,26.04514399999998,2978
46.19266399999994,23.45314399999998,2537
45.86866399999994,23.45314399999998,2586
44.24866399999995,26.04514399999998,2864
45.22066399999994,27.989143999999985,3076
45.86866399999994,24.74914399999998,2699
46.516663999999935,25.397143999999983,2891
46.84066399999993,25.397143999999983,2774
46.19266399999994,26.04514399999998,2862
45.86866399999994,26.04514399999998,2827
43.92466399999995,23.45314399999998,3298
44.89666399999994,25.397143999999983,2925
46.19266399999994,20.86114399999998,2859
47.81266399999993,25.397143999999983,2990
44.572663999999946,22.805143999999984,3303
44.572663999999946,22.15714399999998,3445
46.516663999999935,23.45314399999998,2676
45.86866399999994,25.397143999999983,2753
44.24866399999995,27.34114399999998,3691
45.22066399999994,24.74914399999998,3016
45.54466399999994,22.805143999999984,2706
45.22066399999994,28.63714399999997,3136
44.89666399999994,28.63714399999997,3075
47.81266399999993,23.45314399999998,2923
46.19266399999994,24.74914399999998,2785
46.19266399999994,25.397143999999983,2809
43.92466399999995,24.101143999999977,3261
43.92466399999995,24.74914399999998,3274
47.81266399999993,26.69314399999997,3205
47.48866399999993,24.101143999999977,2798
46.84066399999993,26.04514399999998,3606
46.19266399999994,22.805143999999984,2930
47.48866399999993,27.34114399999998,3158
46.19266399999994,20.213143999999986,65535
45.54466399999994,26.04514399999998,2962
44.24866399999995,26.69314399999997,2880
45.86866399999994,27.989143999999985,3134
47.81266399999993,5.957143999999991,7066
