51.56399999999999,-0.4100000000000028,65535
51.887999999999984,-0.4100000000000028,65535
50.91599999999999,-1.7060000000000022,65535
51.23999999999999,-1.0580000000000025,65535
51.56399999999999,-1.0580000000000025,65535
51.23999999999999,-1.7060000000000022,65535
51.56399999999999,0.2379999999999968,65535
47.16466399999993,9.845143999999989,564
47.48866399999993,9.845143999999989,538
48.136663999999925,14.381143999999988,640
47.81266399999993,13.085143999999987,549
47.16466399999993,11.141143999999988,530
47.48866399999993,11.789143999999988,721
48.136663999999925,16.325143999999987,514
47.48866399999993,12.437143999999988,534
48.136663999999925,15.677143999999986,699
47.16466399999993,10.493143999999988,576
47.16466399999993,9.197143999999987,530
48.136663999999925,13.733143999999989,599
48.136663999999925,15.029143999999986,739
47.81266399999993,16.973143999999984,535
48.46066399999992,14.381143999999988,904
47.48866399999993,13.085143999999987,539
47.16466399999993,13.085143999999987,545
47.48866399999993,14.381143999999988,695
47.48866399999993,13.733143999999989,773
47.48866399999993,15.029143999999986,642
46.516663999999935,13.733143999999989,1343
46.84066399999993,13.733143999999989,1381
46.84066399999993,13.085143999999987,1425
48.78466399999992,14.381143999999988,65535
47.16466399999993,15.677143999999986,660
46.516663999999935,14.381143999999988,1339
46.84066399999993,14.381143999999988,1362
47.16466399999993,14.381143999999988,725
46.516663999999935,15.029143999999986,1332
47.81266399999993,16.325143999999987,532
47.16466399999993,15.029143999999986,684
47.81266399999993,15.677143999999986,658
47.48866399999993,15.677143999999986,589
46.516663999999935,13.085143999999987,1934
46.84066399999993,12.437143999999988,1439
48.136663999999925,11.789143999999988,513
47.81266399999993,12.437143999999988,522
46.84066399999993,15.677143999999986,808
46.516663999999935,15.677143999999986,1260
46.84066399999993,16.325143999999987,705
47.81266399999993,14.381143999999988,805
48.78466399999992,16.973143999999984,453
48.136663999999925,16.973143999999984,501
48.46066399999992,13.733143999999989,577
47.81266399999993,13.733143999999989,674
50.08066399999991,8.54914399999999,509
48.46066399999992,9.845143999999989,505
51.05266399999991,7.25314399999999,537
51.37666399999991,7.25314399999999,531
51.37666399999991,6.60514399999999,533
48.46066399999992,16.325143999999987,519
48.46066399999992,16.973143999999984,488
48.78466399999992,16.325143999999987,532
48.46066399999992,15.677143999999986,544
48.78466399999992,15.677143999999986,573
47.48866399999993,16.325143999999987,542
47.16466399999993,16.325143999999987,654
46.19266399999994,14.381143999999988,1336
45.86866399999994,15.677143999999986,1322
43.60066399999995,16.325143999999987,1555
45.54466399999994,14.381143999999988,1386
45.54466399999994,13.733143999999989,1406
48.136663999999925,13.085143999999987,556
48.46066399999992,11.141143999999988,488
48.136663999999925,11.141143999999988,499
48.46066399999992,7.90114399999999,526
49.10866399999992,8.54914399999999,495
48.78466399999992,2.0691439999999925,665
49.10866399999992,7.25314399999999,531
52.0246639999999,7.90114399999999,550
47.16466399999993,11.789143999999988,552
49.43266399999992,11.141143999999988,445
53.64466399999989,9.845143999999989,535
50.72866399999991,4.013143999999992,570
51.05266399999991,11.141143999999988,418
47.48866399999993,11.141143999999988,513
46.84066399999993,11.789143999999988,2102
46.516663999999935,11.141143999999988,2071
45.54466399999994,11.141143999999988,1965
46.19266399999994,11.141143999999988,2037
45.86866399999994,11.141143999999988,2021
44.572663999999946,11.141143999999988,1812
43.92466399999995,12.437143999999988,4445
45.54466399999994,12.437143999999988,2052
45.54466399999994,11.789143999999988,2015
48.78466399999992,15.029143999999986,612
47.81266399999993,15.029143999999986,750
47.81266399999993,11.141143999999988,505
50.40466399999991,18.917143999999983,15
52.3486639999999,20.86114399999998,351
54.616663999999886,18.269143999999983,543
54.29266399999989,18.917143999999983,528
49.10866399999992,14.381143999999988,65535
50.08066399999991,14.381143999999988,342
48.78466399999992,13.733143999999989,2216
52.6726639999999,13.085143999999987,397
52.3486639999999,13.085143999999987,395
53.96866399999989,12.437143999999988,564
54.29266399999989,12.437143999999988,562
47.48866399999993,8.54914399999999,521
47.81266399999993,17.621143999999987,558
47.48866399999993,18.917143999999983,620
47.48866399999993,20.86114399999998,841
46.84066399999993,23.45314399999998,2398
44.572663999999946,26.04514399999998,2847
47.48866399999993,21.50914399999997,875
47.81266399999993,21.50914399999997,908
48.46066399999992,22.15714399999998,457
47.48866399999993,16.973143999999984,65535
49.10866399999992,16.325143999999987,487
49.75666399999992,18.269143999999983,304
46.19266399999994,13.085143999999987,1650
41.98066399999996,12.437143999999988,3045
43.60066399999995,10.493143999999988,3206
45.54466399999994,9.197143999999987,614
47.81266399999993,22.805143999999984,2813
49.75666399999992,22.805143999999984,500
50.72866399999991,3.365143999999992,582
51.05266399999991,4.013143999999992,575
50.72866399999991,4.661143999999991,567
51.05266399999991,4.661143999999991,569
51.05266399999991,3.365143999999992,581
51.05266399999991,2.717143999999992,602
50.40466399999991,4.661143999999991,571
50.72866399999991,2.717143999999992,586
50.40466399999991,4.013143999999992,580
51.05266399999991,5.309143999999991,571
50.72866399999991,5.309143999999991,559
51.37666399999991,3.365143999999992,599
51.37666399999991,4.661143999999991,574
50.72866399999991,5.957143999999991,549
50.40466399999991,5.957143999999991,552
50.40466399999991,3.365143999999992,589
50.40466399999991,5.309143999999991,565
50.08066399999991,5.309143999999991,573
49.75666399999992,5.309143999999991,584
49.75666399999992,5.957143999999991,570
51.37666399999991,5.309143999999991,625
51.700663999999904,4.661143999999991,618
50.08066399999991,4.013143999999992,592
50.08066399999991,5.957143999999991,561
50.08066399999991,4.661143999999991,587
49.43266399999992,5.309143999999991,610
49.43266399999992,5.957143999999991,573
52.0246639999999,4.661143999999991,650
52.3486639999999,4.661143999999991,679
50.72866399999991,15.029143999999986,317
51.05266399999991,15.029143999999986,284
51.05266399999991,13.733143999999989,296
50.40466399999991,13.085143999999987,407
49.10866399999992,7.90114399999999,511
48.78466399999992,7.90114399999999,515
50.40466399999991,7.90114399999999,519
50.08066399999991,7.90114399999999,520
49.75666399999992,7.90114399999999,529
49.43266399999992,7.90114399999999,508
49.75666399999992,8.54914399999999,504
49.43266399999992,8.54914399999999,498
49.43266399999992,9.197143999999987,493
49.10866399999992,9.197143999999987,487
47.48866399999993,7.90114399999999,527
47.81266399999993,7.90114399999999,528
48.136663999999925,7.90114399999999,516
48.136663999999925,9.845143999999989,521
47.81266399999993,9.197143999999987,517
47.81266399999993,8.54914399999999,512
47.81266399999993,9.845143999999989,527
54.940663999999884,9.197143999999987,719
54.616663999999886,9.197143999999987,685
54.29266399999989,9.197143999999987,671
53.96866399999989,9.197143999999987,656
53.64466399999989,9.197143999999987,555
54.616663999999886,9.845143999999989,669
54.29266399999989,9.845143999999989,656
53.96866399999989,9.845143999999989,558
53.64466399999989,10.493143999999988,543
53.96866399999989,10.493143999999988,584
53.96866399999989,11.141143999999988,623
54.29266399999989,10.493143999999988,603
53.32066399999989,10.493143999999988,516
54.940663999999884,11.141143999999988,649
52.6726639999999,13.733143999999989,395
52.3486639999999,13.733143999999989,392
52.3486639999999,14.381143999999988,400
52.0246639999999,14.381143999999988,387
52.0246639999999,11.789143999999988,414
52.3486639999999,11.789143999999988,438
52.3486639999999,12.437143999999988,410
52.0246639999999,15.029143999999986,399
51.700663999999904,14.381143999999988,338
52.0246639999999,13.733143999999989,385
51.700663999999904,13.733143999999989,367
52.6726639999999,12.437143999999988,428
53.32066399999989,11.789143999999988,549
53.96866399999989,11.789143999999988,558
53.64466399999989,11.789143999999988,580
53.64466399999989,11.141143999999988,582
53.32066399999989,11.141143999999988,555
52.996663999999896,11.789143999999988,460
52.996663999999896,12.437143999999988,444
52.996663999999896,13.733143999999989,420
53.64466399999989,13.733143999999989,496
53.96866399999989,13.733143999999989,530
54.29266399999989,13.085143999999987,573
53.96866399999989,13.085143999999987,539
53.32066399999989,13.733143999999989,468
52.0246639999999,13.085143999999987,379
51.700663999999904,13.085143999999987,346
52.996663999999896,14.381143999999988,503
52.0246639999999,12.437143999999988,371
51.700663999999904,12.437143999999988,367
51.37666399999991,11.789143999999988,387
51.37666399999991,12.437143999999988,384
52.6726639999999,11.789143999999988,470
53.64466399999989,13.085143999999987,523
53.32066399999989,13.085143999999987,465
52.996663999999896,13.085143999999987,438
53.64466399999989,12.437143999999988,508
51.37666399999991,13.733143999999989,318
53.32066399999989,12.437143999999988,475
52.6726639999999,14.381143999999988,433
51.37666399999991,13.085143999999987,335
53.32066399999989,14.381143999999988,509
52.3486639999999,15.029143999999986,407
52.0246639999999,15.677143999999986,359
51.700663999999904,15.029143999999986,348
51.05266399999991,16.325143999999987,208
51.05266399999991,16.973143999999984,184
51.700663999999904,15.677143999999986,338
51.37666399999991,15.677143999999986,234
51.37666399999991,16.325143999999987,232
50.72866399999991,13.085143999999987,358
50.72866399999991,12.437143999999988,365
51.05266399999991,13.085143999999987,346
51.05266399999991,14.381143999999988,291
50.40466399999991,12.437143999999988,390
50.40466399999991,11.789143999999988,398
50.08066399999991,12.437143999999988,444
50.72866399999991,11.789143999999988,397
51.05266399999991,12.437143999999988,377
50.72866399999991,14.381143999999988,364
51.37666399999991,14.381143999999988,298
50.72866399999991,13.733143999999989,335
50.40466399999991,14.381143999999988,339
51.37666399999991,15.029143999999986,266
55.26466399999988,9.197143999999987,828
55.58866399999988,8.54914399999999,3562
55.91266399999988,8.54914399999999,7039
56.23666399999988,9.197143999999987,7047
56.23666399999988,10.493143999999988,7000
56.23666399999988,9.845143999999989,6987
55.91266399999988,9.845143999999989,6925
56.56066399999988,9.197143999999987,7057
56.56066399999988,8.54914399999999,7100
51.05266399999991,6.60514399999999,534
51.700663999999904,7.90114399999999,528
50.72866399999991,6.60514399999999,547
51.700663999999904,7.25314399999999,536
50.72866399999991,7.25314399999999,544
52.0246639999999,7.25314399999999,543
52.3486639999999,7.90114399999999,544
51.05266399999991,5.957143999999991,544
50.40466399999991,7.25314399999999,526
51.700663999999904,6.60514399999999,542
51.700663999999904,5.957143999999991,548
52.3486639999999,9.197143999999987,481
51.700663999999904,8.54914399999999,521
52.0246639999999,8.54914399999999,528
52.3486639999999,8.54914399999999,518
51.37666399999991,7.90114399999999,534
52.3486639999999,7.25314399999999,561
51.37666399999991,5.957143999999991,581
50.72866399999991,7.90114399999999,564
51.37666399999991,9.197143999999987,514
51.700663999999904,9.197143999999987,493
50.40466399999991,6.60514399999999,586
51.05266399999991,7.90114399999999,546
51.37666399999991,8.54914399999999,535
52.0246639999999,5.957143999999991,591
52.3486639999999,6.60514399999999,596
51.05266399999991,8.54914399999999,584
52.0246639999999,9.197143999999987,482
52.6726639999999,9.197143999999987,510
52.0246639999999,9.845143999999989,482
51.700663999999904,9.845143999999989,512
51.37666399999991,9.845143999999989,526
50.72866399999991,8.54914399999999,522
51.05266399999991,9.845143999999989,531
50.72866399999991,9.845143999999989,510
50.40466399999991,9.845143999999989,483
51.05266399999991,9.197143999999987,560
50.40466399999991,9.197143999999987,502
50.08066399999991,9.197143999999987,505
51.05266399999991,10.493143999999988,442
50.40466399999991,8.54914399999999,511
50.72866399999991,9.197143999999987,532
49.75666399999992,9.197143999999987,504
52.996663999999896,9.197143999999987,549
52.3486639999999,9.845143999999989,465
52.996663999999896,8.54914399999999,566
52.996663999999896,7.90114399999999,593
53.32066399999989,7.90114399999999,703
53.32066399999989,7.25314399999999,733
53.64466399999989,7.25314399999999,778
52.996663999999896,10.493143999999988,503
52.6726639999999,10.493143999999988,496
52.6726639999999,9.845143999999989,480
53.32066399999989,9.845143999999989,529
53.32066399999989,9.197143999999987,548
53.64466399999989,8.54914399999999,590
53.32066399999989,8.54914399999999,569
52.6726639999999,8.54914399999999,543
52.0246639999999,10.493143999999988,452
52.0246639999999,11.141143999999988,408
51.700663999999904,11.141143999999988,400
52.6726639999999,7.25314399999999,905
52.996663999999896,7.25314399999999,879
52.6726639999999,7.90114399999999,607
53.64466399999989,7.90114399999999,851
52.996663999999896,11.141143999999988,461
52.6726639999999,11.141143999999988,442
52.3486639999999,10.493143999999988,444
52.996663999999896,9.845143999999989,516
51.700663999999904,10.493143999999988,440
51.37666399999991,10.493143999999988,7610
51.700663999999904,11.789143999999988,374
52.3486639999999,11.141143999999988,425
51.37666399999991,11.141143999999988,440
51.05266399999991,11.789143999999988,399
49.10866399999992,11.141143999999988,457
48.78466399999992,11.141143999999988,472
48.46066399999992,11.789143999999988,522
49.43266399999992,11.789143999999988,453
50.08066399999991,11.789143999999988,452
49.75666399999992,12.437143999999988,469
49.10866399999992,11.789143999999988,468
48.78466399999992,12.437143999999988,503
48.46066399999992,12.437143999999988,523
49.10866399999992,12.437143999999988,486
48.78466399999992,13.085143999999987,540
48.136663999999925,12.437143999999988,528
47.81266399999993,11.789143999999988,517
48.136663999999925,10.493143999999988,507
47.81266399999993,10.493143999999988,530
48.78466399999992,10.493143999999988,492
47.48866399999993,10.493143999999988,542
48.46066399999992,10.493143999999988,497
49.43266399999992,13.085143999999987,533
48.46066399999992,13.085143999999987,551
49.43266399999992,10.493143999999988,464
49.75666399999992,9.845143999999989,443
49.75666399999992,10.493143999999988,438
50.40466399999991,11.141143999999988,408
50.08066399999991,11.141143999999988,425
50.72866399999991,11.141143999999988,401
49.75666399999992,11.141143999999988,436
48.78466399999992,11.789143999999988,483
50.40466399999991,10.493143999999988,583
50.08066399999991,9.845143999999989,474
50.08066399999991,10.493143999999988,440
49.43266399999992,12.437143999999988,483
49.75666399999992,11.789143999999988,450
49.10866399999992,13.085143999999987,530
50.72866399999991,10.493143999999988,451
49.10866399999992,10.493143999999988,470
48.78466399999992,9.845143999999989,496
48.46066399999992,8.54914399999999,499
48.46066399999992,9.197143999999987,514
48.78466399999992,9.197143999999987,490
48.78466399999992,8.54914399999999,507
50.08066399999991,7.25314399999999,530
49.75666399999992,6.60514399999999,557
49.43266399999992,6.60514399999999,534
49.10866399999992,6.60514399999999,556
49.43266399999992,7.25314399999999,528
49.75666399999992,7.25314399999999,564
49.10866399999992,5.957143999999991,569
48.78466399999992,7.25314399999999,530
50.08066399999991,6.60514399999999,554
47.48866399999993,9.197143999999987,525
48.136663999999925,8.54914399999999,505
48.136663999999925,9.197143999999987,512
47.81266399999993,7.25314399999999,535
49.43266399999992,9.845143999999989,465
49.10866399999992,9.845143999999989,483
53.64466399999989,14.381143999999988,503
50.08066399999991,13.085143999999987,395
49.75666399999992,13.085143999999987,395
45.86866399999994,9.197143999999987,611
46.19266399999994,9.197143999999987,589
46.516663999999935,8.54914399999999,590
46.516663999999935,9.197143999999987,617
46.19266399999994,8.54914399999999,581
47.16466399999993,8.54914399999999,527
45.86866399999994,4.661143999999991,634
46.84066399999993,9.845143999999989,552
45.22066399999994,5.957143999999991,651
45.22066399999994,5.309143999999991,666
45.86866399999994,5.957143999999991,613
45.54466399999994,5.957143999999991,623
44.89666399999994,4.661143999999991,680
44.89666399999994,5.309143999999991,688
44.572663999999946,4.661143999999991,719
44.24866399999995,4.661143999999991,735
43.92466399999995,4.661143999999991,724
46.19266399999994,7.25314399999999,572
48.78466399999992,5.957143999999991,579
48.136663999999925,6.60514399999999,566
48.46066399999992,6.60514399999999,554
48.78466399999992,6.60514399999999,563
47.16466399999993,7.90114399999999,532
48.136663999999925,7.25314399999999,537
48.46066399999992,7.25314399999999,542
46.516663999999935,6.60514399999999,587
46.84066399999993,6.60514399999999,557
46.84066399999993,7.25314399999999,551
46.516663999999935,5.957143999999991,591
46.19266399999994,5.957143999999991,599
46.84066399999993,8.54914399999999,532
46.84066399999993,7.90114399999999,541
45.86866399999994,5.309143999999991,630
46.19266399999994,6.60514399999999,589
45.86866399999994,6.60514399999999,583
47.48866399999993,6.60514399999999,570
47.48866399999993,7.25314399999999,537
47.16466399999993,7.25314399999999,534
49.10866399999992,4.013143999999992,627
49.75666399999992,4.661143999999991,597
49.43266399999992,4.661143999999991,635
49.10866399999992,5.309143999999991,596
46.19266399999994,4.661143999999991,649
46.84066399999993,9.197143999999987,534
46.19266399999994,5.309143999999991,641
46.516663999999935,5.309143999999991,599
45.54466399999994,6.60514399999999,681
45.54466399999994,5.309143999999991,651
43.60066399999995,4.013143999999992,762
43.60066399999995,3.365143999999992,777
42.62866399999996,2.717143999999992,865
43.276663999999954,2.717143999999992,812
45.54466399999994,4.661143999999991,641
45.22066399999994,4.661143999999991,654
47.16466399999993,5.309143999999991,599
47.16466399999993,5.957143999999991,581
46.19266399999994,7.90114399999999,568
49.75666399999992,2.717143999999992,652
49.10866399999992,2.717143999999992,674
48.78466399999992,2.717143999999992,688
45.86866399999994,3.365143999999992,774
46.84066399999993,3.365143999999992,772
46.516663999999935,3.365143999999992,768
46.19266399999994,3.365143999999992,749
47.16466399999993,6.60514399999999,584
49.10866399999992,3.365143999999992,642
45.54466399999994,4.013143999999992,649
46.516663999999935,7.25314399999999,568
47.16466399999993,4.661143999999991,604
46.84066399999993,4.661143999999991,625
46.516663999999935,4.661143999999991,636
46.84066399999993,5.957143999999991,575
47.81266399999993,3.365143999999992,720
47.48866399999993,4.013143999999992,669
48.136663999999925,4.013143999999992,709
47.81266399999993,4.013143999999992,680
47.48866399999993,4.661143999999991,661
47.16466399999993,3.365143999999992,806
46.84066399999993,4.013143999999992,679
48.46066399999992,5.957143999999991,585
46.19266399999994,2.717143999999992,890
47.16466399999993,2.0691439999999925,756
46.516663999999935,2.717143999999992,862
46.84066399999993,2.717143999999992,842
46.84066399999993,2.0691439999999925,813
47.16466399999993,2.717143999999992,788
44.572663999999946,5.309143999999991,752
44.572663999999946,5.957143999999991,790
44.89666399999994,6.60514399999999,687
44.572663999999946,6.60514399999999,746
43.60066399999995,5.309143999999991,746
43.92466399999995,7.25314399999999,887
43.60066399999995,6.60514399999999,875
43.276663999999954,6.60514399999999,849
43.276663999999954,5.957143999999991,791
45.86866399999994,8.54914399999999,604
45.54466399999994,8.54914399999999,620
48.136663999999925,3.365143999999992,740
48.46066399999992,3.365143999999992,732
48.46066399999992,2.717143999999992,712
47.48866399999993,5.309143999999991,632
46.516663999999935,9.845143999999989,584
46.84066399999993,10.493143999999988,1331
47.81266399999993,5.309143999999991,665
45.22066399999994,6.60514399999999,681
46.19266399999994,4.013143999999992,670
45.86866399999994,4.013143999999992,662
45.22066399999994,4.013143999999992,682
44.89666399999994,4.013143999999992,730
46.84066399999993,5.309143999999991,621
48.136663999999925,-1.8188560000000056,805
48.136663999999925,0.1251439999999934,747
48.136663999999925,-0.5228560000000062,777
47.48866399999993,-0.5228560000000062,771
47.16466399999993,-1.8188560000000056,813
47.48866399999993,0.7731439999999932,726
47.16466399999993,0.1251439999999934,741
45.86866399999994,7.25314399999999,589
48.136663999999925,5.309143999999991,696
49.10866399999992,4.661143999999991,637
48.46066399999992,4.013143999999992,770
48.136663999999925,4.661143999999991,731
47.81266399999993,6.60514399999999,583
47.48866399999993,5.957143999999991,621
48.136663999999925,5.957143999999991,1886
45.86866399999994,7.90114399999999,587
46.516663999999935,7.90114399999999,557
49.43266399999992,3.365143999999992,644
49.43266399999992,4.013143999999992,640
48.136663999999925,2.717143999999992,1338
47.81266399999993,2.717143999999992,1314
47.48866399999993,2.717143999999992,1292
50.40466399999991,2.717143999999992,603
48.46066399999992,-4.410856000000004,1445
48.46066399999992,-3.7628560000000046,1400
48.46066399999992,-3.114856000000005,1385
48.46066399999992,-2.4668560000000053,855
47.48866399999993,1.4211439999999929,753
47.16466399999993,1.4211439999999929,818
46.516663999999935,4.013143999999992,685
43.60066399999995,4.661143999999991,765
44.89666399999994,2.717143999999992,1409
45.22066399999994,2.717143999999992,1403
45.54466399999994,3.365143999999992,830
45.22066399999994,3.365143999999992,850
47.48866399999993,3.365143999999992,776
46.19266399999994,9.845143999999989,622
47.81266399999993,2.0691439999999925,724
47.48866399999993,2.0691439999999925,735
45.86866399999994,2.717143999999992,1343
44.89666399999994,5.957143999999991,697
45.22066399999994,1.4211439999999929,962
44.89666399999994,1.4211439999999929,1249
44.89666399999994,2.0691439999999925,1369
43.276663999999954,2.0691439999999925,876
43.60066399999995,1.4211439999999929,922
48.78466399999992,4.661143999999991,610
48.78466399999992,5.309143999999991,591
46.19266399999994,2.0691439999999925,1349
45.86866399999994,1.4211439999999929,845
46.19266399999994,1.4211439999999929,866
44.572663999999946,4.013143999999992,1533
44.89666399999994,3.365143999999992,1474
43.92466399999995,4.013143999999992,812
44.24866399999995,4.013143999999992,794
44.89666399999994,-0.5228560000000062,794
45.54466399999994,0.1251439999999934,803
46.516663999999935,0.1251439999999934,760
44.572663999999946,2.0691439999999925,1287
49.75666399999992,4.013143999999992,630
43.92466399999995,3.365143999999992,1416
43.92466399999995,2.717143999999992,1447
44.24866399999995,3.365143999999992,1472
44.572663999999946,3.365143999999992,1517
49.10866399999992,0.1251439999999934,718
49.43266399999992,0.7731439999999932,698
49.43266399999992,-1.8188560000000056,781
49.10866399999992,-1.170856000000006,757
49.10866399999992,-0.5228560000000062,740
49.10866399999992,0.7731439999999932,715
49.10866399999992,1.4211439999999929,705
47.81266399999993,-1.8188560000000056,1359
47.81266399999993,-2.4668560000000053,1375
47.81266399999993,-3.114856000000005,1400
48.136663999999925,-3.7628560000000046,1419
44.572663999999946,9.197143999999987,656
44.89666399999994,8.54914399999999,627
45.22066399999994,9.197143999999987,619
45.54466399999994,10.493143999999988,667
44.572663999999946,10.493143999999988,1798
44.89666399999994,10.493143999999988,695
44.89666399999994,9.845143999999989,729
48.46066399999992,5.309143999999991,723
50.91599999999999,-1.0580000000000025,65535
51.23999999999999,-0.4100000000000028,65535
50.91599999999999,-0.4100000000000028,65535
51.23999999999999,-2.354000000000002,65535
51.56399999999999,-2.354000000000002,65535
51.56399999999999,-3.0020000000000016,65535
50.91599999999999,-2.354000000000002,65535
53.50799999999997,-3.0020000000000016,65535
53.183999999999976,-2.354000000000002,65535
53.183999999999976,-3.0020000000000016,65535
52.85999999999998,-2.354000000000002,65535
52.21199999999998,-1.0580000000000025,65535
51.887999999999984,-1.0580000000000025,65535
52.53599999999998,-1.0580000000000025,65535
52.53599999999998,-1.7060000000000022,65535
52.85999999999998,-1.7060000000000022,65535
53.50799999999997,-2.354000000000002,65535
52.85999999999998,-1.0580000000000025,65535
52.53599999999998,1.5339999999999965,65535
52.53599999999998,0.8859999999999966,65535
52.53599999999998,0.2379999999999968,65535
52.53599999999998,-0.4100000000000028,65535
53.50799999999997,-1.7060000000000022,65535
53.183999999999976,-1.7060000000000022,65535
53.183999999999976,-1.0580000000000025,65535
52.85999999999998,-0.4100000000000028,65535
51.887999999999984,-2.354000000000002,65535
52.21199999999998,-2.354000000000002,65535
55.77599999999996,-2.354000000000002,65535
53.83199999999997,-1.0580000000000025,65535
53.83199999999997,-1.7060000000000022,65535
55.127999999999965,-1.7060000000000022,65535
54.80399999999997,-1.7060000000000022,65535
54.47999999999997,-1.7060000000000022,65535
54.15599999999997,-1.0580000000000025,65535
52.21199999999998,-1.7060000000000022,65535
53.50799999999997,-1.0580000000000025,65535
55.77599999999996,-3.0020000000000016,65535
55.45199999999996,-1.7060000000000022,65535
57.07199999999995,-2.354000000000002,65535
56.74799999999996,-3.0020000000000016,65535
56.42399999999996,-3.0020000000000016,65535
56.09999999999996,-3.650000000000001,65535
50.91599999999999,-3.0020000000000016,65535
50.91599999999999,-3.650000000000001,65535
50.59199999999999,-3.650000000000001,65535
50.59199999999999,-4.298000000000001,65535
51.23999999999999,-3.0020000000000016,65535
50.268,-4.946000000000001,65535
55.77599999999996,-3.650000000000001,65535
55.77599999999996,-4.298000000000001,65535
52.21199999999998,-0.4100000000000028,65535
52.53599999999998,-2.354000000000002,65535
51.56399999999999,-1.7060000000000022,65535
51.56399999999999,-3.650000000000001,65535
51.887999999999984,-4.298000000000001,65535
51.56399999999999,-4.298000000000001,65535
51.887999999999984,-1.7060000000000022,65535
52.21199999999998,-3.0020000000000016,65535
51.23999999999999,0.2379999999999968,65535
50.91599999999999,0.2379999999999968,65535
52.21199999999998,0.2379999999999968,65535
53.83199999999997,-3.0020000000000016,65535
54.15599999999997,-3.0020000000000016,65535
54.47999999999997,-3.0020000000000016,65535
55.127999999999965,-3.650000000000001,65535
54.80399999999997,-3.0020000000000016,65535
53.83199999999997,-2.354000000000002,65535
54.15599999999997,-0.4100000000000028,65535
54.47999999999997,-1.0580000000000025,65535
53.83199999999997,-0.4100000000000028,65535
53.183999999999976,-3.650000000000001,65535
53.183999999999976,-4.298000000000001,65535
52.85999999999998,-3.0020000000000016,65535
52.53599999999998,-3.0020000000000016,65535
51.887999999999984,-3.0020000000000016,65535
51.23999999999999,0.8859999999999966,65535
51.887999999999984,0.2379999999999968,65535
52.21199999999998,0.8859999999999966,65535
51.887999999999984,-4.946000000000001,65535
52.53599999999998,-3.650000000000001,65535
52.21199999999998,-4.298000000000001,65535
53.183999999999976,-0.4100000000000028,65535
51.23999999999999,-3.650000000000001,65535
51.887999999999984,-3.650000000000001,65535
52.21199999999998,-3.650000000000001,65535
51.56399999999999,0.8859999999999966,65535
51.887999999999984,0.8859999999999966,65535
52.85999999999998,0.8859999999999966,65535
53.50799999999997,-0.4100000000000028,65535
56.09999999999996,-4.298000000000001,65535
56.74799999999996,-4.946000000000001,65535
56.74799999999996,-4.298000000000001,65535
56.42399999999996,-4.946000000000001,65535
56.42399999999996,-4.298000000000001,65535
56.09999999999996,-4.946000000000001,65535
57.39599999999995,-4.298000000000001,65535
57.39599999999995,-3.0020000000000016,65535
57.39599999999995,-3.650000000000001,65535
56.42399999999996,-3.650000000000001,65535
57.07199999999995,-3.650000000000001,65535
57.07199999999995,-4.298000000000001,65535
56.74799999999996,-3.650000000000001,65535
59.15266399999986,27.34114399999998,65535
59.47666399999986,26.69314399999997,65535
59.47666399999986,26.04514399999998,65535
59.15266399999986,26.04514399999998,65535
59.15266399999986,24.74914399999998,65535
59.15266399999986,25.397143999999983,65535
59.47666399999986,25.397143999999983,65535
58.50466399999986,26.69314399999997,65535
58.82866399999986,26.69314399999997,65535
57.85666399999987,26.04514399999998,65535
58.180663999999865,26.04514399999998,65535
58.180663999999865,26.69314399999997,65535
58.82866399999986,26.04514399999998,65535
58.50466399999986,25.397143999999983,65535
58.82866399999986,25.397143999999983,65535
58.82866399999986,24.74914399999998,65535
58.180663999999865,27.34114399999998,65535
57.85666399999987,27.34114399999998,65535
63.68866399999983,27.34114399999998,7557
60.124663999999854,24.74914399999998,4213
60.44866399999985,24.74914399999998,4182
60.44866399999985,25.397143999999983,4194
60.77266399999985,25.397143999999983,4905
61.09666399999985,26.04514399999998,4948
60.77266399999985,26.04514399999998,4956
60.77266399999985,26.69314399999997,4975
61.09666399999985,25.397143999999983,4939
61.09666399999985,26.69314399999997,7678
61.420663999999846,26.69314399999997,7700
61.74466399999984,27.34114399999998,7724
62.06866399999984,27.34114399999998,7749
62.39266399999984,27.34114399999998,7773
62.71666399999984,27.34114399999998,7737
64.01266399999983,27.34114399999998,7513
63.36466399999984,27.34114399999998,7625
63.04066399999984,27.34114399999998,7665
63.04066399999984,27.989143999999985,7680
64.33666399999983,27.989143999999985,5264
64.33666399999983,27.34114399999998,5209
64.66066399999983,27.34114399999998,5194
64.66066399999983,26.69314399999997,5139
64.98466399999982,25.397143999999983,3559
64.66066399999983,26.04514399999998,5120
64.98466399999982,26.04514399999998,5104
66.28066399999982,25.397143999999983,3731
65.95666399999982,24.74914399999998,3472
65.63266399999982,24.74914399999998,3476
65.63266399999982,25.397143999999983,3518
65.30866399999982,25.397143999999983,3539
66.60466399999981,25.397143999999983,3765
64.01266399999983,24.74914399999998,3696
64.01266399999983,24.101143999999977,3731
64.01266399999983,23.45314399999998,3755
63.68866399999983,23.45314399999998,3767
63.68866399999983,22.805143999999984,3792
63.68866399999983,26.04514399999998,5824
63.68866399999983,25.397143999999983,5790
63.68866399999983,26.69314399999997,7524
60.44866399999985,26.69314399999997,8309
64.01266399999983,27.989143999999985,7943
62.71666399999984,22.805143999999984,3914
62.39266399999984,22.805143999999984,3946
62.06866399999984,22.805143999999984,3975
62.06866399999984,23.45314399999998,3991
61.74466399999984,23.45314399999998,4003
61.420663999999846,23.45314399999998,4051
61.09666399999985,23.45314399999998,4092
61.09666399999985,24.101143999999977,4099
61.09666399999985,24.74914399999998,4133
60.77266399999985,24.74914399999998,4149
63.04066399999984,21.50914399999997,65535
63.04066399999984,22.15714399999998,65535
63.04066399999984,22.805143999999984,3878
62.39266399999984,26.04514399999998,7921
62.06866399999984,25.397143999999983,7970
61.74466399999984,25.397143999999983,8038
61.74466399999984,24.74914399999998,8075
61.74466399999984,24.101143999999977,4280
61.420663999999846,24.101143999999977,4235
62.39266399999984,26.69314399999997,7892
64.66066399999983,25.397143999999983,3628
64.66066399999983,24.74914399999998,3646
64.33666399999983,24.74914399999998,3657
63.36466399999984,22.805143999999984,3817
67.25266399999981,24.101143999999977,7345
66.92866399999981,24.101143999999977,7309
66.60466399999981,23.45314399999998,7278
66.28066399999982,23.45314399999998,7260
66.28066399999982,24.101143999999977,7242
65.95666399999982,24.101143999999977,2844
60.124663999999854,24.101143999999977,5727
60.124663999999854,23.45314399999998,6585
60.44866399999985,22.805143999999984,6644
60.77266399999985,27.34114399999998,5027
61.09666399999985,27.989143999999985,5057
61.09666399999985,28.63714399999997,5095
61.420663999999846,29.28514399999997,5130
61.74466399999984,29.933143999999977,5167
62.06866399999984,29.933143999999977,5193
62.39266399999984,29.933143999999977,5209
62.71666399999984,29.933143999999977,5233
61.420663999999846,22.805143999999984,6338
61.420663999999846,22.15714399999998,7046
61.09666399999985,22.15714399999998,6384
61.420663999999846,21.50914399999997,7179
62.39266399999984,27.989143999999985,65535
62.06866399999984,27.989143999999985,65535
61.420663999999846,27.34114399999998,65535
63.04066399999984,29.933143999999977,7172
63.68866399999983,29.28514399999997,8955
63.36466399999984,29.28514399999997,8935
63.36466399999984,29.933143999999977,8894
60.44866399999985,27.34114399999998,65535
61.74466399999984,29.28514399999997,65535
62.39266399999984,30.58114399999998,65535
62.71666399999984,31.229143999999977,65535
62.71666399999984,29.28514399999997,65535
63.04066399999984,28.63714399999997,65535
66.60466399999981,26.04514399999998,6586
66.60466399999981,26.69314399999997,6622
66.60466399999981,27.34114399999998,6645
62.71666399999984,26.04514399999998,7806
62.71666399999984,25.397143999999983,7775
63.04066399999984,25.397143999999983,7595
63.36466399999984,25.397143999999983,6232
62.71666399999984,23.45314399999998,7800
62.39266399999984,24.101143999999977,65535
62.71666399999984,22.15714399999998,65535
62.39266399999984,22.15714399999998,65535
62.39266399999984,21.50914399999997,65535
61.09666399999985,21.50914399999997,6414
60.77266399999985,22.805143999999984,4452
60.44866399999985,22.15714399999998,4482
60.77266399999985,23.45314399999998,4439
60.77266399999985,21.50914399999997,5553
60.77266399999985,22.15714399999998,5506
60.124663999999854,22.805143999999984,8599
60.44866399999985,24.101143999999977,5712
62.06866399999984,24.74914399999998,65535
50.72866399999991,16.325143999999987,244
50.40466399999991,16.973143999999984,319
50.72866399999991,16.973143999999984,234
50.40466399999991,16.325143999999987,368
50.08066399999991,16.973143999999984,440
50.08066399999991,16.325143999999987,393
51.700663999999904,16.973143999999984,247
51.37666399999991,16.973143999999984,218
51.05266399999991,15.677143999999986,320
50.72866399999991,15.677143999999986,262
51.05266399999991,17.621143999999987,179
51.37666399999991,17.621143999999987,186
51.700663999999904,17.621143999999987,200
51.700663999999904,16.325143999999987,245
52.0246639999999,22.15714399999998,418
52.0246639999999,21.50914399999997,358
52.3486639999999,21.50914399999997,354
52.0246639999999,20.86114399999998,357
51.700663999999904,20.86114399999998,392
51.37666399999991,21.50914399999997,417
51.37666399999991,20.86114399999998,402
51.05266399999991,20.86114399999998,344
52.6726639999999,23.45314399999998,546
52.3486639999999,22.805143999999984,486
52.3486639999999,20.213143999999986,373
52.0246639999999,20.213143999999986,375
52.3486639999999,19.565143999999982,484
52.6726639999999,19.565143999999982,520
51.700663999999904,21.50914399999997,430
51.700663999999904,22.15714399999998,446
52.6726639999999,21.50914399999997,393
52.996663999999896,21.50914399999997,445
52.6726639999999,20.86114399999998,383
52.6726639999999,22.15714399999998,409
52.6726639999999,20.213143999999986,460
52.996663999999896,19.565143999999982,531
52.996663999999896,20.86114399999998,416
52.996663999999896,20.213143999999986,425
53.32066399999989,20.213143999999986,521
51.37666399999991,20.213143999999986,499
52.3486639999999,16.973143999999984,268
52.0246639999999,16.973143999999984,294
52.0246639999999,16.325143999999987,301
52.0246639999999,17.621143999999987,229
52.6726639999999,16.973143999999984,294
52.996663999999896,16.973143999999984,330
52.3486639999999,16.325143999999987,321
52.3486639999999,15.677143999999986,355
51.700663999999904,18.269143999999983,456
52.6726639999999,17.621143999999987,325
52.3486639999999,17.621143999999987,285
52.6726639999999,18.269143999999983,414
52.3486639999999,18.269143999999983,397
52.3486639999999,18.917143999999983,444
52.996663999999896,17.621143999999987,438
51.700663999999904,19.565143999999982,394
51.700663999999904,18.917143999999983,419
51.37666399999991,18.269143999999983,156
58.82866399999986,9.197143999999987,1808
58.180663999999865,7.90114399999999,1901
58.50466399999986,8.54914399999999,1852
63.36466399999984,10.493143999999988,2023
63.36466399999984,11.141143999999988,2030
63.36466399999984,11.789143999999988,2065
63.68866399999983,11.789143999999988,2093
64.33666399999983,12.437143999999988,2494
64.66066399999983,12.437143999999988,2989
65.63266399999982,13.085143999999987,2646
65.95666399999982,13.085143999999987,2681
66.28066399999982,14.381143999999988,2751
65.95666399999982,13.733143999999989,2820
66.28066399999982,13.733143999999989,2729
65.30866399999982,13.085143999999987,2947
64.98466399999982,13.085143999999987,2581
64.01266399999983,11.789143999999988,2124
63.68866399999983,11.141143999999988,2061
59.800663999999855,10.493143999999988,1604
59.800663999999855,11.141143999999988,1587
60.124663999999854,11.141143999999988,1602
60.44866399999985,11.141143999999988,1615
60.124663999999854,11.789143999999988,1628
60.77266399999985,7.25314399999999,1864
60.77266399999985,6.60514399999999,1910
59.15266399999986,9.197143999999987,1690
59.47666399999986,9.197143999999987,1711
59.800663999999855,9.845143999999989,1606
59.47666399999986,11.141143999999988,1551
61.09666399999985,10.493143999999988,1725
60.77266399999985,10.493143999999988,1695
60.77266399999985,11.141143999999988,1650
62.06866399999984,9.197143999999987,2050
61.74466399999984,9.845143999999989,1996
61.420663999999846,9.845143999999989,1973
59.15266399999986,9.845143999999989,1670
59.47666399999986,9.845143999999989,1646
58.82866399999986,5.957143999999991,2085
58.180663999999865,7.25314399999999,1957
58.50466399999986,7.25314399999999,1990
58.50466399999986,6.60514399999999,1995
58.50466399999986,5.957143999999991,2053
58.82866399999986,8.54914399999999,1838
60.44866399999985,7.25314399999999,1838
60.44866399999985,7.90114399999999,1799
60.124663999999854,10.493143999999988,1636
60.44866399999985,9.197143999999987,1748
60.77266399999985,9.197143999999987,1760
60.77266399999985,8.54914399999999,1779
60.124663999999854,9.845143999999989,2015
60.44866399999985,10.493143999999988,1681
63.04066399999984,10.493143999999988,1974
62.06866399999984,9.845143999999989,2075
62.39266399999984,9.845143999999989,2083
62.71666399999984,9.845143999999989,2107
59.47666399999986,14.381143999999988,1600
59.47666399999986,13.733143999999989,1541
59.47666399999986,13.085143999999987,1517
59.800663999999855,12.437143999999988,1586
59.15266399999986,11.141143999999988,1515
59.15266399999986,14.381143999999988,1614
58.82866399999986,11.789143999999988,1495
58.50466399999986,12.437143999999988,1425
58.180663999999865,12.437143999999988,1418
57.85666399999987,11.789143999999988,1369
62.71666399999984,7.90114399999999,2136
62.39266399999984,7.90114399999999,2093
62.06866399999984,8.54914399999999,2068
60.44866399999985,5.309143999999991,1984
60.44866399999985,5.957143999999991,1951
60.77266399999985,5.957143999999991,1940
62.39266399999984,11.141143999999988,1871
62.06866399999984,10.493143999999988,1826
61.74466399999984,11.141143999999988,1799
61.420663999999846,11.141143999999988,1753
61.09666399999985,11.141143999999988,1736
60.77266399999985,11.789143999999988,1713
63.04066399999984,11.141143999999988,1952
62.71666399999984,11.141143999999988,1895
62.39266399999984,10.493143999999988,1853
67.25266399999981,15.677143999999986,2870
67.25266399999981,15.029143999999986,2908
67.25266399999981,14.381143999999988,2936
66.92866399999981,15.029143999999986,2859
66.60466399999981,15.677143999999986,2837
64.01266399999983,11.141143999999988,2108
66.60466399999981,15.029143999999986,2900
54.29266399999989,18.269143999999983,536
54.616663999999886,17.621143999999987,554
53.96866399999989,18.269143999999983,498
43.92466399999995,1.4211439999999929,902
44.24866399999995,0.7731439999999932,863
44.572663999999946,0.1251439999999934,849
46.84066399999993,1.4211439999999929,826
44.572663999999946,1.4211439999999929,1390
44.24866399999995,1.4211439999999929,1374
45.54466399999994,1.4211439999999929,888
46.516663999999935,1.4211439999999929,842
42.30466399999996,2.717143999999992,1471
44.24866399999995,2.717143999999992,1386
44.572663999999946,2.717143999999992,1353
43.92466399999995,2.0691439999999925,1359
42.30466399999996,2.0691439999999925,1512
42.62866399999996,2.0691439999999925,1419
42.62866399999996,1.4211439999999929,1412
42.95266399999996,1.4211439999999929,1405
43.276663999999954,1.4211439999999929,1350
46.516663999999935,-1.170856000000006,905
46.19266399999994,-1.170856000000006,866
45.86866399999994,-0.5228560000000062,884
45.54466399999994,-0.5228560000000062,864
48.46066399999992,1.4211439999999929,685
41.332663999999966,2.0691439999999925,1714
41.98066399999996,2.717143999999992,1673
48.46066399999992,-1.8188560000000056,838
47.81266399999993,0.7731439999999932,733
46.84066399999993,0.7731439999999932,811
44.572663999999946,-1.170856000000006,805
43.60066399999995,-1.170856000000006,1351
43.276663999999954,-1.8188560000000056,1386
43.276663999999954,0.1251439999999934,1420
42.95266399999996,0.1251439999999934,1424
43.276663999999954,-0.5228560000000062,1388
43.60066399999995,-0.5228560000000062,1376
47.81266399999993,-3.7628560000000046,1435
47.48866399999993,-2.4668560000000053,894
47.81266399999993,-0.5228560000000062,1325
46.516663999999935,-1.8188560000000056,1386
48.136663999999925,-1.170856000000006,822
47.48866399999993,-1.170856000000006,1321
45.22066399999994,8.54914399999999,622
45.22066399999994,7.90114399999999,635
46.19266399999994,-0.5228560000000062,822
46.516663999999935,-0.5228560000000062,1353
48.78466399999992,-3.114856000000005,1458
50.72866399999991,2.0691439999999925,600
50.40466399999991,2.0691439999999925,618
40.36066399999997,-3.7628560000000046,1905
41.65666399999997,-1.170856000000006,1822
41.332663999999966,1.4211439999999929,1760
43.276663999999954,13.733143999999989,4390
42.95266399999996,13.733143999999989,4412
41.65666399999997,15.029143999999986,4496
40.68466399999997,17.621143999999987,4658
43.60066399999995,13.085143999999987,4383
41.65666399999997,12.437143999999988,3049
41.65666399999997,13.085143999999987,3068
41.98066399999996,13.085143999999987,3118
41.65666399999997,13.733143999999989,3120
41.332663999999966,13.733143999999989,3112
41.332663999999966,14.381143999999988,3269
41.00866399999997,14.381143999999988,3175
41.332663999999966,13.085143999999987,3094
41.00866399999997,15.029143999999986,3375
41.98066399999996,13.733143999999989,3317
42.30466399999996,14.381143999999988,3456
42.30466399999996,12.437143999999988,3057
42.62866399999996,12.437143999999988,3236
42.95266399999996,12.437143999999988,3521
42.30466399999996,11.789143999999988,3066
42.95266399999996,11.789143999999988,3276
42.62866399999996,11.789143999999988,3267
43.276663999999954,11.789143999999988,3330
42.95266399999996,13.085143999999987,4284
42.30466399999996,13.085143999999987,3343
43.276663999999954,13.085143999999987,4332
43.276663999999954,12.437143999999988,4339
42.62866399999996,11.141143999999988,3112
42.95266399999996,11.141143999999988,3155
42.95266399999996,10.493143999999988,3173
44.572663999999946,8.54914399999999,650
44.89666399999994,7.90114399999999,632
44.89666399999994,9.197143999999987,672
44.24866399999995,7.90114399999999,657
44.572663999999946,7.90114399999999,641
43.92466399999995,7.90114399999999,1351
44.24866399999995,7.25314399999999,661
44.89666399999994,7.25314399999999,647
45.22066399999994,7.25314399999999,658
45.54466399999994,7.90114399999999,638
44.572663999999946,7.25314399999999,687
52.996663999999896,22.805143999999984,643
52.996663999999896,23.45314399999998,633
51.37666399999991,22.15714399999998,579
51.37666399999991,22.805143999999984,626
50.08066399999991,20.213143999999986,89
50.72866399999991,20.213143999999986,224
50.40466399999991,20.213143999999986,64
50.08066399999991,20.86114399999998,385
50.08066399999991,21.50914399999997,426
50.08066399999991,22.15714399999998,445
50.08066399999991,22.805143999999984,467
53.96866399999989,22.805143999999984,867
53.64466399999989,23.45314399999998,820
53.32066399999989,23.45314399999998,777
50.40466399999991,19.565143999999982,27
50.08066399999991,18.917143999999983,59
50.08066399999991,18.269143999999983,272
52.0246639999999,22.805143999999984,467
52.0246639999999,23.45314399999998,504
51.37666399999991,19.565143999999982,354
51.05266399999991,19.565143999999982,60
50.72866399999991,18.917143999999983,0
50.72866399999991,19.565143999999982,577
49.75666399999992,18.917143999999983,279
50.40466399999991,18.269143999999983,45
53.64466399999989,19.565143999999982,521
53.96866399999989,18.917143999999983,535
53.64466399999989,18.917143999999983,519
53.64466399999989,20.213143999999986,569
52.996663999999896,18.917143999999983,467
52.996663999999896,18.269143999999983,447
53.32066399999989,18.917143999999983,471
50.72866399999991,17.621143999999987,108
50.72866399999991,18.269143999999983,93
52.6726639999999,16.325143999999987,310
52.996663999999896,16.325143999999987,320
52.996663999999896,15.677143999999986,336
53.32066399999989,15.677143999999986,439
53.32066399999989,15.029143999999986,465
53.64466399999989,15.029143999999986,471
53.96866399999989,15.029143999999986,495
52.6726639999999,18.917143999999983,486
53.32066399999989,16.325143999999987,457
52.6726639999999,15.029143999999986,382
51.05266399999991,22.805143999999984,617
51.05266399999991,23.45314399999998,637
50.72866399999991,22.15714399999998,489
50.40466399999991,22.15714399999998,512
51.05266399999991,22.15714399999998,578
54.616663999999886,16.973143999999984,554
54.29266399999989,16.325143999999987,506
53.96866399999989,15.677143999999986,482
50.72866399999991,21.50914399999997,477
50.40466399999991,21.50914399999997,464
50.40466399999991,17.621143999999987,102
53.32066399999989,22.805143999999984,1277
53.64466399999989,22.15714399999998,718
54.29266399999989,16.973143999999984,532
50.72866399999991,20.86114399999998,262
51.700663999999904,22.805143999999984,828
51.05266399999991,21.50914399999997,491
50.08066399999991,19.565143999999982,74
52.0246639999999,18.917143999999983,8488
52.0246639999999,19.565143999999982,8481
53.64466399999989,18.269143999999983,492
51.700663999999904,20.213143999999986,654
53.32066399999989,19.565143999999982,512
50.72866399999991,23.45314399999998,841
50.72866399999991,22.805143999999984,811
49.43266399999992,20.213143999999986,419
49.75666399999992,21.50914399999997,482
49.75666399999992,22.15714399999998,479
49.43266399999992,22.15714399999998,470
51.05266399999991,18.917143999999983,116
51.05266399999991,18.269143999999983,103
53.32066399999989,16.973143999999984,379
53.64466399999989,16.973143999999984,413
49.75666399999992,20.86114399999998,428
50.40466399999991,22.805143999999984,8570
53.64466399999989,16.325143999999987,448
53.96866399999989,20.86114399999998,673
54.29266399999989,20.86114399999998,719
53.96866399999989,21.50914399999997,824
53.64466399999989,15.677143999999986,502
53.96866399999989,20.213143999999986,601
53.96866399999989,19.565143999999982,564
54.29266399999989,19.565143999999982,574
53.96866399999989,16.325143999999987,468
53.64466399999989,17.621143999999987,444
53.96866399999989,22.15714399999998,738
53.64466399999989,21.50914399999997,674
53.64466399999989,20.86114399999998,626
52.6726639999999,15.677143999999986,359
51.05266399999991,20.213143999999986,1249
54.940663999999884,24.101143999999977,3681
54.616663999999886,23.45314399999998,3625
54.29266399999989,23.45314399999998,3488
53.64466399999989,22.805143999999984,1300
53.96866399999989,16.973143999999984,553
50.40466399999991,20.86114399999998,343
53.32066399999989,18.269143999999983,465
49.75666399999992,19.565143999999982,173
50.40466399999991,23.45314399999998,556
49.75666399999992,20.213143999999986,397
49.43266399999992,19.565143999999982,405
49.43266399999992,20.86114399999998,395
53.96866399999989,17.621143999999987,1323
42.30466399999996,-1.8188560000000056,8799
41.98066399999996,-1.8188560000000056,8782
41.65666399999997,0.7731439999999932,8786
42.62866399999996,-1.8188560000000056,8914
42.95266399999996,-1.8188560000000056,8943
42.62866399999996,-3.114856000000005,9037
42.95266399999996,-2.4668560000000053,9015
42.62866399999996,-7.650856000000003,9379
42.30466399999996,-7.650856000000003,9439
42.30466399999996,-8.946856000000002,9575
42.30466399999996,-8.298856000000002,9549
41.98066399999996,-8.298856000000002,9538
42.30466399999996,-7.002856000000003,9321
42.62866399999996,-6.354856000000003,9263
42.30466399999996,-6.354856000000003,9218
42.62866399999996,-5.706856000000004,8718
41.98066399999996,-4.410856000000004,8672
42.30466399999996,-3.7628560000000046,9063
40.03666399999997,-0.5228560000000062,8766
39.38866399999998,-0.5228560000000062,8814
41.00866399999997,0.7731439999999932,8914
40.68466399999997,0.7731439999999932,8946
40.36066399999997,0.1251439999999934,9024
39.712663999999975,-0.5228560000000062,8923
38.41666399999998,-0.5228560000000062,8935
39.06466399999998,-0.5228560000000062,9057
38.74066399999998,-1.170856000000006,8943
41.332663999999966,0.7731439999999932,8974
41.65666399999997,2.717143999999992,8574
41.65666399999997,2.0691439999999925,8597
41.332663999999966,0.1251439999999934,8932
41.332663999999966,-0.5228560000000062,8876
41.65666399999997,-4.410856000000004,8646
40.03666399999997,-2.4668560000000053,8884
41.00866399999997,-4.410856000000004,8767
43.276663999999954,-5.706856000000004,8848
39.38866399999998,-1.170856000000006,8909
38.09266399999999,-1.170856000000006,9322
38.74066399999998,-0.5228560000000062,9085
37.76866399999999,-1.170856000000006,9387
39.06466399999998,-1.8188560000000056,8907
39.38866399999998,-3.114856000000005,8807
39.38866399999998,-2.4668560000000053,8863
39.06466399999998,-2.4668560000000053,8890
39.06466399999998,-3.114856000000005,8811
39.06466399999998,-3.7628560000000046,8785
38.74066399999998,-3.7628560000000046,8864
40.03666399999997,-3.7628560000000046,8763
40.03666399999997,-3.114856000000005,8963
40.03666399999997,-1.8188560000000056,9044
39.712663999999975,-1.8188560000000056,9009
39.712663999999975,-1.170856000000006,8945
40.36066399999997,-1.170856000000006,8964
40.68466399999997,-1.170856000000006,8942
41.00866399999997,-1.170856000000006,8930
41.332663999999966,-1.170856000000006,8770
43.276663999999954,-8.298856000000002,9539
42.95266399999996,-8.298856000000002,9507
41.65666399999997,-5.706856000000004,65535
41.98066399999996,-7.002856000000003,65535
41.98066399999996,-6.354856000000003,65535
41.332663999999966,-5.058856000000004,8885
43.276663999999954,-3.7628560000000046,9320
42.95266399999996,-4.410856000000004,9254
42.62866399999996,-4.410856000000004,9244
42.30466399999996,-4.410856000000004,9203
41.00866399999997,-5.706856000000004,8823
41.332663999999966,-1.8188560000000056,8716
40.68466399999997,-3.114856000000005,8670
41.00866399999997,-3.114856000000005,8721
41.00866399999997,-2.4668560000000053,8744
41.332663999999966,-2.4668560000000053,8797
40.68466399999997,-4.410856000000004,8707
40.36066399999997,-4.410856000000004,8791
40.68466399999997,-3.7628560000000046,8699
40.36066399999997,-3.114856000000005,8677
41.65666399999997,-2.4668560000000053,8814
38.09266399999999,-3.7628560000000046,8911
38.74066399999998,-3.114856000000005,8855
37.76866399999999,-3.7628560000000046,8968
39.712663999999975,-3.114856000000005,8799
38.41666399999998,-3.7628560000000046,8876
40.03666399999997,-4.410856000000004,65535
40.03666399999997,-5.058856000000004,65535
39.38866399999998,-6.354856000000003,65535
39.38866399999998,-7.002856000000003,65535
42.95266399999996,-3.114856000000005,9448
41.98066399999996,-1.170856000000006,8811
42.30466399999996,-2.4668560000000053,8852
41.65666399999997,-0.5228560000000062,8909
41.98066399999996,-0.5228560000000062,8746
41.65666399999997,0.1251439999999934,8773
41.98066399999996,0.1251439999999934,8795
37.76866399999999,-5.058856000000004,8847
36.79666399999999,-4.410856000000004,8906
38.74066399999998,-4.410856000000004,8803
37.12066399999999,-4.410856000000004,8880
37.44466399999999,-5.058856000000004,9404
37.44466399999999,-7.002856000000003,65535
37.44466399999999,-6.354856000000003,65535
37.44466399999999,-5.706856000000004,9080
39.712663999999975,-3.7628560000000046,8873
42.62866399999996,-8.946856000000002,65535
42.30466399999996,-5.706856000000004,9225
42.30466399999996,-5.058856000000004,9310
42.95266399999996,-5.706856000000004,8750
41.00866399999997,-5.058856000000004,8791
40.68466399999997,-5.058856000000004,8765
41.65666399999997,-5.058856000000004,65535
41.65666399999997,-6.354856000000003,65535
36.79666399999999,-6.354856000000003,65535
37.12066399999999,-5.706856000000004,9248
37.76866399999999,-5.706856000000004,9047
38.09266399999999,-4.410856000000004,9182
37.12066399999999,-5.058856000000004,9202
36.79666399999999,-5.058856000000004,9160
37.76866399999999,-4.410856000000004,65535
37.76866399999999,-7.002856000000003,65535
38.41666399999998,-6.354856000000003,65535
38.09266399999999,-6.354856000000003,65535
48.78466399999992,1.4211439999999929,745
56.23666399999988,8.54914399999999,7090
55.58866399999988,9.197143999999987,6895
55.91266399999988,9.197143999999987,7036
55.26466399999988,10.493143999999988,1074
55.91266399999988,12.437143999999988,1209
55.58866399999988,11.789143999999988,6735
55.58866399999988,11.141143999999988,6776
55.26466399999988,11.789143999999988,6768
55.58866399999988,10.493143999999988,6891
55.58866399999988,13.085143999999987,1166
56.88466399999987,9.845143999999989,7042
57.20866399999987,9.845143999999989,7077
56.56066399999988,9.845143999999989,7014
56.88466399999987,8.54914399999999,7129
54.940663999999884,9.845143999999989,8236
54.940663999999884,11.789143999999988,6992
55.91266399999988,13.085143999999987,1224
56.23666399999988,13.733143999999989,1268
55.91266399999988,13.733143999999989,1271
56.23666399999988,14.381143999999988,1291
56.23666399999988,15.029143999999986,1332
56.23666399999988,15.677143999999986,1387
56.56066399999988,14.381143999999988,1348
56.88466399999987,14.381143999999988,1318
56.23666399999988,13.085143999999987,1216
56.56066399999988,13.085143999999987,1296
56.88466399999987,12.437143999999988,1333
57.20866399999987,12.437143999999988,1349
57.53266399999987,12.437143999999988,1364
56.88466399999987,15.029143999999986,1344
56.56066399999988,15.677143999999986,1404
56.88466399999987,15.677143999999986,1423
56.88466399999987,16.325143999999987,1438
55.91266399999988,11.789143999999988,7061
57.20866399999987,10.493143999999988,7264
49.43266399999992,1.4211439999999929,681
49.75666399999992,0.7731439999999932,698
49.75666399999992,2.0691439999999925,657
50.08066399999991,2.717143999999992,649
49.75666399999992,1.4211439999999929,664
47.81266399999993,1.4211439999999929,774
48.136663999999925,2.0691439999999925,772
48.46066399999992,2.0691439999999925,716
48.136663999999925,1.4211439999999929,744
48.78466399999992,0.1251439999999934,752
48.46066399999992,0.1251439999999934,755
47.81266399999993,0.1251439999999934,1346
46.84066399999993,-0.5228560000000062,809
47.16466399999993,0.7731439999999932,735
46.84066399999993,0.1251439999999934,796
46.84066399999993,-1.170856000000006,877
50.08066399999991,1.4211439999999929,637
50.08066399999991,2.0691439999999925,653
49.43266399999992,2.717143999999992,658
49.75666399999992,3.365143999999992,623
50.08066399999991,3.365143999999992,622
49.10866399999992,2.0691439999999925,695
49.43266399999992,2.0691439999999925,679
48.78466399999992,0.7731439999999932,788
48.78466399999992,-0.5228560000000062,861
48.78466399999992,-1.170856000000006,891
48.136663999999925,0.7731439999999932,775
48.46066399999992,0.7731439999999932,722
43.92466399999995,5.957143999999991,1346
44.24866399999995,5.957143999999991,1317
43.92466399999995,5.309143999999991,761
42.95266399999996,2.717143999999992,856
45.54466399999994,2.0691439999999925,1409
45.22066399999994,2.0691439999999925,1365
42.95266399999996,2.0691439999999925,1410
42.95266399999996,0.7731439999999932,1375
43.276663999999954,0.7731439999999932,1345
46.19266399999994,0.7731439999999932,818
46.516663999999935,0.7731439999999932,788
45.86866399999994,0.1251439999999934,1347
46.19266399999994,0.1251439999999934,1364
47.81266399999993,-1.170856000000006,1456
48.136663999999925,-2.4668560000000053,1368
47.48866399999993,-1.8188560000000056,878
47.16466399999993,-1.170856000000006,844
47.16466399999993,-0.5228560000000062,828
46.84066399999993,-1.8188560000000056,1440
45.22066399999994,-0.5228560000000062,805
44.89666399999994,0.1251439999999934,842
45.22066399999994,0.7731439999999932,881
45.54466399999994,0.7731439999999932,916
45.86866399999994,0.7731439999999932,1412
45.22066399999994,0.1251439999999934,1353
44.89666399999994,0.7731439999999932,886
43.92466399999995,-0.5228560000000062,1387
43.92466399999995,-1.170856000000006,1331
44.24866399999995,-1.170856000000006,1311
45.22066399999994,-1.170856000000006,1433
44.572663999999946,-0.5228560000000062,824
44.24866399999995,0.1251439999999934,871
44.572663999999946,0.7731439999999932,1380
43.276663999999954,-1.170856000000006,1370
42.95266399999996,-0.5228560000000062,1572
44.24866399999995,2.0691439999999925,1359
43.60066399999995,0.7731439999999932,1332
43.60066399999995,2.0691439999999925,1333
52.6726639999999,4.661143999999991,7081
52.6726639999999,5.309143999999991,7104
51.700663999999904,5.309143999999991,7049
52.0246639999999,5.309143999999991,7061
52.3486639999999,5.309143999999991,7077
51.37666399999991,4.013143999999992,7057
52.3486639999999,5.957143999999991,7071
52.0246639999999,6.60514399999999,7101
52.6726639999999,5.957143999999991,7088
52.996663999999896,5.957143999999991,7101
53.32066399999989,5.957143999999991,7095
52.996663999999896,6.60514399999999,7077
53.32066399999989,6.60514399999999,7069
52.6726639999999,6.60514399999999,7097
52.996663999999896,5.309143999999991,7116
59.15266399999986,24.101143999999977,65535
56.88466399999987,24.101143999999977,65535
56.88466399999987,23.45314399999998,65535
56.88466399999987,22.805143999999984,65535
57.20866399999987,24.74914399999998,65535
56.88466399999987,24.74914399999998,65535
56.56066399999988,24.74914399999998,65535
56.56066399999988,25.397143999999983,65535
56.56066399999988,24.101143999999977,65535
56.56066399999988,23.45314399999998,65535
56.56066399999988,26.04514399999998,65535
56.88466399999987,26.04514399999998,65535
57.20866399999987,25.397143999999983,65535
57.53266399999987,25.397143999999983,65535
56.23666399999988,26.04514399999998,65535
56.23666399999988,26.69314399999997,65535
55.91266399999988,26.69314399999997,65535
56.56066399999988,26.69314399999997,65535
56.56066399999988,27.34114399999998,65535
56.56066399999988,27.989143999999985,65535
56.23666399999988,27.989143999999985,65535
55.91266399999988,27.34114399999998,65535
56.56066399999988,22.805143999999984,65535
56.56066399999988,22.15714399999998,65535
56.56066399999988,21.50914399999997,65535
57.20866399999987,26.69314399999997,65535
39.06466399999998,-8.946856000000002,65535
38.41666399999998,-8.298856000000002,65535
45.86866399999994,11.789143999999988,2068
46.19266399999994,11.789143999999988,2055
46.19266399999994,10.493143999999988,2095
45.22066399999994,18.269143999999983,1501
45.22066399999994,18.917143999999983,1575
45.54466399999994,16.973143999999984,1359
45.22066399999994,17.621143999999987,1436
45.86866399999994,16.325143999999987,1304
45.54466399999994,18.917143999999983,1615
45.54466399999994,16.325143999999987,1315
45.54466399999994,18.269143999999983,1593
44.89666399999994,18.917143999999983,1896
46.19266399999994,16.973143999999984,1290
46.19266399999994,16.325143999999987,1274
45.86866399999994,16.973143999999984,1344
45.86866399999994,17.621143999999987,1381
46.19266399999994,15.677143999999986,1309
46.516663999999935,16.325143999999987,1250
45.54466399999994,15.677143999999986,1372
45.22066399999994,15.029143999999986,1448
45.54466399999994,15.029143999999986,1412
45.22066399999994,15.677143999999986,1432
44.572663999999946,15.677143999999986,2059
44.24866399999995,15.677143999999986,2080
43.92466399999995,16.325143999999987,1971
44.89666399999994,15.677143999999986,2023
45.54466399999994,17.621143999999987,1568
45.22066399999994,16.325143999999987,1436
46.516663999999935,16.973143999999984,1317
45.86866399999994,18.269143999999983,1694
43.92466399999995,15.677143999999986,1770
45.22066399999994,13.733143999999989,1413
47.48866399999993,19.565143999999982,634
47.16466399999993,18.917143999999983,633
47.81266399999993,18.917143999999983,586
45.54466399999994,9.845143999999989,619
45.22066399999994,9.845143999999989,629
45.22066399999994,10.493143999999988,678
45.86866399999994,9.845143999999989,639
45.86866399999994,10.493143999999988,2838
48.78466399999992,21.50914399999997,399
49.10866399999992,20.213143999999986,353
49.10866399999992,18.917143999999983,306
48.46066399999992,17.621143999999987,507
49.43266399999992,17.621143999999987,386
49.10866399999992,17.621143999999987,421
48.136663999999925,18.269143999999983,516
49.10866399999992,18.269143999999983,447
49.43266399999992,18.269143999999983,318
49.43266399999992,16.973143999999984,471
49.75666399999992,16.973143999999984,441
49.75666399999992,16.325143999999987,419
50.08066399999991,15.677143999999986,371
50.08066399999991,15.029143999999986,341
49.43266399999992,18.917143999999983,287
47.81266399999993,20.86114399999998,595
48.136663999999925,20.86114399999998,530
48.46066399999992,20.86114399999998,413
48.46066399999992,21.50914399999997,409
49.10866399999992,19.565143999999982,345
48.136663999999925,17.621143999999987,506
48.78466399999992,22.15714399999998,415
48.78466399999992,20.86114399999998,447
49.10866399999992,20.86114399999998,374
48.78466399999992,18.269143999999983,490
48.78466399999992,17.621143999999987,509
49.10866399999992,21.50914399999997,389
48.78466399999992,20.213143999999986,455
48.46066399999992,20.213143999999986,496
48.136663999999925,19.565143999999982,645
48.46066399999992,19.565143999999982,524
48.46066399999992,18.917143999999983,386
48.46066399999992,18.269143999999983,503
48.78466399999992,19.565143999999982,360
48.78466399999992,18.917143999999983,346
47.81266399999993,18.269143999999983,547
49.10866399999992,22.15714399999998,456
49.43266399999992,21.50914399999997,454
48.136663999999925,18.917143999999983,699
48.136663999999925,20.213143999999986,665
52.636,-8.018,65535
52.312,-7.370000000000001,65535
52.312,-8.018,65535
52.636,-8.666,65535
51.988,-8.666,65535
51.988,-8.018,65535
52.96,-8.666,65535
52.96,-6.074000000000002,65535
53.28399999999999,-6.722000000000001,65535
53.60799999999999,-6.722000000000001,65535
53.60799999999999,-7.370000000000001,65535
53.60799999999999,-8.018,65535
54.25599999999999,-8.666,65535
53.93199999999999,-8.666,65535
53.93199999999999,-8.018,65535
52.312,-6.722000000000001,65535
52.636,-6.722000000000001,65535
53.93199999999999,-6.722000000000001,65535
54.25599999999999,-6.074000000000002,65535
53.28399999999999,-7.370000000000001,65535
52.96,-7.370000000000001,65535
52.312,-8.666,65535
52.96,-8.018,65535
52.636,-7.370000000000001,65535
52.96,-6.722000000000001,65535
51.988,-9.314,65535
52.312,-9.314,65535
54.579999999999984,-6.722000000000001,65535
54.579999999999984,-6.074000000000002,65535
53.28399999999999,-8.018,65535
53.28399999999999,-8.666,65535
53.28399999999999,-9.314,65535
53.93199999999999,-9.314,65535
54.25599999999999,-9.314,65535
53.60799999999999,-8.666,65535
53.60799999999999,-9.314,65535
49.43266399999992,14.381143999999988,395
49.75666399999992,14.381143999999988,348
49.75666399999992,15.029143999999986,346
49.75666399999992,13.733143999999989,357
50.08066399999991,13.733143999999989,349
49.75666399999992,15.677143999999986,357
50.40466399999991,15.029143999999986,336
49.43266399999992,13.733143999999989,366
50.40466399999991,15.677143999999986,347
50.40466399999991,13.733143999999989,347
46.19266399999994,15.029143999999986,1323
45.86866399999994,15.029143999999986,1342
45.86866399999994,14.381143999999988,1369
46.19266399999994,13.733143999999989,1355
45.86866399999994,13.733143999999989,1387
58.50466399999986,13.733143999999989,1442
58.180663999999865,13.733143999999989,1446
58.180663999999865,13.085143999999987,1418
57.85666399999987,12.437143999999988,1384
60.44866399999985,15.677143999999986,1667
60.124663999999854,15.677143999999986,1601
60.124663999999854,16.325143999999987,1639
59.800663999999855,16.325143999999987,1567
59.800663999999855,17.621143999999987,1546
59.47666399999986,18.269143999999983,1528
61.74466399999984,16.973143999999984,1678
61.420663999999846,16.973143999999984,1651
60.77266399999985,16.973143999999984,1603
65.63266399999982,22.15714399999998,2782
65.95666399999982,21.50914399999997,2742
65.63266399999982,20.86114399999998,2713
64.98466399999982,20.213143999999986,2645
64.66066399999983,20.213143999999986,2623
64.33666399999983,19.565143999999982,2317
64.01266399999983,19.565143999999982,2030
63.68866399999983,20.213143999999986,1983
64.66066399999983,18.917143999999983,2994
59.15266399999986,16.325143999999987,1503
59.15266399999986,15.029143999999986,1495
59.15266399999986,17.621143999999987,1520
57.53266399999987,14.381143999999988,1344
57.53266399999987,15.029143999999986,1364
61.09666399999985,14.381143999999988,1771
60.77266399999985,15.029143999999986,1722
60.44866399999985,15.029143999999986,1708
58.180663999999865,15.029143999999986,1421
58.50466399999986,16.325143999999987,1455
58.50466399999986,15.677143999999986,1428
63.36466399999984,13.085143999999987,2015
63.04066399999984,14.381143999999988,1952
62.39266399999984,15.677143999999986,1874
63.36466399999984,13.733143999999989,1997
63.36466399999984,14.381143999999988,1969
62.71666399999984,15.677143999999986,1902
62.39266399999984,17.621143999999987,1736
59.800663999999855,15.677143999999986,2013
55.58866399999988,13.733143999999989,1298
57.20866399999987,14.381143999999988,1328
57.85666399999987,14.381143999999988,1376
58.82866399999986,16.973143999999984,1512
58.82866399999986,16.325143999999987,1490
59.15266399999986,18.269143999999983,1524
60.44866399999985,17.621143999999987,1579
59.15266399999986,12.437143999999988,1483
59.15266399999986,13.085143999999987,1497
58.82866399999986,12.437143999999988,1459
59.47666399999986,16.325143999999987,1529
58.82866399999986,14.381143999999988,1536
59.47666399999986,15.677143999999986,1518
63.36466399999984,18.917143999999983,1936
63.04066399999984,17.621143999999987,1891
62.71666399999984,17.621143999999987,1865
63.68866399999983,19.565143999999982,1969
62.39266399999984,16.973143999999984,1780
59.800663999999855,16.973143999999984,1555
59.47666399999986,17.621143999999987,1532
57.85666399999987,13.085143999999987,1408
57.53266399999987,13.085143999999987,1389
58.50466399999986,11.789143999999988,1430
57.85666399999987,15.029143999999986,1410
57.20866399999987,13.733143999999989,1334
57.53266399999987,13.733143999999989,1395
61.74466399999984,16.325143999999987,1774
61.420663999999846,16.325143999999987,1741
61.09666399999985,16.325143999999987,1730
61.09666399999985,16.973143999999984,1698
60.124663999999854,15.029143999999986,1876
66.60466399999981,20.86114399999998,2817
67.25266399999981,20.86114399999998,2885
67.90066399999981,20.213143999999986,2955
67.57666399999981,20.213143999999986,3580
59.800663999999855,15.029143999999986,1596
58.50466399999986,15.029143999999986,1438
59.47666399999986,15.029143999999986,1581
60.44866399999985,16.325143999999987,1667
59.15266399999986,15.677143999999986,1525
57.85666399999987,13.733143999999989,1436
58.82866399999986,13.733143999999989,1483
58.50466399999986,13.085143999999987,1468
57.20866399999987,13.085143999999987,1365
56.88466399999987,13.085143999999987,1339
58.180663999999865,11.789143999999988,1401
62.06866399999984,16.973143999999984,1769
65.95666399999982,23.45314399999998,2823
59.800663999999855,14.381143999999988,5891
59.800663999999855,18.269143999999983,1537
63.04066399999984,15.029143999999986,1920
62.71666399999984,15.029143999999986,1910
62.39266399999984,16.325143999999987,1843
63.36466399999984,12.437143999999988,2048
68.5486639999998,17.621143999999987,3168
68.5486639999998,18.269143999999983,3101
68.5486639999998,18.917143999999983,3078
68.2246639999998,18.917143999999983,3034
59.800663999999855,13.085143999999987,1600
60.124663999999854,13.085143999999987,1639
59.47666399999986,16.973143999999984,1541
59.15266399999986,16.973143999999984,1533
56.56066399999988,13.733143999999989,1286
60.124663999999854,17.621143999999987,1556
57.85666399999987,16.325143999999987,1515
58.180663999999865,16.325143999999987,1477
58.180663999999865,15.677143999999986,1485
57.20866399999987,16.325143999999987,1527
57.53266399999987,15.677143999999986,1545
57.85666399999987,15.677143999999986,1516
44.89666399999994,23.45314399999998,2965
44.572663999999946,23.45314399999998,3035
44.89666399999994,24.74914399999998,2952
44.572663999999946,24.74914399999998,3071
44.572663999999946,24.101143999999977,3012
44.24866399999995,24.101143999999977,3041
47.48866399999993,25.397143999999983,2813
47.48866399999993,24.74914399999998,2753
47.16466399999993,24.74914399999998,2675
47.16466399999993,24.101143999999977,2577
47.48866399999993,22.15714399999998,2707
47.81266399999993,22.15714399999998,2793
47.16466399999993,22.15714399999998,2686
47.16466399999993,23.45314399999998,2738
47.16466399999993,22.805143999999984,2744
46.84066399999993,24.101143999999977,2658
45.86866399999994,27.34114399999998,2998
45.54466399999994,27.34114399999998,2979
45.54466399999994,27.989143999999985,3095
45.86866399999994,20.86114399999998,2870
45.86866399999994,21.50914399999997,2878
46.19266399999994,21.50914399999997,2814
46.19266399999994,27.34114399999998,2998
46.19266399999994,26.69314399999997,2989
46.516663999999935,26.69314399999997,2951
46.516663999999935,26.04514399999998,2847
47.48866399999993,22.805143999999984,2805
46.84066399999993,22.805143999999984,2618
45.54466399999994,22.15714399999998,2927
45.22066399999994,22.15714399999998,3005
44.89666399999994,22.15714399999998,3423
47.48866399999993,23.45314399999998,2771
46.516663999999935,24.101143999999977,2497
46.516663999999935,24.74914399999998,2711
45.86866399999994,24.101143999999977,2660
47.16466399999993,26.69314399999997,3029
47.16466399999993,27.34114399999998,3084
43.92466399999995,25.397143999999983,3043
44.24866399999995,24.74914399999998,2950
44.89666399999994,26.04514399999998,2837
44.89666399999994,26.69314399999997,2884
45.22066399999994,26.69314399999997,2919
45.22066399999994,27.34114399999998,2946
46.84066399999993,26.69314399999997,2990
47.48866399999993,26.69314399999997,2983
44.24866399999995,25.397143999999983,2882
43.92466399999995,26.04514399999998,3059
46.19266399999994,24.101143999999977,2705
44.572663999999946,25.397143999999983,2920
46.84066399999993,24.74914399999998,2718
46.516663999999935,21.50914399999997,2818
46.84066399999993,21.50914399999997,2825
44.572663999999946,26.69314399999997,2875
44.572663999999946,27.34114399999998,2896
44.89666399999994,27.34114399999998,3011
44.572663999999946,27.989143999999985,2916
44.24866399999995,27.989143999999985,2930
44.572663999999946,28.63714399999997,2981
45.86866399999994,22.15714399999998,2739
45.86866399999994,22.805143999999984,2633
44.24866399999995,23.45314399999998,3068
43.92466399999995,27.989143999999985,65535
46.84066399999993,27.34114399999998,3151
45.22066399999994,23.45314399999998,2940
45.54466399999994,23.45314399999998,2743
45.54466399999994,24.101143999999977,2690
45.22066399999994,24.101143999999977,2914
44.89666399999994,24.101143999999977,2984
46.19266399999994,22.15714399999998,2870
46.516663999999935,22.15714399999998,2836
45.22066399999994,21.50914399999997,3110
45.54466399999994,21.50914399999997,2958
45.54466399999994,20.86114399999998,2982
46.516663999999935,27.989143999999985,3101
46.19266399999994,27.989143999999985,3086
45.54466399999994,25.397143999999983,2804
45.22066399999994,25.397143999999983,2814
45.22066399999994,26.04514399999998,2870
47.81266399999993,24.101143999999977,2866
47.48866399999993,26.04514399999998,2956
47.81266399999993,26.04514399999998,2978
46.19266399999994,23.45314399999998,2537
45.86866399999994,23.45314399999998,2586
44.24866399999995,26.04514399999998,2864
45.22066399999994,27.989143999999985,3076
45.86866399999994,24.74914399999998,2699
46.516663999999935,25.397143999999983,2891
46.84066399999993,25.397143999999983,2774
46.19266399999994,26.04514399999998,2862
45.86866399999994,26.04514399999998,2827
43.92466399999995,23.45314399999998,3298
44.89666399999994,25.397143999999983,2925
46.19266399999994,20.86114399999998,2859
47.81266399999993,25.397143999999983,2990
44.572663999999946,22.805143999999984,3303
44.572663999999946,22.15714399999998,3445
46.516663999999935,23.45314399999998,2676
45.86866399999994,25.397143999999983,2753
44.24866399999995,27.34114399999998,3691
45.22066399999994,24.74914399999998,3016
45.54466399999994,22.805143999999984,2706
45.22066399999994,28.63714399999997,3136
44.89666399999994,28.63714399999997,3075
47.81266399999993,23.45314399999998,2923
46.19266399999994,24.74914399999998,2785
46.19266399999994,25.397143999999983,2809
43.92466399999995,24.101143999999977,3261
43.92466399999995,24.74914399999998,3274
47.81266399999993,26.69314399999997,3205
47.48866399999993,24.101143999999977,2798
46.84066399999993,26.04514399999998,3606
46.19266399999994,22.805143999999984,2930
47.48866399999993,27.34114399999998,3158
46.19266399999994,20.213143999999986,65535
45.54466399999994,26.04514399999998,2962
44.24866399999995,26.69314399999997,2880
45.86866399999994,27.989143999999985,3134
47.81266399999993,5.957143999999991,7066
