51.56399999999999,-0.4100000000000028,65535
51.887999999999984,-0.4100000000000028,65535
50.91599999999999,-1.7060000000000022,65535
51.23999999999999,-1.0580000000000025,65535
51.56399999999999,-1.0580000000000025,65535
51.23999999999999,-1.7060000000000022,65535
51.56399999999999,0.2379999999999968,65535
47.16466399999993,9.845143999999989,917
47.48866399999993,9.845143999999989,897
48.136663999999925,14.381143999999988,971
47.81266399999993,13.085143999999987,938
47.16466399999993,11.141143999999988,920
47.48866399999993,11.789143999999988,1157
48.136663999999925,16.325143999999987,334
47.48866399999993,12.437143999999988,910
48.136663999999925,15.677143999999986,395
47.16466399999993,10.493143999999988,1018
47.16466399999993,9.197143999999987,899
48.136663999999925,13.733143999999989,959
48.136663999999925,15.029143999999986,501
47.81266399999993,16.973143999999984,363
48.46066399999992,14.381143999999988,3784
47.48866399999993,13.085143999999987,925
47.16466399999993,13.085143999999987,970
47.48866399999993,14.381143999999988,1111
47.48866399999993,13.733143999999989,1191
47.48866399999993,15.029143999999986,1122
46.516663999999935,13.733143999999989,1007
46.84066399999993,13.733143999999989,985
46.84066399999993,13.085143999999987,980
48.78466399999992,14.381143999999988,65535
47.16466399999993,15.677143999999986,1069
46.516663999999935,14.381143999999988,1058
46.84066399999993,14.381143999999988,1041
47.16466399999993,14.381143999999988,2405
46.516663999999935,15.029143999999986,1117
47.81266399999993,16.325143999999987,344
47.16466399999993,15.029143999999986,1043
47.81266399999993,15.677143999999986,640
47.48866399999993,15.677143999999986,949
46.516663999999935,13.085143999999987,2774
46.84066399999993,12.437143999999988,1019
48.136663999999925,11.789143999999988,805
47.81266399999993,12.437143999999988,857
46.84066399999993,15.677143999999986,1245
46.516663999999935,15.677143999999986,1141
46.84066399999993,16.325143999999987,1185
47.81266399999993,14.381143999999988,1045
48.78466399999992,16.973143999999984,407
48.136663999999925,16.973143999999984,318
48.46066399999992,13.733143999999989,997
47.81266399999993,13.733143999999989,1034
50.08066399999991,8.54914399999999,584
48.46066399999992,9.845143999999989,674
51.05266399999991,7.25314399999999,861
51.37666399999991,7.25314399999999,864
51.37666399999991,6.60514399999999,875
48.46066399999992,16.325143999999987,348
48.46066399999992,16.973143999999984,404
48.78466399999992,16.325143999999987,410
48.46066399999992,15.677143999999986,400
48.78466399999992,15.677143999999986,407
47.48866399999993,16.325143999999987,386
47.16466399999993,16.325143999999987,1134
46.19266399999994,14.381143999999988,1086
45.86866399999994,15.677143999999986,1161
43.60066399999995,16.325143999999987,2515
45.54466399999994,14.381143999999988,1199
45.54466399999994,13.733143999999989,1221
48.136663999999925,13.085143999999987,929
48.46066399999992,11.141143999999988,765
48.136663999999925,11.141143999999988,798
48.46066399999992,7.90114399999999,780
49.10866399999992,8.54914399999999,610
48.78466399999992,2.0691439999999925,986
49.10866399999992,7.25314399999999,840
52.0246639999999,7.90114399999999,940
47.16466399999993,11.789143999999988,972
49.43266399999992,11.141143999999988,505
53.64466399999989,9.845143999999989,915
50.72866399999991,4.013143999999992,951
51.05266399999991,11.141143999999988,398
47.48866399999993,11.141143999999988,873
46.84066399999993,11.789143999999988,1502
46.516663999999935,11.141143999999988,1382
45.54466399999994,11.141143999999988,1288
46.19266399999994,11.141143999999988,1376
45.86866399999994,11.141143999999988,1363
44.572663999999946,11.141143999999988,1332
43.92466399999995,12.437143999999988,65535
45.54466399999994,12.437143999999988,1334
45.54466399999994,11.789143999999988,1315
48.78466399999992,15.029143999999986,1692
47.81266399999993,15.029143999999986,930
47.81266399999993,11.141143999999988,829
50.40466399999991,18.917143999999983,79
52.3486639999999,20.86114399999998,276
54.616663999999886,18.269143999999983,1076
54.29266399999989,18.917143999999983,1050
49.10866399999992,14.381143999999988,65535
50.08066399999991,14.381143999999988,386
48.78466399999992,13.733143999999989,1160
52.6726639999999,13.085143999999987,417
52.3486639999999,13.085143999999987,418
53.96866399999989,12.437143999999988,858
54.29266399999989,12.437143999999988,862
47.48866399999993,8.54914399999999,886
47.81266399999993,17.621143999999987,318
47.48866399999993,18.917143999999983,720
47.48866399999993,20.86114399999998,1436
46.84066399999993,23.45314399999998,1918
44.572663999999946,26.04514399999998,2367
47.48866399999993,21.50914399999997,1472
47.81266399999993,21.50914399999997,1868
48.46066399999992,22.15714399999998,811
47.48866399999993,16.973143999999984,65535
49.10866399999992,16.325143999999987,567
49.75666399999992,18.269143999999983,185
46.19266399999994,13.085143999999987,2303
41.98066399999996,12.437143999999988,2470
43.60066399999995,10.493143999999988,2726
45.54466399999994,9.197143999999987,1028
47.81266399999993,22.805143999999984,1723
49.75666399999992,22.805143999999984,194
50.72866399999991,3.365143999999992,962
51.05266399999991,4.013143999999992,955
50.72866399999991,4.661143999999991,949
51.05266399999991,4.661143999999991,953
51.05266399999991,3.365143999999992,964
51.05266399999991,2.717143999999992,1007
50.40466399999991,4.661143999999991,963
50.72866399999991,2.717143999999992,982
50.40466399999991,4.013143999999992,967
51.05266399999991,5.309143999999991,961
50.72866399999991,5.309143999999991,928
51.37666399999991,3.365143999999992,1000
51.37666399999991,4.661143999999991,969
50.72866399999991,5.957143999999991,892
50.40466399999991,5.957143999999991,903
50.40466399999991,3.365143999999992,976
50.40466399999991,5.309143999999991,932
50.08066399999991,5.309143999999991,960
49.75666399999992,5.309143999999991,944
49.75666399999992,5.957143999999991,915
51.37666399999991,5.309143999999991,1016
51.700663999999904,4.661143999999991,998
50.08066399999991,4.013143999999992,1002
50.08066399999991,5.957143999999991,921
50.08066399999991,4.661143999999991,978
49.43266399999992,5.309143999999991,980
49.43266399999992,5.957143999999991,945
52.0246639999999,4.661143999999991,2229
52.3486639999999,4.661143999999991,2264
50.72866399999991,15.029143999999986,310
51.05266399999991,15.029143999999986,294
51.05266399999991,13.733143999999989,322
50.40466399999991,13.085143999999987,470
49.10866399999992,7.90114399999999,913
48.78466399999992,7.90114399999999,766
50.40466399999991,7.90114399999999,594
50.08066399999991,7.90114399999999,587
49.75666399999992,7.90114399999999,600
49.43266399999992,7.90114399999999,623
49.75666399999992,8.54914399999999,591
49.43266399999992,8.54914399999999,602
49.43266399999992,9.197143999999987,665
49.10866399999992,9.197143999999987,667
47.48866399999993,7.90114399999999,883
47.81266399999993,7.90114399999999,846
48.136663999999925,7.90114399999999,819
48.136663999999925,9.845143999999989,806
47.81266399999993,9.197143999999987,900
47.81266399999993,8.54914399999999,893
47.81266399999993,9.845143999999989,853
54.940663999999884,9.197143999999987,1019
54.616663999999886,9.197143999999987,960
54.29266399999989,9.197143999999987,968
53.96866399999989,9.197143999999987,955
53.64466399999989,9.197143999999987,947
54.616663999999886,9.845143999999989,952
54.29266399999989,9.845143999999989,943
53.96866399999989,9.845143999999989,938
53.64466399999989,10.493143999999988,911
53.96866399999989,10.493143999999988,938
53.96866399999989,11.141143999999988,911
54.29266399999989,10.493143999999988,963
53.32066399999989,10.493143999999988,891
54.940663999999884,11.141143999999988,1009
52.6726639999999,13.733143999999989,415
52.3486639999999,13.733143999999989,413
52.3486639999999,14.381143999999988,460
52.0246639999999,14.381143999999988,447
52.0246639999999,11.789143999999988,447
52.3486639999999,11.789143999999988,458
52.3486639999999,12.437143999999988,427
52.0246639999999,15.029143999999986,439
51.700663999999904,14.381143999999988,398
52.0246639999999,13.733143999999989,391
51.700663999999904,13.733143999999989,375
52.6726639999999,12.437143999999988,468
53.32066399999989,11.789143999999988,852
53.96866399999989,11.789143999999988,858
53.64466399999989,11.789143999999988,871
53.64466399999989,11.141143999999988,884
53.32066399999989,11.141143999999988,875
52.996663999999896,11.789143999999988,711
52.996663999999896,12.437143999999988,696
52.996663999999896,13.733143999999989,420
53.64466399999989,13.733143999999989,504
53.96866399999989,13.733143999999989,889
54.29266399999989,13.085143999999987,932
53.96866399999989,13.085143999999987,839
53.32066399999989,13.733143999999989,476
52.0246639999999,13.085143999999987,442
51.700663999999904,13.085143999999987,381
52.996663999999896,14.381143999999988,524
52.0246639999999,12.437143999999988,424
51.700663999999904,12.437143999999988,375
51.37666399999991,11.789143999999988,361
51.37666399999991,12.437143999999988,357
52.6726639999999,11.789143999999988,470
53.64466399999989,13.085143999999987,569
53.32066399999989,13.085143999999987,462
52.996663999999896,13.085143999999987,446
53.64466399999989,12.437143999999988,497
51.37666399999991,13.733143999999989,337
53.32066399999989,12.437143999999988,896
52.6726639999999,14.381143999999988,433
51.37666399999991,13.085143999999987,345
53.32066399999989,14.381143999999988,869
52.3486639999999,15.029143999999986,474
52.0246639999999,15.677143999999986,378
51.700663999999904,15.029143999999986,323
51.05266399999991,16.325143999999987,185
51.05266399999991,16.973143999999984,181
51.700663999999904,15.677143999999986,314
51.37666399999991,15.677143999999986,278
51.37666399999991,16.325143999999987,211
50.72866399999991,13.085143999999987,358
50.72866399999991,12.437143999999988,365
51.05266399999991,13.085143999999987,346
51.05266399999991,14.381143999999988,302
50.40466399999991,12.437143999999988,384
50.40466399999991,11.789143999999988,398
50.08066399999991,12.437143999999988,431
50.72866399999991,11.789143999999988,425
51.05266399999991,12.437143999999988,362
50.72866399999991,14.381143999999988,432
51.37666399999991,14.381143999999988,374
50.72866399999991,13.733143999999989,335
50.40466399999991,14.381143999999988,391
51.37666399999991,15.029143999999986,326
55.26466399999988,9.197143999999987,1788
55.58866399999988,8.54914399999999,1822
55.91266399999988,8.54914399999999,2239
56.23666399999988,9.197143999999987,2247
56.23666399999988,10.493143999999988,2200
56.23666399999988,9.845143999999989,2187
55.91266399999988,9.845143999999989,2125
56.56066399999988,9.197143999999987,2257
56.56066399999988,8.54914399999999,2300
51.05266399999991,6.60514399999999,870
51.700663999999904,7.90114399999999,883
50.72866399999991,6.60514399999999,885
51.700663999999904,7.25314399999999,868
50.72866399999991,7.25314399999999,843
52.0246639999999,7.25314399999999,963
52.3486639999999,7.90114399999999,962
51.05266399999991,5.957143999999991,882
50.40466399999991,7.25314399999999,786
51.700663999999904,6.60514399999999,880
51.700663999999904,5.957143999999991,944
52.3486639999999,9.197143999999987,901
51.700663999999904,8.54914399999999,914
52.0246639999999,8.54914399999999,920
52.3486639999999,8.54914399999999,913
51.37666399999991,7.90114399999999,870
52.3486639999999,7.25314399999999,1006
51.37666399999991,5.957143999999991,941
50.72866399999991,7.90114399999999,931
51.37666399999991,9.197143999999987,954
51.700663999999904,9.197143999999987,926
50.40466399999991,6.60514399999999,912
51.05266399999991,7.90114399999999,906
51.37666399999991,8.54914399999999,975
52.0246639999999,5.957143999999991,951
52.3486639999999,6.60514399999999,1046
51.05266399999991,8.54914399999999,944
52.0246639999999,9.197143999999987,932
52.6726639999999,9.197143999999987,930
52.0246639999999,9.845143999999989,905
51.700663999999904,9.845143999999989,910
51.37666399999991,9.845143999999989,904
50.72866399999991,8.54914399999999,608
51.05266399999991,9.845143999999989,887
50.72866399999991,9.845143999999989,866
50.40466399999991,9.845143999999989,606
51.05266399999991,9.197143999999987,973
50.40466399999991,9.197143999999987,592
50.08066399999991,9.197143999999987,581
51.05266399999991,10.493143999999988,448
50.40466399999991,8.54914399999999,591
50.72866399999991,9.197143999999987,964
49.75666399999992,9.197143999999987,607
52.996663999999896,9.197143999999987,933
52.3486639999999,9.845143999999989,885
52.996663999999896,8.54914399999999,941
52.996663999999896,7.90114399999999,953
53.32066399999989,7.90114399999999,1003
53.32066399999989,7.25314399999999,1034
53.64466399999989,7.25314399999999,1138
52.996663999999896,10.493143999999988,929
52.6726639999999,10.493143999999988,917
52.6726639999999,9.845143999999989,900
53.32066399999989,9.845143999999989,904
53.32066399999989,9.197143999999987,927
53.64466399999989,8.54914399999999,958
53.32066399999989,8.54914399999999,948
52.6726639999999,8.54914399999999,963
52.0246639999999,10.493143999999988,867
52.0246639999999,11.141143999999988,468
51.700663999999904,11.141143999999988,475
52.6726639999999,7.25314399999999,1794
52.996663999999896,7.25314399999999,1822
52.6726639999999,7.90114399999999,975
53.64466399999989,7.90114399999999,1031
52.996663999999896,11.141143999999988,538
52.6726639999999,11.141143999999988,533
52.3486639999999,10.493143999999988,843
52.996663999999896,9.845143999999989,936
51.700663999999904,10.493143999999988,855
51.37666399999991,10.493143999999988,388
51.700663999999904,11.789143999999988,381
52.3486639999999,11.141143999999988,825
51.37666399999991,11.141143999999988,380
51.05266399999991,11.789143999999988,411
49.10866399999992,11.141143999999988,549
48.78466399999992,11.141143999999988,590
48.46066399999992,11.789143999999988,812
49.43266399999992,11.789143999999988,495
50.08066399999991,11.789143999999988,407
49.75666399999992,12.437143999999988,467
49.10866399999992,11.789143999999988,545
48.78466399999992,12.437143999999988,872
48.46066399999992,12.437143999999988,859
49.10866399999992,12.437143999999988,863
48.78466399999992,13.085143999999987,948
48.136663999999925,12.437143999999988,898
47.81266399999993,11.789143999999988,847
48.136663999999925,10.493143999999988,833
47.81266399999993,10.493143999999988,849
48.78466399999992,10.493143999999988,603
47.48866399999993,10.493143999999988,887
48.46066399999992,10.493143999999988,814
49.43266399999992,13.085143999999987,938
48.46066399999992,13.085143999999987,971
49.43266399999992,10.493143999999988,511
49.75666399999992,9.845143999999989,541
49.75666399999992,10.493143999999988,624
50.40466399999991,11.141143999999988,902
50.08066399999991,11.141143999999988,535
50.72866399999991,11.141143999999988,429
49.75666399999992,11.141143999999988,548
48.78466399999992,11.789143999999988,852
50.40466399999991,10.493143999999988,517
50.08066399999991,9.845143999999989,544
50.08066399999991,10.493143999999988,575
49.43266399999992,12.437143999999988,878
49.75666399999992,11.789143999999988,449
49.10866399999992,13.085143999999987,997
50.72866399999991,10.493143999999988,498
49.10866399999992,10.493143999999988,525
48.78466399999992,9.845143999999989,670
48.46066399999992,8.54914399999999,674
48.46066399999992,9.197143999999987,670
48.78466399999992,9.197143999999987,665
48.78466399999992,8.54914399999999,640
50.08066399999991,7.25314399999999,808
49.75666399999992,6.60514399999999,870
49.43266399999992,6.60514399999999,910
49.10866399999992,6.60514399999999,902
49.43266399999992,7.25314399999999,817
49.75666399999992,7.25314399999999,605
49.10866399999992,5.957143999999991,873
48.78466399999992,7.25314399999999,942
50.08066399999991,6.60514399999999,867
47.48866399999993,9.197143999999987,898
48.136663999999925,8.54914399999999,868
48.136663999999925,9.197143999999987,885
47.81266399999993,7.25314399999999,870
49.43266399999992,9.845143999999989,900
49.10866399999992,9.845143999999989,749
53.64466399999989,14.381143999999988,863
50.08066399999991,13.085143999999987,433
49.75666399999992,13.085143999999987,550
45.86866399999994,9.197143999999987,1018
46.19266399999994,9.197143999999987,1004
46.516663999999935,8.54914399999999,950
46.516663999999935,9.197143999999987,999
46.19266399999994,8.54914399999999,1016
47.16466399999993,8.54914399999999,891
45.86866399999994,4.661143999999991,1046
46.84066399999993,9.845143999999989,933
45.22066399999994,5.957143999999991,1089
45.22066399999994,5.309143999999991,1117
45.86866399999994,5.957143999999991,1020
45.54466399999994,5.957143999999991,1043
44.89666399999994,4.661143999999991,1113
44.89666399999994,5.309143999999991,1132
44.572663999999946,4.661143999999991,1149
44.24866399999995,4.661143999999991,1226
43.92466399999995,4.661143999999991,1127
46.19266399999994,7.25314399999999,935
48.78466399999992,5.957143999999991,940
48.136663999999925,6.60514399999999,1029
48.46066399999992,6.60514399999999,910
48.78466399999992,6.60514399999999,924
47.16466399999993,7.90114399999999,896
48.136663999999925,7.25314399999999,902
48.46066399999992,7.25314399999999,927
46.516663999999935,6.60514399999999,947
46.84066399999993,6.60514399999999,943
46.84066399999993,7.25314399999999,918
46.516663999999935,5.957143999999991,952
46.19266399999994,5.957143999999991,959
46.84066399999993,8.54914399999999,905
46.84066399999993,7.90114399999999,905
45.86866399999994,5.309143999999991,1111
46.19266399999994,6.60514399999999,949
45.86866399999994,6.60514399999999,960
47.48866399999993,6.60514399999999,962
47.48866399999993,7.25314399999999,899
47.16466399999993,7.25314399999999,909
49.10866399999992,4.013143999999992,922
49.75666399999992,4.661143999999991,1017
49.43266399999992,4.661143999999991,1012
49.10866399999992,5.309143999999991,894
46.19266399999994,4.661143999999991,1069
46.84066399999993,9.197143999999987,924
46.19266399999994,5.309143999999991,1042
46.516663999999935,5.309143999999991,1075
45.54466399999994,6.60514399999999,1095
45.54466399999994,5.309143999999991,1096
43.60066399999995,4.013143999999992,1159
43.60066399999995,3.365143999999992,1212
42.62866399999996,2.717143999999992,1285
43.276663999999954,2.717143999999992,1230
45.54466399999994,4.661143999999991,1061
45.22066399999994,4.661143999999991,1076
47.16466399999993,5.309143999999991,1016
47.16466399999993,5.957143999999991,986
46.19266399999994,7.90114399999999,942
49.75666399999992,2.717143999999992,1047
49.10866399999992,2.717143999999992,958
48.78466399999992,2.717143999999992,976
45.86866399999994,3.365143999999992,1219
46.84066399999993,3.365143999999992,1138
46.516663999999935,3.365143999999992,1168
46.19266399999994,3.365143999999992,1160
47.16466399999993,6.60514399999999,928
49.10866399999992,3.365143999999992,947
45.54466399999994,4.013143999999992,1099
46.516663999999935,7.25314399999999,928
47.16466399999993,4.661143999999991,1022
46.84066399999993,4.661143999999991,1044
46.516663999999935,4.661143999999991,1101
46.84066399999993,5.957143999999991,966
47.81266399999993,3.365143999999992,1101
47.48866399999993,4.013143999999992,1071
48.136663999999925,4.013143999999992,1094
47.81266399999993,4.013143999999992,1082
47.48866399999993,4.661143999999991,1063
47.16466399999993,3.365143999999992,1166
46.84066399999993,4.013143999999992,1224
48.46066399999992,5.957143999999991,1001
46.19266399999994,2.717143999999992,1271
47.16466399999993,2.0691439999999925,1176
46.516663999999935,2.717143999999992,1405
46.84066399999993,2.717143999999992,1244
46.84066399999993,2.0691439999999925,1167
47.16466399999993,2.717143999999992,1158
44.572663999999946,5.309143999999991,1192
44.572663999999946,5.957143999999991,1183
44.89666399999994,6.60514399999999,1163
44.572663999999946,6.60514399999999,1269
43.60066399999995,5.309143999999991,1150
43.92466399999995,7.25314399999999,1205
43.60066399999995,6.60514399999999,1220
43.276663999999954,6.60514399999999,1199
43.276663999999954,5.957143999999991,1186
45.86866399999994,8.54914399999999,1025
45.54466399999994,8.54914399999999,1032
48.136663999999925,3.365143999999992,1084
48.46066399999992,3.365143999999992,1065
48.46066399999992,2.717143999999992,1031
47.48866399999993,5.309143999999991,1089
46.516663999999935,9.845143999999989,944
46.84066399999993,10.493143999999988,968
47.81266399999993,5.309143999999991,1040
45.22066399999994,6.60514399999999,1129
46.19266399999994,4.013143999999992,1121
45.86866399999994,4.013143999999992,1139
45.22066399999994,4.013143999999992,1277
44.89666399999994,4.013143999999992,1344
46.84066399999993,5.309143999999991,1050
48.136663999999925,-1.8188560000000056,1105
48.136663999999925,0.1251439999999934,1053
48.136663999999925,-0.5228560000000062,1175
47.48866399999993,-0.5228560000000062,1098
47.16466399999993,-1.8188560000000056,1138
47.48866399999993,0.7731439999999932,1086
47.16466399999993,0.1251439999999934,1270
45.86866399999994,7.25314399999999,979
48.136663999999925,5.309143999999991,1054
49.10866399999992,4.661143999999991,980
48.46066399999992,4.013143999999992,1076
48.136663999999925,4.661143999999991,1092
47.81266399999993,6.60514399999999,982
47.48866399999993,5.957143999999991,999
48.136663999999925,5.957143999999991,1406
45.86866399999994,7.90114399999999,967
46.516663999999935,7.90114399999999,917
49.43266399999992,3.365143999999992,1107
49.43266399999992,4.013143999999992,999
48.136663999999925,2.717143999999992,1090
47.81266399999993,2.717143999999992,1101
47.48866399999993,2.717143999999992,1121
50.40466399999991,2.717143999999992,995
48.46066399999992,-4.410856000000004,1298
48.46066399999992,-3.7628560000000046,1260
48.46066399999992,-3.114856000000005,1231
48.46066399999992,-2.4668560000000053,1150
47.48866399999993,1.4211439999999929,1095
47.16466399999993,1.4211439999999929,1129
46.516663999999935,4.013143999999992,1285
43.60066399999995,4.661143999999991,1150
44.89666399999994,2.717143999999992,1398
45.22066399999994,2.717143999999992,1348
45.54466399999994,3.365143999999992,1231
45.22066399999994,3.365143999999992,1300
47.48866399999993,3.365143999999992,1244
46.19266399999994,9.845143999999989,1102
47.81266399999993,2.0691439999999925,1052
47.48866399999993,2.0691439999999925,1123
45.86866399999994,2.717143999999992,1240
44.89666399999994,5.957143999999991,1110
45.22066399999994,1.4211439999999929,1259
44.89666399999994,1.4211439999999929,1286
44.89666399999994,2.0691439999999925,1452
43.276663999999954,2.0691439999999925,1266
43.60066399999995,1.4211439999999929,1278
48.78466399999992,4.661143999999991,999
48.78466399999992,5.309143999999991,1113
46.19266399999994,2.0691439999999925,1216
45.86866399999994,1.4211439999999929,1197
46.19266399999994,1.4211439999999929,1162
44.572663999999946,4.013143999999992,1313
44.89666399999994,3.365143999999992,1362
43.92466399999995,4.013143999999992,1230
44.24866399999995,4.013143999999992,1247
44.89666399999994,-0.5228560000000062,1156
45.54466399999994,0.1251439999999934,1163
46.516663999999935,0.1251439999999934,1120
44.572663999999946,2.0691439999999925,1338
49.75666399999992,4.013143999999992,1267
43.92466399999995,3.365143999999992,1587
43.92466399999995,2.717143999999992,1548
44.24866399999995,3.365143999999992,1501
44.572663999999946,3.365143999999992,1379
49.10866399999992,0.1251439999999934,1128
49.43266399999992,0.7731439999999932,1076
49.43266399999992,-1.8188560000000056,1196
49.10866399999992,-1.170856000000006,1171
49.10866399999992,-0.5228560000000062,1138
49.10866399999992,0.7731439999999932,1134
49.10866399999992,1.4211439999999929,1114
47.81266399999993,-1.8188560000000056,1143
47.81266399999993,-2.4668560000000053,1168
47.81266399999993,-3.114856000000005,1181
48.136663999999925,-3.7628560000000046,1244
44.572663999999946,9.197143999999987,1196
44.89666399999994,8.54914399999999,1169
45.22066399999994,9.197143999999987,1039
45.54466399999994,10.493143999999988,1147
44.572663999999946,10.493143999999988,1318
44.89666399999994,10.493143999999988,1213
44.89666399999994,9.845143999999989,1061
48.46066399999992,5.309143999999991,1033
50.91599999999999,-1.0580000000000025,65535
51.23999999999999,-0.4100000000000028,65535
50.91599999999999,-0.4100000000000028,65535
51.23999999999999,-2.354000000000002,65535
51.56399999999999,-2.354000000000002,65535
51.56399999999999,-3.0020000000000016,65535
50.91599999999999,-2.354000000000002,65535
53.50799999999997,-3.0020000000000016,65535
53.183999999999976,-2.354000000000002,65535
53.183999999999976,-3.0020000000000016,65535
52.85999999999998,-2.354000000000002,65535
52.21199999999998,-1.0580000000000025,65535
51.887999999999984,-1.0580000000000025,65535
52.53599999999998,-1.0580000000000025,65535
52.53599999999998,-1.7060000000000022,65535
52.85999999999998,-1.7060000000000022,65535
53.50799999999997,-2.354000000000002,65535
52.85999999999998,-1.0580000000000025,65535
52.53599999999998,1.5339999999999965,65535
52.53599999999998,0.8859999999999966,65535
52.53599999999998,0.2379999999999968,65535
52.53599999999998,-0.4100000000000028,65535
53.50799999999997,-1.7060000000000022,65535
53.183999999999976,-1.7060000000000022,65535
53.183999999999976,-1.0580000000000025,65535
52.85999999999998,-0.4100000000000028,65535
51.887999999999984,-2.354000000000002,65535
52.21199999999998,-2.354000000000002,65535
55.77599999999996,-2.354000000000002,65535
53.83199999999997,-1.0580000000000025,65535
53.83199999999997,-1.7060000000000022,65535
55.127999999999965,-1.7060000000000022,65535
54.80399999999997,-1.7060000000000022,65535
54.47999999999997,-1.7060000000000022,65535
54.15599999999997,-1.0580000000000025,65535
52.21199999999998,-1.7060000000000022,65535
53.50799999999997,-1.0580000000000025,65535
55.77599999999996,-3.0020000000000016,65535
55.45199999999996,-1.7060000000000022,65535
57.07199999999995,-2.354000000000002,65535
56.74799999999996,-3.0020000000000016,65535
56.42399999999996,-3.0020000000000016,65535
56.09999999999996,-3.650000000000001,65535
50.91599999999999,-3.0020000000000016,65535
50.91599999999999,-3.650000000000001,65535
50.59199999999999,-3.650000000000001,65535
50.59199999999999,-4.298000000000001,65535
51.23999999999999,-3.0020000000000016,65535
50.268,-4.946000000000001,65535
55.77599999999996,-3.650000000000001,65535
55.77599999999996,-4.298000000000001,65535
52.21199999999998,-0.4100000000000028,65535
52.53599999999998,-2.354000000000002,65535
51.56399999999999,-1.7060000000000022,65535
51.56399999999999,-3.650000000000001,65535
51.887999999999984,-4.298000000000001,65535
51.56399999999999,-4.298000000000001,65535
51.887999999999984,-1.7060000000000022,65535
52.21199999999998,-3.0020000000000016,65535
51.23999999999999,0.2379999999999968,65535
50.91599999999999,0.2379999999999968,65535
52.21199999999998,0.2379999999999968,65535
53.83199999999997,-3.0020000000000016,65535
54.15599999999997,-3.0020000000000016,65535
54.47999999999997,-3.0020000000000016,65535
55.127999999999965,-3.650000000000001,65535
54.80399999999997,-3.0020000000000016,65535
53.83199999999997,-2.354000000000002,65535
54.15599999999997,-0.4100000000000028,65535
54.47999999999997,-1.0580000000000025,65535
53.83199999999997,-0.4100000000000028,65535
53.183999999999976,-3.650000000000001,65535
53.183999999999976,-4.298000000000001,65535
52.85999999999998,-3.0020000000000016,65535
52.53599999999998,-3.0020000000000016,65535
51.887999999999984,-3.0020000000000016,65535
51.23999999999999,0.8859999999999966,65535
51.887999999999984,0.2379999999999968,65535
52.21199999999998,0.8859999999999966,65535
51.887999999999984,-4.946000000000001,65535
52.53599999999998,-3.650000000000001,65535
52.21199999999998,-4.298000000000001,65535
53.183999999999976,-0.4100000000000028,65535
51.23999999999999,-3.650000000000001,65535
51.887999999999984,-3.650000000000001,65535
52.21199999999998,-3.650000000000001,65535
51.56399999999999,0.8859999999999966,65535
51.887999999999984,0.8859999999999966,65535
52.85999999999998,0.8859999999999966,65535
53.50799999999997,-0.4100000000000028,65535
56.09999999999996,-4.298000000000001,65535
56.74799999999996,-4.946000000000001,65535
56.74799999999996,-4.298000000000001,65535
56.42399999999996,-4.946000000000001,65535
56.42399999999996,-4.298000000000001,65535
56.09999999999996,-4.946000000000001,65535
57.39599999999995,-4.298000000000001,65535
57.39599999999995,-3.0020000000000016,65535
57.39599999999995,-3.650000000000001,65535
56.42399999999996,-3.650000000000001,65535
57.07199999999995,-3.650000000000001,65535
57.07199999999995,-4.298000000000001,65535
56.74799999999996,-3.650000000000001,65535
59.15266399999986,27.34114399999998,65535
59.47666399999986,26.69314399999997,65535
59.47666399999986,26.04514399999998,65535
59.15266399999986,26.04514399999998,65535
59.15266399999986,24.74914399999998,65535
59.15266399999986,25.397143999999983,65535
59.47666399999986,25.397143999999983,65535
58.50466399999986,26.69314399999997,65535
58.82866399999986,26.69314399999997,65535
57.85666399999987,26.04514399999998,65535
58.180663999999865,26.04514399999998,65535
58.180663999999865,26.69314399999997,65535
58.82866399999986,26.04514399999998,65535
58.50466399999986,25.397143999999983,65535
58.82866399999986,25.397143999999983,65535
58.82866399999986,24.74914399999998,65535
58.180663999999865,27.34114399999998,65535
57.85666399999987,27.34114399999998,65535
63.68866399999983,27.34114399999998,65535
60.124663999999854,24.74914399999998,65535
60.44866399999985,24.74914399999998,65535
60.44866399999985,25.397143999999983,65535
60.77266399999985,25.397143999999983,65535
61.09666399999985,26.04514399999998,65535
60.77266399999985,26.04514399999998,65535
60.77266399999985,26.69314399999997,65535
61.09666399999985,25.397143999999983,65535
61.09666399999985,26.69314399999997,65535
61.420663999999846,26.69314399999997,65535
61.74466399999984,27.34114399999998,65535
62.06866399999984,27.34114399999998,65535
62.39266399999984,27.34114399999998,65535
62.71666399999984,27.34114399999998,65535
64.01266399999983,27.34114399999998,65535
63.36466399999984,27.34114399999998,65535
63.04066399999984,27.34114399999998,65535
63.04066399999984,27.989143999999985,65535
64.33666399999983,27.989143999999985,65535
64.33666399999983,27.34114399999998,65535
64.66066399999983,27.34114399999998,65535
64.66066399999983,26.69314399999997,4756
64.98466399999982,25.397143999999983,4519
64.66066399999983,26.04514399999998,4736
64.98466399999982,26.04514399999998,4720
66.28066399999982,25.397143999999983,65535
65.95666399999982,24.74914399999998,4432
65.63266399999982,24.74914399999998,4436
65.63266399999982,25.397143999999983,4478
65.30866399999982,25.397143999999983,4499
66.60466399999981,25.397143999999983,65535
64.01266399999983,24.74914399999998,4656
64.01266399999983,24.101143999999977,4691
64.01266399999983,23.45314399999998,4715
63.68866399999983,23.45314399999998,4727
63.68866399999983,22.805143999999984,4752
63.68866399999983,26.04514399999998,65535
63.68866399999983,25.397143999999983,65535
63.68866399999983,26.69314399999997,65535
60.44866399999985,26.69314399999997,65535
64.01266399999983,27.989143999999985,65535
62.71666399999984,22.805143999999984,65535
62.39266399999984,22.805143999999984,65535
62.06866399999984,22.805143999999984,65535
62.06866399999984,23.45314399999998,65535
61.74466399999984,23.45314399999998,65535
61.420663999999846,23.45314399999998,65535
61.09666399999985,23.45314399999998,65535
61.09666399999985,24.101143999999977,65535
61.09666399999985,24.74914399999998,65535
60.77266399999985,24.74914399999998,65535
63.04066399999984,21.50914399999997,65535
63.04066399999984,22.15714399999998,65535
63.04066399999984,22.805143999999984,65535
62.39266399999984,26.04514399999998,65535
62.06866399999984,25.397143999999983,65535
61.74466399999984,25.397143999999983,65535
61.74466399999984,24.74914399999998,65535
61.74466399999984,24.101143999999977,65535
61.420663999999846,24.101143999999977,65535
62.39266399999984,26.69314399999997,65535
64.66066399999983,25.397143999999983,4588
64.66066399999983,24.74914399999998,4606
64.33666399999983,24.74914399999998,4617
63.36466399999984,22.805143999999984,4777
67.25266399999981,24.101143999999977,65535
66.92866399999981,24.101143999999977,65535
66.60466399999981,23.45314399999998,65535
66.28066399999982,23.45314399999998,65535
66.28066399999982,24.101143999999977,65535
65.95666399999982,24.101143999999977,3804
60.124663999999854,24.101143999999977,65535
60.124663999999854,23.45314399999998,65535
60.44866399999985,22.805143999999984,65535
60.77266399999985,27.34114399999998,65535
61.09666399999985,27.989143999999985,65535
61.09666399999985,28.63714399999997,65535
61.420663999999846,29.28514399999997,65535
61.74466399999984,29.933143999999977,65535
62.06866399999984,29.933143999999977,65535
62.39266399999984,29.933143999999977,65535
62.71666399999984,29.933143999999977,65535
61.420663999999846,22.805143999999984,65535
61.420663999999846,22.15714399999998,65535
61.09666399999985,22.15714399999998,65535
61.420663999999846,21.50914399999997,65535
62.39266399999984,27.989143999999985,65535
62.06866399999984,27.989143999999985,65535
61.420663999999846,27.34114399999998,65535
63.04066399999984,29.933143999999977,65535
63.68866399999983,29.28514399999997,65535
63.36466399999984,29.28514399999997,65535
63.36466399999984,29.933143999999977,65535
60.44866399999985,27.34114399999998,65535
61.74466399999984,29.28514399999997,65535
62.39266399999984,30.58114399999998,65535
62.71666399999984,31.229143999999977,65535
62.71666399999984,29.28514399999997,65535
63.04066399999984,28.63714399999997,65535
66.60466399999981,26.04514399999998,65535
66.60466399999981,26.69314399999997,65535
66.60466399999981,27.34114399999998,65535
62.71666399999984,26.04514399999998,65535
62.71666399999984,25.397143999999983,65535
63.04066399999984,25.397143999999983,65535
63.36466399999984,25.397143999999983,65535
62.71666399999984,23.45314399999998,65535
62.39266399999984,24.101143999999977,65535
62.71666399999984,22.15714399999998,65535
62.39266399999984,22.15714399999998,65535
62.39266399999984,21.50914399999997,65535
61.09666399999985,21.50914399999997,65535
60.77266399999985,22.805143999999984,65535
60.44866399999985,22.15714399999998,65535
60.77266399999985,23.45314399999998,65535
60.77266399999985,21.50914399999997,65535
60.77266399999985,22.15714399999998,65535
60.124663999999854,22.805143999999984,65535
60.44866399999985,24.101143999999977,65535
62.06866399999984,24.74914399999998,65535
50.72866399999991,16.325143999999987,202
50.40466399999991,16.973143999999984,218
50.72866399999991,16.973143999999984,198
50.40466399999991,16.325143999999987,320
50.08066399999991,16.973143999999984,411
50.08066399999991,16.325143999999987,308
51.700663999999904,16.973143999999984,218
51.37666399999991,16.973143999999984,184
51.05266399999991,15.677143999999986,282
50.72866399999991,15.677143999999986,270
51.05266399999991,17.621143999999987,176
51.37666399999991,17.621143999999987,268
51.700663999999904,17.621143999999987,282
51.700663999999904,16.325143999999987,232
52.0246639999999,22.15714399999998,304
52.0246639999999,21.50914399999997,292
52.3486639999999,21.50914399999997,308
52.0246639999999,20.86114399999998,272
51.700663999999904,20.86114399999998,234
51.37666399999991,21.50914399999997,259
51.37666399999991,20.86114399999998,230
51.05266399999991,20.86114399999998,223
52.6726639999999,23.45314399999998,947
52.3486639999999,22.805143999999984,887
52.3486639999999,20.213143999999986,308
52.0246639999999,20.213143999999986,323
52.3486639999999,19.565143999999982,848
52.6726639999999,19.565143999999982,397
51.700663999999904,21.50914399999997,297
51.700663999999904,22.15714399999998,332
52.6726639999999,21.50914399999997,343
52.996663999999896,21.50914399999997,429
52.6726639999999,20.86114399999998,313
52.6726639999999,22.15714399999998,359
52.6726639999999,20.213143999999986,337
52.996663999999896,19.565143999999982,408
52.996663999999896,20.86114399999998,355
52.996663999999896,20.213143999999986,364
53.32066399999989,20.213143999999986,453
51.37666399999991,20.213143999999986,258
52.3486639999999,16.973143999999984,279
52.0246639999999,16.973143999999984,267
52.0246639999999,16.325143999999987,245
52.0246639999999,17.621143999999987,320
52.6726639999999,16.973143999999984,322
52.996663999999896,16.973143999999984,362
52.3486639999999,16.325143999999987,307
52.3486639999999,15.677143999999986,404
51.700663999999904,18.269143999999983,319
52.6726639999999,17.621143999999987,308
52.3486639999999,17.621143999999987,293
52.6726639999999,18.269143999999983,338
52.3486639999999,18.269143999999983,367
52.3486639999999,18.917143999999983,408
52.996663999999896,17.621143999999987,863
51.700663999999904,19.565143999999982,326
51.700663999999904,18.917143999999983,365
51.37666399999991,18.269143999999983,265
58.82866399999986,9.197143999999987,2768
58.180663999999865,7.90114399999999,2861
58.50466399999986,8.54914399999999,2812
63.36466399999984,10.493143999999988,2983
63.36466399999984,11.141143999999988,2990
63.36466399999984,11.789143999999988,3025
63.68866399999983,11.789143999999988,3053
64.33666399999983,12.437143999999988,3454
64.66066399999983,12.437143999999988,3949
65.63266399999982,13.085143999999987,3606
65.95666399999982,13.085143999999987,3641
66.28066399999982,14.381143999999988,3711
65.95666399999982,13.733143999999989,3780
66.28066399999982,13.733143999999989,3689
65.30866399999982,13.085143999999987,3907
64.98466399999982,13.085143999999987,3541
64.01266399999983,11.789143999999988,3084
63.68866399999983,11.141143999999988,3021
59.800663999999855,10.493143999999988,2564
59.800663999999855,11.141143999999988,2547
60.124663999999854,11.141143999999988,2562
60.44866399999985,11.141143999999988,2575
60.124663999999854,11.789143999999988,2588
60.77266399999985,7.25314399999999,2824
60.77266399999985,6.60514399999999,2870
59.15266399999986,9.197143999999987,2650
59.47666399999986,9.197143999999987,2671
59.800663999999855,9.845143999999989,2566
59.47666399999986,11.141143999999988,2511
61.09666399999985,10.493143999999988,2685
60.77266399999985,10.493143999999988,2655
60.77266399999985,11.141143999999988,2610
62.06866399999984,9.197143999999987,3010
61.74466399999984,9.845143999999989,2956
61.420663999999846,9.845143999999989,2933
59.15266399999986,9.845143999999989,2630
59.47666399999986,9.845143999999989,2606
58.82866399999986,5.957143999999991,3045
58.180663999999865,7.25314399999999,2917
58.50466399999986,7.25314399999999,2950
58.50466399999986,6.60514399999999,2955
58.50466399999986,5.957143999999991,3013
58.82866399999986,8.54914399999999,2798
60.44866399999985,7.25314399999999,2798
60.44866399999985,7.90114399999999,2759
60.124663999999854,10.493143999999988,2596
60.44866399999985,9.197143999999987,2708
60.77266399999985,9.197143999999987,2720
60.77266399999985,8.54914399999999,2739
60.124663999999854,9.845143999999989,2975
60.44866399999985,10.493143999999988,2641
63.04066399999984,10.493143999999988,2934
62.06866399999984,9.845143999999989,3035
62.39266399999984,9.845143999999989,3043
62.71666399999984,9.845143999999989,3067
59.47666399999986,14.381143999999988,2560
59.47666399999986,13.733143999999989,2501
59.47666399999986,13.085143999999987,2477
59.800663999999855,12.437143999999988,2546
59.15266399999986,11.141143999999988,2475
59.15266399999986,14.381143999999988,2574
58.82866399999986,11.789143999999988,2455
58.50466399999986,12.437143999999988,2385
58.180663999999865,12.437143999999988,2378
57.85666399999987,11.789143999999988,2329
62.71666399999984,7.90114399999999,3096
62.39266399999984,7.90114399999999,3053
62.06866399999984,8.54914399999999,3028
60.44866399999985,5.309143999999991,2944
60.44866399999985,5.957143999999991,2911
60.77266399999985,5.957143999999991,2900
62.39266399999984,11.141143999999988,2831
62.06866399999984,10.493143999999988,2786
61.74466399999984,11.141143999999988,2759
61.420663999999846,11.141143999999988,2713
61.09666399999985,11.141143999999988,2696
60.77266399999985,11.789143999999988,2673
63.04066399999984,11.141143999999988,2912
62.71666399999984,11.141143999999988,2855
62.39266399999984,10.493143999999988,2813
67.25266399999981,15.677143999999986,3830
67.25266399999981,15.029143999999986,3868
67.25266399999981,14.381143999999988,3896
66.92866399999981,15.029143999999986,3819
66.60466399999981,15.677143999999986,3797
64.01266399999983,11.141143999999988,3068
66.60466399999981,15.029143999999986,3860
54.29266399999989,18.269143999999983,1055
54.616663999999886,17.621143999999987,1094
53.96866399999989,18.269143999999983,975
43.92466399999995,1.4211439999999929,1262
44.24866399999995,0.7731439999999932,1224
44.572663999999946,0.1251439999999934,1212
46.84066399999993,1.4211439999999929,1123
44.572663999999946,1.4211439999999929,1334
44.24866399999995,1.4211439999999929,1310
45.54466399999994,1.4211439999999929,1220
46.516663999999935,1.4211439999999929,1242
42.30466399999996,2.717143999999992,1350
44.24866399999995,2.717143999999992,1422
44.572663999999946,2.717143999999992,1398
43.92466399999995,2.0691439999999925,1293
42.30466399999996,2.0691439999999925,1480
42.62866399999996,2.0691439999999925,1351
42.62866399999996,1.4211439999999929,1344
42.95266399999996,1.4211439999999929,1312
43.276663999999954,1.4211439999999929,1297
46.516663999999935,-1.170856000000006,1234
46.19266399999994,-1.170856000000006,1225
45.86866399999994,-0.5228560000000062,1201
45.54466399999994,-0.5228560000000062,1182
48.46066399999992,1.4211439999999929,1015
41.332663999999966,2.0691439999999925,1494
41.98066399999996,2.717143999999992,1453
48.46066399999992,-1.8188560000000056,1198
47.81266399999993,0.7731439999999932,1243
46.84066399999993,0.7731439999999932,1258
44.572663999999946,-1.170856000000006,1165
43.60066399999995,-1.170856000000006,1288
43.276663999999954,-1.8188560000000056,1335
43.276663999999954,0.1251439999999934,1399
42.95266399999996,0.1251439999999934,1373
43.276663999999954,-0.5228560000000062,1345
43.60066399999995,-0.5228560000000062,1322
47.81266399999993,-3.7628560000000046,1228
47.48866399999993,-2.4668560000000053,1184
47.81266399999993,-0.5228560000000062,1182
46.516663999999935,-1.8188560000000056,1275
48.136663999999925,-1.170856000000006,1156
47.48866399999993,-1.170856000000006,1195
45.22066399999994,8.54914399999999,1039
45.22066399999994,7.90114399999999,1055
46.19266399999994,-0.5228560000000062,1181
46.516663999999935,-0.5228560000000062,1163
48.78466399999992,-3.114856000000005,1264
50.72866399999991,2.0691439999999925,1043
50.40466399999991,2.0691439999999925,1097
40.36066399999997,-3.7628560000000046,2865
41.65666399999997,-1.170856000000006,2782
41.332663999999966,1.4211439999999929,2720
43.276663999999954,13.733143999999989,65535
42.95266399999996,13.733143999999989,65535
41.65666399999997,15.029143999999986,65535
40.68466399999997,17.621143999999987,65535
43.60066399999995,13.085143999999987,3903
41.65666399999997,12.437143999999988,2512
41.65666399999997,13.085143999999987,2528
41.98066399999996,13.085143999999987,2504
41.65666399999997,13.733143999999989,3092
41.332663999999966,13.733143999999989,2570
41.332663999999966,14.381143999999988,3127
41.00866399999997,14.381143999999988,3154
41.332663999999966,13.085143999999987,2553
41.00866399999997,15.029143999999986,4335
41.98066399999996,13.733143999999989,2586
42.30466399999996,14.381143999999988,4416
42.30466399999996,12.437143999999988,2755
42.62866399999996,12.437143999999988,3054
42.95266399999996,12.437143999999988,3108
42.30466399999996,11.789143999999988,2563
42.95266399999996,11.789143999999988,3818
42.62866399999996,11.789143999999988,3739
43.276663999999954,11.789143999999988,4290
42.95266399999996,13.085143999999987,3804
42.30466399999996,13.085143999999987,4303
43.276663999999954,13.085143999999987,3852
43.276663999999954,12.437143999999988,3859
42.62866399999996,11.141143999999988,2632
42.95266399999996,11.141143999999988,2675
42.95266399999996,10.493143999999988,2693
44.572663999999946,8.54914399999999,1190
44.89666399999994,7.90114399999999,1079
44.89666399999994,9.197143999999987,1212
44.24866399999995,7.90114399999999,1166
44.572663999999946,7.90114399999999,1136
43.92466399999995,7.90114399999999,1178
44.24866399999995,7.25314399999999,1181
44.89666399999994,7.25314399999999,1098
45.22066399999994,7.25314399999999,1078
45.54466399999994,7.90114399999999,1061
44.572663999999946,7.25314399999999,2302
52.996663999999896,22.805143999999984,963
52.996663999999896,23.45314399999998,985
51.37666399999991,22.15714399999998,787
51.37666399999991,22.805143999999984,842
50.08066399999991,20.213143999999986,82
50.72866399999991,20.213143999999986,170
50.40466399999991,20.213143999999986,130
50.08066399999991,20.86114399999998,93
50.08066399999991,21.50914399999997,124
50.08066399999991,22.15714399999998,161
50.08066399999991,22.805143999999984,168
53.96866399999989,22.805143999999984,1121
53.64466399999989,23.45314399999998,1075
53.32066399999989,23.45314399999998,1022
50.40466399999991,19.565143999999982,111
50.08066399999991,18.917143999999983,73
50.08066399999991,18.269143999999983,188
52.0246639999999,22.805143999999984,826
52.0246639999999,23.45314399999998,864
51.37666399999991,19.565143999999982,282
51.05266399999991,19.565143999999982,240
50.72866399999991,18.917143999999983,182
50.72866399999991,19.565143999999982,255
49.75666399999992,18.917143999999983,72
50.40466399999991,18.269143999999983,93
53.64466399999989,19.565143999999982,891
53.96866399999989,18.917143999999983,1007
53.64466399999989,18.917143999999983,983
53.64466399999989,20.213143999999986,863
52.996663999999896,18.917143999999983,846
52.996663999999896,18.269143999999983,819
53.32066399999989,18.917143999999983,945
50.72866399999991,17.621143999999987,146
50.72866399999991,18.269143999999983,129
52.6726639999999,16.325143999999987,363
52.996663999999896,16.325143999999987,405
52.996663999999896,15.677143999999986,810
53.32066399999989,15.677143999999986,1016
53.32066399999989,15.029143999999986,927
53.64466399999989,15.029143999999986,939
53.96866399999989,15.029143999999986,880
52.6726639999999,18.917143999999983,910
53.32066399999989,16.325143999999987,1074
52.6726639999999,15.029143999999986,826
51.05266399999991,22.805143999999984,879
51.05266399999991,23.45314399999998,906
50.72866399999991,22.15714399999998,898
50.40466399999991,22.15714399999998,840
51.05266399999991,22.15714399999998,839
54.616663999999886,16.973143999999984,1108
54.29266399999989,16.325143999999987,1058
53.96866399999989,15.677143999999986,1022
50.72866399999991,21.50914399999997,896
50.40466399999991,21.50914399999997,210
50.40466399999991,17.621143999999987,261
53.32066399999989,22.805143999999984,1114
53.64466399999989,22.15714399999998,1138
54.29266399999989,16.973143999999984,1084
50.72866399999991,20.86114399999998,190
51.700663999999904,22.805143999999984,1000
51.05266399999991,21.50914399999997,290
50.08066399999991,19.565143999999982,67
52.0246639999999,18.917143999999983,3688
52.0246639999999,19.565143999999982,3681
53.64466399999989,18.269143999999983,968
51.700663999999904,20.213143999999986,308
53.32066399999989,19.565143999999982,860
50.72866399999991,23.45314399999998,1195
50.72866399999991,22.805143999999984,1164
49.43266399999992,20.213143999999986,263
49.75666399999992,21.50914399999997,135
49.75666399999992,22.15714399999998,1404
49.43266399999992,22.15714399999998,1113
51.05266399999991,18.917143999999983,225
51.05266399999991,18.269143999999983,176
53.32066399999989,16.973143999999984,820
53.64466399999989,16.973143999999984,862
49.75666399999992,20.86114399999998,146
50.40466399999991,22.805143999999984,3770
53.64466399999989,16.325143999999987,971
53.96866399999989,20.86114399999998,1026
54.29266399999989,20.86114399999998,1072
53.96866399999989,21.50914399999997,1089
53.64466399999989,15.677143999999986,980
53.96866399999989,20.213143999999986,974
53.96866399999989,19.565143999999982,1018
54.29266399999989,19.565143999999982,1069
53.96866399999989,16.325143999999987,1005
53.64466399999989,17.621143999999987,874
53.96866399999989,22.15714399999998,1156
53.64466399999989,21.50914399999997,1094
53.64466399999989,20.86114399999998,1047
52.6726639999999,15.677143999999986,833
51.05266399999991,20.213143999999986,395
54.940663999999884,24.101143999999977,65535
54.616663999999886,23.45314399999998,65535
54.29266399999989,23.45314399999998,65535
53.64466399999989,22.805143999999984,1163
53.96866399999989,16.973143999999984,1105
50.40466399999991,20.86114399999998,1048
53.32066399999989,18.269143999999983,936
49.75666399999992,19.565143999999982,0
50.40466399999991,23.45314399999998,984
49.75666399999992,20.213143999999986,241
49.43266399999992,19.565143999999982,165
49.43266399999992,20.86114399999998,254
53.96866399999989,17.621143999999987,1308
42.30466399999996,-1.8188560000000056,3999
41.98066399999996,-1.8188560000000056,3982
41.65666399999997,0.7731439999999932,3986
42.62866399999996,-1.8188560000000056,4114
42.95266399999996,-1.8188560000000056,4143
42.62866399999996,-3.114856000000005,4237
42.95266399999996,-2.4668560000000053,4215
42.62866399999996,-7.650856000000003,4579
42.30466399999996,-7.650856000000003,4639
42.30466399999996,-8.946856000000002,4775
42.30466399999996,-8.298856000000002,4749
41.98066399999996,-8.298856000000002,4738
42.30466399999996,-7.002856000000003,4521
42.62866399999996,-6.354856000000003,4463
42.30466399999996,-6.354856000000003,4418
42.62866399999996,-5.706856000000004,3918
41.98066399999996,-4.410856000000004,3872
42.30466399999996,-3.7628560000000046,4263
40.03666399999997,-0.5228560000000062,3966
39.38866399999998,-0.5228560000000062,4014
41.00866399999997,0.7731439999999932,4114
40.68466399999997,0.7731439999999932,4146
40.36066399999997,0.1251439999999934,4224
39.712663999999975,-0.5228560000000062,4123
38.41666399999998,-0.5228560000000062,4135
39.06466399999998,-0.5228560000000062,4257
38.74066399999998,-1.170856000000006,4143
41.332663999999966,0.7731439999999932,4174
41.65666399999997,2.717143999999992,3774
41.65666399999997,2.0691439999999925,3797
41.332663999999966,0.1251439999999934,4132
41.332663999999966,-0.5228560000000062,4076
41.65666399999997,-4.410856000000004,3846
40.03666399999997,-2.4668560000000053,4084
41.00866399999997,-4.410856000000004,3967
43.276663999999954,-5.706856000000004,4048
39.38866399999998,-1.170856000000006,4109
38.09266399999999,-1.170856000000006,4522
38.74066399999998,-0.5228560000000062,4285
37.76866399999999,-1.170856000000006,4587
39.06466399999998,-1.8188560000000056,4107
39.38866399999998,-3.114856000000005,4007
39.38866399999998,-2.4668560000000053,4063
39.06466399999998,-2.4668560000000053,4090
39.06466399999998,-3.114856000000005,4011
39.06466399999998,-3.7628560000000046,3985
38.74066399999998,-3.7628560000000046,4064
40.03666399999997,-3.7628560000000046,3963
40.03666399999997,-3.114856000000005,4163
40.03666399999997,-1.8188560000000056,4244
39.712663999999975,-1.8188560000000056,4209
39.712663999999975,-1.170856000000006,4145
40.36066399999997,-1.170856000000006,4164
40.68466399999997,-1.170856000000006,4142
41.00866399999997,-1.170856000000006,4130
41.332663999999966,-1.170856000000006,3970
43.276663999999954,-8.298856000000002,4739
42.95266399999996,-8.298856000000002,4707
41.65666399999997,-5.706856000000004,65535
41.98066399999996,-7.002856000000003,65535
41.98066399999996,-6.354856000000003,65535
41.332663999999966,-5.058856000000004,4085
43.276663999999954,-3.7628560000000046,4520
42.95266399999996,-4.410856000000004,4454
42.62866399999996,-4.410856000000004,4444
42.30466399999996,-4.410856000000004,4403
41.00866399999997,-5.706856000000004,4023
41.332663999999966,-1.8188560000000056,3916
40.68466399999997,-3.114856000000005,3870
41.00866399999997,-3.114856000000005,3921
41.00866399999997,-2.4668560000000053,3944
41.332663999999966,-2.4668560000000053,3997
40.68466399999997,-4.410856000000004,3907
40.36066399999997,-4.410856000000004,3991
40.68466399999997,-3.7628560000000046,3899
40.36066399999997,-3.114856000000005,3877
41.65666399999997,-2.4668560000000053,4014
38.09266399999999,-3.7628560000000046,4111
38.74066399999998,-3.114856000000005,4055
37.76866399999999,-3.7628560000000046,4168
39.712663999999975,-3.114856000000005,3999
38.41666399999998,-3.7628560000000046,4076
40.03666399999997,-4.410856000000004,65535
40.03666399999997,-5.058856000000004,65535
39.38866399999998,-6.354856000000003,65535
39.38866399999998,-7.002856000000003,65535
42.95266399999996,-3.114856000000005,4648
41.98066399999996,-1.170856000000006,4011
42.30466399999996,-2.4668560000000053,4052
41.65666399999997,-0.5228560000000062,4109
41.98066399999996,-0.5228560000000062,3946
41.65666399999997,0.1251439999999934,3973
41.98066399999996,0.1251439999999934,3995
37.76866399999999,-5.058856000000004,4047
36.79666399999999,-4.410856000000004,4106
38.74066399999998,-4.410856000000004,4003
37.12066399999999,-4.410856000000004,4080
37.44466399999999,-5.058856000000004,4604
37.44466399999999,-7.002856000000003,65535
37.44466399999999,-6.354856000000003,65535
37.44466399999999,-5.706856000000004,4280
39.712663999999975,-3.7628560000000046,4073
42.62866399999996,-8.946856000000002,65535
42.30466399999996,-5.706856000000004,4425
42.30466399999996,-5.058856000000004,4510
42.95266399999996,-5.706856000000004,3950
41.00866399999997,-5.058856000000004,3991
40.68466399999997,-5.058856000000004,3965
41.65666399999997,-5.058856000000004,65535
41.65666399999997,-6.354856000000003,65535
36.79666399999999,-6.354856000000003,65535
37.12066399999999,-5.706856000000004,4448
37.76866399999999,-5.706856000000004,4247
38.09266399999999,-4.410856000000004,4382
37.12066399999999,-5.058856000000004,4402
36.79666399999999,-5.058856000000004,4360
37.76866399999999,-4.410856000000004,65535
37.76866399999999,-7.002856000000003,65535
38.41666399999998,-6.354856000000003,65535
38.09266399999999,-6.354856000000003,65535
48.78466399999992,1.4211439999999929,1228
56.23666399999988,8.54914399999999,2290
55.58866399999988,9.197143999999987,2095
55.91266399999988,9.197143999999987,2236
55.26466399999988,10.493143999999988,1972
55.91266399999988,12.437143999999988,2109
55.58866399999988,11.789143999999988,2115
55.58866399999988,11.141143999999988,2106
55.26466399999988,11.789143999999988,2124
55.58866399999988,10.493143999999988,2091
55.58866399999988,13.085143999999987,2085
56.88466399999987,9.845143999999989,2242
57.20866399999987,9.845143999999989,2277
56.56066399999988,9.845143999999989,2214
56.88466399999987,8.54914399999999,2329
54.940663999999884,9.845143999999989,3436
54.940663999999884,11.789143999999988,2192
55.91266399999988,13.085143999999987,2184
56.23666399999988,13.733143999999989,2228
55.91266399999988,13.733143999999989,2231
56.23666399999988,14.381143999999988,2251
56.23666399999988,15.029143999999986,2292
56.23666399999988,15.677143999999986,2347
56.56066399999988,14.381143999999988,2308
56.88466399999987,14.381143999999988,2278
56.23666399999988,13.085143999999987,2176
56.56066399999988,13.085143999999987,2256
56.88466399999987,12.437143999999988,2293
57.20866399999987,12.437143999999988,2309
57.53266399999987,12.437143999999988,2324
56.88466399999987,15.029143999999986,2304
56.56066399999988,15.677143999999986,2364
56.88466399999987,15.677143999999986,2383
56.88466399999987,16.325143999999987,2398
55.91266399999988,11.789143999999988,2261
57.20866399999987,10.493143999999988,2464
49.43266399999992,1.4211439999999929,1100
49.75666399999992,0.7731439999999932,1099
49.75666399999992,2.0691439999999925,1035
50.08066399999991,2.717143999999992,1071
49.75666399999992,1.4211439999999929,1084
47.81266399999993,1.4211439999999929,1129
48.136663999999925,2.0691439999999925,1123
48.46066399999992,2.0691439999999925,1134
48.136663999999925,1.4211439999999929,1036
48.78466399999992,0.1251439999999934,1162
48.46066399999992,0.1251439999999934,1142
47.81266399999993,0.1251439999999934,1137
46.84066399999993,-0.5228560000000062,1329
47.16466399999993,0.7731439999999932,1228
46.84066399999993,0.1251439999999934,1247
46.84066399999993,-1.170856000000006,1242
50.08066399999991,1.4211439999999929,1116
50.08066399999991,2.0691439999999925,1133
49.43266399999992,2.717143999999992,972
49.75666399999992,3.365143999999992,1011
50.08066399999991,3.365143999999992,1106
49.10866399999992,2.0691439999999925,1055
49.43266399999992,2.0691439999999925,1000
48.78466399999992,0.7731439999999932,1595
48.78466399999992,-0.5228560000000062,1321
48.78466399999992,-1.170856000000006,1352
48.136663999999925,0.7731439999999932,1069
48.46066399999992,0.7731439999999932,1091
43.92466399999995,5.957143999999991,1353
44.24866399999995,5.957143999999991,1379
43.92466399999995,5.309143999999991,1149
42.95266399999996,2.717143999999992,1277
45.54466399999994,2.0691439999999925,1331
45.22066399999994,2.0691439999999925,1313
42.95266399999996,2.0691439999999925,2377
42.95266399999996,0.7731439999999932,1412
43.276663999999954,0.7731439999999932,1347
46.19266399999994,0.7731439999999932,1342
46.516663999999935,0.7731439999999932,1326
45.86866399999994,0.1251439999999934,1516
46.19266399999994,0.1251439999999934,1556
47.81266399999993,-1.170856000000006,1435
48.136663999999925,-2.4668560000000053,1143
47.48866399999993,-1.8188560000000056,1166
47.16466399999993,-1.170856000000006,1188
47.16466399999993,-0.5228560000000062,1190
46.84066399999993,-1.8188560000000056,1192
45.22066399999994,-0.5228560000000062,1243
44.89666399999994,0.1251439999999934,1213
45.22066399999994,0.7731439999999932,1242
45.54466399999994,0.7731439999999932,1233
45.86866399999994,0.7731439999999932,1242
45.22066399999994,0.1251439999999934,1237
44.89666399999994,0.7731439999999932,1260
43.92466399999995,-0.5228560000000062,1315
43.92466399999995,-1.170856000000006,1308
44.24866399999995,-1.170856000000006,1288
45.22066399999994,-1.170856000000006,1278
44.572663999999946,-0.5228560000000062,1187
44.24866399999995,0.1251439999999934,1233
44.572663999999946,0.7731439999999932,1277
43.276663999999954,-1.170856000000006,1349
42.95266399999996,-0.5228560000000062,1413
44.24866399999995,2.0691439999999925,1329
43.60066399999995,0.7731439999999932,1393
43.60066399999995,2.0691439999999925,1336
52.6726639999999,4.661143999999991,2281
52.6726639999999,5.309143999999991,2304
51.700663999999904,5.309143999999991,2249
52.0246639999999,5.309143999999991,2261
52.3486639999999,5.309143999999991,2277
51.37666399999991,4.013143999999992,2257
52.3486639999999,5.957143999999991,2271
52.0246639999999,6.60514399999999,2301
52.6726639999999,5.957143999999991,2288
52.996663999999896,5.957143999999991,2301
53.32066399999989,5.957143999999991,2295
52.996663999999896,6.60514399999999,2277
53.32066399999989,6.60514399999999,2269
52.6726639999999,6.60514399999999,2297
52.996663999999896,5.309143999999991,2316
59.15266399999986,24.101143999999977,65535
56.88466399999987,24.101143999999977,65535
56.88466399999987,23.45314399999998,65535
56.88466399999987,22.805143999999984,65535
57.20866399999987,24.74914399999998,65535
56.88466399999987,24.74914399999998,65535
56.56066399999988,24.74914399999998,65535
56.56066399999988,25.397143999999983,65535
56.56066399999988,24.101143999999977,65535
56.56066399999988,23.45314399999998,65535
56.56066399999988,26.04514399999998,65535
56.88466399999987,26.04514399999998,65535
57.20866399999987,25.397143999999983,65535
57.53266399999987,25.397143999999983,65535
56.23666399999988,26.04514399999998,65535
56.23666399999988,26.69314399999997,65535
55.91266399999988,26.69314399999997,65535
56.56066399999988,26.69314399999997,65535
56.56066399999988,27.34114399999998,65535
56.56066399999988,27.989143999999985,65535
56.23666399999988,27.989143999999985,65535
55.91266399999988,27.34114399999998,65535
56.56066399999988,22.805143999999984,65535
56.56066399999988,22.15714399999998,65535
56.56066399999988,21.50914399999997,65535
57.20866399999987,26.69314399999997,65535
39.06466399999998,-8.946856000000002,65535
38.41666399999998,-8.298856000000002,65535
45.86866399999994,11.789143999999988,1468
46.19266399999994,11.789143999999988,1455
46.19266399999994,10.493143999999988,1440
45.22066399999994,18.269143999999983,2461
45.22066399999994,18.917143999999983,2535
45.54466399999994,16.973143999999984,2319
45.22066399999994,17.621143999999987,2396
45.86866399999994,16.325143999999987,2200
45.54466399999994,18.917143999999983,2575
45.54466399999994,16.325143999999987,2275
45.54466399999994,18.269143999999983,2553
44.89666399999994,18.917143999999983,2856
46.19266399999994,16.973143999999984,2220
46.19266399999994,16.325143999999987,2206
45.86866399999994,16.973143999999984,2237
45.86866399999994,17.621143999999987,2341
46.19266399999994,15.677143999999986,1113
46.516663999999935,16.325143999999987,1178
45.54466399999994,15.677143999999986,2180
45.22066399999994,15.029143999999986,2247
45.54466399999994,15.029143999999986,1161
45.22066399999994,15.677143999999986,2264
44.572663999999946,15.677143999999986,3019
44.24866399999995,15.677143999999986,3040
43.92466399999995,16.325143999999987,2931
44.89666399999994,15.677143999999986,2983
45.54466399999994,17.621143999999987,2528
45.22066399999994,16.325143999999987,2396
46.516663999999935,16.973143999999984,2277
45.86866399999994,18.269143999999983,2654
43.92466399999995,15.677143999999986,2730
45.22066399999994,13.733143999999989,2262
47.48866399999993,19.565143999999982,767
47.16466399999993,18.917143999999983,2178
47.81266399999993,18.917143999999983,466
45.54466399999994,9.845143999999989,1039
45.22066399999994,9.845143999999989,1048
45.22066399999994,10.493143999999988,1158
45.86866399999994,9.845143999999989,1059
45.86866399999994,10.493143999999988,2358
48.78466399999992,21.50914399999997,785
49.10866399999992,20.213143999999986,409
49.10866399999992,18.917143999999983,126
48.46066399999992,17.621143999999987,269
49.43266399999992,17.621143999999987,210
49.10866399999992,17.621143999999987,832
48.136663999999925,18.269143999999983,276
49.10866399999992,18.269143999999983,207
49.43266399999992,18.269143999999983,138
49.43266399999992,16.973143999999984,241
49.75666399999992,16.973143999999984,253
49.75666399999992,16.325143999999987,287
50.08066399999991,15.677143999999986,330
50.08066399999991,15.029143999999986,350
49.43266399999992,18.917143999999983,107
47.81266399999993,20.86114399999998,955
48.136663999999925,20.86114399999998,900
48.46066399999992,20.86114399999998,804
48.46066399999992,21.50914399999997,800
49.10866399999992,19.565143999999982,147
48.136663999999925,17.621143999999987,286
48.78466399999992,22.15714399999998,1077
48.78466399999992,20.86114399999998,959
49.10866399999992,20.86114399999998,447
48.78466399999992,18.269143999999983,250
48.78466399999992,17.621143999999987,317
49.10866399999992,21.50914399999997,766
48.78466399999992,20.213143999999986,825
48.46066399999992,20.213143999999986,766
48.136663999999925,19.565143999999982,738
48.46066399999992,19.565143999999982,700
48.46066399999992,18.917143999999983,349
48.46066399999992,18.269143999999983,263
48.78466399999992,19.565143999999982,409
48.78466399999992,18.917143999999983,328
47.81266399999993,18.269143999999983,307
49.10866399999992,22.15714399999998,1072
49.43266399999992,21.50914399999997,814
48.136663999999925,18.917143999999983,731
48.136663999999925,20.213143999999986,787
52.636,-8.018,65535
52.312,-7.370000000000001,65535
52.312,-8.018,65535
52.636,-8.666,65535
51.988,-8.666,65535
51.988,-8.018,65535
52.96,-8.666,65535
52.96,-6.074000000000002,65535
53.28399999999999,-6.722000000000001,65535
53.60799999999999,-6.722000000000001,65535
53.60799999999999,-7.370000000000001,65535
53.60799999999999,-8.018,65535
54.25599999999999,-8.666,65535
53.93199999999999,-8.666,65535
53.93199999999999,-8.018,65535
52.312,-6.722000000000001,65535
52.636,-6.722000000000001,65535
53.93199999999999,-6.722000000000001,65535
54.25599999999999,-6.074000000000002,65535
53.28399999999999,-7.370000000000001,65535
52.96,-7.370000000000001,65535
52.312,-8.666,65535
52.96,-8.018,65535
52.636,-7.370000000000001,65535
52.96,-6.722000000000001,65535
51.988,-9.314,65535
52.312,-9.314,65535
54.579999999999984,-6.722000000000001,65535
54.579999999999984,-6.074000000000002,65535
53.28399999999999,-8.018,65535
53.28399999999999,-8.666,65535
53.28399999999999,-9.314,65535
53.93199999999999,-9.314,65535
54.25599999999999,-9.314,65535
53.60799999999999,-8.666,65535
53.60799999999999,-9.314,65535
49.43266399999992,14.381143999999988,423
49.75666399999992,14.381143999999988,392
49.75666399999992,15.029143999999986,388
49.75666399999992,13.733143999999989,456
50.08066399999991,13.733143999999989,413
49.75666399999992,15.677143999999986,370
50.40466399999991,15.029143999999986,409
49.43266399999992,13.733143999999989,900
50.40466399999991,15.677143999999986,743
50.40466399999991,13.733143999999989,736
46.19266399999994,15.029143999999986,1093
45.86866399999994,15.029143999999986,1152
45.86866399999994,14.381143999999988,1130
46.19266399999994,13.733143999999989,1185
45.86866399999994,13.733143999999989,1261
58.50466399999986,13.733143999999989,2401
58.180663999999865,13.733143999999989,2406
58.180663999999865,13.085143999999987,2378
57.85666399999987,12.437143999999988,2344
60.44866399999985,15.677143999999986,2627
60.124663999999854,15.677143999999986,2561
60.124663999999854,16.325143999999987,2599
59.800663999999855,16.325143999999987,2527
59.800663999999855,17.621143999999987,2506
59.47666399999986,18.269143999999983,2488
61.74466399999984,16.973143999999984,2638
61.420663999999846,16.973143999999984,2611
60.77266399999985,16.973143999999984,2563
65.63266399999982,22.15714399999998,3742
65.95666399999982,21.50914399999997,3702
65.63266399999982,20.86114399999998,3673
64.98466399999982,20.213143999999986,3605
64.66066399999983,20.213143999999986,3583
64.33666399999983,19.565143999999982,3277
64.01266399999983,19.565143999999982,2990
63.68866399999983,20.213143999999986,2943
64.66066399999983,18.917143999999983,3954
59.15266399999986,16.325143999999987,2463
59.15266399999986,15.029143999999986,2504
59.15266399999986,17.621143999999987,2480
57.53266399999987,14.381143999999988,2304
57.53266399999987,15.029143999999986,2324
61.09666399999985,14.381143999999988,2731
60.77266399999985,15.029143999999986,2682
60.44866399999985,15.029143999999986,2668
58.180663999999865,15.029143999999986,2381
58.50466399999986,16.325143999999987,2415
58.50466399999986,15.677143999999986,2388
63.36466399999984,13.085143999999987,2975
63.04066399999984,14.381143999999988,2912
62.39266399999984,15.677143999999986,2834
63.36466399999984,13.733143999999989,2957
63.36466399999984,14.381143999999988,2929
62.71666399999984,15.677143999999986,2862
62.39266399999984,17.621143999999987,2696
59.800663999999855,15.677143999999986,2973
55.58866399999988,13.733143999999989,2258
57.20866399999987,14.381143999999988,2288
57.85666399999987,14.381143999999988,2336
58.82866399999986,16.973143999999984,2472
58.82866399999986,16.325143999999987,2450
59.15266399999986,18.269143999999983,2484
60.44866399999985,17.621143999999987,2539
59.15266399999986,12.437143999999988,2443
59.15266399999986,13.085143999999987,2457
58.82866399999986,12.437143999999988,2419
59.47666399999986,16.325143999999987,2509
58.82866399999986,14.381143999999988,2496
59.47666399999986,15.677143999999986,2527
63.36466399999984,18.917143999999983,2896
63.04066399999984,17.621143999999987,2851
62.71666399999984,17.621143999999987,2825
63.68866399999983,19.565143999999982,2929
62.39266399999984,16.973143999999984,2740
59.800663999999855,16.973143999999984,2515
59.47666399999986,17.621143999999987,2492
57.85666399999987,13.085143999999987,2368
57.53266399999987,13.085143999999987,2349
58.50466399999986,11.789143999999988,2390
57.85666399999987,15.029143999999986,2370
57.20866399999987,13.733143999999989,2294
57.53266399999987,13.733143999999989,2355
61.74466399999984,16.325143999999987,2734
61.420663999999846,16.325143999999987,2701
61.09666399999985,16.325143999999987,2690
61.09666399999985,16.973143999999984,2658
60.124663999999854,15.029143999999986,2836
66.60466399999981,20.86114399999998,3777
67.25266399999981,20.86114399999998,3845
67.90066399999981,20.213143999999986,3915
67.57666399999981,20.213143999999986,4540
59.800663999999855,15.029143999999986,2556
58.50466399999986,15.029143999999986,2398
59.47666399999986,15.029143999999986,2541
60.44866399999985,16.325143999999987,2627
59.15266399999986,15.677143999999986,2485
57.85666399999987,13.733143999999989,2396
58.82866399999986,13.733143999999989,2443
58.50466399999986,13.085143999999987,2428
57.20866399999987,13.085143999999987,2325
56.88466399999987,13.085143999999987,2299
58.180663999999865,11.789143999999988,2361
62.06866399999984,16.973143999999984,2729
65.95666399999982,23.45314399999998,3783
59.800663999999855,14.381143999999988,65535
59.800663999999855,18.269143999999983,2497
63.04066399999984,15.029143999999986,2880
62.71666399999984,15.029143999999986,2870
62.39266399999984,16.325143999999987,2803
63.36466399999984,12.437143999999988,3008
68.5486639999998,17.621143999999987,4128
68.5486639999998,18.269143999999983,4061
68.5486639999998,18.917143999999983,4038
68.2246639999998,18.917143999999983,3994
59.800663999999855,13.085143999999987,2560
60.124663999999854,13.085143999999987,2599
59.47666399999986,16.973143999999984,2501
59.15266399999986,16.973143999999984,2493
56.56066399999988,13.733143999999989,2246
60.124663999999854,17.621143999999987,2516
57.85666399999987,16.325143999999987,2475
58.180663999999865,16.325143999999987,2437
58.180663999999865,15.677143999999986,2445
57.20866399999987,16.325143999999987,2487
57.53266399999987,15.677143999999986,2505
57.85666399999987,15.677143999999986,2476
44.89666399999994,23.45314399999998,2485
44.572663999999946,23.45314399999998,2555
44.89666399999994,24.74914399999998,2472
44.572663999999946,24.74914399999998,2591
44.572663999999946,24.101143999999977,2532
44.24866399999995,24.101143999999977,2561
47.48866399999993,25.397143999999983,2333
47.48866399999993,24.74914399999998,2273
47.16466399999993,24.74914399999998,2195
47.16466399999993,24.101143999999977,2097
47.48866399999993,22.15714399999998,2227
47.81266399999993,22.15714399999998,2313
47.16466399999993,22.15714399999998,2206
47.16466399999993,23.45314399999998,2258
47.16466399999993,22.805143999999984,2264
46.84066399999993,24.101143999999977,2178
45.86866399999994,27.34114399999998,2518
45.54466399999994,27.34114399999998,2499
45.54466399999994,27.989143999999985,2615
45.86866399999994,20.86114399999998,2390
45.86866399999994,21.50914399999997,2398
46.19266399999994,21.50914399999997,2334
46.19266399999994,27.34114399999998,2518
46.19266399999994,26.69314399999997,2509
46.516663999999935,26.69314399999997,2471
46.516663999999935,26.04514399999998,2367
47.48866399999993,22.805143999999984,2325
46.84066399999993,22.805143999999984,2138
45.54466399999994,22.15714399999998,2447
45.22066399999994,22.15714399999998,2525
44.89666399999994,22.15714399999998,2943
47.48866399999993,23.45314399999998,2291
46.516663999999935,24.101143999999977,2017
46.516663999999935,24.74914399999998,2231
45.86866399999994,24.101143999999977,2180
47.16466399999993,26.69314399999997,2549
47.16466399999993,27.34114399999998,2604
43.92466399999995,25.397143999999983,2563
44.24866399999995,24.74914399999998,2470
44.89666399999994,26.04514399999998,2357
44.89666399999994,26.69314399999997,2404
45.22066399999994,26.69314399999997,2439
45.22066399999994,27.34114399999998,2466
46.84066399999993,26.69314399999997,2510
47.48866399999993,26.69314399999997,2503
44.24866399999995,25.397143999999983,2402
43.92466399999995,26.04514399999998,2579
46.19266399999994,24.101143999999977,2225
44.572663999999946,25.397143999999983,2440
46.84066399999993,24.74914399999998,2238
46.516663999999935,21.50914399999997,2338
46.84066399999993,21.50914399999997,2345
44.572663999999946,26.69314399999997,2395
44.572663999999946,27.34114399999998,2416
44.89666399999994,27.34114399999998,2531
44.572663999999946,27.989143999999985,2436
44.24866399999995,27.989143999999985,2450
44.572663999999946,28.63714399999997,2501
45.86866399999994,22.15714399999998,2259
45.86866399999994,22.805143999999984,2153
44.24866399999995,23.45314399999998,2588
43.92466399999995,27.989143999999985,65535
46.84066399999993,27.34114399999998,2671
45.22066399999994,23.45314399999998,2460
45.54466399999994,23.45314399999998,2263
45.54466399999994,24.101143999999977,2210
45.22066399999994,24.101143999999977,2434
44.89666399999994,24.101143999999977,2504
46.19266399999994,22.15714399999998,2390
46.516663999999935,22.15714399999998,2356
45.22066399999994,21.50914399999997,2630
45.54466399999994,21.50914399999997,2478
45.54466399999994,20.86114399999998,2502
46.516663999999935,27.989143999999985,2621
46.19266399999994,27.989143999999985,2606
45.54466399999994,25.397143999999983,2324
45.22066399999994,25.397143999999983,2334
45.22066399999994,26.04514399999998,2390
47.81266399999993,24.101143999999977,2386
47.48866399999993,26.04514399999998,2476
47.81266399999993,26.04514399999998,2498
46.19266399999994,23.45314399999998,2057
45.86866399999994,23.45314399999998,2106
44.24866399999995,26.04514399999998,2384
45.22066399999994,27.989143999999985,2596
45.86866399999994,24.74914399999998,2219
46.516663999999935,25.397143999999983,2411
46.84066399999993,25.397143999999983,2294
46.19266399999994,26.04514399999998,2382
45.86866399999994,26.04514399999998,2347
43.92466399999995,23.45314399999998,2818
44.89666399999994,25.397143999999983,2445
46.19266399999994,20.86114399999998,2379
47.81266399999993,25.397143999999983,2510
44.572663999999946,22.805143999999984,2823
44.572663999999946,22.15714399999998,2965
46.516663999999935,23.45314399999998,2196
45.86866399999994,25.397143999999983,2273
44.24866399999995,27.34114399999998,3211
45.22066399999994,24.74914399999998,2536
45.54466399999994,22.805143999999984,2226
45.22066399999994,28.63714399999997,2656
44.89666399999994,28.63714399999997,2595
47.81266399999993,23.45314399999998,1756
46.19266399999994,24.74914399999998,2305
46.19266399999994,25.397143999999983,2329
43.92466399999995,24.101143999999977,2781
43.92466399999995,24.74914399999998,2794
47.81266399999993,26.69314399999997,2725
47.48866399999993,24.101143999999977,2318
46.84066399999993,26.04514399999998,3126
46.19266399999994,22.805143999999984,2450
47.48866399999993,27.34114399999998,2678
46.19266399999994,20.213143999999986,65535
45.54466399999994,26.04514399999998,2482
44.24866399999995,26.69314399999997,2400
45.86866399999994,27.989143999999985,2654
47.81266399999993,5.957143999999991,2266
