51.56399999999999,-0.4100000000000028,65535
51.887999999999984,-0.4100000000000028,65535
50.91599999999999,-1.7060000000000022,65535
51.23999999999999,-1.0580000000000025,65535
51.56399999999999,-1.0580000000000025,65535
51.23999999999999,-1.7060000000000022,65535
51.56399999999999,0.2379999999999968,65535
47.16466399999993,9.845143999999989,9017
47.48866399999993,9.845143999999989,8998
48.136663999999925,14.381143999999988,9314
47.81266399999993,13.085143999999987,9025
47.16466399999993,11.141143999999988,9050
47.48866399999993,11.789143999999988,9139
48.136663999999925,16.325143999999987,9094
47.48866399999993,12.437143999999988,8994
48.136663999999925,15.677143999999986,9163
47.16466399999993,10.493143999999988,9061
47.16466399999993,9.197143999999987,9008
48.136663999999925,13.733143999999989,9323
48.136663999999925,15.029143999999986,9379
47.81266399999993,16.973143999999984,9115
48.46066399999992,14.381143999999988,9544
47.48866399999993,13.085143999999987,9040
47.16466399999993,13.085143999999987,9046
47.48866399999993,14.381143999999988,9129
47.48866399999993,13.733143999999989,9108
47.48866399999993,15.029143999999986,9147
46.516663999999935,13.733143999999989,9383
46.84066399999993,13.733143999999989,9400
46.84066399999993,13.085143999999987,9405
48.78466399999992,14.381143999999988,65535
47.16466399999993,15.677143999999986,9180
46.516663999999935,14.381143999999988,9354
46.84066399999993,14.381143999999988,9295
47.16466399999993,14.381143999999988,9245
46.516663999999935,15.029143999999986,9366
47.81266399999993,16.325143999999987,9112
47.16466399999993,15.029143999999986,9220
47.81266399999993,15.677143999999986,9118
47.48866399999993,15.677143999999986,9157
46.516663999999935,13.085143999999987,65535
46.84066399999993,12.437143999999988,9418
48.136663999999925,11.789143999999988,8939
47.81266399999993,12.437143999999988,8960
46.84066399999993,15.677143999999986,9448
46.516663999999935,15.677143999999986,9343
46.84066399999993,16.325143999999987,9239
47.81266399999993,14.381143999999988,9337
48.78466399999992,16.973143999999984,9052
48.136663999999925,16.973143999999984,9081
48.46066399999992,13.733143999999989,9039
47.81266399999993,13.733143999999989,9494
50.08066399999991,8.54914399999999,8976
48.46066399999992,9.845143999999989,8968
51.05266399999991,7.25314399999999,8997
51.37666399999991,7.25314399999999,8991
51.37666399999991,6.60514399999999,8993
48.46066399999992,16.325143999999987,9099
48.46066399999992,16.973143999999984,9068
48.78466399999992,16.325143999999987,9110
48.46066399999992,15.677143999999986,9120
48.78466399999992,15.677143999999986,9213
47.48866399999993,16.325143999999987,9122
47.16466399999993,16.325143999999987,9174
46.19266399999994,14.381143999999988,9410
45.86866399999994,15.677143999999986,9407
43.60066399999995,16.325143999999987,65535
45.54466399999994,14.381143999999988,9425
45.54466399999994,13.733143999999989,9446
48.136663999999925,13.085143999999987,9015
48.46066399999992,11.141143999999988,8934
48.136663999999925,11.141143999999988,8944
48.46066399999992,7.90114399999999,8986
49.10866399999992,8.54914399999999,8979
48.78466399999992,2.0691439999999925,9151
49.10866399999992,7.25314399999999,8991
52.0246639999999,7.90114399999999,8990
47.16466399999993,11.789143999999988,9072
49.43266399999992,11.141143999999988,8898
53.64466399999989,9.845143999999989,9003
50.72866399999991,4.013143999999992,9053
51.05266399999991,11.141143999999988,8878
47.48866399999993,11.141143999999988,8973
46.84066399999993,11.789143999999988,65535
46.516663999999935,11.141143999999988,65535
45.54466399999994,11.141143999999988,65535
46.19266399999994,11.141143999999988,65535
45.86866399999994,11.141143999999988,65535
44.572663999999946,11.141143999999988,65535
43.92466399999995,12.437143999999988,65535
45.54466399999994,12.437143999999988,65535
45.54466399999994,11.789143999999988,65535
48.78466399999992,15.029143999999986,9252
47.81266399999993,15.029143999999986,9390
47.81266399999993,11.141143999999988,8949
50.40466399999991,18.917143999999983,8738
52.3486639999999,20.86114399999998,8565
54.616663999999886,18.269143999999983,8736
54.29266399999989,18.917143999999983,8724
49.10866399999992,14.381143999999988,65535
50.08066399999991,14.381143999999988,8847
48.78466399999992,13.733143999999989,65535
52.6726639999999,13.085143999999987,8818
52.3486639999999,13.085143999999987,8815
53.96866399999989,12.437143999999988,8964
54.29266399999989,12.437143999999988,8962
47.48866399999993,8.54914399999999,9022
47.81266399999993,17.621143999999987,9149
47.48866399999993,18.917143999999983,9260
47.48866399999993,20.86114399999998,9481
46.84066399999993,23.45314399999998,65535
44.572663999999946,26.04514399999998,65535
47.48866399999993,21.50914399999997,9515
47.81266399999993,21.50914399999997,9548
48.46066399999992,22.15714399999998,9097
47.48866399999993,16.973143999999984,65535
49.10866399999992,16.325143999999987,9007
49.75666399999992,18.269143999999983,8790
46.19266399999994,13.085143999999987,65535
41.98066399999996,12.437143999999988,65535
43.60066399999995,10.493143999999988,65535
45.54466399999994,9.197143999999987,9128
47.81266399999993,22.805143999999984,65535
49.75666399999992,22.805143999999984,8887
50.72866399999991,3.365143999999992,9061
51.05266399999991,4.013143999999992,9059
50.72866399999991,4.661143999999991,9049
51.05266399999991,4.661143999999991,9052
51.05266399999991,3.365143999999992,9065
51.05266399999991,2.717143999999992,9110
50.40466399999991,4.661143999999991,9059
50.72866399999991,2.717143999999992,9086
50.40466399999991,4.013143999999992,9058
51.05266399999991,5.309143999999991,9044
50.72866399999991,5.309143999999991,9033
51.37666399999991,3.365143999999992,9087
51.37666399999991,4.661143999999991,9060
50.72866399999991,5.957143999999991,9009
50.40466399999991,5.957143999999991,9012
50.40466399999991,3.365143999999992,9063
50.40466399999991,5.309143999999991,9032
50.08066399999991,5.309143999999991,9049
49.75666399999992,5.309143999999991,9044
49.75666399999992,5.957143999999991,9030
51.37666399999991,5.309143999999991,9018
51.700663999999904,4.661143999999991,9036
50.08066399999991,4.013143999999992,9095
50.08066399999991,5.957143999999991,9021
50.08066399999991,4.661143999999991,9078
49.43266399999992,5.309143999999991,9059
49.43266399999992,5.957143999999991,9045
52.0246639999999,4.661143999999991,9044
52.3486639999999,4.661143999999991,9046
50.72866399999991,15.029143999999986,8761
51.05266399999991,15.029143999999986,8754
51.05266399999991,13.733143999999989,8791
50.40466399999991,13.085143999999987,8867
49.10866399999992,7.90114399999999,8981
48.78466399999992,7.90114399999999,8975
50.40466399999991,7.90114399999999,8988
50.08066399999991,7.90114399999999,8981
49.75666399999992,7.90114399999999,8985
49.43266399999992,7.90114399999999,9005
49.75666399999992,8.54914399999999,8979
49.43266399999992,8.54914399999999,8982
49.43266399999992,9.197143999999987,8953
49.10866399999992,9.197143999999987,8963
47.48866399999993,7.90114399999999,9030
47.81266399999993,7.90114399999999,9009
48.136663999999925,7.90114399999999,9002
48.136663999999925,9.845143999999989,8976
47.81266399999993,9.197143999999987,9011
47.81266399999993,8.54914399999999,9013
47.81266399999993,9.845143999999989,8993
54.940663999999884,9.197143999999987,9072
54.616663999999886,9.197143999999987,9060
54.29266399999989,9.197143999999987,9068
53.96866399999989,9.197143999999987,9081
53.64466399999989,9.197143999999987,9015
54.616663999999886,9.845143999999989,9052
54.29266399999989,9.845143999999989,9041
53.96866399999989,9.845143999999989,9018
53.64466399999989,10.493143999999988,9012
53.96866399999989,10.493143999999988,9038
53.96866399999989,11.141143999999988,9071
54.29266399999989,10.493143999999988,9058
53.32066399999989,10.493143999999988,8974
54.940663999999884,11.141143999999988,9159
52.6726639999999,13.733143999999989,8812
52.3486639999999,13.733143999999989,8811
52.3486639999999,14.381143999999988,8798
52.0246639999999,14.381143999999988,8816
52.0246639999999,11.789143999999988,8854
52.3486639999999,11.789143999999988,8847
52.3486639999999,12.437143999999988,8827
52.0246639999999,15.029143999999986,8822
51.700663999999904,14.381143999999988,8798
52.0246639999999,13.733143999999989,8820
51.700663999999904,13.733143999999989,8810
52.6726639999999,12.437143999999988,8862
53.32066399999989,11.789143999999988,8949
53.96866399999989,11.789143999999988,8958
53.64466399999989,11.789143999999988,8980
53.64466399999989,11.141143999999988,8982
53.32066399999989,11.141143999999988,8973
52.996663999999896,11.789143999999988,8912
52.996663999999896,12.437143999999988,8904
52.996663999999896,13.733143999999989,8820
53.64466399999989,13.733143999999989,8896
53.96866399999989,13.733143999999989,8930
54.29266399999989,13.085143999999987,8972
53.96866399999989,13.085143999999987,8939
53.32066399999989,13.733143999999989,8867
52.0246639999999,13.085143999999987,8896
51.700663999999904,13.085143999999987,8866
52.996663999999896,14.381143999999988,8838
52.0246639999999,12.437143999999988,8832
51.700663999999904,12.437143999999988,8869
51.37666399999991,11.789143999999988,8847
51.37666399999991,12.437143999999988,8844
52.6726639999999,11.789143999999988,8870
53.64466399999989,13.085143999999987,8923
53.32066399999989,13.085143999999987,8865
52.996663999999896,13.085143999999987,8838
53.64466399999989,12.437143999999988,8908
51.37666399999991,13.733143999999989,8794
53.32066399999989,12.437143999999988,8936
52.6726639999999,14.381143999999988,8801
51.37666399999991,13.085143999999987,8809
53.32066399999989,14.381143999999988,8864
52.3486639999999,15.029143999999986,8743
52.0246639999999,15.677143999999986,8762
51.700663999999904,15.029143999999986,8787
51.05266399999991,16.325143999999987,8692
51.05266399999991,16.973143999999984,8699
51.700663999999904,15.677143999999986,8735
51.37666399999991,15.677143999999986,8690
51.37666399999991,16.325143999999987,8685
50.72866399999991,13.085143999999987,8823
50.72866399999991,12.437143999999988,8845
51.05266399999991,13.085143999999987,8806
51.05266399999991,14.381143999999988,8786
50.40466399999991,12.437143999999988,8861
50.40466399999991,11.789143999999988,8893
50.08066399999991,12.437143999999988,8951
50.72866399999991,11.789143999999988,8866
51.05266399999991,12.437143999999988,8837
50.72866399999991,14.381143999999988,8834
51.37666399999991,14.381143999999988,8779
50.72866399999991,13.733143999999989,8795
50.40466399999991,14.381143999999988,8817
51.37666399999991,15.029143999999986,8722
55.26466399999988,9.197143999999987,9082
55.58866399999988,8.54914399999999,9122
55.91266399999988,8.54914399999999,9135
56.23666399999988,9.197143999999987,9125
56.23666399999988,10.493143999999988,9117
56.23666399999988,9.845143999999989,9104
55.91266399999988,9.845143999999989,9097
56.56066399999988,9.197143999999987,9180
56.56066399999988,8.54914399999999,9191
51.05266399999991,6.60514399999999,8994
51.700663999999904,7.90114399999999,8988
50.72866399999991,6.60514399999999,9007
51.700663999999904,7.25314399999999,8997
50.72866399999991,7.25314399999999,9004
52.0246639999999,7.25314399999999,9003
52.3486639999999,7.90114399999999,8991
51.05266399999991,5.957143999999991,9004
50.40466399999991,7.25314399999999,8995
51.700663999999904,6.60514399999999,9013
51.700663999999904,5.957143999999991,9008
52.3486639999999,9.197143999999987,8927
51.700663999999904,8.54914399999999,8977
52.0246639999999,8.54914399999999,8960
52.3486639999999,8.54914399999999,8953
51.37666399999991,7.90114399999999,8994
52.3486639999999,7.25314399999999,9019
51.37666399999991,5.957143999999991,9013
50.72866399999991,7.90114399999999,9031
51.37666399999991,9.197143999999987,8948
51.700663999999904,9.197143999999987,8953
50.40466399999991,6.60514399999999,9046
51.05266399999991,7.90114399999999,9006
51.37666399999991,8.54914399999999,8996
52.0246639999999,5.957143999999991,9019
52.3486639999999,6.60514399999999,9026
51.05266399999991,8.54914399999999,9016
52.0246639999999,9.197143999999987,8942
52.6726639999999,9.197143999999987,8972
52.0246639999999,9.845143999999989,8942
51.700663999999904,9.845143999999989,8950
51.37666399999991,9.845143999999989,8896
50.72866399999991,8.54914399999999,8993
51.05266399999991,9.845143999999989,8928
50.72866399999991,9.845143999999989,8949
50.40466399999991,9.845143999999989,8970
51.05266399999991,9.197143999999987,8960
50.40466399999991,9.197143999999987,8975
50.08066399999991,9.197143999999987,8965
51.05266399999991,10.493143999999988,8881
50.40466399999991,8.54914399999999,8972
50.72866399999991,9.197143999999987,8992
49.75666399999992,9.197143999999987,8964
52.996663999999896,9.197143999999987,9009
52.3486639999999,9.845143999999989,8924
52.996663999999896,8.54914399999999,9026
52.996663999999896,7.90114399999999,9053
53.32066399999989,7.90114399999999,9103
53.32066399999989,7.25314399999999,9105
53.64466399999989,7.25314399999999,9178
52.996663999999896,10.493143999999988,8963
52.6726639999999,10.493143999999988,8956
52.6726639999999,9.845143999999989,8940
53.32066399999989,9.845143999999989,8991
53.32066399999989,9.197143999999987,9026
53.64466399999989,8.54914399999999,9060
53.32066399999989,8.54914399999999,9029
52.6726639999999,8.54914399999999,9003
52.0246639999999,10.493143999999988,8909
52.0246639999999,11.141143999999988,8864
51.700663999999904,11.141143999999988,8893
52.6726639999999,7.25314399999999,9545
52.996663999999896,7.25314399999999,9110
52.6726639999999,7.90114399999999,9007
53.64466399999989,7.90114399999999,9131
52.996663999999896,11.141143999999988,8981
52.6726639999999,11.141143999999988,8902
52.3486639999999,10.493143999999988,8904
52.996663999999896,9.845143999999989,8976
51.700663999999904,10.493143999999988,8885
51.37666399999991,10.493143999999988,8867
51.700663999999904,11.789143999999988,8867
52.3486639999999,11.141143999999988,8885
51.37666399999991,11.141143999999988,8864
51.05266399999991,11.789143999999988,8862
49.10866399999992,11.141143999999988,8907
48.78466399999992,11.141143999999988,8923
48.46066399999992,11.789143999999988,8938
49.43266399999992,11.789143999999988,8903
50.08066399999991,11.789143999999988,8905
49.75666399999992,12.437143999999988,8929
49.10866399999992,11.789143999999988,8905
48.78466399999992,12.437143999999988,8964
48.46066399999992,12.437143999999988,8952
49.10866399999992,12.437143999999988,8921
48.78466399999992,13.085143999999987,8991
48.136663999999925,12.437143999999988,8981
47.81266399999993,11.789143999999988,8948
48.136663999999925,10.493143999999988,8962
47.81266399999993,10.493143999999988,9009
48.78466399999992,10.493143999999988,8936
47.48866399999993,10.493143999999988,9036
48.46066399999992,10.493143999999988,8944
49.43266399999992,13.085143999999987,8978
48.46066399999992,13.085143999999987,9013
49.43266399999992,10.493143999999988,8919
49.75666399999992,9.845143999999989,8920
49.75666399999992,10.493143999999988,8898
50.40466399999991,11.141143999999988,8882
50.08066399999991,11.141143999999988,8887
50.72866399999991,11.141143999999988,8878
49.75666399999992,11.141143999999988,8896
48.78466399999992,11.789143999999988,8938
50.40466399999991,10.493143999999988,8893
50.08066399999991,9.845143999999989,8959
50.08066399999991,10.493143999999988,8915
49.43266399999992,12.437143999999988,8944
49.75666399999992,11.789143999999988,8898
49.10866399999992,13.085143999999987,9033
50.72866399999991,10.493143999999988,8886
49.10866399999992,10.493143999999988,8931
48.78466399999992,9.845143999999989,8956
48.46066399999992,8.54914399999999,8969
48.46066399999992,9.197143999999987,8965
48.78466399999992,9.197143999999987,8961
48.78466399999992,8.54914399999999,8967
50.08066399999991,7.25314399999999,8991
49.75666399999992,6.60514399999999,9021
49.43266399999992,6.60514399999999,9028
49.10866399999992,6.60514399999999,9026
49.43266399999992,7.25314399999999,9006
49.75666399999992,7.25314399999999,8995
49.10866399999992,5.957143999999991,9049
48.78466399999992,7.25314399999999,9042
50.08066399999991,6.60514399999999,9018
47.48866399999993,9.197143999999987,9002
48.136663999999925,8.54914399999999,8982
48.136663999999925,9.197143999999987,8985
47.81266399999993,7.25314399999999,9012
49.43266399999992,9.845143999999989,8925
49.10866399999992,9.845143999999989,8952
53.64466399999989,14.381143999999988,8903
50.08066399999991,13.085143999999987,8938
49.75666399999992,13.085143999999987,8975
45.86866399999994,9.197143999999987,9118
46.19266399999994,9.197143999999987,9104
46.516663999999935,8.54914399999999,9050
46.516663999999935,9.197143999999987,9099
46.19266399999994,8.54914399999999,9101
47.16466399999993,8.54914399999999,9017
45.86866399999994,4.661143999999991,9202
46.84066399999993,9.845143999999989,9033
45.22066399999994,5.957143999999991,9171
45.22066399999994,5.309143999999991,9186
45.86866399999994,5.957143999999991,9120
45.54466399999994,5.957143999999991,9153
44.89666399999994,4.661143999999991,9216
44.89666399999994,5.309143999999991,9209
44.572663999999946,4.661143999999991,9239
44.24866399999995,4.661143999999991,9254
43.92466399999995,4.661143999999991,9269
46.19266399999994,7.25314399999999,9079
48.78466399999992,5.957143999999991,9082
48.136663999999925,6.60514399999999,9071
48.46066399999992,6.60514399999999,9050
48.78466399999992,6.60514399999999,9091
47.16466399999993,7.90114399999999,9031
48.136663999999925,7.25314399999999,8998
48.46066399999992,7.25314399999999,8996
46.516663999999935,6.60514399999999,9076
46.84066399999993,6.60514399999999,9053
46.84066399999993,7.25314399999999,9044
46.516663999999935,5.957143999999991,9105
46.19266399999994,5.957143999999991,9107
46.84066399999993,8.54914399999999,9021
46.84066399999993,7.90114399999999,9035
45.86866399999994,5.309143999999991,9177
46.19266399999994,6.60514399999999,9097
45.86866399999994,6.60514399999999,9103
47.48866399999993,6.60514399999999,9056
47.48866399999993,7.25314399999999,9029
47.16466399999993,7.25314399999999,9038
49.10866399999992,4.013143999999992,9108
49.75666399999992,4.661143999999991,9117
49.43266399999992,4.661143999999991,9172
49.10866399999992,5.309143999999991,9079
46.19266399999994,4.661143999999991,9198
46.84066399999993,9.197143999999987,9024
46.19266399999994,5.309143999999991,9190
46.516663999999935,5.309143999999991,9167
45.54466399999994,6.60514399999999,9187
45.54466399999994,5.309143999999991,9210
43.60066399999995,4.013143999999992,9293
43.60066399999995,3.365143999999992,9317
42.62866399999996,2.717143999999992,9385
43.276663999999954,2.717143999999992,9349
45.54466399999994,4.661143999999991,9206
45.22066399999994,4.661143999999991,9224
47.16466399999993,5.309143999999991,9119
47.16466399999993,5.957143999999991,9088
46.19266399999994,7.90114399999999,9066
49.75666399999992,2.717143999999992,9130
49.10866399999992,2.717143999999992,9148
48.78466399999992,2.717143999999992,9148
45.86866399999994,3.365143999999992,9322
46.84066399999993,3.365143999999992,9232
46.516663999999935,3.365143999999992,9270
46.19266399999994,3.365143999999992,9299
47.16466399999993,6.60514399999999,9068
49.10866399999992,3.365143999999992,9139
45.54466399999994,4.013143999999992,9212
46.516663999999935,7.25314399999999,9071
47.16466399999993,4.661143999999991,9150
46.84066399999993,4.661143999999991,9177
46.516663999999935,4.661143999999991,9202
46.84066399999993,5.957143999999991,9125
47.81266399999993,3.365143999999992,9239
47.48866399999993,4.013143999999992,9189
48.136663999999925,4.013143999999992,9228
47.81266399999993,4.013143999999992,9200
47.48866399999993,4.661143999999991,9181
47.16466399999993,3.365143999999992,9249
46.84066399999993,4.013143999999992,9200
48.46066399999992,5.957143999999991,9153
46.19266399999994,2.717143999999992,9373
47.16466399999993,2.0691439999999925,9275
46.516663999999935,2.717143999999992,9399
46.84066399999993,2.717143999999992,9298
46.84066399999993,2.0691439999999925,9267
47.16466399999993,2.717143999999992,9281
44.572663999999946,5.309143999999991,9250
44.572663999999946,5.957143999999991,9264
44.89666399999994,6.60514399999999,9207
44.572663999999946,6.60514399999999,9229
43.60066399999995,5.309143999999991,9294
43.92466399999995,7.25314399999999,9245
43.60066399999995,6.60514399999999,9266
43.276663999999954,6.60514399999999,9284
43.276663999999954,5.957143999999991,9304
45.86866399999994,8.54914399999999,9117
45.54466399999994,8.54914399999999,9122
48.136663999999925,3.365143999999992,9264
48.46066399999992,3.365143999999992,9218
48.46066399999992,2.717143999999992,9232
47.48866399999993,5.309143999999991,9168
46.516663999999935,9.845143999999989,9044
46.84066399999993,10.493143999999988,65535
47.81266399999993,5.309143999999991,9195
45.22066399999994,6.60514399999999,9201
46.19266399999994,4.013143999999992,9244
45.86866399999994,4.013143999999992,9221
45.22066399999994,4.013143999999992,9222
44.89666399999994,4.013143999999992,9288
46.84066399999993,5.309143999999991,9157
48.136663999999925,-1.8188560000000056,9258
48.136663999999925,0.1251439999999934,9208
48.136663999999925,-0.5228560000000062,9236
47.48866399999993,-0.5228560000000062,9251
47.16466399999993,-1.8188560000000056,9294
47.48866399999993,0.7731439999999932,9215
47.16466399999993,0.1251439999999934,9238
45.86866399999994,7.25314399999999,9109
48.136663999999925,5.309143999999991,9183
49.10866399999992,4.661143999999991,9131
48.46066399999992,4.013143999999992,9230
48.136663999999925,4.661143999999991,9255
47.81266399999993,6.60514399999999,9091
47.48866399999993,5.957143999999991,9154
48.136663999999925,5.957143999999991,65535
45.86866399999994,7.90114399999999,9080
46.516663999999935,7.90114399999999,9049
49.43266399999992,3.365143999999992,9159
49.43266399999992,4.013143999999992,9153
48.136663999999925,2.717143999999992,9231
47.81266399999993,2.717143999999992,9261
47.48866399999993,2.717143999999992,9280
50.40466399999991,2.717143999999992,9072
48.46066399999992,-4.410856000000004,9395
48.46066399999992,-3.7628560000000046,9359
48.46066399999992,-3.114856000000005,9330
48.46066399999992,-2.4668560000000053,9309
47.48866399999993,1.4211439999999929,9246
47.16466399999993,1.4211439999999929,9258
46.516663999999935,4.013143999999992,9205
43.60066399999995,4.661143999999991,9279
44.89666399999994,2.717143999999992,9481
45.22066399999994,2.717143999999992,9459
45.54466399999994,3.365143999999992,9348
45.22066399999994,3.365143999999992,9388
47.48866399999993,3.365143999999992,9416
46.19266399999994,9.845143999999989,9085
47.81266399999993,2.0691439999999925,9244
47.48866399999993,2.0691439999999925,9253
45.86866399999994,2.717143999999992,65535
44.89666399999994,5.957143999999991,9217
45.22066399999994,1.4211439999999929,9360
44.89666399999994,1.4211439999999929,9362
44.89666399999994,2.0691439999999925,9389
43.276663999999954,2.0691439999999925,9457
43.60066399999995,1.4211439999999929,9451
48.78466399999992,4.661143999999991,9153
48.78466399999992,5.309143999999991,9132
46.19266399999994,2.0691439999999925,9439
45.86866399999994,1.4211439999999929,9353
46.19266399999994,1.4211439999999929,9319
44.572663999999946,4.013143999999992,9336
44.89666399999994,3.365143999999992,9381
43.92466399999995,4.013143999999992,9293
44.24866399999995,4.013143999999992,9362
44.89666399999994,-0.5228560000000062,9314
45.54466399999994,0.1251439999999934,9323
46.516663999999935,0.1251439999999934,9262
44.572663999999946,2.0691439999999925,9396
49.75666399999992,4.013143999999992,9147
43.92466399999995,3.365143999999992,65535
43.92466399999995,2.717143999999992,65535
44.24866399999995,3.365143999999992,65535
44.572663999999946,3.365143999999992,9417
49.10866399999992,0.1251439999999934,9250
49.43266399999992,0.7731439999999932,9236
49.43266399999992,-1.8188560000000056,9296
49.10866399999992,-1.170856000000006,9280
49.10866399999992,-0.5228560000000062,9271
49.10866399999992,0.7731439999999932,9230
49.10866399999992,1.4211439999999929,9206
47.81266399999993,-1.8188560000000056,9284
47.81266399999993,-2.4668560000000053,9327
47.81266399999993,-3.114856000000005,9340
48.136663999999925,-3.7628560000000046,9375
44.572663999999946,9.197143999999987,9296
44.89666399999994,8.54914399999999,9177
45.22066399999994,9.197143999999987,9139
45.54466399999994,10.493143999999988,9187
44.572663999999946,10.493143999999988,65535
44.89666399999994,10.493143999999988,9253
44.89666399999994,9.845143999999989,9205
48.46066399999992,5.309143999999991,9171
50.91599999999999,-1.0580000000000025,65535
51.23999999999999,-0.4100000000000028,65535
50.91599999999999,-0.4100000000000028,65535
51.23999999999999,-2.354000000000002,65535
51.56399999999999,-2.354000000000002,65535
51.56399999999999,-3.0020000000000016,65535
50.91599999999999,-2.354000000000002,65535
53.50799999999997,-3.0020000000000016,65535
53.183999999999976,-2.354000000000002,65535
53.183999999999976,-3.0020000000000016,65535
52.85999999999998,-2.354000000000002,65535
52.21199999999998,-1.0580000000000025,65535
51.887999999999984,-1.0580000000000025,65535
52.53599999999998,-1.0580000000000025,65535
52.53599999999998,-1.7060000000000022,65535
52.85999999999998,-1.7060000000000022,65535
53.50799999999997,-2.354000000000002,65535
52.85999999999998,-1.0580000000000025,65535
52.53599999999998,1.5339999999999965,65535
52.53599999999998,0.8859999999999966,65535
52.53599999999998,0.2379999999999968,65535
52.53599999999998,-0.4100000000000028,65535
53.50799999999997,-1.7060000000000022,65535
53.183999999999976,-1.7060000000000022,65535
53.183999999999976,-1.0580000000000025,65535
52.85999999999998,-0.4100000000000028,65535
51.887999999999984,-2.354000000000002,65535
52.21199999999998,-2.354000000000002,65535
55.77599999999996,-2.354000000000002,65535
53.83199999999997,-1.0580000000000025,65535
53.83199999999997,-1.7060000000000022,65535
55.127999999999965,-1.7060000000000022,65535
54.80399999999997,-1.7060000000000022,65535
54.47999999999997,-1.7060000000000022,65535
54.15599999999997,-1.0580000000000025,65535
52.21199999999998,-1.7060000000000022,65535
53.50799999999997,-1.0580000000000025,65535
55.77599999999996,-3.0020000000000016,65535
55.45199999999996,-1.7060000000000022,65535
57.07199999999995,-2.354000000000002,65535
56.74799999999996,-3.0020000000000016,65535
56.42399999999996,-3.0020000000000016,65535
56.09999999999996,-3.650000000000001,65535
50.91599999999999,-3.0020000000000016,65535
50.91599999999999,-3.650000000000001,65535
50.59199999999999,-3.650000000000001,65535
50.59199999999999,-4.298000000000001,65535
51.23999999999999,-3.0020000000000016,65535
50.268,-4.946000000000001,65535
55.77599999999996,-3.650000000000001,65535
55.77599999999996,-4.298000000000001,65535
52.21199999999998,-0.4100000000000028,65535
52.53599999999998,-2.354000000000002,65535
51.56399999999999,-1.7060000000000022,65535
51.56399999999999,-3.650000000000001,65535
51.887999999999984,-4.298000000000001,65535
51.56399999999999,-4.298000000000001,65535
51.887999999999984,-1.7060000000000022,65535
52.21199999999998,-3.0020000000000016,65535
51.23999999999999,0.2379999999999968,65535
50.91599999999999,0.2379999999999968,65535
52.21199999999998,0.2379999999999968,65535
53.83199999999997,-3.0020000000000016,65535
54.15599999999997,-3.0020000000000016,65535
54.47999999999997,-3.0020000000000016,65535
55.127999999999965,-3.650000000000001,65535
54.80399999999997,-3.0020000000000016,65535
53.83199999999997,-2.354000000000002,65535
54.15599999999997,-0.4100000000000028,65535
54.47999999999997,-1.0580000000000025,65535
53.83199999999997,-0.4100000000000028,65535
53.183999999999976,-3.650000000000001,65535
53.183999999999976,-4.298000000000001,65535
52.85999999999998,-3.0020000000000016,65535
52.53599999999998,-3.0020000000000016,65535
51.887999999999984,-3.0020000000000016,65535
51.23999999999999,0.8859999999999966,65535
51.887999999999984,0.2379999999999968,65535
52.21199999999998,0.8859999999999966,65535
51.887999999999984,-4.946000000000001,65535
52.53599999999998,-3.650000000000001,65535
52.21199999999998,-4.298000000000001,65535
53.183999999999976,-0.4100000000000028,65535
51.23999999999999,-3.650000000000001,65535
51.887999999999984,-3.650000000000001,65535
52.21199999999998,-3.650000000000001,65535
51.56399999999999,0.8859999999999966,65535
51.887999999999984,0.8859999999999966,65535
52.85999999999998,0.8859999999999966,65535
53.50799999999997,-0.4100000000000028,65535
56.09999999999996,-4.298000000000001,65535
56.74799999999996,-4.946000000000001,65535
56.74799999999996,-4.298000000000001,65535
56.42399999999996,-4.946000000000001,65535
56.42399999999996,-4.298000000000001,65535
56.09999999999996,-4.946000000000001,65535
57.39599999999995,-4.298000000000001,65535
57.39599999999995,-3.0020000000000016,65535
57.39599999999995,-3.650000000000001,65535
56.42399999999996,-3.650000000000001,65535
57.07199999999995,-3.650000000000001,65535
57.07199999999995,-4.298000000000001,65535
56.74799999999996,-3.650000000000001,65535
59.15266399999986,27.34114399999998,65535
59.47666399999986,26.69314399999997,65535
59.47666399999986,26.04514399999998,65535
59.15266399999986,26.04514399999998,65535
59.15266399999986,24.74914399999998,65535
59.15266399999986,25.397143999999983,65535
59.47666399999986,25.397143999999983,65535
58.50466399999986,26.69314399999997,65535
58.82866399999986,26.69314399999997,65535
57.85666399999987,26.04514399999998,65535
58.180663999999865,26.04514399999998,65535
58.180663999999865,26.69314399999997,65535
58.82866399999986,26.04514399999998,65535
58.50466399999986,25.397143999999983,65535
58.82866399999986,25.397143999999983,65535
58.82866399999986,24.74914399999998,65535
58.180663999999865,27.34114399999998,65535
57.85666399999987,27.34114399999998,65535
63.68866399999983,27.34114399999998,65535
60.124663999999854,24.74914399999998,65535
60.44866399999985,24.74914399999998,65535
60.44866399999985,25.397143999999983,65535
60.77266399999985,25.397143999999983,65535
61.09666399999985,26.04514399999998,65535
60.77266399999985,26.04514399999998,65535
60.77266399999985,26.69314399999997,65535
61.09666399999985,25.397143999999983,65535
61.09666399999985,26.69314399999997,65535
61.420663999999846,26.69314399999997,65535
61.74466399999984,27.34114399999998,65535
62.06866399999984,27.34114399999998,65535
62.39266399999984,27.34114399999998,65535
62.71666399999984,27.34114399999998,65535
64.01266399999983,27.34114399999998,65535
63.36466399999984,27.34114399999998,65535
63.04066399999984,27.34114399999998,65535
63.04066399999984,27.989143999999985,65535
64.33666399999983,27.989143999999985,65535
64.33666399999983,27.34114399999998,65535
64.66066399999983,27.34114399999998,65535
64.66066399999983,26.69314399999997,65535
64.98466399999982,25.397143999999983,65535
64.66066399999983,26.04514399999998,65535
64.98466399999982,26.04514399999998,65535
66.28066399999982,25.397143999999983,65535
65.95666399999982,24.74914399999998,65535
65.63266399999982,24.74914399999998,65535
65.63266399999982,25.397143999999983,65535
65.30866399999982,25.397143999999983,65535
66.60466399999981,25.397143999999983,65535
64.01266399999983,24.74914399999998,65535
64.01266399999983,24.101143999999977,65535
64.01266399999983,23.45314399999998,65535
63.68866399999983,23.45314399999998,65535
63.68866399999983,22.805143999999984,65535
63.68866399999983,26.04514399999998,65535
63.68866399999983,25.397143999999983,65535
63.68866399999983,26.69314399999997,65535
60.44866399999985,26.69314399999997,65535
64.01266399999983,27.989143999999985,65535
62.71666399999984,22.805143999999984,65535
62.39266399999984,22.805143999999984,65535
62.06866399999984,22.805143999999984,65535
62.06866399999984,23.45314399999998,65535
61.74466399999984,23.45314399999998,65535
61.420663999999846,23.45314399999998,65535
61.09666399999985,23.45314399999998,65535
61.09666399999985,24.101143999999977,65535
61.09666399999985,24.74914399999998,65535
60.77266399999985,24.74914399999998,65535
63.04066399999984,21.50914399999997,65535
63.04066399999984,22.15714399999998,65535
63.04066399999984,22.805143999999984,65535
62.39266399999984,26.04514399999998,65535
62.06866399999984,25.397143999999983,65535
61.74466399999984,25.397143999999983,65535
61.74466399999984,24.74914399999998,65535
61.74466399999984,24.101143999999977,65535
61.420663999999846,24.101143999999977,65535
62.39266399999984,26.69314399999997,65535
64.66066399999983,25.397143999999983,65535
64.66066399999983,24.74914399999998,65535
64.33666399999983,24.74914399999998,65535
63.36466399999984,22.805143999999984,65535
67.25266399999981,24.101143999999977,65535
66.92866399999981,24.101143999999977,65535
66.60466399999981,23.45314399999998,65535
66.28066399999982,23.45314399999998,65535
66.28066399999982,24.101143999999977,65535
65.95666399999982,24.101143999999977,65535
60.124663999999854,24.101143999999977,65535
60.124663999999854,23.45314399999998,65535
60.44866399999985,22.805143999999984,65535
60.77266399999985,27.34114399999998,65535
61.09666399999985,27.989143999999985,65535
61.09666399999985,28.63714399999997,65535
61.420663999999846,29.28514399999997,65535
61.74466399999984,29.933143999999977,65535
62.06866399999984,29.933143999999977,65535
62.39266399999984,29.933143999999977,65535
62.71666399999984,29.933143999999977,65535
61.420663999999846,22.805143999999984,65535
61.420663999999846,22.15714399999998,65535
61.09666399999985,22.15714399999998,65535
61.420663999999846,21.50914399999997,65535
62.39266399999984,27.989143999999985,65535
62.06866399999984,27.989143999999985,65535
61.420663999999846,27.34114399999998,65535
63.04066399999984,29.933143999999977,65535
63.68866399999983,29.28514399999997,65535
63.36466399999984,29.28514399999997,65535
63.36466399999984,29.933143999999977,65535
60.44866399999985,27.34114399999998,65535
61.74466399999984,29.28514399999997,65535
62.39266399999984,30.58114399999998,65535
62.71666399999984,31.229143999999977,65535
62.71666399999984,29.28514399999997,65535
63.04066399999984,28.63714399999997,65535
66.60466399999981,26.04514399999998,65535
66.60466399999981,26.69314399999997,65535
66.60466399999981,27.34114399999998,65535
62.71666399999984,26.04514399999998,65535
62.71666399999984,25.397143999999983,65535
63.04066399999984,25.397143999999983,65535
63.36466399999984,25.397143999999983,65535
62.71666399999984,23.45314399999998,65535
62.39266399999984,24.101143999999977,65535
62.71666399999984,22.15714399999998,65535
62.39266399999984,22.15714399999998,65535
62.39266399999984,21.50914399999997,65535
61.09666399999985,21.50914399999997,65535
60.77266399999985,22.805143999999984,65535
60.44866399999985,22.15714399999998,65535
60.77266399999985,23.45314399999998,65535
60.77266399999985,21.50914399999997,65535
60.77266399999985,22.15714399999998,65535
60.124663999999854,22.805143999999984,65535
60.44866399999985,24.101143999999977,65535
62.06866399999984,24.74914399999998,65535
50.72866399999991,16.325143999999987,8751
50.40466399999991,16.973143999999984,8795
50.72866399999991,16.973143999999984,8789
50.40466399999991,16.325143999999987,8835
50.08066399999991,16.973143999999984,8889
50.08066399999991,16.325143999999987,8886
51.700663999999904,16.973143999999984,8689
51.37666399999991,16.973143999999984,8703
51.05266399999991,15.677143999999986,8782
50.72866399999991,15.677143999999986,8782
51.05266399999991,17.621143999999987,8715
51.37666399999991,17.621143999999987,8719
51.700663999999904,17.621143999999987,8685
51.700663999999904,16.325143999999987,8667
52.0246639999999,22.15714399999998,8610
52.0246639999999,21.50914399999997,8577
52.3486639999999,21.50914399999997,8579
52.0246639999999,20.86114399999998,8563
51.700663999999904,20.86114399999998,8577
51.37666399999991,21.50914399999997,8622
51.37666399999991,20.86114399999998,8611
51.05266399999991,20.86114399999998,8646
52.6726639999999,23.45314399999998,8699
52.3486639999999,22.805143999999984,8641
52.3486639999999,20.213143999999986,8595
52.0246639999999,20.213143999999986,8551
52.3486639999999,19.565143999999982,8513
52.6726639999999,19.565143999999982,8565
51.700663999999904,21.50914399999997,8650
51.700663999999904,22.15714399999998,8648
52.6726639999999,21.50914399999997,8583
52.996663999999896,21.50914399999997,8664
52.6726639999999,20.86114399999998,8585
52.6726639999999,22.15714399999998,8634
52.6726639999999,20.213143999999986,8661
52.996663999999896,19.565143999999982,8598
52.996663999999896,20.86114399999998,8595
52.996663999999896,20.213143999999986,8613
53.32066399999989,20.213143999999986,8623
51.37666399999991,20.213143999999986,8620
52.3486639999999,16.973143999999984,8634
52.0246639999999,16.973143999999984,8646
52.0246639999999,16.325143999999987,8659
52.0246639999999,17.621143999999987,8664
52.6726639999999,16.973143999999984,8641
52.996663999999896,16.973143999999984,8670
52.3486639999999,16.325143999999987,8674
52.3486639999999,15.677143999999986,8719
51.700663999999904,18.269143999999983,8642
52.6726639999999,17.621143999999987,8635
52.3486639999999,17.621143999999987,8623
52.6726639999999,18.269143999999983,8621
52.3486639999999,18.269143999999983,8586
52.3486639999999,18.917143999999983,8552
52.996663999999896,17.621143999999987,8629
51.700663999999904,19.565143999999982,8581
51.700663999999904,18.917143999999983,8605
51.37666399999991,18.269143999999983,8751
58.82866399999986,9.197143999999987,65535
58.180663999999865,7.90114399999999,65535
58.50466399999986,8.54914399999999,65535
63.36466399999984,10.493143999999988,65535
63.36466399999984,11.141143999999988,65535
63.36466399999984,11.789143999999988,65535
63.68866399999983,11.789143999999988,65535
64.33666399999983,12.437143999999988,65535
64.66066399999983,12.437143999999988,65535
65.63266399999982,13.085143999999987,65535
65.95666399999982,13.085143999999987,65535
66.28066399999982,14.381143999999988,65535
65.95666399999982,13.733143999999989,65535
66.28066399999982,13.733143999999989,65535
65.30866399999982,13.085143999999987,65535
64.98466399999982,13.085143999999987,65535
64.01266399999983,11.789143999999988,65535
63.68866399999983,11.141143999999988,65535
59.800663999999855,10.493143999999988,9464
59.800663999999855,11.141143999999988,9449
60.124663999999854,11.141143999999988,9462
60.44866399999985,11.141143999999988,9475
60.124663999999854,11.789143999999988,9488
60.77266399999985,7.25314399999999,65535
60.77266399999985,6.60514399999999,65535
59.15266399999986,9.197143999999987,65535
59.47666399999986,9.197143999999987,65535
59.800663999999855,9.845143999999989,9466
59.47666399999986,11.141143999999988,9415
61.09666399999985,10.493143999999988,9580
60.77266399999985,10.493143999999988,9518
60.77266399999985,11.141143999999988,9511
62.06866399999984,9.197143999999987,65535
61.74466399999984,9.845143999999989,65535
61.420663999999846,9.845143999999989,65535
59.15266399999986,9.845143999999989,9530
59.47666399999986,9.845143999999989,9506
58.82866399999986,5.957143999999991,65535
58.180663999999865,7.25314399999999,65535
58.50466399999986,7.25314399999999,65535
58.50466399999986,6.60514399999999,65535
58.50466399999986,5.957143999999991,65535
58.82866399999986,8.54914399999999,65535
60.44866399999985,7.25314399999999,65535
60.44866399999985,7.90114399999999,65535
60.124663999999854,10.493143999999988,9475
60.44866399999985,9.197143999999987,65535
60.77266399999985,9.197143999999987,65535
60.77266399999985,8.54914399999999,65535
60.124663999999854,9.845143999999989,65535
60.44866399999985,10.493143999999988,9482
63.04066399999984,10.493143999999988,65535
62.06866399999984,9.845143999999989,65535
62.39266399999984,9.845143999999989,65535
62.71666399999984,9.845143999999989,65535
59.47666399999986,14.381143999999988,9477
59.47666399999986,13.733143999999989,9459
59.47666399999986,13.085143999999987,9431
59.800663999999855,12.437143999999988,9511
59.15266399999986,11.141143999999988,9369
59.15266399999986,14.381143999999988,9461
58.82866399999986,11.789143999999988,9327
58.50466399999986,12.437143999999988,9285
58.180663999999865,12.437143999999988,9278
57.85666399999987,11.789143999999988,9250
62.71666399999984,7.90114399999999,65535
62.39266399999984,7.90114399999999,65535
62.06866399999984,8.54914399999999,65535
60.44866399999985,5.309143999999991,65535
60.44866399999985,5.957143999999991,65535
60.77266399999985,5.957143999999991,65535
62.39266399999984,11.141143999999988,65535
62.06866399999984,10.493143999999988,65535
61.74466399999984,11.141143999999988,65535
61.420663999999846,11.141143999999988,65535
61.09666399999985,11.141143999999988,65535
60.77266399999985,11.789143999999988,65535
63.04066399999984,11.141143999999988,65535
62.71666399999984,11.141143999999988,65535
62.39266399999984,10.493143999999988,65535
67.25266399999981,15.677143999999986,65535
67.25266399999981,15.029143999999986,65535
67.25266399999981,14.381143999999988,65535
66.92866399999981,15.029143999999986,65535
66.60466399999981,15.677143999999986,65535
64.01266399999983,11.141143999999988,65535
66.60466399999981,15.029143999999986,65535
54.29266399999989,18.269143999999983,8728
54.616663999999886,17.621143999999987,8747
53.96866399999989,18.269143999999983,8745
43.92466399999995,1.4211439999999929,9422
44.24866399999995,0.7731439999999932,9384
44.572663999999946,0.1251439999999934,9363
46.84066399999993,1.4211439999999929,9282
44.572663999999946,1.4211439999999929,9493
44.24866399999995,1.4211439999999929,65535
45.54466399999994,1.4211439999999929,9392
46.516663999999935,1.4211439999999929,9327
42.30466399999996,2.717143999999992,9447
44.24866399999995,2.717143999999992,9483
44.572663999999946,2.717143999999992,9458
43.92466399999995,2.0691439999999925,9480
42.30466399999996,2.0691439999999925,65535
42.62866399999996,2.0691439999999925,65535
42.62866399999996,1.4211439999999929,65535
42.95266399999996,1.4211439999999929,9566
43.276663999999954,1.4211439999999929,9497
46.516663999999935,-1.170856000000006,9325
46.19266399999994,-1.170856000000006,9327
45.86866399999994,-0.5228560000000062,9328
45.54466399999994,-0.5228560000000062,9338
48.46066399999992,1.4211439999999929,9175
41.332663999999966,2.0691439999999925,9568
41.98066399999996,2.717143999999992,9462
48.46066399999992,-1.8188560000000056,9280
47.81266399999993,0.7731439999999932,9193
46.84066399999993,0.7731439999999932,9239
44.572663999999946,-1.170856000000006,9327
43.60066399999995,-1.170856000000006,9448
43.276663999999954,-1.8188560000000056,9495
43.276663999999954,0.1251439999999934,9559
42.95266399999996,0.1251439999999934,9533
43.276663999999954,-0.5228560000000062,9505
43.60066399999995,-0.5228560000000062,9482
47.81266399999993,-3.7628560000000046,9427
47.48866399999993,-2.4668560000000053,9314
47.81266399999993,-0.5228560000000062,9244
46.516663999999935,-1.8188560000000056,9436
48.136663999999925,-1.170856000000006,9250
47.48866399999993,-1.170856000000006,9297
45.22066399999994,8.54914399999999,9136
45.22066399999994,7.90114399999999,9155
46.19266399999994,-0.5228560000000062,9296
46.516663999999935,-0.5228560000000062,9277
48.78466399999992,-3.114856000000005,9361
50.72866399999991,2.0691439999999925,9153
50.40466399999991,2.0691439999999925,9138
40.36066399999997,-3.7628560000000046,65535
41.65666399999997,-1.170856000000006,65535
41.332663999999966,1.4211439999999929,65535
43.276663999999954,13.733143999999989,65535
42.95266399999996,13.733143999999989,65535
41.65666399999997,15.029143999999986,65535
40.68466399999997,17.621143999999987,65535
43.60066399999995,13.085143999999987,65535
41.65666399999997,12.437143999999988,65535
41.65666399999997,13.085143999999987,65535
41.98066399999996,13.085143999999987,65535
41.65666399999997,13.733143999999989,65535
41.332663999999966,13.733143999999989,65535
41.332663999999966,14.381143999999988,65535
41.00866399999997,14.381143999999988,65535
41.332663999999966,13.085143999999987,65535
41.00866399999997,15.029143999999986,65535
41.98066399999996,13.733143999999989,65535
42.30466399999996,14.381143999999988,65535
42.30466399999996,12.437143999999988,65535
42.62866399999996,12.437143999999988,65535
42.95266399999996,12.437143999999988,65535
42.30466399999996,11.789143999999988,65535
42.95266399999996,11.789143999999988,65535
42.62866399999996,11.789143999999988,65535
43.276663999999954,11.789143999999988,65535
42.95266399999996,13.085143999999987,65535
42.30466399999996,13.085143999999987,65535
43.276663999999954,13.085143999999987,65535
43.276663999999954,12.437143999999988,65535
42.62866399999996,11.141143999999988,65535
42.95266399999996,11.141143999999988,65535
42.95266399999996,10.493143999999988,65535
44.572663999999946,8.54914399999999,9184
44.89666399999994,7.90114399999999,9161
44.89666399999994,9.197143999999987,9192
44.24866399999995,7.90114399999999,9206
44.572663999999946,7.90114399999999,9176
43.92466399999995,7.90114399999999,9218
44.24866399999995,7.25314399999999,9221
44.89666399999994,7.25314399999999,9198
45.22066399999994,7.25314399999999,9178
45.54466399999994,7.90114399999999,9159
44.572663999999946,7.25314399999999,9202
52.996663999999896,22.805143999999984,8693
52.996663999999896,23.45314399999998,8733
51.37666399999991,22.15714399999998,8663
51.37666399999991,22.805143999999984,8690
50.08066399999991,20.213143999999986,8714
50.72866399999991,20.213143999999986,8672
50.40466399999991,20.213143999999986,8689
50.08066399999991,20.86114399999998,8777
50.08066399999991,21.50914399999997,8793
50.08066399999991,22.15714399999998,8821
50.08066399999991,22.805143999999984,8847
53.96866399999989,22.805143999999984,8903
53.64466399999989,23.45314399999998,8879
53.32066399999989,23.45314399999998,8855
50.40466399999991,19.565143999999982,8710
50.08066399999991,18.917143999999983,8763
50.08066399999991,18.269143999999983,8761
52.0246639999999,22.805143999999984,8620
52.0246639999999,23.45314399999998,8658
51.37666399999991,19.565143999999982,8624
51.05266399999991,19.565143999999982,8654
50.72866399999991,18.917143999999983,8679
50.72866399999991,19.565143999999982,8691
49.75666399999992,18.917143999999983,8808
50.40466399999991,18.269143999999983,8746
53.64466399999989,19.565143999999982,8657
53.96866399999989,18.917143999999983,8695
53.64466399999989,18.917143999999983,8675
53.64466399999989,20.213143999999986,8648
52.996663999999896,18.917143999999983,8593
52.996663999999896,18.269143999999983,8614
53.32066399999989,18.917143999999983,8650
50.72866399999991,17.621143999999987,8722
50.72866399999991,18.269143999999983,8732
52.6726639999999,16.325143999999987,8721
52.996663999999896,16.325143999999987,8716
52.996663999999896,15.677143999999986,8806
53.32066399999989,15.677143999999986,8849
53.32066399999989,15.029143999999986,8887
53.64466399999989,15.029143999999986,8949
53.96866399999989,15.029143999999986,8931
52.6726639999999,18.917143999999983,8562
53.32066399999989,16.325143999999987,8867
52.6726639999999,15.029143999999986,8873
51.05266399999991,22.805143999999984,8724
51.05266399999991,23.45314399999998,8737
50.72866399999991,22.15714399999998,8766
50.40466399999991,22.15714399999998,8782
51.05266399999991,22.15714399999998,8792
54.616663999999886,16.973143999999984,8795
54.29266399999989,16.325143999999987,8842
53.96866399999989,15.677143999999986,8858
50.72866399999991,21.50914399999997,8737
50.40466399999991,21.50914399999997,8888
50.40466399999991,17.621143999999987,8744
53.32066399999989,22.805143999999984,8794
53.64466399999989,22.15714399999998,8818
54.29266399999989,16.973143999999984,8813
50.72866399999991,20.86114399999998,8655
51.700663999999904,22.805143999999984,8910
51.05266399999991,21.50914399999997,8673
50.08066399999991,19.565143999999982,8714
52.0246639999999,18.917143999999983,8488
52.0246639999999,19.565143999999982,0
53.64466399999989,18.269143999999983,8691
51.700663999999904,20.213143999999986,8657
53.32066399999989,19.565143999999982,8682
50.72866399999991,23.45314399999998,8875
50.72866399999991,22.805143999999984,8844
49.43266399999992,20.213143999999986,8864
49.75666399999992,21.50914399999997,8858
49.75666399999992,22.15714399999998,8932
49.43266399999992,22.15714399999998,8945
51.05266399999991,18.917143999999983,8724
51.05266399999991,18.269143999999983,8743
53.32066399999989,16.973143999999984,8728
53.64466399999989,16.973143999999984,8770
49.75666399999992,20.86114399999998,8986
50.40466399999991,22.805143999999984,9442
53.64466399999989,16.325143999999987,8791
53.96866399999989,20.86114399999998,8669
54.29266399999989,20.86114399999998,8712
53.96866399999989,21.50914399999997,8757
53.64466399999989,15.677143999999986,8842
53.96866399999989,20.213143999999986,8654
53.96866399999989,19.565143999999982,8698
54.29266399999989,19.565143999999982,8749
53.96866399999989,16.325143999999987,8864
53.64466399999989,17.621143999999987,8745
53.96866399999989,22.15714399999998,8836
53.64466399999989,21.50914399999997,8774
53.64466399999989,20.86114399999998,8727
52.6726639999999,15.677143999999986,8843
51.05266399999991,20.213143999999986,8737
54.940663999999884,24.101143999999977,65535
54.616663999999886,23.45314399999998,65535
54.29266399999989,23.45314399999998,65535
53.64466399999989,22.805143999999984,8843
53.96866399999989,16.973143999999984,8785
50.40466399999991,20.86114399999998,8728
53.32066399999989,18.269143999999983,8751
49.75666399999992,19.565143999999982,8813
50.40466399999991,23.45314399999998,9196
49.75666399999992,20.213143999999986,8870
49.43266399999992,19.565143999999982,8956
49.43266399999992,20.86114399999998,9001
53.96866399999989,17.621143999999987,8988
42.30466399999996,-1.8188560000000056,65535
41.98066399999996,-1.8188560000000056,65535
41.65666399999997,0.7731439999999932,65535
42.62866399999996,-1.8188560000000056,65535
42.95266399999996,-1.8188560000000056,65535
42.62866399999996,-3.114856000000005,65535
42.95266399999996,-2.4668560000000053,65535
42.62866399999996,-7.650856000000003,65535
42.30466399999996,-7.650856000000003,65535
42.30466399999996,-8.946856000000002,65535
42.30466399999996,-8.298856000000002,65535
41.98066399999996,-8.298856000000002,65535
42.30466399999996,-7.002856000000003,65535
42.62866399999996,-6.354856000000003,65535
42.30466399999996,-6.354856000000003,65535
42.62866399999996,-5.706856000000004,65535
41.98066399999996,-4.410856000000004,65535
42.30466399999996,-3.7628560000000046,65535
40.03666399999997,-0.5228560000000062,65535
39.38866399999998,-0.5228560000000062,65535
41.00866399999997,0.7731439999999932,65535
40.68466399999997,0.7731439999999932,65535
40.36066399999997,0.1251439999999934,65535
39.712663999999975,-0.5228560000000062,65535
38.41666399999998,-0.5228560000000062,65535
39.06466399999998,-0.5228560000000062,65535
38.74066399999998,-1.170856000000006,65535
41.332663999999966,0.7731439999999932,65535
41.65666399999997,2.717143999999992,9509
41.65666399999997,2.0691439999999925,9550
41.332663999999966,0.1251439999999934,65535
41.332663999999966,-0.5228560000000062,65535
41.65666399999997,-4.410856000000004,65535
40.03666399999997,-2.4668560000000053,65535
41.00866399999997,-4.410856000000004,65535
43.276663999999954,-5.706856000000004,65535
39.38866399999998,-1.170856000000006,65535
38.09266399999999,-1.170856000000006,65535
38.74066399999998,-0.5228560000000062,65535
37.76866399999999,-1.170856000000006,65535
39.06466399999998,-1.8188560000000056,65535
39.38866399999998,-3.114856000000005,65535
39.38866399999998,-2.4668560000000053,65535
39.06466399999998,-2.4668560000000053,65535
39.06466399999998,-3.114856000000005,65535
39.06466399999998,-3.7628560000000046,65535
38.74066399999998,-3.7628560000000046,65535
40.03666399999997,-3.7628560000000046,65535
40.03666399999997,-3.114856000000005,65535
40.03666399999997,-1.8188560000000056,65535
39.712663999999975,-1.8188560000000056,65535
39.712663999999975,-1.170856000000006,65535
40.36066399999997,-1.170856000000006,65535
40.68466399999997,-1.170856000000006,65535
41.00866399999997,-1.170856000000006,65535
41.332663999999966,-1.170856000000006,65535
43.276663999999954,-8.298856000000002,65535
42.95266399999996,-8.298856000000002,65535
41.65666399999997,-5.706856000000004,65535
41.98066399999996,-7.002856000000003,65535
41.98066399999996,-6.354856000000003,65535
41.332663999999966,-5.058856000000004,65535
43.276663999999954,-3.7628560000000046,65535
42.95266399999996,-4.410856000000004,65535
42.62866399999996,-4.410856000000004,65535
42.30466399999996,-4.410856000000004,65535
41.00866399999997,-5.706856000000004,65535
41.332663999999966,-1.8188560000000056,65535
40.68466399999997,-3.114856000000005,65535
41.00866399999997,-3.114856000000005,65535
41.00866399999997,-2.4668560000000053,65535
41.332663999999966,-2.4668560000000053,65535
40.68466399999997,-4.410856000000004,65535
40.36066399999997,-4.410856000000004,65535
40.68466399999997,-3.7628560000000046,65535
40.36066399999997,-3.114856000000005,65535
41.65666399999997,-2.4668560000000053,65535
38.09266399999999,-3.7628560000000046,65535
38.74066399999998,-3.114856000000005,65535
37.76866399999999,-3.7628560000000046,65535
39.712663999999975,-3.114856000000005,65535
38.41666399999998,-3.7628560000000046,65535
40.03666399999997,-4.410856000000004,65535
40.03666399999997,-5.058856000000004,65535
39.38866399999998,-6.354856000000003,65535
39.38866399999998,-7.002856000000003,65535
42.95266399999996,-3.114856000000005,65535
41.98066399999996,-1.170856000000006,65535
42.30466399999996,-2.4668560000000053,65535
41.65666399999997,-0.5228560000000062,65535
41.98066399999996,-0.5228560000000062,65535
41.65666399999997,0.1251439999999934,65535
41.98066399999996,0.1251439999999934,65535
37.76866399999999,-5.058856000000004,65535
36.79666399999999,-4.410856000000004,65535
38.74066399999998,-4.410856000000004,65535
37.12066399999999,-4.410856000000004,65535
37.44466399999999,-5.058856000000004,65535
37.44466399999999,-7.002856000000003,65535
37.44466399999999,-6.354856000000003,65535
37.44466399999999,-5.706856000000004,65535
39.712663999999975,-3.7628560000000046,65535
42.62866399999996,-8.946856000000002,65535
42.30466399999996,-5.706856000000004,65535
42.30466399999996,-5.058856000000004,65535
42.95266399999996,-5.706856000000004,65535
41.00866399999997,-5.058856000000004,65535
40.68466399999997,-5.058856000000004,65535
41.65666399999997,-5.058856000000004,65535
41.65666399999997,-6.354856000000003,65535
36.79666399999999,-6.354856000000003,65535
37.12066399999999,-5.706856000000004,65535
37.76866399999999,-5.706856000000004,65535
38.09266399999999,-4.410856000000004,65535
37.12066399999999,-5.058856000000004,65535
36.79666399999999,-5.058856000000004,65535
37.76866399999999,-4.410856000000004,65535
37.76866399999999,-7.002856000000003,65535
38.41666399999998,-6.354856000000003,65535
38.09266399999999,-6.354856000000003,65535
48.78466399999992,1.4211439999999929,9229
56.23666399999988,8.54914399999999,9160
55.58866399999988,9.197143999999987,9091
55.91266399999988,9.197143999999987,9136
55.26466399999988,10.493143999999988,9097
55.91266399999988,12.437143999999988,9121
55.58866399999988,11.789143999999988,9117
55.58866399999988,11.141143999999988,9111
55.26466399999988,11.789143999999988,9117
55.58866399999988,10.493143999999988,9094
55.58866399999988,13.085143999999987,9129
56.88466399999987,9.845143999999989,9142
57.20866399999987,9.845143999999989,9153
56.56066399999988,9.845143999999989,9114
56.88466399999987,8.54914399999999,9288
54.940663999999884,9.845143999999989,65535
54.940663999999884,11.789143999999988,9149
55.91266399999988,13.085143999999987,9141
56.23666399999988,13.733143999999989,9158
55.91266399999988,13.733143999999989,9153
56.23666399999988,14.381143999999988,9174
56.23666399999988,15.029143999999986,9192
56.23666399999988,15.677143999999986,9247
56.56066399999988,14.381143999999988,9166
56.88466399999987,14.381143999999988,9190
56.23666399999988,13.085143999999987,9136
56.56066399999988,13.085143999999987,9156
56.88466399999987,12.437143999999988,9193
57.20866399999987,12.437143999999988,9209
57.53266399999987,12.437143999999988,9239
56.88466399999987,15.029143999999986,9199
56.56066399999988,15.677143999999986,9265
56.88466399999987,15.677143999999986,9283
56.88466399999987,16.325143999999987,9299
55.91266399999988,11.789143999999988,9131
57.20866399999987,10.493143999999988,9304
49.43266399999992,1.4211439999999929,9247
49.75666399999992,0.7731439999999932,9259
49.75666399999992,2.0691439999999925,9179
50.08066399999991,2.717143999999992,9161
49.75666399999992,1.4211439999999929,9244
47.81266399999993,1.4211439999999929,9255
48.136663999999925,2.0691439999999925,9264
48.46066399999992,2.0691439999999925,9223
48.136663999999925,1.4211439999999929,9191
48.78466399999992,0.1251439999999934,9221
48.46066399999992,0.1251439999999934,9215
47.81266399999993,0.1251439999999934,9247
46.84066399999993,-0.5228560000000062,9285
47.16466399999993,0.7731439999999932,9230
46.84066399999993,0.1251439999999934,9291
46.84066399999993,-1.170856000000006,9298
50.08066399999991,1.4211439999999929,9217
50.08066399999991,2.0691439999999925,9200
49.43266399999992,2.717143999999992,9160
49.75666399999992,3.365143999999992,9143
50.08066399999991,3.365143999999992,9177
49.10866399999992,2.0691439999999925,9192
49.43266399999992,2.0691439999999925,9187
48.78466399999992,0.7731439999999932,9274
48.78466399999992,-0.5228560000000062,9331
48.78466399999992,-1.170856000000006,9304
48.136663999999925,0.7731439999999932,9230
48.46066399999992,0.7731439999999932,9240
43.92466399999995,5.957143999999991,9358
44.24866399999995,5.957143999999991,9328
43.92466399999995,5.309143999999991,9281
42.95266399999996,2.717143999999992,9376
45.54466399999994,2.0691439999999925,9374
45.22066399999994,2.0691439999999925,65535
42.95266399999996,2.0691439999999925,65535
42.95266399999996,0.7731439999999932,65535
43.276663999999954,0.7731439999999932,9507
46.19266399999994,0.7731439999999932,9329
46.516663999999935,0.7731439999999932,9310
45.86866399999994,0.1251439999999934,9345
46.19266399999994,0.1251439999999934,9338
47.81266399999993,-1.170856000000006,9291
48.136663999999925,-2.4668560000000053,9298
47.48866399999993,-1.8188560000000056,9294
47.16466399999993,-1.170856000000006,9284
47.16466399999993,-0.5228560000000062,9268
46.84066399999993,-1.8188560000000056,9376
45.22066399999994,-0.5228560000000062,9326
44.89666399999994,0.1251439999999934,9324
45.22066399999994,0.7731439999999932,9342
45.54466399999994,0.7731439999999932,9401
45.86866399999994,0.7731439999999932,65535
45.22066399999994,0.1251439999999934,9335
44.89666399999994,0.7731439999999932,9341
43.92466399999995,-0.5228560000000062,9419
43.92466399999995,-1.170856000000006,9408
44.24866399999995,-1.170856000000006,9387
45.22066399999994,-1.170856000000006,9378
44.572663999999946,-0.5228560000000062,9341
44.24866399999995,0.1251439999999934,9395
44.572663999999946,0.7731439999999932,65535
43.276663999999954,-1.170856000000006,65535
42.95266399999996,-0.5228560000000062,65535
44.24866399999995,2.0691439999999925,65535
43.60066399999995,0.7731439999999932,65535
43.60066399999995,2.0691439999999925,9440
52.6726639999999,4.661143999999991,9058
52.6726639999999,5.309143999999991,9069
51.700663999999904,5.309143999999991,9038
52.0246639999999,5.309143999999991,9032
52.3486639999999,5.309143999999991,9036
51.37666399999991,4.013143999999992,9046
52.3486639999999,5.957143999999991,9045
52.0246639999999,6.60514399999999,9036
52.6726639999999,5.957143999999991,9051
52.996663999999896,5.957143999999991,9058
53.32066399999989,5.957143999999991,9068
52.996663999999896,6.60514399999999,9057
53.32066399999989,6.60514399999999,9068
52.6726639999999,6.60514399999999,9042
52.996663999999896,5.309143999999991,9096
59.15266399999986,24.101143999999977,65535
56.88466399999987,24.101143999999977,65535
56.88466399999987,23.45314399999998,65535
56.88466399999987,22.805143999999984,65535
57.20866399999987,24.74914399999998,65535
56.88466399999987,24.74914399999998,65535
56.56066399999988,24.74914399999998,65535
56.56066399999988,25.397143999999983,65535
56.56066399999988,24.101143999999977,65535
56.56066399999988,23.45314399999998,65535
56.56066399999988,26.04514399999998,65535
56.88466399999987,26.04514399999998,65535
57.20866399999987,25.397143999999983,65535
57.53266399999987,25.397143999999983,65535
56.23666399999988,26.04514399999998,65535
56.23666399999988,26.69314399999997,65535
55.91266399999988,26.69314399999997,65535
56.56066399999988,26.69314399999997,65535
56.56066399999988,27.34114399999998,65535
56.56066399999988,27.989143999999985,65535
56.23666399999988,27.989143999999985,65535
55.91266399999988,27.34114399999998,65535
56.56066399999988,22.805143999999984,65535
56.56066399999988,22.15714399999998,65535
56.56066399999988,21.50914399999997,65535
57.20866399999987,26.69314399999997,65535
39.06466399999998,-8.946856000000002,65535
38.41666399999998,-8.298856000000002,65535
45.86866399999994,11.789143999999988,65535
46.19266399999994,11.789143999999988,65535
46.19266399999994,10.493143999999988,65535
45.22066399999994,18.269143999999983,65535
45.22066399999994,18.917143999999983,65535
45.54466399999994,16.973143999999984,9511
45.22066399999994,17.621143999999987,9589
45.86866399999994,16.325143999999987,9406
45.54466399999994,18.917143999999983,65535
45.54466399999994,16.325143999999987,9465
45.54466399999994,18.269143999999983,65535
44.89666399999994,18.917143999999983,65535
46.19266399999994,16.973143999999984,9370
46.19266399999994,16.325143999999987,9395
45.86866399999994,16.973143999999984,9417
45.86866399999994,17.621143999999987,9449
46.19266399999994,15.677143999999986,9354
46.516663999999935,16.325143999999987,9341
45.54466399999994,15.677143999999986,9414
45.22066399999994,15.029143999999986,9568
45.54466399999994,15.029143999999986,9529
45.22066399999994,15.677143999999986,9549
44.572663999999946,15.677143999999986,65535
44.24866399999995,15.677143999999986,65535
43.92466399999995,16.325143999999987,65535
44.89666399999994,15.677143999999986,65535
45.54466399999994,17.621143999999987,65535
45.22066399999994,16.325143999999987,65535
46.516663999999935,16.973143999999984,9362
45.86866399999994,18.269143999999983,65535
43.92466399999995,15.677143999999986,65535
45.22066399999994,13.733143999999989,65535
47.48866399999993,19.565143999999982,9274
47.16466399999993,18.917143999999983,9273
47.81266399999993,18.917143999999983,9226
45.54466399999994,9.845143999999989,9139
45.22066399999994,9.845143999999989,9148
45.22066399999994,10.493143999999988,9198
45.86866399999994,9.845143999999989,9159
45.86866399999994,10.493143999999988,65535
48.78466399999992,21.50914399999997,9039
49.10866399999992,20.213143999999986,8993
49.10866399999992,18.917143999999983,8946
48.46066399999992,17.621143999999987,9107
49.43266399999992,17.621143999999987,8924
49.10866399999992,17.621143999999987,9061
48.136663999999925,18.269143999999983,9138
49.10866399999992,18.269143999999983,9087
49.43266399999992,18.269143999999983,8958
49.43266399999992,16.973143999999984,8952
49.75666399999992,16.973143999999984,8961
49.75666399999992,16.325143999999987,8939
50.08066399999991,15.677143999999986,8856
50.08066399999991,15.029143999999986,8850
49.43266399999992,18.917143999999983,8927
47.81266399999993,20.86114399999998,9235
48.136663999999925,20.86114399999998,9170
48.46066399999992,20.86114399999998,9053
48.46066399999992,21.50914399999997,9049
49.10866399999992,19.565143999999982,8985
48.136663999999925,17.621143999999987,9086
48.78466399999992,22.15714399999998,9055
48.78466399999992,20.86114399999998,9087
49.10866399999992,20.86114399999998,9014
48.78466399999992,18.269143999999983,9130
48.78466399999992,17.621143999999987,9089
49.10866399999992,21.50914399999997,9029
48.78466399999992,20.213143999999986,9095
48.46066399999992,20.213143999999986,9136
48.136663999999925,19.565143999999982,9285
48.46066399999992,19.565143999999982,9164
48.46066399999992,18.917143999999983,9026
48.46066399999992,18.269143999999983,9143
48.78466399999992,19.565143999999982,9000
48.78466399999992,18.917143999999983,8986
47.81266399999993,18.269143999999983,9187
49.10866399999992,22.15714399999998,9019
49.43266399999992,21.50914399999997,9094
48.136663999999925,18.917143999999983,9339
48.136663999999925,20.213143999999986,9305
52.636,-8.018,65535
52.312,-7.370000000000001,65535
52.312,-8.018,65535
52.636,-8.666,65535
51.988,-8.666,65535
51.988,-8.018,65535
52.96,-8.666,65535
52.96,-6.074000000000002,65535
53.28399999999999,-6.722000000000001,65535
53.60799999999999,-6.722000000000001,65535
53.60799999999999,-7.370000000000001,65535
53.60799999999999,-8.018,65535
54.25599999999999,-8.666,65535
53.93199999999999,-8.666,65535
53.93199999999999,-8.018,65535
52.312,-6.722000000000001,65535
52.636,-6.722000000000001,65535
53.93199999999999,-6.722000000000001,65535
54.25599999999999,-6.074000000000002,65535
53.28399999999999,-7.370000000000001,65535
52.96,-7.370000000000001,65535
52.312,-8.666,65535
52.96,-8.018,65535
52.636,-7.370000000000001,65535
52.96,-6.722000000000001,65535
51.988,-9.314,65535
52.312,-9.314,65535
54.579999999999984,-6.722000000000001,65535
54.579999999999984,-6.074000000000002,65535
53.28399999999999,-8.018,65535
53.28399999999999,-8.666,65535
53.28399999999999,-9.314,65535
53.93199999999999,-9.314,65535
54.25599999999999,-9.314,65535
53.60799999999999,-8.666,65535
53.60799999999999,-9.314,65535
49.43266399999992,14.381143999999988,8915
49.75666399999992,14.381143999999988,8857
49.75666399999992,15.029143999999986,8866
49.75666399999992,13.733143999999989,8903
50.08066399999991,13.733143999999989,8897
49.75666399999992,15.677143999999986,8877
50.40466399999991,15.029143999999986,8810
49.43266399999992,13.733143999999989,9006
50.40466399999991,15.677143999999986,8867
50.40466399999991,13.733143999999989,8923
46.19266399999994,15.029143999999986,9402
45.86866399999994,15.029143999999986,9441
45.86866399999994,14.381143999999988,9419
46.19266399999994,13.733143999999989,65535
45.86866399999994,13.733143999999989,65535
58.50466399999986,13.733143999999989,9319
58.180663999999865,13.733143999999989,9304
58.180663999999865,13.085143999999987,9278
57.85666399999987,12.437143999999988,9257
60.44866399999985,15.677143999999986,9597
60.124663999999854,15.677143999999986,9464
60.124663999999854,16.325143999999987,65535
59.800663999999855,16.325143999999987,9430
59.800663999999855,17.621143999999987,9412
59.47666399999986,18.269143999999983,9394
61.74466399999984,16.973143999999984,65535
61.420663999999846,16.973143999999984,65535
60.77266399999985,16.973143999999984,9495
65.63266399999982,22.15714399999998,65535
65.95666399999982,21.50914399999997,65535
65.63266399999982,20.86114399999998,65535
64.98466399999982,20.213143999999986,65535
64.66066399999983,20.213143999999986,65535
64.33666399999983,19.565143999999982,65535
64.01266399999983,19.565143999999982,65535
63.68866399999983,20.213143999999986,65535
64.66066399999983,18.917143999999983,65535
59.15266399999986,16.325143999999987,9363
59.15266399999986,15.029143999999986,9378
59.15266399999986,17.621143999999987,9396
57.53266399999987,14.381143999999988,9242
57.53266399999987,15.029143999999986,9330
61.09666399999985,14.381143999999988,65535
60.77266399999985,15.029143999999986,65535
60.44866399999985,15.029143999999986,65535
58.180663999999865,15.029143999999986,9283
58.50466399999986,16.325143999999987,9319
58.50466399999986,15.677143999999986,9295
63.36466399999984,13.085143999999987,65535
63.04066399999984,14.381143999999988,65535
62.39266399999984,15.677143999999986,65535
63.36466399999984,13.733143999999989,65535
63.36466399999984,14.381143999999988,65535
62.71666399999984,15.677143999999986,65535
62.39266399999984,17.621143999999987,65535
59.800663999999855,15.677143999999986,65535
55.58866399999988,13.733143999999989,9158
57.20866399999987,14.381143999999988,9235
57.85666399999987,14.381143999999988,9270
58.82866399999986,16.973143999999984,9373
58.82866399999986,16.325143999999987,9350
59.15266399999986,18.269143999999983,9399
60.44866399999985,17.621143999999987,9469
59.15266399999986,12.437143999999988,9361
59.15266399999986,13.085143999999987,9413
58.82866399999986,12.437143999999988,9335
59.47666399999986,16.325143999999987,9409
58.82866399999986,14.381143999999988,9336
59.47666399999986,15.677143999999986,9438
63.36466399999984,18.917143999999983,65535
63.04066399999984,17.621143999999987,65535
62.71666399999984,17.621143999999987,65535
63.68866399999983,19.565143999999982,65535
62.39266399999984,16.973143999999984,65535
59.800663999999855,16.973143999999984,9415
59.47666399999986,17.621143999999987,9399
57.85666399999987,13.085143999999987,9269
57.53266399999987,13.085143999999987,9272
58.50466399999986,11.789143999999988,9290
57.85666399999987,15.029143999999986,9268
57.20866399999987,13.733143999999989,9225
57.53266399999987,13.733143999999989,9260
61.74466399999984,16.325143999999987,65535
61.420663999999846,16.325143999999987,9575
61.09666399999985,16.325143999999987,9565
61.09666399999985,16.973143999999984,9548
60.124663999999854,15.029143999999986,9508
66.60466399999981,20.86114399999998,65535
67.25266399999981,20.86114399999998,65535
67.90066399999981,20.213143999999986,65535
67.57666399999981,20.213143999999986,65535
59.800663999999855,15.029143999999986,9514
58.50466399999986,15.029143999999986,9300
59.47666399999986,15.029143999999986,9502
60.44866399999985,16.325143999999987,65535
59.15266399999986,15.677143999999986,9382
57.85666399999987,13.733143999999989,9323
58.82866399999986,13.733143999999989,9397
58.50466399999986,13.085143999999987,9329
57.20866399999987,13.085143999999987,9298
56.88466399999987,13.085143999999987,9267
58.180663999999865,11.789143999999988,9261
62.06866399999984,16.973143999999984,65535
65.95666399999982,23.45314399999998,65535
59.800663999999855,14.381143999999988,65535
59.800663999999855,18.269143999999983,9454
63.04066399999984,15.029143999999986,65535
62.71666399999984,15.029143999999986,65535
62.39266399999984,16.325143999999987,65535
63.36466399999984,12.437143999999988,65535
68.5486639999998,17.621143999999987,65535
68.5486639999998,18.269143999999983,65535
68.5486639999998,18.917143999999983,65535
68.2246639999998,18.917143999999983,65535
59.800663999999855,13.085143999999987,9557
60.124663999999854,13.085143999999987,9597
59.47666399999986,16.973143999999984,9438
59.15266399999986,16.973143999999984,9447
56.56066399999988,13.733143999999989,9203
60.124663999999854,17.621143999999987,9446
57.85666399999987,16.325143999999987,9437
58.180663999999865,16.325143999999987,9402
58.180663999999865,15.677143999999986,9418
57.20866399999987,16.325143999999987,9327
57.53266399999987,15.677143999999986,9362
57.85666399999987,15.677143999999986,9409
44.89666399999994,23.45314399999998,65535
44.572663999999946,23.45314399999998,65535
44.89666399999994,24.74914399999998,65535
44.572663999999946,24.74914399999998,65535
44.572663999999946,24.101143999999977,65535
44.24866399999995,24.101143999999977,65535
47.48866399999993,25.397143999999983,65535
47.48866399999993,24.74914399999998,65535
47.16466399999993,24.74914399999998,65535
47.16466399999993,24.101143999999977,65535
47.48866399999993,22.15714399999998,65535
47.81266399999993,22.15714399999998,65535
47.16466399999993,22.15714399999998,65535
47.16466399999993,23.45314399999998,65535
47.16466399999993,22.805143999999984,65535
46.84066399999993,24.101143999999977,65535
45.86866399999994,27.34114399999998,65535
45.54466399999994,27.34114399999998,65535
45.54466399999994,27.989143999999985,65535
45.86866399999994,20.86114399999998,65535
45.86866399999994,21.50914399999997,65535
46.19266399999994,21.50914399999997,65535
46.19266399999994,27.34114399999998,65535
46.19266399999994,26.69314399999997,65535
46.516663999999935,26.69314399999997,65535
46.516663999999935,26.04514399999998,65535
47.48866399999993,22.805143999999984,65535
46.84066399999993,22.805143999999984,65535
45.54466399999994,22.15714399999998,65535
45.22066399999994,22.15714399999998,65535
44.89666399999994,22.15714399999998,65535
47.48866399999993,23.45314399999998,65535
46.516663999999935,24.101143999999977,65535
46.516663999999935,24.74914399999998,65535
45.86866399999994,24.101143999999977,65535
47.16466399999993,26.69314399999997,65535
47.16466399999993,27.34114399999998,65535
43.92466399999995,25.397143999999983,65535
44.24866399999995,24.74914399999998,65535
44.89666399999994,26.04514399999998,65535
44.89666399999994,26.69314399999997,65535
45.22066399999994,26.69314399999997,65535
45.22066399999994,27.34114399999998,65535
46.84066399999993,26.69314399999997,65535
47.48866399999993,26.69314399999997,65535
44.24866399999995,25.397143999999983,65535
43.92466399999995,26.04514399999998,65535
46.19266399999994,24.101143999999977,65535
44.572663999999946,25.397143999999983,65535
46.84066399999993,24.74914399999998,65535
46.516663999999935,21.50914399999997,65535
46.84066399999993,21.50914399999997,65535
44.572663999999946,26.69314399999997,65535
44.572663999999946,27.34114399999998,65535
44.89666399999994,27.34114399999998,65535
44.572663999999946,27.989143999999985,65535
44.24866399999995,27.989143999999985,65535
44.572663999999946,28.63714399999997,65535
45.86866399999994,22.15714399999998,65535
45.86866399999994,22.805143999999984,65535
44.24866399999995,23.45314399999998,65535
43.92466399999995,27.989143999999985,65535
46.84066399999993,27.34114399999998,65535
45.22066399999994,23.45314399999998,65535
45.54466399999994,23.45314399999998,65535
45.54466399999994,24.101143999999977,65535
45.22066399999994,24.101143999999977,65535
44.89666399999994,24.101143999999977,65535
46.19266399999994,22.15714399999998,65535
46.516663999999935,22.15714399999998,65535
45.22066399999994,21.50914399999997,65535
45.54466399999994,21.50914399999997,65535
45.54466399999994,20.86114399999998,65535
46.516663999999935,27.989143999999985,65535
46.19266399999994,27.989143999999985,65535
45.54466399999994,25.397143999999983,65535
45.22066399999994,25.397143999999983,65535
45.22066399999994,26.04514399999998,65535
47.81266399999993,24.101143999999977,65535
47.48866399999993,26.04514399999998,65535
47.81266399999993,26.04514399999998,65535
46.19266399999994,23.45314399999998,65535
45.86866399999994,23.45314399999998,65535
44.24866399999995,26.04514399999998,65535
45.22066399999994,27.989143999999985,65535
45.86866399999994,24.74914399999998,65535
46.516663999999935,25.397143999999983,65535
46.84066399999993,25.397143999999983,65535
46.19266399999994,26.04514399999998,65535
45.86866399999994,26.04514399999998,65535
43.92466399999995,23.45314399999998,65535
44.89666399999994,25.397143999999983,65535
46.19266399999994,20.86114399999998,65535
47.81266399999993,25.397143999999983,65535
44.572663999999946,22.805143999999984,65535
44.572663999999946,22.15714399999998,65535
46.516663999999935,23.45314399999998,65535
45.86866399999994,25.397143999999983,65535
44.24866399999995,27.34114399999998,65535
45.22066399999994,24.74914399999998,65535
45.54466399999994,22.805143999999984,65535
45.22066399999994,28.63714399999997,65535
44.89666399999994,28.63714399999997,65535
47.81266399999993,23.45314399999998,65535
46.19266399999994,24.74914399999998,65535
46.19266399999994,25.397143999999983,65535
43.92466399999995,24.101143999999977,65535
43.92466399999995,24.74914399999998,65535
47.81266399999993,26.69314399999997,65535
47.48866399999993,24.101143999999977,65535
46.84066399999993,26.04514399999998,65535
46.19266399999994,22.805143999999984,65535
47.48866399999993,27.34114399999998,65535
46.19266399999994,20.213143999999986,65535
45.54466399999994,26.04514399999998,65535
44.24866399999995,26.69314399999997,65535
45.86866399999994,27.989143999999985,65535
47.81266399999993,5.957143999999991,65535
