51.56399999999999,-0.4100000000000028,65535
51.887999999999984,-0.4100000000000028,65535
50.91599999999999,-1.7060000000000022,65535
51.23999999999999,-1.0580000000000025,65535
51.56399999999999,-1.0580000000000025,65535
51.23999999999999,-1.7060000000000022,65535
51.56399999999999,0.2379999999999968,65535
47.16466399999993,9.845143999999989,986
47.48866399999993,9.845143999999989,998
48.136663999999925,14.381143999999988,1261
47.81266399999993,13.085143999999987,927
47.16466399999993,11.141143999999988,1128
47.48866399999993,11.789143999999988,1070
48.136663999999925,16.325143999999987,1239
47.48866399999993,12.437143999999988,958
48.136663999999925,15.677143999999986,1299
47.16466399999993,10.493143999999988,1207
47.16466399999993,9.197143999999987,973
48.136663999999925,13.733143999999989,976
48.136663999999925,15.029143999999986,1303
47.81266399999993,16.973143999999984,1282
48.46066399999992,14.381143999999988,1384
47.48866399999993,13.085143999999987,970
47.16466399999993,13.085143999999987,1292
47.48866399999993,14.381143999999988,1354
47.48866399999993,13.733143999999989,1404
47.48866399999993,15.029143999999986,1425
46.516663999999935,13.733143999999989,1667
46.84066399999993,13.733143999999989,1636
46.84066399999993,13.085143999999987,1621
48.78466399999992,14.381143999999988,65535
47.16466399999993,15.677143999999986,1500
46.516663999999935,14.381143999999988,1674
46.84066399999993,14.381143999999988,1615
47.16466399999993,14.381143999999988,1565
46.516663999999935,15.029143999999986,1687
47.81266399999993,16.325143999999987,1278
47.16466399999993,15.029143999999986,1540
47.81266399999993,15.677143999999986,1284
47.48866399999993,15.677143999999986,1429
46.516663999999935,13.085143999999987,1934
46.84066399999993,12.437143999999988,1679
48.136663999999925,11.789143999999988,897
47.81266399999993,12.437143999999988,918
46.84066399999993,15.677143999999986,1561
46.516663999999935,15.677143999999986,1780
46.84066399999993,16.325143999999987,1545
47.81266399999993,14.381143999999988,1315
48.78466399999992,16.973143999999984,892
48.136663999999925,16.973143999999984,1228
48.46066399999992,13.733143999999989,985
47.81266399999993,13.733143999999989,1331
50.08066399999991,8.54914399999999,833
48.46066399999992,9.845143999999989,914
51.05266399999991,7.25314399999999,847
51.37666399999991,7.25314399999999,841
51.37666399999991,6.60514399999999,845
48.46066399999992,16.325143999999987,1287
48.46066399999992,16.973143999999984,1213
48.78466399999992,16.325143999999987,1374
48.46066399999992,15.677143999999986,1300
48.78466399999992,15.677143999999986,1381
47.48866399999993,16.325143999999987,1396
47.16466399999993,16.325143999999987,1494
46.19266399999994,14.381143999999988,1732
45.86866399999994,15.677143999999986,1784
43.60066399999995,16.325143999999987,2200
45.54466399999994,14.381143999999988,1846
45.54466399999994,13.733143999999989,1869
48.136663999999925,13.085143999999987,923
48.46066399999992,11.141143999999988,891
48.136663999999925,11.141143999999988,901
48.46066399999992,7.90114399999999,894
49.10866399999992,8.54914399999999,857
48.78466399999992,2.0691439999999925,1388
49.10866399999992,7.25314399999999,919
52.0246639999999,7.90114399999999,855
47.16466399999993,11.789143999999988,1111
49.43266399999992,11.141143999999988,825
53.64466399999989,9.845143999999989,741
50.72866399999991,4.013143999999992,945
51.05266399999991,11.141143999999988,708
47.48866399999993,11.141143999999988,934
46.84066399999993,11.789143999999988,2102
46.516663999999935,11.141143999999988,2071
45.54466399999994,11.141143999999988,1965
46.19266399999994,11.141143999999988,2037
45.86866399999994,11.141143999999988,2021
44.572663999999946,11.141143999999988,1812
43.92466399999995,12.437143999999988,4445
45.54466399999994,12.437143999999988,2052
45.54466399999994,11.789143999999988,2015
48.78466399999992,15.029143999999986,1452
47.81266399999993,15.029143999999986,1335
47.81266399999993,11.141143999999988,908
50.40466399999991,18.917143999999983,538
52.3486639999999,20.86114399999998,345
54.616663999999886,18.269143999999983,156
54.29266399999989,18.917143999999983,150
49.10866399999992,14.381143999999988,65535
50.08066399999991,14.381143999999988,702
48.78466399999992,13.733143999999989,2216
52.6726639999999,13.085143999999987,599
52.3486639999999,13.085143999999987,603
53.96866399999989,12.437143999999988,636
54.29266399999989,12.437143999999988,619
47.48866399999993,8.54914399999999,956
47.81266399999993,17.621143999999987,1243
47.48866399999993,18.917143999999983,1240
47.48866399999993,20.86114399999998,1916
46.84066399999993,23.45314399999998,2398
44.572663999999946,26.04514399999998,2847
47.48866399999993,21.50914399999997,1952
47.81266399999993,21.50914399999997,2348
48.46066399999992,22.15714399999998,1291
47.48866399999993,16.973143999999984,65535
49.10866399999992,16.325143999999987,847
49.75666399999992,18.269143999999983,630
46.19266399999994,13.085143999999987,2783
41.98066399999996,12.437143999999988,3045
43.60066399999995,10.493143999999988,3206
45.54466399999994,9.197143999999987,1290
47.81266399999993,22.805143999999984,2813
49.75666399999992,22.805143999999984,809
50.72866399999991,3.365143999999992,1286
51.05266399999991,4.013143999999992,950
50.72866399999991,4.661143999999991,941
51.05266399999991,4.661143999999991,942
51.05266399999991,3.365143999999992,971
51.05266399999991,2.717143999999992,1003
50.40466399999991,4.661143999999991,966
50.72866399999991,2.717143999999992,1284
50.40466399999991,4.013143999999992,958
51.05266399999991,5.309143999999991,930
50.72866399999991,5.309143999999991,892
51.37666399999991,3.365143999999992,1258
51.37666399999991,4.661143999999991,948
50.72866399999991,5.957143999999991,870
50.40466399999991,5.957143999999991,878
50.40466399999991,3.365143999999992,1271
50.40466399999991,5.309143999999991,932
50.08066399999991,5.309143999999991,1322
49.75666399999992,5.309143999999991,1304
49.75666399999992,5.957143999999991,1244
51.37666399999991,5.309143999999991,943
51.700663999999904,4.661143999999991,1358
50.08066399999991,4.013143999999992,1283
50.08066399999991,5.957143999999991,921
50.08066399999991,4.661143999999991,1338
49.43266399999992,5.309143999999991,1329
49.43266399999992,5.957143999999991,1322
52.0246639999999,4.661143999999991,1430
52.3486639999999,4.661143999999991,1459
50.72866399999991,15.029143999999986,670
51.05266399999991,15.029143999999986,648
51.05266399999991,13.733143999999989,659
50.40466399999991,13.085143999999987,707
49.10866399999992,7.90114399999999,882
48.78466399999992,7.90114399999999,870
50.40466399999991,7.90114399999999,864
50.08066399999991,7.90114399999999,857
49.75666399999992,7.90114399999999,870
49.43266399999992,7.90114399999999,858
49.75666399999992,8.54914399999999,844
49.43266399999992,8.54914399999999,852
49.43266399999992,9.197143999999987,865
49.10866399999992,9.197143999999987,867
47.48866399999993,7.90114399999999,951
47.81266399999993,7.90114399999999,948
48.136663999999925,7.90114399999999,902
48.136663999999925,9.845143999999989,930
47.81266399999993,9.197143999999987,963
47.81266399999993,8.54914399999999,952
47.81266399999993,9.845143999999989,951
54.940663999999884,9.197143999999987,803
54.616663999999886,9.197143999999987,780
54.29266399999989,9.197143999999987,788
53.96866399999989,9.197143999999987,805
53.64466399999989,9.197143999999987,755
54.616663999999886,9.845143999999989,772
54.29266399999989,9.845143999999989,761
53.96866399999989,9.845143999999989,734
53.64466399999989,10.493143999999988,738
53.96866399999989,10.493143999999988,701
53.96866399999989,11.141143999999988,671
54.29266399999989,10.493143999999988,723
53.32066399999989,10.493143999999988,730
54.940663999999884,11.141143999999988,769
52.6726639999999,13.733143999999989,597
52.3486639999999,13.733143999999989,599
52.3486639999999,14.381143999999988,607
52.0246639999999,14.381143999999988,620
52.0246639999999,11.789143999999988,634
52.3486639999999,11.789143999999988,627
52.3486639999999,12.437143999999988,607
52.0246639999999,15.029143999999986,643
51.700663999999904,14.381143999999988,639
52.0246639999999,13.733143999999989,615
51.700663999999904,13.733143999999989,640
52.6726639999999,12.437143999999988,619
53.32066399999989,11.789143999999988,669
53.96866399999989,11.789143999999988,623
53.64466399999989,11.789143999999988,638
53.64466399999989,11.141143999999988,644
53.32066399999989,11.141143999999988,682
52.996663999999896,11.789143999999988,655
52.996663999999896,12.437143999999988,640
52.996663999999896,13.733143999999989,613
53.64466399999989,13.733143999999989,532
53.96866399999989,13.733143999999989,530
54.29266399999989,13.085143999999987,573
53.96866399999989,13.085143999999987,558
53.32066399999989,13.733143999999989,591
52.0246639999999,13.085143999999987,616
51.700663999999904,13.085143999999987,645
52.996663999999896,14.381143999999988,621
52.0246639999999,12.437143999999988,612
51.700663999999904,12.437143999999988,649
51.37666399999991,11.789143999999988,661
51.37666399999991,12.437143999999988,653
52.6726639999999,11.789143999999988,650
53.64466399999989,13.085143999999987,560
53.32066399999989,13.085143999999987,644
52.996663999999896,13.085143999999987,633
53.64466399999989,12.437143999999988,623
51.37666399999991,13.733143999999989,646
53.32066399999989,12.437143999999988,656
52.6726639999999,14.381143999999988,567
51.37666399999991,13.085143999999987,671
53.32066399999989,14.381143999999988,564
52.3486639999999,15.029143999999986,625
52.0246639999999,15.677143999999986,585
51.700663999999904,15.029143999999986,683
51.05266399999991,16.325143999999987,545
51.05266399999991,16.973143999999984,560
51.700663999999904,15.677143999999986,599
51.37666399999991,15.677143999999986,590
51.37666399999991,16.325143999999987,536
50.72866399999991,13.085143999999987,685
50.72866399999991,12.437143999999988,678
51.05266399999991,13.085143999999987,672
51.05266399999991,14.381143999999988,663
50.40466399999991,12.437143999999988,701
50.40466399999991,11.789143999999988,733
50.08066399999991,12.437143999999988,782
50.72866399999991,11.789143999999988,706
51.05266399999991,12.437143999999988,659
50.72866399999991,14.381143999999988,724
51.37666399999991,14.381143999999988,651
50.72866399999991,13.733143999999989,695
50.40466399999991,14.381143999999988,699
51.37666399999991,15.029143999999986,623
55.26466399999988,9.197143999999987,828
55.58866399999988,8.54914399999999,3562
55.91266399999988,8.54914399999999,7039
56.23666399999988,9.197143999999987,7047
56.23666399999988,10.493143999999988,7000
56.23666399999988,9.845143999999989,6987
55.91266399999988,9.845143999999989,6925
56.56066399999988,9.197143999999987,7057
56.56066399999988,8.54914399999999,7100
51.05266399999991,6.60514399999999,850
51.700663999999904,7.90114399999999,828
50.72866399999991,6.60514399999999,863
51.700663999999904,7.25314399999999,845
50.72866399999991,7.25314399999999,855
52.0246639999999,7.25314399999999,866
52.3486639999999,7.90114399999999,838
51.05266399999991,5.957143999999991,882
50.40466399999991,7.25314399999999,859
51.700663999999904,6.60514399999999,861
51.700663999999904,5.957143999999991,884
52.3486639999999,9.197143999999987,810
51.700663999999904,8.54914399999999,821
52.0246639999999,8.54914399999999,828
52.3486639999999,8.54914399999999,818
51.37666399999991,7.90114399999999,834
52.3486639999999,7.25314399999999,873
51.37666399999991,5.957143999999991,881
50.72866399999991,7.90114399999999,871
51.37666399999991,9.197143999999987,788
51.700663999999904,9.197143999999987,786
50.40466399999991,6.60514399999999,886
51.05266399999991,7.90114399999999,893
51.37666399999991,8.54914399999999,835
52.0246639999999,5.957143999999991,891
52.3486639999999,6.60514399999999,896
51.05266399999991,8.54914399999999,863
52.0246639999999,9.197143999999987,824
52.6726639999999,9.197143999999987,773
52.0246639999999,9.845143999999989,808
51.700663999999904,9.845143999999989,763
51.37666399999991,9.845143999999989,771
50.72866399999991,8.54914399999999,817
51.05266399999991,9.845143999999989,752
50.72866399999991,9.845143999999989,789
50.40466399999991,9.845143999999989,817
51.05266399999991,9.197143999999987,800
50.40466399999991,9.197143999999987,870
50.08066399999991,9.197143999999987,836
51.05266399999991,10.493143999999988,736
50.40466399999991,8.54914399999999,824
50.72866399999991,9.197143999999987,799
49.75666399999992,9.197143999999987,846
52.996663999999896,9.197143999999987,758
52.3486639999999,9.845143999999989,827
52.996663999999896,8.54914399999999,761
52.996663999999896,7.90114399999999,773
53.32066399999989,7.90114399999999,823
53.32066399999989,7.25314399999999,853
53.64466399999989,7.25314399999999,898
52.996663999999896,10.493143999999988,749
52.6726639999999,10.493143999999988,761
52.6726639999999,9.845143999999989,808
53.32066399999989,9.845143999999989,746
53.32066399999989,9.197143999999987,751
53.64466399999989,8.54914399999999,770
53.32066399999989,8.54914399999999,765
52.6726639999999,8.54914399999999,791
52.0246639999999,10.493143999999988,749
52.0246639999999,11.141143999999988,644
51.700663999999904,11.141143999999988,760
52.6726639999999,7.25314399999999,905
52.996663999999896,7.25314399999999,879
52.6726639999999,7.90114399999999,795
53.64466399999989,7.90114399999999,851
52.996663999999896,11.141143999999988,663
52.6726639999999,11.141143999999988,658
52.3486639999999,10.493143999999988,841
52.996663999999896,9.845143999999989,761
51.700663999999904,10.493143999999988,680
51.37666399999991,10.493143999999988,703
51.700663999999904,11.789143999999988,673
52.3486639999999,11.141143999999988,658
51.37666399999991,11.141143999999988,704
51.05266399999991,11.789143999999988,702
49.10866399999992,11.141143999999988,835
48.78466399999992,11.141143999999988,882
48.46066399999992,11.789143999999988,890
49.43266399999992,11.789143999999988,828
50.08066399999991,11.789143999999988,755
49.75666399999992,12.437143999999988,807
49.10866399999992,11.789143999999988,856
48.78466399999992,12.437143999999988,924
48.46066399999992,12.437143999999988,931
49.10866399999992,12.437143999999988,866
48.78466399999992,13.085143999999987,951
48.136663999999925,12.437143999999988,913
47.81266399999993,11.789143999999988,903
48.136663999999925,10.493143999999988,964
47.81266399999993,10.493143999999988,977
48.78466399999992,10.493143999999988,895
47.48866399999993,10.493143999999988,1267
48.46066399999992,10.493143999999988,904
49.43266399999992,13.085143999999987,1254
48.46066399999992,13.085143999999987,976
49.43266399999992,10.493143999999988,848
49.75666399999992,9.845143999999989,874
49.75666399999992,10.493143999999988,814
50.40466399999991,11.141143999999988,735
50.08066399999991,11.141143999999988,771
50.72866399999991,11.141143999999988,712
49.75666399999992,11.141143999999988,796
48.78466399999992,11.789143999999988,876
50.40466399999991,10.493143999999988,893
50.08066399999991,9.845143999999989,867
50.08066399999991,10.493143999999988,832
49.43266399999992,12.437143999999988,810
49.75666399999992,11.789143999999988,802
49.10866399999992,13.085143999999987,1048
50.72866399999991,10.493143999999988,738
49.10866399999992,10.493143999999988,878
48.78466399999992,9.845143999999989,880
48.46066399999992,8.54914399999999,884
48.46066399999992,9.197143999999987,880
48.78466399999992,9.197143999999987,875
48.78466399999992,8.54914399999999,867
50.08066399999991,7.25314399999999,886
49.75666399999992,6.60514399999999,905
49.43266399999992,6.60514399999999,911
49.10866399999992,6.60514399999999,916
49.43266399999992,7.25314399999999,907
49.75666399999992,7.25314399999999,893
49.10866399999992,5.957143999999991,1310
48.78466399999992,7.25314399999999,910
50.08066399999991,6.60514399999999,902
47.48866399999993,9.197143999999987,958
48.136663999999925,8.54914399999999,917
48.136663999999925,9.197143999999987,912
47.81266399999993,7.25314399999999,958
49.43266399999992,9.845143999999989,913
49.10866399999992,9.845143999999989,873
53.64466399999989,14.381143999999988,507
50.08066399999991,13.085143999999987,816
49.75666399999992,13.085143999999987,755
45.86866399999994,9.197143999999987,1014
46.19266399999994,9.197143999999987,994
46.516663999999935,8.54914399999999,1352
46.516663999999935,9.197143999999987,1339
46.19266399999994,8.54914399999999,997
47.16466399999993,8.54914399999999,961
45.86866399999994,4.661143999999991,1354
46.84066399999993,9.845143999999989,1001
45.22066399999994,5.957143999999991,1371
45.22066399999994,5.309143999999991,1386
45.86866399999994,5.957143999999991,1324
45.54466399999994,5.957143999999991,1343
44.89666399999994,4.661143999999991,1392
44.89666399999994,5.309143999999991,1410
44.572663999999946,4.661143999999991,1404
44.24866399999995,4.661143999999991,1418
43.92466399999995,4.661143999999991,1428
46.19266399999994,7.25314399999999,1016
48.78466399999992,5.957143999999991,1319
48.136663999999925,6.60514399999999,1327
48.46066399999992,6.60514399999999,1273
48.78466399999992,6.60514399999999,1330
47.16466399999993,7.90114399999999,956
48.136663999999925,7.25314399999999,944
48.46066399999992,7.25314399999999,913
46.516663999999935,6.60514399999999,1003
46.84066399999993,6.60514399999999,994
46.84066399999993,7.25314399999999,976
46.516663999999935,5.957143999999991,1014
46.19266399999994,5.957143999999991,1024
46.84066399999993,8.54914399999999,965
46.84066399999993,7.90114399999999,966
45.86866399999994,5.309143999999991,1350
46.19266399999994,6.60514399999999,1275
45.86866399999994,6.60514399999999,1363
47.48866399999993,6.60514399999999,1292
47.48866399999993,7.25314399999999,964
47.16466399999993,7.25314399999999,980
49.10866399999992,4.013143999999992,1398
49.75666399999992,4.661143999999991,1377
49.43266399999992,4.661143999999991,1403
49.10866399999992,5.309143999999991,1374
46.19266399999994,4.661143999999991,1369
46.84066399999993,9.197143999999987,984
46.19266399999994,5.309143999999991,1361
46.516663999999935,5.309143999999991,1410
45.54466399999994,6.60514399999999,1375
45.54466399999994,5.309143999999991,1384
43.60066399999995,4.013143999999992,1480
43.60066399999995,3.365143999999992,1497
42.62866399999996,2.717143999999992,1600
43.276663999999954,2.717143999999992,1526
45.54466399999994,4.661143999999991,1361
45.22066399999994,4.661143999999991,1375
47.16466399999993,5.309143999999991,1341
47.16466399999993,5.957143999999991,1304
46.19266399999994,7.90114399999999,1020
49.75666399999992,2.717143999999992,1336
49.10866399999992,2.717143999999992,1367
48.78466399999992,2.717143999999992,1376
45.86866399999994,3.365143999999992,1494
46.84066399999993,3.365143999999992,1432
46.516663999999935,3.365143999999992,1481
46.19266399999994,3.365143999999992,1469
47.16466399999993,6.60514399999999,984
49.10866399999992,3.365143999999992,1387
45.54466399999994,4.013143999999992,1369
46.516663999999935,7.25314399999999,988
47.16466399999993,4.661143999999991,1351
46.84066399999993,4.661143999999991,1377
46.516663999999935,4.661143999999991,1401
46.84066399999993,5.957143999999991,1279
47.81266399999993,3.365143999999992,1440
47.48866399999993,4.013143999999992,1378
48.136663999999925,4.013143999999992,1425
47.81266399999993,4.013143999999992,1397
47.48866399999993,4.661143999999991,1378
47.16466399999993,3.365143999999992,1458
46.84066399999993,4.013143999999992,1400
48.46066399999992,5.957143999999991,1325
46.19266399999994,2.717143999999992,1690
47.16466399999993,2.0691439999999925,1475
46.516663999999935,2.717143999999992,1654
46.84066399999993,2.717143999999992,1624
46.84066399999993,2.0691439999999925,1506
47.16466399999993,2.717143999999992,1494
44.572663999999946,5.309143999999991,1524
44.572663999999946,5.957143999999991,1523
44.89666399999994,6.60514399999999,1407
44.572663999999946,6.60514399999999,1489
43.60066399999995,5.309143999999991,1470
43.92466399999995,7.25314399999999,1534
43.60066399999995,6.60514399999999,1522
43.276663999999954,6.60514399999999,1499
43.276663999999954,5.957143999999991,1474
45.86866399999994,8.54914399999999,1244
45.54466399999994,8.54914399999999,1275
48.136663999999925,3.365143999999992,1468
48.46066399999992,3.365143999999992,1482
48.46066399999992,2.717143999999992,1511
47.48866399999993,5.309143999999991,1356
46.516663999999935,9.845143999999989,1316
46.84066399999993,10.493143999999988,1331
47.81266399999993,5.309143999999991,1373
45.22066399999994,6.60514399999999,1401
46.19266399999994,4.013143999999992,1384
45.86866399999994,4.013143999999992,1377
45.22066399999994,4.013143999999992,1398
44.89666399999994,4.013143999999992,1437
46.84066399999993,5.309143999999991,1398
48.136663999999925,-1.8188560000000056,1525
48.136663999999925,0.1251439999999934,1473
48.136663999999925,-0.5228560000000062,1489
47.48866399999993,-0.5228560000000062,1511
47.16466399999993,-1.8188560000000056,1550
47.48866399999993,0.7731439999999932,1475
47.16466399999993,0.1251439999999934,1517
45.86866399999994,7.25314399999999,1368
48.136663999999925,5.309143999999991,1404
49.10866399999992,4.661143999999991,1422
48.46066399999992,4.013143999999992,1473
48.136663999999925,4.661143999999991,1424
47.81266399999993,6.60514399999999,1317
47.48866399999993,5.957143999999991,1335
48.136663999999925,5.957143999999991,1886
45.86866399999994,7.90114399999999,1032
46.516663999999935,7.90114399999999,978
49.43266399999992,3.365143999999992,1374
49.43266399999992,4.013143999999992,1389
48.136663999999925,2.717143999999992,1436
47.81266399999993,2.717143999999992,1465
47.48866399999993,2.717143999999992,1484
50.40466399999991,2.717143999999992,1316
48.46066399999992,-4.410856000000004,1659
48.46066399999992,-3.7628560000000046,1624
48.46066399999992,-3.114856000000005,1594
48.46066399999992,-2.4668560000000053,1565
47.48866399999993,1.4211439999999929,1478
47.16466399999993,1.4211439999999929,1595
46.516663999999935,4.013143999999992,1405
43.60066399999995,4.661143999999991,1462
44.89666399999994,2.717143999999992,1727
45.22066399999994,2.717143999999992,1696
45.54466399999994,3.365143999999992,1501
45.22066399999994,3.365143999999992,1442
47.48866399999993,3.365143999999992,1546
46.19266399999994,9.845143999999989,1373
47.81266399999993,2.0691439999999925,1444
47.48866399999993,2.0691439999999925,1454
45.86866399999994,2.717143999999992,1720
44.89666399999994,5.957143999999991,1427
45.22066399999994,1.4211439999999929,1684
44.89666399999994,1.4211439999999929,1682
44.89666399999994,2.0691439999999925,1818
43.276663999999954,2.0691439999999925,1576
43.60066399999995,1.4211439999999929,1621
48.78466399999992,4.661143999999991,1427
48.78466399999992,5.309143999999991,1400
46.19266399999994,2.0691439999999925,1862
45.86866399999994,1.4211439999999929,1618
46.19266399999994,1.4211439999999929,1584
44.572663999999946,4.013143999999992,1533
44.89666399999994,3.365143999999992,1474
43.92466399999995,4.013143999999992,1444
44.24866399999995,4.013143999999992,1471
44.89666399999994,-0.5228560000000062,1514
45.54466399999994,0.1251439999999934,1583
46.516663999999935,0.1251439999999934,1517
44.572663999999946,2.0691439999999925,1696
49.75666399999992,4.013143999999992,1433
43.92466399999995,3.365143999999992,1596
43.92466399999995,2.717143999999992,1621
44.24866399999995,3.365143999999992,1647
44.572663999999946,3.365143999999992,1662
49.10866399999992,0.1251439999999934,1399
49.43266399999992,0.7731439999999932,1379
49.43266399999992,-1.8188560000000056,1521
49.10866399999992,-1.170856000000006,1471
49.10866399999992,-0.5228560000000062,1409
49.10866399999992,0.7731439999999932,1434
49.10866399999992,1.4211439999999929,1410
47.81266399999993,-1.8188560000000056,1623
47.81266399999993,-2.4668560000000053,1648
47.81266399999993,-3.114856000000005,1661
48.136663999999925,-3.7628560000000046,1669
44.572663999999946,9.197143999999987,1376
44.89666399999994,8.54914399999999,1349
45.22066399999994,9.197143999999987,1309
45.54466399999994,10.493143999999988,1387
44.572663999999946,10.493143999999988,1798
44.89666399999994,10.493143999999988,1453
44.89666399999994,9.845143999999989,1380
48.46066399999992,5.309143999999991,1575
50.91599999999999,-1.0580000000000025,65535
51.23999999999999,-0.4100000000000028,65535
50.91599999999999,-0.4100000000000028,65535
51.23999999999999,-2.354000000000002,65535
51.56399999999999,-2.354000000000002,65535
51.56399999999999,-3.0020000000000016,65535
50.91599999999999,-2.354000000000002,65535
53.50799999999997,-3.0020000000000016,65535
53.183999999999976,-2.354000000000002,65535
53.183999999999976,-3.0020000000000016,65535
52.85999999999998,-2.354000000000002,65535
52.21199999999998,-1.0580000000000025,65535
51.887999999999984,-1.0580000000000025,65535
52.53599999999998,-1.0580000000000025,65535
52.53599999999998,-1.7060000000000022,65535
52.85999999999998,-1.7060000000000022,65535
53.50799999999997,-2.354000000000002,65535
52.85999999999998,-1.0580000000000025,65535
52.53599999999998,1.5339999999999965,65535
52.53599999999998,0.8859999999999966,65535
52.53599999999998,0.2379999999999968,65535
52.53599999999998,-0.4100000000000028,65535
53.50799999999997,-1.7060000000000022,65535
53.183999999999976,-1.7060000000000022,65535
53.183999999999976,-1.0580000000000025,65535
52.85999999999998,-0.4100000000000028,65535
51.887999999999984,-2.354000000000002,65535
52.21199999999998,-2.354000000000002,65535
55.77599999999996,-2.354000000000002,65535
53.83199999999997,-1.0580000000000025,65535
53.83199999999997,-1.7060000000000022,65535
55.127999999999965,-1.7060000000000022,65535
54.80399999999997,-1.7060000000000022,65535
54.47999999999997,-1.7060000000000022,65535
54.15599999999997,-1.0580000000000025,65535
52.21199999999998,-1.7060000000000022,65535
53.50799999999997,-1.0580000000000025,65535
55.77599999999996,-3.0020000000000016,65535
55.45199999999996,-1.7060000000000022,65535
57.07199999999995,-2.354000000000002,65535
56.74799999999996,-3.0020000000000016,65535
56.42399999999996,-3.0020000000000016,65535
56.09999999999996,-3.650000000000001,65535
50.91599999999999,-3.0020000000000016,65535
50.91599999999999,-3.650000000000001,65535
50.59199999999999,-3.650000000000001,65535
50.59199999999999,-4.298000000000001,65535
51.23999999999999,-3.0020000000000016,65535
50.268,-4.946000000000001,65535
55.77599999999996,-3.650000000000001,65535
55.77599999999996,-4.298000000000001,65535
52.21199999999998,-0.4100000000000028,65535
52.53599999999998,-2.354000000000002,65535
51.56399999999999,-1.7060000000000022,65535
51.56399999999999,-3.650000000000001,65535
51.887999999999984,-4.298000000000001,65535
51.56399999999999,-4.298000000000001,65535
51.887999999999984,-1.7060000000000022,65535
52.21199999999998,-3.0020000000000016,65535
51.23999999999999,0.2379999999999968,65535
50.91599999999999,0.2379999999999968,65535
52.21199999999998,0.2379999999999968,65535
53.83199999999997,-3.0020000000000016,65535
54.15599999999997,-3.0020000000000016,65535
54.47999999999997,-3.0020000000000016,65535
55.127999999999965,-3.650000000000001,65535
54.80399999999997,-3.0020000000000016,65535
53.83199999999997,-2.354000000000002,65535
54.15599999999997,-0.4100000000000028,65535
54.47999999999997,-1.0580000000000025,65535
53.83199999999997,-0.4100000000000028,65535
53.183999999999976,-3.650000000000001,65535
53.183999999999976,-4.298000000000001,65535
52.85999999999998,-3.0020000000000016,65535
52.53599999999998,-3.0020000000000016,65535
51.887999999999984,-3.0020000000000016,65535
51.23999999999999,0.8859999999999966,65535
51.887999999999984,0.2379999999999968,65535
52.21199999999998,0.8859999999999966,65535
51.887999999999984,-4.946000000000001,65535
52.53599999999998,-3.650000000000001,65535
52.21199999999998,-4.298000000000001,65535
53.183999999999976,-0.4100000000000028,65535
51.23999999999999,-3.650000000000001,65535
51.887999999999984,-3.650000000000001,65535
52.21199999999998,-3.650000000000001,65535
51.56399999999999,0.8859999999999966,65535
51.887999999999984,0.8859999999999966,65535
52.85999999999998,0.8859999999999966,65535
53.50799999999997,-0.4100000000000028,65535
56.09999999999996,-4.298000000000001,65535
56.74799999999996,-4.946000000000001,65535
56.74799999999996,-4.298000000000001,65535
56.42399999999996,-4.946000000000001,65535
56.42399999999996,-4.298000000000001,65535
56.09999999999996,-4.946000000000001,65535
57.39599999999995,-4.298000000000001,65535
57.39599999999995,-3.0020000000000016,65535
57.39599999999995,-3.650000000000001,65535
56.42399999999996,-3.650000000000001,65535
57.07199999999995,-3.650000000000001,65535
57.07199999999995,-4.298000000000001,65535
56.74799999999996,-3.650000000000001,65535
59.15266399999986,27.34114399999998,65535
59.47666399999986,26.69314399999997,65535
59.47666399999986,26.04514399999998,65535
59.15266399999986,26.04514399999998,65535
59.15266399999986,24.74914399999998,65535
59.15266399999986,25.397143999999983,65535
59.47666399999986,25.397143999999983,65535
58.50466399999986,26.69314399999997,65535
58.82866399999986,26.69314399999997,65535
57.85666399999987,26.04514399999998,65535
58.180663999999865,26.04514399999998,65535
58.180663999999865,26.69314399999997,65535
58.82866399999986,26.04514399999998,65535
58.50466399999986,25.397143999999983,65535
58.82866399999986,25.397143999999983,65535
58.82866399999986,24.74914399999998,65535
58.180663999999865,27.34114399999998,65535
57.85666399999987,27.34114399999998,65535
63.68866399999983,27.34114399999998,7557
60.124663999999854,24.74914399999998,4213
60.44866399999985,24.74914399999998,4182
60.44866399999985,25.397143999999983,4194
60.77266399999985,25.397143999999983,4905
61.09666399999985,26.04514399999998,4948
60.77266399999985,26.04514399999998,4956
60.77266399999985,26.69314399999997,4975
61.09666399999985,25.397143999999983,4939
61.09666399999985,26.69314399999997,7678
61.420663999999846,26.69314399999997,7700
61.74466399999984,27.34114399999998,7724
62.06866399999984,27.34114399999998,7749
62.39266399999984,27.34114399999998,7773
62.71666399999984,27.34114399999998,7737
64.01266399999983,27.34114399999998,7513
63.36466399999984,27.34114399999998,7625
63.04066399999984,27.34114399999998,7665
63.04066399999984,27.989143999999985,7680
64.33666399999983,27.989143999999985,5264
64.33666399999983,27.34114399999998,5209
64.66066399999983,27.34114399999998,5194
64.66066399999983,26.69314399999997,5139
64.98466399999982,25.397143999999983,3559
64.66066399999983,26.04514399999998,5120
64.98466399999982,26.04514399999998,5104
66.28066399999982,25.397143999999983,3731
65.95666399999982,24.74914399999998,3472
65.63266399999982,24.74914399999998,3476
65.63266399999982,25.397143999999983,3518
65.30866399999982,25.397143999999983,3539
66.60466399999981,25.397143999999983,3765
64.01266399999983,24.74914399999998,3696
64.01266399999983,24.101143999999977,3731
64.01266399999983,23.45314399999998,3755
63.68866399999983,23.45314399999998,3767
63.68866399999983,22.805143999999984,3792
63.68866399999983,26.04514399999998,5824
63.68866399999983,25.397143999999983,5790
63.68866399999983,26.69314399999997,7524
60.44866399999985,26.69314399999997,8309
64.01266399999983,27.989143999999985,7943
62.71666399999984,22.805143999999984,3914
62.39266399999984,22.805143999999984,3946
62.06866399999984,22.805143999999984,3975
62.06866399999984,23.45314399999998,3991
61.74466399999984,23.45314399999998,4003
61.420663999999846,23.45314399999998,4051
61.09666399999985,23.45314399999998,4092
61.09666399999985,24.101143999999977,4099
61.09666399999985,24.74914399999998,4133
60.77266399999985,24.74914399999998,4149
63.04066399999984,21.50914399999997,65535
63.04066399999984,22.15714399999998,65535
63.04066399999984,22.805143999999984,3878
62.39266399999984,26.04514399999998,7921
62.06866399999984,25.397143999999983,7970
61.74466399999984,25.397143999999983,8038
61.74466399999984,24.74914399999998,8075
61.74466399999984,24.101143999999977,4280
61.420663999999846,24.101143999999977,4235
62.39266399999984,26.69314399999997,7892
64.66066399999983,25.397143999999983,3628
64.66066399999983,24.74914399999998,3646
64.33666399999983,24.74914399999998,3657
63.36466399999984,22.805143999999984,3817
67.25266399999981,24.101143999999977,7345
66.92866399999981,24.101143999999977,7309
66.60466399999981,23.45314399999998,7278
66.28066399999982,23.45314399999998,7260
66.28066399999982,24.101143999999977,7242
65.95666399999982,24.101143999999977,2844
60.124663999999854,24.101143999999977,5727
60.124663999999854,23.45314399999998,6585
60.44866399999985,22.805143999999984,6644
60.77266399999985,27.34114399999998,5027
61.09666399999985,27.989143999999985,5057
61.09666399999985,28.63714399999997,5095
61.420663999999846,29.28514399999997,5130
61.74466399999984,29.933143999999977,5167
62.06866399999984,29.933143999999977,5193
62.39266399999984,29.933143999999977,5209
62.71666399999984,29.933143999999977,5233
61.420663999999846,22.805143999999984,6338
61.420663999999846,22.15714399999998,7046
61.09666399999985,22.15714399999998,6384
61.420663999999846,21.50914399999997,7179
62.39266399999984,27.989143999999985,65535
62.06866399999984,27.989143999999985,65535
61.420663999999846,27.34114399999998,65535
63.04066399999984,29.933143999999977,7172
63.68866399999983,29.28514399999997,8955
63.36466399999984,29.28514399999997,8935
63.36466399999984,29.933143999999977,8894
60.44866399999985,27.34114399999998,65535
61.74466399999984,29.28514399999997,65535
62.39266399999984,30.58114399999998,65535
62.71666399999984,31.229143999999977,65535
62.71666399999984,29.28514399999997,65535
63.04066399999984,28.63714399999997,65535
66.60466399999981,26.04514399999998,6586
66.60466399999981,26.69314399999997,6622
66.60466399999981,27.34114399999998,6645
62.71666399999984,26.04514399999998,7806
62.71666399999984,25.397143999999983,7775
63.04066399999984,25.397143999999983,7595
63.36466399999984,25.397143999999983,6232
62.71666399999984,23.45314399999998,7800
62.39266399999984,24.101143999999977,65535
62.71666399999984,22.15714399999998,65535
62.39266399999984,22.15714399999998,65535
62.39266399999984,21.50914399999997,65535
61.09666399999985,21.50914399999997,6414
60.77266399999985,22.805143999999984,4452
60.44866399999985,22.15714399999998,4482
60.77266399999985,23.45314399999998,4439
60.77266399999985,21.50914399999997,5553
60.77266399999985,22.15714399999998,5506
60.124663999999854,22.805143999999984,8599
60.44866399999985,24.101143999999977,5712
62.06866399999984,24.74914399999998,65535
50.72866399999991,16.325143999999987,568
50.40466399999991,16.973143999999984,656
50.72866399999991,16.973143999999984,590
50.40466399999991,16.325143999999987,679
50.08066399999991,16.973143999999984,891
50.08066399999991,16.325143999999987,788
51.700663999999904,16.973143999999984,531
51.37666399999991,16.973143999999984,565
51.05266399999991,15.677143999999986,619
50.72866399999991,15.677143999999986,576
51.05266399999991,17.621143999999987,569
51.37666399999991,17.621143999999987,536
51.700663999999904,17.621143999999987,519
51.700663999999904,16.325143999999987,507
52.0246639999999,22.15714399999998,358
52.0246639999999,21.50914399999997,352
52.3486639999999,21.50914399999997,354
52.0246639999999,20.86114399999998,348
51.700663999999904,20.86114399999998,392
51.37666399999991,21.50914399999997,431
51.37666399999991,20.86114399999998,426
51.05266399999991,20.86114399999998,475
52.6726639999999,23.45314399999998,468
52.3486639999999,22.805143999999984,407
52.3486639999999,20.213143999999986,373
52.0246639999999,20.213143999999986,375
52.3486639999999,19.565143999999982,432
52.6726639999999,19.565143999999982,466
51.700663999999904,21.50914399999997,430
51.700663999999904,22.15714399999998,446
52.6726639999999,21.50914399999997,393
52.996663999999896,21.50914399999997,445
52.6726639999999,20.86114399999998,383
52.6726639999999,22.15714399999998,409
52.6726639999999,20.213143999999986,460
52.996663999999896,19.565143999999982,526
52.996663999999896,20.86114399999998,398
52.996663999999896,20.213143999999986,372
53.32066399999989,20.213143999999986,210
51.37666399999991,20.213143999999986,499
52.3486639999999,16.973143999999984,452
52.0246639999999,16.973143999999984,460
52.0246639999999,16.325143999999987,473
52.0246639999999,17.621143999999987,480
52.6726639999999,16.973143999999984,440
52.996663999999896,16.973143999999984,388
52.3486639999999,16.325143999999987,459
52.3486639999999,15.677143999999986,495
51.700663999999904,18.269143999999983,632
52.6726639999999,17.621143999999987,470
52.3486639999999,17.621143999999987,457
52.6726639999999,18.269143999999983,370
52.3486639999999,18.269143999999983,413
52.3486639999999,18.917143999999983,398
52.996663999999896,17.621143999999987,343
51.700663999999904,19.565143999999982,1310
51.700663999999904,18.917143999999983,1386
51.37666399999991,18.269143999999983,556
58.82866399999986,9.197143999999987,1808
58.180663999999865,7.90114399999999,1901
58.50466399999986,8.54914399999999,1852
63.36466399999984,10.493143999999988,2023
63.36466399999984,11.141143999999988,2030
63.36466399999984,11.789143999999988,2065
63.68866399999983,11.789143999999988,2093
64.33666399999983,12.437143999999988,2494
64.66066399999983,12.437143999999988,2989
65.63266399999982,13.085143999999987,2646
65.95666399999982,13.085143999999987,2681
66.28066399999982,14.381143999999988,2751
65.95666399999982,13.733143999999989,2820
66.28066399999982,13.733143999999989,2729
65.30866399999982,13.085143999999987,2947
64.98466399999982,13.085143999999987,2581
64.01266399999983,11.789143999999988,2124
63.68866399999983,11.141143999999988,2061
59.800663999999855,10.493143999999988,1604
59.800663999999855,11.141143999999988,1587
60.124663999999854,11.141143999999988,1602
60.44866399999985,11.141143999999988,1615
60.124663999999854,11.789143999999988,1628
60.77266399999985,7.25314399999999,1864
60.77266399999985,6.60514399999999,1910
59.15266399999986,9.197143999999987,1690
59.47666399999986,9.197143999999987,1711
59.800663999999855,9.845143999999989,1606
59.47666399999986,11.141143999999988,1551
61.09666399999985,10.493143999999988,1725
60.77266399999985,10.493143999999988,1695
60.77266399999985,11.141143999999988,1650
62.06866399999984,9.197143999999987,2050
61.74466399999984,9.845143999999989,1996
61.420663999999846,9.845143999999989,1973
59.15266399999986,9.845143999999989,1670
59.47666399999986,9.845143999999989,1646
58.82866399999986,5.957143999999991,2085
58.180663999999865,7.25314399999999,1957
58.50466399999986,7.25314399999999,1990
58.50466399999986,6.60514399999999,1995
58.50466399999986,5.957143999999991,2053
58.82866399999986,8.54914399999999,1838
60.44866399999985,7.25314399999999,1838
60.44866399999985,7.90114399999999,1799
60.124663999999854,10.493143999999988,1636
60.44866399999985,9.197143999999987,1748
60.77266399999985,9.197143999999987,1760
60.77266399999985,8.54914399999999,1779
60.124663999999854,9.845143999999989,2015
60.44866399999985,10.493143999999988,1681
63.04066399999984,10.493143999999988,1974
62.06866399999984,9.845143999999989,2075
62.39266399999984,9.845143999999989,2083
62.71666399999984,9.845143999999989,2107
59.47666399999986,14.381143999999988,1600
59.47666399999986,13.733143999999989,1541
59.47666399999986,13.085143999999987,1517
59.800663999999855,12.437143999999988,1586
59.15266399999986,11.141143999999988,1515
59.15266399999986,14.381143999999988,1614
58.82866399999986,11.789143999999988,1495
58.50466399999986,12.437143999999988,1425
58.180663999999865,12.437143999999988,1418
57.85666399999987,11.789143999999988,1369
62.71666399999984,7.90114399999999,2136
62.39266399999984,7.90114399999999,2093
62.06866399999984,8.54914399999999,2068
60.44866399999985,5.309143999999991,1984
60.44866399999985,5.957143999999991,1951
60.77266399999985,5.957143999999991,1940
62.39266399999984,11.141143999999988,1871
62.06866399999984,10.493143999999988,1826
61.74466399999984,11.141143999999988,1799
61.420663999999846,11.141143999999988,1753
61.09666399999985,11.141143999999988,1736
60.77266399999985,11.789143999999988,1713
63.04066399999984,11.141143999999988,1952
62.71666399999984,11.141143999999988,1895
62.39266399999984,10.493143999999988,1853
67.25266399999981,15.677143999999986,2870
67.25266399999981,15.029143999999986,2908
67.25266399999981,14.381143999999988,2936
66.92866399999981,15.029143999999986,2859
66.60466399999981,15.677143999999986,2837
64.01266399999983,11.141143999999988,2108
66.60466399999981,15.029143999999986,2900
54.29266399999989,18.269143999999983,152
54.616663999999886,17.621143999999987,231
53.96866399999989,18.269143999999983,240
43.92466399999995,1.4211439999999929,1638
44.24866399999995,0.7731439999999932,1650
44.572663999999946,0.1251439999999934,1628
46.84066399999993,1.4211439999999929,1523
44.572663999999946,1.4211439999999929,1705
44.24866399999995,1.4211439999999929,1670
45.54466399999994,1.4211439999999929,1657
46.516663999999935,1.4211439999999929,1541
42.30466399999996,2.717143999999992,1656
44.24866399999995,2.717143999999992,1754
44.572663999999946,2.717143999999992,1759
43.92466399999995,2.0691439999999925,1670
42.30466399999996,2.0691439999999925,1709
42.62866399999996,2.0691439999999925,1673
42.62866399999996,1.4211439999999929,1712
42.95266399999996,1.4211439999999929,1661
43.276663999999954,1.4211439999999929,1636
46.516663999999935,-1.170856000000006,1680
46.19266399999994,-1.170856000000006,1674
45.86866399999994,-0.5228560000000062,1645
45.54466399999994,-0.5228560000000062,1602
48.46066399999992,1.4211439999999929,1399
41.332663999999966,2.0691439999999925,1714
41.98066399999996,2.717143999999992,1673
48.46066399999992,-1.8188560000000056,1553
47.81266399999993,0.7731439999999932,1452
46.84066399999993,0.7731439999999932,1507
44.572663999999946,-1.170856000000006,1525
43.60066399999995,-1.170856000000006,1588
43.276663999999954,-1.8188560000000056,1635
43.276663999999954,0.1251439999999934,1850
42.95266399999996,0.1251439999999934,1827
43.276663999999954,-0.5228560000000062,1760
43.60066399999995,-0.5228560000000062,1749
47.81266399999993,-3.7628560000000046,1687
47.48866399999993,-2.4668560000000053,1605
47.81266399999993,-0.5228560000000062,1488
46.516663999999935,-1.8188560000000056,1708
48.136663999999925,-1.170856000000006,1585
47.48866399999993,-1.170856000000006,1616
45.22066399999994,8.54914399999999,1296
45.22066399999994,7.90114399999999,1316
46.19266399999994,-0.5228560000000062,1661
46.516663999999935,-0.5228560000000062,1643
48.78466399999992,-3.114856000000005,1624
50.72866399999991,2.0691439999999925,1293
50.40466399999991,2.0691439999999925,1328
40.36066399999997,-3.7628560000000046,1905
41.65666399999997,-1.170856000000006,1822
41.332663999999966,1.4211439999999929,1760
43.276663999999954,13.733143999999989,4390
42.95266399999996,13.733143999999989,4412
41.65666399999997,15.029143999999986,4496
40.68466399999997,17.621143999999987,4658
43.60066399999995,13.085143999999987,4383
41.65666399999997,12.437143999999988,3049
41.65666399999997,13.085143999999987,3068
41.98066399999996,13.085143999999987,3118
41.65666399999997,13.733143999999989,3120
41.332663999999966,13.733143999999989,3112
41.332663999999966,14.381143999999988,3269
41.00866399999997,14.381143999999988,3175
41.332663999999966,13.085143999999987,3094
41.00866399999997,15.029143999999986,3375
41.98066399999996,13.733143999999989,3317
42.30466399999996,14.381143999999988,3456
42.30466399999996,12.437143999999988,3057
42.62866399999996,12.437143999999988,3236
42.95266399999996,12.437143999999988,3521
42.30466399999996,11.789143999999988,3066
42.95266399999996,11.789143999999988,3276
42.62866399999996,11.789143999999988,3267
43.276663999999954,11.789143999999988,3330
42.95266399999996,13.085143999999987,4284
42.30466399999996,13.085143999999987,3343
43.276663999999954,13.085143999999987,4332
43.276663999999954,12.437143999999988,4339
42.62866399999996,11.141143999999988,3112
42.95266399999996,11.141143999999988,3155
42.95266399999996,10.493143999999988,3173
44.572663999999946,8.54914399999999,1370
44.89666399999994,7.90114399999999,1327
44.89666399999994,9.197143999999987,1368
44.24866399999995,7.90114399999999,1359
44.572663999999946,7.90114399999999,1340
43.92466399999995,7.90114399999999,1539
44.24866399999995,7.25314399999999,1356
44.89666399999994,7.25314399999999,1338
45.22066399999994,7.25314399999999,1348
45.54466399999994,7.90114399999999,1324
44.572663999999946,7.25314399999999,1402
52.996663999999896,22.805143999999984,515
52.996663999999896,23.45314399999998,521
51.37666399999991,22.15714399999998,579
51.37666399999991,22.805143999999984,634
50.08066399999991,20.213143999999986,582
50.72866399999991,20.213143999999986,505
50.40466399999991,20.213143999999986,544
50.08066399999991,20.86114399999998,672
50.08066399999991,21.50914399999997,724
50.08066399999991,22.15714399999998,760
50.08066399999991,22.805143999999984,779
53.96866399999989,22.805143999999984,867
53.64466399999989,23.45314399999998,680
53.32066399999989,23.45314399999998,578
50.40466399999991,19.565143999999982,563
50.08066399999991,18.917143999999983,606
50.08066399999991,18.269143999999983,668
52.0246639999999,22.805143999999984,414
52.0246639999999,23.45314399999998,463
51.37666399999991,19.565143999999982,1299
51.05266399999991,19.565143999999982,608
50.72866399999991,18.917143999999983,554
50.72866399999991,19.565143999999982,577
49.75666399999992,18.917143999999983,680
50.40466399999991,18.269143999999983,554
53.64466399999989,19.565143999999982,52
53.96866399999989,18.917143999999983,125
53.64466399999989,18.917143999999983,119
53.64466399999989,20.213143999999986,90
52.996663999999896,18.917143999999983,312
52.996663999999896,18.269143999999983,328
53.32066399999989,18.917143999999983,272
50.72866399999991,17.621143999999987,603
50.72866399999991,18.269143999999983,586
52.6726639999999,16.325143999999987,463
52.996663999999896,16.325143999999987,424
52.996663999999896,15.677143999999986,469
53.32066399999989,15.677143999999986,512
53.32066399999989,15.029143999999986,553
53.64466399999989,15.029143999999986,531
53.96866399999989,15.029143999999986,485
52.6726639999999,18.917143999999983,362
53.32066399999989,16.325143999999987,457
52.6726639999999,15.029143999999986,524
51.05266399999991,22.805143999999984,660
51.05266399999991,23.45314399999998,704
50.72866399999991,22.15714399999998,709
50.40466399999991,22.15714399999998,806
51.05266399999991,22.15714399999998,631
54.616663999999886,16.973143999999984,340
54.29266399999989,16.325143999999987,433
53.96866399999989,15.677143999999986,447
50.72866399999991,21.50914399999997,1249
50.40466399999991,21.50914399999997,825
50.40466399999991,17.621143999999987,741
53.32066399999989,22.805143999999984,623
53.64466399999989,22.15714399999998,485
54.29266399999989,16.973143999999984,411
50.72866399999991,20.86114399999998,489
51.700663999999904,22.805143999999984,828
51.05266399999991,21.50914399999997,491
50.08066399999991,19.565143999999982,605
52.0246639999999,18.917143999999983,8488
52.0246639999999,19.565143999999982,8481
53.64466399999989,18.269143999999983,281
51.700663999999904,20.213143999999986,654
53.32066399999989,19.565143999999982,0
50.72866399999991,23.45314399999998,841
50.72866399999991,22.805143999999984,811
49.43266399999992,20.213143999999986,743
49.75666399999992,21.50914399999997,853
49.75666399999992,22.15714399999998,1302
49.43266399999992,22.15714399999998,1314
51.05266399999991,18.917143999999983,597
51.05266399999991,18.269143999999983,579
53.32066399999989,16.973143999999984,350
53.64466399999989,16.973143999999984,341
49.75666399999992,20.86114399999998,745
50.40466399999991,22.805143999999984,8570
53.64466399999989,16.325143999999987,387
53.96866399999989,20.86114399999998,342
54.29266399999989,20.86114399999998,388
53.96866399999989,21.50914399999997,408
53.64466399999989,15.677143999999986,511
53.96866399999989,20.213143999999986,145
53.96866399999989,19.565143999999982,181
54.29266399999989,19.565143999999982,195
53.96866399999989,16.325143999999987,407
53.64466399999989,17.621143999999987,287
53.96866399999989,22.15714399999998,475
53.64466399999989,21.50914399999997,440
53.64466399999989,20.86114399999998,394
52.6726639999999,15.677143999999986,493
51.05266399999991,20.213143999999986,1249
54.940663999999884,24.101143999999977,3681
54.616663999999886,23.45314399999998,3625
54.29266399999989,23.45314399999998,3488
53.64466399999989,22.805143999999984,625
53.96866399999989,16.973143999999984,397
50.40466399999991,20.86114399999998,563
53.32066399999989,18.269143999999983,297
49.75666399999992,19.565143999999982,619
50.40466399999991,23.45314399999998,925
49.75666399999992,20.213143999999986,721
49.43266399999992,19.565143999999982,746
49.43266399999992,20.86114399999998,782
53.96866399999989,17.621143999999987,348
42.30466399999996,-1.8188560000000056,8799
41.98066399999996,-1.8188560000000056,8782
41.65666399999997,0.7731439999999932,8786
42.62866399999996,-1.8188560000000056,8914
42.95266399999996,-1.8188560000000056,8943
42.62866399999996,-3.114856000000005,9037
42.95266399999996,-2.4668560000000053,9015
42.62866399999996,-7.650856000000003,9379
42.30466399999996,-7.650856000000003,9439
42.30466399999996,-8.946856000000002,9575
42.30466399999996,-8.298856000000002,9549
41.98066399999996,-8.298856000000002,9538
42.30466399999996,-7.002856000000003,9321
42.62866399999996,-6.354856000000003,9263
42.30466399999996,-6.354856000000003,9218
42.62866399999996,-5.706856000000004,8718
41.98066399999996,-4.410856000000004,8672
42.30466399999996,-3.7628560000000046,9063
40.03666399999997,-0.5228560000000062,8766
39.38866399999998,-0.5228560000000062,8814
41.00866399999997,0.7731439999999932,8914
40.68466399999997,0.7731439999999932,8946
40.36066399999997,0.1251439999999934,9024
39.712663999999975,-0.5228560000000062,8923
38.41666399999998,-0.5228560000000062,8935
39.06466399999998,-0.5228560000000062,9057
38.74066399999998,-1.170856000000006,8943
41.332663999999966,0.7731439999999932,8974
41.65666399999997,2.717143999999992,8574
41.65666399999997,2.0691439999999925,8597
41.332663999999966,0.1251439999999934,8932
41.332663999999966,-0.5228560000000062,8876
41.65666399999997,-4.410856000000004,8646
40.03666399999997,-2.4668560000000053,8884
41.00866399999997,-4.410856000000004,8767
43.276663999999954,-5.706856000000004,8848
39.38866399999998,-1.170856000000006,8909
38.09266399999999,-1.170856000000006,9322
38.74066399999998,-0.5228560000000062,9085
37.76866399999999,-1.170856000000006,9387
39.06466399999998,-1.8188560000000056,8907
39.38866399999998,-3.114856000000005,8807
39.38866399999998,-2.4668560000000053,8863
39.06466399999998,-2.4668560000000053,8890
39.06466399999998,-3.114856000000005,8811
39.06466399999998,-3.7628560000000046,8785
38.74066399999998,-3.7628560000000046,8864
40.03666399999997,-3.7628560000000046,8763
40.03666399999997,-3.114856000000005,8963
40.03666399999997,-1.8188560000000056,9044
39.712663999999975,-1.8188560000000056,9009
39.712663999999975,-1.170856000000006,8945
40.36066399999997,-1.170856000000006,8964
40.68466399999997,-1.170856000000006,8942
41.00866399999997,-1.170856000000006,8930
41.332663999999966,-1.170856000000006,8770
43.276663999999954,-8.298856000000002,9539
42.95266399999996,-8.298856000000002,9507
41.65666399999997,-5.706856000000004,65535
41.98066399999996,-7.002856000000003,65535
41.98066399999996,-6.354856000000003,65535
41.332663999999966,-5.058856000000004,8885
43.276663999999954,-3.7628560000000046,9320
42.95266399999996,-4.410856000000004,9254
42.62866399999996,-4.410856000000004,9244
42.30466399999996,-4.410856000000004,9203
41.00866399999997,-5.706856000000004,8823
41.332663999999966,-1.8188560000000056,8716
40.68466399999997,-3.114856000000005,8670
41.00866399999997,-3.114856000000005,8721
41.00866399999997,-2.4668560000000053,8744
41.332663999999966,-2.4668560000000053,8797
40.68466399999997,-4.410856000000004,8707
40.36066399999997,-4.410856000000004,8791
40.68466399999997,-3.7628560000000046,8699
40.36066399999997,-3.114856000000005,8677
41.65666399999997,-2.4668560000000053,8814
38.09266399999999,-3.7628560000000046,8911
38.74066399999998,-3.114856000000005,8855
37.76866399999999,-3.7628560000000046,8968
39.712663999999975,-3.114856000000005,8799
38.41666399999998,-3.7628560000000046,8876
40.03666399999997,-4.410856000000004,65535
40.03666399999997,-5.058856000000004,65535
39.38866399999998,-6.354856000000003,65535
39.38866399999998,-7.002856000000003,65535
42.95266399999996,-3.114856000000005,9448
41.98066399999996,-1.170856000000006,8811
42.30466399999996,-2.4668560000000053,8852
41.65666399999997,-0.5228560000000062,8909
41.98066399999996,-0.5228560000000062,8746
41.65666399999997,0.1251439999999934,8773
41.98066399999996,0.1251439999999934,8795
37.76866399999999,-5.058856000000004,8847
36.79666399999999,-4.410856000000004,8906
38.74066399999998,-4.410856000000004,8803
37.12066399999999,-4.410856000000004,8880
37.44466399999999,-5.058856000000004,9404
37.44466399999999,-7.002856000000003,65535
37.44466399999999,-6.354856000000003,65535
37.44466399999999,-5.706856000000004,9080
39.712663999999975,-3.7628560000000046,8873
42.62866399999996,-8.946856000000002,65535
42.30466399999996,-5.706856000000004,9225
42.30466399999996,-5.058856000000004,9310
42.95266399999996,-5.706856000000004,8750
41.00866399999997,-5.058856000000004,8791
40.68466399999997,-5.058856000000004,8765
41.65666399999997,-5.058856000000004,65535
41.65666399999997,-6.354856000000003,65535
36.79666399999999,-6.354856000000003,65535
37.12066399999999,-5.706856000000004,9248
37.76866399999999,-5.706856000000004,9047
38.09266399999999,-4.410856000000004,9182
37.12066399999999,-5.058856000000004,9202
36.79666399999999,-5.058856000000004,9160
37.76866399999999,-4.410856000000004,65535
37.76866399999999,-7.002856000000003,65535
38.41666399999998,-6.354856000000003,65535
38.09266399999999,-6.354856000000003,65535
48.78466399999992,1.4211439999999929,1425
56.23666399999988,8.54914399999999,7090
55.58866399999988,9.197143999999987,6895
55.91266399999988,9.197143999999987,7036
55.26466399999988,10.493143999999988,1074
55.91266399999988,12.437143999999988,1209
55.58866399999988,11.789143999999988,6735
55.58866399999988,11.141143999999988,6776
55.26466399999988,11.789143999999988,6768
55.58866399999988,10.493143999999988,6891
55.58866399999988,13.085143999999987,1166
56.88466399999987,9.845143999999989,7042
57.20866399999987,9.845143999999989,7077
56.56066399999988,9.845143999999989,7014
56.88466399999987,8.54914399999999,7129
54.940663999999884,9.845143999999989,8236
54.940663999999884,11.789143999999988,6992
55.91266399999988,13.085143999999987,1224
56.23666399999988,13.733143999999989,1268
55.91266399999988,13.733143999999989,1271
56.23666399999988,14.381143999999988,1291
56.23666399999988,15.029143999999986,1332
56.23666399999988,15.677143999999986,1387
56.56066399999988,14.381143999999988,1348
56.88466399999987,14.381143999999988,1318
56.23666399999988,13.085143999999987,1216
56.56066399999988,13.085143999999987,1296
56.88466399999987,12.437143999999988,1333
57.20866399999987,12.437143999999988,1349
57.53266399999987,12.437143999999988,1364
56.88466399999987,15.029143999999986,1344
56.56066399999988,15.677143999999986,1404
56.88466399999987,15.677143999999986,1423
56.88466399999987,16.325143999999987,1438
55.91266399999988,11.789143999999988,7061
57.20866399999987,10.493143999999988,7264
49.43266399999992,1.4211439999999929,1383
49.75666399999992,0.7731439999999932,1401
49.75666399999992,2.0691439999999925,1349
50.08066399999991,2.717143999999992,1360
49.75666399999992,1.4211439999999929,1354
47.81266399999993,1.4211439999999929,1454
48.136663999999925,2.0691439999999925,1989
48.46066399999992,2.0691439999999925,1428
48.136663999999925,1.4211439999999929,1411
48.78466399999992,0.1251439999999934,1426
48.46066399999992,0.1251439999999934,1444
47.81266399999993,0.1251439999999934,1543
46.84066399999993,-0.5228560000000062,1602
47.16466399999993,0.7731439999999932,1511
46.84066399999993,0.1251439999999934,1727
46.84066399999993,-1.170856000000006,1652
50.08066399999991,1.4211439999999929,1346
50.08066399999991,2.0691439999999925,1363
49.43266399999992,2.717143999999992,1352
49.75666399999992,3.365143999999992,1339
50.08066399999991,3.365143999999992,1297
49.10866399999992,2.0691439999999925,1382
49.43266399999992,2.0691439999999925,1374
48.78466399999992,0.7731439999999932,1476
48.78466399999992,-0.5228560000000062,1547
48.78466399999992,-1.170856000000006,1577
48.136663999999925,0.7731439999999932,1466
48.46066399999992,0.7731439999999932,1439
43.92466399999995,5.957143999999991,1507
44.24866399999995,5.957143999999991,1545
43.92466399999995,5.309143999999991,1452
42.95266399999996,2.717143999999992,1577
45.54466399999994,2.0691439999999925,1634
45.22066399999994,2.0691439999999925,1729
42.95266399999996,2.0691439999999925,1609
42.95266399999996,0.7731439999999932,1778
43.276663999999954,0.7731439999999932,1707
46.19266399999994,0.7731439999999932,1732
46.516663999999935,0.7731439999999932,1689
45.86866399999994,0.1251439999999934,1745
46.19266399999994,0.1251439999999934,1749
47.81266399999993,-1.170856000000006,1803
48.136663999999925,-2.4668560000000053,1727
47.48866399999993,-1.8188560000000056,1587
47.16466399999993,-1.170856000000006,1608
47.16466399999993,-0.5228560000000062,1611
46.84066399999993,-1.8188560000000056,1676
45.22066399999994,-0.5228560000000062,1547
44.89666399999994,0.1251439999999934,1572
45.22066399999994,0.7731439999999932,1657
45.54466399999994,0.7731439999999932,1685
45.86866399999994,0.7731439999999932,1722
45.22066399999994,0.1251439999999934,1667
44.89666399999994,0.7731439999999932,1616
43.92466399999995,-0.5228560000000062,1776
43.92466399999995,-1.170856000000006,1675
44.24866399999995,-1.170856000000006,1710
45.22066399999994,-1.170856000000006,1578
44.572663999999946,-0.5228560000000062,1555
44.24866399999995,0.1251439999999934,1650
44.572663999999946,0.7731439999999932,1757
43.276663999999954,-1.170856000000006,1844
42.95266399999996,-0.5228560000000062,1893
44.24866399999995,2.0691439999999925,1718
43.60066399999995,0.7731439999999932,1724
43.60066399999995,2.0691439999999925,1695
52.6726639999999,4.661143999999991,7081
52.6726639999999,5.309143999999991,7104
51.700663999999904,5.309143999999991,7049
52.0246639999999,5.309143999999991,7061
52.3486639999999,5.309143999999991,7077
51.37666399999991,4.013143999999992,7057
52.3486639999999,5.957143999999991,7071
52.0246639999999,6.60514399999999,7101
52.6726639999999,5.957143999999991,7088
52.996663999999896,5.957143999999991,7101
53.32066399999989,5.957143999999991,7095
52.996663999999896,6.60514399999999,7077
53.32066399999989,6.60514399999999,7069
52.6726639999999,6.60514399999999,7097
52.996663999999896,5.309143999999991,7116
59.15266399999986,24.101143999999977,65535
56.88466399999987,24.101143999999977,65535
56.88466399999987,23.45314399999998,65535
56.88466399999987,22.805143999999984,65535
57.20866399999987,24.74914399999998,65535
56.88466399999987,24.74914399999998,65535
56.56066399999988,24.74914399999998,65535
56.56066399999988,25.397143999999983,65535
56.56066399999988,24.101143999999977,65535
56.56066399999988,23.45314399999998,65535
56.56066399999988,26.04514399999998,65535
56.88466399999987,26.04514399999998,65535
57.20866399999987,25.397143999999983,65535
57.53266399999987,25.397143999999983,65535
56.23666399999988,26.04514399999998,65535
56.23666399999988,26.69314399999997,65535
55.91266399999988,26.69314399999997,65535
56.56066399999988,26.69314399999997,65535
56.56066399999988,27.34114399999998,65535
56.56066399999988,27.989143999999985,65535
56.23666399999988,27.989143999999985,65535
55.91266399999988,27.34114399999998,65535
56.56066399999988,22.805143999999984,65535
56.56066399999988,22.15714399999998,65535
56.56066399999988,21.50914399999997,65535
57.20866399999987,26.69314399999997,65535
39.06466399999998,-8.946856000000002,65535
38.41666399999998,-8.298856000000002,65535
45.86866399999994,11.789143999999988,2068
46.19266399999994,11.789143999999988,2055
46.19266399999994,10.493143999999988,2095
45.22066399999994,18.269143999999983,1932
45.22066399999994,18.917143999999983,1973
45.54466399999994,16.973143999999984,1835
45.22066399999994,17.621143999999987,1876
45.86866399999994,16.325143999999987,1796
45.54466399999994,18.917143999999983,2020
45.54466399999994,16.325143999999987,1810
45.54466399999994,18.269143999999983,1988
44.89666399999994,18.917143999999983,2170
46.19266399999994,16.973143999999984,1796
46.19266399999994,16.325143999999987,1801
45.86866399999994,16.973143999999984,1813
45.86866399999994,17.621143999999987,1908
46.19266399999994,15.677143999999986,1770
46.516663999999935,16.325143999999987,1775
45.54466399999994,15.677143999999986,1845
45.22066399999994,15.029143999999986,1881
45.54466399999994,15.029143999999986,1842
45.22066399999994,15.677143999999986,1906
44.572663999999946,15.677143999999986,2059
44.24866399999995,15.677143999999986,2080
43.92466399999995,16.325143999999987,2144
44.89666399999994,15.677143999999986,2023
45.54466399999994,17.621143999999987,1887
45.22066399999994,16.325143999999987,1865
46.516663999999935,16.973143999999984,1788
45.86866399999994,18.269143999999983,2080
43.92466399999995,15.677143999999986,2246
45.22066399999994,13.733143999999989,1890
47.48866399999993,19.565143999999982,1247
47.16466399999993,18.917143999999983,1248
47.81266399999993,18.917143999999983,1226
45.54466399999994,9.845143999999989,1339
45.22066399999994,9.845143999999989,1348
45.22066399999994,10.493143999999988,1399
45.86866399999994,9.845143999999989,1364
45.86866399999994,10.493143999999988,2838
48.78466399999992,21.50914399999997,1265
49.10866399999992,20.213143999999986,889
49.10866399999992,18.917143999999983,786
48.46066399999992,17.621143999999987,1228
49.43266399999992,17.621143999999987,1453
49.10866399999992,17.621143999999987,1312
48.136663999999925,18.269143999999983,1147
49.10866399999992,18.269143999999983,793
49.43266399999992,18.269143999999983,848
49.43266399999992,16.973143999999984,728
49.75666399999992,16.973143999999984,1401
49.75666399999992,16.325143999999987,767
50.08066399999991,15.677143999999986,719
50.08066399999991,15.029143999999986,701
49.43266399999992,18.917143999999983,767
47.81266399999993,20.86114399999998,1435
48.136663999999925,20.86114399999998,1380
48.46066399999992,20.86114399999998,1284
48.46066399999992,21.50914399999997,1280
49.10866399999992,19.565143999999982,801
48.136663999999925,17.621143999999987,1186
48.78466399999992,22.15714399999998,1390
48.78466399999992,20.86114399999998,1439
49.10866399999992,20.86114399999998,927
48.78466399999992,18.269143999999983,863
48.78466399999992,17.621143999999987,1214
49.10866399999992,21.50914399999997,1246
48.78466399999992,20.213143999999986,1435
48.46066399999992,20.213143999999986,1456
48.136663999999925,19.565143999999982,2085
48.46066399999992,19.565143999999982,1964
48.46066399999992,18.917143999999983,1294
48.46066399999992,18.269143999999983,922
48.78466399999992,19.565143999999982,1380
48.78466399999992,18.917143999999983,1369
47.81266399999993,18.269143999999983,1267
49.10866399999992,22.15714399999998,1340
49.43266399999992,21.50914399999997,1294
48.136663999999925,18.917143999999983,1211
48.136663999999925,20.213143999999986,2105
52.636,-8.018,65535
52.312,-7.370000000000001,65535
52.312,-8.018,65535
52.636,-8.666,65535
51.988,-8.666,65535
51.988,-8.018,65535
52.96,-8.666,65535
52.96,-6.074000000000002,65535
53.28399999999999,-6.722000000000001,65535
53.60799999999999,-6.722000000000001,65535
53.60799999999999,-7.370000000000001,65535
53.60799999999999,-8.018,65535
54.25599999999999,-8.666,65535
53.93199999999999,-8.666,65535
53.93199999999999,-8.018,65535
52.312,-6.722000000000001,65535
52.636,-6.722000000000001,65535
53.93199999999999,-6.722000000000001,65535
54.25599999999999,-6.074000000000002,65535
53.28399999999999,-7.370000000000001,65535
52.96,-7.370000000000001,65535
52.312,-8.666,65535
52.96,-8.018,65535
52.636,-7.370000000000001,65535
52.96,-6.722000000000001,65535
51.988,-9.314,65535
52.312,-9.314,65535
54.579999999999984,-6.722000000000001,65535
54.579999999999984,-6.074000000000002,65535
53.28399999999999,-8.018,65535
53.28399999999999,-8.666,65535
53.28399999999999,-9.314,65535
53.93199999999999,-9.314,65535
54.25599999999999,-9.314,65535
53.60799999999999,-8.666,65535
53.60799999999999,-9.314,65535
49.43266399999992,14.381143999999988,755
49.75666399999992,14.381143999999988,708
49.75666399999992,15.029143999999986,706
49.75666399999992,13.733143999999989,717
50.08066399999991,13.733143999999989,709
49.75666399999992,15.677143999999986,719
50.40466399999991,15.029143999999986,696
49.43266399999992,13.733143999999989,727
50.40466399999991,15.677143999999986,707
50.40466399999991,13.733143999999989,762
46.19266399999994,15.029143999999986,1753
45.86866399999994,15.029143999999986,1798
45.86866399999994,14.381143999999988,1775
46.19266399999994,13.733143999999989,1862
45.86866399999994,13.733143999999989,1948
58.50466399999986,13.733143999999989,1442
58.180663999999865,13.733143999999989,1446
58.180663999999865,13.085143999999987,1418
57.85666399999987,12.437143999999988,1384
60.44866399999985,15.677143999999986,1667
60.124663999999854,15.677143999999986,1601
60.124663999999854,16.325143999999987,1639
59.800663999999855,16.325143999999987,1567
59.800663999999855,17.621143999999987,1546
59.47666399999986,18.269143999999983,1528
61.74466399999984,16.973143999999984,1678
61.420663999999846,16.973143999999984,1651
60.77266399999985,16.973143999999984,1603
65.63266399999982,22.15714399999998,2782
65.95666399999982,21.50914399999997,2742
65.63266399999982,20.86114399999998,2713
64.98466399999982,20.213143999999986,2645
64.66066399999983,20.213143999999986,2623
64.33666399999983,19.565143999999982,2317
64.01266399999983,19.565143999999982,2030
63.68866399999983,20.213143999999986,1983
64.66066399999983,18.917143999999983,2994
59.15266399999986,16.325143999999987,1503
59.15266399999986,15.029143999999986,1495
59.15266399999986,17.621143999999987,1520
57.53266399999987,14.381143999999988,1344
57.53266399999987,15.029143999999986,1364
61.09666399999985,14.381143999999988,1771
60.77266399999985,15.029143999999986,1722
60.44866399999985,15.029143999999986,1708
58.180663999999865,15.029143999999986,1421
58.50466399999986,16.325143999999987,1455
58.50466399999986,15.677143999999986,1428
63.36466399999984,13.085143999999987,2015
63.04066399999984,14.381143999999988,1952
62.39266399999984,15.677143999999986,1874
63.36466399999984,13.733143999999989,1997
63.36466399999984,14.381143999999988,1969
62.71666399999984,15.677143999999986,1902
62.39266399999984,17.621143999999987,1736
59.800663999999855,15.677143999999986,2013
55.58866399999988,13.733143999999989,1298
57.20866399999987,14.381143999999988,1328
57.85666399999987,14.381143999999988,1376
58.82866399999986,16.973143999999984,1512
58.82866399999986,16.325143999999987,1490
59.15266399999986,18.269143999999983,1524
60.44866399999985,17.621143999999987,1579
59.15266399999986,12.437143999999988,1483
59.15266399999986,13.085143999999987,1497
58.82866399999986,12.437143999999988,1459
59.47666399999986,16.325143999999987,1529
58.82866399999986,14.381143999999988,1536
59.47666399999986,15.677143999999986,1518
63.36466399999984,18.917143999999983,1936
63.04066399999984,17.621143999999987,1891
62.71666399999984,17.621143999999987,1865
63.68866399999983,19.565143999999982,1969
62.39266399999984,16.973143999999984,1780
59.800663999999855,16.973143999999984,1555
59.47666399999986,17.621143999999987,1532
57.85666399999987,13.085143999999987,1408
57.53266399999987,13.085143999999987,1389
58.50466399999986,11.789143999999988,1430
57.85666399999987,15.029143999999986,1410
57.20866399999987,13.733143999999989,1334
57.53266399999987,13.733143999999989,1395
61.74466399999984,16.325143999999987,1774
61.420663999999846,16.325143999999987,1741
61.09666399999985,16.325143999999987,1730
61.09666399999985,16.973143999999984,1698
60.124663999999854,15.029143999999986,1876
66.60466399999981,20.86114399999998,2817
67.25266399999981,20.86114399999998,2885
67.90066399999981,20.213143999999986,2955
67.57666399999981,20.213143999999986,3580
59.800663999999855,15.029143999999986,1596
58.50466399999986,15.029143999999986,1438
59.47666399999986,15.029143999999986,1581
60.44866399999985,16.325143999999987,1667
59.15266399999986,15.677143999999986,1525
57.85666399999987,13.733143999999989,1436
58.82866399999986,13.733143999999989,1483
58.50466399999986,13.085143999999987,1468
57.20866399999987,13.085143999999987,1365
56.88466399999987,13.085143999999987,1339
58.180663999999865,11.789143999999988,1401
62.06866399999984,16.973143999999984,1769
65.95666399999982,23.45314399999998,2823
59.800663999999855,14.381143999999988,5891
59.800663999999855,18.269143999999983,1537
63.04066399999984,15.029143999999986,1920
62.71666399999984,15.029143999999986,1910
62.39266399999984,16.325143999999987,1843
63.36466399999984,12.437143999999988,2048
68.5486639999998,17.621143999999987,3168
68.5486639999998,18.269143999999983,3101
68.5486639999998,18.917143999999983,3078
68.2246639999998,18.917143999999983,3034
59.800663999999855,13.085143999999987,1600
60.124663999999854,13.085143999999987,1639
59.47666399999986,16.973143999999984,1541
59.15266399999986,16.973143999999984,1533
56.56066399999988,13.733143999999989,1286
60.124663999999854,17.621143999999987,1556
57.85666399999987,16.325143999999987,1515
58.180663999999865,16.325143999999987,1477
58.180663999999865,15.677143999999986,1485
57.20866399999987,16.325143999999987,1527
57.53266399999987,15.677143999999986,1545
57.85666399999987,15.677143999999986,1516
44.89666399999994,23.45314399999998,2965
44.572663999999946,23.45314399999998,3035
44.89666399999994,24.74914399999998,2952
44.572663999999946,24.74914399999998,3071
44.572663999999946,24.101143999999977,3012
44.24866399999995,24.101143999999977,3041
47.48866399999993,25.397143999999983,2813
47.48866399999993,24.74914399999998,2753
47.16466399999993,24.74914399999998,2675
47.16466399999993,24.101143999999977,2577
47.48866399999993,22.15714399999998,2707
47.81266399999993,22.15714399999998,2793
47.16466399999993,22.15714399999998,2686
47.16466399999993,23.45314399999998,2738
47.16466399999993,22.805143999999984,2744
46.84066399999993,24.101143999999977,2658
45.86866399999994,27.34114399999998,2998
45.54466399999994,27.34114399999998,2979
45.54466399999994,27.989143999999985,3095
45.86866399999994,20.86114399999998,2870
45.86866399999994,21.50914399999997,2878
46.19266399999994,21.50914399999997,2814
46.19266399999994,27.34114399999998,2998
46.19266399999994,26.69314399999997,2989
46.516663999999935,26.69314399999997,2951
46.516663999999935,26.04514399999998,2847
47.48866399999993,22.805143999999984,2805
46.84066399999993,22.805143999999984,2618
45.54466399999994,22.15714399999998,2927
45.22066399999994,22.15714399999998,3005
44.89666399999994,22.15714399999998,3423
47.48866399999993,23.45314399999998,2771
46.516663999999935,24.101143999999977,2497
46.516663999999935,24.74914399999998,2711
45.86866399999994,24.101143999999977,2660
47.16466399999993,26.69314399999997,3029
47.16466399999993,27.34114399999998,3084
43.92466399999995,25.397143999999983,3043
44.24866399999995,24.74914399999998,2950
44.89666399999994,26.04514399999998,2837
44.89666399999994,26.69314399999997,2884
45.22066399999994,26.69314399999997,2919
45.22066399999994,27.34114399999998,2946
46.84066399999993,26.69314399999997,2990
47.48866399999993,26.69314399999997,2983
44.24866399999995,25.397143999999983,2882
43.92466399999995,26.04514399999998,3059
46.19266399999994,24.101143999999977,2705
44.572663999999946,25.397143999999983,2920
46.84066399999993,24.74914399999998,2718
46.516663999999935,21.50914399999997,2818
46.84066399999993,21.50914399999997,2825
44.572663999999946,26.69314399999997,2875
44.572663999999946,27.34114399999998,2896
44.89666399999994,27.34114399999998,3011
44.572663999999946,27.989143999999985,2916
44.24866399999995,27.989143999999985,2930
44.572663999999946,28.63714399999997,2981
45.86866399999994,22.15714399999998,2739
45.86866399999994,22.805143999999984,2633
44.24866399999995,23.45314399999998,3068
43.92466399999995,27.989143999999985,65535
46.84066399999993,27.34114399999998,3151
45.22066399999994,23.45314399999998,2940
45.54466399999994,23.45314399999998,2743
45.54466399999994,24.101143999999977,2690
45.22066399999994,24.101143999999977,2914
44.89666399999994,24.101143999999977,2984
46.19266399999994,22.15714399999998,2870
46.516663999999935,22.15714399999998,2836
45.22066399999994,21.50914399999997,3110
45.54466399999994,21.50914399999997,2958
45.54466399999994,20.86114399999998,2982
46.516663999999935,27.989143999999985,3101
46.19266399999994,27.989143999999985,3086
45.54466399999994,25.397143999999983,2804
45.22066399999994,25.397143999999983,2814
45.22066399999994,26.04514399999998,2870
47.81266399999993,24.101143999999977,2866
47.48866399999993,26.04514399999998,2956
47.81266399999993,26.04514399999998,2978
46.19266399999994,23.45314399999998,2537
45.86866399999994,23.45314399999998,2586
44.24866399999995,26.04514399999998,2864
45.22066399999994,27.989143999999985,3076
45.86866399999994,24.74914399999998,2699
46.516663999999935,25.397143999999983,2891
46.84066399999993,25.397143999999983,2774
46.19266399999994,26.04514399999998,2862
45.86866399999994,26.04514399999998,2827
43.92466399999995,23.45314399999998,3298
44.89666399999994,25.397143999999983,2925
46.19266399999994,20.86114399999998,2859
47.81266399999993,25.397143999999983,2990
44.572663999999946,22.805143999999984,3303
44.572663999999946,22.15714399999998,3445
46.516663999999935,23.45314399999998,2676
45.86866399999994,25.397143999999983,2753
44.24866399999995,27.34114399999998,3691
45.22066399999994,24.74914399999998,3016
45.54466399999994,22.805143999999984,2706
45.22066399999994,28.63714399999997,3136
44.89666399999994,28.63714399999997,3075
47.81266399999993,23.45314399999998,2923
46.19266399999994,24.74914399999998,2785
46.19266399999994,25.397143999999983,2809
43.92466399999995,24.101143999999977,3261
43.92466399999995,24.74914399999998,3274
47.81266399999993,26.69314399999997,3205
47.48866399999993,24.101143999999977,2798
46.84066399999993,26.04514399999998,3606
46.19266399999994,22.805143999999984,2930
47.48866399999993,27.34114399999998,3158
46.19266399999994,20.213143999999986,65535
45.54466399999994,26.04514399999998,2962
44.24866399999995,26.69314399999997,2880
45.86866399999994,27.989143999999985,3134
47.81266399999993,5.957143999999991,7066
