51.56399999999999,-0.4100000000000028,65535
51.887999999999984,-0.4100000000000028,65535
50.91599999999999,-1.7060000000000022,65535
51.23999999999999,-1.0580000000000025,65535
51.56399999999999,-1.0580000000000025,65535
51.23999999999999,-1.7060000000000022,65535
51.56399999999999,0.2379999999999968,65535
47.16466399999993,9.845143999999989,2486
47.48866399999993,9.845143999999989,2466
48.136663999999925,14.381143999999988,2444
47.81266399999993,13.085143999999987,2409
47.16466399999993,11.141143999999988,2450
47.48866399999993,11.789143999999988,2597
48.136663999999925,16.325143999999987,1534
47.48866399999993,12.437143999999988,2403
48.136663999999925,15.677143999999986,1595
47.16466399999993,10.493143999999988,2458
47.16466399999993,9.197143999999987,2493
48.136663999999925,13.733143999999989,2467
48.136663999999925,15.029143999999986,2269
47.81266399999993,16.973143999999984,1555
48.46066399999992,14.381143999999988,3784
47.48866399999993,13.085143999999987,2394
47.16466399999993,13.085143999999987,2387
47.48866399999993,14.381143999999988,2551
47.48866399999993,13.733143999999989,2631
47.48866399999993,15.029143999999986,1607
46.516663999999935,13.733143999999989,2249
46.84066399999993,13.733143999999989,2260
46.84066399999993,13.085143999999987,2291
48.78466399999992,14.381143999999988,65535
47.16466399999993,15.677143999999986,1620
46.516663999999935,14.381143999999988,2232
46.84066399999993,14.381143999999988,2295
47.16466399999993,14.381143999999988,2405
46.516663999999935,15.029143999999986,2230
47.81266399999993,16.325143999999987,1552
47.16466399999993,15.029143999999986,1643
47.81266399999993,15.677143999999986,2416
47.48866399999993,15.677143999999986,1597
46.516663999999935,13.085143999999987,2774
46.84066399999993,12.437143999999988,2399
48.136663999999925,11.789143999999988,2390
47.81266399999993,12.437143999999988,2410
46.84066399999993,15.677143999999986,1681
46.516663999999935,15.677143999999986,1829
46.84066399999993,16.325143999999987,1665
47.81266399999993,14.381143999999988,2485
48.78466399999992,16.973143999999984,1551
48.136663999999925,16.973143999999984,1516
48.46066399999992,13.733143999999989,2490
47.81266399999993,13.733143999999989,2474
50.08066399999991,8.54914399999999,2429
48.46066399999992,9.845143999999989,2422
51.05266399999991,7.25314399999999,2437
51.37666399999991,7.25314399999999,2431
51.37666399999991,6.60514399999999,2435
48.46066399999992,16.325143999999987,1548
48.46066399999992,16.973143999999984,1544
48.78466399999992,16.325143999999987,1612
48.46066399999992,15.677143999999986,1600
48.78466399999992,15.677143999999986,1607
47.48866399999993,16.325143999999987,1562
47.16466399999993,16.325143999999987,1614
46.19266399999994,14.381143999999988,1976
45.86866399999994,15.677143999999986,1910
43.60066399999995,16.325143999999987,3160
45.54466399999994,14.381143999999988,2266
45.54466399999994,13.733143999999989,2286
48.136663999999925,13.085143999999987,2456
48.46066399999992,11.141143999999988,2391
48.136663999999925,11.141143999999988,2395
48.46066399999992,7.90114399999999,2446
49.10866399999992,8.54914399999999,2435
48.78466399999992,2.0691439999999925,2558
49.10866399999992,7.25314399999999,2481
52.0246639999999,7.90114399999999,2440
47.16466399999993,11.789143999999988,2470
49.43266399999992,11.141143999999988,2361
53.64466399999989,9.845143999999989,2481
50.72866399999991,4.013143999999992,2470
51.05266399999991,11.141143999999988,2338
47.48866399999993,11.141143999999988,2438
46.84066399999993,11.789143999999988,3062
46.516663999999935,11.141143999999988,3031
45.54466399999994,11.141143999999988,2925
46.19266399999994,11.141143999999988,2997
45.86866399999994,11.141143999999988,2981
44.572663999999946,11.141143999999988,2772
43.92466399999995,12.437143999999988,65535
45.54466399999994,12.437143999999988,3012
45.54466399999994,11.789143999999988,2975
48.78466399999992,15.029143999999986,1692
47.81266399999993,15.029143999999986,2332
47.81266399999993,11.141143999999988,2408
50.40466399999991,18.917143999999983,1864
52.3486639999999,20.86114399999998,2367
54.616663999999886,18.269143999999983,2556
54.29266399999989,18.917143999999983,2550
49.10866399999992,14.381143999999988,65535
50.08066399999991,14.381143999999988,1826
48.78466399999992,13.733143999999989,65535
52.6726639999999,13.085143999999987,2315
52.3486639999999,13.085143999999987,2315
53.96866399999989,12.437143999999988,2439
54.29266399999989,12.437143999999988,2452
47.48866399999993,8.54914399999999,2507
47.81266399999993,17.621143999999987,1493
47.48866399999993,18.917143999999983,1340
47.48866399999993,20.86114399999998,1182
46.84066399999993,23.45314399999998,599
44.572663999999946,26.04514399999998,796
47.48866399999993,21.50914399999997,1139
47.81266399999993,21.50914399999997,1868
48.46066399999992,22.15714399999998,1537
47.48866399999993,16.973143999999984,65535
49.10866399999992,16.325143999999987,1656
49.75666399999992,18.269143999999983,1721
46.19266399999994,13.085143999999987,2303
41.98066399999996,12.437143999999988,4005
43.60066399999995,10.493143999999988,4166
45.54466399999994,9.197143999999987,2588
47.81266399999993,22.805143999999984,801
49.75666399999992,22.805143999999984,2271
50.72866399999991,3.365143999999992,2487
51.05266399999991,4.013143999999992,2479
50.72866399999991,4.661143999999991,2466
51.05266399999991,4.661143999999991,2471
51.05266399999991,3.365143999999992,2491
51.05266399999991,2.717143999999992,2500
50.40466399999991,4.661143999999991,2476
50.72866399999991,2.717143999999992,2494
50.40466399999991,4.013143999999992,2475
51.05266399999991,5.309143999999991,2475
50.72866399999991,5.309143999999991,2452
51.37666399999991,3.365143999999992,2497
51.37666399999991,4.661143999999991,2477
50.72866399999991,5.957143999999991,2449
50.40466399999991,5.957143999999991,2463
50.40466399999991,3.365143999999992,2493
50.40466399999991,5.309143999999991,2465
50.08066399999991,5.309143999999991,2479
49.75666399999992,5.309143999999991,2483
49.75666399999992,5.957143999999991,2510
51.37666399999991,5.309143999999991,2448
51.700663999999904,4.661143999999991,2490
50.08066399999991,4.013143999999992,2500
50.08066399999991,5.957143999999991,2481
50.08066399999991,4.661143999999991,2495
49.43266399999992,5.309143999999991,2535
49.43266399999992,5.957143999999991,2514
52.0246639999999,4.661143999999991,2486
52.3486639999999,4.661143999999991,2488
50.72866399999991,15.029143999999986,2230
51.05266399999991,15.029143999999986,2245
51.05266399999991,13.733143999999989,2276
50.40466399999991,13.085143999999987,2328
49.10866399999992,7.90114399999999,2459
48.78466399999992,7.90114399999999,2437
50.40466399999991,7.90114399999999,2448
50.08066399999991,7.90114399999999,2440
49.75666399999992,7.90114399999999,2453
49.43266399999992,7.90114399999999,2452
49.75666399999992,8.54914399999999,2428
49.43266399999992,8.54914399999999,2441
49.43266399999992,9.197143999999987,2414
49.10866399999992,9.197143999999987,2424
47.48866399999993,7.90114399999999,2513
47.81266399999993,7.90114399999999,2486
48.136663999999925,7.90114399999999,2463
48.136663999999925,9.845143999999989,2441
47.81266399999993,9.197143999999987,2496
47.81266399999993,8.54914399999999,2499
47.81266399999993,9.845143999999989,2453
54.940663999999884,9.197143999999987,2540
54.616663999999886,9.197143999999987,2520
54.29266399999989,9.197143999999987,2528
53.96866399999989,9.197143999999987,2525
53.64466399999989,9.197143999999987,2516
54.616663999999886,9.845143999999989,2512
54.29266399999989,9.845143999999989,2501
53.96866399999989,9.845143999999989,2487
53.64466399999989,10.493143999999988,2471
53.96866399999989,10.493143999999988,2498
53.96866399999989,11.141143999999988,2535
54.29266399999989,10.493143999999988,2523
53.32066399999989,10.493143999999988,2456
54.940663999999884,11.141143999999988,2569
52.6726639999999,13.733143999999989,2313
52.3486639999999,13.733143999999989,2310
52.3486639999999,14.381143999999988,2318
52.0246639999999,14.381143999999988,2307
52.0246639999999,11.789143999999988,2339
52.3486639999999,11.789143999999988,2358
52.3486639999999,12.437143999999988,2347
52.0246639999999,15.029143999999986,2323
51.700663999999904,14.381143999999988,2299
52.0246639999999,13.733143999999989,2305
51.700663999999904,13.733143999999989,2294
52.6726639999999,12.437143999999988,2348
53.32066399999989,11.789143999999988,2469
53.96866399999989,11.789143999999988,2445
53.64466399999989,11.789143999999988,2500
53.64466399999989,11.141143999999988,2502
53.32066399999989,11.141143999999988,2475
52.996663999999896,11.789143999999988,2380
52.996663999999896,12.437143999999988,2364
52.996663999999896,13.733143999999989,2340
53.64466399999989,13.733143999999989,2416
53.96866399999989,13.733143999999989,2450
54.29266399999989,13.085143999999987,2462
53.96866399999989,13.085143999999987,2459
53.32066399999989,13.733143999999989,2387
52.0246639999999,13.085143999999987,2329
51.700663999999904,13.085143999999987,2326
52.996663999999896,14.381143999999988,2443
52.0246639999999,12.437143999999988,2336
51.700663999999904,12.437143999999988,2333
51.37666399999991,11.789143999999988,2314
51.37666399999991,12.437143999999988,2307
52.6726639999999,11.789143999999988,2390
53.64466399999989,13.085143999999987,2443
53.32066399999989,13.085143999999987,2385
52.996663999999896,13.085143999999987,2358
53.64466399999989,12.437143999999988,2428
51.37666399999991,13.733143999999989,2285
53.32066399999989,12.437143999999988,2395
52.6726639999999,14.381143999999988,2345
51.37666399999991,13.085143999999987,2299
53.32066399999989,14.381143999999988,2429
52.3486639999999,15.029143999999986,2336
52.0246639999999,15.677143999999986,2338
51.700663999999904,15.029143999999986,2263
51.05266399999991,16.325143999999987,2231
51.05266399999991,16.973143999999984,2204
51.700663999999904,15.677143999999986,2281
51.37666399999991,15.677143999999986,2270
51.37666399999991,16.325143999999987,2236
50.72866399999991,13.085143999999987,2316
50.72866399999991,12.437143999999988,2328
51.05266399999991,13.085143999999987,2294
51.05266399999991,14.381143999999988,2258
50.40466399999991,12.437143999999988,2345
50.40466399999991,11.789143999999988,2339
50.08066399999991,12.437143999999988,2364
50.72866399999991,11.789143999999988,2326
51.05266399999991,12.437143999999988,2327
50.72866399999991,14.381143999999988,1872
51.37666399999991,14.381143999999988,2280
50.72866399999991,13.733143999999989,2315
50.40466399999991,14.381143999999988,1831
51.37666399999991,15.029143999999986,2251
55.26466399999988,9.197143999999987,2568
55.58866399999988,8.54914399999999,2582
55.91266399999988,8.54914399999999,2622
56.23666399999988,9.197143999999987,2628
56.23666399999988,10.493143999999988,2637
56.23666399999988,9.845143999999989,2624
55.91266399999988,9.845143999999989,2617
56.56066399999988,9.197143999999987,2640
56.56066399999988,8.54914399999999,2651
51.05266399999991,6.60514399999999,2437
51.700663999999904,7.90114399999999,2421
50.72866399999991,6.60514399999999,2448
51.700663999999904,7.25314399999999,2434
50.72866399999991,7.25314399999999,2450
52.0246639999999,7.25314399999999,2446
52.3486639999999,7.90114399999999,2472
51.05266399999991,5.957143999999991,2442
50.40466399999991,7.25314399999999,2455
51.700663999999904,6.60514399999999,2442
51.700663999999904,5.957143999999991,2450
52.3486639999999,9.197143999999987,2401
51.700663999999904,8.54914399999999,2409
52.0246639999999,8.54914399999999,2418
52.3486639999999,8.54914399999999,2438
51.37666399999991,7.90114399999999,2423
52.3486639999999,7.25314399999999,2453
51.37666399999991,5.957143999999991,2441
50.72866399999991,7.90114399999999,2460
51.37666399999991,9.197143999999987,2379
51.700663999999904,9.197143999999987,2398
50.40466399999991,6.60514399999999,2506
51.05266399999991,7.90114399999999,2453
51.37666399999991,8.54914399999999,2395
52.0246639999999,5.957143999999991,2465
52.3486639999999,6.60514399999999,2468
51.05266399999991,8.54914399999999,2423
52.0246639999999,9.197143999999987,2402
52.6726639999999,9.197143999999987,2430
52.0246639999999,9.845143999999989,2402
51.700663999999904,9.845143999999989,2410
51.37666399999991,9.845143999999989,2360
50.72866399999991,8.54914399999999,2438
51.05266399999991,9.845143999999989,2356
50.72866399999991,9.845143999999989,2348
50.40466399999991,9.845143999999989,2366
51.05266399999991,9.197143999999987,2413
50.40466399999991,9.197143999999987,2432
50.08066399999991,9.197143999999987,2426
51.05266399999991,10.493143999999988,2348
50.40466399999991,8.54914399999999,2431
50.72866399999991,9.197143999999987,2420
49.75666399999992,9.197143999999987,2423
52.996663999999896,9.197143999999987,2469
52.3486639999999,9.845143999999989,2394
52.996663999999896,8.54914399999999,2486
52.996663999999896,7.90114399999999,2513
53.32066399999989,7.90114399999999,2567
53.32066399999989,7.25314399999999,2535
53.64466399999989,7.25314399999999,2578
52.996663999999896,10.493143999999988,2423
52.6726639999999,10.493143999999988,2416
52.6726639999999,9.845143999999989,2400
53.32066399999989,9.845143999999989,2483
53.32066399999989,9.197143999999987,2487
53.64466399999989,8.54914399999999,2527
53.32066399999989,8.54914399999999,2497
52.6726639999999,8.54914399999999,2463
52.0246639999999,10.493143999999988,2429
52.0246639999999,11.141143999999988,2379
51.700663999999904,11.141143999999988,2373
52.6726639999999,7.25314399999999,2694
52.996663999999896,7.25314399999999,2540
52.6726639999999,7.90114399999999,2501
53.64466399999989,7.90114399999999,2591
52.996663999999896,11.141143999999988,2401
52.6726639999999,11.141143999999988,2395
52.3486639999999,10.493143999999988,2386
52.996663999999896,9.845143999999989,2436
51.700663999999904,10.493143999999988,2369
51.37666399999991,10.493143999999988,2362
51.700663999999904,11.789143999999988,2327
52.3486639999999,11.141143999999988,2373
51.37666399999991,11.141143999999988,2364
51.05266399999991,11.789143999999988,2324
49.10866399999992,11.141143999999988,2367
48.78466399999992,11.141143999999988,2378
48.46066399999992,11.789143999999988,2385
49.43266399999992,11.789143999999988,2377
50.08066399999991,11.789143999999988,2356
49.75666399999992,12.437143999999988,2406
49.10866399999992,11.789143999999988,2376
48.78466399999992,12.437143999999988,2424
48.46066399999992,12.437143999999988,2412
49.10866399999992,12.437143999999988,2406
48.78466399999992,13.085143999999987,2451
48.136663999999925,12.437143999999988,2441
47.81266399999993,11.789143999999988,2397
48.136663999999925,10.493143999999988,2405
47.81266399999993,10.493143999999988,2417
48.78466399999992,10.493143999999988,2393
47.48866399999993,10.493143999999988,2437
48.46066399999992,10.493143999999988,2404
49.43266399999992,13.085143999999987,2498
48.46066399999992,13.085143999999987,2472
49.43266399999992,10.493143999999988,2370
49.75666399999992,9.845143999999989,2376
49.75666399999992,10.493143999999988,2362
50.40466399999991,11.141143999999988,2336
50.08066399999991,11.141143999999988,2344
50.72866399999991,11.141143999999988,2330
49.75666399999992,11.141143999999988,2355
48.78466399999992,11.789143999999988,2399
50.40466399999991,10.493143999999988,2340
50.08066399999991,9.845143999999989,2370
50.08066399999991,10.493143999999988,2352
49.43266399999992,12.437143999999988,2381
49.75666399999992,11.789143999999988,2373
49.10866399999992,13.085143999999987,2553
50.72866399999991,10.493143999999988,2342
49.10866399999992,10.493143999999988,2397
48.78466399999992,9.845143999999989,2417
48.46066399999992,8.54914399999999,2429
48.46066399999992,9.197143999999987,2425
48.78466399999992,9.197143999999987,2421
48.78466399999992,8.54914399999999,2427
50.08066399999991,7.25314399999999,2493
49.75666399999992,6.60514399999999,2511
49.43266399999992,6.60514399999999,2506
49.10866399999992,6.60514399999999,2491
49.43266399999992,7.25314399999999,2466
49.75666399999992,7.25314399999999,2463
49.10866399999992,5.957143999999991,2534
48.78466399999992,7.25314399999999,2497
50.08066399999991,6.60514399999999,2508
47.48866399999993,9.197143999999987,2488
48.136663999999925,8.54914399999999,2474
48.136663999999925,9.197143999999987,2467
47.81266399999993,7.25314399999999,2504
49.43266399999992,9.845143999999989,2384
49.10866399999992,9.845143999999989,2413
53.64466399999989,14.381143999999988,2423
50.08066399999991,13.085143999999987,1873
49.75666399999992,13.085143999999987,1990
45.86866399999994,9.197143999999987,2578
46.19266399999994,9.197143999999987,2564
46.516663999999935,8.54914399999999,2517
46.516663999999935,9.197143999999987,2559
46.19266399999994,8.54914399999999,2576
47.16466399999993,8.54914399999999,2506
45.86866399999994,4.661143999999991,2658
46.84066399999993,9.845143999999989,2502
45.22066399999994,5.957143999999991,2692
45.22066399999994,5.309143999999991,2722
45.86866399999994,5.957143999999991,2640
45.54466399999994,5.957143999999991,2663
44.89666399999994,4.661143999999991,2712
44.89666399999994,5.309143999999991,2727
44.572663999999946,4.661143999999991,2755
44.24866399999995,4.661143999999991,2723
43.92466399999995,4.661143999999991,2719
46.19266399999994,7.25314399999999,2553
48.78466399999992,5.957143999999991,2500
48.136663999999925,6.60514399999999,2503
48.46066399999992,6.60514399999999,2480
48.78466399999992,6.60514399999999,2490
47.16466399999993,7.90114399999999,2519
48.136663999999925,7.25314399999999,2469
48.46066399999992,7.25314399999999,2456
46.516663999999935,6.60514399999999,2567
46.84066399999993,6.60514399999999,2563
46.84066399999993,7.25314399999999,2536
46.516663999999935,5.957143999999991,2593
46.19266399999994,5.957143999999991,2579
46.84066399999993,8.54914399999999,2511
46.84066399999993,7.90114399999999,2521
45.86866399999994,5.309143999999991,2652
46.19266399999994,6.60514399999999,2569
45.86866399999994,6.60514399999999,2580
47.48866399999993,6.60514399999999,2543
47.48866399999993,7.25314399999999,2519
47.16466399999993,7.25314399999999,2529
49.10866399999992,4.013143999999992,2585
49.75666399999992,4.661143999999991,2517
49.43266399999992,4.661143999999991,2580
49.10866399999992,5.309143999999991,2638
46.19266399999994,4.661143999999991,2664
46.84066399999993,9.197143999999987,2510
46.19266399999994,5.309143999999991,2642
46.516663999999935,5.309143999999991,2639
45.54466399999994,6.60514399999999,2716
45.54466399999994,5.309143999999991,2695
43.60066399999995,4.013143999999992,2765
43.60066399999995,3.365143999999992,2807
42.62866399999996,2.717143999999992,2892
43.276663999999954,2.717143999999992,2823
45.54466399999994,4.661143999999991,2679
45.22066399999994,4.661143999999991,2694
47.16466399999993,5.309143999999991,2596
47.16466399999993,5.957143999999991,2566
46.19266399999994,7.90114399999999,2548
49.75666399999992,2.717143999999992,2626
49.10866399999992,2.717143999999992,2584
48.78466399999992,2.717143999999992,2605
45.86866399999994,3.365143999999992,2870
46.84066399999993,3.365143999999992,2752
46.516663999999935,3.365143999999992,2781
46.19266399999994,3.365143999999992,2815
47.16466399999993,6.60514399999999,2548
49.10866399999992,3.365143999999992,2660
45.54466399999994,4.013143999999992,2689
46.516663999999935,7.25314399999999,2548
47.16466399999993,4.661143999999991,2640
46.84066399999993,4.661143999999991,2651
46.516663999999935,4.661143999999991,2677
46.84066399999993,5.957143999999991,2599
47.81266399999993,3.365143999999992,2682
47.48866399999993,4.013143999999992,2706
48.136663999999925,4.013143999999992,2709
47.81266399999993,4.013143999999992,2715
47.48866399999993,4.661143999999991,2613
47.16466399999993,3.365143999999992,2766
46.84066399999993,4.013143999999992,2691
48.46066399999992,5.957143999999991,2585
46.19266399999994,2.717143999999992,2930
47.16466399999993,2.0691439999999925,2710
46.516663999999935,2.717143999999992,2902
46.84066399999993,2.717143999999992,2883
46.84066399999993,2.0691439999999925,2794
47.16466399999993,2.717143999999992,2747
44.572663999999946,5.309143999999991,2840
44.572663999999946,5.957143999999991,2750
44.89666399999994,6.60514399999999,2667
44.572663999999946,6.60514399999999,2709
43.60066399999995,5.309143999999991,2742
43.92466399999995,7.25314399999999,2824
43.60066399999995,6.60514399999999,2812
43.276663999999954,6.60514399999999,2820
43.276663999999954,5.957143999999991,2747
45.86866399999994,8.54914399999999,2585
45.54466399999994,8.54914399999999,2592
48.136663999999925,3.365143999999992,2644
48.46066399999992,3.365143999999992,2632
48.46066399999992,2.717143999999992,2591
47.48866399999993,5.309143999999991,2676
46.516663999999935,9.845143999999989,2516
46.84066399999993,10.493143999999988,3731
47.81266399999993,5.309143999999991,2777
45.22066399999994,6.60514399999999,2661
46.19266399999994,4.013143999999992,2714
45.86866399999994,4.013143999999992,2697
45.22066399999994,4.013143999999992,2717
44.89666399999994,4.013143999999992,2784
46.84066399999993,5.309143999999991,2661
48.136663999999925,-1.8188560000000056,2647
48.136663999999925,0.1251439999999934,2609
48.136663999999925,-0.5228560000000062,2691
47.48866399999993,-0.5228560000000062,2646
47.16466399999993,-1.8188560000000056,2687
47.48866399999993,0.7731439999999932,2620
47.16466399999993,0.1251439999999934,2698
45.86866399999994,7.25314399999999,2599
48.136663999999925,5.309143999999991,2736
49.10866399999992,4.661143999999991,2629
48.46066399999992,4.013143999999992,2690
48.136663999999925,4.661143999999991,2728
47.81266399999993,6.60514399999999,2551
47.48866399999993,5.957143999999991,2735
48.136663999999925,5.957143999999991,2846
45.86866399999994,7.90114399999999,2560
46.516663999999935,7.90114399999999,2537
49.43266399999992,3.365143999999992,2662
49.43266399999992,4.013143999999992,2600
48.136663999999925,2.717143999999992,2830
47.81266399999993,2.717143999999992,2841
47.48866399999993,2.717143999999992,2819
50.40466399999991,2.717143999999992,2509
48.46066399999992,-4.410856000000004,2804
48.46066399999992,-3.7628560000000046,2750
48.46066399999992,-3.114856000000005,2735
48.46066399999992,-2.4668560000000053,2705
47.48866399999993,1.4211439999999929,2675
47.16466399999993,1.4211439999999929,2687
46.516663999999935,4.013143999999992,2725
43.60066399999995,4.661143999999991,2747
44.89666399999994,2.717143999999992,2941
45.22066399999994,2.717143999999992,2994
45.54466399999994,3.365143999999992,2919
45.22066399999994,3.365143999999992,2915
47.48866399999993,3.365143999999992,2926
46.19266399999994,9.845143999999989,2574
47.81266399999993,2.0691439999999925,2685
47.48866399999993,2.0691439999999925,2722
45.86866399999994,2.717143999999992,2894
44.89666399999994,5.957143999999991,2734
45.22066399999994,1.4211439999999929,2789
44.89666399999994,1.4211439999999929,2809
44.89666399999994,2.0691439999999925,2901
43.276663999999954,2.0691439999999925,2853
43.60066399999995,1.4211439999999929,2851
48.78466399999992,4.661143999999991,2612
48.78466399999992,5.309143999999991,2532
46.19266399999994,2.0691439999999925,2961
45.86866399999994,1.4211439999999929,2800
46.19266399999994,1.4211439999999929,2848
44.572663999999946,4.013143999999992,2863
44.89666399999994,3.365143999999992,2951
43.92466399999995,4.013143999999992,2793
44.24866399999995,4.013143999999992,2810
44.89666399999994,-0.5228560000000062,2714
45.54466399999994,0.1251439999999934,2756
46.516663999999935,0.1251439999999934,2730
44.572663999999946,2.0691439999999925,2858
49.75666399999992,4.013143999999992,2558
43.92466399999995,3.365143999999992,3081
43.92466399999995,2.717143999999992,3112
44.24866399999995,3.365143999999992,3136
44.572663999999946,3.365143999999992,3177
49.10866399999992,0.1251439999999934,2662
49.43266399999992,0.7731439999999932,2637
49.43266399999992,-1.8188560000000056,2719
49.10866399999992,-1.170856000000006,2693
49.10866399999992,-0.5228560000000062,2669
49.10866399999992,0.7731439999999932,2689
49.10866399999992,1.4211439999999929,2625
47.81266399999993,-1.8188560000000056,2701
47.81266399999993,-2.4668560000000053,2727
47.81266399999993,-3.114856000000005,2740
48.136663999999925,-3.7628560000000046,2797
44.572663999999946,9.197143999999987,2696
44.89666399999994,8.54914399999999,2669
45.22066399999994,9.197143999999987,2599
45.54466399999994,10.493143999999988,2647
44.572663999999946,10.493143999999988,2758
44.89666399999994,10.493143999999988,2744
44.89666399999994,9.845143999999989,2712
48.46066399999992,5.309143999999991,2715
50.91599999999999,-1.0580000000000025,65535
51.23999999999999,-0.4100000000000028,65535
50.91599999999999,-0.4100000000000028,65535
51.23999999999999,-2.354000000000002,65535
51.56399999999999,-2.354000000000002,65535
51.56399999999999,-3.0020000000000016,65535
50.91599999999999,-2.354000000000002,65535
53.50799999999997,-3.0020000000000016,65535
53.183999999999976,-2.354000000000002,65535
53.183999999999976,-3.0020000000000016,65535
52.85999999999998,-2.354000000000002,65535
52.21199999999998,-1.0580000000000025,65535
51.887999999999984,-1.0580000000000025,65535
52.53599999999998,-1.0580000000000025,65535
52.53599999999998,-1.7060000000000022,65535
52.85999999999998,-1.7060000000000022,65535
53.50799999999997,-2.354000000000002,65535
52.85999999999998,-1.0580000000000025,65535
52.53599999999998,1.5339999999999965,65535
52.53599999999998,0.8859999999999966,65535
52.53599999999998,0.2379999999999968,65535
52.53599999999998,-0.4100000000000028,65535
53.50799999999997,-1.7060000000000022,65535
53.183999999999976,-1.7060000000000022,65535
53.183999999999976,-1.0580000000000025,65535
52.85999999999998,-0.4100000000000028,65535
51.887999999999984,-2.354000000000002,65535
52.21199999999998,-2.354000000000002,65535
55.77599999999996,-2.354000000000002,65535
53.83199999999997,-1.0580000000000025,65535
53.83199999999997,-1.7060000000000022,65535
55.127999999999965,-1.7060000000000022,65535
54.80399999999997,-1.7060000000000022,65535
54.47999999999997,-1.7060000000000022,65535
54.15599999999997,-1.0580000000000025,65535
52.21199999999998,-1.7060000000000022,65535
53.50799999999997,-1.0580000000000025,65535
55.77599999999996,-3.0020000000000016,65535
55.45199999999996,-1.7060000000000022,65535
57.07199999999995,-2.354000000000002,65535
56.74799999999996,-3.0020000000000016,65535
56.42399999999996,-3.0020000000000016,65535
56.09999999999996,-3.650000000000001,65535
50.91599999999999,-3.0020000000000016,65535
50.91599999999999,-3.650000000000001,65535
50.59199999999999,-3.650000000000001,65535
50.59199999999999,-4.298000000000001,65535
51.23999999999999,-3.0020000000000016,65535
50.268,-4.946000000000001,65535
55.77599999999996,-3.650000000000001,65535
55.77599999999996,-4.298000000000001,65535
52.21199999999998,-0.4100000000000028,65535
52.53599999999998,-2.354000000000002,65535
51.56399999999999,-1.7060000000000022,65535
51.56399999999999,-3.650000000000001,65535
51.887999999999984,-4.298000000000001,65535
51.56399999999999,-4.298000000000001,65535
51.887999999999984,-1.7060000000000022,65535
52.21199999999998,-3.0020000000000016,65535
51.23999999999999,0.2379999999999968,65535
50.91599999999999,0.2379999999999968,65535
52.21199999999998,0.2379999999999968,65535
53.83199999999997,-3.0020000000000016,65535
54.15599999999997,-3.0020000000000016,65535
54.47999999999997,-3.0020000000000016,65535
55.127999999999965,-3.650000000000001,65535
54.80399999999997,-3.0020000000000016,65535
53.83199999999997,-2.354000000000002,65535
54.15599999999997,-0.4100000000000028,65535
54.47999999999997,-1.0580000000000025,65535
53.83199999999997,-0.4100000000000028,65535
53.183999999999976,-3.650000000000001,65535
53.183999999999976,-4.298000000000001,65535
52.85999999999998,-3.0020000000000016,65535
52.53599999999998,-3.0020000000000016,65535
51.887999999999984,-3.0020000000000016,65535
51.23999999999999,0.8859999999999966,65535
51.887999999999984,0.2379999999999968,65535
52.21199999999998,0.8859999999999966,65535
51.887999999999984,-4.946000000000001,65535
52.53599999999998,-3.650000000000001,65535
52.21199999999998,-4.298000000000001,65535
53.183999999999976,-0.4100000000000028,65535
51.23999999999999,-3.650000000000001,65535
51.887999999999984,-3.650000000000001,65535
52.21199999999998,-3.650000000000001,65535
51.56399999999999,0.8859999999999966,65535
51.887999999999984,0.8859999999999966,65535
52.85999999999998,0.8859999999999966,65535
53.50799999999997,-0.4100000000000028,65535
56.09999999999996,-4.298000000000001,65535
56.74799999999996,-4.946000000000001,65535
56.74799999999996,-4.298000000000001,65535
56.42399999999996,-4.946000000000001,65535
56.42399999999996,-4.298000000000001,65535
56.09999999999996,-4.946000000000001,65535
57.39599999999995,-4.298000000000001,65535
57.39599999999995,-3.0020000000000016,65535
57.39599999999995,-3.650000000000001,65535
56.42399999999996,-3.650000000000001,65535
57.07199999999995,-3.650000000000001,65535
57.07199999999995,-4.298000000000001,65535
56.74799999999996,-3.650000000000001,65535
59.15266399999986,27.34114399999998,65535
59.47666399999986,26.69314399999997,65535
59.47666399999986,26.04514399999998,65535
59.15266399999986,26.04514399999998,65535
59.15266399999986,24.74914399999998,65535
59.15266399999986,25.397143999999983,65535
59.47666399999986,25.397143999999983,65535
58.50466399999986,26.69314399999997,65535
58.82866399999986,26.69314399999997,65535
57.85666399999987,26.04514399999998,65535
58.180663999999865,26.04514399999998,65535
58.180663999999865,26.69314399999997,65535
58.82866399999986,26.04514399999998,65535
58.50466399999986,25.397143999999983,65535
58.82866399999986,25.397143999999983,65535
58.82866399999986,24.74914399999998,65535
58.180663999999865,27.34114399999998,65535
57.85666399999987,27.34114399999998,65535
63.68866399999983,27.34114399999998,65535
60.124663999999854,24.74914399999998,65535
60.44866399999985,24.74914399999998,65535
60.44866399999985,25.397143999999983,65535
60.77266399999985,25.397143999999983,65535
61.09666399999985,26.04514399999998,65535
60.77266399999985,26.04514399999998,65535
60.77266399999985,26.69314399999997,65535
61.09666399999985,25.397143999999983,65535
61.09666399999985,26.69314399999997,65535
61.420663999999846,26.69314399999997,65535
61.74466399999984,27.34114399999998,65535
62.06866399999984,27.34114399999998,65535
62.39266399999984,27.34114399999998,65535
62.71666399999984,27.34114399999998,65535
64.01266399999983,27.34114399999998,65535
63.36466399999984,27.34114399999998,65535
63.04066399999984,27.34114399999998,65535
63.04066399999984,27.989143999999985,65535
64.33666399999983,27.989143999999985,65535
64.33666399999983,27.34114399999998,65535
64.66066399999983,27.34114399999998,65535
64.66066399999983,26.69314399999997,4756
64.98466399999982,25.397143999999983,4519
64.66066399999983,26.04514399999998,4736
64.98466399999982,26.04514399999998,4720
66.28066399999982,25.397143999999983,65535
65.95666399999982,24.74914399999998,4432
65.63266399999982,24.74914399999998,4436
65.63266399999982,25.397143999999983,4478
65.30866399999982,25.397143999999983,4499
66.60466399999981,25.397143999999983,65535
64.01266399999983,24.74914399999998,4656
64.01266399999983,24.101143999999977,4691
64.01266399999983,23.45314399999998,4715
63.68866399999983,23.45314399999998,4727
63.68866399999983,22.805143999999984,4752
63.68866399999983,26.04514399999998,65535
63.68866399999983,25.397143999999983,65535
63.68866399999983,26.69314399999997,65535
60.44866399999985,26.69314399999997,65535
64.01266399999983,27.989143999999985,65535
62.71666399999984,22.805143999999984,65535
62.39266399999984,22.805143999999984,65535
62.06866399999984,22.805143999999984,65535
62.06866399999984,23.45314399999998,65535
61.74466399999984,23.45314399999998,65535
61.420663999999846,23.45314399999998,65535
61.09666399999985,23.45314399999998,65535
61.09666399999985,24.101143999999977,65535
61.09666399999985,24.74914399999998,65535
60.77266399999985,24.74914399999998,65535
63.04066399999984,21.50914399999997,65535
63.04066399999984,22.15714399999998,65535
63.04066399999984,22.805143999999984,65535
62.39266399999984,26.04514399999998,65535
62.06866399999984,25.397143999999983,65535
61.74466399999984,25.397143999999983,65535
61.74466399999984,24.74914399999998,65535
61.74466399999984,24.101143999999977,65535
61.420663999999846,24.101143999999977,65535
62.39266399999984,26.69314399999997,65535
64.66066399999983,25.397143999999983,4588
64.66066399999983,24.74914399999998,4606
64.33666399999983,24.74914399999998,4617
63.36466399999984,22.805143999999984,4777
67.25266399999981,24.101143999999977,65535
66.92866399999981,24.101143999999977,65535
66.60466399999981,23.45314399999998,65535
66.28066399999982,23.45314399999998,65535
66.28066399999982,24.101143999999977,65535
65.95666399999982,24.101143999999977,3804
60.124663999999854,24.101143999999977,65535
60.124663999999854,23.45314399999998,65535
60.44866399999985,22.805143999999984,65535
60.77266399999985,27.34114399999998,65535
61.09666399999985,27.989143999999985,65535
61.09666399999985,28.63714399999997,65535
61.420663999999846,29.28514399999997,65535
61.74466399999984,29.933143999999977,65535
62.06866399999984,29.933143999999977,65535
62.39266399999984,29.933143999999977,65535
62.71666399999984,29.933143999999977,65535
61.420663999999846,22.805143999999984,65535
61.420663999999846,22.15714399999998,65535
61.09666399999985,22.15714399999998,65535
61.420663999999846,21.50914399999997,65535
62.39266399999984,27.989143999999985,65535
62.06866399999984,27.989143999999985,65535
61.420663999999846,27.34114399999998,65535
63.04066399999984,29.933143999999977,65535
63.68866399999983,29.28514399999997,65535
63.36466399999984,29.28514399999997,65535
63.36466399999984,29.933143999999977,65535
60.44866399999985,27.34114399999998,65535
61.74466399999984,29.28514399999997,65535
62.39266399999984,30.58114399999998,65535
62.71666399999984,31.229143999999977,65535
62.71666399999984,29.28514399999997,65535
63.04066399999984,28.63714399999997,65535
66.60466399999981,26.04514399999998,65535
66.60466399999981,26.69314399999997,65535
66.60466399999981,27.34114399999998,65535
62.71666399999984,26.04514399999998,65535
62.71666399999984,25.397143999999983,65535
63.04066399999984,25.397143999999983,65535
63.36466399999984,25.397143999999983,65535
62.71666399999984,23.45314399999998,65535
62.39266399999984,24.101143999999977,65535
62.71666399999984,22.15714399999998,65535
62.39266399999984,22.15714399999998,65535
62.39266399999984,21.50914399999997,65535
61.09666399999985,21.50914399999997,65535
60.77266399999985,22.805143999999984,65535
60.44866399999985,22.15714399999998,65535
60.77266399999985,23.45314399999998,65535
60.77266399999985,21.50914399999997,65535
60.77266399999985,22.15714399999998,65535
60.124663999999854,22.805143999999984,65535
60.44866399999985,24.101143999999977,65535
62.06866399999984,24.74914399999998,65535
50.72866399999991,16.325143999999987,2247
50.40466399999991,16.973143999999984,2209
50.72866399999991,16.973143999999984,2217
50.40466399999991,16.325143999999987,2206
50.08066399999991,16.973143999999984,1851
50.08066399999991,16.325143999999987,1748
51.700663999999904,16.973143999999984,2292
51.37666399999991,16.973143999999984,2239
51.05266399999991,15.677143999999986,2302
50.72866399999991,15.677143999999986,2297
51.05266399999991,17.621143999999987,2200
51.37666399999991,17.621143999999987,2258
51.700663999999904,17.621143999999987,2262
51.700663999999904,16.325143999999987,2299
52.0246639999999,22.15714399999998,2363
52.0246639999999,21.50914399999997,2355
52.3486639999999,21.50914399999997,2359
52.0246639999999,20.86114399999998,2379
51.700663999999904,20.86114399999998,2390
51.37666399999991,21.50914399999997,2366
51.37666399999991,20.86114399999998,2375
51.05266399999991,20.86114399999998,2406
52.6726639999999,23.45314399999998,2459
52.3486639999999,22.805143999999984,2401
52.3486639999999,20.213143999999986,2406
52.0246639999999,20.213143999999986,2415
52.3486639999999,19.565143999999982,2527
52.6726639999999,19.565143999999982,2521
51.700663999999904,21.50914399999997,2321
51.700663999999904,22.15714399999998,2303
52.6726639999999,21.50914399999997,2366
52.996663999999896,21.50914399999997,2424
52.6726639999999,20.86114399999998,2385
52.6726639999999,22.15714399999998,2391
52.6726639999999,20.213143999999986,2461
52.996663999999896,19.565143999999982,2532
52.996663999999896,20.86114399999998,2395
52.996663999999896,20.213143999999986,2527
53.32066399999989,20.213143999999986,2560
51.37666399999991,20.213143999999986,2380
52.3486639999999,16.973143999999984,2294
52.0246639999999,16.973143999999984,2321
52.0246639999999,16.325143999999987,2334
52.0246639999999,17.621143999999987,2275
52.6726639999999,16.973143999999984,2304
52.996663999999896,16.973143999999984,2325
52.3486639999999,16.325143999999987,2301
52.3486639999999,15.677143999999986,2347
51.700663999999904,18.269143999999983,2298
52.6726639999999,17.621143999999987,2305
52.3486639999999,17.621143999999987,2298
52.6726639999999,18.269143999999983,2356
52.3486639999999,18.269143999999983,2341
52.3486639999999,18.917143999999983,2487
52.996663999999896,17.621143999999987,2364
51.700663999999904,19.565143999999982,2380
51.700663999999904,18.917143999999983,2346
51.37666399999991,18.269143999999983,2307
58.82866399999986,9.197143999999987,3025
58.180663999999865,7.90114399999999,3113
58.50466399999986,8.54914399999999,3069
63.36466399999984,10.493143999999988,3406
63.36466399999984,11.141143999999988,3703
63.36466399999984,11.789143999999988,3873
63.68866399999983,11.789143999999988,3771
64.33666399999983,12.437143999999988,3984
64.66066399999983,12.437143999999988,4033
65.63266399999982,13.085143999999987,4128
65.95666399999982,13.085143999999987,4157
66.28066399999982,14.381143999999988,4228
65.95666399999982,13.733143999999989,4185
66.28066399999982,13.733143999999989,4207
65.30866399999982,13.085143999999987,4093
64.98466399999982,13.085143999999987,4071
64.01266399999983,11.789143999999988,3802
63.68866399999983,11.141143999999988,3738
59.800663999999855,10.493143999999988,2950
59.800663999999855,11.141143999999988,2952
60.124663999999854,11.141143999999988,2967
60.44866399999985,11.141143999999988,2979
60.124663999999854,11.789143999999988,3009
60.77266399999985,7.25314399999999,3197
60.77266399999985,6.60514399999999,3246
59.15266399999986,9.197143999999987,3010
59.47666399999986,9.197143999999987,3031
59.800663999999855,9.845143999999989,2968
59.47666399999986,11.141143999999988,2934
61.09666399999985,10.493143999999988,3041
60.77266399999985,10.493143999999988,3015
60.77266399999985,11.141143999999988,2998
62.06866399999984,9.197143999999987,3259
61.74466399999984,9.845143999999989,3197
61.420663999999846,9.845143999999989,3180
59.15266399999986,9.845143999999989,2990
59.47666399999986,9.845143999999989,2966
58.82866399999986,5.957143999999991,3285
58.180663999999865,7.25314399999999,3160
58.50466399999986,7.25314399999999,3194
58.50466399999986,6.60514399999999,3199
58.50466399999986,5.957143999999991,3255
58.82866399999986,8.54914399999999,3055
60.44866399999985,7.25314399999999,3171
60.44866399999985,7.90114399999999,3128
60.124663999999854,10.493143999999988,2954
60.44866399999985,9.197143999999987,3041
60.77266399999985,9.197143999999987,3082
60.77266399999985,8.54914399999999,3108
60.124663999999854,9.845143999999989,3197
60.44866399999985,10.493143999999988,2995
63.04066399999984,10.493143999999988,3370
62.06866399999984,9.845143999999989,3284
62.39266399999984,9.845143999999989,3292
62.71666399999984,9.845143999999989,3316
59.47666399999986,14.381143999999988,2998
59.47666399999986,13.733143999999989,2986
59.47666399999986,13.085143999999987,2957
59.800663999999855,12.437143999999988,2992
59.15266399999986,11.141143999999988,2889
59.15266399999986,14.381143999999988,2974
58.82866399999986,11.789143999999988,2847
58.50466399999986,12.437143999999988,2805
58.180663999999865,12.437143999999988,2798
57.85666399999987,11.789143999999988,2770
62.71666399999984,7.90114399999999,4168
62.39266399999984,7.90114399999999,4125
62.06866399999984,8.54914399999999,4100
60.44866399999985,5.309143999999991,3386
60.44866399999985,5.957143999999991,3709
60.77266399999985,5.957143999999991,3683
62.39266399999984,11.141143999999988,3193
62.06866399999984,10.493143999999988,3150
61.74466399999984,11.141143999999988,3123
61.420663999999846,11.141143999999988,3076
61.09666399999985,11.141143999999988,3056
60.77266399999985,11.789143999999988,3033
63.04066399999984,11.141143999999988,3708
62.71666399999984,11.141143999999988,3217
62.39266399999984,10.493143999999988,3177
67.25266399999981,15.677143999999986,4343
67.25266399999981,15.029143999999986,4388
67.25266399999981,14.381143999999988,4416
66.92866399999981,15.029143999999986,4333
66.60466399999981,15.677143999999986,4311
64.01266399999983,11.141143999999988,3786
66.60466399999981,15.029143999999986,4473
54.29266399999989,18.269143999999983,2552
54.616663999999886,17.621143999999987,2588
53.96866399999989,18.269143999999983,2603
43.92466399999995,1.4211439999999929,2822
44.24866399999995,0.7731439999999932,2783
44.572663999999946,0.1251439999999934,2768
46.84066399999993,1.4211439999999929,2818
44.572663999999946,1.4211439999999929,2838
44.24866399999995,1.4211439999999929,2863
45.54466399999994,1.4211439999999929,2784
46.516663999999935,1.4211439999999929,2951
42.30466399999996,2.717143999999992,2971
44.24866399999995,2.717143999999992,2948
44.572663999999946,2.717143999999992,2923
43.92466399999995,2.0691439999999925,2956
42.30466399999996,2.0691439999999925,3027
42.62866399999996,2.0691439999999925,2968
42.62866399999996,1.4211439999999929,2977
42.95266399999996,1.4211439999999929,2872
43.276663999999954,1.4211439999999929,2865
46.516663999999935,-1.170856000000006,2905
46.19266399999994,-1.170856000000006,2831
45.86866399999994,-0.5228560000000062,2800
45.54466399999994,-0.5228560000000062,2756
48.46066399999992,1.4211439999999929,2575
41.332663999999966,2.0691439999999925,3092
41.98066399999996,2.717143999999992,3051
48.46066399999992,-1.8188560000000056,2680
47.81266399999993,0.7731439999999932,2683
46.84066399999993,0.7731439999999932,2698
44.572663999999946,-1.170856000000006,2725
43.60066399999995,-1.170856000000006,2791
43.276663999999954,-1.8188560000000056,2838
43.276663999999954,0.1251439999999934,2930
42.95266399999996,0.1251439999999934,2895
43.276663999999954,-0.5228560000000062,2841
43.60066399999995,-0.5228560000000062,2830
47.81266399999993,-3.7628560000000046,2813
47.48866399999993,-2.4668560000000053,2714
47.81266399999993,-0.5228560000000062,2689
46.516663999999935,-1.8188560000000056,2921
48.136663999999925,-1.170856000000006,2652
47.48866399999993,-1.170856000000006,2695
45.22066399999994,8.54914399999999,2646
45.22066399999994,7.90114399999999,2634
46.19266399999994,-0.5228560000000062,2797
46.516663999999935,-0.5228560000000062,2874
48.78466399999992,-3.114856000000005,2751
50.72866399999991,2.0691439999999925,2520
50.40466399999991,2.0691439999999925,2557
40.36066399999997,-3.7628560000000046,4305
41.65666399999997,-1.170856000000006,4046
41.332663999999966,1.4211439999999929,3872
43.276663999999954,13.733143999999989,65535
42.95266399999996,13.733143999999989,65535
41.65666399999997,15.029143999999986,65535
40.68466399999997,17.621143999999987,65535
43.60066399999995,13.085143999999987,65535
41.65666399999997,12.437143999999988,4009
41.65666399999997,13.085143999999987,4028
41.98066399999996,13.085143999999987,4078
41.65666399999997,13.733143999999989,4080
41.332663999999966,13.733143999999989,4072
41.332663999999966,14.381143999999988,4229
41.00866399999997,14.381143999999988,4135
41.332663999999966,13.085143999999987,4054
41.00866399999997,15.029143999999986,4335
41.98066399999996,13.733143999999989,4277
42.30466399999996,14.381143999999988,4416
42.30466399999996,12.437143999999988,4017
42.62866399999996,12.437143999999988,4196
42.95266399999996,12.437143999999988,4481
42.30466399999996,11.789143999999988,4026
42.95266399999996,11.789143999999988,4236
42.62866399999996,11.789143999999988,4227
43.276663999999954,11.789143999999988,4290
42.95266399999996,13.085143999999987,65535
42.30466399999996,13.085143999999987,4303
43.276663999999954,13.085143999999987,65535
43.276663999999954,12.437143999999988,65535
42.62866399999996,11.141143999999988,4072
42.95266399999996,11.141143999999988,4115
42.95266399999996,10.493143999999988,4133
44.572663999999946,8.54914399999999,2690
44.89666399999994,7.90114399999999,2639
44.89666399999994,9.197143999999987,2712
44.24866399999995,7.90114399999999,2726
44.572663999999946,7.90114399999999,2681
43.92466399999995,7.90114399999999,2851
44.24866399999995,7.25314399999999,2741
44.89666399999994,7.25314399999999,2658
45.22066399999994,7.25314399999999,2638
45.54466399999994,7.90114399999999,2618
44.572663999999946,7.25314399999999,2902
52.996663999999896,22.805143999999984,2484
52.996663999999896,23.45314399999998,2493
51.37666399999991,22.15714399999998,2251
51.37666399999991,22.805143999999984,2280
50.08066399999991,20.213143999999986,2217
50.72866399999991,20.213143999999986,2352
50.40466399999991,20.213143999999986,2317
50.08066399999991,20.86114399999998,2225
50.08066399999991,21.50914399999997,2197
50.08066399999991,22.15714399999998,2066
50.08066399999991,22.805143999999984,2246
53.96866399999989,22.805143999999984,2919
53.64466399999989,23.45314399999998,2697
53.32066399999989,23.45314399999998,2651
50.40466399999991,19.565143999999982,2225
50.08066399999991,18.917143999999983,2215
50.08066399999991,18.269143999999983,1965
52.0246639999999,22.805143999999984,2380
52.0246639999999,23.45314399999998,2418
51.37666399999991,19.565143999999982,2381
51.05266399999991,19.565143999999982,2335
50.72866399999991,18.917143999999983,2296
50.72866399999991,19.565143999999982,2333
49.75666399999992,18.917143999999983,1698
50.40466399999991,18.269143999999983,2135
53.64466399999989,19.565143999999982,2452
53.96866399999989,18.917143999999983,2522
53.64466399999989,18.917143999999983,2471
53.64466399999989,20.213143999999986,2490
52.996663999999896,18.917143999999983,2405
52.996663999999896,18.269143999999983,2381
53.32066399999989,18.917143999999983,2410
50.72866399999991,17.621143999999987,2170
50.72866399999991,18.269143999999983,2189
52.6726639999999,16.325143999999987,2335
52.996663999999896,16.325143999999987,2338
52.996663999999896,15.677143999999986,2394
53.32066399999989,15.677143999999986,2442
53.32066399999989,15.029143999999986,2439
53.64466399999989,15.029143999999986,2445
53.96866399999989,15.029143999999986,2449
52.6726639999999,18.917143999999983,2415
53.32066399999989,16.325143999999987,2388
52.6726639999999,15.029143999999986,2400
51.05266399999991,22.805143999999984,2271
51.05266399999991,23.45314399999998,2283
50.72866399999991,22.15714399999998,2221
50.40466399999991,22.15714399999998,2210
51.05266399999991,22.15714399999998,2234
54.616663999999886,16.973143999999984,2548
54.29266399999989,16.325143999999987,2498
53.96866399999989,15.677143999999986,2497
50.72866399999991,21.50914399999997,2251
50.40466399999991,21.50914399999997,2283
50.40466399999991,17.621143999999987,2295
53.32066399999989,22.805143999999984,2554
53.64466399999989,22.15714399999998,2613
54.29266399999989,16.973143999999984,2524
50.72866399999991,20.86114399999998,2414
51.700663999999904,22.805143999999984,2440
51.05266399999991,21.50914399999997,2505
50.08066399999991,19.565143999999982,2202
52.0246639999999,18.917143999999983,3688
52.0246639999999,19.565143999999982,3681
53.64466399999989,18.269143999999983,2502
51.700663999999904,20.213143999999986,2421
53.32066399999989,19.565143999999982,2442
50.72866399999991,23.45314399999998,2635
50.72866399999991,22.805143999999984,2604
49.43266399999992,20.213143999999986,1906
49.75666399999992,21.50914399999997,2219
49.75666399999992,22.15714399999998,2262
49.43266399999992,22.15714399999998,1822
51.05266399999991,18.917143999999983,2373
51.05266399999991,18.269143999999983,2229
53.32066399999989,16.973143999999984,2375
53.64466399999989,16.973143999999984,2401
49.75666399999992,20.86114399999998,1814
50.40466399999991,22.805143999999984,3770
53.64466399999989,16.325143999999987,2411
53.96866399999989,20.86114399999998,2742
54.29266399999989,20.86114399999998,2788
53.96866399999989,21.50914399999997,2738
53.64466399999989,15.677143999999986,2462
53.96866399999989,20.213143999999986,2545
53.96866399999989,19.565143999999982,2581
54.29266399999989,19.565143999999982,2595
53.96866399999989,16.325143999999987,2445
53.64466399999989,17.621143999999987,2538
53.96866399999989,22.15714399999998,2630
53.64466399999989,21.50914399999997,2736
53.64466399999989,20.86114399999998,2780
52.6726639999999,15.677143999999986,2396
51.05266399999991,20.213143999999986,2497
54.940663999999884,24.101143999999977,65535
54.616663999999886,23.45314399999998,65535
54.29266399999989,23.45314399999998,65535
53.64466399999989,22.805143999999984,2603
53.96866399999989,16.973143999999984,2545
50.40466399999991,20.86114399999998,2488
53.32066399999989,18.269143999999983,2511
49.75666399999992,19.565143999999982,1859
50.40466399999991,23.45314399999998,2956
49.75666399999992,20.213143999999986,1910
49.43266399999992,19.565143999999982,1858
49.43266399999992,20.86114399999998,1608
53.96866399999989,17.621143999999987,2748
42.30466399999996,-1.8188560000000056,4110
41.98066399999996,-1.8188560000000056,4098
41.65666399999997,0.7731439999999932,3986
42.62866399999996,-1.8188560000000056,4135
42.95266399999996,-1.8188560000000056,4162
42.62866399999996,-3.114856000000005,4237
42.95266399999996,-2.4668560000000053,4215
42.62866399999996,-7.650856000000003,4579
42.30466399999996,-7.650856000000003,4639
42.30466399999996,-8.946856000000002,4775
42.30466399999996,-8.298856000000002,4749
41.98066399999996,-8.298856000000002,4738
42.30466399999996,-7.002856000000003,4521
42.62866399999996,-6.354856000000003,4463
42.30466399999996,-6.354856000000003,4418
42.62866399999996,-5.706856000000004,4384
41.98066399999996,-4.410856000000004,4338
42.30466399999996,-3.7628560000000046,4302
40.03666399999997,-0.5228560000000062,3966
39.38866399999998,-0.5228560000000062,4014
41.00866399999997,0.7731439999999932,4114
40.68466399999997,0.7731439999999932,4146
40.36066399999997,0.1251439999999934,4224
39.712663999999975,-0.5228560000000062,4123
38.41666399999998,-0.5228560000000062,4135
39.06466399999998,-0.5228560000000062,4257
38.74066399999998,-1.170856000000006,4277
41.332663999999966,0.7731439999999932,4174
41.65666399999997,2.717143999999992,3774
41.65666399999997,2.0691439999999925,3797
41.332663999999966,0.1251439999999934,4132
41.332663999999966,-0.5228560000000062,4076
41.65666399999997,-4.410856000000004,4480
40.03666399999997,-2.4668560000000053,4296
41.00866399999997,-4.410856000000004,4411
43.276663999999954,-5.706856000000004,4663
39.38866399999998,-1.170856000000006,4109
38.09266399999999,-1.170856000000006,4522
38.74066399999998,-0.5228560000000062,4285
37.76866399999999,-1.170856000000006,4587
39.06466399999998,-1.8188560000000056,4385
39.38866399999998,-3.114856000000005,4464
39.38866399999998,-2.4668560000000053,4491
39.06466399999998,-2.4668560000000053,4495
39.06466399999998,-3.114856000000005,4576
39.06466399999998,-3.7628560000000046,4590
38.74066399999998,-3.7628560000000046,4603
40.03666399999997,-3.7628560000000046,4358
40.03666399999997,-3.114856000000005,4414
40.03666399999997,-1.8188560000000056,4244
39.712663999999975,-1.8188560000000056,4209
39.712663999999975,-1.170856000000006,4145
40.36066399999997,-1.170856000000006,4250
40.68466399999997,-1.170856000000006,4270
41.00866399999997,-1.170856000000006,4295
41.332663999999966,-1.170856000000006,4344
43.276663999999954,-8.298856000000002,4739
42.95266399999996,-8.298856000000002,4707
41.65666399999997,-5.706856000000004,65535
41.98066399999996,-7.002856000000003,65535
41.98066399999996,-6.354856000000003,65535
41.332663999999966,-5.058856000000004,4599
43.276663999999954,-3.7628560000000046,4520
42.95266399999996,-4.410856000000004,4454
42.62866399999996,-4.410856000000004,4444
42.30466399999996,-4.410856000000004,4403
41.00866399999997,-5.706856000000004,65535
41.332663999999966,-1.8188560000000056,4400
40.68466399999997,-3.114856000000005,4570
41.00866399999997,-3.114856000000005,4624
41.00866399999997,-2.4668560000000053,4650
41.332663999999966,-2.4668560000000053,65535
40.68466399999997,-4.410856000000004,4390
40.36066399999997,-4.410856000000004,4717
40.68466399999997,-3.7628560000000046,4332
40.36066399999997,-3.114856000000005,4558
41.65666399999997,-2.4668560000000053,65535
38.09266399999999,-3.7628560000000046,65535
38.74066399999998,-3.114856000000005,65535
37.76866399999999,-3.7628560000000046,65535
39.712663999999975,-3.114856000000005,4447
38.41666399999998,-3.7628560000000046,65535
40.03666399999997,-4.410856000000004,65535
40.03666399999997,-5.058856000000004,65535
39.38866399999998,-6.354856000000003,65535
39.38866399999998,-7.002856000000003,65535
42.95266399999996,-3.114856000000005,4648
41.98066399999996,-1.170856000000006,4404
42.30466399999996,-2.4668560000000053,4752
41.65666399999997,-0.5228560000000062,65535
41.98066399999996,-0.5228560000000062,4354
41.65666399999997,0.1251439999999934,4339
41.98066399999996,0.1251439999999934,4307
37.76866399999999,-5.058856000000004,4692
36.79666399999999,-4.410856000000004,4754
38.74066399999998,-4.410856000000004,65535
37.12066399999999,-4.410856000000004,4728
37.44466399999999,-5.058856000000004,4715
37.44466399999999,-7.002856000000003,65535
37.44466399999999,-6.354856000000003,65535
37.44466399999999,-5.706856000000004,4629
39.712663999999975,-3.7628560000000046,65535
42.62866399999996,-8.946856000000002,65535
42.30466399999996,-5.706856000000004,4425
42.30466399999996,-5.058856000000004,4510
42.95266399999996,-5.706856000000004,65535
41.00866399999997,-5.058856000000004,65535
40.68466399999997,-5.058856000000004,65535
41.65666399999997,-5.058856000000004,65535
41.65666399999997,-6.354856000000003,65535
36.79666399999999,-6.354856000000003,65535
37.12066399999999,-5.706856000000004,65535
37.76866399999999,-5.706856000000004,65535
38.09266399999999,-4.410856000000004,65535
37.12066399999999,-5.058856000000004,65535
36.79666399999999,-5.058856000000004,65535
37.76866399999999,-4.410856000000004,65535
37.76866399999999,-7.002856000000003,65535
38.41666399999998,-6.354856000000003,65535
38.09266399999999,-6.354856000000003,65535
48.78466399999992,1.4211439999999929,2641
56.23666399999988,8.54914399999999,2635
55.58866399999988,9.197143999999987,2611
55.91266399999988,9.197143999999987,2712
55.26466399999988,10.493143999999988,2617
55.91266399999988,12.437143999999988,2628
55.58866399999988,11.789143999999988,2613
55.58866399999988,11.141143999999988,2617
55.26466399999988,11.789143999999988,2602
55.58866399999988,10.493143999999988,2614
55.58866399999988,13.085143999999987,2642
56.88466399999987,9.845143999999989,2662
57.20866399999987,9.845143999999989,2673
56.56066399999988,9.845143999999989,2634
56.88466399999987,8.54914399999999,2688
54.940663999999884,9.845143999999989,3436
54.940663999999884,11.789143999999988,2580
55.91266399999988,13.085143999999987,2634
56.23666399999988,13.733143999999989,2675
55.91266399999988,13.733143999999989,2651
56.23666399999988,14.381143999999988,2694
56.23666399999988,15.029143999999986,2712
56.23666399999988,15.677143999999986,2767
56.56066399999988,14.381143999999988,2683
56.88466399999987,14.381143999999988,2707
56.23666399999988,13.085143999999987,2642
56.56066399999988,13.085143999999987,2676
56.88466399999987,12.437143999999988,2713
57.20866399999987,12.437143999999988,2729
57.53266399999987,12.437143999999988,2759
56.88466399999987,15.029143999999986,2719
56.56066399999988,15.677143999999986,2785
56.88466399999987,15.677143999999986,2803
56.88466399999987,16.325143999999987,2819
55.91266399999988,11.789143999999988,2621
57.20866399999987,10.493143999999988,3064
49.43266399999992,1.4211439999999929,2666
49.75666399999992,0.7731439999999932,2659
49.75666399999992,2.0691439999999925,2590
50.08066399999991,2.717143999999992,2570
49.75666399999992,1.4211439999999929,2640
47.81266399999993,1.4211439999999929,2715
48.136663999999925,2.0691439999999925,2949
48.46066399999992,2.0691439999999925,2791
48.136663999999925,1.4211439999999929,2693
48.78466399999992,0.1251439999999934,2692
48.46066399999992,0.1251439999999934,2690
47.81266399999993,0.1251439999999934,2653
46.84066399999993,-0.5228560000000062,2845
47.16466399999993,0.7731439999999932,2668
46.84066399999993,0.1251439999999934,2719
46.84066399999993,-1.170856000000006,2879
50.08066399999991,1.4211439999999929,2617
50.08066399999991,2.0691439999999925,2633
49.43266399999992,2.717143999999992,2592
49.75666399999992,3.365143999999992,2590
50.08066399999991,3.365143999999992,2517
49.10866399999992,2.0691439999999925,2615
49.43266399999992,2.0691439999999925,2623
48.78466399999992,0.7731439999999932,2641
48.78466399999992,-0.5228560000000062,2721
48.78466399999992,-1.170856000000006,2740
48.136663999999925,0.7731439999999932,2624
48.46066399999992,0.7731439999999932,2649
43.92466399999995,5.957143999999991,2793
44.24866399999995,5.957143999999991,2819
43.92466399999995,5.309143999999991,2741
42.95266399999996,2.717143999999992,2898
45.54466399999994,2.0691439999999925,2821
45.22066399999994,2.0691439999999925,2838
42.95266399999996,2.0691439999999925,2897
42.95266399999996,0.7731439999999932,2906
43.276663999999954,0.7731439999999932,2891
46.19266399999994,0.7731439999999932,2845
46.516663999999935,0.7731439999999932,2779
45.86866399999994,0.1251439999999934,2923
46.19266399999994,0.1251439999999934,2920
47.81266399999993,-1.170856000000006,2728
48.136663999999925,-2.4668560000000053,2706
47.48866399999993,-1.8188560000000056,2696
47.16466399999993,-1.170856000000006,2715
47.16466399999993,-0.5228560000000062,2723
46.84066399999993,-1.8188560000000056,2752
45.22066399999994,-0.5228560000000062,2726
44.89666399999994,0.1251439999999934,2719
45.22066399999994,0.7731439999999932,2743
45.54466399999994,0.7731439999999932,2753
45.86866399999994,0.7731439999999932,2918
45.22066399999994,0.1251439999999934,2732
44.89666399999994,0.7731439999999932,2756
43.92466399999995,-0.5228560000000062,2879
43.92466399999995,-1.170856000000006,2771
44.24866399999995,-1.170856000000006,2844
45.22066399999994,-1.170856000000006,2778
44.572663999999946,-0.5228560000000062,2743
44.24866399999995,0.1251439999999934,2790
44.572663999999946,0.7731439999999932,2837
43.276663999999954,-1.170856000000006,2804
42.95266399999996,-0.5228560000000062,2853
44.24866399999995,2.0691439999999925,3000
43.60066399999995,0.7731439999999932,2890
43.60066399999995,2.0691439999999925,2898
52.6726639999999,4.661143999999991,2499
52.6726639999999,5.309143999999991,2514
51.700663999999904,5.309143999999991,2468
52.0246639999999,5.309143999999991,2478
52.3486639999999,5.309143999999991,2487
51.37666399999991,4.013143999999992,2506
52.3486639999999,5.957143999999991,2474
52.0246639999999,6.60514399999999,2481
52.6726639999999,5.957143999999991,2481
52.996663999999896,5.957143999999991,2488
53.32066399999989,5.957143999999991,2498
52.996663999999896,6.60514399999999,2517
53.32066399999989,6.60514399999999,2511
52.6726639999999,6.60514399999999,2480
52.996663999999896,5.309143999999991,2509
59.15266399999986,24.101143999999977,65535
56.88466399999987,24.101143999999977,65535
56.88466399999987,23.45314399999998,65535
56.88466399999987,22.805143999999984,65535
57.20866399999987,24.74914399999998,65535
56.88466399999987,24.74914399999998,65535
56.56066399999988,24.74914399999998,65535
56.56066399999988,25.397143999999983,65535
56.56066399999988,24.101143999999977,65535
56.56066399999988,23.45314399999998,65535
56.56066399999988,26.04514399999998,65535
56.88466399999987,26.04514399999998,65535
57.20866399999987,25.397143999999983,65535
57.53266399999987,25.397143999999983,65535
56.23666399999988,26.04514399999998,65535
56.23666399999988,26.69314399999997,65535
55.91266399999988,26.69314399999997,65535
56.56066399999988,26.69314399999997,65535
56.56066399999988,27.34114399999998,65535
56.56066399999988,27.989143999999985,65535
56.23666399999988,27.989143999999985,65535
55.91266399999988,27.34114399999998,65535
56.56066399999988,22.805143999999984,65535
56.56066399999988,22.15714399999998,65535
56.56066399999988,21.50914399999997,65535
57.20866399999987,26.69314399999997,65535
39.06466399999998,-8.946856000000002,65535
38.41666399999998,-8.298856000000002,65535
45.86866399999994,11.789143999999988,3028
46.19266399999994,11.789143999999988,3015
46.19266399999994,10.493143999999988,3055
45.22066399999994,18.269143999999983,2461
45.22066399999994,18.917143999999983,2535
45.54466399999994,16.973143999999984,2319
45.22066399999994,17.621143999999987,2396
45.86866399999994,16.325143999999987,2200
45.54466399999994,18.917143999999983,2575
45.54466399999994,16.325143999999987,2275
45.54466399999994,18.269143999999983,2553
44.89666399999994,18.917143999999983,2856
46.19266399999994,16.973143999999984,2220
46.19266399999994,16.325143999999987,2206
45.86866399999994,16.973143999999984,2237
45.86866399999994,17.621143999999987,2341
46.19266399999994,15.677143999999986,1852
46.516663999999935,16.325143999999987,1861
45.54466399999994,15.677143999999986,2278
45.22066399999994,15.029143999999986,2247
45.54466399999994,15.029143999999986,2205
45.22066399999994,15.677143999999986,2264
44.572663999999946,15.677143999999986,3019
44.24866399999995,15.677143999999986,3040
43.92466399999995,16.325143999999987,3104
44.89666399999994,15.677143999999986,2983
45.54466399999994,17.621143999999987,2528
45.22066399999994,16.325143999999987,2396
46.516663999999935,16.973143999999984,2277
45.86866399999994,18.269143999999983,2654
43.92466399999995,15.677143999999986,3206
45.22066399999994,13.733143999999989,2373
47.48866399999993,19.565143999999982,1372
47.16466399999993,18.917143999999983,2178
47.81266399999993,18.917143999999983,1354
45.54466399999994,9.845143999999989,2599
45.22066399999994,9.845143999999989,2608
45.22066399999994,10.493143999999988,2667
45.86866399999994,9.845143999999989,2619
45.86866399999994,10.493143999999988,3798
48.78466399999992,21.50914399999997,1516
49.10866399999992,20.213143999999986,1601
49.10866399999992,18.917143999999983,1686
48.46066399999992,17.621143999999987,1497
49.43266399999992,17.621143999999987,1650
49.10866399999992,17.621143999999987,2272
48.136663999999925,18.269143999999983,1466
49.10866399999992,18.269143999999983,1553
49.43266399999992,18.269143999999983,1611
49.43266399999992,16.973143999999984,1681
49.75666399999992,16.973143999999984,1693
49.75666399999992,16.325143999999987,1727
50.08066399999991,15.677143999999986,1770
50.08066399999991,15.029143999999986,1790
49.43266399999992,18.917143999999983,1675
47.81266399999993,20.86114399999998,1435
48.136663999999925,20.86114399999998,1466
48.46066399999992,20.86114399999998,1508
48.46066399999992,21.50914399999997,1512
49.10866399999992,19.565143999999982,1730
48.136663999999925,17.621143999999987,1486
48.78466399999992,22.15714399999998,1670
48.78466399999992,20.86114399999998,1825
49.10866399999992,20.86114399999998,1595
48.78466399999992,18.269143999999983,1532
48.78466399999992,17.621143999999987,1589
49.10866399999992,21.50914399999997,1581
48.78466399999992,20.213143999999986,1869
48.46066399999992,20.213143999999986,1881
48.136663999999925,19.565143999999982,1954
48.46066399999992,19.565143999999982,1968
48.46066399999992,18.917143999999983,1534
48.46066399999992,18.269143999999983,1521
48.78466399999992,19.565143999999982,1849
48.78466399999992,18.917143999999983,1648
47.81266399999993,18.269143999999983,1457
49.10866399999992,22.15714399999998,1724
49.43266399999992,21.50914399999997,1654
48.136663999999925,18.917143999999983,1447
48.136663999999925,20.213143999999986,2227
52.636,-8.018,65535
52.312,-7.370000000000001,65535
52.312,-8.018,65535
52.636,-8.666,65535
51.988,-8.666,65535
51.988,-8.018,65535
52.96,-8.666,65535
52.96,-6.074000000000002,65535
53.28399999999999,-6.722000000000001,65535
53.60799999999999,-6.722000000000001,65535
53.60799999999999,-7.370000000000001,65535
53.60799999999999,-8.018,65535
54.25599999999999,-8.666,65535
53.93199999999999,-8.666,65535
53.93199999999999,-8.018,65535
52.312,-6.722000000000001,65535
52.636,-6.722000000000001,65535
53.93199999999999,-6.722000000000001,65535
54.25599999999999,-6.074000000000002,65535
53.28399999999999,-7.370000000000001,65535
52.96,-7.370000000000001,65535
52.312,-8.666,65535
52.96,-8.018,65535
52.636,-7.370000000000001,65535
52.96,-6.722000000000001,65535
51.988,-9.314,65535
52.312,-9.314,65535
54.579999999999984,-6.722000000000001,65535
54.579999999999984,-6.074000000000002,65535
53.28399999999999,-8.018,65535
53.28399999999999,-8.666,65535
53.28399999999999,-9.314,65535
53.93199999999999,-9.314,65535
54.25599999999999,-9.314,65535
53.60799999999999,-8.666,65535
53.60799999999999,-9.314,65535
49.43266399999992,14.381143999999988,1863
49.75666399999992,14.381143999999988,1832
49.75666399999992,15.029143999999986,1828
49.75666399999992,13.733143999999989,1896
50.08066399999991,13.733143999999989,1853
49.75666399999992,15.677143999999986,1810
50.40466399999991,15.029143999999986,2176
49.43266399999992,13.733143999999989,2254
50.40466399999991,15.677143999999986,2183
50.40466399999991,13.733143999999989,2198
46.19266399999994,15.029143999999986,1877
45.86866399999994,15.029143999999986,1903
45.86866399999994,14.381143999999988,2195
46.19266399999994,13.733143999999989,2205
45.86866399999994,13.733143999999989,2281
58.50466399999986,13.733143999999989,2839
58.180663999999865,13.733143999999989,2824
58.180663999999865,13.085143999999987,2798
57.85666399999987,12.437143999999988,2777
60.44866399999985,15.677143999999986,2986
60.124663999999854,15.677143999999986,2956
60.124663999999854,16.325143999999987,2959
59.800663999999855,16.325143999999987,2920
59.800663999999855,17.621143999999987,2932
59.47666399999986,18.269143999999983,2914
61.74466399999984,16.973143999999984,3058
61.420663999999846,16.973143999999984,3030
60.77266399999985,16.973143999999984,2983
65.63266399999982,22.15714399999998,3742
65.95666399999982,21.50914399999997,3702
65.63266399999982,20.86114399999998,3673
64.98466399999982,20.213143999999986,3605
64.66066399999983,20.213143999999986,3583
64.33666399999983,19.565143999999982,3784
64.01266399999983,19.565143999999982,3701
63.68866399999983,20.213143999999986,3332
64.66066399999983,18.917143999999983,3954
59.15266399999986,16.325143999999987,2883
59.15266399999986,15.029143999999986,2876
59.15266399999986,17.621143999999987,2895
57.53266399999987,14.381143999999988,2760
57.53266399999987,15.029143999999986,2850
61.09666399999985,14.381143999999988,3089
60.77266399999985,15.029143999999986,3045
60.44866399999985,15.029143999999986,3034
58.180663999999865,15.029143999999986,2803
58.50466399999986,16.325143999999987,2836
58.50466399999986,15.677143999999986,2812
63.36466399999984,13.085143999999987,3865
63.04066399999984,14.381143999999988,3242
62.39266399999984,15.677143999999986,3171
63.36466399999984,13.733143999999989,3847
63.36466399999984,14.381143999999988,3819
62.71666399999984,15.677143999999986,3189
62.39266399999984,17.621143999999987,3113
59.800663999999855,15.677143999999986,2973
55.58866399999988,13.733143999999989,2678
57.20866399999987,14.381143999999988,2753
57.85666399999987,14.381143999999988,2786
58.82866399999986,16.973143999999984,2892
58.82866399999986,16.325143999999987,2870
59.15266399999986,18.269143999999983,2908
60.44866399999985,17.621143999999987,2989
59.15266399999986,12.437143999999988,2923
59.15266399999986,13.085143999999987,2935
58.82866399999986,12.437143999999988,2900
59.47666399999986,16.325143999999987,2909
58.82866399999986,14.381143999999988,2856
59.47666399999986,15.677143999999986,2898
63.36466399999984,18.917143999999983,3288
63.04066399999984,17.621143999999987,3253
62.71666399999984,17.621143999999987,3229
63.68866399999983,19.565143999999982,3667
62.39266399999984,16.973143999999984,3133
59.800663999999855,16.973143999999984,2935
59.47666399999986,17.621143999999987,2919
57.85666399999987,13.085143999999987,2806
57.53266399999987,13.085143999999987,2786
58.50466399999986,11.789143999999988,2810
57.85666399999987,15.029143999999986,2787
57.20866399999987,13.733143999999989,2745
57.53266399999987,13.733143999999989,2774
61.74466399999984,16.325143999999987,3111
61.420663999999846,16.325143999999987,3077
61.09666399999985,16.325143999999987,3117
61.09666399999985,16.973143999999984,3100
60.124663999999854,15.029143999999986,3020
66.60466399999981,20.86114399999998,3777
67.25266399999981,20.86114399999998,3845
67.90066399999981,20.213143999999986,3915
67.57666399999981,20.213143999999986,4540
59.800663999999855,15.029143999999986,2981
58.50466399999986,15.029143999999986,2818
59.47666399999986,15.029143999999986,2941
60.44866399999985,16.325143999999987,3048
59.15266399999986,15.677143999999986,2902
57.85666399999987,13.733143999999989,2842
58.82866399999986,13.733143999999989,2900
58.50466399999986,13.085143999999987,2829
57.20866399999987,13.085143999999987,2823
56.88466399999987,13.085143999999987,2831
58.180663999999865,11.789143999999988,2781
62.06866399999984,16.973143999999984,3144
65.95666399999982,23.45314399999998,3783
59.800663999999855,14.381143999999988,65535
59.800663999999855,18.269143999999983,2937
63.04066399999984,15.029143999999986,3238
62.71666399999984,15.029143999999986,3229
62.39266399999984,16.325143999999987,3162
63.36466399999984,12.437143999999988,3899
68.5486639999998,17.621143999999987,4128
68.5486639999998,18.269143999999983,4061
68.5486639999998,18.917143999999983,4038
68.2246639999998,18.917143999999983,3994
59.800663999999855,13.085143999999987,2985
60.124663999999854,13.085143999999987,3027
59.47666399999986,16.973143999999984,2921
59.15266399999986,16.973143999999984,2913
56.56066399999988,13.733143999999989,2778
60.124663999999854,17.621143999999987,2966
57.85666399999987,16.325143999999987,2958
58.180663999999865,16.325143999999987,2924
58.180663999999865,15.677143999999986,2920
57.20866399999987,16.325143999999987,2847
57.53266399999987,15.677143999999986,2882
57.85666399999987,15.677143999999986,2929
44.89666399999994,23.45314399999998,521
44.572663999999946,23.45314399999998,594
44.89666399999994,24.74914399999998,835
44.572663999999946,24.74914399999998,740
44.572663999999946,24.101143999999977,713
44.24866399999995,24.101143999999977,627
47.48866399999993,25.397143999999983,893
47.48866399999993,24.74914399999998,833
47.16466399999993,24.74914399999998,755
47.16466399999993,24.101143999999977,657
47.48866399999993,22.15714399999998,705
47.81266399999993,22.15714399999998,783
47.16466399999993,22.15714399999998,362
47.16466399999993,23.45314399999998,818
47.16466399999993,22.805143999999984,824
46.84066399999993,24.101143999999977,738
45.86866399999994,27.34114399999998,934
45.54466399999994,27.34114399999998,890
45.54466399999994,27.989143999999985,940
45.86866399999994,20.86114399999998,106
45.86866399999994,21.50914399999997,150
46.19266399999994,21.50914399999997,163
46.19266399999994,27.34114399999998,983
46.19266399999994,26.69314399999997,1016
46.516663999999935,26.69314399999997,1027
46.516663999999935,26.04514399999998,927
47.48866399999993,22.805143999999984,885
46.84066399999993,22.805143999999984,549
45.54466399999994,22.15714399999998,287
45.22066399999994,22.15714399999998,760
44.89666399999994,22.15714399999998,514
47.48866399999993,23.45314399999998,851
46.516663999999935,24.101143999999977,654
46.516663999999935,24.74914399999998,791
45.86866399999994,24.101143999999977,740
47.16466399999993,26.69314399999997,1109
47.16466399999993,27.34114399999998,1090
43.92466399999995,25.397143999999983,870
44.24866399999995,24.74914399999998,700
44.89666399999994,26.04514399999998,802
44.89666399999994,26.69314399999997,810
45.22066399999994,26.69314399999997,828
45.22066399999994,27.34114399999998,883
46.84066399999993,26.69314399999997,1070
47.48866399999993,26.69314399999997,1063
44.24866399999995,25.397143999999983,742
43.92466399999995,26.04514399999998,886
46.19266399999994,24.101143999999977,785
44.572663999999946,25.397143999999983,849
46.84066399999993,24.74914399999998,798
46.516663999999935,21.50914399999997,233
46.84066399999993,21.50914399999997,281
44.572663999999946,26.69314399999997,818
44.572663999999946,27.34114399999998,892
44.89666399999994,27.34114399999998,954
44.572663999999946,27.989143999999985,941
44.24866399999995,27.989143999999985,956
44.572663999999946,28.63714399999997,966
45.86866399999994,22.15714399999998,228
45.86866399999994,22.805143999999984,284
44.24866399999995,23.45314399999998,675
43.92466399999995,27.989143999999985,65535
46.84066399999993,27.34114399999998,1066
45.22066399999994,23.45314399999998,496
45.54466399999994,23.45314399999998,442
45.54466399999994,24.101143999999977,770
45.22066399999994,24.101143999999977,773
44.89666399999994,24.101143999999977,743
46.19266399999994,22.15714399999998,224
46.516663999999935,22.15714399999998,308
45.22066399999994,21.50914399999997,230
45.54466399999994,21.50914399999997,184
45.54466399999994,20.86114399999998,191
46.516663999999935,27.989143999999985,1031
46.19266399999994,27.989143999999985,1003
45.54466399999994,25.397143999999983,900
45.22066399999994,25.397143999999983,904
45.22066399999994,26.04514399999998,876
47.81266399999993,24.101143999999977,946
47.48866399999993,26.04514399999998,1036
47.81266399999993,26.04514399999998,1058
46.19266399999994,23.45314399999998,607
45.86866399999994,23.45314399999998,571
44.24866399999995,26.04514399999998,771
45.22066399999994,27.989143999999985,893
45.86866399999994,24.74914399999998,779
46.516663999999935,25.397143999999983,971
46.84066399999993,25.397143999999983,854
46.19266399999994,26.04514399999998,942
45.86866399999994,26.04514399999998,907
43.92466399999995,23.45314399999998,1020
44.89666399999994,25.397143999999983,885
46.19266399999994,20.86114399999998,88
47.81266399999993,25.397143999999983,1070
44.572663999999946,22.805143999999984,572
44.572663999999946,22.15714399999998,539
46.516663999999935,23.45314399999998,756
45.86866399999994,25.397143999999983,833
44.24866399999995,27.34114399999998,1771
45.22066399999994,24.74914399999998,1096
45.54466399999994,22.805143999999984,370
45.22066399999994,28.63714399999997,1216
44.89666399999994,28.63714399999997,1155
47.81266399999993,23.45314399999998,1003
46.19266399999994,24.74914399999998,865
46.19266399999994,25.397143999999983,889
43.92466399999995,24.101143999999977,2221
43.92466399999995,24.74914399999998,2234
47.81266399999993,26.69314399999997,1285
47.48866399999993,24.101143999999977,878
46.84066399999993,26.04514399999998,1686
46.19266399999994,22.805143999999984,1010
47.48866399999993,27.34114399999998,1238
46.19266399999994,20.213143999999986,0
45.54466399999994,26.04514399999998,941
44.24866399999995,26.69314399999997,837
45.86866399999994,27.989143999999985,1008
47.81266399999993,5.957143999999991,65535
