51.56399999999999,-0.4100000000000028,65535
51.887999999999984,-0.4100000000000028,65535
50.91599999999999,-1.7060000000000022,65535
51.23999999999999,-1.0580000000000025,65535
51.56399999999999,-1.0580000000000025,65535
51.23999999999999,-1.7060000000000022,65535
51.56399999999999,0.2379999999999968,65535
47.16466399999993,9.845143999999989,1104
47.48866399999993,9.845143999999989,1078
48.136663999999925,14.381143999999988,1004
47.81266399999993,13.085143999999987,1072
47.16466399999993,11.141143999999988,1130
47.48866399999993,11.789143999999988,1157
48.136663999999925,16.325143999999987,865
47.48866399999993,12.437143999999988,1074
48.136663999999925,15.677143999999986,879
47.16466399999993,10.493143999999988,1231
47.16466399999993,9.197143999999987,1088
48.136663999999925,13.733143999999989,1027
48.136663999999925,15.029143999999986,919
47.81266399999993,16.973143999999984,895
48.46066399999992,14.381143999999988,3784
47.48866399999993,13.085143999999987,1075
47.16466399999993,13.085143999999987,1090
47.48866399999993,14.381143999999988,1111
47.48866399999993,13.733143999999989,1191
47.48866399999993,15.029143999999986,1122
46.516663999999935,13.733143999999989,1195
46.84066399999993,13.733143999999989,1156
46.84066399999993,13.085143999999987,1100
48.78466399999992,14.381143999999988,65535
47.16466399999993,15.677143999999986,1069
46.516663999999935,14.381143999999988,1194
46.84066399999993,14.381143999999988,1161
47.16466399999993,14.381143999999988,2405
46.516663999999935,15.029143999999986,1237
47.81266399999993,16.325143999999987,892
47.16466399999993,15.029143999999986,1043
47.81266399999993,15.677143999999986,976
47.48866399999993,15.677143999999986,1010
46.516663999999935,13.085143999999987,2774
46.84066399999993,12.437143999999988,1139
48.136663999999925,11.789143999999988,1010
47.81266399999993,12.437143999999988,1037
46.84066399999993,15.677143999999986,1245
46.516663999999935,15.677143999999986,1300
46.84066399999993,16.325143999999987,1185
47.81266399999993,14.381143999999988,1045
48.78466399999992,16.973143999999984,735
48.136663999999925,16.973143999999984,834
48.46066399999992,13.733143999999989,1050
47.81266399999993,13.733143999999989,1034
50.08066399999991,8.54914399999999,996
48.46066399999992,9.845143999999989,1049
51.05266399999991,7.25314399999999,1043
51.37666399999991,7.25314399999999,1021
51.37666399999991,6.60514399999999,1025
48.46066399999992,16.325143999999987,888
48.46066399999992,16.973143999999984,781
48.78466399999992,16.325143999999987,954
48.46066399999992,15.677143999999986,898
48.78466399999992,15.677143999999986,947
47.48866399999993,16.325143999999987,959
47.16466399999993,16.325143999999987,1134
46.19266399999994,14.381143999999988,1252
45.86866399999994,15.677143999999986,1348
43.60066399999995,16.325143999999987,2515
45.54466399999994,14.381143999999988,1366
45.54466399999994,13.733143999999989,1389
48.136663999999925,13.085143999999987,1068
48.46066399999992,11.141143999999988,1014
48.136663999999925,11.141143999999988,1017
48.46066399999992,7.90114399999999,1058
49.10866399999992,8.54914399999999,1021
48.78466399999992,2.0691439999999925,1184
49.10866399999992,7.25314399999999,1041
52.0246639999999,7.90114399999999,1035
47.16466399999993,11.789143999999988,1152
49.43266399999992,11.141143999999988,958
53.64466399999989,9.845143999999989,967
50.72866399999991,4.013143999999992,1071
51.05266399999991,11.141143999999988,906
47.48866399999993,11.141143999999988,1054
46.84066399999993,11.789143999999988,1502
46.516663999999935,11.141143999999988,1382
45.54466399999994,11.141143999999988,1288
46.19266399999994,11.141143999999988,1376
45.86866399999994,11.141143999999988,1363
44.572663999999946,11.141143999999988,1332
43.92466399999995,12.437143999999988,65535
45.54466399999994,12.437143999999988,1334
45.54466399999994,11.789143999999988,1315
48.78466399999992,15.029143999999986,1692
47.81266399999993,15.029143999999986,930
47.81266399999993,11.141143999999988,1028
50.40466399999991,18.917143999999983,303
52.3486639999999,20.86114399999998,190
54.616663999999886,18.269143999999983,1076
54.29266399999989,18.917143999999983,1050
49.10866399999992,14.381143999999988,65535
50.08066399999991,14.381143999999988,882
48.78466399999992,13.733143999999989,1160
52.6726639999999,13.085143999999987,837
52.3486639999999,13.085143999999987,837
53.96866399999989,12.437143999999988,1044
54.29266399999989,12.437143999999988,1042
47.48866399999993,8.54914399999999,1078
47.81266399999993,17.621143999999987,924
47.48866399999993,18.917143999999983,920
47.48866399999993,20.86114399999998,1436
46.84066399999993,23.45314399999998,1918
44.572663999999946,26.04514399999998,2367
47.48866399999993,21.50914399999997,1472
47.81266399999993,21.50914399999997,1868
48.46066399999992,22.15714399999998,997
47.48866399999993,16.973143999999984,65535
49.10866399999992,16.325143999999987,816
49.75666399999992,18.269143999999983,559
46.19266399999994,13.085143999999987,2303
41.98066399999996,12.437143999999988,2470
43.60066399999995,10.493143999999988,2726
45.54466399999994,9.197143999999987,1208
47.81266399999993,22.805143999999984,1723
49.75666399999992,22.805143999999984,997
50.72866399999991,3.365143999999992,1082
51.05266399999991,4.013143999999992,1075
50.72866399999991,4.661143999999991,1069
51.05266399999991,4.661143999999991,1073
51.05266399999991,3.365143999999992,1084
51.05266399999991,2.717143999999992,1127
50.40466399999991,4.661143999999991,1083
50.72866399999991,2.717143999999992,1114
50.40466399999991,4.013143999999992,1088
51.05266399999991,5.309143999999991,1081
50.72866399999991,5.309143999999991,1062
51.37666399999991,3.365143999999992,1120
51.37666399999991,4.661143999999991,1089
50.72866399999991,5.957143999999991,1047
50.40466399999991,5.957143999999991,1064
50.40466399999991,3.365143999999992,1096
50.40466399999991,5.309143999999991,1072
50.08066399999991,5.309143999999991,1099
49.75666399999992,5.309143999999991,1124
49.75666399999992,5.957143999999991,1095
51.37666399999991,5.309143999999991,1136
51.700663999999904,4.661143999999991,1118
50.08066399999991,4.013143999999992,1160
50.08066399999991,5.957143999999991,1134
50.08066399999991,4.661143999999991,1111
49.43266399999992,5.309143999999991,1220
49.43266399999992,5.957143999999991,1138
52.0246639999999,4.661143999999991,2229
52.3486639999999,4.661143999999991,2264
50.72866399999991,15.029143999999986,519
51.05266399999991,15.029143999999986,484
51.05266399999991,13.733143999999989,608
50.40466399999991,13.085143999999987,887
49.10866399999992,7.90114399999999,1027
48.78466399999992,7.90114399999999,1038
50.40466399999991,7.90114399999999,1008
50.08066399999991,7.90114399999999,1000
49.75666399999992,7.90114399999999,1013
49.43266399999992,7.90114399999999,1026
49.75666399999992,8.54914399999999,1005
49.43266399999992,8.54914399999999,1012
49.43266399999992,9.197143999999987,1028
49.10866399999992,9.197143999999987,1028
47.48866399999993,7.90114399999999,1104
47.81266399999993,7.90114399999999,1068
48.136663999999925,7.90114399999999,1064
48.136663999999925,9.845143999999989,1061
47.81266399999993,9.197143999999987,1079
47.81266399999993,8.54914399999999,1071
47.81266399999993,9.845143999999989,1073
54.940663999999884,9.197143999999987,1049
54.616663999999886,9.197143999999987,1020
54.29266399999989,9.197143999999987,1031
53.96866399999989,9.197143999999987,1016
53.64466399999989,9.197143999999987,1007
54.616663999999886,9.845143999999989,1012
54.29266399999989,9.845143999999989,1003
53.96866399999989,9.845143999999989,998
53.64466399999989,10.493143999999988,968
53.96866399999989,10.493143999999988,998
53.96866399999989,11.141143999999988,1031
54.29266399999989,10.493143999999988,1018
53.32066399999989,10.493143999999988,942
54.940663999999884,11.141143999999988,1133
52.6726639999999,13.733143999999989,835
52.3486639999999,13.733143999999989,831
52.3486639999999,14.381143999999988,847
52.0246639999999,14.381143999999988,807
52.0246639999999,11.789143999999988,869
52.3486639999999,11.789143999999988,867
52.3486639999999,12.437143999999988,847
52.0246639999999,15.029143999999986,823
51.700663999999904,14.381143999999988,799
52.0246639999999,13.733143999999989,798
51.700663999999904,13.733143999999989,794
52.6726639999999,12.437143999999988,878
53.32066399999989,11.789143999999988,994
53.96866399999989,11.789143999999988,1038
53.64466399999989,11.789143999999988,1004
53.64466399999989,11.141143999999988,1001
53.32066399999989,11.141143999999988,983
52.996663999999896,11.789143999999988,940
52.996663999999896,12.437143999999988,924
52.996663999999896,13.733143999999989,850
53.64466399999989,13.733143999999989,937
53.96866399999989,13.733143999999989,950
54.29266399999989,13.085143999999987,1013
53.96866399999989,13.085143999999987,1019
53.32066399999989,13.733143999999989,947
52.0246639999999,13.085143999999987,853
51.700663999999904,13.085143999999987,845
52.996663999999896,14.381143999999988,882
52.0246639999999,12.437143999999988,852
51.700663999999904,12.437143999999988,851
51.37666399999991,11.789143999999988,857
51.37666399999991,12.437143999999988,845
52.6726639999999,11.789143999999988,890
53.64466399999989,13.085143999999987,980
53.32066399999989,13.085143999999987,945
52.996663999999896,13.085143999999987,918
53.64466399999989,12.437143999999988,988
51.37666399999991,13.733143999999989,768
53.32066399999989,12.437143999999988,955
52.6726639999999,14.381143999999988,852
51.37666399999991,13.085143999999987,825
53.32066399999989,14.381143999999988,916
52.3486639999999,15.029143999999986,883
52.0246639999999,15.677143999999986,784
51.700663999999904,15.029143999999986,889
51.05266399999991,16.325143999999987,426
51.05266399999991,16.973143999999984,386
51.700663999999904,15.677143999999986,810
51.37666399999991,15.677143999999986,421
51.37666399999991,16.325143999999987,413
50.72866399999991,13.085143999999987,785
50.72866399999991,12.437143999999988,828
51.05266399999991,13.085143999999987,771
51.05266399999991,14.381143999999988,519
50.40466399999991,12.437143999999988,872
50.40466399999991,11.789143999999988,878
50.08066399999991,12.437143999999988,919
50.72866399999991,11.789143999999988,895
51.05266399999991,12.437143999999988,837
50.72866399999991,14.381143999999988,915
51.37666399999991,14.381143999999988,859
50.72866399999991,13.733143999999989,935
50.40466399999991,14.381143999999988,895
51.37666399999991,15.029143999999986,458
55.26466399999988,9.197143999999987,1788
55.58866399999988,8.54914399999999,1822
55.91266399999988,8.54914399999999,2239
56.23666399999988,9.197143999999987,2247
56.23666399999988,10.493143999999988,2200
56.23666399999988,9.845143999999989,2187
55.91266399999988,9.845143999999989,2125
56.56066399999988,9.197143999999987,2257
56.56066399999988,8.54914399999999,2300
51.05266399999991,6.60514399999999,1030
51.700663999999904,7.90114399999999,1011
50.72866399999991,6.60514399999999,1038
51.700663999999904,7.25314399999999,1025
50.72866399999991,7.25314399999999,1024
52.0246639999999,7.25314399999999,1052
52.3486639999999,7.90114399999999,1024
51.05266399999991,5.957143999999991,1061
50.40466399999991,7.25314399999999,1015
51.700663999999904,6.60514399999999,1041
51.700663999999904,5.957143999999991,1063
52.3486639999999,9.197143999999987,961
51.700663999999904,8.54914399999999,1001
52.0246639999999,8.54914399999999,1008
52.3486639999999,8.54914399999999,998
51.37666399999991,7.90114399999999,1014
52.3486639999999,7.25314399999999,1041
51.37666399999991,5.957143999999991,1061
50.72866399999991,7.90114399999999,1044
51.37666399999991,9.197143999999987,983
51.700663999999904,9.197143999999987,966
50.40466399999991,6.60514399999999,1066
51.05266399999991,7.90114399999999,1073
51.37666399999991,8.54914399999999,1015
52.0246639999999,5.957143999999991,1071
52.3486639999999,6.60514399999999,1046
51.05266399999991,8.54914399999999,1044
52.0246639999999,9.197143999999987,977
52.6726639999999,9.197143999999987,990
52.0246639999999,9.845143999999989,962
51.700663999999904,9.845143999999989,943
51.37666399999991,9.845143999999989,968
50.72866399999991,8.54914399999999,1034
51.05266399999991,9.845143999999989,1008
50.72866399999991,9.845143999999989,1029
50.40466399999991,9.845143999999989,1015
51.05266399999991,9.197143999999987,1040
50.40466399999991,9.197143999999987,992
50.08066399999991,9.197143999999987,986
51.05266399999991,10.493143999999988,919
50.40466399999991,8.54914399999999,1012
50.72866399999991,9.197143999999987,1039
49.75666399999992,9.197143999999987,1025
52.996663999999896,9.197143999999987,993
52.3486639999999,9.845143999999989,954
52.996663999999896,8.54914399999999,1001
52.996663999999896,7.90114399999999,1013
53.32066399999989,7.90114399999999,1030
53.32066399999989,7.25314399999999,1093
53.64466399999989,7.25314399999999,1138
52.996663999999896,10.493143999999988,929
52.6726639999999,10.493143999999988,937
52.6726639999999,9.845143999999989,946
53.32066399999989,9.845143999999989,957
53.32066399999989,9.197143999999987,987
53.64466399999989,8.54914399999999,1024
53.32066399999989,8.54914399999999,1005
52.6726639999999,8.54914399999999,1018
52.0246639999999,10.493143999999988,932
52.0246639999999,11.141143999999988,884
51.700663999999904,11.141143999999988,890
52.6726639999999,7.25314399999999,1794
52.996663999999896,7.25314399999999,1822
52.6726639999999,7.90114399999999,1035
53.64466399999989,7.90114399999999,1091
52.996663999999896,11.141143999999988,903
52.6726639999999,11.141143999999988,898
52.3486639999999,10.493143999999988,924
52.996663999999896,9.845143999999989,996
51.700663999999904,10.493143999999988,918
51.37666399999991,10.493143999999988,954
51.700663999999904,11.789143999999988,882
52.3486639999999,11.141143999999988,905
51.37666399999991,11.141143999999988,938
51.05266399999991,11.789143999999988,891
49.10866399999992,11.141143999999988,967
48.78466399999992,11.141143999999988,995
48.46066399999992,11.789143999999988,1006
49.43266399999992,11.789143999999988,936
50.08066399999991,11.789143999999988,885
49.75666399999992,12.437143999999988,933
49.10866399999992,11.789143999999988,978
48.78466399999992,12.437143999999988,983
48.46066399999992,12.437143999999988,1003
49.10866399999992,12.437143999999988,979
48.78466399999992,13.085143999999987,1011
48.136663999999925,12.437143999999988,1037
47.81266399999993,11.789143999999988,1026
48.136663999999925,10.493143999999988,1042
47.81266399999993,10.493143999999988,1089
48.78466399999992,10.493143999999988,1008
47.48866399999993,10.493143999999988,1117
48.46066399999992,10.493143999999988,1036
49.43266399999992,13.085143999999987,1011
48.46066399999992,13.085143999999987,1032
49.43266399999992,10.493143999999988,963
49.75666399999992,9.845143999999989,993
49.75666399999992,10.493143999999988,964
50.40466399999991,11.141143999999988,920
50.08066399999991,11.141143999999988,932
50.72866399999991,11.141143999999988,904
49.75666399999992,11.141143999999988,951
48.78466399999992,11.789143999999988,1018
50.40466399999991,10.493143999999988,929
50.08066399999991,9.845143999999989,973
50.08066399999991,10.493143999999988,952
49.43266399999992,12.437143999999988,941
49.75666399999992,11.789143999999988,920
49.10866399999992,13.085143999999987,1008
50.72866399999991,10.493143999999988,924
49.10866399999992,10.493143999999988,998
48.78466399999992,9.845143999999989,1036
48.46066399999992,8.54914399999999,1048
48.46066399999992,9.197143999999987,1069
48.78466399999992,9.197143999999987,1033
48.78466399999992,8.54914399999999,1040
50.08066399999991,7.25314399999999,1053
49.75666399999992,6.60514399999999,1071
49.43266399999992,6.60514399999999,1066
49.10866399999992,6.60514399999999,1058
49.43266399999992,7.25314399999999,1026
49.75666399999992,7.25314399999999,1023
49.10866399999992,5.957143999999991,1155
48.78466399999992,7.25314399999999,1092
50.08066399999991,6.60514399999999,1068
47.48866399999993,9.197143999999987,1082
48.136663999999925,8.54914399999999,1062
48.136663999999925,9.197143999999987,1065
47.81266399999993,7.25314399999999,1079
49.43266399999992,9.845143999999989,1004
49.10866399999992,9.845143999999989,1030
53.64466399999989,14.381143999999988,933
50.08066399999991,13.085143999999987,914
49.75666399999992,13.085143999999987,935
45.86866399999994,9.197143999999987,1194
46.19266399999994,9.197143999999987,1164
46.516663999999935,8.54914399999999,1130
46.516663999999935,9.197143999999987,1179
46.19266399999994,8.54914399999999,1144
47.16466399999993,8.54914399999999,1082
45.86866399999994,4.661143999999991,1264
46.84066399999993,9.845143999999989,1113
45.22066399999994,5.957143999999991,1275
45.22066399999994,5.309143999999991,1296
45.86866399999994,5.957143999999991,1200
45.54466399999994,5.957143999999991,1223
44.89666399999994,4.661143999999991,1307
44.89666399999994,5.309143999999991,1324
44.572663999999946,4.661143999999991,1354
44.24866399999995,4.661143999999991,1379
43.92466399999995,4.661143999999991,1347
46.19266399999994,7.25314399999999,1113
48.78466399999992,5.957143999999991,1159
48.136663999999925,6.60514399999999,1204
48.46066399999992,6.60514399999999,1155
48.78466399999992,6.60514399999999,1126
47.16466399999993,7.90114399999999,1086
48.136663999999925,7.25314399999999,1095
48.46066399999992,7.25314399999999,1071
46.516663999999935,6.60514399999999,1127
46.84066399999993,6.60514399999999,1123
46.84066399999993,7.25314399999999,1099
46.516663999999935,5.957143999999991,1132
46.19266399999994,5.957143999999991,1139
46.84066399999993,8.54914399999999,1085
46.84066399999993,7.90114399999999,1095
45.86866399999994,5.309143999999991,1245
46.19266399999994,6.60514399999999,1129
45.86866399999994,6.60514399999999,1140
47.48866399999993,6.60514399999999,1103
47.48866399999993,7.25314399999999,1124
47.16466399999993,7.25314399999999,1104
49.10866399999992,4.013143999999992,1231
49.75666399999992,4.661143999999991,1137
49.43266399999992,4.661143999999991,1200
49.10866399999992,5.309143999999991,1283
46.19266399999994,4.661143999999991,1309
46.84066399999993,9.197143999999987,1104
46.19266399999994,5.309143999999991,1188
46.516663999999935,5.309143999999991,1307
45.54466399999994,6.60514399999999,1294
45.54466399999994,5.309143999999991,1290
43.60066399999995,4.013143999999992,1382
43.60066399999995,3.365143999999992,1422
42.62866399999996,2.717143999999992,1481
43.276663999999954,2.717143999999992,1439
45.54466399999994,4.661143999999991,1299
45.22066399999994,4.661143999999991,1315
47.16466399999993,5.309143999999991,1156
47.16466399999993,5.957143999999991,1126
46.19266399999994,7.90114399999999,1108
49.75666399999992,2.717143999999992,1211
49.10866399999992,2.717143999999992,1192
48.78466399999992,2.717143999999992,1207
45.86866399999994,3.365143999999992,1461
46.84066399999993,3.365143999999992,1312
46.516663999999935,3.365143999999992,1341
46.19266399999994,3.365143999999992,1439
47.16466399999993,6.60514399999999,1111
49.10866399999992,3.365143999999992,1289
45.54466399999994,4.013143999999992,1359
46.516663999999935,7.25314399999999,1108
47.16466399999993,4.661143999999991,1230
46.84066399999993,4.661143999999991,1257
46.516663999999935,4.661143999999991,1281
46.84066399999993,5.957143999999991,1152
47.81266399999993,3.365143999999992,1282
47.48866399999993,4.013143999999992,1268
48.136663999999925,4.013143999999992,1308
47.81266399999993,4.013143999999992,1274
47.48866399999993,4.661143999999991,1222
47.16466399999993,3.365143999999992,1412
46.84066399999993,4.013143999999992,1280
48.46066399999992,5.957143999999991,1235
46.19266399999994,2.717143999999992,1432
47.16466399999993,2.0691439999999925,1302
46.516663999999935,2.717143999999992,1405
46.84066399999993,2.717143999999992,1386
46.84066399999993,2.0691439999999925,1353
47.16466399999993,2.717143999999992,1323
44.572663999999946,5.309143999999991,1400
44.572663999999946,5.957143999999991,1368
44.89666399999994,6.60514399999999,1354
44.572663999999946,6.60514399999999,1365
43.60066399999995,5.309143999999991,1370
43.92466399999995,7.25314399999999,1474
43.60066399999995,6.60514399999999,1468
43.276663999999954,6.60514399999999,1484
43.276663999999954,5.957143999999991,1421
45.86866399999994,8.54914399999999,1205
45.54466399999994,8.54914399999999,1211
48.136663999999925,3.365143999999992,1289
48.46066399999992,3.365143999999992,1312
48.46066399999992,2.717143999999992,1234
47.48866399999993,5.309143999999991,1236
46.516663999999935,9.845143999999989,1124
46.84066399999993,10.493143999999988,1153
47.81266399999993,5.309143999999991,1336
45.22066399999994,6.60514399999999,1265
46.19266399999994,4.013143999999992,1330
45.86866399999994,4.013143999999992,1301
45.22066399999994,4.013143999999992,1462
44.89666399999994,4.013143999999992,1520
46.84066399999993,5.309143999999991,1281
48.136663999999925,-1.8188560000000056,1329
48.136663999999925,0.1251439999999934,1270
48.136663999999925,-0.5228560000000062,1301
47.48866399999993,-0.5228560000000062,1334
47.16466399999993,-1.8188560000000056,1374
47.48866399999993,0.7731439999999932,1277
47.16466399999993,0.1251439999999934,1341
45.86866399999994,7.25314399999999,1159
48.136663999999925,5.309143999999991,1365
49.10866399999992,4.661143999999991,1296
48.46066399999992,4.013143999999992,1370
48.136663999999925,4.661143999999991,1331
47.81266399999993,6.60514399999999,1153
47.48866399999993,5.957143999999991,1294
48.136663999999925,5.957143999999991,1406
45.86866399999994,7.90114399999999,1127
46.516663999999935,7.90114399999999,1099
49.43266399999992,3.365143999999992,1234
49.43266399999992,4.013143999999992,1220
48.136663999999925,2.717143999999992,1545
47.81266399999993,2.717143999999992,1512
47.48866399999993,2.717143999999992,1445
50.40466399999991,2.717143999999992,1142
48.46066399999992,-4.410856000000004,1480
48.46066399999992,-3.7628560000000046,1435
48.46066399999992,-3.114856000000005,1420
48.46066399999992,-2.4668560000000053,1391
47.48866399999993,1.4211439999999929,1319
47.16466399999993,1.4211439999999929,1330
46.516663999999935,4.013143999999992,1285
43.60066399999995,4.661143999999991,1395
44.89666399999994,2.717143999999992,1501
45.22066399999994,2.717143999999992,1588
45.54466399999994,3.365143999999992,1507
45.22066399999994,3.365143999999992,1475
47.48866399999993,3.365143999999992,1509
46.19266399999994,9.845143999999989,1165
47.81266399999993,2.0691439999999925,1264
47.48866399999993,2.0691439999999925,1343
45.86866399999994,2.717143999999992,1509
44.89666399999994,5.957143999999991,1294
45.22066399999994,1.4211439999999929,1466
44.89666399999994,1.4211439999999929,1439
44.89666399999994,2.0691439999999925,1452
43.276663999999954,2.0691439999999925,1471
43.60066399999995,1.4211439999999929,1477
48.78466399999992,4.661143999999991,1353
48.78466399999992,5.309143999999991,1278
46.19266399999994,2.0691439999999925,1478
45.86866399999994,1.4211439999999929,1434
46.19266399999994,1.4211439999999929,1400
44.572663999999946,4.013143999999992,1615
44.89666399999994,3.365143999999992,1596
43.92466399999995,4.013143999999992,1472
44.24866399999995,4.013143999999992,1489
44.89666399999994,-0.5228560000000062,1334
45.54466399999994,0.1251439999999934,1354
46.516663999999935,0.1251439999999934,1312
44.572663999999946,2.0691439999999925,1524
49.75666399999992,4.013143999999992,1267
43.92466399999995,3.365143999999992,1641
43.92466399999995,2.717143999999992,1672
44.24866399999995,3.365143999999992,1696
44.572663999999946,3.365143999999992,1739
49.10866399999992,0.1251439999999934,1335
49.43266399999992,0.7731439999999932,1308
49.43266399999992,-1.8188560000000056,1436
49.10866399999992,-1.170856000000006,1360
49.10866399999992,-0.5228560000000062,1318
49.10866399999992,0.7731439999999932,1318
49.10866399999992,1.4211439999999929,1250
47.81266399999993,-1.8188560000000056,1375
47.81266399999993,-2.4668560000000053,1407
47.81266399999993,-3.114856000000005,1420
48.136663999999925,-3.7628560000000046,1477
44.572663999999946,9.197143999999987,1316
44.89666399999994,8.54914399999999,1262
45.22066399999994,9.197143999999987,1219
45.54466399999994,10.493143999999988,1267
44.572663999999946,10.493143999999988,1318
44.89666399999994,10.493143999999988,1304
44.89666399999994,9.845143999999989,1272
48.46066399999992,5.309143999999991,1488
50.91599999999999,-1.0580000000000025,65535
51.23999999999999,-0.4100000000000028,65535
50.91599999999999,-0.4100000000000028,65535
51.23999999999999,-2.354000000000002,65535
51.56399999999999,-2.354000000000002,65535
51.56399999999999,-3.0020000000000016,65535
50.91599999999999,-2.354000000000002,65535
53.50799999999997,-3.0020000000000016,65535
53.183999999999976,-2.354000000000002,65535
53.183999999999976,-3.0020000000000016,65535
52.85999999999998,-2.354000000000002,65535
52.21199999999998,-1.0580000000000025,65535
51.887999999999984,-1.0580000000000025,65535
52.53599999999998,-1.0580000000000025,65535
52.53599999999998,-1.7060000000000022,65535
52.85999999999998,-1.7060000000000022,65535
53.50799999999997,-2.354000000000002,65535
52.85999999999998,-1.0580000000000025,65535
52.53599999999998,1.5339999999999965,65535
52.53599999999998,0.8859999999999966,65535
52.53599999999998,0.2379999999999968,65535
52.53599999999998,-0.4100000000000028,65535
53.50799999999997,-1.7060000000000022,65535
53.183999999999976,-1.7060000000000022,65535
53.183999999999976,-1.0580000000000025,65535
52.85999999999998,-0.4100000000000028,65535
51.887999999999984,-2.354000000000002,65535
52.21199999999998,-2.354000000000002,65535
55.77599999999996,-2.354000000000002,65535
53.83199999999997,-1.0580000000000025,65535
53.83199999999997,-1.7060000000000022,65535
55.127999999999965,-1.7060000000000022,65535
54.80399999999997,-1.7060000000000022,65535
54.47999999999997,-1.7060000000000022,65535
54.15599999999997,-1.0580000000000025,65535
52.21199999999998,-1.7060000000000022,65535
53.50799999999997,-1.0580000000000025,65535
55.77599999999996,-3.0020000000000016,65535
55.45199999999996,-1.7060000000000022,65535
57.07199999999995,-2.354000000000002,65535
56.74799999999996,-3.0020000000000016,65535
56.42399999999996,-3.0020000000000016,65535
56.09999999999996,-3.650000000000001,65535
50.91599999999999,-3.0020000000000016,65535
50.91599999999999,-3.650000000000001,65535
50.59199999999999,-3.650000000000001,65535
50.59199999999999,-4.298000000000001,65535
51.23999999999999,-3.0020000000000016,65535
50.268,-4.946000000000001,65535
55.77599999999996,-3.650000000000001,65535
55.77599999999996,-4.298000000000001,65535
52.21199999999998,-0.4100000000000028,65535
52.53599999999998,-2.354000000000002,65535
51.56399999999999,-1.7060000000000022,65535
51.56399999999999,-3.650000000000001,65535
51.887999999999984,-4.298000000000001,65535
51.56399999999999,-4.298000000000001,65535
51.887999999999984,-1.7060000000000022,65535
52.21199999999998,-3.0020000000000016,65535
51.23999999999999,0.2379999999999968,65535
50.91599999999999,0.2379999999999968,65535
52.21199999999998,0.2379999999999968,65535
53.83199999999997,-3.0020000000000016,65535
54.15599999999997,-3.0020000000000016,65535
54.47999999999997,-3.0020000000000016,65535
55.127999999999965,-3.650000000000001,65535
54.80399999999997,-3.0020000000000016,65535
53.83199999999997,-2.354000000000002,65535
54.15599999999997,-0.4100000000000028,65535
54.47999999999997,-1.0580000000000025,65535
53.83199999999997,-0.4100000000000028,65535
53.183999999999976,-3.650000000000001,65535
53.183999999999976,-4.298000000000001,65535
52.85999999999998,-3.0020000000000016,65535
52.53599999999998,-3.0020000000000016,65535
51.887999999999984,-3.0020000000000016,65535
51.23999999999999,0.8859999999999966,65535
51.887999999999984,0.2379999999999968,65535
52.21199999999998,0.8859999999999966,65535
51.887999999999984,-4.946000000000001,65535
52.53599999999998,-3.650000000000001,65535
52.21199999999998,-4.298000000000001,65535
53.183999999999976,-0.4100000000000028,65535
51.23999999999999,-3.650000000000001,65535
51.887999999999984,-3.650000000000001,65535
52.21199999999998,-3.650000000000001,65535
51.56399999999999,0.8859999999999966,65535
51.887999999999984,0.8859999999999966,65535
52.85999999999998,0.8859999999999966,65535
53.50799999999997,-0.4100000000000028,65535
56.09999999999996,-4.298000000000001,65535
56.74799999999996,-4.946000000000001,65535
56.74799999999996,-4.298000000000001,65535
56.42399999999996,-4.946000000000001,65535
56.42399999999996,-4.298000000000001,65535
56.09999999999996,-4.946000000000001,65535
57.39599999999995,-4.298000000000001,65535
57.39599999999995,-3.0020000000000016,65535
57.39599999999995,-3.650000000000001,65535
56.42399999999996,-3.650000000000001,65535
57.07199999999995,-3.650000000000001,65535
57.07199999999995,-4.298000000000001,65535
56.74799999999996,-3.650000000000001,65535
59.15266399999986,27.34114399999998,65535
59.47666399999986,26.69314399999997,65535
59.47666399999986,26.04514399999998,65535
59.15266399999986,26.04514399999998,65535
59.15266399999986,24.74914399999998,65535
59.15266399999986,25.397143999999983,65535
59.47666399999986,25.397143999999983,65535
58.50466399999986,26.69314399999997,65535
58.82866399999986,26.69314399999997,65535
57.85666399999987,26.04514399999998,65535
58.180663999999865,26.04514399999998,65535
58.180663999999865,26.69314399999997,65535
58.82866399999986,26.04514399999998,65535
58.50466399999986,25.397143999999983,65535
58.82866399999986,25.397143999999983,65535
58.82866399999986,24.74914399999998,65535
58.180663999999865,27.34114399999998,65535
57.85666399999987,27.34114399999998,65535
63.68866399999983,27.34114399999998,65535
60.124663999999854,24.74914399999998,65535
60.44866399999985,24.74914399999998,65535
60.44866399999985,25.397143999999983,65535
60.77266399999985,25.397143999999983,65535
61.09666399999985,26.04514399999998,65535
60.77266399999985,26.04514399999998,65535
60.77266399999985,26.69314399999997,65535
61.09666399999985,25.397143999999983,65535
61.09666399999985,26.69314399999997,65535
61.420663999999846,26.69314399999997,65535
61.74466399999984,27.34114399999998,65535
62.06866399999984,27.34114399999998,65535
62.39266399999984,27.34114399999998,65535
62.71666399999984,27.34114399999998,65535
64.01266399999983,27.34114399999998,65535
63.36466399999984,27.34114399999998,65535
63.04066399999984,27.34114399999998,65535
63.04066399999984,27.989143999999985,65535
64.33666399999983,27.989143999999985,65535
64.33666399999983,27.34114399999998,65535
64.66066399999983,27.34114399999998,65535
64.66066399999983,26.69314399999997,4756
64.98466399999982,25.397143999999983,4519
64.66066399999983,26.04514399999998,4736
64.98466399999982,26.04514399999998,4720
66.28066399999982,25.397143999999983,65535
65.95666399999982,24.74914399999998,4432
65.63266399999982,24.74914399999998,4436
65.63266399999982,25.397143999999983,4478
65.30866399999982,25.397143999999983,4499
66.60466399999981,25.397143999999983,65535
64.01266399999983,24.74914399999998,4656
64.01266399999983,24.101143999999977,4691
64.01266399999983,23.45314399999998,4715
63.68866399999983,23.45314399999998,4727
63.68866399999983,22.805143999999984,4752
63.68866399999983,26.04514399999998,65535
63.68866399999983,25.397143999999983,65535
63.68866399999983,26.69314399999997,65535
60.44866399999985,26.69314399999997,65535
64.01266399999983,27.989143999999985,65535
62.71666399999984,22.805143999999984,65535
62.39266399999984,22.805143999999984,65535
62.06866399999984,22.805143999999984,65535
62.06866399999984,23.45314399999998,65535
61.74466399999984,23.45314399999998,65535
61.420663999999846,23.45314399999998,65535
61.09666399999985,23.45314399999998,65535
61.09666399999985,24.101143999999977,65535
61.09666399999985,24.74914399999998,65535
60.77266399999985,24.74914399999998,65535
63.04066399999984,21.50914399999997,65535
63.04066399999984,22.15714399999998,65535
63.04066399999984,22.805143999999984,65535
62.39266399999984,26.04514399999998,65535
62.06866399999984,25.397143999999983,65535
61.74466399999984,25.397143999999983,65535
61.74466399999984,24.74914399999998,65535
61.74466399999984,24.101143999999977,65535
61.420663999999846,24.101143999999977,65535
62.39266399999984,26.69314399999997,65535
64.66066399999983,25.397143999999983,4588
64.66066399999983,24.74914399999998,4606
64.33666399999983,24.74914399999998,4617
63.36466399999984,22.805143999999984,4777
67.25266399999981,24.101143999999977,65535
66.92866399999981,24.101143999999977,65535
66.60466399999981,23.45314399999998,65535
66.28066399999982,23.45314399999998,65535
66.28066399999982,24.101143999999977,65535
65.95666399999982,24.101143999999977,3804
60.124663999999854,24.101143999999977,65535
60.124663999999854,23.45314399999998,65535
60.44866399999985,22.805143999999984,65535
60.77266399999985,27.34114399999998,65535
61.09666399999985,27.989143999999985,65535
61.09666399999985,28.63714399999997,65535
61.420663999999846,29.28514399999997,65535
61.74466399999984,29.933143999999977,65535
62.06866399999984,29.933143999999977,65535
62.39266399999984,29.933143999999977,65535
62.71666399999984,29.933143999999977,65535
61.420663999999846,22.805143999999984,65535
61.420663999999846,22.15714399999998,65535
61.09666399999985,22.15714399999998,65535
61.420663999999846,21.50914399999997,65535
62.39266399999984,27.989143999999985,65535
62.06866399999984,27.989143999999985,65535
61.420663999999846,27.34114399999998,65535
63.04066399999984,29.933143999999977,65535
63.68866399999983,29.28514399999997,65535
63.36466399999984,29.28514399999997,65535
63.36466399999984,29.933143999999977,65535
60.44866399999985,27.34114399999998,65535
61.74466399999984,29.28514399999997,65535
62.39266399999984,30.58114399999998,65535
62.71666399999984,31.229143999999977,65535
62.71666399999984,29.28514399999997,65535
63.04066399999984,28.63714399999997,65535
66.60466399999981,26.04514399999998,65535
66.60466399999981,26.69314399999997,65535
66.60466399999981,27.34114399999998,65535
62.71666399999984,26.04514399999998,65535
62.71666399999984,25.397143999999983,65535
63.04066399999984,25.397143999999983,65535
63.36466399999984,25.397143999999983,65535
62.71666399999984,23.45314399999998,65535
62.39266399999984,24.101143999999977,65535
62.71666399999984,22.15714399999998,65535
62.39266399999984,22.15714399999998,65535
62.39266399999984,21.50914399999997,65535
61.09666399999985,21.50914399999997,65535
60.77266399999985,22.805143999999984,65535
60.44866399999985,22.15714399999998,65535
60.77266399999985,23.45314399999998,65535
60.77266399999985,21.50914399999997,65535
60.77266399999985,22.15714399999998,65535
60.124663999999854,22.805143999999984,65535
60.44866399999985,24.101143999999977,65535
62.06866399999984,24.74914399999998,65535
50.72866399999991,16.325143999999987,446
50.40466399999991,16.973143999999984,482
50.72866399999991,16.973143999999984,444
50.40466399999991,16.325143999999987,767
50.08066399999991,16.973143999999984,796
50.08066399999991,16.325143999999987,792
51.700663999999904,16.973143999999984,420
51.37666399999991,16.973143999999984,345
51.05266399999991,15.677143999999986,798
50.72866399999991,15.677143999999986,777
51.05266399999991,17.621143999999987,379
51.37666399999991,17.621143999999987,349
51.700663999999904,17.621143999999987,284
51.700663999999904,16.325143999999987,397
52.0246639999999,22.15714399999998,255
52.0246639999999,21.50914399999997,207
52.3486639999999,21.50914399999997,204
52.0246639999999,20.86114399999998,201
51.700663999999904,20.86114399999998,161
51.37666399999991,21.50914399999997,144
51.37666399999991,20.86114399999998,127
51.05266399999991,20.86114399999998,93
52.6726639999999,23.45314399999998,322
52.3486639999999,22.805143999999984,261
52.3486639999999,20.213143999999986,251
52.0246639999999,20.213143999999986,225
52.3486639999999,19.565143999999982,848
52.6726639999999,19.565143999999982,397
51.700663999999904,21.50914399999997,208
51.700663999999904,22.15714399999998,214
52.6726639999999,21.50914399999997,213
52.996663999999896,21.50914399999997,229
52.6726639999999,20.86114399999998,210
52.6726639999999,22.15714399999998,229
52.6726639999999,20.213143999999986,337
52.996663999999896,19.565143999999982,408
52.996663999999896,20.86114399999998,243
52.996663999999896,20.213143999999986,307
53.32066399999989,20.213143999999986,332
51.37666399999991,20.213143999999986,30
52.3486639999999,16.973143999999984,361
52.0246639999999,16.973143999999984,374
52.0246639999999,16.325143999999987,387
52.0246639999999,17.621143999999987,320
52.6726639999999,16.973143999999984,416
52.996663999999896,16.973143999999984,459
52.3486639999999,16.325143999999987,371
52.3486639999999,15.677143999999986,404
51.700663999999904,18.269143999999983,240
52.6726639999999,17.621143999999987,412
52.3486639999999,17.621143999999987,396
52.6726639999999,18.269143999999983,436
52.3486639999999,18.269143999999983,502
52.3486639999999,18.917143999999983,806
52.996663999999896,17.621143999999987,863
51.700663999999904,19.565143999999982,123
51.700663999999904,18.917143999999983,179
51.37666399999991,18.269143999999983,973
58.82866399999986,9.197143999999987,2768
58.180663999999865,7.90114399999999,2861
58.50466399999986,8.54914399999999,2812
63.36466399999984,10.493143999999988,2983
63.36466399999984,11.141143999999988,2990
63.36466399999984,11.789143999999988,3025
63.68866399999983,11.789143999999988,3053
64.33666399999983,12.437143999999988,3454
64.66066399999983,12.437143999999988,3949
65.63266399999982,13.085143999999987,3606
65.95666399999982,13.085143999999987,3641
66.28066399999982,14.381143999999988,3711
65.95666399999982,13.733143999999989,3780
66.28066399999982,13.733143999999989,3689
65.30866399999982,13.085143999999987,3907
64.98466399999982,13.085143999999987,3541
64.01266399999983,11.789143999999988,3084
63.68866399999983,11.141143999999988,3021
59.800663999999855,10.493143999999988,2564
59.800663999999855,11.141143999999988,2547
60.124663999999854,11.141143999999988,2562
60.44866399999985,11.141143999999988,2575
60.124663999999854,11.789143999999988,2588
60.77266399999985,7.25314399999999,2824
60.77266399999985,6.60514399999999,2870
59.15266399999986,9.197143999999987,2650
59.47666399999986,9.197143999999987,2671
59.800663999999855,9.845143999999989,2566
59.47666399999986,11.141143999999988,2511
61.09666399999985,10.493143999999988,2685
60.77266399999985,10.493143999999988,2655
60.77266399999985,11.141143999999988,2610
62.06866399999984,9.197143999999987,3010
61.74466399999984,9.845143999999989,2956
61.420663999999846,9.845143999999989,2933
59.15266399999986,9.845143999999989,2630
59.47666399999986,9.845143999999989,2606
58.82866399999986,5.957143999999991,3045
58.180663999999865,7.25314399999999,2917
58.50466399999986,7.25314399999999,2950
58.50466399999986,6.60514399999999,2955
58.50466399999986,5.957143999999991,3013
58.82866399999986,8.54914399999999,2798
60.44866399999985,7.25314399999999,2798
60.44866399999985,7.90114399999999,2759
60.124663999999854,10.493143999999988,2596
60.44866399999985,9.197143999999987,2708
60.77266399999985,9.197143999999987,2720
60.77266399999985,8.54914399999999,2739
60.124663999999854,9.845143999999989,2975
60.44866399999985,10.493143999999988,2641
63.04066399999984,10.493143999999988,2934
62.06866399999984,9.845143999999989,3035
62.39266399999984,9.845143999999989,3043
62.71666399999984,9.845143999999989,3067
59.47666399999986,14.381143999999988,2560
59.47666399999986,13.733143999999989,2501
59.47666399999986,13.085143999999987,2477
59.800663999999855,12.437143999999988,2546
59.15266399999986,11.141143999999988,2475
59.15266399999986,14.381143999999988,2574
58.82866399999986,11.789143999999988,2455
58.50466399999986,12.437143999999988,2385
58.180663999999865,12.437143999999988,2378
57.85666399999987,11.789143999999988,2329
62.71666399999984,7.90114399999999,3096
62.39266399999984,7.90114399999999,3053
62.06866399999984,8.54914399999999,3028
60.44866399999985,5.309143999999991,2944
60.44866399999985,5.957143999999991,2911
60.77266399999985,5.957143999999991,2900
62.39266399999984,11.141143999999988,2831
62.06866399999984,10.493143999999988,2786
61.74466399999984,11.141143999999988,2759
61.420663999999846,11.141143999999988,2713
61.09666399999985,11.141143999999988,2696
60.77266399999985,11.789143999999988,2673
63.04066399999984,11.141143999999988,2912
62.71666399999984,11.141143999999988,2855
62.39266399999984,10.493143999999988,2813
67.25266399999981,15.677143999999986,3830
67.25266399999981,15.029143999999986,3868
67.25266399999981,14.381143999999988,3896
66.92866399999981,15.029143999999986,3819
66.60466399999981,15.677143999999986,3797
64.01266399999983,11.141143999999988,3068
66.60466399999981,15.029143999999986,3860
54.29266399999989,18.269143999999983,1055
54.616663999999886,17.621143999999987,1094
53.96866399999989,18.269143999999983,975
43.92466399999995,1.4211439999999929,1449
44.24866399999995,0.7731439999999932,1411
44.572663999999946,0.1251439999999934,1388
46.84066399999993,1.4211439999999929,1359
44.572663999999946,1.4211439999999929,1532
44.24866399999995,1.4211439999999929,1517
45.54466399999994,1.4211439999999929,1474
46.516663999999935,1.4211439999999929,1376
42.30466399999996,2.717143999999992,1531
44.24866399999995,2.717143999999992,1655
44.572663999999946,2.717143999999992,1778
43.92466399999995,2.0691439999999925,1516
42.30466399999996,2.0691439999999925,1597
42.62866399999996,2.0691439999999925,1492
42.62866399999996,1.4211439999999929,1536
42.95266399999996,1.4211439999999929,1546
43.276663999999954,1.4211439999999929,1499
46.516663999999935,-1.170856000000006,1474
46.19266399999994,-1.170856000000006,1400
45.86866399999994,-0.5228560000000062,1406
45.54466399999994,-0.5228560000000062,1405
48.46066399999992,1.4211439999999929,1255
41.332663999999966,2.0691439999999925,1652
41.98066399999996,2.717143999999992,1611
48.46066399999992,-1.8188560000000056,1451
47.81266399999993,0.7731439999999932,1273
46.84066399999993,0.7731439999999932,1480
44.572663999999946,-1.170856000000006,1345
43.60066399999995,-1.170856000000006,1408
43.276663999999954,-1.8188560000000056,1455
43.276663999999954,0.1251439999999934,1606
42.95266399999996,0.1251439999999934,1583
43.276663999999954,-0.5228560000000062,1585
43.60066399999995,-0.5228560000000062,1561
47.81266399999993,-3.7628560000000046,1522
47.48866399999993,-2.4668560000000053,1415
47.81266399999993,-0.5228560000000062,1370
46.516663999999935,-1.8188560000000056,1515
48.136663999999925,-1.170856000000006,1456
47.48866399999993,-1.170856000000006,1435
45.22066399999994,8.54914399999999,1234
45.22066399999994,7.90114399999999,1279
46.19266399999994,-0.5228560000000062,1359
46.516663999999935,-0.5228560000000062,1400
48.78466399999992,-3.114856000000005,1467
50.72866399999991,2.0691439999999925,1113
50.40466399999991,2.0691439999999925,1145
40.36066399999997,-3.7628560000000046,2865
41.65666399999997,-1.170856000000006,2782
41.332663999999966,1.4211439999999929,2720
43.276663999999954,13.733143999999989,65535
42.95266399999996,13.733143999999989,65535
41.65666399999997,15.029143999999986,65535
40.68466399999997,17.621143999999987,65535
43.60066399999995,13.085143999999987,3903
41.65666399999997,12.437143999999988,2512
41.65666399999997,13.085143999999987,2528
41.98066399999996,13.085143999999987,2504
41.65666399999997,13.733143999999989,3092
41.332663999999966,13.733143999999989,2570
41.332663999999966,14.381143999999988,3127
41.00866399999997,14.381143999999988,3154
41.332663999999966,13.085143999999987,2553
41.00866399999997,15.029143999999986,4335
41.98066399999996,13.733143999999989,2586
42.30466399999996,14.381143999999988,4416
42.30466399999996,12.437143999999988,2755
42.62866399999996,12.437143999999988,3054
42.95266399999996,12.437143999999988,3108
42.30466399999996,11.789143999999988,2563
42.95266399999996,11.789143999999988,3818
42.62866399999996,11.789143999999988,3739
43.276663999999954,11.789143999999988,4290
42.95266399999996,13.085143999999987,3804
42.30466399999996,13.085143999999987,4303
43.276663999999954,13.085143999999987,3852
43.276663999999954,12.437143999999988,3859
42.62866399999996,11.141143999999988,2632
42.95266399999996,11.141143999999988,2675
42.95266399999996,10.493143999999988,2693
44.572663999999946,8.54914399999999,1310
44.89666399999994,7.90114399999999,1293
44.89666399999994,9.197143999999987,1340
44.24866399999995,7.90114399999999,1320
44.572663999999946,7.90114399999999,1316
43.92466399999995,7.90114399999999,1501
44.24866399999995,7.25314399999999,1356
44.89666399999994,7.25314399999999,1338
45.22066399999994,7.25314399999999,1274
45.54466399999994,7.90114399999999,1301
44.572663999999946,7.25314399999999,2302
52.996663999999896,22.805143999999984,775
52.996663999999896,23.45314399999998,804
51.37666399999991,22.15714399999998,787
51.37666399999991,22.805143999999984,842
50.08066399999991,20.213143999999986,248
50.72866399999991,20.213143999999986,171
50.40466399999991,20.213143999999986,209
50.08066399999991,20.86114399999998,449
50.08066399999991,21.50914399999997,808
50.08066399999991,22.15714399999998,835
50.08066399999991,22.805143999999984,878
53.96866399999989,22.805143999999984,1121
53.64466399999989,23.45314399999998,909
53.32066399999989,23.45314399999998,863
50.40466399999991,19.565143999999982,287
50.08066399999991,18.917143999999983,296
50.08066399999991,18.269143999999983,525
52.0246639999999,22.805143999999984,286
52.0246639999999,23.45314399999998,300
51.37666399999991,19.565143999999982,139
51.05266399999991,19.565143999999982,179
50.72866399999991,18.917143999999983,219
50.72866399999991,19.565143999999982,255
49.75666399999992,18.917143999999983,293
50.40466399999991,18.269143999999983,322
53.64466399999989,19.565143999999982,891
53.96866399999989,18.917143999999983,1007
53.64466399999989,18.917143999999983,983
53.64466399999989,20.213143999999986,863
52.996663999999896,18.917143999999983,846
52.996663999999896,18.269143999999983,819
53.32066399999989,18.917143999999983,945
50.72866399999991,17.621143999999987,367
50.72866399999991,18.269143999999983,337
52.6726639999999,16.325143999999987,433
52.996663999999896,16.325143999999987,473
52.996663999999896,15.677143999999986,810
53.32066399999989,15.677143999999986,1016
53.32066399999989,15.029143999999986,927
53.64466399999989,15.029143999999986,961
53.96866399999989,15.029143999999986,990
52.6726639999999,18.917143999999983,910
53.32066399999989,16.325143999999987,1074
52.6726639999999,15.029143999999986,855
51.05266399999991,22.805143999999984,879
51.05266399999991,23.45314399999998,906
50.72866399999991,22.15714399999998,898
50.40466399999991,22.15714399999998,840
51.05266399999991,22.15714399999998,839
54.616663999999886,16.973143999999984,1108
54.29266399999989,16.325143999999987,1058
53.96866399999989,15.677143999999986,1022
50.72866399999991,21.50914399999997,896
50.40466399999991,21.50914399999997,848
50.40466399999991,17.621143999999987,930
53.32066399999989,22.805143999999984,1114
53.64466399999989,22.15714399999998,1138
54.29266399999989,16.973143999999984,1084
50.72866399999991,20.86114399999998,141
51.700663999999904,22.805143999999984,1000
51.05266399999991,21.50914399999997,175
50.08066399999991,19.565143999999982,252
52.0246639999999,18.917143999999983,3688
52.0246639999999,19.565143999999982,3681
53.64466399999989,18.269143999999983,968
51.700663999999904,20.213143999999986,85
53.32066399999989,19.565143999999982,860
50.72866399999991,23.45314399999998,1195
50.72866399999991,22.805143999999984,1164
49.43266399999992,20.213143999999986,805
49.75666399999992,21.50914399999997,838
49.75666399999992,22.15714399999998,1404
49.43266399999992,22.15714399999998,1113
51.05266399999991,18.917143999999983,933
51.05266399999991,18.269143999999983,347
53.32066399999989,16.973143999999984,820
53.64466399999989,16.973143999999984,862
49.75666399999992,20.86114399999998,776
50.40466399999991,22.805143999999984,3770
53.64466399999989,16.325143999999987,971
53.96866399999989,20.86114399999998,1026
54.29266399999989,20.86114399999998,1072
53.96866399999989,21.50914399999997,1089
53.64466399999989,15.677143999999986,980
53.96866399999989,20.213143999999986,974
53.96866399999989,19.565143999999982,1018
54.29266399999989,19.565143999999982,1069
53.96866399999989,16.325143999999987,1005
53.64466399999989,17.621143999999987,874
53.96866399999989,22.15714399999998,1156
53.64466399999989,21.50914399999997,1094
53.64466399999989,20.86114399999998,1047
52.6726639999999,15.677143999999986,833
51.05266399999991,20.213143999999986,0
54.940663999999884,24.101143999999977,65535
54.616663999999886,23.45314399999998,65535
54.29266399999989,23.45314399999998,65535
53.64466399999989,22.805143999999984,1163
53.96866399999989,16.973143999999984,1105
50.40466399999991,20.86114399999998,1048
53.32066399999989,18.269143999999983,936
49.75666399999992,19.565143999999982,266
50.40466399999991,23.45314399999998,984
49.75666399999992,20.213143999999986,831
49.43266399999992,19.565143999999982,777
49.43266399999992,20.86114399999998,863
53.96866399999989,17.621143999999987,1308
42.30466399999996,-1.8188560000000056,3999
41.98066399999996,-1.8188560000000056,3982
41.65666399999997,0.7731439999999932,3986
42.62866399999996,-1.8188560000000056,4114
42.95266399999996,-1.8188560000000056,4143
42.62866399999996,-3.114856000000005,4237
42.95266399999996,-2.4668560000000053,4215
42.62866399999996,-7.650856000000003,4579
42.30466399999996,-7.650856000000003,4639
42.30466399999996,-8.946856000000002,4775
42.30466399999996,-8.298856000000002,4749
41.98066399999996,-8.298856000000002,4738
42.30466399999996,-7.002856000000003,4521
42.62866399999996,-6.354856000000003,4463
42.30466399999996,-6.354856000000003,4418
42.62866399999996,-5.706856000000004,3918
41.98066399999996,-4.410856000000004,3872
42.30466399999996,-3.7628560000000046,4263
40.03666399999997,-0.5228560000000062,3966
39.38866399999998,-0.5228560000000062,4014
41.00866399999997,0.7731439999999932,4114
40.68466399999997,0.7731439999999932,4146
40.36066399999997,0.1251439999999934,4224
39.712663999999975,-0.5228560000000062,4123
38.41666399999998,-0.5228560000000062,4135
39.06466399999998,-0.5228560000000062,4257
38.74066399999998,-1.170856000000006,4143
41.332663999999966,0.7731439999999932,4174
41.65666399999997,2.717143999999992,3774
41.65666399999997,2.0691439999999925,3797
41.332663999999966,0.1251439999999934,4132
41.332663999999966,-0.5228560000000062,4076
41.65666399999997,-4.410856000000004,3846
40.03666399999997,-2.4668560000000053,4084
41.00866399999997,-4.410856000000004,3967
43.276663999999954,-5.706856000000004,4048
39.38866399999998,-1.170856000000006,4109
38.09266399999999,-1.170856000000006,4522
38.74066399999998,-0.5228560000000062,4285
37.76866399999999,-1.170856000000006,4587
39.06466399999998,-1.8188560000000056,4107
39.38866399999998,-3.114856000000005,4007
39.38866399999998,-2.4668560000000053,4063
39.06466399999998,-2.4668560000000053,4090
39.06466399999998,-3.114856000000005,4011
39.06466399999998,-3.7628560000000046,3985
38.74066399999998,-3.7628560000000046,4064
40.03666399999997,-3.7628560000000046,3963
40.03666399999997,-3.114856000000005,4163
40.03666399999997,-1.8188560000000056,4244
39.712663999999975,-1.8188560000000056,4209
39.712663999999975,-1.170856000000006,4145
40.36066399999997,-1.170856000000006,4164
40.68466399999997,-1.170856000000006,4142
41.00866399999997,-1.170856000000006,4130
41.332663999999966,-1.170856000000006,3970
43.276663999999954,-8.298856000000002,4739
42.95266399999996,-8.298856000000002,4707
41.65666399999997,-5.706856000000004,65535
41.98066399999996,-7.002856000000003,65535
41.98066399999996,-6.354856000000003,65535
41.332663999999966,-5.058856000000004,4085
43.276663999999954,-3.7628560000000046,4520
42.95266399999996,-4.410856000000004,4454
42.62866399999996,-4.410856000000004,4444
42.30466399999996,-4.410856000000004,4403
41.00866399999997,-5.706856000000004,4023
41.332663999999966,-1.8188560000000056,3916
40.68466399999997,-3.114856000000005,3870
41.00866399999997,-3.114856000000005,3921
41.00866399999997,-2.4668560000000053,3944
41.332663999999966,-2.4668560000000053,3997
40.68466399999997,-4.410856000000004,3907
40.36066399999997,-4.410856000000004,3991
40.68466399999997,-3.7628560000000046,3899
40.36066399999997,-3.114856000000005,3877
41.65666399999997,-2.4668560000000053,4014
38.09266399999999,-3.7628560000000046,4111
38.74066399999998,-3.114856000000005,4055
37.76866399999999,-3.7628560000000046,4168
39.712663999999975,-3.114856000000005,3999
38.41666399999998,-3.7628560000000046,4076
40.03666399999997,-4.410856000000004,65535
40.03666399999997,-5.058856000000004,65535
39.38866399999998,-6.354856000000003,65535
39.38866399999998,-7.002856000000003,65535
42.95266399999996,-3.114856000000005,4648
41.98066399999996,-1.170856000000006,4011
42.30466399999996,-2.4668560000000053,4052
41.65666399999997,-0.5228560000000062,4109
41.98066399999996,-0.5228560000000062,3946
41.65666399999997,0.1251439999999934,3973
41.98066399999996,0.1251439999999934,3995
37.76866399999999,-5.058856000000004,4047
36.79666399999999,-4.410856000000004,4106
38.74066399999998,-4.410856000000004,4003
37.12066399999999,-4.410856000000004,4080
37.44466399999999,-5.058856000000004,4604
37.44466399999999,-7.002856000000003,65535
37.44466399999999,-6.354856000000003,65535
37.44466399999999,-5.706856000000004,4280
39.712663999999975,-3.7628560000000046,4073
42.62866399999996,-8.946856000000002,65535
42.30466399999996,-5.706856000000004,4425
42.30466399999996,-5.058856000000004,4510
42.95266399999996,-5.706856000000004,3950
41.00866399999997,-5.058856000000004,3991
40.68466399999997,-5.058856000000004,3965
41.65666399999997,-5.058856000000004,65535
41.65666399999997,-6.354856000000003,65535
36.79666399999999,-6.354856000000003,65535
37.12066399999999,-5.706856000000004,4448
37.76866399999999,-5.706856000000004,4247
38.09266399999999,-4.410856000000004,4382
37.12066399999999,-5.058856000000004,4402
36.79666399999999,-5.058856000000004,4360
37.76866399999999,-4.410856000000004,65535
37.76866399999999,-7.002856000000003,65535
38.41666399999998,-6.354856000000003,65535
38.09266399999999,-6.354856000000003,65535
48.78466399999992,1.4211439999999929,1281
56.23666399999988,8.54914399999999,2290
55.58866399999988,9.197143999999987,2095
55.91266399999988,9.197143999999987,2236
55.26466399999988,10.493143999999988,1972
55.91266399999988,12.437143999999988,2109
55.58866399999988,11.789143999999988,2115
55.58866399999988,11.141143999999988,2106
55.26466399999988,11.789143999999988,2124
55.58866399999988,10.493143999999988,2091
55.58866399999988,13.085143999999987,2085
56.88466399999987,9.845143999999989,2242
57.20866399999987,9.845143999999989,2277
56.56066399999988,9.845143999999989,2214
56.88466399999987,8.54914399999999,2329
54.940663999999884,9.845143999999989,3436
54.940663999999884,11.789143999999988,2192
55.91266399999988,13.085143999999987,2184
56.23666399999988,13.733143999999989,2228
55.91266399999988,13.733143999999989,2231
56.23666399999988,14.381143999999988,2251
56.23666399999988,15.029143999999986,2292
56.23666399999988,15.677143999999986,2347
56.56066399999988,14.381143999999988,2308
56.88466399999987,14.381143999999988,2278
56.23666399999988,13.085143999999987,2176
56.56066399999988,13.085143999999987,2256
56.88466399999987,12.437143999999988,2293
57.20866399999987,12.437143999999988,2309
57.53266399999987,12.437143999999988,2324
56.88466399999987,15.029143999999986,2304
56.56066399999988,15.677143999999986,2364
56.88466399999987,15.677143999999986,2383
56.88466399999987,16.325143999999987,2398
55.91266399999988,11.789143999999988,2261
57.20866399999987,10.493143999999988,2464
49.43266399999992,1.4211439999999929,1289
49.75666399999992,0.7731439999999932,1348
49.75666399999992,2.0691439999999925,1204
50.08066399999991,2.717143999999992,1191
49.75666399999992,1.4211439999999929,1350
47.81266399999993,1.4211439999999929,1369
48.136663999999925,2.0691439999999925,1584
48.46066399999992,2.0691439999999925,1351
48.136663999999925,1.4211439999999929,1378
48.78466399999992,0.1251439999999934,1531
48.46066399999992,0.1251439999999934,1325
47.81266399999993,0.1251439999999934,1384
46.84066399999993,-0.5228560000000062,1482
47.16466399999993,0.7731439999999932,1403
46.84066399999993,0.1251439999999934,1687
46.84066399999993,-1.170856000000006,1473
50.08066399999991,1.4211439999999929,1164
50.08066399999991,2.0691439999999925,1181
49.43266399999992,2.717143999999992,1239
49.75666399999992,3.365143999999992,1217
50.08066399999991,3.365143999999992,1141
49.10866399999992,2.0691439999999925,1235
49.43266399999992,2.0691439999999925,1211
48.78466399999992,0.7731439999999932,1625
48.78466399999992,-0.5228560000000062,1575
48.78466399999992,-1.170856000000006,1424
48.136663999999925,0.7731439999999932,1427
48.46066399999992,0.7731439999999932,1353
43.92466399999995,5.957143999999991,1493
44.24866399999995,5.957143999999991,1465
43.92466399999995,5.309143999999991,1361
42.95266399999996,2.717143999999992,1458
45.54466399999994,2.0691439999999925,1582
45.22066399999994,2.0691439999999925,1541
42.95266399999996,2.0691439999999925,2377
42.95266399999996,0.7731439999999932,1532
43.276663999999954,0.7731439999999932,1509
46.19266399999994,0.7731439999999932,1525
46.516663999999935,0.7731439999999932,1552
45.86866399999994,0.1251439999999934,1516
46.19266399999994,0.1251439999999934,1556
47.81266399999993,-1.170856000000006,1435
48.136663999999925,-2.4668560000000053,1387
47.48866399999993,-1.8188560000000056,1440
47.16466399999993,-1.170856000000006,1464
47.16466399999993,-0.5228560000000062,1489
46.84066399999993,-1.8188560000000056,1492
45.22066399999994,-0.5228560000000062,1369
44.89666399999994,0.1251439999999934,1364
45.22066399999994,0.7731439999999932,1420
45.54466399999994,0.7731439999999932,1466
45.86866399999994,0.7731439999999932,1600
45.22066399999994,0.1251439999999934,1467
44.89666399999994,0.7731439999999932,1373
43.92466399999995,-0.5228560000000062,1497
43.92466399999995,-1.170856000000006,1487
44.24866399999995,-1.170856000000006,1467
45.22066399999994,-1.170856000000006,1398
44.572663999999946,-0.5228560000000062,1363
44.24866399999995,0.1251439999999934,1410
44.572663999999946,0.7731439999999932,1482
43.276663999999954,-1.170856000000006,1659
42.95266399999996,-0.5228560000000062,1597
44.24866399999995,2.0691439999999925,1570
43.60066399999995,0.7731439999999932,1511
43.60066399999995,2.0691439999999925,1477
52.6726639999999,4.661143999999991,2281
52.6726639999999,5.309143999999991,2304
51.700663999999904,5.309143999999991,2249
52.0246639999999,5.309143999999991,2261
52.3486639999999,5.309143999999991,2277
51.37666399999991,4.013143999999992,2257
52.3486639999999,5.957143999999991,2271
52.0246639999999,6.60514399999999,2301
52.6726639999999,5.957143999999991,2288
52.996663999999896,5.957143999999991,2301
53.32066399999989,5.957143999999991,2295
52.996663999999896,6.60514399999999,2277
53.32066399999989,6.60514399999999,2269
52.6726639999999,6.60514399999999,2297
52.996663999999896,5.309143999999991,2316
59.15266399999986,24.101143999999977,65535
56.88466399999987,24.101143999999977,65535
56.88466399999987,23.45314399999998,65535
56.88466399999987,22.805143999999984,65535
57.20866399999987,24.74914399999998,65535
56.88466399999987,24.74914399999998,65535
56.56066399999988,24.74914399999998,65535
56.56066399999988,25.397143999999983,65535
56.56066399999988,24.101143999999977,65535
56.56066399999988,23.45314399999998,65535
56.56066399999988,26.04514399999998,65535
56.88466399999987,26.04514399999998,65535
57.20866399999987,25.397143999999983,65535
57.53266399999987,25.397143999999983,65535
56.23666399999988,26.04514399999998,65535
56.23666399999988,26.69314399999997,65535
55.91266399999988,26.69314399999997,65535
56.56066399999988,26.69314399999997,65535
56.56066399999988,27.34114399999998,65535
56.56066399999988,27.989143999999985,65535
56.23666399999988,27.989143999999985,65535
55.91266399999988,27.34114399999998,65535
56.56066399999988,22.805143999999984,65535
56.56066399999988,22.15714399999998,65535
56.56066399999988,21.50914399999997,65535
57.20866399999987,26.69314399999997,65535
39.06466399999998,-8.946856000000002,65535
38.41666399999998,-8.298856000000002,65535
45.86866399999994,11.789143999999988,1468
46.19266399999994,11.789143999999988,1455
46.19266399999994,10.493143999999988,1440
45.22066399999994,18.269143999999983,2461
45.22066399999994,18.917143999999983,2535
45.54466399999994,16.973143999999984,2319
45.22066399999994,17.621143999999987,2396
45.86866399999994,16.325143999999987,2200
45.54466399999994,18.917143999999983,2575
45.54466399999994,16.325143999999987,2275
45.54466399999994,18.269143999999983,2553
44.89666399999994,18.917143999999983,2856
46.19266399999994,16.973143999999984,2220
46.19266399999994,16.325143999999987,2206
45.86866399999994,16.973143999999984,2237
45.86866399999994,17.621143999999987,2341
46.19266399999994,15.677143999999986,1290
46.516663999999935,16.325143999999987,1295
45.54466399999994,15.677143999999986,2180
45.22066399999994,15.029143999999986,2247
45.54466399999994,15.029143999999986,1362
45.22066399999994,15.677143999999986,2264
44.572663999999946,15.677143999999986,3019
44.24866399999995,15.677143999999986,3040
43.92466399999995,16.325143999999987,2931
44.89666399999994,15.677143999999986,2983
45.54466399999994,17.621143999999987,2528
45.22066399999994,16.325143999999987,2396
46.516663999999935,16.973143999999984,2277
45.86866399999994,18.269143999999983,2654
43.92466399999995,15.677143999999986,2730
45.22066399999994,13.733143999999989,2262
47.48866399999993,19.565143999999982,952
47.16466399999993,18.917143999999983,2178
47.81266399999993,18.917143999999983,916
45.54466399999994,9.845143999999989,1219
45.22066399999994,9.845143999999989,1228
45.22066399999994,10.493143999999988,1278
45.86866399999994,9.845143999999989,1239
45.86866399999994,10.493143999999988,2358
48.78466399999992,21.50914399999997,890
49.10866399999992,20.213143999999986,861
49.10866399999992,18.917143999999983,737
48.46066399999992,17.621143999999987,851
49.43266399999992,17.621143999999987,973
49.10866399999992,17.621143999999987,832
48.136663999999925,18.269143999999983,876
49.10866399999992,18.269143999999983,786
49.43266399999992,18.269143999999983,489
49.43266399999992,16.973143999999984,763
49.75666399999992,16.973143999999984,921
49.75666399999992,16.325143999999987,814
50.08066399999991,15.677143999999986,861
50.08066399999991,15.029143999999986,875
49.43266399999992,18.917143999999983,403
47.81266399999993,20.86114399999998,1075
48.136663999999925,20.86114399999998,1010
48.46066399999992,20.86114399999998,997
48.46066399999992,21.50914399999997,904
49.10866399999992,19.565143999999982,753
48.136663999999925,17.621143999999987,877
48.78466399999992,22.15714399999998,1077
48.78466399999992,20.86114399999998,959
49.10866399999992,20.86114399999998,881
48.78466399999992,18.269143999999983,791
48.78466399999992,17.621143999999987,820
49.10866399999992,21.50914399999997,886
48.78466399999992,20.213143999999986,1310
48.46066399999992,20.213143999999986,1337
48.136663999999925,19.565143999999982,1605
48.46066399999992,19.565143999999982,1484
48.46066399999992,18.917143999999983,934
48.46066399999992,18.269143999999983,839
48.78466399999992,19.565143999999982,1250
48.78466399999992,18.917143999999983,992
47.81266399999993,18.269143999999983,907
49.10866399999992,22.15714399999998,1072
49.43266399999992,21.50914399999997,913
48.136663999999925,18.917143999999983,927
48.136663999999925,20.213143999999986,1625
52.636,-8.018,65535
52.312,-7.370000000000001,65535
52.312,-8.018,65535
52.636,-8.666,65535
51.988,-8.666,65535
51.988,-8.018,65535
52.96,-8.666,65535
52.96,-6.074000000000002,65535
53.28399999999999,-6.722000000000001,65535
53.60799999999999,-6.722000000000001,65535
53.60799999999999,-7.370000000000001,65535
53.60799999999999,-8.018,65535
54.25599999999999,-8.666,65535
53.93199999999999,-8.666,65535
53.93199999999999,-8.018,65535
52.312,-6.722000000000001,65535
52.636,-6.722000000000001,65535
53.93199999999999,-6.722000000000001,65535
54.25599999999999,-6.074000000000002,65535
53.28399999999999,-7.370000000000001,65535
52.96,-7.370000000000001,65535
52.312,-8.666,65535
52.96,-8.018,65535
52.636,-7.370000000000001,65535
52.96,-6.722000000000001,65535
51.988,-9.314,65535
52.312,-9.314,65535
54.579999999999984,-6.722000000000001,65535
54.579999999999984,-6.074000000000002,65535
53.28399999999999,-8.018,65535
53.28399999999999,-8.666,65535
53.28399999999999,-9.314,65535
53.93199999999999,-9.314,65535
54.25599999999999,-9.314,65535
53.60799999999999,-8.666,65535
53.60799999999999,-9.314,65535
49.43266399999992,14.381143999999988,935
49.75666399999992,14.381143999999988,893
49.75666399999992,15.029143999999986,886
49.75666399999992,13.733143999999989,897
50.08066399999991,13.733143999999989,893
49.75666399999992,15.677143999999986,906
50.40466399999991,15.029143999999986,890
49.43266399999992,13.733143999999989,900
50.40466399999991,15.677143999999986,947
50.40466399999991,13.733143999999989,946
46.19266399999994,15.029143999999986,1273
45.86866399999994,15.029143999999986,1322
45.86866399999994,14.381143999999988,1295
46.19266399999994,13.733143999999989,1382
45.86866399999994,13.733143999999989,1468
58.50466399999986,13.733143999999989,2401
58.180663999999865,13.733143999999989,2406
58.180663999999865,13.085143999999987,2378
57.85666399999987,12.437143999999988,2344
60.44866399999985,15.677143999999986,2627
60.124663999999854,15.677143999999986,2561
60.124663999999854,16.325143999999987,2599
59.800663999999855,16.325143999999987,2527
59.800663999999855,17.621143999999987,2506
59.47666399999986,18.269143999999983,2488
61.74466399999984,16.973143999999984,2638
61.420663999999846,16.973143999999984,2611
60.77266399999985,16.973143999999984,2563
65.63266399999982,22.15714399999998,3742
65.95666399999982,21.50914399999997,3702
65.63266399999982,20.86114399999998,3673
64.98466399999982,20.213143999999986,3605
64.66066399999983,20.213143999999986,3583
64.33666399999983,19.565143999999982,3277
64.01266399999983,19.565143999999982,2990
63.68866399999983,20.213143999999986,2943
64.66066399999983,18.917143999999983,3954
59.15266399999986,16.325143999999987,2463
59.15266399999986,15.029143999999986,2504
59.15266399999986,17.621143999999987,2480
57.53266399999987,14.381143999999988,2304
57.53266399999987,15.029143999999986,2324
61.09666399999985,14.381143999999988,2731
60.77266399999985,15.029143999999986,2682
60.44866399999985,15.029143999999986,2668
58.180663999999865,15.029143999999986,2381
58.50466399999986,16.325143999999987,2415
58.50466399999986,15.677143999999986,2388
63.36466399999984,13.085143999999987,2975
63.04066399999984,14.381143999999988,2912
62.39266399999984,15.677143999999986,2834
63.36466399999984,13.733143999999989,2957
63.36466399999984,14.381143999999988,2929
62.71666399999984,15.677143999999986,2862
62.39266399999984,17.621143999999987,2696
59.800663999999855,15.677143999999986,2973
55.58866399999988,13.733143999999989,2258
57.20866399999987,14.381143999999988,2288
57.85666399999987,14.381143999999988,2336
58.82866399999986,16.973143999999984,2472
58.82866399999986,16.325143999999987,2450
59.15266399999986,18.269143999999983,2484
60.44866399999985,17.621143999999987,2539
59.15266399999986,12.437143999999988,2443
59.15266399999986,13.085143999999987,2457
58.82866399999986,12.437143999999988,2419
59.47666399999986,16.325143999999987,2509
58.82866399999986,14.381143999999988,2496
59.47666399999986,15.677143999999986,2527
63.36466399999984,18.917143999999983,2896
63.04066399999984,17.621143999999987,2851
62.71666399999984,17.621143999999987,2825
63.68866399999983,19.565143999999982,2929
62.39266399999984,16.973143999999984,2740
59.800663999999855,16.973143999999984,2515
59.47666399999986,17.621143999999987,2492
57.85666399999987,13.085143999999987,2368
57.53266399999987,13.085143999999987,2349
58.50466399999986,11.789143999999988,2390
57.85666399999987,15.029143999999986,2370
57.20866399999987,13.733143999999989,2294
57.53266399999987,13.733143999999989,2355
61.74466399999984,16.325143999999987,2734
61.420663999999846,16.325143999999987,2701
61.09666399999985,16.325143999999987,2690
61.09666399999985,16.973143999999984,2658
60.124663999999854,15.029143999999986,2836
66.60466399999981,20.86114399999998,3777
67.25266399999981,20.86114399999998,3845
67.90066399999981,20.213143999999986,3915
67.57666399999981,20.213143999999986,4540
59.800663999999855,15.029143999999986,2556
58.50466399999986,15.029143999999986,2398
59.47666399999986,15.029143999999986,2541
60.44866399999985,16.325143999999987,2627
59.15266399999986,15.677143999999986,2485
57.85666399999987,13.733143999999989,2396
58.82866399999986,13.733143999999989,2443
58.50466399999986,13.085143999999987,2428
57.20866399999987,13.085143999999987,2325
56.88466399999987,13.085143999999987,2299
58.180663999999865,11.789143999999988,2361
62.06866399999984,16.973143999999984,2729
65.95666399999982,23.45314399999998,3783
59.800663999999855,14.381143999999988,65535
59.800663999999855,18.269143999999983,2497
63.04066399999984,15.029143999999986,2880
62.71666399999984,15.029143999999986,2870
62.39266399999984,16.325143999999987,2803
63.36466399999984,12.437143999999988,3008
68.5486639999998,17.621143999999987,4128
68.5486639999998,18.269143999999983,4061
68.5486639999998,18.917143999999983,4038
68.2246639999998,18.917143999999983,3994
59.800663999999855,13.085143999999987,2560
60.124663999999854,13.085143999999987,2599
59.47666399999986,16.973143999999984,2501
59.15266399999986,16.973143999999984,2493
56.56066399999988,13.733143999999989,2246
60.124663999999854,17.621143999999987,2516
57.85666399999987,16.325143999999987,2475
58.180663999999865,16.325143999999987,2437
58.180663999999865,15.677143999999986,2445
57.20866399999987,16.325143999999987,2487
57.53266399999987,15.677143999999986,2505
57.85666399999987,15.677143999999986,2476
44.89666399999994,23.45314399999998,2485
44.572663999999946,23.45314399999998,2555
44.89666399999994,24.74914399999998,2472
44.572663999999946,24.74914399999998,2591
44.572663999999946,24.101143999999977,2532
44.24866399999995,24.101143999999977,2561
47.48866399999993,25.397143999999983,2333
47.48866399999993,24.74914399999998,2273
47.16466399999993,24.74914399999998,2195
47.16466399999993,24.101143999999977,2097
47.48866399999993,22.15714399999998,2227
47.81266399999993,22.15714399999998,2313
47.16466399999993,22.15714399999998,2206
47.16466399999993,23.45314399999998,2258
47.16466399999993,22.805143999999984,2264
46.84066399999993,24.101143999999977,2178
45.86866399999994,27.34114399999998,2518
45.54466399999994,27.34114399999998,2499
45.54466399999994,27.989143999999985,2615
45.86866399999994,20.86114399999998,2390
45.86866399999994,21.50914399999997,2398
46.19266399999994,21.50914399999997,2334
46.19266399999994,27.34114399999998,2518
46.19266399999994,26.69314399999997,2509
46.516663999999935,26.69314399999997,2471
46.516663999999935,26.04514399999998,2367
47.48866399999993,22.805143999999984,2325
46.84066399999993,22.805143999999984,2138
45.54466399999994,22.15714399999998,2447
45.22066399999994,22.15714399999998,2525
44.89666399999994,22.15714399999998,2943
47.48866399999993,23.45314399999998,2291
46.516663999999935,24.101143999999977,2017
46.516663999999935,24.74914399999998,2231
45.86866399999994,24.101143999999977,2180
47.16466399999993,26.69314399999997,2549
47.16466399999993,27.34114399999998,2604
43.92466399999995,25.397143999999983,2563
44.24866399999995,24.74914399999998,2470
44.89666399999994,26.04514399999998,2357
44.89666399999994,26.69314399999997,2404
45.22066399999994,26.69314399999997,2439
45.22066399999994,27.34114399999998,2466
46.84066399999993,26.69314399999997,2510
47.48866399999993,26.69314399999997,2503
44.24866399999995,25.397143999999983,2402
43.92466399999995,26.04514399999998,2579
46.19266399999994,24.101143999999977,2225
44.572663999999946,25.397143999999983,2440
46.84066399999993,24.74914399999998,2238
46.516663999999935,21.50914399999997,2338
46.84066399999993,21.50914399999997,2345
44.572663999999946,26.69314399999997,2395
44.572663999999946,27.34114399999998,2416
44.89666399999994,27.34114399999998,2531
44.572663999999946,27.989143999999985,2436
44.24866399999995,27.989143999999985,2450
44.572663999999946,28.63714399999997,2501
45.86866399999994,22.15714399999998,2259
45.86866399999994,22.805143999999984,2153
44.24866399999995,23.45314399999998,2588
43.92466399999995,27.989143999999985,65535
46.84066399999993,27.34114399999998,2671
45.22066399999994,23.45314399999998,2460
45.54466399999994,23.45314399999998,2263
45.54466399999994,24.101143999999977,2210
45.22066399999994,24.101143999999977,2434
44.89666399999994,24.101143999999977,2504
46.19266399999994,22.15714399999998,2390
46.516663999999935,22.15714399999998,2356
45.22066399999994,21.50914399999997,2630
45.54466399999994,21.50914399999997,2478
45.54466399999994,20.86114399999998,2502
46.516663999999935,27.989143999999985,2621
46.19266399999994,27.989143999999985,2606
45.54466399999994,25.397143999999983,2324
45.22066399999994,25.397143999999983,2334
45.22066399999994,26.04514399999998,2390
47.81266399999993,24.101143999999977,2386
47.48866399999993,26.04514399999998,2476
47.81266399999993,26.04514399999998,2498
46.19266399999994,23.45314399999998,2057
45.86866399999994,23.45314399999998,2106
44.24866399999995,26.04514399999998,2384
45.22066399999994,27.989143999999985,2596
45.86866399999994,24.74914399999998,2219
46.516663999999935,25.397143999999983,2411
46.84066399999993,25.397143999999983,2294
46.19266399999994,26.04514399999998,2382
45.86866399999994,26.04514399999998,2347
43.92466399999995,23.45314399999998,2818
44.89666399999994,25.397143999999983,2445
46.19266399999994,20.86114399999998,2379
47.81266399999993,25.397143999999983,2510
44.572663999999946,22.805143999999984,2823
44.572663999999946,22.15714399999998,2965
46.516663999999935,23.45314399999998,2196
45.86866399999994,25.397143999999983,2273
44.24866399999995,27.34114399999998,3211
45.22066399999994,24.74914399999998,2536
45.54466399999994,22.805143999999984,2226
45.22066399999994,28.63714399999997,2656
44.89666399999994,28.63714399999997,2595
47.81266399999993,23.45314399999998,1756
46.19266399999994,24.74914399999998,2305
46.19266399999994,25.397143999999983,2329
43.92466399999995,24.101143999999977,2781
43.92466399999995,24.74914399999998,2794
47.81266399999993,26.69314399999997,2725
47.48866399999993,24.101143999999977,2318
46.84066399999993,26.04514399999998,3126
46.19266399999994,22.805143999999984,2450
47.48866399999993,27.34114399999998,2678
46.19266399999994,20.213143999999986,65535
45.54466399999994,26.04514399999998,2482
44.24866399999995,26.69314399999997,2400
45.86866399999994,27.989143999999985,2654
47.81266399999993,5.957143999999991,2266
