51.56399999999999,-0.4100000000000028,65535
51.887999999999984,-0.4100000000000028,65535
50.91599999999999,-1.7060000000000022,65535
51.23999999999999,-1.0580000000000025,65535
51.56399999999999,-1.0580000000000025,65535
51.23999999999999,-1.7060000000000022,65535
51.56399999999999,0.2379999999999968,65535
47.16466399999993,9.845143999999989,1584
47.48866399999993,9.845143999999989,1558
48.136663999999925,14.381143999999988,1451
47.81266399999993,13.085143999999987,1494
47.16466399999993,11.141143999999988,1610
47.48866399999993,11.789143999999988,2265
48.136663999999925,16.325143999999987,1165
47.48866399999993,12.437143999999988,1554
48.136663999999925,15.677143999999986,1175
47.16466399999993,10.493143999999988,1757
47.16466399999993,9.197143999999987,1568
48.136663999999925,13.733143999999989,1463
48.136663999999925,15.029143999999986,1279
47.81266399999993,16.973143999999984,1195
48.46066399999992,14.381143999999988,3784
47.48866399999993,13.085143999999987,1507
47.16466399999993,13.085143999999987,1539
47.48866399999993,14.381143999999988,1591
47.48866399999993,13.733143999999989,1585
47.48866399999993,15.029143999999986,1242
46.516663999999935,13.733143999999989,1583
46.84066399999993,13.733143999999989,1625
46.84066399999993,13.085143999999987,1580
48.78466399999992,14.381143999999988,65535
47.16466399999993,15.677143999999986,1257
46.516663999999935,14.381143999999988,1576
46.84066399999993,14.381143999999988,1633
47.16466399999993,14.381143999999988,2405
46.516663999999935,15.029143999999986,1597
47.81266399999993,16.325143999999987,1192
47.16466399999993,15.029143999999986,1283
47.81266399999993,15.677143999999986,1515
47.48866399999993,15.677143999999986,1233
46.516663999999935,13.085143999999987,2774
46.84066399999993,12.437143999999988,1679
48.136663999999925,11.789143999999988,1490
47.81266399999993,12.437143999999988,1514
46.84066399999993,15.677143999999986,1321
46.516663999999935,15.677143999999986,1438
46.84066399999993,16.325143999999987,1342
47.81266399999993,14.381143999999988,1465
48.78466399999992,16.973143999999984,1183
48.136663999999925,16.973143999999984,1134
48.46066399999992,13.733143999999989,1537
47.81266399999993,13.733143999999989,1514
50.08066399999991,8.54914399999999,1476
48.46066399999992,9.845143999999989,1525
51.05266399999991,7.25314399999999,1477
51.37666399999991,7.25314399999999,1471
51.37666399999991,6.60514399999999,1475
48.46066399999992,16.325143999999987,1167
48.46066399999992,16.973143999999984,1149
48.78466399999992,16.325143999999987,1190
48.46066399999992,15.677143999999986,1180
48.78466399999992,15.677143999999986,1187
47.48866399999993,16.325143999999987,1202
47.16466399999993,16.325143999999987,1251
46.19266399999994,14.381143999999988,1546
45.86866399999994,15.677143999999986,1584
43.60066399999995,16.325143999999987,2515
45.54466399999994,14.381143999999988,1578
45.54466399999994,13.733143999999989,1599
48.136663999999925,13.085143999999987,1488
48.46066399999992,11.141143999999988,1494
48.136663999999925,11.141143999999988,1495
48.46066399999992,7.90114399999999,1537
49.10866399999992,8.54914399999999,1501
48.78466399999992,2.0691439999999925,1634
49.10866399999992,7.25314399999999,1517
52.0246639999999,7.90114399999999,1472
47.16466399999993,11.789143999999988,1632
49.43266399999992,11.141143999999988,1447
53.64466399999989,9.845143999999989,1461
50.72866399999991,4.013143999999992,1551
51.05266399999991,11.141143999999988,1354
47.48866399999993,11.141143999999988,1533
46.84066399999993,11.789143999999988,3062
46.516663999999935,11.141143999999988,3031
45.54466399999994,11.141143999999988,2925
46.19266399999994,11.141143999999988,2997
45.86866399999994,11.141143999999988,2981
44.572663999999946,11.141143999999988,2772
43.92466399999995,12.437143999999988,65535
45.54466399999994,12.437143999999988,3012
45.54466399999994,11.789143999999988,2975
48.78466399999992,15.029143999999986,1692
47.81266399999993,15.029143999999986,1290
47.81266399999993,11.141143999999988,1508
50.40466399999991,18.917143999999983,1044
52.3486639999999,20.86114399999998,1311
54.616663999999886,18.269143999999983,1510
54.29266399999989,18.917143999999983,1488
49.10866399999992,14.381143999999988,65535
50.08066399999991,14.381143999999988,1194
48.78466399999992,13.733143999999989,1923
52.6726639999999,13.085143999999987,1370
52.3486639999999,13.085143999999987,1368
53.96866399999989,12.437143999999988,1524
54.29266399999989,12.437143999999988,1522
47.48866399999993,8.54914399999999,1580
47.81266399999993,17.621143999999987,1158
47.48866399999993,18.917143999999983,980
47.48866399999993,20.86114399999998,0
46.84066399999993,23.45314399999998,478
44.572663999999946,26.04514399999998,984
47.48866399999993,21.50914399999997,32
47.81266399999993,21.50914399999997,428
48.46066399999992,22.15714399999998,490
47.48866399999993,16.973143999999984,65535
49.10866399999992,16.325143999999987,1236
49.75666399999992,18.269143999999983,1001
46.19266399999994,13.085143999999987,2303
41.98066399999996,12.437143999999988,4005
43.60066399999995,10.493143999999988,4166
45.54466399999994,9.197143999999987,1688
47.81266399999993,22.805143999999984,283
49.75666399999992,22.805143999999984,1381
50.72866399999991,3.365143999999992,1562
51.05266399999991,4.013143999999992,1555
50.72866399999991,4.661143999999991,1549
51.05266399999991,4.661143999999991,1553
51.05266399999991,3.365143999999992,1564
51.05266399999991,2.717143999999992,1607
50.40466399999991,4.661143999999991,1563
50.72866399999991,2.717143999999992,1582
50.40466399999991,4.013143999999992,1568
51.05266399999991,5.309143999999991,1561
50.72866399999991,5.309143999999991,1528
51.37666399999991,3.365143999999992,1600
51.37666399999991,4.661143999999991,1569
50.72866399999991,5.957143999999991,1509
50.40466399999991,5.957143999999991,1513
50.40466399999991,3.365143999999992,1576
50.40466399999991,5.309143999999991,1532
50.08066399999991,5.309143999999991,1579
49.75666399999992,5.309143999999991,1589
49.75666399999992,5.957143999999991,1575
51.37666399999991,5.309143999999991,1587
51.700663999999904,4.661143999999991,1598
50.08066399999991,4.013143999999992,1600
50.08066399999991,5.957143999999991,1614
50.08066399999991,4.661143999999991,1591
49.43266399999992,5.309143999999991,1625
49.43266399999992,5.957143999999991,1588
52.0246639999999,4.661143999999991,2229
52.3486639999999,4.661143999999991,2264
50.72866399999991,15.029143999999986,1219
51.05266399999991,15.029143999999986,1234
51.05266399999991,13.733143999999989,1256
50.40466399999991,13.085143999999987,1367
49.10866399999992,7.90114399999999,1529
48.78466399999992,7.90114399999999,1520
50.40466399999991,7.90114399999999,1488
50.08066399999991,7.90114399999999,1480
49.75666399999992,7.90114399999999,1493
49.43266399999992,7.90114399999999,1505
49.75666399999992,8.54914399999999,1485
49.43266399999992,8.54914399999999,1492
49.43266399999992,9.197143999999987,1508
49.10866399999992,9.197143999999987,1508
47.48866399999993,7.90114399999999,1586
47.81266399999993,7.90114399999999,1548
48.136663999999925,7.90114399999999,1544
48.136663999999925,9.845143999999989,1528
47.81266399999993,9.197143999999987,1574
47.81266399999993,8.54914399999999,1573
47.81266399999993,9.845143999999989,1553
54.940663999999884,9.197143999999987,1521
54.616663999999886,9.197143999999987,1500
54.29266399999989,9.197143999999987,1508
53.96866399999989,9.197143999999987,1496
53.64466399999989,9.197143999999987,1487
54.616663999999886,9.845143999999989,1492
54.29266399999989,9.845143999999989,1483
53.96866399999989,9.845143999999989,1478
53.64466399999989,10.493143999999988,1451
53.96866399999989,10.493143999999988,1478
53.96866399999989,11.141143999999988,1511
54.29266399999989,10.493143999999988,1498
53.32066399999989,10.493143999999988,1433
54.940663999999884,11.141143999999988,1609
52.6726639999999,13.733143999999989,1372
52.3486639999999,13.733143999999989,1371
52.3486639999999,14.381143999999988,1360
52.0246639999999,14.381143999999988,1347
52.0246639999999,11.789143999999988,1323
52.3486639999999,11.789143999999988,1338
52.3486639999999,12.437143999999988,1358
52.0246639999999,15.029143999999986,1363
51.700663999999904,14.381143999999988,1298
52.0246639999999,13.733143999999989,1345
51.700663999999904,13.733143999999989,1327
52.6726639999999,12.437143999999988,1388
53.32066399999989,11.789143999999988,1498
53.96866399999989,11.789143999999988,1518
53.64466399999989,11.789143999999988,1492
53.64466399999989,11.141143999999988,1506
53.32066399999989,11.141143999999988,1515
52.996663999999896,11.789143999999988,1420
52.996663999999896,12.437143999999988,1404
52.996663999999896,13.733143999999989,1380
53.64466399999989,13.733143999999989,1456
53.96866399999989,13.733143999999989,1490
54.29266399999989,13.085143999999987,1533
53.96866399999989,13.085143999999987,1499
53.32066399999989,13.733143999999989,1428
52.0246639999999,13.085143999999987,1339
51.700663999999904,13.085143999999987,1306
52.996663999999896,14.381143999999988,1463
52.0246639999999,12.437143999999988,1314
51.700663999999904,12.437143999999988,1311
51.37666399999991,11.789143999999988,1321
51.37666399999991,12.437143999999988,1317
52.6726639999999,11.789143999999988,1370
53.64466399999989,13.085143999999987,1483
53.32066399999989,13.085143999999987,1425
52.996663999999896,13.085143999999987,1398
53.64466399999989,12.437143999999988,1468
51.37666399999991,13.733143999999989,1278
53.32066399999989,12.437143999999988,1435
52.6726639999999,14.381143999999988,1393
51.37666399999991,13.085143999999987,1295
53.32066399999989,14.381143999999988,1469
52.3486639999999,15.029143999999986,1367
52.0246639999999,15.677143999999986,1374
51.700663999999904,15.029143999999986,1288
51.05266399999991,16.325143999999987,1270
51.05266399999991,16.973143999999984,1258
51.700663999999904,15.677143999999986,1360
51.37666399999991,15.677143999999986,1290
51.37666399999991,16.325143999999987,1275
50.72866399999991,13.085143999999987,1318
50.72866399999991,12.437143999999988,1325
51.05266399999991,13.085143999999987,1306
51.05266399999991,14.381143999999988,1243
50.40466399999991,12.437143999999988,1331
50.40466399999991,11.789143999999988,1347
50.08066399999991,12.437143999999988,1396
50.72866399999991,11.789143999999988,1354
51.05266399999991,12.437143999999988,1322
50.72866399999991,14.381143999999988,1274
51.37666399999991,14.381143999999988,1258
50.72866399999991,13.733143999999989,1295
50.40466399999991,14.381143999999988,1199
51.37666399999991,15.029143999999986,1254
55.26466399999988,9.197143999999987,1788
55.58866399999988,8.54914399999999,1822
55.91266399999988,8.54914399999999,2239
56.23666399999988,9.197143999999987,2247
56.23666399999988,10.493143999999988,2200
56.23666399999988,9.845143999999989,2187
55.91266399999988,9.845143999999989,2125
56.56066399999988,9.197143999999987,2257
56.56066399999988,8.54914399999999,2300
51.05266399999991,6.60514399999999,1484
51.700663999999904,7.90114399999999,1461
50.72866399999991,6.60514399999999,1488
51.700663999999904,7.25314399999999,1470
50.72866399999991,7.25314399999999,1496
52.0246639999999,7.25314399999999,1465
52.3486639999999,7.90114399999999,1442
51.05266399999991,5.957143999999991,1504
50.40466399999991,7.25314399999999,1495
51.700663999999904,6.60514399999999,1480
51.700663999999904,5.957143999999991,1508
52.3486639999999,9.197143999999987,1411
51.700663999999904,8.54914399999999,1453
52.0246639999999,8.54914399999999,1429
52.3486639999999,8.54914399999999,1418
51.37666399999991,7.90114399999999,1464
52.3486639999999,7.25314399999999,1458
51.37666399999991,5.957143999999991,1481
50.72866399999991,7.90114399999999,1489
51.37666399999991,9.197143999999987,1463
51.700663999999904,9.197143999999987,1446
50.40466399999991,6.60514399999999,1546
51.05266399999991,7.90114399999999,1493
51.37666399999991,8.54914399999999,1481
52.0246639999999,5.957143999999991,1551
52.3486639999999,6.60514399999999,1466
51.05266399999991,8.54914399999999,1524
52.0246639999999,9.197143999999987,1412
52.6726639999999,9.197143999999987,1470
52.0246639999999,9.845143999999989,1442
51.700663999999904,9.845143999999989,1423
51.37666399999991,9.845143999999989,1449
50.72866399999991,8.54914399999999,1478
51.05266399999991,9.845143999999989,1488
50.72866399999991,9.845143999999989,1509
50.40466399999991,9.845143999999989,1495
51.05266399999991,9.197143999999987,1520
50.40466399999991,9.197143999999987,1473
50.08066399999991,9.197143999999987,1465
51.05266399999991,10.493143999999988,1402
50.40466399999991,8.54914399999999,1472
50.72866399999991,9.197143999999987,1504
49.75666399999992,9.197143999999987,1505
52.996663999999896,9.197143999999987,1461
52.3486639999999,9.845143999999989,1402
52.996663999999896,8.54914399999999,1457
52.996663999999896,7.90114399999999,1469
53.32066399999989,7.90114399999999,1483
53.32066399999989,7.25314399999999,1514
53.64466399999989,7.25314399999999,1618
52.996663999999896,10.493143999999988,1410
52.6726639999999,10.493143999999988,1416
52.6726639999999,9.845143999999989,1421
53.32066399999989,9.845143999999989,1460
53.32066399999989,9.197143999999987,1467
53.64466399999989,8.54914399999999,1498
53.32066399999989,8.54914399999999,1477
52.6726639999999,8.54914399999999,1443
52.0246639999999,10.493143999999988,1412
52.0246639999999,11.141143999999988,1368
51.700663999999904,11.141143999999988,1360
52.6726639999999,7.25314399999999,1794
52.996663999999896,7.25314399999999,1822
52.6726639999999,7.90114399999999,1481
53.64466399999989,7.90114399999999,1511
52.996663999999896,11.141143999999988,1382
52.6726639999999,11.141143999999988,1377
52.3486639999999,10.493143999999988,1388
52.996663999999896,9.845143999999989,1476
51.700663999999904,10.493143999999988,1377
51.37666399999991,10.493143999999988,1391
51.700663999999904,11.789143999999988,1334
52.3486639999999,11.141143999999988,1378
51.37666399999991,11.141143999999988,1388
51.05266399999991,11.789143999999988,1347
49.10866399999992,11.141143999999988,1463
48.78466399999992,11.141143999999988,1475
48.46066399999992,11.789143999999988,1486
49.43266399999992,11.789143999999988,1420
50.08066399999991,11.789143999999988,1352
49.75666399999992,12.437143999999988,1429
49.10866399999992,11.789143999999988,1449
48.78466399999992,12.437143999999988,1464
48.46066399999992,12.437143999999988,1483
49.10866399999992,12.437143999999988,1452
48.78466399999992,13.085143999999987,1491
48.136663999999925,12.437143999999988,1509
47.81266399999993,11.789143999999988,1507
48.136663999999925,10.493143999999988,1503
47.81266399999993,10.493143999999988,1512
48.78466399999992,10.493143999999988,1488
47.48866399999993,10.493143999999988,1537
48.46066399999992,10.493143999999988,1518
49.43266399999992,13.085143999999987,1493
48.46066399999992,13.085143999999987,1511
49.43266399999992,10.493143999999988,1458
49.75666399999992,9.845143999999989,1480
49.75666399999992,10.493143999999988,1444
50.40466399999991,11.141143999999988,1388
50.08066399999991,11.141143999999988,1381
50.72866399999991,11.141143999999988,1366
49.75666399999992,11.141143999999988,1395
48.78466399999992,11.789143999999988,1466
50.40466399999991,10.493143999999988,1433
50.08066399999991,9.845143999999989,1456
50.08066399999991,10.493143999999988,1421
49.43266399999992,12.437143999999988,1453
49.75666399999992,11.789143999999988,1391
49.10866399999992,13.085143999999987,1490
50.72866399999991,10.493143999999988,1411
49.10866399999992,10.493143999999988,1478
48.78466399999992,9.845143999999989,1516
48.46066399999992,8.54914399999999,1528
48.46066399999992,9.197143999999987,1544
48.78466399999992,9.197143999999987,1513
48.78466399999992,8.54914399999999,1505
50.08066399999991,7.25314399999999,1533
49.75666399999992,6.60514399999999,1551
49.43266399999992,6.60514399999999,1546
49.10866399999992,6.60514399999999,1532
49.43266399999992,7.25314399999999,1514
49.75666399999992,7.25314399999999,1524
49.10866399999992,5.957143999999991,1566
48.78466399999992,7.25314399999999,1541
50.08066399999991,6.60514399999999,1548
47.48866399999993,9.197143999999987,1562
48.136663999999925,8.54914399999999,1542
48.136663999999925,9.197143999999987,1545
47.81266399999993,7.25314399999999,1566
49.43266399999992,9.845143999999989,1487
49.10866399999992,9.845143999999989,1510
53.64466399999989,14.381143999999988,1463
50.08066399999991,13.085143999999987,1258
49.75666399999992,13.085143999999987,1295
45.86866399999994,9.197143999999987,1678
46.19266399999994,9.197143999999987,1664
46.516663999999935,8.54914399999999,1610
46.516663999999935,9.197143999999987,1659
46.19266399999994,8.54914399999999,1661
47.16466399999993,8.54914399999999,1577
45.86866399999994,4.661143999999991,1770
46.84066399999993,9.845143999999989,1593
45.22066399999994,5.957143999999991,1830
45.22066399999994,5.309143999999991,1782
45.86866399999994,5.957143999999991,1740
45.54466399999994,5.957143999999991,1772
44.89666399999994,4.661143999999991,1764
44.89666399999994,5.309143999999991,1771
44.572663999999946,4.661143999999991,2299
44.24866399999995,4.661143999999991,2268
43.92466399999995,4.661143999999991,1812
46.19266399999994,7.25314399999999,1657
48.78466399999992,5.957143999999991,1604
48.136663999999925,6.60514399999999,1603
48.46066399999992,6.60514399999999,1586
48.78466399999992,6.60514399999999,1616
47.16466399999993,7.90114399999999,1588
48.136663999999925,7.25314399999999,1569
48.46066399999992,7.25314399999999,1548
46.516663999999935,6.60514399999999,1660
46.84066399999993,6.60514399999999,1627
46.84066399999993,7.25314399999999,1608
46.516663999999935,5.957143999999991,1670
46.19266399999994,5.957143999999991,1679
46.84066399999993,8.54914399999999,1581
46.84066399999993,7.90114399999999,1595
45.86866399999994,5.309143999999991,1774
46.19266399999994,6.60514399999999,1669
45.86866399999994,6.60514399999999,1680
47.48866399999993,6.60514399999999,1616
47.48866399999993,7.25314399999999,1595
47.16466399999993,7.25314399999999,1591
49.10866399999992,4.013143999999992,1613
49.75666399999992,4.661143999999991,1677
49.43266399999992,4.661143999999991,1660
49.10866399999992,5.309143999999991,1586
46.19266399999994,4.661143999999991,1790
46.84066399999993,9.197143999999987,1584
46.19266399999994,5.309143999999991,1781
46.516663999999935,5.309143999999991,1739
45.54466399999994,6.60514399999999,1805
45.54466399999994,5.309143999999991,1816
43.60066399999995,4.013143999999992,1842
43.60066399999995,3.365143999999992,1878
42.62866399999996,2.717143999999992,1945
43.276663999999954,2.717143999999992,1909
45.54466399999994,4.661143999999991,1880
45.22066399999994,4.661143999999991,2269
47.16466399999993,5.309143999999991,1660
47.16466399999993,5.957143999999991,1642
46.19266399999994,7.90114399999999,1626
49.75666399999992,2.717143999999992,1617
49.10866399999992,2.717143999999992,1647
48.78466399999992,2.717143999999992,1644
45.86866399999994,3.365143999999992,2333
46.84066399999993,3.365143999999992,1835
46.516663999999935,3.365143999999992,2286
46.19266399999994,3.365143999999992,2319
47.16466399999993,6.60514399999999,1628
49.10866399999992,3.365143999999992,1682
45.54466399999994,4.013143999999992,2237
46.516663999999935,7.25314399999999,1648
47.16466399999993,4.661143999999991,1703
46.84066399999993,4.661143999999991,1723
46.516663999999935,4.661143999999991,1777
46.84066399999993,5.957143999999991,1693
47.81266399999993,3.365143999999992,1724
47.48866399999993,4.013143999999992,1690
48.136663999999925,4.013143999999992,1713
47.81266399999993,4.013143999999992,1700
47.48866399999993,4.661143999999991,1667
47.16466399999993,3.365143999999992,1823
46.84066399999993,4.013143999999992,2304
48.46066399999992,5.957143999999991,1730
46.19266399999994,2.717143999999992,1958
47.16466399999993,2.0691439999999925,1750
46.516663999999935,2.717143999999992,1931
46.84066399999993,2.717143999999992,1911
46.84066399999993,2.0691439999999925,1883
47.16466399999993,2.717143999999992,1814
44.572663999999946,5.309143999999991,1906
44.572663999999946,5.957143999999991,2261
44.89666399999994,6.60514399999999,1860
44.572663999999946,6.60514399999999,2227
43.60066399999995,5.309143999999991,1840
43.92466399999995,7.25314399999999,2361
43.60066399999995,6.60514399999999,2352
43.276663999999954,6.60514399999999,2339
43.276663999999954,5.957143999999991,2266
45.86866399999994,8.54914399999999,1685
45.54466399999994,8.54914399999999,1692
48.136663999999925,3.365143999999992,1710
48.46066399999992,3.365143999999992,1718
48.46066399999992,2.717143999999992,1693
47.48866399999993,5.309143999999991,1705
46.516663999999935,9.845143999999989,1604
46.84066399999993,10.493143999999988,1633
47.81266399999993,5.309143999999991,1733
45.22066399999994,6.60514399999999,1822
46.19266399999994,4.013143999999992,1825
45.86866399999994,4.013143999999992,1802
45.22066399999994,4.013143999999992,2283
44.89666399999994,4.013143999999992,2361
46.84066399999993,5.309143999999991,1710
48.136663999999925,-1.8188560000000056,1765
48.136663999999925,0.1251439999999934,1707
48.136663999999925,-0.5228560000000062,1737
47.48866399999993,-0.5228560000000062,1751
47.16466399999993,-1.8188560000000056,1791
47.48866399999993,0.7731439999999932,1698
47.16466399999993,0.1251439999999934,1740
45.86866399999994,7.25314399999999,1699
48.136663999999925,5.309143999999991,1776
49.10866399999992,4.661143999999991,1649
48.46066399999992,4.013143999999992,1730
48.136663999999925,4.661143999999991,1797
47.81266399999993,6.60514399999999,1651
47.48866399999993,5.957143999999991,1810
48.136663999999925,5.957143999999991,2846
45.86866399999994,7.90114399999999,1647
46.516663999999935,7.90114399999999,1609
49.43266399999992,3.365143999999992,1645
49.43266399999992,4.013143999999992,1661
48.136663999999925,2.717143999999992,1748
47.81266399999993,2.717143999999992,1760
47.48866399999993,2.717143999999992,1779
50.40466399999991,2.717143999999992,1612
48.46066399999992,-4.410856000000004,1903
48.46066399999992,-3.7628560000000046,1859
48.46066399999992,-3.114856000000005,1844
48.46066399999992,-2.4668560000000053,1816
47.48866399999993,1.4211439999999929,1758
47.16466399999993,1.4211439999999929,1780
46.516663999999935,4.013143999999992,2312
43.60066399999995,4.661143999999991,2287
44.89666399999994,2.717143999999992,2369
45.22066399999994,2.717143999999992,2400
45.54466399999994,3.365143999999992,2345
45.22066399999994,3.365143999999992,2374
47.48866399999993,3.365143999999992,2293
46.19266399999994,9.845143999999989,2333
47.81266399999993,2.0691439999999925,1705
47.48866399999993,2.0691439999999925,1763
45.86866399999994,2.717143999999992,2357
44.89666399999994,5.957143999999991,2291
45.22066399999994,1.4211439999999929,1920
44.89666399999994,1.4211439999999929,2147
44.89666399999994,2.0691439999999925,2329
43.276663999999954,2.0691439999999925,2275
43.60066399999995,1.4211439999999929,2322
48.78466399999992,4.661143999999991,1666
48.78466399999992,5.309143999999991,1631
46.19266399999994,2.0691439999999925,2309
45.86866399999994,1.4211439999999929,1857
46.19266399999994,1.4211439999999929,1822
44.572663999999946,4.013143999999992,2455
44.89666399999994,3.365143999999992,2434
43.92466399999995,4.013143999999992,2267
44.24866399999995,4.013143999999992,2326
44.89666399999994,-0.5228560000000062,1807
45.54466399999994,0.1251439999999934,1768
46.516663999999935,0.1251439999999934,1735
44.572663999999946,2.0691439999999925,2247
49.75666399999992,4.013143999999992,1626
43.92466399999995,3.365143999999992,2376
43.92466399999995,2.717143999999992,2407
44.24866399999995,3.365143999999992,2432
44.572663999999946,3.365143999999992,2477
49.10866399999992,0.1251439999999934,1760
49.43266399999992,0.7731439999999932,1738
49.43266399999992,-1.8188560000000056,1916
49.10866399999992,-1.170856000000006,1891
49.10866399999992,-0.5228560000000062,1785
49.10866399999992,0.7731439999999932,1743
49.10866399999992,1.4211439999999929,1713
47.81266399999993,-1.8188560000000056,1806
47.81266399999993,-2.4668560000000053,1831
47.81266399999993,-3.114856000000005,1844
48.136663999999925,-3.7628560000000046,1908
44.572663999999946,9.197143999999987,1736
44.89666399999994,8.54914399999999,1706
45.22066399999994,9.197143999999987,1699
45.54466399999994,10.493143999999988,2287
44.572663999999946,10.493143999999988,2758
44.89666399999994,10.493143999999988,2353
44.89666399999994,9.845143999999989,1841
48.46066399999992,5.309143999999991,2314
50.91599999999999,-1.0580000000000025,65535
51.23999999999999,-0.4100000000000028,65535
50.91599999999999,-0.4100000000000028,65535
51.23999999999999,-2.354000000000002,65535
51.56399999999999,-2.354000000000002,65535
51.56399999999999,-3.0020000000000016,65535
50.91599999999999,-2.354000000000002,65535
53.50799999999997,-3.0020000000000016,65535
53.183999999999976,-2.354000000000002,65535
53.183999999999976,-3.0020000000000016,65535
52.85999999999998,-2.354000000000002,65535
52.21199999999998,-1.0580000000000025,65535
51.887999999999984,-1.0580000000000025,65535
52.53599999999998,-1.0580000000000025,65535
52.53599999999998,-1.7060000000000022,65535
52.85999999999998,-1.7060000000000022,65535
53.50799999999997,-2.354000000000002,65535
52.85999999999998,-1.0580000000000025,65535
52.53599999999998,1.5339999999999965,65535
52.53599999999998,0.8859999999999966,65535
52.53599999999998,0.2379999999999968,65535
52.53599999999998,-0.4100000000000028,65535
53.50799999999997,-1.7060000000000022,65535
53.183999999999976,-1.7060000000000022,65535
53.183999999999976,-1.0580000000000025,65535
52.85999999999998,-0.4100000000000028,65535
51.887999999999984,-2.354000000000002,65535
52.21199999999998,-2.354000000000002,65535
55.77599999999996,-2.354000000000002,65535
53.83199999999997,-1.0580000000000025,65535
53.83199999999997,-1.7060000000000022,65535
55.127999999999965,-1.7060000000000022,65535
54.80399999999997,-1.7060000000000022,65535
54.47999999999997,-1.7060000000000022,65535
54.15599999999997,-1.0580000000000025,65535
52.21199999999998,-1.7060000000000022,65535
53.50799999999997,-1.0580000000000025,65535
55.77599999999996,-3.0020000000000016,65535
55.45199999999996,-1.7060000000000022,65535
57.07199999999995,-2.354000000000002,65535
56.74799999999996,-3.0020000000000016,65535
56.42399999999996,-3.0020000000000016,65535
56.09999999999996,-3.650000000000001,65535
50.91599999999999,-3.0020000000000016,65535
50.91599999999999,-3.650000000000001,65535
50.59199999999999,-3.650000000000001,65535
50.59199999999999,-4.298000000000001,65535
51.23999999999999,-3.0020000000000016,65535
50.268,-4.946000000000001,65535
55.77599999999996,-3.650000000000001,65535
55.77599999999996,-4.298000000000001,65535
52.21199999999998,-0.4100000000000028,65535
52.53599999999998,-2.354000000000002,65535
51.56399999999999,-1.7060000000000022,65535
51.56399999999999,-3.650000000000001,65535
51.887999999999984,-4.298000000000001,65535
51.56399999999999,-4.298000000000001,65535
51.887999999999984,-1.7060000000000022,65535
52.21199999999998,-3.0020000000000016,65535
51.23999999999999,0.2379999999999968,65535
50.91599999999999,0.2379999999999968,65535
52.21199999999998,0.2379999999999968,65535
53.83199999999997,-3.0020000000000016,65535
54.15599999999997,-3.0020000000000016,65535
54.47999999999997,-3.0020000000000016,65535
55.127999999999965,-3.650000000000001,65535
54.80399999999997,-3.0020000000000016,65535
53.83199999999997,-2.354000000000002,65535
54.15599999999997,-0.4100000000000028,65535
54.47999999999997,-1.0580000000000025,65535
53.83199999999997,-0.4100000000000028,65535
53.183999999999976,-3.650000000000001,65535
53.183999999999976,-4.298000000000001,65535
52.85999999999998,-3.0020000000000016,65535
52.53599999999998,-3.0020000000000016,65535
51.887999999999984,-3.0020000000000016,65535
51.23999999999999,0.8859999999999966,65535
51.887999999999984,0.2379999999999968,65535
52.21199999999998,0.8859999999999966,65535
51.887999999999984,-4.946000000000001,65535
52.53599999999998,-3.650000000000001,65535
52.21199999999998,-4.298000000000001,65535
53.183999999999976,-0.4100000000000028,65535
51.23999999999999,-3.650000000000001,65535
51.887999999999984,-3.650000000000001,65535
52.21199999999998,-3.650000000000001,65535
51.56399999999999,0.8859999999999966,65535
51.887999999999984,0.8859999999999966,65535
52.85999999999998,0.8859999999999966,65535
53.50799999999997,-0.4100000000000028,65535
56.09999999999996,-4.298000000000001,65535
56.74799999999996,-4.946000000000001,65535
56.74799999999996,-4.298000000000001,65535
56.42399999999996,-4.946000000000001,65535
56.42399999999996,-4.298000000000001,65535
56.09999999999996,-4.946000000000001,65535
57.39599999999995,-4.298000000000001,65535
57.39599999999995,-3.0020000000000016,65535
57.39599999999995,-3.650000000000001,65535
56.42399999999996,-3.650000000000001,65535
57.07199999999995,-3.650000000000001,65535
57.07199999999995,-4.298000000000001,65535
56.74799999999996,-3.650000000000001,65535
59.15266399999986,27.34114399999998,65535
59.47666399999986,26.69314399999997,65535
59.47666399999986,26.04514399999998,65535
59.15266399999986,26.04514399999998,65535
59.15266399999986,24.74914399999998,65535
59.15266399999986,25.397143999999983,65535
59.47666399999986,25.397143999999983,65535
58.50466399999986,26.69314399999997,65535
58.82866399999986,26.69314399999997,65535
57.85666399999987,26.04514399999998,65535
58.180663999999865,26.04514399999998,65535
58.180663999999865,26.69314399999997,65535
58.82866399999986,26.04514399999998,65535
58.50466399999986,25.397143999999983,65535
58.82866399999986,25.397143999999983,65535
58.82866399999986,24.74914399999998,65535
58.180663999999865,27.34114399999998,65535
57.85666399999987,27.34114399999998,65535
63.68866399999983,27.34114399999998,65535
60.124663999999854,24.74914399999998,65535
60.44866399999985,24.74914399999998,65535
60.44866399999985,25.397143999999983,65535
60.77266399999985,25.397143999999983,65535
61.09666399999985,26.04514399999998,65535
60.77266399999985,26.04514399999998,65535
60.77266399999985,26.69314399999997,65535
61.09666399999985,25.397143999999983,65535
61.09666399999985,26.69314399999997,65535
61.420663999999846,26.69314399999997,65535
61.74466399999984,27.34114399999998,65535
62.06866399999984,27.34114399999998,65535
62.39266399999984,27.34114399999998,65535
62.71666399999984,27.34114399999998,65535
64.01266399999983,27.34114399999998,65535
63.36466399999984,27.34114399999998,65535
63.04066399999984,27.34114399999998,65535
63.04066399999984,27.989143999999985,65535
64.33666399999983,27.989143999999985,65535
64.33666399999983,27.34114399999998,65535
64.66066399999983,27.34114399999998,65535
64.66066399999983,26.69314399999997,4756
64.98466399999982,25.397143999999983,4519
64.66066399999983,26.04514399999998,4736
64.98466399999982,26.04514399999998,4720
66.28066399999982,25.397143999999983,65535
65.95666399999982,24.74914399999998,4432
65.63266399999982,24.74914399999998,4436
65.63266399999982,25.397143999999983,4478
65.30866399999982,25.397143999999983,4499
66.60466399999981,25.397143999999983,65535
64.01266399999983,24.74914399999998,4656
64.01266399999983,24.101143999999977,4691
64.01266399999983,23.45314399999998,4715
63.68866399999983,23.45314399999998,4727
63.68866399999983,22.805143999999984,4752
63.68866399999983,26.04514399999998,65535
63.68866399999983,25.397143999999983,65535
63.68866399999983,26.69314399999997,65535
60.44866399999985,26.69314399999997,65535
64.01266399999983,27.989143999999985,65535
62.71666399999984,22.805143999999984,65535
62.39266399999984,22.805143999999984,65535
62.06866399999984,22.805143999999984,65535
62.06866399999984,23.45314399999998,65535
61.74466399999984,23.45314399999998,65535
61.420663999999846,23.45314399999998,65535
61.09666399999985,23.45314399999998,65535
61.09666399999985,24.101143999999977,65535
61.09666399999985,24.74914399999998,65535
60.77266399999985,24.74914399999998,65535
63.04066399999984,21.50914399999997,65535
63.04066399999984,22.15714399999998,65535
63.04066399999984,22.805143999999984,65535
62.39266399999984,26.04514399999998,65535
62.06866399999984,25.397143999999983,65535
61.74466399999984,25.397143999999983,65535
61.74466399999984,24.74914399999998,65535
61.74466399999984,24.101143999999977,65535
61.420663999999846,24.101143999999977,65535
62.39266399999984,26.69314399999997,65535
64.66066399999983,25.397143999999983,4588
64.66066399999983,24.74914399999998,4606
64.33666399999983,24.74914399999998,4617
63.36466399999984,22.805143999999984,4777
67.25266399999981,24.101143999999977,65535
66.92866399999981,24.101143999999977,65535
66.60466399999981,23.45314399999998,65535
66.28066399999982,23.45314399999998,65535
66.28066399999982,24.101143999999977,65535
65.95666399999982,24.101143999999977,3804
60.124663999999854,24.101143999999977,65535
60.124663999999854,23.45314399999998,65535
60.44866399999985,22.805143999999984,65535
60.77266399999985,27.34114399999998,65535
61.09666399999985,27.989143999999985,65535
61.09666399999985,28.63714399999997,65535
61.420663999999846,29.28514399999997,65535
61.74466399999984,29.933143999999977,65535
62.06866399999984,29.933143999999977,65535
62.39266399999984,29.933143999999977,65535
62.71666399999984,29.933143999999977,65535
61.420663999999846,22.805143999999984,65535
61.420663999999846,22.15714399999998,65535
61.09666399999985,22.15714399999998,65535
61.420663999999846,21.50914399999997,65535
62.39266399999984,27.989143999999985,65535
62.06866399999984,27.989143999999985,65535
61.420663999999846,27.34114399999998,65535
63.04066399999984,29.933143999999977,65535
63.68866399999983,29.28514399999997,65535
63.36466399999984,29.28514399999997,65535
63.36466399999984,29.933143999999977,65535
60.44866399999985,27.34114399999998,65535
61.74466399999984,29.28514399999997,65535
62.39266399999984,30.58114399999998,65535
62.71666399999984,31.229143999999977,65535
62.71666399999984,29.28514399999997,65535
63.04066399999984,28.63714399999997,65535
66.60466399999981,26.04514399999998,65535
66.60466399999981,26.69314399999997,65535
66.60466399999981,27.34114399999998,65535
62.71666399999984,26.04514399999998,65535
62.71666399999984,25.397143999999983,65535
63.04066399999984,25.397143999999983,65535
63.36466399999984,25.397143999999983,65535
62.71666399999984,23.45314399999998,65535
62.39266399999984,24.101143999999977,65535
62.71666399999984,22.15714399999998,65535
62.39266399999984,22.15714399999998,65535
62.39266399999984,21.50914399999997,65535
61.09666399999985,21.50914399999997,65535
60.77266399999985,22.805143999999984,65535
60.44866399999985,22.15714399999998,65535
60.77266399999985,23.45314399999998,65535
60.77266399999985,21.50914399999997,65535
60.77266399999985,22.15714399999998,65535
60.124663999999854,22.805143999999984,65535
60.44866399999985,24.101143999999977,65535
62.06866399999984,24.74914399999998,65535
50.72866399999991,16.325143999999987,1310
50.40466399999991,16.973143999999984,1219
50.72866399999991,16.973143999999984,1296
50.40466399999991,16.325143999999987,1212
50.08066399999991,16.973143999999984,1223
50.08066399999991,16.325143999999987,1164
51.700663999999904,16.973143999999984,1310
51.37666399999991,16.973143999999984,1275
51.05266399999991,15.677143999999986,1342
50.72866399999991,15.677143999999986,1324
51.05266399999991,17.621143999999987,1254
51.37666399999991,17.621143999999987,1381
51.700663999999904,17.621143999999987,1409
51.700663999999904,16.325143999999987,1334
52.0246639999999,22.15714399999998,1378
52.0246639999999,21.50914399999997,1337
52.3486639999999,21.50914399999997,1314
52.0246639999999,20.86114399999998,1317
51.700663999999904,20.86114399999998,1313
51.37666399999991,21.50914399999997,1296
51.37666399999991,20.86114399999998,1278
51.05266399999991,20.86114399999998,1232
52.6726639999999,23.45314399999998,1506
52.3486639999999,22.805143999999984,1446
52.3486639999999,20.213143999999986,1334
52.0246639999999,20.213143999999986,1335
52.3486639999999,19.565143999999982,1402
52.6726639999999,19.565143999999982,1426
51.700663999999904,21.50914399999997,1390
51.700663999999904,22.15714399999998,1421
52.6726639999999,21.50914399999997,1353
52.996663999999896,21.50914399999997,1405
52.6726639999999,20.86114399999998,1343
52.6726639999999,22.15714399999998,1369
52.6726639999999,20.213143999999986,1420
52.996663999999896,19.565143999999982,1486
52.996663999999896,20.86114399999998,1376
52.996663999999896,20.213143999999986,1385
53.32066399999989,20.213143999999986,1481
51.37666399999991,20.213143999999986,1393
52.3486639999999,16.973143999999984,1387
52.0246639999999,16.973143999999984,1373
52.0246639999999,16.325143999999987,1351
52.0246639999999,17.621143999999987,1411
52.6726639999999,16.973143999999984,1414
52.996663999999896,16.973143999999984,1472
52.3486639999999,16.325143999999987,1400
52.3486639999999,15.677143999999986,1399
51.700663999999904,18.269143999999983,1494
52.6726639999999,17.621143999999987,1410
52.3486639999999,17.621143999999987,1394
52.6726639999999,18.269143999999983,1441
52.3486639999999,18.269143999999983,1438
52.3486639999999,18.917143999999983,1482
52.996663999999896,17.621143999999987,1507
51.700663999999904,19.565143999999982,1397
51.700663999999904,18.917143999999983,1501
51.37666399999991,18.269143999999983,1366
58.82866399999986,9.197143999999987,2768
58.180663999999865,7.90114399999999,2861
58.50466399999986,8.54914399999999,2812
63.36466399999984,10.493143999999988,2983
63.36466399999984,11.141143999999988,2990
63.36466399999984,11.789143999999988,3025
63.68866399999983,11.789143999999988,3053
64.33666399999983,12.437143999999988,3454
64.66066399999983,12.437143999999988,3949
65.63266399999982,13.085143999999987,3606
65.95666399999982,13.085143999999987,3641
66.28066399999982,14.381143999999988,3711
65.95666399999982,13.733143999999989,3780
66.28066399999982,13.733143999999989,3689
65.30866399999982,13.085143999999987,3907
64.98466399999982,13.085143999999987,3541
64.01266399999983,11.789143999999988,3084
63.68866399999983,11.141143999999988,3021
59.800663999999855,10.493143999999988,2564
59.800663999999855,11.141143999999988,2547
60.124663999999854,11.141143999999988,2562
60.44866399999985,11.141143999999988,2575
60.124663999999854,11.789143999999988,2588
60.77266399999985,7.25314399999999,2824
60.77266399999985,6.60514399999999,2870
59.15266399999986,9.197143999999987,2650
59.47666399999986,9.197143999999987,2671
59.800663999999855,9.845143999999989,2566
59.47666399999986,11.141143999999988,2511
61.09666399999985,10.493143999999988,2685
60.77266399999985,10.493143999999988,2655
60.77266399999985,11.141143999999988,2610
62.06866399999984,9.197143999999987,3010
61.74466399999984,9.845143999999989,2956
61.420663999999846,9.845143999999989,2933
59.15266399999986,9.845143999999989,2630
59.47666399999986,9.845143999999989,2606
58.82866399999986,5.957143999999991,3045
58.180663999999865,7.25314399999999,2917
58.50466399999986,7.25314399999999,2950
58.50466399999986,6.60514399999999,2955
58.50466399999986,5.957143999999991,3013
58.82866399999986,8.54914399999999,2798
60.44866399999985,7.25314399999999,2798
60.44866399999985,7.90114399999999,2759
60.124663999999854,10.493143999999988,2596
60.44866399999985,9.197143999999987,2708
60.77266399999985,9.197143999999987,2720
60.77266399999985,8.54914399999999,2739
60.124663999999854,9.845143999999989,2975
60.44866399999985,10.493143999999988,2641
63.04066399999984,10.493143999999988,2934
62.06866399999984,9.845143999999989,3035
62.39266399999984,9.845143999999989,3043
62.71666399999984,9.845143999999989,3067
59.47666399999986,14.381143999999988,2560
59.47666399999986,13.733143999999989,2501
59.47666399999986,13.085143999999987,2477
59.800663999999855,12.437143999999988,2546
59.15266399999986,11.141143999999988,2475
59.15266399999986,14.381143999999988,2574
58.82866399999986,11.789143999999988,2455
58.50466399999986,12.437143999999988,2385
58.180663999999865,12.437143999999988,2378
57.85666399999987,11.789143999999988,2329
62.71666399999984,7.90114399999999,3096
62.39266399999984,7.90114399999999,3053
62.06866399999984,8.54914399999999,3028
60.44866399999985,5.309143999999991,2944
60.44866399999985,5.957143999999991,2911
60.77266399999985,5.957143999999991,2900
62.39266399999984,11.141143999999988,2831
62.06866399999984,10.493143999999988,2786
61.74466399999984,11.141143999999988,2759
61.420663999999846,11.141143999999988,2713
61.09666399999985,11.141143999999988,2696
60.77266399999985,11.789143999999988,2673
63.04066399999984,11.141143999999988,2912
62.71666399999984,11.141143999999988,2855
62.39266399999984,10.493143999999988,2813
67.25266399999981,15.677143999999986,3830
67.25266399999981,15.029143999999986,3868
67.25266399999981,14.381143999999988,3896
66.92866399999981,15.029143999999986,3819
66.60466399999981,15.677143999999986,3797
64.01266399999983,11.141143999999988,3068
66.60466399999981,15.029143999999986,3860
54.29266399999989,18.269143999999983,1501
54.616663999999886,17.621143999999987,1514
53.96866399999989,18.269143999999983,1524
43.92466399999995,1.4211439999999929,2276
44.24866399999995,0.7731439999999932,2340
44.572663999999946,0.1251439999999934,2319
46.84066399999993,1.4211439999999929,1781
44.572663999999946,1.4211439999999929,2212
44.24866399999995,1.4211439999999929,2250
45.54466399999994,1.4211439999999929,1884
46.516663999999935,1.4211439999999929,1798
42.30466399999996,2.717143999999992,2431
44.24866399999995,2.717143999999992,2346
44.572663999999946,2.717143999999992,2313
43.92466399999995,2.0691439999999925,2319
42.30466399999996,2.0691439999999925,2472
42.62866399999996,2.0691439999999925,2379
42.62866399999996,1.4211439999999929,2372
42.95266399999996,1.4211439999999929,2365
43.276663999999954,1.4211439999999929,2319
46.516663999999935,-1.170856000000006,1864
46.19266399999994,-1.170856000000006,1826
45.86866399999994,-0.5228560000000062,1844
45.54466399999994,-0.5228560000000062,1823
48.46066399999992,1.4211439999999929,1669
41.332663999999966,2.0691439999999925,2674
41.98066399999996,2.717143999999992,2633
48.46066399999992,-1.8188560000000056,2334
47.81266399999993,0.7731439999999932,1767
46.84066399999993,0.7731439999999932,1771
44.572663999999946,-1.170856000000006,1857
43.60066399999995,-1.170856000000006,2311
43.276663999999954,-1.8188560000000056,2346
43.276663999999954,0.1251439999999934,2380
42.95266399999996,0.1251439999999934,2384
43.276663999999954,-0.5228560000000062,2348
43.60066399999995,-0.5228560000000062,2336
47.81266399999993,-3.7628560000000046,1876
47.48866399999993,-2.4668560000000053,1854
47.81266399999993,-0.5228560000000062,1745
46.516663999999935,-1.8188560000000056,1879
48.136663999999925,-1.170856000000006,1782
47.48866399999993,-1.170856000000006,1796
45.22066399999994,8.54914399999999,1697
45.22066399999994,7.90114399999999,1752
46.19266399999994,-0.5228560000000062,1782
46.516663999999935,-0.5228560000000062,1830
48.78466399999992,-3.114856000000005,2336
50.72866399999991,2.0691439999999925,1613
50.40466399999991,2.0691439999999925,1680
40.36066399999997,-3.7628560000000046,2865
41.65666399999997,-1.170856000000006,2782
41.332663999999966,1.4211439999999929,2720
43.276663999999954,13.733143999999989,65535
42.95266399999996,13.733143999999989,65535
41.65666399999997,15.029143999999986,65535
40.68466399999997,17.621143999999987,65535
43.60066399999995,13.085143999999987,65535
41.65666399999997,12.437143999999988,4009
41.65666399999997,13.085143999999987,4028
41.98066399999996,13.085143999999987,4078
41.65666399999997,13.733143999999989,4080
41.332663999999966,13.733143999999989,4072
41.332663999999966,14.381143999999988,4229
41.00866399999997,14.381143999999988,4135
41.332663999999966,13.085143999999987,4054
41.00866399999997,15.029143999999986,4335
41.98066399999996,13.733143999999989,4277
42.30466399999996,14.381143999999988,4416
42.30466399999996,12.437143999999988,4017
42.62866399999996,12.437143999999988,4196
42.95266399999996,12.437143999999988,4481
42.30466399999996,11.789143999999988,4026
42.95266399999996,11.789143999999988,4236
42.62866399999996,11.789143999999988,4227
43.276663999999954,11.789143999999988,4290
42.95266399999996,13.085143999999987,65535
42.30466399999996,13.085143999999987,4303
43.276663999999954,13.085143999999987,65535
43.276663999999954,12.437143999999988,65535
42.62866399999996,11.141143999999988,4072
42.95266399999996,11.141143999999988,4115
42.95266399999996,10.493143999999988,4133
44.572663999999946,8.54914399999999,1730
44.89666399999994,7.90114399999999,1732
44.89666399999994,9.197143999999987,1760
44.24866399999995,7.90114399999999,1800
44.572663999999946,7.90114399999999,1757
43.92466399999995,7.90114399999999,2403
44.24866399999995,7.25314399999999,1836
44.89666399999994,7.25314399999999,1818
45.22066399999994,7.25314399999999,1798
45.54466399999994,7.90114399999999,1781
44.572663999999946,7.25314399999999,2302
52.996663999999896,22.805143999999984,1603
52.996663999999896,23.45314399999998,1593
51.37666399999991,22.15714399999998,1539
51.37666399999991,22.805143999999984,1586
50.08066399999991,20.213143999999986,1013
50.72866399999991,20.213143999999986,1164
50.40466399999991,20.213143999999986,1090
50.08066399999991,20.86114399999998,1203
50.08066399999991,21.50914399999997,1279
50.08066399999991,22.15714399999998,1317
50.08066399999991,22.805143999999984,1351
53.96866399999989,22.805143999999984,1827
53.64466399999989,23.45314399999998,1780
53.32066399999989,23.45314399999998,1737
50.40466399999991,19.565143999999982,1029
50.08066399999991,18.917143999999983,1038
50.08066399999991,18.269143999999983,1232
52.0246639999999,22.805143999999984,1545
52.0246639999999,23.45314399999998,1584
51.37666399999991,19.565143999999982,1474
51.05266399999991,19.565143999999982,1393
50.72866399999991,18.917143999999983,1297
50.72866399999991,19.565143999999982,1249
49.75666399999992,18.917143999999983,978
50.40466399999991,18.269143999999983,1127
53.64466399999989,19.565143999999982,1638
53.96866399999989,18.917143999999983,1495
53.64466399999989,18.917143999999983,1557
53.64466399999989,20.213143999999986,1627
52.996663999999896,18.917143999999983,1568
52.996663999999896,18.269143999999983,1533
53.32066399999989,18.917143999999983,1681
50.72866399999991,17.621143999999987,1212
50.72866399999991,18.269143999999983,1197
52.6726639999999,16.325143999999987,1423
52.996663999999896,16.325143999999987,1435
52.996663999999896,15.677143999999986,1454
53.32066399999989,15.677143999999986,1524
53.32066399999989,15.029143999999986,1495
53.64466399999989,15.029143999999986,1491
53.96866399999989,15.029143999999986,1477
52.6726639999999,18.917143999999983,1634
53.32066399999989,16.325143999999987,1657
52.6726639999999,15.029143999999986,1450
51.05266399999991,22.805143999999984,1577
51.05266399999991,23.45314399999998,1664
50.72866399999991,22.15714399999998,1447
50.40466399999991,22.15714399999998,1389
51.05266399999991,22.15714399999998,1538
54.616663999999886,16.973143999999984,1556
54.29266399999989,16.325143999999987,1542
53.96866399999989,15.677143999999986,1490
50.72866399999991,21.50914399999997,1437
50.40466399999991,21.50914399999997,1369
50.40466399999991,17.621143999999987,1269
53.32066399999989,22.805143999999984,2237
53.64466399999989,22.15714399999998,2197
54.29266399999989,16.973143999999984,1557
50.72866399999991,20.86114399999998,1203
51.700663999999904,22.805143999999984,1788
51.05266399999991,21.50914399999997,1301
50.08066399999991,19.565143999999982,1001
52.0246639999999,18.917143999999983,3688
52.0246639999999,19.565143999999982,3681
53.64466399999989,18.269143999999983,1573
51.700663999999904,20.213143999999986,1400
53.32066399999989,19.565143999999982,1698
50.72866399999991,23.45314399999998,1801
50.72866399999991,22.805143999999984,1771
49.43266399999992,20.213143999999986,1025
49.75666399999992,21.50914399999997,1416
49.75666399999992,22.15714399999998,1404
49.43266399999992,22.15714399999998,1212
51.05266399999991,18.917143999999983,1376
51.05266399999991,18.269143999999983,1314
53.32066399999989,16.973143999999984,1598
53.64466399999989,16.973143999999984,1620
49.75666399999992,20.86114399999998,1082
50.40466399999991,22.805143999999984,3770
53.64466399999989,16.325143999999987,1593
53.96866399999989,20.86114399999998,1749
54.29266399999989,20.86114399999998,1795
53.96866399999989,21.50914399999997,1812
53.64466399999989,15.677143999999986,1504
53.96866399999989,20.213143999999986,1656
53.96866399999989,19.565143999999982,1524
54.29266399999989,19.565143999999982,1534
53.96866399999989,16.325143999999987,1564
53.64466399999989,17.621143999999987,1583
53.96866399999989,22.15714399999998,1878
53.64466399999989,21.50914399999997,2246
53.64466399999989,20.86114399999998,1683
52.6726639999999,15.677143999999986,1458
51.05266399999991,20.213143999999986,1456
54.940663999999884,24.101143999999977,65535
54.616663999999886,23.45314399999998,65535
54.29266399999989,23.45314399999998,65535
53.64466399999989,22.805143999999984,2260
53.96866399999989,16.973143999999984,1654
50.40466399999991,20.86114399999998,1303
53.32066399999989,18.269143999999983,1610
49.75666399999992,19.565143999999982,998
50.40466399999991,23.45314399999998,1885
49.75666399999992,20.213143999999986,1029
49.43266399999992,19.565143999999982,1005
49.43266399999992,20.86114399999998,936
53.96866399999989,17.621143999999987,2283
42.30466399999996,-1.8188560000000056,3999
41.98066399999996,-1.8188560000000056,3982
41.65666399999997,0.7731439999999932,3986
42.62866399999996,-1.8188560000000056,4114
42.95266399999996,-1.8188560000000056,4143
42.62866399999996,-3.114856000000005,4237
42.95266399999996,-2.4668560000000053,4215
42.62866399999996,-7.650856000000003,4579
42.30466399999996,-7.650856000000003,4639
42.30466399999996,-8.946856000000002,4775
42.30466399999996,-8.298856000000002,4749
41.98066399999996,-8.298856000000002,4738
42.30466399999996,-7.002856000000003,4521
42.62866399999996,-6.354856000000003,4463
42.30466399999996,-6.354856000000003,4418
42.62866399999996,-5.706856000000004,3918
41.98066399999996,-4.410856000000004,3872
42.30466399999996,-3.7628560000000046,4263
40.03666399999997,-0.5228560000000062,3966
39.38866399999998,-0.5228560000000062,4014
41.00866399999997,0.7731439999999932,4114
40.68466399999997,0.7731439999999932,4146
40.36066399999997,0.1251439999999934,4224
39.712663999999975,-0.5228560000000062,4123
38.41666399999998,-0.5228560000000062,4135
39.06466399999998,-0.5228560000000062,4257
38.74066399999998,-1.170856000000006,4143
41.332663999999966,0.7731439999999932,4174
41.65666399999997,2.717143999999992,3774
41.65666399999997,2.0691439999999925,3797
41.332663999999966,0.1251439999999934,4132
41.332663999999966,-0.5228560000000062,4076
41.65666399999997,-4.410856000000004,3846
40.03666399999997,-2.4668560000000053,4084
41.00866399999997,-4.410856000000004,3967
43.276663999999954,-5.706856000000004,4048
39.38866399999998,-1.170856000000006,4109
38.09266399999999,-1.170856000000006,4522
38.74066399999998,-0.5228560000000062,4285
37.76866399999999,-1.170856000000006,4587
39.06466399999998,-1.8188560000000056,4107
39.38866399999998,-3.114856000000005,4007
39.38866399999998,-2.4668560000000053,4063
39.06466399999998,-2.4668560000000053,4090
39.06466399999998,-3.114856000000005,4011
39.06466399999998,-3.7628560000000046,3985
38.74066399999998,-3.7628560000000046,4064
40.03666399999997,-3.7628560000000046,3963
40.03666399999997,-3.114856000000005,4163
40.03666399999997,-1.8188560000000056,4244
39.712663999999975,-1.8188560000000056,4209
39.712663999999975,-1.170856000000006,4145
40.36066399999997,-1.170856000000006,4164
40.68466399999997,-1.170856000000006,4142
41.00866399999997,-1.170856000000006,4130
41.332663999999966,-1.170856000000006,3970
43.276663999999954,-8.298856000000002,4739
42.95266399999996,-8.298856000000002,4707
41.65666399999997,-5.706856000000004,65535
41.98066399999996,-7.002856000000003,65535
41.98066399999996,-6.354856000000003,65535
41.332663999999966,-5.058856000000004,4085
43.276663999999954,-3.7628560000000046,4520
42.95266399999996,-4.410856000000004,4454
42.62866399999996,-4.410856000000004,4444
42.30466399999996,-4.410856000000004,4403
41.00866399999997,-5.706856000000004,4023
41.332663999999966,-1.8188560000000056,3916
40.68466399999997,-3.114856000000005,3870
41.00866399999997,-3.114856000000005,3921
41.00866399999997,-2.4668560000000053,3944
41.332663999999966,-2.4668560000000053,3997
40.68466399999997,-4.410856000000004,3907
40.36066399999997,-4.410856000000004,3991
40.68466399999997,-3.7628560000000046,3899
40.36066399999997,-3.114856000000005,3877
41.65666399999997,-2.4668560000000053,4014
38.09266399999999,-3.7628560000000046,4111
38.74066399999998,-3.114856000000005,4055
37.76866399999999,-3.7628560000000046,4168
39.712663999999975,-3.114856000000005,3999
38.41666399999998,-3.7628560000000046,4076
40.03666399999997,-4.410856000000004,65535
40.03666399999997,-5.058856000000004,65535
39.38866399999998,-6.354856000000003,65535
39.38866399999998,-7.002856000000003,65535
42.95266399999996,-3.114856000000005,4648
41.98066399999996,-1.170856000000006,4011
42.30466399999996,-2.4668560000000053,4052
41.65666399999997,-0.5228560000000062,4109
41.98066399999996,-0.5228560000000062,3946
41.65666399999997,0.1251439999999934,3973
41.98066399999996,0.1251439999999934,3995
37.76866399999999,-5.058856000000004,4047
36.79666399999999,-4.410856000000004,4106
38.74066399999998,-4.410856000000004,4003
37.12066399999999,-4.410856000000004,4080
37.44466399999999,-5.058856000000004,4604
37.44466399999999,-7.002856000000003,65535
37.44466399999999,-6.354856000000003,65535
37.44466399999999,-5.706856000000004,4280
39.712663999999975,-3.7628560000000046,4073
42.62866399999996,-8.946856000000002,65535
42.30466399999996,-5.706856000000004,4425
42.30466399999996,-5.058856000000004,4510
42.95266399999996,-5.706856000000004,3950
41.00866399999997,-5.058856000000004,3991
40.68466399999997,-5.058856000000004,3965
41.65666399999997,-5.058856000000004,65535
41.65666399999997,-6.354856000000003,65535
36.79666399999999,-6.354856000000003,65535
37.12066399999999,-5.706856000000004,4448
37.76866399999999,-5.706856000000004,4247
38.09266399999999,-4.410856000000004,4382
37.12066399999999,-5.058856000000004,4402
36.79666399999999,-5.058856000000004,4360
37.76866399999999,-4.410856000000004,65535
37.76866399999999,-7.002856000000003,65535
38.41666399999998,-6.354856000000003,65535
38.09266399999999,-6.354856000000003,65535
48.78466399999992,1.4211439999999929,1762
56.23666399999988,8.54914399999999,2290
55.58866399999988,9.197143999999987,2095
55.91266399999988,9.197143999999987,2236
55.26466399999988,10.493143999999988,1972
55.91266399999988,12.437143999999988,2109
55.58866399999988,11.789143999999988,2115
55.58866399999988,11.141143999999988,2106
55.26466399999988,11.789143999999988,2124
55.58866399999988,10.493143999999988,2091
55.58866399999988,13.085143999999987,2085
56.88466399999987,9.845143999999989,2242
57.20866399999987,9.845143999999989,2277
56.56066399999988,9.845143999999989,2214
56.88466399999987,8.54914399999999,2329
54.940663999999884,9.845143999999989,3436
54.940663999999884,11.789143999999988,2192
55.91266399999988,13.085143999999987,2184
56.23666399999988,13.733143999999989,2228
55.91266399999988,13.733143999999989,2231
56.23666399999988,14.381143999999988,2251
56.23666399999988,15.029143999999986,2292
56.23666399999988,15.677143999999986,2347
56.56066399999988,14.381143999999988,2308
56.88466399999987,14.381143999999988,2278
56.23666399999988,13.085143999999987,2176
56.56066399999988,13.085143999999987,2256
56.88466399999987,12.437143999999988,2293
57.20866399999987,12.437143999999988,2309
57.53266399999987,12.437143999999988,2324
56.88466399999987,15.029143999999986,2304
56.56066399999988,15.677143999999986,2364
56.88466399999987,15.677143999999986,2383
56.88466399999987,16.325143999999987,2398
55.91266399999988,11.789143999999988,2261
57.20866399999987,10.493143999999988,2464
49.43266399999992,1.4211439999999929,1766
49.75666399999992,0.7731439999999932,1809
49.75666399999992,2.0691439999999925,1689
50.08066399999991,2.717143999999992,1641
49.75666399999992,1.4211439999999929,1781
47.81266399999993,1.4211439999999929,1734
48.136663999999925,2.0691439999999925,1732
48.46066399999992,2.0691439999999925,1704
48.136663999999925,1.4211439999999929,1695
48.78466399999992,0.1251439999999934,2327
48.46066399999992,0.1251439999999934,2323
47.81266399999993,0.1251439999999934,1797
46.84066399999993,-0.5228560000000062,1764
47.16466399999993,0.7731439999999932,2303
46.84066399999993,0.1251439999999934,1756
46.84066399999993,-1.170856000000006,1837
50.08066399999991,1.4211439999999929,1718
50.08066399999991,2.0691439999999925,1735
49.43266399999992,2.717143999999992,1652
49.75666399999992,3.365143999999992,1632
50.08066399999991,3.365143999999992,1601
49.10866399999992,2.0691439999999925,1742
49.43266399999992,2.0691439999999925,1727
48.78466399999992,0.7731439999999932,2377
48.78466399999992,-0.5228560000000062,2497
48.78466399999992,-1.170856000000006,2389
48.136663999999925,0.7731439999999932,1735
48.46066399999992,0.7731439999999932,1680
43.92466399999995,5.957143999999991,2306
44.24866399999995,5.957143999999991,2277
43.92466399999995,5.309143999999991,1841
42.95266399999996,2.717143999999992,2270
45.54466399999994,2.0691439999999925,2324
45.22066399999994,2.0691439999999925,2328
42.95266399999996,2.0691439999999925,2377
42.95266399999996,0.7731439999999932,2368
43.276663999999954,0.7731439999999932,2334
46.19266399999994,0.7731439999999932,2244
46.516663999999935,0.7731439999999932,2286
45.86866399999994,0.1251439999999934,2307
46.19266399999994,0.1251439999999934,2324
47.81266399999993,-1.170856000000006,2416
48.136663999999925,-2.4668560000000053,2328
47.48866399999993,-1.8188560000000056,1838
47.16466399999993,-1.170856000000006,1828
47.16466399999993,-0.5228560000000062,1863
46.84066399999993,-1.8188560000000056,2400
45.22066399999994,-0.5228560000000062,2306
44.89666399999994,0.1251439999999934,2229
45.22066399999994,0.7731439999999932,1923
45.54466399999994,0.7731439999999932,1896
45.86866399999994,0.7731439999999932,2372
45.22066399999994,0.1251439999999934,2313
44.89666399999994,0.7731439999999932,2283
43.92466399999995,-0.5228560000000062,2347
43.92466399999995,-1.170856000000006,2291
44.24866399999995,-1.170856000000006,2271
45.22066399999994,-1.170856000000006,2393
44.572663999999946,-0.5228560000000062,2294
44.24866399999995,0.1251439999999934,2341
44.572663999999946,0.7731439999999932,2427
43.276663999999954,-1.170856000000006,2330
42.95266399999996,-0.5228560000000062,2532
44.24866399999995,2.0691439999999925,2319
43.60066399999995,0.7731439999999932,2351
43.60066399999995,2.0691439999999925,2293
52.6726639999999,4.661143999999991,2281
52.6726639999999,5.309143999999991,2304
51.700663999999904,5.309143999999991,2249
52.0246639999999,5.309143999999991,2261
52.3486639999999,5.309143999999991,2277
51.37666399999991,4.013143999999992,2257
52.3486639999999,5.957143999999991,2271
52.0246639999999,6.60514399999999,2301
52.6726639999999,5.957143999999991,2288
52.996663999999896,5.957143999999991,2301
53.32066399999989,5.957143999999991,2295
52.996663999999896,6.60514399999999,2277
53.32066399999989,6.60514399999999,2269
52.6726639999999,6.60514399999999,2297
52.996663999999896,5.309143999999991,2316
59.15266399999986,24.101143999999977,65535
56.88466399999987,24.101143999999977,65535
56.88466399999987,23.45314399999998,65535
56.88466399999987,22.805143999999984,65535
57.20866399999987,24.74914399999998,65535
56.88466399999987,24.74914399999998,65535
56.56066399999988,24.74914399999998,65535
56.56066399999988,25.397143999999983,65535
56.56066399999988,24.101143999999977,65535
56.56066399999988,23.45314399999998,65535
56.56066399999988,26.04514399999998,65535
56.88466399999987,26.04514399999998,65535
57.20866399999987,25.397143999999983,65535
57.53266399999987,25.397143999999983,65535
56.23666399999988,26.04514399999998,65535
56.23666399999988,26.69314399999997,65535
55.91266399999988,26.69314399999997,65535
56.56066399999988,26.69314399999997,65535
56.56066399999988,27.34114399999998,65535
56.56066399999988,27.989143999999985,65535
56.23666399999988,27.989143999999985,65535
55.91266399999988,27.34114399999998,65535
56.56066399999988,22.805143999999984,65535
56.56066399999988,22.15714399999998,65535
56.56066399999988,21.50914399999997,65535
57.20866399999987,26.69314399999997,65535
39.06466399999998,-8.946856000000002,65535
38.41666399999998,-8.298856000000002,65535
45.86866399999994,11.789143999999988,3028
46.19266399999994,11.789143999999988,3015
46.19266399999994,10.493143999999988,3055
45.22066399999994,18.269143999999983,2461
45.22066399999994,18.917143999999983,2535
45.54466399999994,16.973143999999984,2319
45.22066399999994,17.621143999999987,2396
45.86866399999994,16.325143999999987,2200
45.54466399999994,18.917143999999983,2575
45.54466399999994,16.325143999999987,2275
45.54466399999994,18.269143999999983,2553
44.89666399999994,18.917143999999983,2856
46.19266399999994,16.973143999999984,2220
46.19266399999994,16.325143999999987,2206
45.86866399999994,16.973143999999984,2237
45.86866399999994,17.621143999999987,2341
46.19266399999994,15.677143999999986,1468
46.516663999999935,16.325143999999987,1402
45.54466399999994,15.677143999999986,2180
45.22066399999994,15.029143999999986,2247
45.54466399999994,15.029143999999986,1603
45.22066399999994,15.677143999999986,2264
44.572663999999946,15.677143999999986,3019
44.24866399999995,15.677143999999986,3040
43.92466399999995,16.325143999999987,2931
44.89666399999994,15.677143999999986,2983
45.54466399999994,17.621143999999987,2528
45.22066399999994,16.325143999999987,2396
46.516663999999935,16.973143999999984,2277
45.86866399999994,18.269143999999983,2654
43.92466399999995,15.677143999999986,2730
45.22066399999994,13.733143999999989,2262
47.48866399999993,19.565143999999982,1012
47.16466399999993,18.917143999999983,2178
47.81266399999993,18.917143999999983,1015
45.54466399999994,9.845143999999989,1699
45.22066399999994,9.845143999999989,1708
45.22066399999994,10.493143999999988,2298
45.86866399999994,9.845143999999989,1719
45.86866399999994,10.493143999999988,3798
48.78466399999992,21.50914399999997,735
49.10866399999992,20.213143999999986,901
49.10866399999992,18.917143999999983,939
48.46066399999992,17.621143999999987,1107
49.43266399999992,17.621143999999987,1050
49.10866399999992,17.621143999999987,1237
48.136663999999925,18.269143999999983,1080
49.10866399999992,18.269143999999983,1047
49.43266399999992,18.269143999999983,978
49.43266399999992,16.973143999999984,1081
49.75666399999992,16.973143999999984,1094
49.75666399999992,16.325143999999987,1139
50.08066399999991,15.677143999999986,1170
50.08066399999991,15.029143999999986,1186
49.43266399999992,18.917143999999983,955
47.81266399999993,20.86114399999998,955
48.136663999999925,20.86114399999998,900
48.46066399999992,20.86114399999998,804
48.46066399999992,21.50914399999997,690
49.10866399999992,19.565143999999982,911
48.136663999999925,17.621143999999987,1122
48.78466399999992,22.15714399999998,1077
48.78466399999992,20.86114399999998,959
49.10866399999992,20.86114399999998,815
48.78466399999992,18.269143999999983,1090
48.78466399999992,17.621143999999987,1229
49.10866399999992,21.50914399999997,751
48.78466399999992,20.213143999999986,1310
48.46066399999992,20.213143999999986,1337
48.136663999999925,19.565143999999982,1605
48.46066399999992,19.565143999999982,1484
48.46066399999992,18.917143999999983,1226
48.46066399999992,18.269143999999983,1103
48.78466399999992,19.565143999999982,1250
48.78466399999992,18.917143999999983,1168
47.81266399999993,18.269143999999983,1098
49.10866399999992,22.15714399999998,1124
49.43266399999992,21.50914399999997,814
48.136663999999925,18.917143999999983,1306
48.136663999999925,20.213143999999986,1625
52.636,-8.018,65535
52.312,-7.370000000000001,65535
52.312,-8.018,65535
52.636,-8.666,65535
51.988,-8.666,65535
51.988,-8.018,65535
52.96,-8.666,65535
52.96,-6.074000000000002,65535
53.28399999999999,-6.722000000000001,65535
53.60799999999999,-6.722000000000001,65535
53.60799999999999,-7.370000000000001,65535
53.60799999999999,-8.018,65535
54.25599999999999,-8.666,65535
53.93199999999999,-8.666,65535
53.93199999999999,-8.018,65535
52.312,-6.722000000000001,65535
52.636,-6.722000000000001,65535
53.93199999999999,-6.722000000000001,65535
54.25599999999999,-6.074000000000002,65535
53.28399999999999,-7.370000000000001,65535
52.96,-7.370000000000001,65535
52.312,-8.666,65535
52.96,-8.018,65535
52.636,-7.370000000000001,65535
52.96,-6.722000000000001,65535
51.988,-9.314,65535
52.312,-9.314,65535
54.579999999999984,-6.722000000000001,65535
54.579999999999984,-6.074000000000002,65535
53.28399999999999,-8.018,65535
53.28399999999999,-8.666,65535
53.28399999999999,-9.314,65535
53.93199999999999,-9.314,65535
54.25599999999999,-9.314,65535
53.60799999999999,-8.666,65535
53.60799999999999,-9.314,65535
49.43266399999992,14.381143999999988,1235
49.75666399999992,14.381143999999988,1202
49.75666399999992,15.029143999999986,1198
49.75666399999992,13.733143999999989,1206
50.08066399999991,13.733143999999989,1217
49.75666399999992,15.677143999999986,1199
50.40466399999991,15.029143999999986,1215
49.43266399999992,13.733143999999989,1326
50.40466399999991,15.677143999999986,1307
50.40466399999991,13.733143999999989,1243
46.19266399999994,15.029143999999986,1526
45.86866399999994,15.029143999999986,1543
45.86866399999994,14.381143999999988,1555
46.19266399999994,13.733143999999989,1668
45.86866399999994,13.733143999999989,1737
58.50466399999986,13.733143999999989,2401
58.180663999999865,13.733143999999989,2406
58.180663999999865,13.085143999999987,2378
57.85666399999987,12.437143999999988,2344
60.44866399999985,15.677143999999986,2627
60.124663999999854,15.677143999999986,2561
60.124663999999854,16.325143999999987,2599
59.800663999999855,16.325143999999987,2527
59.800663999999855,17.621143999999987,2506
59.47666399999986,18.269143999999983,2488
61.74466399999984,16.973143999999984,2638
61.420663999999846,16.973143999999984,2611
60.77266399999985,16.973143999999984,2563
65.63266399999982,22.15714399999998,3742
65.95666399999982,21.50914399999997,3702
65.63266399999982,20.86114399999998,3673
64.98466399999982,20.213143999999986,3605
64.66066399999983,20.213143999999986,3583
64.33666399999983,19.565143999999982,3277
64.01266399999983,19.565143999999982,2990
63.68866399999983,20.213143999999986,2943
64.66066399999983,18.917143999999983,3954
59.15266399999986,16.325143999999987,2463
59.15266399999986,15.029143999999986,2504
59.15266399999986,17.621143999999987,2480
57.53266399999987,14.381143999999988,2304
57.53266399999987,15.029143999999986,2324
61.09666399999985,14.381143999999988,2731
60.77266399999985,15.029143999999986,2682
60.44866399999985,15.029143999999986,2668
58.180663999999865,15.029143999999986,2381
58.50466399999986,16.325143999999987,2415
58.50466399999986,15.677143999999986,2388
63.36466399999984,13.085143999999987,2975
63.04066399999984,14.381143999999988,2912
62.39266399999984,15.677143999999986,2834
63.36466399999984,13.733143999999989,2957
63.36466399999984,14.381143999999988,2929
62.71666399999984,15.677143999999986,2862
62.39266399999984,17.621143999999987,2696
59.800663999999855,15.677143999999986,2973
55.58866399999988,13.733143999999989,2258
57.20866399999987,14.381143999999988,2288
57.85666399999987,14.381143999999988,2336
58.82866399999986,16.973143999999984,2472
58.82866399999986,16.325143999999987,2450
59.15266399999986,18.269143999999983,2484
60.44866399999985,17.621143999999987,2539
59.15266399999986,12.437143999999988,2443
59.15266399999986,13.085143999999987,2457
58.82866399999986,12.437143999999988,2419
59.47666399999986,16.325143999999987,2509
58.82866399999986,14.381143999999988,2496
59.47666399999986,15.677143999999986,2527
63.36466399999984,18.917143999999983,2896
63.04066399999984,17.621143999999987,2851
62.71666399999984,17.621143999999987,2825
63.68866399999983,19.565143999999982,2929
62.39266399999984,16.973143999999984,2740
59.800663999999855,16.973143999999984,2515
59.47666399999986,17.621143999999987,2492
57.85666399999987,13.085143999999987,2368
57.53266399999987,13.085143999999987,2349
58.50466399999986,11.789143999999988,2390
57.85666399999987,15.029143999999986,2370
57.20866399999987,13.733143999999989,2294
57.53266399999987,13.733143999999989,2355
61.74466399999984,16.325143999999987,2734
61.420663999999846,16.325143999999987,2701
61.09666399999985,16.325143999999987,2690
61.09666399999985,16.973143999999984,2658
60.124663999999854,15.029143999999986,2836
66.60466399999981,20.86114399999998,3777
67.25266399999981,20.86114399999998,3845
67.90066399999981,20.213143999999986,3915
67.57666399999981,20.213143999999986,4540
59.800663999999855,15.029143999999986,2556
58.50466399999986,15.029143999999986,2398
59.47666399999986,15.029143999999986,2541
60.44866399999985,16.325143999999987,2627
59.15266399999986,15.677143999999986,2485
57.85666399999987,13.733143999999989,2396
58.82866399999986,13.733143999999989,2443
58.50466399999986,13.085143999999987,2428
57.20866399999987,13.085143999999987,2325
56.88466399999987,13.085143999999987,2299
58.180663999999865,11.789143999999988,2361
62.06866399999984,16.973143999999984,2729
65.95666399999982,23.45314399999998,3783
59.800663999999855,14.381143999999988,65535
59.800663999999855,18.269143999999983,2497
63.04066399999984,15.029143999999986,2880
62.71666399999984,15.029143999999986,2870
62.39266399999984,16.325143999999987,2803
63.36466399999984,12.437143999999988,3008
68.5486639999998,17.621143999999987,4128
68.5486639999998,18.269143999999983,4061
68.5486639999998,18.917143999999983,4038
68.2246639999998,18.917143999999983,3994
59.800663999999855,13.085143999999987,2560
60.124663999999854,13.085143999999987,2599
59.47666399999986,16.973143999999984,2501
59.15266399999986,16.973143999999984,2493
56.56066399999988,13.733143999999989,2246
60.124663999999854,17.621143999999987,2516
57.85666399999987,16.325143999999987,2475
58.180663999999865,16.325143999999987,2437
58.180663999999865,15.677143999999986,2445
57.20866399999987,16.325143999999987,2487
57.53266399999987,15.677143999999986,2505
57.85666399999987,15.677143999999986,2476
44.89666399999994,23.45314399999998,1045
44.572663999999946,23.45314399999998,1115
44.89666399999994,24.74914399999998,1084
44.572663999999946,24.74914399999998,1160
44.572663999999946,24.101143999999977,1149
44.24866399999995,24.101143999999977,1130
47.48866399999993,25.397143999999983,893
47.48866399999993,24.74914399999998,833
47.16466399999993,24.74914399999998,755
47.16466399999993,24.101143999999977,657
47.48866399999993,22.15714399999998,657
47.81266399999993,22.15714399999998,632
47.16466399999993,22.15714399999998,726
47.16466399999993,23.45314399999998,818
47.16466399999993,22.805143999999984,824
46.84066399999993,24.101143999999977,738
45.86866399999994,27.34114399999998,1188
45.54466399999994,27.34114399999998,1150
45.54466399999994,27.989143999999985,1175
45.86866399999994,20.86114399999998,883
45.86866399999994,21.50914399999997,861
46.19266399999994,21.50914399999997,846
46.19266399999994,27.34114399999998,1166
46.19266399999994,26.69314399999997,1266
46.516663999999935,26.69314399999997,1031
46.516663999999935,26.04514399999998,927
47.48866399999993,22.805143999999984,885
46.84066399999993,22.805143999999984,698
45.54466399999994,22.15714399999998,911
45.22066399999994,22.15714399999998,929
44.89666399999994,22.15714399999998,987
47.48866399999993,23.45314399999998,851
46.516663999999935,24.101143999999977,577
46.516663999999935,24.74914399999998,791
45.86866399999994,24.101143999999977,740
47.16466399999993,26.69314399999997,1109
47.16466399999993,27.34114399999998,1164
43.92466399999995,25.397143999999983,1123
44.24866399999995,24.74914399999998,1030
44.89666399999994,26.04514399999998,943
44.89666399999994,26.69314399999997,1004
45.22066399999994,26.69314399999997,1021
45.22066399999994,27.34114399999998,1107
46.84066399999993,26.69314399999997,1070
47.48866399999993,26.69314399999997,1063
44.24866399999995,25.397143999999983,1018
43.92466399999995,26.04514399999998,1139
46.19266399999994,24.101143999999977,785
44.572663999999946,25.397143999999983,1012
46.84066399999993,24.74914399999998,798
46.516663999999935,21.50914399999997,822
46.84066399999993,21.50914399999997,783
44.572663999999946,26.69314399999997,996
44.572663999999946,27.34114399999998,1006
44.89666399999994,27.34114399999998,1106
44.572663999999946,27.989143999999985,1043
44.24866399999995,27.989143999999985,1058
44.572663999999946,28.63714399999997,1078
45.86866399999994,22.15714399999998,819
45.86866399999994,22.805143999999984,713
44.24866399999995,23.45314399999998,1120
43.92466399999995,27.989143999999985,65535
46.84066399999993,27.34114399999998,1283
45.22066399999994,23.45314399999998,1020
45.54466399999994,23.45314399999998,823
45.54466399999994,24.101143999999977,770
45.22066399999994,24.101143999999977,1060
44.89666399999994,24.101143999999977,1290
46.19266399999994,22.15714399999998,891
46.516663999999935,22.15714399999998,916
45.22066399999994,21.50914399999997,952
45.54466399999994,21.50914399999997,925
45.54466399999994,20.86114399999998,932
46.516663999999935,27.989143999999985,1272
46.19266399999994,27.989143999999985,1244
45.54466399999994,25.397143999999983,900
45.22066399999994,25.397143999999983,907
45.22066399999994,26.04514399999998,950
47.81266399999993,24.101143999999977,946
47.48866399999993,26.04514399999998,1036
47.81266399999993,26.04514399999998,1058
46.19266399999994,23.45314399999998,617
45.86866399999994,23.45314399999998,666
44.24866399999995,26.04514399999998,998
45.22066399999994,27.989143999999985,1156
45.86866399999994,24.74914399999998,779
46.516663999999935,25.397143999999983,971
46.84066399999993,25.397143999999983,854
46.19266399999994,26.04514399999998,942
45.86866399999994,26.04514399999998,907
43.92466399999995,23.45314399999998,1531
44.89666399999994,25.397143999999983,1037
46.19266399999994,20.86114399999998,939
47.81266399999993,25.397143999999983,1070
44.572663999999946,22.805143999999984,1091
44.572663999999946,22.15714399999998,1059
46.516663999999935,23.45314399999998,756
45.86866399999994,25.397143999999983,833
44.24866399999995,27.34114399999998,1771
45.22066399999994,24.74914399999998,1096
45.54466399999994,22.805143999999984,786
45.22066399999994,28.63714399999997,1216
44.89666399999994,28.63714399999997,1155
47.81266399999993,23.45314399999998,316
46.19266399999994,24.74914399999998,865
46.19266399999994,25.397143999999983,889
43.92466399999995,24.101143999999977,2221
43.92466399999995,24.74914399999998,2234
47.81266399999993,26.69314399999997,1285
47.48866399999993,24.101143999999977,878
46.84066399999993,26.04514399999998,1686
46.19266399999994,22.805143999999984,1010
47.48866399999993,27.34114399999998,1238
46.19266399999994,20.213143999999986,65535
45.54466399999994,26.04514399999998,1042
44.24866399999995,26.69314399999997,1052
45.86866399999994,27.989143999999985,1322
47.81266399999993,5.957143999999991,2266
