51.56399999999999,-0.4100000000000028,65535
51.887999999999984,-0.4100000000000028,65535
50.91599999999999,-1.7060000000000022,65535
51.23999999999999,-1.0580000000000025,65535
51.56399999999999,-1.0580000000000025,65535
51.23999999999999,-1.7060000000000022,65535
51.56399999999999,0.2379999999999968,65535
47.16466399999993,9.845143999999989,804
47.48866399999993,9.845143999999989,778
48.136663999999925,14.381143999999988,655
47.81266399999993,13.085143999999987,639
47.16466399999993,11.141143999999988,770
47.48866399999993,11.789143999999988,917
48.136663999999925,16.325143999999987,394
47.48866399999993,12.437143999999988,664
48.136663999999925,15.677143999999986,459
47.16466399999993,10.493143999999988,918
47.16466399999993,9.197143999999987,770
48.136663999999925,13.733143999999989,667
48.136663999999925,15.029143999999986,499
47.81266399999993,16.973143999999984,388
48.46066399999992,14.381143999999988,904
47.48866399999993,13.085143999999987,620
47.16466399999993,13.085143999999987,639
47.48866399999993,14.381143999999988,575
47.48866399999993,13.733143999999989,591
47.48866399999993,15.029143999999986,503
46.516663999999935,13.733143999999989,743
46.84066399999993,13.733143999999989,760
46.84066399999993,13.085143999999987,765
48.78466399999992,14.381143999999988,65535
47.16466399999993,15.677143999999986,540
46.516663999999935,14.381143999999988,714
46.84066399999993,14.381143999999988,655
47.16466399999993,14.381143999999988,605
46.516663999999935,15.029143999999986,726
47.81266399999993,16.325143999999987,412
47.16466399999993,15.029143999999986,580
47.81266399999993,15.677143999999986,504
47.48866399999993,15.677143999999986,469
46.516663999999935,13.085143999999987,1934
46.84066399999993,12.437143999999988,778
48.136663999999925,11.789143999999988,689
47.81266399999993,12.437143999999988,669
46.84066399999993,15.677143999999986,645
46.516663999999935,15.677143999999986,703
46.84066399999993,16.325143999999987,599
47.81266399999993,14.381143999999988,697
48.78466399999992,16.973143999999984,418
48.136663999999925,16.973143999999984,376
48.46066399999992,13.733143999999989,707
47.81266399999993,13.733143999999989,674
50.08066399999991,8.54914399999999,762
48.46066399999992,9.845143999999989,708
51.05266399999991,7.25314399999999,825
51.37666399999991,7.25314399999999,851
51.37666399999991,6.60514399999999,841
48.46066399999992,16.325143999999987,399
48.46066399999992,16.973143999999984,404
48.78466399999992,16.325143999999987,410
48.46066399999992,15.677143999999986,420
48.78466399999992,15.677143999999986,573
47.48866399999993,16.325143999999987,422
47.16466399999993,16.325143999999987,534
46.19266399999994,14.381143999999988,770
45.86866399999994,15.677143999999986,767
43.60066399999995,16.325143999999987,1555
45.54466399999994,14.381143999999988,785
45.54466399999994,13.733143999999989,806
48.136663999999925,13.085143999999987,702
48.46066399999992,11.141143999999988,696
48.136663999999925,11.141143999999988,701
48.46066399999992,7.90114399999999,762
49.10866399999992,8.54914399999999,736
48.78466399999992,2.0691439999999925,894
49.10866399999992,7.25314399999999,771
52.0246639999999,7.90114399999999,880
47.16466399999993,11.789143999999988,792
49.43266399999992,11.141143999999988,753
53.64466399999989,9.845143999999989,1225
50.72866399999991,4.013143999999992,897
51.05266399999991,11.141143999999988,754
47.48866399999993,11.141143999999988,728
46.84066399999993,11.789143999999988,2102
46.516663999999935,11.141143999999988,2071
45.54466399999994,11.141143999999988,1965
46.19266399999994,11.141143999999988,2037
45.86866399999994,11.141143999999988,2021
44.572663999999946,11.141143999999988,1812
43.92466399999995,12.437143999999988,4445
45.54466399999994,12.437143999999988,2052
45.54466399999994,11.789143999999988,2015
48.78466399999992,15.029143999999986,612
47.81266399999993,15.029143999999986,570
47.81266399999993,11.141143999999988,709
50.40466399999991,18.917143999999983,559
52.3486639999999,20.86114399999998,756
54.616663999999886,18.269143999999983,1345
54.29266399999989,18.917143999999983,1334
49.10866399999992,14.381143999999988,65535
50.08066399999991,14.381143999999988,594
48.78466399999992,13.733143999999989,2216
52.6726639999999,13.085143999999987,771
52.3486639999999,13.085143999999987,769
53.96866399999989,12.437143999999988,924
54.29266399999989,12.437143999999988,922
47.48866399999993,8.54914399999999,779
47.81266399999993,17.621143999999987,366
47.48866399999993,18.917143999999983,210
47.48866399999993,20.86114399999998,476
46.84066399999993,23.45314399999998,958
44.572663999999946,26.04514399999998,1407
47.48866399999993,21.50914399999997,512
47.81266399999993,21.50914399999997,908
48.46066399999992,22.15714399999998,97
47.48866399999993,16.973143999999984,65535
49.10866399999992,16.325143999999987,456
49.75666399999992,18.269143999999983,521
46.19266399999994,13.085143999999987,1343
41.98066399999996,12.437143999999988,3045
43.60066399999995,10.493143999999988,3206
45.54466399999994,9.197143999999987,908
47.81266399999993,22.805143999999984,1373
49.75666399999992,22.805143999999984,589
50.72866399999991,3.365143999999992,935
51.05266399999991,4.013143999999992,921
50.72866399999991,4.661143999999991,891
51.05266399999991,4.661143999999991,896
51.05266399999991,3.365143999999992,928
51.05266399999991,2.717143999999992,1003
50.40466399999991,4.661143999999991,895
50.72866399999991,2.717143999999992,1284
50.40466399999991,4.013143999999992,903
51.05266399999991,5.309143999999991,900
50.72866399999991,5.309143999999991,873
51.37666399999991,3.365143999999992,1258
51.37666399999991,4.661143999999991,902
50.72866399999991,5.957143999999991,849
50.40466399999991,5.957143999999991,852
50.40466399999991,3.365143999999992,926
50.40466399999991,5.309143999999991,872
50.08066399999991,5.309143999999991,919
49.75666399999992,5.309143999999991,1244
49.75666399999992,5.957143999999991,884
51.37666399999991,5.309143999999991,943
51.700663999999904,4.661143999999991,1358
50.08066399999991,4.013143999999992,1283
50.08066399999991,5.957143999999991,861
50.08066399999991,4.661143999999991,1268
49.43266399999992,5.309143999999991,1315
49.43266399999992,5.957143999999991,898
52.0246639999999,4.661143999999991,1430
52.3486639999999,4.661143999999991,1459
50.72866399999991,15.029143999999986,619
51.05266399999991,15.029143999999986,631
51.05266399999991,13.733143999999989,656
50.40466399999991,13.085143999999987,723
49.10866399999992,7.90114399999999,748
48.78466399999992,7.90114399999999,742
50.40466399999991,7.90114399999999,797
50.08066399999991,7.90114399999999,772
49.75666399999992,7.90114399999999,764
49.43266399999992,7.90114399999999,748
49.75666399999992,8.54914399999999,757
49.43266399999992,8.54914399999999,740
49.43266399999992,9.197143999999987,769
49.10866399999992,9.197143999999987,730
47.48866399999993,7.90114399999999,787
47.81266399999993,7.90114399999999,769
48.136663999999925,7.90114399999999,756
48.136663999999925,9.845143999999989,730
47.81266399999993,9.197143999999987,758
47.81266399999993,8.54914399999999,767
47.81266399999993,9.845143999999989,737
54.940663999999884,9.197143999999987,1343
54.616663999999886,9.197143999999987,1320
54.29266399999989,9.197143999999987,1328
53.96866399999989,9.197143999999987,1343
53.64466399999989,9.197143999999987,1242
54.616663999999886,9.845143999999989,1312
54.29266399999989,9.845143999999989,1301
53.96866399999989,9.845143999999989,1290
53.64466399999989,10.493143999999988,1252
53.96866399999989,10.493143999999988,1284
53.96866399999989,11.141143999999988,1343
54.29266399999989,10.493143999999988,1321
53.32066399999989,10.493143999999988,1231
54.940663999999884,11.141143999999988,1370
52.6726639999999,13.733143999999989,774
52.3486639999999,13.733143999999989,773
52.3486639999999,14.381143999999988,787
52.0246639999999,14.381143999999988,800
52.0246639999999,11.789143999999988,725
52.3486639999999,11.789143999999988,738
52.3486639999999,12.437143999999988,758
52.0246639999999,15.029143999999986,825
51.700663999999904,14.381143999999988,698
52.0246639999999,13.733143999999989,745
51.700663999999904,13.733143999999989,735
52.6726639999999,12.437143999999988,788
53.32066399999989,11.789143999999988,909
53.96866399999989,11.789143999999988,918
53.64466399999989,11.789143999999988,946
53.64466399999989,11.141143999999988,942
53.32066399999989,11.141143999999988,933
52.996663999999896,11.789143999999988,812
52.996663999999896,12.437143999999988,804
52.996663999999896,13.733143999999989,780
53.64466399999989,13.733143999999989,856
53.96866399999989,13.733143999999989,890
54.29266399999989,13.085143999999987,932
53.96866399999989,13.085143999999987,917
53.32066399999989,13.733143999999989,827
52.0246639999999,13.085143999999987,739
51.700663999999904,13.085143999999987,706
52.996663999999896,14.381143999999988,885
52.0246639999999,12.437143999999988,717
51.700663999999904,12.437143999999988,713
51.37666399999991,11.789143999999988,721
51.37666399999991,12.437143999999988,717
52.6726639999999,11.789143999999988,770
53.64466399999989,13.085143999999987,883
53.32066399999989,13.085143999999987,825
52.996663999999896,13.085143999999987,798
53.64466399999989,12.437143999999988,868
51.37666399999991,13.733143999999989,678
53.32066399999989,12.437143999999988,835
52.6726639999999,14.381143999999988,793
51.37666399999991,13.085143999999987,688
53.32066399999989,14.381143999999988,1214
52.3486639999999,15.029143999999986,954
52.0246639999999,15.677143999999986,903
51.700663999999904,15.029143999999986,745
51.05266399999991,16.325143999999987,665
51.05266399999991,16.973143999999984,661
51.700663999999904,15.677143999999986,794
51.37666399999991,15.677143999999986,667
51.37666399999991,16.325143999999987,690
50.72866399999991,13.085143999999987,718
50.72866399999991,12.437143999999988,725
51.05266399999991,13.085143999999987,706
51.05266399999991,14.381143999999988,643
50.40466399999991,12.437143999999988,750
50.40466399999991,11.789143999999988,758
50.08066399999991,12.437143999999988,782
50.72866399999991,11.789143999999988,757
51.05266399999991,12.437143999999988,722
50.72866399999991,14.381143999999988,674
51.37666399999991,14.381143999999988,658
50.72866399999991,13.733143999999989,695
50.40466399999991,14.381143999999988,599
51.37666399999991,15.029143999999986,644
55.26466399999988,9.197143999999987,2268
55.58866399999988,8.54914399999999,3562
55.91266399999988,8.54914399999999,7039
56.23666399999988,9.197143999999987,7047
56.23666399999988,10.493143999999988,7000
56.23666399999988,9.845143999999989,6987
55.91266399999988,9.845143999999989,6925
56.56066399999988,9.197143999999987,7057
56.56066399999988,8.54914399999999,7100
51.05266399999991,6.60514399999999,833
51.700663999999904,7.90114399999999,864
50.72866399999991,6.60514399999999,841
51.700663999999904,7.25314399999999,855
50.72866399999991,7.25314399999999,823
52.0246639999999,7.25314399999999,866
52.3486639999999,7.90114399999999,884
51.05266399999991,5.957143999999991,844
50.40466399999991,7.25314399999999,807
51.700663999999904,6.60514399999999,853
51.700663999999904,5.957143999999991,848
52.3486639999999,9.197143999999987,925
51.700663999999904,8.54914399999999,877
52.0246639999999,8.54914399999999,888
52.3486639999999,8.54914399999999,897
51.37666399999991,7.90114399999999,848
52.3486639999999,7.25314399999999,873
51.37666399999991,5.957143999999991,881
50.72866399999991,7.90114399999999,871
51.37666399999991,9.197143999999987,843
51.700663999999904,9.197143999999987,933
50.40466399999991,6.60514399999999,852
51.05266399999991,7.90114399999999,837
51.37666399999991,8.54914399999999,878
52.0246639999999,5.957143999999991,891
52.3486639999999,6.60514399999999,896
51.05266399999991,8.54914399999999,824
52.0246639999999,9.197143999999987,894
52.6726639999999,9.197143999999987,930
52.0246639999999,9.845143999999989,928
51.700663999999904,9.845143999999989,917
51.37666399999991,9.845143999999989,893
50.72866399999991,8.54914399999999,794
51.05266399999991,9.845143999999989,814
50.72866399999991,9.845143999999989,806
50.40466399999991,9.845143999999989,812
51.05266399999991,9.197143999999987,833
50.40466399999991,9.197143999999987,778
50.08066399999991,9.197143999999987,768
51.05266399999991,10.493143999999988,801
50.40466399999991,8.54914399999999,778
50.72866399999991,9.197143999999987,800
49.75666399999992,9.197143999999987,778
52.996663999999896,9.197143999999987,969
52.3486639999999,9.845143999999989,932
52.996663999999896,8.54914399999999,969
52.996663999999896,7.90114399999999,957
53.32066399999989,7.90114399999999,1254
53.32066399999989,7.25314399999999,971
53.64466399999989,7.25314399999999,1498
52.996663999999896,10.493143999999988,983
52.6726639999999,10.493143999999988,977
52.6726639999999,9.845143999999989,940
53.32066399999989,9.845143999999989,1196
53.32066399999989,9.197143999999987,1192
53.64466399999989,8.54914399999999,1005
53.32066399999989,8.54914399999999,980
52.6726639999999,8.54914399999999,963
52.0246639999999,10.493143999999988,869
52.0246639999999,11.141143999999988,758
51.700663999999904,11.141143999999988,760
52.6726639999999,7.25314399999999,912
52.996663999999896,7.25314399999999,940
52.6726639999999,7.90114399999999,929
53.64466399999989,7.90114399999999,1331
52.996663999999896,11.141143999999988,783
52.6726639999999,11.141143999999988,778
52.3486639999999,10.493143999999988,967
52.996663999999896,9.845143999999989,996
51.700663999999904,10.493143999999988,800
51.37666399999991,10.493143999999988,851
51.700663999999904,11.789143999999988,734
52.3486639999999,11.141143999999988,776
51.37666399999991,11.141143999999988,765
51.05266399999991,11.789143999999988,747
49.10866399999992,11.141143999999988,736
48.78466399999992,11.141143999999988,708
48.46066399999992,11.789143999999988,692
49.43266399999992,11.789143999999988,763
50.08066399999991,11.789143999999988,791
49.75666399999992,12.437143999999988,797
49.10866399999992,11.789143999999988,771
48.78466399999992,12.437143999999988,746
48.46066399999992,12.437143999999988,732
49.10866399999992,12.437143999999988,757
48.78466399999992,13.085143999999987,753
48.136663999999925,12.437143999999988,704
47.81266399999993,11.789143999999988,680
48.136663999999925,10.493143999999988,725
47.81266399999993,10.493143999999988,739
48.78466399999992,10.493143999999988,712
47.48866399999993,10.493143999999988,769
48.46066399999992,10.493143999999988,699
49.43266399999992,13.085143999999987,836
48.46066399999992,13.085143999999987,733
49.43266399999992,10.493143999999988,761
49.75666399999992,9.845143999999989,771
49.75666399999992,10.493143999999988,787
50.40466399999991,11.141143999999988,839
50.08066399999991,11.141143999999988,818
50.72866399999991,11.141143999999988,771
49.75666399999992,11.141143999999988,773
48.78466399999992,11.789143999999988,734
50.40466399999991,10.493143999999988,823
50.08066399999991,9.845143999999989,801
50.08066399999991,10.493143999999988,832
49.43266399999992,12.437143999999988,800
49.75666399999992,11.789143999999988,772
49.10866399999992,13.085143999999987,814
50.72866399999991,10.493143999999988,821
49.10866399999992,10.493143999999988,747
48.78466399999992,9.845143999999989,712
48.46066399999992,8.54914399999999,734
48.46066399999992,9.197143999999987,730
48.78466399999992,9.197143999999987,726
48.78466399999992,8.54914399999999,732
50.08066399999991,7.25314399999999,826
49.75666399999992,6.60514399999999,848
49.43266399999992,6.60514399999999,826
49.10866399999992,6.60514399999999,789
49.43266399999992,7.25314399999999,775
49.75666399999992,7.25314399999999,775
49.10866399999992,5.957143999999991,860
48.78466399999992,7.25314399999999,769
50.08066399999991,6.60514399999999,845
47.48866399999993,9.197143999999987,766
48.136663999999925,8.54914399999999,746
48.136663999999925,9.197143999999987,752
47.81266399999993,7.25314399999999,778
49.43266399999992,9.845143999999989,781
49.10866399999992,9.845143999999989,740
53.64466399999989,14.381143999999988,1272
50.08066399999991,13.085143999999987,630
49.75666399999992,13.085143999999987,635
45.86866399999994,9.197143999999987,898
46.19266399999994,9.197143999999987,884
46.516663999999935,8.54914399999999,830
46.516663999999935,9.197143999999987,879
46.19266399999994,8.54914399999999,881
47.16466399999993,8.54914399999999,780
45.86866399999994,4.661143999999991,1354
46.84066399999993,9.845143999999989,817
45.22066399999994,5.957143999999991,1371
45.22066399999994,5.309143999999991,1386
45.86866399999994,5.957143999999991,1324
45.54466399999994,5.957143999999991,1343
44.89666399999994,4.661143999999991,1392
44.89666399999994,5.309143999999991,1410
44.572663999999946,4.661143999999991,1404
44.24866399999995,4.661143999999991,1418
43.92466399999995,4.661143999999991,1428
46.19266399999994,7.25314399999999,850
48.78466399999992,5.957143999999991,890
48.136663999999925,6.60514399999999,1327
48.46066399999992,6.60514399999999,1273
48.78466399999992,6.60514399999999,1330
47.16466399999993,7.90114399999999,795
48.136663999999925,7.25314399999999,784
48.46066399999992,7.25314399999999,776
46.516663999999935,6.60514399999999,839
46.84066399999993,6.60514399999999,823
46.84066399999993,7.25314399999999,799
46.516663999999935,5.957143999999991,849
46.19266399999994,5.957143999999991,870
46.84066399999993,8.54914399999999,785
46.84066399999993,7.90114399999999,795
45.86866399999994,5.309143999999991,1350
46.19266399999994,6.60514399999999,847
45.86866399999994,6.60514399999999,880
47.48866399999993,6.60514399999999,811
47.48866399999993,7.25314399999999,789
47.16466399999993,7.25314399999999,801
49.10866399999992,4.013143999999992,1381
49.75666399999992,4.661143999999991,1314
49.43266399999992,4.661143999999991,1354
49.10866399999992,5.309143999999991,1374
46.19266399999994,4.661143999999991,1369
46.84066399999993,9.197143999999987,804
46.19266399999994,5.309143999999991,1361
46.516663999999935,5.309143999999991,1410
45.54466399999994,6.60514399999999,1363
45.54466399999994,5.309143999999991,1384
43.60066399999995,4.013143999999992,1480
43.60066399999995,3.365143999999992,1497
42.62866399999996,2.717143999999992,1600
43.276663999999954,2.717143999999992,1526
45.54466399999994,4.661143999999991,1361
45.22066399999994,4.661143999999991,1375
47.16466399999993,5.309143999999991,1341
47.16466399999993,5.957143999999991,1304
46.19266399999994,7.90114399999999,846
49.75666399999992,2.717143999999992,1328
49.10866399999992,2.717143999999992,1349
48.78466399999992,2.717143999999992,1375
45.86866399999994,3.365143999999992,1494
46.84066399999993,3.365143999999992,1432
46.516663999999935,3.365143999999992,1481
46.19266399999994,3.365143999999992,1469
47.16466399999993,6.60514399999999,813
49.10866399999992,3.365143999999992,1377
45.54466399999994,4.013143999999992,1369
46.516663999999935,7.25314399999999,846
47.16466399999993,4.661143999999991,1351
46.84066399999993,4.661143999999991,1377
46.516663999999935,4.661143999999991,1401
46.84066399999993,5.957143999999991,1279
47.81266399999993,3.365143999999992,978
47.48866399999993,4.013143999999992,1369
48.136663999999925,4.013143999999992,1331
47.81266399999993,4.013143999999992,1344
47.48866399999993,4.661143999999991,1378
47.16466399999993,3.365143999999992,1446
46.84066399999993,4.013143999999992,1400
48.46066399999992,5.957143999999991,1325
46.19266399999994,2.717143999999992,1558
47.16466399999993,2.0691439999999925,1381
46.516663999999935,2.717143999999992,1654
46.84066399999993,2.717143999999992,1431
46.84066399999993,2.0691439999999925,1443
47.16466399999993,2.717143999999992,1409
44.572663999999946,5.309143999999991,1524
44.572663999999946,5.957143999999991,1523
44.89666399999994,6.60514399999999,1347
44.572663999999946,6.60514399999999,1489
43.60066399999995,5.309143999999991,1470
43.92466399999995,7.25314399999999,1534
43.60066399999995,6.60514399999999,1522
43.276663999999954,6.60514399999999,1499
43.276663999999954,5.957143999999991,1474
45.86866399999994,8.54914399999999,905
45.54466399999994,8.54914399999999,912
48.136663999999925,3.365143999999992,973
48.46066399999992,3.365143999999992,964
48.46066399999992,2.717143999999992,1274
47.48866399999993,5.309143999999991,1356
46.516663999999935,9.845143999999989,828
46.84066399999993,10.493143999999988,1331
47.81266399999993,5.309143999999991,1373
45.22066399999994,6.60514399999999,1341
46.19266399999994,4.013143999999992,1384
45.86866399999994,4.013143999999992,1377
45.22066399999994,4.013143999999992,1398
44.89666399999994,4.013143999999992,1437
46.84066399999993,5.309143999999991,1398
48.136663999999925,-1.8188560000000056,1440
48.136663999999925,0.1251439999999934,1392
48.136663999999925,-0.5228560000000062,1401
47.48866399999993,-0.5228560000000062,1392
47.16466399999993,-1.8188560000000056,1455
47.48866399999993,0.7731439999999932,1116
47.16466399999993,0.1251439999999934,1351
45.86866399999994,7.25314399999999,863
48.136663999999925,5.309143999999991,1404
49.10866399999992,4.661143999999991,1422
48.46066399999992,4.013143999999992,1374
48.136663999999925,4.661143999999991,1420
47.81266399999993,6.60514399999999,1317
47.48866399999993,5.957143999999991,1335
48.136663999999925,5.957143999999991,1886
45.86866399999994,7.90114399999999,882
46.516663999999935,7.90114399999999,799
49.43266399999992,3.365143999999992,1374
49.43266399999992,4.013143999999992,1367
48.136663999999925,2.717143999999992,1436
47.81266399999993,2.717143999999992,1465
47.48866399999993,2.717143999999992,1441
50.40466399999991,2.717143999999992,1316
48.46066399999992,-4.410856000000004,1585
48.46066399999992,-3.7628560000000046,1566
48.46066399999992,-3.114856000000005,1543
48.46066399999992,-2.4668560000000053,1507
47.48866399999993,1.4211439999999929,1051
47.16466399999993,1.4211439999999929,1343
46.516663999999935,4.013143999999992,1405
43.60066399999995,4.661143999999991,1462
44.89666399999994,2.717143999999992,1727
45.22066399999994,2.717143999999992,1696
45.54466399999994,3.365143999999992,1501
45.22066399999994,3.365143999999992,1442
47.48866399999993,3.365143999999992,1546
46.19266399999994,9.845143999999989,1373
47.81266399999993,2.0691439999999925,975
47.48866399999993,2.0691439999999925,1344
45.86866399999994,2.717143999999992,1720
44.89666399999994,5.957143999999991,1427
45.22066399999994,1.4211439999999929,1620
44.89666399999994,1.4211439999999929,1646
44.89666399999994,2.0691439999999925,1681
43.276663999999954,2.0691439999999925,1576
43.60066399999995,1.4211439999999929,1584
48.78466399999992,4.661143999999991,1427
48.78466399999992,5.309143999999991,1400
46.19266399999994,2.0691439999999925,1862
45.86866399999994,1.4211439999999929,1554
46.19266399999994,1.4211439999999929,1584
44.572663999999946,4.013143999999992,1533
44.89666399999994,3.365143999999992,1474
43.92466399999995,4.013143999999992,1444
44.24866399999995,4.013143999999992,1471
44.89666399999994,-0.5228560000000062,1454
45.54466399999994,0.1251439999999934,1456
46.516663999999935,0.1251439999999934,1401
44.572663999999946,2.0691439999999925,1696
49.75666399999992,4.013143999999992,1384
43.92466399999995,3.365143999999992,1596
43.92466399999995,2.717143999999992,1621
44.24866399999995,3.365143999999992,1647
44.572663999999946,3.365143999999992,1662
49.10866399999992,0.1251439999999934,1399
49.43266399999992,0.7731439999999932,1379
49.43266399999992,-1.8188560000000056,1521
49.10866399999992,-1.170856000000006,1471
49.10866399999992,-0.5228560000000062,1409
49.10866399999992,0.7731439999999932,1426
49.10866399999992,1.4211439999999929,1354
47.81266399999993,-1.8188560000000056,1501
47.81266399999993,-2.4668560000000053,1528
47.81266399999993,-3.114856000000005,1554
48.136663999999925,-3.7628560000000046,1591
44.572663999999946,9.197143999999987,1376
44.89666399999994,8.54914399999999,1311
45.22066399999994,9.197143999999987,919
45.54466399999994,10.493143999999988,1327
44.572663999999946,10.493143999999988,1798
44.89666399999994,10.493143999999988,1393
44.89666399999994,9.845143999999989,1380
48.46066399999992,5.309143999999991,1575
50.91599999999999,-1.0580000000000025,65535
51.23999999999999,-0.4100000000000028,65535
50.91599999999999,-0.4100000000000028,65535
51.23999999999999,-2.354000000000002,65535
51.56399999999999,-2.354000000000002,65535
51.56399999999999,-3.0020000000000016,65535
50.91599999999999,-2.354000000000002,65535
53.50799999999997,-3.0020000000000016,65535
53.183999999999976,-2.354000000000002,65535
53.183999999999976,-3.0020000000000016,65535
52.85999999999998,-2.354000000000002,65535
52.21199999999998,-1.0580000000000025,65535
51.887999999999984,-1.0580000000000025,65535
52.53599999999998,-1.0580000000000025,65535
52.53599999999998,-1.7060000000000022,65535
52.85999999999998,-1.7060000000000022,65535
53.50799999999997,-2.354000000000002,65535
52.85999999999998,-1.0580000000000025,65535
52.53599999999998,1.5339999999999965,65535
52.53599999999998,0.8859999999999966,65535
52.53599999999998,0.2379999999999968,65535
52.53599999999998,-0.4100000000000028,65535
53.50799999999997,-1.7060000000000022,65535
53.183999999999976,-1.7060000000000022,65535
53.183999999999976,-1.0580000000000025,65535
52.85999999999998,-0.4100000000000028,65535
51.887999999999984,-2.354000000000002,65535
52.21199999999998,-2.354000000000002,65535
55.77599999999996,-2.354000000000002,65535
53.83199999999997,-1.0580000000000025,65535
53.83199999999997,-1.7060000000000022,65535
55.127999999999965,-1.7060000000000022,65535
54.80399999999997,-1.7060000000000022,65535
54.47999999999997,-1.7060000000000022,65535
54.15599999999997,-1.0580000000000025,65535
52.21199999999998,-1.7060000000000022,65535
53.50799999999997,-1.0580000000000025,65535
55.77599999999996,-3.0020000000000016,65535
55.45199999999996,-1.7060000000000022,65535
57.07199999999995,-2.354000000000002,65535
56.74799999999996,-3.0020000000000016,65535
56.42399999999996,-3.0020000000000016,65535
56.09999999999996,-3.650000000000001,65535
50.91599999999999,-3.0020000000000016,65535
50.91599999999999,-3.650000000000001,65535
50.59199999999999,-3.650000000000001,65535
50.59199999999999,-4.298000000000001,65535
51.23999999999999,-3.0020000000000016,65535
50.268,-4.946000000000001,65535
55.77599999999996,-3.650000000000001,65535
55.77599999999996,-4.298000000000001,65535
52.21199999999998,-0.4100000000000028,65535
52.53599999999998,-2.354000000000002,65535
51.56399999999999,-1.7060000000000022,65535
51.56399999999999,-3.650000000000001,65535
51.887999999999984,-4.298000000000001,65535
51.56399999999999,-4.298000000000001,65535
51.887999999999984,-1.7060000000000022,65535
52.21199999999998,-3.0020000000000016,65535
51.23999999999999,0.2379999999999968,65535
50.91599999999999,0.2379999999999968,65535
52.21199999999998,0.2379999999999968,65535
53.83199999999997,-3.0020000000000016,65535
54.15599999999997,-3.0020000000000016,65535
54.47999999999997,-3.0020000000000016,65535
55.127999999999965,-3.650000000000001,65535
54.80399999999997,-3.0020000000000016,65535
53.83199999999997,-2.354000000000002,65535
54.15599999999997,-0.4100000000000028,65535
54.47999999999997,-1.0580000000000025,65535
53.83199999999997,-0.4100000000000028,65535
53.183999999999976,-3.650000000000001,65535
53.183999999999976,-4.298000000000001,65535
52.85999999999998,-3.0020000000000016,65535
52.53599999999998,-3.0020000000000016,65535
51.887999999999984,-3.0020000000000016,65535
51.23999999999999,0.8859999999999966,65535
51.887999999999984,0.2379999999999968,65535
52.21199999999998,0.8859999999999966,65535
51.887999999999984,-4.946000000000001,65535
52.53599999999998,-3.650000000000001,65535
52.21199999999998,-4.298000000000001,65535
53.183999999999976,-0.4100000000000028,65535
51.23999999999999,-3.650000000000001,65535
51.887999999999984,-3.650000000000001,65535
52.21199999999998,-3.650000000000001,65535
51.56399999999999,0.8859999999999966,65535
51.887999999999984,0.8859999999999966,65535
52.85999999999998,0.8859999999999966,65535
53.50799999999997,-0.4100000000000028,65535
56.09999999999996,-4.298000000000001,65535
56.74799999999996,-4.946000000000001,65535
56.74799999999996,-4.298000000000001,65535
56.42399999999996,-4.946000000000001,65535
56.42399999999996,-4.298000000000001,65535
56.09999999999996,-4.946000000000001,65535
57.39599999999995,-4.298000000000001,65535
57.39599999999995,-3.0020000000000016,65535
57.39599999999995,-3.650000000000001,65535
56.42399999999996,-3.650000000000001,65535
57.07199999999995,-3.650000000000001,65535
57.07199999999995,-4.298000000000001,65535
56.74799999999996,-3.650000000000001,65535
59.15266399999986,27.34114399999998,65535
59.47666399999986,26.69314399999997,65535
59.47666399999986,26.04514399999998,65535
59.15266399999986,26.04514399999998,65535
59.15266399999986,24.74914399999998,65535
59.15266399999986,25.397143999999983,65535
59.47666399999986,25.397143999999983,65535
58.50466399999986,26.69314399999997,65535
58.82866399999986,26.69314399999997,65535
57.85666399999987,26.04514399999998,65535
58.180663999999865,26.04514399999998,65535
58.180663999999865,26.69314399999997,65535
58.82866399999986,26.04514399999998,65535
58.50466399999986,25.397143999999983,65535
58.82866399999986,25.397143999999983,65535
58.82866399999986,24.74914399999998,65535
58.180663999999865,27.34114399999998,65535
57.85666399999987,27.34114399999998,65535
63.68866399999983,27.34114399999998,7557
60.124663999999854,24.74914399999998,7093
60.44866399999985,24.74914399999998,7062
60.44866399999985,25.397143999999983,7074
60.77266399999985,25.397143999999983,7280
61.09666399999985,26.04514399999998,7322
60.77266399999985,26.04514399999998,7329
60.77266399999985,26.69314399999997,7348
61.09666399999985,25.397143999999983,7313
61.09666399999985,26.69314399999997,7678
61.420663999999846,26.69314399999997,7700
61.74466399999984,27.34114399999998,7724
62.06866399999984,27.34114399999998,7749
62.39266399999984,27.34114399999998,7773
62.71666399999984,27.34114399999998,7737
64.01266399999983,27.34114399999998,7905
63.36466399999984,27.34114399999998,7625
63.04066399999984,27.34114399999998,7665
63.04066399999984,27.989143999999985,7680
64.33666399999983,27.989143999999985,7952
64.33666399999983,27.34114399999998,8028
64.66066399999983,27.34114399999998,8044
64.66066399999983,26.69314399999997,8055
64.98466399999982,25.397143999999983,6439
64.66066399999983,26.04514399999998,8085
64.98466399999982,26.04514399999998,8107
66.28066399999982,25.397143999999983,6516
65.95666399999982,24.74914399999998,6352
65.63266399999982,24.74914399999998,6356
65.63266399999982,25.397143999999983,6398
65.30866399999982,25.397143999999983,6419
66.60466399999981,25.397143999999983,6576
64.01266399999983,24.74914399999998,6576
64.01266399999983,24.101143999999977,6611
64.01266399999983,23.45314399999998,6635
63.68866399999983,23.45314399999998,6647
63.68866399999983,22.805143999999984,6672
63.68866399999983,26.04514399999998,7264
63.68866399999983,25.397143999999983,7230
63.68866399999983,26.69314399999997,7524
60.44866399999985,26.69314399999997,7516
64.01266399999983,27.989143999999985,7943
62.71666399999984,22.805143999999984,6794
62.39266399999984,22.805143999999984,6826
62.06866399999984,22.805143999999984,6855
62.06866399999984,23.45314399999998,6871
61.74466399999984,23.45314399999998,6883
61.420663999999846,23.45314399999998,6931
61.09666399999985,23.45314399999998,6972
61.09666399999985,24.101143999999977,6979
61.09666399999985,24.74914399999998,7013
60.77266399999985,24.74914399999998,7029
63.04066399999984,21.50914399999997,65535
63.04066399999984,22.15714399999998,65535
63.04066399999984,22.805143999999984,6758
62.39266399999984,26.04514399999998,7921
62.06866399999984,25.397143999999983,7970
61.74466399999984,25.397143999999983,8038
61.74466399999984,24.74914399999998,8075
61.74466399999984,24.101143999999977,8110
61.420663999999846,24.101143999999977,7454
62.39266399999984,26.69314399999997,7892
64.66066399999983,25.397143999999983,6508
64.66066399999983,24.74914399999998,6526
64.33666399999983,24.74914399999998,6537
63.36466399999984,22.805143999999984,6697
67.25266399999981,24.101143999999977,8666
66.92866399999981,24.101143999999977,8630
66.60466399999981,23.45314399999998,8599
66.28066399999982,23.45314399999998,8581
66.28066399999982,24.101143999999977,8563
65.95666399999982,24.101143999999977,4479
60.124663999999854,24.101143999999977,7286
60.124663999999854,23.45314399999998,7323
60.44866399999985,22.805143999999984,65535
60.77266399999985,27.34114399999998,7406
61.09666399999985,27.989143999999985,7438
61.09666399999985,28.63714399999997,7484
61.420663999999846,29.28514399999997,9171
61.74466399999984,29.933143999999977,9229
62.06866399999984,29.933143999999977,9335
62.39266399999984,29.933143999999977,9373
62.71666399999984,29.933143999999977,9406
61.420663999999846,22.805143999999984,6967
61.420663999999846,22.15714399999998,7046
61.09666399999985,22.15714399999998,7034
61.420663999999846,21.50914399999997,7179
62.39266399999984,27.989143999999985,65535
62.06866399999984,27.989143999999985,65535
61.420663999999846,27.34114399999998,65535
63.04066399999984,29.933143999999977,65535
63.68866399999983,29.28514399999997,65535
63.36466399999984,29.28514399999997,65535
63.36466399999984,29.933143999999977,65535
60.44866399999985,27.34114399999998,65535
61.74466399999984,29.28514399999997,65535
62.39266399999984,30.58114399999998,65535
62.71666399999984,31.229143999999977,65535
62.71666399999984,29.28514399999997,65535
63.04066399999984,28.63714399999997,65535
66.60466399999981,26.04514399999998,6586
66.60466399999981,26.69314399999997,6622
66.60466399999981,27.34114399999998,6645
62.71666399999984,26.04514399999998,7806
62.71666399999984,25.397143999999983,7775
63.04066399999984,25.397143999999983,7595
63.36466399999984,25.397143999999983,7558
62.71666399999984,23.45314399999998,7800
62.39266399999984,24.101143999999977,65535
62.71666399999984,22.15714399999998,65535
62.39266399999984,22.15714399999998,65535
62.39266399999984,21.50914399999997,65535
61.09666399999985,21.50914399999997,8857
60.77266399999985,22.805143999999984,8283
60.44866399999985,22.15714399999998,8331
60.77266399999985,23.45314399999998,8265
60.77266399999985,21.50914399999997,8433
60.77266399999985,22.15714399999998,8386
60.124663999999854,22.805143999999984,8599
60.44866399999985,24.101143999999977,7272
62.06866399999984,24.74914399999998,65535
50.72866399999991,16.325143999999987,682
50.40466399999991,16.973143999999984,673
50.72866399999991,16.973143999999984,678
50.40466399999991,16.325143999999987,671
50.08066399999991,16.973143999999984,658
50.08066399999991,16.325143999999987,564
51.700663999999904,16.973143999999984,723
51.37666399999991,16.973143999999984,684
51.05266399999991,15.677143999999986,742
50.72866399999991,15.677143999999986,702
51.05266399999991,17.621143999999987,656
51.37666399999991,17.621143999999987,694
51.700663999999904,17.621143999999987,762
51.700663999999904,16.325143999999987,743
52.0246639999999,22.15714399999998,783
52.0246639999999,21.50914399999997,772
52.3486639999999,21.50914399999997,779
52.0246639999999,20.86114399999998,752
51.700663999999904,20.86114399999998,714
51.37666399999991,21.50914399999997,739
51.37666399999991,20.86114399999998,710
51.05266399999991,20.86114399999998,703
52.6726639999999,23.45314399999998,1427
52.3486639999999,22.805143999999984,1367
52.3486639999999,20.213143999999986,788
52.0246639999999,20.213143999999986,803
52.3486639999999,19.565143999999982,1277
52.6726639999999,19.565143999999982,877
51.700663999999904,21.50914399999997,777
51.700663999999904,22.15714399999998,774
52.6726639999999,21.50914399999997,823
52.996663999999896,21.50914399999997,909
52.6726639999999,20.86114399999998,793
52.6726639999999,22.15714399999998,839
52.6726639999999,20.213143999999986,817
52.996663999999896,19.565143999999982,888
52.996663999999896,20.86114399999998,835
52.996663999999896,20.213143999999986,844
53.32066399999989,20.213143999999986,933
51.37666399999991,20.213143999999986,738
52.3486639999999,16.973143999999984,780
52.0246639999999,16.973143999999984,768
52.0246639999999,16.325143999999987,749
52.0246639999999,17.621143999999987,800
52.6726639999999,16.973143999999984,802
52.996663999999896,16.973143999999984,842
52.3486639999999,16.325143999999987,787
52.3486639999999,15.677143999999986,834
51.700663999999904,18.269143999999983,954
52.6726639999999,17.621143999999987,816
52.3486639999999,17.621143999999987,803
52.6726639999999,18.269143999999983,919
52.3486639999999,18.269143999999983,847
52.3486639999999,18.917143999999983,888
52.996663999999896,17.621143999999987,1216
51.700663999999904,19.565143999999982,1310
51.700663999999904,18.917143999999983,1386
51.37666399999991,18.269143999999983,745
58.82866399999986,9.197143999999987,3248
58.180663999999865,7.90114399999999,3341
58.50466399999986,8.54914399999999,3292
63.36466399999984,10.493143999999988,3463
63.36466399999984,11.141143999999988,3470
63.36466399999984,11.789143999999988,3505
63.68866399999983,11.789143999999988,3533
64.33666399999983,12.437143999999988,3934
64.66066399999983,12.437143999999988,4429
65.63266399999982,13.085143999999987,4086
65.95666399999982,13.085143999999987,4121
66.28066399999982,14.381143999999988,4191
65.95666399999982,13.733143999999989,4260
66.28066399999982,13.733143999999989,4169
65.30866399999982,13.085143999999987,4387
64.98466399999982,13.085143999999987,4021
64.01266399999983,11.789143999999988,3564
63.68866399999983,11.141143999999988,3501
59.800663999999855,10.493143999999988,3044
59.800663999999855,11.141143999999988,3027
60.124663999999854,11.141143999999988,3042
60.44866399999985,11.141143999999988,3055
60.124663999999854,11.789143999999988,3068
60.77266399999985,7.25314399999999,3304
60.77266399999985,6.60514399999999,3350
59.15266399999986,9.197143999999987,3130
59.47666399999986,9.197143999999987,3151
59.800663999999855,9.845143999999989,3046
59.47666399999986,11.141143999999988,2991
61.09666399999985,10.493143999999988,3165
60.77266399999985,10.493143999999988,3135
60.77266399999985,11.141143999999988,3090
62.06866399999984,9.197143999999987,3490
61.74466399999984,9.845143999999989,3436
61.420663999999846,9.845143999999989,3413
59.15266399999986,9.845143999999989,3110
59.47666399999986,9.845143999999989,3086
58.82866399999986,5.957143999999991,3525
58.180663999999865,7.25314399999999,3397
58.50466399999986,7.25314399999999,3430
58.50466399999986,6.60514399999999,3435
58.50466399999986,5.957143999999991,3493
58.82866399999986,8.54914399999999,3278
60.44866399999985,7.25314399999999,3278
60.44866399999985,7.90114399999999,3239
60.124663999999854,10.493143999999988,3076
60.44866399999985,9.197143999999987,3188
60.77266399999985,9.197143999999987,3200
60.77266399999985,8.54914399999999,3219
60.124663999999854,9.845143999999989,3334
60.44866399999985,10.493143999999988,3121
63.04066399999984,10.493143999999988,3414
62.06866399999984,9.845143999999989,3515
62.39266399999984,9.845143999999989,3523
62.71666399999984,9.845143999999989,3547
59.47666399999986,14.381143999999988,2997
59.47666399999986,13.733143999999989,2981
59.47666399999986,13.085143999999987,2957
59.800663999999855,12.437143999999988,3026
59.15266399999986,11.141143999999988,2955
59.15266399999986,14.381143999999988,2981
58.82866399999986,11.789143999999988,2935
58.50466399999986,12.437143999999988,2865
58.180663999999865,12.437143999999988,2858
57.85666399999987,11.789143999999988,2809
62.71666399999984,7.90114399999999,3576
62.39266399999984,7.90114399999999,3533
62.06866399999984,8.54914399999999,3508
60.44866399999985,5.309143999999991,3424
60.44866399999985,5.957143999999991,3391
60.77266399999985,5.957143999999991,3380
62.39266399999984,11.141143999999988,3311
62.06866399999984,10.493143999999988,3266
61.74466399999984,11.141143999999988,3239
61.420663999999846,11.141143999999988,3193
61.09666399999985,11.141143999999988,3176
60.77266399999985,11.789143999999988,3153
63.04066399999984,11.141143999999988,3392
62.71666399999984,11.141143999999988,3335
62.39266399999984,10.493143999999988,3293
67.25266399999981,15.677143999999986,4310
67.25266399999981,15.029143999999986,4348
67.25266399999981,14.381143999999988,4376
66.92866399999981,15.029143999999986,4299
66.60466399999981,15.677143999999986,4277
64.01266399999983,11.141143999999988,3548
66.60466399999981,15.029143999999986,4340
54.29266399999989,18.269143999999983,1338
54.616663999999886,17.621143999999987,1361
53.96866399999989,18.269143999999983,1336
43.92466399999995,1.4211439999999929,1568
44.24866399999995,0.7731439999999932,1522
44.572663999999946,0.1251439999999934,1505
46.84066399999993,1.4211439999999929,1466
44.572663999999946,1.4211439999999929,1692
44.24866399999995,1.4211439999999929,1670
45.54466399999994,1.4211439999999929,1598
46.516663999999935,1.4211439999999929,1484
42.30466399999996,2.717143999999992,1656
44.24866399999995,2.717143999999992,1754
44.572663999999946,2.717143999999992,1759
43.92466399999995,2.0691439999999925,1670
42.30466399999996,2.0691439999999925,1709
42.62866399999996,2.0691439999999925,1650
42.62866399999996,1.4211439999999929,1643
42.95266399999996,1.4211439999999929,1612
43.276663999999954,1.4211439999999929,1592
46.516663999999935,-1.170856000000006,1500
46.19266399999994,-1.170856000000006,1520
45.86866399999994,-0.5228560000000062,1592
45.54466399999994,-0.5228560000000062,1580
48.46066399999992,1.4211439999999929,1334
41.332663999999966,2.0691439999999925,1714
41.98066399999996,2.717143999999992,1673
48.46066399999992,-1.8188560000000056,1450
47.81266399999993,0.7731439999999932,1354
46.84066399999993,0.7731439999999932,1373
44.572663999999946,-1.170856000000006,1465
43.60066399999995,-1.170856000000006,1534
43.276663999999954,-1.8188560000000056,1582
43.276663999999954,0.1251439999999934,1667
42.95266399999996,0.1251439999999934,1641
43.276663999999954,-0.5228560000000062,1586
43.60066399999995,-0.5228560000000062,1574
47.81266399999993,-3.7628560000000046,1576
47.48866399999993,-2.4668560000000053,1514
47.81266399999993,-0.5228560000000062,1409
46.516663999999935,-1.8188560000000056,1572
48.136663999999925,-1.170856000000006,1412
47.48866399999993,-1.170856000000006,1436
45.22066399999994,8.54914399999999,922
45.22066399999994,7.90114399999999,979
46.19266399999994,-0.5228560000000062,1489
46.516663999999935,-0.5228560000000062,1470
48.78466399999992,-3.114856000000005,1584
50.72866399999991,2.0691439999999925,1293
50.40466399999991,2.0691439999999925,1328
40.36066399999997,-3.7628560000000046,1905
41.65666399999997,-1.170856000000006,1822
41.332663999999966,1.4211439999999929,1760
43.276663999999954,13.733143999999989,4390
42.95266399999996,13.733143999999989,4412
41.65666399999997,15.029143999999986,4496
40.68466399999997,17.621143999999987,4658
43.60066399999995,13.085143999999987,4383
41.65666399999997,12.437143999999988,3049
41.65666399999997,13.085143999999987,3068
41.98066399999996,13.085143999999987,3118
41.65666399999997,13.733143999999989,3120
41.332663999999966,13.733143999999989,3112
41.332663999999966,14.381143999999988,3269
41.00866399999997,14.381143999999988,3175
41.332663999999966,13.085143999999987,3094
41.00866399999997,15.029143999999986,3375
41.98066399999996,13.733143999999989,3317
42.30466399999996,14.381143999999988,3456
42.30466399999996,12.437143999999988,3057
42.62866399999996,12.437143999999988,3236
42.95266399999996,12.437143999999988,3521
42.30466399999996,11.789143999999988,3066
42.95266399999996,11.789143999999988,3276
42.62866399999996,11.789143999999988,3267
43.276663999999954,11.789143999999988,3330
42.95266399999996,13.085143999999987,4284
42.30466399999996,13.085143999999987,3343
43.276663999999954,13.085143999999987,4332
43.276663999999954,12.437143999999988,4339
42.62866399999996,11.141143999999988,3112
42.95266399999996,11.141143999999988,3155
42.95266399999996,10.493143999999988,3173
44.572663999999946,8.54914399999999,1370
44.89666399999994,7.90114399999999,1267
44.89666399999994,9.197143999999987,975
44.24866399999995,7.90114399999999,1359
44.572663999999946,7.90114399999999,1301
43.92466399999995,7.90114399999999,1539
44.24866399999995,7.25314399999999,1356
44.89666399999994,7.25314399999999,1338
45.22066399999994,7.25314399999999,1258
45.54466399999994,7.90114399999999,1320
44.572663999999946,7.25314399999999,1342
52.996663999999896,22.805143999999984,1443
52.996663999999896,23.45314399999998,1462
51.37666399999991,22.15714399999998,721
51.37666399999991,22.805143999999984,725
50.08066399999991,20.213143999999986,562
50.72866399999991,20.213143999999986,650
50.40466399999991,20.213143999999986,610
50.08066399999991,20.86114399999998,468
50.08066399999991,21.50914399999997,482
50.08066399999991,22.15714399999998,519
50.08066399999991,22.805143999999984,551
53.96866399999989,22.805143999999984,1601
53.64466399999989,23.45314399999998,1555
53.32066399999989,23.45314399999998,1502
50.40466399999991,19.565143999999982,563
50.08066399999991,18.917143999999983,553
50.08066399999991,18.269143999999983,668
52.0246639999999,22.805143999999984,793
52.0246639999999,23.45314399999998,830
51.37666399999991,19.565143999999982,1299
51.05266399999991,19.565143999999982,901
50.72866399999991,18.917143999999983,662
50.72866399999991,19.565143999999982,735
49.75666399999992,18.917143999999983,498
50.40466399999991,18.269143999999983,590
53.64466399999989,19.565143999999982,1288
53.96866399999989,18.917143999999983,1327
53.64466399999989,18.917143999999983,1351
53.64466399999989,20.213143999999986,1250
52.996663999999896,18.917143999999983,1317
52.996663999999896,18.269143999999983,1235
53.32066399999989,18.917143999999983,1352
50.72866399999991,17.621143999999987,603
50.72866399999991,18.269143999999983,597
52.6726639999999,16.325143999999987,843
52.996663999999896,16.325143999999987,885
52.996663999999896,15.677143999999986,922
53.32066399999989,15.677143999999986,1257
53.32066399999989,15.029143999999986,1248
53.64466399999989,15.029143999999986,1281
53.96866399999989,15.029143999999986,1290
52.6726639999999,18.917143999999983,1279
53.32066399999989,16.325143999999987,1316
52.6726639999999,15.029143999999986,853
51.05266399999991,22.805143999999984,716
51.05266399999991,23.45314399999998,761
50.72866399999991,22.15714399999998,603
50.40466399999991,22.15714399999998,563
51.05266399999991,22.15714399999998,678
54.616663999999886,16.973143999999984,1372
54.29266399999989,16.325143999999987,1315
53.96866399999989,15.677143999999986,1305
50.72866399999991,21.50914399999997,591
50.40466399999991,21.50914399999997,542
50.40466399999991,17.621143999999987,741
53.32066399999989,22.805143999999984,1594
53.64466399999989,22.15714399999998,1618
54.29266399999989,16.973143999999984,1360
50.72866399999991,20.86114399999998,670
51.700663999999904,22.805143999999984,828
51.05266399999991,21.50914399999997,770
50.08066399999991,19.565143999999982,547
52.0246639999999,18.917143999999983,8488
52.0246639999999,19.565143999999982,8481
53.64466399999989,18.269143999999983,1321
51.700663999999904,20.213143999999986,1286
53.32066399999989,19.565143999999982,1284
50.72866399999991,23.45314399999998,841
50.72866399999991,22.805143999999984,811
49.43266399999992,20.213143999999986,431
49.75666399999992,21.50914399999997,491
49.75666399999992,22.15714399999998,479
49.43266399999992,22.15714399999998,252
51.05266399999991,18.917143999999983,705
51.05266399999991,18.269143999999983,657
53.32066399999989,16.973143999999984,885
53.64466399999989,16.973143999999984,1342
49.75666399999992,20.86114399999998,300
50.40466399999991,22.805143999999984,8570
53.64466399999989,16.325143999999987,1346
53.96866399999989,20.86114399999998,1506
54.29266399999989,20.86114399999998,1552
53.96866399999989,21.50914399999997,1569
53.64466399999989,15.677143999999986,1297
53.96866399999989,20.213143999999986,1270
53.96866399999989,19.565143999999982,1317
54.29266399999989,19.565143999999982,1362
53.96866399999989,16.325143999999987,1313
53.64466399999989,17.621143999999987,1326
53.96866399999989,22.15714399999998,1636
53.64466399999989,21.50914399999997,1574
53.64466399999989,20.86114399999998,1352
52.6726639999999,15.677143999999986,905
51.05266399999991,20.213143999999986,1249
54.940663999999884,24.101143999999977,3681
54.616663999999886,23.45314399999998,3625
54.29266399999989,23.45314399999998,3488
53.64466399999989,22.805143999999984,1643
53.96866399999989,16.973143999999984,1473
50.40466399999991,20.86114399999998,1306
53.32066399999989,18.269143999999983,1284
49.75666399999992,19.565143999999982,491
50.40466399999991,23.45314399999998,925
49.75666399999992,20.213143999999986,470
49.43266399999992,19.565143999999982,405
49.43266399999992,20.86114399999998,275
53.96866399999989,17.621143999999987,1534
42.30466399999996,-1.8188560000000056,8799
41.98066399999996,-1.8188560000000056,8782
41.65666399999997,0.7731439999999932,8786
42.62866399999996,-1.8188560000000056,8914
42.95266399999996,-1.8188560000000056,8943
42.62866399999996,-3.114856000000005,9037
42.95266399999996,-2.4668560000000053,9015
42.62866399999996,-7.650856000000003,9379
42.30466399999996,-7.650856000000003,9439
42.30466399999996,-8.946856000000002,9575
42.30466399999996,-8.298856000000002,9549
41.98066399999996,-8.298856000000002,9538
42.30466399999996,-7.002856000000003,9321
42.62866399999996,-6.354856000000003,9263
42.30466399999996,-6.354856000000003,9218
42.62866399999996,-5.706856000000004,8718
41.98066399999996,-4.410856000000004,8672
42.30466399999996,-3.7628560000000046,9063
40.03666399999997,-0.5228560000000062,8766
39.38866399999998,-0.5228560000000062,8814
41.00866399999997,0.7731439999999932,8914
40.68466399999997,0.7731439999999932,8946
40.36066399999997,0.1251439999999934,9024
39.712663999999975,-0.5228560000000062,8923
38.41666399999998,-0.5228560000000062,8935
39.06466399999998,-0.5228560000000062,9057
38.74066399999998,-1.170856000000006,8943
41.332663999999966,0.7731439999999932,8974
41.65666399999997,2.717143999999992,8574
41.65666399999997,2.0691439999999925,8597
41.332663999999966,0.1251439999999934,8932
41.332663999999966,-0.5228560000000062,8876
41.65666399999997,-4.410856000000004,8646
40.03666399999997,-2.4668560000000053,8884
41.00866399999997,-4.410856000000004,8767
43.276663999999954,-5.706856000000004,8848
39.38866399999998,-1.170856000000006,8909
38.09266399999999,-1.170856000000006,9322
38.74066399999998,-0.5228560000000062,9085
37.76866399999999,-1.170856000000006,9387
39.06466399999998,-1.8188560000000056,8907
39.38866399999998,-3.114856000000005,8807
39.38866399999998,-2.4668560000000053,8863
39.06466399999998,-2.4668560000000053,8890
39.06466399999998,-3.114856000000005,8811
39.06466399999998,-3.7628560000000046,8785
38.74066399999998,-3.7628560000000046,8864
40.03666399999997,-3.7628560000000046,8763
40.03666399999997,-3.114856000000005,8963
40.03666399999997,-1.8188560000000056,9044
39.712663999999975,-1.8188560000000056,9009
39.712663999999975,-1.170856000000006,8945
40.36066399999997,-1.170856000000006,8964
40.68466399999997,-1.170856000000006,8942
41.00866399999997,-1.170856000000006,8930
41.332663999999966,-1.170856000000006,8770
43.276663999999954,-8.298856000000002,9539
42.95266399999996,-8.298856000000002,9507
41.65666399999997,-5.706856000000004,65535
41.98066399999996,-7.002856000000003,65535
41.98066399999996,-6.354856000000003,65535
41.332663999999966,-5.058856000000004,8885
43.276663999999954,-3.7628560000000046,9320
42.95266399999996,-4.410856000000004,9254
42.62866399999996,-4.410856000000004,9244
42.30466399999996,-4.410856000000004,9203
41.00866399999997,-5.706856000000004,8823
41.332663999999966,-1.8188560000000056,8716
40.68466399999997,-3.114856000000005,8670
41.00866399999997,-3.114856000000005,8721
41.00866399999997,-2.4668560000000053,8744
41.332663999999966,-2.4668560000000053,8797
40.68466399999997,-4.410856000000004,8707
40.36066399999997,-4.410856000000004,8791
40.68466399999997,-3.7628560000000046,8699
40.36066399999997,-3.114856000000005,8677
41.65666399999997,-2.4668560000000053,8814
38.09266399999999,-3.7628560000000046,8911
38.74066399999998,-3.114856000000005,8855
37.76866399999999,-3.7628560000000046,8968
39.712663999999975,-3.114856000000005,8799
38.41666399999998,-3.7628560000000046,8876
40.03666399999997,-4.410856000000004,65535
40.03666399999997,-5.058856000000004,65535
39.38866399999998,-6.354856000000003,65535
39.38866399999998,-7.002856000000003,65535
42.95266399999996,-3.114856000000005,9448
41.98066399999996,-1.170856000000006,8811
42.30466399999996,-2.4668560000000053,8852
41.65666399999997,-0.5228560000000062,8909
41.98066399999996,-0.5228560000000062,8746
41.65666399999997,0.1251439999999934,8773
41.98066399999996,0.1251439999999934,8795
37.76866399999999,-5.058856000000004,8847
36.79666399999999,-4.410856000000004,8906
38.74066399999998,-4.410856000000004,8803
37.12066399999999,-4.410856000000004,8880
37.44466399999999,-5.058856000000004,9404
37.44466399999999,-7.002856000000003,65535
37.44466399999999,-6.354856000000003,65535
37.44466399999999,-5.706856000000004,9080
39.712663999999975,-3.7628560000000046,8873
42.62866399999996,-8.946856000000002,65535
42.30466399999996,-5.706856000000004,9225
42.30466399999996,-5.058856000000004,9310
42.95266399999996,-5.706856000000004,8750
41.00866399999997,-5.058856000000004,8791
40.68466399999997,-5.058856000000004,8765
41.65666399999997,-5.058856000000004,65535
41.65666399999997,-6.354856000000003,65535
36.79666399999999,-6.354856000000003,65535
37.12066399999999,-5.706856000000004,9248
37.76866399999999,-5.706856000000004,9047
38.09266399999999,-4.410856000000004,9182
37.12066399999999,-5.058856000000004,9202
36.79666399999999,-5.058856000000004,9160
37.76866399999999,-4.410856000000004,65535
37.76866399999999,-7.002856000000003,65535
38.41666399999998,-6.354856000000003,65535
38.09266399999999,-6.354856000000003,65535
48.78466399999992,1.4211439999999929,1425
56.23666399999988,8.54914399999999,7090
55.58866399999988,9.197143999999987,6895
55.91266399999988,9.197143999999987,7036
55.26466399999988,10.493143999999988,2514
55.91266399999988,12.437143999999988,2649
55.58866399999988,11.789143999999988,6735
55.58866399999988,11.141143999999988,6776
55.26466399999988,11.789143999999988,6768
55.58866399999988,10.493143999999988,6891
55.58866399999988,13.085143999999987,2606
56.88466399999987,9.845143999999989,7042
57.20866399999987,9.845143999999989,7077
56.56066399999988,9.845143999999989,7014
56.88466399999987,8.54914399999999,7129
54.940663999999884,9.845143999999989,8236
54.940663999999884,11.789143999999988,6992
55.91266399999988,13.085143999999987,2664
56.23666399999988,13.733143999999989,2708
55.91266399999988,13.733143999999989,2711
56.23666399999988,14.381143999999988,2731
56.23666399999988,15.029143999999986,2772
56.23666399999988,15.677143999999986,2827
56.56066399999988,14.381143999999988,2788
56.88466399999987,14.381143999999988,2758
56.23666399999988,13.085143999999987,2656
56.56066399999988,13.085143999999987,2736
56.88466399999987,12.437143999999988,2773
57.20866399999987,12.437143999999988,2789
57.53266399999987,12.437143999999988,2804
56.88466399999987,15.029143999999986,2784
56.56066399999988,15.677143999999986,2844
56.88466399999987,15.677143999999986,2863
56.88466399999987,16.325143999999987,2878
55.91266399999988,11.789143999999988,7061
57.20866399999987,10.493143999999988,7264
49.43266399999992,1.4211439999999929,1373
49.75666399999992,0.7731439999999932,1401
49.75666399999992,2.0691439999999925,1349
50.08066399999991,2.717143999999992,1360
49.75666399999992,1.4211439999999929,1354
47.81266399999993,1.4211439999999929,1309
48.136663999999925,2.0691439999999925,1353
48.46066399999992,2.0691439999999925,1334
48.136663999999925,1.4211439999999929,1411
48.78466399999992,0.1251439999999934,1426
48.46066399999992,0.1251439999999934,1405
47.81266399999993,0.1251439999999934,1366
46.84066399999993,-0.5228560000000062,1602
47.16466399999993,0.7731439999999932,1343
46.84066399999993,0.1251439999999934,1434
46.84066399999993,-1.170856000000006,1472
50.08066399999991,1.4211439999999929,1346
50.08066399999991,2.0691439999999925,1363
49.43266399999992,2.717143999999992,1352
49.75666399999992,3.365143999999992,1339
50.08066399999991,3.365143999999992,1297
49.10866399999992,2.0691439999999925,1356
49.43266399999992,2.0691439999999925,1374
48.78466399999992,0.7731439999999932,1476
48.78466399999992,-0.5228560000000062,1547
48.78466399999992,-1.170856000000006,1577
48.136663999999925,0.7731439999999932,1387
48.46066399999992,0.7731439999999932,1360
43.92466399999995,5.957143999999991,1507
44.24866399999995,5.957143999999991,1545
43.92466399999995,5.309143999999991,1452
42.95266399999996,2.717143999999992,1577
45.54466399999994,2.0691439999999925,1634
45.22066399999994,2.0691439999999925,1666
42.95266399999996,2.0691439999999925,1609
42.95266399999996,0.7731439999999932,1639
43.276663999999954,0.7731439999999932,1615
46.19266399999994,0.7731439999999932,1531
46.516663999999935,0.7731439999999932,1503
45.86866399999994,0.1251439999999934,1425
46.19266399999994,0.1251439999999934,1416
47.81266399999993,-1.170856000000006,1803
48.136663999999925,-2.4668560000000053,1501
47.48866399999993,-1.8188560000000056,1494
47.16466399999993,-1.170856000000006,1447
47.16466399999993,-0.5228560000000062,1429
46.84066399999993,-1.8188560000000056,1676
45.22066399999994,-0.5228560000000062,1460
44.89666399999994,0.1251439999999934,1502
45.22066399999994,0.7731439999999932,1541
45.54466399999994,0.7731439999999932,1613
45.86866399999994,0.7731439999999932,1722
45.22066399999994,0.1251439999999934,1561
44.89666399999994,0.7731439999999932,1552
43.92466399999995,-0.5228560000000062,1776
43.92466399999995,-1.170856000000006,1514
44.24866399999995,-1.170856000000006,1495
45.22066399999994,-1.170856000000006,1488
44.572663999999946,-0.5228560000000062,1483
44.24866399999995,0.1251439999999934,1530
44.572663999999946,0.7731439999999932,1542
43.276663999999954,-1.170856000000006,1596
42.95266399999996,-0.5228560000000062,1893
44.24866399999995,2.0691439999999925,1718
43.60066399999995,0.7731439999999932,1631
43.60066399999995,2.0691439999999925,1695
52.6726639999999,4.661143999999991,7081
52.6726639999999,5.309143999999991,7104
51.700663999999904,5.309143999999991,7049
52.0246639999999,5.309143999999991,7061
52.3486639999999,5.309143999999991,7077
51.37666399999991,4.013143999999992,7057
52.3486639999999,5.957143999999991,7071
52.0246639999999,6.60514399999999,7101
52.6726639999999,5.957143999999991,7088
52.996663999999896,5.957143999999991,7101
53.32066399999989,5.957143999999991,7095
52.996663999999896,6.60514399999999,7077
53.32066399999989,6.60514399999999,7069
52.6726639999999,6.60514399999999,7097
52.996663999999896,5.309143999999991,7116
59.15266399999986,24.101143999999977,65535
56.88466399999987,24.101143999999977,65535
56.88466399999987,23.45314399999998,65535
56.88466399999987,22.805143999999984,65535
57.20866399999987,24.74914399999998,65535
56.88466399999987,24.74914399999998,65535
56.56066399999988,24.74914399999998,65535
56.56066399999988,25.397143999999983,65535
56.56066399999988,24.101143999999977,65535
56.56066399999988,23.45314399999998,65535
56.56066399999988,26.04514399999998,65535
56.88466399999987,26.04514399999998,65535
57.20866399999987,25.397143999999983,65535
57.53266399999987,25.397143999999983,65535
56.23666399999988,26.04514399999998,65535
56.23666399999988,26.69314399999997,65535
55.91266399999988,26.69314399999997,65535
56.56066399999988,26.69314399999997,65535
56.56066399999988,27.34114399999998,65535
56.56066399999988,27.989143999999985,65535
56.23666399999988,27.989143999999985,65535
55.91266399999988,27.34114399999998,65535
56.56066399999988,22.805143999999984,65535
56.56066399999988,22.15714399999998,65535
56.56066399999988,21.50914399999997,65535
57.20866399999987,26.69314399999997,65535
39.06466399999998,-8.946856000000002,65535
38.41666399999998,-8.298856000000002,65535
45.86866399999994,11.789143999999988,2068
46.19266399999994,11.789143999999988,2055
46.19266399999994,10.493143999999988,2095
45.22066399999994,18.269143999999983,1008
45.22066399999994,18.917143999999983,1050
45.54466399999994,16.973143999999984,871
45.22066399999994,17.621143999999987,949
45.86866399999994,16.325143999999987,766
45.54466399999994,18.917143999999983,1316
45.54466399999994,16.325143999999987,825
45.54466399999994,18.269143999999983,1241
44.89666399999994,18.917143999999983,1202
46.19266399999994,16.973143999999984,730
46.19266399999994,16.325143999999987,755
45.86866399999994,16.973143999999984,777
45.86866399999994,17.621143999999987,809
46.19266399999994,15.677143999999986,714
46.516663999999935,16.325143999999987,701
45.54466399999994,15.677143999999986,774
45.22066399999994,15.029143999999986,928
45.54466399999994,15.029143999999986,889
45.22066399999994,15.677143999999986,909
44.572663999999946,15.677143999999986,2059
44.24866399999995,15.677143999999986,2080
43.92466399999995,16.325143999999987,1971
44.89666399999994,15.677143999999986,2023
45.54466399999994,17.621143999999987,1209
45.22066399999994,16.325143999999987,965
46.516663999999935,16.973143999999984,722
45.86866399999994,18.269143999999983,1374
43.92466399999995,15.677143999999986,1770
45.22066399999994,13.733143999999989,1302
47.48866399999993,19.565143999999982,232
47.16466399999993,18.917143999999983,218
47.81266399999993,18.917143999999983,214
45.54466399999994,9.845143999999989,919
45.22066399999994,9.845143999999989,959
45.22066399999994,10.493143999999988,1338
45.86866399999994,9.845143999999989,1304
45.86866399999994,10.493143999999988,2838
48.78466399999992,21.50914399999997,76
49.10866399999992,20.213143999999986,161
49.10866399999992,18.917143999999983,437
48.46066399999992,17.621143999999987,354
49.43266399999992,17.621143999999987,450
49.10866399999992,17.621143999999987,1312
48.136663999999925,18.269143999999983,285
49.10866399999992,18.269143999999983,353
49.43266399999992,18.269143999999983,411
49.43266399999992,16.973143999999984,481
49.75666399999992,16.973143999999984,494
49.75666399999992,16.325143999999987,539
50.08066399999991,15.677143999999986,583
50.08066399999991,15.029143999999986,586
49.43266399999992,18.917143999999983,475
47.81266399999993,20.86114399999998,115
48.136663999999925,20.86114399999998,50
48.46066399999992,20.86114399999998,0
48.46066399999992,21.50914399999997,72
49.10866399999992,19.565143999999982,379
48.136663999999925,17.621143999999987,346
48.78466399999992,22.15714399999998,117
48.78466399999992,20.86114399999998,447
49.10866399999992,20.86114399999998,155
48.78466399999992,18.269143999999983,332
48.78466399999992,17.621143999999987,406
49.10866399999992,21.50914399999997,131
48.78466399999992,20.213143999999986,455
48.46066399999992,20.213143999999986,496
48.136663999999925,19.565143999999982,645
48.46066399999992,19.565143999999982,524
48.46066399999992,18.917143999999983,334
48.46066399999992,18.269143999999983,321
48.78466399999992,19.565143999999982,410
48.78466399999992,18.917143999999983,392
47.81266399999993,18.269143999999983,258
49.10866399999992,22.15714399999998,164
49.43266399999992,21.50914399999997,214
48.136663999999925,18.917143999999983,346
48.136663999999925,20.213143999999986,665
52.636,-8.018,65535
52.312,-7.370000000000001,65535
52.312,-8.018,65535
52.636,-8.666,65535
51.988,-8.666,65535
51.988,-8.018,65535
52.96,-8.666,65535
52.96,-6.074000000000002,65535
53.28399999999999,-6.722000000000001,65535
53.60799999999999,-6.722000000000001,65535
53.60799999999999,-7.370000000000001,65535
53.60799999999999,-8.018,65535
54.25599999999999,-8.666,65535
53.93199999999999,-8.666,65535
53.93199999999999,-8.018,65535
52.312,-6.722000000000001,65535
52.636,-6.722000000000001,65535
53.93199999999999,-6.722000000000001,65535
54.25599999999999,-6.074000000000002,65535
53.28399999999999,-7.370000000000001,65535
52.96,-7.370000000000001,65535
52.312,-8.666,65535
52.96,-8.018,65535
52.636,-7.370000000000001,65535
52.96,-6.722000000000001,65535
51.988,-9.314,65535
52.312,-9.314,65535
54.579999999999984,-6.722000000000001,65535
54.579999999999984,-6.074000000000002,65535
53.28399999999999,-8.018,65535
53.28399999999999,-8.666,65535
53.28399999999999,-9.314,65535
53.93199999999999,-9.314,65535
54.25599999999999,-9.314,65535
53.60799999999999,-8.666,65535
53.60799999999999,-9.314,65535
49.43266399999992,14.381143999999988,620
49.75666399999992,14.381143999999988,602
49.75666399999992,15.029143999999986,598
49.75666399999992,13.733143999999989,620
50.08066399999991,13.733143999999989,605
49.75666399999992,15.677143999999986,599
50.40466399999991,15.029143999999986,615
49.43266399999992,13.733143999999989,671
50.40466399999991,15.677143999999986,647
50.40466399999991,13.733143999999989,643
46.19266399999994,15.029143999999986,762
45.86866399999994,15.029143999999986,801
45.86866399999994,14.381143999999988,779
46.19266399999994,13.733143999999989,1245
45.86866399999994,13.733143999999989,1321
58.50466399999986,13.733143999999989,2900
58.180663999999865,13.733143999999989,2886
58.180663999999865,13.085143999999987,2858
57.85666399999987,12.437143999999988,2822
60.44866399999985,15.677143999999986,3107
60.124663999999854,15.677143999999986,3041
60.124663999999854,16.325143999999987,3079
59.800663999999855,16.325143999999987,3007
59.800663999999855,17.621143999999987,2986
59.47666399999986,18.269143999999983,2968
61.74466399999984,16.973143999999984,3118
61.420663999999846,16.973143999999984,3091
60.77266399999985,16.973143999999984,3043
65.63266399999982,22.15714399999998,4222
65.95666399999982,21.50914399999997,4182
65.63266399999982,20.86114399999998,4153
64.98466399999982,20.213143999999986,4085
64.66066399999983,20.213143999999986,4063
64.33666399999983,19.565143999999982,3757
64.01266399999983,19.565143999999982,3470
63.68866399999983,20.213143999999986,3423
64.66066399999983,18.917143999999983,6134
59.15266399999986,16.325143999999987,2943
59.15266399999986,15.029143999999986,2947
59.15266399999986,17.621143999999987,2960
57.53266399999987,14.381143999999988,2784
57.53266399999987,15.029143999999986,2804
61.09666399999985,14.381143999999988,3211
60.77266399999985,15.029143999999986,3162
60.44866399999985,15.029143999999986,3148
58.180663999999865,15.029143999999986,2861
58.50466399999986,16.325143999999987,2895
58.50466399999986,15.677143999999986,2868
63.36466399999984,13.085143999999987,3455
63.04066399999984,14.381143999999988,3392
62.39266399999984,15.677143999999986,3314
63.36466399999984,13.733143999999989,3437
63.36466399999984,14.381143999999988,3409
62.71666399999984,15.677143999999986,3342
62.39266399999984,17.621143999999987,3176
59.800663999999855,15.677143999999986,3229
55.58866399999988,13.733143999999989,2738
57.20866399999987,14.381143999999988,2768
57.85666399999987,14.381143999999988,2816
58.82866399999986,16.973143999999984,2952
58.82866399999986,16.325143999999987,2930
59.15266399999986,18.269143999999983,2964
60.44866399999985,17.621143999999987,3019
59.15266399999986,12.437143999999988,2923
59.15266399999986,13.085143999999987,2937
58.82866399999986,12.437143999999988,2899
59.47666399999986,16.325143999999987,2989
58.82866399999986,14.381143999999988,2976
59.47666399999986,15.677143999999986,3007
63.36466399999984,18.917143999999983,3376
63.04066399999984,17.621143999999987,3331
62.71666399999984,17.621143999999987,3305
63.68866399999983,19.565143999999982,3409
62.39266399999984,16.973143999999984,3220
59.800663999999855,16.973143999999984,2995
59.47666399999986,17.621143999999987,2972
57.85666399999987,13.085143999999987,2848
57.53266399999987,13.085143999999987,2829
58.50466399999986,11.789143999999988,2870
57.85666399999987,15.029143999999986,2850
57.20866399999987,13.733143999999989,2774
57.53266399999987,13.733143999999989,2835
61.74466399999984,16.325143999999987,3214
61.420663999999846,16.325143999999987,3181
61.09666399999985,16.325143999999987,3170
61.09666399999985,16.973143999999984,3138
60.124663999999854,15.029143999999986,3316
66.60466399999981,20.86114399999998,4257
67.25266399999981,20.86114399999998,4325
67.90066399999981,20.213143999999986,4395
67.57666399999981,20.213143999999986,5020
59.800663999999855,15.029143999999986,3036
58.50466399999986,15.029143999999986,2878
59.47666399999986,15.029143999999986,3021
60.44866399999985,16.325143999999987,3107
59.15266399999986,15.677143999999986,2965
57.85666399999987,13.733143999999989,2876
58.82866399999986,13.733143999999989,2923
58.50466399999986,13.085143999999987,2908
57.20866399999987,13.085143999999987,2805
56.88466399999987,13.085143999999987,2779
58.180663999999865,11.789143999999988,2841
62.06866399999984,16.973143999999984,3209
65.95666399999982,23.45314399999998,4457
59.800663999999855,14.381143999999988,5891
59.800663999999855,18.269143999999983,2977
63.04066399999984,15.029143999999986,3360
62.71666399999984,15.029143999999986,3350
62.39266399999984,16.325143999999987,3283
63.36466399999984,12.437143999999988,3488
68.5486639999998,17.621143999999987,4608
68.5486639999998,18.269143999999983,4541
68.5486639999998,18.917143999999983,4518
68.2246639999998,18.917143999999983,4474
59.800663999999855,13.085143999999987,3040
60.124663999999854,13.085143999999987,3079
59.47666399999986,16.973143999999984,2981
59.15266399999986,16.973143999999984,2973
56.56066399999988,13.733143999999989,2726
60.124663999999854,17.621143999999987,2996
57.85666399999987,16.325143999999987,2955
58.180663999999865,16.325143999999987,2917
58.180663999999865,15.677143999999986,2925
57.20866399999987,16.325143999999987,2967
57.53266399999987,15.677143999999986,2985
57.85666399999987,15.677143999999986,2956
44.89666399999994,23.45314399999998,1525
44.572663999999946,23.45314399999998,1595
44.89666399999994,24.74914399999998,1512
44.572663999999946,24.74914399999998,1631
44.572663999999946,24.101143999999977,1572
44.24866399999995,24.101143999999977,1601
47.48866399999993,25.397143999999983,1373
47.48866399999993,24.74914399999998,1313
47.16466399999993,24.74914399999998,1235
47.16466399999993,24.101143999999977,1137
47.48866399999993,22.15714399999998,1267
47.81266399999993,22.15714399999998,1353
47.16466399999993,22.15714399999998,1246
47.16466399999993,23.45314399999998,1298
47.16466399999993,22.805143999999984,1304
46.84066399999993,24.101143999999977,1218
45.86866399999994,27.34114399999998,1558
45.54466399999994,27.34114399999998,1539
45.54466399999994,27.989143999999985,1655
45.86866399999994,20.86114399999998,1430
45.86866399999994,21.50914399999997,1438
46.19266399999994,21.50914399999997,1374
46.19266399999994,27.34114399999998,1558
46.19266399999994,26.69314399999997,1549
46.516663999999935,26.69314399999997,1511
46.516663999999935,26.04514399999998,1407
47.48866399999993,22.805143999999984,1365
46.84066399999993,22.805143999999984,1178
45.54466399999994,22.15714399999998,1487
45.22066399999994,22.15714399999998,1565
44.89666399999994,22.15714399999998,1983
47.48866399999993,23.45314399999998,1331
46.516663999999935,24.101143999999977,1057
46.516663999999935,24.74914399999998,1271
45.86866399999994,24.101143999999977,1220
47.16466399999993,26.69314399999997,1589
47.16466399999993,27.34114399999998,1644
43.92466399999995,25.397143999999983,1603
44.24866399999995,24.74914399999998,1510
44.89666399999994,26.04514399999998,1397
44.89666399999994,26.69314399999997,1444
45.22066399999994,26.69314399999997,1479
45.22066399999994,27.34114399999998,1506
46.84066399999993,26.69314399999997,1550
47.48866399999993,26.69314399999997,1543
44.24866399999995,25.397143999999983,1442
43.92466399999995,26.04514399999998,1619
46.19266399999994,24.101143999999977,1265
44.572663999999946,25.397143999999983,1480
46.84066399999993,24.74914399999998,1278
46.516663999999935,21.50914399999997,1378
46.84066399999993,21.50914399999997,1385
44.572663999999946,26.69314399999997,1435
44.572663999999946,27.34114399999998,1456
44.89666399999994,27.34114399999998,1571
44.572663999999946,27.989143999999985,1476
44.24866399999995,27.989143999999985,1490
44.572663999999946,28.63714399999997,1541
45.86866399999994,22.15714399999998,1299
45.86866399999994,22.805143999999984,1193
44.24866399999995,23.45314399999998,1628
43.92466399999995,27.989143999999985,65535
46.84066399999993,27.34114399999998,1711
45.22066399999994,23.45314399999998,1500
45.54466399999994,23.45314399999998,1303
45.54466399999994,24.101143999999977,1250
45.22066399999994,24.101143999999977,1474
44.89666399999994,24.101143999999977,1544
46.19266399999994,22.15714399999998,1430
46.516663999999935,22.15714399999998,1396
45.22066399999994,21.50914399999997,1670
45.54466399999994,21.50914399999997,1518
45.54466399999994,20.86114399999998,1542
46.516663999999935,27.989143999999985,1661
46.19266399999994,27.989143999999985,1646
45.54466399999994,25.397143999999983,1364
45.22066399999994,25.397143999999983,1374
45.22066399999994,26.04514399999998,1430
47.81266399999993,24.101143999999977,1426
47.48866399999993,26.04514399999998,1516
47.81266399999993,26.04514399999998,1538
46.19266399999994,23.45314399999998,1097
45.86866399999994,23.45314399999998,1146
44.24866399999995,26.04514399999998,1424
45.22066399999994,27.989143999999985,1636
45.86866399999994,24.74914399999998,1259
46.516663999999935,25.397143999999983,1451
46.84066399999993,25.397143999999983,1334
46.19266399999994,26.04514399999998,1422
45.86866399999994,26.04514399999998,1387
43.92466399999995,23.45314399999998,1858
44.89666399999994,25.397143999999983,1485
46.19266399999994,20.86114399999998,1419
47.81266399999993,25.397143999999983,1550
44.572663999999946,22.805143999999984,1863
44.572663999999946,22.15714399999998,2005
46.516663999999935,23.45314399999998,1236
45.86866399999994,25.397143999999983,1313
44.24866399999995,27.34114399999998,2251
45.22066399999994,24.74914399999998,1576
45.54466399999994,22.805143999999984,1266
45.22066399999994,28.63714399999997,1696
44.89666399999994,28.63714399999997,1635
47.81266399999993,23.45314399999998,1483
46.19266399999994,24.74914399999998,1345
46.19266399999994,25.397143999999983,1369
43.92466399999995,24.101143999999977,1821
43.92466399999995,24.74914399999998,1834
47.81266399999993,26.69314399999997,1765
47.48866399999993,24.101143999999977,1358
46.84066399999993,26.04514399999998,2166
46.19266399999994,22.805143999999984,1490
47.48866399999993,27.34114399999998,1718
46.19266399999994,20.213143999999986,65535
45.54466399999994,26.04514399999998,1522
44.24866399999995,26.69314399999997,1440
45.86866399999994,27.989143999999985,1694
47.81266399999993,5.957143999999991,7066
