51.56399999999999,-0.4100000000000028,65535
51.887999999999984,-0.4100000000000028,65535
50.91599999999999,-1.7060000000000022,65535
51.23999999999999,-1.0580000000000025,65535
51.56399999999999,-1.0580000000000025,65535
51.23999999999999,-1.7060000000000022,65535
51.56399999999999,0.2379999999999968,65535
47.16466399999993,9.845143999999989,1524
47.48866399999993,9.845143999999989,1529
48.136663999999925,14.381143999999988,1474
47.81266399999993,13.085143999999987,1509
47.16466399999993,11.141143999999988,1490
47.48866399999993,11.789143999999988,1681
48.136663999999925,16.325143999999987,1149
47.48866399999993,12.437143999999988,1494
48.136663999999925,15.677143999999986,1175
47.16466399999993,10.493143999999988,1536
47.16466399999993,9.197143999999987,1520
48.136663999999925,13.733143999999989,1507
48.136663999999925,15.029143999999986,1459
47.81266399999993,16.973143999999984,1195
48.46066399999992,14.381143999999988,1598
47.48866399999993,13.085143999999987,1499
47.16466399999993,13.085143999999987,1505
47.48866399999993,14.381143999999988,1295
47.48866399999993,13.733143999999989,1311
47.48866399999993,15.029143999999986,1242
46.516663999999935,13.733143999999989,1430
46.84066399999993,13.733143999999989,1445
46.84066399999993,13.085143999999987,1485
48.78466399999992,14.381143999999988,65535
47.16466399999993,15.677143999999986,1257
46.516663999999935,14.381143999999988,1402
46.84066399999993,14.381143999999988,1375
47.16466399999993,14.381143999999988,1325
46.516663999999935,15.029143999999986,1447
47.81266399999993,16.325143999999987,1152
47.16466399999993,15.029143999999986,1300
47.81266399999993,15.677143999999986,1438
47.48866399999993,15.677143999999986,1233
46.516663999999935,13.085143999999987,1454
46.84066399999993,12.437143999999988,1499
48.136663999999925,11.789143999999988,1450
47.81266399999993,12.437143999999988,1465
46.84066399999993,15.677143999999986,1283
46.516663999999935,15.677143999999986,1438
46.84066399999993,16.325143999999987,1304
47.81266399999993,14.381143999999988,1417
48.78466399999992,16.973143999999984,1158
48.136663999999925,16.973143999999984,1134
48.46066399999992,13.733143999999989,1537
47.81266399999993,13.733143999999989,1514
50.08066399999991,8.54914399999999,1469
48.46066399999992,9.845143999999989,1465
51.05266399999991,7.25314399999999,1497
51.37666399999991,7.25314399999999,1491
51.37666399999991,6.60514399999999,1493
48.46066399999992,16.325143999999987,1158
48.46066399999992,16.973143999999984,1149
48.78466399999992,16.325143999999987,1190
48.46066399999992,15.677143999999986,1180
48.78466399999992,15.677143999999986,1187
47.48866399999993,16.325143999999987,1202
47.16466399999993,16.325143999999987,1251
46.19266399999994,14.381143999999988,1431
45.86866399999994,15.677143999999986,1462
43.60066399999995,16.325143999999987,2195
45.54466399999994,14.381143999999988,1473
45.54466399999994,13.733143999999989,1481
48.136663999999925,13.085143999999987,1494
48.46066399999992,11.141143999999988,1434
48.136663999999925,11.141143999999988,1455
48.46066399999992,7.90114399999999,1486
49.10866399999992,8.54914399999999,1472
48.78466399999992,2.0691439999999925,1625
49.10866399999992,7.25314399999999,1510
52.0246639999999,7.90114399999999,1510
47.16466399999993,11.789143999999988,1512
49.43266399999992,11.141143999999988,1406
53.64466399999989,9.845143999999989,1512
50.72866399999991,4.013143999999992,1530
51.05266399999991,11.141143999999988,1378
47.48866399999993,11.141143999999988,1473
46.84066399999993,11.789143999999988,4022
46.516663999999935,11.141143999999988,3991
45.54466399999994,11.141143999999988,3887
46.19266399999994,11.141143999999988,3957
45.86866399999994,11.141143999999988,3941
44.572663999999946,11.141143999999988,2772
43.92466399999995,12.437143999999988,65535
45.54466399999994,12.437143999999988,4230
45.54466399999994,11.789143999999988,4195
48.78466399999992,15.029143999999986,1212
47.81266399999993,15.029143999999986,1457
47.81266399999993,11.141143999999988,1464
50.40466399999991,18.917143999999983,1044
52.3486639999999,20.86114399999998,1311
54.616663999999886,18.269143999999983,1503
54.29266399999989,18.917143999999983,1488
49.10866399999992,14.381143999999988,65535
50.08066399999991,14.381143999999988,1194
48.78466399999992,13.733143999999989,1736
52.6726639999999,13.085143999999987,1370
52.3486639999999,13.085143999999987,1368
53.96866399999989,12.437143999999988,1518
54.29266399999989,12.437143999999988,1522
47.48866399999993,8.54914399999999,1525
47.81266399999993,17.621143999999987,1158
47.48866399999993,18.917143999999983,1050
47.48866399999993,20.86114399999998,1436
46.84066399999993,23.45314399999998,1918
44.572663999999946,26.04514399999998,2367
47.48866399999993,21.50914399999997,1472
47.81266399999993,21.50914399999997,0
48.46066399999992,22.15714399999998,490
47.48866399999993,16.973143999999984,65535
49.10866399999992,16.325143999999987,1296
49.75666399999992,18.269143999999983,1001
46.19266399999994,13.085143999999987,2303
41.98066399999996,12.437143999999988,5350
43.60066399999995,10.493143999999988,5606
45.54466399999994,9.197143999999987,1628
47.81266399999993,22.805143999999984,2333
49.75666399999992,22.805143999999984,1381
50.72866399999991,3.365143999999992,1542
51.05266399999991,4.013143999999992,1535
50.72866399999991,4.661143999999991,1527
51.05266399999991,4.661143999999991,1529
51.05266399999991,3.365143999999992,1541
51.05266399999991,2.717143999999992,1562
50.40466399999991,4.661143999999991,1531
50.72866399999991,2.717143999999992,1546
50.40466399999991,4.013143999999992,1540
51.05266399999991,5.309143999999991,1531
50.72866399999991,5.309143999999991,1519
51.37666399999991,3.365143999999992,1559
51.37666399999991,4.661143999999991,1534
50.72866399999991,5.957143999999991,1509
50.40466399999991,5.957143999999991,1512
50.40466399999991,3.365143999999992,1549
50.40466399999991,5.309143999999991,1525
50.08066399999991,5.309143999999991,1533
49.75666399999992,5.309143999999991,1544
49.75666399999992,5.957143999999991,1530
51.37666399999991,5.309143999999991,1585
51.700663999999904,4.661143999999991,1578
50.08066399999991,4.013143999999992,1552
50.08066399999991,5.957143999999991,1521
50.08066399999991,4.661143999999991,1547
49.43266399999992,5.309143999999991,1570
49.43266399999992,5.957143999999991,1533
52.0246639999999,4.661143999999991,1610
52.3486639999999,4.661143999999991,1639
50.72866399999991,15.029143999999986,1219
51.05266399999991,15.029143999999986,1234
51.05266399999991,13.733143999999989,1256
50.40466399999991,13.085143999999987,1341
49.10866399999992,7.90114399999999,1497
48.78466399999992,7.90114399999999,1475
50.40466399999991,7.90114399999999,1479
50.08066399999991,7.90114399999999,1480
49.75666399999992,7.90114399999999,1489
49.43266399999992,7.90114399999999,1468
49.75666399999992,8.54914399999999,1464
49.43266399999992,8.54914399999999,1458
49.43266399999992,9.197143999999987,1453
49.10866399999992,9.197143999999987,1464
47.48866399999993,7.90114399999999,1516
47.81266399999993,7.90114399999999,1510
48.136663999999925,7.90114399999999,1502
48.136663999999925,9.845143999999989,1481
47.81266399999993,9.197143999999987,1511
47.81266399999993,8.54914399999999,1522
47.81266399999993,9.845143999999989,1494
54.940663999999884,9.197143999999987,1679
54.616663999999886,9.197143999999987,1645
54.29266399999989,9.197143999999987,1631
53.96866399999989,9.197143999999987,1616
53.64466399999989,9.197143999999987,1535
54.616663999999886,9.845143999999989,1629
54.29266399999989,9.845143999999989,1616
53.96866399999989,9.845143999999989,1518
53.64466399999989,10.493143999999988,1511
53.96866399999989,10.493143999999988,1544
53.96866399999989,11.141143999999988,1583
54.29266399999989,10.493143999999988,1563
53.32066399999989,10.493143999999988,1489
54.940663999999884,11.141143999999988,1609
52.6726639999999,13.733143999999989,1372
52.3486639999999,13.733143999999989,1371
52.3486639999999,14.381143999999988,1360
52.0246639999999,14.381143999999988,1347
52.0246639999999,11.789143999999988,1374
52.3486639999999,11.789143999999988,1398
52.3486639999999,12.437143999999988,1370
52.0246639999999,15.029143999999986,1372
51.700663999999904,14.381143999999988,1298
52.0246639999999,13.733143999999989,1345
51.700663999999904,13.733143999999989,1327
52.6726639999999,12.437143999999988,1388
53.32066399999989,11.789143999999988,1509
53.96866399999989,11.789143999999988,1518
53.64466399999989,11.789143999999988,1540
53.64466399999989,11.141143999999988,1542
53.32066399999989,11.141143999999988,1515
52.996663999999896,11.789143999999988,1420
52.996663999999896,12.437143999999988,1404
52.996663999999896,13.733143999999989,1380
53.64466399999989,13.733143999999989,1456
53.96866399999989,13.733143999999989,1490
54.29266399999989,13.085143999999987,1533
53.96866399999989,13.085143999999987,1499
53.32066399999989,13.733143999999989,1428
52.0246639999999,13.085143999999987,1339
51.700663999999904,13.085143999999987,1306
52.996663999999896,14.381143999999988,1463
52.0246639999999,12.437143999999988,1331
51.700663999999904,12.437143999999988,1327
51.37666399999991,11.789143999999988,1347
51.37666399999991,12.437143999999988,1344
52.6726639999999,11.789143999999988,1407
53.64466399999989,13.085143999999987,1483
53.32066399999989,13.085143999999987,1425
52.996663999999896,13.085143999999987,1398
53.64466399999989,12.437143999999988,1468
51.37666399999991,13.733143999999989,1278
53.32066399999989,12.437143999999988,1435
52.6726639999999,14.381143999999988,1393
51.37666399999991,13.085143999999987,1295
53.32066399999989,14.381143999999988,1469
52.3486639999999,15.029143999999986,1367
52.0246639999999,15.677143999999986,1389
51.700663999999904,15.029143999999986,1407
51.05266399999991,16.325143999999987,1324
51.05266399999991,16.973143999999984,1270
51.700663999999904,15.677143999999986,1360
51.37666399999991,15.677143999999986,1291
51.37666399999991,16.325143999999987,1297
50.72866399999991,13.085143999999987,1325
50.72866399999991,12.437143999999988,1342
51.05266399999991,13.085143999999987,1306
51.05266399999991,14.381143999999988,1243
50.40466399999991,12.437143999999988,1352
50.40466399999991,11.789143999999988,1358
50.08066399999991,12.437143999999988,1391
50.72866399999991,11.789143999999988,1357
51.05266399999991,12.437143999999988,1337
50.72866399999991,14.381143999999988,1274
51.37666399999991,14.381143999999988,1258
50.72866399999991,13.733143999999989,1295
50.40466399999991,14.381143999999988,1199
51.37666399999991,15.029143999999986,1254
55.26466399999988,9.197143999999987,1788
55.58866399999988,8.54914399999999,3082
55.91266399999988,8.54914399999999,6559
56.23666399999988,9.197143999999987,6567
56.23666399999988,10.493143999999988,6520
56.23666399999988,9.845143999999989,6507
55.91266399999988,9.845143999999989,6445
56.56066399999988,9.197143999999987,6577
56.56066399999988,8.54914399999999,6620
51.05266399999991,6.60514399999999,1494
51.700663999999904,7.90114399999999,1488
50.72866399999991,6.60514399999999,1507
51.700663999999904,7.25314399999999,1496
50.72866399999991,7.25314399999999,1504
52.0246639999999,7.25314399999999,1503
52.3486639999999,7.90114399999999,1504
51.05266399999991,5.957143999999991,1504
50.40466399999991,7.25314399999999,1486
51.700663999999904,6.60514399999999,1502
51.700663999999904,5.957143999999991,1508
52.3486639999999,9.197143999999987,1441
51.700663999999904,8.54914399999999,1481
52.0246639999999,8.54914399999999,1488
52.3486639999999,8.54914399999999,1478
51.37666399999991,7.90114399999999,1494
52.3486639999999,7.25314399999999,1521
51.37666399999991,5.957143999999991,1541
50.72866399999991,7.90114399999999,1524
51.37666399999991,9.197143999999987,1516
51.700663999999904,9.197143999999987,1453
50.40466399999991,6.60514399999999,1546
51.05266399999991,7.90114399999999,1506
51.37666399999991,8.54914399999999,1515
52.0246639999999,5.957143999999991,1551
52.3486639999999,6.60514399999999,1556
51.05266399999991,8.54914399999999,1544
52.0246639999999,9.197143999999987,1442
52.6726639999999,9.197143999999987,1470
52.0246639999999,9.845143999999989,1442
51.700663999999904,9.845143999999989,1472
51.37666399999991,9.845143999999989,1486
50.72866399999991,8.54914399999999,1482
51.05266399999991,9.845143999999989,1551
50.72866399999991,9.845143999999989,1530
50.40466399999991,9.845143999999989,1495
51.05266399999991,9.197143999999987,1520
50.40466399999991,9.197143999999987,1473
50.08066399999991,9.197143999999987,1465
51.05266399999991,10.493143999999988,1767
50.40466399999991,8.54914399999999,1471
50.72866399999991,9.197143999999987,1519
49.75666399999992,9.197143999999987,1464
52.996663999999896,9.197143999999987,1509
52.3486639999999,9.845143999999989,1425
52.996663999999896,8.54914399999999,1526
52.996663999999896,7.90114399999999,1553
53.32066399999989,7.90114399999999,1663
53.32066399999989,7.25314399999999,1693
53.64466399999989,7.25314399999999,1738
52.996663999999896,10.493143999999988,1463
52.6726639999999,10.493143999999988,1456
52.6726639999999,9.845143999999989,1440
53.32066399999989,9.845143999999989,1501
53.32066399999989,9.197143999999987,1508
53.64466399999989,8.54914399999999,1550
53.32066399999989,8.54914399999999,1529
52.6726639999999,8.54914399999999,1503
52.0246639999999,10.493143999999988,1412
52.0246639999999,11.141143999999988,1368
51.700663999999904,11.141143999999988,1360
52.6726639999999,7.25314399999999,1783
52.996663999999896,7.25314399999999,1758
52.6726639999999,7.90114399999999,1541
53.64466399999989,7.90114399999999,1811
52.996663999999896,11.141143999999988,1421
52.6726639999999,11.141143999999988,1402
52.3486639999999,10.493143999999988,1404
52.996663999999896,9.845143999999989,1476
51.700663999999904,10.493143999999988,1400
51.37666399999991,10.493143999999988,1507
51.700663999999904,11.789143999999988,1334
52.3486639999999,11.141143999999988,1385
51.37666399999991,11.141143999999988,1400
51.05266399999991,11.789143999999988,1359
49.10866399999992,11.141143999999988,1417
48.78466399999992,11.141143999999988,1427
48.46066399999992,11.789143999999988,1436
49.43266399999992,11.789143999999988,1423
50.08066399999991,11.789143999999988,1412
49.75666399999992,12.437143999999988,1408
49.10866399999992,11.789143999999988,1439
48.78466399999992,12.437143999999988,1463
48.46066399999992,12.437143999999988,1452
49.10866399999992,12.437143999999988,1457
48.78466399999992,13.085143999999987,1500
48.136663999999925,12.437143999999988,1482
47.81266399999993,11.789143999999988,1454
48.136663999999925,10.493143999999988,1462
47.81266399999993,10.493143999999988,1490
48.78466399999992,10.493143999999988,1434
47.48866399999993,10.493143999999988,1502
48.46066399999992,10.493143999999988,1443
49.43266399999992,13.085143999999987,1493
48.46066399999992,13.085143999999987,1511
49.43266399999992,10.493143999999988,1402
49.75666399999992,9.845143999999989,1420
49.75666399999992,10.493143999999988,1398
50.40466399999991,11.141143999999988,1368
50.08066399999991,11.141143999999988,1385
50.72866399999991,11.141143999999988,1361
49.75666399999992,11.141143999999988,1396
48.78466399999992,11.789143999999988,1443
50.40466399999991,10.493143999999988,1543
50.08066399999991,9.845143999999989,1447
50.08066399999991,10.493143999999988,1421
49.43266399999992,12.437143999999988,1443
49.75666399999992,11.789143999999988,1410
49.10866399999992,13.085143999999987,1490
50.72866399999991,10.493143999999988,1781
49.10866399999992,10.493143999999988,1413
48.78466399999992,9.845143999999989,1456
48.46066399999992,8.54914399999999,1469
48.46066399999992,9.197143999999987,1465
48.78466399999992,9.197143999999987,1461
48.78466399999992,8.54914399999999,1467
50.08066399999991,7.25314399999999,1490
49.75666399999992,6.60514399999999,1517
49.43266399999992,6.60514399999999,1494
49.10866399999992,6.60514399999999,1516
49.43266399999992,7.25314399999999,1488
49.75666399999992,7.25314399999999,1524
49.10866399999992,5.957143999999991,1529
48.78466399999992,7.25314399999999,1492
50.08066399999991,6.60514399999999,1514
47.48866399999993,9.197143999999987,1516
48.136663999999925,8.54914399999999,1514
48.136663999999925,9.197143999999987,1508
47.81266399999993,7.25314399999999,1512
49.43266399999992,9.845143999999989,1425
49.10866399999992,9.845143999999989,1452
53.64466399999989,14.381143999999988,1463
50.08066399999991,13.085143999999987,1258
49.75666399999992,13.085143999999987,1295
45.86866399999994,9.197143999999987,1624
46.19266399999994,9.197143999999987,1614
46.516663999999935,8.54914399999999,1610
46.516663999999935,9.197143999999987,1637
46.19266399999994,8.54914399999999,1601
47.16466399999993,8.54914399999999,1529
45.86866399999994,4.661143999999991,1654
46.84066399999993,9.845143999999989,1533
45.22066399999994,5.957143999999991,1671
45.22066399999994,5.309143999999991,1697
45.86866399999994,5.957143999999991,1620
45.54466399999994,5.957143999999991,1644
44.89666399999994,4.661143999999991,1691
44.89666399999994,5.309143999999991,1709
44.572663999999946,4.661143999999991,1714
44.24866399999995,4.661143999999991,1742
43.92466399999995,4.661143999999991,1719
46.19266399999994,7.25314399999999,1566
48.78466399999992,5.957143999999991,1539
48.136663999999925,6.60514399999999,1526
48.46066399999992,6.60514399999999,1514
48.78466399999992,6.60514399999999,1523
47.16466399999993,7.90114399999999,1519
48.136663999999925,7.25314399999999,1497
48.46066399999992,7.25314399999999,1502
46.516663999999935,6.60514399999999,1556
46.84066399999993,6.60514399999999,1552
46.84066399999993,7.25314399999999,1531
46.516663999999935,5.957143999999991,1575
46.19266399999994,5.957143999999991,1589
46.84066399999993,8.54914399999999,1536
46.84066399999993,7.90114399999999,1525
45.86866399999994,5.309143999999991,1650
46.19266399999994,6.60514399999999,1567
45.86866399999994,6.60514399999999,1573
47.48866399999993,6.60514399999999,1560
47.48866399999993,7.25314399999999,1527
47.16466399999993,7.25314399999999,1522
49.10866399999992,4.013143999999992,1587
49.75666399999992,4.661143999999991,1557
49.43266399999992,4.661143999999991,1595
49.10866399999992,5.309143999999991,1556
46.19266399999994,4.661143999999991,1668
46.84066399999993,9.197143999999987,1524
46.19266399999994,5.309143999999991,1648
46.516663999999935,5.309143999999991,1619
45.54466399999994,6.60514399999999,1701
45.54466399999994,5.309143999999991,1671
43.60066399999995,4.013143999999992,1748
43.60066399999995,3.365143999999992,1788
42.62866399999996,2.717143999999992,1872
43.276663999999954,2.717143999999992,1805
45.54466399999994,4.661143999999991,1661
45.22066399999994,4.661143999999991,1675
47.16466399999993,5.309143999999991,1617
47.16466399999993,5.957143999999991,1586
46.19266399999994,7.90114399999999,1566
49.75666399999992,2.717143999999992,1612
49.10866399999992,2.717143999999992,1634
48.78466399999992,2.717143999999992,1648
45.86866399999994,3.365143999999992,1794
46.84066399999993,3.365143999999992,1732
46.516663999999935,3.365143999999992,1728
46.19266399999994,3.365143999999992,1795
47.16466399999993,6.60514399999999,1604
49.10866399999992,3.365143999999992,1602
45.54466399999994,4.013143999999992,1669
46.516663999999935,7.25314399999999,1553
47.16466399999993,4.661143999999991,1623
46.84066399999993,4.661143999999991,1644
46.516663999999935,4.661143999999991,1701
46.84066399999993,5.957143999999991,1594
47.81266399999993,3.365143999999992,1731
47.48866399999993,4.013143999999992,1690
48.136663999999925,4.013143999999992,1720
47.81266399999993,4.013143999999992,1701
47.48866399999993,4.661143999999991,1681
47.16466399999993,3.365143999999992,1766
46.84066399999993,4.013143999999992,1700
48.46066399999992,5.957143999999991,1545
46.19266399999994,2.717143999999992,1850
47.16466399999993,2.0691439999999925,1716
46.516663999999935,2.717143999999992,1822
46.84066399999993,2.717143999999992,1802
46.84066399999993,2.0691439999999925,1773
47.16466399999993,2.717143999999992,1748
44.572663999999946,5.309143999999991,1712
44.572663999999946,5.957143999999991,1809
44.89666399999994,6.60514399999999,1707
44.572663999999946,6.60514399999999,2227
43.60066399999995,5.309143999999991,1740
43.92466399999995,7.25314399999999,2361
43.60066399999995,6.60514399999999,2352
43.276663999999954,6.60514399999999,2339
43.276663999999954,5.957143999999991,1762
45.86866399999994,8.54914399999999,1618
45.54466399999994,8.54914399999999,1622
48.136663999999925,3.365143999999992,1704
48.46066399999992,3.365143999999992,1692
48.46066399999992,2.717143999999992,1672
47.48866399999993,5.309143999999991,1656
46.516663999999935,9.845143999999989,1544
46.84066399999993,10.493143999999988,2291
47.81266399999993,5.309143999999991,1640
45.22066399999994,6.60514399999999,1701
46.19266399999994,4.013143999999992,1690
45.86866399999994,4.013143999999992,1682
45.22066399999994,4.013143999999992,1721
44.89666399999994,4.013143999999992,1750
46.84066399999993,5.309143999999991,1621
48.136663999999925,-1.8188560000000056,1765
48.136663999999925,0.1251439999999934,1707
48.136663999999925,-0.5228560000000062,1737
47.48866399999993,-0.5228560000000062,1731
47.16466399999993,-1.8188560000000056,1773
47.48866399999993,0.7731439999999932,1686
47.16466399999993,0.1251439999999934,1701
45.86866399999994,7.25314399999999,1579
48.136663999999925,5.309143999999991,1670
49.10866399999992,4.661143999999991,1597
48.46066399999992,4.013143999999992,1730
48.136663999999925,4.661143999999991,1691
47.81266399999993,6.60514399999999,1583
47.48866399999993,5.957143999999991,1600
48.136663999999925,5.957143999999991,3070
45.86866399999994,7.90114399999999,1587
46.516663999999935,7.90114399999999,1544
49.43266399999992,3.365143999999992,1604
49.43266399999992,4.013143999999992,1600
48.136663999999925,2.717143999999992,2298
47.81266399999993,2.717143999999992,2274
47.48866399999993,2.717143999999992,2249
50.40466399999991,2.717143999999992,1563
48.46066399999992,-4.410856000000004,2405
48.46066399999992,-3.7628560000000046,2360
48.46066399999992,-3.114856000000005,2345
48.46066399999992,-2.4668560000000053,1815
47.48866399999993,1.4211439999999929,1713
47.16466399999993,1.4211439999999929,1778
46.516663999999935,4.013143999999992,1705
43.60066399999995,4.661143999999991,1756
44.89666399999994,2.717143999999992,2369
45.22066399999994,2.717143999999992,2363
45.54466399999994,3.365143999999992,1859
45.22066399999994,3.365143999999992,1901
47.48866399999993,3.365143999999992,2293
46.19266399999994,9.845143999999989,1654
47.81266399999993,2.0691439999999925,1684
47.48866399999993,2.0691439999999925,1695
45.86866399999994,2.717143999999992,2303
44.89666399999994,5.957143999999991,1729
45.22066399999994,1.4211439999999929,1922
44.89666399999994,1.4211439999999929,2209
44.89666399999994,2.0691439999999925,2329
43.276663999999954,2.0691439999999925,1836
43.60066399999995,1.4211439999999929,1882
48.78466399999992,4.661143999999991,1570
48.78466399999992,5.309143999999991,1551
46.19266399999994,2.0691439999999925,2309
45.86866399999994,1.4211439999999929,1805
46.19266399999994,1.4211439999999929,1826
44.572663999999946,4.013143999999992,2493
44.89666399999994,3.365143999999992,2434
43.92466399999995,4.013143999999992,1772
44.24866399999995,4.013143999999992,1789
44.89666399999994,-0.5228560000000062,1754
45.54466399999994,0.1251439999999934,1763
46.516663999999935,0.1251439999999934,1720
44.572663999999946,2.0691439999999925,2247
49.75666399999992,4.013143999999992,1590
43.92466399999995,3.365143999999992,2376
43.92466399999995,2.717143999999992,2407
44.24866399999995,3.365143999999992,2432
44.572663999999946,3.365143999999992,2477
49.10866399999992,0.1251439999999934,1678
49.43266399999992,0.7731439999999932,1658
49.43266399999992,-1.8188560000000056,1741
49.10866399999992,-1.170856000000006,1717
49.10866399999992,-0.5228560000000062,1700
49.10866399999992,0.7731439999999932,1675
49.10866399999992,1.4211439999999929,1665
47.81266399999993,-1.8188560000000056,2319
47.81266399999993,-2.4668560000000053,2335
47.81266399999993,-3.114856000000005,2360
48.136663999999925,-3.7628560000000046,2379
44.572663999999946,9.197143999999987,1676
44.89666399999994,8.54914399999999,1646
45.22066399999994,9.197143999999987,1639
45.54466399999994,10.493143999999988,1687
44.572663999999946,10.493143999999988,2758
44.89666399999994,10.493143999999988,2255
44.89666399999994,9.845143999999989,1689
48.46066399999992,5.309143999999991,1683
50.91599999999999,-1.0580000000000025,65535
51.23999999999999,-0.4100000000000028,65535
50.91599999999999,-0.4100000000000028,65535
51.23999999999999,-2.354000000000002,65535
51.56399999999999,-2.354000000000002,65535
51.56399999999999,-3.0020000000000016,65535
50.91599999999999,-2.354000000000002,65535
53.50799999999997,-3.0020000000000016,65535
53.183999999999976,-2.354000000000002,65535
53.183999999999976,-3.0020000000000016,65535
52.85999999999998,-2.354000000000002,65535
52.21199999999998,-1.0580000000000025,65535
51.887999999999984,-1.0580000000000025,65535
52.53599999999998,-1.0580000000000025,65535
52.53599999999998,-1.7060000000000022,65535
52.85999999999998,-1.7060000000000022,65535
53.50799999999997,-2.354000000000002,65535
52.85999999999998,-1.0580000000000025,65535
52.53599999999998,1.5339999999999965,65535
52.53599999999998,0.8859999999999966,65535
52.53599999999998,0.2379999999999968,65535
52.53599999999998,-0.4100000000000028,65535
53.50799999999997,-1.7060000000000022,65535
53.183999999999976,-1.7060000000000022,65535
53.183999999999976,-1.0580000000000025,65535
52.85999999999998,-0.4100000000000028,65535
51.887999999999984,-2.354000000000002,65535
52.21199999999998,-2.354000000000002,65535
55.77599999999996,-2.354000000000002,65535
53.83199999999997,-1.0580000000000025,65535
53.83199999999997,-1.7060000000000022,65535
55.127999999999965,-1.7060000000000022,65535
54.80399999999997,-1.7060000000000022,65535
54.47999999999997,-1.7060000000000022,65535
54.15599999999997,-1.0580000000000025,65535
52.21199999999998,-1.7060000000000022,65535
53.50799999999997,-1.0580000000000025,65535
55.77599999999996,-3.0020000000000016,65535
55.45199999999996,-1.7060000000000022,65535
57.07199999999995,-2.354000000000002,65535
56.74799999999996,-3.0020000000000016,65535
56.42399999999996,-3.0020000000000016,65535
56.09999999999996,-3.650000000000001,65535
50.91599999999999,-3.0020000000000016,65535
50.91599999999999,-3.650000000000001,65535
50.59199999999999,-3.650000000000001,65535
50.59199999999999,-4.298000000000001,65535
51.23999999999999,-3.0020000000000016,65535
50.268,-4.946000000000001,65535
55.77599999999996,-3.650000000000001,65535
55.77599999999996,-4.298000000000001,65535
52.21199999999998,-0.4100000000000028,65535
52.53599999999998,-2.354000000000002,65535
51.56399999999999,-1.7060000000000022,65535
51.56399999999999,-3.650000000000001,65535
51.887999999999984,-4.298000000000001,65535
51.56399999999999,-4.298000000000001,65535
51.887999999999984,-1.7060000000000022,65535
52.21199999999998,-3.0020000000000016,65535
51.23999999999999,0.2379999999999968,65535
50.91599999999999,0.2379999999999968,65535
52.21199999999998,0.2379999999999968,65535
53.83199999999997,-3.0020000000000016,65535
54.15599999999997,-3.0020000000000016,65535
54.47999999999997,-3.0020000000000016,65535
55.127999999999965,-3.650000000000001,65535
54.80399999999997,-3.0020000000000016,65535
53.83199999999997,-2.354000000000002,65535
54.15599999999997,-0.4100000000000028,65535
54.47999999999997,-1.0580000000000025,65535
53.83199999999997,-0.4100000000000028,65535
53.183999999999976,-3.650000000000001,65535
53.183999999999976,-4.298000000000001,65535
52.85999999999998,-3.0020000000000016,65535
52.53599999999998,-3.0020000000000016,65535
51.887999999999984,-3.0020000000000016,65535
51.23999999999999,0.8859999999999966,65535
51.887999999999984,0.2379999999999968,65535
52.21199999999998,0.8859999999999966,65535
51.887999999999984,-4.946000000000001,65535
52.53599999999998,-3.650000000000001,65535
52.21199999999998,-4.298000000000001,65535
53.183999999999976,-0.4100000000000028,65535
51.23999999999999,-3.650000000000001,65535
51.887999999999984,-3.650000000000001,65535
52.21199999999998,-3.650000000000001,65535
51.56399999999999,0.8859999999999966,65535
51.887999999999984,0.8859999999999966,65535
52.85999999999998,0.8859999999999966,65535
53.50799999999997,-0.4100000000000028,65535
56.09999999999996,-4.298000000000001,65535
56.74799999999996,-4.946000000000001,65535
56.74799999999996,-4.298000000000001,65535
56.42399999999996,-4.946000000000001,65535
56.42399999999996,-4.298000000000001,65535
56.09999999999996,-4.946000000000001,65535
57.39599999999995,-4.298000000000001,65535
57.39599999999995,-3.0020000000000016,65535
57.39599999999995,-3.650000000000001,65535
56.42399999999996,-3.650000000000001,65535
57.07199999999995,-3.650000000000001,65535
57.07199999999995,-4.298000000000001,65535
56.74799999999996,-3.650000000000001,65535
59.15266399999986,27.34114399999998,65535
59.47666399999986,26.69314399999997,65535
59.47666399999986,26.04514399999998,65535
59.15266399999986,26.04514399999998,65535
59.15266399999986,24.74914399999998,65535
59.15266399999986,25.397143999999983,65535
59.47666399999986,25.397143999999983,65535
58.50466399999986,26.69314399999997,65535
58.82866399999986,26.69314399999997,65535
57.85666399999987,26.04514399999998,65535
58.180663999999865,26.04514399999998,65535
58.180663999999865,26.69314399999997,65535
58.82866399999986,26.04514399999998,65535
58.50466399999986,25.397143999999983,65535
58.82866399999986,25.397143999999983,65535
58.82866399999986,24.74914399999998,65535
58.180663999999865,27.34114399999998,65535
57.85666399999987,27.34114399999998,65535
63.68866399999983,27.34114399999998,7077
60.124663999999854,24.74914399999998,6613
60.44866399999985,24.74914399999998,6582
60.44866399999985,25.397143999999983,6594
60.77266399999985,25.397143999999983,6800
61.09666399999985,26.04514399999998,6842
60.77266399999985,26.04514399999998,6849
60.77266399999985,26.69314399999997,6868
61.09666399999985,25.397143999999983,6833
61.09666399999985,26.69314399999997,7198
61.420663999999846,26.69314399999997,7220
61.74466399999984,27.34114399999998,7244
62.06866399999984,27.34114399999998,7269
62.39266399999984,27.34114399999998,7293
62.71666399999984,27.34114399999998,7257
64.01266399999983,27.34114399999998,7425
63.36466399999984,27.34114399999998,7145
63.04066399999984,27.34114399999998,7185
63.04066399999984,27.989143999999985,7200
64.33666399999983,27.989143999999985,7472
64.33666399999983,27.34114399999998,7548
64.66066399999983,27.34114399999998,7564
64.66066399999983,26.69314399999997,7575
64.98466399999982,25.397143999999983,5959
64.66066399999983,26.04514399999998,7605
64.98466399999982,26.04514399999998,7627
66.28066399999982,25.397143999999983,6036
65.95666399999982,24.74914399999998,5872
65.63266399999982,24.74914399999998,5876
65.63266399999982,25.397143999999983,5918
65.30866399999982,25.397143999999983,5939
66.60466399999981,25.397143999999983,6096
64.01266399999983,24.74914399999998,6096
64.01266399999983,24.101143999999977,6131
64.01266399999983,23.45314399999998,6155
63.68866399999983,23.45314399999998,6167
63.68866399999983,22.805143999999984,6192
63.68866399999983,26.04514399999998,6784
63.68866399999983,25.397143999999983,6750
63.68866399999983,26.69314399999997,7044
60.44866399999985,26.69314399999997,7036
64.01266399999983,27.989143999999985,7463
62.71666399999984,22.805143999999984,6314
62.39266399999984,22.805143999999984,6346
62.06866399999984,22.805143999999984,6375
62.06866399999984,23.45314399999998,6391
61.74466399999984,23.45314399999998,6403
61.420663999999846,23.45314399999998,6451
61.09666399999985,23.45314399999998,6492
61.09666399999985,24.101143999999977,6499
61.09666399999985,24.74914399999998,6533
60.77266399999985,24.74914399999998,6549
63.04066399999984,21.50914399999997,65535
63.04066399999984,22.15714399999998,65535
63.04066399999984,22.805143999999984,6278
62.39266399999984,26.04514399999998,7441
62.06866399999984,25.397143999999983,7490
61.74466399999984,25.397143999999983,7558
61.74466399999984,24.74914399999998,7595
61.74466399999984,24.101143999999977,7630
61.420663999999846,24.101143999999977,6974
62.39266399999984,26.69314399999997,7412
64.66066399999983,25.397143999999983,6028
64.66066399999983,24.74914399999998,6046
64.33666399999983,24.74914399999998,6057
63.36466399999984,22.805143999999984,6217
67.25266399999981,24.101143999999977,8186
66.92866399999981,24.101143999999977,8150
66.60466399999981,23.45314399999998,8119
66.28066399999982,23.45314399999998,8101
66.28066399999982,24.101143999999977,8083
65.95666399999982,24.101143999999977,3999
60.124663999999854,24.101143999999977,6806
60.124663999999854,23.45314399999998,6843
60.44866399999985,22.805143999999984,65535
60.77266399999985,27.34114399999998,6926
61.09666399999985,27.989143999999985,6958
61.09666399999985,28.63714399999997,7004
61.420663999999846,29.28514399999997,8691
61.74466399999984,29.933143999999977,8749
62.06866399999984,29.933143999999977,8855
62.39266399999984,29.933143999999977,8893
62.71666399999984,29.933143999999977,8926
61.420663999999846,22.805143999999984,6487
61.420663999999846,22.15714399999998,6566
61.09666399999985,22.15714399999998,6554
61.420663999999846,21.50914399999997,6699
62.39266399999984,27.989143999999985,65535
62.06866399999984,27.989143999999985,65535
61.420663999999846,27.34114399999998,65535
63.04066399999984,29.933143999999977,65535
63.68866399999983,29.28514399999997,65535
63.36466399999984,29.28514399999997,65535
63.36466399999984,29.933143999999977,65535
60.44866399999985,27.34114399999998,65535
61.74466399999984,29.28514399999997,65535
62.39266399999984,30.58114399999998,65535
62.71666399999984,31.229143999999977,65535
62.71666399999984,29.28514399999997,65535
63.04066399999984,28.63714399999997,65535
66.60466399999981,26.04514399999998,6106
66.60466399999981,26.69314399999997,6142
66.60466399999981,27.34114399999998,6165
62.71666399999984,26.04514399999998,7326
62.71666399999984,25.397143999999983,7295
63.04066399999984,25.397143999999983,7115
63.36466399999984,25.397143999999983,7078
62.71666399999984,23.45314399999998,7320
62.39266399999984,24.101143999999977,65535
62.71666399999984,22.15714399999998,65535
62.39266399999984,22.15714399999998,65535
62.39266399999984,21.50914399999997,65535
61.09666399999985,21.50914399999997,8377
60.77266399999985,22.805143999999984,7803
60.44866399999985,22.15714399999998,7851
60.77266399999985,23.45314399999998,7785
60.77266399999985,21.50914399999997,7953
60.77266399999985,22.15714399999998,7906
60.124663999999854,22.805143999999984,8119
60.44866399999985,24.101143999999977,6792
62.06866399999984,24.74914399999998,65535
50.72866399999991,16.325143999999987,1329
50.40466399999991,16.973143999999984,1223
50.72866399999991,16.973143999999984,1284
50.40466399999991,16.325143999999987,1221
50.08066399999991,16.973143999999984,1209
50.08066399999991,16.325143999999987,1164
51.700663999999904,16.973143999999984,1310
51.37666399999991,16.973143999999984,1275
51.05266399999991,15.677143999999986,1342
50.72866399999991,15.677143999999986,1402
51.05266399999991,17.621143999999987,1264
51.37666399999991,17.621143999999987,1381
51.700663999999904,17.621143999999987,1409
51.700663999999904,16.325143999999987,1334
52.0246639999999,22.15714399999998,1378
52.0246639999999,21.50914399999997,1318
52.3486639999999,21.50914399999997,1314
52.0246639999999,20.86114399999998,1317
51.700663999999904,20.86114399999998,1313
51.37666399999991,21.50914399999997,1296
51.37666399999991,20.86114399999998,1278
51.05266399999991,20.86114399999998,1232
52.6726639999999,23.45314399999998,1506
52.3486639999999,22.805143999999984,1446
52.3486639999999,20.213143999999986,1333
52.0246639999999,20.213143999999986,1335
52.3486639999999,19.565143999999982,1567
52.6726639999999,19.565143999999982,1480
51.700663999999904,21.50914399999997,1355
51.700663999999904,22.15714399999998,1361
52.6726639999999,21.50914399999997,1353
52.996663999999896,21.50914399999997,1405
52.6726639999999,20.86114399999998,1343
52.6726639999999,22.15714399999998,1369
52.6726639999999,20.213143999999986,1420
52.996663999999896,19.565143999999982,1491
52.996663999999896,20.86114399999998,1376
52.996663999999896,20.213143999999986,1385
53.32066399999989,20.213143999999986,1481
51.37666399999991,20.213143999999986,1459
52.3486639999999,16.973143999999984,1387
52.0246639999999,16.973143999999984,1373
52.0246639999999,16.325143999999987,1351
52.0246639999999,17.621143999999987,1411
52.6726639999999,16.973143999999984,1396
52.996663999999896,16.973143999999984,1414
52.3486639999999,16.325143999999987,1400
52.3486639999999,15.677143999999986,1391
51.700663999999904,18.269143999999983,1416
52.6726639999999,17.621143999999987,1417
52.3486639999999,17.621143999999987,1394
52.6726639999999,18.269143999999983,1445
52.3486639999999,18.269143999999983,1409
52.3486639999999,18.917143999999983,1482
52.996663999999896,17.621143999999987,1423
51.700663999999904,19.565143999999982,1354
51.700663999999904,18.917143999999983,1379
51.37666399999991,18.269143999999983,1366
58.82866399999986,9.197143999999987,2768
58.180663999999865,7.90114399999999,2861
58.50466399999986,8.54914399999999,2812
63.36466399999984,10.493143999999988,2983
63.36466399999984,11.141143999999988,2990
63.36466399999984,11.789143999999988,3025
63.68866399999983,11.789143999999988,3053
64.33666399999983,12.437143999999988,3454
64.66066399999983,12.437143999999988,3949
65.63266399999982,13.085143999999987,3606
65.95666399999982,13.085143999999987,3641
66.28066399999982,14.381143999999988,3711
65.95666399999982,13.733143999999989,3780
66.28066399999982,13.733143999999989,3689
65.30866399999982,13.085143999999987,3907
64.98466399999982,13.085143999999987,3541
64.01266399999983,11.789143999999988,3084
63.68866399999983,11.141143999999988,3021
59.800663999999855,10.493143999999988,2564
59.800663999999855,11.141143999999988,2547
60.124663999999854,11.141143999999988,2562
60.44866399999985,11.141143999999988,2575
60.124663999999854,11.789143999999988,2588
60.77266399999985,7.25314399999999,2824
60.77266399999985,6.60514399999999,2870
59.15266399999986,9.197143999999987,2650
59.47666399999986,9.197143999999987,2671
59.800663999999855,9.845143999999989,2566
59.47666399999986,11.141143999999988,2511
61.09666399999985,10.493143999999988,2685
60.77266399999985,10.493143999999988,2655
60.77266399999985,11.141143999999988,2610
62.06866399999984,9.197143999999987,3010
61.74466399999984,9.845143999999989,2956
61.420663999999846,9.845143999999989,2933
59.15266399999986,9.845143999999989,2630
59.47666399999986,9.845143999999989,2606
58.82866399999986,5.957143999999991,3045
58.180663999999865,7.25314399999999,2917
58.50466399999986,7.25314399999999,2950
58.50466399999986,6.60514399999999,2955
58.50466399999986,5.957143999999991,3013
58.82866399999986,8.54914399999999,2798
60.44866399999985,7.25314399999999,2798
60.44866399999985,7.90114399999999,2759
60.124663999999854,10.493143999999988,2596
60.44866399999985,9.197143999999987,2708
60.77266399999985,9.197143999999987,2720
60.77266399999985,8.54914399999999,2739
60.124663999999854,9.845143999999989,2854
60.44866399999985,10.493143999999988,2641
63.04066399999984,10.493143999999988,2934
62.06866399999984,9.845143999999989,3035
62.39266399999984,9.845143999999989,3043
62.71666399999984,9.845143999999989,3067
59.47666399999986,14.381143999999988,2517
59.47666399999986,13.733143999999989,2501
59.47666399999986,13.085143999999987,2477
59.800663999999855,12.437143999999988,2546
59.15266399999986,11.141143999999988,2475
59.15266399999986,14.381143999999988,2501
58.82866399999986,11.789143999999988,2455
58.50466399999986,12.437143999999988,2385
58.180663999999865,12.437143999999988,2378
57.85666399999987,11.789143999999988,2329
62.71666399999984,7.90114399999999,3096
62.39266399999984,7.90114399999999,3053
62.06866399999984,8.54914399999999,3028
60.44866399999985,5.309143999999991,2944
60.44866399999985,5.957143999999991,2911
60.77266399999985,5.957143999999991,2900
62.39266399999984,11.141143999999988,2831
62.06866399999984,10.493143999999988,2786
61.74466399999984,11.141143999999988,2759
61.420663999999846,11.141143999999988,2713
61.09666399999985,11.141143999999988,2696
60.77266399999985,11.789143999999988,2673
63.04066399999984,11.141143999999988,2912
62.71666399999984,11.141143999999988,2855
62.39266399999984,10.493143999999988,2813
67.25266399999981,15.677143999999986,3830
67.25266399999981,15.029143999999986,3868
67.25266399999981,14.381143999999988,3896
66.92866399999981,15.029143999999986,3819
66.60466399999981,15.677143999999986,3797
64.01266399999983,11.141143999999988,3068
66.60466399999981,15.029143999999986,3860
54.29266399999989,18.269143999999983,1496
54.616663999999886,17.621143999999987,1514
53.96866399999989,18.269143999999983,1507
43.92466399999995,1.4211439999999929,1862
44.24866399999995,0.7731439999999932,1823
44.572663999999946,0.1251439999999934,1809
46.84066399999993,1.4211439999999929,1786
44.572663999999946,1.4211439999999929,2350
44.24866399999995,1.4211439999999929,2334
45.54466399999994,1.4211439999999929,1848
46.516663999999935,1.4211439999999929,1802
42.30466399999996,2.717143999999992,2431
44.24866399999995,2.717143999999992,2346
44.572663999999946,2.717143999999992,2313
43.92466399999995,2.0691439999999925,2319
42.30466399999996,2.0691439999999925,2472
42.62866399999996,2.0691439999999925,2379
42.62866399999996,1.4211439999999929,2372
42.95266399999996,1.4211439999999929,2365
43.276663999999954,1.4211439999999929,2310
46.516663999999935,-1.170856000000006,1865
46.19266399999994,-1.170856000000006,1826
45.86866399999994,-0.5228560000000062,1844
45.54466399999994,-0.5228560000000062,1824
48.46066399999992,1.4211439999999929,1645
41.332663999999966,2.0691439999999925,2674
41.98066399999996,2.717143999999992,2633
48.46066399999992,-1.8188560000000056,1798
47.81266399999993,0.7731439999999932,1693
46.84066399999993,0.7731439999999932,1771
44.572663999999946,-1.170856000000006,1765
43.60066399999995,-1.170856000000006,2311
43.276663999999954,-1.8188560000000056,2346
43.276663999999954,0.1251439999999934,2380
42.95266399999996,0.1251439999999934,2384
43.276663999999954,-0.5228560000000062,2348
43.60066399999995,-0.5228560000000062,2336
47.81266399999993,-3.7628560000000046,2395
47.48866399999993,-2.4668560000000053,1854
47.81266399999993,-0.5228560000000062,2285
46.516663999999935,-1.8188560000000056,2346
48.136663999999925,-1.170856000000006,1782
47.48866399999993,-1.170856000000006,2281
45.22066399999994,8.54914399999999,1636
45.22066399999994,7.90114399999999,1655
46.19266399999994,-0.5228560000000062,1782
46.516663999999935,-0.5228560000000062,2313
48.78466399999992,-3.114856000000005,2418
50.72866399999991,2.0691439999999925,1560
50.40466399999991,2.0691439999999925,1578
40.36066399999997,-3.7628560000000046,2865
41.65666399999997,-1.170856000000006,2782
41.332663999999966,1.4211439999999929,2720
43.276663999999954,13.733143999999989,65535
42.95266399999996,13.733143999999989,65535
41.65666399999997,15.029143999999986,65535
40.68466399999997,17.621143999999987,65535
43.60066399999995,13.085143999999987,5568
41.65666399999997,12.437143999999988,5366
41.65666399999997,13.085143999999987,5373
41.98066399999996,13.085143999999987,5384
41.65666399999997,13.733143999999989,5421
41.332663999999966,13.733143999999989,5450
41.332663999999966,14.381143999999988,5669
41.00866399999997,14.381143999999988,5575
41.332663999999966,13.085143999999987,5433
41.00866399999997,15.029143999999986,5775
41.98066399999996,13.733143999999989,5466
42.30466399999996,14.381143999999988,5856
42.30466399999996,12.437143999999988,5411
42.62866399999996,12.437143999999988,5419
42.95266399999996,12.437143999999988,5476
42.30466399999996,11.789143999999988,5380
42.95266399999996,11.789143999999988,5676
42.62866399999996,11.789143999999988,5667
43.276663999999954,11.789143999999988,5730
42.95266399999996,13.085143999999987,5469
42.30466399999996,13.085143999999987,8623
43.276663999999954,13.085143999999987,5521
43.276663999999954,12.437143999999988,5529
42.62866399999996,11.141143999999988,5512
42.95266399999996,11.141143999999988,5555
42.95266399999996,10.493143999999988,5573
44.572663999999946,8.54914399999999,1670
44.89666399999994,7.90114399999999,1652
44.89666399999994,9.197143999999987,1692
44.24866399999995,7.90114399999999,1674
44.572663999999946,7.90114399999999,1661
43.92466399999995,7.90114399999999,2403
44.24866399999995,7.25314399999999,1716
44.89666399999994,7.25314399999999,1698
45.22066399999994,7.25314399999999,1678
45.54466399999994,7.90114399999999,1658
44.572663999999946,7.25314399999999,2302
52.996663999999896,22.805143999999984,1603
52.996663999999896,23.45314399999998,1593
51.37666399999991,22.15714399999998,1403
51.37666399999991,22.805143999999984,1457
50.08066399999991,20.213143999999986,1013
50.72866399999991,20.213143999999986,1164
50.40466399999991,20.213143999999986,1090
50.08066399999991,20.86114399999998,1048
50.08066399999991,21.50914399999997,1279
50.08066399999991,22.15714399999998,1300
50.08066399999991,22.805143999999984,1351
53.96866399999989,22.805143999999984,1827
53.64466399999989,23.45314399999998,1780
53.32066399999989,23.45314399999998,1737
50.40466399999991,19.565143999999982,1029
50.08066399999991,18.917143999999983,1038
50.08066399999991,18.269143999999983,1232
52.0246639999999,22.805143999999984,1427
52.0246639999999,23.45314399999998,1464
51.37666399999991,19.565143999999982,1314
51.05266399999991,19.565143999999982,1267
50.72866399999991,18.917143999999983,1149
50.72866399999991,19.565143999999982,1249
49.75666399999992,18.917143999999983,978
50.40466399999991,18.269143999999983,1127
53.64466399999989,19.565143999999982,1572
53.96866399999989,18.917143999999983,1495
53.64466399999989,18.917143999999983,1509
53.64466399999989,20.213143999999986,1603
52.996663999999896,18.917143999999983,1475
52.996663999999896,18.269143999999983,1436
53.32066399999989,18.917143999999983,1496
50.72866399999991,17.621143999999987,1207
50.72866399999991,18.269143999999983,1197
52.6726639999999,16.325143999999987,1423
52.996663999999896,16.325143999999987,1435
52.996663999999896,15.677143999999986,1454
53.32066399999989,15.677143999999986,1524
53.32066399999989,15.029143999999986,1495
53.64466399999989,15.029143999999986,1491
53.96866399999989,15.029143999999986,1477
52.6726639999999,18.917143999999983,1521
53.32066399999989,16.325143999999987,1657
52.6726639999999,15.029143999999986,1450
51.05266399999991,22.805143999999984,1480
51.05266399999991,23.45314399999998,1521
50.72866399999991,22.15714399999998,1391
50.40466399999991,22.15714399999998,1389
51.05266399999991,22.15714399999998,1454
54.616663999999886,16.973143999999984,1556
54.29266399999989,16.325143999999987,1542
53.96866399999989,15.677143999999986,1490
50.72866399999991,21.50914399999997,1437
50.40466399999991,21.50914399999997,1334
50.40466399999991,17.621143999999987,1240
53.32066399999989,22.805143999999984,2237
53.64466399999989,22.15714399999998,2197
54.29266399999989,16.973143999999984,1557
50.72866399999991,20.86114399999998,1203
51.700663999999904,22.805143999999984,1477
51.05266399999991,21.50914399999997,1248
50.08066399999991,19.565143999999982,1001
52.0246639999999,18.917143999999983,8008
52.0246639999999,19.565143999999982,8001
53.64466399999989,18.269143999999983,1527
51.700663999999904,20.213143999999986,1446
53.32066399999989,19.565143999999982,1595
50.72866399999991,23.45314399999998,1626
50.72866399999991,22.805143999999984,1597
49.43266399999992,20.213143999999986,1025
49.75666399999992,21.50914399999997,1318
49.75666399999992,22.15714399999998,1351
49.43266399999992,22.15714399999998,1212
51.05266399999991,18.917143999999983,1376
51.05266399999991,18.269143999999983,1313
53.32066399999989,16.973143999999984,1438
53.64466399999989,16.973143999999984,1480
49.75666399999992,20.86114399999998,957
50.40466399999991,22.805143999999984,8090
53.64466399999989,16.325143999999987,1553
53.96866399999989,20.86114399999998,1633
54.29266399999989,20.86114399999998,1679
53.96866399999989,21.50914399999997,1812
53.64466399999989,15.677143999999986,1504
53.96866399999989,20.213143999999986,1561
53.96866399999989,19.565143999999982,1524
54.29266399999989,19.565143999999982,1534
53.96866399999989,16.325143999999987,1564
53.64466399999989,17.621143999999987,1488
53.96866399999989,22.15714399999998,1878
53.64466399999989,21.50914399999997,2246
53.64466399999989,20.86114399999998,1753
52.6726639999999,15.677143999999986,1458
51.05266399999991,20.213143999999986,1456
54.940663999999884,24.101143999999977,3201
54.616663999999886,23.45314399999998,3145
54.29266399999989,23.45314399999998,3008
53.64466399999989,22.805143999999984,2260
53.96866399999989,16.973143999999984,1513
50.40466399999991,20.86114399999998,1303
53.32066399999989,18.269143999999983,1549
49.75666399999992,19.565143999999982,998
50.40466399999991,23.45314399999998,1516
49.75666399999992,20.213143999999986,1029
49.43266399999992,19.565143999999982,1005
49.43266399999992,20.86114399999998,936
53.96866399999989,17.621143999999987,2283
42.30466399999996,-1.8188560000000056,8319
41.98066399999996,-1.8188560000000056,8302
41.65666399999997,0.7731439999999932,8306
42.62866399999996,-1.8188560000000056,8434
42.95266399999996,-1.8188560000000056,8463
42.62866399999996,-3.114856000000005,8557
42.95266399999996,-2.4668560000000053,8535
42.62866399999996,-7.650856000000003,8899
42.30466399999996,-7.650856000000003,8959
42.30466399999996,-8.946856000000002,9095
42.30466399999996,-8.298856000000002,9069
41.98066399999996,-8.298856000000002,9058
42.30466399999996,-7.002856000000003,8841
42.62866399999996,-6.354856000000003,8783
42.30466399999996,-6.354856000000003,8738
42.62866399999996,-5.706856000000004,8238
41.98066399999996,-4.410856000000004,8192
42.30466399999996,-3.7628560000000046,8583
40.03666399999997,-0.5228560000000062,8286
39.38866399999998,-0.5228560000000062,8334
41.00866399999997,0.7731439999999932,8434
40.68466399999997,0.7731439999999932,8466
40.36066399999997,0.1251439999999934,8544
39.712663999999975,-0.5228560000000062,8443
38.41666399999998,-0.5228560000000062,8455
39.06466399999998,-0.5228560000000062,8577
38.74066399999998,-1.170856000000006,8463
41.332663999999966,0.7731439999999932,8494
41.65666399999997,2.717143999999992,8094
41.65666399999997,2.0691439999999925,8117
41.332663999999966,0.1251439999999934,8452
41.332663999999966,-0.5228560000000062,8396
41.65666399999997,-4.410856000000004,8166
40.03666399999997,-2.4668560000000053,8404
41.00866399999997,-4.410856000000004,8287
43.276663999999954,-5.706856000000004,8368
39.38866399999998,-1.170856000000006,8429
38.09266399999999,-1.170856000000006,8842
38.74066399999998,-0.5228560000000062,8605
37.76866399999999,-1.170856000000006,8907
39.06466399999998,-1.8188560000000056,8427
39.38866399999998,-3.114856000000005,8327
39.38866399999998,-2.4668560000000053,8383
39.06466399999998,-2.4668560000000053,8410
39.06466399999998,-3.114856000000005,8331
39.06466399999998,-3.7628560000000046,8305
38.74066399999998,-3.7628560000000046,8384
40.03666399999997,-3.7628560000000046,8283
40.03666399999997,-3.114856000000005,8483
40.03666399999997,-1.8188560000000056,8564
39.712663999999975,-1.8188560000000056,8529
39.712663999999975,-1.170856000000006,8465
40.36066399999997,-1.170856000000006,8484
40.68466399999997,-1.170856000000006,8462
41.00866399999997,-1.170856000000006,8450
41.332663999999966,-1.170856000000006,8290
43.276663999999954,-8.298856000000002,9059
42.95266399999996,-8.298856000000002,9027
41.65666399999997,-5.706856000000004,65535
41.98066399999996,-7.002856000000003,65535
41.98066399999996,-6.354856000000003,65535
41.332663999999966,-5.058856000000004,8405
43.276663999999954,-3.7628560000000046,8840
42.95266399999996,-4.410856000000004,8774
42.62866399999996,-4.410856000000004,8764
42.30466399999996,-4.410856000000004,8723
41.00866399999997,-5.706856000000004,8343
41.332663999999966,-1.8188560000000056,8236
40.68466399999997,-3.114856000000005,8190
41.00866399999997,-3.114856000000005,8241
41.00866399999997,-2.4668560000000053,8264
41.332663999999966,-2.4668560000000053,8317
40.68466399999997,-4.410856000000004,8227
40.36066399999997,-4.410856000000004,8311
40.68466399999997,-3.7628560000000046,8219
40.36066399999997,-3.114856000000005,8197
41.65666399999997,-2.4668560000000053,8334
38.09266399999999,-3.7628560000000046,8431
38.74066399999998,-3.114856000000005,8375
37.76866399999999,-3.7628560000000046,8488
39.712663999999975,-3.114856000000005,8319
38.41666399999998,-3.7628560000000046,8396
40.03666399999997,-4.410856000000004,65535
40.03666399999997,-5.058856000000004,65535
39.38866399999998,-6.354856000000003,65535
39.38866399999998,-7.002856000000003,65535
42.95266399999996,-3.114856000000005,8968
41.98066399999996,-1.170856000000006,8331
42.30466399999996,-2.4668560000000053,8372
41.65666399999997,-0.5228560000000062,8429
41.98066399999996,-0.5228560000000062,8266
41.65666399999997,0.1251439999999934,8293
41.98066399999996,0.1251439999999934,8315
37.76866399999999,-5.058856000000004,8367
36.79666399999999,-4.410856000000004,8426
38.74066399999998,-4.410856000000004,8323
37.12066399999999,-4.410856000000004,8400
37.44466399999999,-5.058856000000004,8924
37.44466399999999,-7.002856000000003,65535
37.44466399999999,-6.354856000000003,65535
37.44466399999999,-5.706856000000004,8600
39.712663999999975,-3.7628560000000046,8393
42.62866399999996,-8.946856000000002,65535
42.30466399999996,-5.706856000000004,8745
42.30466399999996,-5.058856000000004,8830
42.95266399999996,-5.706856000000004,8270
41.00866399999997,-5.058856000000004,8311
40.68466399999997,-5.058856000000004,8285
41.65666399999997,-5.058856000000004,65535
41.65666399999997,-6.354856000000003,65535
36.79666399999999,-6.354856000000003,65535
37.12066399999999,-5.706856000000004,8768
37.76866399999999,-5.706856000000004,8567
38.09266399999999,-4.410856000000004,8702
37.12066399999999,-5.058856000000004,8722
36.79666399999999,-5.058856000000004,8680
37.76866399999999,-4.410856000000004,65535
37.76866399999999,-7.002856000000003,65535
38.41666399999998,-6.354856000000003,65535
38.09266399999999,-6.354856000000003,65535
48.78466399999992,1.4211439999999929,1705
56.23666399999988,8.54914399999999,6610
55.58866399999988,9.197143999999987,6415
55.91266399999988,9.197143999999987,6556
55.26466399999988,10.493143999999988,2034
55.91266399999988,12.437143999999988,2169
55.58866399999988,11.789143999999988,6255
55.58866399999988,11.141143999999988,6296
55.26466399999988,11.789143999999988,6288
55.58866399999988,10.493143999999988,6411
55.58866399999988,13.085143999999987,2126
56.88466399999987,9.845143999999989,6562
57.20866399999987,9.845143999999989,6597
56.56066399999988,9.845143999999989,6534
56.88466399999987,8.54914399999999,6649
54.940663999999884,9.845143999999989,7756
54.940663999999884,11.789143999999988,6512
55.91266399999988,13.085143999999987,2184
56.23666399999988,13.733143999999989,2228
55.91266399999988,13.733143999999989,2231
56.23666399999988,14.381143999999988,2251
56.23666399999988,15.029143999999986,2292
56.23666399999988,15.677143999999986,2347
56.56066399999988,14.381143999999988,2308
56.88466399999987,14.381143999999988,2278
56.23666399999988,13.085143999999987,2176
56.56066399999988,13.085143999999987,2256
56.88466399999987,12.437143999999988,2293
57.20866399999987,12.437143999999988,2309
57.53266399999987,12.437143999999988,2324
56.88466399999987,15.029143999999986,2304
56.56066399999988,15.677143999999986,2364
56.88466399999987,15.677143999999986,2383
56.88466399999987,16.325143999999987,2398
55.91266399999988,11.789143999999988,6581
57.20866399999987,10.493143999999988,6784
49.43266399999992,1.4211439999999929,1641
49.75666399999992,0.7731439999999932,1658
49.75666399999992,2.0691439999999925,1618
50.08066399999991,2.717143999999992,1609
49.75666399999992,1.4211439999999929,1624
47.81266399999993,1.4211439999999929,1734
48.136663999999925,2.0691439999999925,1732
48.46066399999992,2.0691439999999925,1676
48.136663999999925,1.4211439999999929,1704
48.78466399999992,0.1251439999999934,1712
48.46066399999992,0.1251439999999934,1715
47.81266399999993,0.1251439999999934,2306
46.84066399999993,-0.5228560000000062,1769
47.16466399999993,0.7731439999999932,1695
46.84066399999993,0.1251439999999934,1756
46.84066399999993,-1.170856000000006,1837
50.08066399999991,1.4211439999999929,1597
50.08066399999991,2.0691439999999925,1613
49.43266399999992,2.717143999999992,1618
49.75666399999992,3.365143999999992,1583
50.08066399999991,3.365143999999992,1582
49.10866399999992,2.0691439999999925,1655
49.43266399999992,2.0691439999999925,1639
48.78466399999992,0.7731439999999932,1748
48.78466399999992,-0.5228560000000062,1821
48.78466399999992,-1.170856000000006,1851
48.136663999999925,0.7731439999999932,1735
48.46066399999992,0.7731439999999932,1682
43.92466399999995,5.957143999999991,2306
44.24866399999995,5.957143999999991,2277
43.92466399999995,5.309143999999991,2268
42.95266399999996,2.717143999999992,2270
45.54466399999994,2.0691439999999925,2369
45.22066399999994,2.0691439999999925,2325
42.95266399999996,2.0691439999999925,2370
42.95266399999996,0.7731439999999932,2335
43.276663999999954,0.7731439999999932,2305
46.19266399999994,0.7731439999999932,1778
46.516663999999935,0.7731439999999932,1748
45.86866399999994,0.1251439999999934,2307
46.19266399999994,0.1251439999999934,2324
47.81266399999993,-1.170856000000006,2416
48.136663999999925,-2.4668560000000053,2328
47.48866399999993,-1.8188560000000056,1838
47.16466399999993,-1.170856000000006,1804
47.16466399999993,-0.5228560000000062,1788
46.84066399999993,-1.8188560000000056,2400
45.22066399999994,-0.5228560000000062,1765
44.89666399999994,0.1251439999999934,1802
45.22066399999994,0.7731439999999932,1841
45.54466399999994,0.7731439999999932,1876
45.86866399999994,0.7731439999999932,2372
45.22066399999994,0.1251439999999934,2313
44.89666399999994,0.7731439999999932,1846
43.92466399999995,-0.5228560000000062,2347
43.92466399999995,-1.170856000000006,2291
44.24866399999995,-1.170856000000006,2271
45.22066399999994,-1.170856000000006,2393
44.572663999999946,-0.5228560000000062,1784
44.24866399999995,0.1251439999999934,1831
44.572663999999946,0.7731439999999932,2340
43.276663999999954,-1.170856000000006,2330
42.95266399999996,-0.5228560000000062,2532
44.24866399999995,2.0691439999999925,2319
43.60066399999995,0.7731439999999932,2292
43.60066399999995,2.0691439999999925,2293
52.6726639999999,4.661143999999991,6601
52.6726639999999,5.309143999999991,6624
51.700663999999904,5.309143999999991,6569
52.0246639999999,5.309143999999991,6581
52.3486639999999,5.309143999999991,6597
51.37666399999991,4.013143999999992,6577
52.3486639999999,5.957143999999991,6591
52.0246639999999,6.60514399999999,6621
52.6726639999999,5.957143999999991,6608
52.996663999999896,5.957143999999991,6621
53.32066399999989,5.957143999999991,6615
52.996663999999896,6.60514399999999,6597
53.32066399999989,6.60514399999999,6589
52.6726639999999,6.60514399999999,6617
52.996663999999896,5.309143999999991,6636
59.15266399999986,24.101143999999977,65535
56.88466399999987,24.101143999999977,65535
56.88466399999987,23.45314399999998,65535
56.88466399999987,22.805143999999984,65535
57.20866399999987,24.74914399999998,65535
56.88466399999987,24.74914399999998,65535
56.56066399999988,24.74914399999998,65535
56.56066399999988,25.397143999999983,65535
56.56066399999988,24.101143999999977,65535
56.56066399999988,23.45314399999998,65535
56.56066399999988,26.04514399999998,65535
56.88466399999987,26.04514399999998,65535
57.20866399999987,25.397143999999983,65535
57.53266399999987,25.397143999999983,65535
56.23666399999988,26.04514399999998,65535
56.23666399999988,26.69314399999997,65535
55.91266399999988,26.69314399999997,65535
56.56066399999988,26.69314399999997,65535
56.56066399999988,27.34114399999998,65535
56.56066399999988,27.989143999999985,65535
56.23666399999988,27.989143999999985,65535
55.91266399999988,27.34114399999998,65535
56.56066399999988,22.805143999999984,65535
56.56066399999988,22.15714399999998,65535
56.56066399999988,21.50914399999997,65535
57.20866399999987,26.69314399999997,65535
39.06466399999998,-8.946856000000002,65535
38.41666399999998,-8.298856000000002,65535
45.86866399999994,11.789143999999988,3988
46.19266399999994,11.789143999999988,3975
46.19266399999994,10.493143999999988,3965
45.22066399999994,18.269143999999983,1680
45.22066399999994,18.917143999999983,1706
45.54466399999994,16.973143999999984,1546
45.22066399999994,17.621143999999987,1603
45.86866399999994,16.325143999999987,1455
45.54466399999994,18.917143999999983,1729
45.54466399999994,16.325143999999987,1492
45.54466399999994,18.269143999999983,1701
44.89666399999994,18.917143999999983,2856
46.19266399999994,16.973143999999984,1463
46.19266399999994,16.325143999999987,1437
45.86866399999994,16.973143999999984,1492
45.86866399999994,17.621143999999987,1555
46.19266399999994,15.677143999999986,1468
46.516663999999935,16.325143999999987,1402
45.54466399999994,15.677143999999986,1498
45.22066399999994,15.029143999999986,1517
45.54466399999994,15.029143999999986,1462
45.22066399999994,15.677143999999986,1516
44.572663999999946,15.677143999999986,2024
44.24866399999995,15.677143999999986,2050
43.92466399999995,16.325143999999987,2133
44.89666399999994,15.677143999999986,1980
45.54466399999994,17.621143999999987,1666
45.22066399999994,16.325143999999987,1503
46.516663999999935,16.973143999999984,1455
45.86866399999994,18.269143999999983,2334
43.92466399999995,15.677143999999986,2274
45.22066399999994,13.733143999999989,1541
47.48866399999993,19.565143999999982,1072
47.16466399999993,18.917143999999983,1058
47.81266399999993,18.917143999999983,1054
45.54466399999994,9.845143999999989,1639
45.22066399999994,9.845143999999989,1649
45.22066399999994,10.493143999999988,1698
45.86866399999994,9.845143999999989,1659
45.86866399999994,10.493143999999988,6678
48.78466399999992,21.50914399999997,735
49.10866399999992,20.213143999999986,901
49.10866399999992,18.917143999999983,939
48.46066399999992,17.621143999999987,1107
49.43266399999992,17.621143999999987,1050
49.10866399999992,17.621143999999987,1237
48.136663999999925,18.269143999999983,1080
49.10866399999992,18.269143999999983,1047
49.43266399999992,18.269143999999983,978
49.43266399999992,16.973143999999984,1081
49.75666399999992,16.973143999999984,1094
49.75666399999992,16.325143999999987,1139
50.08066399999991,15.677143999999986,1170
50.08066399999991,15.029143999999986,1186
49.43266399999992,18.917143999999983,955
47.81266399999993,20.86114399999998,955
48.136663999999925,20.86114399999998,900
48.46066399999992,20.86114399999998,804
48.46066399999992,21.50914399999997,690
49.10866399999992,19.565143999999982,911
48.136663999999925,17.621143999999987,1122
48.78466399999992,22.15714399999998,1077
48.78466399999992,20.86114399999998,959
49.10866399999992,20.86114399999998,815
48.78466399999992,18.269143999999983,1090
48.78466399999992,17.621143999999987,1229
49.10866399999992,21.50914399999997,751
48.78466399999992,20.213143999999986,1310
48.46066399999992,20.213143999999986,1337
48.136663999999925,19.565143999999982,1605
48.46066399999992,19.565143999999982,1484
48.46066399999992,18.917143999999983,1226
48.46066399999992,18.269143999999983,1103
48.78466399999992,19.565143999999982,1250
48.78466399999992,18.917143999999983,1168
47.81266399999993,18.269143999999983,1098
49.10866399999992,22.15714399999998,1124
49.43266399999992,21.50914399999997,814
48.136663999999925,18.917143999999983,1306
48.136663999999925,20.213143999999986,1625
52.636,-8.018,65535
52.312,-7.370000000000001,65535
52.312,-8.018,65535
52.636,-8.666,65535
51.988,-8.666,65535
51.988,-8.018,65535
52.96,-8.666,65535
52.96,-6.074000000000002,65535
53.28399999999999,-6.722000000000001,65535
53.60799999999999,-6.722000000000001,65535
53.60799999999999,-7.370000000000001,65535
53.60799999999999,-8.018,65535
54.25599999999999,-8.666,65535
53.93199999999999,-8.666,65535
53.93199999999999,-8.018,65535
52.312,-6.722000000000001,65535
52.636,-6.722000000000001,65535
53.93199999999999,-6.722000000000001,65535
54.25599999999999,-6.074000000000002,65535
53.28399999999999,-7.370000000000001,65535
52.96,-7.370000000000001,65535
52.312,-8.666,65535
52.96,-8.018,65535
52.636,-7.370000000000001,65535
52.96,-6.722000000000001,65535
51.988,-9.314,65535
52.312,-9.314,65535
54.579999999999984,-6.722000000000001,65535
54.579999999999984,-6.074000000000002,65535
53.28399999999999,-8.018,65535
53.28399999999999,-8.666,65535
53.28399999999999,-9.314,65535
53.93199999999999,-9.314,65535
54.25599999999999,-9.314,65535
53.60799999999999,-8.666,65535
53.60799999999999,-9.314,65535
49.43266399999992,14.381143999999988,1235
49.75666399999992,14.381143999999988,1202
49.75666399999992,15.029143999999986,1198
49.75666399999992,13.733143999999989,1223
50.08066399999991,13.733143999999989,1217
49.75666399999992,15.677143999999986,1197
50.40466399999991,15.029143999999986,1215
49.43266399999992,13.733143999999989,1326
50.40466399999991,15.677143999999986,1307
50.40466399999991,13.733143999999989,1243
46.19266399999994,15.029143999999986,1475
45.86866399999994,15.029143999999986,1453
45.86866399999994,14.381143999999988,1437
46.19266399999994,13.733143999999989,1520
45.86866399999994,13.733143999999989,1595
58.50466399999986,13.733143999999989,2420
58.180663999999865,13.733143999999989,2406
58.180663999999865,13.085143999999987,2378
57.85666399999987,12.437143999999988,2342
60.44866399999985,15.677143999999986,2627
60.124663999999854,15.677143999999986,2561
60.124663999999854,16.325143999999987,2599
59.800663999999855,16.325143999999987,2527
59.800663999999855,17.621143999999987,2506
59.47666399999986,18.269143999999983,2488
61.74466399999984,16.973143999999984,2638
61.420663999999846,16.973143999999984,2611
60.77266399999985,16.973143999999984,2563
65.63266399999982,22.15714399999998,3742
65.95666399999982,21.50914399999997,3702
65.63266399999982,20.86114399999998,3673
64.98466399999982,20.213143999999986,3605
64.66066399999983,20.213143999999986,3583
64.33666399999983,19.565143999999982,3277
64.01266399999983,19.565143999999982,2990
63.68866399999983,20.213143999999986,2943
64.66066399999983,18.917143999999983,5654
59.15266399999986,16.325143999999987,2463
59.15266399999986,15.029143999999986,2467
59.15266399999986,17.621143999999987,2480
57.53266399999987,14.381143999999988,2304
57.53266399999987,15.029143999999986,2324
61.09666399999985,14.381143999999988,2731
60.77266399999985,15.029143999999986,2682
60.44866399999985,15.029143999999986,2668
58.180663999999865,15.029143999999986,2381
58.50466399999986,16.325143999999987,2415
58.50466399999986,15.677143999999986,2388
63.36466399999984,13.085143999999987,2975
63.04066399999984,14.381143999999988,2912
62.39266399999984,15.677143999999986,2834
63.36466399999984,13.733143999999989,2957
63.36466399999984,14.381143999999988,2929
62.71666399999984,15.677143999999986,2862
62.39266399999984,17.621143999999987,2696
59.800663999999855,15.677143999999986,2749
55.58866399999988,13.733143999999989,2258
57.20866399999987,14.381143999999988,2288
57.85666399999987,14.381143999999988,2336
58.82866399999986,16.973143999999984,2472
58.82866399999986,16.325143999999987,2450
59.15266399999986,18.269143999999983,2484
60.44866399999985,17.621143999999987,2539
59.15266399999986,12.437143999999988,2443
59.15266399999986,13.085143999999987,2457
58.82866399999986,12.437143999999988,2419
59.47666399999986,16.325143999999987,2509
58.82866399999986,14.381143999999988,2496
59.47666399999986,15.677143999999986,2527
63.36466399999984,18.917143999999983,2896
63.04066399999984,17.621143999999987,2851
62.71666399999984,17.621143999999987,2825
63.68866399999983,19.565143999999982,2929
62.39266399999984,16.973143999999984,2740
59.800663999999855,16.973143999999984,2515
59.47666399999986,17.621143999999987,2492
57.85666399999987,13.085143999999987,2368
57.53266399999987,13.085143999999987,2349
58.50466399999986,11.789143999999988,2390
57.85666399999987,15.029143999999986,2370
57.20866399999987,13.733143999999989,2294
57.53266399999987,13.733143999999989,2355
61.74466399999984,16.325143999999987,2734
61.420663999999846,16.325143999999987,2701
61.09666399999985,16.325143999999987,2690
61.09666399999985,16.973143999999984,2658
60.124663999999854,15.029143999999986,2836
66.60466399999981,20.86114399999998,3777
67.25266399999981,20.86114399999998,3845
67.90066399999981,20.213143999999986,3915
67.57666399999981,20.213143999999986,4540
59.800663999999855,15.029143999999986,2556
58.50466399999986,15.029143999999986,2398
59.47666399999986,15.029143999999986,2541
60.44866399999985,16.325143999999987,2627
59.15266399999986,15.677143999999986,2485
57.85666399999987,13.733143999999989,2396
58.82866399999986,13.733143999999989,2443
58.50466399999986,13.085143999999987,2428
57.20866399999987,13.085143999999987,2325
56.88466399999987,13.085143999999987,2299
58.180663999999865,11.789143999999988,2361
62.06866399999984,16.973143999999984,2729
65.95666399999982,23.45314399999998,3977
59.800663999999855,14.381143999999988,5411
59.800663999999855,18.269143999999983,2497
63.04066399999984,15.029143999999986,2880
62.71666399999984,15.029143999999986,2870
62.39266399999984,16.325143999999987,2803
63.36466399999984,12.437143999999988,3008
68.5486639999998,17.621143999999987,4128
68.5486639999998,18.269143999999983,4061
68.5486639999998,18.917143999999983,4038
68.2246639999998,18.917143999999983,3994
59.800663999999855,13.085143999999987,2560
60.124663999999854,13.085143999999987,2599
59.47666399999986,16.973143999999984,2501
59.15266399999986,16.973143999999984,2493
56.56066399999988,13.733143999999989,2246
60.124663999999854,17.621143999999987,2516
57.85666399999987,16.325143999999987,2475
58.180663999999865,16.325143999999987,2437
58.180663999999865,15.677143999999986,2445
57.20866399999987,16.325143999999987,2487
57.53266399999987,15.677143999999986,2505
57.85666399999987,15.677143999999986,2476
44.89666399999994,23.45314399999998,2485
44.572663999999946,23.45314399999998,2555
44.89666399999994,24.74914399999998,2472
44.572663999999946,24.74914399999998,2591
44.572663999999946,24.101143999999977,2532
44.24866399999995,24.101143999999977,2561
47.48866399999993,25.397143999999983,2333
47.48866399999993,24.74914399999998,2273
47.16466399999993,24.74914399999998,2195
47.16466399999993,24.101143999999977,2097
47.48866399999993,22.15714399999998,2227
47.81266399999993,22.15714399999998,2313
47.16466399999993,22.15714399999998,2206
47.16466399999993,23.45314399999998,2258
47.16466399999993,22.805143999999984,2264
46.84066399999993,24.101143999999977,2178
45.86866399999994,27.34114399999998,2518
45.54466399999994,27.34114399999998,2499
45.54466399999994,27.989143999999985,2615
45.86866399999994,20.86114399999998,2390
45.86866399999994,21.50914399999997,2398
46.19266399999994,21.50914399999997,2334
46.19266399999994,27.34114399999998,2518
46.19266399999994,26.69314399999997,2509
46.516663999999935,26.69314399999997,2471
46.516663999999935,26.04514399999998,2367
47.48866399999993,22.805143999999984,2325
46.84066399999993,22.805143999999984,2138
45.54466399999994,22.15714399999998,2447
45.22066399999994,22.15714399999998,2525
44.89666399999994,22.15714399999998,2943
47.48866399999993,23.45314399999998,2291
46.516663999999935,24.101143999999977,2017
46.516663999999935,24.74914399999998,2231
45.86866399999994,24.101143999999977,2180
47.16466399999993,26.69314399999997,2549
47.16466399999993,27.34114399999998,2604
43.92466399999995,25.397143999999983,2563
44.24866399999995,24.74914399999998,2470
44.89666399999994,26.04514399999998,2357
44.89666399999994,26.69314399999997,2404
45.22066399999994,26.69314399999997,2439
45.22066399999994,27.34114399999998,2466
46.84066399999993,26.69314399999997,2510
47.48866399999993,26.69314399999997,2503
44.24866399999995,25.397143999999983,2402
43.92466399999995,26.04514399999998,2579
46.19266399999994,24.101143999999977,2225
44.572663999999946,25.397143999999983,2440
46.84066399999993,24.74914399999998,2238
46.516663999999935,21.50914399999997,2338
46.84066399999993,21.50914399999997,2345
44.572663999999946,26.69314399999997,2395
44.572663999999946,27.34114399999998,2416
44.89666399999994,27.34114399999998,2531
44.572663999999946,27.989143999999985,2436
44.24866399999995,27.989143999999985,2450
44.572663999999946,28.63714399999997,2501
45.86866399999994,22.15714399999998,2259
45.86866399999994,22.805143999999984,2153
44.24866399999995,23.45314399999998,2588
43.92466399999995,27.989143999999985,65535
46.84066399999993,27.34114399999998,2671
45.22066399999994,23.45314399999998,2460
45.54466399999994,23.45314399999998,2263
45.54466399999994,24.101143999999977,2210
45.22066399999994,24.101143999999977,2434
44.89666399999994,24.101143999999977,2504
46.19266399999994,22.15714399999998,2390
46.516663999999935,22.15714399999998,2356
45.22066399999994,21.50914399999997,2630
45.54466399999994,21.50914399999997,2478
45.54466399999994,20.86114399999998,2502
46.516663999999935,27.989143999999985,2621
46.19266399999994,27.989143999999985,2606
45.54466399999994,25.397143999999983,2324
45.22066399999994,25.397143999999983,2334
45.22066399999994,26.04514399999998,2390
47.81266399999993,24.101143999999977,2386
47.48866399999993,26.04514399999998,2476
47.81266399999993,26.04514399999998,2498
46.19266399999994,23.45314399999998,2057
45.86866399999994,23.45314399999998,2106
44.24866399999995,26.04514399999998,2384
45.22066399999994,27.989143999999985,2596
45.86866399999994,24.74914399999998,2219
46.516663999999935,25.397143999999983,2411
46.84066399999993,25.397143999999983,2294
46.19266399999994,26.04514399999998,2382
45.86866399999994,26.04514399999998,2347
43.92466399999995,23.45314399999998,2818
44.89666399999994,25.397143999999983,2445
46.19266399999994,20.86114399999998,2379
47.81266399999993,25.397143999999983,2510
44.572663999999946,22.805143999999984,2823
44.572663999999946,22.15714399999998,2965
46.516663999999935,23.45314399999998,2196
45.86866399999994,25.397143999999983,2273
44.24866399999995,27.34114399999998,3211
45.22066399999994,24.74914399999998,2536
45.54466399999994,22.805143999999984,2226
45.22066399999994,28.63714399999997,2656
44.89666399999994,28.63714399999997,2595
47.81266399999993,23.45314399999998,2443
46.19266399999994,24.74914399999998,2305
46.19266399999994,25.397143999999983,2329
43.92466399999995,24.101143999999977,2781
43.92466399999995,24.74914399999998,2794
47.81266399999993,26.69314399999997,2725
47.48866399999993,24.101143999999977,2318
46.84066399999993,26.04514399999998,3126
46.19266399999994,22.805143999999984,2450
47.48866399999993,27.34114399999998,2678
46.19266399999994,20.213143999999986,65535
45.54466399999994,26.04514399999998,2482
44.24866399999995,26.69314399999997,2400
45.86866399999994,27.989143999999985,2654
47.81266399999993,5.957143999999991,6586
