51.56399999999999,-0.4100000000000028,65535
51.887999999999984,-0.4100000000000028,65535
50.91599999999999,-1.7060000000000022,65535
51.23999999999999,-1.0580000000000025,65535
51.56399999999999,-1.0580000000000025,65535
51.23999999999999,-1.7060000000000022,65535
51.56399999999999,0.2379999999999968,65535
47.16466399999993,9.845143999999989,1224
47.48866399999993,9.845143999999989,1212
48.136663999999925,14.381143999999988,1004
47.81266399999993,13.085143999999987,1072
47.16466399999993,11.141143999999988,1184
47.48866399999993,11.789143999999988,1157
48.136663999999925,16.325143999999987,849
47.48866399999993,12.437143999999988,1082
48.136663999999925,15.677143999999986,901
47.16466399999993,10.493143999999988,1231
47.16466399999993,9.197143999999987,1213
48.136663999999925,13.733143999999989,1027
48.136663999999925,15.029143999999986,1048
47.81266399999993,16.973143999999984,895
48.46066399999992,14.381143999999988,1238
47.48866399999993,13.085143999999987,1075
47.16466399999993,13.085143999999987,1090
47.48866399999993,14.381143999999988,1055
47.48866399999993,13.733143999999989,1071
47.48866399999993,15.029143999999986,1002
46.516663999999935,13.733143999999989,1187
46.84066399999993,13.733143999999989,1156
46.84066399999993,13.085143999999987,1141
48.78466399999992,14.381143999999988,65535
47.16466399999993,15.677143999999986,1020
46.516663999999935,14.381143999999988,1194
46.84066399999993,14.381143999999988,1135
47.16466399999993,14.381143999999988,1085
46.516663999999935,15.029143999999986,1207
47.81266399999993,16.325143999999987,852
47.16466399999993,15.029143999999986,1060
47.81266399999993,15.677143999999986,897
47.48866399999993,15.677143999999986,949
46.516663999999935,13.085143999999987,1454
46.84066399999993,12.437143999999988,1199
48.136663999999925,11.789143999999988,1099
47.81266399999993,12.437143999999988,1089
46.84066399999993,15.677143999999986,1081
46.516663999999935,15.677143999999986,1300
46.84066399999993,16.325143999999987,1065
47.81266399999993,14.381143999999988,1045
48.78466399999992,16.973143999999984,735
48.136663999999925,16.973143999999984,834
48.46066399999992,13.733143999999989,1067
47.81266399999993,13.733143999999989,1034
50.08066399999991,8.54914399999999,1099
48.46066399999992,9.845143999999989,1128
51.05266399999991,7.25314399999999,1057
51.37666399999991,7.25314399999999,1051
51.37666399999991,6.60514399999999,1055
48.46066399999992,16.325143999999987,862
48.46066399999992,16.973143999999984,781
48.78466399999992,16.325143999999987,894
48.46066399999992,15.677143999999986,880
48.78466399999992,15.677143999999986,901
47.48866399999993,16.325143999999987,916
47.16466399999993,16.325143999999987,1014
46.19266399999994,14.381143999999988,1252
45.86866399999994,15.677143999999986,1304
43.60066399999995,16.325143999999987,1720
45.54466399999994,14.381143999999988,1366
45.54466399999994,13.733143999999989,1389
48.136663999999925,13.085143999999987,1068
48.46066399999992,11.141143999999988,1114
48.136663999999925,11.141143999999988,1112
48.46066399999992,7.90114399999999,1177
49.10866399999992,8.54914399999999,1142
48.78466399999992,2.0691439999999925,1208
49.10866399999992,7.25314399999999,1157
52.0246639999999,7.90114399999999,1052
47.16466399999993,11.789143999999988,1210
49.43266399999992,11.141143999999988,1118
53.64466399999989,9.845143999999989,1079
50.72866399999991,4.013143999999992,1111
51.05266399999991,11.141143999999988,962
47.48866399999993,11.141143999999988,1148
46.84066399999993,11.789143999999988,4022
46.516663999999935,11.141143999999988,3991
45.54466399999994,11.141143999999988,3887
46.19266399999994,11.141143999999988,3957
45.86866399999994,11.141143999999988,3941
44.572663999999946,11.141143999999988,2772
43.92466399999995,12.437143999999988,65535
45.54466399999994,12.437143999999988,4230
45.54466399999994,11.789143999999988,4195
48.78466399999992,15.029143999999986,972
47.81266399999993,15.029143999999986,1110
47.81266399999993,11.141143999999988,1129
50.40466399999991,18.917143999999983,427
52.3486639999999,20.86114399999998,12
54.616663999999886,18.269143999999983,298
54.29266399999989,18.917143999999983,279
49.10866399999992,14.381143999999988,65535
50.08066399999991,14.381143999999988,881
48.78466399999992,13.733143999999989,1736
52.6726639999999,13.085143999999987,900
52.3486639999999,13.085143999999987,901
53.96866399999989,12.437143999999988,1038
54.29266399999989,12.437143999999988,1042
47.48866399999993,8.54914399999999,1213
47.81266399999993,17.621143999999987,924
47.48866399999993,18.917143999999983,920
47.48866399999993,20.86114399999998,1436
46.84066399999993,23.45314399999998,1918
44.572663999999946,26.04514399999998,2367
47.48866399999993,21.50914399999997,1472
47.81266399999993,21.50914399999997,1868
48.46066399999992,22.15714399999998,997
47.48866399999993,16.973143999999984,65535
49.10866399999992,16.325143999999987,816
49.75666399999992,18.269143999999983,559
46.19266399999994,13.085143999999987,2303
41.98066399999996,12.437143999999988,5350
43.60066399999995,10.493143999999988,5606
45.54466399999994,9.197143999999987,1328
47.81266399999993,22.805143999999984,2333
49.75666399999992,22.805143999999984,877
50.72866399999991,3.365143999999992,1122
51.05266399999991,4.013143999999992,1115
50.72866399999991,4.661143999999991,1107
51.05266399999991,4.661143999999991,1108
51.05266399999991,3.365143999999992,1122
51.05266399999991,2.717143999999992,1142
50.40466399999991,4.661143999999991,1112
50.72866399999991,2.717143999999992,1138
50.40466399999991,4.013143999999992,1126
51.05266399999991,5.309143999999991,1110
50.72866399999991,5.309143999999991,1099
51.37666399999991,3.365143999999992,1139
51.37666399999991,4.661143999999991,1114
50.72866399999991,5.957143999999991,1089
50.40466399999991,5.957143999999991,1092
50.40466399999991,3.365143999999992,1130
50.40466399999991,5.309143999999991,1105
50.08066399999991,5.309143999999991,1149
49.75666399999992,5.309143999999991,1153
49.75666399999992,5.957143999999991,1124
51.37666399999991,5.309143999999991,1166
51.700663999999904,4.661143999999991,1158
50.08066399999991,4.013143999999992,1153
50.08066399999991,5.957143999999991,1101
50.08066399999991,4.661143999999991,1135
49.43266399999992,5.309143999999991,1180
49.43266399999992,5.957143999999991,1243
52.0246639999999,4.661143999999991,1190
52.3486639999999,4.661143999999991,1219
50.72866399999991,15.029143999999986,910
51.05266399999991,15.029143999999986,900
51.05266399999991,13.733143999999989,910
50.40466399999991,13.085143999999987,1007
49.10866399999992,7.90114399999999,1148
48.78466399999992,7.90114399999999,1160
50.40466399999991,7.90114399999999,1090
50.08066399999991,7.90114399999999,1093
49.75666399999992,7.90114399999999,1103
49.43266399999992,7.90114399999999,1145
49.75666399999992,8.54914399999999,1123
49.43266399999992,8.54914399999999,1132
49.43266399999992,9.197143999999987,1154
49.10866399999992,9.197143999999987,1150
47.48866399999993,7.90114399999999,1222
47.81266399999993,7.90114399999999,1188
48.136663999999925,7.90114399999999,1176
48.136663999999925,9.845143999999989,1149
47.81266399999993,9.197143999999987,1199
47.81266399999993,8.54914399999999,1187
47.81266399999993,9.845143999999989,1187
54.940663999999884,9.197143999999987,1153
54.616663999999886,9.197143999999987,1140
54.29266399999989,9.197143999999987,1148
53.96866399999989,9.197143999999987,1178
53.64466399999989,9.197143999999987,1093
54.616663999999886,9.845143999999989,1132
54.29266399999989,9.845143999999989,1121
53.96866399999989,9.845143999999989,1098
53.64466399999989,10.493143999999988,1082
53.96866399999989,10.493143999999988,1134
53.96866399999989,11.141143999999988,1151
54.29266399999989,10.493143999999988,1150
53.32066399999989,10.493143999999988,1054
54.940663999999884,11.141143999999988,1249
52.6726639999999,13.733143999999989,897
52.3486639999999,13.733143999999989,899
52.3486639999999,14.381143999999988,907
52.0246639999999,14.381143999999988,920
52.0246639999999,11.789143999999988,934
52.3486639999999,11.789143999999988,927
52.3486639999999,12.437143999999988,907
52.0246639999999,15.029143999999986,896
51.700663999999904,14.381143999999988,919
52.0246639999999,13.733143999999989,914
51.700663999999904,13.733143999999989,914
52.6726639999999,12.437143999999988,942
53.32066399999989,11.789143999999988,1029
53.96866399999989,11.789143999999988,1038
53.64466399999989,11.789143999999988,1060
53.64466399999989,11.141143999999988,1062
53.32066399999989,11.141143999999988,1053
52.996663999999896,11.789143999999988,992
52.996663999999896,12.437143999999988,984
52.996663999999896,13.733143999999989,913
53.64466399999989,13.733143999999989,937
53.96866399999989,13.733143999999989,1010
54.29266399999989,13.085143999999987,1052
53.96866399999989,13.085143999999987,1019
53.32066399999989,13.733143999999989,947
52.0246639999999,13.085143999999987,910
51.700663999999904,13.085143999999987,946
52.996663999999896,14.381143999999988,907
52.0246639999999,12.437143999999988,912
51.700663999999904,12.437143999999988,944
51.37666399999991,11.789143999999988,934
51.37666399999991,12.437143999999988,927
52.6726639999999,11.789143999999988,950
53.64466399999989,13.085143999999987,980
53.32066399999989,13.085143999999987,945
52.996663999999896,13.085143999999987,918
53.64466399999989,12.437143999999988,988
51.37666399999991,13.733143999999989,905
53.32066399999989,12.437143999999988,1016
52.6726639999999,14.381143999999988,861
51.37666399999991,13.085143999999987,918
53.32066399999989,14.381143999999988,916
52.3486639999999,15.029143999999986,883
52.0246639999999,15.677143999999986,886
51.700663999999904,15.029143999999986,924
51.05266399999991,16.325143999999987,791
51.05266399999991,16.973143999999984,744
51.700663999999904,15.677143999999986,884
51.37666399999991,15.677143999999986,830
51.37666399999991,16.325143999999987,796
50.72866399999991,13.085143999999987,965
50.72866399999991,12.437143999999988,970
51.05266399999991,13.085143999999987,946
51.05266399999991,14.381143999999988,920
50.40466399999991,12.437143999999988,990
50.40466399999991,11.789143999999988,998
50.08066399999991,12.437143999999988,1033
50.72866399999991,11.789143999999988,997
51.05266399999991,12.437143999999988,950
50.72866399999991,14.381143999999988,915
51.37666399999991,14.381143999999988,898
50.72866399999991,13.733143999999989,935
50.40466399999991,14.381143999999988,895
51.37666399999991,15.029143999999986,861
55.26466399999988,9.197143999999987,1788
55.58866399999988,8.54914399999999,3082
55.91266399999988,8.54914399999999,6559
56.23666399999988,9.197143999999987,6567
56.23666399999988,10.493143999999988,6520
56.23666399999988,9.845143999999989,6507
55.91266399999988,9.845143999999989,6445
56.56066399999988,9.197143999999987,6577
56.56066399999988,8.54914399999999,6620
51.05266399999991,6.60514399999999,1057
51.700663999999904,7.90114399999999,1040
50.72866399999991,6.60514399999999,1068
51.700663999999904,7.25314399999999,1054
50.72866399999991,7.25314399999999,1070
52.0246639999999,7.25314399999999,1062
52.3486639999999,7.90114399999999,1024
51.05266399999991,5.957143999999991,1062
50.40466399999991,7.25314399999999,1078
51.700663999999904,6.60514399999999,1082
51.700663999999904,5.957143999999991,1088
52.3486639999999,9.197143999999987,991
51.700663999999904,8.54914399999999,1025
52.0246639999999,8.54914399999999,1009
52.3486639999999,8.54914399999999,998
51.37666399999991,7.90114399999999,1044
52.3486639999999,7.25314399999999,1041
51.37666399999991,5.957143999999991,1061
50.72866399999991,7.90114399999999,1080
51.37666399999991,9.197143999999987,1051
51.700663999999904,9.197143999999987,1033
50.40466399999991,6.60514399999999,1126
51.05266399999991,7.90114399999999,1073
51.37666399999991,8.54914399999999,1061
52.0246639999999,5.957143999999991,1131
52.3486639999999,6.60514399999999,1076
51.05266399999991,8.54914399999999,1103
52.0246639999999,9.197143999999987,989
52.6726639999999,9.197143999999987,1050
52.0246639999999,9.845143999999989,1022
51.700663999999904,9.845143999999989,1038
51.37666399999991,9.845143999999989,1066
50.72866399999991,8.54914399999999,1118
51.05266399999991,9.845143999999989,1131
50.72866399999991,9.845143999999989,1095
50.40466399999991,9.845143999999989,1109
51.05266399999991,9.197143999999987,1076
50.40466399999991,9.197143999999987,1113
50.08066399999991,9.197143999999987,1103
51.05266399999991,10.493143999999988,1140
50.40466399999991,8.54914399999999,1100
50.72866399999991,9.197143999999987,1088
49.75666399999992,9.197143999999987,1145
52.996663999999896,9.197143999999987,1057
52.3486639999999,9.845143999999989,982
52.996663999999896,8.54914399999999,1046
52.996663999999896,7.90114399999999,1073
53.32066399999989,7.90114399999999,1127
53.32066399999989,7.25314399999999,1213
53.64466399999989,7.25314399999999,1258
52.996663999999896,10.493143999999988,1043
52.6726639999999,10.493143999999988,1036
52.6726639999999,9.845143999999989,990
53.32066399999989,9.845143999999989,1074
53.32066399999989,9.197143999999987,1107
53.64466399999989,8.54914399999999,1093
53.32066399999989,8.54914399999999,1057
52.6726639999999,8.54914399999999,1023
52.0246639999999,10.493143999999988,992
52.0246639999999,11.141143999999988,944
51.700663999999904,11.141143999999988,1000
52.6726639999999,7.25314399999999,1723
52.996663999999896,7.25314399999999,1698
52.6726639999999,7.90114399999999,1061
53.64466399999989,7.90114399999999,1151
52.996663999999896,11.141143999999988,1164
52.6726639999999,11.141143999999988,993
52.3486639999999,10.493143999999988,969
52.996663999999896,9.845143999999989,1056
51.700663999999904,10.493143999999988,1040
51.37666399999991,10.493143999999988,6707
51.700663999999904,11.789143999999988,947
52.3486639999999,11.141143999999988,951
51.37666399999991,11.141143999999988,944
51.05266399999991,11.789143999999988,951
49.10866399999992,11.141143999999988,1135
48.78466399999992,11.141143999999988,1130
48.46066399999992,11.789143999999988,1108
49.43266399999992,11.789143999999988,1107
50.08066399999991,11.789143999999988,1051
49.75666399999992,12.437143999999988,1048
49.10866399999992,11.789143999999988,1122
48.78466399999992,12.437143999999988,1164
48.46066399999992,12.437143999999988,1124
49.10866399999992,12.437143999999988,1131
48.78466399999992,13.085143999999987,1113
48.136663999999925,12.437143999999988,1089
47.81266399999993,11.789143999999988,1100
48.136663999999925,10.493143999999988,1186
47.81266399999993,10.493143999999988,1210
48.78466399999992,10.493143999999988,1132
47.48866399999993,10.493143999999988,1237
48.46066399999992,10.493143999999988,1117
49.43266399999992,13.085143999999987,1298
48.46066399999992,13.085143999999987,1089
49.43266399999992,10.493143999999988,1130
49.75666399999992,9.845143999999989,1113
49.75666399999992,10.493143999999988,1098
50.40466399999991,11.141143999999988,1073
50.08066399999991,11.141143999999988,1056
50.72866399999991,11.141143999999988,982
49.75666399999992,11.141143999999988,1096
48.78466399999992,11.789143999999988,1138
50.40466399999991,10.493143999999988,1118
50.08066399999991,9.845143999999989,1115
50.08066399999991,10.493143999999988,1072
49.43266399999992,12.437143999999988,1083
49.75666399999992,11.789143999999988,1089
49.10866399999992,13.085143999999987,1233
50.72866399999991,10.493143999999988,1126
49.10866399999992,10.493143999999988,1143
48.78466399999992,9.845143999999989,1132
48.46066399999992,8.54914399999999,1154
48.46066399999992,9.197143999999987,1150
48.78466399999992,9.197143999999987,1146
48.78466399999992,8.54914399999999,1145
50.08066399999991,7.25314399999999,1113
49.75666399999992,6.60514399999999,1131
49.43266399999992,6.60514399999999,1164
49.10866399999992,6.60514399999999,1172
49.43266399999992,7.25314399999999,1146
49.75666399999992,7.25314399999999,1113
49.10866399999992,5.957143999999991,1212
48.78466399999992,7.25314399999999,1180
50.08066399999991,6.60514399999999,1128
47.48866399999993,9.197143999999987,1206
48.136663999999925,8.54914399999999,1165
48.136663999999925,9.197143999999987,1164
47.81266399999993,7.25314399999999,1212
49.43266399999992,9.845143999999989,1124
49.10866399999992,9.845143999999989,1152
53.64466399999989,14.381143999999988,933
50.08066399999991,13.085143999999987,914
49.75666399999992,13.085143999999987,935
45.86866399999994,9.197143999999987,1318
46.19266399999994,9.197143999999987,1304
46.516663999999935,8.54914399999999,1250
46.516663999999935,9.197143999999987,1299
46.19266399999994,8.54914399999999,1301
47.16466399999993,8.54914399999999,1217
45.86866399999994,4.661143999999991,1320
46.84066399999993,9.845143999999989,1233
45.22066399999994,5.957143999999991,1389
45.22066399999994,5.309143999999991,1362
45.86866399999994,5.957143999999991,1320
45.54466399999994,5.957143999999991,1343
44.89666399999994,4.661143999999991,1343
44.89666399999994,5.309143999999991,1350
44.572663999999946,4.661143999999991,1390
44.24866399999995,4.661143999999991,1403
43.92466399999995,4.661143999999991,1383
46.19266399999994,7.25314399999999,1271
48.78466399999992,5.957143999999991,1205
48.136663999999925,6.60514399999999,1217
48.46066399999992,6.60514399999999,1211
48.78466399999992,6.60514399999999,1192
47.16466399999993,7.90114399999999,1228
48.136663999999925,7.25314399999999,1198
48.46066399999992,7.25314399999999,1182
46.516663999999935,6.60514399999999,1256
46.84066399999993,6.60514399999999,1248
46.84066399999993,7.25314399999999,1244
46.516663999999935,5.957143999999991,1275
46.19266399999994,5.957143999999991,1289
46.84066399999993,8.54914399999999,1221
46.84066399999993,7.90114399999999,1235
45.86866399999994,5.309143999999991,1351
46.19266399999994,6.60514399999999,1264
45.86866399999994,6.60514399999999,1303
47.48866399999993,6.60514399999999,1259
47.48866399999993,7.25314399999999,1227
47.16466399999993,7.25314399999999,1238
49.10866399999992,4.013143999999992,1231
49.75666399999992,4.661143999999991,1144
49.43266399999992,4.661143999999991,1200
49.10866399999992,5.309143999999991,1283
46.19266399999994,4.661143999999991,1327
46.84066399999993,9.197143999999987,1224
46.19266399999994,5.309143999999991,1329
46.516663999999935,5.309143999999991,1355
45.54466399999994,6.60514399999999,1352
45.54466399999994,5.309143999999991,1339
43.60066399999995,4.013143999999992,1411
43.60066399999995,3.365143999999992,1465
42.62866399999996,2.717143999999992,1541
43.276663999999954,2.717143999999992,1494
45.54466399999994,4.661143999999991,1325
45.22066399999994,4.661143999999991,1332
47.16466399999993,5.309143999999991,1317
47.16466399999993,5.957143999999991,1308
46.19266399999994,7.90114399999999,1266
49.75666399999992,2.717143999999992,1193
49.10866399999992,2.717143999999992,1192
48.78466399999992,2.717143999999992,1207
45.86866399999994,3.365143999999992,1460
46.84066399999993,3.365143999999992,1378
46.516663999999935,3.365143999999992,1410
46.19266399999994,3.365143999999992,1436
47.16466399999993,6.60514399999999,1268
49.10866399999992,3.365143999999992,1222
45.54466399999994,4.013143999999992,1369
46.516663999999935,7.25314399999999,1271
47.16466399999993,4.661143999999991,1322
46.84066399999993,4.661143999999991,1331
46.516663999999935,4.661143999999991,1358
46.84066399999993,5.957143999999991,1266
47.81266399999993,3.365143999999992,1307
47.48866399999993,4.013143999999992,1367
48.136663999999925,4.013143999999992,1329
47.81266399999993,4.013143999999992,1341
47.48866399999993,4.661143999999991,1376
47.16466399999993,3.365143999999992,1391
46.84066399999993,4.013143999999992,1400
48.46066399999992,5.957143999999991,1235
46.19266399999994,2.717143999999992,1494
47.16466399999993,2.0691439999999925,1351
46.516663999999935,2.717143999999992,1466
46.84066399999993,2.717143999999992,1447
46.84066399999993,2.0691439999999925,1417
47.16466399999993,2.717143999999992,1374
44.572663999999946,5.309143999999991,1400
44.572663999999946,5.957143999999991,1498
44.89666399999994,6.60514399999999,1407
44.572663999999946,6.60514399999999,1549
43.60066399999995,5.309143999999991,1410
43.92466399999995,7.25314399999999,1527
43.60066399999995,6.60514399999999,1520
43.276663999999954,6.60514399999999,1499
43.276663999999954,5.957143999999991,1426
45.86866399999994,8.54914399999999,1315
45.54466399999994,8.54914399999999,1322
48.136663999999925,3.365143999999992,1289
48.46066399999992,3.365143999999992,1302
48.46066399999992,2.717143999999992,1272
47.48866399999993,5.309143999999991,1356
46.516663999999935,9.845143999999989,1244
46.84066399999993,10.493143999999988,2291
47.81266399999993,5.309143999999991,1337
45.22066399999994,6.60514399999999,1360
46.19266399999994,4.013143999999992,1397
45.86866399999994,4.013143999999992,1370
45.22066399999994,4.013143999999992,1380
44.89666399999994,4.013143999999992,1420
46.84066399999993,5.309143999999991,1345
48.136663999999925,-1.8188560000000056,1324
48.136663999999925,0.1251439999999934,1270
48.136663999999925,-0.5228560000000062,1301
47.48866399999993,-0.5228560000000062,1320
47.16466399999993,-1.8188560000000056,1340
47.48866399999993,0.7731439999999932,1265
47.16466399999993,0.1251439999999934,1336
45.86866399999994,7.25314399999999,1309
48.136663999999925,5.309143999999991,1373
49.10866399999992,4.661143999999991,1279
48.46066399999992,4.013143999999992,1315
48.136663999999925,4.661143999999991,1393
47.81266399999993,6.60514399999999,1278
47.48866399999993,5.957143999999991,1296
48.136663999999925,5.957143999999991,1406
45.86866399999994,7.90114399999999,1287
46.516663999999935,7.90114399999999,1249
49.43266399999992,3.365143999999992,1224
49.43266399999992,4.013143999999992,1220
48.136663999999925,2.717143999999992,1390
47.81266399999993,2.717143999999992,1401
47.48866399999993,2.717143999999992,1420
50.40466399999991,2.717143999999992,1145
48.46066399999992,-4.410856000000004,1475
48.46066399999992,-3.7628560000000046,1439
48.46066399999992,-3.114856000000005,1410
48.46066399999992,-2.4668560000000053,1393
47.48866399999993,1.4211439999999929,1293
47.16466399999993,1.4211439999999929,1330
46.516663999999935,4.013143999999992,1405
43.60066399999995,4.661143999999991,1411
44.89666399999994,2.717143999999992,1637
45.22066399999994,2.717143999999992,1588
45.54466399999994,3.365143999999992,1479
45.22066399999994,3.365143999999992,1475
47.48866399999993,3.365143999999992,1486
46.19266399999994,9.845143999999989,1354
47.81266399999993,2.0691439999999925,1325
47.48866399999993,2.0691439999999925,1357
45.86866399999994,2.717143999999992,1470
44.89666399999994,5.957143999999991,1470
45.22066399999994,1.4211439999999929,1526
44.89666399999994,1.4211439999999929,1550
44.89666399999994,2.0691439999999925,1700
43.276663999999954,2.0691439999999925,1512
43.60066399999995,1.4211439999999929,1477
48.78466399999992,4.661143999999991,1310
48.78466399999992,5.309143999999991,1273
46.19266399999994,2.0691439999999925,1580
45.86866399999994,1.4211439999999929,1488
46.19266399999994,1.4211439999999929,1526
44.572663999999946,4.013143999999992,1615
44.89666399999994,3.365143999999992,1511
43.92466399999995,4.013143999999992,1412
44.24866399999995,4.013143999999992,1429
44.89666399999994,-0.5228560000000062,1334
45.54466399999994,0.1251439999999934,1354
46.516663999999935,0.1251439999999934,1353
44.572663999999946,2.0691439999999925,1577
49.75666399999992,4.013143999999992,1178
43.92466399999995,3.365143999999992,1641
43.92466399999995,2.717143999999992,1672
44.24866399999995,3.365143999999992,1696
44.572663999999946,3.365143999999992,1737
49.10866399999992,0.1251439999999934,1311
49.43266399999992,0.7731439999999932,1304
49.43266399999992,-1.8188560000000056,1436
49.10866399999992,-1.170856000000006,1411
49.10866399999992,-0.5228560000000062,1326
49.10866399999992,0.7731439999999932,1318
49.10866399999992,1.4211439999999929,1248
47.81266399999993,-1.8188560000000056,1470
47.81266399999993,-2.4668560000000053,1407
47.81266399999993,-3.114856000000005,1420
48.136663999999925,-3.7628560000000046,1477
44.572663999999946,9.197143999999987,1432
44.89666399999994,8.54914399999999,1378
45.22066399999994,9.197143999999987,1339
45.54466399999994,10.493143999999988,1387
44.572663999999946,10.493143999999988,2758
44.89666399999994,10.493143999999988,1415
44.89666399999994,9.845143999999989,1525
48.46066399999992,5.309143999999991,1400
50.91599999999999,-1.0580000000000025,65535
51.23999999999999,-0.4100000000000028,65535
50.91599999999999,-0.4100000000000028,65535
51.23999999999999,-2.354000000000002,65535
51.56399999999999,-2.354000000000002,65535
51.56399999999999,-3.0020000000000016,65535
50.91599999999999,-2.354000000000002,65535
53.50799999999997,-3.0020000000000016,65535
53.183999999999976,-2.354000000000002,65535
53.183999999999976,-3.0020000000000016,65535
52.85999999999998,-2.354000000000002,65535
52.21199999999998,-1.0580000000000025,65535
51.887999999999984,-1.0580000000000025,65535
52.53599999999998,-1.0580000000000025,65535
52.53599999999998,-1.7060000000000022,65535
52.85999999999998,-1.7060000000000022,65535
53.50799999999997,-2.354000000000002,65535
52.85999999999998,-1.0580000000000025,65535
52.53599999999998,1.5339999999999965,65535
52.53599999999998,0.8859999999999966,65535
52.53599999999998,0.2379999999999968,65535
52.53599999999998,-0.4100000000000028,65535
53.50799999999997,-1.7060000000000022,65535
53.183999999999976,-1.7060000000000022,65535
53.183999999999976,-1.0580000000000025,65535
52.85999999999998,-0.4100000000000028,65535
51.887999999999984,-2.354000000000002,65535
52.21199999999998,-2.354000000000002,65535
55.77599999999996,-2.354000000000002,65535
53.83199999999997,-1.0580000000000025,65535
53.83199999999997,-1.7060000000000022,65535
55.127999999999965,-1.7060000000000022,65535
54.80399999999997,-1.7060000000000022,65535
54.47999999999997,-1.7060000000000022,65535
54.15599999999997,-1.0580000000000025,65535
52.21199999999998,-1.7060000000000022,65535
53.50799999999997,-1.0580000000000025,65535
55.77599999999996,-3.0020000000000016,65535
55.45199999999996,-1.7060000000000022,65535
57.07199999999995,-2.354000000000002,65535
56.74799999999996,-3.0020000000000016,65535
56.42399999999996,-3.0020000000000016,65535
56.09999999999996,-3.650000000000001,65535
50.91599999999999,-3.0020000000000016,65535
50.91599999999999,-3.650000000000001,65535
50.59199999999999,-3.650000000000001,65535
50.59199999999999,-4.298000000000001,65535
51.23999999999999,-3.0020000000000016,65535
50.268,-4.946000000000001,65535
55.77599999999996,-3.650000000000001,65535
55.77599999999996,-4.298000000000001,65535
52.21199999999998,-0.4100000000000028,65535
52.53599999999998,-2.354000000000002,65535
51.56399999999999,-1.7060000000000022,65535
51.56399999999999,-3.650000000000001,65535
51.887999999999984,-4.298000000000001,65535
51.56399999999999,-4.298000000000001,65535
51.887999999999984,-1.7060000000000022,65535
52.21199999999998,-3.0020000000000016,65535
51.23999999999999,0.2379999999999968,65535
50.91599999999999,0.2379999999999968,65535
52.21199999999998,0.2379999999999968,65535
53.83199999999997,-3.0020000000000016,65535
54.15599999999997,-3.0020000000000016,65535
54.47999999999997,-3.0020000000000016,65535
55.127999999999965,-3.650000000000001,65535
54.80399999999997,-3.0020000000000016,65535
53.83199999999997,-2.354000000000002,65535
54.15599999999997,-0.4100000000000028,65535
54.47999999999997,-1.0580000000000025,65535
53.83199999999997,-0.4100000000000028,65535
53.183999999999976,-3.650000000000001,65535
53.183999999999976,-4.298000000000001,65535
52.85999999999998,-3.0020000000000016,65535
52.53599999999998,-3.0020000000000016,65535
51.887999999999984,-3.0020000000000016,65535
51.23999999999999,0.8859999999999966,65535
51.887999999999984,0.2379999999999968,65535
52.21199999999998,0.8859999999999966,65535
51.887999999999984,-4.946000000000001,65535
52.53599999999998,-3.650000000000001,65535
52.21199999999998,-4.298000000000001,65535
53.183999999999976,-0.4100000000000028,65535
51.23999999999999,-3.650000000000001,65535
51.887999999999984,-3.650000000000001,65535
52.21199999999998,-3.650000000000001,65535
51.56399999999999,0.8859999999999966,65535
51.887999999999984,0.8859999999999966,65535
52.85999999999998,0.8859999999999966,65535
53.50799999999997,-0.4100000000000028,65535
56.09999999999996,-4.298000000000001,65535
56.74799999999996,-4.946000000000001,65535
56.74799999999996,-4.298000000000001,65535
56.42399999999996,-4.946000000000001,65535
56.42399999999996,-4.298000000000001,65535
56.09999999999996,-4.946000000000001,65535
57.39599999999995,-4.298000000000001,65535
57.39599999999995,-3.0020000000000016,65535
57.39599999999995,-3.650000000000001,65535
56.42399999999996,-3.650000000000001,65535
57.07199999999995,-3.650000000000001,65535
57.07199999999995,-4.298000000000001,65535
56.74799999999996,-3.650000000000001,65535
59.15266399999986,27.34114399999998,65535
59.47666399999986,26.69314399999997,65535
59.47666399999986,26.04514399999998,65535
59.15266399999986,26.04514399999998,65535
59.15266399999986,24.74914399999998,65535
59.15266399999986,25.397143999999983,65535
59.47666399999986,25.397143999999983,65535
58.50466399999986,26.69314399999997,65535
58.82866399999986,26.69314399999997,65535
57.85666399999987,26.04514399999998,65535
58.180663999999865,26.04514399999998,65535
58.180663999999865,26.69314399999997,65535
58.82866399999986,26.04514399999998,65535
58.50466399999986,25.397143999999983,65535
58.82866399999986,25.397143999999983,65535
58.82866399999986,24.74914399999998,65535
58.180663999999865,27.34114399999998,65535
57.85666399999987,27.34114399999998,65535
63.68866399999983,27.34114399999998,7077
60.124663999999854,24.74914399999998,6613
60.44866399999985,24.74914399999998,6582
60.44866399999985,25.397143999999983,6594
60.77266399999985,25.397143999999983,6800
61.09666399999985,26.04514399999998,6842
60.77266399999985,26.04514399999998,6849
60.77266399999985,26.69314399999997,6868
61.09666399999985,25.397143999999983,6833
61.09666399999985,26.69314399999997,7198
61.420663999999846,26.69314399999997,7220
61.74466399999984,27.34114399999998,7244
62.06866399999984,27.34114399999998,7269
62.39266399999984,27.34114399999998,7293
62.71666399999984,27.34114399999998,7257
64.01266399999983,27.34114399999998,7425
63.36466399999984,27.34114399999998,7145
63.04066399999984,27.34114399999998,7185
63.04066399999984,27.989143999999985,7200
64.33666399999983,27.989143999999985,7472
64.33666399999983,27.34114399999998,7548
64.66066399999983,27.34114399999998,7564
64.66066399999983,26.69314399999997,7575
64.98466399999982,25.397143999999983,5959
64.66066399999983,26.04514399999998,7605
64.98466399999982,26.04514399999998,7627
66.28066399999982,25.397143999999983,6036
65.95666399999982,24.74914399999998,5872
65.63266399999982,24.74914399999998,5876
65.63266399999982,25.397143999999983,5918
65.30866399999982,25.397143999999983,5939
66.60466399999981,25.397143999999983,6096
64.01266399999983,24.74914399999998,6096
64.01266399999983,24.101143999999977,6131
64.01266399999983,23.45314399999998,6155
63.68866399999983,23.45314399999998,6167
63.68866399999983,22.805143999999984,6192
63.68866399999983,26.04514399999998,6784
63.68866399999983,25.397143999999983,6750
63.68866399999983,26.69314399999997,7044
60.44866399999985,26.69314399999997,7036
64.01266399999983,27.989143999999985,7463
62.71666399999984,22.805143999999984,6314
62.39266399999984,22.805143999999984,6346
62.06866399999984,22.805143999999984,6375
62.06866399999984,23.45314399999998,6391
61.74466399999984,23.45314399999998,6403
61.420663999999846,23.45314399999998,6451
61.09666399999985,23.45314399999998,6492
61.09666399999985,24.101143999999977,6499
61.09666399999985,24.74914399999998,6533
60.77266399999985,24.74914399999998,6549
63.04066399999984,21.50914399999997,65535
63.04066399999984,22.15714399999998,65535
63.04066399999984,22.805143999999984,6278
62.39266399999984,26.04514399999998,7441
62.06866399999984,25.397143999999983,7490
61.74466399999984,25.397143999999983,7558
61.74466399999984,24.74914399999998,7595
61.74466399999984,24.101143999999977,7630
61.420663999999846,24.101143999999977,6974
62.39266399999984,26.69314399999997,7412
64.66066399999983,25.397143999999983,6028
64.66066399999983,24.74914399999998,6046
64.33666399999983,24.74914399999998,6057
63.36466399999984,22.805143999999984,6217
67.25266399999981,24.101143999999977,8186
66.92866399999981,24.101143999999977,8150
66.60466399999981,23.45314399999998,8119
66.28066399999982,23.45314399999998,8101
66.28066399999982,24.101143999999977,8083
65.95666399999982,24.101143999999977,3999
60.124663999999854,24.101143999999977,6806
60.124663999999854,23.45314399999998,6843
60.44866399999985,22.805143999999984,65535
60.77266399999985,27.34114399999998,6926
61.09666399999985,27.989143999999985,6958
61.09666399999985,28.63714399999997,7004
61.420663999999846,29.28514399999997,8691
61.74466399999984,29.933143999999977,8749
62.06866399999984,29.933143999999977,8855
62.39266399999984,29.933143999999977,8893
62.71666399999984,29.933143999999977,8926
61.420663999999846,22.805143999999984,6487
61.420663999999846,22.15714399999998,6566
61.09666399999985,22.15714399999998,6554
61.420663999999846,21.50914399999997,6699
62.39266399999984,27.989143999999985,65535
62.06866399999984,27.989143999999985,65535
61.420663999999846,27.34114399999998,65535
63.04066399999984,29.933143999999977,65535
63.68866399999983,29.28514399999997,65535
63.36466399999984,29.28514399999997,65535
63.36466399999984,29.933143999999977,65535
60.44866399999985,27.34114399999998,65535
61.74466399999984,29.28514399999997,65535
62.39266399999984,30.58114399999998,65535
62.71666399999984,31.229143999999977,65535
62.71666399999984,29.28514399999997,65535
63.04066399999984,28.63714399999997,65535
66.60466399999981,26.04514399999998,6106
66.60466399999981,26.69314399999997,6142
66.60466399999981,27.34114399999998,6165
62.71666399999984,26.04514399999998,7326
62.71666399999984,25.397143999999983,7295
63.04066399999984,25.397143999999983,7115
63.36466399999984,25.397143999999983,7078
62.71666399999984,23.45314399999998,7320
62.39266399999984,24.101143999999977,65535
62.71666399999984,22.15714399999998,65535
62.39266399999984,22.15714399999998,65535
62.39266399999984,21.50914399999997,65535
61.09666399999985,21.50914399999997,8377
60.77266399999985,22.805143999999984,7803
60.44866399999985,22.15714399999998,7851
60.77266399999985,23.45314399999998,7785
60.77266399999985,21.50914399999997,7953
60.77266399999985,22.15714399999998,7906
60.124663999999854,22.805143999999984,8119
60.44866399999985,24.101143999999977,6792
62.06866399999984,24.74914399999998,65535
50.72866399999991,16.325143999999987,827
50.40466399999991,16.973143999999984,841
50.72866399999991,16.973143999999984,777
50.40466399999991,16.325143999999987,848
50.08066399999991,16.973143999999984,971
50.08066399999991,16.325143999999987,967
51.700663999999904,16.973143999999984,866
51.37666399999991,16.973143999999984,492
51.05266399999991,15.677143999999986,919
50.72866399999991,15.677143999999986,857
51.05266399999991,17.621143999999987,414
51.37666399999991,17.621143999999987,461
51.700663999999904,17.621143999999987,501
51.700663999999904,16.325143999999987,871
52.0246639999999,22.15714399999998,13
52.0246639999999,21.50914399999997,0
52.3486639999999,21.50914399999997,8
52.0246639999999,20.86114399999998,11
51.700663999999904,20.86114399999998,28
51.37666399999991,21.50914399999997,59
51.37666399999991,20.86114399999998,63
51.05266399999991,20.86114399999998,90
52.6726639999999,23.45314399999998,189
52.3486639999999,22.805143999999984,127
52.3486639999999,20.213143999999986,23
52.0246639999999,20.213143999999986,15
52.3486639999999,19.565143999999982,221
52.6726639999999,19.565143999999982,182
51.700663999999904,21.50914399999997,40
51.700663999999904,22.15714399999998,35
52.6726639999999,21.50914399999997,22
52.996663999999896,21.50914399999997,30
52.6726639999999,20.86114399999998,22
52.6726639999999,22.15714399999998,38
52.6726639999999,20.213143999999986,122
52.996663999999896,19.565143999999982,193
52.996663999999896,20.86114399999998,55
52.996663999999896,20.213143999999986,82
53.32066399999989,20.213143999999986,108
51.37666399999991,20.213143999999986,113
52.3486639999999,16.973143999999984,755
52.0246639999999,16.973143999999984,835
52.0246639999999,16.325143999999987,849
52.0246639999999,17.621143999999987,755
52.6726639999999,16.973143999999984,718
52.996663999999896,16.973143999999984,449
52.3486639999999,16.325143999999987,815
52.3486639999999,15.677143999999986,852
51.700663999999904,18.269143999999983,858
52.6726639999999,17.621143999999987,774
52.3486639999999,17.621143999999987,748
52.6726639999999,18.269143999999983,445
52.3486639999999,18.269143999999983,709
52.3486639999999,18.917143999999983,327
52.996663999999896,17.621143999999987,405
51.700663999999904,19.565143999999982,830
51.700663999999904,18.917143999999983,906
51.37666399999991,18.269143999999983,867
58.82866399999986,9.197143999999987,2768
58.180663999999865,7.90114399999999,2861
58.50466399999986,8.54914399999999,2812
63.36466399999984,10.493143999999988,2983
63.36466399999984,11.141143999999988,2990
63.36466399999984,11.789143999999988,3025
63.68866399999983,11.789143999999988,3053
64.33666399999983,12.437143999999988,3454
64.66066399999983,12.437143999999988,3949
65.63266399999982,13.085143999999987,3606
65.95666399999982,13.085143999999987,3641
66.28066399999982,14.381143999999988,3711
65.95666399999982,13.733143999999989,3780
66.28066399999982,13.733143999999989,3689
65.30866399999982,13.085143999999987,3907
64.98466399999982,13.085143999999987,3541
64.01266399999983,11.789143999999988,3084
63.68866399999983,11.141143999999988,3021
59.800663999999855,10.493143999999988,2564
59.800663999999855,11.141143999999988,2547
60.124663999999854,11.141143999999988,2562
60.44866399999985,11.141143999999988,2575
60.124663999999854,11.789143999999988,2588
60.77266399999985,7.25314399999999,2824
60.77266399999985,6.60514399999999,2870
59.15266399999986,9.197143999999987,2650
59.47666399999986,9.197143999999987,2671
59.800663999999855,9.845143999999989,2566
59.47666399999986,11.141143999999988,2511
61.09666399999985,10.493143999999988,2685
60.77266399999985,10.493143999999988,2655
60.77266399999985,11.141143999999988,2610
62.06866399999984,9.197143999999987,3010
61.74466399999984,9.845143999999989,2956
61.420663999999846,9.845143999999989,2933
59.15266399999986,9.845143999999989,2630
59.47666399999986,9.845143999999989,2606
58.82866399999986,5.957143999999991,3045
58.180663999999865,7.25314399999999,2917
58.50466399999986,7.25314399999999,2950
58.50466399999986,6.60514399999999,2955
58.50466399999986,5.957143999999991,3013
58.82866399999986,8.54914399999999,2798
60.44866399999985,7.25314399999999,2798
60.44866399999985,7.90114399999999,2759
60.124663999999854,10.493143999999988,2596
60.44866399999985,9.197143999999987,2708
60.77266399999985,9.197143999999987,2720
60.77266399999985,8.54914399999999,2739
60.124663999999854,9.845143999999989,2854
60.44866399999985,10.493143999999988,2641
63.04066399999984,10.493143999999988,2934
62.06866399999984,9.845143999999989,3035
62.39266399999984,9.845143999999989,3043
62.71666399999984,9.845143999999989,3067
59.47666399999986,14.381143999999988,2517
59.47666399999986,13.733143999999989,2501
59.47666399999986,13.085143999999987,2477
59.800663999999855,12.437143999999988,2546
59.15266399999986,11.141143999999988,2475
59.15266399999986,14.381143999999988,2501
58.82866399999986,11.789143999999988,2455
58.50466399999986,12.437143999999988,2385
58.180663999999865,12.437143999999988,2378
57.85666399999987,11.789143999999988,2329
62.71666399999984,7.90114399999999,3096
62.39266399999984,7.90114399999999,3053
62.06866399999984,8.54914399999999,3028
60.44866399999985,5.309143999999991,2944
60.44866399999985,5.957143999999991,2911
60.77266399999985,5.957143999999991,2900
62.39266399999984,11.141143999999988,2831
62.06866399999984,10.493143999999988,2786
61.74466399999984,11.141143999999988,2759
61.420663999999846,11.141143999999988,2713
61.09666399999985,11.141143999999988,2696
60.77266399999985,11.789143999999988,2673
63.04066399999984,11.141143999999988,2912
62.71666399999984,11.141143999999988,2855
62.39266399999984,10.493143999999988,2813
67.25266399999981,15.677143999999986,3830
67.25266399999981,15.029143999999986,3868
67.25266399999981,14.381143999999988,3896
66.92866399999981,15.029143999999986,3819
66.60466399999981,15.677143999999986,3797
64.01266399999983,11.141143999999988,3068
66.60466399999981,15.029143999999986,3860
54.29266399999989,18.269143999999983,284
54.616663999999886,17.621143999999987,310
53.96866399999989,18.269143999999983,306
43.92466399999995,1.4211439999999929,1449
44.24866399999995,0.7731439999999932,1411
44.572663999999946,0.1251439999999934,1448
46.84066399999993,1.4211439999999929,1486
44.572663999999946,1.4211439999999929,1544
44.24866399999995,1.4211439999999929,1518
45.54466399999994,1.4211439999999929,1473
46.516663999999935,1.4211439999999929,1511
42.30466399999996,2.717143999999992,1565
44.24866399999995,2.717143999999992,1655
44.572663999999946,2.717143999999992,1640
43.92466399999995,2.0691439999999925,1516
42.30466399999996,2.0691439999999925,1587
42.62866399999996,2.0691439999999925,1563
42.62866399999996,1.4211439999999929,1585
42.95266399999996,1.4211439999999929,1520
43.276663999999954,1.4211439999999929,1507
46.516663999999935,-1.170856000000006,1465
46.19266399999994,-1.170856000000006,1496
45.86866399999994,-0.5228560000000062,1443
45.54466399999994,-0.5228560000000062,1423
48.46066399999992,1.4211439999999929,1255
41.332663999999966,2.0691439999999925,1652
41.98066399999996,2.717143999999992,1611
48.46066399999992,-1.8188560000000056,1374
47.81266399999993,0.7731439999999932,1273
46.84066399999993,0.7731439999999932,1338
44.572663999999946,-1.170856000000006,1345
43.60066399999995,-1.170856000000006,1408
43.276663999999954,-1.8188560000000056,1455
43.276663999999954,0.1251439999999934,1614
42.95266399999996,0.1251439999999934,1579
43.276663999999954,-0.5228560000000062,1480
43.60066399999995,-0.5228560000000062,1469
47.81266399999993,-3.7628560000000046,1456
47.48866399999993,-2.4668560000000053,1415
47.81266399999993,-0.5228560000000062,1369
46.516663999999935,-1.8188560000000056,1481
48.136663999999925,-1.170856000000006,1396
47.48866399999993,-1.170856000000006,1363
45.22066399999994,8.54914399999999,1354
45.22066399999994,7.90114399999999,1362
46.19266399999994,-0.5228560000000062,1451
46.516663999999935,-0.5228560000000062,1434
48.78466399999992,-3.114856000000005,1426
50.72866399999991,2.0691439999999925,1177
50.40466399999991,2.0691439999999925,1245
40.36066399999997,-3.7628560000000046,2865
41.65666399999997,-1.170856000000006,2782
41.332663999999966,1.4211439999999929,2720
43.276663999999954,13.733143999999989,65535
42.95266399999996,13.733143999999989,65535
41.65666399999997,15.029143999999986,65535
40.68466399999997,17.621143999999987,65535
43.60066399999995,13.085143999999987,5568
41.65666399999997,12.437143999999988,5366
41.65666399999997,13.085143999999987,5373
41.98066399999996,13.085143999999987,5384
41.65666399999997,13.733143999999989,5421
41.332663999999966,13.733143999999989,5450
41.332663999999966,14.381143999999988,5669
41.00866399999997,14.381143999999988,5575
41.332663999999966,13.085143999999987,5433
41.00866399999997,15.029143999999986,5775
41.98066399999996,13.733143999999989,5466
42.30466399999996,14.381143999999988,5856
42.30466399999996,12.437143999999988,5411
42.62866399999996,12.437143999999988,5419
42.95266399999996,12.437143999999988,5476
42.30466399999996,11.789143999999988,5380
42.95266399999996,11.789143999999988,5676
42.62866399999996,11.789143999999988,5667
43.276663999999954,11.789143999999988,5730
42.95266399999996,13.085143999999987,5469
42.30466399999996,13.085143999999987,8623
43.276663999999954,13.085143999999987,5521
43.276663999999954,12.437143999999988,5529
42.62866399999996,11.141143999999988,5512
42.95266399999996,11.141143999999988,5555
42.95266399999996,10.493143999999988,5573
44.572663999999946,8.54914399999999,1384
44.89666399999994,7.90114399999999,1374
44.89666399999994,9.197143999999987,1452
44.24866399999995,7.90114399999999,1440
44.572663999999946,7.90114399999999,1400
43.92466399999995,7.90114399999999,1538
44.24866399999995,7.25314399999999,1429
44.89666399999994,7.25314399999999,1398
45.22066399999994,7.25314399999999,1378
45.54466399999994,7.90114399999999,1380
44.572663999999946,7.25314399999999,1462
52.996663999999896,22.805143999999984,280
52.996663999999896,23.45314399999998,301
51.37666399999991,22.15714399999998,99
51.37666399999991,22.805143999999984,154
50.08066399999991,20.213143999999986,343
50.72866399999991,20.213143999999986,246
50.40466399999991,20.213143999999986,314
50.08066399999991,20.86114399999998,785
50.08066399999991,21.50914399999997,808
50.08066399999991,22.15714399999998,817
50.08066399999991,22.805143999999984,830
53.96866399999989,22.805143999999984,916
53.64466399999989,23.45314399999998,872
53.32066399999989,23.45314399999998,827
50.40466399999991,19.565143999999982,388
50.08066399999991,18.917143999999983,415
50.08066399999991,18.269143999999983,525
52.0246639999999,22.805143999999984,96
52.0246639999999,23.45314399999998,144
51.37666399999991,19.565143999999982,819
51.05266399999991,19.565143999999982,421
50.72866399999991,18.917143999999983,300
50.72866399999991,19.565143999999982,255
49.75666399999992,18.917143999999983,775
50.40466399999991,18.269143999999983,381
53.64466399999989,19.565143999999982,199
53.96866399999989,18.917143999999983,242
53.64466399999989,18.917143999999983,238
53.64466399999989,20.213143999999986,187
52.996663999999896,18.917143999999983,300
52.996663999999896,18.269143999999983,352
53.32066399999989,18.917143999999983,270
50.72866399999991,17.621143999999987,367
50.72866399999991,18.269143999999983,337
52.6726639999999,16.325143999999987,819
52.996663999999896,16.325143999999987,809
52.996663999999896,15.677143999999986,823
53.32066399999989,15.677143999999986,889
53.32066399999989,15.029143999999986,913
53.64466399999989,15.029143999999986,906
53.96866399999989,15.029143999999986,892
52.6726639999999,18.917143999999983,313
53.32066399999989,16.325143999999987,948
52.6726639999999,15.029143999999986,855
51.05266399999991,22.805143999999984,180
51.05266399999991,23.45314399999998,224
50.72866399999991,22.15714399999998,229
50.40466399999991,22.15714399999998,326
51.05266399999991,22.15714399999998,151
54.616663999999886,16.973143999999984,352
54.29266399999989,16.325143999999987,809
53.96866399999989,15.677143999999986,850
50.72866399999991,21.50914399999997,769
50.40466399999991,21.50914399999997,780
50.40466399999991,17.621143999999987,855
53.32066399999989,22.805143999999984,797
53.64466399999989,22.15714399999998,757
54.29266399999989,16.973143999999984,789
50.72866399999991,20.86114399999998,251
51.700663999999904,22.805143999999984,348
51.05266399999991,21.50914399999997,175
50.08066399999991,19.565143999999982,366
52.0246639999999,18.917143999999983,8008
52.0246639999999,19.565143999999982,8001
53.64466399999989,18.269143999999983,378
51.700663999999904,20.213143999999986,174
53.32066399999989,19.565143999999982,175
50.72866399999991,23.45314399999998,361
50.72866399999991,22.805143999999984,331
49.43266399999992,20.213143999999986,798
49.75666399999992,21.50914399999997,838
49.75666399999992,22.15714399999998,1351
49.43266399999992,22.15714399999998,1113
51.05266399999991,18.917143999999983,933
51.05266399999991,18.269143999999983,347
53.32066399999989,16.973143999999984,820
53.64466399999989,16.973143999999984,808
49.75666399999992,20.86114399999998,850
50.40466399999991,22.805143999999984,8090
53.64466399999989,16.325143999999987,862
53.96866399999989,20.86114399999998,309
54.29266399999989,20.86114399999998,355
53.96866399999989,21.50914399999997,372
53.64466399999989,15.677143999999986,877
53.96866399999989,20.213143999999986,216
53.96866399999989,19.565143999999982,267
54.29266399999989,19.565143999999982,311
53.96866399999989,16.325143999999987,841
53.64466399999989,17.621143999999987,384
53.96866399999989,22.15714399999998,438
53.64466399999989,21.50914399999997,806
53.64466399999989,20.86114399999998,313
52.6726639999999,15.677143999999986,833
51.05266399999991,20.213143999999986,769
54.940663999999884,24.101143999999977,3201
54.616663999999886,23.45314399999998,3145
54.29266399999989,23.45314399999998,3008
53.64466399999989,22.805143999999984,820
53.96866399999989,16.973143999999984,993
50.40466399999991,20.86114399999998,826
53.32066399999989,18.269143999999983,408
49.75666399999992,19.565143999999982,416
50.40466399999991,23.45314399999998,1516
49.75666399999992,20.213143999999986,802
49.43266399999992,19.565143999999982,777
49.43266399999992,20.86114399999998,863
53.96866399999989,17.621143999999987,843
42.30466399999996,-1.8188560000000056,8319
41.98066399999996,-1.8188560000000056,8302
41.65666399999997,0.7731439999999932,8306
42.62866399999996,-1.8188560000000056,8434
42.95266399999996,-1.8188560000000056,8463
42.62866399999996,-3.114856000000005,8557
42.95266399999996,-2.4668560000000053,8535
42.62866399999996,-7.650856000000003,8899
42.30466399999996,-7.650856000000003,8959
42.30466399999996,-8.946856000000002,9095
42.30466399999996,-8.298856000000002,9069
41.98066399999996,-8.298856000000002,9058
42.30466399999996,-7.002856000000003,8841
42.62866399999996,-6.354856000000003,8783
42.30466399999996,-6.354856000000003,8738
42.62866399999996,-5.706856000000004,8238
41.98066399999996,-4.410856000000004,8192
42.30466399999996,-3.7628560000000046,8583
40.03666399999997,-0.5228560000000062,8286
39.38866399999998,-0.5228560000000062,8334
41.00866399999997,0.7731439999999932,8434
40.68466399999997,0.7731439999999932,8466
40.36066399999997,0.1251439999999934,8544
39.712663999999975,-0.5228560000000062,8443
38.41666399999998,-0.5228560000000062,8455
39.06466399999998,-0.5228560000000062,8577
38.74066399999998,-1.170856000000006,8463
41.332663999999966,0.7731439999999932,8494
41.65666399999997,2.717143999999992,8094
41.65666399999997,2.0691439999999925,8117
41.332663999999966,0.1251439999999934,8452
41.332663999999966,-0.5228560000000062,8396
41.65666399999997,-4.410856000000004,8166
40.03666399999997,-2.4668560000000053,8404
41.00866399999997,-4.410856000000004,8287
43.276663999999954,-5.706856000000004,8368
39.38866399999998,-1.170856000000006,8429
38.09266399999999,-1.170856000000006,8842
38.74066399999998,-0.5228560000000062,8605
37.76866399999999,-1.170856000000006,8907
39.06466399999998,-1.8188560000000056,8427
39.38866399999998,-3.114856000000005,8327
39.38866399999998,-2.4668560000000053,8383
39.06466399999998,-2.4668560000000053,8410
39.06466399999998,-3.114856000000005,8331
39.06466399999998,-3.7628560000000046,8305
38.74066399999998,-3.7628560000000046,8384
40.03666399999997,-3.7628560000000046,8283
40.03666399999997,-3.114856000000005,8483
40.03666399999997,-1.8188560000000056,8564
39.712663999999975,-1.8188560000000056,8529
39.712663999999975,-1.170856000000006,8465
40.36066399999997,-1.170856000000006,8484
40.68466399999997,-1.170856000000006,8462
41.00866399999997,-1.170856000000006,8450
41.332663999999966,-1.170856000000006,8290
43.276663999999954,-8.298856000000002,9059
42.95266399999996,-8.298856000000002,9027
41.65666399999997,-5.706856000000004,65535
41.98066399999996,-7.002856000000003,65535
41.98066399999996,-6.354856000000003,65535
41.332663999999966,-5.058856000000004,8405
43.276663999999954,-3.7628560000000046,8840
42.95266399999996,-4.410856000000004,8774
42.62866399999996,-4.410856000000004,8764
42.30466399999996,-4.410856000000004,8723
41.00866399999997,-5.706856000000004,8343
41.332663999999966,-1.8188560000000056,8236
40.68466399999997,-3.114856000000005,8190
41.00866399999997,-3.114856000000005,8241
41.00866399999997,-2.4668560000000053,8264
41.332663999999966,-2.4668560000000053,8317
40.68466399999997,-4.410856000000004,8227
40.36066399999997,-4.410856000000004,8311
40.68466399999997,-3.7628560000000046,8219
40.36066399999997,-3.114856000000005,8197
41.65666399999997,-2.4668560000000053,8334
38.09266399999999,-3.7628560000000046,8431
38.74066399999998,-3.114856000000005,8375
37.76866399999999,-3.7628560000000046,8488
39.712663999999975,-3.114856000000005,8319
38.41666399999998,-3.7628560000000046,8396
40.03666399999997,-4.410856000000004,65535
40.03666399999997,-5.058856000000004,65535
39.38866399999998,-6.354856000000003,65535
39.38866399999998,-7.002856000000003,65535
42.95266399999996,-3.114856000000005,8968
41.98066399999996,-1.170856000000006,8331
42.30466399999996,-2.4668560000000053,8372
41.65666399999997,-0.5228560000000062,8429
41.98066399999996,-0.5228560000000062,8266
41.65666399999997,0.1251439999999934,8293
41.98066399999996,0.1251439999999934,8315
37.76866399999999,-5.058856000000004,8367
36.79666399999999,-4.410856000000004,8426
38.74066399999998,-4.410856000000004,8323
37.12066399999999,-4.410856000000004,8400
37.44466399999999,-5.058856000000004,8924
37.44466399999999,-7.002856000000003,65535
37.44466399999999,-6.354856000000003,65535
37.44466399999999,-5.706856000000004,8600
39.712663999999975,-3.7628560000000046,8393
42.62866399999996,-8.946856000000002,65535
42.30466399999996,-5.706856000000004,8745
42.30466399999996,-5.058856000000004,8830
42.95266399999996,-5.706856000000004,8270
41.00866399999997,-5.058856000000004,8311
40.68466399999997,-5.058856000000004,8285
41.65666399999997,-5.058856000000004,65535
41.65666399999997,-6.354856000000003,65535
36.79666399999999,-6.354856000000003,65535
37.12066399999999,-5.706856000000004,8768
37.76866399999999,-5.706856000000004,8567
38.09266399999999,-4.410856000000004,8702
37.12066399999999,-5.058856000000004,8722
36.79666399999999,-5.058856000000004,8680
37.76866399999999,-4.410856000000004,65535
37.76866399999999,-7.002856000000003,65535
38.41666399999998,-6.354856000000003,65535
38.09266399999999,-6.354856000000003,65535
48.78466399999992,1.4211439999999929,1321
56.23666399999988,8.54914399999999,6610
55.58866399999988,9.197143999999987,6415
55.91266399999988,9.197143999999987,6556
55.26466399999988,10.493143999999988,2034
55.91266399999988,12.437143999999988,2169
55.58866399999988,11.789143999999988,6255
55.58866399999988,11.141143999999988,6296
55.26466399999988,11.789143999999988,6288
55.58866399999988,10.493143999999988,6411
55.58866399999988,13.085143999999987,2126
56.88466399999987,9.845143999999989,6562
57.20866399999987,9.845143999999989,6597
56.56066399999988,9.845143999999989,6534
56.88466399999987,8.54914399999999,6649
54.940663999999884,9.845143999999989,7756
54.940663999999884,11.789143999999988,6512
55.91266399999988,13.085143999999987,2184
56.23666399999988,13.733143999999989,2228
55.91266399999988,13.733143999999989,2231
56.23666399999988,14.381143999999988,2251
56.23666399999988,15.029143999999986,2292
56.23666399999988,15.677143999999986,2347
56.56066399999988,14.381143999999988,2308
56.88466399999987,14.381143999999988,2278
56.23666399999988,13.085143999999987,2176
56.56066399999988,13.085143999999987,2256
56.88466399999987,12.437143999999988,2293
57.20866399999987,12.437143999999988,2309
57.53266399999987,12.437143999999988,2324
56.88466399999987,15.029143999999986,2304
56.56066399999988,15.677143999999986,2364
56.88466399999987,15.677143999999986,2383
56.88466399999987,16.325143999999987,2398
55.91266399999988,11.789143999999988,6581
57.20866399999987,10.493143999999988,6784
49.43266399999992,1.4211439999999929,1284
49.75666399999992,0.7731439999999932,1338
49.75666399999992,2.0691439999999925,1244
50.08066399999991,2.717143999999992,1206
49.75666399999992,1.4211439999999929,1327
47.81266399999993,1.4211439999999929,1314
48.136663999999925,2.0691439999999925,1509
48.46066399999992,2.0691439999999925,1351
48.136663999999925,1.4211439999999929,1271
48.78466399999992,0.1251439999999934,1412
48.46066399999992,0.1251439999999934,1295
47.81266399999993,0.1251439999999934,1383
46.84066399999993,-0.5228560000000062,1405
47.16466399999993,0.7731439999999932,1403
46.84066399999993,0.1251439999999934,1439
46.84066399999993,-1.170856000000006,1439
50.08066399999991,1.4211439999999929,1284
50.08066399999991,2.0691439999999925,1275
49.43266399999992,2.717143999999992,1210
49.75666399999992,3.365143999999992,1223
50.08066399999991,3.365143999999992,1197
49.10866399999992,2.0691439999999925,1295
49.43266399999992,2.0691439999999925,1281
48.78466399999992,0.7731439999999932,1383
48.78466399999992,-0.5228560000000062,1457
48.78466399999992,-1.170856000000006,1489
48.136663999999925,0.7731439999999932,1311
48.46066399999992,0.7731439999999932,1334
43.92466399999995,5.957143999999991,1564
44.24866399999995,5.957143999999991,1605
43.92466399999995,5.309143999999991,1421
42.95266399999996,2.717143999999992,1516
45.54466399999994,2.0691439999999925,1579
45.22066399999994,2.0691439999999925,1536
42.95266399999996,2.0691439999999925,1560
42.95266399999996,0.7731439999999932,1554
43.276663999999954,0.7731439999999932,1527
46.19266399999994,0.7731439999999932,1587
46.516663999999935,0.7731439999999932,1569
45.86866399999994,0.1251439999999934,1483
46.19266399999994,0.1251439999999934,1480
47.81266399999993,-1.170856000000006,1490
48.136663999999925,-2.4668560000000053,1489
47.48866399999993,-1.8188560000000056,1378
47.16466399999993,-1.170856000000006,1349
47.16466399999993,-0.5228560000000062,1489
46.84066399999993,-1.8188560000000056,1424
45.22066399999994,-0.5228560000000062,1367
44.89666399999994,0.1251439999999934,1381
45.22066399999994,0.7731439999999932,1400
45.54466399999994,0.7731439999999932,1434
45.86866399999994,0.7731439999999932,1546
45.22066399999994,0.1251439999999934,1395
44.89666399999994,0.7731439999999932,1500
43.92466399999995,-0.5228560000000062,1439
43.92466399999995,-1.170856000000006,1410
44.24866399999995,-1.170856000000006,1407
45.22066399999994,-1.170856000000006,1458
44.572663999999946,-0.5228560000000062,1367
44.24866399999995,0.1251439999999934,1455
44.572663999999946,0.7731439999999932,1524
43.276663999999954,-1.170856000000006,1432
42.95266399999996,-0.5228560000000062,1597
44.24866399999995,2.0691439999999925,1570
43.60066399999995,0.7731439999999932,1511
43.60066399999995,2.0691439999999925,1458
52.6726639999999,4.661143999999991,6601
52.6726639999999,5.309143999999991,6624
51.700663999999904,5.309143999999991,6569
52.0246639999999,5.309143999999991,6581
52.3486639999999,5.309143999999991,6597
51.37666399999991,4.013143999999992,6577
52.3486639999999,5.957143999999991,6591
52.0246639999999,6.60514399999999,6621
52.6726639999999,5.957143999999991,6608
52.996663999999896,5.957143999999991,6621
53.32066399999989,5.957143999999991,6615
52.996663999999896,6.60514399999999,6597
53.32066399999989,6.60514399999999,6589
52.6726639999999,6.60514399999999,6617
52.996663999999896,5.309143999999991,6636
59.15266399999986,24.101143999999977,65535
56.88466399999987,24.101143999999977,65535
56.88466399999987,23.45314399999998,65535
56.88466399999987,22.805143999999984,65535
57.20866399999987,24.74914399999998,65535
56.88466399999987,24.74914399999998,65535
56.56066399999988,24.74914399999998,65535
56.56066399999988,25.397143999999983,65535
56.56066399999988,24.101143999999977,65535
56.56066399999988,23.45314399999998,65535
56.56066399999988,26.04514399999998,65535
56.88466399999987,26.04514399999998,65535
57.20866399999987,25.397143999999983,65535
57.53266399999987,25.397143999999983,65535
56.23666399999988,26.04514399999998,65535
56.23666399999988,26.69314399999997,65535
55.91266399999988,26.69314399999997,65535
56.56066399999988,26.69314399999997,65535
56.56066399999988,27.34114399999998,65535
56.56066399999988,27.989143999999985,65535
56.23666399999988,27.989143999999985,65535
55.91266399999988,27.34114399999998,65535
56.56066399999988,22.805143999999984,65535
56.56066399999988,22.15714399999998,65535
56.56066399999988,21.50914399999997,65535
57.20866399999987,26.69314399999997,65535
39.06466399999998,-8.946856000000002,65535
38.41666399999998,-8.298856000000002,65535
45.86866399999994,11.789143999999988,3988
46.19266399999994,11.789143999999988,3975
46.19266399999994,10.493143999999988,3965
45.22066399999994,18.269143999999983,1452
45.22066399999994,18.917143999999983,1493
45.54466399999994,16.973143999999984,1355
45.22066399999994,17.621143999999987,1396
45.86866399999994,16.325143999999987,1316
45.54466399999994,18.917143999999983,1540
45.54466399999994,16.325143999999987,1330
45.54466399999994,18.269143999999983,1508
44.89666399999994,18.917143999999983,1690
46.19266399999994,16.973143999999984,1316
46.19266399999994,16.325143999999987,1321
45.86866399999994,16.973143999999984,1333
45.86866399999994,17.621143999999987,1428
46.19266399999994,15.677143999999986,1290
46.516663999999935,16.325143999999987,1295
45.54466399999994,15.677143999999986,1365
45.22066399999994,15.029143999999986,1401
45.54466399999994,15.029143999999986,1362
45.22066399999994,15.677143999999986,1426
44.572663999999946,15.677143999999986,1579
44.24866399999995,15.677143999999986,1600
43.92466399999995,16.325143999999987,1664
44.89666399999994,15.677143999999986,1543
45.54466399999994,17.621143999999987,1407
45.22066399999994,16.325143999999987,1385
46.516663999999935,16.973143999999984,1308
45.86866399999994,18.269143999999983,1600
43.92466399999995,15.677143999999986,1766
45.22066399999994,13.733143999999989,1410
47.48866399999993,19.565143999999982,932
47.16466399999993,18.917143999999983,942
47.81266399999993,18.917143999999983,916
45.54466399999994,9.845143999999989,1339
45.22066399999994,9.845143999999989,1348
45.22066399999994,10.493143999999988,1398
45.86866399999994,9.845143999999989,1359
45.86866399999994,10.493143999999988,6678
48.78466399999992,21.50914399999997,890
49.10866399999992,20.213143999999986,861
49.10866399999992,18.917143999999983,737
48.46066399999992,17.621143999999987,851
49.43266399999992,17.621143999999987,973
49.10866399999992,17.621143999999987,832
48.136663999999925,18.269143999999983,876
49.10866399999992,18.269143999999983,786
49.43266399999992,18.269143999999983,798
49.43266399999992,16.973143999999984,763
49.75666399999992,16.973143999999984,921
49.75666399999992,16.325143999999987,814
50.08066399999991,15.677143999999986,861
50.08066399999991,15.029143999999986,875
49.43266399999992,18.917143999999983,710
47.81266399999993,20.86114399999998,1075
48.136663999999925,20.86114399999998,1010
48.46066399999992,20.86114399999998,997
48.46066399999992,21.50914399999997,904
49.10866399999992,19.565143999999982,753
48.136663999999925,17.621143999999987,877
48.78466399999992,22.15714399999998,1077
48.78466399999992,20.86114399999998,959
49.10866399999992,20.86114399999998,881
48.78466399999992,18.269143999999983,791
48.78466399999992,17.621143999999987,820
49.10866399999992,21.50914399999997,886
48.78466399999992,20.213143999999986,1310
48.46066399999992,20.213143999999986,1337
48.136663999999925,19.565143999999982,1605
48.46066399999992,19.565143999999982,1484
48.46066399999992,18.917143999999983,934
48.46066399999992,18.269143999999983,839
48.78466399999992,19.565143999999982,1250
48.78466399999992,18.917143999999983,992
47.81266399999993,18.269143999999983,907
49.10866399999992,22.15714399999998,1072
49.43266399999992,21.50914399999997,913
48.136663999999925,18.917143999999983,927
48.136663999999925,20.213143999999986,1625
52.636,-8.018,65535
52.312,-7.370000000000001,65535
52.312,-8.018,65535
52.636,-8.666,65535
51.988,-8.666,65535
51.988,-8.018,65535
52.96,-8.666,65535
52.96,-6.074000000000002,65535
53.28399999999999,-6.722000000000001,65535
53.60799999999999,-6.722000000000001,65535
53.60799999999999,-7.370000000000001,65535
53.60799999999999,-8.018,65535
54.25599999999999,-8.666,65535
53.93199999999999,-8.666,65535
53.93199999999999,-8.018,65535
52.312,-6.722000000000001,65535
52.636,-6.722000000000001,65535
53.93199999999999,-6.722000000000001,65535
54.25599999999999,-6.074000000000002,65535
53.28399999999999,-7.370000000000001,65535
52.96,-7.370000000000001,65535
52.312,-8.666,65535
52.96,-8.018,65535
52.636,-7.370000000000001,65535
52.96,-6.722000000000001,65535
51.988,-9.314,65535
52.312,-9.314,65535
54.579999999999984,-6.722000000000001,65535
54.579999999999984,-6.074000000000002,65535
53.28399999999999,-8.018,65535
53.28399999999999,-8.666,65535
53.28399999999999,-9.314,65535
53.93199999999999,-9.314,65535
54.25599999999999,-9.314,65535
53.60799999999999,-8.666,65535
53.60799999999999,-9.314,65535
49.43266399999992,14.381143999999988,935
49.75666399999992,14.381143999999988,888
49.75666399999992,15.029143999999986,886
49.75666399999992,13.733143999999989,897
50.08066399999991,13.733143999999989,893
49.75666399999992,15.677143999999986,897
50.40466399999991,15.029143999999986,881
49.43266399999992,13.733143999999989,900
50.40466399999991,15.677143999999986,906
50.40466399999991,13.733143999999989,900
46.19266399999994,15.029143999999986,1273
45.86866399999994,15.029143999999986,1318
45.86866399999994,14.381143999999988,1295
46.19266399999994,13.733143999999989,1382
45.86866399999994,13.733143999999989,1468
58.50466399999986,13.733143999999989,2420
58.180663999999865,13.733143999999989,2406
58.180663999999865,13.085143999999987,2378
57.85666399999987,12.437143999999988,2342
60.44866399999985,15.677143999999986,2627
60.124663999999854,15.677143999999986,2561
60.124663999999854,16.325143999999987,2599
59.800663999999855,16.325143999999987,2527
59.800663999999855,17.621143999999987,2506
59.47666399999986,18.269143999999983,2488
61.74466399999984,16.973143999999984,2638
61.420663999999846,16.973143999999984,2611
60.77266399999985,16.973143999999984,2563
65.63266399999982,22.15714399999998,3742
65.95666399999982,21.50914399999997,3702
65.63266399999982,20.86114399999998,3673
64.98466399999982,20.213143999999986,3605
64.66066399999983,20.213143999999986,3583
64.33666399999983,19.565143999999982,3277
64.01266399999983,19.565143999999982,2990
63.68866399999983,20.213143999999986,2943
64.66066399999983,18.917143999999983,5654
59.15266399999986,16.325143999999987,2463
59.15266399999986,15.029143999999986,2467
59.15266399999986,17.621143999999987,2480
57.53266399999987,14.381143999999988,2304
57.53266399999987,15.029143999999986,2324
61.09666399999985,14.381143999999988,2731
60.77266399999985,15.029143999999986,2682
60.44866399999985,15.029143999999986,2668
58.180663999999865,15.029143999999986,2381
58.50466399999986,16.325143999999987,2415
58.50466399999986,15.677143999999986,2388
63.36466399999984,13.085143999999987,2975
63.04066399999984,14.381143999999988,2912
62.39266399999984,15.677143999999986,2834
63.36466399999984,13.733143999999989,2957
63.36466399999984,14.381143999999988,2929
62.71666399999984,15.677143999999986,2862
62.39266399999984,17.621143999999987,2696
59.800663999999855,15.677143999999986,2749
55.58866399999988,13.733143999999989,2258
57.20866399999987,14.381143999999988,2288
57.85666399999987,14.381143999999988,2336
58.82866399999986,16.973143999999984,2472
58.82866399999986,16.325143999999987,2450
59.15266399999986,18.269143999999983,2484
60.44866399999985,17.621143999999987,2539
59.15266399999986,12.437143999999988,2443
59.15266399999986,13.085143999999987,2457
58.82866399999986,12.437143999999988,2419
59.47666399999986,16.325143999999987,2509
58.82866399999986,14.381143999999988,2496
59.47666399999986,15.677143999999986,2527
63.36466399999984,18.917143999999983,2896
63.04066399999984,17.621143999999987,2851
62.71666399999984,17.621143999999987,2825
63.68866399999983,19.565143999999982,2929
62.39266399999984,16.973143999999984,2740
59.800663999999855,16.973143999999984,2515
59.47666399999986,17.621143999999987,2492
57.85666399999987,13.085143999999987,2368
57.53266399999987,13.085143999999987,2349
58.50466399999986,11.789143999999988,2390
57.85666399999987,15.029143999999986,2370
57.20866399999987,13.733143999999989,2294
57.53266399999987,13.733143999999989,2355
61.74466399999984,16.325143999999987,2734
61.420663999999846,16.325143999999987,2701
61.09666399999985,16.325143999999987,2690
61.09666399999985,16.973143999999984,2658
60.124663999999854,15.029143999999986,2836
66.60466399999981,20.86114399999998,3777
67.25266399999981,20.86114399999998,3845
67.90066399999981,20.213143999999986,3915
67.57666399999981,20.213143999999986,4540
59.800663999999855,15.029143999999986,2556
58.50466399999986,15.029143999999986,2398
59.47666399999986,15.029143999999986,2541
60.44866399999985,16.325143999999987,2627
59.15266399999986,15.677143999999986,2485
57.85666399999987,13.733143999999989,2396
58.82866399999986,13.733143999999989,2443
58.50466399999986,13.085143999999987,2428
57.20866399999987,13.085143999999987,2325
56.88466399999987,13.085143999999987,2299
58.180663999999865,11.789143999999988,2361
62.06866399999984,16.973143999999984,2729
65.95666399999982,23.45314399999998,3977
59.800663999999855,14.381143999999988,5411
59.800663999999855,18.269143999999983,2497
63.04066399999984,15.029143999999986,2880
62.71666399999984,15.029143999999986,2870
62.39266399999984,16.325143999999987,2803
63.36466399999984,12.437143999999988,3008
68.5486639999998,17.621143999999987,4128
68.5486639999998,18.269143999999983,4061
68.5486639999998,18.917143999999983,4038
68.2246639999998,18.917143999999983,3994
59.800663999999855,13.085143999999987,2560
60.124663999999854,13.085143999999987,2599
59.47666399999986,16.973143999999984,2501
59.15266399999986,16.973143999999984,2493
56.56066399999988,13.733143999999989,2246
60.124663999999854,17.621143999999987,2516
57.85666399999987,16.325143999999987,2475
58.180663999999865,16.325143999999987,2437
58.180663999999865,15.677143999999986,2445
57.20866399999987,16.325143999999987,2487
57.53266399999987,15.677143999999986,2505
57.85666399999987,15.677143999999986,2476
44.89666399999994,23.45314399999998,2485
44.572663999999946,23.45314399999998,2555
44.89666399999994,24.74914399999998,2472
44.572663999999946,24.74914399999998,2591
44.572663999999946,24.101143999999977,2532
44.24866399999995,24.101143999999977,2561
47.48866399999993,25.397143999999983,2333
47.48866399999993,24.74914399999998,2273
47.16466399999993,24.74914399999998,2195
47.16466399999993,24.101143999999977,2097
47.48866399999993,22.15714399999998,2227
47.81266399999993,22.15714399999998,2313
47.16466399999993,22.15714399999998,2206
47.16466399999993,23.45314399999998,2258
47.16466399999993,22.805143999999984,2264
46.84066399999993,24.101143999999977,2178
45.86866399999994,27.34114399999998,2518
45.54466399999994,27.34114399999998,2499
45.54466399999994,27.989143999999985,2615
45.86866399999994,20.86114399999998,2390
45.86866399999994,21.50914399999997,2398
46.19266399999994,21.50914399999997,2334
46.19266399999994,27.34114399999998,2518
46.19266399999994,26.69314399999997,2509
46.516663999999935,26.69314399999997,2471
46.516663999999935,26.04514399999998,2367
47.48866399999993,22.805143999999984,2325
46.84066399999993,22.805143999999984,2138
45.54466399999994,22.15714399999998,2447
45.22066399999994,22.15714399999998,2525
44.89666399999994,22.15714399999998,2943
47.48866399999993,23.45314399999998,2291
46.516663999999935,24.101143999999977,2017
46.516663999999935,24.74914399999998,2231
45.86866399999994,24.101143999999977,2180
47.16466399999993,26.69314399999997,2549
47.16466399999993,27.34114399999998,2604
43.92466399999995,25.397143999999983,2563
44.24866399999995,24.74914399999998,2470
44.89666399999994,26.04514399999998,2357
44.89666399999994,26.69314399999997,2404
45.22066399999994,26.69314399999997,2439
45.22066399999994,27.34114399999998,2466
46.84066399999993,26.69314399999997,2510
47.48866399999993,26.69314399999997,2503
44.24866399999995,25.397143999999983,2402
43.92466399999995,26.04514399999998,2579
46.19266399999994,24.101143999999977,2225
44.572663999999946,25.397143999999983,2440
46.84066399999993,24.74914399999998,2238
46.516663999999935,21.50914399999997,2338
46.84066399999993,21.50914399999997,2345
44.572663999999946,26.69314399999997,2395
44.572663999999946,27.34114399999998,2416
44.89666399999994,27.34114399999998,2531
44.572663999999946,27.989143999999985,2436
44.24866399999995,27.989143999999985,2450
44.572663999999946,28.63714399999997,2501
45.86866399999994,22.15714399999998,2259
45.86866399999994,22.805143999999984,2153
44.24866399999995,23.45314399999998,2588
43.92466399999995,27.989143999999985,65535
46.84066399999993,27.34114399999998,2671
45.22066399999994,23.45314399999998,2460
45.54466399999994,23.45314399999998,2263
45.54466399999994,24.101143999999977,2210
45.22066399999994,24.101143999999977,2434
44.89666399999994,24.101143999999977,2504
46.19266399999994,22.15714399999998,2390
46.516663999999935,22.15714399999998,2356
45.22066399999994,21.50914399999997,2630
45.54466399999994,21.50914399999997,2478
45.54466399999994,20.86114399999998,2502
46.516663999999935,27.989143999999985,2621
46.19266399999994,27.989143999999985,2606
45.54466399999994,25.397143999999983,2324
45.22066399999994,25.397143999999983,2334
45.22066399999994,26.04514399999998,2390
47.81266399999993,24.101143999999977,2386
47.48866399999993,26.04514399999998,2476
47.81266399999993,26.04514399999998,2498
46.19266399999994,23.45314399999998,2057
45.86866399999994,23.45314399999998,2106
44.24866399999995,26.04514399999998,2384
45.22066399999994,27.989143999999985,2596
45.86866399999994,24.74914399999998,2219
46.516663999999935,25.397143999999983,2411
46.84066399999993,25.397143999999983,2294
46.19266399999994,26.04514399999998,2382
45.86866399999994,26.04514399999998,2347
43.92466399999995,23.45314399999998,2818
44.89666399999994,25.397143999999983,2445
46.19266399999994,20.86114399999998,2379
47.81266399999993,25.397143999999983,2510
44.572663999999946,22.805143999999984,2823
44.572663999999946,22.15714399999998,2965
46.516663999999935,23.45314399999998,2196
45.86866399999994,25.397143999999983,2273
44.24866399999995,27.34114399999998,3211
45.22066399999994,24.74914399999998,2536
45.54466399999994,22.805143999999984,2226
45.22066399999994,28.63714399999997,2656
44.89666399999994,28.63714399999997,2595
47.81266399999993,23.45314399999998,2443
46.19266399999994,24.74914399999998,2305
46.19266399999994,25.397143999999983,2329
43.92466399999995,24.101143999999977,2781
43.92466399999995,24.74914399999998,2794
47.81266399999993,26.69314399999997,2725
47.48866399999993,24.101143999999977,2318
46.84066399999993,26.04514399999998,3126
46.19266399999994,22.805143999999984,2450
47.48866399999993,27.34114399999998,2678
46.19266399999994,20.213143999999986,65535
45.54466399999994,26.04514399999998,2482
44.24866399999995,26.69314399999997,2400
45.86866399999994,27.989143999999985,2654
47.81266399999993,5.957143999999991,6586
