51.56399999999999,-0.4100000000000028,65535
51.887999999999984,-0.4100000000000028,65535
50.91599999999999,-1.7060000000000022,65535
51.23999999999999,-1.0580000000000025,65535
51.56399999999999,-1.0580000000000025,65535
51.23999999999999,-1.7060000000000022,65535
51.56399999999999,0.2379999999999968,65535
47.16466399999993,9.845143999999989,1257
47.48866399999993,9.845143999999989,1130
48.136663999999925,14.381143999999988,984
47.81266399999993,13.085143999999987,927
47.16466399999993,11.141143999999988,1128
47.48866399999993,11.789143999999988,1070
48.136663999999925,16.325143999999987,814
47.48866399999993,12.437143999999988,958
48.136663999999925,15.677143999999986,859
47.16466399999993,10.493143999999988,1207
47.16466399999993,9.197143999999987,1265
48.136663999999925,13.733143999999989,976
48.136663999999925,15.029143999999986,981
47.81266399999993,16.973143999999984,835
48.46066399999992,14.381143999999988,1384
47.48866399999993,13.085143999999987,970
47.16466399999993,13.085143999999987,1292
47.48866399999993,14.381143999999988,1343
47.48866399999993,13.733143999999989,1404
47.48866399999993,15.029143999999986,1292
46.516663999999935,13.733143999999989,1574
46.84066399999993,13.733143999999989,1600
46.84066399999993,13.085143999999987,1605
48.78466399999992,14.381143999999988,65535
47.16466399999993,15.677143999999986,1304
46.516663999999935,14.381143999999988,1554
46.84066399999993,14.381143999999988,1495
47.16466399999993,14.381143999999988,1445
46.516663999999935,15.029143999999986,1567
47.81266399999993,16.325143999999987,821
47.16466399999993,15.029143999999986,1273
47.81266399999993,15.677143999999986,958
47.48866399999993,15.677143999999986,1244
46.516663999999935,13.085143999999987,1934
46.84066399999993,12.437143999999988,1619
48.136663999999925,11.789143999999988,897
47.81266399999993,12.437143999999988,918
46.84066399999993,15.677143999999986,1381
46.516663999999935,15.677143999999986,1621
46.84066399999993,16.325143999999987,1403
47.81266399999993,14.381143999999988,1315
48.78466399999992,16.973143999999984,887
48.136663999999925,16.973143999999984,798
48.46066399999992,13.733143999999989,985
47.81266399999993,13.733143999999989,1331
50.08066399999991,8.54914399999999,996
48.46066399999992,9.845143999999989,928
51.05266399999991,7.25314399999999,1248
51.37666399999991,7.25314399999999,1264
51.37666399999991,6.60514399999999,1268
48.46066399999992,16.325143999999987,828
48.46066399999992,16.973143999999984,884
48.78466399999992,16.325143999999987,834
48.46066399999992,15.677143999999986,845
48.78466399999992,15.677143999999986,841
47.48866399999993,16.325143999999987,1029
47.16466399999993,16.325143999999987,1326
46.19266399999994,14.381143999999988,1566
45.86866399999994,15.677143999999986,1603
43.60066399999995,16.325143999999987,2200
45.54466399999994,14.381143999999988,1679
45.54466399999994,13.733143999999989,1701
48.136663999999925,13.085143999999987,923
48.46066399999992,11.141143999999988,891
48.136663999999925,11.141143999999988,901
48.46066399999992,7.90114399999999,1012
49.10866399999992,8.54914399999999,966
48.78466399999992,2.0691439999999925,1424
49.10866399999992,7.25314399999999,1258
52.0246639999999,7.90114399999999,1275
47.16466399999993,11.789143999999988,1111
49.43266399999992,11.141143999999988,843
53.64466399999989,9.845143999999989,911
50.72866399999991,4.013143999999992,1349
51.05266399999991,11.141143999999988,754
47.48866399999993,11.141143999999988,934
46.84066399999993,11.789143999999988,2102
46.516663999999935,11.141143999999988,2071
45.54466399999994,11.141143999999988,1965
46.19266399999994,11.141143999999988,2037
45.86866399999994,11.141143999999988,2021
44.572663999999946,11.141143999999988,1812
43.92466399999995,12.437143999999988,4445
45.54466399999994,12.437143999999988,2052
45.54466399999994,11.789143999999988,2015
48.78466399999992,15.029143999999986,852
47.81266399999993,15.029143999999986,1285
47.81266399999993,11.141143999999988,908
50.40466399999991,18.917143999999983,426
52.3486639999999,20.86114399999998,64
54.616663999999886,18.269143999999983,543
54.29266399999989,18.917143999999983,528
49.10866399999992,14.381143999999988,65535
50.08066399999991,14.381143999999988,702
48.78466399999992,13.733143999999989,2216
52.6726639999999,13.085143999999987,715
52.3486639999999,13.085143999999987,715
53.96866399999989,12.437143999999988,924
54.29266399999989,12.437143999999988,922
47.48866399999993,8.54914399999999,1172
47.81266399999993,17.621143999999987,798
47.48866399999993,18.917143999999983,1200
47.48866399999993,20.86114399999998,1916
46.84066399999993,23.45314399999998,2398
44.572663999999946,26.04514399999998,2847
47.48866399999993,21.50914399999997,1952
47.81266399999993,21.50914399999997,2348
48.46066399999992,22.15714399999998,1291
47.48866399999993,16.973143999999984,65535
49.10866399999992,16.325143999999987,847
49.75666399999992,18.269143999999983,630
46.19266399999994,13.085143999999987,1650
41.98066399999996,12.437143999999988,3045
43.60066399999995,10.493143999999988,3206
45.54466399999994,9.197143999999987,1388
47.81266399999993,22.805143999999984,2813
49.75666399999992,22.805143999999984,500
50.72866399999991,3.365143999999992,1357
51.05266399999991,4.013143999999992,1355
50.72866399999991,4.661143999999991,1347
51.05266399999991,4.661143999999991,1348
51.05266399999991,3.365143999999992,1361
51.05266399999991,2.717143999999992,1382
50.40466399999991,4.661143999999991,1344
50.72866399999991,2.717143999999992,1367
50.40466399999991,4.013143999999992,1366
51.05266399999991,5.309143999999991,1345
50.72866399999991,5.309143999999991,1333
51.37666399999991,3.365143999999992,1379
51.37666399999991,4.661143999999991,1353
50.72866399999991,5.957143999999991,1312
50.40466399999991,5.957143999999991,1327
50.40466399999991,3.365143999999992,1377
50.40466399999991,5.309143999999991,1339
50.08066399999991,5.309143999999991,1360
49.75666399999992,5.309143999999991,1358
49.75666399999992,5.957143999999991,1351
51.37666399999991,5.309143999999991,1402
51.700663999999904,4.661143999999991,1398
50.08066399999991,4.013143999999992,1386
50.08066399999991,5.957143999999991,1401
50.08066399999991,4.661143999999991,1351
49.43266399999992,5.309143999999991,1339
49.43266399999992,5.957143999999991,1322
52.0246639999999,4.661143999999991,1430
52.3486639999999,4.661143999999991,1459
50.72866399999991,15.029143999999986,670
51.05266399999991,15.029143999999986,648
51.05266399999991,13.733143999999989,691
50.40466399999991,13.085143999999987,723
49.10866399999992,7.90114399999999,1238
48.78466399999992,7.90114399999999,980
50.40466399999991,7.90114399999999,1046
50.08066399999991,7.90114399999999,1264
49.75666399999992,7.90114399999999,1290
49.43266399999992,7.90114399999999,1003
49.75666399999992,8.54914399999999,984
49.43266399999992,8.54914399999999,973
49.43266399999992,9.197143999999987,1009
49.10866399999992,9.197143999999987,959
47.48866399999993,7.90114399999999,1116
47.81266399999993,7.90114399999999,1077
48.136663999999925,7.90114399999999,1041
48.136663999999925,9.845143999999989,941
47.81266399999993,9.197143999999987,1015
47.81266399999993,8.54914399999999,1102
47.81266399999993,9.845143999999989,982
54.940663999999884,9.197143999999987,1032
54.616663999999886,9.197143999999987,969
54.29266399999989,9.197143999999987,975
53.96866399999989,9.197143999999987,956
53.64466399999989,9.197143999999987,947
54.616663999999886,9.845143999999989,960
54.29266399999989,9.845143999999989,946
53.96866399999989,9.845143999999989,918
53.64466399999989,10.493143999999988,907
53.96866399999989,10.493143999999988,946
53.96866399999989,11.141143999999988,1343
54.29266399999989,10.493143999999988,970
53.32066399999989,10.493143999999988,891
54.940663999999884,11.141143999999988,1015
52.6726639999999,13.733143999999989,713
52.3486639999999,13.733143999999989,711
52.3486639999999,14.381143999999988,700
52.0246639999999,14.381143999999988,686
52.0246639999999,11.789143999999988,774
52.3486639999999,11.789143999999988,747
52.3486639999999,12.437143999999988,727
52.0246639999999,15.029143999999986,657
51.700663999999904,14.381143999999988,698
52.0246639999999,13.733143999999989,735
51.700663999999904,13.733143999999989,735
52.6726639999999,12.437143999999988,728
53.32066399999989,11.789143999999988,789
53.96866399999989,11.789143999999988,918
53.64466399999989,11.789143999999988,857
53.64466399999989,11.141143999999988,822
53.32066399999989,11.141143999999988,813
52.996663999999896,11.789143999999988,752
52.996663999999896,12.437143999999988,744
52.996663999999896,13.733143999999989,721
53.64466399999989,13.733143999999989,856
53.96866399999989,13.733143999999989,890
54.29266399999989,13.085143999999987,932
53.96866399999989,13.085143999999987,917
53.32066399999989,13.733143999999989,827
52.0246639999999,13.085143999999987,736
51.700663999999904,13.085143999999987,734
52.996663999999896,14.381143999999988,762
52.0246639999999,12.437143999999988,729
51.700663999999904,12.437143999999988,725
51.37666399999991,11.789143999999988,721
51.37666399999991,12.437143999999988,717
52.6726639999999,11.789143999999988,743
53.64466399999989,13.085143999999987,883
53.32066399999989,13.085143999999987,825
52.996663999999896,13.085143999999987,753
53.64466399999989,12.437143999999988,868
51.37666399999991,13.733143999999989,694
53.32066399999989,12.437143999999988,776
52.6726639999999,14.381143999999988,707
51.37666399999991,13.085143999999987,705
53.32066399999989,14.381143999999988,858
52.3486639999999,15.029143999999986,645
52.0246639999999,15.677143999999986,681
51.700663999999904,15.029143999999986,683
51.05266399999991,16.325143999999987,551
51.05266399999991,16.973143999999984,538
51.700663999999904,15.677143999999986,794
51.37666399999991,15.677143999999986,590
51.37666399999991,16.325143999999987,559
50.72866399999991,13.085143999999987,718
50.72866399999991,12.437143999999988,725
51.05266399999991,13.085143999999987,706
51.05266399999991,14.381143999999988,684
50.40466399999991,12.437143999999988,750
50.40466399999991,11.789143999999988,758
50.08066399999991,12.437143999999988,782
50.72866399999991,11.789143999999988,757
51.05266399999991,12.437143999999988,722
50.72866399999991,14.381143999999988,724
51.37666399999991,14.381143999999988,658
50.72866399999991,13.733143999999989,695
50.40466399999991,14.381143999999988,699
51.37666399999991,15.029143999999986,623
55.26466399999988,9.197143999999987,2268
55.58866399999988,8.54914399999999,3562
55.91266399999988,8.54914399999999,7039
56.23666399999988,9.197143999999987,7047
56.23666399999988,10.493143999999988,7000
56.23666399999988,9.845143999999989,6987
55.91266399999988,9.845143999999989,6925
56.56066399999988,9.197143999999987,7057
56.56066399999988,8.54914399999999,7100
51.05266399999991,6.60514399999999,1256
51.700663999999904,7.90114399999999,1268
50.72866399999991,6.60514399999999,1245
51.700663999999904,7.25314399999999,1267
50.72866399999991,7.25314399999999,1229
52.0246639999999,7.25314399999999,1280
52.3486639999999,7.90114399999999,994
51.05266399999991,5.957143999999991,1285
50.40466399999991,7.25314399999999,1217
51.700663999999904,6.60514399999999,1300
51.700663999999904,5.957143999999991,1298
52.3486639999999,9.197143999999987,947
51.700663999999904,8.54914399999999,1265
52.0246639999999,8.54914399999999,1013
52.3486639999999,8.54914399999999,963
51.37666399999991,7.90114399999999,1262
52.3486639999999,7.25314399999999,1371
51.37666399999991,5.957143999999991,1421
50.72866399999991,7.90114399999999,1018
51.37666399999991,9.197143999999987,877
51.700663999999904,9.197143999999987,1283
50.40466399999991,6.60514399999999,1332
51.05266399999991,7.90114399999999,1205
51.37666399999991,8.54914399999999,895
52.0246639999999,5.957143999999991,1371
52.3486639999999,6.60514399999999,1406
51.05266399999991,8.54914399999999,1337
52.0246639999999,9.197143999999987,992
52.6726639999999,9.197143999999987,967
52.0246639999999,9.845143999999989,928
51.700663999999904,9.845143999999989,917
51.37666399999991,9.845143999999989,893
50.72866399999991,8.54914399999999,1010
51.05266399999991,9.845143999999989,814
50.72866399999991,9.845143999999989,849
50.40466399999991,9.845143999999989,877
51.05266399999991,9.197143999999987,873
50.40466399999991,9.197143999999987,933
50.08066399999991,9.197143999999987,993
51.05266399999991,10.493143999999988,801
50.40466399999991,8.54914399999999,1003
50.72866399999991,9.197143999999987,927
49.75666399999992,9.197143999999987,1030
52.996663999999896,9.197143999999987,933
52.3486639999999,9.845143999999989,934
52.996663999999896,8.54914399999999,947
52.996663999999896,7.90114399999999,1013
53.32066399999989,7.90114399999999,1270
53.32066399999989,7.25314399999999,1453
53.64466399999989,7.25314399999999,1498
52.996663999999896,10.493143999999988,931
52.6726639999999,10.493143999999988,977
52.6726639999999,9.845143999999989,940
53.32066399999989,9.845143999999989,902
53.32066399999989,9.197143999999987,927
53.64466399999989,8.54914399999999,964
53.32066399999989,8.54914399999999,980
52.6726639999999,8.54914399999999,971
52.0246639999999,10.493143999999988,869
52.0246639999999,11.141143999999988,768
51.700663999999904,11.141143999999988,760
52.6726639999999,7.25314399999999,2203
52.996663999999896,7.25314399999999,2178
52.6726639999999,7.90114399999999,1244
53.64466399999989,7.90114399999999,1331
52.996663999999896,11.141143999999988,1271
52.6726639999999,11.141143999999988,955
52.3486639999999,10.493143999999988,967
52.996663999999896,9.845143999999989,941
51.700663999999904,10.493143999999988,800
51.37666399999991,10.493143999999988,851
51.700663999999904,11.789143999999988,734
52.3486639999999,11.141143999999988,776
51.37666399999991,11.141143999999988,765
51.05266399999991,11.789143999999988,747
49.10866399999992,11.141143999999988,847
48.78466399999992,11.141143999999988,880
48.46066399999992,11.789143999999988,890
49.43266399999992,11.789143999999988,836
50.08066399999991,11.789143999999988,822
49.75666399999992,12.437143999999988,807
49.10866399999992,11.789143999999988,856
48.78466399999992,12.437143999999988,924
48.46066399999992,12.437143999999988,931
49.10866399999992,12.437143999999988,866
48.78466399999992,13.085143999999987,951
48.136663999999925,12.437143999999988,913
47.81266399999993,11.789143999999988,903
48.136663999999925,10.493143999999988,964
47.81266399999993,10.493143999999988,977
48.78466399999992,10.493143999999988,895
47.48866399999993,10.493143999999988,1267
48.46066399999992,10.493143999999988,904
49.43266399999992,13.085143999999987,1254
48.46066399999992,13.085143999999987,976
49.43266399999992,10.493143999999988,848
49.75666399999992,9.845143999999989,896
49.75666399999992,10.493143999999988,882
50.40466399999991,11.141143999999988,855
50.08066399999991,11.141143999999988,881
50.72866399999991,11.141143999999988,771
49.75666399999992,11.141143999999988,853
48.78466399999992,11.789143999999988,876
50.40466399999991,10.493143999999988,1227
50.08066399999991,9.845143999999989,929
50.08066399999991,10.493143999999988,916
49.43266399999992,12.437143999999988,810
49.75666399999992,11.789143999999988,816
49.10866399999992,13.085143999999987,1048
50.72866399999991,10.493143999999988,821
49.10866399999992,10.493143999999988,878
48.78466399999992,9.845143999999989,938
48.46066399999992,8.54914399999999,968
48.46066399999992,9.197143999999987,960
48.78466399999992,9.197143999999987,951
48.78466399999992,8.54914399999999,957
50.08066399999991,7.25314399999999,1295
49.75666399999992,6.60514399999999,1333
49.43266399999992,6.60514399999999,1291
49.10866399999992,6.60514399999999,1283
49.43266399999992,7.25314399999999,1241
49.75666399999992,7.25314399999999,1293
49.10866399999992,5.957143999999991,1310
48.78466399999992,7.25314399999999,1266
50.08066399999991,6.60514399999999,1330
47.48866399999993,9.197143999999987,1027
48.136663999999925,8.54914399999999,1002
48.136663999999925,9.197143999999987,983
47.81266399999993,7.25314399999999,1096
49.43266399999992,9.845143999999989,913
49.10866399999992,9.845143999999989,938
53.64466399999989,14.381143999999988,1260
50.08066399999991,13.085143999999987,816
49.75666399999992,13.085143999999987,755
45.86866399999994,9.197143999999987,1384
46.19266399999994,9.197143999999987,1374
46.516663999999935,8.54914399999999,1370
46.516663999999935,9.197143999999987,1388
46.19266399999994,8.54914399999999,1361
47.16466399999993,8.54914399999999,1269
45.86866399999994,4.661143999999991,1354
46.84066399999993,9.845143999999989,1308
45.22066399999994,5.957143999999991,1371
45.22066399999994,5.309143999999991,1386
45.86866399999994,5.957143999999991,1324
45.54466399999994,5.957143999999991,1343
44.89666399999994,4.661143999999991,1392
44.89666399999994,5.309143999999991,1410
44.572663999999946,4.661143999999991,1404
44.24866399999995,4.661143999999991,1418
43.92466399999995,4.661143999999991,1428
46.19266399999994,7.25314399999999,1298
48.78466399999992,5.957143999999991,1329
48.136663999999925,6.60514399999999,1327
48.46066399999992,6.60514399999999,1309
48.78466399999992,6.60514399999999,1330
47.16466399999993,7.90114399999999,1253
48.136663999999925,7.25314399999999,1277
48.46066399999992,7.25314399999999,1299
46.516663999999935,6.60514399999999,1286
46.84066399999993,6.60514399999999,1273
46.84066399999993,7.25314399999999,1268
46.516663999999935,5.957143999999991,1310
46.19266399999994,5.957143999999991,1307
46.84066399999993,8.54914399999999,1273
46.84066399999993,7.90114399999999,1263
45.86866399999994,5.309143999999991,1350
46.19266399999994,6.60514399999999,1297
45.86866399999994,6.60514399999999,1363
47.48866399999993,6.60514399999999,1292
47.48866399999993,7.25314399999999,1146
47.16466399999993,7.25314399999999,1270
49.10866399999992,4.013143999999992,1402
49.75666399999992,4.661143999999991,1377
49.43266399999992,4.661143999999991,1424
49.10866399999992,5.309143999999991,1374
46.19266399999994,4.661143999999991,1369
46.84066399999993,9.197143999999987,1326
46.19266399999994,5.309143999999991,1360
46.516663999999935,5.309143999999991,1410
45.54466399999994,6.60514399999999,1375
45.54466399999994,5.309143999999991,1384
43.60066399999995,4.013143999999992,1480
43.60066399999995,3.365143999999992,1497
42.62866399999996,2.717143999999992,1600
43.276663999999954,2.717143999999992,1526
45.54466399999994,4.661143999999991,1361
45.22066399999994,4.661143999999991,1375
47.16466399999993,5.309143999999991,1377
47.16466399999993,5.957143999999991,1344
46.19266399999994,7.90114399999999,1316
49.75666399999992,2.717143999999992,1427
49.10866399999992,2.717143999999992,1434
48.78466399999992,2.717143999999992,1456
45.86866399999994,3.365143999999992,1494
46.84066399999993,3.365143999999992,1492
46.516663999999935,3.365143999999992,1481
46.19266399999994,3.365143999999992,1469
47.16466399999993,6.60514399999999,1334
49.10866399999992,3.365143999999992,1422
45.54466399999994,4.013143999999992,1369
46.516663999999935,7.25314399999999,1328
47.16466399999993,4.661143999999991,1383
46.84066399999993,4.661143999999991,1404
46.516663999999935,4.661143999999991,1401
46.84066399999993,5.957143999999991,1286
47.81266399999993,3.365143999999992,1501
47.48866399999993,4.013143999999992,1439
48.136663999999925,4.013143999999992,1453
47.81266399999993,4.013143999999992,1461
47.48866399999993,4.661143999999991,1441
47.16466399999993,3.365143999999992,1507
46.84066399999993,4.013143999999992,1460
48.46066399999992,5.957143999999991,1385
46.19266399999994,2.717143999999992,1690
47.16466399999993,2.0691439999999925,1519
46.516663999999935,2.717143999999992,1654
46.84066399999993,2.717143999999992,1624
46.84066399999993,2.0691439999999925,1567
47.16466399999993,2.717143999999992,1546
44.572663999999946,5.309143999999991,1524
44.572663999999946,5.957143999999991,1523
44.89666399999994,6.60514399999999,1407
44.572663999999946,6.60514399999999,1489
43.60066399999995,5.309143999999991,1470
43.92466399999995,7.25314399999999,1534
43.60066399999995,6.60514399999999,1522
43.276663999999954,6.60514399999999,1499
43.276663999999954,5.957143999999991,1474
45.86866399999994,8.54914399999999,1380
45.54466399999994,8.54914399999999,1391
48.136663999999925,3.365143999999992,1526
48.46066399999992,3.365143999999992,1484
48.46066399999992,2.717143999999992,1511
47.48866399999993,5.309143999999991,1400
46.516663999999935,9.845143999999989,1333
46.84066399999993,10.493143999999988,1331
47.81266399999993,5.309143999999991,1373
45.22066399999994,6.60514399999999,1402
46.19266399999994,4.013143999999992,1384
45.86866399999994,4.013143999999992,1377
45.22066399999994,4.013143999999992,1398
44.89666399999994,4.013143999999992,1437
46.84066399999993,5.309143999999991,1398
48.136663999999925,-1.8188560000000056,1525
48.136663999999925,0.1251439999999934,1473
48.136663999999925,-0.5228560000000062,1489
47.48866399999993,-0.5228560000000062,1548
47.16466399999993,-1.8188560000000056,1614
47.48866399999993,0.7731439999999932,1506
47.16466399999993,0.1251439999999934,1517
45.86866399999994,7.25314399999999,1368
48.136663999999925,5.309143999999991,1404
49.10866399999992,4.661143999999991,1422
48.46066399999992,4.013143999999992,1473
48.136663999999925,4.661143999999991,1424
47.81266399999993,6.60514399999999,1317
47.48866399999993,5.957143999999991,1335
48.136663999999925,5.957143999999991,1886
45.86866399999994,7.90114399999999,1347
46.516663999999935,7.90114399999999,1312
49.43266399999992,3.365143999999992,1433
49.43266399999992,4.013143999999992,1413
48.136663999999925,2.717143999999992,1569
47.81266399999993,2.717143999999992,1581
47.48866399999993,2.717143999999992,1601
50.40466399999991,2.717143999999992,1360
48.46066399999992,-4.410856000000004,1659
48.46066399999992,-3.7628560000000046,1624
48.46066399999992,-3.114856000000005,1594
48.46066399999992,-2.4668560000000053,1565
47.48866399999993,1.4211439999999929,1503
47.16466399999993,1.4211439999999929,1595
46.516663999999935,4.013143999999992,1405
43.60066399999995,4.661143999999991,1462
44.89666399999994,2.717143999999992,1727
45.22066399999994,2.717143999999992,1696
45.54466399999994,3.365143999999992,1501
45.22066399999994,3.365143999999992,1442
47.48866399999993,3.365143999999992,1546
46.19266399999994,9.845143999999989,1397
47.81266399999993,2.0691439999999925,1474
47.48866399999993,2.0691439999999925,1537
45.86866399999994,2.717143999999992,1720
44.89666399999994,5.957143999999991,1427
45.22066399999994,1.4211439999999929,1739
44.89666399999994,1.4211439999999929,1746
44.89666399999994,2.0691439999999925,1839
43.276663999999954,2.0691439999999925,1576
43.60066399999995,1.4211439999999929,1621
48.78466399999992,4.661143999999991,1427
48.78466399999992,5.309143999999991,1400
46.19266399999994,2.0691439999999925,1862
45.86866399999994,1.4211439999999929,1677
46.19266399999994,1.4211439999999929,1642
44.572663999999946,4.013143999999992,1533
44.89666399999994,3.365143999999992,1474
43.92466399999995,4.013143999999992,1444
44.24866399999995,4.013143999999992,1471
44.89666399999994,-0.5228560000000062,1578
45.54466399999994,0.1251439999999934,1583
46.516663999999935,0.1251439999999934,1517
44.572663999999946,2.0691439999999925,1858
49.75666399999992,4.013143999999992,1433
43.92466399999995,3.365143999999992,1596
43.92466399999995,2.717143999999992,1621
44.24866399999995,3.365143999999992,1647
44.572663999999946,3.365143999999992,1662
49.10866399999992,0.1251439999999934,1520
49.43266399999992,0.7731439999999932,1514
49.43266399999992,-1.8188560000000056,1676
49.10866399999992,-1.170856000000006,1600
49.10866399999992,-0.5228560000000062,1540
49.10866399999992,0.7731439999999932,1563
49.10866399999992,1.4211439999999929,1487
47.81266399999993,-1.8188560000000056,1623
47.81266399999993,-2.4668560000000053,1648
47.81266399999993,-3.114856000000005,1661
48.136663999999925,-3.7628560000000046,1669
44.572663999999946,9.197143999999987,1462
44.89666399999994,8.54914399999999,1437
45.22066399999994,9.197143999999987,1399
45.54466399999994,10.493143999999988,1447
44.572663999999946,10.493143999999988,1798
44.89666399999994,10.493143999999988,1513
44.89666399999994,9.845143999999989,1541
48.46066399999992,5.309143999999991,1575
50.91599999999999,-1.0580000000000025,65535
51.23999999999999,-0.4100000000000028,65535
50.91599999999999,-0.4100000000000028,65535
51.23999999999999,-2.354000000000002,65535
51.56399999999999,-2.354000000000002,65535
51.56399999999999,-3.0020000000000016,65535
50.91599999999999,-2.354000000000002,65535
53.50799999999997,-3.0020000000000016,65535
53.183999999999976,-2.354000000000002,65535
53.183999999999976,-3.0020000000000016,65535
52.85999999999998,-2.354000000000002,65535
52.21199999999998,-1.0580000000000025,65535
51.887999999999984,-1.0580000000000025,65535
52.53599999999998,-1.0580000000000025,65535
52.53599999999998,-1.7060000000000022,65535
52.85999999999998,-1.7060000000000022,65535
53.50799999999997,-2.354000000000002,65535
52.85999999999998,-1.0580000000000025,65535
52.53599999999998,1.5339999999999965,65535
52.53599999999998,0.8859999999999966,65535
52.53599999999998,0.2379999999999968,65535
52.53599999999998,-0.4100000000000028,65535
53.50799999999997,-1.7060000000000022,65535
53.183999999999976,-1.7060000000000022,65535
53.183999999999976,-1.0580000000000025,65535
52.85999999999998,-0.4100000000000028,65535
51.887999999999984,-2.354000000000002,65535
52.21199999999998,-2.354000000000002,65535
55.77599999999996,-2.354000000000002,65535
53.83199999999997,-1.0580000000000025,65535
53.83199999999997,-1.7060000000000022,65535
55.127999999999965,-1.7060000000000022,65535
54.80399999999997,-1.7060000000000022,65535
54.47999999999997,-1.7060000000000022,65535
54.15599999999997,-1.0580000000000025,65535
52.21199999999998,-1.7060000000000022,65535
53.50799999999997,-1.0580000000000025,65535
55.77599999999996,-3.0020000000000016,65535
55.45199999999996,-1.7060000000000022,65535
57.07199999999995,-2.354000000000002,65535
56.74799999999996,-3.0020000000000016,65535
56.42399999999996,-3.0020000000000016,65535
56.09999999999996,-3.650000000000001,65535
50.91599999999999,-3.0020000000000016,65535
50.91599999999999,-3.650000000000001,65535
50.59199999999999,-3.650000000000001,65535
50.59199999999999,-4.298000000000001,65535
51.23999999999999,-3.0020000000000016,65535
50.268,-4.946000000000001,65535
55.77599999999996,-3.650000000000001,65535
55.77599999999996,-4.298000000000001,65535
52.21199999999998,-0.4100000000000028,65535
52.53599999999998,-2.354000000000002,65535
51.56399999999999,-1.7060000000000022,65535
51.56399999999999,-3.650000000000001,65535
51.887999999999984,-4.298000000000001,65535
51.56399999999999,-4.298000000000001,65535
51.887999999999984,-1.7060000000000022,65535
52.21199999999998,-3.0020000000000016,65535
51.23999999999999,0.2379999999999968,65535
50.91599999999999,0.2379999999999968,65535
52.21199999999998,0.2379999999999968,65535
53.83199999999997,-3.0020000000000016,65535
54.15599999999997,-3.0020000000000016,65535
54.47999999999997,-3.0020000000000016,65535
55.127999999999965,-3.650000000000001,65535
54.80399999999997,-3.0020000000000016,65535
53.83199999999997,-2.354000000000002,65535
54.15599999999997,-0.4100000000000028,65535
54.47999999999997,-1.0580000000000025,65535
53.83199999999997,-0.4100000000000028,65535
53.183999999999976,-3.650000000000001,65535
53.183999999999976,-4.298000000000001,65535
52.85999999999998,-3.0020000000000016,65535
52.53599999999998,-3.0020000000000016,65535
51.887999999999984,-3.0020000000000016,65535
51.23999999999999,0.8859999999999966,65535
51.887999999999984,0.2379999999999968,65535
52.21199999999998,0.8859999999999966,65535
51.887999999999984,-4.946000000000001,65535
52.53599999999998,-3.650000000000001,65535
52.21199999999998,-4.298000000000001,65535
53.183999999999976,-0.4100000000000028,65535
51.23999999999999,-3.650000000000001,65535
51.887999999999984,-3.650000000000001,65535
52.21199999999998,-3.650000000000001,65535
51.56399999999999,0.8859999999999966,65535
51.887999999999984,0.8859999999999966,65535
52.85999999999998,0.8859999999999966,65535
53.50799999999997,-0.4100000000000028,65535
56.09999999999996,-4.298000000000001,65535
56.74799999999996,-4.946000000000001,65535
56.74799999999996,-4.298000000000001,65535
56.42399999999996,-4.946000000000001,65535
56.42399999999996,-4.298000000000001,65535
56.09999999999996,-4.946000000000001,65535
57.39599999999995,-4.298000000000001,65535
57.39599999999995,-3.0020000000000016,65535
57.39599999999995,-3.650000000000001,65535
56.42399999999996,-3.650000000000001,65535
57.07199999999995,-3.650000000000001,65535
57.07199999999995,-4.298000000000001,65535
56.74799999999996,-3.650000000000001,65535
59.15266399999986,27.34114399999998,65535
59.47666399999986,26.69314399999997,65535
59.47666399999986,26.04514399999998,65535
59.15266399999986,26.04514399999998,65535
59.15266399999986,24.74914399999998,65535
59.15266399999986,25.397143999999983,65535
59.47666399999986,25.397143999999983,65535
58.50466399999986,26.69314399999997,65535
58.82866399999986,26.69314399999997,65535
57.85666399999987,26.04514399999998,65535
58.180663999999865,26.04514399999998,65535
58.180663999999865,26.69314399999997,65535
58.82866399999986,26.04514399999998,65535
58.50466399999986,25.397143999999983,65535
58.82866399999986,25.397143999999983,65535
58.82866399999986,24.74914399999998,65535
58.180663999999865,27.34114399999998,65535
57.85666399999987,27.34114399999998,65535
63.68866399999983,27.34114399999998,7557
60.124663999999854,24.74914399999998,7093
60.44866399999985,24.74914399999998,7062
60.44866399999985,25.397143999999983,7074
60.77266399999985,25.397143999999983,7280
61.09666399999985,26.04514399999998,7322
60.77266399999985,26.04514399999998,7329
60.77266399999985,26.69314399999997,7348
61.09666399999985,25.397143999999983,7313
61.09666399999985,26.69314399999997,7678
61.420663999999846,26.69314399999997,7700
61.74466399999984,27.34114399999998,7724
62.06866399999984,27.34114399999998,7749
62.39266399999984,27.34114399999998,7773
62.71666399999984,27.34114399999998,7737
64.01266399999983,27.34114399999998,7905
63.36466399999984,27.34114399999998,7625
63.04066399999984,27.34114399999998,7665
63.04066399999984,27.989143999999985,7680
64.33666399999983,27.989143999999985,7952
64.33666399999983,27.34114399999998,8028
64.66066399999983,27.34114399999998,8044
64.66066399999983,26.69314399999997,8055
64.98466399999982,25.397143999999983,6439
64.66066399999983,26.04514399999998,8085
64.98466399999982,26.04514399999998,8107
66.28066399999982,25.397143999999983,6516
65.95666399999982,24.74914399999998,6352
65.63266399999982,24.74914399999998,6356
65.63266399999982,25.397143999999983,6398
65.30866399999982,25.397143999999983,6419
66.60466399999981,25.397143999999983,6576
64.01266399999983,24.74914399999998,6576
64.01266399999983,24.101143999999977,6611
64.01266399999983,23.45314399999998,6635
63.68866399999983,23.45314399999998,6647
63.68866399999983,22.805143999999984,6672
63.68866399999983,26.04514399999998,7264
63.68866399999983,25.397143999999983,7230
63.68866399999983,26.69314399999997,7524
60.44866399999985,26.69314399999997,7516
64.01266399999983,27.989143999999985,7943
62.71666399999984,22.805143999999984,6794
62.39266399999984,22.805143999999984,6826
62.06866399999984,22.805143999999984,6855
62.06866399999984,23.45314399999998,6871
61.74466399999984,23.45314399999998,6883
61.420663999999846,23.45314399999998,6931
61.09666399999985,23.45314399999998,6972
61.09666399999985,24.101143999999977,6979
61.09666399999985,24.74914399999998,7013
60.77266399999985,24.74914399999998,7029
63.04066399999984,21.50914399999997,65535
63.04066399999984,22.15714399999998,65535
63.04066399999984,22.805143999999984,6758
62.39266399999984,26.04514399999998,7921
62.06866399999984,25.397143999999983,7970
61.74466399999984,25.397143999999983,8038
61.74466399999984,24.74914399999998,8075
61.74466399999984,24.101143999999977,8110
61.420663999999846,24.101143999999977,7454
62.39266399999984,26.69314399999997,7892
64.66066399999983,25.397143999999983,6508
64.66066399999983,24.74914399999998,6526
64.33666399999983,24.74914399999998,6537
63.36466399999984,22.805143999999984,6697
67.25266399999981,24.101143999999977,8666
66.92866399999981,24.101143999999977,8630
66.60466399999981,23.45314399999998,8599
66.28066399999982,23.45314399999998,8581
66.28066399999982,24.101143999999977,8563
65.95666399999982,24.101143999999977,4479
60.124663999999854,24.101143999999977,7286
60.124663999999854,23.45314399999998,7323
60.44866399999985,22.805143999999984,65535
60.77266399999985,27.34114399999998,7406
61.09666399999985,27.989143999999985,7438
61.09666399999985,28.63714399999997,7484
61.420663999999846,29.28514399999997,9171
61.74466399999984,29.933143999999977,9229
62.06866399999984,29.933143999999977,9335
62.39266399999984,29.933143999999977,9373
62.71666399999984,29.933143999999977,9406
61.420663999999846,22.805143999999984,6967
61.420663999999846,22.15714399999998,7046
61.09666399999985,22.15714399999998,7034
61.420663999999846,21.50914399999997,7179
62.39266399999984,27.989143999999985,65535
62.06866399999984,27.989143999999985,65535
61.420663999999846,27.34114399999998,65535
63.04066399999984,29.933143999999977,65535
63.68866399999983,29.28514399999997,65535
63.36466399999984,29.28514399999997,65535
63.36466399999984,29.933143999999977,65535
60.44866399999985,27.34114399999998,65535
61.74466399999984,29.28514399999997,65535
62.39266399999984,30.58114399999998,65535
62.71666399999984,31.229143999999977,65535
62.71666399999984,29.28514399999997,65535
63.04066399999984,28.63714399999997,65535
66.60466399999981,26.04514399999998,6586
66.60466399999981,26.69314399999997,6622
66.60466399999981,27.34114399999998,6645
62.71666399999984,26.04514399999998,7806
62.71666399999984,25.397143999999983,7775
63.04066399999984,25.397143999999983,7595
63.36466399999984,25.397143999999983,7558
62.71666399999984,23.45314399999998,7800
62.39266399999984,24.101143999999977,65535
62.71666399999984,22.15714399999998,65535
62.39266399999984,22.15714399999998,65535
62.39266399999984,21.50914399999997,65535
61.09666399999985,21.50914399999997,8857
60.77266399999985,22.805143999999984,8283
60.44866399999985,22.15714399999998,8331
60.77266399999985,23.45314399999998,8265
60.77266399999985,21.50914399999997,8433
60.77266399999985,22.15714399999998,8386
60.124663999999854,22.805143999999984,8599
60.44866399999985,24.101143999999977,7272
62.06866399999984,24.74914399999998,65535
50.72866399999991,16.325143999999987,568
50.40466399999991,16.973143999999984,577
50.72866399999991,16.973143999999984,559
50.40466399999991,16.325143999999987,634
50.08066399999991,16.973143999999984,658
50.08066399999991,16.325143999999987,653
51.700663999999904,16.973143999999984,566
51.37666399999991,16.973143999999984,548
51.05266399999991,15.677143999999986,619
50.72866399999991,15.677143999999986,576
51.05266399999991,17.621143999999987,531
51.37666399999991,17.621143999999987,536
51.700663999999904,17.621143999999987,500
51.700663999999904,16.325143999999987,593
52.0246639999999,22.15714399999998,118
52.0246639999999,21.50914399999997,58
52.3486639999999,21.50914399999997,54
52.0246639999999,20.86114399999998,66
51.700663999999904,20.86114399999998,92
51.37666399999991,21.50914399999997,131
51.37666399999991,20.86114399999998,127
51.05266399999991,20.86114399999998,240
52.6726639999999,23.45314399999998,307
52.3486639999999,22.805143999999984,249
52.3486639999999,20.213143999999986,72
52.0246639999999,20.213143999999986,83
52.3486639999999,19.565143999999982,337
52.6726639999999,19.565143999999982,279
51.700663999999904,21.50914399999997,68
51.700663999999904,22.15714399999998,83
52.6726639999999,21.50914399999997,0
52.996663999999896,21.50914399999997,24
52.6726639999999,20.86114399999998,85
52.6726639999999,22.15714399999998,59
52.6726639999999,20.213143999999986,219
52.996663999999896,19.565143999999982,290
52.996663999999896,20.86114399999998,118
52.996663999999896,20.213143999999986,127
53.32066399999989,20.213143999999986,160
51.37666399999991,20.213143999999986,254
52.3486639999999,16.973143999999984,589
52.0246639999999,16.973143999999984,618
52.0246639999999,16.325143999999987,623
52.0246639999999,17.621143999999987,549
52.6726639999999,16.973143999999984,608
52.996663999999896,16.973143999999984,619
52.3486639999999,16.325143999999987,600
52.3486639999999,15.677143999999986,626
51.700663999999904,18.269143999999983,456
52.6726639999999,17.621143999999987,603
52.3486639999999,17.621143999999987,584
52.6726639999999,18.269143999999983,575
52.3486639999999,18.269143999999983,538
52.3486639999999,18.917143999999983,478
52.996663999999896,17.621143999999987,585
51.700663999999904,19.565143999999982,101
51.700663999999904,18.917143999999983,419
51.37666399999991,18.269143999999983,546
58.82866399999986,9.197143999999987,3248
58.180663999999865,7.90114399999999,3341
58.50466399999986,8.54914399999999,3292
63.36466399999984,10.493143999999988,3463
63.36466399999984,11.141143999999988,3470
63.36466399999984,11.789143999999988,3505
63.68866399999983,11.789143999999988,3533
64.33666399999983,12.437143999999988,3934
64.66066399999983,12.437143999999988,4429
65.63266399999982,13.085143999999987,4086
65.95666399999982,13.085143999999987,4121
66.28066399999982,14.381143999999988,4191
65.95666399999982,13.733143999999989,4260
66.28066399999982,13.733143999999989,4169
65.30866399999982,13.085143999999987,4387
64.98466399999982,13.085143999999987,4021
64.01266399999983,11.789143999999988,3564
63.68866399999983,11.141143999999988,3501
59.800663999999855,10.493143999999988,3044
59.800663999999855,11.141143999999988,3027
60.124663999999854,11.141143999999988,3042
60.44866399999985,11.141143999999988,3055
60.124663999999854,11.789143999999988,3068
60.77266399999985,7.25314399999999,3304
60.77266399999985,6.60514399999999,3350
59.15266399999986,9.197143999999987,3130
59.47666399999986,9.197143999999987,3151
59.800663999999855,9.845143999999989,3046
59.47666399999986,11.141143999999988,2991
61.09666399999985,10.493143999999988,3165
60.77266399999985,10.493143999999988,3135
60.77266399999985,11.141143999999988,3090
62.06866399999984,9.197143999999987,3490
61.74466399999984,9.845143999999989,3436
61.420663999999846,9.845143999999989,3413
59.15266399999986,9.845143999999989,3110
59.47666399999986,9.845143999999989,3086
58.82866399999986,5.957143999999991,3525
58.180663999999865,7.25314399999999,3397
58.50466399999986,7.25314399999999,3430
58.50466399999986,6.60514399999999,3435
58.50466399999986,5.957143999999991,3493
58.82866399999986,8.54914399999999,3278
60.44866399999985,7.25314399999999,3278
60.44866399999985,7.90114399999999,3239
60.124663999999854,10.493143999999988,3076
60.44866399999985,9.197143999999987,3188
60.77266399999985,9.197143999999987,3200
60.77266399999985,8.54914399999999,3219
60.124663999999854,9.845143999999989,3334
60.44866399999985,10.493143999999988,3121
63.04066399999984,10.493143999999988,3414
62.06866399999984,9.845143999999989,3515
62.39266399999984,9.845143999999989,3523
62.71666399999984,9.845143999999989,3547
59.47666399999986,14.381143999999988,2997
59.47666399999986,13.733143999999989,2981
59.47666399999986,13.085143999999987,2957
59.800663999999855,12.437143999999988,3026
59.15266399999986,11.141143999999988,2955
59.15266399999986,14.381143999999988,2981
58.82866399999986,11.789143999999988,2935
58.50466399999986,12.437143999999988,2865
58.180663999999865,12.437143999999988,2858
57.85666399999987,11.789143999999988,2809
62.71666399999984,7.90114399999999,3576
62.39266399999984,7.90114399999999,3533
62.06866399999984,8.54914399999999,3508
60.44866399999985,5.309143999999991,3424
60.44866399999985,5.957143999999991,3391
60.77266399999985,5.957143999999991,3380
62.39266399999984,11.141143999999988,3311
62.06866399999984,10.493143999999988,3266
61.74466399999984,11.141143999999988,3239
61.420663999999846,11.141143999999988,3193
61.09666399999985,11.141143999999988,3176
60.77266399999985,11.789143999999988,3153
63.04066399999984,11.141143999999988,3392
62.71666399999984,11.141143999999988,3335
62.39266399999984,10.493143999999988,3293
67.25266399999981,15.677143999999986,4310
67.25266399999981,15.029143999999986,4348
67.25266399999981,14.381143999999988,4376
66.92866399999981,15.029143999999986,4299
66.60466399999981,15.677143999999986,4277
64.01266399999983,11.141143999999988,3548
66.60466399999981,15.029143999999986,4340
54.29266399999989,18.269143999999983,536
54.616663999999886,17.621143999999987,554
53.96866399999989,18.269143999999983,547
43.92466399999995,1.4211439999999929,1638
44.24866399999995,0.7731439999999932,1650
44.572663999999946,0.1251439999999934,1628
46.84066399999993,1.4211439999999929,1603
44.572663999999946,1.4211439999999929,1705
44.24866399999995,1.4211439999999929,1670
45.54466399999994,1.4211439999999929,1719
46.516663999999935,1.4211439999999929,1660
42.30466399999996,2.717143999999992,1656
44.24866399999995,2.717143999999992,1754
44.572663999999946,2.717143999999992,1888
43.92466399999995,2.0691439999999925,1670
42.30466399999996,2.0691439999999925,1709
42.62866399999996,2.0691439999999925,1673
42.62866399999996,1.4211439999999929,1712
42.95266399999996,1.4211439999999929,1661
43.276663999999954,1.4211439999999929,1636
46.516663999999935,-1.170856000000006,1680
46.19266399999994,-1.170856000000006,1705
45.86866399999994,-0.5228560000000062,1681
45.54466399999994,-0.5228560000000062,1662
48.46066399999992,1.4211439999999929,1436
41.332663999999966,2.0691439999999925,1714
41.98066399999996,2.717143999999992,1673
48.46066399999992,-1.8188560000000056,1553
47.81266399999993,0.7731439999999932,1723
46.84066399999993,0.7731439999999932,1660
44.572663999999946,-1.170856000000006,1645
43.60066399999995,-1.170856000000006,1845
43.276663999999954,-1.8188560000000056,1935
43.276663999999954,0.1251439999999934,1850
42.95266399999996,0.1251439999999934,1827
43.276663999999954,-0.5228560000000062,1881
43.60066399999995,-0.5228560000000062,1870
47.81266399999993,-3.7628560000000046,1687
47.48866399999993,-2.4668560000000053,1664
47.81266399999993,-0.5228560000000062,1567
46.516663999999935,-1.8188560000000056,1708
48.136663999999925,-1.170856000000006,1585
47.48866399999993,-1.170856000000006,1616
45.22066399999994,8.54914399999999,1397
45.22066399999994,7.90114399999999,1415
46.19266399999994,-0.5228560000000062,1661
46.516663999999935,-0.5228560000000062,1643
48.78466399999992,-3.114856000000005,1624
50.72866399999991,2.0691439999999925,1380
50.40466399999991,2.0691439999999925,1398
40.36066399999997,-3.7628560000000046,1905
41.65666399999997,-1.170856000000006,1822
41.332663999999966,1.4211439999999929,1760
43.276663999999954,13.733143999999989,4390
42.95266399999996,13.733143999999989,4412
41.65666399999997,15.029143999999986,4496
40.68466399999997,17.621143999999987,4658
43.60066399999995,13.085143999999987,4383
41.65666399999997,12.437143999999988,3049
41.65666399999997,13.085143999999987,3068
41.98066399999996,13.085143999999987,3118
41.65666399999997,13.733143999999989,3120
41.332663999999966,13.733143999999989,3112
41.332663999999966,14.381143999999988,3269
41.00866399999997,14.381143999999988,3175
41.332663999999966,13.085143999999987,3094
41.00866399999997,15.029143999999986,3375
41.98066399999996,13.733143999999989,3317
42.30466399999996,14.381143999999988,3456
42.30466399999996,12.437143999999988,3057
42.62866399999996,12.437143999999988,3236
42.95266399999996,12.437143999999988,3521
42.30466399999996,11.789143999999988,3066
42.95266399999996,11.789143999999988,3276
42.62866399999996,11.789143999999988,3267
43.276663999999954,11.789143999999988,3330
42.95266399999996,13.085143999999987,4284
42.30466399999996,13.085143999999987,3343
43.276663999999954,13.085143999999987,4332
43.276663999999954,12.437143999999988,4339
42.62866399999996,11.141143999999988,3112
42.95266399999996,11.141143999999988,3155
42.95266399999996,10.493143999999988,3173
44.572663999999946,8.54914399999999,1444
44.89666399999994,7.90114399999999,1421
44.89666399999994,9.197143999999987,1452
44.24866399999995,7.90114399999999,1479
44.572663999999946,7.90114399999999,1436
43.92466399999995,7.90114399999999,1539
44.24866399999995,7.25314399999999,1476
44.89666399999994,7.25314399999999,1427
45.22066399999994,7.25314399999999,1427
45.54466399999994,7.90114399999999,1418
44.572663999999946,7.25314399999999,1462
52.996663999999896,22.805143999999984,408
52.996663999999896,23.45314399999998,431
51.37666399999991,22.15714399999998,115
51.37666399999991,22.805143999999984,170
50.08066399999991,20.213143999999986,506
50.72866399999991,20.213143999999986,272
50.40466399999991,20.213143999999986,313
50.08066399999991,20.86114399999998,534
50.08066399999991,21.50914399999997,476
50.08066399999991,22.15714399999998,473
50.08066399999991,22.805143999999984,481
53.96866399999989,22.805143999999984,867
53.64466399999989,23.45314399999998,538
53.32066399999989,23.45314399999998,484
50.40466399999991,19.565143999999982,413
50.08066399999991,18.917143999999983,450
50.08066399999991,18.269143999999983,490
52.0246639999999,22.805143999999984,304
52.0246639999999,23.45314399999998,340
51.37666399999991,19.565143999999982,533
51.05266399999991,19.565143999999982,570
50.72866399999991,18.917143999999983,553
50.72866399999991,19.565143999999982,577
49.75666399999992,18.917143999999983,552
50.40466399999991,18.269143999999983,465
53.64466399999989,19.565143999999982,511
53.96866399999989,18.917143999999983,535
53.64466399999989,18.917143999999983,549
53.64466399999989,20.213143999999986,486
52.996663999999896,18.917143999999983,520
52.996663999999896,18.269143999999983,557
53.32066399999989,18.917143999999983,536
50.72866399999991,17.621143999999987,510
50.72866399999991,18.269143999999983,493
52.6726639999999,16.325143999999987,633
52.996663999999896,16.325143999999987,679
52.996663999999896,15.677143999999986,750
53.32066399999989,15.677143999999986,751
53.32066399999989,15.029143999999986,805
53.64466399999989,15.029143999999986,877
53.96866399999989,15.029143999999986,1235
52.6726639999999,18.917143999999983,500
53.32066399999989,16.325143999999987,697
52.6726639999999,15.029143999999986,766
51.05266399999991,22.805143999999984,217
51.05266399999991,23.45314399999998,244
50.72866399999991,22.15714399999998,326
50.40466399999991,22.15714399999998,365
51.05266399999991,22.15714399999998,167
54.616663999999886,16.973143999999984,596
54.29266399999989,16.325143999999987,748
53.96866399999989,15.677143999999986,756
50.72866399999991,21.50914399999997,409
50.40466399999991,21.50914399999997,427
50.40466399999991,17.621143999999987,541
53.32066399999989,22.805143999999984,623
53.64466399999989,22.15714399999998,619
54.29266399999989,16.973143999999984,655
50.72866399999991,20.86114399999998,265
51.700663999999904,22.805143999999984,391
51.05266399999991,21.50914399999997,288
50.08066399999991,19.565143999999982,483
52.0246639999999,18.917143999999983,8488
52.0246639999999,19.565143999999982,8481
53.64466399999989,18.269143999999983,567
51.700663999999904,20.213143999999986,326
53.32066399999989,19.565143999999982,487
50.72866399999991,23.45314399999998,451
50.72866399999991,22.805143999999984,420
49.43266399999992,20.213143999999986,743
49.75666399999992,21.50914399999997,482
49.75666399999992,22.15714399999998,1302
49.43266399999992,22.15714399999998,1314
51.05266399999991,18.917143999999983,597
51.05266399999991,18.269143999999983,498
53.32066399999989,16.973143999999984,638
53.64466399999989,16.973143999999984,669
49.75666399999992,20.86114399999998,626
50.40466399999991,22.805143999999984,8570
53.64466399999989,16.325143999999987,709
53.96866399999989,20.86114399999998,523
54.29266399999989,20.86114399999998,568
53.96866399999989,21.50914399999997,589
53.64466399999989,15.677143999999986,928
53.96866399999989,20.213143999999986,601
53.96866399999989,19.565143999999982,564
54.29266399999989,19.565143999999982,574
53.96866399999989,16.325143999999987,722
53.64466399999989,17.621143999999987,573
53.96866399999989,22.15714399999998,662
53.64466399999989,21.50914399999997,564
53.64466399999989,20.86114399999998,517
52.6726639999999,15.677143999999986,748
51.05266399999991,20.213143999999986,262
54.940663999999884,24.101143999999977,3681
54.616663999999886,23.45314399999998,3625
54.29266399999989,23.45314399999998,3488
53.64466399999989,22.805143999999984,625
53.96866399999989,16.973143999999984,694
50.40466399999991,20.86114399999998,343
53.32066399999989,18.269143999999983,589
49.75666399999992,19.565143999999982,499
50.40466399999991,23.45314399999998,556
49.75666399999992,20.213143999999986,721
49.43266399999992,19.565143999999982,645
49.43266399999992,20.86114399999998,684
53.96866399999989,17.621143999999987,1323
42.30466399999996,-1.8188560000000056,8799
41.98066399999996,-1.8188560000000056,8782
41.65666399999997,0.7731439999999932,8786
42.62866399999996,-1.8188560000000056,8914
42.95266399999996,-1.8188560000000056,8943
42.62866399999996,-3.114856000000005,9037
42.95266399999996,-2.4668560000000053,9015
42.62866399999996,-7.650856000000003,9379
42.30466399999996,-7.650856000000003,9439
42.30466399999996,-8.946856000000002,9575
42.30466399999996,-8.298856000000002,9549
41.98066399999996,-8.298856000000002,9538
42.30466399999996,-7.002856000000003,9321
42.62866399999996,-6.354856000000003,9263
42.30466399999996,-6.354856000000003,9218
42.62866399999996,-5.706856000000004,8718
41.98066399999996,-4.410856000000004,8672
42.30466399999996,-3.7628560000000046,9063
40.03666399999997,-0.5228560000000062,8766
39.38866399999998,-0.5228560000000062,8814
41.00866399999997,0.7731439999999932,8914
40.68466399999997,0.7731439999999932,8946
40.36066399999997,0.1251439999999934,9024
39.712663999999975,-0.5228560000000062,8923
38.41666399999998,-0.5228560000000062,8935
39.06466399999998,-0.5228560000000062,9057
38.74066399999998,-1.170856000000006,8943
41.332663999999966,0.7731439999999932,8974
41.65666399999997,2.717143999999992,8574
41.65666399999997,2.0691439999999925,8597
41.332663999999966,0.1251439999999934,8932
41.332663999999966,-0.5228560000000062,8876
41.65666399999997,-4.410856000000004,8646
40.03666399999997,-2.4668560000000053,8884
41.00866399999997,-4.410856000000004,8767
43.276663999999954,-5.706856000000004,8848
39.38866399999998,-1.170856000000006,8909
38.09266399999999,-1.170856000000006,9322
38.74066399999998,-0.5228560000000062,9085
37.76866399999999,-1.170856000000006,9387
39.06466399999998,-1.8188560000000056,8907
39.38866399999998,-3.114856000000005,8807
39.38866399999998,-2.4668560000000053,8863
39.06466399999998,-2.4668560000000053,8890
39.06466399999998,-3.114856000000005,8811
39.06466399999998,-3.7628560000000046,8785
38.74066399999998,-3.7628560000000046,8864
40.03666399999997,-3.7628560000000046,8763
40.03666399999997,-3.114856000000005,8963
40.03666399999997,-1.8188560000000056,9044
39.712663999999975,-1.8188560000000056,9009
39.712663999999975,-1.170856000000006,8945
40.36066399999997,-1.170856000000006,8964
40.68466399999997,-1.170856000000006,8942
41.00866399999997,-1.170856000000006,8930
41.332663999999966,-1.170856000000006,8770
43.276663999999954,-8.298856000000002,9539
42.95266399999996,-8.298856000000002,9507
41.65666399999997,-5.706856000000004,65535
41.98066399999996,-7.002856000000003,65535
41.98066399999996,-6.354856000000003,65535
41.332663999999966,-5.058856000000004,8885
43.276663999999954,-3.7628560000000046,9320
42.95266399999996,-4.410856000000004,9254
42.62866399999996,-4.410856000000004,9244
42.30466399999996,-4.410856000000004,9203
41.00866399999997,-5.706856000000004,8823
41.332663999999966,-1.8188560000000056,8716
40.68466399999997,-3.114856000000005,8670
41.00866399999997,-3.114856000000005,8721
41.00866399999997,-2.4668560000000053,8744
41.332663999999966,-2.4668560000000053,8797
40.68466399999997,-4.410856000000004,8707
40.36066399999997,-4.410856000000004,8791
40.68466399999997,-3.7628560000000046,8699
40.36066399999997,-3.114856000000005,8677
41.65666399999997,-2.4668560000000053,8814
38.09266399999999,-3.7628560000000046,8911
38.74066399999998,-3.114856000000005,8855
37.76866399999999,-3.7628560000000046,8968
39.712663999999975,-3.114856000000005,8799
38.41666399999998,-3.7628560000000046,8876
40.03666399999997,-4.410856000000004,65535
40.03666399999997,-5.058856000000004,65535
39.38866399999998,-6.354856000000003,65535
39.38866399999998,-7.002856000000003,65535
42.95266399999996,-3.114856000000005,9448
41.98066399999996,-1.170856000000006,8811
42.30466399999996,-2.4668560000000053,8852
41.65666399999997,-0.5228560000000062,8909
41.98066399999996,-0.5228560000000062,8746
41.65666399999997,0.1251439999999934,8773
41.98066399999996,0.1251439999999934,8795
37.76866399999999,-5.058856000000004,8847
36.79666399999999,-4.410856000000004,8906
38.74066399999998,-4.410856000000004,8803
37.12066399999999,-4.410856000000004,8880
37.44466399999999,-5.058856000000004,9404
37.44466399999999,-7.002856000000003,65535
37.44466399999999,-6.354856000000003,65535
37.44466399999999,-5.706856000000004,9080
39.712663999999975,-3.7628560000000046,8873
42.62866399999996,-8.946856000000002,65535
42.30466399999996,-5.706856000000004,9225
42.30466399999996,-5.058856000000004,9310
42.95266399999996,-5.706856000000004,8750
41.00866399999997,-5.058856000000004,8791
40.68466399999997,-5.058856000000004,8765
41.65666399999997,-5.058856000000004,65535
41.65666399999997,-6.354856000000003,65535
36.79666399999999,-6.354856000000003,65535
37.12066399999999,-5.706856000000004,9248
37.76866399999999,-5.706856000000004,9047
38.09266399999999,-4.410856000000004,9182
37.12066399999999,-5.058856000000004,9202
36.79666399999999,-5.058856000000004,9160
37.76866399999999,-4.410856000000004,65535
37.76866399999999,-7.002856000000003,65535
38.41666399999998,-6.354856000000003,65535
38.09266399999999,-6.354856000000003,65535
48.78466399999992,1.4211439999999929,1561
56.23666399999988,8.54914399999999,7090
55.58866399999988,9.197143999999987,6895
55.91266399999988,9.197143999999987,7036
55.26466399999988,10.493143999999988,2514
55.91266399999988,12.437143999999988,2649
55.58866399999988,11.789143999999988,6735
55.58866399999988,11.141143999999988,6776
55.26466399999988,11.789143999999988,6768
55.58866399999988,10.493143999999988,6891
55.58866399999988,13.085143999999987,2606
56.88466399999987,9.845143999999989,7042
57.20866399999987,9.845143999999989,7077
56.56066399999988,9.845143999999989,7014
56.88466399999987,8.54914399999999,7129
54.940663999999884,9.845143999999989,8236
54.940663999999884,11.789143999999988,6992
55.91266399999988,13.085143999999987,2664
56.23666399999988,13.733143999999989,2708
55.91266399999988,13.733143999999989,2711
56.23666399999988,14.381143999999988,2731
56.23666399999988,15.029143999999986,2772
56.23666399999988,15.677143999999986,2827
56.56066399999988,14.381143999999988,2788
56.88466399999987,14.381143999999988,2758
56.23666399999988,13.085143999999987,2656
56.56066399999988,13.085143999999987,2736
56.88466399999987,12.437143999999988,2773
57.20866399999987,12.437143999999988,2789
57.53266399999987,12.437143999999988,2804
56.88466399999987,15.029143999999986,2784
56.56066399999988,15.677143999999986,2844
56.88466399999987,15.677143999999986,2863
56.88466399999987,16.325143999999987,2878
55.91266399999988,11.789143999999988,7061
57.20866399999987,10.493143999999988,7264
49.43266399999992,1.4211439999999929,1503
49.75666399999992,0.7731439999999932,1542
49.75666399999992,2.0691439999999925,1442
50.08066399999991,2.717143999999992,1429
49.75666399999992,1.4211439999999929,1520
47.81266399999993,1.4211439999999929,1494
48.136663999999925,2.0691439999999925,1989
48.46066399999992,2.0691439999999925,1496
48.136663999999925,1.4211439999999929,1466
48.78466399999992,0.1251439999999934,1634
48.46066399999992,0.1251439999999934,1589
47.81266399999993,0.1251439999999934,1597
46.84066399999993,-0.5228560000000062,1602
47.16466399999993,0.7731439999999932,1549
46.84066399999993,0.1251439999999934,1727
46.84066399999993,-1.170856000000006,1652
50.08066399999991,1.4211439999999929,1417
50.08066399999991,2.0691439999999925,1433
49.43266399999992,2.717143999999992,1452
49.75666399999992,3.365143999999992,1450
50.08066399999991,3.365143999999992,1402
49.10866399999992,2.0691439999999925,1501
49.43266399999992,2.0691439999999925,1446
48.78466399999992,0.7731439999999932,1622
48.78466399999992,-0.5228560000000062,1761
48.78466399999992,-1.170856000000006,1710
48.136663999999925,0.7731439999999932,1549
48.46066399999992,0.7731439999999932,1500
43.92466399999995,5.957143999999991,1507
44.24866399999995,5.957143999999991,1545
43.92466399999995,5.309143999999991,1452
42.95266399999996,2.717143999999992,1577
45.54466399999994,2.0691439999999925,1846
45.22066399999994,2.0691439999999925,1793
42.95266399999996,2.0691439999999925,1609
42.95266399999996,0.7731439999999932,1778
43.276663999999954,0.7731439999999932,1707
46.19266399999994,0.7731439999999932,1732
46.516663999999935,0.7731439999999932,1689
45.86866399999994,0.1251439999999934,1745
46.19266399999994,0.1251439999999934,1749
47.81266399999993,-1.170856000000006,1803
48.136663999999925,-2.4668560000000053,1727
47.48866399999993,-1.8188560000000056,1647
47.16466399999993,-1.170856000000006,1629
47.16466399999993,-0.5228560000000062,1611
46.84066399999993,-1.8188560000000056,1676
45.22066399999994,-0.5228560000000062,1668
44.89666399999994,0.1251439999999934,1634
45.22066399999994,0.7731439999999932,1657
45.54466399999994,0.7731439999999932,1685
45.86866399999994,0.7731439999999932,1722
45.22066399999994,0.1251439999999934,1667
44.89666399999994,0.7731439999999932,1674
43.92466399999995,-0.5228560000000062,1776
43.92466399999995,-1.170856000000006,1756
44.24866399999995,-1.170856000000006,1710
45.22066399999994,-1.170856000000006,1698
44.572663999999946,-0.5228560000000062,1603
44.24866399999995,0.1251439999999934,1650
44.572663999999946,0.7731439999999932,1757
43.276663999999954,-1.170856000000006,1912
42.95266399999996,-0.5228560000000062,1893
44.24866399999995,2.0691439999999925,1737
43.60066399999995,0.7731439999999932,1724
43.60066399999995,2.0691439999999925,1695
52.6726639999999,4.661143999999991,7081
52.6726639999999,5.309143999999991,7104
51.700663999999904,5.309143999999991,7049
52.0246639999999,5.309143999999991,7061
52.3486639999999,5.309143999999991,7077
51.37666399999991,4.013143999999992,7057
52.3486639999999,5.957143999999991,7071
52.0246639999999,6.60514399999999,7101
52.6726639999999,5.957143999999991,7088
52.996663999999896,5.957143999999991,7101
53.32066399999989,5.957143999999991,7095
52.996663999999896,6.60514399999999,7077
53.32066399999989,6.60514399999999,7069
52.6726639999999,6.60514399999999,7097
52.996663999999896,5.309143999999991,7116
59.15266399999986,24.101143999999977,65535
56.88466399999987,24.101143999999977,65535
56.88466399999987,23.45314399999998,65535
56.88466399999987,22.805143999999984,65535
57.20866399999987,24.74914399999998,65535
56.88466399999987,24.74914399999998,65535
56.56066399999988,24.74914399999998,65535
56.56066399999988,25.397143999999983,65535
56.56066399999988,24.101143999999977,65535
56.56066399999988,23.45314399999998,65535
56.56066399999988,26.04514399999998,65535
56.88466399999987,26.04514399999998,65535
57.20866399999987,25.397143999999983,65535
57.53266399999987,25.397143999999983,65535
56.23666399999988,26.04514399999998,65535
56.23666399999988,26.69314399999997,65535
55.91266399999988,26.69314399999997,65535
56.56066399999988,26.69314399999997,65535
56.56066399999988,27.34114399999998,65535
56.56066399999988,27.989143999999985,65535
56.23666399999988,27.989143999999985,65535
55.91266399999988,27.34114399999998,65535
56.56066399999988,22.805143999999984,65535
56.56066399999988,22.15714399999998,65535
56.56066399999988,21.50914399999997,65535
57.20866399999987,26.69314399999997,65535
39.06466399999998,-8.946856000000002,65535
38.41666399999998,-8.298856000000002,65535
45.86866399999994,11.789143999999988,2068
46.19266399999994,11.789143999999988,2055
46.19266399999994,10.493143999999988,2095
45.22066399999994,18.269143999999983,1932
45.22066399999994,18.917143999999983,1973
45.54466399999994,16.973143999999984,1759
45.22066399999994,17.621143999999987,1876
45.86866399999994,16.325143999999987,1628
45.54466399999994,18.917143999999983,1973
45.54466399999994,16.325143999999987,1654
45.54466399999994,18.269143999999983,1880
44.89666399999994,18.917143999999983,2170
46.19266399999994,16.973143999999984,1719
46.19266399999994,16.325143999999987,1685
45.86866399999994,16.973143999999984,1678
45.86866399999994,17.621143999999987,1721
46.19266399999994,15.677143999999986,1593
46.516663999999935,16.325143999999987,1658
45.54466399999994,15.677143999999986,1677
45.22066399999994,15.029143999999986,1659
45.54466399999994,15.029143999999986,1641
45.22066399999994,15.677143999999986,1724
44.572663999999946,15.677143999999986,2059
44.24866399999995,15.677143999999986,2080
43.92466399999995,16.325143999999987,2144
44.89666399999994,15.677143999999986,2023
45.54466399999994,17.621143999999987,1846
45.22066399999994,16.325143999999987,1713
46.516663999999935,16.973143999999984,1788
45.86866399999994,18.269143999999983,2080
43.92466399999995,15.677143999999986,2246
45.22066399999994,13.733143999999989,1776
47.48866399999993,19.565143999999982,1247
47.16466399999993,18.917143999999983,1218
47.81266399999993,18.917143999999983,946
45.54466399999994,9.845143999999989,1399
45.22066399999994,9.845143999999989,1412
45.22066399999994,10.493143999999988,1458
45.86866399999994,9.845143999999989,1413
45.86866399999994,10.493143999999988,2838
48.78466399999992,21.50914399999997,1265
49.10866399999992,20.213143999999986,889
49.10866399999992,18.917143999999983,606
48.46066399999992,17.621143999999987,749
49.43266399999992,17.621143999999987,690
49.10866399999992,17.621143999999987,1312
48.136663999999925,18.269143999999983,756
49.10866399999992,18.269143999999983,687
49.43266399999992,18.269143999999983,618
49.43266399999992,16.973143999999984,721
49.75666399999992,16.973143999999984,733
49.75666399999992,16.325143999999987,767
50.08066399999991,15.677143999999986,703
50.08066399999991,15.029143999999986,701
49.43266399999992,18.917143999999983,587
47.81266399999993,20.86114399999998,1435
48.136663999999925,20.86114399999998,1380
48.46066399999992,20.86114399999998,1284
48.46066399999992,21.50914399999997,1280
49.10866399999992,19.565143999999982,627
48.136663999999925,17.621143999999987,766
48.78466399999992,22.15714399999998,1390
48.78466399999992,20.86114399999998,1439
49.10866399999992,20.86114399999998,927
48.78466399999992,18.269143999999983,730
48.78466399999992,17.621143999999987,797
49.10866399999992,21.50914399999997,1246
48.78466399999992,20.213143999999986,1305
48.46066399999992,20.213143999999986,1246
48.136663999999925,19.565143999999982,1218
48.46066399999992,19.565143999999982,1180
48.46066399999992,18.917143999999983,829
48.46066399999992,18.269143999999983,743
48.78466399999992,19.565143999999982,889
48.78466399999992,18.917143999999983,808
47.81266399999993,18.269143999999983,787
49.10866399999992,22.15714399999998,1340
49.43266399999992,21.50914399999997,1294
48.136663999999925,18.917143999999983,1211
48.136663999999925,20.213143999999986,1267
52.636,-8.018,65535
52.312,-7.370000000000001,65535
52.312,-8.018,65535
52.636,-8.666,65535
51.988,-8.666,65535
51.988,-8.018,65535
52.96,-8.666,65535
52.96,-6.074000000000002,65535
53.28399999999999,-6.722000000000001,65535
53.60799999999999,-6.722000000000001,65535
53.60799999999999,-7.370000000000001,65535
53.60799999999999,-8.018,65535
54.25599999999999,-8.666,65535
53.93199999999999,-8.666,65535
53.93199999999999,-8.018,65535
52.312,-6.722000000000001,65535
52.636,-6.722000000000001,65535
53.93199999999999,-6.722000000000001,65535
54.25599999999999,-6.074000000000002,65535
53.28399999999999,-7.370000000000001,65535
52.96,-7.370000000000001,65535
52.312,-8.666,65535
52.96,-8.018,65535
52.636,-7.370000000000001,65535
52.96,-6.722000000000001,65535
51.988,-9.314,65535
52.312,-9.314,65535
54.579999999999984,-6.722000000000001,65535
54.579999999999984,-6.074000000000002,65535
53.28399999999999,-8.018,65535
53.28399999999999,-8.666,65535
53.28399999999999,-9.314,65535
53.93199999999999,-9.314,65535
54.25599999999999,-9.314,65535
53.60799999999999,-8.666,65535
53.60799999999999,-9.314,65535
49.43266399999992,14.381143999999988,755
49.75666399999992,14.381143999999988,708
49.75666399999992,15.029143999999986,706
49.75666399999992,13.733143999999989,717
50.08066399999991,13.733143999999989,709
49.75666399999992,15.677143999999986,719
50.40466399999991,15.029143999999986,696
49.43266399999992,13.733143999999989,727
50.40466399999991,15.677143999999986,707
50.40466399999991,13.733143999999989,762
46.19266399999994,15.029143999999986,1573
45.86866399999994,15.029143999999986,1632
45.86866399999994,14.381143999999988,1610
46.19266399999994,13.733143999999989,1665
45.86866399999994,13.733143999999989,1741
58.50466399999986,13.733143999999989,2900
58.180663999999865,13.733143999999989,2886
58.180663999999865,13.085143999999987,2858
57.85666399999987,12.437143999999988,2822
60.44866399999985,15.677143999999986,3107
60.124663999999854,15.677143999999986,3041
60.124663999999854,16.325143999999987,3079
59.800663999999855,16.325143999999987,3007
59.800663999999855,17.621143999999987,2986
59.47666399999986,18.269143999999983,2968
61.74466399999984,16.973143999999984,3118
61.420663999999846,16.973143999999984,3091
60.77266399999985,16.973143999999984,3043
65.63266399999982,22.15714399999998,4222
65.95666399999982,21.50914399999997,4182
65.63266399999982,20.86114399999998,4153
64.98466399999982,20.213143999999986,4085
64.66066399999983,20.213143999999986,4063
64.33666399999983,19.565143999999982,3757
64.01266399999983,19.565143999999982,3470
63.68866399999983,20.213143999999986,3423
64.66066399999983,18.917143999999983,6134
59.15266399999986,16.325143999999987,2943
59.15266399999986,15.029143999999986,2947
59.15266399999986,17.621143999999987,2960
57.53266399999987,14.381143999999988,2784
57.53266399999987,15.029143999999986,2804
61.09666399999985,14.381143999999988,3211
60.77266399999985,15.029143999999986,3162
60.44866399999985,15.029143999999986,3148
58.180663999999865,15.029143999999986,2861
58.50466399999986,16.325143999999987,2895
58.50466399999986,15.677143999999986,2868
63.36466399999984,13.085143999999987,3455
63.04066399999984,14.381143999999988,3392
62.39266399999984,15.677143999999986,3314
63.36466399999984,13.733143999999989,3437
63.36466399999984,14.381143999999988,3409
62.71666399999984,15.677143999999986,3342
62.39266399999984,17.621143999999987,3176
59.800663999999855,15.677143999999986,3229
55.58866399999988,13.733143999999989,2738
57.20866399999987,14.381143999999988,2768
57.85666399999987,14.381143999999988,2816
58.82866399999986,16.973143999999984,2952
58.82866399999986,16.325143999999987,2930
59.15266399999986,18.269143999999983,2964
60.44866399999985,17.621143999999987,3019
59.15266399999986,12.437143999999988,2923
59.15266399999986,13.085143999999987,2937
58.82866399999986,12.437143999999988,2899
59.47666399999986,16.325143999999987,2989
58.82866399999986,14.381143999999988,2976
59.47666399999986,15.677143999999986,3007
63.36466399999984,18.917143999999983,3376
63.04066399999984,17.621143999999987,3331
62.71666399999984,17.621143999999987,3305
63.68866399999983,19.565143999999982,3409
62.39266399999984,16.973143999999984,3220
59.800663999999855,16.973143999999984,2995
59.47666399999986,17.621143999999987,2972
57.85666399999987,13.085143999999987,2848
57.53266399999987,13.085143999999987,2829
58.50466399999986,11.789143999999988,2870
57.85666399999987,15.029143999999986,2850
57.20866399999987,13.733143999999989,2774
57.53266399999987,13.733143999999989,2835
61.74466399999984,16.325143999999987,3214
61.420663999999846,16.325143999999987,3181
61.09666399999985,16.325143999999987,3170
61.09666399999985,16.973143999999984,3138
60.124663999999854,15.029143999999986,3316
66.60466399999981,20.86114399999998,4257
67.25266399999981,20.86114399999998,4325
67.90066399999981,20.213143999999986,4395
67.57666399999981,20.213143999999986,5020
59.800663999999855,15.029143999999986,3036
58.50466399999986,15.029143999999986,2878
59.47666399999986,15.029143999999986,3021
60.44866399999985,16.325143999999987,3107
59.15266399999986,15.677143999999986,2965
57.85666399999987,13.733143999999989,2876
58.82866399999986,13.733143999999989,2923
58.50466399999986,13.085143999999987,2908
57.20866399999987,13.085143999999987,2805
56.88466399999987,13.085143999999987,2779
58.180663999999865,11.789143999999988,2841
62.06866399999984,16.973143999999984,3209
65.95666399999982,23.45314399999998,4457
59.800663999999855,14.381143999999988,5891
59.800663999999855,18.269143999999983,2977
63.04066399999984,15.029143999999986,3360
62.71666399999984,15.029143999999986,3350
62.39266399999984,16.325143999999987,3283
63.36466399999984,12.437143999999988,3488
68.5486639999998,17.621143999999987,4608
68.5486639999998,18.269143999999983,4541
68.5486639999998,18.917143999999983,4518
68.2246639999998,18.917143999999983,4474
59.800663999999855,13.085143999999987,3040
60.124663999999854,13.085143999999987,3079
59.47666399999986,16.973143999999984,2981
59.15266399999986,16.973143999999984,2973
56.56066399999988,13.733143999999989,2726
60.124663999999854,17.621143999999987,2996
57.85666399999987,16.325143999999987,2955
58.180663999999865,16.325143999999987,2917
58.180663999999865,15.677143999999986,2925
57.20866399999987,16.325143999999987,2967
57.53266399999987,15.677143999999986,2985
57.85666399999987,15.677143999999986,2956
44.89666399999994,23.45314399999998,2965
44.572663999999946,23.45314399999998,3035
44.89666399999994,24.74914399999998,2952
44.572663999999946,24.74914399999998,3071
44.572663999999946,24.101143999999977,3012
44.24866399999995,24.101143999999977,3041
47.48866399999993,25.397143999999983,2813
47.48866399999993,24.74914399999998,2753
47.16466399999993,24.74914399999998,2675
47.16466399999993,24.101143999999977,2577
47.48866399999993,22.15714399999998,2707
47.81266399999993,22.15714399999998,2793
47.16466399999993,22.15714399999998,2686
47.16466399999993,23.45314399999998,2738
47.16466399999993,22.805143999999984,2744
46.84066399999993,24.101143999999977,2658
45.86866399999994,27.34114399999998,2998
45.54466399999994,27.34114399999998,2979
45.54466399999994,27.989143999999985,3095
45.86866399999994,20.86114399999998,2870
45.86866399999994,21.50914399999997,2878
46.19266399999994,21.50914399999997,2814
46.19266399999994,27.34114399999998,2998
46.19266399999994,26.69314399999997,2989
46.516663999999935,26.69314399999997,2951
46.516663999999935,26.04514399999998,2847
47.48866399999993,22.805143999999984,2805
46.84066399999993,22.805143999999984,2618
45.54466399999994,22.15714399999998,2927
45.22066399999994,22.15714399999998,3005
44.89666399999994,22.15714399999998,3423
47.48866399999993,23.45314399999998,2771
46.516663999999935,24.101143999999977,2497
46.516663999999935,24.74914399999998,2711
45.86866399999994,24.101143999999977,2660
47.16466399999993,26.69314399999997,3029
47.16466399999993,27.34114399999998,3084
43.92466399999995,25.397143999999983,3043
44.24866399999995,24.74914399999998,2950
44.89666399999994,26.04514399999998,2837
44.89666399999994,26.69314399999997,2884
45.22066399999994,26.69314399999997,2919
45.22066399999994,27.34114399999998,2946
46.84066399999993,26.69314399999997,2990
47.48866399999993,26.69314399999997,2983
44.24866399999995,25.397143999999983,2882
43.92466399999995,26.04514399999998,3059
46.19266399999994,24.101143999999977,2705
44.572663999999946,25.397143999999983,2920
46.84066399999993,24.74914399999998,2718
46.516663999999935,21.50914399999997,2818
46.84066399999993,21.50914399999997,2825
44.572663999999946,26.69314399999997,2875
44.572663999999946,27.34114399999998,2896
44.89666399999994,27.34114399999998,3011
44.572663999999946,27.989143999999985,2916
44.24866399999995,27.989143999999985,2930
44.572663999999946,28.63714399999997,2981
45.86866399999994,22.15714399999998,2739
45.86866399999994,22.805143999999984,2633
44.24866399999995,23.45314399999998,3068
43.92466399999995,27.989143999999985,65535
46.84066399999993,27.34114399999998,3151
45.22066399999994,23.45314399999998,2940
45.54466399999994,23.45314399999998,2743
45.54466399999994,24.101143999999977,2690
45.22066399999994,24.101143999999977,2914
44.89666399999994,24.101143999999977,2984
46.19266399999994,22.15714399999998,2870
46.516663999999935,22.15714399999998,2836
45.22066399999994,21.50914399999997,3110
45.54466399999994,21.50914399999997,2958
45.54466399999994,20.86114399999998,2982
46.516663999999935,27.989143999999985,3101
46.19266399999994,27.989143999999985,3086
45.54466399999994,25.397143999999983,2804
45.22066399999994,25.397143999999983,2814
45.22066399999994,26.04514399999998,2870
47.81266399999993,24.101143999999977,2866
47.48866399999993,26.04514399999998,2956
47.81266399999993,26.04514399999998,2978
46.19266399999994,23.45314399999998,2537
45.86866399999994,23.45314399999998,2586
44.24866399999995,26.04514399999998,2864
45.22066399999994,27.989143999999985,3076
45.86866399999994,24.74914399999998,2699
46.516663999999935,25.397143999999983,2891
46.84066399999993,25.397143999999983,2774
46.19266399999994,26.04514399999998,2862
45.86866399999994,26.04514399999998,2827
43.92466399999995,23.45314399999998,3298
44.89666399999994,25.397143999999983,2925
46.19266399999994,20.86114399999998,2859
47.81266399999993,25.397143999999983,2990
44.572663999999946,22.805143999999984,3303
44.572663999999946,22.15714399999998,3445
46.516663999999935,23.45314399999998,2676
45.86866399999994,25.397143999999983,2753
44.24866399999995,27.34114399999998,3691
45.22066399999994,24.74914399999998,3016
45.54466399999994,22.805143999999984,2706
45.22066399999994,28.63714399999997,3136
44.89666399999994,28.63714399999997,3075
47.81266399999993,23.45314399999998,2923
46.19266399999994,24.74914399999998,2785
46.19266399999994,25.397143999999983,2809
43.92466399999995,24.101143999999977,3261
43.92466399999995,24.74914399999998,3274
47.81266399999993,26.69314399999997,3205
47.48866399999993,24.101143999999977,2798
46.84066399999993,26.04514399999998,3606
46.19266399999994,22.805143999999984,2930
47.48866399999993,27.34114399999998,3158
46.19266399999994,20.213143999999986,65535
45.54466399999994,26.04514399999998,2962
44.24866399999995,26.69314399999997,2880
45.86866399999994,27.989143999999985,3134
47.81266399999993,5.957143999999991,7066
