51.56399999999999,-0.4100000000000028,65535
51.887999999999984,-0.4100000000000028,65535
50.91599999999999,-1.7060000000000022,65535
51.23999999999999,-1.0580000000000025,65535
51.56399999999999,-1.0580000000000025,65535
51.23999999999999,-1.7060000000000022,65535
51.56399999999999,0.2379999999999968,65535
47.16466399999993,9.845143999999989,921
47.48866399999993,9.845143999999989,893
48.136663999999925,14.381143999999988,984
47.81266399999993,13.085143999999987,849
47.16466399999993,11.141143999999988,978
47.48866399999993,11.789143999999988,917
48.136663999999925,16.325143999999987,694
47.48866399999993,12.437143999999988,838
48.136663999999925,15.677143999999986,755
47.16466399999993,10.493143999999988,943
47.16466399999993,9.197143999999987,890
48.136663999999925,13.733143999999989,976
48.136663999999925,15.029143999999986,981
47.81266399999993,16.973143999999984,835
48.46066399999992,14.381143999999988,1384
47.48866399999993,13.085143999999987,840
47.16466399999993,13.085143999999987,879
47.48866399999993,14.381143999999988,1343
47.48866399999993,13.733143999999989,1404
47.48866399999993,15.029143999999986,1292
46.516663999999935,13.733143999999989,1574
46.84066399999993,13.733143999999989,1600
46.84066399999993,13.085143999999987,1605
48.78466399999992,14.381143999999988,65535
47.16466399999993,15.677143999999986,1304
46.516663999999935,14.381143999999988,1554
46.84066399999993,14.381143999999988,1495
47.16466399999993,14.381143999999988,1445
46.516663999999935,15.029143999999986,1567
47.81266399999993,16.325143999999987,712
47.16466399999993,15.029143999999986,1273
47.81266399999993,15.677143999999986,958
47.48866399999993,15.677143999999986,1244
46.516663999999935,13.085143999999987,1934
46.84066399999993,12.437143999999988,1619
48.136663999999925,11.789143999999988,790
47.81266399999993,12.437143999999988,806
46.84066399999993,15.677143999999986,1381
46.516663999999935,15.677143999999986,1621
46.84066399999993,16.325143999999987,1403
47.81266399999993,14.381143999999988,1315
48.78466399999992,16.973143999999984,758
48.136663999999925,16.973143999999984,689
48.46066399999992,13.733143999999989,817
47.81266399999993,13.733143999999989,1331
50.08066399999991,8.54914399999999,754
48.46066399999992,9.845143999999989,805
51.05266399999991,7.25314399999999,719
51.37666399999991,7.25314399999999,711
51.37666399999991,6.60514399999999,713
48.46066399999992,16.325143999999987,708
48.46066399999992,16.973143999999984,729
48.78466399999992,16.325143999999987,711
48.46066399999992,15.677143999999986,720
48.78466399999992,15.677143999999986,757
47.48866399999993,16.325143999999987,1029
47.16466399999993,16.325143999999987,1326
46.19266399999994,14.381143999999988,1566
45.86866399999994,15.677143999999986,1603
43.60066399999995,16.325143999999987,2200
45.54466399999994,14.381143999999988,1679
45.54466399999994,13.733143999999989,1701
48.136663999999925,13.085143999999987,846
48.46066399999992,11.141143999999988,776
48.136663999999925,11.141143999999988,793
48.46066399999992,7.90114399999999,820
49.10866399999992,8.54914399999999,783
48.78466399999992,2.0691439999999925,890
49.10866399999992,7.25314399999999,858
52.0246639999999,7.90114399999999,735
47.16466399999993,11.789143999999988,961
49.43266399999992,11.141143999999988,688
53.64466399999989,9.845143999999989,719
50.72866399999991,4.013143999999992,772
51.05266399999991,11.141143999999988,602
47.48866399999993,11.141143999999988,813
46.84066399999993,11.789143999999988,2102
46.516663999999935,11.141143999999988,2071
45.54466399999994,11.141143999999988,1965
46.19266399999994,11.141143999999988,2037
45.86866399999994,11.141143999999988,2021
44.572663999999946,11.141143999999988,1812
43.92466399999995,12.437143999999988,4445
45.54466399999994,12.437143999999988,2052
45.54466399999994,11.789143999999988,2015
48.78466399999992,15.029143999999986,852
47.81266399999993,15.029143999999986,1285
47.81266399999993,11.141143999999988,806
50.40466399999991,18.917143999999983,292
52.3486639999999,20.86114399999998,259
54.616663999999886,18.269143999999983,543
54.29266399999989,18.917143999999983,528
49.10866399999992,14.381143999999988,65535
50.08066399999991,14.381143999999988,582
48.78466399999992,13.733143999999989,2216
52.6726639999999,13.085143999999987,574
52.3486639999999,13.085143999999987,573
53.96866399999989,12.437143999999988,756
54.29266399999989,12.437143999999988,757
47.48866399999993,8.54914399999999,874
47.81266399999993,17.621143999999987,689
47.48866399999993,18.917143999999983,680
47.48866399999993,20.86114399999998,841
46.84066399999993,23.45314399999998,2398
44.572663999999946,26.04514399999998,2847
47.48866399999993,21.50914399999997,875
47.81266399999993,21.50914399999997,908
48.46066399999992,22.15714399999998,514
47.48866399999993,16.973143999999984,65535
49.10866399999992,16.325143999999987,727
49.75666399999992,18.269143999999983,501
46.19266399999994,13.085143999999987,1650
41.98066399999996,12.437143999999988,3045
43.60066399999995,10.493143999999988,3206
45.54466399999994,9.197143999999987,1290
47.81266399999993,22.805143999999984,2813
49.75666399999992,22.805143999999984,176
50.72866399999991,3.365143999999992,781
51.05266399999991,4.013143999999992,774
50.72866399999991,4.661143999999991,769
51.05266399999991,4.661143999999991,772
51.05266399999991,3.365143999999992,784
51.05266399999991,2.717143999999992,808
50.40466399999991,4.661143999999991,778
50.72866399999991,2.717143999999992,794
50.40466399999991,4.013143999999992,778
51.05266399999991,5.309143999999991,774
50.72866399999991,5.309143999999991,753
51.37666399999991,3.365143999999992,816
51.37666399999991,4.661143999999991,782
50.72866399999991,5.957143999999991,729
50.40466399999991,5.957143999999991,732
50.40466399999991,3.365143999999992,783
50.40466399999991,5.309143999999991,752
50.08066399999991,5.309143999999991,799
49.75666399999992,5.309143999999991,797
49.75666399999992,5.957143999999991,764
51.37666399999991,5.309143999999991,807
51.700663999999904,4.661143999999991,818
50.08066399999991,4.013143999999992,803
50.08066399999991,5.957143999999991,741
50.08066399999991,4.661143999999991,835
49.43266399999992,5.309143999999991,795
49.43266399999992,5.957143999999991,778
52.0246639999999,4.661143999999991,890
52.3486639999999,4.661143999999991,919
50.72866399999991,15.029143999999986,550
51.05266399999991,15.029143999999986,517
51.05266399999991,13.733143999999989,536
50.40466399999991,13.085143999999987,588
49.10866399999992,7.90114399999999,789
48.78466399999992,7.90114399999999,803
50.40466399999991,7.90114399999999,751
50.08066399999991,7.90114399999999,759
49.75666399999992,7.90114399999999,773
49.43266399999992,7.90114399999999,774
49.75666399999992,8.54914399999999,759
49.43266399999992,8.54914399999999,761
49.43266399999992,9.197143999999987,769
49.10866399999992,9.197143999999987,783
47.48866399999993,7.90114399999999,879
47.81266399999993,7.90114399999999,878
48.136663999999925,7.90114399999999,843
48.136663999999925,9.845143999999989,824
47.81266399999993,9.197143999999987,893
47.81266399999993,8.54914399999999,863
47.81266399999993,9.845143999999989,833
54.940663999999884,9.197143999999987,803
54.616663999999886,9.197143999999987,780
54.29266399999989,9.197143999999987,777
53.96866399999989,9.197143999999987,745
53.64466399999989,9.197143999999987,731
54.616663999999886,9.845143999999989,772
54.29266399999989,9.845143999999989,761
53.96866399999989,9.845143999999989,738
53.64466399999989,10.493143999999988,722
53.96866399999989,10.493143999999988,764
53.96866399999989,11.141143999999988,791
54.29266399999989,10.493143999999988,778
53.32066399999989,10.493143999999988,695
54.940663999999884,11.141143999999988,889
52.6726639999999,13.733143999999989,571
52.3486639999999,13.733143999999989,569
52.3486639999999,14.381143999999988,580
52.0246639999999,14.381143999999988,567
52.0246639999999,11.789143999999988,603
52.3486639999999,11.789143999999988,618
52.3486639999999,12.437143999999988,600
52.0246639999999,15.029143999999986,570
51.700663999999904,14.381143999999988,559
52.0246639999999,13.733143999999989,558
51.700663999999904,13.733143999999989,554
52.6726639999999,12.437143999999988,608
53.32066399999989,11.789143999999988,669
53.96866399999989,11.789143999999988,748
53.64466399999989,11.789143999999988,724
53.64466399999989,11.141143999999988,702
53.32066399999989,11.141143999999988,693
52.996663999999896,11.789143999999988,632
52.996663999999896,12.437143999999988,624
52.996663999999896,13.733143999999989,606
53.64466399999989,13.733143999999989,697
53.96866399999989,13.733143999999989,770
54.29266399999989,13.085143999999987,812
53.96866399999989,13.085143999999987,797
53.32066399999989,13.733143999999989,707
52.0246639999999,13.085143999999987,589
51.700663999999904,13.085143999999987,586
52.996663999999896,14.381143999999988,621
52.0246639999999,12.437143999999988,594
51.700663999999904,12.437143999999988,590
51.37666399999991,11.789143999999988,574
51.37666399999991,12.437143999999988,567
52.6726639999999,11.789143999999988,623
53.64466399999989,13.085143999999987,740
53.32066399999989,13.085143999999987,705
52.996663999999896,13.085143999999987,633
53.64466399999989,12.437143999999988,748
51.37666399999991,13.733143999999989,545
53.32066399999989,12.437143999999988,656
52.6726639999999,14.381143999999988,590
51.37666399999991,13.085143999999987,559
53.32066399999989,14.381143999999988,648
52.3486639999999,15.029143999999986,604
52.0246639999999,15.677143999999986,579
51.700663999999904,15.029143999999986,511
51.05266399999991,16.325143999999987,478
51.05266399999991,16.973143999999984,461
51.700663999999904,15.677143999999986,533
51.37666399999991,15.677143999999986,498
51.37666399999991,16.325143999999987,484
50.72866399999991,13.085143999999987,576
50.72866399999991,12.437143999999988,588
51.05266399999991,13.085143999999987,554
51.05266399999991,14.381143999999988,523
50.40466399999991,12.437143999999988,597
50.40466399999991,11.789143999999988,612
50.08066399999991,12.437143999999988,679
50.72866399999991,11.789143999999988,637
51.05266399999991,12.437143999999988,587
50.72866399999991,14.381143999999988,604
51.37666399999991,14.381143999999988,538
50.72866399999991,13.733143999999989,573
50.40466399999991,14.381143999999988,579
51.37666399999991,15.029143999999986,505
55.26466399999988,9.197143999999987,828
55.58866399999988,8.54914399999999,3562
55.91266399999988,8.54914399999999,7039
56.23666399999988,9.197143999999987,7047
56.23666399999988,10.493143999999988,7000
56.23666399999988,9.845143999999989,6987
55.91266399999988,9.845143999999989,6925
56.56066399999988,9.197143999999987,7057
56.56066399999988,8.54914399999999,7100
51.05266399999991,6.60514399999999,716
51.700663999999904,7.90114399999999,708
50.72866399999991,6.60514399999999,727
51.700663999999904,7.25314399999999,716
50.72866399999991,7.25314399999999,733
52.0246639999999,7.25314399999999,723
52.3486639999999,7.90114399999999,724
51.05266399999991,5.957143999999991,724
50.40466399999991,7.25314399999999,739
51.700663999999904,6.60514399999999,722
51.700663999999904,5.957143999999991,728
52.3486639999999,9.197143999999987,661
51.700663999999904,8.54914399999999,693
52.0246639999999,8.54914399999999,680
52.3486639999999,8.54914399999999,673
51.37666399999991,7.90114399999999,714
52.3486639999999,7.25314399999999,753
51.37666399999991,5.957143999999991,761
50.72866399999991,7.90114399999999,751
51.37666399999991,9.197143999999987,691
51.700663999999904,9.197143999999987,673
50.40466399999991,6.60514399999999,826
51.05266399999991,7.90114399999999,734
51.37666399999991,8.54914399999999,715
52.0246639999999,5.957143999999991,771
52.3486639999999,6.60514399999999,776
51.05266399999991,8.54914399999999,743
52.0246639999999,9.197143999999987,662
52.6726639999999,9.197143999999987,692
52.0246639999999,9.845143999999989,662
51.700663999999904,9.845143999999989,678
51.37666399999991,9.845143999999989,706
50.72866399999991,8.54914399999999,757
51.05266399999991,9.845143999999989,752
50.72866399999991,9.845143999999989,740
50.40466399999991,9.845143999999989,757
51.05266399999991,9.197143999999987,716
50.40466399999991,9.197143999999987,753
50.08066399999991,9.197143999999987,745
51.05266399999991,10.493143999999988,616
50.40466399999991,8.54914399999999,758
50.72866399999991,9.197143999999987,728
49.75666399999992,9.197143999999987,744
52.996663999999896,9.197143999999987,729
52.3486639999999,9.845143999999989,653
52.996663999999896,8.54914399999999,746
52.996663999999896,7.90114399999999,773
53.32066399999989,7.90114399999999,823
53.32066399999989,7.25314399999999,853
53.64466399999989,7.25314399999999,898
52.996663999999896,10.493143999999988,683
52.6726639999999,10.493143999999988,676
52.6726639999999,9.845143999999989,660
53.32066399999989,9.845143999999989,709
53.32066399999989,9.197143999999987,728
53.64466399999989,8.54914399999999,770
53.32066399999989,8.54914399999999,757
52.6726639999999,8.54914399999999,723
52.0246639999999,10.493143999999988,692
52.0246639999999,11.141143999999988,641
51.700663999999904,11.141143999999988,640
52.6726639999999,7.25314399999999,905
52.996663999999896,7.25314399999999,879
52.6726639999999,7.90114399999999,795
53.64466399999989,7.90114399999999,851
52.996663999999896,11.141143999999988,643
52.6726639999999,11.141143999999988,633
52.3486639999999,10.493143999999988,645
52.996663999999896,9.845143999999989,696
51.700663999999904,10.493143999999988,680
51.37666399999991,10.493143999999988,703
51.700663999999904,11.789143999999988,614
52.3486639999999,11.141143999999988,639
51.37666399999991,11.141143999999988,657
51.05266399999991,11.789143999999988,591
49.10866399999992,11.141143999999988,714
48.78466399999992,11.141143999999988,760
48.46066399999992,11.789143999999988,776
49.43266399999992,11.789143999999988,700
50.08066399999991,11.789143999999988,632
49.75666399999992,12.437143999999988,693
49.10866399999992,11.789143999999988,729
48.78466399999992,12.437143999999988,743
48.46066399999992,12.437143999999988,763
49.10866399999992,12.437143999999988,737
48.78466399999992,13.085143999999987,780
48.136663999999925,12.437143999999988,797
47.81266399999993,11.789143999999988,796
48.136663999999925,10.493143999999988,802
47.81266399999993,10.493143999999988,852
48.78466399999992,10.493143999999988,775
47.48866399999993,10.493143999999988,891
48.46066399999992,10.493143999999988,784
49.43266399999992,13.085143999999987,836
48.46066399999992,13.085143999999987,794
49.43266399999992,10.493143999999988,723
49.75666399999992,9.845143999999989,716
49.75666399999992,10.493143999999988,694
50.40466399999991,11.141143999999988,628
50.08066399999991,11.141143999999988,651
50.72866399999991,11.141143999999988,634
49.75666399999992,11.141143999999988,682
48.78466399999992,11.789143999999988,748
50.40466399999991,10.493143999999988,823
50.08066399999991,9.845143999999989,736
50.08066399999991,10.493143999999988,701
49.43266399999992,12.437143999999988,729
49.75666399999992,11.789143999999988,671
49.10866399999992,13.085143999999987,814
50.72866399999991,10.493143999999988,631
49.10866399999992,10.493143999999988,758
48.78466399999992,9.845143999999989,805
48.46066399999992,8.54914399999999,804
48.46066399999992,9.197143999999987,829
48.78466399999992,9.197143999999987,790
48.78466399999992,8.54914399999999,797
50.08066399999991,7.25314399999999,766
49.75666399999992,6.60514399999999,831
49.43266399999992,6.60514399999999,868
49.10866399999992,6.60514399999999,875
49.43266399999992,7.25314399999999,846
49.75666399999992,7.25314399999999,791
49.10866399999992,5.957143999999991,908
48.78466399999992,7.25314399999999,841
50.08066399999991,6.60514399999999,828
47.48866399999993,9.197143999999987,885
48.136663999999925,8.54914399999999,855
48.136663999999925,9.197143999999987,847
47.81266399999993,7.25314399999999,899
49.43266399999992,9.845143999999989,764
49.10866399999992,9.845143999999989,788
53.64466399999989,14.381143999999988,692
50.08066399999991,13.085143999999987,630
49.75666399999992,13.085143999999987,635
45.86866399999994,9.197143999999987,1014
46.19266399999994,9.197143999999987,994
46.516663999999935,8.54914399999999,1352
46.516663999999935,9.197143999999987,1339
46.19266399999994,8.54914399999999,997
47.16466399999993,8.54914399999999,898
45.86866399999994,4.661143999999991,1354
46.84066399999993,9.845143999999989,933
45.22066399999994,5.957143999999991,1371
45.22066399999994,5.309143999999991,1386
45.86866399999994,5.957143999999991,1324
45.54466399999994,5.957143999999991,1343
44.89666399999994,4.661143999999991,1392
44.89666399999994,5.309143999999991,1410
44.572663999999946,4.661143999999991,1404
44.24866399999995,4.661143999999991,1418
43.92466399999995,4.661143999999991,1428
46.19266399999994,7.25314399999999,942
48.78466399999992,5.957143999999991,1319
48.136663999999925,6.60514399999999,1327
48.46066399999992,6.60514399999999,1273
48.78466399999992,6.60514399999999,1330
47.16466399999993,7.90114399999999,885
48.136663999999925,7.25314399999999,884
48.46066399999992,7.25314399999999,913
46.516663999999935,6.60514399999999,927
46.84066399999993,6.60514399999999,921
46.84066399999993,7.25314399999999,902
46.516663999999935,5.957143999999991,944
46.19266399999994,5.957143999999991,960
46.84066399999993,8.54914399999999,905
46.84066399999993,7.90114399999999,892
45.86866399999994,5.309143999999991,1350
46.19266399999994,6.60514399999999,937
45.86866399999994,6.60514399999999,1363
47.48866399999993,6.60514399999999,941
47.48866399999993,7.25314399999999,899
47.16466399999993,7.25314399999999,897
49.10866399999992,4.013143999999992,1381
49.75666399999992,4.661143999999991,1314
49.43266399999992,4.661143999999991,1354
49.10866399999992,5.309143999999991,1374
46.19266399999994,4.661143999999991,1369
46.84066399999993,9.197143999999987,924
46.19266399999994,5.309143999999991,1360
46.516663999999935,5.309143999999991,1410
45.54466399999994,6.60514399999999,1375
45.54466399999994,5.309143999999991,1384
43.60066399999995,4.013143999999992,1480
43.60066399999995,3.365143999999992,1497
42.62866399999996,2.717143999999992,1600
43.276663999999954,2.717143999999992,1526
45.54466399999994,4.661143999999991,1361
45.22066399999994,4.661143999999991,1375
47.16466399999993,5.309143999999991,1341
47.16466399999993,5.957143999999991,1304
46.19266399999994,7.90114399999999,969
49.75666399999992,2.717143999999992,1258
49.10866399999992,2.717143999999992,1276
48.78466399999992,2.717143999999992,1375
45.86866399999994,3.365143999999992,1494
46.84066399999993,3.365143999999992,1432
46.516663999999935,3.365143999999992,1481
46.19266399999994,3.365143999999992,1469
47.16466399999993,6.60514399999999,924
49.10866399999992,3.365143999999992,1352
45.54466399999994,4.013143999999992,1369
46.516663999999935,7.25314399999999,921
47.16466399999993,4.661143999999991,1351
46.84066399999993,4.661143999999991,1377
46.516663999999935,4.661143999999991,1401
46.84066399999993,5.957143999999991,1279
47.81266399999993,3.365143999999992,972
47.48866399999993,4.013143999999992,1369
48.136663999999925,4.013143999999992,1331
47.81266399999993,4.013143999999992,1344
47.48866399999993,4.661143999999991,1378
47.16466399999993,3.365143999999992,1446
46.84066399999993,4.013143999999992,1400
48.46066399999992,5.957143999999991,1325
46.19266399999994,2.717143999999992,1558
47.16466399999993,2.0691439999999925,1381
46.516663999999935,2.717143999999992,1654
46.84066399999993,2.717143999999992,1431
46.84066399999993,2.0691439999999925,1443
47.16466399999993,2.717143999999992,1409
44.572663999999946,5.309143999999991,1524
44.572663999999946,5.957143999999991,1523
44.89666399999994,6.60514399999999,1407
44.572663999999946,6.60514399999999,1489
43.60066399999995,5.309143999999991,1470
43.92466399999995,7.25314399999999,1534
43.60066399999995,6.60514399999999,1522
43.276663999999954,6.60514399999999,1499
43.276663999999954,5.957143999999991,1474
45.86866399999994,8.54914399999999,1244
45.54466399999994,8.54914399999999,1275
48.136663999999925,3.365143999999992,949
48.46066399999992,3.365143999999992,943
48.46066399999992,2.717143999999992,1274
47.48866399999993,5.309143999999991,1356
46.516663999999935,9.845143999999989,1316
46.84066399999993,10.493143999999988,1331
47.81266399999993,5.309143999999991,1373
45.22066399999994,6.60514399999999,1401
46.19266399999994,4.013143999999992,1384
45.86866399999994,4.013143999999992,1377
45.22066399999994,4.013143999999992,1398
44.89666399999994,4.013143999999992,1437
46.84066399999993,5.309143999999991,1398
48.136663999999925,-1.8188560000000056,1440
48.136663999999925,0.1251439999999934,1392
48.136663999999925,-0.5228560000000062,1401
47.48866399999993,-0.5228560000000062,1392
47.16466399999993,-1.8188560000000056,1455
47.48866399999993,0.7731439999999932,1116
47.16466399999993,0.1251439999999934,1351
45.86866399999994,7.25314399999999,1368
48.136663999999925,5.309143999999991,1404
49.10866399999992,4.661143999999991,1422
48.46066399999992,4.013143999999992,1374
48.136663999999925,4.661143999999991,1420
47.81266399999993,6.60514399999999,1317
47.48866399999993,5.957143999999991,1335
48.136663999999925,5.957143999999991,1886
45.86866399999994,7.90114399999999,1032
46.516663999999935,7.90114399999999,916
49.43266399999992,3.365143999999992,1341
49.43266399999992,4.013143999999992,1360
48.136663999999925,2.717143999999992,1436
47.81266399999993,2.717143999999992,1465
47.48866399999993,2.717143999999992,1441
50.40466399999991,2.717143999999992,805
48.46066399999992,-4.410856000000004,1585
48.46066399999992,-3.7628560000000046,1566
48.46066399999992,-3.114856000000005,1543
48.46066399999992,-2.4668560000000053,1507
47.48866399999993,1.4211439999999929,1051
47.16466399999993,1.4211439999999929,1343
46.516663999999935,4.013143999999992,1405
43.60066399999995,4.661143999999991,1462
44.89666399999994,2.717143999999992,1727
45.22066399999994,2.717143999999992,1696
45.54466399999994,3.365143999999992,1501
45.22066399999994,3.365143999999992,1442
47.48866399999993,3.365143999999992,1546
46.19266399999994,9.845143999999989,1373
47.81266399999993,2.0691439999999925,975
47.48866399999993,2.0691439999999925,1344
45.86866399999994,2.717143999999992,1720
44.89666399999994,5.957143999999991,1427
45.22066399999994,1.4211439999999929,1620
44.89666399999994,1.4211439999999929,1646
44.89666399999994,2.0691439999999925,1681
43.276663999999954,2.0691439999999925,1576
43.60066399999995,1.4211439999999929,1584
48.78466399999992,4.661143999999991,1427
48.78466399999992,5.309143999999991,1400
46.19266399999994,2.0691439999999925,1862
45.86866399999994,1.4211439999999929,1554
46.19266399999994,1.4211439999999929,1584
44.572663999999946,4.013143999999992,1533
44.89666399999994,3.365143999999992,1474
43.92466399999995,4.013143999999992,1444
44.24866399999995,4.013143999999992,1471
44.89666399999994,-0.5228560000000062,1454
45.54466399999994,0.1251439999999934,1456
46.516663999999935,0.1251439999999934,1401
44.572663999999946,2.0691439999999925,1696
49.75666399999992,4.013143999999992,833
43.92466399999995,3.365143999999992,1596
43.92466399999995,2.717143999999992,1621
44.24866399999995,3.365143999999992,1647
44.572663999999946,3.365143999999992,1662
49.10866399999992,0.1251439999999934,1399
49.43266399999992,0.7731439999999932,1379
49.43266399999992,-1.8188560000000056,1521
49.10866399999992,-1.170856000000006,1471
49.10866399999992,-0.5228560000000062,1409
49.10866399999992,0.7731439999999932,1426
49.10866399999992,1.4211439999999929,1354
47.81266399999993,-1.8188560000000056,1501
47.81266399999993,-2.4668560000000053,1528
47.81266399999993,-3.114856000000005,1554
48.136663999999925,-3.7628560000000046,1591
44.572663999999946,9.197143999999987,1376
44.89666399999994,8.54914399999999,1349
45.22066399999994,9.197143999999987,1309
45.54466399999994,10.493143999999988,1387
44.572663999999946,10.493143999999988,1798
44.89666399999994,10.493143999999988,1453
44.89666399999994,9.845143999999989,1380
48.46066399999992,5.309143999999991,1575
50.91599999999999,-1.0580000000000025,65535
51.23999999999999,-0.4100000000000028,65535
50.91599999999999,-0.4100000000000028,65535
51.23999999999999,-2.354000000000002,65535
51.56399999999999,-2.354000000000002,65535
51.56399999999999,-3.0020000000000016,65535
50.91599999999999,-2.354000000000002,65535
53.50799999999997,-3.0020000000000016,65535
53.183999999999976,-2.354000000000002,65535
53.183999999999976,-3.0020000000000016,65535
52.85999999999998,-2.354000000000002,65535
52.21199999999998,-1.0580000000000025,65535
51.887999999999984,-1.0580000000000025,65535
52.53599999999998,-1.0580000000000025,65535
52.53599999999998,-1.7060000000000022,65535
52.85999999999998,-1.7060000000000022,65535
53.50799999999997,-2.354000000000002,65535
52.85999999999998,-1.0580000000000025,65535
52.53599999999998,1.5339999999999965,65535
52.53599999999998,0.8859999999999966,65535
52.53599999999998,0.2379999999999968,65535
52.53599999999998,-0.4100000000000028,65535
53.50799999999997,-1.7060000000000022,65535
53.183999999999976,-1.7060000000000022,65535
53.183999999999976,-1.0580000000000025,65535
52.85999999999998,-0.4100000000000028,65535
51.887999999999984,-2.354000000000002,65535
52.21199999999998,-2.354000000000002,65535
55.77599999999996,-2.354000000000002,65535
53.83199999999997,-1.0580000000000025,65535
53.83199999999997,-1.7060000000000022,65535
55.127999999999965,-1.7060000000000022,65535
54.80399999999997,-1.7060000000000022,65535
54.47999999999997,-1.7060000000000022,65535
54.15599999999997,-1.0580000000000025,65535
52.21199999999998,-1.7060000000000022,65535
53.50799999999997,-1.0580000000000025,65535
55.77599999999996,-3.0020000000000016,65535
55.45199999999996,-1.7060000000000022,65535
57.07199999999995,-2.354000000000002,65535
56.74799999999996,-3.0020000000000016,65535
56.42399999999996,-3.0020000000000016,65535
56.09999999999996,-3.650000000000001,65535
50.91599999999999,-3.0020000000000016,65535
50.91599999999999,-3.650000000000001,65535
50.59199999999999,-3.650000000000001,65535
50.59199999999999,-4.298000000000001,65535
51.23999999999999,-3.0020000000000016,65535
50.268,-4.946000000000001,65535
55.77599999999996,-3.650000000000001,65535
55.77599999999996,-4.298000000000001,65535
52.21199999999998,-0.4100000000000028,65535
52.53599999999998,-2.354000000000002,65535
51.56399999999999,-1.7060000000000022,65535
51.56399999999999,-3.650000000000001,65535
51.887999999999984,-4.298000000000001,65535
51.56399999999999,-4.298000000000001,65535
51.887999999999984,-1.7060000000000022,65535
52.21199999999998,-3.0020000000000016,65535
51.23999999999999,0.2379999999999968,65535
50.91599999999999,0.2379999999999968,65535
52.21199999999998,0.2379999999999968,65535
53.83199999999997,-3.0020000000000016,65535
54.15599999999997,-3.0020000000000016,65535
54.47999999999997,-3.0020000000000016,65535
55.127999999999965,-3.650000000000001,65535
54.80399999999997,-3.0020000000000016,65535
53.83199999999997,-2.354000000000002,65535
54.15599999999997,-0.4100000000000028,65535
54.47999999999997,-1.0580000000000025,65535
53.83199999999997,-0.4100000000000028,65535
53.183999999999976,-3.650000000000001,65535
53.183999999999976,-4.298000000000001,65535
52.85999999999998,-3.0020000000000016,65535
52.53599999999998,-3.0020000000000016,65535
51.887999999999984,-3.0020000000000016,65535
51.23999999999999,0.8859999999999966,65535
51.887999999999984,0.2379999999999968,65535
52.21199999999998,0.8859999999999966,65535
51.887999999999984,-4.946000000000001,65535
52.53599999999998,-3.650000000000001,65535
52.21199999999998,-4.298000000000001,65535
53.183999999999976,-0.4100000000000028,65535
51.23999999999999,-3.650000000000001,65535
51.887999999999984,-3.650000000000001,65535
52.21199999999998,-3.650000000000001,65535
51.56399999999999,0.8859999999999966,65535
51.887999999999984,0.8859999999999966,65535
52.85999999999998,0.8859999999999966,65535
53.50799999999997,-0.4100000000000028,65535
56.09999999999996,-4.298000000000001,65535
56.74799999999996,-4.946000000000001,65535
56.74799999999996,-4.298000000000001,65535
56.42399999999996,-4.946000000000001,65535
56.42399999999996,-4.298000000000001,65535
56.09999999999996,-4.946000000000001,65535
57.39599999999995,-4.298000000000001,65535
57.39599999999995,-3.0020000000000016,65535
57.39599999999995,-3.650000000000001,65535
56.42399999999996,-3.650000000000001,65535
57.07199999999995,-3.650000000000001,65535
57.07199999999995,-4.298000000000001,65535
56.74799999999996,-3.650000000000001,65535
59.15266399999986,27.34114399999998,65535
59.47666399999986,26.69314399999997,65535
59.47666399999986,26.04514399999998,65535
59.15266399999986,26.04514399999998,65535
59.15266399999986,24.74914399999998,65535
59.15266399999986,25.397143999999983,65535
59.47666399999986,25.397143999999983,65535
58.50466399999986,26.69314399999997,65535
58.82866399999986,26.69314399999997,65535
57.85666399999987,26.04514399999998,65535
58.180663999999865,26.04514399999998,65535
58.180663999999865,26.69314399999997,65535
58.82866399999986,26.04514399999998,65535
58.50466399999986,25.397143999999983,65535
58.82866399999986,25.397143999999983,65535
58.82866399999986,24.74914399999998,65535
58.180663999999865,27.34114399999998,65535
57.85666399999987,27.34114399999998,65535
63.68866399999983,27.34114399999998,7557
60.124663999999854,24.74914399999998,4213
60.44866399999985,24.74914399999998,4182
60.44866399999985,25.397143999999983,4194
60.77266399999985,25.397143999999983,4905
61.09666399999985,26.04514399999998,4948
60.77266399999985,26.04514399999998,4956
60.77266399999985,26.69314399999997,4975
61.09666399999985,25.397143999999983,4939
61.09666399999985,26.69314399999997,7678
61.420663999999846,26.69314399999997,7700
61.74466399999984,27.34114399999998,7724
62.06866399999984,27.34114399999998,7749
62.39266399999984,27.34114399999998,7773
62.71666399999984,27.34114399999998,7737
64.01266399999983,27.34114399999998,7513
63.36466399999984,27.34114399999998,7625
63.04066399999984,27.34114399999998,7665
63.04066399999984,27.989143999999985,7680
64.33666399999983,27.989143999999985,5264
64.33666399999983,27.34114399999998,5209
64.66066399999983,27.34114399999998,5194
64.66066399999983,26.69314399999997,5139
64.98466399999982,25.397143999999983,3559
64.66066399999983,26.04514399999998,5120
64.98466399999982,26.04514399999998,5104
66.28066399999982,25.397143999999983,3731
65.95666399999982,24.74914399999998,3472
65.63266399999982,24.74914399999998,3476
65.63266399999982,25.397143999999983,3518
65.30866399999982,25.397143999999983,3539
66.60466399999981,25.397143999999983,3765
64.01266399999983,24.74914399999998,3696
64.01266399999983,24.101143999999977,3731
64.01266399999983,23.45314399999998,3755
63.68866399999983,23.45314399999998,3767
63.68866399999983,22.805143999999984,3792
63.68866399999983,26.04514399999998,5824
63.68866399999983,25.397143999999983,5790
63.68866399999983,26.69314399999997,7524
60.44866399999985,26.69314399999997,8309
64.01266399999983,27.989143999999985,7943
62.71666399999984,22.805143999999984,3914
62.39266399999984,22.805143999999984,3946
62.06866399999984,22.805143999999984,3975
62.06866399999984,23.45314399999998,3991
61.74466399999984,23.45314399999998,4003
61.420663999999846,23.45314399999998,4051
61.09666399999985,23.45314399999998,4092
61.09666399999985,24.101143999999977,4099
61.09666399999985,24.74914399999998,4133
60.77266399999985,24.74914399999998,4149
63.04066399999984,21.50914399999997,65535
63.04066399999984,22.15714399999998,65535
63.04066399999984,22.805143999999984,3878
62.39266399999984,26.04514399999998,7921
62.06866399999984,25.397143999999983,7970
61.74466399999984,25.397143999999983,8038
61.74466399999984,24.74914399999998,8075
61.74466399999984,24.101143999999977,4280
61.420663999999846,24.101143999999977,4235
62.39266399999984,26.69314399999997,7892
64.66066399999983,25.397143999999983,3628
64.66066399999983,24.74914399999998,3646
64.33666399999983,24.74914399999998,3657
63.36466399999984,22.805143999999984,3817
67.25266399999981,24.101143999999977,7345
66.92866399999981,24.101143999999977,7309
66.60466399999981,23.45314399999998,7278
66.28066399999982,23.45314399999998,7260
66.28066399999982,24.101143999999977,7242
65.95666399999982,24.101143999999977,2844
60.124663999999854,24.101143999999977,5727
60.124663999999854,23.45314399999998,6585
60.44866399999985,22.805143999999984,6644
60.77266399999985,27.34114399999998,5027
61.09666399999985,27.989143999999985,5057
61.09666399999985,28.63714399999997,5095
61.420663999999846,29.28514399999997,5130
61.74466399999984,29.933143999999977,5167
62.06866399999984,29.933143999999977,5193
62.39266399999984,29.933143999999977,5209
62.71666399999984,29.933143999999977,5233
61.420663999999846,22.805143999999984,6338
61.420663999999846,22.15714399999998,7046
61.09666399999985,22.15714399999998,6384
61.420663999999846,21.50914399999997,7179
62.39266399999984,27.989143999999985,65535
62.06866399999984,27.989143999999985,65535
61.420663999999846,27.34114399999998,65535
63.04066399999984,29.933143999999977,7172
63.68866399999983,29.28514399999997,8955
63.36466399999984,29.28514399999997,8935
63.36466399999984,29.933143999999977,8894
60.44866399999985,27.34114399999998,65535
61.74466399999984,29.28514399999997,65535
62.39266399999984,30.58114399999998,65535
62.71666399999984,31.229143999999977,65535
62.71666399999984,29.28514399999997,65535
63.04066399999984,28.63714399999997,65535
66.60466399999981,26.04514399999998,6586
66.60466399999981,26.69314399999997,6622
66.60466399999981,27.34114399999998,6645
62.71666399999984,26.04514399999998,7806
62.71666399999984,25.397143999999983,7775
63.04066399999984,25.397143999999983,7595
63.36466399999984,25.397143999999983,6232
62.71666399999984,23.45314399999998,7800
62.39266399999984,24.101143999999977,65535
62.71666399999984,22.15714399999998,65535
62.39266399999984,22.15714399999998,65535
62.39266399999984,21.50914399999997,65535
61.09666399999985,21.50914399999997,6414
60.77266399999985,22.805143999999984,4452
60.44866399999985,22.15714399999998,4482
60.77266399999985,23.45314399999998,4439
60.77266399999985,21.50914399999997,5553
60.77266399999985,22.15714399999998,5506
60.124663999999854,22.805143999999984,8599
60.44866399999985,24.101143999999977,5712
62.06866399999984,24.74914399999998,65535
50.72866399999991,16.325143999999987,500
50.40466399999991,16.973143999999984,544
50.72866399999991,16.973143999999984,498
50.40466399999991,16.325143999999987,552
50.08066399999991,16.973143999999984,562
50.08066399999991,16.325143999999987,558
51.700663999999904,16.973143999999984,518
51.37666399999991,16.973143999999984,483
51.05266399999991,15.677143999999986,561
50.72866399999991,15.677143999999986,510
51.05266399999991,17.621143999999987,456
51.37666399999991,17.621143999999987,481
51.700663999999904,17.621143999999987,512
51.700663999999904,16.325143999999987,529
52.0246639999999,22.15714399999998,298
52.0246639999999,21.50914399999997,255
52.3486639999999,21.50914399999997,264
52.0246639999999,20.86114399999998,274
51.700663999999904,20.86114399999998,291
51.37666399999991,21.50914399999997,259
51.37666399999991,20.86114399999998,264
51.05266399999991,20.86114399999998,312
52.6726639999999,23.45314399999998,468
52.3486639999999,22.805143999999984,407
52.3486639999999,20.213143999999986,315
52.0246639999999,20.213143999999986,313
52.3486639999999,19.565143999999982,607
52.6726639999999,19.565143999999982,520
51.700663999999904,21.50914399999997,221
51.700663999999904,22.15714399999998,204
52.6726639999999,21.50914399999997,273
52.996663999999896,21.50914399999997,360
52.6726639999999,20.86114399999998,323
52.6726639999999,22.15714399999998,297
52.6726639999999,20.213143999999986,460
52.996663999999896,19.565143999999982,531
52.996663999999896,20.86114399999998,357
52.996663999999896,20.213143999999986,425
53.32066399999989,20.213143999999986,521
51.37666399999991,20.213143999999986,499
52.3486639999999,16.973143999999984,573
52.0246639999999,16.973143999999984,562
52.0246639999999,16.325143999999987,543
52.0246639999999,17.621143999999987,549
52.6726639999999,16.973143999999984,608
52.996663999999896,16.973143999999984,646
52.3486639999999,16.325143999999987,591
52.3486639999999,15.677143999999986,626
51.700663999999904,18.269143999999983,632
52.6726639999999,17.621143999999987,587
52.3486639999999,17.621143999999987,577
52.6726639999999,18.269143999999983,619
52.3486639999999,18.269143999999983,593
52.3486639999999,18.917143999999983,613
52.996663999999896,17.621143999999987,664
51.700663999999904,19.565143999999982,611
51.700663999999904,18.917143999999983,1293
51.37666399999991,18.269143999999983,491
58.82866399999986,9.197143999999987,1808
58.180663999999865,7.90114399999999,1901
58.50466399999986,8.54914399999999,1852
63.36466399999984,10.493143999999988,2023
63.36466399999984,11.141143999999988,2030
63.36466399999984,11.789143999999988,2065
63.68866399999983,11.789143999999988,2093
64.33666399999983,12.437143999999988,2494
64.66066399999983,12.437143999999988,2989
65.63266399999982,13.085143999999987,2646
65.95666399999982,13.085143999999987,2681
66.28066399999982,14.381143999999988,2751
65.95666399999982,13.733143999999989,2820
66.28066399999982,13.733143999999989,2729
65.30866399999982,13.085143999999987,2947
64.98466399999982,13.085143999999987,2581
64.01266399999983,11.789143999999988,2124
63.68866399999983,11.141143999999988,2061
59.800663999999855,10.493143999999988,1604
59.800663999999855,11.141143999999988,1587
60.124663999999854,11.141143999999988,1602
60.44866399999985,11.141143999999988,1615
60.124663999999854,11.789143999999988,1628
60.77266399999985,7.25314399999999,1864
60.77266399999985,6.60514399999999,1910
59.15266399999986,9.197143999999987,1690
59.47666399999986,9.197143999999987,1711
59.800663999999855,9.845143999999989,1606
59.47666399999986,11.141143999999988,1551
61.09666399999985,10.493143999999988,1725
60.77266399999985,10.493143999999988,1695
60.77266399999985,11.141143999999988,1650
62.06866399999984,9.197143999999987,2050
61.74466399999984,9.845143999999989,1996
61.420663999999846,9.845143999999989,1973
59.15266399999986,9.845143999999989,1670
59.47666399999986,9.845143999999989,1646
58.82866399999986,5.957143999999991,2085
58.180663999999865,7.25314399999999,1957
58.50466399999986,7.25314399999999,1990
58.50466399999986,6.60514399999999,1995
58.50466399999986,5.957143999999991,2053
58.82866399999986,8.54914399999999,1838
60.44866399999985,7.25314399999999,1838
60.44866399999985,7.90114399999999,1799
60.124663999999854,10.493143999999988,1636
60.44866399999985,9.197143999999987,1748
60.77266399999985,9.197143999999987,1760
60.77266399999985,8.54914399999999,1779
60.124663999999854,9.845143999999989,2015
60.44866399999985,10.493143999999988,1681
63.04066399999984,10.493143999999988,1974
62.06866399999984,9.845143999999989,2075
62.39266399999984,9.845143999999989,2083
62.71666399999984,9.845143999999989,2107
59.47666399999986,14.381143999999988,1600
59.47666399999986,13.733143999999989,1541
59.47666399999986,13.085143999999987,1517
59.800663999999855,12.437143999999988,1586
59.15266399999986,11.141143999999988,1515
59.15266399999986,14.381143999999988,1614
58.82866399999986,11.789143999999988,1495
58.50466399999986,12.437143999999988,1425
58.180663999999865,12.437143999999988,1418
57.85666399999987,11.789143999999988,1369
62.71666399999984,7.90114399999999,2136
62.39266399999984,7.90114399999999,2093
62.06866399999984,8.54914399999999,2068
60.44866399999985,5.309143999999991,1984
60.44866399999985,5.957143999999991,1951
60.77266399999985,5.957143999999991,1940
62.39266399999984,11.141143999999988,1871
62.06866399999984,10.493143999999988,1826
61.74466399999984,11.141143999999988,1799
61.420663999999846,11.141143999999988,1753
61.09666399999985,11.141143999999988,1736
60.77266399999985,11.789143999999988,1713
63.04066399999984,11.141143999999988,1952
62.71666399999984,11.141143999999988,1895
62.39266399999984,10.493143999999988,1853
67.25266399999981,15.677143999999986,2870
67.25266399999981,15.029143999999986,2908
67.25266399999981,14.381143999999988,2936
66.92866399999981,15.029143999999986,2859
66.60466399999981,15.677143999999986,2837
64.01266399999983,11.141143999999988,2108
66.60466399999981,15.029143999999986,2900
54.29266399999989,18.269143999999983,536
54.616663999999886,17.621143999999987,554
53.96866399999989,18.269143999999983,547
43.92466399999995,1.4211439999999929,1568
44.24866399999995,0.7731439999999932,1522
44.572663999999946,0.1251439999999934,1505
46.84066399999993,1.4211439999999929,1466
44.572663999999946,1.4211439999999929,1692
44.24866399999995,1.4211439999999929,1670
45.54466399999994,1.4211439999999929,1598
46.516663999999935,1.4211439999999929,1484
42.30466399999996,2.717143999999992,1656
44.24866399999995,2.717143999999992,1754
44.572663999999946,2.717143999999992,1759
43.92466399999995,2.0691439999999925,1670
42.30466399999996,2.0691439999999925,1709
42.62866399999996,2.0691439999999925,1650
42.62866399999996,1.4211439999999929,1643
42.95266399999996,1.4211439999999929,1612
43.276663999999954,1.4211439999999929,1592
46.516663999999935,-1.170856000000006,1500
46.19266399999994,-1.170856000000006,1520
45.86866399999994,-0.5228560000000062,1592
45.54466399999994,-0.5228560000000062,1580
48.46066399999992,1.4211439999999929,895
41.332663999999966,2.0691439999999925,1714
41.98066399999996,2.717143999999992,1673
48.46066399999992,-1.8188560000000056,1450
47.81266399999993,0.7731439999999932,1354
46.84066399999993,0.7731439999999932,1373
44.572663999999946,-1.170856000000006,1465
43.60066399999995,-1.170856000000006,1534
43.276663999999954,-1.8188560000000056,1582
43.276663999999954,0.1251439999999934,1667
42.95266399999996,0.1251439999999934,1641
43.276663999999954,-0.5228560000000062,1586
43.60066399999995,-0.5228560000000062,1574
47.81266399999993,-3.7628560000000046,1576
47.48866399999993,-2.4668560000000053,1514
47.81266399999993,-0.5228560000000062,1409
46.516663999999935,-1.8188560000000056,1572
48.136663999999925,-1.170856000000006,1412
47.48866399999993,-1.170856000000006,1436
45.22066399999994,8.54914399999999,1296
45.22066399999994,7.90114399999999,1316
46.19266399999994,-0.5228560000000062,1489
46.516663999999935,-0.5228560000000062,1470
48.78466399999992,-3.114856000000005,1584
50.72866399999991,2.0691439999999925,815
50.40466399999991,2.0691439999999925,1268
40.36066399999997,-3.7628560000000046,1905
41.65666399999997,-1.170856000000006,1822
41.332663999999966,1.4211439999999929,1760
43.276663999999954,13.733143999999989,4390
42.95266399999996,13.733143999999989,4412
41.65666399999997,15.029143999999986,4496
40.68466399999997,17.621143999999987,4658
43.60066399999995,13.085143999999987,4383
41.65666399999997,12.437143999999988,3049
41.65666399999997,13.085143999999987,3068
41.98066399999996,13.085143999999987,3118
41.65666399999997,13.733143999999989,3120
41.332663999999966,13.733143999999989,3112
41.332663999999966,14.381143999999988,3269
41.00866399999997,14.381143999999988,3175
41.332663999999966,13.085143999999987,3094
41.00866399999997,15.029143999999986,3375
41.98066399999996,13.733143999999989,3317
42.30466399999996,14.381143999999988,3456
42.30466399999996,12.437143999999988,3057
42.62866399999996,12.437143999999988,3236
42.95266399999996,12.437143999999988,3521
42.30466399999996,11.789143999999988,3066
42.95266399999996,11.789143999999988,3276
42.62866399999996,11.789143999999988,3267
43.276663999999954,11.789143999999988,3330
42.95266399999996,13.085143999999987,4284
42.30466399999996,13.085143999999987,3343
43.276663999999954,13.085143999999987,4332
43.276663999999954,12.437143999999988,4339
42.62866399999996,11.141143999999988,3112
42.95266399999996,11.141143999999988,3155
42.95266399999996,10.493143999999988,3173
44.572663999999946,8.54914399999999,1370
44.89666399999994,7.90114399999999,1327
44.89666399999994,9.197143999999987,1368
44.24866399999995,7.90114399999999,1359
44.572663999999946,7.90114399999999,1340
43.92466399999995,7.90114399999999,1539
44.24866399999995,7.25314399999999,1356
44.89666399999994,7.25314399999999,1338
45.22066399999994,7.25314399999999,1348
45.54466399999994,7.90114399999999,1324
44.572663999999946,7.25314399999999,1402
52.996663999999896,22.805143999999984,515
52.996663999999896,23.45314399999998,521
51.37666399999991,22.15714399999998,152
51.37666399999991,22.805143999999984,83
50.08066399999991,20.213143999999986,201
50.72866399999991,20.213143999999986,443
50.40466399999991,20.213143999999986,365
50.08066399999991,20.86114399999998,150
50.08066399999991,21.50914399999997,112
50.08066399999991,22.15714399999998,71
50.08066399999991,22.805143999999984,150
53.96866399999989,22.805143999999984,867
53.64466399999989,23.45314399999998,680
53.32066399999989,23.45314399999998,578
50.40466399999991,19.565143999999982,282
50.08066399999991,18.917143999999983,303
50.08066399999991,18.269143999999983,490
52.0246639999999,22.805143999999984,304
52.0246639999999,23.45314399999998,340
51.37666399999991,19.565143999999982,571
51.05266399999991,19.565143999999982,433
50.72866399999991,18.917143999999983,404
50.72866399999991,19.565143999999982,577
49.75666399999992,18.917143999999983,481
50.40466399999991,18.269143999999983,403
53.64466399999989,19.565143999999982,612
53.96866399999989,18.917143999999983,535
53.64466399999989,18.917143999999983,549
53.64466399999989,20.213143999999986,643
52.996663999999896,18.917143999999983,721
52.996663999999896,18.269143999999983,685
53.32066399999989,18.917143999999983,728
50.72866399999991,17.621143999999987,438
50.72866399999991,18.269143999999983,423
52.6726639999999,16.325143999999987,633
52.996663999999896,16.325143999999987,679
52.996663999999896,15.677143999999986,673
53.32066399999989,15.677143999999986,706
53.32066399999989,15.029143999999986,687
53.64466399999989,15.029143999999986,699
53.96866399999989,15.029143999999986,725
52.6726639999999,18.917143999999983,793
53.32066399999989,16.325143999999987,697
52.6726639999999,15.029143999999986,601
51.05266399999991,22.805143999999984,74
51.05266399999991,23.45314399999998,154
50.72866399999991,22.15714399999998,0
50.40466399999991,22.15714399999998,365
51.05266399999991,22.15714399999998,36
54.616663999999886,16.973143999999984,596
54.29266399999989,16.325143999999987,748
53.96866399999989,15.677143999999986,756
50.72866399999991,21.50914399999997,8
50.40466399999991,21.50914399999997,18
50.40466399999991,17.621143999999987,489
53.32066399999989,22.805143999999984,623
53.64466399999989,22.15714399999998,683
54.29266399999989,16.973143999999984,655
50.72866399999991,20.86114399999998,401
51.700663999999904,22.805143999999984,391
51.05266399999991,21.50914399999997,491
50.08066399999991,19.565143999999982,240
52.0246639999999,18.917143999999983,8488
52.0246639999999,19.565143999999982,8481
53.64466399999989,18.269143999999983,567
51.700663999999904,20.213143999999986,654
53.32066399999989,19.565143999999982,655
50.72866399999991,23.45314399999998,235
50.72866399999991,22.805143999999984,204
49.43266399999992,20.213143999999986,419
49.75666399999992,21.50914399999997,139
49.75666399999992,22.15714399999998,391
49.43266399999992,22.15714399999998,404
51.05266399999991,18.917143999999983,447
51.05266399999991,18.269143999999983,496
53.32066399999989,16.973143999999984,696
53.64466399999989,16.973143999999984,669
49.75666399999992,20.86114399999998,346
50.40466399999991,22.805143999999984,8570
53.64466399999989,16.325143999999987,709
53.96866399999989,20.86114399999998,673
54.29266399999989,20.86114399999998,719
53.96866399999989,21.50914399999997,824
53.64466399999989,15.677143999999986,759
53.96866399999989,20.213143999999986,601
53.96866399999989,19.565143999999982,564
54.29266399999989,19.565143999999982,574
53.96866399999989,16.325143999999987,722
53.64466399999989,17.621143999999987,573
53.96866399999989,22.15714399999998,738
53.64466399999989,21.50914399999997,767
53.64466399999989,20.86114399999998,793
52.6726639999999,15.677143999999986,654
51.05266399999991,20.213143999999986,1249
54.940663999999884,24.101143999999977,3681
54.616663999999886,23.45314399999998,3625
54.29266399999989,23.45314399999998,3488
53.64466399999989,22.805143999999984,673
53.96866399999989,16.973143999999984,694
50.40466399999991,20.86114399999998,563
53.32066399999989,18.269143999999983,764
49.75666399999992,19.565143999999982,295
50.40466399999991,23.45314399999998,556
49.75666399999992,20.213143999999986,397
49.43266399999992,19.565143999999982,422
49.43266399999992,20.86114399999998,361
53.96866399999989,17.621143999999987,1323
42.30466399999996,-1.8188560000000056,8799
41.98066399999996,-1.8188560000000056,8782
41.65666399999997,0.7731439999999932,8786
42.62866399999996,-1.8188560000000056,8914
42.95266399999996,-1.8188560000000056,8943
42.62866399999996,-3.114856000000005,9037
42.95266399999996,-2.4668560000000053,9015
42.62866399999996,-7.650856000000003,9379
42.30466399999996,-7.650856000000003,9439
42.30466399999996,-8.946856000000002,9575
42.30466399999996,-8.298856000000002,9549
41.98066399999996,-8.298856000000002,9538
42.30466399999996,-7.002856000000003,9321
42.62866399999996,-6.354856000000003,9263
42.30466399999996,-6.354856000000003,9218
42.62866399999996,-5.706856000000004,8718
41.98066399999996,-4.410856000000004,8672
42.30466399999996,-3.7628560000000046,9063
40.03666399999997,-0.5228560000000062,8766
39.38866399999998,-0.5228560000000062,8814
41.00866399999997,0.7731439999999932,8914
40.68466399999997,0.7731439999999932,8946
40.36066399999997,0.1251439999999934,9024
39.712663999999975,-0.5228560000000062,8923
38.41666399999998,-0.5228560000000062,8935
39.06466399999998,-0.5228560000000062,9057
38.74066399999998,-1.170856000000006,8943
41.332663999999966,0.7731439999999932,8974
41.65666399999997,2.717143999999992,8574
41.65666399999997,2.0691439999999925,8597
41.332663999999966,0.1251439999999934,8932
41.332663999999966,-0.5228560000000062,8876
41.65666399999997,-4.410856000000004,8646
40.03666399999997,-2.4668560000000053,8884
41.00866399999997,-4.410856000000004,8767
43.276663999999954,-5.706856000000004,8848
39.38866399999998,-1.170856000000006,8909
38.09266399999999,-1.170856000000006,9322
38.74066399999998,-0.5228560000000062,9085
37.76866399999999,-1.170856000000006,9387
39.06466399999998,-1.8188560000000056,8907
39.38866399999998,-3.114856000000005,8807
39.38866399999998,-2.4668560000000053,8863
39.06466399999998,-2.4668560000000053,8890
39.06466399999998,-3.114856000000005,8811
39.06466399999998,-3.7628560000000046,8785
38.74066399999998,-3.7628560000000046,8864
40.03666399999997,-3.7628560000000046,8763
40.03666399999997,-3.114856000000005,8963
40.03666399999997,-1.8188560000000056,9044
39.712663999999975,-1.8188560000000056,9009
39.712663999999975,-1.170856000000006,8945
40.36066399999997,-1.170856000000006,8964
40.68466399999997,-1.170856000000006,8942
41.00866399999997,-1.170856000000006,8930
41.332663999999966,-1.170856000000006,8770
43.276663999999954,-8.298856000000002,9539
42.95266399999996,-8.298856000000002,9507
41.65666399999997,-5.706856000000004,65535
41.98066399999996,-7.002856000000003,65535
41.98066399999996,-6.354856000000003,65535
41.332663999999966,-5.058856000000004,8885
43.276663999999954,-3.7628560000000046,9320
42.95266399999996,-4.410856000000004,9254
42.62866399999996,-4.410856000000004,9244
42.30466399999996,-4.410856000000004,9203
41.00866399999997,-5.706856000000004,8823
41.332663999999966,-1.8188560000000056,8716
40.68466399999997,-3.114856000000005,8670
41.00866399999997,-3.114856000000005,8721
41.00866399999997,-2.4668560000000053,8744
41.332663999999966,-2.4668560000000053,8797
40.68466399999997,-4.410856000000004,8707
40.36066399999997,-4.410856000000004,8791
40.68466399999997,-3.7628560000000046,8699
40.36066399999997,-3.114856000000005,8677
41.65666399999997,-2.4668560000000053,8814
38.09266399999999,-3.7628560000000046,8911
38.74066399999998,-3.114856000000005,8855
37.76866399999999,-3.7628560000000046,8968
39.712663999999975,-3.114856000000005,8799
38.41666399999998,-3.7628560000000046,8876
40.03666399999997,-4.410856000000004,65535
40.03666399999997,-5.058856000000004,65535
39.38866399999998,-6.354856000000003,65535
39.38866399999998,-7.002856000000003,65535
42.95266399999996,-3.114856000000005,9448
41.98066399999996,-1.170856000000006,8811
42.30466399999996,-2.4668560000000053,8852
41.65666399999997,-0.5228560000000062,8909
41.98066399999996,-0.5228560000000062,8746
41.65666399999997,0.1251439999999934,8773
41.98066399999996,0.1251439999999934,8795
37.76866399999999,-5.058856000000004,8847
36.79666399999999,-4.410856000000004,8906
38.74066399999998,-4.410856000000004,8803
37.12066399999999,-4.410856000000004,8880
37.44466399999999,-5.058856000000004,9404
37.44466399999999,-7.002856000000003,65535
37.44466399999999,-6.354856000000003,65535
37.44466399999999,-5.706856000000004,9080
39.712663999999975,-3.7628560000000046,8873
42.62866399999996,-8.946856000000002,65535
42.30466399999996,-5.706856000000004,9225
42.30466399999996,-5.058856000000004,9310
42.95266399999996,-5.706856000000004,8750
41.00866399999997,-5.058856000000004,8791
40.68466399999997,-5.058856000000004,8765
41.65666399999997,-5.058856000000004,65535
41.65666399999997,-6.354856000000003,65535
36.79666399999999,-6.354856000000003,65535
37.12066399999999,-5.706856000000004,9248
37.76866399999999,-5.706856000000004,9047
38.09266399999999,-4.410856000000004,9182
37.12066399999999,-5.058856000000004,9202
36.79666399999999,-5.058856000000004,9160
37.76866399999999,-4.410856000000004,65535
37.76866399999999,-7.002856000000003,65535
38.41666399999998,-6.354856000000003,65535
38.09266399999999,-6.354856000000003,65535
48.78466399999992,1.4211439999999929,1425
56.23666399999988,8.54914399999999,7090
55.58866399999988,9.197143999999987,6895
55.91266399999988,9.197143999999987,7036
55.26466399999988,10.493143999999988,1074
55.91266399999988,12.437143999999988,1209
55.58866399999988,11.789143999999988,6735
55.58866399999988,11.141143999999988,6776
55.26466399999988,11.789143999999988,6768
55.58866399999988,10.493143999999988,6891
55.58866399999988,13.085143999999987,1166
56.88466399999987,9.845143999999989,7042
57.20866399999987,9.845143999999989,7077
56.56066399999988,9.845143999999989,7014
56.88466399999987,8.54914399999999,7129
54.940663999999884,9.845143999999989,8236
54.940663999999884,11.789143999999988,6992
55.91266399999988,13.085143999999987,1224
56.23666399999988,13.733143999999989,1268
55.91266399999988,13.733143999999989,1271
56.23666399999988,14.381143999999988,1291
56.23666399999988,15.029143999999986,1332
56.23666399999988,15.677143999999986,1387
56.56066399999988,14.381143999999988,1348
56.88466399999987,14.381143999999988,1318
56.23666399999988,13.085143999999987,1216
56.56066399999988,13.085143999999987,1296
56.88466399999987,12.437143999999988,1333
57.20866399999987,12.437143999999988,1349
57.53266399999987,12.437143999999988,1364
56.88466399999987,15.029143999999986,1344
56.56066399999988,15.677143999999986,1404
56.88466399999987,15.677143999999986,1423
56.88466399999987,16.325143999999987,1438
55.91266399999988,11.789143999999988,7061
57.20866399999987,10.493143999999988,7264
49.43266399999992,1.4211439999999929,1373
49.75666399999992,0.7731439999999932,1401
49.75666399999992,2.0691439999999925,854
50.08066399999991,2.717143999999992,835
49.75666399999992,1.4211439999999929,1354
47.81266399999993,1.4211439999999929,1309
48.136663999999925,2.0691439999999925,1353
48.46066399999992,2.0691439999999925,1334
48.136663999999925,1.4211439999999929,1323
48.78466399999992,0.1251439999999934,1426
48.46066399999992,0.1251439999999934,1405
47.81266399999993,0.1251439999999934,1366
46.84066399999993,-0.5228560000000062,1602
47.16466399999993,0.7731439999999932,1343
46.84066399999993,0.1251439999999934,1434
46.84066399999993,-1.170856000000006,1472
50.08066399999991,1.4211439999999929,1287
50.08066399999991,2.0691439999999925,1304
49.43266399999992,2.717143999999992,1251
49.75666399999992,3.365143999999992,1339
50.08066399999991,3.365143999999992,1297
49.10866399999992,2.0691439999999925,1356
49.43266399999992,2.0691439999999925,1352
48.78466399999992,0.7731439999999932,1476
48.78466399999992,-0.5228560000000062,1547
48.78466399999992,-1.170856000000006,1577
48.136663999999925,0.7731439999999932,1387
48.46066399999992,0.7731439999999932,1360
43.92466399999995,5.957143999999991,1507
44.24866399999995,5.957143999999991,1545
43.92466399999995,5.309143999999991,1452
42.95266399999996,2.717143999999992,1577
45.54466399999994,2.0691439999999925,1634
45.22066399999994,2.0691439999999925,1666
42.95266399999996,2.0691439999999925,1609
42.95266399999996,0.7731439999999932,1639
43.276663999999954,0.7731439999999932,1615
46.19266399999994,0.7731439999999932,1531
46.516663999999935,0.7731439999999932,1503
45.86866399999994,0.1251439999999934,1425
46.19266399999994,0.1251439999999934,1416
47.81266399999993,-1.170856000000006,1803
48.136663999999925,-2.4668560000000053,1501
47.48866399999993,-1.8188560000000056,1494
47.16466399999993,-1.170856000000006,1447
47.16466399999993,-0.5228560000000062,1429
46.84066399999993,-1.8188560000000056,1676
45.22066399999994,-0.5228560000000062,1460
44.89666399999994,0.1251439999999934,1502
45.22066399999994,0.7731439999999932,1541
45.54466399999994,0.7731439999999932,1613
45.86866399999994,0.7731439999999932,1722
45.22066399999994,0.1251439999999934,1561
44.89666399999994,0.7731439999999932,1552
43.92466399999995,-0.5228560000000062,1776
43.92466399999995,-1.170856000000006,1514
44.24866399999995,-1.170856000000006,1495
45.22066399999994,-1.170856000000006,1488
44.572663999999946,-0.5228560000000062,1483
44.24866399999995,0.1251439999999934,1530
44.572663999999946,0.7731439999999932,1542
43.276663999999954,-1.170856000000006,1596
42.95266399999996,-0.5228560000000062,1893
44.24866399999995,2.0691439999999925,1718
43.60066399999995,0.7731439999999932,1631
43.60066399999995,2.0691439999999925,1695
52.6726639999999,4.661143999999991,7081
52.6726639999999,5.309143999999991,7104
51.700663999999904,5.309143999999991,7049
52.0246639999999,5.309143999999991,7061
52.3486639999999,5.309143999999991,7077
51.37666399999991,4.013143999999992,7057
52.3486639999999,5.957143999999991,7071
52.0246639999999,6.60514399999999,7101
52.6726639999999,5.957143999999991,7088
52.996663999999896,5.957143999999991,7101
53.32066399999989,5.957143999999991,7095
52.996663999999896,6.60514399999999,7077
53.32066399999989,6.60514399999999,7069
52.6726639999999,6.60514399999999,7097
52.996663999999896,5.309143999999991,7116
59.15266399999986,24.101143999999977,65535
56.88466399999987,24.101143999999977,65535
56.88466399999987,23.45314399999998,65535
56.88466399999987,22.805143999999984,65535
57.20866399999987,24.74914399999998,65535
56.88466399999987,24.74914399999998,65535
56.56066399999988,24.74914399999998,65535
56.56066399999988,25.397143999999983,65535
56.56066399999988,24.101143999999977,65535
56.56066399999988,23.45314399999998,65535
56.56066399999988,26.04514399999998,65535
56.88466399999987,26.04514399999998,65535
57.20866399999987,25.397143999999983,65535
57.53266399999987,25.397143999999983,65535
56.23666399999988,26.04514399999998,65535
56.23666399999988,26.69314399999997,65535
55.91266399999988,26.69314399999997,65535
56.56066399999988,26.69314399999997,65535
56.56066399999988,27.34114399999998,65535
56.56066399999988,27.989143999999985,65535
56.23666399999988,27.989143999999985,65535
55.91266399999988,27.34114399999998,65535
56.56066399999988,22.805143999999984,65535
56.56066399999988,22.15714399999998,65535
56.56066399999988,21.50914399999997,65535
57.20866399999987,26.69314399999997,65535
39.06466399999998,-8.946856000000002,65535
38.41666399999998,-8.298856000000002,65535
45.86866399999994,11.789143999999988,2068
46.19266399999994,11.789143999999988,2055
46.19266399999994,10.493143999999988,2095
45.22066399999994,18.269143999999983,1932
45.22066399999994,18.917143999999983,1973
45.54466399999994,16.973143999999984,1759
45.22066399999994,17.621143999999987,1876
45.86866399999994,16.325143999999987,1628
45.54466399999994,18.917143999999983,1973
45.54466399999994,16.325143999999987,1654
45.54466399999994,18.269143999999983,1880
44.89666399999994,18.917143999999983,2170
46.19266399999994,16.973143999999984,1719
46.19266399999994,16.325143999999987,1685
45.86866399999994,16.973143999999984,1678
45.86866399999994,17.621143999999987,1721
46.19266399999994,15.677143999999986,1593
46.516663999999935,16.325143999999987,1658
45.54466399999994,15.677143999999986,1677
45.22066399999994,15.029143999999986,1659
45.54466399999994,15.029143999999986,1641
45.22066399999994,15.677143999999986,1724
44.572663999999946,15.677143999999986,2059
44.24866399999995,15.677143999999986,2080
43.92466399999995,16.325143999999987,2144
44.89666399999994,15.677143999999986,2023
45.54466399999994,17.621143999999987,1846
45.22066399999994,16.325143999999987,1713
46.516663999999935,16.973143999999984,1788
45.86866399999994,18.269143999999983,2080
43.92466399999995,15.677143999999986,2246
45.22066399999994,13.733143999999989,1776
47.48866399999993,19.565143999999982,697
47.16466399999993,18.917143999999983,698
47.81266399999993,18.917143999999983,676
45.54466399999994,9.845143999999989,1339
45.22066399999994,9.845143999999989,1348
45.22066399999994,10.493143999999988,1399
45.86866399999994,9.845143999999989,1364
45.86866399999994,10.493143999999988,2838
48.78466399999992,21.50914399999997,457
49.10866399999992,20.213143999999986,445
49.10866399999992,18.917143999999983,459
48.46066399999992,17.621143999999987,629
49.43266399999992,17.621143999999987,570
49.10866399999992,17.621143999999987,1312
48.136663999999925,18.269143999999983,634
49.10866399999992,18.269143999999983,567
49.43266399999992,18.269143999999983,498
49.43266399999992,16.973143999999984,601
49.75666399999992,16.973143999999984,614
49.75666399999992,16.325143999999987,600
50.08066399999991,15.677143999999986,583
50.08066399999991,15.029143999999986,581
49.43266399999992,18.917143999999983,475
47.81266399999993,20.86114399999998,595
48.136663999999925,20.86114399999998,530
48.46066399999992,20.86114399999998,517
48.46066399999992,21.50914399999997,470
49.10866399999992,19.565143999999982,441
48.136663999999925,17.621143999999987,642
48.78466399999992,22.15714399999998,561
48.78466399999992,20.86114399999998,447
49.10866399999992,20.86114399999998,424
48.78466399999992,18.269143999999983,578
48.78466399999992,17.621143999999987,651
49.10866399999992,21.50914399999997,449
48.78466399999992,20.213143999999986,552
48.46066399999992,20.213143999999986,616
48.136663999999925,19.565143999999982,645
48.46066399999992,19.565143999999982,524
48.46066399999992,18.917143999999983,506
48.46066399999992,18.269143999999983,623
48.78466399999992,19.565143999999982,480
48.78466399999992,18.917143999999983,466
47.81266399999993,18.269143999999983,667
49.10866399999992,22.15714399999998,551
49.43266399999992,21.50914399999997,574
48.136663999999925,18.917143999999983,699
48.136663999999925,20.213143999999986,665
52.636,-8.018,65535
52.312,-7.370000000000001,65535
52.312,-8.018,65535
52.636,-8.666,65535
51.988,-8.666,65535
51.988,-8.018,65535
52.96,-8.666,65535
52.96,-6.074000000000002,65535
53.28399999999999,-6.722000000000001,65535
53.60799999999999,-6.722000000000001,65535
53.60799999999999,-7.370000000000001,65535
53.60799999999999,-8.018,65535
54.25599999999999,-8.666,65535
53.93199999999999,-8.666,65535
53.93199999999999,-8.018,65535
52.312,-6.722000000000001,65535
52.636,-6.722000000000001,65535
53.93199999999999,-6.722000000000001,65535
54.25599999999999,-6.074000000000002,65535
53.28399999999999,-7.370000000000001,65535
52.96,-7.370000000000001,65535
52.312,-8.666,65535
52.96,-8.018,65535
52.636,-7.370000000000001,65535
52.96,-6.722000000000001,65535
51.988,-9.314,65535
52.312,-9.314,65535
54.579999999999984,-6.722000000000001,65535
54.579999999999984,-6.074000000000002,65535
53.28399999999999,-8.018,65535
53.28399999999999,-8.666,65535
53.28399999999999,-9.314,65535
53.93199999999999,-9.314,65535
54.25599999999999,-9.314,65535
53.60799999999999,-8.666,65535
53.60799999999999,-9.314,65535
49.43266399999992,14.381143999999988,620
49.75666399999992,14.381143999999988,588
49.75666399999992,15.029143999999986,586
49.75666399999992,13.733143999999989,597
50.08066399999991,13.733143999999989,589
49.75666399999992,15.677143999999986,599
50.40466399999991,15.029143999999986,576
49.43266399999992,13.733143999999989,606
50.40466399999991,15.677143999999986,587
50.40466399999991,13.733143999999989,586
46.19266399999994,15.029143999999986,1573
45.86866399999994,15.029143999999986,1632
45.86866399999994,14.381143999999988,1610
46.19266399999994,13.733143999999989,1665
45.86866399999994,13.733143999999989,1741
58.50466399999986,13.733143999999989,1442
58.180663999999865,13.733143999999989,1446
58.180663999999865,13.085143999999987,1418
57.85666399999987,12.437143999999988,1384
60.44866399999985,15.677143999999986,1667
60.124663999999854,15.677143999999986,1601
60.124663999999854,16.325143999999987,1639
59.800663999999855,16.325143999999987,1567
59.800663999999855,17.621143999999987,1546
59.47666399999986,18.269143999999983,1528
61.74466399999984,16.973143999999984,1678
61.420663999999846,16.973143999999984,1651
60.77266399999985,16.973143999999984,1603
65.63266399999982,22.15714399999998,2782
65.95666399999982,21.50914399999997,2742
65.63266399999982,20.86114399999998,2713
64.98466399999982,20.213143999999986,2645
64.66066399999983,20.213143999999986,2623
64.33666399999983,19.565143999999982,2317
64.01266399999983,19.565143999999982,2030
63.68866399999983,20.213143999999986,1983
64.66066399999983,18.917143999999983,2994
59.15266399999986,16.325143999999987,1503
59.15266399999986,15.029143999999986,1495
59.15266399999986,17.621143999999987,1520
57.53266399999987,14.381143999999988,1344
57.53266399999987,15.029143999999986,1364
61.09666399999985,14.381143999999988,1771
60.77266399999985,15.029143999999986,1722
60.44866399999985,15.029143999999986,1708
58.180663999999865,15.029143999999986,1421
58.50466399999986,16.325143999999987,1455
58.50466399999986,15.677143999999986,1428
63.36466399999984,13.085143999999987,2015
63.04066399999984,14.381143999999988,1952
62.39266399999984,15.677143999999986,1874
63.36466399999984,13.733143999999989,1997
63.36466399999984,14.381143999999988,1969
62.71666399999984,15.677143999999986,1902
62.39266399999984,17.621143999999987,1736
59.800663999999855,15.677143999999986,2013
55.58866399999988,13.733143999999989,1298
57.20866399999987,14.381143999999988,1328
57.85666399999987,14.381143999999988,1376
58.82866399999986,16.973143999999984,1512
58.82866399999986,16.325143999999987,1490
59.15266399999986,18.269143999999983,1524
60.44866399999985,17.621143999999987,1579
59.15266399999986,12.437143999999988,1483
59.15266399999986,13.085143999999987,1497
58.82866399999986,12.437143999999988,1459
59.47666399999986,16.325143999999987,1529
58.82866399999986,14.381143999999988,1536
59.47666399999986,15.677143999999986,1518
63.36466399999984,18.917143999999983,1936
63.04066399999984,17.621143999999987,1891
62.71666399999984,17.621143999999987,1865
63.68866399999983,19.565143999999982,1969
62.39266399999984,16.973143999999984,1780
59.800663999999855,16.973143999999984,1555
59.47666399999986,17.621143999999987,1532
57.85666399999987,13.085143999999987,1408
57.53266399999987,13.085143999999987,1389
58.50466399999986,11.789143999999988,1430
57.85666399999987,15.029143999999986,1410
57.20866399999987,13.733143999999989,1334
57.53266399999987,13.733143999999989,1395
61.74466399999984,16.325143999999987,1774
61.420663999999846,16.325143999999987,1741
61.09666399999985,16.325143999999987,1730
61.09666399999985,16.973143999999984,1698
60.124663999999854,15.029143999999986,1876
66.60466399999981,20.86114399999998,2817
67.25266399999981,20.86114399999998,2885
67.90066399999981,20.213143999999986,2955
67.57666399999981,20.213143999999986,3580
59.800663999999855,15.029143999999986,1596
58.50466399999986,15.029143999999986,1438
59.47666399999986,15.029143999999986,1581
60.44866399999985,16.325143999999987,1667
59.15266399999986,15.677143999999986,1525
57.85666399999987,13.733143999999989,1436
58.82866399999986,13.733143999999989,1483
58.50466399999986,13.085143999999987,1468
57.20866399999987,13.085143999999987,1365
56.88466399999987,13.085143999999987,1339
58.180663999999865,11.789143999999988,1401
62.06866399999984,16.973143999999984,1769
65.95666399999982,23.45314399999998,2823
59.800663999999855,14.381143999999988,5891
59.800663999999855,18.269143999999983,1537
63.04066399999984,15.029143999999986,1920
62.71666399999984,15.029143999999986,1910
62.39266399999984,16.325143999999987,1843
63.36466399999984,12.437143999999988,2048
68.5486639999998,17.621143999999987,3168
68.5486639999998,18.269143999999983,3101
68.5486639999998,18.917143999999983,3078
68.2246639999998,18.917143999999983,3034
59.800663999999855,13.085143999999987,1600
60.124663999999854,13.085143999999987,1639
59.47666399999986,16.973143999999984,1541
59.15266399999986,16.973143999999984,1533
56.56066399999988,13.733143999999989,1286
60.124663999999854,17.621143999999987,1556
57.85666399999987,16.325143999999987,1515
58.180663999999865,16.325143999999987,1477
58.180663999999865,15.677143999999986,1485
57.20866399999987,16.325143999999987,1527
57.53266399999987,15.677143999999986,1545
57.85666399999987,15.677143999999986,1516
44.89666399999994,23.45314399999998,2965
44.572663999999946,23.45314399999998,3035
44.89666399999994,24.74914399999998,2952
44.572663999999946,24.74914399999998,3071
44.572663999999946,24.101143999999977,3012
44.24866399999995,24.101143999999977,3041
47.48866399999993,25.397143999999983,2813
47.48866399999993,24.74914399999998,2753
47.16466399999993,24.74914399999998,2675
47.16466399999993,24.101143999999977,2577
47.48866399999993,22.15714399999998,2707
47.81266399999993,22.15714399999998,2793
47.16466399999993,22.15714399999998,2686
47.16466399999993,23.45314399999998,2738
47.16466399999993,22.805143999999984,2744
46.84066399999993,24.101143999999977,2658
45.86866399999994,27.34114399999998,2998
45.54466399999994,27.34114399999998,2979
45.54466399999994,27.989143999999985,3095
45.86866399999994,20.86114399999998,2870
45.86866399999994,21.50914399999997,2878
46.19266399999994,21.50914399999997,2814
46.19266399999994,27.34114399999998,2998
46.19266399999994,26.69314399999997,2989
46.516663999999935,26.69314399999997,2951
46.516663999999935,26.04514399999998,2847
47.48866399999993,22.805143999999984,2805
46.84066399999993,22.805143999999984,2618
45.54466399999994,22.15714399999998,2927
45.22066399999994,22.15714399999998,3005
44.89666399999994,22.15714399999998,3423
47.48866399999993,23.45314399999998,2771
46.516663999999935,24.101143999999977,2497
46.516663999999935,24.74914399999998,2711
45.86866399999994,24.101143999999977,2660
47.16466399999993,26.69314399999997,3029
47.16466399999993,27.34114399999998,3084
43.92466399999995,25.397143999999983,3043
44.24866399999995,24.74914399999998,2950
44.89666399999994,26.04514399999998,2837
44.89666399999994,26.69314399999997,2884
45.22066399999994,26.69314399999997,2919
45.22066399999994,27.34114399999998,2946
46.84066399999993,26.69314399999997,2990
47.48866399999993,26.69314399999997,2983
44.24866399999995,25.397143999999983,2882
43.92466399999995,26.04514399999998,3059
46.19266399999994,24.101143999999977,2705
44.572663999999946,25.397143999999983,2920
46.84066399999993,24.74914399999998,2718
46.516663999999935,21.50914399999997,2818
46.84066399999993,21.50914399999997,2825
44.572663999999946,26.69314399999997,2875
44.572663999999946,27.34114399999998,2896
44.89666399999994,27.34114399999998,3011
44.572663999999946,27.989143999999985,2916
44.24866399999995,27.989143999999985,2930
44.572663999999946,28.63714399999997,2981
45.86866399999994,22.15714399999998,2739
45.86866399999994,22.805143999999984,2633
44.24866399999995,23.45314399999998,3068
43.92466399999995,27.989143999999985,65535
46.84066399999993,27.34114399999998,3151
45.22066399999994,23.45314399999998,2940
45.54466399999994,23.45314399999998,2743
45.54466399999994,24.101143999999977,2690
45.22066399999994,24.101143999999977,2914
44.89666399999994,24.101143999999977,2984
46.19266399999994,22.15714399999998,2870
46.516663999999935,22.15714399999998,2836
45.22066399999994,21.50914399999997,3110
45.54466399999994,21.50914399999997,2958
45.54466399999994,20.86114399999998,2982
46.516663999999935,27.989143999999985,3101
46.19266399999994,27.989143999999985,3086
45.54466399999994,25.397143999999983,2804
45.22066399999994,25.397143999999983,2814
45.22066399999994,26.04514399999998,2870
47.81266399999993,24.101143999999977,2866
47.48866399999993,26.04514399999998,2956
47.81266399999993,26.04514399999998,2978
46.19266399999994,23.45314399999998,2537
45.86866399999994,23.45314399999998,2586
44.24866399999995,26.04514399999998,2864
45.22066399999994,27.989143999999985,3076
45.86866399999994,24.74914399999998,2699
46.516663999999935,25.397143999999983,2891
46.84066399999993,25.397143999999983,2774
46.19266399999994,26.04514399999998,2862
45.86866399999994,26.04514399999998,2827
43.92466399999995,23.45314399999998,3298
44.89666399999994,25.397143999999983,2925
46.19266399999994,20.86114399999998,2859
47.81266399999993,25.397143999999983,2990
44.572663999999946,22.805143999999984,3303
44.572663999999946,22.15714399999998,3445
46.516663999999935,23.45314399999998,2676
45.86866399999994,25.397143999999983,2753
44.24866399999995,27.34114399999998,3691
45.22066399999994,24.74914399999998,3016
45.54466399999994,22.805143999999984,2706
45.22066399999994,28.63714399999997,3136
44.89666399999994,28.63714399999997,3075
47.81266399999993,23.45314399999998,2923
46.19266399999994,24.74914399999998,2785
46.19266399999994,25.397143999999983,2809
43.92466399999995,24.101143999999977,3261
43.92466399999995,24.74914399999998,3274
47.81266399999993,26.69314399999997,3205
47.48866399999993,24.101143999999977,2798
46.84066399999993,26.04514399999998,3606
46.19266399999994,22.805143999999984,2930
47.48866399999993,27.34114399999998,3158
46.19266399999994,20.213143999999986,65535
45.54466399999994,26.04514399999998,2962
44.24866399999995,26.69314399999997,2880
45.86866399999994,27.989143999999985,3134
47.81266399999993,5.957143999999991,7066
