51.56399999999999,-0.4100000000000028,65535
51.887999999999984,-0.4100000000000028,65535
50.91599999999999,-1.7060000000000022,65535
51.23999999999999,-1.0580000000000025,65535
51.56399999999999,-1.0580000000000025,65535
51.23999999999999,-1.7060000000000022,65535
51.56399999999999,0.2379999999999968,65535
47.16466399999993,9.845143999999989,1146
47.48866399999993,9.845143999999989,1138
48.136663999999925,14.381143999999988,1004
47.81266399999993,13.085143999999987,1072
47.16466399999993,11.141143999999988,1130
47.48866399999993,11.789143999999988,1157
48.136663999999925,16.325143999999987,865
47.48866399999993,12.437143999999988,1082
48.136663999999925,15.677143999999986,879
47.16466399999993,10.493143999999988,1231
47.16466399999993,9.197143999999987,1148
48.136663999999925,13.733143999999989,1027
48.136663999999925,15.029143999999986,919
47.81266399999993,16.973143999999984,895
48.46066399999992,14.381143999999988,3784
47.48866399999993,13.085143999999987,1075
47.16466399999993,13.085143999999987,1090
47.48866399999993,14.381143999999988,1111
47.48866399999993,13.733143999999989,1191
47.48866399999993,15.029143999999986,1122
46.516663999999935,13.733143999999989,1195
46.84066399999993,13.733143999999989,1156
46.84066399999993,13.085143999999987,1100
48.78466399999992,14.381143999999988,65535
47.16466399999993,15.677143999999986,1069
46.516663999999935,14.381143999999988,1194
46.84066399999993,14.381143999999988,1161
47.16466399999993,14.381143999999988,2405
46.516663999999935,15.029143999999986,1237
47.81266399999993,16.325143999999987,892
47.16466399999993,15.029143999999986,1043
47.81266399999993,15.677143999999986,976
47.48866399999993,15.677143999999986,1010
46.516663999999935,13.085143999999987,2774
46.84066399999993,12.437143999999988,1139
48.136663999999925,11.789143999999988,1077
47.81266399999993,12.437143999999988,1089
46.84066399999993,15.677143999999986,1245
46.516663999999935,15.677143999999986,1300
46.84066399999993,16.325143999999987,1185
47.81266399999993,14.381143999999988,1045
48.78466399999992,16.973143999999984,735
48.136663999999925,16.973143999999984,834
48.46066399999992,13.733143999999989,1067
47.81266399999993,13.733143999999989,1034
50.08066399999991,8.54914399999999,1116
48.46066399999992,9.845143999999989,1106
51.05266399999991,7.25314399999999,1151
51.37666399999991,7.25314399999999,1164
51.37666399999991,6.60514399999999,1161
48.46066399999992,16.325143999999987,888
48.46066399999992,16.973143999999984,781
48.78466399999992,16.325143999999987,954
48.46066399999992,15.677143999999986,898
48.78466399999992,15.677143999999986,947
47.48866399999993,16.325143999999987,959
47.16466399999993,16.325143999999987,1134
46.19266399999994,14.381143999999988,1252
45.86866399999994,15.677143999999986,1348
43.60066399999995,16.325143999999987,2515
45.54466399999994,14.381143999999988,1366
45.54466399999994,13.733143999999989,1389
48.136663999999925,13.085143999999987,1068
48.46066399999992,11.141143999999988,1074
48.136663999999925,11.141143999999988,1083
48.46066399999992,7.90114399999999,1123
49.10866399999992,8.54914399999999,1115
48.78466399999992,2.0691439999999925,1244
49.10866399999992,7.25314399999999,1131
52.0246639999999,7.90114399999999,1190
47.16466399999993,11.789143999999988,1152
49.43266399999992,11.141143999999988,1040
53.64466399999989,9.845143999999989,1149
50.72866399999991,4.013143999999992,1191
51.05266399999991,11.141143999999988,1018
47.48866399999993,11.141143999999988,1113
46.84066399999993,11.789143999999988,3062
46.516663999999935,11.141143999999988,3031
45.54466399999994,11.141143999999988,2925
46.19266399999994,11.141143999999988,2997
45.86866399999994,11.141143999999988,2981
44.572663999999946,11.141143999999988,2772
43.92466399999995,12.437143999999988,65535
45.54466399999994,12.437143999999988,3012
45.54466399999994,11.789143999999988,2975
48.78466399999992,15.029143999999986,1692
47.81266399999993,15.029143999999986,930
47.81266399999993,11.141143999999988,1088
50.40466399999991,18.917143999999983,479
52.3486639999999,20.86114399999998,258
54.616663999999886,18.269143999999983,1136
54.29266399999989,18.917143999999983,1110
49.10866399999992,14.381143999999988,65535
50.08066399999991,14.381143999999988,882
48.78466399999992,13.733143999999989,1160
52.6726639999999,13.085143999999987,1018
52.3486639999999,13.085143999999987,1015
53.96866399999989,12.437143999999988,1159
54.29266399999989,12.437143999999988,1162
47.48866399999993,8.54914399999999,1160
47.81266399999993,17.621143999999987,924
47.48866399999993,18.917143999999983,920
47.48866399999993,20.86114399999998,1436
46.84066399999993,23.45314399999998,1918
44.572663999999946,26.04514399999998,2367
47.48866399999993,21.50914399999997,1472
47.81266399999993,21.50914399999997,1868
48.46066399999992,22.15714399999998,997
47.48866399999993,16.973143999999984,65535
49.10866399999992,16.325143999999987,816
49.75666399999992,18.269143999999983,559
46.19266399999994,13.085143999999987,2303
41.98066399999996,12.437143999999988,4005
43.60066399999995,10.493143999999988,4166
45.54466399999994,9.197143999999987,1268
47.81266399999993,22.805143999999984,1723
49.75666399999992,22.805143999999984,257
50.72866399999991,3.365143999999992,1202
51.05266399999991,4.013143999999992,1195
50.72866399999991,4.661143999999991,1189
51.05266399999991,4.661143999999991,1193
51.05266399999991,3.365143999999992,1204
51.05266399999991,2.717143999999992,1235
50.40466399999991,4.661143999999991,1203
50.72866399999991,2.717143999999992,1216
50.40466399999991,4.013143999999992,1208
51.05266399999991,5.309143999999991,1201
50.72866399999991,5.309143999999991,1182
51.37666399999991,3.365143999999992,1240
51.37666399999991,4.661143999999991,1209
50.72866399999991,5.957143999999991,1167
50.40466399999991,5.957143999999991,1184
50.40466399999991,3.365143999999992,1216
50.40466399999991,5.309143999999991,1192
50.08066399999991,5.309143999999991,1219
49.75666399999992,5.309143999999991,1244
49.75666399999992,5.957143999999991,1215
51.37666399999991,5.309143999999991,1256
51.700663999999904,4.661143999999991,1244
50.08066399999991,4.013143999999992,1275
50.08066399999991,5.957143999999991,1254
50.08066399999991,4.661143999999991,1231
49.43266399999992,5.309143999999991,1317
49.43266399999992,5.957143999999991,1227
52.0246639999999,4.661143999999991,2229
52.3486639999999,4.661143999999991,2264
50.72866399999991,15.029143999999986,924
51.05266399999991,15.029143999999986,900
51.05266399999991,13.733143999999989,922
50.40466399999991,13.085143999999987,1007
49.10866399999992,7.90114399999999,1118
48.78466399999992,7.90114399999999,1115
50.40466399999991,7.90114399999999,1138
50.08066399999991,7.90114399999999,1120
49.75666399999992,7.90114399999999,1133
49.43266399999992,7.90114399999999,1134
49.75666399999992,8.54914399999999,1125
49.43266399999992,8.54914399999999,1121
49.43266399999992,9.197143999999987,1124
49.10866399999992,9.197143999999987,1108
47.48866399999993,7.90114399999999,1163
47.81266399999993,7.90114399999999,1149
48.136663999999925,7.90114399999999,1132
48.136663999999925,9.845143999999989,1121
47.81266399999993,9.197143999999987,1154
47.81266399999993,8.54914399999999,1153
47.81266399999993,9.845143999999989,1133
54.940663999999884,9.197143999999987,1214
54.616663999999886,9.197143999999987,1200
54.29266399999989,9.197143999999987,1208
53.96866399999989,9.197143999999987,1205
53.64466399999989,9.197143999999987,1190
54.616663999999886,9.845143999999989,1192
54.29266399999989,9.845143999999989,1181
53.96866399999989,9.845143999999989,1167
53.64466399999989,10.493143999999988,1151
53.96866399999989,10.493143999999988,1178
53.96866399999989,11.141143999999988,1151
54.29266399999989,10.493143999999988,1203
53.32066399999989,10.493143999999988,1130
54.940663999999884,11.141143999999988,1249
52.6726639999999,13.733143999999989,1012
52.3486639999999,13.733143999999989,1011
52.3486639999999,14.381143999999988,1000
52.0246639999999,14.381143999999988,984
52.0246639999999,11.789143999999988,1054
52.3486639999999,11.789143999999988,1047
52.3486639999999,12.437143999999988,1027
52.0246639999999,15.029143999999986,963
51.700663999999904,14.381143999999988,964
52.0246639999999,13.733143999999989,985
51.700663999999904,13.733143999999989,972
52.6726639999999,12.437143999999988,1062
53.32066399999989,11.789143999999988,1138
53.96866399999989,11.789143999999988,1158
53.64466399999989,11.789143999999988,1132
53.64466399999989,11.141143999999988,1146
53.32066399999989,11.141143999999988,1155
52.996663999999896,11.789143999999988,1112
52.996663999999896,12.437143999999988,1104
52.996663999999896,13.733143999999989,1020
53.64466399999989,13.733143999999989,1096
53.96866399999989,13.733143999999989,1130
54.29266399999989,13.085143999999987,1172
53.96866399999989,13.085143999999987,1139
53.32066399999989,13.733143999999989,1067
52.0246639999999,13.085143999999987,1068
51.700663999999904,13.085143999999987,1006
52.996663999999896,14.381143999999988,1122
52.0246639999999,12.437143999999988,1032
51.700663999999904,12.437143999999988,1031
51.37666399999991,11.789143999999988,1021
51.37666399999991,12.437143999999988,1004
52.6726639999999,11.789143999999988,1070
53.64466399999989,13.085143999999987,1123
53.32066399999989,13.085143999999987,1065
52.996663999999896,13.085143999999987,1038
53.64466399999989,12.437143999999988,1108
51.37666399999991,13.733143999999989,948
53.32066399999989,12.437143999999988,1136
52.6726639999999,14.381143999999988,1033
51.37666399999991,13.085143999999987,992
53.32066399999989,14.381143999999988,1109
52.3486639999999,15.029143999999986,980
52.0246639999999,15.677143999999986,931
51.700663999999904,15.029143999999986,923
51.05266399999991,16.325143999999987,809
51.05266399999991,16.973143999999984,785
51.700663999999904,15.677143999999986,913
51.37666399999991,15.677143999999986,830
51.37666399999991,16.325143999999987,821
50.72866399999991,13.085143999999987,958
50.72866399999991,12.437143999999988,965
51.05266399999991,13.085143999999987,946
51.05266399999991,14.381143999999988,914
50.40466399999991,12.437143999999988,971
50.40466399999991,11.789143999999988,987
50.08066399999991,12.437143999999988,1036
50.72866399999991,11.789143999999988,997
51.05266399999991,12.437143999999988,979
50.72866399999991,14.381143999999988,915
51.37666399999991,14.381143999999988,958
50.72866399999991,13.733143999999989,935
50.40466399999991,14.381143999999988,897
51.37666399999991,15.029143999999986,861
55.26466399999988,9.197143999999987,1788
55.58866399999988,8.54914399999999,1822
55.91266399999988,8.54914399999999,2239
56.23666399999988,9.197143999999987,2247
56.23666399999988,10.493143999999988,2200
56.23666399999988,9.845143999999989,2187
55.91266399999988,9.845143999999989,2125
56.56066399999988,9.197143999999987,2257
56.56066399999988,8.54914399999999,2300
51.05266399999991,6.60514399999999,1155
51.700663999999904,7.90114399999999,1171
50.72866399999991,6.60514399999999,1146
51.700663999999904,7.25314399999999,1168
50.72866399999991,7.25314399999999,1139
52.0246639999999,7.25314399999999,1186
52.3486639999999,7.90114399999999,1204
51.05266399999991,5.957143999999991,1181
50.40466399999991,7.25314399999999,1158
51.700663999999904,6.60514399999999,1177
51.700663999999904,5.957143999999991,1183
52.3486639999999,9.197143999999987,1141
51.700663999999904,8.54914399999999,1175
52.0246639999999,8.54914399999999,1160
52.3486639999999,8.54914399999999,1153
51.37666399999991,7.90114399999999,1166
52.3486639999999,7.25314399999999,1218
51.37666399999991,5.957143999999991,1181
50.72866399999991,7.90114399999999,1129
51.37666399999991,9.197143999999987,1148
51.700663999999904,9.197143999999987,1173
50.40466399999991,6.60514399999999,1186
51.05266399999991,7.90114399999999,1142
51.37666399999991,8.54914399999999,1181
52.0246639999999,5.957143999999991,1191
52.3486639999999,6.60514399999999,1226
51.05266399999991,8.54914399999999,1184
52.0246639999999,9.197143999999987,1157
52.6726639999999,9.197143999999987,1170
52.0246639999999,9.845143999999989,1142
51.700663999999904,9.845143999999989,1123
51.37666399999991,9.845143999999989,1131
50.72866399999991,8.54914399999999,1118
51.05266399999991,9.845143999999989,1188
50.72866399999991,9.845143999999989,1156
50.40466399999991,9.845143999999989,1135
51.05266399999991,9.197143999999987,1160
50.40466399999991,9.197143999999987,1113
50.08066399999991,9.197143999999987,1105
51.05266399999991,10.493143999999988,1042
50.40466399999991,8.54914399999999,1112
50.72866399999991,9.197143999999987,1143
49.75666399999992,9.197143999999987,1099
52.996663999999896,9.197143999999987,1173
52.3486639999999,9.845143999999989,1125
52.996663999999896,8.54914399999999,1181
52.996663999999896,7.90114399999999,1193
53.32066399999989,7.90114399999999,1210
53.32066399999989,7.25314399999999,1274
53.64466399999989,7.25314399999999,1317
52.996663999999896,10.493143999999988,1109
52.6726639999999,10.493143999999988,1117
52.6726639999999,9.845143999999989,1126
53.32066399999989,9.845143999999989,1144
53.32066399999989,9.197143999999987,1167
53.64466399999989,8.54914399999999,1204
53.32066399999989,8.54914399999999,1185
52.6726639999999,8.54914399999999,1198
52.0246639999999,10.493143999999988,1109
52.0246639999999,11.141143999999988,1062
51.700663999999904,11.141143999999988,1058
52.6726639999999,7.25314399999999,1794
52.996663999999896,7.25314399999999,1822
52.6726639999999,7.90114399999999,1215
53.64466399999989,7.90114399999999,1271
52.996663999999896,11.141143999999988,1082
52.6726639999999,11.141143999999988,1077
52.3486639999999,10.493143999999988,1104
52.996663999999896,9.845143999999989,1176
51.700663999999904,10.493143999999988,1077
51.37666399999991,10.493143999999988,1074
51.700663999999904,11.789143999999988,1043
52.3486639999999,11.141143999999988,1085
51.37666399999991,11.141143999999988,1059
51.05266399999991,11.789143999999988,1003
49.10866399999992,11.141143999999988,1047
48.78466399999992,11.141143999999988,1059
48.46066399999992,11.789143999999988,1070
49.43266399999992,11.789143999999988,1031
50.08066399999991,11.789143999999988,1005
49.75666399999992,12.437143999999988,1070
49.10866399999992,11.789143999999988,1089
48.78466399999992,12.437143999999988,1104
48.46066399999992,12.437143999999988,1092
49.10866399999992,12.437143999999988,1092
48.78466399999992,13.085143999999987,1113
48.136663999999925,12.437143999999988,1089
47.81266399999993,11.789143999999988,1085
48.136663999999925,10.493143999999988,1102
47.81266399999993,10.493143999999988,1121
48.78466399999992,10.493143999999988,1071
47.48866399999993,10.493143999999988,1138
48.46066399999992,10.493143999999988,1117
49.43266399999992,13.085143999999987,1131
48.46066399999992,13.085143999999987,1089
49.43266399999992,10.493143999999988,1079
49.75666399999992,9.845143999999989,1090
49.75666399999992,10.493143999999988,1084
50.40466399999991,11.141143999999988,1028
50.08066399999991,11.141143999999988,1021
50.72866399999991,11.141143999999988,1015
49.75666399999992,11.141143999999988,1035
48.78466399999992,11.789143999999988,1094
50.40466399999991,10.493143999999988,1073
50.08066399999991,9.845143999999989,1093
50.08066399999991,10.493143999999988,1061
49.43266399999992,12.437143999999988,1053
49.75666399999992,11.789143999999988,1023
49.10866399999992,13.085143999999987,1128
50.72866399999991,10.493143999999988,1051
49.10866399999992,10.493143999999988,1064
48.78466399999992,9.845143999999989,1097
48.46066399999992,8.54914399999999,1128
48.46066399999992,9.197143999999987,1129
48.78466399999992,9.197143999999987,1101
48.78466399999992,8.54914399999999,1107
50.08066399999991,7.25314399999999,1173
49.75666399999992,6.60514399999999,1191
49.43266399999992,6.60514399999999,1186
49.10866399999992,6.60514399999999,1178
49.43266399999992,7.25314399999999,1148
49.75666399999992,7.25314399999999,1151
49.10866399999992,5.957143999999991,1210
48.78466399999992,7.25314399999999,1137
50.08066399999991,6.60514399999999,1188
47.48866399999993,9.197143999999987,1142
48.136663999999925,8.54914399999999,1158
48.136663999999925,9.197143999999987,1147
47.81266399999993,7.25314399999999,1159
49.43266399999992,9.845143999999989,1124
49.10866399999992,9.845143999999989,1113
53.64466399999989,14.381143999999988,1103
50.08066399999991,13.085143999999987,914
49.75666399999992,13.085143999999987,935
45.86866399999994,9.197143999999987,1258
46.19266399999994,9.197143999999987,1244
46.516663999999935,8.54914399999999,1190
46.516663999999935,9.197143999999987,1239
46.19266399999994,8.54914399999999,1256
47.16466399999993,8.54914399999999,1157
45.86866399999994,4.661143999999991,1326
46.84066399999993,9.845143999999989,1173
45.22066399999994,5.957143999999991,1310
45.22066399999994,5.309143999999991,1341
45.86866399999994,5.957143999999991,1260
45.54466399999994,5.957143999999991,1265
44.89666399999994,4.661143999999991,1357
44.89666399999994,5.309143999999991,1409
44.572663999999946,4.661143999999991,1389
44.24866399999995,4.661143999999991,1403
43.92466399999995,4.661143999999991,1387
46.19266399999994,7.25314399999999,1210
48.78466399999992,5.957143999999991,1165
48.136663999999925,6.60514399999999,1186
48.46066399999992,6.60514399999999,1155
48.78466399999992,6.60514399999999,1151
47.16466399999993,7.90114399999999,1168
48.136663999999925,7.25314399999999,1134
48.46066399999992,7.25314399999999,1146
46.516663999999935,6.60514399999999,1191
46.84066399999993,6.60514399999999,1188
46.84066399999993,7.25314399999999,1184
46.516663999999935,5.957143999999991,1215
46.19266399999994,5.957143999999991,1229
46.84066399999993,8.54914399999999,1161
46.84066399999993,7.90114399999999,1175
45.86866399999994,5.309143999999991,1351
46.19266399999994,6.60514399999999,1204
45.86866399999994,6.60514399999999,1213
47.48866399999993,6.60514399999999,1196
47.48866399999993,7.25314399999999,1177
47.16466399999993,7.25314399999999,1171
49.10866399999992,4.013143999999992,1347
49.75666399999992,4.661143999999991,1257
49.43266399999992,4.661143999999991,1328
49.10866399999992,5.309143999999991,1289
46.19266399999994,4.661143999999991,1342
46.84066399999993,9.197143999999987,1164
46.19266399999994,5.309143999999991,1309
46.516663999999935,5.309143999999991,1307
45.54466399999994,6.60514399999999,1278
45.54466399999994,5.309143999999991,1291
43.60066399999995,4.013143999999992,1418
43.60066399999995,3.365143999999992,1512
42.62866399999996,2.717143999999992,1566
43.276663999999954,2.717143999999992,1528
45.54466399999994,4.661143999999991,1308
45.22066399999994,4.661143999999991,1315
47.16466399999993,5.309143999999991,1253
47.16466399999993,5.957143999999991,1243
46.19266399999994,7.90114399999999,1200
49.75666399999992,2.717143999999992,1326
49.10866399999992,2.717143999999992,1286
48.78466399999992,2.717143999999992,1327
45.86866399999994,3.365143999999992,1494
46.84066399999993,3.365143999999992,1408
46.516663999999935,3.365143999999992,1445
46.19266399999994,3.365143999999992,1469
47.16466399999993,6.60514399999999,1208
49.10866399999992,3.365143999999992,1341
45.54466399999994,4.013143999999992,1369
46.516663999999935,7.25314399999999,1193
47.16466399999993,4.661143999999991,1322
46.84066399999993,4.661143999999991,1344
46.516663999999935,4.661143999999991,1417
46.84066399999993,5.957143999999991,1266
47.81266399999993,3.365143999999992,1351
47.48866399999993,4.013143999999992,1319
48.136663999999925,4.013143999999992,1368
47.81266399999993,4.013143999999992,1339
47.48866399999993,4.661143999999991,1318
47.16466399999993,3.365143999999992,1412
46.84066399999993,4.013143999999992,1458
48.46066399999992,5.957143999999991,1235
46.19266399999994,2.717143999999992,1556
47.16466399999993,2.0691439999999925,1454
46.516663999999935,2.717143999999992,1609
46.84066399999993,2.717143999999992,1606
46.84066399999993,2.0691439999999925,1540
47.16466399999993,2.717143999999992,1428
44.572663999999946,5.309143999999991,1400
44.572663999999946,5.957143999999991,1451
44.89666399999994,6.60514399999999,1380
44.572663999999946,6.60514399999999,1415
43.60066399999995,5.309143999999991,1410
43.92466399999995,7.25314399999999,1534
43.60066399999995,6.60514399999999,1525
43.276663999999954,6.60514399999999,1542
43.276663999999954,5.957143999999991,1426
45.86866399999994,8.54914399999999,1265
45.54466399999994,8.54914399999999,1272
48.136663999999925,3.365143999999992,1324
48.46066399999992,3.365143999999992,1312
48.46066399999992,2.717143999999992,1272
47.48866399999993,5.309143999999991,1477
46.516663999999935,9.845143999999989,1184
46.84066399999993,10.493143999999988,1213
47.81266399999993,5.309143999999991,1336
45.22066399999994,6.60514399999999,1297
46.19266399999994,4.013143999999992,1424
45.86866399999994,4.013143999999992,1407
45.22066399999994,4.013143999999992,1462
44.89666399999994,4.013143999999992,1520
46.84066399999993,5.309143999999991,1281
48.136663999999925,-1.8188560000000056,1345
48.136663999999925,0.1251439999999934,1346
48.136663999999925,-0.5228560000000062,1394
47.48866399999993,-0.5228560000000062,1393
47.16466399999993,-1.8188560000000056,1433
47.48866399999993,0.7731439999999932,1348
47.16466399999993,0.1251439999999934,1381
45.86866399999994,7.25314399999999,1219
48.136663999999925,5.309143999999991,1370
49.10866399999992,4.661143999999991,1375
48.46066399999992,4.013143999999992,1370
48.136663999999925,4.661143999999991,1390
47.81266399999993,6.60514399999999,1276
47.48866399999993,5.957143999999991,1294
48.136663999999925,5.957143999999991,1406
45.86866399999994,7.90114399999999,1214
46.516663999999935,7.90114399999999,1184
49.43266399999992,3.365143999999992,1358
49.43266399999992,4.013143999999992,1347
48.136663999999925,2.717143999999992,1545
47.81266399999993,2.717143999999992,1512
47.48866399999993,2.717143999999992,1445
50.40466399999991,2.717143999999992,1225
48.46066399999992,-4.410856000000004,1480
48.46066399999992,-3.7628560000000046,1435
48.46066399999992,-3.114856000000005,1420
48.46066399999992,-2.4668560000000053,1391
47.48866399999993,1.4211439999999929,1399
47.16466399999993,1.4211439999999929,1420
46.516663999999935,4.013143999999992,1477
43.60066399999995,4.661143999999991,1410
44.89666399999994,2.717143999999992,1617
45.22066399999994,2.717143999999992,1588
45.54466399999994,3.365143999999992,1528
45.22066399999994,3.365143999999992,1475
47.48866399999993,3.365143999999992,1509
46.19266399999994,9.845143999999989,1222
47.81266399999993,2.0691439999999925,1344
47.48866399999993,2.0691439999999925,1477
45.86866399999994,2.717143999999992,1547
44.89666399999994,5.957143999999991,1470
45.22066399999994,1.4211439999999929,1598
44.89666399999994,1.4211439999999929,1570
44.89666399999994,2.0691439999999925,1826
43.276663999999954,2.0691439999999925,1548
43.60066399999995,1.4211439999999929,1531
48.78466399999992,4.661143999999991,1422
48.78466399999992,5.309143999999991,1278
46.19266399999994,2.0691439999999925,1622
45.86866399999994,1.4211439999999929,1553
46.19266399999994,1.4211439999999929,1594
44.572663999999946,4.013143999999992,1615
44.89666399999994,3.365143999999992,1596
43.92466399999995,4.013143999999992,1472
44.24866399999995,4.013143999999992,1489
44.89666399999994,-0.5228560000000062,1394
45.54466399999994,0.1251439999999934,1354
46.516663999999935,0.1251439999999934,1383
44.572663999999946,2.0691439999999925,1618
49.75666399999992,4.013143999999992,1341
43.92466399999995,3.365143999999992,1641
43.92466399999995,2.717143999999992,1672
44.24866399999995,3.365143999999992,1696
44.572663999999946,3.365143999999992,1739
49.10866399999992,0.1251439999999934,1431
49.43266399999992,0.7731439999999932,1379
49.43266399999992,-1.8188560000000056,1436
49.10866399999992,-1.170856000000006,1411
49.10866399999992,-0.5228560000000062,1378
49.10866399999992,0.7731439999999932,1443
49.10866399999992,1.4211439999999929,1370
47.81266399999993,-1.8188560000000056,1375
47.81266399999993,-2.4668560000000053,1407
47.81266399999993,-3.114856000000005,1420
48.136663999999925,-3.7628560000000046,1477
44.572663999999946,9.197143999999987,1376
44.89666399999994,8.54914399999999,1314
45.22066399999994,9.197143999999987,1279
45.54466399999994,10.493143999999988,1327
44.572663999999946,10.493143999999988,2758
44.89666399999994,10.493143999999988,1393
44.89666399999994,9.845143999999989,1525
48.46066399999992,5.309143999999991,1488
50.91599999999999,-1.0580000000000025,65535
51.23999999999999,-0.4100000000000028,65535
50.91599999999999,-0.4100000000000028,65535
51.23999999999999,-2.354000000000002,65535
51.56399999999999,-2.354000000000002,65535
51.56399999999999,-3.0020000000000016,65535
50.91599999999999,-2.354000000000002,65535
53.50799999999997,-3.0020000000000016,65535
53.183999999999976,-2.354000000000002,65535
53.183999999999976,-3.0020000000000016,65535
52.85999999999998,-2.354000000000002,65535
52.21199999999998,-1.0580000000000025,65535
51.887999999999984,-1.0580000000000025,65535
52.53599999999998,-1.0580000000000025,65535
52.53599999999998,-1.7060000000000022,65535
52.85999999999998,-1.7060000000000022,65535
53.50799999999997,-2.354000000000002,65535
52.85999999999998,-1.0580000000000025,65535
52.53599999999998,1.5339999999999965,65535
52.53599999999998,0.8859999999999966,65535
52.53599999999998,0.2379999999999968,65535
52.53599999999998,-0.4100000000000028,65535
53.50799999999997,-1.7060000000000022,65535
53.183999999999976,-1.7060000000000022,65535
53.183999999999976,-1.0580000000000025,65535
52.85999999999998,-0.4100000000000028,65535
51.887999999999984,-2.354000000000002,65535
52.21199999999998,-2.354000000000002,65535
55.77599999999996,-2.354000000000002,65535
53.83199999999997,-1.0580000000000025,65535
53.83199999999997,-1.7060000000000022,65535
55.127999999999965,-1.7060000000000022,65535
54.80399999999997,-1.7060000000000022,65535
54.47999999999997,-1.7060000000000022,65535
54.15599999999997,-1.0580000000000025,65535
52.21199999999998,-1.7060000000000022,65535
53.50799999999997,-1.0580000000000025,65535
55.77599999999996,-3.0020000000000016,65535
55.45199999999996,-1.7060000000000022,65535
57.07199999999995,-2.354000000000002,65535
56.74799999999996,-3.0020000000000016,65535
56.42399999999996,-3.0020000000000016,65535
56.09999999999996,-3.650000000000001,65535
50.91599999999999,-3.0020000000000016,65535
50.91599999999999,-3.650000000000001,65535
50.59199999999999,-3.650000000000001,65535
50.59199999999999,-4.298000000000001,65535
51.23999999999999,-3.0020000000000016,65535
50.268,-4.946000000000001,65535
55.77599999999996,-3.650000000000001,65535
55.77599999999996,-4.298000000000001,65535
52.21199999999998,-0.4100000000000028,65535
52.53599999999998,-2.354000000000002,65535
51.56399999999999,-1.7060000000000022,65535
51.56399999999999,-3.650000000000001,65535
51.887999999999984,-4.298000000000001,65535
51.56399999999999,-4.298000000000001,65535
51.887999999999984,-1.7060000000000022,65535
52.21199999999998,-3.0020000000000016,65535
51.23999999999999,0.2379999999999968,65535
50.91599999999999,0.2379999999999968,65535
52.21199999999998,0.2379999999999968,65535
53.83199999999997,-3.0020000000000016,65535
54.15599999999997,-3.0020000000000016,65535
54.47999999999997,-3.0020000000000016,65535
55.127999999999965,-3.650000000000001,65535
54.80399999999997,-3.0020000000000016,65535
53.83199999999997,-2.354000000000002,65535
54.15599999999997,-0.4100000000000028,65535
54.47999999999997,-1.0580000000000025,65535
53.83199999999997,-0.4100000000000028,65535
53.183999999999976,-3.650000000000001,65535
53.183999999999976,-4.298000000000001,65535
52.85999999999998,-3.0020000000000016,65535
52.53599999999998,-3.0020000000000016,65535
51.887999999999984,-3.0020000000000016,65535
51.23999999999999,0.8859999999999966,65535
51.887999999999984,0.2379999999999968,65535
52.21199999999998,0.8859999999999966,65535
51.887999999999984,-4.946000000000001,65535
52.53599999999998,-3.650000000000001,65535
52.21199999999998,-4.298000000000001,65535
53.183999999999976,-0.4100000000000028,65535
51.23999999999999,-3.650000000000001,65535
51.887999999999984,-3.650000000000001,65535
52.21199999999998,-3.650000000000001,65535
51.56399999999999,0.8859999999999966,65535
51.887999999999984,0.8859999999999966,65535
52.85999999999998,0.8859999999999966,65535
53.50799999999997,-0.4100000000000028,65535
56.09999999999996,-4.298000000000001,65535
56.74799999999996,-4.946000000000001,65535
56.74799999999996,-4.298000000000001,65535
56.42399999999996,-4.946000000000001,65535
56.42399999999996,-4.298000000000001,65535
56.09999999999996,-4.946000000000001,65535
57.39599999999995,-4.298000000000001,65535
57.39599999999995,-3.0020000000000016,65535
57.39599999999995,-3.650000000000001,65535
56.42399999999996,-3.650000000000001,65535
57.07199999999995,-3.650000000000001,65535
57.07199999999995,-4.298000000000001,65535
56.74799999999996,-3.650000000000001,65535
59.15266399999986,27.34114399999998,65535
59.47666399999986,26.69314399999997,65535
59.47666399999986,26.04514399999998,65535
59.15266399999986,26.04514399999998,65535
59.15266399999986,24.74914399999998,65535
59.15266399999986,25.397143999999983,65535
59.47666399999986,25.397143999999983,65535
58.50466399999986,26.69314399999997,65535
58.82866399999986,26.69314399999997,65535
57.85666399999987,26.04514399999998,65535
58.180663999999865,26.04514399999998,65535
58.180663999999865,26.69314399999997,65535
58.82866399999986,26.04514399999998,65535
58.50466399999986,25.397143999999983,65535
58.82866399999986,25.397143999999983,65535
58.82866399999986,24.74914399999998,65535
58.180663999999865,27.34114399999998,65535
57.85666399999987,27.34114399999998,65535
63.68866399999983,27.34114399999998,65535
60.124663999999854,24.74914399999998,65535
60.44866399999985,24.74914399999998,65535
60.44866399999985,25.397143999999983,65535
60.77266399999985,25.397143999999983,65535
61.09666399999985,26.04514399999998,65535
60.77266399999985,26.04514399999998,65535
60.77266399999985,26.69314399999997,65535
61.09666399999985,25.397143999999983,65535
61.09666399999985,26.69314399999997,65535
61.420663999999846,26.69314399999997,65535
61.74466399999984,27.34114399999998,65535
62.06866399999984,27.34114399999998,65535
62.39266399999984,27.34114399999998,65535
62.71666399999984,27.34114399999998,65535
64.01266399999983,27.34114399999998,65535
63.36466399999984,27.34114399999998,65535
63.04066399999984,27.34114399999998,65535
63.04066399999984,27.989143999999985,65535
64.33666399999983,27.989143999999985,65535
64.33666399999983,27.34114399999998,65535
64.66066399999983,27.34114399999998,65535
64.66066399999983,26.69314399999997,4756
64.98466399999982,25.397143999999983,4519
64.66066399999983,26.04514399999998,4736
64.98466399999982,26.04514399999998,4720
66.28066399999982,25.397143999999983,65535
65.95666399999982,24.74914399999998,4432
65.63266399999982,24.74914399999998,4436
65.63266399999982,25.397143999999983,4478
65.30866399999982,25.397143999999983,4499
66.60466399999981,25.397143999999983,65535
64.01266399999983,24.74914399999998,4656
64.01266399999983,24.101143999999977,4691
64.01266399999983,23.45314399999998,4715
63.68866399999983,23.45314399999998,4727
63.68866399999983,22.805143999999984,4752
63.68866399999983,26.04514399999998,65535
63.68866399999983,25.397143999999983,65535
63.68866399999983,26.69314399999997,65535
60.44866399999985,26.69314399999997,65535
64.01266399999983,27.989143999999985,65535
62.71666399999984,22.805143999999984,65535
62.39266399999984,22.805143999999984,65535
62.06866399999984,22.805143999999984,65535
62.06866399999984,23.45314399999998,65535
61.74466399999984,23.45314399999998,65535
61.420663999999846,23.45314399999998,65535
61.09666399999985,23.45314399999998,65535
61.09666399999985,24.101143999999977,65535
61.09666399999985,24.74914399999998,65535
60.77266399999985,24.74914399999998,65535
63.04066399999984,21.50914399999997,65535
63.04066399999984,22.15714399999998,65535
63.04066399999984,22.805143999999984,65535
62.39266399999984,26.04514399999998,65535
62.06866399999984,25.397143999999983,65535
61.74466399999984,25.397143999999983,65535
61.74466399999984,24.74914399999998,65535
61.74466399999984,24.101143999999977,65535
61.420663999999846,24.101143999999977,65535
62.39266399999984,26.69314399999997,65535
64.66066399999983,25.397143999999983,4588
64.66066399999983,24.74914399999998,4606
64.33666399999983,24.74914399999998,4617
63.36466399999984,22.805143999999984,4777
67.25266399999981,24.101143999999977,65535
66.92866399999981,24.101143999999977,65535
66.60466399999981,23.45314399999998,65535
66.28066399999982,23.45314399999998,65535
66.28066399999982,24.101143999999977,65535
65.95666399999982,24.101143999999977,3804
60.124663999999854,24.101143999999977,65535
60.124663999999854,23.45314399999998,65535
60.44866399999985,22.805143999999984,65535
60.77266399999985,27.34114399999998,65535
61.09666399999985,27.989143999999985,65535
61.09666399999985,28.63714399999997,65535
61.420663999999846,29.28514399999997,65535
61.74466399999984,29.933143999999977,65535
62.06866399999984,29.933143999999977,65535
62.39266399999984,29.933143999999977,65535
62.71666399999984,29.933143999999977,65535
61.420663999999846,22.805143999999984,65535
61.420663999999846,22.15714399999998,65535
61.09666399999985,22.15714399999998,65535
61.420663999999846,21.50914399999997,65535
62.39266399999984,27.989143999999985,65535
62.06866399999984,27.989143999999985,65535
61.420663999999846,27.34114399999998,65535
63.04066399999984,29.933143999999977,65535
63.68866399999983,29.28514399999997,65535
63.36466399999984,29.28514399999997,65535
63.36466399999984,29.933143999999977,65535
60.44866399999985,27.34114399999998,65535
61.74466399999984,29.28514399999997,65535
62.39266399999984,30.58114399999998,65535
62.71666399999984,31.229143999999977,65535
62.71666399999984,29.28514399999997,65535
63.04066399999984,28.63714399999997,65535
66.60466399999981,26.04514399999998,65535
66.60466399999981,26.69314399999997,65535
66.60466399999981,27.34114399999998,65535
62.71666399999984,26.04514399999998,65535
62.71666399999984,25.397143999999983,65535
63.04066399999984,25.397143999999983,65535
63.36466399999984,25.397143999999983,65535
62.71666399999984,23.45314399999998,65535
62.39266399999984,24.101143999999977,65535
62.71666399999984,22.15714399999998,65535
62.39266399999984,22.15714399999998,65535
62.39266399999984,21.50914399999997,65535
61.09666399999985,21.50914399999997,65535
60.77266399999985,22.805143999999984,65535
60.44866399999985,22.15714399999998,65535
60.77266399999985,23.45314399999998,65535
60.77266399999985,21.50914399999997,65535
60.77266399999985,22.15714399999998,65535
60.124663999999854,22.805143999999984,65535
60.44866399999985,24.101143999999977,65535
62.06866399999984,24.74914399999998,65535
50.72866399999991,16.325143999999987,826
50.40466399999991,16.973143999999984,914
50.72866399999991,16.973143999999984,876
50.40466399999991,16.325143999999987,912
50.08066399999991,16.973143999999984,971
50.08066399999991,16.325143999999987,968
51.700663999999904,16.973143999999984,899
51.37666399999991,16.973143999999984,853
51.05266399999991,15.677143999999986,919
50.72866399999991,15.677143999999986,857
51.05266399999991,17.621143999999987,793
51.37666399999991,17.621143999999987,891
51.700663999999904,17.621143999999987,894
51.700663999999904,16.325143999999987,893
52.0246639999999,22.15714399999998,296
52.0246639999999,21.50914399999997,255
52.3486639999999,21.50914399999997,264
52.0246639999999,20.86114399999998,265
51.700663999999904,20.86114399999998,234
51.37666399999991,21.50914399999997,191
51.37666399999991,20.86114399999998,200
51.05266399999991,20.86114399999998,303
52.6726639999999,23.45314399999998,947
52.3486639999999,22.805143999999984,887
52.3486639999999,20.213143999999986,308
52.0246639999999,20.213143999999986,323
52.3486639999999,19.565143999999982,944
52.6726639999999,19.565143999999982,397
51.700663999999904,21.50914399999997,185
51.700663999999904,22.15714399999998,100
52.6726639999999,21.50914399999997,273
52.996663999999896,21.50914399999997,299
52.6726639999999,20.86114399999998,265
52.6726639999999,22.15714399999998,289
52.6726639999999,20.213143999999986,337
52.996663999999896,19.565143999999982,408
52.996663999999896,20.86114399999998,298
52.996663999999896,20.213143999999986,307
53.32066399999989,20.213143999999986,332
51.37666399999991,20.213143999999986,258
52.3486639999999,16.973143999999984,937
52.0246639999999,16.973143999999984,925
52.0246639999999,16.325143999999987,906
52.0246639999999,17.621143999999987,935
52.6726639999999,16.973143999999984,941
52.996663999999896,16.973143999999984,1053
52.3486639999999,16.325143999999987,937
52.3486639999999,15.677143999999986,984
51.700663999999904,18.269143999999983,850
52.6726639999999,17.621143999999987,955
52.3486639999999,17.621143999999987,942
52.6726639999999,18.269143999999983,1035
52.3486639999999,18.269143999999983,1009
52.3486639999999,18.917143999999983,1047
52.996663999999896,17.621143999999987,1102
51.700663999999904,19.565143999999982,330
51.700663999999904,18.917143999999983,813
51.37666399999991,18.269143999999983,973
58.82866399999986,9.197143999999987,2768
58.180663999999865,7.90114399999999,2861
58.50466399999986,8.54914399999999,2812
63.36466399999984,10.493143999999988,2983
63.36466399999984,11.141143999999988,2990
63.36466399999984,11.789143999999988,3025
63.68866399999983,11.789143999999988,3053
64.33666399999983,12.437143999999988,3454
64.66066399999983,12.437143999999988,3949
65.63266399999982,13.085143999999987,3606
65.95666399999982,13.085143999999987,3641
66.28066399999982,14.381143999999988,3711
65.95666399999982,13.733143999999989,3780
66.28066399999982,13.733143999999989,3689
65.30866399999982,13.085143999999987,3907
64.98466399999982,13.085143999999987,3541
64.01266399999983,11.789143999999988,3084
63.68866399999983,11.141143999999988,3021
59.800663999999855,10.493143999999988,2564
59.800663999999855,11.141143999999988,2547
60.124663999999854,11.141143999999988,2562
60.44866399999985,11.141143999999988,2575
60.124663999999854,11.789143999999988,2588
60.77266399999985,7.25314399999999,2824
60.77266399999985,6.60514399999999,2870
59.15266399999986,9.197143999999987,2650
59.47666399999986,9.197143999999987,2671
59.800663999999855,9.845143999999989,2566
59.47666399999986,11.141143999999988,2511
61.09666399999985,10.493143999999988,2685
60.77266399999985,10.493143999999988,2655
60.77266399999985,11.141143999999988,2610
62.06866399999984,9.197143999999987,3010
61.74466399999984,9.845143999999989,2956
61.420663999999846,9.845143999999989,2933
59.15266399999986,9.845143999999989,2630
59.47666399999986,9.845143999999989,2606
58.82866399999986,5.957143999999991,3045
58.180663999999865,7.25314399999999,2917
58.50466399999986,7.25314399999999,2950
58.50466399999986,6.60514399999999,2955
58.50466399999986,5.957143999999991,3013
58.82866399999986,8.54914399999999,2798
60.44866399999985,7.25314399999999,2798
60.44866399999985,7.90114399999999,2759
60.124663999999854,10.493143999999988,2596
60.44866399999985,9.197143999999987,2708
60.77266399999985,9.197143999999987,2720
60.77266399999985,8.54914399999999,2739
60.124663999999854,9.845143999999989,2975
60.44866399999985,10.493143999999988,2641
63.04066399999984,10.493143999999988,2934
62.06866399999984,9.845143999999989,3035
62.39266399999984,9.845143999999989,3043
62.71666399999984,9.845143999999989,3067
59.47666399999986,14.381143999999988,2560
59.47666399999986,13.733143999999989,2501
59.47666399999986,13.085143999999987,2477
59.800663999999855,12.437143999999988,2546
59.15266399999986,11.141143999999988,2475
59.15266399999986,14.381143999999988,2574
58.82866399999986,11.789143999999988,2455
58.50466399999986,12.437143999999988,2385
58.180663999999865,12.437143999999988,2378
57.85666399999987,11.789143999999988,2329
62.71666399999984,7.90114399999999,3096
62.39266399999984,7.90114399999999,3053
62.06866399999984,8.54914399999999,3028
60.44866399999985,5.309143999999991,2944
60.44866399999985,5.957143999999991,2911
60.77266399999985,5.957143999999991,2900
62.39266399999984,11.141143999999988,2831
62.06866399999984,10.493143999999988,2786
61.74466399999984,11.141143999999988,2759
61.420663999999846,11.141143999999988,2713
61.09666399999985,11.141143999999988,2696
60.77266399999985,11.789143999999988,2673
63.04066399999984,11.141143999999988,2912
62.71666399999984,11.141143999999988,2855
62.39266399999984,10.493143999999988,2813
67.25266399999981,15.677143999999986,3830
67.25266399999981,15.029143999999986,3868
67.25266399999981,14.381143999999988,3896
66.92866399999981,15.029143999999986,3819
66.60466399999981,15.677143999999986,3797
64.01266399999983,11.141143999999988,3068
66.60466399999981,15.029143999999986,3860
54.29266399999989,18.269143999999983,1122
54.616663999999886,17.621143999999987,1266
53.96866399999989,18.269143999999983,1163
43.92466399999995,1.4211439999999929,1501
44.24866399999995,0.7731439999999932,1462
44.572663999999946,0.1251439999999934,1521
46.84066399999993,1.4211439999999929,1486
44.572663999999946,1.4211439999999929,1543
44.24866399999995,1.4211439999999929,1517
45.54466399999994,1.4211439999999929,1611
46.516663999999935,1.4211439999999929,1605
42.30466399999996,2.717143999999992,1594
44.24866399999995,2.717143999999992,1655
44.572663999999946,2.717143999999992,1778
43.92466399999995,2.0691439999999925,1516
42.30466399999996,2.0691439999999925,1660
42.62866399999996,2.0691439999999925,1612
42.62866399999996,1.4211439999999929,1720
42.95266399999996,1.4211439999999929,1550
43.276663999999954,1.4211439999999929,1537
46.516663999999935,-1.170856000000006,1474
46.19266399999994,-1.170856000000006,1461
45.86866399999994,-0.5228560000000062,1424
45.54466399999994,-0.5228560000000062,1405
48.46066399999992,1.4211439999999929,1255
41.332663999999966,2.0691439999999925,1652
41.98066399999996,2.717143999999992,1611
48.46066399999992,-1.8188560000000056,1451
47.81266399999993,0.7731439999999932,1442
46.84066399999993,0.7731439999999932,1480
44.572663999999946,-1.170856000000006,1405
43.60066399999995,-1.170856000000006,1530
43.276663999999954,-1.8188560000000056,1648
43.276663999999954,0.1251439999999934,1639
42.95266399999996,0.1251439999999934,1613
43.276663999999954,-0.5228560000000062,1585
43.60066399999995,-0.5228560000000062,1561
47.81266399999993,-3.7628560000000046,1522
47.48866399999993,-2.4668560000000053,1601
47.81266399999993,-0.5228560000000062,1370
46.516663999999935,-1.8188560000000056,1515
48.136663999999925,-1.170856000000006,1456
47.48866399999993,-1.170856000000006,1435
45.22066399999994,8.54914399999999,1294
45.22066399999994,7.90114399999999,1339
46.19266399999994,-0.5228560000000062,1418
46.516663999999935,-0.5228560000000062,1400
48.78466399999992,-3.114856000000005,1467
50.72866399999991,2.0691439999999925,1290
50.40466399999991,2.0691439999999925,1337
40.36066399999997,-3.7628560000000046,2865
41.65666399999997,-1.170856000000006,2782
41.332663999999966,1.4211439999999929,2720
43.276663999999954,13.733143999999989,65535
42.95266399999996,13.733143999999989,65535
41.65666399999997,15.029143999999986,65535
40.68466399999997,17.621143999999987,65535
43.60066399999995,13.085143999999987,65535
41.65666399999997,12.437143999999988,4009
41.65666399999997,13.085143999999987,4028
41.98066399999996,13.085143999999987,4078
41.65666399999997,13.733143999999989,4080
41.332663999999966,13.733143999999989,4072
41.332663999999966,14.381143999999988,4229
41.00866399999997,14.381143999999988,4135
41.332663999999966,13.085143999999987,4054
41.00866399999997,15.029143999999986,4335
41.98066399999996,13.733143999999989,4277
42.30466399999996,14.381143999999988,4416
42.30466399999996,12.437143999999988,4017
42.62866399999996,12.437143999999988,4196
42.95266399999996,12.437143999999988,4481
42.30466399999996,11.789143999999988,4026
42.95266399999996,11.789143999999988,4236
42.62866399999996,11.789143999999988,4227
43.276663999999954,11.789143999999988,4290
42.95266399999996,13.085143999999987,65535
42.30466399999996,13.085143999999987,4303
43.276663999999954,13.085143999999987,65535
43.276663999999954,12.437143999999988,65535
42.62866399999996,11.141143999999988,4072
42.95266399999996,11.141143999999988,4115
42.95266399999996,10.493143999999988,4133
44.572663999999946,8.54914399999999,1329
44.89666399999994,7.90114399999999,1353
44.89666399999994,9.197143999999987,1340
44.24866399999995,7.90114399999999,1359
44.572663999999946,7.90114399999999,1376
43.92466399999995,7.90114399999999,1538
44.24866399999995,7.25314399999999,1421
44.89666399999994,7.25314399999999,1458
45.22066399999994,7.25314399999999,1378
45.54466399999994,7.90114399999999,1301
44.572663999999946,7.25314399999999,2302
52.996663999999896,22.805143999999984,963
52.996663999999896,23.45314399999998,985
51.37666399999991,22.15714399999998,48
51.37666399999991,22.805143999999984,146
50.08066399999991,20.213143999999986,387
50.72866399999991,20.213143999999986,314
50.40466399999991,20.213143999999986,352
50.08066399999991,20.86114399999998,326
50.08066399999991,21.50914399999997,236
50.08066399999991,22.15714399999998,225
50.08066399999991,22.805143999999984,231
53.96866399999989,22.805143999999984,1121
53.64466399999989,23.45314399999998,1075
53.32066399999989,23.45314399999998,1022
50.40466399999991,19.565143999999982,456
50.08066399999991,18.917143999999983,466
50.08066399999991,18.269143999999983,525
52.0246639999999,22.805143999999984,826
52.0246639999999,23.45314399999998,864
51.37666399999991,19.565143999999982,382
51.05266399999991,19.565143999999982,804
50.72866399999991,18.917143999999983,793
50.72866399999991,19.565143999999982,749
49.75666399999992,18.917143999999983,775
50.40466399999991,18.269143999999983,695
53.64466399999989,19.565143999999982,891
53.96866399999989,18.917143999999983,1082
53.64466399999989,18.917143999999983,1031
53.64466399999989,20.213143999999986,863
52.996663999999896,18.917143999999983,991
52.996663999999896,18.269143999999983,1092
53.32066399999989,18.917143999999983,945
50.72866399999991,17.621143999999987,730
50.72866399999991,18.269143999999983,755
52.6726639999999,16.325143999999987,1051
52.996663999999896,16.325143999999987,1091
52.996663999999896,15.677143999999986,1141
53.32066399999989,15.677143999999986,1145
53.32066399999989,15.029143999999986,1121
53.64466399999989,15.029143999999986,1128
53.96866399999989,15.029143999999986,1113
52.6726639999999,18.917143999999983,1132
53.32066399999989,16.325143999999987,1163
52.6726639999999,15.029143999999986,1102
51.05266399999991,22.805143999999984,137
51.05266399999991,23.45314399999998,224
50.72866399999991,22.15714399999998,89
50.40466399999991,22.15714399999998,189
51.05266399999991,22.15714399999998,0
54.616663999999886,16.973143999999984,1300
54.29266399999989,16.325143999999987,1239
53.96866399999989,15.677143999999986,1219
50.72866399999991,21.50914399999997,170
50.40466399999991,21.50914399999997,180
50.40466399999991,17.621143999999987,930
53.32066399999989,22.805143999999984,1114
53.64466399999989,22.15714399999998,1138
54.29266399999989,16.973143999999984,1320
50.72866399999991,20.86114399999998,315
51.700663999999904,22.805143999999984,348
51.05266399999991,21.50914399999997,431
50.08066399999991,19.565143999999982,402
52.0246639999999,18.917143999999983,3688
52.0246639999999,19.565143999999982,3681
53.64466399999989,18.269143999999983,1062
51.700663999999904,20.213143999999986,308
53.32066399999989,19.565143999999982,860
50.72866399999991,23.45314399999998,1195
50.72866399999991,22.805143999999984,1164
49.43266399999992,20.213143999999986,805
49.75666399999992,21.50914399999997,242
49.75666399999992,22.15714399999998,1404
49.43266399999992,22.15714399999998,1113
51.05266399999991,18.917143999999983,933
51.05266399999991,18.269143999999983,917
53.32066399999989,16.973143999999984,1102
53.64466399999989,16.973143999999984,1134
49.75666399999992,20.86114399999998,776
50.40466399999991,22.805143999999984,3770
53.64466399999989,16.325143999999987,1165
53.96866399999989,20.86114399999998,1026
54.29266399999989,20.86114399999998,1072
53.96866399999989,21.50914399999997,1089
53.64466399999989,15.677143999999986,1264
53.96866399999989,20.213143999999986,974
53.96866399999989,19.565143999999982,1018
54.29266399999989,19.565143999999982,1069
53.96866399999989,16.325143999999987,1184
53.64466399999989,17.621143999999987,1389
53.96866399999989,22.15714399999998,1156
53.64466399999989,21.50914399999997,1094
53.64466399999989,20.86114399999998,1047
52.6726639999999,15.677143999999986,1151
51.05266399999991,20.213143999999986,395
54.940663999999884,24.101143999999977,65535
54.616663999999886,23.45314399999998,65535
54.29266399999989,23.45314399999998,65535
53.64466399999989,22.805143999999984,1163
53.96866399999989,16.973143999999984,1338
50.40466399999991,20.86114399999998,1048
53.32066399999989,18.269143999999983,1071
49.75666399999992,19.565143999999982,416
50.40466399999991,23.45314399999998,984
49.75666399999992,20.213143999999986,831
49.43266399999992,19.565143999999982,777
49.43266399999992,20.86114399999998,863
53.96866399999989,17.621143999999987,1412
42.30466399999996,-1.8188560000000056,3999
41.98066399999996,-1.8188560000000056,3982
41.65666399999997,0.7731439999999932,3986
42.62866399999996,-1.8188560000000056,4114
42.95266399999996,-1.8188560000000056,4143
42.62866399999996,-3.114856000000005,4237
42.95266399999996,-2.4668560000000053,4215
42.62866399999996,-7.650856000000003,4579
42.30466399999996,-7.650856000000003,4639
42.30466399999996,-8.946856000000002,4775
42.30466399999996,-8.298856000000002,4749
41.98066399999996,-8.298856000000002,4738
42.30466399999996,-7.002856000000003,4521
42.62866399999996,-6.354856000000003,4463
42.30466399999996,-6.354856000000003,4418
42.62866399999996,-5.706856000000004,3918
41.98066399999996,-4.410856000000004,3872
42.30466399999996,-3.7628560000000046,4263
40.03666399999997,-0.5228560000000062,3966
39.38866399999998,-0.5228560000000062,4014
41.00866399999997,0.7731439999999932,4114
40.68466399999997,0.7731439999999932,4146
40.36066399999997,0.1251439999999934,4224
39.712663999999975,-0.5228560000000062,4123
38.41666399999998,-0.5228560000000062,4135
39.06466399999998,-0.5228560000000062,4257
38.74066399999998,-1.170856000000006,4143
41.332663999999966,0.7731439999999932,4174
41.65666399999997,2.717143999999992,3774
41.65666399999997,2.0691439999999925,3797
41.332663999999966,0.1251439999999934,4132
41.332663999999966,-0.5228560000000062,4076
41.65666399999997,-4.410856000000004,3846
40.03666399999997,-2.4668560000000053,4084
41.00866399999997,-4.410856000000004,3967
43.276663999999954,-5.706856000000004,4048
39.38866399999998,-1.170856000000006,4109
38.09266399999999,-1.170856000000006,4522
38.74066399999998,-0.5228560000000062,4285
37.76866399999999,-1.170856000000006,4587
39.06466399999998,-1.8188560000000056,4107
39.38866399999998,-3.114856000000005,4007
39.38866399999998,-2.4668560000000053,4063
39.06466399999998,-2.4668560000000053,4090
39.06466399999998,-3.114856000000005,4011
39.06466399999998,-3.7628560000000046,3985
38.74066399999998,-3.7628560000000046,4064
40.03666399999997,-3.7628560000000046,3963
40.03666399999997,-3.114856000000005,4163
40.03666399999997,-1.8188560000000056,4244
39.712663999999975,-1.8188560000000056,4209
39.712663999999975,-1.170856000000006,4145
40.36066399999997,-1.170856000000006,4164
40.68466399999997,-1.170856000000006,4142
41.00866399999997,-1.170856000000006,4130
41.332663999999966,-1.170856000000006,3970
43.276663999999954,-8.298856000000002,4739
42.95266399999996,-8.298856000000002,4707
41.65666399999997,-5.706856000000004,65535
41.98066399999996,-7.002856000000003,65535
41.98066399999996,-6.354856000000003,65535
41.332663999999966,-5.058856000000004,4085
43.276663999999954,-3.7628560000000046,4520
42.95266399999996,-4.410856000000004,4454
42.62866399999996,-4.410856000000004,4444
42.30466399999996,-4.410856000000004,4403
41.00866399999997,-5.706856000000004,4023
41.332663999999966,-1.8188560000000056,3916
40.68466399999997,-3.114856000000005,3870
41.00866399999997,-3.114856000000005,3921
41.00866399999997,-2.4668560000000053,3944
41.332663999999966,-2.4668560000000053,3997
40.68466399999997,-4.410856000000004,3907
40.36066399999997,-4.410856000000004,3991
40.68466399999997,-3.7628560000000046,3899
40.36066399999997,-3.114856000000005,3877
41.65666399999997,-2.4668560000000053,4014
38.09266399999999,-3.7628560000000046,4111
38.74066399999998,-3.114856000000005,4055
37.76866399999999,-3.7628560000000046,4168
39.712663999999975,-3.114856000000005,3999
38.41666399999998,-3.7628560000000046,4076
40.03666399999997,-4.410856000000004,65535
40.03666399999997,-5.058856000000004,65535
39.38866399999998,-6.354856000000003,65535
39.38866399999998,-7.002856000000003,65535
42.95266399999996,-3.114856000000005,4648
41.98066399999996,-1.170856000000006,4011
42.30466399999996,-2.4668560000000053,4052
41.65666399999997,-0.5228560000000062,4109
41.98066399999996,-0.5228560000000062,3946
41.65666399999997,0.1251439999999934,3973
41.98066399999996,0.1251439999999934,3995
37.76866399999999,-5.058856000000004,4047
36.79666399999999,-4.410856000000004,4106
38.74066399999998,-4.410856000000004,4003
37.12066399999999,-4.410856000000004,4080
37.44466399999999,-5.058856000000004,4604
37.44466399999999,-7.002856000000003,65535
37.44466399999999,-6.354856000000003,65535
37.44466399999999,-5.706856000000004,4280
39.712663999999975,-3.7628560000000046,4073
42.62866399999996,-8.946856000000002,65535
42.30466399999996,-5.706856000000004,4425
42.30466399999996,-5.058856000000004,4510
42.95266399999996,-5.706856000000004,3950
41.00866399999997,-5.058856000000004,3991
40.68466399999997,-5.058856000000004,3965
41.65666399999997,-5.058856000000004,65535
41.65666399999997,-6.354856000000003,65535
36.79666399999999,-6.354856000000003,65535
37.12066399999999,-5.706856000000004,4448
37.76866399999999,-5.706856000000004,4247
38.09266399999999,-4.410856000000004,4382
37.12066399999999,-5.058856000000004,4402
36.79666399999999,-5.058856000000004,4360
37.76866399999999,-4.410856000000004,65535
37.76866399999999,-7.002856000000003,65535
38.41666399999998,-6.354856000000003,65535
38.09266399999999,-6.354856000000003,65535
48.78466399999992,1.4211439999999929,1468
56.23666399999988,8.54914399999999,2290
55.58866399999988,9.197143999999987,2095
55.91266399999988,9.197143999999987,2236
55.26466399999988,10.493143999999988,1972
55.91266399999988,12.437143999999988,2109
55.58866399999988,11.789143999999988,2115
55.58866399999988,11.141143999999988,2106
55.26466399999988,11.789143999999988,2124
55.58866399999988,10.493143999999988,2091
55.58866399999988,13.085143999999987,2085
56.88466399999987,9.845143999999989,2242
57.20866399999987,9.845143999999989,2277
56.56066399999988,9.845143999999989,2214
56.88466399999987,8.54914399999999,2329
54.940663999999884,9.845143999999989,3436
54.940663999999884,11.789143999999988,2192
55.91266399999988,13.085143999999987,2184
56.23666399999988,13.733143999999989,2228
55.91266399999988,13.733143999999989,2231
56.23666399999988,14.381143999999988,2251
56.23666399999988,15.029143999999986,2292
56.23666399999988,15.677143999999986,2347
56.56066399999988,14.381143999999988,2308
56.88466399999987,14.381143999999988,2278
56.23666399999988,13.085143999999987,2176
56.56066399999988,13.085143999999987,2256
56.88466399999987,12.437143999999988,2293
57.20866399999987,12.437143999999988,2309
57.53266399999987,12.437143999999988,2324
56.88466399999987,15.029143999999986,2304
56.56066399999988,15.677143999999986,2364
56.88466399999987,15.677143999999986,2383
56.88466399999987,16.325143999999987,2398
55.91266399999988,11.789143999999988,2261
57.20866399999987,10.493143999999988,2464
49.43266399999992,1.4211439999999929,1409
49.75666399999992,0.7731439999999932,1402
49.75666399999992,2.0691439999999925,1343
50.08066399999991,2.717143999999992,1311
49.75666399999992,1.4211439999999929,1384
47.81266399999993,1.4211439999999929,1374
48.136663999999925,2.0691439999999925,1584
48.46066399999992,2.0691439999999925,1351
48.136663999999925,1.4211439999999929,1378
48.78466399999992,0.1251439999999934,1531
48.46066399999992,0.1251439999999934,1546
47.81266399999993,0.1251439999999934,1384
46.84066399999993,-0.5228560000000062,1482
47.16466399999993,0.7731439999999932,1403
46.84066399999993,0.1251439999999934,1687
46.84066399999993,-1.170856000000006,1473
50.08066399999991,1.4211439999999929,1358
50.08066399999991,2.0691439999999925,1377
49.43266399999992,2.717143999999992,1309
49.75666399999992,3.365143999999992,1353
50.08066399999991,3.365143999999992,1345
49.10866399999992,2.0691439999999925,1355
49.43266399999992,2.0691439999999925,1380
48.78466399999992,0.7731439999999932,1625
48.78466399999992,-0.5228560000000062,1575
48.78466399999992,-1.170856000000006,1493
48.136663999999925,0.7731439999999932,1427
48.46066399999992,0.7731439999999932,1353
43.92466399999995,5.957143999999991,1493
44.24866399999995,5.957143999999991,1465
43.92466399999995,5.309143999999991,1421
42.95266399999996,2.717143999999992,1576
45.54466399999994,2.0691439999999925,1632
45.22066399999994,2.0691439999999925,1634
42.95266399999996,2.0691439999999925,2377
42.95266399999996,0.7731439999999932,1652
43.276663999999954,0.7731439999999932,1587
46.19266399999994,0.7731439999999932,1583
46.516663999999935,0.7731439999999932,1562
45.86866399999994,0.1251439999999934,1516
46.19266399999994,0.1251439999999934,1556
47.81266399999993,-1.170856000000006,1435
48.136663999999925,-2.4668560000000053,1387
47.48866399999993,-1.8188560000000056,1440
47.16466399999993,-1.170856000000006,1464
47.16466399999993,-0.5228560000000062,1489
46.84066399999993,-1.8188560000000056,1492
45.22066399999994,-0.5228560000000062,1455
44.89666399999994,0.1251439999999934,1454
45.22066399999994,0.7731439999999932,1541
45.54466399999994,0.7731439999999932,1611
45.86866399999994,0.7731439999999932,1600
45.22066399999994,0.1251439999999934,1467
44.89666399999994,0.7731439999999932,1502
43.92466399999995,-0.5228560000000062,1497
43.92466399999995,-1.170856000000006,1487
44.24866399999995,-1.170856000000006,1467
45.22066399999994,-1.170856000000006,1518
44.572663999999946,-0.5228560000000062,1487
44.24866399999995,0.1251439999999934,1520
44.572663999999946,0.7731439999999932,1482
43.276663999999954,-1.170856000000006,1659
42.95266399999996,-0.5228560000000062,1597
44.24866399999995,2.0691439999999925,1570
43.60066399999995,0.7731439999999932,1635
43.60066399999995,2.0691439999999925,1575
52.6726639999999,4.661143999999991,2281
52.6726639999999,5.309143999999991,2304
51.700663999999904,5.309143999999991,2249
52.0246639999999,5.309143999999991,2261
52.3486639999999,5.309143999999991,2277
51.37666399999991,4.013143999999992,2257
52.3486639999999,5.957143999999991,2271
52.0246639999999,6.60514399999999,2301
52.6726639999999,5.957143999999991,2288
52.996663999999896,5.957143999999991,2301
53.32066399999989,5.957143999999991,2295
52.996663999999896,6.60514399999999,2277
53.32066399999989,6.60514399999999,2269
52.6726639999999,6.60514399999999,2297
52.996663999999896,5.309143999999991,2316
59.15266399999986,24.101143999999977,65535
56.88466399999987,24.101143999999977,65535
56.88466399999987,23.45314399999998,65535
56.88466399999987,22.805143999999984,65535
57.20866399999987,24.74914399999998,65535
56.88466399999987,24.74914399999998,65535
56.56066399999988,24.74914399999998,65535
56.56066399999988,25.397143999999983,65535
56.56066399999988,24.101143999999977,65535
56.56066399999988,23.45314399999998,65535
56.56066399999988,26.04514399999998,65535
56.88466399999987,26.04514399999998,65535
57.20866399999987,25.397143999999983,65535
57.53266399999987,25.397143999999983,65535
56.23666399999988,26.04514399999998,65535
56.23666399999988,26.69314399999997,65535
55.91266399999988,26.69314399999997,65535
56.56066399999988,26.69314399999997,65535
56.56066399999988,27.34114399999998,65535
56.56066399999988,27.989143999999985,65535
56.23666399999988,27.989143999999985,65535
55.91266399999988,27.34114399999998,65535
56.56066399999988,22.805143999999984,65535
56.56066399999988,22.15714399999998,65535
56.56066399999988,21.50914399999997,65535
57.20866399999987,26.69314399999997,65535
39.06466399999998,-8.946856000000002,65535
38.41666399999998,-8.298856000000002,65535
45.86866399999994,11.789143999999988,3028
46.19266399999994,11.789143999999988,3015
46.19266399999994,10.493143999999988,3055
45.22066399999994,18.269143999999983,2461
45.22066399999994,18.917143999999983,2535
45.54466399999994,16.973143999999984,2319
45.22066399999994,17.621143999999987,2396
45.86866399999994,16.325143999999987,2200
45.54466399999994,18.917143999999983,2575
45.54466399999994,16.325143999999987,2275
45.54466399999994,18.269143999999983,2553
44.89666399999994,18.917143999999983,2856
46.19266399999994,16.973143999999984,2220
46.19266399999994,16.325143999999987,2206
45.86866399999994,16.973143999999984,2237
45.86866399999994,17.621143999999987,2341
46.19266399999994,15.677143999999986,1290
46.516663999999935,16.325143999999987,1295
45.54466399999994,15.677143999999986,2180
45.22066399999994,15.029143999999986,2247
45.54466399999994,15.029143999999986,1362
45.22066399999994,15.677143999999986,2264
44.572663999999946,15.677143999999986,3019
44.24866399999995,15.677143999999986,3040
43.92466399999995,16.325143999999987,2931
44.89666399999994,15.677143999999986,2983
45.54466399999994,17.621143999999987,2528
45.22066399999994,16.325143999999987,2396
46.516663999999935,16.973143999999984,2277
45.86866399999994,18.269143999999983,2654
43.92466399999995,15.677143999999986,2730
45.22066399999994,13.733143999999989,2262
47.48866399999993,19.565143999999982,952
47.16466399999993,18.917143999999983,2178
47.81266399999993,18.917143999999983,916
45.54466399999994,9.845143999999989,1279
45.22066399999994,9.845143999999989,1288
45.22066399999994,10.493143999999988,1338
45.86866399999994,9.845143999999989,1299
45.86866399999994,10.493143999999988,3798
48.78466399999992,21.50914399999997,890
49.10866399999992,20.213143999999986,861
49.10866399999992,18.917143999999983,737
48.46066399999992,17.621143999999987,851
49.43266399999992,17.621143999999987,973
49.10866399999992,17.621143999999987,832
48.136663999999925,18.269143999999983,876
49.10866399999992,18.269143999999983,786
49.43266399999992,18.269143999999983,798
49.43266399999992,16.973143999999984,763
49.75666399999992,16.973143999999984,921
49.75666399999992,16.325143999999987,814
50.08066399999991,15.677143999999986,861
50.08066399999991,15.029143999999986,875
49.43266399999992,18.917143999999983,710
47.81266399999993,20.86114399999998,1075
48.136663999999925,20.86114399999998,1010
48.46066399999992,20.86114399999998,997
48.46066399999992,21.50914399999997,904
49.10866399999992,19.565143999999982,753
48.136663999999925,17.621143999999987,877
48.78466399999992,22.15714399999998,1077
48.78466399999992,20.86114399999998,959
49.10866399999992,20.86114399999998,881
48.78466399999992,18.269143999999983,791
48.78466399999992,17.621143999999987,820
49.10866399999992,21.50914399999997,886
48.78466399999992,20.213143999999986,1310
48.46066399999992,20.213143999999986,1337
48.136663999999925,19.565143999999982,1605
48.46066399999992,19.565143999999982,1484
48.46066399999992,18.917143999999983,934
48.46066399999992,18.269143999999983,839
48.78466399999992,19.565143999999982,1250
48.78466399999992,18.917143999999983,992
47.81266399999993,18.269143999999983,907
49.10866399999992,22.15714399999998,1072
49.43266399999992,21.50914399999997,913
48.136663999999925,18.917143999999983,927
48.136663999999925,20.213143999999986,1625
52.636,-8.018,65535
52.312,-7.370000000000001,65535
52.312,-8.018,65535
52.636,-8.666,65535
51.988,-8.666,65535
51.988,-8.018,65535
52.96,-8.666,65535
52.96,-6.074000000000002,65535
53.28399999999999,-6.722000000000001,65535
53.60799999999999,-6.722000000000001,65535
53.60799999999999,-7.370000000000001,65535
53.60799999999999,-8.018,65535
54.25599999999999,-8.666,65535
53.93199999999999,-8.666,65535
53.93199999999999,-8.018,65535
52.312,-6.722000000000001,65535
52.636,-6.722000000000001,65535
53.93199999999999,-6.722000000000001,65535
54.25599999999999,-6.074000000000002,65535
53.28399999999999,-7.370000000000001,65535
52.96,-7.370000000000001,65535
52.312,-8.666,65535
52.96,-8.018,65535
52.636,-7.370000000000001,65535
52.96,-6.722000000000001,65535
51.988,-9.314,65535
52.312,-9.314,65535
54.579999999999984,-6.722000000000001,65535
54.579999999999984,-6.074000000000002,65535
53.28399999999999,-8.018,65535
53.28399999999999,-8.666,65535
53.28399999999999,-9.314,65535
53.93199999999999,-9.314,65535
54.25599999999999,-9.314,65535
53.60799999999999,-8.666,65535
53.60799999999999,-9.314,65535
49.43266399999992,14.381143999999988,935
49.75666399999992,14.381143999999988,893
49.75666399999992,15.029143999999986,886
49.75666399999992,13.733143999999989,897
50.08066399999991,13.733143999999989,893
49.75666399999992,15.677143999999986,906
50.40466399999991,15.029143999999986,912
49.43266399999992,13.733143999999989,900
50.40466399999991,15.677143999999986,947
50.40466399999991,13.733143999999989,946
46.19266399999994,15.029143999999986,1273
45.86866399999994,15.029143999999986,1322
45.86866399999994,14.381143999999988,1295
46.19266399999994,13.733143999999989,1382
45.86866399999994,13.733143999999989,1468
58.50466399999986,13.733143999999989,2401
58.180663999999865,13.733143999999989,2406
58.180663999999865,13.085143999999987,2378
57.85666399999987,12.437143999999988,2344
60.44866399999985,15.677143999999986,2627
60.124663999999854,15.677143999999986,2561
60.124663999999854,16.325143999999987,2599
59.800663999999855,16.325143999999987,2527
59.800663999999855,17.621143999999987,2506
59.47666399999986,18.269143999999983,2488
61.74466399999984,16.973143999999984,2638
61.420663999999846,16.973143999999984,2611
60.77266399999985,16.973143999999984,2563
65.63266399999982,22.15714399999998,3742
65.95666399999982,21.50914399999997,3702
65.63266399999982,20.86114399999998,3673
64.98466399999982,20.213143999999986,3605
64.66066399999983,20.213143999999986,3583
64.33666399999983,19.565143999999982,3277
64.01266399999983,19.565143999999982,2990
63.68866399999983,20.213143999999986,2943
64.66066399999983,18.917143999999983,3954
59.15266399999986,16.325143999999987,2463
59.15266399999986,15.029143999999986,2504
59.15266399999986,17.621143999999987,2480
57.53266399999987,14.381143999999988,2304
57.53266399999987,15.029143999999986,2324
61.09666399999985,14.381143999999988,2731
60.77266399999985,15.029143999999986,2682
60.44866399999985,15.029143999999986,2668
58.180663999999865,15.029143999999986,2381
58.50466399999986,16.325143999999987,2415
58.50466399999986,15.677143999999986,2388
63.36466399999984,13.085143999999987,2975
63.04066399999984,14.381143999999988,2912
62.39266399999984,15.677143999999986,2834
63.36466399999984,13.733143999999989,2957
63.36466399999984,14.381143999999988,2929
62.71666399999984,15.677143999999986,2862
62.39266399999984,17.621143999999987,2696
59.800663999999855,15.677143999999986,2973
55.58866399999988,13.733143999999989,2258
57.20866399999987,14.381143999999988,2288
57.85666399999987,14.381143999999988,2336
58.82866399999986,16.973143999999984,2472
58.82866399999986,16.325143999999987,2450
59.15266399999986,18.269143999999983,2484
60.44866399999985,17.621143999999987,2539
59.15266399999986,12.437143999999988,2443
59.15266399999986,13.085143999999987,2457
58.82866399999986,12.437143999999988,2419
59.47666399999986,16.325143999999987,2509
58.82866399999986,14.381143999999988,2496
59.47666399999986,15.677143999999986,2527
63.36466399999984,18.917143999999983,2896
63.04066399999984,17.621143999999987,2851
62.71666399999984,17.621143999999987,2825
63.68866399999983,19.565143999999982,2929
62.39266399999984,16.973143999999984,2740
59.800663999999855,16.973143999999984,2515
59.47666399999986,17.621143999999987,2492
57.85666399999987,13.085143999999987,2368
57.53266399999987,13.085143999999987,2349
58.50466399999986,11.789143999999988,2390
57.85666399999987,15.029143999999986,2370
57.20866399999987,13.733143999999989,2294
57.53266399999987,13.733143999999989,2355
61.74466399999984,16.325143999999987,2734
61.420663999999846,16.325143999999987,2701
61.09666399999985,16.325143999999987,2690
61.09666399999985,16.973143999999984,2658
60.124663999999854,15.029143999999986,2836
66.60466399999981,20.86114399999998,3777
67.25266399999981,20.86114399999998,3845
67.90066399999981,20.213143999999986,3915
67.57666399999981,20.213143999999986,4540
59.800663999999855,15.029143999999986,2556
58.50466399999986,15.029143999999986,2398
59.47666399999986,15.029143999999986,2541
60.44866399999985,16.325143999999987,2627
59.15266399999986,15.677143999999986,2485
57.85666399999987,13.733143999999989,2396
58.82866399999986,13.733143999999989,2443
58.50466399999986,13.085143999999987,2428
57.20866399999987,13.085143999999987,2325
56.88466399999987,13.085143999999987,2299
58.180663999999865,11.789143999999988,2361
62.06866399999984,16.973143999999984,2729
65.95666399999982,23.45314399999998,3783
59.800663999999855,14.381143999999988,65535
59.800663999999855,18.269143999999983,2497
63.04066399999984,15.029143999999986,2880
62.71666399999984,15.029143999999986,2870
62.39266399999984,16.325143999999987,2803
63.36466399999984,12.437143999999988,3008
68.5486639999998,17.621143999999987,4128
68.5486639999998,18.269143999999983,4061
68.5486639999998,18.917143999999983,4038
68.2246639999998,18.917143999999983,3994
59.800663999999855,13.085143999999987,2560
60.124663999999854,13.085143999999987,2599
59.47666399999986,16.973143999999984,2501
59.15266399999986,16.973143999999984,2493
56.56066399999988,13.733143999999989,2246
60.124663999999854,17.621143999999987,2516
57.85666399999987,16.325143999999987,2475
58.180663999999865,16.325143999999987,2437
58.180663999999865,15.677143999999986,2445
57.20866399999987,16.325143999999987,2487
57.53266399999987,15.677143999999986,2505
57.85666399999987,15.677143999999986,2476
44.89666399999994,23.45314399999998,2485
44.572663999999946,23.45314399999998,2555
44.89666399999994,24.74914399999998,2472
44.572663999999946,24.74914399999998,2591
44.572663999999946,24.101143999999977,2532
44.24866399999995,24.101143999999977,2561
47.48866399999993,25.397143999999983,2333
47.48866399999993,24.74914399999998,2273
47.16466399999993,24.74914399999998,2195
47.16466399999993,24.101143999999977,2097
47.48866399999993,22.15714399999998,2227
47.81266399999993,22.15714399999998,2313
47.16466399999993,22.15714399999998,2206
47.16466399999993,23.45314399999998,2258
47.16466399999993,22.805143999999984,2264
46.84066399999993,24.101143999999977,2178
45.86866399999994,27.34114399999998,2518
45.54466399999994,27.34114399999998,2499
45.54466399999994,27.989143999999985,2615
45.86866399999994,20.86114399999998,2390
45.86866399999994,21.50914399999997,2398
46.19266399999994,21.50914399999997,2334
46.19266399999994,27.34114399999998,2518
46.19266399999994,26.69314399999997,2509
46.516663999999935,26.69314399999997,2471
46.516663999999935,26.04514399999998,2367
47.48866399999993,22.805143999999984,2325
46.84066399999993,22.805143999999984,2138
45.54466399999994,22.15714399999998,2447
45.22066399999994,22.15714399999998,2525
44.89666399999994,22.15714399999998,2943
47.48866399999993,23.45314399999998,2291
46.516663999999935,24.101143999999977,2017
46.516663999999935,24.74914399999998,2231
45.86866399999994,24.101143999999977,2180
47.16466399999993,26.69314399999997,2549
47.16466399999993,27.34114399999998,2604
43.92466399999995,25.397143999999983,2563
44.24866399999995,24.74914399999998,2470
44.89666399999994,26.04514399999998,2357
44.89666399999994,26.69314399999997,2404
45.22066399999994,26.69314399999997,2439
45.22066399999994,27.34114399999998,2466
46.84066399999993,26.69314399999997,2510
47.48866399999993,26.69314399999997,2503
44.24866399999995,25.397143999999983,2402
43.92466399999995,26.04514399999998,2579
46.19266399999994,24.101143999999977,2225
44.572663999999946,25.397143999999983,2440
46.84066399999993,24.74914399999998,2238
46.516663999999935,21.50914399999997,2338
46.84066399999993,21.50914399999997,2345
44.572663999999946,26.69314399999997,2395
44.572663999999946,27.34114399999998,2416
44.89666399999994,27.34114399999998,2531
44.572663999999946,27.989143999999985,2436
44.24866399999995,27.989143999999985,2450
44.572663999999946,28.63714399999997,2501
45.86866399999994,22.15714399999998,2259
45.86866399999994,22.805143999999984,2153
44.24866399999995,23.45314399999998,2588
43.92466399999995,27.989143999999985,65535
46.84066399999993,27.34114399999998,2671
45.22066399999994,23.45314399999998,2460
45.54466399999994,23.45314399999998,2263
45.54466399999994,24.101143999999977,2210
45.22066399999994,24.101143999999977,2434
44.89666399999994,24.101143999999977,2504
46.19266399999994,22.15714399999998,2390
46.516663999999935,22.15714399999998,2356
45.22066399999994,21.50914399999997,2630
45.54466399999994,21.50914399999997,2478
45.54466399999994,20.86114399999998,2502
46.516663999999935,27.989143999999985,2621
46.19266399999994,27.989143999999985,2606
45.54466399999994,25.397143999999983,2324
45.22066399999994,25.397143999999983,2334
45.22066399999994,26.04514399999998,2390
47.81266399999993,24.101143999999977,2386
47.48866399999993,26.04514399999998,2476
47.81266399999993,26.04514399999998,2498
46.19266399999994,23.45314399999998,2057
45.86866399999994,23.45314399999998,2106
44.24866399999995,26.04514399999998,2384
45.22066399999994,27.989143999999985,2596
45.86866399999994,24.74914399999998,2219
46.516663999999935,25.397143999999983,2411
46.84066399999993,25.397143999999983,2294
46.19266399999994,26.04514399999998,2382
45.86866399999994,26.04514399999998,2347
43.92466399999995,23.45314399999998,2818
44.89666399999994,25.397143999999983,2445
46.19266399999994,20.86114399999998,2379
47.81266399999993,25.397143999999983,2510
44.572663999999946,22.805143999999984,2823
44.572663999999946,22.15714399999998,2965
46.516663999999935,23.45314399999998,2196
45.86866399999994,25.397143999999983,2273
44.24866399999995,27.34114399999998,3211
45.22066399999994,24.74914399999998,2536
45.54466399999994,22.805143999999984,2226
45.22066399999994,28.63714399999997,2656
44.89666399999994,28.63714399999997,2595
47.81266399999993,23.45314399999998,1756
46.19266399999994,24.74914399999998,2305
46.19266399999994,25.397143999999983,2329
43.92466399999995,24.101143999999977,2781
43.92466399999995,24.74914399999998,2794
47.81266399999993,26.69314399999997,2725
47.48866399999993,24.101143999999977,2318
46.84066399999993,26.04514399999998,3126
46.19266399999994,22.805143999999984,2450
47.48866399999993,27.34114399999998,2678
46.19266399999994,20.213143999999986,65535
45.54466399999994,26.04514399999998,2482
44.24866399999995,26.69314399999997,2400
45.86866399999994,27.989143999999985,2654
47.81266399999993,5.957143999999991,2266
