51.56399999999999,-0.4100000000000028,65535
51.887999999999984,-0.4100000000000028,65535
50.91599999999999,-1.7060000000000022,65535
51.23999999999999,-1.0580000000000025,65535
51.56399999999999,-1.0580000000000025,65535
51.23999999999999,-1.7060000000000022,65535
51.56399999999999,0.2379999999999968,65535
47.16466399999993,9.845143999999989,1337
47.48866399999993,9.845143999999989,1318
48.136663999999925,14.381143999999988,1409
47.81266399999993,13.085143999999987,1389
47.16466399999993,11.141143999999988,1370
47.48866399999993,11.789143999999988,1459
48.136663999999925,16.325143999999987,1414
47.48866399999993,12.437143999999988,1374
48.136663999999925,15.677143999999986,1444
47.16466399999993,10.493143999999988,1381
47.16466399999993,9.197143999999987,1328
48.136663999999925,13.733143999999989,1396
48.136663999999925,15.029143999999986,1459
47.81266399999993,16.973143999999984,1435
48.46066399999992,14.381143999999988,1478
47.48866399999993,13.085143999999987,1379
47.16466399999993,13.085143999999987,1389
47.48866399999993,14.381143999999988,1471
47.48866399999993,13.733143999999989,1493
47.48866399999993,15.029143999999986,1482
46.516663999999935,13.733143999999989,1703
46.84066399999993,13.733143999999989,1720
46.84066399999993,13.085143999999987,1725
48.78466399999992,14.381143999999988,65535
47.16466399999993,15.677143999999986,1500
46.516663999999935,14.381143999999988,1674
46.84066399999993,14.381143999999988,1615
47.16466399999993,14.381143999999988,1565
46.516663999999935,15.029143999999986,1686
47.81266399999993,16.325143999999987,1432
47.16466399999993,15.029143999999986,1540
47.81266399999993,15.677143999999986,1438
47.48866399999993,15.677143999999986,1477
46.516663999999935,13.085143999999987,2894
46.84066399999993,12.437143999999988,1738
48.136663999999925,11.789143999999988,1315
47.81266399999993,12.437143999999988,1344
46.84066399999993,15.677143999999986,1561
46.516663999999935,15.677143999999986,1663
46.84066399999993,16.325143999999987,1582
47.81266399999993,14.381143999999988,1435
48.78466399999992,16.973143999999984,1372
48.136663999999925,16.973143999999984,1401
48.46066399999992,13.733143999999989,1419
47.81266399999993,13.733143999999989,1514
50.08066399999991,8.54914399999999,1300
48.46066399999992,9.845143999999989,1288
51.05266399999991,7.25314399999999,1257
51.37666399999991,7.25314399999999,1251
51.37666399999991,6.60514399999999,1253
48.46066399999992,16.325143999999987,1419
48.46066399999992,16.973143999999984,1388
48.78466399999992,16.325143999999987,1432
48.46066399999992,15.677143999999986,1440
48.78466399999992,15.677143999999986,1533
47.48866399999993,16.325143999999987,1442
47.16466399999993,16.325143999999987,1494
46.19266399999994,14.381143999999988,1730
45.86866399999994,15.677143999999986,1727
43.60066399999995,16.325143999999987,2195
45.54466399999994,14.381143999999988,1745
45.54466399999994,13.733143999999989,1766
48.136663999999925,13.085143999999987,1376
48.46066399999992,11.141143999999988,1291
48.136663999999925,11.141143999999988,1313
48.46066399999992,7.90114399999999,1306
49.10866399999992,8.54914399999999,1299
48.78466399999992,2.0691439999999925,1424
49.10866399999992,7.25314399999999,1311
52.0246639999999,7.90114399999999,1270
47.16466399999993,11.789143999999988,1392
49.43266399999992,11.141143999999988,1258
53.64466399999989,9.845143999999989,1275
50.72866399999991,4.013143999999992,1290
51.05266399999991,11.141143999999988,1198
47.48866399999993,11.141143999999988,1353
46.84066399999993,11.789143999999988,4022
46.516663999999935,11.141143999999988,3991
45.54466399999994,11.141143999999988,3887
46.19266399999994,11.141143999999988,3957
45.86866399999994,11.141143999999988,3941
44.572663999999946,11.141143999999988,2772
43.92466399999995,12.437143999999988,65535
45.54466399999994,12.437143999999988,4230
45.54466399999994,11.789143999999988,4195
48.78466399999992,15.029143999999986,1572
47.81266399999993,15.029143999999986,1457
47.81266399999993,11.141143999999988,1318
50.40466399999991,18.917143999999983,1017
52.3486639999999,20.86114399999998,774
54.616663999999886,18.269143999999983,412
54.29266399999989,18.917143999999983,399
49.10866399999992,14.381143999999988,65535
50.08066399999991,14.381143999999988,1167
48.78466399999992,13.733143999999989,1736
52.6726639999999,13.085143999999987,1073
52.3486639999999,13.085143999999987,1075
53.96866399999989,12.437143999999988,1224
54.29266399999989,12.437143999999988,1219
47.48866399999993,8.54914399999999,1342
47.81266399999993,17.621143999999987,1469
47.48866399999993,18.917143999999983,1580
47.48866399999993,20.86114399999998,1801
46.84066399999993,23.45314399999998,3358
44.572663999999946,26.04514399999998,3864
47.48866399999993,21.50914399999997,1835
47.81266399999993,21.50914399999997,1868
48.46066399999992,22.15714399999998,1417
47.48866399999993,16.973143999999984,65535
49.10866399999992,16.325143999999987,1327
49.75666399999992,18.269143999999983,1264
46.19266399999994,13.085143999999987,2303
41.98066399999996,12.437143999999988,5350
43.60066399999995,10.493143999999988,5606
45.54466399999994,9.197143999999987,1448
47.81266399999993,22.805143999999984,4099
49.75666399999992,22.805143999999984,1460
50.72866399999991,3.365143999999992,1302
51.05266399999991,4.013143999999992,1295
50.72866399999991,4.661143999999991,1287
51.05266399999991,4.661143999999991,1288
51.05266399999991,3.365143999999992,1302
51.05266399999991,2.717143999999992,1322
50.40466399999991,4.661143999999991,1292
50.72866399999991,2.717143999999992,1318
50.40466399999991,4.013143999999992,1306
51.05266399999991,5.309143999999991,1291
50.72866399999991,5.309143999999991,1279
51.37666399999991,3.365143999999992,1319
51.37666399999991,4.661143999999991,1293
50.72866399999991,5.957143999999991,1269
50.40466399999991,5.957143999999991,1272
50.40466399999991,3.365143999999992,1310
50.40466399999991,5.309143999999991,1285
50.08066399999991,5.309143999999991,1297
49.75666399999992,5.309143999999991,1321
49.75666399999992,5.957143999999991,1304
51.37666399999991,5.309143999999991,1343
51.700663999999904,4.661143999999991,1338
50.08066399999991,4.013143999999992,1328
50.08066399999991,5.957143999999991,1281
50.08066399999991,4.661143999999991,1308
49.43266399999992,5.309143999999991,1358
49.43266399999992,5.957143999999991,1371
52.0246639999999,4.661143999999991,1370
52.3486639999999,4.661143999999991,1399
50.72866399999991,15.029143999999986,1081
51.05266399999991,15.029143999999986,1054
51.05266399999991,13.733143999999989,1076
50.40466399999991,13.085143999999987,1187
49.10866399999992,7.90114399999999,1301
48.78466399999992,7.90114399999999,1295
50.40466399999991,7.90114399999999,1291
50.08066399999991,7.90114399999999,1304
49.75666399999992,7.90114399999999,1313
49.43266399999992,7.90114399999999,1314
49.75666399999992,8.54914399999999,1308
49.43266399999992,8.54914399999999,1308
49.43266399999992,9.197143999999987,1303
49.10866399999992,9.197143999999987,1288
47.48866399999993,7.90114399999999,1350
47.81266399999993,7.90114399999999,1344
48.136663999999925,7.90114399999999,1322
48.136663999999925,9.845143999999989,1296
47.81266399999993,9.197143999999987,1331
47.81266399999993,8.54914399999999,1333
47.81266399999993,9.845143999999989,1313
54.940663999999884,9.197143999999987,1331
54.616663999999886,9.197143999999987,1320
54.29266399999989,9.197143999999987,1327
53.96866399999989,9.197143999999987,1365
53.64466399999989,9.197143999999987,1316
54.616663999999886,9.845143999999989,1312
54.29266399999989,9.845143999999989,1303
53.96866399999989,9.845143999999989,1298
53.64466399999989,10.493143999999988,1273
53.96866399999989,10.493143999999988,1301
53.96866399999989,11.141143999999988,1271
54.29266399999989,10.493143999999988,1318
53.32066399999989,10.493143999999988,1249
54.940663999999884,11.141143999999988,1364
52.6726639999999,13.733143999999989,1071
52.3486639999999,13.733143999999989,1073
52.3486639999999,14.381143999999988,1087
52.0246639999999,14.381143999999988,1078
52.0246639999999,11.789143999999988,1114
52.3486639999999,11.789143999999988,1107
52.3486639999999,12.437143999999988,1087
52.0246639999999,15.029143999999986,1059
51.700663999999904,14.381143999999988,1117
52.0246639999999,13.733143999999989,1095
51.700663999999904,13.733143999999989,1120
52.6726639999999,12.437143999999988,1088
53.32066399999989,11.789143999999988,1149
53.96866399999989,11.789143999999988,1218
53.64466399999989,11.789143999999988,1186
53.64466399999989,11.141143999999988,1182
53.32066399999989,11.141143999999988,1173
52.996663999999896,11.789143999999988,1112
52.996663999999896,12.437143999999988,1104
52.996663999999896,13.733143999999989,1046
53.64466399999989,13.733143999999989,1057
53.96866399999989,13.733143999999989,1070
54.29266399999989,13.085143999999987,1077
53.96866399999989,13.085143999999987,1117
53.32066399999989,13.733143999999989,1067
52.0246639999999,13.085143999999987,1096
51.700663999999904,13.085143999999987,1126
52.996663999999896,14.381143999999988,1014
52.0246639999999,12.437143999999988,1092
51.700663999999904,12.437143999999988,1129
51.37666399999991,11.789143999999988,1144
51.37666399999991,12.437143999999988,1133
52.6726639999999,11.789143999999988,1104
53.64466399999989,13.085143999999987,1100
53.32066399999989,13.085143999999987,1124
52.996663999999896,13.085143999999987,1066
53.64466399999989,12.437143999999988,1163
51.37666399999991,13.733143999999989,1098
53.32066399999989,12.437143999999988,1130
52.6726639999999,14.381143999999988,1062
51.37666399999991,13.085143999999987,1112
53.32066399999989,14.381143999999988,932
52.3486639999999,15.029143999999986,1063
52.0246639999999,15.677143999999986,1032
51.700663999999904,15.029143999999986,1107
51.05266399999991,16.325143999999987,973
51.05266399999991,16.973143999999984,983
51.700663999999904,15.677143999999986,1055
51.37666399999991,15.677143999999986,1010
51.37666399999991,16.325143999999987,958
50.72866399999991,13.085143999999987,1143
50.72866399999991,12.437143999999988,1144
51.05266399999991,13.085143999999987,1126
51.05266399999991,14.381143999999988,1065
50.40466399999991,12.437143999999988,1170
50.40466399999991,11.789143999999988,1213
50.08066399999991,12.437143999999988,1271
50.72866399999991,11.789143999999988,1186
51.05266399999991,12.437143999999988,1139
50.72866399999991,14.381143999999988,1154
51.37666399999991,14.381143999999988,1099
50.72866399999991,13.733143999999989,1115
50.40466399999991,14.381143999999988,1137
51.37666399999991,15.029143999999986,1042
55.26466399999988,9.197143999999987,1788
55.58866399999988,8.54914399999999,3082
55.91266399999988,8.54914399999999,6559
56.23666399999988,9.197143999999987,6567
56.23666399999988,10.493143999999988,6520
56.23666399999988,9.845143999999989,6507
55.91266399999988,9.845143999999989,6445
56.56066399999988,9.197143999999987,6577
56.56066399999988,8.54914399999999,6620
51.05266399999991,6.60514399999999,1254
51.700663999999904,7.90114399999999,1248
50.72866399999991,6.60514399999999,1268
51.700663999999904,7.25314399999999,1256
50.72866399999991,7.25314399999999,1273
52.0246639999999,7.25314399999999,1263
52.3486639999999,7.90114399999999,1264
51.05266399999991,5.957143999999991,1264
50.40466399999991,7.25314399999999,1279
51.700663999999904,6.60514399999999,1262
51.700663999999904,5.957143999999991,1268
52.3486639999999,9.197143999999987,1201
51.700663999999904,8.54914399999999,1241
52.0246639999999,8.54914399999999,1248
52.3486639999999,8.54914399999999,1238
51.37666399999991,7.90114399999999,1254
52.3486639999999,7.25314399999999,1281
51.37666399999991,5.957143999999991,1301
50.72866399999991,7.90114399999999,1291
51.37666399999991,9.197143999999987,1242
51.700663999999904,9.197143999999987,1213
50.40466399999991,6.60514399999999,1366
51.05266399999991,7.90114399999999,1265
51.37666399999991,8.54914399999999,1255
52.0246639999999,5.957143999999991,1311
52.3486639999999,6.60514399999999,1316
51.05266399999991,8.54914399999999,1318
52.0246639999999,9.197143999999987,1202
52.6726639999999,9.197143999999987,1230
52.0246639999999,9.845143999999989,1202
51.700663999999904,9.845143999999989,1232
51.37666399999991,9.845143999999989,1246
50.72866399999991,8.54914399999999,1313
51.05266399999991,9.845143999999989,1371
50.72866399999991,9.845143999999989,1336
50.40466399999991,9.845143999999989,1323
51.05266399999991,9.197143999999987,1280
50.40466399999991,9.197143999999987,1318
50.08066399999991,9.197143999999987,1308
51.05266399999991,10.493143999999988,1216
50.40466399999991,8.54914399999999,1298
50.72866399999991,9.197143999999987,1328
49.75666399999992,9.197143999999987,1325
52.996663999999896,9.197143999999987,1269
52.3486639999999,9.845143999999989,1185
52.996663999999896,8.54914399999999,1286
52.996663999999896,7.90114399999999,1313
53.32066399999989,7.90114399999999,1367
53.32066399999989,7.25314399999999,1453
53.64466399999989,7.25314399999999,1498
52.996663999999896,10.493143999999988,1223
52.6726639999999,10.493143999999988,1216
52.6726639999999,9.845143999999989,1200
53.32066399999989,9.845143999999989,1270
53.32066399999989,9.197143999999987,1287
53.64466399999989,8.54914399999999,1327
53.32066399999989,8.54914399999999,1289
52.6726639999999,8.54914399999999,1263
52.0246639999999,10.493143999999988,1172
52.0246639999999,11.141143999999988,1124
51.700663999999904,11.141143999999988,1240
52.6726639999999,7.25314399999999,1723
52.996663999999896,7.25314399999999,1698
52.6726639999999,7.90114399999999,1301
53.64466399999989,7.90114399999999,1391
52.996663999999896,11.141143999999988,1284
52.6726639999999,11.141143999999988,1162
52.3486639999999,10.493143999999988,1164
52.996663999999896,9.845143999999989,1236
51.700663999999904,10.493143999999988,1160
51.37666399999991,10.493143999999988,6938
51.700663999999904,11.789143999999988,1153
52.3486639999999,11.141143999999988,1145
51.37666399999991,11.141143999999988,1184
51.05266399999991,11.789143999999988,1182
49.10866399999992,11.141143999999988,1267
48.78466399999992,11.141143999999988,1273
48.46066399999992,11.789143999999988,1309
49.43266399999992,11.789143999999988,1266
50.08066399999991,11.789143999999988,1232
49.75666399999992,12.437143999999988,1288
49.10866399999992,11.789143999999988,1270
48.78466399999992,12.437143999999988,1344
48.46066399999992,12.437143999999988,1333
49.10866399999992,12.437143999999988,1300
48.78466399999992,13.085143999999987,1371
48.136663999999925,12.437143999999988,1365
47.81266399999993,11.789143999999988,1329
48.136663999999925,10.493143999999988,1306
47.81266399999993,10.493143999999988,1329
48.78466399999992,10.493143999999988,1268
47.48866399999993,10.493143999999988,1356
48.46066399999992,10.493143999999988,1281
49.43266399999992,13.085143999999987,1493
48.46066399999992,13.085143999999987,1392
49.43266399999992,10.493143999999988,1263
49.75666399999992,9.845143999999989,1282
49.75666399999992,10.493143999999988,1261
50.40466399999991,11.141143999999988,1273
50.08066399999991,11.141143999999988,1261
50.72866399999991,11.141143999999988,1193
49.75666399999992,11.141143999999988,1256
48.78466399999992,11.789143999999988,1323
50.40466399999991,10.493143999999988,1423
50.08066399999991,9.845143999999989,1299
50.08066399999991,10.493143999999988,1301
49.43266399999992,12.437143999999988,1293
49.75666399999992,11.789143999999988,1254
49.10866399999992,13.085143999999987,1473
50.72866399999991,10.493143999999988,1231
49.10866399999992,10.493143999999988,1266
48.78466399999992,9.845143999999989,1277
48.46066399999992,8.54914399999999,1307
48.46066399999992,9.197143999999987,1310
48.78466399999992,9.197143999999987,1281
48.78466399999992,8.54914399999999,1287
50.08066399999991,7.25314399999999,1311
49.75666399999992,6.60514399999999,1337
49.43266399999992,6.60514399999999,1348
49.10866399999992,6.60514399999999,1346
49.43266399999992,7.25314399999999,1324
49.75666399999992,7.25314399999999,1323
49.10866399999992,5.957143999999991,1374
48.78466399999992,7.25314399999999,1362
50.08066399999991,6.60514399999999,1334
47.48866399999993,9.197143999999987,1322
48.136663999999925,8.54914399999999,1340
48.136663999999925,9.197143999999987,1327
47.81266399999993,7.25314399999999,1333
49.43266399999992,9.845143999999989,1275
49.10866399999992,9.845143999999989,1284
53.64466399999989,14.381143999999988,970
50.08066399999991,13.085143999999987,1258
49.75666399999992,13.085143999999987,1295
45.86866399999994,9.197143999999987,1438
46.19266399999994,9.197143999999987,1424
46.516663999999935,8.54914399999999,1370
46.516663999999935,9.197143999999987,1419
46.19266399999994,8.54914399999999,1421
47.16466399999993,8.54914399999999,1337
45.86866399999994,4.661143999999991,1500
46.84066399999993,9.845143999999989,1353
45.22066399999994,5.957143999999991,1491
45.22066399999994,5.309143999999991,1506
45.86866399999994,5.957143999999991,1440
45.54466399999994,5.957143999999991,1473
44.89666399999994,4.661143999999991,1531
44.89666399999994,5.309143999999991,1529
44.572663999999946,4.661143999999991,1559
44.24866399999995,4.661143999999991,1574
43.92466399999995,4.661143999999991,1568
46.19266399999994,7.25314399999999,1399
48.78466399999992,5.957143999999991,1402
48.136663999999925,6.60514399999999,1388
48.46066399999992,6.60514399999999,1370
48.78466399999992,6.60514399999999,1410
47.16466399999993,7.90114399999999,1348
48.136663999999925,7.25314399999999,1318
48.46066399999992,7.25314399999999,1316
46.516663999999935,6.60514399999999,1396
46.84066399999993,6.60514399999999,1373
46.84066399999993,7.25314399999999,1364
46.516663999999935,5.957143999999991,1425
46.19266399999994,5.957143999999991,1427
46.84066399999993,8.54914399999999,1341
46.84066399999993,7.90114399999999,1355
45.86866399999994,5.309143999999991,1497
46.19266399999994,6.60514399999999,1417
45.86866399999994,6.60514399999999,1423
47.48866399999993,6.60514399999999,1376
47.48866399999993,7.25314399999999,1349
47.16466399999993,7.25314399999999,1358
49.10866399999992,4.013143999999992,1411
49.75666399999992,4.661143999999991,1317
49.43266399999992,4.661143999999991,1378
49.10866399999992,5.309143999999991,1399
46.19266399999994,4.661143999999991,1518
46.84066399999993,9.197143999999987,1344
46.19266399999994,5.309143999999991,1510
46.516663999999935,5.309143999999991,1487
45.54466399999994,6.60514399999999,1507
45.54466399999994,5.309143999999991,1519
43.60066399999995,4.013143999999992,1577
43.60066399999995,3.365143999999992,1590
42.62866399999996,2.717143999999992,1662
43.276663999999954,2.717143999999992,1619
45.54466399999994,4.661143999999991,1505
45.22066399999994,4.661143999999991,1513
47.16466399999993,5.309143999999991,1439
47.16466399999993,5.957143999999991,1408
46.19266399999994,7.90114399999999,1386
49.75666399999992,2.717143999999992,1443
49.10866399999992,2.717143999999992,1372
48.78466399999992,2.717143999999992,1386
45.86866399999994,3.365143999999992,1614
46.84066399999993,3.365143999999992,1552
46.516663999999935,3.365143999999992,1590
46.19266399999994,3.365143999999992,1589
47.16466399999993,6.60514399999999,1388
49.10866399999992,3.365143999999992,1416
45.54466399999994,4.013143999999992,1517
46.516663999999935,7.25314399999999,1391
47.16466399999993,4.661143999999991,1470
46.84066399999993,4.661143999999991,1497
46.516663999999935,4.661143999999991,1522
46.84066399999993,5.957143999999991,1445
47.81266399999993,3.365143999999992,1547
47.48866399999993,4.013143999999992,1510
48.136663999999925,4.013143999999992,1548
47.81266399999993,4.013143999999992,1520
47.48866399999993,4.661143999999991,1501
47.16466399999993,3.365143999999992,1569
46.84066399999993,4.013143999999992,1520
48.46066399999992,5.957143999999991,1473
46.19266399999994,2.717143999999992,1611
47.16466399999993,2.0691439999999925,1560
46.516663999999935,2.717143999999992,1636
46.84066399999993,2.717143999999992,1605
46.84066399999993,2.0691439999999925,1587
47.16466399999993,2.717143999999992,1576
44.572663999999946,5.309143999999991,1570
44.572663999999946,5.957143999999991,1584
44.89666399999994,6.60514399999999,1527
44.572663999999946,6.60514399999999,1549
43.60066399999995,5.309143999999991,1591
43.92466399999995,7.25314399999999,1565
43.60066399999995,6.60514399999999,1586
43.276663999999954,6.60514399999999,1604
43.276663999999954,5.957143999999991,1594
45.86866399999994,8.54914399999999,1437
45.54466399999994,8.54914399999999,1442
48.136663999999925,3.365143999999992,1530
48.46066399999992,3.365143999999992,1530
48.46066399999992,2.717143999999992,1487
47.48866399999993,5.309143999999991,1488
46.516663999999935,9.845143999999989,1364
46.84066399999993,10.493143999999988,2291
47.81266399999993,5.309143999999991,1515
45.22066399999994,6.60514399999999,1521
46.19266399999994,4.013143999999992,1544
45.86866399999994,4.013143999999992,1527
45.22066399999994,4.013143999999992,1542
44.89666399999994,4.013143999999992,1608
46.84066399999993,5.309143999999991,1477
48.136663999999925,-1.8188560000000056,1578
48.136663999999925,0.1251439999999934,1528
48.136663999999925,-0.5228560000000062,1556
47.48866399999993,-0.5228560000000062,1572
47.16466399999993,-1.8188560000000056,1614
47.48866399999993,0.7731439999999932,1535
47.16466399999993,0.1251439999999934,1558
45.86866399999994,7.25314399999999,1429
48.136663999999925,5.309143999999991,1532
49.10866399999992,4.661143999999991,1461
48.46066399999992,4.013143999999992,1550
48.136663999999925,4.661143999999991,1575
47.81266399999993,6.60514399999999,1411
47.48866399999993,5.957143999999991,1474
48.136663999999925,5.957143999999991,3070
45.86866399999994,7.90114399999999,1407
46.516663999999935,7.90114399999999,1369
49.43266399999992,3.365143999999992,1432
49.43266399999992,4.013143999999992,1397
48.136663999999925,2.717143999999992,1551
47.81266399999993,2.717143999999992,1581
47.48866399999993,2.717143999999992,1600
50.40466399999991,2.717143999999992,1334
48.46066399999992,-4.410856000000004,1715
48.46066399999992,-3.7628560000000046,1679
48.46066399999992,-3.114856000000005,1650
48.46066399999992,-2.4668560000000053,1629
47.48866399999993,1.4211439999999929,1566
47.16466399999993,1.4211439999999929,1578
46.516663999999935,4.013143999999992,1525
43.60066399999995,4.661143999999991,1599
44.89666399999994,2.717143999999992,1801
45.22066399999994,2.717143999999992,1779
45.54466399999994,3.365143999999992,1661
45.22066399999994,3.365143999999992,1708
47.48866399999993,3.365143999999992,1736
46.19266399999994,9.845143999999989,1474
47.81266399999993,2.0691439999999925,1524
47.48866399999993,2.0691439999999925,1536
45.86866399999994,2.717143999999992,2303
44.89666399999994,5.957143999999991,1537
45.22066399999994,1.4211439999999929,1680
44.89666399999994,1.4211439999999929,1682
44.89666399999994,2.0691439999999925,1709
43.276663999999954,2.0691439999999925,1658
43.60066399999995,1.4211439999999929,1701
48.78466399999992,4.661143999999991,1475
48.78466399999992,5.309143999999991,1452
46.19266399999994,2.0691439999999925,1759
45.86866399999994,1.4211439999999929,1630
46.19266399999994,1.4211439999999929,1639
44.572663999999946,4.013143999999992,1656
44.89666399999994,3.365143999999992,1701
43.92466399999995,4.013143999999992,1587
44.24866399999995,4.013143999999992,1609
44.89666399999994,-0.5228560000000062,1574
45.54466399999994,0.1251439999999934,1566
46.516663999999935,0.1251439999999934,1525
44.572663999999946,2.0691439999999925,1716
49.75666399999992,4.013143999999992,1358
43.92466399999995,3.365143999999992,1641
43.92466399999995,2.717143999999992,1672
44.24866399999995,3.365143999999992,1696
44.572663999999946,3.365143999999992,1737
49.10866399999992,0.1251439999999934,1553
49.43266399999992,0.7731439999999932,1544
49.43266399999992,-1.8188560000000056,1616
49.10866399999992,-1.170856000000006,1570
49.10866399999992,-0.5228560000000062,1559
49.10866399999992,0.7731439999999932,1538
49.10866399999992,1.4211439999999929,1512
47.81266399999993,-1.8188560000000056,1604
47.81266399999993,-2.4668560000000053,1647
47.81266399999993,-3.114856000000005,1660
48.136663999999925,-3.7628560000000046,1695
44.572663999999946,9.197143999999987,1616
44.89666399999994,8.54914399999999,1497
45.22066399999994,9.197143999999987,1459
45.54466399999994,10.493143999999988,1507
44.572663999999946,10.493143999999988,2758
44.89666399999994,10.493143999999988,1573
44.89666399999994,9.845143999999989,1525
48.46066399999992,5.309143999999991,1520
50.91599999999999,-1.0580000000000025,65535
51.23999999999999,-0.4100000000000028,65535
50.91599999999999,-0.4100000000000028,65535
51.23999999999999,-2.354000000000002,65535
51.56399999999999,-2.354000000000002,65535
51.56399999999999,-3.0020000000000016,65535
50.91599999999999,-2.354000000000002,65535
53.50799999999997,-3.0020000000000016,65535
53.183999999999976,-2.354000000000002,65535
53.183999999999976,-3.0020000000000016,65535
52.85999999999998,-2.354000000000002,65535
52.21199999999998,-1.0580000000000025,65535
51.887999999999984,-1.0580000000000025,65535
52.53599999999998,-1.0580000000000025,65535
52.53599999999998,-1.7060000000000022,65535
52.85999999999998,-1.7060000000000022,65535
53.50799999999997,-2.354000000000002,65535
52.85999999999998,-1.0580000000000025,65535
52.53599999999998,1.5339999999999965,65535
52.53599999999998,0.8859999999999966,65535
52.53599999999998,0.2379999999999968,65535
52.53599999999998,-0.4100000000000028,65535
53.50799999999997,-1.7060000000000022,65535
53.183999999999976,-1.7060000000000022,65535
53.183999999999976,-1.0580000000000025,65535
52.85999999999998,-0.4100000000000028,65535
51.887999999999984,-2.354000000000002,65535
52.21199999999998,-2.354000000000002,65535
55.77599999999996,-2.354000000000002,65535
53.83199999999997,-1.0580000000000025,65535
53.83199999999997,-1.7060000000000022,65535
55.127999999999965,-1.7060000000000022,65535
54.80399999999997,-1.7060000000000022,65535
54.47999999999997,-1.7060000000000022,65535
54.15599999999997,-1.0580000000000025,65535
52.21199999999998,-1.7060000000000022,65535
53.50799999999997,-1.0580000000000025,65535
55.77599999999996,-3.0020000000000016,65535
55.45199999999996,-1.7060000000000022,65535
57.07199999999995,-2.354000000000002,65535
56.74799999999996,-3.0020000000000016,65535
56.42399999999996,-3.0020000000000016,65535
56.09999999999996,-3.650000000000001,65535
50.91599999999999,-3.0020000000000016,65535
50.91599999999999,-3.650000000000001,65535
50.59199999999999,-3.650000000000001,65535
50.59199999999999,-4.298000000000001,65535
51.23999999999999,-3.0020000000000016,65535
50.268,-4.946000000000001,65535
55.77599999999996,-3.650000000000001,65535
55.77599999999996,-4.298000000000001,65535
52.21199999999998,-0.4100000000000028,65535
52.53599999999998,-2.354000000000002,65535
51.56399999999999,-1.7060000000000022,65535
51.56399999999999,-3.650000000000001,65535
51.887999999999984,-4.298000000000001,65535
51.56399999999999,-4.298000000000001,65535
51.887999999999984,-1.7060000000000022,65535
52.21199999999998,-3.0020000000000016,65535
51.23999999999999,0.2379999999999968,65535
50.91599999999999,0.2379999999999968,65535
52.21199999999998,0.2379999999999968,65535
53.83199999999997,-3.0020000000000016,65535
54.15599999999997,-3.0020000000000016,65535
54.47999999999997,-3.0020000000000016,65535
55.127999999999965,-3.650000000000001,65535
54.80399999999997,-3.0020000000000016,65535
53.83199999999997,-2.354000000000002,65535
54.15599999999997,-0.4100000000000028,65535
54.47999999999997,-1.0580000000000025,65535
53.83199999999997,-0.4100000000000028,65535
53.183999999999976,-3.650000000000001,65535
53.183999999999976,-4.298000000000001,65535
52.85999999999998,-3.0020000000000016,65535
52.53599999999998,-3.0020000000000016,65535
51.887999999999984,-3.0020000000000016,65535
51.23999999999999,0.8859999999999966,65535
51.887999999999984,0.2379999999999968,65535
52.21199999999998,0.8859999999999966,65535
51.887999999999984,-4.946000000000001,65535
52.53599999999998,-3.650000000000001,65535
52.21199999999998,-4.298000000000001,65535
53.183999999999976,-0.4100000000000028,65535
51.23999999999999,-3.650000000000001,65535
51.887999999999984,-3.650000000000001,65535
52.21199999999998,-3.650000000000001,65535
51.56399999999999,0.8859999999999966,65535
51.887999999999984,0.8859999999999966,65535
52.85999999999998,0.8859999999999966,65535
53.50799999999997,-0.4100000000000028,65535
56.09999999999996,-4.298000000000001,65535
56.74799999999996,-4.946000000000001,65535
56.74799999999996,-4.298000000000001,65535
56.42399999999996,-4.946000000000001,65535
56.42399999999996,-4.298000000000001,65535
56.09999999999996,-4.946000000000001,65535
57.39599999999995,-4.298000000000001,65535
57.39599999999995,-3.0020000000000016,65535
57.39599999999995,-3.650000000000001,65535
56.42399999999996,-3.650000000000001,65535
57.07199999999995,-3.650000000000001,65535
57.07199999999995,-4.298000000000001,65535
56.74799999999996,-3.650000000000001,65535
59.15266399999986,27.34114399999998,65535
59.47666399999986,26.69314399999997,65535
59.47666399999986,26.04514399999998,65535
59.15266399999986,26.04514399999998,65535
59.15266399999986,24.74914399999998,65535
59.15266399999986,25.397143999999983,65535
59.47666399999986,25.397143999999983,65535
58.50466399999986,26.69314399999997,65535
58.82866399999986,26.69314399999997,65535
57.85666399999987,26.04514399999998,65535
58.180663999999865,26.04514399999998,65535
58.180663999999865,26.69314399999997,65535
58.82866399999986,26.04514399999998,65535
58.50466399999986,25.397143999999983,65535
58.82866399999986,25.397143999999983,65535
58.82866399999986,24.74914399999998,65535
58.180663999999865,27.34114399999998,65535
57.85666399999987,27.34114399999998,65535
63.68866399999983,27.34114399999998,7077
60.124663999999854,24.74914399999998,6613
60.44866399999985,24.74914399999998,6582
60.44866399999985,25.397143999999983,6594
60.77266399999985,25.397143999999983,6800
61.09666399999985,26.04514399999998,6842
60.77266399999985,26.04514399999998,6849
60.77266399999985,26.69314399999997,6868
61.09666399999985,25.397143999999983,6833
61.09666399999985,26.69314399999997,7198
61.420663999999846,26.69314399999997,7220
61.74466399999984,27.34114399999998,7244
62.06866399999984,27.34114399999998,7269
62.39266399999984,27.34114399999998,7293
62.71666399999984,27.34114399999998,7257
64.01266399999983,27.34114399999998,7425
63.36466399999984,27.34114399999998,7145
63.04066399999984,27.34114399999998,7185
63.04066399999984,27.989143999999985,7200
64.33666399999983,27.989143999999985,7472
64.33666399999983,27.34114399999998,7548
64.66066399999983,27.34114399999998,7564
64.66066399999983,26.69314399999997,7575
64.98466399999982,25.397143999999983,5959
64.66066399999983,26.04514399999998,7605
64.98466399999982,26.04514399999998,7627
66.28066399999982,25.397143999999983,6036
65.95666399999982,24.74914399999998,5872
65.63266399999982,24.74914399999998,5876
65.63266399999982,25.397143999999983,5918
65.30866399999982,25.397143999999983,5939
66.60466399999981,25.397143999999983,6096
64.01266399999983,24.74914399999998,6096
64.01266399999983,24.101143999999977,6131
64.01266399999983,23.45314399999998,6155
63.68866399999983,23.45314399999998,6167
63.68866399999983,22.805143999999984,6192
63.68866399999983,26.04514399999998,6784
63.68866399999983,25.397143999999983,6750
63.68866399999983,26.69314399999997,7044
60.44866399999985,26.69314399999997,7036
64.01266399999983,27.989143999999985,7463
62.71666399999984,22.805143999999984,6314
62.39266399999984,22.805143999999984,6346
62.06866399999984,22.805143999999984,6375
62.06866399999984,23.45314399999998,6391
61.74466399999984,23.45314399999998,6403
61.420663999999846,23.45314399999998,6451
61.09666399999985,23.45314399999998,6492
61.09666399999985,24.101143999999977,6499
61.09666399999985,24.74914399999998,6533
60.77266399999985,24.74914399999998,6549
63.04066399999984,21.50914399999997,65535
63.04066399999984,22.15714399999998,65535
63.04066399999984,22.805143999999984,6278
62.39266399999984,26.04514399999998,7441
62.06866399999984,25.397143999999983,7490
61.74466399999984,25.397143999999983,7558
61.74466399999984,24.74914399999998,7595
61.74466399999984,24.101143999999977,7630
61.420663999999846,24.101143999999977,6974
62.39266399999984,26.69314399999997,7412
64.66066399999983,25.397143999999983,6028
64.66066399999983,24.74914399999998,6046
64.33666399999983,24.74914399999998,6057
63.36466399999984,22.805143999999984,6217
67.25266399999981,24.101143999999977,8186
66.92866399999981,24.101143999999977,8150
66.60466399999981,23.45314399999998,8119
66.28066399999982,23.45314399999998,8101
66.28066399999982,24.101143999999977,8083
65.95666399999982,24.101143999999977,3999
60.124663999999854,24.101143999999977,6806
60.124663999999854,23.45314399999998,6843
60.44866399999985,22.805143999999984,65535
60.77266399999985,27.34114399999998,6926
61.09666399999985,27.989143999999985,6958
61.09666399999985,28.63714399999997,7004
61.420663999999846,29.28514399999997,8691
61.74466399999984,29.933143999999977,8749
62.06866399999984,29.933143999999977,8855
62.39266399999984,29.933143999999977,8893
62.71666399999984,29.933143999999977,8926
61.420663999999846,22.805143999999984,6487
61.420663999999846,22.15714399999998,6566
61.09666399999985,22.15714399999998,6554
61.420663999999846,21.50914399999997,6699
62.39266399999984,27.989143999999985,65535
62.06866399999984,27.989143999999985,65535
61.420663999999846,27.34114399999998,65535
63.04066399999984,29.933143999999977,65535
63.68866399999983,29.28514399999997,65535
63.36466399999984,29.28514399999997,65535
63.36466399999984,29.933143999999977,65535
60.44866399999985,27.34114399999998,65535
61.74466399999984,29.28514399999997,65535
62.39266399999984,30.58114399999998,65535
62.71666399999984,31.229143999999977,65535
62.71666399999984,29.28514399999997,65535
63.04066399999984,28.63714399999997,65535
66.60466399999981,26.04514399999998,6106
66.60466399999981,26.69314399999997,6142
66.60466399999981,27.34114399999998,6165
62.71666399999984,26.04514399999998,7326
62.71666399999984,25.397143999999983,7295
63.04066399999984,25.397143999999983,7115
63.36466399999984,25.397143999999983,7078
62.71666399999984,23.45314399999998,7320
62.39266399999984,24.101143999999977,65535
62.71666399999984,22.15714399999998,65535
62.39266399999984,22.15714399999998,65535
62.39266399999984,21.50914399999997,65535
61.09666399999985,21.50914399999997,8377
60.77266399999985,22.805143999999984,7803
60.44866399999985,22.15714399999998,7851
60.77266399999985,23.45314399999998,7785
60.77266399999985,21.50914399999997,7953
60.77266399999985,22.15714399999998,7906
60.124663999999854,22.805143999999984,8119
60.44866399999985,24.101143999999977,6792
62.06866399999984,24.74914399999998,65535
50.72866399999991,16.325143999999987,1017
50.40466399999991,16.973143999999984,1071
50.72866399999991,16.973143999999984,1101
50.40466399999991,16.325143999999987,1052
50.08066399999991,16.973143999999984,1209
50.08066399999991,16.325143999999987,1205
51.700663999999904,16.973143999999984,957
51.37666399999991,16.973143999999984,976
51.05266399999991,15.677143999999986,1039
50.72866399999991,15.677143999999986,1024
51.05266399999991,17.621143999999987,1001
51.37666399999991,17.621143999999987,1014
51.700663999999904,17.621143999999987,1005
51.700663999999904,16.325143999999987,944
52.0246639999999,22.15714399999998,828
52.0246639999999,21.50914399999997,784
52.3486639999999,21.50914399999997,788
52.0246639999999,20.86114399999998,779
51.700663999999904,20.86114399999998,809
51.37666399999991,21.50914399999997,848
51.37666399999991,20.86114399999998,844
51.05266399999991,20.86114399999998,885
52.6726639999999,23.45314399999998,211
52.3486639999999,22.805143999999984,765
52.3486639999999,20.213143999999986,794
52.0246639999999,20.213143999999986,787
52.3486639999999,19.565143999999982,944
52.6726639999999,19.565143999999982,907
51.700663999999904,21.50914399999997,795
51.700663999999904,22.15714399999998,829
52.6726639999999,21.50914399999997,835
52.996663999999896,21.50914399999997,907
52.6726639999999,20.86114399999998,743
52.6726639999999,22.15714399999998,859
52.6726639999999,20.213143999999986,847
52.996663999999896,19.565143999999982,918
52.996663999999896,20.86114399999998,734
52.996663999999896,20.213143999999986,708
53.32066399999989,20.213143999999986,320
51.37666399999991,20.213143999999986,940
52.3486639999999,16.973143999999984,889
52.0246639999999,16.973143999999984,917
52.0246639999999,16.325143999999987,925
52.0246639999999,17.621143999999987,987
52.6726639999999,16.973143999999984,902
52.996663999999896,16.973143999999984,877
52.3486639999999,16.325143999999987,937
52.3486639999999,15.677143999999986,977
51.700663999999904,18.269143999999983,962
52.6726639999999,17.621143999999987,855
52.3486639999999,17.621143999999987,878
52.6726639999999,18.269143999999983,840
52.3486639999999,18.269143999999983,901
52.3486639999999,18.917143999999983,875
52.996663999999896,17.621143999999987,833
51.700663999999904,19.565143999999982,859
51.700663999999904,18.917143999999983,925
51.37666399999991,18.269143999999983,1081
58.82866399999986,9.197143999999987,2768
58.180663999999865,7.90114399999999,2861
58.50466399999986,8.54914399999999,2812
63.36466399999984,10.493143999999988,2983
63.36466399999984,11.141143999999988,2990
63.36466399999984,11.789143999999988,3025
63.68866399999983,11.789143999999988,3053
64.33666399999983,12.437143999999988,3454
64.66066399999983,12.437143999999988,3949
65.63266399999982,13.085143999999987,3606
65.95666399999982,13.085143999999987,3641
66.28066399999982,14.381143999999988,3711
65.95666399999982,13.733143999999989,3780
66.28066399999982,13.733143999999989,3689
65.30866399999982,13.085143999999987,3907
64.98466399999982,13.085143999999987,3541
64.01266399999983,11.789143999999988,3084
63.68866399999983,11.141143999999988,3021
59.800663999999855,10.493143999999988,2564
59.800663999999855,11.141143999999988,2547
60.124663999999854,11.141143999999988,2562
60.44866399999985,11.141143999999988,2575
60.124663999999854,11.789143999999988,2588
60.77266399999985,7.25314399999999,2824
60.77266399999985,6.60514399999999,2870
59.15266399999986,9.197143999999987,2650
59.47666399999986,9.197143999999987,2671
59.800663999999855,9.845143999999989,2566
59.47666399999986,11.141143999999988,2511
61.09666399999985,10.493143999999988,2685
60.77266399999985,10.493143999999988,2655
60.77266399999985,11.141143999999988,2610
62.06866399999984,9.197143999999987,3010
61.74466399999984,9.845143999999989,2956
61.420663999999846,9.845143999999989,2933
59.15266399999986,9.845143999999989,2630
59.47666399999986,9.845143999999989,2606
58.82866399999986,5.957143999999991,3045
58.180663999999865,7.25314399999999,2917
58.50466399999986,7.25314399999999,2950
58.50466399999986,6.60514399999999,2955
58.50466399999986,5.957143999999991,3013
58.82866399999986,8.54914399999999,2798
60.44866399999985,7.25314399999999,2798
60.44866399999985,7.90114399999999,2759
60.124663999999854,10.493143999999988,2596
60.44866399999985,9.197143999999987,2708
60.77266399999985,9.197143999999987,2720
60.77266399999985,8.54914399999999,2739
60.124663999999854,9.845143999999989,2854
60.44866399999985,10.493143999999988,2641
63.04066399999984,10.493143999999988,2934
62.06866399999984,9.845143999999989,3035
62.39266399999984,9.845143999999989,3043
62.71666399999984,9.845143999999989,3067
59.47666399999986,14.381143999999988,2517
59.47666399999986,13.733143999999989,2501
59.47666399999986,13.085143999999987,2477
59.800663999999855,12.437143999999988,2546
59.15266399999986,11.141143999999988,2475
59.15266399999986,14.381143999999988,2501
58.82866399999986,11.789143999999988,2455
58.50466399999986,12.437143999999988,2385
58.180663999999865,12.437143999999988,2378
57.85666399999987,11.789143999999988,2329
62.71666399999984,7.90114399999999,3096
62.39266399999984,7.90114399999999,3053
62.06866399999984,8.54914399999999,3028
60.44866399999985,5.309143999999991,2944
60.44866399999985,5.957143999999991,2911
60.77266399999985,5.957143999999991,2900
62.39266399999984,11.141143999999988,2831
62.06866399999984,10.493143999999988,2786
61.74466399999984,11.141143999999988,2759
61.420663999999846,11.141143999999988,2713
61.09666399999985,11.141143999999988,2696
60.77266399999985,11.789143999999988,2673
63.04066399999984,11.141143999999988,2912
62.71666399999984,11.141143999999988,2855
62.39266399999984,10.493143999999988,2813
67.25266399999981,15.677143999999986,3830
67.25266399999981,15.029143999999986,3868
67.25266399999981,14.381143999999988,3896
66.92866399999981,15.029143999999986,3819
66.60466399999981,15.677143999999986,3797
64.01266399999983,11.141143999999988,3068
66.60466399999981,15.029143999999986,3860
54.29266399999989,18.269143999999983,402
54.616663999999886,17.621143999999987,420
53.96866399999989,18.269143999999983,433
43.92466399999995,1.4211439999999929,1689
44.24866399999995,0.7731439999999932,1675
44.572663999999946,0.1251439999999934,1626
46.84066399999993,1.4211439999999929,1602
44.572663999999946,1.4211439999999929,1768
44.24866399999995,1.4211439999999929,1733
45.54466399999994,1.4211439999999929,1669
46.516663999999935,1.4211439999999929,1647
42.30466399999996,2.717143999999992,1767
44.24866399999995,2.717143999999992,1803
44.572663999999946,2.717143999999992,1778
43.92466399999995,2.0691439999999925,1800
42.30466399999996,2.0691439999999925,1770
42.62866399999996,2.0691439999999925,1683
42.62866399999996,1.4211439999999929,1721
42.95266399999996,1.4211439999999929,1703
43.276663999999954,1.4211439999999929,1694
46.516663999999935,-1.170856000000006,1645
46.19266399999994,-1.170856000000006,1553
45.86866399999994,-0.5228560000000062,1592
45.54466399999994,-0.5228560000000062,1624
48.46066399999992,1.4211439999999929,1495
41.332663999999966,2.0691439999999925,2674
41.98066399999996,2.717143999999992,2633
48.46066399999992,-1.8188560000000056,1600
47.81266399999993,0.7731439999999932,1513
46.84066399999993,0.7731439999999932,1552
44.572663999999946,-1.170856000000006,1586
43.60066399999995,-1.170856000000006,1648
43.276663999999954,-1.8188560000000056,1695
43.276663999999954,0.1251439999999934,1792
42.95266399999996,0.1251439999999934,1776
43.276663999999954,-0.5228560000000062,1735
43.60066399999995,-0.5228560000000062,1724
47.81266399999993,-3.7628560000000046,1747
47.48866399999993,-2.4668560000000053,1634
47.81266399999993,-0.5228560000000062,1564
46.516663999999935,-1.8188560000000056,1756
48.136663999999925,-1.170856000000006,1570
47.48866399999993,-1.170856000000006,1617
45.22066399999994,8.54914399999999,1456
45.22066399999994,7.90114399999999,1475
46.19266399999994,-0.5228560000000062,1537
46.516663999999935,-0.5228560000000062,1548
48.78466399999992,-3.114856000000005,1681
50.72866399999991,2.0691439999999925,1333
50.40466399999991,2.0691439999999925,1381
40.36066399999997,-3.7628560000000046,2865
41.65666399999997,-1.170856000000006,2782
41.332663999999966,1.4211439999999929,2720
43.276663999999954,13.733143999999989,65535
42.95266399999996,13.733143999999989,65535
41.65666399999997,15.029143999999986,65535
40.68466399999997,17.621143999999987,65535
43.60066399999995,13.085143999999987,5568
41.65666399999997,12.437143999999988,5366
41.65666399999997,13.085143999999987,5373
41.98066399999996,13.085143999999987,5384
41.65666399999997,13.733143999999989,5421
41.332663999999966,13.733143999999989,5450
41.332663999999966,14.381143999999988,5669
41.00866399999997,14.381143999999988,5575
41.332663999999966,13.085143999999987,5433
41.00866399999997,15.029143999999986,5775
41.98066399999996,13.733143999999989,5466
42.30466399999996,14.381143999999988,5856
42.30466399999996,12.437143999999988,5411
42.62866399999996,12.437143999999988,5419
42.95266399999996,12.437143999999988,5476
42.30466399999996,11.789143999999988,5380
42.95266399999996,11.789143999999988,5676
42.62866399999996,11.789143999999988,5667
43.276663999999954,11.789143999999988,5730
42.95266399999996,13.085143999999987,5469
42.30466399999996,13.085143999999987,8623
43.276663999999954,13.085143999999987,5521
43.276663999999954,12.437143999999988,5529
42.62866399999996,11.141143999999988,5512
42.95266399999996,11.141143999999988,5555
42.95266399999996,10.493143999999988,5573
44.572663999999946,8.54914399999999,1504
44.89666399999994,7.90114399999999,1481
44.89666399999994,9.197143999999987,1512
44.24866399999995,7.90114399999999,1526
44.572663999999946,7.90114399999999,1496
43.92466399999995,7.90114399999999,1538
44.24866399999995,7.25314399999999,1541
44.89666399999994,7.25314399999999,1518
45.22066399999994,7.25314399999999,1498
45.54466399999994,7.90114399999999,1479
44.572663999999946,7.25314399999999,1522
52.996663999999896,22.805143999999984,206
52.996663999999896,23.45314399999998,217
51.37666399999991,22.15714399999998,843
51.37666399999991,22.805143999999984,903
50.08066399999991,20.213143999999986,1049
50.72866399999991,20.213143999999986,992
50.40466399999991,20.213143999999986,1040
50.08066399999991,20.86114399999998,1345
50.08066399999991,21.50914399999997,1386
50.08066399999991,22.15714399999998,1405
50.08066399999991,22.805143999999984,1427
53.96866399999989,22.805143999999984,387
53.64466399999989,23.45314399999998,340
53.32066399999989,23.45314399999998,297
50.40466399999991,19.565143999999982,1026
50.08066399999991,18.917143999999983,1038
50.08066399999991,18.269143999999983,1081
52.0246639999999,22.805143999999984,882
52.0246639999999,23.45314399999998,922
51.37666399999991,19.565143999999982,993
51.05266399999991,19.565143999999982,1033
50.72866399999991,18.917143999999983,1032
50.72866399999991,19.565143999999982,1037
49.75666399999992,18.917143999999983,1239
50.40466399999991,18.269143999999983,1043
53.64466399999989,19.565143999999982,289
53.96866399999989,18.917143999999983,345
53.64466399999989,18.917143999999983,338
53.64466399999989,20.213143999999986,221
52.996663999999896,18.917143999999983,783
52.996663999999896,18.269143999999983,813
53.32066399999989,18.917143999999983,376
50.72866399999991,17.621143999999987,1042
50.72866399999991,18.269143999999983,1052
52.6726639999999,16.325143999999987,936
52.996663999999896,16.325143999999987,898
52.996663999999896,15.677143999999986,954
53.32066399999989,15.677143999999986,1002
53.32066399999989,15.029143999999986,920
53.64466399999989,15.029143999999986,906
53.96866399999989,15.029143999999986,892
52.6726639999999,18.917143999999983,788
53.32066399999989,16.325143999999987,948
52.6726639999999,15.029143999999986,1043
51.05266399999991,22.805143999999984,911
51.05266399999991,23.45314399999998,983
50.72866399999991,22.15714399999998,1013
50.40466399999991,22.15714399999998,1325
51.05266399999991,22.15714399999998,900
54.616663999999886,16.973143999999984,456
54.29266399999989,16.325143999999987,809
53.96866399999989,15.677143999999986,850
50.72866399999991,21.50914399999997,1369
50.40466399999991,21.50914399999997,1387
50.40466399999991,17.621143999999987,1062
53.32066399999989,22.805143999999984,158
53.64466399999989,22.15714399999998,0
54.29266399999989,16.973143999999984,789
50.72866399999991,20.86114399999998,921
51.700663999999904,22.805143999999984,1000
51.05266399999991,21.50914399999997,888
50.08066399999991,19.565143999999982,1034
52.0246639999999,18.917143999999983,8008
52.0246639999999,19.565143999999982,8001
53.64466399999989,18.269143999999983,840
51.700663999999904,20.213143999999986,981
53.32066399999989,19.565143999999982,799
50.72866399999991,23.45314399999998,1195
50.72866399999991,22.805143999999984,1164
49.43266399999992,20.213143999999986,1379
49.75666399999992,21.50914399999997,1442
49.75666399999992,22.15714399999998,1439
49.43266399999992,22.15714399999998,1430
51.05266399999991,18.917143999999983,1076
51.05266399999991,18.269143999999983,1063
53.32066399999989,16.973143999999984,874
53.64466399999989,16.973143999999984,865
49.75666399999992,20.86114399999998,1388
50.40466399999991,22.805143999999984,8090
53.64466399999989,16.325143999999987,886
53.96866399999989,20.86114399999998,309
54.29266399999989,20.86114399999998,355
53.96866399999989,21.50914399999997,344
53.64466399999989,15.677143999999986,877
53.96866399999989,20.213143999999986,295
53.96866399999989,19.565143999999982,428
54.29266399999989,19.565143999999982,442
53.96866399999989,16.325143999999987,841
53.64466399999989,17.621143999999987,846
53.96866399999989,22.15714399999998,39
53.64466399999989,21.50914399999997,126
53.64466399999989,20.86114399999998,169
52.6726639999999,15.677143999999986,1014
51.05266399999991,20.213143999999986,963
54.940663999999884,24.101143999999977,3201
54.616663999999886,23.45314399999998,3145
54.29266399999989,23.45314399999998,3008
53.64466399999989,22.805143999999984,145
53.96866399999989,16.973143999999984,993
50.40466399999991,20.86114399999998,1048
53.32066399999989,18.269143999999983,866
49.75666399999992,19.565143999999982,1133
50.40466399999991,23.45314399999998,1516
49.75666399999992,20.213143999999986,1357
49.43266399999992,19.565143999999982,1365
49.43266399999992,20.86114399999998,1355
53.96866399999989,17.621143999999987,1054
42.30466399999996,-1.8188560000000056,8319
41.98066399999996,-1.8188560000000056,8302
41.65666399999997,0.7731439999999932,8306
42.62866399999996,-1.8188560000000056,8434
42.95266399999996,-1.8188560000000056,8463
42.62866399999996,-3.114856000000005,8557
42.95266399999996,-2.4668560000000053,8535
42.62866399999996,-7.650856000000003,8899
42.30466399999996,-7.650856000000003,8959
42.30466399999996,-8.946856000000002,9095
42.30466399999996,-8.298856000000002,9069
41.98066399999996,-8.298856000000002,9058
42.30466399999996,-7.002856000000003,8841
42.62866399999996,-6.354856000000003,8783
42.30466399999996,-6.354856000000003,8738
42.62866399999996,-5.706856000000004,8238
41.98066399999996,-4.410856000000004,8192
42.30466399999996,-3.7628560000000046,8583
40.03666399999997,-0.5228560000000062,8286
39.38866399999998,-0.5228560000000062,8334
41.00866399999997,0.7731439999999932,8434
40.68466399999997,0.7731439999999932,8466
40.36066399999997,0.1251439999999934,8544
39.712663999999975,-0.5228560000000062,8443
38.41666399999998,-0.5228560000000062,8455
39.06466399999998,-0.5228560000000062,8577
38.74066399999998,-1.170856000000006,8463
41.332663999999966,0.7731439999999932,8494
41.65666399999997,2.717143999999992,8094
41.65666399999997,2.0691439999999925,8117
41.332663999999966,0.1251439999999934,8452
41.332663999999966,-0.5228560000000062,8396
41.65666399999997,-4.410856000000004,8166
40.03666399999997,-2.4668560000000053,8404
41.00866399999997,-4.410856000000004,8287
43.276663999999954,-5.706856000000004,8368
39.38866399999998,-1.170856000000006,8429
38.09266399999999,-1.170856000000006,8842
38.74066399999998,-0.5228560000000062,8605
37.76866399999999,-1.170856000000006,8907
39.06466399999998,-1.8188560000000056,8427
39.38866399999998,-3.114856000000005,8327
39.38866399999998,-2.4668560000000053,8383
39.06466399999998,-2.4668560000000053,8410
39.06466399999998,-3.114856000000005,8331
39.06466399999998,-3.7628560000000046,8305
38.74066399999998,-3.7628560000000046,8384
40.03666399999997,-3.7628560000000046,8283
40.03666399999997,-3.114856000000005,8483
40.03666399999997,-1.8188560000000056,8564
39.712663999999975,-1.8188560000000056,8529
39.712663999999975,-1.170856000000006,8465
40.36066399999997,-1.170856000000006,8484
40.68466399999997,-1.170856000000006,8462
41.00866399999997,-1.170856000000006,8450
41.332663999999966,-1.170856000000006,8290
43.276663999999954,-8.298856000000002,9059
42.95266399999996,-8.298856000000002,9027
41.65666399999997,-5.706856000000004,65535
41.98066399999996,-7.002856000000003,65535
41.98066399999996,-6.354856000000003,65535
41.332663999999966,-5.058856000000004,8405
43.276663999999954,-3.7628560000000046,8840
42.95266399999996,-4.410856000000004,8774
42.62866399999996,-4.410856000000004,8764
42.30466399999996,-4.410856000000004,8723
41.00866399999997,-5.706856000000004,8343
41.332663999999966,-1.8188560000000056,8236
40.68466399999997,-3.114856000000005,8190
41.00866399999997,-3.114856000000005,8241
41.00866399999997,-2.4668560000000053,8264
41.332663999999966,-2.4668560000000053,8317
40.68466399999997,-4.410856000000004,8227
40.36066399999997,-4.410856000000004,8311
40.68466399999997,-3.7628560000000046,8219
40.36066399999997,-3.114856000000005,8197
41.65666399999997,-2.4668560000000053,8334
38.09266399999999,-3.7628560000000046,8431
38.74066399999998,-3.114856000000005,8375
37.76866399999999,-3.7628560000000046,8488
39.712663999999975,-3.114856000000005,8319
38.41666399999998,-3.7628560000000046,8396
40.03666399999997,-4.410856000000004,65535
40.03666399999997,-5.058856000000004,65535
39.38866399999998,-6.354856000000003,65535
39.38866399999998,-7.002856000000003,65535
42.95266399999996,-3.114856000000005,8968
41.98066399999996,-1.170856000000006,8331
42.30466399999996,-2.4668560000000053,8372
41.65666399999997,-0.5228560000000062,8429
41.98066399999996,-0.5228560000000062,8266
41.65666399999997,0.1251439999999934,8293
41.98066399999996,0.1251439999999934,8315
37.76866399999999,-5.058856000000004,8367
36.79666399999999,-4.410856000000004,8426
38.74066399999998,-4.410856000000004,8323
37.12066399999999,-4.410856000000004,8400
37.44466399999999,-5.058856000000004,8924
37.44466399999999,-7.002856000000003,65535
37.44466399999999,-6.354856000000003,65535
37.44466399999999,-5.706856000000004,8600
39.712663999999975,-3.7628560000000046,8393
42.62866399999996,-8.946856000000002,65535
42.30466399999996,-5.706856000000004,8745
42.30466399999996,-5.058856000000004,8830
42.95266399999996,-5.706856000000004,8270
41.00866399999997,-5.058856000000004,8311
40.68466399999997,-5.058856000000004,8285
41.65666399999997,-5.058856000000004,65535
41.65666399999997,-6.354856000000003,65535
36.79666399999999,-6.354856000000003,65535
37.12066399999999,-5.706856000000004,8768
37.76866399999999,-5.706856000000004,8567
38.09266399999999,-4.410856000000004,8702
37.12066399999999,-5.058856000000004,8722
36.79666399999999,-5.058856000000004,8680
37.76866399999999,-4.410856000000004,65535
37.76866399999999,-7.002856000000003,65535
38.41666399999998,-6.354856000000003,65535
38.09266399999999,-6.354856000000003,65535
48.78466399999992,1.4211439999999929,1549
56.23666399999988,8.54914399999999,6610
55.58866399999988,9.197143999999987,6415
55.91266399999988,9.197143999999987,6556
55.26466399999988,10.493143999999988,2034
55.91266399999988,12.437143999999988,2169
55.58866399999988,11.789143999999988,6255
55.58866399999988,11.141143999999988,6296
55.26466399999988,11.789143999999988,6288
55.58866399999988,10.493143999999988,6411
55.58866399999988,13.085143999999987,2126
56.88466399999987,9.845143999999989,6562
57.20866399999987,9.845143999999989,6597
56.56066399999988,9.845143999999989,6534
56.88466399999987,8.54914399999999,6649
54.940663999999884,9.845143999999989,7756
54.940663999999884,11.789143999999988,6512
55.91266399999988,13.085143999999987,2184
56.23666399999988,13.733143999999989,2228
55.91266399999988,13.733143999999989,2231
56.23666399999988,14.381143999999988,2251
56.23666399999988,15.029143999999986,2292
56.23666399999988,15.677143999999986,2347
56.56066399999988,14.381143999999988,2308
56.88466399999987,14.381143999999988,2278
56.23666399999988,13.085143999999987,2176
56.56066399999988,13.085143999999987,2256
56.88466399999987,12.437143999999988,2293
57.20866399999987,12.437143999999988,2309
57.53266399999987,12.437143999999988,2324
56.88466399999987,15.029143999999986,2304
56.56066399999988,15.677143999999986,2364
56.88466399999987,15.677143999999986,2383
56.88466399999987,16.325143999999987,2398
55.91266399999988,11.789143999999988,6581
57.20866399999987,10.493143999999988,6784
49.43266399999992,1.4211439999999929,1524
49.75666399999992,0.7731439999999932,1559
49.75666399999992,2.0691439999999925,1390
50.08066399999991,2.717143999999992,1370
49.75666399999992,1.4211439999999929,1541
47.81266399999993,1.4211439999999929,1554
48.136663999999925,2.0691439999999925,1535
48.46066399999992,2.0691439999999925,1513
48.136663999999925,1.4211439999999929,1511
48.78466399999992,0.1251439999999934,1541
48.46066399999992,0.1251439999999934,1535
47.81266399999993,0.1251439999999934,1564
46.84066399999993,-0.5228560000000062,1605
47.16466399999993,0.7731439999999932,1550
46.84066399999993,0.1251439999999934,1557
46.84066399999993,-1.170856000000006,1618
50.08066399999991,1.4211439999999929,1417
50.08066399999991,2.0691439999999925,1398
49.43266399999992,2.717143999999992,1392
49.75666399999992,3.365143999999992,1390
50.08066399999991,3.365143999999992,1342
49.10866399999992,2.0691439999999925,1476
49.43266399999992,2.0691439999999925,1478
48.78466399999992,0.7731439999999932,1594
48.78466399999992,-0.5228560000000062,1651
48.78466399999992,-1.170856000000006,1618
48.136663999999925,0.7731439999999932,1550
48.46066399999992,0.7731439999999932,1560
43.92466399999995,5.957143999999991,1625
44.24866399999995,5.957143999999991,1648
43.92466399999995,5.309143999999991,1578
42.95266399999996,2.717143999999992,1636
45.54466399999994,2.0691439999999925,1694
45.22066399999994,2.0691439999999925,2296
42.95266399999996,2.0691439999999925,2370
42.95266399999996,0.7731439999999932,1773
43.276663999999954,0.7731439999999932,1749
46.19266399999994,0.7731439999999932,1587
46.516663999999935,0.7731439999999932,1569
45.86866399999994,0.1251439999999934,1558
46.19266399999994,0.1251439999999934,1538
47.81266399999993,-1.170856000000006,1611
48.136663999999925,-2.4668560000000053,1618
47.48866399999993,-1.8188560000000056,1614
47.16466399999993,-1.170856000000006,1604
47.16466399999993,-0.5228560000000062,1588
46.84066399999993,-1.8188560000000056,1696
45.22066399999994,-0.5228560000000062,1608
44.89666399999994,0.1251439999999934,1594
45.22066399999994,0.7731439999999932,1633
45.54466399999994,0.7731439999999932,1721
45.86866399999994,0.7731439999999932,1666
45.22066399999994,0.1251439999999934,1642
44.89666399999994,0.7731439999999932,1616
43.92466399999995,-0.5228560000000062,1691
43.92466399999995,-1.170856000000006,1666
44.24866399999995,-1.170856000000006,1648
45.22066399999994,-1.170856000000006,1638
44.572663999999946,-0.5228560000000062,1602
44.24866399999995,0.1251439999999934,1649
44.572663999999946,0.7731439999999932,2340
43.276663999999954,-1.170856000000006,2330
42.95266399999996,-0.5228560000000062,2532
44.24866399999995,2.0691439999999925,2319
43.60066399999995,0.7731439999999932,1754
43.60066399999995,2.0691439999999925,1760
52.6726639999999,4.661143999999991,6601
52.6726639999999,5.309143999999991,6624
51.700663999999904,5.309143999999991,6569
52.0246639999999,5.309143999999991,6581
52.3486639999999,5.309143999999991,6597
51.37666399999991,4.013143999999992,6577
52.3486639999999,5.957143999999991,6591
52.0246639999999,6.60514399999999,6621
52.6726639999999,5.957143999999991,6608
52.996663999999896,5.957143999999991,6621
53.32066399999989,5.957143999999991,6615
52.996663999999896,6.60514399999999,6597
53.32066399999989,6.60514399999999,6589
52.6726639999999,6.60514399999999,6617
52.996663999999896,5.309143999999991,6636
59.15266399999986,24.101143999999977,65535
56.88466399999987,24.101143999999977,65535
56.88466399999987,23.45314399999998,65535
56.88466399999987,22.805143999999984,65535
57.20866399999987,24.74914399999998,65535
56.88466399999987,24.74914399999998,65535
56.56066399999988,24.74914399999998,65535
56.56066399999988,25.397143999999983,65535
56.56066399999988,24.101143999999977,65535
56.56066399999988,23.45314399999998,65535
56.56066399999988,26.04514399999998,65535
56.88466399999987,26.04514399999998,65535
57.20866399999987,25.397143999999983,65535
57.53266399999987,25.397143999999983,65535
56.23666399999988,26.04514399999998,65535
56.23666399999988,26.69314399999997,65535
55.91266399999988,26.69314399999997,65535
56.56066399999988,26.69314399999997,65535
56.56066399999988,27.34114399999998,65535
56.56066399999988,27.989143999999985,65535
56.23666399999988,27.989143999999985,65535
55.91266399999988,27.34114399999998,65535
56.56066399999988,22.805143999999984,65535
56.56066399999988,22.15714399999998,65535
56.56066399999988,21.50914399999997,65535
57.20866399999987,26.69314399999997,65535
39.06466399999998,-8.946856000000002,65535
38.41666399999998,-8.298856000000002,65535
45.86866399999994,11.789143999999988,3988
46.19266399999994,11.789143999999988,3975
46.19266399999994,10.493143999999988,3965
45.22066399999994,18.269143999999983,1968
45.22066399999994,18.917143999999983,2010
45.54466399999994,16.973143999999984,1831
45.22066399999994,17.621143999999987,1909
45.86866399999994,16.325143999999987,1726
45.54466399999994,18.917143999999983,2281
45.54466399999994,16.325143999999987,1785
45.54466399999994,18.269143999999983,2201
44.89666399999994,18.917143999999983,2856
46.19266399999994,16.973143999999984,1690
46.19266399999994,16.325143999999987,1715
45.86866399999994,16.973143999999984,1737
45.86866399999994,17.621143999999987,1769
46.19266399999994,15.677143999999986,1674
46.516663999999935,16.325143999999987,1661
45.54466399999994,15.677143999999986,1734
45.22066399999994,15.029143999999986,1884
45.54466399999994,15.029143999999986,1849
45.22066399999994,15.677143999999986,1869
44.572663999999946,15.677143999999986,2024
44.24866399999995,15.677143999999986,2050
43.92466399999995,16.325143999999987,2133
44.89666399999994,15.677143999999986,1980
45.54466399999994,17.621143999999987,2169
45.22066399999994,16.325143999999987,1925
46.516663999999935,16.973143999999984,1682
45.86866399999994,18.269143999999983,2334
43.92466399999995,15.677143999999986,2274
45.22066399999994,13.733143999999989,2262
47.48866399999993,19.565143999999982,1594
47.16466399999993,18.917143999999983,1593
47.81266399999993,18.917143999999983,1546
45.54466399999994,9.845143999999989,1459
45.22066399999994,9.845143999999989,1468
45.22066399999994,10.493143999999988,1518
45.86866399999994,9.845143999999989,1479
45.86866399999994,10.493143999999988,6678
48.78466399999992,21.50914399999997,1359
49.10866399999992,20.213143999999986,1313
49.10866399999992,18.917143999999983,1266
48.46066399999992,17.621143999999987,1427
49.43266399999992,17.621143999999987,1333
49.10866399999992,17.621143999999987,1381
48.136663999999925,18.269143999999983,1458
49.10866399999992,18.269143999999983,1407
49.43266399999992,18.269143999999983,1278
49.43266399999992,16.973143999999984,1311
49.75666399999992,16.973143999999984,1281
49.75666399999992,16.325143999999987,1259
50.08066399999991,15.677143999999986,1176
50.08066399999991,15.029143999999986,1170
49.43266399999992,18.917143999999983,1247
47.81266399999993,20.86114399999998,1555
48.136663999999925,20.86114399999998,1490
48.46066399999992,20.86114399999998,1373
48.46066399999992,21.50914399999997,1369
49.10866399999992,19.565143999999982,1305
48.136663999999925,17.621143999999987,1406
48.78466399999992,22.15714399999998,1375
48.78466399999992,20.86114399999998,1407
49.10866399999992,20.86114399999998,1334
48.78466399999992,18.269143999999983,1450
48.78466399999992,17.621143999999987,1409
49.10866399999992,21.50914399999997,1349
48.78466399999992,20.213143999999986,1415
48.46066399999992,20.213143999999986,1456
48.136663999999925,19.565143999999982,1605
48.46066399999992,19.565143999999982,1484
48.46066399999992,18.917143999999983,1346
48.46066399999992,18.269143999999983,1463
48.78466399999992,19.565143999999982,1320
48.78466399999992,18.917143999999983,1306
47.81266399999993,18.269143999999983,1507
49.10866399999992,22.15714399999998,1416
49.43266399999992,21.50914399999997,1414
48.136663999999925,18.917143999999983,1659
48.136663999999925,20.213143999999986,1625
52.636,-8.018,65535
52.312,-7.370000000000001,65535
52.312,-8.018,65535
52.636,-8.666,65535
51.988,-8.666,65535
51.988,-8.018,65535
52.96,-8.666,65535
52.96,-6.074000000000002,65535
53.28399999999999,-6.722000000000001,65535
53.60799999999999,-6.722000000000001,65535
53.60799999999999,-7.370000000000001,65535
53.60799999999999,-8.018,65535
54.25599999999999,-8.666,65535
53.93199999999999,-8.666,65535
53.93199999999999,-8.018,65535
52.312,-6.722000000000001,65535
52.636,-6.722000000000001,65535
53.93199999999999,-6.722000000000001,65535
54.25599999999999,-6.074000000000002,65535
53.28399999999999,-7.370000000000001,65535
52.96,-7.370000000000001,65535
52.312,-8.666,65535
52.96,-8.018,65535
52.636,-7.370000000000001,65535
52.96,-6.722000000000001,65535
51.988,-9.314,65535
52.312,-9.314,65535
54.579999999999984,-6.722000000000001,65535
54.579999999999984,-6.074000000000002,65535
53.28399999999999,-8.018,65535
53.28399999999999,-8.666,65535
53.28399999999999,-9.314,65535
53.93199999999999,-9.314,65535
54.25599999999999,-9.314,65535
53.60799999999999,-8.666,65535
53.60799999999999,-9.314,65535
49.43266399999992,14.381143999999988,1235
49.75666399999992,14.381143999999988,1177
49.75666399999992,15.029143999999986,1186
49.75666399999992,13.733143999999989,1223
50.08066399999991,13.733143999999989,1217
49.75666399999992,15.677143999999986,1197
50.40466399999991,15.029143999999986,1130
49.43266399999992,13.733143999999989,1326
50.40466399999991,15.677143999999986,1187
50.40466399999991,13.733143999999989,1243
46.19266399999994,15.029143999999986,1722
45.86866399999994,15.029143999999986,1761
45.86866399999994,14.381143999999988,1739
46.19266399999994,13.733143999999989,2205
45.86866399999994,13.733143999999989,2281
58.50466399999986,13.733143999999989,2420
58.180663999999865,13.733143999999989,2406
58.180663999999865,13.085143999999987,2378
57.85666399999987,12.437143999999988,2342
60.44866399999985,15.677143999999986,2627
60.124663999999854,15.677143999999986,2561
60.124663999999854,16.325143999999987,2599
59.800663999999855,16.325143999999987,2527
59.800663999999855,17.621143999999987,2506
59.47666399999986,18.269143999999983,2488
61.74466399999984,16.973143999999984,2638
61.420663999999846,16.973143999999984,2611
60.77266399999985,16.973143999999984,2563
65.63266399999982,22.15714399999998,3742
65.95666399999982,21.50914399999997,3702
65.63266399999982,20.86114399999998,3673
64.98466399999982,20.213143999999986,3605
64.66066399999983,20.213143999999986,3583
64.33666399999983,19.565143999999982,3277
64.01266399999983,19.565143999999982,2990
63.68866399999983,20.213143999999986,2943
64.66066399999983,18.917143999999983,5654
59.15266399999986,16.325143999999987,2463
59.15266399999986,15.029143999999986,2467
59.15266399999986,17.621143999999987,2480
57.53266399999987,14.381143999999988,2304
57.53266399999987,15.029143999999986,2324
61.09666399999985,14.381143999999988,2731
60.77266399999985,15.029143999999986,2682
60.44866399999985,15.029143999999986,2668
58.180663999999865,15.029143999999986,2381
58.50466399999986,16.325143999999987,2415
58.50466399999986,15.677143999999986,2388
63.36466399999984,13.085143999999987,2975
63.04066399999984,14.381143999999988,2912
62.39266399999984,15.677143999999986,2834
63.36466399999984,13.733143999999989,2957
63.36466399999984,14.381143999999988,2929
62.71666399999984,15.677143999999986,2862
62.39266399999984,17.621143999999987,2696
59.800663999999855,15.677143999999986,2749
55.58866399999988,13.733143999999989,2258
57.20866399999987,14.381143999999988,2288
57.85666399999987,14.381143999999988,2336
58.82866399999986,16.973143999999984,2472
58.82866399999986,16.325143999999987,2450
59.15266399999986,18.269143999999983,2484
60.44866399999985,17.621143999999987,2539
59.15266399999986,12.437143999999988,2443
59.15266399999986,13.085143999999987,2457
58.82866399999986,12.437143999999988,2419
59.47666399999986,16.325143999999987,2509
58.82866399999986,14.381143999999988,2496
59.47666399999986,15.677143999999986,2527
63.36466399999984,18.917143999999983,2896
63.04066399999984,17.621143999999987,2851
62.71666399999984,17.621143999999987,2825
63.68866399999983,19.565143999999982,2929
62.39266399999984,16.973143999999984,2740
59.800663999999855,16.973143999999984,2515
59.47666399999986,17.621143999999987,2492
57.85666399999987,13.085143999999987,2368
57.53266399999987,13.085143999999987,2349
58.50466399999986,11.789143999999988,2390
57.85666399999987,15.029143999999986,2370
57.20866399999987,13.733143999999989,2294
57.53266399999987,13.733143999999989,2355
61.74466399999984,16.325143999999987,2734
61.420663999999846,16.325143999999987,2701
61.09666399999985,16.325143999999987,2690
61.09666399999985,16.973143999999984,2658
60.124663999999854,15.029143999999986,2836
66.60466399999981,20.86114399999998,3777
67.25266399999981,20.86114399999998,3845
67.90066399999981,20.213143999999986,3915
67.57666399999981,20.213143999999986,4540
59.800663999999855,15.029143999999986,2556
58.50466399999986,15.029143999999986,2398
59.47666399999986,15.029143999999986,2541
60.44866399999985,16.325143999999987,2627
59.15266399999986,15.677143999999986,2485
57.85666399999987,13.733143999999989,2396
58.82866399999986,13.733143999999989,2443
58.50466399999986,13.085143999999987,2428
57.20866399999987,13.085143999999987,2325
56.88466399999987,13.085143999999987,2299
58.180663999999865,11.789143999999988,2361
62.06866399999984,16.973143999999984,2729
65.95666399999982,23.45314399999998,3977
59.800663999999855,14.381143999999988,5411
59.800663999999855,18.269143999999983,2497
63.04066399999984,15.029143999999986,2880
62.71666399999984,15.029143999999986,2870
62.39266399999984,16.325143999999987,2803
63.36466399999984,12.437143999999988,3008
68.5486639999998,17.621143999999987,4128
68.5486639999998,18.269143999999983,4061
68.5486639999998,18.917143999999983,4038
68.2246639999998,18.917143999999983,3994
59.800663999999855,13.085143999999987,2560
60.124663999999854,13.085143999999987,2599
59.47666399999986,16.973143999999984,2501
59.15266399999986,16.973143999999984,2493
56.56066399999988,13.733143999999989,2246
60.124663999999854,17.621143999999987,2516
57.85666399999987,16.325143999999987,2475
58.180663999999865,16.325143999999987,2437
58.180663999999865,15.677143999999986,2445
57.20866399999987,16.325143999999987,2487
57.53266399999987,15.677143999999986,2505
57.85666399999987,15.677143999999986,2476
44.89666399999994,23.45314399999998,3925
44.572663999999946,23.45314399999998,3995
44.89666399999994,24.74914399999998,3964
44.572663999999946,24.74914399999998,4040
44.572663999999946,24.101143999999977,3972
44.24866399999995,24.101143999999977,4001
47.48866399999993,25.397143999999983,3773
47.48866399999993,24.74914399999998,3713
47.16466399999993,24.74914399999998,3635
47.16466399999993,24.101143999999977,3537
47.48866399999993,22.15714399999998,3843
47.81266399999993,22.15714399999998,3887
47.16466399999993,22.15714399999998,3646
47.16466399999993,23.45314399999998,3698
47.16466399999993,22.805143999999984,3704
46.84066399999993,24.101143999999977,3618
45.86866399999994,27.34114399999998,4068
45.54466399999994,27.34114399999998,4030
45.54466399999994,27.989143999999985,4055
45.86866399999994,20.86114399999998,3830
45.86866399999994,21.50914399999997,3838
46.19266399999994,21.50914399999997,3774
46.19266399999994,27.34114399999998,4046
46.19266399999994,26.69314399999997,4146
46.516663999999935,26.69314399999997,3911
46.516663999999935,26.04514399999998,3807
47.48866399999993,22.805143999999984,3765
46.84066399999993,22.805143999999984,3578
45.54466399999994,22.15714399999998,3903
45.22066399999994,22.15714399999998,3965
44.89666399999994,22.15714399999998,4383
47.48866399999993,23.45314399999998,3731
46.516663999999935,24.101143999999977,3457
46.516663999999935,24.74914399999998,3671
45.86866399999994,24.101143999999977,3620
47.16466399999993,26.69314399999997,3989
47.16466399999993,27.34114399999998,4044
43.92466399999995,25.397143999999983,4003
44.24866399999995,24.74914399999998,3910
44.89666399999994,26.04514399999998,3823
44.89666399999994,26.69314399999997,3884
45.22066399999994,26.69314399999997,3901
45.22066399999994,27.34114399999998,3987
46.84066399999993,26.69314399999997,3950
47.48866399999993,26.69314399999997,3943
44.24866399999995,25.397143999999983,3898
43.92466399999995,26.04514399999998,4019
46.19266399999994,24.101143999999977,3665
44.572663999999946,25.397143999999983,3892
46.84066399999993,24.74914399999998,3678
46.516663999999935,21.50914399999997,3778
46.84066399999993,21.50914399999997,3785
44.572663999999946,26.69314399999997,3876
44.572663999999946,27.34114399999998,3886
44.89666399999994,27.34114399999998,3986
44.572663999999946,27.989143999999985,3923
44.24866399999995,27.989143999999985,3938
44.572663999999946,28.63714399999997,3958
45.86866399999994,22.15714399999998,3699
45.86866399999994,22.805143999999984,3593
44.24866399999995,23.45314399999998,4093
43.92466399999995,27.989143999999985,65535
46.84066399999993,27.34114399999998,4180
45.22066399999994,23.45314399999998,3900
45.54466399999994,23.45314399999998,3703
45.54466399999994,24.101143999999977,3650
45.22066399999994,24.101143999999977,3874
44.89666399999994,24.101143999999977,3944
46.19266399999994,22.15714399999998,3830
46.516663999999935,22.15714399999998,3796
45.22066399999994,21.50914399999997,4070
45.54466399999994,21.50914399999997,4107
45.54466399999994,20.86114399999998,4020
46.516663999999935,27.989143999999985,4152
46.19266399999994,27.989143999999985,4124
45.54466399999994,25.397143999999983,3780
45.22066399999994,25.397143999999983,3787
45.22066399999994,26.04514399999998,3830
47.81266399999993,24.101143999999977,3826
47.48866399999993,26.04514399999998,3916
47.81266399999993,26.04514399999998,3938
46.19266399999994,23.45314399999998,3497
45.86866399999994,23.45314399999998,3546
44.24866399999995,26.04514399999998,3878
45.22066399999994,27.989143999999985,4036
45.86866399999994,24.74914399999998,3659
46.516663999999935,25.397143999999983,3851
46.84066399999993,25.397143999999983,3734
46.19266399999994,26.04514399999998,3822
45.86866399999994,26.04514399999998,3787
43.92466399999995,23.45314399999998,4258
44.89666399999994,25.397143999999983,3917
46.19266399999994,20.86114399999998,3819
47.81266399999993,25.397143999999983,3950
44.572663999999946,22.805143999999984,4263
44.572663999999946,22.15714399999998,4405
46.516663999999935,23.45314399999998,3636
45.86866399999994,25.397143999999983,3713
44.24866399999995,27.34114399999998,4651
45.22066399999994,24.74914399999998,3976
45.54466399999994,22.805143999999984,3666
45.22066399999994,28.63714399999997,4096
44.89666399999994,28.63714399999997,4035
47.81266399999993,23.45314399999998,3899
46.19266399999994,24.74914399999998,3745
46.19266399999994,25.397143999999983,3769
43.92466399999995,24.101143999999977,4221
43.92466399999995,24.74914399999998,4234
47.81266399999993,26.69314399999997,4165
47.48866399999993,24.101143999999977,3758
46.84066399999993,26.04514399999998,4566
46.19266399999994,22.805143999999984,3890
47.48866399999993,27.34114399999998,4118
46.19266399999994,20.213143999999986,65535
45.54466399999994,26.04514399999998,3922
44.24866399999995,26.69314399999997,3932
45.86866399999994,27.989143999999985,4202
47.81266399999993,5.957143999999991,6586
