51.56399999999999,-0.4100000000000028,65535
51.887999999999984,-0.4100000000000028,65535
50.91599999999999,-1.7060000000000022,65535
51.23999999999999,-1.0580000000000025,65535
51.56399999999999,-1.0580000000000025,65535
51.23999999999999,-1.7060000000000022,65535
51.56399999999999,0.2379999999999968,65535
47.16466399999993,9.845143999999989,1464
47.48866399999993,9.845143999999989,1438
48.136663999999925,14.381143999999988,1480
47.81266399999993,13.085143999999987,1449
47.16466399999993,11.141143999999988,1490
47.48866399999993,11.789143999999988,2265
48.136663999999925,16.325143999999987,1294
47.48866399999993,12.437143999999988,1434
48.136663999999925,15.677143999999986,1324
47.16466399999993,10.493143999999988,1536
47.16466399999993,9.197143999999987,1448
48.136663999999925,13.733143999999989,1455
48.136663999999925,15.029143999999986,1684
47.81266399999993,16.973143999999984,1315
48.46066399999992,14.381143999999988,3784
47.48866399999993,13.085143999999987,1439
47.16466399999993,13.085143999999987,1450
47.48866399999993,14.381143999999988,1689
47.48866399999993,13.733143999999989,1585
47.48866399999993,15.029143999999986,1367
46.516663999999935,13.733143999999989,1675
46.84066399999993,13.733143999999989,1636
46.84066399999993,13.085143999999987,1580
48.78466399999992,14.381143999999988,65535
47.16466399999993,15.677143999999986,1380
46.516663999999935,14.381143999999988,1661
46.84066399999993,14.381143999999988,1641
47.16466399999993,14.381143999999988,2405
46.516663999999935,15.029143999999986,1635
47.81266399999993,16.325143999999987,1312
47.16466399999993,15.029143999999986,1403
47.81266399999993,15.677143999999986,1515
47.48866399999993,15.677143999999986,1357
46.516663999999935,13.085143999999987,2774
46.84066399999993,12.437143999999988,1679
48.136663999999925,11.789143999999988,1370
47.81266399999993,12.437143999999988,1399
46.84066399999993,15.677143999999986,1441
46.516663999999935,15.677143999999986,1517
46.84066399999993,16.325143999999987,1425
47.81266399999993,14.381143999999988,1777
48.78466399999992,16.973143999999984,1311
48.136663999999925,16.973143999999984,1276
48.46066399999992,13.733143999999989,1419
47.81266399999993,13.733143999999989,1514
50.08066399999991,8.54914399999999,1359
48.46066399999992,9.845143999999989,1409
51.05266399999991,7.25314399999999,1357
51.37666399999991,7.25314399999999,1351
51.37666399999991,6.60514399999999,1355
48.46066399999992,16.325143999999987,1308
48.46066399999992,16.973143999999984,1304
48.78466399999992,16.325143999999987,1370
48.46066399999992,15.677143999999986,1320
48.78466399999992,15.677143999999986,1367
47.48866399999993,16.325143999999987,1322
47.16466399999993,16.325143999999987,1374
46.19266399999994,14.381143999999988,1608
45.86866399999994,15.677143999999986,1649
43.60066399999995,16.325143999999987,2515
45.54466399999994,14.381143999999988,1639
45.54466399999994,13.733143999999989,1661
48.136663999999925,13.085143999999987,1488
48.46066399999992,11.141143999999988,1374
48.136663999999925,11.141143999999988,1375
48.46066399999992,7.90114399999999,1421
49.10866399999992,8.54914399999999,1381
48.78466399999992,2.0691439999999925,1514
49.10866399999992,7.25314399999999,1431
52.0246639999999,7.90114399999999,1360
47.16466399999993,11.789143999999988,1512
49.43266399999992,11.141143999999988,1324
53.64466399999989,9.845143999999989,1381
50.72866399999991,4.013143999999992,1431
51.05266399999991,11.141143999999988,1202
47.48866399999993,11.141143999999988,1414
46.84066399999993,11.789143999999988,3062
46.516663999999935,11.141143999999988,3031
45.54466399999994,11.141143999999988,2925
46.19266399999994,11.141143999999988,2997
45.86866399999994,11.141143999999988,2981
44.572663999999946,11.141143999999988,2772
43.92466399999995,12.437143999999988,65535
45.54466399999994,12.437143999999988,3012
45.54466399999994,11.789143999999988,2975
48.78466399999992,15.029143999999986,1692
47.81266399999993,15.029143999999986,1710
47.81266399999993,11.141143999999988,1388
50.40466399999991,18.917143999999983,909
52.3486639999999,20.86114399999998,380
54.616663999999886,18.269143999999983,1136
54.29266399999989,18.917143999999983,1110
49.10866399999992,14.381143999999988,65535
50.08066399999991,14.381143999999988,1143
48.78466399999992,13.733143999999989,1530
52.6726639999999,13.085143999999987,1173
52.3486639999999,13.085143999999987,1173
53.96866399999989,12.437143999999988,1338
54.29266399999989,12.437143999999988,1339
47.48866399999993,8.54914399999999,1460
47.81266399999993,17.621143999999987,1279
47.48866399999993,18.917143999999983,1340
47.48866399999993,20.86114399999998,1801
46.84066399999993,23.45314399999998,2419
44.572663999999946,26.04514399999998,2837
47.48866399999993,21.50914399999997,1835
47.81266399999993,21.50914399999997,1868
48.46066399999992,22.15714399999998,1417
47.48866399999993,16.973143999999984,65535
49.10866399999992,16.325143999999987,1327
49.75666399999992,18.269143999999983,1001
46.19266399999994,13.085143999999987,2303
41.98066399999996,12.437143999999988,4005
43.60066399999995,10.493143999999988,4166
45.54466399999994,9.197143999999987,1568
47.81266399999993,22.805143999999984,2659
49.75666399999992,22.805143999999984,997
50.72866399999991,3.365143999999992,1442
51.05266399999991,4.013143999999992,1435
50.72866399999991,4.661143999999991,1429
51.05266399999991,4.661143999999991,1433
51.05266399999991,3.365143999999992,1444
51.05266399999991,2.717143999999992,1478
50.40466399999991,4.661143999999991,1443
50.72866399999991,2.717143999999992,1457
50.40466399999991,4.013143999999992,1448
51.05266399999991,5.309143999999991,1441
50.72866399999991,5.309143999999991,1408
51.37666399999991,3.365143999999992,1480
51.37666399999991,4.661143999999991,1449
50.72866399999991,5.957143999999991,1389
50.40466399999991,5.957143999999991,1393
50.40466399999991,3.365143999999992,1456
50.40466399999991,5.309143999999991,1412
50.08066399999991,5.309143999999991,1459
49.75666399999992,5.309143999999991,1501
49.75666399999992,5.957143999999991,1515
51.37666399999991,5.309143999999991,1496
51.700663999999904,4.661143999999991,1478
50.08066399999991,4.013143999999992,1487
50.08066399999991,5.957143999999991,1521
50.08066399999991,4.661143999999991,1471
49.43266399999992,5.309143999999991,1557
49.43266399999992,5.957143999999991,1525
52.0246639999999,4.661143999999991,2229
52.3486639999999,4.661143999999991,2264
50.72866399999991,15.029143999999986,1081
51.05266399999991,15.029143999999986,1074
51.05266399999991,13.733143999999989,1111
50.40466399999991,13.085143999999987,1157
49.10866399999992,7.90114399999999,1409
48.78466399999992,7.90114399999999,1400
50.40466399999991,7.90114399999999,1397
50.08066399999991,7.90114399999999,1390
49.75666399999992,7.90114399999999,1403
49.43266399999992,7.90114399999999,1398
49.75666399999992,8.54914399999999,1365
49.43266399999992,8.54914399999999,1372
49.43266399999992,9.197143999999987,1388
49.10866399999992,9.197143999999987,1388
47.48866399999993,7.90114399999999,1463
47.81266399999993,7.90114399999999,1449
48.136663999999925,7.90114399999999,1442
48.136663999999925,9.845143999999989,1421
47.81266399999993,9.197143999999987,1454
47.81266399999993,8.54914399999999,1453
47.81266399999993,9.845143999999989,1433
54.940663999999884,9.197143999999987,1469
54.616663999999886,9.197143999999987,1440
54.29266399999989,9.197143999999987,1449
53.96866399999989,9.197143999999987,1436
53.64466399999989,9.197143999999987,1395
54.616663999999886,9.845143999999989,1432
54.29266399999989,9.845143999999989,1412
53.96866399999989,9.845143999999989,1388
53.64466399999989,10.493143999999988,1391
53.96866399999989,10.493143999999988,1418
53.96866399999989,11.141143999999988,1391
54.29266399999989,10.493143999999988,1438
53.32066399999989,10.493143999999988,1359
54.940663999999884,11.141143999999988,1493
52.6726639999999,13.733143999999989,1171
52.3486639999999,13.733143999999989,1169
52.3486639999999,14.381143999999988,1178
52.0246639999999,14.381143999999988,1164
52.0246639999999,11.789143999999988,1203
52.3486639999999,11.789143999999988,1218
52.3486639999999,12.437143999999988,1199
52.0246639999999,15.029143999999986,1145
51.700663999999904,14.381143999999988,1118
52.0246639999999,13.733143999999989,1140
51.700663999999904,13.733143999999989,1130
52.6726639999999,12.437143999999988,1208
53.32066399999989,11.789143999999988,1269
53.96866399999989,11.789143999999988,1335
53.64466399999989,11.789143999999988,1306
53.64466399999989,11.141143999999988,1302
53.32066399999989,11.141143999999988,1293
52.996663999999896,11.789143999999988,1232
52.996663999999896,12.437143999999988,1224
52.996663999999896,13.733143999999989,1213
53.64466399999989,13.733143999999989,1297
53.96866399999989,13.733143999999989,1310
54.29266399999989,13.085143999999987,1317
53.96866399999989,13.085143999999987,1343
53.32066399999989,13.733143999999989,1307
52.0246639999999,13.085143999999987,1191
51.700663999999904,13.085143999999987,1186
52.996663999999896,14.381143999999988,1242
52.0246639999999,12.437143999999988,1194
51.700663999999904,12.437143999999988,1191
51.37666399999991,11.789143999999988,1174
51.37666399999991,12.437143999999988,1154
52.6726639999999,11.789143999999988,1223
53.64466399999989,13.085143999999987,1340
53.32066399999989,13.085143999999987,1305
52.996663999999896,13.085143999999987,1233
53.64466399999989,12.437143999999988,1304
51.37666399999991,13.733143999999989,1114
53.32066399999989,12.437143999999988,1256
52.6726639999999,14.381143999999988,1190
51.37666399999991,13.085143999999987,1129
53.32066399999989,14.381143999999988,1261
52.3486639999999,15.029143999999986,1191
52.0246639999999,15.677143999999986,1082
51.700663999999904,15.029143999999986,1107
51.05266399999991,16.325143999999987,982
51.05266399999991,16.973143999999984,969
51.700663999999904,15.677143999999986,1055
51.37666399999991,15.677143999999986,1010
51.37666399999991,16.325143999999987,996
50.72866399999991,13.085143999999987,1138
50.72866399999991,12.437143999999988,1145
51.05266399999991,13.085143999999987,1126
51.05266399999991,14.381143999999988,1106
50.40466399999991,12.437143999999988,1170
50.40466399999991,11.789143999999988,1213
50.08066399999991,12.437143999999988,1271
50.72866399999991,11.789143999999988,1197
51.05266399999991,12.437143999999988,1150
50.72866399999991,14.381143999999988,1125
51.37666399999991,14.381143999999988,1099
50.72866399999991,13.733143999999989,1175
50.40466399999991,14.381143999999988,1137
51.37666399999991,15.029143999999986,1042
55.26466399999988,9.197143999999987,1788
55.58866399999988,8.54914399999999,1822
55.91266399999988,8.54914399999999,2239
56.23666399999988,9.197143999999987,2247
56.23666399999988,10.493143999999988,2200
56.23666399999988,9.845143999999989,2187
55.91266399999988,9.845143999999989,2125
56.56066399999988,9.197143999999987,2257
56.56066399999988,8.54914399999999,2300
51.05266399999991,6.60514399999999,1364
51.700663999999904,7.90114399999999,1341
50.72866399999991,6.60514399999999,1368
51.700663999999904,7.25314399999999,1354
50.72866399999991,7.25314399999999,1376
52.0246639999999,7.25314399999999,1366
52.3486639999999,7.90114399999999,1384
51.05266399999991,5.957143999999991,1384
50.40466399999991,7.25314399999999,1399
51.700663999999904,6.60514399999999,1360
51.700663999999904,5.957143999999991,1388
52.3486639999999,9.197143999999987,1321
51.700663999999904,8.54914399999999,1329
52.0246639999999,8.54914399999999,1338
52.3486639999999,8.54914399999999,1358
51.37666399999991,7.90114399999999,1343
52.3486639999999,7.25314399999999,1401
51.37666399999991,5.957143999999991,1361
50.72866399999991,7.90114399999999,1369
51.37666399999991,9.197143999999987,1268
51.700663999999904,9.197143999999987,1306
50.40466399999991,6.60514399999999,1426
51.05266399999991,7.90114399999999,1373
51.37666399999991,8.54914399999999,1316
52.0246639999999,5.957143999999991,1431
52.3486639999999,6.60514399999999,1406
51.05266399999991,8.54914399999999,1343
52.0246639999999,9.197143999999987,1324
52.6726639999999,9.197143999999987,1350
52.0246639999999,9.845143999999989,1305
51.700663999999904,9.845143999999989,1270
51.37666399999991,9.845143999999989,1257
50.72866399999991,8.54914399999999,1358
51.05266399999991,9.845143999999989,1308
50.72866399999991,9.845143999999989,1329
50.40466399999991,9.845143999999989,1317
51.05266399999991,9.197143999999987,1280
50.40466399999991,9.197143999999987,1342
50.08066399999991,9.197143999999987,1345
51.05266399999991,10.493143999999988,1216
50.40466399999991,8.54914399999999,1352
50.72866399999991,9.197143999999987,1328
49.75666399999992,9.197143999999987,1385
52.996663999999896,9.197143999999987,1389
52.3486639999999,9.845143999999989,1315
52.996663999999896,8.54914399999999,1397
52.996663999999896,7.90114399999999,1409
53.32066399999989,7.90114399999999,1423
53.32066399999989,7.25314399999999,1453
53.64466399999989,7.25314399999999,1498
52.996663999999896,10.493143999999988,1343
52.6726639999999,10.493143999999988,1336
52.6726639999999,9.845143999999989,1320
53.32066399999989,9.845143999999989,1369
53.32066399999989,9.197143999999987,1380
53.64466399999989,8.54914399999999,1402
53.32066399999989,8.54914399999999,1391
52.6726639999999,8.54914399999999,1383
52.0246639999999,10.493143999999988,1349
52.0246639999999,11.141143999999988,1248
51.700663999999904,11.141143999999988,1240
52.6726639999999,7.25314399999999,1794
52.996663999999896,7.25314399999999,1822
52.6726639999999,7.90114399999999,1421
53.64466399999989,7.90114399999999,1451
52.996663999999896,11.141143999999988,1404
52.6726639999999,11.141143999999988,1490
52.3486639999999,10.493143999999988,1321
52.996663999999896,9.845143999999989,1356
51.700663999999904,10.493143999999988,1278
51.37666399999991,10.493143999999988,1194
51.700663999999904,11.789143999999988,1214
52.3486639999999,11.141143999999988,1258
51.37666399999991,11.141143999999988,1184
51.05266399999991,11.789143999999988,1191
49.10866399999992,11.141143999999988,1347
48.78466399999992,11.141143999999988,1355
48.46066399999992,11.789143999999988,1367
49.43266399999992,11.789143999999988,1300
50.08066399999991,11.789143999999988,1229
49.75666399999992,12.437143999999988,1312
49.10866399999992,11.789143999999988,1329
48.78466399999992,12.437143999999988,1344
48.46066399999992,12.437143999999988,1363
49.10866399999992,12.437143999999988,1332
48.78466399999992,13.085143999999987,1371
48.136663999999925,12.437143999999988,1396
47.81266399999993,11.789143999999988,1388
48.136663999999925,10.493143999999988,1445
47.81266399999993,10.493143999999988,1459
48.78466399999992,10.493143999999988,1368
47.48866399999993,10.493143999999988,1476
48.46066399999992,10.493143999999988,1398
49.43266399999992,13.085143999999987,1418
48.46066399999992,13.085143999999987,1392
49.43266399999992,10.493143999999988,1339
49.75666399999992,9.845143999999989,1360
49.75666399999992,10.493143999999988,1324
50.40466399999991,11.141143999999988,1219
50.08066399999991,11.141143999999988,1251
50.72866399999991,11.141143999999988,1209
49.75666399999992,11.141143999999988,1272
48.78466399999992,11.789143999999988,1346
50.40466399999991,10.493143999999988,1238
50.08066399999991,9.845143999999989,1332
50.08066399999991,10.493143999999988,1301
49.43266399999992,12.437143999999988,1335
49.75666399999992,11.789143999999988,1271
49.10866399999992,13.085143999999987,1473
50.72866399999991,10.493143999999988,1231
49.10866399999992,10.493143999999988,1364
48.78466399999992,9.845143999999989,1396
48.46066399999992,8.54914399999999,1408
48.46066399999992,9.197143999999987,1429
48.78466399999992,9.197143999999987,1393
48.78466399999992,8.54914399999999,1400
50.08066399999991,7.25314399999999,1427
49.75666399999992,6.60514399999999,1470
49.43266399999992,6.60514399999999,1434
49.10866399999992,6.60514399999999,1456
49.43266399999992,7.25314399999999,1428
49.75666399999992,7.25314399999999,1413
49.10866399999992,5.957143999999991,1512
48.78466399999992,7.25314399999999,1448
50.08066399999991,6.60514399999999,1468
47.48866399999993,9.197143999999987,1442
48.136663999999925,8.54914399999999,1422
48.136663999999925,9.197143999999987,1425
47.81266399999993,7.25314399999999,1452
49.43266399999992,9.845143999999989,1364
49.10866399999992,9.845143999999989,1390
53.64466399999989,14.381143999999988,1293
50.08066399999991,13.085143999999987,1154
49.75666399999992,13.085143999999987,1175
45.86866399999994,9.197143999999987,1558
46.19266399999994,9.197143999999987,1544
46.516663999999935,8.54914399999999,1490
46.516663999999935,9.197143999999987,1539
46.19266399999994,8.54914399999999,1541
47.16466399999993,8.54914399999999,1457
45.86866399999994,4.661143999999991,1620
46.84066399999993,9.845143999999989,1473
45.22066399999994,5.957143999999991,1696
45.22066399999994,5.309143999999991,1702
45.86866399999994,5.957143999999991,1620
45.54466399999994,5.957143999999991,1643
44.89666399999994,4.661143999999991,1644
44.89666399999994,5.309143999999991,1709
44.572663999999946,4.661143999999991,1679
44.24866399999995,4.661143999999991,1695
43.92466399999995,4.661143999999991,1684
46.19266399999994,7.25314399999999,1522
48.78466399999992,5.957143999999991,1507
48.136663999999925,6.60514399999999,1564
48.46066399999992,6.60514399999999,1523
48.78466399999992,6.60514399999999,1528
47.16466399999993,7.90114399999999,1468
48.136663999999925,7.25314399999999,1447
48.46066399999992,7.25314399999999,1436
46.516663999999935,6.60514399999999,1540
46.84066399999993,6.60514399999999,1507
46.84066399999993,7.25314399999999,1488
46.516663999999935,5.957143999999991,1550
46.19266399999994,5.957143999999991,1560
46.84066399999993,8.54914399999999,1461
46.84066399999993,7.90114399999999,1475
45.86866399999994,5.309143999999991,1629
46.19266399999994,6.60514399999999,1549
45.86866399999994,6.60514399999999,1543
47.48866399999993,6.60514399999999,1496
47.48866399999993,7.25314399999999,1485
47.16466399999993,7.25314399999999,1471
49.10866399999992,4.013143999999992,1545
49.75666399999992,4.661143999999991,1527
49.43266399999992,4.661143999999991,1568
49.10866399999992,5.309143999999991,1579
46.19266399999994,4.661143999999991,1626
46.84066399999993,9.197143999999987,1464
46.19266399999994,5.309143999999991,1601
46.516663999999935,5.309143999999991,1657
45.54466399999994,6.60514399999999,1726
45.54466399999994,5.309143999999991,1639
43.60066399999995,4.013143999999992,1722
43.60066399999995,3.365143999999992,1737
42.62866399999996,2.717143999999992,1825
43.276663999999954,2.717143999999992,1772
45.54466399999994,4.661143999999991,1625
45.22066399999994,4.661143999999991,1632
47.16466399999993,5.309143999999991,1558
47.16466399999993,5.957143999999991,1555
46.19266399999994,7.90114399999999,1506
49.75666399999992,2.717143999999992,1555
49.10866399999992,2.717143999999992,1493
48.78466399999992,2.717143999999992,1505
45.86866399999994,3.365143999999992,1734
46.84066399999993,3.365143999999992,1672
46.516663999999935,3.365143999999992,1714
46.19266399999994,3.365143999999992,1709
47.16466399999993,6.60514399999999,1508
49.10866399999992,3.365143999999992,1523
45.54466399999994,4.013143999999992,1688
46.516663999999935,7.25314399999999,1528
47.16466399999993,4.661143999999991,1564
46.84066399999993,4.661143999999991,1585
46.516663999999935,4.661143999999991,1598
46.84066399999993,5.957143999999991,1566
47.81266399999993,3.365143999999992,1608
47.48866399999993,4.013143999999992,1628
48.136663999999925,4.013143999999992,1628
47.81266399999993,4.013143999999992,1639
47.48866399999993,4.661143999999991,1577
47.16466399999993,3.365143999999992,1704
46.84066399999993,4.013143999999992,1640
48.46066399999992,5.957143999999991,1536
46.19266399999994,2.717143999999992,1758
47.16466399999993,2.0691439999999925,1624
46.516663999999935,2.717143999999992,1720
46.84066399999993,2.717143999999992,1708
46.84066399999993,2.0691439999999925,1674
47.16466399999993,2.717143999999992,1646
44.572663999999946,5.309143999999991,1712
44.572663999999946,5.957143999999991,1809
44.89666399999994,6.60514399999999,1734
44.572663999999946,6.60514399999999,1866
43.60066399999995,5.309143999999991,1706
43.92466399999995,7.25314399999999,1847
43.60066399999995,6.60514399999999,1835
43.276663999999954,6.60514399999999,1809
43.276663999999954,5.957143999999991,1751
45.86866399999994,8.54914399999999,1565
45.54466399999994,8.54914399999999,1572
48.136663999999925,3.365143999999992,1590
48.46066399999992,3.365143999999992,1612
48.46066399999992,2.717143999999992,1571
47.48866399999993,5.309143999999991,1596
46.516663999999935,9.845143999999989,1484
46.84066399999993,10.493143999999988,1513
47.81266399999993,5.309143999999991,1587
45.22066399999994,6.60514399999999,1700
46.19266399999994,4.013143999999992,1662
45.86866399999994,4.013143999999992,1674
45.22066399999994,4.013143999999992,1721
44.89666399999994,4.013143999999992,1777
46.84066399999993,5.309143999999991,1653
48.136663999999925,-1.8188560000000056,1629
48.136663999999925,0.1251439999999934,1570
48.136663999999925,-0.5228560000000062,1601
47.48866399999993,-0.5228560000000062,1634
47.16466399999993,-1.8188560000000056,1674
47.48866399999993,0.7731439999999932,1629
47.16466399999993,0.1251439999999934,1649
45.86866399999994,7.25314399999999,1549
48.136663999999925,5.309143999999991,1651
49.10866399999992,4.661143999999991,1564
48.46066399999992,4.013143999999992,1644
48.136663999999925,4.661143999999991,1691
47.81266399999993,6.60514399999999,1510
47.48866399999993,5.957143999999991,1581
48.136663999999925,5.957143999999991,2846
45.86866399999994,7.90114399999999,1527
46.516663999999935,7.90114399999999,1487
49.43266399999992,3.365143999999992,1539
49.43266399999992,4.013143999999992,1586
48.136663999999925,2.717143999999992,1628
47.81266399999993,2.717143999999992,1639
47.48866399999993,2.717143999999992,1657
50.40466399999991,2.717143999999992,1468
48.46066399999992,-4.410856000000004,1776
48.46066399999992,-3.7628560000000046,1740
48.46066399999992,-3.114856000000005,1711
48.46066399999992,-2.4668560000000053,1690
47.48866399999993,1.4211439999999929,1620
47.16466399999993,1.4211439999999929,1635
46.516663999999935,4.013143999999992,1645
43.60066399999995,4.661143999999991,1734
44.89666399999994,2.717143999999992,1906
45.22066399999994,2.717143999999992,1867
45.54466399999994,3.365143999999992,1785
45.22066399999994,3.365143999999992,1804
47.48866399999993,3.365143999999992,1688
46.19266399999994,9.845143999999989,1560
47.81266399999993,2.0691439999999925,1584
47.48866399999993,2.0691439999999925,1600
45.86866399999994,2.717143999999992,2303
44.89666399999994,5.957143999999991,2291
45.22066399999994,1.4211439999999929,1797
44.89666399999994,1.4211439999999929,1824
44.89666399999994,2.0691439999999925,1854
43.276663999999954,2.0691439999999925,2275
43.60066399999995,1.4211439999999929,1884
48.78466399999992,4.661143999999991,1586
48.78466399999992,5.309143999999991,1563
46.19266399999994,2.0691439999999925,2309
45.86866399999994,1.4211439999999929,1735
46.19266399999994,1.4211439999999929,1822
44.572663999999946,4.013143999999992,2455
44.89666399999994,3.365143999999992,2434
43.92466399999995,4.013143999999992,1772
44.24866399999995,4.013143999999992,1754
44.89666399999994,-0.5228560000000062,1694
45.54466399999994,0.1251439999999934,1714
46.516663999999935,0.1251439999999934,1665
44.572663999999946,2.0691439999999925,1882
49.75666399999992,4.013143999999992,1522
43.92466399999995,3.365143999999992,2376
43.92466399999995,2.717143999999992,2407
44.24866399999995,3.365143999999992,2432
44.572663999999946,3.365143999999992,2477
49.10866399999992,0.1251439999999934,1635
49.43266399999992,0.7731439999999932,1619
49.43266399999992,-1.8188560000000056,1736
49.10866399999992,-1.170856000000006,1712
49.10866399999992,-0.5228560000000062,1659
49.10866399999992,0.7731439999999932,1619
49.10866399999992,1.4211439999999929,1593
47.81266399999993,-1.8188560000000056,1675
47.81266399999993,-2.4668560000000053,1707
47.81266399999993,-3.114856000000005,1733
48.136663999999925,-3.7628560000000046,1770
44.572663999999946,9.197143999999987,1616
44.89666399999994,8.54914399999999,1587
45.22066399999994,9.197143999999987,1579
45.54466399999994,10.493143999999988,1627
44.572663999999946,10.493143999999988,2758
44.89666399999994,10.493143999999988,1655
44.89666399999994,9.845143999999989,1689
48.46066399999992,5.309143999999991,1629
50.91599999999999,-1.0580000000000025,65535
51.23999999999999,-0.4100000000000028,65535
50.91599999999999,-0.4100000000000028,65535
51.23999999999999,-2.354000000000002,65535
51.56399999999999,-2.354000000000002,65535
51.56399999999999,-3.0020000000000016,65535
50.91599999999999,-2.354000000000002,65535
53.50799999999997,-3.0020000000000016,65535
53.183999999999976,-2.354000000000002,65535
53.183999999999976,-3.0020000000000016,65535
52.85999999999998,-2.354000000000002,65535
52.21199999999998,-1.0580000000000025,65535
51.887999999999984,-1.0580000000000025,65535
52.53599999999998,-1.0580000000000025,65535
52.53599999999998,-1.7060000000000022,65535
52.85999999999998,-1.7060000000000022,65535
53.50799999999997,-2.354000000000002,65535
52.85999999999998,-1.0580000000000025,65535
52.53599999999998,1.5339999999999965,65535
52.53599999999998,0.8859999999999966,65535
52.53599999999998,0.2379999999999968,65535
52.53599999999998,-0.4100000000000028,65535
53.50799999999997,-1.7060000000000022,65535
53.183999999999976,-1.7060000000000022,65535
53.183999999999976,-1.0580000000000025,65535
52.85999999999998,-0.4100000000000028,65535
51.887999999999984,-2.354000000000002,65535
52.21199999999998,-2.354000000000002,65535
55.77599999999996,-2.354000000000002,65535
53.83199999999997,-1.0580000000000025,65535
53.83199999999997,-1.7060000000000022,65535
55.127999999999965,-1.7060000000000022,65535
54.80399999999997,-1.7060000000000022,65535
54.47999999999997,-1.7060000000000022,65535
54.15599999999997,-1.0580000000000025,65535
52.21199999999998,-1.7060000000000022,65535
53.50799999999997,-1.0580000000000025,65535
55.77599999999996,-3.0020000000000016,65535
55.45199999999996,-1.7060000000000022,65535
57.07199999999995,-2.354000000000002,65535
56.74799999999996,-3.0020000000000016,65535
56.42399999999996,-3.0020000000000016,65535
56.09999999999996,-3.650000000000001,65535
50.91599999999999,-3.0020000000000016,65535
50.91599999999999,-3.650000000000001,65535
50.59199999999999,-3.650000000000001,65535
50.59199999999999,-4.298000000000001,65535
51.23999999999999,-3.0020000000000016,65535
50.268,-4.946000000000001,65535
55.77599999999996,-3.650000000000001,65535
55.77599999999996,-4.298000000000001,65535
52.21199999999998,-0.4100000000000028,65535
52.53599999999998,-2.354000000000002,65535
51.56399999999999,-1.7060000000000022,65535
51.56399999999999,-3.650000000000001,65535
51.887999999999984,-4.298000000000001,65535
51.56399999999999,-4.298000000000001,65535
51.887999999999984,-1.7060000000000022,65535
52.21199999999998,-3.0020000000000016,65535
51.23999999999999,0.2379999999999968,65535
50.91599999999999,0.2379999999999968,65535
52.21199999999998,0.2379999999999968,65535
53.83199999999997,-3.0020000000000016,65535
54.15599999999997,-3.0020000000000016,65535
54.47999999999997,-3.0020000000000016,65535
55.127999999999965,-3.650000000000001,65535
54.80399999999997,-3.0020000000000016,65535
53.83199999999997,-2.354000000000002,65535
54.15599999999997,-0.4100000000000028,65535
54.47999999999997,-1.0580000000000025,65535
53.83199999999997,-0.4100000000000028,65535
53.183999999999976,-3.650000000000001,65535
53.183999999999976,-4.298000000000001,65535
52.85999999999998,-3.0020000000000016,65535
52.53599999999998,-3.0020000000000016,65535
51.887999999999984,-3.0020000000000016,65535
51.23999999999999,0.8859999999999966,65535
51.887999999999984,0.2379999999999968,65535
52.21199999999998,0.8859999999999966,65535
51.887999999999984,-4.946000000000001,65535
52.53599999999998,-3.650000000000001,65535
52.21199999999998,-4.298000000000001,65535
53.183999999999976,-0.4100000000000028,65535
51.23999999999999,-3.650000000000001,65535
51.887999999999984,-3.650000000000001,65535
52.21199999999998,-3.650000000000001,65535
51.56399999999999,0.8859999999999966,65535
51.887999999999984,0.8859999999999966,65535
52.85999999999998,0.8859999999999966,65535
53.50799999999997,-0.4100000000000028,65535
56.09999999999996,-4.298000000000001,65535
56.74799999999996,-4.946000000000001,65535
56.74799999999996,-4.298000000000001,65535
56.42399999999996,-4.946000000000001,65535
56.42399999999996,-4.298000000000001,65535
56.09999999999996,-4.946000000000001,65535
57.39599999999995,-4.298000000000001,65535
57.39599999999995,-3.0020000000000016,65535
57.39599999999995,-3.650000000000001,65535
56.42399999999996,-3.650000000000001,65535
57.07199999999995,-3.650000000000001,65535
57.07199999999995,-4.298000000000001,65535
56.74799999999996,-3.650000000000001,65535
59.15266399999986,27.34114399999998,65535
59.47666399999986,26.69314399999997,65535
59.47666399999986,26.04514399999998,65535
59.15266399999986,26.04514399999998,65535
59.15266399999986,24.74914399999998,65535
59.15266399999986,25.397143999999983,65535
59.47666399999986,25.397143999999983,65535
58.50466399999986,26.69314399999997,65535
58.82866399999986,26.69314399999997,65535
57.85666399999987,26.04514399999998,65535
58.180663999999865,26.04514399999998,65535
58.180663999999865,26.69314399999997,65535
58.82866399999986,26.04514399999998,65535
58.50466399999986,25.397143999999983,65535
58.82866399999986,25.397143999999983,65535
58.82866399999986,24.74914399999998,65535
58.180663999999865,27.34114399999998,65535
57.85666399999987,27.34114399999998,65535
63.68866399999983,27.34114399999998,65535
60.124663999999854,24.74914399999998,65535
60.44866399999985,24.74914399999998,65535
60.44866399999985,25.397143999999983,65535
60.77266399999985,25.397143999999983,65535
61.09666399999985,26.04514399999998,65535
60.77266399999985,26.04514399999998,65535
60.77266399999985,26.69314399999997,65535
61.09666399999985,25.397143999999983,65535
61.09666399999985,26.69314399999997,65535
61.420663999999846,26.69314399999997,65535
61.74466399999984,27.34114399999998,65535
62.06866399999984,27.34114399999998,65535
62.39266399999984,27.34114399999998,65535
62.71666399999984,27.34114399999998,65535
64.01266399999983,27.34114399999998,65535
63.36466399999984,27.34114399999998,65535
63.04066399999984,27.34114399999998,65535
63.04066399999984,27.989143999999985,65535
64.33666399999983,27.989143999999985,65535
64.33666399999983,27.34114399999998,65535
64.66066399999983,27.34114399999998,65535
64.66066399999983,26.69314399999997,4756
64.98466399999982,25.397143999999983,4519
64.66066399999983,26.04514399999998,4736
64.98466399999982,26.04514399999998,4720
66.28066399999982,25.397143999999983,65535
65.95666399999982,24.74914399999998,4432
65.63266399999982,24.74914399999998,4436
65.63266399999982,25.397143999999983,4478
65.30866399999982,25.397143999999983,4499
66.60466399999981,25.397143999999983,65535
64.01266399999983,24.74914399999998,4656
64.01266399999983,24.101143999999977,4691
64.01266399999983,23.45314399999998,4715
63.68866399999983,23.45314399999998,4727
63.68866399999983,22.805143999999984,4752
63.68866399999983,26.04514399999998,65535
63.68866399999983,25.397143999999983,65535
63.68866399999983,26.69314399999997,65535
60.44866399999985,26.69314399999997,65535
64.01266399999983,27.989143999999985,65535
62.71666399999984,22.805143999999984,65535
62.39266399999984,22.805143999999984,65535
62.06866399999984,22.805143999999984,65535
62.06866399999984,23.45314399999998,65535
61.74466399999984,23.45314399999998,65535
61.420663999999846,23.45314399999998,65535
61.09666399999985,23.45314399999998,65535
61.09666399999985,24.101143999999977,65535
61.09666399999985,24.74914399999998,65535
60.77266399999985,24.74914399999998,65535
63.04066399999984,21.50914399999997,65535
63.04066399999984,22.15714399999998,65535
63.04066399999984,22.805143999999984,65535
62.39266399999984,26.04514399999998,65535
62.06866399999984,25.397143999999983,65535
61.74466399999984,25.397143999999983,65535
61.74466399999984,24.74914399999998,65535
61.74466399999984,24.101143999999977,65535
61.420663999999846,24.101143999999977,65535
62.39266399999984,26.69314399999997,65535
64.66066399999983,25.397143999999983,4588
64.66066399999983,24.74914399999998,4606
64.33666399999983,24.74914399999998,4617
63.36466399999984,22.805143999999984,4777
67.25266399999981,24.101143999999977,65535
66.92866399999981,24.101143999999977,65535
66.60466399999981,23.45314399999998,65535
66.28066399999982,23.45314399999998,65535
66.28066399999982,24.101143999999977,65535
65.95666399999982,24.101143999999977,3804
60.124663999999854,24.101143999999977,65535
60.124663999999854,23.45314399999998,65535
60.44866399999985,22.805143999999984,65535
60.77266399999985,27.34114399999998,65535
61.09666399999985,27.989143999999985,65535
61.09666399999985,28.63714399999997,65535
61.420663999999846,29.28514399999997,65535
61.74466399999984,29.933143999999977,65535
62.06866399999984,29.933143999999977,65535
62.39266399999984,29.933143999999977,65535
62.71666399999984,29.933143999999977,65535
61.420663999999846,22.805143999999984,65535
61.420663999999846,22.15714399999998,65535
61.09666399999985,22.15714399999998,65535
61.420663999999846,21.50914399999997,65535
62.39266399999984,27.989143999999985,65535
62.06866399999984,27.989143999999985,65535
61.420663999999846,27.34114399999998,65535
63.04066399999984,29.933143999999977,65535
63.68866399999983,29.28514399999997,65535
63.36466399999984,29.28514399999997,65535
63.36466399999984,29.933143999999977,65535
60.44866399999985,27.34114399999998,65535
61.74466399999984,29.28514399999997,65535
62.39266399999984,30.58114399999998,65535
62.71666399999984,31.229143999999977,65535
62.71666399999984,29.28514399999997,65535
63.04066399999984,28.63714399999997,65535
66.60466399999981,26.04514399999998,65535
66.60466399999981,26.69314399999997,65535
66.60466399999981,27.34114399999998,65535
62.71666399999984,26.04514399999998,65535
62.71666399999984,25.397143999999983,65535
63.04066399999984,25.397143999999983,65535
63.36466399999984,25.397143999999983,65535
62.71666399999984,23.45314399999998,65535
62.39266399999984,24.101143999999977,65535
62.71666399999984,22.15714399999998,65535
62.39266399999984,22.15714399999998,65535
62.39266399999984,21.50914399999997,65535
61.09666399999985,21.50914399999997,65535
60.77266399999985,22.805143999999984,65535
60.44866399999985,22.15714399999998,65535
60.77266399999985,23.45314399999998,65535
60.77266399999985,21.50914399999997,65535
60.77266399999985,22.15714399999998,65535
60.124663999999854,22.805143999999984,65535
60.44866399999985,24.101143999999977,65535
62.06866399999984,24.74914399999998,65535
50.72866399999991,16.325143999999987,980
50.40466399999991,16.973143999999984,1005
50.72866399999991,16.973143999999984,973
50.40466399999991,16.325143999999987,1014
50.08066399999991,16.973143999999984,1079
50.08066399999991,16.325143999999987,1074
51.700663999999904,16.973143999999984,1029
51.37666399999991,16.973143999999984,973
51.05266399999991,15.677143999999986,1043
50.72866399999991,15.677143999999986,1023
51.05266399999991,17.621143999999987,964
51.37666399999991,17.621143999999987,1014
51.700663999999904,17.621143999999987,1003
51.700663999999904,16.325143999999987,1036
52.0246639999999,22.15714399999998,418
52.0246639999999,21.50914399999997,375
52.3486639999999,21.50914399999997,393
52.0246639999999,20.86114399999998,402
51.700663999999904,20.86114399999998,411
51.37666399999991,21.50914399999997,348
51.37666399999991,20.86114399999998,373
51.05266399999991,20.86114399999998,425
52.6726639999999,23.45314399999998,947
52.3486639999999,22.805143999999984,887
52.3486639999999,20.213143999999986,430
52.0246639999999,20.213143999999986,435
52.3486639999999,19.565143999999982,1168
52.6726639999999,19.565143999999982,1081
51.700663999999904,21.50914399999997,342
51.700663999999904,22.15714399999998,294
52.6726639999999,21.50914399999997,403
52.996663999999896,21.50914399999997,429
52.6726639999999,20.86114399999998,387
52.6726639999999,22.15714399999998,419
52.6726639999999,20.213143999999986,1021
52.996663999999896,19.565143999999982,1092
52.996663999999896,20.86114399999998,420
52.996663999999896,20.213143999999986,429
53.32066399999989,20.213143999999986,453
51.37666399999991,20.213143999999986,783
52.3486639999999,16.973143999999984,1061
52.0246639999999,16.973143999999984,1120
52.0246639999999,16.325143999999987,1097
52.0246639999999,17.621143999999987,1048
52.6726639999999,16.973143999999984,1091
52.996663999999896,16.973143999999984,1130
52.3486639999999,16.325143999999987,1123
52.3486639999999,15.677143999999986,1160
51.700663999999904,18.269143999999983,962
52.6726639999999,17.621143999999987,1076
52.3486639999999,17.621143999999987,1056
52.6726639999999,18.269143999999983,1142
52.3486639999999,18.269143999999983,1168
52.3486639999999,18.917143999999983,1207
52.996663999999896,17.621143999999987,1214
51.700663999999904,19.565143999999982,830
51.700663999999904,18.917143999999983,925
51.37666399999991,18.269143999999983,1366
58.82866399999986,9.197143999999987,2768
58.180663999999865,7.90114399999999,2861
58.50466399999986,8.54914399999999,2812
63.36466399999984,10.493143999999988,2983
63.36466399999984,11.141143999999988,2990
63.36466399999984,11.789143999999988,3025
63.68866399999983,11.789143999999988,3053
64.33666399999983,12.437143999999988,3454
64.66066399999983,12.437143999999988,3949
65.63266399999982,13.085143999999987,3606
65.95666399999982,13.085143999999987,3641
66.28066399999982,14.381143999999988,3711
65.95666399999982,13.733143999999989,3780
66.28066399999982,13.733143999999989,3689
65.30866399999982,13.085143999999987,3907
64.98466399999982,13.085143999999987,3541
64.01266399999983,11.789143999999988,3084
63.68866399999983,11.141143999999988,3021
59.800663999999855,10.493143999999988,2564
59.800663999999855,11.141143999999988,2547
60.124663999999854,11.141143999999988,2562
60.44866399999985,11.141143999999988,2575
60.124663999999854,11.789143999999988,2588
60.77266399999985,7.25314399999999,2824
60.77266399999985,6.60514399999999,2870
59.15266399999986,9.197143999999987,2650
59.47666399999986,9.197143999999987,2671
59.800663999999855,9.845143999999989,2566
59.47666399999986,11.141143999999988,2511
61.09666399999985,10.493143999999988,2685
60.77266399999985,10.493143999999988,2655
60.77266399999985,11.141143999999988,2610
62.06866399999984,9.197143999999987,3010
61.74466399999984,9.845143999999989,2956
61.420663999999846,9.845143999999989,2933
59.15266399999986,9.845143999999989,2630
59.47666399999986,9.845143999999989,2606
58.82866399999986,5.957143999999991,3045
58.180663999999865,7.25314399999999,2917
58.50466399999986,7.25314399999999,2950
58.50466399999986,6.60514399999999,2955
58.50466399999986,5.957143999999991,3013
58.82866399999986,8.54914399999999,2798
60.44866399999985,7.25314399999999,2798
60.44866399999985,7.90114399999999,2759
60.124663999999854,10.493143999999988,2596
60.44866399999985,9.197143999999987,2708
60.77266399999985,9.197143999999987,2720
60.77266399999985,8.54914399999999,2739
60.124663999999854,9.845143999999989,2975
60.44866399999985,10.493143999999988,2641
63.04066399999984,10.493143999999988,2934
62.06866399999984,9.845143999999989,3035
62.39266399999984,9.845143999999989,3043
62.71666399999984,9.845143999999989,3067
59.47666399999986,14.381143999999988,2560
59.47666399999986,13.733143999999989,2501
59.47666399999986,13.085143999999987,2477
59.800663999999855,12.437143999999988,2546
59.15266399999986,11.141143999999988,2475
59.15266399999986,14.381143999999988,2574
58.82866399999986,11.789143999999988,2455
58.50466399999986,12.437143999999988,2385
58.180663999999865,12.437143999999988,2378
57.85666399999987,11.789143999999988,2329
62.71666399999984,7.90114399999999,3096
62.39266399999984,7.90114399999999,3053
62.06866399999984,8.54914399999999,3028
60.44866399999985,5.309143999999991,2944
60.44866399999985,5.957143999999991,2911
60.77266399999985,5.957143999999991,2900
62.39266399999984,11.141143999999988,2831
62.06866399999984,10.493143999999988,2786
61.74466399999984,11.141143999999988,2759
61.420663999999846,11.141143999999988,2713
61.09666399999985,11.141143999999988,2696
60.77266399999985,11.789143999999988,2673
63.04066399999984,11.141143999999988,2912
62.71666399999984,11.141143999999988,2855
62.39266399999984,10.493143999999988,2813
67.25266399999981,15.677143999999986,3830
67.25266399999981,15.029143999999986,3868
67.25266399999981,14.381143999999988,3896
66.92866399999981,15.029143999999986,3819
66.60466399999981,15.677143999999986,3797
64.01266399999983,11.141143999999988,3068
66.60466399999981,15.029143999999986,3860
54.29266399999989,18.269143999999983,1122
54.616663999999886,17.621143999999987,1266
53.96866399999989,18.269143999999983,1163
43.92466399999995,1.4211439999999929,1862
44.24866399999995,0.7731439999999932,1823
44.572663999999946,0.1251439999999934,1761
46.84066399999993,1.4211439999999929,1663
44.572663999999946,1.4211439999999929,1871
44.24866399999995,1.4211439999999929,2250
45.54466399999994,1.4211439999999929,1763
46.516663999999935,1.4211439999999929,1680
42.30466399999996,2.717143999999992,2431
44.24866399999995,2.717143999999992,1968
44.572663999999946,2.717143999999992,1943
43.92466399999995,2.0691439999999925,1945
42.30466399999996,2.0691439999999925,2472
42.62866399999996,2.0691439999999925,2379
42.62866399999996,1.4211439999999929,2372
42.95266399999996,1.4211439999999929,2365
43.276663999999954,1.4211439999999929,2310
46.516663999999935,-1.170856000000006,1740
46.19266399999994,-1.170856000000006,1762
45.86866399999994,-0.5228560000000062,1791
45.54466399999994,-0.5228560000000062,1745
48.46066399999992,1.4211439999999929,1545
41.332663999999966,2.0691439999999925,2674
41.98066399999996,2.717143999999992,2633
48.46066399999992,-1.8188560000000056,1723
47.81266399999993,0.7731439999999932,1636
46.84066399999993,0.7731439999999932,1699
44.572663999999946,-1.170856000000006,1705
43.60066399999995,-1.170856000000006,1768
43.276663999999954,-1.8188560000000056,1815
43.276663999999954,0.1251439999999934,1879
42.95266399999996,0.1251439999999934,1853
43.276663999999954,-0.5228560000000062,1825
43.60066399999995,-0.5228560000000062,1802
47.81266399999993,-3.7628560000000046,1816
47.48866399999993,-2.4668560000000053,1715
47.81266399999993,-0.5228560000000062,1637
46.516663999999935,-1.8188560000000056,1756
48.136663999999925,-1.170856000000006,1658
47.48866399999993,-1.170856000000006,1673
45.22066399999994,8.54914399999999,1582
45.22066399999994,7.90114399999999,1632
46.19266399999994,-0.5228560000000062,1718
46.516663999999935,-0.5228560000000062,1700
48.78466399999992,-3.114856000000005,1815
50.72866399999991,2.0691439999999925,1488
50.40466399999991,2.0691439999999925,1477
40.36066399999997,-3.7628560000000046,2865
41.65666399999997,-1.170856000000006,2782
41.332663999999966,1.4211439999999929,2720
43.276663999999954,13.733143999999989,65535
42.95266399999996,13.733143999999989,65535
41.65666399999997,15.029143999999986,65535
40.68466399999997,17.621143999999987,65535
43.60066399999995,13.085143999999987,65535
41.65666399999997,12.437143999999988,4009
41.65666399999997,13.085143999999987,4028
41.98066399999996,13.085143999999987,4078
41.65666399999997,13.733143999999989,4080
41.332663999999966,13.733143999999989,4072
41.332663999999966,14.381143999999988,4229
41.00866399999997,14.381143999999988,4135
41.332663999999966,13.085143999999987,4054
41.00866399999997,15.029143999999986,4335
41.98066399999996,13.733143999999989,4277
42.30466399999996,14.381143999999988,4416
42.30466399999996,12.437143999999988,4017
42.62866399999996,12.437143999999988,4196
42.95266399999996,12.437143999999988,4481
42.30466399999996,11.789143999999988,4026
42.95266399999996,11.789143999999988,4236
42.62866399999996,11.789143999999988,4227
43.276663999999954,11.789143999999988,4290
42.95266399999996,13.085143999999987,65535
42.30466399999996,13.085143999999987,4303
43.276663999999954,13.085143999999987,65535
43.276663999999954,12.437143999999988,65535
42.62866399999996,11.141143999999988,4072
42.95266399999996,11.141143999999988,4115
42.95266399999996,10.493143999999988,4133
44.572663999999946,8.54914399999999,1610
44.89666399999994,7.90114399999999,1612
44.89666399999994,9.197143999999987,1692
44.24866399999995,7.90114399999999,1674
44.572663999999946,7.90114399999999,1637
43.92466399999995,7.90114399999999,1861
44.24866399999995,7.25314399999999,1716
44.89666399999994,7.25314399999999,1698
45.22066399999994,7.25314399999999,1678
45.54466399999994,7.90114399999999,1661
44.572663999999946,7.25314399999999,2302
52.996663999999896,22.805143999999984,963
52.996663999999896,23.45314399999998,985
51.37666399999991,22.15714399999998,241
51.37666399999991,22.805143999999984,84
50.08066399999991,20.213143999999986,929
50.72866399999991,20.213143999999986,815
50.40466399999991,20.213143999999986,853
50.08066399999991,20.86114399999998,972
50.08066399999991,21.50914399999997,944
50.08066399999991,22.15714399999998,888
50.08066399999991,22.805143999999984,908
53.96866399999989,22.805143999999984,1121
53.64466399999989,23.45314399999998,1075
53.32066399999989,23.45314399999998,1022
50.40466399999991,19.565143999999982,889
50.08066399999991,18.917143999999983,903
50.08066399999991,18.269143999999983,1081
52.0246639999999,22.805143999999984,826
52.0246639999999,23.45314399999998,864
51.37666399999991,19.565143999999982,874
51.05266399999991,19.565143999999982,913
50.72866399999991,18.917143999999983,928
50.72866399999991,19.565143999999982,884
49.75666399999992,18.917143999999983,984
50.40466399999991,18.269143999999983,919
53.64466399999989,19.565143999999982,891
53.96866399999989,18.917143999999983,1082
53.64466399999989,18.917143999999983,1031
53.64466399999989,20.213143999999986,863
52.996663999999896,18.917143999999983,991
52.996663999999896,18.269143999999983,1100
53.32066399999989,18.917143999999983,945
50.72866399999991,17.621143999999987,940
50.72866399999991,18.269143999999983,964
52.6726639999999,16.325143999999987,1127
52.996663999999896,16.325143999999987,1172
52.996663999999896,15.677143999999986,1190
53.32066399999989,15.677143999999986,1210
53.32066399999989,15.029143999999986,1218
53.64466399999989,15.029143999999986,1335
53.96866399999989,15.029143999999986,1360
52.6726639999999,18.917143999999983,1132
53.32066399999989,16.325143999999987,1187
52.6726639999999,15.029143999999986,1235
51.05266399999991,22.805143999999984,194
51.05266399999991,23.45314399999998,224
50.72866399999991,22.15714399999998,282
50.40466399999991,22.15714399999998,340
51.05266399999991,22.15714399999998,238
54.616663999999886,16.973143999999984,1300
54.29266399999989,16.325143999999987,1345
53.96866399999989,15.677143999999986,1312
50.72866399999991,21.50914399999997,811
50.40466399999991,21.50914399999997,843
50.40466399999991,17.621143999999987,930
53.32066399999989,22.805143999999984,1114
53.64466399999989,22.15714399999998,1138
54.29266399999989,16.973143999999984,1371
50.72866399999991,20.86114399999998,777
51.700663999999904,22.805143999999984,0
51.05266399999991,21.50914399999997,431
50.08066399999991,19.565143999999982,939
52.0246639999999,18.917143999999983,3688
52.0246639999999,19.565143999999982,3681
53.64466399999989,18.269143999999983,1062
51.700663999999904,20.213143999999986,806
53.32066399999989,19.565143999999982,860
50.72866399999991,23.45314399999998,1195
50.72866399999991,22.805143999999984,1164
49.43266399999992,20.213143999999986,1084
49.75666399999992,21.50914399999997,957
49.75666399999992,22.15714399999998,2262
49.43266399999992,22.15714399999998,1430
51.05266399999991,18.917143999999983,1376
51.05266399999991,18.269143999999983,1074
53.32066399999989,16.973143999999984,1339
53.64466399999989,16.973143999999984,1358
49.75666399999992,20.86114399999998,1044
50.40466399999991,22.805143999999984,3770
53.64466399999989,16.325143999999987,1344
53.96866399999989,20.86114399999998,1026
54.29266399999989,20.86114399999998,1072
53.96866399999989,21.50914399999997,1089
53.64466399999989,15.677143999999986,1272
53.96866399999989,20.213143999999986,974
53.96866399999989,19.565143999999982,1018
54.29266399999989,19.565143999999982,1069
53.96866399999989,16.325143999999987,1329
53.64466399999989,17.621143999999987,1389
53.96866399999989,22.15714399999998,1156
53.64466399999989,21.50914399999997,1094
53.64466399999989,20.86114399999998,1047
52.6726639999999,15.677143999999986,1213
51.05266399999991,20.213143999999986,769
54.940663999999884,24.101143999999977,65535
54.616663999999886,23.45314399999998,65535
54.29266399999989,23.45314399999998,65535
53.64466399999989,22.805143999999984,1163
53.96866399999989,16.973143999999984,1513
50.40466399999991,20.86114399999998,1048
53.32066399999989,18.269143999999983,1071
49.75666399999992,19.565143999999982,953
50.40466399999991,23.45314399999998,984
49.75666399999992,20.213143999999986,1063
49.43266399999992,19.565143999999982,1087
49.43266399999992,20.86114399999998,1061
53.96866399999989,17.621143999999987,1412
42.30466399999996,-1.8188560000000056,3999
41.98066399999996,-1.8188560000000056,3982
41.65666399999997,0.7731439999999932,3986
42.62866399999996,-1.8188560000000056,4114
42.95266399999996,-1.8188560000000056,4143
42.62866399999996,-3.114856000000005,4237
42.95266399999996,-2.4668560000000053,4215
42.62866399999996,-7.650856000000003,4579
42.30466399999996,-7.650856000000003,4639
42.30466399999996,-8.946856000000002,4775
42.30466399999996,-8.298856000000002,4749
41.98066399999996,-8.298856000000002,4738
42.30466399999996,-7.002856000000003,4521
42.62866399999996,-6.354856000000003,4463
42.30466399999996,-6.354856000000003,4418
42.62866399999996,-5.706856000000004,3918
41.98066399999996,-4.410856000000004,3872
42.30466399999996,-3.7628560000000046,4263
40.03666399999997,-0.5228560000000062,3966
39.38866399999998,-0.5228560000000062,4014
41.00866399999997,0.7731439999999932,4114
40.68466399999997,0.7731439999999932,4146
40.36066399999997,0.1251439999999934,4224
39.712663999999975,-0.5228560000000062,4123
38.41666399999998,-0.5228560000000062,4135
39.06466399999998,-0.5228560000000062,4257
38.74066399999998,-1.170856000000006,4143
41.332663999999966,0.7731439999999932,4174
41.65666399999997,2.717143999999992,3774
41.65666399999997,2.0691439999999925,3797
41.332663999999966,0.1251439999999934,4132
41.332663999999966,-0.5228560000000062,4076
41.65666399999997,-4.410856000000004,3846
40.03666399999997,-2.4668560000000053,4084
41.00866399999997,-4.410856000000004,3967
43.276663999999954,-5.706856000000004,4048
39.38866399999998,-1.170856000000006,4109
38.09266399999999,-1.170856000000006,4522
38.74066399999998,-0.5228560000000062,4285
37.76866399999999,-1.170856000000006,4587
39.06466399999998,-1.8188560000000056,4107
39.38866399999998,-3.114856000000005,4007
39.38866399999998,-2.4668560000000053,4063
39.06466399999998,-2.4668560000000053,4090
39.06466399999998,-3.114856000000005,4011
39.06466399999998,-3.7628560000000046,3985
38.74066399999998,-3.7628560000000046,4064
40.03666399999997,-3.7628560000000046,3963
40.03666399999997,-3.114856000000005,4163
40.03666399999997,-1.8188560000000056,4244
39.712663999999975,-1.8188560000000056,4209
39.712663999999975,-1.170856000000006,4145
40.36066399999997,-1.170856000000006,4164
40.68466399999997,-1.170856000000006,4142
41.00866399999997,-1.170856000000006,4130
41.332663999999966,-1.170856000000006,3970
43.276663999999954,-8.298856000000002,4739
42.95266399999996,-8.298856000000002,4707
41.65666399999997,-5.706856000000004,65535
41.98066399999996,-7.002856000000003,65535
41.98066399999996,-6.354856000000003,65535
41.332663999999966,-5.058856000000004,4085
43.276663999999954,-3.7628560000000046,4520
42.95266399999996,-4.410856000000004,4454
42.62866399999996,-4.410856000000004,4444
42.30466399999996,-4.410856000000004,4403
41.00866399999997,-5.706856000000004,4023
41.332663999999966,-1.8188560000000056,3916
40.68466399999997,-3.114856000000005,3870
41.00866399999997,-3.114856000000005,3921
41.00866399999997,-2.4668560000000053,3944
41.332663999999966,-2.4668560000000053,3997
40.68466399999997,-4.410856000000004,3907
40.36066399999997,-4.410856000000004,3991
40.68466399999997,-3.7628560000000046,3899
40.36066399999997,-3.114856000000005,3877
41.65666399999997,-2.4668560000000053,4014
38.09266399999999,-3.7628560000000046,4111
38.74066399999998,-3.114856000000005,4055
37.76866399999999,-3.7628560000000046,4168
39.712663999999975,-3.114856000000005,3999
38.41666399999998,-3.7628560000000046,4076
40.03666399999997,-4.410856000000004,65535
40.03666399999997,-5.058856000000004,65535
39.38866399999998,-6.354856000000003,65535
39.38866399999998,-7.002856000000003,65535
42.95266399999996,-3.114856000000005,4648
41.98066399999996,-1.170856000000006,4011
42.30466399999996,-2.4668560000000053,4052
41.65666399999997,-0.5228560000000062,4109
41.98066399999996,-0.5228560000000062,3946
41.65666399999997,0.1251439999999934,3973
41.98066399999996,0.1251439999999934,3995
37.76866399999999,-5.058856000000004,4047
36.79666399999999,-4.410856000000004,4106
38.74066399999998,-4.410856000000004,4003
37.12066399999999,-4.410856000000004,4080
37.44466399999999,-5.058856000000004,4604
37.44466399999999,-7.002856000000003,65535
37.44466399999999,-6.354856000000003,65535
37.44466399999999,-5.706856000000004,4280
39.712663999999975,-3.7628560000000046,4073
42.62866399999996,-8.946856000000002,65535
42.30466399999996,-5.706856000000004,4425
42.30466399999996,-5.058856000000004,4510
42.95266399999996,-5.706856000000004,3950
41.00866399999997,-5.058856000000004,3991
40.68466399999997,-5.058856000000004,3965
41.65666399999997,-5.058856000000004,65535
41.65666399999997,-6.354856000000003,65535
36.79666399999999,-6.354856000000003,65535
37.12066399999999,-5.706856000000004,4448
37.76866399999999,-5.706856000000004,4247
38.09266399999999,-4.410856000000004,4382
37.12066399999999,-5.058856000000004,4402
36.79666399999999,-5.058856000000004,4360
37.76866399999999,-4.410856000000004,65535
37.76866399999999,-7.002856000000003,65535
38.41666399999998,-6.354856000000003,65535
38.09266399999999,-6.354856000000003,65535
48.78466399999992,1.4211439999999929,1708
56.23666399999988,8.54914399999999,2290
55.58866399999988,9.197143999999987,2095
55.91266399999988,9.197143999999987,2236
55.26466399999988,10.493143999999988,1972
55.91266399999988,12.437143999999988,2109
55.58866399999988,11.789143999999988,2115
55.58866399999988,11.141143999999988,2106
55.26466399999988,11.789143999999988,2124
55.58866399999988,10.493143999999988,2091
55.58866399999988,13.085143999999987,2085
56.88466399999987,9.845143999999989,2242
57.20866399999987,9.845143999999989,2277
56.56066399999988,9.845143999999989,2214
56.88466399999987,8.54914399999999,2329
54.940663999999884,9.845143999999989,3436
54.940663999999884,11.789143999999988,2192
55.91266399999988,13.085143999999987,2184
56.23666399999988,13.733143999999989,2228
55.91266399999988,13.733143999999989,2231
56.23666399999988,14.381143999999988,2251
56.23666399999988,15.029143999999986,2292
56.23666399999988,15.677143999999986,2347
56.56066399999988,14.381143999999988,2308
56.88466399999987,14.381143999999988,2278
56.23666399999988,13.085143999999987,2176
56.56066399999988,13.085143999999987,2256
56.88466399999987,12.437143999999988,2293
57.20866399999987,12.437143999999988,2309
57.53266399999987,12.437143999999988,2324
56.88466399999987,15.029143999999986,2304
56.56066399999988,15.677143999999986,2364
56.88466399999987,15.677143999999986,2383
56.88466399999987,16.325143999999987,2398
55.91266399999988,11.789143999999988,2261
57.20866399999987,10.493143999999988,2464
49.43266399999992,1.4211439999999929,1642
49.75666399999992,0.7731439999999932,1651
49.75666399999992,2.0691439999999925,1580
50.08066399999991,2.717143999999992,1551
49.75666399999992,1.4211439999999929,1627
47.81266399999993,1.4211439999999929,1613
48.136663999999925,2.0691439999999925,1584
48.46066399999992,2.0691439999999925,1554
48.136663999999925,1.4211439999999929,1634
48.78466399999992,0.1251439999999934,1714
48.46066399999992,0.1251439999999934,1693
47.81266399999993,0.1251439999999934,1623
46.84066399999993,-0.5228560000000062,1764
47.16466399999993,0.7731439999999932,1641
46.84066399999993,0.1251439999999934,1687
46.84066399999993,-1.170856000000006,1713
50.08066399999991,1.4211439999999929,1537
50.08066399999991,2.0691439999999925,1553
49.43266399999992,2.717143999999992,1512
49.75666399999992,3.365143999999992,1523
50.08066399999991,3.365143999999992,1502
49.10866399999992,2.0691439999999925,1646
49.43266399999992,2.0691439999999925,1648
48.78466399999992,0.7731439999999932,2312
48.78466399999992,-0.5228560000000062,1764
48.78466399999992,-1.170856000000006,1793
48.136663999999925,0.7731439999999932,1592
48.46066399999992,0.7731439999999932,1561
43.92466399999995,5.957143999999991,2306
44.24866399999995,5.957143999999991,2277
43.92466399999995,5.309143999999991,1721
42.95266399999996,2.717143999999992,1816
45.54466399999994,2.0691439999999925,1817
45.22066399999994,2.0691439999999925,1837
42.95266399999996,2.0691439999999925,2377
42.95266399999996,0.7731439999999932,2287
43.276663999999954,0.7731439999999932,2298
46.19266399999994,0.7731439999999932,1778
46.516663999999935,0.7731439999999932,1748
45.86866399999994,0.1251439999999934,2307
46.19266399999994,0.1251439999999934,2324
47.81266399999993,-1.170856000000006,2416
48.136663999999925,-2.4668560000000053,1684
47.48866399999993,-1.8188560000000056,1706
47.16466399999993,-1.170856000000006,1704
47.16466399999993,-0.5228560000000062,1701
46.84066399999993,-1.8188560000000056,2400
45.22066399999994,-0.5228560000000062,1717
44.89666399999994,0.1251439999999934,1724
45.22066399999994,0.7731439999999932,1782
45.54466399999994,0.7731439999999932,1776
45.86866399999994,0.7731439999999932,2372
45.22066399999994,0.1251439999999934,2313
44.89666399999994,0.7731439999999932,1846
43.92466399999995,-0.5228560000000062,1781
43.92466399999995,-1.170856000000006,1771
44.24866399999995,-1.170856000000006,1751
45.22066399999994,-1.170856000000006,1794
44.572663999999946,-0.5228560000000062,1727
44.24866399999995,0.1251439999999934,1831
44.572663999999946,0.7731439999999932,2340
43.276663999999954,-1.170856000000006,2330
42.95266399999996,-0.5228560000000062,2532
44.24866399999995,2.0691439999999925,2319
43.60066399999995,0.7731439999999932,2292
43.60066399999995,2.0691439999999925,2293
52.6726639999999,4.661143999999991,2281
52.6726639999999,5.309143999999991,2304
51.700663999999904,5.309143999999991,2249
52.0246639999999,5.309143999999991,2261
52.3486639999999,5.309143999999991,2277
51.37666399999991,4.013143999999992,2257
52.3486639999999,5.957143999999991,2271
52.0246639999999,6.60514399999999,2301
52.6726639999999,5.957143999999991,2288
52.996663999999896,5.957143999999991,2301
53.32066399999989,5.957143999999991,2295
52.996663999999896,6.60514399999999,2277
53.32066399999989,6.60514399999999,2269
52.6726639999999,6.60514399999999,2297
52.996663999999896,5.309143999999991,2316
59.15266399999986,24.101143999999977,65535
56.88466399999987,24.101143999999977,65535
56.88466399999987,23.45314399999998,65535
56.88466399999987,22.805143999999984,65535
57.20866399999987,24.74914399999998,65535
56.88466399999987,24.74914399999998,65535
56.56066399999988,24.74914399999998,65535
56.56066399999988,25.397143999999983,65535
56.56066399999988,24.101143999999977,65535
56.56066399999988,23.45314399999998,65535
56.56066399999988,26.04514399999998,65535
56.88466399999987,26.04514399999998,65535
57.20866399999987,25.397143999999983,65535
57.53266399999987,25.397143999999983,65535
56.23666399999988,26.04514399999998,65535
56.23666399999988,26.69314399999997,65535
55.91266399999988,26.69314399999997,65535
56.56066399999988,26.69314399999997,65535
56.56066399999988,27.34114399999998,65535
56.56066399999988,27.989143999999985,65535
56.23666399999988,27.989143999999985,65535
55.91266399999988,27.34114399999998,65535
56.56066399999988,22.805143999999984,65535
56.56066399999988,22.15714399999998,65535
56.56066399999988,21.50914399999997,65535
57.20866399999987,26.69314399999997,65535
39.06466399999998,-8.946856000000002,65535
38.41666399999998,-8.298856000000002,65535
45.86866399999994,11.789143999999988,3028
46.19266399999994,11.789143999999988,3015
46.19266399999994,10.493143999999988,3055
45.22066399999994,18.269143999999983,2461
45.22066399999994,18.917143999999983,2535
45.54466399999994,16.973143999999984,2319
45.22066399999994,17.621143999999987,2396
45.86866399999994,16.325143999999987,2200
45.54466399999994,18.917143999999983,2575
45.54466399999994,16.325143999999987,2275
45.54466399999994,18.269143999999983,2553
44.89666399999994,18.917143999999983,2856
46.19266399999994,16.973143999999984,2220
46.19266399999994,16.325143999999987,2206
45.86866399999994,16.973143999999984,2237
45.86866399999994,17.621143999999987,2341
46.19266399999994,15.677143999999986,1552
46.516663999999935,16.325143999999987,1477
45.54466399999994,15.677143999999986,2180
45.22066399999994,15.029143999999986,2247
45.54466399999994,15.029143999999986,1733
45.22066399999994,15.677143999999986,2264
44.572663999999946,15.677143999999986,3019
44.24866399999995,15.677143999999986,3040
43.92466399999995,16.325143999999987,2931
44.89666399999994,15.677143999999986,2983
45.54466399999994,17.621143999999987,2528
45.22066399999994,16.325143999999987,2396
46.516663999999935,16.973143999999984,2277
45.86866399999994,18.269143999999983,2654
43.92466399999995,15.677143999999986,2730
45.22066399999994,13.733143999999989,2262
47.48866399999993,19.565143999999982,1372
47.16466399999993,18.917143999999983,2178
47.81266399999993,18.917143999999983,1321
45.54466399999994,9.845143999999989,1579
45.22066399999994,9.845143999999989,1588
45.22066399999994,10.493143999999988,1638
45.86866399999994,9.845143999999989,1599
45.86866399999994,10.493143999999988,3798
48.78466399999992,21.50914399999997,1297
49.10866399999992,20.213143999999986,1171
49.10866399999992,18.917143999999983,1089
48.46066399999992,17.621143999999987,1227
49.43266399999992,17.621143999999987,1152
49.10866399999992,17.621143999999987,1381
48.136663999999925,18.269143999999983,1278
49.10866399999992,18.269143999999983,1167
49.43266399999992,18.269143999999983,1098
49.43266399999992,16.973143999999984,1088
49.75666399999992,16.973143999999984,1161
49.75666399999992,16.325143999999987,1139
50.08066399999991,15.677143999999986,1123
50.08066399999991,15.029143999999986,1145
49.43266399999992,18.917143999999983,1067
47.81266399999993,20.86114399999998,1435
48.136663999999925,20.86114399999998,1370
48.46066399999992,20.86114399999998,1357
48.46066399999992,21.50914399999997,1331
49.10866399999992,19.565143999999982,1161
48.136663999999925,17.621143999999987,1242
48.78466399999992,22.15714399999998,1375
48.78466399999992,20.86114399999998,1407
49.10866399999992,20.86114399999998,1262
48.78466399999992,18.269143999999983,1210
48.78466399999992,17.621143999999987,1349
49.10866399999992,21.50914399999997,1289
48.78466399999992,20.213143999999986,1415
48.46066399999992,20.213143999999986,1456
48.136663999999925,19.565143999999982,1605
48.46066399999992,19.565143999999982,1484
48.46066399999992,18.917143999999983,1294
48.46066399999992,18.269143999999983,1223
48.78466399999992,19.565143999999982,1320
48.78466399999992,18.917143999999983,1288
47.81266399999993,18.269143999999983,1314
49.10866399999992,22.15714399999998,1416
49.43266399999992,21.50914399999997,1414
48.136663999999925,18.917143999999983,1306
48.136663999999925,20.213143999999986,1625
52.636,-8.018,65535
52.312,-7.370000000000001,65535
52.312,-8.018,65535
52.636,-8.666,65535
51.988,-8.666,65535
51.988,-8.018,65535
52.96,-8.666,65535
52.96,-6.074000000000002,65535
53.28399999999999,-6.722000000000001,65535
53.60799999999999,-6.722000000000001,65535
53.60799999999999,-7.370000000000001,65535
53.60799999999999,-8.018,65535
54.25599999999999,-8.666,65535
53.93199999999999,-8.666,65535
53.93199999999999,-8.018,65535
52.312,-6.722000000000001,65535
52.636,-6.722000000000001,65535
53.93199999999999,-6.722000000000001,65535
54.25599999999999,-6.074000000000002,65535
53.28399999999999,-7.370000000000001,65535
52.96,-7.370000000000001,65535
52.312,-8.666,65535
52.96,-8.018,65535
52.636,-7.370000000000001,65535
52.96,-6.722000000000001,65535
51.988,-9.314,65535
52.312,-9.314,65535
54.579999999999984,-6.722000000000001,65535
54.579999999999984,-6.074000000000002,65535
53.28399999999999,-8.018,65535
53.28399999999999,-8.666,65535
53.28399999999999,-9.314,65535
53.93199999999999,-9.314,65535
54.25599999999999,-9.314,65535
53.60799999999999,-8.666,65535
53.60799999999999,-9.314,65535
49.43266399999992,14.381143999999988,1160
49.75666399999992,14.381143999999988,1145
49.75666399999992,15.029143999999986,1152
49.75666399999992,13.733143999999989,1151
50.08066399999991,13.733143999999989,1144
49.75666399999992,15.677143999999986,1199
50.40466399999991,15.029143999999986,1130
49.43266399999992,13.733143999999989,1206
50.40466399999991,15.677143999999986,1187
50.40466399999991,13.733143999999989,1186
46.19266399999994,15.029143999999986,1577
45.86866399999994,15.029143999999986,1642
45.86866399999994,14.381143999999988,1624
46.19266399999994,13.733143999999989,1668
45.86866399999994,13.733143999999989,1737
58.50466399999986,13.733143999999989,2401
58.180663999999865,13.733143999999989,2406
58.180663999999865,13.085143999999987,2378
57.85666399999987,12.437143999999988,2344
60.44866399999985,15.677143999999986,2627
60.124663999999854,15.677143999999986,2561
60.124663999999854,16.325143999999987,2599
59.800663999999855,16.325143999999987,2527
59.800663999999855,17.621143999999987,2506
59.47666399999986,18.269143999999983,2488
61.74466399999984,16.973143999999984,2638
61.420663999999846,16.973143999999984,2611
60.77266399999985,16.973143999999984,2563
65.63266399999982,22.15714399999998,3742
65.95666399999982,21.50914399999997,3702
65.63266399999982,20.86114399999998,3673
64.98466399999982,20.213143999999986,3605
64.66066399999983,20.213143999999986,3583
64.33666399999983,19.565143999999982,3277
64.01266399999983,19.565143999999982,2990
63.68866399999983,20.213143999999986,2943
64.66066399999983,18.917143999999983,3954
59.15266399999986,16.325143999999987,2463
59.15266399999986,15.029143999999986,2504
59.15266399999986,17.621143999999987,2480
57.53266399999987,14.381143999999988,2304
57.53266399999987,15.029143999999986,2324
61.09666399999985,14.381143999999988,2731
60.77266399999985,15.029143999999986,2682
60.44866399999985,15.029143999999986,2668
58.180663999999865,15.029143999999986,2381
58.50466399999986,16.325143999999987,2415
58.50466399999986,15.677143999999986,2388
63.36466399999984,13.085143999999987,2975
63.04066399999984,14.381143999999988,2912
62.39266399999984,15.677143999999986,2834
63.36466399999984,13.733143999999989,2957
63.36466399999984,14.381143999999988,2929
62.71666399999984,15.677143999999986,2862
62.39266399999984,17.621143999999987,2696
59.800663999999855,15.677143999999986,2973
55.58866399999988,13.733143999999989,2258
57.20866399999987,14.381143999999988,2288
57.85666399999987,14.381143999999988,2336
58.82866399999986,16.973143999999984,2472
58.82866399999986,16.325143999999987,2450
59.15266399999986,18.269143999999983,2484
60.44866399999985,17.621143999999987,2539
59.15266399999986,12.437143999999988,2443
59.15266399999986,13.085143999999987,2457
58.82866399999986,12.437143999999988,2419
59.47666399999986,16.325143999999987,2509
58.82866399999986,14.381143999999988,2496
59.47666399999986,15.677143999999986,2527
63.36466399999984,18.917143999999983,2896
63.04066399999984,17.621143999999987,2851
62.71666399999984,17.621143999999987,2825
63.68866399999983,19.565143999999982,2929
62.39266399999984,16.973143999999984,2740
59.800663999999855,16.973143999999984,2515
59.47666399999986,17.621143999999987,2492
57.85666399999987,13.085143999999987,2368
57.53266399999987,13.085143999999987,2349
58.50466399999986,11.789143999999988,2390
57.85666399999987,15.029143999999986,2370
57.20866399999987,13.733143999999989,2294
57.53266399999987,13.733143999999989,2355
61.74466399999984,16.325143999999987,2734
61.420663999999846,16.325143999999987,2701
61.09666399999985,16.325143999999987,2690
61.09666399999985,16.973143999999984,2658
60.124663999999854,15.029143999999986,2836
66.60466399999981,20.86114399999998,3777
67.25266399999981,20.86114399999998,3845
67.90066399999981,20.213143999999986,3915
67.57666399999981,20.213143999999986,4540
59.800663999999855,15.029143999999986,2556
58.50466399999986,15.029143999999986,2398
59.47666399999986,15.029143999999986,2541
60.44866399999985,16.325143999999987,2627
59.15266399999986,15.677143999999986,2485
57.85666399999987,13.733143999999989,2396
58.82866399999986,13.733143999999989,2443
58.50466399999986,13.085143999999987,2428
57.20866399999987,13.085143999999987,2325
56.88466399999987,13.085143999999987,2299
58.180663999999865,11.789143999999988,2361
62.06866399999984,16.973143999999984,2729
65.95666399999982,23.45314399999998,3783
59.800663999999855,14.381143999999988,65535
59.800663999999855,18.269143999999983,2497
63.04066399999984,15.029143999999986,2880
62.71666399999984,15.029143999999986,2870
62.39266399999984,16.325143999999987,2803
63.36466399999984,12.437143999999988,3008
68.5486639999998,17.621143999999987,4128
68.5486639999998,18.269143999999983,4061
68.5486639999998,18.917143999999983,4038
68.2246639999998,18.917143999999983,3994
59.800663999999855,13.085143999999987,2560
60.124663999999854,13.085143999999987,2599
59.47666399999986,16.973143999999984,2501
59.15266399999986,16.973143999999984,2493
56.56066399999988,13.733143999999989,2246
60.124663999999854,17.621143999999987,2516
57.85666399999987,16.325143999999987,2475
58.180663999999865,16.325143999999987,2437
58.180663999999865,15.677143999999986,2445
57.20866399999987,16.325143999999987,2487
57.53266399999987,15.677143999999986,2505
57.85666399999987,15.677143999999986,2476
44.89666399999994,23.45314399999998,2762
44.572663999999946,23.45314399999998,2827
44.89666399999994,24.74914399999998,2887
44.572663999999946,24.74914399999998,2908
44.572663999999946,24.101143999999977,2868
44.24866399999995,24.101143999999977,2890
47.48866399999993,25.397143999999983,2738
47.48866399999993,24.74914399999998,2668
47.16466399999993,24.74914399999998,2649
47.16466399999993,24.101143999999977,2604
47.48866399999993,22.15714399999998,2477
47.81266399999993,22.15714399999998,2641
47.16466399999993,22.15714399999998,2472
47.16466399999993,23.45314399999998,2811
47.16466399999993,22.805143999999984,2734
46.84066399999993,24.101143999999977,2431
45.86866399999994,27.34114399999998,2939
45.54466399999994,27.34114399999998,2919
45.54466399999994,27.989143999999985,2956
45.86866399999994,20.86114399999998,2780
45.86866399999994,21.50914399999997,2764
46.19266399999994,21.50914399999997,2720
46.19266399999994,27.34114399999998,2962
46.19266399999994,26.69314399999997,2968
46.516663999999935,26.69314399999997,2937
46.516663999999935,26.04514399999998,2932
47.48866399999993,22.805143999999984,2913
46.84066399999993,22.805143999999984,2449
45.54466399999994,22.15714399999998,2859
45.22066399999994,22.15714399999998,2881
44.89666399999994,22.15714399999998,2943
47.48866399999993,23.45314399999998,2806
46.516663999999935,24.101143999999977,2444
46.516663999999935,24.74914399999998,2669
45.86866399999994,24.101143999999977,2669
47.16466399999993,26.69314399999997,2899
47.16466399999993,27.34114399999998,3011
43.92466399999995,25.397143999999983,2954
44.24866399999995,24.74914399999998,2930
44.89666399999994,26.04514399999998,2828
44.89666399999994,26.69314399999997,2836
45.22066399999994,26.69314399999997,2853
45.22066399999994,27.34114399999998,2880
46.84066399999993,26.69314399999997,2954
47.48866399999993,26.69314399999997,2847
44.24866399999995,25.397143999999983,2878
43.92466399999995,26.04514399999998,2970
46.19266399999994,24.101143999999977,2491
44.572663999999946,25.397143999999983,2845
46.84066399999993,24.74914399999998,2798
46.516663999999935,21.50914399999997,2803
46.84066399999993,21.50914399999997,2544
44.572663999999946,26.69314399999997,2879
44.572663999999946,27.34114399999998,2914
44.89666399999994,27.34114399999998,2870
44.572663999999946,27.989143999999985,2935
44.24866399999995,27.989143999999985,2950
44.572663999999946,28.63714399999997,2990
45.86866399999994,22.15714399999998,2626
45.86866399999994,22.805143999999984,2594
44.24866399999995,23.45314399999998,2878
43.92466399999995,27.989143999999985,65535
46.84066399999993,27.34114399999998,3082
45.22066399999994,23.45314399999998,2728
45.54466399999994,23.45314399999998,2699
45.54466399999994,24.101143999999977,2699
45.22066399999994,24.101143999999977,2770
44.89666399999994,24.101143999999977,2825
46.19266399999994,22.15714399999998,2670
46.516663999999935,22.15714399999998,2765
45.22066399999994,21.50914399999997,2848
45.54466399999994,21.50914399999997,2768
45.54466399999994,20.86114399999998,2774
46.516663999999935,27.989143999999985,3084
46.19266399999994,27.989143999999985,3056
45.54466399999994,25.397143999999983,2726
45.22066399999994,25.397143999999983,2769
45.22066399999994,26.04514399999998,2879
47.81266399999993,24.101143999999977,3061
47.48866399999993,26.04514399999998,2832
47.81266399999993,26.04514399999998,2890
46.19266399999994,23.45314399999998,2489
45.86866399999994,23.45314399999998,2541
44.24866399999995,26.04514399999998,2858
45.22066399999994,27.989143999999985,2935
45.86866399999994,24.74914399999998,2702
46.516663999999935,25.397143999999983,2926
46.84066399999993,25.397143999999983,2870
46.19266399999994,26.04514399999998,2905
45.86866399999994,26.04514399999998,2764
43.92466399999995,23.45314399999998,2971
44.89666399999994,25.397143999999983,2835
46.19266399999994,20.86114399999998,2802
47.81266399999993,25.397143999999983,3147
44.572663999999946,22.805143999999984,2899
44.572663999999946,22.15714399999998,2965
46.516663999999935,23.45314399999998,2501
45.86866399999994,25.397143999999983,2692
44.24866399999995,27.34114399999998,3211
45.22066399999994,24.74914399999998,3051
45.54466399999994,22.805143999999984,2637
45.22066399999994,28.63714399999997,3061
44.89666399999994,28.63714399999997,3000
47.81266399999993,23.45314399999998,2768
46.19266399999994,24.74914399999998,2529
46.19266399999994,25.397143999999983,2584
43.92466399999995,24.101143999999977,3661
43.92466399999995,24.74914399999998,3674
47.81266399999993,26.69314399999997,3070
47.48866399999993,24.101143999999977,2989
46.84066399999993,26.04514399999998,3126
46.19266399999994,22.805143999999984,3087
47.48866399999993,27.34114399999998,3097
46.19266399999994,20.213143999999986,65535
45.54466399999994,26.04514399999998,2972
44.24866399999995,26.69314399999997,2886
45.86866399999994,27.989143999999985,3071
47.81266399999993,5.957143999999991,2266
