51.56399999999999,-0.4100000000000028,65535
51.887999999999984,-0.4100000000000028,65535
50.91599999999999,-1.7060000000000022,65535
51.23999999999999,-1.0580000000000025,65535
51.56399999999999,-1.0580000000000025,65535
51.23999999999999,-1.7060000000000022,65535
51.56399999999999,0.2379999999999968,65535
47.16466399999993,9.845143999999989,1946
47.48866399999993,9.845143999999989,1952
48.136663999999925,14.381143999999988,2221
47.81266399999993,13.085143999999987,1887
47.16466399999993,11.141143999999988,2346
47.48866399999993,11.789143999999988,2265
48.136663999999925,16.325143999999987,2199
47.48866399999993,12.437143999999988,1918
48.136663999999925,15.677143999999986,2350
47.16466399999993,10.493143999999988,2341
47.16466399999993,9.197143999999987,1933
48.136663999999925,13.733143999999989,1936
48.136663999999925,15.029143999999986,2263
47.81266399999993,16.973143999999984,2242
48.46066399999992,14.381143999999988,3784
47.48866399999993,13.085143999999987,1930
47.16466399999993,13.085143999999987,2252
47.48866399999993,14.381143999999988,2551
47.48866399999993,13.733143999999989,2631
47.48866399999993,15.029143999999986,2442
46.516663999999935,13.733143999999989,2447
46.84066399999993,13.733143999999989,2425
46.84066399999993,13.085143999999987,2414
48.78466399999992,14.381143999999988,65535
47.16466399999993,15.677143999999986,2460
46.516663999999935,14.381143999999988,2498
46.84066399999993,14.381143999999988,2481
47.16466399999993,14.381143999999988,2525
46.516663999999935,15.029143999999986,2527
47.81266399999993,16.325143999999987,2238
47.16466399999993,15.029143999999986,2500
47.81266399999993,15.677143999999986,2416
47.48866399999993,15.677143999999986,2389
46.516663999999935,13.085143999999987,2774
46.84066399999993,12.437143999999988,2459
48.136663999999925,11.789143999999988,1857
47.81266399999993,12.437143999999988,1881
46.84066399999993,15.677143999999986,2521
46.516663999999935,15.677143999999986,2581
46.84066399999993,16.325143999999987,2505
47.81266399999993,14.381143999999988,2485
48.78466399999992,16.973143999999984,2051
48.136663999999925,16.973143999999984,2188
48.46066399999992,13.733143999999989,1945
47.81266399999993,13.733143999999989,2291
50.08066399999991,8.54914399999999,1840
48.46066399999992,9.845143999999989,1911
51.05266399999991,7.25314399999999,1807
51.37666399999991,7.25314399999999,1801
51.37666399999991,6.60514399999999,1805
48.46066399999992,16.325143999999987,2261
48.46066399999992,16.973143999999984,2173
48.78466399999992,16.325143999999987,2510
48.46066399999992,15.677143999999986,2320
48.78466399999992,15.677143999999986,3361
47.48866399999993,16.325143999999987,2346
47.16466399999993,16.325143999999987,2454
46.19266399999994,14.381143999999988,2526
45.86866399999994,15.677143999999986,2563
43.60066399999995,16.325143999999987,3160
45.54466399999994,14.381143999999988,2639
45.54466399999994,13.733143999999989,2661
48.136663999999925,13.085143999999987,1883
48.46066399999992,11.141143999999988,1851
48.136663999999925,11.141143999999988,1865
48.46066399999992,7.90114399999999,1924
49.10866399999992,8.54914399999999,1868
48.78466399999992,2.0691439999999925,2348
49.10866399999992,7.25314399999999,1930
52.0246639999999,7.90114399999999,1790
47.16466399999993,11.789143999999988,2329
49.43266399999992,11.141143999999988,1785
53.64466399999989,9.845143999999989,1679
50.72866399999991,4.013143999999992,1873
51.05266399999991,11.141143999999988,1714
47.48866399999993,11.141143999999988,1894
46.84066399999993,11.789143999999988,3062
46.516663999999935,11.141143999999988,3031
45.54466399999994,11.141143999999988,2925
46.19266399999994,11.141143999999988,2997
45.86866399999994,11.141143999999988,2981
44.572663999999946,11.141143999999988,2772
43.92466399999995,12.437143999999988,65535
45.54466399999994,12.437143999999988,3012
45.54466399999994,11.789143999999988,2975
48.78466399999992,15.029143999999986,3852
47.81266399999993,15.029143999999986,2332
47.81266399999993,11.141143999999988,1868
50.40466399999991,18.917143999999983,1498
52.3486639999999,20.86114399999998,1305
54.616663999999886,18.269143999999983,1136
54.29266399999989,18.917143999999983,1110
49.10866399999992,14.381143999999988,65535
50.08066399999991,14.381143999999988,1826
48.78466399999992,13.733143999999989,65535
52.6726639999999,13.085143999999987,1612
52.3486639999999,13.085143999999987,1610
53.96866399999989,12.437143999999988,1591
54.29266399999989,12.437143999999988,1579
47.48866399999993,8.54914399999999,1919
47.81266399999993,17.621143999999987,2203
47.48866399999993,18.917143999999983,2200
47.48866399999993,20.86114399999998,2876
46.84066399999993,23.45314399999998,3358
44.572663999999946,26.04514399999998,3807
47.48866399999993,21.50914399999997,2912
47.81266399999993,21.50914399999997,3308
48.46066399999992,22.15714399999998,2251
47.48866399999993,16.973143999999984,65535
49.10866399999992,16.325143999999987,2007
49.75666399999992,18.269143999999983,1590
46.19266399999994,13.085143999999987,2610
41.98066399999996,12.437143999999988,4005
43.60066399999995,10.493143999999988,4166
45.54466399999994,9.197143999999987,2288
47.81266399999993,22.805143999999984,3163
49.75666399999992,22.805143999999984,1769
50.72866399999991,3.365143999999992,1889
51.05266399999991,4.013143999999992,1889
50.72866399999991,4.661143999999991,1867
51.05266399999991,4.661143999999991,1873
51.05266399999991,3.365143999999992,1903
51.05266399999991,2.717143999999992,1936
50.40466399999991,4.661143999999991,1877
50.72866399999991,2.717143999999992,1894
50.40466399999991,4.013143999999992,1906
51.05266399999991,5.309143999999991,1885
50.72866399999991,5.309143999999991,1842
51.37666399999991,3.365143999999992,2218
51.37666399999991,4.661143999999991,1879
50.72866399999991,5.957143999999991,1830
50.40466399999991,5.957143999999991,1838
50.40466399999991,3.365143999999992,2231
50.40466399999991,5.309143999999991,1852
50.08066399999991,5.309143999999991,1880
49.75666399999992,5.309143999999991,2248
49.75666399999992,5.957143999999991,2204
51.37666399999991,5.309143999999991,1916
51.700663999999904,4.661143999999991,2277
50.08066399999991,4.013143999999992,2243
50.08066399999991,5.957143999999991,1881
50.08066399999991,4.661143999999991,2228
49.43266399999992,5.309143999999991,2275
49.43266399999992,5.957143999999991,2245
52.0246639999999,4.661143999999991,2278
52.3486639999999,4.661143999999991,2289
50.72866399999991,15.029143999999986,1750
51.05266399999991,15.029143999999986,1692
51.05266399999991,13.733143999999989,1679
50.40466399999991,13.085143999999987,1727
49.10866399999992,7.90114399999999,1892
48.78466399999992,7.90114399999999,1888
50.40466399999991,7.90114399999999,1827
50.08066399999991,7.90114399999999,1870
49.75666399999992,7.90114399999999,1884
49.43266399999992,7.90114399999999,1878
49.75666399999992,8.54914399999999,1848
49.43266399999992,8.54914399999999,1855
49.43266399999992,9.197143999999987,1858
49.10866399999992,9.197143999999987,1868
47.48866399999993,7.90114399999999,1936
47.81266399999993,7.90114399999999,1949
48.136663999999925,7.90114399999999,1942
48.136663999999925,9.845143999999989,1917
47.81266399999993,9.197143999999987,1923
47.81266399999993,8.54914399999999,1912
47.81266399999993,9.845143999999989,1911
54.940663999999884,9.197143999999987,1739
54.616663999999886,9.197143999999987,1727
54.29266399999989,9.197143999999987,1710
53.96866399999989,9.197143999999987,1695
53.64466399999989,9.197143999999987,1691
54.616663999999886,9.845143999999989,1719
54.29266399999989,9.845143999999989,1710
53.96866399999989,9.845143999999989,1688
53.64466399999989,10.493143999999988,1674
53.96866399999989,10.493143999999988,1661
53.96866399999989,11.141143999999988,1631
54.29266399999989,10.493143999999988,1683
53.32066399999989,10.493143999999988,1658
54.940663999999884,11.141143999999988,1729
52.6726639999999,13.733143999999989,1604
52.3486639999999,13.733143999999989,1606
52.3486639999999,14.381143999999988,1627
52.0246639999999,14.381143999999988,1640
52.0246639999999,11.789143999999988,1654
52.3486639999999,11.789143999999988,1647
52.3486639999999,12.437143999999988,1627
52.0246639999999,15.029143999999986,1617
51.700663999999904,14.381143999999988,1657
52.0246639999999,13.733143999999989,1645
51.700663999999904,13.733143999999989,1653
52.6726639999999,12.437143999999988,1628
53.32066399999989,11.789143999999988,1618
53.96866399999989,11.789143999999988,1583
53.64466399999989,11.789143999999988,1598
53.64466399999989,11.141143999999988,1604
53.32066399999989,11.141143999999988,1642
52.996663999999896,11.789143999999988,1660
52.996663999999896,12.437143999999988,1644
52.996663999999896,13.733143999999989,1580
53.64466399999989,13.733143999999989,1537
53.96866399999989,13.733143999999989,1550
54.29266399999989,13.085143999999987,1557
53.96866399999989,13.085143999999987,1583
53.32066399999989,13.733143999999989,1551
52.0246639999999,13.085143999999987,1669
51.700663999999904,13.085143999999987,1694
52.996663999999896,14.381143999999988,1602
52.0246639999999,12.437143999999988,1632
51.700663999999904,12.437143999999988,1669
51.37666399999991,11.789143999999988,1672
51.37666399999991,12.437143999999988,1673
52.6726639999999,11.789143999999988,1649
53.64466399999989,13.085143999999987,1580
53.32066399999989,13.085143999999987,1604
52.996663999999896,13.085143999999987,1606
53.64466399999989,12.437143999999988,1602
51.37666399999991,13.733143999999989,1662
53.32066399999989,12.437143999999988,1654
52.6726639999999,14.381143999999988,1633
51.37666399999991,13.085143999999987,1691
53.32066399999989,14.381143999999988,1524
52.3486639999999,15.029143999999986,1605
52.0246639999999,15.677143999999986,1585
51.700663999999904,15.029143999999986,1643
51.05266399999991,16.325143999999987,1625
51.05266399999991,16.973143999999984,1621
51.700663999999904,15.677143999999986,1618
51.37666399999991,15.677143999999986,1664
51.37666399999991,16.325143999999987,1620
50.72866399999991,13.085143999999987,1705
50.72866399999991,12.437143999999988,1692
51.05266399999991,13.085143999999987,1692
51.05266399999991,14.381143999999988,1683
50.40466399999991,12.437143999999988,1712
50.40466399999991,11.789143999999988,1718
50.08066399999991,12.437143999999988,1742
50.72866399999991,11.789143999999988,1714
51.05266399999991,12.437143999999988,1679
50.72866399999991,14.381143999999988,1872
51.37666399999991,14.381143999999988,1694
50.72866399999991,13.733143999999989,1775
50.40466399999991,14.381143999999988,1831
51.37666399999991,15.029143999999986,1698
55.26466399999988,9.197143999999987,1788
55.58866399999988,8.54914399999999,1822
55.91266399999988,8.54914399999999,2239
56.23666399999988,9.197143999999987,2247
56.23666399999988,10.493143999999988,2200
56.23666399999988,9.845143999999989,2187
55.91266399999988,9.845143999999989,2125
56.56066399999988,9.197143999999987,2257
56.56066399999988,8.54914399999999,2300
51.05266399999991,6.60514399999999,1810
51.700663999999904,7.90114399999999,1788
50.72866399999991,6.60514399999999,1822
51.700663999999904,7.25314399999999,1805
50.72866399999991,7.25314399999999,1815
52.0246639999999,7.25314399999999,1815
52.3486639999999,7.90114399999999,1798
51.05266399999991,5.957143999999991,1841
50.40466399999991,7.25314399999999,1819
51.700663999999904,6.60514399999999,1821
51.700663999999904,5.957143999999991,1844
52.3486639999999,9.197143999999987,1741
51.700663999999904,8.54914399999999,1779
52.0246639999999,8.54914399999999,1760
52.3486639999999,8.54914399999999,1753
51.37666399999991,7.90114399999999,1794
52.3486639999999,7.25314399999999,1818
51.37666399999991,5.957143999999991,2261
50.72866399999991,7.90114399999999,1831
51.37666399999991,9.197143999999987,1808
51.700663999999904,9.197143999999987,1773
50.40466399999991,6.60514399999999,1846
51.05266399999991,7.90114399999999,1806
51.37666399999991,8.54914399999999,1832
52.0246639999999,5.957143999999991,1851
52.3486639999999,6.60514399999999,1826
51.05266399999991,8.54914399999999,2304
52.0246639999999,9.197143999999987,1757
52.6726639999999,9.197143999999987,1733
52.0246639999999,9.845143999999989,1742
51.700663999999904,9.845143999999989,1758
51.37666399999991,9.845143999999989,1786
50.72866399999991,8.54914399999999,1853
51.05266399999991,9.845143999999989,1832
50.72866399999991,9.845143999999989,1869
50.40466399999991,9.845143999999989,1895
51.05266399999991,9.197143999999987,1882
50.40466399999991,9.197143999999987,1858
50.08066399999991,9.197143999999987,1848
51.05266399999991,10.493143999999988,1761
50.40466399999991,8.54914399999999,1838
50.72866399999991,9.197143999999987,1887
49.75666399999992,9.197143999999987,1866
52.996663999999896,9.197143999999987,1713
52.3486639999999,9.845143999999989,1725
52.996663999999896,8.54914399999999,1721
52.996663999999896,7.90114399999999,1733
53.32066399999989,7.90114399999999,1750
53.32066399999989,7.25314399999999,1768
53.64466399999989,7.25314399999999,1797
52.996663999999896,10.493143999999988,1670
52.6726639999999,10.493143999999988,1717
52.6726639999999,9.845143999999989,1727
53.32066399999989,9.845143999999989,1669
53.32066399999989,9.197143999999987,1680
53.64466399999989,8.54914399999999,1730
53.32066399999989,8.54914399999999,1725
52.6726639999999,8.54914399999999,1738
52.0246639999999,10.493143999999988,1712
52.0246639999999,11.141143999999988,1664
51.700663999999904,11.141143999999988,1720
52.6726639999999,7.25314399999999,1865
52.996663999999896,7.25314399999999,1839
52.6726639999999,7.90114399999999,1755
53.64466399999989,7.90114399999999,1781
52.996663999999896,11.141143999999988,1763
52.6726639999999,11.141143999999988,1762
52.3486639999999,10.493143999999988,1704
52.996663999999896,9.845143999999989,1721
51.700663999999904,10.493143999999988,1760
51.37666399999991,10.493143999999988,1811
51.700663999999904,11.789143999999988,1667
52.3486639999999,11.141143999999988,1678
51.37666399999991,11.141143999999988,1725
51.05266399999991,11.789143999999988,1707
49.10866399999992,11.141143999999988,1795
48.78466399999992,11.141143999999988,1840
48.46066399999992,11.789143999999988,1850
49.43266399999992,11.789143999999988,1788
50.08066399999991,11.789143999999988,1725
49.75666399999992,12.437143999999988,1767
49.10866399999992,11.789143999999988,1816
48.78466399999992,12.437143999999988,1884
48.46066399999992,12.437143999999988,1891
49.10866399999992,12.437143999999988,1826
48.78466399999992,13.085143999999987,1911
48.136663999999925,12.437143999999988,1873
47.81266399999993,11.789143999999988,1870
48.136663999999925,10.493143999999988,1923
47.81266399999993,10.493143999999988,1937
48.78466399999992,10.493143999999988,1855
47.48866399999993,10.493143999999988,2227
48.46066399999992,10.493143999999988,1864
49.43266399999992,13.085143999999987,2313
48.46066399999992,13.085143999999987,1936
49.43266399999992,10.493143999999988,1808
49.75666399999992,9.845143999999989,1834
49.75666399999992,10.493143999999988,1804
50.40466399999991,11.141143999999988,1750
50.08066399999991,11.141143999999988,1742
50.72866399999991,11.141143999999988,1731
49.75666399999992,11.141143999999988,1760
48.78466399999992,11.789143999999988,1836
50.40466399999991,10.493143999999988,1773
50.08066399999991,9.845143999999989,1827
50.08066399999991,10.493143999999988,1792
49.43266399999992,12.437143999999988,1770
49.75666399999992,11.789143999999988,1762
49.10866399999992,13.085143999999987,2008
50.72866399999991,10.493143999999988,1779
49.10866399999992,10.493143999999988,1838
48.78466399999992,9.845143999999989,1885
48.46066399999992,8.54914399999999,1890
48.46066399999992,9.197143999999987,1909
48.78466399999992,9.197143999999987,1881
48.78466399999992,8.54914399999999,1875
50.08066399999991,7.25314399999999,1846
49.75666399999992,6.60514399999999,1911
49.43266399999992,6.60514399999999,1920
49.10866399999992,6.60514399999999,1936
49.43266399999992,7.25314399999999,1900
49.75666399999992,7.25314399999999,1893
49.10866399999992,5.957143999999991,2270
48.78466399999992,7.25314399999999,2223
50.08066399999991,6.60514399999999,1908
47.48866399999993,9.197143999999987,1924
48.136663999999925,8.54914399999999,1898
48.136663999999925,9.197143999999987,1903
47.81266399999993,7.25314399999999,1977
49.43266399999992,9.845143999999989,1873
49.10866399999992,9.845143999999989,1898
53.64466399999989,14.381143999999988,1533
50.08066399999991,13.085143999999987,1873
49.75666399999992,13.085143999999987,1990
45.86866399999994,9.197143999999987,2284
46.19266399999994,9.197143999999987,2269
46.516663999999935,8.54914399999999,2312
46.516663999999935,9.197143999999987,2299
46.19266399999994,8.54914399999999,2261
47.16466399999993,8.54914399999999,1922
45.86866399999994,4.661143999999991,2314
46.84066399999993,9.845143999999989,1961
45.22066399999994,5.957143999999991,2331
45.22066399999994,5.309143999999991,2346
45.86866399999994,5.957143999999991,2284
45.54466399999994,5.957143999999991,2303
44.89666399999994,4.661143999999991,2352
44.89666399999994,5.309143999999991,2370
44.572663999999946,4.661143999999991,2364
44.24866399999995,4.661143999999991,2378
43.92466399999995,4.661143999999991,2388
46.19266399999994,7.25314399999999,1983
48.78466399999992,5.957143999999991,2292
48.136663999999925,6.60514399999999,2287
48.46066399999992,6.60514399999999,2269
48.78466399999992,6.60514399999999,2290
47.16466399999993,7.90114399999999,1933
48.136663999999925,7.25314399999999,2238
48.46066399999992,7.25314399999999,2259
46.516663999999935,6.60514399999999,1963
46.84066399999993,6.60514399999999,1954
46.84066399999993,7.25314399999999,1942
46.516663999999935,5.957143999999991,1974
46.19266399999994,5.957143999999991,1984
46.84066399999993,8.54914399999999,1925
46.84066399999993,7.90114399999999,1935
45.86866399999994,5.309143999999991,2310
46.19266399999994,6.60514399999999,2229
45.86866399999994,6.60514399999999,2058
47.48866399999993,6.60514399999999,2252
47.48866399999993,7.25314399999999,1947
47.16466399999993,7.25314399999999,1940
49.10866399999992,4.013143999999992,2341
49.75666399999992,4.661143999999991,2274
49.43266399999992,4.661143999999991,2314
49.10866399999992,5.309143999999991,2334
46.19266399999994,4.661143999999991,2329
46.84066399999993,9.197143999999987,1944
46.19266399999994,5.309143999999991,2321
46.516663999999935,5.309143999999991,2370
45.54466399999994,6.60514399999999,2340
45.54466399999994,5.309143999999991,2343
43.60066399999995,4.013143999999992,2440
43.60066399999995,3.365143999999992,2457
42.62866399999996,2.717143999999992,2560
43.276663999999954,2.717143999999992,2486
45.54466399999994,4.661143999999991,2321
45.22066399999994,4.661143999999991,2335
47.16466399999993,5.309143999999991,2301
47.16466399999993,5.957143999999991,2264
46.19266399999994,7.90114399999999,1980
49.75666399999992,2.717143999999992,2291
49.10866399999992,2.717143999999992,2322
48.78466399999992,2.717143999999992,2336
45.86866399999994,3.365143999999992,2454
46.84066399999993,3.365143999999992,2392
46.516663999999935,3.365143999999992,2453
46.19266399999994,3.365143999999992,2429
47.16466399999993,6.60514399999999,1944
49.10866399999992,3.365143999999992,2347
45.54466399999994,4.013143999999992,2329
46.516663999999935,7.25314399999999,1948
47.16466399999993,4.661143999999991,2311
46.84066399999993,4.661143999999991,2337
46.516663999999935,4.661143999999991,2361
46.84066399999993,5.957143999999991,2239
47.81266399999993,3.365143999999992,2400
47.48866399999993,4.013143999999992,2338
48.136663999999925,4.013143999999992,2385
47.81266399999993,4.013143999999992,2358
47.48866399999993,4.661143999999991,2338
47.16466399999993,3.365143999999992,2441
46.84066399999993,4.013143999999992,2360
48.46066399999992,5.957143999999991,2345
46.19266399999994,2.717143999999992,2650
47.16466399999993,2.0691439999999925,2435
46.516663999999935,2.717143999999992,2614
46.84066399999993,2.717143999999992,2584
46.84066399999993,2.0691439999999925,2466
47.16466399999993,2.717143999999992,2454
44.572663999999946,5.309143999999991,2484
44.572663999999946,5.957143999999991,2483
44.89666399999994,6.60514399999999,2367
44.572663999999946,6.60514399999999,2449
43.60066399999995,5.309143999999991,2430
43.92466399999995,7.25314399999999,2494
43.60066399999995,6.60514399999999,2482
43.276663999999954,6.60514399999999,2459
43.276663999999954,5.957143999999991,2434
45.86866399999994,8.54914399999999,2294
45.54466399999994,8.54914399999999,2303
48.136663999999925,3.365143999999992,2428
48.46066399999992,3.365143999999992,2438
48.46066399999992,2.717143999999992,2471
47.48866399999993,5.309143999999991,2316
46.516663999999935,9.845143999999989,2324
46.84066399999993,10.493143999999988,2291
47.81266399999993,5.309143999999991,2333
45.22066399999994,6.60514399999999,2361
46.19266399999994,4.013143999999992,2344
45.86866399999994,4.013143999999992,2337
45.22066399999994,4.013143999999992,2358
44.89666399999994,4.013143999999992,2397
46.84066399999993,5.309143999999991,2358
48.136663999999925,-1.8188560000000056,2485
48.136663999999925,0.1251439999999934,2433
48.136663999999925,-0.5228560000000062,2449
47.48866399999993,-0.5228560000000062,2469
47.16466399999993,-1.8188560000000056,2479
47.48866399999993,0.7731439999999932,2435
47.16466399999993,0.1251439999999934,2477
45.86866399999994,7.25314399999999,2063
48.136663999999925,5.309143999999991,2364
49.10866399999992,4.661143999999991,2382
48.46066399999992,4.013143999999992,2433
48.136663999999925,4.661143999999991,2384
47.81266399999993,6.60514399999999,2273
47.48866399999993,5.957143999999991,2293
48.136663999999925,5.957143999999991,2846
45.86866399999994,7.90114399999999,1992
46.516663999999935,7.90114399999999,1939
49.43266399999992,3.365143999999992,2334
49.43266399999992,4.013143999999992,2327
48.136663999999925,2.717143999999992,2396
47.81266399999993,2.717143999999992,2425
47.48866399999993,2.717143999999992,2444
50.40466399999991,2.717143999999992,2243
48.46066399999992,-4.410856000000004,2619
48.46066399999992,-3.7628560000000046,2584
48.46066399999992,-3.114856000000005,2554
48.46066399999992,-2.4668560000000053,2525
47.48866399999993,1.4211439999999929,2438
47.16466399999993,1.4211439999999929,2536
46.516663999999935,4.013143999999992,2365
43.60066399999995,4.661143999999991,2421
44.89666399999994,2.717143999999992,2687
45.22066399999994,2.717143999999992,2646
45.54466399999994,3.365143999999992,2461
45.22066399999994,3.365143999999992,2402
47.48866399999993,3.365143999999992,2506
46.19266399999994,9.845143999999989,2333
47.81266399999993,2.0691439999999925,2404
47.48866399999993,2.0691439999999925,2414
45.86866399999994,2.717143999999992,2680
44.89666399999994,5.957143999999991,2387
45.22066399999994,1.4211439999999929,2644
44.89666399999994,1.4211439999999929,2642
44.89666399999994,2.0691439999999925,2778
43.276663999999954,2.0691439999999925,2541
43.60066399999995,1.4211439999999929,2575
48.78466399999992,4.661143999999991,2390
48.78466399999992,5.309143999999991,2331
46.19266399999994,2.0691439999999925,2779
45.86866399999994,1.4211439999999929,2578
46.19266399999994,1.4211439999999929,2544
44.572663999999946,4.013143999999992,2455
44.89666399999994,3.365143999999992,2434
43.92466399999995,4.013143999999992,2404
44.24866399999995,4.013143999999992,2431
44.89666399999994,-0.5228560000000062,2474
45.54466399999994,0.1251439999999934,2543
46.516663999999935,0.1251439999999934,2477
44.572663999999946,2.0691439999999925,2656
49.75666399999992,4.013143999999992,2344
43.92466399999995,3.365143999999992,2556
43.92466399999995,2.717143999999992,2581
44.24866399999995,3.365143999999992,2607
44.572663999999946,3.365143999999992,2622
49.10866399999992,0.1251439999999934,2359
49.43266399999992,0.7731439999999932,2339
49.43266399999992,-1.8188560000000056,2481
49.10866399999992,-1.170856000000006,2431
49.10866399999992,-0.5228560000000062,2369
49.10866399999992,0.7731439999999932,2394
49.10866399999992,1.4211439999999929,2370
47.81266399999993,-1.8188560000000056,2583
47.81266399999993,-2.4668560000000053,2608
47.81266399999993,-3.114856000000005,2621
48.136663999999925,-3.7628560000000046,2629
44.572663999999946,9.197143999999987,2358
44.89666399999994,8.54914399999999,2337
45.22066399999994,9.197143999999987,2299
45.54466399999994,10.493143999999988,2347
44.572663999999946,10.493143999999988,2758
44.89666399999994,10.493143999999988,2413
44.89666399999994,9.845143999999989,2340
48.46066399999992,5.309143999999991,2473
50.91599999999999,-1.0580000000000025,65535
51.23999999999999,-0.4100000000000028,65535
50.91599999999999,-0.4100000000000028,65535
51.23999999999999,-2.354000000000002,65535
51.56399999999999,-2.354000000000002,65535
51.56399999999999,-3.0020000000000016,65535
50.91599999999999,-2.354000000000002,65535
53.50799999999997,-3.0020000000000016,65535
53.183999999999976,-2.354000000000002,65535
53.183999999999976,-3.0020000000000016,65535
52.85999999999998,-2.354000000000002,65535
52.21199999999998,-1.0580000000000025,65535
51.887999999999984,-1.0580000000000025,65535
52.53599999999998,-1.0580000000000025,65535
52.53599999999998,-1.7060000000000022,65535
52.85999999999998,-1.7060000000000022,65535
53.50799999999997,-2.354000000000002,65535
52.85999999999998,-1.0580000000000025,65535
52.53599999999998,1.5339999999999965,65535
52.53599999999998,0.8859999999999966,65535
52.53599999999998,0.2379999999999968,65535
52.53599999999998,-0.4100000000000028,65535
53.50799999999997,-1.7060000000000022,65535
53.183999999999976,-1.7060000000000022,65535
53.183999999999976,-1.0580000000000025,65535
52.85999999999998,-0.4100000000000028,65535
51.887999999999984,-2.354000000000002,65535
52.21199999999998,-2.354000000000002,65535
55.77599999999996,-2.354000000000002,65535
53.83199999999997,-1.0580000000000025,65535
53.83199999999997,-1.7060000000000022,65535
55.127999999999965,-1.7060000000000022,65535
54.80399999999997,-1.7060000000000022,65535
54.47999999999997,-1.7060000000000022,65535
54.15599999999997,-1.0580000000000025,65535
52.21199999999998,-1.7060000000000022,65535
53.50799999999997,-1.0580000000000025,65535
55.77599999999996,-3.0020000000000016,65535
55.45199999999996,-1.7060000000000022,65535
57.07199999999995,-2.354000000000002,65535
56.74799999999996,-3.0020000000000016,65535
56.42399999999996,-3.0020000000000016,65535
56.09999999999996,-3.650000000000001,65535
50.91599999999999,-3.0020000000000016,65535
50.91599999999999,-3.650000000000001,65535
50.59199999999999,-3.650000000000001,65535
50.59199999999999,-4.298000000000001,65535
51.23999999999999,-3.0020000000000016,65535
50.268,-4.946000000000001,65535
55.77599999999996,-3.650000000000001,65535
55.77599999999996,-4.298000000000001,65535
52.21199999999998,-0.4100000000000028,65535
52.53599999999998,-2.354000000000002,65535
51.56399999999999,-1.7060000000000022,65535
51.56399999999999,-3.650000000000001,65535
51.887999999999984,-4.298000000000001,65535
51.56399999999999,-4.298000000000001,65535
51.887999999999984,-1.7060000000000022,65535
52.21199999999998,-3.0020000000000016,65535
51.23999999999999,0.2379999999999968,65535
50.91599999999999,0.2379999999999968,65535
52.21199999999998,0.2379999999999968,65535
53.83199999999997,-3.0020000000000016,65535
54.15599999999997,-3.0020000000000016,65535
54.47999999999997,-3.0020000000000016,65535
55.127999999999965,-3.650000000000001,65535
54.80399999999997,-3.0020000000000016,65535
53.83199999999997,-2.354000000000002,65535
54.15599999999997,-0.4100000000000028,65535
54.47999999999997,-1.0580000000000025,65535
53.83199999999997,-0.4100000000000028,65535
53.183999999999976,-3.650000000000001,65535
53.183999999999976,-4.298000000000001,65535
52.85999999999998,-3.0020000000000016,65535
52.53599999999998,-3.0020000000000016,65535
51.887999999999984,-3.0020000000000016,65535
51.23999999999999,0.8859999999999966,65535
51.887999999999984,0.2379999999999968,65535
52.21199999999998,0.8859999999999966,65535
51.887999999999984,-4.946000000000001,65535
52.53599999999998,-3.650000000000001,65535
52.21199999999998,-4.298000000000001,65535
53.183999999999976,-0.4100000000000028,65535
51.23999999999999,-3.650000000000001,65535
51.887999999999984,-3.650000000000001,65535
52.21199999999998,-3.650000000000001,65535
51.56399999999999,0.8859999999999966,65535
51.887999999999984,0.8859999999999966,65535
52.85999999999998,0.8859999999999966,65535
53.50799999999997,-0.4100000000000028,65535
56.09999999999996,-4.298000000000001,65535
56.74799999999996,-4.946000000000001,65535
56.74799999999996,-4.298000000000001,65535
56.42399999999996,-4.946000000000001,65535
56.42399999999996,-4.298000000000001,65535
56.09999999999996,-4.946000000000001,65535
57.39599999999995,-4.298000000000001,65535
57.39599999999995,-3.0020000000000016,65535
57.39599999999995,-3.650000000000001,65535
56.42399999999996,-3.650000000000001,65535
57.07199999999995,-3.650000000000001,65535
57.07199999999995,-4.298000000000001,65535
56.74799999999996,-3.650000000000001,65535
59.15266399999986,27.34114399999998,65535
59.47666399999986,26.69314399999997,65535
59.47666399999986,26.04514399999998,65535
59.15266399999986,26.04514399999998,65535
59.15266399999986,24.74914399999998,65535
59.15266399999986,25.397143999999983,65535
59.47666399999986,25.397143999999983,65535
58.50466399999986,26.69314399999997,65535
58.82866399999986,26.69314399999997,65535
57.85666399999987,26.04514399999998,65535
58.180663999999865,26.04514399999998,65535
58.180663999999865,26.69314399999997,65535
58.82866399999986,26.04514399999998,65535
58.50466399999986,25.397143999999983,65535
58.82866399999986,25.397143999999983,65535
58.82866399999986,24.74914399999998,65535
58.180663999999865,27.34114399999998,65535
57.85666399999987,27.34114399999998,65535
63.68866399999983,27.34114399999998,65535
60.124663999999854,24.74914399999998,65535
60.44866399999985,24.74914399999998,65535
60.44866399999985,25.397143999999983,65535
60.77266399999985,25.397143999999983,65535
61.09666399999985,26.04514399999998,65535
60.77266399999985,26.04514399999998,65535
60.77266399999985,26.69314399999997,65535
61.09666399999985,25.397143999999983,65535
61.09666399999985,26.69314399999997,65535
61.420663999999846,26.69314399999997,65535
61.74466399999984,27.34114399999998,65535
62.06866399999984,27.34114399999998,65535
62.39266399999984,27.34114399999998,65535
62.71666399999984,27.34114399999998,65535
64.01266399999983,27.34114399999998,65535
63.36466399999984,27.34114399999998,65535
63.04066399999984,27.34114399999998,65535
63.04066399999984,27.989143999999985,65535
64.33666399999983,27.989143999999985,65535
64.33666399999983,27.34114399999998,65535
64.66066399999983,27.34114399999998,65535
64.66066399999983,26.69314399999997,4756
64.98466399999982,25.397143999999983,4519
64.66066399999983,26.04514399999998,4736
64.98466399999982,26.04514399999998,4720
66.28066399999982,25.397143999999983,65535
65.95666399999982,24.74914399999998,4432
65.63266399999982,24.74914399999998,4436
65.63266399999982,25.397143999999983,4478
65.30866399999982,25.397143999999983,4499
66.60466399999981,25.397143999999983,65535
64.01266399999983,24.74914399999998,4656
64.01266399999983,24.101143999999977,4691
64.01266399999983,23.45314399999998,4715
63.68866399999983,23.45314399999998,4727
63.68866399999983,22.805143999999984,4752
63.68866399999983,26.04514399999998,65535
63.68866399999983,25.397143999999983,65535
63.68866399999983,26.69314399999997,65535
60.44866399999985,26.69314399999997,65535
64.01266399999983,27.989143999999985,65535
62.71666399999984,22.805143999999984,65535
62.39266399999984,22.805143999999984,65535
62.06866399999984,22.805143999999984,65535
62.06866399999984,23.45314399999998,65535
61.74466399999984,23.45314399999998,65535
61.420663999999846,23.45314399999998,65535
61.09666399999985,23.45314399999998,65535
61.09666399999985,24.101143999999977,65535
61.09666399999985,24.74914399999998,65535
60.77266399999985,24.74914399999998,65535
63.04066399999984,21.50914399999997,65535
63.04066399999984,22.15714399999998,65535
63.04066399999984,22.805143999999984,65535
62.39266399999984,26.04514399999998,65535
62.06866399999984,25.397143999999983,65535
61.74466399999984,25.397143999999983,65535
61.74466399999984,24.74914399999998,65535
61.74466399999984,24.101143999999977,65535
61.420663999999846,24.101143999999977,65535
62.39266399999984,26.69314399999997,65535
64.66066399999983,25.397143999999983,4588
64.66066399999983,24.74914399999998,4606
64.33666399999983,24.74914399999998,4617
63.36466399999984,22.805143999999984,4777
67.25266399999981,24.101143999999977,65535
66.92866399999981,24.101143999999977,65535
66.60466399999981,23.45314399999998,65535
66.28066399999982,23.45314399999998,65535
66.28066399999982,24.101143999999977,65535
65.95666399999982,24.101143999999977,3804
60.124663999999854,24.101143999999977,65535
60.124663999999854,23.45314399999998,65535
60.44866399999985,22.805143999999984,65535
60.77266399999985,27.34114399999998,65535
61.09666399999985,27.989143999999985,65535
61.09666399999985,28.63714399999997,65535
61.420663999999846,29.28514399999997,65535
61.74466399999984,29.933143999999977,65535
62.06866399999984,29.933143999999977,65535
62.39266399999984,29.933143999999977,65535
62.71666399999984,29.933143999999977,65535
61.420663999999846,22.805143999999984,65535
61.420663999999846,22.15714399999998,65535
61.09666399999985,22.15714399999998,65535
61.420663999999846,21.50914399999997,65535
62.39266399999984,27.989143999999985,65535
62.06866399999984,27.989143999999985,65535
61.420663999999846,27.34114399999998,65535
63.04066399999984,29.933143999999977,65535
63.68866399999983,29.28514399999997,65535
63.36466399999984,29.28514399999997,65535
63.36466399999984,29.933143999999977,65535
60.44866399999985,27.34114399999998,65535
61.74466399999984,29.28514399999997,65535
62.39266399999984,30.58114399999998,65535
62.71666399999984,31.229143999999977,65535
62.71666399999984,29.28514399999997,65535
63.04066399999984,28.63714399999997,65535
66.60466399999981,26.04514399999998,65535
66.60466399999981,26.69314399999997,65535
66.60466399999981,27.34114399999998,65535
62.71666399999984,26.04514399999998,65535
62.71666399999984,25.397143999999983,65535
63.04066399999984,25.397143999999983,65535
63.36466399999984,25.397143999999983,65535
62.71666399999984,23.45314399999998,65535
62.39266399999984,24.101143999999977,65535
62.71666399999984,22.15714399999998,65535
62.39266399999984,22.15714399999998,65535
62.39266399999984,21.50914399999997,65535
61.09666399999985,21.50914399999997,65535
60.77266399999985,22.805143999999984,65535
60.44866399999985,22.15714399999998,65535
60.77266399999985,23.45314399999998,65535
60.77266399999985,21.50914399999997,65535
60.77266399999985,22.15714399999998,65535
60.124663999999854,22.805143999999984,65535
60.44866399999985,24.101143999999977,65535
62.06866399999984,24.74914399999998,65535
50.72866399999991,16.325143999999987,1642
50.40466399999991,16.973143999999984,1674
50.72866399999991,16.973143999999984,1634
50.40466399999991,16.325143999999987,1757
50.08066399999991,16.973143999999984,1851
50.08066399999991,16.325143999999987,1748
51.700663999999904,16.973143999999984,1572
51.37666399999991,16.973143999999984,1596
51.05266399999991,15.677143999999986,1704
50.72866399999991,15.677143999999986,1652
51.05266399999991,17.621143999999987,1616
51.37666399999991,17.621143999999987,1572
51.700663999999904,17.621143999999987,1551
51.700663999999904,16.325143999999987,1560
52.0246639999999,22.15714399999998,1318
52.0246639999999,21.50914399999997,1312
52.3486639999999,21.50914399999997,1314
52.0246639999999,20.86114399999998,1308
51.700663999999904,20.86114399999998,1352
51.37666399999991,21.50914399999997,1391
51.37666399999991,20.86114399999998,1386
51.05266399999991,20.86114399999998,1530
52.6726639999999,23.45314399999998,1083
52.3486639999999,22.805143999999984,1335
52.3486639999999,20.213143999999986,1334
52.0246639999999,20.213143999999986,1335
52.3486639999999,19.565143999999982,1402
52.6726639999999,19.565143999999982,1426
51.700663999999904,21.50914399999997,1390
51.700663999999904,22.15714399999998,1421
52.6726639999999,21.50914399999997,1353
52.996663999999896,21.50914399999997,1405
52.6726639999999,20.86114399999998,1343
52.6726639999999,22.15714399999998,1369
52.6726639999999,20.213143999999986,1420
52.996663999999896,19.565143999999982,1486
52.996663999999896,20.86114399999998,1376
52.996663999999896,20.213143999999986,1385
53.32066399999989,20.213143999999986,1481
51.37666399999991,20.213143999999986,1393
52.3486639999999,16.973143999999984,1474
52.0246639999999,16.973143999999984,1519
52.0246639999999,16.325143999999987,1534
52.0246639999999,17.621143999999987,1521
52.6726639999999,16.973143999999984,1457
52.996663999999896,16.973143999999984,1398
52.3486639999999,16.325143999999987,1510
52.3486639999999,15.677143999999986,1549
51.700663999999904,18.269143999999983,1540
52.6726639999999,17.621143999999987,1434
52.3486639999999,17.621143999999987,1461
52.6726639999999,18.269143999999983,1398
52.3486639999999,18.269143999999983,1498
52.3486639999999,18.917143999999983,1414
52.996663999999896,17.621143999999987,1357
51.700663999999904,19.565143999999982,1397
51.700663999999904,18.917143999999983,1501
51.37666399999991,18.269143999999983,1587
58.82866399999986,9.197143999999987,2768
58.180663999999865,7.90114399999999,2861
58.50466399999986,8.54914399999999,2812
63.36466399999984,10.493143999999988,2983
63.36466399999984,11.141143999999988,2990
63.36466399999984,11.789143999999988,3025
63.68866399999983,11.789143999999988,3053
64.33666399999983,12.437143999999988,3454
64.66066399999983,12.437143999999988,3949
65.63266399999982,13.085143999999987,3606
65.95666399999982,13.085143999999987,3641
66.28066399999982,14.381143999999988,3711
65.95666399999982,13.733143999999989,3780
66.28066399999982,13.733143999999989,3689
65.30866399999982,13.085143999999987,3907
64.98466399999982,13.085143999999987,3541
64.01266399999983,11.789143999999988,3084
63.68866399999983,11.141143999999988,3021
59.800663999999855,10.493143999999988,2564
59.800663999999855,11.141143999999988,2547
60.124663999999854,11.141143999999988,2562
60.44866399999985,11.141143999999988,2575
60.124663999999854,11.789143999999988,2588
60.77266399999985,7.25314399999999,2824
60.77266399999985,6.60514399999999,2870
59.15266399999986,9.197143999999987,2650
59.47666399999986,9.197143999999987,2671
59.800663999999855,9.845143999999989,2566
59.47666399999986,11.141143999999988,2511
61.09666399999985,10.493143999999988,2685
60.77266399999985,10.493143999999988,2655
60.77266399999985,11.141143999999988,2610
62.06866399999984,9.197143999999987,3010
61.74466399999984,9.845143999999989,2956
61.420663999999846,9.845143999999989,2933
59.15266399999986,9.845143999999989,2630
59.47666399999986,9.845143999999989,2606
58.82866399999986,5.957143999999991,3045
58.180663999999865,7.25314399999999,2917
58.50466399999986,7.25314399999999,2950
58.50466399999986,6.60514399999999,2955
58.50466399999986,5.957143999999991,3013
58.82866399999986,8.54914399999999,2798
60.44866399999985,7.25314399999999,2798
60.44866399999985,7.90114399999999,2759
60.124663999999854,10.493143999999988,2596
60.44866399999985,9.197143999999987,2708
60.77266399999985,9.197143999999987,2720
60.77266399999985,8.54914399999999,2739
60.124663999999854,9.845143999999989,2975
60.44866399999985,10.493143999999988,2641
63.04066399999984,10.493143999999988,2934
62.06866399999984,9.845143999999989,3035
62.39266399999984,9.845143999999989,3043
62.71666399999984,9.845143999999989,3067
59.47666399999986,14.381143999999988,2560
59.47666399999986,13.733143999999989,2501
59.47666399999986,13.085143999999987,2477
59.800663999999855,12.437143999999988,2546
59.15266399999986,11.141143999999988,2475
59.15266399999986,14.381143999999988,2574
58.82866399999986,11.789143999999988,2455
58.50466399999986,12.437143999999988,2385
58.180663999999865,12.437143999999988,2378
57.85666399999987,11.789143999999988,2329
62.71666399999984,7.90114399999999,3096
62.39266399999984,7.90114399999999,3053
62.06866399999984,8.54914399999999,3028
60.44866399999985,5.309143999999991,2944
60.44866399999985,5.957143999999991,2911
60.77266399999985,5.957143999999991,2900
62.39266399999984,11.141143999999988,2831
62.06866399999984,10.493143999999988,2786
61.74466399999984,11.141143999999988,2759
61.420663999999846,11.141143999999988,2713
61.09666399999985,11.141143999999988,2696
60.77266399999985,11.789143999999988,2673
63.04066399999984,11.141143999999988,2912
62.71666399999984,11.141143999999988,2855
62.39266399999984,10.493143999999988,2813
67.25266399999981,15.677143999999986,3830
67.25266399999981,15.029143999999986,3868
67.25266399999981,14.381143999999988,3896
66.92866399999981,15.029143999999986,3819
66.60466399999981,15.677143999999986,3797
64.01266399999983,11.141143999999988,3068
66.60466399999981,15.029143999999986,3860
54.29266399999989,18.269143999999983,1122
54.616663999999886,17.621143999999987,1266
53.96866399999989,18.269143999999983,1233
43.92466399999995,1.4211439999999929,2598
44.24866399999995,0.7731439999999932,2623
44.572663999999946,0.1251439999999934,2616
46.84066399999993,1.4211439999999929,2483
44.572663999999946,1.4211439999999929,2665
44.24866399999995,1.4211439999999929,2630
45.54466399999994,1.4211439999999929,2617
46.516663999999935,1.4211439999999929,2501
42.30466399999996,2.717143999999992,2616
44.24866399999995,2.717143999999992,2714
44.572663999999946,2.717143999999992,2719
43.92466399999995,2.0691439999999925,2630
42.30466399999996,2.0691439999999925,2669
42.62866399999996,2.0691439999999925,2633
42.62866399999996,1.4211439999999929,2672
42.95266399999996,1.4211439999999929,2632
43.276663999999954,1.4211439999999929,2567
46.516663999999935,-1.170856000000006,2516
46.19266399999994,-1.170856000000006,2634
45.86866399999994,-0.5228560000000062,2605
45.54466399999994,-0.5228560000000062,2562
48.46066399999992,1.4211439999999929,2359
41.332663999999966,2.0691439999999925,2674
41.98066399999996,2.717143999999992,2633
48.46066399999992,-1.8188560000000056,2513
47.81266399999993,0.7731439999999932,2412
46.84066399999993,0.7731439999999932,2467
44.572663999999946,-1.170856000000006,2485
43.60066399999995,-1.170856000000006,2548
43.276663999999954,-1.8188560000000056,2595
43.276663999999954,0.1251439999999934,2810
42.95266399999996,0.1251439999999934,2787
43.276663999999954,-0.5228560000000062,2720
43.60066399999995,-0.5228560000000062,2709
47.81266399999993,-3.7628560000000046,2647
47.48866399999993,-2.4668560000000053,2519
47.81266399999993,-0.5228560000000062,2447
46.516663999999935,-1.8188560000000056,2532
48.136663999999925,-1.170856000000006,2545
47.48866399999993,-1.170856000000006,2503
45.22066399999994,8.54914399999999,2314
45.22066399999994,7.90114399999999,2322
46.19266399999994,-0.5228560000000062,2621
46.516663999999935,-0.5228560000000062,2603
48.78466399999992,-3.114856000000005,2584
50.72866399999991,2.0691439999999925,2253
50.40466399999991,2.0691439999999925,2288
40.36066399999997,-3.7628560000000046,2865
41.65666399999997,-1.170856000000006,2782
41.332663999999966,1.4211439999999929,2720
43.276663999999954,13.733143999999989,65535
42.95266399999996,13.733143999999989,65535
41.65666399999997,15.029143999999986,65535
40.68466399999997,17.621143999999987,65535
43.60066399999995,13.085143999999987,65535
41.65666399999997,12.437143999999988,4009
41.65666399999997,13.085143999999987,4028
41.98066399999996,13.085143999999987,4078
41.65666399999997,13.733143999999989,4080
41.332663999999966,13.733143999999989,4072
41.332663999999966,14.381143999999988,4229
41.00866399999997,14.381143999999988,4135
41.332663999999966,13.085143999999987,4054
41.00866399999997,15.029143999999986,4335
41.98066399999996,13.733143999999989,4277
42.30466399999996,14.381143999999988,4416
42.30466399999996,12.437143999999988,4017
42.62866399999996,12.437143999999988,4196
42.95266399999996,12.437143999999988,4481
42.30466399999996,11.789143999999988,4026
42.95266399999996,11.789143999999988,4236
42.62866399999996,11.789143999999988,4227
43.276663999999954,11.789143999999988,4290
42.95266399999996,13.085143999999987,65535
42.30466399999996,13.085143999999987,4303
43.276663999999954,13.085143999999987,65535
43.276663999999954,12.437143999999988,65535
42.62866399999996,11.141143999999988,4072
42.95266399999996,11.141143999999988,4115
42.95266399999996,10.493143999999988,4133
44.572663999999946,8.54914399999999,2349
44.89666399999994,7.90114399999999,2328
44.89666399999994,9.197143999999987,2345
44.24866399999995,7.90114399999999,2366
44.572663999999946,7.90114399999999,2336
43.92466399999995,7.90114399999999,2499
44.24866399999995,7.25314399999999,2381
44.89666399999994,7.25314399999999,2358
45.22066399999994,7.25314399999999,2338
45.54466399999994,7.90114399999999,2318
44.572663999999946,7.25314399999999,2362
52.996663999999896,22.805143999999984,1050
52.996663999999896,23.45314399999998,1053
51.37666399999991,22.15714399999998,1539
51.37666399999991,22.805143999999984,1594
50.08066399999991,20.213143999999986,1616
50.72866399999991,20.213143999999986,1582
50.40466399999991,20.213143999999986,1644
50.08066399999991,20.86114399999998,1632
50.08066399999991,21.50914399999997,1684
50.08066399999991,22.15714399999998,1720
50.08066399999991,22.805143999999984,1739
53.96866399999989,22.805143999999984,1479
53.64466399999989,23.45314399999998,1257
53.32066399999989,23.45314399999998,1211
50.40466399999991,19.565143999999982,1551
50.08066399999991,18.917143999999983,1566
50.08066399999991,18.269143999999983,1628
52.0246639999999,22.805143999999984,1374
52.0246639999999,23.45314399999998,1423
51.37666399999991,19.565143999999982,1521
51.05266399999991,19.565143999999982,1560
50.72866399999991,18.917143999999983,1514
50.72866399999991,19.565143999999982,1537
49.75666399999992,18.917143999999983,1640
50.40466399999991,18.269143999999983,1533
53.64466399999989,19.565143999999982,1031
53.96866399999989,18.917143999999983,1085
53.64466399999989,18.917143999999983,1079
53.64466399999989,20.213143999999986,902
52.996663999999896,18.917143999999983,1272
52.996663999999896,18.269143999999983,1288
53.32066399999989,18.917143999999983,1232
50.72866399999991,17.621143999999987,1586
50.72866399999991,18.269143999999983,1569
52.6726639999999,16.325143999999987,1508
52.996663999999896,16.325143999999987,1449
52.996663999999896,15.677143999999986,1534
53.32066399999989,15.677143999999986,1472
53.32066399999989,15.029143999999986,1513
53.64466399999989,15.029143999999986,1540
53.96866399999989,15.029143999999986,1540
52.6726639999999,18.917143999999983,1378
53.32066399999989,16.325143999999987,1417
52.6726639999999,15.029143999999986,1596
51.05266399999991,22.805143999999984,1620
51.05266399999991,23.45314399999998,1664
50.72866399999991,22.15714399999998,1669
50.40466399999991,22.15714399999998,1780
51.05266399999991,22.15714399999998,1591
54.616663999999886,16.973143999999984,1300
54.29266399999989,16.325143999999987,1393
53.96866399999989,15.677143999999986,1442
50.72866399999991,21.50914399999997,2209
50.40466399999991,21.50914399999997,1785
50.40466399999991,17.621143999999987,1701
53.32066399999989,22.805143999999984,1006
53.64466399999989,22.15714399999998,203
54.29266399999989,16.973143999999984,1371
50.72866399999991,20.86114399999998,1581
51.700663999999904,22.805143999999984,1788
51.05266399999991,21.50914399999997,1615
50.08066399999991,19.565143999999982,1582
52.0246639999999,18.917143999999983,3688
52.0246639999999,19.565143999999982,3681
53.64466399999989,18.269143999999983,1245
51.700663999999904,20.213143999999986,1400
53.32066399999989,19.565143999999982,1219
50.72866399999991,23.45314399999998,1801
50.72866399999991,22.805143999999984,1771
49.43266399999992,20.213143999999986,1703
49.75666399999992,21.50914399999997,2219
49.75666399999992,22.15714399999998,2262
49.43266399999992,22.15714399999998,2274
51.05266399999991,18.917143999999983,1557
51.05266399999991,18.269143999999983,1616
53.32066399999989,16.973143999999984,1438
53.64466399999989,16.973143999999984,1450
49.75666399999992,20.86114399999998,1705
50.40466399999991,22.805143999999984,3770
53.64466399999989,16.325143999999987,1463
53.96866399999989,20.86114399999998,1026
54.29266399999989,20.86114399999998,1045
53.96866399999989,21.50914399999997,985
53.64466399999989,15.677143999999986,1471
53.96866399999989,20.213143999999986,974
53.96866399999989,19.565143999999982,1018
54.29266399999989,19.565143999999982,1069
53.96866399999989,16.325143999999987,1429
53.64466399999989,17.621143999999987,1389
53.96866399999989,22.15714399999998,258
53.64466399999989,21.50914399999997,806
53.64466399999989,20.86114399999998,850
52.6726639999999,15.677143999999986,1574
51.05266399999991,20.213143999999986,1519
54.940663999999884,24.101143999999977,65535
54.616663999999886,23.45314399999998,65535
54.29266399999989,23.45314399999998,65535
53.64466399999989,22.805143999999984,0
53.96866399999989,16.973143999999984,1513
50.40466399999991,20.86114399999998,2266
53.32066399999989,18.269143999999983,1257
49.75666399999992,19.565143999999982,1630
50.40466399999991,23.45314399999998,1885
49.75666399999992,20.213143999999986,1681
49.43266399999992,19.565143999999982,1706
49.43266399999992,20.86114399999998,1794
53.96866399999989,17.621143999999987,1412
42.30466399999996,-1.8188560000000056,3999
41.98066399999996,-1.8188560000000056,3982
41.65666399999997,0.7731439999999932,3986
42.62866399999996,-1.8188560000000056,4114
42.95266399999996,-1.8188560000000056,4143
42.62866399999996,-3.114856000000005,4237
42.95266399999996,-2.4668560000000053,4215
42.62866399999996,-7.650856000000003,4579
42.30466399999996,-7.650856000000003,4639
42.30466399999996,-8.946856000000002,4775
42.30466399999996,-8.298856000000002,4749
41.98066399999996,-8.298856000000002,4738
42.30466399999996,-7.002856000000003,4521
42.62866399999996,-6.354856000000003,4463
42.30466399999996,-6.354856000000003,4418
42.62866399999996,-5.706856000000004,3918
41.98066399999996,-4.410856000000004,3872
42.30466399999996,-3.7628560000000046,4263
40.03666399999997,-0.5228560000000062,3966
39.38866399999998,-0.5228560000000062,4014
41.00866399999997,0.7731439999999932,4114
40.68466399999997,0.7731439999999932,4146
40.36066399999997,0.1251439999999934,4224
39.712663999999975,-0.5228560000000062,4123
38.41666399999998,-0.5228560000000062,4135
39.06466399999998,-0.5228560000000062,4257
38.74066399999998,-1.170856000000006,4143
41.332663999999966,0.7731439999999932,4174
41.65666399999997,2.717143999999992,3774
41.65666399999997,2.0691439999999925,3797
41.332663999999966,0.1251439999999934,4132
41.332663999999966,-0.5228560000000062,4076
41.65666399999997,-4.410856000000004,3846
40.03666399999997,-2.4668560000000053,4084
41.00866399999997,-4.410856000000004,3967
43.276663999999954,-5.706856000000004,4048
39.38866399999998,-1.170856000000006,4109
38.09266399999999,-1.170856000000006,4522
38.74066399999998,-0.5228560000000062,4285
37.76866399999999,-1.170856000000006,4587
39.06466399999998,-1.8188560000000056,4107
39.38866399999998,-3.114856000000005,4007
39.38866399999998,-2.4668560000000053,4063
39.06466399999998,-2.4668560000000053,4090
39.06466399999998,-3.114856000000005,4011
39.06466399999998,-3.7628560000000046,3985
38.74066399999998,-3.7628560000000046,4064
40.03666399999997,-3.7628560000000046,3963
40.03666399999997,-3.114856000000005,4163
40.03666399999997,-1.8188560000000056,4244
39.712663999999975,-1.8188560000000056,4209
39.712663999999975,-1.170856000000006,4145
40.36066399999997,-1.170856000000006,4164
40.68466399999997,-1.170856000000006,4142
41.00866399999997,-1.170856000000006,4130
41.332663999999966,-1.170856000000006,3970
43.276663999999954,-8.298856000000002,4739
42.95266399999996,-8.298856000000002,4707
41.65666399999997,-5.706856000000004,65535
41.98066399999996,-7.002856000000003,65535
41.98066399999996,-6.354856000000003,65535
41.332663999999966,-5.058856000000004,4085
43.276663999999954,-3.7628560000000046,4520
42.95266399999996,-4.410856000000004,4454
42.62866399999996,-4.410856000000004,4444
42.30466399999996,-4.410856000000004,4403
41.00866399999997,-5.706856000000004,4023
41.332663999999966,-1.8188560000000056,3916
40.68466399999997,-3.114856000000005,3870
41.00866399999997,-3.114856000000005,3921
41.00866399999997,-2.4668560000000053,3944
41.332663999999966,-2.4668560000000053,3997
40.68466399999997,-4.410856000000004,3907
40.36066399999997,-4.410856000000004,3991
40.68466399999997,-3.7628560000000046,3899
40.36066399999997,-3.114856000000005,3877
41.65666399999997,-2.4668560000000053,4014
38.09266399999999,-3.7628560000000046,4111
38.74066399999998,-3.114856000000005,4055
37.76866399999999,-3.7628560000000046,4168
39.712663999999975,-3.114856000000005,3999
38.41666399999998,-3.7628560000000046,4076
40.03666399999997,-4.410856000000004,65535
40.03666399999997,-5.058856000000004,65535
39.38866399999998,-6.354856000000003,65535
39.38866399999998,-7.002856000000003,65535
42.95266399999996,-3.114856000000005,4648
41.98066399999996,-1.170856000000006,4011
42.30466399999996,-2.4668560000000053,4052
41.65666399999997,-0.5228560000000062,4109
41.98066399999996,-0.5228560000000062,3946
41.65666399999997,0.1251439999999934,3973
41.98066399999996,0.1251439999999934,3995
37.76866399999999,-5.058856000000004,4047
36.79666399999999,-4.410856000000004,4106
38.74066399999998,-4.410856000000004,4003
37.12066399999999,-4.410856000000004,4080
37.44466399999999,-5.058856000000004,4604
37.44466399999999,-7.002856000000003,65535
37.44466399999999,-6.354856000000003,65535
37.44466399999999,-5.706856000000004,4280
39.712663999999975,-3.7628560000000046,4073
42.62866399999996,-8.946856000000002,65535
42.30466399999996,-5.706856000000004,4425
42.30466399999996,-5.058856000000004,4510
42.95266399999996,-5.706856000000004,3950
41.00866399999997,-5.058856000000004,3991
40.68466399999997,-5.058856000000004,3965
41.65666399999997,-5.058856000000004,65535
41.65666399999997,-6.354856000000003,65535
36.79666399999999,-6.354856000000003,65535
37.12066399999999,-5.706856000000004,4448
37.76866399999999,-5.706856000000004,4247
38.09266399999999,-4.410856000000004,4382
37.12066399999999,-5.058856000000004,4402
36.79666399999999,-5.058856000000004,4360
37.76866399999999,-4.410856000000004,65535
37.76866399999999,-7.002856000000003,65535
38.41666399999998,-6.354856000000003,65535
38.09266399999999,-6.354856000000003,65535
48.78466399999992,1.4211439999999929,2385
56.23666399999988,8.54914399999999,2290
55.58866399999988,9.197143999999987,2095
55.91266399999988,9.197143999999987,2236
55.26466399999988,10.493143999999988,1972
55.91266399999988,12.437143999999988,2109
55.58866399999988,11.789143999999988,2115
55.58866399999988,11.141143999999988,2106
55.26466399999988,11.789143999999988,2124
55.58866399999988,10.493143999999988,2091
55.58866399999988,13.085143999999987,2085
56.88466399999987,9.845143999999989,2242
57.20866399999987,9.845143999999989,2277
56.56066399999988,9.845143999999989,2214
56.88466399999987,8.54914399999999,2329
54.940663999999884,9.845143999999989,3436
54.940663999999884,11.789143999999988,2192
55.91266399999988,13.085143999999987,2184
56.23666399999988,13.733143999999989,2228
55.91266399999988,13.733143999999989,2231
56.23666399999988,14.381143999999988,2251
56.23666399999988,15.029143999999986,2292
56.23666399999988,15.677143999999986,2347
56.56066399999988,14.381143999999988,2308
56.88466399999987,14.381143999999988,2278
56.23666399999988,13.085143999999987,2176
56.56066399999988,13.085143999999987,2256
56.88466399999987,12.437143999999988,2293
57.20866399999987,12.437143999999988,2309
57.53266399999987,12.437143999999988,2324
56.88466399999987,15.029143999999986,2304
56.56066399999988,15.677143999999986,2364
56.88466399999987,15.677143999999986,2383
56.88466399999987,16.325143999999987,2398
55.91266399999988,11.789143999999988,2261
57.20866399999987,10.493143999999988,2464
49.43266399999992,1.4211439999999929,2343
49.75666399999992,0.7731439999999932,2361
49.75666399999992,2.0691439999999925,2309
50.08066399999991,2.717143999999992,2320
49.75666399999992,1.4211439999999929,2314
47.81266399999993,1.4211439999999929,2414
48.136663999999925,2.0691439999999925,2949
48.46066399999992,2.0691439999999925,2388
48.136663999999925,1.4211439999999929,2371
48.78466399999992,0.1251439999999934,2386
48.46066399999992,0.1251439999999934,2404
47.81266399999993,0.1251439999999934,2503
46.84066399999993,-0.5228560000000062,2562
47.16466399999993,0.7731439999999932,2471
46.84066399999993,0.1251439999999934,2512
46.84066399999993,-1.170856000000006,2490
50.08066399999991,1.4211439999999929,2306
50.08066399999991,2.0691439999999925,2323
49.43266399999992,2.717143999999992,2312
49.75666399999992,3.365143999999992,2299
50.08066399999991,3.365143999999992,2257
49.10866399999992,2.0691439999999925,2342
49.43266399999992,2.0691439999999925,2334
48.78466399999992,0.7731439999999932,2436
48.78466399999992,-0.5228560000000062,2507
48.78466399999992,-1.170856000000006,2537
48.136663999999925,0.7731439999999932,2426
48.46066399999992,0.7731439999999932,2399
43.92466399999995,5.957143999999991,2467
44.24866399999995,5.957143999999991,2505
43.92466399999995,5.309143999999991,2412
42.95266399999996,2.717143999999992,2537
45.54466399999994,2.0691439999999925,2594
45.22066399999994,2.0691439999999925,2689
42.95266399999996,2.0691439999999925,2563
42.95266399999996,0.7731439999999932,2738
43.276663999999954,0.7731439999999932,2667
46.19266399999994,0.7731439999999932,2692
46.516663999999935,0.7731439999999932,2649
45.86866399999994,0.1251439999999934,2705
46.19266399999994,0.1251439999999934,2709
47.81266399999993,-1.170856000000006,2728
48.136663999999925,-2.4668560000000053,2687
47.48866399999993,-1.8188560000000056,2547
47.16466399999993,-1.170856000000006,2483
47.16466399999993,-0.5228560000000062,2568
46.84066399999993,-1.8188560000000056,2636
45.22066399999994,-0.5228560000000062,2507
44.89666399999994,0.1251439999999934,2532
45.22066399999994,0.7731439999999932,2617
45.54466399999994,0.7731439999999932,2645
45.86866399999994,0.7731439999999932,2682
45.22066399999994,0.1251439999999934,2627
44.89666399999994,0.7731439999999932,2576
43.92466399999995,-0.5228560000000062,2637
43.92466399999995,-1.170856000000006,2626
44.24866399999995,-1.170856000000006,2607
45.22066399999994,-1.170856000000006,2538
44.572663999999946,-0.5228560000000062,2519
44.24866399999995,0.1251439999999934,2668
44.572663999999946,0.7731439999999932,2717
43.276663999999954,-1.170856000000006,2804
42.95266399999996,-0.5228560000000062,2853
44.24866399999995,2.0691439999999925,2678
43.60066399999995,0.7731439999999932,2591
43.60066399999995,2.0691439999999925,2655
52.6726639999999,4.661143999999991,2308
52.6726639999999,5.309143999999991,2319
51.700663999999904,5.309143999999991,2249
52.0246639999999,5.309143999999991,2268
52.3486639999999,5.309143999999991,2277
51.37666399999991,4.013143999999992,2263
52.3486639999999,5.957143999999991,2271
52.0246639999999,6.60514399999999,2301
52.6726639999999,5.957143999999991,2288
52.996663999999896,5.957143999999991,2301
53.32066399999989,5.957143999999991,2295
52.996663999999896,6.60514399999999,2277
53.32066399999989,6.60514399999999,2269
52.6726639999999,6.60514399999999,2297
52.996663999999896,5.309143999999991,2316
59.15266399999986,24.101143999999977,65535
56.88466399999987,24.101143999999977,65535
56.88466399999987,23.45314399999998,65535
56.88466399999987,22.805143999999984,65535
57.20866399999987,24.74914399999998,65535
56.88466399999987,24.74914399999998,65535
56.56066399999988,24.74914399999998,65535
56.56066399999988,25.397143999999983,65535
56.56066399999988,24.101143999999977,65535
56.56066399999988,23.45314399999998,65535
56.56066399999988,26.04514399999998,65535
56.88466399999987,26.04514399999998,65535
57.20866399999987,25.397143999999983,65535
57.53266399999987,25.397143999999983,65535
56.23666399999988,26.04514399999998,65535
56.23666399999988,26.69314399999997,65535
55.91266399999988,26.69314399999997,65535
56.56066399999988,26.69314399999997,65535
56.56066399999988,27.34114399999998,65535
56.56066399999988,27.989143999999985,65535
56.23666399999988,27.989143999999985,65535
55.91266399999988,27.34114399999998,65535
56.56066399999988,22.805143999999984,65535
56.56066399999988,22.15714399999998,65535
56.56066399999988,21.50914399999997,65535
57.20866399999987,26.69314399999997,65535
39.06466399999998,-8.946856000000002,65535
38.41666399999998,-8.298856000000002,65535
45.86866399999994,11.789143999999988,3028
46.19266399999994,11.789143999999988,3015
46.19266399999994,10.493143999999988,3055
45.22066399999994,18.269143999999983,2892
45.22066399999994,18.917143999999983,2933
45.54466399999994,16.973143999999984,2719
45.22066399999994,17.621143999999987,2836
45.86866399999994,16.325143999999987,2588
45.54466399999994,18.917143999999983,2933
45.54466399999994,16.325143999999987,2614
45.54466399999994,18.269143999999983,2840
44.89666399999994,18.917143999999983,3130
46.19266399999994,16.973143999999984,2679
46.19266399999994,16.325143999999987,2645
45.86866399999994,16.973143999999984,2638
45.86866399999994,17.621143999999987,2681
46.19266399999994,15.677143999999986,2553
46.516663999999935,16.325143999999987,2618
45.54466399999994,15.677143999999986,2637
45.22066399999994,15.029143999999986,2619
45.54466399999994,15.029143999999986,2601
45.22066399999994,15.677143999999986,2684
44.572663999999946,15.677143999999986,3019
44.24866399999995,15.677143999999986,3040
43.92466399999995,16.325143999999987,3104
44.89666399999994,15.677143999999986,2983
45.54466399999994,17.621143999999987,2806
45.22066399999994,16.325143999999987,2673
46.516663999999935,16.973143999999984,2748
45.86866399999994,18.269143999999983,3040
43.92466399999995,15.677143999999986,3206
45.22066399999994,13.733143999999989,2736
47.48866399999993,19.565143999999982,2207
47.16466399999993,18.917143999999983,2208
47.81266399999993,18.917143999999983,2186
45.54466399999994,9.845143999999989,2299
45.22066399999994,9.845143999999989,2308
45.22066399999994,10.493143999999988,2359
45.86866399999994,9.845143999999989,2324
45.86866399999994,10.493143999999988,3798
48.78466399999992,21.50914399999997,2225
49.10866399999992,20.213143999999986,1849
49.10866399999992,18.917143999999983,1746
48.46066399999992,17.621143999999987,2188
49.43266399999992,17.621143999999987,2413
49.10866399999992,17.621143999999987,2272
48.136663999999925,18.269143999999983,2107
49.10866399999992,18.269143999999983,1753
49.43266399999992,18.269143999999983,1808
49.43266399999992,16.973143999999984,1688
49.75666399999992,16.973143999999984,2361
49.75666399999992,16.325143999999987,1727
50.08066399999991,15.677143999999986,1770
50.08066399999991,15.029143999999986,1790
49.43266399999992,18.917143999999983,1727
47.81266399999993,20.86114399999998,2395
48.136663999999925,20.86114399999998,2340
48.46066399999992,20.86114399999998,2244
48.46066399999992,21.50914399999997,2240
49.10866399999992,19.565143999999982,1761
48.136663999999925,17.621143999999987,2146
48.78466399999992,22.15714399999998,2350
48.78466399999992,20.86114399999998,2399
49.10866399999992,20.86114399999998,1887
48.78466399999992,18.269143999999983,1823
48.78466399999992,17.621143999999987,2174
49.10866399999992,21.50914399999997,2206
48.78466399999992,20.213143999999986,2395
48.46066399999992,20.213143999999986,2416
48.136663999999925,19.565143999999982,3045
48.46066399999992,19.565143999999982,2924
48.46066399999992,18.917143999999983,2254
48.46066399999992,18.269143999999983,1882
48.78466399999992,19.565143999999982,2340
48.78466399999992,18.917143999999983,2329
47.81266399999993,18.269143999999983,2227
49.10866399999992,22.15714399999998,2300
49.43266399999992,21.50914399999997,2254
48.136663999999925,18.917143999999983,2171
48.136663999999925,20.213143999999986,3065
52.636,-8.018,65535
52.312,-7.370000000000001,65535
52.312,-8.018,65535
52.636,-8.666,65535
51.988,-8.666,65535
51.988,-8.018,65535
52.96,-8.666,65535
52.96,-6.074000000000002,65535
53.28399999999999,-6.722000000000001,65535
53.60799999999999,-6.722000000000001,65535
53.60799999999999,-7.370000000000001,65535
53.60799999999999,-8.018,65535
54.25599999999999,-8.666,65535
53.93199999999999,-8.666,65535
53.93199999999999,-8.018,65535
52.312,-6.722000000000001,65535
52.636,-6.722000000000001,65535
53.93199999999999,-6.722000000000001,65535
54.25599999999999,-6.074000000000002,65535
53.28399999999999,-7.370000000000001,65535
52.96,-7.370000000000001,65535
52.312,-8.666,65535
52.96,-8.018,65535
52.636,-7.370000000000001,65535
52.96,-6.722000000000001,65535
51.988,-9.314,65535
52.312,-9.314,65535
54.579999999999984,-6.722000000000001,65535
54.579999999999984,-6.074000000000002,65535
53.28399999999999,-8.018,65535
53.28399999999999,-8.666,65535
53.28399999999999,-9.314,65535
53.93199999999999,-9.314,65535
54.25599999999999,-9.314,65535
53.60799999999999,-8.666,65535
53.60799999999999,-9.314,65535
49.43266399999992,14.381143999999988,1863
49.75666399999992,14.381143999999988,1832
49.75666399999992,15.029143999999986,1828
49.75666399999992,13.733143999999989,1896
50.08066399999991,13.733143999999989,1853
49.75666399999992,15.677143999999986,1810
50.40466399999991,15.029143999999986,1849
49.43266399999992,13.733143999999989,2254
50.40466399999991,15.677143999999986,2183
50.40466399999991,13.733143999999989,2198
46.19266399999994,15.029143999999986,2533
45.86866399999994,15.029143999999986,2592
45.86866399999994,14.381143999999988,2570
46.19266399999994,13.733143999999989,2625
45.86866399999994,13.733143999999989,2701
58.50466399999986,13.733143999999989,2401
58.180663999999865,13.733143999999989,2406
58.180663999999865,13.085143999999987,2378
57.85666399999987,12.437143999999988,2344
60.44866399999985,15.677143999999986,2627
60.124663999999854,15.677143999999986,2561
60.124663999999854,16.325143999999987,2599
59.800663999999855,16.325143999999987,2527
59.800663999999855,17.621143999999987,2506
59.47666399999986,18.269143999999983,2488
61.74466399999984,16.973143999999984,2638
61.420663999999846,16.973143999999984,2611
60.77266399999985,16.973143999999984,2563
65.63266399999982,22.15714399999998,3742
65.95666399999982,21.50914399999997,3702
65.63266399999982,20.86114399999998,3673
64.98466399999982,20.213143999999986,3605
64.66066399999983,20.213143999999986,3583
64.33666399999983,19.565143999999982,3277
64.01266399999983,19.565143999999982,2990
63.68866399999983,20.213143999999986,2943
64.66066399999983,18.917143999999983,3954
59.15266399999986,16.325143999999987,2463
59.15266399999986,15.029143999999986,2504
59.15266399999986,17.621143999999987,2480
57.53266399999987,14.381143999999988,2304
57.53266399999987,15.029143999999986,2324
61.09666399999985,14.381143999999988,2731
60.77266399999985,15.029143999999986,2682
60.44866399999985,15.029143999999986,2668
58.180663999999865,15.029143999999986,2381
58.50466399999986,16.325143999999987,2415
58.50466399999986,15.677143999999986,2388
63.36466399999984,13.085143999999987,2975
63.04066399999984,14.381143999999988,2912
62.39266399999984,15.677143999999986,2834
63.36466399999984,13.733143999999989,2957
63.36466399999984,14.381143999999988,2929
62.71666399999984,15.677143999999986,2862
62.39266399999984,17.621143999999987,2696
59.800663999999855,15.677143999999986,2973
55.58866399999988,13.733143999999989,2258
57.20866399999987,14.381143999999988,2288
57.85666399999987,14.381143999999988,2336
58.82866399999986,16.973143999999984,2472
58.82866399999986,16.325143999999987,2450
59.15266399999986,18.269143999999983,2484
60.44866399999985,17.621143999999987,2539
59.15266399999986,12.437143999999988,2443
59.15266399999986,13.085143999999987,2457
58.82866399999986,12.437143999999988,2419
59.47666399999986,16.325143999999987,2509
58.82866399999986,14.381143999999988,2496
59.47666399999986,15.677143999999986,2527
63.36466399999984,18.917143999999983,2896
63.04066399999984,17.621143999999987,2851
62.71666399999984,17.621143999999987,2825
63.68866399999983,19.565143999999982,2929
62.39266399999984,16.973143999999984,2740
59.800663999999855,16.973143999999984,2515
59.47666399999986,17.621143999999987,2492
57.85666399999987,13.085143999999987,2368
57.53266399999987,13.085143999999987,2349
58.50466399999986,11.789143999999988,2390
57.85666399999987,15.029143999999986,2370
57.20866399999987,13.733143999999989,2294
57.53266399999987,13.733143999999989,2355
61.74466399999984,16.325143999999987,2734
61.420663999999846,16.325143999999987,2701
61.09666399999985,16.325143999999987,2690
61.09666399999985,16.973143999999984,2658
60.124663999999854,15.029143999999986,2836
66.60466399999981,20.86114399999998,3777
67.25266399999981,20.86114399999998,3845
67.90066399999981,20.213143999999986,3915
67.57666399999981,20.213143999999986,4540
59.800663999999855,15.029143999999986,2556
58.50466399999986,15.029143999999986,2398
59.47666399999986,15.029143999999986,2541
60.44866399999985,16.325143999999987,2627
59.15266399999986,15.677143999999986,2485
57.85666399999987,13.733143999999989,2396
58.82866399999986,13.733143999999989,2443
58.50466399999986,13.085143999999987,2428
57.20866399999987,13.085143999999987,2325
56.88466399999987,13.085143999999987,2299
58.180663999999865,11.789143999999988,2361
62.06866399999984,16.973143999999984,2729
65.95666399999982,23.45314399999998,3783
59.800663999999855,14.381143999999988,65535
59.800663999999855,18.269143999999983,2497
63.04066399999984,15.029143999999986,2880
62.71666399999984,15.029143999999986,2870
62.39266399999984,16.325143999999987,2803
63.36466399999984,12.437143999999988,3008
68.5486639999998,17.621143999999987,4128
68.5486639999998,18.269143999999983,4061
68.5486639999998,18.917143999999983,4038
68.2246639999998,18.917143999999983,3994
59.800663999999855,13.085143999999987,2560
60.124663999999854,13.085143999999987,2599
59.47666399999986,16.973143999999984,2501
59.15266399999986,16.973143999999984,2493
56.56066399999988,13.733143999999989,2246
60.124663999999854,17.621143999999987,2516
57.85666399999987,16.325143999999987,2475
58.180663999999865,16.325143999999987,2437
58.180663999999865,15.677143999999986,2445
57.20866399999987,16.325143999999987,2487
57.53266399999987,15.677143999999986,2505
57.85666399999987,15.677143999999986,2476
44.89666399999994,23.45314399999998,3925
44.572663999999946,23.45314399999998,3995
44.89666399999994,24.74914399999998,3912
44.572663999999946,24.74914399999998,4031
44.572663999999946,24.101143999999977,3972
44.24866399999995,24.101143999999977,4001
47.48866399999993,25.397143999999983,3773
47.48866399999993,24.74914399999998,3713
47.16466399999993,24.74914399999998,3635
47.16466399999993,24.101143999999977,3537
47.48866399999993,22.15714399999998,3667
47.81266399999993,22.15714399999998,3753
47.16466399999993,22.15714399999998,3646
47.16466399999993,23.45314399999998,3698
47.16466399999993,22.805143999999984,3704
46.84066399999993,24.101143999999977,3618
45.86866399999994,27.34114399999998,3958
45.54466399999994,27.34114399999998,3939
45.54466399999994,27.989143999999985,4055
45.86866399999994,20.86114399999998,3830
45.86866399999994,21.50914399999997,3838
46.19266399999994,21.50914399999997,3774
46.19266399999994,27.34114399999998,3958
46.19266399999994,26.69314399999997,3949
46.516663999999935,26.69314399999997,3911
46.516663999999935,26.04514399999998,3807
47.48866399999993,22.805143999999984,3765
46.84066399999993,22.805143999999984,3578
45.54466399999994,22.15714399999998,3887
45.22066399999994,22.15714399999998,3965
44.89666399999994,22.15714399999998,4383
47.48866399999993,23.45314399999998,3731
46.516663999999935,24.101143999999977,3457
46.516663999999935,24.74914399999998,3671
45.86866399999994,24.101143999999977,3620
47.16466399999993,26.69314399999997,3989
47.16466399999993,27.34114399999998,4044
43.92466399999995,25.397143999999983,4003
44.24866399999995,24.74914399999998,3910
44.89666399999994,26.04514399999998,3797
44.89666399999994,26.69314399999997,3844
45.22066399999994,26.69314399999997,3879
45.22066399999994,27.34114399999998,3906
46.84066399999993,26.69314399999997,3950
47.48866399999993,26.69314399999997,3943
44.24866399999995,25.397143999999983,3842
43.92466399999995,26.04514399999998,4019
46.19266399999994,24.101143999999977,3665
44.572663999999946,25.397143999999983,3880
46.84066399999993,24.74914399999998,3678
46.516663999999935,21.50914399999997,3778
46.84066399999993,21.50914399999997,3785
44.572663999999946,26.69314399999997,3835
44.572663999999946,27.34114399999998,3856
44.89666399999994,27.34114399999998,3971
44.572663999999946,27.989143999999985,3876
44.24866399999995,27.989143999999985,3890
44.572663999999946,28.63714399999997,3941
45.86866399999994,22.15714399999998,3699
45.86866399999994,22.805143999999984,3593
44.24866399999995,23.45314399999998,4028
43.92466399999995,27.989143999999985,65535
46.84066399999993,27.34114399999998,4111
45.22066399999994,23.45314399999998,3900
45.54466399999994,23.45314399999998,3703
45.54466399999994,24.101143999999977,3650
45.22066399999994,24.101143999999977,3874
44.89666399999994,24.101143999999977,3944
46.19266399999994,22.15714399999998,3830
46.516663999999935,22.15714399999998,3796
45.22066399999994,21.50914399999997,4070
45.54466399999994,21.50914399999997,3918
45.54466399999994,20.86114399999998,3942
46.516663999999935,27.989143999999985,4061
46.19266399999994,27.989143999999985,4046
45.54466399999994,25.397143999999983,3764
45.22066399999994,25.397143999999983,3774
45.22066399999994,26.04514399999998,3830
47.81266399999993,24.101143999999977,3826
47.48866399999993,26.04514399999998,3916
47.81266399999993,26.04514399999998,3938
46.19266399999994,23.45314399999998,3497
45.86866399999994,23.45314399999998,3546
44.24866399999995,26.04514399999998,3824
45.22066399999994,27.989143999999985,4036
45.86866399999994,24.74914399999998,3659
46.516663999999935,25.397143999999983,3851
46.84066399999993,25.397143999999983,3734
46.19266399999994,26.04514399999998,3822
45.86866399999994,26.04514399999998,3787
43.92466399999995,23.45314399999998,4258
44.89666399999994,25.397143999999983,3885
46.19266399999994,20.86114399999998,3819
47.81266399999993,25.397143999999983,3950
44.572663999999946,22.805143999999984,4263
44.572663999999946,22.15714399999998,4405
46.516663999999935,23.45314399999998,3636
45.86866399999994,25.397143999999983,3713
44.24866399999995,27.34114399999998,4651
45.22066399999994,24.74914399999998,3976
45.54466399999994,22.805143999999984,3666
45.22066399999994,28.63714399999997,4096
44.89666399999994,28.63714399999997,4035
47.81266399999993,23.45314399999998,3196
46.19266399999994,24.74914399999998,3745
46.19266399999994,25.397143999999983,3769
43.92466399999995,24.101143999999977,4221
43.92466399999995,24.74914399999998,4234
47.81266399999993,26.69314399999997,4165
47.48866399999993,24.101143999999977,3758
46.84066399999993,26.04514399999998,4566
46.19266399999994,22.805143999999984,3890
47.48866399999993,27.34114399999998,4118
46.19266399999994,20.213143999999986,65535
45.54466399999994,26.04514399999998,3922
44.24866399999995,26.69314399999997,3840
45.86866399999994,27.989143999999985,4094
47.81266399999993,5.957143999999991,65535
