51.56399999999999,-0.4100000000000028,65535
51.887999999999984,-0.4100000000000028,65535
50.91599999999999,-1.7060000000000022,65535
51.23999999999999,-1.0580000000000025,65535
51.56399999999999,-1.0580000000000025,65535
51.23999999999999,-1.7060000000000022,65535
51.56399999999999,0.2379999999999968,65535
47.16466399999993,9.845143999999989,1226
47.48866399999993,9.845143999999989,1206
48.136663999999925,14.381143999999988,1004
47.81266399999993,13.085143999999987,1072
47.16466399999993,11.141143999999988,1184
47.48866399999993,11.789143999999988,1157
48.136663999999925,16.325143999999987,925
47.48866399999993,12.437143999999988,1082
48.136663999999925,15.677143999999986,935
47.16466399999993,10.493143999999988,1231
47.16466399999993,9.197143999999987,1233
48.136663999999925,13.733143999999989,1027
48.136663999999925,15.029143999999986,1199
47.81266399999993,16.973143999999984,903
48.46066399999992,14.381143999999988,3784
47.48866399999993,13.085143999999987,1075
47.16466399999993,13.085143999999987,1090
47.48866399999993,14.381143999999988,1111
47.48866399999993,13.733143999999989,1191
47.48866399999993,15.029143999999986,1122
46.516663999999935,13.733143999999989,1195
46.84066399999993,13.733143999999989,1156
46.84066399999993,13.085143999999987,1100
48.78466399999992,14.381143999999988,65535
47.16466399999993,15.677143999999986,1069
46.516663999999935,14.381143999999988,1194
46.84066399999993,14.381143999999988,1161
47.16466399999993,14.381143999999988,2405
46.516663999999935,15.029143999999986,1237
47.81266399999993,16.325143999999987,918
47.16466399999993,15.029143999999986,1043
47.81266399999993,15.677143999999986,976
47.48866399999993,15.677143999999986,1010
46.516663999999935,13.085143999999987,2774
46.84066399999993,12.437143999999988,1139
48.136663999999925,11.789143999999988,1109
47.81266399999993,12.437143999999988,1089
46.84066399999993,15.677143999999986,1245
46.516663999999935,15.677143999999986,1300
46.84066399999993,16.325143999999987,1185
47.81266399999993,14.381143999999988,1045
48.78466399999992,16.973143999999984,917
48.136663999999925,16.973143999999984,892
48.46066399999992,13.733143999999989,1067
47.81266399999993,13.733143999999989,1034
50.08066399999991,8.54914399999999,1241
48.46066399999992,9.845143999999989,1189
51.05266399999991,7.25314399999999,1313
51.37666399999991,7.25314399999999,1322
51.37666399999991,6.60514399999999,1318
48.46066399999992,16.325143999999987,929
48.46066399999992,16.973143999999984,909
48.78466399999992,16.325143999999987,954
48.46066399999992,15.677143999999986,940
48.78466399999992,15.677143999999986,947
47.48866399999993,16.325143999999987,959
47.16466399999993,16.325143999999987,1134
46.19266399999994,14.381143999999988,1252
45.86866399999994,15.677143999999986,1348
43.60066399999995,16.325143999999987,2515
45.54466399999994,14.381143999999988,1366
45.54466399999994,13.733143999999989,1389
48.136663999999925,13.085143999999987,1068
48.46066399999992,11.141143999999988,1115
48.136663999999925,11.141143999999988,1111
48.46066399999992,7.90114399999999,1252
49.10866399999992,8.54914399999999,1215
48.78466399999992,2.0691439999999925,1376
49.10866399999992,7.25314399999999,1251
52.0246639999999,7.90114399999999,1335
47.16466399999993,11.789143999999988,1210
49.43266399999992,11.141143999999988,1203
53.64466399999989,9.845143999999989,1425
50.72866399999991,4.013143999999992,1369
51.05266399999991,11.141143999999988,1302
47.48866399999993,11.141143999999988,1148
46.84066399999993,11.789143999999988,3062
46.516663999999935,11.141143999999988,3031
45.54466399999994,11.141143999999988,2925
46.19266399999994,11.141143999999988,2997
45.86866399999994,11.141143999999988,2981
44.572663999999946,11.141143999999988,2772
43.92466399999995,12.437143999999988,65535
45.54466399999994,12.437143999999988,3012
45.54466399999994,11.789143999999988,2975
48.78466399999992,15.029143999999986,1692
47.81266399999993,15.029143999999986,1290
47.81266399999993,11.141143999999988,1128
50.40466399999991,18.917143999999983,1417
52.3486639999999,20.86114399999998,1630
54.616663999999886,18.269143999999983,1720
54.29266399999989,18.917143999999983,1715
49.10866399999992,14.381143999999988,65535
50.08066399999991,14.381143999999988,1194
48.78466399999992,13.733143999999989,1160
52.6726639999999,13.085143999999987,1370
52.3486639999999,13.085143999999987,1368
53.96866399999989,12.437143999999988,1524
54.29266399999989,12.437143999999988,1522
47.48866399999993,8.54914399999999,1232
47.81266399999993,17.621143999999987,847
47.48866399999993,18.917143999999983,790
47.48866399999993,20.86114399999998,1182
46.84066399999993,23.45314399999998,211
44.572663999999946,26.04514399999998,717
47.48866399999993,21.50914399999997,1139
47.81266399999993,21.50914399999997,1868
48.46066399999992,22.15714399999998,1057
47.48866399999993,16.973143999999984,65535
49.10866399999992,16.325143999999987,996
49.75666399999992,18.269143999999983,1180
46.19266399999994,13.085143999999987,2303
41.98066399999996,12.437143999999988,4005
43.60066399999995,10.493143999999988,4166
45.54466399999994,9.197143999999987,1328
47.81266399999993,22.805143999999984,801
49.75666399999992,22.805143999999984,1499
50.72866399999991,3.365143999999992,1382
51.05266399999991,4.013143999999992,1375
50.72866399999991,4.661143999999991,1367
51.05266399999991,4.661143999999991,1370
51.05266399999991,3.365143999999992,1387
51.05266399999991,2.717143999999992,1427
50.40466399999991,4.661143999999991,1383
50.72866399999991,2.717143999999992,1414
50.40466399999991,4.013143999999992,1388
51.05266399999991,5.309143999999991,1381
50.72866399999991,5.309143999999991,1348
51.37666399999991,3.365143999999992,1420
51.37666399999991,4.661143999999991,1374
50.72866399999991,5.957143999999991,1312
50.40466399999991,5.957143999999991,1323
50.40466399999991,3.365143999999992,1396
50.40466399999991,5.309143999999991,1360
50.08066399999991,5.309143999999991,1384
49.75666399999992,5.309143999999991,1359
49.75666399999992,5.957143999999991,1335
51.37666399999991,5.309143999999991,1436
51.700663999999904,4.661143999999991,1398
50.08066399999991,4.013143999999992,1401
50.08066399999991,5.957143999999991,1374
50.08066399999991,4.661143999999991,1427
49.43266399999992,5.309143999999991,1317
49.43266399999992,5.957143999999991,1300
52.0246639999999,4.661143999999991,2229
52.3486639999999,4.661143999999991,2264
50.72866399999991,15.029143999999986,1219
51.05266399999991,15.029143999999986,1234
51.05266399999991,13.733143999999989,1256
50.40466399999991,13.085143999999987,1367
49.10866399999992,7.90114399999999,1231
48.78466399999992,7.90114399999999,1235
50.40466399999991,7.90114399999999,1277
50.08066399999991,7.90114399999999,1252
49.75666399999992,7.90114399999999,1237
49.43266399999992,7.90114399999999,1228
49.75666399999992,8.54914399999999,1237
49.43266399999992,8.54914399999999,1219
49.43266399999992,9.197143999999987,1248
49.10866399999992,9.197143999999987,1210
47.48866399999993,7.90114399999999,1243
47.81266399999993,7.90114399999999,1242
48.136663999999925,7.90114399999999,1236
48.136663999999925,9.845143999999989,1210
47.81266399999993,9.197143999999987,1243
47.81266399999993,8.54914399999999,1242
47.81266399999993,9.845143999999989,1217
54.940663999999884,9.197143999999987,1499
54.616663999999886,9.197143999999987,1481
54.29266399999989,9.197143999999987,1470
53.96866399999989,9.197143999999987,1455
53.64466399999989,9.197143999999987,1436
54.616663999999886,9.845143999999989,1492
54.29266399999989,9.845143999999989,1472
53.96866399999989,9.845143999999989,1448
53.64466399999989,10.493143999999988,1432
53.96866399999989,10.493143999999988,1449
53.96866399999989,11.141143999999988,1455
54.29266399999989,10.493143999999988,1498
53.32066399999989,10.493143999999988,1433
54.940663999999884,11.141143999999988,1609
52.6726639999999,13.733143999999989,1372
52.3486639999999,13.733143999999989,1371
52.3486639999999,14.381143999999988,1360
52.0246639999999,14.381143999999988,1347
52.0246639999999,11.789143999999988,1323
52.3486639999999,11.789143999999988,1338
52.3486639999999,12.437143999999988,1358
52.0246639999999,15.029143999999986,1363
51.700663999999904,14.381143999999988,1298
52.0246639999999,13.733143999999989,1345
51.700663999999904,13.733143999999989,1327
52.6726639999999,12.437143999999988,1388
53.32066399999989,11.789143999999988,1498
53.96866399999989,11.789143999999988,1518
53.64466399999989,11.789143999999988,1492
53.64466399999989,11.141143999999988,1487
53.32066399999989,11.141143999999988,1515
52.996663999999896,11.789143999999988,1420
52.996663999999896,12.437143999999988,1404
52.996663999999896,13.733143999999989,1380
53.64466399999989,13.733143999999989,1456
53.96866399999989,13.733143999999989,1490
54.29266399999989,13.085143999999987,1533
53.96866399999989,13.085143999999987,1499
53.32066399999989,13.733143999999989,1428
52.0246639999999,13.085143999999987,1339
51.700663999999904,13.085143999999987,1306
52.996663999999896,14.381143999999988,1463
52.0246639999999,12.437143999999988,1314
51.700663999999904,12.437143999999988,1311
51.37666399999991,11.789143999999988,1321
51.37666399999991,12.437143999999988,1317
52.6726639999999,11.789143999999988,1370
53.64466399999989,13.085143999999987,1483
53.32066399999989,13.085143999999987,1425
52.996663999999896,13.085143999999987,1398
53.64466399999989,12.437143999999988,1468
51.37666399999991,13.733143999999989,1278
53.32066399999989,12.437143999999988,1435
52.6726639999999,14.381143999999988,1393
51.37666399999991,13.085143999999987,1295
53.32066399999989,14.381143999999988,1469
52.3486639999999,15.029143999999986,1367
52.0246639999999,15.677143999999986,1374
51.700663999999904,15.029143999999986,1288
51.05266399999991,16.325143999999987,1326
51.05266399999991,16.973143999999984,1339
51.700663999999904,15.677143999999986,1360
51.37666399999991,15.677143999999986,1290
51.37666399999991,16.325143999999987,1318
50.72866399999991,13.085143999999987,1318
50.72866399999991,12.437143999999988,1321
51.05266399999991,13.085143999999987,1306
51.05266399999991,14.381143999999988,1243
50.40466399999991,12.437143999999988,1309
50.40466399999991,11.789143999999988,1292
50.08066399999991,12.437143999999988,1276
50.72866399999991,11.789143999999988,1311
51.05266399999991,12.437143999999988,1322
50.72866399999991,14.381143999999988,1274
51.37666399999991,14.381143999999988,1258
50.72866399999991,13.733143999999989,1295
50.40466399999991,14.381143999999988,1199
51.37666399999991,15.029143999999986,1254
55.26466399999988,9.197143999999987,1788
55.58866399999988,8.54914399999999,1822
55.91266399999988,8.54914399999999,2239
56.23666399999988,9.197143999999987,2247
56.23666399999988,10.493143999999988,2200
56.23666399999988,9.845143999999989,2187
55.91266399999988,9.845143999999989,2125
56.56066399999988,9.197143999999987,2257
56.56066399999988,8.54914399999999,2300
51.05266399999991,6.60514399999999,1317
51.700663999999904,7.90114399999999,1328
50.72866399999991,6.60514399999999,1304
51.700663999999904,7.25314399999999,1325
50.72866399999991,7.25314399999999,1289
52.0246639999999,7.25314399999999,1351
52.3486639999999,7.90114399999999,1347
51.05266399999991,5.957143999999991,1316
50.40466399999991,7.25314399999999,1287
51.700663999999904,6.60514399999999,1327
51.700663999999904,5.957143999999991,1328
52.3486639999999,9.197143999999987,1389
51.700663999999904,8.54914399999999,1351
52.0246639999999,8.54914399999999,1366
52.3486639999999,8.54914399999999,1366
51.37666399999991,7.90114399999999,1333
52.3486639999999,7.25314399999999,1366
51.37666399999991,5.957143999999991,1361
50.72866399999991,7.90114399999999,1284
51.37666399999991,9.197143999999987,1323
51.700663999999904,9.197143999999987,1365
50.40466399999991,6.60514399999999,1366
51.05266399999991,7.90114399999999,1331
51.37666399999991,8.54914399999999,1357
52.0246639999999,5.957143999999991,1371
52.3486639999999,6.60514399999999,1376
51.05266399999991,8.54914399999999,1304
52.0246639999999,9.197143999999987,1384
52.6726639999999,9.197143999999987,1410
52.0246639999999,9.845143999999989,1417
51.700663999999904,9.845143999999989,1390
51.37666399999991,9.845143999999989,1373
50.72866399999991,8.54914399999999,1274
51.05266399999991,9.845143999999989,1371
50.72866399999991,9.845143999999989,1335
50.40466399999991,9.845143999999989,1317
51.05266399999991,9.197143999999987,1313
50.40466399999991,9.197143999999987,1258
50.08066399999991,9.197143999999987,1248
51.05266399999991,10.493143999999988,1336
50.40466399999991,8.54914399999999,1258
50.72866399999991,9.197143999999987,1279
49.75666399999992,9.197143999999987,1254
52.996663999999896,9.197143999999987,1401
52.3486639999999,9.845143999999989,1397
52.996663999999896,8.54914399999999,1397
52.996663999999896,7.90114399999999,1409
53.32066399999989,7.90114399999999,1423
53.32066399999989,7.25314399999999,1453
53.64466399999989,7.25314399999999,1498
52.996663999999896,10.493143999999988,1410
52.6726639999999,10.493143999999988,1416
52.6726639999999,9.845143999999989,1402
53.32066399999989,9.845143999999989,1419
53.32066399999989,9.197143999999987,1415
53.64466399999989,8.54914399999999,1453
53.32066399999989,8.54914399999999,1417
52.6726639999999,8.54914399999999,1383
52.0246639999999,10.493143999999988,1412
52.0246639999999,11.141143999999988,1368
51.700663999999904,11.141143999999988,1360
52.6726639999999,7.25314399999999,1794
52.996663999999896,7.25314399999999,1822
52.6726639999999,7.90114399999999,1387
53.64466399999989,7.90114399999999,1451
52.996663999999896,11.141143999999988,1382
52.6726639999999,11.141143999999988,1377
52.3486639999999,10.493143999999988,1388
52.996663999999896,9.845143999999989,1416
51.700663999999904,10.493143999999988,1377
51.37666399999991,10.493143999999988,1374
51.700663999999904,11.789143999999988,1334
52.3486639999999,11.141143999999988,1378
51.37666399999991,11.141143999999988,1359
51.05266399999991,11.789143999999988,1314
49.10866399999992,11.141143999999988,1160
48.78466399999992,11.141143999999988,1130
48.46066399999992,11.789143999999988,1112
49.43266399999992,11.789143999999988,1197
50.08066399999991,11.789143999999988,1242
49.75666399999992,12.437143999999988,1249
49.10866399999992,11.789143999999988,1186
48.78466399999992,12.437143999999988,1148
48.46066399999992,12.437143999999988,1124
49.10866399999992,12.437143999999988,1177
48.78466399999992,13.085143999999987,1113
48.136663999999925,12.437143999999988,1089
47.81266399999993,11.789143999999988,1100
48.136663999999925,10.493143999999988,1143
47.81266399999993,10.493143999999988,1159
48.78466399999992,10.493143999999988,1166
47.48866399999993,10.493143999999988,1167
48.46066399999992,10.493143999999988,1177
49.43266399999992,13.085143999999987,1298
48.46066399999992,13.085143999999987,1089
49.43266399999992,10.493143999999988,1199
49.75666399999992,9.845143999999989,1251
49.75666399999992,10.493143999999988,1242
50.40466399999991,11.141143999999988,1257
50.08066399999991,11.141143999999988,1245
50.72866399999991,11.141143999999988,1293
49.75666399999992,11.141143999999988,1213
48.78466399999992,11.789143999999988,1214
50.40466399999991,10.493143999999988,1303
50.08066399999991,9.845143999999989,1279
50.08066399999991,10.493143999999988,1252
49.43266399999992,12.437143999999988,1214
49.75666399999992,11.789143999999988,1215
49.10866399999992,13.085143999999987,1233
50.72866399999991,10.493143999999988,1351
49.10866399999992,10.493143999999988,1178
48.78466399999992,9.845143999999989,1192
48.46066399999992,8.54914399999999,1214
48.46066399999992,9.197143999999987,1210
48.78466399999992,9.197143999999987,1205
48.78466399999992,8.54914399999999,1220
50.08066399999991,7.25314399999999,1313
49.75666399999992,6.60514399999999,1293
49.43266399999992,6.60514399999999,1254
49.10866399999992,6.60514399999999,1272
49.43266399999992,7.25314399999999,1248
49.75666399999992,7.25314399999999,1253
49.10866399999992,5.957143999999991,1287
48.78466399999992,7.25314399999999,1272
50.08066399999991,6.60514399999999,1326
47.48866399999993,9.197143999999987,1221
48.136663999999925,8.54914399999999,1226
48.136663999999925,9.197143999999987,1245
47.81266399999993,7.25314399999999,1262
49.43266399999992,9.845143999999989,1250
49.10866399999992,9.845143999999989,1220
53.64466399999989,14.381143999999988,1463
50.08066399999991,13.085143999999987,1258
49.75666399999992,13.085143999999987,1295
45.86866399999994,9.197143999999987,1325
46.19266399999994,9.197143999999987,1309
46.516663999999935,8.54914399999999,1310
46.516663999999935,9.197143999999987,1337
46.19266399999994,8.54914399999999,1301
47.16466399999993,8.54914399999999,1237
45.86866399999994,4.661143999999991,1402
46.84066399999993,9.845143999999989,1242
45.22066399999994,5.957143999999991,1403
45.22066399999994,5.309143999999991,1423
45.86866399999994,5.957143999999991,1333
45.54466399999994,5.957143999999991,1391
44.89666399999994,4.661143999999991,1470
44.89666399999994,5.309143999999991,1469
44.572663999999946,4.661143999999991,1496
44.24866399999995,4.661143999999991,1509
43.92466399999995,4.661143999999991,1510
46.19266399999994,7.25314399999999,1292
48.78466399999992,5.957143999999991,1315
48.136663999999925,6.60514399999999,1331
48.46066399999992,6.60514399999999,1295
48.78466399999992,6.60514399999999,1312
47.16466399999993,7.90114399999999,1252
48.136663999999925,7.25314399999999,1288
48.46066399999992,7.25314399999999,1267
46.516663999999935,6.60514399999999,1307
46.84066399999993,6.60514399999999,1273
46.84066399999993,7.25314399999999,1265
46.516663999999935,5.957143999999991,1312
46.19266399999994,5.957143999999991,1320
46.84066399999993,8.54914399999999,1252
46.84066399999993,7.90114399999999,1261
45.86866399999994,5.309143999999991,1377
46.19266399999994,6.60514399999999,1309
45.86866399999994,6.60514399999999,1303
47.48866399999993,6.60514399999999,1314
47.48866399999993,7.25314399999999,1259
47.16466399999993,7.25314399999999,1254
49.10866399999992,4.013143999999992,1347
49.75666399999992,4.661143999999991,1393
49.43266399999992,4.661143999999991,1373
49.10866399999992,5.309143999999991,1315
46.19266399999994,4.661143999999991,1429
46.84066399999993,9.197143999999987,1250
46.19266399999994,5.309143999999991,1398
46.516663999999935,5.309143999999991,1420
45.54466399999994,6.60514399999999,1448
45.54466399999994,5.309143999999991,1413
43.60066399999995,4.013143999999992,1541
43.60066399999995,3.365143999999992,1590
42.62866399999996,2.717143999999992,1662
43.276663999999954,2.717143999999992,1619
45.54466399999994,4.661143999999991,1406
45.22066399999994,4.661143999999991,1433
47.16466399999993,5.309143999999991,1396
47.16466399999993,5.957143999999991,1327
46.19266399999994,7.90114399999999,1288
49.75666399999992,2.717143999999992,1450
49.10866399999992,2.717143999999992,1441
48.78466399999992,2.717143999999992,1378
45.86866399999994,3.365143999999992,1542
46.84066399999993,3.365143999999992,1552
46.516663999999935,3.365143999999992,1534
46.19266399999994,3.365143999999992,1512
47.16466399999993,6.60514399999999,1268
49.10866399999992,3.365143999999992,1428
45.54466399999994,4.013143999999992,1452
46.516663999999935,7.25314399999999,1288
47.16466399999993,4.661143999999991,1442
46.84066399999993,4.661143999999991,1464
46.516663999999935,4.661143999999991,1460
46.84066399999993,5.957143999999991,1399
47.81266399999993,3.365143999999992,1463
47.48866399999993,4.013143999999992,1450
48.136663999999925,4.013143999999992,1486
47.81266399999993,4.013143999999992,1461
47.48866399999993,4.661143999999991,1442
47.16466399999993,3.365143999999992,1577
46.84066399999993,4.013143999999992,1520
48.46066399999992,5.957143999999991,1415
46.19266399999994,2.717143999999992,1556
47.16466399999993,2.0691439999999925,1502
46.516663999999935,2.717143999999992,1609
46.84066399999993,2.717143999999992,1606
46.84066399999993,2.0691439999999925,1568
47.16466399999993,2.717143999999992,1523
44.572663999999946,5.309143999999991,1509
44.572663999999946,5.957143999999991,1544
44.89666399999994,6.60514399999999,1523
44.572663999999946,6.60514399999999,1546
43.60066399999995,5.309143999999991,1541
43.92466399999995,7.25314399999999,1565
43.60066399999995,6.60514399999999,1577
43.276663999999954,6.60514399999999,1602
43.276663999999954,5.957143999999991,1601
45.86866399999994,8.54914399999999,1329
45.54466399999994,8.54914399999999,1332
48.136663999999925,3.365143999999992,1444
48.46066399999992,3.365143999999992,1489
48.46066399999992,2.717143999999992,1503
47.48866399999993,5.309143999999991,1477
46.516663999999935,9.845143999999989,1278
46.84066399999993,10.493143999999988,1273
47.81266399999993,5.309143999999991,1411
45.22066399999994,6.60514399999999,1489
46.19266399999994,4.013143999999992,1473
45.86866399999994,4.013143999999992,1499
45.22066399999994,4.013143999999992,1462
44.89666399999994,4.013143999999992,1520
46.84066399999993,5.309143999999991,1524
48.136663999999925,-1.8188560000000056,1513
48.136663999999925,0.1251439999999934,1464
48.136663999999925,-0.5228560000000062,1493
47.48866399999993,-0.5228560000000062,1533
47.16466399999993,-1.8188560000000056,1580
47.48866399999993,0.7731439999999932,1517
47.16466399999993,0.1251439999999934,1571
45.86866399999994,7.25314399999999,1309
48.136663999999925,5.309143999999991,1446
49.10866399999992,4.661143999999991,1375
48.46066399999992,4.013143999999992,1520
48.136663999999925,4.661143999999991,1540
47.81266399999993,6.60514399999999,1354
47.48866399999993,5.957143999999991,1371
48.136663999999925,5.957143999999991,2846
45.86866399999994,7.90114399999999,1307
46.516663999999935,7.90114399999999,1277
49.43266399999992,3.365143999999992,1467
49.43266399999992,4.013143999999992,1360
48.136663999999925,2.717143999999992,1628
47.81266399999993,2.717143999999992,1630
47.48866399999993,2.717143999999992,1614
50.40466399999991,2.717143999999992,1450
48.46066399999992,-4.410856000000004,1660
48.46066399999992,-3.7628560000000046,1615
48.46066399999992,-3.114856000000005,1600
48.46066399999992,-2.4668560000000053,1572
47.48866399999993,1.4211439999999929,1518
47.16466399999993,1.4211439999999929,1578
46.516663999999935,4.013143999999992,1525
43.60066399999995,4.661143999999991,1542
44.89666399999994,2.717143999999992,1617
45.22066399999994,2.717143999999992,1588
45.54466399999994,3.365143999999992,1528
45.22066399999994,3.365143999999992,1475
47.48866399999993,3.365143999999992,1688
46.19266399999994,9.845143999999989,1354
47.81266399999993,2.0691439999999925,1464
47.48866399999993,2.0691439999999925,1477
45.86866399999994,2.717143999999992,1547
44.89666399999994,5.957143999999991,1470
45.22066399999994,1.4211439999999929,1661
44.89666399999994,1.4211439999999929,1683
44.89666399999994,2.0691439999999925,1826
43.276663999999954,2.0691439999999925,1658
43.60066399999995,1.4211439999999929,1643
48.78466399999992,4.661143999999991,1422
48.78466399999992,5.309143999999991,1392
46.19266399999994,2.0691439999999925,1622
45.86866399999994,1.4211439999999929,1659
46.19266399999994,1.4211439999999929,1639
44.572663999999946,4.013143999999992,1656
44.89666399999994,3.365143999999992,1596
43.92466399999995,4.013143999999992,1588
44.24866399999995,4.013143999999992,1610
44.89666399999994,-0.5228560000000062,1514
45.54466399999994,0.1251439999999934,1566
46.516663999999935,0.1251439999999934,1525
44.572663999999946,2.0691439999999925,1716
49.75666399999992,4.013143999999992,1476
43.92466399999995,3.365143999999992,1641
43.92466399999995,2.717143999999992,1672
44.24866399999995,3.365143999999992,1696
44.572663999999946,3.365143999999992,1739
49.10866399999992,0.1251439999999934,1519
49.43266399999992,0.7731439999999932,1526
49.43266399999992,-1.8188560000000056,1556
49.10866399999992,-1.170856000000006,1531
49.10866399999992,-0.5228560000000062,1498
49.10866399999992,0.7731439999999932,1541
49.10866399999992,1.4211439999999929,1490
47.81266399999993,-1.8188560000000056,1570
47.81266399999993,-2.4668560000000053,1528
47.81266399999993,-3.114856000000005,1542
48.136663999999925,-3.7628560000000046,1597
44.572663999999946,9.197143999999987,1432
44.89666399999994,8.54914399999999,1377
45.22066399999994,9.197143999999987,1339
45.54466399999994,10.493143999999988,1387
44.572663999999946,10.493143999999988,2758
44.89666399999994,10.493143999999988,1415
44.89666399999994,9.845143999999989,1525
48.46066399999992,5.309143999999991,1488
50.91599999999999,-1.0580000000000025,65535
51.23999999999999,-0.4100000000000028,65535
50.91599999999999,-0.4100000000000028,65535
51.23999999999999,-2.354000000000002,65535
51.56399999999999,-2.354000000000002,65535
51.56399999999999,-3.0020000000000016,65535
50.91599999999999,-2.354000000000002,65535
53.50799999999997,-3.0020000000000016,65535
53.183999999999976,-2.354000000000002,65535
53.183999999999976,-3.0020000000000016,65535
52.85999999999998,-2.354000000000002,65535
52.21199999999998,-1.0580000000000025,65535
51.887999999999984,-1.0580000000000025,65535
52.53599999999998,-1.0580000000000025,65535
52.53599999999998,-1.7060000000000022,65535
52.85999999999998,-1.7060000000000022,65535
53.50799999999997,-2.354000000000002,65535
52.85999999999998,-1.0580000000000025,65535
52.53599999999998,1.5339999999999965,65535
52.53599999999998,0.8859999999999966,65535
52.53599999999998,0.2379999999999968,65535
52.53599999999998,-0.4100000000000028,65535
53.50799999999997,-1.7060000000000022,65535
53.183999999999976,-1.7060000000000022,65535
53.183999999999976,-1.0580000000000025,65535
52.85999999999998,-0.4100000000000028,65535
51.887999999999984,-2.354000000000002,65535
52.21199999999998,-2.354000000000002,65535
55.77599999999996,-2.354000000000002,65535
53.83199999999997,-1.0580000000000025,65535
53.83199999999997,-1.7060000000000022,65535
55.127999999999965,-1.7060000000000022,65535
54.80399999999997,-1.7060000000000022,65535
54.47999999999997,-1.7060000000000022,65535
54.15599999999997,-1.0580000000000025,65535
52.21199999999998,-1.7060000000000022,65535
53.50799999999997,-1.0580000000000025,65535
55.77599999999996,-3.0020000000000016,65535
55.45199999999996,-1.7060000000000022,65535
57.07199999999995,-2.354000000000002,65535
56.74799999999996,-3.0020000000000016,65535
56.42399999999996,-3.0020000000000016,65535
56.09999999999996,-3.650000000000001,65535
50.91599999999999,-3.0020000000000016,65535
50.91599999999999,-3.650000000000001,65535
50.59199999999999,-3.650000000000001,65535
50.59199999999999,-4.298000000000001,65535
51.23999999999999,-3.0020000000000016,65535
50.268,-4.946000000000001,65535
55.77599999999996,-3.650000000000001,65535
55.77599999999996,-4.298000000000001,65535
52.21199999999998,-0.4100000000000028,65535
52.53599999999998,-2.354000000000002,65535
51.56399999999999,-1.7060000000000022,65535
51.56399999999999,-3.650000000000001,65535
51.887999999999984,-4.298000000000001,65535
51.56399999999999,-4.298000000000001,65535
51.887999999999984,-1.7060000000000022,65535
52.21199999999998,-3.0020000000000016,65535
51.23999999999999,0.2379999999999968,65535
50.91599999999999,0.2379999999999968,65535
52.21199999999998,0.2379999999999968,65535
53.83199999999997,-3.0020000000000016,65535
54.15599999999997,-3.0020000000000016,65535
54.47999999999997,-3.0020000000000016,65535
55.127999999999965,-3.650000000000001,65535
54.80399999999997,-3.0020000000000016,65535
53.83199999999997,-2.354000000000002,65535
54.15599999999997,-0.4100000000000028,65535
54.47999999999997,-1.0580000000000025,65535
53.83199999999997,-0.4100000000000028,65535
53.183999999999976,-3.650000000000001,65535
53.183999999999976,-4.298000000000001,65535
52.85999999999998,-3.0020000000000016,65535
52.53599999999998,-3.0020000000000016,65535
51.887999999999984,-3.0020000000000016,65535
51.23999999999999,0.8859999999999966,65535
51.887999999999984,0.2379999999999968,65535
52.21199999999998,0.8859999999999966,65535
51.887999999999984,-4.946000000000001,65535
52.53599999999998,-3.650000000000001,65535
52.21199999999998,-4.298000000000001,65535
53.183999999999976,-0.4100000000000028,65535
51.23999999999999,-3.650000000000001,65535
51.887999999999984,-3.650000000000001,65535
52.21199999999998,-3.650000000000001,65535
51.56399999999999,0.8859999999999966,65535
51.887999999999984,0.8859999999999966,65535
52.85999999999998,0.8859999999999966,65535
53.50799999999997,-0.4100000000000028,65535
56.09999999999996,-4.298000000000001,65535
56.74799999999996,-4.946000000000001,65535
56.74799999999996,-4.298000000000001,65535
56.42399999999996,-4.946000000000001,65535
56.42399999999996,-4.298000000000001,65535
56.09999999999996,-4.946000000000001,65535
57.39599999999995,-4.298000000000001,65535
57.39599999999995,-3.0020000000000016,65535
57.39599999999995,-3.650000000000001,65535
56.42399999999996,-3.650000000000001,65535
57.07199999999995,-3.650000000000001,65535
57.07199999999995,-4.298000000000001,65535
56.74799999999996,-3.650000000000001,65535
59.15266399999986,27.34114399999998,65535
59.47666399999986,26.69314399999997,65535
59.47666399999986,26.04514399999998,65535
59.15266399999986,26.04514399999998,65535
59.15266399999986,24.74914399999998,65535
59.15266399999986,25.397143999999983,65535
59.47666399999986,25.397143999999983,65535
58.50466399999986,26.69314399999997,65535
58.82866399999986,26.69314399999997,65535
57.85666399999987,26.04514399999998,65535
58.180663999999865,26.04514399999998,65535
58.180663999999865,26.69314399999997,65535
58.82866399999986,26.04514399999998,65535
58.50466399999986,25.397143999999983,65535
58.82866399999986,25.397143999999983,65535
58.82866399999986,24.74914399999998,65535
58.180663999999865,27.34114399999998,65535
57.85666399999987,27.34114399999998,65535
63.68866399999983,27.34114399999998,65535
60.124663999999854,24.74914399999998,65535
60.44866399999985,24.74914399999998,65535
60.44866399999985,25.397143999999983,65535
60.77266399999985,25.397143999999983,65535
61.09666399999985,26.04514399999998,65535
60.77266399999985,26.04514399999998,65535
60.77266399999985,26.69314399999997,65535
61.09666399999985,25.397143999999983,65535
61.09666399999985,26.69314399999997,65535
61.420663999999846,26.69314399999997,65535
61.74466399999984,27.34114399999998,65535
62.06866399999984,27.34114399999998,65535
62.39266399999984,27.34114399999998,65535
62.71666399999984,27.34114399999998,65535
64.01266399999983,27.34114399999998,65535
63.36466399999984,27.34114399999998,65535
63.04066399999984,27.34114399999998,65535
63.04066399999984,27.989143999999985,65535
64.33666399999983,27.989143999999985,65535
64.33666399999983,27.34114399999998,65535
64.66066399999983,27.34114399999998,65535
64.66066399999983,26.69314399999997,4756
64.98466399999982,25.397143999999983,4519
64.66066399999983,26.04514399999998,4736
64.98466399999982,26.04514399999998,4720
66.28066399999982,25.397143999999983,65535
65.95666399999982,24.74914399999998,4432
65.63266399999982,24.74914399999998,4436
65.63266399999982,25.397143999999983,4478
65.30866399999982,25.397143999999983,4499
66.60466399999981,25.397143999999983,65535
64.01266399999983,24.74914399999998,4656
64.01266399999983,24.101143999999977,4691
64.01266399999983,23.45314399999998,4715
63.68866399999983,23.45314399999998,4727
63.68866399999983,22.805143999999984,4752
63.68866399999983,26.04514399999998,65535
63.68866399999983,25.397143999999983,65535
63.68866399999983,26.69314399999997,65535
60.44866399999985,26.69314399999997,65535
64.01266399999983,27.989143999999985,65535
62.71666399999984,22.805143999999984,65535
62.39266399999984,22.805143999999984,65535
62.06866399999984,22.805143999999984,65535
62.06866399999984,23.45314399999998,65535
61.74466399999984,23.45314399999998,65535
61.420663999999846,23.45314399999998,65535
61.09666399999985,23.45314399999998,65535
61.09666399999985,24.101143999999977,65535
61.09666399999985,24.74914399999998,65535
60.77266399999985,24.74914399999998,65535
63.04066399999984,21.50914399999997,65535
63.04066399999984,22.15714399999998,65535
63.04066399999984,22.805143999999984,65535
62.39266399999984,26.04514399999998,65535
62.06866399999984,25.397143999999983,65535
61.74466399999984,25.397143999999983,65535
61.74466399999984,24.74914399999998,65535
61.74466399999984,24.101143999999977,65535
61.420663999999846,24.101143999999977,65535
62.39266399999984,26.69314399999997,65535
64.66066399999983,25.397143999999983,4588
64.66066399999983,24.74914399999998,4606
64.33666399999983,24.74914399999998,4617
63.36466399999984,22.805143999999984,4777
67.25266399999981,24.101143999999977,65535
66.92866399999981,24.101143999999977,65535
66.60466399999981,23.45314399999998,65535
66.28066399999982,23.45314399999998,65535
66.28066399999982,24.101143999999977,65535
65.95666399999982,24.101143999999977,3804
60.124663999999854,24.101143999999977,65535
60.124663999999854,23.45314399999998,65535
60.44866399999985,22.805143999999984,65535
60.77266399999985,27.34114399999998,65535
61.09666399999985,27.989143999999985,65535
61.09666399999985,28.63714399999997,65535
61.420663999999846,29.28514399999997,65535
61.74466399999984,29.933143999999977,65535
62.06866399999984,29.933143999999977,65535
62.39266399999984,29.933143999999977,65535
62.71666399999984,29.933143999999977,65535
61.420663999999846,22.805143999999984,65535
61.420663999999846,22.15714399999998,65535
61.09666399999985,22.15714399999998,65535
61.420663999999846,21.50914399999997,65535
62.39266399999984,27.989143999999985,65535
62.06866399999984,27.989143999999985,65535
61.420663999999846,27.34114399999998,65535
63.04066399999984,29.933143999999977,65535
63.68866399999983,29.28514399999997,65535
63.36466399999984,29.28514399999997,65535
63.36466399999984,29.933143999999977,65535
60.44866399999985,27.34114399999998,65535
61.74466399999984,29.28514399999997,65535
62.39266399999984,30.58114399999998,65535
62.71666399999984,31.229143999999977,65535
62.71666399999984,29.28514399999997,65535
63.04066399999984,28.63714399999997,65535
66.60466399999981,26.04514399999998,65535
66.60466399999981,26.69314399999997,65535
66.60466399999981,27.34114399999998,65535
62.71666399999984,26.04514399999998,65535
62.71666399999984,25.397143999999983,65535
63.04066399999984,25.397143999999983,65535
63.36466399999984,25.397143999999983,65535
62.71666399999984,23.45314399999998,65535
62.39266399999984,24.101143999999977,65535
62.71666399999984,22.15714399999998,65535
62.39266399999984,22.15714399999998,65535
62.39266399999984,21.50914399999997,65535
61.09666399999985,21.50914399999997,65535
60.77266399999985,22.805143999999984,65535
60.44866399999985,22.15714399999998,65535
60.77266399999985,23.45314399999998,65535
60.77266399999985,21.50914399999997,65535
60.77266399999985,22.15714399999998,65535
60.124663999999854,22.805143999999984,65535
60.44866399999985,24.101143999999977,65535
62.06866399999984,24.74914399999998,65535
50.72866399999991,16.325143999999987,1329
50.40466399999991,16.973143999999984,1219
50.72866399999991,16.973143999999984,1300
50.40466399999991,16.325143999999987,1212
50.08066399999991,16.973143999999984,1223
50.08066399999991,16.325143999999987,1164
51.700663999999904,16.973143999999984,1371
51.37666399999991,16.973143999999984,1374
51.05266399999991,15.677143999999986,1342
50.72866399999991,15.677143999999986,1370
51.05266399999991,17.621143999999987,1365
51.37666399999991,17.621143999999987,1381
51.700663999999904,17.621143999999987,1409
51.700663999999904,16.325143999999987,1336
52.0246639999999,22.15714399999998,1695
52.0246639999999,21.50914399999997,1647
52.3486639999999,21.50914399999997,1644
52.0246639999999,20.86114399999998,1632
51.700663999999904,20.86114399999998,1601
51.37666399999991,21.50914399999997,1584
51.37666399999991,20.86114399999998,1567
51.05266399999991,20.86114399999998,1464
52.6726639999999,23.45314399999998,1762
52.3486639999999,22.805143999999984,1701
52.3486639999999,20.213143999999986,1691
52.0246639999999,20.213143999999986,1640
52.3486639999999,19.565143999999982,1612
52.6726639999999,19.565143999999982,1711
51.700663999999904,21.50914399999997,1648
51.700663999999904,22.15714399999998,1654
52.6726639999999,21.50914399999997,1653
52.996663999999896,21.50914399999997,1669
52.6726639999999,20.86114399999998,1648
52.6726639999999,22.15714399999998,1669
52.6726639999999,20.213143999999986,1777
52.996663999999896,19.565143999999982,1757
52.996663999999896,20.86114399999998,1673
52.996663999999896,20.213143999999986,1680
53.32066399999989,20.213143999999986,1723
51.37666399999991,20.213143999999986,1574
52.3486639999999,16.973143999999984,1387
52.0246639999999,16.973143999999984,1373
52.0246639999999,16.325143999999987,1351
52.0246639999999,17.621143999999987,1411
52.6726639999999,16.973143999999984,1414
52.996663999999896,16.973143999999984,1472
52.3486639999999,16.325143999999987,1400
52.3486639999999,15.677143999999986,1399
51.700663999999904,18.269143999999983,1494
52.6726639999999,17.621143999999987,1410
52.3486639999999,17.621143999999987,1394
52.6726639999999,18.269143999999983,1441
52.3486639999999,18.269143999999983,1438
52.3486639999999,18.917143999999983,1482
52.996663999999896,17.621143999999987,1507
51.700663999999904,19.565143999999982,1571
51.700663999999904,18.917143999999983,1542
51.37666399999991,18.269143999999983,1457
58.82866399999986,9.197143999999987,2768
58.180663999999865,7.90114399999999,2861
58.50466399999986,8.54914399999999,2812
63.36466399999984,10.493143999999988,2983
63.36466399999984,11.141143999999988,2990
63.36466399999984,11.789143999999988,3025
63.68866399999983,11.789143999999988,3053
64.33666399999983,12.437143999999988,3454
64.66066399999983,12.437143999999988,3949
65.63266399999982,13.085143999999987,3606
65.95666399999982,13.085143999999987,3641
66.28066399999982,14.381143999999988,3711
65.95666399999982,13.733143999999989,3780
66.28066399999982,13.733143999999989,3689
65.30866399999982,13.085143999999987,3907
64.98466399999982,13.085143999999987,3541
64.01266399999983,11.789143999999988,3084
63.68866399999983,11.141143999999988,3021
59.800663999999855,10.493143999999988,2564
59.800663999999855,11.141143999999988,2547
60.124663999999854,11.141143999999988,2562
60.44866399999985,11.141143999999988,2575
60.124663999999854,11.789143999999988,2588
60.77266399999985,7.25314399999999,2824
60.77266399999985,6.60514399999999,2870
59.15266399999986,9.197143999999987,2650
59.47666399999986,9.197143999999987,2671
59.800663999999855,9.845143999999989,2566
59.47666399999986,11.141143999999988,2511
61.09666399999985,10.493143999999988,2685
60.77266399999985,10.493143999999988,2655
60.77266399999985,11.141143999999988,2610
62.06866399999984,9.197143999999987,3010
61.74466399999984,9.845143999999989,2956
61.420663999999846,9.845143999999989,2933
59.15266399999986,9.845143999999989,2630
59.47666399999986,9.845143999999989,2606
58.82866399999986,5.957143999999991,3045
58.180663999999865,7.25314399999999,2917
58.50466399999986,7.25314399999999,2950
58.50466399999986,6.60514399999999,2955
58.50466399999986,5.957143999999991,3013
58.82866399999986,8.54914399999999,2798
60.44866399999985,7.25314399999999,2798
60.44866399999985,7.90114399999999,2759
60.124663999999854,10.493143999999988,2596
60.44866399999985,9.197143999999987,2708
60.77266399999985,9.197143999999987,2720
60.77266399999985,8.54914399999999,2739
60.124663999999854,9.845143999999989,2975
60.44866399999985,10.493143999999988,2641
63.04066399999984,10.493143999999988,2934
62.06866399999984,9.845143999999989,3035
62.39266399999984,9.845143999999989,3043
62.71666399999984,9.845143999999989,3067
59.47666399999986,14.381143999999988,2560
59.47666399999986,13.733143999999989,2501
59.47666399999986,13.085143999999987,2477
59.800663999999855,12.437143999999988,2546
59.15266399999986,11.141143999999988,2475
59.15266399999986,14.381143999999988,2574
58.82866399999986,11.789143999999988,2455
58.50466399999986,12.437143999999988,2385
58.180663999999865,12.437143999999988,2378
57.85666399999987,11.789143999999988,2329
62.71666399999984,7.90114399999999,3096
62.39266399999984,7.90114399999999,3053
62.06866399999984,8.54914399999999,3028
60.44866399999985,5.309143999999991,2944
60.44866399999985,5.957143999999991,2911
60.77266399999985,5.957143999999991,2900
62.39266399999984,11.141143999999988,2831
62.06866399999984,10.493143999999988,2786
61.74466399999984,11.141143999999988,2759
61.420663999999846,11.141143999999988,2713
61.09666399999985,11.141143999999988,2696
60.77266399999985,11.789143999999988,2673
63.04066399999984,11.141143999999988,2912
62.71666399999984,11.141143999999988,2855
62.39266399999984,10.493143999999988,2813
67.25266399999981,15.677143999999986,3830
67.25266399999981,15.029143999999986,3868
67.25266399999981,14.381143999999988,3896
66.92866399999981,15.029143999999986,3819
66.60466399999981,15.677143999999986,3797
64.01266399999983,11.141143999999988,3068
66.60466399999981,15.029143999999986,3860
54.29266399999989,18.269143999999983,1722
54.616663999999886,17.621143999999987,1680
53.96866399999989,18.269143999999983,1685
43.92466399999995,1.4211439999999929,1621
44.24866399999995,0.7731439999999932,1615
44.572663999999946,0.1251439999999934,1568
46.84066399999993,1.4211439999999929,1585
44.572663999999946,1.4211439999999929,1704
44.24866399999995,1.4211439999999929,1670
45.54466399999994,1.4211439999999929,1644
46.516663999999935,1.4211439999999929,1605
42.30466399999996,2.717143999999992,1711
44.24866399999995,2.717143999999992,1714
44.572663999999946,2.717143999999992,1778
43.92466399999995,2.0691439999999925,1633
42.30466399999996,2.0691439999999925,1713
42.62866399999996,2.0691439999999925,1675
42.62866399999996,1.4211439999999929,1720
42.95266399999996,1.4211439999999929,1731
43.276663999999954,1.4211439999999929,1668
46.516663999999935,-1.170856000000006,1738
46.19266399999994,-1.170856000000006,1583
45.86866399999994,-0.5228560000000062,1597
45.54466399999994,-0.5228560000000062,1602
48.46066399999992,1.4211439999999929,1420
41.332663999999966,2.0691439999999925,2674
41.98066399999996,2.717143999999992,2633
48.46066399999992,-1.8188560000000056,1558
47.81266399999993,0.7731439999999932,1513
46.84066399999993,0.7731439999999932,1552
44.572663999999946,-1.170856000000006,1525
43.60066399999995,-1.170856000000006,1599
43.276663999999954,-1.8188560000000056,1648
43.276663999999954,0.1251439999999934,1680
42.95266399999996,0.1251439999999934,1665
43.276663999999954,-0.5228560000000062,1649
43.60066399999995,-0.5228560000000062,1638
47.81266399999993,-3.7628560000000046,1590
47.48866399999993,-2.4668560000000053,1654
47.81266399999993,-0.5228560000000062,1576
46.516663999999935,-1.8188560000000056,1756
48.136663999999925,-1.170856000000006,1538
47.48866399999993,-1.170856000000006,1606
45.22066399999994,8.54914399999999,1337
45.22066399999994,7.90114399999999,1399
46.19266399999994,-0.5228560000000062,1537
46.516663999999935,-0.5228560000000062,1548
48.78466399999992,-3.114856000000005,1681
50.72866399999991,2.0691439999999925,1425
50.40466399999991,2.0691439999999925,1457
40.36066399999997,-3.7628560000000046,2865
41.65666399999997,-1.170856000000006,2782
41.332663999999966,1.4211439999999929,2720
43.276663999999954,13.733143999999989,65535
42.95266399999996,13.733143999999989,65535
41.65666399999997,15.029143999999986,65535
40.68466399999997,17.621143999999987,65535
43.60066399999995,13.085143999999987,65535
41.65666399999997,12.437143999999988,4009
41.65666399999997,13.085143999999987,4028
41.98066399999996,13.085143999999987,4078
41.65666399999997,13.733143999999989,4080
41.332663999999966,13.733143999999989,4072
41.332663999999966,14.381143999999988,4229
41.00866399999997,14.381143999999988,4135
41.332663999999966,13.085143999999987,4054
41.00866399999997,15.029143999999986,4335
41.98066399999996,13.733143999999989,4277
42.30466399999996,14.381143999999988,4416
42.30466399999996,12.437143999999988,4017
42.62866399999996,12.437143999999988,4196
42.95266399999996,12.437143999999988,4481
42.30466399999996,11.789143999999988,4026
42.95266399999996,11.789143999999988,4236
42.62866399999996,11.789143999999988,4227
43.276663999999954,11.789143999999988,4290
42.95266399999996,13.085143999999987,65535
42.30466399999996,13.085143999999987,4303
43.276663999999954,13.085143999999987,65535
43.276663999999954,12.437143999999988,65535
42.62866399999996,11.141143999999988,4072
42.95266399999996,11.141143999999988,4115
42.95266399999996,10.493143999999988,4133
44.572663999999946,8.54914399999999,1430
44.89666399999994,7.90114399999999,1413
44.89666399999994,9.197143999999987,1452
44.24866399999995,7.90114399999999,1440
44.572663999999946,7.90114399999999,1436
43.92466399999995,7.90114399999999,1538
44.24866399999995,7.25314399999999,1476
44.89666399999994,7.25314399999999,1458
45.22066399999994,7.25314399999999,1438
45.54466399999994,7.90114399999999,1421
44.572663999999946,7.25314399999999,2302
52.996663999999896,22.805143999999984,2215
52.996663999999896,23.45314399999998,2244
51.37666399999991,22.15714399999998,1681
51.37666399999991,22.805143999999984,1685
50.08066399999991,20.213143999999986,1309
50.72866399999991,20.213143999999986,1404
50.40466399999991,20.213143999999986,1365
50.08066399999991,20.86114399999998,1345
50.08066399999991,21.50914399999997,1386
50.08066399999991,22.15714399999998,1433
50.08066399999991,22.805143999999984,1463
53.96866399999989,22.805143999999984,2356
53.64466399999989,23.45314399999998,2312
53.32066399999989,23.45314399999998,2267
50.40466399999991,19.565143999999982,1401
50.08066399999991,18.917143999999983,1410
50.08066399999991,18.269143999999983,1380
52.0246639999999,22.805143999999984,1726
52.0246639999999,23.45314399999998,1740
51.37666399999991,19.565143999999982,1531
51.05266399999991,19.565143999999982,1493
50.72866399999991,18.917143999999983,1470
50.72866399999991,19.565143999999982,1425
49.75666399999992,18.917143999999983,1158
50.40466399999991,18.269143999999983,1406
53.64466399999989,19.565143999999982,2248
53.96866399999989,18.917143999999983,1678
53.64466399999989,18.917143999999983,1655
53.64466399999989,20.213143999999986,2210
52.996663999999896,18.917143999999983,1568
52.996663999999896,18.269143999999983,1533
53.32066399999989,18.917143999999983,1681
50.72866399999991,17.621143999999987,1384
50.72866399999991,18.269143999999983,1392
52.6726639999999,16.325143999999987,1423
52.996663999999896,16.325143999999987,1435
52.996663999999896,15.677143999999986,1454
53.32066399999989,15.677143999999986,1524
53.32066399999989,15.029143999999986,1495
53.64466399999989,15.029143999999986,1491
53.96866399999989,15.029143999999986,1477
52.6726639999999,18.917143999999983,1634
53.32066399999989,16.325143999999987,1657
52.6726639999999,15.029143999999986,1450
51.05266399999991,22.805143999999984,1676
51.05266399999991,23.45314399999998,1721
50.72866399999991,22.15714399999998,1539
50.40466399999991,22.15714399999998,1523
51.05266399999991,22.15714399999998,1638
54.616663999999886,16.973143999999984,1598
54.29266399999989,16.325143999999987,1542
53.96866399999989,15.677143999999986,1490
50.72866399999991,21.50914399999997,1501
50.40466399999991,21.50914399999997,1459
50.40466399999991,17.621143999999987,1432
53.32066399999989,22.805143999999984,2237
53.64466399999989,22.15714399999998,2296
54.29266399999989,16.973143999999984,1557
50.72866399999991,20.86114399999998,1442
51.700663999999904,22.805143999999984,1788
51.05266399999991,21.50914399999997,1526
50.08066399999991,19.565143999999982,1294
52.0246639999999,18.917143999999983,3688
52.0246639999999,19.565143999999982,3681
53.64466399999989,18.269143999999983,1643
51.700663999999904,20.213143999999986,1614
53.32066399999989,19.565143999999982,2239
50.72866399999991,23.45314399999998,1801
50.72866399999991,22.805143999999984,1771
49.43266399999992,20.213143999999986,1285
49.75666399999992,21.50914399999997,1416
49.75666399999992,22.15714399999998,1404
49.43266399999992,22.15714399999998,1212
51.05266399999991,18.917143999999983,1476
51.05266399999991,18.269143999999983,1456
53.32066399999989,16.973143999999984,1598
53.64466399999989,16.973143999999984,1620
49.75666399999992,20.86114399999998,1311
50.40466399999991,22.805143999999984,3770
53.64466399999989,16.325143999999987,1593
53.96866399999989,20.86114399999998,2466
54.29266399999989,20.86114399999998,2485
53.96866399999989,21.50914399999997,2425
53.64466399999989,15.677143999999986,1504
53.96866399999989,20.213143999999986,2230
53.96866399999989,19.565143999999982,1740
54.29266399999989,19.565143999999982,1751
53.96866399999989,16.325143999999987,1564
53.64466399999989,17.621143999999987,1633
53.96866399999989,22.15714399999998,2342
53.64466399999989,21.50914399999997,2534
53.64466399999989,20.86114399999998,2312
52.6726639999999,15.677143999999986,1458
51.05266399999991,20.213143999999986,1835
54.940663999999884,24.101143999999977,65535
54.616663999999886,23.45314399999998,65535
54.29266399999989,23.45314399999998,65535
53.64466399999989,22.805143999999984,2286
53.96866399999989,16.973143999999984,1654
50.40466399999991,20.86114399999998,1523
53.32066399999989,18.269143999999983,1610
49.75666399999992,19.565143999999982,1199
50.40466399999991,23.45314399999998,1885
49.75666399999992,20.213143999999986,1357
49.43266399999992,19.565143999999982,1245
49.43266399999992,20.86114399999998,1235
53.96866399999989,17.621143999999987,2283
42.30466399999996,-1.8188560000000056,3999
41.98066399999996,-1.8188560000000056,3982
41.65666399999997,0.7731439999999932,3986
42.62866399999996,-1.8188560000000056,4114
42.95266399999996,-1.8188560000000056,4143
42.62866399999996,-3.114856000000005,4237
42.95266399999996,-2.4668560000000053,4215
42.62866399999996,-7.650856000000003,4579
42.30466399999996,-7.650856000000003,4639
42.30466399999996,-8.946856000000002,4775
42.30466399999996,-8.298856000000002,4749
41.98066399999996,-8.298856000000002,4738
42.30466399999996,-7.002856000000003,4521
42.62866399999996,-6.354856000000003,4463
42.30466399999996,-6.354856000000003,4418
42.62866399999996,-5.706856000000004,3918
41.98066399999996,-4.410856000000004,3872
42.30466399999996,-3.7628560000000046,4263
40.03666399999997,-0.5228560000000062,3966
39.38866399999998,-0.5228560000000062,4014
41.00866399999997,0.7731439999999932,4114
40.68466399999997,0.7731439999999932,4146
40.36066399999997,0.1251439999999934,4224
39.712663999999975,-0.5228560000000062,4123
38.41666399999998,-0.5228560000000062,4135
39.06466399999998,-0.5228560000000062,4257
38.74066399999998,-1.170856000000006,4143
41.332663999999966,0.7731439999999932,4174
41.65666399999997,2.717143999999992,3774
41.65666399999997,2.0691439999999925,3797
41.332663999999966,0.1251439999999934,4132
41.332663999999966,-0.5228560000000062,4076
41.65666399999997,-4.410856000000004,3846
40.03666399999997,-2.4668560000000053,4084
41.00866399999997,-4.410856000000004,3967
43.276663999999954,-5.706856000000004,4048
39.38866399999998,-1.170856000000006,4109
38.09266399999999,-1.170856000000006,4522
38.74066399999998,-0.5228560000000062,4285
37.76866399999999,-1.170856000000006,4587
39.06466399999998,-1.8188560000000056,4107
39.38866399999998,-3.114856000000005,4007
39.38866399999998,-2.4668560000000053,4063
39.06466399999998,-2.4668560000000053,4090
39.06466399999998,-3.114856000000005,4011
39.06466399999998,-3.7628560000000046,3985
38.74066399999998,-3.7628560000000046,4064
40.03666399999997,-3.7628560000000046,3963
40.03666399999997,-3.114856000000005,4163
40.03666399999997,-1.8188560000000056,4244
39.712663999999975,-1.8188560000000056,4209
39.712663999999975,-1.170856000000006,4145
40.36066399999997,-1.170856000000006,4164
40.68466399999997,-1.170856000000006,4142
41.00866399999997,-1.170856000000006,4130
41.332663999999966,-1.170856000000006,3970
43.276663999999954,-8.298856000000002,4739
42.95266399999996,-8.298856000000002,4707
41.65666399999997,-5.706856000000004,65535
41.98066399999996,-7.002856000000003,65535
41.98066399999996,-6.354856000000003,65535
41.332663999999966,-5.058856000000004,4085
43.276663999999954,-3.7628560000000046,4520
42.95266399999996,-4.410856000000004,4454
42.62866399999996,-4.410856000000004,4444
42.30466399999996,-4.410856000000004,4403
41.00866399999997,-5.706856000000004,4023
41.332663999999966,-1.8188560000000056,3916
40.68466399999997,-3.114856000000005,3870
41.00866399999997,-3.114856000000005,3921
41.00866399999997,-2.4668560000000053,3944
41.332663999999966,-2.4668560000000053,3997
40.68466399999997,-4.410856000000004,3907
40.36066399999997,-4.410856000000004,3991
40.68466399999997,-3.7628560000000046,3899
40.36066399999997,-3.114856000000005,3877
41.65666399999997,-2.4668560000000053,4014
38.09266399999999,-3.7628560000000046,4111
38.74066399999998,-3.114856000000005,4055
37.76866399999999,-3.7628560000000046,4168
39.712663999999975,-3.114856000000005,3999
38.41666399999998,-3.7628560000000046,4076
40.03666399999997,-4.410856000000004,65535
40.03666399999997,-5.058856000000004,65535
39.38866399999998,-6.354856000000003,65535
39.38866399999998,-7.002856000000003,65535
42.95266399999996,-3.114856000000005,4648
41.98066399999996,-1.170856000000006,4011
42.30466399999996,-2.4668560000000053,4052
41.65666399999997,-0.5228560000000062,4109
41.98066399999996,-0.5228560000000062,3946
41.65666399999997,0.1251439999999934,3973
41.98066399999996,0.1251439999999934,3995
37.76866399999999,-5.058856000000004,4047
36.79666399999999,-4.410856000000004,4106
38.74066399999998,-4.410856000000004,4003
37.12066399999999,-4.410856000000004,4080
37.44466399999999,-5.058856000000004,4604
37.44466399999999,-7.002856000000003,65535
37.44466399999999,-6.354856000000003,65535
37.44466399999999,-5.706856000000004,4280
39.712663999999975,-3.7628560000000046,4073
42.62866399999996,-8.946856000000002,65535
42.30466399999996,-5.706856000000004,4425
42.30466399999996,-5.058856000000004,4510
42.95266399999996,-5.706856000000004,3950
41.00866399999997,-5.058856000000004,3991
40.68466399999997,-5.058856000000004,3965
41.65666399999997,-5.058856000000004,65535
41.65666399999997,-6.354856000000003,65535
36.79666399999999,-6.354856000000003,65535
37.12066399999999,-5.706856000000004,4448
37.76866399999999,-5.706856000000004,4247
38.09266399999999,-4.410856000000004,4382
37.12066399999999,-5.058856000000004,4402
36.79666399999999,-5.058856000000004,4360
37.76866399999999,-4.410856000000004,65535
37.76866399999999,-7.002856000000003,65535
38.41666399999998,-6.354856000000003,65535
38.09266399999999,-6.354856000000003,65535
48.78466399999992,1.4211439999999929,1521
56.23666399999988,8.54914399999999,2290
55.58866399999988,9.197143999999987,2095
55.91266399999988,9.197143999999987,2236
55.26466399999988,10.493143999999988,1972
55.91266399999988,12.437143999999988,2109
55.58866399999988,11.789143999999988,2115
55.58866399999988,11.141143999999988,2106
55.26466399999988,11.789143999999988,2124
55.58866399999988,10.493143999999988,2091
55.58866399999988,13.085143999999987,2085
56.88466399999987,9.845143999999989,2242
57.20866399999987,9.845143999999989,2277
56.56066399999988,9.845143999999989,2214
56.88466399999987,8.54914399999999,2329
54.940663999999884,9.845143999999989,3436
54.940663999999884,11.789143999999988,2192
55.91266399999988,13.085143999999987,2184
56.23666399999988,13.733143999999989,2228
55.91266399999988,13.733143999999989,2231
56.23666399999988,14.381143999999988,2251
56.23666399999988,15.029143999999986,2292
56.23666399999988,15.677143999999986,2347
56.56066399999988,14.381143999999988,2308
56.88466399999987,14.381143999999988,2278
56.23666399999988,13.085143999999987,2176
56.56066399999988,13.085143999999987,2256
56.88466399999987,12.437143999999988,2293
57.20866399999987,12.437143999999988,2309
57.53266399999987,12.437143999999988,2324
56.88466399999987,15.029143999999986,2304
56.56066399999988,15.677143999999986,2364
56.88466399999987,15.677143999999986,2383
56.88466399999987,16.325143999999987,2398
55.91266399999988,11.789143999999988,2261
57.20866399999987,10.493143999999988,2464
49.43266399999992,1.4211439999999929,1530
49.75666399999992,0.7731439999999932,1540
49.75666399999992,2.0691439999999925,1467
50.08066399999991,2.717143999999992,1468
49.75666399999992,1.4211439999999929,1504
47.81266399999993,1.4211439999999929,1494
48.136663999999925,2.0691439999999925,1584
48.46066399999992,2.0691439999999925,1543
48.136663999999925,1.4211439999999929,1527
48.78466399999992,0.1251439999999934,1591
48.46066399999992,0.1251439999999934,1569
47.81266399999993,0.1251439999999934,1503
46.84066399999993,-0.5228560000000062,1764
47.16466399999993,0.7731439999999932,1572
46.84066399999993,0.1251439999999934,1687
46.84066399999993,-1.170856000000006,1713
50.08066399999991,1.4211439999999929,1476
50.08066399999991,2.0691439999999925,1493
49.43266399999992,2.717143999999992,1480
49.75666399999992,3.365143999999992,1482
50.08066399999991,3.365143999999992,1502
49.10866399999992,2.0691439999999925,1537
49.43266399999992,2.0691439999999925,1496
48.78466399999992,0.7731439999999932,1625
48.78466399999992,-0.5228560000000062,1764
48.78466399999992,-1.170856000000006,1593
48.136663999999925,0.7731439999999932,1497
48.46066399999992,0.7731439999999932,1472
43.92466399999995,5.957143999999991,1564
44.24866399999995,5.957143999999991,1605
43.92466399999995,5.309143999999991,1520
42.95266399999996,2.717143999999992,1636
45.54466399999994,2.0691439999999925,1717
45.22066399999994,2.0691439999999925,1677
42.95266399999996,2.0691439999999925,2377
42.95266399999996,0.7731439999999932,1710
43.276663999999954,0.7731439999999932,1694
46.19266399999994,0.7731439999999932,1705
46.516663999999935,0.7731439999999932,1739
45.86866399999994,0.1251439999999934,1620
46.19266399999994,0.1251439999999934,1569
47.81266399999993,-1.170856000000006,1631
48.136663999999925,-2.4668560000000053,1684
47.48866399999993,-1.8188560000000056,1614
47.16466399999993,-1.170856000000006,1605
47.16466399999993,-0.5228560000000062,1657
46.84066399999993,-1.8188560000000056,1608
45.22066399999994,-0.5228560000000062,1547
44.89666399999994,0.1251439999999934,1562
45.22066399999994,0.7731439999999932,1601
45.54466399999994,0.7731439999999932,1613
45.86866399999994,0.7731439999999932,2372
45.22066399999994,0.1251439999999934,1618
44.89666399999994,0.7731439999999932,1619
43.92466399999995,-0.5228560000000062,1614
43.92466399999995,-1.170856000000006,1579
44.24866399999995,-1.170856000000006,1560
45.22066399999994,-1.170856000000006,1575
44.572663999999946,-0.5228560000000062,1543
44.24866399999995,0.1251439999999934,1590
44.572663999999946,0.7731439999999932,1672
43.276663999999954,-1.170856000000006,1659
42.95266399999996,-0.5228560000000062,1682
44.24866399999995,2.0691439999999925,1699
43.60066399999995,0.7731439999999932,1754
43.60066399999995,2.0691439999999925,1640
52.6726639999999,4.661143999999991,2281
52.6726639999999,5.309143999999991,2304
51.700663999999904,5.309143999999991,2249
52.0246639999999,5.309143999999991,2261
52.3486639999999,5.309143999999991,2277
51.37666399999991,4.013143999999992,2257
52.3486639999999,5.957143999999991,2271
52.0246639999999,6.60514399999999,2301
52.6726639999999,5.957143999999991,2288
52.996663999999896,5.957143999999991,2301
53.32066399999989,5.957143999999991,2295
52.996663999999896,6.60514399999999,2277
53.32066399999989,6.60514399999999,2269
52.6726639999999,6.60514399999999,2297
52.996663999999896,5.309143999999991,2316
59.15266399999986,24.101143999999977,65535
56.88466399999987,24.101143999999977,65535
56.88466399999987,23.45314399999998,65535
56.88466399999987,22.805143999999984,65535
57.20866399999987,24.74914399999998,65535
56.88466399999987,24.74914399999998,65535
56.56066399999988,24.74914399999998,65535
56.56066399999988,25.397143999999983,65535
56.56066399999988,24.101143999999977,65535
56.56066399999988,23.45314399999998,65535
56.56066399999988,26.04514399999998,65535
56.88466399999987,26.04514399999998,65535
57.20866399999987,25.397143999999983,65535
57.53266399999987,25.397143999999983,65535
56.23666399999988,26.04514399999998,65535
56.23666399999988,26.69314399999997,65535
55.91266399999988,26.69314399999997,65535
56.56066399999988,26.69314399999997,65535
56.56066399999988,27.34114399999998,65535
56.56066399999988,27.989143999999985,65535
56.23666399999988,27.989143999999985,65535
55.91266399999988,27.34114399999998,65535
56.56066399999988,22.805143999999984,65535
56.56066399999988,22.15714399999998,65535
56.56066399999988,21.50914399999997,65535
57.20866399999987,26.69314399999997,65535
39.06466399999998,-8.946856000000002,65535
38.41666399999998,-8.298856000000002,65535
45.86866399999994,11.789143999999988,3028
46.19266399999994,11.789143999999988,3015
46.19266399999994,10.493143999999988,3055
45.22066399999994,18.269143999999983,2461
45.22066399999994,18.917143999999983,2535
45.54466399999994,16.973143999999984,2319
45.22066399999994,17.621143999999987,2396
45.86866399999994,16.325143999999987,2200
45.54466399999994,18.917143999999983,2575
45.54466399999994,16.325143999999987,2275
45.54466399999994,18.269143999999983,2553
44.89666399999994,18.917143999999983,2856
46.19266399999994,16.973143999999984,2220
46.19266399999994,16.325143999999987,2206
45.86866399999994,16.973143999999984,2237
45.86866399999994,17.621143999999987,2341
46.19266399999994,15.677143999999986,1290
46.516663999999935,16.325143999999987,1295
45.54466399999994,15.677143999999986,2180
45.22066399999994,15.029143999999986,2247
45.54466399999994,15.029143999999986,1362
45.22066399999994,15.677143999999986,2264
44.572663999999946,15.677143999999986,3019
44.24866399999995,15.677143999999986,3040
43.92466399999995,16.325143999999987,2931
44.89666399999994,15.677143999999986,2983
45.54466399999994,17.621143999999987,2528
45.22066399999994,16.325143999999987,2396
46.516663999999935,16.973143999999984,2277
45.86866399999994,18.269143999999983,2654
43.92466399999995,15.677143999999986,2730
45.22066399999994,13.733143999999989,2262
47.48866399999993,19.565143999999982,797
47.16466399999993,18.917143999999983,2178
47.81266399999993,18.917143999999983,794
45.54466399999994,9.845143999999989,1339
45.22066399999994,9.845143999999989,1348
45.22066399999994,10.493143999999988,1398
45.86866399999994,9.845143999999989,1359
45.86866399999994,10.493143999999988,3798
48.78466399999992,21.50914399999997,1036
49.10866399999992,20.213143999999986,1121
49.10866399999992,18.917143999999983,1089
48.46066399999992,17.621143999999987,874
49.43266399999992,17.621143999999987,1050
49.10866399999992,17.621143999999987,896
48.136663999999925,18.269143999999983,830
49.10866399999992,18.269143999999983,871
49.43266399999992,18.269143999999983,1011
49.43266399999992,16.973143999999984,1081
49.75666399999992,16.973143999999984,1094
49.75666399999992,16.325143999999987,1139
50.08066399999991,15.677143999999986,1170
50.08066399999991,15.029143999999986,1186
49.43266399999992,18.917143999999983,1075
47.81266399999993,20.86114399999998,955
48.136663999999925,20.86114399999998,986
48.46066399999992,20.86114399999998,1028
48.46066399999992,21.50914399999997,1032
49.10866399999992,19.565143999999982,1182
48.136663999999925,17.621143999999987,882
48.78466399999992,22.15714399999998,1077
48.78466399999992,20.86114399999998,1407
49.10866399999992,20.86114399999998,1115
48.78466399999992,18.269143999999983,856
48.78466399999992,17.621143999999987,879
49.10866399999992,21.50914399999997,1091
48.78466399999992,20.213143999999986,1415
48.46066399999992,20.213143999999986,1456
48.136663999999925,19.565143999999982,1605
48.46066399999992,19.565143999999982,1484
48.46066399999992,18.917143999999983,934
48.46066399999992,18.269143999999983,845
48.78466399999992,19.565143999999982,1250
48.78466399999992,18.917143999999983,992
47.81266399999993,18.269143999999983,803
49.10866399999992,22.15714399999998,1124
49.43266399999992,21.50914399999997,1174
48.136663999999925,18.917143999999983,842
48.136663999999925,20.213143999999986,1625
52.636,-8.018,65535
52.312,-7.370000000000001,65535
52.312,-8.018,65535
52.636,-8.666,65535
51.988,-8.666,65535
51.988,-8.018,65535
52.96,-8.666,65535
52.96,-6.074000000000002,65535
53.28399999999999,-6.722000000000001,65535
53.60799999999999,-6.722000000000001,65535
53.60799999999999,-7.370000000000001,65535
53.60799999999999,-8.018,65535
54.25599999999999,-8.666,65535
53.93199999999999,-8.666,65535
53.93199999999999,-8.018,65535
52.312,-6.722000000000001,65535
52.636,-6.722000000000001,65535
53.93199999999999,-6.722000000000001,65535
54.25599999999999,-6.074000000000002,65535
53.28399999999999,-7.370000000000001,65535
52.96,-7.370000000000001,65535
52.312,-8.666,65535
52.96,-8.018,65535
52.636,-7.370000000000001,65535
52.96,-6.722000000000001,65535
51.988,-9.314,65535
52.312,-9.314,65535
54.579999999999984,-6.722000000000001,65535
54.579999999999984,-6.074000000000002,65535
53.28399999999999,-8.018,65535
53.28399999999999,-8.666,65535
53.28399999999999,-9.314,65535
53.93199999999999,-9.314,65535
54.25599999999999,-9.314,65535
53.60799999999999,-8.666,65535
53.60799999999999,-9.314,65535
49.43266399999992,14.381143999999988,1235
49.75666399999992,14.381143999999988,1202
49.75666399999992,15.029143999999986,1198
49.75666399999992,13.733143999999989,1206
50.08066399999991,13.733143999999989,1217
49.75666399999992,15.677143999999986,1199
50.40466399999991,15.029143999999986,1215
49.43266399999992,13.733143999999989,1326
50.40466399999991,15.677143999999986,1307
50.40466399999991,13.733143999999989,1243
46.19266399999994,15.029143999999986,1273
45.86866399999994,15.029143999999986,1322
45.86866399999994,14.381143999999988,1295
46.19266399999994,13.733143999999989,1382
45.86866399999994,13.733143999999989,1468
58.50466399999986,13.733143999999989,2401
58.180663999999865,13.733143999999989,2406
58.180663999999865,13.085143999999987,2378
57.85666399999987,12.437143999999988,2344
60.44866399999985,15.677143999999986,2627
60.124663999999854,15.677143999999986,2561
60.124663999999854,16.325143999999987,2599
59.800663999999855,16.325143999999987,2527
59.800663999999855,17.621143999999987,2506
59.47666399999986,18.269143999999983,2488
61.74466399999984,16.973143999999984,2638
61.420663999999846,16.973143999999984,2611
60.77266399999985,16.973143999999984,2563
65.63266399999982,22.15714399999998,3742
65.95666399999982,21.50914399999997,3702
65.63266399999982,20.86114399999998,3673
64.98466399999982,20.213143999999986,3605
64.66066399999983,20.213143999999986,3583
64.33666399999983,19.565143999999982,3277
64.01266399999983,19.565143999999982,2990
63.68866399999983,20.213143999999986,2943
64.66066399999983,18.917143999999983,3954
59.15266399999986,16.325143999999987,2463
59.15266399999986,15.029143999999986,2504
59.15266399999986,17.621143999999987,2480
57.53266399999987,14.381143999999988,2304
57.53266399999987,15.029143999999986,2324
61.09666399999985,14.381143999999988,2731
60.77266399999985,15.029143999999986,2682
60.44866399999985,15.029143999999986,2668
58.180663999999865,15.029143999999986,2381
58.50466399999986,16.325143999999987,2415
58.50466399999986,15.677143999999986,2388
63.36466399999984,13.085143999999987,2975
63.04066399999984,14.381143999999988,2912
62.39266399999984,15.677143999999986,2834
63.36466399999984,13.733143999999989,2957
63.36466399999984,14.381143999999988,2929
62.71666399999984,15.677143999999986,2862
62.39266399999984,17.621143999999987,2696
59.800663999999855,15.677143999999986,2973
55.58866399999988,13.733143999999989,2258
57.20866399999987,14.381143999999988,2288
57.85666399999987,14.381143999999988,2336
58.82866399999986,16.973143999999984,2472
58.82866399999986,16.325143999999987,2450
59.15266399999986,18.269143999999983,2484
60.44866399999985,17.621143999999987,2539
59.15266399999986,12.437143999999988,2443
59.15266399999986,13.085143999999987,2457
58.82866399999986,12.437143999999988,2419
59.47666399999986,16.325143999999987,2509
58.82866399999986,14.381143999999988,2496
59.47666399999986,15.677143999999986,2527
63.36466399999984,18.917143999999983,2896
63.04066399999984,17.621143999999987,2851
62.71666399999984,17.621143999999987,2825
63.68866399999983,19.565143999999982,2929
62.39266399999984,16.973143999999984,2740
59.800663999999855,16.973143999999984,2515
59.47666399999986,17.621143999999987,2492
57.85666399999987,13.085143999999987,2368
57.53266399999987,13.085143999999987,2349
58.50466399999986,11.789143999999988,2390
57.85666399999987,15.029143999999986,2370
57.20866399999987,13.733143999999989,2294
57.53266399999987,13.733143999999989,2355
61.74466399999984,16.325143999999987,2734
61.420663999999846,16.325143999999987,2701
61.09666399999985,16.325143999999987,2690
61.09666399999985,16.973143999999984,2658
60.124663999999854,15.029143999999986,2836
66.60466399999981,20.86114399999998,3777
67.25266399999981,20.86114399999998,3845
67.90066399999981,20.213143999999986,3915
67.57666399999981,20.213143999999986,4540
59.800663999999855,15.029143999999986,2556
58.50466399999986,15.029143999999986,2398
59.47666399999986,15.029143999999986,2541
60.44866399999985,16.325143999999987,2627
59.15266399999986,15.677143999999986,2485
57.85666399999987,13.733143999999989,2396
58.82866399999986,13.733143999999989,2443
58.50466399999986,13.085143999999987,2428
57.20866399999987,13.085143999999987,2325
56.88466399999987,13.085143999999987,2299
58.180663999999865,11.789143999999988,2361
62.06866399999984,16.973143999999984,2729
65.95666399999982,23.45314399999998,3783
59.800663999999855,14.381143999999988,65535
59.800663999999855,18.269143999999983,2497
63.04066399999984,15.029143999999986,2880
62.71666399999984,15.029143999999986,2870
62.39266399999984,16.325143999999987,2803
63.36466399999984,12.437143999999988,3008
68.5486639999998,17.621143999999987,4128
68.5486639999998,18.269143999999983,4061
68.5486639999998,18.917143999999983,4038
68.2246639999998,18.917143999999983,3994
59.800663999999855,13.085143999999987,2560
60.124663999999854,13.085143999999987,2599
59.47666399999986,16.973143999999984,2501
59.15266399999986,16.973143999999984,2493
56.56066399999988,13.733143999999989,2246
60.124663999999854,17.621143999999987,2516
57.85666399999987,16.325143999999987,2475
58.180663999999865,16.325143999999987,2437
58.180663999999865,15.677143999999986,2445
57.20866399999987,16.325143999999987,2487
57.53266399999987,15.677143999999986,2505
57.85666399999987,15.677143999999986,2476
44.89666399999994,23.45314399999998,1045
44.572663999999946,23.45314399999998,1115
44.89666399999994,24.74914399999998,991
44.572663999999946,24.74914399999998,1160
44.572663999999946,24.101143999999977,1149
44.24866399999995,24.101143999999977,1130
47.48866399999993,25.397143999999983,637
47.48866399999993,24.74914399999998,357
47.16466399999993,24.74914399999998,127
47.16466399999993,24.101143999999977,109
47.48866399999993,22.15714399999998,705
47.81266399999993,22.15714399999998,783
47.16466399999993,22.15714399999998,427
47.16466399999993,23.45314399999998,11
47.16466399999993,22.805143999999984,359
46.84066399999993,24.101143999999977,189
45.86866399999994,27.34114399999998,934
45.54466399999994,27.34114399999998,890
45.54466399999994,27.989143999999985,940
45.86866399999994,20.86114399999998,883
45.86866399999994,21.50914399999997,861
46.19266399999994,21.50914399999997,846
46.19266399999994,27.34114399999998,921
46.19266399999994,26.69314399999997,890
46.516663999999935,26.69314399999997,852
46.516663999999935,26.04514399999998,352
47.48866399999993,22.805143999999984,885
46.84066399999993,22.805143999999984,292
45.54466399999994,22.15714399999998,911
45.22066399999994,22.15714399999998,929
44.89666399999994,22.15714399999998,987
47.48866399999993,23.45314399999998,0
46.516663999999935,24.101143999999977,262
46.516663999999935,24.74914399999998,320
45.86866399999994,24.101143999999977,740
47.16466399999993,26.69314399999997,829
47.16466399999993,27.34114399999998,801
43.92466399999995,25.397143999999983,1123
44.24866399999995,24.74914399999998,1030
44.89666399999994,26.04514399999998,668
44.89666399999994,26.69314399999997,799
45.22066399999994,26.69314399999997,812
45.22066399999994,27.34114399999998,883
46.84066399999993,26.69314399999997,894
47.48866399999993,26.69314399999997,782
44.24866399999995,25.397143999999983,962
43.92466399999995,26.04514399999998,1139
46.19266399999994,24.101143999999977,359
44.572663999999946,25.397143999999983,789
46.84066399999993,24.74914399999998,202
46.516663999999935,21.50914399999997,822
46.84066399999993,21.50914399999997,783
44.572663999999946,26.69314399999997,818
44.572663999999946,27.34114399999998,805
44.89666399999994,27.34114399999998,954
44.572663999999946,27.989143999999985,802
44.24866399999995,27.989143999999985,816
44.572663999999946,28.63714399999997,869
45.86866399999994,22.15714399999998,819
45.86866399999994,22.805143999999984,713
44.24866399999995,23.45314399999998,1120
43.92466399999995,27.989143999999985,65535
46.84066399999993,27.34114399999998,903
45.22066399999994,23.45314399999998,1020
45.54466399999994,23.45314399999998,823
45.54466399999994,24.101143999999977,770
45.22066399999994,24.101143999999977,1060
44.89666399999994,24.101143999999977,1290
46.19266399999994,22.15714399999998,891
46.516663999999935,22.15714399999998,916
45.22066399999994,21.50914399999997,952
45.54466399999994,21.50914399999997,925
45.54466399999994,20.86114399999998,932
46.516663999999935,27.989143999999985,924
46.19266399999994,27.989143999999985,974
45.54466399999994,25.397143999999983,479
45.22066399999994,25.397143999999983,620
45.22066399999994,26.04514399999998,836
47.81266399999993,24.101143999999977,946
47.48866399999993,26.04514399999998,734
47.81266399999993,26.04514399999998,800
46.19266399999994,23.45314399999998,316
45.86866399999994,23.45314399999998,666
44.24866399999995,26.04514399999998,825
45.22066399999994,27.989143999999985,893
45.86866399999994,24.74914399999998,779
46.516663999999935,25.397143999999983,328
46.84066399999993,25.397143999999983,269
46.19266399999994,26.04514399999998,410
45.86866399999994,26.04514399999998,455
43.92466399999995,23.45314399999998,1531
44.89666399999994,25.397143999999983,796
46.19266399999994,20.86114399999998,939
47.81266399999993,25.397143999999983,1028
44.572663999999946,22.805143999999984,1091
44.572663999999946,22.15714399999998,1059
46.516663999999935,23.45314399999998,340
45.86866399999994,25.397143999999983,497
44.24866399999995,27.34114399999998,1771
45.22066399999994,24.74914399999998,1096
45.54466399999994,22.805143999999984,786
45.22066399999994,28.63714399999997,1022
44.89666399999994,28.63714399999997,961
47.81266399999993,23.45314399999998,1003
46.19266399999994,24.74914399999998,400
46.19266399999994,25.397143999999983,466
43.92466399999995,24.101143999999977,2221
43.92466399999995,24.74914399999998,2234
47.81266399999993,26.69314399999997,894
47.48866399999993,24.101143999999977,600
46.84066399999993,26.04514399999998,1686
46.19266399999994,22.805143999999984,1010
47.48866399999993,27.34114399999998,828
46.19266399999994,20.213143999999986,65535
45.54466399999994,26.04514399999998,941
44.24866399999995,26.69314399999997,837
45.86866399999994,27.989143999999985,1008
47.81266399999993,5.957143999999991,2266
