51.56399999999999,-0.4100000000000028,65535
51.887999999999984,-0.4100000000000028,65535
50.91599999999999,-1.7060000000000022,65535
51.23999999999999,-1.0580000000000025,65535
51.56399999999999,-1.0580000000000025,65535
51.23999999999999,-1.7060000000000022,65535
51.56399999999999,0.2379999999999968,65535
47.16466399999993,9.845143999999989,1406
47.48866399999993,9.845143999999989,1387
48.136663999999925,14.381143999999988,1360
47.81266399999993,13.085143999999987,1342
47.16466399999993,11.141143999999988,1370
47.48866399999993,11.789143999999988,1365
48.136663999999925,16.325143999999987,1239
47.48866399999993,12.437143999999988,1349
48.136663999999925,15.677143999999986,1299
47.16466399999993,10.493143999999988,1383
47.16466399999993,9.197143999999987,1410
48.136663999999925,13.733143999999989,1355
48.136663999999925,15.029143999999986,1309
47.81266399999993,16.973143999999984,1282
48.46066399999992,14.381143999999988,1384
47.48866399999993,13.085143999999987,1378
47.16466399999993,13.085143999999987,1383
47.48866399999993,14.381143999999988,1471
47.48866399999993,13.733143999999989,1444
47.48866399999993,15.029143999999986,1482
46.516663999999935,13.733143999999989,1667
46.84066399999993,13.733143999999989,1636
46.84066399999993,13.085143999999987,1621
48.78466399999992,14.381143999999988,65535
47.16466399999993,15.677143999999986,1500
46.516663999999935,14.381143999999988,1674
46.84066399999993,14.381143999999988,1615
47.16466399999993,14.381143999999988,1565
46.516663999999935,15.029143999999986,1687
47.81266399999993,16.325143999999987,1278
47.16466399999993,15.029143999999986,1540
47.81266399999993,15.677143999999986,1284
47.48866399999993,15.677143999999986,1429
46.516663999999935,13.085143999999987,1934
46.84066399999993,12.437143999999988,1679
48.136663999999925,11.789143999999988,1280
47.81266399999993,12.437143999999988,1310
46.84066399999993,15.677143999999986,1561
46.516663999999935,15.677143999999986,1780
46.84066399999993,16.325143999999987,1545
47.81266399999993,14.381143999999988,1405
48.78466399999992,16.973143999999984,1091
48.136663999999925,16.973143999999984,1228
48.46066399999992,13.733143999999989,1354
47.81266399999993,13.733143999999989,1403
50.08066399999991,8.54914399999999,1281
48.46066399999992,9.845143999999989,1299
51.05266399999991,7.25314399999999,1349
51.37666399999991,7.25314399999999,1351
51.37666399999991,6.60514399999999,1355
48.46066399999992,16.325143999999987,1287
48.46066399999992,16.973143999999984,1213
48.78466399999992,16.325143999999987,1374
48.46066399999992,15.677143999999986,1300
48.78466399999992,15.677143999999986,1381
47.48866399999993,16.325143999999987,1396
47.16466399999993,16.325143999999987,1494
46.19266399999994,14.381143999999988,1732
45.86866399999994,15.677143999999986,1784
43.60066399999995,16.325143999999987,2200
45.54466399999994,14.381143999999988,1846
45.54466399999994,13.733143999999989,1869
48.136663999999925,13.085143999999987,1345
48.46066399999992,11.141143999999988,1257
48.136663999999925,11.141143999999988,1274
48.46066399999992,7.90114399999999,1354
49.10866399999992,8.54914399999999,1317
48.78466399999992,2.0691439999999925,1478
49.10866399999992,7.25314399999999,1351
52.0246639999999,7.90114399999999,1352
47.16466399999993,11.789143999999988,1369
49.43266399999992,11.141143999999988,985
53.64466399999989,9.845143999999989,1379
50.72866399999991,4.013143999999992,1415
51.05266399999991,11.141143999999988,990
47.48866399999993,11.141143999999988,1298
46.84066399999993,11.789143999999988,2102
46.516663999999935,11.141143999999988,2071
45.54466399999994,11.141143999999988,1965
46.19266399999994,11.141143999999988,2037
45.86866399999994,11.141143999999988,2021
44.572663999999946,11.141143999999988,1812
43.92466399999995,12.437143999999988,4445
45.54466399999994,12.437143999999988,2052
45.54466399999994,11.789143999999988,2015
48.78466399999992,15.029143999999986,1452
47.81266399999993,15.029143999999986,1372
47.81266399999993,11.141143999999988,1289
50.40466399999991,18.917143999999983,538
52.3486639999999,20.86114399999998,319
54.616663999999886,18.269143999999983,543
54.29266399999989,18.917143999999983,528
49.10866399999992,14.381143999999988,65535
50.08066399999991,14.381143999999988,866
48.78466399999992,13.733143999999989,2216
52.6726639999999,13.085143999999987,955
52.3486639999999,13.085143999999987,955
53.96866399999989,12.437143999999988,1404
54.29266399999989,12.437143999999988,1432
47.48866399999993,8.54914399999999,1416
47.81266399999993,17.621143999999987,1243
47.48866399999993,18.917143999999983,1240
47.48866399999993,20.86114399999998,1916
46.84066399999993,23.45314399999998,2398
44.572663999999946,26.04514399999998,2847
47.48866399999993,21.50914399999997,1952
47.81266399999993,21.50914399999997,2348
48.46066399999992,22.15714399999998,1291
47.48866399999993,16.973143999999984,65535
49.10866399999992,16.325143999999987,1047
49.75666399999992,18.269143999999983,630
46.19266399999994,13.085143999999987,2783
41.98066399999996,12.437143999999988,3045
43.60066399999995,10.493143999999988,3206
45.54466399999994,9.197143999999987,1568
47.81266399999993,22.805143999999984,2813
49.75666399999992,22.805143999999984,620
50.72866399999991,3.365143999999992,1422
51.05266399999991,4.013143999999992,1419
50.72866399999991,4.661143999999991,1408
51.05266399999991,4.661143999999991,1412
51.05266399999991,3.365143999999992,1426
51.05266399999991,2.717143999999992,1442
50.40466399999991,4.661143999999991,1404
50.72866399999991,2.717143999999992,1438
50.40466399999991,4.013143999999992,1417
51.05266399999991,5.309143999999991,1405
50.72866399999991,5.309143999999991,1392
51.37666399999991,3.365143999999992,1440
51.37666399999991,4.661143999999991,1421
50.72866399999991,5.957143999999991,1372
50.40466399999991,5.957143999999991,1383
50.40466399999991,3.365143999999992,1430
50.40466399999991,5.309143999999991,1399
50.08066399999991,5.309143999999991,1415
49.75666399999992,5.309143999999991,1397
49.75666399999992,5.957143999999991,1387
51.37666399999991,5.309143999999991,1466
51.700663999999904,4.661143999999991,1458
50.08066399999991,4.013143999999992,1432
50.08066399999991,5.957143999999991,1401
50.08066399999991,4.661143999999991,1416
49.43266399999992,5.309143999999991,1400
49.43266399999992,5.957143999999991,1380
52.0246639999999,4.661143999999991,1490
52.3486639999999,4.661143999999991,1519
50.72866399999991,15.029143999999986,844
51.05266399999991,15.029143999999986,836
51.05266399999991,13.733143999999989,878
50.40466399999991,13.085143999999987,958
49.10866399999992,7.90114399999999,1325
48.78466399999992,7.90114399999999,1338
50.40466399999991,7.90114399999999,1316
50.08066399999991,7.90114399999999,1301
49.75666399999992,7.90114399999999,1298
49.43266399999992,7.90114399999999,1315
49.75666399999992,8.54914399999999,1292
49.43266399999992,8.54914399999999,1297
49.43266399999992,9.197143999999987,1333
49.10866399999992,9.197143999999987,1330
47.48866399999993,7.90114399999999,1415
47.81266399999993,7.90114399999999,1406
48.136663999999925,7.90114399999999,1371
48.136663999999925,9.845143999999989,1324
47.81266399999993,9.197143999999987,1408
47.81266399999993,8.54914399999999,1394
47.81266399999993,9.845143999999989,1339
54.940663999999884,9.197143999999987,1499
54.616663999999886,9.197143999999987,1440
54.29266399999989,9.197143999999987,1448
53.96866399999989,9.197143999999987,1489
53.64466399999989,9.197143999999987,1394
54.616663999999886,9.845143999999989,1432
54.29266399999989,9.845143999999989,1421
53.96866399999989,9.845143999999989,1394
53.64466399999989,10.493143999999988,1382
53.96866399999989,10.493143999999988,1389
53.96866399999989,11.141143999999988,1391
54.29266399999989,10.493143999999988,1409
53.32066399999989,10.493143999999988,1368
54.940663999999884,11.141143999999988,1489
52.6726639999999,13.733143999999989,953
52.3486639999999,13.733143999999989,951
52.3486639999999,14.381143999999988,968
52.0246639999999,14.381143999999988,927
52.0246639999999,11.789143999999988,1007
52.3486639999999,11.789143999999988,1227
52.3486639999999,12.437143999999988,970
52.0246639999999,15.029143999999986,932
51.700663999999904,14.381143999999988,878
52.0246639999999,13.733143999999989,930
51.700663999999904,13.733143999999989,883
52.6726639999999,12.437143999999988,1268
53.32066399999989,11.789143999999988,1332
53.96866399999989,11.789143999999988,1396
53.64466399999989,11.789143999999988,1341
53.64466399999989,11.141143999999988,1364
53.32066399999989,11.141143999999988,1355
52.996663999999896,11.789143999999988,1300
52.996663999999896,12.437143999999988,1284
52.996663999999896,13.733143999999989,1203
53.64466399999989,13.733143999999989,1276
53.96866399999989,13.733143999999989,1370
54.29266399999989,13.085143999999987,1412
53.96866399999989,13.085143999999987,1379
53.32066399999989,13.733143999999989,1233
52.0246639999999,13.085143999999987,986
51.700663999999904,13.085143999999987,898
52.996663999999896,14.381143999999988,1260
52.0246639999999,12.437143999999988,974
51.700663999999904,12.437143999999988,939
51.37666399999991,11.789143999999988,939
51.37666399999991,12.437143999999988,912
52.6726639999999,11.789143999999988,1310
53.64466399999989,13.085143999999987,1319
53.32066399999989,13.085143999999987,1305
52.996663999999896,13.085143999999987,1246
53.64466399999989,12.437143999999988,1348
51.37666399999991,13.733143999999989,874
53.32066399999989,12.437143999999988,1312
52.6726639999999,14.381143999999988,904
51.37666399999991,13.085143999999987,889
53.32066399999989,14.381143999999988,1276
52.3486639999999,15.029143999999986,954
52.0246639999999,15.677143999999986,903
51.700663999999904,15.029143999999986,803
51.05266399999991,16.325143999999987,665
51.05266399999991,16.973143999999984,661
51.700663999999904,15.677143999999986,794
51.37666399999991,15.677143999999986,758
51.37666399999991,16.325143999999987,691
50.72866399999991,13.085143999999987,892
50.72866399999991,12.437143999999988,897
51.05266399999991,13.085143999999987,886
51.05266399999991,14.381143999999988,869
50.40466399999991,12.437143999999988,900
50.40466399999991,11.789143999999988,902
50.08066399999991,12.437143999999988,942
50.72866399999991,11.789143999999988,952
51.05266399999991,12.437143999999988,919
50.72866399999991,14.381143999999988,912
51.37666399999991,14.381143999999988,859
50.72866399999991,13.733143999999989,1294
50.40466399999991,14.381143999999988,871
51.37666399999991,15.029143999999986,806
55.26466399999988,9.197143999999987,2268
55.58866399999988,8.54914399999999,3562
55.91266399999988,8.54914399999999,7039
56.23666399999988,9.197143999999987,7047
56.23666399999988,10.493143999999988,7000
56.23666399999988,9.845143999999989,6987
55.91266399999988,9.845143999999989,6925
56.56066399999988,9.197143999999987,7057
56.56066399999988,8.54914399999999,7100
51.05266399999991,6.60514399999999,1354
51.700663999999904,7.90114399999999,1340
50.72866399999991,6.60514399999999,1365
51.700663999999904,7.25314399999999,1354
50.72866399999991,7.25314399999999,1341
52.0246639999999,7.25314399999999,1362
52.3486639999999,7.90114399999999,1346
51.05266399999991,5.957143999999991,1362
50.40466399999991,7.25314399999999,1334
51.700663999999904,6.60514399999999,1360
51.700663999999904,5.957143999999991,1388
52.3486639999999,9.197143999999987,1307
51.700663999999904,8.54914399999999,1325
52.0246639999999,8.54914399999999,1317
52.3486639999999,8.54914399999999,1323
51.37666399999991,7.90114399999999,1343
52.3486639999999,7.25314399999999,1371
51.37666399999991,5.957143999999991,1421
50.72866399999991,7.90114399999999,1351
51.37666399999991,9.197143999999987,1268
51.700663999999904,9.197143999999987,1285
50.40466399999991,6.60514399999999,1392
51.05266399999991,7.90114399999999,1359
51.37666399999991,8.54914399999999,1314
52.0246639999999,5.957143999999991,1431
52.3486639999999,6.60514399999999,1406
51.05266399999991,8.54914399999999,1337
52.0246639999999,9.197143999999987,1309
52.6726639999999,9.197143999999987,1350
52.0246639999999,9.845143999999989,1297
51.700663999999904,9.845143999999989,1270
51.37666399999991,9.845143999999989,1237
50.72866399999991,8.54914399999999,1308
51.05266399999991,9.845143999999989,1248
50.72866399999991,9.845143999999989,1256
50.40466399999991,9.845143999999989,1288
51.05266399999991,9.197143999999987,1311
50.40466399999991,9.197143999999987,1296
50.08066399999991,9.197143999999987,1274
51.05266399999991,10.493143999999988,1274
50.40466399999991,8.54914399999999,1291
50.72866399999991,9.197143999999987,1313
49.75666399999992,9.197143999999987,1313
52.996663999999896,9.197143999999987,1389
52.3486639999999,9.845143999999989,1293
52.996663999999896,8.54914399999999,1401
52.996663999999896,7.90114399999999,1435
53.32066399999989,7.90114399999999,1487
53.32066399999989,7.25314399999999,1573
53.64466399999989,7.25314399999999,1618
52.996663999999896,10.493143999999988,1350
52.6726639999999,10.493143999999988,1336
52.6726639999999,9.845143999999989,1300
53.32066399999989,9.845143999999989,1372
53.32066399999989,9.197143999999987,1407
53.64466399999989,8.54914399999999,1412
53.32066399999989,8.54914399999999,1409
52.6726639999999,8.54914399999999,1383
52.0246639999999,10.493143999999988,1287
52.0246639999999,11.141143999999988,1000
51.700663999999904,11.141143999999988,984
52.6726639999999,7.25314399999999,2203
52.996663999999896,7.25314399999999,2178
52.6726639999999,7.90114399999999,1387
53.64466399999989,7.90114399999999,1511
52.996663999999896,11.141143999999988,1361
52.6726639999999,11.141143999999988,1372
52.3486639999999,10.493143999999988,1260
52.996663999999896,9.845143999999989,1357
51.700663999999904,10.493143999999988,1275
51.37666399999991,10.493143999999988,1001
51.700663999999904,11.789143999999988,977
52.3486639999999,11.141143999999988,1241
51.37666399999991,11.141143999999988,959
51.05266399999991,11.789143999999988,951
49.10866399999992,11.141143999999988,1006
48.78466399999992,11.141143999999988,1249
48.46066399999992,11.789143999999988,1288
49.43266399999992,11.789143999999988,975
50.08066399999991,11.789143999999988,930
49.75666399999992,12.437143999999988,947
49.10866399999992,11.789143999999988,1025
48.78466399999992,12.437143999999988,1274
48.46066399999992,12.437143999999988,1323
49.10866399999992,12.437143999999988,1263
48.78466399999992,13.085143999999987,1301
48.136663999999925,12.437143999999988,1342
47.81266399999993,11.789143999999988,1297
48.136663999999925,10.493143999999988,1282
47.81266399999993,10.493143999999988,1324
48.78466399999992,10.493143999999988,1310
47.48866399999993,10.493143999999988,1350
48.46066399999992,10.493143999999988,1294
49.43266399999992,13.085143999999987,1353
48.46066399999992,13.085143999999987,1328
49.43266399999992,10.493143999999988,991
49.75666399999992,9.845143999999989,1268
49.75666399999992,10.493143999999988,1232
50.40466399999991,11.141143999999988,1247
50.08066399999991,11.141143999999988,1249
50.72866399999991,11.141143999999988,961
49.75666399999992,11.141143999999988,1028
48.78466399999992,11.789143999999988,1210
50.40466399999991,10.493143999999988,1040
50.08066399999991,9.845143999999989,1260
50.08066399999991,10.493143999999988,1257
49.43266399999992,12.437143999999988,1269
49.75666399999992,11.789143999999988,972
49.10866399999992,13.085143999999987,1350
50.72866399999991,10.493143999999988,1002
49.10866399999992,10.493143999999988,1005
48.78466399999992,9.845143999999989,1340
48.46066399999992,8.54914399999999,1344
48.46066399999992,9.197143999999987,1346
48.78466399999992,9.197143999999987,1333
48.78466399999992,8.54914399999999,1324
50.08066399999991,7.25314399999999,1349
49.75666399999992,6.60514399999999,1358
49.43266399999992,6.60514399999999,1370
49.10866399999992,6.60514399999999,1365
49.43266399999992,7.25314399999999,1348
49.75666399999992,7.25314399999999,1322
49.10866399999992,5.957143999999991,1390
48.78466399999992,7.25314399999999,1357
50.08066399999991,6.60514399999999,1355
47.48866399999993,9.197143999999987,1408
48.136663999999925,8.54914399999999,1374
48.136663999999925,9.197143999999987,1367
47.81266399999993,7.25314399999999,1392
49.43266399999992,9.845143999999989,1303
49.10866399999992,9.845143999999989,1322
53.64466399999989,14.381143999999988,1260
50.08066399999991,13.085143999999987,913
49.75666399999992,13.085143999999987,1030
45.86866399999994,9.197143999999987,1558
46.19266399999994,9.197143999999987,1544
46.516663999999935,8.54914399999999,1490
46.516663999999935,9.197143999999987,1539
46.19266399999994,8.54914399999999,1541
47.16466399999993,8.54914399999999,1417
45.86866399999994,4.661143999999991,1556
46.84066399999993,9.845143999999989,1417
45.22066399999994,5.957143999999991,1629
45.22066399999994,5.309143999999991,1612
45.86866399999994,5.957143999999991,1560
45.54466399999994,5.957143999999991,1613
44.89666399999994,4.661143999999991,1634
44.89666399999994,5.309143999999991,1649
44.572663999999946,4.661143999999991,1679
44.24866399999995,4.661143999999991,1693
43.92466399999995,4.661143999999991,1672
46.19266399999994,7.25314399999999,1472
48.78466399999992,5.957143999999991,1394
48.136663999999925,6.60514399999999,1393
48.46066399999992,6.60514399999999,1389
48.78466399999992,6.60514399999999,1371
47.16466399999993,7.90114399999999,1420
48.136663999999925,7.25314399999999,1378
48.46066399999992,7.25314399999999,1358
46.516663999999935,6.60514399999999,1487
46.84066399999993,6.60514399999999,1459
46.84066399999993,7.25314399999999,1441
46.516663999999935,5.957143999999991,1513
46.19266399999994,5.957143999999991,1499
46.84066399999993,8.54914399999999,1431
46.84066399999993,7.90114399999999,1430
45.86866399999994,5.309143999999991,1588
46.19266399999994,6.60514399999999,1489
45.86866399999994,6.60514399999999,1500
47.48866399999993,6.60514399999999,1438
47.48866399999993,7.25314399999999,1409
47.16466399999993,7.25314399999999,1425
49.10866399999992,4.013143999999992,1487
49.75666399999992,4.661143999999991,1435
49.43266399999992,4.661143999999991,1475
49.10866399999992,5.309143999999991,1410
46.19266399999994,4.661143999999991,1555
46.84066399999993,9.197143999999987,1430
46.19266399999994,5.309143999999991,1572
46.516663999999935,5.309143999999991,1559
45.54466399999994,6.60514399999999,1663
45.54466399999994,5.309143999999991,1579
43.60066399999995,4.013143999999992,1705
43.60066399999995,3.365143999999992,1742
42.62866399999996,2.717143999999992,1808
43.276663999999954,2.717143999999992,1773
45.54466399999994,4.661143999999991,1563
45.22066399999994,4.661143999999991,1614
47.16466399999993,5.309143999999991,1462
47.16466399999993,5.957143999999991,1447
46.19266399999994,7.90114399999999,1467
49.75666399999992,2.717143999999992,1517
49.10866399999992,2.717143999999992,1483
48.78466399999992,2.717143999999992,1498
45.86866399999994,3.365143999999992,1698
46.84066399999993,3.365143999999992,1615
46.516663999999935,3.365143999999992,1646
46.19266399999994,3.365143999999992,1673
47.16466399999993,6.60514399999999,1432
49.10866399999992,3.365143999999992,1523
45.54466399999994,4.013143999999992,1574
46.516663999999935,7.25314399999999,1468
47.16466399999993,4.661143999999991,1498
46.84066399999993,4.661143999999991,1510
46.516663999999935,4.661143999999991,1536
46.84066399999993,5.957143999999991,1519
47.81266399999993,3.365143999999992,1552
47.48866399999993,4.013143999999992,1505
48.136663999999925,4.013143999999992,1542
47.81266399999993,4.013143999999992,1515
47.48866399999993,4.661143999999991,1497
47.16466399999993,3.365143999999992,1645
46.84066399999993,4.013143999999992,1644
48.46066399999992,5.957143999999991,1410
46.19266399999994,2.717143999999992,1733
47.16466399999993,2.0691439999999925,1602
46.516663999999935,2.717143999999992,1703
46.84066399999993,2.717143999999992,1684
46.84066399999993,2.0691439999999925,1630
47.16466399999993,2.717143999999992,1623
44.572663999999946,5.309143999999991,1671
44.572663999999946,5.957143999999991,1712
44.89666399999994,6.60514399999999,1707
44.572663999999946,6.60514399999999,1749
43.60066399999995,5.309143999999991,1691
43.92466399999995,7.25314399999999,1847
43.60066399999995,6.60514399999999,1835
43.276663999999954,6.60514399999999,1809
43.276663999999954,5.957143999999991,1751
45.86866399999994,8.54914399999999,1565
45.54466399999994,8.54914399999999,1572
48.136663999999925,3.365143999999992,1564
48.46066399999992,3.365143999999992,1538
48.46066399999992,2.717143999999992,1511
47.48866399999993,5.309143999999991,1476
46.516663999999935,9.845143999999989,1484
46.84066399999993,10.493143999999988,2771
47.81266399999993,5.309143999999991,1527
45.22066399999994,6.60514399999999,1663
46.19266399999994,4.013143999999992,1624
45.86866399999994,4.013143999999992,1587
45.22066399999994,4.013143999999992,1583
44.89666399999994,4.013143999999992,1641
46.84066399999993,5.309143999999991,1530
48.136663999999925,-1.8188560000000056,1585
48.136663999999925,0.1251439999999934,1529
48.136663999999925,-0.5228560000000062,1561
47.48866399999993,-0.5228560000000062,1569
47.16466399999993,-1.8188560000000056,1614
47.48866399999993,0.7731439999999932,1540
47.16466399999993,0.1251439999999934,1557
45.86866399999994,7.25314399999999,1519
48.136663999999925,5.309143999999991,1557
49.10866399999992,4.661143999999991,1510
48.46066399999992,4.013143999999992,1550
48.136663999999925,4.661143999999991,1577
47.81266399999993,6.60514399999999,1471
47.48866399999993,5.957143999999991,1487
48.136663999999925,5.957143999999991,1886
45.86866399999994,7.90114399999999,1487
46.516663999999935,7.90114399999999,1457
49.43266399999992,3.365143999999992,1479
49.43266399999992,4.013143999999992,1488
48.136663999999925,2.717143999999992,1569
47.81266399999993,2.717143999999992,1581
47.48866399999993,2.717143999999992,1601
50.40466399999991,2.717143999999992,1443
48.46066399999992,-4.410856000000004,1771
48.46066399999992,-3.7628560000000046,1747
48.46066399999992,-3.114856000000005,1725
48.46066399999992,-2.4668560000000053,1705
47.48866399999993,1.4211439999999929,1568
47.16466399999993,1.4211439999999929,1617
46.516663999999935,4.013143999999992,1644
43.60066399999995,4.661143999999991,1690
44.89666399999994,2.717143999999992,1878
45.22066399999994,2.717143999999992,1828
45.54466399999994,3.365143999999992,1707
45.22066399999994,3.365143999999992,1732
47.48866399999993,3.365143999999992,1571
46.19266399999994,9.845143999999989,1594
47.81266399999993,2.0691439999999925,1564
47.48866399999993,2.0691439999999925,1700
45.86866399999994,2.717143999999992,1720
44.89666399999994,5.957143999999991,1667
45.22066399999994,1.4211439999999929,1755
44.89666399999994,1.4211439999999929,1832
44.89666399999994,2.0691439999999925,1850
43.276663999999954,2.0691439999999925,1798
43.60066399999995,1.4211439999999929,1758
48.78466399999992,4.661143999999991,1529
48.78466399999992,5.309143999999991,1453
46.19266399999994,2.0691439999999925,1862
45.86866399999994,1.4211439999999929,1738
46.19266399999994,1.4211439999999929,1689
44.572663999999946,4.013143999999992,1707
44.89666399999994,3.365143999999992,1842
43.92466399999995,4.013143999999992,1710
44.24866399999995,4.013143999999992,1727
44.89666399999994,-0.5228560000000062,1636
45.54466399999994,0.1251439999999934,1643
46.516663999999935,0.1251439999999934,1600
44.572663999999946,2.0691439999999925,1858
49.75666399999992,4.013143999999992,1470
43.92466399999995,3.365143999999992,2067
43.92466399999995,2.717143999999992,2028
44.24866399999995,3.365143999999992,1978
44.572663999999946,3.365143999999992,1857
49.10866399999992,0.1251439999999934,1577
49.43266399999992,0.7731439999999932,1555
49.43266399999992,-1.8188560000000056,1676
49.10866399999992,-1.170856000000006,1651
49.10866399999992,-0.5228560000000062,1606
49.10866399999992,0.7731439999999932,1619
49.10866399999992,1.4211439999999929,1545
47.81266399999993,-1.8188560000000056,1623
47.81266399999993,-2.4668560000000053,1648
47.81266399999993,-3.114856000000005,1661
48.136663999999925,-3.7628560000000046,1724
44.572663999999946,9.197143999999987,1736
44.89666399999994,8.54914399999999,1678
45.22066399999994,9.197143999999987,1579
45.54466399999994,10.493143999999988,1627
44.572663999999946,10.493143999999988,1798
44.89666399999994,10.493143999999988,1693
44.89666399999994,9.845143999999989,1601
48.46066399999992,5.309143999999991,1575
50.91599999999999,-1.0580000000000025,65535
51.23999999999999,-0.4100000000000028,65535
50.91599999999999,-0.4100000000000028,65535
51.23999999999999,-2.354000000000002,65535
51.56399999999999,-2.354000000000002,65535
51.56399999999999,-3.0020000000000016,65535
50.91599999999999,-2.354000000000002,65535
53.50799999999997,-3.0020000000000016,65535
53.183999999999976,-2.354000000000002,65535
53.183999999999976,-3.0020000000000016,65535
52.85999999999998,-2.354000000000002,65535
52.21199999999998,-1.0580000000000025,65535
51.887999999999984,-1.0580000000000025,65535
52.53599999999998,-1.0580000000000025,65535
52.53599999999998,-1.7060000000000022,65535
52.85999999999998,-1.7060000000000022,65535
53.50799999999997,-2.354000000000002,65535
52.85999999999998,-1.0580000000000025,65535
52.53599999999998,1.5339999999999965,65535
52.53599999999998,0.8859999999999966,65535
52.53599999999998,0.2379999999999968,65535
52.53599999999998,-0.4100000000000028,65535
53.50799999999997,-1.7060000000000022,65535
53.183999999999976,-1.7060000000000022,65535
53.183999999999976,-1.0580000000000025,65535
52.85999999999998,-0.4100000000000028,65535
51.887999999999984,-2.354000000000002,65535
52.21199999999998,-2.354000000000002,65535
55.77599999999996,-2.354000000000002,65535
53.83199999999997,-1.0580000000000025,65535
53.83199999999997,-1.7060000000000022,65535
55.127999999999965,-1.7060000000000022,65535
54.80399999999997,-1.7060000000000022,65535
54.47999999999997,-1.7060000000000022,65535
54.15599999999997,-1.0580000000000025,65535
52.21199999999998,-1.7060000000000022,65535
53.50799999999997,-1.0580000000000025,65535
55.77599999999996,-3.0020000000000016,65535
55.45199999999996,-1.7060000000000022,65535
57.07199999999995,-2.354000000000002,65535
56.74799999999996,-3.0020000000000016,65535
56.42399999999996,-3.0020000000000016,65535
56.09999999999996,-3.650000000000001,65535
50.91599999999999,-3.0020000000000016,65535
50.91599999999999,-3.650000000000001,65535
50.59199999999999,-3.650000000000001,65535
50.59199999999999,-4.298000000000001,65535
51.23999999999999,-3.0020000000000016,65535
50.268,-4.946000000000001,65535
55.77599999999996,-3.650000000000001,65535
55.77599999999996,-4.298000000000001,65535
52.21199999999998,-0.4100000000000028,65535
52.53599999999998,-2.354000000000002,65535
51.56399999999999,-1.7060000000000022,65535
51.56399999999999,-3.650000000000001,65535
51.887999999999984,-4.298000000000001,65535
51.56399999999999,-4.298000000000001,65535
51.887999999999984,-1.7060000000000022,65535
52.21199999999998,-3.0020000000000016,65535
51.23999999999999,0.2379999999999968,65535
50.91599999999999,0.2379999999999968,65535
52.21199999999998,0.2379999999999968,65535
53.83199999999997,-3.0020000000000016,65535
54.15599999999997,-3.0020000000000016,65535
54.47999999999997,-3.0020000000000016,65535
55.127999999999965,-3.650000000000001,65535
54.80399999999997,-3.0020000000000016,65535
53.83199999999997,-2.354000000000002,65535
54.15599999999997,-0.4100000000000028,65535
54.47999999999997,-1.0580000000000025,65535
53.83199999999997,-0.4100000000000028,65535
53.183999999999976,-3.650000000000001,65535
53.183999999999976,-4.298000000000001,65535
52.85999999999998,-3.0020000000000016,65535
52.53599999999998,-3.0020000000000016,65535
51.887999999999984,-3.0020000000000016,65535
51.23999999999999,0.8859999999999966,65535
51.887999999999984,0.2379999999999968,65535
52.21199999999998,0.8859999999999966,65535
51.887999999999984,-4.946000000000001,65535
52.53599999999998,-3.650000000000001,65535
52.21199999999998,-4.298000000000001,65535
53.183999999999976,-0.4100000000000028,65535
51.23999999999999,-3.650000000000001,65535
51.887999999999984,-3.650000000000001,65535
52.21199999999998,-3.650000000000001,65535
51.56399999999999,0.8859999999999966,65535
51.887999999999984,0.8859999999999966,65535
52.85999999999998,0.8859999999999966,65535
53.50799999999997,-0.4100000000000028,65535
56.09999999999996,-4.298000000000001,65535
56.74799999999996,-4.946000000000001,65535
56.74799999999996,-4.298000000000001,65535
56.42399999999996,-4.946000000000001,65535
56.42399999999996,-4.298000000000001,65535
56.09999999999996,-4.946000000000001,65535
57.39599999999995,-4.298000000000001,65535
57.39599999999995,-3.0020000000000016,65535
57.39599999999995,-3.650000000000001,65535
56.42399999999996,-3.650000000000001,65535
57.07199999999995,-3.650000000000001,65535
57.07199999999995,-4.298000000000001,65535
56.74799999999996,-3.650000000000001,65535
59.15266399999986,27.34114399999998,65535
59.47666399999986,26.69314399999997,65535
59.47666399999986,26.04514399999998,65535
59.15266399999986,26.04514399999998,65535
59.15266399999986,24.74914399999998,65535
59.15266399999986,25.397143999999983,65535
59.47666399999986,25.397143999999983,65535
58.50466399999986,26.69314399999997,65535
58.82866399999986,26.69314399999997,65535
57.85666399999987,26.04514399999998,65535
58.180663999999865,26.04514399999998,65535
58.180663999999865,26.69314399999997,65535
58.82866399999986,26.04514399999998,65535
58.50466399999986,25.397143999999983,65535
58.82866399999986,25.397143999999983,65535
58.82866399999986,24.74914399999998,65535
58.180663999999865,27.34114399999998,65535
57.85666399999987,27.34114399999998,65535
63.68866399999983,27.34114399999998,7557
60.124663999999854,24.74914399999998,7093
60.44866399999985,24.74914399999998,7062
60.44866399999985,25.397143999999983,7074
60.77266399999985,25.397143999999983,7280
61.09666399999985,26.04514399999998,7322
60.77266399999985,26.04514399999998,7329
60.77266399999985,26.69314399999997,7348
61.09666399999985,25.397143999999983,7313
61.09666399999985,26.69314399999997,7678
61.420663999999846,26.69314399999997,7700
61.74466399999984,27.34114399999998,7724
62.06866399999984,27.34114399999998,7749
62.39266399999984,27.34114399999998,7773
62.71666399999984,27.34114399999998,7737
64.01266399999983,27.34114399999998,7905
63.36466399999984,27.34114399999998,7625
63.04066399999984,27.34114399999998,7665
63.04066399999984,27.989143999999985,7680
64.33666399999983,27.989143999999985,7952
64.33666399999983,27.34114399999998,8028
64.66066399999983,27.34114399999998,8044
64.66066399999983,26.69314399999997,8055
64.98466399999982,25.397143999999983,6439
64.66066399999983,26.04514399999998,8085
64.98466399999982,26.04514399999998,8107
66.28066399999982,25.397143999999983,6516
65.95666399999982,24.74914399999998,6352
65.63266399999982,24.74914399999998,6356
65.63266399999982,25.397143999999983,6398
65.30866399999982,25.397143999999983,6419
66.60466399999981,25.397143999999983,6576
64.01266399999983,24.74914399999998,6576
64.01266399999983,24.101143999999977,6611
64.01266399999983,23.45314399999998,6635
63.68866399999983,23.45314399999998,6647
63.68866399999983,22.805143999999984,6672
63.68866399999983,26.04514399999998,7264
63.68866399999983,25.397143999999983,7230
63.68866399999983,26.69314399999997,7524
60.44866399999985,26.69314399999997,7516
64.01266399999983,27.989143999999985,7943
62.71666399999984,22.805143999999984,6794
62.39266399999984,22.805143999999984,6826
62.06866399999984,22.805143999999984,6855
62.06866399999984,23.45314399999998,6871
61.74466399999984,23.45314399999998,6883
61.420663999999846,23.45314399999998,6931
61.09666399999985,23.45314399999998,6972
61.09666399999985,24.101143999999977,6979
61.09666399999985,24.74914399999998,7013
60.77266399999985,24.74914399999998,7029
63.04066399999984,21.50914399999997,65535
63.04066399999984,22.15714399999998,65535
63.04066399999984,22.805143999999984,6758
62.39266399999984,26.04514399999998,7921
62.06866399999984,25.397143999999983,7970
61.74466399999984,25.397143999999983,8038
61.74466399999984,24.74914399999998,8075
61.74466399999984,24.101143999999977,8110
61.420663999999846,24.101143999999977,7454
62.39266399999984,26.69314399999997,7892
64.66066399999983,25.397143999999983,6508
64.66066399999983,24.74914399999998,6526
64.33666399999983,24.74914399999998,6537
63.36466399999984,22.805143999999984,6697
67.25266399999981,24.101143999999977,8666
66.92866399999981,24.101143999999977,8630
66.60466399999981,23.45314399999998,8599
66.28066399999982,23.45314399999998,8581
66.28066399999982,24.101143999999977,8563
65.95666399999982,24.101143999999977,4479
60.124663999999854,24.101143999999977,7286
60.124663999999854,23.45314399999998,7323
60.44866399999985,22.805143999999984,65535
60.77266399999985,27.34114399999998,7406
61.09666399999985,27.989143999999985,7438
61.09666399999985,28.63714399999997,7484
61.420663999999846,29.28514399999997,9171
61.74466399999984,29.933143999999977,9229
62.06866399999984,29.933143999999977,9335
62.39266399999984,29.933143999999977,9373
62.71666399999984,29.933143999999977,9406
61.420663999999846,22.805143999999984,6967
61.420663999999846,22.15714399999998,7046
61.09666399999985,22.15714399999998,7034
61.420663999999846,21.50914399999997,7179
62.39266399999984,27.989143999999985,65535
62.06866399999984,27.989143999999985,65535
61.420663999999846,27.34114399999998,65535
63.04066399999984,29.933143999999977,65535
63.68866399999983,29.28514399999997,65535
63.36466399999984,29.28514399999997,65535
63.36466399999984,29.933143999999977,65535
60.44866399999985,27.34114399999998,65535
61.74466399999984,29.28514399999997,65535
62.39266399999984,30.58114399999998,65535
62.71666399999984,31.229143999999977,65535
62.71666399999984,29.28514399999997,65535
63.04066399999984,28.63714399999997,65535
66.60466399999981,26.04514399999998,6586
66.60466399999981,26.69314399999997,6622
66.60466399999981,27.34114399999998,6645
62.71666399999984,26.04514399999998,7806
62.71666399999984,25.397143999999983,7775
63.04066399999984,25.397143999999983,7595
63.36466399999984,25.397143999999983,7558
62.71666399999984,23.45314399999998,7800
62.39266399999984,24.101143999999977,65535
62.71666399999984,22.15714399999998,65535
62.39266399999984,22.15714399999998,65535
62.39266399999984,21.50914399999997,65535
61.09666399999985,21.50914399999997,8857
60.77266399999985,22.805143999999984,8283
60.44866399999985,22.15714399999998,8331
60.77266399999985,23.45314399999998,8265
60.77266399999985,21.50914399999997,8433
60.77266399999985,22.15714399999998,8386
60.124663999999854,22.805143999999984,8599
60.44866399999985,24.101143999999977,7272
62.06866399999984,24.74914399999998,65535
50.72866399999991,16.325143999999987,682
50.40466399999991,16.973143999999984,698
50.72866399999991,16.973143999999984,678
50.40466399999991,16.325143999999987,800
50.08066399999991,16.973143999999984,891
50.08066399999991,16.325143999999987,788
51.700663999999904,16.973143999999984,723
51.37666399999991,16.973143999999984,684
51.05266399999991,15.677143999999986,797
50.72866399999991,15.677143999999986,702
51.05266399999991,17.621143999999987,656
51.37666399999991,17.621143999999987,694
51.700663999999904,17.621143999999987,762
51.700663999999904,16.325143999999987,743
52.0246639999999,22.15714399999998,268
52.0246639999999,21.50914399999997,304
52.3486639999999,21.50914399999997,324
52.0246639999999,20.86114399999998,321
51.700663999999904,20.86114399999998,392
51.37666399999991,21.50914399999997,379
51.37666399999991,20.86114399999998,399
51.05266399999991,20.86114399999998,416
52.6726639999999,23.45314399999998,123
52.3486639999999,22.805143999999984,207
52.3486639999999,20.213143999999986,373
52.0246639999999,20.213143999999986,341
52.3486639999999,19.565143999999982,607
52.6726639999999,19.565143999999982,520
51.700663999999904,21.50914399999997,347
51.700663999999904,22.15714399999998,321
52.6726639999999,21.50914399999997,333
52.996663999999896,21.50914399999997,360
52.6726639999999,20.86114399999998,323
52.6726639999999,22.15714399999998,349
52.6726639999999,20.213143999999986,460
52.996663999999896,19.565143999999982,531
52.996663999999896,20.86114399999998,357
52.996663999999896,20.213143999999986,425
53.32066399999989,20.213143999999986,454
51.37666399999991,20.213143999999986,499
52.3486639999999,16.973143999999984,765
52.0246639999999,16.973143999999984,768
52.0246639999999,16.325143999999987,749
52.0246639999999,17.621143999999987,800
52.6726639999999,16.973143999999984,760
52.996663999999896,16.973143999999984,733
52.3486639999999,16.325143999999987,787
52.3486639999999,15.677143999999986,834
51.700663999999904,18.269143999999983,954
52.6726639999999,17.621143999999987,725
52.3486639999999,17.621143999999987,737
52.6726639999999,18.269143999999983,682
52.3486639999999,18.269143999999983,700
52.3486639999999,18.917143999999983,663
52.996663999999896,17.621143999999987,761
51.700663999999904,19.565143999999982,1310
51.700663999999904,18.917143999999983,1386
51.37666399999991,18.269143999999983,645
58.82866399999986,9.197143999999987,3248
58.180663999999865,7.90114399999999,3341
58.50466399999986,8.54914399999999,3292
63.36466399999984,10.493143999999988,3463
63.36466399999984,11.141143999999988,3470
63.36466399999984,11.789143999999988,3505
63.68866399999983,11.789143999999988,3533
64.33666399999983,12.437143999999988,3934
64.66066399999983,12.437143999999988,4429
65.63266399999982,13.085143999999987,4086
65.95666399999982,13.085143999999987,4121
66.28066399999982,14.381143999999988,4191
65.95666399999982,13.733143999999989,4260
66.28066399999982,13.733143999999989,4169
65.30866399999982,13.085143999999987,4387
64.98466399999982,13.085143999999987,4021
64.01266399999983,11.789143999999988,3564
63.68866399999983,11.141143999999988,3501
59.800663999999855,10.493143999999988,3044
59.800663999999855,11.141143999999988,3027
60.124663999999854,11.141143999999988,3042
60.44866399999985,11.141143999999988,3055
60.124663999999854,11.789143999999988,3068
60.77266399999985,7.25314399999999,3304
60.77266399999985,6.60514399999999,3350
59.15266399999986,9.197143999999987,3130
59.47666399999986,9.197143999999987,3151
59.800663999999855,9.845143999999989,3046
59.47666399999986,11.141143999999988,2991
61.09666399999985,10.493143999999988,3165
60.77266399999985,10.493143999999988,3135
60.77266399999985,11.141143999999988,3090
62.06866399999984,9.197143999999987,3490
61.74466399999984,9.845143999999989,3436
61.420663999999846,9.845143999999989,3413
59.15266399999986,9.845143999999989,3110
59.47666399999986,9.845143999999989,3086
58.82866399999986,5.957143999999991,3525
58.180663999999865,7.25314399999999,3397
58.50466399999986,7.25314399999999,3430
58.50466399999986,6.60514399999999,3435
58.50466399999986,5.957143999999991,3493
58.82866399999986,8.54914399999999,3278
60.44866399999985,7.25314399999999,3278
60.44866399999985,7.90114399999999,3239
60.124663999999854,10.493143999999988,3076
60.44866399999985,9.197143999999987,3188
60.77266399999985,9.197143999999987,3200
60.77266399999985,8.54914399999999,3219
60.124663999999854,9.845143999999989,3334
60.44866399999985,10.493143999999988,3121
63.04066399999984,10.493143999999988,3414
62.06866399999984,9.845143999999989,3515
62.39266399999984,9.845143999999989,3523
62.71666399999984,9.845143999999989,3547
59.47666399999986,14.381143999999988,2997
59.47666399999986,13.733143999999989,2981
59.47666399999986,13.085143999999987,2957
59.800663999999855,12.437143999999988,3026
59.15266399999986,11.141143999999988,2955
59.15266399999986,14.381143999999988,2981
58.82866399999986,11.789143999999988,2935
58.50466399999986,12.437143999999988,2865
58.180663999999865,12.437143999999988,2858
57.85666399999987,11.789143999999988,2809
62.71666399999984,7.90114399999999,3576
62.39266399999984,7.90114399999999,3533
62.06866399999984,8.54914399999999,3508
60.44866399999985,5.309143999999991,3424
60.44866399999985,5.957143999999991,3391
60.77266399999985,5.957143999999991,3380
62.39266399999984,11.141143999999988,3311
62.06866399999984,10.493143999999988,3266
61.74466399999984,11.141143999999988,3239
61.420663999999846,11.141143999999988,3193
61.09666399999985,11.141143999999988,3176
60.77266399999985,11.789143999999988,3153
63.04066399999984,11.141143999999988,3392
62.71666399999984,11.141143999999988,3335
62.39266399999984,10.493143999999988,3293
67.25266399999981,15.677143999999986,4310
67.25266399999981,15.029143999999986,4348
67.25266399999981,14.381143999999988,4376
66.92866399999981,15.029143999999986,4299
66.60466399999981,15.677143999999986,4277
64.01266399999983,11.141143999999988,3548
66.60466399999981,15.029143999999986,4340
54.29266399999989,18.269143999999983,536
54.616663999999886,17.621143999999987,554
53.96866399999989,18.269143999999983,547
43.92466399999995,1.4211439999999929,1742
44.24866399999995,0.7731439999999932,1704
44.572663999999946,0.1251439999999934,1705
46.84066399999993,1.4211439999999929,1644
44.572663999999946,1.4211439999999929,1824
44.24866399999995,1.4211439999999929,1790
45.54466399999994,1.4211439999999929,1779
46.516663999999935,1.4211439999999929,1660
42.30466399999996,2.717143999999992,1891
44.24866399999995,2.717143999999992,1929
44.572663999999946,2.717143999999992,1963
43.92466399999995,2.0691439999999925,1752
42.30466399999996,2.0691439999999925,1947
42.62866399999996,2.0691439999999925,1889
42.62866399999996,1.4211439999999929,1882
42.95266399999996,1.4211439999999929,1792
43.276663999999954,1.4211439999999929,1786
46.516663999999935,-1.170856000000006,1680
46.19266399999994,-1.170856000000006,1705
45.86866399999994,-0.5228560000000062,1681
45.54466399999994,-0.5228560000000062,1662
48.46066399999992,1.4211439999999929,1495
41.332663999999966,2.0691439999999925,1974
41.98066399999996,2.717143999999992,1933
48.46066399999992,-1.8188560000000056,1630
47.81266399999993,0.7731439999999932,1723
46.84066399999993,0.7731439999999932,1660
44.572663999999946,-1.170856000000006,1645
43.60066399999995,-1.170856000000006,1845
43.276663999999954,-1.8188560000000056,1935
43.276663999999954,0.1251439999999934,1970
42.95266399999996,0.1251439999999934,1935
43.276663999999954,-0.5228560000000062,1881
43.60066399999995,-0.5228560000000062,1870
47.81266399999993,-3.7628560000000046,1708
47.48866399999993,-2.4668560000000053,1664
47.81266399999993,-0.5228560000000062,1609
46.516663999999935,-1.8188560000000056,1708
48.136663999999925,-1.170856000000006,1692
47.48866399999993,-1.170856000000006,1616
45.22066399999994,8.54914399999999,1624
45.22066399999994,7.90114399999999,1635
46.19266399999994,-0.5228560000000062,1661
46.516663999999935,-0.5228560000000062,1643
48.78466399999992,-3.114856000000005,1764
50.72866399999991,2.0691439999999925,1458
50.40466399999991,2.0691439999999925,1472
40.36066399999997,-3.7628560000000046,3345
41.65666399999997,-1.170856000000006,3262
41.332663999999966,1.4211439999999929,3200
43.276663999999954,13.733143999999989,4390
42.95266399999996,13.733143999999989,4412
41.65666399999997,15.029143999999986,4496
40.68466399999997,17.621143999999987,4658
43.60066399999995,13.085143999999987,4383
41.65666399999997,12.437143999999988,3049
41.65666399999997,13.085143999999987,3068
41.98066399999996,13.085143999999987,3118
41.65666399999997,13.733143999999989,3120
41.332663999999966,13.733143999999989,3112
41.332663999999966,14.381143999999988,3269
41.00866399999997,14.381143999999988,3175
41.332663999999966,13.085143999999987,3094
41.00866399999997,15.029143999999986,3375
41.98066399999996,13.733143999999989,3317
42.30466399999996,14.381143999999988,3456
42.30466399999996,12.437143999999988,3057
42.62866399999996,12.437143999999988,3236
42.95266399999996,12.437143999999988,3521
42.30466399999996,11.789143999999988,3066
42.95266399999996,11.789143999999988,3276
42.62866399999996,11.789143999999988,3267
43.276663999999954,11.789143999999988,3330
42.95266399999996,13.085143999999987,4284
42.30466399999996,13.085143999999987,3343
43.276663999999954,13.085143999999987,4332
43.276663999999954,12.437143999999988,4339
42.62866399999996,11.141143999999988,3112
42.95266399999996,11.141143999999988,3155
42.95266399999996,10.493143999999988,3173
44.572663999999946,8.54914399999999,1684
44.89666399999994,7.90114399999999,1653
44.89666399999994,9.197143999999987,1692
44.24866399999995,7.90114399999999,1719
44.572663999999946,7.90114399999999,1661
43.92466399999995,7.90114399999999,1861
44.24866399999995,7.25314399999999,1716
44.89666399999994,7.25314399999999,1698
45.22066399999994,7.25314399999999,1648
45.54466399999994,7.90114399999999,1658
44.572663999999946,7.25314399999999,1942
52.996663999999896,22.805143999999984,28
52.996663999999896,23.45314399999998,13
51.37666399999991,22.15714399999998,384
51.37666399999991,22.805143999999984,438
50.08066399999991,20.213143999999986,582
50.72866399999991,20.213143999999986,505
50.40466399999991,20.213143999999986,544
50.08066399999991,20.86114399999998,641
50.08066399999991,21.50914399999997,600
50.08066399999991,22.15714399999998,590
50.08066399999991,22.805143999999984,594
53.96866399999989,22.805143999999984,161
53.64466399999989,23.45314399999998,115
53.32066399999989,23.45314399999998,0
50.40466399999991,19.565143999999982,563
50.08066399999991,18.917143999999983,606
50.08066399999991,18.269143999999983,668
52.0246639999999,22.805143999999984,304
52.0246639999999,23.45314399999998,340
51.37666399999991,19.565143999999982,1299
51.05266399999991,19.565143999999982,608
50.72866399999991,18.917143999999983,554
50.72866399999991,19.565143999999982,577
49.75666399999992,18.917143999999983,680
50.40466399999991,18.269143999999983,554
53.64466399999989,19.565143999999982,511
53.96866399999989,18.917143999999983,535
53.64466399999989,18.917143999999983,549
53.64466399999989,20.213143999999986,437
52.996663999999896,18.917143999999983,608
52.996663999999896,18.269143999999983,651
53.32066399999989,18.917143999999983,563
50.72866399999991,17.621143999999987,603
50.72866399999991,18.269143999999983,586
52.6726639999999,16.325143999999987,843
52.996663999999896,16.325143999999987,756
52.996663999999896,15.677143999999986,816
53.32066399999989,15.677143999999986,1296
53.32066399999989,15.029143999999986,1304
53.64466399999989,15.029143999999986,1283
53.96866399999989,15.029143999999986,1235
52.6726639999999,18.917143999999983,626
53.32066399999989,16.325143999999987,1316
52.6726639999999,15.029143999999986,862
51.05266399999991,22.805143999999984,462
51.05266399999991,23.45314399999998,495
50.72866399999991,22.15714399999998,456
50.40466399999991,22.15714399999998,512
51.05266399999991,22.15714399999998,435
54.616663999999886,16.973143999999984,596
54.29266399999989,16.325143999999987,748
53.96866399999989,15.677143999999986,756
50.72866399999991,21.50914399999997,572
50.40466399999991,21.50914399999997,584
50.40466399999991,17.621143999999987,741
53.32066399999989,22.805143999999984,154
53.64466399999989,22.15714399999998,213
54.29266399999989,16.973143999999984,655
50.72866399999991,20.86114399999998,489
51.700663999999904,22.805143999999984,517
51.05266399999991,21.50914399999997,491
50.08066399999991,19.565143999999982,605
52.0246639999999,18.917143999999983,8488
52.0246639999999,19.565143999999982,8481
53.64466399999989,18.269143999999983,567
51.700663999999904,20.213143999999986,654
53.32066399999989,19.565143999999982,487
50.72866399999991,23.45314399999998,666
50.72866399999991,22.805143999999984,637
49.43266399999992,20.213143999999986,743
49.75666399999992,21.50914399999997,615
49.75666399999992,22.15714399999998,1302
49.43266399999992,22.15714399999998,1314
51.05266399999991,18.917143999999983,597
51.05266399999991,18.269143999999983,656
53.32066399999989,16.973143999999984,696
53.64466399999989,16.973143999999984,669
49.75666399999992,20.86114399999998,745
50.40466399999991,22.805143999999984,8570
53.64466399999989,16.325143999999987,709
53.96866399999989,20.86114399999998,411
54.29266399999989,20.86114399999998,397
53.96866399999989,21.50914399999997,338
53.64466399999989,15.677143999999986,1266
53.96866399999989,20.213143999999986,478
53.96866399999989,19.565143999999982,523
54.29266399999989,19.565143999999982,574
53.96866399999989,16.325143999999987,722
53.64466399999989,17.621143999999987,573
53.96866399999989,22.15714399999998,230
53.64466399999989,21.50914399999997,336
53.64466399999989,20.86114399999998,380
52.6726639999999,15.677143999999986,840
51.05266399999991,20.213143999999986,1249
54.940663999999884,24.101143999999977,3681
54.616663999999886,23.45314399999998,3625
54.29266399999989,23.45314399999998,3488
53.64466399999989,22.805143999999984,203
53.96866399999989,16.973143999999984,694
50.40466399999991,20.86114399999998,563
53.32066399999989,18.269143999999983,764
49.75666399999992,19.565143999999982,619
50.40466399999991,23.45314399999998,925
49.75666399999992,20.213143999999986,721
49.43266399999992,19.565143999999982,746
49.43266399999992,20.86114399999998,782
53.96866399999989,17.621143999999987,1323
42.30466399999996,-1.8188560000000056,8799
41.98066399999996,-1.8188560000000056,8782
41.65666399999997,0.7731439999999932,8786
42.62866399999996,-1.8188560000000056,8914
42.95266399999996,-1.8188560000000056,8943
42.62866399999996,-3.114856000000005,9037
42.95266399999996,-2.4668560000000053,9015
42.62866399999996,-7.650856000000003,9379
42.30466399999996,-7.650856000000003,9439
42.30466399999996,-8.946856000000002,9575
42.30466399999996,-8.298856000000002,9549
41.98066399999996,-8.298856000000002,9538
42.30466399999996,-7.002856000000003,9321
42.62866399999996,-6.354856000000003,9263
42.30466399999996,-6.354856000000003,9218
42.62866399999996,-5.706856000000004,8718
41.98066399999996,-4.410856000000004,8672
42.30466399999996,-3.7628560000000046,9063
40.03666399999997,-0.5228560000000062,8766
39.38866399999998,-0.5228560000000062,8814
41.00866399999997,0.7731439999999932,8914
40.68466399999997,0.7731439999999932,8946
40.36066399999997,0.1251439999999934,9024
39.712663999999975,-0.5228560000000062,8923
38.41666399999998,-0.5228560000000062,8935
39.06466399999998,-0.5228560000000062,9057
38.74066399999998,-1.170856000000006,8943
41.332663999999966,0.7731439999999932,8974
41.65666399999997,2.717143999999992,8574
41.65666399999997,2.0691439999999925,8597
41.332663999999966,0.1251439999999934,8932
41.332663999999966,-0.5228560000000062,8876
41.65666399999997,-4.410856000000004,8646
40.03666399999997,-2.4668560000000053,8884
41.00866399999997,-4.410856000000004,8767
43.276663999999954,-5.706856000000004,8848
39.38866399999998,-1.170856000000006,8909
38.09266399999999,-1.170856000000006,9322
38.74066399999998,-0.5228560000000062,9085
37.76866399999999,-1.170856000000006,9387
39.06466399999998,-1.8188560000000056,8907
39.38866399999998,-3.114856000000005,8807
39.38866399999998,-2.4668560000000053,8863
39.06466399999998,-2.4668560000000053,8890
39.06466399999998,-3.114856000000005,8811
39.06466399999998,-3.7628560000000046,8785
38.74066399999998,-3.7628560000000046,8864
40.03666399999997,-3.7628560000000046,8763
40.03666399999997,-3.114856000000005,8963
40.03666399999997,-1.8188560000000056,9044
39.712663999999975,-1.8188560000000056,9009
39.712663999999975,-1.170856000000006,8945
40.36066399999997,-1.170856000000006,8964
40.68466399999997,-1.170856000000006,8942
41.00866399999997,-1.170856000000006,8930
41.332663999999966,-1.170856000000006,8770
43.276663999999954,-8.298856000000002,9539
42.95266399999996,-8.298856000000002,9507
41.65666399999997,-5.706856000000004,65535
41.98066399999996,-7.002856000000003,65535
41.98066399999996,-6.354856000000003,65535
41.332663999999966,-5.058856000000004,8885
43.276663999999954,-3.7628560000000046,9320
42.95266399999996,-4.410856000000004,9254
42.62866399999996,-4.410856000000004,9244
42.30466399999996,-4.410856000000004,9203
41.00866399999997,-5.706856000000004,8823
41.332663999999966,-1.8188560000000056,8716
40.68466399999997,-3.114856000000005,8670
41.00866399999997,-3.114856000000005,8721
41.00866399999997,-2.4668560000000053,8744
41.332663999999966,-2.4668560000000053,8797
40.68466399999997,-4.410856000000004,8707
40.36066399999997,-4.410856000000004,8791
40.68466399999997,-3.7628560000000046,8699
40.36066399999997,-3.114856000000005,8677
41.65666399999997,-2.4668560000000053,8814
38.09266399999999,-3.7628560000000046,8911
38.74066399999998,-3.114856000000005,8855
37.76866399999999,-3.7628560000000046,8968
39.712663999999975,-3.114856000000005,8799
38.41666399999998,-3.7628560000000046,8876
40.03666399999997,-4.410856000000004,65535
40.03666399999997,-5.058856000000004,65535
39.38866399999998,-6.354856000000003,65535
39.38866399999998,-7.002856000000003,65535
42.95266399999996,-3.114856000000005,9448
41.98066399999996,-1.170856000000006,8811
42.30466399999996,-2.4668560000000053,8852
41.65666399999997,-0.5228560000000062,8909
41.98066399999996,-0.5228560000000062,8746
41.65666399999997,0.1251439999999934,8773
41.98066399999996,0.1251439999999934,8795
37.76866399999999,-5.058856000000004,8847
36.79666399999999,-4.410856000000004,8906
38.74066399999998,-4.410856000000004,8803
37.12066399999999,-4.410856000000004,8880
37.44466399999999,-5.058856000000004,9404
37.44466399999999,-7.002856000000003,65535
37.44466399999999,-6.354856000000003,65535
37.44466399999999,-5.706856000000004,9080
39.712663999999975,-3.7628560000000046,8873
42.62866399999996,-8.946856000000002,65535
42.30466399999996,-5.706856000000004,9225
42.30466399999996,-5.058856000000004,9310
42.95266399999996,-5.706856000000004,8750
41.00866399999997,-5.058856000000004,8791
40.68466399999997,-5.058856000000004,8765
41.65666399999997,-5.058856000000004,65535
41.65666399999997,-6.354856000000003,65535
36.79666399999999,-6.354856000000003,65535
37.12066399999999,-5.706856000000004,9248
37.76866399999999,-5.706856000000004,9047
38.09266399999999,-4.410856000000004,9182
37.12066399999999,-5.058856000000004,9202
36.79666399999999,-5.058856000000004,9160
37.76866399999999,-4.410856000000004,65535
37.76866399999999,-7.002856000000003,65535
38.41666399999998,-6.354856000000003,65535
38.09266399999999,-6.354856000000003,65535
48.78466399999992,1.4211439999999929,1561
56.23666399999988,8.54914399999999,7090
55.58866399999988,9.197143999999987,6895
55.91266399999988,9.197143999999987,7036
55.26466399999988,10.493143999999988,2514
55.91266399999988,12.437143999999988,2649
55.58866399999988,11.789143999999988,6735
55.58866399999988,11.141143999999988,6776
55.26466399999988,11.789143999999988,6768
55.58866399999988,10.493143999999988,6891
55.58866399999988,13.085143999999987,2606
56.88466399999987,9.845143999999989,7042
57.20866399999987,9.845143999999989,7077
56.56066399999988,9.845143999999989,7014
56.88466399999987,8.54914399999999,7129
54.940663999999884,9.845143999999989,8236
54.940663999999884,11.789143999999988,6992
55.91266399999988,13.085143999999987,2664
56.23666399999988,13.733143999999989,2708
55.91266399999988,13.733143999999989,2711
56.23666399999988,14.381143999999988,2731
56.23666399999988,15.029143999999986,2772
56.23666399999988,15.677143999999986,2827
56.56066399999988,14.381143999999988,2788
56.88466399999987,14.381143999999988,2758
56.23666399999988,13.085143999999987,2656
56.56066399999988,13.085143999999987,2736
56.88466399999987,12.437143999999988,2773
57.20866399999987,12.437143999999988,2789
57.53266399999987,12.437143999999988,2804
56.88466399999987,15.029143999999986,2784
56.56066399999988,15.677143999999986,2844
56.88466399999987,15.677143999999986,2863
56.88466399999987,16.325143999999987,2878
55.91266399999988,11.789143999999988,7061
57.20866399999987,10.493143999999988,7264
49.43266399999992,1.4211439999999929,1586
49.75666399999992,0.7731439999999932,1578
49.75666399999992,2.0691439999999925,1510
50.08066399999991,2.717143999999992,1490
49.75666399999992,1.4211439999999929,1564
47.81266399999993,1.4211439999999929,1590
48.136663999999925,2.0691439999999925,1989
48.46066399999992,2.0691439999999925,1616
48.136663999999925,1.4211439999999929,1590
48.78466399999992,0.1251439999999934,1665
48.46066399999992,0.1251439999999934,1730
47.81266399999993,0.1251439999999934,1597
46.84066399999993,-0.5228560000000062,1602
47.16466399999993,0.7731439999999932,1549
46.84066399999993,0.1251439999999934,1727
46.84066399999993,-1.170856000000006,1652
50.08066399999991,1.4211439999999929,1587
50.08066399999991,2.0691439999999925,1604
49.43266399999992,2.717143999999992,1498
49.75666399999992,3.365143999999992,1463
50.08066399999991,3.365143999999992,1462
49.10866399999992,2.0691439999999925,1523
49.43266399999992,2.0691439999999925,1511
48.78466399999992,0.7731439999999932,1622
48.78466399999992,-0.5228560000000062,1761
48.78466399999992,-1.170856000000006,1710
48.136663999999925,0.7731439999999932,1549
48.46066399999992,0.7731439999999932,1571
43.92466399999995,5.957143999999991,1833
44.24866399999995,5.957143999999991,1859
43.92466399999995,5.309143999999991,1690
42.95266399999996,2.717143999999992,1818
45.54466399999994,2.0691439999999925,1846
45.22066399999994,2.0691439999999925,1793
42.95266399999996,2.0691439999999925,1931
42.95266399999996,0.7731439999999932,1886
43.276663999999954,0.7731439999999932,1827
46.19266399999994,0.7731439999999932,1732
46.516663999999935,0.7731439999999932,1689
45.86866399999994,0.1251439999999934,1745
46.19266399999994,0.1251439999999934,1749
47.81266399999993,-1.170856000000006,1803
48.136663999999925,-2.4668560000000053,1727
47.48866399999993,-1.8188560000000056,1647
47.16466399999993,-1.170856000000006,1629
47.16466399999993,-0.5228560000000062,1611
46.84066399999993,-1.8188560000000056,1676
45.22066399999994,-0.5228560000000062,1667
44.89666399999994,0.1251439999999934,1682
45.22066399999994,0.7731439999999932,1721
45.54466399999994,0.7731439999999932,1793
45.86866399999994,0.7731439999999932,1958
45.22066399999994,0.1251439999999934,1744
44.89666399999994,0.7731439999999932,1735
43.92466399999995,-0.5228560000000062,1776
43.92466399999995,-1.170856000000006,1756
44.24866399999995,-1.170856000000006,1710
45.22066399999994,-1.170856000000006,1698
44.572663999999946,-0.5228560000000062,1669
44.24866399999995,0.1251439999999934,1757
44.572663999999946,0.7731439999999932,1757
43.276663999999954,-1.170856000000006,1912
42.95266399999996,-0.5228560000000062,1893
44.24866399999995,2.0691439999999925,1809
43.60066399999995,0.7731439999999932,1814
43.60066399999995,2.0691439999999925,1816
52.6726639999999,4.661143999999991,7081
52.6726639999999,5.309143999999991,7104
51.700663999999904,5.309143999999991,7049
52.0246639999999,5.309143999999991,7061
52.3486639999999,5.309143999999991,7077
51.37666399999991,4.013143999999992,7057
52.3486639999999,5.957143999999991,7071
52.0246639999999,6.60514399999999,7101
52.6726639999999,5.957143999999991,7088
52.996663999999896,5.957143999999991,7101
53.32066399999989,5.957143999999991,7095
52.996663999999896,6.60514399999999,7077
53.32066399999989,6.60514399999999,7069
52.6726639999999,6.60514399999999,7097
52.996663999999896,5.309143999999991,7116
59.15266399999986,24.101143999999977,65535
56.88466399999987,24.101143999999977,65535
56.88466399999987,23.45314399999998,65535
56.88466399999987,22.805143999999984,65535
57.20866399999987,24.74914399999998,65535
56.88466399999987,24.74914399999998,65535
56.56066399999988,24.74914399999998,65535
56.56066399999988,25.397143999999983,65535
56.56066399999988,24.101143999999977,65535
56.56066399999988,23.45314399999998,65535
56.56066399999988,26.04514399999998,65535
56.88466399999987,26.04514399999998,65535
57.20866399999987,25.397143999999983,65535
57.53266399999987,25.397143999999983,65535
56.23666399999988,26.04514399999998,65535
56.23666399999988,26.69314399999997,65535
55.91266399999988,26.69314399999997,65535
56.56066399999988,26.69314399999997,65535
56.56066399999988,27.34114399999998,65535
56.56066399999988,27.989143999999985,65535
56.23666399999988,27.989143999999985,65535
55.91266399999988,27.34114399999998,65535
56.56066399999988,22.805143999999984,65535
56.56066399999988,22.15714399999998,65535
56.56066399999988,21.50914399999997,65535
57.20866399999987,26.69314399999997,65535
39.06466399999998,-8.946856000000002,65535
38.41666399999998,-8.298856000000002,65535
45.86866399999994,11.789143999999988,2068
46.19266399999994,11.789143999999988,2055
46.19266399999994,10.493143999999988,2095
45.22066399999994,18.269143999999983,1932
45.22066399999994,18.917143999999983,1973
45.54466399999994,16.973143999999984,1835
45.22066399999994,17.621143999999987,1876
45.86866399999994,16.325143999999987,1796
45.54466399999994,18.917143999999983,2020
45.54466399999994,16.325143999999987,1810
45.54466399999994,18.269143999999983,1988
44.89666399999994,18.917143999999983,2170
46.19266399999994,16.973143999999984,1796
46.19266399999994,16.325143999999987,1801
45.86866399999994,16.973143999999984,1813
45.86866399999994,17.621143999999987,1908
46.19266399999994,15.677143999999986,1770
46.516663999999935,16.325143999999987,1775
45.54466399999994,15.677143999999986,1845
45.22066399999994,15.029143999999986,1881
45.54466399999994,15.029143999999986,1842
45.22066399999994,15.677143999999986,1906
44.572663999999946,15.677143999999986,2059
44.24866399999995,15.677143999999986,2080
43.92466399999995,16.325143999999987,2144
44.89666399999994,15.677143999999986,2023
45.54466399999994,17.621143999999987,1887
45.22066399999994,16.325143999999987,1865
46.516663999999935,16.973143999999984,1788
45.86866399999994,18.269143999999983,2080
43.92466399999995,15.677143999999986,2246
45.22066399999994,13.733143999999989,1890
47.48866399999993,19.565143999999982,1247
47.16466399999993,18.917143999999983,1248
47.81266399999993,18.917143999999983,1226
45.54466399999994,9.845143999999989,1579
45.22066399999994,9.845143999999989,1586
45.22066399999994,10.493143999999988,1638
45.86866399999994,9.845143999999989,1599
45.86866399999994,10.493143999999988,2838
48.78466399999992,21.50914399999997,1265
49.10866399999992,20.213143999999986,889
49.10866399999992,18.917143999999983,786
48.46066399999992,17.621143999999987,1228
49.43266399999992,17.621143999999987,1453
49.10866399999992,17.621143999999987,1312
48.136663999999925,18.269143999999983,1147
49.10866399999992,18.269143999999983,793
49.43266399999992,18.269143999999983,848
49.43266399999992,16.973143999999984,728
49.75666399999992,16.973143999999984,1401
49.75666399999992,16.325143999999987,767
50.08066399999991,15.677143999999986,810
50.08066399999991,15.029143999999986,830
49.43266399999992,18.917143999999983,767
47.81266399999993,20.86114399999998,1435
48.136663999999925,20.86114399999998,1380
48.46066399999992,20.86114399999998,1284
48.46066399999992,21.50914399999997,1280
49.10866399999992,19.565143999999982,801
48.136663999999925,17.621143999999987,1186
48.78466399999992,22.15714399999998,1390
48.78466399999992,20.86114399999998,1439
49.10866399999992,20.86114399999998,927
48.78466399999992,18.269143999999983,863
48.78466399999992,17.621143999999987,1214
49.10866399999992,21.50914399999997,1246
48.78466399999992,20.213143999999986,1435
48.46066399999992,20.213143999999986,1456
48.136663999999925,19.565143999999982,2085
48.46066399999992,19.565143999999982,1964
48.46066399999992,18.917143999999983,1294
48.46066399999992,18.269143999999983,922
48.78466399999992,19.565143999999982,1380
48.78466399999992,18.917143999999983,1369
47.81266399999993,18.269143999999983,1267
49.10866399999992,22.15714399999998,1340
49.43266399999992,21.50914399999997,1294
48.136663999999925,18.917143999999983,1211
48.136663999999925,20.213143999999986,2105
52.636,-8.018,65535
52.312,-7.370000000000001,65535
52.312,-8.018,65535
52.636,-8.666,65535
51.988,-8.666,65535
51.988,-8.018,65535
52.96,-8.666,65535
52.96,-6.074000000000002,65535
53.28399999999999,-6.722000000000001,65535
53.60799999999999,-6.722000000000001,65535
53.60799999999999,-7.370000000000001,65535
53.60799999999999,-8.018,65535
54.25599999999999,-8.666,65535
53.93199999999999,-8.666,65535
53.93199999999999,-8.018,65535
52.312,-6.722000000000001,65535
52.636,-6.722000000000001,65535
53.93199999999999,-6.722000000000001,65535
54.25599999999999,-6.074000000000002,65535
53.28399999999999,-7.370000000000001,65535
52.96,-7.370000000000001,65535
52.312,-8.666,65535
52.96,-8.018,65535
52.636,-7.370000000000001,65535
52.96,-6.722000000000001,65535
51.988,-9.314,65535
52.312,-9.314,65535
54.579999999999984,-6.722000000000001,65535
54.579999999999984,-6.074000000000002,65535
53.28399999999999,-8.018,65535
53.28399999999999,-8.666,65535
53.28399999999999,-9.314,65535
53.93199999999999,-9.314,65535
54.25599999999999,-9.314,65535
53.60799999999999,-8.666,65535
53.60799999999999,-9.314,65535
49.43266399999992,14.381143999999988,894
49.75666399999992,14.381143999999988,872
49.75666399999992,15.029143999999986,868
49.75666399999992,13.733143999999989,925
50.08066399999991,13.733143999999989,893
49.75666399999992,15.677143999999986,850
50.40466399999991,15.029143999999986,871
49.43266399999992,13.733143999999989,976
50.40466399999991,15.677143999999986,1223
50.40466399999991,13.733143999999989,928
46.19266399999994,15.029143999999986,1753
45.86866399999994,15.029143999999986,1798
45.86866399999994,14.381143999999988,1775
46.19266399999994,13.733143999999989,1862
45.86866399999994,13.733143999999989,1948
58.50466399999986,13.733143999999989,2900
58.180663999999865,13.733143999999989,2886
58.180663999999865,13.085143999999987,2858
57.85666399999987,12.437143999999988,2822
60.44866399999985,15.677143999999986,3107
60.124663999999854,15.677143999999986,3041
60.124663999999854,16.325143999999987,3079
59.800663999999855,16.325143999999987,3007
59.800663999999855,17.621143999999987,2986
59.47666399999986,18.269143999999983,2968
61.74466399999984,16.973143999999984,3118
61.420663999999846,16.973143999999984,3091
60.77266399999985,16.973143999999984,3043
65.63266399999982,22.15714399999998,4222
65.95666399999982,21.50914399999997,4182
65.63266399999982,20.86114399999998,4153
64.98466399999982,20.213143999999986,4085
64.66066399999983,20.213143999999986,4063
64.33666399999983,19.565143999999982,3757
64.01266399999983,19.565143999999982,3470
63.68866399999983,20.213143999999986,3423
64.66066399999983,18.917143999999983,6134
59.15266399999986,16.325143999999987,2943
59.15266399999986,15.029143999999986,2947
59.15266399999986,17.621143999999987,2960
57.53266399999987,14.381143999999988,2784
57.53266399999987,15.029143999999986,2804
61.09666399999985,14.381143999999988,3211
60.77266399999985,15.029143999999986,3162
60.44866399999985,15.029143999999986,3148
58.180663999999865,15.029143999999986,2861
58.50466399999986,16.325143999999987,2895
58.50466399999986,15.677143999999986,2868
63.36466399999984,13.085143999999987,3455
63.04066399999984,14.381143999999988,3392
62.39266399999984,15.677143999999986,3314
63.36466399999984,13.733143999999989,3437
63.36466399999984,14.381143999999988,3409
62.71666399999984,15.677143999999986,3342
62.39266399999984,17.621143999999987,3176
59.800663999999855,15.677143999999986,3229
55.58866399999988,13.733143999999989,2738
57.20866399999987,14.381143999999988,2768
57.85666399999987,14.381143999999988,2816
58.82866399999986,16.973143999999984,2952
58.82866399999986,16.325143999999987,2930
59.15266399999986,18.269143999999983,2964
60.44866399999985,17.621143999999987,3019
59.15266399999986,12.437143999999988,2923
59.15266399999986,13.085143999999987,2937
58.82866399999986,12.437143999999988,2899
59.47666399999986,16.325143999999987,2989
58.82866399999986,14.381143999999988,2976
59.47666399999986,15.677143999999986,3007
63.36466399999984,18.917143999999983,3376
63.04066399999984,17.621143999999987,3331
62.71666399999984,17.621143999999987,3305
63.68866399999983,19.565143999999982,3409
62.39266399999984,16.973143999999984,3220
59.800663999999855,16.973143999999984,2995
59.47666399999986,17.621143999999987,2972
57.85666399999987,13.085143999999987,2848
57.53266399999987,13.085143999999987,2829
58.50466399999986,11.789143999999988,2870
57.85666399999987,15.029143999999986,2850
57.20866399999987,13.733143999999989,2774
57.53266399999987,13.733143999999989,2835
61.74466399999984,16.325143999999987,3214
61.420663999999846,16.325143999999987,3181
61.09666399999985,16.325143999999987,3170
61.09666399999985,16.973143999999984,3138
60.124663999999854,15.029143999999986,3316
66.60466399999981,20.86114399999998,4257
67.25266399999981,20.86114399999998,4325
67.90066399999981,20.213143999999986,4395
67.57666399999981,20.213143999999986,5020
59.800663999999855,15.029143999999986,3036
58.50466399999986,15.029143999999986,2878
59.47666399999986,15.029143999999986,3021
60.44866399999985,16.325143999999987,3107
59.15266399999986,15.677143999999986,2965
57.85666399999987,13.733143999999989,2876
58.82866399999986,13.733143999999989,2923
58.50466399999986,13.085143999999987,2908
57.20866399999987,13.085143999999987,2805
56.88466399999987,13.085143999999987,2779
58.180663999999865,11.789143999999988,2841
62.06866399999984,16.973143999999984,3209
65.95666399999982,23.45314399999998,4457
59.800663999999855,14.381143999999988,5891
59.800663999999855,18.269143999999983,2977
63.04066399999984,15.029143999999986,3360
62.71666399999984,15.029143999999986,3350
62.39266399999984,16.325143999999987,3283
63.36466399999984,12.437143999999988,3488
68.5486639999998,17.621143999999987,4608
68.5486639999998,18.269143999999983,4541
68.5486639999998,18.917143999999983,4518
68.2246639999998,18.917143999999983,4474
59.800663999999855,13.085143999999987,3040
60.124663999999854,13.085143999999987,3079
59.47666399999986,16.973143999999984,2981
59.15266399999986,16.973143999999984,2973
56.56066399999988,13.733143999999989,2726
60.124663999999854,17.621143999999987,2996
57.85666399999987,16.325143999999987,2955
58.180663999999865,16.325143999999987,2917
58.180663999999865,15.677143999999986,2925
57.20866399999987,16.325143999999987,2967
57.53266399999987,15.677143999999986,2985
57.85666399999987,15.677143999999986,2956
44.89666399999994,23.45314399999998,2965
44.572663999999946,23.45314399999998,3035
44.89666399999994,24.74914399999998,2952
44.572663999999946,24.74914399999998,3071
44.572663999999946,24.101143999999977,3012
44.24866399999995,24.101143999999977,3041
47.48866399999993,25.397143999999983,2813
47.48866399999993,24.74914399999998,2753
47.16466399999993,24.74914399999998,2675
47.16466399999993,24.101143999999977,2577
47.48866399999993,22.15714399999998,2707
47.81266399999993,22.15714399999998,2793
47.16466399999993,22.15714399999998,2686
47.16466399999993,23.45314399999998,2738
47.16466399999993,22.805143999999984,2744
46.84066399999993,24.101143999999977,2658
45.86866399999994,27.34114399999998,2998
45.54466399999994,27.34114399999998,2979
45.54466399999994,27.989143999999985,3095
45.86866399999994,20.86114399999998,2870
45.86866399999994,21.50914399999997,2878
46.19266399999994,21.50914399999997,2814
46.19266399999994,27.34114399999998,2998
46.19266399999994,26.69314399999997,2989
46.516663999999935,26.69314399999997,2951
46.516663999999935,26.04514399999998,2847
47.48866399999993,22.805143999999984,2805
46.84066399999993,22.805143999999984,2618
45.54466399999994,22.15714399999998,2927
45.22066399999994,22.15714399999998,3005
44.89666399999994,22.15714399999998,3423
47.48866399999993,23.45314399999998,2771
46.516663999999935,24.101143999999977,2497
46.516663999999935,24.74914399999998,2711
45.86866399999994,24.101143999999977,2660
47.16466399999993,26.69314399999997,3029
47.16466399999993,27.34114399999998,3084
43.92466399999995,25.397143999999983,3043
44.24866399999995,24.74914399999998,2950
44.89666399999994,26.04514399999998,2837
44.89666399999994,26.69314399999997,2884
45.22066399999994,26.69314399999997,2919
45.22066399999994,27.34114399999998,2946
46.84066399999993,26.69314399999997,2990
47.48866399999993,26.69314399999997,2983
44.24866399999995,25.397143999999983,2882
43.92466399999995,26.04514399999998,3059
46.19266399999994,24.101143999999977,2705
44.572663999999946,25.397143999999983,2920
46.84066399999993,24.74914399999998,2718
46.516663999999935,21.50914399999997,2818
46.84066399999993,21.50914399999997,2825
44.572663999999946,26.69314399999997,2875
44.572663999999946,27.34114399999998,2896
44.89666399999994,27.34114399999998,3011
44.572663999999946,27.989143999999985,2916
44.24866399999995,27.989143999999985,2930
44.572663999999946,28.63714399999997,2981
45.86866399999994,22.15714399999998,2739
45.86866399999994,22.805143999999984,2633
44.24866399999995,23.45314399999998,3068
43.92466399999995,27.989143999999985,65535
46.84066399999993,27.34114399999998,3151
45.22066399999994,23.45314399999998,2940
45.54466399999994,23.45314399999998,2743
45.54466399999994,24.101143999999977,2690
45.22066399999994,24.101143999999977,2914
44.89666399999994,24.101143999999977,2984
46.19266399999994,22.15714399999998,2870
46.516663999999935,22.15714399999998,2836
45.22066399999994,21.50914399999997,3110
45.54466399999994,21.50914399999997,2958
45.54466399999994,20.86114399999998,2982
46.516663999999935,27.989143999999985,3101
46.19266399999994,27.989143999999985,3086
45.54466399999994,25.397143999999983,2804
45.22066399999994,25.397143999999983,2814
45.22066399999994,26.04514399999998,2870
47.81266399999993,24.101143999999977,2866
47.48866399999993,26.04514399999998,2956
47.81266399999993,26.04514399999998,2978
46.19266399999994,23.45314399999998,2537
45.86866399999994,23.45314399999998,2586
44.24866399999995,26.04514399999998,2864
45.22066399999994,27.989143999999985,3076
45.86866399999994,24.74914399999998,2699
46.516663999999935,25.397143999999983,2891
46.84066399999993,25.397143999999983,2774
46.19266399999994,26.04514399999998,2862
45.86866399999994,26.04514399999998,2827
43.92466399999995,23.45314399999998,3298
44.89666399999994,25.397143999999983,2925
46.19266399999994,20.86114399999998,2859
47.81266399999993,25.397143999999983,2990
44.572663999999946,22.805143999999984,3303
44.572663999999946,22.15714399999998,3445
46.516663999999935,23.45314399999998,2676
45.86866399999994,25.397143999999983,2753
44.24866399999995,27.34114399999998,3691
45.22066399999994,24.74914399999998,3016
45.54466399999994,22.805143999999984,2706
45.22066399999994,28.63714399999997,3136
44.89666399999994,28.63714399999997,3075
47.81266399999993,23.45314399999998,2923
46.19266399999994,24.74914399999998,2785
46.19266399999994,25.397143999999983,2809
43.92466399999995,24.101143999999977,3261
43.92466399999995,24.74914399999998,3274
47.81266399999993,26.69314399999997,3205
47.48866399999993,24.101143999999977,2798
46.84066399999993,26.04514399999998,3606
46.19266399999994,22.805143999999984,2930
47.48866399999993,27.34114399999998,3158
46.19266399999994,20.213143999999986,65535
45.54466399999994,26.04514399999998,2962
44.24866399999995,26.69314399999997,2880
45.86866399999994,27.989143999999985,3134
47.81266399999993,5.957143999999991,7066
