51.56399999999999,-0.4100000000000028,65535
51.887999999999984,-0.4100000000000028,65535
50.91599999999999,-1.7060000000000022,65535
51.23999999999999,-1.0580000000000025,65535
51.56399999999999,-1.0580000000000025,65535
51.23999999999999,-1.7060000000000022,65535
51.56399999999999,0.2379999999999968,65535
47.16466399999993,9.845143999999989,2244
47.48866399999993,9.845143999999989,2249
48.136663999999925,14.381143999999988,1774
47.81266399999993,13.085143999999987,1858
47.16466399999993,11.141143999999988,2346
47.48866399999993,11.789143999999988,2265
48.136663999999925,16.325143999999987,1534
47.48866399999993,12.437143999999988,1918
48.136663999999925,15.677143999999986,1579
47.16466399999993,10.493143999999988,2341
47.16466399999993,9.197143999999987,2240
48.136663999999925,13.733143999999989,1823
48.136663999999925,15.029143999999986,1699
47.81266399999993,16.973143999999984,1555
48.46066399999992,14.381143999999988,1864
47.48866399999993,13.085143999999987,1894
47.16466399999993,13.085143999999987,1912
47.48866399999993,14.381143999999988,1655
47.48866399999993,13.733143999999989,1733
47.48866399999993,15.029143999999986,1602
46.516663999999935,13.733143999999989,1763
46.84066399999993,13.733143999999989,1805
46.84066399999993,13.085143999999987,2242
48.78466399999992,14.381143999999988,65535
47.16466399999993,15.677143999999986,1595
46.516663999999935,14.381143999999988,1710
46.84066399999993,14.381143999999988,1813
47.16466399999993,14.381143999999988,1685
46.516663999999935,15.029143999999986,1686
47.81266399999993,16.325143999999987,1552
47.16466399999993,15.029143999999986,1644
47.81266399999993,15.677143999999986,1618
47.48866399999993,15.677143999999986,1571
46.516663999999935,13.085143999999987,2894
46.84066399999993,12.437143999999988,2279
48.136663999999925,11.789143999999988,1879
47.81266399999993,12.437143999999988,1875
46.84066399999993,15.677143999999986,1621
46.516663999999935,15.677143999999986,1663
46.84066399999993,16.325143999999987,1642
47.81266399999993,14.381143999999988,1731
48.78466399999992,16.973143999999984,1551
48.136663999999925,16.973143999999984,1516
48.46066399999992,13.733143999999989,1887
47.81266399999993,13.733143999999989,2291
50.08066399999991,8.54914399999999,2258
48.46066399999992,9.845143999999989,1945
51.05266399999991,7.25314399999999,2309
51.37666399999991,7.25314399999999,2322
51.37666399999991,6.60514399999999,2318
48.46066399999992,16.325143999999987,1539
48.46066399999992,16.973143999999984,1544
48.78466399999992,16.325143999999987,1552
48.46066399999992,15.677143999999986,1568
48.78466399999992,15.677143999999986,1653
47.48866399999993,16.325143999999987,1562
47.16466399999993,16.325143999999987,1589
46.19266399999994,14.381143999999988,1730
45.86866399999994,15.677143999999986,1727
43.60066399999995,16.325143999999987,2195
45.54466399999994,14.381143999999988,1745
45.54466399999994,13.733143999999989,1766
48.136663999999925,13.085143999999987,1848
48.46066399999992,11.141143999999988,1887
48.136663999999925,11.141143999999988,1881
48.46066399999992,7.90114399999999,2228
49.10866399999992,8.54914399999999,2225
48.78466399999992,2.0691439999999925,2420
49.10866399999992,7.25314399999999,2287
52.0246639999999,7.90114399999999,2350
47.16466399999993,11.789143999999988,2329
49.43266399999992,11.141143999999988,1972
53.64466399999989,9.845143999999989,2481
50.72866399999991,4.013143999999992,2375
51.05266399999991,11.141143999999988,2423
47.48866399999993,11.141143999999988,1894
46.84066399999993,11.789143999999988,4022
46.516663999999935,11.141143999999988,3991
45.54466399999994,11.141143999999988,3887
46.19266399999994,11.141143999999988,3957
45.86866399999994,11.141143999999988,3941
44.572663999999946,11.141143999999988,2772
43.92466399999995,12.437143999999988,65535
45.54466399999994,12.437143999999988,4230
45.54466399999994,11.789143999999988,4195
48.78466399999992,15.029143999999986,1692
47.81266399999993,15.029143999999986,1710
47.81266399999993,11.141143999999988,1888
50.40466399999991,18.917143999999983,1864
52.3486639999999,20.86114399999998,2359
54.616663999999886,18.269143999999983,2556
54.29266399999989,18.917143999999983,2550
49.10866399999992,14.381143999999988,65535
50.08066399999991,14.381143999999988,1826
48.78466399999992,13.733143999999989,3835
52.6726639999999,13.085143999999987,2316
52.3486639999999,13.085143999999987,2315
53.96866399999989,12.437143999999988,2439
54.29266399999989,12.437143999999988,2452
47.48866399999993,8.54914399999999,2250
47.81266399999993,17.621143999999987,1493
47.48866399999993,18.917143999999983,1340
47.48866399999993,20.86114399999998,1182
46.84066399999993,23.45314399999998,743
44.572663999999946,26.04514399999998,288
47.48866399999993,21.50914399999997,1139
47.81266399999993,21.50914399999997,1868
48.46066399999992,22.15714399999998,1537
47.48866399999993,16.973143999999984,65535
49.10866399999992,16.325143999999987,1656
49.75666399999992,18.269143999999983,1721
46.19266399999994,13.085143999999987,2303
41.98066399999996,12.437143999999988,5350
43.60066399999995,10.493143999999988,5606
45.54466399999994,9.197143999999987,2370
47.81266399999993,22.805143999999984,893
49.75666399999992,22.805143999999984,1899
50.72866399999991,3.365143999999992,2382
51.05266399999991,4.013143999999992,2379
50.72866399999991,4.661143999999991,2368
51.05266399999991,4.661143999999991,2374
51.05266399999991,3.365143999999992,2386
51.05266399999991,2.717143999999992,2402
50.40466399999991,4.661143999999991,2364
50.72866399999991,2.717143999999992,2398
50.40466399999991,4.013143999999992,2377
51.05266399999991,5.309143999999991,2365
50.72866399999991,5.309143999999991,2352
51.37666399999991,3.365143999999992,2400
51.37666399999991,4.661143999999991,2381
50.72866399999991,5.957143999999991,2332
50.40466399999991,5.957143999999991,2343
50.40466399999991,3.365143999999992,2390
50.40466399999991,5.309143999999991,2359
50.08066399999991,5.309143999999991,2375
49.75666399999992,5.309143999999991,2357
49.75666399999992,5.957143999999991,2332
51.37666399999991,5.309143999999991,2426
51.700663999999904,4.661143999999991,2418
50.08066399999991,4.013143999999992,2392
50.08066399999991,5.957143999999991,2361
50.08066399999991,4.661143999999991,2376
49.43266399999992,5.309143999999991,2339
49.43266399999992,5.957143999999991,2322
52.0246639999999,4.661143999999991,2450
52.3486639999999,4.661143999999991,2479
50.72866399999991,15.029143999999986,1871
51.05266399999991,15.029143999999986,2245
51.05266399999991,13.733143999999989,2276
50.40466399999991,13.085143999999987,2327
49.10866399999992,7.90114399999999,2255
48.78466399999992,7.90114399999999,2237
50.40466399999991,7.90114399999999,2276
50.08066399999991,7.90114399999999,2261
49.75666399999992,7.90114399999999,2258
49.43266399999992,7.90114399999999,2275
49.75666399999992,8.54914399999999,2245
49.43266399999992,8.54914399999999,2240
49.43266399999992,9.197143999999987,2293
49.10866399999992,9.197143999999987,2216
47.48866399999993,7.90114399999999,2252
47.81266399999993,7.90114399999999,2243
48.136663999999925,7.90114399999999,2234
48.136663999999925,9.845143999999989,1955
47.81266399999993,9.197143999999987,2235
47.81266399999993,8.54914399999999,2233
47.81266399999993,9.845143999999989,2250
54.940663999999884,9.197143999999987,2540
54.616663999999886,9.197143999999987,2520
54.29266399999989,9.197143999999987,2528
53.96866399999989,9.197143999999987,2525
53.64466399999989,9.197143999999987,2516
54.616663999999886,9.845143999999989,2512
54.29266399999989,9.845143999999989,2501
53.96866399999989,9.845143999999989,2487
53.64466399999989,10.493143999999988,2473
53.96866399999989,10.493143999999988,2504
53.96866399999989,11.141143999999988,2543
54.29266399999989,10.493143999999988,2523
53.32066399999989,10.493143999999988,2449
54.940663999999884,11.141143999999988,2569
52.6726639999999,13.733143999999989,2313
52.3486639999999,13.733143999999989,2310
52.3486639999999,14.381143999999988,2318
52.0246639999999,14.381143999999988,2307
52.0246639999999,11.789143999999988,2334
52.3486639999999,11.789143999999988,2358
52.3486639999999,12.437143999999988,2347
52.0246639999999,15.029143999999986,2323
51.700663999999904,14.381143999999988,2299
52.0246639999999,13.733143999999989,2305
51.700663999999904,13.733143999999989,2294
52.6726639999999,12.437143999999988,2348
53.32066399999989,11.789143999999988,2469
53.96866399999989,11.789143999999988,2445
53.64466399999989,11.789143999999988,2500
53.64466399999989,11.141143999999988,2502
53.32066399999989,11.141143999999988,2475
52.996663999999896,11.789143999999988,2380
52.996663999999896,12.437143999999988,2364
52.996663999999896,13.733143999999989,2340
53.64466399999989,13.733143999999989,2416
53.96866399999989,13.733143999999989,2450
54.29266399999989,13.085143999999987,2462
53.96866399999989,13.085143999999987,2459
53.32066399999989,13.733143999999989,2387
52.0246639999999,13.085143999999987,2329
51.700663999999904,13.085143999999987,2326
52.996663999999896,14.381143999999988,2443
52.0246639999999,12.437143999999988,2336
51.700663999999904,12.437143999999988,2333
51.37666399999991,11.789143999999988,2314
51.37666399999991,12.437143999999988,2310
52.6726639999999,11.789143999999988,2390
53.64466399999989,13.085143999999987,2443
53.32066399999989,13.085143999999987,2385
52.996663999999896,13.085143999999987,2358
53.64466399999989,12.437143999999988,2428
51.37666399999991,13.733143999999989,2285
53.32066399999989,12.437143999999988,2395
52.6726639999999,14.381143999999988,2345
51.37666399999991,13.085143999999987,2298
53.32066399999989,14.381143999999988,2429
52.3486639999999,15.029143999999986,2336
52.0246639999999,15.677143999999986,2361
51.700663999999904,15.029143999999986,2353
51.05266399999991,16.325143999999987,2231
51.05266399999991,16.973143999999984,2204
51.700663999999904,15.677143999999986,2373
51.37666399999991,15.677143999999986,2270
51.37666399999991,16.325143999999987,2236
50.72866399999991,13.085143999999987,2316
50.72866399999991,12.437143999999988,2326
51.05266399999991,13.085143999999987,2294
51.05266399999991,14.381143999999988,2258
50.40466399999991,12.437143999999988,2306
50.40466399999991,11.789143999999988,2274
50.08066399999991,12.437143999999988,2293
50.72866399999991,11.789143999999988,2312
51.05266399999991,12.437143999999988,2327
50.72866399999991,14.381143999999988,1872
51.37666399999991,14.381143999999988,2280
50.72866399999991,13.733143999999989,2315
50.40466399999991,14.381143999999988,1831
51.37666399999991,15.029143999999986,2266
55.26466399999988,9.197143999999987,3048
55.58866399999988,8.54914399999999,3082
55.91266399999988,8.54914399999999,6559
56.23666399999988,9.197143999999987,6567
56.23666399999988,10.493143999999988,6520
56.23666399999988,9.845143999999989,6507
55.91266399999988,9.845143999999989,6445
56.56066399999988,9.197143999999987,6577
56.56066399999988,8.54914399999999,6620
51.05266399999991,6.60514399999999,2314
51.700663999999904,7.90114399999999,2333
50.72866399999991,6.60514399999999,2325
51.700663999999904,7.25314399999999,2326
50.72866399999991,7.25314399999999,2301
52.0246639999999,7.25314399999999,2343
52.3486639999999,7.90114399999999,2367
51.05266399999991,5.957143999999991,2322
50.40466399999991,7.25314399999999,2294
51.700663999999904,6.60514399999999,2347
51.700663999999904,5.957143999999991,2348
52.3486639999999,9.197143999999987,2387
51.700663999999904,8.54914399999999,2354
52.0246639999999,8.54914399999999,2379
52.3486639999999,8.54914399999999,2386
51.37666399999991,7.90114399999999,2325
52.3486639999999,7.25314399999999,2378
51.37666399999991,5.957143999999991,2321
50.72866399999991,7.90114399999999,2311
51.37666399999991,9.197143999999987,2344
51.700663999999904,9.197143999999987,2366
50.40466399999991,6.60514399999999,3252
51.05266399999991,7.90114399999999,2319
51.37666399999991,8.54914399999999,2339
52.0246639999999,5.957143999999991,2391
52.3486639999999,6.60514399999999,2396
51.05266399999991,8.54914399999999,2304
52.0246639999999,9.197143999999987,2384
52.6726639999999,9.197143999999987,2430
52.0246639999999,9.845143999999989,2395
51.700663999999904,9.845143999999989,2383
51.37666399999991,9.845143999999989,2394
50.72866399999991,8.54914399999999,2268
51.05266399999991,9.845143999999989,2356
50.72866399999991,9.845143999999989,2335
50.40466399999991,9.845143999999989,2305
51.05266399999991,9.197143999999987,2324
50.40466399999991,9.197143999999987,2278
50.08066399999991,9.197143999999987,2260
51.05266399999991,10.493143999999988,6599
50.40466399999991,8.54914399999999,2262
50.72866399999991,9.197143999999987,2300
49.75666399999992,9.197143999999987,2273
52.996663999999896,9.197143999999987,2437
52.3486639999999,9.845143999999989,2373
52.996663999999896,8.54914399999999,2426
52.996663999999896,7.90114399999999,2453
53.32066399999989,7.90114399999999,2503
53.32066399999989,7.25314399999999,2533
53.64466399999989,7.25314399999999,2578
52.996663999999896,10.493143999999988,2423
52.6726639999999,10.493143999999988,2416
52.6726639999999,9.845143999999989,2381
53.32066399999989,9.845143999999989,2479
53.32066399999989,9.197143999999987,2487
53.64466399999989,8.54914399999999,2473
53.32066399999989,8.54914399999999,2429
52.6726639999999,8.54914399999999,2403
52.0246639999999,10.493143999999988,2372
52.0246639999999,11.141143999999988,2342
51.700663999999904,11.141143999999988,2356
52.6726639999999,7.25314399999999,3260
52.996663999999896,7.25314399999999,3279
52.6726639999999,7.90114399999999,2407
53.64466399999989,7.90114399999999,2531
52.996663999999896,11.141143999999988,2401
52.6726639999999,11.141143999999988,2394
52.3486639999999,10.493143999999988,2364
52.996663999999896,9.845143999999989,2436
51.700663999999904,10.493143999999988,2358
51.37666399999991,10.493143999999988,6605
51.700663999999904,11.789143999999988,2327
52.3486639999999,11.141143999999988,2345
51.37666399999991,11.141143999999988,2384
51.05266399999991,11.789143999999988,2321
49.10866399999992,11.141143999999988,1994
48.78466399999992,11.141143999999988,1894
48.46066399999992,11.789143999999988,1888
49.43266399999992,11.789143999999988,1989
50.08066399999991,11.789143999999988,2261
49.75666399999992,12.437143999999988,2252
49.10866399999992,11.789143999999988,1974
48.78466399999992,12.437143999999988,1944
48.46066399999992,12.437143999999988,1902
49.10866399999992,12.437143999999988,1961
48.78466399999992,13.085143999999987,1971
48.136663999999925,12.437143999999988,1859
47.81266399999993,11.789143999999988,1880
48.136663999999925,10.493143999999988,1924
47.81266399999993,10.493143999999988,1935
48.78466399999992,10.493143999999988,1896
47.48866399999993,10.493143999999988,2260
48.46066399999992,10.493143999999988,1912
49.43266399999992,13.085143999999987,2313
48.46066399999992,13.085143999999987,1952
49.43266399999992,10.493143999999988,2007
49.75666399999992,9.845143999999989,2242
49.75666399999992,10.493143999999988,2192
50.40466399999991,11.141143999999988,2281
50.08066399999991,11.141143999999988,2209
50.72866399999991,11.141143999999988,2425
49.75666399999992,11.141143999999988,1988
48.78466399999992,11.789143999999988,1927
50.40466399999991,10.493143999999988,2320
50.08066399999991,9.845143999999989,2236
50.08066399999991,10.493143999999988,2217
49.43266399999992,12.437143999999988,2229
49.75666399999992,11.789143999999988,2236
49.10866399999992,13.085143999999987,2008
50.72866399999991,10.493143999999988,6595
49.10866399999992,10.493143999999988,2245
48.78466399999992,9.845143999999989,2169
48.46066399999992,8.54914399999999,2222
48.46066399999992,9.197143999999987,2228
48.78466399999992,9.197143999999987,2196
48.78466399999992,8.54914399999999,2231
50.08066399999991,7.25314399999999,2309
49.75666399999992,6.60514399999999,2318
49.43266399999992,6.60514399999999,2319
49.10866399999992,6.60514399999999,2300
49.43266399999992,7.25314399999999,2294
49.75666399999992,7.25314399999999,2282
49.10866399999992,5.957143999999991,2309
48.78466399999992,7.25314399999999,2256
50.08066399999991,6.60514399999999,2315
47.48866399999993,9.197143999999987,2236
48.136663999999925,8.54914399999999,2216
48.136663999999925,9.197143999999987,1981
47.81266399999993,7.25314399999999,2249
49.43266399999992,9.845143999999989,2257
49.10866399999992,9.845143999999989,2227
53.64466399999989,14.381143999999988,2423
50.08066399999991,13.085143999999987,1873
49.75666399999992,13.085143999999987,1990
45.86866399999994,9.197143999999987,2361
46.19266399999994,9.197143999999987,2354
46.516663999999935,8.54914399999999,2330
46.516663999999935,9.197143999999987,2348
46.19266399999994,8.54914399999999,2366
47.16466399999993,8.54914399999999,2251
45.86866399999994,4.661143999999991,2401
46.84066399999993,9.845143999999989,2268
45.22066399999994,5.957143999999991,2423
45.22066399999994,5.309143999999991,2433
45.86866399999994,5.957143999999991,2384
45.54466399999994,5.957143999999991,2401
44.89666399999994,4.661143999999991,2446
44.89666399999994,5.309143999999991,2486
44.572663999999946,4.661143999999991,2500
44.24866399999995,4.661143999999991,2516
43.92466399999995,4.661143999999991,2488
46.19266399999994,7.25314399999999,2350
48.78466399999992,5.957143999999991,2299
48.136663999999925,6.60514399999999,2289
48.46066399999992,6.60514399999999,2281
48.78466399999992,6.60514399999999,2290
47.16466399999993,7.90114399999999,2260
48.136663999999925,7.25314399999999,2257
48.46066399999992,7.25314399999999,2259
46.516663999999935,6.60514399999999,2330
46.84066399999993,6.60514399999999,2301
46.84066399999993,7.25314399999999,2281
46.516663999999935,5.957143999999991,2355
46.19266399999994,5.957143999999991,2369
46.84066399999993,8.54914399999999,2256
46.84066399999993,7.90114399999999,2270
45.86866399999994,5.309143999999991,2402
46.19266399999994,6.60514399999999,2347
45.86866399999994,6.60514399999999,2353
47.48866399999993,6.60514399999999,2276
47.48866399999993,7.25314399999999,2262
47.16466399999993,7.25314399999999,2265
49.10866399999992,4.013143999999992,2362
49.75666399999992,4.661143999999991,2395
49.43266399999992,4.661143999999991,2398
49.10866399999992,5.309143999999991,2334
46.19266399999994,4.661143999999991,2381
46.84066399999993,9.197143999999987,2274
46.19266399999994,5.309143999999991,2375
46.516663999999935,5.309143999999991,2370
45.54466399999994,6.60514399999999,2478
45.54466399999994,5.309143999999991,2430
43.60066399999995,4.013143999999992,2516
43.60066399999995,3.365143999999992,2547
42.62866399999996,2.717143999999992,2622
43.276663999999954,2.717143999999992,2577
45.54466399999994,4.661143999999991,2411
45.22066399999994,4.661143999999991,2451
47.16466399999993,5.309143999999991,2337
47.16466399999993,5.957143999999991,2304
46.19266399999994,7.90114399999999,2346
49.75666399999992,2.717143999999992,2437
49.10866399999992,2.717143999999992,2398
48.78466399999992,2.717143999999992,2416
45.86866399999994,3.365143999999992,2551
46.84066399999993,3.365143999999992,2452
46.516663999999935,3.365143999999992,2469
46.19266399999994,3.365143999999992,2519
47.16466399999993,6.60514399999999,2324
49.10866399999992,3.365143999999992,2382
45.54466399999994,4.013143999999992,2417
46.516663999999935,7.25314399999999,2308
47.16466399999993,4.661143999999991,2343
46.84066399999993,4.661143999999991,2364
46.516663999999935,4.661143999999991,2377
46.84066399999993,5.957143999999991,2319
47.81266399999993,3.365143999999992,2460
47.48866399999993,4.013143999999992,2397
48.136663999999925,4.013143999999992,2449
47.81266399999993,4.013143999999992,2421
47.48866399999993,4.661143999999991,2401
47.16466399999993,3.365143999999992,2467
46.84066399999993,4.013143999999992,2420
48.46066399999992,5.957143999999991,2345
46.19266399999994,2.717143999999992,2644
47.16466399999993,2.0691439999999925,2522
46.516663999999935,2.717143999999992,2617
46.84066399999993,2.717143999999992,2597
46.84066399999993,2.0691439999999925,2561
47.16466399999993,2.717143999999992,2532
44.572663999999946,5.309143999999991,2572
44.572663999999946,5.957143999999991,2511
44.89666399999994,6.60514399999999,2487
44.572663999999946,6.60514399999999,2589
43.60066399999995,5.309143999999991,2510
43.92466399999995,7.25314399999999,2555
43.60066399999995,6.60514399999999,2576
43.276663999999954,6.60514399999999,2597
43.276663999999954,5.957143999999991,2561
45.86866399999994,8.54914399999999,2375
45.54466399999994,8.54914399999999,2382
48.136663999999925,3.365143999999992,2486
48.46066399999992,3.365143999999992,2502
48.46066399999992,2.717143999999992,2471
47.48866399999993,5.309143999999991,2360
46.516663999999935,9.845143999999989,2293
46.84066399999993,10.493143999999988,2291
47.81266399999993,5.309143999999991,2448
45.22066399999994,6.60514399999999,2481
46.19266399999994,4.013143999999992,2434
45.86866399999994,4.013143999999992,2414
45.22066399999994,4.013143999999992,2477
44.89666399999994,4.013143999999992,2542
46.84066399999993,5.309143999999991,2358
48.136663999999925,-1.8188560000000056,2545
48.136663999999925,0.1251439999999934,2484
48.136663999999925,-0.5228560000000062,2521
47.48866399999993,-0.5228560000000062,2529
47.16466399999993,-1.8188560000000056,2574
47.48866399999993,0.7731439999999932,2500
47.16466399999993,0.1251439999999934,2517
45.86866399999994,7.25314399999999,2359
48.136663999999925,5.309143999999991,2480
49.10866399999992,4.661143999999991,2382
48.46066399999992,4.013143999999992,2513
48.136663999999925,4.661143999999991,2489
47.81266399999993,6.60514399999999,2293
47.48866399999993,5.957143999999991,2361
48.136663999999925,5.957143999999991,3070
45.86866399999994,7.90114399999999,2367
46.516663999999935,7.90114399999999,2272
49.43266399999992,3.365143999999992,2393
49.43266399999992,4.013143999999992,2373
48.136663999999925,2.717143999999992,2530
47.81266399999993,2.717143999999992,2541
47.48866399999993,2.717143999999992,2561
50.40466399999991,2.717143999999992,2403
48.46066399999992,-4.410856000000004,2725
48.46066399999992,-3.7628560000000046,2707
48.46066399999992,-3.114856000000005,2685
48.46066399999992,-2.4668560000000053,2653
47.48866399999993,1.4211439999999929,2527
47.16466399999993,1.4211439999999929,2577
46.516663999999935,4.013143999999992,2425
43.60066399999995,4.661143999999991,2535
44.89666399999994,2.717143999999992,2687
45.22066399999994,2.717143999999992,2656
45.54466399999994,3.365143999999992,2585
45.22066399999994,3.365143999999992,2534
47.48866399999993,3.365143999999992,2506
46.19266399999994,9.845143999999989,2554
47.81266399999993,2.0691439999999925,2484
47.48866399999993,2.0691439999999925,2497
45.86866399999994,2.717143999999992,2680
44.89666399999994,5.957143999999991,2437
45.22066399999994,1.4211439999999929,2699
44.89666399999994,1.4211439999999929,2726
44.89666399999994,2.0691439999999925,2799
43.276663999999954,2.0691439999999925,2620
43.60066399999995,1.4211439999999929,2661
48.78466399999992,4.661143999999991,2390
48.78466399999992,5.309143999999991,2331
46.19266399999994,2.0691439999999925,2822
45.86866399999994,1.4211439999999929,2637
46.19266399999994,1.4211439999999929,2602
44.572663999999946,4.013143999999992,2671
44.89666399999994,3.365143999999992,2589
43.92466399999995,4.013143999999992,2574
44.24866399999995,4.013143999999992,2602
44.89666399999994,-0.5228560000000062,2596
45.54466399999994,0.1251439999999934,2603
46.516663999999935,0.1251439999999934,2560
44.572663999999946,2.0691439999999925,2818
49.75666399999992,4.013143999999992,2430
43.92466399999995,3.365143999999992,2771
43.92466399999995,2.717143999999992,2740
44.24866399999995,3.365143999999992,2696
44.572663999999946,3.365143999999992,2622
49.10866399999992,0.1251439999999934,2480
49.43266399999992,0.7731439999999932,2474
49.43266399999992,-1.8188560000000056,2636
49.10866399999992,-1.170856000000006,2560
49.10866399999992,-0.5228560000000062,2500
49.10866399999992,0.7731439999999932,2523
49.10866399999992,1.4211439999999929,2494
47.81266399999993,-1.8188560000000056,2583
47.81266399999993,-2.4668560000000053,2608
47.81266399999993,-3.114856000000005,2621
48.136663999999925,-3.7628560000000046,2684
44.572663999999946,9.197143999999987,2456
44.89666399999994,8.54914399999999,2427
45.22066399999994,9.197143999999987,2389
45.54466399999994,10.493143999999988,2467
44.572663999999946,10.493143999999988,2758
44.89666399999994,10.493143999999988,2533
44.89666399999994,9.845143999999989,2501
48.46066399999992,5.309143999999991,2473
50.91599999999999,-1.0580000000000025,65535
51.23999999999999,-0.4100000000000028,65535
50.91599999999999,-0.4100000000000028,65535
51.23999999999999,-2.354000000000002,65535
51.56399999999999,-2.354000000000002,65535
51.56399999999999,-3.0020000000000016,65535
50.91599999999999,-2.354000000000002,65535
53.50799999999997,-3.0020000000000016,65535
53.183999999999976,-2.354000000000002,65535
53.183999999999976,-3.0020000000000016,65535
52.85999999999998,-2.354000000000002,65535
52.21199999999998,-1.0580000000000025,65535
51.887999999999984,-1.0580000000000025,65535
52.53599999999998,-1.0580000000000025,65535
52.53599999999998,-1.7060000000000022,65535
52.85999999999998,-1.7060000000000022,65535
53.50799999999997,-2.354000000000002,65535
52.85999999999998,-1.0580000000000025,65535
52.53599999999998,1.5339999999999965,65535
52.53599999999998,0.8859999999999966,65535
52.53599999999998,0.2379999999999968,65535
52.53599999999998,-0.4100000000000028,65535
53.50799999999997,-1.7060000000000022,65535
53.183999999999976,-1.7060000000000022,65535
53.183999999999976,-1.0580000000000025,65535
52.85999999999998,-0.4100000000000028,65535
51.887999999999984,-2.354000000000002,65535
52.21199999999998,-2.354000000000002,65535
55.77599999999996,-2.354000000000002,65535
53.83199999999997,-1.0580000000000025,65535
53.83199999999997,-1.7060000000000022,65535
55.127999999999965,-1.7060000000000022,65535
54.80399999999997,-1.7060000000000022,65535
54.47999999999997,-1.7060000000000022,65535
54.15599999999997,-1.0580000000000025,65535
52.21199999999998,-1.7060000000000022,65535
53.50799999999997,-1.0580000000000025,65535
55.77599999999996,-3.0020000000000016,65535
55.45199999999996,-1.7060000000000022,65535
57.07199999999995,-2.354000000000002,65535
56.74799999999996,-3.0020000000000016,65535
56.42399999999996,-3.0020000000000016,65535
56.09999999999996,-3.650000000000001,65535
50.91599999999999,-3.0020000000000016,65535
50.91599999999999,-3.650000000000001,65535
50.59199999999999,-3.650000000000001,65535
50.59199999999999,-4.298000000000001,65535
51.23999999999999,-3.0020000000000016,65535
50.268,-4.946000000000001,65535
55.77599999999996,-3.650000000000001,65535
55.77599999999996,-4.298000000000001,65535
52.21199999999998,-0.4100000000000028,65535
52.53599999999998,-2.354000000000002,65535
51.56399999999999,-1.7060000000000022,65535
51.56399999999999,-3.650000000000001,65535
51.887999999999984,-4.298000000000001,65535
51.56399999999999,-4.298000000000001,65535
51.887999999999984,-1.7060000000000022,65535
52.21199999999998,-3.0020000000000016,65535
51.23999999999999,0.2379999999999968,65535
50.91599999999999,0.2379999999999968,65535
52.21199999999998,0.2379999999999968,65535
53.83199999999997,-3.0020000000000016,65535
54.15599999999997,-3.0020000000000016,65535
54.47999999999997,-3.0020000000000016,65535
55.127999999999965,-3.650000000000001,65535
54.80399999999997,-3.0020000000000016,65535
53.83199999999997,-2.354000000000002,65535
54.15599999999997,-0.4100000000000028,65535
54.47999999999997,-1.0580000000000025,65535
53.83199999999997,-0.4100000000000028,65535
53.183999999999976,-3.650000000000001,65535
53.183999999999976,-4.298000000000001,65535
52.85999999999998,-3.0020000000000016,65535
52.53599999999998,-3.0020000000000016,65535
51.887999999999984,-3.0020000000000016,65535
51.23999999999999,0.8859999999999966,65535
51.887999999999984,0.2379999999999968,65535
52.21199999999998,0.8859999999999966,65535
51.887999999999984,-4.946000000000001,65535
52.53599999999998,-3.650000000000001,65535
52.21199999999998,-4.298000000000001,65535
53.183999999999976,-0.4100000000000028,65535
51.23999999999999,-3.650000000000001,65535
51.887999999999984,-3.650000000000001,65535
52.21199999999998,-3.650000000000001,65535
51.56399999999999,0.8859999999999966,65535
51.887999999999984,0.8859999999999966,65535
52.85999999999998,0.8859999999999966,65535
53.50799999999997,-0.4100000000000028,65535
56.09999999999996,-4.298000000000001,65535
56.74799999999996,-4.946000000000001,65535
56.74799999999996,-4.298000000000001,65535
56.42399999999996,-4.946000000000001,65535
56.42399999999996,-4.298000000000001,65535
56.09999999999996,-4.946000000000001,65535
57.39599999999995,-4.298000000000001,65535
57.39599999999995,-3.0020000000000016,65535
57.39599999999995,-3.650000000000001,65535
56.42399999999996,-3.650000000000001,65535
57.07199999999995,-3.650000000000001,65535
57.07199999999995,-4.298000000000001,65535
56.74799999999996,-3.650000000000001,65535
59.15266399999986,27.34114399999998,65535
59.47666399999986,26.69314399999997,65535
59.47666399999986,26.04514399999998,65535
59.15266399999986,26.04514399999998,65535
59.15266399999986,24.74914399999998,65535
59.15266399999986,25.397143999999983,65535
59.47666399999986,25.397143999999983,65535
58.50466399999986,26.69314399999997,65535
58.82866399999986,26.69314399999997,65535
57.85666399999987,26.04514399999998,65535
58.180663999999865,26.04514399999998,65535
58.180663999999865,26.69314399999997,65535
58.82866399999986,26.04514399999998,65535
58.50466399999986,25.397143999999983,65535
58.82866399999986,25.397143999999983,65535
58.82866399999986,24.74914399999998,65535
58.180663999999865,27.34114399999998,65535
57.85666399999987,27.34114399999998,65535
63.68866399999983,27.34114399999998,7077
60.124663999999854,24.74914399999998,6613
60.44866399999985,24.74914399999998,6582
60.44866399999985,25.397143999999983,6594
60.77266399999985,25.397143999999983,6800
61.09666399999985,26.04514399999998,6842
60.77266399999985,26.04514399999998,6849
60.77266399999985,26.69314399999997,6868
61.09666399999985,25.397143999999983,6833
61.09666399999985,26.69314399999997,7198
61.420663999999846,26.69314399999997,7220
61.74466399999984,27.34114399999998,7244
62.06866399999984,27.34114399999998,7269
62.39266399999984,27.34114399999998,7293
62.71666399999984,27.34114399999998,7257
64.01266399999983,27.34114399999998,7425
63.36466399999984,27.34114399999998,7145
63.04066399999984,27.34114399999998,7185
63.04066399999984,27.989143999999985,7200
64.33666399999983,27.989143999999985,7472
64.33666399999983,27.34114399999998,7548
64.66066399999983,27.34114399999998,7564
64.66066399999983,26.69314399999997,7575
64.98466399999982,25.397143999999983,5959
64.66066399999983,26.04514399999998,7605
64.98466399999982,26.04514399999998,7627
66.28066399999982,25.397143999999983,6036
65.95666399999982,24.74914399999998,5872
65.63266399999982,24.74914399999998,5876
65.63266399999982,25.397143999999983,5918
65.30866399999982,25.397143999999983,5939
66.60466399999981,25.397143999999983,6096
64.01266399999983,24.74914399999998,6096
64.01266399999983,24.101143999999977,6131
64.01266399999983,23.45314399999998,6155
63.68866399999983,23.45314399999998,6167
63.68866399999983,22.805143999999984,6192
63.68866399999983,26.04514399999998,6784
63.68866399999983,25.397143999999983,6750
63.68866399999983,26.69314399999997,7044
60.44866399999985,26.69314399999997,7036
64.01266399999983,27.989143999999985,7463
62.71666399999984,22.805143999999984,6314
62.39266399999984,22.805143999999984,6346
62.06866399999984,22.805143999999984,6375
62.06866399999984,23.45314399999998,6391
61.74466399999984,23.45314399999998,6403
61.420663999999846,23.45314399999998,6451
61.09666399999985,23.45314399999998,6492
61.09666399999985,24.101143999999977,6499
61.09666399999985,24.74914399999998,6533
60.77266399999985,24.74914399999998,6549
63.04066399999984,21.50914399999997,65535
63.04066399999984,22.15714399999998,65535
63.04066399999984,22.805143999999984,6278
62.39266399999984,26.04514399999998,7441
62.06866399999984,25.397143999999983,7490
61.74466399999984,25.397143999999983,7558
61.74466399999984,24.74914399999998,7595
61.74466399999984,24.101143999999977,7630
61.420663999999846,24.101143999999977,6974
62.39266399999984,26.69314399999997,7412
64.66066399999983,25.397143999999983,6028
64.66066399999983,24.74914399999998,6046
64.33666399999983,24.74914399999998,6057
63.36466399999984,22.805143999999984,6217
67.25266399999981,24.101143999999977,8186
66.92866399999981,24.101143999999977,8150
66.60466399999981,23.45314399999998,8119
66.28066399999982,23.45314399999998,8101
66.28066399999982,24.101143999999977,8083
65.95666399999982,24.101143999999977,5563
60.124663999999854,24.101143999999977,6806
60.124663999999854,23.45314399999998,6843
60.44866399999985,22.805143999999984,65535
60.77266399999985,27.34114399999998,6926
61.09666399999985,27.989143999999985,6958
61.09666399999985,28.63714399999997,7004
61.420663999999846,29.28514399999997,8691
61.74466399999984,29.933143999999977,8749
62.06866399999984,29.933143999999977,8855
62.39266399999984,29.933143999999977,8893
62.71666399999984,29.933143999999977,8926
61.420663999999846,22.805143999999984,6487
61.420663999999846,22.15714399999998,6566
61.09666399999985,22.15714399999998,6554
61.420663999999846,21.50914399999997,6699
62.39266399999984,27.989143999999985,65535
62.06866399999984,27.989143999999985,65535
61.420663999999846,27.34114399999998,65535
63.04066399999984,29.933143999999977,65535
63.68866399999983,29.28514399999997,65535
63.36466399999984,29.28514399999997,65535
63.36466399999984,29.933143999999977,65535
60.44866399999985,27.34114399999998,65535
61.74466399999984,29.28514399999997,65535
62.39266399999984,30.58114399999998,65535
62.71666399999984,31.229143999999977,65535
62.71666399999984,29.28514399999997,65535
63.04066399999984,28.63714399999997,65535
66.60466399999981,26.04514399999998,6106
66.60466399999981,26.69314399999997,6142
66.60466399999981,27.34114399999998,6165
62.71666399999984,26.04514399999998,7326
62.71666399999984,25.397143999999983,7295
63.04066399999984,25.397143999999983,7115
63.36466399999984,25.397143999999983,7078
62.71666399999984,23.45314399999998,7320
62.39266399999984,24.101143999999977,65535
62.71666399999984,22.15714399999998,65535
62.39266399999984,22.15714399999998,65535
62.39266399999984,21.50914399999997,65535
61.09666399999985,21.50914399999997,8377
60.77266399999985,22.805143999999984,7803
60.44866399999985,22.15714399999998,7851
60.77266399999985,23.45314399999998,7785
60.77266399999985,21.50914399999997,7953
60.77266399999985,22.15714399999998,7906
60.124663999999854,22.805143999999984,8119
60.44866399999985,24.101143999999977,6792
62.06866399999984,24.74914399999998,65535
50.72866399999991,16.325143999999987,2229
50.40466399999991,16.973143999999984,2209
50.72866399999991,16.973143999999984,2217
50.40466399999991,16.325143999999987,2206
50.08066399999991,16.973143999999984,1851
50.08066399999991,16.325143999999987,1748
51.700663999999904,16.973143999999984,2292
51.37666399999991,16.973143999999984,2239
51.05266399999991,15.677143999999986,2302
50.72866399999991,15.677143999999986,2297
51.05266399999991,17.621143999999987,2200
51.37666399999991,17.621143999999987,2258
51.700663999999904,17.621143999999987,2262
51.700663999999904,16.325143999999987,2333
52.0246639999999,22.15714399999998,2363
52.0246639999999,21.50914399999997,2355
52.3486639999999,21.50914399999997,2359
52.0246639999999,20.86114399999998,2367
51.700663999999904,20.86114399999998,2372
51.37666399999991,21.50914399999997,2342
51.37666399999991,20.86114399999998,2326
51.05266399999991,20.86114399999998,2259
52.6726639999999,23.45314399999998,2459
52.3486639999999,22.805143999999984,2401
52.3486639999999,20.213143999999986,2406
52.0246639999999,20.213143999999986,2415
52.3486639999999,19.565143999999982,2527
52.6726639999999,19.565143999999982,2521
51.700663999999904,21.50914399999997,2321
51.700663999999904,22.15714399999998,2303
52.6726639999999,21.50914399999997,2366
52.996663999999896,21.50914399999997,2424
52.6726639999999,20.86114399999998,2370
52.6726639999999,22.15714399999998,2391
52.6726639999999,20.213143999999986,2461
52.996663999999896,19.565143999999982,2532
52.996663999999896,20.86114399999998,2377
52.996663999999896,20.213143999999986,2395
53.32066399999989,20.213143999999986,2434
51.37666399999991,20.213143999999986,2380
52.3486639999999,16.973143999999984,2294
52.0246639999999,16.973143999999984,2321
52.0246639999999,16.325143999999987,2334
52.0246639999999,17.621143999999987,2275
52.6726639999999,16.973143999999984,2304
52.996663999999896,16.973143999999984,2325
52.3486639999999,16.325143999999987,2301
52.3486639999999,15.677143999999986,2347
51.700663999999904,18.269143999999983,2298
52.6726639999999,17.621143999999987,2305
52.3486639999999,17.621143999999987,2298
52.6726639999999,18.269143999999983,2356
52.3486639999999,18.269143999999983,2341
52.3486639999999,18.917143999999983,2487
52.996663999999896,17.621143999999987,2364
51.700663999999904,19.565143999999982,2380
51.700663999999904,18.917143999999983,2346
51.37666399999991,18.269143999999983,2307
58.82866399999986,9.197143999999987,4328
58.180663999999865,7.90114399999999,4420
58.50466399999986,8.54914399999999,4374
63.36466399999984,10.493143999999988,4572
63.36466399999984,11.141143999999988,4562
63.36466399999984,11.789143999999988,4465
63.68866399999983,11.789143999999988,4613
64.33666399999983,12.437143999999988,4894
64.66066399999983,12.437143999999988,5448
65.63266399999982,13.085143999999987,5046
65.95666399999982,13.085143999999987,5081
66.28066399999982,14.381143999999988,5151
65.95666399999982,13.733143999999989,5270
66.28066399999982,13.733143999999989,5129
65.30866399999982,13.085143999999987,5380
64.98466399999982,13.085143999999987,4981
64.01266399999983,11.789143999999988,4644
63.68866399999983,11.141143999999988,4581
59.800663999999855,10.493143999999988,4112
59.800663999999855,11.141143999999988,4102
60.124663999999854,11.141143999999988,4085
60.44866399999985,11.141143999999988,4105
60.124663999999854,11.789143999999988,4069
60.77266399999985,7.25314399999999,4637
60.77266399999985,6.60514399999999,4686
59.15266399999986,9.197143999999987,4296
59.47666399999986,9.197143999999987,4272
59.800663999999855,9.845143999999989,4126
59.47666399999986,11.141143999999988,4122
61.09666399999985,10.493143999999988,4242
60.77266399999985,10.493143999999988,4220
60.77266399999985,11.141143999999988,4169
62.06866399999984,9.197143999999987,4450
61.74466399999984,9.845143999999989,4396
61.420663999999846,9.845143999999989,4373
59.15266399999986,9.845143999999989,4190
59.47666399999986,9.845143999999989,4166
58.82866399999986,5.957143999999991,4610
58.180663999999865,7.25314399999999,4466
58.50466399999986,7.25314399999999,4502
58.50466399999986,6.60514399999999,4508
58.50466399999986,5.957143999999991,4563
58.82866399999986,8.54914399999999,4360
60.44866399999985,7.25314399999999,4611
60.44866399999985,7.90114399999999,4568
60.124663999999854,10.493143999999988,4104
60.44866399999985,9.197143999999987,4481
60.77266399999985,9.197143999999987,4522
60.77266399999985,8.54914399999999,4548
60.124663999999854,9.845143999999989,4415
60.44866399999985,10.493143999999988,4134
63.04066399999984,10.493143999999988,4566
62.06866399999984,9.845143999999989,4475
62.39266399999984,9.845143999999989,4483
62.71666399999984,9.845143999999989,4507
59.47666399999986,14.381143999999988,3957
59.47666399999986,13.733143999999989,3981
59.47666399999986,13.085143999999987,4037
59.800663999999855,12.437143999999988,4022
59.15266399999986,11.141143999999988,4149
59.15266399999986,14.381143999999988,3941
58.82866399999986,11.789143999999988,4137
58.50466399999986,12.437143999999988,3945
58.180663999999865,12.437143999999988,3938
57.85666399999987,11.789143999999988,3910
62.71666399999984,7.90114399999999,4536
62.39266399999984,7.90114399999999,4493
62.06866399999984,8.54914399999999,4468
60.44866399999985,5.309143999999991,4845
60.44866399999985,5.957143999999991,5212
60.77266399999985,5.957143999999991,5183
62.39266399999984,11.141143999999988,4511
62.06866399999984,10.493143999999988,4468
61.74466399999984,11.141143999999988,4441
61.420663999999846,11.141143999999988,4394
61.09666399999985,11.141143999999988,4376
60.77266399999985,11.789143999999988,4353
63.04066399999984,11.141143999999988,4595
62.71666399999984,11.141143999999988,4535
62.39266399999984,10.493143999999988,4495
67.25266399999981,15.677143999999986,5270
67.25266399999981,15.029143999999986,5308
67.25266399999981,14.381143999999988,5336
66.92866399999981,15.029143999999986,5259
66.60466399999981,15.677143999999986,5237
64.01266399999983,11.141143999999988,4628
66.60466399999981,15.029143999999986,5700
54.29266399999989,18.269143999999983,2552
54.616663999999886,17.621143999999987,2588
53.96866399999989,18.269143999999983,2603
43.92466399999995,1.4211439999999929,2699
44.24866399999995,0.7731439999999932,2664
44.572663999999946,0.1251439999999934,2665
46.84066399999993,1.4211439999999929,2563
44.572663999999946,1.4211439999999929,2774
44.24866399999995,1.4211439999999929,2750
45.54466399999994,1.4211439999999929,2679
46.516663999999935,1.4211439999999929,2620
42.30466399999996,2.717143999999992,2685
44.24866399999995,2.717143999999992,2889
44.572663999999946,2.717143999999992,2923
43.92466399999995,2.0691439999999925,2712
42.30466399999996,2.0691439999999925,2669
42.62866399999996,2.0691439999999925,2633
42.62866399999996,1.4211439999999929,2672
42.95266399999996,1.4211439999999929,2681
43.276663999999954,1.4211439999999929,2654
46.516663999999935,-1.170856000000006,2640
46.19266399999994,-1.170856000000006,2665
45.86866399999994,-0.5228560000000062,2641
45.54466399999994,-0.5228560000000062,2622
48.46066399999992,1.4211439999999929,2455
41.332663999999966,2.0691439999999925,2934
41.98066399999996,2.717143999999992,2893
48.46066399999992,-1.8188560000000056,2590
47.81266399999993,0.7731439999999932,2683
46.84066399999993,0.7731439999999932,2620
44.572663999999946,-1.170856000000006,2605
43.60066399999995,-1.170856000000006,2805
43.276663999999954,-1.8188560000000056,2895
43.276663999999954,0.1251439999999934,2810
42.95266399999996,0.1251439999999934,2787
43.276663999999954,-0.5228560000000062,2841
43.60066399999995,-0.5228560000000062,2830
47.81266399999993,-3.7628560000000046,2668
47.48866399999993,-2.4668560000000053,2624
47.81266399999993,-0.5228560000000062,2569
46.516663999999935,-1.8188560000000056,2668
48.136663999999925,-1.170856000000006,2652
47.48866399999993,-1.170856000000006,2576
45.22066399999994,8.54914399999999,2406
45.22066399999994,7.90114399999999,2419
46.19266399999994,-0.5228560000000062,2621
46.516663999999935,-0.5228560000000062,2603
48.78466399999992,-3.114856000000005,2724
50.72866399999991,2.0691439999999925,2418
50.40466399999991,2.0691439999999925,2432
40.36066399999997,-3.7628560000000046,4305
41.65666399999997,-1.170856000000006,4222
41.332663999999966,1.4211439999999929,4160
43.276663999999954,13.733143999999989,65535
42.95266399999996,13.733143999999989,65535
41.65666399999997,15.029143999999986,65535
40.68466399999997,17.621143999999987,65535
43.60066399999995,13.085143999999987,5568
41.65666399999997,12.437143999999988,5366
41.65666399999997,13.085143999999987,5373
41.98066399999996,13.085143999999987,5384
41.65666399999997,13.733143999999989,5421
41.332663999999966,13.733143999999989,5450
41.332663999999966,14.381143999999988,5669
41.00866399999997,14.381143999999988,5575
41.332663999999966,13.085143999999987,5433
41.00866399999997,15.029143999999986,5775
41.98066399999996,13.733143999999989,5466
42.30466399999996,14.381143999999988,5856
42.30466399999996,12.437143999999988,5411
42.62866399999996,12.437143999999988,5419
42.95266399999996,12.437143999999988,5476
42.30466399999996,11.789143999999988,5380
42.95266399999996,11.789143999999988,5676
42.62866399999996,11.789143999999988,5667
43.276663999999954,11.789143999999988,5730
42.95266399999996,13.085143999999987,5469
42.30466399999996,13.085143999999987,8623
43.276663999999954,13.085143999999987,5521
43.276663999999954,12.437143999999988,5529
42.62866399999996,11.141143999999988,5512
42.95266399999996,11.141143999999988,5555
42.95266399999996,10.493143999999988,5573
44.572663999999946,8.54914399999999,2450
44.89666399999994,7.90114399999999,2424
44.89666399999994,9.197143999999987,2472
44.24866399999995,7.90114399999999,2483
44.572663999999946,7.90114399999999,2441
43.92466399999995,7.90114399999999,2499
44.24866399999995,7.25314399999999,2501
44.89666399999994,7.25314399999999,2447
45.22066399999994,7.25314399999999,2428
45.54466399999994,7.90114399999999,2438
44.572663999999946,7.25314399999999,2482
52.996663999999896,22.805143999999984,2484
52.996663999999896,23.45314399999998,2493
51.37666399999991,22.15714399999998,2251
51.37666399999991,22.805143999999984,2280
50.08066399999991,20.213143999999986,1753
50.72866399999991,20.213143999999986,2190
50.40466399999991,20.213143999999986,1830
50.08066399999991,20.86114399999998,1694
50.08066399999991,21.50914399999997,1815
50.08066399999991,22.15714399999998,1848
50.08066399999991,22.805143999999984,1869
53.96866399999989,22.805143999999984,2919
53.64466399999989,23.45314399999998,2697
53.32066399999989,23.45314399999998,2651
50.40466399999991,19.565143999999982,1828
50.08066399999991,18.917143999999983,1855
50.08066399999991,18.269143999999983,1965
52.0246639999999,22.805143999999984,2380
52.0246639999999,23.45314399999998,2418
51.37666399999991,19.565143999999982,2381
51.05266399999991,19.565143999999982,2335
50.72866399999991,18.917143999999983,2291
50.72866399999991,19.565143999999982,2247
49.75666399999992,18.917143999999983,1698
50.40466399999991,18.269143999999983,2135
53.64466399999989,19.565143999999982,2452
53.96866399999989,18.917143999999983,2522
53.64466399999989,18.917143999999983,2471
53.64466399999989,20.213143999999986,2490
52.996663999999896,18.917143999999983,2405
52.996663999999896,18.269143999999983,2381
53.32066399999989,18.917143999999983,2410
50.72866399999991,17.621143999999987,2170
50.72866399999991,18.269143999999983,2189
52.6726639999999,16.325143999999987,2335
52.996663999999896,16.325143999999987,2338
52.996663999999896,15.677143999999986,2394
53.32066399999989,15.677143999999986,2442
53.32066399999989,15.029143999999986,2439
53.64466399999989,15.029143999999986,2445
53.96866399999989,15.029143999999986,2449
52.6726639999999,18.917143999999983,2415
53.32066399999989,16.325143999999987,2388
52.6726639999999,15.029143999999986,2400
51.05266399999991,22.805143999999984,2271
51.05266399999991,23.45314399999998,2283
50.72866399999991,22.15714399999998,2221
50.40466399999991,22.15714399999998,2210
51.05266399999991,22.15714399999998,2234
54.616663999999886,16.973143999999984,2548
54.29266399999989,16.325143999999987,2498
53.96866399999989,15.677143999999986,2497
50.72866399999991,21.50914399999997,2251
50.40466399999991,21.50914399999997,1868
50.40466399999991,17.621143999999987,2295
53.32066399999989,22.805143999999984,2554
53.64466399999989,22.15714399999998,2613
54.29266399999989,16.973143999999984,2524
50.72866399999991,20.86114399999998,2224
51.700663999999904,22.805143999999984,2440
51.05266399999991,21.50914399999997,2328
50.08066399999991,19.565143999999982,1782
52.0246639999999,18.917143999999983,8008
52.0246639999999,19.565143999999982,8001
53.64466399999989,18.269143999999983,2502
51.700663999999904,20.213143999999986,2421
53.32066399999989,19.565143999999982,2442
50.72866399999991,23.45314399999998,2635
50.72866399999991,22.805143999999984,2604
49.43266399999992,20.213143999999986,1906
49.75666399999992,21.50914399999997,1924
49.75666399999992,22.15714399999998,2262
49.43266399999992,22.15714399999998,1822
51.05266399999991,18.917143999999983,2373
51.05266399999991,18.269143999999983,2229
53.32066399999989,16.973143999999984,2375
53.64466399999989,16.973143999999984,2401
49.75666399999992,20.86114399999998,1670
50.40466399999991,22.805143999999984,8090
53.64466399999989,16.325143999999987,2411
53.96866399999989,20.86114399999998,2742
54.29266399999989,20.86114399999998,2788
53.96866399999989,21.50914399999997,2738
53.64466399999989,15.677143999999986,2462
53.96866399999989,20.213143999999986,2545
53.96866399999989,19.565143999999982,2581
54.29266399999989,19.565143999999982,2595
53.96866399999989,16.325143999999987,2445
53.64466399999989,17.621143999999987,2538
53.96866399999989,22.15714399999998,2630
53.64466399999989,21.50914399999997,2736
53.64466399999989,20.86114399999998,2780
52.6726639999999,15.677143999999986,2396
51.05266399999991,20.213143999999986,2403
54.940663999999884,24.101143999999977,3201
54.616663999999886,23.45314399999998,3145
54.29266399999989,23.45314399999998,3008
53.64466399999989,22.805143999999984,2603
53.96866399999989,16.973143999999984,2545
50.40466399999991,20.86114399999998,2266
53.32066399999989,18.269143999999983,2511
49.75666399999992,19.565143999999982,1856
50.40466399999991,23.45314399999998,1885
49.75666399999992,20.213143999999986,1910
49.43266399999992,19.565143999999982,1858
49.43266399999992,20.86114399999998,1608
53.96866399999989,17.621143999999987,2748
42.30466399999996,-1.8188560000000056,8319
41.98066399999996,-1.8188560000000056,8302
41.65666399999997,0.7731439999999932,8306
42.62866399999996,-1.8188560000000056,8434
42.95266399999996,-1.8188560000000056,8463
42.62866399999996,-3.114856000000005,8557
42.95266399999996,-2.4668560000000053,8535
42.62866399999996,-7.650856000000003,8899
42.30466399999996,-7.650856000000003,8959
42.30466399999996,-8.946856000000002,9095
42.30466399999996,-8.298856000000002,9069
41.98066399999996,-8.298856000000002,9058
42.30466399999996,-7.002856000000003,8841
42.62866399999996,-6.354856000000003,8783
42.30466399999996,-6.354856000000003,8738
42.62866399999996,-5.706856000000004,8238
41.98066399999996,-4.410856000000004,8192
42.30466399999996,-3.7628560000000046,8583
40.03666399999997,-0.5228560000000062,8286
39.38866399999998,-0.5228560000000062,8334
41.00866399999997,0.7731439999999932,8434
40.68466399999997,0.7731439999999932,8466
40.36066399999997,0.1251439999999934,8544
39.712663999999975,-0.5228560000000062,8443
38.41666399999998,-0.5228560000000062,8455
39.06466399999998,-0.5228560000000062,8577
38.74066399999998,-1.170856000000006,8463
41.332663999999966,0.7731439999999932,8494
41.65666399999997,2.717143999999992,8094
41.65666399999997,2.0691439999999925,8117
41.332663999999966,0.1251439999999934,8452
41.332663999999966,-0.5228560000000062,8396
41.65666399999997,-4.410856000000004,8166
40.03666399999997,-2.4668560000000053,8404
41.00866399999997,-4.410856000000004,8287
43.276663999999954,-5.706856000000004,8368
39.38866399999998,-1.170856000000006,8429
38.09266399999999,-1.170856000000006,8842
38.74066399999998,-0.5228560000000062,8605
37.76866399999999,-1.170856000000006,8907
39.06466399999998,-1.8188560000000056,8427
39.38866399999998,-3.114856000000005,8327
39.38866399999998,-2.4668560000000053,8383
39.06466399999998,-2.4668560000000053,8410
39.06466399999998,-3.114856000000005,8331
39.06466399999998,-3.7628560000000046,8305
38.74066399999998,-3.7628560000000046,8384
40.03666399999997,-3.7628560000000046,8283
40.03666399999997,-3.114856000000005,8483
40.03666399999997,-1.8188560000000056,8564
39.712663999999975,-1.8188560000000056,8529
39.712663999999975,-1.170856000000006,8465
40.36066399999997,-1.170856000000006,8484
40.68466399999997,-1.170856000000006,8462
41.00866399999997,-1.170856000000006,8450
41.332663999999966,-1.170856000000006,8290
43.276663999999954,-8.298856000000002,9059
42.95266399999996,-8.298856000000002,9027
41.65666399999997,-5.706856000000004,65535
41.98066399999996,-7.002856000000003,65535
41.98066399999996,-6.354856000000003,65535
41.332663999999966,-5.058856000000004,8405
43.276663999999954,-3.7628560000000046,8840
42.95266399999996,-4.410856000000004,8774
42.62866399999996,-4.410856000000004,8764
42.30466399999996,-4.410856000000004,8723
41.00866399999997,-5.706856000000004,8343
41.332663999999966,-1.8188560000000056,8236
40.68466399999997,-3.114856000000005,8190
41.00866399999997,-3.114856000000005,8241
41.00866399999997,-2.4668560000000053,8264
41.332663999999966,-2.4668560000000053,8317
40.68466399999997,-4.410856000000004,8227
40.36066399999997,-4.410856000000004,8311
40.68466399999997,-3.7628560000000046,8219
40.36066399999997,-3.114856000000005,8197
41.65666399999997,-2.4668560000000053,8334
38.09266399999999,-3.7628560000000046,8431
38.74066399999998,-3.114856000000005,8375
37.76866399999999,-3.7628560000000046,8488
39.712663999999975,-3.114856000000005,8319
38.41666399999998,-3.7628560000000046,8396
40.03666399999997,-4.410856000000004,65535
40.03666399999997,-5.058856000000004,65535
39.38866399999998,-6.354856000000003,65535
39.38866399999998,-7.002856000000003,65535
42.95266399999996,-3.114856000000005,8968
41.98066399999996,-1.170856000000006,8331
42.30466399999996,-2.4668560000000053,8372
41.65666399999997,-0.5228560000000062,8429
41.98066399999996,-0.5228560000000062,8266
41.65666399999997,0.1251439999999934,8293
41.98066399999996,0.1251439999999934,8315
37.76866399999999,-5.058856000000004,8367
36.79666399999999,-4.410856000000004,8426
38.74066399999998,-4.410856000000004,8323
37.12066399999999,-4.410856000000004,8400
37.44466399999999,-5.058856000000004,8924
37.44466399999999,-7.002856000000003,65535
37.44466399999999,-6.354856000000003,65535
37.44466399999999,-5.706856000000004,8600
39.712663999999975,-3.7628560000000046,8393
42.62866399999996,-8.946856000000002,65535
42.30466399999996,-5.706856000000004,8745
42.30466399999996,-5.058856000000004,8830
42.95266399999996,-5.706856000000004,8270
41.00866399999997,-5.058856000000004,8311
40.68466399999997,-5.058856000000004,8285
41.65666399999997,-5.058856000000004,65535
41.65666399999997,-6.354856000000003,65535
36.79666399999999,-6.354856000000003,65535
37.12066399999999,-5.706856000000004,8768
37.76866399999999,-5.706856000000004,8567
38.09266399999999,-4.410856000000004,8702
37.12066399999999,-5.058856000000004,8722
36.79666399999999,-5.058856000000004,8680
37.76866399999999,-4.410856000000004,65535
37.76866399999999,-7.002856000000003,65535
38.41666399999998,-6.354856000000003,65535
38.09266399999999,-6.354856000000003,65535
48.78466399999992,1.4211439999999929,2521
56.23666399999988,8.54914399999999,6610
55.58866399999988,9.197143999999987,6415
55.91266399999988,9.197143999999987,6556
55.26466399999988,10.493143999999988,3474
55.91266399999988,12.437143999999988,3609
55.58866399999988,11.789143999999988,6255
55.58866399999988,11.141143999999988,6296
55.26466399999988,11.789143999999988,6288
55.58866399999988,10.493143999999988,6411
55.58866399999988,13.085143999999987,3566
56.88466399999987,9.845143999999989,6562
57.20866399999987,9.845143999999989,6597
56.56066399999988,9.845143999999989,6534
56.88466399999987,8.54914399999999,6649
54.940663999999884,9.845143999999989,7756
54.940663999999884,11.789143999999988,6512
55.91266399999988,13.085143999999987,3675
56.23666399999988,13.733143999999989,3695
55.91266399999988,13.733143999999989,3693
56.23666399999988,14.381143999999988,3734
56.23666399999988,15.029143999999986,3852
56.23666399999988,15.677143999999986,3907
56.56066399999988,14.381143999999988,3774
56.88466399999987,14.381143999999988,3739
56.23666399999988,13.085143999999987,3676
56.56066399999988,13.085143999999987,3810
56.88466399999987,12.437143999999988,3853
57.20866399999987,12.437143999999988,3869
57.53266399999987,12.437143999999988,3899
56.88466399999987,15.029143999999986,3875
56.56066399999988,15.677143999999986,3969
56.88466399999987,15.677143999999986,4003
56.88466399999987,16.325143999999987,4019
55.91266399999988,11.789143999999988,6581
57.20866399999987,10.493143999999988,6784
49.43266399999992,1.4211439999999929,2463
49.75666399999992,0.7731439999999932,2502
49.75666399999992,2.0691439999999925,2420
50.08066399999991,2.717143999999992,2450
49.75666399999992,1.4211439999999929,2480
47.81266399999993,1.4211439999999929,2549
48.136663999999925,2.0691439999999925,2745
48.46066399999992,2.0691439999999925,2576
48.136663999999925,1.4211439999999929,2550
48.78466399999992,0.1251439999999934,2625
48.46066399999992,0.1251439999999934,2690
47.81266399999993,0.1251439999999934,2557
46.84066399999993,-0.5228560000000062,2562
47.16466399999993,0.7731439999999932,2509
46.84066399999993,0.1251439999999934,2687
46.84066399999993,-1.170856000000006,2612
50.08066399999991,1.4211439999999929,2454
50.08066399999991,2.0691439999999925,2465
49.43266399999992,2.717143999999992,2412
49.75666399999992,3.365143999999992,2419
50.08066399999991,3.365143999999992,2422
49.10866399999992,2.0691439999999925,2461
49.43266399999992,2.0691439999999925,2406
48.78466399999992,0.7731439999999932,2582
48.78466399999992,-0.5228560000000062,2721
48.78466399999992,-1.170856000000006,2670
48.136663999999925,0.7731439999999932,2509
48.46066399999992,0.7731439999999932,2531
43.92466399999995,5.957143999999991,2576
44.24866399999995,5.957143999999991,2547
43.92466399999995,5.309143999999991,2501
42.95266399999996,2.717143999999992,2597
45.54466399999994,2.0691439999999925,2805
45.22066399999994,2.0691439999999925,2753
42.95266399999996,2.0691439999999925,2679
42.95266399999996,0.7731439999999932,2738
43.276663999999954,0.7731439999999932,2667
46.19266399999994,0.7731439999999932,2692
46.516663999999935,0.7731439999999932,2649
45.86866399999994,0.1251439999999934,2705
46.19266399999994,0.1251439999999934,2709
47.81266399999993,-1.170856000000006,2763
48.136663999999925,-2.4668560000000053,2687
47.48866399999993,-1.8188560000000056,2607
47.16466399999993,-1.170856000000006,2589
47.16466399999993,-0.5228560000000062,2571
46.84066399999993,-1.8188560000000056,2636
45.22066399999994,-0.5228560000000062,2627
44.89666399999994,0.1251439999999934,2642
45.22066399999994,0.7731439999999932,2681
45.54466399999994,0.7731439999999932,2735
45.86866399999994,0.7731439999999932,2682
45.22066399999994,0.1251439999999934,2704
44.89666399999994,0.7731439999999932,2695
43.92466399999995,-0.5228560000000062,2736
43.92466399999995,-1.170856000000006,2716
44.24866399999995,-1.170856000000006,2670
45.22066399999994,-1.170856000000006,2658
44.572663999999946,-0.5228560000000062,2629
44.24866399999995,0.1251439999999934,2717
44.572663999999946,0.7731439999999932,2717
43.276663999999954,-1.170856000000006,2872
42.95266399999996,-0.5228560000000062,2853
44.24866399999995,2.0691439999999925,2769
43.60066399999995,0.7731439999999932,2684
43.60066399999995,2.0691439999999925,2776
52.6726639999999,4.661143999999991,6601
52.6726639999999,5.309143999999991,6624
51.700663999999904,5.309143999999991,6569
52.0246639999999,5.309143999999991,6581
52.3486639999999,5.309143999999991,6597
51.37666399999991,4.013143999999992,6577
52.3486639999999,5.957143999999991,6591
52.0246639999999,6.60514399999999,6621
52.6726639999999,5.957143999999991,6608
52.996663999999896,5.957143999999991,6621
53.32066399999989,5.957143999999991,6615
52.996663999999896,6.60514399999999,6597
53.32066399999989,6.60514399999999,6589
52.6726639999999,6.60514399999999,6617
52.996663999999896,5.309143999999991,6636
59.15266399999986,24.101143999999977,65535
56.88466399999987,24.101143999999977,65535
56.88466399999987,23.45314399999998,65535
56.88466399999987,22.805143999999984,65535
57.20866399999987,24.74914399999998,65535
56.88466399999987,24.74914399999998,65535
56.56066399999988,24.74914399999998,65535
56.56066399999988,25.397143999999983,65535
56.56066399999988,24.101143999999977,65535
56.56066399999988,23.45314399999998,65535
56.56066399999988,26.04514399999998,65535
56.88466399999987,26.04514399999998,65535
57.20866399999987,25.397143999999983,65535
57.53266399999987,25.397143999999983,65535
56.23666399999988,26.04514399999998,65535
56.23666399999988,26.69314399999997,65535
55.91266399999988,26.69314399999997,65535
56.56066399999988,26.69314399999997,65535
56.56066399999988,27.34114399999998,65535
56.56066399999988,27.989143999999985,65535
56.23666399999988,27.989143999999985,65535
55.91266399999988,27.34114399999998,65535
56.56066399999988,22.805143999999984,65535
56.56066399999988,22.15714399999998,65535
56.56066399999988,21.50914399999997,65535
57.20866399999987,26.69314399999997,65535
39.06466399999998,-8.946856000000002,65535
38.41666399999998,-8.298856000000002,65535
45.86866399999994,11.789143999999988,3988
46.19266399999994,11.789143999999988,3975
46.19266399999994,10.493143999999988,3965
45.22066399999994,18.269143999999983,1968
45.22066399999994,18.917143999999983,2010
45.54466399999994,16.973143999999984,1831
45.22066399999994,17.621143999999987,1909
45.86866399999994,16.325143999999987,1726
45.54466399999994,18.917143999999983,2281
45.54466399999994,16.325143999999987,1785
45.54466399999994,18.269143999999983,2201
44.89666399999994,18.917143999999983,2856
46.19266399999994,16.973143999999984,1690
46.19266399999994,16.325143999999987,1715
45.86866399999994,16.973143999999984,1737
45.86866399999994,17.621143999999987,1769
46.19266399999994,15.677143999999986,1674
46.516663999999935,16.325143999999987,1661
45.54466399999994,15.677143999999986,1734
45.22066399999994,15.029143999999986,1884
45.54466399999994,15.029143999999986,1849
45.22066399999994,15.677143999999986,1869
44.572663999999946,15.677143999999986,2024
44.24866399999995,15.677143999999986,2050
43.92466399999995,16.325143999999987,2133
44.89666399999994,15.677143999999986,1980
45.54466399999994,17.621143999999987,2169
45.22066399999994,16.325143999999987,1925
46.516663999999935,16.973143999999984,1682
45.86866399999994,18.269143999999983,2334
43.92466399999995,15.677143999999986,2274
45.22066399999994,13.733143999999989,2262
47.48866399999993,19.565143999999982,1354
47.16466399999993,18.917143999999983,1353
47.81266399999993,18.917143999999983,1354
45.54466399999994,9.845143999999989,2380
45.22066399999994,9.845143999999989,2399
45.22066399999994,10.493143999999988,2478
45.86866399999994,9.845143999999989,2373
45.86866399999994,10.493143999999988,6678
48.78466399999992,21.50914399999997,1516
49.10866399999992,20.213143999999986,1601
49.10866399999992,18.917143999999983,1686
48.46066399999992,17.621143999999987,1497
49.43266399999992,17.621143999999987,1650
49.10866399999992,17.621143999999987,2272
48.136663999999925,18.269143999999983,1466
49.10866399999992,18.269143999999983,1553
49.43266399999992,18.269143999999983,1611
49.43266399999992,16.973143999999984,1681
49.75666399999992,16.973143999999984,1693
49.75666399999992,16.325143999999987,1727
50.08066399999991,15.677143999999986,1770
50.08066399999991,15.029143999999986,1790
49.43266399999992,18.917143999999983,1675
47.81266399999993,20.86114399999998,1435
48.136663999999925,20.86114399999998,1466
48.46066399999992,20.86114399999998,1508
48.46066399999992,21.50914399999997,1512
49.10866399999992,19.565143999999982,1730
48.136663999999925,17.621143999999987,1486
48.78466399999992,22.15714399999998,1670
48.78466399999992,20.86114399999998,1825
49.10866399999992,20.86114399999998,1595
48.78466399999992,18.269143999999983,1532
48.78466399999992,17.621143999999987,1589
49.10866399999992,21.50914399999997,1581
48.78466399999992,20.213143999999986,1869
48.46066399999992,20.213143999999986,1881
48.136663999999925,19.565143999999982,1954
48.46066399999992,19.565143999999982,1968
48.46066399999992,18.917143999999983,1534
48.46066399999992,18.269143999999983,1521
48.78466399999992,19.565143999999982,1849
48.78466399999992,18.917143999999983,1648
47.81266399999993,18.269143999999983,1457
49.10866399999992,22.15714399999998,1724
49.43266399999992,21.50914399999997,1654
48.136663999999925,18.917143999999983,1447
48.136663999999925,20.213143999999986,2227
52.636,-8.018,65535
52.312,-7.370000000000001,65535
52.312,-8.018,65535
52.636,-8.666,65535
51.988,-8.666,65535
51.988,-8.018,65535
52.96,-8.666,65535
52.96,-6.074000000000002,65535
53.28399999999999,-6.722000000000001,65535
53.60799999999999,-6.722000000000001,65535
53.60799999999999,-7.370000000000001,65535
53.60799999999999,-8.018,65535
54.25599999999999,-8.666,65535
53.93199999999999,-8.666,65535
53.93199999999999,-8.018,65535
52.312,-6.722000000000001,65535
52.636,-6.722000000000001,65535
53.93199999999999,-6.722000000000001,65535
54.25599999999999,-6.074000000000002,65535
53.28399999999999,-7.370000000000001,65535
52.96,-7.370000000000001,65535
52.312,-8.666,65535
52.96,-8.018,65535
52.636,-7.370000000000001,65535
52.96,-6.722000000000001,65535
51.988,-9.314,65535
52.312,-9.314,65535
54.579999999999984,-6.722000000000001,65535
54.579999999999984,-6.074000000000002,65535
53.28399999999999,-8.018,65535
53.28399999999999,-8.666,65535
53.28399999999999,-9.314,65535
53.93199999999999,-9.314,65535
54.25599999999999,-9.314,65535
53.60799999999999,-8.666,65535
53.60799999999999,-9.314,65535
49.43266399999992,14.381143999999988,1854
49.75666399999992,14.381143999999988,1832
49.75666399999992,15.029143999999986,1828
49.75666399999992,13.733143999999989,1885
50.08066399999991,13.733143999999989,1853
49.75666399999992,15.677143999999986,1810
50.40466399999991,15.029143999999986,1831
49.43266399999992,13.733143999999989,1936
50.40466399999991,15.677143999999986,2183
50.40466399999991,13.733143999999989,1888
46.19266399999994,15.029143999999986,1722
45.86866399999994,15.029143999999986,1761
45.86866399999994,14.381143999999988,1739
46.19266399999994,13.733143999999989,2205
45.86866399999994,13.733143999999989,2281
58.50466399999986,13.733143999999989,3912
58.180663999999865,13.733143999999989,3885
58.180663999999865,13.085143999999987,3911
57.85666399999987,12.437143999999988,3916
60.44866399999985,15.677143999999986,4067
60.124663999999854,15.677143999999986,4055
60.124663999999854,16.325143999999987,4039
59.800663999999855,16.325143999999987,4004
59.800663999999855,17.621143999999987,3976
59.47666399999986,18.269143999999983,3951
61.74466399999984,16.973143999999984,4138
61.420663999999846,16.973143999999984,4110
60.77266399999985,16.973143999999984,4035
65.63266399999982,22.15714399999998,5182
65.95666399999982,21.50914399999997,5142
65.63266399999982,20.86114399999998,5113
64.98466399999982,20.213143999999986,5045
64.66066399999983,20.213143999999986,5023
64.33666399999983,19.565143999999982,5224
64.01266399999983,19.565143999999982,5428
63.68866399999983,20.213143999999986,4385
64.66066399999983,18.917143999999983,5654
59.15266399999986,16.325143999999987,3903
59.15266399999986,15.029143999999986,3907
59.15266399999986,17.621143999999987,3937
57.53266399999987,14.381143999999988,3779
57.53266399999987,15.029143999999986,3930
61.09666399999985,14.381143999999988,4171
60.77266399999985,15.029143999999986,4122
60.44866399999985,15.029143999999986,4108
58.180663999999865,15.029143999999986,3826
58.50466399999986,16.325143999999987,3864
58.50466399999986,15.677143999999986,3836
63.36466399999984,13.085143999999987,4415
63.04066399999984,14.381143999999988,4352
62.39266399999984,15.677143999999986,4274
63.36466399999984,13.733143999999989,4397
63.36466399999984,14.381143999999988,4369
62.71666399999984,15.677143999999986,4302
62.39266399999984,17.621143999999987,4193
59.800663999999855,15.677143999999986,4178
55.58866399999988,13.733143999999989,5798
57.20866399999987,14.381143999999988,3926
57.85666399999987,14.381143999999988,3805
58.82866399999986,16.973143999999984,3912
58.82866399999986,16.325143999999987,3890
59.15266399999986,18.269143999999983,3943
60.44866399999985,17.621143999999987,4009
59.15266399999986,12.437143999999988,4004
59.15266399999986,13.085143999999987,4015
58.82866399999986,12.437143999999988,3980
59.47666399999986,16.325143999999987,3949
58.82866399999986,14.381143999999988,3936
59.47666399999986,15.677143999999986,3967
63.36466399999984,18.917143999999983,4338
63.04066399999984,17.621143999999987,4292
62.71666399999984,17.621143999999987,4267
63.68866399999983,19.565143999999982,4373
62.39266399999984,16.973143999999984,4213
59.800663999999855,16.973143999999984,4015
59.47666399999986,17.621143999999987,3957
57.85666399999987,13.085143999999987,3930
57.53266399999987,13.085143999999987,3942
58.50466399999986,11.789143999999988,3950
57.85666399999987,15.029143999999986,3810
57.20866399999987,13.733143999999989,3906
57.53266399999987,13.733143999999989,3976
61.74466399999984,16.325143999999987,4116
61.420663999999846,16.325143999999987,4085
61.09666399999985,16.325143999999987,4075
61.09666399999985,16.973143999999984,4059
60.124663999999854,15.029143999999986,4044
66.60466399999981,20.86114399999998,5217
67.25266399999981,20.86114399999998,5285
67.90066399999981,20.213143999999986,5355
67.57666399999981,20.213143999999986,5980
59.800663999999855,15.029143999999986,3996
58.50466399999986,15.029143999999986,3848
59.47666399999986,15.029143999999986,3981
60.44866399999985,16.325143999999987,4128
59.15266399999986,15.677143999999986,3917
57.85666399999987,13.733143999999989,3862
58.82866399999986,13.733143999999989,4052
58.50466399999986,13.085143999999987,3987
57.20866399999987,13.085143999999987,3896
56.88466399999987,13.085143999999987,3865
58.180663999999865,11.789143999999988,3921
62.06866399999984,16.973143999999984,4247
65.95666399999982,23.45314399999998,5541
59.800663999999855,14.381143999999988,5411
59.800663999999855,18.269143999999983,4004
63.04066399999984,15.029143999999986,4320
62.71666399999984,15.029143999999986,4310
62.39266399999984,16.325143999999987,4243
63.36466399999984,12.437143999999988,4448
68.5486639999998,17.621143999999987,5568
68.5486639999998,18.269143999999983,5501
68.5486639999998,18.917143999999983,5478
68.2246639999998,18.917143999999983,5434
59.800663999999855,13.085143999999987,4120
60.124663999999854,13.085143999999987,4159
59.47666399999986,16.973143999999984,3978
59.15266399999986,16.973143999999984,3987
56.56066399999988,13.733143999999989,3759
60.124663999999854,17.621143999999987,3986
57.85666399999987,16.325143999999987,3915
58.180663999999865,16.325143999999987,3877
58.180663999999865,15.677143999999986,3885
57.20866399999987,16.325143999999987,3990
57.53266399999987,15.677143999999986,3945
57.85666399999987,15.677143999999986,3916
44.89666399999994,23.45314399999998,130
44.572663999999946,23.45314399999998,55
44.89666399999994,24.74914399999998,119
44.572663999999946,24.74914399999998,28
44.572663999999946,24.101143999999977,15
44.24866399999995,24.101143999999977,0
47.48866399999993,25.397143999999983,819
47.48866399999993,24.74914399999998,833
47.16466399999993,24.74914399999998,755
47.16466399999993,24.101143999999977,714
47.48866399999993,22.15714399999998,843
47.81266399999993,22.15714399999998,873
47.16466399999993,22.15714399999998,833
47.16466399999993,23.45314399999998,818
47.16466399999993,22.805143999999984,824
46.84066399999993,24.101143999999977,738
45.86866399999994,27.34114399999998,579
45.54466399999994,27.34114399999998,405
45.54466399999994,27.989143999999985,568
45.86866399999994,20.86114399999998,502
45.86866399999994,21.50914399999997,412
46.19266399999994,21.50914399999997,520
46.19266399999994,27.34114399999998,601
46.19266399999994,26.69314399999997,770
46.516663999999935,26.69314399999997,638
46.516663999999935,26.04514399999998,480
47.48866399999993,22.805143999999984,885
46.84066399999993,22.805143999999984,805
45.54466399999994,22.15714399999998,356
45.22066399999994,22.15714399999998,760
44.89666399999994,22.15714399999998,275
47.48866399999993,23.45314399999998,851
46.516663999999935,24.101143999999977,654
46.516663999999935,24.74914399999998,784
45.86866399999994,24.101143999999977,260
47.16466399999993,26.69314399999997,696
47.16466399999993,27.34114399999998,737
43.92466399999995,25.397143999999983,249
44.24866399999995,24.74914399999998,50
44.89666399999994,26.04514399999998,293
44.89666399999994,26.69314399999997,300
45.22066399999994,26.69314399999997,344
45.22066399999994,27.34114399999998,372
46.84066399999993,26.69314399999997,669
47.48866399999993,26.69314399999997,713
44.24866399999995,25.397143999999983,124
43.92466399999995,26.04514399999998,392
46.19266399999994,24.101143999999977,280
44.572663999999946,25.397143999999983,228
46.84066399999993,24.74914399999998,647
46.516663999999935,21.50914399999997,738
46.84066399999993,21.50914399999997,785
44.572663999999946,26.69314399999997,304
44.572663999999946,27.34114399999998,349
44.89666399999994,27.34114399999998,428
44.572663999999946,27.989143999999985,409
44.24866399999995,27.989143999999985,424
44.572663999999946,28.63714399999997,695
45.86866399999994,22.15714399999998,645
45.86866399999994,22.805143999999984,510
44.24866399999995,23.45314399999998,42
43.92466399999995,27.989143999999985,65535
46.84066399999993,27.34114399999998,745
45.22066399999994,23.45314399999998,199
45.54466399999994,23.45314399999998,279
45.54466399999994,24.101143999999977,188
45.22066399999994,24.101143999999977,108
44.89666399999994,24.101143999999977,83
46.19266399999994,22.15714399999998,696
46.516663999999935,22.15714399999998,722
45.22066399999994,21.50914399999997,845
45.54466399999994,21.50914399999997,417
45.54466399999994,20.86114399999998,815
46.516663999999935,27.989143999999985,710
46.19266399999994,27.989143999999985,674
45.54466399999994,25.397143999999983,385
45.22066399999994,25.397143999999983,348
45.22066399999994,26.04514399999998,344
47.81266399999993,24.101143999999977,946
47.48866399999993,26.04514399999998,786
47.81266399999993,26.04514399999998,743
46.19266399999994,23.45314399999998,410
45.86866399999994,23.45314399999998,326
44.24866399999995,26.04514399999998,319
45.22066399999994,27.989143999999985,574
45.86866399999994,24.74914399999998,269
46.516663999999935,25.397143999999983,526
46.84066399999993,25.397143999999983,546
46.19266399999994,26.04514399999998,451
45.86866399999994,26.04514399999998,415
43.92466399999995,23.45314399999998,91
44.89666399999994,25.397143999999983,211
46.19266399999994,20.86114399999998,751
47.81266399999993,25.397143999999983,1028
44.572663999999946,22.805143999999984,168
44.572663999999946,22.15714399999998,250
46.516663999999935,23.45314399999998,756
45.86866399999994,25.397143999999983,355
44.24866399999995,27.34114399999998,1771
45.22066399999994,24.74914399999998,171
45.54466399999994,22.805143999999984,495
45.22066399999994,28.63714399999997,1022
44.89666399999994,28.63714399999997,961
47.81266399999993,23.45314399999998,1003
46.19266399999994,24.74914399999998,300
46.19266399999994,25.397143999999983,312
43.92466399999995,24.101143999999977,781
43.92466399999995,24.74914399999998,794
47.81266399999993,26.69314399999997,894
47.48866399999993,24.101143999999977,878
46.84066399999993,26.04514399999998,814
46.19266399999994,22.805143999999984,1010
47.48866399999993,27.34114399999998,828
46.19266399999994,20.213143999999986,65535
45.54466399999994,26.04514399999998,393
44.24866399999995,26.69314399999997,334
45.86866399999994,27.989143999999985,715
47.81266399999993,5.957143999999991,6586
