51.56399999999999,-0.4100000000000028,65535
51.887999999999984,-0.4100000000000028,65535
50.91599999999999,-1.7060000000000022,65535
51.23999999999999,-1.0580000000000025,65535
51.56399999999999,-1.0580000000000025,65535
51.23999999999999,-1.7060000000000022,65535
51.56399999999999,0.2379999999999968,65535
47.16466399999993,9.845143999999989,2724
47.48866399999993,9.845143999999989,2729
48.136663999999925,14.381143999999988,2254
47.81266399999993,13.085143999999987,2338
47.16466399999993,11.141143999999988,2826
47.48866399999993,11.789143999999988,2745
48.136663999999925,16.325143999999987,2014
47.48866399999993,12.437143999999988,2398
48.136663999999925,15.677143999999986,2059
47.16466399999993,10.493143999999988,2821
47.16466399999993,9.197143999999987,2720
48.136663999999925,13.733143999999989,2303
48.136663999999925,15.029143999999986,2179
47.81266399999993,16.973143999999984,2035
48.46066399999992,14.381143999999988,2344
47.48866399999993,13.085143999999987,2374
47.16466399999993,13.085143999999987,2392
47.48866399999993,14.381143999999988,2135
47.48866399999993,13.733143999999989,2213
47.48866399999993,15.029143999999986,2082
46.516663999999935,13.733143999999989,2243
46.84066399999993,13.733143999999989,2285
46.84066399999993,13.085143999999987,2722
48.78466399999992,14.381143999999988,65535
47.16466399999993,15.677143999999986,2075
46.516663999999935,14.381143999999988,2190
46.84066399999993,14.381143999999988,2293
47.16466399999993,14.381143999999988,2165
46.516663999999935,15.029143999999986,2166
47.81266399999993,16.325143999999987,2032
47.16466399999993,15.029143999999986,2124
47.81266399999993,15.677143999999986,2098
47.48866399999993,15.677143999999986,2051
46.516663999999935,13.085143999999987,3374
46.84066399999993,12.437143999999988,2759
48.136663999999925,11.789143999999988,2359
47.81266399999993,12.437143999999988,2355
46.84066399999993,15.677143999999986,2101
46.516663999999935,15.677143999999986,2143
46.84066399999993,16.325143999999987,2122
47.81266399999993,14.381143999999988,2211
48.78466399999992,16.973143999999984,2031
48.136663999999925,16.973143999999984,1996
48.46066399999992,13.733143999999989,2367
47.81266399999993,13.733143999999989,2771
50.08066399999991,8.54914399999999,2738
48.46066399999992,9.845143999999989,2425
51.05266399999991,7.25314399999999,2789
51.37666399999991,7.25314399999999,2802
51.37666399999991,6.60514399999999,2798
48.46066399999992,16.325143999999987,2019
48.46066399999992,16.973143999999984,2024
48.78466399999992,16.325143999999987,2032
48.46066399999992,15.677143999999986,2048
48.78466399999992,15.677143999999986,2133
47.48866399999993,16.325143999999987,2042
47.16466399999993,16.325143999999987,2069
46.19266399999994,14.381143999999988,2210
45.86866399999994,15.677143999999986,2207
43.60066399999995,16.325143999999987,2675
45.54466399999994,14.381143999999988,2225
45.54466399999994,13.733143999999989,2246
48.136663999999925,13.085143999999987,2328
48.46066399999992,11.141143999999988,2367
48.136663999999925,11.141143999999988,2361
48.46066399999992,7.90114399999999,2708
49.10866399999992,8.54914399999999,2705
48.78466399999992,2.0691439999999925,2900
49.10866399999992,7.25314399999999,2767
52.0246639999999,7.90114399999999,2830
47.16466399999993,11.789143999999988,2809
49.43266399999992,11.141143999999988,2452
53.64466399999989,9.845143999999989,2961
50.72866399999991,4.013143999999992,2855
51.05266399999991,11.141143999999988,2903
47.48866399999993,11.141143999999988,2374
46.84066399999993,11.789143999999988,4502
46.516663999999935,11.141143999999988,4471
45.54466399999994,11.141143999999988,4367
46.19266399999994,11.141143999999988,4437
45.86866399999994,11.141143999999988,4421
44.572663999999946,11.141143999999988,3252
43.92466399999995,12.437143999999988,65535
45.54466399999994,12.437143999999988,4710
45.54466399999994,11.789143999999988,4675
48.78466399999992,15.029143999999986,2172
47.81266399999993,15.029143999999986,2190
47.81266399999993,11.141143999999988,2368
50.40466399999991,18.917143999999983,2344
52.3486639999999,20.86114399999998,2839
54.616663999999886,18.269143999999983,3036
54.29266399999989,18.917143999999983,3030
49.10866399999992,14.381143999999988,65535
50.08066399999991,14.381143999999988,2306
48.78466399999992,13.733143999999989,4315
52.6726639999999,13.085143999999987,2796
52.3486639999999,13.085143999999987,2795
53.96866399999989,12.437143999999988,2919
54.29266399999989,12.437143999999988,2932
47.48866399999993,8.54914399999999,2730
47.81266399999993,17.621143999999987,1973
47.48866399999993,18.917143999999983,1820
47.48866399999993,20.86114399999998,1662
46.84066399999993,23.45314399999998,106
44.572663999999946,26.04514399999998,437
47.48866399999993,21.50914399999997,1619
47.81266399999993,21.50914399999997,2348
48.46066399999992,22.15714399999998,2017
47.48866399999993,16.973143999999984,65535
49.10866399999992,16.325143999999987,2136
49.75666399999992,18.269143999999983,2201
46.19266399999994,13.085143999999987,2783
41.98066399999996,12.437143999999988,5830
43.60066399999995,10.493143999999988,6086
45.54466399999994,9.197143999999987,2850
47.81266399999993,22.805143999999984,543
49.75666399999992,22.805143999999984,2379
50.72866399999991,3.365143999999992,2862
51.05266399999991,4.013143999999992,2859
50.72866399999991,4.661143999999991,2848
51.05266399999991,4.661143999999991,2854
51.05266399999991,3.365143999999992,2866
51.05266399999991,2.717143999999992,2882
50.40466399999991,4.661143999999991,2844
50.72866399999991,2.717143999999992,2878
50.40466399999991,4.013143999999992,2857
51.05266399999991,5.309143999999991,2845
50.72866399999991,5.309143999999991,2832
51.37666399999991,3.365143999999992,2880
51.37666399999991,4.661143999999991,2861
50.72866399999991,5.957143999999991,2812
50.40466399999991,5.957143999999991,2823
50.40466399999991,3.365143999999992,2870
50.40466399999991,5.309143999999991,2839
50.08066399999991,5.309143999999991,2855
49.75666399999992,5.309143999999991,2837
49.75666399999992,5.957143999999991,2812
51.37666399999991,5.309143999999991,2906
51.700663999999904,4.661143999999991,2898
50.08066399999991,4.013143999999992,2872
50.08066399999991,5.957143999999991,2841
50.08066399999991,4.661143999999991,2856
49.43266399999992,5.309143999999991,2819
49.43266399999992,5.957143999999991,2802
52.0246639999999,4.661143999999991,2930
52.3486639999999,4.661143999999991,2959
50.72866399999991,15.029143999999986,2351
51.05266399999991,15.029143999999986,2725
51.05266399999991,13.733143999999989,2756
50.40466399999991,13.085143999999987,2807
49.10866399999992,7.90114399999999,2735
48.78466399999992,7.90114399999999,2717
50.40466399999991,7.90114399999999,2756
50.08066399999991,7.90114399999999,2741
49.75666399999992,7.90114399999999,2738
49.43266399999992,7.90114399999999,2755
49.75666399999992,8.54914399999999,2725
49.43266399999992,8.54914399999999,2720
49.43266399999992,9.197143999999987,2773
49.10866399999992,9.197143999999987,2696
47.48866399999993,7.90114399999999,2732
47.81266399999993,7.90114399999999,2723
48.136663999999925,7.90114399999999,2714
48.136663999999925,9.845143999999989,2435
47.81266399999993,9.197143999999987,2715
47.81266399999993,8.54914399999999,2713
47.81266399999993,9.845143999999989,2730
54.940663999999884,9.197143999999987,3020
54.616663999999886,9.197143999999987,3000
54.29266399999989,9.197143999999987,3008
53.96866399999989,9.197143999999987,3005
53.64466399999989,9.197143999999987,2996
54.616663999999886,9.845143999999989,2992
54.29266399999989,9.845143999999989,2981
53.96866399999989,9.845143999999989,2967
53.64466399999989,10.493143999999988,2953
53.96866399999989,10.493143999999988,2984
53.96866399999989,11.141143999999988,3023
54.29266399999989,10.493143999999988,3003
53.32066399999989,10.493143999999988,2929
54.940663999999884,11.141143999999988,3049
52.6726639999999,13.733143999999989,2793
52.3486639999999,13.733143999999989,2790
52.3486639999999,14.381143999999988,2798
52.0246639999999,14.381143999999988,2787
52.0246639999999,11.789143999999988,2814
52.3486639999999,11.789143999999988,2838
52.3486639999999,12.437143999999988,2827
52.0246639999999,15.029143999999986,2803
51.700663999999904,14.381143999999988,2779
52.0246639999999,13.733143999999989,2785
51.700663999999904,13.733143999999989,2774
52.6726639999999,12.437143999999988,2828
53.32066399999989,11.789143999999988,2949
53.96866399999989,11.789143999999988,2925
53.64466399999989,11.789143999999988,2980
53.64466399999989,11.141143999999988,2982
53.32066399999989,11.141143999999988,2955
52.996663999999896,11.789143999999988,2860
52.996663999999896,12.437143999999988,2844
52.996663999999896,13.733143999999989,2820
53.64466399999989,13.733143999999989,2896
53.96866399999989,13.733143999999989,2930
54.29266399999989,13.085143999999987,2942
53.96866399999989,13.085143999999987,2939
53.32066399999989,13.733143999999989,2867
52.0246639999999,13.085143999999987,2809
51.700663999999904,13.085143999999987,2806
52.996663999999896,14.381143999999988,2923
52.0246639999999,12.437143999999988,2816
51.700663999999904,12.437143999999988,2813
51.37666399999991,11.789143999999988,2794
51.37666399999991,12.437143999999988,2790
52.6726639999999,11.789143999999988,2870
53.64466399999989,13.085143999999987,2923
53.32066399999989,13.085143999999987,2865
52.996663999999896,13.085143999999987,2838
53.64466399999989,12.437143999999988,2908
51.37666399999991,13.733143999999989,2765
53.32066399999989,12.437143999999988,2875
52.6726639999999,14.381143999999988,2825
51.37666399999991,13.085143999999987,2778
53.32066399999989,14.381143999999988,2909
52.3486639999999,15.029143999999986,2816
52.0246639999999,15.677143999999986,2841
51.700663999999904,15.029143999999986,2833
51.05266399999991,16.325143999999987,2711
51.05266399999991,16.973143999999984,2684
51.700663999999904,15.677143999999986,2853
51.37666399999991,15.677143999999986,2750
51.37666399999991,16.325143999999987,2716
50.72866399999991,13.085143999999987,2796
50.72866399999991,12.437143999999988,2806
51.05266399999991,13.085143999999987,2774
51.05266399999991,14.381143999999988,2738
50.40466399999991,12.437143999999988,2786
50.40466399999991,11.789143999999988,2754
50.08066399999991,12.437143999999988,2773
50.72866399999991,11.789143999999988,2792
51.05266399999991,12.437143999999988,2807
50.72866399999991,14.381143999999988,2352
51.37666399999991,14.381143999999988,2760
50.72866399999991,13.733143999999989,2795
50.40466399999991,14.381143999999988,2311
51.37666399999991,15.029143999999986,2746
55.26466399999988,9.197143999999987,3528
55.58866399999988,8.54914399999999,3562
55.91266399999988,8.54914399999999,7039
56.23666399999988,9.197143999999987,7047
56.23666399999988,10.493143999999988,7000
56.23666399999988,9.845143999999989,6987
55.91266399999988,9.845143999999989,6925
56.56066399999988,9.197143999999987,7057
56.56066399999988,8.54914399999999,7100
51.05266399999991,6.60514399999999,2794
51.700663999999904,7.90114399999999,2813
50.72866399999991,6.60514399999999,2805
51.700663999999904,7.25314399999999,2806
50.72866399999991,7.25314399999999,2781
52.0246639999999,7.25314399999999,2823
52.3486639999999,7.90114399999999,2847
51.05266399999991,5.957143999999991,2802
50.40466399999991,7.25314399999999,2774
51.700663999999904,6.60514399999999,2827
51.700663999999904,5.957143999999991,2828
52.3486639999999,9.197143999999987,2867
51.700663999999904,8.54914399999999,2834
52.0246639999999,8.54914399999999,2859
52.3486639999999,8.54914399999999,2866
51.37666399999991,7.90114399999999,2805
52.3486639999999,7.25314399999999,2858
51.37666399999991,5.957143999999991,2801
50.72866399999991,7.90114399999999,2791
51.37666399999991,9.197143999999987,2824
51.700663999999904,9.197143999999987,2846
50.40466399999991,6.60514399999999,3732
51.05266399999991,7.90114399999999,2799
51.37666399999991,8.54914399999999,2819
52.0246639999999,5.957143999999991,2871
52.3486639999999,6.60514399999999,2876
51.05266399999991,8.54914399999999,2784
52.0246639999999,9.197143999999987,2864
52.6726639999999,9.197143999999987,2910
52.0246639999999,9.845143999999989,2875
51.700663999999904,9.845143999999989,2863
51.37666399999991,9.845143999999989,2874
50.72866399999991,8.54914399999999,2748
51.05266399999991,9.845143999999989,2836
50.72866399999991,9.845143999999989,2815
50.40466399999991,9.845143999999989,2785
51.05266399999991,9.197143999999987,2804
50.40466399999991,9.197143999999987,2758
50.08066399999991,9.197143999999987,2740
51.05266399999991,10.493143999999988,7079
50.40466399999991,8.54914399999999,2742
50.72866399999991,9.197143999999987,2780
49.75666399999992,9.197143999999987,2753
52.996663999999896,9.197143999999987,2917
52.3486639999999,9.845143999999989,2853
52.996663999999896,8.54914399999999,2906
52.996663999999896,7.90114399999999,2933
53.32066399999989,7.90114399999999,2983
53.32066399999989,7.25314399999999,3013
53.64466399999989,7.25314399999999,3058
52.996663999999896,10.493143999999988,2903
52.6726639999999,10.493143999999988,2896
52.6726639999999,9.845143999999989,2861
53.32066399999989,9.845143999999989,2959
53.32066399999989,9.197143999999987,2967
53.64466399999989,8.54914399999999,2953
53.32066399999989,8.54914399999999,2909
52.6726639999999,8.54914399999999,2883
52.0246639999999,10.493143999999988,2852
52.0246639999999,11.141143999999988,2822
51.700663999999904,11.141143999999988,2836
52.6726639999999,7.25314399999999,3740
52.996663999999896,7.25314399999999,3759
52.6726639999999,7.90114399999999,2887
53.64466399999989,7.90114399999999,3011
52.996663999999896,11.141143999999988,2881
52.6726639999999,11.141143999999988,2874
52.3486639999999,10.493143999999988,2844
52.996663999999896,9.845143999999989,2916
51.700663999999904,10.493143999999988,2838
51.37666399999991,10.493143999999988,7085
51.700663999999904,11.789143999999988,2807
52.3486639999999,11.141143999999988,2825
51.37666399999991,11.141143999999988,2864
51.05266399999991,11.789143999999988,2801
49.10866399999992,11.141143999999988,2474
48.78466399999992,11.141143999999988,2374
48.46066399999992,11.789143999999988,2368
49.43266399999992,11.789143999999988,2469
50.08066399999991,11.789143999999988,2741
49.75666399999992,12.437143999999988,2732
49.10866399999992,11.789143999999988,2454
48.78466399999992,12.437143999999988,2424
48.46066399999992,12.437143999999988,2382
49.10866399999992,12.437143999999988,2441
48.78466399999992,13.085143999999987,2451
48.136663999999925,12.437143999999988,2339
47.81266399999993,11.789143999999988,2360
48.136663999999925,10.493143999999988,2404
47.81266399999993,10.493143999999988,2415
48.78466399999992,10.493143999999988,2376
47.48866399999993,10.493143999999988,2740
48.46066399999992,10.493143999999988,2392
49.43266399999992,13.085143999999987,2793
48.46066399999992,13.085143999999987,2432
49.43266399999992,10.493143999999988,2487
49.75666399999992,9.845143999999989,2722
49.75666399999992,10.493143999999988,2672
50.40466399999991,11.141143999999988,2761
50.08066399999991,11.141143999999988,2689
50.72866399999991,11.141143999999988,2905
49.75666399999992,11.141143999999988,2468
48.78466399999992,11.789143999999988,2407
50.40466399999991,10.493143999999988,2800
50.08066399999991,9.845143999999989,2716
50.08066399999991,10.493143999999988,2697
49.43266399999992,12.437143999999988,2709
49.75666399999992,11.789143999999988,2716
49.10866399999992,13.085143999999987,2488
50.72866399999991,10.493143999999988,7075
49.10866399999992,10.493143999999988,2725
48.78466399999992,9.845143999999989,2649
48.46066399999992,8.54914399999999,2702
48.46066399999992,9.197143999999987,2708
48.78466399999992,9.197143999999987,2676
48.78466399999992,8.54914399999999,2711
50.08066399999991,7.25314399999999,2789
49.75666399999992,6.60514399999999,2798
49.43266399999992,6.60514399999999,2799
49.10866399999992,6.60514399999999,2780
49.43266399999992,7.25314399999999,2774
49.75666399999992,7.25314399999999,2762
49.10866399999992,5.957143999999991,2789
48.78466399999992,7.25314399999999,2736
50.08066399999991,6.60514399999999,2795
47.48866399999993,9.197143999999987,2716
48.136663999999925,8.54914399999999,2696
48.136663999999925,9.197143999999987,2461
47.81266399999993,7.25314399999999,2729
49.43266399999992,9.845143999999989,2737
49.10866399999992,9.845143999999989,2707
53.64466399999989,14.381143999999988,2903
50.08066399999991,13.085143999999987,2353
49.75666399999992,13.085143999999987,2470
45.86866399999994,9.197143999999987,2841
46.19266399999994,9.197143999999987,2834
46.516663999999935,8.54914399999999,2810
46.516663999999935,9.197143999999987,2828
46.19266399999994,8.54914399999999,2846
47.16466399999993,8.54914399999999,2731
45.86866399999994,4.661143999999991,2881
46.84066399999993,9.845143999999989,2748
45.22066399999994,5.957143999999991,2903
45.22066399999994,5.309143999999991,2913
45.86866399999994,5.957143999999991,2864
45.54466399999994,5.957143999999991,2881
44.89666399999994,4.661143999999991,2926
44.89666399999994,5.309143999999991,2966
44.572663999999946,4.661143999999991,2980
44.24866399999995,4.661143999999991,2996
43.92466399999995,4.661143999999991,2968
46.19266399999994,7.25314399999999,2830
48.78466399999992,5.957143999999991,2779
48.136663999999925,6.60514399999999,2769
48.46066399999992,6.60514399999999,2761
48.78466399999992,6.60514399999999,2770
47.16466399999993,7.90114399999999,2740
48.136663999999925,7.25314399999999,2737
48.46066399999992,7.25314399999999,2739
46.516663999999935,6.60514399999999,2810
46.84066399999993,6.60514399999999,2781
46.84066399999993,7.25314399999999,2761
46.516663999999935,5.957143999999991,2835
46.19266399999994,5.957143999999991,2849
46.84066399999993,8.54914399999999,2736
46.84066399999993,7.90114399999999,2750
45.86866399999994,5.309143999999991,2882
46.19266399999994,6.60514399999999,2827
45.86866399999994,6.60514399999999,2833
47.48866399999993,6.60514399999999,2756
47.48866399999993,7.25314399999999,2742
47.16466399999993,7.25314399999999,2745
49.10866399999992,4.013143999999992,2842
49.75666399999992,4.661143999999991,2875
49.43266399999992,4.661143999999991,2878
49.10866399999992,5.309143999999991,2814
46.19266399999994,4.661143999999991,2861
46.84066399999993,9.197143999999987,2754
46.19266399999994,5.309143999999991,2855
46.516663999999935,5.309143999999991,2850
45.54466399999994,6.60514399999999,2958
45.54466399999994,5.309143999999991,2910
43.60066399999995,4.013143999999992,2996
43.60066399999995,3.365143999999992,3027
42.62866399999996,2.717143999999992,3102
43.276663999999954,2.717143999999992,3057
45.54466399999994,4.661143999999991,2891
45.22066399999994,4.661143999999991,2931
47.16466399999993,5.309143999999991,2817
47.16466399999993,5.957143999999991,2784
46.19266399999994,7.90114399999999,2826
49.75666399999992,2.717143999999992,2917
49.10866399999992,2.717143999999992,2878
48.78466399999992,2.717143999999992,2896
45.86866399999994,3.365143999999992,3031
46.84066399999993,3.365143999999992,2932
46.516663999999935,3.365143999999992,2949
46.19266399999994,3.365143999999992,2999
47.16466399999993,6.60514399999999,2804
49.10866399999992,3.365143999999992,2862
45.54466399999994,4.013143999999992,2897
46.516663999999935,7.25314399999999,2788
47.16466399999993,4.661143999999991,2823
46.84066399999993,4.661143999999991,2844
46.516663999999935,4.661143999999991,2857
46.84066399999993,5.957143999999991,2799
47.81266399999993,3.365143999999992,2940
47.48866399999993,4.013143999999992,2877
48.136663999999925,4.013143999999992,2929
47.81266399999993,4.013143999999992,2901
47.48866399999993,4.661143999999991,2881
47.16466399999993,3.365143999999992,2947
46.84066399999993,4.013143999999992,2900
48.46066399999992,5.957143999999991,2825
46.19266399999994,2.717143999999992,3124
47.16466399999993,2.0691439999999925,3002
46.516663999999935,2.717143999999992,3097
46.84066399999993,2.717143999999992,3077
46.84066399999993,2.0691439999999925,3041
47.16466399999993,2.717143999999992,3012
44.572663999999946,5.309143999999991,3052
44.572663999999946,5.957143999999991,2991
44.89666399999994,6.60514399999999,2967
44.572663999999946,6.60514399999999,3069
43.60066399999995,5.309143999999991,2990
43.92466399999995,7.25314399999999,3035
43.60066399999995,6.60514399999999,3056
43.276663999999954,6.60514399999999,3077
43.276663999999954,5.957143999999991,3041
45.86866399999994,8.54914399999999,2855
45.54466399999994,8.54914399999999,2862
48.136663999999925,3.365143999999992,2966
48.46066399999992,3.365143999999992,2982
48.46066399999992,2.717143999999992,2951
47.48866399999993,5.309143999999991,2840
46.516663999999935,9.845143999999989,2773
46.84066399999993,10.493143999999988,2771
47.81266399999993,5.309143999999991,2928
45.22066399999994,6.60514399999999,2961
46.19266399999994,4.013143999999992,2914
45.86866399999994,4.013143999999992,2894
45.22066399999994,4.013143999999992,2957
44.89666399999994,4.013143999999992,3022
46.84066399999993,5.309143999999991,2838
48.136663999999925,-1.8188560000000056,3025
48.136663999999925,0.1251439999999934,2964
48.136663999999925,-0.5228560000000062,3001
47.48866399999993,-0.5228560000000062,3009
47.16466399999993,-1.8188560000000056,3054
47.48866399999993,0.7731439999999932,2980
47.16466399999993,0.1251439999999934,2997
45.86866399999994,7.25314399999999,2839
48.136663999999925,5.309143999999991,2960
49.10866399999992,4.661143999999991,2862
48.46066399999992,4.013143999999992,2993
48.136663999999925,4.661143999999991,2969
47.81266399999993,6.60514399999999,2773
47.48866399999993,5.957143999999991,2841
48.136663999999925,5.957143999999991,3550
45.86866399999994,7.90114399999999,2847
46.516663999999935,7.90114399999999,2752
49.43266399999992,3.365143999999992,2873
49.43266399999992,4.013143999999992,2853
48.136663999999925,2.717143999999992,3010
47.81266399999993,2.717143999999992,3021
47.48866399999993,2.717143999999992,3041
50.40466399999991,2.717143999999992,2883
48.46066399999992,-4.410856000000004,3205
48.46066399999992,-3.7628560000000046,3187
48.46066399999992,-3.114856000000005,3165
48.46066399999992,-2.4668560000000053,3133
47.48866399999993,1.4211439999999929,3007
47.16466399999993,1.4211439999999929,3057
46.516663999999935,4.013143999999992,2905
43.60066399999995,4.661143999999991,3015
44.89666399999994,2.717143999999992,3167
45.22066399999994,2.717143999999992,3136
45.54466399999994,3.365143999999992,3065
45.22066399999994,3.365143999999992,3014
47.48866399999993,3.365143999999992,2986
46.19266399999994,9.845143999999989,3034
47.81266399999993,2.0691439999999925,2964
47.48866399999993,2.0691439999999925,2977
45.86866399999994,2.717143999999992,3160
44.89666399999994,5.957143999999991,2917
45.22066399999994,1.4211439999999929,3179
44.89666399999994,1.4211439999999929,3206
44.89666399999994,2.0691439999999925,3279
43.276663999999954,2.0691439999999925,3100
43.60066399999995,1.4211439999999929,3141
48.78466399999992,4.661143999999991,2870
48.78466399999992,5.309143999999991,2811
46.19266399999994,2.0691439999999925,3302
45.86866399999994,1.4211439999999929,3117
46.19266399999994,1.4211439999999929,3082
44.572663999999946,4.013143999999992,3151
44.89666399999994,3.365143999999992,3069
43.92466399999995,4.013143999999992,3054
44.24866399999995,4.013143999999992,3082
44.89666399999994,-0.5228560000000062,3076
45.54466399999994,0.1251439999999934,3083
46.516663999999935,0.1251439999999934,3040
44.572663999999946,2.0691439999999925,3298
49.75666399999992,4.013143999999992,2910
43.92466399999995,3.365143999999992,3251
43.92466399999995,2.717143999999992,3220
44.24866399999995,3.365143999999992,3176
44.572663999999946,3.365143999999992,3102
49.10866399999992,0.1251439999999934,2960
49.43266399999992,0.7731439999999932,2954
49.43266399999992,-1.8188560000000056,3116
49.10866399999992,-1.170856000000006,3040
49.10866399999992,-0.5228560000000062,2980
49.10866399999992,0.7731439999999932,3003
49.10866399999992,1.4211439999999929,2974
47.81266399999993,-1.8188560000000056,3063
47.81266399999993,-2.4668560000000053,3088
47.81266399999993,-3.114856000000005,3101
48.136663999999925,-3.7628560000000046,3164
44.572663999999946,9.197143999999987,2936
44.89666399999994,8.54914399999999,2907
45.22066399999994,9.197143999999987,2869
45.54466399999994,10.493143999999988,2947
44.572663999999946,10.493143999999988,3238
44.89666399999994,10.493143999999988,3013
44.89666399999994,9.845143999999989,2981
48.46066399999992,5.309143999999991,2953
50.91599999999999,-1.0580000000000025,65535
51.23999999999999,-0.4100000000000028,65535
50.91599999999999,-0.4100000000000028,65535
51.23999999999999,-2.354000000000002,65535
51.56399999999999,-2.354000000000002,65535
51.56399999999999,-3.0020000000000016,65535
50.91599999999999,-2.354000000000002,65535
53.50799999999997,-3.0020000000000016,65535
53.183999999999976,-2.354000000000002,65535
53.183999999999976,-3.0020000000000016,65535
52.85999999999998,-2.354000000000002,65535
52.21199999999998,-1.0580000000000025,65535
51.887999999999984,-1.0580000000000025,65535
52.53599999999998,-1.0580000000000025,65535
52.53599999999998,-1.7060000000000022,65535
52.85999999999998,-1.7060000000000022,65535
53.50799999999997,-2.354000000000002,65535
52.85999999999998,-1.0580000000000025,65535
52.53599999999998,1.5339999999999965,65535
52.53599999999998,0.8859999999999966,65535
52.53599999999998,0.2379999999999968,65535
52.53599999999998,-0.4100000000000028,65535
53.50799999999997,-1.7060000000000022,65535
53.183999999999976,-1.7060000000000022,65535
53.183999999999976,-1.0580000000000025,65535
52.85999999999998,-0.4100000000000028,65535
51.887999999999984,-2.354000000000002,65535
52.21199999999998,-2.354000000000002,65535
55.77599999999996,-2.354000000000002,65535
53.83199999999997,-1.0580000000000025,65535
53.83199999999997,-1.7060000000000022,65535
55.127999999999965,-1.7060000000000022,65535
54.80399999999997,-1.7060000000000022,65535
54.47999999999997,-1.7060000000000022,65535
54.15599999999997,-1.0580000000000025,65535
52.21199999999998,-1.7060000000000022,65535
53.50799999999997,-1.0580000000000025,65535
55.77599999999996,-3.0020000000000016,65535
55.45199999999996,-1.7060000000000022,65535
57.07199999999995,-2.354000000000002,65535
56.74799999999996,-3.0020000000000016,65535
56.42399999999996,-3.0020000000000016,65535
56.09999999999996,-3.650000000000001,65535
50.91599999999999,-3.0020000000000016,65535
50.91599999999999,-3.650000000000001,65535
50.59199999999999,-3.650000000000001,65535
50.59199999999999,-4.298000000000001,65535
51.23999999999999,-3.0020000000000016,65535
50.268,-4.946000000000001,65535
55.77599999999996,-3.650000000000001,65535
55.77599999999996,-4.298000000000001,65535
52.21199999999998,-0.4100000000000028,65535
52.53599999999998,-2.354000000000002,65535
51.56399999999999,-1.7060000000000022,65535
51.56399999999999,-3.650000000000001,65535
51.887999999999984,-4.298000000000001,65535
51.56399999999999,-4.298000000000001,65535
51.887999999999984,-1.7060000000000022,65535
52.21199999999998,-3.0020000000000016,65535
51.23999999999999,0.2379999999999968,65535
50.91599999999999,0.2379999999999968,65535
52.21199999999998,0.2379999999999968,65535
53.83199999999997,-3.0020000000000016,65535
54.15599999999997,-3.0020000000000016,65535
54.47999999999997,-3.0020000000000016,65535
55.127999999999965,-3.650000000000001,65535
54.80399999999997,-3.0020000000000016,65535
53.83199999999997,-2.354000000000002,65535
54.15599999999997,-0.4100000000000028,65535
54.47999999999997,-1.0580000000000025,65535
53.83199999999997,-0.4100000000000028,65535
53.183999999999976,-3.650000000000001,65535
53.183999999999976,-4.298000000000001,65535
52.85999999999998,-3.0020000000000016,65535
52.53599999999998,-3.0020000000000016,65535
51.887999999999984,-3.0020000000000016,65535
51.23999999999999,0.8859999999999966,65535
51.887999999999984,0.2379999999999968,65535
52.21199999999998,0.8859999999999966,65535
51.887999999999984,-4.946000000000001,65535
52.53599999999998,-3.650000000000001,65535
52.21199999999998,-4.298000000000001,65535
53.183999999999976,-0.4100000000000028,65535
51.23999999999999,-3.650000000000001,65535
51.887999999999984,-3.650000000000001,65535
52.21199999999998,-3.650000000000001,65535
51.56399999999999,0.8859999999999966,65535
51.887999999999984,0.8859999999999966,65535
52.85999999999998,0.8859999999999966,65535
53.50799999999997,-0.4100000000000028,65535
56.09999999999996,-4.298000000000001,65535
56.74799999999996,-4.946000000000001,65535
56.74799999999996,-4.298000000000001,65535
56.42399999999996,-4.946000000000001,65535
56.42399999999996,-4.298000000000001,65535
56.09999999999996,-4.946000000000001,65535
57.39599999999995,-4.298000000000001,65535
57.39599999999995,-3.0020000000000016,65535
57.39599999999995,-3.650000000000001,65535
56.42399999999996,-3.650000000000001,65535
57.07199999999995,-3.650000000000001,65535
57.07199999999995,-4.298000000000001,65535
56.74799999999996,-3.650000000000001,65535
59.15266399999986,27.34114399999998,65535
59.47666399999986,26.69314399999997,65535
59.47666399999986,26.04514399999998,65535
59.15266399999986,26.04514399999998,65535
59.15266399999986,24.74914399999998,65535
59.15266399999986,25.397143999999983,65535
59.47666399999986,25.397143999999983,65535
58.50466399999986,26.69314399999997,65535
58.82866399999986,26.69314399999997,65535
57.85666399999987,26.04514399999998,65535
58.180663999999865,26.04514399999998,65535
58.180663999999865,26.69314399999997,65535
58.82866399999986,26.04514399999998,65535
58.50466399999986,25.397143999999983,65535
58.82866399999986,25.397143999999983,65535
58.82866399999986,24.74914399999998,65535
58.180663999999865,27.34114399999998,65535
57.85666399999987,27.34114399999998,65535
63.68866399999983,27.34114399999998,7557
60.124663999999854,24.74914399999998,7093
60.44866399999985,24.74914399999998,7062
60.44866399999985,25.397143999999983,7074
60.77266399999985,25.397143999999983,7280
61.09666399999985,26.04514399999998,7322
60.77266399999985,26.04514399999998,7329
60.77266399999985,26.69314399999997,7348
61.09666399999985,25.397143999999983,7313
61.09666399999985,26.69314399999997,7678
61.420663999999846,26.69314399999997,7700
61.74466399999984,27.34114399999998,7724
62.06866399999984,27.34114399999998,7749
62.39266399999984,27.34114399999998,7773
62.71666399999984,27.34114399999998,7737
64.01266399999983,27.34114399999998,7905
63.36466399999984,27.34114399999998,7625
63.04066399999984,27.34114399999998,7665
63.04066399999984,27.989143999999985,7680
64.33666399999983,27.989143999999985,7952
64.33666399999983,27.34114399999998,8028
64.66066399999983,27.34114399999998,8044
64.66066399999983,26.69314399999997,8055
64.98466399999982,25.397143999999983,6439
64.66066399999983,26.04514399999998,8085
64.98466399999982,26.04514399999998,8107
66.28066399999982,25.397143999999983,6516
65.95666399999982,24.74914399999998,6352
65.63266399999982,24.74914399999998,6356
65.63266399999982,25.397143999999983,6398
65.30866399999982,25.397143999999983,6419
66.60466399999981,25.397143999999983,6576
64.01266399999983,24.74914399999998,6576
64.01266399999983,24.101143999999977,6611
64.01266399999983,23.45314399999998,6635
63.68866399999983,23.45314399999998,6647
63.68866399999983,22.805143999999984,6672
63.68866399999983,26.04514399999998,7264
63.68866399999983,25.397143999999983,7230
63.68866399999983,26.69314399999997,7524
60.44866399999985,26.69314399999997,7516
64.01266399999983,27.989143999999985,7943
62.71666399999984,22.805143999999984,6794
62.39266399999984,22.805143999999984,6826
62.06866399999984,22.805143999999984,6855
62.06866399999984,23.45314399999998,6871
61.74466399999984,23.45314399999998,6883
61.420663999999846,23.45314399999998,6931
61.09666399999985,23.45314399999998,6972
61.09666399999985,24.101143999999977,6979
61.09666399999985,24.74914399999998,7013
60.77266399999985,24.74914399999998,7029
63.04066399999984,21.50914399999997,65535
63.04066399999984,22.15714399999998,65535
63.04066399999984,22.805143999999984,6758
62.39266399999984,26.04514399999998,7921
62.06866399999984,25.397143999999983,7970
61.74466399999984,25.397143999999983,8038
61.74466399999984,24.74914399999998,8075
61.74466399999984,24.101143999999977,8110
61.420663999999846,24.101143999999977,7454
62.39266399999984,26.69314399999997,7892
64.66066399999983,25.397143999999983,6508
64.66066399999983,24.74914399999998,6526
64.33666399999983,24.74914399999998,6537
63.36466399999984,22.805143999999984,6697
67.25266399999981,24.101143999999977,8666
66.92866399999981,24.101143999999977,8630
66.60466399999981,23.45314399999998,8599
66.28066399999982,23.45314399999998,8581
66.28066399999982,24.101143999999977,8563
65.95666399999982,24.101143999999977,6043
60.124663999999854,24.101143999999977,7286
60.124663999999854,23.45314399999998,7323
60.44866399999985,22.805143999999984,65535
60.77266399999985,27.34114399999998,7406
61.09666399999985,27.989143999999985,7438
61.09666399999985,28.63714399999997,7484
61.420663999999846,29.28514399999997,9171
61.74466399999984,29.933143999999977,9229
62.06866399999984,29.933143999999977,9335
62.39266399999984,29.933143999999977,9373
62.71666399999984,29.933143999999977,9406
61.420663999999846,22.805143999999984,6967
61.420663999999846,22.15714399999998,7046
61.09666399999985,22.15714399999998,7034
61.420663999999846,21.50914399999997,7179
62.39266399999984,27.989143999999985,65535
62.06866399999984,27.989143999999985,65535
61.420663999999846,27.34114399999998,65535
63.04066399999984,29.933143999999977,65535
63.68866399999983,29.28514399999997,65535
63.36466399999984,29.28514399999997,65535
63.36466399999984,29.933143999999977,65535
60.44866399999985,27.34114399999998,65535
61.74466399999984,29.28514399999997,65535
62.39266399999984,30.58114399999998,65535
62.71666399999984,31.229143999999977,65535
62.71666399999984,29.28514399999997,65535
63.04066399999984,28.63714399999997,65535
66.60466399999981,26.04514399999998,6586
66.60466399999981,26.69314399999997,6622
66.60466399999981,27.34114399999998,6645
62.71666399999984,26.04514399999998,7806
62.71666399999984,25.397143999999983,7775
63.04066399999984,25.397143999999983,7595
63.36466399999984,25.397143999999983,7558
62.71666399999984,23.45314399999998,7800
62.39266399999984,24.101143999999977,65535
62.71666399999984,22.15714399999998,65535
62.39266399999984,22.15714399999998,65535
62.39266399999984,21.50914399999997,65535
61.09666399999985,21.50914399999997,8857
60.77266399999985,22.805143999999984,8283
60.44866399999985,22.15714399999998,8331
60.77266399999985,23.45314399999998,8265
60.77266399999985,21.50914399999997,8433
60.77266399999985,22.15714399999998,8386
60.124663999999854,22.805143999999984,8599
60.44866399999985,24.101143999999977,7272
62.06866399999984,24.74914399999998,65535
50.72866399999991,16.325143999999987,2709
50.40466399999991,16.973143999999984,2689
50.72866399999991,16.973143999999984,2697
50.40466399999991,16.325143999999987,2686
50.08066399999991,16.973143999999984,2331
50.08066399999991,16.325143999999987,2228
51.700663999999904,16.973143999999984,2772
51.37666399999991,16.973143999999984,2719
51.05266399999991,15.677143999999986,2782
50.72866399999991,15.677143999999986,2777
51.05266399999991,17.621143999999987,2680
51.37666399999991,17.621143999999987,2738
51.700663999999904,17.621143999999987,2742
51.700663999999904,16.325143999999987,2813
52.0246639999999,22.15714399999998,2843
52.0246639999999,21.50914399999997,2835
52.3486639999999,21.50914399999997,2839
52.0246639999999,20.86114399999998,2847
51.700663999999904,20.86114399999998,2852
51.37666399999991,21.50914399999997,2822
51.37666399999991,20.86114399999998,2806
51.05266399999991,20.86114399999998,2739
52.6726639999999,23.45314399999998,2939
52.3486639999999,22.805143999999984,2881
52.3486639999999,20.213143999999986,2886
52.0246639999999,20.213143999999986,2895
52.3486639999999,19.565143999999982,3007
52.6726639999999,19.565143999999982,3001
51.700663999999904,21.50914399999997,2801
51.700663999999904,22.15714399999998,2783
52.6726639999999,21.50914399999997,2846
52.996663999999896,21.50914399999997,2904
52.6726639999999,20.86114399999998,2850
52.6726639999999,22.15714399999998,2871
52.6726639999999,20.213143999999986,2941
52.996663999999896,19.565143999999982,3012
52.996663999999896,20.86114399999998,2857
52.996663999999896,20.213143999999986,2875
53.32066399999989,20.213143999999986,2914
51.37666399999991,20.213143999999986,2860
52.3486639999999,16.973143999999984,2774
52.0246639999999,16.973143999999984,2801
52.0246639999999,16.325143999999987,2814
52.0246639999999,17.621143999999987,2755
52.6726639999999,16.973143999999984,2784
52.996663999999896,16.973143999999984,2805
52.3486639999999,16.325143999999987,2781
52.3486639999999,15.677143999999986,2827
51.700663999999904,18.269143999999983,2778
52.6726639999999,17.621143999999987,2785
52.3486639999999,17.621143999999987,2778
52.6726639999999,18.269143999999983,2836
52.3486639999999,18.269143999999983,2821
52.3486639999999,18.917143999999983,2967
52.996663999999896,17.621143999999987,2844
51.700663999999904,19.565143999999982,2860
51.700663999999904,18.917143999999983,2826
51.37666399999991,18.269143999999983,2787
58.82866399999986,9.197143999999987,4808
58.180663999999865,7.90114399999999,4900
58.50466399999986,8.54914399999999,4854
63.36466399999984,10.493143999999988,5052
63.36466399999984,11.141143999999988,5042
63.36466399999984,11.789143999999988,4945
63.68866399999983,11.789143999999988,5093
64.33666399999983,12.437143999999988,5374
64.66066399999983,12.437143999999988,5928
65.63266399999982,13.085143999999987,5526
65.95666399999982,13.085143999999987,5561
66.28066399999982,14.381143999999988,5631
65.95666399999982,13.733143999999989,5750
66.28066399999982,13.733143999999989,5609
65.30866399999982,13.085143999999987,5860
64.98466399999982,13.085143999999987,5461
64.01266399999983,11.789143999999988,5124
63.68866399999983,11.141143999999988,5061
59.800663999999855,10.493143999999988,4592
59.800663999999855,11.141143999999988,4582
60.124663999999854,11.141143999999988,4565
60.44866399999985,11.141143999999988,4585
60.124663999999854,11.789143999999988,4549
60.77266399999985,7.25314399999999,5117
60.77266399999985,6.60514399999999,5166
59.15266399999986,9.197143999999987,4776
59.47666399999986,9.197143999999987,4752
59.800663999999855,9.845143999999989,4606
59.47666399999986,11.141143999999988,4602
61.09666399999985,10.493143999999988,4722
60.77266399999985,10.493143999999988,4700
60.77266399999985,11.141143999999988,4649
62.06866399999984,9.197143999999987,4930
61.74466399999984,9.845143999999989,4876
61.420663999999846,9.845143999999989,4853
59.15266399999986,9.845143999999989,4670
59.47666399999986,9.845143999999989,4646
58.82866399999986,5.957143999999991,5090
58.180663999999865,7.25314399999999,4946
58.50466399999986,7.25314399999999,4982
58.50466399999986,6.60514399999999,4988
58.50466399999986,5.957143999999991,5043
58.82866399999986,8.54914399999999,4840
60.44866399999985,7.25314399999999,5091
60.44866399999985,7.90114399999999,5048
60.124663999999854,10.493143999999988,4584
60.44866399999985,9.197143999999987,4961
60.77266399999985,9.197143999999987,5002
60.77266399999985,8.54914399999999,5028
60.124663999999854,9.845143999999989,4895
60.44866399999985,10.493143999999988,4614
63.04066399999984,10.493143999999988,5046
62.06866399999984,9.845143999999989,4955
62.39266399999984,9.845143999999989,4963
62.71666399999984,9.845143999999989,4987
59.47666399999986,14.381143999999988,4437
59.47666399999986,13.733143999999989,4461
59.47666399999986,13.085143999999987,4517
59.800663999999855,12.437143999999988,4502
59.15266399999986,11.141143999999988,4629
59.15266399999986,14.381143999999988,4421
58.82866399999986,11.789143999999988,4617
58.50466399999986,12.437143999999988,4425
58.180663999999865,12.437143999999988,4418
57.85666399999987,11.789143999999988,4390
62.71666399999984,7.90114399999999,5016
62.39266399999984,7.90114399999999,4973
62.06866399999984,8.54914399999999,4948
60.44866399999985,5.309143999999991,5325
60.44866399999985,5.957143999999991,5692
60.77266399999985,5.957143999999991,5663
62.39266399999984,11.141143999999988,4991
62.06866399999984,10.493143999999988,4948
61.74466399999984,11.141143999999988,4921
61.420663999999846,11.141143999999988,4874
61.09666399999985,11.141143999999988,4856
60.77266399999985,11.789143999999988,4833
63.04066399999984,11.141143999999988,5075
62.71666399999984,11.141143999999988,5015
62.39266399999984,10.493143999999988,4975
67.25266399999981,15.677143999999986,5750
67.25266399999981,15.029143999999986,5788
67.25266399999981,14.381143999999988,5816
66.92866399999981,15.029143999999986,5739
66.60466399999981,15.677143999999986,5717
64.01266399999983,11.141143999999988,5108
66.60466399999981,15.029143999999986,6180
54.29266399999989,18.269143999999983,3032
54.616663999999886,17.621143999999987,3068
53.96866399999989,18.269143999999983,3083
43.92466399999995,1.4211439999999929,3179
44.24866399999995,0.7731439999999932,3144
44.572663999999946,0.1251439999999934,3145
46.84066399999993,1.4211439999999929,3043
44.572663999999946,1.4211439999999929,3254
44.24866399999995,1.4211439999999929,3230
45.54466399999994,1.4211439999999929,3159
46.516663999999935,1.4211439999999929,3100
42.30466399999996,2.717143999999992,3165
44.24866399999995,2.717143999999992,3369
44.572663999999946,2.717143999999992,3403
43.92466399999995,2.0691439999999925,3192
42.30466399999996,2.0691439999999925,3149
42.62866399999996,2.0691439999999925,3113
42.62866399999996,1.4211439999999929,3152
42.95266399999996,1.4211439999999929,3161
43.276663999999954,1.4211439999999929,3134
46.516663999999935,-1.170856000000006,3120
46.19266399999994,-1.170856000000006,3145
45.86866399999994,-0.5228560000000062,3121
45.54466399999994,-0.5228560000000062,3102
48.46066399999992,1.4211439999999929,2935
41.332663999999966,2.0691439999999925,3414
41.98066399999996,2.717143999999992,3373
48.46066399999992,-1.8188560000000056,3070
47.81266399999993,0.7731439999999932,3163
46.84066399999993,0.7731439999999932,3100
44.572663999999946,-1.170856000000006,3085
43.60066399999995,-1.170856000000006,3285
43.276663999999954,-1.8188560000000056,3375
43.276663999999954,0.1251439999999934,3290
42.95266399999996,0.1251439999999934,3267
43.276663999999954,-0.5228560000000062,3321
43.60066399999995,-0.5228560000000062,3310
47.81266399999993,-3.7628560000000046,3148
47.48866399999993,-2.4668560000000053,3104
47.81266399999993,-0.5228560000000062,3049
46.516663999999935,-1.8188560000000056,3148
48.136663999999925,-1.170856000000006,3132
47.48866399999993,-1.170856000000006,3056
45.22066399999994,8.54914399999999,2886
45.22066399999994,7.90114399999999,2899
46.19266399999994,-0.5228560000000062,3101
46.516663999999935,-0.5228560000000062,3083
48.78466399999992,-3.114856000000005,3204
50.72866399999991,2.0691439999999925,2898
50.40466399999991,2.0691439999999925,2912
40.36066399999997,-3.7628560000000046,4785
41.65666399999997,-1.170856000000006,4702
41.332663999999966,1.4211439999999929,4640
43.276663999999954,13.733143999999989,65535
42.95266399999996,13.733143999999989,65535
41.65666399999997,15.029143999999986,65535
40.68466399999997,17.621143999999987,65535
43.60066399999995,13.085143999999987,6048
41.65666399999997,12.437143999999988,5846
41.65666399999997,13.085143999999987,5853
41.98066399999996,13.085143999999987,5864
41.65666399999997,13.733143999999989,5901
41.332663999999966,13.733143999999989,5930
41.332663999999966,14.381143999999988,6149
41.00866399999997,14.381143999999988,6055
41.332663999999966,13.085143999999987,5913
41.00866399999997,15.029143999999986,6255
41.98066399999996,13.733143999999989,5946
42.30466399999996,14.381143999999988,6336
42.30466399999996,12.437143999999988,5891
42.62866399999996,12.437143999999988,5899
42.95266399999996,12.437143999999988,5956
42.30466399999996,11.789143999999988,5860
42.95266399999996,11.789143999999988,6156
42.62866399999996,11.789143999999988,6147
43.276663999999954,11.789143999999988,6210
42.95266399999996,13.085143999999987,5949
42.30466399999996,13.085143999999987,9103
43.276663999999954,13.085143999999987,6001
43.276663999999954,12.437143999999988,6009
42.62866399999996,11.141143999999988,5992
42.95266399999996,11.141143999999988,6035
42.95266399999996,10.493143999999988,6053
44.572663999999946,8.54914399999999,2930
44.89666399999994,7.90114399999999,2904
44.89666399999994,9.197143999999987,2952
44.24866399999995,7.90114399999999,2963
44.572663999999946,7.90114399999999,2921
43.92466399999995,7.90114399999999,2979
44.24866399999995,7.25314399999999,2981
44.89666399999994,7.25314399999999,2927
45.22066399999994,7.25314399999999,2908
45.54466399999994,7.90114399999999,2918
44.572663999999946,7.25314399999999,2962
52.996663999999896,22.805143999999984,2964
52.996663999999896,23.45314399999998,2973
51.37666399999991,22.15714399999998,2731
51.37666399999991,22.805143999999984,2760
50.08066399999991,20.213143999999986,2233
50.72866399999991,20.213143999999986,2670
50.40466399999991,20.213143999999986,2310
50.08066399999991,20.86114399999998,2174
50.08066399999991,21.50914399999997,2295
50.08066399999991,22.15714399999998,2328
50.08066399999991,22.805143999999984,2349
53.96866399999989,22.805143999999984,3399
53.64466399999989,23.45314399999998,3177
53.32066399999989,23.45314399999998,3131
50.40466399999991,19.565143999999982,2308
50.08066399999991,18.917143999999983,2335
50.08066399999991,18.269143999999983,2445
52.0246639999999,22.805143999999984,2860
52.0246639999999,23.45314399999998,2898
51.37666399999991,19.565143999999982,2861
51.05266399999991,19.565143999999982,2815
50.72866399999991,18.917143999999983,2771
50.72866399999991,19.565143999999982,2727
49.75666399999992,18.917143999999983,2178
50.40466399999991,18.269143999999983,2615
53.64466399999989,19.565143999999982,2932
53.96866399999989,18.917143999999983,3002
53.64466399999989,18.917143999999983,2951
53.64466399999989,20.213143999999986,2970
52.996663999999896,18.917143999999983,2885
52.996663999999896,18.269143999999983,2861
53.32066399999989,18.917143999999983,2890
50.72866399999991,17.621143999999987,2650
50.72866399999991,18.269143999999983,2669
52.6726639999999,16.325143999999987,2815
52.996663999999896,16.325143999999987,2818
52.996663999999896,15.677143999999986,2874
53.32066399999989,15.677143999999986,2922
53.32066399999989,15.029143999999986,2919
53.64466399999989,15.029143999999986,2925
53.96866399999989,15.029143999999986,2929
52.6726639999999,18.917143999999983,2895
53.32066399999989,16.325143999999987,2868
52.6726639999999,15.029143999999986,2880
51.05266399999991,22.805143999999984,2751
51.05266399999991,23.45314399999998,2763
50.72866399999991,22.15714399999998,2701
50.40466399999991,22.15714399999998,2690
51.05266399999991,22.15714399999998,2714
54.616663999999886,16.973143999999984,3028
54.29266399999989,16.325143999999987,2978
53.96866399999989,15.677143999999986,2977
50.72866399999991,21.50914399999997,2731
50.40466399999991,21.50914399999997,2348
50.40466399999991,17.621143999999987,2775
53.32066399999989,22.805143999999984,3034
53.64466399999989,22.15714399999998,3093
54.29266399999989,16.973143999999984,3004
50.72866399999991,20.86114399999998,2704
51.700663999999904,22.805143999999984,2920
51.05266399999991,21.50914399999997,2808
50.08066399999991,19.565143999999982,2262
52.0246639999999,18.917143999999983,8488
52.0246639999999,19.565143999999982,8481
53.64466399999989,18.269143999999983,2982
51.700663999999904,20.213143999999986,2901
53.32066399999989,19.565143999999982,2922
50.72866399999991,23.45314399999998,3115
50.72866399999991,22.805143999999984,3084
49.43266399999992,20.213143999999986,2386
49.75666399999992,21.50914399999997,2404
49.75666399999992,22.15714399999998,2742
49.43266399999992,22.15714399999998,2302
51.05266399999991,18.917143999999983,2853
51.05266399999991,18.269143999999983,2709
53.32066399999989,16.973143999999984,2855
53.64466399999989,16.973143999999984,2881
49.75666399999992,20.86114399999998,2150
50.40466399999991,22.805143999999984,8570
53.64466399999989,16.325143999999987,2891
53.96866399999989,20.86114399999998,3222
54.29266399999989,20.86114399999998,3268
53.96866399999989,21.50914399999997,3218
53.64466399999989,15.677143999999986,2942
53.96866399999989,20.213143999999986,3025
53.96866399999989,19.565143999999982,3061
54.29266399999989,19.565143999999982,3075
53.96866399999989,16.325143999999987,2925
53.64466399999989,17.621143999999987,3018
53.96866399999989,22.15714399999998,3110
53.64466399999989,21.50914399999997,3216
53.64466399999989,20.86114399999998,3260
52.6726639999999,15.677143999999986,2876
51.05266399999991,20.213143999999986,2883
54.940663999999884,24.101143999999977,3681
54.616663999999886,23.45314399999998,3625
54.29266399999989,23.45314399999998,3488
53.64466399999989,22.805143999999984,3083
53.96866399999989,16.973143999999984,3025
50.40466399999991,20.86114399999998,2746
53.32066399999989,18.269143999999983,2991
49.75666399999992,19.565143999999982,2336
50.40466399999991,23.45314399999998,2365
49.75666399999992,20.213143999999986,2390
49.43266399999992,19.565143999999982,2338
49.43266399999992,20.86114399999998,2088
53.96866399999989,17.621143999999987,3228
42.30466399999996,-1.8188560000000056,8799
41.98066399999996,-1.8188560000000056,8782
41.65666399999997,0.7731439999999932,8786
42.62866399999996,-1.8188560000000056,8914
42.95266399999996,-1.8188560000000056,8943
42.62866399999996,-3.114856000000005,9037
42.95266399999996,-2.4668560000000053,9015
42.62866399999996,-7.650856000000003,9379
42.30466399999996,-7.650856000000003,9439
42.30466399999996,-8.946856000000002,9575
42.30466399999996,-8.298856000000002,9549
41.98066399999996,-8.298856000000002,9538
42.30466399999996,-7.002856000000003,9321
42.62866399999996,-6.354856000000003,9263
42.30466399999996,-6.354856000000003,9218
42.62866399999996,-5.706856000000004,8718
41.98066399999996,-4.410856000000004,8672
42.30466399999996,-3.7628560000000046,9063
40.03666399999997,-0.5228560000000062,8766
39.38866399999998,-0.5228560000000062,8814
41.00866399999997,0.7731439999999932,8914
40.68466399999997,0.7731439999999932,8946
40.36066399999997,0.1251439999999934,9024
39.712663999999975,-0.5228560000000062,8923
38.41666399999998,-0.5228560000000062,8935
39.06466399999998,-0.5228560000000062,9057
38.74066399999998,-1.170856000000006,8943
41.332663999999966,0.7731439999999932,8974
41.65666399999997,2.717143999999992,8574
41.65666399999997,2.0691439999999925,8597
41.332663999999966,0.1251439999999934,8932
41.332663999999966,-0.5228560000000062,8876
41.65666399999997,-4.410856000000004,8646
40.03666399999997,-2.4668560000000053,8884
41.00866399999997,-4.410856000000004,8767
43.276663999999954,-5.706856000000004,8848
39.38866399999998,-1.170856000000006,8909
38.09266399999999,-1.170856000000006,9322
38.74066399999998,-0.5228560000000062,9085
37.76866399999999,-1.170856000000006,9387
39.06466399999998,-1.8188560000000056,8907
39.38866399999998,-3.114856000000005,8807
39.38866399999998,-2.4668560000000053,8863
39.06466399999998,-2.4668560000000053,8890
39.06466399999998,-3.114856000000005,8811
39.06466399999998,-3.7628560000000046,8785
38.74066399999998,-3.7628560000000046,8864
40.03666399999997,-3.7628560000000046,8763
40.03666399999997,-3.114856000000005,8963
40.03666399999997,-1.8188560000000056,9044
39.712663999999975,-1.8188560000000056,9009
39.712663999999975,-1.170856000000006,8945
40.36066399999997,-1.170856000000006,8964
40.68466399999997,-1.170856000000006,8942
41.00866399999997,-1.170856000000006,8930
41.332663999999966,-1.170856000000006,8770
43.276663999999954,-8.298856000000002,9539
42.95266399999996,-8.298856000000002,9507
41.65666399999997,-5.706856000000004,65535
41.98066399999996,-7.002856000000003,65535
41.98066399999996,-6.354856000000003,65535
41.332663999999966,-5.058856000000004,8885
43.276663999999954,-3.7628560000000046,9320
42.95266399999996,-4.410856000000004,9254
42.62866399999996,-4.410856000000004,9244
42.30466399999996,-4.410856000000004,9203
41.00866399999997,-5.706856000000004,8823
41.332663999999966,-1.8188560000000056,8716
40.68466399999997,-3.114856000000005,8670
41.00866399999997,-3.114856000000005,8721
41.00866399999997,-2.4668560000000053,8744
41.332663999999966,-2.4668560000000053,8797
40.68466399999997,-4.410856000000004,8707
40.36066399999997,-4.410856000000004,8791
40.68466399999997,-3.7628560000000046,8699
40.36066399999997,-3.114856000000005,8677
41.65666399999997,-2.4668560000000053,8814
38.09266399999999,-3.7628560000000046,8911
38.74066399999998,-3.114856000000005,8855
37.76866399999999,-3.7628560000000046,8968
39.712663999999975,-3.114856000000005,8799
38.41666399999998,-3.7628560000000046,8876
40.03666399999997,-4.410856000000004,65535
40.03666399999997,-5.058856000000004,65535
39.38866399999998,-6.354856000000003,65535
39.38866399999998,-7.002856000000003,65535
42.95266399999996,-3.114856000000005,9448
41.98066399999996,-1.170856000000006,8811
42.30466399999996,-2.4668560000000053,8852
41.65666399999997,-0.5228560000000062,8909
41.98066399999996,-0.5228560000000062,8746
41.65666399999997,0.1251439999999934,8773
41.98066399999996,0.1251439999999934,8795
37.76866399999999,-5.058856000000004,8847
36.79666399999999,-4.410856000000004,8906
38.74066399999998,-4.410856000000004,8803
37.12066399999999,-4.410856000000004,8880
37.44466399999999,-5.058856000000004,9404
37.44466399999999,-7.002856000000003,65535
37.44466399999999,-6.354856000000003,65535
37.44466399999999,-5.706856000000004,9080
39.712663999999975,-3.7628560000000046,8873
42.62866399999996,-8.946856000000002,65535
42.30466399999996,-5.706856000000004,9225
42.30466399999996,-5.058856000000004,9310
42.95266399999996,-5.706856000000004,8750
41.00866399999997,-5.058856000000004,8791
40.68466399999997,-5.058856000000004,8765
41.65666399999997,-5.058856000000004,65535
41.65666399999997,-6.354856000000003,65535
36.79666399999999,-6.354856000000003,65535
37.12066399999999,-5.706856000000004,9248
37.76866399999999,-5.706856000000004,9047
38.09266399999999,-4.410856000000004,9182
37.12066399999999,-5.058856000000004,9202
36.79666399999999,-5.058856000000004,9160
37.76866399999999,-4.410856000000004,65535
37.76866399999999,-7.002856000000003,65535
38.41666399999998,-6.354856000000003,65535
38.09266399999999,-6.354856000000003,65535
48.78466399999992,1.4211439999999929,3001
56.23666399999988,8.54914399999999,7090
55.58866399999988,9.197143999999987,6895
55.91266399999988,9.197143999999987,7036
55.26466399999988,10.493143999999988,3954
55.91266399999988,12.437143999999988,4089
55.58866399999988,11.789143999999988,6735
55.58866399999988,11.141143999999988,6776
55.26466399999988,11.789143999999988,6768
55.58866399999988,10.493143999999988,6891
55.58866399999988,13.085143999999987,4046
56.88466399999987,9.845143999999989,7042
57.20866399999987,9.845143999999989,7077
56.56066399999988,9.845143999999989,7014
56.88466399999987,8.54914399999999,7129
54.940663999999884,9.845143999999989,8236
54.940663999999884,11.789143999999988,6992
55.91266399999988,13.085143999999987,4155
56.23666399999988,13.733143999999989,4175
55.91266399999988,13.733143999999989,4173
56.23666399999988,14.381143999999988,4214
56.23666399999988,15.029143999999986,4332
56.23666399999988,15.677143999999986,4387
56.56066399999988,14.381143999999988,4254
56.88466399999987,14.381143999999988,4219
56.23666399999988,13.085143999999987,4156
56.56066399999988,13.085143999999987,4290
56.88466399999987,12.437143999999988,4333
57.20866399999987,12.437143999999988,4349
57.53266399999987,12.437143999999988,4379
56.88466399999987,15.029143999999986,4355
56.56066399999988,15.677143999999986,4449
56.88466399999987,15.677143999999986,4483
56.88466399999987,16.325143999999987,4499
55.91266399999988,11.789143999999988,7061
57.20866399999987,10.493143999999988,7264
49.43266399999992,1.4211439999999929,2943
49.75666399999992,0.7731439999999932,2982
49.75666399999992,2.0691439999999925,2900
50.08066399999991,2.717143999999992,2930
49.75666399999992,1.4211439999999929,2960
47.81266399999993,1.4211439999999929,3029
48.136663999999925,2.0691439999999925,3225
48.46066399999992,2.0691439999999925,3056
48.136663999999925,1.4211439999999929,3030
48.78466399999992,0.1251439999999934,3105
48.46066399999992,0.1251439999999934,3170
47.81266399999993,0.1251439999999934,3037
46.84066399999993,-0.5228560000000062,3042
47.16466399999993,0.7731439999999932,2989
46.84066399999993,0.1251439999999934,3167
46.84066399999993,-1.170856000000006,3092
50.08066399999991,1.4211439999999929,2934
50.08066399999991,2.0691439999999925,2945
49.43266399999992,2.717143999999992,2892
49.75666399999992,3.365143999999992,2899
50.08066399999991,3.365143999999992,2902
49.10866399999992,2.0691439999999925,2941
49.43266399999992,2.0691439999999925,2886
48.78466399999992,0.7731439999999932,3062
48.78466399999992,-0.5228560000000062,3201
48.78466399999992,-1.170856000000006,3150
48.136663999999925,0.7731439999999932,2989
48.46066399999992,0.7731439999999932,3011
43.92466399999995,5.957143999999991,3056
44.24866399999995,5.957143999999991,3027
43.92466399999995,5.309143999999991,2981
42.95266399999996,2.717143999999992,3077
45.54466399999994,2.0691439999999925,3285
45.22066399999994,2.0691439999999925,3233
42.95266399999996,2.0691439999999925,3159
42.95266399999996,0.7731439999999932,3218
43.276663999999954,0.7731439999999932,3147
46.19266399999994,0.7731439999999932,3172
46.516663999999935,0.7731439999999932,3129
45.86866399999994,0.1251439999999934,3185
46.19266399999994,0.1251439999999934,3189
47.81266399999993,-1.170856000000006,3243
48.136663999999925,-2.4668560000000053,3167
47.48866399999993,-1.8188560000000056,3087
47.16466399999993,-1.170856000000006,3069
47.16466399999993,-0.5228560000000062,3051
46.84066399999993,-1.8188560000000056,3116
45.22066399999994,-0.5228560000000062,3107
44.89666399999994,0.1251439999999934,3122
45.22066399999994,0.7731439999999932,3161
45.54466399999994,0.7731439999999932,3215
45.86866399999994,0.7731439999999932,3162
45.22066399999994,0.1251439999999934,3184
44.89666399999994,0.7731439999999932,3175
43.92466399999995,-0.5228560000000062,3216
43.92466399999995,-1.170856000000006,3196
44.24866399999995,-1.170856000000006,3150
45.22066399999994,-1.170856000000006,3138
44.572663999999946,-0.5228560000000062,3109
44.24866399999995,0.1251439999999934,3197
44.572663999999946,0.7731439999999932,3197
43.276663999999954,-1.170856000000006,3352
42.95266399999996,-0.5228560000000062,3333
44.24866399999995,2.0691439999999925,3249
43.60066399999995,0.7731439999999932,3164
43.60066399999995,2.0691439999999925,3256
52.6726639999999,4.661143999999991,7081
52.6726639999999,5.309143999999991,7104
51.700663999999904,5.309143999999991,7049
52.0246639999999,5.309143999999991,7061
52.3486639999999,5.309143999999991,7077
51.37666399999991,4.013143999999992,7057
52.3486639999999,5.957143999999991,7071
52.0246639999999,6.60514399999999,7101
52.6726639999999,5.957143999999991,7088
52.996663999999896,5.957143999999991,7101
53.32066399999989,5.957143999999991,7095
52.996663999999896,6.60514399999999,7077
53.32066399999989,6.60514399999999,7069
52.6726639999999,6.60514399999999,7097
52.996663999999896,5.309143999999991,7116
59.15266399999986,24.101143999999977,65535
56.88466399999987,24.101143999999977,65535
56.88466399999987,23.45314399999998,65535
56.88466399999987,22.805143999999984,65535
57.20866399999987,24.74914399999998,65535
56.88466399999987,24.74914399999998,65535
56.56066399999988,24.74914399999998,65535
56.56066399999988,25.397143999999983,65535
56.56066399999988,24.101143999999977,65535
56.56066399999988,23.45314399999998,65535
56.56066399999988,26.04514399999998,65535
56.88466399999987,26.04514399999998,65535
57.20866399999987,25.397143999999983,65535
57.53266399999987,25.397143999999983,65535
56.23666399999988,26.04514399999998,65535
56.23666399999988,26.69314399999997,65535
55.91266399999988,26.69314399999997,65535
56.56066399999988,26.69314399999997,65535
56.56066399999988,27.34114399999998,65535
56.56066399999988,27.989143999999985,65535
56.23666399999988,27.989143999999985,65535
55.91266399999988,27.34114399999998,65535
56.56066399999988,22.805143999999984,65535
56.56066399999988,22.15714399999998,65535
56.56066399999988,21.50914399999997,65535
57.20866399999987,26.69314399999997,65535
39.06466399999998,-8.946856000000002,65535
38.41666399999998,-8.298856000000002,65535
45.86866399999994,11.789143999999988,4468
46.19266399999994,11.789143999999988,4455
46.19266399999994,10.493143999999988,4445
45.22066399999994,18.269143999999983,2448
45.22066399999994,18.917143999999983,2490
45.54466399999994,16.973143999999984,2311
45.22066399999994,17.621143999999987,2389
45.86866399999994,16.325143999999987,2206
45.54466399999994,18.917143999999983,2761
45.54466399999994,16.325143999999987,2265
45.54466399999994,18.269143999999983,2681
44.89666399999994,18.917143999999983,3336
46.19266399999994,16.973143999999984,2170
46.19266399999994,16.325143999999987,2195
45.86866399999994,16.973143999999984,2217
45.86866399999994,17.621143999999987,2249
46.19266399999994,15.677143999999986,2154
46.516663999999935,16.325143999999987,2141
45.54466399999994,15.677143999999986,2214
45.22066399999994,15.029143999999986,2364
45.54466399999994,15.029143999999986,2329
45.22066399999994,15.677143999999986,2349
44.572663999999946,15.677143999999986,2504
44.24866399999995,15.677143999999986,2530
43.92466399999995,16.325143999999987,2613
44.89666399999994,15.677143999999986,2460
45.54466399999994,17.621143999999987,2649
45.22066399999994,16.325143999999987,2405
46.516663999999935,16.973143999999984,2162
45.86866399999994,18.269143999999983,2814
43.92466399999995,15.677143999999986,2754
45.22066399999994,13.733143999999989,2742
47.48866399999993,19.565143999999982,1834
47.16466399999993,18.917143999999983,1833
47.81266399999993,18.917143999999983,1834
45.54466399999994,9.845143999999989,2860
45.22066399999994,9.845143999999989,2879
45.22066399999994,10.493143999999988,2958
45.86866399999994,9.845143999999989,2853
45.86866399999994,10.493143999999988,7158
48.78466399999992,21.50914399999997,1996
49.10866399999992,20.213143999999986,2081
49.10866399999992,18.917143999999983,2166
48.46066399999992,17.621143999999987,1977
49.43266399999992,17.621143999999987,2130
49.10866399999992,17.621143999999987,2752
48.136663999999925,18.269143999999983,1946
49.10866399999992,18.269143999999983,2033
49.43266399999992,18.269143999999983,2091
49.43266399999992,16.973143999999984,2161
49.75666399999992,16.973143999999984,2173
49.75666399999992,16.325143999999987,2207
50.08066399999991,15.677143999999986,2250
50.08066399999991,15.029143999999986,2270
49.43266399999992,18.917143999999983,2155
47.81266399999993,20.86114399999998,1915
48.136663999999925,20.86114399999998,1946
48.46066399999992,20.86114399999998,1988
48.46066399999992,21.50914399999997,1992
49.10866399999992,19.565143999999982,2210
48.136663999999925,17.621143999999987,1966
48.78466399999992,22.15714399999998,2150
48.78466399999992,20.86114399999998,2305
49.10866399999992,20.86114399999998,2075
48.78466399999992,18.269143999999983,2012
48.78466399999992,17.621143999999987,2069
49.10866399999992,21.50914399999997,2061
48.78466399999992,20.213143999999986,2349
48.46066399999992,20.213143999999986,2361
48.136663999999925,19.565143999999982,2434
48.46066399999992,19.565143999999982,2448
48.46066399999992,18.917143999999983,2014
48.46066399999992,18.269143999999983,2001
48.78466399999992,19.565143999999982,2329
48.78466399999992,18.917143999999983,2128
47.81266399999993,18.269143999999983,1937
49.10866399999992,22.15714399999998,2204
49.43266399999992,21.50914399999997,2134
48.136663999999925,18.917143999999983,1927
48.136663999999925,20.213143999999986,2707
52.636,-8.018,65535
52.312,-7.370000000000001,65535
52.312,-8.018,65535
52.636,-8.666,65535
51.988,-8.666,65535
51.988,-8.018,65535
52.96,-8.666,65535
52.96,-6.074000000000002,65535
53.28399999999999,-6.722000000000001,65535
53.60799999999999,-6.722000000000001,65535
53.60799999999999,-7.370000000000001,65535
53.60799999999999,-8.018,65535
54.25599999999999,-8.666,65535
53.93199999999999,-8.666,65535
53.93199999999999,-8.018,65535
52.312,-6.722000000000001,65535
52.636,-6.722000000000001,65535
53.93199999999999,-6.722000000000001,65535
54.25599999999999,-6.074000000000002,65535
53.28399999999999,-7.370000000000001,65535
52.96,-7.370000000000001,65535
52.312,-8.666,65535
52.96,-8.018,65535
52.636,-7.370000000000001,65535
52.96,-6.722000000000001,65535
51.988,-9.314,65535
52.312,-9.314,65535
54.579999999999984,-6.722000000000001,65535
54.579999999999984,-6.074000000000002,65535
53.28399999999999,-8.018,65535
53.28399999999999,-8.666,65535
53.28399999999999,-9.314,65535
53.93199999999999,-9.314,65535
54.25599999999999,-9.314,65535
53.60799999999999,-8.666,65535
53.60799999999999,-9.314,65535
49.43266399999992,14.381143999999988,2334
49.75666399999992,14.381143999999988,2312
49.75666399999992,15.029143999999986,2308
49.75666399999992,13.733143999999989,2365
50.08066399999991,13.733143999999989,2333
49.75666399999992,15.677143999999986,2290
50.40466399999991,15.029143999999986,2311
49.43266399999992,13.733143999999989,2416
50.40466399999991,15.677143999999986,2663
50.40466399999991,13.733143999999989,2368
46.19266399999994,15.029143999999986,2202
45.86866399999994,15.029143999999986,2241
45.86866399999994,14.381143999999988,2219
46.19266399999994,13.733143999999989,2685
45.86866399999994,13.733143999999989,2761
58.50466399999986,13.733143999999989,4392
58.180663999999865,13.733143999999989,4365
58.180663999999865,13.085143999999987,4391
57.85666399999987,12.437143999999988,4396
60.44866399999985,15.677143999999986,4547
60.124663999999854,15.677143999999986,4535
60.124663999999854,16.325143999999987,4519
59.800663999999855,16.325143999999987,4484
59.800663999999855,17.621143999999987,4456
59.47666399999986,18.269143999999983,4431
61.74466399999984,16.973143999999984,4618
61.420663999999846,16.973143999999984,4590
60.77266399999985,16.973143999999984,4515
65.63266399999982,22.15714399999998,5662
65.95666399999982,21.50914399999997,5622
65.63266399999982,20.86114399999998,5593
64.98466399999982,20.213143999999986,5525
64.66066399999983,20.213143999999986,5503
64.33666399999983,19.565143999999982,5704
64.01266399999983,19.565143999999982,5908
63.68866399999983,20.213143999999986,4865
64.66066399999983,18.917143999999983,6134
59.15266399999986,16.325143999999987,4383
59.15266399999986,15.029143999999986,4387
59.15266399999986,17.621143999999987,4417
57.53266399999987,14.381143999999988,4259
57.53266399999987,15.029143999999986,4410
61.09666399999985,14.381143999999988,4651
60.77266399999985,15.029143999999986,4602
60.44866399999985,15.029143999999986,4588
58.180663999999865,15.029143999999986,4306
58.50466399999986,16.325143999999987,4344
58.50466399999986,15.677143999999986,4316
63.36466399999984,13.085143999999987,4895
63.04066399999984,14.381143999999988,4832
62.39266399999984,15.677143999999986,4754
63.36466399999984,13.733143999999989,4877
63.36466399999984,14.381143999999988,4849
62.71666399999984,15.677143999999986,4782
62.39266399999984,17.621143999999987,4673
59.800663999999855,15.677143999999986,4658
55.58866399999988,13.733143999999989,6278
57.20866399999987,14.381143999999988,4406
57.85666399999987,14.381143999999988,4285
58.82866399999986,16.973143999999984,4392
58.82866399999986,16.325143999999987,4370
59.15266399999986,18.269143999999983,4423
60.44866399999985,17.621143999999987,4489
59.15266399999986,12.437143999999988,4484
59.15266399999986,13.085143999999987,4495
58.82866399999986,12.437143999999988,4460
59.47666399999986,16.325143999999987,4429
58.82866399999986,14.381143999999988,4416
59.47666399999986,15.677143999999986,4447
63.36466399999984,18.917143999999983,4818
63.04066399999984,17.621143999999987,4772
62.71666399999984,17.621143999999987,4747
63.68866399999983,19.565143999999982,4853
62.39266399999984,16.973143999999984,4693
59.800663999999855,16.973143999999984,4495
59.47666399999986,17.621143999999987,4437
57.85666399999987,13.085143999999987,4410
57.53266399999987,13.085143999999987,4422
58.50466399999986,11.789143999999988,4430
57.85666399999987,15.029143999999986,4290
57.20866399999987,13.733143999999989,4386
57.53266399999987,13.733143999999989,4456
61.74466399999984,16.325143999999987,4596
61.420663999999846,16.325143999999987,4565
61.09666399999985,16.325143999999987,4555
61.09666399999985,16.973143999999984,4539
60.124663999999854,15.029143999999986,4524
66.60466399999981,20.86114399999998,5697
67.25266399999981,20.86114399999998,5765
67.90066399999981,20.213143999999986,5835
67.57666399999981,20.213143999999986,6460
59.800663999999855,15.029143999999986,4476
58.50466399999986,15.029143999999986,4328
59.47666399999986,15.029143999999986,4461
60.44866399999985,16.325143999999987,4608
59.15266399999986,15.677143999999986,4397
57.85666399999987,13.733143999999989,4342
58.82866399999986,13.733143999999989,4532
58.50466399999986,13.085143999999987,4467
57.20866399999987,13.085143999999987,4376
56.88466399999987,13.085143999999987,4345
58.180663999999865,11.789143999999988,4401
62.06866399999984,16.973143999999984,4727
65.95666399999982,23.45314399999998,6021
59.800663999999855,14.381143999999988,5891
59.800663999999855,18.269143999999983,4484
63.04066399999984,15.029143999999986,4800
62.71666399999984,15.029143999999986,4790
62.39266399999984,16.325143999999987,4723
63.36466399999984,12.437143999999988,4928
68.5486639999998,17.621143999999987,6048
68.5486639999998,18.269143999999983,5981
68.5486639999998,18.917143999999983,5958
68.2246639999998,18.917143999999983,5914
59.800663999999855,13.085143999999987,4600
60.124663999999854,13.085143999999987,4639
59.47666399999986,16.973143999999984,4458
59.15266399999986,16.973143999999984,4467
56.56066399999988,13.733143999999989,4239
60.124663999999854,17.621143999999987,4466
57.85666399999987,16.325143999999987,4395
58.180663999999865,16.325143999999987,4357
58.180663999999865,15.677143999999986,4365
57.20866399999987,16.325143999999987,4470
57.53266399999987,15.677143999999986,4425
57.85666399999987,15.677143999999986,4396
44.89666399999994,23.45314399999998,362
44.572663999999946,23.45314399999998,427
44.89666399999994,24.74914399999998,487
44.572663999999946,24.74914399999998,508
44.572663999999946,24.101143999999977,427
44.24866399999995,24.101143999999977,468
47.48866399999993,25.397143999999983,338
47.48866399999993,24.74914399999998,268
47.16466399999993,24.74914399999998,249
47.16466399999993,24.101143999999977,204
47.48866399999993,22.15714399999998,465
47.81266399999993,22.15714399999998,527
47.16466399999993,22.15714399999998,341
47.16466399999993,23.45314399999998,458
47.16466399999993,22.805143999999984,839
46.84066399999993,24.101143999999977,96
45.86866399999994,27.34114399999998,539
45.54466399999994,27.34114399999998,519
45.54466399999994,27.989143999999985,556
45.86866399999994,20.86114399999998,380
45.86866399999994,21.50914399999997,364
46.19266399999994,21.50914399999997,320
46.19266399999994,27.34114399999998,562
46.19266399999994,26.69314399999997,568
46.516663999999935,26.69314399999997,537
46.516663999999935,26.04514399999998,532
47.48866399999993,22.805143999999984,1365
46.84066399999993,22.805143999999984,213
45.54466399999994,22.15714399999998,459
45.22066399999994,22.15714399999998,481
44.89666399999994,22.15714399999998,543
47.48866399999993,23.45314399999998,502
46.516663999999935,24.101143999999977,74
46.516663999999935,24.74914399999998,269
45.86866399999994,24.101143999999977,27
47.16466399999993,26.69314399999997,499
47.16466399999993,27.34114399999998,611
43.92466399999995,25.397143999999983,554
44.24866399999995,24.74914399999998,530
44.89666399999994,26.04514399999998,428
44.89666399999994,26.69314399999997,436
45.22066399999994,26.69314399999997,453
45.22066399999994,27.34114399999998,480
46.84066399999993,26.69314399999997,554
47.48866399999993,26.69314399999997,447
44.24866399999995,25.397143999999983,478
43.92466399999995,26.04514399999998,570
46.19266399999994,24.101143999999977,0
44.572663999999946,25.397143999999983,445
46.84066399999993,24.74914399999998,398
46.516663999999935,21.50914399999997,403
46.84066399999993,21.50914399999997,458
44.572663999999946,26.69314399999997,479
44.572663999999946,27.34114399999998,514
44.89666399999994,27.34114399999998,470
44.572663999999946,27.989143999999985,535
44.24866399999995,27.989143999999985,550
44.572663999999946,28.63714399999997,590
45.86866399999994,22.15714399999998,226
45.86866399999994,22.805143999999984,115
44.24866399999995,23.45314399999998,478
43.92466399999995,27.989143999999985,65535
46.84066399999993,27.34114399999998,682
45.22066399999994,23.45314399999998,292
45.54466399999994,23.45314399999998,221
45.54466399999994,24.101143999999977,82
45.22066399999994,24.101143999999977,100
44.89666399999994,24.101143999999977,358
46.19266399999994,22.15714399999998,270
46.516663999999935,22.15714399999998,365
45.22066399999994,21.50914399999997,448
45.54466399999994,21.50914399999997,368
45.54466399999994,20.86114399999998,374
46.516663999999935,27.989143999999985,684
46.19266399999994,27.989143999999985,656
45.54466399999994,25.397143999999983,326
45.22066399999994,25.397143999999983,369
45.22066399999994,26.04514399999998,479
47.81266399999993,24.101143999999977,661
47.48866399999993,26.04514399999998,432
47.81266399999993,26.04514399999998,490
46.19266399999994,23.45314399999998,40
45.86866399999994,23.45314399999998,49
44.24866399999995,26.04514399999998,458
45.22066399999994,27.989143999999985,535
45.86866399999994,24.74914399999998,62
46.516663999999935,25.397143999999983,526
46.84066399999993,25.397143999999983,470
46.19266399999994,26.04514399999998,505
45.86866399999994,26.04514399999998,364
43.92466399999995,23.45314399999998,571
44.89666399999994,25.397143999999983,435
46.19266399999994,20.86114399999998,402
47.81266399999993,25.397143999999983,747
44.572663999999946,22.805143999999984,499
44.572663999999946,22.15714399999998,565
46.516663999999935,23.45314399999998,101
45.86866399999994,25.397143999999983,265
44.24866399999995,27.34114399999998,811
45.22066399999994,24.74914399999998,651
45.54466399999994,22.805143999999984,170
45.22066399999994,28.63714399999997,661
44.89666399999994,28.63714399999997,600
47.81266399999993,23.45314399999998,796
46.19266399999994,24.74914399999998,19
46.19266399999994,25.397143999999983,184
43.92466399999995,24.101143999999977,1261
43.92466399999995,24.74914399999998,1274
47.81266399999993,26.69314399999997,670
47.48866399999993,24.101143999999977,589
46.84066399999993,26.04514399999998,726
46.19266399999994,22.805143999999984,687
47.48866399999993,27.34114399999998,697
46.19266399999994,20.213143999999986,65535
45.54466399999994,26.04514399999998,572
44.24866399999995,26.69314399999997,486
45.86866399999994,27.989143999999985,671
47.81266399999993,5.957143999999991,7066
