51.56399999999999,-0.4100000000000028,65535
51.887999999999984,-0.4100000000000028,65535
50.91599999999999,-1.7060000000000022,65535
51.23999999999999,-1.0580000000000025,65535
51.56399999999999,-1.0580000000000025,65535
51.23999999999999,-1.7060000000000022,65535
51.56399999999999,0.2379999999999968,65535
47.16466399999993,9.845143999999989,7363
47.48866399999993,9.845143999999989,7369
48.136663999999925,14.381143999999988,7244
47.81266399999993,13.085143999999987,7312
47.16466399999993,11.141143999999988,7370
47.48866399999993,11.789143999999988,7397
48.136663999999925,16.325143999999987,7089
47.48866399999993,12.437143999999988,7322
48.136663999999925,15.677143999999986,7150
47.16466399999993,10.493143999999988,7471
47.16466399999993,9.197143999999987,7351
48.136663999999925,13.733143999999989,7267
48.136663999999925,15.029143999999986,7439
47.81266399999993,16.973143999999984,7135
48.46066399999992,14.381143999999988,8584
47.48866399999993,13.085143999999987,7315
47.16466399999993,13.085143999999987,7330
47.48866399999993,14.381143999999988,7351
47.48866399999993,13.733143999999989,7431
47.48866399999993,15.029143999999986,7242
46.516663999999935,13.733143999999989,7435
46.84066399999993,13.733143999999989,7396
46.84066399999993,13.085143999999987,7340
48.78466399999992,14.381143999999988,65535
47.16466399999993,15.677143999999986,7260
46.516663999999935,14.381143999999988,7434
46.84066399999993,14.381143999999988,7375
47.16466399999993,14.381143999999988,7325
46.516663999999935,15.029143999999986,7447
47.81266399999993,16.325143999999987,7092
47.16466399999993,15.029143999999986,7300
47.81266399999993,15.677143999999986,7216
47.48866399999993,15.677143999999986,7189
46.516663999999935,13.085143999999987,7574
46.84066399999993,12.437143999999988,7379
48.136663999999925,11.789143999999988,7328
47.81266399999993,12.437143999999988,7329
46.84066399999993,15.677143999999986,7321
46.516663999999935,15.677143999999986,7540
46.84066399999993,16.325143999999987,7305
47.81266399999993,14.381143999999988,7285
48.78466399999992,16.973143999999984,6975
48.136663999999925,16.973143999999984,7074
48.46066399999992,13.733143999999989,7307
47.81266399999993,13.733143999999989,7274
50.08066399999991,8.54914399999999,7229
48.46066399999992,9.845143999999989,7329
51.05266399999991,7.25314399999999,7269
51.37666399999991,7.25314399999999,7262
51.37666399999991,6.60514399999999,7266
48.46066399999992,16.325143999999987,7119
48.46066399999992,16.973143999999984,7021
48.78466399999992,16.325143999999987,7310
48.46066399999992,15.677143999999986,7126
48.78466399999992,15.677143999999986,8161
47.48866399999993,16.325143999999987,7146
47.16466399999993,16.325143999999987,7254
46.19266399999994,14.381143999999988,7492
45.86866399999994,15.677143999999986,7544
43.60066399999995,16.325143999999987,7960
45.54466399999994,14.381143999999988,7606
45.54466399999994,13.733143999999989,7629
48.136663999999925,13.085143999999987,7308
48.46066399999992,11.141143999999988,7314
48.136663999999925,11.141143999999988,7323
48.46066399999992,7.90114399999999,7299
49.10866399999992,8.54914399999999,7261
48.78466399999992,2.0691439999999925,7415
49.10866399999992,7.25314399999999,7281
52.0246639999999,7.90114399999999,7270
47.16466399999993,11.789143999999988,7392
49.43266399999992,11.141143999999988,7274
53.64466399999989,9.845143999999989,7319
50.72866399999991,4.013143999999992,7330
51.05266399999991,11.141143999999988,7202
47.48866399999993,11.141143999999988,7353
46.84066399999993,11.789143999999988,7862
46.516663999999935,11.141143999999988,7831
45.54466399999994,11.141143999999988,7725
46.19266399999994,11.141143999999988,7797
45.86866399999994,11.141143999999988,7781
44.572663999999946,11.141143999999988,7572
43.92466399999995,12.437143999999988,65535
45.54466399999994,12.437143999999988,7812
45.54466399999994,11.789143999999988,7775
48.78466399999992,15.029143999999986,8652
47.81266399999993,15.029143999999986,7530
47.81266399999993,11.141143999999988,7328
50.40466399999991,18.917143999999983,6667
52.3486639999999,20.86114399999998,6319
54.616663999999886,18.269143999999983,6536
54.29266399999989,18.917143999999983,6515
49.10866399999992,14.381143999999988,65535
50.08066399999991,14.381143999999988,7121
48.78466399999992,13.733143999999989,65535
52.6726639999999,13.085143999999987,7174
52.3486639999999,13.085143999999987,7173
53.96866399999989,12.437143999999988,7356
54.29266399999989,12.437143999999988,7357
47.48866399999993,8.54914399999999,7343
47.81266399999993,17.621143999999987,7164
47.48866399999993,18.917143999999983,7160
47.48866399999993,20.86114399999998,7676
46.84066399999993,23.45314399999998,8158
44.572663999999946,26.04514399999998,8607
47.48866399999993,21.50914399999997,7712
47.81266399999993,21.50914399999997,8108
48.46066399999992,22.15714399999998,7237
47.48866399999993,16.973143999999984,65535
49.10866399999992,16.325143999999987,7056
49.75666399999992,18.269143999999983,6799
46.19266399999994,13.085143999999987,8543
41.98066399999996,12.437143999999988,8805
43.60066399999995,10.493143999999988,8966
45.54466399999994,9.197143999999987,7448
47.81266399999993,22.805143999999984,7963
49.75666399999992,22.805143999999984,7117
50.72866399999991,3.365143999999992,7355
51.05266399999991,4.013143999999992,7339
50.72866399999991,4.661143999999991,7326
51.05266399999991,4.661143999999991,7331
51.05266399999991,3.365143999999992,7348
51.05266399999991,2.717143999999992,7371
50.40466399999991,4.661143999999991,7337
50.72866399999991,2.717143999999992,7378
50.40466399999991,4.013143999999992,7335
51.05266399999991,5.309143999999991,7335
50.72866399999991,5.309143999999991,7313
51.37666399999991,3.365143999999992,7356
51.37666399999991,4.661143999999991,7337
50.72866399999991,5.957143999999991,7309
50.40466399999991,5.957143999999991,7323
50.40466399999991,3.365143999999992,7370
50.40466399999991,5.309143999999991,7325
50.08066399999991,5.309143999999991,7339
49.75666399999992,5.309143999999991,7343
49.75666399999992,5.957143999999991,7370
51.37666399999991,5.309143999999991,7308
51.700663999999904,4.661143999999991,7326
50.08066399999991,4.013143999999992,7360
50.08066399999991,5.957143999999991,7341
50.08066399999991,4.661143999999991,7351
49.43266399999992,5.309143999999991,7395
49.43266399999992,5.957143999999991,7363
52.0246639999999,4.661143999999991,7335
52.3486639999999,4.661143999999991,7336
50.72866399999991,15.029143999999986,7150
51.05266399999991,15.029143999999986,7140
51.05266399999991,13.733143999999989,7150
50.40466399999991,13.085143999999987,7247
49.10866399999992,7.90114399999999,7268
48.78466399999992,7.90114399999999,7278
50.40466399999991,7.90114399999999,7248
50.08066399999991,7.90114399999999,7240
49.75666399999992,7.90114399999999,7253
49.43266399999992,7.90114399999999,7252
49.75666399999992,8.54914399999999,7235
49.43266399999992,8.54914399999999,7241
49.43266399999992,9.197143999999987,7249
49.10866399999992,9.197143999999987,7263
47.48866399999993,7.90114399999999,7333
47.81266399999993,7.90114399999999,7308
48.136663999999925,7.90114399999999,7304
48.136663999999925,9.845143999999989,7324
47.81266399999993,9.197143999999987,7345
47.81266399999993,8.54914399999999,7334
47.81266399999993,9.845143999999989,7344
54.940663999999884,9.197143999999987,7393
54.616663999999886,9.197143999999987,7380
54.29266399999989,9.197143999999987,7388
53.96866399999989,9.197143999999987,7375
53.64466399999989,9.197143999999987,7333
54.616663999999886,9.845143999999989,7372
54.29266399999989,9.845143999999989,7361
53.96866399999989,9.845143999999989,7328
53.64466399999989,10.493143999999988,7322
53.96866399999989,10.493143999999988,7358
53.96866399999989,11.141143999999988,7391
54.29266399999989,10.493143999999988,7378
53.32066399999989,10.493143999999988,7294
54.940663999999884,11.141143999999988,7479
52.6726639999999,13.733143999999989,7171
52.3486639999999,13.733143999999989,7169
52.3486639999999,14.381143999999988,7177
52.0246639999999,14.381143999999988,7164
52.0246639999999,11.789143999999988,7218
52.3486639999999,11.789143999999988,7227
52.3486639999999,12.437143999999988,7207
52.0246639999999,15.029143999999986,7136
51.700663999999904,14.381143999999988,7159
52.0246639999999,13.733143999999989,7158
51.700663999999904,13.733143999999989,7154
52.6726639999999,12.437143999999988,7208
53.32066399999989,11.789143999999988,7269
53.96866399999989,11.789143999999988,7348
53.64466399999989,11.789143999999988,7303
53.64466399999989,11.141143999999988,7302
53.32066399999989,11.141143999999988,7293
52.996663999999896,11.789143999999988,7232
52.996663999999896,12.437143999999988,7224
52.996663999999896,13.733143999999989,7200
53.64466399999989,13.733143999999989,7297
53.96866399999989,13.733143999999989,7310
54.29266399999989,13.085143999999987,7317
53.96866399999989,13.085143999999987,7343
53.32066399999989,13.733143999999989,7236
52.0246639999999,13.085143999999987,7189
51.700663999999904,13.085143999999987,7186
52.996663999999896,14.381143999999988,7243
52.0246639999999,12.437143999999988,7209
51.700663999999904,12.437143999999988,7205
51.37666399999991,11.789143999999988,7174
51.37666399999991,12.437143999999988,7167
52.6726639999999,11.789143999999988,7223
53.64466399999989,13.085143999999987,7340
53.32066399999989,13.085143999999987,7305
52.996663999999896,13.085143999999987,7246
53.64466399999989,12.437143999999988,7348
51.37666399999991,13.733143999999989,7145
53.32066399999989,12.437143999999988,7256
52.6726639999999,14.381143999999988,7181
51.37666399999991,13.085143999999987,7158
53.32066399999989,14.381143999999988,7172
52.3486639999999,15.029143999999986,7123
52.0246639999999,15.677143999999986,7126
51.700663999999904,15.029143999999986,7163
51.05266399999991,16.325143999999987,7031
51.05266399999991,16.973143999999984,6996
51.700663999999904,15.677143999999986,7124
51.37666399999991,15.677143999999986,7070
51.37666399999991,16.325143999999987,7036
50.72866399999991,13.085143999999987,7205
50.72866399999991,12.437143999999988,7207
51.05266399999991,13.085143999999987,7186
51.05266399999991,14.381143999999988,7160
50.40466399999991,12.437143999999988,7230
50.40466399999991,11.789143999999988,7226
50.08066399999991,12.437143999999988,7276
50.72866399999991,11.789143999999988,7192
51.05266399999991,12.437143999999988,7190
50.72866399999991,14.381143999999988,7155
51.37666399999991,14.381143999999988,7138
50.72866399999991,13.733143999999989,7175
50.40466399999991,14.381143999999988,7135
51.37666399999991,15.029143999999986,7101
55.26466399999988,9.197143999999987,7402
55.58866399999988,8.54914399999999,7442
55.91266399999988,8.54914399999999,7455
56.23666399999988,9.197143999999987,7445
56.23666399999988,10.493143999999988,7437
56.23666399999988,9.845143999999989,7424
55.91266399999988,9.845143999999989,7417
56.56066399999988,9.197143999999987,7500
56.56066399999988,8.54914399999999,7511
51.05266399999991,6.60514399999999,7267
51.700663999999904,7.90114399999999,7253
50.72866399999991,6.60514399999999,7281
51.700663999999904,7.25314399999999,7265
50.72866399999991,7.25314399999999,7264
52.0246639999999,7.25314399999999,7280
52.3486639999999,7.90114399999999,7287
51.05266399999991,5.957143999999991,7302
50.40466399999991,7.25314399999999,7255
51.700663999999904,6.60514399999999,7281
51.700663999999904,5.957143999999991,7298
52.3486639999999,9.197143999999987,7261
51.700663999999904,8.54914399999999,7273
52.0246639999999,8.54914399999999,7275
52.3486639999999,8.54914399999999,7298
51.37666399999991,7.90114399999999,7248
52.3486639999999,7.25314399999999,7293
51.37666399999991,5.957143999999991,7301
50.72866399999991,7.90114399999999,7284
51.37666399999991,9.197143999999987,7208
51.700663999999904,9.197143999999987,7250
50.40466399999991,6.60514399999999,7306
51.05266399999991,7.90114399999999,7266
51.37666399999991,8.54914399999999,7237
52.0246639999999,5.957143999999991,7311
52.3486639999999,6.60514399999999,7316
51.05266399999991,8.54914399999999,7223
52.0246639999999,9.197143999999987,7262
52.6726639999999,9.197143999999987,7290
52.0246639999999,9.845143999999989,7243
51.700663999999904,9.845143999999989,7216
51.37666399999991,9.845143999999989,7203
50.72866399999991,8.54914399999999,7238
51.05266399999991,9.845143999999989,7209
50.72866399999991,9.845143999999989,7211
50.40466399999991,9.845143999999989,7230
51.05266399999991,9.197143999999987,7213
50.40466399999991,9.197143999999987,7232
50.08066399999991,9.197143999999987,7226
51.05266399999991,10.493143999999988,7196
50.40466399999991,8.54914399999999,7231
50.72866399999991,9.197143999999987,7220
49.75666399999992,9.197143999999987,7258
52.996663999999896,9.197143999999987,7329
52.3486639999999,9.845143999999989,7247
52.996663999999896,8.54914399999999,7346
52.996663999999896,7.90114399999999,7373
53.32066399999989,7.90114399999999,7423
53.32066399999989,7.25314399999999,7365
53.64466399999989,7.25314399999999,7498
52.996663999999896,10.493143999999988,7283
52.6726639999999,10.493143999999988,7276
52.6726639999999,9.845143999999989,7260
53.32066399999989,9.845143999999989,7312
53.32066399999989,9.197143999999987,7320
53.64466399999989,8.54914399999999,7370
53.32066399999989,8.54914399999999,7357
52.6726639999999,8.54914399999999,7323
52.0246639999999,10.493143999999988,7229
52.0246639999999,11.141143999999988,7210
51.700663999999904,11.141143999999988,7200
52.6726639999999,7.25314399999999,7494
52.996663999999896,7.25314399999999,7370
52.6726639999999,7.90114399999999,7327
53.64466399999989,7.90114399999999,7451
52.996663999999896,11.141143999999988,7301
52.6726639999999,11.141143999999988,7233
52.3486639999999,10.493143999999988,7244
52.996663999999896,9.845143999999989,7296
51.700663999999904,10.493143999999988,7205
51.37666399999991,10.493143999999988,7187
51.700663999999904,11.789143999999988,7214
52.3486639999999,11.141143999999988,7227
51.37666399999991,11.141143999999988,7184
51.05266399999991,11.789143999999988,7191
49.10866399999992,11.141143999999988,7284
48.78466399999992,11.141143999999988,7305
48.46066399999992,11.789143999999988,7327
49.43266399999992,11.789143999999988,7331
50.08066399999991,11.789143999999988,7262
49.75666399999992,12.437143999999988,7288
49.10866399999992,11.789143999999988,7338
48.78466399999992,12.437143999999988,7362
48.46066399999992,12.437143999999988,7349
49.10866399999992,12.437143999999988,7360
48.78466399999992,13.085143999999987,7353
48.136663999999925,12.437143999999988,7329
47.81266399999993,11.789143999999988,7334
48.136663999999925,10.493143999999988,7366
47.81266399999993,10.493143999999988,7399
48.78466399999992,10.493143999999988,7304
47.48866399999993,10.493143999999988,7383
48.46066399999992,10.493143999999988,7320
49.43266399999992,13.085143999999987,7538
48.46066399999992,13.085143999999987,7329
49.43266399999992,10.493143999999988,7274
49.75666399999992,9.845143999999989,7233
49.75666399999992,10.493143999999988,7264
50.40466399999991,11.141143999999988,7215
50.08066399999991,11.141143999999988,7251
50.72866399999991,11.141143999999988,7205
49.75666399999992,11.141143999999988,7259
48.78466399999992,11.789143999999988,7333
50.40466399999991,10.493143999999988,7205
50.08066399999991,9.845143999999989,7213
50.08066399999991,10.493143999999988,7237
49.43266399999992,12.437143999999988,7323
49.75666399999992,11.789143999999988,7290
49.10866399999992,13.085143999999987,7473
50.72866399999991,10.493143999999988,7200
49.10866399999992,10.493143999999988,7298
48.78466399999992,9.845143999999989,7276
48.46066399999992,8.54914399999999,7288
48.46066399999992,9.197143999999987,7285
48.78466399999992,9.197143999999987,7270
48.78466399999992,8.54914399999999,7264
50.08066399999991,7.25314399999999,7293
49.75666399999992,6.60514399999999,7311
49.43266399999992,6.60514399999999,7306
49.10866399999992,6.60514399999999,7291
49.43266399999992,7.25314399999999,7266
49.75666399999992,7.25314399999999,7263
49.10866399999992,5.957143999999991,7342
48.78466399999992,7.25314399999999,7297
50.08066399999991,6.60514399999999,7308
47.48866399999993,9.197143999999987,7348
48.136663999999925,8.54914399999999,7302
48.136663999999925,9.197143999999987,7305
47.81266399999993,7.25314399999999,7331
49.43266399999992,9.845143999999989,7244
49.10866399999992,9.845143999999989,7268
53.64466399999989,14.381143999999988,7210
50.08066399999991,13.085143999999987,7154
49.75666399999992,13.085143999999987,7175
45.86866399999994,9.197143999999987,7438
46.19266399999994,9.197143999999987,7424
46.516663999999935,8.54914399999999,7377
46.516663999999935,9.197143999999987,7419
46.19266399999994,8.54914399999999,7436
47.16466399999993,8.54914399999999,7344
45.86866399999994,4.661143999999991,7505
46.84066399999993,9.845143999999989,7362
45.22066399999994,5.957143999999991,7550
45.22066399999994,5.309143999999991,7581
45.86866399999994,5.957143999999991,7466
45.54466399999994,5.957143999999991,7505
44.89666399999994,4.661143999999991,7547
44.89666399999994,5.309143999999991,7564
44.572663999999946,4.661143999999991,7594
44.24866399999995,4.661143999999991,7622
43.92466399999995,4.661143999999991,7579
46.19266399999994,7.25314399999999,7386
48.78466399999992,5.957143999999991,7376
48.136663999999925,6.60514399999999,7394
48.46066399999992,6.60514399999999,7374
48.78466399999992,6.60514399999999,7371
47.16466399999993,7.90114399999999,7337
48.136663999999925,7.25314399999999,7318
48.46066399999992,7.25314399999999,7304
46.516663999999935,6.60514399999999,7396
46.84066399999993,6.60514399999999,7371
46.84066399999993,7.25314399999999,7351
46.516663999999935,5.957143999999991,7425
46.19266399999994,5.957143999999991,7427
46.84066399999993,8.54914399999999,7356
46.84066399999993,7.90114399999999,7345
45.86866399999994,5.309143999999991,7491
46.19266399999994,6.60514399999999,7428
45.86866399999994,6.60514399999999,7393
47.48866399999993,6.60514399999999,7376
47.48866399999993,7.25314399999999,7348
47.16466399999993,7.25314399999999,7342
49.10866399999992,4.013143999999992,7449
49.75666399999992,4.661143999999991,7384
49.43266399999992,4.661143999999991,7424
49.10866399999992,5.309143999999991,7438
46.19266399999994,4.661143999999991,7491
46.84066399999993,9.197143999999987,7370
46.19266399999994,5.309143999999991,7483
46.516663999999935,5.309143999999991,7439
45.54466399999994,6.60514399999999,7536
45.54466399999994,5.309143999999991,7534
43.60066399999995,4.013143999999992,7622
43.60066399999995,3.365143999999992,7662
42.62866399999996,2.717143999999992,7721
43.276663999999954,2.717143999999992,7679
45.54466399999994,4.661143999999991,7539
45.22066399999994,4.661143999999991,7553
47.16466399999993,5.309143999999991,7439
47.16466399999993,5.957143999999991,7416
46.19266399999994,7.90114399999999,7380
49.75666399999992,2.717143999999992,7433
49.10866399999992,2.717143999999992,7432
48.78466399999992,2.717143999999992,7447
45.86866399999994,3.365143999999992,7670
46.84066399999993,3.365143999999992,7552
46.516663999999935,3.365143999999992,7581
46.19266399999994,3.365143999999992,7615
47.16466399999993,6.60514399999999,7388
49.10866399999992,3.365143999999992,7462
45.54466399999994,4.013143999999992,7549
46.516663999999935,7.25314399999999,7391
47.16466399999993,4.661143999999991,7470
46.84066399999993,4.661143999999991,7497
46.516663999999935,4.661143999999991,7521
46.84066399999993,5.957143999999991,7413
47.81266399999993,3.365143999999992,7547
47.48866399999993,4.013143999999992,7505
48.136663999999925,4.013143999999992,7509
47.81266399999993,4.013143999999992,7515
47.48866399999993,4.661143999999991,7484
47.16466399999993,3.365143999999992,7587
46.84066399999993,4.013143999999992,7520
48.46066399999992,5.957143999999991,7385
46.19266399999994,2.717143999999992,7730
47.16466399999993,2.0691439999999925,7591
46.516663999999935,2.717143999999992,7702
46.84066399999993,2.717143999999992,7683
46.84066399999993,2.0691439999999925,7653
47.16466399999993,2.717143999999992,7602
44.572663999999946,5.309143999999991,7640
44.572663999999946,5.957143999999991,7608
44.89666399999994,6.60514399999999,7527
44.572663999999946,6.60514399999999,7624
43.60066399999995,5.309143999999991,7602
43.92466399999995,7.25314399999999,7714
43.60066399999995,6.60514399999999,7708
43.276663999999954,6.60514399999999,7724
43.276663999999954,5.957143999999991,7661
45.86866399999994,8.54914399999999,7445
45.54466399999994,8.54914399999999,7452
48.136663999999925,3.365143999999992,7529
48.46066399999992,3.365143999999992,7479
48.46066399999992,2.717143999999992,7474
47.48866399999993,5.309143999999991,7476
46.516663999999935,9.845143999999989,7373
46.84066399999993,10.493143999999988,8531
47.81266399999993,5.309143999999991,7577
45.22066399999994,6.60514399999999,7521
46.19266399999994,4.013143999999992,7514
45.86866399999994,4.013143999999992,7541
45.22066399999994,4.013143999999992,7620
44.89666399999994,4.013143999999992,7660
46.84066399999993,5.309143999999991,7461
48.136663999999925,-1.8188560000000056,7564
48.136663999999925,0.1251439999999934,7510
48.136663999999925,-0.5228560000000062,7541
47.48866399999993,-0.5228560000000062,7560
47.16466399999993,-1.8188560000000056,7579
47.48866399999993,0.7731439999999932,7505
47.16466399999993,0.1251439999999934,7576
45.86866399999994,7.25314399999999,7399
48.136663999999925,5.309143999999991,7561
49.10866399999992,4.661143999999991,7515
48.46066399999992,4.013143999999992,7490
48.136663999999925,4.661143999999991,7528
47.81266399999993,6.60514399999999,7393
47.48866399999993,5.957143999999991,7535
48.136663999999925,5.957143999999991,7646
45.86866399999994,7.90114399999999,7400
46.516663999999935,7.90114399999999,7369
49.43266399999992,3.365143999999992,7479
49.43266399999992,4.013143999999992,7460
48.136663999999925,2.717143999999992,7630
47.81266399999993,2.717143999999992,7641
47.48866399999993,2.717143999999992,7619
50.40466399999991,2.717143999999992,7362
48.46066399999992,-4.410856000000004,7715
48.46066399999992,-3.7628560000000046,7679
48.46066399999992,-3.114856000000005,7650
48.46066399999992,-2.4668560000000053,7633
47.48866399999993,1.4211439999999929,7533
47.16466399999993,1.4211439999999929,7570
46.516663999999935,4.013143999999992,7525
43.60066399999995,4.661143999999991,7614
44.89666399999994,2.717143999999992,7857
45.22066399999994,2.717143999999992,7828
45.54466399999994,3.365143999999992,7719
45.22066399999994,3.365143999999992,7715
47.48866399999993,3.365143999999992,7726
46.19266399999994,9.845143999999989,7534
47.81266399999993,2.0691439999999925,7565
47.48866399999993,2.0691439999999925,7597
45.86866399999994,2.717143999999992,7694
44.89666399999994,5.957143999999991,7710
45.22066399999994,1.4211439999999929,7766
44.89666399999994,1.4211439999999929,7790
44.89666399999994,2.0691439999999925,7940
43.276663999999954,2.0691439999999925,7711
43.60066399999995,1.4211439999999929,7717
48.78466399999992,4.661143999999991,7550
48.78466399999992,5.309143999999991,7392
46.19266399999994,2.0691439999999925,7820
45.86866399999994,1.4211439999999929,7728
46.19266399999994,1.4211439999999929,7766
44.572663999999946,4.013143999999992,7855
44.89666399999994,3.365143999999992,7751
43.92466399999995,4.013143999999992,7652
44.24866399999995,4.013143999999992,7669
44.89666399999994,-0.5228560000000062,7574
45.54466399999994,0.1251439999999934,7594
46.516663999999935,0.1251439999999934,7551
44.572663999999946,2.0691439999999925,7817
49.75666399999992,4.013143999999992,7452
43.92466399999995,3.365143999999992,7881
43.92466399999995,2.717143999999992,7912
44.24866399999995,3.365143999999992,7936
44.572663999999946,3.365143999999992,7977
49.10866399999992,0.1251439999999934,7551
49.43266399999992,0.7731439999999932,7544
49.43266399999992,-1.8188560000000056,7676
49.10866399999992,-1.170856000000006,7651
49.10866399999992,-0.5228560000000062,7566
49.10866399999992,0.7731439999999932,7558
49.10866399999992,1.4211439999999929,7488
47.81266399999993,-1.8188560000000056,7710
47.81266399999993,-2.4668560000000053,7647
47.81266399999993,-3.114856000000005,7660
48.136663999999925,-3.7628560000000046,7717
44.572663999999946,9.197143999999987,7556
44.89666399999994,8.54914399999999,7502
45.22066399999994,9.197143999999987,7459
45.54466399999994,10.493143999999988,7507
44.572663999999946,10.493143999999988,7558
44.89666399999994,10.493143999999988,7544
44.89666399999994,9.845143999999989,7512
48.46066399999992,5.309143999999991,7597
50.91599999999999,-1.0580000000000025,65535
51.23999999999999,-0.4100000000000028,65535
50.91599999999999,-0.4100000000000028,65535
51.23999999999999,-2.354000000000002,65535
51.56399999999999,-2.354000000000002,65535
51.56399999999999,-3.0020000000000016,65535
50.91599999999999,-2.354000000000002,65535
53.50799999999997,-3.0020000000000016,65535
53.183999999999976,-2.354000000000002,65535
53.183999999999976,-3.0020000000000016,65535
52.85999999999998,-2.354000000000002,65535
52.21199999999998,-1.0580000000000025,65535
51.887999999999984,-1.0580000000000025,65535
52.53599999999998,-1.0580000000000025,65535
52.53599999999998,-1.7060000000000022,65535
52.85999999999998,-1.7060000000000022,65535
53.50799999999997,-2.354000000000002,65535
52.85999999999998,-1.0580000000000025,65535
52.53599999999998,1.5339999999999965,65535
52.53599999999998,0.8859999999999966,65535
52.53599999999998,0.2379999999999968,65535
52.53599999999998,-0.4100000000000028,65535
53.50799999999997,-1.7060000000000022,65535
53.183999999999976,-1.7060000000000022,65535
53.183999999999976,-1.0580000000000025,65535
52.85999999999998,-0.4100000000000028,65535
51.887999999999984,-2.354000000000002,65535
52.21199999999998,-2.354000000000002,65535
55.77599999999996,-2.354000000000002,65535
53.83199999999997,-1.0580000000000025,65535
53.83199999999997,-1.7060000000000022,65535
55.127999999999965,-1.7060000000000022,65535
54.80399999999997,-1.7060000000000022,65535
54.47999999999997,-1.7060000000000022,65535
54.15599999999997,-1.0580000000000025,65535
52.21199999999998,-1.7060000000000022,65535
53.50799999999997,-1.0580000000000025,65535
55.77599999999996,-3.0020000000000016,65535
55.45199999999996,-1.7060000000000022,65535
57.07199999999995,-2.354000000000002,65535
56.74799999999996,-3.0020000000000016,65535
56.42399999999996,-3.0020000000000016,65535
56.09999999999996,-3.650000000000001,65535
50.91599999999999,-3.0020000000000016,65535
50.91599999999999,-3.650000000000001,65535
50.59199999999999,-3.650000000000001,65535
50.59199999999999,-4.298000000000001,65535
51.23999999999999,-3.0020000000000016,65535
50.268,-4.946000000000001,65535
55.77599999999996,-3.650000000000001,65535
55.77599999999996,-4.298000000000001,65535
52.21199999999998,-0.4100000000000028,65535
52.53599999999998,-2.354000000000002,65535
51.56399999999999,-1.7060000000000022,65535
51.56399999999999,-3.650000000000001,65535
51.887999999999984,-4.298000000000001,65535
51.56399999999999,-4.298000000000001,65535
51.887999999999984,-1.7060000000000022,65535
52.21199999999998,-3.0020000000000016,65535
51.23999999999999,0.2379999999999968,65535
50.91599999999999,0.2379999999999968,65535
52.21199999999998,0.2379999999999968,65535
53.83199999999997,-3.0020000000000016,65535
54.15599999999997,-3.0020000000000016,65535
54.47999999999997,-3.0020000000000016,65535
55.127999999999965,-3.650000000000001,65535
54.80399999999997,-3.0020000000000016,65535
53.83199999999997,-2.354000000000002,65535
54.15599999999997,-0.4100000000000028,65535
54.47999999999997,-1.0580000000000025,65535
53.83199999999997,-0.4100000000000028,65535
53.183999999999976,-3.650000000000001,65535
53.183999999999976,-4.298000000000001,65535
52.85999999999998,-3.0020000000000016,65535
52.53599999999998,-3.0020000000000016,65535
51.887999999999984,-3.0020000000000016,65535
51.23999999999999,0.8859999999999966,65535
51.887999999999984,0.2379999999999968,65535
52.21199999999998,0.8859999999999966,65535
51.887999999999984,-4.946000000000001,65535
52.53599999999998,-3.650000000000001,65535
52.21199999999998,-4.298000000000001,65535
53.183999999999976,-0.4100000000000028,65535
51.23999999999999,-3.650000000000001,65535
51.887999999999984,-3.650000000000001,65535
52.21199999999998,-3.650000000000001,65535
51.56399999999999,0.8859999999999966,65535
51.887999999999984,0.8859999999999966,65535
52.85999999999998,0.8859999999999966,65535
53.50799999999997,-0.4100000000000028,65535
56.09999999999996,-4.298000000000001,65535
56.74799999999996,-4.946000000000001,65535
56.74799999999996,-4.298000000000001,65535
56.42399999999996,-4.946000000000001,65535
56.42399999999996,-4.298000000000001,65535
56.09999999999996,-4.946000000000001,65535
57.39599999999995,-4.298000000000001,65535
57.39599999999995,-3.0020000000000016,65535
57.39599999999995,-3.650000000000001,65535
56.42399999999996,-3.650000000000001,65535
57.07199999999995,-3.650000000000001,65535
57.07199999999995,-4.298000000000001,65535
56.74799999999996,-3.650000000000001,65535
59.15266399999986,27.34114399999998,65535
59.47666399999986,26.69314399999997,65535
59.47666399999986,26.04514399999998,65535
59.15266399999986,26.04514399999998,65535
59.15266399999986,24.74914399999998,65535
59.15266399999986,25.397143999999983,65535
59.47666399999986,25.397143999999983,65535
58.50466399999986,26.69314399999997,65535
58.82866399999986,26.69314399999997,65535
57.85666399999987,26.04514399999998,65535
58.180663999999865,26.04514399999998,65535
58.180663999999865,26.69314399999997,65535
58.82866399999986,26.04514399999998,65535
58.50466399999986,25.397143999999983,65535
58.82866399999986,25.397143999999983,65535
58.82866399999986,24.74914399999998,65535
58.180663999999865,27.34114399999998,65535
57.85666399999987,27.34114399999998,65535
63.68866399999983,27.34114399999998,65535
60.124663999999854,24.74914399999998,65535
60.44866399999985,24.74914399999998,65535
60.44866399999985,25.397143999999983,65535
60.77266399999985,25.397143999999983,65535
61.09666399999985,26.04514399999998,65535
60.77266399999985,26.04514399999998,65535
60.77266399999985,26.69314399999997,65535
61.09666399999985,25.397143999999983,65535
61.09666399999985,26.69314399999997,65535
61.420663999999846,26.69314399999997,65535
61.74466399999984,27.34114399999998,65535
62.06866399999984,27.34114399999998,65535
62.39266399999984,27.34114399999998,65535
62.71666399999984,27.34114399999998,65535
64.01266399999983,27.34114399999998,65535
63.36466399999984,27.34114399999998,65535
63.04066399999984,27.34114399999998,65535
63.04066399999984,27.989143999999985,65535
64.33666399999983,27.989143999999985,65535
64.33666399999983,27.34114399999998,65535
64.66066399999983,27.34114399999998,65535
64.66066399999983,26.69314399999997,9556
64.98466399999982,25.397143999999983,9319
64.66066399999983,26.04514399999998,9536
64.98466399999982,26.04514399999998,9520
66.28066399999982,25.397143999999983,65535
65.95666399999982,24.74914399999998,9232
65.63266399999982,24.74914399999998,9236
65.63266399999982,25.397143999999983,9278
65.30866399999982,25.397143999999983,9299
66.60466399999981,25.397143999999983,65535
64.01266399999983,24.74914399999998,9456
64.01266399999983,24.101143999999977,9491
64.01266399999983,23.45314399999998,9515
63.68866399999983,23.45314399999998,9527
63.68866399999983,22.805143999999984,9552
63.68866399999983,26.04514399999998,65535
63.68866399999983,25.397143999999983,65535
63.68866399999983,26.69314399999997,65535
60.44866399999985,26.69314399999997,65535
64.01266399999983,27.989143999999985,65535
62.71666399999984,22.805143999999984,65535
62.39266399999984,22.805143999999984,65535
62.06866399999984,22.805143999999984,65535
62.06866399999984,23.45314399999998,65535
61.74466399999984,23.45314399999998,65535
61.420663999999846,23.45314399999998,65535
61.09666399999985,23.45314399999998,65535
61.09666399999985,24.101143999999977,65535
61.09666399999985,24.74914399999998,65535
60.77266399999985,24.74914399999998,65535
63.04066399999984,21.50914399999997,65535
63.04066399999984,22.15714399999998,65535
63.04066399999984,22.805143999999984,65535
62.39266399999984,26.04514399999998,65535
62.06866399999984,25.397143999999983,65535
61.74466399999984,25.397143999999983,65535
61.74466399999984,24.74914399999998,65535
61.74466399999984,24.101143999999977,65535
61.420663999999846,24.101143999999977,65535
62.39266399999984,26.69314399999997,65535
64.66066399999983,25.397143999999983,9388
64.66066399999983,24.74914399999998,9406
64.33666399999983,24.74914399999998,9417
63.36466399999984,22.805143999999984,9577
67.25266399999981,24.101143999999977,65535
66.92866399999981,24.101143999999977,65535
66.60466399999981,23.45314399999998,65535
66.28066399999982,23.45314399999998,65535
66.28066399999982,24.101143999999977,65535
65.95666399999982,24.101143999999977,8604
60.124663999999854,24.101143999999977,65535
60.124663999999854,23.45314399999998,65535
60.44866399999985,22.805143999999984,65535
60.77266399999985,27.34114399999998,65535
61.09666399999985,27.989143999999985,65535
61.09666399999985,28.63714399999997,65535
61.420663999999846,29.28514399999997,65535
61.74466399999984,29.933143999999977,65535
62.06866399999984,29.933143999999977,65535
62.39266399999984,29.933143999999977,65535
62.71666399999984,29.933143999999977,65535
61.420663999999846,22.805143999999984,65535
61.420663999999846,22.15714399999998,65535
61.09666399999985,22.15714399999998,65535
61.420663999999846,21.50914399999997,65535
62.39266399999984,27.989143999999985,65535
62.06866399999984,27.989143999999985,65535
61.420663999999846,27.34114399999998,65535
63.04066399999984,29.933143999999977,65535
63.68866399999983,29.28514399999997,65535
63.36466399999984,29.28514399999997,65535
63.36466399999984,29.933143999999977,65535
60.44866399999985,27.34114399999998,65535
61.74466399999984,29.28514399999997,65535
62.39266399999984,30.58114399999998,65535
62.71666399999984,31.229143999999977,65535
62.71666399999984,29.28514399999997,65535
63.04066399999984,28.63714399999997,65535
66.60466399999981,26.04514399999998,65535
66.60466399999981,26.69314399999997,65535
66.60466399999981,27.34114399999998,65535
62.71666399999984,26.04514399999998,65535
62.71666399999984,25.397143999999983,65535
63.04066399999984,25.397143999999983,65535
63.36466399999984,25.397143999999983,65535
62.71666399999984,23.45314399999998,65535
62.39266399999984,24.101143999999977,65535
62.71666399999984,22.15714399999998,65535
62.39266399999984,22.15714399999998,65535
62.39266399999984,21.50914399999997,65535
61.09666399999985,21.50914399999997,65535
60.77266399999985,22.805143999999984,65535
60.44866399999985,22.15714399999998,65535
60.77266399999985,23.45314399999998,65535
60.77266399999985,21.50914399999997,65535
60.77266399999985,22.15714399999998,65535
60.124663999999854,22.805143999999984,65535
60.44866399999985,24.101143999999977,65535
62.06866399999984,24.74914399999998,65535
50.72866399999991,16.325143999999987,7047
50.40466399999991,16.973143999999984,7081
50.72866399999991,16.973143999999984,7017
50.40466399999991,16.325143999999987,7088
50.08066399999991,16.973143999999984,7164
50.08066399999991,16.325143999999987,7161
51.700663999999904,16.973143999999984,7092
51.37666399999991,16.973143999999984,7039
51.05266399999991,15.677143999999986,7159
50.72866399999991,15.677143999999986,7097
51.05266399999991,17.621143999999987,6981
51.37666399999991,17.621143999999987,7058
51.700663999999904,17.621143999999987,7062
51.700663999999904,16.325143999999987,7099
52.0246639999999,22.15714399999998,6295
52.0246639999999,21.50914399999997,6304
52.3486639999999,21.50914399999997,6324
52.0246639999999,20.86114399999998,6324
51.700663999999904,20.86114399999998,6345
51.37666399999991,21.50914399999997,6384
51.37666399999991,20.86114399999998,6379
51.05266399999991,20.86114399999998,6388
52.6726639999999,23.45314399999998,6141
52.3486639999999,22.805143999999984,6235
52.3486639999999,20.213143999999986,6369
52.0246639999999,20.213143999999986,6338
52.3486639999999,19.565143999999982,6461
52.6726639999999,19.565143999999982,6422
51.700663999999904,21.50914399999997,6357
51.700663999999904,22.15714399999998,6391
52.6726639999999,21.50914399999997,6342
52.996663999999896,21.50914399999997,6390
52.6726639999999,20.86114399999998,6324
52.6726639999999,22.15714399999998,6358
52.6726639999999,20.213143999999986,6362
52.996663999999896,19.565143999999982,6433
52.996663999999896,20.86114399999998,6357
52.996663999999896,20.213143999999986,6363
53.32066399999989,20.213143999999986,6403
51.37666399999991,20.213143999999986,6458
52.3486639999999,16.973143999999984,6995
52.0246639999999,16.973143999999984,7075
52.0246639999999,16.325143999999987,7089
52.0246639999999,17.621143999999987,7056
52.6726639999999,16.973143999999984,7031
52.996663999999896,16.973143999999984,7083
52.3486639999999,16.325143999999987,7055
52.3486639999999,15.677143999999986,7096
51.700663999999904,18.269143999999983,7090
52.6726639999999,17.621143999999987,7011
52.3486639999999,17.621143999999987,6988
52.6726639999999,18.269143999999983,6685
52.3486639999999,18.269143999999983,6949
52.3486639999999,18.917143999999983,6567
52.996663999999896,17.621143999999987,7073
51.700663999999904,19.565143999999982,6570
51.700663999999904,18.917143999999983,7053
51.37666399999991,18.269143999999983,7107
58.82866399999986,9.197143999999987,7825
58.180663999999865,7.90114399999999,7913
58.50466399999986,8.54914399999999,7869
63.36466399999984,10.493143999999988,8206
63.36466399999984,11.141143999999988,8503
63.36466399999984,11.789143999999988,8673
63.68866399999983,11.789143999999988,8571
64.33666399999983,12.437143999999988,8784
64.66066399999983,12.437143999999988,8833
65.63266399999982,13.085143999999987,8928
65.95666399999982,13.085143999999987,8957
66.28066399999982,14.381143999999988,9028
65.95666399999982,13.733143999999989,8985
66.28066399999982,13.733143999999989,9007
65.30866399999982,13.085143999999987,8893
64.98466399999982,13.085143999999987,8871
64.01266399999983,11.789143999999988,8602
63.68866399999983,11.141143999999988,8538
59.800663999999855,10.493143999999988,7750
59.800663999999855,11.141143999999988,7752
60.124663999999854,11.141143999999988,7767
60.44866399999985,11.141143999999988,7779
60.124663999999854,11.789143999999988,7809
60.77266399999985,7.25314399999999,7997
60.77266399999985,6.60514399999999,8046
59.15266399999986,9.197143999999987,7810
59.47666399999986,9.197143999999987,7831
59.800663999999855,9.845143999999989,7768
59.47666399999986,11.141143999999988,7734
61.09666399999985,10.493143999999988,7841
60.77266399999985,10.493143999999988,7815
60.77266399999985,11.141143999999988,7798
62.06866399999984,9.197143999999987,8059
61.74466399999984,9.845143999999989,7997
61.420663999999846,9.845143999999989,7980
59.15266399999986,9.845143999999989,7790
59.47666399999986,9.845143999999989,7766
58.82866399999986,5.957143999999991,8085
58.180663999999865,7.25314399999999,7960
58.50466399999986,7.25314399999999,7994
58.50466399999986,6.60514399999999,7999
58.50466399999986,5.957143999999991,8055
58.82866399999986,8.54914399999999,7855
60.44866399999985,7.25314399999999,7971
60.44866399999985,7.90114399999999,7928
60.124663999999854,10.493143999999988,7754
60.44866399999985,9.197143999999987,7841
60.77266399999985,9.197143999999987,7882
60.77266399999985,8.54914399999999,7908
60.124663999999854,9.845143999999989,7997
60.44866399999985,10.493143999999988,7795
63.04066399999984,10.493143999999988,8170
62.06866399999984,9.845143999999989,8084
62.39266399999984,9.845143999999989,8092
62.71666399999984,9.845143999999989,8116
59.47666399999986,14.381143999999988,7798
59.47666399999986,13.733143999999989,7786
59.47666399999986,13.085143999999987,7757
59.800663999999855,12.437143999999988,7792
59.15266399999986,11.141143999999988,7689
59.15266399999986,14.381143999999988,7774
58.82866399999986,11.789143999999988,7647
58.50466399999986,12.437143999999988,7605
58.180663999999865,12.437143999999988,7598
57.85666399999987,11.789143999999988,7570
62.71666399999984,7.90114399999999,8968
62.39266399999984,7.90114399999999,8925
62.06866399999984,8.54914399999999,8900
60.44866399999985,5.309143999999991,8186
60.44866399999985,5.957143999999991,8509
60.77266399999985,5.957143999999991,8483
62.39266399999984,11.141143999999988,7993
62.06866399999984,10.493143999999988,7950
61.74466399999984,11.141143999999988,7923
61.420663999999846,11.141143999999988,7876
61.09666399999985,11.141143999999988,7856
60.77266399999985,11.789143999999988,7833
63.04066399999984,11.141143999999988,8508
62.71666399999984,11.141143999999988,8017
62.39266399999984,10.493143999999988,7977
67.25266399999981,15.677143999999986,9143
67.25266399999981,15.029143999999986,9188
67.25266399999981,14.381143999999988,9216
66.92866399999981,15.029143999999986,9133
66.60466399999981,15.677143999999986,9111
64.01266399999983,11.141143999999988,8586
66.60466399999981,15.029143999999986,9273
54.29266399999989,18.269143999999983,6522
54.616663999999886,17.621143999999987,6550
53.96866399999989,18.269143999999983,6546
43.92466399999995,1.4211439999999929,7689
44.24866399999995,0.7731439999999932,7651
44.572663999999946,0.1251439999999934,7688
46.84066399999993,1.4211439999999929,7726
44.572663999999946,1.4211439999999929,7784
44.24866399999995,1.4211439999999929,7758
45.54466399999994,1.4211439999999929,7713
46.516663999999935,1.4211439999999929,7751
42.30466399999996,2.717143999999992,7771
44.24866399999995,2.717143999999992,7895
44.572663999999946,2.717143999999992,7880
43.92466399999995,2.0691439999999925,7756
42.30466399999996,2.0691439999999925,7827
42.62866399999996,2.0691439999999925,7803
42.62866399999996,1.4211439999999929,7825
42.95266399999996,1.4211439999999929,7760
43.276663999999954,1.4211439999999929,7747
46.516663999999935,-1.170856000000006,7705
46.19266399999994,-1.170856000000006,7643
45.86866399999994,-0.5228560000000062,7646
45.54466399999994,-0.5228560000000062,7663
48.46066399999992,1.4211439999999929,7429
41.332663999999966,2.0691439999999925,7892
41.98066399999996,2.717143999999992,7851
48.46066399999992,-1.8188560000000056,7614
47.81266399999993,0.7731439999999932,7513
46.84066399999993,0.7731439999999932,7578
44.572663999999946,-1.170856000000006,7585
43.60066399999995,-1.170856000000006,7648
43.276663999999954,-1.8188560000000056,7695
43.276663999999954,0.1251439999999934,7854
42.95266399999996,0.1251439999999934,7819
43.276663999999954,-0.5228560000000062,7720
43.60066399999995,-0.5228560000000062,7709
47.81266399999993,-3.7628560000000046,7696
47.48866399999993,-2.4668560000000053,7655
47.81266399999993,-0.5228560000000062,7609
46.516663999999935,-1.8188560000000056,7721
48.136663999999925,-1.170856000000006,7636
47.48866399999993,-1.170856000000006,7603
45.22066399999994,8.54914399999999,7474
45.22066399999994,7.90114399999999,7482
46.19266399999994,-0.5228560000000062,7597
46.516663999999935,-0.5228560000000062,7674
48.78466399999992,-3.114856000000005,7666
50.72866399999991,2.0691439999999925,7500
50.40466399999991,2.0691439999999925,7529
40.36066399999997,-3.7628560000000046,9105
41.65666399999997,-1.170856000000006,8846
41.332663999999966,1.4211439999999929,8672
43.276663999999954,13.733143999999989,65535
42.95266399999996,13.733143999999989,65535
41.65666399999997,15.029143999999986,65535
40.68466399999997,17.621143999999987,65535
43.60066399999995,13.085143999999987,65535
41.65666399999997,12.437143999999988,8809
41.65666399999997,13.085143999999987,8828
41.98066399999996,13.085143999999987,8878
41.65666399999997,13.733143999999989,8880
41.332663999999966,13.733143999999989,8872
41.332663999999966,14.381143999999988,9029
41.00866399999997,14.381143999999988,8935
41.332663999999966,13.085143999999987,8854
41.00866399999997,15.029143999999986,9135
41.98066399999996,13.733143999999989,9077
42.30466399999996,14.381143999999988,9216
42.30466399999996,12.437143999999988,8817
42.62866399999996,12.437143999999988,8996
42.95266399999996,12.437143999999988,9281
42.30466399999996,11.789143999999988,8826
42.95266399999996,11.789143999999988,9036
42.62866399999996,11.789143999999988,9027
43.276663999999954,11.789143999999988,9090
42.95266399999996,13.085143999999987,65535
42.30466399999996,13.085143999999987,9103
43.276663999999954,13.085143999999987,65535
43.276663999999954,12.437143999999988,65535
42.62866399999996,11.141143999999988,8872
42.95266399999996,11.141143999999988,8915
42.95266399999996,10.493143999999988,8933
44.572663999999946,8.54914399999999,7550
44.89666399999994,7.90114399999999,7494
44.89666399999994,9.197143999999987,7512
44.24866399999995,7.90114399999999,7560
44.572663999999946,7.90114399999999,7520
43.92466399999995,7.90114399999999,7741
44.24866399999995,7.25314399999999,7549
44.89666399999994,7.25314399999999,7518
45.22066399999994,7.25314399999999,7498
45.54466399999994,7.90114399999999,7478
44.572663999999946,7.25314399999999,7702
52.996663999999896,22.805143999999984,6110
52.996663999999896,23.45314399999998,6062
51.37666399999991,22.15714399999998,6971
51.37666399999991,22.805143999999984,7025
50.08066399999991,20.213143999999986,6583
50.72866399999991,20.213143999999986,6486
50.40466399999991,20.213143999999986,6554
50.08066399999991,20.86114399999998,6689
50.08066399999991,21.50914399999997,7048
50.08066399999991,22.15714399999998,7057
50.08066399999991,22.805143999999984,7070
53.96866399999989,22.805143999999984,5917
53.64466399999989,23.45314399999998,5992
53.32066399999989,23.45314399999998,6025
50.40466399999991,19.565143999999982,6642
50.08066399999991,18.917143999999983,6655
50.08066399999991,18.269143999999983,6765
52.0246639999999,22.805143999999984,6345
52.0246639999999,23.45314399999998,6384
51.37666399999991,19.565143999999982,6613
51.05266399999991,19.565143999999982,6575
50.72866399999991,18.917143999999983,6540
50.72866399999991,19.565143999999982,6495
49.75666399999992,18.917143999999983,7015
50.40466399999991,18.269143999999983,6621
53.64466399999989,19.565143999999982,6462
53.96866399999989,18.917143999999983,6484
53.64466399999989,18.917143999999983,6478
53.64466399999989,20.213143999999986,6427
52.996663999999896,18.917143999999983,6540
52.996663999999896,18.269143999999983,6592
53.32066399999989,18.917143999999983,6510
50.72866399999991,17.621143999999987,6607
50.72866399999991,18.269143999999983,6577
52.6726639999999,16.325143999999987,7135
52.996663999999896,16.325143999999987,7138
52.996663999999896,15.677143999999986,7135
53.32066399999989,15.677143999999986,7242
53.32066399999989,15.029143999999986,7160
53.64466399999989,15.029143999999986,7146
53.96866399999989,15.029143999999986,7132
52.6726639999999,18.917143999999983,6588
53.32066399999989,16.325143999999987,7188
52.6726639999999,15.029143999999986,7140
51.05266399999991,22.805143999999984,7056
51.05266399999991,23.45314399999998,7083
50.72866399999991,22.15714399999998,7127
50.40466399999991,22.15714399999998,7080
51.05266399999991,22.15714399999998,7022
54.616663999999886,16.973143999999984,6592
54.29266399999989,16.325143999999987,7049
53.96866399999989,15.677143999999986,7090
50.72866399999991,21.50914399999997,7136
50.40466399999991,21.50914399999997,7088
50.40466399999991,17.621143999999987,7095
53.32066399999989,22.805143999999984,6162
53.64466399999989,22.15714399999998,6233
54.29266399999989,16.973143999999984,7029
50.72866399999991,20.86114399999998,6491
51.700663999999904,22.805143999999984,7240
51.05266399999991,21.50914399999997,6415
50.08066399999991,19.565143999999982,6622
52.0246639999999,18.917143999999983,8488
52.0246639999999,19.565143999999982,8481
53.64466399999989,18.269143999999983,6618
51.700663999999904,20.213143999999986,6548
53.32066399999989,19.565143999999982,6498
50.72866399999991,23.45314399999998,7435
50.72866399999991,22.805143999999984,7404
49.43266399999992,20.213143999999986,7038
49.75666399999992,21.50914399999997,7078
49.75666399999992,22.15714399999998,7591
49.43266399999992,22.15714399999998,7353
51.05266399999991,18.917143999999983,7173
51.05266399999991,18.269143999999983,6587
53.32066399999989,16.973143999999984,7114
53.64466399999989,16.973143999999984,7048
49.75666399999992,20.86114399999998,7016
50.40466399999991,22.805143999999984,8570
53.64466399999989,16.325143999999987,7102
53.96866399999989,20.86114399999998,6549
54.29266399999989,20.86114399999998,6595
53.96866399999989,21.50914399999997,6584
53.64466399999989,15.677143999999986,7117
53.96866399999989,20.213143999999986,6456
53.96866399999989,19.565143999999982,6507
54.29266399999989,19.565143999999982,6551
53.96866399999989,16.325143999999987,7081
53.64466399999989,17.621143999999987,6624
53.96866399999989,22.15714399999998,6279
53.64466399999989,21.50914399999997,6366
53.64466399999989,20.86114399999998,6409
52.6726639999999,15.677143999999986,7118
51.05266399999991,20.213143999999986,6635
54.940663999999884,24.101143999999977,0
54.616663999999886,23.45314399999998,4420
54.29266399999989,23.45314399999998,4473
53.64466399999989,22.805143999999984,6222
53.96866399999989,16.973143999999984,7233
50.40466399999991,20.86114399999998,7066
53.32066399999989,18.269143999999983,6989
49.75666399999992,19.565143999999982,6656
50.40466399999991,23.45314399999998,7756
49.75666399999992,20.213143999999986,7042
49.43266399999992,19.565143999999982,7017
49.43266399999992,20.86114399999998,7054
53.96866399999989,17.621143999999987,7083
42.30466399999996,-1.8188560000000056,8910
41.98066399999996,-1.8188560000000056,8898
41.65666399999997,0.7731439999999932,8786
42.62866399999996,-1.8188560000000056,8935
42.95266399999996,-1.8188560000000056,8962
42.62866399999996,-3.114856000000005,9037
42.95266399999996,-2.4668560000000053,9015
42.62866399999996,-7.650856000000003,9379
42.30466399999996,-7.650856000000003,9439
42.30466399999996,-8.946856000000002,9575
42.30466399999996,-8.298856000000002,9549
41.98066399999996,-8.298856000000002,9538
42.30466399999996,-7.002856000000003,9321
42.62866399999996,-6.354856000000003,9263
42.30466399999996,-6.354856000000003,9218
42.62866399999996,-5.706856000000004,9184
41.98066399999996,-4.410856000000004,9138
42.30466399999996,-3.7628560000000046,9102
40.03666399999997,-0.5228560000000062,8766
39.38866399999998,-0.5228560000000062,8814
41.00866399999997,0.7731439999999932,8914
40.68466399999997,0.7731439999999932,8946
40.36066399999997,0.1251439999999934,9024
39.712663999999975,-0.5228560000000062,8923
38.41666399999998,-0.5228560000000062,8935
39.06466399999998,-0.5228560000000062,9057
38.74066399999998,-1.170856000000006,9077
41.332663999999966,0.7731439999999932,8974
41.65666399999997,2.717143999999992,8574
41.65666399999997,2.0691439999999925,8597
41.332663999999966,0.1251439999999934,8932
41.332663999999966,-0.5228560000000062,8876
41.65666399999997,-4.410856000000004,9280
40.03666399999997,-2.4668560000000053,9096
41.00866399999997,-4.410856000000004,9211
43.276663999999954,-5.706856000000004,9463
39.38866399999998,-1.170856000000006,8909
38.09266399999999,-1.170856000000006,9322
38.74066399999998,-0.5228560000000062,9085
37.76866399999999,-1.170856000000006,9387
39.06466399999998,-1.8188560000000056,9185
39.38866399999998,-3.114856000000005,9264
39.38866399999998,-2.4668560000000053,9291
39.06466399999998,-2.4668560000000053,9295
39.06466399999998,-3.114856000000005,9376
39.06466399999998,-3.7628560000000046,9390
38.74066399999998,-3.7628560000000046,9403
40.03666399999997,-3.7628560000000046,9158
40.03666399999997,-3.114856000000005,9214
40.03666399999997,-1.8188560000000056,9044
39.712663999999975,-1.8188560000000056,9009
39.712663999999975,-1.170856000000006,8945
40.36066399999997,-1.170856000000006,9050
40.68466399999997,-1.170856000000006,9070
41.00866399999997,-1.170856000000006,9095
41.332663999999966,-1.170856000000006,9144
43.276663999999954,-8.298856000000002,9539
42.95266399999996,-8.298856000000002,9507
41.65666399999997,-5.706856000000004,65535
41.98066399999996,-7.002856000000003,65535
41.98066399999996,-6.354856000000003,65535
41.332663999999966,-5.058856000000004,9399
43.276663999999954,-3.7628560000000046,9320
42.95266399999996,-4.410856000000004,9254
42.62866399999996,-4.410856000000004,9244
42.30466399999996,-4.410856000000004,9203
41.00866399999997,-5.706856000000004,65535
41.332663999999966,-1.8188560000000056,9200
40.68466399999997,-3.114856000000005,9370
41.00866399999997,-3.114856000000005,9424
41.00866399999997,-2.4668560000000053,9450
41.332663999999966,-2.4668560000000053,65535
40.68466399999997,-4.410856000000004,9190
40.36066399999997,-4.410856000000004,9517
40.68466399999997,-3.7628560000000046,9132
40.36066399999997,-3.114856000000005,9358
41.65666399999997,-2.4668560000000053,65535
38.09266399999999,-3.7628560000000046,65535
38.74066399999998,-3.114856000000005,65535
37.76866399999999,-3.7628560000000046,65535
39.712663999999975,-3.114856000000005,9247
38.41666399999998,-3.7628560000000046,65535
40.03666399999997,-4.410856000000004,65535
40.03666399999997,-5.058856000000004,65535
39.38866399999998,-6.354856000000003,65535
39.38866399999998,-7.002856000000003,65535
42.95266399999996,-3.114856000000005,9448
41.98066399999996,-1.170856000000006,9204
42.30466399999996,-2.4668560000000053,9552
41.65666399999997,-0.5228560000000062,65535
41.98066399999996,-0.5228560000000062,9154
41.65666399999997,0.1251439999999934,9139
41.98066399999996,0.1251439999999934,9107
37.76866399999999,-5.058856000000004,9492
36.79666399999999,-4.410856000000004,9554
38.74066399999998,-4.410856000000004,65535
37.12066399999999,-4.410856000000004,9528
37.44466399999999,-5.058856000000004,9515
37.44466399999999,-7.002856000000003,65535
37.44466399999999,-6.354856000000003,65535
37.44466399999999,-5.706856000000004,9429
39.712663999999975,-3.7628560000000046,65535
42.62866399999996,-8.946856000000002,65535
42.30466399999996,-5.706856000000004,9225
42.30466399999996,-5.058856000000004,9310
42.95266399999996,-5.706856000000004,65535
41.00866399999997,-5.058856000000004,65535
40.68466399999997,-5.058856000000004,65535
41.65666399999997,-5.058856000000004,65535
41.65666399999997,-6.354856000000003,65535
36.79666399999999,-6.354856000000003,65535
37.12066399999999,-5.706856000000004,65535
37.76866399999999,-5.706856000000004,65535
38.09266399999999,-4.410856000000004,65535
37.12066399999999,-5.058856000000004,65535
36.79666399999999,-5.058856000000004,65535
37.76866399999999,-4.410856000000004,65535
37.76866399999999,-7.002856000000003,65535
38.41666399999998,-6.354856000000003,65535
38.09266399999999,-6.354856000000003,65535
48.78466399999992,1.4211439999999929,7561
56.23666399999988,8.54914399999999,7480
55.58866399999988,9.197143999999987,7411
55.91266399999988,9.197143999999987,7512
55.26466399999988,10.493143999999988,7417
55.91266399999988,12.437143999999988,7441
55.58866399999988,11.789143999999988,7437
55.58866399999988,11.141143999999988,7431
55.26466399999988,11.789143999999988,7445
55.58866399999988,10.493143999999988,7414
55.58866399999988,13.085143999999987,7449
56.88466399999987,9.845143999999989,7462
57.20866399999987,9.845143999999989,7473
56.56066399999988,9.845143999999989,7434
56.88466399999987,8.54914399999999,7548
54.940663999999884,9.845143999999989,8236
54.940663999999884,11.789143999999988,7469
55.91266399999988,13.085143999999987,7461
56.23666399999988,13.733143999999989,7487
55.91266399999988,13.733143999999989,7473
56.23666399999988,14.381143999999988,7494
56.23666399999988,15.029143999999986,7512
56.23666399999988,15.677143999999986,7567
56.56066399999988,14.381143999999988,7502
56.88466399999987,14.381143999999988,7523
56.23666399999988,13.085143999999987,7456
56.56066399999988,13.085143999999987,7476
56.88466399999987,12.437143999999988,7513
57.20866399999987,12.437143999999988,7529
57.53266399999987,12.437143999999988,7559
56.88466399999987,15.029143999999986,7538
56.56066399999988,15.677143999999986,7585
56.88466399999987,15.677143999999986,7603
56.88466399999987,16.325143999999987,7619
55.91266399999988,11.789143999999988,7448
57.20866399999987,10.493143999999988,7864
49.43266399999992,1.4211439999999929,7524
49.75666399999992,0.7731439999999932,7578
49.75666399999992,2.0691439999999925,7449
50.08066399999991,2.717143999999992,7429
49.75666399999992,1.4211439999999929,7567
47.81266399999993,1.4211439999999929,7554
48.136663999999925,2.0691439999999925,7749
48.46066399999992,2.0691439999999925,7591
48.136663999999925,1.4211439999999929,7493
48.78466399999992,0.1251439999999934,7652
48.46066399999992,0.1251439999999934,7535
47.81266399999993,0.1251439999999934,7623
46.84066399999993,-0.5228560000000062,7645
47.16466399999993,0.7731439999999932,7643
46.84066399999993,0.1251439999999934,7679
46.84066399999993,-1.170856000000006,7679
50.08066399999991,1.4211439999999929,7524
50.08066399999991,2.0691439999999925,7515
49.43266399999992,2.717143999999992,7450
49.75666399999992,3.365143999999992,7494
50.08066399999991,3.365143999999992,7437
49.10866399999992,2.0691439999999925,7475
49.43266399999992,2.0691439999999925,7501
48.78466399999992,0.7731439999999932,7623
48.78466399999992,-0.5228560000000062,7697
48.78466399999992,-1.170856000000006,7729
48.136663999999925,0.7731439999999932,7500
48.46066399999992,0.7731439999999932,7472
43.92466399999995,5.957143999999991,7804
44.24866399999995,5.957143999999991,7845
43.92466399999995,5.309143999999991,7601
42.95266399999996,2.717143999999992,7698
45.54466399999994,2.0691439999999925,7819
45.22066399999994,2.0691439999999925,7776
42.95266399999996,2.0691439999999925,7793
42.95266399999996,0.7731439999999932,7794
43.276663999999954,0.7731439999999932,7767
46.19266399999994,0.7731439999999932,7827
46.516663999999935,0.7731439999999932,7809
45.86866399999994,0.1251439999999934,7723
46.19266399999994,0.1251439999999934,7720
47.81266399999993,-1.170856000000006,7730
48.136663999999925,-2.4668560000000053,7729
47.48866399999993,-1.8188560000000056,7618
47.16466399999993,-1.170856000000006,7589
47.16466399999993,-0.5228560000000062,7729
46.84066399999993,-1.8188560000000056,7664
45.22066399999994,-0.5228560000000062,7607
44.89666399999994,0.1251439999999934,7621
45.22066399999994,0.7731439999999932,7640
45.54466399999994,0.7731439999999932,7674
45.86866399999994,0.7731439999999932,7786
45.22066399999994,0.1251439999999934,7635
44.89666399999994,0.7731439999999932,7740
43.92466399999995,-0.5228560000000062,7679
43.92466399999995,-1.170856000000006,7650
44.24866399999995,-1.170856000000006,7647
45.22066399999994,-1.170856000000006,7698
44.572663999999946,-0.5228560000000062,7607
44.24866399999995,0.1251439999999934,7695
44.572663999999946,0.7731439999999932,7764
43.276663999999954,-1.170856000000006,7672
42.95266399999996,-0.5228560000000062,7837
44.24866399999995,2.0691439999999925,7810
43.60066399999995,0.7731439999999932,7751
43.60066399999995,2.0691439999999925,7698
52.6726639999999,4.661143999999991,7348
52.6726639999999,5.309143999999991,7359
51.700663999999904,5.309143999999991,7328
52.0246639999999,5.309143999999991,7322
52.3486639999999,5.309143999999991,7326
51.37666399999991,4.013143999999992,7337
52.3486639999999,5.957143999999991,7328
52.0246639999999,6.60514399999999,7326
52.6726639999999,5.957143999999991,7341
52.996663999999896,5.957143999999991,7348
53.32066399999989,5.957143999999991,7358
52.996663999999896,6.60514399999999,7347
53.32066399999989,6.60514399999999,7358
52.6726639999999,6.60514399999999,7333
52.996663999999896,5.309143999999991,7369
59.15266399999986,24.101143999999977,65535
56.88466399999987,24.101143999999977,65535
56.88466399999987,23.45314399999998,65535
56.88466399999987,22.805143999999984,65535
57.20866399999987,24.74914399999998,65535
56.88466399999987,24.74914399999998,65535
56.56066399999988,24.74914399999998,65535
56.56066399999988,25.397143999999983,65535
56.56066399999988,24.101143999999977,65535
56.56066399999988,23.45314399999998,65535
56.56066399999988,26.04514399999998,65535
56.88466399999987,26.04514399999998,65535
57.20866399999987,25.397143999999983,65535
57.53266399999987,25.397143999999983,65535
56.23666399999988,26.04514399999998,65535
56.23666399999988,26.69314399999997,65535
55.91266399999988,26.69314399999997,65535
56.56066399999988,26.69314399999997,65535
56.56066399999988,27.34114399999998,65535
56.56066399999988,27.989143999999985,65535
56.23666399999988,27.989143999999985,65535
55.91266399999988,27.34114399999998,65535
56.56066399999988,22.805143999999984,65535
56.56066399999988,22.15714399999998,65535
56.56066399999988,21.50914399999997,65535
57.20866399999987,26.69314399999997,65535
39.06466399999998,-8.946856000000002,65535
38.41666399999998,-8.298856000000002,65535
45.86866399999994,11.789143999999988,7828
46.19266399999994,11.789143999999988,7815
46.19266399999994,10.493143999999988,7855
45.22066399999994,18.269143999999983,7692
45.22066399999994,18.917143999999983,7733
45.54466399999994,16.973143999999984,7595
45.22066399999994,17.621143999999987,7636
45.86866399999994,16.325143999999987,7556
45.54466399999994,18.917143999999983,7780
45.54466399999994,16.325143999999987,7570
45.54466399999994,18.269143999999983,7748
44.89666399999994,18.917143999999983,7930
46.19266399999994,16.973143999999984,7556
46.19266399999994,16.325143999999987,7561
45.86866399999994,16.973143999999984,7573
45.86866399999994,17.621143999999987,7668
46.19266399999994,15.677143999999986,7530
46.516663999999935,16.325143999999987,7535
45.54466399999994,15.677143999999986,7605
45.22066399999994,15.029143999999986,7641
45.54466399999994,15.029143999999986,7602
45.22066399999994,15.677143999999986,7666
44.572663999999946,15.677143999999986,7819
44.24866399999995,15.677143999999986,7840
43.92466399999995,16.325143999999987,7904
44.89666399999994,15.677143999999986,7783
45.54466399999994,17.621143999999987,7647
45.22066399999994,16.325143999999987,7625
46.516663999999935,16.973143999999984,7548
45.86866399999994,18.269143999999983,7840
43.92466399999995,15.677143999999986,8006
45.22066399999994,13.733143999999989,7650
47.48866399999993,19.565143999999982,7172
47.16466399999993,18.917143999999983,7182
47.81266399999993,18.917143999999983,7156
45.54466399999994,9.845143999999989,7459
45.22066399999994,9.845143999999989,7468
45.22066399999994,10.493143999999988,7518
45.86866399999994,9.845143999999989,7479
45.86866399999994,10.493143999999988,8598
48.78466399999992,21.50914399999997,7130
49.10866399999992,20.213143999999986,7080
49.10866399999992,18.917143999999983,6977
48.46066399999992,17.621143999999987,7091
49.43266399999992,17.621143999999987,7213
49.10866399999992,17.621143999999987,7072
48.136663999999925,18.269143999999983,7116
49.10866399999992,18.269143999999983,7026
49.43266399999992,18.269143999999983,7038
49.43266399999992,16.973143999999984,7003
49.75666399999992,16.973143999999984,7161
49.75666399999992,16.325143999999987,7054
50.08066399999991,15.677143999999986,7101
50.08066399999991,15.029143999999986,7115
49.43266399999992,18.917143999999983,6950
47.81266399999993,20.86114399999998,7315
48.136663999999925,20.86114399999998,7250
48.46066399999992,20.86114399999998,7237
48.46066399999992,21.50914399999997,7144
49.10866399999992,19.565143999999982,6993
48.136663999999925,17.621143999999987,7117
48.78466399999992,22.15714399999998,7317
48.78466399999992,20.86114399999998,7199
49.10866399999992,20.86114399999998,7121
48.78466399999992,18.269143999999983,7031
48.78466399999992,17.621143999999987,7060
49.10866399999992,21.50914399999997,7126
48.78466399999992,20.213143999999986,7550
48.46066399999992,20.213143999999986,7577
48.136663999999925,19.565143999999982,7845
48.46066399999992,19.565143999999982,7724
48.46066399999992,18.917143999999983,7174
48.46066399999992,18.269143999999983,7079
48.78466399999992,19.565143999999982,7490
48.78466399999992,18.917143999999983,7232
47.81266399999993,18.269143999999983,7147
49.10866399999992,22.15714399999998,7312
49.43266399999992,21.50914399999997,7153
48.136663999999925,18.917143999999983,7167
48.136663999999925,20.213143999999986,7865
52.636,-8.018,65535
52.312,-7.370000000000001,65535
52.312,-8.018,65535
52.636,-8.666,65535
51.988,-8.666,65535
51.988,-8.018,65535
52.96,-8.666,65535
52.96,-6.074000000000002,65535
53.28399999999999,-6.722000000000001,65535
53.60799999999999,-6.722000000000001,65535
53.60799999999999,-7.370000000000001,65535
53.60799999999999,-8.018,65535
54.25599999999999,-8.666,65535
53.93199999999999,-8.666,65535
53.93199999999999,-8.018,65535
52.312,-6.722000000000001,65535
52.636,-6.722000000000001,65535
53.93199999999999,-6.722000000000001,65535
54.25599999999999,-6.074000000000002,65535
53.28399999999999,-7.370000000000001,65535
52.96,-7.370000000000001,65535
52.312,-8.666,65535
52.96,-8.018,65535
52.636,-7.370000000000001,65535
52.96,-6.722000000000001,65535
51.988,-9.314,65535
52.312,-9.314,65535
54.579999999999984,-6.722000000000001,65535
54.579999999999984,-6.074000000000002,65535
53.28399999999999,-8.018,65535
53.28399999999999,-8.666,65535
53.28399999999999,-9.314,65535
53.93199999999999,-9.314,65535
54.25599999999999,-9.314,65535
53.60799999999999,-8.666,65535
53.60799999999999,-9.314,65535
49.43266399999992,14.381143999999988,7175
49.75666399999992,14.381143999999988,7128
49.75666399999992,15.029143999999986,7126
49.75666399999992,13.733143999999989,7137
50.08066399999991,13.733143999999989,7133
49.75666399999992,15.677143999999986,7137
50.40466399999991,15.029143999999986,7121
49.43266399999992,13.733143999999989,7140
50.40466399999991,15.677143999999986,7146
50.40466399999991,13.733143999999989,7140
46.19266399999994,15.029143999999986,7513
45.86866399999994,15.029143999999986,7558
45.86866399999994,14.381143999999988,7535
46.19266399999994,13.733143999999989,7622
45.86866399999994,13.733143999999989,7708
58.50466399999986,13.733143999999989,7639
58.180663999999865,13.733143999999989,7624
58.180663999999865,13.085143999999987,7598
57.85666399999987,12.437143999999988,7577
60.44866399999985,15.677143999999986,7786
60.124663999999854,15.677143999999986,7756
60.124663999999854,16.325143999999987,7759
59.800663999999855,16.325143999999987,7720
59.800663999999855,17.621143999999987,7732
59.47666399999986,18.269143999999983,7714
61.74466399999984,16.973143999999984,7858
61.420663999999846,16.973143999999984,7830
60.77266399999985,16.973143999999984,7783
65.63266399999982,22.15714399999998,8542
65.95666399999982,21.50914399999997,8502
65.63266399999982,20.86114399999998,8473
64.98466399999982,20.213143999999986,8405
64.66066399999983,20.213143999999986,8383
64.33666399999983,19.565143999999982,8584
64.01266399999983,19.565143999999982,8501
63.68866399999983,20.213143999999986,8132
64.66066399999983,18.917143999999983,8754
59.15266399999986,16.325143999999987,7683
59.15266399999986,15.029143999999986,7676
59.15266399999986,17.621143999999987,7695
57.53266399999987,14.381143999999988,7560
57.53266399999987,15.029143999999986,7650
61.09666399999985,14.381143999999988,7889
60.77266399999985,15.029143999999986,7845
60.44866399999985,15.029143999999986,7834
58.180663999999865,15.029143999999986,7603
58.50466399999986,16.325143999999987,7636
58.50466399999986,15.677143999999986,7612
63.36466399999984,13.085143999999987,8665
63.04066399999984,14.381143999999988,8042
62.39266399999984,15.677143999999986,7971
63.36466399999984,13.733143999999989,8647
63.36466399999984,14.381143999999988,8619
62.71666399999984,15.677143999999986,7989
62.39266399999984,17.621143999999987,7913
59.800663999999855,15.677143999999986,7773
55.58866399999988,13.733143999999989,7478
57.20866399999987,14.381143999999988,7561
57.85666399999987,14.381143999999988,7586
58.82866399999986,16.973143999999984,7692
58.82866399999986,16.325143999999987,7670
59.15266399999986,18.269143999999983,7708
60.44866399999985,17.621143999999987,7789
59.15266399999986,12.437143999999988,7723
59.15266399999986,13.085143999999987,7735
58.82866399999986,12.437143999999988,7700
59.47666399999986,16.325143999999987,7709
58.82866399999986,14.381143999999988,7656
59.47666399999986,15.677143999999986,7698
63.36466399999984,18.917143999999983,8088
63.04066399999984,17.621143999999987,8053
62.71666399999984,17.621143999999987,8029
63.68866399999983,19.565143999999982,8467
62.39266399999984,16.973143999999984,7933
59.800663999999855,16.973143999999984,7735
59.47666399999986,17.621143999999987,7719
57.85666399999987,13.085143999999987,7606
57.53266399999987,13.085143999999987,7663
58.50466399999986,11.789143999999988,7610
57.85666399999987,15.029143999999986,7587
57.20866399999987,13.733143999999989,7578
57.53266399999987,13.733143999999989,7786
61.74466399999984,16.325143999999987,7911
61.420663999999846,16.325143999999987,7877
61.09666399999985,16.325143999999987,7917
61.09666399999985,16.973143999999984,7900
60.124663999999854,15.029143999999986,7820
66.60466399999981,20.86114399999998,8577
67.25266399999981,20.86114399999998,8645
67.90066399999981,20.213143999999986,8715
67.57666399999981,20.213143999999986,9340
59.800663999999855,15.029143999999986,7781
58.50466399999986,15.029143999999986,7618
59.47666399999986,15.029143999999986,7741
60.44866399999985,16.325143999999987,7848
59.15266399999986,15.677143999999986,7702
57.85666399999987,13.733143999999989,7642
58.82866399999986,13.733143999999989,7700
58.50466399999986,13.085143999999987,7629
57.20866399999987,13.085143999999987,7623
56.88466399999987,13.085143999999987,7631
58.180663999999865,11.789143999999988,7581
62.06866399999984,16.973143999999984,7944
65.95666399999982,23.45314399999998,8583
59.800663999999855,14.381143999999988,65535
59.800663999999855,18.269143999999983,7737
63.04066399999984,15.029143999999986,8038
62.71666399999984,15.029143999999986,8029
62.39266399999984,16.325143999999987,7962
63.36466399999984,12.437143999999988,8699
68.5486639999998,17.621143999999987,8928
68.5486639999998,18.269143999999983,8861
68.5486639999998,18.917143999999983,8838
68.2246639999998,18.917143999999983,8794
59.800663999999855,13.085143999999987,7785
60.124663999999854,13.085143999999987,7827
59.47666399999986,16.973143999999984,7721
59.15266399999986,16.973143999999984,7713
56.56066399999988,13.733143999999989,7578
60.124663999999854,17.621143999999987,7766
57.85666399999987,16.325143999999987,7758
58.180663999999865,16.325143999999987,7724
58.180663999999865,15.677143999999986,7720
57.20866399999987,16.325143999999987,7647
57.53266399999987,15.677143999999986,7682
57.85666399999987,15.677143999999986,7729
44.89666399999994,23.45314399999998,8725
44.572663999999946,23.45314399999998,8795
44.89666399999994,24.74914399999998,8712
44.572663999999946,24.74914399999998,8831
44.572663999999946,24.101143999999977,8772
44.24866399999995,24.101143999999977,8801
47.48866399999993,25.397143999999983,8573
47.48866399999993,24.74914399999998,8513
47.16466399999993,24.74914399999998,8435
47.16466399999993,24.101143999999977,8337
47.48866399999993,22.15714399999998,8467
47.81266399999993,22.15714399999998,8553
47.16466399999993,22.15714399999998,8446
47.16466399999993,23.45314399999998,8498
47.16466399999993,22.805143999999984,8504
46.84066399999993,24.101143999999977,8418
45.86866399999994,27.34114399999998,8758
45.54466399999994,27.34114399999998,8739
45.54466399999994,27.989143999999985,8855
45.86866399999994,20.86114399999998,8630
45.86866399999994,21.50914399999997,8638
46.19266399999994,21.50914399999997,8574
46.19266399999994,27.34114399999998,8758
46.19266399999994,26.69314399999997,8749
46.516663999999935,26.69314399999997,8711
46.516663999999935,26.04514399999998,8607
47.48866399999993,22.805143999999984,8565
46.84066399999993,22.805143999999984,8378
45.54466399999994,22.15714399999998,8687
45.22066399999994,22.15714399999998,8765
44.89666399999994,22.15714399999998,9183
47.48866399999993,23.45314399999998,8531
46.516663999999935,24.101143999999977,8257
46.516663999999935,24.74914399999998,8471
45.86866399999994,24.101143999999977,8420
47.16466399999993,26.69314399999997,8789
47.16466399999993,27.34114399999998,8844
43.92466399999995,25.397143999999983,8803
44.24866399999995,24.74914399999998,8710
44.89666399999994,26.04514399999998,8597
44.89666399999994,26.69314399999997,8644
45.22066399999994,26.69314399999997,8679
45.22066399999994,27.34114399999998,8706
46.84066399999993,26.69314399999997,8750
47.48866399999993,26.69314399999997,8743
44.24866399999995,25.397143999999983,8642
43.92466399999995,26.04514399999998,8819
46.19266399999994,24.101143999999977,8465
44.572663999999946,25.397143999999983,8680
46.84066399999993,24.74914399999998,8478
46.516663999999935,21.50914399999997,8578
46.84066399999993,21.50914399999997,8585
44.572663999999946,26.69314399999997,8635
44.572663999999946,27.34114399999998,8656
44.89666399999994,27.34114399999998,8771
44.572663999999946,27.989143999999985,8676
44.24866399999995,27.989143999999985,8690
44.572663999999946,28.63714399999997,8741
45.86866399999994,22.15714399999998,8499
45.86866399999994,22.805143999999984,8393
44.24866399999995,23.45314399999998,8828
43.92466399999995,27.989143999999985,65535
46.84066399999993,27.34114399999998,8911
45.22066399999994,23.45314399999998,8700
45.54466399999994,23.45314399999998,8503
45.54466399999994,24.101143999999977,8450
45.22066399999994,24.101143999999977,8674
44.89666399999994,24.101143999999977,8744
46.19266399999994,22.15714399999998,8630
46.516663999999935,22.15714399999998,8596
45.22066399999994,21.50914399999997,8870
45.54466399999994,21.50914399999997,8718
45.54466399999994,20.86114399999998,8742
46.516663999999935,27.989143999999985,8861
46.19266399999994,27.989143999999985,8846
45.54466399999994,25.397143999999983,8564
45.22066399999994,25.397143999999983,8574
45.22066399999994,26.04514399999998,8630
47.81266399999993,24.101143999999977,8626
47.48866399999993,26.04514399999998,8716
47.81266399999993,26.04514399999998,8738
46.19266399999994,23.45314399999998,8297
45.86866399999994,23.45314399999998,8346
44.24866399999995,26.04514399999998,8624
45.22066399999994,27.989143999999985,8836
45.86866399999994,24.74914399999998,8459
46.516663999999935,25.397143999999983,8651
46.84066399999993,25.397143999999983,8534
46.19266399999994,26.04514399999998,8622
45.86866399999994,26.04514399999998,8587
43.92466399999995,23.45314399999998,9058
44.89666399999994,25.397143999999983,8685
46.19266399999994,20.86114399999998,8619
47.81266399999993,25.397143999999983,8750
44.572663999999946,22.805143999999984,9063
44.572663999999946,22.15714399999998,9205
46.516663999999935,23.45314399999998,8436
45.86866399999994,25.397143999999983,8513
44.24866399999995,27.34114399999998,9451
45.22066399999994,24.74914399999998,8776
45.54466399999994,22.805143999999984,8466
45.22066399999994,28.63714399999997,8896
44.89666399999994,28.63714399999997,8835
47.81266399999993,23.45314399999998,7996
46.19266399999994,24.74914399999998,8545
46.19266399999994,25.397143999999983,8569
43.92466399999995,24.101143999999977,9021
43.92466399999995,24.74914399999998,9034
47.81266399999993,26.69314399999997,8965
47.48866399999993,24.101143999999977,8558
46.84066399999993,26.04514399999998,9366
46.19266399999994,22.805143999999984,8690
47.48866399999993,27.34114399999998,8918
46.19266399999994,20.213143999999986,65535
45.54466399999994,26.04514399999998,8722
44.24866399999995,26.69314399999997,8640
45.86866399999994,27.989143999999985,8894
47.81266399999993,5.957143999999991,65535
