51.56399999999999,-0.4100000000000028,65535
51.887999999999984,-0.4100000000000028,65535
50.91599999999999,-1.7060000000000022,65535
51.23999999999999,-1.0580000000000025,65535
51.56399999999999,-1.0580000000000025,65535
51.23999999999999,-1.7060000000000022,65535
51.56399999999999,0.2379999999999968,65535
47.16466399999993,9.845143999999989,3260
47.48866399999993,9.845143999999989,3233
48.136663999999925,14.381143999999988,3661
47.81266399999993,13.085143999999987,3203
47.16466399999993,11.141143999999988,3408
47.48866399999993,11.789143999999988,3350
48.136663999999925,16.325143999999987,3669
47.48866399999993,12.437143999999988,3236
48.136663999999925,15.677143999999986,3699
47.16466399999993,10.493143999999988,3318
47.16466399999993,9.197143999999987,3221
48.136663999999925,13.733143999999989,3376
48.136663999999925,15.029143999999986,3703
47.81266399999993,16.973143999999984,3775
48.46066399999992,14.381143999999988,3784
47.48866399999993,13.085143999999987,3230
47.16466399999993,13.085143999999987,3279
47.48866399999993,14.381143999999988,3871
47.48866399999993,13.733143999999989,3844
47.48866399999993,15.029143999999986,3882
46.516663999999935,13.733143999999989,4067
46.84066399999993,13.733143999999989,4036
46.84066399999993,13.085143999999987,4021
48.78466399999992,14.381143999999988,65535
47.16466399999993,15.677143999999986,3900
46.516663999999935,14.381143999999988,4074
46.84066399999993,14.381143999999988,4015
47.16466399999993,14.381143999999988,3965
46.516663999999935,15.029143999999986,4087
47.81266399999993,16.325143999999987,3678
47.16466399999993,15.029143999999986,3940
47.81266399999993,15.677143999999986,3777
47.48866399999993,15.677143999999986,3829
46.516663999999935,13.085143999999987,4334
46.84066399999993,12.437143999999988,4079
48.136663999999925,11.789143999999988,3179
47.81266399999993,12.437143999999988,3197
46.84066399999993,15.677143999999986,3961
46.516663999999935,15.677143999999986,4180
46.84066399999993,16.325143999999987,3945
47.81266399999993,14.381143999999988,3805
48.78466399999992,16.973143999999984,3491
48.136663999999925,16.973143999999984,3657
48.46066399999992,13.733143999999989,3277
47.81266399999993,13.733143999999989,3731
50.08066399999991,8.54914399999999,3079
48.46066399999992,9.845143999999989,3190
51.05266399999991,7.25314399999999,3037
51.37666399999991,7.25314399999999,3031
51.37666399999991,6.60514399999999,3035
48.46066399999992,16.325143999999987,3701
48.46066399999992,16.973143999999984,3613
48.78466399999992,16.325143999999987,3774
48.46066399999992,15.677143999999986,3743
48.78466399999992,15.677143999999986,3781
47.48866399999993,16.325143999999987,3786
47.16466399999993,16.325143999999987,3894
46.19266399999994,14.381143999999988,4132
45.86866399999994,15.677143999999986,4184
43.60066399999995,16.325143999999987,4600
45.54466399999994,14.381143999999988,4246
45.54466399999994,13.733143999999989,4269
48.136663999999925,13.085143999999987,3199
48.46066399999992,11.141143999999988,3176
48.136663999999925,11.141143999999988,3184
48.46066399999992,7.90114399999999,3154
49.10866399999992,8.54914399999999,3120
48.78466399999992,2.0691439999999925,3155
49.10866399999992,7.25314399999999,3137
52.0246639999999,7.90114399999999,3032
47.16466399999993,11.789143999999988,3391
49.43266399999992,11.141143999999988,3132
53.64466399999989,9.845143999999989,2894
50.72866399999991,4.013143999999992,3070
51.05266399999991,11.141143999999988,3061
47.48866399999993,11.141143999999988,3213
46.84066399999993,11.789143999999988,4502
46.516663999999935,11.141143999999988,4471
45.54466399999994,11.141143999999988,4365
46.19266399999994,11.141143999999988,4437
45.86866399999994,11.141143999999988,4421
44.572663999999946,11.141143999999988,4212
43.92466399999995,12.437143999999988,65535
45.54466399999994,12.437143999999988,4452
45.54466399999994,11.789143999999988,4415
48.78466399999992,15.029143999999986,3852
47.81266399999993,15.029143999999986,3772
47.81266399999993,11.141143999999988,3189
50.40466399999991,18.917143999999983,3639
52.3486639999999,20.86114399999998,3765
54.616663999999886,18.269143999999983,3766
54.29266399999989,18.917143999999983,3765
49.10866399999992,14.381143999999988,65535
50.08066399999991,14.381143999999988,3317
48.78466399999992,13.733143999999989,65535
52.6726639999999,13.085143999999987,3058
52.3486639999999,13.085143999999987,3055
53.96866399999989,12.437143999999988,2964
54.29266399999989,12.437143999999988,2977
47.48866399999993,8.54914399999999,3210
47.81266399999993,17.621143999999987,3748
47.48866399999993,18.917143999999983,3777
47.48866399999993,20.86114399999998,4316
46.84066399999993,23.45314399999998,4798
44.572663999999946,26.04514399999998,65535
47.48866399999993,21.50914399999997,4352
47.81266399999993,21.50914399999997,4748
48.46066399999992,22.15714399999998,3877
47.48866399999993,16.973143999999984,65535
49.10866399999992,16.325143999999987,3447
49.75666399999992,18.269143999999983,3439
46.19266399999994,13.085143999999987,65535
41.98066399999996,12.437143999999988,65535
43.60066399999995,10.493143999999988,65535
45.54466399999994,9.197143999999987,3330
47.81266399999993,22.805143999999984,65535
49.75666399999992,22.805143999999984,3811
50.72866399999991,3.365143999999992,3095
51.05266399999991,4.013143999999992,3079
50.72866399999991,4.661143999999991,3066
51.05266399999991,4.661143999999991,3071
51.05266399999991,3.365143999999992,3088
51.05266399999991,2.717143999999992,3110
50.40466399999991,4.661143999999991,3072
50.72866399999991,2.717143999999992,3104
50.40466399999991,4.013143999999992,3075
51.05266399999991,5.309143999999991,3075
50.72866399999991,5.309143999999991,3052
51.37666399999991,3.365143999999992,3096
51.37666399999991,4.661143999999991,3077
50.72866399999991,5.957143999999991,3049
50.40466399999991,5.957143999999991,3063
50.40466399999991,3.365143999999992,3109
50.40466399999991,5.309143999999991,3065
50.08066399999991,5.309143999999991,3079
49.75666399999992,5.309143999999991,3083
49.75666399999992,5.957143999999991,3104
51.37666399999991,5.309143999999991,3048
51.700663999999904,4.661143999999991,3090
50.08066399999991,4.013143999999992,3100
50.08066399999991,5.957143999999991,3081
50.08066399999991,4.661143999999991,3079
49.43266399999992,5.309143999999991,3135
49.43266399999992,5.957143999999991,3117
52.0246639999999,4.661143999999991,3086
52.3486639999999,4.661143999999991,3089
50.72866399999991,15.029143999999986,3244
51.05266399999991,15.029143999999986,3137
51.05266399999991,13.733143999999989,3098
50.40466399999991,13.085143999999987,3107
49.10866399999992,7.90114399999999,3129
48.78466399999992,7.90114399999999,3142
50.40466399999991,7.90114399999999,3070
50.08066399999991,7.90114399999999,3073
49.75666399999992,7.90114399999999,3083
49.43266399999992,7.90114399999999,3114
49.75666399999992,8.54914399999999,3081
49.43266399999992,8.54914399999999,3101
49.43266399999992,9.197143999999987,3108
49.10866399999992,9.197143999999987,3123
47.48866399999993,7.90114399999999,3206
47.81266399999993,7.90114399999999,3169
48.136663999999925,7.90114399999999,3164
48.136663999999925,9.845143999999989,3224
47.81266399999993,9.197143999999987,3229
47.81266399999993,8.54914399999999,3214
47.81266399999993,9.845143999999989,3227
54.940663999999884,9.197143999999987,2852
54.616663999999886,9.197143999999987,2863
54.29266399999989,9.197143999999987,2891
53.96866399999989,9.197143999999987,2927
53.64466399999989,9.197143999999987,2915
54.616663999999886,9.845143999999989,2886
54.29266399999989,9.845143999999989,2876
53.96866399999989,9.845143999999989,2887
53.64466399999989,10.493143999999988,2898
53.96866399999989,10.493143999999988,2891
53.96866399999989,11.141143999999988,2903
54.29266399999989,10.493143999999988,2840
53.32066399999989,10.493143999999988,2916
54.940663999999884,11.141143999999988,2799
52.6726639999999,13.733143999999989,3060
52.3486639999999,13.733143999999989,3059
52.3486639999999,14.381143999999988,3067
52.0246639999999,14.381143999999988,3080
52.0246639999999,11.789143999999988,3015
52.3486639999999,11.789143999999988,3009
52.3486639999999,12.437143999999988,3038
52.0246639999999,15.029143999999986,3187
51.700663999999904,14.381143999999988,3097
52.0246639999999,13.733143999999989,3074
51.700663999999904,13.733143999999989,3093
52.6726639999999,12.437143999999988,3068
53.32066399999989,11.789143999999988,2965
53.96866399999989,11.789143999999988,2961
53.64466399999989,11.789143999999988,2936
53.64466399999989,11.141143999999988,2927
53.32066399999989,11.141143999999988,2955
52.996663999999896,11.789143999999988,3032
52.996663999999896,12.437143999999988,3084
52.996663999999896,13.733143999999989,3073
53.64466399999989,13.733143999999989,3106
53.96866399999989,13.733143999999989,3169
54.29266399999989,13.085143999999987,3092
53.96866399999989,13.085143999999987,3059
53.32066399999989,13.733143999999989,3107
52.0246639999999,13.085143999999987,3109
51.700663999999904,13.085143999999987,3106
52.996663999999896,14.381143999999988,3081
52.0246639999999,12.437143999999988,3053
51.700663999999904,12.437143999999988,3048
51.37666399999991,11.789143999999988,3034
51.37666399999991,12.437143999999988,3050
52.6726639999999,11.789143999999988,2996
53.64466399999989,13.085143999999987,3043
53.32066399999989,13.085143999999987,3102
52.996663999999896,13.085143999999987,3078
53.64466399999989,12.437143999999988,2982
51.37666399999991,13.733143999999989,3085
53.32066399999989,12.437143999999988,3115
52.6726639999999,14.381143999999988,3073
51.37666399999991,13.085143999999987,3071
53.32066399999989,14.381143999999988,3107
52.3486639999999,15.029143999999986,3127
52.0246639999999,15.677143999999986,3173
51.700663999999904,15.029143999999986,3274
51.05266399999991,16.325143999999987,3253
51.05266399999991,16.973143999999984,3274
51.700663999999904,15.677143999999986,3231
51.37666399999991,15.677143999999986,3261
51.37666399999991,16.325143999999987,3238
50.72866399999991,13.085143999999987,3071
50.72866399999991,12.437143999999988,3067
51.05266399999991,13.085143999999987,3072
51.05266399999991,14.381143999999988,3101
50.40466399999991,12.437143999999988,3090
50.40466399999991,11.789143999999988,3133
50.08066399999991,12.437143999999988,3182
50.72866399999991,11.789143999999988,3052
51.05266399999991,12.437143999999988,3059
50.72866399999991,14.381143999999988,3312
51.37666399999991,14.381143999999988,3134
50.72866399999991,13.733143999999989,3117
50.40466399999991,14.381143999999988,3302
51.37666399999991,15.029143999999986,3163
55.26466399999988,9.197143999999987,2841
55.58866399999988,8.54914399999999,2837
55.91266399999988,8.54914399999999,2835
56.23666399999988,9.197143999999987,2825
56.23666399999988,10.493143999999988,2817
56.23666399999988,9.845143999999989,2804
55.91266399999988,9.845143999999989,2795
56.56066399999988,9.197143999999987,2880
56.56066399999988,8.54914399999999,2891
51.05266399999991,6.60514399999999,3037
51.700663999999904,7.90114399999999,3020
50.72866399999991,6.60514399999999,3048
51.700663999999904,7.25314399999999,3034
50.72866399999991,7.25314399999999,3044
52.0246639999999,7.25314399999999,3042
52.3486639999999,7.90114399999999,2998
51.05266399999991,5.957143999999991,3042
50.40466399999991,7.25314399999999,3058
51.700663999999904,6.60514399999999,3073
51.700663999999904,5.957143999999991,3050
52.3486639999999,9.197143999999987,2970
51.700663999999904,8.54914399999999,3013
52.0246639999999,8.54914399999999,2989
52.3486639999999,8.54914399999999,2978
51.37666399999991,7.90114399999999,3024
52.3486639999999,7.25314399999999,3046
51.37666399999991,5.957143999999991,3041
50.72866399999991,7.90114399999999,3060
51.37666399999991,9.197143999999987,3042
51.700663999999904,9.197143999999987,3013
50.40466399999991,6.60514399999999,3106
51.05266399999991,7.90114399999999,3053
51.37666399999991,8.54914399999999,3042
52.0246639999999,5.957143999999991,3065
52.3486639999999,6.60514399999999,3056
51.05266399999991,8.54914399999999,3104
52.0246639999999,9.197143999999987,3002
52.6726639999999,9.197143999999987,2933
52.0246639999999,9.845143999999989,3008
51.700663999999904,9.845143999999989,3022
51.37666399999991,9.845143999999989,3046
50.72866399999991,8.54914399999999,3088
51.05266399999991,9.845143999999989,3108
50.72866399999991,9.845143999999989,3128
50.40466399999991,9.845143999999989,3123
51.05266399999991,9.197143999999987,3080
50.40466399999991,9.197143999999987,3095
50.08066399999991,9.197143999999987,3087
51.05266399999991,10.493143999999988,3069
50.40466399999991,8.54914399999999,3080
50.72866399999991,9.197143999999987,3128
49.75666399999992,9.197143999999987,3125
52.996663999999896,9.197143999999987,2917
52.3486639999999,9.845143999999989,2987
52.996663999999896,8.54914399999999,2921
52.996663999999896,7.90114399999999,2933
53.32066399999989,7.90114399999999,2957
53.32066399999989,7.25314399999999,3013
53.64466399999989,7.25314399999999,3058
52.996663999999896,10.493143999999988,2929
52.6726639999999,10.493143999999988,2976
52.6726639999999,9.845143999999989,2968
53.32066399999989,9.845143999999989,2905
53.32066399999989,9.197143999999987,2910
53.64466399999989,8.54914399999999,2930
53.32066399999989,8.54914399999999,2925
52.6726639999999,8.54914399999999,2951
52.0246639999999,10.493143999999988,3032
52.0246639999999,11.141143999999988,3044
51.700663999999904,11.141143999999988,3040
52.6726639999999,7.25314399999999,3305
52.996663999999896,7.25314399999999,3038
52.6726639999999,7.90114399999999,2955
53.64466399999989,7.90114399999999,3011
52.996663999999896,11.141143999999988,2964
52.6726639999999,11.141143999999988,2990
52.3486639999999,10.493143999999988,3007
52.996663999999896,9.845143999999989,2921
51.700663999999904,10.493143999999988,3055
51.37666399999991,10.493143999999988,3054
51.700663999999904,11.789143999999988,3021
52.3486639999999,11.141143999999988,3014
51.37666399999991,11.141143999999988,3051
51.05266399999991,11.789143999999988,3051
49.10866399999992,11.141143999999988,3147
48.78466399999992,11.141143999999988,3161
48.46066399999992,11.789143999999988,3176
49.43266399999992,11.789143999999988,3168
50.08066399999991,11.789143999999988,3155
49.75666399999992,12.437143999999988,3207
49.10866399999992,11.789143999999988,3198
48.78466399999992,12.437143999999988,3206
48.46066399999992,12.437143999999988,3192
49.10866399999992,12.437143999999988,3207
48.78466399999992,13.085143999999987,3231
48.136663999999925,12.437143999999988,3195
47.81266399999993,11.789143999999988,3186
48.136663999999925,10.493143999999988,3202
47.81266399999993,10.493143999999988,3252
48.78466399999992,10.493143999999988,3166
47.48866399999993,10.493143999999988,3291
48.46066399999992,10.493143999999988,3184
49.43266399999992,13.085143999999987,3236
48.46066399999992,13.085143999999987,3194
49.43266399999992,10.493143999999988,3124
49.75666399999992,9.845143999999989,3100
49.75666399999992,10.493143999999988,3126
50.40466399999991,11.141143999999988,3081
50.08066399999991,11.141143999999988,3130
50.72866399999991,11.141143999999988,3056
49.75666399999992,11.141143999999988,3136
48.78466399999992,11.789143999999988,3200
50.40466399999991,10.493143999999988,3070
50.08066399999991,9.845143999999989,3095
50.08066399999991,10.493143999999988,3102
49.43266399999992,12.437143999999988,3200
49.75666399999992,11.789143999999988,3205
49.10866399999992,13.085143999999987,3232
50.72866399999991,10.493143999999988,3066
49.10866399999992,10.493143999999988,3147
48.78466399999992,9.845143999999989,3145
48.46066399999992,8.54914399999999,3148
48.46066399999992,9.197143999999987,3145
48.78466399999992,9.197143999999987,3130
48.78466399999992,8.54914399999999,3124
50.08066399999991,7.25314399999999,3089
49.75666399999992,6.60514399999999,3111
49.43266399999992,6.60514399999999,3144
49.10866399999992,6.60514399999999,3158
49.43266399999992,7.25314399999999,3126
49.75666399999992,7.25314399999999,3093
49.10866399999992,5.957143999999991,3136
48.78466399999992,7.25314399999999,3169
50.08066399999991,6.60514399999999,3108
47.48866399999993,9.197143999999987,3221
48.136663999999925,8.54914399999999,3194
48.136663999999925,9.197143999999987,3191
47.81266399999993,7.25314399999999,3178
49.43266399999992,9.845143999999989,3104
49.10866399999992,9.845143999999989,3125
53.64466399999989,14.381143999999988,3143
50.08066399999991,13.085143999999987,3641
49.75666399999992,13.085143999999987,3430
45.86866399999994,9.197143999999987,3324
46.19266399999994,9.197143999999987,3294
46.516663999999935,8.54914399999999,3752
46.516663999999935,9.197143999999987,3739
46.19266399999994,8.54914399999999,3281
47.16466399999993,8.54914399999999,3211
45.86866399999994,4.661143999999991,3296
46.84066399999993,9.845143999999989,3277
45.22066399999994,5.957143999999991,3470
45.22066399999994,5.309143999999991,3435
45.86866399999994,5.957143999999991,3718
45.54466399999994,5.957143999999991,3695
44.89666399999994,4.661143999999991,3750
44.89666399999994,5.309143999999991,3675
44.572663999999946,4.661143999999991,3739
44.24866399999995,4.661143999999991,3708
43.92466399999995,4.661143999999991,3319
46.19266399999994,7.25314399999999,3251
48.78466399999992,5.957143999999991,3172
48.136663999999925,6.60514399999999,3251
48.46066399999992,6.60514399999999,3217
48.78466399999992,6.60514399999999,3186
47.16466399999993,7.90114399999999,3203
48.136663999999925,7.25314399999999,3184
48.46066399999992,7.25314399999999,3176
46.516663999999935,6.60514399999999,3236
46.84066399999993,6.60514399999999,3229
46.84066399999993,7.25314399999999,3211
46.516663999999935,5.957143999999991,3248
46.19266399999994,5.957143999999991,3270
46.84066399999993,8.54914399999999,3216
46.84066399999993,7.90114399999999,3209
45.86866399999994,5.309143999999991,3730
46.19266399999994,6.60514399999999,3247
45.86866399999994,6.60514399999999,3280
47.48866399999993,6.60514399999999,3211
47.48866399999993,7.25314399999999,3191
47.16466399999993,7.25314399999999,3201
49.10866399999992,4.013143999999992,3181
49.75666399999992,4.661143999999991,3117
49.43266399999992,4.661143999999991,3148
49.10866399999992,5.309143999999991,3215
46.19266399999994,4.661143999999991,3267
46.84066399999993,9.197143999999987,3264
46.19266399999994,5.309143999999991,3760
46.516663999999935,5.309143999999991,3810
45.54466399999994,6.60514399999999,3763
45.54466399999994,5.309143999999991,3350
43.60066399999995,4.013143999999992,3674
43.60066399999995,3.365143999999992,3743
42.62866399999996,2.717143999999992,3820
43.276663999999954,2.717143999999992,3772
45.54466399999994,4.661143999999991,3353
45.22066399999994,4.661143999999991,3733
47.16466399999993,5.309143999999991,3751
47.16466399999993,5.957143999999991,3704
46.19266399999994,7.90114399999999,3246
49.75666399999992,2.717143999999992,3148
49.10866399999992,2.717143999999992,3151
48.78466399999992,2.717143999999992,3167
45.86866399999994,3.365143999999992,3790
46.84066399999993,3.365143999999992,3832
46.516663999999935,3.365143999999992,3854
46.19266399999994,3.365143999999992,3826
47.16466399999993,6.60514399999999,3213
49.10866399999992,3.365143999999992,3199
45.54466399999994,4.013143999999992,3677
46.516663999999935,7.25314399999999,3251
47.16466399999993,4.661143999999991,3734
46.84066399999993,4.661143999999991,3248
46.516663999999935,4.661143999999991,3741
46.84066399999993,5.957143999999991,3679
47.81266399999993,3.365143999999992,3282
47.48866399999993,4.013143999999992,3769
48.136663999999925,4.013143999999992,3251
47.81266399999993,4.013143999999992,3744
47.48866399999993,4.661143999999991,3778
47.16466399999993,3.365143999999992,3846
46.84066399999993,4.013143999999992,3800
48.46066399999992,5.957143999999991,3186
46.19266399999994,2.717143999999992,3880
47.16466399999993,2.0691439999999925,3781
46.516663999999935,2.717143999999992,3983
46.84066399999993,2.717143999999992,3831
46.84066399999993,2.0691439999999925,3843
47.16466399999993,2.717143999999992,3809
44.572663999999946,5.309143999999991,3640
44.572663999999946,5.957143999999991,3740
44.89666399999994,6.60514399999999,3747
44.572663999999946,6.60514399999999,3809
43.60066399999995,5.309143999999991,3343
43.92466399999995,7.25314399999999,3801
43.60066399999995,6.60514399999999,3792
43.276663999999954,6.60514399999999,3779
43.276663999999954,5.957143999999991,3723
45.86866399999994,8.54914399999999,3335
45.54466399999994,8.54914399999999,3342
48.136663999999925,3.365143999999992,3245
48.46066399999992,3.365143999999992,3218
48.46066399999992,2.717143999999992,3192
47.48866399999993,5.309143999999991,3756
46.516663999999935,9.845143999999989,3716
46.84066399999993,10.493143999999988,3731
47.81266399999993,5.309143999999991,3331
45.22066399999994,6.60514399999999,3741
46.19266399999994,4.013143999999992,3385
45.86866399999994,4.013143999999992,3350
45.22066399999994,4.013143999999992,3723
44.89666399999994,4.013143999999992,3801
46.84066399999993,5.309143999999991,3798
48.136663999999925,-1.8188560000000056,3260
48.136663999999925,0.1251439999999934,3212
48.136663999999925,-0.5228560000000062,3281
47.48866399999993,-0.5228560000000062,3268
47.16466399999993,-1.8188560000000056,3307
47.48866399999993,0.7731439999999932,3211
47.16466399999993,0.1251439999999934,3245
45.86866399999994,7.25314399999999,3263
48.136663999999925,5.309143999999991,3306
49.10866399999992,4.661143999999991,3258
48.46066399999992,4.013143999999992,3230
48.136663999999925,4.661143999999991,3272
47.81266399999993,6.60514399999999,3713
47.48866399999993,5.957143999999991,3733
48.136663999999925,5.957143999999991,4292
45.86866399999994,7.90114399999999,3260
46.516663999999935,7.90114399999999,3229
49.43266399999992,3.365143999999992,3155
49.43266399999992,4.013143999999992,3167
48.136663999999925,2.717143999999992,3836
47.81266399999993,2.717143999999992,3865
47.48866399999993,2.717143999999992,3841
50.40466399999991,2.717143999999992,3102
48.46066399999992,-4.410856000000004,3845
48.46066399999992,-3.7628560000000046,3800
48.46066399999992,-3.114856000000005,3785
48.46066399999992,-2.4668560000000053,3756
47.48866399999993,1.4211439999999929,3269
47.16466399999993,1.4211439999999929,3743
46.516663999999935,4.013143999999992,3805
43.60066399999995,4.661143999999991,3727
44.89666399999994,2.717143999999992,3852
45.22066399999994,2.717143999999992,3803
45.54466399999994,3.365143999999992,3774
45.22066399999994,3.365143999999992,3763
47.48866399999993,3.365143999999992,3946
46.19266399999994,9.845143999999989,3773
47.81266399999993,2.0691439999999925,3263
47.48866399999993,2.0691439999999925,3744
45.86866399999994,2.717143999999992,3797
44.89666399999994,5.957143999999991,3731
45.22066399999994,1.4211439999999929,3787
44.89666399999994,1.4211439999999929,3816
44.89666399999994,2.0691439999999925,3838
43.276663999999954,2.0691439999999925,3808
43.60066399999995,1.4211439999999929,3762
48.78466399999992,4.661143999999991,3753
48.78466399999992,5.309143999999991,3193
46.19266399999994,2.0691439999999925,3875
45.86866399999994,1.4211439999999929,3795
46.19266399999994,1.4211439999999929,3826
44.572663999999946,4.013143999999992,3933
44.89666399999994,3.365143999999992,3874
43.92466399999995,4.013143999999992,3707
44.24866399999995,4.013143999999992,3766
44.89666399999994,-0.5228560000000062,3306
45.54466399999994,0.1251439999999934,3266
46.516663999999935,0.1251439999999934,3293
44.572663999999946,2.0691439999999925,3887
49.75666399999992,4.013143999999992,3173
43.92466399999995,3.365143999999992,3816
43.92466399999995,2.717143999999992,3847
44.24866399999995,3.365143999999992,3872
44.572663999999946,3.365143999999992,3917
49.10866399999992,0.1251439999999934,3285
49.43266399999992,0.7731439999999932,3225
49.43266399999992,-1.8188560000000056,3364
49.10866399999992,-1.170856000000006,3340
49.10866399999992,-0.5228560000000062,3308
49.10866399999992,0.7731439999999932,3271
49.10866399999992,1.4211439999999929,3244
47.81266399999993,-1.8188560000000056,3759
47.81266399999993,-2.4668560000000053,3775
47.81266399999993,-3.114856000000005,3800
48.136663999999925,-3.7628560000000046,3819
44.572663999999946,9.197143999999987,3776
44.89666399999994,8.54914399999999,3711
45.22066399999994,9.197143999999987,3360
45.54466399999994,10.493143999999988,3787
44.572663999999946,10.493143999999988,4198
44.89666399999994,10.493143999999988,3853
44.89666399999994,9.845143999999989,3780
48.46066399999992,5.309143999999991,3756
50.91599999999999,-1.0580000000000025,65535
51.23999999999999,-0.4100000000000028,65535
50.91599999999999,-0.4100000000000028,65535
51.23999999999999,-2.354000000000002,65535
51.56399999999999,-2.354000000000002,65535
51.56399999999999,-3.0020000000000016,65535
50.91599999999999,-2.354000000000002,65535
53.50799999999997,-3.0020000000000016,65535
53.183999999999976,-2.354000000000002,65535
53.183999999999976,-3.0020000000000016,65535
52.85999999999998,-2.354000000000002,65535
52.21199999999998,-1.0580000000000025,65535
51.887999999999984,-1.0580000000000025,65535
52.53599999999998,-1.0580000000000025,65535
52.53599999999998,-1.7060000000000022,65535
52.85999999999998,-1.7060000000000022,65535
53.50799999999997,-2.354000000000002,65535
52.85999999999998,-1.0580000000000025,65535
52.53599999999998,1.5339999999999965,65535
52.53599999999998,0.8859999999999966,65535
52.53599999999998,0.2379999999999968,65535
52.53599999999998,-0.4100000000000028,65535
53.50799999999997,-1.7060000000000022,65535
53.183999999999976,-1.7060000000000022,65535
53.183999999999976,-1.0580000000000025,65535
52.85999999999998,-0.4100000000000028,65535
51.887999999999984,-2.354000000000002,65535
52.21199999999998,-2.354000000000002,65535
55.77599999999996,-2.354000000000002,65535
53.83199999999997,-1.0580000000000025,65535
53.83199999999997,-1.7060000000000022,65535
55.127999999999965,-1.7060000000000022,65535
54.80399999999997,-1.7060000000000022,65535
54.47999999999997,-1.7060000000000022,65535
54.15599999999997,-1.0580000000000025,65535
52.21199999999998,-1.7060000000000022,65535
53.50799999999997,-1.0580000000000025,65535
55.77599999999996,-3.0020000000000016,65535
55.45199999999996,-1.7060000000000022,65535
57.07199999999995,-2.354000000000002,65535
56.74799999999996,-3.0020000000000016,65535
56.42399999999996,-3.0020000000000016,65535
56.09999999999996,-3.650000000000001,65535
50.91599999999999,-3.0020000000000016,65535
50.91599999999999,-3.650000000000001,65535
50.59199999999999,-3.650000000000001,65535
50.59199999999999,-4.298000000000001,65535
51.23999999999999,-3.0020000000000016,65535
50.268,-4.946000000000001,65535
55.77599999999996,-3.650000000000001,65535
55.77599999999996,-4.298000000000001,65535
52.21199999999998,-0.4100000000000028,65535
52.53599999999998,-2.354000000000002,65535
51.56399999999999,-1.7060000000000022,65535
51.56399999999999,-3.650000000000001,65535
51.887999999999984,-4.298000000000001,65535
51.56399999999999,-4.298000000000001,65535
51.887999999999984,-1.7060000000000022,65535
52.21199999999998,-3.0020000000000016,65535
51.23999999999999,0.2379999999999968,65535
50.91599999999999,0.2379999999999968,65535
52.21199999999998,0.2379999999999968,65535
53.83199999999997,-3.0020000000000016,65535
54.15599999999997,-3.0020000000000016,65535
54.47999999999997,-3.0020000000000016,65535
55.127999999999965,-3.650000000000001,65535
54.80399999999997,-3.0020000000000016,65535
53.83199999999997,-2.354000000000002,65535
54.15599999999997,-0.4100000000000028,65535
54.47999999999997,-1.0580000000000025,65535
53.83199999999997,-0.4100000000000028,65535
53.183999999999976,-3.650000000000001,65535
53.183999999999976,-4.298000000000001,65535
52.85999999999998,-3.0020000000000016,65535
52.53599999999998,-3.0020000000000016,65535
51.887999999999984,-3.0020000000000016,65535
51.23999999999999,0.8859999999999966,65535
51.887999999999984,0.2379999999999968,65535
52.21199999999998,0.8859999999999966,65535
51.887999999999984,-4.946000000000001,65535
52.53599999999998,-3.650000000000001,65535
52.21199999999998,-4.298000000000001,65535
53.183999999999976,-0.4100000000000028,65535
51.23999999999999,-3.650000000000001,65535
51.887999999999984,-3.650000000000001,65535
52.21199999999998,-3.650000000000001,65535
51.56399999999999,0.8859999999999966,65535
51.887999999999984,0.8859999999999966,65535
52.85999999999998,0.8859999999999966,65535
53.50799999999997,-0.4100000000000028,65535
56.09999999999996,-4.298000000000001,65535
56.74799999999996,-4.946000000000001,65535
56.74799999999996,-4.298000000000001,65535
56.42399999999996,-4.946000000000001,65535
56.42399999999996,-4.298000000000001,65535
56.09999999999996,-4.946000000000001,65535
57.39599999999995,-4.298000000000001,65535
57.39599999999995,-3.0020000000000016,65535
57.39599999999995,-3.650000000000001,65535
56.42399999999996,-3.650000000000001,65535
57.07199999999995,-3.650000000000001,65535
57.07199999999995,-4.298000000000001,65535
56.74799999999996,-3.650000000000001,65535
59.15266399999986,27.34114399999998,65535
59.47666399999986,26.69314399999997,65535
59.47666399999986,26.04514399999998,65535
59.15266399999986,26.04514399999998,65535
59.15266399999986,24.74914399999998,65535
59.15266399999986,25.397143999999983,65535
59.47666399999986,25.397143999999983,65535
58.50466399999986,26.69314399999997,65535
58.82866399999986,26.69314399999997,65535
57.85666399999987,26.04514399999998,65535
58.180663999999865,26.04514399999998,65535
58.180663999999865,26.69314399999997,65535
58.82866399999986,26.04514399999998,65535
58.50466399999986,25.397143999999983,65535
58.82866399999986,25.397143999999983,65535
58.82866399999986,24.74914399999998,65535
58.180663999999865,27.34114399999998,65535
57.85666399999987,27.34114399999998,65535
63.68866399999983,27.34114399999998,2757
60.124663999999854,24.74914399999998,2293
60.44866399999985,24.74914399999998,2262
60.44866399999985,25.397143999999983,2274
60.77266399999985,25.397143999999983,2480
61.09666399999985,26.04514399999998,2522
60.77266399999985,26.04514399999998,2529
60.77266399999985,26.69314399999997,2548
61.09666399999985,25.397143999999983,2513
61.09666399999985,26.69314399999997,2878
61.420663999999846,26.69314399999997,2900
61.74466399999984,27.34114399999998,2924
62.06866399999984,27.34114399999998,2949
62.39266399999984,27.34114399999998,2973
62.71666399999984,27.34114399999998,2937
64.01266399999983,27.34114399999998,3105
63.36466399999984,27.34114399999998,2825
63.04066399999984,27.34114399999998,2865
63.04066399999984,27.989143999999985,2880
64.33666399999983,27.989143999999985,3152
64.33666399999983,27.34114399999998,3228
64.66066399999983,27.34114399999998,3244
64.66066399999983,26.69314399999997,3255
64.98466399999982,25.397143999999983,1639
64.66066399999983,26.04514399999998,3285
64.98466399999982,26.04514399999998,3307
66.28066399999982,25.397143999999983,1716
65.95666399999982,24.74914399999998,1552
65.63266399999982,24.74914399999998,1556
65.63266399999982,25.397143999999983,1598
65.30866399999982,25.397143999999983,1619
66.60466399999981,25.397143999999983,1776
64.01266399999983,24.74914399999998,1776
64.01266399999983,24.101143999999977,1811
64.01266399999983,23.45314399999998,1835
63.68866399999983,23.45314399999998,1847
63.68866399999983,22.805143999999984,1872
63.68866399999983,26.04514399999998,2464
63.68866399999983,25.397143999999983,2430
63.68866399999983,26.69314399999997,2724
60.44866399999985,26.69314399999997,2716
64.01266399999983,27.989143999999985,3143
62.71666399999984,22.805143999999984,1994
62.39266399999984,22.805143999999984,2026
62.06866399999984,22.805143999999984,2055
62.06866399999984,23.45314399999998,2071
61.74466399999984,23.45314399999998,2083
61.420663999999846,23.45314399999998,2131
61.09666399999985,23.45314399999998,2172
61.09666399999985,24.101143999999977,2179
61.09666399999985,24.74914399999998,2213
60.77266399999985,24.74914399999998,2229
63.04066399999984,21.50914399999997,65535
63.04066399999984,22.15714399999998,65535
63.04066399999984,22.805143999999984,1958
62.39266399999984,26.04514399999998,3121
62.06866399999984,25.397143999999983,3170
61.74466399999984,25.397143999999983,3238
61.74466399999984,24.74914399999998,3275
61.74466399999984,24.101143999999977,3310
61.420663999999846,24.101143999999977,2654
62.39266399999984,26.69314399999997,3092
64.66066399999983,25.397143999999983,1708
64.66066399999983,24.74914399999998,1726
64.33666399999983,24.74914399999998,1737
63.36466399999984,22.805143999999984,1897
67.25266399999981,24.101143999999977,0
66.92866399999981,24.101143999999977,1428
66.60466399999981,23.45314399999998,1463
66.28066399999982,23.45314399999998,1479
66.28066399999982,24.101143999999977,1501
65.95666399999982,24.101143999999977,1531
60.124663999999854,24.101143999999977,2486
60.124663999999854,23.45314399999998,2523
60.44866399999985,22.805143999999984,65535
60.77266399999985,27.34114399999998,2606
61.09666399999985,27.989143999999985,2638
61.09666399999985,28.63714399999997,2684
61.420663999999846,29.28514399999997,4371
61.74466399999984,29.933143999999977,4429
62.06866399999984,29.933143999999977,4535
62.39266399999984,29.933143999999977,4573
62.71666399999984,29.933143999999977,4606
61.420663999999846,22.805143999999984,2167
61.420663999999846,22.15714399999998,2246
61.09666399999985,22.15714399999998,2234
61.420663999999846,21.50914399999997,2379
62.39266399999984,27.989143999999985,65535
62.06866399999984,27.989143999999985,65535
61.420663999999846,27.34114399999998,65535
63.04066399999984,29.933143999999977,65535
63.68866399999983,29.28514399999997,65535
63.36466399999984,29.28514399999997,65535
63.36466399999984,29.933143999999977,65535
60.44866399999985,27.34114399999998,65535
61.74466399999984,29.28514399999997,65535
62.39266399999984,30.58114399999998,65535
62.71666399999984,31.229143999999977,65535
62.71666399999984,29.28514399999997,65535
63.04066399999984,28.63714399999997,65535
66.60466399999981,26.04514399999998,1786
66.60466399999981,26.69314399999997,1822
66.60466399999981,27.34114399999998,1845
62.71666399999984,26.04514399999998,3006
62.71666399999984,25.397143999999983,2975
63.04066399999984,25.397143999999983,2795
63.36466399999984,25.397143999999983,2758
62.71666399999984,23.45314399999998,3000
62.39266399999984,24.101143999999977,65535
62.71666399999984,22.15714399999998,65535
62.39266399999984,22.15714399999998,65535
62.39266399999984,21.50914399999997,65535
61.09666399999985,21.50914399999997,4057
60.77266399999985,22.805143999999984,3483
60.44866399999985,22.15714399999998,3531
60.77266399999985,23.45314399999998,3465
60.77266399999985,21.50914399999997,3633
60.77266399999985,22.15714399999998,3586
60.124663999999854,22.805143999999984,3799
60.44866399999985,24.101143999999977,2472
62.06866399999984,24.74914399999998,65535
50.72866399999991,16.325143999999987,3265
50.40466399999991,16.973143999999984,3362
50.72866399999991,16.973143999999984,3324
50.40466399999991,16.325143999999987,3647
50.08066399999991,16.973143999999984,3676
50.08066399999991,16.325143999999987,3672
51.700663999999904,16.973143999999984,3290
51.37666399999991,16.973143999999984,3250
51.05266399999991,15.677143999999986,3341
50.72866399999991,15.677143999999986,3329
51.05266399999991,17.621143999999987,3300
51.37666399999991,17.621143999999987,3343
51.700663999999904,17.621143999999987,3308
51.700663999999904,16.325143999999987,3210
52.0246639999999,22.15714399999998,3810
52.0246639999999,21.50914399999997,3777
52.3486639999999,21.50914399999997,3779
52.0246639999999,20.86114399999998,3763
51.700663999999904,20.86114399999998,3777
51.37666399999991,21.50914399999997,3822
51.37666399999991,20.86114399999998,3811
51.05266399999991,20.86114399999998,3838
52.6726639999999,23.45314399999998,3899
52.3486639999999,22.805143999999984,3841
52.3486639999999,20.213143999999986,3795
52.0246639999999,20.213143999999986,3751
52.3486639999999,19.565143999999982,3716
52.6726639999999,19.565143999999982,3765
51.700663999999904,21.50914399999997,3850
51.700663999999904,22.15714399999998,3848
52.6726639999999,21.50914399999997,3783
52.996663999999896,21.50914399999997,3864
52.6726639999999,20.86114399999998,3785
52.6726639999999,22.15714399999998,3834
52.6726639999999,20.213143999999986,3861
52.996663999999896,19.565143999999982,3798
52.996663999999896,20.86114399999998,3795
52.996663999999896,20.213143999999986,3791
53.32066399999989,20.213143999999986,3771
51.37666399999991,20.213143999999986,3791
52.3486639999999,16.973143999999984,3252
52.0246639999999,16.973143999999984,3311
52.0246639999999,16.325143999999987,3242
52.0246639999999,17.621143999999987,3270
52.6726639999999,16.973143999999984,3282
52.996663999999896,16.973143999999984,3339
52.3486639999999,16.325143999999987,3219
52.3486639999999,15.677143999999986,3186
51.700663999999904,18.269143999999983,3354
52.6726639999999,17.621143999999987,3292
52.3486639999999,17.621143999999987,3264
52.6726639999999,18.269143999999983,3316
52.3486639999999,18.269143999999983,3309
52.3486639999999,18.917143999999983,3686
52.996663999999896,17.621143999999987,3616
51.700663999999904,19.565143999999982,3765
51.700663999999904,18.917143999999983,3765
51.37666399999991,18.269143999999983,3747
58.82866399999986,9.197143999999987,3025
58.180663999999865,7.90114399999999,3113
58.50466399999986,8.54914399999999,3069
63.36466399999984,10.493143999999988,3120
63.36466399999984,11.141143999999988,3104
63.36466399999984,11.789143999999988,3025
63.68866399999983,11.789143999999988,3173
64.33666399999983,12.437143999999988,3454
64.66066399999983,12.437143999999988,3949
65.63266399999982,13.085143999999987,3606
65.95666399999982,13.085143999999987,3641
66.28066399999982,14.381143999999988,3711
65.95666399999982,13.733143999999989,3780
66.28066399999982,13.733143999999989,3689
65.30866399999982,13.085143999999987,3907
64.98466399999982,13.085143999999987,3541
64.01266399999983,11.789143999999988,3204
63.68866399999983,11.141143999999988,3141
59.800663999999855,10.493143999999988,2890
59.800663999999855,11.141143999999988,2896
60.124663999999854,11.141143999999988,2909
60.44866399999985,11.141143999999988,2935
60.124663999999854,11.789143999999988,2949
60.77266399999985,7.25314399999999,3197
60.77266399999985,6.60514399999999,3246
59.15266399999986,9.197143999999987,2994
59.47666399999986,9.197143999999987,2969
59.800663999999855,9.845143999999989,2908
59.47666399999986,11.141143999999988,2871
61.09666399999985,10.493143999999988,3007
60.77266399999985,10.493143999999988,2986
60.77266399999985,11.141143999999988,2959
62.06866399999984,9.197143999999987,3128
61.74466399999984,9.845143999999989,3073
61.420663999999846,9.845143999999989,3051
59.15266399999986,9.845143999999989,2930
59.47666399999986,9.845143999999989,2906
58.82866399999986,5.957143999999991,3285
58.180663999999865,7.25314399999999,3160
58.50466399999986,7.25314399999999,3194
58.50466399999986,6.60514399999999,3199
58.50466399999986,5.957143999999991,3255
58.82866399999986,8.54914399999999,3055
60.44866399999985,7.25314399999999,3171
60.44866399999985,7.90114399999999,3128
60.124663999999854,10.493143999999988,2904
60.44866399999985,9.197143999999987,3041
60.77266399999985,9.197143999999987,3082
60.77266399999985,8.54914399999999,3108
60.124663999999854,9.845143999999989,2975
60.44866399999985,10.493143999999988,2916
63.04066399999984,10.493143999999988,3139
62.06866399999984,9.845143999999989,3156
62.39266399999984,9.845143999999989,3164
62.71666399999984,9.845143999999989,3193
59.47666399999986,14.381143999999988,2617
59.47666399999986,13.733143999999989,2639
59.47666399999986,13.085143999999987,2666
59.800663999999855,12.437143999999988,2735
59.15266399999986,11.141143999999988,2843
59.15266399999986,14.381143999999988,2604
58.82866399999986,11.789143999999988,2741
58.50466399999986,12.437143999999988,2685
58.180663999999865,12.437143999999988,2678
57.85666399999987,11.789143999999988,2615
62.71666399999984,7.90114399999999,3216
62.39266399999984,7.90114399999999,3173
62.06866399999984,8.54914399999999,3148
60.44866399999985,5.309143999999991,3386
60.44866399999985,5.957143999999991,3709
60.77266399999985,5.957143999999991,3683
62.39266399999984,11.141143999999988,3193
62.06866399999984,10.493143999999988,3150
61.74466399999984,11.141143999999988,3123
61.420663999999846,11.141143999999988,3076
61.09666399999985,11.141143999999988,3056
60.77266399999985,11.789143999999988,3033
63.04066399999984,11.141143999999988,3708
62.71666399999984,11.141143999999988,3217
62.39266399999984,10.493143999999988,3177
67.25266399999981,15.677143999999986,3830
67.25266399999981,15.029143999999986,3868
67.25266399999981,14.381143999999988,3896
66.92866399999981,15.029143999999986,3819
66.60466399999981,15.677143999999986,3797
64.01266399999983,11.141143999999988,3188
66.60466399999981,15.029143999999986,3860
54.29266399999989,18.269143999999983,3756
54.616663999999886,17.621143999999987,3771
53.96866399999989,18.269143999999983,3736
43.92466399999995,1.4211439999999929,3721
44.24866399999995,0.7731439999999932,3780
44.572663999999946,0.1251439999999934,3809
46.84066399999993,1.4211439999999929,3866
44.572663999999946,1.4211439999999929,3808
44.24866399999995,1.4211439999999929,3774
45.54466399999994,1.4211439999999929,3832
46.516663999999935,1.4211439999999929,3855
42.30466399999996,2.717143999999992,3871
44.24866399999995,2.717143999999992,3839
44.572663999999946,2.717143999999992,3908
43.92466399999995,2.0691439999999925,3759
42.30466399999996,2.0691439999999925,3912
42.62866399999996,2.0691439999999925,3819
42.62866399999996,1.4211439999999929,3812
42.95266399999996,1.4211439999999929,3805
43.276663999999954,1.4211439999999929,3759
46.516663999999935,-1.170856000000006,3761
46.19266399999994,-1.170856000000006,3803
45.86866399999994,-0.5228560000000062,3795
45.54466399999994,-0.5228560000000062,3776
48.46066399999992,1.4211439999999929,3175
41.332663999999966,2.0691439999999925,4063
41.98066399999996,2.717143999999992,3978
48.46066399999992,-1.8188560000000056,3774
47.81266399999993,0.7731439999999932,3223
46.84066399999993,0.7731439999999932,3274
44.572663999999946,-1.170856000000006,3693
43.60066399999995,-1.170856000000006,3751
43.276663999999954,-1.8188560000000056,3786
43.276663999999954,0.1251439999999934,3820
42.95266399999996,0.1251439999999934,3824
43.276663999999954,-0.5228560000000062,3788
43.60066399999995,-0.5228560000000062,3776
47.81266399999993,-3.7628560000000046,3835
47.48866399999993,-2.4668560000000053,3794
47.81266399999993,-0.5228560000000062,3727
46.516663999999935,-1.8188560000000056,3786
48.136663999999925,-1.170856000000006,3713
47.48866399999993,-1.170856000000006,3721
45.22066399999994,8.54914399999999,3368
45.22066399999994,7.90114399999999,3379
46.19266399999994,-0.5228560000000062,3771
46.516663999999935,-0.5228560000000062,3753
48.78466399999992,-3.114856000000005,3858
50.72866399999991,2.0691439999999925,3120
50.40466399999991,2.0691439999999925,3136
40.36066399999997,-3.7628560000000046,4305
41.65666399999997,-1.170856000000006,4222
41.332663999999966,1.4211439999999929,4160
43.276663999999954,13.733143999999989,65535
42.95266399999996,13.733143999999989,65535
41.65666399999997,15.029143999999986,65535
40.68466399999997,17.621143999999987,65535
43.60066399999995,13.085143999999987,65535
41.65666399999997,12.437143999999988,65535
41.65666399999997,13.085143999999987,65535
41.98066399999996,13.085143999999987,65535
41.65666399999997,13.733143999999989,65535
41.332663999999966,13.733143999999989,65535
41.332663999999966,14.381143999999988,65535
41.00866399999997,14.381143999999988,65535
41.332663999999966,13.085143999999987,65535
41.00866399999997,15.029143999999986,65535
41.98066399999996,13.733143999999989,65535
42.30466399999996,14.381143999999988,65535
42.30466399999996,12.437143999999988,65535
42.62866399999996,12.437143999999988,65535
42.95266399999996,12.437143999999988,65535
42.30466399999996,11.789143999999988,65535
42.95266399999996,11.789143999999988,65535
42.62866399999996,11.789143999999988,65535
43.276663999999954,11.789143999999988,65535
42.95266399999996,13.085143999999987,65535
42.30466399999996,13.085143999999987,65535
43.276663999999954,13.085143999999987,65535
43.276663999999954,12.437143999999988,65535
42.62866399999996,11.141143999999988,65535
42.95266399999996,11.141143999999988,65535
42.95266399999996,10.493143999999988,65535
44.572663999999946,8.54914399999999,3770
44.89666399999994,7.90114399999999,3667
44.89666399999994,9.197143999999987,3375
44.24866399999995,7.90114399999999,3759
44.572663999999946,7.90114399999999,3701
43.92466399999995,7.90114399999999,3843
44.24866399999995,7.25314399999999,3756
44.89666399999994,7.25314399999999,3738
45.22066399999994,7.25314399999999,3658
45.54466399999994,7.90114399999999,3720
44.572663999999946,7.25314399999999,3742
52.996663999999896,22.805143999999984,3893
52.996663999999896,23.45314399999998,3933
51.37666399999991,22.15714399999998,3863
51.37666399999991,22.805143999999984,3890
50.08066399999991,20.213143999999986,3704
50.72866399999991,20.213143999999986,3764
50.40466399999991,20.213143999999986,3742
50.08066399999991,20.86114399999998,3753
50.08066399999991,21.50914399999997,3760
50.08066399999991,22.15714399999998,3770
50.08066399999991,22.805143999999984,3787
53.96866399999989,22.805143999999984,4103
53.64466399999989,23.45314399999998,4079
53.32066399999989,23.45314399999998,4055
50.40466399999991,19.565143999999982,3665
50.08066399999991,18.917143999999983,3655
50.08066399999991,18.269143999999983,3414
52.0246639999999,22.805143999999984,3820
52.0246639999999,23.45314399999998,3858
51.37666399999991,19.565143999999982,3737
51.05266399999991,19.565143999999982,3710
50.72866399999991,18.917143999999983,3652
50.72866399999991,19.565143999999982,3751
49.75666399999992,18.917143999999983,3655
50.40466399999991,18.269143999999983,3385
53.64466399999989,19.565143999999982,3771
53.96866399999989,18.917143999999983,3780
53.64466399999989,18.917143999999983,3819
53.64466399999989,20.213143999999986,3821
52.996663999999896,18.917143999999983,3732
52.996663999999896,18.269143999999983,3635
53.32066399999989,18.917143999999983,3755
50.72866399999991,17.621143999999987,3306
50.72866399999991,18.269143999999983,3611
52.6726639999999,16.325143999999987,3313
52.996663999999896,16.325143999999987,3260
52.996663999999896,15.677143999999986,3234
53.32066399999989,15.677143999999986,3335
53.32066399999989,15.029143999999986,3146
53.64466399999989,15.029143999999986,3166
53.96866399999989,15.029143999999986,3156
52.6726639999999,18.917143999999983,3762
53.32066399999989,16.325143999999987,3716
52.6726639999999,15.029143999999986,3166
51.05266399999991,22.805143999999984,3924
51.05266399999991,23.45314399999998,3937
50.72866399999991,22.15714399999998,3966
50.40466399999991,22.15714399999998,3982
51.05266399999991,22.15714399999998,3992
54.616663999999886,16.973143999999984,3718
54.29266399999989,16.325143999999987,3185
53.96866399999989,15.677143999999986,3162
50.72866399999991,21.50914399999997,3937
50.40466399999991,21.50914399999997,3795
50.40466399999991,17.621143999999987,3735
53.32066399999989,22.805143999999984,3994
53.64466399999989,22.15714399999998,4018
54.29266399999989,16.973143999999984,3698
50.72866399999991,20.86114399999998,3806
51.700663999999904,22.805143999999984,4110
51.05266399999991,21.50914399999997,3873
50.08066399999991,19.565143999999982,3673
52.0246639999999,18.917143999999983,3784
52.0246639999999,19.565143999999982,3794
53.64466399999989,18.269143999999983,3721
51.700663999999904,20.213143999999986,3823
53.32066399999989,19.565143999999982,3765
50.72866399999991,23.45314399999998,4075
50.72866399999991,22.805143999999984,4044
49.43266399999992,20.213143999999986,3678
49.75666399999992,21.50914399999997,3837
49.75666399999992,22.15714399999998,4132
49.43266399999992,22.15714399999998,4092
51.05266399999991,18.917143999999983,3813
51.05266399999991,18.269143999999983,3344
53.32066399999989,16.973143999999984,3700
53.64466399999989,16.973143999999984,3242
49.75666399999992,20.86114399999998,3807
50.40466399999991,22.805143999999984,4642
53.64466399999989,16.325143999999987,3196
53.96866399999989,20.86114399999998,3869
54.29266399999989,20.86114399999998,3912
53.96866399999989,21.50914399999997,3957
53.64466399999989,15.677143999999986,3159
53.96866399999989,20.213143999999986,3854
53.96866399999989,19.565143999999982,3791
54.29266399999989,19.565143999999982,3804
53.96866399999989,16.325143999999987,3174
53.64466399999989,17.621143999999987,3726
53.96866399999989,22.15714399999998,4036
53.64466399999989,21.50914399999997,3974
53.64466399999989,20.86114399999998,3927
52.6726639999999,15.677143999999986,3217
51.05266399999991,20.213143999999986,3843
54.940663999999884,24.101143999999977,65535
54.616663999999886,23.45314399999998,65535
54.29266399999989,23.45314399999998,65535
53.64466399999989,22.805143999999984,4043
53.96866399999989,16.973143999999984,3690
50.40466399999991,20.86114399999998,3928
53.32066399999989,18.269143999999983,3684
49.75666399999992,19.565143999999982,3703
50.40466399999991,23.45314399999998,4396
49.75666399999992,20.213143999999986,3682
49.43266399999992,19.565143999999982,3657
49.43266399999992,20.86114399999998,3759
53.96866399999989,17.621143999999987,3934
42.30466399999996,-1.8188560000000056,4428
41.98066399999996,-1.8188560000000056,4412
41.65666399999997,0.7731439999999932,4477
42.62866399999996,-1.8188560000000056,4438
42.95266399999996,-1.8188560000000056,4407
42.62866399999996,-3.114856000000005,4398
42.95266399999996,-2.4668560000000053,4327
42.62866399999996,-7.650856000000003,65535
42.30466399999996,-7.650856000000003,65535
42.30466399999996,-8.946856000000002,65535
42.30466399999996,-8.298856000000002,65535
41.98066399999996,-8.298856000000002,65535
42.30466399999996,-7.002856000000003,65535
42.62866399999996,-6.354856000000003,65535
42.30466399999996,-6.354856000000003,65535
42.62866399999996,-5.706856000000004,4527
41.98066399999996,-4.410856000000004,4497
42.30466399999996,-3.7628560000000046,4455
40.03666399999997,-0.5228560000000062,4298
39.38866399999998,-0.5228560000000062,4368
41.00866399999997,0.7731439999999932,4217
40.68466399999997,0.7731439999999932,4238
40.36066399999997,0.1251439999999934,4253
39.712663999999975,-0.5228560000000062,4329
38.41666399999998,-0.5228560000000062,4557
39.06466399999998,-0.5228560000000062,4422
38.74066399999998,-1.170856000000006,4478
41.332663999999966,0.7731439999999932,4513
41.65666399999997,2.717143999999992,4010
41.65666399999997,2.0691439999999925,4045
41.332663999999966,0.1251439999999934,65535
41.332663999999966,-0.5228560000000062,65535
41.65666399999997,-4.410856000000004,4482
40.03666399999997,-2.4668560000000053,4630
41.00866399999997,-4.410856000000004,4411
43.276663999999954,-5.706856000000004,4663
39.38866399999998,-1.170856000000006,4601
38.09266399999999,-1.170856000000006,4540
38.74066399999998,-0.5228560000000062,4462
37.76866399999999,-1.170856000000006,4587
39.06466399999998,-1.8188560000000056,4459
39.38866399999998,-3.114856000000005,4464
39.38866399999998,-2.4668560000000053,4491
39.06466399999998,-2.4668560000000053,4495
39.06466399999998,-3.114856000000005,4576
39.06466399999998,-3.7628560000000046,4590
38.74066399999998,-3.7628560000000046,4603
40.03666399999997,-3.7628560000000046,4358
40.03666399999997,-3.114856000000005,65535
40.03666399999997,-1.8188560000000056,65535
39.712663999999975,-1.8188560000000056,65535
39.712663999999975,-1.170856000000006,65535
40.36066399999997,-1.170856000000006,65535
40.68466399999997,-1.170856000000006,65535
41.00866399999997,-1.170856000000006,65535
41.332663999999966,-1.170856000000006,4395
43.276663999999954,-8.298856000000002,65535
42.95266399999996,-8.298856000000002,65535
41.65666399999997,-5.706856000000004,65535
41.98066399999996,-7.002856000000003,65535
41.98066399999996,-6.354856000000003,65535
41.332663999999966,-5.058856000000004,4599
43.276663999999954,-3.7628560000000046,4652
42.95266399999996,-4.410856000000004,4596
42.62866399999996,-4.410856000000004,4564
42.30466399999996,-4.410856000000004,4529
41.00866399999997,-5.706856000000004,65535
41.332663999999966,-1.8188560000000056,4400
40.68466399999997,-3.114856000000005,4570
41.00866399999997,-3.114856000000005,4624
41.00866399999997,-2.4668560000000053,4650
41.332663999999966,-2.4668560000000053,65535
40.68466399999997,-4.410856000000004,4390
40.36066399999997,-4.410856000000004,4717
40.68466399999997,-3.7628560000000046,4332
40.36066399999997,-3.114856000000005,4558
41.65666399999997,-2.4668560000000053,65535
38.09266399999999,-3.7628560000000046,65535
38.74066399999998,-3.114856000000005,65535
37.76866399999999,-3.7628560000000046,65535
39.712663999999975,-3.114856000000005,4447
38.41666399999998,-3.7628560000000046,65535
40.03666399999997,-4.410856000000004,65535
40.03666399999997,-5.058856000000004,65535
39.38866399999998,-6.354856000000003,65535
39.38866399999998,-7.002856000000003,65535
42.95266399999996,-3.114856000000005,4648
41.98066399999996,-1.170856000000006,4404
42.30466399999996,-2.4668560000000053,4752
41.65666399999997,-0.5228560000000062,65535
41.98066399999996,-0.5228560000000062,65535
41.65666399999997,0.1251439999999934,65535
41.98066399999996,0.1251439999999934,65535
37.76866399999999,-5.058856000000004,4692
36.79666399999999,-4.410856000000004,4754
38.74066399999998,-4.410856000000004,65535
37.12066399999999,-4.410856000000004,4728
37.44466399999999,-5.058856000000004,4715
37.44466399999999,-7.002856000000003,65535
37.44466399999999,-6.354856000000003,65535
37.44466399999999,-5.706856000000004,4629
39.712663999999975,-3.7628560000000046,65535
42.62866399999996,-8.946856000000002,65535
42.30466399999996,-5.706856000000004,65535
42.30466399999996,-5.058856000000004,65535
42.95266399999996,-5.706856000000004,65535
41.00866399999997,-5.058856000000004,65535
40.68466399999997,-5.058856000000004,65535
41.65666399999997,-5.058856000000004,65535
41.65666399999997,-6.354856000000003,65535
36.79666399999999,-6.354856000000003,65535
37.12066399999999,-5.706856000000004,65535
37.76866399999999,-5.706856000000004,65535
38.09266399999999,-4.410856000000004,65535
37.12066399999999,-5.058856000000004,65535
36.79666399999999,-5.058856000000004,65535
37.76866399999999,-4.410856000000004,65535
37.76866399999999,-7.002856000000003,65535
38.41666399999998,-6.354856000000003,65535
38.09266399999999,-6.354856000000003,65535
48.78466399999992,1.4211439999999929,3686
56.23666399999988,8.54914399999999,2860
55.58866399999988,9.197143999999987,2788
55.91266399999988,9.197143999999987,2836
55.26466399999988,10.493143999999988,2778
55.91266399999988,12.437143999999988,2733
55.58866399999988,11.789143999999988,2741
55.58866399999988,11.141143999999988,2756
55.26466399999988,11.789143999999988,2748
55.58866399999988,10.493143999999988,2785
55.58866399999988,13.085143999999987,2740
56.88466399999987,9.845143999999989,2842
57.20866399999987,9.845143999999989,2853
56.56066399999988,9.845143999999989,2814
56.88466399999987,8.54914399999999,2927
54.940663999999884,9.845143999999989,3436
54.940663999999884,11.789143999999988,2789
55.91266399999988,13.085143999999987,2726
56.23666399999988,13.733143999999989,2702
55.91266399999988,13.733143999999989,2729
56.23666399999988,14.381143999999988,2731
56.23666399999988,15.029143999999986,2772
56.23666399999988,15.677143999999986,2772
56.56066399999988,14.381143999999988,2692
56.88466399999987,14.381143999999988,2665
56.23666399999988,13.085143999999987,2732
56.56066399999988,13.085143999999987,2703
56.88466399999987,12.437143999999988,2684
57.20866399999987,12.437143999999988,2664
57.53266399999987,12.437143999999988,2639
56.88466399999987,15.029143999999986,2689
56.56066399999988,15.677143999999986,2727
56.88466399999987,15.677143999999986,2745
56.88466399999987,16.325143999999987,2764
55.91266399999988,11.789143999999988,2741
57.20866399999987,10.493143999999988,3064
49.43266399999992,1.4211439999999929,3212
49.75666399999992,0.7731439999999932,3235
49.75666399999992,2.0691439999999925,3138
50.08066399999991,2.717143999999992,3115
49.75666399999992,1.4211439999999929,3184
47.81266399999993,1.4211439999999929,3289
48.136663999999925,2.0691439999999925,3753
48.46066399999992,2.0691439999999925,3734
48.136663999999925,1.4211439999999929,3716
48.78466399999992,0.1251439999999934,3767
48.46066399999992,0.1251439999999934,3783
47.81266399999993,0.1251439999999934,3746
46.84066399999993,-0.5228560000000062,3307
47.16466399999993,0.7731439999999932,3743
46.84066399999993,0.1251439999999934,3719
46.84066399999993,-1.170856000000006,3742
50.08066399999991,1.4211439999999929,3147
50.08066399999991,2.0691439999999925,3164
49.43266399999992,2.717143999999992,3144
49.75666399999992,3.365143999999992,3162
50.08066399999991,3.365143999999992,3142
49.10866399999992,2.0691439999999925,3215
49.43266399999992,2.0691439999999925,3191
48.78466399999992,0.7731439999999932,3817
48.78466399999992,-0.5228560000000062,3937
48.78466399999992,-1.170856000000006,3829
48.136663999999925,0.7731439999999932,3710
48.46066399999992,0.7731439999999932,3316
43.92466399999995,5.957143999999991,3907
44.24866399999995,5.957143999999991,3945
43.92466399999995,5.309143999999991,3708
42.95266399999996,2.717143999999992,3796
45.54466399999994,2.0691439999999925,4034
45.22066399999994,2.0691439999999925,3804
42.95266399999996,2.0691439999999925,3817
42.95266399999996,0.7731439999999932,3808
43.276663999999954,0.7731439999999932,3774
46.19266399999994,0.7731439999999932,3768
46.516663999999935,0.7731439999999932,3736
45.86866399999994,0.1251439999999934,3747
46.19266399999994,0.1251439999999934,3764
47.81266399999993,-1.170856000000006,3856
48.136663999999925,-2.4668560000000053,3768
47.48866399999993,-1.8188560000000056,3756
47.16466399999993,-1.170856000000006,3732
47.16466399999993,-0.5228560000000062,3763
46.84066399999993,-1.8188560000000056,3840
45.22066399999994,-0.5228560000000062,3746
44.89666399999994,0.1251439999999934,3740
45.22066399999994,0.7731439999999932,3774
45.54466399999994,0.7731439999999932,3818
45.86866399999994,0.7731439999999932,3812
45.22066399999994,0.1251439999999934,3753
44.89666399999994,0.7731439999999932,3799
43.92466399999995,-0.5228560000000062,3787
43.92466399999995,-1.170856000000006,3731
44.24866399999995,-1.170856000000006,3711
45.22066399999994,-1.170856000000006,3833
44.572663999999946,-0.5228560000000062,3765
44.24866399999995,0.1251439999999934,3799
44.572663999999946,0.7731439999999932,3867
43.276663999999954,-1.170856000000006,3770
42.95266399999996,-0.5228560000000062,3972
44.24866399999995,2.0691439999999925,3824
43.60066399999995,0.7731439999999932,3791
43.60066399999995,2.0691439999999925,3733
52.6726639999999,4.661143999999991,3099
52.6726639999999,5.309143999999991,3114
51.700663999999904,5.309143999999991,3068
52.0246639999999,5.309143999999991,3078
52.3486639999999,5.309143999999991,3080
51.37666399999991,4.013143999999992,3106
52.3486639999999,5.957143999999991,3068
52.0246639999999,6.60514399999999,3069
52.6726639999999,5.957143999999991,3081
52.996663999999896,5.957143999999991,3088
53.32066399999989,5.957143999999991,3075
52.996663999999896,6.60514399999999,3057
53.32066399999989,6.60514399999999,3051
52.6726639999999,6.60514399999999,3070
52.996663999999896,5.309143999999991,3096
59.15266399999986,24.101143999999977,65535
56.88466399999987,24.101143999999977,65535
56.88466399999987,23.45314399999998,65535
56.88466399999987,22.805143999999984,65535
57.20866399999987,24.74914399999998,65535
56.88466399999987,24.74914399999998,65535
56.56066399999988,24.74914399999998,65535
56.56066399999988,25.397143999999983,65535
56.56066399999988,24.101143999999977,65535
56.56066399999988,23.45314399999998,65535
56.56066399999988,26.04514399999998,65535
56.88466399999987,26.04514399999998,65535
57.20866399999987,25.397143999999983,65535
57.53266399999987,25.397143999999983,65535
56.23666399999988,26.04514399999998,65535
56.23666399999988,26.69314399999997,65535
55.91266399999988,26.69314399999997,65535
56.56066399999988,26.69314399999997,65535
56.56066399999988,27.34114399999998,65535
56.56066399999988,27.989143999999985,65535
56.23666399999988,27.989143999999985,65535
55.91266399999988,27.34114399999998,65535
56.56066399999988,22.805143999999984,65535
56.56066399999988,22.15714399999998,65535
56.56066399999988,21.50914399999997,65535
57.20866399999987,26.69314399999997,65535
39.06466399999998,-8.946856000000002,65535
38.41666399999998,-8.298856000000002,65535
45.86866399999994,11.789143999999988,4468
46.19266399999994,11.789143999999988,4455
46.19266399999994,10.493143999999988,4495
45.22066399999994,18.269143999999983,4332
45.22066399999994,18.917143999999983,4373
45.54466399999994,16.973143999999984,4235
45.22066399999994,17.621143999999987,4276
45.86866399999994,16.325143999999987,4196
45.54466399999994,18.917143999999983,4420
45.54466399999994,16.325143999999987,4210
45.54466399999994,18.269143999999983,4388
44.89666399999994,18.917143999999983,4570
46.19266399999994,16.973143999999984,4196
46.19266399999994,16.325143999999987,4201
45.86866399999994,16.973143999999984,4213
45.86866399999994,17.621143999999987,4308
46.19266399999994,15.677143999999986,4170
46.516663999999935,16.325143999999987,4175
45.54466399999994,15.677143999999986,4245
45.22066399999994,15.029143999999986,4281
45.54466399999994,15.029143999999986,4242
45.22066399999994,15.677143999999986,4306
44.572663999999946,15.677143999999986,4459
44.24866399999995,15.677143999999986,4480
43.92466399999995,16.325143999999987,4544
44.89666399999994,15.677143999999986,4423
45.54466399999994,17.621143999999987,4287
45.22066399999994,16.325143999999987,4265
46.516663999999935,16.973143999999984,4188
45.86866399999994,18.269143999999983,4480
43.92466399999995,15.677143999999986,4646
45.22066399999994,13.733143999999989,4290
47.48866399999993,19.565143999999982,3782
47.16466399999993,18.917143999999983,3786
47.81266399999993,18.917143999999983,3772
45.54466399999994,9.845143999999989,3739
45.22066399999994,9.845143999999989,3748
45.22066399999994,10.493143999999988,3799
45.86866399999994,9.845143999999989,3764
45.86866399999994,10.493143999999988,65535
48.78466399999992,21.50914399999997,3770
49.10866399999992,20.213143999999986,3741
49.10866399999992,18.917143999999983,3617
48.46066399999992,17.621143999999987,3674
49.43266399999992,17.621143999999987,3853
49.10866399999992,17.621143999999987,3712
48.136663999999925,18.269143999999983,3715
49.10866399999992,18.269143999999983,3666
49.43266399999992,18.269143999999983,3678
49.43266399999992,16.973143999999984,3643
49.75666399999992,16.973143999999984,3801
49.75666399999992,16.325143999999987,3694
50.08066399999991,15.677143999999986,3323
50.08066399999991,15.029143999999986,3298
49.43266399999992,18.917143999999983,3590
47.81266399999993,20.86114399999998,3955
48.136663999999925,20.86114399999998,3890
48.46066399999992,20.86114399999998,3877
48.46066399999992,21.50914399999997,3784
49.10866399999992,19.565143999999982,3633
48.136663999999925,17.621143999999987,3661
48.78466399999992,22.15714399999998,3957
48.78466399999992,20.86114399999998,3839
49.10866399999992,20.86114399999998,3761
48.78466399999992,18.269143999999983,3671
48.78466399999992,17.621143999999987,3614
49.10866399999992,21.50914399999997,3766
48.78466399999992,20.213143999999986,4190
48.46066399999992,20.213143999999986,4217
48.136663999999925,19.565143999999982,4485
48.46066399999992,19.565143999999982,4364
48.46066399999992,18.917143999999983,3814
48.46066399999992,18.269143999999983,3719
48.78466399999992,19.565143999999982,4130
48.78466399999992,18.917143999999983,3872
47.81266399999993,18.269143999999983,3727
49.10866399999992,22.15714399999998,4004
49.43266399999992,21.50914399999997,3793
48.136663999999925,18.917143999999983,3807
48.136663999999925,20.213143999999986,4505
52.636,-8.018,65535
52.312,-7.370000000000001,65535
52.312,-8.018,65535
52.636,-8.666,65535
51.988,-8.666,65535
51.988,-8.018,65535
52.96,-8.666,65535
52.96,-6.074000000000002,65535
53.28399999999999,-6.722000000000001,65535
53.60799999999999,-6.722000000000001,65535
53.60799999999999,-7.370000000000001,65535
53.60799999999999,-8.018,65535
54.25599999999999,-8.666,65535
53.93199999999999,-8.666,65535
53.93199999999999,-8.018,65535
52.312,-6.722000000000001,65535
52.636,-6.722000000000001,65535
53.93199999999999,-6.722000000000001,65535
54.25599999999999,-6.074000000000002,65535
53.28399999999999,-7.370000000000001,65535
52.96,-7.370000000000001,65535
52.312,-8.666,65535
52.96,-8.018,65535
52.636,-7.370000000000001,65535
52.96,-6.722000000000001,65535
51.988,-9.314,65535
52.312,-9.314,65535
54.579999999999984,-6.722000000000001,65535
54.579999999999984,-6.074000000000002,65535
53.28399999999999,-8.018,65535
53.28399999999999,-8.666,65535
53.28399999999999,-9.314,65535
53.93199999999999,-9.314,65535
54.25599999999999,-9.314,65535
53.60799999999999,-8.666,65535
53.60799999999999,-9.314,65535
49.43266399999992,14.381143999999988,3406
49.75666399999992,14.381143999999988,3326
49.75666399999992,15.029143999999986,3317
49.75666399999992,13.733143999999989,3325
50.08066399999991,13.733143999999989,3321
49.75666399999992,15.677143999999986,3305
50.40466399999991,15.029143999999986,3289
49.43266399999992,13.733143999999989,3376
50.40466399999991,15.677143999999986,3623
50.40466399999991,13.733143999999989,3328
46.19266399999994,15.029143999999986,4153
45.86866399999994,15.029143999999986,4198
45.86866399999994,14.381143999999988,4175
46.19266399999994,13.733143999999989,4262
45.86866399999994,13.733143999999989,4348
58.50466399999986,13.733143999999989,2550
58.180663999999865,13.733143999999989,2576
58.180663999999865,13.085143999999987,2592
57.85666399999987,12.437143999999988,2614
60.44866399999985,15.677143999999986,2421
60.124663999999854,15.677143999999986,2495
60.124663999999854,16.325143999999987,2479
59.800663999999855,16.325143999999987,2459
59.800663999999855,17.621143999999987,2399
59.47666399999986,18.269143999999983,2425
61.74466399999984,16.973143999999984,2283
61.420663999999846,16.973143999999984,2311
60.77266399999985,16.973143999999984,2354
65.63266399999982,22.15714399999998,1660
65.95666399999982,21.50914399999997,1639
65.63266399999982,20.86114399999998,1674
64.98466399999982,20.213143999999986,1729
64.66066399999983,20.213143999999986,1748
64.33666399999983,19.565143999999982,1792
64.01266399999983,19.565143999999982,1811
63.68866399999983,20.213143999999986,1855
64.66066399999983,18.917143999999983,2514
59.15266399999986,16.325143999999987,2485
59.15266399999986,15.029143999999986,2520
59.15266399999986,17.621143999999987,2435
57.53266399999987,14.381143999999988,2629
57.53266399999987,15.029143999999986,2730
61.09666399999985,14.381143999999988,2524
60.77266399999985,15.029143999999986,2479
60.44866399999985,15.029143999999986,2468
58.180663999999865,15.029143999999986,2585
58.50466399999986,16.325143999999987,2522
58.50466399999986,15.677143999999986,2549
63.36466399999984,13.085143999999987,2628
63.04066399999984,14.381143999999988,2436
62.39266399999984,15.677143999999986,2353
63.36466399999984,13.733143999999989,2610
63.36466399999984,14.381143999999988,2579
62.71666399999984,15.677143999999986,2381
62.39266399999984,17.621143999999987,2217
59.800663999999855,15.677143999999986,2973
55.58866399999988,13.733143999999989,2768
57.20866399999987,14.381143999999988,2643
57.85666399999987,14.381143999999988,2627
58.82866399999986,16.973143999999984,2504
58.82866399999986,16.325143999999987,2529
59.15266399999986,18.269143999999983,2431
60.44866399999985,17.621143999999987,2389
59.15266399999986,12.437143999999988,2708
59.15266399999986,13.085143999999987,2698
58.82866399999986,12.437143999999988,2734
59.47666399999986,16.325143999999987,2470
58.82866399999986,14.381143999999988,2609
59.47666399999986,15.677143999999986,2485
63.36466399999984,18.917143999999983,2082
63.04066399999984,17.621143999999987,2130
62.71666399999984,17.621143999999987,2161
63.68866399999983,19.565143999999982,2227
62.39266399999984,16.973143999999984,2235
59.800663999999855,16.973143999999984,2455
59.47666399999986,17.621143999999987,2422
57.85666399999987,13.085143999999987,2613
57.53266399999987,13.085143999999987,2786
58.50466399999986,11.789143999999988,2690
57.85666399999987,15.029143999999986,2668
57.20866399999987,13.733143999999989,2655
57.53266399999987,13.733143999999989,2774
61.74466399999984,16.325143999999987,2431
61.420663999999846,16.325143999999987,2381
61.09666399999985,16.325143999999987,2369
61.09666399999985,16.973143999999984,2350
60.124663999999854,15.029143999999986,2571
66.60466399999981,20.86114399999998,2337
67.25266399999981,20.86114399999998,2405
67.90066399999981,20.213143999999986,2475
67.57666399999981,20.213143999999986,3100
59.800663999999855,15.029143999999986,2556
58.50466399999986,15.029143999999986,2578
59.47666399999986,15.029143999999986,2541
60.44866399999985,16.325143999999987,2383
59.15266399999986,15.677143999999986,2547
57.85666399999987,13.733143999999989,2609
58.82866399999986,13.733143999999989,2579
58.50466399999986,13.085143999999987,2620
57.20866399999987,13.085143999999987,2823
56.88466399999987,13.085143999999987,2831
58.180663999999865,11.789143999999988,2661
62.06866399999984,16.973143999999984,2283
65.95666399999982,23.45314399999998,1576
59.800663999999855,14.381143999999988,65535
59.800663999999855,18.269143999999983,2453
63.04066399999984,15.029143999999986,2398
62.71666399999984,15.029143999999986,2389
62.39266399999984,16.325143999999987,2320
63.36466399999984,12.437143999999988,3008
68.5486639999998,17.621143999999987,2688
68.5486639999998,18.269143999999983,2621
68.5486639999998,18.917143999999983,2598
68.2246639999998,18.917143999999983,2554
59.800663999999855,13.085143999999987,2755
60.124663999999854,13.085143999999987,2803
59.47666399999986,16.973143999999984,2501
59.15266399999986,16.973143999999984,2493
56.56066399999988,13.733143999999989,2778
60.124663999999854,17.621143999999987,2418
57.85666399999987,16.325143999999987,2718
58.180663999999865,16.325143999999987,2683
58.180663999999865,15.677143999999986,2699
57.20866399999987,16.325143999999987,2790
57.53266399999987,15.677143999999986,2748
57.85666399999987,15.677143999999986,2719
44.89666399999994,23.45314399999998,65535
44.572663999999946,23.45314399999998,65535
44.89666399999994,24.74914399999998,65535
44.572663999999946,24.74914399999998,65535
44.572663999999946,24.101143999999977,65535
44.24866399999995,24.101143999999977,65535
47.48866399999993,25.397143999999983,65535
47.48866399999993,24.74914399999998,65535
47.16466399999993,24.74914399999998,65535
47.16466399999993,24.101143999999977,65535
47.48866399999993,22.15714399999998,65535
47.81266399999993,22.15714399999998,65535
47.16466399999993,22.15714399999998,65535
47.16466399999993,23.45314399999998,65535
47.16466399999993,22.805143999999984,65535
46.84066399999993,24.101143999999977,65535
45.86866399999994,27.34114399999998,65535
45.54466399999994,27.34114399999998,65535
45.54466399999994,27.989143999999985,65535
45.86866399999994,20.86114399999998,65535
45.86866399999994,21.50914399999997,65535
46.19266399999994,21.50914399999997,65535
46.19266399999994,27.34114399999998,65535
46.19266399999994,26.69314399999997,65535
46.516663999999935,26.69314399999997,65535
46.516663999999935,26.04514399999998,65535
47.48866399999993,22.805143999999984,65535
46.84066399999993,22.805143999999984,65535
45.54466399999994,22.15714399999998,65535
45.22066399999994,22.15714399999998,65535
44.89666399999994,22.15714399999998,65535
47.48866399999993,23.45314399999998,65535
46.516663999999935,24.101143999999977,65535
46.516663999999935,24.74914399999998,65535
45.86866399999994,24.101143999999977,65535
47.16466399999993,26.69314399999997,65535
47.16466399999993,27.34114399999998,65535
43.92466399999995,25.397143999999983,65535
44.24866399999995,24.74914399999998,65535
44.89666399999994,26.04514399999998,65535
44.89666399999994,26.69314399999997,65535
45.22066399999994,26.69314399999997,65535
45.22066399999994,27.34114399999998,65535
46.84066399999993,26.69314399999997,65535
47.48866399999993,26.69314399999997,65535
44.24866399999995,25.397143999999983,65535
43.92466399999995,26.04514399999998,65535
46.19266399999994,24.101143999999977,65535
44.572663999999946,25.397143999999983,65535
46.84066399999993,24.74914399999998,65535
46.516663999999935,21.50914399999997,65535
46.84066399999993,21.50914399999997,65535
44.572663999999946,26.69314399999997,65535
44.572663999999946,27.34114399999998,65535
44.89666399999994,27.34114399999998,65535
44.572663999999946,27.989143999999985,65535
44.24866399999995,27.989143999999985,65535
44.572663999999946,28.63714399999997,65535
45.86866399999994,22.15714399999998,65535
45.86866399999994,22.805143999999984,65535
44.24866399999995,23.45314399999998,65535
43.92466399999995,27.989143999999985,65535
46.84066399999993,27.34114399999998,65535
45.22066399999994,23.45314399999998,65535
45.54466399999994,23.45314399999998,65535
45.54466399999994,24.101143999999977,65535
45.22066399999994,24.101143999999977,65535
44.89666399999994,24.101143999999977,65535
46.19266399999994,22.15714399999998,65535
46.516663999999935,22.15714399999998,65535
45.22066399999994,21.50914399999997,65535
45.54466399999994,21.50914399999997,65535
45.54466399999994,20.86114399999998,65535
46.516663999999935,27.989143999999985,65535
46.19266399999994,27.989143999999985,65535
45.54466399999994,25.397143999999983,65535
45.22066399999994,25.397143999999983,65535
45.22066399999994,26.04514399999998,65535
47.81266399999993,24.101143999999977,65535
47.48866399999993,26.04514399999998,65535
47.81266399999993,26.04514399999998,65535
46.19266399999994,23.45314399999998,65535
45.86866399999994,23.45314399999998,65535
44.24866399999995,26.04514399999998,65535
45.22066399999994,27.989143999999985,65535
45.86866399999994,24.74914399999998,65535
46.516663999999935,25.397143999999983,65535
46.84066399999993,25.397143999999983,65535
46.19266399999994,26.04514399999998,65535
45.86866399999994,26.04514399999998,65535
43.92466399999995,23.45314399999998,65535
44.89666399999994,25.397143999999983,65535
46.19266399999994,20.86114399999998,65535
47.81266399999993,25.397143999999983,65535
44.572663999999946,22.805143999999984,65535
44.572663999999946,22.15714399999998,65535
46.516663999999935,23.45314399999998,65535
45.86866399999994,25.397143999999983,65535
44.24866399999995,27.34114399999998,65535
45.22066399999994,24.74914399999998,65535
45.54466399999994,22.805143999999984,65535
45.22066399999994,28.63714399999997,65535
44.89666399999994,28.63714399999997,65535
47.81266399999993,23.45314399999998,65535
46.19266399999994,24.74914399999998,65535
46.19266399999994,25.397143999999983,65535
43.92466399999995,24.101143999999977,65535
43.92466399999995,24.74914399999998,65535
47.81266399999993,26.69314399999997,65535
47.48866399999993,24.101143999999977,65535
46.84066399999993,26.04514399999998,65535
46.19266399999994,22.805143999999984,65535
47.48866399999993,27.34114399999998,65535
46.19266399999994,20.213143999999986,65535
45.54466399999994,26.04514399999998,65535
44.24866399999995,26.69314399999997,65535
45.86866399999994,27.989143999999985,65535
47.81266399999993,5.957143999999991,65535
