51.56399999999999,-0.4100000000000028,65535
51.887999999999984,-0.4100000000000028,65535
50.91599999999999,-1.7060000000000022,65535
51.23999999999999,-1.0580000000000025,65535
51.56399999999999,-1.0580000000000025,65535
51.23999999999999,-1.7060000000000022,65535
51.56399999999999,0.2379999999999968,65535
47.16466399999993,9.845143999999989,1704
47.48866399999993,9.845143999999989,1692
48.136663999999925,14.381143999999988,1484
47.81266399999993,13.085143999999987,1552
47.16466399999993,11.141143999999988,1664
47.48866399999993,11.789143999999988,1637
48.136663999999925,16.325143999999987,1379
47.48866399999993,12.437143999999988,1562
48.136663999999925,15.677143999999986,1415
47.16466399999993,10.493143999999988,1711
47.16466399999993,9.197143999999987,1693
48.136663999999925,13.733143999999989,1507
48.136663999999925,15.029143999999986,1528
47.81266399999993,16.973143999999984,1435
48.46066399999992,14.381143999999988,1718
47.48866399999993,13.085143999999987,1555
47.16466399999993,13.085143999999987,1570
47.48866399999993,14.381143999999988,1535
47.48866399999993,13.733143999999989,1551
47.48866399999993,15.029143999999986,1482
46.516663999999935,13.733143999999989,1667
46.84066399999993,13.733143999999989,1636
46.84066399999993,13.085143999999987,1621
48.78466399999992,14.381143999999988,65535
47.16466399999993,15.677143999999986,1500
46.516663999999935,14.381143999999988,1674
46.84066399999993,14.381143999999988,1615
47.16466399999993,14.381143999999988,1565
46.516663999999935,15.029143999999986,1687
47.81266399999993,16.325143999999987,1392
47.16466399999993,15.029143999999986,1540
47.81266399999993,15.677143999999986,1438
47.48866399999993,15.677143999999986,1429
46.516663999999935,13.085143999999987,1934
46.84066399999993,12.437143999999988,1679
48.136663999999925,11.789143999999988,1579
47.81266399999993,12.437143999999988,1569
46.84066399999993,15.677143999999986,1561
46.516663999999935,15.677143999999986,1780
46.84066399999993,16.325143999999987,1545
47.81266399999993,14.381143999999988,1525
48.78466399999992,16.973143999999984,1431
48.136663999999925,16.973143999999984,1372
48.46066399999992,13.733143999999989,1547
47.81266399999993,13.733143999999989,1514
50.08066399999991,8.54914399999999,1655
48.46066399999992,9.845143999999989,1608
51.05266399999991,7.25314399999999,1689
51.37666399999991,7.25314399999999,1704
51.37666399999991,6.60514399999999,1701
48.46066399999992,16.325143999999987,1389
48.46066399999992,16.973143999999984,1389
48.78466399999992,16.325143999999987,1434
48.46066399999992,15.677143999999986,1420
48.78466399999992,15.677143999999986,1427
47.48866399999993,16.325143999999987,1396
47.16466399999993,16.325143999999987,1494
46.19266399999994,14.381143999999988,1732
45.86866399999994,15.677143999999986,1784
43.60066399999995,16.325143999999987,2200
45.54466399999994,14.381143999999988,1846
45.54466399999994,13.733143999999989,1869
48.136663999999925,13.085143999999987,1548
48.46066399999992,11.141143999999988,1594
48.136663999999925,11.141143999999988,1592
48.46066399999992,7.90114399999999,1657
49.10866399999992,8.54914399999999,1635
48.78466399999992,2.0691439999999925,1805
49.10866399999992,7.25314399999999,1671
52.0246639999999,7.90114399999999,1720
47.16466399999993,11.789143999999988,1690
49.43266399999992,11.141143999999988,1643
53.64466399999989,9.845143999999989,1829
50.72866399999991,4.013143999999992,1770
51.05266399999991,11.141143999999988,1798
47.48866399999993,11.141143999999988,1628
46.84066399999993,11.789143999999988,4502
46.516663999999935,11.141143999999988,4471
45.54466399999994,11.141143999999988,4367
46.19266399999994,11.141143999999988,4437
45.86866399999994,11.141143999999988,4421
44.572663999999946,11.141143999999988,3252
43.92466399999995,12.437143999999988,65535
45.54466399999994,12.437143999999988,4710
45.54466399999994,11.789143999999988,4675
48.78466399999992,15.029143999999986,1452
47.81266399999993,15.029143999999986,1590
47.81266399999993,11.141143999999988,1609
50.40466399999991,18.917143999999983,1849
52.3486639999999,20.86114399999998,2059
54.616663999999886,18.269143999999983,2116
54.29266399999989,18.917143999999983,2113
49.10866399999992,14.381143999999988,65535
50.08066399999991,14.381143999999988,1674
48.78466399999992,13.733143999999989,2216
52.6726639999999,13.085143999999987,1850
52.3486639999999,13.085143999999987,1848
53.96866399999989,12.437143999999988,1956
54.29266399999989,12.437143999999988,1957
47.48866399999993,8.54914399999999,1693
47.81266399999993,17.621143999999987,1404
47.48866399999993,18.917143999999983,1280
47.48866399999993,20.86114399999998,1662
46.84066399999993,23.45314399999998,596
44.572663999999946,26.04514399999998,26
47.48866399999993,21.50914399999997,1619
47.81266399999993,21.50914399999997,2348
48.46066399999992,22.15714399999998,1537
47.48866399999993,16.973143999999984,65535
49.10866399999992,16.325143999999987,1536
49.75666399999992,18.269143999999983,1660
46.19266399999994,13.085143999999987,2783
41.98066399999996,12.437143999999988,5830
43.60066399999995,10.493143999999988,6086
45.54466399999994,9.197143999999987,1808
47.81266399999993,22.805143999999984,851
49.75666399999992,22.805143999999984,1940
50.72866399999991,3.365143999999992,1782
51.05266399999991,4.013143999999992,1775
50.72866399999991,4.661143999999991,1767
51.05266399999991,4.661143999999991,1768
51.05266399999991,3.365143999999992,1782
51.05266399999991,2.717143999999992,1802
50.40466399999991,4.661143999999991,1764
50.72866399999991,2.717143999999992,1798
50.40466399999991,4.013143999999992,1786
51.05266399999991,5.309143999999991,1771
50.72866399999991,5.309143999999991,1752
51.37666399999991,3.365143999999992,1799
51.37666399999991,4.661143999999991,1773
50.72866399999991,5.957143999999991,1733
50.40466399999991,5.957143999999991,1743
50.40466399999991,3.365143999999992,1790
50.40466399999991,5.309143999999991,1759
50.08066399999991,5.309143999999991,1777
49.75666399999992,5.309143999999991,1779
49.75666399999992,5.957143999999991,1784
51.37666399999991,5.309143999999991,1823
51.700663999999904,4.661143999999991,1818
50.08066399999991,4.013143999999992,1808
50.08066399999991,5.957143999999991,1761
50.08066399999991,4.661143999999991,1788
49.43266399999992,5.309143999999991,1760
49.43266399999992,5.957143999999991,1744
52.0246639999999,4.661143999999991,1850
52.3486639999999,4.661143999999991,1879
50.72866399999991,15.029143999999986,1699
51.05266399999991,15.029143999999986,1714
51.05266399999991,13.733143999999989,1736
50.40466399999991,13.085143999999987,1787
49.10866399999992,7.90114399999999,1654
48.78466399999992,7.90114399999999,1640
50.40466399999991,7.90114399999999,1668
50.08066399999991,7.90114399999999,1661
49.75666399999992,7.90114399999999,1668
49.43266399999992,7.90114399999999,1648
49.75666399999992,8.54914399999999,1645
49.43266399999992,8.54914399999999,1639
49.43266399999992,9.197143999999987,1668
49.10866399999992,9.197143999999987,1630
47.48866399999993,7.90114399999999,1702
47.81266399999993,7.90114399999999,1668
48.136663999999925,7.90114399999999,1656
48.136663999999925,9.845143999999989,1629
47.81266399999993,9.197143999999987,1679
47.81266399999993,8.54914399999999,1667
47.81266399999993,9.845143999999989,1667
54.940663999999884,9.197143999999987,1979
54.616663999999886,9.197143999999987,1945
54.29266399999989,9.197143999999987,1931
53.96866399999989,9.197143999999987,1916
53.64466399999989,9.197143999999987,1847
54.616663999999886,9.845143999999989,1929
54.29266399999989,9.845143999999989,1916
53.96866399999989,9.845143999999989,1838
53.64466399999989,10.493143999999988,1832
53.96866399999989,10.493143999999988,1838
53.96866399999989,11.141143999999988,1943
54.29266399999989,10.493143999999988,1858
53.32066399999989,10.493143999999988,1833
54.940663999999884,11.141143999999988,1969
52.6726639999999,13.733143999999989,1852
52.3486639999999,13.733143999999989,1851
52.3486639999999,14.381143999999988,1840
52.0246639999999,14.381143999999988,1827
52.0246639999999,11.789143999999988,1854
52.3486639999999,11.789143999999988,1878
52.3486639999999,12.437143999999988,1850
52.0246639999999,15.029143999999986,1852
51.700663999999904,14.381143999999988,1778
52.0246639999999,13.733143999999989,1825
51.700663999999904,13.733143999999989,1807
52.6726639999999,12.437143999999988,1868
53.32066399999989,11.789143999999988,1894
53.96866399999989,11.789143999999988,1948
53.64466399999989,11.789143999999988,1906
53.64466399999989,11.141143999999988,1902
53.32066399999989,11.141143999999988,1875
52.996663999999896,11.789143999999988,1900
52.996663999999896,12.437143999999988,1884
52.996663999999896,13.733143999999989,1860
53.64466399999989,13.733143999999989,1936
53.96866399999989,13.733143999999989,1970
54.29266399999989,13.085143999999987,2013
53.96866399999989,13.085143999999987,1979
53.32066399999989,13.733143999999989,1908
52.0246639999999,13.085143999999987,1819
51.700663999999904,13.085143999999987,1786
52.996663999999896,14.381143999999988,1943
52.0246639999999,12.437143999999988,1809
51.700663999999904,12.437143999999988,1803
51.37666399999991,11.789143999999988,1801
51.37666399999991,12.437143999999988,1784
52.6726639999999,11.789143999999988,1910
53.64466399999989,13.085143999999987,1963
53.32066399999989,13.085143999999987,1905
52.996663999999896,13.085143999999987,1878
53.64466399999989,12.437143999999988,1948
51.37666399999991,13.733143999999989,1758
53.32066399999989,12.437143999999988,1915
52.6726639999999,14.381143999999988,1873
51.37666399999991,13.085143999999987,1775
53.32066399999989,14.381143999999988,1949
52.3486639999999,15.029143999999986,1847
52.0246639999999,15.677143999999986,1869
51.700663999999904,15.029143999999986,1887
51.05266399999991,16.325143999999987,1807
51.05266399999991,16.973143999999984,1815
51.700663999999904,15.677143999999986,1840
51.37666399999991,15.677143999999986,1771
51.37666399999991,16.325143999999987,1800
50.72866399999991,13.085143999999987,1790
50.72866399999991,12.437143999999988,1756
51.05266399999991,13.085143999999987,1786
51.05266399999991,14.381143999999988,1723
50.40466399999991,12.437143999999988,1724
50.40466399999991,11.789143999999988,1708
50.08066399999991,12.437143999999988,1702
50.72866399999991,11.789143999999988,1759
51.05266399999991,12.437143999999988,1766
50.72866399999991,14.381143999999988,1754
51.37666399999991,14.381143999999988,1738
50.72866399999991,13.733143999999989,1775
50.40466399999991,14.381143999999988,1679
51.37666399999991,15.029143999999986,1734
55.26466399999988,9.197143999999987,2268
55.58866399999988,8.54914399999999,3562
55.91266399999988,8.54914399999999,7039
56.23666399999988,9.197143999999987,7047
56.23666399999988,10.493143999999988,7000
56.23666399999988,9.845143999999989,6987
55.91266399999988,9.845143999999989,6925
56.56066399999988,9.197143999999987,7057
56.56066399999988,8.54914399999999,7100
51.05266399999991,6.60514399999999,1699
51.700663999999904,7.90114399999999,1711
50.72866399999991,6.60514399999999,1709
51.700663999999904,7.25314399999999,1708
50.72866399999991,7.25314399999999,1684
52.0246639999999,7.25314399999999,1726
52.3486639999999,7.90114399999999,1767
51.05266399999991,5.957143999999991,1705
50.40466399999991,7.25314399999999,1675
51.700663999999904,6.60514399999999,1717
51.700663999999904,5.957143999999991,1718
52.3486639999999,9.197143999999987,1749
51.700663999999904,8.54914399999999,1722
52.0246639999999,8.54914399999999,1728
52.3486639999999,8.54914399999999,1746
51.37666399999991,7.90114399999999,1706
52.3486639999999,7.25314399999999,1773
51.37666399999991,5.957143999999991,1721
50.72866399999991,7.90114399999999,1711
51.37666399999991,9.197143999999987,1731
51.700663999999904,9.197143999999987,1733
50.40466399999991,6.60514399999999,1726
51.05266399999991,7.90114399999999,1726
51.37666399999991,8.54914399999999,1721
52.0246639999999,5.957143999999991,1731
52.3486639999999,6.60514399999999,1796
51.05266399999991,8.54914399999999,1724
52.0246639999999,9.197143999999987,1749
52.6726639999999,9.197143999999987,1772
52.0246639999999,9.845143999999989,1777
51.700663999999904,9.845143999999989,1797
51.37666399999991,9.845143999999989,1817
50.72866399999991,8.54914399999999,1677
51.05266399999991,9.845143999999989,1791
50.72866399999991,9.845143999999989,1755
50.40466399999991,9.845143999999989,1715
51.05266399999991,9.197143999999987,1719
50.40466399999991,9.197143999999987,1678
50.08066399999991,9.197143999999987,1666
51.05266399999991,10.493143999999988,2247
50.40466399999991,8.54914399999999,1662
50.72866399999991,9.197143999999987,1698
49.75666399999992,9.197143999999987,1685
52.996663999999896,9.197143999999987,1809
52.3486639999999,9.845143999999989,1757
52.996663999999896,8.54914399999999,1826
52.996663999999896,7.90114399999999,1853
53.32066399999989,7.90114399999999,1903
53.32066399999989,7.25314399999999,1933
53.64466399999989,7.25314399999999,1978
52.996663999999896,10.493143999999988,1823
52.6726639999999,10.493143999999988,1816
52.6726639999999,9.845143999999989,1762
53.32066399999989,9.845143999999989,1823
53.32066399999989,9.197143999999987,1826
53.64466399999989,8.54914399999999,1866
53.32066399999989,8.54914399999999,1829
52.6726639999999,8.54914399999999,1803
52.0246639999999,10.493143999999988,1804
52.0246639999999,11.141143999999988,1847
51.700663999999904,11.141143999999988,1840
52.6726639999999,7.25314399999999,2203
52.996663999999896,7.25314399999999,2178
52.6726639999999,7.90114399999999,1807
53.64466399999989,7.90114399999999,1931
52.996663999999896,11.141143999999988,1884
52.6726639999999,11.141143999999988,1934
52.3486639999999,10.493143999999988,1778
52.996663999999896,9.845143999999989,1776
51.700663999999904,10.493143999999988,1878
51.37666399999991,10.493143999999988,1825
51.700663999999904,11.789143999999988,1814
52.3486639999999,11.141143999999988,1829
51.37666399999991,11.141143999999988,1880
51.05266399999991,11.789143999999988,1782
49.10866399999992,11.141143999999988,1640
48.78466399999992,11.141143999999988,1610
48.46066399999992,11.789143999999988,1588
49.43266399999992,11.789143999999988,1663
50.08066399999991,11.789143999999988,1673
49.75666399999992,12.437143999999988,1697
49.10866399999992,11.789143999999988,1660
48.78466399999992,12.437143999999988,1646
48.46066399999992,12.437143999999988,1604
49.10866399999992,12.437143999999988,1671
48.78466399999992,13.085143999999987,1593
48.136663999999925,12.437143999999988,1569
47.81266399999993,11.789143999999988,1580
48.136663999999925,10.493143999999988,1666
47.81266399999993,10.493143999999988,1690
48.78466399999992,10.493143999999988,1612
47.48866399999993,10.493143999999988,1717
48.46066399999992,10.493143999999988,1597
49.43266399999992,13.085143999999987,1778
48.46066399999992,13.085143999999987,1569
49.43266399999992,10.493143999999988,1679
49.75666399999992,9.845143999999989,1698
49.75666399999992,10.493143999999988,1654
50.40466399999991,11.141143999999988,1673
50.08066399999991,11.141143999999988,1665
50.72866399999991,11.141143999999988,1763
49.75666399999992,11.141143999999988,1644
48.78466399999992,11.789143999999988,1693
50.40466399999991,10.493143999999988,1718
50.08066399999991,9.845143999999989,1715
50.08066399999991,10.493143999999988,1661
49.43266399999992,12.437143999999988,1694
49.75666399999992,11.789143999999988,1672
49.10866399999992,13.085143999999987,1713
50.72866399999991,10.493143999999988,2261
49.10866399999992,10.493143999999988,1658
48.78466399999992,9.845143999999989,1612
48.46066399999992,8.54914399999999,1634
48.46066399999992,9.197143999999987,1630
48.78466399999992,9.197143999999987,1626
48.78466399999992,8.54914399999999,1632
50.08066399999991,7.25314399999999,1713
49.75666399999992,6.60514399999999,1712
49.43266399999992,6.60514399999999,1674
49.10866399999992,6.60514399999999,1696
49.43266399999992,7.25314399999999,1668
49.75666399999992,7.25314399999999,1684
49.10866399999992,5.957143999999991,1692
48.78466399999992,7.25314399999999,1660
50.08066399999991,6.60514399999999,1723
47.48866399999993,9.197143999999987,1686
48.136663999999925,8.54914399999999,1645
48.136663999999925,9.197143999999987,1644
47.81266399999993,7.25314399999999,1692
49.43266399999992,9.845143999999989,1672
49.10866399999992,9.845143999999989,1640
53.64466399999989,14.381143999999988,1943
50.08066399999991,13.085143999999987,1738
49.75666399999992,13.085143999999987,1775
45.86866399999994,9.197143999999987,1798
46.19266399999994,9.197143999999987,1784
46.516663999999935,8.54914399999999,1730
46.516663999999935,9.197143999999987,1779
46.19266399999994,8.54914399999999,1781
47.16466399999993,8.54914399999999,1697
45.86866399999994,4.661143999999991,1879
46.84066399999993,9.845143999999989,1713
45.22066399999994,5.957143999999991,1877
45.22066399999994,5.309143999999991,1897
45.86866399999994,5.957143999999991,1800
45.54466399999994,5.957143999999991,1823
44.89666399999994,4.661143999999991,1958
44.89666399999994,5.309143999999991,1949
44.572663999999946,4.661143999999991,1970
44.24866399999995,4.661143999999991,1989
43.92466399999995,4.661143999999991,1990
46.19266399999994,7.25314399999999,1751
48.78466399999992,5.957143999999991,1685
48.136663999999925,6.60514399999999,1697
48.46066399999992,6.60514399999999,1691
48.78466399999992,6.60514399999999,1672
47.16466399999993,7.90114399999999,1708
48.136663999999925,7.25314399999999,1678
48.46066399999992,7.25314399999999,1662
46.516663999999935,6.60514399999999,1736
46.84066399999993,6.60514399999999,1728
46.84066399999993,7.25314399999999,1724
46.516663999999935,5.957143999999991,1755
46.19266399999994,5.957143999999991,1769
46.84066399999993,8.54914399999999,1701
46.84066399999993,7.90114399999999,1715
45.86866399999994,5.309143999999991,1857
46.19266399999994,6.60514399999999,1744
45.86866399999994,6.60514399999999,1783
47.48866399999993,6.60514399999999,1739
47.48866399999993,7.25314399999999,1707
47.16466399999993,7.25314399999999,1718
49.10866399999992,4.013143999999992,1826
49.75666399999992,4.661143999999991,1797
49.43266399999992,4.661143999999991,1853
49.10866399999992,5.309143999999991,1769
46.19266399999994,4.661143999999991,1855
46.84066399999993,9.197143999999987,1704
46.19266399999994,5.309143999999991,1878
46.516663999999935,5.309143999999991,1835
45.54466399999994,6.60514399999999,1832
45.54466399999994,5.309143999999991,1889
43.60066399999995,4.013143999999992,2021
43.60066399999995,3.365143999999992,2037
42.62866399999996,2.717143999999992,2110
43.276663999999954,2.717143999999992,2057
45.54466399999994,4.661143999999991,1898
45.22066399999994,4.661143999999991,1914
47.16466399999993,5.309143999999991,1797
47.16466399999993,5.957143999999991,1788
46.19266399999994,7.90114399999999,1746
49.75666399999992,2.717143999999992,1923
49.10866399999992,2.717143999999992,1840
48.78466399999992,2.717143999999992,1865
45.86866399999994,3.365143999999992,2002
46.84066399999993,3.365143999999992,1912
46.516663999999935,3.365143999999992,1949
46.19266399999994,3.365143999999992,1979
47.16466399999993,6.60514399999999,1748
49.10866399999992,3.365143999999992,1842
45.54466399999994,4.013143999999992,1909
46.516663999999935,7.25314399999999,1751
47.16466399999993,4.661143999999991,1802
46.84066399999993,4.661143999999991,1811
46.516663999999935,4.661143999999991,1838
46.84066399999993,5.957143999999991,1746
47.81266399999993,3.365143999999992,1907
47.48866399999993,4.013143999999992,1913
48.136663999999925,4.013143999999992,1903
47.81266399999993,4.013143999999992,1914
47.48866399999993,4.661143999999991,1922
47.16466399999993,3.365143999999992,1928
46.84066399999993,4.013143999999992,1880
48.46066399999992,5.957143999999991,1715
46.19266399999994,2.717143999999992,2036
47.16466399999993,2.0691439999999925,1934
46.516663999999935,2.717143999999992,2083
46.84066399999993,2.717143999999992,1966
46.84066399999993,2.0691439999999925,1992
47.16466399999993,2.717143999999992,1938
44.572663999999946,5.309143999999991,1993
44.572663999999946,5.957143999999991,2024
44.89666399999994,6.60514399999999,1887
44.572663999999946,6.60514399999999,2029
43.60066399999995,5.309143999999991,2021
43.92466399999995,7.25314399999999,2045
43.60066399999995,6.60514399999999,2066
43.276663999999954,6.60514399999999,2084
43.276663999999954,5.957143999999991,2039
45.86866399999994,8.54914399999999,1795
45.54466399999994,8.54914399999999,1802
48.136663999999925,3.365143999999992,1889
48.46066399999992,3.365143999999992,1902
48.46066399999992,2.717143999999992,1871
47.48866399999993,5.309143999999991,1836
46.516663999999935,9.845143999999989,1724
46.84066399999993,10.493143999999988,2771
47.81266399999993,5.309143999999991,1817
45.22066399999994,6.60514399999999,1840
46.19266399999994,4.013143999999992,1945
45.86866399999994,4.013143999999992,1922
45.22066399999994,4.013143999999992,1942
44.89666399999994,4.013143999999992,2000
46.84066399999993,5.309143999999991,1825
48.136663999999925,-1.8188560000000056,1945
48.136663999999925,0.1251439999999934,1891
48.136663999999925,-0.5228560000000062,1913
47.48866399999993,-0.5228560000000062,1929
47.16466399999993,-1.8188560000000056,1970
47.48866399999993,0.7731439999999932,1879
47.16466399999993,0.1251439999999934,1934
45.86866399999994,7.25314399999999,1789
48.136663999999925,5.309143999999991,1853
49.10866399999992,4.661143999999991,1809
48.46066399999992,4.013143999999992,1914
48.136663999999925,4.661143999999991,1873
47.81266399999993,6.60514399999999,1758
47.48866399999993,5.957143999999991,1776
48.136663999999925,5.957143999999991,1886
45.86866399999994,7.90114399999999,1767
46.516663999999935,7.90114399999999,1729
49.43266399999992,3.365143999999992,1880
49.43266399999992,4.013143999999992,1840
48.136663999999925,2.717143999999992,1870
47.81266399999993,2.717143999999992,1881
47.48866399999993,2.717143999999992,1900
50.40466399999991,2.717143999999992,1814
48.46066399999992,-4.410856000000004,2078
48.46066399999992,-3.7628560000000046,2041
48.46066399999992,-3.114856000000005,2011
48.46066399999992,-2.4668560000000053,1989
47.48866399999993,1.4211439999999929,1936
47.16466399999993,1.4211439999999929,1943
46.516663999999935,4.013143999999992,1885
43.60066399999995,4.661143999999991,2022
44.89666399999994,2.717143999999992,2117
45.22066399999994,2.717143999999992,2068
45.54466399999994,3.365143999999992,2008
45.22066399999994,3.365143999999992,1955
47.48866399999993,3.365143999999992,1966
46.19266399999994,9.845143999999989,1834
47.81266399999993,2.0691439999999925,1895
47.48866399999993,2.0691439999999925,1957
45.86866399999994,2.717143999999992,2020
44.89666399999994,5.957143999999991,1950
45.22066399999994,1.4211439999999929,2078
44.89666399999994,1.4211439999999929,2097
44.89666399999994,2.0691439999999925,2189
43.276663999999954,2.0691439999999925,2079
43.60066399999995,1.4211439999999929,2077
48.78466399999992,4.661143999999991,1790
48.78466399999992,5.309143999999991,1753
46.19266399999994,2.0691439999999925,2060
45.86866399999994,1.4211439999999929,2033
46.19266399999994,1.4211439999999929,2018
44.572663999999946,4.013143999999992,2095
44.89666399999994,3.365143999999992,2076
43.92466399999995,4.013143999999992,2024
44.24866399999995,4.013143999999992,2050
44.89666399999994,-0.5228560000000062,1934
45.54466399999994,0.1251439999999934,1955
46.516663999999935,0.1251439999999934,1914
44.572663999999946,2.0691439999999925,2166
49.75666399999992,4.013143999999992,1838
43.92466399999995,3.365143999999992,2121
43.92466399999995,2.717143999999992,2152
44.24866399999995,3.365143999999992,2176
44.572663999999946,3.365143999999992,2217
49.10866399999992,0.1251439999999934,1900
49.43266399999992,0.7731439999999932,1904
49.43266399999992,-1.8188560000000056,2001
49.10866399999992,-1.170856000000006,1961
49.10866399999992,-0.5228560000000062,1923
49.10866399999992,0.7731439999999932,1885
49.10866399999992,1.4211439999999929,1849
47.81266399999993,-1.8188560000000056,1986
47.81266399999993,-2.4668560000000053,2011
47.81266399999993,-3.114856000000005,2040
48.136663999999925,-3.7628560000000046,2081
44.572663999999946,9.197143999999987,1912
44.89666399999994,8.54914399999999,1858
45.22066399999994,9.197143999999987,1819
45.54466399999994,10.493143999999988,1867
44.572663999999946,10.493143999999988,3238
44.89666399999994,10.493143999999988,1895
44.89666399999994,9.845143999999989,2005
48.46066399999992,5.309143999999991,1880
50.91599999999999,-1.0580000000000025,65535
51.23999999999999,-0.4100000000000028,65535
50.91599999999999,-0.4100000000000028,65535
51.23999999999999,-2.354000000000002,65535
51.56399999999999,-2.354000000000002,65535
51.56399999999999,-3.0020000000000016,65535
50.91599999999999,-2.354000000000002,65535
53.50799999999997,-3.0020000000000016,65535
53.183999999999976,-2.354000000000002,65535
53.183999999999976,-3.0020000000000016,65535
52.85999999999998,-2.354000000000002,65535
52.21199999999998,-1.0580000000000025,65535
51.887999999999984,-1.0580000000000025,65535
52.53599999999998,-1.0580000000000025,65535
52.53599999999998,-1.7060000000000022,65535
52.85999999999998,-1.7060000000000022,65535
53.50799999999997,-2.354000000000002,65535
52.85999999999998,-1.0580000000000025,65535
52.53599999999998,1.5339999999999965,65535
52.53599999999998,0.8859999999999966,65535
52.53599999999998,0.2379999999999968,65535
52.53599999999998,-0.4100000000000028,65535
53.50799999999997,-1.7060000000000022,65535
53.183999999999976,-1.7060000000000022,65535
53.183999999999976,-1.0580000000000025,65535
52.85999999999998,-0.4100000000000028,65535
51.887999999999984,-2.354000000000002,65535
52.21199999999998,-2.354000000000002,65535
55.77599999999996,-2.354000000000002,65535
53.83199999999997,-1.0580000000000025,65535
53.83199999999997,-1.7060000000000022,65535
55.127999999999965,-1.7060000000000022,65535
54.80399999999997,-1.7060000000000022,65535
54.47999999999997,-1.7060000000000022,65535
54.15599999999997,-1.0580000000000025,65535
52.21199999999998,-1.7060000000000022,65535
53.50799999999997,-1.0580000000000025,65535
55.77599999999996,-3.0020000000000016,65535
55.45199999999996,-1.7060000000000022,65535
57.07199999999995,-2.354000000000002,65535
56.74799999999996,-3.0020000000000016,65535
56.42399999999996,-3.0020000000000016,65535
56.09999999999996,-3.650000000000001,65535
50.91599999999999,-3.0020000000000016,65535
50.91599999999999,-3.650000000000001,65535
50.59199999999999,-3.650000000000001,65535
50.59199999999999,-4.298000000000001,65535
51.23999999999999,-3.0020000000000016,65535
50.268,-4.946000000000001,65535
55.77599999999996,-3.650000000000001,65535
55.77599999999996,-4.298000000000001,65535
52.21199999999998,-0.4100000000000028,65535
52.53599999999998,-2.354000000000002,65535
51.56399999999999,-1.7060000000000022,65535
51.56399999999999,-3.650000000000001,65535
51.887999999999984,-4.298000000000001,65535
51.56399999999999,-4.298000000000001,65535
51.887999999999984,-1.7060000000000022,65535
52.21199999999998,-3.0020000000000016,65535
51.23999999999999,0.2379999999999968,65535
50.91599999999999,0.2379999999999968,65535
52.21199999999998,0.2379999999999968,65535
53.83199999999997,-3.0020000000000016,65535
54.15599999999997,-3.0020000000000016,65535
54.47999999999997,-3.0020000000000016,65535
55.127999999999965,-3.650000000000001,65535
54.80399999999997,-3.0020000000000016,65535
53.83199999999997,-2.354000000000002,65535
54.15599999999997,-0.4100000000000028,65535
54.47999999999997,-1.0580000000000025,65535
53.83199999999997,-0.4100000000000028,65535
53.183999999999976,-3.650000000000001,65535
53.183999999999976,-4.298000000000001,65535
52.85999999999998,-3.0020000000000016,65535
52.53599999999998,-3.0020000000000016,65535
51.887999999999984,-3.0020000000000016,65535
51.23999999999999,0.8859999999999966,65535
51.887999999999984,0.2379999999999968,65535
52.21199999999998,0.8859999999999966,65535
51.887999999999984,-4.946000000000001,65535
52.53599999999998,-3.650000000000001,65535
52.21199999999998,-4.298000000000001,65535
53.183999999999976,-0.4100000000000028,65535
51.23999999999999,-3.650000000000001,65535
51.887999999999984,-3.650000000000001,65535
52.21199999999998,-3.650000000000001,65535
51.56399999999999,0.8859999999999966,65535
51.887999999999984,0.8859999999999966,65535
52.85999999999998,0.8859999999999966,65535
53.50799999999997,-0.4100000000000028,65535
56.09999999999996,-4.298000000000001,65535
56.74799999999996,-4.946000000000001,65535
56.74799999999996,-4.298000000000001,65535
56.42399999999996,-4.946000000000001,65535
56.42399999999996,-4.298000000000001,65535
56.09999999999996,-4.946000000000001,65535
57.39599999999995,-4.298000000000001,65535
57.39599999999995,-3.0020000000000016,65535
57.39599999999995,-3.650000000000001,65535
56.42399999999996,-3.650000000000001,65535
57.07199999999995,-3.650000000000001,65535
57.07199999999995,-4.298000000000001,65535
56.74799999999996,-3.650000000000001,65535
59.15266399999986,27.34114399999998,65535
59.47666399999986,26.69314399999997,65535
59.47666399999986,26.04514399999998,65535
59.15266399999986,26.04514399999998,65535
59.15266399999986,24.74914399999998,65535
59.15266399999986,25.397143999999983,65535
59.47666399999986,25.397143999999983,65535
58.50466399999986,26.69314399999997,65535
58.82866399999986,26.69314399999997,65535
57.85666399999987,26.04514399999998,65535
58.180663999999865,26.04514399999998,65535
58.180663999999865,26.69314399999997,65535
58.82866399999986,26.04514399999998,65535
58.50466399999986,25.397143999999983,65535
58.82866399999986,25.397143999999983,65535
58.82866399999986,24.74914399999998,65535
58.180663999999865,27.34114399999998,65535
57.85666399999987,27.34114399999998,65535
63.68866399999983,27.34114399999998,7557
60.124663999999854,24.74914399999998,7093
60.44866399999985,24.74914399999998,7062
60.44866399999985,25.397143999999983,7074
60.77266399999985,25.397143999999983,7280
61.09666399999985,26.04514399999998,7322
60.77266399999985,26.04514399999998,7329
60.77266399999985,26.69314399999997,7348
61.09666399999985,25.397143999999983,7313
61.09666399999985,26.69314399999997,7678
61.420663999999846,26.69314399999997,7700
61.74466399999984,27.34114399999998,7724
62.06866399999984,27.34114399999998,7749
62.39266399999984,27.34114399999998,7773
62.71666399999984,27.34114399999998,7737
64.01266399999983,27.34114399999998,7905
63.36466399999984,27.34114399999998,7625
63.04066399999984,27.34114399999998,7665
63.04066399999984,27.989143999999985,7680
64.33666399999983,27.989143999999985,7952
64.33666399999983,27.34114399999998,8028
64.66066399999983,27.34114399999998,8044
64.66066399999983,26.69314399999997,8055
64.98466399999982,25.397143999999983,6439
64.66066399999983,26.04514399999998,8085
64.98466399999982,26.04514399999998,8107
66.28066399999982,25.397143999999983,6516
65.95666399999982,24.74914399999998,6352
65.63266399999982,24.74914399999998,6356
65.63266399999982,25.397143999999983,6398
65.30866399999982,25.397143999999983,6419
66.60466399999981,25.397143999999983,6576
64.01266399999983,24.74914399999998,6576
64.01266399999983,24.101143999999977,6611
64.01266399999983,23.45314399999998,6635
63.68866399999983,23.45314399999998,6647
63.68866399999983,22.805143999999984,6672
63.68866399999983,26.04514399999998,7264
63.68866399999983,25.397143999999983,7230
63.68866399999983,26.69314399999997,7524
60.44866399999985,26.69314399999997,7516
64.01266399999983,27.989143999999985,7943
62.71666399999984,22.805143999999984,6794
62.39266399999984,22.805143999999984,6826
62.06866399999984,22.805143999999984,6855
62.06866399999984,23.45314399999998,6871
61.74466399999984,23.45314399999998,6883
61.420663999999846,23.45314399999998,6931
61.09666399999985,23.45314399999998,6972
61.09666399999985,24.101143999999977,6979
61.09666399999985,24.74914399999998,7013
60.77266399999985,24.74914399999998,7029
63.04066399999984,21.50914399999997,65535
63.04066399999984,22.15714399999998,65535
63.04066399999984,22.805143999999984,6758
62.39266399999984,26.04514399999998,7921
62.06866399999984,25.397143999999983,7970
61.74466399999984,25.397143999999983,8038
61.74466399999984,24.74914399999998,8075
61.74466399999984,24.101143999999977,8110
61.420663999999846,24.101143999999977,7454
62.39266399999984,26.69314399999997,7892
64.66066399999983,25.397143999999983,6508
64.66066399999983,24.74914399999998,6526
64.33666399999983,24.74914399999998,6537
63.36466399999984,22.805143999999984,6697
67.25266399999981,24.101143999999977,8666
66.92866399999981,24.101143999999977,8630
66.60466399999981,23.45314399999998,8599
66.28066399999982,23.45314399999998,8581
66.28066399999982,24.101143999999977,8563
65.95666399999982,24.101143999999977,4479
60.124663999999854,24.101143999999977,7286
60.124663999999854,23.45314399999998,7323
60.44866399999985,22.805143999999984,65535
60.77266399999985,27.34114399999998,7406
61.09666399999985,27.989143999999985,7438
61.09666399999985,28.63714399999997,7484
61.420663999999846,29.28514399999997,9171
61.74466399999984,29.933143999999977,9229
62.06866399999984,29.933143999999977,9335
62.39266399999984,29.933143999999977,9373
62.71666399999984,29.933143999999977,9406
61.420663999999846,22.805143999999984,6967
61.420663999999846,22.15714399999998,7046
61.09666399999985,22.15714399999998,7034
61.420663999999846,21.50914399999997,7179
62.39266399999984,27.989143999999985,65535
62.06866399999984,27.989143999999985,65535
61.420663999999846,27.34114399999998,65535
63.04066399999984,29.933143999999977,65535
63.68866399999983,29.28514399999997,65535
63.36466399999984,29.28514399999997,65535
63.36466399999984,29.933143999999977,65535
60.44866399999985,27.34114399999998,65535
61.74466399999984,29.28514399999997,65535
62.39266399999984,30.58114399999998,65535
62.71666399999984,31.229143999999977,65535
62.71666399999984,29.28514399999997,65535
63.04066399999984,28.63714399999997,65535
66.60466399999981,26.04514399999998,6586
66.60466399999981,26.69314399999997,6622
66.60466399999981,27.34114399999998,6645
62.71666399999984,26.04514399999998,7806
62.71666399999984,25.397143999999983,7775
63.04066399999984,25.397143999999983,7595
63.36466399999984,25.397143999999983,7558
62.71666399999984,23.45314399999998,7800
62.39266399999984,24.101143999999977,65535
62.71666399999984,22.15714399999998,65535
62.39266399999984,22.15714399999998,65535
62.39266399999984,21.50914399999997,65535
61.09666399999985,21.50914399999997,8857
60.77266399999985,22.805143999999984,8283
60.44866399999985,22.15714399999998,8331
60.77266399999985,23.45314399999998,8265
60.77266399999985,21.50914399999997,8433
60.77266399999985,22.15714399999998,8386
60.124663999999854,22.805143999999984,8599
60.44866399999985,24.101143999999977,7272
62.06866399999984,24.74914399999998,65535
50.72866399999991,16.325143999999987,1809
50.40466399999991,16.973143999999984,1703
50.72866399999991,16.973143999999984,1780
50.40466399999991,16.325143999999987,1701
50.08066399999991,16.973143999999984,1689
50.08066399999991,16.325143999999987,1644
51.700663999999904,16.973143999999984,1827
51.37666399999991,16.973143999999984,1840
51.05266399999991,15.677143999999986,1822
50.72866399999991,15.677143999999986,1882
51.05266399999991,17.621143999999987,1821
51.37666399999991,17.621143999999987,1861
51.700663999999904,17.621143999999987,1889
51.700663999999904,16.325143999999987,1816
52.0246639999999,22.15714399999998,2067
52.0246639999999,21.50914399999997,2055
52.3486639999999,21.50914399999997,2064
52.0246639999999,20.86114399999998,2064
51.700663999999904,20.86114399999998,2031
51.37666399999991,21.50914399999997,1995
51.37666399999991,20.86114399999998,1976
51.05266399999991,20.86114399999998,1944
52.6726639999999,23.45314399999998,2242
52.3486639999999,22.805143999999984,2181
52.3486639999999,20.213143999999986,2071
52.0246639999999,20.213143999999986,2085
52.3486639999999,19.565143999999982,2092
52.6726639999999,19.565143999999982,2191
51.700663999999904,21.50914399999997,2033
51.700663999999904,22.15714399999998,2039
52.6726639999999,21.50914399999997,2073
52.996663999999896,21.50914399999997,2149
52.6726639999999,20.86114399999998,2065
52.6726639999999,22.15714399999998,2101
52.6726639999999,20.213143999999986,2257
52.996663999999896,19.565143999999982,2288
52.996663999999896,20.86114399999998,2098
52.996663999999896,20.213143999999986,2107
53.32066399999989,20.213143999999986,2203
51.37666399999991,20.213143999999986,2033
52.3486639999999,16.973143999999984,1867
52.0246639999999,16.973143999999984,1853
52.0246639999999,16.325143999999987,1831
52.0246639999999,17.621143999999987,1891
52.6726639999999,16.973143999999984,1876
52.996663999999896,16.973143999999984,1894
52.3486639999999,16.325143999999987,1880
52.3486639999999,15.677143999999986,1871
51.700663999999904,18.269143999999983,1974
52.6726639999999,17.621143999999987,1897
52.3486639999999,17.621143999999987,1874
52.6726639999999,18.269143999999983,1925
52.3486639999999,18.269143999999983,1889
52.3486639999999,18.917143999999983,1962
52.996663999999896,17.621143999999987,1903
51.700663999999904,19.565143999999982,1996
51.700663999999904,18.917143999999983,2022
51.37666399999991,18.269143999999983,1887
58.82866399999986,9.197143999999987,3248
58.180663999999865,7.90114399999999,3341
58.50466399999986,8.54914399999999,3292
63.36466399999984,10.493143999999988,3463
63.36466399999984,11.141143999999988,3470
63.36466399999984,11.789143999999988,3505
63.68866399999983,11.789143999999988,3533
64.33666399999983,12.437143999999988,3934
64.66066399999983,12.437143999999988,4429
65.63266399999982,13.085143999999987,4086
65.95666399999982,13.085143999999987,4121
66.28066399999982,14.381143999999988,4191
65.95666399999982,13.733143999999989,4260
66.28066399999982,13.733143999999989,4169
65.30866399999982,13.085143999999987,4387
64.98466399999982,13.085143999999987,4021
64.01266399999983,11.789143999999988,3564
63.68866399999983,11.141143999999988,3501
59.800663999999855,10.493143999999988,3044
59.800663999999855,11.141143999999988,3027
60.124663999999854,11.141143999999988,3042
60.44866399999985,11.141143999999988,3055
60.124663999999854,11.789143999999988,3068
60.77266399999985,7.25314399999999,3304
60.77266399999985,6.60514399999999,3350
59.15266399999986,9.197143999999987,3130
59.47666399999986,9.197143999999987,3151
59.800663999999855,9.845143999999989,3046
59.47666399999986,11.141143999999988,2991
61.09666399999985,10.493143999999988,3165
60.77266399999985,10.493143999999988,3135
60.77266399999985,11.141143999999988,3090
62.06866399999984,9.197143999999987,3490
61.74466399999984,9.845143999999989,3436
61.420663999999846,9.845143999999989,3413
59.15266399999986,9.845143999999989,3110
59.47666399999986,9.845143999999989,3086
58.82866399999986,5.957143999999991,3525
58.180663999999865,7.25314399999999,3397
58.50466399999986,7.25314399999999,3430
58.50466399999986,6.60514399999999,3435
58.50466399999986,5.957143999999991,3493
58.82866399999986,8.54914399999999,3278
60.44866399999985,7.25314399999999,3278
60.44866399999985,7.90114399999999,3239
60.124663999999854,10.493143999999988,3076
60.44866399999985,9.197143999999987,3188
60.77266399999985,9.197143999999987,3200
60.77266399999985,8.54914399999999,3219
60.124663999999854,9.845143999999989,3334
60.44866399999985,10.493143999999988,3121
63.04066399999984,10.493143999999988,3414
62.06866399999984,9.845143999999989,3515
62.39266399999984,9.845143999999989,3523
62.71666399999984,9.845143999999989,3547
59.47666399999986,14.381143999999988,2997
59.47666399999986,13.733143999999989,2981
59.47666399999986,13.085143999999987,2957
59.800663999999855,12.437143999999988,3026
59.15266399999986,11.141143999999988,2955
59.15266399999986,14.381143999999988,2981
58.82866399999986,11.789143999999988,2935
58.50466399999986,12.437143999999988,2865
58.180663999999865,12.437143999999988,2858
57.85666399999987,11.789143999999988,2809
62.71666399999984,7.90114399999999,3576
62.39266399999984,7.90114399999999,3533
62.06866399999984,8.54914399999999,3508
60.44866399999985,5.309143999999991,3424
60.44866399999985,5.957143999999991,3391
60.77266399999985,5.957143999999991,3380
62.39266399999984,11.141143999999988,3311
62.06866399999984,10.493143999999988,3266
61.74466399999984,11.141143999999988,3239
61.420663999999846,11.141143999999988,3193
61.09666399999985,11.141143999999988,3176
60.77266399999985,11.789143999999988,3153
63.04066399999984,11.141143999999988,3392
62.71666399999984,11.141143999999988,3335
62.39266399999984,10.493143999999988,3293
67.25266399999981,15.677143999999986,4310
67.25266399999981,15.029143999999986,4348
67.25266399999981,14.381143999999988,4376
66.92866399999981,15.029143999999986,4299
66.60466399999981,15.677143999999986,4277
64.01266399999983,11.141143999999988,3548
66.60466399999981,15.029143999999986,4340
54.29266399999989,18.269143999999983,2106
54.616663999999886,17.621143999999987,2155
53.96866399999989,18.269143999999983,2025
43.92466399999995,1.4211439999999929,2049
44.24866399999995,0.7731439999999932,2011
44.572663999999946,0.1251439999999934,1988
46.84066399999993,1.4211439999999929,1966
44.572663999999946,1.4211439999999929,2129
44.24866399999995,1.4211439999999929,2095
45.54466399999994,1.4211439999999929,2085
46.516663999999935,1.4211439999999929,1991
42.30466399999996,2.717143999999992,2131
44.24866399999995,2.717143999999992,2135
44.572663999999946,2.717143999999992,2258
43.92466399999995,2.0691439999999925,2072
42.30466399999996,2.0691439999999925,2250
42.62866399999996,2.0691439999999925,2163
42.62866399999996,1.4211439999999929,2186
42.95266399999996,1.4211439999999929,2124
43.276663999999954,1.4211439999999929,2107
46.516663999999935,-1.170856000000006,2039
46.19266399999994,-1.170856000000006,2033
45.86866399999994,-0.5228560000000062,2042
45.54466399999994,-0.5228560000000062,2021
48.46066399999992,1.4211439999999929,1855
41.332663999999966,2.0691439999999925,3154
41.98066399999996,2.717143999999992,3113
48.46066399999992,-1.8188560000000056,1960
47.81266399999993,0.7731439999999932,1922
46.84066399999993,0.7731439999999932,1932
44.572663999999946,-1.170856000000006,1945
43.60066399999995,-1.170856000000006,2010
43.276663999999954,-1.8188560000000056,2039
43.276663999999954,0.1251439999999934,2119
42.95266399999996,0.1251439999999934,2093
43.276663999999954,-0.5228560000000062,2065
43.60066399999995,-0.5228560000000062,2041
47.81266399999993,-3.7628560000000046,2054
47.48866399999993,-2.4668560000000053,1994
47.81266399999993,-0.5228560000000062,1965
46.516663999999935,-1.8188560000000056,2054
48.136663999999925,-1.170856000000006,1954
47.48866399999993,-1.170856000000006,1977
45.22066399999994,8.54914399999999,1834
45.22066399999994,7.90114399999999,1842
46.19266399999994,-0.5228560000000062,2002
46.516663999999935,-0.5228560000000062,1981
48.78466399999992,-3.114856000000005,2030
50.72866399999991,2.0691439999999925,1813
50.40466399999991,2.0691439999999925,1861
40.36066399999997,-3.7628560000000046,3345
41.65666399999997,-1.170856000000006,3262
41.332663999999966,1.4211439999999929,3200
43.276663999999954,13.733143999999989,65535
42.95266399999996,13.733143999999989,65535
41.65666399999997,15.029143999999986,65535
40.68466399999997,17.621143999999987,65535
43.60066399999995,13.085143999999987,6048
41.65666399999997,12.437143999999988,5846
41.65666399999997,13.085143999999987,5853
41.98066399999996,13.085143999999987,5864
41.65666399999997,13.733143999999989,5901
41.332663999999966,13.733143999999989,5930
41.332663999999966,14.381143999999988,6149
41.00866399999997,14.381143999999988,6055
41.332663999999966,13.085143999999987,5913
41.00866399999997,15.029143999999986,6255
41.98066399999996,13.733143999999989,5946
42.30466399999996,14.381143999999988,6336
42.30466399999996,12.437143999999988,5891
42.62866399999996,12.437143999999988,5899
42.95266399999996,12.437143999999988,5956
42.30466399999996,11.789143999999988,5860
42.95266399999996,11.789143999999988,6156
42.62866399999996,11.789143999999988,6147
43.276663999999954,11.789143999999988,6210
42.95266399999996,13.085143999999987,5949
42.30466399999996,13.085143999999987,9103
43.276663999999954,13.085143999999987,6001
43.276663999999954,12.437143999999988,6009
42.62866399999996,11.141143999999988,5992
42.95266399999996,11.141143999999988,6035
42.95266399999996,10.493143999999988,6053
44.572663999999946,8.54914399999999,1864
44.89666399999994,7.90114399999999,1854
44.89666399999994,9.197143999999987,1932
44.24866399999995,7.90114399999999,1920
44.572663999999946,7.90114399999999,1880
43.92466399999995,7.90114399999999,2018
44.24866399999995,7.25314399999999,1909
44.89666399999994,7.25314399999999,1878
45.22066399999994,7.25314399999999,1858
45.54466399999994,7.90114399999999,1860
44.572663999999946,7.25314399999999,1942
52.996663999999896,22.805143999999984,2695
52.996663999999896,23.45314399999998,2724
51.37666399999991,22.15714399999998,2058
51.37666399999991,22.805143999999984,2066
50.08066399999991,20.213143999999986,1789
50.72866399999991,20.213143999999986,1884
50.40466399999991,20.213143999999986,1845
50.08066399999991,20.86114399999998,1825
50.08066399999991,21.50914399999997,1866
50.08066399999991,22.15714399999998,1885
50.08066399999991,22.805143999999984,1907
53.96866399999989,22.805143999999984,2836
53.64466399999989,23.45314399999998,2792
53.32066399999989,23.45314399999998,2747
50.40466399999991,19.565143999999982,1853
50.08066399999991,18.917143999999983,1890
50.08066399999991,18.269143999999983,1860
52.0246639999999,22.805143999999984,2132
52.0246639999999,23.45314399999998,2170
51.37666399999991,19.565143999999982,1954
51.05266399999991,19.565143999999982,1873
50.72866399999991,18.917143999999983,1851
50.72866399999991,19.565143999999982,1905
49.75666399999992,18.917143999999983,1638
50.40466399999991,18.269143999999983,1838
53.64466399999989,19.565143999999982,2052
53.96866399999989,18.917143999999983,2069
53.64466399999989,18.917143999999983,2022
53.64466399999989,20.213143999999986,2122
52.996663999999896,18.917143999999983,1955
52.996663999999896,18.269143999999983,1916
53.32066399999989,18.917143999999983,1976
50.72866399999991,17.621143999999987,1827
50.72866399999991,18.269143999999983,1835
52.6726639999999,16.325143999999987,1903
52.996663999999896,16.325143999999987,1915
52.996663999999896,15.677143999999986,1934
53.32066399999989,15.677143999999986,2004
53.32066399999989,15.029143999999986,1975
53.64466399999989,15.029143999999986,1971
53.96866399999989,15.029143999999986,1957
52.6726639999999,18.917143999999983,2001
53.32066399999989,16.325143999999987,2137
52.6726639999999,15.029143999999986,1930
51.05266399999991,22.805143999999984,2057
51.05266399999991,23.45314399999998,2077
50.72866399999991,22.15714399999998,1929
50.40466399999991,22.15714399999998,1952
51.05266399999991,22.15714399999998,2018
54.616663999999886,16.973143999999984,2078
54.29266399999989,16.325143999999987,2022
53.96866399999989,15.677143999999986,1970
50.72866399999991,21.50914399999997,1917
50.40466399999991,21.50914399999997,1904
50.40466399999991,17.621143999999987,1845
53.32066399999989,22.805143999999984,2717
53.64466399999989,22.15714399999998,2677
54.29266399999989,16.973143999999984,2037
50.72866399999991,20.86114399999998,1922
51.700663999999904,22.805143999999984,2268
51.05266399999991,21.50914399999997,1977
50.08066399999991,19.565143999999982,1774
52.0246639999999,18.917143999999983,8488
52.0246639999999,19.565143999999982,8481
53.64466399999989,18.269143999999983,2018
51.700663999999904,20.213143999999986,2094
53.32066399999989,19.565143999999982,2075
50.72866399999991,23.45314399999998,2281
50.72866399999991,22.805143999999984,2251
49.43266399999992,20.213143999999986,1765
49.75666399999992,21.50914399999997,1922
49.75666399999992,22.15714399999998,1919
49.43266399999992,22.15714399999998,1692
51.05266399999991,18.917143999999983,1887
51.05266399999991,18.269143999999983,1848
53.32066399999989,16.973143999999984,1918
53.64466399999989,16.973143999999984,1960
49.75666399999992,20.86114399999998,1740
50.40466399999991,22.805143999999984,8570
53.64466399999989,16.325143999999987,2033
53.96866399999989,20.86114399999998,2229
54.29266399999989,20.86114399999998,2275
53.96866399999989,21.50914399999997,2292
53.64466399999989,15.677143999999986,1984
53.96866399999989,20.213143999999986,2136
53.96866399999989,19.565143999999982,2125
54.29266399999989,19.565143999999982,2139
53.96866399999989,16.325143999999987,2044
53.64466399999989,17.621143999999987,1968
53.96866399999989,22.15714399999998,2358
53.64466399999989,21.50914399999997,2726
53.64466399999989,20.86114399999998,2233
52.6726639999999,15.677143999999986,1938
51.05266399999991,20.213143999999986,2315
54.940663999999884,24.101143999999977,3681
54.616663999999886,23.45314399999998,3625
54.29266399999989,23.45314399999998,3488
53.64466399999989,22.805143999999984,2740
53.96866399999989,16.973143999999984,1993
50.40466399999991,20.86114399999998,2003
53.32066399999989,18.269143999999983,2029
49.75666399999992,19.565143999999982,1679
50.40466399999991,23.45314399999998,1996
49.75666399999992,20.213143999999986,1837
49.43266399999992,19.565143999999982,1725
49.43266399999992,20.86114399999998,1715
53.96866399999989,17.621143999999987,2763
42.30466399999996,-1.8188560000000056,8799
41.98066399999996,-1.8188560000000056,8782
41.65666399999997,0.7731439999999932,8786
42.62866399999996,-1.8188560000000056,8914
42.95266399999996,-1.8188560000000056,8943
42.62866399999996,-3.114856000000005,9037
42.95266399999996,-2.4668560000000053,9015
42.62866399999996,-7.650856000000003,9379
42.30466399999996,-7.650856000000003,9439
42.30466399999996,-8.946856000000002,9575
42.30466399999996,-8.298856000000002,9549
41.98066399999996,-8.298856000000002,9538
42.30466399999996,-7.002856000000003,9321
42.62866399999996,-6.354856000000003,9263
42.30466399999996,-6.354856000000003,9218
42.62866399999996,-5.706856000000004,8718
41.98066399999996,-4.410856000000004,8672
42.30466399999996,-3.7628560000000046,9063
40.03666399999997,-0.5228560000000062,8766
39.38866399999998,-0.5228560000000062,8814
41.00866399999997,0.7731439999999932,8914
40.68466399999997,0.7731439999999932,8946
40.36066399999997,0.1251439999999934,9024
39.712663999999975,-0.5228560000000062,8923
38.41666399999998,-0.5228560000000062,8935
39.06466399999998,-0.5228560000000062,9057
38.74066399999998,-1.170856000000006,8943
41.332663999999966,0.7731439999999932,8974
41.65666399999997,2.717143999999992,8574
41.65666399999997,2.0691439999999925,8597
41.332663999999966,0.1251439999999934,8932
41.332663999999966,-0.5228560000000062,8876
41.65666399999997,-4.410856000000004,8646
40.03666399999997,-2.4668560000000053,8884
41.00866399999997,-4.410856000000004,8767
43.276663999999954,-5.706856000000004,8848
39.38866399999998,-1.170856000000006,8909
38.09266399999999,-1.170856000000006,9322
38.74066399999998,-0.5228560000000062,9085
37.76866399999999,-1.170856000000006,9387
39.06466399999998,-1.8188560000000056,8907
39.38866399999998,-3.114856000000005,8807
39.38866399999998,-2.4668560000000053,8863
39.06466399999998,-2.4668560000000053,8890
39.06466399999998,-3.114856000000005,8811
39.06466399999998,-3.7628560000000046,8785
38.74066399999998,-3.7628560000000046,8864
40.03666399999997,-3.7628560000000046,8763
40.03666399999997,-3.114856000000005,8963
40.03666399999997,-1.8188560000000056,9044
39.712663999999975,-1.8188560000000056,9009
39.712663999999975,-1.170856000000006,8945
40.36066399999997,-1.170856000000006,8964
40.68466399999997,-1.170856000000006,8942
41.00866399999997,-1.170856000000006,8930
41.332663999999966,-1.170856000000006,8770
43.276663999999954,-8.298856000000002,9539
42.95266399999996,-8.298856000000002,9507
41.65666399999997,-5.706856000000004,65535
41.98066399999996,-7.002856000000003,65535
41.98066399999996,-6.354856000000003,65535
41.332663999999966,-5.058856000000004,8885
43.276663999999954,-3.7628560000000046,9320
42.95266399999996,-4.410856000000004,9254
42.62866399999996,-4.410856000000004,9244
42.30466399999996,-4.410856000000004,9203
41.00866399999997,-5.706856000000004,8823
41.332663999999966,-1.8188560000000056,8716
40.68466399999997,-3.114856000000005,8670
41.00866399999997,-3.114856000000005,8721
41.00866399999997,-2.4668560000000053,8744
41.332663999999966,-2.4668560000000053,8797
40.68466399999997,-4.410856000000004,8707
40.36066399999997,-4.410856000000004,8791
40.68466399999997,-3.7628560000000046,8699
40.36066399999997,-3.114856000000005,8677
41.65666399999997,-2.4668560000000053,8814
38.09266399999999,-3.7628560000000046,8911
38.74066399999998,-3.114856000000005,8855
37.76866399999999,-3.7628560000000046,8968
39.712663999999975,-3.114856000000005,8799
38.41666399999998,-3.7628560000000046,8876
40.03666399999997,-4.410856000000004,65535
40.03666399999997,-5.058856000000004,65535
39.38866399999998,-6.354856000000003,65535
39.38866399999998,-7.002856000000003,65535
42.95266399999996,-3.114856000000005,9448
41.98066399999996,-1.170856000000006,8811
42.30466399999996,-2.4668560000000053,8852
41.65666399999997,-0.5228560000000062,8909
41.98066399999996,-0.5228560000000062,8746
41.65666399999997,0.1251439999999934,8773
41.98066399999996,0.1251439999999934,8795
37.76866399999999,-5.058856000000004,8847
36.79666399999999,-4.410856000000004,8906
38.74066399999998,-4.410856000000004,8803
37.12066399999999,-4.410856000000004,8880
37.44466399999999,-5.058856000000004,9404
37.44466399999999,-7.002856000000003,65535
37.44466399999999,-6.354856000000003,65535
37.44466399999999,-5.706856000000004,9080
39.712663999999975,-3.7628560000000046,8873
42.62866399999996,-8.946856000000002,65535
42.30466399999996,-5.706856000000004,9225
42.30466399999996,-5.058856000000004,9310
42.95266399999996,-5.706856000000004,8750
41.00866399999997,-5.058856000000004,8791
40.68466399999997,-5.058856000000004,8765
41.65666399999997,-5.058856000000004,65535
41.65666399999997,-6.354856000000003,65535
36.79666399999999,-6.354856000000003,65535
37.12066399999999,-5.706856000000004,9248
37.76866399999999,-5.706856000000004,9047
38.09266399999999,-4.410856000000004,9182
37.12066399999999,-5.058856000000004,9202
36.79666399999999,-5.058856000000004,9160
37.76866399999999,-4.410856000000004,65535
37.76866399999999,-7.002856000000003,65535
38.41666399999998,-6.354856000000003,65535
38.09266399999999,-6.354856000000003,65535
48.78466399999992,1.4211439999999929,1921
56.23666399999988,8.54914399999999,7090
55.58866399999988,9.197143999999987,6895
55.91266399999988,9.197143999999987,7036
55.26466399999988,10.493143999999988,2514
55.91266399999988,12.437143999999988,2649
55.58866399999988,11.789143999999988,6735
55.58866399999988,11.141143999999988,6776
55.26466399999988,11.789143999999988,6768
55.58866399999988,10.493143999999988,6891
55.58866399999988,13.085143999999987,2606
56.88466399999987,9.845143999999989,7042
57.20866399999987,9.845143999999989,7077
56.56066399999988,9.845143999999989,7014
56.88466399999987,8.54914399999999,7129
54.940663999999884,9.845143999999989,8236
54.940663999999884,11.789143999999988,6992
55.91266399999988,13.085143999999987,2664
56.23666399999988,13.733143999999989,2708
55.91266399999988,13.733143999999989,2711
56.23666399999988,14.381143999999988,2731
56.23666399999988,15.029143999999986,2772
56.23666399999988,15.677143999999986,2827
56.56066399999988,14.381143999999988,2788
56.88466399999987,14.381143999999988,2758
56.23666399999988,13.085143999999987,2656
56.56066399999988,13.085143999999987,2736
56.88466399999987,12.437143999999988,2773
57.20866399999987,12.437143999999988,2789
57.53266399999987,12.437143999999988,2804
56.88466399999987,15.029143999999986,2784
56.56066399999988,15.677143999999986,2844
56.88466399999987,15.677143999999986,2863
56.88466399999987,16.325143999999987,2878
55.91266399999988,11.789143999999988,7061
57.20866399999987,10.493143999999988,7264
49.43266399999992,1.4211439999999929,1884
49.75666399999992,0.7731439999999932,1938
49.75666399999992,2.0691439999999925,1870
50.08066399999991,2.717143999999992,1850
49.75666399999992,1.4211439999999929,1950
47.81266399999993,1.4211439999999929,1906
48.136663999999925,2.0691439999999925,1989
48.46066399999992,2.0691439999999925,1965
48.136663999999925,1.4211439999999929,1870
48.78466399999992,0.1251439999999934,2009
48.46066399999992,0.1251439999999934,1995
47.81266399999993,0.1251439999999934,1941
46.84066399999993,-0.5228560000000062,2085
47.16466399999993,0.7731439999999932,1911
46.84066399999993,0.1251439999999934,1919
46.84066399999993,-1.170856000000006,2013
50.08066399999991,1.4211439999999929,1897
50.08066399999991,2.0691439999999925,1878
49.43266399999992,2.717143999999992,1872
49.75666399999992,3.365143999999992,1870
50.08066399999991,3.365143999999992,1822
49.10866399999992,2.0691439999999925,1956
49.43266399999992,2.0691439999999925,1958
48.78466399999992,0.7731439999999932,2074
48.78466399999992,-0.5228560000000062,2131
48.78466399999992,-1.170856000000006,2082
48.136663999999925,0.7731439999999932,1907
48.46066399999992,0.7731439999999932,1931
43.92466399999995,5.957143999999991,2044
44.24866399999995,5.957143999999991,2085
43.92466399999995,5.309143999999991,2000
42.95266399999996,2.717143999999992,2087
45.54466399999994,2.0691439999999925,2112
45.22066399999994,2.0691439999999925,2114
42.95266399999996,2.0691439999999925,2118
42.95266399999996,0.7731439999999932,2126
43.276663999999954,0.7731439999999932,2111
46.19266399999994,0.7731439999999932,2067
46.516663999999935,0.7731439999999932,2049
45.86866399999994,0.1251439999999934,1980
46.19266399999994,0.1251439999999934,1960
47.81266399999993,-1.170856000000006,2012
48.136663999999925,-2.4668560000000053,1978
47.48866399999993,-1.8188560000000056,2006
47.16466399999993,-1.170856000000006,1987
47.16466399999993,-0.5228560000000062,1969
46.84066399999993,-1.8188560000000056,1998
45.22066399999994,-0.5228560000000062,1967
44.89666399999994,0.1251439999999934,1982
45.22066399999994,0.7731439999999932,2021
45.54466399999994,0.7731439999999932,2082
45.86866399999994,0.7731439999999932,2080
45.22066399999994,0.1251439999999934,2013
44.89666399999994,0.7731439999999932,2042
43.92466399999995,-0.5228560000000062,2033
43.92466399999995,-1.170856000000006,2025
44.24866399999995,-1.170856000000006,2005
45.22066399999994,-1.170856000000006,2058
44.572663999999946,-0.5228560000000062,1963
44.24866399999995,0.1251439999999934,2010
44.572663999999946,0.7731439999999932,2072
43.276663999999954,-1.170856000000006,2085
42.95266399999996,-0.5228560000000062,2077
44.24866399999995,2.0691439999999925,2108
43.60066399999995,0.7731439999999932,2084
43.60066399999995,2.0691439999999925,2055
52.6726639999999,4.661143999999991,7081
52.6726639999999,5.309143999999991,7104
51.700663999999904,5.309143999999991,7049
52.0246639999999,5.309143999999991,7061
52.3486639999999,5.309143999999991,7077
51.37666399999991,4.013143999999992,7057
52.3486639999999,5.957143999999991,7071
52.0246639999999,6.60514399999999,7101
52.6726639999999,5.957143999999991,7088
52.996663999999896,5.957143999999991,7101
53.32066399999989,5.957143999999991,7095
52.996663999999896,6.60514399999999,7077
53.32066399999989,6.60514399999999,7069
52.6726639999999,6.60514399999999,7097
52.996663999999896,5.309143999999991,7116
59.15266399999986,24.101143999999977,65535
56.88466399999987,24.101143999999977,65535
56.88466399999987,23.45314399999998,65535
56.88466399999987,22.805143999999984,65535
57.20866399999987,24.74914399999998,65535
56.88466399999987,24.74914399999998,65535
56.56066399999988,24.74914399999998,65535
56.56066399999988,25.397143999999983,65535
56.56066399999988,24.101143999999977,65535
56.56066399999988,23.45314399999998,65535
56.56066399999988,26.04514399999998,65535
56.88466399999987,26.04514399999998,65535
57.20866399999987,25.397143999999983,65535
57.53266399999987,25.397143999999983,65535
56.23666399999988,26.04514399999998,65535
56.23666399999988,26.69314399999997,65535
55.91266399999988,26.69314399999997,65535
56.56066399999988,26.69314399999997,65535
56.56066399999988,27.34114399999998,65535
56.56066399999988,27.989143999999985,65535
56.23666399999988,27.989143999999985,65535
55.91266399999988,27.34114399999998,65535
56.56066399999988,22.805143999999984,65535
56.56066399999988,22.15714399999998,65535
56.56066399999988,21.50914399999997,65535
57.20866399999987,26.69314399999997,65535
39.06466399999998,-8.946856000000002,65535
38.41666399999998,-8.298856000000002,65535
45.86866399999994,11.789143999999988,4468
46.19266399999994,11.789143999999988,4455
46.19266399999994,10.493143999999988,4445
45.22066399999994,18.269143999999983,1932
45.22066399999994,18.917143999999983,1973
45.54466399999994,16.973143999999984,1835
45.22066399999994,17.621143999999987,1876
45.86866399999994,16.325143999999987,1796
45.54466399999994,18.917143999999983,2020
45.54466399999994,16.325143999999987,1810
45.54466399999994,18.269143999999983,1988
44.89666399999994,18.917143999999983,2170
46.19266399999994,16.973143999999984,1796
46.19266399999994,16.325143999999987,1801
45.86866399999994,16.973143999999984,1813
45.86866399999994,17.621143999999987,1908
46.19266399999994,15.677143999999986,1770
46.516663999999935,16.325143999999987,1775
45.54466399999994,15.677143999999986,1845
45.22066399999994,15.029143999999986,1881
45.54466399999994,15.029143999999986,1842
45.22066399999994,15.677143999999986,1906
44.572663999999946,15.677143999999986,2059
44.24866399999995,15.677143999999986,2080
43.92466399999995,16.325143999999987,2144
44.89666399999994,15.677143999999986,2023
45.54466399999994,17.621143999999987,1887
45.22066399999994,16.325143999999987,1865
46.516663999999935,16.973143999999984,1788
45.86866399999994,18.269143999999983,2080
43.92466399999995,15.677143999999986,2246
45.22066399999994,13.733143999999989,1890
47.48866399999993,19.565143999999982,1291
47.16466399999993,18.917143999999983,1298
47.81266399999993,18.917143999999983,1294
45.54466399999994,9.845143999999989,1819
45.22066399999994,9.845143999999989,1828
45.22066399999994,10.493143999999988,1878
45.86866399999994,9.845143999999989,1839
45.86866399999994,10.493143999999988,7158
48.78466399999992,21.50914399999997,1516
49.10866399999992,20.213143999999986,1601
49.10866399999992,18.917143999999983,1569
48.46066399999992,17.621143999999987,1379
49.43266399999992,17.621143999999987,1530
49.10866399999992,17.621143999999987,1492
48.136663999999925,18.269143999999983,1341
49.10866399999992,18.269143999999983,1431
49.43266399999992,18.269143999999983,1491
49.43266399999992,16.973143999999984,1561
49.75666399999992,16.973143999999984,1574
49.75666399999992,16.325143999999987,1619
50.08066399999991,15.677143999999986,1650
50.08066399999991,15.029143999999986,1666
49.43266399999992,18.917143999999983,1555
47.81266399999993,20.86114399999998,1435
48.136663999999925,20.86114399999998,1466
48.46066399999992,20.86114399999998,1508
48.46066399999992,21.50914399999997,1512
49.10866399999992,19.565143999999982,1662
48.136663999999925,17.621143999999987,1364
48.78466399999992,22.15714399999998,1557
48.78466399999992,20.86114399999998,1887
49.10866399999992,20.86114399999998,1595
48.78466399999992,18.269143999999983,1401
48.78466399999992,17.621143999999987,1419
49.10866399999992,21.50914399999997,1571
48.78466399999992,20.213143999999986,1895
48.46066399999992,20.213143999999986,1936
48.136663999999925,19.565143999999982,2085
48.46066399999992,19.565143999999982,1964
48.46066399999992,18.917143999999983,1414
48.46066399999992,18.269143999999983,1386
48.78466399999992,19.565143999999982,1730
48.78466399999992,18.917143999999983,1472
47.81266399999993,18.269143999999983,1338
49.10866399999992,22.15714399999998,1604
49.43266399999992,21.50914399999997,1654
48.136663999999925,18.917143999999983,1322
48.136663999999925,20.213143999999986,2105
52.636,-8.018,65535
52.312,-7.370000000000001,65535
52.312,-8.018,65535
52.636,-8.666,65535
51.988,-8.666,65535
51.988,-8.018,65535
52.96,-8.666,65535
52.96,-6.074000000000002,65535
53.28399999999999,-6.722000000000001,65535
53.60799999999999,-6.722000000000001,65535
53.60799999999999,-7.370000000000001,65535
53.60799999999999,-8.018,65535
54.25599999999999,-8.666,65535
53.93199999999999,-8.666,65535
53.93199999999999,-8.018,65535
52.312,-6.722000000000001,65535
52.636,-6.722000000000001,65535
53.93199999999999,-6.722000000000001,65535
54.25599999999999,-6.074000000000002,65535
53.28399999999999,-7.370000000000001,65535
52.96,-7.370000000000001,65535
52.312,-8.666,65535
52.96,-8.018,65535
52.636,-7.370000000000001,65535
52.96,-6.722000000000001,65535
51.988,-9.314,65535
52.312,-9.314,65535
54.579999999999984,-6.722000000000001,65535
54.579999999999984,-6.074000000000002,65535
53.28399999999999,-8.018,65535
53.28399999999999,-8.666,65535
53.28399999999999,-9.314,65535
53.93199999999999,-9.314,65535
54.25599999999999,-9.314,65535
53.60799999999999,-8.666,65535
53.60799999999999,-9.314,65535
49.43266399999992,14.381143999999988,1715
49.75666399999992,14.381143999999988,1682
49.75666399999992,15.029143999999986,1678
49.75666399999992,13.733143999999989,1703
50.08066399999991,13.733143999999989,1697
49.75666399999992,15.677143999999986,1677
50.40466399999991,15.029143999999986,1695
49.43266399999992,13.733143999999989,1806
50.40466399999991,15.677143999999986,1787
50.40466399999991,13.733143999999989,1723
46.19266399999994,15.029143999999986,1753
45.86866399999994,15.029143999999986,1798
45.86866399999994,14.381143999999988,1775
46.19266399999994,13.733143999999989,1862
45.86866399999994,13.733143999999989,1948
58.50466399999986,13.733143999999989,2900
58.180663999999865,13.733143999999989,2886
58.180663999999865,13.085143999999987,2858
57.85666399999987,12.437143999999988,2822
60.44866399999985,15.677143999999986,3107
60.124663999999854,15.677143999999986,3041
60.124663999999854,16.325143999999987,3079
59.800663999999855,16.325143999999987,3007
59.800663999999855,17.621143999999987,2986
59.47666399999986,18.269143999999983,2968
61.74466399999984,16.973143999999984,3118
61.420663999999846,16.973143999999984,3091
60.77266399999985,16.973143999999984,3043
65.63266399999982,22.15714399999998,4222
65.95666399999982,21.50914399999997,4182
65.63266399999982,20.86114399999998,4153
64.98466399999982,20.213143999999986,4085
64.66066399999983,20.213143999999986,4063
64.33666399999983,19.565143999999982,3757
64.01266399999983,19.565143999999982,3470
63.68866399999983,20.213143999999986,3423
64.66066399999983,18.917143999999983,6134
59.15266399999986,16.325143999999987,2943
59.15266399999986,15.029143999999986,2947
59.15266399999986,17.621143999999987,2960
57.53266399999987,14.381143999999988,2784
57.53266399999987,15.029143999999986,2804
61.09666399999985,14.381143999999988,3211
60.77266399999985,15.029143999999986,3162
60.44866399999985,15.029143999999986,3148
58.180663999999865,15.029143999999986,2861
58.50466399999986,16.325143999999987,2895
58.50466399999986,15.677143999999986,2868
63.36466399999984,13.085143999999987,3455
63.04066399999984,14.381143999999988,3392
62.39266399999984,15.677143999999986,3314
63.36466399999984,13.733143999999989,3437
63.36466399999984,14.381143999999988,3409
62.71666399999984,15.677143999999986,3342
62.39266399999984,17.621143999999987,3176
59.800663999999855,15.677143999999986,3229
55.58866399999988,13.733143999999989,2738
57.20866399999987,14.381143999999988,2768
57.85666399999987,14.381143999999988,2816
58.82866399999986,16.973143999999984,2952
58.82866399999986,16.325143999999987,2930
59.15266399999986,18.269143999999983,2964
60.44866399999985,17.621143999999987,3019
59.15266399999986,12.437143999999988,2923
59.15266399999986,13.085143999999987,2937
58.82866399999986,12.437143999999988,2899
59.47666399999986,16.325143999999987,2989
58.82866399999986,14.381143999999988,2976
59.47666399999986,15.677143999999986,3007
63.36466399999984,18.917143999999983,3376
63.04066399999984,17.621143999999987,3331
62.71666399999984,17.621143999999987,3305
63.68866399999983,19.565143999999982,3409
62.39266399999984,16.973143999999984,3220
59.800663999999855,16.973143999999984,2995
59.47666399999986,17.621143999999987,2972
57.85666399999987,13.085143999999987,2848
57.53266399999987,13.085143999999987,2829
58.50466399999986,11.789143999999988,2870
57.85666399999987,15.029143999999986,2850
57.20866399999987,13.733143999999989,2774
57.53266399999987,13.733143999999989,2835
61.74466399999984,16.325143999999987,3214
61.420663999999846,16.325143999999987,3181
61.09666399999985,16.325143999999987,3170
61.09666399999985,16.973143999999984,3138
60.124663999999854,15.029143999999986,3316
66.60466399999981,20.86114399999998,4257
67.25266399999981,20.86114399999998,4325
67.90066399999981,20.213143999999986,4395
67.57666399999981,20.213143999999986,5020
59.800663999999855,15.029143999999986,3036
58.50466399999986,15.029143999999986,2878
59.47666399999986,15.029143999999986,3021
60.44866399999985,16.325143999999987,3107
59.15266399999986,15.677143999999986,2965
57.85666399999987,13.733143999999989,2876
58.82866399999986,13.733143999999989,2923
58.50466399999986,13.085143999999987,2908
57.20866399999987,13.085143999999987,2805
56.88466399999987,13.085143999999987,2779
58.180663999999865,11.789143999999988,2841
62.06866399999984,16.973143999999984,3209
65.95666399999982,23.45314399999998,4457
59.800663999999855,14.381143999999988,5891
59.800663999999855,18.269143999999983,2977
63.04066399999984,15.029143999999986,3360
62.71666399999984,15.029143999999986,3350
62.39266399999984,16.325143999999987,3283
63.36466399999984,12.437143999999988,3488
68.5486639999998,17.621143999999987,4608
68.5486639999998,18.269143999999983,4541
68.5486639999998,18.917143999999983,4518
68.2246639999998,18.917143999999983,4474
59.800663999999855,13.085143999999987,3040
60.124663999999854,13.085143999999987,3079
59.47666399999986,16.973143999999984,2981
59.15266399999986,16.973143999999984,2973
56.56066399999988,13.733143999999989,2726
60.124663999999854,17.621143999999987,2996
57.85666399999987,16.325143999999987,2955
58.180663999999865,16.325143999999987,2917
58.180663999999865,15.677143999999986,2925
57.20866399999987,16.325143999999987,2967
57.53266399999987,15.677143999999986,2985
57.85666399999987,15.677143999999986,2956
44.89666399999994,23.45314399999998,358
44.572663999999946,23.45314399999998,288
44.89666399999994,24.74914399999998,31
44.572663999999946,24.74914399999998,191
44.572663999999946,24.101143999999977,189
44.24866399999995,24.101143999999977,170
47.48866399999993,25.397143999999983,596
47.48866399999993,24.74914399999998,680
47.16466399999993,24.74914399999998,602
47.16466399999993,24.101143999999977,620
47.48866399999993,22.15714399999998,763
47.81266399999993,22.15714399999998,834
47.16466399999993,22.15714399999998,688
47.16466399999993,23.45314399999998,714
47.16466399999993,22.805143999999984,839
46.84066399999993,24.101143999999977,575
45.86866399999994,27.34114399999998,360
45.54466399999994,27.34114399999998,190
45.54466399999994,27.989143999999985,215
45.86866399999994,20.86114399999998,982
45.86866399999994,21.50914399999997,775
46.19266399999994,21.50914399999997,766
46.19266399999994,27.34114399999998,382
46.19266399999994,26.69314399999997,423
46.516663999999935,26.69314399999997,419
46.516663999999935,26.04514399999998,396
47.48866399999993,22.805143999999984,1365
46.84066399999993,22.805143999999984,670
45.54466399999994,22.15714399999998,678
45.22066399999994,22.15714399999998,729
44.89666399999994,22.15714399999998,595
47.48866399999993,23.45314399999998,753
46.516663999999935,24.101143999999977,471
46.516663999999935,24.74914399999998,476
45.86866399999994,24.101143999999977,416
47.16466399999993,26.69314399999997,477
47.16466399999993,27.34114399999998,543
43.92466399999995,25.397143999999983,163
44.24866399999995,24.74914399999998,70
44.89666399999994,26.04514399999998,36
44.89666399999994,26.69314399999997,44
45.22066399999994,26.69314399999997,61
45.22066399999994,27.34114399999998,147
46.84066399999993,26.69314399999997,450
47.48866399999993,26.69314399999997,493
44.24866399999995,25.397143999999983,58
43.92466399999995,26.04514399999998,179
46.19266399999994,24.101143999999977,447
44.572663999999946,25.397143999999983,0
46.84066399999993,24.74914399999998,493
46.516663999999935,21.50914399999997,819
46.84066399999993,21.50914399999997,753
44.572663999999946,26.69314399999997,36
44.572663999999946,27.34114399999998,46
44.89666399999994,27.34114399999998,146
44.572663999999946,27.989143999999985,86
44.24866399999995,27.989143999999985,119
44.572663999999946,28.63714399999997,125
45.86866399999994,22.15714399999998,657
45.86866399999994,22.805143999999984,567
44.24866399999995,23.45314399999998,345
43.92466399999995,27.989143999999985,65535
46.84066399999993,27.34114399999998,478
45.22066399999994,23.45314399999998,419
45.54466399999994,23.45314399999998,476
45.54466399999994,24.101143999999977,428
45.22066399999994,24.101143999999977,356
44.89666399999994,24.101143999999977,330
46.19266399999994,22.15714399999998,707
46.516663999999935,22.15714399999998,1202
45.22066399999994,21.50914399999997,1325
45.54466399999994,21.50914399999997,897
45.54466399999994,20.86114399999998,1295
46.516663999999935,27.989143999999985,424
46.19266399999994,27.989143999999985,398
45.54466399999994,25.397143999999983,81
45.22066399999994,25.397143999999983,60
45.22066399999994,26.04514399999998,87
47.81266399999993,24.101143999999977,1426
47.48866399999993,26.04514399999998,510
47.81266399999993,26.04514399999998,556
46.19266399999994,23.45314399999998,501
45.86866399999994,23.45314399999998,549
44.24866399999995,26.04514399999998,38
45.22066399999994,27.989143999999985,196
45.86866399999994,24.74914399999998,368
46.516663999999935,25.397143999999983,475
46.84066399999993,25.397143999999983,493
46.19266399999994,26.04514399999998,344
45.86866399999994,26.04514399999998,293
43.92466399999995,23.45314399999998,418
44.89666399999994,25.397143999999983,14
46.19266399999994,20.86114399999998,871
47.81266399999993,25.397143999999983,747
44.572663999999946,22.805143999999984,423
44.572663999999946,22.15714399999998,565
46.516663999999935,23.45314399999998,549
45.86866399999994,25.397143999999983,384
44.24866399999995,27.34114399999998,811
45.22066399999994,24.74914399999998,136
45.54466399999994,22.805143999999984,552
45.22066399999994,28.63714399999997,256
44.89666399999994,28.63714399999997,195
47.81266399999993,23.45314399999998,1287
46.19266399999994,24.74914399999998,446
46.19266399999994,25.397143999999983,435
43.92466399999995,24.101143999999977,381
43.92466399999995,24.74914399999998,394
47.81266399999993,26.69314399999997,647
47.48866399999993,24.101143999999977,1080
46.84066399999993,26.04514399999998,726
46.19266399999994,22.805143999999984,1490
47.48866399999993,27.34114399999998,580
46.19266399999994,20.213143999999986,65535
45.54466399999994,26.04514399999998,219
44.24866399999995,26.69314399999997,92
45.86866399999994,27.989143999999985,362
47.81266399999993,5.957143999999991,7066
