51.56399999999999,-0.4100000000000028,965
51.887999999999984,-0.4100000000000028,957
50.91599999999999,-1.7060000000000022,1596
51.23999999999999,-1.0580000000000025,1001
51.56399999999999,-1.0580000000000025,983
51.23999999999999,-1.7060000000000022,1010
51.56399999999999,0.2379999999999968,980
47.16466399999993,9.845143999999989,65535
47.48866399999993,9.845143999999989,65535
48.136663999999925,14.381143999999988,65535
47.81266399999993,13.085143999999987,65535
47.16466399999993,11.141143999999988,65535
47.48866399999993,11.789143999999988,65535
48.136663999999925,16.325143999999987,65535
47.48866399999993,12.437143999999988,65535
48.136663999999925,15.677143999999986,65535
47.16466399999993,10.493143999999988,65535
47.16466399999993,9.197143999999987,65535
48.136663999999925,13.733143999999989,65535
48.136663999999925,15.029143999999986,65535
47.81266399999993,16.973143999999984,65535
48.46066399999992,14.381143999999988,65535
47.48866399999993,13.085143999999987,65535
47.16466399999993,13.085143999999987,65535
47.48866399999993,14.381143999999988,65535
47.48866399999993,13.733143999999989,65535
47.48866399999993,15.029143999999986,65535
46.516663999999935,13.733143999999989,65535
46.84066399999993,13.733143999999989,65535
46.84066399999993,13.085143999999987,65535
48.78466399999992,14.381143999999988,65535
47.16466399999993,15.677143999999986,65535
46.516663999999935,14.381143999999988,65535
46.84066399999993,14.381143999999988,65535
47.16466399999993,14.381143999999988,65535
46.516663999999935,15.029143999999986,65535
47.81266399999993,16.325143999999987,65535
47.16466399999993,15.029143999999986,65535
47.81266399999993,15.677143999999986,65535
47.48866399999993,15.677143999999986,65535
46.516663999999935,13.085143999999987,65535
46.84066399999993,12.437143999999988,65535
48.136663999999925,11.789143999999988,65535
47.81266399999993,12.437143999999988,65535
46.84066399999993,15.677143999999986,65535
46.516663999999935,15.677143999999986,65535
46.84066399999993,16.325143999999987,65535
47.81266399999993,14.381143999999988,65535
48.78466399999992,16.973143999999984,65535
48.136663999999925,16.973143999999984,65535
48.46066399999992,13.733143999999989,65535
47.81266399999993,13.733143999999989,65535
50.08066399999991,8.54914399999999,65535
48.46066399999992,9.845143999999989,65535
51.05266399999991,7.25314399999999,65535
51.37666399999991,7.25314399999999,65535
51.37666399999991,6.60514399999999,65535
48.46066399999992,16.325143999999987,65535
48.46066399999992,16.973143999999984,65535
48.78466399999992,16.325143999999987,65535
48.46066399999992,15.677143999999986,65535
48.78466399999992,15.677143999999986,65535
47.48866399999993,16.325143999999987,65535
47.16466399999993,16.325143999999987,65535
46.19266399999994,14.381143999999988,65535
45.86866399999994,15.677143999999986,65535
43.60066399999995,16.325143999999987,65535
45.54466399999994,14.381143999999988,65535
45.54466399999994,13.733143999999989,65535
48.136663999999925,13.085143999999987,65535
48.46066399999992,11.141143999999988,65535
48.136663999999925,11.141143999999988,65535
48.46066399999992,7.90114399999999,65535
49.10866399999992,8.54914399999999,65535
48.78466399999992,2.0691439999999925,65535
49.10866399999992,7.25314399999999,65535
52.0246639999999,7.90114399999999,65535
47.16466399999993,11.789143999999988,65535
49.43266399999992,11.141143999999988,65535
53.64466399999989,9.845143999999989,65535
50.72866399999991,4.013143999999992,65535
51.05266399999991,11.141143999999988,65535
47.48866399999993,11.141143999999988,65535
46.84066399999993,11.789143999999988,65535
46.516663999999935,11.141143999999988,65535
45.54466399999994,11.141143999999988,65535
46.19266399999994,11.141143999999988,65535
45.86866399999994,11.141143999999988,65535
44.572663999999946,11.141143999999988,65535
43.92466399999995,12.437143999999988,65535
45.54466399999994,12.437143999999988,65535
45.54466399999994,11.789143999999988,65535
48.78466399999992,15.029143999999986,65535
47.81266399999993,15.029143999999986,65535
47.81266399999993,11.141143999999988,65535
50.40466399999991,18.917143999999983,65535
52.3486639999999,20.86114399999998,65535
54.616663999999886,18.269143999999983,65535
54.29266399999989,18.917143999999983,65535
49.10866399999992,14.381143999999988,65535
50.08066399999991,14.381143999999988,65535
48.78466399999992,13.733143999999989,65535
52.6726639999999,13.085143999999987,65535
52.3486639999999,13.085143999999987,65535
53.96866399999989,12.437143999999988,65535
54.29266399999989,12.437143999999988,65535
47.48866399999993,8.54914399999999,65535
47.81266399999993,17.621143999999987,65535
47.48866399999993,18.917143999999983,65535
47.48866399999993,20.86114399999998,65535
46.84066399999993,23.45314399999998,65535
44.572663999999946,26.04514399999998,65535
47.48866399999993,21.50914399999997,65535
47.81266399999993,21.50914399999997,65535
48.46066399999992,22.15714399999998,65535
47.48866399999993,16.973143999999984,65535
49.10866399999992,16.325143999999987,65535
49.75666399999992,18.269143999999983,65535
46.19266399999994,13.085143999999987,65535
41.98066399999996,12.437143999999988,65535
43.60066399999995,10.493143999999988,65535
45.54466399999994,9.197143999999987,65535
47.81266399999993,22.805143999999984,65535
49.75666399999992,22.805143999999984,65535
50.72866399999991,3.365143999999992,65535
51.05266399999991,4.013143999999992,65535
50.72866399999991,4.661143999999991,65535
51.05266399999991,4.661143999999991,65535
51.05266399999991,3.365143999999992,65535
51.05266399999991,2.717143999999992,65535
50.40466399999991,4.661143999999991,65535
50.72866399999991,2.717143999999992,65535
50.40466399999991,4.013143999999992,65535
51.05266399999991,5.309143999999991,65535
50.72866399999991,5.309143999999991,65535
51.37666399999991,3.365143999999992,65535
51.37666399999991,4.661143999999991,65535
50.72866399999991,5.957143999999991,65535
50.40466399999991,5.957143999999991,65535
50.40466399999991,3.365143999999992,65535
50.40466399999991,5.309143999999991,65535
50.08066399999991,5.309143999999991,65535
49.75666399999992,5.309143999999991,65535
49.75666399999992,5.957143999999991,65535
51.37666399999991,5.309143999999991,65535
51.700663999999904,4.661143999999991,65535
50.08066399999991,4.013143999999992,65535
50.08066399999991,5.957143999999991,65535
50.08066399999991,4.661143999999991,65535
49.43266399999992,5.309143999999991,65535
49.43266399999992,5.957143999999991,65535
52.0246639999999,4.661143999999991,65535
52.3486639999999,4.661143999999991,65535
50.72866399999991,15.029143999999986,65535
51.05266399999991,15.029143999999986,65535
51.05266399999991,13.733143999999989,65535
50.40466399999991,13.085143999999987,65535
49.10866399999992,7.90114399999999,65535
48.78466399999992,7.90114399999999,65535
50.40466399999991,7.90114399999999,65535
50.08066399999991,7.90114399999999,65535
49.75666399999992,7.90114399999999,65535
49.43266399999992,7.90114399999999,65535
49.75666399999992,8.54914399999999,65535
49.43266399999992,8.54914399999999,65535
49.43266399999992,9.197143999999987,65535
49.10866399999992,9.197143999999987,65535
47.48866399999993,7.90114399999999,65535
47.81266399999993,7.90114399999999,65535
48.136663999999925,7.90114399999999,65535
48.136663999999925,9.845143999999989,65535
47.81266399999993,9.197143999999987,65535
47.81266399999993,8.54914399999999,65535
47.81266399999993,9.845143999999989,65535
54.940663999999884,9.197143999999987,65535
54.616663999999886,9.197143999999987,65535
54.29266399999989,9.197143999999987,65535
53.96866399999989,9.197143999999987,65535
53.64466399999989,9.197143999999987,65535
54.616663999999886,9.845143999999989,65535
54.29266399999989,9.845143999999989,65535
53.96866399999989,9.845143999999989,65535
53.64466399999989,10.493143999999988,65535
53.96866399999989,10.493143999999988,65535
53.96866399999989,11.141143999999988,65535
54.29266399999989,10.493143999999988,65535
53.32066399999989,10.493143999999988,65535
54.940663999999884,11.141143999999988,65535
52.6726639999999,13.733143999999989,65535
52.3486639999999,13.733143999999989,65535
52.3486639999999,14.381143999999988,65535
52.0246639999999,14.381143999999988,65535
52.0246639999999,11.789143999999988,65535
52.3486639999999,11.789143999999988,65535
52.3486639999999,12.437143999999988,65535
52.0246639999999,15.029143999999986,65535
51.700663999999904,14.381143999999988,65535
52.0246639999999,13.733143999999989,65535
51.700663999999904,13.733143999999989,65535
52.6726639999999,12.437143999999988,65535
53.32066399999989,11.789143999999988,65535
53.96866399999989,11.789143999999988,65535
53.64466399999989,11.789143999999988,65535
53.64466399999989,11.141143999999988,65535
53.32066399999989,11.141143999999988,65535
52.996663999999896,11.789143999999988,65535
52.996663999999896,12.437143999999988,65535
52.996663999999896,13.733143999999989,65535
53.64466399999989,13.733143999999989,65535
53.96866399999989,13.733143999999989,65535
54.29266399999989,13.085143999999987,65535
53.96866399999989,13.085143999999987,65535
53.32066399999989,13.733143999999989,65535
52.0246639999999,13.085143999999987,65535
51.700663999999904,13.085143999999987,65535
52.996663999999896,14.381143999999988,65535
52.0246639999999,12.437143999999988,65535
51.700663999999904,12.437143999999988,65535
51.37666399999991,11.789143999999988,65535
51.37666399999991,12.437143999999988,65535
52.6726639999999,11.789143999999988,65535
53.64466399999989,13.085143999999987,65535
53.32066399999989,13.085143999999987,65535
52.996663999999896,13.085143999999987,65535
53.64466399999989,12.437143999999988,65535
51.37666399999991,13.733143999999989,65535
53.32066399999989,12.437143999999988,65535
52.6726639999999,14.381143999999988,65535
51.37666399999991,13.085143999999987,65535
53.32066399999989,14.381143999999988,65535
52.3486639999999,15.029143999999986,65535
52.0246639999999,15.677143999999986,65535
51.700663999999904,15.029143999999986,65535
51.05266399999991,16.325143999999987,65535
51.05266399999991,16.973143999999984,65535
51.700663999999904,15.677143999999986,65535
51.37666399999991,15.677143999999986,65535
51.37666399999991,16.325143999999987,65535
50.72866399999991,13.085143999999987,65535
50.72866399999991,12.437143999999988,65535
51.05266399999991,13.085143999999987,65535
51.05266399999991,14.381143999999988,65535
50.40466399999991,12.437143999999988,65535
50.40466399999991,11.789143999999988,65535
50.08066399999991,12.437143999999988,65535
50.72866399999991,11.789143999999988,65535
51.05266399999991,12.437143999999988,65535
50.72866399999991,14.381143999999988,65535
51.37666399999991,14.381143999999988,65535
50.72866399999991,13.733143999999989,65535
50.40466399999991,14.381143999999988,65535
51.37666399999991,15.029143999999986,65535
55.26466399999988,9.197143999999987,65535
55.58866399999988,8.54914399999999,65535
55.91266399999988,8.54914399999999,65535
56.23666399999988,9.197143999999987,65535
56.23666399999988,10.493143999999988,65535
56.23666399999988,9.845143999999989,65535
55.91266399999988,9.845143999999989,65535
56.56066399999988,9.197143999999987,65535
56.56066399999988,8.54914399999999,65535
51.05266399999991,6.60514399999999,65535
51.700663999999904,7.90114399999999,65535
50.72866399999991,6.60514399999999,65535
51.700663999999904,7.25314399999999,65535
50.72866399999991,7.25314399999999,65535
52.0246639999999,7.25314399999999,65535
52.3486639999999,7.90114399999999,65535
51.05266399999991,5.957143999999991,65535
50.40466399999991,7.25314399999999,65535
51.700663999999904,6.60514399999999,65535
51.700663999999904,5.957143999999991,65535
52.3486639999999,9.197143999999987,65535
51.700663999999904,8.54914399999999,65535
52.0246639999999,8.54914399999999,65535
52.3486639999999,8.54914399999999,65535
51.37666399999991,7.90114399999999,65535
52.3486639999999,7.25314399999999,65535
51.37666399999991,5.957143999999991,65535
50.72866399999991,7.90114399999999,65535
51.37666399999991,9.197143999999987,65535
51.700663999999904,9.197143999999987,65535
50.40466399999991,6.60514399999999,65535
51.05266399999991,7.90114399999999,65535
51.37666399999991,8.54914399999999,65535
52.0246639999999,5.957143999999991,65535
52.3486639999999,6.60514399999999,65535
51.05266399999991,8.54914399999999,65535
52.0246639999999,9.197143999999987,65535
52.6726639999999,9.197143999999987,65535
52.0246639999999,9.845143999999989,65535
51.700663999999904,9.845143999999989,65535
51.37666399999991,9.845143999999989,65535
50.72866399999991,8.54914399999999,65535
51.05266399999991,9.845143999999989,65535
50.72866399999991,9.845143999999989,65535
50.40466399999991,9.845143999999989,65535
51.05266399999991,9.197143999999987,65535
50.40466399999991,9.197143999999987,65535
50.08066399999991,9.197143999999987,65535
51.05266399999991,10.493143999999988,65535
50.40466399999991,8.54914399999999,65535
50.72866399999991,9.197143999999987,65535
49.75666399999992,9.197143999999987,65535
52.996663999999896,9.197143999999987,65535
52.3486639999999,9.845143999999989,65535
52.996663999999896,8.54914399999999,65535
52.996663999999896,7.90114399999999,65535
53.32066399999989,7.90114399999999,65535
53.32066399999989,7.25314399999999,65535
53.64466399999989,7.25314399999999,65535
52.996663999999896,10.493143999999988,65535
52.6726639999999,10.493143999999988,65535
52.6726639999999,9.845143999999989,65535
53.32066399999989,9.845143999999989,65535
53.32066399999989,9.197143999999987,65535
53.64466399999989,8.54914399999999,65535
53.32066399999989,8.54914399999999,65535
52.6726639999999,8.54914399999999,65535
52.0246639999999,10.493143999999988,65535
52.0246639999999,11.141143999999988,65535
51.700663999999904,11.141143999999988,65535
52.6726639999999,7.25314399999999,65535
52.996663999999896,7.25314399999999,65535
52.6726639999999,7.90114399999999,65535
53.64466399999989,7.90114399999999,65535
52.996663999999896,11.141143999999988,65535
52.6726639999999,11.141143999999988,65535
52.3486639999999,10.493143999999988,65535
52.996663999999896,9.845143999999989,65535
51.700663999999904,10.493143999999988,65535
51.37666399999991,10.493143999999988,65535
51.700663999999904,11.789143999999988,65535
52.3486639999999,11.141143999999988,65535
51.37666399999991,11.141143999999988,65535
51.05266399999991,11.789143999999988,65535
49.10866399999992,11.141143999999988,65535
48.78466399999992,11.141143999999988,65535
48.46066399999992,11.789143999999988,65535
49.43266399999992,11.789143999999988,65535
50.08066399999991,11.789143999999988,65535
49.75666399999992,12.437143999999988,65535
49.10866399999992,11.789143999999988,65535
48.78466399999992,12.437143999999988,65535
48.46066399999992,12.437143999999988,65535
49.10866399999992,12.437143999999988,65535
48.78466399999992,13.085143999999987,65535
48.136663999999925,12.437143999999988,65535
47.81266399999993,11.789143999999988,65535
48.136663999999925,10.493143999999988,65535
47.81266399999993,10.493143999999988,65535
48.78466399999992,10.493143999999988,65535
47.48866399999993,10.493143999999988,65535
48.46066399999992,10.493143999999988,65535
49.43266399999992,13.085143999999987,65535
48.46066399999992,13.085143999999987,65535
49.43266399999992,10.493143999999988,65535
49.75666399999992,9.845143999999989,65535
49.75666399999992,10.493143999999988,65535
50.40466399999991,11.141143999999988,65535
50.08066399999991,11.141143999999988,65535
50.72866399999991,11.141143999999988,65535
49.75666399999992,11.141143999999988,65535
48.78466399999992,11.789143999999988,65535
50.40466399999991,10.493143999999988,65535
50.08066399999991,9.845143999999989,65535
50.08066399999991,10.493143999999988,65535
49.43266399999992,12.437143999999988,65535
49.75666399999992,11.789143999999988,65535
49.10866399999992,13.085143999999987,65535
50.72866399999991,10.493143999999988,65535
49.10866399999992,10.493143999999988,65535
48.78466399999992,9.845143999999989,65535
48.46066399999992,8.54914399999999,65535
48.46066399999992,9.197143999999987,65535
48.78466399999992,9.197143999999987,65535
48.78466399999992,8.54914399999999,65535
50.08066399999991,7.25314399999999,65535
49.75666399999992,6.60514399999999,65535
49.43266399999992,6.60514399999999,65535
49.10866399999992,6.60514399999999,65535
49.43266399999992,7.25314399999999,65535
49.75666399999992,7.25314399999999,65535
49.10866399999992,5.957143999999991,65535
48.78466399999992,7.25314399999999,65535
50.08066399999991,6.60514399999999,65535
47.48866399999993,9.197143999999987,65535
48.136663999999925,8.54914399999999,65535
48.136663999999925,9.197143999999987,65535
47.81266399999993,7.25314399999999,65535
49.43266399999992,9.845143999999989,65535
49.10866399999992,9.845143999999989,65535
53.64466399999989,14.381143999999988,65535
50.08066399999991,13.085143999999987,65535
49.75666399999992,13.085143999999987,65535
45.86866399999994,9.197143999999987,65535
46.19266399999994,9.197143999999987,65535
46.516663999999935,8.54914399999999,65535
46.516663999999935,9.197143999999987,65535
46.19266399999994,8.54914399999999,65535
47.16466399999993,8.54914399999999,65535
45.86866399999994,4.661143999999991,65535
46.84066399999993,9.845143999999989,65535
45.22066399999994,5.957143999999991,65535
45.22066399999994,5.309143999999991,65535
45.86866399999994,5.957143999999991,65535
45.54466399999994,5.957143999999991,65535
44.89666399999994,4.661143999999991,65535
44.89666399999994,5.309143999999991,65535
44.572663999999946,4.661143999999991,65535
44.24866399999995,4.661143999999991,65535
43.92466399999995,4.661143999999991,65535
46.19266399999994,7.25314399999999,65535
48.78466399999992,5.957143999999991,65535
48.136663999999925,6.60514399999999,65535
48.46066399999992,6.60514399999999,65535
48.78466399999992,6.60514399999999,65535
47.16466399999993,7.90114399999999,65535
48.136663999999925,7.25314399999999,65535
48.46066399999992,7.25314399999999,65535
46.516663999999935,6.60514399999999,65535
46.84066399999993,6.60514399999999,65535
46.84066399999993,7.25314399999999,65535
46.516663999999935,5.957143999999991,65535
46.19266399999994,5.957143999999991,65535
46.84066399999993,8.54914399999999,65535
46.84066399999993,7.90114399999999,65535
45.86866399999994,5.309143999999991,65535
46.19266399999994,6.60514399999999,65535
45.86866399999994,6.60514399999999,65535
47.48866399999993,6.60514399999999,65535
47.48866399999993,7.25314399999999,65535
47.16466399999993,7.25314399999999,65535
49.10866399999992,4.013143999999992,65535
49.75666399999992,4.661143999999991,65535
49.43266399999992,4.661143999999991,65535
49.10866399999992,5.309143999999991,65535
46.19266399999994,4.661143999999991,65535
46.84066399999993,9.197143999999987,65535
46.19266399999994,5.309143999999991,65535
46.516663999999935,5.309143999999991,65535
45.54466399999994,6.60514399999999,65535
45.54466399999994,5.309143999999991,65535
43.60066399999995,4.013143999999992,65535
43.60066399999995,3.365143999999992,65535
42.62866399999996,2.717143999999992,65535
43.276663999999954,2.717143999999992,65535
45.54466399999994,4.661143999999991,65535
45.22066399999994,4.661143999999991,65535
47.16466399999993,5.309143999999991,65535
47.16466399999993,5.957143999999991,65535
46.19266399999994,7.90114399999999,65535
49.75666399999992,2.717143999999992,65535
49.10866399999992,2.717143999999992,65535
48.78466399999992,2.717143999999992,65535
45.86866399999994,3.365143999999992,65535
46.84066399999993,3.365143999999992,65535
46.516663999999935,3.365143999999992,65535
46.19266399999994,3.365143999999992,65535
47.16466399999993,6.60514399999999,65535
49.10866399999992,3.365143999999992,65535
45.54466399999994,4.013143999999992,65535
46.516663999999935,7.25314399999999,65535
47.16466399999993,4.661143999999991,65535
46.84066399999993,4.661143999999991,65535
46.516663999999935,4.661143999999991,65535
46.84066399999993,5.957143999999991,65535
47.81266399999993,3.365143999999992,65535
47.48866399999993,4.013143999999992,65535
48.136663999999925,4.013143999999992,65535
47.81266399999993,4.013143999999992,65535
47.48866399999993,4.661143999999991,65535
47.16466399999993,3.365143999999992,65535
46.84066399999993,4.013143999999992,65535
48.46066399999992,5.957143999999991,65535
46.19266399999994,2.717143999999992,65535
47.16466399999993,2.0691439999999925,65535
46.516663999999935,2.717143999999992,65535
46.84066399999993,2.717143999999992,65535
46.84066399999993,2.0691439999999925,65535
47.16466399999993,2.717143999999992,65535
44.572663999999946,5.309143999999991,65535
44.572663999999946,5.957143999999991,65535
44.89666399999994,6.60514399999999,65535
44.572663999999946,6.60514399999999,65535
43.60066399999995,5.309143999999991,65535
43.92466399999995,7.25314399999999,65535
43.60066399999995,6.60514399999999,65535
43.276663999999954,6.60514399999999,65535
43.276663999999954,5.957143999999991,65535
45.86866399999994,8.54914399999999,65535
45.54466399999994,8.54914399999999,65535
48.136663999999925,3.365143999999992,65535
48.46066399999992,3.365143999999992,65535
48.46066399999992,2.717143999999992,65535
47.48866399999993,5.309143999999991,65535
46.516663999999935,9.845143999999989,65535
46.84066399999993,10.493143999999988,65535
47.81266399999993,5.309143999999991,65535
45.22066399999994,6.60514399999999,65535
46.19266399999994,4.013143999999992,65535
45.86866399999994,4.013143999999992,65535
45.22066399999994,4.013143999999992,65535
44.89666399999994,4.013143999999992,65535
46.84066399999993,5.309143999999991,65535
48.136663999999925,-1.8188560000000056,65535
48.136663999999925,0.1251439999999934,65535
48.136663999999925,-0.5228560000000062,65535
47.48866399999993,-0.5228560000000062,65535
47.16466399999993,-1.8188560000000056,65535
47.48866399999993,0.7731439999999932,65535
47.16466399999993,0.1251439999999934,65535
45.86866399999994,7.25314399999999,65535
48.136663999999925,5.309143999999991,65535
49.10866399999992,4.661143999999991,65535
48.46066399999992,4.013143999999992,65535
48.136663999999925,4.661143999999991,65535
47.81266399999993,6.60514399999999,65535
47.48866399999993,5.957143999999991,65535
48.136663999999925,5.957143999999991,65535
45.86866399999994,7.90114399999999,65535
46.516663999999935,7.90114399999999,65535
49.43266399999992,3.365143999999992,65535
49.43266399999992,4.013143999999992,65535
48.136663999999925,2.717143999999992,65535
47.81266399999993,2.717143999999992,65535
47.48866399999993,2.717143999999992,65535
50.40466399999991,2.717143999999992,65535
48.46066399999992,-4.410856000000004,65535
48.46066399999992,-3.7628560000000046,65535
48.46066399999992,-3.114856000000005,65535
48.46066399999992,-2.4668560000000053,65535
47.48866399999993,1.4211439999999929,65535
47.16466399999993,1.4211439999999929,65535
46.516663999999935,4.013143999999992,65535
43.60066399999995,4.661143999999991,65535
44.89666399999994,2.717143999999992,65535
45.22066399999994,2.717143999999992,65535
45.54466399999994,3.365143999999992,65535
45.22066399999994,3.365143999999992,65535
47.48866399999993,3.365143999999992,65535
46.19266399999994,9.845143999999989,65535
47.81266399999993,2.0691439999999925,65535
47.48866399999993,2.0691439999999925,65535
45.86866399999994,2.717143999999992,65535
44.89666399999994,5.957143999999991,65535
45.22066399999994,1.4211439999999929,65535
44.89666399999994,1.4211439999999929,65535
44.89666399999994,2.0691439999999925,65535
43.276663999999954,2.0691439999999925,65535
43.60066399999995,1.4211439999999929,65535
48.78466399999992,4.661143999999991,65535
48.78466399999992,5.309143999999991,65535
46.19266399999994,2.0691439999999925,65535
45.86866399999994,1.4211439999999929,65535
46.19266399999994,1.4211439999999929,65535
44.572663999999946,4.013143999999992,65535
44.89666399999994,3.365143999999992,65535
43.92466399999995,4.013143999999992,65535
44.24866399999995,4.013143999999992,65535
44.89666399999994,-0.5228560000000062,65535
45.54466399999994,0.1251439999999934,65535
46.516663999999935,0.1251439999999934,65535
44.572663999999946,2.0691439999999925,65535
49.75666399999992,4.013143999999992,65535
43.92466399999995,3.365143999999992,65535
43.92466399999995,2.717143999999992,65535
44.24866399999995,3.365143999999992,65535
44.572663999999946,3.365143999999992,65535
49.10866399999992,0.1251439999999934,65535
49.43266399999992,0.7731439999999932,65535
49.43266399999992,-1.8188560000000056,65535
49.10866399999992,-1.170856000000006,65535
49.10866399999992,-0.5228560000000062,65535
49.10866399999992,0.7731439999999932,65535
49.10866399999992,1.4211439999999929,65535
47.81266399999993,-1.8188560000000056,65535
47.81266399999993,-2.4668560000000053,65535
47.81266399999993,-3.114856000000005,65535
48.136663999999925,-3.7628560000000046,65535
44.572663999999946,9.197143999999987,65535
44.89666399999994,8.54914399999999,65535
45.22066399999994,9.197143999999987,65535
45.54466399999994,10.493143999999988,65535
44.572663999999946,10.493143999999988,65535
44.89666399999994,10.493143999999988,65535
44.89666399999994,9.845143999999989,65535
48.46066399999992,5.309143999999991,65535
50.91599999999999,-1.0580000000000025,1546
51.23999999999999,-0.4100000000000028,988
50.91599999999999,-0.4100000000000028,1015
51.23999999999999,-2.354000000000002,971
51.56399999999999,-2.354000000000002,947
51.56399999999999,-3.0020000000000016,911
50.91599999999999,-2.354000000000002,3967
53.50799999999997,-3.0020000000000016,412
53.183999999999976,-2.354000000000002,416
53.183999999999976,-3.0020000000000016,421
52.85999999999998,-2.354000000000002,784
52.21199999999998,-1.0580000000000025,942
51.887999999999984,-1.0580000000000025,947
52.53599999999998,-1.0580000000000025,928
52.53599999999998,-1.7060000000000022,907
52.85999999999998,-1.7060000000000022,899
53.50799999999997,-2.354000000000002,370
52.85999999999998,-1.0580000000000025,1649
52.53599999999998,1.5339999999999965,2831
52.53599999999998,0.8859999999999966,2791
52.53599999999998,0.2379999999999968,1073
52.53599999999998,-0.4100000000000028,1025
53.50799999999997,-1.7060000000000022,350
53.183999999999976,-1.7060000000000022,795
53.183999999999976,-1.0580000000000025,1736
52.85999999999998,-0.4100000000000028,2357
51.887999999999984,-2.354000000000002,991
52.21199999999998,-2.354000000000002,1056
55.77599999999996,-2.354000000000002,211
53.83199999999997,-1.0580000000000025,302
53.83199999999997,-1.7060000000000022,320
55.127999999999965,-1.7060000000000022,161
54.80399999999997,-1.7060000000000022,0
54.47999999999997,-1.7060000000000022,275
54.15599999999997,-1.0580000000000025,289
52.21199999999998,-1.7060000000000022,1060
53.50799999999997,-1.0580000000000025,1171
55.77599999999996,-3.0020000000000016,240
55.45199999999996,-1.7060000000000022,189
57.07199999999995,-2.354000000000002,4569
56.74799999999996,-3.0020000000000016,4561
56.42399999999996,-3.0020000000000016,4500
56.09999999999996,-3.650000000000001,857
50.91599999999999,-3.0020000000000016,1062
50.91599999999999,-3.650000000000001,1075
50.59199999999999,-3.650000000000001,1087
50.59199999999999,-4.298000000000001,1148
51.23999999999999,-3.0020000000000016,1029
50.268,-4.946000000000001,1194
55.77599999999996,-3.650000000000001,288
55.77599999999996,-4.298000000000001,302
52.21199999999998,-0.4100000000000028,990
52.53599999999998,-2.354000000000002,940
51.56399999999999,-1.7060000000000022,997
51.56399999999999,-3.650000000000001,961
51.887999999999984,-4.298000000000001,1060
51.56399999999999,-4.298000000000001,1040
51.887999999999984,-1.7060000000000022,1432
52.21199999999998,-3.0020000000000016,841
51.23999999999999,0.2379999999999968,985
50.91599999999999,0.2379999999999968,1729
52.21199999999998,0.2379999999999968,984
53.83199999999997,-3.0020000000000016,1036
54.15599999999997,-3.0020000000000016,1004
54.47999999999997,-3.0020000000000016,5617
55.127999999999965,-3.650000000000001,950
54.80399999999997,-3.0020000000000016,967
53.83199999999997,-2.354000000000002,5316
54.15599999999997,-0.4100000000000028,65535
54.47999999999997,-1.0580000000000025,2414
53.83199999999997,-0.4100000000000028,2758
53.183999999999976,-3.650000000000001,545
53.183999999999976,-4.298000000000001,587
52.85999999999998,-3.0020000000000016,794
52.53599999999998,-3.0020000000000016,826
51.887999999999984,-3.0020000000000016,901
51.23999999999999,0.8859999999999966,1848
51.887999999999984,0.2379999999999968,1854
52.21199999999998,0.8859999999999966,1527
51.887999999999984,-4.946000000000001,1105
52.53599999999998,-3.650000000000001,1834
52.21199999999998,-4.298000000000001,65535
53.183999999999976,-0.4100000000000028,2384
51.23999999999999,-3.650000000000001,2282
51.887999999999984,-3.650000000000001,3702
52.21199999999998,-3.650000000000001,3721
51.56399999999999,0.8859999999999966,1019
51.887999999999984,0.8859999999999966,1833
52.85999999999998,0.8859999999999966,3719
53.50799999999997,-0.4100000000000028,65535
56.09999999999996,-4.298000000000001,876
56.74799999999996,-4.946000000000001,65535
56.74799999999996,-4.298000000000001,65535
56.42399999999996,-4.946000000000001,65535
56.42399999999996,-4.298000000000001,65535
56.09999999999996,-4.946000000000001,65535
57.39599999999995,-4.298000000000001,65535
57.39599999999995,-3.0020000000000016,65535
57.39599999999995,-3.650000000000001,65535
56.42399999999996,-3.650000000000001,65535
57.07199999999995,-3.650000000000001,65535
57.07199999999995,-4.298000000000001,65535
56.74799999999996,-3.650000000000001,65535
59.15266399999986,27.34114399999998,65535
59.47666399999986,26.69314399999997,65535
59.47666399999986,26.04514399999998,65535
59.15266399999986,26.04514399999998,65535
59.15266399999986,24.74914399999998,65535
59.15266399999986,25.397143999999983,65535
59.47666399999986,25.397143999999983,65535
58.50466399999986,26.69314399999997,65535
58.82866399999986,26.69314399999997,65535
57.85666399999987,26.04514399999998,65535
58.180663999999865,26.04514399999998,65535
58.180663999999865,26.69314399999997,65535
58.82866399999986,26.04514399999998,65535
58.50466399999986,25.397143999999983,65535
58.82866399999986,25.397143999999983,65535
58.82866399999986,24.74914399999998,65535
58.180663999999865,27.34114399999998,65535
57.85666399999987,27.34114399999998,65535
63.68866399999983,27.34114399999998,65535
60.124663999999854,24.74914399999998,65535
60.44866399999985,24.74914399999998,65535
60.44866399999985,25.397143999999983,65535
60.77266399999985,25.397143999999983,65535
61.09666399999985,26.04514399999998,65535
60.77266399999985,26.04514399999998,65535
60.77266399999985,26.69314399999997,65535
61.09666399999985,25.397143999999983,65535
61.09666399999985,26.69314399999997,65535
61.420663999999846,26.69314399999997,65535
61.74466399999984,27.34114399999998,65535
62.06866399999984,27.34114399999998,65535
62.39266399999984,27.34114399999998,65535
62.71666399999984,27.34114399999998,65535
64.01266399999983,27.34114399999998,65535
63.36466399999984,27.34114399999998,65535
63.04066399999984,27.34114399999998,65535
63.04066399999984,27.989143999999985,65535
64.33666399999983,27.989143999999985,65535
64.33666399999983,27.34114399999998,65535
64.66066399999983,27.34114399999998,65535
64.66066399999983,26.69314399999997,65535
64.98466399999982,25.397143999999983,65535
64.66066399999983,26.04514399999998,65535
64.98466399999982,26.04514399999998,65535
66.28066399999982,25.397143999999983,65535
65.95666399999982,24.74914399999998,65535
65.63266399999982,24.74914399999998,65535
65.63266399999982,25.397143999999983,65535
65.30866399999982,25.397143999999983,65535
66.60466399999981,25.397143999999983,65535
64.01266399999983,24.74914399999998,65535
64.01266399999983,24.101143999999977,65535
64.01266399999983,23.45314399999998,65535
63.68866399999983,23.45314399999998,65535
63.68866399999983,22.805143999999984,65535
63.68866399999983,26.04514399999998,65535
63.68866399999983,25.397143999999983,65535
63.68866399999983,26.69314399999997,65535
60.44866399999985,26.69314399999997,65535
64.01266399999983,27.989143999999985,65535
62.71666399999984,22.805143999999984,65535
62.39266399999984,22.805143999999984,65535
62.06866399999984,22.805143999999984,65535
62.06866399999984,23.45314399999998,65535
61.74466399999984,23.45314399999998,65535
61.420663999999846,23.45314399999998,65535
61.09666399999985,23.45314399999998,65535
61.09666399999985,24.101143999999977,65535
61.09666399999985,24.74914399999998,65535
60.77266399999985,24.74914399999998,65535
63.04066399999984,21.50914399999997,65535
63.04066399999984,22.15714399999998,65535
63.04066399999984,22.805143999999984,65535
62.39266399999984,26.04514399999998,65535
62.06866399999984,25.397143999999983,65535
61.74466399999984,25.397143999999983,65535
61.74466399999984,24.74914399999998,65535
61.74466399999984,24.101143999999977,65535
61.420663999999846,24.101143999999977,65535
62.39266399999984,26.69314399999997,65535
64.66066399999983,25.397143999999983,65535
64.66066399999983,24.74914399999998,65535
64.33666399999983,24.74914399999998,65535
63.36466399999984,22.805143999999984,65535
67.25266399999981,24.101143999999977,65535
66.92866399999981,24.101143999999977,65535
66.60466399999981,23.45314399999998,65535
66.28066399999982,23.45314399999998,65535
66.28066399999982,24.101143999999977,65535
65.95666399999982,24.101143999999977,65535
60.124663999999854,24.101143999999977,65535
60.124663999999854,23.45314399999998,65535
60.44866399999985,22.805143999999984,65535
60.77266399999985,27.34114399999998,65535
61.09666399999985,27.989143999999985,65535
61.09666399999985,28.63714399999997,65535
61.420663999999846,29.28514399999997,65535
61.74466399999984,29.933143999999977,65535
62.06866399999984,29.933143999999977,65535
62.39266399999984,29.933143999999977,65535
62.71666399999984,29.933143999999977,65535
61.420663999999846,22.805143999999984,65535
61.420663999999846,22.15714399999998,65535
61.09666399999985,22.15714399999998,65535
61.420663999999846,21.50914399999997,65535
62.39266399999984,27.989143999999985,65535
62.06866399999984,27.989143999999985,65535
61.420663999999846,27.34114399999998,65535
63.04066399999984,29.933143999999977,65535
63.68866399999983,29.28514399999997,65535
63.36466399999984,29.28514399999997,65535
63.36466399999984,29.933143999999977,65535
60.44866399999985,27.34114399999998,65535
61.74466399999984,29.28514399999997,65535
62.39266399999984,30.58114399999998,65535
62.71666399999984,31.229143999999977,65535
62.71666399999984,29.28514399999997,65535
63.04066399999984,28.63714399999997,65535
66.60466399999981,26.04514399999998,65535
66.60466399999981,26.69314399999997,65535
66.60466399999981,27.34114399999998,65535
62.71666399999984,26.04514399999998,65535
62.71666399999984,25.397143999999983,65535
63.04066399999984,25.397143999999983,65535
63.36466399999984,25.397143999999983,65535
62.71666399999984,23.45314399999998,65535
62.39266399999984,24.101143999999977,65535
62.71666399999984,22.15714399999998,65535
62.39266399999984,22.15714399999998,65535
62.39266399999984,21.50914399999997,65535
61.09666399999985,21.50914399999997,65535
60.77266399999985,22.805143999999984,65535
60.44866399999985,22.15714399999998,65535
60.77266399999985,23.45314399999998,65535
60.77266399999985,21.50914399999997,65535
60.77266399999985,22.15714399999998,65535
60.124663999999854,22.805143999999984,65535
60.44866399999985,24.101143999999977,65535
62.06866399999984,24.74914399999998,65535
50.72866399999991,16.325143999999987,65535
50.40466399999991,16.973143999999984,65535
50.72866399999991,16.973143999999984,65535
50.40466399999991,16.325143999999987,65535
50.08066399999991,16.973143999999984,65535
50.08066399999991,16.325143999999987,65535
51.700663999999904,16.973143999999984,65535
51.37666399999991,16.973143999999984,65535
51.05266399999991,15.677143999999986,65535
50.72866399999991,15.677143999999986,65535
51.05266399999991,17.621143999999987,65535
51.37666399999991,17.621143999999987,65535
51.700663999999904,17.621143999999987,65535
51.700663999999904,16.325143999999987,65535
52.0246639999999,22.15714399999998,65535
52.0246639999999,21.50914399999997,65535
52.3486639999999,21.50914399999997,65535
52.0246639999999,20.86114399999998,65535
51.700663999999904,20.86114399999998,65535
51.37666399999991,21.50914399999997,65535
51.37666399999991,20.86114399999998,65535
51.05266399999991,20.86114399999998,65535
52.6726639999999,23.45314399999998,65535
52.3486639999999,22.805143999999984,65535
52.3486639999999,20.213143999999986,65535
52.0246639999999,20.213143999999986,65535
52.3486639999999,19.565143999999982,65535
52.6726639999999,19.565143999999982,65535
51.700663999999904,21.50914399999997,65535
51.700663999999904,22.15714399999998,65535
52.6726639999999,21.50914399999997,65535
52.996663999999896,21.50914399999997,65535
52.6726639999999,20.86114399999998,65535
52.6726639999999,22.15714399999998,65535
52.6726639999999,20.213143999999986,65535
52.996663999999896,19.565143999999982,65535
52.996663999999896,20.86114399999998,65535
52.996663999999896,20.213143999999986,65535
53.32066399999989,20.213143999999986,65535
51.37666399999991,20.213143999999986,65535
52.3486639999999,16.973143999999984,65535
52.0246639999999,16.973143999999984,65535
52.0246639999999,16.325143999999987,65535
52.0246639999999,17.621143999999987,65535
52.6726639999999,16.973143999999984,65535
52.996663999999896,16.973143999999984,65535
52.3486639999999,16.325143999999987,65535
52.3486639999999,15.677143999999986,65535
51.700663999999904,18.269143999999983,65535
52.6726639999999,17.621143999999987,65535
52.3486639999999,17.621143999999987,65535
52.6726639999999,18.269143999999983,65535
52.3486639999999,18.269143999999983,65535
52.3486639999999,18.917143999999983,65535
52.996663999999896,17.621143999999987,65535
51.700663999999904,19.565143999999982,65535
51.700663999999904,18.917143999999983,65535
51.37666399999991,18.269143999999983,65535
58.82866399999986,9.197143999999987,65535
58.180663999999865,7.90114399999999,65535
58.50466399999986,8.54914399999999,65535
63.36466399999984,10.493143999999988,65535
63.36466399999984,11.141143999999988,65535
63.36466399999984,11.789143999999988,65535
63.68866399999983,11.789143999999988,65535
64.33666399999983,12.437143999999988,65535
64.66066399999983,12.437143999999988,65535
65.63266399999982,13.085143999999987,65535
65.95666399999982,13.085143999999987,65535
66.28066399999982,14.381143999999988,65535
65.95666399999982,13.733143999999989,65535
66.28066399999982,13.733143999999989,65535
65.30866399999982,13.085143999999987,65535
64.98466399999982,13.085143999999987,65535
64.01266399999983,11.789143999999988,65535
63.68866399999983,11.141143999999988,65535
59.800663999999855,10.493143999999988,65535
59.800663999999855,11.141143999999988,65535
60.124663999999854,11.141143999999988,65535
60.44866399999985,11.141143999999988,65535
60.124663999999854,11.789143999999988,65535
60.77266399999985,7.25314399999999,65535
60.77266399999985,6.60514399999999,65535
59.15266399999986,9.197143999999987,65535
59.47666399999986,9.197143999999987,65535
59.800663999999855,9.845143999999989,65535
59.47666399999986,11.141143999999988,65535
61.09666399999985,10.493143999999988,65535
60.77266399999985,10.493143999999988,65535
60.77266399999985,11.141143999999988,65535
62.06866399999984,9.197143999999987,65535
61.74466399999984,9.845143999999989,65535
61.420663999999846,9.845143999999989,65535
59.15266399999986,9.845143999999989,65535
59.47666399999986,9.845143999999989,65535
58.82866399999986,5.957143999999991,65535
58.180663999999865,7.25314399999999,65535
58.50466399999986,7.25314399999999,65535
58.50466399999986,6.60514399999999,65535
58.50466399999986,5.957143999999991,65535
58.82866399999986,8.54914399999999,65535
60.44866399999985,7.25314399999999,65535
60.44866399999985,7.90114399999999,65535
60.124663999999854,10.493143999999988,65535
60.44866399999985,9.197143999999987,65535
60.77266399999985,9.197143999999987,65535
60.77266399999985,8.54914399999999,65535
60.124663999999854,9.845143999999989,65535
60.44866399999985,10.493143999999988,65535
63.04066399999984,10.493143999999988,65535
62.06866399999984,9.845143999999989,65535
62.39266399999984,9.845143999999989,65535
62.71666399999984,9.845143999999989,65535
59.47666399999986,14.381143999999988,65535
59.47666399999986,13.733143999999989,65535
59.47666399999986,13.085143999999987,65535
59.800663999999855,12.437143999999988,65535
59.15266399999986,11.141143999999988,65535
59.15266399999986,14.381143999999988,65535
58.82866399999986,11.789143999999988,65535
58.50466399999986,12.437143999999988,65535
58.180663999999865,12.437143999999988,65535
57.85666399999987,11.789143999999988,65535
62.71666399999984,7.90114399999999,65535
62.39266399999984,7.90114399999999,65535
62.06866399999984,8.54914399999999,65535
60.44866399999985,5.309143999999991,65535
60.44866399999985,5.957143999999991,65535
60.77266399999985,5.957143999999991,65535
62.39266399999984,11.141143999999988,65535
62.06866399999984,10.493143999999988,65535
61.74466399999984,11.141143999999988,65535
61.420663999999846,11.141143999999988,65535
61.09666399999985,11.141143999999988,65535
60.77266399999985,11.789143999999988,65535
63.04066399999984,11.141143999999988,65535
62.71666399999984,11.141143999999988,65535
62.39266399999984,10.493143999999988,65535
67.25266399999981,15.677143999999986,65535
67.25266399999981,15.029143999999986,65535
67.25266399999981,14.381143999999988,65535
66.92866399999981,15.029143999999986,65535
66.60466399999981,15.677143999999986,65535
64.01266399999983,11.141143999999988,65535
66.60466399999981,15.029143999999986,65535
54.29266399999989,18.269143999999983,65535
54.616663999999886,17.621143999999987,65535
53.96866399999989,18.269143999999983,65535
43.92466399999995,1.4211439999999929,65535
44.24866399999995,0.7731439999999932,65535
44.572663999999946,0.1251439999999934,65535
46.84066399999993,1.4211439999999929,65535
44.572663999999946,1.4211439999999929,65535
44.24866399999995,1.4211439999999929,65535
45.54466399999994,1.4211439999999929,65535
46.516663999999935,1.4211439999999929,65535
42.30466399999996,2.717143999999992,65535
44.24866399999995,2.717143999999992,65535
44.572663999999946,2.717143999999992,65535
43.92466399999995,2.0691439999999925,65535
42.30466399999996,2.0691439999999925,65535
42.62866399999996,2.0691439999999925,65535
42.62866399999996,1.4211439999999929,65535
42.95266399999996,1.4211439999999929,65535
43.276663999999954,1.4211439999999929,65535
46.516663999999935,-1.170856000000006,65535
46.19266399999994,-1.170856000000006,65535
45.86866399999994,-0.5228560000000062,65535
45.54466399999994,-0.5228560000000062,65535
48.46066399999992,1.4211439999999929,65535
41.332663999999966,2.0691439999999925,65535
41.98066399999996,2.717143999999992,65535
48.46066399999992,-1.8188560000000056,65535
47.81266399999993,0.7731439999999932,65535
46.84066399999993,0.7731439999999932,65535
44.572663999999946,-1.170856000000006,65535
43.60066399999995,-1.170856000000006,65535
43.276663999999954,-1.8188560000000056,65535
43.276663999999954,0.1251439999999934,65535
42.95266399999996,0.1251439999999934,65535
43.276663999999954,-0.5228560000000062,65535
43.60066399999995,-0.5228560000000062,65535
47.81266399999993,-3.7628560000000046,65535
47.48866399999993,-2.4668560000000053,65535
47.81266399999993,-0.5228560000000062,65535
46.516663999999935,-1.8188560000000056,65535
48.136663999999925,-1.170856000000006,65535
47.48866399999993,-1.170856000000006,65535
45.22066399999994,8.54914399999999,65535
45.22066399999994,7.90114399999999,65535
46.19266399999994,-0.5228560000000062,65535
46.516663999999935,-0.5228560000000062,65535
48.78466399999992,-3.114856000000005,65535
50.72866399999991,2.0691439999999925,65535
50.40466399999991,2.0691439999999925,65535
40.36066399999997,-3.7628560000000046,65535
41.65666399999997,-1.170856000000006,65535
41.332663999999966,1.4211439999999929,65535
43.276663999999954,13.733143999999989,65535
42.95266399999996,13.733143999999989,65535
41.65666399999997,15.029143999999986,65535
40.68466399999997,17.621143999999987,65535
43.60066399999995,13.085143999999987,65535
41.65666399999997,12.437143999999988,65535
41.65666399999997,13.085143999999987,65535
41.98066399999996,13.085143999999987,65535
41.65666399999997,13.733143999999989,65535
41.332663999999966,13.733143999999989,65535
41.332663999999966,14.381143999999988,65535
41.00866399999997,14.381143999999988,65535
41.332663999999966,13.085143999999987,65535
41.00866399999997,15.029143999999986,65535
41.98066399999996,13.733143999999989,65535
42.30466399999996,14.381143999999988,65535
42.30466399999996,12.437143999999988,65535
42.62866399999996,12.437143999999988,65535
42.95266399999996,12.437143999999988,65535
42.30466399999996,11.789143999999988,65535
42.95266399999996,11.789143999999988,65535
42.62866399999996,11.789143999999988,65535
43.276663999999954,11.789143999999988,65535
42.95266399999996,13.085143999999987,65535
42.30466399999996,13.085143999999987,65535
43.276663999999954,13.085143999999987,65535
43.276663999999954,12.437143999999988,65535
42.62866399999996,11.141143999999988,65535
42.95266399999996,11.141143999999988,65535
42.95266399999996,10.493143999999988,65535
44.572663999999946,8.54914399999999,65535
44.89666399999994,7.90114399999999,65535
44.89666399999994,9.197143999999987,65535
44.24866399999995,7.90114399999999,65535
44.572663999999946,7.90114399999999,65535
43.92466399999995,7.90114399999999,65535
44.24866399999995,7.25314399999999,65535
44.89666399999994,7.25314399999999,65535
45.22066399999994,7.25314399999999,65535
45.54466399999994,7.90114399999999,65535
44.572663999999946,7.25314399999999,65535
52.996663999999896,22.805143999999984,65535
52.996663999999896,23.45314399999998,65535
51.37666399999991,22.15714399999998,65535
51.37666399999991,22.805143999999984,65535
50.08066399999991,20.213143999999986,65535
50.72866399999991,20.213143999999986,65535
50.40466399999991,20.213143999999986,65535
50.08066399999991,20.86114399999998,65535
50.08066399999991,21.50914399999997,65535
50.08066399999991,22.15714399999998,65535
50.08066399999991,22.805143999999984,65535
53.96866399999989,22.805143999999984,65535
53.64466399999989,23.45314399999998,65535
53.32066399999989,23.45314399999998,65535
50.40466399999991,19.565143999999982,65535
50.08066399999991,18.917143999999983,65535
50.08066399999991,18.269143999999983,65535
52.0246639999999,22.805143999999984,65535
52.0246639999999,23.45314399999998,65535
51.37666399999991,19.565143999999982,65535
51.05266399999991,19.565143999999982,65535
50.72866399999991,18.917143999999983,65535
50.72866399999991,19.565143999999982,65535
49.75666399999992,18.917143999999983,65535
50.40466399999991,18.269143999999983,65535
53.64466399999989,19.565143999999982,65535
53.96866399999989,18.917143999999983,65535
53.64466399999989,18.917143999999983,65535
53.64466399999989,20.213143999999986,65535
52.996663999999896,18.917143999999983,65535
52.996663999999896,18.269143999999983,65535
53.32066399999989,18.917143999999983,65535
50.72866399999991,17.621143999999987,65535
50.72866399999991,18.269143999999983,65535
52.6726639999999,16.325143999999987,65535
52.996663999999896,16.325143999999987,65535
52.996663999999896,15.677143999999986,65535
53.32066399999989,15.677143999999986,65535
53.32066399999989,15.029143999999986,65535
53.64466399999989,15.029143999999986,65535
53.96866399999989,15.029143999999986,65535
52.6726639999999,18.917143999999983,65535
53.32066399999989,16.325143999999987,65535
52.6726639999999,15.029143999999986,65535
51.05266399999991,22.805143999999984,65535
51.05266399999991,23.45314399999998,65535
50.72866399999991,22.15714399999998,65535
50.40466399999991,22.15714399999998,65535
51.05266399999991,22.15714399999998,65535
54.616663999999886,16.973143999999984,65535
54.29266399999989,16.325143999999987,65535
53.96866399999989,15.677143999999986,65535
50.72866399999991,21.50914399999997,65535
50.40466399999991,21.50914399999997,65535
50.40466399999991,17.621143999999987,65535
53.32066399999989,22.805143999999984,65535
53.64466399999989,22.15714399999998,65535
54.29266399999989,16.973143999999984,65535
50.72866399999991,20.86114399999998,65535
51.700663999999904,22.805143999999984,65535
51.05266399999991,21.50914399999997,65535
50.08066399999991,19.565143999999982,65535
52.0246639999999,18.917143999999983,65535
52.0246639999999,19.565143999999982,65535
53.64466399999989,18.269143999999983,65535
51.700663999999904,20.213143999999986,65535
53.32066399999989,19.565143999999982,65535
50.72866399999991,23.45314399999998,65535
50.72866399999991,22.805143999999984,65535
49.43266399999992,20.213143999999986,65535
49.75666399999992,21.50914399999997,65535
49.75666399999992,22.15714399999998,65535
49.43266399999992,22.15714399999998,65535
51.05266399999991,18.917143999999983,65535
51.05266399999991,18.269143999999983,65535
53.32066399999989,16.973143999999984,65535
53.64466399999989,16.973143999999984,65535
49.75666399999992,20.86114399999998,65535
50.40466399999991,22.805143999999984,65535
53.64466399999989,16.325143999999987,65535
53.96866399999989,20.86114399999998,65535
54.29266399999989,20.86114399999998,65535
53.96866399999989,21.50914399999997,65535
53.64466399999989,15.677143999999986,65535
53.96866399999989,20.213143999999986,65535
53.96866399999989,19.565143999999982,65535
54.29266399999989,19.565143999999982,65535
53.96866399999989,16.325143999999987,65535
53.64466399999989,17.621143999999987,65535
53.96866399999989,22.15714399999998,65535
53.64466399999989,21.50914399999997,65535
53.64466399999989,20.86114399999998,65535
52.6726639999999,15.677143999999986,65535
51.05266399999991,20.213143999999986,65535
54.940663999999884,24.101143999999977,65535
54.616663999999886,23.45314399999998,65535
54.29266399999989,23.45314399999998,65535
53.64466399999989,22.805143999999984,65535
53.96866399999989,16.973143999999984,65535
50.40466399999991,20.86114399999998,65535
53.32066399999989,18.269143999999983,65535
49.75666399999992,19.565143999999982,65535
50.40466399999991,23.45314399999998,65535
49.75666399999992,20.213143999999986,65535
49.43266399999992,19.565143999999982,65535
49.43266399999992,20.86114399999998,65535
53.96866399999989,17.621143999999987,65535
42.30466399999996,-1.8188560000000056,65535
41.98066399999996,-1.8188560000000056,65535
41.65666399999997,0.7731439999999932,65535
42.62866399999996,-1.8188560000000056,65535
42.95266399999996,-1.8188560000000056,65535
42.62866399999996,-3.114856000000005,65535
42.95266399999996,-2.4668560000000053,65535
42.62866399999996,-7.650856000000003,65535
42.30466399999996,-7.650856000000003,65535
42.30466399999996,-8.946856000000002,65535
42.30466399999996,-8.298856000000002,65535
41.98066399999996,-8.298856000000002,65535
42.30466399999996,-7.002856000000003,65535
42.62866399999996,-6.354856000000003,65535
42.30466399999996,-6.354856000000003,65535
42.62866399999996,-5.706856000000004,65535
41.98066399999996,-4.410856000000004,65535
42.30466399999996,-3.7628560000000046,65535
40.03666399999997,-0.5228560000000062,65535
39.38866399999998,-0.5228560000000062,65535
41.00866399999997,0.7731439999999932,65535
40.68466399999997,0.7731439999999932,65535
40.36066399999997,0.1251439999999934,65535
39.712663999999975,-0.5228560000000062,65535
38.41666399999998,-0.5228560000000062,65535
39.06466399999998,-0.5228560000000062,65535
38.74066399999998,-1.170856000000006,65535
41.332663999999966,0.7731439999999932,65535
41.65666399999997,2.717143999999992,65535
41.65666399999997,2.0691439999999925,65535
41.332663999999966,0.1251439999999934,65535
41.332663999999966,-0.5228560000000062,65535
41.65666399999997,-4.410856000000004,65535
40.03666399999997,-2.4668560000000053,65535
41.00866399999997,-4.410856000000004,65535
43.276663999999954,-5.706856000000004,65535
39.38866399999998,-1.170856000000006,65535
38.09266399999999,-1.170856000000006,65535
38.74066399999998,-0.5228560000000062,65535
37.76866399999999,-1.170856000000006,65535
39.06466399999998,-1.8188560000000056,65535
39.38866399999998,-3.114856000000005,65535
39.38866399999998,-2.4668560000000053,65535
39.06466399999998,-2.4668560000000053,65535
39.06466399999998,-3.114856000000005,65535
39.06466399999998,-3.7628560000000046,65535
38.74066399999998,-3.7628560000000046,65535
40.03666399999997,-3.7628560000000046,65535
40.03666399999997,-3.114856000000005,65535
40.03666399999997,-1.8188560000000056,65535
39.712663999999975,-1.8188560000000056,65535
39.712663999999975,-1.170856000000006,65535
40.36066399999997,-1.170856000000006,65535
40.68466399999997,-1.170856000000006,65535
41.00866399999997,-1.170856000000006,65535
41.332663999999966,-1.170856000000006,65535
43.276663999999954,-8.298856000000002,65535
42.95266399999996,-8.298856000000002,65535
41.65666399999997,-5.706856000000004,65535
41.98066399999996,-7.002856000000003,65535
41.98066399999996,-6.354856000000003,65535
41.332663999999966,-5.058856000000004,65535
43.276663999999954,-3.7628560000000046,65535
42.95266399999996,-4.410856000000004,65535
42.62866399999996,-4.410856000000004,65535
42.30466399999996,-4.410856000000004,65535
41.00866399999997,-5.706856000000004,65535
41.332663999999966,-1.8188560000000056,65535
40.68466399999997,-3.114856000000005,65535
41.00866399999997,-3.114856000000005,65535
41.00866399999997,-2.4668560000000053,65535
41.332663999999966,-2.4668560000000053,65535
40.68466399999997,-4.410856000000004,65535
40.36066399999997,-4.410856000000004,65535
40.68466399999997,-3.7628560000000046,65535
40.36066399999997,-3.114856000000005,65535
41.65666399999997,-2.4668560000000053,65535
38.09266399999999,-3.7628560000000046,65535
38.74066399999998,-3.114856000000005,65535
37.76866399999999,-3.7628560000000046,65535
39.712663999999975,-3.114856000000005,65535
38.41666399999998,-3.7628560000000046,65535
40.03666399999997,-4.410856000000004,65535
40.03666399999997,-5.058856000000004,65535
39.38866399999998,-6.354856000000003,65535
39.38866399999998,-7.002856000000003,65535
42.95266399999996,-3.114856000000005,65535
41.98066399999996,-1.170856000000006,65535
42.30466399999996,-2.4668560000000053,65535
41.65666399999997,-0.5228560000000062,65535
41.98066399999996,-0.5228560000000062,65535
41.65666399999997,0.1251439999999934,65535
41.98066399999996,0.1251439999999934,65535
37.76866399999999,-5.058856000000004,65535
36.79666399999999,-4.410856000000004,65535
38.74066399999998,-4.410856000000004,65535
37.12066399999999,-4.410856000000004,65535
37.44466399999999,-5.058856000000004,65535
37.44466399999999,-7.002856000000003,65535
37.44466399999999,-6.354856000000003,65535
37.44466399999999,-5.706856000000004,65535
39.712663999999975,-3.7628560000000046,65535
42.62866399999996,-8.946856000000002,65535
42.30466399999996,-5.706856000000004,65535
42.30466399999996,-5.058856000000004,65535
42.95266399999996,-5.706856000000004,65535
41.00866399999997,-5.058856000000004,65535
40.68466399999997,-5.058856000000004,65535
41.65666399999997,-5.058856000000004,65535
41.65666399999997,-6.354856000000003,65535
36.79666399999999,-6.354856000000003,65535
37.12066399999999,-5.706856000000004,65535
37.76866399999999,-5.706856000000004,65535
38.09266399999999,-4.410856000000004,65535
37.12066399999999,-5.058856000000004,65535
36.79666399999999,-5.058856000000004,65535
37.76866399999999,-4.410856000000004,65535
37.76866399999999,-7.002856000000003,65535
38.41666399999998,-6.354856000000003,65535
38.09266399999999,-6.354856000000003,65535
48.78466399999992,1.4211439999999929,65535
56.23666399999988,8.54914399999999,65535
55.58866399999988,9.197143999999987,65535
55.91266399999988,9.197143999999987,65535
55.26466399999988,10.493143999999988,65535
55.91266399999988,12.437143999999988,65535
55.58866399999988,11.789143999999988,65535
55.58866399999988,11.141143999999988,65535
55.26466399999988,11.789143999999988,65535
55.58866399999988,10.493143999999988,65535
55.58866399999988,13.085143999999987,65535
56.88466399999987,9.845143999999989,65535
57.20866399999987,9.845143999999989,65535
56.56066399999988,9.845143999999989,65535
56.88466399999987,8.54914399999999,65535
54.940663999999884,9.845143999999989,65535
54.940663999999884,11.789143999999988,65535
55.91266399999988,13.085143999999987,65535
56.23666399999988,13.733143999999989,65535
55.91266399999988,13.733143999999989,65535
56.23666399999988,14.381143999999988,65535
56.23666399999988,15.029143999999986,65535
56.23666399999988,15.677143999999986,65535
56.56066399999988,14.381143999999988,65535
56.88466399999987,14.381143999999988,65535
56.23666399999988,13.085143999999987,65535
56.56066399999988,13.085143999999987,65535
56.88466399999987,12.437143999999988,65535
57.20866399999987,12.437143999999988,65535
57.53266399999987,12.437143999999988,65535
56.88466399999987,15.029143999999986,65535
56.56066399999988,15.677143999999986,65535
56.88466399999987,15.677143999999986,65535
56.88466399999987,16.325143999999987,65535
55.91266399999988,11.789143999999988,65535
57.20866399999987,10.493143999999988,65535
49.43266399999992,1.4211439999999929,65535
49.75666399999992,0.7731439999999932,65535
49.75666399999992,2.0691439999999925,65535
50.08066399999991,2.717143999999992,65535
49.75666399999992,1.4211439999999929,65535
47.81266399999993,1.4211439999999929,65535
48.136663999999925,2.0691439999999925,65535
48.46066399999992,2.0691439999999925,65535
48.136663999999925,1.4211439999999929,65535
48.78466399999992,0.1251439999999934,65535
48.46066399999992,0.1251439999999934,65535
47.81266399999993,0.1251439999999934,65535
46.84066399999993,-0.5228560000000062,65535
47.16466399999993,0.7731439999999932,65535
46.84066399999993,0.1251439999999934,65535
46.84066399999993,-1.170856000000006,65535
50.08066399999991,1.4211439999999929,65535
50.08066399999991,2.0691439999999925,65535
49.43266399999992,2.717143999999992,65535
49.75666399999992,3.365143999999992,65535
50.08066399999991,3.365143999999992,65535
49.10866399999992,2.0691439999999925,65535
49.43266399999992,2.0691439999999925,65535
48.78466399999992,0.7731439999999932,65535
48.78466399999992,-0.5228560000000062,65535
48.78466399999992,-1.170856000000006,65535
48.136663999999925,0.7731439999999932,65535
48.46066399999992,0.7731439999999932,65535
43.92466399999995,5.957143999999991,65535
44.24866399999995,5.957143999999991,65535
43.92466399999995,5.309143999999991,65535
42.95266399999996,2.717143999999992,65535
45.54466399999994,2.0691439999999925,65535
45.22066399999994,2.0691439999999925,65535
42.95266399999996,2.0691439999999925,65535
42.95266399999996,0.7731439999999932,65535
43.276663999999954,0.7731439999999932,65535
46.19266399999994,0.7731439999999932,65535
46.516663999999935,0.7731439999999932,65535
45.86866399999994,0.1251439999999934,65535
46.19266399999994,0.1251439999999934,65535
47.81266399999993,-1.170856000000006,65535
48.136663999999925,-2.4668560000000053,65535
47.48866399999993,-1.8188560000000056,65535
47.16466399999993,-1.170856000000006,65535
47.16466399999993,-0.5228560000000062,65535
46.84066399999993,-1.8188560000000056,65535
45.22066399999994,-0.5228560000000062,65535
44.89666399999994,0.1251439999999934,65535
45.22066399999994,0.7731439999999932,65535
45.54466399999994,0.7731439999999932,65535
45.86866399999994,0.7731439999999932,65535
45.22066399999994,0.1251439999999934,65535
44.89666399999994,0.7731439999999932,65535
43.92466399999995,-0.5228560000000062,65535
43.92466399999995,-1.170856000000006,65535
44.24866399999995,-1.170856000000006,65535
45.22066399999994,-1.170856000000006,65535
44.572663999999946,-0.5228560000000062,65535
44.24866399999995,0.1251439999999934,65535
44.572663999999946,0.7731439999999932,65535
43.276663999999954,-1.170856000000006,65535
42.95266399999996,-0.5228560000000062,65535
44.24866399999995,2.0691439999999925,65535
43.60066399999995,0.7731439999999932,65535
43.60066399999995,2.0691439999999925,65535
52.6726639999999,4.661143999999991,65535
52.6726639999999,5.309143999999991,65535
51.700663999999904,5.309143999999991,65535
52.0246639999999,5.309143999999991,65535
52.3486639999999,5.309143999999991,65535
51.37666399999991,4.013143999999992,65535
52.3486639999999,5.957143999999991,65535
52.0246639999999,6.60514399999999,65535
52.6726639999999,5.957143999999991,65535
52.996663999999896,5.957143999999991,65535
53.32066399999989,5.957143999999991,65535
52.996663999999896,6.60514399999999,65535
53.32066399999989,6.60514399999999,65535
52.6726639999999,6.60514399999999,65535
52.996663999999896,5.309143999999991,65535
59.15266399999986,24.101143999999977,65535
56.88466399999987,24.101143999999977,65535
56.88466399999987,23.45314399999998,65535
56.88466399999987,22.805143999999984,65535
57.20866399999987,24.74914399999998,65535
56.88466399999987,24.74914399999998,65535
56.56066399999988,24.74914399999998,65535
56.56066399999988,25.397143999999983,65535
56.56066399999988,24.101143999999977,65535
56.56066399999988,23.45314399999998,65535
56.56066399999988,26.04514399999998,65535
56.88466399999987,26.04514399999998,65535
57.20866399999987,25.397143999999983,65535
57.53266399999987,25.397143999999983,65535
56.23666399999988,26.04514399999998,65535
56.23666399999988,26.69314399999997,65535
55.91266399999988,26.69314399999997,65535
56.56066399999988,26.69314399999997,65535
56.56066399999988,27.34114399999998,65535
56.56066399999988,27.989143999999985,65535
56.23666399999988,27.989143999999985,65535
55.91266399999988,27.34114399999998,65535
56.56066399999988,22.805143999999984,65535
56.56066399999988,22.15714399999998,65535
56.56066399999988,21.50914399999997,65535
57.20866399999987,26.69314399999997,65535
39.06466399999998,-8.946856000000002,65535
38.41666399999998,-8.298856000000002,65535
45.86866399999994,11.789143999999988,65535
46.19266399999994,11.789143999999988,65535
46.19266399999994,10.493143999999988,65535
45.22066399999994,18.269143999999983,65535
45.22066399999994,18.917143999999983,65535
45.54466399999994,16.973143999999984,65535
45.22066399999994,17.621143999999987,65535
45.86866399999994,16.325143999999987,65535
45.54466399999994,18.917143999999983,65535
45.54466399999994,16.325143999999987,65535
45.54466399999994,18.269143999999983,65535
44.89666399999994,18.917143999999983,65535
46.19266399999994,16.973143999999984,65535
46.19266399999994,16.325143999999987,65535
45.86866399999994,16.973143999999984,65535
45.86866399999994,17.621143999999987,65535
46.19266399999994,15.677143999999986,65535
46.516663999999935,16.325143999999987,65535
45.54466399999994,15.677143999999986,65535
45.22066399999994,15.029143999999986,65535
45.54466399999994,15.029143999999986,65535
45.22066399999994,15.677143999999986,65535
44.572663999999946,15.677143999999986,65535
44.24866399999995,15.677143999999986,65535
43.92466399999995,16.325143999999987,65535
44.89666399999994,15.677143999999986,65535
45.54466399999994,17.621143999999987,65535
45.22066399999994,16.325143999999987,65535
46.516663999999935,16.973143999999984,65535
45.86866399999994,18.269143999999983,65535
43.92466399999995,15.677143999999986,65535
45.22066399999994,13.733143999999989,65535
47.48866399999993,19.565143999999982,65535
47.16466399999993,18.917143999999983,65535
47.81266399999993,18.917143999999983,65535
45.54466399999994,9.845143999999989,65535
45.22066399999994,9.845143999999989,65535
45.22066399999994,10.493143999999988,65535
45.86866399999994,9.845143999999989,65535
45.86866399999994,10.493143999999988,65535
48.78466399999992,21.50914399999997,65535
49.10866399999992,20.213143999999986,65535
49.10866399999992,18.917143999999983,65535
48.46066399999992,17.621143999999987,65535
49.43266399999992,17.621143999999987,65535
49.10866399999992,17.621143999999987,65535
48.136663999999925,18.269143999999983,65535
49.10866399999992,18.269143999999983,65535
49.43266399999992,18.269143999999983,65535
49.43266399999992,16.973143999999984,65535
49.75666399999992,16.973143999999984,65535
49.75666399999992,16.325143999999987,65535
50.08066399999991,15.677143999999986,65535
50.08066399999991,15.029143999999986,65535
49.43266399999992,18.917143999999983,65535
47.81266399999993,20.86114399999998,65535
48.136663999999925,20.86114399999998,65535
48.46066399999992,20.86114399999998,65535
48.46066399999992,21.50914399999997,65535
49.10866399999992,19.565143999999982,65535
48.136663999999925,17.621143999999987,65535
48.78466399999992,22.15714399999998,65535
48.78466399999992,20.86114399999998,65535
49.10866399999992,20.86114399999998,65535
48.78466399999992,18.269143999999983,65535
48.78466399999992,17.621143999999987,65535
49.10866399999992,21.50914399999997,65535
48.78466399999992,20.213143999999986,65535
48.46066399999992,20.213143999999986,65535
48.136663999999925,19.565143999999982,65535
48.46066399999992,19.565143999999982,65535
48.46066399999992,18.917143999999983,65535
48.46066399999992,18.269143999999983,65535
48.78466399999992,19.565143999999982,65535
48.78466399999992,18.917143999999983,65535
47.81266399999993,18.269143999999983,65535
49.10866399999992,22.15714399999998,65535
49.43266399999992,21.50914399999997,65535
48.136663999999925,18.917143999999983,65535
48.136663999999925,20.213143999999986,65535
52.636,-8.018,65535
52.312,-7.370000000000001,65535
52.312,-8.018,65535
52.636,-8.666,65535
51.988,-8.666,65535
51.988,-8.018,65535
52.96,-8.666,65535
52.96,-6.074000000000002,65535
53.28399999999999,-6.722000000000001,65535
53.60799999999999,-6.722000000000001,65535
53.60799999999999,-7.370000000000001,65535
53.60799999999999,-8.018,65535
54.25599999999999,-8.666,65535
53.93199999999999,-8.666,65535
53.93199999999999,-8.018,65535
52.312,-6.722000000000001,65535
52.636,-6.722000000000001,65535
53.93199999999999,-6.722000000000001,65535
54.25599999999999,-6.074000000000002,65535
53.28399999999999,-7.370000000000001,65535
52.96,-7.370000000000001,65535
52.312,-8.666,65535
52.96,-8.018,65535
52.636,-7.370000000000001,65535
52.96,-6.722000000000001,65535
51.988,-9.314,65535
52.312,-9.314,65535
54.579999999999984,-6.722000000000001,65535
54.579999999999984,-6.074000000000002,65535
53.28399999999999,-8.018,65535
53.28399999999999,-8.666,65535
53.28399999999999,-9.314,65535
53.93199999999999,-9.314,65535
54.25599999999999,-9.314,65535
53.60799999999999,-8.666,65535
53.60799999999999,-9.314,65535
49.43266399999992,14.381143999999988,65535
49.75666399999992,14.381143999999988,65535
49.75666399999992,15.029143999999986,65535
49.75666399999992,13.733143999999989,65535
50.08066399999991,13.733143999999989,65535
49.75666399999992,15.677143999999986,65535
50.40466399999991,15.029143999999986,65535
49.43266399999992,13.733143999999989,65535
50.40466399999991,15.677143999999986,65535
50.40466399999991,13.733143999999989,65535
46.19266399999994,15.029143999999986,65535
45.86866399999994,15.029143999999986,65535
45.86866399999994,14.381143999999988,65535
46.19266399999994,13.733143999999989,65535
45.86866399999994,13.733143999999989,65535
58.50466399999986,13.733143999999989,65535
58.180663999999865,13.733143999999989,65535
58.180663999999865,13.085143999999987,65535
57.85666399999987,12.437143999999988,65535
60.44866399999985,15.677143999999986,65535
60.124663999999854,15.677143999999986,65535
60.124663999999854,16.325143999999987,65535
59.800663999999855,16.325143999999987,65535
59.800663999999855,17.621143999999987,65535
59.47666399999986,18.269143999999983,65535
61.74466399999984,16.973143999999984,65535
61.420663999999846,16.973143999999984,65535
60.77266399999985,16.973143999999984,65535
65.63266399999982,22.15714399999998,65535
65.95666399999982,21.50914399999997,65535
65.63266399999982,20.86114399999998,65535
64.98466399999982,20.213143999999986,65535
64.66066399999983,20.213143999999986,65535
64.33666399999983,19.565143999999982,65535
64.01266399999983,19.565143999999982,65535
63.68866399999983,20.213143999999986,65535
64.66066399999983,18.917143999999983,65535
59.15266399999986,16.325143999999987,65535
59.15266399999986,15.029143999999986,65535
59.15266399999986,17.621143999999987,65535
57.53266399999987,14.381143999999988,65535
57.53266399999987,15.029143999999986,65535
61.09666399999985,14.381143999999988,65535
60.77266399999985,15.029143999999986,65535
60.44866399999985,15.029143999999986,65535
58.180663999999865,15.029143999999986,65535
58.50466399999986,16.325143999999987,65535
58.50466399999986,15.677143999999986,65535
63.36466399999984,13.085143999999987,65535
63.04066399999984,14.381143999999988,65535
62.39266399999984,15.677143999999986,65535
63.36466399999984,13.733143999999989,65535
63.36466399999984,14.381143999999988,65535
62.71666399999984,15.677143999999986,65535
62.39266399999984,17.621143999999987,65535
59.800663999999855,15.677143999999986,65535
55.58866399999988,13.733143999999989,65535
57.20866399999987,14.381143999999988,65535
57.85666399999987,14.381143999999988,65535
58.82866399999986,16.973143999999984,65535
58.82866399999986,16.325143999999987,65535
59.15266399999986,18.269143999999983,65535
60.44866399999985,17.621143999999987,65535
59.15266399999986,12.437143999999988,65535
59.15266399999986,13.085143999999987,65535
58.82866399999986,12.437143999999988,65535
59.47666399999986,16.325143999999987,65535
58.82866399999986,14.381143999999988,65535
59.47666399999986,15.677143999999986,65535
63.36466399999984,18.917143999999983,65535
63.04066399999984,17.621143999999987,65535
62.71666399999984,17.621143999999987,65535
63.68866399999983,19.565143999999982,65535
62.39266399999984,16.973143999999984,65535
59.800663999999855,16.973143999999984,65535
59.47666399999986,17.621143999999987,65535
57.85666399999987,13.085143999999987,65535
57.53266399999987,13.085143999999987,65535
58.50466399999986,11.789143999999988,65535
57.85666399999987,15.029143999999986,65535
57.20866399999987,13.733143999999989,65535
57.53266399999987,13.733143999999989,65535
61.74466399999984,16.325143999999987,65535
61.420663999999846,16.325143999999987,65535
61.09666399999985,16.325143999999987,65535
61.09666399999985,16.973143999999984,65535
60.124663999999854,15.029143999999986,65535
66.60466399999981,20.86114399999998,65535
67.25266399999981,20.86114399999998,65535
67.90066399999981,20.213143999999986,65535
67.57666399999981,20.213143999999986,65535
59.800663999999855,15.029143999999986,65535
58.50466399999986,15.029143999999986,65535
59.47666399999986,15.029143999999986,65535
60.44866399999985,16.325143999999987,65535
59.15266399999986,15.677143999999986,65535
57.85666399999987,13.733143999999989,65535
58.82866399999986,13.733143999999989,65535
58.50466399999986,13.085143999999987,65535
57.20866399999987,13.085143999999987,65535
56.88466399999987,13.085143999999987,65535
58.180663999999865,11.789143999999988,65535
62.06866399999984,16.973143999999984,65535
65.95666399999982,23.45314399999998,65535
59.800663999999855,14.381143999999988,65535
59.800663999999855,18.269143999999983,65535
63.04066399999984,15.029143999999986,65535
62.71666399999984,15.029143999999986,65535
62.39266399999984,16.325143999999987,65535
63.36466399999984,12.437143999999988,65535
68.5486639999998,17.621143999999987,65535
68.5486639999998,18.269143999999983,65535
68.5486639999998,18.917143999999983,65535
68.2246639999998,18.917143999999983,65535
59.800663999999855,13.085143999999987,65535
60.124663999999854,13.085143999999987,65535
59.47666399999986,16.973143999999984,65535
59.15266399999986,16.973143999999984,65535
56.56066399999988,13.733143999999989,65535
60.124663999999854,17.621143999999987,65535
57.85666399999987,16.325143999999987,65535
58.180663999999865,16.325143999999987,65535
58.180663999999865,15.677143999999986,65535
57.20866399999987,16.325143999999987,65535
57.53266399999987,15.677143999999986,65535
57.85666399999987,15.677143999999986,65535
44.89666399999994,23.45314399999998,65535
44.572663999999946,23.45314399999998,65535
44.89666399999994,24.74914399999998,65535
44.572663999999946,24.74914399999998,65535
44.572663999999946,24.101143999999977,65535
44.24866399999995,24.101143999999977,65535
47.48866399999993,25.397143999999983,65535
47.48866399999993,24.74914399999998,65535
47.16466399999993,24.74914399999998,65535
47.16466399999993,24.101143999999977,65535
47.48866399999993,22.15714399999998,65535
47.81266399999993,22.15714399999998,65535
47.16466399999993,22.15714399999998,65535
47.16466399999993,23.45314399999998,65535
47.16466399999993,22.805143999999984,65535
46.84066399999993,24.101143999999977,65535
45.86866399999994,27.34114399999998,65535
45.54466399999994,27.34114399999998,65535
45.54466399999994,27.989143999999985,65535
45.86866399999994,20.86114399999998,65535
45.86866399999994,21.50914399999997,65535
46.19266399999994,21.50914399999997,65535
46.19266399999994,27.34114399999998,65535
46.19266399999994,26.69314399999997,65535
46.516663999999935,26.69314399999997,65535
46.516663999999935,26.04514399999998,65535
47.48866399999993,22.805143999999984,65535
46.84066399999993,22.805143999999984,65535
45.54466399999994,22.15714399999998,65535
45.22066399999994,22.15714399999998,65535
44.89666399999994,22.15714399999998,65535
47.48866399999993,23.45314399999998,65535
46.516663999999935,24.101143999999977,65535
46.516663999999935,24.74914399999998,65535
45.86866399999994,24.101143999999977,65535
47.16466399999993,26.69314399999997,65535
47.16466399999993,27.34114399999998,65535
43.92466399999995,25.397143999999983,65535
44.24866399999995,24.74914399999998,65535
44.89666399999994,26.04514399999998,65535
44.89666399999994,26.69314399999997,65535
45.22066399999994,26.69314399999997,65535
45.22066399999994,27.34114399999998,65535
46.84066399999993,26.69314399999997,65535
47.48866399999993,26.69314399999997,65535
44.24866399999995,25.397143999999983,65535
43.92466399999995,26.04514399999998,65535
46.19266399999994,24.101143999999977,65535
44.572663999999946,25.397143999999983,65535
46.84066399999993,24.74914399999998,65535
46.516663999999935,21.50914399999997,65535
46.84066399999993,21.50914399999997,65535
44.572663999999946,26.69314399999997,65535
44.572663999999946,27.34114399999998,65535
44.89666399999994,27.34114399999998,65535
44.572663999999946,27.989143999999985,65535
44.24866399999995,27.989143999999985,65535
44.572663999999946,28.63714399999997,65535
45.86866399999994,22.15714399999998,65535
45.86866399999994,22.805143999999984,65535
44.24866399999995,23.45314399999998,65535
43.92466399999995,27.989143999999985,65535
46.84066399999993,27.34114399999998,65535
45.22066399999994,23.45314399999998,65535
45.54466399999994,23.45314399999998,65535
45.54466399999994,24.101143999999977,65535
45.22066399999994,24.101143999999977,65535
44.89666399999994,24.101143999999977,65535
46.19266399999994,22.15714399999998,65535
46.516663999999935,22.15714399999998,65535
45.22066399999994,21.50914399999997,65535
45.54466399999994,21.50914399999997,65535
45.54466399999994,20.86114399999998,65535
46.516663999999935,27.989143999999985,65535
46.19266399999994,27.989143999999985,65535
45.54466399999994,25.397143999999983,65535
45.22066399999994,25.397143999999983,65535
45.22066399999994,26.04514399999998,65535
47.81266399999993,24.101143999999977,65535
47.48866399999993,26.04514399999998,65535
47.81266399999993,26.04514399999998,65535
46.19266399999994,23.45314399999998,65535
45.86866399999994,23.45314399999998,65535
44.24866399999995,26.04514399999998,65535
45.22066399999994,27.989143999999985,65535
45.86866399999994,24.74914399999998,65535
46.516663999999935,25.397143999999983,65535
46.84066399999993,25.397143999999983,65535
46.19266399999994,26.04514399999998,65535
45.86866399999994,26.04514399999998,65535
43.92466399999995,23.45314399999998,65535
44.89666399999994,25.397143999999983,65535
46.19266399999994,20.86114399999998,65535
47.81266399999993,25.397143999999983,65535
44.572663999999946,22.805143999999984,65535
44.572663999999946,22.15714399999998,65535
46.516663999999935,23.45314399999998,65535
45.86866399999994,25.397143999999983,65535
44.24866399999995,27.34114399999998,65535
45.22066399999994,24.74914399999998,65535
45.54466399999994,22.805143999999984,65535
45.22066399999994,28.63714399999997,65535
44.89666399999994,28.63714399999997,65535
47.81266399999993,23.45314399999998,65535
46.19266399999994,24.74914399999998,65535
46.19266399999994,25.397143999999983,65535
43.92466399999995,24.101143999999977,65535
43.92466399999995,24.74914399999998,65535
47.81266399999993,26.69314399999997,65535
47.48866399999993,24.101143999999977,65535
46.84066399999993,26.04514399999998,65535
46.19266399999994,22.805143999999984,65535
47.48866399999993,27.34114399999998,65535
46.19266399999994,20.213143999999986,65535
45.54466399999994,26.04514399999998,65535
44.24866399999995,26.69314399999997,65535
45.86866399999994,27.989143999999985,65535
47.81266399999993,5.957143999999991,65535
