51.56399999999999,-0.4100000000000028,65535
51.887999999999984,-0.4100000000000028,65535
50.91599999999999,-1.7060000000000022,65535
51.23999999999999,-1.0580000000000025,65535
51.56399999999999,-1.0580000000000025,65535
51.23999999999999,-1.7060000000000022,65535
51.56399999999999,0.2379999999999968,65535
47.16466399999993,9.845143999999989,403
47.48866399999993,9.845143999999989,416
48.136663999999925,14.381143999999988,640
47.81266399999993,13.085143999999987,563
47.16466399999993,11.141143999999988,530
47.48866399999993,11.789143999999988,721
48.136663999999925,16.325143999999987,743
47.48866399999993,12.437143999999988,557
48.136663999999925,15.677143999999986,720
47.16466399999993,10.493143999999988,576
47.16466399999993,9.197143999999987,401
48.136663999999925,13.733143999999989,599
48.136663999999925,15.029143999999986,739
47.81266399999993,16.973143999999984,835
48.46066399999992,14.381143999999988,904
47.48866399999993,13.085143999999987,595
47.16466399999993,13.085143999999987,610
47.48866399999993,14.381143999999988,871
47.48866399999993,13.733143999999989,1404
47.48866399999993,15.029143999999986,1272
46.516663999999935,13.733143999999989,1574
46.84066399999993,13.733143999999989,1600
46.84066399999993,13.085143999999987,1605
48.78466399999992,14.381143999999988,65535
47.16466399999993,15.677143999999986,1304
46.516663999999935,14.381143999999988,1554
46.84066399999993,14.381143999999988,1495
47.16466399999993,14.381143999999988,1445
46.516663999999935,15.029143999999986,1567
47.81266399999993,16.325143999999987,751
47.16466399999993,15.029143999999986,1273
47.81266399999993,15.677143999999986,958
47.48866399999993,15.677143999999986,1244
46.516663999999935,13.085143999999987,1934
46.84066399999993,12.437143999999988,1619
48.136663999999925,11.789143999999988,519
47.81266399999993,12.437143999999988,543
46.84066399999993,15.677143999999986,1381
46.516663999999935,15.677143999999986,1621
46.84066399999993,16.325143999999987,1403
47.81266399999993,14.381143999999988,805
48.78466399999992,16.973143999999984,831
48.136663999999925,16.973143999999984,766
48.46066399999992,13.733143999999989,577
47.81266399999993,13.733143999999989,674
50.08066399999991,8.54914399999999,400
48.46066399999992,9.845143999999989,468
51.05266399999991,7.25314399999999,353
51.37666399999991,7.25314399999999,362
51.37666399999991,6.60514399999999,359
48.46066399999992,16.325143999999987,747
48.46066399999992,16.973143999999984,789
48.78466399999992,16.325143999999987,770
48.46066399999992,15.677143999999986,760
48.78466399999992,15.677143999999986,813
47.48866399999993,16.325143999999987,1029
47.16466399999993,16.325143999999987,1326
46.19266399999994,14.381143999999988,1566
45.86866399999994,15.677143999999986,1603
43.60066399999995,16.325143999999987,2200
45.54466399999994,14.381143999999988,1679
45.54466399999994,13.733143999999989,1701
48.136663999999925,13.085143999999987,556
48.46066399999992,11.141143999999988,501
48.136663999999925,11.141143999999988,513
48.46066399999992,7.90114399999999,391
49.10866399999992,8.54914399999999,413
48.78466399999992,2.0691439999999925,176
49.10866399999992,7.25314399999999,417
52.0246639999999,7.90114399999999,375
47.16466399999993,11.789143999999988,552
49.43266399999992,11.141143999999988,478
53.64466399999989,9.845143999999989,515
50.72866399999991,4.013143999999992,271
51.05266399999991,11.141143999999988,598
47.48866399999993,11.141143999999988,500
46.84066399999993,11.789143999999988,2102
46.516663999999935,11.141143999999988,2071
45.54466399999994,11.141143999999988,1965
46.19266399999994,11.141143999999988,2037
45.86866399999994,11.141143999999988,2021
44.572663999999946,11.141143999999988,1812
43.92466399999995,12.437143999999988,4445
45.54466399999994,12.437143999999988,2052
45.54466399999994,11.789143999999988,2015
48.78466399999992,15.029143999999986,852
47.81266399999993,15.029143999999986,750
47.81266399999993,11.141143999999988,511
50.40466399999991,18.917143999999983,808
52.3486639999999,20.86114399999998,1484
54.616663999999886,18.269143999999983,1366
54.29266399999989,18.917143999999983,1365
49.10866399999992,14.381143999999988,65535
50.08066399999991,14.381143999999988,702
48.78466399999992,13.733143999999989,2216
52.6726639999999,13.085143999999987,598
52.3486639999999,13.085143999999987,595
53.96866399999989,12.437143999999988,636
54.29266399999989,12.437143999999988,637
47.48866399999993,8.54914399999999,412
47.81266399999993,17.621143999999987,1193
47.48866399999993,18.917143999999983,1200
47.48866399999993,20.86114399999998,1916
46.84066399999993,23.45314399999998,2398
44.572663999999946,26.04514399999998,2847
47.48866399999993,21.50914399999997,1952
47.81266399999993,21.50914399999997,2348
48.46066399999992,22.15714399999998,1477
47.48866399999993,16.973143999999984,65535
49.10866399999992,16.325143999999987,847
49.75666399999992,18.269143999999983,1039
46.19266399999994,13.085143999999987,1650
41.98066399999996,12.437143999999988,3045
43.60066399999995,10.493143999999988,3206
45.54466399999994,9.197143999999987,488
47.81266399999993,22.805143999999984,2813
49.75666399999992,22.805143999999984,1357
50.72866399999991,3.365143999999992,261
51.05266399999991,4.013143999999992,275
50.72866399999991,4.661143999999991,275
51.05266399999991,4.661143999999991,278
51.05266399999991,3.365143999999992,270
51.05266399999991,2.717143999999992,288
50.40466399999991,4.661143999999991,280
50.72866399999991,2.717143999999992,266
50.40466399999991,4.013143999999992,286
51.05266399999991,5.309143999999991,294
50.72866399999991,5.309143999999991,299
51.37666399999991,3.365143999999992,276
51.37666399999991,4.661143999999991,285
50.72866399999991,5.957143999999991,308
50.40466399999991,5.957143999999991,312
50.40466399999991,3.365143999999992,285
50.40466399999991,5.309143999999991,296
50.08066399999991,5.309143999999991,310
49.75666399999992,5.309143999999991,321
49.75666399999992,5.957143999999991,350
51.37666399999991,5.309143999999991,324
51.700663999999904,4.661143999999991,318
50.08066399999991,4.013143999999992,308
50.08066399999991,5.957143999999991,321
50.08066399999991,4.661143999999991,295
49.43266399999992,5.309143999999991,338
49.43266399999992,5.957143999999991,351
52.0246639999999,4.661143999999991,350
52.3486639999999,4.661143999999991,379
50.72866399999991,15.029143999999986,670
51.05266399999991,15.029143999999986,648
51.05266399999991,13.733143999999989,615
50.40466399999991,13.085143999999987,587
49.10866399999992,7.90114399999999,416
48.78466399999992,7.90114399999999,401
50.40466399999991,7.90114399999999,385
50.08066399999991,7.90114399999999,404
49.75666399999992,7.90114399999999,413
49.43266399999992,7.90114399999999,425
49.75666399999992,8.54914399999999,411
49.43266399999992,8.54914399999999,428
49.43266399999992,9.197143999999987,438
49.10866399999992,9.197143999999987,421
47.48866399999993,7.90114399999999,390
47.81266399999993,7.90114399999999,403
48.136663999999925,7.90114399999999,412
48.136663999999925,9.845143999999989,467
47.81266399999993,9.197143999999987,409
47.81266399999993,8.54914399999999,412
47.81266399999993,9.845143999999989,439
54.940663999999884,9.197143999999987,599
54.616663999999886,9.197143999999987,565
54.29266399999989,9.197143999999987,550
53.96866399999989,9.197143999999987,536
53.64466399999989,9.197143999999987,515
54.616663999999886,9.845143999999989,578
54.29266399999989,9.845143999999989,586
53.96866399999989,9.845143999999989,538
53.64466399999989,10.493143999999988,522
53.96866399999989,10.493143999999988,584
53.96866399999989,11.141143999999988,623
54.29266399999989,10.493143999999988,603
53.32066399999989,10.493143999999988,516
54.940663999999884,11.141143999999988,649
52.6726639999999,13.733143999999989,599
52.3486639999999,13.733143999999989,599
52.3486639999999,14.381143999999988,607
52.0246639999999,14.381143999999988,620
52.0246639999999,11.789143999999988,554
52.3486639999999,11.789143999999988,555
52.3486639999999,12.437143999999988,578
52.0246639999999,15.029143999999986,643
51.700663999999904,14.381143999999988,629
52.0246639999999,13.733143999999989,615
51.700663999999904,13.733143999999989,619
52.6726639999999,12.437143999999988,619
53.32066399999989,11.789143999999988,574
53.96866399999989,11.789143999999988,628
53.64466399999989,11.789143999999988,586
53.64466399999989,11.141143999999988,582
53.32066399999989,11.141143999999988,555
52.996663999999896,11.789143999999988,632
52.996663999999896,12.437143999999988,640
52.996663999999896,13.733143999999989,613
53.64466399999989,13.733143999999989,697
53.96866399999989,13.733143999999989,769
54.29266399999989,13.085143999999987,755
53.96866399999989,13.085143999999987,719
53.32066399999989,13.733143999999989,707
52.0246639999999,13.085143999999987,606
51.700663999999904,13.085143999999987,614
52.996663999999896,14.381143999999988,621
52.0246639999999,12.437143999999988,564
51.700663999999904,12.437143999999988,571
51.37666399999991,11.789143999999988,582
51.37666399999991,12.437143999999988,588
52.6726639999999,11.789143999999988,590
53.64466399999989,13.085143999999987,703
53.32066399999989,13.085143999999987,702
52.996663999999896,13.085143999999987,633
53.64466399999989,12.437143999999988,642
51.37666399999991,13.733143999999989,611
53.32066399999989,12.437143999999988,656
52.6726639999999,14.381143999999988,612
51.37666399999991,13.085143999999987,599
53.32066399999989,14.381143999999988,648
52.3486639999999,15.029143999999986,625
52.0246639999999,15.677143999999986,681
51.700663999999904,15.029143999999986,683
51.05266399999991,16.325143999999987,699
51.05266399999991,16.973143999999984,722
51.700663999999904,15.677143999999986,794
51.37666399999991,15.677143999999986,667
51.37666399999991,16.325143999999987,690
50.72866399999991,13.085143999999987,574
50.72866399999991,12.437143999999988,567
51.05266399999991,13.085143999999987,583
51.05266399999991,14.381143999999988,628
50.40466399999991,12.437143999999988,558
50.40466399999991,11.789143999999988,548
50.08066399999991,12.437143999999988,556
50.72866399999991,11.789143999999988,578
51.05266399999991,12.437143999999988,575
50.72866399999991,14.381143999999988,724
51.37666399999991,14.381143999999988,623
50.72866399999991,13.733143999999989,597
50.40466399999991,14.381143999999988,699
51.37666399999991,15.029143999999986,645
55.26466399999988,9.197143999999987,828
55.58866399999988,8.54914399999999,3562
55.91266399999988,8.54914399999999,7039
56.23666399999988,9.197143999999987,7047
56.23666399999988,10.493143999999988,7000
56.23666399999988,9.845143999999989,6987
55.91266399999988,9.845143999999989,6925
56.56066399999988,9.197143999999987,7057
56.56066399999988,8.54914399999999,7100
51.05266399999991,6.60514399999999,357
51.700663999999904,7.90114399999999,368
50.72866399999991,6.60514399999999,336
51.700663999999904,7.25314399999999,365
50.72866399999991,7.25314399999999,356
52.0246639999999,7.25314399999999,391
52.3486639999999,7.90114399999999,387
51.05266399999991,5.957143999999991,342
50.40466399999991,7.25314399999999,379
51.700663999999904,6.60514399999999,373
51.700663999999904,5.957143999999991,368
52.3486639999999,9.197143999999987,429
51.700663999999904,8.54914399999999,402
52.0246639999999,8.54914399999999,408
52.3486639999999,8.54914399999999,406
51.37666399999991,7.90114399999999,373
52.3486639999999,7.25314399999999,441
51.37666399999991,5.957143999999991,401
50.72866399999991,7.90114399999999,361
51.37666399999991,9.197143999999987,424
51.700663999999904,9.197143999999987,414
50.40466399999991,6.60514399999999,406
51.05266399999991,7.90114399999999,375
51.37666399999991,8.54914399999999,402
52.0246639999999,5.957143999999991,411
52.3486639999999,6.60514399999999,476
51.05266399999991,8.54914399999999,464
52.0246639999999,9.197143999999987,429
52.6726639999999,9.197143999999987,450
52.0246639999999,9.845143999999989,457
51.700663999999904,9.845143999999989,477
51.37666399999991,9.845143999999989,503
50.72866399999991,8.54914399999999,408
51.05266399999991,9.845143999999989,531
50.72866399999991,9.845143999999989,496
50.40466399999991,9.845143999999989,483
51.05266399999991,9.197143999999987,440
50.40466399999991,9.197143999999987,418
50.08066399999991,9.197143999999987,408
51.05266399999991,10.493143999999988,616
50.40466399999991,8.54914399999999,398
50.72866399999991,9.197143999999987,439
49.75666399999992,9.197143999999987,425
52.996663999999896,9.197143999999987,457
52.3486639999999,9.845143999999989,437
52.996663999999896,8.54914399999999,446
52.996663999999896,7.90114399999999,473
53.32066399999989,7.90114399999999,557
53.32066399999989,7.25314399999999,613
53.64466399999989,7.25314399999999,658
52.996663999999896,10.493143999999988,503
52.6726639999999,10.493143999999988,496
52.6726639999999,9.845143999999989,450
53.32066399999989,9.845143999999989,509
53.32066399999989,9.197143999999987,504
53.64466399999989,8.54914399999999,493
53.32066399999989,8.54914399999999,449
52.6726639999999,8.54914399999999,423
52.0246639999999,10.493143999999988,512
52.0246639999999,11.141143999999988,527
51.700663999999904,11.141143999999988,568
52.6726639999999,7.25314399999999,905
52.996663999999896,7.25314399999999,879
52.6726639999999,7.90114399999999,495
53.64466399999989,7.90114399999999,851
52.996663999999896,11.141143999999988,564
52.6726639999999,11.141143999999988,590
52.3486639999999,10.493143999999988,458
52.996663999999896,9.845143999999989,516
51.700663999999904,10.493143999999988,558
51.37666399999991,10.493143999999988,582
51.700663999999904,11.789143999999988,561
52.3486639999999,11.141143999999988,494
51.37666399999991,11.141143999999988,587
51.05266399999991,11.789143999999988,582
49.10866399999992,11.141143999999988,480
48.78466399999992,11.141143999999988,485
48.46066399999992,11.789143999999988,522
49.43266399999992,11.789143999999988,480
50.08066399999991,11.789143999999988,507
49.75666399999992,12.437143999999988,529
49.10866399999992,11.789143999999988,488
48.78466399999992,12.437143999999988,503
48.46066399999992,12.437143999999988,523
49.10866399999992,12.437143999999988,497
48.78466399999992,13.085143999999987,540
48.136663999999925,12.437143999999988,538
47.81266399999993,11.789143999999988,528
48.136663999999925,10.493143999999988,524
47.81266399999993,10.493143999999988,488
48.78466399999992,10.493143999999988,464
47.48866399999993,10.493143999999988,483
48.46066399999992,10.493143999999988,480
49.43266399999992,13.085143999999987,533
48.46066399999992,13.085143999999987,551
49.43266399999992,10.493143999999988,483
49.75666399999992,9.845143999999989,458
49.75666399999992,10.493143999999988,471
50.40466399999991,11.141143999999988,537
50.08066399999991,11.141143999999988,482
50.72866399999991,11.141143999999988,7152
49.75666399999992,11.141143999999988,477
48.78466399999992,11.789143999999988,493
50.40466399999991,10.493143999999988,463
50.08066399999991,9.845143999999989,455
50.08066399999991,10.493143999999988,480
49.43266399999992,12.437143999999988,493
49.75666399999992,11.789143999999988,484
49.10866399999992,13.085143999999987,530
50.72866399999991,10.493143999999988,631
49.10866399999992,10.493143999999988,486
48.78466399999992,9.845143999999989,430
48.46066399999992,8.54914399999999,434
48.46066399999992,9.197143999999987,430
48.78466399999992,9.197143999999987,425
48.78466399999992,8.54914399999999,418
50.08066399999991,7.25314399999999,410
49.75666399999992,6.60514399999999,437
49.43266399999992,6.60514399999999,437
49.10866399999992,6.60514399999999,409
49.43266399999992,7.25314399999999,431
49.75666399999992,7.25314399999999,428
49.10866399999992,5.957143999999991,348
48.78466399999992,7.25314399999999,415
50.08066399999991,6.60514399999999,434
47.48866399999993,9.197143999999987,407
48.136663999999925,8.54914399999999,440
48.136663999999925,9.197143999999987,444
47.81266399999993,7.25314399999999,377
49.43266399999992,9.845143999999989,465
49.10866399999992,9.845143999999989,429
53.64466399999989,14.381143999999988,692
50.08066399999991,13.085143999999987,816
49.75666399999992,13.085143999999987,755
45.86866399999994,9.197143999999987,478
46.19266399999994,9.197143999999987,464
46.516663999999935,8.54914399999999,417
46.516663999999935,9.197143999999987,459
46.19266399999994,8.54914399999999,461
47.16466399999993,8.54914399999999,391
45.86866399999994,4.661143999999991,296
46.84066399999993,9.845143999999989,408
45.22066399999994,5.957143999999991,375
45.22066399999994,5.309143999999991,378
45.86866399999994,5.957143999999991,389
45.54466399999994,5.957143999999991,345
44.89666399999994,4.661143999999991,324
44.89666399999994,5.309143999999991,348
44.572663999999946,4.661143999999991,355
44.24866399999995,4.661143999999991,322
43.92466399999995,4.661143999999991,292
46.19266399999994,7.25314399999999,431
48.78466399999992,5.957143999999991,359
48.136663999999925,6.60514399999999,409
48.46066399999992,6.60514399999999,388
48.78466399999992,6.60514399999999,389
47.16466399999993,7.90114399999999,384
48.136663999999925,7.25314399999999,423
48.46066399999992,7.25314399999999,399
46.516663999999935,6.60514399999999,416
46.84066399999993,6.60514399999999,412
46.84066399999993,7.25314399999999,391
46.516663999999935,5.957143999999991,425
46.19266399999994,5.957143999999991,420
46.84066399999993,8.54914399999999,396
46.84066399999993,7.90114399999999,389
45.86866399999994,5.309143999999991,328
46.19266399999994,6.60514399999999,424
45.86866399999994,6.60514399999999,460
47.48866399999993,6.60514399999999,351
47.48866399999993,7.25314399999999,368
47.16466399999993,7.25314399999999,381
49.10866399999992,4.013143999999992,295
49.75666399999992,4.661143999999991,351
49.43266399999992,4.661143999999991,323
49.10866399999992,5.309143999999991,323
46.19266399999994,4.661143999999991,349
46.84066399999993,9.197143999999987,410
46.19266399999994,5.309143999999991,354
46.516663999999935,5.309143999999991,346
45.54466399999994,6.60514399999999,381
45.54466399999994,5.309143999999991,317
43.60066399999995,4.013143999999992,273
43.60066399999995,3.365143999999992,257
42.62866399999996,2.717143999999992,280
43.276663999999954,2.717143999999992,238
45.54466399999994,4.661143999999991,301
45.22066399999994,4.661143999999991,340
47.16466399999993,5.309143999999991,297
47.16466399999993,5.957143999999991,327
46.19266399999994,7.90114399999999,426
49.75666399999992,2.717143999999992,293
49.10866399999992,2.717143999999992,204
48.78466399999992,2.717143999999992,247
45.86866399999994,3.365143999999992,432
46.84066399999993,3.365143999999992,321
46.516663999999935,3.365143999999992,345
46.19266399999994,3.365143999999992,389
47.16466399999993,6.60514399999999,405
49.10866399999992,3.365143999999992,262
45.54466399999994,4.013143999999992,308
46.516663999999935,7.25314399999999,431
47.16466399999993,4.661143999999991,358
46.84066399999993,4.661143999999991,314
46.516663999999935,4.661143999999991,321
46.84066399999993,5.957143999999991,351
47.81266399999993,3.365143999999992,347
47.48866399999993,4.013143999999992,359
48.136663999999925,4.013143999999992,311
47.81266399999993,4.013143999999992,380
47.48866399999993,4.661143999999991,363
47.16466399999993,3.365143999999992,306
46.84066399999993,4.013143999999992,332
48.46066399999992,5.957143999999991,365
46.19266399999994,2.717143999999992,404
47.16466399999993,2.0691439999999925,223
46.516663999999935,2.717143999999992,364
46.84066399999993,2.717143999999992,315
46.84066399999993,2.0691439999999925,274
47.16466399999993,2.717143999999992,295
44.572663999999946,5.309143999999991,440
44.572663999999946,5.957143999999991,408
44.89666399999994,6.60514399999999,447
44.572663999999946,6.60514399999999,544
43.60066399999995,5.309143999999991,342
43.92466399999995,7.25314399999999,424
43.60066399999995,6.60514399999999,412
43.276663999999954,6.60514399999999,420
43.276663999999954,5.957143999999991,346
45.86866399999994,8.54914399999999,477
45.54466399999994,8.54914399999999,482
48.136663999999925,3.365143999999992,329
48.46066399999992,3.365143999999992,279
48.46066399999992,2.717143999999992,311
47.48866399999993,5.309143999999991,396
46.516663999999935,9.845143999999989,464
46.84066399999993,10.493143999999988,1331
47.81266399999993,5.309143999999991,388
45.22066399999994,6.60514399999999,400
46.19266399999994,4.013143999999992,370
45.86866399999994,4.013143999999992,341
45.22066399999994,4.013143999999992,317
44.89666399999994,4.013143999999992,384
46.84066399999993,5.309143999999991,321
48.136663999999925,-1.8188560000000056,265
48.136663999999925,0.1251439999999934,310
48.136663999999925,-0.5228560000000062,314
47.48866399999993,-0.5228560000000062,274
47.16466399999993,-1.8188560000000056,319
47.48866399999993,0.7731439999999932,172
47.16466399999993,0.1251439999999934,298
45.86866399999994,7.25314399999999,469
48.136663999999925,5.309143999999991,365
49.10866399999992,4.661143999999991,319
48.46066399999992,4.013143999999992,290
48.136663999999925,4.661143999999991,328
47.81266399999993,6.60514399999999,451
47.48866399999993,5.957143999999991,514
48.136663999999925,5.957143999999991,663
45.86866399999994,7.90114399999999,447
46.516663999999935,7.90114399999999,409
49.43266399999992,3.365143999999992,279
49.43266399999992,4.013143999999992,310
48.136663999999925,2.717143999999992,430
47.81266399999993,2.717143999999992,423
47.48866399999993,2.717143999999992,313
50.40466399999991,2.717143999999992,282
48.46066399999992,-4.410856000000004,404
48.46066399999992,-3.7628560000000046,350
48.46066399999992,-3.114856000000005,335
48.46066399999992,-2.4668560000000053,305
47.48866399999993,1.4211439999999929,230
47.16466399999993,1.4211439999999929,267
46.516663999999935,4.013143999999992,325
43.60066399999995,4.661143999999991,329
44.89666399999994,2.717143999999992,290
45.22066399999994,2.717143999999992,359
45.54466399999994,3.365143999999992,441
45.22066399999994,3.365143999999992,416
47.48866399999993,3.365143999999992,526
46.19266399999994,9.845143999999989,502
47.81266399999993,2.0691439999999925,260
47.48866399999993,2.0691439999999925,260
45.86866399999994,2.717143999999992,435
44.89666399999994,5.957143999999991,510
45.22066399999994,1.4211439999999929,180
44.89666399999994,1.4211439999999929,123
44.89666399999994,2.0691439999999925,241
43.276663999999954,2.0691439999999925,206
43.60066399999995,1.4211439999999929,157
48.78466399999992,4.661143999999991,415
48.78466399999992,5.309143999999991,378
46.19266399999994,2.0691439999999925,422
45.86866399999994,1.4211439999999929,111
46.19266399999994,1.4211439999999929,249
44.572663999999946,4.013143999999992,353
44.89666399999994,3.365143999999992,416
43.92466399999995,4.013143999999992,306
44.24866399999995,4.013143999999992,324
44.89666399999994,-0.5228560000000062,23
45.54466399999994,0.1251439999999934,76
46.516663999999935,0.1251439999999934,121
44.572663999999946,2.0691439999999925,256
49.75666399999992,4.013143999999992,309
43.92466399999995,3.365143999999992,627
43.92466399999995,2.717143999999992,588
44.24866399999995,3.365143999999992,538
44.572663999999946,3.365143999999992,417
49.10866399999992,0.1251439999999934,323
49.43266399999992,0.7731439999999932,323
49.43266399999992,-1.8188560000000056,356
49.10866399999992,-1.170856000000006,331
49.10866399999992,-0.5228560000000062,299
49.10866399999992,0.7731439999999932,272
49.10866399999992,1.4211439999999929,225
47.81266399999993,-1.8188560000000056,301
47.81266399999993,-2.4668560000000053,327
47.81266399999993,-3.114856000000005,340
48.136663999999925,-3.7628560000000046,397
44.572663999999946,9.197143999999987,536
44.89666399999994,8.54914399999999,507
45.22066399999994,9.197143999999987,499
45.54466399999994,10.493143999999988,547
44.572663999999946,10.493143999999988,1798
44.89666399999994,10.493143999999988,613
44.89666399999994,9.845143999999989,565
48.46066399999992,5.309143999999991,397
50.91599999999999,-1.0580000000000025,65535
51.23999999999999,-0.4100000000000028,65535
50.91599999999999,-0.4100000000000028,65535
51.23999999999999,-2.354000000000002,65535
51.56399999999999,-2.354000000000002,65535
51.56399999999999,-3.0020000000000016,65535
50.91599999999999,-2.354000000000002,65535
53.50799999999997,-3.0020000000000016,65535
53.183999999999976,-2.354000000000002,65535
53.183999999999976,-3.0020000000000016,65535
52.85999999999998,-2.354000000000002,65535
52.21199999999998,-1.0580000000000025,65535
51.887999999999984,-1.0580000000000025,65535
52.53599999999998,-1.0580000000000025,65535
52.53599999999998,-1.7060000000000022,65535
52.85999999999998,-1.7060000000000022,65535
53.50799999999997,-2.354000000000002,65535
52.85999999999998,-1.0580000000000025,65535
52.53599999999998,1.5339999999999965,65535
52.53599999999998,0.8859999999999966,65535
52.53599999999998,0.2379999999999968,65535
52.53599999999998,-0.4100000000000028,65535
53.50799999999997,-1.7060000000000022,65535
53.183999999999976,-1.7060000000000022,65535
53.183999999999976,-1.0580000000000025,65535
52.85999999999998,-0.4100000000000028,65535
51.887999999999984,-2.354000000000002,65535
52.21199999999998,-2.354000000000002,65535
55.77599999999996,-2.354000000000002,65535
53.83199999999997,-1.0580000000000025,65535
53.83199999999997,-1.7060000000000022,65535
55.127999999999965,-1.7060000000000022,65535
54.80399999999997,-1.7060000000000022,65535
54.47999999999997,-1.7060000000000022,65535
54.15599999999997,-1.0580000000000025,65535
52.21199999999998,-1.7060000000000022,65535
53.50799999999997,-1.0580000000000025,65535
55.77599999999996,-3.0020000000000016,65535
55.45199999999996,-1.7060000000000022,65535
57.07199999999995,-2.354000000000002,65535
56.74799999999996,-3.0020000000000016,65535
56.42399999999996,-3.0020000000000016,65535
56.09999999999996,-3.650000000000001,65535
50.91599999999999,-3.0020000000000016,65535
50.91599999999999,-3.650000000000001,65535
50.59199999999999,-3.650000000000001,65535
50.59199999999999,-4.298000000000001,65535
51.23999999999999,-3.0020000000000016,65535
50.268,-4.946000000000001,65535
55.77599999999996,-3.650000000000001,65535
55.77599999999996,-4.298000000000001,65535
52.21199999999998,-0.4100000000000028,65535
52.53599999999998,-2.354000000000002,65535
51.56399999999999,-1.7060000000000022,65535
51.56399999999999,-3.650000000000001,65535
51.887999999999984,-4.298000000000001,65535
51.56399999999999,-4.298000000000001,65535
51.887999999999984,-1.7060000000000022,65535
52.21199999999998,-3.0020000000000016,65535
51.23999999999999,0.2379999999999968,65535
50.91599999999999,0.2379999999999968,65535
52.21199999999998,0.2379999999999968,65535
53.83199999999997,-3.0020000000000016,65535
54.15599999999997,-3.0020000000000016,65535
54.47999999999997,-3.0020000000000016,65535
55.127999999999965,-3.650000000000001,65535
54.80399999999997,-3.0020000000000016,65535
53.83199999999997,-2.354000000000002,65535
54.15599999999997,-0.4100000000000028,65535
54.47999999999997,-1.0580000000000025,65535
53.83199999999997,-0.4100000000000028,65535
53.183999999999976,-3.650000000000001,65535
53.183999999999976,-4.298000000000001,65535
52.85999999999998,-3.0020000000000016,65535
52.53599999999998,-3.0020000000000016,65535
51.887999999999984,-3.0020000000000016,65535
51.23999999999999,0.8859999999999966,65535
51.887999999999984,0.2379999999999968,65535
52.21199999999998,0.8859999999999966,65535
51.887999999999984,-4.946000000000001,65535
52.53599999999998,-3.650000000000001,65535
52.21199999999998,-4.298000000000001,65535
53.183999999999976,-0.4100000000000028,65535
51.23999999999999,-3.650000000000001,65535
51.887999999999984,-3.650000000000001,65535
52.21199999999998,-3.650000000000001,65535
51.56399999999999,0.8859999999999966,65535
51.887999999999984,0.8859999999999966,65535
52.85999999999998,0.8859999999999966,65535
53.50799999999997,-0.4100000000000028,65535
56.09999999999996,-4.298000000000001,65535
56.74799999999996,-4.946000000000001,65535
56.74799999999996,-4.298000000000001,65535
56.42399999999996,-4.946000000000001,65535
56.42399999999996,-4.298000000000001,65535
56.09999999999996,-4.946000000000001,65535
57.39599999999995,-4.298000000000001,65535
57.39599999999995,-3.0020000000000016,65535
57.39599999999995,-3.650000000000001,65535
56.42399999999996,-3.650000000000001,65535
57.07199999999995,-3.650000000000001,65535
57.07199999999995,-4.298000000000001,65535
56.74799999999996,-3.650000000000001,65535
59.15266399999986,27.34114399999998,65535
59.47666399999986,26.69314399999997,65535
59.47666399999986,26.04514399999998,65535
59.15266399999986,26.04514399999998,65535
59.15266399999986,24.74914399999998,65535
59.15266399999986,25.397143999999983,65535
59.47666399999986,25.397143999999983,65535
58.50466399999986,26.69314399999997,65535
58.82866399999986,26.69314399999997,65535
57.85666399999987,26.04514399999998,65535
58.180663999999865,26.04514399999998,65535
58.180663999999865,26.69314399999997,65535
58.82866399999986,26.04514399999998,65535
58.50466399999986,25.397143999999983,65535
58.82866399999986,25.397143999999983,65535
58.82866399999986,24.74914399999998,65535
58.180663999999865,27.34114399999998,65535
57.85666399999987,27.34114399999998,65535
63.68866399999983,27.34114399999998,7557
60.124663999999854,24.74914399999998,4213
60.44866399999985,24.74914399999998,4182
60.44866399999985,25.397143999999983,4194
60.77266399999985,25.397143999999983,4905
61.09666399999985,26.04514399999998,4948
60.77266399999985,26.04514399999998,4956
60.77266399999985,26.69314399999997,4975
61.09666399999985,25.397143999999983,4939
61.09666399999985,26.69314399999997,7678
61.420663999999846,26.69314399999997,7700
61.74466399999984,27.34114399999998,7724
62.06866399999984,27.34114399999998,7749
62.39266399999984,27.34114399999998,7773
62.71666399999984,27.34114399999998,7737
64.01266399999983,27.34114399999998,7513
63.36466399999984,27.34114399999998,7625
63.04066399999984,27.34114399999998,7665
63.04066399999984,27.989143999999985,7680
64.33666399999983,27.989143999999985,5264
64.33666399999983,27.34114399999998,5209
64.66066399999983,27.34114399999998,5194
64.66066399999983,26.69314399999997,5139
64.98466399999982,25.397143999999983,3559
64.66066399999983,26.04514399999998,5120
64.98466399999982,26.04514399999998,5104
66.28066399999982,25.397143999999983,3731
65.95666399999982,24.74914399999998,3472
65.63266399999982,24.74914399999998,3476
65.63266399999982,25.397143999999983,3518
65.30866399999982,25.397143999999983,3539
66.60466399999981,25.397143999999983,3765
64.01266399999983,24.74914399999998,3696
64.01266399999983,24.101143999999977,3731
64.01266399999983,23.45314399999998,3755
63.68866399999983,23.45314399999998,3767
63.68866399999983,22.805143999999984,3792
63.68866399999983,26.04514399999998,5824
63.68866399999983,25.397143999999983,5790
63.68866399999983,26.69314399999997,7524
60.44866399999985,26.69314399999997,8309
64.01266399999983,27.989143999999985,7943
62.71666399999984,22.805143999999984,3914
62.39266399999984,22.805143999999984,3946
62.06866399999984,22.805143999999984,3975
62.06866399999984,23.45314399999998,3991
61.74466399999984,23.45314399999998,4003
61.420663999999846,23.45314399999998,4051
61.09666399999985,23.45314399999998,4092
61.09666399999985,24.101143999999977,4099
61.09666399999985,24.74914399999998,4133
60.77266399999985,24.74914399999998,4149
63.04066399999984,21.50914399999997,65535
63.04066399999984,22.15714399999998,65535
63.04066399999984,22.805143999999984,3878
62.39266399999984,26.04514399999998,7921
62.06866399999984,25.397143999999983,7970
61.74466399999984,25.397143999999983,8038
61.74466399999984,24.74914399999998,8075
61.74466399999984,24.101143999999977,4280
61.420663999999846,24.101143999999977,4235
62.39266399999984,26.69314399999997,7892
64.66066399999983,25.397143999999983,3628
64.66066399999983,24.74914399999998,3646
64.33666399999983,24.74914399999998,3657
63.36466399999984,22.805143999999984,3817
67.25266399999981,24.101143999999977,7345
66.92866399999981,24.101143999999977,7309
66.60466399999981,23.45314399999998,7278
66.28066399999982,23.45314399999998,7260
66.28066399999982,24.101143999999977,7242
65.95666399999982,24.101143999999977,2844
60.124663999999854,24.101143999999977,5727
60.124663999999854,23.45314399999998,6585
60.44866399999985,22.805143999999984,6644
60.77266399999985,27.34114399999998,5027
61.09666399999985,27.989143999999985,5057
61.09666399999985,28.63714399999997,5095
61.420663999999846,29.28514399999997,5130
61.74466399999984,29.933143999999977,5167
62.06866399999984,29.933143999999977,5193
62.39266399999984,29.933143999999977,5209
62.71666399999984,29.933143999999977,5233
61.420663999999846,22.805143999999984,6338
61.420663999999846,22.15714399999998,7046
61.09666399999985,22.15714399999998,6384
61.420663999999846,21.50914399999997,7179
62.39266399999984,27.989143999999985,65535
62.06866399999984,27.989143999999985,65535
61.420663999999846,27.34114399999998,65535
63.04066399999984,29.933143999999977,7172
63.68866399999983,29.28514399999997,8955
63.36466399999984,29.28514399999997,8935
63.36466399999984,29.933143999999977,8894
60.44866399999985,27.34114399999998,65535
61.74466399999984,29.28514399999997,65535
62.39266399999984,30.58114399999998,65535
62.71666399999984,31.229143999999977,65535
62.71666399999984,29.28514399999997,65535
63.04066399999984,28.63714399999997,65535
66.60466399999981,26.04514399999998,6586
66.60466399999981,26.69314399999997,6622
66.60466399999981,27.34114399999998,6645
62.71666399999984,26.04514399999998,7806
62.71666399999984,25.397143999999983,7775
63.04066399999984,25.397143999999983,7595
63.36466399999984,25.397143999999983,6232
62.71666399999984,23.45314399999998,7800
62.39266399999984,24.101143999999977,65535
62.71666399999984,22.15714399999998,65535
62.39266399999984,22.15714399999998,65535
62.39266399999984,21.50914399999997,65535
61.09666399999985,21.50914399999997,6414
60.77266399999985,22.805143999999984,4452
60.44866399999985,22.15714399999998,4482
60.77266399999985,23.45314399999998,4439
60.77266399999985,21.50914399999997,5553
60.77266399999985,22.15714399999998,5506
60.124663999999854,22.805143999999984,8599
60.44866399999985,24.101143999999977,5712
62.06866399999984,24.74914399999998,65535
50.72866399999991,16.325143999999987,704
50.40466399999991,16.973143999999984,798
50.72866399999991,16.973143999999984,769
50.40466399999991,16.325143999999987,838
50.08066399999991,16.973143999999984,891
50.08066399999991,16.325143999999987,888
51.700663999999904,16.973143999999984,723
51.37666399999991,16.973143999999984,707
51.05266399999991,15.677143999999986,742
50.72866399999991,15.677143999999986,827
51.05266399999991,17.621143999999987,740
51.37666399999991,17.621143999999987,756
51.700663999999904,17.621143999999987,762
51.700663999999904,16.325143999999987,743
52.0246639999999,22.15714399999998,1498
52.0246639999999,21.50914399999997,1494
52.3486639999999,21.50914399999997,1494
52.0246639999999,20.86114399999998,1488
51.700663999999904,20.86114399999998,1470
51.37666399999991,21.50914399999997,1452
51.37666399999991,20.86114399999998,1440
51.05266399999991,20.86114399999998,1446
52.6726639999999,23.45314399999998,1747
52.3486639999999,22.805143999999984,1689
52.3486639999999,20.213143999999986,1512
52.0246639999999,20.213143999999986,1505
52.3486639999999,19.565143999999982,1328
52.6726639999999,19.565143999999982,1365
51.700663999999904,21.50914399999997,1474
51.700663999999904,22.15714399999998,1480
52.6726639999999,21.50914399999997,1533
52.996663999999896,21.50914399999997,1620
52.6726639999999,20.86114399999998,1525
52.6726639999999,22.15714399999998,1549
52.6726639999999,20.213143999999986,1461
52.996663999999896,19.565143999999982,1398
52.996663999999896,20.86114399999998,1558
52.996663999999896,20.213143999999986,1567
53.32066399999989,20.213143999999986,1600
51.37666399999991,20.213143999999986,1421
52.3486639999999,16.973143999999984,780
52.0246639999999,16.973143999999984,768
52.0246639999999,16.325143999999987,749
52.0246639999999,17.621143999999987,800
52.6726639999999,16.973143999999984,802
52.996663999999896,16.973143999999984,842
52.3486639999999,16.325143999999987,787
52.3486639999999,15.677143999999986,698
51.700663999999904,18.269143999999983,954
52.6726639999999,17.621143999999987,816
52.3486639999999,17.621143999999987,803
52.6726639999999,18.269143999999983,919
52.3486639999999,18.269143999999983,847
52.3486639999999,18.917143999999983,888
52.996663999999896,17.621143999999987,1216
51.700663999999904,19.565143999999982,1336
51.700663999999904,18.917143999999983,1386
51.37666399999991,18.269143999999983,778
58.82866399999986,9.197143999999987,1808
58.180663999999865,7.90114399999999,1901
58.50466399999986,8.54914399999999,1852
63.36466399999984,10.493143999999988,2023
63.36466399999984,11.141143999999988,2030
63.36466399999984,11.789143999999988,2065
63.68866399999983,11.789143999999988,2093
64.33666399999983,12.437143999999988,2494
64.66066399999983,12.437143999999988,2989
65.63266399999982,13.085143999999987,2646
65.95666399999982,13.085143999999987,2681
66.28066399999982,14.381143999999988,2751
65.95666399999982,13.733143999999989,2820
66.28066399999982,13.733143999999989,2729
65.30866399999982,13.085143999999987,2947
64.98466399999982,13.085143999999987,2581
64.01266399999983,11.789143999999988,2124
63.68866399999983,11.141143999999988,2061
59.800663999999855,10.493143999999988,1604
59.800663999999855,11.141143999999988,1587
60.124663999999854,11.141143999999988,1602
60.44866399999985,11.141143999999988,1615
60.124663999999854,11.789143999999988,1628
60.77266399999985,7.25314399999999,1864
60.77266399999985,6.60514399999999,1910
59.15266399999986,9.197143999999987,1690
59.47666399999986,9.197143999999987,1711
59.800663999999855,9.845143999999989,1606
59.47666399999986,11.141143999999988,1551
61.09666399999985,10.493143999999988,1725
60.77266399999985,10.493143999999988,1695
60.77266399999985,11.141143999999988,1650
62.06866399999984,9.197143999999987,2050
61.74466399999984,9.845143999999989,1996
61.420663999999846,9.845143999999989,1973
59.15266399999986,9.845143999999989,1670
59.47666399999986,9.845143999999989,1646
58.82866399999986,5.957143999999991,2085
58.180663999999865,7.25314399999999,1957
58.50466399999986,7.25314399999999,1990
58.50466399999986,6.60514399999999,1995
58.50466399999986,5.957143999999991,2053
58.82866399999986,8.54914399999999,1838
60.44866399999985,7.25314399999999,1838
60.44866399999985,7.90114399999999,1799
60.124663999999854,10.493143999999988,1636
60.44866399999985,9.197143999999987,1748
60.77266399999985,9.197143999999987,1760
60.77266399999985,8.54914399999999,1779
60.124663999999854,9.845143999999989,2015
60.44866399999985,10.493143999999988,1681
63.04066399999984,10.493143999999988,1974
62.06866399999984,9.845143999999989,2075
62.39266399999984,9.845143999999989,2083
62.71666399999984,9.845143999999989,2107
59.47666399999986,14.381143999999988,1600
59.47666399999986,13.733143999999989,1541
59.47666399999986,13.085143999999987,1517
59.800663999999855,12.437143999999988,1586
59.15266399999986,11.141143999999988,1515
59.15266399999986,14.381143999999988,1614
58.82866399999986,11.789143999999988,1495
58.50466399999986,12.437143999999988,1425
58.180663999999865,12.437143999999988,1418
57.85666399999987,11.789143999999988,1369
62.71666399999984,7.90114399999999,2136
62.39266399999984,7.90114399999999,2093
62.06866399999984,8.54914399999999,2068
60.44866399999985,5.309143999999991,1984
60.44866399999985,5.957143999999991,1951
60.77266399999985,5.957143999999991,1940
62.39266399999984,11.141143999999988,1871
62.06866399999984,10.493143999999988,1826
61.74466399999984,11.141143999999988,1799
61.420663999999846,11.141143999999988,1753
61.09666399999985,11.141143999999988,1736
60.77266399999985,11.789143999999988,1713
63.04066399999984,11.141143999999988,1952
62.71666399999984,11.141143999999988,1895
62.39266399999984,10.493143999999988,1853
67.25266399999981,15.677143999999986,2870
67.25266399999981,15.029143999999986,2908
67.25266399999981,14.381143999999988,2936
66.92866399999981,15.029143999999986,2859
66.60466399999981,15.677143999999986,2837
64.01266399999983,11.141143999999988,2108
66.60466399999981,15.029143999999986,2900
54.29266399999989,18.269143999999983,1356
54.616663999999886,17.621143999999987,1371
53.96866399999989,18.269143999999983,1336
43.92466399999995,1.4211439999999929,128
44.24866399999995,0.7731439999999932,115
44.572663999999946,0.1251439999999934,65
46.84066399999993,1.4211439999999929,185
44.572663999999946,1.4211439999999929,252
44.24866399999995,1.4211439999999929,230
45.54466399999994,1.4211439999999929,158
46.516663999999935,1.4211439999999929,220
42.30466399999996,2.717143999999992,331
44.24866399999995,2.717143999999992,314
44.572663999999946,2.717143999999992,319
43.92466399999995,2.0691439999999925,230
42.30466399999996,2.0691439999999925,507
42.62866399999996,2.0691439999999925,353
42.62866399999996,1.4211439999999929,358
42.95266399999996,1.4211439999999929,323
43.276663999999954,1.4211439999999929,226
46.516663999999935,-1.170856000000006,298
46.19266399999994,-1.170856000000006,234
45.86866399999994,-0.5228560000000062,160
45.54466399999994,-0.5228560000000062,140
48.46066399999992,1.4211439999999929,229
41.332663999999966,2.0691439999999925,534
41.98066399999996,2.717143999999992,493
48.46066399999992,-1.8188560000000056,280
47.81266399999993,0.7731439999999932,283
46.84066399999993,0.7731439999999932,220
44.572663999999946,-1.170856000000006,56
43.60066399999995,-1.170856000000006,123
43.276663999999954,-1.8188560000000056,142
43.276663999999954,0.1251439999999934,227
42.95266399999996,0.1251439999999934,201
43.276663999999954,-0.5228560000000062,146
43.60066399999995,-0.5228560000000062,134
47.81266399999993,-3.7628560000000046,446
47.48866399999993,-2.4668560000000053,373
47.81266399999993,-0.5228560000000062,313
46.516663999999935,-1.8188560000000056,341
48.136663999999925,-1.170856000000006,293
47.48866399999993,-1.170856000000006,301
45.22066399999994,8.54914399999999,496
45.22066399999994,7.90114399999999,483
46.19266399999994,-0.5228560000000062,287
46.516663999999935,-0.5228560000000062,303
48.78466399999992,-3.114856000000005,351
50.72866399999991,2.0691439999999925,317
50.40466399999991,2.0691439999999925,329
40.36066399999997,-3.7628560000000046,1905
41.65666399999997,-1.170856000000006,1822
41.332663999999966,1.4211439999999929,1760
43.276663999999954,13.733143999999989,4390
42.95266399999996,13.733143999999989,4412
41.65666399999997,15.029143999999986,4496
40.68466399999997,17.621143999999987,4658
43.60066399999995,13.085143999999987,4383
41.65666399999997,12.437143999999988,3049
41.65666399999997,13.085143999999987,3068
41.98066399999996,13.085143999999987,3118
41.65666399999997,13.733143999999989,3120
41.332663999999966,13.733143999999989,3112
41.332663999999966,14.381143999999988,3269
41.00866399999997,14.381143999999988,3175
41.332663999999966,13.085143999999987,3094
41.00866399999997,15.029143999999986,3375
41.98066399999996,13.733143999999989,3317
42.30466399999996,14.381143999999988,3456
42.30466399999996,12.437143999999988,3057
42.62866399999996,12.437143999999988,3236
42.95266399999996,12.437143999999988,3521
42.30466399999996,11.789143999999988,3066
42.95266399999996,11.789143999999988,3276
42.62866399999996,11.789143999999988,3267
43.276663999999954,11.789143999999988,3330
42.95266399999996,13.085143999999987,4284
42.30466399999996,13.085143999999987,3343
43.276663999999954,13.085143999999987,4332
43.276663999999954,12.437143999999988,4339
42.62866399999996,11.141143999999988,3112
42.95266399999996,11.141143999999988,3155
42.95266399999996,10.493143999999988,3173
44.572663999999946,8.54914399999999,530
44.89666399999994,7.90114399999999,498
44.89666399999994,9.197143999999987,552
44.24866399999995,7.90114399999999,519
44.572663999999946,7.90114399999999,521
43.92466399999995,7.90114399999999,451
44.24866399999995,7.25314399999999,581
44.89666399999994,7.25314399999999,558
45.22066399999994,7.25314399999999,467
45.54466399999994,7.90114399999999,519
44.572663999999946,7.25314399999999,562
52.996663999999896,22.805143999999984,1848
52.996663999999896,23.45314399999998,1871
51.37666399999991,22.15714399999998,1430
51.37666399999991,22.805143999999984,1458
50.08066399999991,20.213143999999986,920
50.72866399999991,20.213143999999986,1392
50.40466399999991,20.213143999999986,1357
50.08066399999991,20.86114399999998,1265
50.08066399999991,21.50914399999997,1288
50.08066399999991,22.15714399999998,1297
50.08066399999991,22.805143999999984,1310
53.96866399999989,22.805143999999984,2307
53.64466399999989,23.45314399999998,1978
53.32066399999989,23.45314399999998,1924
50.40466399999991,19.565143999999982,876
50.08066399999991,18.917143999999983,866
50.08066399999991,18.269143999999983,801
52.0246639999999,22.805143999999984,1561
52.0246639999999,23.45314399999998,1599
51.37666399999991,19.565143999999982,1299
51.05266399999991,19.565143999999982,1260
50.72866399999991,18.917143999999983,1223
50.72866399999991,19.565143999999982,1373
49.75666399999992,18.917143999999983,1255
50.40466399999991,18.269143999999983,762
53.64466399999989,19.565143999999982,1466
53.96866399999989,18.917143999999983,1380
53.64466399999989,18.917143999999983,1419
53.64466399999989,20.213143999999986,1518
52.996663999999896,18.917143999999983,1317
52.996663999999896,18.269143999999983,1235
53.32066399999989,18.917143999999983,1372
50.72866399999991,17.621143999999987,747
50.72866399999991,18.269143999999983,754
52.6726639999999,16.325143999999987,843
52.996663999999896,16.325143999999987,781
52.996663999999896,15.677143999999986,711
53.32066399999989,15.677143999999986,706
53.32066399999989,15.029143999999986,687
53.64466399999989,15.029143999999986,699
53.96866399999989,15.029143999999986,725
52.6726639999999,18.917143999999983,1279
53.32066399999989,16.325143999999987,1316
52.6726639999999,15.029143999999986,766
51.05266399999991,22.805143999999984,1464
51.05266399999991,23.45314399999998,1594
50.72866399999991,22.15714399999998,1378
50.40466399999991,22.15714399999998,1320
51.05266399999991,22.15714399999998,1424
54.616663999999886,16.973143999999984,1318
54.29266399999989,16.325143999999987,785
53.96866399999989,15.677143999999986,762
50.72866399999991,21.50914399999997,1376
50.40466399999991,21.50914399999997,1328
50.40466399999991,17.621143999999987,776
53.32066399999989,22.805143999999984,1889
53.64466399999989,22.15714399999998,1618
54.29266399999989,16.973143999999984,1298
50.72866399999991,20.86114399999998,1451
51.700663999999904,22.805143999999984,1480
51.05266399999991,21.50914399999997,1545
50.08066399999991,19.565143999999982,881
52.0246639999999,18.917143999999983,8488
52.0246639999999,19.565143999999982,8481
53.64466399999989,18.269143999999983,1321
51.700663999999904,20.213143999999986,1461
53.32066399999989,19.565143999999982,1482
50.72866399999991,23.45314399999998,1675
50.72866399999991,22.805143999999984,1644
49.43266399999992,20.213143999999986,1278
49.75666399999992,21.50914399999997,1318
49.75666399999992,22.15714399999998,1831
49.43266399999992,22.15714399999998,1593
51.05266399999991,18.917143999999983,1183
51.05266399999991,18.269143999999983,753
53.32066399999989,16.973143999999984,885
53.64466399999989,16.973143999999984,842
49.75666399999992,20.86114399999998,1330
50.40466399999991,22.805143999999984,8570
53.64466399999989,16.325143999999987,796
53.96866399999989,20.86114399999998,1782
54.29266399999989,20.86114399999998,1828
53.96866399999989,21.50914399999997,1778
53.64466399999989,15.677143999999986,759
53.96866399999989,20.213143999999986,1470
53.96866399999989,19.565143999999982,1391
54.29266399999989,19.565143999999982,1404
53.96866399999989,16.325143999999987,774
53.64466399999989,17.621143999999987,1326
53.96866399999989,22.15714399999998,1670
53.64466399999989,21.50914399999997,1574
53.64466399999989,20.86114399999998,1527
52.6726639999999,15.677143999999986,748
51.05266399999991,20.213143999999986,1537
54.940663999999884,24.101143999999977,3681
54.616663999999886,23.45314399999998,3625
54.29266399999989,23.45314399999998,3488
53.64466399999989,22.805143999999984,1876
53.96866399999989,16.973143999999984,1290
50.40466399999991,20.86114399999998,1528
53.32066399999989,18.269143999999983,1284
49.75666399999992,19.565143999999982,896
50.40466399999991,23.45314399999998,1996
49.75666399999992,20.213143999999986,1282
49.43266399999992,19.565143999999982,1257
49.43266399999992,20.86114399999998,1343
53.96866399999989,17.621143999999987,1534
42.30466399999996,-1.8188560000000056,8799
41.98066399999996,-1.8188560000000056,8782
41.65666399999997,0.7731439999999932,8786
42.62866399999996,-1.8188560000000056,8914
42.95266399999996,-1.8188560000000056,8943
42.62866399999996,-3.114856000000005,9037
42.95266399999996,-2.4668560000000053,9015
42.62866399999996,-7.650856000000003,9379
42.30466399999996,-7.650856000000003,9439
42.30466399999996,-8.946856000000002,9575
42.30466399999996,-8.298856000000002,9549
41.98066399999996,-8.298856000000002,9538
42.30466399999996,-7.002856000000003,9321
42.62866399999996,-6.354856000000003,9263
42.30466399999996,-6.354856000000003,9218
42.62866399999996,-5.706856000000004,8718
41.98066399999996,-4.410856000000004,8672
42.30466399999996,-3.7628560000000046,9063
40.03666399999997,-0.5228560000000062,8766
39.38866399999998,-0.5228560000000062,8814
41.00866399999997,0.7731439999999932,8914
40.68466399999997,0.7731439999999932,8946
40.36066399999997,0.1251439999999934,9024
39.712663999999975,-0.5228560000000062,8923
38.41666399999998,-0.5228560000000062,8935
39.06466399999998,-0.5228560000000062,9057
38.74066399999998,-1.170856000000006,8943
41.332663999999966,0.7731439999999932,8974
41.65666399999997,2.717143999999992,8574
41.65666399999997,2.0691439999999925,8597
41.332663999999966,0.1251439999999934,8932
41.332663999999966,-0.5228560000000062,8876
41.65666399999997,-4.410856000000004,8646
40.03666399999997,-2.4668560000000053,8884
41.00866399999997,-4.410856000000004,8767
43.276663999999954,-5.706856000000004,8848
39.38866399999998,-1.170856000000006,8909
38.09266399999999,-1.170856000000006,9322
38.74066399999998,-0.5228560000000062,9085
37.76866399999999,-1.170856000000006,9387
39.06466399999998,-1.8188560000000056,8907
39.38866399999998,-3.114856000000005,8807
39.38866399999998,-2.4668560000000053,8863
39.06466399999998,-2.4668560000000053,8890
39.06466399999998,-3.114856000000005,8811
39.06466399999998,-3.7628560000000046,8785
38.74066399999998,-3.7628560000000046,8864
40.03666399999997,-3.7628560000000046,8763
40.03666399999997,-3.114856000000005,8963
40.03666399999997,-1.8188560000000056,9044
39.712663999999975,-1.8188560000000056,9009
39.712663999999975,-1.170856000000006,8945
40.36066399999997,-1.170856000000006,8964
40.68466399999997,-1.170856000000006,8942
41.00866399999997,-1.170856000000006,8930
41.332663999999966,-1.170856000000006,8770
43.276663999999954,-8.298856000000002,9539
42.95266399999996,-8.298856000000002,9507
41.65666399999997,-5.706856000000004,65535
41.98066399999996,-7.002856000000003,65535
41.98066399999996,-6.354856000000003,65535
41.332663999999966,-5.058856000000004,8885
43.276663999999954,-3.7628560000000046,9320
42.95266399999996,-4.410856000000004,9254
42.62866399999996,-4.410856000000004,9244
42.30466399999996,-4.410856000000004,9203
41.00866399999997,-5.706856000000004,8823
41.332663999999966,-1.8188560000000056,8716
40.68466399999997,-3.114856000000005,8670
41.00866399999997,-3.114856000000005,8721
41.00866399999997,-2.4668560000000053,8744
41.332663999999966,-2.4668560000000053,8797
40.68466399999997,-4.410856000000004,8707
40.36066399999997,-4.410856000000004,8791
40.68466399999997,-3.7628560000000046,8699
40.36066399999997,-3.114856000000005,8677
41.65666399999997,-2.4668560000000053,8814
38.09266399999999,-3.7628560000000046,8911
38.74066399999998,-3.114856000000005,8855
37.76866399999999,-3.7628560000000046,8968
39.712663999999975,-3.114856000000005,8799
38.41666399999998,-3.7628560000000046,8876
40.03666399999997,-4.410856000000004,65535
40.03666399999997,-5.058856000000004,65535
39.38866399999998,-6.354856000000003,65535
39.38866399999998,-7.002856000000003,65535
42.95266399999996,-3.114856000000005,9448
41.98066399999996,-1.170856000000006,8811
42.30466399999996,-2.4668560000000053,8852
41.65666399999997,-0.5228560000000062,8909
41.98066399999996,-0.5228560000000062,8746
41.65666399999997,0.1251439999999934,8773
41.98066399999996,0.1251439999999934,8795
37.76866399999999,-5.058856000000004,8847
36.79666399999999,-4.410856000000004,8906
38.74066399999998,-4.410856000000004,8803
37.12066399999999,-4.410856000000004,8880
37.44466399999999,-5.058856000000004,9404
37.44466399999999,-7.002856000000003,65535
37.44466399999999,-6.354856000000003,65535
37.44466399999999,-5.706856000000004,9080
39.712663999999975,-3.7628560000000046,8873
42.62866399999996,-8.946856000000002,65535
42.30466399999996,-5.706856000000004,9225
42.30466399999996,-5.058856000000004,9310
42.95266399999996,-5.706856000000004,8750
41.00866399999997,-5.058856000000004,8791
40.68466399999997,-5.058856000000004,8765
41.65666399999997,-5.058856000000004,65535
41.65666399999997,-6.354856000000003,65535
36.79666399999999,-6.354856000000003,65535
37.12066399999999,-5.706856000000004,9248
37.76866399999999,-5.706856000000004,9047
38.09266399999999,-4.410856000000004,9182
37.12066399999999,-5.058856000000004,9202
36.79666399999999,-5.058856000000004,9160
37.76866399999999,-4.410856000000004,65535
37.76866399999999,-7.002856000000003,65535
38.41666399999998,-6.354856000000003,65535
38.09266399999999,-6.354856000000003,65535
48.78466399999992,1.4211439999999929,241
56.23666399999988,8.54914399999999,7090
55.58866399999988,9.197143999999987,6895
55.91266399999988,9.197143999999987,7036
55.26466399999988,10.493143999999988,1074
55.91266399999988,12.437143999999988,1209
55.58866399999988,11.789143999999988,6735
55.58866399999988,11.141143999999988,6776
55.26466399999988,11.789143999999988,6768
55.58866399999988,10.493143999999988,6891
55.58866399999988,13.085143999999987,1166
56.88466399999987,9.845143999999989,7042
57.20866399999987,9.845143999999989,7077
56.56066399999988,9.845143999999989,7014
56.88466399999987,8.54914399999999,7129
54.940663999999884,9.845143999999989,8236
54.940663999999884,11.789143999999988,6992
55.91266399999988,13.085143999999987,1224
56.23666399999988,13.733143999999989,1268
55.91266399999988,13.733143999999989,1271
56.23666399999988,14.381143999999988,1291
56.23666399999988,15.029143999999986,1332
56.23666399999988,15.677143999999986,1387
56.56066399999988,14.381143999999988,1348
56.88466399999987,14.381143999999988,1318
56.23666399999988,13.085143999999987,1216
56.56066399999988,13.085143999999987,1296
56.88466399999987,12.437143999999988,1333
57.20866399999987,12.437143999999988,1349
57.53266399999987,12.437143999999988,1364
56.88466399999987,15.029143999999986,1344
56.56066399999988,15.677143999999986,1404
56.88466399999987,15.677143999999986,1423
56.88466399999987,16.325143999999987,1438
55.91266399999988,11.789143999999988,7061
57.20866399999987,10.493143999999988,7264
49.43266399999992,1.4211439999999929,324
49.75666399999992,0.7731439999999932,342
49.75666399999992,2.0691439999999925,284
50.08066399999991,2.717143999999992,341
49.75666399999992,1.4211439999999929,367
47.81266399999993,1.4211439999999929,294
48.136663999999925,2.0691439999999925,375
48.46066399999992,2.0691439999999925,391
48.136663999999925,1.4211439999999929,293
48.78466399999992,0.1251439999999934,452
48.46066399999992,0.1251439999999934,335
47.81266399999993,0.1251439999999934,297
46.84066399999993,-0.5228560000000062,413
47.16466399999993,0.7731439999999932,268
46.84066399999993,0.1251439999999934,287
46.84066399999993,-1.170856000000006,307
50.08066399999991,1.4211439999999929,324
50.08066399999991,2.0691439999999925,315
49.43266399999992,2.717143999999992,226
49.75666399999992,3.365143999999992,294
50.08066399999991,3.365143999999992,297
49.10866399999992,2.0691439999999925,215
49.43266399999992,2.0691439999999925,223
48.78466399999992,0.7731439999999932,423
48.78466399999992,-0.5228560000000062,497
48.78466399999992,-1.170856000000006,529
48.136663999999925,0.7731439999999932,300
48.46066399999992,0.7731439999999932,272
43.92466399999995,5.957143999999991,393
44.24866399999995,5.957143999999991,433
43.92466399999995,5.309143999999991,341
42.95266399999996,2.717143999999992,257
45.54466399999994,2.0691439999999925,194
45.22066399999994,2.0691439999999925,226
42.95266399999996,2.0691439999999925,279
42.95266399999996,0.7731439999999932,246
43.276663999999954,0.7731439999999932,267
46.19266399999994,0.7731439999999932,292
46.516663999999935,0.7731439999999932,249
45.86866399999994,0.1251439999999934,305
46.19266399999994,0.1251439999999934,309
47.81266399999993,-1.170856000000006,328
48.136663999999925,-2.4668560000000053,306
47.48866399999993,-1.8188560000000056,356
47.16466399999993,-1.170856000000006,316
47.16466399999993,-0.5228560000000062,323
46.84066399999993,-1.8188560000000056,352
45.22066399999994,-0.5228560000000062,47
44.89666399999994,0.1251439999999934,0
45.22066399999994,0.7731439999999932,38
45.54466399999994,0.7731439999999932,66
45.86866399999994,0.7731439999999932,282
45.22066399999994,0.1251439999999934,42
44.89666399999994,0.7731439999999932,40
43.92466399999995,-0.5228560000000062,336
43.92466399999995,-1.170856000000006,235
44.24866399999995,-1.170856000000006,270
45.22066399999994,-1.170856000000006,138
44.572663999999946,-0.5228560000000062,43
44.24866399999995,0.1251439999999934,90
44.572663999999946,0.7731439999999932,182
43.276663999999954,-1.170856000000006,156
42.95266399999996,-0.5228560000000062,453
44.24866399999995,2.0691439999999925,278
43.60066399999995,0.7731439999999932,191
43.60066399999995,2.0691439999999925,255
52.6726639999999,4.661143999999991,7081
52.6726639999999,5.309143999999991,7104
51.700663999999904,5.309143999999991,7049
52.0246639999999,5.309143999999991,7061
52.3486639999999,5.309143999999991,7077
51.37666399999991,4.013143999999992,7057
52.3486639999999,5.957143999999991,7071
52.0246639999999,6.60514399999999,7101
52.6726639999999,5.957143999999991,7088
52.996663999999896,5.957143999999991,7101
53.32066399999989,5.957143999999991,7095
52.996663999999896,6.60514399999999,7077
53.32066399999989,6.60514399999999,7069
52.6726639999999,6.60514399999999,7097
52.996663999999896,5.309143999999991,7116
59.15266399999986,24.101143999999977,65535
56.88466399999987,24.101143999999977,65535
56.88466399999987,23.45314399999998,65535
56.88466399999987,22.805143999999984,65535
57.20866399999987,24.74914399999998,65535
56.88466399999987,24.74914399999998,65535
56.56066399999988,24.74914399999998,65535
56.56066399999988,25.397143999999983,65535
56.56066399999988,24.101143999999977,65535
56.56066399999988,23.45314399999998,65535
56.56066399999988,26.04514399999998,65535
56.88466399999987,26.04514399999998,65535
57.20866399999987,25.397143999999983,65535
57.53266399999987,25.397143999999983,65535
56.23666399999988,26.04514399999998,65535
56.23666399999988,26.69314399999997,65535
55.91266399999988,26.69314399999997,65535
56.56066399999988,26.69314399999997,65535
56.56066399999988,27.34114399999998,65535
56.56066399999988,27.989143999999985,65535
56.23666399999988,27.989143999999985,65535
55.91266399999988,27.34114399999998,65535
56.56066399999988,22.805143999999984,65535
56.56066399999988,22.15714399999998,65535
56.56066399999988,21.50914399999997,65535
57.20866399999987,26.69314399999997,65535
39.06466399999998,-8.946856000000002,65535
38.41666399999998,-8.298856000000002,65535
45.86866399999994,11.789143999999988,2068
46.19266399999994,11.789143999999988,2055
46.19266399999994,10.493143999999988,2095
45.22066399999994,18.269143999999983,1932
45.22066399999994,18.917143999999983,1973
45.54466399999994,16.973143999999984,1759
45.22066399999994,17.621143999999987,1876
45.86866399999994,16.325143999999987,1628
45.54466399999994,18.917143999999983,1973
45.54466399999994,16.325143999999987,1654
45.54466399999994,18.269143999999983,1880
44.89666399999994,18.917143999999983,2170
46.19266399999994,16.973143999999984,1719
46.19266399999994,16.325143999999987,1685
45.86866399999994,16.973143999999984,1678
45.86866399999994,17.621143999999987,1721
46.19266399999994,15.677143999999986,1593
46.516663999999935,16.325143999999987,1658
45.54466399999994,15.677143999999986,1677
45.22066399999994,15.029143999999986,1659
45.54466399999994,15.029143999999986,1641
45.22066399999994,15.677143999999986,1724
44.572663999999946,15.677143999999986,2059
44.24866399999995,15.677143999999986,2080
43.92466399999995,16.325143999999987,2144
44.89666399999994,15.677143999999986,2023
45.54466399999994,17.621143999999987,1846
45.22066399999994,16.325143999999987,1713
46.516663999999935,16.973143999999984,1788
45.86866399999994,18.269143999999983,2080
43.92466399999995,15.677143999999986,2246
45.22066399999994,13.733143999999989,1776
47.48866399999993,19.565143999999982,1247
47.16466399999993,18.917143999999983,1218
47.81266399999993,18.917143999999983,946
45.54466399999994,9.845143999999989,499
45.22066399999994,9.845143999999989,508
45.22066399999994,10.493143999999988,558
45.86866399999994,9.845143999999989,519
45.86866399999994,10.493143999999988,2838
48.78466399999992,21.50914399999997,1370
49.10866399999992,20.213143999999986,1341
49.10866399999992,18.917143999999983,1217
48.46066399999992,17.621143999999987,838
49.43266399999992,17.621143999999987,1453
49.10866399999992,17.621143999999987,1312
48.136663999999925,18.269143999999983,858
49.10866399999992,18.269143999999983,1246
49.43266399999992,18.269143999999983,1278
49.43266399999992,16.973143999999984,1026
49.75666399999992,16.973143999999984,1401
49.75666399999992,16.325143999999987,966
50.08066399999991,15.677143999999986,719
50.08066399999991,15.029143999999986,701
49.43266399999992,18.917143999999983,1190
47.81266399999993,20.86114399999998,1435
48.136663999999925,20.86114399999998,1380
48.46066399999992,20.86114399999998,1342
48.46066399999992,21.50914399999997,1382
49.10866399999992,19.565143999999982,1233
48.136663999999925,17.621143999999987,806
48.78466399999992,22.15714399999998,1557
48.78466399999992,20.86114399999998,1439
49.10866399999992,20.86114399999998,1361
48.78466399999992,18.269143999999983,1209
48.78466399999992,17.621143999999987,869
49.10866399999992,21.50914399999997,1366
48.78466399999992,20.213143999999986,1305
48.46066399999992,20.213143999999986,1246
48.136663999999925,19.565143999999982,1218
48.46066399999992,19.565143999999982,1180
48.46066399999992,18.917143999999983,900
48.46066399999992,18.269143999999983,887
48.78466399999992,19.565143999999982,1333
48.78466399999992,18.917143999999983,1251
47.81266399999993,18.269143999999983,919
49.10866399999992,22.15714399999998,1552
49.43266399999992,21.50914399999997,1393
48.136663999999925,18.917143999999983,1211
48.136663999999925,20.213143999999986,1267
52.636,-8.018,65535
52.312,-7.370000000000001,65535
52.312,-8.018,65535
52.636,-8.666,65535
51.988,-8.666,65535
51.988,-8.018,65535
52.96,-8.666,65535
52.96,-6.074000000000002,65535
53.28399999999999,-6.722000000000001,65535
53.60799999999999,-6.722000000000001,65535
53.60799999999999,-7.370000000000001,65535
53.60799999999999,-8.018,65535
54.25599999999999,-8.666,65535
53.93199999999999,-8.666,65535
53.93199999999999,-8.018,65535
52.312,-6.722000000000001,65535
52.636,-6.722000000000001,65535
53.93199999999999,-6.722000000000001,65535
54.25599999999999,-6.074000000000002,65535
53.28399999999999,-7.370000000000001,65535
52.96,-7.370000000000001,65535
52.312,-8.666,65535
52.96,-8.018,65535
52.636,-7.370000000000001,65535
52.96,-6.722000000000001,65535
51.988,-9.314,65535
52.312,-9.314,65535
54.579999999999984,-6.722000000000001,65535
54.579999999999984,-6.074000000000002,65535
53.28399999999999,-8.018,65535
53.28399999999999,-8.666,65535
53.28399999999999,-9.314,65535
53.93199999999999,-9.314,65535
54.25599999999999,-9.314,65535
53.60799999999999,-8.666,65535
53.60799999999999,-9.314,65535
49.43266399999992,14.381143999999988,755
49.75666399999992,14.381143999999988,708
49.75666399999992,15.029143999999986,706
49.75666399999992,13.733143999999989,717
50.08066399999991,13.733143999999989,709
49.75666399999992,15.677143999999986,719
50.40466399999991,15.029143999999986,696
49.43266399999992,13.733143999999989,727
50.40466399999991,15.677143999999986,707
50.40466399999991,13.733143999999989,762
46.19266399999994,15.029143999999986,1573
45.86866399999994,15.029143999999986,1632
45.86866399999994,14.381143999999988,1610
46.19266399999994,13.733143999999989,1665
45.86866399999994,13.733143999999989,1741
58.50466399999986,13.733143999999989,1442
58.180663999999865,13.733143999999989,1446
58.180663999999865,13.085143999999987,1418
57.85666399999987,12.437143999999988,1384
60.44866399999985,15.677143999999986,1667
60.124663999999854,15.677143999999986,1601
60.124663999999854,16.325143999999987,1639
59.800663999999855,16.325143999999987,1567
59.800663999999855,17.621143999999987,1546
59.47666399999986,18.269143999999983,1528
61.74466399999984,16.973143999999984,1678
61.420663999999846,16.973143999999984,1651
60.77266399999985,16.973143999999984,1603
65.63266399999982,22.15714399999998,2782
65.95666399999982,21.50914399999997,2742
65.63266399999982,20.86114399999998,2713
64.98466399999982,20.213143999999986,2645
64.66066399999983,20.213143999999986,2623
64.33666399999983,19.565143999999982,2317
64.01266399999983,19.565143999999982,2030
63.68866399999983,20.213143999999986,1983
64.66066399999983,18.917143999999983,2994
59.15266399999986,16.325143999999987,1503
59.15266399999986,15.029143999999986,1495
59.15266399999986,17.621143999999987,1520
57.53266399999987,14.381143999999988,1344
57.53266399999987,15.029143999999986,1364
61.09666399999985,14.381143999999988,1771
60.77266399999985,15.029143999999986,1722
60.44866399999985,15.029143999999986,1708
58.180663999999865,15.029143999999986,1421
58.50466399999986,16.325143999999987,1455
58.50466399999986,15.677143999999986,1428
63.36466399999984,13.085143999999987,2015
63.04066399999984,14.381143999999988,1952
62.39266399999984,15.677143999999986,1874
63.36466399999984,13.733143999999989,1997
63.36466399999984,14.381143999999988,1969
62.71666399999984,15.677143999999986,1902
62.39266399999984,17.621143999999987,1736
59.800663999999855,15.677143999999986,2013
55.58866399999988,13.733143999999989,1298
57.20866399999987,14.381143999999988,1328
57.85666399999987,14.381143999999988,1376
58.82866399999986,16.973143999999984,1512
58.82866399999986,16.325143999999987,1490
59.15266399999986,18.269143999999983,1524
60.44866399999985,17.621143999999987,1579
59.15266399999986,12.437143999999988,1483
59.15266399999986,13.085143999999987,1497
58.82866399999986,12.437143999999988,1459
59.47666399999986,16.325143999999987,1529
58.82866399999986,14.381143999999988,1536
59.47666399999986,15.677143999999986,1518
63.36466399999984,18.917143999999983,1936
63.04066399999984,17.621143999999987,1891
62.71666399999984,17.621143999999987,1865
63.68866399999983,19.565143999999982,1969
62.39266399999984,16.973143999999984,1780
59.800663999999855,16.973143999999984,1555
59.47666399999986,17.621143999999987,1532
57.85666399999987,13.085143999999987,1408
57.53266399999987,13.085143999999987,1389
58.50466399999986,11.789143999999988,1430
57.85666399999987,15.029143999999986,1410
57.20866399999987,13.733143999999989,1334
57.53266399999987,13.733143999999989,1395
61.74466399999984,16.325143999999987,1774
61.420663999999846,16.325143999999987,1741
61.09666399999985,16.325143999999987,1730
61.09666399999985,16.973143999999984,1698
60.124663999999854,15.029143999999986,1876
66.60466399999981,20.86114399999998,2817
67.25266399999981,20.86114399999998,2885
67.90066399999981,20.213143999999986,2955
67.57666399999981,20.213143999999986,3580
59.800663999999855,15.029143999999986,1596
58.50466399999986,15.029143999999986,1438
59.47666399999986,15.029143999999986,1581
60.44866399999985,16.325143999999987,1667
59.15266399999986,15.677143999999986,1525
57.85666399999987,13.733143999999989,1436
58.82866399999986,13.733143999999989,1483
58.50466399999986,13.085143999999987,1468
57.20866399999987,13.085143999999987,1365
56.88466399999987,13.085143999999987,1339
58.180663999999865,11.789143999999988,1401
62.06866399999984,16.973143999999984,1769
65.95666399999982,23.45314399999998,2823
59.800663999999855,14.381143999999988,5891
59.800663999999855,18.269143999999983,1537
63.04066399999984,15.029143999999986,1920
62.71666399999984,15.029143999999986,1910
62.39266399999984,16.325143999999987,1843
63.36466399999984,12.437143999999988,2048
68.5486639999998,17.621143999999987,3168
68.5486639999998,18.269143999999983,3101
68.5486639999998,18.917143999999983,3078
68.2246639999998,18.917143999999983,3034
59.800663999999855,13.085143999999987,1600
60.124663999999854,13.085143999999987,1639
59.47666399999986,16.973143999999984,1541
59.15266399999986,16.973143999999984,1533
56.56066399999988,13.733143999999989,1286
60.124663999999854,17.621143999999987,1556
57.85666399999987,16.325143999999987,1515
58.180663999999865,16.325143999999987,1477
58.180663999999865,15.677143999999986,1485
57.20866399999987,16.325143999999987,1527
57.53266399999987,15.677143999999986,1545
57.85666399999987,15.677143999999986,1516
44.89666399999994,23.45314399999998,2965
44.572663999999946,23.45314399999998,3035
44.89666399999994,24.74914399999998,2952
44.572663999999946,24.74914399999998,3071
44.572663999999946,24.101143999999977,3012
44.24866399999995,24.101143999999977,3041
47.48866399999993,25.397143999999983,2813
47.48866399999993,24.74914399999998,2753
47.16466399999993,24.74914399999998,2675
47.16466399999993,24.101143999999977,2577
47.48866399999993,22.15714399999998,2707
47.81266399999993,22.15714399999998,2793
47.16466399999993,22.15714399999998,2686
47.16466399999993,23.45314399999998,2738
47.16466399999993,22.805143999999984,2744
46.84066399999993,24.101143999999977,2658
45.86866399999994,27.34114399999998,2998
45.54466399999994,27.34114399999998,2979
45.54466399999994,27.989143999999985,3095
45.86866399999994,20.86114399999998,2870
45.86866399999994,21.50914399999997,2878
46.19266399999994,21.50914399999997,2814
46.19266399999994,27.34114399999998,2998
46.19266399999994,26.69314399999997,2989
46.516663999999935,26.69314399999997,2951
46.516663999999935,26.04514399999998,2847
47.48866399999993,22.805143999999984,2805
46.84066399999993,22.805143999999984,2618
45.54466399999994,22.15714399999998,2927
45.22066399999994,22.15714399999998,3005
44.89666399999994,22.15714399999998,3423
47.48866399999993,23.45314399999998,2771
46.516663999999935,24.101143999999977,2497
46.516663999999935,24.74914399999998,2711
45.86866399999994,24.101143999999977,2660
47.16466399999993,26.69314399999997,3029
47.16466399999993,27.34114399999998,3084
43.92466399999995,25.397143999999983,3043
44.24866399999995,24.74914399999998,2950
44.89666399999994,26.04514399999998,2837
44.89666399999994,26.69314399999997,2884
45.22066399999994,26.69314399999997,2919
45.22066399999994,27.34114399999998,2946
46.84066399999993,26.69314399999997,2990
47.48866399999993,26.69314399999997,2983
44.24866399999995,25.397143999999983,2882
43.92466399999995,26.04514399999998,3059
46.19266399999994,24.101143999999977,2705
44.572663999999946,25.397143999999983,2920
46.84066399999993,24.74914399999998,2718
46.516663999999935,21.50914399999997,2818
46.84066399999993,21.50914399999997,2825
44.572663999999946,26.69314399999997,2875
44.572663999999946,27.34114399999998,2896
44.89666399999994,27.34114399999998,3011
44.572663999999946,27.989143999999985,2916
44.24866399999995,27.989143999999985,2930
44.572663999999946,28.63714399999997,2981
45.86866399999994,22.15714399999998,2739
45.86866399999994,22.805143999999984,2633
44.24866399999995,23.45314399999998,3068
43.92466399999995,27.989143999999985,65535
46.84066399999993,27.34114399999998,3151
45.22066399999994,23.45314399999998,2940
45.54466399999994,23.45314399999998,2743
45.54466399999994,24.101143999999977,2690
45.22066399999994,24.101143999999977,2914
44.89666399999994,24.101143999999977,2984
46.19266399999994,22.15714399999998,2870
46.516663999999935,22.15714399999998,2836
45.22066399999994,21.50914399999997,3110
45.54466399999994,21.50914399999997,2958
45.54466399999994,20.86114399999998,2982
46.516663999999935,27.989143999999985,3101
46.19266399999994,27.989143999999985,3086
45.54466399999994,25.397143999999983,2804
45.22066399999994,25.397143999999983,2814
45.22066399999994,26.04514399999998,2870
47.81266399999993,24.101143999999977,2866
47.48866399999993,26.04514399999998,2956
47.81266399999993,26.04514399999998,2978
46.19266399999994,23.45314399999998,2537
45.86866399999994,23.45314399999998,2586
44.24866399999995,26.04514399999998,2864
45.22066399999994,27.989143999999985,3076
45.86866399999994,24.74914399999998,2699
46.516663999999935,25.397143999999983,2891
46.84066399999993,25.397143999999983,2774
46.19266399999994,26.04514399999998,2862
45.86866399999994,26.04514399999998,2827
43.92466399999995,23.45314399999998,3298
44.89666399999994,25.397143999999983,2925
46.19266399999994,20.86114399999998,2859
47.81266399999993,25.397143999999983,2990
44.572663999999946,22.805143999999984,3303
44.572663999999946,22.15714399999998,3445
46.516663999999935,23.45314399999998,2676
45.86866399999994,25.397143999999983,2753
44.24866399999995,27.34114399999998,3691
45.22066399999994,24.74914399999998,3016
45.54466399999994,22.805143999999984,2706
45.22066399999994,28.63714399999997,3136
44.89666399999994,28.63714399999997,3075
47.81266399999993,23.45314399999998,2923
46.19266399999994,24.74914399999998,2785
46.19266399999994,25.397143999999983,2809
43.92466399999995,24.101143999999977,3261
43.92466399999995,24.74914399999998,3274
47.81266399999993,26.69314399999997,3205
47.48866399999993,24.101143999999977,2798
46.84066399999993,26.04514399999998,3606
46.19266399999994,22.805143999999984,2930
47.48866399999993,27.34114399999998,3158
46.19266399999994,20.213143999999986,65535
45.54466399999994,26.04514399999998,2962
44.24866399999995,26.69314399999997,2880
45.86866399999994,27.989143999999985,3134
47.81266399999993,5.957143999999991,7066
