51.56399999999999,-0.4100000000000028,65535
51.887999999999984,-0.4100000000000028,65535
50.91599999999999,-1.7060000000000022,65535
51.23999999999999,-1.0580000000000025,65535
51.56399999999999,-1.0580000000000025,65535
51.23999999999999,-1.7060000000000022,65535
51.56399999999999,0.2379999999999968,65535
47.16466399999993,9.845143999999989,1092
47.48866399999993,9.845143999999989,1067
48.136663999999925,14.381143999999988,1180
47.81266399999993,13.085143999999987,1149
47.16466399999993,11.141143999999988,1184
47.48866399999993,11.789143999999988,1157
48.136663999999925,16.325143999999987,1353
47.48866399999993,12.437143999999988,1134
48.136663999999925,15.677143999999986,1303
47.16466399999993,10.493143999999988,1231
47.16466399999993,9.197143999999987,1053
48.136663999999925,13.733143999999989,1156
48.136663999999925,15.029143999999986,1199
47.81266399999993,16.973143999999984,1375
48.46066399999992,14.381143999999988,3784
47.48866399999993,13.085143999999987,1139
47.16466399999993,13.085143999999987,1149
47.48866399999993,14.381143999999988,1351
47.48866399999993,13.733143999999989,1428
47.48866399999993,15.029143999999986,1482
46.516663999999935,13.733143999999989,1247
46.84066399999993,13.733143999999989,1216
46.84066399999993,13.085143999999987,1201
48.78466399999992,14.381143999999988,65535
47.16466399999993,15.677143999999986,1445
46.516663999999935,14.381143999999988,1263
46.84066399999993,14.381143999999988,1273
47.16466399999993,14.381143999999988,2405
46.516663999999935,15.029143999999986,1357
47.81266399999993,16.325143999999987,1372
47.16466399999993,15.029143999999986,1453
47.81266399999993,15.677143999999986,1515
47.48866399999993,15.677143999999986,1429
46.516663999999935,13.085143999999987,2774
46.84066399999993,12.437143999999988,1259
48.136663999999925,11.789143999999988,1110
47.81266399999993,12.437143999999988,1122
46.84066399999993,15.677143999999986,1425
46.516663999999935,15.677143999999986,1383
46.84066399999993,16.325143999999987,1419
47.81266399999993,14.381143999999988,1225
48.78466399999992,16.973143999999984,1431
48.136663999999925,16.973143999999984,1366
48.46066399999992,13.733143999999989,1239
47.81266399999993,13.733143999999989,1274
50.08066399999991,8.54914399999999,1064
48.46066399999992,9.845143999999989,1089
51.05266399999991,7.25314399999999,1073
51.37666399999991,7.25314399999999,1090
51.37666399999991,6.60514399999999,1078
48.46066399999992,16.325143999999987,1349
48.46066399999992,16.973143999999984,1389
48.78466399999992,16.325143999999987,1370
48.46066399999992,15.677143999999986,1318
48.78466399999992,15.677143999999986,1367
47.48866399999993,16.325143999999987,1382
47.16466399999993,16.325143999999987,1470
46.19266399999994,14.381143999999988,1329
45.86866399999994,15.677143999999986,1383
43.60066399999995,16.325143999999987,2515
45.54466399999994,14.381143999999988,1405
45.54466399999994,13.733143999999989,1428
48.136663999999925,13.085143999999987,1136
48.46066399999992,11.141143999999988,1101
48.136663999999925,11.141143999999988,1112
48.46066399999992,7.90114399999999,1001
49.10866399999992,8.54914399999999,1038
48.78466399999992,2.0691439999999925,405
49.10866399999992,7.25314399999999,1064
52.0246639999999,7.90114399999999,1120
47.16466399999993,11.789143999999988,1210
49.43266399999992,11.141143999999988,1093
53.64466399999989,9.845143999999989,1229
50.72866399999991,4.013143999999992,1026
51.05266399999991,11.141143999999988,1258
47.48866399999993,11.141143999999988,1148
46.84066399999993,11.789143999999988,1502
46.516663999999935,11.141143999999988,1382
45.54466399999994,11.141143999999988,1288
46.19266399999994,11.141143999999988,1376
45.86866399999994,11.141143999999988,1363
44.572663999999946,11.141143999999988,1332
43.92466399999995,12.437143999999988,65535
45.54466399999994,12.437143999999988,1334
45.54466399999994,11.789143999999988,1315
48.78466399999992,15.029143999999986,1692
47.81266399999993,15.029143999999986,1290
47.81266399999993,11.141143999999988,1128
50.40466399999991,18.917143999999983,1545
52.3486639999999,20.86114399999998,1691
54.616663999999886,18.269143999999983,1720
54.29266399999989,18.917143999999983,1739
49.10866399999992,14.381143999999988,65535
50.08066399999991,14.381143999999988,1383
48.78466399999992,13.733143999999989,1345
52.6726639999999,13.085143999999987,1317
52.3486639999999,13.085143999999987,1315
53.96866399999989,12.437143999999988,1351
54.29266399999989,12.437143999999988,1357
47.48866399999993,8.54914399999999,1043
47.81266399999993,17.621143999999987,1398
47.48866399999993,18.917143999999983,1460
47.48866399999993,20.86114399999998,1801
46.84066399999993,23.45314399999998,2419
44.572663999999946,26.04514399999998,2837
47.48866399999993,21.50914399999997,1835
47.81266399999993,21.50914399999997,1868
48.46066399999992,22.15714399999998,1721
47.48866399999993,16.973143999999984,65535
49.10866399999992,16.325143999999987,1536
49.75666399999992,18.269143999999983,1601
46.19266399999994,13.085143999999987,2303
41.98066399999996,12.437143999999988,2470
43.60066399999995,10.493143999999988,2726
45.54466399999994,9.197143999999987,1148
47.81266399999993,22.805143999999984,2659
49.75666399999992,22.805143999999984,1769
50.72866399999991,3.365143999999992,1018
51.05266399999991,4.013143999999992,1030
50.72866399999991,4.661143999999991,1029
51.05266399999991,4.661143999999991,1033
51.05266399999991,3.365143999999992,1027
51.05266399999991,2.717143999999992,1067
50.40466399999991,4.661143999999991,1054
50.72866399999991,2.717143999999992,1054
50.40466399999991,4.013143999999992,1037
51.05266399999991,5.309143999999991,1045
50.72866399999991,5.309143999999991,1034
51.37666399999991,3.365143999999992,1060
51.37666399999991,4.661143999999991,1039
50.72866399999991,5.957143999999991,1045
50.40466399999991,5.957143999999991,1064
50.40466399999991,3.365143999999992,1035
50.40466399999991,5.309143999999991,1063
50.08066399999991,5.309143999999991,1099
49.75666399999992,5.309143999999991,1141
49.75666399999992,5.957143999999991,1147
51.37666399999991,5.309143999999991,1076
51.700663999999904,4.661143999999991,1058
50.08066399999991,4.013143999999992,1093
50.08066399999991,5.957143999999991,1161
50.08066399999991,4.661143999999991,1111
49.43266399999992,5.309143999999991,1100
49.43266399999992,5.957143999999991,1083
52.0246639999999,4.661143999999991,2229
52.3486639999999,4.661143999999991,2264
50.72866399999991,15.029143999999986,1321
51.05266399999991,15.029143999999986,1306
51.05266399999991,13.733143999999989,1275
50.40466399999991,13.085143999999987,1247
49.10866399999992,7.90114399999999,1030
48.78466399999992,7.90114399999999,1009
50.40466399999991,7.90114399999999,1097
50.08066399999991,7.90114399999999,1072
49.75666399999992,7.90114399999999,1068
49.43266399999992,7.90114399999999,1054
49.75666399999992,8.54914399999999,1058
49.43266399999992,8.54914399999999,1045
49.43266399999992,9.197143999999987,1068
49.10866399999992,9.197143999999987,1055
47.48866399999993,7.90114399999999,1039
47.81266399999993,7.90114399999999,1016
48.136663999999925,7.90114399999999,1010
48.136663999999925,9.845143999999989,1084
47.81266399999993,9.197143999999987,1043
47.81266399999993,8.54914399999999,1033
47.81266399999993,9.845143999999989,1088
54.940663999999884,9.197143999999987,1285
54.616663999999886,9.197143999999987,1260
54.29266399999989,9.197143999999987,1267
53.96866399999989,9.197143999999987,1256
53.64466399999989,9.197143999999987,1247
54.616663999999886,9.845143999999989,1252
54.29266399999989,9.845143999999989,1243
53.96866399999989,9.845143999999989,1238
53.64466399999989,10.493143999999988,1232
53.96866399999989,10.493143999999988,1238
53.96866399999989,11.141143999999988,1274
54.29266399999989,10.493143999999988,1258
53.32066399999989,10.493143999999988,1234
54.940663999999884,11.141143999999988,1364
52.6726639999999,13.733143999999989,1312
52.3486639999999,13.733143999999989,1311
52.3486639999999,14.381143999999988,1300
52.0246639999999,14.381143999999988,1287
52.0246639999999,11.789143999999988,1275
52.3486639999999,11.789143999999988,1271
52.3486639999999,12.437143999999988,1298
52.0246639999999,15.029143999999986,1303
51.700663999999904,14.381143999999988,1282
52.0246639999999,13.733143999999989,1285
51.700663999999904,13.733143999999989,1277
52.6726639999999,12.437143999999988,1308
53.32066399999989,11.789143999999988,1294
53.96866399999989,11.789143999999988,1348
53.64466399999989,11.789143999999988,1306
53.64466399999989,11.141143999999988,1302
53.32066399999989,11.141143999999988,1275
52.996663999999896,11.789143999999988,1352
52.996663999999896,12.437143999999988,1344
52.996663999999896,13.733143999999989,1321
53.64466399999989,13.733143999999989,1417
53.96866399999989,13.733143999999989,1430
54.29266399999989,13.085143999999987,1419
53.96866399999989,13.085143999999987,1439
53.32066399999989,13.733143999999989,1428
52.0246639999999,13.085143999999987,1336
51.700663999999904,13.085143999999987,1306
52.996663999999896,14.381143999999988,1362
52.0246639999999,12.437143999999988,1313
51.700663999999904,12.437143999999988,1271
51.37666399999991,11.789143999999988,1261
51.37666399999991,12.437143999999988,1244
52.6726639999999,11.789143999999988,1287
53.64466399999989,13.085143999999987,1423
53.32066399999989,13.085143999999987,1422
52.996663999999896,13.085143999999987,1353
53.64466399999989,12.437143999999988,1362
51.37666399999991,13.733143999999989,1271
53.32066399999989,12.437143999999988,1376
52.6726639999999,14.381143999999988,1332
51.37666399999991,13.085143999999987,1259
53.32066399999989,14.381143999999988,1396
52.3486639999999,15.029143999999986,1367
52.0246639999999,15.677143999999986,1329
51.700663999999904,15.029143999999986,1329
51.05266399999991,16.325143999999987,1403
51.05266399999991,16.973143999999984,1414
51.700663999999904,15.677143999999986,1369
51.37666399999991,15.677143999999986,1361
51.37666399999991,16.325143999999987,1393
50.72866399999991,13.085143999999987,1211
50.72866399999991,12.437143999999988,1201
51.05266399999991,13.085143999999987,1224
51.05266399999991,14.381143999999988,1291
50.40466399999991,12.437143999999988,1189
50.40466399999991,11.789143999999988,1171
50.08066399999991,12.437143999999988,1174
50.72866399999991,11.789143999999988,1237
51.05266399999991,12.437143999999988,1219
50.72866399999991,14.381143999999988,1394
51.37666399999991,14.381143999999988,1283
50.72866399999991,13.733143999999989,1295
50.40466399999991,14.381143999999988,1377
51.37666399999991,15.029143999999986,1305
55.26466399999988,9.197143999999987,1788
55.58866399999988,8.54914399999999,1822
55.91266399999988,8.54914399999999,2239
56.23666399999988,9.197143999999987,2247
56.23666399999988,10.493143999999988,2200
56.23666399999988,9.845143999999989,2187
55.91266399999988,9.845143999999989,2125
56.56066399999988,9.197143999999987,2257
56.56066399999988,8.54914399999999,2300
51.05266399999991,6.60514399999999,1075
51.700663999999904,7.90114399999999,1104
50.72866399999991,6.60514399999999,1056
51.700663999999904,7.25314399999999,1115
50.72866399999991,7.25314399999999,1076
52.0246639999999,7.25314399999999,1127
52.3486639999999,7.90114399999999,1168
51.05266399999991,5.957143999999991,1061
50.40466399999991,7.25314399999999,1099
51.700663999999904,6.60514399999999,1087
51.700663999999904,5.957143999999991,1088
52.3486639999999,9.197143999999987,1149
51.700663999999904,8.54914399999999,1116
52.0246639999999,8.54914399999999,1126
52.3486639999999,8.54914399999999,1146
51.37666399999991,7.90114399999999,1102
52.3486639999999,7.25314399999999,1173
51.37666399999991,5.957143999999991,1121
50.72866399999991,7.90114399999999,1081
51.37666399999991,9.197143999999987,1144
51.700663999999904,9.197143999999987,1133
50.40466399999991,6.60514399999999,1066
51.05266399999991,7.90114399999999,1095
51.37666399999991,8.54914399999999,1121
52.0246639999999,5.957143999999991,1131
52.3486639999999,6.60514399999999,1196
51.05266399999991,8.54914399999999,1164
52.0246639999999,9.197143999999987,1149
52.6726639999999,9.197143999999987,1170
52.0246639999999,9.845143999999989,1177
51.700663999999904,9.845143999999989,1197
51.37666399999991,9.845143999999989,1193
50.72866399999991,8.54914399999999,1073
51.05266399999991,9.845143999999989,1191
50.72866399999991,9.845143999999989,1156
50.40466399999991,9.845143999999989,1135
51.05266399999991,9.197143999999987,1160
50.40466399999991,9.197143999999987,1078
50.08066399999991,9.197143999999987,1068
51.05266399999991,10.493143999999988,1282
50.40466399999991,8.54914399999999,1070
50.72866399999991,9.197143999999987,1143
49.75666399999992,9.197143999999987,1085
52.996663999999896,9.197143999999987,1209
52.3486639999999,9.845143999999989,1157
52.996663999999896,8.54914399999999,1217
52.996663999999896,7.90114399999999,1229
53.32066399999989,7.90114399999999,1243
53.32066399999989,7.25314399999999,1274
53.64466399999989,7.25314399999999,1317
52.996663999999896,10.493143999999988,1225
52.6726639999999,10.493143999999988,1218
52.6726639999999,9.845143999999989,1162
53.32066399999989,9.845143999999989,1223
53.32066399999989,9.197143999999987,1227
53.64466399999989,8.54914399999999,1264
53.32066399999989,8.54914399999999,1237
52.6726639999999,8.54914399999999,1203
52.0246639999999,10.493143999999988,1229
52.0246639999999,11.141143999999988,1304
51.700663999999904,11.141143999999988,1274
52.6726639999999,7.25314399999999,1794
52.996663999999896,7.25314399999999,1822
52.6726639999999,7.90114399999999,1207
53.64466399999989,7.90114399999999,1271
52.996663999999896,11.141143999999988,1284
52.6726639999999,11.141143999999988,1282
52.3486639999999,10.493143999999988,1201
52.996663999999896,9.845143999999989,1176
51.700663999999904,10.493143999999988,1218
51.37666399999991,10.493143999999988,1267
51.700663999999904,11.789143999999988,1281
52.3486639999999,11.141143999999988,1239
51.37666399999991,11.141143999999988,1281
51.05266399999991,11.789143999999988,1238
49.10866399999992,11.141143999999988,1086
48.78466399999992,11.141143999999988,1091
48.46066399999992,11.789143999999988,1107
49.43266399999992,11.789143999999988,1128
50.08066399999991,11.789143999999988,1167
49.75666399999992,12.437143999999988,1190
49.10866399999992,11.789143999999988,1158
48.78466399999992,12.437143999999988,1166
48.46066399999992,12.437143999999988,1152
49.10866399999992,12.437143999999988,1177
48.78466399999992,13.085143999999987,1191
48.136663999999925,12.437143999999988,1126
47.81266399999993,11.789143999999988,1117
48.136663999999925,10.493143999999988,1126
47.81266399999993,10.493143999999988,1116
48.78466399999992,10.493143999999988,1064
47.48866399999993,10.493143999999988,1083
48.46066399999992,10.493143999999988,1080
49.43266399999992,13.085143999999987,1298
48.46066399999992,13.085143999999987,1211
49.43266399999992,10.493143999999988,1098
49.75666399999992,9.845143999999989,1098
49.75666399999992,10.493143999999988,1122
50.40466399999991,11.141143999999988,1193
50.08066399999991,11.141143999999988,1146
50.72866399999991,11.141143999999988,1257
49.75666399999992,11.141143999999988,1134
48.78466399999992,11.789143999999988,1214
50.40466399999991,10.493143999999988,1183
50.08066399999991,9.845143999999989,1115
50.08066399999991,10.493143999999988,1177
49.43266399999992,12.437143999999988,1203
49.75666399999992,11.789143999999988,1136
49.10866399999992,13.085143999999987,1233
50.72866399999991,10.493143999999988,1291
49.10866399999992,10.493143999999988,1107
48.78466399999992,9.845143999999989,1060
48.46066399999992,8.54914399999999,1048
48.46066399999992,9.197143999999987,1060
48.78466399999992,9.197143999999987,1055
48.78466399999992,8.54914399999999,1026
50.08066399999991,7.25314399999999,1130
49.75666399999992,6.60514399999999,1172
49.43266399999992,6.60514399999999,1126
49.10866399999992,6.60514399999999,1106
49.43266399999992,7.25314399999999,1068
49.75666399999992,7.25314399999999,1084
49.10866399999992,5.957143999999991,1074
48.78466399999992,7.25314399999999,1029
50.08066399999991,6.60514399999999,1188
47.48866399999993,9.197143999999987,1048
48.136663999999925,8.54914399999999,1017
48.136663999999925,9.197143999999987,1068
47.81266399999993,7.25314399999999,1023
49.43266399999992,9.845143999999989,1072
49.10866399999992,9.845143999999989,1063
53.64466399999989,14.381143999999988,1412
50.08066399999991,13.085143999999987,1398
49.75666399999992,13.085143999999987,1415
45.86866399999994,9.197143999999987,1138
46.19266399999994,9.197143999999987,1124
46.516663999999935,8.54914399999999,1077
46.516663999999935,9.197143999999987,1119
46.19266399999994,8.54914399999999,1136
47.16466399999993,8.54914399999999,1050
45.86866399999994,4.661143999999991,1054
46.84066399999993,9.845143999999989,1062
45.22066399999994,5.957143999999991,1055
45.22066399999994,5.309143999999991,1117
45.86866399999994,5.957143999999991,1080
45.54466399999994,5.957143999999991,1059
44.89666399999994,4.661143999999991,984
44.89666399999994,5.309143999999991,1106
44.572663999999946,4.661143999999991,1022
44.24866399999995,4.661143999999991,1077
43.92466399999995,4.661143999999991,1002
46.19266399999994,7.25314399999999,1090
48.78466399999992,5.957143999999991,1119
48.136663999999925,6.60514399999999,1055
48.46066399999992,6.60514399999999,1083
48.78466399999992,6.60514399999999,1126
47.16466399999993,7.90114399999999,1044
48.136663999999925,7.25314399999999,1029
48.46066399999992,7.25314399999999,1027
46.516663999999935,6.60514399999999,1074
46.84066399999993,6.60514399999999,1087
46.84066399999993,7.25314399999999,1068
46.516663999999935,5.957143999999991,1063
46.19266399999994,5.957143999999991,1047
46.84066399999993,8.54914399999999,1059
46.84066399999993,7.90114399999999,1049
45.86866399999994,5.309143999999991,1029
46.19266399999994,6.60514399999999,1058
45.86866399999994,6.60514399999999,1080
47.48866399999993,6.60514399999999,1076
47.48866399999993,7.25314399999999,1048
47.16466399999993,7.25314399999999,1051
49.10866399999992,4.013143999999992,998
49.75666399999992,4.661143999999991,1091
49.43266399999992,4.661143999999991,1059
49.10866399999992,5.309143999999991,1025
46.19266399999994,4.661143999999991,982
46.84066399999993,9.197143999999987,1070
46.19266399999994,5.309143999999991,1051
46.516663999999935,5.309143999999991,1118
45.54466399999994,6.60514399999999,1048
45.54466399999994,5.309143999999991,1096
43.60066399999995,4.013143999999992,1055
43.60066399999995,3.365143999999992,1032
42.62866399999996,2.717143999999992,1031
43.276663999999954,2.717143999999992,997
45.54466399999994,4.661143999999991,1061
45.22066399999994,4.661143999999991,1055
47.16466399999993,5.309143999999991,1050
47.16466399999993,5.957143999999991,1072
46.19266399999994,7.90114399999999,1076
49.75666399999992,2.717143999999992,1047
49.10866399999992,2.717143999999992,962
48.78466399999992,2.717143999999992,982
45.86866399999994,3.365143999999992,1219
46.84066399999993,3.365143999999992,1072
46.516663999999935,3.365143999999992,1146
46.19266399999994,3.365143999999992,1160
47.16466399999993,6.60514399999999,1088
49.10866399999992,3.365143999999992,1049
45.54466399999994,4.013143999999992,1099
46.516663999999935,7.25314399999999,1073
47.16466399999993,4.661143999999991,1055
46.84066399999993,4.661143999999991,1036
46.516663999999935,4.661143999999991,1041
46.84066399999993,5.957143999999991,1114
47.81266399999993,3.365143999999992,1007
47.48866399999993,4.013143999999992,1067
48.136663999999925,4.013143999999992,1028
47.81266399999993,4.013143999999992,1042
47.48866399999993,4.661143999999991,1076
47.16466399999993,3.365143999999992,1107
46.84066399999993,4.013143999999992,1051
48.46066399999992,5.957143999999991,1235
46.19266399999994,2.717143999999992,1271
47.16466399999993,2.0691439999999925,343
46.516663999999935,2.717143999999992,1405
46.84066399999993,2.717143999999992,1244
46.84066399999993,2.0691439999999925,1167
47.16466399999993,2.717143999999992,1065
44.572663999999946,5.309143999999991,1192
44.572663999999946,5.957143999999991,1183
44.89666399999994,6.60514399999999,1163
44.572663999999946,6.60514399999999,1269
43.60066399999995,5.309143999999991,1027
43.92466399999995,7.25314399999999,1174
43.60066399999995,6.60514399999999,1168
43.276663999999954,6.60514399999999,1184
43.276663999999954,5.957143999999991,1066
45.86866399999994,8.54914399999999,1145
45.54466399999994,8.54914399999999,1152
48.136663999999925,3.365143999999992,964
48.46066399999992,3.365143999999992,952
48.46066399999992,2.717143999999992,912
47.48866399999993,5.309143999999991,1116
46.516663999999935,9.845143999999989,1076
46.84066399999993,10.493143999999988,1093
47.81266399999993,5.309143999999991,1106
45.22066399999994,6.60514399999999,1129
46.19266399999994,4.013143999999992,1121
45.86866399999994,4.013143999999992,1139
45.22066399999994,4.013143999999992,1277
44.89666399999994,4.013143999999992,1270
46.84066399999993,5.309143999999991,1224
48.136663999999925,-1.8188560000000056,1059
48.136663999999925,0.1251439999999934,1053
48.136663999999925,-0.5228560000000062,1032
47.48866399999993,-0.5228560000000062,1023
47.16466399999993,-1.8188560000000056,1066
47.48866399999993,0.7731439999999932,510
47.16466399999993,0.1251439999999934,1001
45.86866399999994,7.25314399999999,1099
48.136663999999925,5.309143999999991,1083
49.10866399999992,4.661143999999991,1059
48.46066399999992,4.013143999999992,1010
48.136663999999925,4.661143999999991,1049
47.81266399999993,6.60514399999999,1153
47.48866399999993,5.957143999999991,1209
48.136663999999925,5.957143999999991,1412
45.86866399999994,7.90114399999999,1094
46.516663999999935,7.90114399999999,1064
49.43266399999992,3.365143999999992,1107
49.43266399999992,4.013143999999992,1068
48.136663999999925,2.717143999999992,1090
47.81266399999993,2.717143999999992,1101
47.48866399999993,2.717143999999992,1121
50.40466399999991,2.717143999999992,1042
48.46066399999992,-4.410856000000004,1298
48.46066399999992,-3.7628560000000046,1260
48.46066399999992,-3.114856000000005,1231
48.46066399999992,-2.4668560000000053,1150
47.48866399999993,1.4211439999999929,489
47.16466399999993,1.4211439999999929,986
46.516663999999935,4.013143999999992,1046
43.60066399999995,4.661143999999991,1055
44.89666399999994,2.717143999999992,418
45.22066399999994,2.717143999999992,1065
45.54466399999994,3.365143999999992,1211
45.22066399999994,3.365143999999992,1181
47.48866399999993,3.365143999999992,1066
46.19266399999994,9.845143999999989,1102
47.81266399999993,2.0691439999999925,380
47.48866399999993,2.0691439999999925,1057
45.86866399999994,2.717143999999992,1240
44.89666399999994,5.957143999999991,1110
45.22066399999994,1.4211439999999929,158
44.89666399999994,1.4211439999999929,206
44.89666399999994,2.0691439999999925,386
43.276663999999954,2.0691439999999925,958
43.60066399999995,1.4211439999999929,319
48.78466399999992,4.661143999999991,1113
48.78466399999992,5.309143999999991,1139
46.19266399999994,2.0691439999999925,319
45.86866399999994,1.4211439999999929,219
46.19266399999994,1.4211439999999929,275
44.572663999999946,4.013143999999992,1231
44.89666399999994,3.365143999999992,1286
43.92466399999995,4.013143999999992,1112
44.24866399999995,4.013143999999992,1129
44.89666399999994,-0.5228560000000062,186
45.54466399999994,0.1251439999999934,241
46.516663999999935,0.1251439999999934,969
44.572663999999946,2.0691439999999925,276
49.75666399999992,4.013143999999992,1267
43.92466399999995,3.365143999999992,1116
43.92466399999995,2.717143999999992,1141
44.24866399999995,3.365143999999992,1167
44.572663999999946,3.365143999999992,1211
49.10866399999992,0.1251439999999934,1066
49.43266399999992,0.7731439999999932,1015
49.43266399999992,-1.8188560000000056,1196
49.10866399999992,-1.170856000000006,1120
49.10866399999992,-0.5228560000000062,1079
49.10866399999992,0.7731439999999932,1130
49.10866399999992,1.4211439999999929,1010
47.81266399999993,-1.8188560000000056,1119
47.81266399999993,-2.4668560000000053,1168
47.81266399999993,-3.114856000000005,1181
48.136663999999925,-3.7628560000000046,1244
44.572663999999946,9.197143999999987,1316
44.89666399999994,8.54914399999999,1262
45.22066399999994,9.197143999999987,1159
45.54466399999994,10.493143999999988,1207
44.572663999999946,10.493143999999988,1318
44.89666399999994,10.493143999999988,1304
44.89666399999994,9.845143999999989,1272
48.46066399999992,5.309143999999991,1229
50.91599999999999,-1.0580000000000025,65535
51.23999999999999,-0.4100000000000028,65535
50.91599999999999,-0.4100000000000028,65535
51.23999999999999,-2.354000000000002,65535
51.56399999999999,-2.354000000000002,65535
51.56399999999999,-3.0020000000000016,65535
50.91599999999999,-2.354000000000002,65535
53.50799999999997,-3.0020000000000016,65535
53.183999999999976,-2.354000000000002,65535
53.183999999999976,-3.0020000000000016,65535
52.85999999999998,-2.354000000000002,65535
52.21199999999998,-1.0580000000000025,65535
51.887999999999984,-1.0580000000000025,65535
52.53599999999998,-1.0580000000000025,65535
52.53599999999998,-1.7060000000000022,65535
52.85999999999998,-1.7060000000000022,65535
53.50799999999997,-2.354000000000002,65535
52.85999999999998,-1.0580000000000025,65535
52.53599999999998,1.5339999999999965,65535
52.53599999999998,0.8859999999999966,65535
52.53599999999998,0.2379999999999968,65535
52.53599999999998,-0.4100000000000028,65535
53.50799999999997,-1.7060000000000022,65535
53.183999999999976,-1.7060000000000022,65535
53.183999999999976,-1.0580000000000025,65535
52.85999999999998,-0.4100000000000028,65535
51.887999999999984,-2.354000000000002,65535
52.21199999999998,-2.354000000000002,65535
55.77599999999996,-2.354000000000002,65535
53.83199999999997,-1.0580000000000025,65535
53.83199999999997,-1.7060000000000022,65535
55.127999999999965,-1.7060000000000022,65535
54.80399999999997,-1.7060000000000022,65535
54.47999999999997,-1.7060000000000022,65535
54.15599999999997,-1.0580000000000025,65535
52.21199999999998,-1.7060000000000022,65535
53.50799999999997,-1.0580000000000025,65535
55.77599999999996,-3.0020000000000016,65535
55.45199999999996,-1.7060000000000022,65535
57.07199999999995,-2.354000000000002,65535
56.74799999999996,-3.0020000000000016,65535
56.42399999999996,-3.0020000000000016,65535
56.09999999999996,-3.650000000000001,65535
50.91599999999999,-3.0020000000000016,65535
50.91599999999999,-3.650000000000001,65535
50.59199999999999,-3.650000000000001,65535
50.59199999999999,-4.298000000000001,65535
51.23999999999999,-3.0020000000000016,65535
50.268,-4.946000000000001,65535
55.77599999999996,-3.650000000000001,65535
55.77599999999996,-4.298000000000001,65535
52.21199999999998,-0.4100000000000028,65535
52.53599999999998,-2.354000000000002,65535
51.56399999999999,-1.7060000000000022,65535
51.56399999999999,-3.650000000000001,65535
51.887999999999984,-4.298000000000001,65535
51.56399999999999,-4.298000000000001,65535
51.887999999999984,-1.7060000000000022,65535
52.21199999999998,-3.0020000000000016,65535
51.23999999999999,0.2379999999999968,65535
50.91599999999999,0.2379999999999968,65535
52.21199999999998,0.2379999999999968,65535
53.83199999999997,-3.0020000000000016,65535
54.15599999999997,-3.0020000000000016,65535
54.47999999999997,-3.0020000000000016,65535
55.127999999999965,-3.650000000000001,65535
54.80399999999997,-3.0020000000000016,65535
53.83199999999997,-2.354000000000002,65535
54.15599999999997,-0.4100000000000028,65535
54.47999999999997,-1.0580000000000025,65535
53.83199999999997,-0.4100000000000028,65535
53.183999999999976,-3.650000000000001,65535
53.183999999999976,-4.298000000000001,65535
52.85999999999998,-3.0020000000000016,65535
52.53599999999998,-3.0020000000000016,65535
51.887999999999984,-3.0020000000000016,65535
51.23999999999999,0.8859999999999966,65535
51.887999999999984,0.2379999999999968,65535
52.21199999999998,0.8859999999999966,65535
51.887999999999984,-4.946000000000001,65535
52.53599999999998,-3.650000000000001,65535
52.21199999999998,-4.298000000000001,65535
53.183999999999976,-0.4100000000000028,65535
51.23999999999999,-3.650000000000001,65535
51.887999999999984,-3.650000000000001,65535
52.21199999999998,-3.650000000000001,65535
51.56399999999999,0.8859999999999966,65535
51.887999999999984,0.8859999999999966,65535
52.85999999999998,0.8859999999999966,65535
53.50799999999997,-0.4100000000000028,65535
56.09999999999996,-4.298000000000001,65535
56.74799999999996,-4.946000000000001,65535
56.74799999999996,-4.298000000000001,65535
56.42399999999996,-4.946000000000001,65535
56.42399999999996,-4.298000000000001,65535
56.09999999999996,-4.946000000000001,65535
57.39599999999995,-4.298000000000001,65535
57.39599999999995,-3.0020000000000016,65535
57.39599999999995,-3.650000000000001,65535
56.42399999999996,-3.650000000000001,65535
57.07199999999995,-3.650000000000001,65535
57.07199999999995,-4.298000000000001,65535
56.74799999999996,-3.650000000000001,65535
59.15266399999986,27.34114399999998,65535
59.47666399999986,26.69314399999997,65535
59.47666399999986,26.04514399999998,65535
59.15266399999986,26.04514399999998,65535
59.15266399999986,24.74914399999998,65535
59.15266399999986,25.397143999999983,65535
59.47666399999986,25.397143999999983,65535
58.50466399999986,26.69314399999997,65535
58.82866399999986,26.69314399999997,65535
57.85666399999987,26.04514399999998,65535
58.180663999999865,26.04514399999998,65535
58.180663999999865,26.69314399999997,65535
58.82866399999986,26.04514399999998,65535
58.50466399999986,25.397143999999983,65535
58.82866399999986,25.397143999999983,65535
58.82866399999986,24.74914399999998,65535
58.180663999999865,27.34114399999998,65535
57.85666399999987,27.34114399999998,65535
63.68866399999983,27.34114399999998,65535
60.124663999999854,24.74914399999998,65535
60.44866399999985,24.74914399999998,65535
60.44866399999985,25.397143999999983,65535
60.77266399999985,25.397143999999983,65535
61.09666399999985,26.04514399999998,65535
60.77266399999985,26.04514399999998,65535
60.77266399999985,26.69314399999997,65535
61.09666399999985,25.397143999999983,65535
61.09666399999985,26.69314399999997,65535
61.420663999999846,26.69314399999997,65535
61.74466399999984,27.34114399999998,65535
62.06866399999984,27.34114399999998,65535
62.39266399999984,27.34114399999998,65535
62.71666399999984,27.34114399999998,65535
64.01266399999983,27.34114399999998,65535
63.36466399999984,27.34114399999998,65535
63.04066399999984,27.34114399999998,65535
63.04066399999984,27.989143999999985,65535
64.33666399999983,27.989143999999985,65535
64.33666399999983,27.34114399999998,65535
64.66066399999983,27.34114399999998,65535
64.66066399999983,26.69314399999997,4756
64.98466399999982,25.397143999999983,4519
64.66066399999983,26.04514399999998,4736
64.98466399999982,26.04514399999998,4720
66.28066399999982,25.397143999999983,65535
65.95666399999982,24.74914399999998,4432
65.63266399999982,24.74914399999998,4436
65.63266399999982,25.397143999999983,4478
65.30866399999982,25.397143999999983,4499
66.60466399999981,25.397143999999983,65535
64.01266399999983,24.74914399999998,4656
64.01266399999983,24.101143999999977,4691
64.01266399999983,23.45314399999998,4715
63.68866399999983,23.45314399999998,4727
63.68866399999983,22.805143999999984,4752
63.68866399999983,26.04514399999998,65535
63.68866399999983,25.397143999999983,65535
63.68866399999983,26.69314399999997,65535
60.44866399999985,26.69314399999997,65535
64.01266399999983,27.989143999999985,65535
62.71666399999984,22.805143999999984,65535
62.39266399999984,22.805143999999984,65535
62.06866399999984,22.805143999999984,65535
62.06866399999984,23.45314399999998,65535
61.74466399999984,23.45314399999998,65535
61.420663999999846,23.45314399999998,65535
61.09666399999985,23.45314399999998,65535
61.09666399999985,24.101143999999977,65535
61.09666399999985,24.74914399999998,65535
60.77266399999985,24.74914399999998,65535
63.04066399999984,21.50914399999997,65535
63.04066399999984,22.15714399999998,65535
63.04066399999984,22.805143999999984,65535
62.39266399999984,26.04514399999998,65535
62.06866399999984,25.397143999999983,65535
61.74466399999984,25.397143999999983,65535
61.74466399999984,24.74914399999998,65535
61.74466399999984,24.101143999999977,65535
61.420663999999846,24.101143999999977,65535
62.39266399999984,26.69314399999997,65535
64.66066399999983,25.397143999999983,4588
64.66066399999983,24.74914399999998,4606
64.33666399999983,24.74914399999998,4617
63.36466399999984,22.805143999999984,4777
67.25266399999981,24.101143999999977,65535
66.92866399999981,24.101143999999977,65535
66.60466399999981,23.45314399999998,65535
66.28066399999982,23.45314399999998,65535
66.28066399999982,24.101143999999977,65535
65.95666399999982,24.101143999999977,3804
60.124663999999854,24.101143999999977,65535
60.124663999999854,23.45314399999998,65535
60.44866399999985,22.805143999999984,65535
60.77266399999985,27.34114399999998,65535
61.09666399999985,27.989143999999985,65535
61.09666399999985,28.63714399999997,65535
61.420663999999846,29.28514399999997,65535
61.74466399999984,29.933143999999977,65535
62.06866399999984,29.933143999999977,65535
62.39266399999984,29.933143999999977,65535
62.71666399999984,29.933143999999977,65535
61.420663999999846,22.805143999999984,65535
61.420663999999846,22.15714399999998,65535
61.09666399999985,22.15714399999998,65535
61.420663999999846,21.50914399999997,65535
62.39266399999984,27.989143999999985,65535
62.06866399999984,27.989143999999985,65535
61.420663999999846,27.34114399999998,65535
63.04066399999984,29.933143999999977,65535
63.68866399999983,29.28514399999997,65535
63.36466399999984,29.28514399999997,65535
63.36466399999984,29.933143999999977,65535
60.44866399999985,27.34114399999998,65535
61.74466399999984,29.28514399999997,65535
62.39266399999984,30.58114399999998,65535
62.71666399999984,31.229143999999977,65535
62.71666399999984,29.28514399999997,65535
63.04066399999984,28.63714399999997,65535
66.60466399999981,26.04514399999998,65535
66.60466399999981,26.69314399999997,65535
66.60466399999981,27.34114399999998,65535
62.71666399999984,26.04514399999998,65535
62.71666399999984,25.397143999999983,65535
63.04066399999984,25.397143999999983,65535
63.36466399999984,25.397143999999983,65535
62.71666399999984,23.45314399999998,65535
62.39266399999984,24.101143999999977,65535
62.71666399999984,22.15714399999998,65535
62.39266399999984,22.15714399999998,65535
62.39266399999984,21.50914399999997,65535
61.09666399999985,21.50914399999997,65535
60.77266399999985,22.805143999999984,65535
60.44866399999985,22.15714399999998,65535
60.77266399999985,23.45314399999998,65535
60.77266399999985,21.50914399999997,65535
60.77266399999985,22.15714399999998,65535
60.124663999999854,22.805143999999984,65535
60.44866399999985,24.101143999999977,65535
62.06866399999984,24.74914399999998,65535
50.72866399999991,16.325143999999987,1433
50.40466399999991,16.973143999999984,1462
50.72866399999991,16.973143999999984,1420
50.40466399999991,16.325143999999987,1470
50.08066399999991,16.973143999999984,1525
50.08066399999991,16.325143999999987,1473
51.700663999999904,16.973143999999984,1416
51.37666399999991,16.973143999999984,1412
51.05266399999991,15.677143999999986,1342
50.72866399999991,15.677143999999986,1416
51.05266399999991,17.621143999999987,1427
51.37666399999991,17.621143999999987,1438
51.700663999999904,17.621143999999987,1421
51.700663999999904,16.325143999999987,1438
52.0246639999999,22.15714399999998,1743
52.0246639999999,21.50914399999997,1707
52.3486639999999,21.50914399999997,1708
52.0246639999999,20.86114399999998,1689
51.700663999999904,20.86114399999998,1674
51.37666399999991,21.50914399999997,1699
51.37666399999991,20.86114399999998,1670
51.05266399999991,20.86114399999998,1663
52.6726639999999,23.45314399999998,2387
52.3486639999999,22.805143999999984,2327
52.3486639999999,20.213143999999986,1691
52.0246639999999,20.213143999999986,1665
52.3486639999999,19.565143999999982,1612
52.6726639999999,19.565143999999982,1711
51.700663999999904,21.50914399999997,1737
51.700663999999904,22.15714399999998,1772
52.6726639999999,21.50914399999997,1713
52.996663999999896,21.50914399999997,1739
52.6726639999999,20.86114399999998,1705
52.6726639999999,22.15714399999998,1729
52.6726639999999,20.213143999999986,1777
52.996663999999896,19.565143999999982,1757
52.996663999999896,20.86114399999998,1738
52.996663999999896,20.213143999999986,1804
53.32066399999989,20.213143999999986,1893
51.37666399999991,20.213143999999986,1698
52.3486639999999,16.973143999999984,1468
52.0246639999999,16.973143999999984,1474
52.0246639999999,16.325143999999987,1453
52.0246639999999,17.621143999999987,1470
52.6726639999999,16.973143999999984,1497
52.996663999999896,16.973143999999984,1536
52.3486639999999,16.325143999999987,1434
52.3486639999999,15.677143999999986,1399
51.700663999999904,18.269143999999983,1494
52.6726639999999,17.621143999999987,1547
52.3486639999999,17.621143999999987,1491
52.6726639999999,18.269143999999983,1573
52.3486639999999,18.269143999999983,1551
52.3486639999999,18.917143999999983,1573
52.996663999999896,17.621143999999987,1624
51.700663999999904,19.565143999999982,1576
51.700663999999904,18.917143999999983,1542
51.37666399999991,18.269143999999983,1457
58.82866399999986,9.197143999999987,2768
58.180663999999865,7.90114399999999,2861
58.50466399999986,8.54914399999999,2812
63.36466399999984,10.493143999999988,2983
63.36466399999984,11.141143999999988,2990
63.36466399999984,11.789143999999988,3025
63.68866399999983,11.789143999999988,3053
64.33666399999983,12.437143999999988,3454
64.66066399999983,12.437143999999988,3949
65.63266399999982,13.085143999999987,3606
65.95666399999982,13.085143999999987,3641
66.28066399999982,14.381143999999988,3711
65.95666399999982,13.733143999999989,3780
66.28066399999982,13.733143999999989,3689
65.30866399999982,13.085143999999987,3907
64.98466399999982,13.085143999999987,3541
64.01266399999983,11.789143999999988,3084
63.68866399999983,11.141143999999988,3021
59.800663999999855,10.493143999999988,2564
59.800663999999855,11.141143999999988,2547
60.124663999999854,11.141143999999988,2562
60.44866399999985,11.141143999999988,2575
60.124663999999854,11.789143999999988,2588
60.77266399999985,7.25314399999999,2824
60.77266399999985,6.60514399999999,2870
59.15266399999986,9.197143999999987,2650
59.47666399999986,9.197143999999987,2671
59.800663999999855,9.845143999999989,2566
59.47666399999986,11.141143999999988,2511
61.09666399999985,10.493143999999988,2685
60.77266399999985,10.493143999999988,2655
60.77266399999985,11.141143999999988,2610
62.06866399999984,9.197143999999987,3010
61.74466399999984,9.845143999999989,2956
61.420663999999846,9.845143999999989,2933
59.15266399999986,9.845143999999989,2630
59.47666399999986,9.845143999999989,2606
58.82866399999986,5.957143999999991,3045
58.180663999999865,7.25314399999999,2917
58.50466399999986,7.25314399999999,2950
58.50466399999986,6.60514399999999,2955
58.50466399999986,5.957143999999991,3013
58.82866399999986,8.54914399999999,2798
60.44866399999985,7.25314399999999,2798
60.44866399999985,7.90114399999999,2759
60.124663999999854,10.493143999999988,2596
60.44866399999985,9.197143999999987,2708
60.77266399999985,9.197143999999987,2720
60.77266399999985,8.54914399999999,2739
60.124663999999854,9.845143999999989,2975
60.44866399999985,10.493143999999988,2641
63.04066399999984,10.493143999999988,2934
62.06866399999984,9.845143999999989,3035
62.39266399999984,9.845143999999989,3043
62.71666399999984,9.845143999999989,3067
59.47666399999986,14.381143999999988,2560
59.47666399999986,13.733143999999989,2501
59.47666399999986,13.085143999999987,2477
59.800663999999855,12.437143999999988,2546
59.15266399999986,11.141143999999988,2475
59.15266399999986,14.381143999999988,2574
58.82866399999986,11.789143999999988,2455
58.50466399999986,12.437143999999988,2385
58.180663999999865,12.437143999999988,2378
57.85666399999987,11.789143999999988,2329
62.71666399999984,7.90114399999999,3096
62.39266399999984,7.90114399999999,3053
62.06866399999984,8.54914399999999,3028
60.44866399999985,5.309143999999991,2944
60.44866399999985,5.957143999999991,2911
60.77266399999985,5.957143999999991,2900
62.39266399999984,11.141143999999988,2831
62.06866399999984,10.493143999999988,2786
61.74466399999984,11.141143999999988,2759
61.420663999999846,11.141143999999988,2713
61.09666399999985,11.141143999999988,2696
60.77266399999985,11.789143999999988,2673
63.04066399999984,11.141143999999988,2912
62.71666399999984,11.141143999999988,2855
62.39266399999984,10.493143999999988,2813
67.25266399999981,15.677143999999986,3830
67.25266399999981,15.029143999999986,3868
67.25266399999981,14.381143999999988,3896
66.92866399999981,15.029143999999986,3819
66.60466399999981,15.677143999999986,3797
64.01266399999983,11.141143999999988,3068
66.60466399999981,15.029143999999986,3860
54.29266399999989,18.269143999999983,1730
54.616663999999886,17.621143999999987,1680
53.96866399999989,18.269143999999983,1731
43.92466399999995,1.4211439999999929,294
44.24866399999995,0.7731439999999932,370
44.572663999999946,0.1251439999999934,262
46.84066399999993,1.4211439999999929,308
44.572663999999946,1.4211439999999929,253
44.24866399999995,1.4211439999999929,280
45.54466399999994,1.4211439999999929,204
46.516663999999935,1.4211439999999929,358
42.30466399999996,2.717143999999992,1111
44.24866399999995,2.717143999999992,363
44.572663999999946,2.717143999999992,338
43.92466399999995,2.0691439999999925,360
42.30466399999996,2.0691439999999925,1032
42.62866399999996,2.0691439999999925,496
42.62866399999996,1.4211439999999929,490
42.95266399999996,1.4211439999999929,446
43.276663999999954,1.4211439999999929,377
46.516663999999935,-1.170856000000006,1138
46.19266399999994,-1.170856000000006,311
45.86866399999994,-0.5228560000000062,280
45.54466399999994,-0.5228560000000062,236
48.46066399999992,1.4211439999999929,415
41.332663999999966,2.0691439999999925,1234
41.98066399999996,2.717143999999992,1193
48.46066399999992,-1.8188560000000056,1079
47.81266399999993,0.7731439999999932,943
46.84066399999993,0.7731439999999932,1010
44.572663999999946,-1.170856000000006,205
43.60066399999995,-1.170856000000006,328
43.276663999999954,-1.8188560000000056,375
43.276663999999954,0.1251439999999934,439
42.95266399999996,0.1251439999999934,413
43.276663999999954,-0.5228560000000062,385
43.60066399999995,-0.5228560000000062,362
47.81266399999993,-3.7628560000000046,1228
47.48866399999993,-2.4668560000000053,1123
47.81266399999993,-0.5228560000000062,1182
46.516663999999935,-1.8188560000000056,1157
48.136663999999925,-1.170856000000006,1156
47.48866399999993,-1.170856000000006,1048
45.22066399999994,8.54914399999999,1206
45.22066399999994,7.90114399999999,1203
46.19266399999994,-0.5228560000000062,975
46.516663999999935,-0.5228560000000062,1011
48.78466399999992,-3.114856000000005,1264
50.72866399999991,2.0691439999999925,1113
50.40466399999991,2.0691439999999925,1111
40.36066399999997,-3.7628560000000046,1425
41.65666399999997,-1.170856000000006,1342
41.332663999999966,1.4211439999999929,1280
43.276663999999954,13.733143999999989,65535
42.95266399999996,13.733143999999989,65535
41.65666399999997,15.029143999999986,65535
40.68466399999997,17.621143999999987,65535
43.60066399999995,13.085143999999987,3903
41.65666399999997,12.437143999999988,2512
41.65666399999997,13.085143999999987,2528
41.98066399999996,13.085143999999987,2504
41.65666399999997,13.733143999999989,3092
41.332663999999966,13.733143999999989,2570
41.332663999999966,14.381143999999988,3127
41.00866399999997,14.381143999999988,3154
41.332663999999966,13.085143999999987,2553
41.00866399999997,15.029143999999986,4335
41.98066399999996,13.733143999999989,2586
42.30466399999996,14.381143999999988,4416
42.30466399999996,12.437143999999988,2755
42.62866399999996,12.437143999999988,3054
42.95266399999996,12.437143999999988,3108
42.30466399999996,11.789143999999988,2563
42.95266399999996,11.789143999999988,3818
42.62866399999996,11.789143999999988,3739
43.276663999999954,11.789143999999988,4290
42.95266399999996,13.085143999999987,3804
42.30466399999996,13.085143999999987,4303
43.276663999999954,13.085143999999987,3852
43.276663999999954,12.437143999999988,3859
42.62866399999996,11.141143999999988,2632
42.95266399999996,11.141143999999988,2675
42.95266399999996,10.493143999999988,2693
44.572663999999946,8.54914399999999,1310
44.89666399999994,7.90114399999999,1237
44.89666399999994,9.197143999999987,1340
44.24866399999995,7.90114399999999,1320
44.572663999999946,7.90114399999999,1277
43.92466399999995,7.90114399999999,1201
44.24866399999995,7.25314399999999,1309
44.89666399999994,7.25314399999999,1338
45.22066399999994,7.25314399999999,1154
45.54466399999994,7.90114399999999,1181
44.572663999999946,7.25314399999999,2302
52.996663999999896,22.805143999999984,2403
52.996663999999896,23.45314399999998,2422
51.37666399999991,22.15714399999998,2171
51.37666399999991,22.805143999999984,2225
50.08066399999991,20.213143999999986,1616
50.72866399999991,20.213143999999986,1582
50.40466399999991,20.213143999999986,1644
50.08066399999991,20.86114399999998,1632
50.08066399999991,21.50914399999997,1684
50.08066399999991,22.15714399999998,1720
50.08066399999991,22.805143999999984,1739
53.96866399999989,22.805143999999984,2561
53.64466399999989,23.45314399999998,2515
53.32066399999989,23.45314399999998,2462
50.40466399999991,19.565143999999982,1551
50.08066399999991,18.917143999999983,1566
50.08066399999991,18.269143999999983,1628
52.0246639999999,22.805143999999984,2266
52.0246639999999,23.45314399999998,2304
51.37666399999991,19.565143999999982,1722
51.05266399999991,19.565143999999982,1680
50.72866399999991,18.917143999999983,1513
50.72866399999991,19.565143999999982,1537
49.75666399999992,18.917143999999983,1640
50.40466399999991,18.269143999999983,1527
53.64466399999989,19.565143999999982,2248
53.96866399999989,18.917143999999983,1750
53.64466399999989,18.917143999999983,1724
53.64466399999989,20.213143999999986,2210
52.996663999999896,18.917143999999983,1648
52.996663999999896,18.269143999999983,1634
53.32066399999989,18.917143999999983,1681
50.72866399999991,17.621143999999987,1474
50.72866399999991,18.269143999999983,1500
52.6726639999999,16.325143999999987,1508
52.996663999999896,16.325143999999987,1489
52.996663999999896,15.677143999999986,1421
53.32066399999989,15.677143999999986,1416
53.32066399999989,15.029143999999986,1404
53.64466399999989,15.029143999999986,1411
53.96866399999989,15.029143999999986,1455
52.6726639999999,18.917143999999983,1788
53.32066399999989,16.325143999999987,1499
52.6726639999999,15.029143999999986,1450
51.05266399999991,22.805143999999984,2256
51.05266399999991,23.45314399999998,2283
50.72866399999991,22.15714399999998,2221
50.40466399999991,22.15714399999998,2210
51.05266399999991,22.15714399999998,2222
54.616663999999886,16.973143999999984,1598
54.29266399999989,16.325143999999987,1542
53.96866399999989,15.677143999999986,1490
50.72866399999991,21.50914399999997,2251
50.40466399999991,21.50914399999997,1785
50.40466399999991,17.621143999999987,1543
53.32066399999989,22.805143999999984,2554
53.64466399999989,22.15714399999998,2578
54.29266399999989,16.973143999999984,1557
50.72866399999991,20.86114399999998,1630
51.700663999999904,22.805143999999984,2440
51.05266399999991,21.50914399999997,1730
50.08066399999991,19.565143999999982,1582
52.0246639999999,18.917143999999983,3688
52.0246639999999,19.565143999999982,3681
53.64466399999989,18.269143999999983,1725
51.700663999999904,20.213143999999986,1748
53.32066399999989,19.565143999999982,2239
50.72866399999991,23.45314399999998,2635
50.72866399999991,22.805143999999984,2604
49.43266399999992,20.213143999999986,1703
49.75666399999992,21.50914399999997,2219
49.75666399999992,22.15714399999998,2262
49.43266399999992,22.15714399999998,1822
51.05266399999991,18.917143999999983,1476
51.05266399999991,18.269143999999983,1456
53.32066399999989,16.973143999999984,1598
53.64466399999989,16.973143999999984,1556
49.75666399999992,20.86114399999998,1705
50.40466399999991,22.805143999999984,3770
53.64466399999989,16.325143999999987,1505
53.96866399999989,20.86114399999998,2466
54.29266399999989,20.86114399999998,2512
53.96866399999989,21.50914399999997,2529
53.64466399999989,15.677143999999986,1462
53.96866399999989,20.213143999999986,2230
53.96866399999989,19.565143999999982,1868
54.29266399999989,19.565143999999982,1882
53.96866399999989,16.325143999999987,1564
53.64466399999989,17.621143999999987,1633
53.96866399999989,22.15714399999998,2596
53.64466399999989,21.50914399999997,2534
53.64466399999989,20.86114399999998,2312
52.6726639999999,15.677143999999986,1453
51.05266399999991,20.213143999999986,1835
54.940663999999884,24.101143999999977,65535
54.616663999999886,23.45314399999998,65535
54.29266399999989,23.45314399999998,65535
53.64466399999989,22.805143999999984,2603
53.96866399999989,16.973143999999984,1654
50.40466399999991,20.86114399999998,2266
53.32066399999989,18.269143999999983,2189
49.75666399999992,19.565143999999982,1630
50.40466399999991,23.45314399999998,1885
49.75666399999992,20.213143999999986,1681
49.43266399999992,19.565143999999982,1605
49.43266399999992,20.86114399999998,1794
53.96866399999989,17.621143999999987,2283
42.30466399999996,-1.8188560000000056,3999
41.98066399999996,-1.8188560000000056,3982
41.65666399999997,0.7731439999999932,3986
42.62866399999996,-1.8188560000000056,4114
42.95266399999996,-1.8188560000000056,4143
42.62866399999996,-3.114856000000005,4237
42.95266399999996,-2.4668560000000053,4215
42.62866399999996,-7.650856000000003,4579
42.30466399999996,-7.650856000000003,4639
42.30466399999996,-8.946856000000002,4775
42.30466399999996,-8.298856000000002,4749
41.98066399999996,-8.298856000000002,4738
42.30466399999996,-7.002856000000003,4521
42.62866399999996,-6.354856000000003,4463
42.30466399999996,-6.354856000000003,4418
42.62866399999996,-5.706856000000004,3918
41.98066399999996,-4.410856000000004,3872
42.30466399999996,-3.7628560000000046,4263
40.03666399999997,-0.5228560000000062,3966
39.38866399999998,-0.5228560000000062,4014
41.00866399999997,0.7731439999999932,4114
40.68466399999997,0.7731439999999932,4146
40.36066399999997,0.1251439999999934,4224
39.712663999999975,-0.5228560000000062,4123
38.41666399999998,-0.5228560000000062,4135
39.06466399999998,-0.5228560000000062,4257
38.74066399999998,-1.170856000000006,4143
41.332663999999966,0.7731439999999932,4174
41.65666399999997,2.717143999999992,3774
41.65666399999997,2.0691439999999925,3797
41.332663999999966,0.1251439999999934,4132
41.332663999999966,-0.5228560000000062,4076
41.65666399999997,-4.410856000000004,3846
40.03666399999997,-2.4668560000000053,4084
41.00866399999997,-4.410856000000004,3967
43.276663999999954,-5.706856000000004,4048
39.38866399999998,-1.170856000000006,4109
38.09266399999999,-1.170856000000006,4522
38.74066399999998,-0.5228560000000062,4285
37.76866399999999,-1.170856000000006,4587
39.06466399999998,-1.8188560000000056,4107
39.38866399999998,-3.114856000000005,4007
39.38866399999998,-2.4668560000000053,4063
39.06466399999998,-2.4668560000000053,4090
39.06466399999998,-3.114856000000005,4011
39.06466399999998,-3.7628560000000046,3985
38.74066399999998,-3.7628560000000046,4064
40.03666399999997,-3.7628560000000046,3963
40.03666399999997,-3.114856000000005,4163
40.03666399999997,-1.8188560000000056,4244
39.712663999999975,-1.8188560000000056,4209
39.712663999999975,-1.170856000000006,4145
40.36066399999997,-1.170856000000006,4164
40.68466399999997,-1.170856000000006,4142
41.00866399999997,-1.170856000000006,4130
41.332663999999966,-1.170856000000006,3970
43.276663999999954,-8.298856000000002,4739
42.95266399999996,-8.298856000000002,4707
41.65666399999997,-5.706856000000004,65535
41.98066399999996,-7.002856000000003,65535
41.98066399999996,-6.354856000000003,65535
41.332663999999966,-5.058856000000004,4085
43.276663999999954,-3.7628560000000046,4520
42.95266399999996,-4.410856000000004,4454
42.62866399999996,-4.410856000000004,4444
42.30466399999996,-4.410856000000004,4403
41.00866399999997,-5.706856000000004,4023
41.332663999999966,-1.8188560000000056,3916
40.68466399999997,-3.114856000000005,3870
41.00866399999997,-3.114856000000005,3921
41.00866399999997,-2.4668560000000053,3944
41.332663999999966,-2.4668560000000053,3997
40.68466399999997,-4.410856000000004,3907
40.36066399999997,-4.410856000000004,3991
40.68466399999997,-3.7628560000000046,3899
40.36066399999997,-3.114856000000005,3877
41.65666399999997,-2.4668560000000053,4014
38.09266399999999,-3.7628560000000046,4111
38.74066399999998,-3.114856000000005,4055
37.76866399999999,-3.7628560000000046,4168
39.712663999999975,-3.114856000000005,3999
38.41666399999998,-3.7628560000000046,4076
40.03666399999997,-4.410856000000004,65535
40.03666399999997,-5.058856000000004,65535
39.38866399999998,-6.354856000000003,65535
39.38866399999998,-7.002856000000003,65535
42.95266399999996,-3.114856000000005,4648
41.98066399999996,-1.170856000000006,4011
42.30466399999996,-2.4668560000000053,4052
41.65666399999997,-0.5228560000000062,4109
41.98066399999996,-0.5228560000000062,3946
41.65666399999997,0.1251439999999934,3973
41.98066399999996,0.1251439999999934,3995
37.76866399999999,-5.058856000000004,4047
36.79666399999999,-4.410856000000004,4106
38.74066399999998,-4.410856000000004,4003
37.12066399999999,-4.410856000000004,4080
37.44466399999999,-5.058856000000004,4604
37.44466399999999,-7.002856000000003,65535
37.44466399999999,-6.354856000000003,65535
37.44466399999999,-5.706856000000004,4280
39.712663999999975,-3.7628560000000046,4073
42.62866399999996,-8.946856000000002,65535
42.30466399999996,-5.706856000000004,4425
42.30466399999996,-5.058856000000004,4510
42.95266399999996,-5.706856000000004,3950
41.00866399999997,-5.058856000000004,3991
40.68466399999997,-5.058856000000004,3965
41.65666399999997,-5.058856000000004,65535
41.65666399999997,-6.354856000000003,65535
36.79666399999999,-6.354856000000003,65535
37.12066399999999,-5.706856000000004,4448
37.76866399999999,-5.706856000000004,4247
38.09266399999999,-4.410856000000004,4382
37.12066399999999,-5.058856000000004,4402
36.79666399999999,-5.058856000000004,4360
37.76866399999999,-4.410856000000004,65535
37.76866399999999,-7.002856000000003,65535
38.41666399999998,-6.354856000000003,65535
38.09266399999999,-6.354856000000003,65535
48.78466399999992,1.4211439999999929,1041
56.23666399999988,8.54914399999999,2290
55.58866399999988,9.197143999999987,2095
55.91266399999988,9.197143999999987,2236
55.26466399999988,10.493143999999988,1972
55.91266399999988,12.437143999999988,2109
55.58866399999988,11.789143999999988,2115
55.58866399999988,11.141143999999988,2106
55.26466399999988,11.789143999999988,2124
55.58866399999988,10.493143999999988,2091
55.58866399999988,13.085143999999987,2085
56.88466399999987,9.845143999999989,2242
57.20866399999987,9.845143999999989,2277
56.56066399999988,9.845143999999989,2214
56.88466399999987,8.54914399999999,2329
54.940663999999884,9.845143999999989,3436
54.940663999999884,11.789143999999988,2192
55.91266399999988,13.085143999999987,2184
56.23666399999988,13.733143999999989,2228
55.91266399999988,13.733143999999989,2231
56.23666399999988,14.381143999999988,2251
56.23666399999988,15.029143999999986,2292
56.23666399999988,15.677143999999986,2347
56.56066399999988,14.381143999999988,2308
56.88466399999987,14.381143999999988,2278
56.23666399999988,13.085143999999987,2176
56.56066399999988,13.085143999999987,2256
56.88466399999987,12.437143999999988,2293
57.20866399999987,12.437143999999988,2309
57.53266399999987,12.437143999999988,2324
56.88466399999987,15.029143999999986,2304
56.56066399999988,15.677143999999986,2364
56.88466399999987,15.677143999999986,2383
56.88466399999987,16.325143999999987,2398
55.91266399999988,11.789143999999988,2261
57.20866399999987,10.493143999999988,2464
49.43266399999992,1.4211439999999929,1042
49.75666399999992,0.7731439999999932,1023
49.75666399999992,2.0691439999999925,1035
50.08066399999991,2.717143999999992,1071
49.75666399999992,1.4211439999999929,1052
47.81266399999993,1.4211439999999929,991
48.136663999999925,2.0691439999999925,1123
48.46066399999992,2.0691439999999925,1016
48.136663999999925,1.4211439999999929,1036
48.78466399999992,0.1251439999999934,1162
48.46066399999992,0.1251439999999934,1142
47.81266399999993,0.1251439999999934,1066
46.84066399999993,-0.5228560000000062,1059
47.16466399999993,0.7731439999999932,1228
46.84066399999993,0.1251439999999934,1247
46.84066399999993,-1.170856000000006,1113
50.08066399999991,1.4211439999999929,1130
50.08066399999991,2.0691439999999925,1144
49.43266399999992,2.717143999999992,972
49.75666399999992,3.365143999999992,1011
50.08066399999991,3.365143999999992,1106
49.10866399999992,2.0691439999999925,993
49.43266399999992,2.0691439999999925,1000
48.78466399999992,0.7731439999999932,1595
48.78466399999992,-0.5228560000000062,1321
48.78466399999992,-1.170856000000006,1184
48.136663999999925,0.7731439999999932,1069
48.46066399999992,0.7731439999999932,1091
43.92466399999995,5.957143999999991,1353
44.24866399999995,5.957143999999991,1379
43.92466399999995,5.309143999999991,1028
42.95266399999996,2.717143999999992,1036
45.54466399999994,2.0691439999999925,236
45.22066399999994,2.0691439999999925,194
42.95266399999996,2.0691439999999925,2377
42.95266399999996,0.7731439999999932,968
43.276663999999954,0.7731439999999932,969
46.19266399999994,0.7731439999999932,1099
46.516663999999935,0.7731439999999932,1083
45.86866399999994,0.1251439999999934,1109
46.19266399999994,0.1251439999999934,1094
47.81266399999993,-1.170856000000006,1435
48.136663999999925,-2.4668560000000053,1143
47.48866399999993,-1.8188560000000056,1084
47.16466399999993,-1.170856000000006,1068
47.16466399999993,-0.5228560000000062,1190
46.84066399999993,-1.8188560000000056,1078
45.22066399999994,-0.5228560000000062,206
44.89666399999994,0.1251439999999934,147
45.22066399999994,0.7731439999999932,116
45.54466399999994,0.7731439999999932,173
45.86866399999994,0.7731439999999932,1117
45.22066399999994,0.1251439999999934,0
44.89666399999994,0.7731439999999932,179
43.92466399999995,-0.5228560000000062,299
43.92466399999995,-1.170856000000006,288
44.24866399999995,-1.170856000000006,268
45.22066399999994,-1.170856000000006,258
44.572663999999946,-0.5228560000000062,226
44.24866399999995,0.1251439999999934,345
44.572663999999946,0.7731439999999932,1068
43.276663999999954,-1.170856000000006,998
42.95266399999996,-0.5228560000000062,1182
44.24866399999995,2.0691439999999925,1002
43.60066399999995,0.7731439999999932,1031
43.60066399999995,2.0691439999999925,320
52.6726639999999,4.661143999999991,2281
52.6726639999999,5.309143999999991,2304
51.700663999999904,5.309143999999991,2249
52.0246639999999,5.309143999999991,2261
52.3486639999999,5.309143999999991,2277
51.37666399999991,4.013143999999992,2257
52.3486639999999,5.957143999999991,2271
52.0246639999999,6.60514399999999,2301
52.6726639999999,5.957143999999991,2288
52.996663999999896,5.957143999999991,2301
53.32066399999989,5.957143999999991,2295
52.996663999999896,6.60514399999999,2277
53.32066399999989,6.60514399999999,2269
52.6726639999999,6.60514399999999,2297
52.996663999999896,5.309143999999991,2316
59.15266399999986,24.101143999999977,65535
56.88466399999987,24.101143999999977,65535
56.88466399999987,23.45314399999998,65535
56.88466399999987,22.805143999999984,65535
57.20866399999987,24.74914399999998,65535
56.88466399999987,24.74914399999998,65535
56.56066399999988,24.74914399999998,65535
56.56066399999988,25.397143999999983,65535
56.56066399999988,24.101143999999977,65535
56.56066399999988,23.45314399999998,65535
56.56066399999988,26.04514399999998,65535
56.88466399999987,26.04514399999998,65535
57.20866399999987,25.397143999999983,65535
57.53266399999987,25.397143999999983,65535
56.23666399999988,26.04514399999998,65535
56.23666399999988,26.69314399999997,65535
55.91266399999988,26.69314399999997,65535
56.56066399999988,26.69314399999997,65535
56.56066399999988,27.34114399999998,65535
56.56066399999988,27.989143999999985,65535
56.23666399999988,27.989143999999985,65535
55.91266399999988,27.34114399999998,65535
56.56066399999988,22.805143999999984,65535
56.56066399999988,22.15714399999998,65535
56.56066399999988,21.50914399999997,65535
57.20866399999987,26.69314399999997,65535
39.06466399999998,-8.946856000000002,65535
38.41666399999998,-8.298856000000002,65535
45.86866399999994,11.789143999999988,1468
46.19266399999994,11.789143999999988,1455
46.19266399999994,10.493143999999988,1440
45.22066399999994,18.269143999999983,2461
45.22066399999994,18.917143999999983,2535
45.54466399999994,16.973143999999984,2319
45.22066399999994,17.621143999999987,2396
45.86866399999994,16.325143999999987,2200
45.54466399999994,18.917143999999983,2575
45.54466399999994,16.325143999999987,2275
45.54466399999994,18.269143999999983,2553
44.89666399999994,18.917143999999983,2856
46.19266399999994,16.973143999999984,2220
46.19266399999994,16.325143999999987,2206
45.86866399999994,16.973143999999984,2237
45.86866399999994,17.621143999999987,2341
46.19266399999994,15.677143999999986,1373
46.516663999999935,16.325143999999987,1413
45.54466399999994,15.677143999999986,2180
45.22066399999994,15.029143999999986,2247
45.54466399999994,15.029143999999986,1415
45.22066399999994,15.677143999999986,2264
44.572663999999946,15.677143999999986,3019
44.24866399999995,15.677143999999986,3040
43.92466399999995,16.325143999999987,2931
44.89666399999994,15.677143999999986,2983
45.54466399999994,17.621143999999987,2528
45.22066399999994,16.325143999999987,2396
46.516663999999935,16.973143999999984,2277
45.86866399999994,18.269143999999983,2654
43.92466399999995,15.677143999999986,2730
45.22066399999994,13.733143999999989,2262
47.48866399999993,19.565143999999982,1492
47.16466399999993,18.917143999999983,2178
47.81266399999993,18.917143999999983,1441
45.54466399999994,9.845143999999989,1159
45.22066399999994,9.845143999999989,1168
45.22066399999994,10.493143999999988,1227
45.86866399999994,9.845143999999989,1179
45.86866399999994,10.493143999999988,2358
48.78466399999992,21.50914399999997,1636
49.10866399999992,20.213143999999986,1721
49.10866399999992,18.917143999999983,1566
48.46066399999992,17.621143999999987,1379
49.43266399999992,17.621143999999987,1530
49.10866399999992,17.621143999999987,2272
48.136663999999925,18.269143999999983,1398
49.10866399999992,18.269143999999983,1433
49.43266399999992,18.269143999999983,1491
49.43266399999992,16.973143999999984,1547
49.75666399999992,16.973143999999984,1521
49.75666399999992,16.325143999999987,1499
50.08066399999991,15.677143999999986,1403
50.08066399999991,15.029143999999986,1390
49.43266399999992,18.917143999999983,1555
47.81266399999993,20.86114399999998,1555
48.136663999999925,20.86114399999998,1586
48.46066399999992,20.86114399999998,1628
48.46066399999992,21.50914399999997,1632
49.10866399999992,19.565143999999982,1587
48.136663999999925,17.621143999999987,1387
48.78466399999992,22.15714399999998,1670
48.78466399999992,20.86114399999998,1825
49.10866399999992,20.86114399999998,1715
48.78466399999992,18.269143999999983,1413
48.78466399999992,17.621143999999987,1469
49.10866399999992,21.50914399999997,1701
48.78466399999992,20.213143999999986,1869
48.46066399999992,20.213143999999986,1881
48.136663999999925,19.565143999999982,1605
48.46066399999992,19.565143999999982,1484
48.46066399999992,18.917143999999983,1414
48.46066399999992,18.269143999999983,1402
48.78466399999992,19.565143999999982,1560
48.78466399999992,18.917143999999983,1456
47.81266399999993,18.269143999999983,1436
49.10866399999992,22.15714399999998,1724
49.43266399999992,21.50914399999997,1816
48.136663999999925,18.917143999999983,1426
48.136663999999925,20.213143999999986,1625
52.636,-8.018,65535
52.312,-7.370000000000001,65535
52.312,-8.018,65535
52.636,-8.666,65535
51.988,-8.666,65535
51.988,-8.018,65535
52.96,-8.666,65535
52.96,-6.074000000000002,65535
53.28399999999999,-6.722000000000001,65535
53.60799999999999,-6.722000000000001,65535
53.60799999999999,-7.370000000000001,65535
53.60799999999999,-8.018,65535
54.25599999999999,-8.666,65535
53.93199999999999,-8.666,65535
53.93199999999999,-8.018,65535
52.312,-6.722000000000001,65535
52.636,-6.722000000000001,65535
53.93199999999999,-6.722000000000001,65535
54.25599999999999,-6.074000000000002,65535
53.28399999999999,-7.370000000000001,65535
52.96,-7.370000000000001,65535
52.312,-8.666,65535
52.96,-8.018,65535
52.636,-7.370000000000001,65535
52.96,-6.722000000000001,65535
51.988,-9.314,65535
52.312,-9.314,65535
54.579999999999984,-6.722000000000001,65535
54.579999999999984,-6.074000000000002,65535
53.28399999999999,-8.018,65535
53.28399999999999,-8.666,65535
53.28399999999999,-9.314,65535
53.93199999999999,-9.314,65535
54.25599999999999,-9.314,65535
53.60799999999999,-8.666,65535
53.60799999999999,-9.314,65535
49.43266399999992,14.381143999999988,1415
49.75666399999992,14.381143999999988,1385
49.75666399999992,15.029143999999986,1388
49.75666399999992,13.733143999999989,1391
50.08066399999991,13.733143999999989,1384
49.75666399999992,15.677143999999986,1437
50.40466399999991,15.029143999999986,1370
49.43266399999992,13.733143999999989,1446
50.40466399999991,15.677143999999986,1427
50.40466399999991,13.733143999999989,1426
46.19266399999994,15.029143999999986,1358
45.86866399999994,15.029143999999986,1376
45.86866399999994,14.381143999999988,1369
46.19266399999994,13.733143999999989,1382
45.86866399999994,13.733143999999989,1468
58.50466399999986,13.733143999999989,2401
58.180663999999865,13.733143999999989,2406
58.180663999999865,13.085143999999987,2378
57.85666399999987,12.437143999999988,2344
60.44866399999985,15.677143999999986,2627
60.124663999999854,15.677143999999986,2561
60.124663999999854,16.325143999999987,2599
59.800663999999855,16.325143999999987,2527
59.800663999999855,17.621143999999987,2506
59.47666399999986,18.269143999999983,2488
61.74466399999984,16.973143999999984,2638
61.420663999999846,16.973143999999984,2611
60.77266399999985,16.973143999999984,2563
65.63266399999982,22.15714399999998,3742
65.95666399999982,21.50914399999997,3702
65.63266399999982,20.86114399999998,3673
64.98466399999982,20.213143999999986,3605
64.66066399999983,20.213143999999986,3583
64.33666399999983,19.565143999999982,3277
64.01266399999983,19.565143999999982,2990
63.68866399999983,20.213143999999986,2943
64.66066399999983,18.917143999999983,3954
59.15266399999986,16.325143999999987,2463
59.15266399999986,15.029143999999986,2504
59.15266399999986,17.621143999999987,2480
57.53266399999987,14.381143999999988,2304
57.53266399999987,15.029143999999986,2324
61.09666399999985,14.381143999999988,2731
60.77266399999985,15.029143999999986,2682
60.44866399999985,15.029143999999986,2668
58.180663999999865,15.029143999999986,2381
58.50466399999986,16.325143999999987,2415
58.50466399999986,15.677143999999986,2388
63.36466399999984,13.085143999999987,2975
63.04066399999984,14.381143999999988,2912
62.39266399999984,15.677143999999986,2834
63.36466399999984,13.733143999999989,2957
63.36466399999984,14.381143999999988,2929
62.71666399999984,15.677143999999986,2862
62.39266399999984,17.621143999999987,2696
59.800663999999855,15.677143999999986,2973
55.58866399999988,13.733143999999989,2258
57.20866399999987,14.381143999999988,2288
57.85666399999987,14.381143999999988,2336
58.82866399999986,16.973143999999984,2472
58.82866399999986,16.325143999999987,2450
59.15266399999986,18.269143999999983,2484
60.44866399999985,17.621143999999987,2539
59.15266399999986,12.437143999999988,2443
59.15266399999986,13.085143999999987,2457
58.82866399999986,12.437143999999988,2419
59.47666399999986,16.325143999999987,2509
58.82866399999986,14.381143999999988,2496
59.47666399999986,15.677143999999986,2527
63.36466399999984,18.917143999999983,2896
63.04066399999984,17.621143999999987,2851
62.71666399999984,17.621143999999987,2825
63.68866399999983,19.565143999999982,2929
62.39266399999984,16.973143999999984,2740
59.800663999999855,16.973143999999984,2515
59.47666399999986,17.621143999999987,2492
57.85666399999987,13.085143999999987,2368
57.53266399999987,13.085143999999987,2349
58.50466399999986,11.789143999999988,2390
57.85666399999987,15.029143999999986,2370
57.20866399999987,13.733143999999989,2294
57.53266399999987,13.733143999999989,2355
61.74466399999984,16.325143999999987,2734
61.420663999999846,16.325143999999987,2701
61.09666399999985,16.325143999999987,2690
61.09666399999985,16.973143999999984,2658
60.124663999999854,15.029143999999986,2836
66.60466399999981,20.86114399999998,3777
67.25266399999981,20.86114399999998,3845
67.90066399999981,20.213143999999986,3915
67.57666399999981,20.213143999999986,4540
59.800663999999855,15.029143999999986,2556
58.50466399999986,15.029143999999986,2398
59.47666399999986,15.029143999999986,2541
60.44866399999985,16.325143999999987,2627
59.15266399999986,15.677143999999986,2485
57.85666399999987,13.733143999999989,2396
58.82866399999986,13.733143999999989,2443
58.50466399999986,13.085143999999987,2428
57.20866399999987,13.085143999999987,2325
56.88466399999987,13.085143999999987,2299
58.180663999999865,11.789143999999988,2361
62.06866399999984,16.973143999999984,2729
65.95666399999982,23.45314399999998,3783
59.800663999999855,14.381143999999988,65535
59.800663999999855,18.269143999999983,2497
63.04066399999984,15.029143999999986,2880
62.71666399999984,15.029143999999986,2870
62.39266399999984,16.325143999999987,2803
63.36466399999984,12.437143999999988,3008
68.5486639999998,17.621143999999987,4128
68.5486639999998,18.269143999999983,4061
68.5486639999998,18.917143999999983,4038
68.2246639999998,18.917143999999983,3994
59.800663999999855,13.085143999999987,2560
60.124663999999854,13.085143999999987,2599
59.47666399999986,16.973143999999984,2501
59.15266399999986,16.973143999999984,2493
56.56066399999988,13.733143999999989,2246
60.124663999999854,17.621143999999987,2516
57.85666399999987,16.325143999999987,2475
58.180663999999865,16.325143999999987,2437
58.180663999999865,15.677143999999986,2445
57.20866399999987,16.325143999999987,2487
57.53266399999987,15.677143999999986,2505
57.85666399999987,15.677143999999986,2476
44.89666399999994,23.45314399999998,2762
44.572663999999946,23.45314399999998,2827
44.89666399999994,24.74914399999998,2887
44.572663999999946,24.74914399999998,2908
44.572663999999946,24.101143999999977,2868
44.24866399999995,24.101143999999977,2890
47.48866399999993,25.397143999999983,2738
47.48866399999993,24.74914399999998,2668
47.16466399999993,24.74914399999998,2649
47.16466399999993,24.101143999999977,2604
47.48866399999993,22.15714399999998,2477
47.81266399999993,22.15714399999998,2641
47.16466399999993,22.15714399999998,2472
47.16466399999993,23.45314399999998,2811
47.16466399999993,22.805143999999984,2734
46.84066399999993,24.101143999999977,2431
45.86866399999994,27.34114399999998,2939
45.54466399999994,27.34114399999998,2919
45.54466399999994,27.989143999999985,2956
45.86866399999994,20.86114399999998,2780
45.86866399999994,21.50914399999997,2764
46.19266399999994,21.50914399999997,2720
46.19266399999994,27.34114399999998,2962
46.19266399999994,26.69314399999997,2968
46.516663999999935,26.69314399999997,2937
46.516663999999935,26.04514399999998,2932
47.48866399999993,22.805143999999984,2913
46.84066399999993,22.805143999999984,2449
45.54466399999994,22.15714399999998,2859
45.22066399999994,22.15714399999998,2881
44.89666399999994,22.15714399999998,2943
47.48866399999993,23.45314399999998,2806
46.516663999999935,24.101143999999977,2444
46.516663999999935,24.74914399999998,2669
45.86866399999994,24.101143999999977,2669
47.16466399999993,26.69314399999997,2899
47.16466399999993,27.34114399999998,3011
43.92466399999995,25.397143999999983,2954
44.24866399999995,24.74914399999998,2930
44.89666399999994,26.04514399999998,2828
44.89666399999994,26.69314399999997,2836
45.22066399999994,26.69314399999997,2853
45.22066399999994,27.34114399999998,2880
46.84066399999993,26.69314399999997,2954
47.48866399999993,26.69314399999997,2847
44.24866399999995,25.397143999999983,2878
43.92466399999995,26.04514399999998,2970
46.19266399999994,24.101143999999977,2491
44.572663999999946,25.397143999999983,2845
46.84066399999993,24.74914399999998,2798
46.516663999999935,21.50914399999997,2803
46.84066399999993,21.50914399999997,2544
44.572663999999946,26.69314399999997,2879
44.572663999999946,27.34114399999998,2914
44.89666399999994,27.34114399999998,2870
44.572663999999946,27.989143999999985,2935
44.24866399999995,27.989143999999985,2950
44.572663999999946,28.63714399999997,2990
45.86866399999994,22.15714399999998,2626
45.86866399999994,22.805143999999984,2594
44.24866399999995,23.45314399999998,2878
43.92466399999995,27.989143999999985,65535
46.84066399999993,27.34114399999998,3082
45.22066399999994,23.45314399999998,2728
45.54466399999994,23.45314399999998,2699
45.54466399999994,24.101143999999977,2699
45.22066399999994,24.101143999999977,2770
44.89666399999994,24.101143999999977,2825
46.19266399999994,22.15714399999998,2670
46.516663999999935,22.15714399999998,2765
45.22066399999994,21.50914399999997,2848
45.54466399999994,21.50914399999997,2768
45.54466399999994,20.86114399999998,2774
46.516663999999935,27.989143999999985,3084
46.19266399999994,27.989143999999985,3056
45.54466399999994,25.397143999999983,2726
45.22066399999994,25.397143999999983,2769
45.22066399999994,26.04514399999998,2879
47.81266399999993,24.101143999999977,3061
47.48866399999993,26.04514399999998,2832
47.81266399999993,26.04514399999998,2890
46.19266399999994,23.45314399999998,2489
45.86866399999994,23.45314399999998,2541
44.24866399999995,26.04514399999998,2858
45.22066399999994,27.989143999999985,2935
45.86866399999994,24.74914399999998,2702
46.516663999999935,25.397143999999983,2926
46.84066399999993,25.397143999999983,2870
46.19266399999994,26.04514399999998,2905
45.86866399999994,26.04514399999998,2764
43.92466399999995,23.45314399999998,2971
44.89666399999994,25.397143999999983,2835
46.19266399999994,20.86114399999998,2802
47.81266399999993,25.397143999999983,3147
44.572663999999946,22.805143999999984,2899
44.572663999999946,22.15714399999998,2965
46.516663999999935,23.45314399999998,2501
45.86866399999994,25.397143999999983,2692
44.24866399999995,27.34114399999998,3211
45.22066399999994,24.74914399999998,3051
45.54466399999994,22.805143999999984,2637
45.22066399999994,28.63714399999997,3061
44.89666399999994,28.63714399999997,3000
47.81266399999993,23.45314399999998,2768
46.19266399999994,24.74914399999998,2529
46.19266399999994,25.397143999999983,2584
43.92466399999995,24.101143999999977,3661
43.92466399999995,24.74914399999998,3674
47.81266399999993,26.69314399999997,3070
47.48866399999993,24.101143999999977,2989
46.84066399999993,26.04514399999998,3126
46.19266399999994,22.805143999999984,3087
47.48866399999993,27.34114399999998,3097
46.19266399999994,20.213143999999986,65535
45.54466399999994,26.04514399999998,2972
44.24866399999995,26.69314399999997,2886
45.86866399999994,27.989143999999985,3071
47.81266399999993,5.957143999999991,2266
