51.56399999999999,-0.4100000000000028,65535
51.887999999999984,-0.4100000000000028,65535
50.91599999999999,-1.7060000000000022,65535
51.23999999999999,-1.0580000000000025,65535
51.56399999999999,-1.0580000000000025,65535
51.23999999999999,-1.7060000000000022,65535
51.56399999999999,0.2379999999999968,65535
47.16466399999993,9.845143999999989,433
47.48866399999993,9.845143999999989,449
48.136663999999925,14.381143999999988,815
47.81266399999993,13.085143999999987,569
47.16466399999993,11.141143999999988,620
47.48866399999993,11.789143999999988,590
48.136663999999925,16.325143999999987,1225
47.48866399999993,12.437143999999988,542
48.136663999999925,15.677143999999986,1235
47.16466399999993,10.493143999999988,463
47.16466399999993,9.197143999999987,430
48.136663999999925,13.733143999999989,775
48.136663999999925,15.029143999999986,1199
47.81266399999993,16.973143999999984,1255
48.46066399999992,14.381143999999988,3784
47.48866399999993,13.085143999999987,623
47.16466399999993,13.085143999999987,814
47.48866399999993,14.381143999999988,1111
47.48866399999993,13.733143999999989,1191
47.48866399999993,15.029143999999986,1367
46.516663999999935,13.733143999999989,1007
46.84066399999993,13.733143999999989,985
46.84066399999993,13.085143999999987,980
48.78466399999992,14.381143999999988,65535
47.16466399999993,15.677143999999986,1325
46.516663999999935,14.381143999999988,1058
46.84066399999993,14.381143999999988,1041
47.16466399999993,14.381143999999988,2405
46.516663999999935,15.029143999999986,1117
47.81266399999993,16.325143999999987,1252
47.16466399999993,15.029143999999986,1333
47.81266399999993,15.677143999999986,1515
47.48866399999993,15.677143999999986,1309
46.516663999999935,13.085143999999987,2774
46.84066399999993,12.437143999999988,1019
48.136663999999925,11.789143999999988,512
47.81266399999993,12.437143999999988,531
46.84066399999993,15.677143999999986,1305
46.516663999999935,15.677143999999986,1141
46.84066399999993,16.325143999999987,1248
47.81266399999993,14.381143999999988,1045
48.78466399999992,16.973143999999984,1132
48.136663999999925,16.973143999999984,1197
48.46066399999992,13.733143999999989,616
47.81266399999993,13.733143999999989,851
50.08066399999991,8.54914399999999,436
48.46066399999992,9.845143999999989,442
51.05266399999991,7.25314399999999,435
51.37666399999991,7.25314399999999,444
51.37666399999991,6.60514399999999,441
48.46066399999992,16.325143999999987,1227
48.46066399999992,16.973143999999984,1147
48.78466399999992,16.325143999999987,1250
48.46066399999992,15.677143999999986,1240
48.78466399999992,15.677143999999986,1247
47.48866399999993,16.325143999999987,1262
47.16466399999993,16.325143999999987,1350
46.19266399999994,14.381143999999988,1086
45.86866399999994,15.677143999999986,1161
43.60066399999995,16.325143999999987,2515
45.54466399999994,14.381143999999988,1199
45.54466399999994,13.733143999999989,1221
48.136663999999925,13.085143999999987,846
48.46066399999992,11.141143999999988,516
48.136663999999925,11.141143999999988,507
48.46066399999992,7.90114399999999,358
49.10866399999992,8.54914399999999,410
48.78466399999992,2.0691439999999925,214
49.10866399999992,7.25314399999999,383
52.0246639999999,7.90114399999999,458
47.16466399999993,11.789143999999988,631
49.43266399999992,11.141143999999988,872
53.64466399999989,9.845143999999989,725
50.72866399999991,4.013143999999992,336
51.05266399999991,11.141143999999988,883
47.48866399999993,11.141143999999988,538
46.84066399999993,11.789143999999988,1502
46.516663999999935,11.141143999999988,1382
45.54466399999994,11.141143999999988,1288
46.19266399999994,11.141143999999988,1376
45.86866399999994,11.141143999999988,1363
44.572663999999946,11.141143999999988,1332
43.92466399999995,12.437143999999988,65535
45.54466399999994,12.437143999999988,1334
45.54466399999994,11.789143999999988,1315
48.78466399999992,15.029143999999986,1692
47.81266399999993,15.029143999999986,1290
47.81266399999993,11.141143999999988,527
50.40466399999991,18.917143999999983,1226
52.3486639999999,20.86114399999998,1596
54.616663999999886,18.269143999999983,1258
54.29266399999989,18.917143999999983,1286
49.10866399999992,14.381143999999988,65535
50.08066399999991,14.381143999999988,942
48.78466399999992,13.733143999999989,955
52.6726639999999,13.085143999999987,880
52.3486639999999,13.085143999999987,875
53.96866399999989,12.437143999999988,1044
54.29266399999989,12.437143999999988,1042
47.48866399999993,8.54914399999999,425
47.81266399999993,17.621143999999987,1279
47.48866399999993,18.917143999999983,1340
47.48866399999993,20.86114399999998,1801
46.84066399999993,23.45314399999998,2419
44.572663999999946,26.04514399999998,2837
47.48866399999993,21.50914399999997,1835
47.81266399999993,21.50914399999997,1868
48.46066399999992,22.15714399999998,1417
47.48866399999993,16.973143999999984,65535
49.10866399999992,16.325143999999987,1087
49.75666399999992,18.269143999999983,1180
46.19266399999994,13.085143999999987,2303
41.98066399999996,12.437143999999988,2470
43.60066399999995,10.493143999999988,2726
45.54466399999994,9.197143999999987,810
47.81266399999993,22.805143999999984,2659
49.75666399999992,22.805143999999984,1499
50.72866399999991,3.365143999999992,307
51.05266399999991,4.013143999999992,339
50.72866399999991,4.661143999999991,339
51.05266399999991,4.661143999999991,341
51.05266399999991,3.365143999999992,333
51.05266399999991,2.717143999999992,347
50.40466399999991,4.661143999999991,345
50.72866399999991,2.717143999999992,334
50.40466399999991,4.013143999999992,346
51.05266399999991,5.309143999999991,361
50.72866399999991,5.309143999999991,358
51.37666399999991,3.365143999999992,358
51.37666399999991,4.661143999999991,347
50.72866399999991,5.957143999999991,369
50.40466399999991,5.957143999999991,373
50.40466399999991,3.365143999999992,334
50.40466399999991,5.309143999999991,356
50.08066399999991,5.309143999999991,379
49.75666399999992,5.309143999999991,884
49.75666399999992,5.957143999999991,367
51.37666399999991,5.309143999999991,416
51.700663999999904,4.661143999999991,378
50.08066399999991,4.013143999999992,1002
50.08066399999991,5.957143999999991,414
50.08066399999991,4.661143999999991,412
49.43266399999992,5.309143999999991,860
49.43266399999992,5.957143999999991,343
52.0246639999999,4.661143999999991,2229
52.3486639999999,4.661143999999991,2264
50.72866399999991,15.029143999999986,924
51.05266399999991,15.029143999999986,885
51.05266399999991,13.733143999999989,855
50.40466399999991,13.085143999999987,887
49.10866399999992,7.90114399999999,452
48.78466399999992,7.90114399999999,395
50.40466399999991,7.90114399999999,444
50.08066399999991,7.90114399999999,455
49.75666399999992,7.90114399999999,444
49.43266399999992,7.90114399999999,404
49.75666399999992,8.54914399999999,432
49.43266399999992,8.54914399999999,415
49.43266399999992,9.197143999999987,418
49.10866399999992,9.197143999999987,428
47.48866399999993,7.90114399999999,399
47.81266399999993,7.90114399999999,398
48.136663999999925,7.90114399999999,363
48.136663999999925,9.845143999999989,429
47.81266399999993,9.197143999999987,430
47.81266399999993,8.54914399999999,407
47.81266399999993,9.845143999999989,436
54.940663999999884,9.197143999999987,867
54.616663999999886,9.197143999999987,840
54.29266399999989,9.197143999999987,848
53.96866399999989,9.197143999999987,756
53.64466399999989,9.197143999999987,747
54.616663999999886,9.845143999999989,799
54.29266399999989,9.845143999999989,770
53.96866399999989,9.845143999999989,765
53.64466399999989,10.493143999999988,742
53.96866399999989,10.493143999999988,818
53.96866399999989,11.141143999999988,974
54.29266399999989,10.493143999999988,801
53.32066399999989,10.493143999999988,691
54.940663999999884,11.141143999999988,1009
52.6726639999999,13.733143999999989,881
52.3486639999999,13.733143999999989,879
52.3486639999999,14.381143999999988,907
52.0246639999999,14.381143999999988,927
52.0246639999999,11.789143999999988,594
52.3486639999999,11.789143999999988,577
52.3486639999999,12.437143999999988,845
52.0246639999999,15.029143999999986,943
51.700663999999904,14.381143999999988,920
52.0246639999999,13.733143999999989,914
51.700663999999904,13.733143999999989,890
52.6726639999999,12.437143999999988,908
53.32066399999989,11.789143999999988,935
53.96866399999989,11.789143999999988,1038
53.64466399999989,11.789143999999988,1004
53.64466399999989,11.141143999999988,1001
53.32066399999989,11.141143999999988,915
52.996663999999896,11.789143999999988,872
52.996663999999896,12.437143999999988,924
52.996663999999896,13.733143999999989,900
53.64466399999989,13.733143999999989,976
53.96866399999989,13.733143999999989,1010
54.29266399999989,13.085143999999987,1052
53.96866399999989,13.085143999999987,1019
53.32066399999989,13.733143999999989,947
52.0246639999999,13.085143999999987,856
51.700663999999904,13.085143999999987,845
52.996663999999896,14.381143999999988,1003
52.0246639999999,12.437143999999988,830
51.700663999999904,12.437143999999988,815
51.37666399999991,11.789143999999988,832
51.37666399999991,12.437143999999988,821
52.6726639999999,11.789143999999988,830
53.64466399999989,13.085143999999987,1003
53.32066399999989,13.085143999999987,945
52.996663999999896,13.085143999999987,918
53.64466399999989,12.437143999999988,988
51.37666399999991,13.733143999999989,851
53.32066399999989,12.437143999999988,955
52.6726639999999,14.381143999999988,912
51.37666399999991,13.085143999999987,834
53.32066399999989,14.381143999999988,989
52.3486639999999,15.029143999999986,924
52.0246639999999,15.677143999999986,987
51.700663999999904,15.029143999999986,975
51.05266399999991,16.325143999999987,1029
51.05266399999991,16.973143999999984,1052
51.700663999999904,15.677143999999986,1033
51.37666399999991,15.677143999999986,998
51.37666399999991,16.325143999999987,1052
50.72866399999991,13.085143999999987,853
50.72866399999991,12.437143999999988,852
51.05266399999991,13.085143999999987,841
51.05266399999991,14.381143999999988,868
50.40466399999991,12.437143999999988,872
50.40466399999991,11.789143999999988,878
50.08066399999991,12.437143999999988,919
50.72866399999991,11.789143999999988,865
51.05266399999991,12.437143999999988,839
50.72866399999991,14.381143999999988,964
51.37666399999991,14.381143999999988,914
50.72866399999991,13.733143999999989,935
50.40466399999991,14.381143999999988,939
51.37666399999991,15.029143999999986,943
55.26466399999988,9.197143999999987,948
55.58866399999988,8.54914399999999,982
55.91266399999988,8.54914399999999,2239
56.23666399999988,9.197143999999987,2247
56.23666399999988,10.493143999999988,2200
56.23666399999988,9.845143999999989,2187
55.91266399999988,9.845143999999989,2125
56.56066399999988,9.197143999999987,2257
56.56066399999988,8.54914399999999,2300
51.05266399999991,6.60514399999999,436
51.700663999999904,7.90114399999999,448
50.72866399999991,6.60514399999999,429
51.700663999999904,7.25314399999999,448
50.72866399999991,7.25314399999999,436
52.0246639999999,7.25314399999999,452
52.3486639999999,7.90114399999999,507
51.05266399999991,5.957143999999991,401
50.40466399999991,7.25314399999999,439
51.700663999999904,6.60514399999999,457
51.700663999999904,5.957143999999991,464
52.3486639999999,9.197143999999987,527
51.700663999999904,8.54914399999999,457
52.0246639999999,8.54914399999999,468
52.3486639999999,8.54914399999999,519
51.37666399999991,7.90114399999999,450
52.3486639999999,7.25314399999999,457
51.37666399999991,5.957143999999991,941
50.72866399999991,7.90114399999999,451
51.37666399999991,9.197143999999987,492
51.700663999999904,9.197143999999987,471
50.40466399999991,6.60514399999999,466
51.05266399999991,7.90114399999999,466
51.37666399999991,8.54914399999999,458
52.0246639999999,5.957143999999991,471
52.3486639999999,6.60514399999999,506
51.05266399999991,8.54914399999999,944
52.0246639999999,9.197143999999987,474
52.6726639999999,9.197143999999987,580
52.0246639999999,9.845143999999989,522
51.700663999999904,9.845143999999989,564
51.37666399999991,9.845143999999989,559
50.72866399999991,8.54914399999999,448
51.05266399999991,9.845143999999989,887
50.72866399999991,9.845143999999989,866
50.40466399999991,9.845143999999989,515
51.05266399999991,9.197143999999987,474
50.40466399999991,9.197143999999987,461
50.08066399999991,9.197143999999987,443
51.05266399999991,10.493143999999988,919
50.40466399999991,8.54914399999999,441
50.72866399999991,9.197143999999987,454
49.75666399999992,9.197143999999987,486
52.996663999999896,9.197143999999987,613
52.3486639999999,9.845143999999989,512
52.996663999999896,8.54914399999999,604
52.996663999999896,7.90114399999999,893
53.32066399999989,7.90114399999999,910
53.32066399999989,7.25314399999999,973
53.64466399999989,7.25314399999999,1018
52.996663999999896,10.493143999999988,562
52.6726639999999,10.493143999999988,555
52.6726639999999,9.845143999999989,520
53.32066399999989,9.845143999999989,712
53.32066399999989,9.197143999999987,710
53.64466399999989,8.54914399999999,639
53.32066399999989,8.54914399999999,620
52.6726639999999,8.54914399999999,578
52.0246639999999,10.493143999999988,867
52.0246639999999,11.141143999999988,586
51.700663999999904,11.141143999999988,873
52.6726639999999,7.25314399999999,1794
52.996663999999896,7.25314399999999,1822
52.6726639999999,7.90114399999999,564
53.64466399999989,7.90114399999999,971
52.996663999999896,11.141143999999988,903
52.6726639999999,11.141143999999988,898
52.3486639999999,10.493143999999988,547
52.996663999999896,9.845143999999989,936
51.700663999999904,10.493143999999988,855
51.37666399999991,10.493143999999988,954
51.700663999999904,11.789143999999988,758
52.3486639999999,11.141143999999988,568
51.37666399999991,11.141143999999988,944
51.05266399999991,11.789143999999988,859
49.10866399999992,11.141143999999988,860
48.78466399999992,11.141143999999988,541
48.46066399999992,11.789143999999988,522
49.43266399999992,11.789143999999988,886
50.08066399999991,11.789143999999988,885
49.75666399999992,12.437143999999988,926
49.10866399999992,11.789143999999988,876
48.78466399999992,12.437143999999988,551
48.46066399999992,12.437143999999988,536
49.10866399999992,12.437143999999988,581
48.78466399999992,13.085143999999987,581
48.136663999999925,12.437143999999988,575
47.81266399999993,11.789143999999988,528
48.136663999999925,10.493143999999988,475
47.81266399999993,10.493143999999988,495
48.78466399999992,10.493143999999988,464
47.48866399999993,10.493143999999988,480
48.46066399999992,10.493143999999988,457
49.43266399999992,13.085143999999987,938
48.46066399999992,13.085143999999987,913
49.43266399999992,10.493143999999988,844
49.75666399999992,9.845143999999989,473
49.75666399999992,10.493143999999988,882
50.40466399999991,11.141143999999988,920
50.08066399999991,11.141143999999988,878
50.72866399999991,11.141143999999988,888
49.75666399999992,11.141143999999988,892
48.78466399999992,11.789143999999988,852
50.40466399999991,10.493143999999988,929
50.08066399999991,9.845143999999989,464
50.08066399999991,10.493143999999988,546
49.43266399999992,12.437143999999988,878
49.75666399999992,11.789143999999988,904
49.10866399999992,13.085143999999987,997
50.72866399999991,10.493143999999988,924
49.10866399999992,10.493143999999988,857
48.78466399999992,9.845143999999989,432
48.46066399999992,8.54914399999999,434
48.46066399999992,9.197143999999987,430
48.78466399999992,9.197143999999987,425
48.78466399999992,8.54914399999999,402
50.08066399999991,7.25314399999999,467
49.75666399999992,6.60514399999999,424
49.43266399999992,6.60514399999999,407
49.10866399999992,6.60514399999999,348
49.43266399999992,7.25314399999999,401
49.75666399999992,7.25314399999999,453
49.10866399999992,5.957143999999991,304
48.78466399999992,7.25314399999999,402
50.08066399999991,6.60514399999999,464
47.48866399999993,9.197143999999987,435
48.136663999999925,8.54914399999999,396
48.136663999999925,9.197143999999987,403
47.81266399999993,7.25314399999999,419
49.43266399999992,9.845143999999989,481
49.10866399999992,9.845143999999989,468
53.64466399999989,14.381143999999988,983
50.08066399999991,13.085143999999987,981
49.75666399999992,13.085143999999987,995
45.86866399999994,9.197143999999987,565
46.19266399999994,9.197143999999987,534
46.516663999999935,8.54914399999999,872
46.516663999999935,9.197143999999987,859
46.19266399999994,8.54914399999999,521
47.16466399999993,8.54914399999999,418
45.86866399999994,4.661143999999991,352
46.84066399999993,9.845143999999989,438
45.22066399999994,5.957143999999991,467
45.22066399999994,5.309143999999991,441
45.86866399999994,5.957143999999991,502
45.54466399999994,5.957143999999991,404
44.89666399999994,4.661143999999991,509
44.89666399999994,5.309143999999991,800
44.572663999999946,4.661143999999991,866
44.24866399999995,4.661143999999991,883
43.92466399999995,4.661143999999991,377
46.19266399999994,7.25314399999999,490
48.78466399999992,5.957143999999991,352
48.136663999999925,6.60514399999999,413
48.46066399999992,6.60514399999999,378
48.78466399999992,6.60514399999999,924
47.16466399999993,7.90114399999999,405
48.136663999999925,7.25314399999999,403
48.46066399999992,7.25314399999999,412
46.516663999999935,6.60514399999999,465
46.84066399999993,6.60514399999999,439
46.84066399999993,7.25314399999999,422
46.516663999999935,5.957143999999991,470
46.19266399999994,5.957143999999991,480
46.84066399999993,8.54914399999999,411
46.84066399999993,7.90114399999999,410
45.86866399999994,5.309143999999991,452
46.19266399999994,6.60514399999999,515
45.86866399999994,6.60514399999999,513
47.48866399999993,6.60514399999999,820
47.48866399999993,7.25314399999999,419
47.16466399999993,7.25314399999999,417
49.10866399999992,4.013143999999992,271
49.75666399999992,4.661143999999991,440
49.43266399999992,4.661143999999991,550
49.10866399999992,5.309143999999991,312
46.19266399999994,4.661143999999991,447
46.84066399999993,9.197143999999987,444
46.19266399999994,5.309143999999991,495
46.516663999999935,5.309143999999991,889
45.54466399999994,6.60514399999999,430
45.54466399999994,5.309143999999991,379
43.60066399999995,4.013143999999992,343
43.60066399999995,3.365143999999992,316
42.62866399999996,2.717143999999992,312
43.276663999999954,2.717143999999992,279
45.54466399999994,4.661143999999991,365
45.22066399999994,4.661143999999991,473
47.16466399999993,5.309143999999991,935
47.16466399999993,5.957143999999991,907
46.19266399999994,7.90114399999999,508
49.75666399999992,2.717143999999992,314
49.10866399999992,2.717143999999992,235
48.78466399999992,2.717143999999992,287
45.86866399999994,3.365143999999992,382
46.84066399999993,3.365143999999992,275
46.516663999999935,3.365143999999992,330
46.19266399999994,3.365143999999992,360
47.16466399999993,6.60514399999999,421
49.10866399999992,3.365143999999992,333
45.54466399999994,4.013143999999992,378
46.516663999999935,7.25314399999999,441
47.16466399999993,4.661143999999991,990
46.84066399999993,4.661143999999991,936
46.516663999999935,4.661143999999991,981
46.84066399999993,5.957143999999991,921
47.81266399999993,3.365143999999992,349
47.48866399999993,4.013143999999992,1067
48.136663999999925,4.013143999999992,372
47.81266399999993,4.013143999999992,1042
47.48866399999993,4.661143999999991,1063
47.16466399999993,3.365143999999992,263
46.84066399999993,4.013143999999992,984
48.46066399999992,5.957143999999991,1001
46.19266399999994,2.717143999999992,410
47.16466399999993,2.0691439999999925,192
46.516663999999935,2.717143999999992,382
46.84066399999993,2.717143999999992,362
46.84066399999993,2.0691439999999925,182
47.16466399999993,2.717143999999992,204
44.572663999999946,5.309143999999991,762
44.572663999999946,5.957143999999991,860
44.89666399999994,6.60514399999999,962
44.572663999999946,6.60514399999999,930
43.60066399999995,5.309143999999991,400
43.92466399999995,7.25314399999999,934
43.60066399999995,6.60514399999999,928
43.276663999999954,6.60514399999999,944
43.276663999999954,5.957143999999991,881
45.86866399999994,8.54914399999999,595
45.54466399999994,8.54914399999999,795
48.136663999999925,3.365143999999992,304
48.46066399999992,3.365143999999992,293
48.46066399999992,2.717143999999992,253
47.48866399999993,5.309143999999991,1089
46.516663999999935,9.845143999999989,501
46.84066399999993,10.493143999999988,968
47.81266399999993,5.309143999999991,451
45.22066399999994,6.60514399999999,1014
46.19266399999994,4.013143999999992,505
45.86866399999994,4.013143999999992,470
45.22066399999994,4.013143999999992,391
44.89666399999994,4.013143999999992,446
46.84066399999993,5.309143999999991,916
48.136663999999925,-1.8188560000000056,345
48.136663999999925,0.1251439999999934,285
48.136663999999925,-0.5228560000000062,401
47.48866399999993,-0.5228560000000062,324
47.16466399999993,-1.8188560000000056,365
47.48866399999993,0.7731439999999932,265
47.16466399999993,0.1251439999999934,300
45.86866399999994,7.25314399999999,518
48.136663999999925,5.309143999999991,428
49.10866399999992,4.661143999999991,378
48.46066399999992,4.013143999999992,350
48.136663999999925,4.661143999999991,391
47.81266399999993,6.60514399999999,837
47.48866399999993,5.957143999999991,853
48.136663999999925,5.957143999999991,1412
45.86866399999994,7.90114399999999,552
46.516663999999935,7.90114399999999,436
49.43266399999992,3.365143999999992,277
49.43266399999992,4.013143999999992,569
48.136663999999925,2.717143999999992,1090
47.81266399999993,2.717143999999992,1058
47.48866399999993,2.717143999999992,247
50.40466399999991,2.717143999999992,281
48.46066399999992,-4.410856000000004,1298
48.46066399999992,-3.7628560000000046,1260
48.46066399999992,-3.114856000000005,1231
48.46066399999992,-2.4668560000000053,1150
47.48866399999993,1.4211439999999929,317
47.16466399999993,1.4211439999999929,338
46.516663999999935,4.013143999999992,1046
43.60066399999995,4.661143999999991,894
44.89666399999994,2.717143999999992,192
45.22066399999994,2.717143999999992,997
45.54466399999994,3.365143999999992,936
45.22066399999994,3.365143999999992,955
47.48866399999993,3.365143999999992,1066
46.19266399999994,9.845143999999989,893
47.81266399999993,2.0691439999999925,231
47.48866399999993,2.0691439999999925,274
45.86866399999994,2.717143999999992,1001
44.89666399999994,5.957143999999991,997
45.22066399999994,1.4211439999999929,38
44.89666399999994,1.4211439999999929,83
44.89666399999994,2.0691439999999925,119
43.276663999999954,2.0691439999999925,240
43.60066399999995,1.4211439999999929,203
48.78466399999992,4.661143999999991,999
48.78466399999992,5.309143999999991,1113
46.19266399999994,2.0691439999999925,319
45.86866399999994,1.4211439999999929,88
46.19266399999994,1.4211439999999929,105
44.572663999999946,4.013143999999992,1065
44.89666399999994,3.365143999999992,1149
43.92466399999995,4.013143999999992,991
44.24866399999995,4.013143999999992,1007
44.89666399999994,-0.5228560000000062,67
45.54466399999994,0.1251439999999934,188
46.516663999999935,0.1251439999999934,234
44.572663999999946,2.0691439999999925,276
49.75666399999992,4.013143999999992,1131
43.92466399999995,3.365143999999992,1116
43.92466399999995,2.717143999999992,1141
44.24866399999995,3.365143999999992,1167
44.572663999999946,3.365143999999992,1211
49.10866399999992,0.1251439999999934,343
49.43266399999992,0.7731439999999932,298
49.43266399999992,-1.8188560000000056,476
49.10866399999992,-1.170856000000006,451
49.10866399999992,-0.5228560000000062,369
49.10866399999992,0.7731439999999932,331
49.10866399999992,1.4211439999999929,269
47.81266399999993,-1.8188560000000056,1119
47.81266399999993,-2.4668560000000053,1168
47.81266399999993,-3.114856000000005,1181
48.136663999999925,-3.7628560000000046,1244
44.572663999999946,9.197143999999987,956
44.89666399999994,8.54914399999999,897
45.22066399999994,9.197143999999987,829
45.54466399999994,10.493143999999988,907
44.572663999999946,10.493143999999988,1318
44.89666399999994,10.493143999999988,973
44.89666399999994,9.845143999999989,900
48.46066399999992,5.309143999999991,974
50.91599999999999,-1.0580000000000025,65535
51.23999999999999,-0.4100000000000028,65535
50.91599999999999,-0.4100000000000028,65535
51.23999999999999,-2.354000000000002,65535
51.56399999999999,-2.354000000000002,65535
51.56399999999999,-3.0020000000000016,65535
50.91599999999999,-2.354000000000002,65535
53.50799999999997,-3.0020000000000016,65535
53.183999999999976,-2.354000000000002,65535
53.183999999999976,-3.0020000000000016,65535
52.85999999999998,-2.354000000000002,65535
52.21199999999998,-1.0580000000000025,65535
51.887999999999984,-1.0580000000000025,65535
52.53599999999998,-1.0580000000000025,65535
52.53599999999998,-1.7060000000000022,65535
52.85999999999998,-1.7060000000000022,65535
53.50799999999997,-2.354000000000002,65535
52.85999999999998,-1.0580000000000025,65535
52.53599999999998,1.5339999999999965,65535
52.53599999999998,0.8859999999999966,65535
52.53599999999998,0.2379999999999968,65535
52.53599999999998,-0.4100000000000028,65535
53.50799999999997,-1.7060000000000022,65535
53.183999999999976,-1.7060000000000022,65535
53.183999999999976,-1.0580000000000025,65535
52.85999999999998,-0.4100000000000028,65535
51.887999999999984,-2.354000000000002,65535
52.21199999999998,-2.354000000000002,65535
55.77599999999996,-2.354000000000002,65535
53.83199999999997,-1.0580000000000025,65535
53.83199999999997,-1.7060000000000022,65535
55.127999999999965,-1.7060000000000022,65535
54.80399999999997,-1.7060000000000022,65535
54.47999999999997,-1.7060000000000022,65535
54.15599999999997,-1.0580000000000025,65535
52.21199999999998,-1.7060000000000022,65535
53.50799999999997,-1.0580000000000025,65535
55.77599999999996,-3.0020000000000016,65535
55.45199999999996,-1.7060000000000022,65535
57.07199999999995,-2.354000000000002,65535
56.74799999999996,-3.0020000000000016,65535
56.42399999999996,-3.0020000000000016,65535
56.09999999999996,-3.650000000000001,65535
50.91599999999999,-3.0020000000000016,65535
50.91599999999999,-3.650000000000001,65535
50.59199999999999,-3.650000000000001,65535
50.59199999999999,-4.298000000000001,65535
51.23999999999999,-3.0020000000000016,65535
50.268,-4.946000000000001,65535
55.77599999999996,-3.650000000000001,65535
55.77599999999996,-4.298000000000001,65535
52.21199999999998,-0.4100000000000028,65535
52.53599999999998,-2.354000000000002,65535
51.56399999999999,-1.7060000000000022,65535
51.56399999999999,-3.650000000000001,65535
51.887999999999984,-4.298000000000001,65535
51.56399999999999,-4.298000000000001,65535
51.887999999999984,-1.7060000000000022,65535
52.21199999999998,-3.0020000000000016,65535
51.23999999999999,0.2379999999999968,65535
50.91599999999999,0.2379999999999968,65535
52.21199999999998,0.2379999999999968,65535
53.83199999999997,-3.0020000000000016,65535
54.15599999999997,-3.0020000000000016,65535
54.47999999999997,-3.0020000000000016,65535
55.127999999999965,-3.650000000000001,65535
54.80399999999997,-3.0020000000000016,65535
53.83199999999997,-2.354000000000002,65535
54.15599999999997,-0.4100000000000028,65535
54.47999999999997,-1.0580000000000025,65535
53.83199999999997,-0.4100000000000028,65535
53.183999999999976,-3.650000000000001,65535
53.183999999999976,-4.298000000000001,65535
52.85999999999998,-3.0020000000000016,65535
52.53599999999998,-3.0020000000000016,65535
51.887999999999984,-3.0020000000000016,65535
51.23999999999999,0.8859999999999966,65535
51.887999999999984,0.2379999999999968,65535
52.21199999999998,0.8859999999999966,65535
51.887999999999984,-4.946000000000001,65535
52.53599999999998,-3.650000000000001,65535
52.21199999999998,-4.298000000000001,65535
53.183999999999976,-0.4100000000000028,65535
51.23999999999999,-3.650000000000001,65535
51.887999999999984,-3.650000000000001,65535
52.21199999999998,-3.650000000000001,65535
51.56399999999999,0.8859999999999966,65535
51.887999999999984,0.8859999999999966,65535
52.85999999999998,0.8859999999999966,65535
53.50799999999997,-0.4100000000000028,65535
56.09999999999996,-4.298000000000001,65535
56.74799999999996,-4.946000000000001,65535
56.74799999999996,-4.298000000000001,65535
56.42399999999996,-4.946000000000001,65535
56.42399999999996,-4.298000000000001,65535
56.09999999999996,-4.946000000000001,65535
57.39599999999995,-4.298000000000001,65535
57.39599999999995,-3.0020000000000016,65535
57.39599999999995,-3.650000000000001,65535
56.42399999999996,-3.650000000000001,65535
57.07199999999995,-3.650000000000001,65535
57.07199999999995,-4.298000000000001,65535
56.74799999999996,-3.650000000000001,65535
59.15266399999986,27.34114399999998,65535
59.47666399999986,26.69314399999997,65535
59.47666399999986,26.04514399999998,65535
59.15266399999986,26.04514399999998,65535
59.15266399999986,24.74914399999998,65535
59.15266399999986,25.397143999999983,65535
59.47666399999986,25.397143999999983,65535
58.50466399999986,26.69314399999997,65535
58.82866399999986,26.69314399999997,65535
57.85666399999987,26.04514399999998,65535
58.180663999999865,26.04514399999998,65535
58.180663999999865,26.69314399999997,65535
58.82866399999986,26.04514399999998,65535
58.50466399999986,25.397143999999983,65535
58.82866399999986,25.397143999999983,65535
58.82866399999986,24.74914399999998,65535
58.180663999999865,27.34114399999998,65535
57.85666399999987,27.34114399999998,65535
63.68866399999983,27.34114399999998,65535
60.124663999999854,24.74914399999998,65535
60.44866399999985,24.74914399999998,65535
60.44866399999985,25.397143999999983,65535
60.77266399999985,25.397143999999983,65535
61.09666399999985,26.04514399999998,65535
60.77266399999985,26.04514399999998,65535
60.77266399999985,26.69314399999997,65535
61.09666399999985,25.397143999999983,65535
61.09666399999985,26.69314399999997,65535
61.420663999999846,26.69314399999997,65535
61.74466399999984,27.34114399999998,65535
62.06866399999984,27.34114399999998,65535
62.39266399999984,27.34114399999998,65535
62.71666399999984,27.34114399999998,65535
64.01266399999983,27.34114399999998,65535
63.36466399999984,27.34114399999998,65535
63.04066399999984,27.34114399999998,65535
63.04066399999984,27.989143999999985,65535
64.33666399999983,27.989143999999985,65535
64.33666399999983,27.34114399999998,65535
64.66066399999983,27.34114399999998,65535
64.66066399999983,26.69314399999997,4756
64.98466399999982,25.397143999999983,4519
64.66066399999983,26.04514399999998,4736
64.98466399999982,26.04514399999998,4720
66.28066399999982,25.397143999999983,65535
65.95666399999982,24.74914399999998,4432
65.63266399999982,24.74914399999998,4436
65.63266399999982,25.397143999999983,4478
65.30866399999982,25.397143999999983,4499
66.60466399999981,25.397143999999983,65535
64.01266399999983,24.74914399999998,4656
64.01266399999983,24.101143999999977,4691
64.01266399999983,23.45314399999998,4715
63.68866399999983,23.45314399999998,4727
63.68866399999983,22.805143999999984,4752
63.68866399999983,26.04514399999998,65535
63.68866399999983,25.397143999999983,65535
63.68866399999983,26.69314399999997,65535
60.44866399999985,26.69314399999997,65535
64.01266399999983,27.989143999999985,65535
62.71666399999984,22.805143999999984,65535
62.39266399999984,22.805143999999984,65535
62.06866399999984,22.805143999999984,65535
62.06866399999984,23.45314399999998,65535
61.74466399999984,23.45314399999998,65535
61.420663999999846,23.45314399999998,65535
61.09666399999985,23.45314399999998,65535
61.09666399999985,24.101143999999977,65535
61.09666399999985,24.74914399999998,65535
60.77266399999985,24.74914399999998,65535
63.04066399999984,21.50914399999997,65535
63.04066399999984,22.15714399999998,65535
63.04066399999984,22.805143999999984,65535
62.39266399999984,26.04514399999998,65535
62.06866399999984,25.397143999999983,65535
61.74466399999984,25.397143999999983,65535
61.74466399999984,24.74914399999998,65535
61.74466399999984,24.101143999999977,65535
61.420663999999846,24.101143999999977,65535
62.39266399999984,26.69314399999997,65535
64.66066399999983,25.397143999999983,4588
64.66066399999983,24.74914399999998,4606
64.33666399999983,24.74914399999998,4617
63.36466399999984,22.805143999999984,4777
67.25266399999981,24.101143999999977,65535
66.92866399999981,24.101143999999977,65535
66.60466399999981,23.45314399999998,65535
66.28066399999982,23.45314399999998,65535
66.28066399999982,24.101143999999977,65535
65.95666399999982,24.101143999999977,3804
60.124663999999854,24.101143999999977,65535
60.124663999999854,23.45314399999998,65535
60.44866399999985,22.805143999999984,65535
60.77266399999985,27.34114399999998,65535
61.09666399999985,27.989143999999985,65535
61.09666399999985,28.63714399999997,65535
61.420663999999846,29.28514399999997,65535
61.74466399999984,29.933143999999977,65535
62.06866399999984,29.933143999999977,65535
62.39266399999984,29.933143999999977,65535
62.71666399999984,29.933143999999977,65535
61.420663999999846,22.805143999999984,65535
61.420663999999846,22.15714399999998,65535
61.09666399999985,22.15714399999998,65535
61.420663999999846,21.50914399999997,65535
62.39266399999984,27.989143999999985,65535
62.06866399999984,27.989143999999985,65535
61.420663999999846,27.34114399999998,65535
63.04066399999984,29.933143999999977,65535
63.68866399999983,29.28514399999997,65535
63.36466399999984,29.28514399999997,65535
63.36466399999984,29.933143999999977,65535
60.44866399999985,27.34114399999998,65535
61.74466399999984,29.28514399999997,65535
62.39266399999984,30.58114399999998,65535
62.71666399999984,31.229143999999977,65535
62.71666399999984,29.28514399999997,65535
63.04066399999984,28.63714399999997,65535
66.60466399999981,26.04514399999998,65535
66.60466399999981,26.69314399999997,65535
66.60466399999981,27.34114399999998,65535
62.71666399999984,26.04514399999998,65535
62.71666399999984,25.397143999999983,65535
63.04066399999984,25.397143999999983,65535
63.36466399999984,25.397143999999983,65535
62.71666399999984,23.45314399999998,65535
62.39266399999984,24.101143999999977,65535
62.71666399999984,22.15714399999998,65535
62.39266399999984,22.15714399999998,65535
62.39266399999984,21.50914399999997,65535
61.09666399999985,21.50914399999997,65535
60.77266399999985,22.805143999999984,65535
60.44866399999985,22.15714399999998,65535
60.77266399999985,23.45314399999998,65535
60.77266399999985,21.50914399999997,65535
60.77266399999985,22.15714399999998,65535
60.124663999999854,22.805143999999984,65535
60.44866399999985,24.101143999999977,65535
62.06866399999984,24.74914399999998,65535
50.72866399999991,16.325143999999987,1028
50.40466399999991,16.973143999999984,1034
50.72866399999991,16.973143999999984,1047
50.40466399999991,16.325143999999987,1032
50.08066399999991,16.973143999999984,1078
50.08066399999991,16.325143999999987,993
51.700663999999904,16.973143999999984,1170
51.37666399999991,16.973143999999984,1064
51.05266399999991,15.677143999999986,982
50.72866399999991,15.677143999999986,1021
51.05266399999991,17.621143999999987,1095
51.37666399999991,17.621143999999987,1071
51.700663999999904,17.621143999999987,1160
51.700663999999904,16.325143999999987,1112
52.0246639999999,22.15714399999998,1618
52.0246639999999,21.50914399999997,1614
52.3486639999999,21.50914399999997,1614
52.0246639999999,20.86114399999998,1602
51.700663999999904,20.86114399999998,1601
51.37666399999991,21.50914399999997,1584
51.37666399999991,20.86114399999998,1567
51.05266399999991,20.86114399999998,1464
52.6726639999999,23.45314399999998,1762
52.3486639999999,22.805143999999984,1701
52.3486639999999,20.213143999999986,1608
52.0246639999999,20.213143999999986,1614
52.3486639999999,19.565143999999982,1444
52.6726639999999,19.565143999999982,1527
51.700663999999904,21.50914399999997,1648
51.700663999999904,22.15714399999998,1654
52.6726639999999,21.50914399999997,1626
52.996663999999896,21.50914399999997,1669
52.6726639999999,20.86114399999998,1573
52.6726639999999,22.15714399999998,1669
52.6726639999999,20.213143999999986,1586
52.996663999999896,19.565143999999982,1579
52.996663999999896,20.86114399999998,1564
52.996663999999896,20.213143999999986,1539
53.32066399999989,20.213143999999986,1534
51.37666399999991,20.213143999999986,1574
52.3486639999999,16.973143999999984,1116
52.0246639999999,16.973143999999984,1180
52.0246639999999,16.325143999999987,1138
52.0246639999999,17.621143999999987,1189
52.6726639999999,16.973143999999984,1139
52.996663999999896,16.973143999999984,1135
52.3486639999999,16.325143999999987,1082
52.3486639999999,15.677143999999986,1064
51.700663999999904,18.269143999999983,1363
52.6726639999999,17.621143999999987,1300
52.3486639999999,17.621143999999987,1126
52.6726639999999,18.269143999999983,1292
52.3486639999999,18.269143999999983,1168
52.3486639999999,18.917143999999983,1207
52.996663999999896,17.621143999999987,1227
51.700663999999904,19.565143999999982,1444
51.700663999999904,18.917143999999983,1411
51.37666399999991,18.269143999999983,1366
58.82866399999986,9.197143999999987,2768
58.180663999999865,7.90114399999999,2861
58.50466399999986,8.54914399999999,2812
63.36466399999984,10.493143999999988,2983
63.36466399999984,11.141143999999988,2990
63.36466399999984,11.789143999999988,3025
63.68866399999983,11.789143999999988,3053
64.33666399999983,12.437143999999988,3454
64.66066399999983,12.437143999999988,3949
65.63266399999982,13.085143999999987,3606
65.95666399999982,13.085143999999987,3641
66.28066399999982,14.381143999999988,3711
65.95666399999982,13.733143999999989,3780
66.28066399999982,13.733143999999989,3689
65.30866399999982,13.085143999999987,3907
64.98466399999982,13.085143999999987,3541
64.01266399999983,11.789143999999988,3084
63.68866399999983,11.141143999999988,3021
59.800663999999855,10.493143999999988,2564
59.800663999999855,11.141143999999988,2547
60.124663999999854,11.141143999999988,2562
60.44866399999985,11.141143999999988,2575
60.124663999999854,11.789143999999988,2588
60.77266399999985,7.25314399999999,2824
60.77266399999985,6.60514399999999,2870
59.15266399999986,9.197143999999987,2650
59.47666399999986,9.197143999999987,2671
59.800663999999855,9.845143999999989,2566
59.47666399999986,11.141143999999988,2511
61.09666399999985,10.493143999999988,2685
60.77266399999985,10.493143999999988,2655
60.77266399999985,11.141143999999988,2610
62.06866399999984,9.197143999999987,3010
61.74466399999984,9.845143999999989,2956
61.420663999999846,9.845143999999989,2933
59.15266399999986,9.845143999999989,2630
59.47666399999986,9.845143999999989,2606
58.82866399999986,5.957143999999991,3045
58.180663999999865,7.25314399999999,2917
58.50466399999986,7.25314399999999,2950
58.50466399999986,6.60514399999999,2955
58.50466399999986,5.957143999999991,3013
58.82866399999986,8.54914399999999,2798
60.44866399999985,7.25314399999999,2798
60.44866399999985,7.90114399999999,2759
60.124663999999854,10.493143999999988,2596
60.44866399999985,9.197143999999987,2708
60.77266399999985,9.197143999999987,2720
60.77266399999985,8.54914399999999,2739
60.124663999999854,9.845143999999989,2975
60.44866399999985,10.493143999999988,2641
63.04066399999984,10.493143999999988,2934
62.06866399999984,9.845143999999989,3035
62.39266399999984,9.845143999999989,3043
62.71666399999984,9.845143999999989,3067
59.47666399999986,14.381143999999988,2560
59.47666399999986,13.733143999999989,2501
59.47666399999986,13.085143999999987,2477
59.800663999999855,12.437143999999988,2546
59.15266399999986,11.141143999999988,2475
59.15266399999986,14.381143999999988,2574
58.82866399999986,11.789143999999988,2455
58.50466399999986,12.437143999999988,2385
58.180663999999865,12.437143999999988,2378
57.85666399999987,11.789143999999988,2329
62.71666399999984,7.90114399999999,3096
62.39266399999984,7.90114399999999,3053
62.06866399999984,8.54914399999999,3028
60.44866399999985,5.309143999999991,2944
60.44866399999985,5.957143999999991,2911
60.77266399999985,5.957143999999991,2900
62.39266399999984,11.141143999999988,2831
62.06866399999984,10.493143999999988,2786
61.74466399999984,11.141143999999988,2759
61.420663999999846,11.141143999999988,2713
61.09666399999985,11.141143999999988,2696
60.77266399999985,11.789143999999988,2673
63.04066399999984,11.141143999999988,2912
62.71666399999984,11.141143999999988,2855
62.39266399999984,10.493143999999988,2813
67.25266399999981,15.677143999999986,3830
67.25266399999981,15.029143999999986,3868
67.25266399999981,14.381143999999988,3896
66.92866399999981,15.029143999999986,3819
66.60466399999981,15.677143999999986,3797
64.01266399999983,11.141143999999988,3068
66.60466399999981,15.029143999999986,3860
54.29266399999989,18.269143999999983,1280
54.616663999999886,17.621143999999987,1215
53.96866399999989,18.269143999999983,1396
43.92466399999995,1.4211439999999929,230
44.24866399999995,0.7731439999999932,235
44.572663999999946,0.1251439999999934,188
46.84066399999993,1.4211439999999929,167
44.572663999999946,1.4211439999999929,131
44.24866399999995,1.4211439999999929,225
45.54466399999994,1.4211439999999929,71
46.516663999999935,1.4211439999999929,134
42.30466399999996,2.717143999999992,1111
44.24866399999995,2.717143999999992,335
44.572663999999946,2.717143999999992,338
43.92466399999995,2.0691439999999925,251
42.30466399999996,2.0691439999999925,1032
42.62866399999996,2.0691439999999925,338
42.62866399999996,1.4211439999999929,331
42.95266399999996,1.4211439999999929,296
43.276663999999954,1.4211439999999929,228
46.516663999999935,-1.170856000000006,298
46.19266399999994,-1.170856000000006,234
45.86866399999994,-0.5228560000000062,205
45.54466399999994,-0.5228560000000062,162
48.46066399999992,1.4211439999999929,229
41.332663999999966,2.0691439999999925,1234
41.98066399999996,2.717143999999992,1193
48.46066399999992,-1.8188560000000056,1079
47.81266399999993,0.7731439999999932,328
46.84066399999993,0.7731439999999932,888
44.572663999999946,-1.170856000000006,85
43.60066399999995,-1.170856000000006,159
43.276663999999954,-1.8188560000000056,208
43.276663999999954,0.1251439999999934,282
42.95266399999996,0.1251439999999934,287
43.276663999999954,-0.5228560000000062,209
43.60066399999995,-0.5228560000000062,198
47.81266399999993,-3.7628560000000046,1228
47.48866399999993,-2.4668560000000053,414
47.81266399999993,-0.5228560000000062,944
46.516663999999935,-1.8188560000000056,316
48.136663999999925,-1.170856000000006,1156
47.48866399999993,-1.170856000000006,992
45.22066399999994,8.54914399999999,846
45.22066399999994,7.90114399999999,859
46.19266399999994,-0.5228560000000062,342
46.516663999999935,-0.5228560000000062,1011
48.78466399999992,-3.114856000000005,1264
50.72866399999991,2.0691439999999925,354
50.40466399999991,2.0691439999999925,300
40.36066399999997,-3.7628560000000046,1425
41.65666399999997,-1.170856000000006,1342
41.332663999999966,1.4211439999999929,1280
43.276663999999954,13.733143999999989,65535
42.95266399999996,13.733143999999989,65535
41.65666399999997,15.029143999999986,65535
40.68466399999997,17.621143999999987,65535
43.60066399999995,13.085143999999987,3903
41.65666399999997,12.437143999999988,2512
41.65666399999997,13.085143999999987,2528
41.98066399999996,13.085143999999987,2504
41.65666399999997,13.733143999999989,3092
41.332663999999966,13.733143999999989,2570
41.332663999999966,14.381143999999988,3127
41.00866399999997,14.381143999999988,3154
41.332663999999966,13.085143999999987,2553
41.00866399999997,15.029143999999986,4335
41.98066399999996,13.733143999999989,2586
42.30466399999996,14.381143999999988,4416
42.30466399999996,12.437143999999988,2755
42.62866399999996,12.437143999999988,3054
42.95266399999996,12.437143999999988,3108
42.30466399999996,11.789143999999988,2563
42.95266399999996,11.789143999999988,3818
42.62866399999996,11.789143999999988,3739
43.276663999999954,11.789143999999988,4290
42.95266399999996,13.085143999999987,3804
42.30466399999996,13.085143999999987,4303
43.276663999999954,13.085143999999987,3852
43.276663999999954,12.437143999999988,3859
42.62866399999996,11.141143999999988,2632
42.95266399999996,11.141143999999988,2675
42.95266399999996,10.493143999999988,2693
44.572663999999946,8.54914399999999,950
44.89666399999994,7.90114399999999,873
44.89666399999994,9.197143999999987,905
44.24866399999995,7.90114399999999,926
44.572663999999946,7.90114399999999,896
43.92466399999995,7.90114399999999,961
44.24866399999995,7.25314399999999,941
44.89666399999994,7.25314399999999,978
45.22066399999994,7.25314399999999,898
45.54466399999994,7.90114399999999,941
44.572663999999946,7.25314399999999,2302
52.996663999999896,22.805143999999984,2215
52.996663999999896,23.45314399999998,2244
51.37666399999991,22.15714399999998,1681
51.37666399999991,22.805143999999984,1685
50.08066399999991,20.213143999999986,1309
50.72866399999991,20.213143999999986,1404
50.40466399999991,20.213143999999986,1365
50.08066399999991,20.86114399999998,1345
50.08066399999991,21.50914399999997,1386
50.08066399999991,22.15714399999998,1433
50.08066399999991,22.805143999999984,1463
53.96866399999989,22.805143999999984,2356
53.64466399999989,23.45314399999998,2312
53.32066399999989,23.45314399999998,2267
50.40466399999991,19.565143999999982,1291
50.08066399999991,18.917143999999983,1281
50.08066399999991,18.269143999999983,1347
52.0246639999999,22.805143999999984,1652
52.0246639999999,23.45314399999998,1690
51.37666399999991,19.565143999999982,1474
51.05266399999991,19.565143999999982,1393
50.72866399999991,18.917143999999983,1364
50.72866399999991,19.565143999999982,1425
49.75666399999992,18.917143999999983,1218
50.40466399999991,18.269143999999983,1164
53.64466399999989,19.565143999999982,1466
53.96866399999989,18.917143999999983,1378
53.64466399999989,18.917143999999983,1438
53.64466399999989,20.213143999999986,1529
52.996663999999896,18.917143999999983,1358
52.996663999999896,18.269143999999983,1264
53.32066399999989,18.917143999999983,1431
50.72866399999991,17.621143999999987,1101
50.72866399999991,18.269143999999983,1152
52.6726639999999,16.325143999999987,1122
52.996663999999896,16.325143999999987,1108
52.996663999999896,15.677143999999986,1082
53.32066399999989,15.677143999999986,1019
53.32066399999989,15.029143999999986,999
53.64466399999989,15.029143999999986,1005
53.96866399999989,15.029143999999986,1009
52.6726639999999,18.917143999999983,1378
53.32066399999989,16.325143999999987,1074
52.6726639999999,15.029143999999986,1010
51.05266399999991,22.805143999999984,1676
51.05266399999991,23.45314399999998,1721
50.72866399999991,22.15714399999998,1539
50.40466399999991,22.15714399999998,1523
51.05266399999991,22.15714399999998,1638
54.616663999999886,16.973143999999984,1207
54.29266399999989,16.325143999999987,1145
53.96866399999989,15.677143999999986,1098
50.72866399999991,21.50914399999997,1501
50.40466399999991,21.50914399999997,1459
50.40466399999991,17.621143999999987,1205
53.32066399999989,22.805143999999984,2237
53.64466399999989,22.15714399999998,1678
54.29266399999989,16.973143999999984,1184
50.72866399999991,20.86114399999998,1442
51.700663999999904,22.805143999999984,1788
51.05266399999991,21.50914399999997,1526
50.08066399999991,19.565143999999982,1295
52.0246639999999,18.917143999999983,3688
52.0246639999999,19.565143999999982,3681
53.64466399999989,18.269143999999983,1452
51.700663999999904,20.213143999999986,1614
53.32066399999989,19.565143999999982,1472
50.72866399999991,23.45314399999998,1801
50.72866399999991,22.805143999999984,1771
49.43266399999992,20.213143999999986,1379
49.75666399999992,21.50914399999997,1469
49.75666399999992,22.15714399999998,2262
49.43266399999992,22.15714399999998,1430
51.05266399999991,18.917143999999983,1376
51.05266399999991,18.269143999999983,1314
53.32066399999989,16.973143999999984,1310
53.64466399999989,16.973143999999984,1141
49.75666399999992,20.86114399999998,1388
50.40466399999991,22.805143999999984,3770
53.64466399999989,16.325143999999987,1084
53.96866399999989,20.86114399999998,1633
54.29266399999989,20.86114399999998,1679
53.96866399999989,21.50914399999997,1784
53.64466399999989,15.677143999999986,1037
53.96866399999989,20.213143999999986,1656
53.96866399999989,19.565143999999982,1454
54.29266399999989,19.565143999999982,1468
53.96866399999989,16.325143999999987,1184
53.64466399999989,17.621143999999987,1404
53.96866399999989,22.15714399999998,1698
53.64466399999989,21.50914399999997,1634
53.64466399999989,20.86114399999998,1586
52.6726639999999,15.677143999999986,1041
51.05266399999991,20.213143999999986,1835
54.940663999999884,24.101143999999977,65535
54.616663999999886,23.45314399999998,65535
54.29266399999989,23.45314399999998,65535
53.64466399999989,22.805143999999984,2260
53.96866399999989,16.973143999999984,1237
50.40466399999991,20.86114399999998,1523
53.32066399999989,18.269143999999983,1425
49.75666399999992,19.565143999999982,1342
50.40466399999991,23.45314399999998,1885
49.75666399999992,20.213143999999986,1357
49.43266399999992,19.565143999999982,1365
49.43266399999992,20.86114399999998,1355
53.96866399999989,17.621143999999987,1412
42.30466399999996,-1.8188560000000056,3999
41.98066399999996,-1.8188560000000056,3982
41.65666399999997,0.7731439999999932,3986
42.62866399999996,-1.8188560000000056,4114
42.95266399999996,-1.8188560000000056,4143
42.62866399999996,-3.114856000000005,4237
42.95266399999996,-2.4668560000000053,4215
42.62866399999996,-7.650856000000003,4579
42.30466399999996,-7.650856000000003,4639
42.30466399999996,-8.946856000000002,4775
42.30466399999996,-8.298856000000002,4749
41.98066399999996,-8.298856000000002,4738
42.30466399999996,-7.002856000000003,4521
42.62866399999996,-6.354856000000003,4463
42.30466399999996,-6.354856000000003,4418
42.62866399999996,-5.706856000000004,3918
41.98066399999996,-4.410856000000004,3872
42.30466399999996,-3.7628560000000046,4263
40.03666399999997,-0.5228560000000062,3966
39.38866399999998,-0.5228560000000062,4014
41.00866399999997,0.7731439999999932,4114
40.68466399999997,0.7731439999999932,4146
40.36066399999997,0.1251439999999934,4224
39.712663999999975,-0.5228560000000062,4123
38.41666399999998,-0.5228560000000062,4135
39.06466399999998,-0.5228560000000062,4257
38.74066399999998,-1.170856000000006,4143
41.332663999999966,0.7731439999999932,4174
41.65666399999997,2.717143999999992,3774
41.65666399999997,2.0691439999999925,3797
41.332663999999966,0.1251439999999934,4132
41.332663999999966,-0.5228560000000062,4076
41.65666399999997,-4.410856000000004,3846
40.03666399999997,-2.4668560000000053,4084
41.00866399999997,-4.410856000000004,3967
43.276663999999954,-5.706856000000004,4048
39.38866399999998,-1.170856000000006,4109
38.09266399999999,-1.170856000000006,4522
38.74066399999998,-0.5228560000000062,4285
37.76866399999999,-1.170856000000006,4587
39.06466399999998,-1.8188560000000056,4107
39.38866399999998,-3.114856000000005,4007
39.38866399999998,-2.4668560000000053,4063
39.06466399999998,-2.4668560000000053,4090
39.06466399999998,-3.114856000000005,4011
39.06466399999998,-3.7628560000000046,3985
38.74066399999998,-3.7628560000000046,4064
40.03666399999997,-3.7628560000000046,3963
40.03666399999997,-3.114856000000005,4163
40.03666399999997,-1.8188560000000056,4244
39.712663999999975,-1.8188560000000056,4209
39.712663999999975,-1.170856000000006,4145
40.36066399999997,-1.170856000000006,4164
40.68466399999997,-1.170856000000006,4142
41.00866399999997,-1.170856000000006,4130
41.332663999999966,-1.170856000000006,3970
43.276663999999954,-8.298856000000002,4739
42.95266399999996,-8.298856000000002,4707
41.65666399999997,-5.706856000000004,65535
41.98066399999996,-7.002856000000003,65535
41.98066399999996,-6.354856000000003,65535
41.332663999999966,-5.058856000000004,4085
43.276663999999954,-3.7628560000000046,4520
42.95266399999996,-4.410856000000004,4454
42.62866399999996,-4.410856000000004,4444
42.30466399999996,-4.410856000000004,4403
41.00866399999997,-5.706856000000004,4023
41.332663999999966,-1.8188560000000056,3916
40.68466399999997,-3.114856000000005,3870
41.00866399999997,-3.114856000000005,3921
41.00866399999997,-2.4668560000000053,3944
41.332663999999966,-2.4668560000000053,3997
40.68466399999997,-4.410856000000004,3907
40.36066399999997,-4.410856000000004,3991
40.68466399999997,-3.7628560000000046,3899
40.36066399999997,-3.114856000000005,3877
41.65666399999997,-2.4668560000000053,4014
38.09266399999999,-3.7628560000000046,4111
38.74066399999998,-3.114856000000005,4055
37.76866399999999,-3.7628560000000046,4168
39.712663999999975,-3.114856000000005,3999
38.41666399999998,-3.7628560000000046,4076
40.03666399999997,-4.410856000000004,65535
40.03666399999997,-5.058856000000004,65535
39.38866399999998,-6.354856000000003,65535
39.38866399999998,-7.002856000000003,65535
42.95266399999996,-3.114856000000005,4648
41.98066399999996,-1.170856000000006,4011
42.30466399999996,-2.4668560000000053,4052
41.65666399999997,-0.5228560000000062,4109
41.98066399999996,-0.5228560000000062,3946
41.65666399999997,0.1251439999999934,3973
41.98066399999996,0.1251439999999934,3995
37.76866399999999,-5.058856000000004,4047
36.79666399999999,-4.410856000000004,4106
38.74066399999998,-4.410856000000004,4003
37.12066399999999,-4.410856000000004,4080
37.44466399999999,-5.058856000000004,4604
37.44466399999999,-7.002856000000003,65535
37.44466399999999,-6.354856000000003,65535
37.44466399999999,-5.706856000000004,4280
39.712663999999975,-3.7628560000000046,4073
42.62866399999996,-8.946856000000002,65535
42.30466399999996,-5.706856000000004,4425
42.30466399999996,-5.058856000000004,4510
42.95266399999996,-5.706856000000004,3950
41.00866399999997,-5.058856000000004,3991
40.68466399999997,-5.058856000000004,3965
41.65666399999997,-5.058856000000004,65535
41.65666399999997,-6.354856000000003,65535
36.79666399999999,-6.354856000000003,65535
37.12066399999999,-5.706856000000004,4448
37.76866399999999,-5.706856000000004,4247
38.09266399999999,-4.410856000000004,4382
37.12066399999999,-5.058856000000004,4402
36.79666399999999,-5.058856000000004,4360
37.76866399999999,-4.410856000000004,65535
37.76866399999999,-7.002856000000003,65535
38.41666399999998,-6.354856000000003,65535
38.09266399999999,-6.354856000000003,65535
48.78466399999992,1.4211439999999929,321
56.23666399999988,8.54914399999999,2290
55.58866399999988,9.197143999999987,2095
55.91266399999988,9.197143999999987,2236
55.26466399999988,10.493143999999988,1972
55.91266399999988,12.437143999999988,2109
55.58866399999988,11.789143999999988,2115
55.58866399999988,11.141143999999988,2106
55.26466399999988,11.789143999999988,2124
55.58866399999988,10.493143999999988,2091
55.58866399999988,13.085143999999987,2085
56.88466399999987,9.845143999999989,2242
57.20866399999987,9.845143999999989,2277
56.56066399999988,9.845143999999989,2214
56.88466399999987,8.54914399999999,2329
54.940663999999884,9.845143999999989,3436
54.940663999999884,11.789143999999988,2192
55.91266399999988,13.085143999999987,2184
56.23666399999988,13.733143999999989,2228
55.91266399999988,13.733143999999989,2231
56.23666399999988,14.381143999999988,2251
56.23666399999988,15.029143999999986,2292
56.23666399999988,15.677143999999986,2347
56.56066399999988,14.381143999999988,2308
56.88466399999987,14.381143999999988,2278
56.23666399999988,13.085143999999987,2176
56.56066399999988,13.085143999999987,2256
56.88466399999987,12.437143999999988,2293
57.20866399999987,12.437143999999988,2309
57.53266399999987,12.437143999999988,2324
56.88466399999987,15.029143999999986,2304
56.56066399999988,15.677143999999986,2364
56.88466399999987,15.677143999999986,2383
56.88466399999987,16.325143999999987,2398
55.91266399999988,11.789143999999988,2261
57.20866399999987,10.493143999999988,2464
49.43266399999992,1.4211439999999929,326
49.75666399999992,0.7731439999999932,369
49.75666399999992,2.0691439999999925,314
50.08066399999991,2.717143999999992,357
49.75666399999992,1.4211439999999929,341
47.81266399999993,1.4211439999999929,294
48.136663999999925,2.0691439999999925,292
48.46066399999992,2.0691439999999925,264
48.136663999999925,1.4211439999999929,266
48.78466399999992,0.1251439999999934,1061
48.46066399999992,0.1251439999999934,1087
47.81266399999993,0.1251439999999934,1066
46.84066399999993,-0.5228560000000062,412
47.16466399999993,0.7731439999999932,1228
46.84066399999993,0.1251439999999934,1247
46.84066399999993,-1.170856000000006,967
50.08066399999991,1.4211439999999929,353
50.08066399999991,2.0691439999999925,964
49.43266399999992,2.717143999999992,254
49.75666399999992,3.365143999999992,283
50.08066399999991,3.365143999999992,1019
49.10866399999992,2.0691439999999925,274
49.43266399999992,2.0691439999999925,301
48.78466399999992,0.7731439999999932,1595
48.78466399999992,-0.5228560000000062,1091
48.78466399999992,-1.170856000000006,1122
48.136663999999925,0.7731439999999932,295
48.46066399999992,0.7731439999999932,240
43.92466399999995,5.957143999999991,956
44.24866399999995,5.957143999999991,926
43.92466399999995,5.309143999999991,860
42.95266399999996,2.717143999999992,317
45.54466399999994,2.0691439999999925,192
45.22066399999994,2.0691439999999925,128
42.95266399999996,2.0691439999999925,2377
42.95266399999996,0.7731439999999932,270
43.276663999999954,0.7731439999999932,254
46.19266399999994,0.7731439999999932,143
46.516663999999935,0.7731439999999932,1083
45.86866399999994,0.1251439999999934,1109
46.19266399999994,0.1251439999999934,1094
47.81266399999993,-1.170856000000006,1435
48.136663999999925,-2.4668560000000053,1143
47.48866399999993,-1.8188560000000056,398
47.16466399999993,-1.170856000000006,994
47.16466399999993,-0.5228560000000062,1027
46.84066399999993,-1.8188560000000056,1078
45.22066399999994,-0.5228560000000062,108
44.89666399999994,0.1251439999999934,28
45.22066399999994,0.7731439999999932,0
45.54466399999994,0.7731439999999932,36
45.86866399999994,0.7731439999999932,160
45.22066399999994,0.1251439999999934,111
44.89666399999994,0.7731439999999932,62
43.92466399999995,-0.5228560000000062,174
43.92466399999995,-1.170856000000006,139
44.24866399999995,-1.170856000000006,120
45.22066399999994,-1.170856000000006,138
44.572663999999946,-0.5228560000000062,162
44.24866399999995,0.1251439999999934,209
44.572663999999946,0.7731439999999932,272
43.276663999999954,-1.170856000000006,998
42.95266399999996,-0.5228560000000062,242
44.24866399999995,2.0691439999999925,319
43.60066399999995,0.7731439999999932,314
43.60066399999995,2.0691439999999925,320
52.6726639999999,4.661143999999991,2281
52.6726639999999,5.309143999999991,2304
51.700663999999904,5.309143999999991,2249
52.0246639999999,5.309143999999991,2261
52.3486639999999,5.309143999999991,2277
51.37666399999991,4.013143999999992,2257
52.3486639999999,5.957143999999991,2271
52.0246639999999,6.60514399999999,2301
52.6726639999999,5.957143999999991,2288
52.996663999999896,5.957143999999991,2301
53.32066399999989,5.957143999999991,2295
52.996663999999896,6.60514399999999,2277
53.32066399999989,6.60514399999999,2269
52.6726639999999,6.60514399999999,2297
52.996663999999896,5.309143999999991,2316
59.15266399999986,24.101143999999977,65535
56.88466399999987,24.101143999999977,65535
56.88466399999987,23.45314399999998,65535
56.88466399999987,22.805143999999984,65535
57.20866399999987,24.74914399999998,65535
56.88466399999987,24.74914399999998,65535
56.56066399999988,24.74914399999998,65535
56.56066399999988,25.397143999999983,65535
56.56066399999988,24.101143999999977,65535
56.56066399999988,23.45314399999998,65535
56.56066399999988,26.04514399999998,65535
56.88466399999987,26.04514399999998,65535
57.20866399999987,25.397143999999983,65535
57.53266399999987,25.397143999999983,65535
56.23666399999988,26.04514399999998,65535
56.23666399999988,26.69314399999997,65535
55.91266399999988,26.69314399999997,65535
56.56066399999988,26.69314399999997,65535
56.56066399999988,27.34114399999998,65535
56.56066399999988,27.989143999999985,65535
56.23666399999988,27.989143999999985,65535
55.91266399999988,27.34114399999998,65535
56.56066399999988,22.805143999999984,65535
56.56066399999988,22.15714399999998,65535
56.56066399999988,21.50914399999997,65535
57.20866399999987,26.69314399999997,65535
39.06466399999998,-8.946856000000002,65535
38.41666399999998,-8.298856000000002,65535
45.86866399999994,11.789143999999988,1468
46.19266399999994,11.789143999999988,1455
46.19266399999994,10.493143999999988,1440
45.22066399999994,18.269143999999983,2461
45.22066399999994,18.917143999999983,2535
45.54466399999994,16.973143999999984,2319
45.22066399999994,17.621143999999987,2396
45.86866399999994,16.325143999999987,2200
45.54466399999994,18.917143999999983,2575
45.54466399999994,16.325143999999987,2275
45.54466399999994,18.269143999999983,2553
44.89666399999994,18.917143999999983,2856
46.19266399999994,16.973143999999984,2220
46.19266399999994,16.325143999999987,2206
45.86866399999994,16.973143999999984,2237
45.86866399999994,17.621143999999987,2341
46.19266399999994,15.677143999999986,1113
46.516663999999935,16.325143999999987,1178
45.54466399999994,15.677143999999986,2180
45.22066399999994,15.029143999999986,2247
45.54466399999994,15.029143999999986,1161
45.22066399999994,15.677143999999986,2264
44.572663999999946,15.677143999999986,3019
44.24866399999995,15.677143999999986,3040
43.92466399999995,16.325143999999987,2931
44.89666399999994,15.677143999999986,2983
45.54466399999994,17.621143999999987,2528
45.22066399999994,16.325143999999987,2396
46.516663999999935,16.973143999999984,2277
45.86866399999994,18.269143999999983,2654
43.92466399999995,15.677143999999986,2730
45.22066399999994,13.733143999999989,2262
47.48866399999993,19.565143999999982,1372
47.16466399999993,18.917143999999983,2178
47.81266399999993,18.917143999999983,1321
45.54466399999994,9.845143999999989,859
45.22066399999994,9.845143999999989,868
45.22066399999994,10.493143999999988,919
45.86866399999994,9.845143999999989,896
45.86866399999994,10.493143999999988,2358
48.78466399999992,21.50914399999997,1359
49.10866399999992,20.213143999999986,1313
49.10866399999992,18.917143999999983,1206
48.46066399999992,17.621143999999987,1227
49.43266399999992,17.621143999999987,1093
49.10866399999992,17.621143999999987,1237
48.136663999999925,18.269143999999983,1278
49.10866399999992,18.269143999999983,1167
49.43266399999992,18.269143999999983,1124
49.43266399999992,16.973143999999984,1070
49.75666399999992,16.973143999999984,1041
49.75666399999992,16.325143999999987,1019
50.08066399999991,15.677143999999986,971
50.08066399999991,15.029143999999986,941
49.43266399999992,18.917143999999983,1195
47.81266399999993,20.86114399999998,1435
48.136663999999925,20.86114399999998,1466
48.46066399999992,20.86114399999998,1373
48.46066399999992,21.50914399999997,1369
49.10866399999992,19.565143999999982,1255
48.136663999999925,17.621143999999987,1226
48.78466399999992,22.15714399999998,1375
48.78466399999992,20.86114399999998,1407
49.10866399999992,20.86114399999998,1334
48.78466399999992,18.269143999999983,1210
48.78466399999992,17.621143999999987,1229
49.10866399999992,21.50914399999997,1349
48.78466399999992,20.213143999999986,1415
48.46066399999992,20.213143999999986,1456
48.136663999999925,19.565143999999982,1605
48.46066399999992,19.565143999999982,1484
48.46066399999992,18.917143999999983,1294
48.46066399999992,18.269143999999983,1223
48.78466399999992,19.565143999999982,1320
48.78466399999992,18.917143999999983,1288
47.81266399999993,18.269143999999983,1314
49.10866399999992,22.15714399999998,1416
49.43266399999992,21.50914399999997,1414
48.136663999999925,18.917143999999983,1306
48.136663999999925,20.213143999999986,1625
52.636,-8.018,65535
52.312,-7.370000000000001,65535
52.312,-8.018,65535
52.636,-8.666,65535
51.988,-8.666,65535
51.988,-8.018,65535
52.96,-8.666,65535
52.96,-6.074000000000002,65535
53.28399999999999,-6.722000000000001,65535
53.60799999999999,-6.722000000000001,65535
53.60799999999999,-7.370000000000001,65535
53.60799999999999,-8.018,65535
54.25599999999999,-8.666,65535
53.93199999999999,-8.666,65535
53.93199999999999,-8.018,65535
52.312,-6.722000000000001,65535
52.636,-6.722000000000001,65535
53.93199999999999,-6.722000000000001,65535
54.25599999999999,-6.074000000000002,65535
53.28399999999999,-7.370000000000001,65535
52.96,-7.370000000000001,65535
52.312,-8.666,65535
52.96,-8.018,65535
52.636,-7.370000000000001,65535
52.96,-6.722000000000001,65535
51.988,-9.314,65535
52.312,-9.314,65535
54.579999999999984,-6.722000000000001,65535
54.579999999999984,-6.074000000000002,65535
53.28399999999999,-8.018,65535
53.28399999999999,-8.666,65535
53.28399999999999,-9.314,65535
53.93199999999999,-9.314,65535
54.25599999999999,-9.314,65535
53.60799999999999,-8.666,65535
53.60799999999999,-9.314,65535
49.43266399999992,14.381143999999988,995
49.75666399999992,14.381143999999988,955
49.75666399999992,15.029143999999986,946
49.75666399999992,13.733143999999989,957
50.08066399999991,13.733143999999989,949
49.75666399999992,15.677143999999986,957
50.40466399999991,15.029143999999986,936
49.43266399999992,13.733143999999989,966
50.40466399999991,15.677143999999986,947
50.40466399999991,13.733143999999989,1006
46.19266399999994,15.029143999999986,1093
45.86866399999994,15.029143999999986,1152
45.86866399999994,14.381143999999988,1130
46.19266399999994,13.733143999999989,1185
45.86866399999994,13.733143999999989,1261
58.50466399999986,13.733143999999989,2401
58.180663999999865,13.733143999999989,2406
58.180663999999865,13.085143999999987,2378
57.85666399999987,12.437143999999988,2344
60.44866399999985,15.677143999999986,2627
60.124663999999854,15.677143999999986,2561
60.124663999999854,16.325143999999987,2599
59.800663999999855,16.325143999999987,2527
59.800663999999855,17.621143999999987,2506
59.47666399999986,18.269143999999983,2488
61.74466399999984,16.973143999999984,2638
61.420663999999846,16.973143999999984,2611
60.77266399999985,16.973143999999984,2563
65.63266399999982,22.15714399999998,3742
65.95666399999982,21.50914399999997,3702
65.63266399999982,20.86114399999998,3673
64.98466399999982,20.213143999999986,3605
64.66066399999983,20.213143999999986,3583
64.33666399999983,19.565143999999982,3277
64.01266399999983,19.565143999999982,2990
63.68866399999983,20.213143999999986,2943
64.66066399999983,18.917143999999983,3954
59.15266399999986,16.325143999999987,2463
59.15266399999986,15.029143999999986,2504
59.15266399999986,17.621143999999987,2480
57.53266399999987,14.381143999999988,2304
57.53266399999987,15.029143999999986,2324
61.09666399999985,14.381143999999988,2731
60.77266399999985,15.029143999999986,2682
60.44866399999985,15.029143999999986,2668
58.180663999999865,15.029143999999986,2381
58.50466399999986,16.325143999999987,2415
58.50466399999986,15.677143999999986,2388
63.36466399999984,13.085143999999987,2975
63.04066399999984,14.381143999999988,2912
62.39266399999984,15.677143999999986,2834
63.36466399999984,13.733143999999989,2957
63.36466399999984,14.381143999999988,2929
62.71666399999984,15.677143999999986,2862
62.39266399999984,17.621143999999987,2696
59.800663999999855,15.677143999999986,2973
55.58866399999988,13.733143999999989,2258
57.20866399999987,14.381143999999988,2288
57.85666399999987,14.381143999999988,2336
58.82866399999986,16.973143999999984,2472
58.82866399999986,16.325143999999987,2450
59.15266399999986,18.269143999999983,2484
60.44866399999985,17.621143999999987,2539
59.15266399999986,12.437143999999988,2443
59.15266399999986,13.085143999999987,2457
58.82866399999986,12.437143999999988,2419
59.47666399999986,16.325143999999987,2509
58.82866399999986,14.381143999999988,2496
59.47666399999986,15.677143999999986,2527
63.36466399999984,18.917143999999983,2896
63.04066399999984,17.621143999999987,2851
62.71666399999984,17.621143999999987,2825
63.68866399999983,19.565143999999982,2929
62.39266399999984,16.973143999999984,2740
59.800663999999855,16.973143999999984,2515
59.47666399999986,17.621143999999987,2492
57.85666399999987,13.085143999999987,2368
57.53266399999987,13.085143999999987,2349
58.50466399999986,11.789143999999988,2390
57.85666399999987,15.029143999999986,2370
57.20866399999987,13.733143999999989,2294
57.53266399999987,13.733143999999989,2355
61.74466399999984,16.325143999999987,2734
61.420663999999846,16.325143999999987,2701
61.09666399999985,16.325143999999987,2690
61.09666399999985,16.973143999999984,2658
60.124663999999854,15.029143999999986,2836
66.60466399999981,20.86114399999998,3777
67.25266399999981,20.86114399999998,3845
67.90066399999981,20.213143999999986,3915
67.57666399999981,20.213143999999986,4540
59.800663999999855,15.029143999999986,2556
58.50466399999986,15.029143999999986,2398
59.47666399999986,15.029143999999986,2541
60.44866399999985,16.325143999999987,2627
59.15266399999986,15.677143999999986,2485
57.85666399999987,13.733143999999989,2396
58.82866399999986,13.733143999999989,2443
58.50466399999986,13.085143999999987,2428
57.20866399999987,13.085143999999987,2325
56.88466399999987,13.085143999999987,2299
58.180663999999865,11.789143999999988,2361
62.06866399999984,16.973143999999984,2729
65.95666399999982,23.45314399999998,3783
59.800663999999855,14.381143999999988,65535
59.800663999999855,18.269143999999983,2497
63.04066399999984,15.029143999999986,2880
62.71666399999984,15.029143999999986,2870
62.39266399999984,16.325143999999987,2803
63.36466399999984,12.437143999999988,3008
68.5486639999998,17.621143999999987,4128
68.5486639999998,18.269143999999983,4061
68.5486639999998,18.917143999999983,4038
68.2246639999998,18.917143999999983,3994
59.800663999999855,13.085143999999987,2560
60.124663999999854,13.085143999999987,2599
59.47666399999986,16.973143999999984,2501
59.15266399999986,16.973143999999984,2493
56.56066399999988,13.733143999999989,2246
60.124663999999854,17.621143999999987,2516
57.85666399999987,16.325143999999987,2475
58.180663999999865,16.325143999999987,2437
58.180663999999865,15.677143999999986,2445
57.20866399999987,16.325143999999987,2487
57.53266399999987,15.677143999999986,2505
57.85666399999987,15.677143999999986,2476
44.89666399999994,23.45314399999998,2762
44.572663999999946,23.45314399999998,2827
44.89666399999994,24.74914399999998,2887
44.572663999999946,24.74914399999998,2908
44.572663999999946,24.101143999999977,2868
44.24866399999995,24.101143999999977,2890
47.48866399999993,25.397143999999983,2738
47.48866399999993,24.74914399999998,2668
47.16466399999993,24.74914399999998,2649
47.16466399999993,24.101143999999977,2604
47.48866399999993,22.15714399999998,2477
47.81266399999993,22.15714399999998,2641
47.16466399999993,22.15714399999998,2472
47.16466399999993,23.45314399999998,2811
47.16466399999993,22.805143999999984,2734
46.84066399999993,24.101143999999977,2431
45.86866399999994,27.34114399999998,2939
45.54466399999994,27.34114399999998,2919
45.54466399999994,27.989143999999985,2956
45.86866399999994,20.86114399999998,2780
45.86866399999994,21.50914399999997,2764
46.19266399999994,21.50914399999997,2720
46.19266399999994,27.34114399999998,2962
46.19266399999994,26.69314399999997,2968
46.516663999999935,26.69314399999997,2937
46.516663999999935,26.04514399999998,2932
47.48866399999993,22.805143999999984,2913
46.84066399999993,22.805143999999984,2449
45.54466399999994,22.15714399999998,2859
45.22066399999994,22.15714399999998,2881
44.89666399999994,22.15714399999998,2943
47.48866399999993,23.45314399999998,2806
46.516663999999935,24.101143999999977,2444
46.516663999999935,24.74914399999998,2669
45.86866399999994,24.101143999999977,2669
47.16466399999993,26.69314399999997,2899
47.16466399999993,27.34114399999998,3011
43.92466399999995,25.397143999999983,2954
44.24866399999995,24.74914399999998,2930
44.89666399999994,26.04514399999998,2828
44.89666399999994,26.69314399999997,2836
45.22066399999994,26.69314399999997,2853
45.22066399999994,27.34114399999998,2880
46.84066399999993,26.69314399999997,2954
47.48866399999993,26.69314399999997,2847
44.24866399999995,25.397143999999983,2878
43.92466399999995,26.04514399999998,2970
46.19266399999994,24.101143999999977,2491
44.572663999999946,25.397143999999983,2845
46.84066399999993,24.74914399999998,2798
46.516663999999935,21.50914399999997,2803
46.84066399999993,21.50914399999997,2544
44.572663999999946,26.69314399999997,2879
44.572663999999946,27.34114399999998,2914
44.89666399999994,27.34114399999998,2870
44.572663999999946,27.989143999999985,2935
44.24866399999995,27.989143999999985,2950
44.572663999999946,28.63714399999997,2990
45.86866399999994,22.15714399999998,2626
45.86866399999994,22.805143999999984,2594
44.24866399999995,23.45314399999998,2878
43.92466399999995,27.989143999999985,65535
46.84066399999993,27.34114399999998,3082
45.22066399999994,23.45314399999998,2728
45.54466399999994,23.45314399999998,2699
45.54466399999994,24.101143999999977,2699
45.22066399999994,24.101143999999977,2770
44.89666399999994,24.101143999999977,2825
46.19266399999994,22.15714399999998,2670
46.516663999999935,22.15714399999998,2765
45.22066399999994,21.50914399999997,2848
45.54466399999994,21.50914399999997,2768
45.54466399999994,20.86114399999998,2774
46.516663999999935,27.989143999999985,3084
46.19266399999994,27.989143999999985,3056
45.54466399999994,25.397143999999983,2726
45.22066399999994,25.397143999999983,2769
45.22066399999994,26.04514399999998,2879
47.81266399999993,24.101143999999977,3061
47.48866399999993,26.04514399999998,2832
47.81266399999993,26.04514399999998,2890
46.19266399999994,23.45314399999998,2489
45.86866399999994,23.45314399999998,2541
44.24866399999995,26.04514399999998,2858
45.22066399999994,27.989143999999985,2935
45.86866399999994,24.74914399999998,2702
46.516663999999935,25.397143999999983,2926
46.84066399999993,25.397143999999983,2870
46.19266399999994,26.04514399999998,2905
45.86866399999994,26.04514399999998,2764
43.92466399999995,23.45314399999998,2971
44.89666399999994,25.397143999999983,2835
46.19266399999994,20.86114399999998,2802
47.81266399999993,25.397143999999983,3147
44.572663999999946,22.805143999999984,2899
44.572663999999946,22.15714399999998,2965
46.516663999999935,23.45314399999998,2501
45.86866399999994,25.397143999999983,2692
44.24866399999995,27.34114399999998,3211
45.22066399999994,24.74914399999998,3051
45.54466399999994,22.805143999999984,2637
45.22066399999994,28.63714399999997,3061
44.89666399999994,28.63714399999997,3000
47.81266399999993,23.45314399999998,2768
46.19266399999994,24.74914399999998,2529
46.19266399999994,25.397143999999983,2584
43.92466399999995,24.101143999999977,3661
43.92466399999995,24.74914399999998,3674
47.81266399999993,26.69314399999997,3070
47.48866399999993,24.101143999999977,2989
46.84066399999993,26.04514399999998,3126
46.19266399999994,22.805143999999984,3087
47.48866399999993,27.34114399999998,3097
46.19266399999994,20.213143999999986,65535
45.54466399999994,26.04514399999998,2972
44.24866399999995,26.69314399999997,2886
45.86866399999994,27.989143999999985,3071
47.81266399999993,5.957143999999991,2266
