51.56399999999999,-0.4100000000000028,65535
51.887999999999984,-0.4100000000000028,65535
50.91599999999999,-1.7060000000000022,65535
51.23999999999999,-1.0580000000000025,65535
51.56399999999999,-1.0580000000000025,65535
51.23999999999999,-1.7060000000000022,65535
51.56399999999999,0.2379999999999968,65535
47.16466399999993,9.845143999999989,564
47.48866399999993,9.845143999999989,538
48.136663999999925,14.381143999999988,640
47.81266399999993,13.085143999999987,609
47.16466399999993,11.141143999999988,650
47.48866399999993,11.789143999999988,721
48.136663999999925,16.325143999999987,743
47.48866399999993,12.437143999999988,594
48.136663999999925,15.677143999999986,720
47.16466399999993,10.493143999999988,576
47.16466399999993,9.197143999999987,530
48.136663999999925,13.733143999999989,616
48.136663999999925,15.029143999999986,739
47.81266399999993,16.973143999999984,835
48.46066399999992,14.381143999999988,904
47.48866399999993,13.085143999999987,599
47.16466399999993,13.085143999999987,610
47.48866399999993,14.381143999999988,871
47.48866399999993,13.733143999999989,1404
47.48866399999993,15.029143999999986,1272
46.516663999999935,13.733143999999989,1574
46.84066399999993,13.733143999999989,1600
46.84066399999993,13.085143999999987,1605
48.78466399999992,14.381143999999988,65535
47.16466399999993,15.677143999999986,1304
46.516663999999935,14.381143999999988,1554
46.84066399999993,14.381143999999988,1495
47.16466399999993,14.381143999999988,1445
46.516663999999935,15.029143999999986,1567
47.81266399999993,16.325143999999987,751
47.16466399999993,15.029143999999986,1273
47.81266399999993,15.677143999999986,958
47.48866399999993,15.677143999999986,1244
46.516663999999935,13.085143999999987,1934
46.84066399999993,12.437143999999988,1619
48.136663999999925,11.789143999999988,537
47.81266399999993,12.437143999999988,557
46.84066399999993,15.677143999999986,1381
46.516663999999935,15.677143999999986,1621
46.84066399999993,16.325143999999987,1403
47.81266399999993,14.381143999999988,805
48.78466399999992,16.973143999999984,831
48.136663999999925,16.973143999999984,766
48.46066399999992,13.733143999999989,639
47.81266399999993,13.733143999999989,674
50.08066399999991,8.54914399999999,499
48.46066399999992,9.845143999999989,534
51.05266399999991,7.25314399999999,473
51.37666399999991,7.25314399999999,482
51.37666399999991,6.60514399999999,478
48.46066399999992,16.325143999999987,747
48.46066399999992,16.973143999999984,789
48.78466399999992,16.325143999999987,770
48.46066399999992,15.677143999999986,760
48.78466399999992,15.677143999999986,813
47.48866399999993,16.325143999999987,1029
47.16466399999993,16.325143999999987,1326
46.19266399999994,14.381143999999988,1566
45.86866399999994,15.677143999999986,1603
43.60066399999995,16.325143999999987,2200
45.54466399999994,14.381143999999988,1679
45.54466399999994,13.733143999999989,1701
48.136663999999925,13.085143999999987,596
48.46066399999992,11.141143999999988,534
48.136663999999925,11.141143999999988,543
48.46066399999992,7.90114399999999,461
49.10866399999992,8.54914399999999,484
48.78466399999992,2.0691439999999925,296
49.10866399999992,7.25314399999999,417
52.0246639999999,7.90114399999999,495
47.16466399999993,11.789143999999988,672
49.43266399999992,11.141143999999988,517
53.64466399999989,9.845143999999989,612
50.72866399999991,4.013143999999992,386
51.05266399999991,11.141143999999988,658
47.48866399999993,11.141143999999988,573
46.84066399999993,11.789143999999988,2102
46.516663999999935,11.141143999999988,2071
45.54466399999994,11.141143999999988,1965
46.19266399999994,11.141143999999988,2037
45.86866399999994,11.141143999999988,2021
44.572663999999946,11.141143999999988,1812
43.92466399999995,12.437143999999988,4445
45.54466399999994,12.437143999999988,2052
45.54466399999994,11.789143999999988,2015
48.78466399999992,15.029143999999986,852
47.81266399999993,15.029143999999986,750
47.81266399999993,11.141143999999988,549
50.40466399999991,18.917143999999983,1239
52.3486639999999,20.86114399999998,1484
54.616663999999886,18.269143999999983,1366
54.29266399999989,18.917143999999983,1365
49.10866399999992,14.381143999999988,65535
50.08066399999991,14.381143999999988,917
48.78466399999992,13.733143999999989,2216
52.6726639999999,13.085143999999987,658
52.3486639999999,13.085143999999987,655
53.96866399999989,12.437143999999988,756
54.29266399999989,12.437143999999988,757
47.48866399999993,8.54914399999999,519
47.81266399999993,17.621143999999987,1193
47.48866399999993,18.917143999999983,1200
47.48866399999993,20.86114399999998,1916
46.84066399999993,23.45314399999998,2398
44.572663999999946,26.04514399999998,2847
47.48866399999993,21.50914399999997,1952
47.81266399999993,21.50914399999997,2348
48.46066399999992,22.15714399999998,1477
47.48866399999993,16.973143999999984,65535
49.10866399999992,16.325143999999987,1047
49.75666399999992,18.269143999999983,1039
46.19266399999994,13.085143999999987,1650
41.98066399999996,12.437143999999988,3045
43.60066399999995,10.493143999999988,3206
45.54466399999994,9.197143999999987,516
47.81266399999993,22.805143999999984,2813
49.75666399999992,22.805143999999984,1411
50.72866399999991,3.365143999999992,378
51.05266399999991,4.013143999999992,391
50.72866399999991,4.661143999999991,392
51.05266399999991,4.661143999999991,396
51.05266399999991,3.365143999999992,390
51.05266399999991,2.717143999999992,400
50.40466399999991,4.661143999999991,394
50.72866399999991,2.717143999999992,394
50.40466399999991,4.013143999999992,406
51.05266399999991,5.309143999999991,399
50.72866399999991,5.309143999999991,411
51.37666399999991,3.365143999999992,396
51.37666399999991,4.661143999999991,401
50.72866399999991,5.957143999999991,428
50.40466399999991,5.957143999999991,432
50.40466399999991,3.365143999999992,393
50.40466399999991,5.309143999999991,399
50.08066399999991,5.309143999999991,409
49.75666399999992,5.309143999999991,421
49.75666399999992,5.957143999999991,439
51.37666399999991,5.309143999999991,445
51.700663999999904,4.661143999999991,438
50.08066399999991,4.013143999999992,424
50.08066399999991,5.957143999999991,441
50.08066399999991,4.661143999999991,415
49.43266399999992,5.309143999999991,458
49.43266399999992,5.957143999999991,471
52.0246639999999,4.661143999999991,470
52.3486639999999,4.661143999999991,499
50.72866399999991,15.029143999999986,844
51.05266399999991,15.029143999999986,706
51.05266399999991,13.733143999999989,675
50.40466399999991,13.085143999999987,587
49.10866399999992,7.90114399999999,477
48.78466399999992,7.90114399999999,468
50.40466399999991,7.90114399999999,496
50.08066399999991,7.90114399999999,472
49.75666399999992,7.90114399999999,469
49.43266399999992,7.90114399999999,455
49.75666399999992,8.54914399999999,504
49.43266399999992,8.54914399999999,497
49.43266399999992,9.197143999999987,528
49.10866399999992,9.197143999999987,489
47.48866399999993,7.90114399999999,512
47.81266399999993,7.90114399999999,485
48.136663999999925,7.90114399999999,482
48.136663999999925,9.845143999999989,544
47.81266399999993,9.197143999999987,517
47.81266399999993,8.54914399999999,512
47.81266399999993,9.845143999999989,527
54.940663999999884,9.197143999999987,719
54.616663999999886,9.197143999999987,685
54.29266399999989,9.197143999999987,671
53.96866399999989,9.197143999999987,656
53.64466399999989,9.197143999999987,603
54.616663999999886,9.845143999999989,712
54.29266399999989,9.845143999999989,701
53.96866399999989,9.845143999999989,618
53.64466399999989,10.493143999999988,622
53.96866399999989,10.493143999999988,638
53.96866399999989,11.141143999999988,734
54.29266399999989,10.493143999999988,658
53.32066399999989,10.493143999999988,635
54.940663999999884,11.141143999999988,769
52.6726639999999,13.733143999999989,659
52.3486639999999,13.733143999999989,659
52.3486639999999,14.381143999999988,667
52.0246639999999,14.381143999999988,680
52.0246639999999,11.789143999999988,614
52.3486639999999,11.789143999999988,609
52.3486639999999,12.437143999999988,638
52.0246639999999,15.029143999999986,825
51.700663999999904,14.381143999999988,698
52.0246639999999,13.733143999999989,685
51.700663999999904,13.733143999999989,679
52.6726639999999,12.437143999999988,702
53.32066399999989,11.789143999999988,694
53.96866399999989,11.789143999999988,748
53.64466399999989,11.789143999999988,724
53.64466399999989,11.141143999999988,702
53.32066399999989,11.141143999999988,675
52.996663999999896,11.789143999999988,692
52.996663999999896,12.437143999999988,744
52.996663999999896,13.733143999999989,664
53.64466399999989,13.733143999999989,736
53.96866399999989,13.733143999999989,770
54.29266399999989,13.085143999999987,812
53.96866399999989,13.085143999999987,797
53.32066399999989,13.733143999999989,707
52.0246639999999,13.085143999999987,709
51.700663999999904,13.085143999999987,706
52.996663999999896,14.381143999999988,681
52.0246639999999,12.437143999999988,653
51.700663999999904,12.437143999999988,648
51.37666399999991,11.789143999999988,634
51.37666399999991,12.437143999999988,647
52.6726639999999,11.789143999999988,650
53.64466399999989,13.085143999999987,763
53.32066399999989,13.085143999999987,705
52.996663999999896,13.085143999999987,678
53.64466399999989,12.437143999999988,748
51.37666399999991,13.733143999999989,671
53.32066399999989,12.437143999999988,776
52.6726639999999,14.381143999999988,673
51.37666399999991,13.085143999999987,659
53.32066399999989,14.381143999999988,707
52.3486639999999,15.029143999999986,727
52.0246639999999,15.677143999999986,773
51.700663999999904,15.029143999999986,745
51.05266399999991,16.325143999999987,753
51.05266399999991,16.973143999999984,764
51.700663999999904,15.677143999999986,794
51.37666399999991,15.677143999999986,712
51.37666399999991,16.325143999999987,745
50.72866399999991,13.085143999999987,596
50.72866399999991,12.437143999999988,590
51.05266399999991,13.085143999999987,613
51.05266399999991,14.381143999999988,691
50.40466399999991,12.437143999999988,578
50.40466399999991,11.789143999999988,572
50.08066399999991,12.437143999999988,556
50.72866399999991,11.789143999999988,591
51.05266399999991,12.437143999999988,619
50.72866399999991,14.381143999999988,912
51.37666399999991,14.381143999999988,683
50.72866399999991,13.733143999999989,657
50.40466399999991,14.381143999999988,902
51.37666399999991,15.029143999999986,705
55.26466399999988,9.197143999999987,828
55.58866399999988,8.54914399999999,3562
55.91266399999988,8.54914399999999,7039
56.23666399999988,9.197143999999987,7047
56.23666399999988,10.493143999999988,7000
56.23666399999988,9.845143999999989,6987
55.91266399999988,9.845143999999989,6925
56.56066399999988,9.197143999999987,7057
56.56066399999988,8.54914399999999,7100
51.05266399999991,6.60514399999999,475
51.700663999999904,7.90114399999999,488
50.72866399999991,6.60514399999999,456
51.700663999999904,7.25314399999999,485
50.72866399999991,7.25314399999999,476
52.0246639999999,7.25314399999999,511
52.3486639999999,7.90114399999999,507
51.05266399999991,5.957143999999991,462
50.40466399999991,7.25314399999999,491
51.700663999999904,6.60514399999999,487
51.700663999999904,5.957143999999991,488
52.3486639999999,9.197143999999987,549
51.700663999999904,8.54914399999999,522
52.0246639999999,8.54914399999999,528
52.3486639999999,8.54914399999999,526
51.37666399999991,7.90114399999999,493
52.3486639999999,7.25314399999999,561
51.37666399999991,5.957143999999991,521
50.72866399999991,7.90114399999999,481
51.37666399999991,9.197143999999987,544
51.700663999999904,9.197143999999987,533
50.40466399999991,6.60514399999999,466
51.05266399999991,7.90114399999999,495
51.37666399999991,8.54914399999999,522
52.0246639999999,5.957143999999991,531
52.3486639999999,6.60514399999999,596
51.05266399999991,8.54914399999999,524
52.0246639999999,9.197143999999987,549
52.6726639999999,9.197143999999987,570
52.0246639999999,9.845143999999989,546
51.700663999999904,9.845143999999989,568
51.37666399999991,9.845143999999989,586
50.72866399999991,8.54914399999999,510
51.05266399999991,9.845143999999989,591
50.72866399999991,9.845143999999989,556
50.40466399999991,9.845143999999989,535
51.05266399999991,9.197143999999987,560
50.40466399999991,9.197143999999987,513
50.08066399999991,9.197143999999987,503
51.05266399999991,10.493143999999988,682
50.40466399999991,8.54914399999999,500
50.72866399999991,9.197143999999987,520
49.75666399999992,9.197143999999987,520
52.996663999999896,9.197143999999987,577
52.3486639999999,9.845143999999989,557
52.996663999999896,8.54914399999999,566
52.996663999999896,7.90114399999999,593
53.32066399999989,7.90114399999999,703
53.32066399999989,7.25314399999999,733
53.64466399999989,7.25314399999999,778
52.996663999999896,10.493143999999988,623
52.6726639999999,10.493143999999988,616
52.6726639999999,9.845143999999989,570
53.32066399999989,9.845143999999989,616
53.32066399999989,9.197143999999987,627
53.64466399999989,8.54914399999999,592
53.32066399999989,8.54914399999999,569
52.6726639999999,8.54914399999999,543
52.0246639999999,10.493143999999988,573
52.0246639999999,11.141143999999988,587
51.700663999999904,11.141143999999988,640
52.6726639999999,7.25314399999999,905
52.996663999999896,7.25314399999999,879
52.6726639999999,7.90114399999999,607
53.64466399999989,7.90114399999999,851
52.996663999999896,11.141143999999988,663
52.6726639999999,11.141143999999988,658
52.3486639999999,10.493143999999988,568
52.996663999999896,9.845143999999989,636
51.700663999999904,10.493143999999988,678
51.37666399999991,10.493143999999988,703
51.700663999999904,11.789143999999988,621
52.3486639999999,11.141143999999988,579
51.37666399999991,11.141143999999988,657
51.05266399999991,11.789143999999988,642
49.10866399999992,11.141143999999988,509
48.78466399999992,11.141143999999988,521
48.46066399999992,11.789143999999988,530
49.43266399999992,11.789143999999988,523
50.08066399999991,11.789143999999988,542
49.75666399999992,12.437143999999988,553
49.10866399999992,11.789143999999988,523
48.78466399999992,12.437143999999988,564
48.46066399999992,12.437143999999988,552
49.10866399999992,12.437143999999988,547
48.78466399999992,13.085143999999987,591
48.136663999999925,12.437143999999988,583
47.81266399999993,11.789143999999988,549
48.136663999999925,10.493143999999988,573
47.81266399999993,10.493143999999988,585
48.78466399999992,10.493143999999988,509
47.48866399999993,10.493143999999988,602
48.46066399999992,10.493143999999988,540
49.43266399999992,13.085143999999987,836
48.46066399999992,13.085143999999987,611
49.43266399999992,10.493143999999988,515
49.75666399999992,9.845143999999989,520
49.75666399999992,10.493143999999988,528
50.40466399999991,11.141143999999988,548
50.08066399999991,11.141143999999988,538
50.72866399999991,11.141143999999988,582
49.75666399999992,11.141143999999988,524
48.78466399999992,11.789143999999988,538
50.40466399999991,10.493143999999988,583
50.08066399999991,9.845143999999989,515
50.08066399999991,10.493143999999988,531
49.43266399999992,12.437143999999988,561
49.75666399999992,11.789143999999988,533
49.10866399999992,13.085143999999987,633
50.72866399999991,10.493143999999988,7075
49.10866399999992,10.493143999999988,507
48.78466399999992,9.845143999999989,490
48.46066399999992,8.54914399999999,494
48.46066399999992,9.197143999999987,490
48.78466399999992,9.197143999999987,485
48.78466399999992,8.54914399999999,478
50.08066399999991,7.25314399999999,471
49.75666399999992,6.60514399999999,452
49.43266399999992,6.60514399999999,466
49.10866399999992,6.60514399999999,446
49.43266399999992,7.25314399999999,431
49.75666399999992,7.25314399999999,471
49.10866399999992,5.957143999999991,424
48.78466399999992,7.25314399999999,461
50.08066399999991,6.60514399999999,462
47.48866399999993,9.197143999999987,525
48.136663999999925,8.54914399999999,500
48.136663999999925,9.197143999999987,512
47.81266399999993,7.25314399999999,492
49.43266399999992,9.845143999999989,525
49.10866399999992,9.845143999999989,500
53.64466399999989,14.381143999999988,743
50.08066399999991,13.085143999999987,1241
49.75666399999992,13.085143999999987,1030
45.86866399999994,9.197143999999987,552
46.19266399999994,9.197143999999987,573
46.516663999999935,8.54914399999999,590
46.516663999999935,9.197143999999987,583
46.19266399999994,8.54914399999999,565
47.16466399999993,8.54914399999999,525
45.86866399999994,4.661143999999991,355
46.84066399999993,9.845143999999989,552
45.22066399999994,5.957143999999991,390
45.22066399999994,5.309143999999991,378
45.86866399999994,5.957143999999991,449
45.54466399999994,5.957143999999991,402
44.89666399999994,4.661143999999991,330
44.89666399999994,5.309143999999991,348
44.572663999999946,4.661143999999991,355
44.24866399999995,4.661143999999991,322
43.92466399999995,4.661143999999991,279
46.19266399999994,7.25314399999999,518
48.78466399999992,5.957143999999991,442
48.136663999999925,6.60514399999999,491
48.46066399999992,6.60514399999999,470
48.78466399999992,6.60514399999999,463
47.16466399999993,7.90114399999999,527
48.136663999999925,7.25314399999999,476
48.46066399999992,7.25314399999999,474
46.516663999999935,6.60514399999999,509
46.84066399999993,6.60514399999999,517
46.84066399999993,7.25314399999999,536
46.516663999999935,5.957143999999991,523
46.19266399999994,5.957143999999991,484
46.84066399999993,8.54914399999999,531
46.84066399999993,7.90114399999999,540
45.86866399999994,5.309143999999991,375
46.19266399999994,6.60514399999999,499
45.86866399999994,6.60514399999999,523
47.48866399999993,6.60514399999999,514
47.48866399999993,7.25314399999999,509
47.16466399999993,7.25314399999999,531
49.10866399999992,4.013143999999992,398
49.75666399999992,4.661143999999991,477
49.43266399999992,4.661143999999991,472
49.10866399999992,5.309143999999991,425
46.19266399999994,4.661143999999991,361
46.84066399999993,9.197143999999987,534
46.19266399999994,5.309143999999991,414
46.516663999999935,5.309143999999991,460
45.54466399999994,6.60514399999999,414
45.54466399999994,5.309143999999991,379
43.60066399999995,4.013143999999992,224
43.60066399999995,3.365143999999992,197
42.62866399999996,2.717143999999992,222
43.276663999999954,2.717143999999992,158
45.54466399999994,4.661143999999991,363
45.22066399999994,4.661143999999991,340
47.16466399999993,5.309143999999991,439
47.16466399999993,5.957143999999991,472
46.19266399999994,7.90114399999999,536
49.75666399999992,2.717143999999992,419
49.10866399999992,2.717143999999992,365
48.78466399999992,2.717143999999992,387
45.86866399999994,3.365143999999992,480
46.84066399999993,3.365143999999992,418
46.516663999999935,3.365143999999992,450
46.19266399999994,3.365143999999992,476
47.16466399999993,6.60514399999999,524
49.10866399999992,3.365143999999992,391
45.54466399999994,4.013143999999992,409
46.516663999999935,7.25314399999999,523
47.16466399999993,4.661143999999991,418
46.84066399999993,4.661143999999991,397
46.516663999999935,4.661143999999991,381
46.84066399999993,5.957143999999991,485
47.81266399999993,3.365143999999992,409
47.48866399999993,4.013143999999992,466
48.136663999999925,4.013143999999992,429
47.81266399999993,4.013143999999992,441
47.48866399999993,4.661143999999991,474
47.16466399999993,3.365143999999992,431
46.84066399999993,4.013143999999992,440
48.46066399999992,5.957143999999991,513
46.19266399999994,2.717143999999992,503
47.16466399999993,2.0691439999999925,391
46.516663999999935,2.717143999999992,506
46.84066399999993,2.717143999999992,487
46.84066399999993,2.0691439999999925,424
47.16466399999993,2.717143999999992,414
44.572663999999946,5.309143999999991,440
44.572663999999946,5.957143999999991,408
44.89666399999994,6.60514399999999,447
44.572663999999946,6.60514399999999,544
43.60066399999995,5.309143999999991,306
43.92466399999995,7.25314399999999,424
43.60066399999995,6.60514399999999,412
43.276663999999954,6.60514399999999,420
43.276663999999954,5.957143999999991,316
45.86866399999994,8.54914399999999,540
45.54466399999994,8.54914399999999,522
48.136663999999925,3.365143999999992,390
48.46066399999992,3.365143999999992,398
48.46066399999992,2.717143999999992,431
47.48866399999993,5.309143999999991,528
46.516663999999935,9.845143999999989,584
46.84066399999993,10.493143999999988,1331
47.81266399999993,5.309143999999991,504
45.22066399999994,6.60514399999999,441
46.19266399999994,4.013143999999992,437
45.86866399999994,4.013143999999992,410
45.22066399999994,4.013143999999992,420
44.89666399999994,4.013143999999992,443
46.84066399999993,5.309143999999991,450
48.136663999999925,-1.8188560000000056,385
48.136663999999925,0.1251439999999934,386
48.136663999999925,-0.5228560000000062,423
47.48866399999993,-0.5228560000000062,433
47.16466399999993,-1.8188560000000056,474
47.48866399999993,0.7731439999999932,338
47.16466399999993,0.1251439999999934,376
45.86866399999994,7.25314399999999,529
48.136663999999925,5.309143999999991,481
49.10866399999992,4.661143999999991,445
48.46066399999992,4.013143999999992,410
48.136663999999925,4.661143999999991,447
47.81266399999993,6.60514399999999,523
47.48866399999993,5.957143999999991,551
48.136663999999925,5.957143999999991,663
45.86866399999994,7.90114399999999,554
46.516663999999935,7.90114399999999,557
49.43266399999992,3.365143999999992,408
49.43266399999992,4.013143999999992,410
48.136663999999925,2.717143999999992,430
47.81266399999993,2.717143999999992,441
47.48866399999993,2.717143999999992,460
50.40466399999991,2.717143999999992,423
48.46066399999992,-4.410856000000004,515
48.46066399999992,-3.7628560000000046,479
48.46066399999992,-3.114856000000005,450
48.46066399999992,-2.4668560000000053,433
47.48866399999993,1.4211439999999929,359
47.16466399999993,1.4211439999999929,370
46.516663999999935,4.013143999999992,445
43.60066399999995,4.661143999999991,329
44.89666399999994,2.717143999999992,290
45.22066399999994,2.717143999999992,359
45.54466399999994,3.365143999999992,441
45.22066399999994,3.365143999999992,416
47.48866399999993,3.365143999999992,526
46.19266399999994,9.845143999999989,622
47.81266399999993,2.0691439999999925,438
47.48866399999993,2.0691439999999925,500
45.86866399999994,2.717143999999992,494
44.89666399999994,5.957143999999991,510
45.22066399999994,1.4211439999999929,226
44.89666399999994,1.4211439999999929,182
44.89666399999994,2.0691439999999925,241
43.276663999999954,2.0691439999999925,118
43.60066399999995,1.4211439999999929,53
48.78466399999992,4.661143999999991,513
48.78466399999992,5.309143999999991,492
46.19266399999994,2.0691439999999925,422
45.86866399999994,1.4211439999999929,289
46.19266399999994,1.4211439999999929,357
44.572663999999946,4.013143999999992,353
44.89666399999994,3.365143999999992,416
43.92466399999995,4.013143999999992,270
44.24866399999995,4.013143999999992,287
44.89666399999994,-0.5228560000000062,160
45.54466399999994,0.1251439999999934,202
46.516663999999935,0.1251439999999934,244
44.572663999999946,2.0691439999999925,176
49.75666399999992,4.013143999999992,458
43.92466399999995,3.365143999999992,627
43.92466399999995,2.717143999999992,588
44.24866399999995,3.365143999999992,538
44.572663999999946,3.365143999999992,417
49.10866399999992,0.1251439999999934,442
49.43266399999992,0.7731439999999932,415
49.43266399999992,-1.8188560000000056,476
49.10866399999992,-1.170856000000006,451
49.10866399999992,-0.5228560000000062,417
49.10866399999992,0.7731439999999932,445
49.10866399999992,1.4211439999999929,345
47.81266399999993,-1.8188560000000056,510
47.81266399999993,-2.4668560000000053,447
47.81266399999993,-3.114856000000005,460
48.136663999999925,-3.7628560000000046,517
44.572663999999946,9.197143999999987,536
44.89666399999994,8.54914399999999,507
45.22066399999994,9.197143999999987,505
45.54466399999994,10.493143999999988,547
44.572663999999946,10.493143999999988,1798
44.89666399999994,10.493143999999988,613
44.89666399999994,9.845143999999989,565
48.46066399999992,5.309143999999991,560
50.91599999999999,-1.0580000000000025,65535
51.23999999999999,-0.4100000000000028,65535
50.91599999999999,-0.4100000000000028,65535
51.23999999999999,-2.354000000000002,65535
51.56399999999999,-2.354000000000002,65535
51.56399999999999,-3.0020000000000016,65535
50.91599999999999,-2.354000000000002,65535
53.50799999999997,-3.0020000000000016,65535
53.183999999999976,-2.354000000000002,65535
53.183999999999976,-3.0020000000000016,65535
52.85999999999998,-2.354000000000002,65535
52.21199999999998,-1.0580000000000025,65535
51.887999999999984,-1.0580000000000025,65535
52.53599999999998,-1.0580000000000025,65535
52.53599999999998,-1.7060000000000022,65535
52.85999999999998,-1.7060000000000022,65535
53.50799999999997,-2.354000000000002,65535
52.85999999999998,-1.0580000000000025,65535
52.53599999999998,1.5339999999999965,65535
52.53599999999998,0.8859999999999966,65535
52.53599999999998,0.2379999999999968,65535
52.53599999999998,-0.4100000000000028,65535
53.50799999999997,-1.7060000000000022,65535
53.183999999999976,-1.7060000000000022,65535
53.183999999999976,-1.0580000000000025,65535
52.85999999999998,-0.4100000000000028,65535
51.887999999999984,-2.354000000000002,65535
52.21199999999998,-2.354000000000002,65535
55.77599999999996,-2.354000000000002,65535
53.83199999999997,-1.0580000000000025,65535
53.83199999999997,-1.7060000000000022,65535
55.127999999999965,-1.7060000000000022,65535
54.80399999999997,-1.7060000000000022,65535
54.47999999999997,-1.7060000000000022,65535
54.15599999999997,-1.0580000000000025,65535
52.21199999999998,-1.7060000000000022,65535
53.50799999999997,-1.0580000000000025,65535
55.77599999999996,-3.0020000000000016,65535
55.45199999999996,-1.7060000000000022,65535
57.07199999999995,-2.354000000000002,65535
56.74799999999996,-3.0020000000000016,65535
56.42399999999996,-3.0020000000000016,65535
56.09999999999996,-3.650000000000001,65535
50.91599999999999,-3.0020000000000016,65535
50.91599999999999,-3.650000000000001,65535
50.59199999999999,-3.650000000000001,65535
50.59199999999999,-4.298000000000001,65535
51.23999999999999,-3.0020000000000016,65535
50.268,-4.946000000000001,65535
55.77599999999996,-3.650000000000001,65535
55.77599999999996,-4.298000000000001,65535
52.21199999999998,-0.4100000000000028,65535
52.53599999999998,-2.354000000000002,65535
51.56399999999999,-1.7060000000000022,65535
51.56399999999999,-3.650000000000001,65535
51.887999999999984,-4.298000000000001,65535
51.56399999999999,-4.298000000000001,65535
51.887999999999984,-1.7060000000000022,65535
52.21199999999998,-3.0020000000000016,65535
51.23999999999999,0.2379999999999968,65535
50.91599999999999,0.2379999999999968,65535
52.21199999999998,0.2379999999999968,65535
53.83199999999997,-3.0020000000000016,65535
54.15599999999997,-3.0020000000000016,65535
54.47999999999997,-3.0020000000000016,65535
55.127999999999965,-3.650000000000001,65535
54.80399999999997,-3.0020000000000016,65535
53.83199999999997,-2.354000000000002,65535
54.15599999999997,-0.4100000000000028,65535
54.47999999999997,-1.0580000000000025,65535
53.83199999999997,-0.4100000000000028,65535
53.183999999999976,-3.650000000000001,65535
53.183999999999976,-4.298000000000001,65535
52.85999999999998,-3.0020000000000016,65535
52.53599999999998,-3.0020000000000016,65535
51.887999999999984,-3.0020000000000016,65535
51.23999999999999,0.8859999999999966,65535
51.887999999999984,0.2379999999999968,65535
52.21199999999998,0.8859999999999966,65535
51.887999999999984,-4.946000000000001,65535
52.53599999999998,-3.650000000000001,65535
52.21199999999998,-4.298000000000001,65535
53.183999999999976,-0.4100000000000028,65535
51.23999999999999,-3.650000000000001,65535
51.887999999999984,-3.650000000000001,65535
52.21199999999998,-3.650000000000001,65535
51.56399999999999,0.8859999999999966,65535
51.887999999999984,0.8859999999999966,65535
52.85999999999998,0.8859999999999966,65535
53.50799999999997,-0.4100000000000028,65535
56.09999999999996,-4.298000000000001,65535
56.74799999999996,-4.946000000000001,65535
56.74799999999996,-4.298000000000001,65535
56.42399999999996,-4.946000000000001,65535
56.42399999999996,-4.298000000000001,65535
56.09999999999996,-4.946000000000001,65535
57.39599999999995,-4.298000000000001,65535
57.39599999999995,-3.0020000000000016,65535
57.39599999999995,-3.650000000000001,65535
56.42399999999996,-3.650000000000001,65535
57.07199999999995,-3.650000000000001,65535
57.07199999999995,-4.298000000000001,65535
56.74799999999996,-3.650000000000001,65535
59.15266399999986,27.34114399999998,65535
59.47666399999986,26.69314399999997,65535
59.47666399999986,26.04514399999998,65535
59.15266399999986,26.04514399999998,65535
59.15266399999986,24.74914399999998,65535
59.15266399999986,25.397143999999983,65535
59.47666399999986,25.397143999999983,65535
58.50466399999986,26.69314399999997,65535
58.82866399999986,26.69314399999997,65535
57.85666399999987,26.04514399999998,65535
58.180663999999865,26.04514399999998,65535
58.180663999999865,26.69314399999997,65535
58.82866399999986,26.04514399999998,65535
58.50466399999986,25.397143999999983,65535
58.82866399999986,25.397143999999983,65535
58.82866399999986,24.74914399999998,65535
58.180663999999865,27.34114399999998,65535
57.85666399999987,27.34114399999998,65535
63.68866399999983,27.34114399999998,7557
60.124663999999854,24.74914399999998,4213
60.44866399999985,24.74914399999998,4182
60.44866399999985,25.397143999999983,4194
60.77266399999985,25.397143999999983,4905
61.09666399999985,26.04514399999998,4948
60.77266399999985,26.04514399999998,4956
60.77266399999985,26.69314399999997,4975
61.09666399999985,25.397143999999983,4939
61.09666399999985,26.69314399999997,7678
61.420663999999846,26.69314399999997,7700
61.74466399999984,27.34114399999998,7724
62.06866399999984,27.34114399999998,7749
62.39266399999984,27.34114399999998,7773
62.71666399999984,27.34114399999998,7737
64.01266399999983,27.34114399999998,7513
63.36466399999984,27.34114399999998,7625
63.04066399999984,27.34114399999998,7665
63.04066399999984,27.989143999999985,7680
64.33666399999983,27.989143999999985,5264
64.33666399999983,27.34114399999998,5209
64.66066399999983,27.34114399999998,5194
64.66066399999983,26.69314399999997,5139
64.98466399999982,25.397143999999983,3559
64.66066399999983,26.04514399999998,5120
64.98466399999982,26.04514399999998,5104
66.28066399999982,25.397143999999983,3731
65.95666399999982,24.74914399999998,3472
65.63266399999982,24.74914399999998,3476
65.63266399999982,25.397143999999983,3518
65.30866399999982,25.397143999999983,3539
66.60466399999981,25.397143999999983,3765
64.01266399999983,24.74914399999998,3696
64.01266399999983,24.101143999999977,3731
64.01266399999983,23.45314399999998,3755
63.68866399999983,23.45314399999998,3767
63.68866399999983,22.805143999999984,3792
63.68866399999983,26.04514399999998,5824
63.68866399999983,25.397143999999983,5790
63.68866399999983,26.69314399999997,7524
60.44866399999985,26.69314399999997,8309
64.01266399999983,27.989143999999985,7943
62.71666399999984,22.805143999999984,3914
62.39266399999984,22.805143999999984,3946
62.06866399999984,22.805143999999984,3975
62.06866399999984,23.45314399999998,3991
61.74466399999984,23.45314399999998,4003
61.420663999999846,23.45314399999998,4051
61.09666399999985,23.45314399999998,4092
61.09666399999985,24.101143999999977,4099
61.09666399999985,24.74914399999998,4133
60.77266399999985,24.74914399999998,4149
63.04066399999984,21.50914399999997,65535
63.04066399999984,22.15714399999998,65535
63.04066399999984,22.805143999999984,3878
62.39266399999984,26.04514399999998,7921
62.06866399999984,25.397143999999983,7970
61.74466399999984,25.397143999999983,8038
61.74466399999984,24.74914399999998,8075
61.74466399999984,24.101143999999977,4280
61.420663999999846,24.101143999999977,4235
62.39266399999984,26.69314399999997,7892
64.66066399999983,25.397143999999983,3628
64.66066399999983,24.74914399999998,3646
64.33666399999983,24.74914399999998,3657
63.36466399999984,22.805143999999984,3817
67.25266399999981,24.101143999999977,7345
66.92866399999981,24.101143999999977,7309
66.60466399999981,23.45314399999998,7278
66.28066399999982,23.45314399999998,7260
66.28066399999982,24.101143999999977,7242
65.95666399999982,24.101143999999977,2844
60.124663999999854,24.101143999999977,5727
60.124663999999854,23.45314399999998,6585
60.44866399999985,22.805143999999984,6644
60.77266399999985,27.34114399999998,5027
61.09666399999985,27.989143999999985,5057
61.09666399999985,28.63714399999997,5095
61.420663999999846,29.28514399999997,5130
61.74466399999984,29.933143999999977,5167
62.06866399999984,29.933143999999977,5193
62.39266399999984,29.933143999999977,5209
62.71666399999984,29.933143999999977,5233
61.420663999999846,22.805143999999984,6338
61.420663999999846,22.15714399999998,7046
61.09666399999985,22.15714399999998,6384
61.420663999999846,21.50914399999997,7179
62.39266399999984,27.989143999999985,65535
62.06866399999984,27.989143999999985,65535
61.420663999999846,27.34114399999998,65535
63.04066399999984,29.933143999999977,7172
63.68866399999983,29.28514399999997,8955
63.36466399999984,29.28514399999997,8935
63.36466399999984,29.933143999999977,8894
60.44866399999985,27.34114399999998,65535
61.74466399999984,29.28514399999997,65535
62.39266399999984,30.58114399999998,65535
62.71666399999984,31.229143999999977,65535
62.71666399999984,29.28514399999997,65535
63.04066399999984,28.63714399999997,65535
66.60466399999981,26.04514399999998,6586
66.60466399999981,26.69314399999997,6622
66.60466399999981,27.34114399999998,6645
62.71666399999984,26.04514399999998,7806
62.71666399999984,25.397143999999983,7775
63.04066399999984,25.397143999999983,7595
63.36466399999984,25.397143999999983,6232
62.71666399999984,23.45314399999998,7800
62.39266399999984,24.101143999999977,65535
62.71666399999984,22.15714399999998,65535
62.39266399999984,22.15714399999998,65535
62.39266399999984,21.50914399999997,65535
61.09666399999985,21.50914399999997,6414
60.77266399999985,22.805143999999984,4452
60.44866399999985,22.15714399999998,4482
60.77266399999985,23.45314399999998,4439
60.77266399999985,21.50914399999997,5553
60.77266399999985,22.15714399999998,5506
60.124663999999854,22.805143999999984,8599
60.44866399999985,24.101143999999977,5712
62.06866399999984,24.74914399999998,65535
50.72866399999991,16.325143999999987,811
50.40466399999991,16.973143999999984,798
50.72866399999991,16.973143999999984,783
50.40466399999991,16.325143999999987,838
50.08066399999991,16.973143999999984,891
50.08066399999991,16.325143999999987,888
51.700663999999904,16.973143999999984,817
51.37666399999991,16.973143999999984,784
51.05266399999991,15.677143999999986,742
50.72866399999991,15.677143999999986,827
51.05266399999991,17.621143999999987,779
51.37666399999991,17.621143999999987,813
51.700663999999904,17.621143999999987,795
51.700663999999904,16.325143999999987,810
52.0246639999999,22.15714399999998,1498
52.0246639999999,21.50914399999997,1494
52.3486639999999,21.50914399999997,1494
52.0246639999999,20.86114399999998,1488
51.700663999999904,20.86114399999998,1470
51.37666399999991,21.50914399999997,1452
51.37666399999991,20.86114399999998,1440
51.05266399999991,20.86114399999998,1446
52.6726639999999,23.45314399999998,1747
52.3486639999999,22.805143999999984,1689
52.3486639999999,20.213143999999986,1512
52.0246639999999,20.213143999999986,1505
52.3486639999999,19.565143999999982,1328
52.6726639999999,19.565143999999982,1365
51.700663999999904,21.50914399999997,1474
51.700663999999904,22.15714399999998,1480
52.6726639999999,21.50914399999997,1533
52.996663999999896,21.50914399999997,1620
52.6726639999999,20.86114399999998,1525
52.6726639999999,22.15714399999998,1549
52.6726639999999,20.213143999999986,1461
52.996663999999896,19.565143999999982,1398
52.996663999999896,20.86114399999998,1558
52.996663999999896,20.213143999999986,1567
53.32066399999989,20.213143999999986,1600
51.37666399999991,20.213143999999986,1421
52.3486639999999,16.973143999999984,841
52.0246639999999,16.973143999999984,854
52.0246639999999,16.325143999999987,842
52.0246639999999,17.621143999999987,800
52.6726639999999,16.973143999999984,882
52.996663999999896,16.973143999999984,939
52.3486639999999,16.325143999999987,819
52.3486639999999,15.677143999999986,786
51.700663999999904,18.269143999999983,954
52.6726639999999,17.621143999999987,892
52.3486639999999,17.621143999999987,863
52.6726639999999,18.269143999999983,919
52.3486639999999,18.269143999999983,909
52.3486639999999,18.917143999999983,1286
52.996663999999896,17.621143999999987,1216
51.700663999999904,19.565143999999982,1420
51.700663999999904,18.917143999999983,1386
51.37666399999991,18.269143999999983,1347
58.82866399999986,9.197143999999987,1808
58.180663999999865,7.90114399999999,1901
58.50466399999986,8.54914399999999,1852
63.36466399999984,10.493143999999988,2023
63.36466399999984,11.141143999999988,2030
63.36466399999984,11.789143999999988,2065
63.68866399999983,11.789143999999988,2093
64.33666399999983,12.437143999999988,2494
64.66066399999983,12.437143999999988,2989
65.63266399999982,13.085143999999987,2646
65.95666399999982,13.085143999999987,2681
66.28066399999982,14.381143999999988,2751
65.95666399999982,13.733143999999989,2820
66.28066399999982,13.733143999999989,2729
65.30866399999982,13.085143999999987,2947
64.98466399999982,13.085143999999987,2581
64.01266399999983,11.789143999999988,2124
63.68866399999983,11.141143999999988,2061
59.800663999999855,10.493143999999988,1604
59.800663999999855,11.141143999999988,1587
60.124663999999854,11.141143999999988,1602
60.44866399999985,11.141143999999988,1615
60.124663999999854,11.789143999999988,1628
60.77266399999985,7.25314399999999,1864
60.77266399999985,6.60514399999999,1910
59.15266399999986,9.197143999999987,1690
59.47666399999986,9.197143999999987,1711
59.800663999999855,9.845143999999989,1606
59.47666399999986,11.141143999999988,1551
61.09666399999985,10.493143999999988,1725
60.77266399999985,10.493143999999988,1695
60.77266399999985,11.141143999999988,1650
62.06866399999984,9.197143999999987,2050
61.74466399999984,9.845143999999989,1996
61.420663999999846,9.845143999999989,1973
59.15266399999986,9.845143999999989,1670
59.47666399999986,9.845143999999989,1646
58.82866399999986,5.957143999999991,2085
58.180663999999865,7.25314399999999,1957
58.50466399999986,7.25314399999999,1990
58.50466399999986,6.60514399999999,1995
58.50466399999986,5.957143999999991,2053
58.82866399999986,8.54914399999999,1838
60.44866399999985,7.25314399999999,1838
60.44866399999985,7.90114399999999,1799
60.124663999999854,10.493143999999988,1636
60.44866399999985,9.197143999999987,1748
60.77266399999985,9.197143999999987,1760
60.77266399999985,8.54914399999999,1779
60.124663999999854,9.845143999999989,2015
60.44866399999985,10.493143999999988,1681
63.04066399999984,10.493143999999988,1974
62.06866399999984,9.845143999999989,2075
62.39266399999984,9.845143999999989,2083
62.71666399999984,9.845143999999989,2107
59.47666399999986,14.381143999999988,1600
59.47666399999986,13.733143999999989,1541
59.47666399999986,13.085143999999987,1517
59.800663999999855,12.437143999999988,1586
59.15266399999986,11.141143999999988,1515
59.15266399999986,14.381143999999988,1614
58.82866399999986,11.789143999999988,1495
58.50466399999986,12.437143999999988,1425
58.180663999999865,12.437143999999988,1418
57.85666399999987,11.789143999999988,1369
62.71666399999984,7.90114399999999,2136
62.39266399999984,7.90114399999999,2093
62.06866399999984,8.54914399999999,2068
60.44866399999985,5.309143999999991,1984
60.44866399999985,5.957143999999991,1951
60.77266399999985,5.957143999999991,1940
62.39266399999984,11.141143999999988,1871
62.06866399999984,10.493143999999988,1826
61.74466399999984,11.141143999999988,1799
61.420663999999846,11.141143999999988,1753
61.09666399999985,11.141143999999988,1736
60.77266399999985,11.789143999999988,1713
63.04066399999984,11.141143999999988,1952
62.71666399999984,11.141143999999988,1895
62.39266399999984,10.493143999999988,1853
67.25266399999981,15.677143999999986,2870
67.25266399999981,15.029143999999986,2908
67.25266399999981,14.381143999999988,2936
66.92866399999981,15.029143999999986,2859
66.60466399999981,15.677143999999986,2837
64.01266399999983,11.141143999999988,2108
66.60466399999981,15.029143999999986,2900
54.29266399999989,18.269143999999983,1356
54.616663999999886,17.621143999999987,1371
53.96866399999989,18.269143999999983,1336
43.92466399999995,1.4211439999999929,45
44.24866399999995,0.7731439999999932,92
44.572663999999946,0.1251439999999934,265
46.84066399999993,1.4211439999999929,408
44.572663999999946,1.4211439999999929,145
44.24866399999995,1.4211439999999929,110
45.54466399999994,1.4211439999999929,287
46.516663999999935,1.4211439999999929,375
42.30466399999996,2.717143999999992,285
44.24866399999995,2.717143999999992,314
44.572663999999946,2.717143999999992,319
43.92466399999995,2.0691439999999925,87
42.30466399999996,2.0691439999999925,269
42.62866399999996,2.0691439999999925,210
42.62866399999996,1.4211439999999929,203
42.95266399999996,1.4211439999999929,113
43.276663999999954,1.4211439999999929,68
46.516663999999935,-1.170856000000006,514
46.19266399999994,-1.170856000000006,278
45.86866399999994,-0.5228560000000062,241
45.54466399999994,-0.5228560000000062,222
48.46066399999992,1.4211439999999929,334
41.332663999999966,2.0691439999999925,534
41.98066399999996,2.717143999999992,493
48.46066399999992,-1.8188560000000056,414
47.81266399999993,0.7731439999999932,482
46.84066399999993,0.7731439999999932,300
44.572663999999946,-1.170856000000006,205
43.60066399999995,-1.170856000000006,382
43.276663999999954,-1.8188560000000056,495
43.276663999999954,0.1251439999999934,273
42.95266399999996,0.1251439999999934,250
43.276663999999954,-0.5228560000000062,329
43.60066399999995,-0.5228560000000062,352
47.81266399999993,-3.7628560000000046,496
47.48866399999993,-2.4668560000000053,524
47.81266399999993,-0.5228560000000062,410
46.516663999999935,-1.8188560000000056,581
48.136663999999925,-1.170856000000006,436
47.48866399999993,-1.170856000000006,481
45.22066399999994,8.54914399999999,500
45.22066399999994,7.90114399999999,483
46.19266399999994,-0.5228560000000062,287
46.516663999999935,-0.5228560000000062,303
48.78466399999992,-3.114856000000005,466
50.72866399999991,2.0691439999999925,421
50.40466399999991,2.0691439999999925,438
40.36066399999997,-3.7628560000000046,1905
41.65666399999997,-1.170856000000006,1822
41.332663999999966,1.4211439999999929,1760
43.276663999999954,13.733143999999989,4390
42.95266399999996,13.733143999999989,4412
41.65666399999997,15.029143999999986,4496
40.68466399999997,17.621143999999987,4658
43.60066399999995,13.085143999999987,4383
41.65666399999997,12.437143999999988,3049
41.65666399999997,13.085143999999987,3068
41.98066399999996,13.085143999999987,3118
41.65666399999997,13.733143999999989,3120
41.332663999999966,13.733143999999989,3112
41.332663999999966,14.381143999999988,3269
41.00866399999997,14.381143999999988,3175
41.332663999999966,13.085143999999987,3094
41.00866399999997,15.029143999999986,3375
41.98066399999996,13.733143999999989,3317
42.30466399999996,14.381143999999988,3456
42.30466399999996,12.437143999999988,3057
42.62866399999996,12.437143999999988,3236
42.95266399999996,12.437143999999988,3521
42.30466399999996,11.789143999999988,3066
42.95266399999996,11.789143999999988,3276
42.62866399999996,11.789143999999988,3267
43.276663999999954,11.789143999999988,3330
42.95266399999996,13.085143999999987,4284
42.30466399999996,13.085143999999987,3343
43.276663999999954,13.085143999999987,4332
43.276663999999954,12.437143999999988,4339
42.62866399999996,11.141143999999988,3112
42.95266399999996,11.141143999999988,3155
42.95266399999996,10.493143999999988,3173
44.572663999999946,8.54914399999999,530
44.89666399999994,7.90114399999999,498
44.89666399999994,9.197143999999987,552
44.24866399999995,7.90114399999999,519
44.572663999999946,7.90114399999999,521
43.92466399999995,7.90114399999999,451
44.24866399999995,7.25314399999999,581
44.89666399999994,7.25314399999999,558
45.22066399999994,7.25314399999999,467
45.54466399999994,7.90114399999999,540
44.572663999999946,7.25314399999999,562
52.996663999999896,22.805143999999984,1848
52.996663999999896,23.45314399999998,1871
51.37666399999991,22.15714399999998,1555
51.37666399999991,22.805143999999984,1610
50.08066399999991,20.213143999999986,1304
50.72866399999991,20.213143999999986,1392
50.40466399999991,20.213143999999986,1357
50.08066399999991,20.86114399999998,1353
50.08066399999991,21.50914399999997,1360
50.08066399999991,22.15714399999998,1370
50.08066399999991,22.805143999999984,1387
53.96866399999989,22.805143999999984,2307
53.64466399999989,23.45314399999998,1978
53.32066399999989,23.45314399999998,1924
50.40466399999991,19.565143999999982,1265
50.08066399999991,18.917143999999983,1255
50.08066399999991,18.269143999999983,1011
52.0246639999999,22.805143999999984,1561
52.0246639999999,23.45314399999998,1599
51.37666399999991,19.565143999999982,1421
51.05266399999991,19.565143999999982,1375
50.72866399999991,18.917143999999983,1336
50.72866399999991,19.565143999999982,1373
49.75666399999992,18.917143999999983,1255
50.40466399999991,18.269143999999983,861
53.64466399999989,19.565143999999982,1466
53.96866399999989,18.917143999999983,1380
53.64466399999989,18.917143999999983,1419
53.64466399999989,20.213143999999986,1518
52.996663999999896,18.917143999999983,1326
52.996663999999896,18.269143999999983,1235
53.32066399999989,18.917143999999983,1372
50.72866399999991,17.621143999999987,808
50.72866399999991,18.269143999999983,849
52.6726639999999,16.325143999999987,913
52.996663999999896,16.325143999999987,860
52.996663999999896,15.677143999999986,834
53.32066399999989,15.677143999999986,935
53.32066399999989,15.029143999999986,746
53.64466399999989,15.029143999999986,766
53.96866399999989,15.029143999999986,756
52.6726639999999,18.917143999999983,1390
53.32066399999989,16.325143999999987,1316
52.6726639999999,15.029143999999986,766
51.05266399999991,22.805143999999984,1657
51.05266399999991,23.45314399999998,1684
50.72866399999991,22.15714399999998,1766
50.40466399999991,22.15714399999998,1805
51.05266399999991,22.15714399999998,1607
54.616663999999886,16.973143999999984,1318
54.29266399999989,16.325143999999987,785
53.96866399999989,15.677143999999986,762
50.72866399999991,21.50914399999997,1776
50.40466399999991,21.50914399999997,1395
50.40466399999991,17.621143999999987,824
53.32066399999989,22.805143999999984,1889
53.64466399999989,22.15714399999998,1618
54.29266399999989,16.973143999999984,1298
50.72866399999991,20.86114399999998,1451
51.700663999999904,22.805143999999984,1831
51.05266399999991,21.50914399999997,1545
50.08066399999991,19.565143999999982,1273
52.0246639999999,18.917143999999983,8488
52.0246639999999,19.565143999999982,8481
53.64466399999989,18.269143999999983,1321
51.700663999999904,20.213143999999986,1461
53.32066399999989,19.565143999999982,1482
50.72866399999991,23.45314399999998,1891
50.72866399999991,22.805143999999984,1860
49.43266399999992,20.213143999999986,1278
49.75666399999992,21.50914399999997,1437
49.75666399999992,22.15714399999998,1831
49.43266399999992,22.15714399999998,1692
51.05266399999991,18.917143999999983,1413
51.05266399999991,18.269143999999983,944
53.32066399999989,16.973143999999984,1300
53.64466399999989,16.973143999999984,842
49.75666399999992,20.86114399999998,1407
50.40466399999991,22.805143999999984,8570
53.64466399999989,16.325143999999987,796
53.96866399999989,20.86114399999998,1782
54.29266399999989,20.86114399999998,1828
53.96866399999989,21.50914399999997,1778
53.64466399999989,15.677143999999986,759
53.96866399999989,20.213143999999986,1470
53.96866399999989,19.565143999999982,1391
54.29266399999989,19.565143999999982,1404
53.96866399999989,16.325143999999987,774
53.64466399999989,17.621143999999987,1326
53.96866399999989,22.15714399999998,1670
53.64466399999989,21.50914399999997,1574
53.64466399999989,20.86114399999998,1527
52.6726639999999,15.677143999999986,817
51.05266399999991,20.213143999999986,1537
54.940663999999884,24.101143999999977,3681
54.616663999999886,23.45314399999998,3625
54.29266399999989,23.45314399999998,3488
53.64466399999989,22.805143999999984,1876
53.96866399999989,16.973143999999984,1290
50.40466399999991,20.86114399999998,1528
53.32066399999989,18.269143999999983,1284
49.75666399999992,19.565143999999982,1303
50.40466399999991,23.45314399999998,1996
49.75666399999992,20.213143999999986,1282
49.43266399999992,19.565143999999982,1257
49.43266399999992,20.86114399999998,1359
53.96866399999989,17.621143999999987,1534
42.30466399999996,-1.8188560000000056,8799
41.98066399999996,-1.8188560000000056,8782
41.65666399999997,0.7731439999999932,8786
42.62866399999996,-1.8188560000000056,8914
42.95266399999996,-1.8188560000000056,8943
42.62866399999996,-3.114856000000005,9037
42.95266399999996,-2.4668560000000053,9015
42.62866399999996,-7.650856000000003,9379
42.30466399999996,-7.650856000000003,9439
42.30466399999996,-8.946856000000002,9575
42.30466399999996,-8.298856000000002,9549
41.98066399999996,-8.298856000000002,9538
42.30466399999996,-7.002856000000003,9321
42.62866399999996,-6.354856000000003,9263
42.30466399999996,-6.354856000000003,9218
42.62866399999996,-5.706856000000004,8718
41.98066399999996,-4.410856000000004,8672
42.30466399999996,-3.7628560000000046,9063
40.03666399999997,-0.5228560000000062,8766
39.38866399999998,-0.5228560000000062,8814
41.00866399999997,0.7731439999999932,8914
40.68466399999997,0.7731439999999932,8946
40.36066399999997,0.1251439999999934,9024
39.712663999999975,-0.5228560000000062,8923
38.41666399999998,-0.5228560000000062,8935
39.06466399999998,-0.5228560000000062,9057
38.74066399999998,-1.170856000000006,8943
41.332663999999966,0.7731439999999932,8974
41.65666399999997,2.717143999999992,8574
41.65666399999997,2.0691439999999925,8597
41.332663999999966,0.1251439999999934,8932
41.332663999999966,-0.5228560000000062,8876
41.65666399999997,-4.410856000000004,8646
40.03666399999997,-2.4668560000000053,8884
41.00866399999997,-4.410856000000004,8767
43.276663999999954,-5.706856000000004,8848
39.38866399999998,-1.170856000000006,8909
38.09266399999999,-1.170856000000006,9322
38.74066399999998,-0.5228560000000062,9085
37.76866399999999,-1.170856000000006,9387
39.06466399999998,-1.8188560000000056,8907
39.38866399999998,-3.114856000000005,8807
39.38866399999998,-2.4668560000000053,8863
39.06466399999998,-2.4668560000000053,8890
39.06466399999998,-3.114856000000005,8811
39.06466399999998,-3.7628560000000046,8785
38.74066399999998,-3.7628560000000046,8864
40.03666399999997,-3.7628560000000046,8763
40.03666399999997,-3.114856000000005,8963
40.03666399999997,-1.8188560000000056,9044
39.712663999999975,-1.8188560000000056,9009
39.712663999999975,-1.170856000000006,8945
40.36066399999997,-1.170856000000006,8964
40.68466399999997,-1.170856000000006,8942
41.00866399999997,-1.170856000000006,8930
41.332663999999966,-1.170856000000006,8770
43.276663999999954,-8.298856000000002,9539
42.95266399999996,-8.298856000000002,9507
41.65666399999997,-5.706856000000004,65535
41.98066399999996,-7.002856000000003,65535
41.98066399999996,-6.354856000000003,65535
41.332663999999966,-5.058856000000004,8885
43.276663999999954,-3.7628560000000046,9320
42.95266399999996,-4.410856000000004,9254
42.62866399999996,-4.410856000000004,9244
42.30466399999996,-4.410856000000004,9203
41.00866399999997,-5.706856000000004,8823
41.332663999999966,-1.8188560000000056,8716
40.68466399999997,-3.114856000000005,8670
41.00866399999997,-3.114856000000005,8721
41.00866399999997,-2.4668560000000053,8744
41.332663999999966,-2.4668560000000053,8797
40.68466399999997,-4.410856000000004,8707
40.36066399999997,-4.410856000000004,8791
40.68466399999997,-3.7628560000000046,8699
40.36066399999997,-3.114856000000005,8677
41.65666399999997,-2.4668560000000053,8814
38.09266399999999,-3.7628560000000046,8911
38.74066399999998,-3.114856000000005,8855
37.76866399999999,-3.7628560000000046,8968
39.712663999999975,-3.114856000000005,8799
38.41666399999998,-3.7628560000000046,8876
40.03666399999997,-4.410856000000004,65535
40.03666399999997,-5.058856000000004,65535
39.38866399999998,-6.354856000000003,65535
39.38866399999998,-7.002856000000003,65535
42.95266399999996,-3.114856000000005,9448
41.98066399999996,-1.170856000000006,8811
42.30466399999996,-2.4668560000000053,8852
41.65666399999997,-0.5228560000000062,8909
41.98066399999996,-0.5228560000000062,8746
41.65666399999997,0.1251439999999934,8773
41.98066399999996,0.1251439999999934,8795
37.76866399999999,-5.058856000000004,8847
36.79666399999999,-4.410856000000004,8906
38.74066399999998,-4.410856000000004,8803
37.12066399999999,-4.410856000000004,8880
37.44466399999999,-5.058856000000004,9404
37.44466399999999,-7.002856000000003,65535
37.44466399999999,-6.354856000000003,65535
37.44466399999999,-5.706856000000004,9080
39.712663999999975,-3.7628560000000046,8873
42.62866399999996,-8.946856000000002,65535
42.30466399999996,-5.706856000000004,9225
42.30466399999996,-5.058856000000004,9310
42.95266399999996,-5.706856000000004,8750
41.00866399999997,-5.058856000000004,8791
40.68466399999997,-5.058856000000004,8765
41.65666399999997,-5.058856000000004,65535
41.65666399999997,-6.354856000000003,65535
36.79666399999999,-6.354856000000003,65535
37.12066399999999,-5.706856000000004,9248
37.76866399999999,-5.706856000000004,9047
38.09266399999999,-4.410856000000004,9182
37.12066399999999,-5.058856000000004,9202
36.79666399999999,-5.058856000000004,9160
37.76866399999999,-4.410856000000004,65535
37.76866399999999,-7.002856000000003,65535
38.41666399999998,-6.354856000000003,65535
38.09266399999999,-6.354856000000003,65535
48.78466399999992,1.4211439999999929,361
56.23666399999988,8.54914399999999,7090
55.58866399999988,9.197143999999987,6895
55.91266399999988,9.197143999999987,7036
55.26466399999988,10.493143999999988,1074
55.91266399999988,12.437143999999988,1209
55.58866399999988,11.789143999999988,6735
55.58866399999988,11.141143999999988,6776
55.26466399999988,11.789143999999988,6768
55.58866399999988,10.493143999999988,6891
55.58866399999988,13.085143999999987,1166
56.88466399999987,9.845143999999989,7042
57.20866399999987,9.845143999999989,7077
56.56066399999988,9.845143999999989,7014
56.88466399999987,8.54914399999999,7129
54.940663999999884,9.845143999999989,8236
54.940663999999884,11.789143999999988,6992
55.91266399999988,13.085143999999987,1224
56.23666399999988,13.733143999999989,1268
55.91266399999988,13.733143999999989,1271
56.23666399999988,14.381143999999988,1291
56.23666399999988,15.029143999999986,1332
56.23666399999988,15.677143999999986,1387
56.56066399999988,14.381143999999988,1348
56.88466399999987,14.381143999999988,1318
56.23666399999988,13.085143999999987,1216
56.56066399999988,13.085143999999987,1296
56.88466399999987,12.437143999999988,1333
57.20866399999987,12.437143999999988,1349
57.53266399999987,12.437143999999988,1364
56.88466399999987,15.029143999999986,1344
56.56066399999988,15.677143999999986,1404
56.88466399999987,15.677143999999986,1423
56.88466399999987,16.325143999999987,1438
55.91266399999988,11.789143999999988,7061
57.20866399999987,10.493143999999988,7264
49.43266399999992,1.4211439999999929,444
49.75666399999992,0.7731439999999932,438
49.75666399999992,2.0691439999999925,396
50.08066399999991,2.717143999999992,427
49.75666399999992,1.4211439999999929,499
47.81266399999993,1.4211439999999929,409
48.136663999999925,2.0691439999999925,549
48.46066399999992,2.0691439999999925,391
48.136663999999925,1.4211439999999929,418
48.78466399999992,0.1251439999999934,467
48.46066399999992,0.1251439999999934,555
47.81266399999993,0.1251439999999934,423
46.84066399999993,-0.5228560000000062,445
47.16466399999993,0.7731439999999932,326
46.84066399999993,0.1251439999999934,287
46.84066399999993,-1.170856000000006,533
50.08066399999991,1.4211439999999929,439
50.08066399999991,2.0691439999999925,430
49.43266399999992,2.717143999999992,358
49.75666399999992,3.365143999999992,393
50.08066399999991,3.365143999999992,425
49.10866399999992,2.0691439999999925,335
49.43266399999992,2.0691439999999925,361
48.78466399999992,0.7731439999999932,423
48.78466399999992,-0.5228560000000062,497
48.78466399999992,-1.170856000000006,529
48.136663999999925,0.7731439999999932,416
48.46066399999992,0.7731439999999932,390
43.92466399999995,5.957143999999991,393
44.24866399999995,5.957143999999991,433
43.92466399999995,5.309143999999991,341
42.95266399999996,2.717143999999992,197
45.54466399999994,2.0691439999999925,406
45.22066399999994,2.0691439999999925,289
42.95266399999996,2.0691439999999925,169
42.95266399999996,0.7731439999999932,199
43.276663999999954,0.7731439999999932,147
46.19266399999994,0.7731439999999932,344
46.516663999999935,0.7731439999999932,379
45.86866399999994,0.1251439999999934,305
46.19266399999994,0.1251439999999934,309
47.81266399999993,-1.170856000000006,530
48.136663999999925,-2.4668560000000053,529
47.48866399999993,-1.8188560000000056,506
47.16466399999993,-1.170856000000006,496
47.16466399999993,-0.5228560000000062,529
46.84066399999993,-1.8188560000000056,558
45.22066399999994,-0.5228560000000062,228
44.89666399999994,0.1251439999999934,194
45.22066399999994,0.7731439999999932,217
45.54466399999994,0.7731439999999932,245
45.86866399999994,0.7731439999999932,518
45.22066399999994,0.1251439999999934,227
44.89666399999994,0.7731439999999932,199
43.92466399999995,-0.5228560000000062,336
43.92466399999995,-1.170856000000006,316
44.24866399999995,-1.170856000000006,270
45.22066399999994,-1.170856000000006,258
44.572663999999946,-0.5228560000000062,183
44.24866399999995,0.1251439999999934,255
44.572663999999946,0.7731439999999932,318
43.276663999999954,-1.170856000000006,404
42.95266399999996,-0.5228560000000062,453
44.24866399999995,2.0691439999999925,128
43.60066399999995,0.7731439999999932,71
43.60066399999995,2.0691439999999925,0
52.6726639999999,4.661143999999991,7081
52.6726639999999,5.309143999999991,7104
51.700663999999904,5.309143999999991,7049
52.0246639999999,5.309143999999991,7061
52.3486639999999,5.309143999999991,7077
51.37666399999991,4.013143999999992,7057
52.3486639999999,5.957143999999991,7071
52.0246639999999,6.60514399999999,7101
52.6726639999999,5.957143999999991,7088
52.996663999999896,5.957143999999991,7101
53.32066399999989,5.957143999999991,7095
52.996663999999896,6.60514399999999,7077
53.32066399999989,6.60514399999999,7069
52.6726639999999,6.60514399999999,7097
52.996663999999896,5.309143999999991,7116
59.15266399999986,24.101143999999977,65535
56.88466399999987,24.101143999999977,65535
56.88466399999987,23.45314399999998,65535
56.88466399999987,22.805143999999984,65535
57.20866399999987,24.74914399999998,65535
56.88466399999987,24.74914399999998,65535
56.56066399999988,24.74914399999998,65535
56.56066399999988,25.397143999999983,65535
56.56066399999988,24.101143999999977,65535
56.56066399999988,23.45314399999998,65535
56.56066399999988,26.04514399999998,65535
56.88466399999987,26.04514399999998,65535
57.20866399999987,25.397143999999983,65535
57.53266399999987,25.397143999999983,65535
56.23666399999988,26.04514399999998,65535
56.23666399999988,26.69314399999997,65535
55.91266399999988,26.69314399999997,65535
56.56066399999988,26.69314399999997,65535
56.56066399999988,27.34114399999998,65535
56.56066399999988,27.989143999999985,65535
56.23666399999988,27.989143999999985,65535
55.91266399999988,27.34114399999998,65535
56.56066399999988,22.805143999999984,65535
56.56066399999988,22.15714399999998,65535
56.56066399999988,21.50914399999997,65535
57.20866399999987,26.69314399999997,65535
39.06466399999998,-8.946856000000002,65535
38.41666399999998,-8.298856000000002,65535
45.86866399999994,11.789143999999988,2068
46.19266399999994,11.789143999999988,2055
46.19266399999994,10.493143999999988,2095
45.22066399999994,18.269143999999983,1932
45.22066399999994,18.917143999999983,1973
45.54466399999994,16.973143999999984,1759
45.22066399999994,17.621143999999987,1876
45.86866399999994,16.325143999999987,1628
45.54466399999994,18.917143999999983,1973
45.54466399999994,16.325143999999987,1654
45.54466399999994,18.269143999999983,1880
44.89666399999994,18.917143999999983,2170
46.19266399999994,16.973143999999984,1719
46.19266399999994,16.325143999999987,1685
45.86866399999994,16.973143999999984,1678
45.86866399999994,17.621143999999987,1721
46.19266399999994,15.677143999999986,1593
46.516663999999935,16.325143999999987,1658
45.54466399999994,15.677143999999986,1677
45.22066399999994,15.029143999999986,1659
45.54466399999994,15.029143999999986,1641
45.22066399999994,15.677143999999986,1724
44.572663999999946,15.677143999999986,2059
44.24866399999995,15.677143999999986,2080
43.92466399999995,16.325143999999987,2144
44.89666399999994,15.677143999999986,2023
45.54466399999994,17.621143999999987,1846
45.22066399999994,16.325143999999987,1713
46.516663999999935,16.973143999999984,1788
45.86866399999994,18.269143999999983,2080
43.92466399999995,15.677143999999986,2246
45.22066399999994,13.733143999999989,1776
47.48866399999993,19.565143999999982,1247
47.16466399999993,18.917143999999983,1218
47.81266399999993,18.917143999999983,946
45.54466399999994,9.845143999999989,559
45.22066399999994,9.845143999999989,533
45.22066399999994,10.493143999999988,558
45.86866399999994,9.845143999999989,579
45.86866399999994,10.493143999999988,2838
48.78466399999992,21.50914399999997,1370
49.10866399999992,20.213143999999986,1341
49.10866399999992,18.917143999999983,1217
48.46066399999992,17.621143999999987,838
49.43266399999992,17.621143999999987,1453
49.10866399999992,17.621143999999987,1312
48.136663999999925,18.269143999999983,858
49.10866399999992,18.269143999999983,1246
49.43266399999992,18.269143999999983,1278
49.43266399999992,16.973143999999984,1243
49.75666399999992,16.973143999999984,1401
49.75666399999992,16.325143999999987,1294
50.08066399999991,15.677143999999986,923
50.08066399999991,15.029143999999986,898
49.43266399999992,18.917143999999983,1190
47.81266399999993,20.86114399999998,1435
48.136663999999925,20.86114399999998,1380
48.46066399999992,20.86114399999998,1342
48.46066399999992,21.50914399999997,1382
49.10866399999992,19.565143999999982,1233
48.136663999999925,17.621143999999987,806
48.78466399999992,22.15714399999998,1557
48.78466399999992,20.86114399999998,1439
49.10866399999992,20.86114399999998,1361
48.78466399999992,18.269143999999983,1209
48.78466399999992,17.621143999999987,869
49.10866399999992,21.50914399999997,1366
48.78466399999992,20.213143999999986,1305
48.46066399999992,20.213143999999986,1246
48.136663999999925,19.565143999999982,1218
48.46066399999992,19.565143999999982,1180
48.46066399999992,18.917143999999983,900
48.46066399999992,18.269143999999983,887
48.78466399999992,19.565143999999982,1333
48.78466399999992,18.917143999999983,1251
47.81266399999993,18.269143999999983,919
49.10866399999992,22.15714399999998,1604
49.43266399999992,21.50914399999997,1393
48.136663999999925,18.917143999999983,1211
48.136663999999925,20.213143999999986,1267
52.636,-8.018,65535
52.312,-7.370000000000001,65535
52.312,-8.018,65535
52.636,-8.666,65535
51.988,-8.666,65535
51.988,-8.018,65535
52.96,-8.666,65535
52.96,-6.074000000000002,65535
53.28399999999999,-6.722000000000001,65535
53.60799999999999,-6.722000000000001,65535
53.60799999999999,-7.370000000000001,65535
53.60799999999999,-8.018,65535
54.25599999999999,-8.666,65535
53.93199999999999,-8.666,65535
53.93199999999999,-8.018,65535
52.312,-6.722000000000001,65535
52.636,-6.722000000000001,65535
53.93199999999999,-6.722000000000001,65535
54.25599999999999,-6.074000000000002,65535
53.28399999999999,-7.370000000000001,65535
52.96,-7.370000000000001,65535
52.312,-8.666,65535
52.96,-8.018,65535
52.636,-7.370000000000001,65535
52.96,-6.722000000000001,65535
51.988,-9.314,65535
52.312,-9.314,65535
54.579999999999984,-6.722000000000001,65535
54.579999999999984,-6.074000000000002,65535
53.28399999999999,-8.018,65535
53.28399999999999,-8.666,65535
53.28399999999999,-9.314,65535
53.93199999999999,-9.314,65535
54.25599999999999,-9.314,65535
53.60799999999999,-8.666,65535
53.60799999999999,-9.314,65535
49.43266399999992,14.381143999999988,1006
49.75666399999992,14.381143999999988,926
49.75666399999992,15.029143999999986,917
49.75666399999992,13.733143999999989,925
50.08066399999991,13.733143999999989,921
49.75666399999992,15.677143999999986,905
50.40466399999991,15.029143999999986,889
49.43266399999992,13.733143999999989,976
50.40466399999991,15.677143999999986,1223
50.40466399999991,13.733143999999989,928
46.19266399999994,15.029143999999986,1573
45.86866399999994,15.029143999999986,1632
45.86866399999994,14.381143999999988,1610
46.19266399999994,13.733143999999989,1665
45.86866399999994,13.733143999999989,1741
58.50466399999986,13.733143999999989,1442
58.180663999999865,13.733143999999989,1446
58.180663999999865,13.085143999999987,1418
57.85666399999987,12.437143999999988,1384
60.44866399999985,15.677143999999986,1667
60.124663999999854,15.677143999999986,1601
60.124663999999854,16.325143999999987,1639
59.800663999999855,16.325143999999987,1567
59.800663999999855,17.621143999999987,1546
59.47666399999986,18.269143999999983,1528
61.74466399999984,16.973143999999984,1678
61.420663999999846,16.973143999999984,1651
60.77266399999985,16.973143999999984,1603
65.63266399999982,22.15714399999998,2782
65.95666399999982,21.50914399999997,2742
65.63266399999982,20.86114399999998,2713
64.98466399999982,20.213143999999986,2645
64.66066399999983,20.213143999999986,2623
64.33666399999983,19.565143999999982,2317
64.01266399999983,19.565143999999982,2030
63.68866399999983,20.213143999999986,1983
64.66066399999983,18.917143999999983,2994
59.15266399999986,16.325143999999987,1503
59.15266399999986,15.029143999999986,1495
59.15266399999986,17.621143999999987,1520
57.53266399999987,14.381143999999988,1344
57.53266399999987,15.029143999999986,1364
61.09666399999985,14.381143999999988,1771
60.77266399999985,15.029143999999986,1722
60.44866399999985,15.029143999999986,1708
58.180663999999865,15.029143999999986,1421
58.50466399999986,16.325143999999987,1455
58.50466399999986,15.677143999999986,1428
63.36466399999984,13.085143999999987,2015
63.04066399999984,14.381143999999988,1952
62.39266399999984,15.677143999999986,1874
63.36466399999984,13.733143999999989,1997
63.36466399999984,14.381143999999988,1969
62.71666399999984,15.677143999999986,1902
62.39266399999984,17.621143999999987,1736
59.800663999999855,15.677143999999986,2013
55.58866399999988,13.733143999999989,1298
57.20866399999987,14.381143999999988,1328
57.85666399999987,14.381143999999988,1376
58.82866399999986,16.973143999999984,1512
58.82866399999986,16.325143999999987,1490
59.15266399999986,18.269143999999983,1524
60.44866399999985,17.621143999999987,1579
59.15266399999986,12.437143999999988,1483
59.15266399999986,13.085143999999987,1497
58.82866399999986,12.437143999999988,1459
59.47666399999986,16.325143999999987,1529
58.82866399999986,14.381143999999988,1536
59.47666399999986,15.677143999999986,1518
63.36466399999984,18.917143999999983,1936
63.04066399999984,17.621143999999987,1891
62.71666399999984,17.621143999999987,1865
63.68866399999983,19.565143999999982,1969
62.39266399999984,16.973143999999984,1780
59.800663999999855,16.973143999999984,1555
59.47666399999986,17.621143999999987,1532
57.85666399999987,13.085143999999987,1408
57.53266399999987,13.085143999999987,1389
58.50466399999986,11.789143999999988,1430
57.85666399999987,15.029143999999986,1410
57.20866399999987,13.733143999999989,1334
57.53266399999987,13.733143999999989,1395
61.74466399999984,16.325143999999987,1774
61.420663999999846,16.325143999999987,1741
61.09666399999985,16.325143999999987,1730
61.09666399999985,16.973143999999984,1698
60.124663999999854,15.029143999999986,1876
66.60466399999981,20.86114399999998,2817
67.25266399999981,20.86114399999998,2885
67.90066399999981,20.213143999999986,2955
67.57666399999981,20.213143999999986,3580
59.800663999999855,15.029143999999986,1596
58.50466399999986,15.029143999999986,1438
59.47666399999986,15.029143999999986,1581
60.44866399999985,16.325143999999987,1667
59.15266399999986,15.677143999999986,1525
57.85666399999987,13.733143999999989,1436
58.82866399999986,13.733143999999989,1483
58.50466399999986,13.085143999999987,1468
57.20866399999987,13.085143999999987,1365
56.88466399999987,13.085143999999987,1339
58.180663999999865,11.789143999999988,1401
62.06866399999984,16.973143999999984,1769
65.95666399999982,23.45314399999998,2823
59.800663999999855,14.381143999999988,5891
59.800663999999855,18.269143999999983,1537
63.04066399999984,15.029143999999986,1920
62.71666399999984,15.029143999999986,1910
62.39266399999984,16.325143999999987,1843
63.36466399999984,12.437143999999988,2048
68.5486639999998,17.621143999999987,3168
68.5486639999998,18.269143999999983,3101
68.5486639999998,18.917143999999983,3078
68.2246639999998,18.917143999999983,3034
59.800663999999855,13.085143999999987,1600
60.124663999999854,13.085143999999987,1639
59.47666399999986,16.973143999999984,1541
59.15266399999986,16.973143999999984,1533
56.56066399999988,13.733143999999989,1286
60.124663999999854,17.621143999999987,1556
57.85666399999987,16.325143999999987,1515
58.180663999999865,16.325143999999987,1477
58.180663999999865,15.677143999999986,1485
57.20866399999987,16.325143999999987,1527
57.53266399999987,15.677143999999986,1545
57.85666399999987,15.677143999999986,1516
44.89666399999994,23.45314399999998,2965
44.572663999999946,23.45314399999998,3035
44.89666399999994,24.74914399999998,2952
44.572663999999946,24.74914399999998,3071
44.572663999999946,24.101143999999977,3012
44.24866399999995,24.101143999999977,3041
47.48866399999993,25.397143999999983,2813
47.48866399999993,24.74914399999998,2753
47.16466399999993,24.74914399999998,2675
47.16466399999993,24.101143999999977,2577
47.48866399999993,22.15714399999998,2707
47.81266399999993,22.15714399999998,2793
47.16466399999993,22.15714399999998,2686
47.16466399999993,23.45314399999998,2738
47.16466399999993,22.805143999999984,2744
46.84066399999993,24.101143999999977,2658
45.86866399999994,27.34114399999998,2998
45.54466399999994,27.34114399999998,2979
45.54466399999994,27.989143999999985,3095
45.86866399999994,20.86114399999998,2870
45.86866399999994,21.50914399999997,2878
46.19266399999994,21.50914399999997,2814
46.19266399999994,27.34114399999998,2998
46.19266399999994,26.69314399999997,2989
46.516663999999935,26.69314399999997,2951
46.516663999999935,26.04514399999998,2847
47.48866399999993,22.805143999999984,2805
46.84066399999993,22.805143999999984,2618
45.54466399999994,22.15714399999998,2927
45.22066399999994,22.15714399999998,3005
44.89666399999994,22.15714399999998,3423
47.48866399999993,23.45314399999998,2771
46.516663999999935,24.101143999999977,2497
46.516663999999935,24.74914399999998,2711
45.86866399999994,24.101143999999977,2660
47.16466399999993,26.69314399999997,3029
47.16466399999993,27.34114399999998,3084
43.92466399999995,25.397143999999983,3043
44.24866399999995,24.74914399999998,2950
44.89666399999994,26.04514399999998,2837
44.89666399999994,26.69314399999997,2884
45.22066399999994,26.69314399999997,2919
45.22066399999994,27.34114399999998,2946
46.84066399999993,26.69314399999997,2990
47.48866399999993,26.69314399999997,2983
44.24866399999995,25.397143999999983,2882
43.92466399999995,26.04514399999998,3059
46.19266399999994,24.101143999999977,2705
44.572663999999946,25.397143999999983,2920
46.84066399999993,24.74914399999998,2718
46.516663999999935,21.50914399999997,2818
46.84066399999993,21.50914399999997,2825
44.572663999999946,26.69314399999997,2875
44.572663999999946,27.34114399999998,2896
44.89666399999994,27.34114399999998,3011
44.572663999999946,27.989143999999985,2916
44.24866399999995,27.989143999999985,2930
44.572663999999946,28.63714399999997,2981
45.86866399999994,22.15714399999998,2739
45.86866399999994,22.805143999999984,2633
44.24866399999995,23.45314399999998,3068
43.92466399999995,27.989143999999985,65535
46.84066399999993,27.34114399999998,3151
45.22066399999994,23.45314399999998,2940
45.54466399999994,23.45314399999998,2743
45.54466399999994,24.101143999999977,2690
45.22066399999994,24.101143999999977,2914
44.89666399999994,24.101143999999977,2984
46.19266399999994,22.15714399999998,2870
46.516663999999935,22.15714399999998,2836
45.22066399999994,21.50914399999997,3110
45.54466399999994,21.50914399999997,2958
45.54466399999994,20.86114399999998,2982
46.516663999999935,27.989143999999985,3101
46.19266399999994,27.989143999999985,3086
45.54466399999994,25.397143999999983,2804
45.22066399999994,25.397143999999983,2814
45.22066399999994,26.04514399999998,2870
47.81266399999993,24.101143999999977,2866
47.48866399999993,26.04514399999998,2956
47.81266399999993,26.04514399999998,2978
46.19266399999994,23.45314399999998,2537
45.86866399999994,23.45314399999998,2586
44.24866399999995,26.04514399999998,2864
45.22066399999994,27.989143999999985,3076
45.86866399999994,24.74914399999998,2699
46.516663999999935,25.397143999999983,2891
46.84066399999993,25.397143999999983,2774
46.19266399999994,26.04514399999998,2862
45.86866399999994,26.04514399999998,2827
43.92466399999995,23.45314399999998,3298
44.89666399999994,25.397143999999983,2925
46.19266399999994,20.86114399999998,2859
47.81266399999993,25.397143999999983,2990
44.572663999999946,22.805143999999984,3303
44.572663999999946,22.15714399999998,3445
46.516663999999935,23.45314399999998,2676
45.86866399999994,25.397143999999983,2753
44.24866399999995,27.34114399999998,3691
45.22066399999994,24.74914399999998,3016
45.54466399999994,22.805143999999984,2706
45.22066399999994,28.63714399999997,3136
44.89666399999994,28.63714399999997,3075
47.81266399999993,23.45314399999998,2923
46.19266399999994,24.74914399999998,2785
46.19266399999994,25.397143999999983,2809
43.92466399999995,24.101143999999977,3261
43.92466399999995,24.74914399999998,3274
47.81266399999993,26.69314399999997,3205
47.48866399999993,24.101143999999977,2798
46.84066399999993,26.04514399999998,3606
46.19266399999994,22.805143999999984,2930
47.48866399999993,27.34114399999998,3158
46.19266399999994,20.213143999999986,65535
45.54466399999994,26.04514399999998,2962
44.24866399999995,26.69314399999997,2880
45.86866399999994,27.989143999999985,3134
47.81266399999993,5.957143999999991,7066
