51.56399999999999,-0.4100000000000028,65535
51.887999999999984,-0.4100000000000028,65535
50.91599999999999,-1.7060000000000022,65535
51.23999999999999,-1.0580000000000025,65535
51.56399999999999,-1.0580000000000025,65535
51.23999999999999,-1.7060000000000022,65535
51.56399999999999,0.2379999999999968,65535
47.16466399999993,9.845143999999989,506
47.48866399999993,9.845143999999989,518
48.136663999999925,14.381143999999988,880
47.81266399999993,13.085143999999987,862
47.16466399999993,11.141143999999988,890
47.48866399999993,11.789143999999988,885
48.136663999999925,16.325143999999987,933
47.48866399999993,12.437143999999988,869
48.136663999999925,15.677143999999986,906
47.16466399999993,10.493143999999988,901
47.16466399999993,9.197143999999987,493
48.136663999999925,13.733143999999989,875
48.136663999999925,15.029143999999986,899
47.81266399999993,16.973143999999984,955
48.46066399999992,14.381143999999988,904
47.48866399999993,13.085143999999987,898
47.16466399999993,13.085143999999987,903
47.48866399999993,14.381143999999988,991
47.48866399999993,13.733143999999989,964
47.48866399999993,15.029143999999986,1002
46.516663999999935,13.733143999999989,1187
46.84066399999993,13.733143999999989,1156
46.84066399999993,13.085143999999987,1141
48.78466399999992,14.381143999999988,65535
47.16466399999993,15.677143999999986,1020
46.516663999999935,14.381143999999988,1194
46.84066399999993,14.381143999999988,1135
47.16466399999993,14.381143999999988,1085
46.516663999999935,15.029143999999986,1207
47.81266399999993,16.325143999999987,952
47.16466399999993,15.029143999999986,1060
47.81266399999993,15.677143999999986,958
47.48866399999993,15.677143999999986,997
46.516663999999935,13.085143999999987,1454
46.84066399999993,12.437143999999988,1199
48.136663999999925,11.789143999999988,768
47.81266399999993,12.437143999999988,805
46.84066399999993,15.677143999999986,1081
46.516663999999935,15.677143999999986,1300
46.84066399999993,16.325143999999987,1065
47.81266399999993,14.381143999999988,925
48.78466399999992,16.973143999999984,1018
48.136663999999925,16.973143999999984,946
48.46066399999992,13.733143999999989,892
47.81266399999993,13.733143999999989,923
50.08066399999991,8.54914399999999,460
48.46066399999992,9.845143999999989,500
51.05266399999991,7.25314399999999,435
51.37666399999991,7.25314399999999,444
51.37666399999991,6.60514399999999,441
48.46066399999992,16.325143999999987,929
48.46066399999992,16.973143999999984,969
48.78466399999992,16.325143999999987,954
48.46066399999992,15.677143999999986,940
48.78466399999992,15.677143999999986,947
47.48866399999993,16.325143999999987,962
47.16466399999993,16.325143999999987,1014
46.19266399999994,14.381143999999988,1252
45.86866399999994,15.677143999999986,1304
43.60066399999995,16.325143999999987,1720
45.54466399999994,14.381143999999988,1366
45.54466399999994,13.733143999999989,1389
48.136663999999925,13.085143999999987,865
48.46066399999992,11.141143999999988,765
48.136663999999925,11.141143999999988,763
48.46066399999992,7.90114399999999,424
49.10866399999992,8.54914399999999,466
48.78466399999992,2.0691439999999925,289
49.10866399999992,7.25314399999999,443
52.0246639999999,7.90114399999999,465
47.16466399999993,11.789143999999988,889
49.43266399999992,11.141143999999988,790
53.64466399999989,9.845143999999989,815
50.72866399999991,4.013143999999992,379
51.05266399999991,11.141143999999988,983
47.48866399999993,11.141143999999988,818
46.84066399999993,11.789143999999988,1622
46.516663999999935,11.141143999999988,1591
45.54466399999994,11.141143999999988,1485
46.19266399999994,11.141143999999988,1557
45.86866399999994,11.141143999999988,1541
44.572663999999946,11.141143999999988,1332
43.92466399999995,12.437143999999988,3965
45.54466399999994,12.437143999999988,1572
45.54466399999994,11.789143999999988,1535
48.78466399999992,15.029143999999986,972
47.81266399999993,15.029143999999986,930
47.81266399999993,11.141143999999988,772
50.40466399999991,18.917143999999983,1101
52.3486639999999,20.86114399999998,1311
54.616663999999886,18.269143999999983,1467
54.29266399999989,18.917143999999983,1477
49.10866399999992,14.381143999999988,65535
50.08066399999991,14.381143999999988,1050
48.78466399999992,13.733143999999989,1736
52.6726639999999,13.085143999999987,955
52.3486639999999,13.085143999999987,952
53.96866399999989,12.437143999999988,985
54.29266399999989,12.437143999999988,997
47.48866399999993,8.54914399999999,476
47.81266399999993,17.621143999999987,992
47.48866399999993,18.917143999999983,1100
47.48866399999993,20.86114399999998,1436
46.84066399999993,23.45314399999998,1918
44.572663999999946,26.04514399999998,2367
47.48866399999993,21.50914399999997,1472
47.81266399999993,21.50914399999997,1868
48.46066399999992,22.15714399999998,1297
47.48866399999993,16.973143999999984,65535
49.10866399999992,16.325143999999987,1056
49.75666399999992,18.269143999999983,1264
46.19266399999994,13.085143999999987,2303
41.98066399999996,12.437143999999988,2565
43.60066399999995,10.493143999999988,2726
45.54466399999994,9.197143999999987,810
47.81266399999993,22.805143999999984,2333
49.75666399999992,22.805143999999984,1460
50.72866399999991,3.365143999999992,359
51.05266399999991,4.013143999999992,375
50.72866399999991,4.661143999999991,381
51.05266399999991,4.661143999999991,379
51.05266399999991,3.365143999999992,367
51.05266399999991,2.717143999999992,410
50.40466399999991,4.661143999999991,394
50.72866399999991,2.717143999999992,405
50.40466399999991,4.013143999999992,388
51.05266399999991,5.309143999999991,389
50.72866399999991,5.309143999999991,388
51.37666399999991,3.365143999999992,396
51.37666399999991,4.661143999999991,383
50.72866399999991,5.957143999999991,417
50.40466399999991,5.957143999999991,432
50.40466399999991,3.365143999999992,380
50.40466399999991,5.309143999999991,392
50.08066399999991,5.309143999999991,439
49.75666399999992,5.309143999999991,808
49.75666399999992,5.957143999999991,764
51.37666399999991,5.309143999999991,463
51.700663999999904,4.661143999999991,398
50.08066399999991,4.013143999999992,395
50.08066399999991,5.957143999999991,441
50.08066399999991,4.661143999999991,415
49.43266399999992,5.309143999999991,849
49.43266399999992,5.957143999999991,883
52.0246639999999,4.661143999999991,950
52.3486639999999,4.661143999999991,979
50.72866399999991,15.029143999999986,979
51.05266399999991,15.029143999999986,971
51.05266399999991,13.733143999999989,938
50.40466399999991,13.085143999999987,885
49.10866399999992,7.90114399999999,758
48.78466399999992,7.90114399999999,435
50.40466399999991,7.90114399999999,444
50.08066399999991,7.90114399999999,495
49.75666399999992,7.90114399999999,510
49.43266399999992,7.90114399999999,495
49.75666399999992,8.54914399999999,469
49.43266399999992,8.54914399999999,475
49.43266399999992,9.197143999999987,529
49.10866399999992,9.197143999999987,483
47.48866399999993,7.90114399999999,471
47.81266399999993,7.90114399999999,468
48.136663999999925,7.90114399999999,453
48.136663999999925,9.845143999999989,519
47.81266399999993,9.197143999999987,493
47.81266399999993,8.54914399999999,484
47.81266399999993,9.845143999999989,515
54.940663999999884,9.197143999999987,923
54.616663999999886,9.197143999999987,900
54.29266399999989,9.197143999999987,908
53.96866399999989,9.197143999999987,950
53.64466399999989,9.197143999999987,828
54.616663999999886,9.845143999999989,892
54.29266399999989,9.845143999999989,881
53.96866399999989,9.845143999999989,838
53.64466399999989,10.493143999999988,822
53.96866399999989,10.493143999999988,864
53.96866399999989,11.141143999999988,915
54.29266399999989,10.493143999999988,898
53.32066399999989,10.493143999999988,843
54.940663999999884,11.141143999999988,1009
52.6726639999999,13.733143999999989,957
52.3486639999999,13.733143999999989,956
52.3486639999999,14.381143999999988,967
52.0246639999999,14.381143999999988,980
52.0246639999999,11.789143999999988,875
52.3486639999999,11.789143999999988,885
52.3486639999999,12.437143999999988,938
52.0246639999999,15.029143999999986,1003
51.700663999999904,14.381143999999988,997
52.0246639999999,13.733143999999989,975
51.700663999999904,13.733143999999989,972
52.6726639999999,12.437143999999988,949
53.32066399999989,11.789143999999988,935
53.96866399999989,11.789143999999988,965
53.64466399999989,11.789143999999988,946
53.64466399999989,11.141143999999988,942
53.32066399999989,11.141143999999988,915
52.996663999999896,11.789143999999988,932
52.996663999999896,12.437143999999988,984
52.996663999999896,13.733143999999989,973
53.64466399999989,13.733143999999989,1057
53.96866399999989,13.733143999999989,1070
54.29266399999989,13.085143999999987,1022
53.96866399999989,13.085143999999987,1043
53.32066399999989,13.733143999999989,1067
52.0246639999999,13.085143999999987,911
51.700663999999904,13.085143999999987,915
52.996663999999896,14.381143999999988,1003
52.0246639999999,12.437143999999988,900
51.700663999999904,12.437143999999988,893
51.37666399999991,11.789143999999988,901
51.37666399999991,12.437143999999988,897
52.6726639999999,11.789143999999988,901
53.64466399999989,13.085143999999987,1063
53.32066399999989,13.085143999999987,1062
52.996663999999896,13.085143999999987,998
53.64466399999989,12.437143999999988,1002
51.37666399999991,13.733143999999989,925
53.32066399999989,12.437143999999988,1016
52.6726639999999,14.381143999999988,972
51.37666399999991,13.085143999999987,923
53.32066399999989,14.381143999999988,1036
52.3486639999999,15.029143999999986,977
52.0246639999999,15.677143999999986,1010
51.700663999999904,15.029143999999986,1085
51.05266399999991,16.325143999999987,1026
51.05266399999991,16.973143999999984,1030
51.700663999999904,15.677143999999986,1083
51.37666399999991,15.677143999999986,996
51.37666399999991,16.325143999999987,1055
50.72866399999991,13.085143999999987,896
50.72866399999991,12.437143999999988,886
51.05266399999991,13.085143999999987,912
51.05266399999991,14.381143999999988,941
50.40466399999991,12.437143999999988,863
50.40466399999991,11.789143999999988,834
50.08066399999991,12.437143999999988,854
50.72866399999991,11.789143999999988,872
51.05266399999991,12.437143999999988,891
50.72866399999991,14.381143999999988,1034
51.37666399999991,14.381143999999988,951
50.72866399999991,13.733143999999989,957
50.40466399999991,14.381143999999988,1029
51.37666399999991,15.029143999999986,961
55.26466399999988,9.197143999999987,1788
55.58866399999988,8.54914399999999,3082
55.91266399999988,8.54914399999999,6559
56.23666399999988,9.197143999999987,6567
56.23666399999988,10.493143999999988,6520
56.23666399999988,9.845143999999989,6507
55.91266399999988,9.845143999999989,6445
56.56066399999988,9.197143999999987,6577
56.56066399999988,8.54914399999999,6620
51.05266399999991,6.60514399999999,436
51.700663999999904,7.90114399999999,459
50.72866399999991,6.60514399999999,429
51.700663999999904,7.25314399999999,448
50.72866399999991,7.25314399999999,436
52.0246639999999,7.25314399999999,452
52.3486639999999,7.90114399999999,511
51.05266399999991,5.957143999999991,462
50.40466399999991,7.25314399999999,439
51.700663999999904,6.60514399999999,457
51.700663999999904,5.957143999999991,464
52.3486639999999,9.197143999999987,771
51.700663999999904,8.54914399999999,494
52.0246639999999,8.54914399999999,576
52.3486639999999,8.54914399999999,751
51.37666399999991,7.90114399999999,450
52.3486639999999,7.25314399999999,474
51.37666399999991,5.957143999999991,941
50.72866399999991,7.90114399999999,451
51.37666399999991,9.197143999999987,759
51.700663999999904,9.197143999999987,803
50.40466399999991,6.60514399999999,466
51.05266399999991,7.90114399999999,473
51.37666399999991,8.54914399999999,458
52.0246639999999,5.957143999999991,471
52.3486639999999,6.60514399999999,506
51.05266399999991,8.54914399999999,857
52.0246639999999,9.197143999999987,797
52.6726639999999,9.197143999999987,810
52.0246639999999,9.845143999999989,788
51.700663999999904,9.845143999999989,799
51.37666399999991,9.845143999999989,826
50.72866399999991,8.54914399999999,466
51.05266399999991,9.845143999999989,858
50.72866399999991,9.845143999999989,794
50.40466399999991,9.845143999999989,515
51.05266399999991,9.197143999999987,769
50.40466399999991,9.197143999999987,478
50.08066399999991,9.197143999999987,468
51.05266399999991,10.493143999999988,6594
50.40466399999991,8.54914399999999,457
50.72866399999991,9.197143999999987,746
49.75666399999992,9.197143999999987,488
52.996663999999896,9.197143999999987,786
52.3486639999999,9.845143999999989,780
52.996663999999896,8.54914399999999,778
52.996663999999896,7.90114399999999,833
53.32066399999989,7.90114399999999,850
53.32066399999989,7.25314399999999,973
53.64466399999989,7.25314399999999,1018
52.996663999999896,10.493143999999988,863
52.6726639999999,10.493143999999988,856
52.6726639999999,9.845143999999989,810
53.32066399999989,9.845143999999989,809
53.32066399999989,9.197143999999987,805
53.64466399999989,8.54914399999999,838
53.32066399999989,8.54914399999999,795
52.6726639999999,8.54914399999999,768
52.0246639999999,10.493143999999988,812
52.0246639999999,11.141143999999988,847
51.700663999999904,11.141143999999988,1000
52.6726639999999,7.25314399999999,1723
52.996663999999896,7.25314399999999,1698
52.6726639999999,7.90114399999999,810
53.64466399999989,7.90114399999999,911
52.996663999999896,11.141143999999988,881
52.6726639999999,11.141143999999988,892
52.3486639999999,10.493143999999988,787
52.996663999999896,9.845143999999989,874
51.700663999999904,10.493143999999988,855
51.37666399999991,10.493143999999988,6588
51.700663999999904,11.789143999999988,882
52.3486639999999,11.141143999999988,829
51.37666399999991,11.141143999999988,944
51.05266399999991,11.789143999999988,881
49.10866399999992,11.141143999999988,807
48.78466399999992,11.141143999999988,790
48.46066399999992,11.789143999999988,772
49.43266399999992,11.789143999999988,814
50.08066399999991,11.789143999999988,821
49.75666399999992,12.437143999999988,851
49.10866399999992,11.789143999999988,808
48.78466399999992,12.437143999999988,836
48.46066399999992,12.437143999999988,851
49.10866399999992,12.437143999999988,823
48.78466399999992,13.085143999999987,863
48.136663999999925,12.437143999999988,862
47.81266399999993,11.789143999999988,788
48.136663999999925,10.493143999999988,551
47.81266399999993,10.493143999999988,804
48.78466399999992,10.493143999999988,783
47.48866399999993,10.493143999999988,787
48.46066399999992,10.493143999999988,747
49.43266399999992,13.085143999999987,873
48.46066399999992,13.085143999999987,911
49.43266399999992,10.493143999999988,782
49.75666399999992,9.845143999999989,748
49.75666399999992,10.493143999999988,782
50.40466399999991,11.141143999999988,841
50.08066399999991,11.141143999999988,774
50.72866399999991,11.141143999999988,985
49.75666399999992,11.141143999999988,781
48.78466399999992,11.789143999999988,826
50.40466399999991,10.493143999999988,880
50.08066399999991,9.845143999999989,525
50.08066399999991,10.493143999999988,546
49.43266399999992,12.437143999999988,835
49.75666399999992,11.789143999999988,823
49.10866399999992,13.085143999999987,870
50.72866399999991,10.493143999999988,6595
49.10866399999992,10.493143999999988,825
48.78466399999992,9.845143999999989,490
48.46066399999992,8.54914399999999,494
48.46066399999992,9.197143999999987,490
48.78466399999992,9.197143999999987,485
48.78466399999992,8.54914399999999,456
50.08066399999991,7.25314399999999,467
49.75666399999992,6.60514399999999,480
49.43266399999992,6.60514399999999,470
49.10866399999992,6.60514399999999,433
49.43266399999992,7.25314399999999,477
49.75666399999992,7.25314399999999,813
49.10866399999992,5.957143999999991,384
48.78466399999992,7.25314399999999,786
50.08066399999991,6.60514399999999,477
47.48866399999993,9.197143999999987,478
48.136663999999925,8.54914399999999,480
48.136663999999925,9.197143999999987,491
47.81266399999993,7.25314399999999,478
49.43266399999992,9.845143999999989,817
49.10866399999992,9.845143999999989,488
53.64466399999989,14.381143999999988,1053
50.08066399999991,13.085143999999987,1002
49.75666399999992,13.085143999999987,1175
45.86866399999994,9.197143999999987,534
46.19266399999994,9.197143999999987,514
46.516663999999935,8.54914399999999,872
46.516663999999935,9.197143999999987,859
46.19266399999994,8.54914399999999,517
47.16466399999993,8.54914399999999,481
45.86866399999994,4.661143999999991,307
46.84066399999993,9.845143999999989,521
45.22066399999994,5.957143999999991,391
45.22066399999994,5.309143999999991,382
45.86866399999994,5.957143999999991,362
45.54466399999994,5.957143999999991,344
44.89666399999994,4.661143999999991,391
44.89666399999994,5.309143999999991,793
44.572663999999946,4.661143999999991,859
44.24866399999995,4.661143999999991,828
43.92466399999995,4.661143999999991,422
46.19266399999994,7.25314399999999,451
48.78466399999992,5.957143999999991,410
48.136663999999925,6.60514399999999,847
48.46066399999992,6.60514399999999,793
48.78466399999992,6.60514399999999,850
47.16466399999993,7.90114399999999,476
48.136663999999925,7.25314399999999,464
48.46066399999992,7.25314399999999,791
46.516663999999935,6.60514399999999,434
46.84066399999993,6.60514399999999,456
46.84066399999993,7.25314399999999,476
46.516663999999935,5.957143999999991,425
46.19266399999994,5.957143999999991,420
46.84066399999993,8.54914399999999,485
46.84066399999993,7.90114399999999,480
45.86866399999994,5.309143999999991,332
46.19266399999994,6.60514399999999,429
45.86866399999994,6.60514399999999,883
47.48866399999993,6.60514399999999,812
47.48866399999993,7.25314399999999,484
47.16466399999993,7.25314399999999,474
49.10866399999992,4.013143999999992,343
49.75666399999992,4.661143999999991,403
49.43266399999992,4.661143999999991,383
49.10866399999992,5.309143999999991,894
46.19266399999994,4.661143999999991,350
46.84066399999993,9.197143999999987,504
46.19266399999994,5.309143999999991,354
46.516663999999935,5.309143999999991,829
45.54466399999994,6.60514399999999,378
45.54466399999994,5.309143999999991,319
43.60066399999995,4.013143999999992,394
43.60066399999995,3.365143999999992,410
42.62866399999996,2.717143999999992,399
43.276663999999954,2.717143999999992,358
45.54466399999994,4.661143999999991,300
45.22066399999994,4.661143999999991,354
47.16466399999993,5.309143999999991,420
47.16466399999993,5.957143999999991,474
46.19266399999994,7.90114399999999,489
49.75666399999992,2.717143999999992,821
49.10866399999992,2.717143999999992,308
48.78466399999992,2.717143999999992,895
45.86866399999994,3.365143999999992,220
46.84066399999993,3.365143999999992,338
46.516663999999935,3.365143999999992,332
46.19266399999994,3.365143999999992,296
47.16466399999993,6.60514399999999,464
49.10866399999992,3.365143999999992,321
45.54466399999994,4.013143999999992,270
46.516663999999935,7.25314399999999,480
47.16466399999993,4.661143999999991,840
46.84066399999993,4.661143999999991,396
46.516663999999935,4.661143999999991,861
46.84066399999993,5.957143999999991,799
47.81266399999993,3.365143999999992,492
47.48866399999993,4.013143999999992,384
48.136663999999925,4.013143999999992,462
47.81266399999993,4.013143999999992,850
47.48866399999993,4.661143999999991,841
47.16466399999993,3.365143999999992,326
46.84066399999993,4.013143999999992,920
48.46066399999992,5.957143999999991,845
46.19266399999994,2.717143999999992,410
47.16466399999993,2.0691439999999925,287
46.516663999999935,2.717143999999992,382
46.84066399999993,2.717143999999992,362
46.84066399999993,2.0691439999999925,333
47.16466399999993,2.717143999999992,308
44.572663999999946,5.309143999999991,757
44.572663999999946,5.957143999999991,860
44.89666399999994,6.60514399999999,867
44.572663999999946,6.60514399999999,930
43.60066399999995,5.309143999999991,446
43.92466399999995,7.25314399999999,921
43.60066399999995,6.60514399999999,912
43.276663999999954,6.60514399999999,899
43.276663999999954,5.957143999999991,843
45.86866399999994,8.54914399999999,764
45.54466399999994,8.54914399999999,795
48.136663999999925,3.365143999999992,458
48.46066399999992,3.365143999999992,432
48.46066399999992,2.717143999999992,793
47.48866399999993,5.309143999999991,876
46.516663999999935,9.845143999999989,836
46.84066399999993,10.493143999999988,851
47.81266399999993,5.309143999999991,860
45.22066399999994,6.60514399999999,395
46.19266399999994,4.013143999999992,344
45.86866399999994,4.013143999999992,326
45.22066399999994,4.013143999999992,227
44.89666399999994,4.013143999999992,250
46.84066399999993,5.309143999999991,856
48.136663999999925,-1.8188560000000056,429
48.136663999999925,0.1251439999999934,370
48.136663999999925,-0.5228560000000062,401
47.48866399999993,-0.5228560000000062,395
47.16466399999993,-1.8188560000000056,434
47.48866399999993,0.7731439999999932,365
47.16466399999993,0.1251439999999934,871
45.86866399999994,7.25314399999999,888
48.136663999999925,5.309143999999991,838
49.10866399999992,4.661143999999991,435
48.46066399999992,4.013143999999992,441
48.136663999999925,4.661143999999991,801
47.81266399999993,6.60514399999999,837
47.48866399999993,5.957143999999991,855
48.136663999999925,5.957143999999991,1406
45.86866399999994,7.90114399999999,552
46.516663999999935,7.90114399999999,498
49.43266399999992,3.365143999999992,338
49.43266399999992,4.013143999999992,370
48.136663999999925,2.717143999999992,858
47.81266399999993,2.717143999999992,834
47.48866399999993,2.717143999999992,812
50.40466399999991,2.717143999999992,402
48.46066399999992,-4.410856000000004,965
48.46066399999992,-3.7628560000000046,920
48.46066399999992,-3.114856000000005,905
48.46066399999992,-2.4668560000000053,876
47.48866399999993,1.4211439999999929,389
47.16466399999993,1.4211439999999929,839
46.516663999999935,4.013143999999992,873
43.60066399999995,4.661143999999991,847
44.89666399999994,2.717143999999992,61
45.22066399999994,2.717143999999992,114
45.54466399999994,3.365143999999992,205
45.22066399999994,3.365143999999992,172
47.48866399999993,3.365143999999992,853
46.19266399999994,9.845143999999989,893
47.81266399999993,2.0691439999999925,379
47.48866399999993,2.0691439999999925,849
45.86866399999994,2.717143999999992,863
44.89666399999994,5.957143999999991,851
45.22066399999994,1.4211439999999929,96
44.89666399999994,1.4211439999999929,44
44.89666399999994,2.0691439999999925,21
43.276663999999954,2.0691439999999925,283
43.60066399999995,1.4211439999999929,234
48.78466399999992,4.661143999999991,895
48.78466399999992,5.309143999999991,915
46.19266399999994,2.0691439999999925,319
45.86866399999994,1.4211439999999929,182
46.19266399999994,1.4211439999999929,214
44.572663999999946,4.013143999999992,1053
44.89666399999994,3.365143999999992,994
43.92466399999995,4.013143999999992,827
44.24866399999995,4.013143999999992,886
44.89666399999994,-0.5228560000000062,163
45.54466399999994,0.1251439999999934,241
46.516663999999935,0.1251439999999934,282
44.572663999999946,2.0691439999999925,0
49.75666399999992,4.013143999999992,413
43.92466399999995,3.365143999999992,936
43.92466399999995,2.717143999999992,967
44.24866399999995,3.365143999999992,992
44.572663999999946,3.365143999999992,1037
49.10866399999992,0.1251439999999934,405
49.43266399999992,0.7731439999999932,404
49.43266399999992,-1.8188560000000056,484
49.10866399999992,-1.170856000000006,460
49.10866399999992,-0.5228560000000062,428
49.10866399999992,0.7731439999999932,391
49.10866399999992,1.4211439999999929,364
47.81266399999993,-1.8188560000000056,879
47.81266399999993,-2.4668560000000053,895
47.81266399999993,-3.114856000000005,920
48.136663999999925,-3.7628560000000046,939
44.572663999999946,9.197143999999987,896
44.89666399999994,8.54914399999999,869
45.22066399999994,9.197143999999987,829
45.54466399999994,10.493143999999988,907
44.572663999999946,10.493143999999988,1318
44.89666399999994,10.493143999999988,973
44.89666399999994,9.845143999999989,900
48.46066399999992,5.309143999999991,876
50.91599999999999,-1.0580000000000025,65535
51.23999999999999,-0.4100000000000028,65535
50.91599999999999,-0.4100000000000028,65535
51.23999999999999,-2.354000000000002,65535
51.56399999999999,-2.354000000000002,65535
51.56399999999999,-3.0020000000000016,65535
50.91599999999999,-2.354000000000002,65535
53.50799999999997,-3.0020000000000016,65535
53.183999999999976,-2.354000000000002,65535
53.183999999999976,-3.0020000000000016,65535
52.85999999999998,-2.354000000000002,65535
52.21199999999998,-1.0580000000000025,65535
51.887999999999984,-1.0580000000000025,65535
52.53599999999998,-1.0580000000000025,65535
52.53599999999998,-1.7060000000000022,65535
52.85999999999998,-1.7060000000000022,65535
53.50799999999997,-2.354000000000002,65535
52.85999999999998,-1.0580000000000025,65535
52.53599999999998,1.5339999999999965,65535
52.53599999999998,0.8859999999999966,65535
52.53599999999998,0.2379999999999968,65535
52.53599999999998,-0.4100000000000028,65535
53.50799999999997,-1.7060000000000022,65535
53.183999999999976,-1.7060000000000022,65535
53.183999999999976,-1.0580000000000025,65535
52.85999999999998,-0.4100000000000028,65535
51.887999999999984,-2.354000000000002,65535
52.21199999999998,-2.354000000000002,65535
55.77599999999996,-2.354000000000002,65535
53.83199999999997,-1.0580000000000025,65535
53.83199999999997,-1.7060000000000022,65535
55.127999999999965,-1.7060000000000022,65535
54.80399999999997,-1.7060000000000022,65535
54.47999999999997,-1.7060000000000022,65535
54.15599999999997,-1.0580000000000025,65535
52.21199999999998,-1.7060000000000022,65535
53.50799999999997,-1.0580000000000025,65535
55.77599999999996,-3.0020000000000016,65535
55.45199999999996,-1.7060000000000022,65535
57.07199999999995,-2.354000000000002,65535
56.74799999999996,-3.0020000000000016,65535
56.42399999999996,-3.0020000000000016,65535
56.09999999999996,-3.650000000000001,65535
50.91599999999999,-3.0020000000000016,65535
50.91599999999999,-3.650000000000001,65535
50.59199999999999,-3.650000000000001,65535
50.59199999999999,-4.298000000000001,65535
51.23999999999999,-3.0020000000000016,65535
50.268,-4.946000000000001,65535
55.77599999999996,-3.650000000000001,65535
55.77599999999996,-4.298000000000001,65535
52.21199999999998,-0.4100000000000028,65535
52.53599999999998,-2.354000000000002,65535
51.56399999999999,-1.7060000000000022,65535
51.56399999999999,-3.650000000000001,65535
51.887999999999984,-4.298000000000001,65535
51.56399999999999,-4.298000000000001,65535
51.887999999999984,-1.7060000000000022,65535
52.21199999999998,-3.0020000000000016,65535
51.23999999999999,0.2379999999999968,65535
50.91599999999999,0.2379999999999968,65535
52.21199999999998,0.2379999999999968,65535
53.83199999999997,-3.0020000000000016,65535
54.15599999999997,-3.0020000000000016,65535
54.47999999999997,-3.0020000000000016,65535
55.127999999999965,-3.650000000000001,65535
54.80399999999997,-3.0020000000000016,65535
53.83199999999997,-2.354000000000002,65535
54.15599999999997,-0.4100000000000028,65535
54.47999999999997,-1.0580000000000025,65535
53.83199999999997,-0.4100000000000028,65535
53.183999999999976,-3.650000000000001,65535
53.183999999999976,-4.298000000000001,65535
52.85999999999998,-3.0020000000000016,65535
52.53599999999998,-3.0020000000000016,65535
51.887999999999984,-3.0020000000000016,65535
51.23999999999999,0.8859999999999966,65535
51.887999999999984,0.2379999999999968,65535
52.21199999999998,0.8859999999999966,65535
51.887999999999984,-4.946000000000001,65535
52.53599999999998,-3.650000000000001,65535
52.21199999999998,-4.298000000000001,65535
53.183999999999976,-0.4100000000000028,65535
51.23999999999999,-3.650000000000001,65535
51.887999999999984,-3.650000000000001,65535
52.21199999999998,-3.650000000000001,65535
51.56399999999999,0.8859999999999966,65535
51.887999999999984,0.8859999999999966,65535
52.85999999999998,0.8859999999999966,65535
53.50799999999997,-0.4100000000000028,65535
56.09999999999996,-4.298000000000001,65535
56.74799999999996,-4.946000000000001,65535
56.74799999999996,-4.298000000000001,65535
56.42399999999996,-4.946000000000001,65535
56.42399999999996,-4.298000000000001,65535
56.09999999999996,-4.946000000000001,65535
57.39599999999995,-4.298000000000001,65535
57.39599999999995,-3.0020000000000016,65535
57.39599999999995,-3.650000000000001,65535
56.42399999999996,-3.650000000000001,65535
57.07199999999995,-3.650000000000001,65535
57.07199999999995,-4.298000000000001,65535
56.74799999999996,-3.650000000000001,65535
59.15266399999986,27.34114399999998,65535
59.47666399999986,26.69314399999997,65535
59.47666399999986,26.04514399999998,65535
59.15266399999986,26.04514399999998,65535
59.15266399999986,24.74914399999998,65535
59.15266399999986,25.397143999999983,65535
59.47666399999986,25.397143999999983,65535
58.50466399999986,26.69314399999997,65535
58.82866399999986,26.69314399999997,65535
57.85666399999987,26.04514399999998,65535
58.180663999999865,26.04514399999998,65535
58.180663999999865,26.69314399999997,65535
58.82866399999986,26.04514399999998,65535
58.50466399999986,25.397143999999983,65535
58.82866399999986,25.397143999999983,65535
58.82866399999986,24.74914399999998,65535
58.180663999999865,27.34114399999998,65535
57.85666399999987,27.34114399999998,65535
63.68866399999983,27.34114399999998,7077
60.124663999999854,24.74914399999998,6613
60.44866399999985,24.74914399999998,6582
60.44866399999985,25.397143999999983,6594
60.77266399999985,25.397143999999983,6800
61.09666399999985,26.04514399999998,6842
60.77266399999985,26.04514399999998,6849
60.77266399999985,26.69314399999997,6868
61.09666399999985,25.397143999999983,6833
61.09666399999985,26.69314399999997,7198
61.420663999999846,26.69314399999997,7220
61.74466399999984,27.34114399999998,7244
62.06866399999984,27.34114399999998,7269
62.39266399999984,27.34114399999998,7293
62.71666399999984,27.34114399999998,7257
64.01266399999983,27.34114399999998,7425
63.36466399999984,27.34114399999998,7145
63.04066399999984,27.34114399999998,7185
63.04066399999984,27.989143999999985,7200
64.33666399999983,27.989143999999985,7472
64.33666399999983,27.34114399999998,7548
64.66066399999983,27.34114399999998,7564
64.66066399999983,26.69314399999997,7575
64.98466399999982,25.397143999999983,5959
64.66066399999983,26.04514399999998,7605
64.98466399999982,26.04514399999998,7627
66.28066399999982,25.397143999999983,6036
65.95666399999982,24.74914399999998,5872
65.63266399999982,24.74914399999998,5876
65.63266399999982,25.397143999999983,5918
65.30866399999982,25.397143999999983,5939
66.60466399999981,25.397143999999983,6096
64.01266399999983,24.74914399999998,6096
64.01266399999983,24.101143999999977,6131
64.01266399999983,23.45314399999998,6155
63.68866399999983,23.45314399999998,6167
63.68866399999983,22.805143999999984,6192
63.68866399999983,26.04514399999998,6784
63.68866399999983,25.397143999999983,6750
63.68866399999983,26.69314399999997,7044
60.44866399999985,26.69314399999997,7036
64.01266399999983,27.989143999999985,7463
62.71666399999984,22.805143999999984,6314
62.39266399999984,22.805143999999984,6346
62.06866399999984,22.805143999999984,6375
62.06866399999984,23.45314399999998,6391
61.74466399999984,23.45314399999998,6403
61.420663999999846,23.45314399999998,6451
61.09666399999985,23.45314399999998,6492
61.09666399999985,24.101143999999977,6499
61.09666399999985,24.74914399999998,6533
60.77266399999985,24.74914399999998,6549
63.04066399999984,21.50914399999997,65535
63.04066399999984,22.15714399999998,65535
63.04066399999984,22.805143999999984,6278
62.39266399999984,26.04514399999998,7441
62.06866399999984,25.397143999999983,7490
61.74466399999984,25.397143999999983,7558
61.74466399999984,24.74914399999998,7595
61.74466399999984,24.101143999999977,7630
61.420663999999846,24.101143999999977,6974
62.39266399999984,26.69314399999997,7412
64.66066399999983,25.397143999999983,6028
64.66066399999983,24.74914399999998,6046
64.33666399999983,24.74914399999998,6057
63.36466399999984,22.805143999999984,6217
67.25266399999981,24.101143999999977,8186
66.92866399999981,24.101143999999977,8150
66.60466399999981,23.45314399999998,8119
66.28066399999982,23.45314399999998,8101
66.28066399999982,24.101143999999977,8083
65.95666399999982,24.101143999999977,3999
60.124663999999854,24.101143999999977,6806
60.124663999999854,23.45314399999998,6843
60.44866399999985,22.805143999999984,65535
60.77266399999985,27.34114399999998,6926
61.09666399999985,27.989143999999985,6958
61.09666399999985,28.63714399999997,7004
61.420663999999846,29.28514399999997,8691
61.74466399999984,29.933143999999977,8749
62.06866399999984,29.933143999999977,8855
62.39266399999984,29.933143999999977,8893
62.71666399999984,29.933143999999977,8926
61.420663999999846,22.805143999999984,6487
61.420663999999846,22.15714399999998,6566
61.09666399999985,22.15714399999998,6554
61.420663999999846,21.50914399999997,6699
62.39266399999984,27.989143999999985,65535
62.06866399999984,27.989143999999985,65535
61.420663999999846,27.34114399999998,65535
63.04066399999984,29.933143999999977,65535
63.68866399999983,29.28514399999997,65535
63.36466399999984,29.28514399999997,65535
63.36466399999984,29.933143999999977,65535
60.44866399999985,27.34114399999998,65535
61.74466399999984,29.28514399999997,65535
62.39266399999984,30.58114399999998,65535
62.71666399999984,31.229143999999977,65535
62.71666399999984,29.28514399999997,65535
63.04066399999984,28.63714399999997,65535
66.60466399999981,26.04514399999998,6106
66.60466399999981,26.69314399999997,6142
66.60466399999981,27.34114399999998,6165
62.71666399999984,26.04514399999998,7326
62.71666399999984,25.397143999999983,7295
63.04066399999984,25.397143999999983,7115
63.36466399999984,25.397143999999983,7078
62.71666399999984,23.45314399999998,7320
62.39266399999984,24.101143999999977,65535
62.71666399999984,22.15714399999998,65535
62.39266399999984,22.15714399999998,65535
62.39266399999984,21.50914399999997,65535
61.09666399999985,21.50914399999997,8377
60.77266399999985,22.805143999999984,7803
60.44866399999985,22.15714399999998,7851
60.77266399999985,23.45314399999998,7785
60.77266399999985,21.50914399999997,7953
60.77266399999985,22.15714399999998,7906
60.124663999999854,22.805143999999984,8119
60.44866399999985,24.101143999999977,6792
62.06866399999984,24.74914399999998,65535
50.72866399999991,16.325143999999987,1070
50.40466399999991,16.973143999999984,1147
50.72866399999991,16.973143999999984,1108
50.40466399999991,16.325143999999987,1186
50.08066399999991,16.973143999999984,1209
50.08066399999991,16.325143999999987,1113
51.700663999999904,16.973143999999984,1170
51.37666399999991,16.973143999999984,1064
51.05266399999991,15.677143999999986,982
50.72866399999991,15.677143999999986,1055
51.05266399999991,17.621143999999987,1035
51.37666399999991,17.621143999999987,1183
51.700663999999904,17.621143999999987,1203
51.700663999999904,16.325143999999987,1102
52.0246639999999,22.15714399999998,1378
52.0246639999999,21.50914399999997,1318
52.3486639999999,21.50914399999997,1314
52.0246639999999,20.86114399999998,1317
51.700663999999904,20.86114399999998,1313
51.37666399999991,21.50914399999997,1296
51.37666399999991,20.86114399999998,1278
51.05266399999991,20.86114399999998,1232
52.6726639999999,23.45314399999998,1506
52.3486639999999,22.805143999999984,1446
52.3486639999999,20.213143999999986,1333
52.0246639999999,20.213143999999986,1335
52.3486639999999,19.565143999999982,1392
52.6726639999999,19.565143999999982,1426
51.700663999999904,21.50914399999997,1355
51.700663999999904,22.15714399999998,1361
52.6726639999999,21.50914399999997,1353
52.996663999999896,21.50914399999997,1405
52.6726639999999,20.86114399999998,1343
52.6726639999999,22.15714399999998,1369
52.6726639999999,20.213143999999986,1420
52.996663999999896,19.565143999999982,1486
52.996663999999896,20.86114399999998,1376
52.996663999999896,20.213143999999986,1385
53.32066399999989,20.213143999999986,1433
51.37666399999991,20.213143999999986,1459
52.3486639999999,16.973143999999984,1175
52.0246639999999,16.973143999999984,1180
52.0246639999999,16.325143999999987,1138
52.0246639999999,17.621143999999987,1193
52.6726639999999,16.973143999999984,1165
52.996663999999896,16.973143999999984,1170
52.3486639999999,16.325143999999987,1199
52.3486639999999,15.677143999999986,1113
51.700663999999904,18.269143999999983,1363
52.6726639999999,17.621143999999987,1226
52.3486639999999,17.621143999999987,1200
52.6726639999999,18.269143999999983,1257
52.3486639999999,18.269143999999983,1247
52.3486639999999,18.917143999999983,1291
52.996663999999896,17.621143999999987,1227
51.700663999999904,19.565143999999982,1354
51.700663999999904,18.917143999999983,1379
51.37666399999991,18.269143999999983,1164
58.82866399999986,9.197143999999987,2768
58.180663999999865,7.90114399999999,2861
58.50466399999986,8.54914399999999,2812
63.36466399999984,10.493143999999988,2983
63.36466399999984,11.141143999999988,2990
63.36466399999984,11.789143999999988,3025
63.68866399999983,11.789143999999988,3053
64.33666399999983,12.437143999999988,3454
64.66066399999983,12.437143999999988,3949
65.63266399999982,13.085143999999987,3606
65.95666399999982,13.085143999999987,3641
66.28066399999982,14.381143999999988,3711
65.95666399999982,13.733143999999989,3780
66.28066399999982,13.733143999999989,3689
65.30866399999982,13.085143999999987,3907
64.98466399999982,13.085143999999987,3541
64.01266399999983,11.789143999999988,3084
63.68866399999983,11.141143999999988,3021
59.800663999999855,10.493143999999988,2564
59.800663999999855,11.141143999999988,2547
60.124663999999854,11.141143999999988,2562
60.44866399999985,11.141143999999988,2575
60.124663999999854,11.789143999999988,2588
60.77266399999985,7.25314399999999,2824
60.77266399999985,6.60514399999999,2870
59.15266399999986,9.197143999999987,2650
59.47666399999986,9.197143999999987,2671
59.800663999999855,9.845143999999989,2566
59.47666399999986,11.141143999999988,2511
61.09666399999985,10.493143999999988,2685
60.77266399999985,10.493143999999988,2655
60.77266399999985,11.141143999999988,2610
62.06866399999984,9.197143999999987,3010
61.74466399999984,9.845143999999989,2956
61.420663999999846,9.845143999999989,2933
59.15266399999986,9.845143999999989,2630
59.47666399999986,9.845143999999989,2606
58.82866399999986,5.957143999999991,3045
58.180663999999865,7.25314399999999,2917
58.50466399999986,7.25314399999999,2950
58.50466399999986,6.60514399999999,2955
58.50466399999986,5.957143999999991,3013
58.82866399999986,8.54914399999999,2798
60.44866399999985,7.25314399999999,2798
60.44866399999985,7.90114399999999,2759
60.124663999999854,10.493143999999988,2596
60.44866399999985,9.197143999999987,2708
60.77266399999985,9.197143999999987,2720
60.77266399999985,8.54914399999999,2739
60.124663999999854,9.845143999999989,2854
60.44866399999985,10.493143999999988,2641
63.04066399999984,10.493143999999988,2934
62.06866399999984,9.845143999999989,3035
62.39266399999984,9.845143999999989,3043
62.71666399999984,9.845143999999989,3067
59.47666399999986,14.381143999999988,2517
59.47666399999986,13.733143999999989,2501
59.47666399999986,13.085143999999987,2477
59.800663999999855,12.437143999999988,2546
59.15266399999986,11.141143999999988,2475
59.15266399999986,14.381143999999988,2501
58.82866399999986,11.789143999999988,2455
58.50466399999986,12.437143999999988,2385
58.180663999999865,12.437143999999988,2378
57.85666399999987,11.789143999999988,2329
62.71666399999984,7.90114399999999,3096
62.39266399999984,7.90114399999999,3053
62.06866399999984,8.54914399999999,3028
60.44866399999985,5.309143999999991,2944
60.44866399999985,5.957143999999991,2911
60.77266399999985,5.957143999999991,2900
62.39266399999984,11.141143999999988,2831
62.06866399999984,10.493143999999988,2786
61.74466399999984,11.141143999999988,2759
61.420663999999846,11.141143999999988,2713
61.09666399999985,11.141143999999988,2696
60.77266399999985,11.789143999999988,2673
63.04066399999984,11.141143999999988,2912
62.71666399999984,11.141143999999988,2855
62.39266399999984,10.493143999999988,2813
67.25266399999981,15.677143999999986,3830
67.25266399999981,15.029143999999986,3868
67.25266399999981,14.381143999999988,3896
66.92866399999981,15.029143999999986,3819
66.60466399999981,15.677143999999986,3797
64.01266399999983,11.141143999999988,3068
66.60466399999981,15.029143999999986,3860
54.29266399999989,18.269143999999983,1470
54.616663999999886,17.621143999999987,1428
53.96866399999989,18.269143999999983,1458
43.92466399999995,1.4211439999999929,194
44.24866399999995,0.7731439999999932,216
44.572663999999946,0.1251439999999934,188
46.84066399999993,1.4211439999999929,252
44.572663999999946,1.4211439999999929,151
44.24866399999995,1.4211439999999929,163
45.54466399999994,1.4211439999999929,145
46.516663999999935,1.4211439999999929,362
42.30466399999996,2.717143999999992,991
44.24866399999995,2.717143999999992,68
44.572663999999946,2.717143999999992,43
43.92466399999995,2.0691439999999925,144
42.30466399999996,2.0691439999999925,1032
42.62866399999996,2.0691439999999925,496
42.62866399999996,1.4211439999999929,490
42.95266399999996,1.4211439999999929,263
43.276663999999954,1.4211439999999929,250
46.516663999999935,-1.170856000000006,881
46.19266399999994,-1.170856000000006,311
45.86866399999994,-0.5228560000000062,280
45.54466399999994,-0.5228560000000062,236
48.46066399999992,1.4211439999999929,295
41.332663999999966,2.0691439999999925,1234
41.98066399999996,2.717143999999992,1193
48.46066399999992,-1.8188560000000056,894
47.81266399999993,0.7731439999999932,343
46.84066399999993,0.7731439999999932,331
44.572663999999946,-1.170856000000006,176
43.60066399999995,-1.170856000000006,246
43.276663999999954,-1.8188560000000056,255
43.276663999999954,0.1251439999999934,352
42.95266399999996,0.1251439999999934,336
43.276663999999954,-0.5228560000000062,295
43.60066399999995,-0.5228560000000062,284
47.81266399999993,-3.7628560000000046,955
47.48866399999993,-2.4668560000000053,914
47.81266399999993,-0.5228560000000062,845
46.516663999999935,-1.8188560000000056,906
48.136663999999925,-1.170856000000006,833
47.48866399999993,-1.170856000000006,841
45.22066399999994,8.54914399999999,816
45.22066399999994,7.90114399999999,836
46.19266399999994,-0.5228560000000062,342
46.516663999999935,-0.5228560000000062,873
48.78466399999992,-3.114856000000005,978
50.72866399999991,2.0691439999999925,813
50.40466399999991,2.0691439999999925,848
40.36066399999997,-3.7628560000000046,1425
41.65666399999997,-1.170856000000006,1342
41.332663999999966,1.4211439999999929,1280
43.276663999999954,13.733143999999989,3910
42.95266399999996,13.733143999999989,3932
41.65666399999997,15.029143999999986,4016
40.68466399999997,17.621143999999987,4178
43.60066399999995,13.085143999999987,3903
41.65666399999997,12.437143999999988,2569
41.65666399999997,13.085143999999987,2588
41.98066399999996,13.085143999999987,2638
41.65666399999997,13.733143999999989,2640
41.332663999999966,13.733143999999989,2632
41.332663999999966,14.381143999999988,2789
41.00866399999997,14.381143999999988,2695
41.332663999999966,13.085143999999987,2614
41.00866399999997,15.029143999999986,2895
41.98066399999996,13.733143999999989,2837
42.30466399999996,14.381143999999988,2976
42.30466399999996,12.437143999999988,2577
42.62866399999996,12.437143999999988,2756
42.95266399999996,12.437143999999988,3041
42.30466399999996,11.789143999999988,2586
42.95266399999996,11.789143999999988,2796
42.62866399999996,11.789143999999988,2787
43.276663999999954,11.789143999999988,2850
42.95266399999996,13.085143999999987,3804
42.30466399999996,13.085143999999987,2863
43.276663999999954,13.085143999999987,3852
43.276663999999954,12.437143999999988,3859
42.62866399999996,11.141143999999988,2632
42.95266399999996,11.141143999999988,2675
42.95266399999996,10.493143999999988,2693
44.572663999999946,8.54914399999999,890
44.89666399999994,7.90114399999999,847
44.89666399999994,9.197143999999987,888
44.24866399999995,7.90114399999999,879
44.572663999999946,7.90114399999999,860
43.92466399999995,7.90114399999999,963
44.24866399999995,7.25314399999999,876
44.89666399999994,7.25314399999999,858
45.22066399999994,7.25314399999999,868
45.54466399999994,7.90114399999999,844
44.572663999999946,7.25314399999999,922
52.996663999999896,22.805143999999984,1603
52.996663999999896,23.45314399999998,1593
51.37666399999991,22.15714399999998,1403
51.37666399999991,22.805143999999984,1457
50.08066399999991,20.213143999999986,1215
50.72866399999991,20.213143999999986,1164
50.40466399999991,20.213143999999986,1154
50.08066399999991,20.86114399999998,1345
50.08066399999991,21.50914399999997,1386
50.08066399999991,22.15714399999998,1405
50.08066399999991,22.805143999999984,1427
53.96866399999989,22.805143999999984,1827
53.64466399999989,23.45314399999998,1780
53.32066399999989,23.45314399999998,1737
50.40466399999991,19.565143999999982,1146
50.08066399999991,18.917143999999983,1202
50.08066399999991,18.269143999999983,1081
52.0246639999999,22.805143999999984,1427
52.0246639999999,23.45314399999998,1464
51.37666399999991,19.565143999999982,1314
51.05266399999991,19.565143999999982,1267
50.72866399999991,18.917143999999983,1125
50.72866399999991,19.565143999999982,1249
49.75666399999992,18.917143999999983,1398
50.40466399999991,18.269143999999983,1066
53.64466399999989,19.565143999999982,1417
53.96866399999989,18.917143999999983,1472
53.64466399999989,18.917143999999983,1426
53.64466399999989,20.213143999999986,1446
52.996663999999896,18.917143999999983,1281
52.996663999999896,18.269143999999983,1264
53.32066399999989,18.917143999999983,1365
50.72866399999991,17.621143999999987,1042
50.72866399999991,18.269143999999983,1052
52.6726639999999,16.325143999999987,1122
52.996663999999896,16.325143999999987,1108
52.996663999999896,15.677143999999986,1082
53.32066399999989,15.677143999999986,1112
53.32066399999989,15.029143999999986,1059
53.64466399999989,15.029143999999986,1128
53.96866399999989,15.029143999999986,1113
52.6726639999999,18.917143999999983,1322
53.32066399999989,16.325143999999987,1163
52.6726639999999,15.029143999999986,1010
51.05266399999991,22.805143999999984,1480
51.05266399999991,23.45314399999998,1521
50.72866399999991,22.15714399999998,1449
50.40466399999991,22.15714399999998,1472
51.05266399999991,22.15714399999998,1454
54.616663999999886,16.973143999999984,1412
54.29266399999989,16.325143999999987,1345
53.96866399999989,15.677143999999986,1260
50.72866399999991,21.50914399999997,1437
50.40466399999991,21.50914399999997,1424
50.40466399999991,17.621143999999987,1064
53.32066399999989,22.805143999999984,1598
53.64466399999989,22.15714399999998,1579
54.29266399999989,16.973143999999984,1381
50.72866399999991,20.86114399999998,1203
51.700663999999904,22.805143999999984,1477
51.05266399999991,21.50914399999997,1248
50.08066399999991,19.565143999999982,1230
52.0246639999999,18.917143999999983,8008
52.0246639999999,19.565143999999982,8001
53.64466399999989,18.269143999999983,1452
51.700663999999904,20.213143999999986,1446
53.32066399999989,19.565143999999982,1408
50.72866399999991,23.45314399999998,1626
50.72866399999991,22.805143999999984,1597
49.43266399999992,20.213143999999986,1379
49.75666399999992,21.50914399999997,1442
49.75666399999992,22.15714399999998,1439
49.43266399999992,22.15714399999998,1430
51.05266399999991,18.917143999999983,1376
51.05266399999991,18.269143999999983,1063
53.32066399999989,16.973143999999984,1339
53.64466399999989,16.973143999999984,1358
49.75666399999992,20.86114399999998,1388
50.40466399999991,22.805143999999984,8090
53.64466399999989,16.325143999999987,1317
53.96866399999989,20.86114399999998,1483
54.29266399999989,20.86114399999998,1528
53.96866399999989,21.50914399999997,1549
53.64466399999989,15.677143999999986,1272
53.96866399999989,20.213143999999986,1561
53.96866399999989,19.565143999999982,1524
54.29266399999989,19.565143999999982,1534
53.96866399999989,16.325143999999987,1308
53.64466399999989,17.621143999999987,1404
53.96866399999989,22.15714399999998,1622
53.64466399999989,21.50914399999997,1524
53.64466399999989,20.86114399999998,1477
52.6726639999999,15.677143999999986,1064
51.05266399999991,20.213143999999986,1456
54.940663999999884,24.101143999999977,3201
54.616663999999886,23.45314399999998,3145
54.29266399999989,23.45314399999998,3008
53.64466399999989,22.805143999999984,1585
53.96866399999989,16.973143999999984,1513
50.40466399999991,20.86114399999998,1303
53.32066399999989,18.269143999999983,1425
49.75666399999992,19.565143999999982,1255
50.40466399999991,23.45314399999998,1516
49.75666399999992,20.213143999999986,1357
49.43266399999992,19.565143999999982,1365
49.43266399999992,20.86114399999998,1355
53.96866399999989,17.621143999999987,2283
42.30466399999996,-1.8188560000000056,8319
41.98066399999996,-1.8188560000000056,8302
41.65666399999997,0.7731439999999932,8306
42.62866399999996,-1.8188560000000056,8434
42.95266399999996,-1.8188560000000056,8463
42.62866399999996,-3.114856000000005,8557
42.95266399999996,-2.4668560000000053,8535
42.62866399999996,-7.650856000000003,8899
42.30466399999996,-7.650856000000003,8959
42.30466399999996,-8.946856000000002,9095
42.30466399999996,-8.298856000000002,9069
41.98066399999996,-8.298856000000002,9058
42.30466399999996,-7.002856000000003,8841
42.62866399999996,-6.354856000000003,8783
42.30466399999996,-6.354856000000003,8738
42.62866399999996,-5.706856000000004,8238
41.98066399999996,-4.410856000000004,8192
42.30466399999996,-3.7628560000000046,8583
40.03666399999997,-0.5228560000000062,8286
39.38866399999998,-0.5228560000000062,8334
41.00866399999997,0.7731439999999932,8434
40.68466399999997,0.7731439999999932,8466
40.36066399999997,0.1251439999999934,8544
39.712663999999975,-0.5228560000000062,8443
38.41666399999998,-0.5228560000000062,8455
39.06466399999998,-0.5228560000000062,8577
38.74066399999998,-1.170856000000006,8463
41.332663999999966,0.7731439999999932,8494
41.65666399999997,2.717143999999992,8094
41.65666399999997,2.0691439999999925,8117
41.332663999999966,0.1251439999999934,8452
41.332663999999966,-0.5228560000000062,8396
41.65666399999997,-4.410856000000004,8166
40.03666399999997,-2.4668560000000053,8404
41.00866399999997,-4.410856000000004,8287
43.276663999999954,-5.706856000000004,8368
39.38866399999998,-1.170856000000006,8429
38.09266399999999,-1.170856000000006,8842
38.74066399999998,-0.5228560000000062,8605
37.76866399999999,-1.170856000000006,8907
39.06466399999998,-1.8188560000000056,8427
39.38866399999998,-3.114856000000005,8327
39.38866399999998,-2.4668560000000053,8383
39.06466399999998,-2.4668560000000053,8410
39.06466399999998,-3.114856000000005,8331
39.06466399999998,-3.7628560000000046,8305
38.74066399999998,-3.7628560000000046,8384
40.03666399999997,-3.7628560000000046,8283
40.03666399999997,-3.114856000000005,8483
40.03666399999997,-1.8188560000000056,8564
39.712663999999975,-1.8188560000000056,8529
39.712663999999975,-1.170856000000006,8465
40.36066399999997,-1.170856000000006,8484
40.68466399999997,-1.170856000000006,8462
41.00866399999997,-1.170856000000006,8450
41.332663999999966,-1.170856000000006,8290
43.276663999999954,-8.298856000000002,9059
42.95266399999996,-8.298856000000002,9027
41.65666399999997,-5.706856000000004,65535
41.98066399999996,-7.002856000000003,65535
41.98066399999996,-6.354856000000003,65535
41.332663999999966,-5.058856000000004,8405
43.276663999999954,-3.7628560000000046,8840
42.95266399999996,-4.410856000000004,8774
42.62866399999996,-4.410856000000004,8764
42.30466399999996,-4.410856000000004,8723
41.00866399999997,-5.706856000000004,8343
41.332663999999966,-1.8188560000000056,8236
40.68466399999997,-3.114856000000005,8190
41.00866399999997,-3.114856000000005,8241
41.00866399999997,-2.4668560000000053,8264
41.332663999999966,-2.4668560000000053,8317
40.68466399999997,-4.410856000000004,8227
40.36066399999997,-4.410856000000004,8311
40.68466399999997,-3.7628560000000046,8219
40.36066399999997,-3.114856000000005,8197
41.65666399999997,-2.4668560000000053,8334
38.09266399999999,-3.7628560000000046,8431
38.74066399999998,-3.114856000000005,8375
37.76866399999999,-3.7628560000000046,8488
39.712663999999975,-3.114856000000005,8319
38.41666399999998,-3.7628560000000046,8396
40.03666399999997,-4.410856000000004,65535
40.03666399999997,-5.058856000000004,65535
39.38866399999998,-6.354856000000003,65535
39.38866399999998,-7.002856000000003,65535
42.95266399999996,-3.114856000000005,8968
41.98066399999996,-1.170856000000006,8331
42.30466399999996,-2.4668560000000053,8372
41.65666399999997,-0.5228560000000062,8429
41.98066399999996,-0.5228560000000062,8266
41.65666399999997,0.1251439999999934,8293
41.98066399999996,0.1251439999999934,8315
37.76866399999999,-5.058856000000004,8367
36.79666399999999,-4.410856000000004,8426
38.74066399999998,-4.410856000000004,8323
37.12066399999999,-4.410856000000004,8400
37.44466399999999,-5.058856000000004,8924
37.44466399999999,-7.002856000000003,65535
37.44466399999999,-6.354856000000003,65535
37.44466399999999,-5.706856000000004,8600
39.712663999999975,-3.7628560000000046,8393
42.62866399999996,-8.946856000000002,65535
42.30466399999996,-5.706856000000004,8745
42.30466399999996,-5.058856000000004,8830
42.95266399999996,-5.706856000000004,8270
41.00866399999997,-5.058856000000004,8311
40.68466399999997,-5.058856000000004,8285
41.65666399999997,-5.058856000000004,65535
41.65666399999997,-6.354856000000003,65535
36.79666399999999,-6.354856000000003,65535
37.12066399999999,-5.706856000000004,8768
37.76866399999999,-5.706856000000004,8567
38.09266399999999,-4.410856000000004,8702
37.12066399999999,-5.058856000000004,8722
36.79666399999999,-5.058856000000004,8680
37.76866399999999,-4.410856000000004,65535
37.76866399999999,-7.002856000000003,65535
38.41666399999998,-6.354856000000003,65535
38.09266399999999,-6.354856000000003,65535
48.78466399999992,1.4211439999999929,806
56.23666399999988,8.54914399999999,6610
55.58866399999988,9.197143999999987,6415
55.91266399999988,9.197143999999987,6556
55.26466399999988,10.493143999999988,2034
55.91266399999988,12.437143999999988,2169
55.58866399999988,11.789143999999988,6255
55.58866399999988,11.141143999999988,6296
55.26466399999988,11.789143999999988,6288
55.58866399999988,10.493143999999988,6411
55.58866399999988,13.085143999999987,2126
56.88466399999987,9.845143999999989,6562
57.20866399999987,9.845143999999989,6597
56.56066399999988,9.845143999999989,6534
56.88466399999987,8.54914399999999,6649
54.940663999999884,9.845143999999989,7756
54.940663999999884,11.789143999999988,6512
55.91266399999988,13.085143999999987,2184
56.23666399999988,13.733143999999989,2228
55.91266399999988,13.733143999999989,2231
56.23666399999988,14.381143999999988,2251
56.23666399999988,15.029143999999986,2292
56.23666399999988,15.677143999999986,2347
56.56066399999988,14.381143999999988,2308
56.88466399999987,14.381143999999988,2278
56.23666399999988,13.085143999999987,2176
56.56066399999988,13.085143999999987,2256
56.88466399999987,12.437143999999988,2293
57.20866399999987,12.437143999999988,2309
57.53266399999987,12.437143999999988,2324
56.88466399999987,15.029143999999986,2304
56.56066399999988,15.677143999999986,2364
56.88466399999987,15.677143999999986,2383
56.88466399999987,16.325143999999987,2398
55.91266399999988,11.789143999999988,6581
57.20866399999987,10.493143999999988,6784
49.43266399999992,1.4211439999999929,384
49.75666399999992,0.7731439999999932,815
49.75666399999992,2.0691439999999925,376
50.08066399999991,2.717143999999992,831
49.75666399999992,1.4211439999999929,870
47.81266399999993,1.4211439999999929,410
48.136663999999925,2.0691439999999925,873
48.46066399999992,2.0691439999999925,854
48.136663999999925,1.4211439999999929,836
48.78466399999992,0.1251439999999934,887
48.46066399999992,0.1251439999999934,903
47.81266399999993,0.1251439999999934,866
46.84066399999993,-0.5228560000000062,1122
47.16466399999993,0.7731439999999932,863
46.84066399999993,0.1251439999999934,316
46.84066399999993,-1.170856000000006,862
50.08066399999991,1.4211439999999929,864
50.08066399999991,2.0691439999999925,855
49.43266399999992,2.717143999999992,345
49.75666399999992,3.365143999999992,413
50.08066399999991,3.365143999999992,817
49.10866399999992,2.0691439999999925,335
49.43266399999992,2.0691439999999925,361
48.78466399999992,0.7731439999999932,937
48.78466399999992,-0.5228560000000062,1057
48.78466399999992,-1.170856000000006,949
48.136663999999925,0.7731439999999932,830
48.46066399999992,0.7731439999999932,436
43.92466399999995,5.957143999999991,1027
44.24866399999995,5.957143999999991,1065
43.92466399999995,5.309143999999991,828
42.95266399999996,2.717143999999992,376
45.54466399999994,2.0691439999999925,236
45.22066399999994,2.0691439999999925,131
42.95266399999996,2.0691439999999925,930
42.95266399999996,0.7731439999999932,333
43.276663999999954,0.7731439999999932,309
46.19266399999994,0.7731439999999932,208
46.516663999999935,0.7731439999999932,246
45.86866399999994,0.1251439999999934,867
46.19266399999994,0.1251439999999934,884
47.81266399999993,-1.170856000000006,976
48.136663999999925,-2.4668560000000053,888
47.48866399999993,-1.8188560000000056,876
47.16466399999993,-1.170856000000006,852
47.16466399999993,-0.5228560000000062,883
46.84066399999993,-1.8188560000000056,960
45.22066399999994,-0.5228560000000062,206
44.89666399999994,0.1251439999999934,149
45.22066399999994,0.7731439999999932,161
45.54466399999994,0.7731439999999932,180
45.86866399999994,0.7731439999999932,226
45.22066399999994,0.1251439999999934,208
44.89666399999994,0.7731439999999932,87
43.92466399999995,-0.5228560000000062,251
43.92466399999995,-1.170856000000006,226
44.24866399999995,-1.170856000000006,208
45.22066399999994,-1.170856000000006,258
44.572663999999946,-0.5228560000000062,172
44.24866399999995,0.1251439999999934,209
44.572663999999946,0.7731439999999932,233
43.276663999999954,-1.170856000000006,890
42.95266399999996,-0.5228560000000062,1092
44.24866399999995,2.0691439999999925,120
43.60066399999995,0.7731439999999932,254
43.60066399999995,2.0691439999999925,200
52.6726639999999,4.661143999999991,6601
52.6726639999999,5.309143999999991,6624
51.700663999999904,5.309143999999991,6569
52.0246639999999,5.309143999999991,6581
52.3486639999999,5.309143999999991,6597
51.37666399999991,4.013143999999992,6577
52.3486639999999,5.957143999999991,6591
52.0246639999999,6.60514399999999,6621
52.6726639999999,5.957143999999991,6608
52.996663999999896,5.957143999999991,6621
53.32066399999989,5.957143999999991,6615
52.996663999999896,6.60514399999999,6597
53.32066399999989,6.60514399999999,6589
52.6726639999999,6.60514399999999,6617
52.996663999999896,5.309143999999991,6636
59.15266399999986,24.101143999999977,65535
56.88466399999987,24.101143999999977,65535
56.88466399999987,23.45314399999998,65535
56.88466399999987,22.805143999999984,65535
57.20866399999987,24.74914399999998,65535
56.88466399999987,24.74914399999998,65535
56.56066399999988,24.74914399999998,65535
56.56066399999988,25.397143999999983,65535
56.56066399999988,24.101143999999977,65535
56.56066399999988,23.45314399999998,65535
56.56066399999988,26.04514399999998,65535
56.88466399999987,26.04514399999998,65535
57.20866399999987,25.397143999999983,65535
57.53266399999987,25.397143999999983,65535
56.23666399999988,26.04514399999998,65535
56.23666399999988,26.69314399999997,65535
55.91266399999988,26.69314399999997,65535
56.56066399999988,26.69314399999997,65535
56.56066399999988,27.34114399999998,65535
56.56066399999988,27.989143999999985,65535
56.23666399999988,27.989143999999985,65535
55.91266399999988,27.34114399999998,65535
56.56066399999988,22.805143999999984,65535
56.56066399999988,22.15714399999998,65535
56.56066399999988,21.50914399999997,65535
57.20866399999987,26.69314399999997,65535
39.06466399999998,-8.946856000000002,65535
38.41666399999998,-8.298856000000002,65535
45.86866399999994,11.789143999999988,1588
46.19266399999994,11.789143999999988,1575
46.19266399999994,10.493143999999988,1615
45.22066399999994,18.269143999999983,1452
45.22066399999994,18.917143999999983,1493
45.54466399999994,16.973143999999984,1355
45.22066399999994,17.621143999999987,1396
45.86866399999994,16.325143999999987,1316
45.54466399999994,18.917143999999983,1540
45.54466399999994,16.325143999999987,1330
45.54466399999994,18.269143999999983,1508
44.89666399999994,18.917143999999983,1690
46.19266399999994,16.973143999999984,1316
46.19266399999994,16.325143999999987,1321
45.86866399999994,16.973143999999984,1333
45.86866399999994,17.621143999999987,1428
46.19266399999994,15.677143999999986,1290
46.516663999999935,16.325143999999987,1295
45.54466399999994,15.677143999999986,1365
45.22066399999994,15.029143999999986,1401
45.54466399999994,15.029143999999986,1362
45.22066399999994,15.677143999999986,1426
44.572663999999946,15.677143999999986,1579
44.24866399999995,15.677143999999986,1600
43.92466399999995,16.325143999999987,1664
44.89666399999994,15.677143999999986,1543
45.54466399999994,17.621143999999987,1407
45.22066399999994,16.325143999999987,1385
46.516663999999935,16.973143999999984,1308
45.86866399999994,18.269143999999983,1600
43.92466399999995,15.677143999999986,1766
45.22066399999994,13.733143999999989,1410
47.48866399999993,19.565143999999982,1132
47.16466399999993,18.917143999999983,1118
47.81266399999993,18.917143999999983,1066
45.54466399999994,9.845143999999989,859
45.22066399999994,9.845143999999989,868
45.22066399999994,10.493143999999988,919
45.86866399999994,9.845143999999989,884
45.86866399999994,10.493143999999988,2358
48.78466399999992,21.50914399999997,1276
49.10866399999992,20.213143999999986,1313
49.10866399999992,18.917143999999983,1266
48.46066399999992,17.621143999999987,1007
49.43266399999992,17.621143999999987,1213
49.10866399999992,17.621143999999987,1132
48.136663999999925,18.269143999999983,1098
49.10866399999992,18.269143999999983,1193
49.43266399999992,18.269143999999983,1244
49.43266399999992,16.973143999999984,1191
49.75666399999992,16.973143999999984,1161
49.75666399999992,16.325143999999987,1139
50.08066399999991,15.677143999999986,1091
50.08066399999991,15.029143999999986,1061
49.43266399999992,18.917143999999983,1255
47.81266399999993,20.86114399999998,1195
48.136663999999925,20.86114399999998,1226
48.46066399999992,20.86114399999998,1268
48.46066399999992,21.50914399999997,1272
49.10866399999992,19.565143999999982,1305
48.136663999999925,17.621143999999987,986
48.78466399999992,22.15714399999998,1375
48.78466399999992,20.86114399999998,1407
49.10866399999992,20.86114399999998,1334
48.78466399999992,18.269143999999983,1132
48.78466399999992,17.621143999999987,1109
49.10866399999992,21.50914399999997,1336
48.78466399999992,20.213143999999986,1415
48.46066399999992,20.213143999999986,1456
48.136663999999925,19.565143999999982,1605
48.46066399999992,19.565143999999982,1484
48.46066399999992,18.917143999999983,1226
48.46066399999992,18.269143999999983,1050
48.78466399999992,19.565143999999982,1250
48.78466399999992,18.917143999999983,1168
47.81266399999993,18.269143999999983,1030
49.10866399999992,22.15714399999998,1416
49.43266399999992,21.50914399999997,1414
48.136663999999925,18.917143999999983,1306
48.136663999999925,20.213143999999986,1625
52.636,-8.018,65535
52.312,-7.370000000000001,65535
52.312,-8.018,65535
52.636,-8.666,65535
51.988,-8.666,65535
51.988,-8.018,65535
52.96,-8.666,65535
52.96,-6.074000000000002,65535
53.28399999999999,-6.722000000000001,65535
53.60799999999999,-6.722000000000001,65535
53.60799999999999,-7.370000000000001,65535
53.60799999999999,-8.018,65535
54.25599999999999,-8.666,65535
53.93199999999999,-8.666,65535
53.93199999999999,-8.018,65535
52.312,-6.722000000000001,65535
52.636,-6.722000000000001,65535
53.93199999999999,-6.722000000000001,65535
54.25599999999999,-6.074000000000002,65535
53.28399999999999,-7.370000000000001,65535
52.96,-7.370000000000001,65535
52.312,-8.666,65535
52.96,-8.018,65535
52.636,-7.370000000000001,65535
52.96,-6.722000000000001,65535
51.988,-9.314,65535
52.312,-9.314,65535
54.579999999999984,-6.722000000000001,65535
54.579999999999984,-6.074000000000002,65535
53.28399999999999,-8.018,65535
53.28399999999999,-8.666,65535
53.28399999999999,-9.314,65535
53.93199999999999,-9.314,65535
54.25599999999999,-9.314,65535
53.60799999999999,-8.666,65535
53.60799999999999,-9.314,65535
49.43266399999992,14.381143999999988,1115
49.75666399999992,14.381143999999988,1054
49.75666399999992,15.029143999999986,1066
49.75666399999992,13.733143999999989,1100
50.08066399999991,13.733143999999989,1069
49.75666399999992,15.677143999999986,1077
50.40466399999991,15.029143999999986,1010
49.43266399999992,13.733143999999989,1151
50.40466399999991,15.677143999999986,1024
50.40466399999991,13.733143999999989,1063
46.19266399999994,15.029143999999986,1273
45.86866399999994,15.029143999999986,1318
45.86866399999994,14.381143999999988,1295
46.19266399999994,13.733143999999989,1382
45.86866399999994,13.733143999999989,1468
58.50466399999986,13.733143999999989,2420
58.180663999999865,13.733143999999989,2406
58.180663999999865,13.085143999999987,2378
57.85666399999987,12.437143999999988,2342
60.44866399999985,15.677143999999986,2627
60.124663999999854,15.677143999999986,2561
60.124663999999854,16.325143999999987,2599
59.800663999999855,16.325143999999987,2527
59.800663999999855,17.621143999999987,2506
59.47666399999986,18.269143999999983,2488
61.74466399999984,16.973143999999984,2638
61.420663999999846,16.973143999999984,2611
60.77266399999985,16.973143999999984,2563
65.63266399999982,22.15714399999998,3742
65.95666399999982,21.50914399999997,3702
65.63266399999982,20.86114399999998,3673
64.98466399999982,20.213143999999986,3605
64.66066399999983,20.213143999999986,3583
64.33666399999983,19.565143999999982,3277
64.01266399999983,19.565143999999982,2990
63.68866399999983,20.213143999999986,2943
64.66066399999983,18.917143999999983,5654
59.15266399999986,16.325143999999987,2463
59.15266399999986,15.029143999999986,2467
59.15266399999986,17.621143999999987,2480
57.53266399999987,14.381143999999988,2304
57.53266399999987,15.029143999999986,2324
61.09666399999985,14.381143999999988,2731
60.77266399999985,15.029143999999986,2682
60.44866399999985,15.029143999999986,2668
58.180663999999865,15.029143999999986,2381
58.50466399999986,16.325143999999987,2415
58.50466399999986,15.677143999999986,2388
63.36466399999984,13.085143999999987,2975
63.04066399999984,14.381143999999988,2912
62.39266399999984,15.677143999999986,2834
63.36466399999984,13.733143999999989,2957
63.36466399999984,14.381143999999988,2929
62.71666399999984,15.677143999999986,2862
62.39266399999984,17.621143999999987,2696
59.800663999999855,15.677143999999986,2749
55.58866399999988,13.733143999999989,2258
57.20866399999987,14.381143999999988,2288
57.85666399999987,14.381143999999988,2336
58.82866399999986,16.973143999999984,2472
58.82866399999986,16.325143999999987,2450
59.15266399999986,18.269143999999983,2484
60.44866399999985,17.621143999999987,2539
59.15266399999986,12.437143999999988,2443
59.15266399999986,13.085143999999987,2457
58.82866399999986,12.437143999999988,2419
59.47666399999986,16.325143999999987,2509
58.82866399999986,14.381143999999988,2496
59.47666399999986,15.677143999999986,2527
63.36466399999984,18.917143999999983,2896
63.04066399999984,17.621143999999987,2851
62.71666399999984,17.621143999999987,2825
63.68866399999983,19.565143999999982,2929
62.39266399999984,16.973143999999984,2740
59.800663999999855,16.973143999999984,2515
59.47666399999986,17.621143999999987,2492
57.85666399999987,13.085143999999987,2368
57.53266399999987,13.085143999999987,2349
58.50466399999986,11.789143999999988,2390
57.85666399999987,15.029143999999986,2370
57.20866399999987,13.733143999999989,2294
57.53266399999987,13.733143999999989,2355
61.74466399999984,16.325143999999987,2734
61.420663999999846,16.325143999999987,2701
61.09666399999985,16.325143999999987,2690
61.09666399999985,16.973143999999984,2658
60.124663999999854,15.029143999999986,2836
66.60466399999981,20.86114399999998,3777
67.25266399999981,20.86114399999998,3845
67.90066399999981,20.213143999999986,3915
67.57666399999981,20.213143999999986,4540
59.800663999999855,15.029143999999986,2556
58.50466399999986,15.029143999999986,2398
59.47666399999986,15.029143999999986,2541
60.44866399999985,16.325143999999987,2627
59.15266399999986,15.677143999999986,2485
57.85666399999987,13.733143999999989,2396
58.82866399999986,13.733143999999989,2443
58.50466399999986,13.085143999999987,2428
57.20866399999987,13.085143999999987,2325
56.88466399999987,13.085143999999987,2299
58.180663999999865,11.789143999999988,2361
62.06866399999984,16.973143999999984,2729
65.95666399999982,23.45314399999998,3977
59.800663999999855,14.381143999999988,5411
59.800663999999855,18.269143999999983,2497
63.04066399999984,15.029143999999986,2880
62.71666399999984,15.029143999999986,2870
62.39266399999984,16.325143999999987,2803
63.36466399999984,12.437143999999988,3008
68.5486639999998,17.621143999999987,4128
68.5486639999998,18.269143999999983,4061
68.5486639999998,18.917143999999983,4038
68.2246639999998,18.917143999999983,3994
59.800663999999855,13.085143999999987,2560
60.124663999999854,13.085143999999987,2599
59.47666399999986,16.973143999999984,2501
59.15266399999986,16.973143999999984,2493
56.56066399999988,13.733143999999989,2246
60.124663999999854,17.621143999999987,2516
57.85666399999987,16.325143999999987,2475
58.180663999999865,16.325143999999987,2437
58.180663999999865,15.677143999999986,2445
57.20866399999987,16.325143999999987,2487
57.53266399999987,15.677143999999986,2505
57.85666399999987,15.677143999999986,2476
44.89666399999994,23.45314399999998,2485
44.572663999999946,23.45314399999998,2555
44.89666399999994,24.74914399999998,2472
44.572663999999946,24.74914399999998,2591
44.572663999999946,24.101143999999977,2532
44.24866399999995,24.101143999999977,2561
47.48866399999993,25.397143999999983,2333
47.48866399999993,24.74914399999998,2273
47.16466399999993,24.74914399999998,2195
47.16466399999993,24.101143999999977,2097
47.48866399999993,22.15714399999998,2227
47.81266399999993,22.15714399999998,2313
47.16466399999993,22.15714399999998,2206
47.16466399999993,23.45314399999998,2258
47.16466399999993,22.805143999999984,2264
46.84066399999993,24.101143999999977,2178
45.86866399999994,27.34114399999998,2518
45.54466399999994,27.34114399999998,2499
45.54466399999994,27.989143999999985,2615
45.86866399999994,20.86114399999998,2390
45.86866399999994,21.50914399999997,2398
46.19266399999994,21.50914399999997,2334
46.19266399999994,27.34114399999998,2518
46.19266399999994,26.69314399999997,2509
46.516663999999935,26.69314399999997,2471
46.516663999999935,26.04514399999998,2367
47.48866399999993,22.805143999999984,2325
46.84066399999993,22.805143999999984,2138
45.54466399999994,22.15714399999998,2447
45.22066399999994,22.15714399999998,2525
44.89666399999994,22.15714399999998,2943
47.48866399999993,23.45314399999998,2291
46.516663999999935,24.101143999999977,2017
46.516663999999935,24.74914399999998,2231
45.86866399999994,24.101143999999977,2180
47.16466399999993,26.69314399999997,2549
47.16466399999993,27.34114399999998,2604
43.92466399999995,25.397143999999983,2563
44.24866399999995,24.74914399999998,2470
44.89666399999994,26.04514399999998,2357
44.89666399999994,26.69314399999997,2404
45.22066399999994,26.69314399999997,2439
45.22066399999994,27.34114399999998,2466
46.84066399999993,26.69314399999997,2510
47.48866399999993,26.69314399999997,2503
44.24866399999995,25.397143999999983,2402
43.92466399999995,26.04514399999998,2579
46.19266399999994,24.101143999999977,2225
44.572663999999946,25.397143999999983,2440
46.84066399999993,24.74914399999998,2238
46.516663999999935,21.50914399999997,2338
46.84066399999993,21.50914399999997,2345
44.572663999999946,26.69314399999997,2395
44.572663999999946,27.34114399999998,2416
44.89666399999994,27.34114399999998,2531
44.572663999999946,27.989143999999985,2436
44.24866399999995,27.989143999999985,2450
44.572663999999946,28.63714399999997,2501
45.86866399999994,22.15714399999998,2259
45.86866399999994,22.805143999999984,2153
44.24866399999995,23.45314399999998,2588
43.92466399999995,27.989143999999985,65535
46.84066399999993,27.34114399999998,2671
45.22066399999994,23.45314399999998,2460
45.54466399999994,23.45314399999998,2263
45.54466399999994,24.101143999999977,2210
45.22066399999994,24.101143999999977,2434
44.89666399999994,24.101143999999977,2504
46.19266399999994,22.15714399999998,2390
46.516663999999935,22.15714399999998,2356
45.22066399999994,21.50914399999997,2630
45.54466399999994,21.50914399999997,2478
45.54466399999994,20.86114399999998,2502
46.516663999999935,27.989143999999985,2621
46.19266399999994,27.989143999999985,2606
45.54466399999994,25.397143999999983,2324
45.22066399999994,25.397143999999983,2334
45.22066399999994,26.04514399999998,2390
47.81266399999993,24.101143999999977,2386
47.48866399999993,26.04514399999998,2476
47.81266399999993,26.04514399999998,2498
46.19266399999994,23.45314399999998,2057
45.86866399999994,23.45314399999998,2106
44.24866399999995,26.04514399999998,2384
45.22066399999994,27.989143999999985,2596
45.86866399999994,24.74914399999998,2219
46.516663999999935,25.397143999999983,2411
46.84066399999993,25.397143999999983,2294
46.19266399999994,26.04514399999998,2382
45.86866399999994,26.04514399999998,2347
43.92466399999995,23.45314399999998,2818
44.89666399999994,25.397143999999983,2445
46.19266399999994,20.86114399999998,2379
47.81266399999993,25.397143999999983,2510
44.572663999999946,22.805143999999984,2823
44.572663999999946,22.15714399999998,2965
46.516663999999935,23.45314399999998,2196
45.86866399999994,25.397143999999983,2273
44.24866399999995,27.34114399999998,3211
45.22066399999994,24.74914399999998,2536
45.54466399999994,22.805143999999984,2226
45.22066399999994,28.63714399999997,2656
44.89666399999994,28.63714399999997,2595
47.81266399999993,23.45314399999998,2443
46.19266399999994,24.74914399999998,2305
46.19266399999994,25.397143999999983,2329
43.92466399999995,24.101143999999977,2781
43.92466399999995,24.74914399999998,2794
47.81266399999993,26.69314399999997,2725
47.48866399999993,24.101143999999977,2318
46.84066399999993,26.04514399999998,3126
46.19266399999994,22.805143999999984,2450
47.48866399999993,27.34114399999998,2678
46.19266399999994,20.213143999999986,65535
45.54466399999994,26.04514399999998,2482
44.24866399999995,26.69314399999997,2400
45.86866399999994,27.989143999999985,2654
47.81266399999993,5.957143999999991,6586
