51.56399999999999,-0.4100000000000028,65535
51.887999999999984,-0.4100000000000028,65535
50.91599999999999,-1.7060000000000022,65535
51.23999999999999,-1.0580000000000025,65535
51.56399999999999,-1.0580000000000025,65535
51.23999999999999,-1.7060000000000022,65535
51.56399999999999,0.2379999999999968,65535
47.16466399999993,9.845143999999989,342
47.48866399999993,9.845143999999989,347
48.136663999999925,14.381143999999988,781
47.81266399999993,13.085143999999987,488
47.16466399999993,11.141143999999988,600
47.48866399999993,11.789143999999988,590
48.136663999999925,16.325143999999987,933
47.48866399999993,12.437143999999988,478
48.136663999999925,15.677143999999986,906
47.16466399999993,10.493143999999988,438
47.16466399999993,9.197143999999987,331
48.136663999999925,13.733143999999989,496
48.136663999999925,15.029143999999986,823
47.81266399999993,16.973143999999984,955
48.46066399999992,14.381143999999988,904
47.48866399999993,13.085143999999987,490
47.16466399999993,13.085143999999987,812
47.48866399999993,14.381143999999988,874
47.48866399999993,13.733143999999989,924
47.48866399999993,15.029143999999986,945
46.516663999999935,13.733143999999989,1187
46.84066399999993,13.733143999999989,1156
46.84066399999993,13.085143999999987,1141
48.78466399999992,14.381143999999988,65535
47.16466399999993,15.677143999999986,1020
46.516663999999935,14.381143999999988,1194
46.84066399999993,14.381143999999988,1135
47.16466399999993,14.381143999999988,1085
46.516663999999935,15.029143999999986,1207
47.81266399999993,16.325143999999987,952
47.16466399999993,15.029143999999986,1060
47.81266399999993,15.677143999999986,958
47.48866399999993,15.677143999999986,997
46.516663999999935,13.085143999999987,1454
46.84066399999993,12.437143999999988,1199
48.136663999999925,11.789143999999988,428
47.81266399999993,12.437143999999988,441
46.84066399999993,15.677143999999986,1081
46.516663999999935,15.677143999999986,1300
46.84066399999993,16.325143999999987,1065
47.81266399999993,14.381143999999988,835
48.78466399999992,16.973143999999984,1018
48.136663999999925,16.973143999999984,946
48.46066399999992,13.733143999999989,570
47.81266399999993,13.733143999999989,851
50.08066399999991,8.54914399999999,280
48.46066399999992,9.845143999999989,374
51.05266399999991,7.25314399999999,255
51.37666399999991,7.25314399999999,251
51.37666399999991,6.60514399999999,244
48.46066399999992,16.325143999999987,929
48.46066399999992,16.973143999999984,969
48.78466399999992,16.325143999999987,954
48.46066399999992,15.677143999999986,940
48.78466399999992,15.677143999999986,947
47.48866399999993,16.325143999999987,962
47.16466399999993,16.325143999999987,1014
46.19266399999994,14.381143999999988,1252
45.86866399999994,15.677143999999986,1304
43.60066399999995,16.325143999999987,1720
45.54466399999994,14.381143999999988,1366
45.54466399999994,13.733143999999989,1389
48.136663999999925,13.085143999999987,481
48.46066399999992,11.141143999999988,437
48.136663999999925,11.141143999999988,423
48.46066399999992,7.90114399999999,280
49.10866399999992,8.54914399999999,303
48.78466399999992,2.0691439999999925,129
49.10866399999992,7.25314399999999,294
52.0246639999999,7.90114399999999,290
47.16466399999993,11.789143999999988,612
49.43266399999992,11.141143999999988,396
53.64466399999989,9.845143999999989,451
50.72866399999991,4.013143999999992,206
51.05266399999991,11.141143999999988,738
47.48866399999993,11.141143999999988,454
46.84066399999993,11.789143999999988,1622
46.516663999999935,11.141143999999988,1591
45.54466399999994,11.141143999999988,1485
46.19266399999994,11.141143999999988,1557
45.86866399999994,11.141143999999988,1541
44.572663999999946,11.141143999999988,1332
43.92466399999995,12.437143999999988,3965
45.54466399999994,12.437143999999988,1572
45.54466399999994,11.789143999999988,1535
48.78466399999992,15.029143999999986,972
47.81266399999993,15.029143999999986,855
47.81266399999993,11.141143999999988,428
50.40466399999991,18.917143999999983,1075
52.3486639999999,20.86114399999998,1311
54.616663999999886,18.269143999999983,1184
54.29266399999989,18.917143999999983,1193
49.10866399999992,14.381143999999988,65535
50.08066399999991,14.381143999999988,890
48.78466399999992,13.733143999999989,1736
52.6726639999999,13.085143999999987,510
52.3486639999999,13.085143999999987,508
53.96866399999989,12.437143999999988,543
54.29266399999989,12.437143999999988,772
47.48866399999993,8.54914399999999,311
47.81266399999993,17.621143999999987,992
47.48866399999993,18.917143999999983,1100
47.48866399999993,20.86114399999998,1436
46.84066399999993,23.45314399999998,1918
44.572663999999946,26.04514399999998,2367
47.48866399999993,21.50914399999997,1472
47.81266399999993,21.50914399999997,1868
48.46066399999992,22.15714399999998,1297
47.48866399999993,16.973143999999984,65535
49.10866399999992,16.325143999999987,1056
49.75666399999992,18.269143999999983,1064
46.19266399999994,13.085143999999987,2303
41.98066399999996,12.437143999999988,2565
43.60066399999995,10.493143999999988,2726
45.54466399999994,9.197143999999987,450
47.81266399999993,22.805143999999984,2333
49.75666399999992,22.805143999999984,1460
50.72866399999991,3.365143999999992,198
51.05266399999991,4.013143999999992,215
50.72866399999991,4.661143999999991,209
51.05266399999991,4.661143999999991,212
51.05266399999991,3.365143999999992,210
51.05266399999991,2.717143999999992,220
50.40466399999991,4.661143999999991,214
50.72866399999991,2.717143999999992,206
50.40466399999991,4.013143999999992,226
51.05266399999991,5.309143999999991,219
50.72866399999991,5.309143999999991,216
51.37666399999991,3.365143999999992,216
51.37666399999991,4.661143999999991,221
50.72866399999991,5.957143999999991,222
50.40466399999991,5.957143999999991,226
50.40466399999991,3.365143999999992,210
50.40466399999991,5.309143999999991,219
50.08066399999991,5.309143999999991,231
49.75666399999992,5.309143999999991,241
49.75666399999992,5.957143999999991,259
51.37666399999991,5.309143999999991,266
51.700663999999904,4.661143999999991,258
50.08066399999991,4.013143999999992,248
50.08066399999991,5.957143999999991,261
50.08066399999991,4.661143999999991,235
49.43266399999992,5.309143999999991,255
49.43266399999992,5.957143999999991,242
52.0246639999999,4.661143999999991,290
52.3486639999999,4.661143999999991,319
50.72866399999991,15.029143999999986,831
51.05266399999991,15.029143999999986,815
51.05266399999991,13.733143999999989,790
50.40466399999991,13.085143999999987,767
49.10866399999992,7.90114399999999,321
48.78466399999992,7.90114399999999,291
50.40466399999991,7.90114399999999,271
50.08066399999991,7.90114399999999,284
49.75666399999992,7.90114399999999,293
49.43266399999992,7.90114399999999,318
49.75666399999992,8.54914399999999,289
49.43266399999992,8.54914399999999,293
49.43266399999992,9.197143999999987,318
49.10866399999992,9.197143999999987,313
47.48866399999993,7.90114399999999,304
47.81266399999993,7.90114399999999,290
48.136663999999925,7.90114399999999,301
48.136663999999925,9.845143999999989,365
47.81266399999993,9.197143999999987,325
47.81266399999993,8.54914399999999,318
47.81266399999993,9.845143999999989,347
54.940663999999884,9.197143999999987,552
54.616663999999886,9.197143999999987,493
54.29266399999989,9.197143999999987,495
53.96866399999989,9.197143999999987,459
53.64466399999989,9.197143999999987,438
54.616663999999886,9.845143999999989,485
54.29266399999989,9.845143999999989,473
53.96866399999989,9.845143999999989,458
53.64466399999989,10.493143999999988,462
53.96866399999989,10.493143999999988,466
53.96866399999989,11.141143999999988,863
54.29266399999989,10.493143999999988,490
53.32066399999989,10.493143999999988,449
54.940663999999884,11.141143999999988,535
52.6726639999999,13.733143999999989,511
52.3486639999999,13.733143999999989,511
52.3486639999999,14.381143999999988,518
52.0246639999999,14.381143999999988,730
52.0246639999999,11.789143999999988,438
52.3486639999999,11.789143999999988,432
52.3486639999999,12.437143999999988,479
52.0246639999999,15.029143999999986,741
51.700663999999904,14.381143999999988,613
52.0246639999999,13.733143999999989,548
51.700663999999904,13.733143999999989,604
52.6726639999999,12.437143999999988,769
53.32066399999989,11.789143999999988,778
53.96866399999989,11.789143999999988,534
53.64466399999989,11.789143999999988,496
53.64466399999989,11.141143999999988,492
53.32066399999989,11.141143999999988,466
52.996663999999896,11.789143999999988,759
52.996663999999896,12.437143999999988,804
52.996663999999896,13.733143999999989,723
53.64466399999989,13.733143999999989,817
53.96866399999989,13.733143999999989,890
54.29266399999989,13.085143999999987,877
53.96866399999989,13.085143999999987,899
53.32066399999989,13.733143999999989,753
52.0246639999999,13.085143999999987,569
51.700663999999904,13.085143999999987,538
52.996663999999896,14.381143999999988,780
52.0246639999999,12.437143999999988,480
51.700663999999904,12.437143999999988,489
51.37666399999991,11.789143999999988,487
51.37666399999991,12.437143999999988,516
52.6726639999999,11.789143999999988,470
53.64466399999989,13.085143999999987,839
53.32066399999989,13.085143999999987,825
52.996663999999896,13.085143999999987,766
53.64466399999989,12.437143999999988,822
51.37666399999991,13.733143999999989,753
53.32066399999989,12.437143999999988,832
52.6726639999999,14.381143999999988,830
51.37666399999991,13.085143999999987,530
53.32066399999989,14.381143999999988,796
52.3486639999999,15.029143999999986,896
52.0246639999999,15.677143999999986,792
51.700663999999904,15.029143999999986,884
51.05266399999991,16.325143999999987,873
51.05266399999991,16.973143999999984,880
51.700663999999904,15.677143999999986,821
51.37666399999991,15.677143999999986,839
51.37666399999991,16.325143999999987,866
50.72866399999991,13.085143999999987,546
50.72866399999991,12.437143999999988,538
51.05266399999991,13.085143999999987,532
51.05266399999991,14.381143999999988,811
50.40466399999991,12.437143999999988,485
50.40466399999991,11.789143999999988,480
50.08066399999991,12.437143999999988,431
50.72866399999991,11.789143999999988,560
51.05266399999991,12.437143999999988,521
50.72866399999991,14.381143999999988,836
51.37666399999991,14.381143999999988,803
50.72866399999991,13.733143999999989,814
50.40466399999991,14.381143999999988,884
51.37666399999991,15.029143999999986,825
55.26466399999988,9.197143999999987,1788
55.58866399999988,8.54914399999999,3082
55.91266399999988,8.54914399999999,6559
56.23666399999988,9.197143999999987,6567
56.23666399999988,10.493143999999988,6520
56.23666399999988,9.845143999999989,6507
55.91266399999988,9.845143999999989,6445
56.56066399999988,9.197143999999987,6577
56.56066399999988,8.54914399999999,6620
51.05266399999991,6.60514399999999,239
51.700663999999904,7.90114399999999,279
50.72866399999991,6.60514399999999,249
51.700663999999904,7.25314399999999,255
50.72866399999991,7.25314399999999,256
52.0246639999999,7.25314399999999,272
52.3486639999999,7.90114399999999,327
51.05266399999991,5.957143999999991,236
50.40466399999991,7.25314399999999,259
51.700663999999904,6.60514399999999,261
51.700663999999904,5.957143999999991,278
52.3486639999999,9.197143999999987,361
51.700663999999904,8.54914399999999,313
52.0246639999999,8.54914399999999,315
52.3486639999999,8.54914399999999,341
51.37666399999991,7.90114399999999,266
52.3486639999999,7.25314399999999,333
51.37666399999991,5.957143999999991,281
50.72866399999991,7.90114399999999,272
51.37666399999991,9.197143999999987,314
51.700663999999904,9.197143999999987,326
50.40466399999991,6.60514399999999,346
51.05266399999991,7.90114399999999,293
51.37666399999991,8.54914399999999,281
52.0246639999999,5.957143999999991,291
52.3486639999999,6.60514399999999,356
51.05266399999991,8.54914399999999,317
52.0246639999999,9.197143999999987,344
52.6726639999999,9.197143999999987,390
52.0246639999999,9.845143999999989,368
51.700663999999904,9.845143999999989,376
51.37666399999991,9.845143999999989,353
50.72866399999991,8.54914399999999,282
51.05266399999991,9.845143999999989,352
50.72866399999991,9.845143999999989,326
50.40466399999991,9.845143999999989,332
51.05266399999991,9.197143999999987,320
50.40466399999991,9.197143999999987,298
50.08066399999991,9.197143999999987,288
51.05266399999991,10.493143999999988,807
50.40466399999991,8.54914399999999,278
50.72866399999991,9.197143999999987,320
49.75666399999992,9.197143999999987,305
52.996663999999896,9.197143999999987,414
52.3486639999999,9.845143999999989,353
52.996663999999896,8.54914399999999,386
52.996663999999896,7.90114399999999,413
53.32066399999989,7.90114399999999,430
53.32066399999989,7.25314399999999,491
53.64466399999989,7.25314399999999,1018
52.996663999999896,10.493143999999988,383
52.6726639999999,10.493143999999988,377
52.6726639999999,9.845143999999989,360
53.32066399999989,9.845143999999989,443
53.32066399999989,9.197143999999987,447
53.64466399999989,8.54914399999999,433
53.32066399999989,8.54914399999999,397
52.6726639999999,8.54914399999999,363
52.0246639999999,10.493143999999988,392
52.0246639999999,11.141143999999988,409
51.700663999999904,11.141143999999988,435
52.6726639999999,7.25314399999999,432
52.996663999999896,7.25314399999999,460
52.6726639999999,7.90114399999999,367
53.64466399999989,7.90114399999999,442
52.996663999999896,11.141143999999988,791
52.6726639999999,11.141143999999988,475
52.3486639999999,10.493143999999988,367
52.996663999999896,9.845143999999989,396
51.700663999999904,10.493143999999988,396
51.37666399999991,10.493143999999988,768
51.700663999999904,11.789143999999988,451
52.3486639999999,11.141143999999988,392
51.37666399999991,11.141143999999988,543
51.05266399999991,11.789143999999988,539
49.10866399999992,11.141143999999988,421
48.78466399999992,11.141143999999988,444
48.46066399999992,11.789143999999988,432
49.43266399999992,11.789143999999988,406
50.08066399999991,11.789143999999988,425
49.75666399999992,12.437143999999988,464
49.10866399999992,11.789143999999988,441
48.78466399999992,12.437143999999988,466
48.46066399999992,12.437143999999988,451
49.10866399999992,12.437143999999988,449
48.78466399999992,13.085143999999987,510
48.136663999999925,12.437143999999988,461
47.81266399999993,11.789143999999988,432
48.136663999999925,10.493143999999988,406
47.81266399999993,10.493143999999988,368
48.78466399999992,10.493143999999988,430
47.48866399999993,10.493143999999988,363
48.46066399999992,10.493143999999988,392
49.43266399999992,13.085143999999987,774
48.46066399999992,13.085143999999987,496
49.43266399999992,10.493143999999988,373
49.75666399999992,9.845143999999989,340
49.75666399999992,10.493143999999988,374
50.40466399999991,11.141143999999988,434
50.08066399999991,11.141143999999988,401
50.72866399999991,11.141143999999988,765
49.75666399999992,11.141143999999988,391
48.78466399999992,11.789143999999988,487
50.40466399999991,10.493143999999988,343
50.08066399999991,9.845143999999989,335
50.08066399999991,10.493143999999988,377
49.43266399999992,12.437143999999988,449
49.75666399999992,11.789143999999988,420
49.10866399999992,13.085143999999987,568
50.72866399999991,10.493143999999988,823
49.10866399999992,10.493143999999988,387
48.78466399999992,9.845143999999989,325
48.46066399999992,8.54914399999999,324
48.46066399999992,9.197143999999987,349
48.78466399999992,9.197143999999987,321
48.78466399999992,8.54914399999999,317
50.08066399999991,7.25314399999999,286
49.75666399999992,6.60514399999999,272
49.43266399999992,6.60514399999999,328
49.10866399999992,6.60514399999999,284
49.43266399999992,7.25314399999999,316
49.75666399999992,7.25314399999999,311
49.10866399999992,5.957143999999991,237
48.78466399999992,7.25314399999999,272
50.08066399999991,6.60514399999999,280
47.48866399999993,9.197143999999987,328
48.136663999999925,8.54914399999999,320
48.136663999999925,9.197143999999987,329
47.81266399999993,7.25314399999999,285
49.43266399999992,9.845143999999989,344
49.10866399999992,9.845143999999989,320
53.64466399999989,14.381143999999988,813
50.08066399999991,13.085143999999987,914
49.75666399999992,13.085143999999987,935
45.86866399999994,9.197143999999987,444
46.19266399999994,9.197143999999987,414
46.516663999999935,8.54914399999999,872
46.516663999999935,9.197143999999987,859
46.19266399999994,8.54914399999999,401
47.16466399999993,8.54914399999999,319
45.86866399999994,4.661143999999991,259
46.84066399999993,9.845143999999989,337
45.22066399999994,5.957143999999991,342
45.22066399999994,5.309143999999991,373
45.86866399999994,5.957143999999991,329
45.54466399999994,5.957143999999991,339
44.89666399999994,4.661143999999991,265
44.89666399999994,5.309143999999991,337
44.572663999999946,4.661143999999991,296
44.24866399999995,4.661143999999991,309
43.92466399999995,4.661143999999991,303
46.19266399999994,7.25314399999999,316
48.78466399999992,5.957143999999991,228
48.136663999999925,6.60514399999999,251
48.46066399999992,6.60514399999999,246
48.78466399999992,6.60514399999999,250
47.16466399999993,7.90114399999999,312
48.136663999999925,7.25314399999999,260
48.46066399999992,7.25314399999999,296
46.516663999999935,6.60514399999999,305
46.84066399999993,6.60514399999999,297
46.84066399999993,7.25314399999999,313
46.516663999999935,5.957143999999991,309
46.19266399999994,5.957143999999991,317
46.84066399999993,8.54914399999999,328
46.84066399999993,7.90114399999999,316
45.86866399999994,5.309143999999991,268
46.19266399999994,6.60514399999999,338
45.86866399999994,6.60514399999999,400
47.48866399999993,6.60514399999999,330
47.48866399999993,7.25314399999999,299
47.16466399999993,7.25314399999999,321
49.10866399999992,4.013143999999992,193
49.75666399999992,4.661143999999991,250
49.43266399999992,4.661143999999991,220
49.10866399999992,5.309143999999991,190
46.19266399999994,4.661143999999991,235
46.84066399999993,9.197143999999987,358
46.19266399999994,5.309143999999991,247
46.516663999999935,5.309143999999991,296
45.54466399999994,6.60514399999999,378
45.54466399999994,5.309143999999991,316
43.60066399999995,4.013143999999992,326
43.60066399999995,3.365143999999992,364
42.62866399999996,2.717143999999992,432
43.276663999999954,2.717143999999992,396
45.54466399999994,4.661143999999991,279
45.22066399999994,4.661143999999991,296
47.16466399999993,5.309143999999991,237
47.16466399999993,5.957143999999991,261
46.19266399999994,7.90114399999999,328
49.75666399999992,2.717143999999992,172
49.10866399999992,2.717143999999992,159
48.78466399999992,2.717143999999992,176
45.86866399999994,3.365143999999992,237
46.84066399999993,3.365143999999992,133
46.516663999999935,3.365143999999992,170
46.19266399999994,3.365143999999992,217
47.16466399999993,6.60514399999999,314
49.10866399999992,3.365143999999992,203
45.54466399999994,4.013143999999992,289
46.516663999999935,7.25314399999999,312
47.16466399999993,4.661143999999991,237
46.84066399999993,4.661143999999991,222
46.516663999999935,4.661143999999991,217
46.84066399999993,5.957143999999991,253
47.81266399999993,3.365143999999992,227
47.48866399999993,4.013143999999992,234
48.136663999999925,4.013143999999992,224
47.81266399999993,4.013143999999992,245
47.48866399999993,4.661143999999991,283
47.16466399999993,3.365143999999992,136
46.84066399999993,4.013143999999992,227
48.46066399999992,5.957143999999991,251
46.19266399999994,2.717143999999992,201
47.16466399999993,2.0691439999999925,61
46.516663999999935,2.717143999999992,163
46.84066399999993,2.717143999999992,105
46.84066399999993,2.0691439999999925,72
47.16466399999993,2.717143999999992,82
44.572663999999946,5.309143999999991,466
44.572663999999946,5.957143999999991,860
44.89666399999994,6.60514399999999,867
44.572663999999946,6.60514399999999,930
43.60066399999995,5.309143999999991,319
43.92466399999995,7.25314399999999,921
43.60066399999995,6.60514399999999,912
43.276663999999954,6.60514399999999,899
43.276663999999954,5.957143999999991,372
45.86866399999994,8.54914399999999,455
45.54466399999994,8.54914399999999,474
48.136663999999925,3.365143999999992,204
48.46066399999992,3.365143999999992,183
48.46066399999992,2.717143999999992,172
47.48866399999993,5.309143999999991,265
46.516663999999935,9.845143999999989,384
46.84066399999993,10.493143999999988,851
47.81266399999993,5.309143999999991,293
45.22066399999994,6.60514399999999,395
46.19266399999994,4.013143999999992,256
45.86866399999994,4.013143999999992,281
45.22066399999994,4.013143999999992,332
44.89666399999994,4.013143999999992,365
46.84066399999993,5.309143999999991,270
48.136663999999925,-1.8188560000000056,244
48.136663999999925,0.1251439999999934,176
48.136663999999925,-0.5228560000000062,198
47.48866399999993,-0.5228560000000062,172
47.16466399999993,-1.8188560000000056,214
47.48866399999993,0.7731439999999932,113
47.16466399999993,0.1251439999999934,121
45.86866399999994,7.25314399999999,383
48.136663999999925,5.309143999999991,299
49.10866399999992,4.661143999999991,255
48.46066399999992,4.013143999999992,204
48.136663999999925,4.661143999999991,263
47.81266399999993,6.60514399999999,387
47.48866399999993,5.957143999999991,370
48.136663999999925,5.957143999999991,1406
45.86866399999994,7.90114399999999,347
46.516663999999935,7.90114399999999,319
49.43266399999992,3.365143999999992,207
49.43266399999992,4.013143999999992,213
48.136663999999925,2.717143999999992,228
47.81266399999993,2.717143999999992,205
47.48866399999993,2.717143999999992,125
50.40466399999991,2.717143999999992,207
48.46066399999992,-4.410856000000004,393
48.46066399999992,-3.7628560000000046,350
48.46066399999992,-3.114856000000005,335
48.46066399999992,-2.4668560000000053,305
47.48866399999993,1.4211439999999929,91
47.16466399999993,1.4211439999999929,102
46.516663999999935,4.013143999999992,209
43.60066399999995,4.661143999999991,335
44.89666399999994,2.717143999999992,380
45.22066399999994,2.717143999999992,339
45.54466399999994,3.365143999999992,279
45.22066399999994,3.365143999999992,298
47.48866399999993,3.365143999999992,296
46.19266399999994,9.845143999999989,893
47.81266399999993,2.0691439999999925,68
47.48866399999993,2.0691439999999925,0
45.86866399999994,2.717143999999992,863
44.89666399999994,5.957143999999991,851
45.22066399999994,1.4211439999999929,280
44.89666399999994,1.4211439999999929,326
44.89666399999994,2.0691439999999925,414
43.276663999999954,2.0691439999999925,869
43.60066399999995,1.4211439999999929,444
48.78466399999992,4.661143999999991,273
48.78466399999992,5.309143999999991,258
46.19266399999994,2.0691439999999925,201
45.86866399999994,1.4211439999999929,199
46.19266399999994,1.4211439999999929,172
44.572663999999946,4.013143999999992,1053
44.89666399999994,3.365143999999992,994
43.92466399999995,4.013143999999992,332
44.24866399999995,4.013143999999992,349
44.89666399999994,-0.5228560000000062,242
45.54466399999994,0.1251439999999934,203
46.516663999999935,0.1251439999999934,160
44.572663999999946,2.0691439999999925,442
49.75666399999992,4.013143999999992,293
43.92466399999995,3.365143999999992,936
43.92466399999995,2.717143999999992,967
44.24866399999995,3.365143999999992,992
44.572663999999946,3.365143999999992,1037
49.10866399999992,0.1251439999999934,197
49.43266399999992,0.7731439999999932,192
49.43266399999992,-1.8188560000000056,301
49.10866399999992,-1.170856000000006,277
49.10866399999992,-0.5228560000000062,232
49.10866399999992,0.7731439999999932,210
49.10866399999992,1.4211439999999929,170
47.81266399999993,-1.8188560000000056,250
47.81266399999993,-2.4668560000000053,274
47.81266399999993,-3.114856000000005,300
48.136663999999925,-3.7628560000000046,886
44.572663999999946,9.197143999999987,896
44.89666399999994,8.54914399999999,831
45.22066399999994,9.197143999999987,480
45.54466399999994,10.493143999999988,907
44.572663999999946,10.493143999999988,1318
44.89666399999994,10.493143999999988,973
44.89666399999994,9.845143999999989,900
48.46066399999992,5.309143999999991,874
50.91599999999999,-1.0580000000000025,65535
51.23999999999999,-0.4100000000000028,65535
50.91599999999999,-0.4100000000000028,65535
51.23999999999999,-2.354000000000002,65535
51.56399999999999,-2.354000000000002,65535
51.56399999999999,-3.0020000000000016,65535
50.91599999999999,-2.354000000000002,65535
53.50799999999997,-3.0020000000000016,65535
53.183999999999976,-2.354000000000002,65535
53.183999999999976,-3.0020000000000016,65535
52.85999999999998,-2.354000000000002,65535
52.21199999999998,-1.0580000000000025,65535
51.887999999999984,-1.0580000000000025,65535
52.53599999999998,-1.0580000000000025,65535
52.53599999999998,-1.7060000000000022,65535
52.85999999999998,-1.7060000000000022,65535
53.50799999999997,-2.354000000000002,65535
52.85999999999998,-1.0580000000000025,65535
52.53599999999998,1.5339999999999965,65535
52.53599999999998,0.8859999999999966,65535
52.53599999999998,0.2379999999999968,65535
52.53599999999998,-0.4100000000000028,65535
53.50799999999997,-1.7060000000000022,65535
53.183999999999976,-1.7060000000000022,65535
53.183999999999976,-1.0580000000000025,65535
52.85999999999998,-0.4100000000000028,65535
51.887999999999984,-2.354000000000002,65535
52.21199999999998,-2.354000000000002,65535
55.77599999999996,-2.354000000000002,65535
53.83199999999997,-1.0580000000000025,65535
53.83199999999997,-1.7060000000000022,65535
55.127999999999965,-1.7060000000000022,65535
54.80399999999997,-1.7060000000000022,65535
54.47999999999997,-1.7060000000000022,65535
54.15599999999997,-1.0580000000000025,65535
52.21199999999998,-1.7060000000000022,65535
53.50799999999997,-1.0580000000000025,65535
55.77599999999996,-3.0020000000000016,65535
55.45199999999996,-1.7060000000000022,65535
57.07199999999995,-2.354000000000002,65535
56.74799999999996,-3.0020000000000016,65535
56.42399999999996,-3.0020000000000016,65535
56.09999999999996,-3.650000000000001,65535
50.91599999999999,-3.0020000000000016,65535
50.91599999999999,-3.650000000000001,65535
50.59199999999999,-3.650000000000001,65535
50.59199999999999,-4.298000000000001,65535
51.23999999999999,-3.0020000000000016,65535
50.268,-4.946000000000001,65535
55.77599999999996,-3.650000000000001,65535
55.77599999999996,-4.298000000000001,65535
52.21199999999998,-0.4100000000000028,65535
52.53599999999998,-2.354000000000002,65535
51.56399999999999,-1.7060000000000022,65535
51.56399999999999,-3.650000000000001,65535
51.887999999999984,-4.298000000000001,65535
51.56399999999999,-4.298000000000001,65535
51.887999999999984,-1.7060000000000022,65535
52.21199999999998,-3.0020000000000016,65535
51.23999999999999,0.2379999999999968,65535
50.91599999999999,0.2379999999999968,65535
52.21199999999998,0.2379999999999968,65535
53.83199999999997,-3.0020000000000016,65535
54.15599999999997,-3.0020000000000016,65535
54.47999999999997,-3.0020000000000016,65535
55.127999999999965,-3.650000000000001,65535
54.80399999999997,-3.0020000000000016,65535
53.83199999999997,-2.354000000000002,65535
54.15599999999997,-0.4100000000000028,65535
54.47999999999997,-1.0580000000000025,65535
53.83199999999997,-0.4100000000000028,65535
53.183999999999976,-3.650000000000001,65535
53.183999999999976,-4.298000000000001,65535
52.85999999999998,-3.0020000000000016,65535
52.53599999999998,-3.0020000000000016,65535
51.887999999999984,-3.0020000000000016,65535
51.23999999999999,0.8859999999999966,65535
51.887999999999984,0.2379999999999968,65535
52.21199999999998,0.8859999999999966,65535
51.887999999999984,-4.946000000000001,65535
52.53599999999998,-3.650000000000001,65535
52.21199999999998,-4.298000000000001,65535
53.183999999999976,-0.4100000000000028,65535
51.23999999999999,-3.650000000000001,65535
51.887999999999984,-3.650000000000001,65535
52.21199999999998,-3.650000000000001,65535
51.56399999999999,0.8859999999999966,65535
51.887999999999984,0.8859999999999966,65535
52.85999999999998,0.8859999999999966,65535
53.50799999999997,-0.4100000000000028,65535
56.09999999999996,-4.298000000000001,65535
56.74799999999996,-4.946000000000001,65535
56.74799999999996,-4.298000000000001,65535
56.42399999999996,-4.946000000000001,65535
56.42399999999996,-4.298000000000001,65535
56.09999999999996,-4.946000000000001,65535
57.39599999999995,-4.298000000000001,65535
57.39599999999995,-3.0020000000000016,65535
57.39599999999995,-3.650000000000001,65535
56.42399999999996,-3.650000000000001,65535
57.07199999999995,-3.650000000000001,65535
57.07199999999995,-4.298000000000001,65535
56.74799999999996,-3.650000000000001,65535
59.15266399999986,27.34114399999998,65535
59.47666399999986,26.69314399999997,65535
59.47666399999986,26.04514399999998,65535
59.15266399999986,26.04514399999998,65535
59.15266399999986,24.74914399999998,65535
59.15266399999986,25.397143999999983,65535
59.47666399999986,25.397143999999983,65535
58.50466399999986,26.69314399999997,65535
58.82866399999986,26.69314399999997,65535
57.85666399999987,26.04514399999998,65535
58.180663999999865,26.04514399999998,65535
58.180663999999865,26.69314399999997,65535
58.82866399999986,26.04514399999998,65535
58.50466399999986,25.397143999999983,65535
58.82866399999986,25.397143999999983,65535
58.82866399999986,24.74914399999998,65535
58.180663999999865,27.34114399999998,65535
57.85666399999987,27.34114399999998,65535
63.68866399999983,27.34114399999998,7077
60.124663999999854,24.74914399999998,6613
60.44866399999985,24.74914399999998,6582
60.44866399999985,25.397143999999983,6594
60.77266399999985,25.397143999999983,6800
61.09666399999985,26.04514399999998,6842
60.77266399999985,26.04514399999998,6849
60.77266399999985,26.69314399999997,6868
61.09666399999985,25.397143999999983,6833
61.09666399999985,26.69314399999997,7198
61.420663999999846,26.69314399999997,7220
61.74466399999984,27.34114399999998,7244
62.06866399999984,27.34114399999998,7269
62.39266399999984,27.34114399999998,7293
62.71666399999984,27.34114399999998,7257
64.01266399999983,27.34114399999998,7425
63.36466399999984,27.34114399999998,7145
63.04066399999984,27.34114399999998,7185
63.04066399999984,27.989143999999985,7200
64.33666399999983,27.989143999999985,7472
64.33666399999983,27.34114399999998,7548
64.66066399999983,27.34114399999998,7564
64.66066399999983,26.69314399999997,7575
64.98466399999982,25.397143999999983,5959
64.66066399999983,26.04514399999998,7605
64.98466399999982,26.04514399999998,7627
66.28066399999982,25.397143999999983,6036
65.95666399999982,24.74914399999998,5872
65.63266399999982,24.74914399999998,5876
65.63266399999982,25.397143999999983,5918
65.30866399999982,25.397143999999983,5939
66.60466399999981,25.397143999999983,6096
64.01266399999983,24.74914399999998,6096
64.01266399999983,24.101143999999977,6131
64.01266399999983,23.45314399999998,6155
63.68866399999983,23.45314399999998,6167
63.68866399999983,22.805143999999984,6192
63.68866399999983,26.04514399999998,6784
63.68866399999983,25.397143999999983,6750
63.68866399999983,26.69314399999997,7044
60.44866399999985,26.69314399999997,7036
64.01266399999983,27.989143999999985,7463
62.71666399999984,22.805143999999984,6314
62.39266399999984,22.805143999999984,6346
62.06866399999984,22.805143999999984,6375
62.06866399999984,23.45314399999998,6391
61.74466399999984,23.45314399999998,6403
61.420663999999846,23.45314399999998,6451
61.09666399999985,23.45314399999998,6492
61.09666399999985,24.101143999999977,6499
61.09666399999985,24.74914399999998,6533
60.77266399999985,24.74914399999998,6549
63.04066399999984,21.50914399999997,65535
63.04066399999984,22.15714399999998,65535
63.04066399999984,22.805143999999984,6278
62.39266399999984,26.04514399999998,7441
62.06866399999984,25.397143999999983,7490
61.74466399999984,25.397143999999983,7558
61.74466399999984,24.74914399999998,7595
61.74466399999984,24.101143999999977,7630
61.420663999999846,24.101143999999977,6974
62.39266399999984,26.69314399999997,7412
64.66066399999983,25.397143999999983,6028
64.66066399999983,24.74914399999998,6046
64.33666399999983,24.74914399999998,6057
63.36466399999984,22.805143999999984,6217
67.25266399999981,24.101143999999977,8186
66.92866399999981,24.101143999999977,8150
66.60466399999981,23.45314399999998,8119
66.28066399999982,23.45314399999998,8101
66.28066399999982,24.101143999999977,8083
65.95666399999982,24.101143999999977,3999
60.124663999999854,24.101143999999977,6806
60.124663999999854,23.45314399999998,6843
60.44866399999985,22.805143999999984,65535
60.77266399999985,27.34114399999998,6926
61.09666399999985,27.989143999999985,6958
61.09666399999985,28.63714399999997,7004
61.420663999999846,29.28514399999997,8691
61.74466399999984,29.933143999999977,8749
62.06866399999984,29.933143999999977,8855
62.39266399999984,29.933143999999977,8893
62.71666399999984,29.933143999999977,8926
61.420663999999846,22.805143999999984,6487
61.420663999999846,22.15714399999998,6566
61.09666399999985,22.15714399999998,6554
61.420663999999846,21.50914399999997,6699
62.39266399999984,27.989143999999985,65535
62.06866399999984,27.989143999999985,65535
61.420663999999846,27.34114399999998,65535
63.04066399999984,29.933143999999977,65535
63.68866399999983,29.28514399999997,65535
63.36466399999984,29.28514399999997,65535
63.36466399999984,29.933143999999977,65535
60.44866399999985,27.34114399999998,65535
61.74466399999984,29.28514399999997,65535
62.39266399999984,30.58114399999998,65535
62.71666399999984,31.229143999999977,65535
62.71666399999984,29.28514399999997,65535
63.04066399999984,28.63714399999997,65535
66.60466399999981,26.04514399999998,6106
66.60466399999981,26.69314399999997,6142
66.60466399999981,27.34114399999998,6165
62.71666399999984,26.04514399999998,7326
62.71666399999984,25.397143999999983,7295
63.04066399999984,25.397143999999983,7115
63.36466399999984,25.397143999999983,7078
62.71666399999984,23.45314399999998,7320
62.39266399999984,24.101143999999977,65535
62.71666399999984,22.15714399999998,65535
62.39266399999984,22.15714399999998,65535
62.39266399999984,21.50914399999997,65535
61.09666399999985,21.50914399999997,8377
60.77266399999985,22.805143999999984,7803
60.44866399999985,22.15714399999998,7851
60.77266399999985,23.45314399999998,7785
60.77266399999985,21.50914399999997,7953
60.77266399999985,22.15714399999998,7906
60.124663999999854,22.805143999999984,8119
60.44866399999985,24.101143999999977,6792
62.06866399999984,24.74914399999998,65535
50.72866399999991,16.325143999999987,892
50.40466399999991,16.973143999999984,920
50.72866399999991,16.973143999999984,914
50.40466399999991,16.325143999999987,912
50.08066399999991,16.973143999999984,971
50.08066399999991,16.325143999999987,967
51.700663999999904,16.973143999999984,899
51.37666399999991,16.973143999999984,901
51.05266399999991,15.677143999999986,862
50.72866399999991,15.677143999999986,876
51.05266399999991,17.621143999999987,885
51.37666399999991,17.621143999999987,1014
51.700663999999904,17.621143999999987,1034
51.700663999999904,16.325143999999987,867
52.0246639999999,22.15714399999998,1378
52.0246639999999,21.50914399999997,1318
52.3486639999999,21.50914399999997,1314
52.0246639999999,20.86114399999998,1317
51.700663999999904,20.86114399999998,1313
51.37666399999991,21.50914399999997,1296
51.37666399999991,20.86114399999998,1278
51.05266399999991,20.86114399999998,1232
52.6726639999999,23.45314399999998,1506
52.3486639999999,22.805143999999984,1446
52.3486639999999,20.213143999999986,1333
52.0246639999999,20.213143999999986,1293
52.3486639999999,19.565143999999982,1087
52.6726639999999,19.565143999999982,1179
51.700663999999904,21.50914399999997,1355
51.700663999999904,22.15714399999998,1361
52.6726639999999,21.50914399999997,1353
52.996663999999896,21.50914399999997,1405
52.6726639999999,20.86114399999998,1343
52.6726639999999,22.15714399999998,1369
52.6726639999999,20.213143999999986,1346
52.996663999999896,19.565143999999982,1230
52.996663999999896,20.86114399999998,1358
52.996663999999896,20.213143999999986,1332
53.32066399999989,20.213143999999986,1289
51.37666399999991,20.213143999999986,1459
52.3486639999999,16.973143999999984,934
52.0246639999999,16.973143999999984,925
52.0246639999999,16.325143999999987,906
52.0246639999999,17.621143999999987,995
52.6726639999999,16.973143999999984,941
52.996663999999896,16.973143999999984,1042
52.3486639999999,16.325143999999987,916
52.3486639999999,15.677143999999986,906
51.700663999999904,18.269143999999983,1127
52.6726639999999,17.621143999999987,955
52.3486639999999,17.621143999999987,942
52.6726639999999,18.269143999999983,1035
52.3486639999999,18.269143999999983,1009
52.3486639999999,18.917143999999983,1047
52.996663999999896,17.621143999999987,1081
51.700663999999904,19.565143999999982,1208
51.700663999999904,18.917143999999983,1175
51.37666399999991,18.269143999999983,1081
58.82866399999986,9.197143999999987,2768
58.180663999999865,7.90114399999999,2861
58.50466399999986,8.54914399999999,2812
63.36466399999984,10.493143999999988,2983
63.36466399999984,11.141143999999988,2990
63.36466399999984,11.789143999999988,3025
63.68866399999983,11.789143999999988,3053
64.33666399999983,12.437143999999988,3454
64.66066399999983,12.437143999999988,3949
65.63266399999982,13.085143999999987,3606
65.95666399999982,13.085143999999987,3641
66.28066399999982,14.381143999999988,3711
65.95666399999982,13.733143999999989,3780
66.28066399999982,13.733143999999989,3689
65.30866399999982,13.085143999999987,3907
64.98466399999982,13.085143999999987,3541
64.01266399999983,11.789143999999988,3084
63.68866399999983,11.141143999999988,3021
59.800663999999855,10.493143999999988,2564
59.800663999999855,11.141143999999988,2547
60.124663999999854,11.141143999999988,2562
60.44866399999985,11.141143999999988,2575
60.124663999999854,11.789143999999988,2588
60.77266399999985,7.25314399999999,2824
60.77266399999985,6.60514399999999,2870
59.15266399999986,9.197143999999987,2650
59.47666399999986,9.197143999999987,2671
59.800663999999855,9.845143999999989,2566
59.47666399999986,11.141143999999988,2511
61.09666399999985,10.493143999999988,2685
60.77266399999985,10.493143999999988,2655
60.77266399999985,11.141143999999988,2610
62.06866399999984,9.197143999999987,3010
61.74466399999984,9.845143999999989,2956
61.420663999999846,9.845143999999989,2933
59.15266399999986,9.845143999999989,2630
59.47666399999986,9.845143999999989,2606
58.82866399999986,5.957143999999991,3045
58.180663999999865,7.25314399999999,2917
58.50466399999986,7.25314399999999,2950
58.50466399999986,6.60514399999999,2955
58.50466399999986,5.957143999999991,3013
58.82866399999986,8.54914399999999,2798
60.44866399999985,7.25314399999999,2798
60.44866399999985,7.90114399999999,2759
60.124663999999854,10.493143999999988,2596
60.44866399999985,9.197143999999987,2708
60.77266399999985,9.197143999999987,2720
60.77266399999985,8.54914399999999,2739
60.124663999999854,9.845143999999989,2854
60.44866399999985,10.493143999999988,2641
63.04066399999984,10.493143999999988,2934
62.06866399999984,9.845143999999989,3035
62.39266399999984,9.845143999999989,3043
62.71666399999984,9.845143999999989,3067
59.47666399999986,14.381143999999988,2517
59.47666399999986,13.733143999999989,2501
59.47666399999986,13.085143999999987,2477
59.800663999999855,12.437143999999988,2546
59.15266399999986,11.141143999999988,2475
59.15266399999986,14.381143999999988,2501
58.82866399999986,11.789143999999988,2455
58.50466399999986,12.437143999999988,2385
58.180663999999865,12.437143999999988,2378
57.85666399999987,11.789143999999988,2329
62.71666399999984,7.90114399999999,3096
62.39266399999984,7.90114399999999,3053
62.06866399999984,8.54914399999999,3028
60.44866399999985,5.309143999999991,2944
60.44866399999985,5.957143999999991,2911
60.77266399999985,5.957143999999991,2900
62.39266399999984,11.141143999999988,2831
62.06866399999984,10.493143999999988,2786
61.74466399999984,11.141143999999988,2759
61.420663999999846,11.141143999999988,2713
61.09666399999985,11.141143999999988,2696
60.77266399999985,11.789143999999988,2673
63.04066399999984,11.141143999999988,2912
62.71666399999984,11.141143999999988,2855
62.39266399999984,10.493143999999988,2813
67.25266399999981,15.677143999999986,3830
67.25266399999981,15.029143999999986,3868
67.25266399999981,14.381143999999988,3896
66.92866399999981,15.029143999999986,3819
66.60466399999981,15.677143999999986,3797
64.01266399999983,11.141143999999988,3068
66.60466399999981,15.029143999999986,3860
54.29266399999989,18.269143999999983,1190
54.616663999999886,17.621143999999987,1148
53.96866399999989,18.269143999999983,1163
43.92466399999995,1.4211439999999929,422
44.24866399999995,0.7731439999999932,370
44.572663999999946,0.1251439999999934,322
46.84066399999993,1.4211439999999929,89
44.572663999999946,1.4211439999999929,373
44.24866399999995,1.4211439999999929,882
45.54466399999994,1.4211439999999929,229
46.516663999999935,1.4211439999999929,109
42.30466399999996,2.717143999999992,991
44.24866399999995,2.717143999999992,528
44.572663999999946,2.717143999999992,503
43.92466399999995,2.0691439999999925,879
42.30466399999996,2.0691439999999925,1032
42.62866399999996,2.0691439999999925,939
42.62866399999996,1.4211439999999929,932
42.95266399999996,1.4211439999999929,925
43.276663999999954,1.4211439999999929,870
46.516663999999935,-1.170856000000006,265
46.19266399999994,-1.170856000000006,273
45.86866399999994,-0.5228560000000062,237
45.54466399999994,-0.5228560000000062,218
48.46066399999992,1.4211439999999929,145
41.332663999999966,2.0691439999999925,1234
41.98066399999996,2.717143999999992,1193
48.46066399999992,-1.8188560000000056,250
47.81266399999993,0.7731439999999932,143
46.84066399999993,0.7731439999999932,178
44.572663999999946,-1.170856000000006,265
43.60066399999995,-1.170856000000006,328
43.276663999999954,-1.8188560000000056,375
43.276663999999954,0.1251439999999934,439
42.95266399999996,0.1251439999999934,413
43.276663999999954,-0.5228560000000062,385
43.60066399999995,-0.5228560000000062,362
47.81266399999993,-3.7628560000000046,894
47.48866399999993,-2.4668560000000053,275
47.81266399999993,-0.5228560000000062,148
46.516663999999935,-1.8188560000000056,316
48.136663999999925,-1.170856000000006,218
47.48866399999993,-1.170856000000006,184
45.22066399999994,8.54914399999999,488
45.22066399999994,7.90114399999999,499
46.19266399999994,-0.5228560000000062,253
46.516663999999935,-0.5228560000000062,234
48.78466399999992,-3.114856000000005,375
50.72866399999991,2.0691439999999925,213
50.40466399999991,2.0691439999999925,222
40.36066399999997,-3.7628560000000046,1425
41.65666399999997,-1.170856000000006,1342
41.332663999999966,1.4211439999999929,1280
43.276663999999954,13.733143999999989,3910
42.95266399999996,13.733143999999989,3932
41.65666399999997,15.029143999999986,4016
40.68466399999997,17.621143999999987,4178
43.60066399999995,13.085143999999987,3903
41.65666399999997,12.437143999999988,2569
41.65666399999997,13.085143999999987,2588
41.98066399999996,13.085143999999987,2638
41.65666399999997,13.733143999999989,2640
41.332663999999966,13.733143999999989,2632
41.332663999999966,14.381143999999988,2789
41.00866399999997,14.381143999999988,2695
41.332663999999966,13.085143999999987,2614
41.00866399999997,15.029143999999986,2895
41.98066399999996,13.733143999999989,2837
42.30466399999996,14.381143999999988,2976
42.30466399999996,12.437143999999988,2577
42.62866399999996,12.437143999999988,2756
42.95266399999996,12.437143999999988,3041
42.30466399999996,11.789143999999988,2586
42.95266399999996,11.789143999999988,2796
42.62866399999996,11.789143999999988,2787
43.276663999999954,11.789143999999988,2850
42.95266399999996,13.085143999999987,3804
42.30466399999996,13.085143999999987,2863
43.276663999999954,13.085143999999987,3852
43.276663999999954,12.437143999999988,3859
42.62866399999996,11.141143999999988,2632
42.95266399999996,11.141143999999988,2675
42.95266399999996,10.493143999999988,2693
44.572663999999946,8.54914399999999,890
44.89666399999994,7.90114399999999,787
44.89666399999994,9.197143999999987,495
44.24866399999995,7.90114399999999,879
44.572663999999946,7.90114399999999,821
43.92466399999995,7.90114399999999,963
44.24866399999995,7.25314399999999,876
44.89666399999994,7.25314399999999,858
45.22066399999994,7.25314399999999,778
45.54466399999994,7.90114399999999,840
44.572663999999946,7.25314399999999,862
52.996663999999896,22.805143999999984,1603
52.996663999999896,23.45314399999998,1593
51.37666399999991,22.15714399999998,1403
51.37666399999991,22.805143999999984,1457
50.08066399999991,20.213143999999986,1215
50.72866399999991,20.213143999999986,1160
50.40466399999991,20.213143999999986,1154
50.08066399999991,20.86114399999998,1345
50.08066399999991,21.50914399999997,1386
50.08066399999991,22.15714399999998,1405
50.08066399999991,22.805143999999984,1427
53.96866399999989,22.805143999999984,1827
53.64466399999989,23.45314399999998,1780
53.32066399999989,23.45314399999998,1737
50.40466399999991,19.565143999999982,1096
50.08066399999991,18.917143999999983,1149
50.08066399999991,18.269143999999983,1081
52.0246639999999,22.805143999999984,1427
52.0246639999999,23.45314399999998,1464
51.37666399999991,19.565143999999982,1314
51.05266399999991,19.565143999999982,1020
50.72866399999991,18.917143999999983,993
50.72866399999991,19.565143999999982,1115
49.75666399999992,18.917143999999983,1102
50.40466399999991,18.269143999999983,972
53.64466399999989,19.565143999999982,1236
53.96866399999989,18.917143999999983,1204
53.64466399999989,18.917143999999983,1221
53.64466399999989,20.213143999999986,1275
52.996663999999896,18.917143999999983,1096
52.996663999999896,18.269143999999983,1068
53.32066399999989,18.917143999999983,1195
50.72866399999991,17.621143999999987,892
50.72866399999991,18.269143999999983,939
52.6726639999999,16.325143999999987,936
52.996663999999896,16.325143999999987,922
52.996663999999896,15.677143999999986,908
53.32066399999989,15.677143999999986,904
53.32066399999989,15.029143999999986,825
53.64466399999989,15.029143999999986,831
53.96866399999989,15.029143999999986,859
52.6726639999999,18.917143999999983,1138
53.32066399999989,16.325143999999987,1074
52.6726639999999,15.029143999999986,889
51.05266399999991,22.805143999999984,1480
51.05266399999991,23.45314399999998,1521
50.72866399999991,22.15714399999998,1449
50.40466399999991,22.15714399999998,1472
51.05266399999991,22.15714399999998,1454
54.616663999999886,16.973143999999984,1108
54.29266399999989,16.325143999999987,1058
53.96866399999989,15.677143999999986,964
50.72866399999991,21.50914399999997,1437
50.40466399999991,21.50914399999997,1424
50.40466399999991,17.621143999999987,1062
53.32066399999989,22.805143999999984,1598
53.64466399999989,22.15714399999998,1445
54.29266399999989,16.973143999999984,1084
50.72866399999991,20.86114399999998,1203
51.700663999999904,22.805143999999984,1477
51.05266399999991,21.50914399999997,1248
50.08066399999991,19.565143999999982,1230
52.0246639999999,18.917143999999983,8008
52.0246639999999,19.565143999999982,8001
53.64466399999989,18.269143999999983,1157
51.700663999999904,20.213143999999986,1446
53.32066399999989,19.565143999999982,1227
50.72866399999991,23.45314399999998,1626
50.72866399999991,22.805143999999984,1597
49.43266399999992,20.213143999999986,1379
49.75666399999992,21.50914399999997,1442
49.75666399999992,22.15714399999998,1439
49.43266399999992,22.15714399999998,1430
51.05266399999991,18.917143999999983,1076
51.05266399999991,18.269143999999983,918
53.32066399999989,16.973143999999984,1048
53.64466399999989,16.973143999999984,1042
49.75666399999992,20.86114399999998,1388
50.40466399999991,22.805143999999984,8090
53.64466399999989,16.325143999999987,1028
53.96866399999989,20.86114399999998,1302
54.29266399999989,20.86114399999998,1348
53.96866399999989,21.50914399999997,1368
53.64466399999989,15.677143999999986,980
53.96866399999989,20.213143999999986,1261
53.96866399999989,19.565143999999982,1250
54.29266399999989,19.565143999999982,1264
53.96866399999989,16.325143999999987,999
53.64466399999989,17.621143999999987,1098
53.96866399999989,22.15714399999998,1435
53.64466399999989,21.50914399999997,1400
53.64466399999989,20.86114399999998,1354
52.6726639999999,15.677143999999986,936
51.05266399999991,20.213143999999986,1456
54.940663999999884,24.101143999999977,3201
54.616663999999886,23.45314399999998,3145
54.29266399999989,23.45314399999998,3008
53.64466399999989,22.805143999999984,1585
53.96866399999989,16.973143999999984,1105
50.40466399999991,20.86114399999998,1303
53.32066399999989,18.269143999999983,1176
49.75666399999992,19.565143999999982,1199
50.40466399999991,23.45314399999998,1516
49.75666399999992,20.213143999999986,1357
49.43266399999992,19.565143999999982,1365
49.43266399999992,20.86114399999998,1355
53.96866399999989,17.621143999999987,1308
42.30466399999996,-1.8188560000000056,8319
41.98066399999996,-1.8188560000000056,8302
41.65666399999997,0.7731439999999932,8306
42.62866399999996,-1.8188560000000056,8434
42.95266399999996,-1.8188560000000056,8463
42.62866399999996,-3.114856000000005,8557
42.95266399999996,-2.4668560000000053,8535
42.62866399999996,-7.650856000000003,8899
42.30466399999996,-7.650856000000003,8959
42.30466399999996,-8.946856000000002,9095
42.30466399999996,-8.298856000000002,9069
41.98066399999996,-8.298856000000002,9058
42.30466399999996,-7.002856000000003,8841
42.62866399999996,-6.354856000000003,8783
42.30466399999996,-6.354856000000003,8738
42.62866399999996,-5.706856000000004,8238
41.98066399999996,-4.410856000000004,8192
42.30466399999996,-3.7628560000000046,8583
40.03666399999997,-0.5228560000000062,8286
39.38866399999998,-0.5228560000000062,8334
41.00866399999997,0.7731439999999932,8434
40.68466399999997,0.7731439999999932,8466
40.36066399999997,0.1251439999999934,8544
39.712663999999975,-0.5228560000000062,8443
38.41666399999998,-0.5228560000000062,8455
39.06466399999998,-0.5228560000000062,8577
38.74066399999998,-1.170856000000006,8463
41.332663999999966,0.7731439999999932,8494
41.65666399999997,2.717143999999992,8094
41.65666399999997,2.0691439999999925,8117
41.332663999999966,0.1251439999999934,8452
41.332663999999966,-0.5228560000000062,8396
41.65666399999997,-4.410856000000004,8166
40.03666399999997,-2.4668560000000053,8404
41.00866399999997,-4.410856000000004,8287
43.276663999999954,-5.706856000000004,8368
39.38866399999998,-1.170856000000006,8429
38.09266399999999,-1.170856000000006,8842
38.74066399999998,-0.5228560000000062,8605
37.76866399999999,-1.170856000000006,8907
39.06466399999998,-1.8188560000000056,8427
39.38866399999998,-3.114856000000005,8327
39.38866399999998,-2.4668560000000053,8383
39.06466399999998,-2.4668560000000053,8410
39.06466399999998,-3.114856000000005,8331
39.06466399999998,-3.7628560000000046,8305
38.74066399999998,-3.7628560000000046,8384
40.03666399999997,-3.7628560000000046,8283
40.03666399999997,-3.114856000000005,8483
40.03666399999997,-1.8188560000000056,8564
39.712663999999975,-1.8188560000000056,8529
39.712663999999975,-1.170856000000006,8465
40.36066399999997,-1.170856000000006,8484
40.68466399999997,-1.170856000000006,8462
41.00866399999997,-1.170856000000006,8450
41.332663999999966,-1.170856000000006,8290
43.276663999999954,-8.298856000000002,9059
42.95266399999996,-8.298856000000002,9027
41.65666399999997,-5.706856000000004,65535
41.98066399999996,-7.002856000000003,65535
41.98066399999996,-6.354856000000003,65535
41.332663999999966,-5.058856000000004,8405
43.276663999999954,-3.7628560000000046,8840
42.95266399999996,-4.410856000000004,8774
42.62866399999996,-4.410856000000004,8764
42.30466399999996,-4.410856000000004,8723
41.00866399999997,-5.706856000000004,8343
41.332663999999966,-1.8188560000000056,8236
40.68466399999997,-3.114856000000005,8190
41.00866399999997,-3.114856000000005,8241
41.00866399999997,-2.4668560000000053,8264
41.332663999999966,-2.4668560000000053,8317
40.68466399999997,-4.410856000000004,8227
40.36066399999997,-4.410856000000004,8311
40.68466399999997,-3.7628560000000046,8219
40.36066399999997,-3.114856000000005,8197
41.65666399999997,-2.4668560000000053,8334
38.09266399999999,-3.7628560000000046,8431
38.74066399999998,-3.114856000000005,8375
37.76866399999999,-3.7628560000000046,8488
39.712663999999975,-3.114856000000005,8319
38.41666399999998,-3.7628560000000046,8396
40.03666399999997,-4.410856000000004,65535
40.03666399999997,-5.058856000000004,65535
39.38866399999998,-6.354856000000003,65535
39.38866399999998,-7.002856000000003,65535
42.95266399999996,-3.114856000000005,8968
41.98066399999996,-1.170856000000006,8331
42.30466399999996,-2.4668560000000053,8372
41.65666399999997,-0.5228560000000062,8429
41.98066399999996,-0.5228560000000062,8266
41.65666399999997,0.1251439999999934,8293
41.98066399999996,0.1251439999999934,8315
37.76866399999999,-5.058856000000004,8367
36.79666399999999,-4.410856000000004,8426
38.74066399999998,-4.410856000000004,8323
37.12066399999999,-4.410856000000004,8400
37.44466399999999,-5.058856000000004,8924
37.44466399999999,-7.002856000000003,65535
37.44466399999999,-6.354856000000003,65535
37.44466399999999,-5.706856000000004,8600
39.712663999999975,-3.7628560000000046,8393
42.62866399999996,-8.946856000000002,65535
42.30466399999996,-5.706856000000004,8745
42.30466399999996,-5.058856000000004,8830
42.95266399999996,-5.706856000000004,8270
41.00866399999997,-5.058856000000004,8311
40.68466399999997,-5.058856000000004,8285
41.65666399999997,-5.058856000000004,65535
41.65666399999997,-6.354856000000003,65535
36.79666399999999,-6.354856000000003,65535
37.12066399999999,-5.706856000000004,8768
37.76866399999999,-5.706856000000004,8567
38.09266399999999,-4.410856000000004,8702
37.12066399999999,-5.058856000000004,8722
36.79666399999999,-5.058856000000004,8680
37.76866399999999,-4.410856000000004,65535
37.76866399999999,-7.002856000000003,65535
38.41666399999998,-6.354856000000003,65535
38.09266399999999,-6.354856000000003,65535
48.78466399999992,1.4211439999999929,193
56.23666399999988,8.54914399999999,6610
55.58866399999988,9.197143999999987,6415
55.91266399999988,9.197143999999987,6556
55.26466399999988,10.493143999999988,2034
55.91266399999988,12.437143999999988,2169
55.58866399999988,11.789143999999988,6255
55.58866399999988,11.141143999999988,6296
55.26466399999988,11.789143999999988,6288
55.58866399999988,10.493143999999988,6411
55.58866399999988,13.085143999999987,2126
56.88466399999987,9.845143999999989,6562
57.20866399999987,9.845143999999989,6597
56.56066399999988,9.845143999999989,6534
56.88466399999987,8.54914399999999,6649
54.940663999999884,9.845143999999989,7756
54.940663999999884,11.789143999999988,6512
55.91266399999988,13.085143999999987,2184
56.23666399999988,13.733143999999989,2228
55.91266399999988,13.733143999999989,2231
56.23666399999988,14.381143999999988,2251
56.23666399999988,15.029143999999986,2292
56.23666399999988,15.677143999999986,2347
56.56066399999988,14.381143999999988,2308
56.88466399999987,14.381143999999988,2278
56.23666399999988,13.085143999999987,2176
56.56066399999988,13.085143999999987,2256
56.88466399999987,12.437143999999988,2293
57.20866399999987,12.437143999999988,2309
57.53266399999987,12.437143999999988,2324
56.88466399999987,15.029143999999986,2304
56.56066399999988,15.677143999999986,2364
56.88466399999987,15.677143999999986,2383
56.88466399999987,16.325143999999987,2398
55.91266399999988,11.789143999999988,6581
57.20866399999987,10.493143999999988,6784
49.43266399999992,1.4211439999999929,182
49.75666399999992,0.7731439999999932,218
49.75666399999992,2.0691439999999925,169
50.08066399999991,2.717143999999992,187
49.75666399999992,1.4211439999999929,184
47.81266399999993,1.4211439999999929,82
48.136663999999925,2.0691439999999925,95
48.46066399999992,2.0691439999999925,131
48.136663999999925,1.4211439999999929,194
48.78466399999992,0.1251439999999934,262
48.46066399999992,0.1251439999999934,221
47.81266399999993,0.1251439999999934,128
46.84066399999993,-0.5228560000000062,165
47.16466399999993,0.7731439999999932,129
46.84066399999993,0.1251439999999934,176
46.84066399999993,-1.170856000000006,239
50.08066399999991,1.4211439999999929,204
50.08066399999991,2.0691439999999925,195
49.43266399999992,2.717143999999992,163
49.75666399999992,3.365143999999992,192
50.08066399999991,3.365143999999992,230
49.10866399999992,2.0691439999999925,188
49.43266399999992,2.0691439999999925,199
48.78466399999992,0.7731439999999932,219
48.78466399999992,-0.5228560000000062,381
48.78466399999992,-1.170856000000006,411
48.136663999999925,0.7731439999999932,205
48.46066399999992,0.7731439999999932,181
43.92466399999995,5.957143999999991,1027
44.24866399999995,5.957143999999991,1065
43.92466399999995,5.309143999999991,828
42.95266399999996,2.717143999999992,830
45.54466399999994,2.0691439999999925,254
45.22066399999994,2.0691439999999925,856
42.95266399999996,2.0691439999999925,930
42.95266399999996,0.7731439999999932,847
43.276663999999954,0.7731439999999932,858
46.19266399999994,0.7731439999999932,209
46.516663999999935,0.7731439999999932,190
45.86866399999994,0.1251439999999934,225
46.19266399999994,0.1251439999999934,218
47.81266399999993,-1.170856000000006,976
48.136663999999925,-2.4668560000000053,308
47.48866399999993,-1.8188560000000056,235
47.16466399999993,-1.170856000000006,196
47.16466399999993,-0.5228560000000062,212
46.84066399999993,-1.8188560000000056,256
45.22066399999994,-0.5228560000000062,266
44.89666399999994,0.1251439999999934,253
45.22066399999994,0.7731439999999932,282
45.54466399999994,0.7731439999999932,283
45.86866399999994,0.7731439999999932,226
45.22066399999994,0.1251439999999934,873
44.89666399999994,0.7731439999999932,294
43.92466399999995,-0.5228560000000062,348
43.92466399999995,-1.170856000000006,327
44.24866399999995,-1.170856000000006,308
45.22066399999994,-1.170856000000006,307
44.572663999999946,-0.5228560000000062,274
44.24866399999995,0.1251439999999934,345
44.572663999999946,0.7731439999999932,900
43.276663999999954,-1.170856000000006,890
42.95266399999996,-0.5228560000000062,1092
44.24866399999995,2.0691439999999925,879
43.60066399999995,0.7731439999999932,852
43.60066399999995,2.0691439999999925,853
52.6726639999999,4.661143999999991,6601
52.6726639999999,5.309143999999991,6624
51.700663999999904,5.309143999999991,6569
52.0246639999999,5.309143999999991,6581
52.3486639999999,5.309143999999991,6597
51.37666399999991,4.013143999999992,6577
52.3486639999999,5.957143999999991,6591
52.0246639999999,6.60514399999999,6621
52.6726639999999,5.957143999999991,6608
52.996663999999896,5.957143999999991,6621
53.32066399999989,5.957143999999991,6615
52.996663999999896,6.60514399999999,6597
53.32066399999989,6.60514399999999,6589
52.6726639999999,6.60514399999999,6617
52.996663999999896,5.309143999999991,6636
59.15266399999986,24.101143999999977,65535
56.88466399999987,24.101143999999977,65535
56.88466399999987,23.45314399999998,65535
56.88466399999987,22.805143999999984,65535
57.20866399999987,24.74914399999998,65535
56.88466399999987,24.74914399999998,65535
56.56066399999988,24.74914399999998,65535
56.56066399999988,25.397143999999983,65535
56.56066399999988,24.101143999999977,65535
56.56066399999988,23.45314399999998,65535
56.56066399999988,26.04514399999998,65535
56.88466399999987,26.04514399999998,65535
57.20866399999987,25.397143999999983,65535
57.53266399999987,25.397143999999983,65535
56.23666399999988,26.04514399999998,65535
56.23666399999988,26.69314399999997,65535
55.91266399999988,26.69314399999997,65535
56.56066399999988,26.69314399999997,65535
56.56066399999988,27.34114399999998,65535
56.56066399999988,27.989143999999985,65535
56.23666399999988,27.989143999999985,65535
55.91266399999988,27.34114399999998,65535
56.56066399999988,22.805143999999984,65535
56.56066399999988,22.15714399999998,65535
56.56066399999988,21.50914399999997,65535
57.20866399999987,26.69314399999997,65535
39.06466399999998,-8.946856000000002,65535
38.41666399999998,-8.298856000000002,65535
45.86866399999994,11.789143999999988,1588
46.19266399999994,11.789143999999988,1575
46.19266399999994,10.493143999999988,1615
45.22066399999994,18.269143999999983,1452
45.22066399999994,18.917143999999983,1493
45.54466399999994,16.973143999999984,1355
45.22066399999994,17.621143999999987,1396
45.86866399999994,16.325143999999987,1316
45.54466399999994,18.917143999999983,1540
45.54466399999994,16.325143999999987,1330
45.54466399999994,18.269143999999983,1508
44.89666399999994,18.917143999999983,1690
46.19266399999994,16.973143999999984,1316
46.19266399999994,16.325143999999987,1321
45.86866399999994,16.973143999999984,1333
45.86866399999994,17.621143999999987,1428
46.19266399999994,15.677143999999986,1290
46.516663999999935,16.325143999999987,1295
45.54466399999994,15.677143999999986,1365
45.22066399999994,15.029143999999986,1401
45.54466399999994,15.029143999999986,1362
45.22066399999994,15.677143999999986,1426
44.572663999999946,15.677143999999986,1579
44.24866399999995,15.677143999999986,1600
43.92466399999995,16.325143999999987,1664
44.89666399999994,15.677143999999986,1543
45.54466399999994,17.621143999999987,1407
45.22066399999994,16.325143999999987,1385
46.516663999999935,16.973143999999984,1308
45.86866399999994,18.269143999999983,1600
43.92466399999995,15.677143999999986,1766
45.22066399999994,13.733143999999989,1410
47.48866399999993,19.565143999999982,1132
47.16466399999993,18.917143999999983,1118
47.81266399999993,18.917143999999983,1066
45.54466399999994,9.845143999999989,859
45.22066399999994,9.845143999999989,868
45.22066399999994,10.493143999999988,919
45.86866399999994,9.845143999999989,884
45.86866399999994,10.493143999999988,2358
48.78466399999992,21.50914399999997,1276
49.10866399999992,20.213143999999986,1313
49.10866399999992,18.917143999999983,1206
48.46066399999992,17.621143999999987,1007
49.43266399999992,17.621143999999987,1093
49.10866399999992,17.621143999999987,1132
48.136663999999925,18.269143999999983,1098
49.10866399999992,18.269143999999983,1167
49.43266399999992,18.269143999999983,1124
49.43266399999992,16.973143999999984,1007
49.75666399999992,16.973143999999984,1041
49.75666399999992,16.325143999999987,970
50.08066399999991,15.677143999999986,928
50.08066399999991,15.029143999999986,893
49.43266399999992,18.917143999999983,1195
47.81266399999993,20.86114399999998,1195
48.136663999999925,20.86114399999998,1226
48.46066399999992,20.86114399999998,1268
48.46066399999992,21.50914399999997,1272
49.10866399999992,19.565143999999982,1255
48.136663999999925,17.621143999999987,986
48.78466399999992,22.15714399999998,1375
48.78466399999992,20.86114399999998,1407
49.10866399999992,20.86114399999998,1334
48.78466399999992,18.269143999999983,1132
48.78466399999992,17.621143999999987,1109
49.10866399999992,21.50914399999997,1336
48.78466399999992,20.213143999999986,1415
48.46066399999992,20.213143999999986,1456
48.136663999999925,19.565143999999982,1605
48.46066399999992,19.565143999999982,1484
48.46066399999992,18.917143999999983,1226
48.46066399999992,18.269143999999983,1050
48.78466399999992,19.565143999999982,1250
48.78466399999992,18.917143999999983,1168
47.81266399999993,18.269143999999983,1030
49.10866399999992,22.15714399999998,1416
49.43266399999992,21.50914399999997,1414
48.136663999999925,18.917143999999983,1306
48.136663999999925,20.213143999999986,1625
52.636,-8.018,65535
52.312,-7.370000000000001,65535
52.312,-8.018,65535
52.636,-8.666,65535
51.988,-8.666,65535
51.988,-8.018,65535
52.96,-8.666,65535
52.96,-6.074000000000002,65535
53.28399999999999,-6.722000000000001,65535
53.60799999999999,-6.722000000000001,65535
53.60799999999999,-7.370000000000001,65535
53.60799999999999,-8.018,65535
54.25599999999999,-8.666,65535
53.93199999999999,-8.666,65535
53.93199999999999,-8.018,65535
52.312,-6.722000000000001,65535
52.636,-6.722000000000001,65535
53.93199999999999,-6.722000000000001,65535
54.25599999999999,-6.074000000000002,65535
53.28399999999999,-7.370000000000001,65535
52.96,-7.370000000000001,65535
52.312,-8.666,65535
52.96,-8.018,65535
52.636,-7.370000000000001,65535
52.96,-6.722000000000001,65535
51.988,-9.314,65535
52.312,-9.314,65535
54.579999999999984,-6.722000000000001,65535
54.579999999999984,-6.074000000000002,65535
53.28399999999999,-8.018,65535
53.28399999999999,-8.666,65535
53.28399999999999,-9.314,65535
53.93199999999999,-9.314,65535
54.25599999999999,-9.314,65535
53.60799999999999,-8.666,65535
53.60799999999999,-9.314,65535
49.43266399999992,14.381143999999988,935
49.75666399999992,14.381143999999988,896
49.75666399999992,15.029143999999986,898
49.75666399999992,13.733143999999989,897
50.08066399999991,13.733143999999989,893
49.75666399999992,15.677143999999986,897
50.40466399999991,15.029143999999986,887
49.43266399999992,13.733143999999989,900
50.40466399999991,15.677143999999986,906
50.40466399999991,13.733143999999989,900
46.19266399999994,15.029143999999986,1273
45.86866399999994,15.029143999999986,1318
45.86866399999994,14.381143999999988,1295
46.19266399999994,13.733143999999989,1382
45.86866399999994,13.733143999999989,1468
58.50466399999986,13.733143999999989,2420
58.180663999999865,13.733143999999989,2406
58.180663999999865,13.085143999999987,2378
57.85666399999987,12.437143999999988,2342
60.44866399999985,15.677143999999986,2627
60.124663999999854,15.677143999999986,2561
60.124663999999854,16.325143999999987,2599
59.800663999999855,16.325143999999987,2527
59.800663999999855,17.621143999999987,2506
59.47666399999986,18.269143999999983,2488
61.74466399999984,16.973143999999984,2638
61.420663999999846,16.973143999999984,2611
60.77266399999985,16.973143999999984,2563
65.63266399999982,22.15714399999998,3742
65.95666399999982,21.50914399999997,3702
65.63266399999982,20.86114399999998,3673
64.98466399999982,20.213143999999986,3605
64.66066399999983,20.213143999999986,3583
64.33666399999983,19.565143999999982,3277
64.01266399999983,19.565143999999982,2990
63.68866399999983,20.213143999999986,2943
64.66066399999983,18.917143999999983,5654
59.15266399999986,16.325143999999987,2463
59.15266399999986,15.029143999999986,2467
59.15266399999986,17.621143999999987,2480
57.53266399999987,14.381143999999988,2304
57.53266399999987,15.029143999999986,2324
61.09666399999985,14.381143999999988,2731
60.77266399999985,15.029143999999986,2682
60.44866399999985,15.029143999999986,2668
58.180663999999865,15.029143999999986,2381
58.50466399999986,16.325143999999987,2415
58.50466399999986,15.677143999999986,2388
63.36466399999984,13.085143999999987,2975
63.04066399999984,14.381143999999988,2912
62.39266399999984,15.677143999999986,2834
63.36466399999984,13.733143999999989,2957
63.36466399999984,14.381143999999988,2929
62.71666399999984,15.677143999999986,2862
62.39266399999984,17.621143999999987,2696
59.800663999999855,15.677143999999986,2749
55.58866399999988,13.733143999999989,2258
57.20866399999987,14.381143999999988,2288
57.85666399999987,14.381143999999988,2336
58.82866399999986,16.973143999999984,2472
58.82866399999986,16.325143999999987,2450
59.15266399999986,18.269143999999983,2484
60.44866399999985,17.621143999999987,2539
59.15266399999986,12.437143999999988,2443
59.15266399999986,13.085143999999987,2457
58.82866399999986,12.437143999999988,2419
59.47666399999986,16.325143999999987,2509
58.82866399999986,14.381143999999988,2496
59.47666399999986,15.677143999999986,2527
63.36466399999984,18.917143999999983,2896
63.04066399999984,17.621143999999987,2851
62.71666399999984,17.621143999999987,2825
63.68866399999983,19.565143999999982,2929
62.39266399999984,16.973143999999984,2740
59.800663999999855,16.973143999999984,2515
59.47666399999986,17.621143999999987,2492
57.85666399999987,13.085143999999987,2368
57.53266399999987,13.085143999999987,2349
58.50466399999986,11.789143999999988,2390
57.85666399999987,15.029143999999986,2370
57.20866399999987,13.733143999999989,2294
57.53266399999987,13.733143999999989,2355
61.74466399999984,16.325143999999987,2734
61.420663999999846,16.325143999999987,2701
61.09666399999985,16.325143999999987,2690
61.09666399999985,16.973143999999984,2658
60.124663999999854,15.029143999999986,2836
66.60466399999981,20.86114399999998,3777
67.25266399999981,20.86114399999998,3845
67.90066399999981,20.213143999999986,3915
67.57666399999981,20.213143999999986,4540
59.800663999999855,15.029143999999986,2556
58.50466399999986,15.029143999999986,2398
59.47666399999986,15.029143999999986,2541
60.44866399999985,16.325143999999987,2627
59.15266399999986,15.677143999999986,2485
57.85666399999987,13.733143999999989,2396
58.82866399999986,13.733143999999989,2443
58.50466399999986,13.085143999999987,2428
57.20866399999987,13.085143999999987,2325
56.88466399999987,13.085143999999987,2299
58.180663999999865,11.789143999999988,2361
62.06866399999984,16.973143999999984,2729
65.95666399999982,23.45314399999998,3977
59.800663999999855,14.381143999999988,5411
59.800663999999855,18.269143999999983,2497
63.04066399999984,15.029143999999986,2880
62.71666399999984,15.029143999999986,2870
62.39266399999984,16.325143999999987,2803
63.36466399999984,12.437143999999988,3008
68.5486639999998,17.621143999999987,4128
68.5486639999998,18.269143999999983,4061
68.5486639999998,18.917143999999983,4038
68.2246639999998,18.917143999999983,3994
59.800663999999855,13.085143999999987,2560
60.124663999999854,13.085143999999987,2599
59.47666399999986,16.973143999999984,2501
59.15266399999986,16.973143999999984,2493
56.56066399999988,13.733143999999989,2246
60.124663999999854,17.621143999999987,2516
57.85666399999987,16.325143999999987,2475
58.180663999999865,16.325143999999987,2437
58.180663999999865,15.677143999999986,2445
57.20866399999987,16.325143999999987,2487
57.53266399999987,15.677143999999986,2505
57.85666399999987,15.677143999999986,2476
44.89666399999994,23.45314399999998,2485
44.572663999999946,23.45314399999998,2555
44.89666399999994,24.74914399999998,2472
44.572663999999946,24.74914399999998,2591
44.572663999999946,24.101143999999977,2532
44.24866399999995,24.101143999999977,2561
47.48866399999993,25.397143999999983,2333
47.48866399999993,24.74914399999998,2273
47.16466399999993,24.74914399999998,2195
47.16466399999993,24.101143999999977,2097
47.48866399999993,22.15714399999998,2227
47.81266399999993,22.15714399999998,2313
47.16466399999993,22.15714399999998,2206
47.16466399999993,23.45314399999998,2258
47.16466399999993,22.805143999999984,2264
46.84066399999993,24.101143999999977,2178
45.86866399999994,27.34114399999998,2518
45.54466399999994,27.34114399999998,2499
45.54466399999994,27.989143999999985,2615
45.86866399999994,20.86114399999998,2390
45.86866399999994,21.50914399999997,2398
46.19266399999994,21.50914399999997,2334
46.19266399999994,27.34114399999998,2518
46.19266399999994,26.69314399999997,2509
46.516663999999935,26.69314399999997,2471
46.516663999999935,26.04514399999998,2367
47.48866399999993,22.805143999999984,2325
46.84066399999993,22.805143999999984,2138
45.54466399999994,22.15714399999998,2447
45.22066399999994,22.15714399999998,2525
44.89666399999994,22.15714399999998,2943
47.48866399999993,23.45314399999998,2291
46.516663999999935,24.101143999999977,2017
46.516663999999935,24.74914399999998,2231
45.86866399999994,24.101143999999977,2180
47.16466399999993,26.69314399999997,2549
47.16466399999993,27.34114399999998,2604
43.92466399999995,25.397143999999983,2563
44.24866399999995,24.74914399999998,2470
44.89666399999994,26.04514399999998,2357
44.89666399999994,26.69314399999997,2404
45.22066399999994,26.69314399999997,2439
45.22066399999994,27.34114399999998,2466
46.84066399999993,26.69314399999997,2510
47.48866399999993,26.69314399999997,2503
44.24866399999995,25.397143999999983,2402
43.92466399999995,26.04514399999998,2579
46.19266399999994,24.101143999999977,2225
44.572663999999946,25.397143999999983,2440
46.84066399999993,24.74914399999998,2238
46.516663999999935,21.50914399999997,2338
46.84066399999993,21.50914399999997,2345
44.572663999999946,26.69314399999997,2395
44.572663999999946,27.34114399999998,2416
44.89666399999994,27.34114399999998,2531
44.572663999999946,27.989143999999985,2436
44.24866399999995,27.989143999999985,2450
44.572663999999946,28.63714399999997,2501
45.86866399999994,22.15714399999998,2259
45.86866399999994,22.805143999999984,2153
44.24866399999995,23.45314399999998,2588
43.92466399999995,27.989143999999985,65535
46.84066399999993,27.34114399999998,2671
45.22066399999994,23.45314399999998,2460
45.54466399999994,23.45314399999998,2263
45.54466399999994,24.101143999999977,2210
45.22066399999994,24.101143999999977,2434
44.89666399999994,24.101143999999977,2504
46.19266399999994,22.15714399999998,2390
46.516663999999935,22.15714399999998,2356
45.22066399999994,21.50914399999997,2630
45.54466399999994,21.50914399999997,2478
45.54466399999994,20.86114399999998,2502
46.516663999999935,27.989143999999985,2621
46.19266399999994,27.989143999999985,2606
45.54466399999994,25.397143999999983,2324
45.22066399999994,25.397143999999983,2334
45.22066399999994,26.04514399999998,2390
47.81266399999993,24.101143999999977,2386
47.48866399999993,26.04514399999998,2476
47.81266399999993,26.04514399999998,2498
46.19266399999994,23.45314399999998,2057
45.86866399999994,23.45314399999998,2106
44.24866399999995,26.04514399999998,2384
45.22066399999994,27.989143999999985,2596
45.86866399999994,24.74914399999998,2219
46.516663999999935,25.397143999999983,2411
46.84066399999993,25.397143999999983,2294
46.19266399999994,26.04514399999998,2382
45.86866399999994,26.04514399999998,2347
43.92466399999995,23.45314399999998,2818
44.89666399999994,25.397143999999983,2445
46.19266399999994,20.86114399999998,2379
47.81266399999993,25.397143999999983,2510
44.572663999999946,22.805143999999984,2823
44.572663999999946,22.15714399999998,2965
46.516663999999935,23.45314399999998,2196
45.86866399999994,25.397143999999983,2273
44.24866399999995,27.34114399999998,3211
45.22066399999994,24.74914399999998,2536
45.54466399999994,22.805143999999984,2226
45.22066399999994,28.63714399999997,2656
44.89666399999994,28.63714399999997,2595
47.81266399999993,23.45314399999998,2443
46.19266399999994,24.74914399999998,2305
46.19266399999994,25.397143999999983,2329
43.92466399999995,24.101143999999977,2781
43.92466399999995,24.74914399999998,2794
47.81266399999993,26.69314399999997,2725
47.48866399999993,24.101143999999977,2318
46.84066399999993,26.04514399999998,3126
46.19266399999994,22.805143999999984,2450
47.48866399999993,27.34114399999998,2678
46.19266399999994,20.213143999999986,65535
45.54466399999994,26.04514399999998,2482
44.24866399999995,26.69314399999997,2400
45.86866399999994,27.989143999999985,2654
47.81266399999993,5.957143999999991,6586
