51.56399999999999,-0.4100000000000028,65535
51.887999999999984,-0.4100000000000028,65535
50.91599999999999,-1.7060000000000022,65535
51.23999999999999,-1.0580000000000025,65535
51.56399999999999,-1.0580000000000025,65535
51.23999999999999,-1.7060000000000022,65535
51.56399999999999,0.2379999999999968,65535
47.16466399999993,9.845143999999989,204
47.48866399999993,9.845143999999989,192
48.136663999999925,14.381143999999988,781
47.81266399999993,13.085143999999987,369
47.16466399999993,11.141143999999988,498
47.48866399999993,11.789143999999988,437
48.136663999999925,16.325143999999987,933
47.48866399999993,12.437143999999988,358
48.136663999999925,15.677143999999986,906
47.16466399999993,10.493143999999988,438
47.16466399999993,9.197143999999987,179
48.136663999999925,13.733143999999989,496
48.136663999999925,15.029143999999986,823
47.81266399999993,16.973143999999984,955
48.46066399999992,14.381143999999988,904
47.48866399999993,13.085143999999987,360
47.16466399999993,13.085143999999987,399
47.48866399999993,14.381143999999988,874
47.48866399999993,13.733143999999989,924
47.48866399999993,15.029143999999986,945
46.516663999999935,13.733143999999989,1187
46.84066399999993,13.733143999999989,1156
46.84066399999993,13.085143999999987,1141
48.78466399999992,14.381143999999988,65535
47.16466399999993,15.677143999999986,1020
46.516663999999935,14.381143999999988,1194
46.84066399999993,14.381143999999988,1135
47.16466399999993,14.381143999999988,1085
46.516663999999935,15.029143999999986,1207
47.81266399999993,16.325143999999987,952
47.16466399999993,15.029143999999986,1060
47.81266399999993,15.677143999999986,958
47.48866399999993,15.677143999999986,997
46.516663999999935,13.085143999999987,1454
46.84066399999993,12.437143999999988,1199
48.136663999999925,11.789143999999988,279
47.81266399999993,12.437143999999988,317
46.84066399999993,15.677143999999986,1081
46.516663999999935,15.677143999999986,1300
46.84066399999993,16.325143999999987,1065
47.81266399999993,14.381143999999988,835
48.78466399999992,16.973143999999984,1012
48.136663999999925,16.973143999999984,946
48.46066399999992,13.733143999999989,397
47.81266399999993,13.733143999999989,851
50.08066399999991,8.54914399999999,215
48.46066399999992,9.845143999999989,251
51.05266399999991,7.25314399999999,174
51.37666399999991,7.25314399999999,182
51.37666399999991,6.60514399999999,178
48.46066399999992,16.325143999999987,929
48.46066399999992,16.973143999999984,969
48.78466399999992,16.325143999999987,954
48.46066399999992,15.677143999999986,940
48.78466399999992,15.677143999999986,947
47.48866399999993,16.325143999999987,962
47.16466399999993,16.325143999999987,1014
46.19266399999994,14.381143999999988,1252
45.86866399999994,15.677143999999986,1304
43.60066399999995,16.325143999999987,1720
45.54466399999994,14.381143999999988,1366
45.54466399999994,13.733143999999989,1389
48.136663999999925,13.085143999999987,366
48.46066399999992,11.141143999999988,261
48.136663999999925,11.141143999999988,274
48.46066399999992,7.90114399999999,161
49.10866399999992,8.54914399999999,190
48.78466399999992,2.0691439999999925,0
49.10866399999992,7.25314399999999,134
52.0246639999999,7.90114399999999,195
47.16466399999993,11.789143999999988,481
49.43266399999992,11.141143999999988,273
53.64466399999989,9.845143999999989,345
50.72866399999991,4.013143999999992,120
51.05266399999991,11.141143999999988,345
47.48866399999993,11.141143999999988,308
46.84066399999993,11.789143999999988,1622
46.516663999999935,11.141143999999988,1591
45.54466399999994,11.141143999999988,1485
46.19266399999994,11.141143999999988,1557
45.86866399999994,11.141143999999988,1541
44.572663999999946,11.141143999999988,1332
43.92466399999995,12.437143999999988,3965
45.54466399999994,12.437143999999988,1572
45.54466399999994,11.789143999999988,1535
48.78466399999992,15.029143999999986,972
47.81266399999993,15.029143999999986,855
47.81266399999993,11.141143999999988,289
50.40466399999991,18.917143999999983,908
52.3486639999999,20.86114399999998,1063
54.616663999999886,18.269143999999983,1031
54.29266399999989,18.917143999999983,1044
49.10866399999992,14.381143999999988,65535
50.08066399999991,14.381143999999988,787
48.78466399999992,13.733143999999989,1736
52.6726639999999,13.085143999999987,430
52.3486639999999,13.085143999999987,428
53.96866399999989,12.437143999999988,543
54.29266399999989,12.437143999999988,772
47.48866399999993,8.54914399999999,172
47.81266399999993,17.621143999999987,992
47.48866399999993,18.917143999999983,1100
47.48866399999993,20.86114399999998,1436
46.84066399999993,23.45314399999998,1918
44.572663999999946,26.04514399999998,2367
47.48866399999993,21.50914399999997,1472
47.81266399999993,21.50914399999997,1868
48.46066399999992,22.15714399999998,1297
47.48866399999993,16.973143999999984,65535
49.10866399999992,16.325143999999987,967
49.75666399999992,18.269143999999983,1064
46.19266399999994,13.085143999999987,2303
41.98066399999996,12.437143999999988,2565
43.60066399999995,10.493143999999988,2726
45.54466399999994,9.197143999999987,248
47.81266399999993,22.805143999999984,2333
49.75666399999992,22.805143999999984,1136
50.72866399999991,3.365143999999992,108
51.05266399999991,4.013143999999992,124
50.72866399999991,4.661143999999991,122
51.05266399999991,4.661143999999991,124
51.05266399999991,3.365143999999992,125
51.05266399999991,2.717143999999992,130
50.40466399999991,4.661143999999991,122
50.72866399999991,2.717143999999992,107
50.40466399999991,4.013143999999992,117
51.05266399999991,5.309143999999991,136
50.72866399999991,5.309143999999991,134
51.37666399999991,3.365143999999992,157
51.37666399999991,4.661143999999991,129
50.72866399999991,5.957143999999991,149
50.40466399999991,5.957143999999991,158
50.40466399999991,3.365143999999992,110
50.40466399999991,5.309143999999991,131
50.08066399999991,5.309143999999991,137
49.75666399999992,5.309143999999991,140
49.75666399999992,5.957143999999991,112
51.37666399999991,5.309143999999991,145
51.700663999999904,4.661143999999991,158
50.08066399999991,4.013143999999992,128
50.08066399999991,5.957143999999991,201
50.08066399999991,4.661143999999991,125
49.43266399999992,5.309143999999991,135
49.43266399999992,5.957143999999991,101
52.0246639999999,4.661143999999991,230
52.3486639999999,4.661143999999991,259
50.72866399999991,15.029143999999986,486
51.05266399999991,15.029143999999986,460
51.05266399999991,13.733143999999989,435
50.40466399999991,13.085143999999987,478
49.10866399999992,7.90114399999999,195
48.78466399999992,7.90114399999999,178
50.40466399999991,7.90114399999999,203
50.08066399999991,7.90114399999999,215
49.75666399999992,7.90114399999999,191
49.43266399999992,7.90114399999999,192
49.75666399999992,8.54914399999999,204
49.43266399999992,8.54914399999999,199
49.43266399999992,9.197143999999987,212
49.10866399999992,9.197143999999987,204
47.48866399999993,7.90114399999999,167
47.81266399999993,7.90114399999999,170
48.136663999999925,7.90114399999999,172
48.136663999999925,9.845143999999989,227
47.81266399999993,9.197143999999987,194
47.81266399999993,8.54914399999999,193
47.81266399999993,9.845143999999989,199
54.940663999999884,9.197143999999987,419
54.616663999999886,9.197143999999987,388
54.29266399999989,9.197143999999987,373
53.96866399999989,9.197143999999987,357
53.64466399999989,9.197143999999987,335
54.616663999999886,9.845143999999989,398
54.29266399999989,9.845143999999989,406
53.96866399999989,9.845143999999989,358
53.64466399999989,10.493143999999988,352
53.96866399999989,10.493143999999988,405
53.96866399999989,11.141143999999988,436
54.29266399999989,10.493143999999988,449
53.32066399999989,10.493143999999988,332
54.940663999999884,11.141143999999988,535
52.6726639999999,13.733143999999989,431
52.3486639999999,13.733143999999989,431
52.3486639999999,14.381143999999988,460
52.0246639999999,14.381143999999988,467
52.0246639999999,11.789143999999988,361
52.3486639999999,11.789143999999988,343
52.3486639999999,12.437143999999988,372
52.0246639999999,15.029143999999986,474
51.700663999999904,14.381143999999988,484
52.0246639999999,13.733143999999989,443
51.700663999999904,13.733143999999989,475
52.6726639999999,12.437143999999988,409
53.32066399999989,11.789143999999988,429
53.96866399999989,11.789143999999988,534
53.64466399999989,11.789143999999988,493
53.64466399999989,11.141143999999988,462
53.32066399999989,11.141143999999988,453
52.996663999999896,11.789143999999988,392
52.996663999999896,12.437143999999988,444
52.996663999999896,13.733143999999989,440
53.64466399999989,13.733143999999989,504
53.96866399999989,13.733143999999989,770
54.29266399999989,13.085143999999987,813
53.96866399999989,13.085143999999987,797
53.32066399999989,13.733143999999989,476
52.0246639999999,13.085143999999987,442
51.700663999999904,13.085143999999987,400
52.996663999999896,14.381143999999988,466
52.0246639999999,12.437143999999988,382
51.700663999999904,12.437143999999988,375
51.37666399999991,11.789143999999988,367
51.37666399999991,12.437143999999988,372
52.6726639999999,11.789143999999988,350
53.64466399999989,13.085143999999987,801
53.32066399999989,13.085143999999987,462
52.996663999999896,13.085143999999987,446
53.64466399999989,12.437143999999988,497
51.37666399999991,13.733143999999989,420
53.32066399999989,12.437143999999988,832
52.6726639999999,14.381143999999988,493
51.37666399999991,13.085143999999987,383
53.32066399999989,14.381143999999988,734
52.3486639999999,15.029143999999986,883
52.0246639999999,15.677143999999986,792
51.700663999999904,15.029143999999986,823
51.05266399999991,16.325143999999987,777
51.05266399999991,16.973143999999984,804
51.700663999999904,15.677143999999986,821
51.37666399999991,15.677143999999986,735
51.37666399999991,16.325143999999987,767
50.72866399999991,13.085143999999987,371
50.72866399999991,12.437143999999988,360
51.05266399999991,13.085143999999987,387
51.05266399999991,14.381143999999988,452
50.40466399999991,12.437143999999988,355
50.40466399999991,11.789143999999988,352
50.08066399999991,12.437143999999988,321
50.72866399999991,11.789143999999988,378
51.05266399999991,12.437143999999988,367
50.72866399999991,14.381143999999988,476
51.37666399999991,14.381143999999988,434
50.72866399999991,13.733143999999989,814
50.40466399999991,14.381143999999988,759
51.37666399999991,15.029143999999986,466
55.26466399999988,9.197143999999987,1788
55.58866399999988,8.54914399999999,3082
55.91266399999988,8.54914399999999,6559
56.23666399999988,9.197143999999987,6567
56.23666399999988,10.493143999999988,6520
56.23666399999988,9.845143999999989,6507
55.91266399999988,9.845143999999989,6445
56.56066399999988,9.197143999999987,6577
56.56066399999988,8.54914399999999,6620
51.05266399999991,6.60514399999999,175
51.700663999999904,7.90114399999999,190
50.72866399999991,6.60514399999999,156
51.700663999999904,7.25314399999999,185
50.72866399999991,7.25314399999999,176
52.0246639999999,7.25314399999999,211
52.3486639999999,7.90114399999999,207
51.05266399999991,5.957143999999991,162
50.40466399999991,7.25314399999999,191
51.700663999999904,6.60514399999999,187
51.700663999999904,5.957143999999991,188
52.3486639999999,9.197143999999987,242
51.700663999999904,8.54914399999999,211
52.0246639999999,8.54914399999999,226
52.3486639999999,8.54914399999999,226
51.37666399999991,7.90114399999999,191
52.3486639999999,7.25314399999999,273
51.37666399999991,5.957143999999991,221
50.72866399999991,7.90114399999999,181
51.37666399999991,9.197143999999987,244
51.700663999999904,9.197143999999987,225
50.40466399999991,6.60514399999999,166
51.05266399999991,7.90114399999999,187
51.37666399999991,8.54914399999999,221
52.0246639999999,5.957143999999991,231
52.3486639999999,6.60514399999999,296
51.05266399999991,8.54914399999999,238
52.0246639999999,9.197143999999987,244
52.6726639999999,9.197143999999987,270
52.0246639999999,9.845143999999989,250
51.700663999999904,9.845143999999989,237
51.37666399999991,9.845143999999989,286
50.72866399999991,8.54914399999999,233
51.05266399999991,9.845143999999989,291
50.72866399999991,9.845143999999989,260
50.40466399999991,9.845143999999989,275
51.05266399999991,9.197143999999987,253
50.40466399999991,9.197143999999987,238
50.08066399999991,9.197143999999987,226
51.05266399999991,10.493143999999988,327
50.40466399999991,8.54914399999999,218
50.72866399999991,9.197143999999987,248
49.75666399999992,9.197143999999987,245
52.996663999999896,9.197143999999987,271
52.3486639999999,9.845143999999989,257
52.996663999999896,8.54914399999999,266
52.996663999999896,7.90114399999999,293
53.32066399999989,7.90114399999999,343
53.32066399999989,7.25314399999999,373
53.64466399999989,7.25314399999999,418
52.996663999999896,10.493143999999988,323
52.6726639999999,10.493143999999988,316
52.6726639999999,9.845143999999989,270
53.32066399999989,9.845143999999989,336
53.32066399999989,9.197143999999987,331
53.64466399999989,8.54914399999999,313
53.32066399999989,8.54914399999999,277
52.6726639999999,8.54914399999999,243
52.0246639999999,10.493143999999988,273
52.0246639999999,11.141143999999988,334
51.700663999999904,11.141143999999988,372
52.6726639999999,7.25314399999999,425
52.996663999999896,7.25314399999999,399
52.6726639999999,7.90114399999999,315
53.64466399999989,7.90114399999999,371
52.996663999999896,11.141143999999988,424
52.6726639999999,11.141143999999988,412
52.3486639999999,10.493143999999988,301
52.996663999999896,9.845143999999989,336
51.700663999999904,10.493143999999988,318
51.37666399999991,10.493143999999988,371
51.700663999999904,11.789143999999988,381
52.3486639999999,11.141143999999988,316
51.37666399999991,11.141143999999988,363
51.05266399999991,11.789143999999988,354
49.10866399999992,11.141143999999988,259
48.78466399999992,11.141143999999988,251
48.46066399999992,11.789143999999988,283
49.43266399999992,11.789143999999988,283
50.08066399999991,11.789143999999988,311
49.75666399999992,12.437143999999988,317
49.10866399999992,11.789143999999988,318
48.78466399999992,12.437143999999988,326
48.46066399999992,12.437143999999988,312
49.10866399999992,12.437143999999988,327
48.78466399999992,13.085143999999987,351
48.136663999999925,12.437143999999988,317
47.81266399999993,11.789143999999988,288
48.136663999999925,10.493143999999988,270
47.81266399999993,10.493143999999988,248
48.78466399999992,10.493143999999988,224
47.48866399999993,10.493143999999988,243
48.46066399999992,10.493143999999988,249
49.43266399999992,13.085143999999987,356
48.46066399999992,13.085143999999987,314
49.43266399999992,10.493143999999988,281
49.75666399999992,9.845143999999989,258
49.75666399999992,10.493143999999988,307
50.40466399999991,11.141143999999988,359
50.08066399999991,11.141143999999988,311
50.72866399999991,11.141143999999988,358
49.75666399999992,11.141143999999988,293
48.78466399999992,11.789143999999988,331
50.40466399999991,10.493143999999988,343
50.08066399999991,9.845143999999989,267
50.08066399999991,10.493143999999988,277
49.43266399999992,12.437143999999988,320
49.75666399999992,11.789143999999988,292
49.10866399999992,13.085143999999987,352
50.72866399999991,10.493143999999988,341
49.10866399999992,10.493143999999988,267
48.78466399999992,9.845143999999989,205
48.46066399999992,8.54914399999999,208
48.46066399999992,9.197143999999987,205
48.78466399999992,9.197143999999987,200
48.78466399999992,8.54914399999999,185
50.08066399999991,7.25314399999999,168
49.75666399999992,6.60514399999999,152
49.43266399999992,6.60514399999999,112
49.10866399999992,6.60514399999999,106
49.43266399999992,7.25314399999999,132
49.75666399999992,7.25314399999999,171
49.10866399999992,5.957143999999991,93
48.78466399999992,7.25314399999999,154
50.08066399999991,6.60514399999999,160
47.48866399999993,9.197143999999987,185
48.136663999999925,8.54914399999999,200
48.136663999999925,9.197143999999987,209
47.81266399999993,7.25314399999999,164
49.43266399999992,9.845143999999989,225
49.10866399999992,9.845143999999989,219
53.64466399999989,14.381143999999988,792
50.08066399999991,13.085143999999987,914
49.75666399999992,13.085143999999987,875
45.86866399999994,9.197143999999987,245
46.19266399999994,9.197143999999987,229
46.516663999999935,8.54914399999999,230
46.516663999999935,9.197143999999987,257
46.19266399999994,8.54914399999999,221
47.16466399999993,8.54914399999999,174
45.86866399999994,4.661143999999991,138
46.84066399999993,9.845143999999989,192
45.22066399999994,5.957143999999991,203
45.22066399999994,5.309143999999991,202
45.86866399999994,5.957143999999991,149
45.54466399999994,5.957143999999991,180
44.89666399999994,4.661143999999991,144
44.89666399999994,5.309143999999991,194
44.572663999999946,4.661143999999991,178
44.24866399999995,4.661143999999991,192
43.92466399999995,4.661143999999991,184
46.19266399999994,7.25314399999999,211
48.78466399999992,5.957143999999991,114
48.136663999999925,6.60514399999999,161
48.46066399999992,6.60514399999999,133
48.78466399999992,6.60514399999999,127
47.16466399999993,7.90114399999999,176
48.136663999999925,7.25314399999999,151
48.46066399999992,7.25314399999999,181
46.516663999999935,6.60514399999999,194
46.84066399999993,6.60514399999999,197
46.84066399999993,7.25314399999999,194
46.516663999999935,5.957143999999991,185
46.19266399999994,5.957143999999991,180
46.84066399999993,8.54914399999999,185
46.84066399999993,7.90114399999999,189
45.86866399999994,5.309143999999991,121
46.19266399999994,6.60514399999999,188
45.86866399999994,6.60514399999999,196
47.48866399999993,6.60514399999999,158
47.48866399999993,7.25314399999999,175
47.16466399999993,7.25314399999999,189
49.10866399999992,4.013143999999992,79
49.75666399999992,4.661143999999991,111
49.43266399999992,4.661143999999991,83
49.10866399999992,5.309143999999991,116
46.19266399999994,4.661143999999991,142
46.84066399999993,9.197143999999987,204
46.19266399999994,5.309143999999991,128
46.516663999999935,5.309143999999991,156
45.54466399999994,6.60514399999999,261
45.54466399999994,5.309143999999991,171
43.60066399999995,4.013143999999992,215
43.60066399999995,3.365143999999992,244
42.62866399999996,2.717143999999992,312
43.276663999999954,2.717143999999992,276
45.54466399999994,4.661143999999991,158
45.22066399999994,4.661143999999991,162
47.16466399999993,5.309143999999991,152
47.16466399999993,5.957143999999991,172
46.19266399999994,7.90114399999999,208
49.75666399999992,2.717143999999992,69
49.10866399999992,2.717143999999992,28
48.78466399999992,2.717143999999992,57
45.86866399999994,3.365143999999992,262
46.84066399999993,3.365143999999992,179
46.516663999999935,3.365143999999992,211
46.19266399999994,3.365143999999992,239
47.16466399999993,6.60514399999999,176
49.10866399999992,3.365143999999992,77
45.54466399999994,4.013143999999992,169
46.516663999999935,7.25314399999999,208
47.16466399999993,4.661143999999991,160
46.84066399999993,4.661143999999991,182
46.516663999999935,4.661143999999991,200
46.84066399999993,5.957143999999991,177
47.81266399999993,3.365143999999992,107
47.48866399999993,4.013143999999992,114
48.136663999999925,4.013143999999992,130
47.81266399999993,4.013143999999992,140
47.48866399999993,4.661143999999991,178
47.16466399999993,3.365143999999992,205
46.84066399999993,4.013143999999992,199
48.46066399999992,5.957143999999991,125
46.19266399999994,2.717143999999992,305
47.16466399999993,2.0691439999999925,120
46.516663999999935,2.717143999999992,279
46.84066399999993,2.717143999999992,165
46.84066399999993,2.0691439999999925,147
47.16466399999993,2.717143999999992,136
44.572663999999946,5.309143999999991,272
44.572663999999946,5.957143999999991,224
44.89666399999994,6.60514399999999,314
44.572663999999946,6.60514399999999,276
43.60066399999995,5.309143999999991,210
43.92466399999995,7.25314399999999,287
43.60066399999995,6.60514399999999,279
43.276663999999954,6.60514399999999,266
43.276663999999954,5.957143999999991,227
45.86866399999994,8.54914399999999,249
45.54466399999994,8.54914399999999,252
48.136663999999925,3.365143999999992,90
48.46066399999992,3.365143999999992,90
48.46066399999992,2.717143999999992,47
47.48866399999993,5.309143999999991,156
46.516663999999935,9.845143999999989,224
46.84066399999993,10.493143999999988,851
47.81266399999993,5.309143999999991,206
45.22066399999994,6.60514399999999,286
46.19266399999994,4.013143999999992,184
45.86866399999994,4.013143999999992,161
45.22066399999994,4.013143999999992,202
44.89666399999994,4.013143999999992,250
46.84066399999993,5.309143999999991,181
48.136663999999925,-1.8188560000000056,138
48.136663999999925,0.1251439999999934,88
48.136663999999925,-0.5228560000000062,116
47.48866399999993,-0.5228560000000062,132
47.16466399999993,-1.8188560000000056,174
47.48866399999993,0.7731439999999932,95
47.16466399999993,0.1251439999999934,118
45.86866399999994,7.25314399999999,200
48.136663999999925,5.309143999999991,184
49.10866399999992,4.661143999999991,100
48.46066399999992,4.013143999999992,110
48.136663999999925,4.661143999999991,147
47.81266399999993,6.60514399999999,163
47.48866399999993,5.957143999999991,201
48.136663999999925,5.957143999999991,1406
45.86866399999994,7.90114399999999,227
46.516663999999935,7.90114399999999,197
49.43266399999992,3.365143999999992,59
49.43266399999992,4.013143999999992,67
48.136663999999925,2.717143999999992,111
47.81266399999993,2.717143999999992,141
47.48866399999993,2.717143999999992,160
50.40466399999991,2.717143999999992,100
48.46066399999992,-4.410856000000004,275
48.46066399999992,-3.7628560000000046,239
48.46066399999992,-3.114856000000005,210
48.46066399999992,-2.4668560000000053,189
47.48866399999993,1.4211439999999929,126
47.16466399999993,1.4211439999999929,138
46.516663999999935,4.013143999999992,205
43.60066399999995,4.661143999999991,219
44.89666399999994,2.717143999999992,361
45.22066399999994,2.717143999999992,844
45.54466399999994,3.365143999999992,350
45.22066399999994,3.365143999999992,370
47.48866399999993,3.365143999999992,296
46.19266399999994,9.845143999999989,893
47.81266399999993,2.0691439999999925,84
47.48866399999993,2.0691439999999925,96
45.86866399999994,2.717143999999992,863
44.89666399999994,5.957143999999991,217
45.22066399999994,1.4211439999999929,240
44.89666399999994,1.4211439999999929,242
44.89666399999994,2.0691439999999925,269
43.276663999999954,2.0691439999999925,326
43.60066399999995,1.4211439999999929,277
48.78466399999992,4.661143999999991,134
48.78466399999992,5.309143999999991,130
46.19266399999994,2.0691439999999925,319
45.86866399999994,1.4211439999999929,190
46.19266399999994,1.4211439999999929,199
44.572663999999946,4.013143999999992,1053
44.89666399999994,3.365143999999992,994
43.92466399999995,4.013143999999992,218
44.24866399999995,4.013143999999992,242
44.89666399999994,-0.5228560000000062,134
45.54466399999994,0.1251439999999934,126
46.516663999999935,0.1251439999999934,85
44.572663999999946,2.0691439999999925,276
49.75666399999992,4.013143999999992,100
43.92466399999995,3.365143999999992,936
43.92466399999995,2.717143999999992,967
44.24866399999995,3.365143999999992,992
44.572663999999946,3.365143999999992,1037
49.10866399999992,0.1251439999999934,113
49.43266399999992,0.7731439999999932,104
49.43266399999992,-1.8188560000000056,176
49.10866399999992,-1.170856000000006,151
49.10866399999992,-0.5228560000000062,129
49.10866399999992,0.7731439999999932,98
49.10866399999992,1.4211439999999929,72
47.81266399999993,-1.8188560000000056,164
47.81266399999993,-2.4668560000000053,207
47.81266399999993,-3.114856000000005,220
48.136663999999925,-3.7628560000000046,255
44.572663999999946,9.197143999999987,416
44.89666399999994,8.54914399999999,298
45.22066399999994,9.197143999999987,259
45.54466399999994,10.493143999999988,847
44.572663999999946,10.493143999999988,1318
44.89666399999994,10.493143999999988,913
44.89666399999994,9.845143999999989,401
48.46066399999992,5.309143999999991,243
50.91599999999999,-1.0580000000000025,65535
51.23999999999999,-0.4100000000000028,65535
50.91599999999999,-0.4100000000000028,65535
51.23999999999999,-2.354000000000002,65535
51.56399999999999,-2.354000000000002,65535
51.56399999999999,-3.0020000000000016,65535
50.91599999999999,-2.354000000000002,65535
53.50799999999997,-3.0020000000000016,65535
53.183999999999976,-2.354000000000002,65535
53.183999999999976,-3.0020000000000016,65535
52.85999999999998,-2.354000000000002,65535
52.21199999999998,-1.0580000000000025,65535
51.887999999999984,-1.0580000000000025,65535
52.53599999999998,-1.0580000000000025,65535
52.53599999999998,-1.7060000000000022,65535
52.85999999999998,-1.7060000000000022,65535
53.50799999999997,-2.354000000000002,65535
52.85999999999998,-1.0580000000000025,65535
52.53599999999998,1.5339999999999965,65535
52.53599999999998,0.8859999999999966,65535
52.53599999999998,0.2379999999999968,65535
52.53599999999998,-0.4100000000000028,65535
53.50799999999997,-1.7060000000000022,65535
53.183999999999976,-1.7060000000000022,65535
53.183999999999976,-1.0580000000000025,65535
52.85999999999998,-0.4100000000000028,65535
51.887999999999984,-2.354000000000002,65535
52.21199999999998,-2.354000000000002,65535
55.77599999999996,-2.354000000000002,65535
53.83199999999997,-1.0580000000000025,65535
53.83199999999997,-1.7060000000000022,65535
55.127999999999965,-1.7060000000000022,65535
54.80399999999997,-1.7060000000000022,65535
54.47999999999997,-1.7060000000000022,65535
54.15599999999997,-1.0580000000000025,65535
52.21199999999998,-1.7060000000000022,65535
53.50799999999997,-1.0580000000000025,65535
55.77599999999996,-3.0020000000000016,65535
55.45199999999996,-1.7060000000000022,65535
57.07199999999995,-2.354000000000002,65535
56.74799999999996,-3.0020000000000016,65535
56.42399999999996,-3.0020000000000016,65535
56.09999999999996,-3.650000000000001,65535
50.91599999999999,-3.0020000000000016,65535
50.91599999999999,-3.650000000000001,65535
50.59199999999999,-3.650000000000001,65535
50.59199999999999,-4.298000000000001,65535
51.23999999999999,-3.0020000000000016,65535
50.268,-4.946000000000001,65535
55.77599999999996,-3.650000000000001,65535
55.77599999999996,-4.298000000000001,65535
52.21199999999998,-0.4100000000000028,65535
52.53599999999998,-2.354000000000002,65535
51.56399999999999,-1.7060000000000022,65535
51.56399999999999,-3.650000000000001,65535
51.887999999999984,-4.298000000000001,65535
51.56399999999999,-4.298000000000001,65535
51.887999999999984,-1.7060000000000022,65535
52.21199999999998,-3.0020000000000016,65535
51.23999999999999,0.2379999999999968,65535
50.91599999999999,0.2379999999999968,65535
52.21199999999998,0.2379999999999968,65535
53.83199999999997,-3.0020000000000016,65535
54.15599999999997,-3.0020000000000016,65535
54.47999999999997,-3.0020000000000016,65535
55.127999999999965,-3.650000000000001,65535
54.80399999999997,-3.0020000000000016,65535
53.83199999999997,-2.354000000000002,65535
54.15599999999997,-0.4100000000000028,65535
54.47999999999997,-1.0580000000000025,65535
53.83199999999997,-0.4100000000000028,65535
53.183999999999976,-3.650000000000001,65535
53.183999999999976,-4.298000000000001,65535
52.85999999999998,-3.0020000000000016,65535
52.53599999999998,-3.0020000000000016,65535
51.887999999999984,-3.0020000000000016,65535
51.23999999999999,0.8859999999999966,65535
51.887999999999984,0.2379999999999968,65535
52.21199999999998,0.8859999999999966,65535
51.887999999999984,-4.946000000000001,65535
52.53599999999998,-3.650000000000001,65535
52.21199999999998,-4.298000000000001,65535
53.183999999999976,-0.4100000000000028,65535
51.23999999999999,-3.650000000000001,65535
51.887999999999984,-3.650000000000001,65535
52.21199999999998,-3.650000000000001,65535
51.56399999999999,0.8859999999999966,65535
51.887999999999984,0.8859999999999966,65535
52.85999999999998,0.8859999999999966,65535
53.50799999999997,-0.4100000000000028,65535
56.09999999999996,-4.298000000000001,65535
56.74799999999996,-4.946000000000001,65535
56.74799999999996,-4.298000000000001,65535
56.42399999999996,-4.946000000000001,65535
56.42399999999996,-4.298000000000001,65535
56.09999999999996,-4.946000000000001,65535
57.39599999999995,-4.298000000000001,65535
57.39599999999995,-3.0020000000000016,65535
57.39599999999995,-3.650000000000001,65535
56.42399999999996,-3.650000000000001,65535
57.07199999999995,-3.650000000000001,65535
57.07199999999995,-4.298000000000001,65535
56.74799999999996,-3.650000000000001,65535
59.15266399999986,27.34114399999998,65535
59.47666399999986,26.69314399999997,65535
59.47666399999986,26.04514399999998,65535
59.15266399999986,26.04514399999998,65535
59.15266399999986,24.74914399999998,65535
59.15266399999986,25.397143999999983,65535
59.47666399999986,25.397143999999983,65535
58.50466399999986,26.69314399999997,65535
58.82866399999986,26.69314399999997,65535
57.85666399999987,26.04514399999998,65535
58.180663999999865,26.04514399999998,65535
58.180663999999865,26.69314399999997,65535
58.82866399999986,26.04514399999998,65535
58.50466399999986,25.397143999999983,65535
58.82866399999986,25.397143999999983,65535
58.82866399999986,24.74914399999998,65535
58.180663999999865,27.34114399999998,65535
57.85666399999987,27.34114399999998,65535
63.68866399999983,27.34114399999998,7077
60.124663999999854,24.74914399999998,3733
60.44866399999985,24.74914399999998,3702
60.44866399999985,25.397143999999983,3714
60.77266399999985,25.397143999999983,4425
61.09666399999985,26.04514399999998,4468
60.77266399999985,26.04514399999998,4476
60.77266399999985,26.69314399999997,4495
61.09666399999985,25.397143999999983,4459
61.09666399999985,26.69314399999997,7198
61.420663999999846,26.69314399999997,7220
61.74466399999984,27.34114399999998,7244
62.06866399999984,27.34114399999998,7269
62.39266399999984,27.34114399999998,7293
62.71666399999984,27.34114399999998,7257
64.01266399999983,27.34114399999998,7033
63.36466399999984,27.34114399999998,7145
63.04066399999984,27.34114399999998,7185
63.04066399999984,27.989143999999985,7200
64.33666399999983,27.989143999999985,4784
64.33666399999983,27.34114399999998,4729
64.66066399999983,27.34114399999998,4714
64.66066399999983,26.69314399999997,4659
64.98466399999982,25.397143999999983,3079
64.66066399999983,26.04514399999998,4640
64.98466399999982,26.04514399999998,4624
66.28066399999982,25.397143999999983,3251
65.95666399999982,24.74914399999998,2992
65.63266399999982,24.74914399999998,2996
65.63266399999982,25.397143999999983,3038
65.30866399999982,25.397143999999983,3059
66.60466399999981,25.397143999999983,3285
64.01266399999983,24.74914399999998,3216
64.01266399999983,24.101143999999977,3251
64.01266399999983,23.45314399999998,3275
63.68866399999983,23.45314399999998,3287
63.68866399999983,22.805143999999984,3312
63.68866399999983,26.04514399999998,5344
63.68866399999983,25.397143999999983,5310
63.68866399999983,26.69314399999997,7044
60.44866399999985,26.69314399999997,7829
64.01266399999983,27.989143999999985,7463
62.71666399999984,22.805143999999984,3434
62.39266399999984,22.805143999999984,3466
62.06866399999984,22.805143999999984,3495
62.06866399999984,23.45314399999998,3511
61.74466399999984,23.45314399999998,3523
61.420663999999846,23.45314399999998,3571
61.09666399999985,23.45314399999998,3612
61.09666399999985,24.101143999999977,3619
61.09666399999985,24.74914399999998,3653
60.77266399999985,24.74914399999998,3669
63.04066399999984,21.50914399999997,65535
63.04066399999984,22.15714399999998,65535
63.04066399999984,22.805143999999984,3398
62.39266399999984,26.04514399999998,7441
62.06866399999984,25.397143999999983,7490
61.74466399999984,25.397143999999983,7558
61.74466399999984,24.74914399999998,7595
61.74466399999984,24.101143999999977,3800
61.420663999999846,24.101143999999977,3755
62.39266399999984,26.69314399999997,7412
64.66066399999983,25.397143999999983,3148
64.66066399999983,24.74914399999998,3166
64.33666399999983,24.74914399999998,3177
63.36466399999984,22.805143999999984,3337
67.25266399999981,24.101143999999977,6865
66.92866399999981,24.101143999999977,6829
66.60466399999981,23.45314399999998,6798
66.28066399999982,23.45314399999998,6780
66.28066399999982,24.101143999999977,6762
65.95666399999982,24.101143999999977,2364
60.124663999999854,24.101143999999977,5247
60.124663999999854,23.45314399999998,6105
60.44866399999985,22.805143999999984,6164
60.77266399999985,27.34114399999998,4547
61.09666399999985,27.989143999999985,4577
61.09666399999985,28.63714399999997,4615
61.420663999999846,29.28514399999997,4650
61.74466399999984,29.933143999999977,4687
62.06866399999984,29.933143999999977,4713
62.39266399999984,29.933143999999977,4729
62.71666399999984,29.933143999999977,4753
61.420663999999846,22.805143999999984,5858
61.420663999999846,22.15714399999998,6566
61.09666399999985,22.15714399999998,5904
61.420663999999846,21.50914399999997,6699
62.39266399999984,27.989143999999985,65535
62.06866399999984,27.989143999999985,65535
61.420663999999846,27.34114399999998,65535
63.04066399999984,29.933143999999977,6692
63.68866399999983,29.28514399999997,8475
63.36466399999984,29.28514399999997,8455
63.36466399999984,29.933143999999977,8414
60.44866399999985,27.34114399999998,65535
61.74466399999984,29.28514399999997,65535
62.39266399999984,30.58114399999998,65535
62.71666399999984,31.229143999999977,65535
62.71666399999984,29.28514399999997,65535
63.04066399999984,28.63714399999997,65535
66.60466399999981,26.04514399999998,6106
66.60466399999981,26.69314399999997,6142
66.60466399999981,27.34114399999998,6165
62.71666399999984,26.04514399999998,7326
62.71666399999984,25.397143999999983,7295
63.04066399999984,25.397143999999983,7115
63.36466399999984,25.397143999999983,5752
62.71666399999984,23.45314399999998,7320
62.39266399999984,24.101143999999977,65535
62.71666399999984,22.15714399999998,65535
62.39266399999984,22.15714399999998,65535
62.39266399999984,21.50914399999997,65535
61.09666399999985,21.50914399999997,5934
60.77266399999985,22.805143999999984,3972
60.44866399999985,22.15714399999998,4002
60.77266399999985,23.45314399999998,3959
60.77266399999985,21.50914399999997,5073
60.77266399999985,22.15714399999998,5026
60.124663999999854,22.805143999999984,8119
60.44866399999985,24.101143999999977,5232
62.06866399999984,24.74914399999998,65535
50.72866399999991,16.325143999999987,785
50.40466399999991,16.973143999999984,841
50.72866399999991,16.973143999999984,812
50.40466399999991,16.325143999999987,848
50.08066399999991,16.973143999999984,971
50.08066399999991,16.325143999999987,873
51.700663999999904,16.973143999999984,899
51.37666399999991,16.973143999999984,802
51.05266399999991,15.677143999999986,808
50.72866399999991,15.677143999999986,823
51.05266399999991,17.621143999999987,819
51.37666399999991,17.621143999999987,846
51.700663999999904,17.621143999999987,874
51.700663999999904,16.325143999999987,867
52.0246639999999,22.15714399999998,1078
52.0246639999999,21.50914399999997,1074
52.3486639999999,21.50914399999997,1074
52.0246639999999,20.86114399999998,1054
51.700663999999904,20.86114399999998,1112
51.37666399999991,21.50914399999997,1151
51.37666399999991,20.86114399999998,1146
51.05266399999991,20.86114399999998,1126
52.6726639999999,23.45314399999998,1267
52.3486639999999,22.805143999999984,1209
52.3486639999999,20.213143999999986,1092
52.0246639999999,20.213143999999986,1045
52.3486639999999,19.565143999999982,1087
52.6726639999999,19.565143999999982,1179
51.700663999999904,21.50914399999997,1147
51.700663999999904,22.15714399999998,1182
52.6726639999999,21.50914399999997,1091
52.996663999999896,21.50914399999997,1140
52.6726639999999,20.86114399999998,1106
52.6726639999999,22.15714399999998,1129
52.6726639999999,20.213143999999986,1179
52.996663999999896,19.565143999999982,1230
52.996663999999896,20.86114399999998,1140
52.996663999999896,20.213143999999986,1166
53.32066399999989,20.213143999999986,1170
51.37666399999991,20.213143999999986,1214
52.3486639999999,16.973143999999984,857
52.0246639999999,16.973143999999984,881
52.0246639999999,16.325143999999987,894
52.0246639999999,17.621143999999987,865
52.6726639999999,16.973143999999984,864
52.996663999999896,16.973143999999984,885
52.3486639999999,16.325143999999987,848
52.3486639999999,15.677143999999986,825
51.700663999999904,18.269143999999983,958
52.6726639999999,17.621143999999987,888
52.3486639999999,17.621143999999987,873
52.6726639999999,18.269143999999983,916
52.3486639999999,18.269143999999983,901
52.3486639999999,18.917143999999983,1047
52.996663999999896,17.621143999999987,924
51.700663999999904,19.565143999999982,1039
51.700663999999904,18.917143999999983,1006
51.37666399999991,18.269143999999983,887
58.82866399999986,9.197143999999987,1328
58.180663999999865,7.90114399999999,1421
58.50466399999986,8.54914399999999,1372
63.36466399999984,10.493143999999988,1543
63.36466399999984,11.141143999999988,1550
63.36466399999984,11.789143999999988,1585
63.68866399999983,11.789143999999988,1613
64.33666399999983,12.437143999999988,2014
64.66066399999983,12.437143999999988,2509
65.63266399999982,13.085143999999987,2166
65.95666399999982,13.085143999999987,2201
66.28066399999982,14.381143999999988,2271
65.95666399999982,13.733143999999989,2340
66.28066399999982,13.733143999999989,2249
65.30866399999982,13.085143999999987,2467
64.98466399999982,13.085143999999987,2101
64.01266399999983,11.789143999999988,1644
63.68866399999983,11.141143999999988,1581
59.800663999999855,10.493143999999988,1124
59.800663999999855,11.141143999999988,1107
60.124663999999854,11.141143999999988,1122
60.44866399999985,11.141143999999988,1135
60.124663999999854,11.789143999999988,1148
60.77266399999985,7.25314399999999,1384
60.77266399999985,6.60514399999999,1430
59.15266399999986,9.197143999999987,1210
59.47666399999986,9.197143999999987,1231
59.800663999999855,9.845143999999989,1126
59.47666399999986,11.141143999999988,1071
61.09666399999985,10.493143999999988,1245
60.77266399999985,10.493143999999988,1215
60.77266399999985,11.141143999999988,1170
62.06866399999984,9.197143999999987,1570
61.74466399999984,9.845143999999989,1516
61.420663999999846,9.845143999999989,1493
59.15266399999986,9.845143999999989,1190
59.47666399999986,9.845143999999989,1166
58.82866399999986,5.957143999999991,1605
58.180663999999865,7.25314399999999,1477
58.50466399999986,7.25314399999999,1510
58.50466399999986,6.60514399999999,1515
58.50466399999986,5.957143999999991,1573
58.82866399999986,8.54914399999999,1358
60.44866399999985,7.25314399999999,1358
60.44866399999985,7.90114399999999,1319
60.124663999999854,10.493143999999988,1156
60.44866399999985,9.197143999999987,1268
60.77266399999985,9.197143999999987,1280
60.77266399999985,8.54914399999999,1299
60.124663999999854,9.845143999999989,1535
60.44866399999985,10.493143999999988,1201
63.04066399999984,10.493143999999988,1494
62.06866399999984,9.845143999999989,1595
62.39266399999984,9.845143999999989,1603
62.71666399999984,9.845143999999989,1627
59.47666399999986,14.381143999999988,1120
59.47666399999986,13.733143999999989,1061
59.47666399999986,13.085143999999987,1037
59.800663999999855,12.437143999999988,1106
59.15266399999986,11.141143999999988,1035
59.15266399999986,14.381143999999988,1134
58.82866399999986,11.789143999999988,1015
58.50466399999986,12.437143999999988,945
58.180663999999865,12.437143999999988,938
57.85666399999987,11.789143999999988,889
62.71666399999984,7.90114399999999,1656
62.39266399999984,7.90114399999999,1613
62.06866399999984,8.54914399999999,1588
60.44866399999985,5.309143999999991,1504
60.44866399999985,5.957143999999991,1471
60.77266399999985,5.957143999999991,1460
62.39266399999984,11.141143999999988,1391
62.06866399999984,10.493143999999988,1346
61.74466399999984,11.141143999999988,1319
61.420663999999846,11.141143999999988,1273
61.09666399999985,11.141143999999988,1256
60.77266399999985,11.789143999999988,1233
63.04066399999984,11.141143999999988,1472
62.71666399999984,11.141143999999988,1415
62.39266399999984,10.493143999999988,1373
67.25266399999981,15.677143999999986,2390
67.25266399999981,15.029143999999986,2428
67.25266399999981,14.381143999999988,2456
66.92866399999981,15.029143999999986,2379
66.60466399999981,15.677143999999986,2357
64.01266399999983,11.141143999999988,1628
66.60466399999981,15.029143999999986,2420
54.29266399999989,18.269143999999983,1038
54.616663999999886,17.621143999999987,1016
53.96866399999989,18.269143999999983,1163
43.92466399999995,1.4211439999999929,249
44.24866399999995,0.7731439999999932,235
44.572663999999946,0.1251439999999934,186
46.84066399999993,1.4211439999999929,162
44.572663999999946,1.4211439999999929,328
44.24866399999995,1.4211439999999929,293
45.54466399999994,1.4211439999999929,229
46.516663999999935,1.4211439999999929,207
42.30466399999996,2.717143999999992,327
44.24866399999995,2.717143999999992,363
44.572663999999946,2.717143999999992,338
43.92466399999995,2.0691439999999925,360
42.30466399999996,2.0691439999999925,1032
42.62866399999996,2.0691439999999925,496
42.62866399999996,1.4211439999999929,490
42.95266399999996,1.4211439999999929,356
43.276663999999954,1.4211439999999929,299
46.516663999999935,-1.170856000000006,205
46.19266399999994,-1.170856000000006,163
45.86866399999994,-0.5228560000000062,157
45.54466399999994,-0.5228560000000062,184
48.46066399999992,1.4211439999999929,55
41.332663999999966,2.0691439999999925,1234
41.98066399999996,2.717143999999992,1193
48.46066399999992,-1.8188560000000056,160
47.81266399999993,0.7731439999999932,73
46.84066399999993,0.7731439999999932,112
44.572663999999946,-1.170856000000006,146
43.60066399999995,-1.170856000000006,208
43.276663999999954,-1.8188560000000056,255
43.276663999999954,0.1251439999999934,352
42.95266399999996,0.1251439999999934,336
43.276663999999954,-0.5228560000000062,295
43.60066399999995,-0.5228560000000062,284
47.81266399999993,-3.7628560000000046,307
47.48866399999993,-2.4668560000000053,194
47.81266399999993,-0.5228560000000062,124
46.516663999999935,-1.8188560000000056,316
48.136663999999925,-1.170856000000006,130
47.48866399999993,-1.170856000000006,177
45.22066399999994,8.54914399999999,276
45.22066399999994,7.90114399999999,282
46.19266399999994,-0.5228560000000062,127
46.516663999999935,-0.5228560000000062,108
48.78466399999992,-3.114856000000005,241
50.72866399999991,2.0691439999999925,120
50.40466399999991,2.0691439999999925,138
40.36066399999997,-3.7628560000000046,1425
41.65666399999997,-1.170856000000006,1342
41.332663999999966,1.4211439999999929,1280
43.276663999999954,13.733143999999989,3910
42.95266399999996,13.733143999999989,3932
41.65666399999997,15.029143999999986,4016
40.68466399999997,17.621143999999987,4178
43.60066399999995,13.085143999999987,3903
41.65666399999997,12.437143999999988,2569
41.65666399999997,13.085143999999987,2588
41.98066399999996,13.085143999999987,2638
41.65666399999997,13.733143999999989,2640
41.332663999999966,13.733143999999989,2632
41.332663999999966,14.381143999999988,2789
41.00866399999997,14.381143999999988,2695
41.332663999999966,13.085143999999987,2614
41.00866399999997,15.029143999999986,2895
41.98066399999996,13.733143999999989,2837
42.30466399999996,14.381143999999988,2976
42.30466399999996,12.437143999999988,2577
42.62866399999996,12.437143999999988,2756
42.95266399999996,12.437143999999988,3041
42.30466399999996,11.789143999999988,2586
42.95266399999996,11.789143999999988,2796
42.62866399999996,11.789143999999988,2787
43.276663999999954,11.789143999999988,2850
42.95266399999996,13.085143999999987,3804
42.30466399999996,13.085143999999987,2863
43.276663999999954,13.085143999999987,3852
43.276663999999954,12.437143999999988,3859
42.62866399999996,11.141143999999988,2632
42.95266399999996,11.141143999999988,2675
42.95266399999996,10.493143999999988,2693
44.572663999999946,8.54914399999999,304
44.89666399999994,7.90114399999999,294
44.89666399999994,9.197143999999987,320
44.24866399999995,7.90114399999999,360
44.572663999999946,7.90114399999999,320
43.92466399999995,7.90114399999999,301
44.24866399999995,7.25314399999999,350
44.89666399999994,7.25314399999999,318
45.22066399999994,7.25314399999999,298
45.54466399999994,7.90114399999999,279
44.572663999999946,7.25314399999999,862
52.996663999999896,22.805143999999984,1368
52.996663999999896,23.45314399999998,1391
51.37666399999991,22.15714399999998,1213
51.37666399999991,22.805143999999984,1267
50.08066399999991,20.213143999999986,972
50.72866399999991,20.213143999999986,1012
50.40466399999991,20.213143999999986,970
50.08066399999991,20.86114399999998,992
50.08066399999991,21.50914399999997,1011
50.08066399999991,22.15714399999998,1035
50.08066399999991,22.805143999999984,1110
53.96866399999989,22.805143999999984,1827
53.64466399999989,23.45314399999998,1498
53.32066399999989,23.45314399999998,1444
50.40466399999991,19.565143999999982,955
50.08066399999991,18.917143999999983,960
50.08066399999991,18.269143999999983,909
52.0246639999999,22.805143999999984,1264
52.0246639999999,23.45314399999998,1300
51.37666399999991,19.565143999999982,1176
51.05266399999991,19.565143999999982,1020
50.72866399999991,18.917143999999983,993
50.72866399999991,19.565143999999982,1037
49.75666399999992,18.917143999999983,1102
50.40466399999991,18.269143999999983,873
53.64466399999989,19.565143999999982,1012
53.96866399999989,18.917143999999983,1082
53.64466399999989,18.917143999999983,1031
53.64466399999989,20.213143999999986,1050
52.996663999999896,18.917143999999983,965
52.996663999999896,18.269143999999983,941
53.32066399999989,18.917143999999983,970
50.72866399999991,17.621143999999987,826
50.72866399999991,18.269143999999983,860
52.6726639999999,16.325143999999987,895
52.996663999999896,16.325143999999987,898
52.996663999999896,15.677143999999986,895
53.32066399999989,15.677143999999986,777
53.32066399999989,15.029143999999986,768
53.64466399999989,15.029143999999986,801
53.96866399999989,15.029143999999986,810
52.6726639999999,18.917143999999983,975
53.32066399999989,16.325143999999987,836
52.6726639999999,15.029143999999986,780
51.05266399999991,22.805143999999984,1301
51.05266399999991,23.45314399999998,1329
50.72866399999991,22.15714399999998,1286
50.40466399999991,22.15714399999998,1325
51.05266399999991,22.15714399999998,1264
54.616663999999886,16.973143999999984,892
54.29266399999989,16.325143999999987,835
53.96866399999989,15.677143999999986,825
50.72866399999991,21.50914399999997,1296
50.40466399999991,21.50914399999997,1065
50.40466399999991,17.621143999999987,855
53.32066399999989,22.805143999999984,1583
53.64466399999989,22.15714399999998,1445
54.29266399999989,16.973143999999984,880
50.72866399999991,20.86114399999998,1050
51.700663999999904,22.805143999999984,1351
51.05266399999991,21.50914399999997,1248
50.08066399999991,19.565143999999982,974
52.0246639999999,18.917143999999983,8008
52.0246639999999,19.565143999999982,8001
53.64466399999989,18.269143999999983,1062
51.700663999999904,20.213143999999986,1286
53.32066399999989,19.565143999999982,1002
50.72866399999991,23.45314399999998,1411
50.72866399999991,22.805143999999984,1380
49.43266399999992,20.213143999999986,1285
49.75666399999992,21.50914399999997,1099
49.75666399999992,22.15714399999998,1351
49.43266399999992,22.15714399999998,1364
51.05266399999991,18.917143999999983,996
51.05266399999991,18.269143999999983,907
53.32066399999989,16.973143999999984,935
53.64466399999989,16.973143999999984,911
49.75666399999992,20.86114399999998,1044
50.40466399999991,22.805143999999984,8090
53.64466399999989,16.325143999999987,866
53.96866399999989,20.86114399999998,1302
54.29266399999989,20.86114399999998,1348
53.96866399999989,21.50914399999997,1368
53.64466399999989,15.677143999999986,817
53.96866399999989,20.213143999999986,1105
53.96866399999989,19.565143999999982,1141
54.29266399999989,19.565143999999982,1155
53.96866399999989,16.325143999999987,833
53.64466399999989,17.621143999999987,1098
53.96866399999989,22.15714399999998,1435
53.64466399999989,21.50914399999997,1400
53.64466399999989,20.86114399999998,1354
52.6726639999999,15.677143999999986,803
51.05266399999991,20.213143999999986,1222
54.940663999999884,24.101143999999977,3201
54.616663999999886,23.45314399999998,3145
54.29266399999989,23.45314399999998,3008
53.64466399999989,22.805143999999984,1585
53.96866399999989,16.973143999999984,993
50.40466399999991,20.86114399999998,1303
53.32066399999989,18.269143999999983,1071
49.75666399999992,19.565143999999982,1133
50.40466399999991,23.45314399999998,1516
49.75666399999992,20.213143999999986,1357
49.43266399999992,19.565143999999982,1245
49.43266399999992,20.86114399999998,1061
53.96866399999989,17.621143999999987,1308
42.30466399999996,-1.8188560000000056,8319
41.98066399999996,-1.8188560000000056,8302
41.65666399999997,0.7731439999999932,8306
42.62866399999996,-1.8188560000000056,8434
42.95266399999996,-1.8188560000000056,8463
42.62866399999996,-3.114856000000005,8557
42.95266399999996,-2.4668560000000053,8535
42.62866399999996,-7.650856000000003,8899
42.30466399999996,-7.650856000000003,8959
42.30466399999996,-8.946856000000002,9095
42.30466399999996,-8.298856000000002,9069
41.98066399999996,-8.298856000000002,9058
42.30466399999996,-7.002856000000003,8841
42.62866399999996,-6.354856000000003,8783
42.30466399999996,-6.354856000000003,8738
42.62866399999996,-5.706856000000004,8238
41.98066399999996,-4.410856000000004,8192
42.30466399999996,-3.7628560000000046,8583
40.03666399999997,-0.5228560000000062,8286
39.38866399999998,-0.5228560000000062,8334
41.00866399999997,0.7731439999999932,8434
40.68466399999997,0.7731439999999932,8466
40.36066399999997,0.1251439999999934,8544
39.712663999999975,-0.5228560000000062,8443
38.41666399999998,-0.5228560000000062,8455
39.06466399999998,-0.5228560000000062,8577
38.74066399999998,-1.170856000000006,8463
41.332663999999966,0.7731439999999932,8494
41.65666399999997,2.717143999999992,8094
41.65666399999997,2.0691439999999925,8117
41.332663999999966,0.1251439999999934,8452
41.332663999999966,-0.5228560000000062,8396
41.65666399999997,-4.410856000000004,8166
40.03666399999997,-2.4668560000000053,8404
41.00866399999997,-4.410856000000004,8287
43.276663999999954,-5.706856000000004,8368
39.38866399999998,-1.170856000000006,8429
38.09266399999999,-1.170856000000006,8842
38.74066399999998,-0.5228560000000062,8605
37.76866399999999,-1.170856000000006,8907
39.06466399999998,-1.8188560000000056,8427
39.38866399999998,-3.114856000000005,8327
39.38866399999998,-2.4668560000000053,8383
39.06466399999998,-2.4668560000000053,8410
39.06466399999998,-3.114856000000005,8331
39.06466399999998,-3.7628560000000046,8305
38.74066399999998,-3.7628560000000046,8384
40.03666399999997,-3.7628560000000046,8283
40.03666399999997,-3.114856000000005,8483
40.03666399999997,-1.8188560000000056,8564
39.712663999999975,-1.8188560000000056,8529
39.712663999999975,-1.170856000000006,8465
40.36066399999997,-1.170856000000006,8484
40.68466399999997,-1.170856000000006,8462
41.00866399999997,-1.170856000000006,8450
41.332663999999966,-1.170856000000006,8290
43.276663999999954,-8.298856000000002,9059
42.95266399999996,-8.298856000000002,9027
41.65666399999997,-5.706856000000004,65535
41.98066399999996,-7.002856000000003,65535
41.98066399999996,-6.354856000000003,65535
41.332663999999966,-5.058856000000004,8405
43.276663999999954,-3.7628560000000046,8840
42.95266399999996,-4.410856000000004,8774
42.62866399999996,-4.410856000000004,8764
42.30466399999996,-4.410856000000004,8723
41.00866399999997,-5.706856000000004,8343
41.332663999999966,-1.8188560000000056,8236
40.68466399999997,-3.114856000000005,8190
41.00866399999997,-3.114856000000005,8241
41.00866399999997,-2.4668560000000053,8264
41.332663999999966,-2.4668560000000053,8317
40.68466399999997,-4.410856000000004,8227
40.36066399999997,-4.410856000000004,8311
40.68466399999997,-3.7628560000000046,8219
40.36066399999997,-3.114856000000005,8197
41.65666399999997,-2.4668560000000053,8334
38.09266399999999,-3.7628560000000046,8431
38.74066399999998,-3.114856000000005,8375
37.76866399999999,-3.7628560000000046,8488
39.712663999999975,-3.114856000000005,8319
38.41666399999998,-3.7628560000000046,8396
40.03666399999997,-4.410856000000004,65535
40.03666399999997,-5.058856000000004,65535
39.38866399999998,-6.354856000000003,65535
39.38866399999998,-7.002856000000003,65535
42.95266399999996,-3.114856000000005,8968
41.98066399999996,-1.170856000000006,8331
42.30466399999996,-2.4668560000000053,8372
41.65666399999997,-0.5228560000000062,8429
41.98066399999996,-0.5228560000000062,8266
41.65666399999997,0.1251439999999934,8293
41.98066399999996,0.1251439999999934,8315
37.76866399999999,-5.058856000000004,8367
36.79666399999999,-4.410856000000004,8426
38.74066399999998,-4.410856000000004,8323
37.12066399999999,-4.410856000000004,8400
37.44466399999999,-5.058856000000004,8924
37.44466399999999,-7.002856000000003,65535
37.44466399999999,-6.354856000000003,65535
37.44466399999999,-5.706856000000004,8600
39.712663999999975,-3.7628560000000046,8393
42.62866399999996,-8.946856000000002,65535
42.30466399999996,-5.706856000000004,8745
42.30466399999996,-5.058856000000004,8830
42.95266399999996,-5.706856000000004,8270
41.00866399999997,-5.058856000000004,8311
40.68466399999997,-5.058856000000004,8285
41.65666399999997,-5.058856000000004,65535
41.65666399999997,-6.354856000000003,65535
36.79666399999999,-6.354856000000003,65535
37.12066399999999,-5.706856000000004,8768
37.76866399999999,-5.706856000000004,8567
38.09266399999999,-4.410856000000004,8702
37.12066399999999,-5.058856000000004,8722
36.79666399999999,-5.058856000000004,8680
37.76866399999999,-4.410856000000004,65535
37.76866399999999,-7.002856000000003,65535
38.41666399999998,-6.354856000000003,65535
38.09266399999999,-6.354856000000003,65535
48.78466399999992,1.4211439999999929,109
56.23666399999988,8.54914399999999,6610
55.58866399999988,9.197143999999987,6415
55.91266399999988,9.197143999999987,6556
55.26466399999988,10.493143999999988,594
55.91266399999988,12.437143999999988,729
55.58866399999988,11.789143999999988,6255
55.58866399999988,11.141143999999988,6296
55.26466399999988,11.789143999999988,6288
55.58866399999988,10.493143999999988,6411
55.58866399999988,13.085143999999987,686
56.88466399999987,9.845143999999989,6562
57.20866399999987,9.845143999999989,6597
56.56066399999988,9.845143999999989,6534
56.88466399999987,8.54914399999999,6649
54.940663999999884,9.845143999999989,7756
54.940663999999884,11.789143999999988,6512
55.91266399999988,13.085143999999987,744
56.23666399999988,13.733143999999989,788
55.91266399999988,13.733143999999989,791
56.23666399999988,14.381143999999988,811
56.23666399999988,15.029143999999986,852
56.23666399999988,15.677143999999986,907
56.56066399999988,14.381143999999988,868
56.88466399999987,14.381143999999988,838
56.23666399999988,13.085143999999987,736
56.56066399999988,13.085143999999987,816
56.88466399999987,12.437143999999988,853
57.20866399999987,12.437143999999988,869
57.53266399999987,12.437143999999988,884
56.88466399999987,15.029143999999986,864
56.56066399999988,15.677143999999986,924
56.88466399999987,15.677143999999986,943
56.88466399999987,16.325143999999987,958
55.91266399999988,11.789143999999988,6581
57.20866399999987,10.493143999999988,6784
49.43266399999992,1.4211439999999929,84
49.75666399999992,0.7731439999999932,119
49.75666399999992,2.0691439999999925,75
50.08066399999991,2.717143999999992,111
49.75666399999992,1.4211439999999929,101
47.81266399999993,1.4211439999999929,114
48.136663999999925,2.0691439999999925,95
48.46066399999992,2.0691439999999925,73
48.136663999999925,1.4211439999999929,71
48.78466399999992,0.1251439999999934,101
48.46066399999992,0.1251439999999934,95
47.81266399999993,0.1251439999999934,124
46.84066399999993,-0.5228560000000062,165
47.16466399999993,0.7731439999999932,110
46.84066399999993,0.1251439999999934,129
46.84066399999993,-1.170856000000006,178
50.08066399999991,1.4211439999999929,134
50.08066399999991,2.0691439999999925,80
49.43266399999992,2.717143999999992,40
49.75666399999992,3.365143999999992,65
50.08066399999991,3.365143999999992,103
49.10866399999992,2.0691439999999925,36
49.43266399999992,2.0691439999999925,63
48.78466399999992,0.7731439999999932,154
48.78466399999992,-0.5228560000000062,211
48.78466399999992,-1.170856000000006,178
48.136663999999925,0.7731439999999932,110
48.46066399999992,0.7731439999999932,120
43.92466399999995,5.957143999999991,244
44.24866399999995,5.957143999999991,283
43.92466399999995,5.309143999999991,212
42.95266399999996,2.717143999999992,317
45.54466399999994,2.0691439999999925,254
45.22066399999994,2.0691439999999925,856
42.95266399999996,2.0691439999999925,930
42.95266399999996,0.7731439999999932,333
43.276663999999954,0.7731439999999932,309
46.19266399999994,0.7731439999999932,147
46.516663999999935,0.7731439999999932,129
45.86866399999994,0.1251439999999934,118
46.19266399999994,0.1251439999999934,98
47.81266399999993,-1.170856000000006,171
48.136663999999925,-2.4668560000000053,178
47.48866399999993,-1.8188560000000056,174
47.16466399999993,-1.170856000000006,164
47.16466399999993,-0.5228560000000062,148
46.84066399999993,-1.8188560000000056,256
45.22066399999994,-0.5228560000000062,168
44.89666399999994,0.1251439999999934,154
45.22066399999994,0.7731439999999932,193
45.54466399999994,0.7731439999999932,281
45.86866399999994,0.7731439999999932,226
45.22066399999994,0.1251439999999934,202
44.89666399999994,0.7731439999999932,176
43.92466399999995,-0.5228560000000062,251
43.92466399999995,-1.170856000000006,226
44.24866399999995,-1.170856000000006,208
45.22066399999994,-1.170856000000006,198
44.572663999999946,-0.5228560000000062,162
44.24866399999995,0.1251439999999934,209
44.572663999999946,0.7731439999999932,900
43.276663999999954,-1.170856000000006,890
42.95266399999996,-0.5228560000000062,1092
44.24866399999995,2.0691439999999925,879
43.60066399999995,0.7731439999999932,314
43.60066399999995,2.0691439999999925,320
52.6726639999999,4.661143999999991,6601
52.6726639999999,5.309143999999991,6624
51.700663999999904,5.309143999999991,6569
52.0246639999999,5.309143999999991,6581
52.3486639999999,5.309143999999991,6597
51.37666399999991,4.013143999999992,6577
52.3486639999999,5.957143999999991,6591
52.0246639999999,6.60514399999999,6621
52.6726639999999,5.957143999999991,6608
52.996663999999896,5.957143999999991,6621
53.32066399999989,5.957143999999991,6615
52.996663999999896,6.60514399999999,6597
53.32066399999989,6.60514399999999,6589
52.6726639999999,6.60514399999999,6617
52.996663999999896,5.309143999999991,6636
59.15266399999986,24.101143999999977,65535
56.88466399999987,24.101143999999977,65535
56.88466399999987,23.45314399999998,65535
56.88466399999987,22.805143999999984,65535
57.20866399999987,24.74914399999998,65535
56.88466399999987,24.74914399999998,65535
56.56066399999988,24.74914399999998,65535
56.56066399999988,25.397143999999983,65535
56.56066399999988,24.101143999999977,65535
56.56066399999988,23.45314399999998,65535
56.56066399999988,26.04514399999998,65535
56.88466399999987,26.04514399999998,65535
57.20866399999987,25.397143999999983,65535
57.53266399999987,25.397143999999983,65535
56.23666399999988,26.04514399999998,65535
56.23666399999988,26.69314399999997,65535
55.91266399999988,26.69314399999997,65535
56.56066399999988,26.69314399999997,65535
56.56066399999988,27.34114399999998,65535
56.56066399999988,27.989143999999985,65535
56.23666399999988,27.989143999999985,65535
55.91266399999988,27.34114399999998,65535
56.56066399999988,22.805143999999984,65535
56.56066399999988,22.15714399999998,65535
56.56066399999988,21.50914399999997,65535
57.20866399999987,26.69314399999997,65535
39.06466399999998,-8.946856000000002,65535
38.41666399999998,-8.298856000000002,65535
45.86866399999994,11.789143999999988,1588
46.19266399999994,11.789143999999988,1575
46.19266399999994,10.493143999999988,1615
45.22066399999994,18.269143999999983,1452
45.22066399999994,18.917143999999983,1493
45.54466399999994,16.973143999999984,1355
45.22066399999994,17.621143999999987,1396
45.86866399999994,16.325143999999987,1316
45.54466399999994,18.917143999999983,1540
45.54466399999994,16.325143999999987,1330
45.54466399999994,18.269143999999983,1508
44.89666399999994,18.917143999999983,1690
46.19266399999994,16.973143999999984,1316
46.19266399999994,16.325143999999987,1321
45.86866399999994,16.973143999999984,1333
45.86866399999994,17.621143999999987,1428
46.19266399999994,15.677143999999986,1290
46.516663999999935,16.325143999999987,1295
45.54466399999994,15.677143999999986,1365
45.22066399999994,15.029143999999986,1401
45.54466399999994,15.029143999999986,1362
45.22066399999994,15.677143999999986,1426
44.572663999999946,15.677143999999986,1579
44.24866399999995,15.677143999999986,1600
43.92466399999995,16.325143999999987,1664
44.89666399999994,15.677143999999986,1543
45.54466399999994,17.621143999999987,1407
45.22066399999994,16.325143999999987,1385
46.516663999999935,16.973143999999984,1308
45.86866399999994,18.269143999999983,1600
43.92466399999995,15.677143999999986,1766
45.22066399999994,13.733143999999989,1410
47.48866399999993,19.565143999999982,1132
47.16466399999993,18.917143999999983,1118
47.81266399999993,18.917143999999983,1066
45.54466399999994,9.845143999999989,259
45.22066399999994,9.845143999999989,268
45.22066399999994,10.493143999999988,858
45.86866399999994,9.845143999999989,279
45.86866399999994,10.493143999999988,2358
48.78466399999992,21.50914399999997,1276
49.10866399999992,20.213143999999986,1171
49.10866399999992,18.917143999999983,1089
48.46066399999992,17.621143999999987,1007
49.43266399999992,17.621143999999987,973
49.10866399999992,17.621143999999987,1132
48.136663999999925,18.269143999999983,1098
49.10866399999992,18.269143999999983,1047
49.43266399999992,18.269143999999983,1004
49.43266399999992,16.973143999999984,950
49.75666399999992,16.973143999999984,921
49.75666399999992,16.325143999999987,899
50.08066399999991,15.677143999999986,793
50.08066399999991,15.029143999999986,784
49.43266399999992,18.917143999999983,1075
47.81266399999993,20.86114399999998,1195
48.136663999999925,20.86114399999998,1226
48.46066399999992,20.86114399999998,1268
48.46066399999992,21.50914399999997,1272
49.10866399999992,19.565143999999982,1182
48.136663999999925,17.621143999999987,986
48.78466399999992,22.15714399999998,1375
48.78466399999992,20.86114399999998,1407
49.10866399999992,20.86114399999998,1262
48.78466399999992,18.269143999999983,1090
48.78466399999992,17.621143999999987,1109
49.10866399999992,21.50914399999997,1289
48.78466399999992,20.213143999999986,1415
48.46066399999992,20.213143999999986,1456
48.136663999999925,19.565143999999982,1605
48.46066399999992,19.565143999999982,1484
48.46066399999992,18.917143999999983,1226
48.46066399999992,18.269143999999983,1050
48.78466399999992,19.565143999999982,1250
48.78466399999992,18.917143999999983,1168
47.81266399999993,18.269143999999983,1030
49.10866399999992,22.15714399999998,1416
49.43266399999992,21.50914399999997,1414
48.136663999999925,18.917143999999983,1306
48.136663999999925,20.213143999999986,1625
52.636,-8.018,65535
52.312,-7.370000000000001,65535
52.312,-8.018,65535
52.636,-8.666,65535
51.988,-8.666,65535
51.988,-8.018,65535
52.96,-8.666,65535
52.96,-6.074000000000002,65535
53.28399999999999,-6.722000000000001,65535
53.60799999999999,-6.722000000000001,65535
53.60799999999999,-7.370000000000001,65535
53.60799999999999,-8.018,65535
54.25599999999999,-8.666,65535
53.93199999999999,-8.666,65535
53.93199999999999,-8.018,65535
52.312,-6.722000000000001,65535
52.636,-6.722000000000001,65535
53.93199999999999,-6.722000000000001,65535
54.25599999999999,-6.074000000000002,65535
53.28399999999999,-7.370000000000001,65535
52.96,-7.370000000000001,65535
52.312,-8.666,65535
52.96,-8.018,65535
52.636,-7.370000000000001,65535
52.96,-6.722000000000001,65535
51.988,-9.314,65535
52.312,-9.314,65535
54.579999999999984,-6.722000000000001,65535
54.579999999999984,-6.074000000000002,65535
53.28399999999999,-8.018,65535
53.28399999999999,-8.666,65535
53.28399999999999,-9.314,65535
53.93199999999999,-9.314,65535
54.25599999999999,-9.314,65535
53.60799999999999,-8.666,65535
53.60799999999999,-9.314,65535
49.43266399999992,14.381143999999988,886
49.75666399999992,14.381143999999988,800
49.75666399999992,15.029143999999986,796
49.75666399999992,13.733143999999989,805
50.08066399999991,13.733143999999989,801
49.75666399999992,15.677143999999986,837
50.40466399999991,15.029143999999986,762
49.43266399999992,13.733143999999989,814
50.40466399999991,15.677143999999986,782
50.40466399999991,13.733143999999989,831
46.19266399999994,15.029143999999986,1273
45.86866399999994,15.029143999999986,1318
45.86866399999994,14.381143999999988,1295
46.19266399999994,13.733143999999989,1382
45.86866399999994,13.733143999999989,1468
58.50466399999986,13.733143999999989,962
58.180663999999865,13.733143999999989,966
58.180663999999865,13.085143999999987,938
57.85666399999987,12.437143999999988,904
60.44866399999985,15.677143999999986,1187
60.124663999999854,15.677143999999986,1121
60.124663999999854,16.325143999999987,1159
59.800663999999855,16.325143999999987,1087
59.800663999999855,17.621143999999987,1066
59.47666399999986,18.269143999999983,1048
61.74466399999984,16.973143999999984,1198
61.420663999999846,16.973143999999984,1171
60.77266399999985,16.973143999999984,1123
65.63266399999982,22.15714399999998,2302
65.95666399999982,21.50914399999997,2262
65.63266399999982,20.86114399999998,2233
64.98466399999982,20.213143999999986,2165
64.66066399999983,20.213143999999986,2143
64.33666399999983,19.565143999999982,1837
64.01266399999983,19.565143999999982,1550
63.68866399999983,20.213143999999986,1503
64.66066399999983,18.917143999999983,2514
59.15266399999986,16.325143999999987,1023
59.15266399999986,15.029143999999986,1015
59.15266399999986,17.621143999999987,1040
57.53266399999987,14.381143999999988,864
57.53266399999987,15.029143999999986,884
61.09666399999985,14.381143999999988,1291
60.77266399999985,15.029143999999986,1242
60.44866399999985,15.029143999999986,1228
58.180663999999865,15.029143999999986,941
58.50466399999986,16.325143999999987,975
58.50466399999986,15.677143999999986,948
63.36466399999984,13.085143999999987,1535
63.04066399999984,14.381143999999988,1472
62.39266399999984,15.677143999999986,1394
63.36466399999984,13.733143999999989,1517
63.36466399999984,14.381143999999988,1489
62.71666399999984,15.677143999999986,1422
62.39266399999984,17.621143999999987,1256
59.800663999999855,15.677143999999986,1533
55.58866399999988,13.733143999999989,818
57.20866399999987,14.381143999999988,848
57.85666399999987,14.381143999999988,896
58.82866399999986,16.973143999999984,1032
58.82866399999986,16.325143999999987,1010
59.15266399999986,18.269143999999983,1044
60.44866399999985,17.621143999999987,1099
59.15266399999986,12.437143999999988,1003
59.15266399999986,13.085143999999987,1017
58.82866399999986,12.437143999999988,979
59.47666399999986,16.325143999999987,1049
58.82866399999986,14.381143999999988,1056
59.47666399999986,15.677143999999986,1038
63.36466399999984,18.917143999999983,1456
63.04066399999984,17.621143999999987,1411
62.71666399999984,17.621143999999987,1385
63.68866399999983,19.565143999999982,1489
62.39266399999984,16.973143999999984,1300
59.800663999999855,16.973143999999984,1075
59.47666399999986,17.621143999999987,1052
57.85666399999987,13.085143999999987,928
57.53266399999987,13.085143999999987,909
58.50466399999986,11.789143999999988,950
57.85666399999987,15.029143999999986,930
57.20866399999987,13.733143999999989,854
57.53266399999987,13.733143999999989,915
61.74466399999984,16.325143999999987,1294
61.420663999999846,16.325143999999987,1261
61.09666399999985,16.325143999999987,1250
61.09666399999985,16.973143999999984,1218
60.124663999999854,15.029143999999986,1396
66.60466399999981,20.86114399999998,2337
67.25266399999981,20.86114399999998,2405
67.90066399999981,20.213143999999986,2475
67.57666399999981,20.213143999999986,3100
59.800663999999855,15.029143999999986,1116
58.50466399999986,15.029143999999986,958
59.47666399999986,15.029143999999986,1101
60.44866399999985,16.325143999999987,1187
59.15266399999986,15.677143999999986,1045
57.85666399999987,13.733143999999989,956
58.82866399999986,13.733143999999989,1003
58.50466399999986,13.085143999999987,988
57.20866399999987,13.085143999999987,885
56.88466399999987,13.085143999999987,859
58.180663999999865,11.789143999999988,921
62.06866399999984,16.973143999999984,1289
65.95666399999982,23.45314399999998,2343
59.800663999999855,14.381143999999988,5411
59.800663999999855,18.269143999999983,1057
63.04066399999984,15.029143999999986,1440
62.71666399999984,15.029143999999986,1430
62.39266399999984,16.325143999999987,1363
63.36466399999984,12.437143999999988,1568
68.5486639999998,17.621143999999987,2688
68.5486639999998,18.269143999999983,2621
68.5486639999998,18.917143999999983,2598
68.2246639999998,18.917143999999983,2554
59.800663999999855,13.085143999999987,1120
60.124663999999854,13.085143999999987,1159
59.47666399999986,16.973143999999984,1061
59.15266399999986,16.973143999999984,1053
56.56066399999988,13.733143999999989,806
60.124663999999854,17.621143999999987,1076
57.85666399999987,16.325143999999987,1035
58.180663999999865,16.325143999999987,997
58.180663999999865,15.677143999999986,1005
57.20866399999987,16.325143999999987,1047
57.53266399999987,15.677143999999986,1065
57.85666399999987,15.677143999999986,1036
44.89666399999994,23.45314399999998,2485
44.572663999999946,23.45314399999998,2555
44.89666399999994,24.74914399999998,2472
44.572663999999946,24.74914399999998,2591
44.572663999999946,24.101143999999977,2532
44.24866399999995,24.101143999999977,2561
47.48866399999993,25.397143999999983,2333
47.48866399999993,24.74914399999998,2273
47.16466399999993,24.74914399999998,2195
47.16466399999993,24.101143999999977,2097
47.48866399999993,22.15714399999998,2227
47.81266399999993,22.15714399999998,2313
47.16466399999993,22.15714399999998,2206
47.16466399999993,23.45314399999998,2258
47.16466399999993,22.805143999999984,2264
46.84066399999993,24.101143999999977,2178
45.86866399999994,27.34114399999998,2518
45.54466399999994,27.34114399999998,2499
45.54466399999994,27.989143999999985,2615
45.86866399999994,20.86114399999998,2390
45.86866399999994,21.50914399999997,2398
46.19266399999994,21.50914399999997,2334
46.19266399999994,27.34114399999998,2518
46.19266399999994,26.69314399999997,2509
46.516663999999935,26.69314399999997,2471
46.516663999999935,26.04514399999998,2367
47.48866399999993,22.805143999999984,2325
46.84066399999993,22.805143999999984,2138
45.54466399999994,22.15714399999998,2447
45.22066399999994,22.15714399999998,2525
44.89666399999994,22.15714399999998,2943
47.48866399999993,23.45314399999998,2291
46.516663999999935,24.101143999999977,2017
46.516663999999935,24.74914399999998,2231
45.86866399999994,24.101143999999977,2180
47.16466399999993,26.69314399999997,2549
47.16466399999993,27.34114399999998,2604
43.92466399999995,25.397143999999983,2563
44.24866399999995,24.74914399999998,2470
44.89666399999994,26.04514399999998,2357
44.89666399999994,26.69314399999997,2404
45.22066399999994,26.69314399999997,2439
45.22066399999994,27.34114399999998,2466
46.84066399999993,26.69314399999997,2510
47.48866399999993,26.69314399999997,2503
44.24866399999995,25.397143999999983,2402
43.92466399999995,26.04514399999998,2579
46.19266399999994,24.101143999999977,2225
44.572663999999946,25.397143999999983,2440
46.84066399999993,24.74914399999998,2238
46.516663999999935,21.50914399999997,2338
46.84066399999993,21.50914399999997,2345
44.572663999999946,26.69314399999997,2395
44.572663999999946,27.34114399999998,2416
44.89666399999994,27.34114399999998,2531
44.572663999999946,27.989143999999985,2436
44.24866399999995,27.989143999999985,2450
44.572663999999946,28.63714399999997,2501
45.86866399999994,22.15714399999998,2259
45.86866399999994,22.805143999999984,2153
44.24866399999995,23.45314399999998,2588
43.92466399999995,27.989143999999985,65535
46.84066399999993,27.34114399999998,2671
45.22066399999994,23.45314399999998,2460
45.54466399999994,23.45314399999998,2263
45.54466399999994,24.101143999999977,2210
45.22066399999994,24.101143999999977,2434
44.89666399999994,24.101143999999977,2504
46.19266399999994,22.15714399999998,2390
46.516663999999935,22.15714399999998,2356
45.22066399999994,21.50914399999997,2630
45.54466399999994,21.50914399999997,2478
45.54466399999994,20.86114399999998,2502
46.516663999999935,27.989143999999985,2621
46.19266399999994,27.989143999999985,2606
45.54466399999994,25.397143999999983,2324
45.22066399999994,25.397143999999983,2334
45.22066399999994,26.04514399999998,2390
47.81266399999993,24.101143999999977,2386
47.48866399999993,26.04514399999998,2476
47.81266399999993,26.04514399999998,2498
46.19266399999994,23.45314399999998,2057
45.86866399999994,23.45314399999998,2106
44.24866399999995,26.04514399999998,2384
45.22066399999994,27.989143999999985,2596
45.86866399999994,24.74914399999998,2219
46.516663999999935,25.397143999999983,2411
46.84066399999993,25.397143999999983,2294
46.19266399999994,26.04514399999998,2382
45.86866399999994,26.04514399999998,2347
43.92466399999995,23.45314399999998,2818
44.89666399999994,25.397143999999983,2445
46.19266399999994,20.86114399999998,2379
47.81266399999993,25.397143999999983,2510
44.572663999999946,22.805143999999984,2823
44.572663999999946,22.15714399999998,2965
46.516663999999935,23.45314399999998,2196
45.86866399999994,25.397143999999983,2273
44.24866399999995,27.34114399999998,3211
45.22066399999994,24.74914399999998,2536
45.54466399999994,22.805143999999984,2226
45.22066399999994,28.63714399999997,2656
44.89666399999994,28.63714399999997,2595
47.81266399999993,23.45314399999998,2443
46.19266399999994,24.74914399999998,2305
46.19266399999994,25.397143999999983,2329
43.92466399999995,24.101143999999977,2781
43.92466399999995,24.74914399999998,2794
47.81266399999993,26.69314399999997,2725
47.48866399999993,24.101143999999977,2318
46.84066399999993,26.04514399999998,3126
46.19266399999994,22.805143999999984,2450
47.48866399999993,27.34114399999998,2678
46.19266399999994,20.213143999999986,65535
45.54466399999994,26.04514399999998,2482
44.24866399999995,26.69314399999997,2400
45.86866399999994,27.989143999999985,2654
47.81266399999993,5.957143999999991,6586
