51.56399999999999,-0.4100000000000028,65535
51.887999999999984,-0.4100000000000028,65535
50.91599999999999,-1.7060000000000022,65535
51.23999999999999,-1.0580000000000025,65535
51.56399999999999,-1.0580000000000025,65535
51.23999999999999,-1.7060000000000022,65535
51.56399999999999,0.2379999999999968,65535
47.16466399999993,9.845143999999989,643
47.48866399999993,9.845143999999989,656
48.136663999999925,14.381143999999988,1261
47.81266399999993,13.085143999999987,849
47.16466399999993,11.141143999999988,978
47.48866399999993,11.789143999999988,917
48.136663999999925,16.325143999999987,1413
47.48866399999993,12.437143999999988,838
48.136663999999925,15.677143999999986,1386
47.16466399999993,10.493143999999988,918
47.16466399999993,9.197143999999987,631
48.136663999999925,13.733143999999989,976
48.136663999999925,15.029143999999986,1303
47.81266399999993,16.973143999999984,1435
48.46066399999992,14.381143999999988,1384
47.48866399999993,13.085143999999987,840
47.16466399999993,13.085143999999987,879
47.48866399999993,14.381143999999988,1354
47.48866399999993,13.733143999999989,1404
47.48866399999993,15.029143999999986,1425
46.516663999999935,13.733143999999989,1667
46.84066399999993,13.733143999999989,1636
46.84066399999993,13.085143999999987,1621
48.78466399999992,14.381143999999988,65535
47.16466399999993,15.677143999999986,1500
46.516663999999935,14.381143999999988,1674
46.84066399999993,14.381143999999988,1615
47.16466399999993,14.381143999999988,1565
46.516663999999935,15.029143999999986,1687
47.81266399999993,16.325143999999987,1432
47.16466399999993,15.029143999999986,1540
47.81266399999993,15.677143999999986,1438
47.48866399999993,15.677143999999986,1477
46.516663999999935,13.085143999999987,1934
46.84066399999993,12.437143999999988,1679
48.136663999999925,11.789143999999988,768
47.81266399999993,12.437143999999988,797
46.84066399999993,15.677143999999986,1561
46.516663999999935,15.677143999999986,1780
46.84066399999993,16.325143999999987,1545
47.81266399999993,14.381143999999988,1315
48.78466399999992,16.973143999999984,1492
48.136663999999925,16.973143999999984,1426
48.46066399999992,13.733143999999989,877
47.81266399999993,13.733143999999989,1331
50.08066399999991,8.54914399999999,734
48.46066399999992,9.845143999999989,731
51.05266399999991,7.25314399999999,713
51.37666399999991,7.25314399999999,722
51.37666399999991,6.60514399999999,718
48.46066399999992,16.325143999999987,1409
48.46066399999992,16.973143999999984,1449
48.78466399999992,16.325143999999987,1434
48.46066399999992,15.677143999999986,1420
48.78466399999992,15.677143999999986,1427
47.48866399999993,16.325143999999987,1442
47.16466399999993,16.325143999999987,1494
46.19266399999994,14.381143999999988,1732
45.86866399999994,15.677143999999986,1784
43.60066399999995,16.325143999999987,2200
45.54466399999994,14.381143999999988,1846
45.54466399999994,13.733143999999989,1869
48.136663999999925,13.085143999999987,846
48.46066399999992,11.141143999999988,779
48.136663999999925,11.141143999999988,763
48.46066399999992,7.90114399999999,672
49.10866399999992,8.54914399999999,706
48.78466399999992,2.0691439999999925,537
49.10866399999992,7.25314399999999,657
52.0246639999999,7.90114399999999,735
47.16466399999993,11.789143999999988,961
49.43266399999992,11.141143999999988,765
53.64466399999989,9.845143999999989,885
50.72866399999991,4.013143999999992,626
51.05266399999991,11.141143999999988,903
47.48866399999993,11.141143999999988,788
46.84066399999993,11.789143999999988,2102
46.516663999999935,11.141143999999988,2071
45.54466399999994,11.141143999999988,1965
46.19266399999994,11.141143999999988,2037
45.86866399999994,11.141143999999988,2021
44.572663999999946,11.141143999999988,1812
43.92466399999995,12.437143999999988,4445
45.54466399999994,12.437143999999988,2052
45.54466399999994,11.789143999999988,2015
48.78466399999992,15.029143999999986,1452
47.81266399999993,15.029143999999986,1335
47.81266399999993,11.141143999999988,769
50.40466399999991,18.917143999999983,1388
52.3486639999999,20.86114399999998,1543
54.616663999999886,18.269143999999983,1664
54.29266399999989,18.917143999999983,1673
49.10866399999992,14.381143999999988,65535
50.08066399999991,14.381143999999988,1267
48.78466399999992,13.733143999999989,2216
52.6726639999999,13.085143999999987,990
52.3486639999999,13.085143999999987,988
53.96866399999989,12.437143999999988,1023
54.29266399999989,12.437143999999988,1252
47.48866399999993,8.54914399999999,626
47.81266399999993,17.621143999999987,1472
47.48866399999993,18.917143999999983,1580
47.48866399999993,20.86114399999998,1916
46.84066399999993,23.45314399999998,2398
44.572663999999946,26.04514399999998,2847
47.48866399999993,21.50914399999997,1952
47.81266399999993,21.50914399999997,2348
48.46066399999992,22.15714399999998,1777
47.48866399999993,16.973143999999984,65535
49.10866399999992,16.325143999999987,1447
49.75666399999992,18.269143999999983,1544
46.19266399999994,13.085143999999987,2783
41.98066399999996,12.437143999999988,3045
43.60066399999995,10.493143999999988,3206
45.54466399999994,9.197143999999987,636
47.81266399999993,22.805143999999984,2813
49.75666399999992,22.805143999999984,1616
50.72866399999991,3.365143999999992,618
51.05266399999991,4.013143999999992,631
50.72866399999991,4.661143999999991,632
51.05266399999991,4.661143999999991,636
51.05266399999991,3.365143999999992,631
51.05266399999991,2.717143999999992,640
50.40466399999991,4.661143999999991,633
50.72866399999991,2.717143999999992,626
50.40466399999991,4.013143999999992,646
51.05266399999991,5.309143999999991,639
50.72866399999991,5.309143999999991,651
51.37666399999991,3.365143999999992,637
51.37666399999991,4.661143999999991,641
50.72866399999991,5.957143999999991,668
50.40466399999991,5.957143999999991,672
50.40466399999991,3.365143999999992,630
50.40466399999991,5.309143999999991,639
50.08066399999991,5.309143999999991,671
49.75666399999992,5.309143999999991,681
49.75666399999992,5.957143999999991,675
51.37666399999991,5.309143999999991,656
51.700663999999904,4.661143999999991,678
50.08066399999991,4.013143999999992,664
50.08066399999991,5.957143999999991,681
50.08066399999991,4.661143999999991,655
49.43266399999992,5.309143999999991,675
49.43266399999992,5.957143999999991,663
52.0246639999999,4.661143999999991,710
52.3486639999999,4.661143999999991,739
50.72866399999991,15.029143999999986,966
51.05266399999991,15.029143999999986,940
51.05266399999991,13.733143999999989,915
50.40466399999991,13.085143999999987,958
49.10866399999992,7.90114399999999,701
48.78466399999992,7.90114399999999,688
50.40466399999991,7.90114399999999,737
50.08066399999991,7.90114399999999,712
49.75666399999992,7.90114399999999,708
49.43266399999992,7.90114399999999,695
49.75666399999992,8.54914399999999,723
49.43266399999992,8.54914399999999,715
49.43266399999992,9.197143999999987,734
49.10866399999992,9.197143999999987,714
47.48866399999993,7.90114399999999,620
47.81266399999993,7.90114399999999,650
48.136663999999925,7.90114399999999,669
48.136663999999925,9.845143999999989,707
47.81266399999993,9.197143999999987,644
47.81266399999993,8.54914399999999,642
47.81266399999993,9.845143999999989,676
54.940663999999884,9.197143999999987,1032
54.616663999999886,9.197143999999987,969
54.29266399999989,9.197143999999987,975
53.96866399999989,9.197143999999987,910
53.64466399999989,9.197143999999987,896
54.616663999999886,9.845143999999989,960
54.29266399999989,9.845143999999989,946
53.96866399999989,9.845143999999989,898
53.64466399999989,10.493143999999988,892
53.96866399999989,10.493143999999988,946
53.96866399999989,11.141143999999988,1343
54.29266399999989,10.493143999999988,970
53.32066399999989,10.493143999999988,902
54.940663999999884,11.141143999999988,1015
52.6726639999999,13.733143999999989,991
52.3486639999999,13.733143999999989,991
52.3486639999999,14.381143999999988,998
52.0246639999999,14.381143999999988,1210
52.0246639999999,11.789143999999988,918
52.3486639999999,11.789143999999988,912
52.3486639999999,12.437143999999988,959
52.0246639999999,15.029143999999986,1221
51.700663999999904,14.381143999999988,1093
52.0246639999999,13.733143999999989,1028
51.700663999999904,13.733143999999989,1084
52.6726639999999,12.437143999999988,1249
53.32066399999989,11.789143999999988,1258
53.96866399999989,11.789143999999988,1014
53.64466399999989,11.789143999999988,976
53.64466399999989,11.141143999999988,972
53.32066399999989,11.141143999999988,946
52.996663999999896,11.789143999999988,1239
52.996663999999896,12.437143999999988,1284
52.996663999999896,13.733143999999989,1203
53.64466399999989,13.733143999999989,1297
53.96866399999989,13.733143999999989,1370
54.29266399999989,13.085143999999987,1357
53.96866399999989,13.085143999999987,1379
53.32066399999989,13.733143999999989,1233
52.0246639999999,13.085143999999987,1049
51.700663999999904,13.085143999999987,880
52.996663999999896,14.381143999999988,1260
52.0246639999999,12.437143999999988,904
51.700663999999904,12.437143999999988,883
51.37666399999991,11.789143999999988,874
51.37666399999991,12.437143999999988,854
52.6726639999999,11.789143999999988,950
53.64466399999989,13.085143999999987,1319
53.32066399999989,13.085143999999987,1305
52.996663999999896,13.085143999999987,1246
53.64466399999989,12.437143999999988,1302
51.37666399999991,13.733143999999989,900
53.32066399999989,12.437143999999988,1312
52.6726639999999,14.381143999999988,1310
51.37666399999991,13.085143999999987,863
53.32066399999989,14.381143999999988,1276
52.3486639999999,15.029143999999986,1376
52.0246639999999,15.677143999999986,1272
51.700663999999904,15.029143999999986,1303
51.05266399999991,16.325143999999987,1257
51.05266399999991,16.973143999999984,1284
51.700663999999904,15.677143999999986,1301
51.37666399999991,15.677143999999986,1215
51.37666399999991,16.325143999999987,1247
50.72866399999991,13.085143999999987,851
50.72866399999991,12.437143999999988,840
51.05266399999991,13.085143999999987,867
51.05266399999991,14.381143999999988,932
50.40466399999991,12.437143999999988,835
50.40466399999991,11.789143999999988,832
50.08066399999991,12.437143999999988,801
50.72866399999991,11.789143999999988,889
51.05266399999991,12.437143999999988,847
50.72866399999991,14.381143999999988,956
51.37666399999991,14.381143999999988,914
50.72866399999991,13.733143999999989,1294
50.40466399999991,14.381143999999988,1239
51.37666399999991,15.029143999999986,946
55.26466399999988,9.197143999999987,2268
55.58866399999988,8.54914399999999,3562
55.91266399999988,8.54914399999999,7039
56.23666399999988,9.197143999999987,7047
56.23666399999988,10.493143999999988,7000
56.23666399999988,9.845143999999989,6987
55.91266399999988,9.845143999999989,6925
56.56066399999988,9.197143999999987,7057
56.56066399999988,8.54914399999999,7100
51.05266399999991,6.60514399999999,715
51.700663999999904,7.90114399999999,728
50.72866399999991,6.60514399999999,696
51.700663999999904,7.25314399999999,725
50.72866399999991,7.25314399999999,716
52.0246639999999,7.25314399999999,752
52.3486639999999,7.90114399999999,747
51.05266399999991,5.957143999999991,701
50.40466399999991,7.25314399999999,739
51.700663999999904,6.60514399999999,727
51.700663999999904,5.957143999999991,728
52.3486639999999,9.197143999999987,789
51.700663999999904,8.54914399999999,762
52.0246639999999,8.54914399999999,768
52.3486639999999,8.54914399999999,766
51.37666399999991,7.90114399999999,733
52.3486639999999,7.25314399999999,813
51.37666399999991,5.957143999999991,761
50.72866399999991,7.90114399999999,721
51.37666399999991,9.197143999999987,794
51.700663999999904,9.197143999999987,793
50.40466399999991,6.60514399999999,706
51.05266399999991,7.90114399999999,734
51.37666399999991,8.54914399999999,761
52.0246639999999,5.957143999999991,771
52.3486639999999,6.60514399999999,836
51.05266399999991,8.54914399999999,797
52.0246639999999,9.197143999999987,789
52.6726639999999,9.197143999999987,810
52.0246639999999,9.845143999999989,817
51.700663999999904,9.845143999999989,856
51.37666399999991,9.845143999999989,833
50.72866399999991,8.54914399999999,762
51.05266399999991,9.845143999999989,832
50.72866399999991,9.845143999999989,790
50.40466399999991,9.845143999999989,775
51.05266399999991,9.197143999999987,800
50.40466399999991,9.197143999999987,753
50.08066399999991,9.197143999999987,743
51.05266399999991,10.493143999999988,928
50.40466399999991,8.54914399999999,740
50.72866399999991,9.197143999999987,799
49.75666399999992,9.197143999999987,729
52.996663999999896,9.197143999999987,817
52.3486639999999,9.845143999999989,797
52.996663999999896,8.54914399999999,806
52.996663999999896,7.90114399999999,835
53.32066399999989,7.90114399999999,886
53.32066399999989,7.25314399999999,915
53.64466399999989,7.25314399999999,1498
52.996663999999896,10.493143999999988,863
52.6726639999999,10.493143999999988,857
52.6726639999999,9.845143999999989,810
53.32066399999989,9.845143999999989,875
53.32066399999989,9.197143999999987,871
53.64466399999989,8.54914399999999,853
53.32066399999989,8.54914399999999,817
52.6726639999999,8.54914399999999,783
52.0246639999999,10.493143999999988,872
52.0246639999999,11.141143999999988,889
51.700663999999904,11.141143999999988,914
52.6726639999999,7.25314399999999,912
52.996663999999896,7.25314399999999,940
52.6726639999999,7.90114399999999,821
53.64466399999989,7.90114399999999,911
52.996663999999896,11.141143999999988,1271
52.6726639999999,11.141143999999988,955
52.3486639999999,10.493143999999988,818
52.996663999999896,9.845143999999989,876
51.700663999999904,10.493143999999988,876
51.37666399999991,10.493143999999988,907
51.700663999999904,11.789143999999988,908
52.3486639999999,11.141143999999988,872
51.37666399999991,11.141143999999988,895
51.05266399999991,11.789143999999988,883
49.10866399999992,11.141143999999988,775
48.78466399999992,11.141143999999988,784
48.46066399999992,11.789143999999988,772
49.43266399999992,11.789143999999988,768
50.08066399999991,11.789143999999988,791
49.75666399999992,12.437143999999988,797
49.10866399999992,11.789143999999988,798
48.78466399999992,12.437143999999988,806
48.46066399999992,12.437143999999988,792
49.10866399999992,12.437143999999988,807
48.78466399999992,13.085143999999987,831
48.136663999999925,12.437143999999988,797
47.81266399999993,11.789143999999988,777
48.136663999999925,10.493143999999988,750
47.81266399999993,10.493143999999988,728
48.78466399999992,10.493143999999988,751
47.48866399999993,10.493143999999988,723
48.46066399999992,10.493143999999988,745
49.43266399999992,13.085143999999987,836
48.46066399999992,13.085143999999987,794
49.43266399999992,10.493143999999988,761
49.75666399999992,9.845143999999989,760
49.75666399999992,10.493143999999988,787
50.40466399999991,11.141143999999988,839
50.08066399999991,11.141143999999988,818
50.72866399999991,11.141143999999988,909
49.75666399999992,11.141143999999988,770
48.78466399999992,11.789143999999988,811
50.40466399999991,10.493143999999988,823
50.08066399999991,9.845143999999989,755
50.08066399999991,10.493143999999988,832
49.43266399999992,12.437143999999988,800
49.75666399999992,11.789143999999988,772
49.10866399999992,13.085143999999987,832
50.72866399999991,10.493143999999988,1200
49.10866399999992,10.493143999999988,747
48.78466399999992,9.845143999999989,714
48.46066399999992,8.54914399999999,694
48.46066399999992,9.197143999999987,709
48.78466399999992,9.197143999999987,710
48.78466399999992,8.54914399999999,699
50.08066399999991,7.25314399999999,766
49.75666399999992,6.60514399999999,752
49.43266399999992,6.60514399999999,706
49.10866399999992,6.60514399999999,675
49.43266399999992,7.25314399999999,676
49.75666399999992,7.25314399999999,711
49.10866399999992,5.957143999999991,648
48.78466399999992,7.25314399999999,671
50.08066399999991,6.60514399999999,760
47.48866399999993,9.197143999999987,628
48.136663999999925,8.54914399999999,658
48.136663999999925,9.197143999999987,689
47.81266399999993,7.25314399999999,626
49.43266399999992,9.845143999999989,764
49.10866399999992,9.845143999999989,725
53.64466399999989,14.381143999999988,1293
50.08066399999991,13.085143999999987,1394
49.75666399999992,13.085143999999987,1355
45.86866399999994,9.197143999999987,657
46.19266399999994,9.197143999999987,654
46.516663999999935,8.54914399999999,650
46.516663999999935,9.197143999999987,677
46.19266399999994,8.54914399999999,641
47.16466399999993,8.54914399999999,623
45.86866399999994,4.661143999999991,465
46.84066399999993,9.845143999999989,642
45.22066399999994,5.957143999999991,531
45.22066399999994,5.309143999999991,521
45.86866399999994,5.957143999999991,539
45.54466399999994,5.957143999999991,524
44.89666399999994,4.661143999999991,490
44.89666399999994,5.309143999999991,508
44.572663999999946,4.661143999999991,476
44.24866399999995,4.661143999999991,443
43.92466399999995,4.661143999999991,422
46.19266399999994,7.25314399999999,578
48.78466399999992,5.957143999999991,644
48.136663999999925,6.60514399999999,690
48.46066399999992,6.60514399999999,673
48.78466399999992,6.60514399999999,659
47.16466399999993,7.90114399999999,610
48.136663999999925,7.25314399999999,663
48.46066399999992,7.25314399999999,675
46.516663999999935,6.60514399999999,569
46.84066399999993,6.60514399999999,581
46.84066399999993,7.25314399999999,586
46.516663999999935,5.957143999999991,583
46.19266399999994,5.957143999999991,547
46.84066399999993,8.54914399999999,612
46.84066399999993,7.90114399999999,599
45.86866399999994,5.309143999999991,511
46.19266399999994,6.60514399999999,559
45.86866399999994,6.60514399999999,583
47.48866399999993,6.60514399999999,601
47.48866399999993,7.25314399999999,611
47.16466399999993,7.25314399999999,603
49.10866399999992,4.013143999999992,599
49.75666399999992,4.661143999999991,643
49.43266399999992,4.661143999999991,623
49.10866399999992,5.309143999999991,670
46.19266399999994,4.661143999999991,515
46.84066399999993,9.197143999999987,650
46.19266399999994,5.309143999999991,534
46.516663999999935,5.309143999999991,575
45.54466399999994,6.60514399999999,547
45.54466399999994,5.309143999999991,484
43.60066399999995,4.013143999999992,413
43.60066399999995,3.365143999999992,394
42.62866399999996,2.717143999999992,445
43.276663999999954,2.717143999999992,409
45.54466399999994,4.661143999999991,490
45.22066399999994,4.661143999999991,534
47.16466399999993,5.309143999999991,561
47.16466399999993,5.957143999999991,592
46.19266399999994,7.90114399999999,596
49.75666399999992,2.717143999999992,595
49.10866399999992,2.717143999999992,568
48.78466399999992,2.717143999999992,587
45.86866399999994,3.365143999999992,288
46.84066399999993,3.365143999999992,417
46.516663999999935,3.365143999999992,340
46.19266399999994,3.365143999999992,312
47.16466399999993,6.60514399999999,608
49.10866399999992,3.365143999999992,617
45.54466399999994,4.013143999999992,517
46.516663999999935,7.25314399999999,583
47.16466399999993,4.661143999999991,537
46.84066399999993,4.661143999999991,521
46.516663999999935,4.661143999999991,517
46.84066399999993,5.957143999999991,606
47.81266399999993,3.365143999999992,649
47.48866399999993,4.013143999999992,610
48.136663999999925,4.013143999999992,644
47.81266399999993,4.013143999999992,620
47.48866399999993,4.661143999999991,601
47.16466399999993,3.365143999999992,452
46.84066399999993,4.013143999999992,498
48.46066399999992,5.957143999999991,666
46.19266399999994,2.717143999999992,359
47.16466399999993,2.0691439999999925,498
46.516663999999935,2.717143999999992,575
46.84066399999993,2.717143999999992,526
46.84066399999993,2.0691439999999925,552
47.16466399999993,2.717143999999992,468
44.572663999999946,5.309143999999991,553
44.572663999999946,5.957143999999991,584
44.89666399999994,6.60514399999999,627
44.572663999999946,6.60514399999999,746
43.60066399999995,5.309143999999991,450
43.92466399999995,7.25314399999999,567
43.60066399999995,6.60514399999999,560
43.276663999999954,6.60514399999999,539
43.276663999999954,5.957143999999991,466
45.86866399999994,8.54914399999999,651
45.54466399999994,8.54914399999999,643
48.136663999999925,3.365143999999992,624
48.46066399999992,3.365143999999992,599
48.46066399999992,2.717143999999992,592
47.48866399999993,5.309143999999991,576
46.516663999999935,9.845143999999989,704
46.84066399999993,10.493143999999988,1331
47.81266399999993,5.309143999999991,665
45.22066399999994,6.60514399999999,579
46.19266399999994,4.013143999999992,436
45.86866399999994,4.013143999999992,479
45.22066399999994,4.013143999999992,402
44.89666399999994,4.013143999999992,419
46.84066399999993,5.309143999999991,567
48.136663999999925,-1.8188560000000056,669
48.136663999999925,0.1251439999999934,610
48.136663999999925,-0.5228560000000062,641
47.48866399999993,-0.5228560000000062,652
47.16466399999993,-1.8188560000000056,681
47.48866399999993,0.7731439999999932,559
47.16466399999993,0.1251439999999934,598
45.86866399999994,7.25314399999999,589
48.136663999999925,5.309143999999991,696
49.10866399999992,4.661143999999991,619
48.46066399999992,4.013143999999992,625
48.136663999999925,4.661143999999991,731
47.81266399999993,6.60514399999999,623
47.48866399999993,5.957143999999991,640
48.136663999999925,5.957143999999991,1886
45.86866399999994,7.90114399999999,614
46.516663999999935,7.90114399999999,609
49.43266399999992,3.365143999999992,600
49.43266399999992,4.013143999999992,607
48.136663999999925,2.717143999999992,591
47.81266399999993,2.717143999999992,578
47.48866399999993,2.717143999999992,485
50.40466399999991,2.717143999999992,627
48.46066399999992,-4.410856000000004,805
48.46066399999992,-3.7628560000000046,775
48.46066399999992,-3.114856000000005,761
48.46066399999992,-2.4668560000000053,729
47.48866399999993,1.4211439999999929,553
47.16466399999993,1.4211439999999929,523
46.516663999999935,4.013143999999992,454
43.60066399999995,4.661143999999991,460
44.89666399999994,2.717143999999992,338
45.22066399999994,2.717143999999992,289
45.54466399999994,3.365143999999992,251
45.22066399999994,3.365143999999992,231
47.48866399999993,3.365143999999992,776
46.19266399999994,9.845143999999989,694
47.81266399999993,2.0691439999999925,548
47.48866399999993,2.0691439999999925,518
45.86866399999994,2.717143999999992,304
44.89666399999994,5.957143999999991,527
45.22066399999994,1.4211439999999929,576
44.89666399999994,1.4211439999999929,524
44.89666399999994,2.0691439999999925,399
43.276663999999954,2.0691439999999925,453
43.60066399999995,1.4211439999999929,500
48.78466399999992,4.661143999999991,642
48.78466399999992,5.309143999999991,671
46.19266399999994,2.0691439999999925,506
45.86866399999994,1.4211439999999929,586
46.19266399999994,1.4211439999999929,555
44.572663999999946,4.013143999999992,271
44.89666399999994,3.365143999999992,150
43.92466399999995,4.013143999999992,405
44.24866399999995,4.013143999999992,339
44.89666399999994,-0.5228560000000062,643
45.54466399999994,0.1251439999999934,683
46.516663999999935,0.1251439999999934,622
44.572663999999946,2.0691439999999925,422
49.75666399999992,4.013143999999992,665
43.92466399999995,3.365143999999992,371
43.92466399999995,2.717143999999992,0
44.24866399999995,3.365143999999992,32
44.572663999999946,3.365143999999992,77
49.10866399999992,0.1251439999999934,655
49.43266399999992,0.7731439999999932,644
49.43266399999992,-1.8188560000000056,717
49.10866399999992,-1.170856000000006,694
49.10866399999992,-0.5228560000000062,661
49.10866399999992,0.7731439999999932,640
49.10866399999992,1.4211439999999929,613
47.81266399999993,-1.8188560000000056,721
47.81266399999993,-2.4668560000000053,747
47.81266399999993,-3.114856000000005,773
48.136663999999925,-3.7628560000000046,819
44.572663999999946,9.197143999999987,656
44.89666399999994,8.54914399999999,627
45.22066399999994,9.197143999999987,625
45.54466399999994,10.493143999999988,667
44.572663999999946,10.493143999999988,1798
44.89666399999994,10.493143999999988,695
44.89666399999994,9.845143999999989,729
48.46066399999992,5.309143999999991,723
50.91599999999999,-1.0580000000000025,65535
51.23999999999999,-0.4100000000000028,65535
50.91599999999999,-0.4100000000000028,65535
51.23999999999999,-2.354000000000002,65535
51.56399999999999,-2.354000000000002,65535
51.56399999999999,-3.0020000000000016,65535
50.91599999999999,-2.354000000000002,65535
53.50799999999997,-3.0020000000000016,65535
53.183999999999976,-2.354000000000002,65535
53.183999999999976,-3.0020000000000016,65535
52.85999999999998,-2.354000000000002,65535
52.21199999999998,-1.0580000000000025,65535
51.887999999999984,-1.0580000000000025,65535
52.53599999999998,-1.0580000000000025,65535
52.53599999999998,-1.7060000000000022,65535
52.85999999999998,-1.7060000000000022,65535
53.50799999999997,-2.354000000000002,65535
52.85999999999998,-1.0580000000000025,65535
52.53599999999998,1.5339999999999965,65535
52.53599999999998,0.8859999999999966,65535
52.53599999999998,0.2379999999999968,65535
52.53599999999998,-0.4100000000000028,65535
53.50799999999997,-1.7060000000000022,65535
53.183999999999976,-1.7060000000000022,65535
53.183999999999976,-1.0580000000000025,65535
52.85999999999998,-0.4100000000000028,65535
51.887999999999984,-2.354000000000002,65535
52.21199999999998,-2.354000000000002,65535
55.77599999999996,-2.354000000000002,65535
53.83199999999997,-1.0580000000000025,65535
53.83199999999997,-1.7060000000000022,65535
55.127999999999965,-1.7060000000000022,65535
54.80399999999997,-1.7060000000000022,65535
54.47999999999997,-1.7060000000000022,65535
54.15599999999997,-1.0580000000000025,65535
52.21199999999998,-1.7060000000000022,65535
53.50799999999997,-1.0580000000000025,65535
55.77599999999996,-3.0020000000000016,65535
55.45199999999996,-1.7060000000000022,65535
57.07199999999995,-2.354000000000002,65535
56.74799999999996,-3.0020000000000016,65535
56.42399999999996,-3.0020000000000016,65535
56.09999999999996,-3.650000000000001,65535
50.91599999999999,-3.0020000000000016,65535
50.91599999999999,-3.650000000000001,65535
50.59199999999999,-3.650000000000001,65535
50.59199999999999,-4.298000000000001,65535
51.23999999999999,-3.0020000000000016,65535
50.268,-4.946000000000001,65535
55.77599999999996,-3.650000000000001,65535
55.77599999999996,-4.298000000000001,65535
52.21199999999998,-0.4100000000000028,65535
52.53599999999998,-2.354000000000002,65535
51.56399999999999,-1.7060000000000022,65535
51.56399999999999,-3.650000000000001,65535
51.887999999999984,-4.298000000000001,65535
51.56399999999999,-4.298000000000001,65535
51.887999999999984,-1.7060000000000022,65535
52.21199999999998,-3.0020000000000016,65535
51.23999999999999,0.2379999999999968,65535
50.91599999999999,0.2379999999999968,65535
52.21199999999998,0.2379999999999968,65535
53.83199999999997,-3.0020000000000016,65535
54.15599999999997,-3.0020000000000016,65535
54.47999999999997,-3.0020000000000016,65535
55.127999999999965,-3.650000000000001,65535
54.80399999999997,-3.0020000000000016,65535
53.83199999999997,-2.354000000000002,65535
54.15599999999997,-0.4100000000000028,65535
54.47999999999997,-1.0580000000000025,65535
53.83199999999997,-0.4100000000000028,65535
53.183999999999976,-3.650000000000001,65535
53.183999999999976,-4.298000000000001,65535
52.85999999999998,-3.0020000000000016,65535
52.53599999999998,-3.0020000000000016,65535
51.887999999999984,-3.0020000000000016,65535
51.23999999999999,0.8859999999999966,65535
51.887999999999984,0.2379999999999968,65535
52.21199999999998,0.8859999999999966,65535
51.887999999999984,-4.946000000000001,65535
52.53599999999998,-3.650000000000001,65535
52.21199999999998,-4.298000000000001,65535
53.183999999999976,-0.4100000000000028,65535
51.23999999999999,-3.650000000000001,65535
51.887999999999984,-3.650000000000001,65535
52.21199999999998,-3.650000000000001,65535
51.56399999999999,0.8859999999999966,65535
51.887999999999984,0.8859999999999966,65535
52.85999999999998,0.8859999999999966,65535
53.50799999999997,-0.4100000000000028,65535
56.09999999999996,-4.298000000000001,65535
56.74799999999996,-4.946000000000001,65535
56.74799999999996,-4.298000000000001,65535
56.42399999999996,-4.946000000000001,65535
56.42399999999996,-4.298000000000001,65535
56.09999999999996,-4.946000000000001,65535
57.39599999999995,-4.298000000000001,65535
57.39599999999995,-3.0020000000000016,65535
57.39599999999995,-3.650000000000001,65535
56.42399999999996,-3.650000000000001,65535
57.07199999999995,-3.650000000000001,65535
57.07199999999995,-4.298000000000001,65535
56.74799999999996,-3.650000000000001,65535
59.15266399999986,27.34114399999998,65535
59.47666399999986,26.69314399999997,65535
59.47666399999986,26.04514399999998,65535
59.15266399999986,26.04514399999998,65535
59.15266399999986,24.74914399999998,65535
59.15266399999986,25.397143999999983,65535
59.47666399999986,25.397143999999983,65535
58.50466399999986,26.69314399999997,65535
58.82866399999986,26.69314399999997,65535
57.85666399999987,26.04514399999998,65535
58.180663999999865,26.04514399999998,65535
58.180663999999865,26.69314399999997,65535
58.82866399999986,26.04514399999998,65535
58.50466399999986,25.397143999999983,65535
58.82866399999986,25.397143999999983,65535
58.82866399999986,24.74914399999998,65535
58.180663999999865,27.34114399999998,65535
57.85666399999987,27.34114399999998,65535
63.68866399999983,27.34114399999998,7557
60.124663999999854,24.74914399999998,7093
60.44866399999985,24.74914399999998,7062
60.44866399999985,25.397143999999983,7074
60.77266399999985,25.397143999999983,7280
61.09666399999985,26.04514399999998,7322
60.77266399999985,26.04514399999998,7329
60.77266399999985,26.69314399999997,7348
61.09666399999985,25.397143999999983,7313
61.09666399999985,26.69314399999997,7678
61.420663999999846,26.69314399999997,7700
61.74466399999984,27.34114399999998,7724
62.06866399999984,27.34114399999998,7749
62.39266399999984,27.34114399999998,7773
62.71666399999984,27.34114399999998,7737
64.01266399999983,27.34114399999998,7905
63.36466399999984,27.34114399999998,7625
63.04066399999984,27.34114399999998,7665
63.04066399999984,27.989143999999985,7680
64.33666399999983,27.989143999999985,7952
64.33666399999983,27.34114399999998,8028
64.66066399999983,27.34114399999998,8044
64.66066399999983,26.69314399999997,8055
64.98466399999982,25.397143999999983,6439
64.66066399999983,26.04514399999998,8085
64.98466399999982,26.04514399999998,8107
66.28066399999982,25.397143999999983,6516
65.95666399999982,24.74914399999998,6352
65.63266399999982,24.74914399999998,6356
65.63266399999982,25.397143999999983,6398
65.30866399999982,25.397143999999983,6419
66.60466399999981,25.397143999999983,6576
64.01266399999983,24.74914399999998,6576
64.01266399999983,24.101143999999977,6611
64.01266399999983,23.45314399999998,6635
63.68866399999983,23.45314399999998,6647
63.68866399999983,22.805143999999984,6672
63.68866399999983,26.04514399999998,7264
63.68866399999983,25.397143999999983,7230
63.68866399999983,26.69314399999997,7524
60.44866399999985,26.69314399999997,7516
64.01266399999983,27.989143999999985,7943
62.71666399999984,22.805143999999984,6794
62.39266399999984,22.805143999999984,6826
62.06866399999984,22.805143999999984,6855
62.06866399999984,23.45314399999998,6871
61.74466399999984,23.45314399999998,6883
61.420663999999846,23.45314399999998,6931
61.09666399999985,23.45314399999998,6972
61.09666399999985,24.101143999999977,6979
61.09666399999985,24.74914399999998,7013
60.77266399999985,24.74914399999998,7029
63.04066399999984,21.50914399999997,65535
63.04066399999984,22.15714399999998,65535
63.04066399999984,22.805143999999984,6758
62.39266399999984,26.04514399999998,7921
62.06866399999984,25.397143999999983,7970
61.74466399999984,25.397143999999983,8038
61.74466399999984,24.74914399999998,8075
61.74466399999984,24.101143999999977,8110
61.420663999999846,24.101143999999977,7454
62.39266399999984,26.69314399999997,7892
64.66066399999983,25.397143999999983,6508
64.66066399999983,24.74914399999998,6526
64.33666399999983,24.74914399999998,6537
63.36466399999984,22.805143999999984,6697
67.25266399999981,24.101143999999977,8666
66.92866399999981,24.101143999999977,8630
66.60466399999981,23.45314399999998,8599
66.28066399999982,23.45314399999998,8581
66.28066399999982,24.101143999999977,8563
65.95666399999982,24.101143999999977,4479
60.124663999999854,24.101143999999977,7286
60.124663999999854,23.45314399999998,7323
60.44866399999985,22.805143999999984,65535
60.77266399999985,27.34114399999998,7406
61.09666399999985,27.989143999999985,7438
61.09666399999985,28.63714399999997,7484
61.420663999999846,29.28514399999997,9171
61.74466399999984,29.933143999999977,9229
62.06866399999984,29.933143999999977,9335
62.39266399999984,29.933143999999977,9373
62.71666399999984,29.933143999999977,9406
61.420663999999846,22.805143999999984,6967
61.420663999999846,22.15714399999998,7046
61.09666399999985,22.15714399999998,7034
61.420663999999846,21.50914399999997,7179
62.39266399999984,27.989143999999985,65535
62.06866399999984,27.989143999999985,65535
61.420663999999846,27.34114399999998,65535
63.04066399999984,29.933143999999977,65535
63.68866399999983,29.28514399999997,65535
63.36466399999984,29.28514399999997,65535
63.36466399999984,29.933143999999977,65535
60.44866399999985,27.34114399999998,65535
61.74466399999984,29.28514399999997,65535
62.39266399999984,30.58114399999998,65535
62.71666399999984,31.229143999999977,65535
62.71666399999984,29.28514399999997,65535
63.04066399999984,28.63714399999997,65535
66.60466399999981,26.04514399999998,6586
66.60466399999981,26.69314399999997,6622
66.60466399999981,27.34114399999998,6645
62.71666399999984,26.04514399999998,7806
62.71666399999984,25.397143999999983,7775
63.04066399999984,25.397143999999983,7595
63.36466399999984,25.397143999999983,7558
62.71666399999984,23.45314399999998,7800
62.39266399999984,24.101143999999977,65535
62.71666399999984,22.15714399999998,65535
62.39266399999984,22.15714399999998,65535
62.39266399999984,21.50914399999997,65535
61.09666399999985,21.50914399999997,8857
60.77266399999985,22.805143999999984,8283
60.44866399999985,22.15714399999998,8331
60.77266399999985,23.45314399999998,8265
60.77266399999985,21.50914399999997,8433
60.77266399999985,22.15714399999998,8386
60.124663999999854,22.805143999999984,8599
60.44866399999985,24.101143999999977,7272
62.06866399999984,24.74914399999998,65535
50.72866399999991,16.325143999999987,1265
50.40466399999991,16.973143999999984,1321
50.72866399999991,16.973143999999984,1292
50.40466399999991,16.325143999999987,1328
50.08066399999991,16.973143999999984,1451
50.08066399999991,16.325143999999987,1353
51.700663999999904,16.973143999999984,1379
51.37666399999991,16.973143999999984,1282
51.05266399999991,15.677143999999986,1288
50.72866399999991,15.677143999999986,1303
51.05266399999991,17.621143999999987,1299
51.37666399999991,17.621143999999987,1326
51.700663999999904,17.621143999999987,1354
51.700663999999904,16.325143999999987,1347
52.0246639999999,22.15714399999998,1558
52.0246639999999,21.50914399999997,1554
52.3486639999999,21.50914399999997,1554
52.0246639999999,20.86114399999998,1534
51.700663999999904,20.86114399999998,1592
51.37666399999991,21.50914399999997,1631
51.37666399999991,20.86114399999998,1626
51.05266399999991,20.86114399999998,1606
52.6726639999999,23.45314399999998,1747
52.3486639999999,22.805143999999984,1689
52.3486639999999,20.213143999999986,1572
52.0246639999999,20.213143999999986,1525
52.3486639999999,19.565143999999982,1567
52.6726639999999,19.565143999999982,1659
51.700663999999904,21.50914399999997,1627
51.700663999999904,22.15714399999998,1662
52.6726639999999,21.50914399999997,1571
52.996663999999896,21.50914399999997,1620
52.6726639999999,20.86114399999998,1586
52.6726639999999,22.15714399999998,1609
52.6726639999999,20.213143999999986,1659
52.996663999999896,19.565143999999982,1710
52.996663999999896,20.86114399999998,1620
52.996663999999896,20.213143999999986,1646
53.32066399999989,20.213143999999986,1762
51.37666399999991,20.213143999999986,1694
52.3486639999999,16.973143999999984,1384
52.0246639999999,16.973143999999984,1397
52.0246639999999,16.325143999999987,1386
52.0246639999999,17.621143999999987,1371
52.6726639999999,16.973143999999984,1421
52.996663999999896,16.973143999999984,1522
52.3486639999999,16.325143999999987,1396
52.3486639999999,15.677143999999986,1386
51.700663999999904,18.269143999999983,1438
52.6726639999999,17.621143999999987,1435
52.3486639999999,17.621143999999987,1422
52.6726639999999,18.269143999999983,1515
52.3486639999999,18.269143999999983,1489
52.3486639999999,18.917143999999983,1527
52.996663999999896,17.621143999999987,1561
51.700663999999904,19.565143999999982,1519
51.700663999999904,18.917143999999983,1486
51.37666399999991,18.269143999999983,1367
58.82866399999986,9.197143999999987,3248
58.180663999999865,7.90114399999999,3341
58.50466399999986,8.54914399999999,3292
63.36466399999984,10.493143999999988,3463
63.36466399999984,11.141143999999988,3470
63.36466399999984,11.789143999999988,3505
63.68866399999983,11.789143999999988,3533
64.33666399999983,12.437143999999988,3934
64.66066399999983,12.437143999999988,4429
65.63266399999982,13.085143999999987,4086
65.95666399999982,13.085143999999987,4121
66.28066399999982,14.381143999999988,4191
65.95666399999982,13.733143999999989,4260
66.28066399999982,13.733143999999989,4169
65.30866399999982,13.085143999999987,4387
64.98466399999982,13.085143999999987,4021
64.01266399999983,11.789143999999988,3564
63.68866399999983,11.141143999999988,3501
59.800663999999855,10.493143999999988,3044
59.800663999999855,11.141143999999988,3027
60.124663999999854,11.141143999999988,3042
60.44866399999985,11.141143999999988,3055
60.124663999999854,11.789143999999988,3068
60.77266399999985,7.25314399999999,3304
60.77266399999985,6.60514399999999,3350
59.15266399999986,9.197143999999987,3130
59.47666399999986,9.197143999999987,3151
59.800663999999855,9.845143999999989,3046
59.47666399999986,11.141143999999988,2991
61.09666399999985,10.493143999999988,3165
60.77266399999985,10.493143999999988,3135
60.77266399999985,11.141143999999988,3090
62.06866399999984,9.197143999999987,3490
61.74466399999984,9.845143999999989,3436
61.420663999999846,9.845143999999989,3413
59.15266399999986,9.845143999999989,3110
59.47666399999986,9.845143999999989,3086
58.82866399999986,5.957143999999991,3525
58.180663999999865,7.25314399999999,3397
58.50466399999986,7.25314399999999,3430
58.50466399999986,6.60514399999999,3435
58.50466399999986,5.957143999999991,3493
58.82866399999986,8.54914399999999,3278
60.44866399999985,7.25314399999999,3278
60.44866399999985,7.90114399999999,3239
60.124663999999854,10.493143999999988,3076
60.44866399999985,9.197143999999987,3188
60.77266399999985,9.197143999999987,3200
60.77266399999985,8.54914399999999,3219
60.124663999999854,9.845143999999989,3334
60.44866399999985,10.493143999999988,3121
63.04066399999984,10.493143999999988,3414
62.06866399999984,9.845143999999989,3515
62.39266399999984,9.845143999999989,3523
62.71666399999984,9.845143999999989,3547
59.47666399999986,14.381143999999988,2997
59.47666399999986,13.733143999999989,2981
59.47666399999986,13.085143999999987,2957
59.800663999999855,12.437143999999988,3026
59.15266399999986,11.141143999999988,2955
59.15266399999986,14.381143999999988,2981
58.82866399999986,11.789143999999988,2935
58.50466399999986,12.437143999999988,2865
58.180663999999865,12.437143999999988,2858
57.85666399999987,11.789143999999988,2809
62.71666399999984,7.90114399999999,3576
62.39266399999984,7.90114399999999,3533
62.06866399999984,8.54914399999999,3508
60.44866399999985,5.309143999999991,3424
60.44866399999985,5.957143999999991,3391
60.77266399999985,5.957143999999991,3380
62.39266399999984,11.141143999999988,3311
62.06866399999984,10.493143999999988,3266
61.74466399999984,11.141143999999988,3239
61.420663999999846,11.141143999999988,3193
61.09666399999985,11.141143999999988,3176
60.77266399999985,11.789143999999988,3153
63.04066399999984,11.141143999999988,3392
62.71666399999984,11.141143999999988,3335
62.39266399999984,10.493143999999988,3293
67.25266399999981,15.677143999999986,4310
67.25266399999981,15.029143999999986,4348
67.25266399999981,14.381143999999988,4376
66.92866399999981,15.029143999999986,4299
66.60466399999981,15.677143999999986,4277
64.01266399999983,11.141143999999988,3548
66.60466399999981,15.029143999999986,4340
54.29266399999989,18.269143999999983,1670
54.616663999999886,17.621143999999987,1628
53.96866399999989,18.269143999999983,1643
43.92466399999995,1.4211439999999929,543
44.24866399999995,0.7731439999999932,577
44.572663999999946,0.1251439999999934,638
46.84066399999993,1.4211439999999929,569
44.572663999999946,1.4211439999999929,584
44.24866399999995,1.4211439999999929,558
45.54466399999994,1.4211439999999929,625
46.516663999999935,1.4211439999999929,589
42.30466399999996,2.717143999999992,476
44.24866399999995,2.717143999999992,548
44.572663999999946,2.717143999999992,523
43.92466399999995,2.0691439999999925,556
42.30466399999996,2.0691439999999925,507
42.62866399999996,2.0691439999999925,473
42.62866399999996,1.4211439999999929,510
42.95266399999996,1.4211439999999929,520
43.276663999999954,1.4211439999999929,495
46.516663999999935,-1.170856000000006,745
46.19266399999994,-1.170856000000006,687
45.86866399999994,-0.5228560000000062,688
45.54466399999994,-0.5228560000000062,698
48.46066399999992,1.4211439999999929,548
41.332663999999966,2.0691439999999925,534
41.98066399999996,2.717143999999992,493
48.46066399999992,-1.8188560000000056,715
47.81266399999993,0.7731439999999932,583
46.84066399999993,0.7731439999999932,599
44.572663999999946,-1.170856000000006,656
43.60066399999995,-1.170856000000006,726
43.276663999999954,-1.8188560000000056,735
43.276663999999954,0.1251439999999934,669
42.95266399999996,0.1251439999999934,677
43.276663999999954,-0.5228560000000062,766
43.60066399999995,-0.5228560000000062,764
47.81266399999993,-3.7628560000000046,787
47.48866399999993,-2.4668560000000053,755
47.81266399999993,-0.5228560000000062,628
46.516663999999935,-1.8188560000000056,796
48.136663999999925,-1.170856000000006,671
47.48866399999993,-1.170856000000006,664
45.22066399999994,8.54914399999999,613
45.22066399999994,7.90114399999999,603
46.19266399999994,-0.5228560000000062,656
46.516663999999935,-0.5228560000000062,637
48.78466399999992,-3.114856000000005,792
50.72866399999991,2.0691439999999925,633
50.40466399999991,2.0691439999999925,631
40.36066399999997,-3.7628560000000046,1905
41.65666399999997,-1.170856000000006,1822
41.332663999999966,1.4211439999999929,1760
43.276663999999954,13.733143999999989,4390
42.95266399999996,13.733143999999989,4412
41.65666399999997,15.029143999999986,4496
40.68466399999997,17.621143999999987,4658
43.60066399999995,13.085143999999987,4383
41.65666399999997,12.437143999999988,3049
41.65666399999997,13.085143999999987,3068
41.98066399999996,13.085143999999987,3118
41.65666399999997,13.733143999999989,3120
41.332663999999966,13.733143999999989,3112
41.332663999999966,14.381143999999988,3269
41.00866399999997,14.381143999999988,3175
41.332663999999966,13.085143999999987,3094
41.00866399999997,15.029143999999986,3375
41.98066399999996,13.733143999999989,3317
42.30466399999996,14.381143999999988,3456
42.30466399999996,12.437143999999988,3057
42.62866399999996,12.437143999999988,3236
42.95266399999996,12.437143999999988,3521
42.30466399999996,11.789143999999988,3066
42.95266399999996,11.789143999999988,3276
42.62866399999996,11.789143999999988,3267
43.276663999999954,11.789143999999988,3330
42.95266399999996,13.085143999999987,4284
42.30466399999996,13.085143999999987,3343
43.276663999999954,13.085143999999987,4332
43.276663999999954,12.437143999999988,4339
42.62866399999996,11.141143999999988,3112
42.95266399999996,11.141143999999988,3155
42.95266399999996,10.493143999999988,3173
44.572663999999946,8.54914399999999,650
44.89666399999994,7.90114399999999,618
44.89666399999994,9.197143999999987,672
44.24866399999995,7.90114399999999,639
44.572663999999946,7.90114399999999,628
43.92466399999995,7.90114399999999,602
44.24866399999995,7.25314399999999,649
44.89666399999994,7.25314399999999,647
45.22066399999994,7.25314399999999,587
45.54466399999994,7.90114399999999,660
44.572663999999946,7.25314399999999,687
52.996663999999896,22.805143999999984,1848
52.996663999999896,23.45314399999998,1871
51.37666399999991,22.15714399999998,1693
51.37666399999991,22.805143999999984,1747
50.08066399999991,20.213143999999986,1452
50.72866399999991,20.213143999999986,1492
50.40466399999991,20.213143999999986,1450
50.08066399999991,20.86114399999998,1472
50.08066399999991,21.50914399999997,1491
50.08066399999991,22.15714399999998,1515
50.08066399999991,22.805143999999984,1590
53.96866399999989,22.805143999999984,2307
53.64466399999989,23.45314399999998,1978
53.32066399999989,23.45314399999998,1924
50.40466399999991,19.565143999999982,1435
50.08066399999991,18.917143999999983,1440
50.08066399999991,18.269143999999983,1389
52.0246639999999,22.805143999999984,1744
52.0246639999999,23.45314399999998,1780
51.37666399999991,19.565143999999982,1656
51.05266399999991,19.565143999999982,1500
50.72866399999991,18.917143999999983,1473
50.72866399999991,19.565143999999982,1517
49.75666399999992,18.917143999999983,1582
50.40466399999991,18.269143999999983,1353
53.64466399999989,19.565143999999982,1716
53.96866399999989,18.917143999999983,1684
53.64466399999989,18.917143999999983,1701
53.64466399999989,20.213143999999986,1755
52.996663999999896,18.917143999999983,1576
52.996663999999896,18.269143999999983,1548
53.32066399999989,18.917143999999983,1675
50.72866399999991,17.621143999999987,1306
50.72866399999991,18.269143999999983,1340
52.6726639999999,16.325143999999987,1416
52.996663999999896,16.325143999999987,1402
52.996663999999896,15.677143999999986,1388
53.32066399999989,15.677143999999986,1384
53.32066399999989,15.029143999999986,1305
53.64466399999989,15.029143999999986,1311
53.96866399999989,15.029143999999986,1339
52.6726639999999,18.917143999999983,1618
53.32066399999989,16.325143999999987,1554
52.6726639999999,15.029143999999986,1369
51.05266399999991,22.805143999999984,1781
51.05266399999991,23.45314399999998,1809
50.72866399999991,22.15714399999998,1766
50.40466399999991,22.15714399999998,1805
51.05266399999991,22.15714399999998,1744
54.616663999999886,16.973143999999984,1588
54.29266399999989,16.325143999999987,1538
53.96866399999989,15.677143999999986,1444
50.72866399999991,21.50914399999997,1776
50.40466399999991,21.50914399999997,1545
50.40466399999991,17.621143999999987,1335
53.32066399999989,22.805143999999984,2063
53.64466399999989,22.15714399999998,1925
54.29266399999989,16.973143999999984,1564
50.72866399999991,20.86114399999998,1530
51.700663999999904,22.805143999999984,1831
51.05266399999991,21.50914399999997,1728
50.08066399999991,19.565143999999982,1454
52.0246639999999,18.917143999999983,8488
52.0246639999999,19.565143999999982,8481
53.64466399999989,18.269143999999983,1637
51.700663999999904,20.213143999999986,1766
53.32066399999989,19.565143999999982,1707
50.72866399999991,23.45314399999998,1891
50.72866399999991,22.805143999999984,1860
49.43266399999992,20.213143999999986,1765
49.75666399999992,21.50914399999997,1579
49.75666399999992,22.15714399999998,1831
49.43266399999992,22.15714399999998,1844
51.05266399999991,18.917143999999983,1476
51.05266399999991,18.269143999999983,1387
53.32066399999989,16.973143999999984,1528
53.64466399999989,16.973143999999984,1522
49.75666399999992,20.86114399999998,1524
50.40466399999991,22.805143999999984,8570
53.64466399999989,16.325143999999987,1508
53.96866399999989,20.86114399999998,1782
54.29266399999989,20.86114399999998,1828
53.96866399999989,21.50914399999997,1848
53.64466399999989,15.677143999999986,1460
53.96866399999989,20.213143999999986,1741
53.96866399999989,19.565143999999982,1730
54.29266399999989,19.565143999999982,1744
53.96866399999989,16.325143999999987,1479
53.64466399999989,17.621143999999987,1578
53.96866399999989,22.15714399999998,1915
53.64466399999989,21.50914399999997,1880
53.64466399999989,20.86114399999998,1834
52.6726639999999,15.677143999999986,1416
51.05266399999991,20.213143999999986,1702
54.940663999999884,24.101143999999977,3681
54.616663999999886,23.45314399999998,3625
54.29266399999989,23.45314399999998,3488
53.64466399999989,22.805143999999984,2065
53.96866399999989,16.973143999999984,1585
50.40466399999991,20.86114399999998,1783
53.32066399999989,18.269143999999983,1656
49.75666399999992,19.565143999999982,1613
50.40466399999991,23.45314399999998,1996
49.75666399999992,20.213143999999986,1837
49.43266399999992,19.565143999999982,1725
49.43266399999992,20.86114399999998,1541
53.96866399999989,17.621143999999987,1788
42.30466399999996,-1.8188560000000056,8799
41.98066399999996,-1.8188560000000056,8782
41.65666399999997,0.7731439999999932,8786
42.62866399999996,-1.8188560000000056,8914
42.95266399999996,-1.8188560000000056,8943
42.62866399999996,-3.114856000000005,9037
42.95266399999996,-2.4668560000000053,9015
42.62866399999996,-7.650856000000003,9379
42.30466399999996,-7.650856000000003,9439
42.30466399999996,-8.946856000000002,9575
42.30466399999996,-8.298856000000002,9549
41.98066399999996,-8.298856000000002,9538
42.30466399999996,-7.002856000000003,9321
42.62866399999996,-6.354856000000003,9263
42.30466399999996,-6.354856000000003,9218
42.62866399999996,-5.706856000000004,8718
41.98066399999996,-4.410856000000004,8672
42.30466399999996,-3.7628560000000046,9063
40.03666399999997,-0.5228560000000062,8766
39.38866399999998,-0.5228560000000062,8814
41.00866399999997,0.7731439999999932,8914
40.68466399999997,0.7731439999999932,8946
40.36066399999997,0.1251439999999934,9024
39.712663999999975,-0.5228560000000062,8923
38.41666399999998,-0.5228560000000062,8935
39.06466399999998,-0.5228560000000062,9057
38.74066399999998,-1.170856000000006,8943
41.332663999999966,0.7731439999999932,8974
41.65666399999997,2.717143999999992,8574
41.65666399999997,2.0691439999999925,8597
41.332663999999966,0.1251439999999934,8932
41.332663999999966,-0.5228560000000062,8876
41.65666399999997,-4.410856000000004,8646
40.03666399999997,-2.4668560000000053,8884
41.00866399999997,-4.410856000000004,8767
43.276663999999954,-5.706856000000004,8848
39.38866399999998,-1.170856000000006,8909
38.09266399999999,-1.170856000000006,9322
38.74066399999998,-0.5228560000000062,9085
37.76866399999999,-1.170856000000006,9387
39.06466399999998,-1.8188560000000056,8907
39.38866399999998,-3.114856000000005,8807
39.38866399999998,-2.4668560000000053,8863
39.06466399999998,-2.4668560000000053,8890
39.06466399999998,-3.114856000000005,8811
39.06466399999998,-3.7628560000000046,8785
38.74066399999998,-3.7628560000000046,8864
40.03666399999997,-3.7628560000000046,8763
40.03666399999997,-3.114856000000005,8963
40.03666399999997,-1.8188560000000056,9044
39.712663999999975,-1.8188560000000056,9009
39.712663999999975,-1.170856000000006,8945
40.36066399999997,-1.170856000000006,8964
40.68466399999997,-1.170856000000006,8942
41.00866399999997,-1.170856000000006,8930
41.332663999999966,-1.170856000000006,8770
43.276663999999954,-8.298856000000002,9539
42.95266399999996,-8.298856000000002,9507
41.65666399999997,-5.706856000000004,65535
41.98066399999996,-7.002856000000003,65535
41.98066399999996,-6.354856000000003,65535
41.332663999999966,-5.058856000000004,8885
43.276663999999954,-3.7628560000000046,9320
42.95266399999996,-4.410856000000004,9254
42.62866399999996,-4.410856000000004,9244
42.30466399999996,-4.410856000000004,9203
41.00866399999997,-5.706856000000004,8823
41.332663999999966,-1.8188560000000056,8716
40.68466399999997,-3.114856000000005,8670
41.00866399999997,-3.114856000000005,8721
41.00866399999997,-2.4668560000000053,8744
41.332663999999966,-2.4668560000000053,8797
40.68466399999997,-4.410856000000004,8707
40.36066399999997,-4.410856000000004,8791
40.68466399999997,-3.7628560000000046,8699
40.36066399999997,-3.114856000000005,8677
41.65666399999997,-2.4668560000000053,8814
38.09266399999999,-3.7628560000000046,8911
38.74066399999998,-3.114856000000005,8855
37.76866399999999,-3.7628560000000046,8968
39.712663999999975,-3.114856000000005,8799
38.41666399999998,-3.7628560000000046,8876
40.03666399999997,-4.410856000000004,65535
40.03666399999997,-5.058856000000004,65535
39.38866399999998,-6.354856000000003,65535
39.38866399999998,-7.002856000000003,65535
42.95266399999996,-3.114856000000005,9448
41.98066399999996,-1.170856000000006,8811
42.30466399999996,-2.4668560000000053,8852
41.65666399999997,-0.5228560000000062,8909
41.98066399999996,-0.5228560000000062,8746
41.65666399999997,0.1251439999999934,8773
41.98066399999996,0.1251439999999934,8795
37.76866399999999,-5.058856000000004,8847
36.79666399999999,-4.410856000000004,8906
38.74066399999998,-4.410856000000004,8803
37.12066399999999,-4.410856000000004,8880
37.44466399999999,-5.058856000000004,9404
37.44466399999999,-7.002856000000003,65535
37.44466399999999,-6.354856000000003,65535
37.44466399999999,-5.706856000000004,9080
39.712663999999975,-3.7628560000000046,8873
42.62866399999996,-8.946856000000002,65535
42.30466399999996,-5.706856000000004,9225
42.30466399999996,-5.058856000000004,9310
42.95266399999996,-5.706856000000004,8750
41.00866399999997,-5.058856000000004,8791
40.68466399999997,-5.058856000000004,8765
41.65666399999997,-5.058856000000004,65535
41.65666399999997,-6.354856000000003,65535
36.79666399999999,-6.354856000000003,65535
37.12066399999999,-5.706856000000004,9248
37.76866399999999,-5.706856000000004,9047
38.09266399999999,-4.410856000000004,9182
37.12066399999999,-5.058856000000004,9202
36.79666399999999,-5.058856000000004,9160
37.76866399999999,-4.410856000000004,65535
37.76866399999999,-7.002856000000003,65535
38.41666399999998,-6.354856000000003,65535
38.09266399999999,-6.354856000000003,65535
48.78466399999992,1.4211439999999929,665
56.23666399999988,8.54914399999999,7090
55.58866399999988,9.197143999999987,6895
55.91266399999988,9.197143999999987,7036
55.26466399999988,10.493143999999988,2514
55.91266399999988,12.437143999999988,2649
55.58866399999988,11.789143999999988,6735
55.58866399999988,11.141143999999988,6776
55.26466399999988,11.789143999999988,6768
55.58866399999988,10.493143999999988,6891
55.58866399999988,13.085143999999987,2606
56.88466399999987,9.845143999999989,7042
57.20866399999987,9.845143999999989,7077
56.56066399999988,9.845143999999989,7014
56.88466399999987,8.54914399999999,7129
54.940663999999884,9.845143999999989,8236
54.940663999999884,11.789143999999988,6992
55.91266399999988,13.085143999999987,2664
56.23666399999988,13.733143999999989,2708
55.91266399999988,13.733143999999989,2711
56.23666399999988,14.381143999999988,2731
56.23666399999988,15.029143999999986,2772
56.23666399999988,15.677143999999986,2827
56.56066399999988,14.381143999999988,2788
56.88466399999987,14.381143999999988,2758
56.23666399999988,13.085143999999987,2656
56.56066399999988,13.085143999999987,2736
56.88466399999987,12.437143999999988,2773
57.20866399999987,12.437143999999988,2789
57.53266399999987,12.437143999999988,2804
56.88466399999987,15.029143999999986,2784
56.56066399999988,15.677143999999986,2844
56.88466399999987,15.677143999999986,2863
56.88466399999987,16.325143999999987,2878
55.91266399999988,11.789143999999988,7061
57.20866399999987,10.493143999999988,7264
49.43266399999992,1.4211439999999929,624
49.75666399999992,0.7731439999999932,638
49.75666399999992,2.0691439999999925,589
50.08066399999991,2.717143999999992,607
49.75666399999992,1.4211439999999929,604
47.81266399999993,1.4211439999999929,562
48.136663999999925,2.0691439999999925,575
48.46066399999992,2.0691439999999925,594
48.136663999999925,1.4211439999999929,612
48.78466399999992,0.1251439999999934,676
48.46066399999992,0.1251439999999934,635
47.81266399999993,0.1251439999999934,608
46.84066399999993,-0.5228560000000062,645
47.16466399999993,0.7731439999999932,570
46.84066399999993,0.1251439999999934,651
46.84066399999993,-1.170856000000006,719
50.08066399999991,1.4211439999999929,614
50.08066399999991,2.0691439999999925,603
49.43266399999992,2.717143999999992,580
49.75666399999992,3.365143999999992,591
50.08066399999991,3.365143999999992,657
49.10866399999992,2.0691439999999925,577
49.43266399999992,2.0691439999999925,603
48.78466399999992,0.7731439999999932,634
48.78466399999992,-0.5228560000000062,705
48.78466399999992,-1.170856000000006,736
48.136663999999925,0.7731439999999932,613
48.46066399999992,0.7731439999999932,600
43.92466399999995,5.957143999999991,604
44.24866399999995,5.957143999999991,645
43.92466399999995,5.309143999999991,461
42.95266399999996,2.717143999999992,438
45.54466399999994,2.0691439999999925,672
45.22066399999994,2.0691439999999925,611
42.95266399999996,2.0691439999999925,491
42.95266399999996,0.7731439999999932,594
43.276663999999954,0.7731439999999932,534
46.19266399999994,0.7731439999999932,627
46.516663999999935,0.7731439999999932,659
45.86866399999994,0.1251439999999934,705
46.19266399999994,0.1251439999999934,698
47.81266399999993,-1.170856000000006,735
48.136663999999925,-2.4668560000000053,719
47.48866399999993,-1.8188560000000056,715
47.16466399999993,-1.170856000000006,676
47.16466399999993,-0.5228560000000062,692
46.84066399999993,-1.8188560000000056,736
45.22066399999994,-0.5228560000000062,686
44.89666399999994,0.1251439999999934,629
45.22066399999994,0.7731439999999932,641
45.54466399999994,0.7731439999999932,660
45.86866399999994,0.7731439999999932,640
45.22066399999994,0.1251439999999934,688
44.89666399999994,0.7731439999999932,567
43.92466399999995,-0.5228560000000062,731
43.92466399999995,-1.170856000000006,706
44.24866399999995,-1.170856000000006,688
45.22066399999994,-1.170856000000006,738
44.572663999999946,-0.5228560000000062,652
44.24866399999995,0.1251439999999934,615
44.572663999999946,0.7731439999999932,632
43.276663999999954,-1.170856000000006,1370
42.95266399999996,-0.5228560000000062,1572
44.24866399999995,2.0691439999999925,600
43.60066399999995,0.7731439999999932,551
43.60066399999995,2.0691439999999925,554
52.6726639999999,4.661143999999991,7081
52.6726639999999,5.309143999999991,7104
51.700663999999904,5.309143999999991,7049
52.0246639999999,5.309143999999991,7061
52.3486639999999,5.309143999999991,7077
51.37666399999991,4.013143999999992,7057
52.3486639999999,5.957143999999991,7071
52.0246639999999,6.60514399999999,7101
52.6726639999999,5.957143999999991,7088
52.996663999999896,5.957143999999991,7101
53.32066399999989,5.957143999999991,7095
52.996663999999896,6.60514399999999,7077
53.32066399999989,6.60514399999999,7069
52.6726639999999,6.60514399999999,7097
52.996663999999896,5.309143999999991,7116
59.15266399999986,24.101143999999977,65535
56.88466399999987,24.101143999999977,65535
56.88466399999987,23.45314399999998,65535
56.88466399999987,22.805143999999984,65535
57.20866399999987,24.74914399999998,65535
56.88466399999987,24.74914399999998,65535
56.56066399999988,24.74914399999998,65535
56.56066399999988,25.397143999999983,65535
56.56066399999988,24.101143999999977,65535
56.56066399999988,23.45314399999998,65535
56.56066399999988,26.04514399999998,65535
56.88466399999987,26.04514399999998,65535
57.20866399999987,25.397143999999983,65535
57.53266399999987,25.397143999999983,65535
56.23666399999988,26.04514399999998,65535
56.23666399999988,26.69314399999997,65535
55.91266399999988,26.69314399999997,65535
56.56066399999988,26.69314399999997,65535
56.56066399999988,27.34114399999998,65535
56.56066399999988,27.989143999999985,65535
56.23666399999988,27.989143999999985,65535
55.91266399999988,27.34114399999998,65535
56.56066399999988,22.805143999999984,65535
56.56066399999988,22.15714399999998,65535
56.56066399999988,21.50914399999997,65535
57.20866399999987,26.69314399999997,65535
39.06466399999998,-8.946856000000002,65535
38.41666399999998,-8.298856000000002,65535
45.86866399999994,11.789143999999988,2068
46.19266399999994,11.789143999999988,2055
46.19266399999994,10.493143999999988,2095
45.22066399999994,18.269143999999983,1932
45.22066399999994,18.917143999999983,1973
45.54466399999994,16.973143999999984,1835
45.22066399999994,17.621143999999987,1876
45.86866399999994,16.325143999999987,1796
45.54466399999994,18.917143999999983,2020
45.54466399999994,16.325143999999987,1810
45.54466399999994,18.269143999999983,1988
44.89666399999994,18.917143999999983,2170
46.19266399999994,16.973143999999984,1796
46.19266399999994,16.325143999999987,1801
45.86866399999994,16.973143999999984,1813
45.86866399999994,17.621143999999987,1908
46.19266399999994,15.677143999999986,1770
46.516663999999935,16.325143999999987,1775
45.54466399999994,15.677143999999986,1845
45.22066399999994,15.029143999999986,1881
45.54466399999994,15.029143999999986,1842
45.22066399999994,15.677143999999986,1906
44.572663999999946,15.677143999999986,2059
44.24866399999995,15.677143999999986,2080
43.92466399999995,16.325143999999987,2144
44.89666399999994,15.677143999999986,2023
45.54466399999994,17.621143999999987,1887
45.22066399999994,16.325143999999987,1865
46.516663999999935,16.973143999999984,1788
45.86866399999994,18.269143999999983,2080
43.92466399999995,15.677143999999986,2246
45.22066399999994,13.733143999999989,1890
47.48866399999993,19.565143999999982,1612
47.16466399999993,18.917143999999983,1598
47.81266399999993,18.917143999999983,1546
45.54466399999994,9.845143999999989,650
45.22066399999994,9.845143999999989,640
45.22066399999994,10.493143999999988,678
45.86866399999994,9.845143999999989,678
45.86866399999994,10.493143999999988,2838
48.78466399999992,21.50914399999997,1756
49.10866399999992,20.213143999999986,1651
49.10866399999992,18.917143999999983,1569
48.46066399999992,17.621143999999987,1487
49.43266399999992,17.621143999999987,1453
49.10866399999992,17.621143999999987,1612
48.136663999999925,18.269143999999983,1578
49.10866399999992,18.269143999999983,1527
49.43266399999992,18.269143999999983,1484
49.43266399999992,16.973143999999984,1430
49.75666399999992,16.973143999999984,1401
49.75666399999992,16.325143999999987,1379
50.08066399999991,15.677143999999986,1273
50.08066399999991,15.029143999999986,1264
49.43266399999992,18.917143999999983,1555
47.81266399999993,20.86114399999998,1675
48.136663999999925,20.86114399999998,1706
48.46066399999992,20.86114399999998,1748
48.46066399999992,21.50914399999997,1752
49.10866399999992,19.565143999999982,1662
48.136663999999925,17.621143999999987,1466
48.78466399999992,22.15714399999998,1855
48.78466399999992,20.86114399999998,1887
49.10866399999992,20.86114399999998,1742
48.78466399999992,18.269143999999983,1570
48.78466399999992,17.621143999999987,1589
49.10866399999992,21.50914399999997,1769
48.78466399999992,20.213143999999986,1895
48.46066399999992,20.213143999999986,1936
48.136663999999925,19.565143999999982,2085
48.46066399999992,19.565143999999982,1964
48.46066399999992,18.917143999999983,1706
48.46066399999992,18.269143999999983,1530
48.78466399999992,19.565143999999982,1730
48.78466399999992,18.917143999999983,1648
47.81266399999993,18.269143999999983,1510
49.10866399999992,22.15714399999998,1896
49.43266399999992,21.50914399999997,1894
48.136663999999925,18.917143999999983,1786
48.136663999999925,20.213143999999986,2105
52.636,-8.018,65535
52.312,-7.370000000000001,65535
52.312,-8.018,65535
52.636,-8.666,65535
51.988,-8.666,65535
51.988,-8.018,65535
52.96,-8.666,65535
52.96,-6.074000000000002,65535
53.28399999999999,-6.722000000000001,65535
53.60799999999999,-6.722000000000001,65535
53.60799999999999,-7.370000000000001,65535
53.60799999999999,-8.018,65535
54.25599999999999,-8.666,65535
53.93199999999999,-8.666,65535
53.93199999999999,-8.018,65535
52.312,-6.722000000000001,65535
52.636,-6.722000000000001,65535
53.93199999999999,-6.722000000000001,65535
54.25599999999999,-6.074000000000002,65535
53.28399999999999,-7.370000000000001,65535
52.96,-7.370000000000001,65535
52.312,-8.666,65535
52.96,-8.018,65535
52.636,-7.370000000000001,65535
52.96,-6.722000000000001,65535
51.988,-9.314,65535
52.312,-9.314,65535
54.579999999999984,-6.722000000000001,65535
54.579999999999984,-6.074000000000002,65535
53.28399999999999,-8.018,65535
53.28399999999999,-8.666,65535
53.28399999999999,-9.314,65535
53.93199999999999,-9.314,65535
54.25599999999999,-9.314,65535
53.60799999999999,-8.666,65535
53.60799999999999,-9.314,65535
49.43266399999992,14.381143999999988,1366
49.75666399999992,14.381143999999988,1280
49.75666399999992,15.029143999999986,1276
49.75666399999992,13.733143999999989,1285
50.08066399999991,13.733143999999989,1281
49.75666399999992,15.677143999999986,1317
50.40466399999991,15.029143999999986,1242
49.43266399999992,13.733143999999989,1294
50.40466399999991,15.677143999999986,1262
50.40466399999991,13.733143999999989,1311
46.19266399999994,15.029143999999986,1753
45.86866399999994,15.029143999999986,1798
45.86866399999994,14.381143999999988,1775
46.19266399999994,13.733143999999989,1862
45.86866399999994,13.733143999999989,1948
58.50466399999986,13.733143999999989,2900
58.180663999999865,13.733143999999989,2886
58.180663999999865,13.085143999999987,2858
57.85666399999987,12.437143999999988,2822
60.44866399999985,15.677143999999986,3107
60.124663999999854,15.677143999999986,3041
60.124663999999854,16.325143999999987,3079
59.800663999999855,16.325143999999987,3007
59.800663999999855,17.621143999999987,2986
59.47666399999986,18.269143999999983,2968
61.74466399999984,16.973143999999984,3118
61.420663999999846,16.973143999999984,3091
60.77266399999985,16.973143999999984,3043
65.63266399999982,22.15714399999998,4222
65.95666399999982,21.50914399999997,4182
65.63266399999982,20.86114399999998,4153
64.98466399999982,20.213143999999986,4085
64.66066399999983,20.213143999999986,4063
64.33666399999983,19.565143999999982,3757
64.01266399999983,19.565143999999982,3470
63.68866399999983,20.213143999999986,3423
64.66066399999983,18.917143999999983,6134
59.15266399999986,16.325143999999987,2943
59.15266399999986,15.029143999999986,2947
59.15266399999986,17.621143999999987,2960
57.53266399999987,14.381143999999988,2784
57.53266399999987,15.029143999999986,2804
61.09666399999985,14.381143999999988,3211
60.77266399999985,15.029143999999986,3162
60.44866399999985,15.029143999999986,3148
58.180663999999865,15.029143999999986,2861
58.50466399999986,16.325143999999987,2895
58.50466399999986,15.677143999999986,2868
63.36466399999984,13.085143999999987,3455
63.04066399999984,14.381143999999988,3392
62.39266399999984,15.677143999999986,3314
63.36466399999984,13.733143999999989,3437
63.36466399999984,14.381143999999988,3409
62.71666399999984,15.677143999999986,3342
62.39266399999984,17.621143999999987,3176
59.800663999999855,15.677143999999986,3229
55.58866399999988,13.733143999999989,2738
57.20866399999987,14.381143999999988,2768
57.85666399999987,14.381143999999988,2816
58.82866399999986,16.973143999999984,2952
58.82866399999986,16.325143999999987,2930
59.15266399999986,18.269143999999983,2964
60.44866399999985,17.621143999999987,3019
59.15266399999986,12.437143999999988,2923
59.15266399999986,13.085143999999987,2937
58.82866399999986,12.437143999999988,2899
59.47666399999986,16.325143999999987,2989
58.82866399999986,14.381143999999988,2976
59.47666399999986,15.677143999999986,3007
63.36466399999984,18.917143999999983,3376
63.04066399999984,17.621143999999987,3331
62.71666399999984,17.621143999999987,3305
63.68866399999983,19.565143999999982,3409
62.39266399999984,16.973143999999984,3220
59.800663999999855,16.973143999999984,2995
59.47666399999986,17.621143999999987,2972
57.85666399999987,13.085143999999987,2848
57.53266399999987,13.085143999999987,2829
58.50466399999986,11.789143999999988,2870
57.85666399999987,15.029143999999986,2850
57.20866399999987,13.733143999999989,2774
57.53266399999987,13.733143999999989,2835
61.74466399999984,16.325143999999987,3214
61.420663999999846,16.325143999999987,3181
61.09666399999985,16.325143999999987,3170
61.09666399999985,16.973143999999984,3138
60.124663999999854,15.029143999999986,3316
66.60466399999981,20.86114399999998,4257
67.25266399999981,20.86114399999998,4325
67.90066399999981,20.213143999999986,4395
67.57666399999981,20.213143999999986,5020
59.800663999999855,15.029143999999986,3036
58.50466399999986,15.029143999999986,2878
59.47666399999986,15.029143999999986,3021
60.44866399999985,16.325143999999987,3107
59.15266399999986,15.677143999999986,2965
57.85666399999987,13.733143999999989,2876
58.82866399999986,13.733143999999989,2923
58.50466399999986,13.085143999999987,2908
57.20866399999987,13.085143999999987,2805
56.88466399999987,13.085143999999987,2779
58.180663999999865,11.789143999999988,2841
62.06866399999984,16.973143999999984,3209
65.95666399999982,23.45314399999998,4457
59.800663999999855,14.381143999999988,5891
59.800663999999855,18.269143999999983,2977
63.04066399999984,15.029143999999986,3360
62.71666399999984,15.029143999999986,3350
62.39266399999984,16.325143999999987,3283
63.36466399999984,12.437143999999988,3488
68.5486639999998,17.621143999999987,4608
68.5486639999998,18.269143999999983,4541
68.5486639999998,18.917143999999983,4518
68.2246639999998,18.917143999999983,4474
59.800663999999855,13.085143999999987,3040
60.124663999999854,13.085143999999987,3079
59.47666399999986,16.973143999999984,2981
59.15266399999986,16.973143999999984,2973
56.56066399999988,13.733143999999989,2726
60.124663999999854,17.621143999999987,2996
57.85666399999987,16.325143999999987,2955
58.180663999999865,16.325143999999987,2917
58.180663999999865,15.677143999999986,2925
57.20866399999987,16.325143999999987,2967
57.53266399999987,15.677143999999986,2985
57.85666399999987,15.677143999999986,2956
44.89666399999994,23.45314399999998,2965
44.572663999999946,23.45314399999998,3035
44.89666399999994,24.74914399999998,2952
44.572663999999946,24.74914399999998,3071
44.572663999999946,24.101143999999977,3012
44.24866399999995,24.101143999999977,3041
47.48866399999993,25.397143999999983,2813
47.48866399999993,24.74914399999998,2753
47.16466399999993,24.74914399999998,2675
47.16466399999993,24.101143999999977,2577
47.48866399999993,22.15714399999998,2707
47.81266399999993,22.15714399999998,2793
47.16466399999993,22.15714399999998,2686
47.16466399999993,23.45314399999998,2738
47.16466399999993,22.805143999999984,2744
46.84066399999993,24.101143999999977,2658
45.86866399999994,27.34114399999998,2998
45.54466399999994,27.34114399999998,2979
45.54466399999994,27.989143999999985,3095
45.86866399999994,20.86114399999998,2870
45.86866399999994,21.50914399999997,2878
46.19266399999994,21.50914399999997,2814
46.19266399999994,27.34114399999998,2998
46.19266399999994,26.69314399999997,2989
46.516663999999935,26.69314399999997,2951
46.516663999999935,26.04514399999998,2847
47.48866399999993,22.805143999999984,2805
46.84066399999993,22.805143999999984,2618
45.54466399999994,22.15714399999998,2927
45.22066399999994,22.15714399999998,3005
44.89666399999994,22.15714399999998,3423
47.48866399999993,23.45314399999998,2771
46.516663999999935,24.101143999999977,2497
46.516663999999935,24.74914399999998,2711
45.86866399999994,24.101143999999977,2660
47.16466399999993,26.69314399999997,3029
47.16466399999993,27.34114399999998,3084
43.92466399999995,25.397143999999983,3043
44.24866399999995,24.74914399999998,2950
44.89666399999994,26.04514399999998,2837
44.89666399999994,26.69314399999997,2884
45.22066399999994,26.69314399999997,2919
45.22066399999994,27.34114399999998,2946
46.84066399999993,26.69314399999997,2990
47.48866399999993,26.69314399999997,2983
44.24866399999995,25.397143999999983,2882
43.92466399999995,26.04514399999998,3059
46.19266399999994,24.101143999999977,2705
44.572663999999946,25.397143999999983,2920
46.84066399999993,24.74914399999998,2718
46.516663999999935,21.50914399999997,2818
46.84066399999993,21.50914399999997,2825
44.572663999999946,26.69314399999997,2875
44.572663999999946,27.34114399999998,2896
44.89666399999994,27.34114399999998,3011
44.572663999999946,27.989143999999985,2916
44.24866399999995,27.989143999999985,2930
44.572663999999946,28.63714399999997,2981
45.86866399999994,22.15714399999998,2739
45.86866399999994,22.805143999999984,2633
44.24866399999995,23.45314399999998,3068
43.92466399999995,27.989143999999985,65535
46.84066399999993,27.34114399999998,3151
45.22066399999994,23.45314399999998,2940
45.54466399999994,23.45314399999998,2743
45.54466399999994,24.101143999999977,2690
45.22066399999994,24.101143999999977,2914
44.89666399999994,24.101143999999977,2984
46.19266399999994,22.15714399999998,2870
46.516663999999935,22.15714399999998,2836
45.22066399999994,21.50914399999997,3110
45.54466399999994,21.50914399999997,2958
45.54466399999994,20.86114399999998,2982
46.516663999999935,27.989143999999985,3101
46.19266399999994,27.989143999999985,3086
45.54466399999994,25.397143999999983,2804
45.22066399999994,25.397143999999983,2814
45.22066399999994,26.04514399999998,2870
47.81266399999993,24.101143999999977,2866
47.48866399999993,26.04514399999998,2956
47.81266399999993,26.04514399999998,2978
46.19266399999994,23.45314399999998,2537
45.86866399999994,23.45314399999998,2586
44.24866399999995,26.04514399999998,2864
45.22066399999994,27.989143999999985,3076
45.86866399999994,24.74914399999998,2699
46.516663999999935,25.397143999999983,2891
46.84066399999993,25.397143999999983,2774
46.19266399999994,26.04514399999998,2862
45.86866399999994,26.04514399999998,2827
43.92466399999995,23.45314399999998,3298
44.89666399999994,25.397143999999983,2925
46.19266399999994,20.86114399999998,2859
47.81266399999993,25.397143999999983,2990
44.572663999999946,22.805143999999984,3303
44.572663999999946,22.15714399999998,3445
46.516663999999935,23.45314399999998,2676
45.86866399999994,25.397143999999983,2753
44.24866399999995,27.34114399999998,3691
45.22066399999994,24.74914399999998,3016
45.54466399999994,22.805143999999984,2706
45.22066399999994,28.63714399999997,3136
44.89666399999994,28.63714399999997,3075
47.81266399999993,23.45314399999998,2923
46.19266399999994,24.74914399999998,2785
46.19266399999994,25.397143999999983,2809
43.92466399999995,24.101143999999977,3261
43.92466399999995,24.74914399999998,3274
47.81266399999993,26.69314399999997,3205
47.48866399999993,24.101143999999977,2798
46.84066399999993,26.04514399999998,3606
46.19266399999994,22.805143999999984,2930
47.48866399999993,27.34114399999998,3158
46.19266399999994,20.213143999999986,65535
45.54466399999994,26.04514399999998,2962
44.24866399999995,26.69314399999997,2880
45.86866399999994,27.989143999999985,3134
47.81266399999993,5.957143999999991,7066
