51.56399999999999,-0.4100000000000028,65535
51.887999999999984,-0.4100000000000028,65535
50.91599999999999,-1.7060000000000022,65535
51.23999999999999,-1.0580000000000025,65535
51.56399999999999,-1.0580000000000025,65535
51.23999999999999,-1.7060000000000022,65535
51.56399999999999,0.2379999999999968,65535
47.16466399999993,9.845143999999989,969
47.48866399999993,9.845143999999989,957
48.136663999999925,14.381143999999988,1120
47.81266399999993,13.085143999999987,1046
47.16466399999993,11.141143999999988,1130
47.48866399999993,11.789143999999988,1157
48.136663999999925,16.325143999999987,1511
47.48866399999993,12.437143999999988,1074
48.136663999999925,15.677143999999986,1535
47.16466399999993,10.493143999999988,1176
47.16466399999993,9.197143999999987,941
48.136663999999925,13.733143999999989,1079
48.136663999999925,15.029143999999986,1473
47.81266399999993,16.973143999999984,1555
48.46066399999992,14.381143999999988,1238
47.48866399999993,13.085143999999987,1075
47.16466399999993,13.085143999999987,1090
47.48866399999993,14.381143999999988,1231
47.48866399999993,13.733143999999989,1253
47.48866399999993,15.029143999999986,1347
46.516663999999935,13.733143999999989,1187
46.84066399999993,13.733143999999989,1156
46.84066399999993,13.085143999999987,1141
48.78466399999992,14.381143999999988,65535
47.16466399999993,15.677143999999986,1429
46.516663999999935,14.381143999999988,1194
46.84066399999993,14.381143999999988,1161
47.16466399999993,14.381143999999988,1397
46.516663999999935,15.029143999999986,1207
47.81266399999993,16.325143999999987,1505
47.16466399999993,15.029143999999986,1403
47.81266399999993,15.677143999999986,1515
47.48866399999993,15.677143999999986,1394
46.516663999999935,13.085143999999987,1454
46.84066399999993,12.437143999999988,1199
48.136663999999925,11.789143999999988,1015
47.81266399999993,12.437143999999988,1034
46.84066399999993,15.677143999999986,1425
46.516663999999935,15.677143999999986,1300
46.84066399999993,16.325143999999987,1352
47.81266399999993,14.381143999999988,1165
48.78466399999992,16.973143999999984,1492
48.136663999999925,16.973143999999984,1521
48.46066399999992,13.733143999999989,1119
47.81266399999993,13.733143999999989,1154
50.08066399999991,8.54914399999999,922
48.46066399999992,9.845143999999989,980
51.05266399999991,7.25314399999999,893
51.37666399999991,7.25314399999999,897
51.37666399999991,6.60514399999999,893
48.46066399999992,16.325143999999987,1518
48.46066399999992,16.973143999999984,1507
48.78466399999992,16.325143999999987,1552
48.46066399999992,15.677143999999986,1540
48.78466399999992,15.677143999999986,1547
47.48866399999993,16.325143999999987,1435
47.16466399999993,16.325143999999987,1484
46.19266399999994,14.381143999999988,1252
45.86866399999994,15.677143999999986,1304
43.60066399999995,16.325143999999987,1720
45.54466399999994,14.381143999999988,1366
45.54466399999994,13.733143999999989,1389
48.136663999999925,13.085143999999987,1040
48.46066399999992,11.141143999999988,1005
48.136663999999925,11.141143999999988,1013
48.46066399999992,7.90114399999999,975
49.10866399999992,8.54914399999999,962
48.78466399999992,2.0691439999999925,356
49.10866399999992,7.25314399999999,978
52.0246639999999,7.90114399999999,910
47.16466399999993,11.789143999999988,1152
49.43266399999992,11.141143999999988,973
53.64466399999989,9.845143999999989,1041
50.72866399999991,4.013143999999992,760
51.05266399999991,11.141143999999988,1159
47.48866399999993,11.141143999999988,1028
46.84066399999993,11.789143999999988,1622
46.516663999999935,11.141143999999988,1591
45.54466399999994,11.141143999999988,1485
46.19266399999994,11.141143999999988,1557
45.86866399999994,11.141143999999988,1541
44.572663999999946,11.141143999999988,1332
43.92466399999995,12.437143999999988,3965
45.54466399999994,12.437143999999988,1572
45.54466399999994,11.789143999999988,1535
48.78466399999992,15.029143999999986,1572
47.81266399999993,15.029143999999986,1457
47.81266399999993,11.141143999999988,1019
50.40466399999991,18.917143999999983,1369
52.3486639999999,20.86114399999998,1547
54.616663999999886,18.269143999999983,1467
54.29266399999989,18.917143999999983,1477
49.10866399999992,14.381143999999988,65535
50.08066399999991,14.381143999999988,1278
48.78466399999992,13.733143999999989,1736
52.6726639999999,13.085143999999987,1132
52.3486639999999,13.085143999999987,1133
53.96866399999989,12.437143999999988,1116
54.29266399999989,12.437143999999988,1117
47.48866399999993,8.54914399999999,927
47.81266399999993,17.621143999999987,1579
47.48866399999993,18.917143999999983,1640
47.48866399999993,20.86114399999998,1801
46.84066399999993,23.45314399999998,3358
44.572663999999946,26.04514399999998,3864
47.48866399999993,21.50914399999997,1835
47.81266399999993,21.50914399999997,1868
48.46066399999992,22.15714399999998,1930
47.48866399999993,16.973143999999984,65535
49.10866399999992,16.325143999999987,1447
49.75666399999992,18.269143999999983,1590
46.19266399999994,13.085143999999987,2303
41.98066399999996,12.437143999999988,2565
43.60066399999995,10.493143999999988,2726
45.54466399999994,9.197143999999987,996
47.81266399999993,22.805143999999984,4099
49.75666399999992,22.805143999999984,1634
50.72866399999991,3.365143999999992,460
51.05266399999991,4.013143999999992,755
50.72866399999991,4.661143999999991,771
51.05266399999991,4.661143999999991,777
51.05266399999991,3.365143999999992,750
51.05266399999991,2.717143999999992,842
50.40466399999991,4.661143999999991,826
50.72866399999991,2.717143999999992,834
50.40466399999991,4.013143999999992,811
51.05266399999991,5.309143999999991,844
50.72866399999991,5.309143999999991,837
51.37666399999991,3.365143999999992,778
51.37666399999991,4.661143999999991,803
50.72866399999991,5.957143999999991,866
50.40466399999991,5.957143999999991,873
50.40466399999991,3.365143999999992,800
50.40466399999991,5.309143999999991,842
50.08066399999991,5.309143999999991,851
49.75666399999992,5.309143999999991,868
49.75666399999992,5.957143999999991,890
51.37666399999991,5.309143999999991,922
51.700663999999904,4.661143999999991,878
50.08066399999991,4.013143999999992,820
50.08066399999991,5.957143999999991,921
50.08066399999991,4.661143999999991,858
49.43266399999992,5.309143999999991,897
49.43266399999992,5.957143999999991,910
52.0246639999999,4.661143999999991,950
52.3486639999999,4.661143999999991,979
50.72866399999991,15.029143999999986,1270
51.05266399999991,15.029143999999986,1211
51.05266399999991,13.733143999999989,1178
50.40466399999991,13.085143999999987,1127
49.10866399999992,7.90114399999999,973
48.78466399999992,7.90114399999999,969
50.40466399999991,7.90114399999999,923
50.08066399999991,7.90114399999999,941
49.75666399999992,7.90114399999999,952
49.43266399999992,7.90114399999999,951
49.75666399999992,8.54914399999999,939
49.43266399999992,8.54914399999999,944
49.43266399999992,9.197143999999987,951
49.10866399999992,9.197143999999987,966
47.48866399999993,7.90114399999999,920
47.81266399999993,7.90114399999999,947
48.136663999999925,7.90114399999999,969
48.136663999999925,9.845143999999989,965
47.81266399999993,9.197143999999987,950
47.81266399999993,8.54914399999999,942
47.81266399999993,9.845143999999989,956
54.940663999999884,9.197143999999987,1100
54.616663999999886,9.197143999999987,1080
54.29266399999989,9.197143999999987,1088
53.96866399999989,9.197143999999987,1085
53.64466399999989,9.197143999999987,1076
54.616663999999886,9.845143999999989,1072
54.29266399999989,9.845143999999989,1061
53.96866399999989,9.845143999999989,1047
53.64466399999989,10.493143999999988,1033
53.96866399999989,10.493143999999988,1064
53.96866399999989,11.141143999999988,1103
54.29266399999989,10.493143999999988,1083
53.32066399999989,10.493143999999988,1009
54.940663999999884,11.141143999999988,1129
52.6726639999999,13.733143999999989,1135
52.3486639999999,13.733143999999989,1136
52.3486639999999,14.381143999999988,1147
52.0246639999999,14.381143999999988,1160
52.0246639999999,11.789143999999988,1094
52.3486639999999,11.789143999999988,1089
52.3486639999999,12.437143999999988,1118
52.0246639999999,15.029143999999986,1183
51.700663999999904,14.381143999999988,1177
52.0246639999999,13.733143999999989,1165
51.700663999999904,13.733143999999989,1180
52.6726639999999,12.437143999999988,1148
53.32066399999989,11.789143999999988,1054
53.96866399999989,11.789143999999988,1108
53.64466399999989,11.789143999999988,1066
53.64466399999989,11.141143999999988,1062
53.32066399999989,11.141143999999988,1035
52.996663999999896,11.789143999999988,1112
52.996663999999896,12.437143999999988,1164
52.996663999999896,13.733143999999989,1140
53.64466399999989,13.733143999999989,1216
53.96866399999989,13.733143999999989,1249
54.29266399999989,13.085143999999987,1235
53.96866399999989,13.085143999999987,1199
53.32066399999989,13.733143999999989,1187
52.0246639999999,13.085143999999987,1151
51.700663999999904,13.085143999999987,1186
52.996663999999896,14.381143999999988,1158
52.0246639999999,12.437143999999988,1133
51.700663999999904,12.437143999999988,1128
51.37666399999991,11.789143999999988,1114
51.37666399999991,12.437143999999988,1130
52.6726639999999,11.789143999999988,1083
53.64466399999989,13.085143999999987,1183
53.32066399999989,13.085143999999987,1182
52.996663999999896,13.085143999999987,1158
53.64466399999989,12.437143999999988,1122
51.37666399999991,13.733143999999989,1165
53.32066399999989,12.437143999999988,1195
52.6726639999999,14.381143999999988,1153
51.37666399999991,13.085143999999987,1163
53.32066399999989,14.381143999999988,1184
52.3486639999999,15.029143999999986,1191
52.0246639999999,15.677143999999986,1191
51.700663999999904,15.029143999999986,1271
51.05266399999991,16.325143999999987,1272
51.05266399999991,16.973143999999984,1261
51.700663999999904,15.677143999999986,1208
51.37666399999991,15.677143999999986,1291
51.37666399999991,16.325143999999987,1266
50.72866399999991,13.085143999999987,1136
50.72866399999991,12.437143999999988,1126
51.05266399999991,13.085143999999987,1152
51.05266399999991,14.381143999999988,1181
50.40466399999991,12.437143999999988,1104
50.40466399999991,11.789143999999988,1067
50.08066399999991,12.437143999999988,1036
50.72866399999991,11.789143999999988,1136
51.05266399999991,12.437143999999988,1131
50.72866399999991,14.381143999999988,1324
51.37666399999991,14.381143999999988,1214
50.72866399999991,13.733143999999989,1197
50.40466399999991,14.381143999999988,1280
51.37666399999991,15.029143999999986,1245
55.26466399999988,9.197143999999987,1788
55.58866399999988,8.54914399999999,3082
55.91266399999988,8.54914399999999,6559
56.23666399999988,9.197143999999987,6567
56.23666399999988,10.493143999999988,6520
56.23666399999988,9.845143999999989,6507
55.91266399999988,9.845143999999989,6445
56.56066399999988,9.197143999999987,6577
56.56066399999988,8.54914399999999,6620
51.05266399999991,6.60514399999999,890
51.700663999999904,7.90114399999999,906
50.72866399999991,6.60514399999999,876
51.700663999999904,7.25314399999999,903
50.72866399999991,7.25314399999999,896
52.0246639999999,7.25314399999999,931
52.3486639999999,7.90114399999999,927
51.05266399999991,5.957143999999991,873
50.40466399999991,7.25314399999999,916
51.700663999999904,6.60514399999999,907
51.700663999999904,5.957143999999991,908
52.3486639999999,9.197143999999987,961
51.700663999999904,8.54914399999999,914
52.0246639999999,8.54914399999999,945
52.3486639999999,8.54914399999999,946
51.37666399999991,7.90114399999999,900
52.3486639999999,7.25314399999999,938
51.37666399999991,5.957143999999991,941
50.72866399999991,7.90114399999999,901
51.37666399999991,9.197143999999987,936
51.700663999999904,9.197143999999987,926
50.40466399999991,6.60514399999999,886
51.05266399999991,7.90114399999999,907
51.37666399999991,8.54914399999999,941
52.0246639999999,5.957143999999991,951
52.3486639999999,6.60514399999999,956
51.05266399999991,8.54914399999999,944
52.0246639999999,9.197143999999987,944
52.6726639999999,9.197143999999987,990
52.0246639999999,9.845143999999989,958
51.700663999999904,9.845143999999989,957
51.37666399999991,9.845143999999989,1006
50.72866399999991,8.54914399999999,913
51.05266399999991,9.845143999999989,1011
50.72866399999991,9.845143999999989,976
50.40466399999991,9.845143999999989,990
51.05266399999991,9.197143999999987,939
50.40466399999991,9.197143999999987,958
50.08066399999991,9.197143999999987,927
51.05266399999991,10.493143999999988,1182
50.40466399999991,8.54914399999999,917
50.72866399999991,9.197143999999987,918
49.75666399999992,9.197143999999987,966
52.996663999999896,9.197143999999987,997
52.3486639999999,9.845143999999989,953
52.996663999999896,8.54914399999999,986
52.996663999999896,7.90114399999999,1013
53.32066399999989,7.90114399999999,1063
53.32066399999989,7.25314399999999,1093
53.64466399999989,7.25314399999999,1138
52.996663999999896,10.493143999999988,983
52.6726639999999,10.493143999999988,976
52.6726639999999,9.845143999999989,960
53.32066399999989,9.845143999999989,1039
53.32066399999989,9.197143999999987,1047
53.64466399999989,8.54914399999999,1033
53.32066399999989,8.54914399999999,989
52.6726639999999,8.54914399999999,963
52.0246639999999,10.493143999999988,993
52.0246639999999,11.141143999999988,1067
51.700663999999904,11.141143999999988,1065
52.6726639999999,7.25314399999999,1723
52.996663999999896,7.25314399999999,1698
52.6726639999999,7.90114399999999,967
53.64466399999989,7.90114399999999,1091
52.996663999999896,11.141143999999988,1044
52.6726639999999,11.141143999999988,1094
52.3486639999999,10.493143999999988,1021
52.996663999999896,9.845143999999989,996
51.700663999999904,10.493143999999988,1038
51.37666399999991,10.493143999999988,1027
51.700663999999904,11.789143999999988,1101
52.3486639999999,11.141143999999988,1049
51.37666399999991,11.141143999999988,1184
51.05266399999991,11.789143999999988,1131
49.10866399999992,11.141143999999988,981
48.78466399999992,11.141143999999988,1001
48.46066399999992,11.789143999999988,1022
49.43266399999992,11.789143999999988,978
50.08066399999991,11.789143999999988,1007
49.75666399999992,12.437143999999988,1015
49.10866399999992,11.789143999999988,1003
48.78466399999992,12.437143999999988,1044
48.46066399999992,12.437143999999988,1066
49.10866399999992,12.437143999999988,1026
48.78466399999992,13.085143999999987,1071
48.136663999999925,12.437143999999988,1023
47.81266399999993,11.789143999999988,1029
48.136663999999925,10.493143999999988,1006
47.81266399999993,10.493143999999988,1040
48.78466399999992,10.493143999999988,1004
47.48866399999993,10.493143999999988,1023
48.46066399999992,10.493143999999988,997
49.43266399999992,13.085143999999987,1058
48.46066399999992,13.085143999999987,1091
49.43266399999992,10.493143999999988,973
49.75666399999992,9.845143999999989,956
49.75666399999992,10.493143999999988,966
50.40466399999991,11.141143999999988,1016
50.08066399999991,11.141143999999988,970
50.72866399999991,11.141143999999988,1149
49.75666399999992,11.141143999999988,972
48.78466399999992,11.789143999999988,1018
50.40466399999991,10.493143999999988,1063
50.08066399999991,9.845143999999989,935
50.08066399999991,10.493143999999988,953
49.43266399999992,12.437143999999988,1007
49.75666399999992,11.789143999999988,991
49.10866399999992,13.085143999999987,1113
50.72866399999991,10.493143999999988,1175
49.10866399999992,10.493143999999988,998
48.78466399999992,9.845143999999989,985
48.46066399999992,8.54914399999999,986
48.46066399999992,9.197143999999987,994
48.78466399999992,9.197143999999987,970
48.78466399999992,8.54914399999999,986
50.08066399999991,7.25314399999999,933
49.75666399999992,6.60514399999999,951
49.43266399999992,6.60514399999999,952
49.10866399999992,6.60514399999999,958
49.43266399999992,7.25314399999999,969
49.75666399999992,7.25314399999999,972
49.10866399999992,5.957143999999991,929
48.78466399999992,7.25314399999999,956
50.08066399999991,6.60514399999999,948
47.48866399999993,9.197143999999987,945
48.136663999999925,8.54914399999999,974
48.136663999999925,9.197143999999987,980
47.81266399999993,7.25314399999999,924
49.43266399999992,9.845143999999989,976
49.10866399999992,9.845143999999989,982
53.64466399999989,14.381143999999988,1223
50.08066399999991,13.085143999999987,1355
49.75666399999992,13.085143999999987,1355
45.86866399999994,9.197143999999987,1017
46.19266399999994,9.197143999999987,1004
46.516663999999935,8.54914399999999,950
46.516663999999935,9.197143999999987,999
46.19266399999994,8.54914399999999,1016
47.16466399999993,8.54914399999999,931
45.86866399999994,4.661143999999991,410
46.84066399999993,9.845143999999989,972
45.22066399999994,5.957143999999991,450
45.22066399999994,5.309143999999991,402
45.86866399999994,5.957143999999991,838
45.54466399999994,5.957143999999991,815
44.89666399999994,4.661143999999991,339
44.89666399999994,5.309143999999991,390
44.572663999999946,4.661143999999991,859
44.24866399999995,4.661143999999991,828
43.92466399999995,4.661143999999991,293
46.19266399999994,7.25314399999999,911
48.78466399999992,5.957143999999991,936
48.136663999999925,6.60514399999999,971
48.46066399999992,6.60514399999999,951
48.78466399999992,6.60514399999999,944
47.16466399999993,7.90114399999999,921
48.136663999999925,7.25314399999999,962
48.46066399999992,7.25314399999999,971
46.516663999999935,6.60514399999999,889
46.84066399999993,6.60514399999999,897
46.84066399999993,7.25314399999999,913
46.516663999999935,5.957143999999991,883
46.19266399999994,5.957143999999991,869
46.84066399999993,8.54914399999999,924
46.84066399999993,7.90114399999999,916
45.86866399999994,5.309143999999991,423
46.19266399999994,6.60514399999999,859
45.86866399999994,6.60514399999999,900
47.48866399999993,6.60514399999999,901
47.48866399999993,7.25314399999999,908
47.16466399999993,7.25314399999999,921
49.10866399999992,4.013143999999992,901
49.75666399999992,4.661143999999991,897
49.43266399999992,4.661143999999991,893
49.10866399999992,5.309143999999991,1005
46.19266399999994,4.661143999999991,835
46.84066399999993,9.197143999999987,954
46.19266399999994,5.309143999999991,443
46.516663999999935,5.309143999999991,829
45.54466399999994,6.60514399999999,895
45.54466399999994,5.309143999999991,470
43.60066399999995,4.013143999999992,251
43.60066399999995,3.365143999999992,219
42.62866399999996,2.717143999999992,265
43.276663999999954,2.717143999999992,200
45.54466399999994,4.661143999999991,379
45.22066399999994,4.661143999999991,349
47.16466399999993,5.309143999999991,875
47.16466399999993,5.957143999999991,890
46.19266399999994,7.90114399999999,940
49.75666399999992,2.717143999999992,821
49.10866399999992,2.717143999999992,406
48.78466399999992,2.717143999999992,895
45.86866399999994,3.365143999999992,910
46.84066399999993,3.365143999999992,919
46.516663999999935,3.365143999999992,932
46.19266399999994,3.365143999999992,932
47.16466399999993,6.60514399999999,949
49.10866399999992,3.365143999999992,872
45.54466399999994,4.013143999999992,797
46.516663999999935,7.25314399999999,912
47.16466399999993,4.661143999999991,874
46.84066399999993,4.661143999999991,869
46.516663999999935,4.661143999999991,861
46.84066399999993,5.957143999999991,873
47.81266399999993,3.365143999999992,492
47.48866399999993,4.013143999999992,889
48.136663999999925,4.013143999999992,462
47.81266399999993,4.013143999999992,864
47.48866399999993,4.661143999999991,898
47.16466399999993,3.365143999999992,905
46.84066399999993,4.013143999999992,920
48.46066399999992,5.957143999999991,949
46.19266399999994,2.717143999999992,1000
47.16466399999993,2.0691439999999925,882
46.516663999999935,2.717143999999992,1103
46.84066399999993,2.717143999999992,951
46.84066399999993,2.0691439999999925,862
47.16466399999993,2.717143999999992,895
44.572663999999946,5.309143999999991,466
44.572663999999946,5.957143999999991,860
44.89666399999994,6.60514399999999,927
44.572663999999946,6.60514399999999,930
43.60066399999995,5.309143999999991,333
43.92466399999995,7.25314399999999,921
43.60066399999995,6.60514399999999,912
43.276663999999954,6.60514399999999,899
43.276663999999954,5.957143999999991,843
45.86866399999994,8.54914399999999,1011
45.54466399999994,8.54914399999999,995
48.136663999999925,3.365143999999992,458
48.46066399999992,3.365143999999992,432
48.46066399999992,2.717143999999992,793
47.48866399999993,5.309143999999991,909
46.516663999999935,9.845143999999989,1004
46.84066399999993,10.493143999999988,2291
47.81266399999993,5.309143999999991,860
45.22066399999994,6.60514399999999,922
46.19266399999994,4.013143999999992,505
45.86866399999994,4.013143999999992,470
45.22066399999994,4.013143999999992,843
44.89666399999994,4.013143999999992,921
46.84066399999993,5.309143999999991,856
48.136663999999925,-1.8188560000000056,960
48.136663999999925,0.1251439999999934,912
48.136663999999925,-0.5228560000000062,921
47.48866399999993,-0.5228560000000062,912
47.16466399999993,-1.8188560000000056,965
47.48866399999993,0.7731439999999932,636
47.16466399999993,0.1251439999999934,871
45.86866399999994,7.25314399999999,919
48.136663999999925,5.309143999999991,838
49.10866399999992,4.661143999999991,937
48.46066399999992,4.013143999999992,441
48.136663999999925,4.661143999999991,801
47.81266399999993,6.60514399999999,911
47.48866399999993,5.957143999999991,949
48.136663999999925,5.957143999999991,1406
45.86866399999994,7.90114399999999,967
46.516663999999935,7.90114399999999,919
49.43266399999992,3.365143999999992,863
49.43266399999992,4.013143999999992,880
48.136663999999925,2.717143999999992,956
47.81266399999993,2.717143999999992,985
47.48866399999993,2.717143999999992,961
50.40466399999991,2.717143999999992,431
48.46066399999992,-4.410856000000004,1105
48.46066399999992,-3.7628560000000046,1086
48.46066399999992,-3.114856000000005,1063
48.46066399999992,-2.4668560000000053,1027
47.48866399999993,1.4211439999999929,571
47.16466399999993,1.4211439999999929,863
46.516663999999935,4.013143999999992,925
43.60066399999995,4.661143999999991,316
44.89666399999994,2.717143999999992,292
45.22066399999994,2.717143999999992,844
45.54466399999994,3.365143999999992,894
45.22066399999994,3.365143999999992,883
47.48866399999993,3.365143999999992,1066
46.19266399999994,9.845143999999989,1114
47.81266399999993,2.0691439999999925,495
47.48866399999993,2.0691439999999925,864
45.86866399999994,2.717143999999992,917
44.89666399999994,5.957143999999991,851
45.22066399999994,1.4211439999999929,220
44.89666399999994,1.4211439999999929,174
44.89666399999994,2.0691439999999925,260
43.276663999999954,2.0691439999999925,150
43.60066399999995,1.4211439999999929,111
48.78466399999992,4.661143999999991,895
48.78466399999992,5.309143999999991,915
46.19266399999994,2.0691439999999925,901
45.86866399999994,1.4211439999999929,315
46.19266399999994,1.4211439999999929,808
44.572663999999946,4.013143999999992,1053
44.89666399999994,3.365143999999992,994
43.92466399999995,4.013143999999992,332
44.24866399999995,4.013143999999992,349
44.89666399999994,-0.5228560000000062,212
45.54466399999994,0.1251439999999934,320
46.516663999999935,0.1251439999999934,882
44.572663999999946,2.0691439999999925,136
49.75666399999992,4.013143999999992,891
43.92466399999995,3.365143999999992,936
43.92466399999995,2.717143999999992,967
44.24866399999995,3.365143999999992,992
44.572663999999946,3.365143999999992,1037
49.10866399999992,0.1251439999999934,919
49.43266399999992,0.7731439999999932,899
49.43266399999992,-1.8188560000000056,1041
49.10866399999992,-1.170856000000006,991
49.10866399999992,-0.5228560000000062,929
49.10866399999992,0.7731439999999932,946
49.10866399999992,1.4211439999999929,874
47.81266399999993,-1.8188560000000056,1021
47.81266399999993,-2.4668560000000053,1048
47.81266399999993,-3.114856000000005,1074
48.136663999999925,-3.7628560000000046,1111
44.572663999999946,9.197143999999987,1016
44.89666399999994,8.54914399999999,989
45.22066399999994,9.197143999999987,985
45.54466399999994,10.493143999999988,1027
44.572663999999946,10.493143999999988,1318
44.89666399999994,10.493143999999988,1093
44.89666399999994,9.845143999999989,1061
48.46066399999992,5.309143999999991,876
50.91599999999999,-1.0580000000000025,65535
51.23999999999999,-0.4100000000000028,65535
50.91599999999999,-0.4100000000000028,65535
51.23999999999999,-2.354000000000002,65535
51.56399999999999,-2.354000000000002,65535
51.56399999999999,-3.0020000000000016,65535
50.91599999999999,-2.354000000000002,65535
53.50799999999997,-3.0020000000000016,65535
53.183999999999976,-2.354000000000002,65535
53.183999999999976,-3.0020000000000016,65535
52.85999999999998,-2.354000000000002,65535
52.21199999999998,-1.0580000000000025,65535
51.887999999999984,-1.0580000000000025,65535
52.53599999999998,-1.0580000000000025,65535
52.53599999999998,-1.7060000000000022,65535
52.85999999999998,-1.7060000000000022,65535
53.50799999999997,-2.354000000000002,65535
52.85999999999998,-1.0580000000000025,65535
52.53599999999998,1.5339999999999965,65535
52.53599999999998,0.8859999999999966,65535
52.53599999999998,0.2379999999999968,65535
52.53599999999998,-0.4100000000000028,65535
53.50799999999997,-1.7060000000000022,65535
53.183999999999976,-1.7060000000000022,65535
53.183999999999976,-1.0580000000000025,65535
52.85999999999998,-0.4100000000000028,65535
51.887999999999984,-2.354000000000002,65535
52.21199999999998,-2.354000000000002,65535
55.77599999999996,-2.354000000000002,65535
53.83199999999997,-1.0580000000000025,65535
53.83199999999997,-1.7060000000000022,65535
55.127999999999965,-1.7060000000000022,65535
54.80399999999997,-1.7060000000000022,65535
54.47999999999997,-1.7060000000000022,65535
54.15599999999997,-1.0580000000000025,65535
52.21199999999998,-1.7060000000000022,65535
53.50799999999997,-1.0580000000000025,65535
55.77599999999996,-3.0020000000000016,65535
55.45199999999996,-1.7060000000000022,65535
57.07199999999995,-2.354000000000002,65535
56.74799999999996,-3.0020000000000016,65535
56.42399999999996,-3.0020000000000016,65535
56.09999999999996,-3.650000000000001,65535
50.91599999999999,-3.0020000000000016,65535
50.91599999999999,-3.650000000000001,65535
50.59199999999999,-3.650000000000001,65535
50.59199999999999,-4.298000000000001,65535
51.23999999999999,-3.0020000000000016,65535
50.268,-4.946000000000001,65535
55.77599999999996,-3.650000000000001,65535
55.77599999999996,-4.298000000000001,65535
52.21199999999998,-0.4100000000000028,65535
52.53599999999998,-2.354000000000002,65535
51.56399999999999,-1.7060000000000022,65535
51.56399999999999,-3.650000000000001,65535
51.887999999999984,-4.298000000000001,65535
51.56399999999999,-4.298000000000001,65535
51.887999999999984,-1.7060000000000022,65535
52.21199999999998,-3.0020000000000016,65535
51.23999999999999,0.2379999999999968,65535
50.91599999999999,0.2379999999999968,65535
52.21199999999998,0.2379999999999968,65535
53.83199999999997,-3.0020000000000016,65535
54.15599999999997,-3.0020000000000016,65535
54.47999999999997,-3.0020000000000016,65535
55.127999999999965,-3.650000000000001,65535
54.80399999999997,-3.0020000000000016,65535
53.83199999999997,-2.354000000000002,65535
54.15599999999997,-0.4100000000000028,65535
54.47999999999997,-1.0580000000000025,65535
53.83199999999997,-0.4100000000000028,65535
53.183999999999976,-3.650000000000001,65535
53.183999999999976,-4.298000000000001,65535
52.85999999999998,-3.0020000000000016,65535
52.53599999999998,-3.0020000000000016,65535
51.887999999999984,-3.0020000000000016,65535
51.23999999999999,0.8859999999999966,65535
51.887999999999984,0.2379999999999968,65535
52.21199999999998,0.8859999999999966,65535
51.887999999999984,-4.946000000000001,65535
52.53599999999998,-3.650000000000001,65535
52.21199999999998,-4.298000000000001,65535
53.183999999999976,-0.4100000000000028,65535
51.23999999999999,-3.650000000000001,65535
51.887999999999984,-3.650000000000001,65535
52.21199999999998,-3.650000000000001,65535
51.56399999999999,0.8859999999999966,65535
51.887999999999984,0.8859999999999966,65535
52.85999999999998,0.8859999999999966,65535
53.50799999999997,-0.4100000000000028,65535
56.09999999999996,-4.298000000000001,65535
56.74799999999996,-4.946000000000001,65535
56.74799999999996,-4.298000000000001,65535
56.42399999999996,-4.946000000000001,65535
56.42399999999996,-4.298000000000001,65535
56.09999999999996,-4.946000000000001,65535
57.39599999999995,-4.298000000000001,65535
57.39599999999995,-3.0020000000000016,65535
57.39599999999995,-3.650000000000001,65535
56.42399999999996,-3.650000000000001,65535
57.07199999999995,-3.650000000000001,65535
57.07199999999995,-4.298000000000001,65535
56.74799999999996,-3.650000000000001,65535
59.15266399999986,27.34114399999998,65535
59.47666399999986,26.69314399999997,65535
59.47666399999986,26.04514399999998,65535
59.15266399999986,26.04514399999998,65535
59.15266399999986,24.74914399999998,65535
59.15266399999986,25.397143999999983,65535
59.47666399999986,25.397143999999983,65535
58.50466399999986,26.69314399999997,65535
58.82866399999986,26.69314399999997,65535
57.85666399999987,26.04514399999998,65535
58.180663999999865,26.04514399999998,65535
58.180663999999865,26.69314399999997,65535
58.82866399999986,26.04514399999998,65535
58.50466399999986,25.397143999999983,65535
58.82866399999986,25.397143999999983,65535
58.82866399999986,24.74914399999998,65535
58.180663999999865,27.34114399999998,65535
57.85666399999987,27.34114399999998,65535
63.68866399999983,27.34114399999998,7077
60.124663999999854,24.74914399999998,6613
60.44866399999985,24.74914399999998,6582
60.44866399999985,25.397143999999983,6594
60.77266399999985,25.397143999999983,6800
61.09666399999985,26.04514399999998,6842
60.77266399999985,26.04514399999998,6849
60.77266399999985,26.69314399999997,6868
61.09666399999985,25.397143999999983,6833
61.09666399999985,26.69314399999997,7198
61.420663999999846,26.69314399999997,7220
61.74466399999984,27.34114399999998,7244
62.06866399999984,27.34114399999998,7269
62.39266399999984,27.34114399999998,7293
62.71666399999984,27.34114399999998,7257
64.01266399999983,27.34114399999998,7425
63.36466399999984,27.34114399999998,7145
63.04066399999984,27.34114399999998,7185
63.04066399999984,27.989143999999985,7200
64.33666399999983,27.989143999999985,7472
64.33666399999983,27.34114399999998,7548
64.66066399999983,27.34114399999998,7564
64.66066399999983,26.69314399999997,7575
64.98466399999982,25.397143999999983,5959
64.66066399999983,26.04514399999998,7605
64.98466399999982,26.04514399999998,7627
66.28066399999982,25.397143999999983,6036
65.95666399999982,24.74914399999998,5872
65.63266399999982,24.74914399999998,5876
65.63266399999982,25.397143999999983,5918
65.30866399999982,25.397143999999983,5939
66.60466399999981,25.397143999999983,6096
64.01266399999983,24.74914399999998,6096
64.01266399999983,24.101143999999977,6131
64.01266399999983,23.45314399999998,6155
63.68866399999983,23.45314399999998,6167
63.68866399999983,22.805143999999984,6192
63.68866399999983,26.04514399999998,6784
63.68866399999983,25.397143999999983,6750
63.68866399999983,26.69314399999997,7044
60.44866399999985,26.69314399999997,7036
64.01266399999983,27.989143999999985,7463
62.71666399999984,22.805143999999984,6314
62.39266399999984,22.805143999999984,6346
62.06866399999984,22.805143999999984,6375
62.06866399999984,23.45314399999998,6391
61.74466399999984,23.45314399999998,6403
61.420663999999846,23.45314399999998,6451
61.09666399999985,23.45314399999998,6492
61.09666399999985,24.101143999999977,6499
61.09666399999985,24.74914399999998,6533
60.77266399999985,24.74914399999998,6549
63.04066399999984,21.50914399999997,65535
63.04066399999984,22.15714399999998,65535
63.04066399999984,22.805143999999984,6278
62.39266399999984,26.04514399999998,7441
62.06866399999984,25.397143999999983,7490
61.74466399999984,25.397143999999983,7558
61.74466399999984,24.74914399999998,7595
61.74466399999984,24.101143999999977,7630
61.420663999999846,24.101143999999977,6974
62.39266399999984,26.69314399999997,7412
64.66066399999983,25.397143999999983,6028
64.66066399999983,24.74914399999998,6046
64.33666399999983,24.74914399999998,6057
63.36466399999984,22.805143999999984,6217
67.25266399999981,24.101143999999977,8186
66.92866399999981,24.101143999999977,8150
66.60466399999981,23.45314399999998,8119
66.28066399999982,23.45314399999998,8101
66.28066399999982,24.101143999999977,8083
65.95666399999982,24.101143999999977,3999
60.124663999999854,24.101143999999977,6806
60.124663999999854,23.45314399999998,6843
60.44866399999985,22.805143999999984,65535
60.77266399999985,27.34114399999998,6926
61.09666399999985,27.989143999999985,6958
61.09666399999985,28.63714399999997,7004
61.420663999999846,29.28514399999997,8691
61.74466399999984,29.933143999999977,8749
62.06866399999984,29.933143999999977,8855
62.39266399999984,29.933143999999977,8893
62.71666399999984,29.933143999999977,8926
61.420663999999846,22.805143999999984,6487
61.420663999999846,22.15714399999998,6566
61.09666399999985,22.15714399999998,6554
61.420663999999846,21.50914399999997,6699
62.39266399999984,27.989143999999985,65535
62.06866399999984,27.989143999999985,65535
61.420663999999846,27.34114399999998,65535
63.04066399999984,29.933143999999977,65535
63.68866399999983,29.28514399999997,65535
63.36466399999984,29.28514399999997,65535
63.36466399999984,29.933143999999977,65535
60.44866399999985,27.34114399999998,65535
61.74466399999984,29.28514399999997,65535
62.39266399999984,30.58114399999998,65535
62.71666399999984,31.229143999999977,65535
62.71666399999984,29.28514399999997,65535
63.04066399999984,28.63714399999997,65535
66.60466399999981,26.04514399999998,6106
66.60466399999981,26.69314399999997,6142
66.60466399999981,27.34114399999998,6165
62.71666399999984,26.04514399999998,7326
62.71666399999984,25.397143999999983,7295
63.04066399999984,25.397143999999983,7115
63.36466399999984,25.397143999999983,7078
62.71666399999984,23.45314399999998,7320
62.39266399999984,24.101143999999977,65535
62.71666399999984,22.15714399999998,65535
62.39266399999984,22.15714399999998,65535
62.39266399999984,21.50914399999997,65535
61.09666399999985,21.50914399999997,8377
60.77266399999985,22.805143999999984,7803
60.44866399999985,22.15714399999998,7851
60.77266399999985,23.45314399999998,7785
60.77266399999985,21.50914399999997,7953
60.77266399999985,22.15714399999998,7906
60.124663999999854,22.805143999999984,8119
60.44866399999985,24.101143999999977,6792
62.06866399999984,24.74914399999998,65535
50.72866399999991,16.325143999999987,1323
50.40466399999991,16.973143999999984,1332
50.72866399999991,16.973143999999984,1284
50.40466399999991,16.325143999999987,1345
50.08066399999991,16.973143999999984,1389
50.08066399999991,16.325143999999987,1353
51.700663999999904,16.973143999999984,1253
51.37666399999991,16.973143999999984,1259
51.05266399999991,15.677143999999986,1342
50.72866399999991,15.677143999999986,1330
51.05266399999991,17.621143999999987,1300
51.37666399999991,17.621143999999987,1381
51.700663999999904,17.621143999999987,1303
51.700663999999904,16.325143999999987,1239
52.0246639999999,22.15714399999998,1557
52.0246639999999,21.50914399999997,1552
52.3486639999999,21.50914399999997,1554
52.0246639999999,20.86114399999998,1527
51.700663999999904,20.86114399999998,1545
51.37666399999991,21.50914399999997,1563
51.37666399999991,20.86114399999998,1579
51.05266399999991,20.86114399999998,1588
52.6726639999999,23.45314399999998,1629
52.3486639999999,22.805143999999984,1567
52.3486639999999,20.213143999999986,1519
52.0246639999999,20.213143999999986,1488
52.3486639999999,19.565143999999982,1444
52.6726639999999,19.565143999999982,1527
51.700663999999904,21.50914399999997,1557
51.700663999999904,22.15714399999998,1591
52.6726639999999,21.50914399999997,1563
52.996663999999896,21.50914399999997,1590
52.6726639999999,20.86114399999998,1585
52.6726639999999,22.15714399999998,1621
52.6726639999999,20.213143999999986,1586
52.996663999999896,19.565143999999982,1579
52.996663999999896,20.86114399999998,1618
52.996663999999896,20.213143999999986,1622
53.32066399999989,20.213143999999986,1534
51.37666399999991,20.213143999999986,1574
52.3486639999999,16.973143999999984,1276
52.0246639999999,16.973143999999984,1280
52.0246639999999,16.325143999999987,1253
52.0246639999999,17.621143999999987,1330
52.6726639999999,16.973143999999984,1295
52.996663999999896,16.973143999999984,1345
52.3486639999999,16.325143999999987,1240
52.3486639999999,15.677143999999986,1206
51.700663999999904,18.269143999999983,1363
52.6726639999999,17.621143999999987,1300
52.3486639999999,17.621143999999987,1286
52.6726639999999,18.269143999999983,1374
52.3486639999999,18.269143999999983,1357
52.3486639999999,18.917143999999983,1404
52.996663999999896,17.621143999999987,1398
51.700663999999904,19.565143999999982,1444
51.700663999999904,18.917143999999983,1411
51.37666399999991,18.269143999999983,1366
58.82866399999986,9.197143999999987,2768
58.180663999999865,7.90114399999999,2861
58.50466399999986,8.54914399999999,2812
63.36466399999984,10.493143999999988,2983
63.36466399999984,11.141143999999988,2990
63.36466399999984,11.789143999999988,3025
63.68866399999983,11.789143999999988,3053
64.33666399999983,12.437143999999988,3454
64.66066399999983,12.437143999999988,3949
65.63266399999982,13.085143999999987,3606
65.95666399999982,13.085143999999987,3641
66.28066399999982,14.381143999999988,3711
65.95666399999982,13.733143999999989,3780
66.28066399999982,13.733143999999989,3689
65.30866399999982,13.085143999999987,3907
64.98466399999982,13.085143999999987,3541
64.01266399999983,11.789143999999988,3084
63.68866399999983,11.141143999999988,3021
59.800663999999855,10.493143999999988,2564
59.800663999999855,11.141143999999988,2547
60.124663999999854,11.141143999999988,2562
60.44866399999985,11.141143999999988,2575
60.124663999999854,11.789143999999988,2588
60.77266399999985,7.25314399999999,2824
60.77266399999985,6.60514399999999,2870
59.15266399999986,9.197143999999987,2650
59.47666399999986,9.197143999999987,2671
59.800663999999855,9.845143999999989,2566
59.47666399999986,11.141143999999988,2511
61.09666399999985,10.493143999999988,2685
60.77266399999985,10.493143999999988,2655
60.77266399999985,11.141143999999988,2610
62.06866399999984,9.197143999999987,3010
61.74466399999984,9.845143999999989,2956
61.420663999999846,9.845143999999989,2933
59.15266399999986,9.845143999999989,2630
59.47666399999986,9.845143999999989,2606
58.82866399999986,5.957143999999991,3045
58.180663999999865,7.25314399999999,2917
58.50466399999986,7.25314399999999,2950
58.50466399999986,6.60514399999999,2955
58.50466399999986,5.957143999999991,3013
58.82866399999986,8.54914399999999,2798
60.44866399999985,7.25314399999999,2798
60.44866399999985,7.90114399999999,2759
60.124663999999854,10.493143999999988,2596
60.44866399999985,9.197143999999987,2708
60.77266399999985,9.197143999999987,2720
60.77266399999985,8.54914399999999,2739
60.124663999999854,9.845143999999989,2854
60.44866399999985,10.493143999999988,2641
63.04066399999984,10.493143999999988,2934
62.06866399999984,9.845143999999989,3035
62.39266399999984,9.845143999999989,3043
62.71666399999984,9.845143999999989,3067
59.47666399999986,14.381143999999988,2517
59.47666399999986,13.733143999999989,2501
59.47666399999986,13.085143999999987,2477
59.800663999999855,12.437143999999988,2546
59.15266399999986,11.141143999999988,2475
59.15266399999986,14.381143999999988,2501
58.82866399999986,11.789143999999988,2455
58.50466399999986,12.437143999999988,2385
58.180663999999865,12.437143999999988,2378
57.85666399999987,11.789143999999988,2329
62.71666399999984,7.90114399999999,3096
62.39266399999984,7.90114399999999,3053
62.06866399999984,8.54914399999999,3028
60.44866399999985,5.309143999999991,2944
60.44866399999985,5.957143999999991,2911
60.77266399999985,5.957143999999991,2900
62.39266399999984,11.141143999999988,2831
62.06866399999984,10.493143999999988,2786
61.74466399999984,11.141143999999988,2759
61.420663999999846,11.141143999999988,2713
61.09666399999985,11.141143999999988,2696
60.77266399999985,11.789143999999988,2673
63.04066399999984,11.141143999999988,2912
62.71666399999984,11.141143999999988,2855
62.39266399999984,10.493143999999988,2813
67.25266399999981,15.677143999999986,3830
67.25266399999981,15.029143999999986,3868
67.25266399999981,14.381143999999988,3896
66.92866399999981,15.029143999999986,3819
66.60466399999981,15.677143999999986,3797
64.01266399999983,11.141143999999988,3068
66.60466399999981,15.029143999999986,3860
54.29266399999989,18.269143999999983,1470
54.616663999999886,17.621143999999987,1428
53.96866399999989,18.269143999999983,1458
43.92466399999995,1.4211439999999929,102
44.24866399999995,0.7731439999999932,146
44.572663999999946,0.1251439999999934,226
46.84066399999993,1.4211439999999929,846
44.572663999999946,1.4211439999999929,147
44.24866399999995,1.4211439999999929,113
45.54466399999994,1.4211439999999929,260
46.516663999999935,1.4211439999999929,894
42.30466399999996,2.717143999999992,327
44.24866399999995,2.717143999999992,0
44.572663999999946,2.717143999999992,124
43.92466399999995,2.0691439999999925,93
42.30466399999996,2.0691439999999925,330
42.62866399999996,2.0691439999999925,209
42.62866399999996,1.4211439999999929,217
42.95266399999996,1.4211439999999929,146
43.276663999999954,1.4211439999999929,127
46.516663999999935,-1.170856000000006,898
46.19266399999994,-1.170856000000006,371
45.86866399999994,-0.5228560000000062,340
45.54466399999994,-0.5228560000000062,296
48.46066399999992,1.4211439999999929,415
41.332663999999966,2.0691439999999925,1234
41.98066399999996,2.717143999999992,1193
48.46066399999992,-1.8188560000000056,970
47.81266399999993,0.7731439999999932,874
46.84066399999993,0.7731439999999932,893
44.572663999999946,-1.170856000000006,236
43.60066399999995,-1.170856000000006,328
43.276663999999954,-1.8188560000000056,375
43.276663999999954,0.1251439999999934,285
42.95266399999996,0.1251439999999934,257
43.276663999999954,-0.5228560000000062,323
43.60066399999995,-0.5228560000000062,362
47.81266399999993,-3.7628560000000046,1096
47.48866399999993,-2.4668560000000053,974
47.81266399999993,-0.5228560000000062,929
46.516663999999935,-1.8188560000000056,977
48.136663999999925,-1.170856000000006,932
47.48866399999993,-1.170856000000006,956
45.22066399999994,8.54914399999999,973
45.22066399999994,7.90114399999999,961
46.19266399999994,-0.5228560000000062,839
46.516663999999935,-0.5228560000000062,874
48.78466399999992,-3.114856000000005,1104
50.72866399999991,2.0691439999999925,856
50.40466399999991,2.0691439999999925,860
40.36066399999997,-3.7628560000000046,1425
41.65666399999997,-1.170856000000006,1342
41.332663999999966,1.4211439999999929,1280
43.276663999999954,13.733143999999989,3910
42.95266399999996,13.733143999999989,3932
41.65666399999997,15.029143999999986,4016
40.68466399999997,17.621143999999987,4178
43.60066399999995,13.085143999999987,3903
41.65666399999997,12.437143999999988,2569
41.65666399999997,13.085143999999987,2588
41.98066399999996,13.085143999999987,2638
41.65666399999997,13.733143999999989,2640
41.332663999999966,13.733143999999989,2632
41.332663999999966,14.381143999999988,2789
41.00866399999997,14.381143999999988,2695
41.332663999999966,13.085143999999987,2614
41.00866399999997,15.029143999999986,2895
41.98066399999996,13.733143999999989,2837
42.30466399999996,14.381143999999988,2976
42.30466399999996,12.437143999999988,2577
42.62866399999996,12.437143999999988,2756
42.95266399999996,12.437143999999988,3041
42.30466399999996,11.789143999999988,2586
42.95266399999996,11.789143999999988,2796
42.62866399999996,11.789143999999988,2787
43.276663999999954,11.789143999999988,2850
42.95266399999996,13.085143999999987,3804
42.30466399999996,13.085143999999987,2863
43.276663999999954,13.085143999999987,3852
43.276663999999954,12.437143999999988,3859
42.62866399999996,11.141143999999988,2632
42.95266399999996,11.141143999999988,2675
42.95266399999996,10.493143999999988,2693
44.572663999999946,8.54914399999999,1010
44.89666399999994,7.90114399999999,967
44.89666399999994,9.197143999999987,1032
44.24866399999995,7.90114399999999,1043
44.572663999999946,7.90114399999999,1001
43.92466399999995,7.90114399999999,963
44.24866399999995,7.25314399999999,1061
44.89666399999994,7.25314399999999,978
45.22066399999994,7.25314399999999,947
45.54466399999994,7.90114399999999,977
44.572663999999946,7.25314399999999,1042
52.996663999999896,22.805143999999984,1720
52.996663999999896,23.45314399999998,1741
51.37666399999991,22.15714399999998,1705
51.37666399999991,22.805143999999984,1759
50.08066399999991,20.213143999999986,1466
50.72866399999991,20.213143999999986,1507
50.40466399999991,20.213143999999986,1446
50.08066399999991,20.86114399999998,1533
50.08066399999991,21.50914399999997,1564
50.08066399999991,22.15714399999998,1601
50.08066399999991,22.805143999999984,1608
53.96866399999989,22.805143999999984,2356
53.64466399999989,23.45314399999998,2312
53.32066399999989,23.45314399999998,2267
50.40466399999991,19.565143999999982,1380
50.08066399999991,18.917143999999983,1410
50.08066399999991,18.269143999999983,1450
52.0246639999999,22.805143999999984,1652
52.0246639999999,23.45314399999998,1690
51.37666399999991,19.565143999999982,1474
51.05266399999991,19.565143999999982,1393
50.72866399999991,18.917143999999983,1371
50.72866399999991,19.565143999999982,1463
49.75666399999992,18.917143999999983,1512
50.40466399999991,18.269143999999983,1358
53.64466399999989,19.565143999999982,1481
53.96866399999989,18.917143999999983,1500
53.64466399999989,18.917143999999983,1479
53.64466399999989,20.213143999999986,1529
52.996663999999896,18.917143999999983,1427
52.996663999999896,18.269143999999983,1407
53.32066399999989,18.917143999999983,1431
50.72866399999991,17.621143999999987,1307
50.72866399999991,18.269143999999983,1344
52.6726639999999,16.325143999999987,1336
52.996663999999896,16.325143999999987,1336
52.996663999999896,15.677143999999986,1299
53.32066399999989,15.677143999999986,1294
53.32066399999989,15.029143999999986,1219
53.64466399999989,15.029143999999986,1269
53.96866399999989,15.029143999999986,1251
52.6726639999999,18.917143999999983,1446
53.32066399999989,16.325143999999987,1417
52.6726639999999,15.029143999999986,1244
51.05266399999991,22.805143999999984,1789
51.05266399999991,23.45314399999998,1816
50.72866399999991,22.15714399999998,1742
50.40466399999991,22.15714399999998,1766
51.05266399999991,22.15714399999998,1756
54.616663999999886,16.973143999999984,1412
54.29266399999989,16.325143999999987,1345
53.96866399999989,15.677143999999986,1260
50.72866399999991,21.50914399999997,1731
50.40466399999991,21.50914399999997,1612
50.40466399999991,17.621143999999987,1328
53.32066399999989,22.805143999999984,2237
53.64466399999989,22.15714399999998,1678
54.29266399999989,16.973143999999984,1381
50.72866399999991,20.86114399999998,1550
51.700663999999904,22.805143999999984,1788
51.05266399999991,21.50914399999997,1615
50.08066399999991,19.565143999999982,1443
52.0246639999999,18.917143999999983,8008
52.0246639999999,19.565143999999982,8001
53.64466399999989,18.269143999999983,1452
51.700663999999904,20.213143999999986,1614
53.32066399999989,19.565143999999982,1472
50.72866399999991,23.45314399999998,2635
50.72866399999991,22.805143999999984,2604
49.43266399999992,20.213143999999986,1703
49.75666399999992,21.50914399999997,1575
49.75666399999992,22.15714399999998,2262
49.43266399999992,22.15714399999998,2274
51.05266399999991,18.917143999999983,1376
51.05266399999991,18.269143999999983,1313
53.32066399999989,16.973143999999984,1354
53.64466399999989,16.973143999999984,1358
49.75666399999992,20.86114399999998,1586
50.40466399999991,22.805143999999984,8090
53.64466399999989,16.325143999999987,1317
53.96866399999989,20.86114399999998,1633
54.29266399999989,20.86114399999998,1679
53.96866399999989,21.50914399999997,1784
53.64466399999989,15.677143999999986,1272
53.96866399999989,20.213143999999986,1561
53.96866399999989,19.565143999999982,1524
54.29266399999989,19.565143999999982,1534
53.96866399999989,16.325143999999987,1308
53.64466399999989,17.621143999999987,1404
53.96866399999989,22.15714399999998,1698
53.64466399999989,21.50914399999997,1634
53.64466399999989,20.86114399999998,1586
52.6726639999999,15.677143999999986,1294
51.05266399999991,20.213143999999986,1835
54.940663999999884,24.101143999999977,3201
54.616663999999886,23.45314399999998,3145
54.29266399999989,23.45314399999998,3008
53.64466399999989,22.805143999999984,2260
53.96866399999989,16.973143999999984,1513
50.40466399999991,20.86114399999998,2266
53.32066399999989,18.269143999999983,1425
49.75666399999992,19.565143999999982,1459
50.40466399999991,23.45314399999998,1885
49.75666399999992,20.213143999999986,1681
49.43266399999992,19.565143999999982,1605
49.43266399999992,20.86114399999998,1644
53.96866399999989,17.621143999999987,2283
42.30466399999996,-1.8188560000000056,8319
41.98066399999996,-1.8188560000000056,8302
41.65666399999997,0.7731439999999932,8306
42.62866399999996,-1.8188560000000056,8434
42.95266399999996,-1.8188560000000056,8463
42.62866399999996,-3.114856000000005,8557
42.95266399999996,-2.4668560000000053,8535
42.62866399999996,-7.650856000000003,8899
42.30466399999996,-7.650856000000003,8959
42.30466399999996,-8.946856000000002,9095
42.30466399999996,-8.298856000000002,9069
41.98066399999996,-8.298856000000002,9058
42.30466399999996,-7.002856000000003,8841
42.62866399999996,-6.354856000000003,8783
42.30466399999996,-6.354856000000003,8738
42.62866399999996,-5.706856000000004,8238
41.98066399999996,-4.410856000000004,8192
42.30466399999996,-3.7628560000000046,8583
40.03666399999997,-0.5228560000000062,8286
39.38866399999998,-0.5228560000000062,8334
41.00866399999997,0.7731439999999932,8434
40.68466399999997,0.7731439999999932,8466
40.36066399999997,0.1251439999999934,8544
39.712663999999975,-0.5228560000000062,8443
38.41666399999998,-0.5228560000000062,8455
39.06466399999998,-0.5228560000000062,8577
38.74066399999998,-1.170856000000006,8463
41.332663999999966,0.7731439999999932,8494
41.65666399999997,2.717143999999992,8094
41.65666399999997,2.0691439999999925,8117
41.332663999999966,0.1251439999999934,8452
41.332663999999966,-0.5228560000000062,8396
41.65666399999997,-4.410856000000004,8166
40.03666399999997,-2.4668560000000053,8404
41.00866399999997,-4.410856000000004,8287
43.276663999999954,-5.706856000000004,8368
39.38866399999998,-1.170856000000006,8429
38.09266399999999,-1.170856000000006,8842
38.74066399999998,-0.5228560000000062,8605
37.76866399999999,-1.170856000000006,8907
39.06466399999998,-1.8188560000000056,8427
39.38866399999998,-3.114856000000005,8327
39.38866399999998,-2.4668560000000053,8383
39.06466399999998,-2.4668560000000053,8410
39.06466399999998,-3.114856000000005,8331
39.06466399999998,-3.7628560000000046,8305
38.74066399999998,-3.7628560000000046,8384
40.03666399999997,-3.7628560000000046,8283
40.03666399999997,-3.114856000000005,8483
40.03666399999997,-1.8188560000000056,8564
39.712663999999975,-1.8188560000000056,8529
39.712663999999975,-1.170856000000006,8465
40.36066399999997,-1.170856000000006,8484
40.68466399999997,-1.170856000000006,8462
41.00866399999997,-1.170856000000006,8450
41.332663999999966,-1.170856000000006,8290
43.276663999999954,-8.298856000000002,9059
42.95266399999996,-8.298856000000002,9027
41.65666399999997,-5.706856000000004,65535
41.98066399999996,-7.002856000000003,65535
41.98066399999996,-6.354856000000003,65535
41.332663999999966,-5.058856000000004,8405
43.276663999999954,-3.7628560000000046,8840
42.95266399999996,-4.410856000000004,8774
42.62866399999996,-4.410856000000004,8764
42.30466399999996,-4.410856000000004,8723
41.00866399999997,-5.706856000000004,8343
41.332663999999966,-1.8188560000000056,8236
40.68466399999997,-3.114856000000005,8190
41.00866399999997,-3.114856000000005,8241
41.00866399999997,-2.4668560000000053,8264
41.332663999999966,-2.4668560000000053,8317
40.68466399999997,-4.410856000000004,8227
40.36066399999997,-4.410856000000004,8311
40.68466399999997,-3.7628560000000046,8219
40.36066399999997,-3.114856000000005,8197
41.65666399999997,-2.4668560000000053,8334
38.09266399999999,-3.7628560000000046,8431
38.74066399999998,-3.114856000000005,8375
37.76866399999999,-3.7628560000000046,8488
39.712663999999975,-3.114856000000005,8319
38.41666399999998,-3.7628560000000046,8396
40.03666399999997,-4.410856000000004,65535
40.03666399999997,-5.058856000000004,65535
39.38866399999998,-6.354856000000003,65535
39.38866399999998,-7.002856000000003,65535
42.95266399999996,-3.114856000000005,8968
41.98066399999996,-1.170856000000006,8331
42.30466399999996,-2.4668560000000053,8372
41.65666399999997,-0.5228560000000062,8429
41.98066399999996,-0.5228560000000062,8266
41.65666399999997,0.1251439999999934,8293
41.98066399999996,0.1251439999999934,8315
37.76866399999999,-5.058856000000004,8367
36.79666399999999,-4.410856000000004,8426
38.74066399999998,-4.410856000000004,8323
37.12066399999999,-4.410856000000004,8400
37.44466399999999,-5.058856000000004,8924
37.44466399999999,-7.002856000000003,65535
37.44466399999999,-6.354856000000003,65535
37.44466399999999,-5.706856000000004,8600
39.712663999999975,-3.7628560000000046,8393
42.62866399999996,-8.946856000000002,65535
42.30466399999996,-5.706856000000004,8745
42.30466399999996,-5.058856000000004,8830
42.95266399999996,-5.706856000000004,8270
41.00866399999997,-5.058856000000004,8311
40.68466399999997,-5.058856000000004,8285
41.65666399999997,-5.058856000000004,65535
41.65666399999997,-6.354856000000003,65535
36.79666399999999,-6.354856000000003,65535
37.12066399999999,-5.706856000000004,8768
37.76866399999999,-5.706856000000004,8567
38.09266399999999,-4.410856000000004,8702
37.12066399999999,-5.058856000000004,8722
36.79666399999999,-5.058856000000004,8680
37.76866399999999,-4.410856000000004,65535
37.76866399999999,-7.002856000000003,65535
38.41666399999998,-6.354856000000003,65535
38.09266399999999,-6.354856000000003,65535
48.78466399999992,1.4211439999999929,945
56.23666399999988,8.54914399999999,6610
55.58866399999988,9.197143999999987,6415
55.91266399999988,9.197143999999987,6556
55.26466399999988,10.493143999999988,2034
55.91266399999988,12.437143999999988,2169
55.58866399999988,11.789143999999988,6255
55.58866399999988,11.141143999999988,6296
55.26466399999988,11.789143999999988,6288
55.58866399999988,10.493143999999988,6411
55.58866399999988,13.085143999999987,2126
56.88466399999987,9.845143999999989,6562
57.20866399999987,9.845143999999989,6597
56.56066399999988,9.845143999999989,6534
56.88466399999987,8.54914399999999,6649
54.940663999999884,9.845143999999989,7756
54.940663999999884,11.789143999999988,6512
55.91266399999988,13.085143999999987,2184
56.23666399999988,13.733143999999989,2228
55.91266399999988,13.733143999999989,2231
56.23666399999988,14.381143999999988,2251
56.23666399999988,15.029143999999986,2292
56.23666399999988,15.677143999999986,2347
56.56066399999988,14.381143999999988,2308
56.88466399999987,14.381143999999988,2278
56.23666399999988,13.085143999999987,2176
56.56066399999988,13.085143999999987,2256
56.88466399999987,12.437143999999988,2293
57.20866399999987,12.437143999999988,2309
57.53266399999987,12.437143999999988,2324
56.88466399999987,15.029143999999986,2304
56.56066399999988,15.677143999999986,2364
56.88466399999987,15.677143999999986,2383
56.88466399999987,16.325143999999987,2398
55.91266399999988,11.789143999999988,6581
57.20866399999987,10.493143999999988,6784
49.43266399999992,1.4211439999999929,893
49.75666399999992,0.7731439999999932,921
49.75666399999992,2.0691439999999925,463
50.08066399999991,2.717143999999992,831
49.75666399999992,1.4211439999999929,874
47.81266399999993,1.4211439999999929,829
48.136663999999925,2.0691439999999925,873
48.46066399999992,2.0691439999999925,854
48.136663999999925,1.4211439999999929,843
48.78466399999992,0.1251439999999934,946
48.46066399999992,0.1251439999999934,925
47.81266399999993,0.1251439999999934,886
46.84066399999993,-0.5228560000000062,1122
47.16466399999993,0.7731439999999932,863
46.84066399999993,0.1251439999999934,909
46.84066399999993,-1.170856000000006,943
50.08066399999991,1.4211439999999929,864
50.08066399999991,2.0691439999999925,855
49.43266399999992,2.717143999999992,429
49.75666399999992,3.365143999999992,512
50.08066399999991,3.365143999999992,845
49.10866399999992,2.0691439999999925,876
49.43266399999992,2.0691439999999925,872
48.78466399999992,0.7731439999999932,996
48.78466399999992,-0.5228560000000062,1067
48.78466399999992,-1.170856000000006,1097
48.136663999999925,0.7731439999999932,907
48.46066399999992,0.7731439999999932,880
43.92466399999995,5.957143999999991,1027
44.24866399999995,5.957143999999991,1065
43.92466399999995,5.309143999999991,828
42.95266399999996,2.717143999999992,256
45.54466399999994,2.0691439999999925,377
45.22066399999994,2.0691439999999925,856
42.95266399999996,2.0691439999999925,198
42.95266399999996,0.7731439999999932,174
43.276663999999954,0.7731439999999932,147
46.19266399999994,0.7731439999999932,804
46.516663999999935,0.7731439999999932,846
45.86866399999994,0.1251439999999934,867
46.19266399999994,0.1251439999999934,889
47.81266399999993,-1.170856000000006,1323
48.136663999999925,-2.4668560000000053,1021
47.48866399999993,-1.8188560000000056,986
47.16466399999993,-1.170856000000006,967
47.16466399999993,-0.5228560000000062,949
46.84066399999993,-1.8188560000000056,1196
45.22066399999994,-0.5228560000000062,228
44.89666399999994,0.1251439999999934,243
45.22066399999994,0.7731439999999932,251
45.54466399999994,0.7731439999999932,281
45.86866399999994,0.7731439999999932,932
45.22066399999994,0.1251439999999934,873
44.89666399999994,0.7731439999999932,201
43.92466399999995,-0.5228560000000062,299
43.92466399999995,-1.170856000000006,288
44.24866399999995,-1.170856000000006,267
45.22066399999994,-1.170856000000006,258
44.572663999999946,-0.5228560000000062,233
44.24866399999995,0.1251439999999934,203
44.572663999999946,0.7731439999999932,233
43.276663999999954,-1.170856000000006,890
42.95266399999996,-0.5228560000000062,1092
44.24866399999995,2.0691439999999925,69
43.60066399999995,0.7731439999999932,133
43.60066399999995,2.0691439999999925,111
52.6726639999999,4.661143999999991,6601
52.6726639999999,5.309143999999991,6624
51.700663999999904,5.309143999999991,6569
52.0246639999999,5.309143999999991,6581
52.3486639999999,5.309143999999991,6597
51.37666399999991,4.013143999999992,6577
52.3486639999999,5.957143999999991,6591
52.0246639999999,6.60514399999999,6621
52.6726639999999,5.957143999999991,6608
52.996663999999896,5.957143999999991,6621
53.32066399999989,5.957143999999991,6615
52.996663999999896,6.60514399999999,6597
53.32066399999989,6.60514399999999,6589
52.6726639999999,6.60514399999999,6617
52.996663999999896,5.309143999999991,6636
59.15266399999986,24.101143999999977,65535
56.88466399999987,24.101143999999977,65535
56.88466399999987,23.45314399999998,65535
56.88466399999987,22.805143999999984,65535
57.20866399999987,24.74914399999998,65535
56.88466399999987,24.74914399999998,65535
56.56066399999988,24.74914399999998,65535
56.56066399999988,25.397143999999983,65535
56.56066399999988,24.101143999999977,65535
56.56066399999988,23.45314399999998,65535
56.56066399999988,26.04514399999998,65535
56.88466399999987,26.04514399999998,65535
57.20866399999987,25.397143999999983,65535
57.53266399999987,25.397143999999983,65535
56.23666399999988,26.04514399999998,65535
56.23666399999988,26.69314399999997,65535
55.91266399999988,26.69314399999997,65535
56.56066399999988,26.69314399999997,65535
56.56066399999988,27.34114399999998,65535
56.56066399999988,27.989143999999985,65535
56.23666399999988,27.989143999999985,65535
55.91266399999988,27.34114399999998,65535
56.56066399999988,22.805143999999984,65535
56.56066399999988,22.15714399999998,65535
56.56066399999988,21.50914399999997,65535
57.20866399999987,26.69314399999997,65535
39.06466399999998,-8.946856000000002,65535
38.41666399999998,-8.298856000000002,65535
45.86866399999994,11.789143999999988,1588
46.19266399999994,11.789143999999988,1575
46.19266399999994,10.493143999999988,1615
45.22066399999994,18.269143999999983,1452
45.22066399999994,18.917143999999983,1493
45.54466399999994,16.973143999999984,1355
45.22066399999994,17.621143999999987,1396
45.86866399999994,16.325143999999987,1316
45.54466399999994,18.917143999999983,1540
45.54466399999994,16.325143999999987,1330
45.54466399999994,18.269143999999983,1508
44.89666399999994,18.917143999999983,1690
46.19266399999994,16.973143999999984,1330
46.19266399999994,16.325143999999987,1321
45.86866399999994,16.973143999999984,1333
45.86866399999994,17.621143999999987,1428
46.19266399999994,15.677143999999986,1290
46.516663999999935,16.325143999999987,1316
45.54466399999994,15.677143999999986,1365
45.22066399999994,15.029143999999986,1401
45.54466399999994,15.029143999999986,1362
45.22066399999994,15.677143999999986,1426
44.572663999999946,15.677143999999986,1579
44.24866399999995,15.677143999999986,1600
43.92466399999995,16.325143999999987,1664
44.89666399999994,15.677143999999986,1543
45.54466399999994,17.621143999999987,1407
45.22066399999994,16.325143999999987,1385
46.516663999999935,16.973143999999984,1390
45.86866399999994,18.269143999999983,1600
43.92466399999995,15.677143999999986,1766
45.22066399999994,13.733143999999989,1410
47.48866399999993,19.565143999999982,1657
47.16466399999993,18.917143999999983,1658
47.81266399999993,18.917143999999983,1636
45.54466399999994,9.845143999999989,1039
45.22066399999994,9.845143999999989,1013
45.22066399999994,10.493143999999988,1038
45.86866399999994,9.845143999999989,1059
45.86866399999994,10.493143999999988,2358
48.78466399999992,21.50914399999997,2175
49.10866399999992,20.213143999999986,1849
49.10866399999992,18.917143999999983,1506
48.46066399999992,17.621143999999987,1547
49.43266399999992,17.621143999999987,1453
49.10866399999992,17.621143999999987,2272
48.136663999999925,18.269143999999983,1578
49.10866399999992,18.269143999999983,1527
49.43266399999992,18.269143999999983,1484
49.43266399999992,16.973143999999984,1431
49.75666399999992,16.973143999999984,1401
49.75666399999992,16.325143999999987,1379
50.08066399999991,15.677143999999986,1296
50.08066399999991,15.029143999999986,1283
49.43266399999992,18.917143999999983,1495
47.81266399999993,20.86114399999998,2395
48.136663999999925,20.86114399999998,2340
48.46066399999992,20.86114399999998,2244
48.46066399999992,21.50914399999997,2130
49.10866399999992,19.565143999999982,1540
48.136663999999925,17.621143999999987,1526
48.78466399999992,22.15714399999998,2350
48.78466399999992,20.86114399999998,2399
49.10866399999992,20.86114399999998,1887
48.78466399999992,18.269143999999983,1538
48.78466399999992,17.621143999999987,1589
49.10866399999992,21.50914399999997,2191
48.78466399999992,20.213143999999986,2256
48.46066399999992,20.213143999999986,2206
48.136663999999925,19.565143999999982,2178
48.46066399999992,19.565143999999982,2140
48.46066399999992,18.917143999999983,1654
48.46066399999992,18.269143999999983,1583
48.78466399999992,19.565143999999982,1849
48.78466399999992,18.917143999999983,1648
47.81266399999993,18.269143999999983,1615
49.10866399999992,22.15714399999998,2300
49.43266399999992,21.50914399999997,2254
48.136663999999925,18.917143999999983,1659
48.136663999999925,20.213143999999986,2227
52.636,-8.018,65535
52.312,-7.370000000000001,65535
52.312,-8.018,65535
52.636,-8.666,65535
51.988,-8.666,65535
51.988,-8.018,65535
52.96,-8.666,65535
52.96,-6.074000000000002,65535
53.28399999999999,-6.722000000000001,65535
53.60799999999999,-6.722000000000001,65535
53.60799999999999,-7.370000000000001,65535
53.60799999999999,-8.018,65535
54.25599999999999,-8.666,65535
53.93199999999999,-8.666,65535
53.93199999999999,-8.018,65535
52.312,-6.722000000000001,65535
52.636,-6.722000000000001,65535
53.93199999999999,-6.722000000000001,65535
54.25599999999999,-6.074000000000002,65535
53.28399999999999,-7.370000000000001,65535
52.96,-7.370000000000001,65535
52.312,-8.666,65535
52.96,-8.018,65535
52.636,-7.370000000000001,65535
52.96,-6.722000000000001,65535
51.988,-9.314,65535
52.312,-9.314,65535
54.579999999999984,-6.722000000000001,65535
54.579999999999984,-6.074000000000002,65535
53.28399999999999,-8.018,65535
53.28399999999999,-8.666,65535
53.28399999999999,-9.314,65535
53.93199999999999,-9.314,65535
54.25599999999999,-9.314,65535
53.60799999999999,-8.666,65535
53.60799999999999,-9.314,65535
49.43266399999992,14.381143999999988,1295
49.75666399999992,14.381143999999988,1280
49.75666399999992,15.029143999999986,1295
49.75666399999992,13.733143999999989,1317
50.08066399999991,13.733143999999989,1309
49.75666399999992,15.677143999999986,1317
50.40466399999991,15.029143999999986,1296
49.43266399999992,13.733143999999989,1326
50.40466399999991,15.677143999999986,1307
50.40466399999991,13.733143999999989,1307
46.19266399999994,15.029143999999986,1273
45.86866399999994,15.029143999999986,1318
45.86866399999994,14.381143999999988,1295
46.19266399999994,13.733143999999989,1382
45.86866399999994,13.733143999999989,1468
58.50466399999986,13.733143999999989,2420
58.180663999999865,13.733143999999989,2406
58.180663999999865,13.085143999999987,2378
57.85666399999987,12.437143999999988,2342
60.44866399999985,15.677143999999986,2627
60.124663999999854,15.677143999999986,2561
60.124663999999854,16.325143999999987,2599
59.800663999999855,16.325143999999987,2527
59.800663999999855,17.621143999999987,2506
59.47666399999986,18.269143999999983,2488
61.74466399999984,16.973143999999984,2638
61.420663999999846,16.973143999999984,2611
60.77266399999985,16.973143999999984,2563
65.63266399999982,22.15714399999998,3742
65.95666399999982,21.50914399999997,3702
65.63266399999982,20.86114399999998,3673
64.98466399999982,20.213143999999986,3605
64.66066399999983,20.213143999999986,3583
64.33666399999983,19.565143999999982,3277
64.01266399999983,19.565143999999982,2990
63.68866399999983,20.213143999999986,2943
64.66066399999983,18.917143999999983,5654
59.15266399999986,16.325143999999987,2463
59.15266399999986,15.029143999999986,2467
59.15266399999986,17.621143999999987,2480
57.53266399999987,14.381143999999988,2304
57.53266399999987,15.029143999999986,2324
61.09666399999985,14.381143999999988,2731
60.77266399999985,15.029143999999986,2682
60.44866399999985,15.029143999999986,2668
58.180663999999865,15.029143999999986,2381
58.50466399999986,16.325143999999987,2415
58.50466399999986,15.677143999999986,2388
63.36466399999984,13.085143999999987,2975
63.04066399999984,14.381143999999988,2912
62.39266399999984,15.677143999999986,2834
63.36466399999984,13.733143999999989,2957
63.36466399999984,14.381143999999988,2929
62.71666399999984,15.677143999999986,2862
62.39266399999984,17.621143999999987,2696
59.800663999999855,15.677143999999986,2749
55.58866399999988,13.733143999999989,2258
57.20866399999987,14.381143999999988,2288
57.85666399999987,14.381143999999988,2336
58.82866399999986,16.973143999999984,2472
58.82866399999986,16.325143999999987,2450
59.15266399999986,18.269143999999983,2484
60.44866399999985,17.621143999999987,2539
59.15266399999986,12.437143999999988,2443
59.15266399999986,13.085143999999987,2457
58.82866399999986,12.437143999999988,2419
59.47666399999986,16.325143999999987,2509
58.82866399999986,14.381143999999988,2496
59.47666399999986,15.677143999999986,2527
63.36466399999984,18.917143999999983,2896
63.04066399999984,17.621143999999987,2851
62.71666399999984,17.621143999999987,2825
63.68866399999983,19.565143999999982,2929
62.39266399999984,16.973143999999984,2740
59.800663999999855,16.973143999999984,2515
59.47666399999986,17.621143999999987,2492
57.85666399999987,13.085143999999987,2368
57.53266399999987,13.085143999999987,2349
58.50466399999986,11.789143999999988,2390
57.85666399999987,15.029143999999986,2370
57.20866399999987,13.733143999999989,2294
57.53266399999987,13.733143999999989,2355
61.74466399999984,16.325143999999987,2734
61.420663999999846,16.325143999999987,2701
61.09666399999985,16.325143999999987,2690
61.09666399999985,16.973143999999984,2658
60.124663999999854,15.029143999999986,2836
66.60466399999981,20.86114399999998,3777
67.25266399999981,20.86114399999998,3845
67.90066399999981,20.213143999999986,3915
67.57666399999981,20.213143999999986,4540
59.800663999999855,15.029143999999986,2556
58.50466399999986,15.029143999999986,2398
59.47666399999986,15.029143999999986,2541
60.44866399999985,16.325143999999987,2627
59.15266399999986,15.677143999999986,2485
57.85666399999987,13.733143999999989,2396
58.82866399999986,13.733143999999989,2443
58.50466399999986,13.085143999999987,2428
57.20866399999987,13.085143999999987,2325
56.88466399999987,13.085143999999987,2299
58.180663999999865,11.789143999999988,2361
62.06866399999984,16.973143999999984,2729
65.95666399999982,23.45314399999998,3977
59.800663999999855,14.381143999999988,5411
59.800663999999855,18.269143999999983,2497
63.04066399999984,15.029143999999986,2880
62.71666399999984,15.029143999999986,2870
62.39266399999984,16.325143999999987,2803
63.36466399999984,12.437143999999988,3008
68.5486639999998,17.621143999999987,4128
68.5486639999998,18.269143999999983,4061
68.5486639999998,18.917143999999983,4038
68.2246639999998,18.917143999999983,3994
59.800663999999855,13.085143999999987,2560
60.124663999999854,13.085143999999987,2599
59.47666399999986,16.973143999999984,2501
59.15266399999986,16.973143999999984,2493
56.56066399999988,13.733143999999989,2246
60.124663999999854,17.621143999999987,2516
57.85666399999987,16.325143999999987,2475
58.180663999999865,16.325143999999987,2437
58.180663999999865,15.677143999999986,2445
57.20866399999987,16.325143999999987,2487
57.53266399999987,15.677143999999986,2505
57.85666399999987,15.677143999999986,2476
44.89666399999994,23.45314399999998,3925
44.572663999999946,23.45314399999998,3995
44.89666399999994,24.74914399999998,3964
44.572663999999946,24.74914399999998,4040
44.572663999999946,24.101143999999977,3972
44.24866399999995,24.101143999999977,4001
47.48866399999993,25.397143999999983,3773
47.48866399999993,24.74914399999998,3713
47.16466399999993,24.74914399999998,3635
47.16466399999993,24.101143999999977,3537
47.48866399999993,22.15714399999998,3843
47.81266399999993,22.15714399999998,3887
47.16466399999993,22.15714399999998,3646
47.16466399999993,23.45314399999998,3698
47.16466399999993,22.805143999999984,3704
46.84066399999993,24.101143999999977,3618
45.86866399999994,27.34114399999998,4068
45.54466399999994,27.34114399999998,4030
45.54466399999994,27.989143999999985,4055
45.86866399999994,20.86114399999998,3830
45.86866399999994,21.50914399999997,3838
46.19266399999994,21.50914399999997,3774
46.19266399999994,27.34114399999998,4046
46.19266399999994,26.69314399999997,4146
46.516663999999935,26.69314399999997,3911
46.516663999999935,26.04514399999998,3807
47.48866399999993,22.805143999999984,3765
46.84066399999993,22.805143999999984,3578
45.54466399999994,22.15714399999998,3903
45.22066399999994,22.15714399999998,3965
44.89666399999994,22.15714399999998,4383
47.48866399999993,23.45314399999998,3731
46.516663999999935,24.101143999999977,3457
46.516663999999935,24.74914399999998,3671
45.86866399999994,24.101143999999977,3620
47.16466399999993,26.69314399999997,3989
47.16466399999993,27.34114399999998,4044
43.92466399999995,25.397143999999983,4003
44.24866399999995,24.74914399999998,3910
44.89666399999994,26.04514399999998,3823
44.89666399999994,26.69314399999997,3884
45.22066399999994,26.69314399999997,3901
45.22066399999994,27.34114399999998,3987
46.84066399999993,26.69314399999997,3950
47.48866399999993,26.69314399999997,3943
44.24866399999995,25.397143999999983,3898
43.92466399999995,26.04514399999998,4019
46.19266399999994,24.101143999999977,3665
44.572663999999946,25.397143999999983,3892
46.84066399999993,24.74914399999998,3678
46.516663999999935,21.50914399999997,3778
46.84066399999993,21.50914399999997,3785
44.572663999999946,26.69314399999997,3876
44.572663999999946,27.34114399999998,3886
44.89666399999994,27.34114399999998,3986
44.572663999999946,27.989143999999985,3923
44.24866399999995,27.989143999999985,3938
44.572663999999946,28.63714399999997,3958
45.86866399999994,22.15714399999998,3699
45.86866399999994,22.805143999999984,3593
44.24866399999995,23.45314399999998,4093
43.92466399999995,27.989143999999985,65535
46.84066399999993,27.34114399999998,4180
45.22066399999994,23.45314399999998,3900
45.54466399999994,23.45314399999998,3703
45.54466399999994,24.101143999999977,3650
45.22066399999994,24.101143999999977,3874
44.89666399999994,24.101143999999977,3944
46.19266399999994,22.15714399999998,3830
46.516663999999935,22.15714399999998,3796
45.22066399999994,21.50914399999997,4070
45.54466399999994,21.50914399999997,4107
45.54466399999994,20.86114399999998,4020
46.516663999999935,27.989143999999985,4152
46.19266399999994,27.989143999999985,4124
45.54466399999994,25.397143999999983,3780
45.22066399999994,25.397143999999983,3787
45.22066399999994,26.04514399999998,3830
47.81266399999993,24.101143999999977,3826
47.48866399999993,26.04514399999998,3916
47.81266399999993,26.04514399999998,3938
46.19266399999994,23.45314399999998,3497
45.86866399999994,23.45314399999998,3546
44.24866399999995,26.04514399999998,3878
45.22066399999994,27.989143999999985,4036
45.86866399999994,24.74914399999998,3659
46.516663999999935,25.397143999999983,3851
46.84066399999993,25.397143999999983,3734
46.19266399999994,26.04514399999998,3822
45.86866399999994,26.04514399999998,3787
43.92466399999995,23.45314399999998,4258
44.89666399999994,25.397143999999983,3917
46.19266399999994,20.86114399999998,3819
47.81266399999993,25.397143999999983,3950
44.572663999999946,22.805143999999984,4263
44.572663999999946,22.15714399999998,4405
46.516663999999935,23.45314399999998,3636
45.86866399999994,25.397143999999983,3713
44.24866399999995,27.34114399999998,4651
45.22066399999994,24.74914399999998,3976
45.54466399999994,22.805143999999984,3666
45.22066399999994,28.63714399999997,4096
44.89666399999994,28.63714399999997,4035
47.81266399999993,23.45314399999998,3899
46.19266399999994,24.74914399999998,3745
46.19266399999994,25.397143999999983,3769
43.92466399999995,24.101143999999977,4221
43.92466399999995,24.74914399999998,4234
47.81266399999993,26.69314399999997,4165
47.48866399999993,24.101143999999977,3758
46.84066399999993,26.04514399999998,4566
46.19266399999994,22.805143999999984,3890
47.48866399999993,27.34114399999998,4118
46.19266399999994,20.213143999999986,65535
45.54466399999994,26.04514399999998,3922
44.24866399999995,26.69314399999997,3932
45.86866399999994,27.989143999999985,4202
47.81266399999993,5.957143999999991,6586
