51.56399999999999,-0.4100000000000028,65535
51.887999999999984,-0.4100000000000028,65535
50.91599999999999,-1.7060000000000022,65535
51.23999999999999,-1.0580000000000025,65535
51.56399999999999,-1.0580000000000025,65535
51.23999999999999,-1.7060000000000022,65535
51.56399999999999,0.2379999999999968,65535
47.16466399999993,9.845143999999989,643
47.48866399999993,9.845143999999989,656
48.136663999999925,14.381143999999988,820
47.81266399999993,13.085143999999987,745
47.16466399999993,11.141143999999988,770
47.48866399999993,11.789143999999988,917
48.136663999999925,16.325143999999987,1365
47.48866399999993,12.437143999999988,778
48.136663999999925,15.677143999999986,1386
47.16466399999993,10.493143999999988,918
47.16466399999993,9.197143999999987,631
48.136663999999925,13.733143999999989,796
48.136663999999925,15.029143999999986,1303
47.81266399999993,16.973143999999984,1435
48.46066399999992,14.381143999999988,904
47.48866399999993,13.085143999999987,775
47.16466399999993,13.085143999999987,789
47.48866399999993,14.381143999999988,985
47.48866399999993,13.733143999999989,1404
47.48866399999993,15.029143999999986,1272
46.516663999999935,13.733143999999989,1574
46.84066399999993,13.733143999999989,1600
46.84066399999993,13.085143999999987,1605
48.78466399999992,14.381143999999988,65535
47.16466399999993,15.677143999999986,1363
46.516663999999935,14.381143999999988,1554
46.84066399999993,14.381143999999988,1495
47.16466399999993,14.381143999999988,1445
46.516663999999935,15.029143999999986,1567
47.81266399999993,16.325143999999987,1359
47.16466399999993,15.029143999999986,1336
47.81266399999993,15.677143999999986,1350
47.48866399999993,15.677143999999986,1327
46.516663999999935,13.085143999999987,1934
46.84066399999993,12.437143999999988,1619
48.136663999999925,11.789143999999988,699
47.81266399999993,12.437143999999988,723
46.84066399999993,15.677143999999986,1381
46.516663999999935,15.677143999999986,1621
46.84066399999993,16.325143999999987,1403
47.81266399999993,14.381143999999988,925
48.78466399999992,16.973143999999984,1431
48.136663999999925,16.973143999999984,1372
48.46066399999992,13.733143999999989,817
47.81266399999993,13.733143999999989,854
50.08066399999991,8.54914399999999,638
48.46066399999992,9.845143999999989,669
51.05266399999991,7.25314399999999,654
51.37666399999991,7.25314399999999,662
51.37666399999991,6.60514399999999,658
48.46066399999992,16.325143999999987,1368
48.46066399999992,16.973143999999984,1389
48.78466399999992,16.325143999999987,1374
48.46066399999992,15.677143999999986,1384
48.78466399999992,15.677143999999986,1381
47.48866399999993,16.325143999999987,1349
47.16466399999993,16.325143999999987,1412
46.19266399999994,14.381143999999988,1566
45.86866399999994,15.677143999999986,1603
43.60066399999995,16.325143999999987,2200
45.54466399999994,14.381143999999988,1679
45.54466399999994,13.733143999999989,1701
48.136663999999925,13.085143999999987,762
48.46066399999992,11.141143999999988,682
48.136663999999925,11.141143999999988,694
48.46066399999992,7.90114399999999,581
49.10866399999992,8.54914399999999,610
48.78466399999992,2.0691439999999925,474
49.10866399999992,7.25314399999999,614
52.0246639999999,7.90114399999999,675
47.16466399999993,11.789143999999988,792
49.43266399999992,11.141143999999988,723
53.64466399999989,9.845143999999989,825
50.72866399999991,4.013143999999992,600
51.05266399999991,11.141143999999988,825
47.48866399999993,11.141143999999988,728
46.84066399999993,11.789143999999988,2102
46.516663999999935,11.141143999999988,2071
45.54466399999994,11.141143999999988,1965
46.19266399999994,11.141143999999988,2037
45.86866399999994,11.141143999999988,2021
44.572663999999946,11.141143999999988,1812
43.92466399999995,12.437143999999988,4445
45.54466399999994,12.437143999999988,2052
45.54466399999994,11.789143999999988,2015
48.78466399999992,15.029143999999986,1452
47.81266399999993,15.029143999999986,1335
47.81266399999993,11.141143999999988,709
50.40466399999991,18.917143999999983,1388
52.3486639999999,20.86114399999998,1543
54.616663999999886,18.269143999999983,1511
54.29266399999989,18.917143999999983,1524
49.10866399999992,14.381143999999988,65535
50.08066399999991,14.381143999999988,1267
48.78466399999992,13.733143999999989,2216
52.6726639999999,13.085143999999987,910
52.3486639999999,13.085143999999987,908
53.96866399999989,12.437143999999988,1023
54.29266399999989,12.437143999999988,1252
47.48866399999993,8.54914399999999,626
47.81266399999993,17.621143999999987,1404
47.48866399999993,18.917143999999983,1580
47.48866399999993,20.86114399999998,1916
46.84066399999993,23.45314399999998,2398
44.572663999999946,26.04514399999998,2847
47.48866399999993,21.50914399999997,1952
47.81266399999993,21.50914399999997,2348
48.46066399999992,22.15714399999998,1777
47.48866399999993,16.973143999999984,65535
49.10866399999992,16.325143999999987,1447
49.75666399999992,18.269143999999983,1544
46.19266399999994,13.085143999999987,1650
41.98066399999996,12.437143999999988,3045
43.60066399999995,10.493143999999988,3206
45.54466399999994,9.197143999999987,636
47.81266399999993,22.805143999999984,2813
49.75666399999992,22.805143999999984,1616
50.72866399999991,3.365143999999992,588
51.05266399999991,4.013143999999992,604
50.72866399999991,4.661143999999991,602
51.05266399999991,4.661143999999991,604
51.05266399999991,3.365143999999992,605
51.05266399999991,2.717143999999992,610
50.40466399999991,4.661143999999991,602
50.72866399999991,2.717143999999992,587
50.40466399999991,4.013143999999992,597
51.05266399999991,5.309143999999991,616
50.72866399999991,5.309143999999991,614
51.37666399999991,3.365143999999992,637
51.37666399999991,4.661143999999991,609
50.72866399999991,5.957143999999991,629
50.40466399999991,5.957143999999991,638
50.40466399999991,3.365143999999992,590
50.40466399999991,5.309143999999991,611
50.08066399999991,5.309143999999991,617
49.75666399999992,5.309143999999991,620
49.75666399999992,5.957143999999991,592
51.37666399999991,5.309143999999991,625
51.700663999999904,4.661143999999991,638
50.08066399999991,4.013143999999992,608
50.08066399999991,5.957143999999991,681
50.08066399999991,4.661143999999991,605
49.43266399999992,5.309143999999991,615
49.43266399999992,5.957143999999991,581
52.0246639999999,4.661143999999991,710
52.3486639999999,4.661143999999991,739
50.72866399999991,15.029143999999986,966
51.05266399999991,15.029143999999986,940
51.05266399999991,13.733143999999989,915
50.40466399999991,13.085143999999987,958
49.10866399999992,7.90114399999999,609
48.78466399999992,7.90114399999999,598
50.40466399999991,7.90114399999999,648
50.08066399999991,7.90114399999999,641
49.75666399999992,7.90114399999999,636
49.43266399999992,7.90114399999999,628
49.75666399999992,8.54914399999999,624
49.43266399999992,8.54914399999999,619
49.43266399999992,9.197143999999987,632
49.10866399999992,9.197143999999987,624
47.48866399999993,7.90114399999999,620
47.81266399999993,7.90114399999999,622
48.136663999999925,7.90114399999999,601
48.136663999999925,9.845143999999989,659
47.81266399999993,9.197143999999987,644
47.81266399999993,8.54914399999999,639
47.81266399999993,9.845143999999989,647
54.940663999999884,9.197143999999987,899
54.616663999999886,9.197143999999987,868
54.29266399999989,9.197143999999987,853
53.96866399999989,9.197143999999987,837
53.64466399999989,9.197143999999987,815
54.616663999999886,9.845143999999989,878
54.29266399999989,9.845143999999989,886
53.96866399999989,9.845143999999989,838
53.64466399999989,10.493143999999988,832
53.96866399999989,10.493143999999988,885
53.96866399999989,11.141143999999988,916
54.29266399999989,10.493143999999988,929
53.32066399999989,10.493143999999988,812
54.940663999999884,11.141143999999988,1015
52.6726639999999,13.733143999999989,911
52.3486639999999,13.733143999999989,911
52.3486639999999,14.381143999999988,940
52.0246639999999,14.381143999999988,947
52.0246639999999,11.789143999999988,841
52.3486639999999,11.789143999999988,823
52.3486639999999,12.437143999999988,852
52.0246639999999,15.029143999999986,954
51.700663999999904,14.381143999999988,964
52.0246639999999,13.733143999999989,923
51.700663999999904,13.733143999999989,955
52.6726639999999,12.437143999999988,889
53.32066399999989,11.789143999999988,909
53.96866399999989,11.789143999999988,1014
53.64466399999989,11.789143999999988,973
53.64466399999989,11.141143999999988,942
53.32066399999989,11.141143999999988,933
52.996663999999896,11.789143999999988,872
52.996663999999896,12.437143999999988,924
52.996663999999896,13.733143999999989,920
53.64466399999989,13.733143999999989,984
53.96866399999989,13.733143999999989,1250
54.29266399999989,13.085143999999987,1293
53.96866399999989,13.085143999999987,1277
53.32066399999989,13.733143999999989,956
52.0246639999999,13.085143999999987,922
51.700663999999904,13.085143999999987,880
52.996663999999896,14.381143999999988,946
52.0246639999999,12.437143999999988,862
51.700663999999904,12.437143999999988,855
51.37666399999991,11.789143999999988,847
51.37666399999991,12.437143999999988,852
52.6726639999999,11.789143999999988,830
53.64466399999989,13.085143999999987,1281
53.32066399999989,13.085143999999987,942
52.996663999999896,13.085143999999987,926
53.64466399999989,12.437143999999988,977
51.37666399999991,13.733143999999989,900
53.32066399999989,12.437143999999988,1312
52.6726639999999,14.381143999999988,973
51.37666399999991,13.085143999999987,863
53.32066399999989,14.381143999999988,1214
52.3486639999999,15.029143999999986,1363
52.0246639999999,15.677143999999986,1272
51.700663999999904,15.029143999999986,1303
51.05266399999991,16.325143999999987,1257
51.05266399999991,16.973143999999984,1284
51.700663999999904,15.677143999999986,1301
51.37666399999991,15.677143999999986,1215
51.37666399999991,16.325143999999987,1247
50.72866399999991,13.085143999999987,851
50.72866399999991,12.437143999999988,840
51.05266399999991,13.085143999999987,867
51.05266399999991,14.381143999999988,932
50.40466399999991,12.437143999999988,835
50.40466399999991,11.789143999999988,832
50.08066399999991,12.437143999999988,801
50.72866399999991,11.789143999999988,858
51.05266399999991,12.437143999999988,847
50.72866399999991,14.381143999999988,956
51.37666399999991,14.381143999999988,914
50.72866399999991,13.733143999999989,1294
50.40466399999991,14.381143999999988,1239
51.37666399999991,15.029143999999986,946
55.26466399999988,9.197143999999987,2268
55.58866399999988,8.54914399999999,3562
55.91266399999988,8.54914399999999,7039
56.23666399999988,9.197143999999987,7047
56.23666399999988,10.493143999999988,7000
56.23666399999988,9.845143999999989,6987
55.91266399999988,9.845143999999989,6925
56.56066399999988,9.197143999999987,7057
56.56066399999988,8.54914399999999,7100
51.05266399999991,6.60514399999999,655
51.700663999999904,7.90114399999999,670
50.72866399999991,6.60514399999999,636
51.700663999999904,7.25314399999999,665
50.72866399999991,7.25314399999999,656
52.0246639999999,7.25314399999999,691
52.3486639999999,7.90114399999999,687
51.05266399999991,5.957143999999991,642
50.40466399999991,7.25314399999999,655
51.700663999999904,6.60514399999999,667
51.700663999999904,5.957143999999991,668
52.3486639999999,9.197143999999987,722
51.700663999999904,8.54914399999999,691
52.0246639999999,8.54914399999999,706
52.3486639999999,8.54914399999999,706
51.37666399999991,7.90114399999999,671
52.3486639999999,7.25314399999999,753
51.37666399999991,5.957143999999991,701
50.72866399999991,7.90114399999999,661
51.37666399999991,9.197143999999987,723
51.700663999999904,9.197143999999987,705
50.40466399999991,6.60514399999999,646
51.05266399999991,7.90114399999999,667
51.37666399999991,8.54914399999999,701
52.0246639999999,5.957143999999991,711
52.3486639999999,6.60514399999999,776
51.05266399999991,8.54914399999999,704
52.0246639999999,9.197143999999987,724
52.6726639999999,9.197143999999987,750
52.0246639999999,9.845143999999989,730
51.700663999999904,9.845143999999989,717
51.37666399999991,9.845143999999989,766
50.72866399999991,8.54914399999999,653
51.05266399999991,9.845143999999989,711
50.72866399999991,9.845143999999989,690
50.40466399999991,9.845143999999989,668
51.05266399999991,9.197143999999987,702
50.40466399999991,9.197143999999987,658
50.08066399999991,9.197143999999987,646
51.05266399999991,10.493143999999988,807
50.40466399999991,8.54914399999999,642
50.72866399999991,9.197143999999987,679
49.75666399999992,9.197143999999987,658
52.996663999999896,9.197143999999987,751
52.3486639999999,9.845143999999989,737
52.996663999999896,8.54914399999999,746
52.996663999999896,7.90114399999999,773
53.32066399999989,7.90114399999999,823
53.32066399999989,7.25314399999999,853
53.64466399999989,7.25314399999999,898
52.996663999999896,10.493143999999988,803
52.6726639999999,10.493143999999988,796
52.6726639999999,9.845143999999989,750
53.32066399999989,9.845143999999989,816
53.32066399999989,9.197143999999987,811
53.64466399999989,8.54914399999999,793
53.32066399999989,8.54914399999999,757
52.6726639999999,8.54914399999999,723
52.0246639999999,10.493143999999988,753
52.0246639999999,11.141143999999988,814
51.700663999999904,11.141143999999988,852
52.6726639999999,7.25314399999999,905
52.996663999999896,7.25314399999999,879
52.6726639999999,7.90114399999999,795
53.64466399999989,7.90114399999999,851
52.996663999999896,11.141143999999988,904
52.6726639999999,11.141143999999988,892
52.3486639999999,10.493143999999988,781
52.996663999999896,9.845143999999989,816
51.700663999999904,10.493143999999988,798
51.37666399999991,10.493143999999988,851
51.700663999999904,11.789143999999988,861
52.3486639999999,11.141143999999988,796
51.37666399999991,11.141143999999988,843
51.05266399999991,11.789143999999988,834
49.10866399999992,11.141143999999988,680
48.78466399999992,11.141143999999988,671
48.46066399999992,11.789143999999988,705
49.43266399999992,11.789143999999988,763
50.08066399999991,11.789143999999988,791
49.75666399999992,12.437143999999988,797
49.10866399999992,11.789143999999988,738
48.78466399999992,12.437143999999988,746
48.46066399999992,12.437143999999988,732
49.10866399999992,12.437143999999988,757
48.78466399999992,13.085143999999987,780
48.136663999999925,12.437143999999988,714
47.81266399999993,11.789143999999988,708
48.136663999999925,10.493143999999988,707
47.81266399999993,10.493143999999988,728
48.78466399999992,10.493143999999988,644
47.48866399999993,10.493143999999988,723
48.46066399999992,10.493143999999988,669
49.43266399999992,13.085143999999987,836
48.46066399999992,13.085143999999987,794
49.43266399999992,10.493143999999988,719
49.75666399999992,9.845143999999989,678
49.75666399999992,10.493143999999988,726
50.40466399999991,11.141143999999988,790
50.08066399999991,11.141143999999988,730
50.72866399999991,11.141143999999988,829
49.75666399999992,11.141143999999988,728
48.78466399999992,11.789143999999988,734
50.40466399999991,10.493143999999988,703
50.08066399999991,9.845143999999989,695
50.08066399999991,10.493143999999988,702
49.43266399999992,12.437143999999988,800
49.75666399999992,11.789143999999988,772
49.10866399999992,13.085143999999987,814
50.72866399999991,10.493143999999988,821
49.10866399999992,10.493143999999988,698
48.78466399999992,9.845143999999989,625
48.46066399999992,8.54914399999999,628
48.46066399999992,9.197143999999987,625
48.78466399999992,9.197143999999987,620
48.78466399999992,8.54914399999999,605
50.08066399999991,7.25314399999999,648
49.75666399999992,6.60514399999999,632
49.43266399999992,6.60514399999999,592
49.10866399999992,6.60514399999999,586
49.43266399999992,7.25314399999999,612
49.75666399999992,7.25314399999999,651
49.10866399999992,5.957143999999991,573
48.78466399999992,7.25314399999999,613
50.08066399999991,6.60514399999999,640
47.48866399999993,9.197143999999987,628
48.136663999999925,8.54914399999999,620
48.136663999999925,9.197143999999987,632
47.81266399999993,7.25314399999999,615
49.43266399999992,9.845143999999989,645
49.10866399999992,9.845143999999989,633
53.64466399999989,14.381143999999988,1272
50.08066399999991,13.085143999999987,1394
49.75666399999992,13.085143999999987,1355
45.86866399999994,9.197143999999987,657
46.19266399999994,9.197143999999987,654
46.516663999999935,8.54914399999999,650
46.516663999999935,9.197143999999987,677
46.19266399999994,8.54914399999999,641
47.16466399999993,8.54914399999999,623
45.86866399999994,4.661143999999991,465
46.84066399999993,9.845143999999989,642
45.22066399999994,5.957143999999991,531
45.22066399999994,5.309143999999991,532
45.86866399999994,5.957143999999991,539
45.54466399999994,5.957143999999991,524
44.89666399999994,4.661143999999991,511
44.89666399999994,5.309143999999991,540
44.572663999999946,4.661143999999991,536
44.24866399999995,4.661143999999991,480
43.92466399999995,4.661143999999991,443
46.19266399999994,7.25314399999999,578
48.78466399999992,5.957143999999991,584
48.136663999999925,6.60514399999999,614
48.46066399999992,6.60514399999999,606
48.78466399999992,6.60514399999999,599
47.16466399999993,7.90114399999999,610
48.136663999999925,7.25314399999999,595
48.46066399999992,7.25314399999999,603
46.516663999999935,6.60514399999999,569
46.84066399999993,6.60514399999999,581
46.84066399999993,7.25314399999999,586
46.516663999999935,5.957143999999991,583
46.19266399999994,5.957143999999991,547
46.84066399999993,8.54914399999999,612
46.84066399999993,7.90114399999999,599
45.86866399999994,5.309143999999991,511
46.19266399999994,6.60514399999999,559
45.86866399999994,6.60514399999999,583
47.48866399999993,6.60514399999999,601
47.48866399999993,7.25314399999999,611
47.16466399999993,7.25314399999999,603
49.10866399999992,4.013143999999992,521
49.75666399999992,4.661143999999991,591
49.43266399999992,4.661143999999991,563
49.10866399999992,5.309143999999991,596
46.19266399999994,4.661143999999991,515
46.84066399999993,9.197143999999987,650
46.19266399999994,5.309143999999991,534
46.516663999999935,5.309143999999991,575
45.54466399999994,6.60514399999999,547
45.54466399999994,5.309143999999991,484
43.60066399999995,4.013143999999992,413
43.60066399999995,3.365143999999992,376
42.62866399999996,2.717143999999992,371
43.276663999999954,2.717143999999992,359
45.54466399999994,4.661143999999991,490
45.22066399999994,4.661143999999991,534
47.16466399999993,5.309143999999991,561
47.16466399999993,5.957143999999991,592
46.19266399999994,7.90114399999999,596
49.75666399999992,2.717143999999992,549
49.10866399999992,2.717143999999992,508
48.78466399999992,2.717143999999992,507
45.86866399999994,3.365143999999992,288
46.84066399999993,3.365143999999992,417
46.516663999999935,3.365143999999992,340
46.19266399999994,3.365143999999992,312
47.16466399999993,6.60514399999999,608
49.10866399999992,3.365143999999992,557
45.54466399999994,4.013143999999992,517
46.516663999999935,7.25314399999999,583
47.16466399999993,4.661143999999991,537
46.84066399999993,4.661143999999991,521
46.516663999999935,4.661143999999991,517
46.84066399999993,5.957143999999991,606
47.81266399999993,3.365143999999992,587
47.48866399999993,4.013143999999992,594
48.136663999999925,4.013143999999992,610
47.81266399999993,4.013143999999992,620
47.48866399999993,4.661143999999991,601
47.16466399999993,3.365143999999992,452
46.84066399999993,4.013143999999992,498
48.46066399999992,5.957143999999991,605
46.19266399999994,2.717143999999992,359
47.16466399999993,2.0691439999999925,434
46.516663999999935,2.717143999999992,506
46.84066399999993,2.717143999999992,487
46.84066399999993,2.0691439999999925,424
47.16466399999993,2.717143999999992,458
44.572663999999946,5.309143999999991,553
44.572663999999946,5.957143999999991,584
44.89666399999994,6.60514399999999,627
44.572663999999946,6.60514399999999,746
43.60066399999995,5.309143999999991,481
43.92466399999995,7.25314399999999,567
43.60066399999995,6.60514399999999,560
43.276663999999954,6.60514399999999,539
43.276663999999954,5.957143999999991,484
45.86866399999994,8.54914399999999,651
45.54466399999994,8.54914399999999,643
48.136663999999925,3.365143999999992,570
48.46066399999992,3.365143999999992,570
48.46066399999992,2.717143999999992,527
47.48866399999993,5.309143999999991,576
46.516663999999935,9.845143999999989,704
46.84066399999993,10.493143999999988,1331
47.81266399999993,5.309143999999991,665
45.22066399999994,6.60514399999999,579
46.19266399999994,4.013143999999992,436
45.86866399999994,4.013143999999992,479
45.22066399999994,4.013143999999992,402
44.89666399999994,4.013143999999992,419
46.84066399999993,5.309143999999991,567
48.136663999999925,-1.8188560000000056,553
48.136663999999925,0.1251439999999934,493
48.136663999999925,-0.5228560000000062,533
47.48866399999993,-0.5228560000000062,469
47.16466399999993,-1.8188560000000056,515
47.48866399999993,0.7731439999999932,410
47.16466399999993,0.1251439999999934,451
45.86866399999994,7.25314399999999,589
48.136663999999925,5.309143999999991,636
49.10866399999992,4.661143999999991,551
48.46066399999992,4.013143999999992,590
48.136663999999925,4.661143999999991,627
47.81266399999993,6.60514399999999,623
47.48866399999993,5.957143999999991,640
48.136663999999925,5.957143999999991,1886
45.86866399999994,7.90114399999999,614
46.516663999999935,7.90114399999999,609
49.43266399999992,3.365143999999992,533
49.43266399999992,4.013143999999992,528
48.136663999999925,2.717143999999992,591
47.81266399999993,2.717143999999992,578
47.48866399999993,2.717143999999992,485
50.40466399999991,2.717143999999992,580
48.46066399999992,-4.410856000000004,697
48.46066399999992,-3.7628560000000046,670
48.46066399999992,-3.114856000000005,640
48.46066399999992,-2.4668560000000053,612
47.48866399999993,1.4211439999999929,509
47.16466399999993,1.4211439999999929,523
46.516663999999935,4.013143999999992,454
43.60066399999995,4.661143999999991,460
44.89666399999994,2.717143999999992,0
45.22066399999994,2.717143999999992,105
45.54466399999994,3.365143999999992,251
45.22066399999994,3.365143999999992,221
47.48866399999993,3.365143999999992,776
46.19266399999994,9.845143999999989,694
47.81266399999993,2.0691439999999925,514
47.48866399999993,2.0691439999999925,518
45.86866399999994,2.717143999999992,304
44.89666399999994,5.957143999999991,577
45.22066399999994,1.4211439999999929,189
44.89666399999994,1.4211439999999929,141
44.89666399999994,2.0691439999999925,30
43.276663999999954,2.0691439999999925,281
43.60066399999995,1.4211439999999929,263
48.78466399999992,4.661143999999991,581
48.78466399999992,5.309143999999991,591
46.19266399999994,2.0691439999999925,422
45.86866399999994,1.4211439999999929,289
46.19266399999994,1.4211439999999929,357
44.572663999999946,4.013143999999992,463
44.89666399999994,3.365143999999992,402
43.92466399999995,4.013143999999992,512
44.24866399999995,4.013143999999992,522
44.89666399999994,-0.5228560000000062,297
45.54466399999994,0.1251439999999934,333
46.516663999999935,0.1251439999999934,376
44.572663999999946,2.0691439999999925,77
49.75666399999992,4.013143999999992,580
43.92466399999995,3.365143999999992,627
43.92466399999995,2.717143999999992,588
44.24866399999995,3.365143999999992,538
44.572663999999946,3.365143999999992,467
49.10866399999992,0.1251439999999934,593
49.43266399999992,0.7731439999999932,584
49.43266399999992,-1.8188560000000056,656
49.10866399999992,-1.170856000000006,610
49.10866399999992,-0.5228560000000062,599
49.10866399999992,0.7731439999999932,578
49.10866399999992,1.4211439999999929,552
47.81266399999993,-1.8188560000000056,550
47.81266399999993,-2.4668560000000053,574
47.81266399999993,-3.114856000000005,600
48.136663999999925,-3.7628560000000046,641
44.572663999999946,9.197143999999987,656
44.89666399999994,8.54914399999999,627
45.22066399999994,9.197143999999987,625
45.54466399999994,10.493143999999988,667
44.572663999999946,10.493143999999988,1798
44.89666399999994,10.493143999999988,695
44.89666399999994,9.845143999999989,729
48.46066399999992,5.309143999999991,615
50.91599999999999,-1.0580000000000025,65535
51.23999999999999,-0.4100000000000028,65535
50.91599999999999,-0.4100000000000028,65535
51.23999999999999,-2.354000000000002,65535
51.56399999999999,-2.354000000000002,65535
51.56399999999999,-3.0020000000000016,65535
50.91599999999999,-2.354000000000002,65535
53.50799999999997,-3.0020000000000016,65535
53.183999999999976,-2.354000000000002,65535
53.183999999999976,-3.0020000000000016,65535
52.85999999999998,-2.354000000000002,65535
52.21199999999998,-1.0580000000000025,65535
51.887999999999984,-1.0580000000000025,65535
52.53599999999998,-1.0580000000000025,65535
52.53599999999998,-1.7060000000000022,65535
52.85999999999998,-1.7060000000000022,65535
53.50799999999997,-2.354000000000002,65535
52.85999999999998,-1.0580000000000025,65535
52.53599999999998,1.5339999999999965,65535
52.53599999999998,0.8859999999999966,65535
52.53599999999998,0.2379999999999968,65535
52.53599999999998,-0.4100000000000028,65535
53.50799999999997,-1.7060000000000022,65535
53.183999999999976,-1.7060000000000022,65535
53.183999999999976,-1.0580000000000025,65535
52.85999999999998,-0.4100000000000028,65535
51.887999999999984,-2.354000000000002,65535
52.21199999999998,-2.354000000000002,65535
55.77599999999996,-2.354000000000002,65535
53.83199999999997,-1.0580000000000025,65535
53.83199999999997,-1.7060000000000022,65535
55.127999999999965,-1.7060000000000022,65535
54.80399999999997,-1.7060000000000022,65535
54.47999999999997,-1.7060000000000022,65535
54.15599999999997,-1.0580000000000025,65535
52.21199999999998,-1.7060000000000022,65535
53.50799999999997,-1.0580000000000025,65535
55.77599999999996,-3.0020000000000016,65535
55.45199999999996,-1.7060000000000022,65535
57.07199999999995,-2.354000000000002,65535
56.74799999999996,-3.0020000000000016,65535
56.42399999999996,-3.0020000000000016,65535
56.09999999999996,-3.650000000000001,65535
50.91599999999999,-3.0020000000000016,65535
50.91599999999999,-3.650000000000001,65535
50.59199999999999,-3.650000000000001,65535
50.59199999999999,-4.298000000000001,65535
51.23999999999999,-3.0020000000000016,65535
50.268,-4.946000000000001,65535
55.77599999999996,-3.650000000000001,65535
55.77599999999996,-4.298000000000001,65535
52.21199999999998,-0.4100000000000028,65535
52.53599999999998,-2.354000000000002,65535
51.56399999999999,-1.7060000000000022,65535
51.56399999999999,-3.650000000000001,65535
51.887999999999984,-4.298000000000001,65535
51.56399999999999,-4.298000000000001,65535
51.887999999999984,-1.7060000000000022,65535
52.21199999999998,-3.0020000000000016,65535
51.23999999999999,0.2379999999999968,65535
50.91599999999999,0.2379999999999968,65535
52.21199999999998,0.2379999999999968,65535
53.83199999999997,-3.0020000000000016,65535
54.15599999999997,-3.0020000000000016,65535
54.47999999999997,-3.0020000000000016,65535
55.127999999999965,-3.650000000000001,65535
54.80399999999997,-3.0020000000000016,65535
53.83199999999997,-2.354000000000002,65535
54.15599999999997,-0.4100000000000028,65535
54.47999999999997,-1.0580000000000025,65535
53.83199999999997,-0.4100000000000028,65535
53.183999999999976,-3.650000000000001,65535
53.183999999999976,-4.298000000000001,65535
52.85999999999998,-3.0020000000000016,65535
52.53599999999998,-3.0020000000000016,65535
51.887999999999984,-3.0020000000000016,65535
51.23999999999999,0.8859999999999966,65535
51.887999999999984,0.2379999999999968,65535
52.21199999999998,0.8859999999999966,65535
51.887999999999984,-4.946000000000001,65535
52.53599999999998,-3.650000000000001,65535
52.21199999999998,-4.298000000000001,65535
53.183999999999976,-0.4100000000000028,65535
51.23999999999999,-3.650000000000001,65535
51.887999999999984,-3.650000000000001,65535
52.21199999999998,-3.650000000000001,65535
51.56399999999999,0.8859999999999966,65535
51.887999999999984,0.8859999999999966,65535
52.85999999999998,0.8859999999999966,65535
53.50799999999997,-0.4100000000000028,65535
56.09999999999996,-4.298000000000001,65535
56.74799999999996,-4.946000000000001,65535
56.74799999999996,-4.298000000000001,65535
56.42399999999996,-4.946000000000001,65535
56.42399999999996,-4.298000000000001,65535
56.09999999999996,-4.946000000000001,65535
57.39599999999995,-4.298000000000001,65535
57.39599999999995,-3.0020000000000016,65535
57.39599999999995,-3.650000000000001,65535
56.42399999999996,-3.650000000000001,65535
57.07199999999995,-3.650000000000001,65535
57.07199999999995,-4.298000000000001,65535
56.74799999999996,-3.650000000000001,65535
59.15266399999986,27.34114399999998,65535
59.47666399999986,26.69314399999997,65535
59.47666399999986,26.04514399999998,65535
59.15266399999986,26.04514399999998,65535
59.15266399999986,24.74914399999998,65535
59.15266399999986,25.397143999999983,65535
59.47666399999986,25.397143999999983,65535
58.50466399999986,26.69314399999997,65535
58.82866399999986,26.69314399999997,65535
57.85666399999987,26.04514399999998,65535
58.180663999999865,26.04514399999998,65535
58.180663999999865,26.69314399999997,65535
58.82866399999986,26.04514399999998,65535
58.50466399999986,25.397143999999983,65535
58.82866399999986,25.397143999999983,65535
58.82866399999986,24.74914399999998,65535
58.180663999999865,27.34114399999998,65535
57.85666399999987,27.34114399999998,65535
63.68866399999983,27.34114399999998,7557
60.124663999999854,24.74914399999998,4213
60.44866399999985,24.74914399999998,4182
60.44866399999985,25.397143999999983,4194
60.77266399999985,25.397143999999983,4905
61.09666399999985,26.04514399999998,4948
60.77266399999985,26.04514399999998,4956
60.77266399999985,26.69314399999997,4975
61.09666399999985,25.397143999999983,4939
61.09666399999985,26.69314399999997,7678
61.420663999999846,26.69314399999997,7700
61.74466399999984,27.34114399999998,7724
62.06866399999984,27.34114399999998,7749
62.39266399999984,27.34114399999998,7773
62.71666399999984,27.34114399999998,7737
64.01266399999983,27.34114399999998,7513
63.36466399999984,27.34114399999998,7625
63.04066399999984,27.34114399999998,7665
63.04066399999984,27.989143999999985,7680
64.33666399999983,27.989143999999985,5264
64.33666399999983,27.34114399999998,5209
64.66066399999983,27.34114399999998,5194
64.66066399999983,26.69314399999997,5139
64.98466399999982,25.397143999999983,3559
64.66066399999983,26.04514399999998,5120
64.98466399999982,26.04514399999998,5104
66.28066399999982,25.397143999999983,3731
65.95666399999982,24.74914399999998,3472
65.63266399999982,24.74914399999998,3476
65.63266399999982,25.397143999999983,3518
65.30866399999982,25.397143999999983,3539
66.60466399999981,25.397143999999983,3765
64.01266399999983,24.74914399999998,3696
64.01266399999983,24.101143999999977,3731
64.01266399999983,23.45314399999998,3755
63.68866399999983,23.45314399999998,3767
63.68866399999983,22.805143999999984,3792
63.68866399999983,26.04514399999998,5824
63.68866399999983,25.397143999999983,5790
63.68866399999983,26.69314399999997,7524
60.44866399999985,26.69314399999997,8309
64.01266399999983,27.989143999999985,7943
62.71666399999984,22.805143999999984,3914
62.39266399999984,22.805143999999984,3946
62.06866399999984,22.805143999999984,3975
62.06866399999984,23.45314399999998,3991
61.74466399999984,23.45314399999998,4003
61.420663999999846,23.45314399999998,4051
61.09666399999985,23.45314399999998,4092
61.09666399999985,24.101143999999977,4099
61.09666399999985,24.74914399999998,4133
60.77266399999985,24.74914399999998,4149
63.04066399999984,21.50914399999997,65535
63.04066399999984,22.15714399999998,65535
63.04066399999984,22.805143999999984,3878
62.39266399999984,26.04514399999998,7921
62.06866399999984,25.397143999999983,7970
61.74466399999984,25.397143999999983,8038
61.74466399999984,24.74914399999998,8075
61.74466399999984,24.101143999999977,4280
61.420663999999846,24.101143999999977,4235
62.39266399999984,26.69314399999997,7892
64.66066399999983,25.397143999999983,3628
64.66066399999983,24.74914399999998,3646
64.33666399999983,24.74914399999998,3657
63.36466399999984,22.805143999999984,3817
67.25266399999981,24.101143999999977,7345
66.92866399999981,24.101143999999977,7309
66.60466399999981,23.45314399999998,7278
66.28066399999982,23.45314399999998,7260
66.28066399999982,24.101143999999977,7242
65.95666399999982,24.101143999999977,2844
60.124663999999854,24.101143999999977,5727
60.124663999999854,23.45314399999998,6585
60.44866399999985,22.805143999999984,6644
60.77266399999985,27.34114399999998,5027
61.09666399999985,27.989143999999985,5057
61.09666399999985,28.63714399999997,5095
61.420663999999846,29.28514399999997,5130
61.74466399999984,29.933143999999977,5167
62.06866399999984,29.933143999999977,5193
62.39266399999984,29.933143999999977,5209
62.71666399999984,29.933143999999977,5233
61.420663999999846,22.805143999999984,6338
61.420663999999846,22.15714399999998,7046
61.09666399999985,22.15714399999998,6384
61.420663999999846,21.50914399999997,7179
62.39266399999984,27.989143999999985,65535
62.06866399999984,27.989143999999985,65535
61.420663999999846,27.34114399999998,65535
63.04066399999984,29.933143999999977,7172
63.68866399999983,29.28514399999997,8955
63.36466399999984,29.28514399999997,8935
63.36466399999984,29.933143999999977,8894
60.44866399999985,27.34114399999998,65535
61.74466399999984,29.28514399999997,65535
62.39266399999984,30.58114399999998,65535
62.71666399999984,31.229143999999977,65535
62.71666399999984,29.28514399999997,65535
63.04066399999984,28.63714399999997,65535
66.60466399999981,26.04514399999998,6586
66.60466399999981,26.69314399999997,6622
66.60466399999981,27.34114399999998,6645
62.71666399999984,26.04514399999998,7806
62.71666399999984,25.397143999999983,7775
63.04066399999984,25.397143999999983,7595
63.36466399999984,25.397143999999983,6232
62.71666399999984,23.45314399999998,7800
62.39266399999984,24.101143999999977,65535
62.71666399999984,22.15714399999998,65535
62.39266399999984,22.15714399999998,65535
62.39266399999984,21.50914399999997,65535
61.09666399999985,21.50914399999997,6414
60.77266399999985,22.805143999999984,4452
60.44866399999985,22.15714399999998,4482
60.77266399999985,23.45314399999998,4439
60.77266399999985,21.50914399999997,5553
60.77266399999985,22.15714399999998,5506
60.124663999999854,22.805143999999984,8599
60.44866399999985,24.101143999999977,5712
62.06866399999984,24.74914399999998,65535
50.72866399999991,16.325143999999987,1265
50.40466399999991,16.973143999999984,1321
50.72866399999991,16.973143999999984,1292
50.40466399999991,16.325143999999987,1328
50.08066399999991,16.973143999999984,1451
50.08066399999991,16.325143999999987,1353
51.700663999999904,16.973143999999984,1379
51.37666399999991,16.973143999999984,1282
51.05266399999991,15.677143999999986,1288
50.72866399999991,15.677143999999986,1303
51.05266399999991,17.621143999999987,1299
51.37666399999991,17.621143999999987,1326
51.700663999999904,17.621143999999987,1354
51.700663999999904,16.325143999999987,1347
52.0246639999999,22.15714399999998,1558
52.0246639999999,21.50914399999997,1554
52.3486639999999,21.50914399999997,1554
52.0246639999999,20.86114399999998,1534
51.700663999999904,20.86114399999998,1592
51.37666399999991,21.50914399999997,1631
51.37666399999991,20.86114399999998,1626
51.05266399999991,20.86114399999998,1606
52.6726639999999,23.45314399999998,1747
52.3486639999999,22.805143999999984,1689
52.3486639999999,20.213143999999986,1572
52.0246639999999,20.213143999999986,1525
52.3486639999999,19.565143999999982,1567
52.6726639999999,19.565143999999982,1659
51.700663999999904,21.50914399999997,1627
51.700663999999904,22.15714399999998,1662
52.6726639999999,21.50914399999997,1571
52.996663999999896,21.50914399999997,1620
52.6726639999999,20.86114399999998,1586
52.6726639999999,22.15714399999998,1609
52.6726639999999,20.213143999999986,1659
52.996663999999896,19.565143999999982,1710
52.996663999999896,20.86114399999998,1620
52.996663999999896,20.213143999999986,1646
53.32066399999989,20.213143999999986,1650
51.37666399999991,20.213143999999986,1694
52.3486639999999,16.973143999999984,1337
52.0246639999999,16.973143999999984,1361
52.0246639999999,16.325143999999987,1374
52.0246639999999,17.621143999999987,1345
52.6726639999999,16.973143999999984,1344
52.996663999999896,16.973143999999984,1365
52.3486639999999,16.325143999999987,1328
52.3486639999999,15.677143999999986,1305
51.700663999999904,18.269143999999983,1438
52.6726639999999,17.621143999999987,1368
52.3486639999999,17.621143999999987,1353
52.6726639999999,18.269143999999983,1396
52.3486639999999,18.269143999999983,1381
52.3486639999999,18.917143999999983,1527
52.996663999999896,17.621143999999987,1404
51.700663999999904,19.565143999999982,1519
51.700663999999904,18.917143999999983,1486
51.37666399999991,18.269143999999983,1367
58.82866399999986,9.197143999999987,1808
58.180663999999865,7.90114399999999,1901
58.50466399999986,8.54914399999999,1852
63.36466399999984,10.493143999999988,2023
63.36466399999984,11.141143999999988,2030
63.36466399999984,11.789143999999988,2065
63.68866399999983,11.789143999999988,2093
64.33666399999983,12.437143999999988,2494
64.66066399999983,12.437143999999988,2989
65.63266399999982,13.085143999999987,2646
65.95666399999982,13.085143999999987,2681
66.28066399999982,14.381143999999988,2751
65.95666399999982,13.733143999999989,2820
66.28066399999982,13.733143999999989,2729
65.30866399999982,13.085143999999987,2947
64.98466399999982,13.085143999999987,2581
64.01266399999983,11.789143999999988,2124
63.68866399999983,11.141143999999988,2061
59.800663999999855,10.493143999999988,1604
59.800663999999855,11.141143999999988,1587
60.124663999999854,11.141143999999988,1602
60.44866399999985,11.141143999999988,1615
60.124663999999854,11.789143999999988,1628
60.77266399999985,7.25314399999999,1864
60.77266399999985,6.60514399999999,1910
59.15266399999986,9.197143999999987,1690
59.47666399999986,9.197143999999987,1711
59.800663999999855,9.845143999999989,1606
59.47666399999986,11.141143999999988,1551
61.09666399999985,10.493143999999988,1725
60.77266399999985,10.493143999999988,1695
60.77266399999985,11.141143999999988,1650
62.06866399999984,9.197143999999987,2050
61.74466399999984,9.845143999999989,1996
61.420663999999846,9.845143999999989,1973
59.15266399999986,9.845143999999989,1670
59.47666399999986,9.845143999999989,1646
58.82866399999986,5.957143999999991,2085
58.180663999999865,7.25314399999999,1957
58.50466399999986,7.25314399999999,1990
58.50466399999986,6.60514399999999,1995
58.50466399999986,5.957143999999991,2053
58.82866399999986,8.54914399999999,1838
60.44866399999985,7.25314399999999,1838
60.44866399999985,7.90114399999999,1799
60.124663999999854,10.493143999999988,1636
60.44866399999985,9.197143999999987,1748
60.77266399999985,9.197143999999987,1760
60.77266399999985,8.54914399999999,1779
60.124663999999854,9.845143999999989,2015
60.44866399999985,10.493143999999988,1681
63.04066399999984,10.493143999999988,1974
62.06866399999984,9.845143999999989,2075
62.39266399999984,9.845143999999989,2083
62.71666399999984,9.845143999999989,2107
59.47666399999986,14.381143999999988,1600
59.47666399999986,13.733143999999989,1541
59.47666399999986,13.085143999999987,1517
59.800663999999855,12.437143999999988,1586
59.15266399999986,11.141143999999988,1515
59.15266399999986,14.381143999999988,1614
58.82866399999986,11.789143999999988,1495
58.50466399999986,12.437143999999988,1425
58.180663999999865,12.437143999999988,1418
57.85666399999987,11.789143999999988,1369
62.71666399999984,7.90114399999999,2136
62.39266399999984,7.90114399999999,2093
62.06866399999984,8.54914399999999,2068
60.44866399999985,5.309143999999991,1984
60.44866399999985,5.957143999999991,1951
60.77266399999985,5.957143999999991,1940
62.39266399999984,11.141143999999988,1871
62.06866399999984,10.493143999999988,1826
61.74466399999984,11.141143999999988,1799
61.420663999999846,11.141143999999988,1753
61.09666399999985,11.141143999999988,1736
60.77266399999985,11.789143999999988,1713
63.04066399999984,11.141143999999988,1952
62.71666399999984,11.141143999999988,1895
62.39266399999984,10.493143999999988,1853
67.25266399999981,15.677143999999986,2870
67.25266399999981,15.029143999999986,2908
67.25266399999981,14.381143999999988,2936
66.92866399999981,15.029143999999986,2859
66.60466399999981,15.677143999999986,2837
64.01266399999983,11.141143999999988,2108
66.60466399999981,15.029143999999986,2900
54.29266399999989,18.269143999999983,1518
54.616663999999886,17.621143999999987,1496
53.96866399999989,18.269143999999983,1643
43.92466399999995,1.4211439999999929,242
44.24866399999995,0.7731439999999932,299
44.572663999999946,0.1251439999999934,341
46.84066399999993,1.4211439999999929,408
44.572663999999946,1.4211439999999929,252
44.24866399999995,1.4211439999999929,279
45.54466399999994,1.4211439999999929,287
46.516663999999935,1.4211439999999929,375
42.30466399999996,2.717143999999992,451
44.24866399999995,2.717143999999992,137
44.572663999999946,2.717143999999992,112
43.92466399999995,2.0691439999999925,200
42.30466399999996,2.0691439999999925,507
42.62866399999996,2.0691439999999925,365
42.62866399999996,1.4211439999999929,358
42.95266399999996,1.4211439999999929,323
43.276663999999954,1.4211439999999929,270
46.516663999999935,-1.170856000000006,538
46.19266399999994,-1.170856000000006,431
45.86866399999994,-0.5228560000000062,365
45.54466399999994,-0.5228560000000062,345
48.46066399999992,1.4211439999999929,535
41.332663999999966,2.0691439999999925,534
41.98066399999996,2.717143999999992,493
48.46066399999992,-1.8188560000000056,580
47.81266399999993,0.7731439999999932,553
46.84066399999993,0.7731439999999932,439
44.572663999999946,-1.170856000000006,325
43.60066399999995,-1.170856000000006,448
43.276663999999954,-1.8188560000000056,495
43.276663999999954,0.1251439999999934,410
42.95266399999996,0.1251439999999934,387
43.276663999999954,-0.5228560000000062,520
43.60066399999995,-0.5228560000000062,509
47.81266399999993,-3.7628560000000046,614
47.48866399999993,-2.4668560000000053,554
47.81266399999993,-0.5228560000000062,525
46.516663999999935,-1.8188560000000056,581
48.136663999999925,-1.170856000000006,556
47.48866399999993,-1.170856000000006,481
45.22066399999994,8.54914399999999,613
45.22066399999994,7.90114399999999,603
46.19266399999994,-0.5228560000000062,491
46.516663999999935,-0.5228560000000062,474
48.78466399999992,-3.114856000000005,721
50.72866399999991,2.0691439999999925,600
50.40466399999991,2.0691439999999925,618
40.36066399999997,-3.7628560000000046,1905
41.65666399999997,-1.170856000000006,1822
41.332663999999966,1.4211439999999929,1760
43.276663999999954,13.733143999999989,4390
42.95266399999996,13.733143999999989,4412
41.65666399999997,15.029143999999986,4496
40.68466399999997,17.621143999999987,4658
43.60066399999995,13.085143999999987,4383
41.65666399999997,12.437143999999988,3049
41.65666399999997,13.085143999999987,3068
41.98066399999996,13.085143999999987,3118
41.65666399999997,13.733143999999989,3120
41.332663999999966,13.733143999999989,3112
41.332663999999966,14.381143999999988,3269
41.00866399999997,14.381143999999988,3175
41.332663999999966,13.085143999999987,3094
41.00866399999997,15.029143999999986,3375
41.98066399999996,13.733143999999989,3317
42.30466399999996,14.381143999999988,3456
42.30466399999996,12.437143999999988,3057
42.62866399999996,12.437143999999988,3236
42.95266399999996,12.437143999999988,3521
42.30466399999996,11.789143999999988,3066
42.95266399999996,11.789143999999988,3276
42.62866399999996,11.789143999999988,3267
43.276663999999954,11.789143999999988,3330
42.95266399999996,13.085143999999987,4284
42.30466399999996,13.085143999999987,3343
43.276663999999954,13.085143999999987,4332
43.276663999999954,12.437143999999988,4339
42.62866399999996,11.141143999999988,3112
42.95266399999996,11.141143999999988,3155
42.95266399999996,10.493143999999988,3173
44.572663999999946,8.54914399999999,650
44.89666399999994,7.90114399999999,618
44.89666399999994,9.197143999999987,672
44.24866399999995,7.90114399999999,639
44.572663999999946,7.90114399999999,628
43.92466399999995,7.90114399999999,602
44.24866399999995,7.25314399999999,649
44.89666399999994,7.25314399999999,647
45.22066399999994,7.25314399999999,587
45.54466399999994,7.90114399999999,660
44.572663999999946,7.25314399999999,687
52.996663999999896,22.805143999999984,1848
52.996663999999896,23.45314399999998,1871
51.37666399999991,22.15714399999998,1693
51.37666399999991,22.805143999999984,1747
50.08066399999991,20.213143999999986,1452
50.72866399999991,20.213143999999986,1492
50.40466399999991,20.213143999999986,1450
50.08066399999991,20.86114399999998,1472
50.08066399999991,21.50914399999997,1491
50.08066399999991,22.15714399999998,1515
50.08066399999991,22.805143999999984,1590
53.96866399999989,22.805143999999984,2307
53.64466399999989,23.45314399999998,1978
53.32066399999989,23.45314399999998,1924
50.40466399999991,19.565143999999982,1435
50.08066399999991,18.917143999999983,1440
50.08066399999991,18.269143999999983,1389
52.0246639999999,22.805143999999984,1744
52.0246639999999,23.45314399999998,1780
51.37666399999991,19.565143999999982,1656
51.05266399999991,19.565143999999982,1500
50.72866399999991,18.917143999999983,1473
50.72866399999991,19.565143999999982,1517
49.75666399999992,18.917143999999983,1582
50.40466399999991,18.269143999999983,1353
53.64466399999989,19.565143999999982,1492
53.96866399999989,18.917143999999983,1562
53.64466399999989,18.917143999999983,1511
53.64466399999989,20.213143999999986,1530
52.996663999999896,18.917143999999983,1445
52.996663999999896,18.269143999999983,1421
53.32066399999989,18.917143999999983,1450
50.72866399999991,17.621143999999987,1306
50.72866399999991,18.269143999999983,1340
52.6726639999999,16.325143999999987,1375
52.996663999999896,16.325143999999987,1378
52.996663999999896,15.677143999999986,1375
53.32066399999989,15.677143999999986,1257
53.32066399999989,15.029143999999986,1248
53.64466399999989,15.029143999999986,1281
53.96866399999989,15.029143999999986,1290
52.6726639999999,18.917143999999983,1455
53.32066399999989,16.325143999999987,1316
52.6726639999999,15.029143999999986,1260
51.05266399999991,22.805143999999984,1781
51.05266399999991,23.45314399999998,1809
50.72866399999991,22.15714399999998,1766
50.40466399999991,22.15714399999998,1805
51.05266399999991,22.15714399999998,1744
54.616663999999886,16.973143999999984,1372
54.29266399999989,16.325143999999987,1315
53.96866399999989,15.677143999999986,1305
50.72866399999991,21.50914399999997,1776
50.40466399999991,21.50914399999997,1545
50.40466399999991,17.621143999999987,1335
53.32066399999989,22.805143999999984,2063
53.64466399999989,22.15714399999998,1925
54.29266399999989,16.973143999999984,1360
50.72866399999991,20.86114399999998,1530
51.700663999999904,22.805143999999984,1831
51.05266399999991,21.50914399999997,1728
50.08066399999991,19.565143999999982,1454
52.0246639999999,18.917143999999983,8488
52.0246639999999,19.565143999999982,8481
53.64466399999989,18.269143999999983,1542
51.700663999999904,20.213143999999986,1766
53.32066399999989,19.565143999999982,1482
50.72866399999991,23.45314399999998,1891
50.72866399999991,22.805143999999984,1860
49.43266399999992,20.213143999999986,1765
49.75666399999992,21.50914399999997,1579
49.75666399999992,22.15714399999998,1831
49.43266399999992,22.15714399999998,1844
51.05266399999991,18.917143999999983,1476
51.05266399999991,18.269143999999983,1387
53.32066399999989,16.973143999999984,1415
53.64466399999989,16.973143999999984,1391
49.75666399999992,20.86114399999998,1524
50.40466399999991,22.805143999999984,8570
53.64466399999989,16.325143999999987,1346
53.96866399999989,20.86114399999998,1782
54.29266399999989,20.86114399999998,1828
53.96866399999989,21.50914399999997,1848
53.64466399999989,15.677143999999986,1297
53.96866399999989,20.213143999999986,1585
53.96866399999989,19.565143999999982,1621
54.29266399999989,19.565143999999982,1635
53.96866399999989,16.325143999999987,1313
53.64466399999989,17.621143999999987,1578
53.96866399999989,22.15714399999998,1915
53.64466399999989,21.50914399999997,1880
53.64466399999989,20.86114399999998,1834
52.6726639999999,15.677143999999986,1283
51.05266399999991,20.213143999999986,1702
54.940663999999884,24.101143999999977,3681
54.616663999999886,23.45314399999998,3625
54.29266399999989,23.45314399999998,3488
53.64466399999989,22.805143999999984,2065
53.96866399999989,16.973143999999984,1473
50.40466399999991,20.86114399999998,1783
53.32066399999989,18.269143999999983,1551
49.75666399999992,19.565143999999982,1613
50.40466399999991,23.45314399999998,1996
49.75666399999992,20.213143999999986,1837
49.43266399999992,19.565143999999982,1725
49.43266399999992,20.86114399999998,1541
53.96866399999989,17.621143999999987,1788
42.30466399999996,-1.8188560000000056,8799
41.98066399999996,-1.8188560000000056,8782
41.65666399999997,0.7731439999999932,8786
42.62866399999996,-1.8188560000000056,8914
42.95266399999996,-1.8188560000000056,8943
42.62866399999996,-3.114856000000005,9037
42.95266399999996,-2.4668560000000053,9015
42.62866399999996,-7.650856000000003,9379
42.30466399999996,-7.650856000000003,9439
42.30466399999996,-8.946856000000002,9575
42.30466399999996,-8.298856000000002,9549
41.98066399999996,-8.298856000000002,9538
42.30466399999996,-7.002856000000003,9321
42.62866399999996,-6.354856000000003,9263
42.30466399999996,-6.354856000000003,9218
42.62866399999996,-5.706856000000004,8718
41.98066399999996,-4.410856000000004,8672
42.30466399999996,-3.7628560000000046,9063
40.03666399999997,-0.5228560000000062,8766
39.38866399999998,-0.5228560000000062,8814
41.00866399999997,0.7731439999999932,8914
40.68466399999997,0.7731439999999932,8946
40.36066399999997,0.1251439999999934,9024
39.712663999999975,-0.5228560000000062,8923
38.41666399999998,-0.5228560000000062,8935
39.06466399999998,-0.5228560000000062,9057
38.74066399999998,-1.170856000000006,8943
41.332663999999966,0.7731439999999932,8974
41.65666399999997,2.717143999999992,8574
41.65666399999997,2.0691439999999925,8597
41.332663999999966,0.1251439999999934,8932
41.332663999999966,-0.5228560000000062,8876
41.65666399999997,-4.410856000000004,8646
40.03666399999997,-2.4668560000000053,8884
41.00866399999997,-4.410856000000004,8767
43.276663999999954,-5.706856000000004,8848
39.38866399999998,-1.170856000000006,8909
38.09266399999999,-1.170856000000006,9322
38.74066399999998,-0.5228560000000062,9085
37.76866399999999,-1.170856000000006,9387
39.06466399999998,-1.8188560000000056,8907
39.38866399999998,-3.114856000000005,8807
39.38866399999998,-2.4668560000000053,8863
39.06466399999998,-2.4668560000000053,8890
39.06466399999998,-3.114856000000005,8811
39.06466399999998,-3.7628560000000046,8785
38.74066399999998,-3.7628560000000046,8864
40.03666399999997,-3.7628560000000046,8763
40.03666399999997,-3.114856000000005,8963
40.03666399999997,-1.8188560000000056,9044
39.712663999999975,-1.8188560000000056,9009
39.712663999999975,-1.170856000000006,8945
40.36066399999997,-1.170856000000006,8964
40.68466399999997,-1.170856000000006,8942
41.00866399999997,-1.170856000000006,8930
41.332663999999966,-1.170856000000006,8770
43.276663999999954,-8.298856000000002,9539
42.95266399999996,-8.298856000000002,9507
41.65666399999997,-5.706856000000004,65535
41.98066399999996,-7.002856000000003,65535
41.98066399999996,-6.354856000000003,65535
41.332663999999966,-5.058856000000004,8885
43.276663999999954,-3.7628560000000046,9320
42.95266399999996,-4.410856000000004,9254
42.62866399999996,-4.410856000000004,9244
42.30466399999996,-4.410856000000004,9203
41.00866399999997,-5.706856000000004,8823
41.332663999999966,-1.8188560000000056,8716
40.68466399999997,-3.114856000000005,8670
41.00866399999997,-3.114856000000005,8721
41.00866399999997,-2.4668560000000053,8744
41.332663999999966,-2.4668560000000053,8797
40.68466399999997,-4.410856000000004,8707
40.36066399999997,-4.410856000000004,8791
40.68466399999997,-3.7628560000000046,8699
40.36066399999997,-3.114856000000005,8677
41.65666399999997,-2.4668560000000053,8814
38.09266399999999,-3.7628560000000046,8911
38.74066399999998,-3.114856000000005,8855
37.76866399999999,-3.7628560000000046,8968
39.712663999999975,-3.114856000000005,8799
38.41666399999998,-3.7628560000000046,8876
40.03666399999997,-4.410856000000004,65535
40.03666399999997,-5.058856000000004,65535
39.38866399999998,-6.354856000000003,65535
39.38866399999998,-7.002856000000003,65535
42.95266399999996,-3.114856000000005,9448
41.98066399999996,-1.170856000000006,8811
42.30466399999996,-2.4668560000000053,8852
41.65666399999997,-0.5228560000000062,8909
41.98066399999996,-0.5228560000000062,8746
41.65666399999997,0.1251439999999934,8773
41.98066399999996,0.1251439999999934,8795
37.76866399999999,-5.058856000000004,8847
36.79666399999999,-4.410856000000004,8906
38.74066399999998,-4.410856000000004,8803
37.12066399999999,-4.410856000000004,8880
37.44466399999999,-5.058856000000004,9404
37.44466399999999,-7.002856000000003,65535
37.44466399999999,-6.354856000000003,65535
37.44466399999999,-5.706856000000004,9080
39.712663999999975,-3.7628560000000046,8873
42.62866399999996,-8.946856000000002,65535
42.30466399999996,-5.706856000000004,9225
42.30466399999996,-5.058856000000004,9310
42.95266399999996,-5.706856000000004,8750
41.00866399999997,-5.058856000000004,8791
40.68466399999997,-5.058856000000004,8765
41.65666399999997,-5.058856000000004,65535
41.65666399999997,-6.354856000000003,65535
36.79666399999999,-6.354856000000003,65535
37.12066399999999,-5.706856000000004,9248
37.76866399999999,-5.706856000000004,9047
38.09266399999999,-4.410856000000004,9182
37.12066399999999,-5.058856000000004,9202
36.79666399999999,-5.058856000000004,9160
37.76866399999999,-4.410856000000004,65535
37.76866399999999,-7.002856000000003,65535
38.41666399999998,-6.354856000000003,65535
38.09266399999999,-6.354856000000003,65535
48.78466399999992,1.4211439999999929,589
56.23666399999988,8.54914399999999,7090
55.58866399999988,9.197143999999987,6895
55.91266399999988,9.197143999999987,7036
55.26466399999988,10.493143999999988,1074
55.91266399999988,12.437143999999988,1209
55.58866399999988,11.789143999999988,6735
55.58866399999988,11.141143999999988,6776
55.26466399999988,11.789143999999988,6768
55.58866399999988,10.493143999999988,6891
55.58866399999988,13.085143999999987,1166
56.88466399999987,9.845143999999989,7042
57.20866399999987,9.845143999999989,7077
56.56066399999988,9.845143999999989,7014
56.88466399999987,8.54914399999999,7129
54.940663999999884,9.845143999999989,8236
54.940663999999884,11.789143999999988,6992
55.91266399999988,13.085143999999987,1224
56.23666399999988,13.733143999999989,1268
55.91266399999988,13.733143999999989,1271
56.23666399999988,14.381143999999988,1291
56.23666399999988,15.029143999999986,1332
56.23666399999988,15.677143999999986,1387
56.56066399999988,14.381143999999988,1348
56.88466399999987,14.381143999999988,1318
56.23666399999988,13.085143999999987,1216
56.56066399999988,13.085143999999987,1296
56.88466399999987,12.437143999999988,1333
57.20866399999987,12.437143999999988,1349
57.53266399999987,12.437143999999988,1364
56.88466399999987,15.029143999999986,1344
56.56066399999988,15.677143999999986,1404
56.88466399999987,15.677143999999986,1423
56.88466399999987,16.325143999999987,1438
55.91266399999988,11.789143999999988,7061
57.20866399999987,10.493143999999988,7264
49.43266399999992,1.4211439999999929,564
49.75666399999992,0.7731439999999932,599
49.75666399999992,2.0691439999999925,555
50.08066399999991,2.717143999999992,591
49.75666399999992,1.4211439999999929,581
47.81266399999993,1.4211439999999929,529
48.136663999999925,2.0691439999999925,575
48.46066399999992,2.0691439999999925,553
48.136663999999925,1.4211439999999929,551
48.78466399999992,0.1251439999999934,581
48.46066399999992,0.1251439999999934,555
47.81266399999993,0.1251439999999934,462
46.84066399999993,-0.5228560000000062,645
47.16466399999993,0.7731439999999932,443
46.84066399999993,0.1251439999999934,479
46.84066399999993,-1.170856000000006,539
50.08066399999991,1.4211439999999929,614
50.08066399999991,2.0691439999999925,560
49.43266399999992,2.717143999999992,520
49.75666399999992,3.365143999999992,545
50.08066399999991,3.365143999999992,583
49.10866399999992,2.0691439999999925,516
49.43266399999992,2.0691439999999925,543
48.78466399999992,0.7731439999999932,634
48.78466399999992,-0.5228560000000062,691
48.78466399999992,-1.170856000000006,642
48.136663999999925,0.7731439999999932,539
48.46066399999992,0.7731439999999932,567
43.92466399999995,5.957143999999991,604
44.24866399999995,5.957143999999991,645
43.92466399999995,5.309143999999991,461
42.95266399999996,2.717143999999992,378
45.54466399999994,2.0691439999999925,406
45.22066399999994,2.0691439999999925,289
42.95266399999996,2.0691439999999925,491
42.95266399999996,0.7731439999999932,338
43.276663999999954,0.7731439999999932,314
46.19266399999994,0.7731439999999932,344
46.516663999999935,0.7731439999999932,401
45.86866399999994,0.1251439999999934,534
46.19266399999994,0.1251439999999934,520
47.81266399999993,-1.170856000000006,572
48.136663999999925,-2.4668560000000053,611
47.48866399999993,-1.8188560000000056,539
47.16466399999993,-1.170856000000006,496
47.16466399999993,-0.5228560000000062,529
46.84066399999993,-1.8188560000000056,558
45.22066399999994,-0.5228560000000062,326
44.89666399999994,0.1251439999999934,263
45.22066399999994,0.7731439999999932,224
45.54466399999994,0.7731439999999932,245
45.86866399999994,0.7731439999999932,518
45.22066399999994,0.1251439999999934,315
44.89666399999994,0.7731439999999932,199
43.92466399999995,-0.5228560000000062,479
43.92466399999995,-1.170856000000006,450
44.24866399999995,-1.170856000000006,447
45.22066399999994,-1.170856000000006,378
44.572663999999946,-0.5228560000000062,343
44.24866399999995,0.1251439999999934,317
44.572663999999946,0.7731439999999932,318
43.276663999999954,-1.170856000000006,472
42.95266399999996,-0.5228560000000062,637
44.24866399999995,2.0691439999999925,161
43.60066399999995,0.7731439999999932,284
43.60066399999995,2.0691439999999925,255
52.6726639999999,4.661143999999991,7081
52.6726639999999,5.309143999999991,7104
51.700663999999904,5.309143999999991,7049
52.0246639999999,5.309143999999991,7061
52.3486639999999,5.309143999999991,7077
51.37666399999991,4.013143999999992,7057
52.3486639999999,5.957143999999991,7071
52.0246639999999,6.60514399999999,7101
52.6726639999999,5.957143999999991,7088
52.996663999999896,5.957143999999991,7101
53.32066399999989,5.957143999999991,7095
52.996663999999896,6.60514399999999,7077
53.32066399999989,6.60514399999999,7069
52.6726639999999,6.60514399999999,7097
52.996663999999896,5.309143999999991,7116
59.15266399999986,24.101143999999977,65535
56.88466399999987,24.101143999999977,65535
56.88466399999987,23.45314399999998,65535
56.88466399999987,22.805143999999984,65535
57.20866399999987,24.74914399999998,65535
56.88466399999987,24.74914399999998,65535
56.56066399999988,24.74914399999998,65535
56.56066399999988,25.397143999999983,65535
56.56066399999988,24.101143999999977,65535
56.56066399999988,23.45314399999998,65535
56.56066399999988,26.04514399999998,65535
56.88466399999987,26.04514399999998,65535
57.20866399999987,25.397143999999983,65535
57.53266399999987,25.397143999999983,65535
56.23666399999988,26.04514399999998,65535
56.23666399999988,26.69314399999997,65535
55.91266399999988,26.69314399999997,65535
56.56066399999988,26.69314399999997,65535
56.56066399999988,27.34114399999998,65535
56.56066399999988,27.989143999999985,65535
56.23666399999988,27.989143999999985,65535
55.91266399999988,27.34114399999998,65535
56.56066399999988,22.805143999999984,65535
56.56066399999988,22.15714399999998,65535
56.56066399999988,21.50914399999997,65535
57.20866399999987,26.69314399999997,65535
39.06466399999998,-8.946856000000002,65535
38.41666399999998,-8.298856000000002,65535
45.86866399999994,11.789143999999988,2068
46.19266399999994,11.789143999999988,2055
46.19266399999994,10.493143999999988,2095
45.22066399999994,18.269143999999983,1932
45.22066399999994,18.917143999999983,1973
45.54466399999994,16.973143999999984,1759
45.22066399999994,17.621143999999987,1876
45.86866399999994,16.325143999999987,1628
45.54466399999994,18.917143999999983,1973
45.54466399999994,16.325143999999987,1654
45.54466399999994,18.269143999999983,1880
44.89666399999994,18.917143999999983,2170
46.19266399999994,16.973143999999984,1719
46.19266399999994,16.325143999999987,1685
45.86866399999994,16.973143999999984,1678
45.86866399999994,17.621143999999987,1721
46.19266399999994,15.677143999999986,1593
46.516663999999935,16.325143999999987,1658
45.54466399999994,15.677143999999986,1677
45.22066399999994,15.029143999999986,1659
45.54466399999994,15.029143999999986,1641
45.22066399999994,15.677143999999986,1724
44.572663999999946,15.677143999999986,2059
44.24866399999995,15.677143999999986,2080
43.92466399999995,16.325143999999987,2144
44.89666399999994,15.677143999999986,2023
45.54466399999994,17.621143999999987,1846
45.22066399999994,16.325143999999987,1713
46.516663999999935,16.973143999999984,1788
45.86866399999994,18.269143999999983,2080
43.92466399999995,15.677143999999986,2246
45.22066399999994,13.733143999999989,1776
47.48866399999993,19.565143999999982,1612
47.16466399999993,18.917143999999983,1598
47.81266399999993,18.917143999999983,1546
45.54466399999994,9.845143999999989,650
45.22066399999994,9.845143999999989,640
45.22066399999994,10.493143999999988,678
45.86866399999994,9.845143999999989,678
45.86866399999994,10.493143999999988,2838
48.78466399999992,21.50914399999997,1756
49.10866399999992,20.213143999999986,1651
49.10866399999992,18.917143999999983,1569
48.46066399999992,17.621143999999987,1379
49.43266399999992,17.621143999999987,1453
49.10866399999992,17.621143999999987,1492
48.136663999999925,18.269143999999983,1458
49.10866399999992,18.269143999999983,1431
49.43266399999992,18.269143999999983,1484
49.43266399999992,16.973143999999984,1430
49.75666399999992,16.973143999999984,1401
49.75666399999992,16.325143999999987,1379
50.08066399999991,15.677143999999986,1273
50.08066399999991,15.029143999999986,1264
49.43266399999992,18.917143999999983,1555
47.81266399999993,20.86114399999998,1675
48.136663999999925,20.86114399999998,1706
48.46066399999992,20.86114399999998,1748
48.46066399999992,21.50914399999997,1752
49.10866399999992,19.565143999999982,1662
48.136663999999925,17.621143999999987,1380
48.78466399999992,22.15714399999998,1855
48.78466399999992,20.86114399999998,1887
49.10866399999992,20.86114399999998,1742
48.78466399999992,18.269143999999983,1401
48.78466399999992,17.621143999999987,1419
49.10866399999992,21.50914399999997,1769
48.78466399999992,20.213143999999986,1895
48.46066399999992,20.213143999999986,1936
48.136663999999925,19.565143999999982,2085
48.46066399999992,19.565143999999982,1964
48.46066399999992,18.917143999999983,1414
48.46066399999992,18.269143999999983,1386
48.78466399999992,19.565143999999982,1730
48.78466399999992,18.917143999999983,1472
47.81266399999993,18.269143999999983,1440
49.10866399999992,22.15714399999998,1896
49.43266399999992,21.50914399999997,1894
48.136663999999925,18.917143999999983,1786
48.136663999999925,20.213143999999986,2105
52.636,-8.018,65535
52.312,-7.370000000000001,65535
52.312,-8.018,65535
52.636,-8.666,65535
51.988,-8.666,65535
51.988,-8.018,65535
52.96,-8.666,65535
52.96,-6.074000000000002,65535
53.28399999999999,-6.722000000000001,65535
53.60799999999999,-6.722000000000001,65535
53.60799999999999,-7.370000000000001,65535
53.60799999999999,-8.018,65535
54.25599999999999,-8.666,65535
53.93199999999999,-8.666,65535
53.93199999999999,-8.018,65535
52.312,-6.722000000000001,65535
52.636,-6.722000000000001,65535
53.93199999999999,-6.722000000000001,65535
54.25599999999999,-6.074000000000002,65535
53.28399999999999,-7.370000000000001,65535
52.96,-7.370000000000001,65535
52.312,-8.666,65535
52.96,-8.018,65535
52.636,-7.370000000000001,65535
52.96,-6.722000000000001,65535
51.988,-9.314,65535
52.312,-9.314,65535
54.579999999999984,-6.722000000000001,65535
54.579999999999984,-6.074000000000002,65535
53.28399999999999,-8.018,65535
53.28399999999999,-8.666,65535
53.28399999999999,-9.314,65535
53.93199999999999,-9.314,65535
54.25599999999999,-9.314,65535
53.60799999999999,-8.666,65535
53.60799999999999,-9.314,65535
49.43266399999992,14.381143999999988,1366
49.75666399999992,14.381143999999988,1280
49.75666399999992,15.029143999999986,1276
49.75666399999992,13.733143999999989,1285
50.08066399999991,13.733143999999989,1281
49.75666399999992,15.677143999999986,1317
50.40466399999991,15.029143999999986,1242
49.43266399999992,13.733143999999989,1294
50.40466399999991,15.677143999999986,1262
50.40466399999991,13.733143999999989,1311
46.19266399999994,15.029143999999986,1573
45.86866399999994,15.029143999999986,1632
45.86866399999994,14.381143999999988,1610
46.19266399999994,13.733143999999989,1665
45.86866399999994,13.733143999999989,1741
58.50466399999986,13.733143999999989,1442
58.180663999999865,13.733143999999989,1446
58.180663999999865,13.085143999999987,1418
57.85666399999987,12.437143999999988,1384
60.44866399999985,15.677143999999986,1667
60.124663999999854,15.677143999999986,1601
60.124663999999854,16.325143999999987,1639
59.800663999999855,16.325143999999987,1567
59.800663999999855,17.621143999999987,1546
59.47666399999986,18.269143999999983,1528
61.74466399999984,16.973143999999984,1678
61.420663999999846,16.973143999999984,1651
60.77266399999985,16.973143999999984,1603
65.63266399999982,22.15714399999998,2782
65.95666399999982,21.50914399999997,2742
65.63266399999982,20.86114399999998,2713
64.98466399999982,20.213143999999986,2645
64.66066399999983,20.213143999999986,2623
64.33666399999983,19.565143999999982,2317
64.01266399999983,19.565143999999982,2030
63.68866399999983,20.213143999999986,1983
64.66066399999983,18.917143999999983,2994
59.15266399999986,16.325143999999987,1503
59.15266399999986,15.029143999999986,1495
59.15266399999986,17.621143999999987,1520
57.53266399999987,14.381143999999988,1344
57.53266399999987,15.029143999999986,1364
61.09666399999985,14.381143999999988,1771
60.77266399999985,15.029143999999986,1722
60.44866399999985,15.029143999999986,1708
58.180663999999865,15.029143999999986,1421
58.50466399999986,16.325143999999987,1455
58.50466399999986,15.677143999999986,1428
63.36466399999984,13.085143999999987,2015
63.04066399999984,14.381143999999988,1952
62.39266399999984,15.677143999999986,1874
63.36466399999984,13.733143999999989,1997
63.36466399999984,14.381143999999988,1969
62.71666399999984,15.677143999999986,1902
62.39266399999984,17.621143999999987,1736
59.800663999999855,15.677143999999986,2013
55.58866399999988,13.733143999999989,1298
57.20866399999987,14.381143999999988,1328
57.85666399999987,14.381143999999988,1376
58.82866399999986,16.973143999999984,1512
58.82866399999986,16.325143999999987,1490
59.15266399999986,18.269143999999983,1524
60.44866399999985,17.621143999999987,1579
59.15266399999986,12.437143999999988,1483
59.15266399999986,13.085143999999987,1497
58.82866399999986,12.437143999999988,1459
59.47666399999986,16.325143999999987,1529
58.82866399999986,14.381143999999988,1536
59.47666399999986,15.677143999999986,1518
63.36466399999984,18.917143999999983,1936
63.04066399999984,17.621143999999987,1891
62.71666399999984,17.621143999999987,1865
63.68866399999983,19.565143999999982,1969
62.39266399999984,16.973143999999984,1780
59.800663999999855,16.973143999999984,1555
59.47666399999986,17.621143999999987,1532
57.85666399999987,13.085143999999987,1408
57.53266399999987,13.085143999999987,1389
58.50466399999986,11.789143999999988,1430
57.85666399999987,15.029143999999986,1410
57.20866399999987,13.733143999999989,1334
57.53266399999987,13.733143999999989,1395
61.74466399999984,16.325143999999987,1774
61.420663999999846,16.325143999999987,1741
61.09666399999985,16.325143999999987,1730
61.09666399999985,16.973143999999984,1698
60.124663999999854,15.029143999999986,1876
66.60466399999981,20.86114399999998,2817
67.25266399999981,20.86114399999998,2885
67.90066399999981,20.213143999999986,2955
67.57666399999981,20.213143999999986,3580
59.800663999999855,15.029143999999986,1596
58.50466399999986,15.029143999999986,1438
59.47666399999986,15.029143999999986,1581
60.44866399999985,16.325143999999987,1667
59.15266399999986,15.677143999999986,1525
57.85666399999987,13.733143999999989,1436
58.82866399999986,13.733143999999989,1483
58.50466399999986,13.085143999999987,1468
57.20866399999987,13.085143999999987,1365
56.88466399999987,13.085143999999987,1339
58.180663999999865,11.789143999999988,1401
62.06866399999984,16.973143999999984,1769
65.95666399999982,23.45314399999998,2823
59.800663999999855,14.381143999999988,5891
59.800663999999855,18.269143999999983,1537
63.04066399999984,15.029143999999986,1920
62.71666399999984,15.029143999999986,1910
62.39266399999984,16.325143999999987,1843
63.36466399999984,12.437143999999988,2048
68.5486639999998,17.621143999999987,3168
68.5486639999998,18.269143999999983,3101
68.5486639999998,18.917143999999983,3078
68.2246639999998,18.917143999999983,3034
59.800663999999855,13.085143999999987,1600
60.124663999999854,13.085143999999987,1639
59.47666399999986,16.973143999999984,1541
59.15266399999986,16.973143999999984,1533
56.56066399999988,13.733143999999989,1286
60.124663999999854,17.621143999999987,1556
57.85666399999987,16.325143999999987,1515
58.180663999999865,16.325143999999987,1477
58.180663999999865,15.677143999999986,1485
57.20866399999987,16.325143999999987,1527
57.53266399999987,15.677143999999986,1545
57.85666399999987,15.677143999999986,1516
44.89666399999994,23.45314399999998,2965
44.572663999999946,23.45314399999998,3035
44.89666399999994,24.74914399999998,2952
44.572663999999946,24.74914399999998,3071
44.572663999999946,24.101143999999977,3012
44.24866399999995,24.101143999999977,3041
47.48866399999993,25.397143999999983,2813
47.48866399999993,24.74914399999998,2753
47.16466399999993,24.74914399999998,2675
47.16466399999993,24.101143999999977,2577
47.48866399999993,22.15714399999998,2707
47.81266399999993,22.15714399999998,2793
47.16466399999993,22.15714399999998,2686
47.16466399999993,23.45314399999998,2738
47.16466399999993,22.805143999999984,2744
46.84066399999993,24.101143999999977,2658
45.86866399999994,27.34114399999998,2998
45.54466399999994,27.34114399999998,2979
45.54466399999994,27.989143999999985,3095
45.86866399999994,20.86114399999998,2870
45.86866399999994,21.50914399999997,2878
46.19266399999994,21.50914399999997,2814
46.19266399999994,27.34114399999998,2998
46.19266399999994,26.69314399999997,2989
46.516663999999935,26.69314399999997,2951
46.516663999999935,26.04514399999998,2847
47.48866399999993,22.805143999999984,2805
46.84066399999993,22.805143999999984,2618
45.54466399999994,22.15714399999998,2927
45.22066399999994,22.15714399999998,3005
44.89666399999994,22.15714399999998,3423
47.48866399999993,23.45314399999998,2771
46.516663999999935,24.101143999999977,2497
46.516663999999935,24.74914399999998,2711
45.86866399999994,24.101143999999977,2660
47.16466399999993,26.69314399999997,3029
47.16466399999993,27.34114399999998,3084
43.92466399999995,25.397143999999983,3043
44.24866399999995,24.74914399999998,2950
44.89666399999994,26.04514399999998,2837
44.89666399999994,26.69314399999997,2884
45.22066399999994,26.69314399999997,2919
45.22066399999994,27.34114399999998,2946
46.84066399999993,26.69314399999997,2990
47.48866399999993,26.69314399999997,2983
44.24866399999995,25.397143999999983,2882
43.92466399999995,26.04514399999998,3059
46.19266399999994,24.101143999999977,2705
44.572663999999946,25.397143999999983,2920
46.84066399999993,24.74914399999998,2718
46.516663999999935,21.50914399999997,2818
46.84066399999993,21.50914399999997,2825
44.572663999999946,26.69314399999997,2875
44.572663999999946,27.34114399999998,2896
44.89666399999994,27.34114399999998,3011
44.572663999999946,27.989143999999985,2916
44.24866399999995,27.989143999999985,2930
44.572663999999946,28.63714399999997,2981
45.86866399999994,22.15714399999998,2739
45.86866399999994,22.805143999999984,2633
44.24866399999995,23.45314399999998,3068
43.92466399999995,27.989143999999985,65535
46.84066399999993,27.34114399999998,3151
45.22066399999994,23.45314399999998,2940
45.54466399999994,23.45314399999998,2743
45.54466399999994,24.101143999999977,2690
45.22066399999994,24.101143999999977,2914
44.89666399999994,24.101143999999977,2984
46.19266399999994,22.15714399999998,2870
46.516663999999935,22.15714399999998,2836
45.22066399999994,21.50914399999997,3110
45.54466399999994,21.50914399999997,2958
45.54466399999994,20.86114399999998,2982
46.516663999999935,27.989143999999985,3101
46.19266399999994,27.989143999999985,3086
45.54466399999994,25.397143999999983,2804
45.22066399999994,25.397143999999983,2814
45.22066399999994,26.04514399999998,2870
47.81266399999993,24.101143999999977,2866
47.48866399999993,26.04514399999998,2956
47.81266399999993,26.04514399999998,2978
46.19266399999994,23.45314399999998,2537
45.86866399999994,23.45314399999998,2586
44.24866399999995,26.04514399999998,2864
45.22066399999994,27.989143999999985,3076
45.86866399999994,24.74914399999998,2699
46.516663999999935,25.397143999999983,2891
46.84066399999993,25.397143999999983,2774
46.19266399999994,26.04514399999998,2862
45.86866399999994,26.04514399999998,2827
43.92466399999995,23.45314399999998,3298
44.89666399999994,25.397143999999983,2925
46.19266399999994,20.86114399999998,2859
47.81266399999993,25.397143999999983,2990
44.572663999999946,22.805143999999984,3303
44.572663999999946,22.15714399999998,3445
46.516663999999935,23.45314399999998,2676
45.86866399999994,25.397143999999983,2753
44.24866399999995,27.34114399999998,3691
45.22066399999994,24.74914399999998,3016
45.54466399999994,22.805143999999984,2706
45.22066399999994,28.63714399999997,3136
44.89666399999994,28.63714399999997,3075
47.81266399999993,23.45314399999998,2923
46.19266399999994,24.74914399999998,2785
46.19266399999994,25.397143999999983,2809
43.92466399999995,24.101143999999977,3261
43.92466399999995,24.74914399999998,3274
47.81266399999993,26.69314399999997,3205
47.48866399999993,24.101143999999977,2798
46.84066399999993,26.04514399999998,3606
46.19266399999994,22.805143999999984,2930
47.48866399999993,27.34114399999998,3158
46.19266399999994,20.213143999999986,65535
45.54466399999994,26.04514399999998,2962
44.24866399999995,26.69314399999997,2880
45.86866399999994,27.989143999999985,3134
47.81266399999993,5.957143999999991,7066
