51.56399999999999,-0.4100000000000028,65535
51.887999999999984,-0.4100000000000028,65535
50.91599999999999,-1.7060000000000022,65535
51.23999999999999,-1.0580000000000025,65535
51.56399999999999,-1.0580000000000025,65535
51.23999999999999,-1.7060000000000022,65535
51.56399999999999,0.2379999999999968,65535
47.16466399999993,9.845143999999989,572
47.48866399999993,9.845143999999989,572
48.136663999999925,14.381143999999988,1060
47.81266399999993,13.085143999999987,969
47.16466399999993,11.141143999999988,1010
47.48866399999993,11.789143999999988,1157
48.136663999999925,16.325143999999987,1353
47.48866399999993,12.437143999999988,953
48.136663999999925,15.677143999999986,1303
47.16466399999993,10.493143999999988,901
47.16466399999993,9.197143999999987,566
48.136663999999925,13.733143999999989,1036
48.136663999999925,15.029143999999986,1199
47.81266399999993,16.973143999999984,1375
48.46066399999992,14.381143999999988,3784
47.48866399999993,13.085143999999987,959
47.16466399999993,13.085143999999987,970
47.48866399999993,14.381143999999988,1231
47.48866399999993,13.733143999999989,1311
47.48866399999993,15.029143999999986,1367
46.516663999999935,13.733143999999989,1007
46.84066399999993,13.733143999999989,985
46.84066399999993,13.085143999999987,980
48.78466399999992,14.381143999999988,65535
47.16466399999993,15.677143999999986,1325
46.516663999999935,14.381143999999988,1058
46.84066399999993,14.381143999999988,1041
47.16466399999993,14.381143999999988,2405
46.516663999999935,15.029143999999986,1117
47.81266399999993,16.325143999999987,1372
47.16466399999993,15.029143999999986,1333
47.81266399999993,15.677143999999986,1515
47.48866399999993,15.677143999999986,1364
46.516663999999935,13.085143999999987,2774
46.84066399999993,12.437143999999988,1019
48.136663999999925,11.789143999999988,912
47.81266399999993,12.437143999999988,922
46.84066399999993,15.677143999999986,1305
46.516663999999935,15.677143999999986,1141
46.84066399999993,16.325143999999987,1248
47.81266399999993,14.381143999999988,1165
48.78466399999992,16.973143999999984,1372
48.136663999999925,16.973143999999984,1366
48.46066399999992,13.733143999999989,1050
47.81266399999993,13.733143999999989,1154
50.08066399999991,8.54914399999999,911
48.46066399999992,9.845143999999989,849
51.05266399999991,7.25314399999999,959
51.37666399999991,7.25314399999999,968
51.37666399999991,6.60514399999999,965
48.46066399999992,16.325143999999987,1349
48.46066399999992,16.973143999999984,1388
48.78466399999992,16.325143999999987,1370
48.46066399999992,15.677143999999986,1318
48.78466399999992,15.677143999999986,1367
47.48866399999993,16.325143999999987,1382
47.16466399999993,16.325143999999987,1350
46.19266399999994,14.381143999999988,1086
45.86866399999994,15.677143999999986,1161
43.60066399999995,16.325143999999987,2515
45.54466399999994,14.381143999999988,1199
45.54466399999994,13.733143999999989,1221
48.136663999999925,13.085143999999987,975
48.46066399999992,11.141143999999988,919
48.136663999999925,11.141143999999988,908
48.46066399999992,7.90114399999999,813
49.10866399999992,8.54914399999999,872
48.78466399999992,2.0691439999999925,405
49.10866399999992,7.25314399999999,1011
52.0246639999999,7.90114399999999,999
47.16466399999993,11.789143999999988,1030
49.43266399999992,11.141143999999988,944
53.64466399999989,9.845143999999989,1109
50.72866399999991,4.013143999999992,816
51.05266399999991,11.141143999999988,1062
47.48866399999993,11.141143999999988,933
46.84066399999993,11.789143999999988,1502
46.516663999999935,11.141143999999988,1382
45.54466399999994,11.141143999999988,1288
46.19266399999994,11.141143999999988,1376
45.86866399999994,11.141143999999988,1363
44.572663999999946,11.141143999999988,1332
43.92466399999995,12.437143999999988,65535
45.54466399999994,12.437143999999988,1334
45.54466399999994,11.789143999999988,1315
48.78466399999992,15.029143999999986,1692
47.81266399999993,15.029143999999986,1290
47.81266399999993,11.141143999999988,926
50.40466399999991,18.917143999999983,1464
52.3486639999999,20.86114399999998,1630
54.616663999999886,18.269143999999983,1537
54.29266399999989,18.917143999999983,1538
49.10866399999992,14.381143999999988,65535
50.08066399999991,14.381143999999988,1182
48.78466399999992,13.733143999999989,1160
52.6726639999999,13.085143999999987,1133
52.3486639999999,13.085143999999987,1131
53.96866399999989,12.437143999999988,1231
54.29266399999989,12.437143999999988,1232
47.48866399999993,8.54914399999999,556
47.81266399999993,17.621143999999987,1398
47.48866399999993,18.917143999999983,1460
47.48866399999993,20.86114399999998,1801
46.84066399999993,23.45314399999998,2419
44.572663999999946,26.04514399999998,2837
47.48866399999993,21.50914399999997,1835
47.81266399999993,21.50914399999997,1868
48.46066399999992,22.15714399999998,1597
47.48866399999993,16.973143999999984,65535
49.10866399999992,16.325143999999987,1327
49.75666399999992,18.269143999999983,1420
46.19266399999994,13.085143999999987,2303
41.98066399999996,12.437143999999988,2470
43.60066399999995,10.493143999999988,2726
45.54466399999994,9.197143999999987,810
47.81266399999993,22.805143999999984,2659
49.75666399999992,22.805143999999984,1634
50.72866399999991,3.365143999999992,497
51.05266399999991,4.013143999999992,830
50.72866399999991,4.661143999999991,821
51.05266399999991,4.661143999999991,824
51.05266399999991,3.365143999999992,813
51.05266399999991,2.717143999999992,892
50.40466399999991,4.661143999999991,870
50.72866399999991,2.717143999999992,934
50.40466399999991,4.013143999999992,826
51.05266399999991,5.309143999999991,925
50.72866399999991,5.309143999999991,895
51.37666399999991,3.365143999999992,896
51.37666399999991,4.661143999999991,852
50.72866399999991,5.957143999999991,909
50.40466399999991,5.957143999999991,914
50.40466399999991,3.365143999999992,814
50.40466399999991,5.309143999999991,879
50.08066399999991,5.309143999999991,979
49.75666399999992,5.309143999999991,1021
49.75666399999992,5.957143999999991,1027
51.37666399999991,5.309143999999991,956
51.700663999999904,4.661143999999991,878
50.08066399999991,4.013143999999992,1002
50.08066399999991,5.957143999999991,1041
50.08066399999991,4.661143999999991,991
49.43266399999992,5.309143999999991,1100
49.43266399999992,5.957143999999991,1002
52.0246639999999,4.661143999999991,2229
52.3486639999999,4.661143999999991,2264
50.72866399999991,15.029143999999986,1150
51.05266399999991,15.029143999999986,1136
51.05266399999991,13.733143999999989,1118
50.40466399999991,13.085143999999987,1067
49.10866399999992,7.90114399999999,957
48.78466399999992,7.90114399999999,839
50.40466399999991,7.90114399999999,923
50.08066399999991,7.90114399999999,941
49.75666399999992,7.90114399999999,931
49.43266399999992,7.90114399999999,923
49.75666399999992,8.54914399999999,890
49.43266399999992,8.54914399999999,885
49.43266399999992,9.197143999999987,918
49.10866399999992,9.197143999999987,908
47.48866399999993,7.90114399999999,535
47.81266399999993,7.90114399999999,760
48.136663999999925,7.90114399999999,786
48.136663999999925,9.845143999999989,835
47.81266399999993,9.197143999999987,566
47.81266399999993,8.54914399999999,574
47.81266399999993,9.845143999999989,576
54.940663999999884,9.197143999999987,1161
54.616663999999886,9.197143999999987,1140
54.29266399999989,9.197143999999987,1148
53.96866399999989,9.197143999999987,1136
53.64466399999989,9.197143999999987,1119
54.616663999999886,9.845143999999989,1132
54.29266399999989,9.845143999999989,1123
53.96866399999989,9.845143999999989,1118
53.64466399999989,10.493143999999988,1112
53.96866399999989,10.493143999999988,1118
53.96866399999989,11.141143999999988,1154
54.29266399999989,10.493143999999988,1138
53.32066399999989,10.493143999999988,1119
54.940663999999884,11.141143999999988,1249
52.6726639999999,13.733143999999989,1134
52.3486639999999,13.733143999999989,1136
52.3486639999999,14.381143999999988,1147
52.0246639999999,14.381143999999988,1160
52.0246639999999,11.789143999999988,1098
52.3486639999999,11.789143999999988,1129
52.3486639999999,12.437143999999988,1130
52.0246639999999,15.029143999999986,1183
51.700663999999904,14.381143999999988,1153
52.0246639999999,13.733143999999989,1140
51.700663999999904,13.733143999999989,1130
52.6726639999999,12.437143999999988,1148
53.32066399999989,11.789143999999988,1174
53.96866399999989,11.789143999999988,1228
53.64466399999989,11.789143999999988,1186
53.64466399999989,11.141143999999988,1182
53.32066399999989,11.141143999999988,1155
52.996663999999896,11.789143999999988,1180
52.996663999999896,12.437143999999988,1164
52.996663999999896,13.733143999999989,1140
53.64466399999989,13.733143999999989,1216
53.96866399999989,13.733143999999989,1250
54.29266399999989,13.085143999999987,1292
53.96866399999989,13.085143999999987,1259
53.32066399999989,13.733143999999989,1175
52.0246639999999,13.085143999999987,1099
51.700663999999904,13.085143999999987,1094
52.996663999999896,14.381143999999988,1158
52.0246639999999,12.437143999999988,1089
51.700663999999904,12.437143999999988,1085
51.37666399999991,11.789143999999988,1081
51.37666399999991,12.437143999999988,1064
52.6726639999999,11.789143999999988,1190
53.64466399999989,13.085143999999987,1243
53.32066399999989,13.085143999999987,1185
52.996663999999896,13.085143999999987,1158
53.64466399999989,12.437143999999988,1228
51.37666399999991,13.733143999999989,1113
53.32066399999989,12.437143999999988,1195
52.6726639999999,14.381143999999988,1153
51.37666399999991,13.085143999999987,1103
53.32066399999989,14.381143999999988,1184
52.3486639999999,15.029143999999986,1191
52.0246639999999,15.677143999999986,1191
51.700663999999904,15.029143999999986,1218
51.05266399999991,16.325143999999987,1237
51.05266399999991,16.973143999999984,1251
51.700663999999904,15.677143999999986,1208
51.37666399999991,15.677143999999986,1195
51.37666399999991,16.325143999999987,1228
50.72866399999991,13.085143999999987,1076
50.72866399999991,12.437143999999988,1036
51.05266399999991,13.085143999999987,1092
51.05266399999991,14.381143999999988,1132
50.40466399999991,12.437143999999988,1013
50.40466399999991,11.789143999999988,986
50.08066399999991,12.437143999999988,1036
50.72866399999991,11.789143999999988,1039
51.05266399999991,12.437143999999988,1046
50.72866399999991,14.381143999999988,1194
51.37666399999991,14.381143999999988,1154
50.72866399999991,13.733143999999989,1137
50.40466399999991,14.381143999999988,1179
51.37666399999991,15.029143999999986,1155
55.26466399999988,9.197143999999987,1788
55.58866399999988,8.54914399999999,1822
55.91266399999988,8.54914399999999,2239
56.23666399999988,9.197143999999987,2247
56.23666399999988,10.493143999999988,2200
56.23666399999988,9.845143999999989,2187
55.91266399999988,9.845143999999989,2125
56.56066399999988,9.197143999999987,2257
56.56066399999988,8.54914399999999,2300
51.05266399999991,6.60514399999999,959
51.700663999999904,7.90114399999999,979
50.72866399999991,6.60514399999999,966
51.700663999999904,7.25314399999999,974
50.72866399999991,7.25314399999999,943
52.0246639999999,7.25314399999999,991
52.3486639999999,7.90114399999999,1020
51.05266399999991,5.957143999999991,942
50.40466399999991,7.25314399999999,929
51.700663999999904,6.60514399999999,981
51.700663999999904,5.957143999999991,1004
52.3486639999999,9.197143999999987,1029
51.700663999999904,8.54914399999999,991
52.0246639999999,8.54914399999999,1006
52.3486639999999,8.54914399999999,1026
51.37666399999991,7.90114399999999,973
52.3486639999999,7.25314399999999,1041
51.37666399999991,5.957143999999991,1001
50.72866399999991,7.90114399999999,991
51.37666399999991,9.197143999999987,998
51.700663999999904,9.197143999999987,1005
50.40466399999991,6.60514399999999,1006
51.05266399999991,7.90114399999999,1013
51.37666399999991,8.54914399999999,1002
52.0246639999999,5.957143999999991,1011
52.3486639999999,6.60514399999999,1046
51.05266399999991,8.54914399999999,983
52.0246639999999,9.197143999999987,1024
52.6726639999999,9.197143999999987,1050
52.0246639999999,9.845143999999989,1057
51.700663999999904,9.845143999999989,1030
51.37666399999991,9.845143999999989,1013
50.72866399999991,8.54914399999999,938
51.05266399999991,9.845143999999989,1068
50.72866399999991,9.845143999999989,1036
50.40466399999991,9.845143999999989,1015
51.05266399999991,9.197143999999987,973
50.40466399999991,9.197143999999987,958
50.08066399999991,9.197143999999987,921
51.05266399999991,10.493143999999988,1062
50.40466399999991,8.54914399999999,920
50.72866399999991,9.197143999999987,964
49.75666399999992,9.197143999999987,928
52.996663999999896,9.197143999999987,1089
52.3486639999999,9.845143999999989,1037
52.996663999999896,8.54914399999999,1097
52.996663999999896,7.90114399999999,1109
53.32066399999989,7.90114399999999,1123
53.32066399999989,7.25314399999999,1154
53.64466399999989,7.25314399999999,1258
52.996663999999896,10.493143999999988,1103
52.6726639999999,10.493143999999988,1096
52.6726639999999,9.845143999999989,1042
53.32066399999989,9.845143999999989,1103
53.32066399999989,9.197143999999987,1107
53.64466399999989,8.54914399999999,1145
53.32066399999989,8.54914399999999,1117
52.6726639999999,8.54914399999999,1083
52.0246639999999,10.493143999999988,1109
52.0246639999999,11.141143999999988,1090
51.700663999999904,11.141143999999988,1065
52.6726639999999,7.25314399999999,1794
52.996663999999896,7.25314399999999,1822
52.6726639999999,7.90114399999999,1087
53.64466399999989,7.90114399999999,1151
52.996663999999896,11.141143999999988,1164
52.6726639999999,11.141143999999988,1250
52.3486639999999,10.493143999999988,1081
52.996663999999896,9.845143999999989,1056
51.700663999999904,10.493143999999988,1038
51.37666399999991,10.493143999999988,1027
51.700663999999904,11.789143999999988,1094
52.3486639999999,11.141143999999988,1107
51.37666399999991,11.141143999999988,1041
51.05266399999991,11.789143999999988,1074
49.10866399999992,11.141143999999988,920
48.78466399999992,11.141143999999988,911
48.46066399999992,11.789143999999988,921
49.43266399999992,11.789143999999988,948
50.08066399999991,11.789143999999988,976
49.75666399999992,12.437143999999988,1015
49.10866399999992,11.789143999999988,978
48.78466399999992,12.437143999999988,983
48.46066399999992,12.437143999999988,972
49.10866399999992,12.437143999999988,979
48.78466399999992,13.085143999999987,1011
48.136663999999925,12.437143999999988,949
47.81266399999993,11.789143999999988,917
48.136663999999925,10.493143999999988,901
47.81266399999993,10.493143999999988,903
48.78466399999992,10.493143999999988,880
47.48866399999993,10.493143999999988,898
48.46066399999992,10.493143999999988,875
49.43266399999992,13.085143999999987,1011
48.46066399999992,13.085143999999987,1032
49.43266399999992,10.493143999999988,963
49.75666399999992,9.845143999999989,978
49.75666399999992,10.493143999999988,964
50.40466399999991,11.141143999999988,971
50.08066399999991,11.141143999999988,1011
50.72866399999991,11.141143999999988,1053
49.75666399999992,11.141143999999988,952
48.78466399999992,11.789143999999988,973
50.40466399999991,10.493143999999988,949
50.08066399999991,9.845143999999989,935
50.08066399999991,10.493143999999988,997
49.43266399999992,12.437143999999988,973
49.75666399999992,11.789143999999988,972
49.10866399999992,13.085143999999987,1008
50.72866399999991,10.493143999999988,1076
49.10866399999992,10.493143999999988,987
48.78466399999992,9.845143999999989,892
48.46066399999992,8.54914399999999,914
48.46066399999992,9.197143999999987,910
48.78466399999992,9.197143999999987,905
48.78466399999992,8.54914399999999,862
50.08066399999991,7.25314399999999,950
49.75666399999992,6.60514399999999,1011
49.43266399999992,6.60514399999999,1039
49.10866399999992,6.60514399999999,1011
49.43266399999992,7.25314399999999,1008
49.75666399999992,7.25314399999999,953
49.10866399999992,5.957143999999991,873
48.78466399999992,7.25314399999999,1003
50.08066399999991,6.60514399999999,1008
47.48866399999993,9.197143999999987,564
48.136663999999925,8.54914399999999,868
48.136663999999925,9.197143999999987,885
47.81266399999993,7.25314399999999,739
49.43266399999992,9.845143999999989,952
49.10866399999992,9.845143999999989,923
53.64466399999989,14.381143999999988,1223
50.08066399999991,13.085143999999987,1258
49.75666399999992,13.085143999999987,1295
45.86866399999994,9.197143999999987,565
46.19266399999994,9.197143999999987,534
46.516663999999935,8.54914399999999,872
46.516663999999935,9.197143999999987,859
46.19266399999994,8.54914399999999,521
47.16466399999993,8.54914399999999,556
45.86866399999994,4.661143999999991,307
46.84066399999993,9.845143999999989,576
45.22066399999994,5.957143999999991,399
45.22066399999994,5.309143999999991,382
45.86866399999994,5.957143999999991,362
45.54466399999994,5.957143999999991,378
44.89666399999994,4.661143999999991,375
44.89666399999994,5.309143999999991,900
44.572663999999946,4.661143999999991,866
44.24866399999995,4.661143999999991,883
43.92466399999995,4.661143999999991,366
46.19266399999994,7.25314399999999,501
48.78466399999992,5.957143999999991,940
48.136663999999925,6.60514399999999,1029
48.46066399999992,6.60514399999999,910
48.78466399999992,6.60514399999999,924
47.16466399999993,7.90114399999999,528
48.136663999999925,7.25314399999999,902
48.46066399999992,7.25314399999999,927
46.516663999999935,6.60514399999999,494
46.84066399999993,6.60514399999999,497
46.84066399999993,7.25314399999999,536
46.516663999999935,5.957143999999991,485
46.19266399999994,5.957143999999991,460
46.84066399999993,8.54914399999999,561
46.84066399999993,7.90114399999999,540
45.86866399999994,5.309143999999991,331
46.19266399999994,6.60514399999999,490
45.86866399999994,6.60514399999999,513
47.48866399999993,6.60514399999999,816
47.48866399999993,7.25314399999999,528
47.16466399999993,7.25314399999999,519
49.10866399999992,4.013143999999992,922
49.75666399999992,4.661143999999991,1017
49.43266399999992,4.661143999999991,1012
49.10866399999992,5.309143999999991,894
46.19266399999994,4.661143999999991,350
46.84066399999993,9.197143999999987,842
46.19266399999994,5.309143999999991,354
46.516663999999935,5.309143999999991,889
45.54466399999994,6.60514399999999,416
45.54466399999994,5.309143999999991,319
43.60066399999995,4.013143999999992,402
43.60066399999995,3.365143999999992,438
42.62866399999996,2.717143999999992,505
43.276663999999954,2.717143999999992,469
45.54466399999994,4.661143999999991,300
45.22066399999994,4.661143999999991,336
47.16466399999993,5.309143999999991,935
47.16466399999993,5.957143999999991,907
46.19266399999994,7.90114399999999,508
49.75666399999992,2.717143999999992,951
49.10866399999992,2.717143999999992,441
48.78466399999992,2.717143999999992,428
45.86866399999994,3.365143999999992,179
46.84066399999993,3.365143999999992,285
46.516663999999935,3.365143999999992,262
46.19266399999994,3.365143999999992,235
47.16466399999993,6.60514399999999,505
49.10866399999992,3.365143999999992,947
45.54466399999994,4.013143999999992,270
46.516663999999935,7.25314399999999,533
47.16466399999993,4.661143999999991,990
46.84066399999993,4.661143999999991,936
46.516663999999935,4.661143999999991,981
46.84066399999993,5.957143999999991,921
47.81266399999993,3.365143999999992,1007
47.48866399999993,4.013143999999992,1067
48.136663999999925,4.013143999999992,970
47.81266399999993,4.013143999999992,1041
47.48866399999993,4.661143999999991,1063
47.16466399999993,3.365143999999992,342
46.84066399999993,4.013143999999992,984
48.46066399999992,5.957143999999991,1001
46.19266399999994,2.717143999999992,1000
47.16466399999993,2.0691439999999925,343
46.516663999999935,2.717143999999992,1405
46.84066399999993,2.717143999999992,836
46.84066399999993,2.0691439999999925,1030
47.16466399999993,2.717143999999992,358
44.572663999999946,5.309143999999991,999
44.572663999999946,5.957143999999991,907
44.89666399999994,6.60514399999999,795
44.572663999999946,6.60514399999999,870
43.60066399999995,5.309143999999991,400
43.92466399999995,7.25314399999999,934
43.60066399999995,6.60514399999999,928
43.276663999999954,6.60514399999999,944
43.276663999999954,5.957143999999991,881
45.86866399999994,8.54914399999999,595
45.54466399999994,8.54914399999999,795
48.136663999999925,3.365143999999992,964
48.46066399999992,3.365143999999992,952
48.46066399999992,2.717143999999992,912
47.48866399999993,5.309143999999991,1089
46.516663999999935,9.845143999999989,924
46.84066399999993,10.493143999999988,968
47.81266399999993,5.309143999999991,893
45.22066399999994,6.60514399999999,435
46.19266399999994,4.013143999999992,344
45.86866399999994,4.013143999999992,326
45.22066399999994,4.013143999999992,227
44.89666399999994,4.013143999999992,196
46.84066399999993,5.309143999999991,916
48.136663999999925,-1.8188560000000056,1059
48.136663999999925,0.1251439999999934,1053
48.136663999999925,-0.5228560000000062,1032
47.48866399999993,-0.5228560000000062,1023
47.16466399999993,-1.8188560000000056,1066
47.48866399999993,0.7731439999999932,510
47.16466399999993,0.1251439999999934,1001
45.86866399999994,7.25314399999999,518
48.136663999999925,5.309143999999991,919
49.10866399999992,4.661143999999991,980
48.46066399999992,4.013143999999992,992
48.136663999999925,4.661143999999991,941
47.81266399999993,6.60514399999999,835
47.48866399999993,5.957143999999991,853
48.136663999999925,5.957143999999991,1406
45.86866399999994,7.90114399999999,552
46.516663999999935,7.90114399999999,560
49.43266399999992,3.365143999999992,1107
49.43266399999992,4.013143999999992,999
48.136663999999925,2.717143999999992,1090
47.81266399999993,2.717143999999992,1058
47.48866399999993,2.717143999999992,375
50.40466399999991,2.717143999999992,971
48.46066399999992,-4.410856000000004,1298
48.46066399999992,-3.7628560000000046,1260
48.46066399999992,-3.114856000000005,1231
48.46066399999992,-2.4668560000000053,1150
47.48866399999993,1.4211439999999929,489
47.16466399999993,1.4211439999999929,986
46.516663999999935,4.013143999999992,1046
43.60066399999995,4.661143999999991,894
44.89666399999994,2.717143999999992,0
45.22066399999994,2.717143999999992,54
45.54466399999994,3.365143999999992,142
45.22066399999994,3.365143999999992,112
47.48866399999993,3.365143999999992,1066
46.19266399999994,9.845143999999989,893
47.81266399999993,2.0691439999999925,380
47.48866399999993,2.0691439999999925,1057
45.86866399999994,2.717143999999992,1001
44.89666399999994,5.957143999999991,997
45.22066399999994,1.4211439999999929,158
44.89666399999994,1.4211439999999929,109
44.89666399999994,2.0691439999999925,62
43.276663999999954,2.0691439999999925,958
43.60066399999995,1.4211439999999929,271
48.78466399999992,4.661143999999991,999
48.78466399999992,5.309143999999991,1113
46.19266399999994,2.0691439999999925,319
45.86866399999994,1.4211439999999929,242
46.19266399999994,1.4211439999999929,275
44.572663999999946,4.013143999999992,216
44.89666399999994,3.365143999999992,156
43.92466399999995,4.013143999999992,349
44.24866399999995,4.013143999999992,287
44.89666399999994,-0.5228560000000062,193
45.54466399999994,0.1251439999999934,241
46.516663999999935,0.1251439999999934,969
44.572663999999946,2.0691439999999925,84
49.75666399999992,4.013143999999992,1267
43.92466399999995,3.365143999999992,1116
43.92466399999995,2.717143999999992,1141
44.24866399999995,3.365143999999992,1167
44.572663999999946,3.365143999999992,297
49.10866399999992,0.1251439999999934,1066
49.43266399999992,0.7731439999999932,1015
49.43266399999992,-1.8188560000000056,1196
49.10866399999992,-1.170856000000006,1120
49.10866399999992,-0.5228560000000062,1079
49.10866399999992,0.7731439999999932,1130
49.10866399999992,1.4211439999999929,1010
47.81266399999993,-1.8188560000000056,1119
47.81266399999993,-2.4668560000000053,1168
47.81266399999993,-3.114856000000005,1181
48.136663999999925,-3.7628560000000046,1244
44.572663999999946,9.197143999999987,956
44.89666399999994,8.54914399999999,897
45.22066399999994,9.197143999999987,829
45.54466399999994,10.493143999999988,907
44.572663999999946,10.493143999999988,1318
44.89666399999994,10.493143999999988,973
44.89666399999994,9.845143999999989,900
48.46066399999992,5.309143999999991,974
50.91599999999999,-1.0580000000000025,65535
51.23999999999999,-0.4100000000000028,65535
50.91599999999999,-0.4100000000000028,65535
51.23999999999999,-2.354000000000002,65535
51.56399999999999,-2.354000000000002,65535
51.56399999999999,-3.0020000000000016,65535
50.91599999999999,-2.354000000000002,65535
53.50799999999997,-3.0020000000000016,65535
53.183999999999976,-2.354000000000002,65535
53.183999999999976,-3.0020000000000016,65535
52.85999999999998,-2.354000000000002,65535
52.21199999999998,-1.0580000000000025,65535
51.887999999999984,-1.0580000000000025,65535
52.53599999999998,-1.0580000000000025,65535
52.53599999999998,-1.7060000000000022,65535
52.85999999999998,-1.7060000000000022,65535
53.50799999999997,-2.354000000000002,65535
52.85999999999998,-1.0580000000000025,65535
52.53599999999998,1.5339999999999965,65535
52.53599999999998,0.8859999999999966,65535
52.53599999999998,0.2379999999999968,65535
52.53599999999998,-0.4100000000000028,65535
53.50799999999997,-1.7060000000000022,65535
53.183999999999976,-1.7060000000000022,65535
53.183999999999976,-1.0580000000000025,65535
52.85999999999998,-0.4100000000000028,65535
51.887999999999984,-2.354000000000002,65535
52.21199999999998,-2.354000000000002,65535
55.77599999999996,-2.354000000000002,65535
53.83199999999997,-1.0580000000000025,65535
53.83199999999997,-1.7060000000000022,65535
55.127999999999965,-1.7060000000000022,65535
54.80399999999997,-1.7060000000000022,65535
54.47999999999997,-1.7060000000000022,65535
54.15599999999997,-1.0580000000000025,65535
52.21199999999998,-1.7060000000000022,65535
53.50799999999997,-1.0580000000000025,65535
55.77599999999996,-3.0020000000000016,65535
55.45199999999996,-1.7060000000000022,65535
57.07199999999995,-2.354000000000002,65535
56.74799999999996,-3.0020000000000016,65535
56.42399999999996,-3.0020000000000016,65535
56.09999999999996,-3.650000000000001,65535
50.91599999999999,-3.0020000000000016,65535
50.91599999999999,-3.650000000000001,65535
50.59199999999999,-3.650000000000001,65535
50.59199999999999,-4.298000000000001,65535
51.23999999999999,-3.0020000000000016,65535
50.268,-4.946000000000001,65535
55.77599999999996,-3.650000000000001,65535
55.77599999999996,-4.298000000000001,65535
52.21199999999998,-0.4100000000000028,65535
52.53599999999998,-2.354000000000002,65535
51.56399999999999,-1.7060000000000022,65535
51.56399999999999,-3.650000000000001,65535
51.887999999999984,-4.298000000000001,65535
51.56399999999999,-4.298000000000001,65535
51.887999999999984,-1.7060000000000022,65535
52.21199999999998,-3.0020000000000016,65535
51.23999999999999,0.2379999999999968,65535
50.91599999999999,0.2379999999999968,65535
52.21199999999998,0.2379999999999968,65535
53.83199999999997,-3.0020000000000016,65535
54.15599999999997,-3.0020000000000016,65535
54.47999999999997,-3.0020000000000016,65535
55.127999999999965,-3.650000000000001,65535
54.80399999999997,-3.0020000000000016,65535
53.83199999999997,-2.354000000000002,65535
54.15599999999997,-0.4100000000000028,65535
54.47999999999997,-1.0580000000000025,65535
53.83199999999997,-0.4100000000000028,65535
53.183999999999976,-3.650000000000001,65535
53.183999999999976,-4.298000000000001,65535
52.85999999999998,-3.0020000000000016,65535
52.53599999999998,-3.0020000000000016,65535
51.887999999999984,-3.0020000000000016,65535
51.23999999999999,0.8859999999999966,65535
51.887999999999984,0.2379999999999968,65535
52.21199999999998,0.8859999999999966,65535
51.887999999999984,-4.946000000000001,65535
52.53599999999998,-3.650000000000001,65535
52.21199999999998,-4.298000000000001,65535
53.183999999999976,-0.4100000000000028,65535
51.23999999999999,-3.650000000000001,65535
51.887999999999984,-3.650000000000001,65535
52.21199999999998,-3.650000000000001,65535
51.56399999999999,0.8859999999999966,65535
51.887999999999984,0.8859999999999966,65535
52.85999999999998,0.8859999999999966,65535
53.50799999999997,-0.4100000000000028,65535
56.09999999999996,-4.298000000000001,65535
56.74799999999996,-4.946000000000001,65535
56.74799999999996,-4.298000000000001,65535
56.42399999999996,-4.946000000000001,65535
56.42399999999996,-4.298000000000001,65535
56.09999999999996,-4.946000000000001,65535
57.39599999999995,-4.298000000000001,65535
57.39599999999995,-3.0020000000000016,65535
57.39599999999995,-3.650000000000001,65535
56.42399999999996,-3.650000000000001,65535
57.07199999999995,-3.650000000000001,65535
57.07199999999995,-4.298000000000001,65535
56.74799999999996,-3.650000000000001,65535
59.15266399999986,27.34114399999998,65535
59.47666399999986,26.69314399999997,65535
59.47666399999986,26.04514399999998,65535
59.15266399999986,26.04514399999998,65535
59.15266399999986,24.74914399999998,65535
59.15266399999986,25.397143999999983,65535
59.47666399999986,25.397143999999983,65535
58.50466399999986,26.69314399999997,65535
58.82866399999986,26.69314399999997,65535
57.85666399999987,26.04514399999998,65535
58.180663999999865,26.04514399999998,65535
58.180663999999865,26.69314399999997,65535
58.82866399999986,26.04514399999998,65535
58.50466399999986,25.397143999999983,65535
58.82866399999986,25.397143999999983,65535
58.82866399999986,24.74914399999998,65535
58.180663999999865,27.34114399999998,65535
57.85666399999987,27.34114399999998,65535
63.68866399999983,27.34114399999998,65535
60.124663999999854,24.74914399999998,65535
60.44866399999985,24.74914399999998,65535
60.44866399999985,25.397143999999983,65535
60.77266399999985,25.397143999999983,65535
61.09666399999985,26.04514399999998,65535
60.77266399999985,26.04514399999998,65535
60.77266399999985,26.69314399999997,65535
61.09666399999985,25.397143999999983,65535
61.09666399999985,26.69314399999997,65535
61.420663999999846,26.69314399999997,65535
61.74466399999984,27.34114399999998,65535
62.06866399999984,27.34114399999998,65535
62.39266399999984,27.34114399999998,65535
62.71666399999984,27.34114399999998,65535
64.01266399999983,27.34114399999998,65535
63.36466399999984,27.34114399999998,65535
63.04066399999984,27.34114399999998,65535
63.04066399999984,27.989143999999985,65535
64.33666399999983,27.989143999999985,65535
64.33666399999983,27.34114399999998,65535
64.66066399999983,27.34114399999998,65535
64.66066399999983,26.69314399999997,4756
64.98466399999982,25.397143999999983,4519
64.66066399999983,26.04514399999998,4736
64.98466399999982,26.04514399999998,4720
66.28066399999982,25.397143999999983,65535
65.95666399999982,24.74914399999998,4432
65.63266399999982,24.74914399999998,4436
65.63266399999982,25.397143999999983,4478
65.30866399999982,25.397143999999983,4499
66.60466399999981,25.397143999999983,65535
64.01266399999983,24.74914399999998,4656
64.01266399999983,24.101143999999977,4691
64.01266399999983,23.45314399999998,4715
63.68866399999983,23.45314399999998,4727
63.68866399999983,22.805143999999984,4752
63.68866399999983,26.04514399999998,65535
63.68866399999983,25.397143999999983,65535
63.68866399999983,26.69314399999997,65535
60.44866399999985,26.69314399999997,65535
64.01266399999983,27.989143999999985,65535
62.71666399999984,22.805143999999984,65535
62.39266399999984,22.805143999999984,65535
62.06866399999984,22.805143999999984,65535
62.06866399999984,23.45314399999998,65535
61.74466399999984,23.45314399999998,65535
61.420663999999846,23.45314399999998,65535
61.09666399999985,23.45314399999998,65535
61.09666399999985,24.101143999999977,65535
61.09666399999985,24.74914399999998,65535
60.77266399999985,24.74914399999998,65535
63.04066399999984,21.50914399999997,65535
63.04066399999984,22.15714399999998,65535
63.04066399999984,22.805143999999984,65535
62.39266399999984,26.04514399999998,65535
62.06866399999984,25.397143999999983,65535
61.74466399999984,25.397143999999983,65535
61.74466399999984,24.74914399999998,65535
61.74466399999984,24.101143999999977,65535
61.420663999999846,24.101143999999977,65535
62.39266399999984,26.69314399999997,65535
64.66066399999983,25.397143999999983,4588
64.66066399999983,24.74914399999998,4606
64.33666399999983,24.74914399999998,4617
63.36466399999984,22.805143999999984,4777
67.25266399999981,24.101143999999977,65535
66.92866399999981,24.101143999999977,65535
66.60466399999981,23.45314399999998,65535
66.28066399999982,23.45314399999998,65535
66.28066399999982,24.101143999999977,65535
65.95666399999982,24.101143999999977,3804
60.124663999999854,24.101143999999977,65535
60.124663999999854,23.45314399999998,65535
60.44866399999985,22.805143999999984,65535
60.77266399999985,27.34114399999998,65535
61.09666399999985,27.989143999999985,65535
61.09666399999985,28.63714399999997,65535
61.420663999999846,29.28514399999997,65535
61.74466399999984,29.933143999999977,65535
62.06866399999984,29.933143999999977,65535
62.39266399999984,29.933143999999977,65535
62.71666399999984,29.933143999999977,65535
61.420663999999846,22.805143999999984,65535
61.420663999999846,22.15714399999998,65535
61.09666399999985,22.15714399999998,65535
61.420663999999846,21.50914399999997,65535
62.39266399999984,27.989143999999985,65535
62.06866399999984,27.989143999999985,65535
61.420663999999846,27.34114399999998,65535
63.04066399999984,29.933143999999977,65535
63.68866399999983,29.28514399999997,65535
63.36466399999984,29.28514399999997,65535
63.36466399999984,29.933143999999977,65535
60.44866399999985,27.34114399999998,65535
61.74466399999984,29.28514399999997,65535
62.39266399999984,30.58114399999998,65535
62.71666399999984,31.229143999999977,65535
62.71666399999984,29.28514399999997,65535
63.04066399999984,28.63714399999997,65535
66.60466399999981,26.04514399999998,65535
66.60466399999981,26.69314399999997,65535
66.60466399999981,27.34114399999998,65535
62.71666399999984,26.04514399999998,65535
62.71666399999984,25.397143999999983,65535
63.04066399999984,25.397143999999983,65535
63.36466399999984,25.397143999999983,65535
62.71666399999984,23.45314399999998,65535
62.39266399999984,24.101143999999977,65535
62.71666399999984,22.15714399999998,65535
62.39266399999984,22.15714399999998,65535
62.39266399999984,21.50914399999997,65535
61.09666399999985,21.50914399999997,65535
60.77266399999985,22.805143999999984,65535
60.44866399999985,22.15714399999998,65535
60.77266399999985,23.45314399999998,65535
60.77266399999985,21.50914399999997,65535
60.77266399999985,22.15714399999998,65535
60.124663999999854,22.805143999999984,65535
60.44866399999985,24.101143999999977,65535
62.06866399999984,24.74914399999998,65535
50.72866399999991,16.325143999999987,1245
50.40466399999991,16.973143999999984,1333
50.72866399999991,16.973143999999984,1296
50.40466399999991,16.325143999999987,1302
50.08066399999991,16.973143999999984,1390
50.08066399999991,16.325143999999987,1233
51.700663999999904,16.973143999999984,1253
51.37666399999991,16.973143999999984,1259
51.05266399999991,15.677143999999986,1279
50.72866399999991,15.677143999999986,1259
51.05266399999991,17.621143999999987,1332
51.37666399999991,17.621143999999987,1381
51.700663999999904,17.621143999999987,1303
51.700663999999904,16.325143999999987,1239
52.0246639999999,22.15714399999998,1695
52.0246639999999,21.50914399999997,1647
52.3486639999999,21.50914399999997,1644
52.0246639999999,20.86114399999998,1632
51.700663999999904,20.86114399999998,1658
51.37666399999991,21.50914399999997,1689
51.37666399999991,20.86114399999998,1670
51.05266399999991,20.86114399999998,1622
52.6726639999999,23.45314399999998,1762
52.3486639999999,22.805143999999984,1701
52.3486639999999,20.213143999999986,1639
52.0246639999999,20.213143999999986,1622
52.3486639999999,19.565143999999982,1444
52.6726639999999,19.565143999999982,1527
51.700663999999904,21.50914399999997,1677
51.700663999999904,22.15714399999998,1711
52.6726639999999,21.50914399999997,1653
52.996663999999896,21.50914399999997,1669
52.6726639999999,20.86114399999998,1648
52.6726639999999,22.15714399999998,1669
52.6726639999999,20.213143999999986,1586
52.996663999999896,19.565143999999982,1579
52.996663999999896,20.86114399999998,1673
52.996663999999896,20.213143999999986,1680
53.32066399999989,20.213143999999986,1723
51.37666399999991,20.213143999999986,1574
52.3486639999999,16.973143999999984,1276
52.0246639999999,16.973143999999984,1280
52.0246639999999,16.325143999999987,1253
52.0246639999999,17.621143999999987,1346
52.6726639999999,16.973143999999984,1333
52.996663999999896,16.973143999999984,1402
52.3486639999999,16.325143999999987,1240
52.3486639999999,15.677143999999986,1206
51.700663999999904,18.269143999999983,1363
52.6726639999999,17.621143999999987,1300
52.3486639999999,17.621143999999987,1286
52.6726639999999,18.269143999999983,1374
52.3486639999999,18.269143999999983,1357
52.3486639999999,18.917143999999983,1404
52.996663999999896,17.621143999999987,1423
51.700663999999904,19.565143999999982,1444
51.700663999999904,18.917143999999983,1411
51.37666399999991,18.269143999999983,1457
58.82866399999986,9.197143999999987,2768
58.180663999999865,7.90114399999999,2861
58.50466399999986,8.54914399999999,2812
63.36466399999984,10.493143999999988,2983
63.36466399999984,11.141143999999988,2990
63.36466399999984,11.789143999999988,3025
63.68866399999983,11.789143999999988,3053
64.33666399999983,12.437143999999988,3454
64.66066399999983,12.437143999999988,3949
65.63266399999982,13.085143999999987,3606
65.95666399999982,13.085143999999987,3641
66.28066399999982,14.381143999999988,3711
65.95666399999982,13.733143999999989,3780
66.28066399999982,13.733143999999989,3689
65.30866399999982,13.085143999999987,3907
64.98466399999982,13.085143999999987,3541
64.01266399999983,11.789143999999988,3084
63.68866399999983,11.141143999999988,3021
59.800663999999855,10.493143999999988,2564
59.800663999999855,11.141143999999988,2547
60.124663999999854,11.141143999999988,2562
60.44866399999985,11.141143999999988,2575
60.124663999999854,11.789143999999988,2588
60.77266399999985,7.25314399999999,2824
60.77266399999985,6.60514399999999,2870
59.15266399999986,9.197143999999987,2650
59.47666399999986,9.197143999999987,2671
59.800663999999855,9.845143999999989,2566
59.47666399999986,11.141143999999988,2511
61.09666399999985,10.493143999999988,2685
60.77266399999985,10.493143999999988,2655
60.77266399999985,11.141143999999988,2610
62.06866399999984,9.197143999999987,3010
61.74466399999984,9.845143999999989,2956
61.420663999999846,9.845143999999989,2933
59.15266399999986,9.845143999999989,2630
59.47666399999986,9.845143999999989,2606
58.82866399999986,5.957143999999991,3045
58.180663999999865,7.25314399999999,2917
58.50466399999986,7.25314399999999,2950
58.50466399999986,6.60514399999999,2955
58.50466399999986,5.957143999999991,3013
58.82866399999986,8.54914399999999,2798
60.44866399999985,7.25314399999999,2798
60.44866399999985,7.90114399999999,2759
60.124663999999854,10.493143999999988,2596
60.44866399999985,9.197143999999987,2708
60.77266399999985,9.197143999999987,2720
60.77266399999985,8.54914399999999,2739
60.124663999999854,9.845143999999989,2975
60.44866399999985,10.493143999999988,2641
63.04066399999984,10.493143999999988,2934
62.06866399999984,9.845143999999989,3035
62.39266399999984,9.845143999999989,3043
62.71666399999984,9.845143999999989,3067
59.47666399999986,14.381143999999988,2560
59.47666399999986,13.733143999999989,2501
59.47666399999986,13.085143999999987,2477
59.800663999999855,12.437143999999988,2546
59.15266399999986,11.141143999999988,2475
59.15266399999986,14.381143999999988,2574
58.82866399999986,11.789143999999988,2455
58.50466399999986,12.437143999999988,2385
58.180663999999865,12.437143999999988,2378
57.85666399999987,11.789143999999988,2329
62.71666399999984,7.90114399999999,3096
62.39266399999984,7.90114399999999,3053
62.06866399999984,8.54914399999999,3028
60.44866399999985,5.309143999999991,2944
60.44866399999985,5.957143999999991,2911
60.77266399999985,5.957143999999991,2900
62.39266399999984,11.141143999999988,2831
62.06866399999984,10.493143999999988,2786
61.74466399999984,11.141143999999988,2759
61.420663999999846,11.141143999999988,2713
61.09666399999985,11.141143999999988,2696
60.77266399999985,11.789143999999988,2673
63.04066399999984,11.141143999999988,2912
62.71666399999984,11.141143999999988,2855
62.39266399999984,10.493143999999988,2813
67.25266399999981,15.677143999999986,3830
67.25266399999981,15.029143999999986,3868
67.25266399999981,14.381143999999988,3896
66.92866399999981,15.029143999999986,3819
66.60466399999981,15.677143999999986,3797
64.01266399999983,11.141143999999988,3068
66.60466399999981,15.029143999999986,3860
54.29266399999989,18.269143999999983,1542
54.616663999999886,17.621143999999987,1492
53.96866399999989,18.269143999999983,1458
43.92466399999995,1.4211439999999929,250
44.24866399999995,0.7731439999999932,295
44.572663999999946,0.1251439999999934,262
46.84066399999993,1.4211439999999929,308
44.572663999999946,1.4211439999999929,253
44.24866399999995,1.4211439999999929,280
45.54466399999994,1.4211439999999929,282
46.516663999999935,1.4211439999999929,358
42.30466399999996,2.717143999999992,1111
44.24866399999995,2.717143999999992,215
44.572663999999946,2.717143999999992,338
43.92466399999995,2.0691439999999925,209
42.30466399999996,2.0691439999999925,1032
42.62866399999996,2.0691439999999925,496
42.62866399999996,1.4211439999999929,490
42.95266399999996,1.4211439999999929,446
43.276663999999954,1.4211439999999929,299
46.516663999999935,-1.170856000000006,1138
46.19266399999994,-1.170856000000006,311
45.86866399999994,-0.5228560000000062,280
45.54466399999994,-0.5228560000000062,236
48.46066399999992,1.4211439999999929,415
41.332663999999966,2.0691439999999925,1234
41.98066399999996,2.717143999999992,1193
48.46066399999992,-1.8188560000000056,1079
47.81266399999993,0.7731439999999932,943
46.84066399999993,0.7731439999999932,1010
44.572663999999946,-1.170856000000006,205
43.60066399999995,-1.170856000000006,328
43.276663999999954,-1.8188560000000056,375
43.276663999999954,0.1251439999999934,406
42.95266399999996,0.1251439999999934,383
43.276663999999954,-0.5228560000000062,385
43.60066399999995,-0.5228560000000062,362
47.81266399999993,-3.7628560000000046,1228
47.48866399999993,-2.4668560000000053,1123
47.81266399999993,-0.5228560000000062,1182
46.516663999999935,-1.8188560000000056,1157
48.136663999999925,-1.170856000000006,1156
47.48866399999993,-1.170856000000006,1048
45.22066399999994,8.54914399999999,846
45.22066399999994,7.90114399999999,859
46.19266399999994,-0.5228560000000062,975
46.516663999999935,-0.5228560000000062,1011
48.78466399999992,-3.114856000000005,1264
50.72866399999991,2.0691439999999925,1043
50.40466399999991,2.0691439999999925,1002
40.36066399999997,-3.7628560000000046,1425
41.65666399999997,-1.170856000000006,1342
41.332663999999966,1.4211439999999929,1280
43.276663999999954,13.733143999999989,65535
42.95266399999996,13.733143999999989,65535
41.65666399999997,15.029143999999986,65535
40.68466399999997,17.621143999999987,65535
43.60066399999995,13.085143999999987,3903
41.65666399999997,12.437143999999988,2512
41.65666399999997,13.085143999999987,2528
41.98066399999996,13.085143999999987,2504
41.65666399999997,13.733143999999989,3092
41.332663999999966,13.733143999999989,2570
41.332663999999966,14.381143999999988,3127
41.00866399999997,14.381143999999988,3154
41.332663999999966,13.085143999999987,2553
41.00866399999997,15.029143999999986,4335
41.98066399999996,13.733143999999989,2586
42.30466399999996,14.381143999999988,4416
42.30466399999996,12.437143999999988,2755
42.62866399999996,12.437143999999988,3054
42.95266399999996,12.437143999999988,3108
42.30466399999996,11.789143999999988,2563
42.95266399999996,11.789143999999988,3818
42.62866399999996,11.789143999999988,3739
43.276663999999954,11.789143999999988,4290
42.95266399999996,13.085143999999987,3804
42.30466399999996,13.085143999999987,4303
43.276663999999954,13.085143999999987,3852
43.276663999999954,12.437143999999988,3859
42.62866399999996,11.141143999999988,2632
42.95266399999996,11.141143999999988,2675
42.95266399999996,10.493143999999988,2693
44.572663999999946,8.54914399999999,950
44.89666399999994,7.90114399999999,873
44.89666399999994,9.197143999999987,905
44.24866399999995,7.90114399999999,926
44.572663999999946,7.90114399999999,896
43.92466399999995,7.90114399999999,961
44.24866399999995,7.25314399999999,941
44.89666399999994,7.25314399999999,978
45.22066399999994,7.25314399999999,815
45.54466399999994,7.90114399999999,941
44.572663999999946,7.25314399999999,2302
52.996663999999896,22.805143999999984,2215
52.996663999999896,23.45314399999998,2244
51.37666399999991,22.15714399999998,2171
51.37666399999991,22.805143999999984,2225
50.08066399999991,20.213143999999986,1506
50.72866399999991,20.213143999999986,1529
50.40466399999991,20.213143999999986,1513
50.08066399999991,20.86114399999998,1533
50.08066399999991,21.50914399999997,1564
50.08066399999991,22.15714399999998,1601
50.08066399999991,22.805143999999984,1608
53.96866399999989,22.805143999999984,2356
53.64466399999989,23.45314399999998,2312
53.32066399999989,23.45314399999998,2267
50.40466399999991,19.565143999999982,1500
50.08066399999991,18.917143999999983,1490
50.08066399999991,18.269143999999983,1450
52.0246639999999,22.805143999999984,1726
52.0246639999999,23.45314399999998,1740
51.37666399999991,19.565143999999982,1521
51.05266399999991,19.565143999999982,1560
50.72866399999991,18.917143999999983,1513
50.72866399999991,19.565143999999982,1537
49.75666399999992,18.917143999999983,1398
50.40466399999991,18.269143999999983,1406
53.64466399999989,19.565143999999982,1604
53.96866399999989,18.917143999999983,1500
53.64466399999989,18.917143999999983,1479
53.64466399999989,20.213143999999986,1642
52.996663999999896,18.917143999999983,1431
52.996663999999896,18.269143999999983,1407
53.32066399999989,18.917143999999983,1515
50.72866399999991,17.621143999999987,1347
50.72866399999991,18.269143999999983,1363
52.6726639999999,16.325143999999987,1386
52.996663999999896,16.325143999999987,1367
52.996663999999896,15.677143999999986,1299
53.32066399999989,15.677143999999986,1294
53.32066399999989,15.029143999999986,1219
53.64466399999989,15.029143999999986,1280
53.96866399999989,15.029143999999986,1251
52.6726639999999,18.917143999999983,1444
53.32066399999989,16.325143999999987,1417
52.6726639999999,15.029143999999986,1313
51.05266399999991,22.805143999999984,2256
51.05266399999991,23.45314399999998,2283
50.72866399999991,22.15714399999998,2221
50.40466399999991,22.15714399999998,2210
51.05266399999991,22.15714399999998,2222
54.616663999999886,16.973143999999984,1412
54.29266399999989,16.325143999999987,1345
53.96866399999989,15.677143999999986,1260
50.72866399999991,21.50914399999997,2251
50.40466399999991,21.50914399999997,1650
50.40466399999991,17.621143999999987,1432
53.32066399999989,22.805143999999984,2237
53.64466399999989,22.15714399999998,2197
54.29266399999989,16.973143999999984,1381
50.72866399999991,20.86114399999998,1550
51.700663999999904,22.805143999999984,2440
51.05266399999991,21.50914399999997,1730
50.08066399999991,19.565143999999982,1504
52.0246639999999,18.917143999999983,3688
52.0246639999999,19.565143999999982,3681
53.64466399999989,18.269143999999983,1452
51.700663999999904,20.213143999999986,1614
53.32066399999989,19.565143999999982,1595
50.72866399999991,23.45314399999998,2635
50.72866399999991,22.805143999999984,2604
49.43266399999992,20.213143999999986,1486
49.75666399999992,21.50914399999997,1627
49.75666399999992,22.15714399999998,2262
49.43266399999992,22.15714399999998,1822
51.05266399999991,18.917143999999983,1476
51.05266399999991,18.269143999999983,1456
53.32066399999989,16.973143999999984,1423
53.64466399999989,16.973143999999984,1358
49.75666399999992,20.86114399999998,1586
50.40466399999991,22.805143999999984,3770
53.64466399999989,16.325143999999987,1344
53.96866399999989,20.86114399999998,1749
54.29266399999989,20.86114399999998,1795
53.96866399999989,21.50914399999997,1812
53.64466399999989,15.677143999999986,1272
53.96866399999989,20.213143999999986,1656
53.96866399999989,19.565143999999982,1524
54.29266399999989,19.565143999999982,1534
53.96866399999989,16.325143999999987,1308
53.64466399999989,17.621143999999987,1404
53.96866399999989,22.15714399999998,1878
53.64466399999989,21.50914399999997,2246
53.64466399999989,20.86114399999998,1683
52.6726639999999,15.677143999999986,1319
51.05266399999991,20.213143999999986,1835
54.940663999999884,24.101143999999977,65535
54.616663999999886,23.45314399999998,65535
54.29266399999989,23.45314399999998,65535
53.64466399999989,22.805143999999984,2260
53.96866399999989,16.973143999999984,1513
50.40466399999991,20.86114399999998,2266
53.32066399999989,18.269143999999983,1425
49.75666399999992,19.565143999999982,1492
50.40466399999991,23.45314399999998,1885
49.75666399999992,20.213143999999986,1490
49.43266399999992,19.565143999999982,1449
49.43266399999992,20.86114399999998,1595
53.96866399999989,17.621143999999987,2283
42.30466399999996,-1.8188560000000056,3999
41.98066399999996,-1.8188560000000056,3982
41.65666399999997,0.7731439999999932,3986
42.62866399999996,-1.8188560000000056,4114
42.95266399999996,-1.8188560000000056,4143
42.62866399999996,-3.114856000000005,4237
42.95266399999996,-2.4668560000000053,4215
42.62866399999996,-7.650856000000003,4579
42.30466399999996,-7.650856000000003,4639
42.30466399999996,-8.946856000000002,4775
42.30466399999996,-8.298856000000002,4749
41.98066399999996,-8.298856000000002,4738
42.30466399999996,-7.002856000000003,4521
42.62866399999996,-6.354856000000003,4463
42.30466399999996,-6.354856000000003,4418
42.62866399999996,-5.706856000000004,3918
41.98066399999996,-4.410856000000004,3872
42.30466399999996,-3.7628560000000046,4263
40.03666399999997,-0.5228560000000062,3966
39.38866399999998,-0.5228560000000062,4014
41.00866399999997,0.7731439999999932,4114
40.68466399999997,0.7731439999999932,4146
40.36066399999997,0.1251439999999934,4224
39.712663999999975,-0.5228560000000062,4123
38.41666399999998,-0.5228560000000062,4135
39.06466399999998,-0.5228560000000062,4257
38.74066399999998,-1.170856000000006,4143
41.332663999999966,0.7731439999999932,4174
41.65666399999997,2.717143999999992,3774
41.65666399999997,2.0691439999999925,3797
41.332663999999966,0.1251439999999934,4132
41.332663999999966,-0.5228560000000062,4076
41.65666399999997,-4.410856000000004,3846
40.03666399999997,-2.4668560000000053,4084
41.00866399999997,-4.410856000000004,3967
43.276663999999954,-5.706856000000004,4048
39.38866399999998,-1.170856000000006,4109
38.09266399999999,-1.170856000000006,4522
38.74066399999998,-0.5228560000000062,4285
37.76866399999999,-1.170856000000006,4587
39.06466399999998,-1.8188560000000056,4107
39.38866399999998,-3.114856000000005,4007
39.38866399999998,-2.4668560000000053,4063
39.06466399999998,-2.4668560000000053,4090
39.06466399999998,-3.114856000000005,4011
39.06466399999998,-3.7628560000000046,3985
38.74066399999998,-3.7628560000000046,4064
40.03666399999997,-3.7628560000000046,3963
40.03666399999997,-3.114856000000005,4163
40.03666399999997,-1.8188560000000056,4244
39.712663999999975,-1.8188560000000056,4209
39.712663999999975,-1.170856000000006,4145
40.36066399999997,-1.170856000000006,4164
40.68466399999997,-1.170856000000006,4142
41.00866399999997,-1.170856000000006,4130
41.332663999999966,-1.170856000000006,3970
43.276663999999954,-8.298856000000002,4739
42.95266399999996,-8.298856000000002,4707
41.65666399999997,-5.706856000000004,65535
41.98066399999996,-7.002856000000003,65535
41.98066399999996,-6.354856000000003,65535
41.332663999999966,-5.058856000000004,4085
43.276663999999954,-3.7628560000000046,4520
42.95266399999996,-4.410856000000004,4454
42.62866399999996,-4.410856000000004,4444
42.30466399999996,-4.410856000000004,4403
41.00866399999997,-5.706856000000004,4023
41.332663999999966,-1.8188560000000056,3916
40.68466399999997,-3.114856000000005,3870
41.00866399999997,-3.114856000000005,3921
41.00866399999997,-2.4668560000000053,3944
41.332663999999966,-2.4668560000000053,3997
40.68466399999997,-4.410856000000004,3907
40.36066399999997,-4.410856000000004,3991
40.68466399999997,-3.7628560000000046,3899
40.36066399999997,-3.114856000000005,3877
41.65666399999997,-2.4668560000000053,4014
38.09266399999999,-3.7628560000000046,4111
38.74066399999998,-3.114856000000005,4055
37.76866399999999,-3.7628560000000046,4168
39.712663999999975,-3.114856000000005,3999
38.41666399999998,-3.7628560000000046,4076
40.03666399999997,-4.410856000000004,65535
40.03666399999997,-5.058856000000004,65535
39.38866399999998,-6.354856000000003,65535
39.38866399999998,-7.002856000000003,65535
42.95266399999996,-3.114856000000005,4648
41.98066399999996,-1.170856000000006,4011
42.30466399999996,-2.4668560000000053,4052
41.65666399999997,-0.5228560000000062,4109
41.98066399999996,-0.5228560000000062,3946
41.65666399999997,0.1251439999999934,3973
41.98066399999996,0.1251439999999934,3995
37.76866399999999,-5.058856000000004,4047
36.79666399999999,-4.410856000000004,4106
38.74066399999998,-4.410856000000004,4003
37.12066399999999,-4.410856000000004,4080
37.44466399999999,-5.058856000000004,4604
37.44466399999999,-7.002856000000003,65535
37.44466399999999,-6.354856000000003,65535
37.44466399999999,-5.706856000000004,4280
39.712663999999975,-3.7628560000000046,4073
42.62866399999996,-8.946856000000002,65535
42.30466399999996,-5.706856000000004,4425
42.30466399999996,-5.058856000000004,4510
42.95266399999996,-5.706856000000004,3950
41.00866399999997,-5.058856000000004,3991
40.68466399999997,-5.058856000000004,3965
41.65666399999997,-5.058856000000004,65535
41.65666399999997,-6.354856000000003,65535
36.79666399999999,-6.354856000000003,65535
37.12066399999999,-5.706856000000004,4448
37.76866399999999,-5.706856000000004,4247
38.09266399999999,-4.410856000000004,4382
37.12066399999999,-5.058856000000004,4402
36.79666399999999,-5.058856000000004,4360
37.76866399999999,-4.410856000000004,65535
37.76866399999999,-7.002856000000003,65535
38.41666399999998,-6.354856000000003,65535
38.09266399999999,-6.354856000000003,65535
48.78466399999992,1.4211439999999929,1041
56.23666399999988,8.54914399999999,2290
55.58866399999988,9.197143999999987,2095
55.91266399999988,9.197143999999987,2236
55.26466399999988,10.493143999999988,1972
55.91266399999988,12.437143999999988,2109
55.58866399999988,11.789143999999988,2115
55.58866399999988,11.141143999999988,2106
55.26466399999988,11.789143999999988,2124
55.58866399999988,10.493143999999988,2091
55.58866399999988,13.085143999999987,2085
56.88466399999987,9.845143999999989,2242
57.20866399999987,9.845143999999989,2277
56.56066399999988,9.845143999999989,2214
56.88466399999987,8.54914399999999,2329
54.940663999999884,9.845143999999989,3436
54.940663999999884,11.789143999999988,2192
55.91266399999988,13.085143999999987,2184
56.23666399999988,13.733143999999989,2228
55.91266399999988,13.733143999999989,2231
56.23666399999988,14.381143999999988,2251
56.23666399999988,15.029143999999986,2292
56.23666399999988,15.677143999999986,2347
56.56066399999988,14.381143999999988,2308
56.88466399999987,14.381143999999988,2278
56.23666399999988,13.085143999999987,2176
56.56066399999988,13.085143999999987,2256
56.88466399999987,12.437143999999988,2293
57.20866399999987,12.437143999999988,2309
57.53266399999987,12.437143999999988,2324
56.88466399999987,15.029143999999986,2304
56.56066399999988,15.677143999999986,2364
56.88466399999987,15.677143999999986,2383
56.88466399999987,16.325143999999987,2398
55.91266399999988,11.789143999999988,2261
57.20866399999987,10.493143999999988,2464
49.43266399999992,1.4211439999999929,1042
49.75666399999992,0.7731439999999932,1023
49.75666399999992,2.0691439999999925,988
50.08066399999991,2.717143999999992,1017
49.75666399999992,1.4211439999999929,1052
47.81266399999993,1.4211439999999929,991
48.136663999999925,2.0691439999999925,1123
48.46066399999992,2.0691439999999925,1016
48.136663999999925,1.4211439999999929,1036
48.78466399999992,0.1251439999999934,1162
48.46066399999992,0.1251439999999934,1142
47.81266399999993,0.1251439999999934,1066
46.84066399999993,-0.5228560000000062,1059
47.16466399999993,0.7731439999999932,1228
46.84066399999993,0.1251439999999934,1247
46.84066399999993,-1.170856000000006,1113
50.08066399999991,1.4211439999999929,1046
50.08066399999991,2.0691439999999925,1062
49.43266399999992,2.717143999999992,972
49.75666399999992,3.365143999999992,1011
50.08066399999991,3.365143999999992,1106
49.10866399999992,2.0691439999999925,993
49.43266399999992,2.0691439999999925,1000
48.78466399999992,0.7731439999999932,1595
48.78466399999992,-0.5228560000000062,1321
48.78466399999992,-1.170856000000006,1184
48.136663999999925,0.7731439999999932,1069
48.46066399999992,0.7731439999999932,1091
43.92466399999995,5.957143999999991,956
44.24866399999995,5.957143999999991,926
43.92466399999995,5.309143999999991,860
42.95266399999996,2.717143999999992,919
45.54466399999994,2.0691439999999925,236
45.22066399999994,2.0691439999999925,194
42.95266399999996,2.0691439999999925,2377
42.95266399999996,0.7731439999999932,333
43.276663999999954,0.7731439999999932,309
46.19266399999994,0.7731439999999932,1099
46.516663999999935,0.7731439999999932,1083
45.86866399999994,0.1251439999999934,1109
46.19266399999994,0.1251439999999934,1094
47.81266399999993,-1.170856000000006,1435
48.136663999999925,-2.4668560000000053,1143
47.48866399999993,-1.8188560000000056,1084
47.16466399999993,-1.170856000000006,1068
47.16466399999993,-0.5228560000000062,1190
46.84066399999993,-1.8188560000000056,1078
45.22066399999994,-0.5228560000000062,206
44.89666399999994,0.1251439999999934,187
45.22066399999994,0.7731439999999932,169
45.54466399999994,0.7731439999999932,249
45.86866399999994,0.7731439999999932,1117
45.22066399999994,0.1251439999999934,177
44.89666399999994,0.7731439999999932,192
43.92466399999995,-0.5228560000000062,299
43.92466399999995,-1.170856000000006,288
44.24866399999995,-1.170856000000006,268
45.22066399999994,-1.170856000000006,258
44.572663999999946,-0.5228560000000062,226
44.24866399999995,0.1251439999999934,345
44.572663999999946,0.7731439999999932,1068
43.276663999999954,-1.170856000000006,998
42.95266399999996,-0.5228560000000062,1182
44.24866399999995,2.0691439999999925,162
43.60066399999995,0.7731439999999932,314
43.60066399999995,2.0691439999999925,320
52.6726639999999,4.661143999999991,2281
52.6726639999999,5.309143999999991,2304
51.700663999999904,5.309143999999991,2249
52.0246639999999,5.309143999999991,2261
52.3486639999999,5.309143999999991,2277
51.37666399999991,4.013143999999992,2257
52.3486639999999,5.957143999999991,2271
52.0246639999999,6.60514399999999,2301
52.6726639999999,5.957143999999991,2288
52.996663999999896,5.957143999999991,2301
53.32066399999989,5.957143999999991,2295
52.996663999999896,6.60514399999999,2277
53.32066399999989,6.60514399999999,2269
52.6726639999999,6.60514399999999,2297
52.996663999999896,5.309143999999991,2316
59.15266399999986,24.101143999999977,65535
56.88466399999987,24.101143999999977,65535
56.88466399999987,23.45314399999998,65535
56.88466399999987,22.805143999999984,65535
57.20866399999987,24.74914399999998,65535
56.88466399999987,24.74914399999998,65535
56.56066399999988,24.74914399999998,65535
56.56066399999988,25.397143999999983,65535
56.56066399999988,24.101143999999977,65535
56.56066399999988,23.45314399999998,65535
56.56066399999988,26.04514399999998,65535
56.88466399999987,26.04514399999998,65535
57.20866399999987,25.397143999999983,65535
57.53266399999987,25.397143999999983,65535
56.23666399999988,26.04514399999998,65535
56.23666399999988,26.69314399999997,65535
55.91266399999988,26.69314399999997,65535
56.56066399999988,26.69314399999997,65535
56.56066399999988,27.34114399999998,65535
56.56066399999988,27.989143999999985,65535
56.23666399999988,27.989143999999985,65535
55.91266399999988,27.34114399999998,65535
56.56066399999988,22.805143999999984,65535
56.56066399999988,22.15714399999998,65535
56.56066399999988,21.50914399999997,65535
57.20866399999987,26.69314399999997,65535
39.06466399999998,-8.946856000000002,65535
38.41666399999998,-8.298856000000002,65535
45.86866399999994,11.789143999999988,1468
46.19266399999994,11.789143999999988,1455
46.19266399999994,10.493143999999988,1440
45.22066399999994,18.269143999999983,2461
45.22066399999994,18.917143999999983,2535
45.54466399999994,16.973143999999984,2319
45.22066399999994,17.621143999999987,2396
45.86866399999994,16.325143999999987,2200
45.54466399999994,18.917143999999983,2575
45.54466399999994,16.325143999999987,2275
45.54466399999994,18.269143999999983,2553
44.89666399999994,18.917143999999983,2856
46.19266399999994,16.973143999999984,2220
46.19266399999994,16.325143999999987,2206
45.86866399999994,16.973143999999984,2237
45.86866399999994,17.621143999999987,2341
46.19266399999994,15.677143999999986,1113
46.516663999999935,16.325143999999987,1178
45.54466399999994,15.677143999999986,2180
45.22066399999994,15.029143999999986,2247
45.54466399999994,15.029143999999986,1161
45.22066399999994,15.677143999999986,2264
44.572663999999946,15.677143999999986,3019
44.24866399999995,15.677143999999986,3040
43.92466399999995,16.325143999999987,2931
44.89666399999994,15.677143999999986,2983
45.54466399999994,17.621143999999987,2528
45.22066399999994,16.325143999999987,2396
46.516663999999935,16.973143999999984,2277
45.86866399999994,18.269143999999983,2654
43.92466399999995,15.677143999999986,2730
45.22066399999994,13.733143999999989,2262
47.48866399999993,19.565143999999982,1492
47.16466399999993,18.917143999999983,2178
47.81266399999993,18.917143999999983,1441
45.54466399999994,9.845143999999989,859
45.22066399999994,9.845143999999989,868
45.22066399999994,10.493143999999988,919
45.86866399999994,9.845143999999989,896
45.86866399999994,10.493143999999988,2358
48.78466399999992,21.50914399999997,1537
49.10866399999992,20.213143999999986,1478
49.10866399999992,18.917143999999983,1386
48.46066399999992,17.621143999999987,1379
49.43266399999992,17.621143999999987,1333
49.10866399999992,17.621143999999987,1381
48.136663999999925,18.269143999999983,1398
49.10866399999992,18.269143999999983,1407
49.43266399999992,18.269143999999983,1364
49.43266399999992,16.973143999999984,1311
49.75666399999992,16.973143999999984,1281
49.75666399999992,16.325143999999987,1259
50.08066399999991,15.677143999999986,1211
50.08066399999991,15.029143999999986,1181
49.43266399999992,18.917143999999983,1375
47.81266399999993,20.86114399999998,1555
48.136663999999925,20.86114399999998,1586
48.46066399999992,20.86114399999998,1597
48.46066399999992,21.50914399999997,1552
49.10866399999992,19.565143999999982,1399
48.136663999999925,17.621143999999987,1387
48.78466399999992,22.15714399999998,1670
48.78466399999992,20.86114399999998,1825
49.10866399999992,20.86114399999998,1521
48.78466399999992,18.269143999999983,1413
48.78466399999992,17.621143999999987,1409
49.10866399999992,21.50914399999997,1529
48.78466399999992,20.213143999999986,1869
48.46066399999992,20.213143999999986,1881
48.136663999999925,19.565143999999982,1605
48.46066399999992,19.565143999999982,1484
48.46066399999992,18.917143999999983,1414
48.46066399999992,18.269143999999983,1402
48.78466399999992,19.565143999999982,1440
48.78466399999992,18.917143999999983,1426
47.81266399999993,18.269143999999983,1436
49.10866399999992,22.15714399999998,1724
49.43266399999992,21.50914399999997,1654
48.136663999999925,18.917143999999983,1426
48.136663999999925,20.213143999999986,1625
52.636,-8.018,65535
52.312,-7.370000000000001,65535
52.312,-8.018,65535
52.636,-8.666,65535
51.988,-8.666,65535
51.988,-8.018,65535
52.96,-8.666,65535
52.96,-6.074000000000002,65535
53.28399999999999,-6.722000000000001,65535
53.60799999999999,-6.722000000000001,65535
53.60799999999999,-7.370000000000001,65535
53.60799999999999,-8.018,65535
54.25599999999999,-8.666,65535
53.93199999999999,-8.666,65535
53.93199999999999,-8.018,65535
52.312,-6.722000000000001,65535
52.636,-6.722000000000001,65535
53.93199999999999,-6.722000000000001,65535
54.25599999999999,-6.074000000000002,65535
53.28399999999999,-7.370000000000001,65535
52.96,-7.370000000000001,65535
52.312,-8.666,65535
52.96,-8.018,65535
52.636,-7.370000000000001,65535
52.96,-6.722000000000001,65535
51.988,-9.314,65535
52.312,-9.314,65535
54.579999999999984,-6.722000000000001,65535
54.579999999999984,-6.074000000000002,65535
53.28399999999999,-8.018,65535
53.28399999999999,-8.666,65535
53.28399999999999,-9.314,65535
53.93199999999999,-9.314,65535
54.25599999999999,-9.314,65535
53.60799999999999,-8.666,65535
53.60799999999999,-9.314,65535
49.43266399999992,14.381143999999988,1235
49.75666399999992,14.381143999999988,1193
49.75666399999992,15.029143999999986,1186
49.75666399999992,13.733143999999989,1206
50.08066399999991,13.733143999999989,1197
49.75666399999992,15.677143999999986,1199
50.40466399999991,15.029143999999986,1176
49.43266399999992,13.733143999999989,1326
50.40466399999991,15.677143999999986,1187
50.40466399999991,13.733143999999989,1243
46.19266399999994,15.029143999999986,1093
45.86866399999994,15.029143999999986,1152
45.86866399999994,14.381143999999988,1130
46.19266399999994,13.733143999999989,1185
45.86866399999994,13.733143999999989,1261
58.50466399999986,13.733143999999989,2401
58.180663999999865,13.733143999999989,2406
58.180663999999865,13.085143999999987,2378
57.85666399999987,12.437143999999988,2344
60.44866399999985,15.677143999999986,2627
60.124663999999854,15.677143999999986,2561
60.124663999999854,16.325143999999987,2599
59.800663999999855,16.325143999999987,2527
59.800663999999855,17.621143999999987,2506
59.47666399999986,18.269143999999983,2488
61.74466399999984,16.973143999999984,2638
61.420663999999846,16.973143999999984,2611
60.77266399999985,16.973143999999984,2563
65.63266399999982,22.15714399999998,3742
65.95666399999982,21.50914399999997,3702
65.63266399999982,20.86114399999998,3673
64.98466399999982,20.213143999999986,3605
64.66066399999983,20.213143999999986,3583
64.33666399999983,19.565143999999982,3277
64.01266399999983,19.565143999999982,2990
63.68866399999983,20.213143999999986,2943
64.66066399999983,18.917143999999983,3954
59.15266399999986,16.325143999999987,2463
59.15266399999986,15.029143999999986,2504
59.15266399999986,17.621143999999987,2480
57.53266399999987,14.381143999999988,2304
57.53266399999987,15.029143999999986,2324
61.09666399999985,14.381143999999988,2731
60.77266399999985,15.029143999999986,2682
60.44866399999985,15.029143999999986,2668
58.180663999999865,15.029143999999986,2381
58.50466399999986,16.325143999999987,2415
58.50466399999986,15.677143999999986,2388
63.36466399999984,13.085143999999987,2975
63.04066399999984,14.381143999999988,2912
62.39266399999984,15.677143999999986,2834
63.36466399999984,13.733143999999989,2957
63.36466399999984,14.381143999999988,2929
62.71666399999984,15.677143999999986,2862
62.39266399999984,17.621143999999987,2696
59.800663999999855,15.677143999999986,2973
55.58866399999988,13.733143999999989,2258
57.20866399999987,14.381143999999988,2288
57.85666399999987,14.381143999999988,2336
58.82866399999986,16.973143999999984,2472
58.82866399999986,16.325143999999987,2450
59.15266399999986,18.269143999999983,2484
60.44866399999985,17.621143999999987,2539
59.15266399999986,12.437143999999988,2443
59.15266399999986,13.085143999999987,2457
58.82866399999986,12.437143999999988,2419
59.47666399999986,16.325143999999987,2509
58.82866399999986,14.381143999999988,2496
59.47666399999986,15.677143999999986,2527
63.36466399999984,18.917143999999983,2896
63.04066399999984,17.621143999999987,2851
62.71666399999984,17.621143999999987,2825
63.68866399999983,19.565143999999982,2929
62.39266399999984,16.973143999999984,2740
59.800663999999855,16.973143999999984,2515
59.47666399999986,17.621143999999987,2492
57.85666399999987,13.085143999999987,2368
57.53266399999987,13.085143999999987,2349
58.50466399999986,11.789143999999988,2390
57.85666399999987,15.029143999999986,2370
57.20866399999987,13.733143999999989,2294
57.53266399999987,13.733143999999989,2355
61.74466399999984,16.325143999999987,2734
61.420663999999846,16.325143999999987,2701
61.09666399999985,16.325143999999987,2690
61.09666399999985,16.973143999999984,2658
60.124663999999854,15.029143999999986,2836
66.60466399999981,20.86114399999998,3777
67.25266399999981,20.86114399999998,3845
67.90066399999981,20.213143999999986,3915
67.57666399999981,20.213143999999986,4540
59.800663999999855,15.029143999999986,2556
58.50466399999986,15.029143999999986,2398
59.47666399999986,15.029143999999986,2541
60.44866399999985,16.325143999999987,2627
59.15266399999986,15.677143999999986,2485
57.85666399999987,13.733143999999989,2396
58.82866399999986,13.733143999999989,2443
58.50466399999986,13.085143999999987,2428
57.20866399999987,13.085143999999987,2325
56.88466399999987,13.085143999999987,2299
58.180663999999865,11.789143999999988,2361
62.06866399999984,16.973143999999984,2729
65.95666399999982,23.45314399999998,3783
59.800663999999855,14.381143999999988,65535
59.800663999999855,18.269143999999983,2497
63.04066399999984,15.029143999999986,2880
62.71666399999984,15.029143999999986,2870
62.39266399999984,16.325143999999987,2803
63.36466399999984,12.437143999999988,3008
68.5486639999998,17.621143999999987,4128
68.5486639999998,18.269143999999983,4061
68.5486639999998,18.917143999999983,4038
68.2246639999998,18.917143999999983,3994
59.800663999999855,13.085143999999987,2560
60.124663999999854,13.085143999999987,2599
59.47666399999986,16.973143999999984,2501
59.15266399999986,16.973143999999984,2493
56.56066399999988,13.733143999999989,2246
60.124663999999854,17.621143999999987,2516
57.85666399999987,16.325143999999987,2475
58.180663999999865,16.325143999999987,2437
58.180663999999865,15.677143999999986,2445
57.20866399999987,16.325143999999987,2487
57.53266399999987,15.677143999999986,2505
57.85666399999987,15.677143999999986,2476
44.89666399999994,23.45314399999998,2762
44.572663999999946,23.45314399999998,2827
44.89666399999994,24.74914399999998,2887
44.572663999999946,24.74914399999998,2908
44.572663999999946,24.101143999999977,2868
44.24866399999995,24.101143999999977,2890
47.48866399999993,25.397143999999983,2738
47.48866399999993,24.74914399999998,2668
47.16466399999993,24.74914399999998,2649
47.16466399999993,24.101143999999977,2604
47.48866399999993,22.15714399999998,2477
47.81266399999993,22.15714399999998,2641
47.16466399999993,22.15714399999998,2472
47.16466399999993,23.45314399999998,2811
47.16466399999993,22.805143999999984,2734
46.84066399999993,24.101143999999977,2431
45.86866399999994,27.34114399999998,2939
45.54466399999994,27.34114399999998,2919
45.54466399999994,27.989143999999985,2956
45.86866399999994,20.86114399999998,2780
45.86866399999994,21.50914399999997,2764
46.19266399999994,21.50914399999997,2720
46.19266399999994,27.34114399999998,2962
46.19266399999994,26.69314399999997,2968
46.516663999999935,26.69314399999997,2937
46.516663999999935,26.04514399999998,2932
47.48866399999993,22.805143999999984,2913
46.84066399999993,22.805143999999984,2449
45.54466399999994,22.15714399999998,2859
45.22066399999994,22.15714399999998,2881
44.89666399999994,22.15714399999998,2943
47.48866399999993,23.45314399999998,2806
46.516663999999935,24.101143999999977,2444
46.516663999999935,24.74914399999998,2669
45.86866399999994,24.101143999999977,2669
47.16466399999993,26.69314399999997,2899
47.16466399999993,27.34114399999998,3011
43.92466399999995,25.397143999999983,2954
44.24866399999995,24.74914399999998,2930
44.89666399999994,26.04514399999998,2828
44.89666399999994,26.69314399999997,2836
45.22066399999994,26.69314399999997,2853
45.22066399999994,27.34114399999998,2880
46.84066399999993,26.69314399999997,2954
47.48866399999993,26.69314399999997,2847
44.24866399999995,25.397143999999983,2878
43.92466399999995,26.04514399999998,2970
46.19266399999994,24.101143999999977,2491
44.572663999999946,25.397143999999983,2845
46.84066399999993,24.74914399999998,2798
46.516663999999935,21.50914399999997,2803
46.84066399999993,21.50914399999997,2544
44.572663999999946,26.69314399999997,2879
44.572663999999946,27.34114399999998,2914
44.89666399999994,27.34114399999998,2870
44.572663999999946,27.989143999999985,2935
44.24866399999995,27.989143999999985,2950
44.572663999999946,28.63714399999997,2990
45.86866399999994,22.15714399999998,2626
45.86866399999994,22.805143999999984,2594
44.24866399999995,23.45314399999998,2878
43.92466399999995,27.989143999999985,65535
46.84066399999993,27.34114399999998,3082
45.22066399999994,23.45314399999998,2728
45.54466399999994,23.45314399999998,2699
45.54466399999994,24.101143999999977,2699
45.22066399999994,24.101143999999977,2770
44.89666399999994,24.101143999999977,2825
46.19266399999994,22.15714399999998,2670
46.516663999999935,22.15714399999998,2765
45.22066399999994,21.50914399999997,2848
45.54466399999994,21.50914399999997,2768
45.54466399999994,20.86114399999998,2774
46.516663999999935,27.989143999999985,3084
46.19266399999994,27.989143999999985,3056
45.54466399999994,25.397143999999983,2726
45.22066399999994,25.397143999999983,2769
45.22066399999994,26.04514399999998,2879
47.81266399999993,24.101143999999977,3061
47.48866399999993,26.04514399999998,2832
47.81266399999993,26.04514399999998,2890
46.19266399999994,23.45314399999998,2489
45.86866399999994,23.45314399999998,2541
44.24866399999995,26.04514399999998,2858
45.22066399999994,27.989143999999985,2935
45.86866399999994,24.74914399999998,2702
46.516663999999935,25.397143999999983,2926
46.84066399999993,25.397143999999983,2870
46.19266399999994,26.04514399999998,2905
45.86866399999994,26.04514399999998,2764
43.92466399999995,23.45314399999998,2971
44.89666399999994,25.397143999999983,2835
46.19266399999994,20.86114399999998,2802
47.81266399999993,25.397143999999983,3147
44.572663999999946,22.805143999999984,2899
44.572663999999946,22.15714399999998,2965
46.516663999999935,23.45314399999998,2501
45.86866399999994,25.397143999999983,2692
44.24866399999995,27.34114399999998,3211
45.22066399999994,24.74914399999998,3051
45.54466399999994,22.805143999999984,2637
45.22066399999994,28.63714399999997,3061
44.89666399999994,28.63714399999997,3000
47.81266399999993,23.45314399999998,2768
46.19266399999994,24.74914399999998,2529
46.19266399999994,25.397143999999983,2584
43.92466399999995,24.101143999999977,3661
43.92466399999995,24.74914399999998,3674
47.81266399999993,26.69314399999997,3070
47.48866399999993,24.101143999999977,2989
46.84066399999993,26.04514399999998,3126
46.19266399999994,22.805143999999984,3087
47.48866399999993,27.34114399999998,3097
46.19266399999994,20.213143999999986,65535
45.54466399999994,26.04514399999998,2972
44.24866399999995,26.69314399999997,2886
45.86866399999994,27.989143999999985,3071
47.81266399999993,5.957143999999991,2266
