51.56399999999999,-0.4100000000000028,65535
51.887999999999984,-0.4100000000000028,65535
50.91599999999999,-1.7060000000000022,65535
51.23999999999999,-1.0580000000000025,65535
51.56399999999999,-1.0580000000000025,65535
51.23999999999999,-1.7060000000000022,65535
51.56399999999999,0.2379999999999968,65535
47.16466399999993,9.845143999999989,377
47.48866399999993,9.845143999999989,373
48.136663999999925,14.381143999999988,815
47.81266399999993,13.085143999999987,538
47.16466399999993,11.141143999999988,620
47.48866399999993,11.789143999999988,590
48.136663999999925,16.325143999999987,1225
47.48866399999993,12.437143999999988,478
48.136663999999925,15.677143999999986,1235
47.16466399999993,10.493143999999988,438
47.16466399999993,9.197143999999987,341
48.136663999999925,13.733143999999989,775
48.136663999999925,15.029143999999986,1199
47.81266399999993,16.973143999999984,1255
48.46066399999992,14.381143999999988,3784
47.48866399999993,13.085143999999987,490
47.16466399999993,13.085143999999987,588
47.48866399999993,14.381143999999988,1111
47.48866399999993,13.733143999999989,1191
47.48866399999993,15.029143999999986,1367
46.516663999999935,13.733143999999989,888
46.84066399999993,13.733143999999989,861
46.84066399999993,13.085143999999987,809
48.78466399999992,14.381143999999988,65535
47.16466399999993,15.677143999999986,1325
46.516663999999935,14.381143999999988,921
46.84066399999993,14.381143999999988,1033
47.16466399999993,14.381143999999988,2405
46.516663999999935,15.029143999999986,979
47.81266399999993,16.325143999999987,1252
47.16466399999993,15.029143999999986,1333
47.81266399999993,15.677143999999986,1515
47.48866399999993,15.677143999999986,1309
46.516663999999935,13.085143999999987,2774
46.84066399999993,12.437143999999988,839
48.136663999999925,11.789143999999988,430
47.81266399999993,12.437143999999988,441
46.84066399999993,15.677143999999986,1305
46.516663999999935,15.677143999999986,1022
46.84066399999993,16.325143999999987,1248
47.81266399999993,14.381143999999988,1045
48.78466399999992,16.973143999999984,1132
48.136663999999925,16.973143999999984,1197
48.46066399999992,13.733143999999989,570
47.81266399999993,13.733143999999989,851
50.08066399999991,8.54914399999999,353
48.46066399999992,9.845143999999989,374
51.05266399999991,7.25314399999999,353
51.37666399999991,7.25314399999999,370
51.37666399999991,6.60514399999999,361
48.46066399999992,16.325143999999987,1227
48.46066399999992,16.973143999999984,1147
48.78466399999992,16.325143999999987,1250
48.46066399999992,15.677143999999986,1240
48.78466399999992,15.677143999999986,1247
47.48866399999993,16.325143999999987,1262
47.16466399999993,16.325143999999987,1350
46.19266399999994,14.381143999999988,942
45.86866399999994,15.677143999999986,984
43.60066399999995,16.325143999999987,2515
45.54466399999994,14.381143999999988,986
45.54466399999994,13.733143999999989,1070
48.136663999999925,13.085143999999987,481
48.46066399999992,11.141143999999988,437
48.136663999999925,11.141143999999988,423
48.46066399999992,7.90114399999999,281
49.10866399999992,8.54914399999999,301
48.78466399999992,2.0691439999999925,139
49.10866399999992,7.25314399999999,297
52.0246639999999,7.90114399999999,398
47.16466399999993,11.789143999999988,631
49.43266399999992,11.141143999999988,405
53.64466399999989,9.845143999999989,549
50.72866399999991,4.013143999999992,246
51.05266399999991,11.141143999999988,547
47.48866399999993,11.141143999999988,454
46.84066399999993,11.789143999999988,1502
46.516663999999935,11.141143999999988,1382
45.54466399999994,11.141143999999988,1288
46.19266399999994,11.141143999999988,1376
45.86866399999994,11.141143999999988,1363
44.572663999999946,11.141143999999988,1332
43.92466399999995,12.437143999999988,65535
45.54466399999994,12.437143999999988,1334
45.54466399999994,11.789143999999988,1315
48.78466399999992,15.029143999999986,1692
47.81266399999993,15.029143999999986,1290
47.81266399999993,11.141143999999988,428
50.40466399999991,18.917143999999983,1226
52.3486639999999,20.86114399999998,1596
54.616663999999886,18.269143999999983,1184
54.29266399999989,18.917143999999983,1203
49.10866399999992,14.381143999999988,65535
50.08066399999991,14.381143999999988,942
48.78466399999992,13.733143999999989,955
52.6726639999999,13.085143999999987,835
52.3486639999999,13.085143999999987,832
53.96866399999989,12.437143999999988,924
54.29266399999989,12.437143999999988,938
47.48866399999993,8.54914399999999,355
47.81266399999993,17.621143999999987,1279
47.48866399999993,18.917143999999983,1340
47.48866399999993,20.86114399999998,1801
46.84066399999993,23.45314399999998,2419
44.572663999999946,26.04514399999998,2837
47.48866399999993,21.50914399999997,1835
47.81266399999993,21.50914399999997,1868
48.46066399999992,22.15714399999998,1417
47.48866399999993,16.973143999999984,65535
49.10866399999992,16.325143999999987,1087
49.75666399999992,18.269143999999983,1180
46.19266399999994,13.085143999999987,2303
41.98066399999996,12.437143999999988,2470
43.60066399999995,10.493143999999988,2726
45.54466399999994,9.197143999999987,450
47.81266399999993,22.805143999999984,2659
49.75666399999992,22.805143999999984,1499
50.72866399999991,3.365143999999992,228
51.05266399999991,4.013143999999992,250
50.72866399999991,4.661143999999991,252
51.05266399999991,4.661143999999991,254
51.05266399999991,3.365143999999992,247
51.05266399999991,2.717143999999992,275
50.40466399999991,4.661143999999991,274
50.72866399999991,2.717143999999992,257
50.40466399999991,4.013143999999992,257
51.05266399999991,5.309143999999991,265
50.72866399999991,5.309143999999991,277
51.37666399999991,3.365143999999992,298
51.37666399999991,4.661143999999991,259
50.72866399999991,5.957143999999991,309
50.40466399999991,5.957143999999991,313
50.40466399999991,3.365143999999992,274
50.40466399999991,5.309143999999991,279
50.08066399999991,5.309143999999991,317
49.75666399999992,5.309143999999991,321
49.75666399999992,5.957143999999991,307
51.37666399999991,5.309143999999991,296
51.700663999999904,4.661143999999991,278
50.08066399999991,4.013143999999992,304
50.08066399999991,5.957143999999991,354
50.08066399999991,4.661143999999991,292
49.43266399999992,5.309143999999991,398
49.43266399999992,5.957143999999991,283
52.0246639999999,4.661143999999991,2229
52.3486639999999,4.661143999999991,2264
50.72866399999991,15.029143999999986,924
51.05266399999991,15.029143999999986,885
51.05266399999991,13.733143999999989,795
50.40466399999991,13.085143999999987,827
49.10866399999992,7.90114399999999,294
48.78466399999992,7.90114399999999,289
50.40466399999991,7.90114399999999,370
50.08066399999991,7.90114399999999,368
49.75666399999992,7.90114399999999,350
49.43266399999992,7.90114399999999,328
49.75666399999992,8.54914399999999,348
49.43266399999992,8.54914399999999,321
49.43266399999992,9.197143999999987,350
49.10866399999992,9.197143999999987,327
47.48866399999993,7.90114399999999,325
47.81266399999993,7.90114399999999,337
48.136663999999925,7.90114399999999,301
48.136663999999925,9.845143999999989,383
47.81266399999993,9.197143999999987,359
47.81266399999993,8.54914399999999,347
47.81266399999993,9.845143999999989,382
54.940663999999884,9.197143999999987,807
54.616663999999886,9.197143999999987,635
54.29266399999989,9.197143999999987,825
53.96866399999989,9.197143999999987,591
53.64466399999989,9.197143999999987,582
54.616663999999886,9.845143999999989,619
54.29266399999989,9.845143999999989,591
53.96866399999989,9.845143999999989,581
53.64466399999989,10.493143999999988,552
53.96866399999989,10.493143999999988,581
53.96866399999989,11.141143999999988,911
54.29266399999989,10.493143999999988,615
53.32066399999989,10.493143999999988,546
54.940663999999884,11.141143999999988,1009
52.6726639999999,13.733143999999989,837
52.3486639999999,13.733143999999989,840
52.3486639999999,14.381143999999988,847
52.0246639999999,14.381143999999988,867
52.0246639999999,11.789143999999988,594
52.3486639999999,11.789143999999988,577
52.3486639999999,12.437143999999988,830
52.0246639999999,15.029143999999986,883
51.700663999999904,14.381143999999988,859
52.0246639999999,13.733143999999989,855
51.700663999999904,13.733143999999989,854
52.6726639999999,12.437143999999988,878
53.32066399999989,11.789143999999988,813
53.96866399999989,11.789143999999988,916
53.64466399999989,11.789143999999988,883
53.64466399999989,11.141143999999988,884
53.32066399999989,11.141143999999988,565
52.996663999999896,11.789143999999988,838
52.996663999999896,12.437143999999988,867
52.996663999999896,13.733143999999989,850
53.64466399999989,13.733143999999989,937
53.96866399999989,13.733143999999989,950
54.29266399999989,13.085143999999987,1013
53.96866399999989,13.085143999999987,1019
53.32066399999989,13.733143999999989,947
52.0246639999999,13.085143999999987,794
51.700663999999904,13.085143999999987,741
52.996663999999896,14.381143999999988,882
52.0246639999999,12.437143999999988,773
51.700663999999904,12.437143999999988,729
51.37666399999991,11.789143999999988,725
51.37666399999991,12.437143999999988,693
52.6726639999999,11.789143999999988,830
53.64466399999989,13.085143999999987,980
53.32066399999989,13.085143999999987,945
52.996663999999896,13.085143999999987,918
53.64466399999989,12.437143999999988,942
51.37666399999991,13.733143999999989,828
53.32066399999989,12.437143999999988,896
52.6726639999999,14.381143999999988,852
51.37666399999991,13.085143999999987,731
53.32066399999989,14.381143999999988,916
52.3486639999999,15.029143999999986,896
52.0246639999999,15.677143999999986,921
51.700663999999904,15.029143999999986,975
51.05266399999991,16.325143999999987,1029
51.05266399999991,16.973143999999984,1052
51.700663999999904,15.677143999999986,958
51.37666399999991,15.677143999999986,998
51.37666399999991,16.325143999999987,1005
50.72866399999991,13.085143999999987,618
50.72866399999991,12.437143999999988,586
51.05266399999991,13.085143999999987,752
51.05266399999991,14.381143999999988,817
50.40466399999991,12.437143999999988,485
50.40466399999991,11.789143999999988,466
50.08066399999991,12.437143999999988,462
50.72866399999991,11.789143999999988,598
51.05266399999991,12.437143999999988,675
50.72866399999991,14.381143999999988,964
51.37666399999991,14.381143999999988,914
50.72866399999991,13.733143999999989,935
50.40466399999991,14.381143999999988,939
51.37666399999991,15.029143999999986,943
55.26466399999988,9.197143999999987,948
55.58866399999988,8.54914399999999,982
55.91266399999988,8.54914399999999,2239
56.23666399999988,9.197143999999987,2247
56.23666399999988,10.493143999999988,2200
56.23666399999988,9.845143999999989,2187
55.91266399999988,9.845143999999989,2125
56.56066399999988,9.197143999999987,2257
56.56066399999988,8.54914399999999,2300
51.05266399999991,6.60514399999999,353
51.700663999999904,7.90114399999999,384
50.72866399999991,6.60514399999999,336
51.700663999999904,7.25314399999999,375
50.72866399999991,7.25314399999999,356
52.0246639999999,7.25314399999999,386
52.3486639999999,7.90114399999999,404
51.05266399999991,5.957143999999991,341
50.40466399999991,7.25314399999999,361
51.700663999999904,6.60514399999999,373
51.700663999999904,5.957143999999991,368
52.3486639999999,9.197143999999987,445
51.700663999999904,8.54914399999999,397
52.0246639999999,8.54914399999999,406
52.3486639999999,8.54914399999999,417
51.37666399999991,7.90114399999999,382
52.3486639999999,7.25314399999999,393
51.37666399999991,5.957143999999991,401
50.72866399999991,7.90114399999999,391
51.37666399999991,9.197143999999987,461
51.700663999999904,9.197143999999987,433
50.40466399999991,6.60514399999999,346
51.05266399999991,7.90114399999999,413
51.37666399999991,8.54914399999999,398
52.0246639999999,5.957143999999991,411
52.3486639999999,6.60514399999999,416
51.05266399999991,8.54914399999999,404
52.0246639999999,9.197143999999987,414
52.6726639999999,9.197143999999987,450
52.0246639999999,9.845143999999989,488
51.700663999999904,9.845143999999989,502
51.37666399999991,9.845143999999989,436
50.72866399999991,8.54914399999999,375
51.05266399999991,9.845143999999989,411
50.72866399999991,9.845143999999989,391
50.40466399999991,9.845143999999989,379
51.05266399999991,9.197143999999987,454
50.40466399999991,9.197143999999987,358
50.08066399999991,9.197143999999987,352
51.05266399999991,10.493143999999988,763
50.40466399999991,8.54914399999999,355
50.72866399999991,9.197143999999987,392
49.75666399999992,9.197143999999987,366
52.996663999999896,9.197143999999987,489
52.3486639999999,9.845143999999989,452
52.996663999999896,8.54914399999999,446
52.996663999999896,7.90114399999999,473
53.32066399999989,7.90114399999999,834
53.32066399999989,7.25314399999999,491
53.64466399999989,7.25314399999999,1018
52.996663999999896,10.493143999999988,511
52.6726639999999,10.493143999999988,505
52.6726639999999,9.845143999999989,460
53.32066399999989,9.845143999999989,536
53.32066399999989,9.197143999999987,530
53.64466399999989,8.54914399999999,474
53.32066399999989,8.54914399999999,465
52.6726639999999,8.54914399999999,440
52.0246639999999,10.493143999999988,514
52.0246639999999,11.141143999999988,586
51.700663999999904,11.141143999999988,873
52.6726639999999,7.25314399999999,432
52.996663999999896,7.25314399999999,460
52.6726639999999,7.90114399999999,427
53.64466399999989,7.90114399999999,971
52.996663999999896,11.141143999999988,903
52.6726639999999,11.141143999999988,898
52.3486639999999,10.493143999999988,487
52.996663999999896,9.845143999999989,516
51.700663999999904,10.493143999999988,855
51.37666399999991,10.493143999999988,978
51.700663999999904,11.789143999999988,758
52.3486639999999,11.141143999999988,568
51.37666399999991,11.141143999999988,765
51.05266399999991,11.789143999999988,581
49.10866399999992,11.141143999999988,418
48.78466399999992,11.141143999999988,432
48.46066399999992,11.789143999999988,447
49.43266399999992,11.789143999999988,408
50.08066399999991,11.789143999999988,430
49.75666399999992,12.437143999999988,464
49.10866399999992,11.789143999999988,441
48.78466399999992,12.437143999999988,482
48.46066399999992,12.437143999999988,462
49.10866399999992,12.437143999999988,449
48.78466399999992,13.085143999999987,510
48.136663999999925,12.437143999999988,468
47.81266399999993,11.789143999999988,436
48.136663999999925,10.493143999999988,406
47.81266399999993,10.493143999999988,425
48.78466399999992,10.493143999999988,400
47.48866399999993,10.493143999999988,415
48.46066399999992,10.493143999999988,397
49.43266399999992,13.085143999999987,938
48.46066399999992,13.085143999999987,496
49.43266399999992,10.493143999999988,401
49.75666399999992,9.845143999999989,420
49.75666399999992,10.493143999999988,424
50.40466399999991,11.141143999999988,434
50.08066399999991,11.141143999999988,425
50.72866399999991,11.141143999999988,500
49.75666399999992,11.141143999999988,420
48.78466399999992,11.789143999999988,487
50.40466399999991,10.493143999999988,413
50.08066399999991,9.845143999999989,401
50.08066399999991,10.493143999999988,436
49.43266399999992,12.437143999999988,449
49.75666399999992,11.789143999999988,420
49.10866399999992,13.085143999999987,568
50.72866399999991,10.493143999999988,462
49.10866399999992,10.493143999999988,387
48.78466399999992,9.845143999999989,340
48.46066399999992,8.54914399999999,324
48.46066399999992,9.197143999999987,340
48.78466399999992,9.197143999999987,335
48.78466399999992,8.54914399999999,305
50.08066399999991,7.25314399999999,377
49.75666399999992,6.60514399999999,364
49.43266399999992,6.60514399999999,346
49.10866399999992,6.60514399999999,289
49.43266399999992,7.25314399999999,316
49.75666399999992,7.25314399999999,341
49.10866399999992,5.957143999999991,242
48.78466399999992,7.25314399999999,296
50.08066399999991,6.60514399999999,369
47.48866399999993,9.197143999999987,358
48.136663999999925,8.54914399999999,320
48.136663999999925,9.197143999999987,348
47.81266399999993,7.25314399999999,304
49.43266399999992,9.845143999999989,364
49.10866399999992,9.845143999999989,338
53.64466399999989,14.381143999999988,933
50.08066399999991,13.085143999999987,981
49.75666399999992,13.085143999999987,995
45.86866399999994,9.197143999999987,444
46.19266399999994,9.197143999999987,414
46.516663999999935,8.54914399999999,872
46.516663999999935,9.197143999999987,859
46.19266399999994,8.54914399999999,401
47.16466399999993,8.54914399999999,331
45.86866399999994,4.661143999999991,266
46.84066399999993,9.845143999999989,397
45.22066399999994,5.957143999999991,342
45.22066399999994,5.309143999999991,342
45.86866399999994,5.957143999999991,329
45.54466399999994,5.957143999999991,327
44.89666399999994,4.661143999999991,324
44.89666399999994,5.309143999999991,331
44.572663999999946,4.661143999999991,866
44.24866399999995,4.661143999999991,883
43.92466399999995,4.661143999999991,319
46.19266399999994,7.25314399999999,316
48.78466399999992,5.957143999999991,250
48.136663999999925,6.60514399999999,313
48.46066399999992,6.60514399999999,273
48.78466399999992,6.60514399999999,288
47.16466399999993,7.90114399999999,323
48.136663999999925,7.25314399999999,303
48.46066399999992,7.25314399999999,325
46.516663999999935,6.60514399999999,305
46.84066399999993,6.60514399999999,297
46.84066399999993,7.25314399999999,324
46.516663999999935,5.957143999999991,309
46.19266399999994,5.957143999999991,331
46.84066399999993,8.54914399999999,339
46.84066399999993,7.90114399999999,329
45.86866399999994,5.309143999999991,259
46.19266399999994,6.60514399999999,349
45.86866399999994,6.60514399999999,360
47.48866399999993,6.60514399999999,313
47.48866399999993,7.25314399999999,309
47.16466399999993,7.25314399999999,321
49.10866399999992,4.013143999999992,193
49.75666399999992,4.661143999999991,250
49.43266399999992,4.661143999999991,220
49.10866399999992,5.309143999999991,240
46.19266399999994,4.661143999999991,272
46.84066399999993,9.197143999999987,384
46.19266399999994,5.309143999999991,294
46.516663999999935,5.309143999999991,299
45.54466399999994,6.60514399999999,416
45.54466399999994,5.309143999999991,319
43.60066399999995,4.013143999999992,355
43.60066399999995,3.365143999999992,402
42.62866399999996,2.717143999999992,479
43.276663999999954,2.717143999999992,432
45.54466399999994,4.661143999999991,281
45.22066399999994,4.661143999999991,296
47.16466399999993,5.309143999999991,237
47.16466399999993,5.957143999999991,285
46.19266399999994,7.90114399999999,328
49.75666399999992,2.717143999999992,234
49.10866399999992,2.717143999999992,174
48.78466399999992,2.717143999999992,207
45.86866399999994,3.365143999999992,202
46.84066399999993,3.365143999999992,40
46.516663999999935,3.365143999999992,150
46.19266399999994,3.365143999999992,179
47.16466399999993,6.60514399999999,314
49.10866399999992,3.365143999999992,209
45.54466399999994,4.013143999999992,289
46.516663999999935,7.25314399999999,312
47.16466399999993,4.661143999999991,242
46.84066399999993,4.661143999999991,248
46.516663999999935,4.661143999999991,261
46.84066399999993,5.957143999999991,253
47.81266399999993,3.365143999999992,139
47.48866399999993,4.013143999999992,227
48.136663999999925,4.013143999999992,191
47.81266399999993,4.013143999999992,205
47.48866399999993,4.661143999999991,235
47.16466399999993,3.365143999999992,27
46.84066399999993,4.013143999999992,218
48.46066399999992,5.957143999999991,290
46.19266399999994,2.717143999999992,410
47.16466399999993,2.0691439999999925,18
46.516663999999935,2.717143999999992,382
46.84066399999993,2.717143999999992,166
46.84066399999993,2.0691439999999925,129
47.16466399999993,2.717143999999992,0
44.572663999999946,5.309143999999991,466
44.572663999999946,5.957143999999991,860
44.89666399999994,6.60514399999999,795
44.572663999999946,6.60514399999999,870
43.60066399999995,5.309143999999991,342
43.92466399999995,7.25314399999999,934
43.60066399999995,6.60514399999999,928
43.276663999999954,6.60514399999999,944
43.276663999999954,5.957143999999991,406
45.86866399999994,8.54914399999999,455
45.54466399999994,8.54914399999999,462
48.136663999999925,3.365143999999992,206
48.46066399999992,3.365143999999992,222
48.46066399999992,2.717143999999992,191
47.48866399999993,5.309143999999991,265
46.516663999999935,9.845143999999989,408
46.84066399999993,10.493143999999988,968
47.81266399999993,5.309143999999991,293
45.22066399999994,6.60514399999999,435
46.19266399999994,4.013143999999992,258
45.86866399999994,4.013143999999992,281
45.22066399999994,4.013143999999992,391
44.89666399999994,4.013143999999992,446
46.84066399999993,5.309143999999991,270
48.136663999999925,-1.8188560000000056,265
48.136663999999925,0.1251439999999934,197
48.136663999999925,-0.5228560000000062,231
47.48866399999993,-0.5228560000000062,182
47.16466399999993,-1.8188560000000056,226
47.48866399999993,0.7731439999999932,79
47.16466399999993,0.1251439999999934,161
45.86866399999994,7.25314399999999,475
48.136663999999925,5.309143999999991,285
49.10866399999992,4.661143999999991,252
48.46066399999992,4.013143999999992,232
48.136663999999925,4.661143999999991,251
47.81266399999993,6.60514399999999,387
47.48866399999993,5.957143999999991,370
48.136663999999925,5.957143999999991,1406
45.86866399999994,7.90114399999999,347
46.516663999999935,7.90114399999999,336
49.43266399999992,3.365143999999992,213
49.43266399999992,4.013143999999992,220
48.136663999999925,2.717143999999992,228
47.81266399999993,2.717143999999992,180
47.48866399999993,2.717143999999992,74
50.40466399999991,2.717143999999992,244
48.46066399999992,-4.410856000000004,393
48.46066399999992,-3.7628560000000046,350
48.46066399999992,-3.114856000000005,335
48.46066399999992,-2.4668560000000053,305
47.48866399999993,1.4211439999999929,73
47.16466399999993,1.4211439999999929,43
46.516663999999935,4.013143999999992,265
43.60066399999995,4.661143999999991,894
44.89666399999994,2.717143999999992,485
45.22066399999994,2.717143999999992,997
45.54466399999994,3.365143999999992,247
45.22066399999994,3.365143999999992,289
47.48866399999993,3.365143999999992,78
46.19266399999994,9.845143999999989,893
47.81266399999993,2.0691439999999925,141
47.48866399999993,2.0691439999999925,108
45.86866399999994,2.717143999999992,1001
44.89666399999994,5.957143999999991,997
45.22066399999994,1.4211439999999929,300
44.89666399999994,1.4211439999999929,384
44.89666399999994,2.0691439999999925,414
43.276663999999954,2.0691439999999925,958
43.60066399999995,1.4211439999999929,444
48.78466399999992,4.661143999999991,273
48.78466399999992,5.309143999999991,260
46.19266399999994,2.0691439999999925,319
45.86866399999994,1.4211439999999929,234
46.19266399999994,1.4211439999999929,199
44.572663999999946,4.013143999999992,1065
44.89666399999994,3.365143999999992,1149
43.92466399999995,4.013143999999992,991
44.24866399999995,4.013143999999992,1007
44.89666399999994,-0.5228560000000062,237
45.54466399999994,0.1251439999999934,193
46.516663999999935,0.1251439999999934,153
44.572663999999946,2.0691439999999925,799
49.75666399999992,4.013143999999992,251
43.92466399999995,3.365143999999992,1116
43.92466399999995,2.717143999999992,1141
44.24866399999995,3.365143999999992,1167
44.572663999999946,3.365143999999992,1211
49.10866399999992,0.1251439999999934,257
49.43266399999992,0.7731439999999932,241
49.43266399999992,-1.8188560000000056,320
49.10866399999992,-1.170856000000006,292
49.10866399999992,-0.5228560000000062,278
49.10866399999992,0.7731439999999932,242
49.10866399999992,1.4211439999999929,212
47.81266399999993,-1.8188560000000056,306
47.81266399999993,-2.4668560000000053,331
47.81266399999993,-3.114856000000005,344
48.136663999999925,-3.7628560000000046,1023
44.572663999999946,9.197143999999987,896
44.89666399999994,8.54914399999999,869
45.22066399999994,9.197143999999987,480
45.54466399999994,10.493143999999988,907
44.572663999999946,10.493143999999988,1318
44.89666399999994,10.493143999999988,973
44.89666399999994,9.845143999999989,900
48.46066399999992,5.309143999999991,974
50.91599999999999,-1.0580000000000025,65535
51.23999999999999,-0.4100000000000028,65535
50.91599999999999,-0.4100000000000028,65535
51.23999999999999,-2.354000000000002,65535
51.56399999999999,-2.354000000000002,65535
51.56399999999999,-3.0020000000000016,65535
50.91599999999999,-2.354000000000002,65535
53.50799999999997,-3.0020000000000016,65535
53.183999999999976,-2.354000000000002,65535
53.183999999999976,-3.0020000000000016,65535
52.85999999999998,-2.354000000000002,65535
52.21199999999998,-1.0580000000000025,65535
51.887999999999984,-1.0580000000000025,65535
52.53599999999998,-1.0580000000000025,65535
52.53599999999998,-1.7060000000000022,65535
52.85999999999998,-1.7060000000000022,65535
53.50799999999997,-2.354000000000002,65535
52.85999999999998,-1.0580000000000025,65535
52.53599999999998,1.5339999999999965,65535
52.53599999999998,0.8859999999999966,65535
52.53599999999998,0.2379999999999968,65535
52.53599999999998,-0.4100000000000028,65535
53.50799999999997,-1.7060000000000022,65535
53.183999999999976,-1.7060000000000022,65535
53.183999999999976,-1.0580000000000025,65535
52.85999999999998,-0.4100000000000028,65535
51.887999999999984,-2.354000000000002,65535
52.21199999999998,-2.354000000000002,65535
55.77599999999996,-2.354000000000002,65535
53.83199999999997,-1.0580000000000025,65535
53.83199999999997,-1.7060000000000022,65535
55.127999999999965,-1.7060000000000022,65535
54.80399999999997,-1.7060000000000022,65535
54.47999999999997,-1.7060000000000022,65535
54.15599999999997,-1.0580000000000025,65535
52.21199999999998,-1.7060000000000022,65535
53.50799999999997,-1.0580000000000025,65535
55.77599999999996,-3.0020000000000016,65535
55.45199999999996,-1.7060000000000022,65535
57.07199999999995,-2.354000000000002,65535
56.74799999999996,-3.0020000000000016,65535
56.42399999999996,-3.0020000000000016,65535
56.09999999999996,-3.650000000000001,65535
50.91599999999999,-3.0020000000000016,65535
50.91599999999999,-3.650000000000001,65535
50.59199999999999,-3.650000000000001,65535
50.59199999999999,-4.298000000000001,65535
51.23999999999999,-3.0020000000000016,65535
50.268,-4.946000000000001,65535
55.77599999999996,-3.650000000000001,65535
55.77599999999996,-4.298000000000001,65535
52.21199999999998,-0.4100000000000028,65535
52.53599999999998,-2.354000000000002,65535
51.56399999999999,-1.7060000000000022,65535
51.56399999999999,-3.650000000000001,65535
51.887999999999984,-4.298000000000001,65535
51.56399999999999,-4.298000000000001,65535
51.887999999999984,-1.7060000000000022,65535
52.21199999999998,-3.0020000000000016,65535
51.23999999999999,0.2379999999999968,65535
50.91599999999999,0.2379999999999968,65535
52.21199999999998,0.2379999999999968,65535
53.83199999999997,-3.0020000000000016,65535
54.15599999999997,-3.0020000000000016,65535
54.47999999999997,-3.0020000000000016,65535
55.127999999999965,-3.650000000000001,65535
54.80399999999997,-3.0020000000000016,65535
53.83199999999997,-2.354000000000002,65535
54.15599999999997,-0.4100000000000028,65535
54.47999999999997,-1.0580000000000025,65535
53.83199999999997,-0.4100000000000028,65535
53.183999999999976,-3.650000000000001,65535
53.183999999999976,-4.298000000000001,65535
52.85999999999998,-3.0020000000000016,65535
52.53599999999998,-3.0020000000000016,65535
51.887999999999984,-3.0020000000000016,65535
51.23999999999999,0.8859999999999966,65535
51.887999999999984,0.2379999999999968,65535
52.21199999999998,0.8859999999999966,65535
51.887999999999984,-4.946000000000001,65535
52.53599999999998,-3.650000000000001,65535
52.21199999999998,-4.298000000000001,65535
53.183999999999976,-0.4100000000000028,65535
51.23999999999999,-3.650000000000001,65535
51.887999999999984,-3.650000000000001,65535
52.21199999999998,-3.650000000000001,65535
51.56399999999999,0.8859999999999966,65535
51.887999999999984,0.8859999999999966,65535
52.85999999999998,0.8859999999999966,65535
53.50799999999997,-0.4100000000000028,65535
56.09999999999996,-4.298000000000001,65535
56.74799999999996,-4.946000000000001,65535
56.74799999999996,-4.298000000000001,65535
56.42399999999996,-4.946000000000001,65535
56.42399999999996,-4.298000000000001,65535
56.09999999999996,-4.946000000000001,65535
57.39599999999995,-4.298000000000001,65535
57.39599999999995,-3.0020000000000016,65535
57.39599999999995,-3.650000000000001,65535
56.42399999999996,-3.650000000000001,65535
57.07199999999995,-3.650000000000001,65535
57.07199999999995,-4.298000000000001,65535
56.74799999999996,-3.650000000000001,65535
59.15266399999986,27.34114399999998,65535
59.47666399999986,26.69314399999997,65535
59.47666399999986,26.04514399999998,65535
59.15266399999986,26.04514399999998,65535
59.15266399999986,24.74914399999998,65535
59.15266399999986,25.397143999999983,65535
59.47666399999986,25.397143999999983,65535
58.50466399999986,26.69314399999997,65535
58.82866399999986,26.69314399999997,65535
57.85666399999987,26.04514399999998,65535
58.180663999999865,26.04514399999998,65535
58.180663999999865,26.69314399999997,65535
58.82866399999986,26.04514399999998,65535
58.50466399999986,25.397143999999983,65535
58.82866399999986,25.397143999999983,65535
58.82866399999986,24.74914399999998,65535
58.180663999999865,27.34114399999998,65535
57.85666399999987,27.34114399999998,65535
63.68866399999983,27.34114399999998,65535
60.124663999999854,24.74914399999998,65535
60.44866399999985,24.74914399999998,65535
60.44866399999985,25.397143999999983,65535
60.77266399999985,25.397143999999983,65535
61.09666399999985,26.04514399999998,65535
60.77266399999985,26.04514399999998,65535
60.77266399999985,26.69314399999997,65535
61.09666399999985,25.397143999999983,65535
61.09666399999985,26.69314399999997,65535
61.420663999999846,26.69314399999997,65535
61.74466399999984,27.34114399999998,65535
62.06866399999984,27.34114399999998,65535
62.39266399999984,27.34114399999998,65535
62.71666399999984,27.34114399999998,65535
64.01266399999983,27.34114399999998,65535
63.36466399999984,27.34114399999998,65535
63.04066399999984,27.34114399999998,65535
63.04066399999984,27.989143999999985,65535
64.33666399999983,27.989143999999985,65535
64.33666399999983,27.34114399999998,65535
64.66066399999983,27.34114399999998,65535
64.66066399999983,26.69314399999997,4756
64.98466399999982,25.397143999999983,4519
64.66066399999983,26.04514399999998,4736
64.98466399999982,26.04514399999998,4720
66.28066399999982,25.397143999999983,65535
65.95666399999982,24.74914399999998,4432
65.63266399999982,24.74914399999998,4436
65.63266399999982,25.397143999999983,4478
65.30866399999982,25.397143999999983,4499
66.60466399999981,25.397143999999983,65535
64.01266399999983,24.74914399999998,4656
64.01266399999983,24.101143999999977,4691
64.01266399999983,23.45314399999998,4715
63.68866399999983,23.45314399999998,4727
63.68866399999983,22.805143999999984,4752
63.68866399999983,26.04514399999998,65535
63.68866399999983,25.397143999999983,65535
63.68866399999983,26.69314399999997,65535
60.44866399999985,26.69314399999997,65535
64.01266399999983,27.989143999999985,65535
62.71666399999984,22.805143999999984,65535
62.39266399999984,22.805143999999984,65535
62.06866399999984,22.805143999999984,65535
62.06866399999984,23.45314399999998,65535
61.74466399999984,23.45314399999998,65535
61.420663999999846,23.45314399999998,65535
61.09666399999985,23.45314399999998,65535
61.09666399999985,24.101143999999977,65535
61.09666399999985,24.74914399999998,65535
60.77266399999985,24.74914399999998,65535
63.04066399999984,21.50914399999997,65535
63.04066399999984,22.15714399999998,65535
63.04066399999984,22.805143999999984,65535
62.39266399999984,26.04514399999998,65535
62.06866399999984,25.397143999999983,65535
61.74466399999984,25.397143999999983,65535
61.74466399999984,24.74914399999998,65535
61.74466399999984,24.101143999999977,65535
61.420663999999846,24.101143999999977,65535
62.39266399999984,26.69314399999997,65535
64.66066399999983,25.397143999999983,4588
64.66066399999983,24.74914399999998,4606
64.33666399999983,24.74914399999998,4617
63.36466399999984,22.805143999999984,4777
67.25266399999981,24.101143999999977,65535
66.92866399999981,24.101143999999977,65535
66.60466399999981,23.45314399999998,65535
66.28066399999982,23.45314399999998,65535
66.28066399999982,24.101143999999977,65535
65.95666399999982,24.101143999999977,3804
60.124663999999854,24.101143999999977,65535
60.124663999999854,23.45314399999998,65535
60.44866399999985,22.805143999999984,65535
60.77266399999985,27.34114399999998,65535
61.09666399999985,27.989143999999985,65535
61.09666399999985,28.63714399999997,65535
61.420663999999846,29.28514399999997,65535
61.74466399999984,29.933143999999977,65535
62.06866399999984,29.933143999999977,65535
62.39266399999984,29.933143999999977,65535
62.71666399999984,29.933143999999977,65535
61.420663999999846,22.805143999999984,65535
61.420663999999846,22.15714399999998,65535
61.09666399999985,22.15714399999998,65535
61.420663999999846,21.50914399999997,65535
62.39266399999984,27.989143999999985,65535
62.06866399999984,27.989143999999985,65535
61.420663999999846,27.34114399999998,65535
63.04066399999984,29.933143999999977,65535
63.68866399999983,29.28514399999997,65535
63.36466399999984,29.28514399999997,65535
63.36466399999984,29.933143999999977,65535
60.44866399999985,27.34114399999998,65535
61.74466399999984,29.28514399999997,65535
62.39266399999984,30.58114399999998,65535
62.71666399999984,31.229143999999977,65535
62.71666399999984,29.28514399999997,65535
63.04066399999984,28.63714399999997,65535
66.60466399999981,26.04514399999998,65535
66.60466399999981,26.69314399999997,65535
66.60466399999981,27.34114399999998,65535
62.71666399999984,26.04514399999998,65535
62.71666399999984,25.397143999999983,65535
63.04066399999984,25.397143999999983,65535
63.36466399999984,25.397143999999983,65535
62.71666399999984,23.45314399999998,65535
62.39266399999984,24.101143999999977,65535
62.71666399999984,22.15714399999998,65535
62.39266399999984,22.15714399999998,65535
62.39266399999984,21.50914399999997,65535
61.09666399999985,21.50914399999997,65535
60.77266399999985,22.805143999999984,65535
60.44866399999985,22.15714399999998,65535
60.77266399999985,23.45314399999998,65535
60.77266399999985,21.50914399999997,65535
60.77266399999985,22.15714399999998,65535
60.124663999999854,22.805143999999984,65535
60.44866399999985,24.101143999999977,65535
62.06866399999984,24.74914399999998,65535
50.72866399999991,16.325143999999987,1028
50.40466399999991,16.973143999999984,1034
50.72866399999991,16.973143999999984,1047
50.40466399999991,16.325143999999987,1032
50.08066399999991,16.973143999999984,1078
50.08066399999991,16.325143999999987,993
51.700663999999904,16.973143999999984,1058
51.37666399999991,16.973143999999984,1053
51.05266399999991,15.677143999999986,982
50.72866399999991,15.677143999999986,1021
51.05266399999991,17.621143999999987,1095
51.37666399999991,17.621143999999987,1071
51.700663999999904,17.621143999999987,1154
51.700663999999904,16.325143999999987,987
52.0246639999999,22.15714399999998,1618
52.0246639999999,21.50914399999997,1614
52.3486639999999,21.50914399999997,1614
52.0246639999999,20.86114399999998,1602
51.700663999999904,20.86114399999998,1601
51.37666399999991,21.50914399999997,1584
51.37666399999991,20.86114399999998,1567
51.05266399999991,20.86114399999998,1464
52.6726639999999,23.45314399999998,1651
52.3486639999999,22.805143999999984,1701
52.3486639999999,20.213143999999986,1608
52.0246639999999,20.213143999999986,1614
52.3486639999999,19.565143999999982,1444
52.6726639999999,19.565143999999982,1527
51.700663999999904,21.50914399999997,1648
51.700663999999904,22.15714399999998,1654
52.6726639999999,21.50914399999997,1626
52.996663999999896,21.50914399999997,1669
52.6726639999999,20.86114399999998,1573
52.6726639999999,22.15714399999998,1669
52.6726639999999,20.213143999999986,1586
52.996663999999896,19.565143999999982,1579
52.996663999999896,20.86114399999998,1564
52.996663999999896,20.213143999999986,1539
53.32066399999989,20.213143999999986,1504
51.37666399999991,20.213143999999986,1574
52.3486639999999,16.973143999999984,1052
52.0246639999999,16.973143999999984,1120
52.0246639999999,16.325143999999987,1097
52.0246639999999,17.621143999999987,1114
52.6726639999999,16.973143999999984,1044
52.996663999999896,16.973143999999984,1042
52.3486639999999,16.325143999999987,1023
52.3486639999999,15.677143999999986,932
51.700663999999904,18.269143999999983,1363
52.6726639999999,17.621143999999987,1076
52.3486639999999,17.621143999999987,1062
52.6726639999999,18.269143999999983,1142
52.3486639999999,18.269143999999983,1168
52.3486639999999,18.917143999999983,1207
52.996663999999896,17.621143999999987,1102
51.700663999999904,19.565143999999982,1444
51.700663999999904,18.917143999999983,1411
51.37666399999991,18.269143999999983,1366
58.82866399999986,9.197143999999987,2768
58.180663999999865,7.90114399999999,2861
58.50466399999986,8.54914399999999,2812
63.36466399999984,10.493143999999988,2983
63.36466399999984,11.141143999999988,2990
63.36466399999984,11.789143999999988,3025
63.68866399999983,11.789143999999988,3053
64.33666399999983,12.437143999999988,3454
64.66066399999983,12.437143999999988,3949
65.63266399999982,13.085143999999987,3606
65.95666399999982,13.085143999999987,3641
66.28066399999982,14.381143999999988,3711
65.95666399999982,13.733143999999989,3780
66.28066399999982,13.733143999999989,3689
65.30866399999982,13.085143999999987,3907
64.98466399999982,13.085143999999987,3541
64.01266399999983,11.789143999999988,3084
63.68866399999983,11.141143999999988,3021
59.800663999999855,10.493143999999988,2564
59.800663999999855,11.141143999999988,2547
60.124663999999854,11.141143999999988,2562
60.44866399999985,11.141143999999988,2575
60.124663999999854,11.789143999999988,2588
60.77266399999985,7.25314399999999,2824
60.77266399999985,6.60514399999999,2870
59.15266399999986,9.197143999999987,2650
59.47666399999986,9.197143999999987,2671
59.800663999999855,9.845143999999989,2566
59.47666399999986,11.141143999999988,2511
61.09666399999985,10.493143999999988,2685
60.77266399999985,10.493143999999988,2655
60.77266399999985,11.141143999999988,2610
62.06866399999984,9.197143999999987,3010
61.74466399999984,9.845143999999989,2956
61.420663999999846,9.845143999999989,2933
59.15266399999986,9.845143999999989,2630
59.47666399999986,9.845143999999989,2606
58.82866399999986,5.957143999999991,3045
58.180663999999865,7.25314399999999,2917
58.50466399999986,7.25314399999999,2950
58.50466399999986,6.60514399999999,2955
58.50466399999986,5.957143999999991,3013
58.82866399999986,8.54914399999999,2798
60.44866399999985,7.25314399999999,2798
60.44866399999985,7.90114399999999,2759
60.124663999999854,10.493143999999988,2596
60.44866399999985,9.197143999999987,2708
60.77266399999985,9.197143999999987,2720
60.77266399999985,8.54914399999999,2739
60.124663999999854,9.845143999999989,2975
60.44866399999985,10.493143999999988,2641
63.04066399999984,10.493143999999988,2934
62.06866399999984,9.845143999999989,3035
62.39266399999984,9.845143999999989,3043
62.71666399999984,9.845143999999989,3067
59.47666399999986,14.381143999999988,2560
59.47666399999986,13.733143999999989,2501
59.47666399999986,13.085143999999987,2477
59.800663999999855,12.437143999999988,2546
59.15266399999986,11.141143999999988,2475
59.15266399999986,14.381143999999988,2574
58.82866399999986,11.789143999999988,2455
58.50466399999986,12.437143999999988,2385
58.180663999999865,12.437143999999988,2378
57.85666399999987,11.789143999999988,2329
62.71666399999984,7.90114399999999,3096
62.39266399999984,7.90114399999999,3053
62.06866399999984,8.54914399999999,3028
60.44866399999985,5.309143999999991,2944
60.44866399999985,5.957143999999991,2911
60.77266399999985,5.957143999999991,2900
62.39266399999984,11.141143999999988,2831
62.06866399999984,10.493143999999988,2786
61.74466399999984,11.141143999999988,2759
61.420663999999846,11.141143999999988,2713
61.09666399999985,11.141143999999988,2696
60.77266399999985,11.789143999999988,2673
63.04066399999984,11.141143999999988,2912
62.71666399999984,11.141143999999988,2855
62.39266399999984,10.493143999999988,2813
67.25266399999981,15.677143999999986,3830
67.25266399999981,15.029143999999986,3868
67.25266399999981,14.381143999999988,3896
66.92866399999981,15.029143999999986,3819
66.60466399999981,15.677143999999986,3797
64.01266399999983,11.141143999999988,3068
66.60466399999981,15.029143999999986,3860
54.29266399999989,18.269143999999983,1190
54.616663999999886,17.621143999999987,1148
53.96866399999989,18.269143999999983,1163
43.92466399999995,1.4211439999999929,422
44.24866399999995,0.7731439999999932,370
44.572663999999946,0.1251439999999934,322
46.84066399999993,1.4211439999999929,146
44.572663999999946,1.4211439999999929,431
44.24866399999995,1.4211439999999929,810
45.54466399999994,1.4211439999999929,273
46.516663999999935,1.4211439999999929,166
42.30466399999996,2.717143999999992,1111
44.24866399999995,2.717143999999992,895
44.572663999999946,2.717143999999992,865
43.92466399999995,2.0691439999999925,962
42.30466399999996,2.0691439999999925,1032
42.62866399999996,2.0691439999999925,963
42.62866399999996,1.4211439999999929,955
42.95266399999996,1.4211439999999929,926
43.276663999999954,1.4211439999999929,879
46.516663999999935,-1.170856000000006,300
46.19266399999994,-1.170856000000006,288
45.86866399999994,-0.5228560000000062,285
45.54466399999994,-0.5228560000000062,259
48.46066399999992,1.4211439999999929,175
41.332663999999966,2.0691439999999925,1234
41.98066399999996,2.717143999999992,1193
48.46066399999992,-1.8188560000000056,299
47.81266399999993,0.7731439999999932,193
46.84066399999993,0.7731439999999932,178
44.572663999999946,-1.170856000000006,265
43.60066399999995,-1.170856000000006,328
43.276663999999954,-1.8188560000000056,375
43.276663999999954,0.1251439999999934,439
42.95266399999996,0.1251439999999934,413
43.276663999999954,-0.5228560000000062,385
43.60066399999995,-0.5228560000000062,362
47.81266399999993,-3.7628560000000046,1043
47.48866399999993,-2.4668560000000053,287
47.81266399999993,-0.5228560000000062,192
46.516663999999935,-1.8188560000000056,316
48.136663999999925,-1.170856000000006,302
47.48866399999993,-1.170856000000006,207
45.22066399999994,8.54914399999999,488
45.22066399999994,7.90114399999999,499
46.19266399999994,-0.5228560000000062,243
46.516663999999935,-0.5228560000000062,1011
48.78466399999992,-3.114856000000005,375
50.72866399999991,2.0691439999999925,302
50.40466399999991,2.0691439999999925,255
40.36066399999997,-3.7628560000000046,1425
41.65666399999997,-1.170856000000006,1342
41.332663999999966,1.4211439999999929,1280
43.276663999999954,13.733143999999989,65535
42.95266399999996,13.733143999999989,65535
41.65666399999997,15.029143999999986,65535
40.68466399999997,17.621143999999987,65535
43.60066399999995,13.085143999999987,3903
41.65666399999997,12.437143999999988,2512
41.65666399999997,13.085143999999987,2528
41.98066399999996,13.085143999999987,2504
41.65666399999997,13.733143999999989,3092
41.332663999999966,13.733143999999989,2570
41.332663999999966,14.381143999999988,3127
41.00866399999997,14.381143999999988,3154
41.332663999999966,13.085143999999987,2553
41.00866399999997,15.029143999999986,4335
41.98066399999996,13.733143999999989,2586
42.30466399999996,14.381143999999988,4416
42.30466399999996,12.437143999999988,2755
42.62866399999996,12.437143999999988,3054
42.95266399999996,12.437143999999988,3108
42.30466399999996,11.789143999999988,2563
42.95266399999996,11.789143999999988,3818
42.62866399999996,11.789143999999988,3739
43.276663999999954,11.789143999999988,4290
42.95266399999996,13.085143999999987,3804
42.30466399999996,13.085143999999987,4303
43.276663999999954,13.085143999999987,3852
43.276663999999954,12.437143999999988,3859
42.62866399999996,11.141143999999988,2632
42.95266399999996,11.141143999999988,2675
42.95266399999996,10.493143999999988,2693
44.572663999999946,8.54914399999999,890
44.89666399999994,7.90114399999999,813
44.89666399999994,9.197143999999987,495
44.24866399999995,7.90114399999999,879
44.572663999999946,7.90114399999999,836
43.92466399999995,7.90114399999999,961
44.24866399999995,7.25314399999999,876
44.89666399999994,7.25314399999999,978
45.22066399999994,7.25314399999999,815
45.54466399999994,7.90114399999999,844
44.572663999999946,7.25314399999999,2302
52.996663999999896,22.805143999999984,1646
52.996663999999896,23.45314399999998,1657
51.37666399999991,22.15714399999998,1681
51.37666399999991,22.805143999999984,1685
50.08066399999991,20.213143999999986,1309
50.72866399999991,20.213143999999986,1404
50.40466399999991,20.213143999999986,1365
50.08066399999991,20.86114399999998,1345
50.08066399999991,21.50914399999997,1386
50.08066399999991,22.15714399999998,1433
50.08066399999991,22.805143999999984,1463
53.96866399999989,22.805143999999984,1827
53.64466399999989,23.45314399999998,1780
53.32066399999989,23.45314399999998,1737
50.40466399999991,19.565143999999982,1291
50.08066399999991,18.917143999999983,1281
50.08066399999991,18.269143999999983,1347
52.0246639999999,22.805143999999984,1652
52.0246639999999,23.45314399999998,1690
51.37666399999991,19.565143999999982,1474
51.05266399999991,19.565143999999982,1393
50.72866399999991,18.917143999999983,1364
50.72866399999991,19.565143999999982,1425
49.75666399999992,18.917143999999983,1218
50.40466399999991,18.269143999999983,1164
53.64466399999989,19.565143999999982,1336
53.96866399999989,18.917143999999983,1205
53.64466399999989,18.917143999999983,1221
53.64466399999989,20.213143999999986,1303
52.996663999999896,18.917143999999983,1206
52.996663999999896,18.269143999999983,1181
53.32066399999989,18.917143999999983,1361
50.72866399999991,17.621143999999987,1101
50.72866399999991,18.269143999999983,1152
52.6726639999999,16.325143999999987,1005
52.996663999999896,16.325143999999987,978
52.996663999999896,15.677143999999986,953
53.32066399999989,15.677143999999986,1016
53.32066399999989,15.029143999999986,927
53.64466399999989,15.029143999999986,961
53.96866399999989,15.029143999999986,990
52.6726639999999,18.917143999999983,1258
53.32066399999989,16.325143999999987,1074
52.6726639999999,15.029143999999986,889
51.05266399999991,22.805143999999984,1676
51.05266399999991,23.45314399999998,1721
50.72866399999991,22.15714399999998,1539
50.40466399999991,22.15714399999998,1523
51.05266399999991,22.15714399999998,1638
54.616663999999886,16.973143999999984,1108
54.29266399999989,16.325143999999987,1058
53.96866399999989,15.677143999999986,1022
50.72866399999991,21.50914399999997,1501
50.40466399999991,21.50914399999997,1459
50.40466399999991,17.621143999999987,1205
53.32066399999989,22.805143999999984,1598
53.64466399999989,22.15714399999998,1445
54.29266399999989,16.973143999999984,1084
50.72866399999991,20.86114399999998,1442
51.700663999999904,22.805143999999984,1788
51.05266399999991,21.50914399999997,1526
50.08066399999991,19.565143999999982,1295
52.0246639999999,18.917143999999983,3688
52.0246639999999,19.565143999999982,3681
53.64466399999989,18.269143999999983,1157
51.700663999999904,20.213143999999986,1614
53.32066399999989,19.565143999999982,1439
50.72866399999991,23.45314399999998,1801
50.72866399999991,22.805143999999984,1771
49.43266399999992,20.213143999999986,1379
49.75666399999992,21.50914399999997,1469
49.75666399999992,22.15714399999998,2262
49.43266399999992,22.15714399999998,1430
51.05266399999991,18.917143999999983,1376
51.05266399999991,18.269143999999983,1314
53.32066399999989,16.973143999999984,1048
53.64466399999989,16.973143999999984,1090
49.75666399999992,20.86114399999998,1388
50.40466399999991,22.805143999999984,3770
53.64466399999989,16.325143999999987,1084
53.96866399999989,20.86114399999998,1432
54.29266399999989,20.86114399999998,1478
53.96866399999989,21.50914399999997,1549
53.64466399999989,15.677143999999986,980
53.96866399999989,20.213143999999986,1261
53.96866399999989,19.565143999999982,1250
54.29266399999989,19.565143999999982,1264
53.96866399999989,16.325143999999987,1043
53.64466399999989,17.621143999999987,1098
53.96866399999989,22.15714399999998,1479
53.64466399999989,21.50914399999997,1400
53.64466399999989,20.86114399999998,1354
52.6726639999999,15.677143999999986,910
51.05266399999991,20.213143999999986,1835
54.940663999999884,24.101143999999977,65535
54.616663999999886,23.45314399999998,65535
54.29266399999989,23.45314399999998,65535
53.64466399999989,22.805143999999984,1585
53.96866399999989,16.973143999999984,1105
50.40466399999991,20.86114399999998,1523
53.32066399999989,18.269143999999983,1257
49.75666399999992,19.565143999999982,1342
50.40466399999991,23.45314399999998,1885
49.75666399999992,20.213143999999986,1357
49.43266399999992,19.565143999999982,1365
49.43266399999992,20.86114399999998,1355
53.96866399999989,17.621143999999987,1308
42.30466399999996,-1.8188560000000056,3999
41.98066399999996,-1.8188560000000056,3982
41.65666399999997,0.7731439999999932,3986
42.62866399999996,-1.8188560000000056,4114
42.95266399999996,-1.8188560000000056,4143
42.62866399999996,-3.114856000000005,4237
42.95266399999996,-2.4668560000000053,4215
42.62866399999996,-7.650856000000003,4579
42.30466399999996,-7.650856000000003,4639
42.30466399999996,-8.946856000000002,4775
42.30466399999996,-8.298856000000002,4749
41.98066399999996,-8.298856000000002,4738
42.30466399999996,-7.002856000000003,4521
42.62866399999996,-6.354856000000003,4463
42.30466399999996,-6.354856000000003,4418
42.62866399999996,-5.706856000000004,3918
41.98066399999996,-4.410856000000004,3872
42.30466399999996,-3.7628560000000046,4263
40.03666399999997,-0.5228560000000062,3966
39.38866399999998,-0.5228560000000062,4014
41.00866399999997,0.7731439999999932,4114
40.68466399999997,0.7731439999999932,4146
40.36066399999997,0.1251439999999934,4224
39.712663999999975,-0.5228560000000062,4123
38.41666399999998,-0.5228560000000062,4135
39.06466399999998,-0.5228560000000062,4257
38.74066399999998,-1.170856000000006,4143
41.332663999999966,0.7731439999999932,4174
41.65666399999997,2.717143999999992,3774
41.65666399999997,2.0691439999999925,3797
41.332663999999966,0.1251439999999934,4132
41.332663999999966,-0.5228560000000062,4076
41.65666399999997,-4.410856000000004,3846
40.03666399999997,-2.4668560000000053,4084
41.00866399999997,-4.410856000000004,3967
43.276663999999954,-5.706856000000004,4048
39.38866399999998,-1.170856000000006,4109
38.09266399999999,-1.170856000000006,4522
38.74066399999998,-0.5228560000000062,4285
37.76866399999999,-1.170856000000006,4587
39.06466399999998,-1.8188560000000056,4107
39.38866399999998,-3.114856000000005,4007
39.38866399999998,-2.4668560000000053,4063
39.06466399999998,-2.4668560000000053,4090
39.06466399999998,-3.114856000000005,4011
39.06466399999998,-3.7628560000000046,3985
38.74066399999998,-3.7628560000000046,4064
40.03666399999997,-3.7628560000000046,3963
40.03666399999997,-3.114856000000005,4163
40.03666399999997,-1.8188560000000056,4244
39.712663999999975,-1.8188560000000056,4209
39.712663999999975,-1.170856000000006,4145
40.36066399999997,-1.170856000000006,4164
40.68466399999997,-1.170856000000006,4142
41.00866399999997,-1.170856000000006,4130
41.332663999999966,-1.170856000000006,3970
43.276663999999954,-8.298856000000002,4739
42.95266399999996,-8.298856000000002,4707
41.65666399999997,-5.706856000000004,65535
41.98066399999996,-7.002856000000003,65535
41.98066399999996,-6.354856000000003,65535
41.332663999999966,-5.058856000000004,4085
43.276663999999954,-3.7628560000000046,4520
42.95266399999996,-4.410856000000004,4454
42.62866399999996,-4.410856000000004,4444
42.30466399999996,-4.410856000000004,4403
41.00866399999997,-5.706856000000004,4023
41.332663999999966,-1.8188560000000056,3916
40.68466399999997,-3.114856000000005,3870
41.00866399999997,-3.114856000000005,3921
41.00866399999997,-2.4668560000000053,3944
41.332663999999966,-2.4668560000000053,3997
40.68466399999997,-4.410856000000004,3907
40.36066399999997,-4.410856000000004,3991
40.68466399999997,-3.7628560000000046,3899
40.36066399999997,-3.114856000000005,3877
41.65666399999997,-2.4668560000000053,4014
38.09266399999999,-3.7628560000000046,4111
38.74066399999998,-3.114856000000005,4055
37.76866399999999,-3.7628560000000046,4168
39.712663999999975,-3.114856000000005,3999
38.41666399999998,-3.7628560000000046,4076
40.03666399999997,-4.410856000000004,65535
40.03666399999997,-5.058856000000004,65535
39.38866399999998,-6.354856000000003,65535
39.38866399999998,-7.002856000000003,65535
42.95266399999996,-3.114856000000005,4648
41.98066399999996,-1.170856000000006,4011
42.30466399999996,-2.4668560000000053,4052
41.65666399999997,-0.5228560000000062,4109
41.98066399999996,-0.5228560000000062,3946
41.65666399999997,0.1251439999999934,3973
41.98066399999996,0.1251439999999934,3995
37.76866399999999,-5.058856000000004,4047
36.79666399999999,-4.410856000000004,4106
38.74066399999998,-4.410856000000004,4003
37.12066399999999,-4.410856000000004,4080
37.44466399999999,-5.058856000000004,4604
37.44466399999999,-7.002856000000003,65535
37.44466399999999,-6.354856000000003,65535
37.44466399999999,-5.706856000000004,4280
39.712663999999975,-3.7628560000000046,4073
42.62866399999996,-8.946856000000002,65535
42.30466399999996,-5.706856000000004,4425
42.30466399999996,-5.058856000000004,4510
42.95266399999996,-5.706856000000004,3950
41.00866399999997,-5.058856000000004,3991
40.68466399999997,-5.058856000000004,3965
41.65666399999997,-5.058856000000004,65535
41.65666399999997,-6.354856000000003,65535
36.79666399999999,-6.354856000000003,65535
37.12066399999999,-5.706856000000004,4448
37.76866399999999,-5.706856000000004,4247
38.09266399999999,-4.410856000000004,4382
37.12066399999999,-5.058856000000004,4402
36.79666399999999,-5.058856000000004,4360
37.76866399999999,-4.410856000000004,65535
37.76866399999999,-7.002856000000003,65535
38.41666399999998,-6.354856000000003,65535
38.09266399999999,-6.354856000000003,65535
48.78466399999992,1.4211439999999929,268
56.23666399999988,8.54914399999999,2290
55.58866399999988,9.197143999999987,2095
55.91266399999988,9.197143999999987,2236
55.26466399999988,10.493143999999988,1972
55.91266399999988,12.437143999999988,2109
55.58866399999988,11.789143999999988,2115
55.58866399999988,11.141143999999988,2106
55.26466399999988,11.789143999999988,2124
55.58866399999988,10.493143999999988,2091
55.58866399999988,13.085143999999987,2085
56.88466399999987,9.845143999999989,2242
57.20866399999987,9.845143999999989,2277
56.56066399999988,9.845143999999989,2214
56.88466399999987,8.54914399999999,2329
54.940663999999884,9.845143999999989,3436
54.940663999999884,11.789143999999988,2192
55.91266399999988,13.085143999999987,2184
56.23666399999988,13.733143999999989,2228
55.91266399999988,13.733143999999989,2231
56.23666399999988,14.381143999999988,2251
56.23666399999988,15.029143999999986,2292
56.23666399999988,15.677143999999986,2347
56.56066399999988,14.381143999999988,2308
56.88466399999987,14.381143999999988,2278
56.23666399999988,13.085143999999987,2176
56.56066399999988,13.085143999999987,2256
56.88466399999987,12.437143999999988,2293
57.20866399999987,12.437143999999988,2309
57.53266399999987,12.437143999999988,2324
56.88466399999987,15.029143999999986,2304
56.56066399999988,15.677143999999986,2364
56.88466399999987,15.677143999999986,2383
56.88466399999987,16.325143999999987,2398
55.91266399999988,11.789143999999988,2261
57.20866399999987,10.493143999999988,2464
49.43266399999992,1.4211439999999929,258
49.75666399999992,0.7731439999999932,264
49.75666399999992,2.0691439999999925,211
50.08066399999991,2.717143999999992,297
49.75666399999992,1.4211439999999929,341
47.81266399999993,1.4211439999999929,135
48.136663999999925,2.0691439999999925,157
48.46066399999992,2.0691439999999925,193
48.136663999999925,1.4211439999999929,194
48.78466399999992,0.1251439999999934,1061
48.46066399999992,0.1251439999999934,275
47.81266399999993,0.1251439999999934,177
46.84066399999993,-0.5228560000000062,268
47.16466399999993,0.7731439999999932,147
46.84066399999993,0.1251439999999934,200
46.84066399999993,-1.170856000000006,273
50.08066399999991,1.4211439999999929,242
50.08066399999991,2.0691439999999925,283
49.43266399999992,2.717143999999992,196
49.75666399999992,3.365143999999992,228
50.08066399999991,3.365143999999992,303
49.10866399999992,2.0691439999999925,215
49.43266399999992,2.0691439999999925,208
48.78466399999992,0.7731439999999932,1595
48.78466399999992,-0.5228560000000062,1091
48.78466399999992,-1.170856000000006,1122
48.136663999999925,0.7731439999999932,205
48.46066399999992,0.7731439999999932,234
43.92466399999995,5.957143999999991,956
44.24866399999995,5.957143999999991,926
43.92466399999995,5.309143999999991,860
42.95266399999996,2.717143999999992,919
45.54466399999994,2.0691439999999925,1153
45.22066399999994,2.0691439999999925,968
42.95266399999996,2.0691439999999925,2377
42.95266399999996,0.7731439999999932,968
43.276663999999954,0.7731439999999932,969
46.19266399999994,0.7731439999999932,221
46.516663999999935,0.7731439999999932,203
45.86866399999994,0.1251439999999934,1109
46.19266399999994,0.1251439999999934,1094
47.81266399999993,-1.170856000000006,1435
48.136663999999925,-2.4668560000000053,1058
47.48866399999993,-1.8188560000000056,271
47.16466399999993,-1.170856000000006,228
47.16466399999993,-0.5228560000000062,292
46.84066399999993,-1.8188560000000056,240
45.22066399999994,-0.5228560000000062,1034
44.89666399999994,0.1251439999999934,224
45.22066399999994,0.7731439999999932,320
45.54466399999994,0.7731439999999932,294
45.86866399999994,0.7731439999999932,1117
45.22066399999994,0.1251439999999934,203
44.89666399999994,0.7731439999999932,294
43.92466399999995,-0.5228560000000062,1070
43.92466399999995,-1.170856000000006,1034
44.24866399999995,-1.170856000000006,1015
45.22066399999994,-1.170856000000006,1098
44.572663999999946,-0.5228560000000062,297
44.24866399999995,0.1251439999999934,345
44.572663999999946,0.7731439999999932,1068
43.276663999999954,-1.170856000000006,998
42.95266399999996,-0.5228560000000062,1182
44.24866399999995,2.0691439999999925,1002
43.60066399999995,0.7731439999999932,1031
43.60066399999995,2.0691439999999925,1039
52.6726639999999,4.661143999999991,2281
52.6726639999999,5.309143999999991,2304
51.700663999999904,5.309143999999991,2249
52.0246639999999,5.309143999999991,2261
52.3486639999999,5.309143999999991,2277
51.37666399999991,4.013143999999992,2257
52.3486639999999,5.957143999999991,2271
52.0246639999999,6.60514399999999,2301
52.6726639999999,5.957143999999991,2288
52.996663999999896,5.957143999999991,2301
53.32066399999989,5.957143999999991,2295
52.996663999999896,6.60514399999999,2277
53.32066399999989,6.60514399999999,2269
52.6726639999999,6.60514399999999,2297
52.996663999999896,5.309143999999991,2316
59.15266399999986,24.101143999999977,65535
56.88466399999987,24.101143999999977,65535
56.88466399999987,23.45314399999998,65535
56.88466399999987,22.805143999999984,65535
57.20866399999987,24.74914399999998,65535
56.88466399999987,24.74914399999998,65535
56.56066399999988,24.74914399999998,65535
56.56066399999988,25.397143999999983,65535
56.56066399999988,24.101143999999977,65535
56.56066399999988,23.45314399999998,65535
56.56066399999988,26.04514399999998,65535
56.88466399999987,26.04514399999998,65535
57.20866399999987,25.397143999999983,65535
57.53266399999987,25.397143999999983,65535
56.23666399999988,26.04514399999998,65535
56.23666399999988,26.69314399999997,65535
55.91266399999988,26.69314399999997,65535
56.56066399999988,26.69314399999997,65535
56.56066399999988,27.34114399999998,65535
56.56066399999988,27.989143999999985,65535
56.23666399999988,27.989143999999985,65535
55.91266399999988,27.34114399999998,65535
56.56066399999988,22.805143999999984,65535
56.56066399999988,22.15714399999998,65535
56.56066399999988,21.50914399999997,65535
57.20866399999987,26.69314399999997,65535
39.06466399999998,-8.946856000000002,65535
38.41666399999998,-8.298856000000002,65535
45.86866399999994,11.789143999999988,1468
46.19266399999994,11.789143999999988,1455
46.19266399999994,10.493143999999988,1440
45.22066399999994,18.269143999999983,2461
45.22066399999994,18.917143999999983,2535
45.54466399999994,16.973143999999984,2319
45.22066399999994,17.621143999999987,2396
45.86866399999994,16.325143999999987,2200
45.54466399999994,18.917143999999983,2575
45.54466399999994,16.325143999999987,2275
45.54466399999994,18.269143999999983,2553
44.89666399999994,18.917143999999983,2856
46.19266399999994,16.973143999999984,2220
46.19266399999994,16.325143999999987,2206
45.86866399999994,16.973143999999984,2237
45.86866399999994,17.621143999999987,2341
46.19266399999994,15.677143999999986,994
46.516663999999935,16.325143999999987,1089
45.54466399999994,15.677143999999986,2180
45.22066399999994,15.029143999999986,2247
45.54466399999994,15.029143999999986,1021
45.22066399999994,15.677143999999986,2264
44.572663999999946,15.677143999999986,3019
44.24866399999995,15.677143999999986,3040
43.92466399999995,16.325143999999987,2931
44.89666399999994,15.677143999999986,2983
45.54466399999994,17.621143999999987,2528
45.22066399999994,16.325143999999987,2396
46.516663999999935,16.973143999999984,2277
45.86866399999994,18.269143999999983,2654
43.92466399999995,15.677143999999986,2730
45.22066399999994,13.733143999999989,2262
47.48866399999993,19.565143999999982,1372
47.16466399999993,18.917143999999983,2178
47.81266399999993,18.917143999999983,1321
45.54466399999994,9.845143999999989,859
45.22066399999994,9.845143999999989,868
45.22066399999994,10.493143999999988,919
45.86866399999994,9.845143999999989,896
45.86866399999994,10.493143999999988,2358
48.78466399999992,21.50914399999997,1359
49.10866399999992,20.213143999999986,1313
49.10866399999992,18.917143999999983,1206
48.46066399999992,17.621143999999987,1227
49.43266399999992,17.621143999999987,1093
49.10866399999992,17.621143999999987,1237
48.136663999999925,18.269143999999983,1278
49.10866399999992,18.269143999999983,1167
49.43266399999992,18.269143999999983,1124
49.43266399999992,16.973143999999984,1070
49.75666399999992,16.973143999999984,1041
49.75666399999992,16.325143999999987,1019
50.08066399999991,15.677143999999986,971
50.08066399999991,15.029143999999986,941
49.43266399999992,18.917143999999983,1195
47.81266399999993,20.86114399999998,1435
48.136663999999925,20.86114399999998,1466
48.46066399999992,20.86114399999998,1373
48.46066399999992,21.50914399999997,1369
49.10866399999992,19.565143999999982,1255
48.136663999999925,17.621143999999987,1226
48.78466399999992,22.15714399999998,1375
48.78466399999992,20.86114399999998,1407
49.10866399999992,20.86114399999998,1334
48.78466399999992,18.269143999999983,1210
48.78466399999992,17.621143999999987,1229
49.10866399999992,21.50914399999997,1349
48.78466399999992,20.213143999999986,1415
48.46066399999992,20.213143999999986,1456
48.136663999999925,19.565143999999982,1605
48.46066399999992,19.565143999999982,1484
48.46066399999992,18.917143999999983,1294
48.46066399999992,18.269143999999983,1223
48.78466399999992,19.565143999999982,1320
48.78466399999992,18.917143999999983,1288
47.81266399999993,18.269143999999983,1314
49.10866399999992,22.15714399999998,1416
49.43266399999992,21.50914399999997,1414
48.136663999999925,18.917143999999983,1306
48.136663999999925,20.213143999999986,1625
52.636,-8.018,65535
52.312,-7.370000000000001,65535
52.312,-8.018,65535
52.636,-8.666,65535
51.988,-8.666,65535
51.988,-8.018,65535
52.96,-8.666,65535
52.96,-6.074000000000002,65535
53.28399999999999,-6.722000000000001,65535
53.60799999999999,-6.722000000000001,65535
53.60799999999999,-7.370000000000001,65535
53.60799999999999,-8.018,65535
54.25599999999999,-8.666,65535
53.93199999999999,-8.666,65535
53.93199999999999,-8.018,65535
52.312,-6.722000000000001,65535
52.636,-6.722000000000001,65535
53.93199999999999,-6.722000000000001,65535
54.25599999999999,-6.074000000000002,65535
53.28399999999999,-7.370000000000001,65535
52.96,-7.370000000000001,65535
52.312,-8.666,65535
52.96,-8.018,65535
52.636,-7.370000000000001,65535
52.96,-6.722000000000001,65535
51.988,-9.314,65535
52.312,-9.314,65535
54.579999999999984,-6.722000000000001,65535
54.579999999999984,-6.074000000000002,65535
53.28399999999999,-8.018,65535
53.28399999999999,-8.666,65535
53.28399999999999,-9.314,65535
53.93199999999999,-9.314,65535
54.25599999999999,-9.314,65535
53.60799999999999,-8.666,65535
53.60799999999999,-9.314,65535
49.43266399999992,14.381143999999988,995
49.75666399999992,14.381143999999988,955
49.75666399999992,15.029143999999986,946
49.75666399999992,13.733143999999989,957
50.08066399999991,13.733143999999989,949
49.75666399999992,15.677143999999986,957
50.40466399999991,15.029143999999986,936
49.43266399999992,13.733143999999989,966
50.40466399999991,15.677143999999986,947
50.40466399999991,13.733143999999989,1006
46.19266399999994,15.029143999999986,959
45.86866399999994,15.029143999999986,960
45.86866399999994,14.381143999999988,951
46.19266399999994,13.733143999999989,1017
45.86866399999994,13.733143999999989,1092
58.50466399999986,13.733143999999989,2401
58.180663999999865,13.733143999999989,2406
58.180663999999865,13.085143999999987,2378
57.85666399999987,12.437143999999988,2344
60.44866399999985,15.677143999999986,2627
60.124663999999854,15.677143999999986,2561
60.124663999999854,16.325143999999987,2599
59.800663999999855,16.325143999999987,2527
59.800663999999855,17.621143999999987,2506
59.47666399999986,18.269143999999983,2488
61.74466399999984,16.973143999999984,2638
61.420663999999846,16.973143999999984,2611
60.77266399999985,16.973143999999984,2563
65.63266399999982,22.15714399999998,3742
65.95666399999982,21.50914399999997,3702
65.63266399999982,20.86114399999998,3673
64.98466399999982,20.213143999999986,3605
64.66066399999983,20.213143999999986,3583
64.33666399999983,19.565143999999982,3277
64.01266399999983,19.565143999999982,2990
63.68866399999983,20.213143999999986,2943
64.66066399999983,18.917143999999983,3954
59.15266399999986,16.325143999999987,2463
59.15266399999986,15.029143999999986,2504
59.15266399999986,17.621143999999987,2480
57.53266399999987,14.381143999999988,2304
57.53266399999987,15.029143999999986,2324
61.09666399999985,14.381143999999988,2731
60.77266399999985,15.029143999999986,2682
60.44866399999985,15.029143999999986,2668
58.180663999999865,15.029143999999986,2381
58.50466399999986,16.325143999999987,2415
58.50466399999986,15.677143999999986,2388
63.36466399999984,13.085143999999987,2975
63.04066399999984,14.381143999999988,2912
62.39266399999984,15.677143999999986,2834
63.36466399999984,13.733143999999989,2957
63.36466399999984,14.381143999999988,2929
62.71666399999984,15.677143999999986,2862
62.39266399999984,17.621143999999987,2696
59.800663999999855,15.677143999999986,2973
55.58866399999988,13.733143999999989,2258
57.20866399999987,14.381143999999988,2288
57.85666399999987,14.381143999999988,2336
58.82866399999986,16.973143999999984,2472
58.82866399999986,16.325143999999987,2450
59.15266399999986,18.269143999999983,2484
60.44866399999985,17.621143999999987,2539
59.15266399999986,12.437143999999988,2443
59.15266399999986,13.085143999999987,2457
58.82866399999986,12.437143999999988,2419
59.47666399999986,16.325143999999987,2509
58.82866399999986,14.381143999999988,2496
59.47666399999986,15.677143999999986,2527
63.36466399999984,18.917143999999983,2896
63.04066399999984,17.621143999999987,2851
62.71666399999984,17.621143999999987,2825
63.68866399999983,19.565143999999982,2929
62.39266399999984,16.973143999999984,2740
59.800663999999855,16.973143999999984,2515
59.47666399999986,17.621143999999987,2492
57.85666399999987,13.085143999999987,2368
57.53266399999987,13.085143999999987,2349
58.50466399999986,11.789143999999988,2390
57.85666399999987,15.029143999999986,2370
57.20866399999987,13.733143999999989,2294
57.53266399999987,13.733143999999989,2355
61.74466399999984,16.325143999999987,2734
61.420663999999846,16.325143999999987,2701
61.09666399999985,16.325143999999987,2690
61.09666399999985,16.973143999999984,2658
60.124663999999854,15.029143999999986,2836
66.60466399999981,20.86114399999998,3777
67.25266399999981,20.86114399999998,3845
67.90066399999981,20.213143999999986,3915
67.57666399999981,20.213143999999986,4540
59.800663999999855,15.029143999999986,2556
58.50466399999986,15.029143999999986,2398
59.47666399999986,15.029143999999986,2541
60.44866399999985,16.325143999999987,2627
59.15266399999986,15.677143999999986,2485
57.85666399999987,13.733143999999989,2396
58.82866399999986,13.733143999999989,2443
58.50466399999986,13.085143999999987,2428
57.20866399999987,13.085143999999987,2325
56.88466399999987,13.085143999999987,2299
58.180663999999865,11.789143999999988,2361
62.06866399999984,16.973143999999984,2729
65.95666399999982,23.45314399999998,3783
59.800663999999855,14.381143999999988,65535
59.800663999999855,18.269143999999983,2497
63.04066399999984,15.029143999999986,2880
62.71666399999984,15.029143999999986,2870
62.39266399999984,16.325143999999987,2803
63.36466399999984,12.437143999999988,3008
68.5486639999998,17.621143999999987,4128
68.5486639999998,18.269143999999983,4061
68.5486639999998,18.917143999999983,4038
68.2246639999998,18.917143999999983,3994
59.800663999999855,13.085143999999987,2560
60.124663999999854,13.085143999999987,2599
59.47666399999986,16.973143999999984,2501
59.15266399999986,16.973143999999984,2493
56.56066399999988,13.733143999999989,2246
60.124663999999854,17.621143999999987,2516
57.85666399999987,16.325143999999987,2475
58.180663999999865,16.325143999999987,2437
58.180663999999865,15.677143999999986,2445
57.20866399999987,16.325143999999987,2487
57.53266399999987,15.677143999999986,2505
57.85666399999987,15.677143999999986,2476
44.89666399999994,23.45314399999998,2762
44.572663999999946,23.45314399999998,2827
44.89666399999994,24.74914399999998,2887
44.572663999999946,24.74914399999998,2908
44.572663999999946,24.101143999999977,2868
44.24866399999995,24.101143999999977,2890
47.48866399999993,25.397143999999983,2738
47.48866399999993,24.74914399999998,2668
47.16466399999993,24.74914399999998,2649
47.16466399999993,24.101143999999977,2604
47.48866399999993,22.15714399999998,2477
47.81266399999993,22.15714399999998,2641
47.16466399999993,22.15714399999998,2472
47.16466399999993,23.45314399999998,2811
47.16466399999993,22.805143999999984,2734
46.84066399999993,24.101143999999977,2431
45.86866399999994,27.34114399999998,2939
45.54466399999994,27.34114399999998,2919
45.54466399999994,27.989143999999985,2956
45.86866399999994,20.86114399999998,2780
45.86866399999994,21.50914399999997,2764
46.19266399999994,21.50914399999997,2720
46.19266399999994,27.34114399999998,2962
46.19266399999994,26.69314399999997,2968
46.516663999999935,26.69314399999997,2937
46.516663999999935,26.04514399999998,2932
47.48866399999993,22.805143999999984,2913
46.84066399999993,22.805143999999984,2449
45.54466399999994,22.15714399999998,2859
45.22066399999994,22.15714399999998,2881
44.89666399999994,22.15714399999998,2943
47.48866399999993,23.45314399999998,2806
46.516663999999935,24.101143999999977,2444
46.516663999999935,24.74914399999998,2669
45.86866399999994,24.101143999999977,2669
47.16466399999993,26.69314399999997,2899
47.16466399999993,27.34114399999998,3011
43.92466399999995,25.397143999999983,2954
44.24866399999995,24.74914399999998,2930
44.89666399999994,26.04514399999998,2828
44.89666399999994,26.69314399999997,2836
45.22066399999994,26.69314399999997,2853
45.22066399999994,27.34114399999998,2880
46.84066399999993,26.69314399999997,2954
47.48866399999993,26.69314399999997,2847
44.24866399999995,25.397143999999983,2878
43.92466399999995,26.04514399999998,2970
46.19266399999994,24.101143999999977,2491
44.572663999999946,25.397143999999983,2845
46.84066399999993,24.74914399999998,2798
46.516663999999935,21.50914399999997,2803
46.84066399999993,21.50914399999997,2544
44.572663999999946,26.69314399999997,2879
44.572663999999946,27.34114399999998,2914
44.89666399999994,27.34114399999998,2870
44.572663999999946,27.989143999999985,2935
44.24866399999995,27.989143999999985,2950
44.572663999999946,28.63714399999997,2990
45.86866399999994,22.15714399999998,2626
45.86866399999994,22.805143999999984,2594
44.24866399999995,23.45314399999998,2878
43.92466399999995,27.989143999999985,65535
46.84066399999993,27.34114399999998,3082
45.22066399999994,23.45314399999998,2728
45.54466399999994,23.45314399999998,2699
45.54466399999994,24.101143999999977,2699
45.22066399999994,24.101143999999977,2770
44.89666399999994,24.101143999999977,2825
46.19266399999994,22.15714399999998,2670
46.516663999999935,22.15714399999998,2765
45.22066399999994,21.50914399999997,2848
45.54466399999994,21.50914399999997,2768
45.54466399999994,20.86114399999998,2774
46.516663999999935,27.989143999999985,3084
46.19266399999994,27.989143999999985,3056
45.54466399999994,25.397143999999983,2726
45.22066399999994,25.397143999999983,2769
45.22066399999994,26.04514399999998,2879
47.81266399999993,24.101143999999977,3061
47.48866399999993,26.04514399999998,2832
47.81266399999993,26.04514399999998,2890
46.19266399999994,23.45314399999998,2489
45.86866399999994,23.45314399999998,2541
44.24866399999995,26.04514399999998,2858
45.22066399999994,27.989143999999985,2935
45.86866399999994,24.74914399999998,2702
46.516663999999935,25.397143999999983,2926
46.84066399999993,25.397143999999983,2870
46.19266399999994,26.04514399999998,2905
45.86866399999994,26.04514399999998,2764
43.92466399999995,23.45314399999998,2971
44.89666399999994,25.397143999999983,2835
46.19266399999994,20.86114399999998,2802
47.81266399999993,25.397143999999983,3147
44.572663999999946,22.805143999999984,2899
44.572663999999946,22.15714399999998,2965
46.516663999999935,23.45314399999998,2501
45.86866399999994,25.397143999999983,2692
44.24866399999995,27.34114399999998,3211
45.22066399999994,24.74914399999998,3051
45.54466399999994,22.805143999999984,2637
45.22066399999994,28.63714399999997,3061
44.89666399999994,28.63714399999997,3000
47.81266399999993,23.45314399999998,2768
46.19266399999994,24.74914399999998,2529
46.19266399999994,25.397143999999983,2584
43.92466399999995,24.101143999999977,3661
43.92466399999995,24.74914399999998,3674
47.81266399999993,26.69314399999997,3070
47.48866399999993,24.101143999999977,2989
46.84066399999993,26.04514399999998,3126
46.19266399999994,22.805143999999984,3087
47.48866399999993,27.34114399999998,3097
46.19266399999994,20.213143999999986,65535
45.54466399999994,26.04514399999998,2972
44.24866399999995,26.69314399999997,2886
45.86866399999994,27.989143999999985,3071
47.81266399999993,5.957143999999991,2266
