51.56399999999999,-0.4100000000000028,65535
51.887999999999984,-0.4100000000000028,65535
50.91599999999999,-1.7060000000000022,65535
51.23999999999999,-1.0580000000000025,65535
51.56399999999999,-1.0580000000000025,65535
51.23999999999999,-1.7060000000000022,65535
51.56399999999999,0.2379999999999968,65535
47.16466399999993,9.845143999999989,249
47.48866399999993,9.845143999999989,227
48.136663999999925,14.381143999999988,781
47.81266399999993,13.085143999999987,369
47.16466399999993,11.141143999999988,498
47.48866399999993,11.789143999999988,437
48.136663999999925,16.325143999999987,933
47.48866399999993,12.437143999999988,358
48.136663999999925,15.677143999999986,906
47.16466399999993,10.493143999999988,438
47.16466399999993,9.197143999999987,218
48.136663999999925,13.733143999999989,496
48.136663999999925,15.029143999999986,823
47.81266399999993,16.973143999999984,955
48.46066399999992,14.381143999999988,904
47.48866399999993,13.085143999999987,360
47.16466399999993,13.085143999999987,399
47.48866399999993,14.381143999999988,874
47.48866399999993,13.733143999999989,924
47.48866399999993,15.029143999999986,945
46.516663999999935,13.733143999999989,1187
46.84066399999993,13.733143999999989,1156
46.84066399999993,13.085143999999987,1141
48.78466399999992,14.381143999999988,65535
47.16466399999993,15.677143999999986,1020
46.516663999999935,14.381143999999988,1194
46.84066399999993,14.381143999999988,1135
47.16466399999993,14.381143999999988,1085
46.516663999999935,15.029143999999986,1207
47.81266399999993,16.325143999999987,952
47.16466399999993,15.029143999999986,1060
47.81266399999993,15.677143999999986,958
47.48866399999993,15.677143999999986,997
46.516663999999935,13.085143999999987,1454
46.84066399999993,12.437143999999988,1199
48.136663999999925,11.789143999999988,288
47.81266399999993,12.437143999999988,317
46.84066399999993,15.677143999999986,1081
46.516663999999935,15.677143999999986,1300
46.84066399999993,16.325143999999987,1065
47.81266399999993,14.381143999999988,835
48.78466399999992,16.973143999999984,1012
48.136663999999925,16.973143999999984,946
48.46066399999992,13.733143999999989,397
47.81266399999993,13.733143999999989,851
50.08066399999991,8.54914399999999,254
48.46066399999992,9.845143999999989,251
51.05266399999991,7.25314399999999,233
51.37666399999991,7.25314399999999,242
51.37666399999991,6.60514399999999,238
48.46066399999992,16.325143999999987,929
48.46066399999992,16.973143999999984,969
48.78466399999992,16.325143999999987,954
48.46066399999992,15.677143999999986,940
48.78466399999992,15.677143999999986,947
47.48866399999993,16.325143999999987,962
47.16466399999993,16.325143999999987,1014
46.19266399999994,14.381143999999988,1252
45.86866399999994,15.677143999999986,1304
43.60066399999995,16.325143999999987,1720
45.54466399999994,14.381143999999988,1366
45.54466399999994,13.733143999999989,1389
48.136663999999925,13.085143999999987,366
48.46066399999992,11.141143999999988,299
48.136663999999925,11.141143999999988,283
48.46066399999992,7.90114399999999,192
49.10866399999992,8.54914399999999,226
48.78466399999992,2.0691439999999925,76
49.10866399999992,7.25314399999999,213
52.0246639999999,7.90114399999999,255
47.16466399999993,11.789143999999988,481
49.43266399999992,11.141143999999988,285
53.64466399999989,9.845143999999989,405
50.72866399999991,4.013143999999992,146
51.05266399999991,11.141143999999988,423
47.48866399999993,11.141143999999988,308
46.84066399999993,11.789143999999988,1622
46.516663999999935,11.141143999999988,1591
45.54466399999994,11.141143999999988,1485
46.19266399999994,11.141143999999988,1557
45.86866399999994,11.141143999999988,1541
44.572663999999946,11.141143999999988,1332
43.92466399999995,12.437143999999988,3965
45.54466399999994,12.437143999999988,1572
45.54466399999994,11.789143999999988,1535
48.78466399999992,15.029143999999986,972
47.81266399999993,15.029143999999986,855
47.81266399999993,11.141143999999988,289
50.40466399999991,18.917143999999983,908
52.3486639999999,20.86114399999998,1063
54.616663999999886,18.269143999999983,1184
54.29266399999989,18.917143999999983,1193
49.10866399999992,14.381143999999988,65535
50.08066399999991,14.381143999999988,787
48.78466399999992,13.733143999999989,1736
52.6726639999999,13.085143999999987,510
52.3486639999999,13.085143999999987,508
53.96866399999989,12.437143999999988,543
54.29266399999989,12.437143999999988,772
47.48866399999993,8.54914399999999,206
47.81266399999993,17.621143999999987,992
47.48866399999993,18.917143999999983,1100
47.48866399999993,20.86114399999998,1436
46.84066399999993,23.45314399999998,1918
44.572663999999946,26.04514399999998,2367
47.48866399999993,21.50914399999997,1472
47.81266399999993,21.50914399999997,1868
48.46066399999992,22.15714399999998,1297
47.48866399999993,16.973143999999984,65535
49.10866399999992,16.325143999999987,967
49.75666399999992,18.269143999999983,1064
46.19266399999994,13.085143999999987,2303
41.98066399999996,12.437143999999988,2565
43.60066399999995,10.493143999999988,2726
45.54466399999994,9.197143999999987,368
47.81266399999993,22.805143999999984,2333
49.75666399999992,22.805143999999984,1136
50.72866399999991,3.365143999999992,138
51.05266399999991,4.013143999999992,151
50.72866399999991,4.661143999999991,152
51.05266399999991,4.661143999999991,156
51.05266399999991,3.365143999999992,151
51.05266399999991,2.717143999999992,160
50.40466399999991,4.661143999999991,153
50.72866399999991,2.717143999999992,146
50.40466399999991,4.013143999999992,166
51.05266399999991,5.309143999999991,159
50.72866399999991,5.309143999999991,171
51.37666399999991,3.365143999999992,157
51.37666399999991,4.661143999999991,161
50.72866399999991,5.957143999999991,188
50.40466399999991,5.957143999999991,192
50.40466399999991,3.365143999999992,165
50.40466399999991,5.309143999999991,159
50.08066399999991,5.309143999999991,191
49.75666399999992,5.309143999999991,201
49.75666399999992,5.957143999999991,202
51.37666399999991,5.309143999999991,176
51.700663999999904,4.661143999999991,198
50.08066399999991,4.013143999999992,184
50.08066399999991,5.957143999999991,201
50.08066399999991,4.661143999999991,175
49.43266399999992,5.309143999999991,218
49.43266399999992,5.957143999999991,198
52.0246639999999,4.661143999999991,230
52.3486639999999,4.661143999999991,259
50.72866399999991,15.029143999999986,486
51.05266399999991,15.029143999999986,460
51.05266399999991,13.733143999999989,435
50.40466399999991,13.085143999999987,478
49.10866399999992,7.90114399999999,221
48.78466399999992,7.90114399999999,209
50.40466399999991,7.90114399999999,257
50.08066399999991,7.90114399999999,252
49.75666399999992,7.90114399999999,245
49.43266399999992,7.90114399999999,236
49.75666399999992,8.54914399999999,250
49.43266399999992,8.54914399999999,235
49.43266399999992,9.197143999999987,254
49.10866399999992,9.197143999999987,234
47.48866399999993,7.90114399999999,200
47.81266399999993,7.90114399999999,215
48.136663999999925,7.90114399999999,203
48.136663999999925,9.845143999999989,244
47.81266399999993,9.197143999999987,224
47.81266399999993,8.54914399999999,222
47.81266399999993,9.845143999999989,257
54.940663999999884,9.197143999999987,552
54.616663999999886,9.197143999999987,489
54.29266399999989,9.197143999999987,495
53.96866399999989,9.197143999999987,430
53.64466399999989,9.197143999999987,416
54.616663999999886,9.845143999999989,480
54.29266399999989,9.845143999999989,466
53.96866399999989,9.845143999999989,418
53.64466399999989,10.493143999999988,412
53.96866399999989,10.493143999999988,466
53.96866399999989,11.141143999999988,863
54.29266399999989,10.493143999999988,490
53.32066399999989,10.493143999999988,422
54.940663999999884,11.141143999999988,535
52.6726639999999,13.733143999999989,511
52.3486639999999,13.733143999999989,511
52.3486639999999,14.381143999999988,518
52.0246639999999,14.381143999999988,730
52.0246639999999,11.789143999999988,438
52.3486639999999,11.789143999999988,432
52.3486639999999,12.437143999999988,479
52.0246639999999,15.029143999999986,741
51.700663999999904,14.381143999999988,613
52.0246639999999,13.733143999999989,548
51.700663999999904,13.733143999999989,604
52.6726639999999,12.437143999999988,769
53.32066399999989,11.789143999999988,778
53.96866399999989,11.789143999999988,534
53.64466399999989,11.789143999999988,496
53.64466399999989,11.141143999999988,492
53.32066399999989,11.141143999999988,466
52.996663999999896,11.789143999999988,759
52.996663999999896,12.437143999999988,804
52.996663999999896,13.733143999999989,723
53.64466399999989,13.733143999999989,817
53.96866399999989,13.733143999999989,890
54.29266399999989,13.085143999999987,877
53.96866399999989,13.085143999999987,899
53.32066399999989,13.733143999999989,753
52.0246639999999,13.085143999999987,569
51.700663999999904,13.085143999999987,400
52.996663999999896,14.381143999999988,780
52.0246639999999,12.437143999999988,424
51.700663999999904,12.437143999999988,403
51.37666399999991,11.789143999999988,394
51.37666399999991,12.437143999999988,374
52.6726639999999,11.789143999999988,470
53.64466399999989,13.085143999999987,839
53.32066399999989,13.085143999999987,825
52.996663999999896,13.085143999999987,766
53.64466399999989,12.437143999999988,822
51.37666399999991,13.733143999999989,420
53.32066399999989,12.437143999999988,832
52.6726639999999,14.381143999999988,830
51.37666399999991,13.085143999999987,383
53.32066399999989,14.381143999999988,796
52.3486639999999,15.029143999999986,896
52.0246639999999,15.677143999999986,792
51.700663999999904,15.029143999999986,823
51.05266399999991,16.325143999999987,777
51.05266399999991,16.973143999999984,804
51.700663999999904,15.677143999999986,821
51.37666399999991,15.677143999999986,735
51.37666399999991,16.325143999999987,767
50.72866399999991,13.085143999999987,371
50.72866399999991,12.437143999999988,360
51.05266399999991,13.085143999999987,387
51.05266399999991,14.381143999999988,452
50.40466399999991,12.437143999999988,355
50.40466399999991,11.789143999999988,352
50.08066399999991,12.437143999999988,321
50.72866399999991,11.789143999999988,409
51.05266399999991,12.437143999999988,367
50.72866399999991,14.381143999999988,476
51.37666399999991,14.381143999999988,434
50.72866399999991,13.733143999999989,814
50.40466399999991,14.381143999999988,759
51.37666399999991,15.029143999999986,466
55.26466399999988,9.197143999999987,1788
55.58866399999988,8.54914399999999,3082
55.91266399999988,8.54914399999999,6559
56.23666399999988,9.197143999999987,6567
56.23666399999988,10.493143999999988,6520
56.23666399999988,9.845143999999989,6507
55.91266399999988,9.845143999999989,6445
56.56066399999988,9.197143999999987,6577
56.56066399999988,8.54914399999999,6620
51.05266399999991,6.60514399999999,235
51.700663999999904,7.90114399999999,248
50.72866399999991,6.60514399999999,216
51.700663999999904,7.25314399999999,245
50.72866399999991,7.25314399999999,236
52.0246639999999,7.25314399999999,272
52.3486639999999,7.90114399999999,267
51.05266399999991,5.957143999999991,221
50.40466399999991,7.25314399999999,251
51.700663999999904,6.60514399999999,247
51.700663999999904,5.957143999999991,248
52.3486639999999,9.197143999999987,309
51.700663999999904,8.54914399999999,282
52.0246639999999,8.54914399999999,288
52.3486639999999,8.54914399999999,286
51.37666399999991,7.90114399999999,253
52.3486639999999,7.25314399999999,333
51.37666399999991,5.957143999999991,281
50.72866399999991,7.90114399999999,241
51.37666399999991,9.197143999999987,314
51.700663999999904,9.197143999999987,313
50.40466399999991,6.60514399999999,226
51.05266399999991,7.90114399999999,254
51.37666399999991,8.54914399999999,281
52.0246639999999,5.957143999999991,291
52.3486639999999,6.60514399999999,356
51.05266399999991,8.54914399999999,317
52.0246639999999,9.197143999999987,309
52.6726639999999,9.197143999999987,330
52.0246639999999,9.845143999999989,337
51.700663999999904,9.845143999999989,376
51.37666399999991,9.845143999999989,353
50.72866399999991,8.54914399999999,282
51.05266399999991,9.845143999999989,352
50.72866399999991,9.845143999999989,310
50.40466399999991,9.845143999999989,295
51.05266399999991,9.197143999999987,320
50.40466399999991,9.197143999999987,273
50.08066399999991,9.197143999999987,263
51.05266399999991,10.493143999999988,448
50.40466399999991,8.54914399999999,260
50.72866399999991,9.197143999999987,319
49.75666399999992,9.197143999999987,298
52.996663999999896,9.197143999999987,337
52.3486639999999,9.845143999999989,317
52.996663999999896,8.54914399999999,326
52.996663999999896,7.90114399999999,355
53.32066399999989,7.90114399999999,406
53.32066399999989,7.25314399999999,435
53.64466399999989,7.25314399999999,1018
52.996663999999896,10.493143999999988,383
52.6726639999999,10.493143999999988,377
52.6726639999999,9.845143999999989,330
53.32066399999989,9.845143999999989,395
53.32066399999989,9.197143999999987,391
53.64466399999989,8.54914399999999,373
53.32066399999989,8.54914399999999,337
52.6726639999999,8.54914399999999,303
52.0246639999999,10.493143999999988,392
52.0246639999999,11.141143999999988,409
51.700663999999904,11.141143999999988,434
52.6726639999999,7.25314399999999,432
52.996663999999896,7.25314399999999,460
52.6726639999999,7.90114399999999,341
53.64466399999989,7.90114399999999,431
52.996663999999896,11.141143999999988,791
52.6726639999999,11.141143999999988,475
52.3486639999999,10.493143999999988,338
52.996663999999896,9.845143999999989,396
51.700663999999904,10.493143999999988,396
51.37666399999991,10.493143999999988,427
51.700663999999904,11.789143999999988,428
52.3486639999999,11.141143999999988,392
51.37666399999991,11.141143999999988,415
51.05266399999991,11.789143999999988,403
49.10866399999992,11.141143999999988,295
48.78466399999992,11.141143999999988,304
48.46066399999992,11.789143999999988,292
49.43266399999992,11.789143999999988,288
50.08066399999991,11.789143999999988,311
49.75666399999992,12.437143999999988,317
49.10866399999992,11.789143999999988,318
48.78466399999992,12.437143999999988,326
48.46066399999992,12.437143999999988,312
49.10866399999992,12.437143999999988,327
48.78466399999992,13.085143999999987,351
48.136663999999925,12.437143999999988,317
47.81266399999993,11.789143999999988,297
48.136663999999925,10.493143999999988,270
47.81266399999993,10.493143999999988,248
48.78466399999992,10.493143999999988,271
47.48866399999993,10.493143999999988,243
48.46066399999992,10.493143999999988,265
49.43266399999992,13.085143999999987,356
48.46066399999992,13.085143999999987,314
49.43266399999992,10.493143999999988,281
49.75666399999992,9.845143999999989,280
49.75666399999992,10.493143999999988,307
50.40466399999991,11.141143999999988,359
50.08066399999991,11.141143999999988,338
50.72866399999991,11.141143999999988,429
49.75666399999992,11.141143999999988,290
48.78466399999992,11.789143999999988,331
50.40466399999991,10.493143999999988,343
50.08066399999991,9.845143999999989,275
50.08066399999991,10.493143999999988,352
49.43266399999992,12.437143999999988,320
49.75666399999992,11.789143999999988,292
49.10866399999992,13.085143999999987,352
50.72866399999991,10.493143999999988,720
49.10866399999992,10.493143999999988,267
48.78466399999992,9.845143999999989,234
48.46066399999992,8.54914399999999,223
48.46066399999992,9.197143999999987,229
48.78466399999992,9.197143999999987,230
48.78466399999992,8.54914399999999,219
50.08066399999991,7.25314399999999,228
49.75666399999992,6.60514399999999,212
49.43266399999992,6.60514399999999,226
49.10866399999992,6.60514399999999,203
49.43266399999992,7.25314399999999,221
49.75666399999992,7.25314399999999,231
49.10866399999992,5.957143999999991,184
48.78466399999992,7.25314399999999,222
50.08066399999991,6.60514399999999,220
47.48866399999993,9.197143999999987,208
48.136663999999925,8.54914399999999,216
48.136663999999925,9.197143999999987,228
47.81266399999993,7.25314399999999,194
49.43266399999992,9.845143999999989,284
49.10866399999992,9.845143999999989,245
53.64466399999989,14.381143999999988,813
50.08066399999991,13.085143999999987,914
49.75666399999992,13.085143999999987,875
45.86866399999994,9.197143999999987,358
46.19266399999994,9.197143999999987,344
46.516663999999935,8.54914399999999,290
46.516663999999935,9.197143999999987,339
46.19266399999994,8.54914399999999,356
47.16466399999993,8.54914399999999,211
45.86866399999994,4.661143999999991,210
46.84066399999993,9.845143999999989,273
45.22066399999994,5.957143999999991,279
45.22066399999994,5.309143999999991,262
45.86866399999994,5.957143999999991,253
45.54466399999994,5.957143999999991,264
44.89666399999994,4.661143999999991,251
44.89666399999994,5.309143999999991,269
44.572663999999946,4.661143999999991,274
44.24866399999995,4.661143999999991,263
43.92466399999995,4.661143999999991,259
46.19266399999994,7.25314399999999,246
48.78466399999992,5.957143999999991,202
48.136663999999925,6.60514399999999,222
48.46066399999992,6.60514399999999,215
48.78466399999992,6.60514399999999,246
47.16466399999993,7.90114399999999,204
48.136663999999925,7.25314399999999,207
48.46066399999992,7.25314399999999,206
46.516663999999935,6.60514399999999,225
46.84066399999993,6.60514399999999,199
46.84066399999993,7.25314399999999,210
46.516663999999935,5.957143999999991,225
46.19266399999994,5.957143999999991,214
46.84066399999993,8.54914399999999,216
46.84066399999993,7.90114399999999,209
45.86866399999994,5.309143999999991,214
46.19266399999994,6.60514399999999,244
45.86866399999994,6.60514399999999,253
47.48866399999993,6.60514399999999,181
47.48866399999993,7.25314399999999,188
47.16466399999993,7.25314399999999,201
49.10866399999992,4.013143999999992,134
49.75666399999992,4.661143999999991,193
49.43266399999992,4.661143999999991,173
49.10866399999992,5.309143999999991,190
46.19266399999994,4.661143999999991,207
46.84066399999993,9.197143999999987,231
46.19266399999994,5.309143999999991,208
46.516663999999935,5.309143999999991,176
45.54466399999994,6.60514399999999,321
45.54466399999994,5.309143999999991,231
43.60066399999995,4.013143999999992,268
43.60066399999995,3.365143999999992,292
42.62866399999996,2.717143999999992,385
43.276663999999954,2.717143999999992,306
45.54466399999994,4.661143999999991,216
45.22066399999994,4.661143999999991,224
47.16466399999993,5.309143999999991,147
47.16466399999993,5.957143999999991,172
46.19266399999994,7.90114399999999,240
49.75666399999992,2.717143999999992,134
49.10866399999992,2.717143999999992,100
48.78466399999992,2.717143999999992,126
45.86866399999994,3.365143999999992,294
46.84066399999993,3.365143999999992,242
46.516663999999935,3.365143999999992,274
46.19266399999994,3.365143999999992,269
47.16466399999993,6.60514399999999,176
49.10866399999992,3.365143999999992,143
45.54466399999994,4.013143999999992,229
46.516663999999935,7.25314399999999,221
47.16466399999993,4.661143999999991,160
46.84066399999993,4.661143999999991,182
46.516663999999935,4.661143999999991,201
46.84066399999993,5.957143999999991,177
47.81266399999993,3.365143999999992,60
47.48866399999993,4.013143999999992,108
48.136663999999925,4.013143999999992,43
47.81266399999993,4.013143999999992,81
47.48866399999993,4.661143999999991,116
47.16466399999993,3.365143999999992,265
46.84066399999993,4.013143999999992,199
48.46066399999992,5.957143999999991,251
46.19266399999994,2.717143999999992,305
47.16466399999993,2.0691439999999925,182
46.516663999999935,2.717143999999992,279
46.84066399999993,2.717143999999992,259
46.84066399999993,2.0691439999999925,226
47.16466399999993,2.717143999999992,204
44.572663999999946,5.309143999999991,272
44.572663999999946,5.957143999999991,369
44.89666399999994,6.60514399999999,387
44.572663999999946,6.60514399999999,870
43.60066399999995,5.309143999999991,282
43.92466399999995,7.25314399999999,921
43.60066399999995,6.60514399999999,912
43.276663999999954,6.60514399999999,899
43.276663999999954,5.957143999999991,322
45.86866399999994,8.54914399999999,365
45.54466399999994,8.54914399999999,385
48.136663999999925,3.365143999999992,87
48.46066399999992,3.365143999999992,0
48.46066399999992,2.717143999999992,73
47.48866399999993,5.309143999999991,156
46.516663999999935,9.845143999999989,284
46.84066399999993,10.493143999999988,851
47.81266399999993,5.309143999999991,120
45.22066399999994,6.60514399999999,359
46.19266399999994,4.013143999999992,222
45.86866399999994,4.013143999999992,221
45.22066399999994,4.013143999999992,281
44.89666399999994,4.013143999999992,337
46.84066399999993,5.309143999999991,151
48.136663999999925,-1.8188560000000056,204
48.136663999999925,0.1251439999999934,149
48.136663999999925,-0.5228560000000062,173
47.48866399999993,-0.5228560000000062,190
47.16466399999993,-1.8188560000000056,201
47.48866399999993,0.7731439999999932,155
47.16466399999993,0.1251439999999934,181
45.86866399999994,7.25314399999999,259
48.136663999999925,5.309143999999991,98
49.10866399999992,4.661143999999991,160
48.46066399999992,4.013143999999992,20
48.136663999999925,4.661143999999991,61
47.81266399999993,6.60514399999999,253
47.48866399999993,5.957143999999991,254
48.136663999999925,5.957143999999991,183
45.86866399999994,7.90114399999999,254
46.516663999999935,7.90114399999999,229
49.43266399999992,3.365143999999992,153
49.43266399999992,4.013143999999992,153
48.136663999999925,2.717143999999992,171
47.81266399999993,2.717143999999992,201
47.48866399999993,2.717143999999992,220
50.40466399999991,2.717143999999992,160
48.46066399999992,-4.410856000000004,325
48.46066399999992,-3.7628560000000046,295
48.46066399999992,-3.114856000000005,281
48.46066399999992,-2.4668560000000053,249
47.48866399999993,1.4211439999999929,177
47.16466399999993,1.4211439999999929,195
46.516663999999935,4.013143999999992,205
43.60066399999995,4.661143999999991,285
44.89666399999994,2.717143999999992,485
45.22066399999994,2.717143999999992,844
45.54466399999994,3.365143999999992,350
45.22066399999994,3.365143999999992,370
47.48866399999993,3.365143999999992,296
46.19266399999994,9.845143999999989,893
47.81266399999993,2.0691439999999925,144
47.48866399999993,2.0691439999999925,159
45.86866399999994,2.717143999999992,863
44.89666399999994,5.957143999999991,851
45.22066399999994,1.4211439999999929,358
44.89666399999994,1.4211439999999929,393
44.89666399999994,2.0691439999999925,414
43.276663999999954,2.0691439999999925,337
43.60066399999995,1.4211439999999929,383
48.78466399999992,4.661143999999991,177
48.78466399999992,5.309143999999991,258
46.19266399999994,2.0691439999999925,319
45.86866399999994,1.4211439999999929,295
46.19266399999994,1.4211439999999929,291
44.572663999999946,4.013143999999992,1053
44.89666399999994,3.365143999999992,994
43.92466399999995,4.013143999999992,332
44.24866399999995,4.013143999999992,314
44.89666399999994,-0.5228560000000062,248
45.54466399999994,0.1251439999999934,210
46.516663999999935,0.1251439999999934,199
44.572663999999946,2.0691439999999925,442
49.75666399999992,4.013143999999992,185
43.92466399999995,3.365143999999992,936
43.92466399999995,2.717143999999992,967
44.24866399999995,3.365143999999992,992
44.572663999999946,3.365143999999992,1037
49.10866399999992,0.1251439999999934,175
49.43266399999992,0.7731439999999932,164
49.43266399999992,-1.8188560000000056,237
49.10866399999992,-1.170856000000006,222
49.10866399999992,-0.5228560000000062,202
49.10866399999992,0.7731439999999932,160
49.10866399999992,1.4211439999999929,128
47.81266399999993,-1.8188560000000056,241
47.81266399999993,-2.4668560000000053,267
47.81266399999993,-3.114856000000005,293
48.136663999999925,-3.7628560000000046,339
44.572663999999946,9.197143999999987,896
44.89666399999994,8.54914399999999,831
45.22066399999994,9.197143999999987,379
45.54466399999994,10.493143999999988,847
44.572663999999946,10.493143999999988,1318
44.89666399999994,10.493143999999988,913
44.89666399999994,9.845143999999989,401
48.46066399999992,5.309143999999991,148
50.91599999999999,-1.0580000000000025,65535
51.23999999999999,-0.4100000000000028,65535
50.91599999999999,-0.4100000000000028,65535
51.23999999999999,-2.354000000000002,65535
51.56399999999999,-2.354000000000002,65535
51.56399999999999,-3.0020000000000016,65535
50.91599999999999,-2.354000000000002,65535
53.50799999999997,-3.0020000000000016,65535
53.183999999999976,-2.354000000000002,65535
53.183999999999976,-3.0020000000000016,65535
52.85999999999998,-2.354000000000002,65535
52.21199999999998,-1.0580000000000025,65535
51.887999999999984,-1.0580000000000025,65535
52.53599999999998,-1.0580000000000025,65535
52.53599999999998,-1.7060000000000022,65535
52.85999999999998,-1.7060000000000022,65535
53.50799999999997,-2.354000000000002,65535
52.85999999999998,-1.0580000000000025,65535
52.53599999999998,1.5339999999999965,65535
52.53599999999998,0.8859999999999966,65535
52.53599999999998,0.2379999999999968,65535
52.53599999999998,-0.4100000000000028,65535
53.50799999999997,-1.7060000000000022,65535
53.183999999999976,-1.7060000000000022,65535
53.183999999999976,-1.0580000000000025,65535
52.85999999999998,-0.4100000000000028,65535
51.887999999999984,-2.354000000000002,65535
52.21199999999998,-2.354000000000002,65535
55.77599999999996,-2.354000000000002,65535
53.83199999999997,-1.0580000000000025,65535
53.83199999999997,-1.7060000000000022,65535
55.127999999999965,-1.7060000000000022,65535
54.80399999999997,-1.7060000000000022,65535
54.47999999999997,-1.7060000000000022,65535
54.15599999999997,-1.0580000000000025,65535
52.21199999999998,-1.7060000000000022,65535
53.50799999999997,-1.0580000000000025,65535
55.77599999999996,-3.0020000000000016,65535
55.45199999999996,-1.7060000000000022,65535
57.07199999999995,-2.354000000000002,65535
56.74799999999996,-3.0020000000000016,65535
56.42399999999996,-3.0020000000000016,65535
56.09999999999996,-3.650000000000001,65535
50.91599999999999,-3.0020000000000016,65535
50.91599999999999,-3.650000000000001,65535
50.59199999999999,-3.650000000000001,65535
50.59199999999999,-4.298000000000001,65535
51.23999999999999,-3.0020000000000016,65535
50.268,-4.946000000000001,65535
55.77599999999996,-3.650000000000001,65535
55.77599999999996,-4.298000000000001,65535
52.21199999999998,-0.4100000000000028,65535
52.53599999999998,-2.354000000000002,65535
51.56399999999999,-1.7060000000000022,65535
51.56399999999999,-3.650000000000001,65535
51.887999999999984,-4.298000000000001,65535
51.56399999999999,-4.298000000000001,65535
51.887999999999984,-1.7060000000000022,65535
52.21199999999998,-3.0020000000000016,65535
51.23999999999999,0.2379999999999968,65535
50.91599999999999,0.2379999999999968,65535
52.21199999999998,0.2379999999999968,65535
53.83199999999997,-3.0020000000000016,65535
54.15599999999997,-3.0020000000000016,65535
54.47999999999997,-3.0020000000000016,65535
55.127999999999965,-3.650000000000001,65535
54.80399999999997,-3.0020000000000016,65535
53.83199999999997,-2.354000000000002,65535
54.15599999999997,-0.4100000000000028,65535
54.47999999999997,-1.0580000000000025,65535
53.83199999999997,-0.4100000000000028,65535
53.183999999999976,-3.650000000000001,65535
53.183999999999976,-4.298000000000001,65535
52.85999999999998,-3.0020000000000016,65535
52.53599999999998,-3.0020000000000016,65535
51.887999999999984,-3.0020000000000016,65535
51.23999999999999,0.8859999999999966,65535
51.887999999999984,0.2379999999999968,65535
52.21199999999998,0.8859999999999966,65535
51.887999999999984,-4.946000000000001,65535
52.53599999999998,-3.650000000000001,65535
52.21199999999998,-4.298000000000001,65535
53.183999999999976,-0.4100000000000028,65535
51.23999999999999,-3.650000000000001,65535
51.887999999999984,-3.650000000000001,65535
52.21199999999998,-3.650000000000001,65535
51.56399999999999,0.8859999999999966,65535
51.887999999999984,0.8859999999999966,65535
52.85999999999998,0.8859999999999966,65535
53.50799999999997,-0.4100000000000028,65535
56.09999999999996,-4.298000000000001,65535
56.74799999999996,-4.946000000000001,65535
56.74799999999996,-4.298000000000001,65535
56.42399999999996,-4.946000000000001,65535
56.42399999999996,-4.298000000000001,65535
56.09999999999996,-4.946000000000001,65535
57.39599999999995,-4.298000000000001,65535
57.39599999999995,-3.0020000000000016,65535
57.39599999999995,-3.650000000000001,65535
56.42399999999996,-3.650000000000001,65535
57.07199999999995,-3.650000000000001,65535
57.07199999999995,-4.298000000000001,65535
56.74799999999996,-3.650000000000001,65535
59.15266399999986,27.34114399999998,65535
59.47666399999986,26.69314399999997,65535
59.47666399999986,26.04514399999998,65535
59.15266399999986,26.04514399999998,65535
59.15266399999986,24.74914399999998,65535
59.15266399999986,25.397143999999983,65535
59.47666399999986,25.397143999999983,65535
58.50466399999986,26.69314399999997,65535
58.82866399999986,26.69314399999997,65535
57.85666399999987,26.04514399999998,65535
58.180663999999865,26.04514399999998,65535
58.180663999999865,26.69314399999997,65535
58.82866399999986,26.04514399999998,65535
58.50466399999986,25.397143999999983,65535
58.82866399999986,25.397143999999983,65535
58.82866399999986,24.74914399999998,65535
58.180663999999865,27.34114399999998,65535
57.85666399999987,27.34114399999998,65535
63.68866399999983,27.34114399999998,7077
60.124663999999854,24.74914399999998,6613
60.44866399999985,24.74914399999998,6582
60.44866399999985,25.397143999999983,6594
60.77266399999985,25.397143999999983,6800
61.09666399999985,26.04514399999998,6842
60.77266399999985,26.04514399999998,6849
60.77266399999985,26.69314399999997,6868
61.09666399999985,25.397143999999983,6833
61.09666399999985,26.69314399999997,7198
61.420663999999846,26.69314399999997,7220
61.74466399999984,27.34114399999998,7244
62.06866399999984,27.34114399999998,7269
62.39266399999984,27.34114399999998,7293
62.71666399999984,27.34114399999998,7257
64.01266399999983,27.34114399999998,7425
63.36466399999984,27.34114399999998,7145
63.04066399999984,27.34114399999998,7185
63.04066399999984,27.989143999999985,7200
64.33666399999983,27.989143999999985,7472
64.33666399999983,27.34114399999998,7548
64.66066399999983,27.34114399999998,7564
64.66066399999983,26.69314399999997,7575
64.98466399999982,25.397143999999983,5959
64.66066399999983,26.04514399999998,7605
64.98466399999982,26.04514399999998,7627
66.28066399999982,25.397143999999983,6036
65.95666399999982,24.74914399999998,5872
65.63266399999982,24.74914399999998,5876
65.63266399999982,25.397143999999983,5918
65.30866399999982,25.397143999999983,5939
66.60466399999981,25.397143999999983,6096
64.01266399999983,24.74914399999998,6096
64.01266399999983,24.101143999999977,6131
64.01266399999983,23.45314399999998,6155
63.68866399999983,23.45314399999998,6167
63.68866399999983,22.805143999999984,6192
63.68866399999983,26.04514399999998,6784
63.68866399999983,25.397143999999983,6750
63.68866399999983,26.69314399999997,7044
60.44866399999985,26.69314399999997,7036
64.01266399999983,27.989143999999985,7463
62.71666399999984,22.805143999999984,6314
62.39266399999984,22.805143999999984,6346
62.06866399999984,22.805143999999984,6375
62.06866399999984,23.45314399999998,6391
61.74466399999984,23.45314399999998,6403
61.420663999999846,23.45314399999998,6451
61.09666399999985,23.45314399999998,6492
61.09666399999985,24.101143999999977,6499
61.09666399999985,24.74914399999998,6533
60.77266399999985,24.74914399999998,6549
63.04066399999984,21.50914399999997,65535
63.04066399999984,22.15714399999998,65535
63.04066399999984,22.805143999999984,6278
62.39266399999984,26.04514399999998,7441
62.06866399999984,25.397143999999983,7490
61.74466399999984,25.397143999999983,7558
61.74466399999984,24.74914399999998,7595
61.74466399999984,24.101143999999977,7630
61.420663999999846,24.101143999999977,6974
62.39266399999984,26.69314399999997,7412
64.66066399999983,25.397143999999983,6028
64.66066399999983,24.74914399999998,6046
64.33666399999983,24.74914399999998,6057
63.36466399999984,22.805143999999984,6217
67.25266399999981,24.101143999999977,8186
66.92866399999981,24.101143999999977,8150
66.60466399999981,23.45314399999998,8119
66.28066399999982,23.45314399999998,8101
66.28066399999982,24.101143999999977,8083
65.95666399999982,24.101143999999977,3999
60.124663999999854,24.101143999999977,6806
60.124663999999854,23.45314399999998,6843
60.44866399999985,22.805143999999984,65535
60.77266399999985,27.34114399999998,6926
61.09666399999985,27.989143999999985,6958
61.09666399999985,28.63714399999997,7004
61.420663999999846,29.28514399999997,8691
61.74466399999984,29.933143999999977,8749
62.06866399999984,29.933143999999977,8855
62.39266399999984,29.933143999999977,8893
62.71666399999984,29.933143999999977,8926
61.420663999999846,22.805143999999984,6487
61.420663999999846,22.15714399999998,6566
61.09666399999985,22.15714399999998,6554
61.420663999999846,21.50914399999997,6699
62.39266399999984,27.989143999999985,65535
62.06866399999984,27.989143999999985,65535
61.420663999999846,27.34114399999998,65535
63.04066399999984,29.933143999999977,65535
63.68866399999983,29.28514399999997,65535
63.36466399999984,29.28514399999997,65535
63.36466399999984,29.933143999999977,65535
60.44866399999985,27.34114399999998,65535
61.74466399999984,29.28514399999997,65535
62.39266399999984,30.58114399999998,65535
62.71666399999984,31.229143999999977,65535
62.71666399999984,29.28514399999997,65535
63.04066399999984,28.63714399999997,65535
66.60466399999981,26.04514399999998,6106
66.60466399999981,26.69314399999997,6142
66.60466399999981,27.34114399999998,6165
62.71666399999984,26.04514399999998,7326
62.71666399999984,25.397143999999983,7295
63.04066399999984,25.397143999999983,7115
63.36466399999984,25.397143999999983,7078
62.71666399999984,23.45314399999998,7320
62.39266399999984,24.101143999999977,65535
62.71666399999984,22.15714399999998,65535
62.39266399999984,22.15714399999998,65535
62.39266399999984,21.50914399999997,65535
61.09666399999985,21.50914399999997,8377
60.77266399999985,22.805143999999984,7803
60.44866399999985,22.15714399999998,7851
60.77266399999985,23.45314399999998,7785
60.77266399999985,21.50914399999997,7953
60.77266399999985,22.15714399999998,7906
60.124663999999854,22.805143999999984,8119
60.44866399999985,24.101143999999977,6792
62.06866399999984,24.74914399999998,65535
50.72866399999991,16.325143999999987,785
50.40466399999991,16.973143999999984,841
50.72866399999991,16.973143999999984,812
50.40466399999991,16.325143999999987,848
50.08066399999991,16.973143999999984,971
50.08066399999991,16.325143999999987,873
51.700663999999904,16.973143999999984,899
51.37666399999991,16.973143999999984,802
51.05266399999991,15.677143999999986,808
50.72866399999991,15.677143999999986,823
51.05266399999991,17.621143999999987,819
51.37666399999991,17.621143999999987,846
51.700663999999904,17.621143999999987,874
51.700663999999904,16.325143999999987,867
52.0246639999999,22.15714399999998,1078
52.0246639999999,21.50914399999997,1074
52.3486639999999,21.50914399999997,1074
52.0246639999999,20.86114399999998,1054
51.700663999999904,20.86114399999998,1112
51.37666399999991,21.50914399999997,1151
51.37666399999991,20.86114399999998,1146
51.05266399999991,20.86114399999998,1126
52.6726639999999,23.45314399999998,1267
52.3486639999999,22.805143999999984,1209
52.3486639999999,20.213143999999986,1092
52.0246639999999,20.213143999999986,1045
52.3486639999999,19.565143999999982,1087
52.6726639999999,19.565143999999982,1179
51.700663999999904,21.50914399999997,1147
51.700663999999904,22.15714399999998,1182
52.6726639999999,21.50914399999997,1091
52.996663999999896,21.50914399999997,1140
52.6726639999999,20.86114399999998,1106
52.6726639999999,22.15714399999998,1129
52.6726639999999,20.213143999999986,1179
52.996663999999896,19.565143999999982,1230
52.996663999999896,20.86114399999998,1140
52.996663999999896,20.213143999999986,1166
53.32066399999989,20.213143999999986,1282
51.37666399999991,20.213143999999986,1214
52.3486639999999,16.973143999999984,904
52.0246639999999,16.973143999999984,917
52.0246639999999,16.325143999999987,906
52.0246639999999,17.621143999999987,891
52.6726639999999,16.973143999999984,941
52.996663999999896,16.973143999999984,1042
52.3486639999999,16.325143999999987,916
52.3486639999999,15.677143999999986,906
51.700663999999904,18.269143999999983,958
52.6726639999999,17.621143999999987,955
52.3486639999999,17.621143999999987,942
52.6726639999999,18.269143999999983,1035
52.3486639999999,18.269143999999983,1009
52.3486639999999,18.917143999999983,1047
52.996663999999896,17.621143999999987,1081
51.700663999999904,19.565143999999982,1039
51.700663999999904,18.917143999999983,1006
51.37666399999991,18.269143999999983,887
58.82866399999986,9.197143999999987,2768
58.180663999999865,7.90114399999999,2861
58.50466399999986,8.54914399999999,2812
63.36466399999984,10.493143999999988,2983
63.36466399999984,11.141143999999988,2990
63.36466399999984,11.789143999999988,3025
63.68866399999983,11.789143999999988,3053
64.33666399999983,12.437143999999988,3454
64.66066399999983,12.437143999999988,3949
65.63266399999982,13.085143999999987,3606
65.95666399999982,13.085143999999987,3641
66.28066399999982,14.381143999999988,3711
65.95666399999982,13.733143999999989,3780
66.28066399999982,13.733143999999989,3689
65.30866399999982,13.085143999999987,3907
64.98466399999982,13.085143999999987,3541
64.01266399999983,11.789143999999988,3084
63.68866399999983,11.141143999999988,3021
59.800663999999855,10.493143999999988,2564
59.800663999999855,11.141143999999988,2547
60.124663999999854,11.141143999999988,2562
60.44866399999985,11.141143999999988,2575
60.124663999999854,11.789143999999988,2588
60.77266399999985,7.25314399999999,2824
60.77266399999985,6.60514399999999,2870
59.15266399999986,9.197143999999987,2650
59.47666399999986,9.197143999999987,2671
59.800663999999855,9.845143999999989,2566
59.47666399999986,11.141143999999988,2511
61.09666399999985,10.493143999999988,2685
60.77266399999985,10.493143999999988,2655
60.77266399999985,11.141143999999988,2610
62.06866399999984,9.197143999999987,3010
61.74466399999984,9.845143999999989,2956
61.420663999999846,9.845143999999989,2933
59.15266399999986,9.845143999999989,2630
59.47666399999986,9.845143999999989,2606
58.82866399999986,5.957143999999991,3045
58.180663999999865,7.25314399999999,2917
58.50466399999986,7.25314399999999,2950
58.50466399999986,6.60514399999999,2955
58.50466399999986,5.957143999999991,3013
58.82866399999986,8.54914399999999,2798
60.44866399999985,7.25314399999999,2798
60.44866399999985,7.90114399999999,2759
60.124663999999854,10.493143999999988,2596
60.44866399999985,9.197143999999987,2708
60.77266399999985,9.197143999999987,2720
60.77266399999985,8.54914399999999,2739
60.124663999999854,9.845143999999989,2854
60.44866399999985,10.493143999999988,2641
63.04066399999984,10.493143999999988,2934
62.06866399999984,9.845143999999989,3035
62.39266399999984,9.845143999999989,3043
62.71666399999984,9.845143999999989,3067
59.47666399999986,14.381143999999988,2517
59.47666399999986,13.733143999999989,2501
59.47666399999986,13.085143999999987,2477
59.800663999999855,12.437143999999988,2546
59.15266399999986,11.141143999999988,2475
59.15266399999986,14.381143999999988,2501
58.82866399999986,11.789143999999988,2455
58.50466399999986,12.437143999999988,2385
58.180663999999865,12.437143999999988,2378
57.85666399999987,11.789143999999988,2329
62.71666399999984,7.90114399999999,3096
62.39266399999984,7.90114399999999,3053
62.06866399999984,8.54914399999999,3028
60.44866399999985,5.309143999999991,2944
60.44866399999985,5.957143999999991,2911
60.77266399999985,5.957143999999991,2900
62.39266399999984,11.141143999999988,2831
62.06866399999984,10.493143999999988,2786
61.74466399999984,11.141143999999988,2759
61.420663999999846,11.141143999999988,2713
61.09666399999985,11.141143999999988,2696
60.77266399999985,11.789143999999988,2673
63.04066399999984,11.141143999999988,2912
62.71666399999984,11.141143999999988,2855
62.39266399999984,10.493143999999988,2813
67.25266399999981,15.677143999999986,3830
67.25266399999981,15.029143999999986,3868
67.25266399999981,14.381143999999988,3896
66.92866399999981,15.029143999999986,3819
66.60466399999981,15.677143999999986,3797
64.01266399999983,11.141143999999988,3068
66.60466399999981,15.029143999999986,3860
54.29266399999989,18.269143999999983,1190
54.616663999999886,17.621143999999987,1148
53.96866399999989,18.269143999999983,1163
43.92466399999995,1.4211439999999929,422
44.24866399999995,0.7731439999999932,370
44.572663999999946,0.1251439999999934,322
46.84066399999993,1.4211439999999929,223
44.572663999999946,1.4211439999999929,910
44.24866399999995,1.4211439999999929,894
45.54466399999994,1.4211439999999929,396
46.516663999999935,1.4211439999999929,240
42.30466399999996,2.717143999999992,991
44.24866399999995,2.717143999999992,528
44.572663999999946,2.717143999999992,503
43.92466399999995,2.0691439999999925,879
42.30466399999996,2.0691439999999925,1032
42.62866399999996,2.0691439999999925,939
42.62866399999996,1.4211439999999929,932
42.95266399999996,1.4211439999999929,925
43.276663999999954,1.4211439999999929,870
46.516663999999935,-1.170856000000006,265
46.19266399999994,-1.170856000000006,245
45.86866399999994,-0.5228560000000062,272
45.54466399999994,-0.5228560000000062,259
48.46066399999992,1.4211439999999929,85
41.332663999999966,2.0691439999999925,1234
41.98066399999996,2.717143999999992,1193
48.46066399999992,-1.8188560000000056,235
47.81266399999993,0.7731439999999932,133
46.84066399999993,0.7731439999999932,224
44.572663999999946,-1.170856000000006,265
43.60066399999995,-1.170856000000006,328
43.276663999999954,-1.8188560000000056,375
43.276663999999954,0.1251439999999934,439
42.95266399999996,0.1251439999999934,413
43.276663999999954,-0.5228560000000062,385
43.60066399999995,-0.5228560000000062,362
47.81266399999993,-3.7628560000000046,307
47.48866399999993,-2.4668560000000053,275
47.81266399999993,-0.5228560000000062,180
46.516663999999935,-1.8188560000000056,316
48.136663999999925,-1.170856000000006,191
47.48866399999993,-1.170856000000006,223
45.22066399999994,8.54914399999999,428
45.22066399999994,7.90114399999999,439
46.19266399999994,-0.5228560000000062,201
46.516663999999935,-0.5228560000000062,234
48.78466399999992,-3.114856000000005,312
50.72866399999991,2.0691439999999925,153
50.40466399999991,2.0691439999999925,184
40.36066399999997,-3.7628560000000046,1425
41.65666399999997,-1.170856000000006,1342
41.332663999999966,1.4211439999999929,1280
43.276663999999954,13.733143999999989,3910
42.95266399999996,13.733143999999989,3932
41.65666399999997,15.029143999999986,4016
40.68466399999997,17.621143999999987,4178
43.60066399999995,13.085143999999987,3903
41.65666399999997,12.437143999999988,2569
41.65666399999997,13.085143999999987,2588
41.98066399999996,13.085143999999987,2638
41.65666399999997,13.733143999999989,2640
41.332663999999966,13.733143999999989,2632
41.332663999999966,14.381143999999988,2789
41.00866399999997,14.381143999999988,2695
41.332663999999966,13.085143999999987,2614
41.00866399999997,15.029143999999986,2895
41.98066399999996,13.733143999999989,2837
42.30466399999996,14.381143999999988,2976
42.30466399999996,12.437143999999988,2577
42.62866399999996,12.437143999999988,2756
42.95266399999996,12.437143999999988,3041
42.30466399999996,11.789143999999988,2586
42.95266399999996,11.789143999999988,2796
42.62866399999996,11.789143999999988,2787
43.276663999999954,11.789143999999988,2850
42.95266399999996,13.085143999999987,3804
42.30466399999996,13.085143999999987,2863
43.276663999999954,13.085143999999987,3852
43.276663999999954,12.437143999999988,3859
42.62866399999996,11.141143999999988,2632
42.95266399999996,11.141143999999988,2675
42.95266399999996,10.493143999999988,2693
44.572663999999946,8.54914399999999,890
44.89666399999994,7.90114399999999,453
44.89666399999994,9.197143999999987,435
44.24866399999995,7.90114399999999,868
44.572663999999946,7.90114399999999,486
43.92466399999995,7.90114399999999,963
44.24866399999995,7.25314399999999,526
44.89666399999994,7.25314399999999,858
45.22066399999994,7.25314399999999,778
45.54466399999994,7.90114399999999,840
44.572663999999946,7.25314399999999,862
52.996663999999896,22.805143999999984,1368
52.996663999999896,23.45314399999998,1391
51.37666399999991,22.15714399999998,1213
51.37666399999991,22.805143999999984,1267
50.08066399999991,20.213143999999986,972
50.72866399999991,20.213143999999986,1012
50.40466399999991,20.213143999999986,970
50.08066399999991,20.86114399999998,992
50.08066399999991,21.50914399999997,1011
50.08066399999991,22.15714399999998,1035
50.08066399999991,22.805143999999984,1110
53.96866399999989,22.805143999999984,1827
53.64466399999989,23.45314399999998,1498
53.32066399999989,23.45314399999998,1444
50.40466399999991,19.565143999999982,955
50.08066399999991,18.917143999999983,960
50.08066399999991,18.269143999999983,909
52.0246639999999,22.805143999999984,1264
52.0246639999999,23.45314399999998,1300
51.37666399999991,19.565143999999982,1176
51.05266399999991,19.565143999999982,1020
50.72866399999991,18.917143999999983,993
50.72866399999991,19.565143999999982,1037
49.75666399999992,18.917143999999983,1102
50.40466399999991,18.269143999999983,873
53.64466399999989,19.565143999999982,1236
53.96866399999989,18.917143999999983,1204
53.64466399999989,18.917143999999983,1221
53.64466399999989,20.213143999999986,1275
52.996663999999896,18.917143999999983,1096
52.996663999999896,18.269143999999983,1068
53.32066399999989,18.917143999999983,1195
50.72866399999991,17.621143999999987,826
50.72866399999991,18.269143999999983,860
52.6726639999999,16.325143999999987,936
52.996663999999896,16.325143999999987,922
52.996663999999896,15.677143999999986,908
53.32066399999989,15.677143999999986,904
53.32066399999989,15.029143999999986,825
53.64466399999989,15.029143999999986,831
53.96866399999989,15.029143999999986,859
52.6726639999999,18.917143999999983,1138
53.32066399999989,16.325143999999987,1074
52.6726639999999,15.029143999999986,889
51.05266399999991,22.805143999999984,1301
51.05266399999991,23.45314399999998,1329
50.72866399999991,22.15714399999998,1286
50.40466399999991,22.15714399999998,1325
51.05266399999991,22.15714399999998,1264
54.616663999999886,16.973143999999984,1108
54.29266399999989,16.325143999999987,1058
53.96866399999989,15.677143999999986,964
50.72866399999991,21.50914399999997,1296
50.40466399999991,21.50914399999997,1065
50.40466399999991,17.621143999999987,855
53.32066399999989,22.805143999999984,1583
53.64466399999989,22.15714399999998,1445
54.29266399999989,16.973143999999984,1084
50.72866399999991,20.86114399999998,1050
51.700663999999904,22.805143999999984,1351
51.05266399999991,21.50914399999997,1248
50.08066399999991,19.565143999999982,974
52.0246639999999,18.917143999999983,8008
52.0246639999999,19.565143999999982,8001
53.64466399999989,18.269143999999983,1157
51.700663999999904,20.213143999999986,1286
53.32066399999989,19.565143999999982,1227
50.72866399999991,23.45314399999998,1411
50.72866399999991,22.805143999999984,1380
49.43266399999992,20.213143999999986,1285
49.75666399999992,21.50914399999997,1099
49.75666399999992,22.15714399999998,1351
49.43266399999992,22.15714399999998,1364
51.05266399999991,18.917143999999983,996
51.05266399999991,18.269143999999983,907
53.32066399999989,16.973143999999984,1048
53.64466399999989,16.973143999999984,1042
49.75666399999992,20.86114399999998,1044
50.40466399999991,22.805143999999984,8090
53.64466399999989,16.325143999999987,1028
53.96866399999989,20.86114399999998,1302
54.29266399999989,20.86114399999998,1348
53.96866399999989,21.50914399999997,1368
53.64466399999989,15.677143999999986,980
53.96866399999989,20.213143999999986,1261
53.96866399999989,19.565143999999982,1250
54.29266399999989,19.565143999999982,1264
53.96866399999989,16.325143999999987,999
53.64466399999989,17.621143999999987,1098
53.96866399999989,22.15714399999998,1435
53.64466399999989,21.50914399999997,1400
53.64466399999989,20.86114399999998,1354
52.6726639999999,15.677143999999986,936
51.05266399999991,20.213143999999986,1222
54.940663999999884,24.101143999999977,3201
54.616663999999886,23.45314399999998,3145
54.29266399999989,23.45314399999998,3008
53.64466399999989,22.805143999999984,1585
53.96866399999989,16.973143999999984,1105
50.40466399999991,20.86114399999998,1303
53.32066399999989,18.269143999999983,1176
49.75666399999992,19.565143999999982,1133
50.40466399999991,23.45314399999998,1516
49.75666399999992,20.213143999999986,1357
49.43266399999992,19.565143999999982,1245
49.43266399999992,20.86114399999998,1061
53.96866399999989,17.621143999999987,1308
42.30466399999996,-1.8188560000000056,8319
41.98066399999996,-1.8188560000000056,8302
41.65666399999997,0.7731439999999932,8306
42.62866399999996,-1.8188560000000056,8434
42.95266399999996,-1.8188560000000056,8463
42.62866399999996,-3.114856000000005,8557
42.95266399999996,-2.4668560000000053,8535
42.62866399999996,-7.650856000000003,8899
42.30466399999996,-7.650856000000003,8959
42.30466399999996,-8.946856000000002,9095
42.30466399999996,-8.298856000000002,9069
41.98066399999996,-8.298856000000002,9058
42.30466399999996,-7.002856000000003,8841
42.62866399999996,-6.354856000000003,8783
42.30466399999996,-6.354856000000003,8738
42.62866399999996,-5.706856000000004,8238
41.98066399999996,-4.410856000000004,8192
42.30466399999996,-3.7628560000000046,8583
40.03666399999997,-0.5228560000000062,8286
39.38866399999998,-0.5228560000000062,8334
41.00866399999997,0.7731439999999932,8434
40.68466399999997,0.7731439999999932,8466
40.36066399999997,0.1251439999999934,8544
39.712663999999975,-0.5228560000000062,8443
38.41666399999998,-0.5228560000000062,8455
39.06466399999998,-0.5228560000000062,8577
38.74066399999998,-1.170856000000006,8463
41.332663999999966,0.7731439999999932,8494
41.65666399999997,2.717143999999992,8094
41.65666399999997,2.0691439999999925,8117
41.332663999999966,0.1251439999999934,8452
41.332663999999966,-0.5228560000000062,8396
41.65666399999997,-4.410856000000004,8166
40.03666399999997,-2.4668560000000053,8404
41.00866399999997,-4.410856000000004,8287
43.276663999999954,-5.706856000000004,8368
39.38866399999998,-1.170856000000006,8429
38.09266399999999,-1.170856000000006,8842
38.74066399999998,-0.5228560000000062,8605
37.76866399999999,-1.170856000000006,8907
39.06466399999998,-1.8188560000000056,8427
39.38866399999998,-3.114856000000005,8327
39.38866399999998,-2.4668560000000053,8383
39.06466399999998,-2.4668560000000053,8410
39.06466399999998,-3.114856000000005,8331
39.06466399999998,-3.7628560000000046,8305
38.74066399999998,-3.7628560000000046,8384
40.03666399999997,-3.7628560000000046,8283
40.03666399999997,-3.114856000000005,8483
40.03666399999997,-1.8188560000000056,8564
39.712663999999975,-1.8188560000000056,8529
39.712663999999975,-1.170856000000006,8465
40.36066399999997,-1.170856000000006,8484
40.68466399999997,-1.170856000000006,8462
41.00866399999997,-1.170856000000006,8450
41.332663999999966,-1.170856000000006,8290
43.276663999999954,-8.298856000000002,9059
42.95266399999996,-8.298856000000002,9027
41.65666399999997,-5.706856000000004,65535
41.98066399999996,-7.002856000000003,65535
41.98066399999996,-6.354856000000003,65535
41.332663999999966,-5.058856000000004,8405
43.276663999999954,-3.7628560000000046,8840
42.95266399999996,-4.410856000000004,8774
42.62866399999996,-4.410856000000004,8764
42.30466399999996,-4.410856000000004,8723
41.00866399999997,-5.706856000000004,8343
41.332663999999966,-1.8188560000000056,8236
40.68466399999997,-3.114856000000005,8190
41.00866399999997,-3.114856000000005,8241
41.00866399999997,-2.4668560000000053,8264
41.332663999999966,-2.4668560000000053,8317
40.68466399999997,-4.410856000000004,8227
40.36066399999997,-4.410856000000004,8311
40.68466399999997,-3.7628560000000046,8219
40.36066399999997,-3.114856000000005,8197
41.65666399999997,-2.4668560000000053,8334
38.09266399999999,-3.7628560000000046,8431
38.74066399999998,-3.114856000000005,8375
37.76866399999999,-3.7628560000000046,8488
39.712663999999975,-3.114856000000005,8319
38.41666399999998,-3.7628560000000046,8396
40.03666399999997,-4.410856000000004,65535
40.03666399999997,-5.058856000000004,65535
39.38866399999998,-6.354856000000003,65535
39.38866399999998,-7.002856000000003,65535
42.95266399999996,-3.114856000000005,8968
41.98066399999996,-1.170856000000006,8331
42.30466399999996,-2.4668560000000053,8372
41.65666399999997,-0.5228560000000062,8429
41.98066399999996,-0.5228560000000062,8266
41.65666399999997,0.1251439999999934,8293
41.98066399999996,0.1251439999999934,8315
37.76866399999999,-5.058856000000004,8367
36.79666399999999,-4.410856000000004,8426
38.74066399999998,-4.410856000000004,8323
37.12066399999999,-4.410856000000004,8400
37.44466399999999,-5.058856000000004,8924
37.44466399999999,-7.002856000000003,65535
37.44466399999999,-6.354856000000003,65535
37.44466399999999,-5.706856000000004,8600
39.712663999999975,-3.7628560000000046,8393
42.62866399999996,-8.946856000000002,65535
42.30466399999996,-5.706856000000004,8745
42.30466399999996,-5.058856000000004,8830
42.95266399999996,-5.706856000000004,8270
41.00866399999997,-5.058856000000004,8311
40.68466399999997,-5.058856000000004,8285
41.65666399999997,-5.058856000000004,65535
41.65666399999997,-6.354856000000003,65535
36.79666399999999,-6.354856000000003,65535
37.12066399999999,-5.706856000000004,8768
37.76866399999999,-5.706856000000004,8567
38.09266399999999,-4.410856000000004,8702
37.12066399999999,-5.058856000000004,8722
36.79666399999999,-5.058856000000004,8680
37.76866399999999,-4.410856000000004,65535
37.76866399999999,-7.002856000000003,65535
38.41666399999998,-6.354856000000003,65535
38.09266399999999,-6.354856000000003,65535
48.78466399999992,1.4211439999999929,144
56.23666399999988,8.54914399999999,6610
55.58866399999988,9.197143999999987,6415
55.91266399999988,9.197143999999987,6556
55.26466399999988,10.493143999999988,2034
55.91266399999988,12.437143999999988,2169
55.58866399999988,11.789143999999988,6255
55.58866399999988,11.141143999999988,6296
55.26466399999988,11.789143999999988,6288
55.58866399999988,10.493143999999988,6411
55.58866399999988,13.085143999999987,2126
56.88466399999987,9.845143999999989,6562
57.20866399999987,9.845143999999989,6597
56.56066399999988,9.845143999999989,6534
56.88466399999987,8.54914399999999,6649
54.940663999999884,9.845143999999989,7756
54.940663999999884,11.789143999999988,6512
55.91266399999988,13.085143999999987,2184
56.23666399999988,13.733143999999989,2228
55.91266399999988,13.733143999999989,2231
56.23666399999988,14.381143999999988,2251
56.23666399999988,15.029143999999986,2292
56.23666399999988,15.677143999999986,2347
56.56066399999988,14.381143999999988,2308
56.88466399999987,14.381143999999988,2278
56.23666399999988,13.085143999999987,2176
56.56066399999988,13.085143999999987,2256
56.88466399999987,12.437143999999988,2293
57.20866399999987,12.437143999999988,2309
57.53266399999987,12.437143999999988,2324
56.88466399999987,15.029143999999986,2304
56.56066399999988,15.677143999999986,2364
56.88466399999987,15.677143999999986,2383
56.88466399999987,16.325143999999987,2398
55.91266399999988,11.789143999999988,6581
57.20866399999987,10.493143999999988,6784
49.43266399999992,1.4211439999999929,144
49.75666399999992,0.7731439999999932,179
49.75666399999992,2.0691439999999925,133
50.08066399999991,2.717143999999992,171
49.75666399999992,1.4211439999999929,166
47.81266399999993,1.4211439999999929,148
48.136663999999925,2.0691439999999925,144
48.46066399999992,2.0691439999999925,114
48.136663999999925,1.4211439999999929,132
48.78466399999992,0.1251439999999934,203
48.46066399999992,0.1251439999999934,183
47.81266399999993,0.1251439999999934,175
46.84066399999993,-0.5228560000000062,224
47.16466399999993,0.7731439999999932,176
46.84066399999993,0.1251439999999934,231
46.84066399999993,-1.170856000000006,239
50.08066399999991,1.4211439999999929,204
50.08066399999991,2.0691439999999925,140
49.43266399999992,2.717143999999992,106
49.75666399999992,3.365143999999992,153
50.08066399999991,3.365143999999992,177
49.10866399999992,2.0691439999999925,131
49.43266399999992,2.0691439999999925,125
48.78466399999992,0.7731439999999932,219
48.78466399999992,-0.5228560000000062,225
48.78466399999992,-1.170856000000006,256
48.136663999999925,0.7731439999999932,133
48.46066399999992,0.7731439999999932,120
43.92466399999995,5.957143999999991,866
44.24866399999995,5.957143999999991,837
43.92466399999995,5.309143999999991,281
42.95266399999996,2.717143999999992,376
45.54466399999994,2.0691439999999925,377
45.22066399999994,2.0691439999999925,856
42.95266399999996,2.0691439999999925,930
42.95266399999996,0.7731439999999932,847
43.276663999999954,0.7731439999999932,858
46.19266399999994,0.7731439999999932,338
46.516663999999935,0.7731439999999932,308
45.86866399999994,0.1251439999999934,225
46.19266399999994,0.1251439999999934,218
47.81266399999993,-1.170856000000006,255
48.136663999999925,-2.4668560000000053,239
47.48866399999993,-1.8188560000000056,235
47.16466399999993,-1.170856000000006,203
47.16466399999993,-0.5228560000000062,234
46.84066399999993,-1.8188560000000056,256
45.22066399999994,-0.5228560000000062,266
44.89666399999994,0.1251439999999934,284
45.22066399999994,0.7731439999999932,342
45.54466399999994,0.7731439999999932,436
45.86866399999994,0.7731439999999932,932
45.22066399999994,0.1251439999999934,873
44.89666399999994,0.7731439999999932,406
43.92466399999995,-0.5228560000000062,348
43.92466399999995,-1.170856000000006,327
44.24866399999995,-1.170856000000006,308
45.22066399999994,-1.170856000000006,307
44.572663999999946,-0.5228560000000062,274
44.24866399999995,0.1251439999999934,345
44.572663999999946,0.7731439999999932,900
43.276663999999954,-1.170856000000006,890
42.95266399999996,-0.5228560000000062,1092
44.24866399999995,2.0691439999999925,879
43.60066399999995,0.7731439999999932,852
43.60066399999995,2.0691439999999925,853
52.6726639999999,4.661143999999991,6601
52.6726639999999,5.309143999999991,6624
51.700663999999904,5.309143999999991,6569
52.0246639999999,5.309143999999991,6581
52.3486639999999,5.309143999999991,6597
51.37666399999991,4.013143999999992,6577
52.3486639999999,5.957143999999991,6591
52.0246639999999,6.60514399999999,6621
52.6726639999999,5.957143999999991,6608
52.996663999999896,5.957143999999991,6621
53.32066399999989,5.957143999999991,6615
52.996663999999896,6.60514399999999,6597
53.32066399999989,6.60514399999999,6589
52.6726639999999,6.60514399999999,6617
52.996663999999896,5.309143999999991,6636
59.15266399999986,24.101143999999977,65535
56.88466399999987,24.101143999999977,65535
56.88466399999987,23.45314399999998,65535
56.88466399999987,22.805143999999984,65535
57.20866399999987,24.74914399999998,65535
56.88466399999987,24.74914399999998,65535
56.56066399999988,24.74914399999998,65535
56.56066399999988,25.397143999999983,65535
56.56066399999988,24.101143999999977,65535
56.56066399999988,23.45314399999998,65535
56.56066399999988,26.04514399999998,65535
56.88466399999987,26.04514399999998,65535
57.20866399999987,25.397143999999983,65535
57.53266399999987,25.397143999999983,65535
56.23666399999988,26.04514399999998,65535
56.23666399999988,26.69314399999997,65535
55.91266399999988,26.69314399999997,65535
56.56066399999988,26.69314399999997,65535
56.56066399999988,27.34114399999998,65535
56.56066399999988,27.989143999999985,65535
56.23666399999988,27.989143999999985,65535
55.91266399999988,27.34114399999998,65535
56.56066399999988,22.805143999999984,65535
56.56066399999988,22.15714399999998,65535
56.56066399999988,21.50914399999997,65535
57.20866399999987,26.69314399999997,65535
39.06466399999998,-8.946856000000002,65535
38.41666399999998,-8.298856000000002,65535
45.86866399999994,11.789143999999988,1588
46.19266399999994,11.789143999999988,1575
46.19266399999994,10.493143999999988,1615
45.22066399999994,18.269143999999983,1452
45.22066399999994,18.917143999999983,1493
45.54466399999994,16.973143999999984,1355
45.22066399999994,17.621143999999987,1396
45.86866399999994,16.325143999999987,1316
45.54466399999994,18.917143999999983,1540
45.54466399999994,16.325143999999987,1330
45.54466399999994,18.269143999999983,1508
44.89666399999994,18.917143999999983,1690
46.19266399999994,16.973143999999984,1316
46.19266399999994,16.325143999999987,1321
45.86866399999994,16.973143999999984,1333
45.86866399999994,17.621143999999987,1428
46.19266399999994,15.677143999999986,1290
46.516663999999935,16.325143999999987,1295
45.54466399999994,15.677143999999986,1365
45.22066399999994,15.029143999999986,1401
45.54466399999994,15.029143999999986,1362
45.22066399999994,15.677143999999986,1426
44.572663999999946,15.677143999999986,1579
44.24866399999995,15.677143999999986,1600
43.92466399999995,16.325143999999987,1664
44.89666399999994,15.677143999999986,1543
45.54466399999994,17.621143999999987,1407
45.22066399999994,16.325143999999987,1385
46.516663999999935,16.973143999999984,1308
45.86866399999994,18.269143999999983,1600
43.92466399999995,15.677143999999986,1766
45.22066399999994,13.733143999999989,1410
47.48866399999993,19.565143999999982,1132
47.16466399999993,18.917143999999983,1118
47.81266399999993,18.917143999999983,1066
45.54466399999994,9.845143999999989,379
45.22066399999994,9.845143999999989,386
45.22066399999994,10.493143999999988,858
45.86866399999994,9.845143999999989,824
45.86866399999994,10.493143999999988,2358
48.78466399999992,21.50914399999997,1276
49.10866399999992,20.213143999999986,1171
49.10866399999992,18.917143999999983,1089
48.46066399999992,17.621143999999987,1007
49.43266399999992,17.621143999999987,973
49.10866399999992,17.621143999999987,1132
48.136663999999925,18.269143999999983,1098
49.10866399999992,18.269143999999983,1047
49.43266399999992,18.269143999999983,1004
49.43266399999992,16.973143999999984,950
49.75666399999992,16.973143999999984,921
49.75666399999992,16.325143999999987,899
50.08066399999991,15.677143999999986,793
50.08066399999991,15.029143999999986,784
49.43266399999992,18.917143999999983,1075
47.81266399999993,20.86114399999998,1195
48.136663999999925,20.86114399999998,1226
48.46066399999992,20.86114399999998,1268
48.46066399999992,21.50914399999997,1272
49.10866399999992,19.565143999999982,1182
48.136663999999925,17.621143999999987,986
48.78466399999992,22.15714399999998,1375
48.78466399999992,20.86114399999998,1407
49.10866399999992,20.86114399999998,1262
48.78466399999992,18.269143999999983,1090
48.78466399999992,17.621143999999987,1109
49.10866399999992,21.50914399999997,1289
48.78466399999992,20.213143999999986,1415
48.46066399999992,20.213143999999986,1456
48.136663999999925,19.565143999999982,1605
48.46066399999992,19.565143999999982,1484
48.46066399999992,18.917143999999983,1226
48.46066399999992,18.269143999999983,1050
48.78466399999992,19.565143999999982,1250
48.78466399999992,18.917143999999983,1168
47.81266399999993,18.269143999999983,1030
49.10866399999992,22.15714399999998,1416
49.43266399999992,21.50914399999997,1414
48.136663999999925,18.917143999999983,1306
48.136663999999925,20.213143999999986,1625
52.636,-8.018,65535
52.312,-7.370000000000001,65535
52.312,-8.018,65535
52.636,-8.666,65535
51.988,-8.666,65535
51.988,-8.018,65535
52.96,-8.666,65535
52.96,-6.074000000000002,65535
53.28399999999999,-6.722000000000001,65535
53.60799999999999,-6.722000000000001,65535
53.60799999999999,-7.370000000000001,65535
53.60799999999999,-8.018,65535
54.25599999999999,-8.666,65535
53.93199999999999,-8.666,65535
53.93199999999999,-8.018,65535
52.312,-6.722000000000001,65535
52.636,-6.722000000000001,65535
53.93199999999999,-6.722000000000001,65535
54.25599999999999,-6.074000000000002,65535
53.28399999999999,-7.370000000000001,65535
52.96,-7.370000000000001,65535
52.312,-8.666,65535
52.96,-8.018,65535
52.636,-7.370000000000001,65535
52.96,-6.722000000000001,65535
51.988,-9.314,65535
52.312,-9.314,65535
54.579999999999984,-6.722000000000001,65535
54.579999999999984,-6.074000000000002,65535
53.28399999999999,-8.018,65535
53.28399999999999,-8.666,65535
53.28399999999999,-9.314,65535
53.93199999999999,-9.314,65535
54.25599999999999,-9.314,65535
53.60799999999999,-8.666,65535
53.60799999999999,-9.314,65535
49.43266399999992,14.381143999999988,886
49.75666399999992,14.381143999999988,800
49.75666399999992,15.029143999999986,796
49.75666399999992,13.733143999999989,805
50.08066399999991,13.733143999999989,801
49.75666399999992,15.677143999999986,837
50.40466399999991,15.029143999999986,762
49.43266399999992,13.733143999999989,814
50.40466399999991,15.677143999999986,782
50.40466399999991,13.733143999999989,831
46.19266399999994,15.029143999999986,1273
45.86866399999994,15.029143999999986,1318
45.86866399999994,14.381143999999988,1295
46.19266399999994,13.733143999999989,1382
45.86866399999994,13.733143999999989,1468
58.50466399999986,13.733143999999989,2420
58.180663999999865,13.733143999999989,2406
58.180663999999865,13.085143999999987,2378
57.85666399999987,12.437143999999988,2342
60.44866399999985,15.677143999999986,2627
60.124663999999854,15.677143999999986,2561
60.124663999999854,16.325143999999987,2599
59.800663999999855,16.325143999999987,2527
59.800663999999855,17.621143999999987,2506
59.47666399999986,18.269143999999983,2488
61.74466399999984,16.973143999999984,2638
61.420663999999846,16.973143999999984,2611
60.77266399999985,16.973143999999984,2563
65.63266399999982,22.15714399999998,3742
65.95666399999982,21.50914399999997,3702
65.63266399999982,20.86114399999998,3673
64.98466399999982,20.213143999999986,3605
64.66066399999983,20.213143999999986,3583
64.33666399999983,19.565143999999982,3277
64.01266399999983,19.565143999999982,2990
63.68866399999983,20.213143999999986,2943
64.66066399999983,18.917143999999983,5654
59.15266399999986,16.325143999999987,2463
59.15266399999986,15.029143999999986,2467
59.15266399999986,17.621143999999987,2480
57.53266399999987,14.381143999999988,2304
57.53266399999987,15.029143999999986,2324
61.09666399999985,14.381143999999988,2731
60.77266399999985,15.029143999999986,2682
60.44866399999985,15.029143999999986,2668
58.180663999999865,15.029143999999986,2381
58.50466399999986,16.325143999999987,2415
58.50466399999986,15.677143999999986,2388
63.36466399999984,13.085143999999987,2975
63.04066399999984,14.381143999999988,2912
62.39266399999984,15.677143999999986,2834
63.36466399999984,13.733143999999989,2957
63.36466399999984,14.381143999999988,2929
62.71666399999984,15.677143999999986,2862
62.39266399999984,17.621143999999987,2696
59.800663999999855,15.677143999999986,2749
55.58866399999988,13.733143999999989,2258
57.20866399999987,14.381143999999988,2288
57.85666399999987,14.381143999999988,2336
58.82866399999986,16.973143999999984,2472
58.82866399999986,16.325143999999987,2450
59.15266399999986,18.269143999999983,2484
60.44866399999985,17.621143999999987,2539
59.15266399999986,12.437143999999988,2443
59.15266399999986,13.085143999999987,2457
58.82866399999986,12.437143999999988,2419
59.47666399999986,16.325143999999987,2509
58.82866399999986,14.381143999999988,2496
59.47666399999986,15.677143999999986,2527
63.36466399999984,18.917143999999983,2896
63.04066399999984,17.621143999999987,2851
62.71666399999984,17.621143999999987,2825
63.68866399999983,19.565143999999982,2929
62.39266399999984,16.973143999999984,2740
59.800663999999855,16.973143999999984,2515
59.47666399999986,17.621143999999987,2492
57.85666399999987,13.085143999999987,2368
57.53266399999987,13.085143999999987,2349
58.50466399999986,11.789143999999988,2390
57.85666399999987,15.029143999999986,2370
57.20866399999987,13.733143999999989,2294
57.53266399999987,13.733143999999989,2355
61.74466399999984,16.325143999999987,2734
61.420663999999846,16.325143999999987,2701
61.09666399999985,16.325143999999987,2690
61.09666399999985,16.973143999999984,2658
60.124663999999854,15.029143999999986,2836
66.60466399999981,20.86114399999998,3777
67.25266399999981,20.86114399999998,3845
67.90066399999981,20.213143999999986,3915
67.57666399999981,20.213143999999986,4540
59.800663999999855,15.029143999999986,2556
58.50466399999986,15.029143999999986,2398
59.47666399999986,15.029143999999986,2541
60.44866399999985,16.325143999999987,2627
59.15266399999986,15.677143999999986,2485
57.85666399999987,13.733143999999989,2396
58.82866399999986,13.733143999999989,2443
58.50466399999986,13.085143999999987,2428
57.20866399999987,13.085143999999987,2325
56.88466399999987,13.085143999999987,2299
58.180663999999865,11.789143999999988,2361
62.06866399999984,16.973143999999984,2729
65.95666399999982,23.45314399999998,3977
59.800663999999855,14.381143999999988,5411
59.800663999999855,18.269143999999983,2497
63.04066399999984,15.029143999999986,2880
62.71666399999984,15.029143999999986,2870
62.39266399999984,16.325143999999987,2803
63.36466399999984,12.437143999999988,3008
68.5486639999998,17.621143999999987,4128
68.5486639999998,18.269143999999983,4061
68.5486639999998,18.917143999999983,4038
68.2246639999998,18.917143999999983,3994
59.800663999999855,13.085143999999987,2560
60.124663999999854,13.085143999999987,2599
59.47666399999986,16.973143999999984,2501
59.15266399999986,16.973143999999984,2493
56.56066399999988,13.733143999999989,2246
60.124663999999854,17.621143999999987,2516
57.85666399999987,16.325143999999987,2475
58.180663999999865,16.325143999999987,2437
58.180663999999865,15.677143999999986,2445
57.20866399999987,16.325143999999987,2487
57.53266399999987,15.677143999999986,2505
57.85666399999987,15.677143999999986,2476
44.89666399999994,23.45314399999998,2485
44.572663999999946,23.45314399999998,2555
44.89666399999994,24.74914399999998,2472
44.572663999999946,24.74914399999998,2591
44.572663999999946,24.101143999999977,2532
44.24866399999995,24.101143999999977,2561
47.48866399999993,25.397143999999983,2333
47.48866399999993,24.74914399999998,2273
47.16466399999993,24.74914399999998,2195
47.16466399999993,24.101143999999977,2097
47.48866399999993,22.15714399999998,2227
47.81266399999993,22.15714399999998,2313
47.16466399999993,22.15714399999998,2206
47.16466399999993,23.45314399999998,2258
47.16466399999993,22.805143999999984,2264
46.84066399999993,24.101143999999977,2178
45.86866399999994,27.34114399999998,2518
45.54466399999994,27.34114399999998,2499
45.54466399999994,27.989143999999985,2615
45.86866399999994,20.86114399999998,2390
45.86866399999994,21.50914399999997,2398
46.19266399999994,21.50914399999997,2334
46.19266399999994,27.34114399999998,2518
46.19266399999994,26.69314399999997,2509
46.516663999999935,26.69314399999997,2471
46.516663999999935,26.04514399999998,2367
47.48866399999993,22.805143999999984,2325
46.84066399999993,22.805143999999984,2138
45.54466399999994,22.15714399999998,2447
45.22066399999994,22.15714399999998,2525
44.89666399999994,22.15714399999998,2943
47.48866399999993,23.45314399999998,2291
46.516663999999935,24.101143999999977,2017
46.516663999999935,24.74914399999998,2231
45.86866399999994,24.101143999999977,2180
47.16466399999993,26.69314399999997,2549
47.16466399999993,27.34114399999998,2604
43.92466399999995,25.397143999999983,2563
44.24866399999995,24.74914399999998,2470
44.89666399999994,26.04514399999998,2357
44.89666399999994,26.69314399999997,2404
45.22066399999994,26.69314399999997,2439
45.22066399999994,27.34114399999998,2466
46.84066399999993,26.69314399999997,2510
47.48866399999993,26.69314399999997,2503
44.24866399999995,25.397143999999983,2402
43.92466399999995,26.04514399999998,2579
46.19266399999994,24.101143999999977,2225
44.572663999999946,25.397143999999983,2440
46.84066399999993,24.74914399999998,2238
46.516663999999935,21.50914399999997,2338
46.84066399999993,21.50914399999997,2345
44.572663999999946,26.69314399999997,2395
44.572663999999946,27.34114399999998,2416
44.89666399999994,27.34114399999998,2531
44.572663999999946,27.989143999999985,2436
44.24866399999995,27.989143999999985,2450
44.572663999999946,28.63714399999997,2501
45.86866399999994,22.15714399999998,2259
45.86866399999994,22.805143999999984,2153
44.24866399999995,23.45314399999998,2588
43.92466399999995,27.989143999999985,65535
46.84066399999993,27.34114399999998,2671
45.22066399999994,23.45314399999998,2460
45.54466399999994,23.45314399999998,2263
45.54466399999994,24.101143999999977,2210
45.22066399999994,24.101143999999977,2434
44.89666399999994,24.101143999999977,2504
46.19266399999994,22.15714399999998,2390
46.516663999999935,22.15714399999998,2356
45.22066399999994,21.50914399999997,2630
45.54466399999994,21.50914399999997,2478
45.54466399999994,20.86114399999998,2502
46.516663999999935,27.989143999999985,2621
46.19266399999994,27.989143999999985,2606
45.54466399999994,25.397143999999983,2324
45.22066399999994,25.397143999999983,2334
45.22066399999994,26.04514399999998,2390
47.81266399999993,24.101143999999977,2386
47.48866399999993,26.04514399999998,2476
47.81266399999993,26.04514399999998,2498
46.19266399999994,23.45314399999998,2057
45.86866399999994,23.45314399999998,2106
44.24866399999995,26.04514399999998,2384
45.22066399999994,27.989143999999985,2596
45.86866399999994,24.74914399999998,2219
46.516663999999935,25.397143999999983,2411
46.84066399999993,25.397143999999983,2294
46.19266399999994,26.04514399999998,2382
45.86866399999994,26.04514399999998,2347
43.92466399999995,23.45314399999998,2818
44.89666399999994,25.397143999999983,2445
46.19266399999994,20.86114399999998,2379
47.81266399999993,25.397143999999983,2510
44.572663999999946,22.805143999999984,2823
44.572663999999946,22.15714399999998,2965
46.516663999999935,23.45314399999998,2196
45.86866399999994,25.397143999999983,2273
44.24866399999995,27.34114399999998,3211
45.22066399999994,24.74914399999998,2536
45.54466399999994,22.805143999999984,2226
45.22066399999994,28.63714399999997,2656
44.89666399999994,28.63714399999997,2595
47.81266399999993,23.45314399999998,2443
46.19266399999994,24.74914399999998,2305
46.19266399999994,25.397143999999983,2329
43.92466399999995,24.101143999999977,2781
43.92466399999995,24.74914399999998,2794
47.81266399999993,26.69314399999997,2725
47.48866399999993,24.101143999999977,2318
46.84066399999993,26.04514399999998,3126
46.19266399999994,22.805143999999984,2450
47.48866399999993,27.34114399999998,2678
46.19266399999994,20.213143999999986,65535
45.54466399999994,26.04514399999998,2482
44.24866399999995,26.69314399999997,2400
45.86866399999994,27.989143999999985,2654
47.81266399999993,5.957143999999991,6586
