51.56399999999999,-0.4100000000000028,65535
51.887999999999984,-0.4100000000000028,65535
50.91599999999999,-1.7060000000000022,65535
51.23999999999999,-1.0580000000000025,65535
51.56399999999999,-1.0580000000000025,65535
51.23999999999999,-1.7060000000000022,65535
51.56399999999999,0.2379999999999968,65535
47.16466399999993,9.845143999999989,257
47.48866399999993,9.845143999999989,252
48.136663999999925,14.381143999999988,340
47.81266399999993,13.085143999999987,309
47.16466399999993,11.141143999999988,290
47.48866399999993,11.789143999999988,437
48.136663999999925,16.325143999999987,789
47.48866399999993,12.437143999999988,298
48.136663999999925,15.677143999999986,819
47.16466399999993,10.493143999999988,438
47.16466399999993,9.197143999999987,248
48.136663999999925,13.733143999999989,316
48.136663999999925,15.029143999999986,823
47.81266399999993,16.973143999999984,895
48.46066399999992,14.381143999999988,424
47.48866399999993,13.085143999999987,302
47.16466399999993,13.085143999999987,309
47.48866399999993,14.381143999999988,505
47.48866399999993,13.733143999999989,924
47.48866399999993,15.029143999999986,792
46.516663999999935,13.733143999999989,1094
46.84066399999993,13.733143999999989,1120
46.84066399999993,13.085143999999987,1125
48.78466399999992,14.381143999999988,65535
47.16466399999993,15.677143999999986,883
46.516663999999935,14.381143999999988,1074
46.84066399999993,14.381143999999988,1015
47.16466399999993,14.381143999999988,965
46.516663999999935,15.029143999999986,1087
47.81266399999993,16.325143999999987,798
47.16466399999993,15.029143999999986,856
47.81266399999993,15.677143999999986,804
47.48866399999993,15.677143999999986,847
46.516663999999935,13.085143999999987,1454
46.84066399999993,12.437143999999988,1139
48.136663999999925,11.789143999999988,240
47.81266399999993,12.437143999999988,266
46.84066399999993,15.677143999999986,901
46.516663999999935,15.677143999999986,1141
46.84066399999993,16.325143999999987,923
47.81266399999993,14.381143999999988,445
48.78466399999992,16.973143999999984,611
48.136663999999925,16.973143999999984,777
48.46066399999992,13.733143999999989,337
47.81266399999993,13.733143999999989,374
50.08066399999991,8.54914399999999,139
48.46066399999992,9.845143999999989,206
51.05266399999991,7.25314399999999,77
51.37666399999991,7.25314399999999,68
51.37666399999991,6.60514399999999,61
48.46066399999992,16.325143999999987,807
48.46066399999992,16.973143999999984,733
48.78466399999992,16.325143999999987,894
48.46066399999992,15.677143999999986,820
48.78466399999992,15.677143999999986,901
47.48866399999993,16.325143999999987,869
47.16466399999993,16.325143999999987,932
46.19266399999994,14.381143999999988,1086
45.86866399999994,15.677143999999986,1123
43.60066399999995,16.325143999999987,1720
45.54466399999994,14.381143999999988,1199
45.54466399999994,13.733143999999989,1221
48.136663999999925,13.085143999999987,296
48.46066399999992,11.141143999999988,225
48.136663999999925,11.141143999999988,233
48.46066399999992,7.90114399999999,192
49.10866399999992,8.54914399999999,181
48.78466399999992,2.0691439999999925,74
49.10866399999992,7.25314399999999,197
52.0246639999999,7.90114399999999,100
47.16466399999993,11.789143999999988,312
49.43266399999992,11.141143999999988,190
53.64466399999989,9.845143999999989,225
50.72866399999991,4.013143999999992,6
51.05266399999991,11.141143999999988,242
47.48866399999993,11.141143999999988,274
46.84066399999993,11.789143999999988,1622
46.516663999999935,11.141143999999988,1591
45.54466399999994,11.141143999999988,1485
46.19266399999994,11.141143999999988,1557
45.86866399999994,11.141143999999988,1541
44.572663999999946,11.141143999999988,1332
43.92466399999995,12.437143999999988,3965
45.54466399999994,12.437143999999988,1572
45.54466399999994,11.789143999999988,1535
48.78466399999992,15.029143999999986,972
47.81266399999993,15.029143999999986,855
47.81266399999993,11.141143999999988,249
50.40466399999991,18.917143999999983,759
52.3486639999999,20.86114399999998,1004
54.616663999999886,18.269143999999983,1031
54.29266399999989,18.917143999999983,1044
49.10866399999992,14.381143999999988,65535
50.08066399999991,14.381143999999988,437
48.78466399999992,13.733143999999989,1736
52.6726639999999,13.085143999999987,237
52.3486639999999,13.085143999999987,235
53.96866399999989,12.437143999999988,339
54.29266399999989,12.437143999999988,337
47.48866399999993,8.54914399999999,253
47.81266399999993,17.621143999999987,868
47.48866399999993,18.917143999999983,897
47.48866399999993,20.86114399999998,1436
46.84066399999993,23.45314399999998,1918
44.572663999999946,26.04514399999998,2367
47.48866399999993,21.50914399999997,1472
47.81266399999993,21.50914399999997,1868
48.46066399999992,22.15714399999998,997
47.48866399999993,16.973143999999984,65535
49.10866399999992,16.325143999999987,567
49.75666399999992,18.269143999999983,559
46.19266399999994,13.085143999999987,1170
41.98066399999996,12.437143999999988,2565
43.60066399999995,10.493143999999988,2726
45.54466399999994,9.197143999999987,368
47.81266399999993,22.805143999999984,2333
49.75666399999992,22.805143999999984,931
50.72866399999991,3.365143999999992,11
51.05266399999991,4.013143999999992,12
50.72866399999991,4.661143999999991,9
51.05266399999991,4.661143999999991,12
51.05266399999991,3.365143999999992,16
51.05266399999991,2.717143999999992,40
50.40466399999991,4.661143999999991,10
50.72866399999991,2.717143999999992,19
50.40466399999991,4.013143999999992,0
51.05266399999991,5.309143999999991,16
50.72866399999991,5.309143999999991,20
51.37666399999991,3.365143999999992,30
51.37666399999991,4.661143999999991,17
50.72866399999991,5.957143999999991,33
50.40466399999991,5.957143999999991,38
50.40466399999991,3.365143999999992,3
50.40466399999991,5.309143999999991,14
50.08066399999991,5.309143999999991,46
49.75666399999992,5.309143999999991,61
49.75666399999992,5.957143999999991,79
51.37666399999991,5.309143999999991,26
51.700663999999904,4.661143999999991,38
50.08066399999991,4.013143999999992,23
50.08066399999991,5.957143999999991,81
50.08066399999991,4.661143999999991,31
49.43266399999992,5.309143999999991,98
49.43266399999992,5.957143999999991,111
52.0246639999999,4.661143999999991,110
52.3486639999999,4.661143999999991,139
50.72866399999991,15.029143999999986,364
51.05266399999991,15.029143999999986,346
51.05266399999991,13.733143999999989,278
50.40466399999991,13.085143999999987,287
49.10866399999992,7.90114399999999,189
48.78466399999992,7.90114399999999,200
50.40466399999991,7.90114399999999,116
50.08066399999991,7.90114399999999,133
49.75666399999992,7.90114399999999,143
49.43266399999992,7.90114399999999,171
49.75666399999992,8.54914399999999,159
49.43266399999992,8.54914399999999,166
49.43266399999992,9.197143999999987,193
49.10866399999992,9.197143999999987,189
47.48866399999993,7.90114399999999,236
47.81266399999993,7.90114399999999,215
48.136663999999925,7.90114399999999,203
48.136663999999925,9.845143999999989,221
47.81266399999993,9.197143999999987,238
47.81266399999993,8.54914399999999,227
47.81266399999993,9.845143999999989,227
54.940663999999884,9.197143999999987,323
54.616663999999886,9.197143999999987,300
54.29266399999989,9.197143999999987,297
53.96866399999989,9.197143999999987,265
53.64466399999989,9.197143999999987,215
54.616663999999886,9.845143999999989,292
54.29266399999989,9.845143999999989,281
53.96866399999989,9.845143999999989,238
53.64466399999989,10.493143999999988,232
53.96866399999989,10.493143999999988,284
53.96866399999989,11.141143999999988,311
54.29266399999989,10.493143999999988,298
53.32066399999989,10.493143999999988,215
54.940663999999884,11.141143999999988,409
52.6726639999999,13.733143999999989,239
52.3486639999999,13.733143999999989,239
52.3486639999999,14.381143999999988,247
52.0246639999999,14.381143999999988,260
52.0246639999999,11.789143999999988,194
52.3486639999999,11.789143999999988,198
52.3486639999999,12.437143999999988,218
52.0246639999999,15.029143999999986,345
51.700663999999904,14.381143999999988,319
52.0246639999999,13.733143999999989,255
51.700663999999904,13.733143999999989,279
52.6726639999999,12.437143999999988,259
53.32066399999989,11.789143999999988,273
53.96866399999989,11.789143999999988,333
53.64466399999989,11.789143999999988,288
53.64466399999989,11.141143999999988,281
53.32066399999989,11.141143999999988,265
52.996663999999896,11.789143999999988,272
52.996663999999896,12.437143999999988,280
52.996663999999896,13.733143999999989,253
53.64466399999989,13.733143999999989,376
53.96866399999989,13.733143999999989,410
54.29266399999989,13.085143999999987,452
53.96866399999989,13.085143999999987,437
53.32066399999989,13.733143999999989,347
52.0246639999999,13.085143999999987,256
51.700663999999904,13.085143999999987,254
52.996663999999896,14.381143999999988,282
52.0246639999999,12.437143999999988,233
51.700663999999904,12.437143999999988,229
51.37666399999991,11.789143999999988,222
51.37666399999991,12.437143999999988,233
52.6726639999999,11.789143999999988,230
53.64466399999989,13.085143999999987,403
53.32066399999989,13.085143999999987,345
52.996663999999896,13.085143999999987,273
53.64466399999989,12.437143999999988,343
51.37666399999991,13.733143999999989,268
53.32066399999989,12.437143999999988,296
52.6726639999999,14.381143999999988,252
51.37666399999991,13.085143999999987,251
53.32066399999989,14.381143999999988,734
52.3486639999999,15.029143999999986,259
52.0246639999999,15.677143999999986,303
51.700663999999904,15.029143999999986,394
51.05266399999991,16.325143999999987,381
51.05266399999991,16.973143999999984,415
51.700663999999904,15.677143999999986,408
51.37666399999991,15.677143999999986,381
51.37666399999991,16.325143999999987,366
50.72866399999991,13.085143999999987,256
50.72866399999991,12.437143999999988,252
51.05266399999991,13.085143999999987,252
51.05266399999991,14.381143999999988,281
50.40466399999991,12.437143999999988,271
50.40466399999991,11.789143999999988,258
50.08066399999991,12.437143999999988,262
50.72866399999991,11.789143999999988,277
51.05266399999991,12.437143999999988,239
50.72866399999991,14.381143999999988,432
51.37666399999991,14.381143999999988,314
50.72866399999991,13.733143999999989,335
50.40466399999991,14.381143999999988,422
51.37666399999991,15.029143999999986,345
55.26466399999988,9.197143999999987,348
55.58866399999988,8.54914399999999,3082
55.91266399999988,8.54914399999999,6559
56.23666399999988,9.197143999999987,6567
56.23666399999988,10.493143999999988,6520
56.23666399999988,9.845143999999989,6507
55.91266399999988,9.845143999999989,6445
56.56066399999988,9.197143999999987,6577
56.56066399999988,8.54914399999999,6620
51.05266399999991,6.60514399999999,59
51.700663999999904,7.90114399999999,79
50.72866399999991,6.60514399999999,73
51.700663999999904,7.25314399999999,75
50.72866399999991,7.25314399999999,79
52.0246639999999,7.25314399999999,92
52.3486639999999,7.90114399999999,146
51.05266399999991,5.957143999999991,42
50.40466399999991,7.25314399999999,99
51.700663999999904,6.60514399999999,70
51.700663999999904,5.957143999999991,68
52.3486639999999,9.197143999999987,129
51.700663999999904,8.54914399999999,102
52.0246639999999,8.54914399999999,108
52.3486639999999,8.54914399999999,126
51.37666399999991,7.90114399999999,73
52.3486639999999,7.25314399999999,153
51.37666399999991,5.957143999999991,101
50.72866399999991,7.90114399999999,91
51.37666399999991,9.197143999999987,121
51.700663999999904,9.197143999999987,133
50.40466399999991,6.60514399999999,106
51.05266399999991,7.90114399999999,107
51.37666399999991,8.54914399999999,101
52.0246639999999,5.957143999999991,111
52.3486639999999,6.60514399999999,176
51.05266399999991,8.54914399999999,143
52.0246639999999,9.197143999999987,129
52.6726639999999,9.197143999999987,150
52.0246639999999,9.845143999999989,157
51.700663999999904,9.845143999999989,177
51.37666399999991,9.845143999999989,226
50.72866399999991,8.54914399999999,146
51.05266399999991,9.845143999999989,231
50.72866399999991,9.845143999999989,196
50.40466399999991,9.845143999999989,175
51.05266399999991,9.197143999999987,133
50.40466399999991,9.197143999999987,153
50.08066399999991,9.197143999999987,143
51.05266399999991,10.493143999999988,256
50.40466399999991,8.54914399999999,140
50.72866399999991,9.197143999999987,160
49.75666399999992,9.197143999999987,161
52.996663999999896,9.197143999999987,163
52.3486639999999,9.845143999999989,137
52.996663999999896,8.54914399999999,186
52.996663999999896,7.90114399999999,203
53.32066399999989,7.90114399999999,223
53.32066399999989,7.25314399999999,253
53.64466399999989,7.25314399999999,298
52.996663999999896,10.493143999999988,203
52.6726639999999,10.493143999999988,196
52.6726639999999,9.845143999999989,150
53.32066399999989,9.845143999999989,216
53.32066399999989,9.197143999999987,211
53.64466399999989,8.54914399999999,202
53.32066399999989,8.54914399999999,195
52.6726639999999,8.54914399999999,183
52.0246639999999,10.493143999999988,212
52.0246639999999,11.141143999999988,167
51.700663999999904,11.141143999999988,280
52.6726639999999,7.25314399999999,425
52.996663999999896,7.25314399999999,399
52.6726639999999,7.90114399999999,315
53.64466399999989,7.90114399999999,371
52.996663999999896,11.141143999999988,281
52.6726639999999,11.141143999999988,202
52.3486639999999,10.493143999999988,147
52.996663999999896,9.845143999999989,216
51.700663999999904,10.493143999999988,198
51.37666399999991,10.493143999999988,223
51.700663999999904,11.789143999999988,201
52.3486639999999,11.141143999999988,159
51.37666399999991,11.141143999999988,227
51.05266399999991,11.789143999999988,231
49.10866399999992,11.141143999999988,207
48.78466399999992,11.141143999999988,226
48.46066399999992,11.789143999999988,242
49.43266399999992,11.789143999999988,223
50.08066399999991,11.789143999999988,230
49.75666399999992,12.437143999999988,228
49.10866399999992,11.789143999999988,198
48.78466399999992,12.437143999999988,236
48.46066399999992,12.437143999999988,269
49.10866399999992,12.437143999999988,222
48.78466399999992,13.085143999999987,300
48.136663999999925,12.437143999999988,278
47.81266399999993,11.789143999999988,256
48.136663999999925,10.493143999999988,245
47.81266399999993,10.493143999999988,259
48.78466399999992,10.493143999999988,224
47.48866399999993,10.493143999999988,289
48.46066399999992,10.493143999999988,217
49.43266399999992,13.085143999999987,356
48.46066399999992,13.085143999999987,314
49.43266399999992,10.493143999999988,194
49.75666399999992,9.845143999999989,160
49.75666399999992,10.493143999999988,165
50.40466399999991,11.141143999999988,310
50.08066399999991,11.141143999999988,187
50.72866399999991,11.141143999999988,300
49.75666399999992,11.141143999999988,178
48.78466399999992,11.789143999999988,243
50.40466399999991,10.493143999999988,223
50.08066399999991,9.845143999999989,155
50.08066399999991,10.493143999999988,180
49.43266399999992,12.437143999999988,249
49.75666399999992,11.789143999999988,211
49.10866399999992,13.085143999999987,334
50.72866399999991,10.493143999999988,271
49.10866399999992,10.493143999999988,226
48.78466399999992,9.845143999999989,190
48.46066399999992,8.54914399999999,194
48.46066399999992,9.197143999999987,190
48.78466399999992,9.197143999999987,185
48.78466399999992,8.54914399999999,183
50.08066399999991,7.25314399999999,110
49.75666399999992,6.60514399999999,137
49.43266399999992,6.60514399999999,143
49.10866399999992,6.60514399999999,158
49.43266399999992,7.25314399999999,174
49.75666399999992,7.25314399999999,153
49.10866399999992,5.957143999999991,168
48.78466399999992,7.25314399999999,187
50.08066399999991,6.60514399999999,134
47.48866399999993,9.197143999999987,242
48.136663999999925,8.54914399999999,205
48.136663999999925,9.197143999999987,204
47.81266399999993,7.25314399999999,228
49.43266399999992,9.845143999999989,165
49.10866399999992,9.845143999999989,192
53.64466399999989,14.381143999999988,792
50.08066399999991,13.085143999999987,761
49.75666399999992,13.085143999999987,550
45.86866399999994,9.197143999999987,358
46.19266399999994,9.197143999999987,344
46.516663999999935,8.54914399999999,290
46.516663999999935,9.197143999999987,339
46.19266399999994,8.54914399999999,356
47.16466399999993,8.54914399999999,249
45.86866399999994,4.661143999999991,210
46.84066399999993,9.845143999999989,273
45.22066399999994,5.957143999999991,279
45.22066399999994,5.309143999999991,262
45.86866399999994,5.957143999999991,282
45.54466399999994,5.957143999999991,277
44.89666399999994,4.661143999999991,204
44.89666399999994,5.309143999999991,269
44.572663999999946,4.661143999999991,239
44.24866399999995,4.661143999999991,255
43.92466399999995,4.661143999999991,250
46.19266399999994,7.25314399999999,272
48.78466399999992,5.957143999999991,175
48.136663999999925,6.60514399999999,222
48.46066399999992,6.60514399999999,194
48.78466399999992,6.60514399999999,173
47.16466399999993,7.90114399999999,238
48.136663999999925,7.25314399999999,207
48.46066399999992,7.25314399999999,206
46.516663999999935,6.60514399999999,287
46.84066399999993,6.60514399999999,283
46.84066399999993,7.25314399999999,256
46.516663999999935,5.957143999999991,305
46.19266399999994,5.957143999999991,299
46.84066399999993,8.54914399999999,252
46.84066399999993,7.90114399999999,245
45.86866399999994,5.309143999999991,214
46.19266399999994,6.60514399999999,289
45.86866399999994,6.60514399999999,300
47.48866399999993,6.60514399999999,231
47.48866399999993,7.25314399999999,241
47.16466399999993,7.25314399999999,249
49.10866399999992,4.013143999999992,120
49.75666399999992,4.661143999999991,57
49.43266399999992,4.661143999999991,95
49.10866399999992,5.309143999999991,190
46.19266399999994,4.661143999999991,207
46.84066399999993,9.197143999999987,264
46.19266399999994,5.309143999999991,234
46.516663999999935,5.309143999999991,225
45.54466399999994,6.60514399999999,321
45.54466399999994,5.309143999999991,231
43.60066399999995,4.013143999999992,281
43.60066399999995,3.365143999999992,297
42.62866399999996,2.717143999999992,385
43.276663999999954,2.717143999999992,332
45.54466399999994,4.661143999999991,216
45.22066399999994,4.661143999999991,215
47.16466399999993,5.309143999999991,177
47.16466399999993,5.957143999999991,207
46.19266399999994,7.90114399999999,268
49.75666399999992,2.717143999999992,52
49.10866399999992,2.717143999999992,95
48.78466399999992,2.717143999999992,126
45.86866399999994,3.365143999999992,294
46.84066399999993,3.365143999999992,242
46.516663999999935,3.365143999999992,274
46.19266399999994,3.365143999999992,269
47.16466399999993,6.60514399999999,255
49.10866399999992,3.365143999999992,137
45.54466399999994,4.013143999999992,229
46.516663999999935,7.25314399999999,268
47.16466399999993,4.661143999999991,183
46.84066399999993,4.661143999999991,186
46.516663999999935,4.661143999999991,201
46.84066399999993,5.957143999999991,217
47.81266399999993,3.365143999999992,169
47.48866399999993,4.013143999999992,229
48.136663999999925,4.013143999999992,164
47.81266399999993,4.013143999999992,203
47.48866399999993,4.661143999999991,238
47.16466399999993,3.365143999999992,265
46.84066399999993,4.013143999999992,260
48.46066399999992,5.957143999999991,186
46.19266399999994,2.717143999999992,305
47.16466399999993,2.0691439999999925,182
46.516663999999935,2.717143999999992,279
46.84066399999993,2.717143999999992,259
46.84066399999993,2.0691439999999925,226
47.16466399999993,2.717143999999992,204
44.572663999999946,5.309143999999991,272
44.572663999999946,5.957143999999991,369
44.89666399999994,6.60514399999999,387
44.572663999999946,6.60514399999999,870
43.60066399999995,5.309143999999991,282
43.92466399999995,7.25314399999999,921
43.60066399999995,6.60514399999999,912
43.276663999999954,6.60514399999999,899
43.276663999999954,5.957143999999991,322
45.86866399999994,8.54914399999999,365
45.54466399999994,8.54914399999999,385
48.136663999999925,3.365143999999992,144
48.46066399999992,3.365143999999992,132
48.46066399999992,2.717143999999992,107
47.48866399999993,5.309143999999991,216
46.516663999999935,9.845143999999989,284
46.84066399999993,10.493143999999988,851
47.81266399999993,5.309143999999991,293
45.22066399999994,6.60514399999999,359
46.19266399999994,4.013143999999992,222
45.86866399999994,4.013143999999992,221
45.22066399999994,4.013143999999992,281
44.89666399999994,4.013143999999992,337
46.84066399999993,5.309143999999991,181
48.136663999999925,-1.8188560000000056,189
48.136663999999925,0.1251439999999934,130
48.136663999999925,-0.5228560000000062,161
47.48866399999993,-0.5228560000000062,190
47.16466399999993,-1.8188560000000056,201
47.48866399999993,0.7731439999999932,155
47.16466399999993,0.1251439999999934,181
45.86866399999994,7.25314399999999,383
48.136663999999925,5.309143999999991,273
49.10866399999992,4.661143999999991,139
48.46066399999992,4.013143999999992,144
48.136663999999925,4.661143999999991,263
47.81266399999993,6.60514399999999,253
47.48866399999993,5.957143999999991,370
48.136663999999925,5.957143999999991,1406
45.86866399999994,7.90114399999999,287
46.516663999999935,7.90114399999999,257
49.43266399999992,3.365143999999992,85
49.43266399999992,4.013143999999992,101
48.136663999999925,2.717143999999992,171
47.81266399999993,2.717143999999992,201
47.48866399999993,2.717143999999992,220
50.40466399999991,2.717143999999992,13
48.46066399999992,-4.410856000000004,325
48.46066399999992,-3.7628560000000046,295
48.46066399999992,-3.114856000000005,281
48.46066399999992,-2.4668560000000053,249
47.48866399999993,1.4211439999999929,177
47.16466399999993,1.4211439999999929,195
46.516663999999935,4.013143999999992,205
43.60066399999995,4.661143999999991,285
44.89666399999994,2.717143999999992,485
45.22066399999994,2.717143999999992,844
45.54466399999994,3.365143999999992,350
45.22066399999994,3.365143999999992,370
47.48866399999993,3.365143999999992,296
46.19266399999994,9.845143999999989,893
47.81266399999993,2.0691439999999925,144
47.48866399999993,2.0691439999999925,159
45.86866399999994,2.717143999999992,863
44.89666399999994,5.957143999999991,851
45.22066399999994,1.4211439999999929,358
44.89666399999994,1.4211439999999929,393
44.89666399999994,2.0691439999999925,414
43.276663999999954,2.0691439999999925,396
43.60066399999995,1.4211439999999929,442
48.78466399999992,4.661143999999991,162
48.78466399999992,5.309143999999991,191
46.19266399999994,2.0691439999999925,319
45.86866399999994,1.4211439999999929,295
46.19266399999994,1.4211439999999929,291
44.572663999999946,4.013143999999992,1053
44.89666399999994,3.365143999999992,994
43.92466399999995,4.013143999999992,332
44.24866399999995,4.013143999999992,314
44.89666399999994,-0.5228560000000062,248
45.54466399999994,0.1251439999999934,210
46.516663999999935,0.1251439999999934,199
44.572663999999946,2.0691439999999925,442
49.75666399999992,4.013143999999992,65
43.92466399999995,3.365143999999992,936
43.92466399999995,2.717143999999992,967
44.24866399999995,3.365143999999992,992
44.572663999999946,3.365143999999992,1037
49.10866399999992,0.1251439999999934,175
49.43266399999992,0.7731439999999932,164
49.43266399999992,-1.8188560000000056,237
49.10866399999992,-1.170856000000006,222
49.10866399999992,-0.5228560000000062,202
49.10866399999992,0.7731439999999932,160
49.10866399999992,1.4211439999999929,128
47.81266399999993,-1.8188560000000056,241
47.81266399999993,-2.4668560000000053,267
47.81266399999993,-3.114856000000005,293
48.136663999999925,-3.7628560000000046,339
44.572663999999946,9.197143999999987,896
44.89666399999994,8.54914399999999,831
45.22066399999994,9.197143999999987,379
45.54466399999994,10.493143999999988,847
44.572663999999946,10.493143999999988,1318
44.89666399999994,10.493143999999988,913
44.89666399999994,9.845143999999989,401
48.46066399999992,5.309143999999991,260
50.91599999999999,-1.0580000000000025,65535
51.23999999999999,-0.4100000000000028,65535
50.91599999999999,-0.4100000000000028,65535
51.23999999999999,-2.354000000000002,65535
51.56399999999999,-2.354000000000002,65535
51.56399999999999,-3.0020000000000016,65535
50.91599999999999,-2.354000000000002,65535
53.50799999999997,-3.0020000000000016,65535
53.183999999999976,-2.354000000000002,65535
53.183999999999976,-3.0020000000000016,65535
52.85999999999998,-2.354000000000002,65535
52.21199999999998,-1.0580000000000025,65535
51.887999999999984,-1.0580000000000025,65535
52.53599999999998,-1.0580000000000025,65535
52.53599999999998,-1.7060000000000022,65535
52.85999999999998,-1.7060000000000022,65535
53.50799999999997,-2.354000000000002,65535
52.85999999999998,-1.0580000000000025,65535
52.53599999999998,1.5339999999999965,65535
52.53599999999998,0.8859999999999966,65535
52.53599999999998,0.2379999999999968,65535
52.53599999999998,-0.4100000000000028,65535
53.50799999999997,-1.7060000000000022,65535
53.183999999999976,-1.7060000000000022,65535
53.183999999999976,-1.0580000000000025,65535
52.85999999999998,-0.4100000000000028,65535
51.887999999999984,-2.354000000000002,65535
52.21199999999998,-2.354000000000002,65535
55.77599999999996,-2.354000000000002,65535
53.83199999999997,-1.0580000000000025,65535
53.83199999999997,-1.7060000000000022,65535
55.127999999999965,-1.7060000000000022,65535
54.80399999999997,-1.7060000000000022,65535
54.47999999999997,-1.7060000000000022,65535
54.15599999999997,-1.0580000000000025,65535
52.21199999999998,-1.7060000000000022,65535
53.50799999999997,-1.0580000000000025,65535
55.77599999999996,-3.0020000000000016,65535
55.45199999999996,-1.7060000000000022,65535
57.07199999999995,-2.354000000000002,65535
56.74799999999996,-3.0020000000000016,65535
56.42399999999996,-3.0020000000000016,65535
56.09999999999996,-3.650000000000001,65535
50.91599999999999,-3.0020000000000016,65535
50.91599999999999,-3.650000000000001,65535
50.59199999999999,-3.650000000000001,65535
50.59199999999999,-4.298000000000001,65535
51.23999999999999,-3.0020000000000016,65535
50.268,-4.946000000000001,65535
55.77599999999996,-3.650000000000001,65535
55.77599999999996,-4.298000000000001,65535
52.21199999999998,-0.4100000000000028,65535
52.53599999999998,-2.354000000000002,65535
51.56399999999999,-1.7060000000000022,65535
51.56399999999999,-3.650000000000001,65535
51.887999999999984,-4.298000000000001,65535
51.56399999999999,-4.298000000000001,65535
51.887999999999984,-1.7060000000000022,65535
52.21199999999998,-3.0020000000000016,65535
51.23999999999999,0.2379999999999968,65535
50.91599999999999,0.2379999999999968,65535
52.21199999999998,0.2379999999999968,65535
53.83199999999997,-3.0020000000000016,65535
54.15599999999997,-3.0020000000000016,65535
54.47999999999997,-3.0020000000000016,65535
55.127999999999965,-3.650000000000001,65535
54.80399999999997,-3.0020000000000016,65535
53.83199999999997,-2.354000000000002,65535
54.15599999999997,-0.4100000000000028,65535
54.47999999999997,-1.0580000000000025,65535
53.83199999999997,-0.4100000000000028,65535
53.183999999999976,-3.650000000000001,65535
53.183999999999976,-4.298000000000001,65535
52.85999999999998,-3.0020000000000016,65535
52.53599999999998,-3.0020000000000016,65535
51.887999999999984,-3.0020000000000016,65535
51.23999999999999,0.8859999999999966,65535
51.887999999999984,0.2379999999999968,65535
52.21199999999998,0.8859999999999966,65535
51.887999999999984,-4.946000000000001,65535
52.53599999999998,-3.650000000000001,65535
52.21199999999998,-4.298000000000001,65535
53.183999999999976,-0.4100000000000028,65535
51.23999999999999,-3.650000000000001,65535
51.887999999999984,-3.650000000000001,65535
52.21199999999998,-3.650000000000001,65535
51.56399999999999,0.8859999999999966,65535
51.887999999999984,0.8859999999999966,65535
52.85999999999998,0.8859999999999966,65535
53.50799999999997,-0.4100000000000028,65535
56.09999999999996,-4.298000000000001,65535
56.74799999999996,-4.946000000000001,65535
56.74799999999996,-4.298000000000001,65535
56.42399999999996,-4.946000000000001,65535
56.42399999999996,-4.298000000000001,65535
56.09999999999996,-4.946000000000001,65535
57.39599999999995,-4.298000000000001,65535
57.39599999999995,-3.0020000000000016,65535
57.39599999999995,-3.650000000000001,65535
56.42399999999996,-3.650000000000001,65535
57.07199999999995,-3.650000000000001,65535
57.07199999999995,-4.298000000000001,65535
56.74799999999996,-3.650000000000001,65535
59.15266399999986,27.34114399999998,65535
59.47666399999986,26.69314399999997,65535
59.47666399999986,26.04514399999998,65535
59.15266399999986,26.04514399999998,65535
59.15266399999986,24.74914399999998,65535
59.15266399999986,25.397143999999983,65535
59.47666399999986,25.397143999999983,65535
58.50466399999986,26.69314399999997,65535
58.82866399999986,26.69314399999997,65535
57.85666399999987,26.04514399999998,65535
58.180663999999865,26.04514399999998,65535
58.180663999999865,26.69314399999997,65535
58.82866399999986,26.04514399999998,65535
58.50466399999986,25.397143999999983,65535
58.82866399999986,25.397143999999983,65535
58.82866399999986,24.74914399999998,65535
58.180663999999865,27.34114399999998,65535
57.85666399999987,27.34114399999998,65535
63.68866399999983,27.34114399999998,7077
60.124663999999854,24.74914399999998,3733
60.44866399999985,24.74914399999998,3702
60.44866399999985,25.397143999999983,3714
60.77266399999985,25.397143999999983,4425
61.09666399999985,26.04514399999998,4468
60.77266399999985,26.04514399999998,4476
60.77266399999985,26.69314399999997,4495
61.09666399999985,25.397143999999983,4459
61.09666399999985,26.69314399999997,7198
61.420663999999846,26.69314399999997,7220
61.74466399999984,27.34114399999998,7244
62.06866399999984,27.34114399999998,7269
62.39266399999984,27.34114399999998,7293
62.71666399999984,27.34114399999998,7257
64.01266399999983,27.34114399999998,7033
63.36466399999984,27.34114399999998,7145
63.04066399999984,27.34114399999998,7185
63.04066399999984,27.989143999999985,7200
64.33666399999983,27.989143999999985,4784
64.33666399999983,27.34114399999998,4729
64.66066399999983,27.34114399999998,4714
64.66066399999983,26.69314399999997,4659
64.98466399999982,25.397143999999983,3079
64.66066399999983,26.04514399999998,4640
64.98466399999982,26.04514399999998,4624
66.28066399999982,25.397143999999983,3251
65.95666399999982,24.74914399999998,2992
65.63266399999982,24.74914399999998,2996
65.63266399999982,25.397143999999983,3038
65.30866399999982,25.397143999999983,3059
66.60466399999981,25.397143999999983,3285
64.01266399999983,24.74914399999998,3216
64.01266399999983,24.101143999999977,3251
64.01266399999983,23.45314399999998,3275
63.68866399999983,23.45314399999998,3287
63.68866399999983,22.805143999999984,3312
63.68866399999983,26.04514399999998,5344
63.68866399999983,25.397143999999983,5310
63.68866399999983,26.69314399999997,7044
60.44866399999985,26.69314399999997,7829
64.01266399999983,27.989143999999985,7463
62.71666399999984,22.805143999999984,3434
62.39266399999984,22.805143999999984,3466
62.06866399999984,22.805143999999984,3495
62.06866399999984,23.45314399999998,3511
61.74466399999984,23.45314399999998,3523
61.420663999999846,23.45314399999998,3571
61.09666399999985,23.45314399999998,3612
61.09666399999985,24.101143999999977,3619
61.09666399999985,24.74914399999998,3653
60.77266399999985,24.74914399999998,3669
63.04066399999984,21.50914399999997,65535
63.04066399999984,22.15714399999998,65535
63.04066399999984,22.805143999999984,3398
62.39266399999984,26.04514399999998,7441
62.06866399999984,25.397143999999983,7490
61.74466399999984,25.397143999999983,7558
61.74466399999984,24.74914399999998,7595
61.74466399999984,24.101143999999977,3800
61.420663999999846,24.101143999999977,3755
62.39266399999984,26.69314399999997,7412
64.66066399999983,25.397143999999983,3148
64.66066399999983,24.74914399999998,3166
64.33666399999983,24.74914399999998,3177
63.36466399999984,22.805143999999984,3337
67.25266399999981,24.101143999999977,6865
66.92866399999981,24.101143999999977,6829
66.60466399999981,23.45314399999998,6798
66.28066399999982,23.45314399999998,6780
66.28066399999982,24.101143999999977,6762
65.95666399999982,24.101143999999977,2364
60.124663999999854,24.101143999999977,5247
60.124663999999854,23.45314399999998,6105
60.44866399999985,22.805143999999984,6164
60.77266399999985,27.34114399999998,4547
61.09666399999985,27.989143999999985,4577
61.09666399999985,28.63714399999997,4615
61.420663999999846,29.28514399999997,4650
61.74466399999984,29.933143999999977,4687
62.06866399999984,29.933143999999977,4713
62.39266399999984,29.933143999999977,4729
62.71666399999984,29.933143999999977,4753
61.420663999999846,22.805143999999984,5858
61.420663999999846,22.15714399999998,6566
61.09666399999985,22.15714399999998,5904
61.420663999999846,21.50914399999997,6699
62.39266399999984,27.989143999999985,65535
62.06866399999984,27.989143999999985,65535
61.420663999999846,27.34114399999998,65535
63.04066399999984,29.933143999999977,6692
63.68866399999983,29.28514399999997,8475
63.36466399999984,29.28514399999997,8455
63.36466399999984,29.933143999999977,8414
60.44866399999985,27.34114399999998,65535
61.74466399999984,29.28514399999997,65535
62.39266399999984,30.58114399999998,65535
62.71666399999984,31.229143999999977,65535
62.71666399999984,29.28514399999997,65535
63.04066399999984,28.63714399999997,65535
66.60466399999981,26.04514399999998,6106
66.60466399999981,26.69314399999997,6142
66.60466399999981,27.34114399999998,6165
62.71666399999984,26.04514399999998,7326
62.71666399999984,25.397143999999983,7295
63.04066399999984,25.397143999999983,7115
63.36466399999984,25.397143999999983,5752
62.71666399999984,23.45314399999998,7320
62.39266399999984,24.101143999999977,65535
62.71666399999984,22.15714399999998,65535
62.39266399999984,22.15714399999998,65535
62.39266399999984,21.50914399999997,65535
61.09666399999985,21.50914399999997,5934
60.77266399999985,22.805143999999984,3972
60.44866399999985,22.15714399999998,4002
60.77266399999985,23.45314399999998,3959
60.77266399999985,21.50914399999997,5073
60.77266399999985,22.15714399999998,5026
60.124663999999854,22.805143999999984,8119
60.44866399999985,24.101143999999977,5232
62.06866399999984,24.74914399999998,65535
50.72866399999991,16.325143999999987,400
50.40466399999991,16.973143999999984,482
50.72866399999991,16.973143999999984,444
50.40466399999991,16.325143999999987,775
50.08066399999991,16.973143999999984,971
50.08066399999991,16.325143999999987,873
51.700663999999904,16.973143999999984,420
51.37666399999991,16.973143999999984,434
51.05266399999991,15.677143999999986,461
50.72866399999991,15.677143999999986,449
51.05266399999991,17.621143999999987,420
51.37666399999991,17.621143999999987,461
51.700663999999904,17.621143999999987,501
51.700663999999904,16.325143999999987,339
52.0246639999999,22.15714399999998,1018
52.0246639999999,21.50914399999997,1014
52.3486639999999,21.50914399999997,1014
52.0246639999999,20.86114399999998,1008
51.700663999999904,20.86114399999998,990
51.37666399999991,21.50914399999997,972
51.37666399999991,20.86114399999998,960
51.05266399999991,20.86114399999998,966
52.6726639999999,23.45314399999998,1267
52.3486639999999,22.805143999999984,1209
52.3486639999999,20.213143999999986,1032
52.0246639999999,20.213143999999986,1025
52.3486639999999,19.565143999999982,1087
52.6726639999999,19.565143999999982,1179
51.700663999999904,21.50914399999997,994
51.700663999999904,22.15714399999998,1000
52.6726639999999,21.50914399999997,1053
52.996663999999896,21.50914399999997,1140
52.6726639999999,20.86114399999998,1045
52.6726639999999,22.15714399999998,1069
52.6726639999999,20.213143999999986,1179
52.996663999999896,19.565143999999982,1230
52.996663999999896,20.86114399999998,1078
52.996663999999896,20.213143999999986,1087
53.32066399999989,20.213143999999986,1120
51.37666399999991,20.213143999999986,941
52.3486639999999,16.973143999999984,755
52.0246639999999,16.973143999999984,742
52.0246639999999,16.325143999999987,721
52.0246639999999,17.621143999999987,755
52.6726639999999,16.973143999999984,764
52.996663999999896,16.973143999999984,814
52.3486639999999,16.325143999999987,773
52.3486639999999,15.677143999999986,825
51.700663999999904,18.269143999999983,858
52.6726639999999,17.621143999999987,785
52.3486639999999,17.621143999999987,780
52.6726639999999,18.269143999999983,819
52.3486639999999,18.269143999999983,859
52.3486639999999,18.917143999999983,904
52.996663999999896,17.621143999999987,863
51.700663999999904,19.565143999999982,940
51.700663999999904,18.917143999999983,906
51.37666399999991,18.269143999999983,867
58.82866399999986,9.197143999999987,1328
58.180663999999865,7.90114399999999,1421
58.50466399999986,8.54914399999999,1372
63.36466399999984,10.493143999999988,1543
63.36466399999984,11.141143999999988,1550
63.36466399999984,11.789143999999988,1585
63.68866399999983,11.789143999999988,1613
64.33666399999983,12.437143999999988,2014
64.66066399999983,12.437143999999988,2509
65.63266399999982,13.085143999999987,2166
65.95666399999982,13.085143999999987,2201
66.28066399999982,14.381143999999988,2271
65.95666399999982,13.733143999999989,2340
66.28066399999982,13.733143999999989,2249
65.30866399999982,13.085143999999987,2467
64.98466399999982,13.085143999999987,2101
64.01266399999983,11.789143999999988,1644
63.68866399999983,11.141143999999988,1581
59.800663999999855,10.493143999999988,1124
59.800663999999855,11.141143999999988,1107
60.124663999999854,11.141143999999988,1122
60.44866399999985,11.141143999999988,1135
60.124663999999854,11.789143999999988,1148
60.77266399999985,7.25314399999999,1384
60.77266399999985,6.60514399999999,1430
59.15266399999986,9.197143999999987,1210
59.47666399999986,9.197143999999987,1231
59.800663999999855,9.845143999999989,1126
59.47666399999986,11.141143999999988,1071
61.09666399999985,10.493143999999988,1245
60.77266399999985,10.493143999999988,1215
60.77266399999985,11.141143999999988,1170
62.06866399999984,9.197143999999987,1570
61.74466399999984,9.845143999999989,1516
61.420663999999846,9.845143999999989,1493
59.15266399999986,9.845143999999989,1190
59.47666399999986,9.845143999999989,1166
58.82866399999986,5.957143999999991,1605
58.180663999999865,7.25314399999999,1477
58.50466399999986,7.25314399999999,1510
58.50466399999986,6.60514399999999,1515
58.50466399999986,5.957143999999991,1573
58.82866399999986,8.54914399999999,1358
60.44866399999985,7.25314399999999,1358
60.44866399999985,7.90114399999999,1319
60.124663999999854,10.493143999999988,1156
60.44866399999985,9.197143999999987,1268
60.77266399999985,9.197143999999987,1280
60.77266399999985,8.54914399999999,1299
60.124663999999854,9.845143999999989,1535
60.44866399999985,10.493143999999988,1201
63.04066399999984,10.493143999999988,1494
62.06866399999984,9.845143999999989,1595
62.39266399999984,9.845143999999989,1603
62.71666399999984,9.845143999999989,1627
59.47666399999986,14.381143999999988,1120
59.47666399999986,13.733143999999989,1061
59.47666399999986,13.085143999999987,1037
59.800663999999855,12.437143999999988,1106
59.15266399999986,11.141143999999988,1035
59.15266399999986,14.381143999999988,1134
58.82866399999986,11.789143999999988,1015
58.50466399999986,12.437143999999988,945
58.180663999999865,12.437143999999988,938
57.85666399999987,11.789143999999988,889
62.71666399999984,7.90114399999999,1656
62.39266399999984,7.90114399999999,1613
62.06866399999984,8.54914399999999,1588
60.44866399999985,5.309143999999991,1504
60.44866399999985,5.957143999999991,1471
60.77266399999985,5.957143999999991,1460
62.39266399999984,11.141143999999988,1391
62.06866399999984,10.493143999999988,1346
61.74466399999984,11.141143999999988,1319
61.420663999999846,11.141143999999988,1273
61.09666399999985,11.141143999999988,1256
60.77266399999985,11.789143999999988,1233
63.04066399999984,11.141143999999988,1472
62.71666399999984,11.141143999999988,1415
62.39266399999984,10.493143999999988,1373
67.25266399999981,15.677143999999986,2390
67.25266399999981,15.029143999999986,2428
67.25266399999981,14.381143999999988,2456
66.92866399999981,15.029143999999986,2379
66.60466399999981,15.677143999999986,2357
64.01266399999983,11.141143999999988,1628
66.60466399999981,15.029143999999986,2420
54.29266399999989,18.269143999999983,1038
54.616663999999886,17.621143999999987,1016
53.96866399999989,18.269143999999983,975
43.92466399999995,1.4211439999999929,422
44.24866399999995,0.7731439999999932,370
44.572663999999946,0.1251439999999934,322
46.84066399999993,1.4211439999999929,223
44.572663999999946,1.4211439999999929,910
44.24866399999995,1.4211439999999929,894
45.54466399999994,1.4211439999999929,396
46.516663999999935,1.4211439999999929,240
42.30466399999996,2.717143999999992,991
44.24866399999995,2.717143999999992,528
44.572663999999946,2.717143999999992,503
43.92466399999995,2.0691439999999925,879
42.30466399999996,2.0691439999999925,1032
42.62866399999996,2.0691439999999925,939
42.62866399999996,1.4211439999999929,932
42.95266399999996,1.4211439999999929,925
43.276663999999954,1.4211439999999929,870
46.516663999999935,-1.170856000000006,265
46.19266399999994,-1.170856000000006,245
45.86866399999994,-0.5228560000000062,272
45.54466399999994,-0.5228560000000062,259
48.46066399999992,1.4211439999999929,85
41.332663999999966,2.0691439999999925,1234
41.98066399999996,2.717143999999992,1193
48.46066399999992,-1.8188560000000056,235
47.81266399999993,0.7731439999999932,133
46.84066399999993,0.7731439999999932,224
44.572663999999946,-1.170856000000006,265
43.60066399999995,-1.170856000000006,328
43.276663999999954,-1.8188560000000056,375
43.276663999999954,0.1251439999999934,439
42.95266399999996,0.1251439999999934,413
43.276663999999954,-0.5228560000000062,385
43.60066399999995,-0.5228560000000062,362
47.81266399999993,-3.7628560000000046,307
47.48866399999993,-2.4668560000000053,275
47.81266399999993,-0.5228560000000062,180
46.516663999999935,-1.8188560000000056,316
48.136663999999925,-1.170856000000006,191
47.48866399999993,-1.170856000000006,223
45.22066399999994,8.54914399999999,428
45.22066399999994,7.90114399999999,439
46.19266399999994,-0.5228560000000062,201
46.516663999999935,-0.5228560000000062,234
48.78466399999992,-3.114856000000005,312
50.72866399999991,2.0691439999999925,33
50.40466399999991,2.0691439999999925,62
40.36066399999997,-3.7628560000000046,1425
41.65666399999997,-1.170856000000006,1342
41.332663999999966,1.4211439999999929,1280
43.276663999999954,13.733143999999989,3910
42.95266399999996,13.733143999999989,3932
41.65666399999997,15.029143999999986,4016
40.68466399999997,17.621143999999987,4178
43.60066399999995,13.085143999999987,3903
41.65666399999997,12.437143999999988,2569
41.65666399999997,13.085143999999987,2588
41.98066399999996,13.085143999999987,2638
41.65666399999997,13.733143999999989,2640
41.332663999999966,13.733143999999989,2632
41.332663999999966,14.381143999999988,2789
41.00866399999997,14.381143999999988,2695
41.332663999999966,13.085143999999987,2614
41.00866399999997,15.029143999999986,2895
41.98066399999996,13.733143999999989,2837
42.30466399999996,14.381143999999988,2976
42.30466399999996,12.437143999999988,2577
42.62866399999996,12.437143999999988,2756
42.95266399999996,12.437143999999988,3041
42.30466399999996,11.789143999999988,2586
42.95266399999996,11.789143999999988,2796
42.62866399999996,11.789143999999988,2787
43.276663999999954,11.789143999999988,2850
42.95266399999996,13.085143999999987,3804
42.30466399999996,13.085143999999987,2863
43.276663999999954,13.085143999999987,3852
43.276663999999954,12.437143999999988,3859
42.62866399999996,11.141143999999988,2632
42.95266399999996,11.141143999999988,2675
42.95266399999996,10.493143999999988,2693
44.572663999999946,8.54914399999999,890
44.89666399999994,7.90114399999999,453
44.89666399999994,9.197143999999987,435
44.24866399999995,7.90114399999999,868
44.572663999999946,7.90114399999999,486
43.92466399999995,7.90114399999999,963
44.24866399999995,7.25314399999999,526
44.89666399999994,7.25314399999999,858
45.22066399999994,7.25314399999999,778
45.54466399999994,7.90114399999999,840
44.572663999999946,7.25314399999999,862
52.996663999999896,22.805143999999984,1368
52.996663999999896,23.45314399999998,1391
51.37666399999991,22.15714399999998,1075
51.37666399999991,22.805143999999984,1130
50.08066399999991,20.213143999999986,824
50.72866399999991,20.213143999999986,912
50.40466399999991,20.213143999999986,877
50.08066399999991,20.86114399999998,873
50.08066399999991,21.50914399999997,880
50.08066399999991,22.15714399999998,890
50.08066399999991,22.805143999999984,907
53.96866399999989,22.805143999999984,1827
53.64466399999989,23.45314399999998,1498
53.32066399999989,23.45314399999998,1444
50.40466399999991,19.565143999999982,785
50.08066399999991,18.917143999999983,775
50.08066399999991,18.269143999999983,534
52.0246639999999,22.805143999999984,1081
52.0246639999999,23.45314399999998,1119
51.37666399999991,19.565143999999982,941
51.05266399999991,19.565143999999982,895
50.72866399999991,18.917143999999983,856
50.72866399999991,19.565143999999982,893
49.75666399999992,18.917143999999983,775
50.40466399999991,18.269143999999983,505
53.64466399999989,19.565143999999982,1012
53.96866399999989,18.917143999999983,1007
53.64466399999989,18.917143999999983,983
53.64466399999989,20.213143999999986,1050
52.996663999999896,18.917143999999983,889
52.996663999999896,18.269143999999983,866
53.32066399999989,18.917143999999983,892
50.72866399999991,17.621143999999987,426
50.72866399999991,18.269143999999983,731
52.6726639999999,16.325143999999987,725
52.996663999999896,16.325143999999987,380
52.996663999999896,15.677143999999986,354
53.32066399999989,15.677143999999986,777
53.32066399999989,15.029143999999986,768
53.64466399999989,15.029143999999986,801
53.96866399999989,15.029143999999986,810
52.6726639999999,18.917143999999983,910
53.32066399999989,16.325143999999987,836
52.6726639999999,15.029143999999986,286
51.05266399999991,22.805143999999984,1177
51.05266399999991,23.45314399999998,1204
50.72866399999991,22.15714399999998,1286
50.40466399999991,22.15714399999998,1325
51.05266399999991,22.15714399999998,1127
54.616663999999886,16.973143999999984,892
54.29266399999989,16.325143999999987,835
53.96866399999989,15.677143999999986,825
50.72866399999991,21.50914399999997,1296
50.40466399999991,21.50914399999997,915
50.40466399999991,17.621143999999987,855
53.32066399999989,22.805143999999984,1583
53.64466399999989,22.15714399999998,1445
54.29266399999989,16.973143999999984,880
50.72866399999991,20.86114399999998,971
51.700663999999904,22.805143999999984,1351
51.05266399999991,21.50914399999997,1065
50.08066399999991,19.565143999999982,793
52.0246639999999,18.917143999999983,8008
52.0246639999999,19.565143999999982,8001
53.64466399999989,18.269143999999983,968
51.700663999999904,20.213143999999986,981
53.32066399999989,19.565143999999982,1002
50.72866399999991,23.45314399999998,1411
50.72866399999991,22.805143999999984,1380
49.43266399999992,20.213143999999986,798
49.75666399999992,21.50914399999997,957
49.75666399999992,22.15714399999998,1351
49.43266399999992,22.15714399999998,1212
51.05266399999991,18.917143999999983,933
51.05266399999991,18.269143999999983,464
53.32066399999989,16.973143999999984,820
53.64466399999989,16.973143999999984,862
49.75666399999992,20.86114399999998,927
50.40466399999991,22.805143999999984,8090
53.64466399999989,16.325143999999987,866
53.96866399999989,20.86114399999998,1302
54.29266399999989,20.86114399999998,1348
53.96866399999989,21.50914399999997,1368
53.64466399999989,15.677143999999986,817
53.96866399999989,20.213143999999986,1105
53.96866399999989,19.565143999999982,1141
54.29266399999989,19.565143999999982,1155
53.96866399999989,16.325143999999987,833
53.64466399999989,17.621143999999987,874
53.96866399999989,22.15714399999998,1435
53.64466399999989,21.50914399999997,1400
53.64466399999989,20.86114399999998,1354
52.6726639999999,15.677143999999986,337
51.05266399999991,20.213143999999986,1057
54.940663999999884,24.101143999999977,3201
54.616663999999886,23.45314399999998,3145
54.29266399999989,23.45314399999998,3008
53.64466399999989,22.805143999999984,1585
53.96866399999989,16.973143999999984,993
50.40466399999991,20.86114399999998,1048
53.32066399999989,18.269143999999983,936
49.75666399999992,19.565143999999982,823
50.40466399999991,23.45314399999998,1516
49.75666399999992,20.213143999999986,802
49.43266399999992,19.565143999999982,777
49.43266399999992,20.86114399999998,879
53.96866399999989,17.621143999999987,1054
42.30466399999996,-1.8188560000000056,8319
41.98066399999996,-1.8188560000000056,8302
41.65666399999997,0.7731439999999932,8306
42.62866399999996,-1.8188560000000056,8434
42.95266399999996,-1.8188560000000056,8463
42.62866399999996,-3.114856000000005,8557
42.95266399999996,-2.4668560000000053,8535
42.62866399999996,-7.650856000000003,8899
42.30466399999996,-7.650856000000003,8959
42.30466399999996,-8.946856000000002,9095
42.30466399999996,-8.298856000000002,9069
41.98066399999996,-8.298856000000002,9058
42.30466399999996,-7.002856000000003,8841
42.62866399999996,-6.354856000000003,8783
42.30466399999996,-6.354856000000003,8738
42.62866399999996,-5.706856000000004,8238
41.98066399999996,-4.410856000000004,8192
42.30466399999996,-3.7628560000000046,8583
40.03666399999997,-0.5228560000000062,8286
39.38866399999998,-0.5228560000000062,8334
41.00866399999997,0.7731439999999932,8434
40.68466399999997,0.7731439999999932,8466
40.36066399999997,0.1251439999999934,8544
39.712663999999975,-0.5228560000000062,8443
38.41666399999998,-0.5228560000000062,8455
39.06466399999998,-0.5228560000000062,8577
38.74066399999998,-1.170856000000006,8463
41.332663999999966,0.7731439999999932,8494
41.65666399999997,2.717143999999992,8094
41.65666399999997,2.0691439999999925,8117
41.332663999999966,0.1251439999999934,8452
41.332663999999966,-0.5228560000000062,8396
41.65666399999997,-4.410856000000004,8166
40.03666399999997,-2.4668560000000053,8404
41.00866399999997,-4.410856000000004,8287
43.276663999999954,-5.706856000000004,8368
39.38866399999998,-1.170856000000006,8429
38.09266399999999,-1.170856000000006,8842
38.74066399999998,-0.5228560000000062,8605
37.76866399999999,-1.170856000000006,8907
39.06466399999998,-1.8188560000000056,8427
39.38866399999998,-3.114856000000005,8327
39.38866399999998,-2.4668560000000053,8383
39.06466399999998,-2.4668560000000053,8410
39.06466399999998,-3.114856000000005,8331
39.06466399999998,-3.7628560000000046,8305
38.74066399999998,-3.7628560000000046,8384
40.03666399999997,-3.7628560000000046,8283
40.03666399999997,-3.114856000000005,8483
40.03666399999997,-1.8188560000000056,8564
39.712663999999975,-1.8188560000000056,8529
39.712663999999975,-1.170856000000006,8465
40.36066399999997,-1.170856000000006,8484
40.68466399999997,-1.170856000000006,8462
41.00866399999997,-1.170856000000006,8450
41.332663999999966,-1.170856000000006,8290
43.276663999999954,-8.298856000000002,9059
42.95266399999996,-8.298856000000002,9027
41.65666399999997,-5.706856000000004,65535
41.98066399999996,-7.002856000000003,65535
41.98066399999996,-6.354856000000003,65535
41.332663999999966,-5.058856000000004,8405
43.276663999999954,-3.7628560000000046,8840
42.95266399999996,-4.410856000000004,8774
42.62866399999996,-4.410856000000004,8764
42.30466399999996,-4.410856000000004,8723
41.00866399999997,-5.706856000000004,8343
41.332663999999966,-1.8188560000000056,8236
40.68466399999997,-3.114856000000005,8190
41.00866399999997,-3.114856000000005,8241
41.00866399999997,-2.4668560000000053,8264
41.332663999999966,-2.4668560000000053,8317
40.68466399999997,-4.410856000000004,8227
40.36066399999997,-4.410856000000004,8311
40.68466399999997,-3.7628560000000046,8219
40.36066399999997,-3.114856000000005,8197
41.65666399999997,-2.4668560000000053,8334
38.09266399999999,-3.7628560000000046,8431
38.74066399999998,-3.114856000000005,8375
37.76866399999999,-3.7628560000000046,8488
39.712663999999975,-3.114856000000005,8319
38.41666399999998,-3.7628560000000046,8396
40.03666399999997,-4.410856000000004,65535
40.03666399999997,-5.058856000000004,65535
39.38866399999998,-6.354856000000003,65535
39.38866399999998,-7.002856000000003,65535
42.95266399999996,-3.114856000000005,8968
41.98066399999996,-1.170856000000006,8331
42.30466399999996,-2.4668560000000053,8372
41.65666399999997,-0.5228560000000062,8429
41.98066399999996,-0.5228560000000062,8266
41.65666399999997,0.1251439999999934,8293
41.98066399999996,0.1251439999999934,8315
37.76866399999999,-5.058856000000004,8367
36.79666399999999,-4.410856000000004,8426
38.74066399999998,-4.410856000000004,8323
37.12066399999999,-4.410856000000004,8400
37.44466399999999,-5.058856000000004,8924
37.44466399999999,-7.002856000000003,65535
37.44466399999999,-6.354856000000003,65535
37.44466399999999,-5.706856000000004,8600
39.712663999999975,-3.7628560000000046,8393
42.62866399999996,-8.946856000000002,65535
42.30466399999996,-5.706856000000004,8745
42.30466399999996,-5.058856000000004,8830
42.95266399999996,-5.706856000000004,8270
41.00866399999997,-5.058856000000004,8311
40.68466399999997,-5.058856000000004,8285
41.65666399999997,-5.058856000000004,65535
41.65666399999997,-6.354856000000003,65535
36.79666399999999,-6.354856000000003,65535
37.12066399999999,-5.706856000000004,8768
37.76866399999999,-5.706856000000004,8567
38.09266399999999,-4.410856000000004,8702
37.12066399999999,-5.058856000000004,8722
36.79666399999999,-5.058856000000004,8680
37.76866399999999,-4.410856000000004,65535
37.76866399999999,-7.002856000000003,65535
38.41666399999998,-6.354856000000003,65535
38.09266399999999,-6.354856000000003,65535
48.78466399999992,1.4211439999999929,144
56.23666399999988,8.54914399999999,6610
55.58866399999988,9.197143999999987,6415
55.91266399999988,9.197143999999987,6556
55.26466399999988,10.493143999999988,594
55.91266399999988,12.437143999999988,729
55.58866399999988,11.789143999999988,6255
55.58866399999988,11.141143999999988,6296
55.26466399999988,11.789143999999988,6288
55.58866399999988,10.493143999999988,6411
55.58866399999988,13.085143999999987,686
56.88466399999987,9.845143999999989,6562
57.20866399999987,9.845143999999989,6597
56.56066399999988,9.845143999999989,6534
56.88466399999987,8.54914399999999,6649
54.940663999999884,9.845143999999989,7756
54.940663999999884,11.789143999999988,6512
55.91266399999988,13.085143999999987,744
56.23666399999988,13.733143999999989,788
55.91266399999988,13.733143999999989,791
56.23666399999988,14.381143999999988,811
56.23666399999988,15.029143999999986,852
56.23666399999988,15.677143999999986,907
56.56066399999988,14.381143999999988,868
56.88466399999987,14.381143999999988,838
56.23666399999988,13.085143999999987,736
56.56066399999988,13.085143999999987,816
56.88466399999987,12.437143999999988,853
57.20866399999987,12.437143999999988,869
57.53266399999987,12.437143999999988,884
56.88466399999987,15.029143999999986,864
56.56066399999988,15.677143999999986,924
56.88466399999987,15.677143999999986,943
56.88466399999987,16.325143999999987,958
55.91266399999988,11.789143999999988,6581
57.20866399999987,10.493143999999988,6784
49.43266399999992,1.4211439999999929,144
49.75666399999992,0.7731439999999932,158
49.75666399999992,2.0691439999999925,59
50.08066399999991,2.717143999999992,41
49.75666399999992,1.4211439999999929,124
47.81266399999993,1.4211439999999929,148
48.136663999999925,2.0691439999999925,144
48.46066399999992,2.0691439999999925,114
48.136663999999925,1.4211439999999929,132
48.78466399999992,0.1251439999999934,203
48.46066399999992,0.1251439999999934,155
47.81266399999993,0.1251439999999934,142
46.84066399999993,-0.5228560000000062,224
47.16466399999993,0.7731439999999932,176
46.84066399999993,0.1251439999999934,231
46.84066399999993,-1.170856000000006,239
50.08066399999991,1.4211439999999929,97
50.08066399999991,2.0691439999999925,80
49.43266399999992,2.717143999999992,85
49.75666399999992,3.365143999999992,72
50.08066399999991,3.365143999999992,57
49.10866399999992,2.0691439999999925,123
49.43266399999992,2.0691439999999925,90
48.78466399999992,0.7731439999999932,219
48.78466399999992,-0.5228560000000062,225
48.78466399999992,-1.170856000000006,256
48.136663999999925,0.7731439999999932,133
48.46066399999992,0.7731439999999932,120
43.92466399999995,5.957143999999991,866
44.24866399999995,5.957143999999991,837
43.92466399999995,5.309143999999991,281
42.95266399999996,2.717143999999992,376
45.54466399999994,2.0691439999999925,377
45.22066399999994,2.0691439999999925,856
42.95266399999996,2.0691439999999925,930
42.95266399999996,0.7731439999999932,847
43.276663999999954,0.7731439999999932,858
46.19266399999994,0.7731439999999932,338
46.516663999999935,0.7731439999999932,308
45.86866399999994,0.1251439999999934,225
46.19266399999994,0.1251439999999934,218
47.81266399999993,-1.170856000000006,255
48.136663999999925,-2.4668560000000053,239
47.48866399999993,-1.8188560000000056,235
47.16466399999993,-1.170856000000006,203
47.16466399999993,-0.5228560000000062,234
46.84066399999993,-1.8188560000000056,256
45.22066399999994,-0.5228560000000062,266
44.89666399999994,0.1251439999999934,284
45.22066399999994,0.7731439999999932,342
45.54466399999994,0.7731439999999932,436
45.86866399999994,0.7731439999999932,932
45.22066399999994,0.1251439999999934,873
44.89666399999994,0.7731439999999932,406
43.92466399999995,-0.5228560000000062,348
43.92466399999995,-1.170856000000006,327
44.24866399999995,-1.170856000000006,308
45.22066399999994,-1.170856000000006,307
44.572663999999946,-0.5228560000000062,274
44.24866399999995,0.1251439999999934,345
44.572663999999946,0.7731439999999932,900
43.276663999999954,-1.170856000000006,890
42.95266399999996,-0.5228560000000062,1092
44.24866399999995,2.0691439999999925,879
43.60066399999995,0.7731439999999932,852
43.60066399999995,2.0691439999999925,853
52.6726639999999,4.661143999999991,6601
52.6726639999999,5.309143999999991,6624
51.700663999999904,5.309143999999991,6569
52.0246639999999,5.309143999999991,6581
52.3486639999999,5.309143999999991,6597
51.37666399999991,4.013143999999992,6577
52.3486639999999,5.957143999999991,6591
52.0246639999999,6.60514399999999,6621
52.6726639999999,5.957143999999991,6608
52.996663999999896,5.957143999999991,6621
53.32066399999989,5.957143999999991,6615
52.996663999999896,6.60514399999999,6597
53.32066399999989,6.60514399999999,6589
52.6726639999999,6.60514399999999,6617
52.996663999999896,5.309143999999991,6636
59.15266399999986,24.101143999999977,65535
56.88466399999987,24.101143999999977,65535
56.88466399999987,23.45314399999998,65535
56.88466399999987,22.805143999999984,65535
57.20866399999987,24.74914399999998,65535
56.88466399999987,24.74914399999998,65535
56.56066399999988,24.74914399999998,65535
56.56066399999988,25.397143999999983,65535
56.56066399999988,24.101143999999977,65535
56.56066399999988,23.45314399999998,65535
56.56066399999988,26.04514399999998,65535
56.88466399999987,26.04514399999998,65535
57.20866399999987,25.397143999999983,65535
57.53266399999987,25.397143999999983,65535
56.23666399999988,26.04514399999998,65535
56.23666399999988,26.69314399999997,65535
55.91266399999988,26.69314399999997,65535
56.56066399999988,26.69314399999997,65535
56.56066399999988,27.34114399999998,65535
56.56066399999988,27.989143999999985,65535
56.23666399999988,27.989143999999985,65535
55.91266399999988,27.34114399999998,65535
56.56066399999988,22.805143999999984,65535
56.56066399999988,22.15714399999998,65535
56.56066399999988,21.50914399999997,65535
57.20866399999987,26.69314399999997,65535
39.06466399999998,-8.946856000000002,65535
38.41666399999998,-8.298856000000002,65535
45.86866399999994,11.789143999999988,1588
46.19266399999994,11.789143999999988,1575
46.19266399999994,10.493143999999988,1615
45.22066399999994,18.269143999999983,1452
45.22066399999994,18.917143999999983,1493
45.54466399999994,16.973143999999984,1279
45.22066399999994,17.621143999999987,1396
45.86866399999994,16.325143999999987,1148
45.54466399999994,18.917143999999983,1493
45.54466399999994,16.325143999999987,1174
45.54466399999994,18.269143999999983,1400
44.89666399999994,18.917143999999983,1690
46.19266399999994,16.973143999999984,1239
46.19266399999994,16.325143999999987,1205
45.86866399999994,16.973143999999984,1198
45.86866399999994,17.621143999999987,1241
46.19266399999994,15.677143999999986,1113
46.516663999999935,16.325143999999987,1178
45.54466399999994,15.677143999999986,1197
45.22066399999994,15.029143999999986,1179
45.54466399999994,15.029143999999986,1161
45.22066399999994,15.677143999999986,1244
44.572663999999946,15.677143999999986,1579
44.24866399999995,15.677143999999986,1600
43.92466399999995,16.325143999999987,1664
44.89666399999994,15.677143999999986,1543
45.54466399999994,17.621143999999987,1366
45.22066399999994,16.325143999999987,1233
46.516663999999935,16.973143999999984,1308
45.86866399999994,18.269143999999983,1600
43.92466399999995,15.677143999999986,1766
45.22066399999994,13.733143999999989,1296
47.48866399999993,19.565143999999982,902
47.16466399999993,18.917143999999983,906
47.81266399999993,18.917143999999983,892
45.54466399999994,9.845143999999989,379
45.22066399999994,9.845143999999989,386
45.22066399999994,10.493143999999988,858
45.86866399999994,9.845143999999989,824
45.86866399999994,10.493143999999988,2358
48.78466399999992,21.50914399999997,890
49.10866399999992,20.213143999999986,861
49.10866399999992,18.917143999999983,737
48.46066399999992,17.621143999999987,794
49.43266399999992,17.621143999999987,973
49.10866399999992,17.621143999999987,832
48.136663999999925,18.269143999999983,835
49.10866399999992,18.269143999999983,786
49.43266399999992,18.269143999999983,798
49.43266399999992,16.973143999999984,763
49.75666399999992,16.973143999999984,921
49.75666399999992,16.325143999999987,814
50.08066399999991,15.677143999999986,443
50.08066399999991,15.029143999999986,418
49.43266399999992,18.917143999999983,710
47.81266399999993,20.86114399999998,1075
48.136663999999925,20.86114399999998,1010
48.46066399999992,20.86114399999998,997
48.46066399999992,21.50914399999997,904
49.10866399999992,19.565143999999982,753
48.136663999999925,17.621143999999987,781
48.78466399999992,22.15714399999998,1077
48.78466399999992,20.86114399999998,959
49.10866399999992,20.86114399999998,881
48.78466399999992,18.269143999999983,791
48.78466399999992,17.621143999999987,734
49.10866399999992,21.50914399999997,886
48.78466399999992,20.213143999999986,1310
48.46066399999992,20.213143999999986,1337
48.136663999999925,19.565143999999982,1605
48.46066399999992,19.565143999999982,1484
48.46066399999992,18.917143999999983,934
48.46066399999992,18.269143999999983,839
48.78466399999992,19.565143999999982,1250
48.78466399999992,18.917143999999983,992
47.81266399999993,18.269143999999983,847
49.10866399999992,22.15714399999998,1124
49.43266399999992,21.50914399999997,913
48.136663999999925,18.917143999999983,927
48.136663999999925,20.213143999999986,1625
52.636,-8.018,65535
52.312,-7.370000000000001,65535
52.312,-8.018,65535
52.636,-8.666,65535
51.988,-8.666,65535
51.988,-8.018,65535
52.96,-8.666,65535
52.96,-6.074000000000002,65535
53.28399999999999,-6.722000000000001,65535
53.60799999999999,-6.722000000000001,65535
53.60799999999999,-7.370000000000001,65535
53.60799999999999,-8.018,65535
54.25599999999999,-8.666,65535
53.93199999999999,-8.666,65535
53.93199999999999,-8.018,65535
52.312,-6.722000000000001,65535
52.636,-6.722000000000001,65535
53.93199999999999,-6.722000000000001,65535
54.25599999999999,-6.074000000000002,65535
53.28399999999999,-7.370000000000001,65535
52.96,-7.370000000000001,65535
52.312,-8.666,65535
52.96,-8.018,65535
52.636,-7.370000000000001,65535
52.96,-6.722000000000001,65535
51.988,-9.314,65535
52.312,-9.314,65535
54.579999999999984,-6.722000000000001,65535
54.579999999999984,-6.074000000000002,65535
53.28399999999999,-8.018,65535
53.28399999999999,-8.666,65535
53.28399999999999,-9.314,65535
53.93199999999999,-9.314,65535
54.25599999999999,-9.314,65535
53.60799999999999,-8.666,65535
53.60799999999999,-9.314,65535
49.43266399999992,14.381143999999988,526
49.75666399999992,14.381143999999988,446
49.75666399999992,15.029143999999986,437
49.75666399999992,13.733143999999989,445
50.08066399999991,13.733143999999989,441
49.75666399999992,15.677143999999986,425
50.40466399999991,15.029143999999986,409
49.43266399999992,13.733143999999989,496
50.40466399999991,15.677143999999986,743
50.40466399999991,13.733143999999989,448
46.19266399999994,15.029143999999986,1093
45.86866399999994,15.029143999999986,1152
45.86866399999994,14.381143999999988,1130
46.19266399999994,13.733143999999989,1185
45.86866399999994,13.733143999999989,1261
58.50466399999986,13.733143999999989,962
58.180663999999865,13.733143999999989,966
58.180663999999865,13.085143999999987,938
57.85666399999987,12.437143999999988,904
60.44866399999985,15.677143999999986,1187
60.124663999999854,15.677143999999986,1121
60.124663999999854,16.325143999999987,1159
59.800663999999855,16.325143999999987,1087
59.800663999999855,17.621143999999987,1066
59.47666399999986,18.269143999999983,1048
61.74466399999984,16.973143999999984,1198
61.420663999999846,16.973143999999984,1171
60.77266399999985,16.973143999999984,1123
65.63266399999982,22.15714399999998,2302
65.95666399999982,21.50914399999997,2262
65.63266399999982,20.86114399999998,2233
64.98466399999982,20.213143999999986,2165
64.66066399999983,20.213143999999986,2143
64.33666399999983,19.565143999999982,1837
64.01266399999983,19.565143999999982,1550
63.68866399999983,20.213143999999986,1503
64.66066399999983,18.917143999999983,2514
59.15266399999986,16.325143999999987,1023
59.15266399999986,15.029143999999986,1015
59.15266399999986,17.621143999999987,1040
57.53266399999987,14.381143999999988,864
57.53266399999987,15.029143999999986,884
61.09666399999985,14.381143999999988,1291
60.77266399999985,15.029143999999986,1242
60.44866399999985,15.029143999999986,1228
58.180663999999865,15.029143999999986,941
58.50466399999986,16.325143999999987,975
58.50466399999986,15.677143999999986,948
63.36466399999984,13.085143999999987,1535
63.04066399999984,14.381143999999988,1472
62.39266399999984,15.677143999999986,1394
63.36466399999984,13.733143999999989,1517
63.36466399999984,14.381143999999988,1489
62.71666399999984,15.677143999999986,1422
62.39266399999984,17.621143999999987,1256
59.800663999999855,15.677143999999986,1533
55.58866399999988,13.733143999999989,818
57.20866399999987,14.381143999999988,848
57.85666399999987,14.381143999999988,896
58.82866399999986,16.973143999999984,1032
58.82866399999986,16.325143999999987,1010
59.15266399999986,18.269143999999983,1044
60.44866399999985,17.621143999999987,1099
59.15266399999986,12.437143999999988,1003
59.15266399999986,13.085143999999987,1017
58.82866399999986,12.437143999999988,979
59.47666399999986,16.325143999999987,1049
58.82866399999986,14.381143999999988,1056
59.47666399999986,15.677143999999986,1038
63.36466399999984,18.917143999999983,1456
63.04066399999984,17.621143999999987,1411
62.71666399999984,17.621143999999987,1385
63.68866399999983,19.565143999999982,1489
62.39266399999984,16.973143999999984,1300
59.800663999999855,16.973143999999984,1075
59.47666399999986,17.621143999999987,1052
57.85666399999987,13.085143999999987,928
57.53266399999987,13.085143999999987,909
58.50466399999986,11.789143999999988,950
57.85666399999987,15.029143999999986,930
57.20866399999987,13.733143999999989,854
57.53266399999987,13.733143999999989,915
61.74466399999984,16.325143999999987,1294
61.420663999999846,16.325143999999987,1261
61.09666399999985,16.325143999999987,1250
61.09666399999985,16.973143999999984,1218
60.124663999999854,15.029143999999986,1396
66.60466399999981,20.86114399999998,2337
67.25266399999981,20.86114399999998,2405
67.90066399999981,20.213143999999986,2475
67.57666399999981,20.213143999999986,3100
59.800663999999855,15.029143999999986,1116
58.50466399999986,15.029143999999986,958
59.47666399999986,15.029143999999986,1101
60.44866399999985,16.325143999999987,1187
59.15266399999986,15.677143999999986,1045
57.85666399999987,13.733143999999989,956
58.82866399999986,13.733143999999989,1003
58.50466399999986,13.085143999999987,988
57.20866399999987,13.085143999999987,885
56.88466399999987,13.085143999999987,859
58.180663999999865,11.789143999999988,921
62.06866399999984,16.973143999999984,1289
65.95666399999982,23.45314399999998,2343
59.800663999999855,14.381143999999988,5411
59.800663999999855,18.269143999999983,1057
63.04066399999984,15.029143999999986,1440
62.71666399999984,15.029143999999986,1430
62.39266399999984,16.325143999999987,1363
63.36466399999984,12.437143999999988,1568
68.5486639999998,17.621143999999987,2688
68.5486639999998,18.269143999999983,2621
68.5486639999998,18.917143999999983,2598
68.2246639999998,18.917143999999983,2554
59.800663999999855,13.085143999999987,1120
60.124663999999854,13.085143999999987,1159
59.47666399999986,16.973143999999984,1061
59.15266399999986,16.973143999999984,1053
56.56066399999988,13.733143999999989,806
60.124663999999854,17.621143999999987,1076
57.85666399999987,16.325143999999987,1035
58.180663999999865,16.325143999999987,997
58.180663999999865,15.677143999999986,1005
57.20866399999987,16.325143999999987,1047
57.53266399999987,15.677143999999986,1065
57.85666399999987,15.677143999999986,1036
44.89666399999994,23.45314399999998,2485
44.572663999999946,23.45314399999998,2555
44.89666399999994,24.74914399999998,2472
44.572663999999946,24.74914399999998,2591
44.572663999999946,24.101143999999977,2532
44.24866399999995,24.101143999999977,2561
47.48866399999993,25.397143999999983,2333
47.48866399999993,24.74914399999998,2273
47.16466399999993,24.74914399999998,2195
47.16466399999993,24.101143999999977,2097
47.48866399999993,22.15714399999998,2227
47.81266399999993,22.15714399999998,2313
47.16466399999993,22.15714399999998,2206
47.16466399999993,23.45314399999998,2258
47.16466399999993,22.805143999999984,2264
46.84066399999993,24.101143999999977,2178
45.86866399999994,27.34114399999998,2518
45.54466399999994,27.34114399999998,2499
45.54466399999994,27.989143999999985,2615
45.86866399999994,20.86114399999998,2390
45.86866399999994,21.50914399999997,2398
46.19266399999994,21.50914399999997,2334
46.19266399999994,27.34114399999998,2518
46.19266399999994,26.69314399999997,2509
46.516663999999935,26.69314399999997,2471
46.516663999999935,26.04514399999998,2367
47.48866399999993,22.805143999999984,2325
46.84066399999993,22.805143999999984,2138
45.54466399999994,22.15714399999998,2447
45.22066399999994,22.15714399999998,2525
44.89666399999994,22.15714399999998,2943
47.48866399999993,23.45314399999998,2291
46.516663999999935,24.101143999999977,2017
46.516663999999935,24.74914399999998,2231
45.86866399999994,24.101143999999977,2180
47.16466399999993,26.69314399999997,2549
47.16466399999993,27.34114399999998,2604
43.92466399999995,25.397143999999983,2563
44.24866399999995,24.74914399999998,2470
44.89666399999994,26.04514399999998,2357
44.89666399999994,26.69314399999997,2404
45.22066399999994,26.69314399999997,2439
45.22066399999994,27.34114399999998,2466
46.84066399999993,26.69314399999997,2510
47.48866399999993,26.69314399999997,2503
44.24866399999995,25.397143999999983,2402
43.92466399999995,26.04514399999998,2579
46.19266399999994,24.101143999999977,2225
44.572663999999946,25.397143999999983,2440
46.84066399999993,24.74914399999998,2238
46.516663999999935,21.50914399999997,2338
46.84066399999993,21.50914399999997,2345
44.572663999999946,26.69314399999997,2395
44.572663999999946,27.34114399999998,2416
44.89666399999994,27.34114399999998,2531
44.572663999999946,27.989143999999985,2436
44.24866399999995,27.989143999999985,2450
44.572663999999946,28.63714399999997,2501
45.86866399999994,22.15714399999998,2259
45.86866399999994,22.805143999999984,2153
44.24866399999995,23.45314399999998,2588
43.92466399999995,27.989143999999985,65535
46.84066399999993,27.34114399999998,2671
45.22066399999994,23.45314399999998,2460
45.54466399999994,23.45314399999998,2263
45.54466399999994,24.101143999999977,2210
45.22066399999994,24.101143999999977,2434
44.89666399999994,24.101143999999977,2504
46.19266399999994,22.15714399999998,2390
46.516663999999935,22.15714399999998,2356
45.22066399999994,21.50914399999997,2630
45.54466399999994,21.50914399999997,2478
45.54466399999994,20.86114399999998,2502
46.516663999999935,27.989143999999985,2621
46.19266399999994,27.989143999999985,2606
45.54466399999994,25.397143999999983,2324
45.22066399999994,25.397143999999983,2334
45.22066399999994,26.04514399999998,2390
47.81266399999993,24.101143999999977,2386
47.48866399999993,26.04514399999998,2476
47.81266399999993,26.04514399999998,2498
46.19266399999994,23.45314399999998,2057
45.86866399999994,23.45314399999998,2106
44.24866399999995,26.04514399999998,2384
45.22066399999994,27.989143999999985,2596
45.86866399999994,24.74914399999998,2219
46.516663999999935,25.397143999999983,2411
46.84066399999993,25.397143999999983,2294
46.19266399999994,26.04514399999998,2382
45.86866399999994,26.04514399999998,2347
43.92466399999995,23.45314399999998,2818
44.89666399999994,25.397143999999983,2445
46.19266399999994,20.86114399999998,2379
47.81266399999993,25.397143999999983,2510
44.572663999999946,22.805143999999984,2823
44.572663999999946,22.15714399999998,2965
46.516663999999935,23.45314399999998,2196
45.86866399999994,25.397143999999983,2273
44.24866399999995,27.34114399999998,3211
45.22066399999994,24.74914399999998,2536
45.54466399999994,22.805143999999984,2226
45.22066399999994,28.63714399999997,2656
44.89666399999994,28.63714399999997,2595
47.81266399999993,23.45314399999998,2443
46.19266399999994,24.74914399999998,2305
46.19266399999994,25.397143999999983,2329
43.92466399999995,24.101143999999977,2781
43.92466399999995,24.74914399999998,2794
47.81266399999993,26.69314399999997,2725
47.48866399999993,24.101143999999977,2318
46.84066399999993,26.04514399999998,3126
46.19266399999994,22.805143999999984,2450
47.48866399999993,27.34114399999998,2678
46.19266399999994,20.213143999999986,65535
45.54466399999994,26.04514399999998,2482
44.24866399999995,26.69314399999997,2400
45.86866399999994,27.989143999999985,2654
47.81266399999993,5.957143999999991,6586
