51.56399999999999,-0.4100000000000028,65535
51.887999999999984,-0.4100000000000028,65535
50.91599999999999,-1.7060000000000022,65535
51.23999999999999,-1.0580000000000025,65535
51.56399999999999,-1.0580000000000025,65535
51.23999999999999,-1.7060000000000022,65535
51.56399999999999,0.2379999999999968,65535
47.16466399999993,9.845143999999989,163
47.48866399999993,9.845143999999989,167
48.136663999999925,14.381143999999988,340
47.81266399999993,13.085143999999987,309
47.16466399999993,11.141143999999988,290
47.48866399999993,11.789143999999988,437
48.136663999999925,16.325143999999987,885
47.48866399999993,12.437143999999988,298
48.136663999999925,15.677143999999986,906
47.16466399999993,10.493143999999988,438
47.16466399999993,9.197143999999987,151
48.136663999999925,13.733143999999989,316
48.136663999999925,15.029143999999986,823
47.81266399999993,16.973143999999984,955
48.46066399999992,14.381143999999988,424
47.48866399999993,13.085143999999987,302
47.16466399999993,13.085143999999987,309
47.48866399999993,14.381143999999988,505
47.48866399999993,13.733143999999989,924
47.48866399999993,15.029143999999986,792
46.516663999999935,13.733143999999989,1094
46.84066399999993,13.733143999999989,1120
46.84066399999993,13.085143999999987,1125
48.78466399999992,14.381143999999988,65535
47.16466399999993,15.677143999999986,883
46.516663999999935,14.381143999999988,1074
46.84066399999993,14.381143999999988,1015
47.16466399999993,14.381143999999988,965
46.516663999999935,15.029143999999986,1087
47.81266399999993,16.325143999999987,879
47.16466399999993,15.029143999999986,856
47.81266399999993,15.677143999999986,870
47.48866399999993,15.677143999999986,847
46.516663999999935,13.085143999999987,1454
46.84066399999993,12.437143999999988,1139
48.136663999999925,11.789143999999988,248
47.81266399999993,12.437143999999988,266
46.84066399999993,15.677143999999986,901
46.516663999999935,15.677143999999986,1141
46.84066399999993,16.325143999999987,923
47.81266399999993,14.381143999999988,445
48.78466399999992,16.973143999999984,951
48.136663999999925,16.973143999999984,892
48.46066399999992,13.733143999999989,337
47.81266399999993,13.733143999999989,374
50.08066399999991,8.54914399999999,254
48.46066399999992,9.845143999999989,251
51.05266399999991,7.25314399999999,289
51.37666399999991,7.25314399999999,294
51.37666399999991,6.60514399999999,301
48.46066399999992,16.325143999999987,888
48.46066399999992,16.973143999999984,909
48.78466399999992,16.325143999999987,894
48.46066399999992,15.677143999999986,904
48.78466399999992,15.677143999999986,901
47.48866399999993,16.325143999999987,869
47.16466399999993,16.325143999999987,932
46.19266399999994,14.381143999999988,1086
45.86866399999994,15.677143999999986,1123
43.60066399999995,16.325143999999987,1720
45.54466399999994,14.381143999999988,1199
45.54466399999994,13.733143999999989,1221
48.136663999999925,13.085143999999987,296
48.46066399999992,11.141143999999988,246
48.136663999999925,11.141143999999988,241
48.46066399999992,7.90114399999999,203
49.10866399999992,8.54914399999999,226
48.78466399999992,2.0691439999999925,180
49.10866399999992,7.25314399999999,291
52.0246639999999,7.90114399999999,315
47.16466399999993,11.789143999999988,312
49.43266399999992,11.141143999999988,285
53.64466399999989,9.845143999999989,451
50.72866399999991,4.013143999999992,245
51.05266399999991,11.141143999999988,423
47.48866399999993,11.141143999999988,274
46.84066399999993,11.789143999999988,1622
46.516663999999935,11.141143999999988,1591
45.54466399999994,11.141143999999988,1485
46.19266399999994,11.141143999999988,1557
45.86866399999994,11.141143999999988,1541
44.572663999999946,11.141143999999988,1332
43.92466399999995,12.437143999999988,3965
45.54466399999994,12.437143999999988,1572
45.54466399999994,11.789143999999988,1535
48.78466399999992,15.029143999999986,972
47.81266399999993,15.029143999999986,855
47.81266399999993,11.141143999999988,249
50.40466399999991,18.917143999999983,908
52.3486639999999,20.86114399999998,1063
54.616663999999886,18.269143999999983,1184
54.29266399999989,18.917143999999983,1193
49.10866399999992,14.381143999999988,65535
50.08066399999991,14.381143999999988,787
48.78466399999992,13.733143999999989,1736
52.6726639999999,13.085143999999987,510
52.3486639999999,13.085143999999987,508
53.96866399999989,12.437143999999988,543
54.29266399999989,12.437143999999988,772
47.48866399999993,8.54914399999999,148
47.81266399999993,17.621143999999987,924
47.48866399999993,18.917143999999983,1100
47.48866399999993,20.86114399999998,1436
46.84066399999993,23.45314399999998,1918
44.572663999999946,26.04514399999998,2367
47.48866399999993,21.50914399999997,1472
47.81266399999993,21.50914399999997,1868
48.46066399999992,22.15714399999998,1297
47.48866399999993,16.973143999999984,65535
49.10866399999992,16.325143999999987,967
49.75666399999992,18.269143999999983,1064
46.19266399999994,13.085143999999987,1170
41.98066399999996,12.437143999999988,2565
43.60066399999995,10.493143999999988,2726
45.54466399999994,9.197143999999987,156
47.81266399999993,22.805143999999984,2333
49.75666399999992,22.805143999999984,1136
50.72866399999991,3.365143999999992,236
51.05266399999991,4.013143999999992,252
50.72866399999991,4.661143999999991,251
51.05266399999991,4.661143999999991,253
51.05266399999991,3.365143999999992,248
51.05266399999991,2.717143999999992,268
50.40466399999991,4.661143999999991,257
50.72866399999991,2.717143999999992,246
50.40466399999991,4.013143999999992,255
51.05266399999991,5.309143999999991,269
50.72866399999991,5.309143999999991,268
51.37666399999991,3.365143999999992,276
51.37666399999991,4.661143999999991,257
50.72866399999991,5.957143999999991,280
50.40466399999991,5.957143999999991,278
50.40466399999991,3.365143999999992,260
50.40466399999991,5.309143999999991,267
50.08066399999991,5.309143999999991,286
49.75666399999992,5.309143999999991,301
49.75666399999992,5.957143999999991,319
51.37666399999991,5.309143999999991,327
51.700663999999904,4.661143999999991,278
50.08066399999991,4.013143999999992,275
50.08066399999991,5.957143999999991,321
50.08066399999991,4.661143999999991,271
49.43266399999992,5.309143999999991,315
49.43266399999992,5.957143999999991,279
52.0246639999999,4.661143999999991,350
52.3486639999999,4.661143999999991,379
50.72866399999991,15.029143999999986,486
51.05266399999991,15.029143999999986,460
51.05266399999991,13.733143999999989,435
50.40466399999991,13.085143999999987,478
49.10866399999992,7.90114399999999,221
48.78466399999992,7.90114399999999,212
50.40466399999991,7.90114399999999,264
50.08066399999991,7.90114399999999,279
49.75666399999992,7.90114399999999,284
49.43266399999992,7.90114399999999,236
49.75666399999992,8.54914399999999,250
49.43266399999992,8.54914399999999,235
49.43266399999992,9.197143999999987,254
49.10866399999992,9.197143999999987,234
47.48866399999993,7.90114399999999,144
47.81266399999993,7.90114399999999,170
48.136663999999925,7.90114399999999,189
48.136663999999925,9.845143999999989,227
47.81266399999993,9.197143999999987,164
47.81266399999993,8.54914399999999,162
47.81266399999993,9.845143999999989,196
54.940663999999884,9.197143999999987,552
54.616663999999886,9.197143999999987,493
54.29266399999989,9.197143999999987,495
53.96866399999989,9.197143999999987,459
53.64466399999989,9.197143999999987,438
54.616663999999886,9.845143999999989,485
54.29266399999989,9.845143999999989,473
53.96866399999989,9.845143999999989,458
53.64466399999989,10.493143999999988,462
53.96866399999989,10.493143999999988,466
53.96866399999989,11.141143999999988,863
54.29266399999989,10.493143999999988,490
53.32066399999989,10.493143999999988,449
54.940663999999884,11.141143999999988,535
52.6726639999999,13.733143999999989,511
52.3486639999999,13.733143999999989,511
52.3486639999999,14.381143999999988,518
52.0246639999999,14.381143999999988,730
52.0246639999999,11.789143999999988,438
52.3486639999999,11.789143999999988,432
52.3486639999999,12.437143999999988,479
52.0246639999999,15.029143999999986,741
51.700663999999904,14.381143999999988,613
52.0246639999999,13.733143999999989,548
51.700663999999904,13.733143999999989,604
52.6726639999999,12.437143999999988,769
53.32066399999989,11.789143999999988,778
53.96866399999989,11.789143999999988,534
53.64466399999989,11.789143999999988,496
53.64466399999989,11.141143999999988,492
53.32066399999989,11.141143999999988,466
52.996663999999896,11.789143999999988,759
52.996663999999896,12.437143999999988,804
52.996663999999896,13.733143999999989,723
53.64466399999989,13.733143999999989,817
53.96866399999989,13.733143999999989,890
54.29266399999989,13.085143999999987,877
53.96866399999989,13.085143999999987,899
53.32066399999989,13.733143999999989,753
52.0246639999999,13.085143999999987,569
51.700663999999904,13.085143999999987,400
52.996663999999896,14.381143999999988,780
52.0246639999999,12.437143999999988,424
51.700663999999904,12.437143999999988,403
51.37666399999991,11.789143999999988,394
51.37666399999991,12.437143999999988,374
52.6726639999999,11.789143999999988,470
53.64466399999989,13.085143999999987,839
53.32066399999989,13.085143999999987,825
52.996663999999896,13.085143999999987,766
53.64466399999989,12.437143999999988,822
51.37666399999991,13.733143999999989,420
53.32066399999989,12.437143999999988,832
52.6726639999999,14.381143999999988,830
51.37666399999991,13.085143999999987,383
53.32066399999989,14.381143999999988,796
52.3486639999999,15.029143999999986,896
52.0246639999999,15.677143999999986,792
51.700663999999904,15.029143999999986,823
51.05266399999991,16.325143999999987,777
51.05266399999991,16.973143999999984,804
51.700663999999904,15.677143999999986,821
51.37666399999991,15.677143999999986,735
51.37666399999991,16.325143999999987,767
50.72866399999991,13.085143999999987,371
50.72866399999991,12.437143999999988,360
51.05266399999991,13.085143999999987,387
51.05266399999991,14.381143999999988,452
50.40466399999991,12.437143999999988,355
50.40466399999991,11.789143999999988,352
50.08066399999991,12.437143999999988,321
50.72866399999991,11.789143999999988,409
51.05266399999991,12.437143999999988,367
50.72866399999991,14.381143999999988,476
51.37666399999991,14.381143999999988,434
50.72866399999991,13.733143999999989,814
50.40466399999991,14.381143999999988,759
51.37666399999991,15.029143999999986,466
55.26466399999988,9.197143999999987,1788
55.58866399999988,8.54914399999999,3082
55.91266399999988,8.54914399999999,6559
56.23666399999988,9.197143999999987,6567
56.23666399999988,10.493143999999988,6520
56.23666399999988,9.845143999999989,6507
55.91266399999988,9.845143999999989,6445
56.56066399999988,9.197143999999987,6577
56.56066399999988,8.54914399999999,6620
51.05266399999991,6.60514399999999,291
51.700663999999904,7.90114399999999,304
50.72866399999991,6.60514399999999,284
51.700663999999904,7.25314399999999,298
50.72866399999991,7.25314399999999,280
52.0246639999999,7.25314399999999,303
52.3486639999999,7.90114399999999,327
51.05266399999991,5.957143999999991,296
50.40466399999991,7.25314399999999,269
51.700663999999904,6.60514399999999,313
51.700663999999904,5.957143999999991,308
52.3486639999999,9.197143999999987,361
51.700663999999904,8.54914399999999,314
52.0246639999999,8.54914399999999,334
52.3486639999999,8.54914399999999,341
51.37666399999991,7.90114399999999,304
52.3486639999999,7.25314399999999,333
51.37666399999991,5.957143999999991,341
50.72866399999991,7.90114399999999,301
51.37666399999991,9.197143999999987,363
51.700663999999904,9.197143999999987,326
50.40466399999991,6.60514399999999,346
51.05266399999991,7.90114399999999,314
51.37666399999991,8.54914399999999,315
52.0246639999999,5.957143999999991,351
52.3486639999999,6.60514399999999,356
51.05266399999991,8.54914399999999,344
52.0246639999999,9.197143999999987,344
52.6726639999999,9.197143999999987,390
52.0246639999999,9.845143999999989,368
51.700663999999904,9.845143999999989,384
51.37666399999991,9.845143999999989,411
50.72866399999991,8.54914399999999,282
51.05266399999991,9.845143999999989,352
50.72866399999991,9.845143999999989,310
50.40466399999991,9.845143999999989,295
51.05266399999991,9.197143999999987,353
50.40466399999991,9.197143999999987,273
50.08066399999991,9.197143999999987,263
51.05266399999991,10.493143999999988,448
50.40466399999991,8.54914399999999,260
50.72866399999991,9.197143999999987,319
49.75666399999992,9.197143999999987,298
52.996663999999896,9.197143999999987,414
52.3486639999999,9.845143999999989,353
52.996663999999896,8.54914399999999,386
52.996663999999896,7.90114399999999,413
53.32066399999989,7.90114399999999,430
53.32066399999989,7.25314399999999,491
53.64466399999989,7.25314399999999,1018
52.996663999999896,10.493143999999988,383
52.6726639999999,10.493143999999988,377
52.6726639999999,9.845143999999989,360
53.32066399999989,9.845143999999989,443
53.32066399999989,9.197143999999987,447
53.64466399999989,8.54914399999999,433
53.32066399999989,8.54914399999999,397
52.6726639999999,8.54914399999999,363
52.0246639999999,10.493143999999988,392
52.0246639999999,11.141143999999988,409
51.700663999999904,11.141143999999988,434
52.6726639999999,7.25314399999999,432
52.996663999999896,7.25314399999999,460
52.6726639999999,7.90114399999999,367
53.64466399999989,7.90114399999999,442
52.996663999999896,11.141143999999988,791
52.6726639999999,11.141143999999988,475
52.3486639999999,10.493143999999988,367
52.996663999999896,9.845143999999989,396
51.700663999999904,10.493143999999988,396
51.37666399999991,10.493143999999988,427
51.700663999999904,11.789143999999988,428
52.3486639999999,11.141143999999988,392
51.37666399999991,11.141143999999988,415
51.05266399999991,11.789143999999988,403
49.10866399999992,11.141143999999988,295
48.78466399999992,11.141143999999988,260
48.46066399999992,11.789143999999988,252
49.43266399999992,11.789143999999988,288
50.08066399999991,11.789143999999988,311
49.75666399999992,12.437143999999988,317
49.10866399999992,11.789143999999988,310
48.78466399999992,12.437143999999988,282
48.46066399999992,12.437143999999988,269
49.10866399999992,12.437143999999988,302
48.78466399999992,13.085143999999987,300
48.136663999999925,12.437143999999988,278
47.81266399999993,11.789143999999988,256
48.136663999999925,10.493143999999988,233
47.81266399999993,10.493143999999988,188
48.78466399999992,10.493143999999988,267
47.48866399999993,10.493143999999988,183
48.46066399999992,10.493143999999988,265
49.43266399999992,13.085143999999987,356
48.46066399999992,13.085143999999987,314
49.43266399999992,10.493143999999988,281
49.75666399999992,9.845143999999989,280
49.75666399999992,10.493143999999988,307
50.40466399999991,11.141143999999988,359
50.08066399999991,11.141143999999988,338
50.72866399999991,11.141143999999988,429
49.75666399999992,11.141143999999988,290
48.78466399999992,11.789143999999988,331
50.40466399999991,10.493143999999988,343
50.08066399999991,9.845143999999989,275
50.08066399999991,10.493143999999988,352
49.43266399999992,12.437143999999988,320
49.75666399999992,11.789143999999988,292
49.10866399999992,13.085143999999987,334
50.72866399999991,10.493143999999988,720
49.10866399999992,10.493143999999988,267
48.78466399999992,9.845143999999989,234
48.46066399999992,8.54914399999999,214
48.46066399999992,9.197143999999987,229
48.78466399999992,9.197143999999987,230
48.78466399999992,8.54914399999999,219
50.08066399999991,7.25314399999999,286
49.75666399999992,6.60514399999999,351
49.43266399999992,6.60514399999999,346
49.10866399999992,6.60514399999999,284
49.43266399999992,7.25314399999999,295
49.75666399999992,7.25314399999999,295
49.10866399999992,5.957143999999991,254
48.78466399999992,7.25314399999999,231
50.08066399999991,6.60514399999999,348
47.48866399999993,9.197143999999987,156
48.136663999999925,8.54914399999999,178
48.136663999999925,9.197143999999987,209
47.81266399999993,7.25314399999999,146
49.43266399999992,9.845143999999989,284
49.10866399999992,9.845143999999989,245
53.64466399999989,14.381143999999988,813
50.08066399999991,13.085143999999987,914
49.75666399999992,13.085143999999987,875
45.86866399999994,9.197143999999987,177
46.19266399999994,9.197143999999987,174
46.516663999999935,8.54914399999999,170
46.516663999999935,9.197143999999987,197
46.19266399999994,8.54914399999999,161
47.16466399999993,8.54914399999999,143
45.86866399999994,4.661143999999991,44
46.84066399999993,9.845143999999989,162
45.22066399999994,5.957143999999991,51
45.22066399999994,5.309143999999991,52
45.86866399999994,5.957143999999991,59
45.54466399999994,5.957143999999991,44
44.89666399999994,4.661143999999991,91
44.89666399999994,5.309143999999991,89
44.572663999999946,4.661143999999991,119
44.24866399999995,4.661143999999991,134
43.92466399999995,4.661143999999991,128
46.19266399999994,7.25314399999999,98
48.78466399999992,5.957143999999991,238
48.136663999999925,6.60514399999999,210
48.46066399999992,6.60514399999999,215
48.78466399999992,6.60514399999999,246
47.16466399999993,7.90114399999999,130
48.136663999999925,7.25314399999999,183
48.46066399999992,7.25314399999999,195
46.516663999999935,6.60514399999999,89
46.84066399999993,6.60514399999999,101
46.84066399999993,7.25314399999999,106
46.516663999999935,5.957143999999991,103
46.19266399999994,5.957143999999991,89
46.84066399999993,8.54914399999999,132
46.84066399999993,7.90114399999999,119
45.86866399999994,5.309143999999991,59
46.19266399999994,6.60514399999999,79
45.86866399999994,6.60514399999999,103
47.48866399999993,6.60514399999999,151
47.48866399999993,7.25314399999999,138
47.16466399999993,7.25314399999999,123
49.10866399999992,4.013143999999992,237
49.75666399999992,4.661143999999991,314
49.43266399999992,4.661143999999991,293
49.10866399999992,5.309143999999991,266
46.19266399999994,4.661143999999991,61
46.84066399999993,9.197143999999987,170
46.19266399999994,5.309143999999991,70
46.516663999999935,5.309143999999991,95
45.54466399999994,6.60514399999999,67
45.54466399999994,5.309143999999991,0
43.60066399999995,4.013143999999992,137
43.60066399999995,3.365143999999992,150
42.62866399999996,2.717143999999992,222
43.276663999999954,2.717143999999992,179
45.54466399999994,4.661143999999991,46
45.22066399999994,4.661143999999991,54
47.16466399999993,5.309143999999991,139
47.16466399999993,5.957143999999991,162
46.19266399999994,7.90114399999999,116
49.75666399999992,2.717143999999992,218
49.10866399999992,2.717143999999992,182
48.78466399999992,2.717143999999992,167
45.86866399999994,3.365143999999992,174
46.84066399999993,3.365143999999992,172
46.516663999999935,3.365143999999992,160
46.19266399999994,3.365143999999992,149
47.16466399999993,6.60514399999999,128
49.10866399999992,3.365143999999992,203
45.54466399999994,4.013143999999992,66
46.516663999999935,7.25314399999999,103
47.16466399999993,4.661143999999991,117
46.84066399999993,4.661143999999991,97
46.516663999999935,4.661143999999991,81
46.84066399999993,5.957143999999991,139
47.81266399999993,3.365143999999992,240
47.48866399999993,4.013143999999992,189
48.136663999999925,4.013143999999992,229
47.81266399999993,4.013143999999992,200
47.48866399999993,4.661143999999991,182
47.16466399999993,3.365143999999992,220
46.84066399999993,4.013143999999992,111
48.46066399999992,5.957143999999991,251
46.19266399999994,2.717143999999992,171
47.16466399999993,2.0691439999999925,276
46.516663999999935,2.717143999999992,196
46.84066399999993,2.717143999999992,259
46.84066399999993,2.0691439999999925,333
47.16466399999993,2.717143999999992,234
44.572663999999946,5.309143999999991,130
44.572663999999946,5.957143999999991,224
44.89666399999994,6.60514399999999,147
44.572663999999946,6.60514399999999,266
43.60066399999995,5.309143999999991,151
43.92466399999995,7.25314399999999,214
43.60066399999995,6.60514399999999,192
43.276663999999954,6.60514399999999,179
43.276663999999954,5.957143999999991,154
45.86866399999994,8.54914399999999,171
45.54466399999994,8.54914399999999,163
48.136663999999925,3.365143999999992,260
48.46066399999992,3.365143999999992,252
48.46066399999992,2.717143999999992,232
47.48866399999993,5.309143999999991,156
46.516663999999935,9.845143999999989,224
46.84066399999993,10.493143999999988,851
47.81266399999993,5.309143999999991,293
45.22066399999994,6.60514399999999,99
46.19266399999994,4.013143999999992,85
45.86866399999994,4.013143999999992,62
45.22066399999994,4.013143999999992,102
44.89666399999994,4.013143999999992,168
46.84066399999993,5.309143999999991,141
48.136663999999925,-1.8188560000000056,325
48.136663999999925,0.1251439999999934,262
48.136663999999925,-0.5228560000000062,297
47.48866399999993,-0.5228560000000062,291
47.16466399999993,-1.8188560000000056,333
47.48866399999993,0.7731439999999932,246
47.16466399999993,0.1251439999999934,261
45.86866399999994,7.25314399999999,109
48.136663999999925,5.309143999999991,299
49.10866399999992,4.661143999999991,255
48.46066399999992,4.013143999999992,290
48.136663999999925,4.661143999999991,263
47.81266399999993,6.60514399999999,163
47.48866399999993,5.957143999999991,201
48.136663999999925,5.957143999999991,1406
45.86866399999994,7.90114399999999,134
46.516663999999935,7.90114399999999,129
49.43266399999992,3.365143999999992,213
49.43266399999992,4.013143999999992,245
48.136663999999925,2.717143999999992,231
47.81266399999993,2.717143999999992,261
47.48866399999993,2.717143999999992,255
50.40466399999991,2.717143999999992,254
48.46066399999992,-4.410856000000004,965
48.46066399999992,-3.7628560000000046,920
48.46066399999992,-3.114856000000005,905
48.46066399999992,-2.4668560000000053,375
47.48866399999993,1.4211439999999929,273
47.16466399999993,1.4211439999999929,338
46.516663999999935,4.013143999999992,85
43.60066399999995,4.661143999999991,159
44.89666399999994,2.717143999999992,380
45.22066399999994,2.717143999999992,339
45.54466399999994,3.365143999999992,221
45.22066399999994,3.365143999999992,268
47.48866399999993,3.365143999999992,296
46.19266399999994,9.845143999999989,214
47.81266399999993,2.0691439999999925,244
47.48866399999993,2.0691439999999925,255
45.86866399999994,2.717143999999992,863
44.89666399999994,5.957143999999991,97
45.22066399999994,1.4211439999999929,482
44.89666399999994,1.4211439999999929,769
44.89666399999994,2.0691439999999925,815
43.276663999999954,2.0691439999999925,218
43.60066399999995,1.4211439999999929,261
48.78466399999992,4.661143999999991,273
48.78466399999992,5.309143999999991,258
46.19266399999994,2.0691439999999925,869
45.86866399999994,1.4211439999999929,365
46.19266399999994,1.4211439999999929,386
44.572663999999946,4.013143999999992,216
44.89666399999994,3.365143999999992,261
43.92466399999995,4.013143999999992,148
44.24866399999995,4.013143999999992,169
44.89666399999994,-0.5228560000000062,314
45.54466399999994,0.1251439999999934,323
46.516663999999935,0.1251439999999934,280
44.572663999999946,2.0691439999999925,807
49.75666399999992,4.013143999999992,293
43.92466399999995,3.365143999999992,201
43.92466399999995,2.717143999999992,232
44.24866399999995,3.365143999999992,256
44.572663999999946,3.365143999999992,297
49.10866399999992,0.1251439999999934,262
49.43266399999992,0.7731439999999932,254
49.43266399999992,-1.8188560000000056,362
49.10866399999992,-1.170856000000006,338
49.10866399999992,-0.5228560000000062,283
49.10866399999992,0.7731439999999932,287
49.10866399999992,1.4211439999999929,258
47.81266399999993,-1.8188560000000056,879
47.81266399999993,-2.4668560000000053,895
47.81266399999993,-3.114856000000005,920
48.136663999999925,-3.7628560000000046,939
44.572663999999946,9.197143999999987,176
44.89666399999994,8.54914399999999,147
45.22066399999994,9.197143999999987,145
45.54466399999994,10.493143999999988,187
44.572663999999946,10.493143999999988,1318
44.89666399999994,10.493143999999988,215
44.89666399999994,9.845143999999989,249
48.46066399999992,5.309143999999991,874
50.91599999999999,-1.0580000000000025,65535
51.23999999999999,-0.4100000000000028,65535
50.91599999999999,-0.4100000000000028,65535
51.23999999999999,-2.354000000000002,65535
51.56399999999999,-2.354000000000002,65535
51.56399999999999,-3.0020000000000016,65535
50.91599999999999,-2.354000000000002,65535
53.50799999999997,-3.0020000000000016,65535
53.183999999999976,-2.354000000000002,65535
53.183999999999976,-3.0020000000000016,65535
52.85999999999998,-2.354000000000002,65535
52.21199999999998,-1.0580000000000025,65535
51.887999999999984,-1.0580000000000025,65535
52.53599999999998,-1.0580000000000025,65535
52.53599999999998,-1.7060000000000022,65535
52.85999999999998,-1.7060000000000022,65535
53.50799999999997,-2.354000000000002,65535
52.85999999999998,-1.0580000000000025,65535
52.53599999999998,1.5339999999999965,65535
52.53599999999998,0.8859999999999966,65535
52.53599999999998,0.2379999999999968,65535
52.53599999999998,-0.4100000000000028,65535
53.50799999999997,-1.7060000000000022,65535
53.183999999999976,-1.7060000000000022,65535
53.183999999999976,-1.0580000000000025,65535
52.85999999999998,-0.4100000000000028,65535
51.887999999999984,-2.354000000000002,65535
52.21199999999998,-2.354000000000002,65535
55.77599999999996,-2.354000000000002,65535
53.83199999999997,-1.0580000000000025,65535
53.83199999999997,-1.7060000000000022,65535
55.127999999999965,-1.7060000000000022,65535
54.80399999999997,-1.7060000000000022,65535
54.47999999999997,-1.7060000000000022,65535
54.15599999999997,-1.0580000000000025,65535
52.21199999999998,-1.7060000000000022,65535
53.50799999999997,-1.0580000000000025,65535
55.77599999999996,-3.0020000000000016,65535
55.45199999999996,-1.7060000000000022,65535
57.07199999999995,-2.354000000000002,65535
56.74799999999996,-3.0020000000000016,65535
56.42399999999996,-3.0020000000000016,65535
56.09999999999996,-3.650000000000001,65535
50.91599999999999,-3.0020000000000016,65535
50.91599999999999,-3.650000000000001,65535
50.59199999999999,-3.650000000000001,65535
50.59199999999999,-4.298000000000001,65535
51.23999999999999,-3.0020000000000016,65535
50.268,-4.946000000000001,65535
55.77599999999996,-3.650000000000001,65535
55.77599999999996,-4.298000000000001,65535
52.21199999999998,-0.4100000000000028,65535
52.53599999999998,-2.354000000000002,65535
51.56399999999999,-1.7060000000000022,65535
51.56399999999999,-3.650000000000001,65535
51.887999999999984,-4.298000000000001,65535
51.56399999999999,-4.298000000000001,65535
51.887999999999984,-1.7060000000000022,65535
52.21199999999998,-3.0020000000000016,65535
51.23999999999999,0.2379999999999968,65535
50.91599999999999,0.2379999999999968,65535
52.21199999999998,0.2379999999999968,65535
53.83199999999997,-3.0020000000000016,65535
54.15599999999997,-3.0020000000000016,65535
54.47999999999997,-3.0020000000000016,65535
55.127999999999965,-3.650000000000001,65535
54.80399999999997,-3.0020000000000016,65535
53.83199999999997,-2.354000000000002,65535
54.15599999999997,-0.4100000000000028,65535
54.47999999999997,-1.0580000000000025,65535
53.83199999999997,-0.4100000000000028,65535
53.183999999999976,-3.650000000000001,65535
53.183999999999976,-4.298000000000001,65535
52.85999999999998,-3.0020000000000016,65535
52.53599999999998,-3.0020000000000016,65535
51.887999999999984,-3.0020000000000016,65535
51.23999999999999,0.8859999999999966,65535
51.887999999999984,0.2379999999999968,65535
52.21199999999998,0.8859999999999966,65535
51.887999999999984,-4.946000000000001,65535
52.53599999999998,-3.650000000000001,65535
52.21199999999998,-4.298000000000001,65535
53.183999999999976,-0.4100000000000028,65535
51.23999999999999,-3.650000000000001,65535
51.887999999999984,-3.650000000000001,65535
52.21199999999998,-3.650000000000001,65535
51.56399999999999,0.8859999999999966,65535
51.887999999999984,0.8859999999999966,65535
52.85999999999998,0.8859999999999966,65535
53.50799999999997,-0.4100000000000028,65535
56.09999999999996,-4.298000000000001,65535
56.74799999999996,-4.946000000000001,65535
56.74799999999996,-4.298000000000001,65535
56.42399999999996,-4.946000000000001,65535
56.42399999999996,-4.298000000000001,65535
56.09999999999996,-4.946000000000001,65535
57.39599999999995,-4.298000000000001,65535
57.39599999999995,-3.0020000000000016,65535
57.39599999999995,-3.650000000000001,65535
56.42399999999996,-3.650000000000001,65535
57.07199999999995,-3.650000000000001,65535
57.07199999999995,-4.298000000000001,65535
56.74799999999996,-3.650000000000001,65535
59.15266399999986,27.34114399999998,65535
59.47666399999986,26.69314399999997,65535
59.47666399999986,26.04514399999998,65535
59.15266399999986,26.04514399999998,65535
59.15266399999986,24.74914399999998,65535
59.15266399999986,25.397143999999983,65535
59.47666399999986,25.397143999999983,65535
58.50466399999986,26.69314399999997,65535
58.82866399999986,26.69314399999997,65535
57.85666399999987,26.04514399999998,65535
58.180663999999865,26.04514399999998,65535
58.180663999999865,26.69314399999997,65535
58.82866399999986,26.04514399999998,65535
58.50466399999986,25.397143999999983,65535
58.82866399999986,25.397143999999983,65535
58.82866399999986,24.74914399999998,65535
58.180663999999865,27.34114399999998,65535
57.85666399999987,27.34114399999998,65535
63.68866399999983,27.34114399999998,7077
60.124663999999854,24.74914399999998,6613
60.44866399999985,24.74914399999998,6582
60.44866399999985,25.397143999999983,6594
60.77266399999985,25.397143999999983,6800
61.09666399999985,26.04514399999998,6842
60.77266399999985,26.04514399999998,6849
60.77266399999985,26.69314399999997,6868
61.09666399999985,25.397143999999983,6833
61.09666399999985,26.69314399999997,7198
61.420663999999846,26.69314399999997,7220
61.74466399999984,27.34114399999998,7244
62.06866399999984,27.34114399999998,7269
62.39266399999984,27.34114399999998,7293
62.71666399999984,27.34114399999998,7257
64.01266399999983,27.34114399999998,7425
63.36466399999984,27.34114399999998,7145
63.04066399999984,27.34114399999998,7185
63.04066399999984,27.989143999999985,7200
64.33666399999983,27.989143999999985,7472
64.33666399999983,27.34114399999998,7548
64.66066399999983,27.34114399999998,7564
64.66066399999983,26.69314399999997,7575
64.98466399999982,25.397143999999983,5959
64.66066399999983,26.04514399999998,7605
64.98466399999982,26.04514399999998,7627
66.28066399999982,25.397143999999983,6036
65.95666399999982,24.74914399999998,5872
65.63266399999982,24.74914399999998,5876
65.63266399999982,25.397143999999983,5918
65.30866399999982,25.397143999999983,5939
66.60466399999981,25.397143999999983,6096
64.01266399999983,24.74914399999998,6096
64.01266399999983,24.101143999999977,6131
64.01266399999983,23.45314399999998,6155
63.68866399999983,23.45314399999998,6167
63.68866399999983,22.805143999999984,6192
63.68866399999983,26.04514399999998,6784
63.68866399999983,25.397143999999983,6750
63.68866399999983,26.69314399999997,7044
60.44866399999985,26.69314399999997,7036
64.01266399999983,27.989143999999985,7463
62.71666399999984,22.805143999999984,6314
62.39266399999984,22.805143999999984,6346
62.06866399999984,22.805143999999984,6375
62.06866399999984,23.45314399999998,6391
61.74466399999984,23.45314399999998,6403
61.420663999999846,23.45314399999998,6451
61.09666399999985,23.45314399999998,6492
61.09666399999985,24.101143999999977,6499
61.09666399999985,24.74914399999998,6533
60.77266399999985,24.74914399999998,6549
63.04066399999984,21.50914399999997,65535
63.04066399999984,22.15714399999998,65535
63.04066399999984,22.805143999999984,6278
62.39266399999984,26.04514399999998,7441
62.06866399999984,25.397143999999983,7490
61.74466399999984,25.397143999999983,7558
61.74466399999984,24.74914399999998,7595
61.74466399999984,24.101143999999977,7630
61.420663999999846,24.101143999999977,6974
62.39266399999984,26.69314399999997,7412
64.66066399999983,25.397143999999983,6028
64.66066399999983,24.74914399999998,6046
64.33666399999983,24.74914399999998,6057
63.36466399999984,22.805143999999984,6217
67.25266399999981,24.101143999999977,8186
66.92866399999981,24.101143999999977,8150
66.60466399999981,23.45314399999998,8119
66.28066399999982,23.45314399999998,8101
66.28066399999982,24.101143999999977,8083
65.95666399999982,24.101143999999977,3999
60.124663999999854,24.101143999999977,6806
60.124663999999854,23.45314399999998,6843
60.44866399999985,22.805143999999984,65535
60.77266399999985,27.34114399999998,6926
61.09666399999985,27.989143999999985,6958
61.09666399999985,28.63714399999997,7004
61.420663999999846,29.28514399999997,8691
61.74466399999984,29.933143999999977,8749
62.06866399999984,29.933143999999977,8855
62.39266399999984,29.933143999999977,8893
62.71666399999984,29.933143999999977,8926
61.420663999999846,22.805143999999984,6487
61.420663999999846,22.15714399999998,6566
61.09666399999985,22.15714399999998,6554
61.420663999999846,21.50914399999997,6699
62.39266399999984,27.989143999999985,65535
62.06866399999984,27.989143999999985,65535
61.420663999999846,27.34114399999998,65535
63.04066399999984,29.933143999999977,65535
63.68866399999983,29.28514399999997,65535
63.36466399999984,29.28514399999997,65535
63.36466399999984,29.933143999999977,65535
60.44866399999985,27.34114399999998,65535
61.74466399999984,29.28514399999997,65535
62.39266399999984,30.58114399999998,65535
62.71666399999984,31.229143999999977,65535
62.71666399999984,29.28514399999997,65535
63.04066399999984,28.63714399999997,65535
66.60466399999981,26.04514399999998,6106
66.60466399999981,26.69314399999997,6142
66.60466399999981,27.34114399999998,6165
62.71666399999984,26.04514399999998,7326
62.71666399999984,25.397143999999983,7295
63.04066399999984,25.397143999999983,7115
63.36466399999984,25.397143999999983,7078
62.71666399999984,23.45314399999998,7320
62.39266399999984,24.101143999999977,65535
62.71666399999984,22.15714399999998,65535
62.39266399999984,22.15714399999998,65535
62.39266399999984,21.50914399999997,65535
61.09666399999985,21.50914399999997,8377
60.77266399999985,22.805143999999984,7803
60.44866399999985,22.15714399999998,7851
60.77266399999985,23.45314399999998,7785
60.77266399999985,21.50914399999997,7953
60.77266399999985,22.15714399999998,7906
60.124663999999854,22.805143999999984,8119
60.44866399999985,24.101143999999977,6792
62.06866399999984,24.74914399999998,65535
50.72866399999991,16.325143999999987,785
50.40466399999991,16.973143999999984,841
50.72866399999991,16.973143999999984,812
50.40466399999991,16.325143999999987,848
50.08066399999991,16.973143999999984,971
50.08066399999991,16.325143999999987,873
51.700663999999904,16.973143999999984,899
51.37666399999991,16.973143999999984,802
51.05266399999991,15.677143999999986,808
50.72866399999991,15.677143999999986,823
51.05266399999991,17.621143999999987,819
51.37666399999991,17.621143999999987,846
51.700663999999904,17.621143999999987,874
51.700663999999904,16.325143999999987,867
52.0246639999999,22.15714399999998,1078
52.0246639999999,21.50914399999997,1074
52.3486639999999,21.50914399999997,1074
52.0246639999999,20.86114399999998,1054
51.700663999999904,20.86114399999998,1112
51.37666399999991,21.50914399999997,1151
51.37666399999991,20.86114399999998,1146
51.05266399999991,20.86114399999998,1126
52.6726639999999,23.45314399999998,1267
52.3486639999999,22.805143999999984,1209
52.3486639999999,20.213143999999986,1092
52.0246639999999,20.213143999999986,1045
52.3486639999999,19.565143999999982,1087
52.6726639999999,19.565143999999982,1179
51.700663999999904,21.50914399999997,1147
51.700663999999904,22.15714399999998,1182
52.6726639999999,21.50914399999997,1091
52.996663999999896,21.50914399999997,1140
52.6726639999999,20.86114399999998,1106
52.6726639999999,22.15714399999998,1129
52.6726639999999,20.213143999999986,1179
52.996663999999896,19.565143999999982,1230
52.996663999999896,20.86114399999998,1140
52.996663999999896,20.213143999999986,1166
53.32066399999989,20.213143999999986,1282
51.37666399999991,20.213143999999986,1214
52.3486639999999,16.973143999999984,904
52.0246639999999,16.973143999999984,917
52.0246639999999,16.325143999999987,906
52.0246639999999,17.621143999999987,891
52.6726639999999,16.973143999999984,941
52.996663999999896,16.973143999999984,1042
52.3486639999999,16.325143999999987,916
52.3486639999999,15.677143999999986,906
51.700663999999904,18.269143999999983,958
52.6726639999999,17.621143999999987,955
52.3486639999999,17.621143999999987,942
52.6726639999999,18.269143999999983,1035
52.3486639999999,18.269143999999983,1009
52.3486639999999,18.917143999999983,1047
52.996663999999896,17.621143999999987,1081
51.700663999999904,19.565143999999982,1039
51.700663999999904,18.917143999999983,1006
51.37666399999991,18.269143999999983,887
58.82866399999986,9.197143999999987,2768
58.180663999999865,7.90114399999999,2861
58.50466399999986,8.54914399999999,2812
63.36466399999984,10.493143999999988,2983
63.36466399999984,11.141143999999988,2990
63.36466399999984,11.789143999999988,3025
63.68866399999983,11.789143999999988,3053
64.33666399999983,12.437143999999988,3454
64.66066399999983,12.437143999999988,3949
65.63266399999982,13.085143999999987,3606
65.95666399999982,13.085143999999987,3641
66.28066399999982,14.381143999999988,3711
65.95666399999982,13.733143999999989,3780
66.28066399999982,13.733143999999989,3689
65.30866399999982,13.085143999999987,3907
64.98466399999982,13.085143999999987,3541
64.01266399999983,11.789143999999988,3084
63.68866399999983,11.141143999999988,3021
59.800663999999855,10.493143999999988,2564
59.800663999999855,11.141143999999988,2547
60.124663999999854,11.141143999999988,2562
60.44866399999985,11.141143999999988,2575
60.124663999999854,11.789143999999988,2588
60.77266399999985,7.25314399999999,2824
60.77266399999985,6.60514399999999,2870
59.15266399999986,9.197143999999987,2650
59.47666399999986,9.197143999999987,2671
59.800663999999855,9.845143999999989,2566
59.47666399999986,11.141143999999988,2511
61.09666399999985,10.493143999999988,2685
60.77266399999985,10.493143999999988,2655
60.77266399999985,11.141143999999988,2610
62.06866399999984,9.197143999999987,3010
61.74466399999984,9.845143999999989,2956
61.420663999999846,9.845143999999989,2933
59.15266399999986,9.845143999999989,2630
59.47666399999986,9.845143999999989,2606
58.82866399999986,5.957143999999991,3045
58.180663999999865,7.25314399999999,2917
58.50466399999986,7.25314399999999,2950
58.50466399999986,6.60514399999999,2955
58.50466399999986,5.957143999999991,3013
58.82866399999986,8.54914399999999,2798
60.44866399999985,7.25314399999999,2798
60.44866399999985,7.90114399999999,2759
60.124663999999854,10.493143999999988,2596
60.44866399999985,9.197143999999987,2708
60.77266399999985,9.197143999999987,2720
60.77266399999985,8.54914399999999,2739
60.124663999999854,9.845143999999989,2854
60.44866399999985,10.493143999999988,2641
63.04066399999984,10.493143999999988,2934
62.06866399999984,9.845143999999989,3035
62.39266399999984,9.845143999999989,3043
62.71666399999984,9.845143999999989,3067
59.47666399999986,14.381143999999988,2517
59.47666399999986,13.733143999999989,2501
59.47666399999986,13.085143999999987,2477
59.800663999999855,12.437143999999988,2546
59.15266399999986,11.141143999999988,2475
59.15266399999986,14.381143999999988,2501
58.82866399999986,11.789143999999988,2455
58.50466399999986,12.437143999999988,2385
58.180663999999865,12.437143999999988,2378
57.85666399999987,11.789143999999988,2329
62.71666399999984,7.90114399999999,3096
62.39266399999984,7.90114399999999,3053
62.06866399999984,8.54914399999999,3028
60.44866399999985,5.309143999999991,2944
60.44866399999985,5.957143999999991,2911
60.77266399999985,5.957143999999991,2900
62.39266399999984,11.141143999999988,2831
62.06866399999984,10.493143999999988,2786
61.74466399999984,11.141143999999988,2759
61.420663999999846,11.141143999999988,2713
61.09666399999985,11.141143999999988,2696
60.77266399999985,11.789143999999988,2673
63.04066399999984,11.141143999999988,2912
62.71666399999984,11.141143999999988,2855
62.39266399999984,10.493143999999988,2813
67.25266399999981,15.677143999999986,3830
67.25266399999981,15.029143999999986,3868
67.25266399999981,14.381143999999988,3896
66.92866399999981,15.029143999999986,3819
66.60466399999981,15.677143999999986,3797
64.01266399999983,11.141143999999988,3068
66.60466399999981,15.029143999999986,3860
54.29266399999989,18.269143999999983,1190
54.616663999999886,17.621143999999987,1148
53.96866399999989,18.269143999999983,1163
43.92466399999995,1.4211439999999929,289
44.24866399999995,0.7731439999999932,301
44.572663999999946,0.1251439999999934,369
46.84066399999993,1.4211439999999929,346
44.572663999999946,1.4211439999999929,910
44.24866399999995,1.4211439999999929,894
45.54466399999994,1.4211439999999929,408
46.516663999999935,1.4211439999999929,362
42.30466399999996,2.717143999999992,327
44.24866399999995,2.717143999999992,906
44.572663999999946,2.717143999999992,873
43.92466399999995,2.0691439999999925,360
42.30466399999996,2.0691439999999925,330
42.62866399999996,2.0691439999999925,243
42.62866399999996,1.4211439999999929,281
42.95266399999996,1.4211439999999929,263
43.276663999999954,1.4211439999999929,254
46.516663999999935,-1.170856000000006,425
46.19266399999994,-1.170856000000006,386
45.86866399999994,-0.5228560000000062,404
45.54466399999994,-0.5228560000000062,384
48.46066399999992,1.4211439999999929,188
41.332663999999966,2.0691439999999925,1234
41.98066399999996,2.717143999999992,1193
48.46066399999992,-1.8188560000000056,358
47.81266399999993,0.7731439999999932,253
46.84066399999993,0.7731439999999932,331
44.572663999999946,-1.170856000000006,325
43.60066399999995,-1.170856000000006,818
43.276663999999954,-1.8188560000000056,906
43.276663999999954,0.1251439999999934,406
42.95266399999996,0.1251439999999934,383
43.276663999999954,-0.5228560000000062,444
43.60066399999995,-0.5228560000000062,807
47.81266399999993,-3.7628560000000046,955
47.48866399999993,-2.4668560000000053,414
47.81266399999993,-0.5228560000000062,845
46.516663999999935,-1.8188560000000056,906
48.136663999999925,-1.170856000000006,342
47.48866399999993,-1.170856000000006,841
45.22066399999994,8.54914399999999,133
45.22066399999994,7.90114399999999,123
46.19266399999994,-0.5228560000000062,342
46.516663999999935,-0.5228560000000062,873
48.78466399999992,-3.114856000000005,978
50.72866399999991,2.0691439999999925,273
50.40466399999991,2.0691439999999925,281
40.36066399999997,-3.7628560000000046,1425
41.65666399999997,-1.170856000000006,1342
41.332663999999966,1.4211439999999929,1280
43.276663999999954,13.733143999999989,3910
42.95266399999996,13.733143999999989,3932
41.65666399999997,15.029143999999986,4016
40.68466399999997,17.621143999999987,4178
43.60066399999995,13.085143999999987,3903
41.65666399999997,12.437143999999988,2569
41.65666399999997,13.085143999999987,2588
41.98066399999996,13.085143999999987,2638
41.65666399999997,13.733143999999989,2640
41.332663999999966,13.733143999999989,2632
41.332663999999966,14.381143999999988,2789
41.00866399999997,14.381143999999988,2695
41.332663999999966,13.085143999999987,2614
41.00866399999997,15.029143999999986,2895
41.98066399999996,13.733143999999989,2837
42.30466399999996,14.381143999999988,2976
42.30466399999996,12.437143999999988,2577
42.62866399999996,12.437143999999988,2756
42.95266399999996,12.437143999999988,3041
42.30466399999996,11.789143999999988,2586
42.95266399999996,11.789143999999988,2796
42.62866399999996,11.789143999999988,2787
43.276663999999954,11.789143999999988,2850
42.95266399999996,13.085143999999987,3804
42.30466399999996,13.085143999999987,2863
43.276663999999954,13.085143999999987,3852
43.276663999999954,12.437143999999988,3859
42.62866399999996,11.141143999999988,2632
42.95266399999996,11.141143999999988,2675
42.95266399999996,10.493143999999988,2693
44.572663999999946,8.54914399999999,170
44.89666399999994,7.90114399999999,138
44.89666399999994,9.197143999999987,192
44.24866399999995,7.90114399999999,159
44.572663999999946,7.90114399999999,148
43.92466399999995,7.90114399999999,241
44.24866399999995,7.25314399999999,169
44.89666399999994,7.25314399999999,167
45.22066399999994,7.25314399999999,107
45.54466399999994,7.90114399999999,180
44.572663999999946,7.25314399999999,207
52.996663999999896,22.805143999999984,1368
52.996663999999896,23.45314399999998,1391
51.37666399999991,22.15714399999998,1213
51.37666399999991,22.805143999999984,1267
50.08066399999991,20.213143999999986,972
50.72866399999991,20.213143999999986,1012
50.40466399999991,20.213143999999986,970
50.08066399999991,20.86114399999998,992
50.08066399999991,21.50914399999997,1011
50.08066399999991,22.15714399999998,1035
50.08066399999991,22.805143999999984,1110
53.96866399999989,22.805143999999984,1827
53.64466399999989,23.45314399999998,1498
53.32066399999989,23.45314399999998,1444
50.40466399999991,19.565143999999982,955
50.08066399999991,18.917143999999983,960
50.08066399999991,18.269143999999983,909
52.0246639999999,22.805143999999984,1264
52.0246639999999,23.45314399999998,1300
51.37666399999991,19.565143999999982,1176
51.05266399999991,19.565143999999982,1020
50.72866399999991,18.917143999999983,993
50.72866399999991,19.565143999999982,1037
49.75666399999992,18.917143999999983,1102
50.40466399999991,18.269143999999983,873
53.64466399999989,19.565143999999982,1236
53.96866399999989,18.917143999999983,1204
53.64466399999989,18.917143999999983,1221
53.64466399999989,20.213143999999986,1275
52.996663999999896,18.917143999999983,1096
52.996663999999896,18.269143999999983,1068
53.32066399999989,18.917143999999983,1195
50.72866399999991,17.621143999999987,826
50.72866399999991,18.269143999999983,860
52.6726639999999,16.325143999999987,936
52.996663999999896,16.325143999999987,922
52.996663999999896,15.677143999999986,908
53.32066399999989,15.677143999999986,904
53.32066399999989,15.029143999999986,825
53.64466399999989,15.029143999999986,831
53.96866399999989,15.029143999999986,859
52.6726639999999,18.917143999999983,1138
53.32066399999989,16.325143999999987,1074
52.6726639999999,15.029143999999986,889
51.05266399999991,22.805143999999984,1301
51.05266399999991,23.45314399999998,1329
50.72866399999991,22.15714399999998,1286
50.40466399999991,22.15714399999998,1325
51.05266399999991,22.15714399999998,1264
54.616663999999886,16.973143999999984,1108
54.29266399999989,16.325143999999987,1058
53.96866399999989,15.677143999999986,964
50.72866399999991,21.50914399999997,1296
50.40466399999991,21.50914399999997,1065
50.40466399999991,17.621143999999987,855
53.32066399999989,22.805143999999984,1583
53.64466399999989,22.15714399999998,1445
54.29266399999989,16.973143999999984,1084
50.72866399999991,20.86114399999998,1050
51.700663999999904,22.805143999999984,1351
51.05266399999991,21.50914399999997,1248
50.08066399999991,19.565143999999982,974
52.0246639999999,18.917143999999983,8008
52.0246639999999,19.565143999999982,8001
53.64466399999989,18.269143999999983,1157
51.700663999999904,20.213143999999986,1286
53.32066399999989,19.565143999999982,1227
50.72866399999991,23.45314399999998,1411
50.72866399999991,22.805143999999984,1380
49.43266399999992,20.213143999999986,1285
49.75666399999992,21.50914399999997,1099
49.75666399999992,22.15714399999998,1351
49.43266399999992,22.15714399999998,1364
51.05266399999991,18.917143999999983,996
51.05266399999991,18.269143999999983,907
53.32066399999989,16.973143999999984,1048
53.64466399999989,16.973143999999984,1042
49.75666399999992,20.86114399999998,1044
50.40466399999991,22.805143999999984,8090
53.64466399999989,16.325143999999987,1028
53.96866399999989,20.86114399999998,1302
54.29266399999989,20.86114399999998,1348
53.96866399999989,21.50914399999997,1368
53.64466399999989,15.677143999999986,980
53.96866399999989,20.213143999999986,1261
53.96866399999989,19.565143999999982,1250
54.29266399999989,19.565143999999982,1264
53.96866399999989,16.325143999999987,999
53.64466399999989,17.621143999999987,1098
53.96866399999989,22.15714399999998,1435
53.64466399999989,21.50914399999997,1400
53.64466399999989,20.86114399999998,1354
52.6726639999999,15.677143999999986,936
51.05266399999991,20.213143999999986,1222
54.940663999999884,24.101143999999977,3201
54.616663999999886,23.45314399999998,3145
54.29266399999989,23.45314399999998,3008
53.64466399999989,22.805143999999984,1585
53.96866399999989,16.973143999999984,1105
50.40466399999991,20.86114399999998,1303
53.32066399999989,18.269143999999983,1176
49.75666399999992,19.565143999999982,1133
50.40466399999991,23.45314399999998,1516
49.75666399999992,20.213143999999986,1357
49.43266399999992,19.565143999999982,1245
49.43266399999992,20.86114399999998,1061
53.96866399999989,17.621143999999987,1308
42.30466399999996,-1.8188560000000056,8319
41.98066399999996,-1.8188560000000056,8302
41.65666399999997,0.7731439999999932,8306
42.62866399999996,-1.8188560000000056,8434
42.95266399999996,-1.8188560000000056,8463
42.62866399999996,-3.114856000000005,8557
42.95266399999996,-2.4668560000000053,8535
42.62866399999996,-7.650856000000003,8899
42.30466399999996,-7.650856000000003,8959
42.30466399999996,-8.946856000000002,9095
42.30466399999996,-8.298856000000002,9069
41.98066399999996,-8.298856000000002,9058
42.30466399999996,-7.002856000000003,8841
42.62866399999996,-6.354856000000003,8783
42.30466399999996,-6.354856000000003,8738
42.62866399999996,-5.706856000000004,8238
41.98066399999996,-4.410856000000004,8192
42.30466399999996,-3.7628560000000046,8583
40.03666399999997,-0.5228560000000062,8286
39.38866399999998,-0.5228560000000062,8334
41.00866399999997,0.7731439999999932,8434
40.68466399999997,0.7731439999999932,8466
40.36066399999997,0.1251439999999934,8544
39.712663999999975,-0.5228560000000062,8443
38.41666399999998,-0.5228560000000062,8455
39.06466399999998,-0.5228560000000062,8577
38.74066399999998,-1.170856000000006,8463
41.332663999999966,0.7731439999999932,8494
41.65666399999997,2.717143999999992,8094
41.65666399999997,2.0691439999999925,8117
41.332663999999966,0.1251439999999934,8452
41.332663999999966,-0.5228560000000062,8396
41.65666399999997,-4.410856000000004,8166
40.03666399999997,-2.4668560000000053,8404
41.00866399999997,-4.410856000000004,8287
43.276663999999954,-5.706856000000004,8368
39.38866399999998,-1.170856000000006,8429
38.09266399999999,-1.170856000000006,8842
38.74066399999998,-0.5228560000000062,8605
37.76866399999999,-1.170856000000006,8907
39.06466399999998,-1.8188560000000056,8427
39.38866399999998,-3.114856000000005,8327
39.38866399999998,-2.4668560000000053,8383
39.06466399999998,-2.4668560000000053,8410
39.06466399999998,-3.114856000000005,8331
39.06466399999998,-3.7628560000000046,8305
38.74066399999998,-3.7628560000000046,8384
40.03666399999997,-3.7628560000000046,8283
40.03666399999997,-3.114856000000005,8483
40.03666399999997,-1.8188560000000056,8564
39.712663999999975,-1.8188560000000056,8529
39.712663999999975,-1.170856000000006,8465
40.36066399999997,-1.170856000000006,8484
40.68466399999997,-1.170856000000006,8462
41.00866399999997,-1.170856000000006,8450
41.332663999999966,-1.170856000000006,8290
43.276663999999954,-8.298856000000002,9059
42.95266399999996,-8.298856000000002,9027
41.65666399999997,-5.706856000000004,65535
41.98066399999996,-7.002856000000003,65535
41.98066399999996,-6.354856000000003,65535
41.332663999999966,-5.058856000000004,8405
43.276663999999954,-3.7628560000000046,8840
42.95266399999996,-4.410856000000004,8774
42.62866399999996,-4.410856000000004,8764
42.30466399999996,-4.410856000000004,8723
41.00866399999997,-5.706856000000004,8343
41.332663999999966,-1.8188560000000056,8236
40.68466399999997,-3.114856000000005,8190
41.00866399999997,-3.114856000000005,8241
41.00866399999997,-2.4668560000000053,8264
41.332663999999966,-2.4668560000000053,8317
40.68466399999997,-4.410856000000004,8227
40.36066399999997,-4.410856000000004,8311
40.68466399999997,-3.7628560000000046,8219
40.36066399999997,-3.114856000000005,8197
41.65666399999997,-2.4668560000000053,8334
38.09266399999999,-3.7628560000000046,8431
38.74066399999998,-3.114856000000005,8375
37.76866399999999,-3.7628560000000046,8488
39.712663999999975,-3.114856000000005,8319
38.41666399999998,-3.7628560000000046,8396
40.03666399999997,-4.410856000000004,65535
40.03666399999997,-5.058856000000004,65535
39.38866399999998,-6.354856000000003,65535
39.38866399999998,-7.002856000000003,65535
42.95266399999996,-3.114856000000005,8968
41.98066399999996,-1.170856000000006,8331
42.30466399999996,-2.4668560000000053,8372
41.65666399999997,-0.5228560000000062,8429
41.98066399999996,-0.5228560000000062,8266
41.65666399999997,0.1251439999999934,8293
41.98066399999996,0.1251439999999934,8315
37.76866399999999,-5.058856000000004,8367
36.79666399999999,-4.410856000000004,8426
38.74066399999998,-4.410856000000004,8323
37.12066399999999,-4.410856000000004,8400
37.44466399999999,-5.058856000000004,8924
37.44466399999999,-7.002856000000003,65535
37.44466399999999,-6.354856000000003,65535
37.44466399999999,-5.706856000000004,8600
39.712663999999975,-3.7628560000000046,8393
42.62866399999996,-8.946856000000002,65535
42.30466399999996,-5.706856000000004,8745
42.30466399999996,-5.058856000000004,8830
42.95266399999996,-5.706856000000004,8270
41.00866399999997,-5.058856000000004,8311
40.68466399999997,-5.058856000000004,8285
41.65666399999997,-5.058856000000004,65535
41.65666399999997,-6.354856000000003,65535
36.79666399999999,-6.354856000000003,65535
37.12066399999999,-5.706856000000004,8768
37.76866399999999,-5.706856000000004,8567
38.09266399999999,-4.410856000000004,8702
37.12066399999999,-5.058856000000004,8722
36.79666399999999,-5.058856000000004,8680
37.76866399999999,-4.410856000000004,65535
37.76866399999999,-7.002856000000003,65535
38.41666399999998,-6.354856000000003,65535
38.09266399999999,-6.354856000000003,65535
48.78466399999992,1.4211439999999929,283
56.23666399999988,8.54914399999999,6610
55.58866399999988,9.197143999999987,6415
55.91266399999988,9.197143999999987,6556
55.26466399999988,10.493143999999988,2034
55.91266399999988,12.437143999999988,2169
55.58866399999988,11.789143999999988,6255
55.58866399999988,11.141143999999988,6296
55.26466399999988,11.789143999999988,6288
55.58866399999988,10.493143999999988,6411
55.58866399999988,13.085143999999987,2126
56.88466399999987,9.845143999999989,6562
57.20866399999987,9.845143999999989,6597
56.56066399999988,9.845143999999989,6534
56.88466399999987,8.54914399999999,6649
54.940663999999884,9.845143999999989,7756
54.940663999999884,11.789143999999988,6512
55.91266399999988,13.085143999999987,2184
56.23666399999988,13.733143999999989,2228
55.91266399999988,13.733143999999989,2231
56.23666399999988,14.381143999999988,2251
56.23666399999988,15.029143999999986,2292
56.23666399999988,15.677143999999986,2347
56.56066399999988,14.381143999999988,2308
56.88466399999987,14.381143999999988,2278
56.23666399999988,13.085143999999987,2176
56.56066399999988,13.085143999999987,2256
56.88466399999987,12.437143999999988,2293
57.20866399999987,12.437143999999988,2309
57.53266399999987,12.437143999999988,2324
56.88466399999987,15.029143999999986,2304
56.56066399999988,15.677143999999986,2364
56.88466399999987,15.677143999999986,2383
56.88466399999987,16.325143999999987,2398
55.91266399999988,11.789143999999988,6581
57.20866399999987,10.493143999999988,6784
49.43266399999992,1.4211439999999929,247
49.75666399999992,0.7731439999999932,282
49.75666399999992,2.0691439999999925,223
50.08066399999991,2.717143999999992,249
49.75666399999992,1.4211439999999929,254
47.81266399999993,1.4211439999999929,294
48.136663999999925,2.0691439999999925,292
48.46066399999992,2.0691439999999925,236
48.136663999999925,1.4211439999999929,264
48.78466399999992,0.1251439999999934,352
48.46066399999992,0.1251439999999934,275
47.81266399999993,0.1251439999999934,866
46.84066399999993,-0.5228560000000062,329
47.16466399999993,0.7731439999999932,255
46.84066399999993,0.1251439999999934,316
46.84066399999993,-1.170856000000006,397
50.08066399999991,1.4211439999999929,263
50.08066399999991,2.0691439999999925,254
49.43266399999992,2.717143999999992,193
49.75666399999992,3.365143999999992,220
50.08066399999991,3.365143999999992,247
49.10866399999992,2.0691439999999925,215
49.43266399999992,2.0691439999999925,199
48.78466399999992,0.7731439999999932,308
48.78466399999992,-0.5228560000000062,381
48.78466399999992,-1.170856000000006,411
48.136663999999925,0.7731439999999932,237
48.46066399999992,0.7731439999999932,209
43.92466399999995,5.957143999999991,185
44.24866399999995,5.957143999999991,225
43.92466399999995,5.309143999999991,138
42.95266399999996,2.717143999999992,196
45.54466399999994,2.0691439999999925,929
45.22066399999994,2.0691439999999925,885
42.95266399999996,2.0691439999999925,930
42.95266399999996,0.7731439999999932,333
43.276663999999954,0.7731439999999932,309
46.19266399999994,0.7731439999999932,338
46.516663999999935,0.7731439999999932,308
45.86866399999994,0.1251439999999934,867
46.19266399999994,0.1251439999999934,884
47.81266399999993,-1.170856000000006,976
48.136663999999925,-2.4668560000000053,888
47.48866399999993,-1.8188560000000056,398
47.16466399999993,-1.170856000000006,364
47.16466399999993,-0.5228560000000062,348
46.84066399999993,-1.8188560000000056,960
45.22066399999994,-0.5228560000000062,325
44.89666399999994,0.1251439999999934,362
45.22066399999994,0.7731439999999932,401
45.54466399999994,0.7731439999999932,436
45.86866399999994,0.7731439999999932,932
45.22066399999994,0.1251439999999934,873
44.89666399999994,0.7731439999999932,406
43.92466399999995,-0.5228560000000062,907
43.92466399999995,-1.170856000000006,851
44.24866399999995,-1.170856000000006,831
45.22066399999994,-1.170856000000006,953
44.572663999999946,-0.5228560000000062,344
44.24866399999995,0.1251439999999934,391
44.572663999999946,0.7731439999999932,900
43.276663999999954,-1.170856000000006,890
42.95266399999996,-0.5228560000000062,1092
44.24866399999995,2.0691439999999925,879
43.60066399999995,0.7731439999999932,314
43.60066399999995,2.0691439999999925,320
52.6726639999999,4.661143999999991,6601
52.6726639999999,5.309143999999991,6624
51.700663999999904,5.309143999999991,6569
52.0246639999999,5.309143999999991,6581
52.3486639999999,5.309143999999991,6597
51.37666399999991,4.013143999999992,6577
52.3486639999999,5.957143999999991,6591
52.0246639999999,6.60514399999999,6621
52.6726639999999,5.957143999999991,6608
52.996663999999896,5.957143999999991,6621
53.32066399999989,5.957143999999991,6615
52.996663999999896,6.60514399999999,6597
53.32066399999989,6.60514399999999,6589
52.6726639999999,6.60514399999999,6617
52.996663999999896,5.309143999999991,6636
59.15266399999986,24.101143999999977,65535
56.88466399999987,24.101143999999977,65535
56.88466399999987,23.45314399999998,65535
56.88466399999987,22.805143999999984,65535
57.20866399999987,24.74914399999998,65535
56.88466399999987,24.74914399999998,65535
56.56066399999988,24.74914399999998,65535
56.56066399999988,25.397143999999983,65535
56.56066399999988,24.101143999999977,65535
56.56066399999988,23.45314399999998,65535
56.56066399999988,26.04514399999998,65535
56.88466399999987,26.04514399999998,65535
57.20866399999987,25.397143999999983,65535
57.53266399999987,25.397143999999983,65535
56.23666399999988,26.04514399999998,65535
56.23666399999988,26.69314399999997,65535
55.91266399999988,26.69314399999997,65535
56.56066399999988,26.69314399999997,65535
56.56066399999988,27.34114399999998,65535
56.56066399999988,27.989143999999985,65535
56.23666399999988,27.989143999999985,65535
55.91266399999988,27.34114399999998,65535
56.56066399999988,22.805143999999984,65535
56.56066399999988,22.15714399999998,65535
56.56066399999988,21.50914399999997,65535
57.20866399999987,26.69314399999997,65535
39.06466399999998,-8.946856000000002,65535
38.41666399999998,-8.298856000000002,65535
45.86866399999994,11.789143999999988,1588
46.19266399999994,11.789143999999988,1575
46.19266399999994,10.493143999999988,1615
45.22066399999994,18.269143999999983,1452
45.22066399999994,18.917143999999983,1493
45.54466399999994,16.973143999999984,1279
45.22066399999994,17.621143999999987,1396
45.86866399999994,16.325143999999987,1148
45.54466399999994,18.917143999999983,1493
45.54466399999994,16.325143999999987,1174
45.54466399999994,18.269143999999983,1400
44.89666399999994,18.917143999999983,1690
46.19266399999994,16.973143999999984,1239
46.19266399999994,16.325143999999987,1205
45.86866399999994,16.973143999999984,1198
45.86866399999994,17.621143999999987,1241
46.19266399999994,15.677143999999986,1113
46.516663999999935,16.325143999999987,1178
45.54466399999994,15.677143999999986,1197
45.22066399999994,15.029143999999986,1179
45.54466399999994,15.029143999999986,1161
45.22066399999994,15.677143999999986,1244
44.572663999999946,15.677143999999986,1579
44.24866399999995,15.677143999999986,1600
43.92466399999995,16.325143999999987,1664
44.89666399999994,15.677143999999986,1543
45.54466399999994,17.621143999999987,1366
45.22066399999994,16.325143999999987,1233
46.516663999999935,16.973143999999984,1308
45.86866399999994,18.269143999999983,1600
43.92466399999995,15.677143999999986,1766
45.22066399999994,13.733143999999989,1296
47.48866399999993,19.565143999999982,1132
47.16466399999993,18.917143999999983,1118
47.81266399999993,18.917143999999983,1066
45.54466399999994,9.845143999999989,170
45.22066399999994,9.845143999999989,160
45.22066399999994,10.493143999999988,198
45.86866399999994,9.845143999999989,198
45.86866399999994,10.493143999999988,2358
48.78466399999992,21.50914399999997,1276
49.10866399999992,20.213143999999986,1171
49.10866399999992,18.917143999999983,1089
48.46066399999992,17.621143999999987,899
49.43266399999992,17.621143999999987,973
49.10866399999992,17.621143999999987,1012
48.136663999999925,18.269143999999983,978
49.10866399999992,18.269143999999983,951
49.43266399999992,18.269143999999983,1004
49.43266399999992,16.973143999999984,950
49.75666399999992,16.973143999999984,921
49.75666399999992,16.325143999999987,899
50.08066399999991,15.677143999999986,793
50.08066399999991,15.029143999999986,784
49.43266399999992,18.917143999999983,1075
47.81266399999993,20.86114399999998,1195
48.136663999999925,20.86114399999998,1226
48.46066399999992,20.86114399999998,1268
48.46066399999992,21.50914399999997,1272
49.10866399999992,19.565143999999982,1182
48.136663999999925,17.621143999999987,900
48.78466399999992,22.15714399999998,1375
48.78466399999992,20.86114399999998,1407
49.10866399999992,20.86114399999998,1262
48.78466399999992,18.269143999999983,921
48.78466399999992,17.621143999999987,939
49.10866399999992,21.50914399999997,1289
48.78466399999992,20.213143999999986,1415
48.46066399999992,20.213143999999986,1456
48.136663999999925,19.565143999999982,1605
48.46066399999992,19.565143999999982,1484
48.46066399999992,18.917143999999983,934
48.46066399999992,18.269143999999983,906
48.78466399999992,19.565143999999982,1250
48.78466399999992,18.917143999999983,992
47.81266399999993,18.269143999999983,960
49.10866399999992,22.15714399999998,1416
49.43266399999992,21.50914399999997,1414
48.136663999999925,18.917143999999983,1306
48.136663999999925,20.213143999999986,1625
52.636,-8.018,65535
52.312,-7.370000000000001,65535
52.312,-8.018,65535
52.636,-8.666,65535
51.988,-8.666,65535
51.988,-8.018,65535
52.96,-8.666,65535
52.96,-6.074000000000002,65535
53.28399999999999,-6.722000000000001,65535
53.60799999999999,-6.722000000000001,65535
53.60799999999999,-7.370000000000001,65535
53.60799999999999,-8.018,65535
54.25599999999999,-8.666,65535
53.93199999999999,-8.666,65535
53.93199999999999,-8.018,65535
52.312,-6.722000000000001,65535
52.636,-6.722000000000001,65535
53.93199999999999,-6.722000000000001,65535
54.25599999999999,-6.074000000000002,65535
53.28399999999999,-7.370000000000001,65535
52.96,-7.370000000000001,65535
52.312,-8.666,65535
52.96,-8.018,65535
52.636,-7.370000000000001,65535
52.96,-6.722000000000001,65535
51.988,-9.314,65535
52.312,-9.314,65535
54.579999999999984,-6.722000000000001,65535
54.579999999999984,-6.074000000000002,65535
53.28399999999999,-8.018,65535
53.28399999999999,-8.666,65535
53.28399999999999,-9.314,65535
53.93199999999999,-9.314,65535
54.25599999999999,-9.314,65535
53.60799999999999,-8.666,65535
53.60799999999999,-9.314,65535
49.43266399999992,14.381143999999988,886
49.75666399999992,14.381143999999988,800
49.75666399999992,15.029143999999986,796
49.75666399999992,13.733143999999989,805
50.08066399999991,13.733143999999989,801
49.75666399999992,15.677143999999986,837
50.40466399999991,15.029143999999986,762
49.43266399999992,13.733143999999989,814
50.40466399999991,15.677143999999986,782
50.40466399999991,13.733143999999989,831
46.19266399999994,15.029143999999986,1093
45.86866399999994,15.029143999999986,1152
45.86866399999994,14.381143999999988,1130
46.19266399999994,13.733143999999989,1185
45.86866399999994,13.733143999999989,1261
58.50466399999986,13.733143999999989,2420
58.180663999999865,13.733143999999989,2406
58.180663999999865,13.085143999999987,2378
57.85666399999987,12.437143999999988,2342
60.44866399999985,15.677143999999986,2627
60.124663999999854,15.677143999999986,2561
60.124663999999854,16.325143999999987,2599
59.800663999999855,16.325143999999987,2527
59.800663999999855,17.621143999999987,2506
59.47666399999986,18.269143999999983,2488
61.74466399999984,16.973143999999984,2638
61.420663999999846,16.973143999999984,2611
60.77266399999985,16.973143999999984,2563
65.63266399999982,22.15714399999998,3742
65.95666399999982,21.50914399999997,3702
65.63266399999982,20.86114399999998,3673
64.98466399999982,20.213143999999986,3605
64.66066399999983,20.213143999999986,3583
64.33666399999983,19.565143999999982,3277
64.01266399999983,19.565143999999982,2990
63.68866399999983,20.213143999999986,2943
64.66066399999983,18.917143999999983,5654
59.15266399999986,16.325143999999987,2463
59.15266399999986,15.029143999999986,2467
59.15266399999986,17.621143999999987,2480
57.53266399999987,14.381143999999988,2304
57.53266399999987,15.029143999999986,2324
61.09666399999985,14.381143999999988,2731
60.77266399999985,15.029143999999986,2682
60.44866399999985,15.029143999999986,2668
58.180663999999865,15.029143999999986,2381
58.50466399999986,16.325143999999987,2415
58.50466399999986,15.677143999999986,2388
63.36466399999984,13.085143999999987,2975
63.04066399999984,14.381143999999988,2912
62.39266399999984,15.677143999999986,2834
63.36466399999984,13.733143999999989,2957
63.36466399999984,14.381143999999988,2929
62.71666399999984,15.677143999999986,2862
62.39266399999984,17.621143999999987,2696
59.800663999999855,15.677143999999986,2749
55.58866399999988,13.733143999999989,2258
57.20866399999987,14.381143999999988,2288
57.85666399999987,14.381143999999988,2336
58.82866399999986,16.973143999999984,2472
58.82866399999986,16.325143999999987,2450
59.15266399999986,18.269143999999983,2484
60.44866399999985,17.621143999999987,2539
59.15266399999986,12.437143999999988,2443
59.15266399999986,13.085143999999987,2457
58.82866399999986,12.437143999999988,2419
59.47666399999986,16.325143999999987,2509
58.82866399999986,14.381143999999988,2496
59.47666399999986,15.677143999999986,2527
63.36466399999984,18.917143999999983,2896
63.04066399999984,17.621143999999987,2851
62.71666399999984,17.621143999999987,2825
63.68866399999983,19.565143999999982,2929
62.39266399999984,16.973143999999984,2740
59.800663999999855,16.973143999999984,2515
59.47666399999986,17.621143999999987,2492
57.85666399999987,13.085143999999987,2368
57.53266399999987,13.085143999999987,2349
58.50466399999986,11.789143999999988,2390
57.85666399999987,15.029143999999986,2370
57.20866399999987,13.733143999999989,2294
57.53266399999987,13.733143999999989,2355
61.74466399999984,16.325143999999987,2734
61.420663999999846,16.325143999999987,2701
61.09666399999985,16.325143999999987,2690
61.09666399999985,16.973143999999984,2658
60.124663999999854,15.029143999999986,2836
66.60466399999981,20.86114399999998,3777
67.25266399999981,20.86114399999998,3845
67.90066399999981,20.213143999999986,3915
67.57666399999981,20.213143999999986,4540
59.800663999999855,15.029143999999986,2556
58.50466399999986,15.029143999999986,2398
59.47666399999986,15.029143999999986,2541
60.44866399999985,16.325143999999987,2627
59.15266399999986,15.677143999999986,2485
57.85666399999987,13.733143999999989,2396
58.82866399999986,13.733143999999989,2443
58.50466399999986,13.085143999999987,2428
57.20866399999987,13.085143999999987,2325
56.88466399999987,13.085143999999987,2299
58.180663999999865,11.789143999999988,2361
62.06866399999984,16.973143999999984,2729
65.95666399999982,23.45314399999998,3977
59.800663999999855,14.381143999999988,5411
59.800663999999855,18.269143999999983,2497
63.04066399999984,15.029143999999986,2880
62.71666399999984,15.029143999999986,2870
62.39266399999984,16.325143999999987,2803
63.36466399999984,12.437143999999988,3008
68.5486639999998,17.621143999999987,4128
68.5486639999998,18.269143999999983,4061
68.5486639999998,18.917143999999983,4038
68.2246639999998,18.917143999999983,3994
59.800663999999855,13.085143999999987,2560
60.124663999999854,13.085143999999987,2599
59.47666399999986,16.973143999999984,2501
59.15266399999986,16.973143999999984,2493
56.56066399999988,13.733143999999989,2246
60.124663999999854,17.621143999999987,2516
57.85666399999987,16.325143999999987,2475
58.180663999999865,16.325143999999987,2437
58.180663999999865,15.677143999999986,2445
57.20866399999987,16.325143999999987,2487
57.53266399999987,15.677143999999986,2505
57.85666399999987,15.677143999999986,2476
44.89666399999994,23.45314399999998,2485
44.572663999999946,23.45314399999998,2555
44.89666399999994,24.74914399999998,2472
44.572663999999946,24.74914399999998,2591
44.572663999999946,24.101143999999977,2532
44.24866399999995,24.101143999999977,2561
47.48866399999993,25.397143999999983,2333
47.48866399999993,24.74914399999998,2273
47.16466399999993,24.74914399999998,2195
47.16466399999993,24.101143999999977,2097
47.48866399999993,22.15714399999998,2227
47.81266399999993,22.15714399999998,2313
47.16466399999993,22.15714399999998,2206
47.16466399999993,23.45314399999998,2258
47.16466399999993,22.805143999999984,2264
46.84066399999993,24.101143999999977,2178
45.86866399999994,27.34114399999998,2518
45.54466399999994,27.34114399999998,2499
45.54466399999994,27.989143999999985,2615
45.86866399999994,20.86114399999998,2390
45.86866399999994,21.50914399999997,2398
46.19266399999994,21.50914399999997,2334
46.19266399999994,27.34114399999998,2518
46.19266399999994,26.69314399999997,2509
46.516663999999935,26.69314399999997,2471
46.516663999999935,26.04514399999998,2367
47.48866399999993,22.805143999999984,2325
46.84066399999993,22.805143999999984,2138
45.54466399999994,22.15714399999998,2447
45.22066399999994,22.15714399999998,2525
44.89666399999994,22.15714399999998,2943
47.48866399999993,23.45314399999998,2291
46.516663999999935,24.101143999999977,2017
46.516663999999935,24.74914399999998,2231
45.86866399999994,24.101143999999977,2180
47.16466399999993,26.69314399999997,2549
47.16466399999993,27.34114399999998,2604
43.92466399999995,25.397143999999983,2563
44.24866399999995,24.74914399999998,2470
44.89666399999994,26.04514399999998,2357
44.89666399999994,26.69314399999997,2404
45.22066399999994,26.69314399999997,2439
45.22066399999994,27.34114399999998,2466
46.84066399999993,26.69314399999997,2510
47.48866399999993,26.69314399999997,2503
44.24866399999995,25.397143999999983,2402
43.92466399999995,26.04514399999998,2579
46.19266399999994,24.101143999999977,2225
44.572663999999946,25.397143999999983,2440
46.84066399999993,24.74914399999998,2238
46.516663999999935,21.50914399999997,2338
46.84066399999993,21.50914399999997,2345
44.572663999999946,26.69314399999997,2395
44.572663999999946,27.34114399999998,2416
44.89666399999994,27.34114399999998,2531
44.572663999999946,27.989143999999985,2436
44.24866399999995,27.989143999999985,2450
44.572663999999946,28.63714399999997,2501
45.86866399999994,22.15714399999998,2259
45.86866399999994,22.805143999999984,2153
44.24866399999995,23.45314399999998,2588
43.92466399999995,27.989143999999985,65535
46.84066399999993,27.34114399999998,2671
45.22066399999994,23.45314399999998,2460
45.54466399999994,23.45314399999998,2263
45.54466399999994,24.101143999999977,2210
45.22066399999994,24.101143999999977,2434
44.89666399999994,24.101143999999977,2504
46.19266399999994,22.15714399999998,2390
46.516663999999935,22.15714399999998,2356
45.22066399999994,21.50914399999997,2630
45.54466399999994,21.50914399999997,2478
45.54466399999994,20.86114399999998,2502
46.516663999999935,27.989143999999985,2621
46.19266399999994,27.989143999999985,2606
45.54466399999994,25.397143999999983,2324
45.22066399999994,25.397143999999983,2334
45.22066399999994,26.04514399999998,2390
47.81266399999993,24.101143999999977,2386
47.48866399999993,26.04514399999998,2476
47.81266399999993,26.04514399999998,2498
46.19266399999994,23.45314399999998,2057
45.86866399999994,23.45314399999998,2106
44.24866399999995,26.04514399999998,2384
45.22066399999994,27.989143999999985,2596
45.86866399999994,24.74914399999998,2219
46.516663999999935,25.397143999999983,2411
46.84066399999993,25.397143999999983,2294
46.19266399999994,26.04514399999998,2382
45.86866399999994,26.04514399999998,2347
43.92466399999995,23.45314399999998,2818
44.89666399999994,25.397143999999983,2445
46.19266399999994,20.86114399999998,2379
47.81266399999993,25.397143999999983,2510
44.572663999999946,22.805143999999984,2823
44.572663999999946,22.15714399999998,2965
46.516663999999935,23.45314399999998,2196
45.86866399999994,25.397143999999983,2273
44.24866399999995,27.34114399999998,3211
45.22066399999994,24.74914399999998,2536
45.54466399999994,22.805143999999984,2226
45.22066399999994,28.63714399999997,2656
44.89666399999994,28.63714399999997,2595
47.81266399999993,23.45314399999998,2443
46.19266399999994,24.74914399999998,2305
46.19266399999994,25.397143999999983,2329
43.92466399999995,24.101143999999977,2781
43.92466399999995,24.74914399999998,2794
47.81266399999993,26.69314399999997,2725
47.48866399999993,24.101143999999977,2318
46.84066399999993,26.04514399999998,3126
46.19266399999994,22.805143999999984,2450
47.48866399999993,27.34114399999998,2678
46.19266399999994,20.213143999999986,65535
45.54466399999994,26.04514399999998,2482
44.24866399999995,26.69314399999997,2400
45.86866399999994,27.989143999999985,2654
47.81266399999993,5.957143999999991,6586
