51.56399999999999,-0.4100000000000028,65535
51.887999999999984,-0.4100000000000028,65535
50.91599999999999,-1.7060000000000022,65535
51.23999999999999,-1.0580000000000025,65535
51.56399999999999,-1.0580000000000025,65535
51.23999999999999,-1.7060000000000022,65535
51.56399999999999,0.2379999999999968,65535
47.16466399999993,9.845143999999989,2535
47.48866399999993,9.845143999999989,2518
48.136663999999925,14.381143999999988,2500
47.81266399999993,13.085143999999987,2469
47.16466399999993,11.141143999999988,2450
47.48866399999993,11.789143999999988,2597
48.136663999999925,16.325143999999987,2854
47.48866399999993,12.437143999999988,2453
48.136663999999925,15.677143999999986,3120
47.16466399999993,10.493143999999988,2458
47.16466399999993,9.197143999999987,2501
48.136663999999925,13.733143999999989,2476
48.136663999999925,15.029143999999986,2639
47.81266399999993,16.973143999999984,2875
48.46066399999992,14.381143999999988,3784
47.48866399999993,13.085143999999987,2459
47.16466399999993,13.085143999999987,2469
47.48866399999993,14.381143999999988,2671
47.48866399999993,13.733143999999989,2751
47.48866399999993,15.029143999999986,2922
46.516663999999935,13.733143999999989,2635
46.84066399999993,13.733143999999989,2596
46.84066399999993,13.085143999999987,2540
48.78466399999992,14.381143999999988,65535
47.16466399999993,15.677143999999986,2940
46.516663999999935,14.381143999999988,2634
46.84066399999993,14.381143999999988,2601
47.16466399999993,14.381143999999988,3005
46.516663999999935,15.029143999999986,2647
47.81266399999993,16.325143999999987,2872
47.16466399999993,15.029143999999986,2980
47.81266399999993,15.677143999999986,2878
47.48866399999993,15.677143999999986,2917
46.516663999999935,13.085143999999987,2774
46.84066399999993,12.437143999999988,2579
48.136663999999925,11.789143999999988,2428
47.81266399999993,12.437143999999988,2442
46.84066399999993,15.677143999999986,3208
46.516663999999935,15.677143999999986,2740
46.84066399999993,16.325143999999987,2792
47.81266399999993,14.381143999999988,2605
48.78466399999992,16.973143999999984,2812
48.136663999999925,16.973143999999984,2841
48.46066399999992,13.733143999999989,2507
47.81266399999993,13.733143999999989,2594
50.08066399999991,8.54914399999999,2354
48.46066399999992,9.845143999999989,2426
51.05266399999991,7.25314399999999,2313
51.37666399999991,7.25314399999999,2305
51.37666399999991,6.60514399999999,2302
48.46066399999992,16.325143999999987,2859
48.46066399999992,16.973143999999984,2828
48.78466399999992,16.325143999999987,2872
48.46066399999992,15.677143999999986,2880
48.78466399999992,15.677143999999986,3361
47.48866399999993,16.325143999999987,2882
47.16466399999993,16.325143999999987,2934
46.19266399999994,14.381143999999988,2692
45.86866399999994,15.677143999999986,2744
43.60066399999995,16.325143999999987,3160
45.54466399999994,14.381143999999988,2806
45.54466399999994,13.733143999999989,2829
48.136663999999925,13.085143999999987,2456
48.46066399999992,11.141143999999988,2421
48.136663999999925,11.141143999999988,2425
48.46066399999992,7.90114399999999,2434
49.10866399999992,8.54914399999999,2402
48.78466399999992,2.0691439999999925,2408
49.10866399999992,7.25314399999999,2418
52.0246639999999,7.90114399999999,2350
47.16466399999993,11.789143999999988,2470
49.43266399999992,11.141143999999988,2413
53.64466399999989,9.845143999999989,2481
50.72866399999991,4.013143999999992,2325
51.05266399999991,11.141143999999988,2426
47.48866399999993,11.141143999999988,2438
46.84066399999993,11.789143999999988,3062
46.516663999999935,11.141143999999988,3031
45.54466399999994,11.141143999999988,2925
46.19266399999994,11.141143999999988,2997
45.86866399999994,11.141143999999988,2981
44.572663999999946,11.141143999999988,2772
43.92466399999995,12.437143999999988,65535
45.54466399999994,12.437143999999988,3012
45.54466399999994,11.789143999999988,2975
48.78466399999992,15.029143999999986,3852
47.81266399999993,15.029143999999986,2730
47.81266399999993,11.141143999999988,2428
50.40466399999991,18.917143999999983,2809
52.3486639999999,20.86114399999998,2987
54.616663999999886,18.269143999999983,2907
54.29266399999989,18.917143999999983,2916
49.10866399999992,14.381143999999988,65535
50.08066399999991,14.381143999999988,2622
48.78466399999992,13.733143999999989,65535
52.6726639999999,13.085143999999987,2517
52.3486639999999,13.085143999999987,2515
53.96866399999989,12.437143999999988,2556
54.29266399999989,12.437143999999988,2557
47.48866399999993,8.54914399999999,2487
47.81266399999993,17.621143999999987,2909
47.48866399999993,18.917143999999983,3020
47.48866399999993,20.86114399999998,3241
46.84066399999993,23.45314399999998,4798
44.572663999999946,26.04514399999998,65535
47.48866399999993,21.50914399999997,3275
47.81266399999993,21.50914399999997,3308
48.46066399999992,22.15714399999998,3037
47.48866399999993,16.973143999999984,65535
49.10866399999992,16.325143999999987,2767
49.75666399999992,18.269143999999983,2860
46.19266399999994,13.085143999999987,3743
41.98066399999996,12.437143999999988,4005
43.60066399999995,10.493143999999988,4166
45.54466399999994,9.197143999999987,2588
47.81266399999993,22.805143999999984,65535
49.75666399999992,22.805143999999984,3074
50.72866399999991,3.365143999999992,2335
51.05266399999991,4.013143999999992,2323
50.72866399999991,4.661143999999991,2321
51.05266399999991,4.661143999999991,2318
51.05266399999991,3.365143999999992,2330
51.05266399999991,2.717143999999992,2356
50.40466399999991,4.661143999999991,2326
50.72866399999991,2.717143999999992,2338
50.40466399999991,4.013143999999992,2336
51.05266399999991,5.309143999999991,2324
50.72866399999991,5.309143999999991,2325
51.37666399999991,3.365143999999992,2336
51.37666399999991,4.661143999999991,2308
50.72866399999991,5.957143999999991,2309
50.40466399999991,5.957143999999991,2313
50.40466399999991,3.365143999999992,2343
50.40466399999991,5.309143999999991,2336
50.08066399999991,5.309143999999991,2359
49.75666399999992,5.309143999999991,2401
49.75666399999992,5.957143999999991,2419
51.37666399999991,5.309143999999991,2296
51.700663999999904,4.661143999999991,2280
50.08066399999991,4.013143999999992,2346
50.08066399999991,5.957143999999991,2361
50.08066399999991,4.661143999999991,2376
49.43266399999992,5.309143999999991,2438
49.43266399999992,5.957143999999991,2451
52.0246639999999,4.661143999999991,2278
52.3486639999999,4.661143999999991,2289
50.72866399999991,15.029143999999986,2590
51.05266399999991,15.029143999999986,2531
51.05266399999991,13.733143999999989,2498
50.40466399999991,13.085143999999987,2507
49.10866399999992,7.90114399999999,2413
48.78466399999992,7.90114399999999,2423
50.40466399999991,7.90114399999999,2345
50.08066399999991,7.90114399999999,2350
49.75666399999992,7.90114399999999,2360
49.43266399999992,7.90114399999999,2389
49.75666399999992,8.54914399999999,2365
49.43266399999992,8.54914399999999,2384
49.43266399999992,9.197143999999987,2391
49.10866399999992,9.197143999999987,2406
47.48866399999993,7.90114399999999,2473
47.81266399999993,7.90114399999999,2452
48.136663999999925,7.90114399999999,2444
48.136663999999925,9.845143999999989,2441
47.81266399999993,9.197143999999987,2496
47.81266399999993,8.54914399999999,2499
47.81266399999993,9.845143999999989,2453
54.940663999999884,9.197143999999987,2540
54.616663999999886,9.197143999999987,2520
54.29266399999989,9.197143999999987,2528
53.96866399999989,9.197143999999987,2525
53.64466399999989,9.197143999999987,2508
54.616663999999886,9.845143999999989,2512
54.29266399999989,9.845143999999989,2501
53.96866399999989,9.845143999999989,2487
53.64466399999989,10.493143999999988,2471
53.96866399999989,10.493143999999988,2498
53.96866399999989,11.141143999999988,2535
54.29266399999989,10.493143999999988,2523
53.32066399999989,10.493143999999988,2456
54.940663999999884,11.141143999999988,2569
52.6726639999999,13.733143999999989,2520
52.3486639999999,13.733143999999989,2519
52.3486639999999,14.381143999999988,2527
52.0246639999999,14.381143999999988,2540
52.0246639999999,11.789143999999988,2474
52.3486639999999,11.789143999999988,2469
52.3486639999999,12.437143999999988,2498
52.0246639999999,15.029143999999986,2572
51.700663999999904,14.381143999999988,2549
52.0246639999999,13.733143999999989,2535
51.700663999999904,13.733143999999989,2532
52.6726639999999,12.437143999999988,2508
53.32066399999989,11.789143999999988,2494
53.96866399999989,11.789143999999988,2548
53.64466399999989,11.789143999999988,2503
53.64466399999989,11.141143999999988,2502
53.32066399999989,11.141143999999988,2475
52.996663999999896,11.789143999999988,2552
52.996663999999896,12.437143999999988,2544
52.996663999999896,13.733143999999989,2533
53.64466399999989,13.733143999999989,2617
53.96866399999989,13.733143999999989,2630
54.29266399999989,13.085143999999987,2637
53.96866399999989,13.085143999999987,2639
53.32066399999989,13.733143999999989,2615
52.0246639999999,13.085143999999987,2536
51.700663999999904,13.085143999999987,2506
52.996663999999896,14.381143999999988,2562
52.0246639999999,12.437143999999988,2513
51.700663999999904,12.437143999999988,2509
51.37666399999991,11.789143999999988,2467
51.37666399999991,12.437143999999988,2475
52.6726639999999,11.789143999999988,2487
53.64466399999989,13.085143999999987,2623
53.32066399999989,13.085143999999987,2622
52.996663999999896,13.085143999999987,2566
53.64466399999989,12.437143999999988,2562
51.37666399999991,13.733143999999989,2485
53.32066399999989,12.437143999999988,2570
52.6726639999999,14.381143999999988,2532
51.37666399999991,13.085143999999987,2483
53.32066399999989,14.381143999999988,2595
52.3486639999999,15.029143999999986,2543
52.0246639999999,15.677143999999986,2607
51.700663999999904,15.029143999999986,2594
51.05266399999991,16.325143999999987,2677
51.05266399999991,16.973143999999984,2701
51.700663999999904,15.677143999999986,2620
51.37666399999991,15.677143999999986,2632
51.37666399999991,16.325143999999987,2668
50.72866399999991,13.085143999999987,2471
50.72866399999991,12.437143999999988,2467
51.05266399999991,13.085143999999987,2484
51.05266399999991,14.381143999999988,2501
50.40466399999991,12.437143999999988,2453
50.40466399999991,11.789143999999988,2441
50.08066399999991,12.437143999999988,2476
50.72866399999991,11.789143999999988,2428
51.05266399999991,12.437143999999988,2477
50.72866399999991,14.381143999999988,2634
51.37666399999991,14.381143999999988,2534
50.72866399999991,13.733143999999989,2517
50.40466399999991,14.381143999999988,2619
51.37666399999991,15.029143999999986,2563
55.26466399999988,9.197143999999987,2568
55.58866399999988,8.54914399999999,2582
55.91266399999988,8.54914399999999,2622
56.23666399999988,9.197143999999987,2628
56.23666399999988,10.493143999999988,2637
56.23666399999988,9.845143999999989,2624
55.91266399999988,9.845143999999989,2617
56.56066399999988,9.197143999999987,2640
56.56066399999988,8.54914399999999,2651
51.05266399999991,6.60514399999999,2307
51.700663999999904,7.90114399999999,2318
50.72866399999991,6.60514399999999,2316
51.700663999999904,7.25314399999999,2315
50.72866399999991,7.25314399999999,2330
52.0246639999999,7.25314399999999,2327
52.3486639999999,7.90114399999999,2367
51.05266399999991,5.957143999999991,2305
50.40466399999991,7.25314399999999,2338
51.700663999999904,6.60514399999999,2293
51.700663999999904,5.957143999999991,2276
52.3486639999999,9.197143999999987,2401
51.700663999999904,8.54914399999999,2353
52.0246639999999,8.54914399999999,2355
52.3486639999999,8.54914399999999,2381
51.37666399999991,7.90114399999999,2310
52.3486639999999,7.25314399999999,2321
51.37666399999991,5.957143999999991,2293
50.72866399999991,7.90114399999999,2335
51.37666399999991,9.197143999999987,2376
51.700663999999904,9.197143999999987,2366
50.40466399999991,6.60514399999999,2326
51.05266399999991,7.90114399999999,2329
51.37666399999991,8.54914399999999,2339
52.0246639999999,5.957143999999991,2285
52.3486639999999,6.60514399999999,2309
51.05266399999991,8.54914399999999,2384
52.0246639999999,9.197143999999987,2384
52.6726639999999,9.197143999999987,2430
52.0246639999999,9.845143999999989,2398
51.700663999999904,9.845143999999989,2397
51.37666399999991,9.845143999999989,2432
50.72866399999991,8.54914399999999,2353
51.05266399999991,9.845143999999989,2448
50.72866399999991,9.845143999999989,2411
50.40466399999991,9.845143999999989,2430
51.05266399999991,9.197143999999987,2379
50.40466399999991,9.197143999999987,2398
50.08066399999991,9.197143999999987,2360
51.05266399999991,10.493143999999988,2426
50.40466399999991,8.54914399999999,2357
50.72866399999991,9.197143999999987,2358
49.75666399999992,9.197143999999987,2368
52.996663999999896,9.197143999999987,2437
52.3486639999999,9.845143999999989,2393
52.996663999999896,8.54914399999999,2426
52.996663999999896,7.90114399999999,2424
53.32066399999989,7.90114399999999,2394
53.32066399999989,7.25314399999999,2355
53.64466399999989,7.25314399999999,2458
52.996663999999896,10.493143999999988,2423
52.6726639999999,10.493143999999988,2416
52.6726639999999,9.845143999999989,2400
53.32066399999989,9.845143999999989,2483
53.32066399999989,9.197143999999987,2487
53.64466399999989,8.54914399999999,2473
53.32066399999989,8.54914399999999,2429
52.6726639999999,8.54914399999999,2403
52.0246639999999,10.493143999999988,2432
52.0246639999999,11.141143999999988,2446
51.700663999999904,11.141143999999988,2448
52.6726639999999,7.25314399999999,2694
52.996663999999896,7.25314399999999,2360
52.6726639999999,7.90114399999999,2407
53.64466399999989,7.90114399999999,2411
52.996663999999896,11.141143999999988,2484
52.6726639999999,11.141143999999988,2482
52.3486639999999,10.493143999999988,2417
52.996663999999896,9.845143999999989,2436
51.700663999999904,10.493143999999988,2436
51.37666399999991,10.493143999999988,2428
51.700663999999904,11.789143999999988,2481
52.3486639999999,11.141143999999988,2429
51.37666399999991,11.141143999999988,2432
51.05266399999991,11.789143999999988,2433
49.10866399999992,11.141143999999988,2421
48.78466399999992,11.141143999999988,2422
48.46066399999992,11.789143999999988,2427
49.43266399999992,11.789143999999988,2418
50.08066399999991,11.789143999999988,2447
49.75666399999992,12.437143999999988,2455
49.10866399999992,11.789143999999988,2443
48.78466399999992,12.437143999999988,2484
48.46066399999992,12.437143999999988,2472
49.10866399999992,12.437143999999988,2466
48.78466399999992,13.085143999999987,2511
48.136663999999925,12.437143999999988,2441
47.81266399999993,11.789143999999988,2437
48.136663999999925,10.493143999999988,2463
47.81266399999993,10.493143999999988,2480
48.78466399999992,10.493143999999988,2409
47.48866399999993,10.493143999999988,2497
48.46066399999992,10.493143999999988,2418
49.43266399999992,13.085143999999987,2498
48.46066399999992,13.085143999999987,2529
49.43266399999992,10.493143999999988,2392
49.75666399999992,9.845143999999989,2379
49.75666399999992,10.493143999999988,2400
50.40466399999991,11.141143999999988,2422
50.08066399999991,11.141143999999988,2410
50.72866399999991,11.141143999999988,2418
49.75666399999992,11.141143999999988,2412
48.78466399999992,11.789143999999988,2458
50.40466399999991,10.493143999999988,2389
50.08066399999991,9.845143999999989,2375
50.08066399999991,10.493143999999988,2393
49.43266399999992,12.437143999999988,2447
49.75666399999992,11.789143999999988,2431
49.10866399999992,13.085143999999987,2553
50.72866399999991,10.493143999999988,2405
49.10866399999992,10.493143999999988,2401
48.78466399999992,9.845143999999989,2417
48.46066399999992,8.54914399999999,2443
48.46066399999992,9.197143999999987,2449
48.78466399999992,9.197143999999987,2410
48.78466399999992,8.54914399999999,2427
50.08066399999991,7.25314399999999,2373
49.75666399999992,6.60514399999999,2391
49.43266399999992,6.60514399999999,2424
49.10866399999992,6.60514399999999,2430
49.43266399999992,7.25314399999999,2399
49.75666399999992,7.25314399999999,2393
49.10866399999992,5.957143999999991,2446
48.78466399999992,7.25314399999999,2439
50.08066399999991,6.60514399999999,2388
47.48866399999993,9.197143999999987,2505
48.136663999999925,8.54914399999999,2474
48.136663999999925,9.197143999999987,2467
47.81266399999993,7.25314399999999,2457
49.43266399999992,9.845143999999989,2384
49.10866399999992,9.845143999999989,2413
53.64466399999989,14.381143999999988,2612
50.08066399999991,13.085143999999987,2698
49.75666399999992,13.085143999999987,2735
45.86866399999994,9.197143999999987,2578
46.19266399999994,9.197143999999987,2564
46.516663999999935,8.54914399999999,2517
46.516663999999935,9.197143999999987,2559
46.19266399999994,8.54914399999999,2576
47.16466399999993,8.54914399999999,2491
45.86866399999994,4.661143999999991,2550
46.84066399999993,9.845143999999989,2532
45.22066399999994,5.957143999999991,2631
45.22066399999994,5.309143999999991,2662
45.86866399999994,5.957143999999991,2580
45.54466399999994,5.957143999999991,2614
44.89666399999994,4.661143999999991,2544
44.89666399999994,5.309143999999991,2556
44.572663999999946,4.661143999999991,2577
44.24866399999995,4.661143999999991,2590
43.92466399999995,4.661143999999991,2591
46.19266399999994,7.25314399999999,2526
48.78466399999992,5.957143999999991,2465
48.136663999999925,6.60514399999999,2503
48.46066399999992,6.60514399999999,2472
48.78466399999992,6.60514399999999,2485
47.16466399999993,7.90114399999999,2477
48.136663999999925,7.25314399999999,2452
48.46066399999992,7.25314399999999,2444
46.516663999999935,6.60514399999999,2536
46.84066399999993,6.60514399999999,2511
46.84066399999993,7.25314399999999,2491
46.516663999999935,5.957143999999991,2565
46.19266399999994,5.957143999999991,2566
46.84066399999993,8.54914399999999,2496
46.84066399999993,7.90114399999999,2485
45.86866399999994,5.309143999999991,2564
46.19266399999994,6.60514399999999,2557
45.86866399999994,6.60514399999999,2533
47.48866399999993,6.60514399999999,2516
47.48866399999993,7.25314399999999,2488
47.16466399999993,7.25314399999999,2482
49.10866399999992,4.013143999999992,2452
49.75666399999992,4.661143999999991,2403
49.43266399999992,4.661143999999991,2435
49.10866399999992,5.309143999999991,2477
46.19266399999994,4.661143999999991,2546
46.84066399999993,9.197143999999987,2514
46.19266399999994,5.309143999999991,2529
46.516663999999935,5.309143999999991,2557
45.54466399999994,6.60514399999999,2678
45.54466399999994,5.309143999999991,2616
43.60066399999995,4.013143999999992,2622
43.60066399999995,3.365143999999992,2656
42.62866399999996,2.717143999999992,2725
43.276663999999954,2.717143999999992,2689
45.54466399999994,4.661143999999991,2561
45.22066399999994,4.661143999999991,2565
47.16466399999993,5.309143999999991,2578
47.16466399999993,5.957143999999991,2566
46.19266399999994,7.90114399999999,2516
49.75666399999992,2.717143999999992,2388
49.10866399999992,2.717143999999992,2394
48.78466399999992,2.717143999999992,2422
45.86866399999994,3.365143999999992,2658
46.84066399999993,3.365143999999992,2577
46.516663999999935,3.365143999999992,2606
46.19266399999994,3.365143999999992,2633
47.16466399999993,6.60514399999999,2528
49.10866399999992,3.365143999999992,2423
45.54466399999994,4.013143999999992,2568
46.516663999999935,7.25314399999999,2513
47.16466399999993,4.661143999999991,2583
46.84066399999993,4.661143999999991,2592
46.516663999999935,4.661143999999991,2599
46.84066399999993,5.957143999999991,2592
47.81266399999993,3.365143999999992,2508
47.48866399999993,4.013143999999992,2538
48.136663999999925,4.013143999999992,2530
47.81266399999993,4.013143999999992,2563
47.48866399999993,4.661143999999991,2613
47.16466399999993,3.365143999999992,2605
46.84066399999993,4.013143999999992,2606
48.46066399999992,5.957143999999991,2499
46.19266399999994,2.717143999999992,2644
47.16466399999993,2.0691439999999925,2522
46.516663999999935,2.717143999999992,2617
46.84066399999993,2.717143999999992,2597
46.84066399999993,2.0691439999999925,2561
47.16466399999993,2.717143999999992,2543
44.572663999999946,5.309143999999991,2572
44.572663999999946,5.957143999999991,2623
44.89666399999994,6.60514399999999,2667
44.572663999999946,6.60514399999999,2709
43.60066399999995,5.309143999999991,2638
43.92466399999995,7.25314399999999,2734
43.60066399999995,6.60514399999999,2712
43.276663999999954,6.60514399999999,2697
43.276663999999954,5.957143999999991,2656
45.86866399999994,8.54914399999999,2585
45.54466399999994,8.54914399999999,2592
48.136663999999925,3.365143999999992,2490
48.46066399999992,3.365143999999992,2498
48.46066399999992,2.717143999999992,2471
47.48866399999993,5.309143999999991,2676
46.516663999999935,9.845143999999989,2564
46.84066399999993,10.493143999999988,3731
47.81266399999993,5.309143999999991,2605
45.22066399999994,6.60514399999999,2661
46.19266399999994,4.013143999999992,2605
45.86866399999994,4.013143999999992,2582
45.22066399999994,4.013143999999992,2717
44.89666399999994,4.013143999999992,2784
46.84066399999993,5.309143999999991,2661
48.136663999999925,-1.8188560000000056,2545
48.136663999999925,0.1251439999999934,2484
48.136663999999925,-0.5228560000000062,2521
47.48866399999993,-0.5228560000000062,2510
47.16466399999993,-1.8188560000000056,2570
47.48866399999993,0.7731439999999932,2466
47.16466399999993,0.1251439999999934,2477
45.86866399999994,7.25314399999999,2539
48.136663999999925,5.309143999999991,2556
49.10866399999992,4.661143999999991,2470
48.46066399999992,4.013143999999992,2510
48.136663999999925,4.661143999999991,2547
47.81266399999993,6.60514399999999,2551
47.48866399999993,5.957143999999991,2649
48.136663999999925,5.957143999999991,2846
45.86866399999994,7.90114399999999,2540
46.516663999999935,7.90114399999999,2504
49.43266399999992,3.365143999999992,2427
49.43266399999992,4.013143999999992,2448
48.136663999999925,2.717143999999992,2529
47.81266399999993,2.717143999999992,2541
47.48866399999993,2.717143999999992,2561
50.40466399999991,2.717143999999992,2351
48.46066399999992,-4.410856000000004,2725
48.46066399999992,-3.7628560000000046,2707
48.46066399999992,-3.114856000000005,2685
48.46066399999992,-2.4668560000000053,2653
47.48866399999993,1.4211439999999929,2492
47.16466399999993,1.4211439999999929,2536
46.516663999999935,4.013143999999992,2604
43.60066399999995,4.661143999999991,2617
44.89666399999994,2.717143999999992,2838
45.22066399999994,2.717143999999992,2789
45.54466399999994,3.365143999999992,2667
45.22066399999994,3.365143999999992,2730
47.48866399999993,3.365143999999992,2531
46.19266399999994,9.845143999999989,2614
47.81266399999993,2.0691439999999925,2484
47.48866399999993,2.0691439999999925,2497
45.86866399999994,2.717143999999992,2680
44.89666399999994,5.957143999999991,2627
45.22066399999994,1.4211439999999929,2699
44.89666399999994,1.4211439999999929,2726
44.89666399999994,2.0691439999999925,2810
43.276663999999954,2.0691439999999925,2736
43.60066399999995,1.4211439999999929,2778
48.78466399999992,4.661143999999991,2489
48.78466399999992,5.309143999999991,2515
46.19266399999994,2.0691439999999925,2779
45.86866399999994,1.4211439999999929,2637
46.19266399999994,1.4211439999999929,2602
44.572663999999946,4.013143999999992,2753
44.89666399999994,3.365143999999992,2802
43.92466399999995,4.013143999999992,2636
44.24866399999995,4.013143999999992,2664
44.89666399999994,-0.5228560000000062,2582
45.54466399999994,0.1251439999999934,2543
46.516663999999935,0.1251439999999934,2500
44.572663999999946,2.0691439999999925,2858
49.75666399999992,4.013143999999992,2393
43.92466399999995,3.365143999999992,3027
43.92466399999995,2.717143999999992,2988
44.24866399999995,3.365143999999992,2938
44.572663999999946,3.365143999999992,2817
49.10866399999992,0.1251439999999934,2480
49.43266399999992,0.7731439999999932,2474
49.43266399999992,-1.8188560000000056,2636
49.10866399999992,-1.170856000000006,2560
49.10866399999992,-0.5228560000000062,2500
49.10866399999992,0.7731439999999932,2523
49.10866399999992,1.4211439999999929,2447
47.81266399999993,-1.8188560000000056,2583
47.81266399999993,-2.4668560000000053,2608
47.81266399999993,-3.114856000000005,2621
48.136663999999925,-3.7628560000000046,2684
44.572663999999946,9.197143999999987,2696
44.89666399999994,8.54914399999999,2669
45.22066399999994,9.197143999999987,2599
45.54466399999994,10.493143999999988,2647
44.572663999999946,10.493143999999988,2758
44.89666399999994,10.493143999999988,2744
44.89666399999994,9.845143999999989,2712
48.46066399999992,5.309143999999991,2535
50.91599999999999,-1.0580000000000025,65535
51.23999999999999,-0.4100000000000028,65535
50.91599999999999,-0.4100000000000028,65535
51.23999999999999,-2.354000000000002,65535
51.56399999999999,-2.354000000000002,65535
51.56399999999999,-3.0020000000000016,65535
50.91599999999999,-2.354000000000002,65535
53.50799999999997,-3.0020000000000016,65535
53.183999999999976,-2.354000000000002,65535
53.183999999999976,-3.0020000000000016,65535
52.85999999999998,-2.354000000000002,65535
52.21199999999998,-1.0580000000000025,65535
51.887999999999984,-1.0580000000000025,65535
52.53599999999998,-1.0580000000000025,65535
52.53599999999998,-1.7060000000000022,65535
52.85999999999998,-1.7060000000000022,65535
53.50799999999997,-2.354000000000002,65535
52.85999999999998,-1.0580000000000025,65535
52.53599999999998,1.5339999999999965,65535
52.53599999999998,0.8859999999999966,65535
52.53599999999998,0.2379999999999968,65535
52.53599999999998,-0.4100000000000028,65535
53.50799999999997,-1.7060000000000022,65535
53.183999999999976,-1.7060000000000022,65535
53.183999999999976,-1.0580000000000025,65535
52.85999999999998,-0.4100000000000028,65535
51.887999999999984,-2.354000000000002,65535
52.21199999999998,-2.354000000000002,65535
55.77599999999996,-2.354000000000002,65535
53.83199999999997,-1.0580000000000025,65535
53.83199999999997,-1.7060000000000022,65535
55.127999999999965,-1.7060000000000022,65535
54.80399999999997,-1.7060000000000022,65535
54.47999999999997,-1.7060000000000022,65535
54.15599999999997,-1.0580000000000025,65535
52.21199999999998,-1.7060000000000022,65535
53.50799999999997,-1.0580000000000025,65535
55.77599999999996,-3.0020000000000016,65535
55.45199999999996,-1.7060000000000022,65535
57.07199999999995,-2.354000000000002,65535
56.74799999999996,-3.0020000000000016,65535
56.42399999999996,-3.0020000000000016,65535
56.09999999999996,-3.650000000000001,65535
50.91599999999999,-3.0020000000000016,65535
50.91599999999999,-3.650000000000001,65535
50.59199999999999,-3.650000000000001,65535
50.59199999999999,-4.298000000000001,65535
51.23999999999999,-3.0020000000000016,65535
50.268,-4.946000000000001,65535
55.77599999999996,-3.650000000000001,65535
55.77599999999996,-4.298000000000001,65535
52.21199999999998,-0.4100000000000028,65535
52.53599999999998,-2.354000000000002,65535
51.56399999999999,-1.7060000000000022,65535
51.56399999999999,-3.650000000000001,65535
51.887999999999984,-4.298000000000001,65535
51.56399999999999,-4.298000000000001,65535
51.887999999999984,-1.7060000000000022,65535
52.21199999999998,-3.0020000000000016,65535
51.23999999999999,0.2379999999999968,65535
50.91599999999999,0.2379999999999968,65535
52.21199999999998,0.2379999999999968,65535
53.83199999999997,-3.0020000000000016,65535
54.15599999999997,-3.0020000000000016,65535
54.47999999999997,-3.0020000000000016,65535
55.127999999999965,-3.650000000000001,65535
54.80399999999997,-3.0020000000000016,65535
53.83199999999997,-2.354000000000002,65535
54.15599999999997,-0.4100000000000028,65535
54.47999999999997,-1.0580000000000025,65535
53.83199999999997,-0.4100000000000028,65535
53.183999999999976,-3.650000000000001,65535
53.183999999999976,-4.298000000000001,65535
52.85999999999998,-3.0020000000000016,65535
52.53599999999998,-3.0020000000000016,65535
51.887999999999984,-3.0020000000000016,65535
51.23999999999999,0.8859999999999966,65535
51.887999999999984,0.2379999999999968,65535
52.21199999999998,0.8859999999999966,65535
51.887999999999984,-4.946000000000001,65535
52.53599999999998,-3.650000000000001,65535
52.21199999999998,-4.298000000000001,65535
53.183999999999976,-0.4100000000000028,65535
51.23999999999999,-3.650000000000001,65535
51.887999999999984,-3.650000000000001,65535
52.21199999999998,-3.650000000000001,65535
51.56399999999999,0.8859999999999966,65535
51.887999999999984,0.8859999999999966,65535
52.85999999999998,0.8859999999999966,65535
53.50799999999997,-0.4100000000000028,65535
56.09999999999996,-4.298000000000001,65535
56.74799999999996,-4.946000000000001,65535
56.74799999999996,-4.298000000000001,65535
56.42399999999996,-4.946000000000001,65535
56.42399999999996,-4.298000000000001,65535
56.09999999999996,-4.946000000000001,65535
57.39599999999995,-4.298000000000001,65535
57.39599999999995,-3.0020000000000016,65535
57.39599999999995,-3.650000000000001,65535
56.42399999999996,-3.650000000000001,65535
57.07199999999995,-3.650000000000001,65535
57.07199999999995,-4.298000000000001,65535
56.74799999999996,-3.650000000000001,65535
59.15266399999986,27.34114399999998,65535
59.47666399999986,26.69314399999997,65535
59.47666399999986,26.04514399999998,65535
59.15266399999986,26.04514399999998,65535
59.15266399999986,24.74914399999998,65535
59.15266399999986,25.397143999999983,65535
59.47666399999986,25.397143999999983,65535
58.50466399999986,26.69314399999997,65535
58.82866399999986,26.69314399999997,65535
57.85666399999987,26.04514399999998,65535
58.180663999999865,26.04514399999998,65535
58.180663999999865,26.69314399999997,65535
58.82866399999986,26.04514399999998,65535
58.50466399999986,25.397143999999983,65535
58.82866399999986,25.397143999999983,65535
58.82866399999986,24.74914399999998,65535
58.180663999999865,27.34114399999998,65535
57.85666399999987,27.34114399999998,65535
63.68866399999983,27.34114399999998,65535
60.124663999999854,24.74914399999998,65535
60.44866399999985,24.74914399999998,65535
60.44866399999985,25.397143999999983,65535
60.77266399999985,25.397143999999983,65535
61.09666399999985,26.04514399999998,65535
60.77266399999985,26.04514399999998,65535
60.77266399999985,26.69314399999997,65535
61.09666399999985,25.397143999999983,65535
61.09666399999985,26.69314399999997,65535
61.420663999999846,26.69314399999997,65535
61.74466399999984,27.34114399999998,65535
62.06866399999984,27.34114399999998,65535
62.39266399999984,27.34114399999998,65535
62.71666399999984,27.34114399999998,65535
64.01266399999983,27.34114399999998,65535
63.36466399999984,27.34114399999998,65535
63.04066399999984,27.34114399999998,65535
63.04066399999984,27.989143999999985,65535
64.33666399999983,27.989143999999985,65535
64.33666399999983,27.34114399999998,65535
64.66066399999983,27.34114399999998,65535
64.66066399999983,26.69314399999997,4756
64.98466399999982,25.397143999999983,4519
64.66066399999983,26.04514399999998,4736
64.98466399999982,26.04514399999998,4720
66.28066399999982,25.397143999999983,65535
65.95666399999982,24.74914399999998,4432
65.63266399999982,24.74914399999998,4436
65.63266399999982,25.397143999999983,4478
65.30866399999982,25.397143999999983,4499
66.60466399999981,25.397143999999983,65535
64.01266399999983,24.74914399999998,4656
64.01266399999983,24.101143999999977,4691
64.01266399999983,23.45314399999998,4715
63.68866399999983,23.45314399999998,4727
63.68866399999983,22.805143999999984,4752
63.68866399999983,26.04514399999998,65535
63.68866399999983,25.397143999999983,65535
63.68866399999983,26.69314399999997,65535
60.44866399999985,26.69314399999997,65535
64.01266399999983,27.989143999999985,65535
62.71666399999984,22.805143999999984,65535
62.39266399999984,22.805143999999984,65535
62.06866399999984,22.805143999999984,65535
62.06866399999984,23.45314399999998,65535
61.74466399999984,23.45314399999998,65535
61.420663999999846,23.45314399999998,65535
61.09666399999985,23.45314399999998,65535
61.09666399999985,24.101143999999977,65535
61.09666399999985,24.74914399999998,65535
60.77266399999985,24.74914399999998,65535
63.04066399999984,21.50914399999997,65535
63.04066399999984,22.15714399999998,65535
63.04066399999984,22.805143999999984,65535
62.39266399999984,26.04514399999998,65535
62.06866399999984,25.397143999999983,65535
61.74466399999984,25.397143999999983,65535
61.74466399999984,24.74914399999998,65535
61.74466399999984,24.101143999999977,65535
61.420663999999846,24.101143999999977,65535
62.39266399999984,26.69314399999997,65535
64.66066399999983,25.397143999999983,4588
64.66066399999983,24.74914399999998,4606
64.33666399999983,24.74914399999998,4617
63.36466399999984,22.805143999999984,4777
67.25266399999981,24.101143999999977,65535
66.92866399999981,24.101143999999977,65535
66.60466399999981,23.45314399999998,65535
66.28066399999982,23.45314399999998,65535
66.28066399999982,24.101143999999977,65535
65.95666399999982,24.101143999999977,3804
60.124663999999854,24.101143999999977,65535
60.124663999999854,23.45314399999998,65535
60.44866399999985,22.805143999999984,65535
60.77266399999985,27.34114399999998,65535
61.09666399999985,27.989143999999985,65535
61.09666399999985,28.63714399999997,65535
61.420663999999846,29.28514399999997,65535
61.74466399999984,29.933143999999977,65535
62.06866399999984,29.933143999999977,65535
62.39266399999984,29.933143999999977,65535
62.71666399999984,29.933143999999977,65535
61.420663999999846,22.805143999999984,65535
61.420663999999846,22.15714399999998,65535
61.09666399999985,22.15714399999998,65535
61.420663999999846,21.50914399999997,65535
62.39266399999984,27.989143999999985,65535
62.06866399999984,27.989143999999985,65535
61.420663999999846,27.34114399999998,65535
63.04066399999984,29.933143999999977,65535
63.68866399999983,29.28514399999997,65535
63.36466399999984,29.28514399999997,65535
63.36466399999984,29.933143999999977,65535
60.44866399999985,27.34114399999998,65535
61.74466399999984,29.28514399999997,65535
62.39266399999984,30.58114399999998,65535
62.71666399999984,31.229143999999977,65535
62.71666399999984,29.28514399999997,65535
63.04066399999984,28.63714399999997,65535
66.60466399999981,26.04514399999998,65535
66.60466399999981,26.69314399999997,65535
66.60466399999981,27.34114399999998,65535
62.71666399999984,26.04514399999998,65535
62.71666399999984,25.397143999999983,65535
63.04066399999984,25.397143999999983,65535
63.36466399999984,25.397143999999983,65535
62.71666399999984,23.45314399999998,65535
62.39266399999984,24.101143999999977,65535
62.71666399999984,22.15714399999998,65535
62.39266399999984,22.15714399999998,65535
62.39266399999984,21.50914399999997,65535
61.09666399999985,21.50914399999997,65535
60.77266399999985,22.805143999999984,65535
60.44866399999985,22.15714399999998,65535
60.77266399999985,23.45314399999998,65535
60.77266399999985,21.50914399999997,65535
60.77266399999985,22.15714399999998,65535
60.124663999999854,22.805143999999984,65535
60.44866399999985,24.101143999999977,65535
62.06866399999984,24.74914399999998,65535
50.72866399999991,16.325143999999987,2617
50.40466399999991,16.973143999999984,2719
50.72866399999991,16.973143999999984,2690
50.40466399999991,16.325143999999987,2768
50.08066399999991,16.973143999999984,2840
50.08066399999991,16.325143999999987,2673
51.700663999999904,16.973143999999984,2694
51.37666399999991,16.973143999999984,2699
51.05266399999991,15.677143999999986,2542
50.72866399999991,15.677143999999986,2607
51.05266399999991,17.621143999999987,2716
51.37666399999991,17.621143999999987,2764
51.700663999999904,17.621143999999987,2743
51.700663999999904,16.325143999999987,2679
52.0246639999999,22.15714399999998,3027
52.0246639999999,21.50914399999997,2998
52.3486639999999,21.50914399999997,2994
52.0246639999999,20.86114399999998,2967
51.700663999999904,20.86114399999998,2985
51.37666399999991,21.50914399999997,3024
51.37666399999991,20.86114399999998,3019
51.05266399999991,20.86114399999998,3028
52.6726639999999,23.45314399999998,3202
52.3486639999999,22.805143999999984,3141
52.3486639999999,20.213143999999986,2959
52.0246639999999,20.213143999999986,2928
52.3486639999999,19.565143999999982,2884
52.6726639999999,19.565143999999982,2967
51.700663999999904,21.50914399999997,3049
51.700663999999904,22.15714399999998,3055
52.6726639999999,21.50914399999997,3003
52.996663999999896,21.50914399999997,3030
52.6726639999999,20.86114399999998,3025
52.6726639999999,22.15714399999998,3061
52.6726639999999,20.213143999999986,3026
52.996663999999896,19.565143999999982,3019
52.996663999999896,20.86114399999998,3058
52.996663999999896,20.213143999999986,3062
53.32066399999989,20.213143999999986,2974
51.37666399999991,20.213143999999986,3014
52.3486639999999,16.973143999999984,2716
52.0246639999999,16.973143999999984,2720
52.0246639999999,16.325143999999987,2693
52.0246639999999,17.621143999999987,2770
52.6726639999999,16.973143999999984,2710
52.996663999999896,16.973143999999984,2730
52.3486639999999,16.325143999999987,2680
52.3486639999999,15.677143999999986,2627
51.700663999999904,18.269143999999983,2803
52.6726639999999,17.621143999999987,2740
52.3486639999999,17.621143999999987,2726
52.6726639999999,18.269143999999983,2814
52.3486639999999,18.269143999999983,2797
52.3486639999999,18.917143999999983,2844
52.996663999999896,17.621143999999987,2838
51.700663999999904,19.565143999999982,2884
51.700663999999904,18.917143999999983,2851
51.37666399999991,18.269143999999983,2806
58.82866399999986,9.197143999999987,3025
58.180663999999865,7.90114399999999,3113
58.50466399999986,8.54914399999999,3069
63.36466399999984,10.493143999999988,3406
63.36466399999984,11.141143999999988,3703
63.36466399999984,11.789143999999988,3873
63.68866399999983,11.789143999999988,3771
64.33666399999983,12.437143999999988,3984
64.66066399999983,12.437143999999988,4033
65.63266399999982,13.085143999999987,4128
65.95666399999982,13.085143999999987,4157
66.28066399999982,14.381143999999988,4228
65.95666399999982,13.733143999999989,4185
66.28066399999982,13.733143999999989,4207
65.30866399999982,13.085143999999987,4093
64.98466399999982,13.085143999999987,4071
64.01266399999983,11.789143999999988,3802
63.68866399999983,11.141143999999988,3738
59.800663999999855,10.493143999999988,2950
59.800663999999855,11.141143999999988,2952
60.124663999999854,11.141143999999988,2967
60.44866399999985,11.141143999999988,2979
60.124663999999854,11.789143999999988,3009
60.77266399999985,7.25314399999999,3197
60.77266399999985,6.60514399999999,3246
59.15266399999986,9.197143999999987,3010
59.47666399999986,9.197143999999987,3031
59.800663999999855,9.845143999999989,2968
59.47666399999986,11.141143999999988,2934
61.09666399999985,10.493143999999988,3041
60.77266399999985,10.493143999999988,3015
60.77266399999985,11.141143999999988,2998
62.06866399999984,9.197143999999987,3259
61.74466399999984,9.845143999999989,3197
61.420663999999846,9.845143999999989,3180
59.15266399999986,9.845143999999989,2990
59.47666399999986,9.845143999999989,2966
58.82866399999986,5.957143999999991,3285
58.180663999999865,7.25314399999999,3160
58.50466399999986,7.25314399999999,3194
58.50466399999986,6.60514399999999,3199
58.50466399999986,5.957143999999991,3255
58.82866399999986,8.54914399999999,3055
60.44866399999985,7.25314399999999,3171
60.44866399999985,7.90114399999999,3128
60.124663999999854,10.493143999999988,2954
60.44866399999985,9.197143999999987,3041
60.77266399999985,9.197143999999987,3082
60.77266399999985,8.54914399999999,3108
60.124663999999854,9.845143999999989,3197
60.44866399999985,10.493143999999988,2995
63.04066399999984,10.493143999999988,3370
62.06866399999984,9.845143999999989,3284
62.39266399999984,9.845143999999989,3292
62.71666399999984,9.845143999999989,3316
59.47666399999986,14.381143999999988,2998
59.47666399999986,13.733143999999989,2986
59.47666399999986,13.085143999999987,2957
59.800663999999855,12.437143999999988,2992
59.15266399999986,11.141143999999988,2889
59.15266399999986,14.381143999999988,2974
58.82866399999986,11.789143999999988,2847
58.50466399999986,12.437143999999988,2805
58.180663999999865,12.437143999999988,2798
57.85666399999987,11.789143999999988,2770
62.71666399999984,7.90114399999999,4168
62.39266399999984,7.90114399999999,4125
62.06866399999984,8.54914399999999,4100
60.44866399999985,5.309143999999991,3386
60.44866399999985,5.957143999999991,3709
60.77266399999985,5.957143999999991,3683
62.39266399999984,11.141143999999988,3193
62.06866399999984,10.493143999999988,3150
61.74466399999984,11.141143999999988,3123
61.420663999999846,11.141143999999988,3076
61.09666399999985,11.141143999999988,3056
60.77266399999985,11.789143999999988,3033
63.04066399999984,11.141143999999988,3708
62.71666399999984,11.141143999999988,3217
62.39266399999984,10.493143999999988,3177
67.25266399999981,15.677143999999986,4343
67.25266399999981,15.029143999999986,4388
67.25266399999981,14.381143999999988,4416
66.92866399999981,15.029143999999986,4333
66.60466399999981,15.677143999999986,4311
64.01266399999983,11.141143999999988,3786
66.60466399999981,15.029143999999986,4473
54.29266399999989,18.269143999999983,2910
54.616663999999886,17.621143999999987,2868
53.96866399999989,18.269143999999983,2898
43.92466399999995,1.4211439999999929,2767
44.24866399999995,0.7731439999999932,2731
44.572663999999946,0.1251439999999934,2671
46.84066399999993,1.4211439999999929,2563
44.572663999999946,1.4211439999999929,2774
44.24866399999995,1.4211439999999929,2863
45.54466399999994,1.4211439999999929,2679
46.516663999999935,1.4211439999999929,2620
42.30466399999996,2.717143999999992,2731
44.24866399999995,2.717143999999992,2889
44.572663999999946,2.717143999999992,2923
43.92466399999995,2.0691439999999925,2810
42.30466399999996,2.0691439999999925,2907
42.62866399999996,2.0691439999999925,2753
42.62866399999996,1.4211439999999929,2842
42.95266399999996,1.4211439999999929,2802
43.276663999999954,1.4211439999999929,2772
46.516663999999935,-1.170856000000006,2640
46.19266399999994,-1.170856000000006,2665
45.86866399999994,-0.5228560000000062,2641
45.54466399999994,-0.5228560000000062,2622
48.46066399999992,1.4211439999999929,2423
41.332663999999966,2.0691439999999925,2934
41.98066399999996,2.717143999999992,2893
48.46066399999992,-1.8188560000000056,2590
47.81266399999993,0.7731439999999932,2683
46.84066399999993,0.7731439999999932,2620
44.572663999999946,-1.170856000000006,2605
43.60066399999995,-1.170856000000006,2728
43.276663999999954,-1.8188560000000056,2765
43.276663999999954,0.1251439999999934,2839
42.95266399999996,0.1251439999999934,2813
43.276663999999954,-0.5228560000000062,2785
43.60066399999995,-0.5228560000000062,2762
47.81266399999993,-3.7628560000000046,2668
47.48866399999993,-2.4668560000000053,2624
47.81266399999993,-0.5228560000000062,2569
46.516663999999935,-1.8188560000000056,2668
48.136663999999925,-1.170856000000006,2652
47.48866399999993,-1.170856000000006,2575
45.22066399999994,8.54914399999999,2646
45.22066399999994,7.90114399999999,2634
46.19266399999994,-0.5228560000000062,2621
46.516663999999935,-0.5228560000000062,2603
48.78466399999992,-3.114856000000005,2724
50.72866399999991,2.0691439999999925,2373
50.40466399999991,2.0691439999999925,2367
40.36066399999997,-3.7628560000000046,4305
41.65666399999997,-1.170856000000006,4046
41.332663999999966,1.4211439999999929,3872
43.276663999999954,13.733143999999989,65535
42.95266399999996,13.733143999999989,65535
41.65666399999997,15.029143999999986,65535
40.68466399999997,17.621143999999987,65535
43.60066399999995,13.085143999999987,65535
41.65666399999997,12.437143999999988,4009
41.65666399999997,13.085143999999987,4028
41.98066399999996,13.085143999999987,4078
41.65666399999997,13.733143999999989,4080
41.332663999999966,13.733143999999989,4072
41.332663999999966,14.381143999999988,4229
41.00866399999997,14.381143999999988,4135
41.332663999999966,13.085143999999987,4054
41.00866399999997,15.029143999999986,4335
41.98066399999996,13.733143999999989,4277
42.30466399999996,14.381143999999988,4416
42.30466399999996,12.437143999999988,4017
42.62866399999996,12.437143999999988,4196
42.95266399999996,12.437143999999988,4481
42.30466399999996,11.789143999999988,4026
42.95266399999996,11.789143999999988,4236
42.62866399999996,11.789143999999988,4227
43.276663999999954,11.789143999999988,4290
42.95266399999996,13.085143999999987,65535
42.30466399999996,13.085143999999987,4303
43.276663999999954,13.085143999999987,65535
43.276663999999954,12.437143999999988,65535
42.62866399999996,11.141143999999988,4072
42.95266399999996,11.141143999999988,4115
42.95266399999996,10.493143999999988,4133
44.572663999999946,8.54914399999999,2690
44.89666399999994,7.90114399999999,2639
44.89666399999994,9.197143999999987,2712
44.24866399999995,7.90114399999999,2726
44.572663999999946,7.90114399999999,2681
43.92466399999995,7.90114399999999,2767
44.24866399999995,7.25314399999999,2741
44.89666399999994,7.25314399999999,2658
45.22066399999994,7.25314399999999,2638
45.54466399999994,7.90114399999999,2618
44.572663999999946,7.25314399999999,2902
52.996663999999896,22.805143999999984,3655
52.996663999999896,23.45314399999998,3684
51.37666399999991,22.15714399999998,3145
51.37666399999991,22.805143999999984,3199
50.08066399999991,20.213143999999986,2906
50.72866399999991,20.213143999999986,2947
50.40466399999991,20.213143999999986,2886
50.08066399999991,20.86114399999998,2973
50.08066399999991,21.50914399999997,3004
50.08066399999991,22.15714399999998,3041
50.08066399999991,22.805143999999984,3048
53.96866399999989,22.805143999999984,3796
53.64466399999989,23.45314399999998,3752
53.32066399999989,23.45314399999998,3707
50.40466399999991,19.565143999999982,2820
50.08066399999991,18.917143999999983,2850
50.08066399999991,18.269143999999983,2890
52.0246639999999,22.805143999999984,3092
52.0246639999999,23.45314399999998,3130
51.37666399999991,19.565143999999982,2914
51.05266399999991,19.565143999999982,2833
50.72866399999991,18.917143999999983,2811
50.72866399999991,19.565143999999982,2903
49.75666399999992,18.917143999999983,2838
50.40466399999991,18.269143999999983,2798
53.64466399999989,19.565143999999982,2921
53.96866399999989,18.917143999999983,2940
53.64466399999989,18.917143999999983,2919
53.64466399999989,20.213143999999986,2969
52.996663999999896,18.917143999999983,2867
52.996663999999896,18.269143999999983,2847
53.32066399999989,18.917143999999983,2871
50.72866399999991,17.621143999999987,2747
50.72866399999991,18.269143999999983,2784
52.6726639999999,16.325143999999987,2671
52.996663999999896,16.325143999999987,2633
52.996663999999896,15.677143999999986,2608
53.32066399999989,15.677143999999986,2650
53.32066399999989,15.029143999999986,2658
53.64466399999989,15.029143999999986,2637
53.96866399999989,15.029143999999986,2618
52.6726639999999,18.917143999999983,2886
53.32066399999989,16.325143999999987,2857
52.6726639999999,15.029143999999986,2542
51.05266399999991,22.805143999999984,3229
51.05266399999991,23.45314399999998,3256
50.72866399999991,22.15714399999998,3182
50.40466399999991,22.15714399999998,3206
51.05266399999991,22.15714399999998,3196
54.616663999999886,16.973143999999984,2852
54.29266399999989,16.325143999999987,2785
53.96866399999989,15.677143999999986,2700
50.72866399999991,21.50914399999997,3171
50.40466399999991,21.50914399999997,3052
50.40466399999991,17.621143999999987,2768
53.32066399999989,22.805143999999984,3677
53.64466399999989,22.15714399999998,3118
54.29266399999989,16.973143999999984,2821
50.72866399999991,20.86114399999998,2990
51.700663999999904,22.805143999999984,3228
51.05266399999991,21.50914399999997,3055
50.08066399999991,19.565143999999982,2883
52.0246639999999,18.917143999999983,3688
52.0246639999999,19.565143999999982,3681
53.64466399999989,18.269143999999983,2892
51.700663999999904,20.213143999999986,3054
53.32066399999989,19.565143999999982,2912
50.72866399999991,23.45314399999998,4075
50.72866399999991,22.805143999999984,4044
49.43266399999992,20.213143999999986,2926
49.75666399999992,21.50914399999997,3015
49.75666399999992,22.15714399999998,3668
49.43266399999992,22.15714399999998,3262
51.05266399999991,18.917143999999983,2816
51.05266399999991,18.269143999999983,2753
53.32066399999989,16.973143999999984,2779
53.64466399999989,16.973143999999984,2798
49.75666399999992,20.86114399999998,3026
50.40466399999991,22.805143999999984,4642
53.64466399999989,16.325143999999987,2757
53.96866399999989,20.86114399999998,3073
54.29266399999989,20.86114399999998,3119
53.96866399999989,21.50914399999997,3224
53.64466399999989,15.677143999999986,2712
53.96866399999989,20.213143999999986,3001
53.96866399999989,19.565143999999982,2964
54.29266399999989,19.565143999999982,2974
53.96866399999989,16.325143999999987,2748
53.64466399999989,17.621143999999987,2844
53.96866399999989,22.15714399999998,3138
53.64466399999989,21.50914399999997,3074
53.64466399999989,20.86114399999998,3026
52.6726639999999,15.677143999999986,2591
51.05266399999991,20.213143999999986,3275
54.940663999999884,24.101143999999977,65535
54.616663999999886,23.45314399999998,65535
54.29266399999989,23.45314399999998,65535
53.64466399999989,22.805143999999984,3700
53.96866399999989,16.973143999999984,2953
50.40466399999991,20.86114399999998,3706
53.32066399999989,18.269143999999983,2865
49.75666399999992,19.565143999999982,2899
50.40466399999991,23.45314399999998,3325
49.75666399999992,20.213143999999986,2930
49.43266399999992,19.565143999999982,2889
49.43266399999992,20.86114399999998,3035
53.96866399999989,17.621143999999987,3723
42.30466399999996,-1.8188560000000056,4110
41.98066399999996,-1.8188560000000056,4098
41.65666399999997,0.7731439999999932,3986
42.62866399999996,-1.8188560000000056,4135
42.95266399999996,-1.8188560000000056,4162
42.62866399999996,-3.114856000000005,4237
42.95266399999996,-2.4668560000000053,4215
42.62866399999996,-7.650856000000003,4579
42.30466399999996,-7.650856000000003,4639
42.30466399999996,-8.946856000000002,4775
42.30466399999996,-8.298856000000002,4749
41.98066399999996,-8.298856000000002,4738
42.30466399999996,-7.002856000000003,4521
42.62866399999996,-6.354856000000003,4463
42.30466399999996,-6.354856000000003,4418
42.62866399999996,-5.706856000000004,4384
41.98066399999996,-4.410856000000004,4338
42.30466399999996,-3.7628560000000046,4302
40.03666399999997,-0.5228560000000062,3966
39.38866399999998,-0.5228560000000062,4014
41.00866399999997,0.7731439999999932,4114
40.68466399999997,0.7731439999999932,4146
40.36066399999997,0.1251439999999934,4224
39.712663999999975,-0.5228560000000062,4123
38.41666399999998,-0.5228560000000062,4135
39.06466399999998,-0.5228560000000062,4257
38.74066399999998,-1.170856000000006,4277
41.332663999999966,0.7731439999999932,4174
41.65666399999997,2.717143999999992,3774
41.65666399999997,2.0691439999999925,3797
41.332663999999966,0.1251439999999934,4132
41.332663999999966,-0.5228560000000062,4076
41.65666399999997,-4.410856000000004,4480
40.03666399999997,-2.4668560000000053,4296
41.00866399999997,-4.410856000000004,4411
43.276663999999954,-5.706856000000004,4663
39.38866399999998,-1.170856000000006,4109
38.09266399999999,-1.170856000000006,4522
38.74066399999998,-0.5228560000000062,4285
37.76866399999999,-1.170856000000006,4587
39.06466399999998,-1.8188560000000056,4385
39.38866399999998,-3.114856000000005,4464
39.38866399999998,-2.4668560000000053,4491
39.06466399999998,-2.4668560000000053,4495
39.06466399999998,-3.114856000000005,4576
39.06466399999998,-3.7628560000000046,4590
38.74066399999998,-3.7628560000000046,4603
40.03666399999997,-3.7628560000000046,4358
40.03666399999997,-3.114856000000005,4414
40.03666399999997,-1.8188560000000056,4244
39.712663999999975,-1.8188560000000056,4209
39.712663999999975,-1.170856000000006,4145
40.36066399999997,-1.170856000000006,4250
40.68466399999997,-1.170856000000006,4270
41.00866399999997,-1.170856000000006,4295
41.332663999999966,-1.170856000000006,4344
43.276663999999954,-8.298856000000002,4739
42.95266399999996,-8.298856000000002,4707
41.65666399999997,-5.706856000000004,65535
41.98066399999996,-7.002856000000003,65535
41.98066399999996,-6.354856000000003,65535
41.332663999999966,-5.058856000000004,4599
43.276663999999954,-3.7628560000000046,4520
42.95266399999996,-4.410856000000004,4454
42.62866399999996,-4.410856000000004,4444
42.30466399999996,-4.410856000000004,4403
41.00866399999997,-5.706856000000004,65535
41.332663999999966,-1.8188560000000056,4400
40.68466399999997,-3.114856000000005,4570
41.00866399999997,-3.114856000000005,4624
41.00866399999997,-2.4668560000000053,4650
41.332663999999966,-2.4668560000000053,65535
40.68466399999997,-4.410856000000004,4390
40.36066399999997,-4.410856000000004,4717
40.68466399999997,-3.7628560000000046,4332
40.36066399999997,-3.114856000000005,4558
41.65666399999997,-2.4668560000000053,65535
38.09266399999999,-3.7628560000000046,65535
38.74066399999998,-3.114856000000005,65535
37.76866399999999,-3.7628560000000046,65535
39.712663999999975,-3.114856000000005,4447
38.41666399999998,-3.7628560000000046,65535
40.03666399999997,-4.410856000000004,65535
40.03666399999997,-5.058856000000004,65535
39.38866399999998,-6.354856000000003,65535
39.38866399999998,-7.002856000000003,65535
42.95266399999996,-3.114856000000005,4648
41.98066399999996,-1.170856000000006,4404
42.30466399999996,-2.4668560000000053,4752
41.65666399999997,-0.5228560000000062,65535
41.98066399999996,-0.5228560000000062,4354
41.65666399999997,0.1251439999999934,4339
41.98066399999996,0.1251439999999934,4307
37.76866399999999,-5.058856000000004,4692
36.79666399999999,-4.410856000000004,4754
38.74066399999998,-4.410856000000004,65535
37.12066399999999,-4.410856000000004,4728
37.44466399999999,-5.058856000000004,4715
37.44466399999999,-7.002856000000003,65535
37.44466399999999,-6.354856000000003,65535
37.44466399999999,-5.706856000000004,4629
39.712663999999975,-3.7628560000000046,65535
42.62866399999996,-8.946856000000002,65535
42.30466399999996,-5.706856000000004,4425
42.30466399999996,-5.058856000000004,4510
42.95266399999996,-5.706856000000004,65535
41.00866399999997,-5.058856000000004,65535
40.68466399999997,-5.058856000000004,65535
41.65666399999997,-5.058856000000004,65535
41.65666399999997,-6.354856000000003,65535
36.79666399999999,-6.354856000000003,65535
37.12066399999999,-5.706856000000004,65535
37.76866399999999,-5.706856000000004,65535
38.09266399999999,-4.410856000000004,65535
37.12066399999999,-5.058856000000004,65535
36.79666399999999,-5.058856000000004,65535
37.76866399999999,-4.410856000000004,65535
37.76866399999999,-7.002856000000003,65535
38.41666399999998,-6.354856000000003,65535
38.09266399999999,-6.354856000000003,65535
48.78466399999992,1.4211439999999929,2521
56.23666399999988,8.54914399999999,2635
55.58866399999988,9.197143999999987,2611
55.91266399999988,9.197143999999987,2712
55.26466399999988,10.493143999999988,2617
55.91266399999988,12.437143999999988,2628
55.58866399999988,11.789143999999988,2613
55.58866399999988,11.141143999999988,2617
55.26466399999988,11.789143999999988,2602
55.58866399999988,10.493143999999988,2614
55.58866399999988,13.085143999999987,2642
56.88466399999987,9.845143999999989,2662
57.20866399999987,9.845143999999989,2673
56.56066399999988,9.845143999999989,2634
56.88466399999987,8.54914399999999,2688
54.940663999999884,9.845143999999989,3436
54.940663999999884,11.789143999999988,2580
55.91266399999988,13.085143999999987,2634
56.23666399999988,13.733143999999989,2675
55.91266399999988,13.733143999999989,2651
56.23666399999988,14.381143999999988,2694
56.23666399999988,15.029143999999986,2712
56.23666399999988,15.677143999999986,2767
56.56066399999988,14.381143999999988,2683
56.88466399999987,14.381143999999988,2707
56.23666399999988,13.085143999999987,2642
56.56066399999988,13.085143999999987,2676
56.88466399999987,12.437143999999988,2713
57.20866399999987,12.437143999999988,2729
57.53266399999987,12.437143999999988,2759
56.88466399999987,15.029143999999986,2719
56.56066399999988,15.677143999999986,2785
56.88466399999987,15.677143999999986,2803
56.88466399999987,16.325143999999987,2819
55.91266399999988,11.789143999999988,2621
57.20866399999987,10.493143999999988,3064
49.43266399999992,1.4211439999999929,2463
49.75666399999992,0.7731439999999932,2502
49.75666399999992,2.0691439999999925,2402
50.08066399999991,2.717143999999992,2389
49.75666399999992,1.4211439999999929,2480
47.81266399999993,1.4211439999999929,2549
48.136663999999925,2.0691439999999925,2949
48.46066399999992,2.0691439999999925,2456
48.136663999999925,1.4211439999999929,2484
48.78466399999992,0.1251439999999934,2606
48.46066399999992,0.1251439999999934,2690
47.81266399999993,0.1251439999999934,2557
46.84066399999993,-0.5228560000000062,2562
47.16466399999993,0.7731439999999932,2509
46.84066399999993,0.1251439999999934,2687
46.84066399999993,-1.170856000000006,2612
50.08066399999991,1.4211439999999929,2377
50.08066399999991,2.0691439999999925,2393
49.43266399999992,2.717143999999992,2412
49.75666399999992,3.365143999999992,2410
50.08066399999991,3.365143999999992,2362
49.10866399999992,2.0691439999999925,2461
49.43266399999992,2.0691439999999925,2406
48.78466399999992,0.7731439999999932,2579
48.78466399999992,-0.5228560000000062,2721
48.78466399999992,-1.170856000000006,2670
48.136663999999925,0.7731439999999932,2509
48.46066399999992,0.7731439999999932,2460
43.92466399999995,5.957143999999991,2793
44.24866399999995,5.957143999999991,2819
43.92466399999995,5.309143999999991,2650
42.95266399999996,2.717143999999992,2720
45.54466399999994,2.0691439999999925,2806
45.22066399999994,2.0691439999999925,2753
42.95266399999996,2.0691439999999925,2897
42.95266399999996,0.7731439999999932,2846
43.276663999999954,0.7731439999999932,2787
46.19266399999994,0.7731439999999932,2692
46.516663999999935,0.7731439999999932,2649
45.86866399999994,0.1251439999999934,2705
46.19266399999994,0.1251439999999934,2709
47.81266399999993,-1.170856000000006,2728
48.136663999999925,-2.4668560000000053,2687
47.48866399999993,-1.8188560000000056,2607
47.16466399999993,-1.170856000000006,2587
47.16466399999993,-0.5228560000000062,2568
46.84066399999993,-1.8188560000000056,2636
45.22066399999994,-0.5228560000000062,2627
44.89666399999994,0.1251439999999934,2594
45.22066399999994,0.7731439999999932,2632
45.54466399999994,0.7731439999999932,2735
45.86866399999994,0.7731439999999932,2682
45.22066399999994,0.1251439999999934,2627
44.89666399999994,0.7731439999999932,2634
43.92466399999995,-0.5228560000000062,2755
43.92466399999995,-1.170856000000006,2748
44.24866399999995,-1.170856000000006,2728
45.22066399999994,-1.170856000000006,2658
44.572663999999946,-0.5228560000000062,2600
44.24866399999995,0.1251439999999934,2776
44.572663999999946,0.7731439999999932,2837
43.276663999999954,-1.170856000000006,2804
42.95266399999996,-0.5228560000000062,2853
44.24866399999995,2.0691439999999925,2864
43.60066399999995,0.7731439999999932,2833
43.60066399999995,2.0691439999999925,2776
52.6726639999999,4.661143999999991,2308
52.6726639999999,5.309143999999991,2319
51.700663999999904,5.309143999999991,0
52.0246639999999,5.309143999999991,2268
52.3486639999999,5.309143999999991,2277
51.37666399999991,4.013143999999992,2295
52.3486639999999,5.957143999999991,2307
52.0246639999999,6.60514399999999,2301
52.6726639999999,5.957143999999991,2326
52.996663999999896,5.957143999999991,2338
53.32066399999989,5.957143999999991,2348
52.996663999999896,6.60514399999999,2337
53.32066399999989,6.60514399999999,2348
52.6726639999999,6.60514399999999,2322
52.996663999999896,5.309143999999991,2359
59.15266399999986,24.101143999999977,65535
56.88466399999987,24.101143999999977,65535
56.88466399999987,23.45314399999998,65535
56.88466399999987,22.805143999999984,65535
57.20866399999987,24.74914399999998,65535
56.88466399999987,24.74914399999998,65535
56.56066399999988,24.74914399999998,65535
56.56066399999988,25.397143999999983,65535
56.56066399999988,24.101143999999977,65535
56.56066399999988,23.45314399999998,65535
56.56066399999988,26.04514399999998,65535
56.88466399999987,26.04514399999998,65535
57.20866399999987,25.397143999999983,65535
57.53266399999987,25.397143999999983,65535
56.23666399999988,26.04514399999998,65535
56.23666399999988,26.69314399999997,65535
55.91266399999988,26.69314399999997,65535
56.56066399999988,26.69314399999997,65535
56.56066399999988,27.34114399999998,65535
56.56066399999988,27.989143999999985,65535
56.23666399999988,27.989143999999985,65535
55.91266399999988,27.34114399999998,65535
56.56066399999988,22.805143999999984,65535
56.56066399999988,22.15714399999998,65535
56.56066399999988,21.50914399999997,65535
57.20866399999987,26.69314399999997,65535
39.06466399999998,-8.946856000000002,65535
38.41666399999998,-8.298856000000002,65535
45.86866399999994,11.789143999999988,3028
46.19266399999994,11.789143999999988,3015
46.19266399999994,10.493143999999988,3055
45.22066399999994,18.269143999999983,2892
45.22066399999994,18.917143999999983,2933
45.54466399999994,16.973143999999984,2795
45.22066399999994,17.621143999999987,2836
45.86866399999994,16.325143999999987,2756
45.54466399999994,18.917143999999983,2980
45.54466399999994,16.325143999999987,2770
45.54466399999994,18.269143999999983,2948
44.89666399999994,18.917143999999983,3130
46.19266399999994,16.973143999999984,2770
46.19266399999994,16.325143999999987,2761
45.86866399999994,16.973143999999984,2773
45.86866399999994,17.621143999999987,2868
46.19266399999994,15.677143999999986,2730
46.516663999999935,16.325143999999987,2756
45.54466399999994,15.677143999999986,2805
45.22066399999994,15.029143999999986,2841
45.54466399999994,15.029143999999986,2802
45.22066399999994,15.677143999999986,2866
44.572663999999946,15.677143999999986,3019
44.24866399999995,15.677143999999986,3040
43.92466399999995,16.325143999999987,3104
44.89666399999994,15.677143999999986,2983
45.54466399999994,17.621143999999987,2847
45.22066399999994,16.325143999999987,2825
46.516663999999935,16.973143999999984,2830
45.86866399999994,18.269143999999983,3040
43.92466399999995,15.677143999999986,3206
45.22066399999994,13.733143999999989,2850
47.48866399999993,19.565143999999982,3034
47.16466399999993,18.917143999999983,3033
47.81266399999993,18.917143999999983,2986
45.54466399999994,9.845143999999989,2599
45.22066399999994,9.845143999999989,2608
45.22066399999994,10.493143999999988,2667
45.86866399999994,9.845143999999989,2619
45.86866399999994,10.493143999999988,3798
48.78466399999992,21.50914399999997,2977
49.10866399999992,20.213143999999986,2918
49.10866399999992,18.917143999999983,2826
48.46066399999992,17.621143999999987,2867
49.43266399999992,17.621143999999987,2773
49.10866399999992,17.621143999999987,2821
48.136663999999925,18.269143999999983,2898
49.10866399999992,18.269143999999983,2847
49.43266399999992,18.269143999999983,2804
49.43266399999992,16.973143999999984,2751
49.75666399999992,16.973143999999984,2721
49.75666399999992,16.325143999999987,2699
50.08066399999991,15.677143999999986,2651
50.08066399999991,15.029143999999986,2621
49.43266399999992,18.917143999999983,2815
47.81266399999993,20.86114399999998,3115
48.136663999999925,20.86114399999998,3050
48.46066399999992,20.86114399999998,3037
48.46066399999992,21.50914399999997,2992
49.10866399999992,19.565143999999982,2839
48.136663999999925,17.621143999999987,2846
48.78466399999992,22.15714399999998,3110
48.78466399999992,20.86114399999998,3265
49.10866399999992,20.86114399999998,2961
48.78466399999992,18.269143999999983,2890
48.78466399999992,17.621143999999987,2849
49.10866399999992,21.50914399999997,2969
48.78466399999992,20.213143999999986,3309
48.46066399999992,20.213143999999986,3321
48.136663999999925,19.565143999999982,3045
48.46066399999992,19.565143999999982,2924
48.46066399999992,18.917143999999983,2906
48.46066399999992,18.269143999999983,2903
48.78466399999992,19.565143999999982,2880
48.78466399999992,18.917143999999983,2866
47.81266399999993,18.269143999999983,2947
49.10866399999992,22.15714399999998,3164
49.43266399999992,21.50914399999997,3094
48.136663999999925,18.917143999999983,3099
48.136663999999925,20.213143999999986,3065
52.636,-8.018,65535
52.312,-7.370000000000001,65535
52.312,-8.018,65535
52.636,-8.666,65535
51.988,-8.666,65535
51.988,-8.018,65535
52.96,-8.666,65535
52.96,-6.074000000000002,65535
53.28399999999999,-6.722000000000001,65535
53.60799999999999,-6.722000000000001,65535
53.60799999999999,-7.370000000000001,65535
53.60799999999999,-8.018,65535
54.25599999999999,-8.666,65535
53.93199999999999,-8.666,65535
53.93199999999999,-8.018,65535
52.312,-6.722000000000001,65535
52.636,-6.722000000000001,65535
53.93199999999999,-6.722000000000001,65535
54.25599999999999,-6.074000000000002,65535
53.28399999999999,-7.370000000000001,65535
52.96,-7.370000000000001,65535
52.312,-8.666,65535
52.96,-8.018,65535
52.636,-7.370000000000001,65535
52.96,-6.722000000000001,65535
51.988,-9.314,65535
52.312,-9.314,65535
54.579999999999984,-6.722000000000001,65535
54.579999999999984,-6.074000000000002,65535
53.28399999999999,-8.018,65535
53.28399999999999,-8.666,65535
53.28399999999999,-9.314,65535
53.93199999999999,-9.314,65535
54.25599999999999,-9.314,65535
53.60799999999999,-8.666,65535
53.60799999999999,-9.314,65535
49.43266399999992,14.381143999999988,2675
49.75666399999992,14.381143999999988,2633
49.75666399999992,15.029143999999986,2626
49.75666399999992,13.733143999999989,2663
50.08066399999991,13.733143999999989,2657
49.75666399999992,15.677143999999986,2637
50.40466399999991,15.029143999999986,2616
49.43266399999992,13.733143999999989,2766
50.40466399999991,15.677143999999986,2627
50.40466399999991,13.733143999999989,2683
46.19266399999994,15.029143999999986,2713
45.86866399999994,15.029143999999986,2758
45.86866399999994,14.381143999999988,2735
46.19266399999994,13.733143999999989,2822
45.86866399999994,13.733143999999989,2908
58.50466399999986,13.733143999999989,2839
58.180663999999865,13.733143999999989,2824
58.180663999999865,13.085143999999987,2798
57.85666399999987,12.437143999999988,2777
60.44866399999985,15.677143999999986,2986
60.124663999999854,15.677143999999986,2956
60.124663999999854,16.325143999999987,2959
59.800663999999855,16.325143999999987,2920
59.800663999999855,17.621143999999987,2932
59.47666399999986,18.269143999999983,2914
61.74466399999984,16.973143999999984,3058
61.420663999999846,16.973143999999984,3030
60.77266399999985,16.973143999999984,2983
65.63266399999982,22.15714399999998,3742
65.95666399999982,21.50914399999997,3702
65.63266399999982,20.86114399999998,3673
64.98466399999982,20.213143999999986,3605
64.66066399999983,20.213143999999986,3583
64.33666399999983,19.565143999999982,3784
64.01266399999983,19.565143999999982,3701
63.68866399999983,20.213143999999986,3332
64.66066399999983,18.917143999999983,3954
59.15266399999986,16.325143999999987,2883
59.15266399999986,15.029143999999986,2876
59.15266399999986,17.621143999999987,2895
57.53266399999987,14.381143999999988,2760
57.53266399999987,15.029143999999986,2850
61.09666399999985,14.381143999999988,3089
60.77266399999985,15.029143999999986,3045
60.44866399999985,15.029143999999986,3034
58.180663999999865,15.029143999999986,2803
58.50466399999986,16.325143999999987,2836
58.50466399999986,15.677143999999986,2812
63.36466399999984,13.085143999999987,3865
63.04066399999984,14.381143999999988,3242
62.39266399999984,15.677143999999986,3171
63.36466399999984,13.733143999999989,3847
63.36466399999984,14.381143999999988,3819
62.71666399999984,15.677143999999986,3189
62.39266399999984,17.621143999999987,3113
59.800663999999855,15.677143999999986,2973
55.58866399999988,13.733143999999989,2678
57.20866399999987,14.381143999999988,2753
57.85666399999987,14.381143999999988,2786
58.82866399999986,16.973143999999984,2892
58.82866399999986,16.325143999999987,2870
59.15266399999986,18.269143999999983,2908
60.44866399999985,17.621143999999987,2989
59.15266399999986,12.437143999999988,2923
59.15266399999986,13.085143999999987,2935
58.82866399999986,12.437143999999988,2900
59.47666399999986,16.325143999999987,2909
58.82866399999986,14.381143999999988,2856
59.47666399999986,15.677143999999986,2898
63.36466399999984,18.917143999999983,3288
63.04066399999984,17.621143999999987,3253
62.71666399999984,17.621143999999987,3229
63.68866399999983,19.565143999999982,3667
62.39266399999984,16.973143999999984,3133
59.800663999999855,16.973143999999984,2935
59.47666399999986,17.621143999999987,2919
57.85666399999987,13.085143999999987,2806
57.53266399999987,13.085143999999987,2786
58.50466399999986,11.789143999999988,2810
57.85666399999987,15.029143999999986,2787
57.20866399999987,13.733143999999989,2745
57.53266399999987,13.733143999999989,2774
61.74466399999984,16.325143999999987,3111
61.420663999999846,16.325143999999987,3077
61.09666399999985,16.325143999999987,3117
61.09666399999985,16.973143999999984,3100
60.124663999999854,15.029143999999986,3020
66.60466399999981,20.86114399999998,3777
67.25266399999981,20.86114399999998,3845
67.90066399999981,20.213143999999986,3915
67.57666399999981,20.213143999999986,4540
59.800663999999855,15.029143999999986,2981
58.50466399999986,15.029143999999986,2818
59.47666399999986,15.029143999999986,2941
60.44866399999985,16.325143999999987,3048
59.15266399999986,15.677143999999986,2902
57.85666399999987,13.733143999999989,2842
58.82866399999986,13.733143999999989,2900
58.50466399999986,13.085143999999987,2829
57.20866399999987,13.085143999999987,2823
56.88466399999987,13.085143999999987,2831
58.180663999999865,11.789143999999988,2781
62.06866399999984,16.973143999999984,3144
65.95666399999982,23.45314399999998,3783
59.800663999999855,14.381143999999988,65535
59.800663999999855,18.269143999999983,2937
63.04066399999984,15.029143999999986,3238
62.71666399999984,15.029143999999986,3229
62.39266399999984,16.325143999999987,3162
63.36466399999984,12.437143999999988,3899
68.5486639999998,17.621143999999987,4128
68.5486639999998,18.269143999999983,4061
68.5486639999998,18.917143999999983,4038
68.2246639999998,18.917143999999983,3994
59.800663999999855,13.085143999999987,2985
60.124663999999854,13.085143999999987,3027
59.47666399999986,16.973143999999984,2921
59.15266399999986,16.973143999999984,2913
56.56066399999988,13.733143999999989,2778
60.124663999999854,17.621143999999987,2966
57.85666399999987,16.325143999999987,2958
58.180663999999865,16.325143999999987,2924
58.180663999999865,15.677143999999986,2920
57.20866399999987,16.325143999999987,2847
57.53266399999987,15.677143999999986,2882
57.85666399999987,15.677143999999986,2929
44.89666399999994,23.45314399999998,65535
44.572663999999946,23.45314399999998,65535
44.89666399999994,24.74914399999998,65535
44.572663999999946,24.74914399999998,65535
44.572663999999946,24.101143999999977,65535
44.24866399999995,24.101143999999977,65535
47.48866399999993,25.397143999999983,65535
47.48866399999993,24.74914399999998,65535
47.16466399999993,24.74914399999998,65535
47.16466399999993,24.101143999999977,65535
47.48866399999993,22.15714399999998,65535
47.81266399999993,22.15714399999998,65535
47.16466399999993,22.15714399999998,65535
47.16466399999993,23.45314399999998,65535
47.16466399999993,22.805143999999984,65535
46.84066399999993,24.101143999999977,65535
45.86866399999994,27.34114399999998,65535
45.54466399999994,27.34114399999998,65535
45.54466399999994,27.989143999999985,65535
45.86866399999994,20.86114399999998,65535
45.86866399999994,21.50914399999997,65535
46.19266399999994,21.50914399999997,65535
46.19266399999994,27.34114399999998,65535
46.19266399999994,26.69314399999997,65535
46.516663999999935,26.69314399999997,65535
46.516663999999935,26.04514399999998,65535
47.48866399999993,22.805143999999984,65535
46.84066399999993,22.805143999999984,65535
45.54466399999994,22.15714399999998,65535
45.22066399999994,22.15714399999998,65535
44.89666399999994,22.15714399999998,65535
47.48866399999993,23.45314399999998,65535
46.516663999999935,24.101143999999977,65535
46.516663999999935,24.74914399999998,65535
45.86866399999994,24.101143999999977,65535
47.16466399999993,26.69314399999997,65535
47.16466399999993,27.34114399999998,65535
43.92466399999995,25.397143999999983,65535
44.24866399999995,24.74914399999998,65535
44.89666399999994,26.04514399999998,65535
44.89666399999994,26.69314399999997,65535
45.22066399999994,26.69314399999997,65535
45.22066399999994,27.34114399999998,65535
46.84066399999993,26.69314399999997,65535
47.48866399999993,26.69314399999997,65535
44.24866399999995,25.397143999999983,65535
43.92466399999995,26.04514399999998,65535
46.19266399999994,24.101143999999977,65535
44.572663999999946,25.397143999999983,65535
46.84066399999993,24.74914399999998,65535
46.516663999999935,21.50914399999997,65535
46.84066399999993,21.50914399999997,65535
44.572663999999946,26.69314399999997,65535
44.572663999999946,27.34114399999998,65535
44.89666399999994,27.34114399999998,65535
44.572663999999946,27.989143999999985,65535
44.24866399999995,27.989143999999985,65535
44.572663999999946,28.63714399999997,65535
45.86866399999994,22.15714399999998,65535
45.86866399999994,22.805143999999984,65535
44.24866399999995,23.45314399999998,65535
43.92466399999995,27.989143999999985,65535
46.84066399999993,27.34114399999998,65535
45.22066399999994,23.45314399999998,65535
45.54466399999994,23.45314399999998,65535
45.54466399999994,24.101143999999977,65535
45.22066399999994,24.101143999999977,65535
44.89666399999994,24.101143999999977,65535
46.19266399999994,22.15714399999998,65535
46.516663999999935,22.15714399999998,65535
45.22066399999994,21.50914399999997,65535
45.54466399999994,21.50914399999997,65535
45.54466399999994,20.86114399999998,65535
46.516663999999935,27.989143999999985,65535
46.19266399999994,27.989143999999985,65535
45.54466399999994,25.397143999999983,65535
45.22066399999994,25.397143999999983,65535
45.22066399999994,26.04514399999998,65535
47.81266399999993,24.101143999999977,65535
47.48866399999993,26.04514399999998,65535
47.81266399999993,26.04514399999998,65535
46.19266399999994,23.45314399999998,65535
45.86866399999994,23.45314399999998,65535
44.24866399999995,26.04514399999998,65535
45.22066399999994,27.989143999999985,65535
45.86866399999994,24.74914399999998,65535
46.516663999999935,25.397143999999983,65535
46.84066399999993,25.397143999999983,65535
46.19266399999994,26.04514399999998,65535
45.86866399999994,26.04514399999998,65535
43.92466399999995,23.45314399999998,65535
44.89666399999994,25.397143999999983,65535
46.19266399999994,20.86114399999998,65535
47.81266399999993,25.397143999999983,65535
44.572663999999946,22.805143999999984,65535
44.572663999999946,22.15714399999998,65535
46.516663999999935,23.45314399999998,65535
45.86866399999994,25.397143999999983,65535
44.24866399999995,27.34114399999998,65535
45.22066399999994,24.74914399999998,65535
45.54466399999994,22.805143999999984,65535
45.22066399999994,28.63714399999997,65535
44.89666399999994,28.63714399999997,65535
47.81266399999993,23.45314399999998,65535
46.19266399999994,24.74914399999998,65535
46.19266399999994,25.397143999999983,65535
43.92466399999995,24.101143999999977,65535
43.92466399999995,24.74914399999998,65535
47.81266399999993,26.69314399999997,65535
47.48866399999993,24.101143999999977,65535
46.84066399999993,26.04514399999998,65535
46.19266399999994,22.805143999999984,65535
47.48866399999993,27.34114399999998,65535
46.19266399999994,20.213143999999986,65535
45.54466399999994,26.04514399999998,65535
44.24866399999995,26.69314399999997,65535
45.86866399999994,27.989143999999985,65535
47.81266399999993,5.957143999999991,65535
