51.56399999999999,-0.4100000000000028,65535
51.887999999999984,-0.4100000000000028,65535
50.91599999999999,-1.7060000000000022,65535
51.23999999999999,-1.0580000000000025,65535
51.56399999999999,-1.0580000000000025,65535
51.23999999999999,-1.7060000000000022,65535
51.56399999999999,0.2379999999999968,65535
47.16466399999993,9.845143999999989,6855
47.48866399999993,9.845143999999989,6838
48.136663999999925,14.381143999999988,6880
47.81266399999993,13.085143999999987,6865
47.16466399999993,11.141143999999988,6890
47.48866399999993,11.789143999999988,6917
48.136663999999925,16.325143999999987,7174
47.48866399999993,12.437143999999988,6834
48.136663999999925,15.677143999999986,7440
47.16466399999993,10.493143999999988,6991
47.16466399999993,9.197143999999987,6830
48.136663999999925,13.733143999999989,6856
48.136663999999925,15.029143999999986,6959
47.81266399999993,16.973143999999984,7195
48.46066399999992,14.381143999999988,8104
47.48866399999993,13.085143999999987,6895
47.16466399999993,13.085143999999987,6909
47.48866399999993,14.381143999999988,6991
47.48866399999993,13.733143999999989,7071
47.48866399999993,15.029143999999986,7242
46.516663999999935,13.733143999999989,7007
46.84066399999993,13.733143999999989,6976
46.84066399999993,13.085143999999987,6961
48.78466399999992,14.381143999999988,65535
47.16466399999993,15.677143999999986,7260
46.516663999999935,14.381143999999988,7023
46.84066399999993,14.381143999999988,7033
47.16466399999993,14.381143999999988,7325
46.516663999999935,15.029143999999986,7087
47.81266399999993,16.325143999999987,7192
47.16466399999993,15.029143999999986,7300
47.81266399999993,15.677143999999986,7198
47.48866399999993,15.677143999999986,7237
46.516663999999935,13.085143999999987,7094
46.84066399999993,12.437143999999988,7019
48.136663999999925,11.789143999999988,6808
47.81266399999993,12.437143999999988,6822
46.84066399999993,15.677143999999986,7528
46.516663999999935,15.677143999999986,7143
46.84066399999993,16.325143999999987,7179
47.81266399999993,14.381143999999988,6925
48.78466399999992,16.973143999999984,7132
48.136663999999925,16.973143999999984,7161
48.46066399999992,13.733143999999989,6929
47.81266399999993,13.733143999999989,6914
50.08066399999991,8.54914399999999,6711
48.46066399999992,9.845143999999989,6789
51.05266399999991,7.25314399999999,6654
51.37666399999991,7.25314399999999,6650
51.37666399999991,6.60514399999999,6646
48.46066399999992,16.325143999999987,7179
48.46066399999992,16.973143999999984,7148
48.78466399999992,16.325143999999987,7192
48.46066399999992,15.677143999999986,7200
48.78466399999992,15.677143999999986,7681
47.48866399999993,16.325143999999987,7202
47.16466399999993,16.325143999999987,7254
46.19266399999994,14.381143999999988,7089
45.86866399999994,15.677143999999986,7123
43.60066399999995,16.325143999999987,7480
45.54466399999994,14.381143999999988,7165
45.54466399999994,13.733143999999989,7188
48.136663999999925,13.085143999999987,6836
48.46066399999992,11.141143999999988,6801
48.136663999999925,11.141143999999988,6805
48.46066399999992,7.90114399999999,6766
49.10866399999992,8.54914399999999,6732
48.78466399999992,2.0691439999999925,6728
49.10866399999992,7.25314399999999,6771
52.0246639999999,7.90114399999999,6670
47.16466399999993,11.789143999999988,6912
49.43266399999992,11.141143999999988,6820
53.64466399999989,9.845143999999989,6801
50.72866399999991,4.013143999999992,6645
51.05266399999991,11.141143999999988,6805
47.48866399999993,11.141143999999988,6848
46.84066399999993,11.789143999999988,7382
46.516663999999935,11.141143999999988,7351
45.54466399999994,11.141143999999988,7245
46.19266399999994,11.141143999999988,7317
45.86866399999994,11.141143999999988,7301
44.572663999999946,11.141143999999988,7092
43.92466399999995,12.437143999999988,65535
45.54466399999994,12.437143999999988,7332
45.54466399999994,11.789143999999988,7295
48.78466399999992,15.029143999999986,8172
47.81266399999993,15.029143999999986,7050
47.81266399999993,11.141143999999988,6829
50.40466399999991,18.917143999999983,7129
52.3486639999999,20.86114399999998,7307
54.616663999999886,18.269143999999983,7227
54.29266399999989,18.917143999999983,7236
49.10866399999992,14.381143999999988,65535
50.08066399999991,14.381143999999988,6942
48.78466399999992,13.733143999999989,65535
52.6726639999999,13.085143999999987,6837
52.3486639999999,13.085143999999987,6835
53.96866399999989,12.437143999999988,6876
54.29266399999989,12.437143999999988,6877
47.48866399999993,8.54914399999999,6839
47.81266399999993,17.621143999999987,7229
47.48866399999993,18.917143999999983,7340
47.48866399999993,20.86114399999998,7561
46.84066399999993,23.45314399999998,9118
44.572663999999946,26.04514399999998,65535
47.48866399999993,21.50914399999997,7595
47.81266399999993,21.50914399999997,7628
48.46066399999992,22.15714399999998,7357
47.48866399999993,16.973143999999984,65535
49.10866399999992,16.325143999999987,7087
49.75666399999992,18.269143999999983,7180
46.19266399999994,13.085143999999987,8063
41.98066399999996,12.437143999999988,8325
43.60066399999995,10.493143999999988,8486
45.54466399999994,9.197143999999987,6968
47.81266399999993,22.805143999999984,65535
49.75666399999992,22.805143999999984,7394
50.72866399999991,3.365143999999992,6655
51.05266399999991,4.013143999999992,6643
50.72866399999991,4.661143999999991,6641
51.05266399999991,4.661143999999991,6638
51.05266399999991,3.365143999999992,6650
51.05266399999991,2.717143999999992,6676
50.40466399999991,4.661143999999991,6646
50.72866399999991,2.717143999999992,6658
50.40466399999991,4.013143999999992,6656
51.05266399999991,5.309143999999991,6644
50.72866399999991,5.309143999999991,6651
51.37666399999991,3.365143999999992,6656
51.37666399999991,4.661143999999991,6629
50.72866399999991,5.957143999999991,6657
50.40466399999991,5.957143999999991,6663
50.40466399999991,3.365143999999992,6663
50.40466399999991,5.309143999999991,6656
50.08066399999991,5.309143999999991,6679
49.75666399999992,5.309143999999991,6721
49.75666399999992,5.957143999999991,6739
51.37666399999991,5.309143999999991,6616
51.700663999999904,4.661143999999991,6594
50.08066399999991,4.013143999999992,6666
50.08066399999991,5.957143999999991,6681
50.08066399999991,4.661143999999991,6696
49.43266399999992,5.309143999999991,6758
49.43266399999992,5.957143999999991,6771
52.0246639999999,4.661143999999991,6588
52.3486639999999,4.661143999999991,6567
50.72866399999991,15.029143999999986,6919
51.05266399999991,15.029143999999986,6913
51.05266399999991,13.733143999999989,6878
50.40466399999991,13.085143999999987,6887
49.10866399999992,7.90114399999999,6742
48.78466399999992,7.90114399999999,6757
50.40466399999991,7.90114399999999,6696
50.08066399999991,7.90114399999999,6704
49.75666399999992,7.90114399999999,6712
49.43266399999992,7.90114399999999,6735
49.75666399999992,8.54914399999999,6724
49.43266399999992,8.54914399999999,6727
49.43266399999992,9.197143999999987,6738
49.10866399999992,9.197143999999987,6755
47.48866399999993,7.90114399999999,6836
47.81266399999993,7.90114399999999,6806
48.136663999999925,7.90114399999999,6783
48.136663999999925,9.845143999999989,6817
47.81266399999993,9.197143999999987,6830
47.81266399999993,8.54914399999999,6819
47.81266399999993,9.845143999999989,6827
54.940663999999884,9.197143999999987,6860
54.616663999999886,9.197143999999987,6840
54.29266399999989,9.197143999999987,6848
53.96866399999989,9.197143999999987,6845
53.64466399999989,9.197143999999987,6828
54.616663999999886,9.845143999999989,6832
54.29266399999989,9.845143999999989,6821
53.96866399999989,9.845143999999989,6807
53.64466399999989,10.493143999999988,6791
53.96866399999989,10.493143999999988,6818
53.96866399999989,11.141143999999988,6855
54.29266399999989,10.493143999999988,6843
53.32066399999989,10.493143999999988,6776
54.940663999999884,11.141143999999988,6889
52.6726639999999,13.733143999999989,6840
52.3486639999999,13.733143999999989,6839
52.3486639999999,14.381143999999988,6847
52.0246639999999,14.381143999999988,6860
52.0246639999999,11.789143999999988,6794
52.3486639999999,11.789143999999988,6789
52.3486639999999,12.437143999999988,6818
52.0246639999999,15.029143999999986,6892
51.700663999999904,14.381143999999988,6877
52.0246639999999,13.733143999999989,6855
51.700663999999904,13.733143999999989,6880
52.6726639999999,12.437143999999988,6828
53.32066399999989,11.789143999999988,6814
53.96866399999989,11.789143999999988,6868
53.64466399999989,11.789143999999988,6823
53.64466399999989,11.141143999999988,6822
53.32066399999989,11.141143999999988,6795
52.996663999999896,11.789143999999988,6872
52.996663999999896,12.437143999999988,6864
52.996663999999896,13.733143999999989,6853
53.64466399999989,13.733143999999989,6937
53.96866399999989,13.733143999999989,6950
54.29266399999989,13.085143999999987,6957
53.96866399999989,13.085143999999987,6959
53.32066399999989,13.733143999999989,6935
52.0246639999999,13.085143999999987,6856
51.700663999999904,13.085143999999987,6886
52.996663999999896,14.381143999999988,6882
52.0246639999999,12.437143999999988,6833
51.700663999999904,12.437143999999988,6829
51.37666399999991,11.789143999999988,6814
51.37666399999991,12.437143999999988,6830
52.6726639999999,11.789143999999988,6807
53.64466399999989,13.085143999999987,6943
53.32066399999989,13.085143999999987,6942
52.996663999999896,13.085143999999987,6886
53.64466399999989,12.437143999999988,6882
51.37666399999991,13.733143999999989,6873
53.32066399999989,12.437143999999988,6890
52.6726639999999,14.381143999999988,6852
51.37666399999991,13.085143999999987,6863
53.32066399999989,14.381143999999988,6915
52.3486639999999,15.029143999999986,6863
52.0246639999999,15.677143999999986,6927
51.700663999999904,15.029143999999986,6914
51.05266399999991,16.325143999999987,6997
51.05266399999991,16.973143999999984,7021
51.700663999999904,15.677143999999986,6940
51.37666399999991,15.677143999999986,6952
51.37666399999991,16.325143999999987,6988
50.72866399999991,13.085143999999987,6851
50.72866399999991,12.437143999999988,6847
51.05266399999991,13.085143999999987,6852
51.05266399999991,14.381143999999988,6881
50.40466399999991,12.437143999999988,6864
50.40466399999991,11.789143999999988,6827
50.08066399999991,12.437143999999988,6862
50.72866399999991,11.789143999999988,6821
51.05266399999991,12.437143999999988,6839
50.72866399999991,14.381143999999988,6954
51.37666399999991,14.381143999999988,6914
50.72866399999991,13.733143999999989,6897
50.40466399999991,14.381143999999988,6939
51.37666399999991,15.029143999999986,6923
55.26466399999988,9.197143999999987,6888
55.58866399999988,8.54914399999999,6902
55.91266399999988,8.54914399999999,6942
56.23666399999988,9.197143999999987,6948
56.23666399999988,10.493143999999988,6957
56.23666399999988,9.845143999999989,6944
55.91266399999988,9.845143999999989,6937
56.56066399999988,9.197143999999987,6960
56.56066399999988,8.54914399999999,6971
51.05266399999991,6.60514399999999,6647
51.700663999999904,7.90114399999999,6664
50.72866399999991,6.60514399999999,6659
51.700663999999904,7.25314399999999,6657
50.72866399999991,7.25314399999999,6673
52.0246639999999,7.25314399999999,6663
52.3486639999999,7.90114399999999,6687
51.05266399999991,5.957143999999991,6652
50.40466399999991,7.25314399999999,6679
51.700663999999904,6.60514399999999,6656
51.700663999999904,5.957143999999991,6626
52.3486639999999,9.197143999999987,6721
51.700663999999904,8.54914399999999,6674
52.0246639999999,8.54914399999999,6675
52.3486639999999,8.54914399999999,6701
51.37666399999991,7.90114399999999,6656
52.3486639999999,7.25314399999999,6658
51.37666399999991,5.957143999999991,6639
50.72866399999991,7.90114399999999,6691
51.37666399999991,9.197143999999987,6696
51.700663999999904,9.197143999999987,6686
50.40466399999991,6.60514399999999,6672
51.05266399999991,7.90114399999999,6706
51.37666399999991,8.54914399999999,6701
52.0246639999999,5.957143999999991,6612
52.3486639999999,6.60514399999999,6636
51.05266399999991,8.54914399999999,6718
52.0246639999999,9.197143999999987,6704
52.6726639999999,9.197143999999987,6750
52.0246639999999,9.845143999999989,6718
51.700663999999904,9.845143999999989,6717
51.37666399999991,9.845143999999989,6752
50.72866399999991,8.54914399999999,6713
51.05266399999991,9.845143999999989,6768
50.72866399999991,9.845143999999989,6789
50.40466399999991,9.845143999999989,6811
51.05266399999991,9.197143999999987,6733
50.40466399999991,9.197143999999987,6752
50.08066399999991,9.197143999999987,6716
51.05266399999991,10.493143999999988,6810
50.40466399999991,8.54914399999999,6706
50.72866399999991,9.197143999999987,6739
49.75666399999992,9.197143999999987,6726
52.996663999999896,9.197143999999987,6757
52.3486639999999,9.845143999999989,6713
52.996663999999896,8.54914399999999,6746
52.996663999999896,7.90114399999999,6773
53.32066399999989,7.90114399999999,6775
53.32066399999989,7.25314399999999,6705
53.64466399999989,7.25314399999999,6778
52.996663999999896,10.493143999999988,6743
52.6726639999999,10.493143999999988,6736
52.6726639999999,9.845143999999989,6720
53.32066399999989,9.845143999999989,6803
53.32066399999989,9.197143999999987,6807
53.64466399999989,8.54914399999999,6793
53.32066399999989,8.54914399999999,6749
52.6726639999999,8.54914399999999,6723
52.0246639999999,10.493143999999988,6752
52.0246639999999,11.141143999999988,6767
51.700663999999904,11.141143999999988,6792
52.6726639999999,7.25314399999999,7014
52.996663999999896,7.25314399999999,6710
52.6726639999999,7.90114399999999,6727
53.64466399999989,7.90114399999999,6791
52.996663999999896,11.141143999999988,6804
52.6726639999999,11.141143999999988,6802
52.3486639999999,10.493143999999988,6737
52.996663999999896,9.845143999999989,6756
51.700663999999904,10.493143999999988,6798
51.37666399999991,10.493143999999988,6799
51.700663999999904,11.789143999999988,6801
52.3486639999999,11.141143999999988,6749
51.37666399999991,11.141143999999988,6803
51.05266399999991,11.789143999999988,6823
49.10866399999992,11.141143999999988,6800
48.78466399999992,11.141143999999988,6791
48.46066399999992,11.789143999999988,6807
49.43266399999992,11.789143999999988,6851
50.08066399999991,11.789143999999988,6822
49.75666399999992,12.437143999999988,6830
49.10866399999992,11.789143999999988,6858
48.78466399999992,12.437143999999988,6866
48.46066399999992,12.437143999999988,6852
49.10866399999992,12.437143999999988,6877
48.78466399999992,13.085143999999987,6882
48.136663999999925,12.437143999999988,6823
47.81266399999993,11.789143999999988,6817
48.136663999999925,10.493143999999988,6843
47.81266399999993,10.493143999999988,6859
48.78466399999992,10.493143999999988,6764
47.48866399999993,10.493143999999988,6877
48.46066399999992,10.493143999999988,6789
49.43266399999992,13.085143999999987,7058
48.46066399999992,13.085143999999987,6911
49.43266399999992,10.493143999999988,6794
49.75666399999992,9.845143999999989,6758
49.75666399999992,10.493143999999988,6786
50.40466399999991,11.141143999999988,6831
50.08066399999991,11.141143999999988,6825
50.72866399999991,11.141143999999988,6812
49.75666399999992,11.141143999999988,6796
48.78466399999992,11.789143999999988,6853
50.40466399999991,10.493143999999988,6815
50.08066399999991,9.845143999999989,6755
50.08066399999991,10.493143999999988,6817
49.43266399999992,12.437143999999988,6843
49.75666399999992,11.789143999999988,6810
49.10866399999992,13.085143999999987,6993
50.72866399999991,10.493143999999988,6806
49.10866399999992,10.493143999999988,6818
48.78466399999992,9.845143999999989,6760
48.46066399999992,8.54914399999999,6764
48.46066399999992,9.197143999999987,6760
48.78466399999992,9.197143999999987,6755
48.78466399999992,8.54914399999999,6747
50.08066399999991,7.25314399999999,6710
49.75666399999992,6.60514399999999,6741
49.43266399999992,6.60514399999999,6744
49.10866399999992,6.60514399999999,6763
49.43266399999992,7.25314399999999,6758
49.75666399999992,7.25314399999999,6732
49.10866399999992,5.957143999999991,6779
48.78466399999992,7.25314399999999,6817
50.08066399999991,6.60514399999999,6738
47.48866399999993,9.197143999999987,6825
48.136663999999925,8.54914399999999,6794
48.136663999999925,9.197143999999987,6791
47.81266399999993,7.25314399999999,6824
49.43266399999992,9.845143999999989,6764
49.10866399999992,9.845143999999989,6763
53.64466399999989,14.381143999999988,6932
50.08066399999991,13.085143999999987,7018
49.75666399999992,13.085143999999987,7055
45.86866399999994,9.197143999999987,6958
46.19266399999994,9.197143999999987,6944
46.516663999999935,8.54914399999999,6890
46.516663999999935,9.197143999999987,6939
46.19266399999994,8.54914399999999,6956
47.16466399999993,8.54914399999999,6840
45.86866399999994,4.661143999999991,6870
46.84066399999993,9.845143999999989,6852
45.22066399999994,5.957143999999991,6951
45.22066399999994,5.309143999999991,6982
45.86866399999994,5.957143999999991,6939
45.54466399999994,5.957143999999991,6940
44.89666399999994,4.661143999999991,6864
44.89666399999994,5.309143999999991,6876
44.572663999999946,4.661143999999991,6897
44.24866399999995,4.661143999999991,6910
43.92466399999995,4.661143999999991,6911
46.19266399999994,7.25314399999999,6873
48.78466399999992,5.957143999999991,6785
48.136663999999925,6.60514399999999,6823
48.46066399999992,6.60514399999999,6800
48.78466399999992,6.60514399999999,6810
47.16466399999993,7.90114399999999,6838
48.136663999999925,7.25314399999999,6789
48.46066399999992,7.25314399999999,6776
46.516663999999935,6.60514399999999,6887
46.84066399999993,6.60514399999999,6883
46.84066399999993,7.25314399999999,6856
46.516663999999935,5.957143999999991,6913
46.19266399999994,5.957143999999991,6899
46.84066399999993,8.54914399999999,6845
46.84066399999993,7.90114399999999,6845
45.86866399999994,5.309143999999991,6884
46.19266399999994,6.60514399999999,6889
45.86866399999994,6.60514399999999,6900
47.48866399999993,6.60514399999999,6863
47.48866399999993,7.25314399999999,6839
47.16466399999993,7.25314399999999,6849
49.10866399999992,4.013143999999992,6772
49.75666399999992,4.661143999999991,6723
49.43266399999992,4.661143999999991,6755
49.10866399999992,5.309143999999991,6837
46.19266399999994,4.661143999999991,6866
46.84066399999993,9.197143999999987,6834
46.19266399999994,5.309143999999991,6849
46.516663999999935,5.309143999999991,6877
45.54466399999994,6.60514399999999,6998
45.54466399999994,5.309143999999991,6936
43.60066399999995,4.013143999999992,6942
43.60066399999995,3.365143999999992,6976
42.62866399999996,2.717143999999992,7045
43.276663999999954,2.717143999999992,7009
45.54466399999994,4.661143999999991,6881
45.22066399999994,4.661143999999991,6885
47.16466399999993,5.309143999999991,6898
47.16466399999993,5.957143999999991,6886
46.19266399999994,7.90114399999999,6868
49.75666399999992,2.717143999999992,6708
49.10866399999992,2.717143999999992,6714
48.78466399999992,2.717143999999992,6742
45.86866399999994,3.365143999999992,6978
46.84066399999993,3.365143999999992,6897
46.516663999999935,3.365143999999992,6926
46.19266399999994,3.365143999999992,6953
47.16466399999993,6.60514399999999,6868
49.10866399999992,3.365143999999992,6743
45.54466399999994,4.013143999999992,6888
46.516663999999935,7.25314399999999,6868
47.16466399999993,4.661143999999991,6903
46.84066399999993,4.661143999999991,6912
46.516663999999935,4.661143999999991,6919
46.84066399999993,5.957143999999991,6919
47.81266399999993,3.365143999999992,6828
47.48866399999993,4.013143999999992,6858
48.136663999999925,4.013143999999992,6850
47.81266399999993,4.013143999999992,6883
47.48866399999993,4.661143999999991,6933
47.16466399999993,3.365143999999992,6925
46.84066399999993,4.013143999999992,6926
48.46066399999992,5.957143999999991,6819
46.19266399999994,2.717143999999992,6964
47.16466399999993,2.0691439999999925,6842
46.516663999999935,2.717143999999992,6937
46.84066399999993,2.717143999999992,6917
46.84066399999993,2.0691439999999925,6881
47.16466399999993,2.717143999999992,6863
44.572663999999946,5.309143999999991,6892
44.572663999999946,5.957143999999991,6943
44.89666399999994,6.60514399999999,7047
44.572663999999946,6.60514399999999,7049
43.60066399999995,5.309143999999991,6958
43.92466399999995,7.25314399999999,7054
43.60066399999995,6.60514399999999,7032
43.276663999999954,6.60514399999999,7017
43.276663999999954,5.957143999999991,6976
45.86866399999994,8.54914399999999,6965
45.54466399999994,8.54914399999999,6972
48.136663999999925,3.365143999999992,6810
48.46066399999992,3.365143999999992,6818
48.46066399999992,2.717143999999992,6791
47.48866399999993,5.309143999999991,6996
46.516663999999935,9.845143999999989,6884
46.84066399999993,10.493143999999988,8051
47.81266399999993,5.309143999999991,6925
45.22066399999994,6.60514399999999,7041
46.19266399999994,4.013143999999992,6925
45.86866399999994,4.013143999999992,6902
45.22066399999994,4.013143999999992,7037
44.89666399999994,4.013143999999992,7104
46.84066399999993,5.309143999999991,6981
48.136663999999925,-1.8188560000000056,6865
48.136663999999925,0.1251439999999934,6804
48.136663999999925,-0.5228560000000062,6841
47.48866399999993,-0.5228560000000062,6830
47.16466399999993,-1.8188560000000056,6890
47.48866399999993,0.7731439999999932,6786
47.16466399999993,0.1251439999999934,6797
45.86866399999994,7.25314399999999,6919
48.136663999999925,5.309143999999991,6876
49.10866399999992,4.661143999999991,6790
48.46066399999992,4.013143999999992,6830
48.136663999999925,4.661143999999991,6867
47.81266399999993,6.60514399999999,6871
47.48866399999993,5.957143999999991,6969
48.136663999999925,5.957143999999991,7166
45.86866399999994,7.90114399999999,6880
46.516663999999935,7.90114399999999,6857
49.43266399999992,3.365143999999992,6747
49.43266399999992,4.013143999999992,6768
48.136663999999925,2.717143999999992,6849
47.81266399999993,2.717143999999992,6861
47.48866399999993,2.717143999999992,6881
50.40466399999991,2.717143999999992,6671
48.46066399999992,-4.410856000000004,7045
48.46066399999992,-3.7628560000000046,7027
48.46066399999992,-3.114856000000005,7005
48.46066399999992,-2.4668560000000053,6973
47.48866399999993,1.4211439999999929,6812
47.16466399999993,1.4211439999999929,6856
46.516663999999935,4.013143999999992,6924
43.60066399999995,4.661143999999991,6937
44.89666399999994,2.717143999999992,7158
45.22066399999994,2.717143999999992,7109
45.54466399999994,3.365143999999992,6987
45.22066399999994,3.365143999999992,7050
47.48866399999993,3.365143999999992,6851
46.19266399999994,9.845143999999989,7054
47.81266399999993,2.0691439999999925,6804
47.48866399999993,2.0691439999999925,6817
45.86866399999994,2.717143999999992,7000
44.89666399999994,5.957143999999991,6947
45.22066399999994,1.4211439999999929,7019
44.89666399999994,1.4211439999999929,7046
44.89666399999994,2.0691439999999925,7130
43.276663999999954,2.0691439999999925,7056
43.60066399999995,1.4211439999999929,7098
48.78466399999992,4.661143999999991,6809
48.78466399999992,5.309143999999991,6835
46.19266399999994,2.0691439999999925,7099
45.86866399999994,1.4211439999999929,6957
46.19266399999994,1.4211439999999929,6922
44.572663999999946,4.013143999999992,7073
44.89666399999994,3.365143999999992,7122
43.92466399999995,4.013143999999992,6956
44.24866399999995,4.013143999999992,6984
44.89666399999994,-0.5228560000000062,6902
45.54466399999994,0.1251439999999934,6863
46.516663999999935,0.1251439999999934,6820
44.572663999999946,2.0691439999999925,7178
49.75666399999992,4.013143999999992,6713
43.92466399999995,3.365143999999992,7347
43.92466399999995,2.717143999999992,7308
44.24866399999995,3.365143999999992,7258
44.572663999999946,3.365143999999992,7137
49.10866399999992,0.1251439999999934,6800
49.43266399999992,0.7731439999999932,6794
49.43266399999992,-1.8188560000000056,6956
49.10866399999992,-1.170856000000006,6880
49.10866399999992,-0.5228560000000062,6820
49.10866399999992,0.7731439999999932,6843
49.10866399999992,1.4211439999999929,6767
47.81266399999993,-1.8188560000000056,6903
47.81266399999993,-2.4668560000000053,6928
47.81266399999993,-3.114856000000005,6941
48.136663999999925,-3.7628560000000046,7004
44.572663999999946,9.197143999999987,7076
44.89666399999994,8.54914399999999,7022
45.22066399999994,9.197143999999987,6979
45.54466399999994,10.493143999999988,7027
44.572663999999946,10.493143999999988,7078
44.89666399999994,10.493143999999988,7064
44.89666399999994,9.845143999999989,7032
48.46066399999992,5.309143999999991,6855
50.91599999999999,-1.0580000000000025,65535
51.23999999999999,-0.4100000000000028,65535
50.91599999999999,-0.4100000000000028,65535
51.23999999999999,-2.354000000000002,65535
51.56399999999999,-2.354000000000002,65535
51.56399999999999,-3.0020000000000016,65535
50.91599999999999,-2.354000000000002,65535
53.50799999999997,-3.0020000000000016,65535
53.183999999999976,-2.354000000000002,65535
53.183999999999976,-3.0020000000000016,65535
52.85999999999998,-2.354000000000002,65535
52.21199999999998,-1.0580000000000025,65535
51.887999999999984,-1.0580000000000025,65535
52.53599999999998,-1.0580000000000025,65535
52.53599999999998,-1.7060000000000022,65535
52.85999999999998,-1.7060000000000022,65535
53.50799999999997,-2.354000000000002,65535
52.85999999999998,-1.0580000000000025,65535
52.53599999999998,1.5339999999999965,65535
52.53599999999998,0.8859999999999966,65535
52.53599999999998,0.2379999999999968,65535
52.53599999999998,-0.4100000000000028,65535
53.50799999999997,-1.7060000000000022,65535
53.183999999999976,-1.7060000000000022,65535
53.183999999999976,-1.0580000000000025,65535
52.85999999999998,-0.4100000000000028,65535
51.887999999999984,-2.354000000000002,65535
52.21199999999998,-2.354000000000002,65535
55.77599999999996,-2.354000000000002,65535
53.83199999999997,-1.0580000000000025,65535
53.83199999999997,-1.7060000000000022,65535
55.127999999999965,-1.7060000000000022,65535
54.80399999999997,-1.7060000000000022,65535
54.47999999999997,-1.7060000000000022,65535
54.15599999999997,-1.0580000000000025,65535
52.21199999999998,-1.7060000000000022,65535
53.50799999999997,-1.0580000000000025,65535
55.77599999999996,-3.0020000000000016,65535
55.45199999999996,-1.7060000000000022,65535
57.07199999999995,-2.354000000000002,65535
56.74799999999996,-3.0020000000000016,65535
56.42399999999996,-3.0020000000000016,65535
56.09999999999996,-3.650000000000001,65535
50.91599999999999,-3.0020000000000016,65535
50.91599999999999,-3.650000000000001,65535
50.59199999999999,-3.650000000000001,65535
50.59199999999999,-4.298000000000001,65535
51.23999999999999,-3.0020000000000016,65535
50.268,-4.946000000000001,65535
55.77599999999996,-3.650000000000001,65535
55.77599999999996,-4.298000000000001,65535
52.21199999999998,-0.4100000000000028,65535
52.53599999999998,-2.354000000000002,65535
51.56399999999999,-1.7060000000000022,65535
51.56399999999999,-3.650000000000001,65535
51.887999999999984,-4.298000000000001,65535
51.56399999999999,-4.298000000000001,65535
51.887999999999984,-1.7060000000000022,65535
52.21199999999998,-3.0020000000000016,65535
51.23999999999999,0.2379999999999968,65535
50.91599999999999,0.2379999999999968,65535
52.21199999999998,0.2379999999999968,65535
53.83199999999997,-3.0020000000000016,65535
54.15599999999997,-3.0020000000000016,65535
54.47999999999997,-3.0020000000000016,65535
55.127999999999965,-3.650000000000001,65535
54.80399999999997,-3.0020000000000016,65535
53.83199999999997,-2.354000000000002,65535
54.15599999999997,-0.4100000000000028,65535
54.47999999999997,-1.0580000000000025,65535
53.83199999999997,-0.4100000000000028,65535
53.183999999999976,-3.650000000000001,65535
53.183999999999976,-4.298000000000001,65535
52.85999999999998,-3.0020000000000016,65535
52.53599999999998,-3.0020000000000016,65535
51.887999999999984,-3.0020000000000016,65535
51.23999999999999,0.8859999999999966,65535
51.887999999999984,0.2379999999999968,65535
52.21199999999998,0.8859999999999966,65535
51.887999999999984,-4.946000000000001,65535
52.53599999999998,-3.650000000000001,65535
52.21199999999998,-4.298000000000001,65535
53.183999999999976,-0.4100000000000028,65535
51.23999999999999,-3.650000000000001,65535
51.887999999999984,-3.650000000000001,65535
52.21199999999998,-3.650000000000001,65535
51.56399999999999,0.8859999999999966,65535
51.887999999999984,0.8859999999999966,65535
52.85999999999998,0.8859999999999966,65535
53.50799999999997,-0.4100000000000028,65535
56.09999999999996,-4.298000000000001,65535
56.74799999999996,-4.946000000000001,65535
56.74799999999996,-4.298000000000001,65535
56.42399999999996,-4.946000000000001,65535
56.42399999999996,-4.298000000000001,65535
56.09999999999996,-4.946000000000001,65535
57.39599999999995,-4.298000000000001,65535
57.39599999999995,-3.0020000000000016,65535
57.39599999999995,-3.650000000000001,65535
56.42399999999996,-3.650000000000001,65535
57.07199999999995,-3.650000000000001,65535
57.07199999999995,-4.298000000000001,65535
56.74799999999996,-3.650000000000001,65535
59.15266399999986,27.34114399999998,65535
59.47666399999986,26.69314399999997,65535
59.47666399999986,26.04514399999998,65535
59.15266399999986,26.04514399999998,65535
59.15266399999986,24.74914399999998,65535
59.15266399999986,25.397143999999983,65535
59.47666399999986,25.397143999999983,65535
58.50466399999986,26.69314399999997,65535
58.82866399999986,26.69314399999997,65535
57.85666399999987,26.04514399999998,65535
58.180663999999865,26.04514399999998,65535
58.180663999999865,26.69314399999997,65535
58.82866399999986,26.04514399999998,65535
58.50466399999986,25.397143999999983,65535
58.82866399999986,25.397143999999983,65535
58.82866399999986,24.74914399999998,65535
58.180663999999865,27.34114399999998,65535
57.85666399999987,27.34114399999998,65535
63.68866399999983,27.34114399999998,65535
60.124663999999854,24.74914399999998,65535
60.44866399999985,24.74914399999998,65535
60.44866399999985,25.397143999999983,65535
60.77266399999985,25.397143999999983,65535
61.09666399999985,26.04514399999998,65535
60.77266399999985,26.04514399999998,65535
60.77266399999985,26.69314399999997,65535
61.09666399999985,25.397143999999983,65535
61.09666399999985,26.69314399999997,65535
61.420663999999846,26.69314399999997,65535
61.74466399999984,27.34114399999998,65535
62.06866399999984,27.34114399999998,65535
62.39266399999984,27.34114399999998,65535
62.71666399999984,27.34114399999998,65535
64.01266399999983,27.34114399999998,65535
63.36466399999984,27.34114399999998,65535
63.04066399999984,27.34114399999998,65535
63.04066399999984,27.989143999999985,65535
64.33666399999983,27.989143999999985,65535
64.33666399999983,27.34114399999998,65535
64.66066399999983,27.34114399999998,65535
64.66066399999983,26.69314399999997,9076
64.98466399999982,25.397143999999983,8839
64.66066399999983,26.04514399999998,9056
64.98466399999982,26.04514399999998,9040
66.28066399999982,25.397143999999983,65535
65.95666399999982,24.74914399999998,8752
65.63266399999982,24.74914399999998,8756
65.63266399999982,25.397143999999983,8798
65.30866399999982,25.397143999999983,8819
66.60466399999981,25.397143999999983,65535
64.01266399999983,24.74914399999998,8976
64.01266399999983,24.101143999999977,9011
64.01266399999983,23.45314399999998,9035
63.68866399999983,23.45314399999998,9047
63.68866399999983,22.805143999999984,9072
63.68866399999983,26.04514399999998,65535
63.68866399999983,25.397143999999983,65535
63.68866399999983,26.69314399999997,65535
60.44866399999985,26.69314399999997,65535
64.01266399999983,27.989143999999985,65535
62.71666399999984,22.805143999999984,65535
62.39266399999984,22.805143999999984,65535
62.06866399999984,22.805143999999984,65535
62.06866399999984,23.45314399999998,65535
61.74466399999984,23.45314399999998,65535
61.420663999999846,23.45314399999998,65535
61.09666399999985,23.45314399999998,65535
61.09666399999985,24.101143999999977,65535
61.09666399999985,24.74914399999998,65535
60.77266399999985,24.74914399999998,65535
63.04066399999984,21.50914399999997,65535
63.04066399999984,22.15714399999998,65535
63.04066399999984,22.805143999999984,65535
62.39266399999984,26.04514399999998,65535
62.06866399999984,25.397143999999983,65535
61.74466399999984,25.397143999999983,65535
61.74466399999984,24.74914399999998,65535
61.74466399999984,24.101143999999977,65535
61.420663999999846,24.101143999999977,65535
62.39266399999984,26.69314399999997,65535
64.66066399999983,25.397143999999983,8908
64.66066399999983,24.74914399999998,8926
64.33666399999983,24.74914399999998,8937
63.36466399999984,22.805143999999984,9097
67.25266399999981,24.101143999999977,65535
66.92866399999981,24.101143999999977,65535
66.60466399999981,23.45314399999998,65535
66.28066399999982,23.45314399999998,65535
66.28066399999982,24.101143999999977,65535
65.95666399999982,24.101143999999977,8124
60.124663999999854,24.101143999999977,65535
60.124663999999854,23.45314399999998,65535
60.44866399999985,22.805143999999984,65535
60.77266399999985,27.34114399999998,65535
61.09666399999985,27.989143999999985,65535
61.09666399999985,28.63714399999997,65535
61.420663999999846,29.28514399999997,65535
61.74466399999984,29.933143999999977,65535
62.06866399999984,29.933143999999977,65535
62.39266399999984,29.933143999999977,65535
62.71666399999984,29.933143999999977,65535
61.420663999999846,22.805143999999984,65535
61.420663999999846,22.15714399999998,65535
61.09666399999985,22.15714399999998,65535
61.420663999999846,21.50914399999997,65535
62.39266399999984,27.989143999999985,65535
62.06866399999984,27.989143999999985,65535
61.420663999999846,27.34114399999998,65535
63.04066399999984,29.933143999999977,65535
63.68866399999983,29.28514399999997,65535
63.36466399999984,29.28514399999997,65535
63.36466399999984,29.933143999999977,65535
60.44866399999985,27.34114399999998,65535
61.74466399999984,29.28514399999997,65535
62.39266399999984,30.58114399999998,65535
62.71666399999984,31.229143999999977,65535
62.71666399999984,29.28514399999997,65535
63.04066399999984,28.63714399999997,65535
66.60466399999981,26.04514399999998,65535
66.60466399999981,26.69314399999997,65535
66.60466399999981,27.34114399999998,65535
62.71666399999984,26.04514399999998,65535
62.71666399999984,25.397143999999983,65535
63.04066399999984,25.397143999999983,65535
63.36466399999984,25.397143999999983,65535
62.71666399999984,23.45314399999998,65535
62.39266399999984,24.101143999999977,65535
62.71666399999984,22.15714399999998,65535
62.39266399999984,22.15714399999998,65535
62.39266399999984,21.50914399999997,65535
61.09666399999985,21.50914399999997,65535
60.77266399999985,22.805143999999984,65535
60.44866399999985,22.15714399999998,65535
60.77266399999985,23.45314399999998,65535
60.77266399999985,21.50914399999997,65535
60.77266399999985,22.15714399999998,65535
60.124663999999854,22.805143999999984,65535
60.44866399999985,24.101143999999977,65535
62.06866399999984,24.74914399999998,65535
50.72866399999991,16.325143999999987,7004
50.40466399999991,16.973143999999984,7100
50.72866399999991,16.973143999999984,7044
50.40466399999991,16.325143999999987,7088
50.08066399999991,16.973143999999984,7160
50.08066399999991,16.325143999999987,6993
51.700663999999904,16.973143999999984,7014
51.37666399999991,16.973143999999984,7019
51.05266399999991,15.677143999999986,7040
50.72866399999991,15.677143999999986,7020
51.05266399999991,17.621143999999987,7036
51.37666399999991,17.621143999999987,7084
51.700663999999904,17.621143999999987,7063
51.700663999999904,16.325143999999987,6999
52.0246639999999,22.15714399999998,7347
52.0246639999999,21.50914399999997,7318
52.3486639999999,21.50914399999997,7314
52.0246639999999,20.86114399999998,7287
51.700663999999904,20.86114399999998,7305
51.37666399999991,21.50914399999997,7344
51.37666399999991,20.86114399999998,7339
51.05266399999991,20.86114399999998,7348
52.6726639999999,23.45314399999998,7522
52.3486639999999,22.805143999999984,7461
52.3486639999999,20.213143999999986,7279
52.0246639999999,20.213143999999986,7248
52.3486639999999,19.565143999999982,7204
52.6726639999999,19.565143999999982,7287
51.700663999999904,21.50914399999997,7369
51.700663999999904,22.15714399999998,7375
52.6726639999999,21.50914399999997,7323
52.996663999999896,21.50914399999997,7350
52.6726639999999,20.86114399999998,7345
52.6726639999999,22.15714399999998,7381
52.6726639999999,20.213143999999986,7346
52.996663999999896,19.565143999999982,7339
52.996663999999896,20.86114399999998,7378
52.996663999999896,20.213143999999986,7382
53.32066399999989,20.213143999999986,7294
51.37666399999991,20.213143999999986,7334
52.3486639999999,16.973143999999984,7036
52.0246639999999,16.973143999999984,7040
52.0246639999999,16.325143999999987,7013
52.0246639999999,17.621143999999987,7090
52.6726639999999,16.973143999999984,7030
52.996663999999896,16.973143999999984,7050
52.3486639999999,16.325143999999987,7000
52.3486639999999,15.677143999999986,6947
51.700663999999904,18.269143999999983,7123
52.6726639999999,17.621143999999987,7060
52.3486639999999,17.621143999999987,7046
52.6726639999999,18.269143999999983,7134
52.3486639999999,18.269143999999983,7117
52.3486639999999,18.917143999999983,7164
52.996663999999896,17.621143999999987,7158
51.700663999999904,19.565143999999982,7204
51.700663999999904,18.917143999999983,7171
51.37666399999991,18.269143999999983,7126
58.82866399999986,9.197143999999987,7345
58.180663999999865,7.90114399999999,7433
58.50466399999986,8.54914399999999,7389
63.36466399999984,10.493143999999988,7726
63.36466399999984,11.141143999999988,8023
63.36466399999984,11.789143999999988,8193
63.68866399999983,11.789143999999988,8091
64.33666399999983,12.437143999999988,8304
64.66066399999983,12.437143999999988,8353
65.63266399999982,13.085143999999987,8448
65.95666399999982,13.085143999999987,8477
66.28066399999982,14.381143999999988,8548
65.95666399999982,13.733143999999989,8505
66.28066399999982,13.733143999999989,8527
65.30866399999982,13.085143999999987,8413
64.98466399999982,13.085143999999987,8391
64.01266399999983,11.789143999999988,8122
63.68866399999983,11.141143999999988,8058
59.800663999999855,10.493143999999988,7270
59.800663999999855,11.141143999999988,7272
60.124663999999854,11.141143999999988,7287
60.44866399999985,11.141143999999988,7299
60.124663999999854,11.789143999999988,7329
60.77266399999985,7.25314399999999,7517
60.77266399999985,6.60514399999999,7566
59.15266399999986,9.197143999999987,7330
59.47666399999986,9.197143999999987,7351
59.800663999999855,9.845143999999989,7288
59.47666399999986,11.141143999999988,7254
61.09666399999985,10.493143999999988,7361
60.77266399999985,10.493143999999988,7335
60.77266399999985,11.141143999999988,7318
62.06866399999984,9.197143999999987,7579
61.74466399999984,9.845143999999989,7517
61.420663999999846,9.845143999999989,7500
59.15266399999986,9.845143999999989,7310
59.47666399999986,9.845143999999989,7286
58.82866399999986,5.957143999999991,7605
58.180663999999865,7.25314399999999,7480
58.50466399999986,7.25314399999999,7514
58.50466399999986,6.60514399999999,7519
58.50466399999986,5.957143999999991,7575
58.82866399999986,8.54914399999999,7375
60.44866399999985,7.25314399999999,7491
60.44866399999985,7.90114399999999,7448
60.124663999999854,10.493143999999988,7274
60.44866399999985,9.197143999999987,7361
60.77266399999985,9.197143999999987,7402
60.77266399999985,8.54914399999999,7428
60.124663999999854,9.845143999999989,7517
60.44866399999985,10.493143999999988,7315
63.04066399999984,10.493143999999988,7690
62.06866399999984,9.845143999999989,7604
62.39266399999984,9.845143999999989,7612
62.71666399999984,9.845143999999989,7636
59.47666399999986,14.381143999999988,7318
59.47666399999986,13.733143999999989,7306
59.47666399999986,13.085143999999987,7277
59.800663999999855,12.437143999999988,7312
59.15266399999986,11.141143999999988,7209
59.15266399999986,14.381143999999988,7294
58.82866399999986,11.789143999999988,7167
58.50466399999986,12.437143999999988,7125
58.180663999999865,12.437143999999988,7118
57.85666399999987,11.789143999999988,7090
62.71666399999984,7.90114399999999,8488
62.39266399999984,7.90114399999999,8445
62.06866399999984,8.54914399999999,8420
60.44866399999985,5.309143999999991,7706
60.44866399999985,5.957143999999991,8029
60.77266399999985,5.957143999999991,8003
62.39266399999984,11.141143999999988,7513
62.06866399999984,10.493143999999988,7470
61.74466399999984,11.141143999999988,7443
61.420663999999846,11.141143999999988,7396
61.09666399999985,11.141143999999988,7376
60.77266399999985,11.789143999999988,7353
63.04066399999984,11.141143999999988,8028
62.71666399999984,11.141143999999988,7537
62.39266399999984,10.493143999999988,7497
67.25266399999981,15.677143999999986,8663
67.25266399999981,15.029143999999986,8708
67.25266399999981,14.381143999999988,8736
66.92866399999981,15.029143999999986,8653
66.60466399999981,15.677143999999986,8631
64.01266399999983,11.141143999999988,8106
66.60466399999981,15.029143999999986,8793
54.29266399999989,18.269143999999983,7230
54.616663999999886,17.621143999999987,7188
53.96866399999989,18.269143999999983,7218
43.92466399999995,1.4211439999999929,7087
44.24866399999995,0.7731439999999932,7051
44.572663999999946,0.1251439999999934,6991
46.84066399999993,1.4211439999999929,6883
44.572663999999946,1.4211439999999929,7094
44.24866399999995,1.4211439999999929,7183
45.54466399999994,1.4211439999999929,6999
46.516663999999935,1.4211439999999929,6940
42.30466399999996,2.717143999999992,7051
44.24866399999995,2.717143999999992,7209
44.572663999999946,2.717143999999992,7243
43.92466399999995,2.0691439999999925,7130
42.30466399999996,2.0691439999999925,7227
42.62866399999996,2.0691439999999925,7073
42.62866399999996,1.4211439999999929,7162
42.95266399999996,1.4211439999999929,7122
43.276663999999954,1.4211439999999929,7092
46.516663999999935,-1.170856000000006,6960
46.19266399999994,-1.170856000000006,6985
45.86866399999994,-0.5228560000000062,6961
45.54466399999994,-0.5228560000000062,6942
48.46066399999992,1.4211439999999929,6743
41.332663999999966,2.0691439999999925,7254
41.98066399999996,2.717143999999992,7213
48.46066399999992,-1.8188560000000056,6910
47.81266399999993,0.7731439999999932,7003
46.84066399999993,0.7731439999999932,6940
44.572663999999946,-1.170856000000006,6925
43.60066399999995,-1.170856000000006,7048
43.276663999999954,-1.8188560000000056,7085
43.276663999999954,0.1251439999999934,7159
42.95266399999996,0.1251439999999934,7133
43.276663999999954,-0.5228560000000062,7105
43.60066399999995,-0.5228560000000062,7082
47.81266399999993,-3.7628560000000046,6988
47.48866399999993,-2.4668560000000053,6944
47.81266399999993,-0.5228560000000062,6889
46.516663999999935,-1.8188560000000056,6988
48.136663999999925,-1.170856000000006,6972
47.48866399999993,-1.170856000000006,6895
45.22066399999994,8.54914399999999,6994
45.22066399999994,7.90114399999999,7002
46.19266399999994,-0.5228560000000062,6941
46.516663999999935,-0.5228560000000062,6923
48.78466399999992,-3.114856000000005,7044
50.72866399999991,2.0691439999999925,6693
50.40466399999991,2.0691439999999925,6687
40.36066399999997,-3.7628560000000046,8625
41.65666399999997,-1.170856000000006,8366
41.332663999999966,1.4211439999999929,8192
43.276663999999954,13.733143999999989,65535
42.95266399999996,13.733143999999989,65535
41.65666399999997,15.029143999999986,65535
40.68466399999997,17.621143999999987,65535
43.60066399999995,13.085143999999987,65535
41.65666399999997,12.437143999999988,8329
41.65666399999997,13.085143999999987,8348
41.98066399999996,13.085143999999987,8398
41.65666399999997,13.733143999999989,8400
41.332663999999966,13.733143999999989,8392
41.332663999999966,14.381143999999988,8549
41.00866399999997,14.381143999999988,8455
41.332663999999966,13.085143999999987,8374
41.00866399999997,15.029143999999986,8655
41.98066399999996,13.733143999999989,8597
42.30466399999996,14.381143999999988,8736
42.30466399999996,12.437143999999988,8337
42.62866399999996,12.437143999999988,8516
42.95266399999996,12.437143999999988,8801
42.30466399999996,11.789143999999988,8346
42.95266399999996,11.789143999999988,8556
42.62866399999996,11.789143999999988,8547
43.276663999999954,11.789143999999988,8610
42.95266399999996,13.085143999999987,65535
42.30466399999996,13.085143999999987,8623
43.276663999999954,13.085143999999987,65535
43.276663999999954,12.437143999999988,65535
42.62866399999996,11.141143999999988,8392
42.95266399999996,11.141143999999988,8435
42.95266399999996,10.493143999999988,8453
44.572663999999946,8.54914399999999,7070
44.89666399999994,7.90114399999999,7014
44.89666399999994,9.197143999999987,7032
44.24866399999995,7.90114399999999,7080
44.572663999999946,7.90114399999999,7040
43.92466399999995,7.90114399999999,7087
44.24866399999995,7.25314399999999,7069
44.89666399999994,7.25314399999999,7038
45.22066399999994,7.25314399999999,7018
45.54466399999994,7.90114399999999,6998
44.572663999999946,7.25314399999999,7222
52.996663999999896,22.805143999999984,7975
52.996663999999896,23.45314399999998,8004
51.37666399999991,22.15714399999998,7465
51.37666399999991,22.805143999999984,7519
50.08066399999991,20.213143999999986,7226
50.72866399999991,20.213143999999986,7267
50.40466399999991,20.213143999999986,7206
50.08066399999991,20.86114399999998,7293
50.08066399999991,21.50914399999997,7324
50.08066399999991,22.15714399999998,7361
50.08066399999991,22.805143999999984,7368
53.96866399999989,22.805143999999984,8116
53.64466399999989,23.45314399999998,8072
53.32066399999989,23.45314399999998,8027
50.40466399999991,19.565143999999982,7140
50.08066399999991,18.917143999999983,7170
50.08066399999991,18.269143999999983,7210
52.0246639999999,22.805143999999984,7412
52.0246639999999,23.45314399999998,7450
51.37666399999991,19.565143999999982,7234
51.05266399999991,19.565143999999982,7153
50.72866399999991,18.917143999999983,7131
50.72866399999991,19.565143999999982,7223
49.75666399999992,18.917143999999983,7158
50.40466399999991,18.269143999999983,7118
53.64466399999989,19.565143999999982,7241
53.96866399999989,18.917143999999983,7260
53.64466399999989,18.917143999999983,7239
53.64466399999989,20.213143999999986,7289
52.996663999999896,18.917143999999983,7187
52.996663999999896,18.269143999999983,7167
53.32066399999989,18.917143999999983,7191
50.72866399999991,17.621143999999987,7067
50.72866399999991,18.269143999999983,7104
52.6726639999999,16.325143999999987,6991
52.996663999999896,16.325143999999987,6953
52.996663999999896,15.677143999999986,6928
53.32066399999989,15.677143999999986,6970
53.32066399999989,15.029143999999986,6978
53.64466399999989,15.029143999999986,6957
53.96866399999989,15.029143999999986,6938
52.6726639999999,18.917143999999983,7206
53.32066399999989,16.325143999999987,7177
52.6726639999999,15.029143999999986,6862
51.05266399999991,22.805143999999984,7549
51.05266399999991,23.45314399999998,7576
50.72866399999991,22.15714399999998,7502
50.40466399999991,22.15714399999998,7526
51.05266399999991,22.15714399999998,7516
54.616663999999886,16.973143999999984,7172
54.29266399999989,16.325143999999987,7105
53.96866399999989,15.677143999999986,7020
50.72866399999991,21.50914399999997,7491
50.40466399999991,21.50914399999997,7372
50.40466399999991,17.621143999999987,7088
53.32066399999989,22.805143999999984,7997
53.64466399999989,22.15714399999998,7438
54.29266399999989,16.973143999999984,7141
50.72866399999991,20.86114399999998,7310
51.700663999999904,22.805143999999984,7548
51.05266399999991,21.50914399999997,7375
50.08066399999991,19.565143999999982,7203
52.0246639999999,18.917143999999983,8008
52.0246639999999,19.565143999999982,8001
53.64466399999989,18.269143999999983,7212
51.700663999999904,20.213143999999986,7374
53.32066399999989,19.565143999999982,7232
50.72866399999991,23.45314399999998,8395
50.72866399999991,22.805143999999984,8364
49.43266399999992,20.213143999999986,7246
49.75666399999992,21.50914399999997,7335
49.75666399999992,22.15714399999998,7988
49.43266399999992,22.15714399999998,7582
51.05266399999991,18.917143999999983,7136
51.05266399999991,18.269143999999983,7073
53.32066399999989,16.973143999999984,7099
53.64466399999989,16.973143999999984,7118
49.75666399999992,20.86114399999998,7346
50.40466399999991,22.805143999999984,8962
53.64466399999989,16.325143999999987,7077
53.96866399999989,20.86114399999998,7393
54.29266399999989,20.86114399999998,7439
53.96866399999989,21.50914399999997,7544
53.64466399999989,15.677143999999986,7032
53.96866399999989,20.213143999999986,7321
53.96866399999989,19.565143999999982,7284
54.29266399999989,19.565143999999982,7294
53.96866399999989,16.325143999999987,7068
53.64466399999989,17.621143999999987,7164
53.96866399999989,22.15714399999998,7458
53.64466399999989,21.50914399999997,7394
53.64466399999989,20.86114399999998,7346
52.6726639999999,15.677143999999986,6911
51.05266399999991,20.213143999999986,7595
54.940663999999884,24.101143999999977,65535
54.616663999999886,23.45314399999998,65535
54.29266399999989,23.45314399999998,65535
53.64466399999989,22.805143999999984,8020
53.96866399999989,16.973143999999984,7273
50.40466399999991,20.86114399999998,8026
53.32066399999989,18.269143999999983,7185
49.75666399999992,19.565143999999982,7219
50.40466399999991,23.45314399999998,7645
49.75666399999992,20.213143999999986,7250
49.43266399999992,19.565143999999982,7209
49.43266399999992,20.86114399999998,7355
53.96866399999989,17.621143999999987,8043
42.30466399999996,-1.8188560000000056,8430
41.98066399999996,-1.8188560000000056,8418
41.65666399999997,0.7731439999999932,8306
42.62866399999996,-1.8188560000000056,8455
42.95266399999996,-1.8188560000000056,8482
42.62866399999996,-3.114856000000005,8557
42.95266399999996,-2.4668560000000053,8535
42.62866399999996,-7.650856000000003,8899
42.30466399999996,-7.650856000000003,8959
42.30466399999996,-8.946856000000002,9095
42.30466399999996,-8.298856000000002,9069
41.98066399999996,-8.298856000000002,9058
42.30466399999996,-7.002856000000003,8841
42.62866399999996,-6.354856000000003,8783
42.30466399999996,-6.354856000000003,8738
42.62866399999996,-5.706856000000004,8704
41.98066399999996,-4.410856000000004,8658
42.30466399999996,-3.7628560000000046,8622
40.03666399999997,-0.5228560000000062,8286
39.38866399999998,-0.5228560000000062,8334
41.00866399999997,0.7731439999999932,8434
40.68466399999997,0.7731439999999932,8466
40.36066399999997,0.1251439999999934,8544
39.712663999999975,-0.5228560000000062,8443
38.41666399999998,-0.5228560000000062,8455
39.06466399999998,-0.5228560000000062,8577
38.74066399999998,-1.170856000000006,8597
41.332663999999966,0.7731439999999932,8494
41.65666399999997,2.717143999999992,8094
41.65666399999997,2.0691439999999925,8117
41.332663999999966,0.1251439999999934,8452
41.332663999999966,-0.5228560000000062,8396
41.65666399999997,-4.410856000000004,8800
40.03666399999997,-2.4668560000000053,8616
41.00866399999997,-4.410856000000004,8731
43.276663999999954,-5.706856000000004,8983
39.38866399999998,-1.170856000000006,8429
38.09266399999999,-1.170856000000006,8842
38.74066399999998,-0.5228560000000062,8605
37.76866399999999,-1.170856000000006,8907
39.06466399999998,-1.8188560000000056,8705
39.38866399999998,-3.114856000000005,8784
39.38866399999998,-2.4668560000000053,8811
39.06466399999998,-2.4668560000000053,8815
39.06466399999998,-3.114856000000005,8896
39.06466399999998,-3.7628560000000046,8910
38.74066399999998,-3.7628560000000046,8923
40.03666399999997,-3.7628560000000046,8678
40.03666399999997,-3.114856000000005,8734
40.03666399999997,-1.8188560000000056,8564
39.712663999999975,-1.8188560000000056,8529
39.712663999999975,-1.170856000000006,8465
40.36066399999997,-1.170856000000006,8570
40.68466399999997,-1.170856000000006,8590
41.00866399999997,-1.170856000000006,8615
41.332663999999966,-1.170856000000006,8664
43.276663999999954,-8.298856000000002,9059
42.95266399999996,-8.298856000000002,9027
41.65666399999997,-5.706856000000004,65535
41.98066399999996,-7.002856000000003,65535
41.98066399999996,-6.354856000000003,65535
41.332663999999966,-5.058856000000004,8919
43.276663999999954,-3.7628560000000046,8840
42.95266399999996,-4.410856000000004,8774
42.62866399999996,-4.410856000000004,8764
42.30466399999996,-4.410856000000004,8723
41.00866399999997,-5.706856000000004,65535
41.332663999999966,-1.8188560000000056,8720
40.68466399999997,-3.114856000000005,8890
41.00866399999997,-3.114856000000005,8944
41.00866399999997,-2.4668560000000053,8970
41.332663999999966,-2.4668560000000053,65535
40.68466399999997,-4.410856000000004,8710
40.36066399999997,-4.410856000000004,9037
40.68466399999997,-3.7628560000000046,8652
40.36066399999997,-3.114856000000005,8878
41.65666399999997,-2.4668560000000053,65535
38.09266399999999,-3.7628560000000046,65535
38.74066399999998,-3.114856000000005,65535
37.76866399999999,-3.7628560000000046,65535
39.712663999999975,-3.114856000000005,8767
38.41666399999998,-3.7628560000000046,65535
40.03666399999997,-4.410856000000004,65535
40.03666399999997,-5.058856000000004,65535
39.38866399999998,-6.354856000000003,65535
39.38866399999998,-7.002856000000003,65535
42.95266399999996,-3.114856000000005,8968
41.98066399999996,-1.170856000000006,8724
42.30466399999996,-2.4668560000000053,9072
41.65666399999997,-0.5228560000000062,65535
41.98066399999996,-0.5228560000000062,8674
41.65666399999997,0.1251439999999934,8659
41.98066399999996,0.1251439999999934,8627
37.76866399999999,-5.058856000000004,9012
36.79666399999999,-4.410856000000004,9074
38.74066399999998,-4.410856000000004,65535
37.12066399999999,-4.410856000000004,9048
37.44466399999999,-5.058856000000004,9035
37.44466399999999,-7.002856000000003,65535
37.44466399999999,-6.354856000000003,65535
37.44466399999999,-5.706856000000004,8949
39.712663999999975,-3.7628560000000046,65535
42.62866399999996,-8.946856000000002,65535
42.30466399999996,-5.706856000000004,8745
42.30466399999996,-5.058856000000004,8830
42.95266399999996,-5.706856000000004,65535
41.00866399999997,-5.058856000000004,65535
40.68466399999997,-5.058856000000004,65535
41.65666399999997,-5.058856000000004,65535
41.65666399999997,-6.354856000000003,65535
36.79666399999999,-6.354856000000003,65535
37.12066399999999,-5.706856000000004,65535
37.76866399999999,-5.706856000000004,65535
38.09266399999999,-4.410856000000004,65535
37.12066399999999,-5.058856000000004,65535
36.79666399999999,-5.058856000000004,65535
37.76866399999999,-4.410856000000004,65535
37.76866399999999,-7.002856000000003,65535
38.41666399999998,-6.354856000000003,65535
38.09266399999999,-6.354856000000003,65535
48.78466399999992,1.4211439999999929,6841
56.23666399999988,8.54914399999999,6955
55.58866399999988,9.197143999999987,6931
55.91266399999988,9.197143999999987,7032
55.26466399999988,10.493143999999988,6937
55.91266399999988,12.437143999999988,6948
55.58866399999988,11.789143999999988,6933
55.58866399999988,11.141143999999988,6937
55.26466399999988,11.789143999999988,6922
55.58866399999988,10.493143999999988,6934
55.58866399999988,13.085143999999987,6962
56.88466399999987,9.845143999999989,6982
57.20866399999987,9.845143999999989,6993
56.56066399999988,9.845143999999989,6954
56.88466399999987,8.54914399999999,7008
54.940663999999884,9.845143999999989,7756
54.940663999999884,11.789143999999988,6900
55.91266399999988,13.085143999999987,6954
56.23666399999988,13.733143999999989,6995
55.91266399999988,13.733143999999989,6971
56.23666399999988,14.381143999999988,7014
56.23666399999988,15.029143999999986,7032
56.23666399999988,15.677143999999986,7087
56.56066399999988,14.381143999999988,7003
56.88466399999987,14.381143999999988,7027
56.23666399999988,13.085143999999987,6962
56.56066399999988,13.085143999999987,6996
56.88466399999987,12.437143999999988,7033
57.20866399999987,12.437143999999988,7049
57.53266399999987,12.437143999999988,7079
56.88466399999987,15.029143999999986,7039
56.56066399999988,15.677143999999986,7105
56.88466399999987,15.677143999999986,7123
56.88466399999987,16.325143999999987,7139
55.91266399999988,11.789143999999988,6941
57.20866399999987,10.493143999999988,7384
49.43266399999992,1.4211439999999929,6783
49.75666399999992,0.7731439999999932,6822
49.75666399999992,2.0691439999999925,6722
50.08066399999991,2.717143999999992,6709
49.75666399999992,1.4211439999999929,6800
47.81266399999993,1.4211439999999929,6869
48.136663999999925,2.0691439999999925,7269
48.46066399999992,2.0691439999999925,6776
48.136663999999925,1.4211439999999929,6804
48.78466399999992,0.1251439999999934,6926
48.46066399999992,0.1251439999999934,7010
47.81266399999993,0.1251439999999934,6877
46.84066399999993,-0.5228560000000062,6882
47.16466399999993,0.7731439999999932,6829
46.84066399999993,0.1251439999999934,7007
46.84066399999993,-1.170856000000006,6932
50.08066399999991,1.4211439999999929,6697
50.08066399999991,2.0691439999999925,6713
49.43266399999992,2.717143999999992,6732
49.75666399999992,3.365143999999992,6730
50.08066399999991,3.365143999999992,6682
49.10866399999992,2.0691439999999925,6781
49.43266399999992,2.0691439999999925,6726
48.78466399999992,0.7731439999999932,6899
48.78466399999992,-0.5228560000000062,7041
48.78466399999992,-1.170856000000006,6990
48.136663999999925,0.7731439999999932,6829
48.46066399999992,0.7731439999999932,6780
43.92466399999995,5.957143999999991,7113
44.24866399999995,5.957143999999991,7139
43.92466399999995,5.309143999999991,6970
42.95266399999996,2.717143999999992,7040
45.54466399999994,2.0691439999999925,7126
45.22066399999994,2.0691439999999925,7073
42.95266399999996,2.0691439999999925,7217
42.95266399999996,0.7731439999999932,7166
43.276663999999954,0.7731439999999932,7107
46.19266399999994,0.7731439999999932,7012
46.516663999999935,0.7731439999999932,6969
45.86866399999994,0.1251439999999934,7025
46.19266399999994,0.1251439999999934,7029
47.81266399999993,-1.170856000000006,7048
48.136663999999925,-2.4668560000000053,7007
47.48866399999993,-1.8188560000000056,6927
47.16466399999993,-1.170856000000006,6907
47.16466399999993,-0.5228560000000062,6888
46.84066399999993,-1.8188560000000056,6956
45.22066399999994,-0.5228560000000062,6947
44.89666399999994,0.1251439999999934,6914
45.22066399999994,0.7731439999999932,6952
45.54466399999994,0.7731439999999932,7055
45.86866399999994,0.7731439999999932,7002
45.22066399999994,0.1251439999999934,6947
44.89666399999994,0.7731439999999932,6954
43.92466399999995,-0.5228560000000062,7075
43.92466399999995,-1.170856000000006,7068
44.24866399999995,-1.170856000000006,7048
45.22066399999994,-1.170856000000006,6978
44.572663999999946,-0.5228560000000062,6920
44.24866399999995,0.1251439999999934,7096
44.572663999999946,0.7731439999999932,7157
43.276663999999954,-1.170856000000006,7124
42.95266399999996,-0.5228560000000062,7173
44.24866399999995,2.0691439999999925,7184
43.60066399999995,0.7731439999999932,7153
43.60066399999995,2.0691439999999925,7096
52.6726639999999,4.661143999999991,6601
52.6726639999999,5.309143999999991,6624
51.700663999999904,5.309143999999991,6605
52.0246639999999,5.309143999999991,6594
52.3486639999999,5.309143999999991,0
51.37666399999991,4.013143999999992,6615
52.3486639999999,5.957143999999991,6627
52.0246639999999,6.60514399999999,6640
52.6726639999999,5.957143999999991,6646
52.996663999999896,5.957143999999991,6658
53.32066399999989,5.957143999999991,6668
52.996663999999896,6.60514399999999,6687
53.32066399999989,6.60514399999999,6681
52.6726639999999,6.60514399999999,6650
52.996663999999896,5.309143999999991,6679
59.15266399999986,24.101143999999977,65535
56.88466399999987,24.101143999999977,65535
56.88466399999987,23.45314399999998,65535
56.88466399999987,22.805143999999984,65535
57.20866399999987,24.74914399999998,65535
56.88466399999987,24.74914399999998,65535
56.56066399999988,24.74914399999998,65535
56.56066399999988,25.397143999999983,65535
56.56066399999988,24.101143999999977,65535
56.56066399999988,23.45314399999998,65535
56.56066399999988,26.04514399999998,65535
56.88466399999987,26.04514399999998,65535
57.20866399999987,25.397143999999983,65535
57.53266399999987,25.397143999999983,65535
56.23666399999988,26.04514399999998,65535
56.23666399999988,26.69314399999997,65535
55.91266399999988,26.69314399999997,65535
56.56066399999988,26.69314399999997,65535
56.56066399999988,27.34114399999998,65535
56.56066399999988,27.989143999999985,65535
56.23666399999988,27.989143999999985,65535
55.91266399999988,27.34114399999998,65535
56.56066399999988,22.805143999999984,65535
56.56066399999988,22.15714399999998,65535
56.56066399999988,21.50914399999997,65535
57.20866399999987,26.69314399999997,65535
39.06466399999998,-8.946856000000002,65535
38.41666399999998,-8.298856000000002,65535
45.86866399999994,11.789143999999988,7348
46.19266399999994,11.789143999999988,7335
46.19266399999994,10.493143999999988,7375
45.22066399999994,18.269143999999983,7351
45.22066399999994,18.917143999999983,7377
45.54466399999994,16.973143999999984,7216
45.22066399999994,17.621143999999987,7277
45.86866399999994,16.325143999999987,7135
45.54466399999994,18.917143999999983,7414
45.54466399999994,16.325143999999987,7155
45.54466399999994,18.269143999999983,7409
44.89666399999994,18.917143999999983,7450
46.19266399999994,16.973143999999984,7201
46.19266399999994,16.325143999999987,7188
45.86866399999994,16.973143999999984,7211
45.86866399999994,17.621143999999987,7244
46.19266399999994,15.677143999999986,7115
46.516663999999935,16.325143999999987,7173
45.54466399999994,15.677143999999986,7199
45.22066399999994,15.029143999999986,7195
45.54466399999994,15.029143999999986,7175
45.22066399999994,15.677143999999986,7262
44.572663999999946,15.677143999999986,7339
44.24866399999995,15.677143999999986,7360
43.92466399999995,16.325143999999987,7424
44.89666399999994,15.677143999999986,7303
45.54466399999994,17.621143999999987,7352
45.22066399999994,16.325143999999987,7263
46.516663999999935,16.973143999999984,7215
45.86866399999994,18.269143999999983,7435
43.92466399999995,15.677143999999986,7526
45.22066399999994,13.733143999999989,7301
47.48866399999993,19.565143999999982,7354
47.16466399999993,18.917143999999983,7353
47.81266399999993,18.917143999999983,7306
45.54466399999994,9.845143999999989,6979
45.22066399999994,9.845143999999989,6988
45.22066399999994,10.493143999999988,7038
45.86866399999994,9.845143999999989,6999
45.86866399999994,10.493143999999988,8118
48.78466399999992,21.50914399999997,7297
49.10866399999992,20.213143999999986,7238
49.10866399999992,18.917143999999983,7146
48.46066399999992,17.621143999999987,7187
49.43266399999992,17.621143999999987,7093
49.10866399999992,17.621143999999987,7141
48.136663999999925,18.269143999999983,7218
49.10866399999992,18.269143999999983,7167
49.43266399999992,18.269143999999983,7124
49.43266399999992,16.973143999999984,7071
49.75666399999992,16.973143999999984,7041
49.75666399999992,16.325143999999987,7019
50.08066399999991,15.677143999999986,6971
50.08066399999991,15.029143999999986,6941
49.43266399999992,18.917143999999983,7135
47.81266399999993,20.86114399999998,7435
48.136663999999925,20.86114399999998,7370
48.46066399999992,20.86114399999998,7357
48.46066399999992,21.50914399999997,7312
49.10866399999992,19.565143999999982,7159
48.136663999999925,17.621143999999987,7166
48.78466399999992,22.15714399999998,7430
48.78466399999992,20.86114399999998,7585
49.10866399999992,20.86114399999998,7281
48.78466399999992,18.269143999999983,7210
48.78466399999992,17.621143999999987,7169
49.10866399999992,21.50914399999997,7289
48.78466399999992,20.213143999999986,7629
48.46066399999992,20.213143999999986,7641
48.136663999999925,19.565143999999982,7365
48.46066399999992,19.565143999999982,7244
48.46066399999992,18.917143999999983,7226
48.46066399999992,18.269143999999983,7223
48.78466399999992,19.565143999999982,7200
48.78466399999992,18.917143999999983,7186
47.81266399999993,18.269143999999983,7267
49.10866399999992,22.15714399999998,7484
49.43266399999992,21.50914399999997,7414
48.136663999999925,18.917143999999983,7419
48.136663999999925,20.213143999999986,7385
52.636,-8.018,65535
52.312,-7.370000000000001,65535
52.312,-8.018,65535
52.636,-8.666,65535
51.988,-8.666,65535
51.988,-8.018,65535
52.96,-8.666,65535
52.96,-6.074000000000002,65535
53.28399999999999,-6.722000000000001,65535
53.60799999999999,-6.722000000000001,65535
53.60799999999999,-7.370000000000001,65535
53.60799999999999,-8.018,65535
54.25599999999999,-8.666,65535
53.93199999999999,-8.666,65535
53.93199999999999,-8.018,65535
52.312,-6.722000000000001,65535
52.636,-6.722000000000001,65535
53.93199999999999,-6.722000000000001,65535
54.25599999999999,-6.074000000000002,65535
53.28399999999999,-7.370000000000001,65535
52.96,-7.370000000000001,65535
52.312,-8.666,65535
52.96,-8.018,65535
52.636,-7.370000000000001,65535
52.96,-6.722000000000001,65535
51.988,-9.314,65535
52.312,-9.314,65535
54.579999999999984,-6.722000000000001,65535
54.579999999999984,-6.074000000000002,65535
53.28399999999999,-8.018,65535
53.28399999999999,-8.666,65535
53.28399999999999,-9.314,65535
53.93199999999999,-9.314,65535
54.25599999999999,-9.314,65535
53.60799999999999,-8.666,65535
53.60799999999999,-9.314,65535
49.43266399999992,14.381143999999988,6995
49.75666399999992,14.381143999999988,6953
49.75666399999992,15.029143999999986,6946
49.75666399999992,13.733143999999989,6983
50.08066399999991,13.733143999999989,6977
49.75666399999992,15.677143999999986,6957
50.40466399999991,15.029143999999986,6936
49.43266399999992,13.733143999999989,7086
50.40466399999991,15.677143999999986,6947
50.40466399999991,13.733143999999989,7003
46.19266399999994,15.029143999999986,7109
45.86866399999994,15.029143999999986,7136
45.86866399999994,14.381143999999988,7129
46.19266399999994,13.733143999999989,7142
45.86866399999994,13.733143999999989,7228
58.50466399999986,13.733143999999989,7159
58.180663999999865,13.733143999999989,7144
58.180663999999865,13.085143999999987,7118
57.85666399999987,12.437143999999988,7097
60.44866399999985,15.677143999999986,7306
60.124663999999854,15.677143999999986,7276
60.124663999999854,16.325143999999987,7279
59.800663999999855,16.325143999999987,7240
59.800663999999855,17.621143999999987,7252
59.47666399999986,18.269143999999983,7234
61.74466399999984,16.973143999999984,7378
61.420663999999846,16.973143999999984,7350
60.77266399999985,16.973143999999984,7303
65.63266399999982,22.15714399999998,8062
65.95666399999982,21.50914399999997,8022
65.63266399999982,20.86114399999998,7993
64.98466399999982,20.213143999999986,7925
64.66066399999983,20.213143999999986,7903
64.33666399999983,19.565143999999982,8104
64.01266399999983,19.565143999999982,8021
63.68866399999983,20.213143999999986,7652
64.66066399999983,18.917143999999983,8274
59.15266399999986,16.325143999999987,7203
59.15266399999986,15.029143999999986,7196
59.15266399999986,17.621143999999987,7215
57.53266399999987,14.381143999999988,7080
57.53266399999987,15.029143999999986,7170
61.09666399999985,14.381143999999988,7409
60.77266399999985,15.029143999999986,7365
60.44866399999985,15.029143999999986,7354
58.180663999999865,15.029143999999986,7123
58.50466399999986,16.325143999999987,7156
58.50466399999986,15.677143999999986,7132
63.36466399999984,13.085143999999987,8185
63.04066399999984,14.381143999999988,7562
62.39266399999984,15.677143999999986,7491
63.36466399999984,13.733143999999989,8167
63.36466399999984,14.381143999999988,8139
62.71666399999984,15.677143999999986,7509
62.39266399999984,17.621143999999987,7433
59.800663999999855,15.677143999999986,7293
55.58866399999988,13.733143999999989,6998
57.20866399999987,14.381143999999988,7073
57.85666399999987,14.381143999999988,7106
58.82866399999986,16.973143999999984,7212
58.82866399999986,16.325143999999987,7190
59.15266399999986,18.269143999999983,7228
60.44866399999985,17.621143999999987,7309
59.15266399999986,12.437143999999988,7243
59.15266399999986,13.085143999999987,7255
58.82866399999986,12.437143999999988,7220
59.47666399999986,16.325143999999987,7229
58.82866399999986,14.381143999999988,7176
59.47666399999986,15.677143999999986,7218
63.36466399999984,18.917143999999983,7608
63.04066399999984,17.621143999999987,7573
62.71666399999984,17.621143999999987,7549
63.68866399999983,19.565143999999982,7987
62.39266399999984,16.973143999999984,7453
59.800663999999855,16.973143999999984,7255
59.47666399999986,17.621143999999987,7239
57.85666399999987,13.085143999999987,7126
57.53266399999987,13.085143999999987,7106
58.50466399999986,11.789143999999988,7130
57.85666399999987,15.029143999999986,7107
57.20866399999987,13.733143999999989,7065
57.53266399999987,13.733143999999989,7094
61.74466399999984,16.325143999999987,7431
61.420663999999846,16.325143999999987,7397
61.09666399999985,16.325143999999987,7437
61.09666399999985,16.973143999999984,7420
60.124663999999854,15.029143999999986,7340
66.60466399999981,20.86114399999998,8097
67.25266399999981,20.86114399999998,8165
67.90066399999981,20.213143999999986,8235
67.57666399999981,20.213143999999986,8860
59.800663999999855,15.029143999999986,7301
58.50466399999986,15.029143999999986,7138
59.47666399999986,15.029143999999986,7261
60.44866399999985,16.325143999999987,7368
59.15266399999986,15.677143999999986,7222
57.85666399999987,13.733143999999989,7162
58.82866399999986,13.733143999999989,7220
58.50466399999986,13.085143999999987,7149
57.20866399999987,13.085143999999987,7143
56.88466399999987,13.085143999999987,7151
58.180663999999865,11.789143999999988,7101
62.06866399999984,16.973143999999984,7464
65.95666399999982,23.45314399999998,8103
59.800663999999855,14.381143999999988,65535
59.800663999999855,18.269143999999983,7257
63.04066399999984,15.029143999999986,7558
62.71666399999984,15.029143999999986,7549
62.39266399999984,16.325143999999987,7482
63.36466399999984,12.437143999999988,8219
68.5486639999998,17.621143999999987,8448
68.5486639999998,18.269143999999983,8381
68.5486639999998,18.917143999999983,8358
68.2246639999998,18.917143999999983,8314
59.800663999999855,13.085143999999987,7305
60.124663999999854,13.085143999999987,7347
59.47666399999986,16.973143999999984,7241
59.15266399999986,16.973143999999984,7233
56.56066399999988,13.733143999999989,7098
60.124663999999854,17.621143999999987,7286
57.85666399999987,16.325143999999987,7278
58.180663999999865,16.325143999999987,7244
58.180663999999865,15.677143999999986,7240
57.20866399999987,16.325143999999987,7167
57.53266399999987,15.677143999999986,7202
57.85666399999987,15.677143999999986,7249
44.89666399999994,23.45314399999998,65535
44.572663999999946,23.45314399999998,65535
44.89666399999994,24.74914399999998,65535
44.572663999999946,24.74914399999998,65535
44.572663999999946,24.101143999999977,65535
44.24866399999995,24.101143999999977,65535
47.48866399999993,25.397143999999983,65535
47.48866399999993,24.74914399999998,65535
47.16466399999993,24.74914399999998,65535
47.16466399999993,24.101143999999977,65535
47.48866399999993,22.15714399999998,65535
47.81266399999993,22.15714399999998,65535
47.16466399999993,22.15714399999998,65535
47.16466399999993,23.45314399999998,65535
47.16466399999993,22.805143999999984,65535
46.84066399999993,24.101143999999977,65535
45.86866399999994,27.34114399999998,65535
45.54466399999994,27.34114399999998,65535
45.54466399999994,27.989143999999985,65535
45.86866399999994,20.86114399999998,65535
45.86866399999994,21.50914399999997,65535
46.19266399999994,21.50914399999997,65535
46.19266399999994,27.34114399999998,65535
46.19266399999994,26.69314399999997,65535
46.516663999999935,26.69314399999997,65535
46.516663999999935,26.04514399999998,65535
47.48866399999993,22.805143999999984,65535
46.84066399999993,22.805143999999984,65535
45.54466399999994,22.15714399999998,65535
45.22066399999994,22.15714399999998,65535
44.89666399999994,22.15714399999998,65535
47.48866399999993,23.45314399999998,65535
46.516663999999935,24.101143999999977,65535
46.516663999999935,24.74914399999998,65535
45.86866399999994,24.101143999999977,65535
47.16466399999993,26.69314399999997,65535
47.16466399999993,27.34114399999998,65535
43.92466399999995,25.397143999999983,65535
44.24866399999995,24.74914399999998,65535
44.89666399999994,26.04514399999998,65535
44.89666399999994,26.69314399999997,65535
45.22066399999994,26.69314399999997,65535
45.22066399999994,27.34114399999998,65535
46.84066399999993,26.69314399999997,65535
47.48866399999993,26.69314399999997,65535
44.24866399999995,25.397143999999983,65535
43.92466399999995,26.04514399999998,65535
46.19266399999994,24.101143999999977,65535
44.572663999999946,25.397143999999983,65535
46.84066399999993,24.74914399999998,65535
46.516663999999935,21.50914399999997,65535
46.84066399999993,21.50914399999997,65535
44.572663999999946,26.69314399999997,65535
44.572663999999946,27.34114399999998,65535
44.89666399999994,27.34114399999998,65535
44.572663999999946,27.989143999999985,65535
44.24866399999995,27.989143999999985,65535
44.572663999999946,28.63714399999997,65535
45.86866399999994,22.15714399999998,65535
45.86866399999994,22.805143999999984,65535
44.24866399999995,23.45314399999998,65535
43.92466399999995,27.989143999999985,65535
46.84066399999993,27.34114399999998,65535
45.22066399999994,23.45314399999998,65535
45.54466399999994,23.45314399999998,65535
45.54466399999994,24.101143999999977,65535
45.22066399999994,24.101143999999977,65535
44.89666399999994,24.101143999999977,65535
46.19266399999994,22.15714399999998,65535
46.516663999999935,22.15714399999998,65535
45.22066399999994,21.50914399999997,65535
45.54466399999994,21.50914399999997,65535
45.54466399999994,20.86114399999998,65535
46.516663999999935,27.989143999999985,65535
46.19266399999994,27.989143999999985,65535
45.54466399999994,25.397143999999983,65535
45.22066399999994,25.397143999999983,65535
45.22066399999994,26.04514399999998,65535
47.81266399999993,24.101143999999977,65535
47.48866399999993,26.04514399999998,65535
47.81266399999993,26.04514399999998,65535
46.19266399999994,23.45314399999998,65535
45.86866399999994,23.45314399999998,65535
44.24866399999995,26.04514399999998,65535
45.22066399999994,27.989143999999985,65535
45.86866399999994,24.74914399999998,65535
46.516663999999935,25.397143999999983,65535
46.84066399999993,25.397143999999983,65535
46.19266399999994,26.04514399999998,65535
45.86866399999994,26.04514399999998,65535
43.92466399999995,23.45314399999998,65535
44.89666399999994,25.397143999999983,65535
46.19266399999994,20.86114399999998,65535
47.81266399999993,25.397143999999983,65535
44.572663999999946,22.805143999999984,65535
44.572663999999946,22.15714399999998,65535
46.516663999999935,23.45314399999998,65535
45.86866399999994,25.397143999999983,65535
44.24866399999995,27.34114399999998,65535
45.22066399999994,24.74914399999998,65535
45.54466399999994,22.805143999999984,65535
45.22066399999994,28.63714399999997,65535
44.89666399999994,28.63714399999997,65535
47.81266399999993,23.45314399999998,65535
46.19266399999994,24.74914399999998,65535
46.19266399999994,25.397143999999983,65535
43.92466399999995,24.101143999999977,65535
43.92466399999995,24.74914399999998,65535
47.81266399999993,26.69314399999997,65535
47.48866399999993,24.101143999999977,65535
46.84066399999993,26.04514399999998,65535
46.19266399999994,22.805143999999984,65535
47.48866399999993,27.34114399999998,65535
46.19266399999994,20.213143999999986,65535
45.54466399999994,26.04514399999998,65535
44.24866399999995,26.69314399999997,65535
45.86866399999994,27.989143999999985,65535
47.81266399999993,5.957143999999991,65535
