51.56399999999999,-0.4100000000000028,65535
51.887999999999984,-0.4100000000000028,65535
50.91599999999999,-1.7060000000000022,65535
51.23999999999999,-1.0580000000000025,65535
51.56399999999999,-1.0580000000000025,65535
51.23999999999999,-1.7060000000000022,65535
51.56399999999999,0.2379999999999968,65535
47.16466399999993,9.845143999999989,3043
47.48866399999993,9.845143999999989,3049
48.136663999999925,14.381143999999988,3269
47.81266399999993,13.085143999999987,3129
47.16466399999993,11.141143999999988,3170
47.48866399999993,11.789143999999988,3379
48.136663999999925,16.325143999999987,3334
47.48866399999993,12.437143999999988,3114
48.136663999999925,15.677143999999986,3364
47.16466399999993,10.493143999999988,3301
47.16466399999993,9.197143999999987,3031
48.136663999999925,13.733143999999989,3239
48.136663999999925,15.029143999999986,3974
47.81266399999993,16.973143999999984,3355
48.46066399999992,14.381143999999988,8584
47.48866399999993,13.085143999999987,3119
47.16466399999993,13.085143999999987,3130
47.48866399999993,14.381143999999988,3391
47.48866399999993,13.733143999999989,3413
47.48866399999993,15.029143999999986,3402
46.516663999999935,13.733143999999989,3235
46.84066399999993,13.733143999999989,3196
46.84066399999993,13.085143999999987,3181
48.78466399999992,14.381143999999988,65535
47.16466399999993,15.677143999999986,3420
46.516663999999935,14.381143999999988,3234
46.84066399999993,14.381143999999988,3201
47.16466399999993,14.381143999999988,3485
46.516663999999935,15.029143999999986,3247
47.81266399999993,16.325143999999987,3352
47.16466399999993,15.029143999999986,3460
47.81266399999993,15.677143999999986,3358
47.48866399999993,15.677143999999986,3397
46.516663999999935,13.085143999999987,3374
46.84066399999993,12.437143999999988,3239
48.136663999999925,11.789143999999988,3035
47.81266399999993,12.437143999999988,3083
46.84066399999993,15.677143999999986,3740
46.516663999999935,15.677143999999986,3303
46.84066399999993,16.325143999999987,3339
47.81266399999993,14.381143999999988,3325
48.78466399999992,16.973143999999984,3292
48.136663999999925,16.973143999999984,3321
48.46066399999992,13.733143999999989,3159
47.81266399999993,13.733143999999989,3314
50.08066399999991,8.54914399999999,2920
48.46066399999992,9.845143999999989,3009
51.05266399999991,7.25314399999999,2880
51.37666399999991,7.25314399999999,2871
51.37666399999991,6.60514399999999,2873
48.46066399999992,16.325143999999987,3339
48.46066399999992,16.973143999999984,3308
48.78466399999992,16.325143999999987,3352
48.46066399999992,15.677143999999986,3360
48.78466399999992,15.677143999999986,3467
47.48866399999993,16.325143999999987,3362
47.16466399999993,16.325143999999987,3390
46.19266399999994,14.381143999999988,3278
45.86866399999994,15.677143999999986,3303
43.60066399999995,16.325143999999987,3640
45.54466399999994,14.381143999999988,3325
45.54466399999994,13.733143999999989,3348
48.136663999999925,13.085143999999987,3201
48.46066399999992,11.141143999999988,3021
48.136663999999925,11.141143999999988,3032
48.46066399999992,7.90114399999999,2977
49.10866399999992,8.54914399999999,2943
48.78466399999992,2.0691439999999925,3014
49.10866399999992,7.25314399999999,2961
52.0246639999999,7.90114399999999,2852
47.16466399999993,11.789143999999988,3190
49.43266399999992,11.141143999999988,3038
53.64466399999989,9.845143999999989,2722
50.72866399999991,4.013143999999992,2915
51.05266399999991,11.141143999999988,2959
47.48866399999993,11.141143999999988,3068
46.84066399999993,11.789143999999988,4502
46.516663999999935,11.141143999999988,4471
45.54466399999994,11.141143999999988,4367
46.19266399999994,11.141143999999988,4437
45.86866399999994,11.141143999999988,4421
44.572663999999946,11.141143999999988,3252
43.92466399999995,12.437143999999988,65535
45.54466399999994,12.437143999999988,4710
45.54466399999994,11.789143999999988,4675
48.78466399999992,15.029143999999986,3852
47.81266399999993,15.029143999999986,4165
47.81266399999993,11.141143999999988,3049
50.40466399999991,18.917143999999983,3289
52.3486639999999,20.86114399999998,3467
54.616663999999886,18.269143999999983,3387
54.29266399999989,18.917143999999983,3397
49.10866399999992,14.381143999999988,65535
50.08066399999991,14.381143999999988,3102
48.78466399999992,13.733143999999989,4315
52.6726639999999,13.085143999999987,2924
52.3486639999999,13.085143999999987,2926
53.96866399999989,12.437143999999988,2844
54.29266399999989,12.437143999999988,2872
47.48866399999993,8.54914399999999,3023
47.81266399999993,17.621143999999987,3389
47.48866399999993,18.917143999999983,3500
47.48866399999993,20.86114399999998,3721
46.84066399999993,23.45314399999998,5278
44.572663999999946,26.04514399999998,5784
47.48866399999993,21.50914399999997,3755
47.81266399999993,21.50914399999997,3788
48.46066399999992,22.15714399999998,3517
47.48866399999993,16.973143999999984,65535
49.10866399999992,16.325143999999987,3247
49.75666399999992,18.269143999999983,3340
46.19266399999994,13.085143999999987,5663
41.98066399999996,12.437143999999988,5830
43.60066399999995,10.493143999999988,6086
45.54466399999994,9.197143999999987,3128
47.81266399999993,22.805143999999984,5083
49.75666399999992,22.805143999999984,3554
50.72866399999991,3.365143999999992,2922
51.05266399999991,4.013143999999992,2919
50.72866399999991,4.661143999999991,2907
51.05266399999991,4.661143999999991,2911
51.05266399999991,3.365143999999992,2922
51.05266399999991,2.717143999999992,2942
50.40466399999991,4.661143999999991,2911
50.72866399999991,2.717143999999992,2938
50.40466399999991,4.013143999999992,2926
51.05266399999991,5.309143999999991,2910
50.72866399999991,5.309143999999991,2900
51.37666399999991,3.365143999999992,2941
51.37666399999991,4.661143999999991,2915
50.72866399999991,5.957143999999991,2889
50.40466399999991,5.957143999999991,2892
50.40466399999991,3.365143999999992,2930
50.40466399999991,5.309143999999991,2905
50.08066399999991,5.309143999999991,2949
49.75666399999992,5.309143999999991,2953
49.75666399999992,5.957143999999991,2924
51.37666399999991,5.309143999999991,2967
51.700663999999904,4.661143999999991,2958
50.08066399999991,4.013143999999992,2948
50.08066399999991,5.957143999999991,2901
50.08066399999991,4.661143999999991,2935
49.43266399999992,5.309143999999991,2955
49.43266399999992,5.957143999999991,2934
52.0246639999999,4.661143999999991,2990
52.3486639999999,4.661143999999991,3019
50.72866399999991,15.029143999999986,3070
51.05266399999991,15.029143999999986,3011
51.05266399999991,13.733143999999989,2978
50.40466399999991,13.085143999999987,2987
49.10866399999992,7.90114399999999,2948
48.78466399999992,7.90114399999999,2960
50.40466399999991,7.90114399999999,2904
50.08066399999991,7.90114399999999,2924
49.75666399999992,7.90114399999999,2933
49.43266399999992,7.90114399999999,2945
49.75666399999992,8.54914399999999,2931
49.43266399999992,8.54914399999999,2940
49.43266399999992,9.197143999999987,2958
49.10866399999992,9.197143999999987,2953
47.48866399999993,7.90114399999999,3029
47.81266399999993,7.90114399999999,2988
48.136663999999925,7.90114399999999,2984
48.136663999999925,9.845143999999989,3004
47.81266399999993,9.197143999999987,3025
47.81266399999993,8.54914399999999,3014
47.81266399999993,9.845143999999989,3024
54.940663999999884,9.197143999999987,2612
54.616663999999886,9.197143999999987,2673
54.29266399999989,9.197143999999987,2685
53.96866399999989,9.197143999999987,2697
53.64466399999989,9.197143999999987,2709
54.616663999999886,9.845143999999989,2701
54.29266399999989,9.845143999999989,2710
53.96866399999989,9.845143999999989,2730
53.64466399999989,10.493143999999988,2733
53.96866399999989,10.493143999999988,2736
53.96866399999989,11.141143999999988,2783
54.29266399999989,10.493143999999988,2718
53.32066399999989,10.493143999999988,2770
54.940663999999884,11.141143999999988,2810
52.6726639999999,13.733143999999989,2927
52.3486639999999,13.733143999999989,2929
52.3486639999999,14.381143999999988,2947
52.0246639999999,14.381143999999988,2960
52.0246639999999,11.789143999999988,2895
52.3486639999999,11.789143999999988,2889
52.3486639999999,12.437143999999988,2918
52.0246639999999,15.029143999999986,2983
51.700663999999904,14.381143999999988,2977
52.0246639999999,13.733143999999989,2954
51.700663999999904,13.733143999999989,2980
52.6726639999999,12.437143999999988,2924
53.32066399999989,11.789143999999988,2840
53.96866399999989,11.789143999999988,2836
53.64466399999989,11.789143999999988,2816
53.64466399999989,11.141143999999988,2807
53.32066399999989,11.141143999999988,2828
52.996663999999896,11.789143999999988,2880
52.996663999999896,12.437143999999988,2907
52.996663999999896,13.733143999999989,2940
53.64466399999989,13.733143999999989,2986
53.96866399999989,13.733143999999989,3027
54.29266399999989,13.085143999999987,2942
53.96866399999989,13.085143999999987,2939
53.32066399999989,13.733143999999989,2987
52.0246639999999,13.085143999999987,2951
51.700663999999904,13.085143999999987,2986
52.996663999999896,14.381143999999988,3042
52.0246639999999,12.437143999999988,2933
51.700663999999904,12.437143999999988,2928
51.37666399999991,11.789143999999988,2914
51.37666399999991,12.437143999999988,2930
52.6726639999999,11.789143999999988,2870
53.64466399999989,13.085143999999987,2923
53.32066399999989,13.085143999999987,2982
52.996663999999896,13.085143999999987,2958
53.64466399999989,12.437143999999988,2862
51.37666399999991,13.733143999999989,2965
53.32066399999989,12.437143999999988,2936
52.6726639999999,14.381143999999988,2940
51.37666399999991,13.085143999999987,2963
53.32066399999989,14.381143999999988,3029
52.3486639999999,15.029143999999986,3001
52.0246639999999,15.677143999999986,3008
51.700663999999904,15.029143999999986,3005
51.05266399999991,16.325143999999987,3157
51.05266399999991,16.973143999999984,3181
51.700663999999904,15.677143999999986,3100
51.37666399999991,15.677143999999986,3112
51.37666399999991,16.325143999999987,3148
50.72866399999991,13.085143999999987,2965
50.72866399999991,12.437143999999988,2950
51.05266399999991,13.085143999999987,2952
51.05266399999991,14.381143999999988,2981
50.40466399999991,12.437143999999988,2970
50.40466399999991,11.789143999999988,2975
50.08066399999991,12.437143999999988,3022
50.72866399999991,11.789143999999988,2978
51.05266399999991,12.437143999999988,2939
50.72866399999991,14.381143999999988,3114
51.37666399999991,14.381143999999988,3014
50.72866399999991,13.733143999999989,2997
50.40466399999991,14.381143999999988,3099
51.37666399999991,15.029143999999986,3045
55.26466399999988,9.197143999999987,3528
55.58866399999988,8.54914399999999,3562
55.91266399999988,8.54914399999999,7039
56.23666399999988,9.197143999999987,7047
56.23666399999988,10.493143999999988,7000
56.23666399999988,9.845143999999989,6987
55.91266399999988,9.845143999999989,6925
56.56066399999988,9.197143999999987,7057
56.56066399999988,8.54914399999999,7100
51.05266399999991,6.60514399999999,2874
51.700663999999904,7.90114399999999,2865
50.72866399999991,6.60514399999999,2887
51.700663999999904,7.25314399999999,2876
50.72866399999991,7.25314399999999,2893
52.0246639999999,7.25314399999999,2862
52.3486639999999,7.90114399999999,2818
51.05266399999991,5.957143999999991,2884
50.40466399999991,7.25314399999999,2899
51.700663999999904,6.60514399999999,2887
51.700663999999904,5.957143999999991,2888
52.3486639999999,9.197143999999987,2821
51.700663999999904,8.54914399999999,2861
52.0246639999999,8.54914399999999,2840
52.3486639999999,8.54914399999999,2833
51.37666399999991,7.90114399999999,2874
52.3486639999999,7.25314399999999,2841
51.37666399999991,5.957143999999991,2921
50.72866399999991,7.90114399999999,2912
51.37666399999991,9.197143999999987,2856
51.700663999999904,9.197143999999987,2833
50.40466399999991,6.60514399999999,3732
51.05266399999991,7.90114399999999,2894
51.37666399999991,8.54914399999999,2875
52.0246639999999,5.957143999999991,2931
52.3486639999999,6.60514399999999,2876
51.05266399999991,8.54914399999999,2903
52.0246639999999,9.197143999999987,2822
52.6726639999999,9.197143999999987,2813
52.0246639999999,9.845143999999989,2828
51.700663999999904,9.845143999999989,2836
51.37666399999991,9.845143999999989,2869
50.72866399999991,8.54914399999999,2907
51.05266399999991,9.845143999999989,2991
50.72866399999991,9.845143999999989,2956
50.40466399999991,9.845143999999989,2970
51.05266399999991,9.197143999999987,2893
50.40466399999991,9.197143999999987,2938
50.08066399999991,9.197143999999987,2928
51.05266399999991,10.493143999999988,3687
50.40466399999991,8.54914399999999,2914
50.72866399999991,9.197143999999987,2900
49.75666399999992,9.197143999999987,2945
52.996663999999896,9.197143999999987,2753
52.3486639999999,9.845143999999989,2815
52.996663999999896,8.54914399999999,2761
52.996663999999896,7.90114399999999,2789
53.32066399999989,7.90114399999999,2807
53.32066399999989,7.25314399999999,2893
53.64466399999989,7.25314399999999,2938
52.996663999999896,10.493143999999988,2783
52.6726639999999,10.493143999999988,2793
52.6726639999999,9.845143999999989,2803
53.32066399999989,9.845143999999989,2732
53.32066399999989,9.197143999999987,2746
53.64466399999989,8.54914399999999,2742
53.32066399999989,8.54914399999999,2749
52.6726639999999,8.54914399999999,2771
52.0246639999999,10.493143999999988,2853
52.0246639999999,11.141143999999988,2921
51.700663999999904,11.141143999999988,2920
52.6726639999999,7.25314399999999,3740
52.996663999999896,7.25314399999999,3759
52.6726639999999,7.90114399999999,2801
53.64466399999989,7.90114399999999,2831
52.996663999999896,11.141143999999988,2801
52.6726639999999,11.141143999999988,2865
52.3486639999999,10.493143999999988,2858
52.996663999999896,9.845143999999989,2794
51.700663999999904,10.493143999999988,2898
51.37666399999991,10.493143999999988,4338
51.700663999999904,11.789143999999988,2901
52.3486639999999,11.141143999999988,2909
51.37666399999991,11.141143999999988,2979
51.05266399999991,11.789143999999988,2931
49.10866399999992,11.141143999999988,3006
48.78466399999992,11.141143999999988,3011
48.46066399999992,11.789143999999988,3027
49.43266399999992,11.789143999999988,3040
50.08066399999991,11.789143999999988,3005
49.75666399999992,12.437143999999988,3017
49.10866399999992,11.789143999999988,3068
48.78466399999992,12.437143999999988,3084
48.46066399999992,12.437143999999988,3072
49.10866399999992,12.437143999999988,3072
48.78466399999992,13.085143999999987,3111
48.136663999999925,12.437143999999988,3162
47.81266399999993,11.789143999999988,3076
48.136663999999925,10.493143999999988,3046
47.81266399999993,10.493143999999988,3079
48.78466399999992,10.493143999999988,2984
47.48866399999993,10.493143999999988,3063
48.46066399999992,10.493143999999988,3009
49.43266399999992,13.085143999999987,3218
48.46066399999992,13.085143999999987,3131
49.43266399999992,10.493143999999988,3012
49.75666399999992,9.845143999999989,2978
49.75666399999992,10.493143999999988,3006
50.40466399999991,11.141143999999988,3011
50.08066399999991,11.141143999999988,3045
50.72866399999991,11.141143999999988,3713
49.75666399999992,11.141143999999988,3016
48.78466399999992,11.789143999999988,3133
50.40466399999991,10.493143999999988,2983
50.08066399999991,9.845143999999989,2975
50.08066399999991,10.493143999999988,3037
49.43266399999992,12.437143999999988,3064
49.75666399999992,11.789143999999988,3023
49.10866399999992,13.085143999999987,3153
50.72866399999991,10.493143999999988,3699
49.10866399999992,10.493143999999988,3027
48.78466399999992,9.845143999999989,2965
48.46066399999992,8.54914399999999,2968
48.46066399999992,9.197143999999987,2965
48.78466399999992,9.197143999999987,2961
48.78466399999992,8.54914399999999,2960
50.08066399999991,7.25314399999999,2930
49.75666399999992,6.60514399999999,2957
49.43266399999992,6.60514399999999,2963
49.10866399999992,6.60514399999999,2971
49.43266399999992,7.25314399999999,2946
49.75666399999992,7.25314399999999,2943
49.10866399999992,5.957143999999991,2939
48.78466399999992,7.25314399999999,2977
50.08066399999991,6.60514399999999,2954
47.48866399999993,9.197143999999987,3028
48.136663999999925,8.54914399999999,2982
48.136663999999925,9.197143999999987,2985
47.81266399999993,7.25314399999999,3011
49.43266399999992,9.845143999999989,2984
49.10866399999992,9.845143999999989,2960
53.64466399999989,14.381143999999988,3023
50.08066399999991,13.085143999999987,3178
49.75666399999992,13.085143999999987,3215
45.86866399999994,9.197143999999987,3118
46.19266399999994,9.197143999999987,3104
46.516663999999935,8.54914399999999,3057
46.516663999999935,9.197143999999987,3099
46.19266399999994,8.54914399999999,3101
47.16466399999993,8.54914399999999,3024
45.86866399999994,4.661143999999991,3120
46.84066399999993,9.845143999999989,3042
45.22066399999994,5.957143999999991,3172
45.22066399999994,5.309143999999991,3176
45.86866399999994,5.957143999999991,3120
45.54466399999994,5.957143999999991,3143
44.89666399999994,4.661143999999991,3144
44.89666399999994,5.309143999999991,3180
44.572663999999946,4.661143999999991,3235
44.24866399999995,4.661143999999991,3202
43.92466399999995,4.661143999999991,3183
46.19266399999994,7.25314399999999,3066
48.78466399999992,5.957143999999991,2945
48.136663999999925,6.60514399999999,2983
48.46066399999992,6.60514399999999,2971
48.78466399999992,6.60514399999999,2975
47.16466399999993,7.90114399999999,3031
48.136663999999925,7.25314399999999,2993
48.46066399999992,7.25314399999999,2984
46.516663999999935,6.60514399999999,3056
46.84066399999993,6.60514399999999,3048
46.84066399999993,7.25314399999999,3044
46.516663999999935,5.957143999999991,3075
46.19266399999994,5.957143999999991,3090
46.84066399999993,8.54914399999999,3036
46.84066399999993,7.90114399999999,3040
45.86866399999994,5.309143999999991,3151
46.19266399999994,6.60514399999999,3064
45.86866399999994,6.60514399999999,3073
47.48866399999993,6.60514399999999,3059
47.48866399999993,7.25314399999999,3029
47.16466399999993,7.25314399999999,3038
49.10866399999992,4.013143999999992,3065
49.75666399999992,4.661143999999991,2997
49.43266399999992,4.661143999999991,3060
49.10866399999992,5.309143999999991,3019
46.19266399999994,4.661143999999991,3142
46.84066399999993,9.197143999999987,3050
46.19266399999994,5.309143999999991,3128
46.516663999999935,5.309143999999991,3119
45.54466399999994,6.60514399999999,3216
45.54466399999994,5.309143999999991,3139
43.60066399999995,4.013143999999992,3222
43.60066399999995,3.365143999999992,3258
42.62866399999996,2.717143999999992,3325
43.276663999999954,2.717143999999992,3289
45.54466399999994,4.661143999999991,3126
45.22066399999994,4.661143999999991,3160
47.16466399999993,5.309143999999991,3117
47.16466399999993,5.957143999999991,3096
46.19266399999994,7.90114399999999,3060
49.75666399999992,2.717143999999992,3069
49.10866399999992,2.717143999999992,2993
48.78466399999992,2.717143999999992,3007
45.86866399999994,3.365143999999992,3234
46.84066399999993,3.365143999999992,3232
46.516663999999935,3.365143999999992,3221
46.19266399999994,3.365143999999992,3209
47.16466399999993,6.60514399999999,3068
49.10866399999992,3.365143999999992,3023
45.54466399999994,4.013143999999992,3156
46.516663999999935,7.25314399999999,3071
47.16466399999993,4.661143999999991,3150
46.84066399999993,4.661143999999991,3177
46.516663999999935,4.661143999999991,3201
46.84066399999993,5.957143999999991,3093
47.81266399999993,3.365143999999992,3108
47.48866399999993,4.013143999999992,3167
48.136663999999925,4.013143999999992,3130
47.81266399999993,4.013143999999992,3142
47.48866399999993,4.661143999999991,3164
47.16466399999993,3.365143999999992,3246
46.84066399999993,4.013143999999992,3200
48.46066399999992,5.957143999999991,2979
46.19266399999994,2.717143999999992,3324
47.16466399999993,2.0691439999999925,3190
46.516663999999935,2.717143999999992,3386
46.84066399999993,2.717143999999992,3367
46.84066399999993,2.0691439999999925,3274
47.16466399999993,2.717143999999992,3203
44.572663999999946,5.309143999999991,3225
44.572663999999946,5.957143999999991,3288
44.89666399999994,6.60514399999999,3207
44.572663999999946,6.60514399999999,3285
43.60066399999995,5.309143999999991,3222
43.92466399999995,7.25314399999999,3304
43.60066399999995,6.60514399999999,3292
43.276663999999954,6.60514399999999,3300
43.276663999999954,5.957143999999991,3226
45.86866399999994,8.54914399999999,3125
45.54466399999994,8.54914399999999,3132
48.136663999999925,3.365143999999992,3090
48.46066399999992,3.365143999999992,3112
48.46066399999992,2.717143999999992,3071
47.48866399999993,5.309143999999991,3156
46.516663999999935,9.845143999999989,3053
46.84066399999993,10.493143999999988,3073
47.81266399999993,5.309143999999991,3263
45.22066399999994,6.60514399999999,3201
46.19266399999994,4.013143999999992,3164
45.86866399999994,4.013143999999992,3173
45.22066399999994,4.013143999999992,3197
44.89666399999994,4.013143999999992,3264
46.84066399999993,5.309143999999991,3141
48.136663999999925,-1.8188560000000056,3127
48.136663999999925,0.1251439999999934,3090
48.136663999999925,-0.5228560000000062,3172
47.48866399999993,-0.5228560000000062,3126
47.16466399999993,-1.8188560000000056,3167
47.48866399999993,0.7731439999999932,3100
47.16466399999993,0.1251439999999934,3178
45.86866399999994,7.25314399999999,3079
48.136663999999925,5.309143999999991,3212
49.10866399999992,4.661143999999991,3109
48.46066399999992,4.013143999999992,3170
48.136663999999925,4.661143999999991,3208
47.81266399999993,6.60514399999999,3031
47.48866399999993,5.957143999999991,3201
48.136663999999925,5.957143999999991,3550
45.86866399999994,7.90114399999999,3074
46.516663999999935,7.90114399999999,3049
49.43266399999992,3.365143999999992,3040
49.43266399999992,4.013143999999992,3080
48.136663999999925,2.717143999999992,3310
47.81266399999993,2.717143999999992,3303
47.48866399999993,2.717143999999992,3235
50.40466399999991,2.717143999999992,2943
48.46066399999992,-4.410856000000004,3243
48.46066399999992,-3.7628560000000046,3230
48.46066399999992,-3.114856000000005,3215
48.46066399999992,-2.4668560000000053,3185
47.48866399999993,1.4211439999999929,3155
47.16466399999993,1.4211439999999929,3167
46.516663999999935,4.013143999999992,3205
43.60066399999995,4.661143999999991,3209
44.89666399999994,2.717143999999992,3421
45.22066399999994,2.717143999999992,3474
45.54466399999994,3.365143999999992,3287
45.22066399999994,3.365143999999992,3330
47.48866399999993,3.365143999999992,3164
46.19266399999994,9.845143999999989,3121
47.81266399999993,2.0691439999999925,3165
47.48866399999993,2.0691439999999925,3202
45.86866399999994,2.717143999999992,3254
44.89666399999994,5.957143999999991,3214
45.22066399999994,1.4211439999999929,3269
44.89666399999994,1.4211439999999929,3289
44.89666399999994,2.0691439999999925,3372
43.276663999999954,2.0691439999999925,3333
43.60066399999995,1.4211439999999929,3331
48.78466399999992,4.661143999999991,3092
48.78466399999992,5.309143999999991,3011
46.19266399999994,2.0691439999999925,3398
45.86866399999994,1.4211439999999929,3280
46.19266399999994,1.4211439999999929,3330
44.572663999999946,4.013143999999992,3343
44.89666399999994,3.365143999999992,3431
43.92466399999995,4.013143999999992,3210
44.24866399999995,4.013143999999992,3237
44.89666399999994,-0.5228560000000062,3194
45.54466399999994,0.1251439999999934,3236
46.516663999999935,0.1251439999999934,3210
44.572663999999946,2.0691439999999925,3338
49.75666399999992,4.013143999999992,2978
43.92466399999995,3.365143999999992,3609
43.92466399999995,2.717143999999992,3640
44.24866399999995,3.365143999999992,3664
44.572663999999946,3.365143999999992,3657
49.10866399999992,0.1251439999999934,3136
49.43266399999992,0.7731439999999932,3117
49.43266399999992,-1.8188560000000056,3199
49.10866399999992,-1.170856000000006,3173
49.10866399999992,-0.5228560000000062,3149
49.10866399999992,0.7731439999999932,3121
49.10866399999992,1.4211439999999929,3092
47.81266399999993,-1.8188560000000056,3181
47.81266399999993,-2.4668560000000053,3207
47.81266399999993,-3.114856000000005,3220
48.136663999999925,-3.7628560000000046,3281
44.572663999999946,9.197143999999987,3236
44.89666399999994,8.54914399999999,3182
45.22066399999994,9.197143999999987,3139
45.54466399999994,10.493143999999988,3187
44.572663999999946,10.493143999999988,3238
44.89666399999994,10.493143999999988,3224
44.89666399999994,9.845143999999989,3192
48.46066399999992,5.309143999999991,3200
50.91599999999999,-1.0580000000000025,65535
51.23999999999999,-0.4100000000000028,65535
50.91599999999999,-0.4100000000000028,65535
51.23999999999999,-2.354000000000002,65535
51.56399999999999,-2.354000000000002,65535
51.56399999999999,-3.0020000000000016,65535
50.91599999999999,-2.354000000000002,65535
53.50799999999997,-3.0020000000000016,65535
53.183999999999976,-2.354000000000002,65535
53.183999999999976,-3.0020000000000016,65535
52.85999999999998,-2.354000000000002,65535
52.21199999999998,-1.0580000000000025,65535
51.887999999999984,-1.0580000000000025,65535
52.53599999999998,-1.0580000000000025,65535
52.53599999999998,-1.7060000000000022,65535
52.85999999999998,-1.7060000000000022,65535
53.50799999999997,-2.354000000000002,65535
52.85999999999998,-1.0580000000000025,65535
52.53599999999998,1.5339999999999965,65535
52.53599999999998,0.8859999999999966,65535
52.53599999999998,0.2379999999999968,65535
52.53599999999998,-0.4100000000000028,65535
53.50799999999997,-1.7060000000000022,65535
53.183999999999976,-1.7060000000000022,65535
53.183999999999976,-1.0580000000000025,65535
52.85999999999998,-0.4100000000000028,65535
51.887999999999984,-2.354000000000002,65535
52.21199999999998,-2.354000000000002,65535
55.77599999999996,-2.354000000000002,65535
53.83199999999997,-1.0580000000000025,65535
53.83199999999997,-1.7060000000000022,65535
55.127999999999965,-1.7060000000000022,65535
54.80399999999997,-1.7060000000000022,65535
54.47999999999997,-1.7060000000000022,65535
54.15599999999997,-1.0580000000000025,65535
52.21199999999998,-1.7060000000000022,65535
53.50799999999997,-1.0580000000000025,65535
55.77599999999996,-3.0020000000000016,65535
55.45199999999996,-1.7060000000000022,65535
57.07199999999995,-2.354000000000002,65535
56.74799999999996,-3.0020000000000016,65535
56.42399999999996,-3.0020000000000016,65535
56.09999999999996,-3.650000000000001,65535
50.91599999999999,-3.0020000000000016,65535
50.91599999999999,-3.650000000000001,65535
50.59199999999999,-3.650000000000001,65535
50.59199999999999,-4.298000000000001,65535
51.23999999999999,-3.0020000000000016,65535
50.268,-4.946000000000001,65535
55.77599999999996,-3.650000000000001,65535
55.77599999999996,-4.298000000000001,65535
52.21199999999998,-0.4100000000000028,65535
52.53599999999998,-2.354000000000002,65535
51.56399999999999,-1.7060000000000022,65535
51.56399999999999,-3.650000000000001,65535
51.887999999999984,-4.298000000000001,65535
51.56399999999999,-4.298000000000001,65535
51.887999999999984,-1.7060000000000022,65535
52.21199999999998,-3.0020000000000016,65535
51.23999999999999,0.2379999999999968,65535
50.91599999999999,0.2379999999999968,65535
52.21199999999998,0.2379999999999968,65535
53.83199999999997,-3.0020000000000016,65535
54.15599999999997,-3.0020000000000016,65535
54.47999999999997,-3.0020000000000016,65535
55.127999999999965,-3.650000000000001,65535
54.80399999999997,-3.0020000000000016,65535
53.83199999999997,-2.354000000000002,65535
54.15599999999997,-0.4100000000000028,65535
54.47999999999997,-1.0580000000000025,65535
53.83199999999997,-0.4100000000000028,65535
53.183999999999976,-3.650000000000001,65535
53.183999999999976,-4.298000000000001,65535
52.85999999999998,-3.0020000000000016,65535
52.53599999999998,-3.0020000000000016,65535
51.887999999999984,-3.0020000000000016,65535
51.23999999999999,0.8859999999999966,65535
51.887999999999984,0.2379999999999968,65535
52.21199999999998,0.8859999999999966,65535
51.887999999999984,-4.946000000000001,65535
52.53599999999998,-3.650000000000001,65535
52.21199999999998,-4.298000000000001,65535
53.183999999999976,-0.4100000000000028,65535
51.23999999999999,-3.650000000000001,65535
51.887999999999984,-3.650000000000001,65535
52.21199999999998,-3.650000000000001,65535
51.56399999999999,0.8859999999999966,65535
51.887999999999984,0.8859999999999966,65535
52.85999999999998,0.8859999999999966,65535
53.50799999999997,-0.4100000000000028,65535
56.09999999999996,-4.298000000000001,65535
56.74799999999996,-4.946000000000001,65535
56.74799999999996,-4.298000000000001,65535
56.42399999999996,-4.946000000000001,65535
56.42399999999996,-4.298000000000001,65535
56.09999999999996,-4.946000000000001,65535
57.39599999999995,-4.298000000000001,65535
57.39599999999995,-3.0020000000000016,65535
57.39599999999995,-3.650000000000001,65535
56.42399999999996,-3.650000000000001,65535
57.07199999999995,-3.650000000000001,65535
57.07199999999995,-4.298000000000001,65535
56.74799999999996,-3.650000000000001,65535
59.15266399999986,27.34114399999998,65535
59.47666399999986,26.69314399999997,65535
59.47666399999986,26.04514399999998,65535
59.15266399999986,26.04514399999998,65535
59.15266399999986,24.74914399999998,65535
59.15266399999986,25.397143999999983,65535
59.47666399999986,25.397143999999983,65535
58.50466399999986,26.69314399999997,65535
58.82866399999986,26.69314399999997,65535
57.85666399999987,26.04514399999998,65535
58.180663999999865,26.04514399999998,65535
58.180663999999865,26.69314399999997,65535
58.82866399999986,26.04514399999998,65535
58.50466399999986,25.397143999999983,65535
58.82866399999986,25.397143999999983,65535
58.82866399999986,24.74914399999998,65535
58.180663999999865,27.34114399999998,65535
57.85666399999987,27.34114399999998,65535
63.68866399999983,27.34114399999998,7557
60.124663999999854,24.74914399999998,4213
60.44866399999985,24.74914399999998,4182
60.44866399999985,25.397143999999983,4194
60.77266399999985,25.397143999999983,4905
61.09666399999985,26.04514399999998,4948
60.77266399999985,26.04514399999998,4956
60.77266399999985,26.69314399999997,4975
61.09666399999985,25.397143999999983,4939
61.09666399999985,26.69314399999997,7678
61.420663999999846,26.69314399999997,7700
61.74466399999984,27.34114399999998,7724
62.06866399999984,27.34114399999998,7749
62.39266399999984,27.34114399999998,7773
62.71666399999984,27.34114399999998,7737
64.01266399999983,27.34114399999998,7513
63.36466399999984,27.34114399999998,7625
63.04066399999984,27.34114399999998,7665
63.04066399999984,27.989143999999985,7680
64.33666399999983,27.989143999999985,5264
64.33666399999983,27.34114399999998,5209
64.66066399999983,27.34114399999998,5194
64.66066399999983,26.69314399999997,5139
64.98466399999982,25.397143999999983,3559
64.66066399999983,26.04514399999998,5120
64.98466399999982,26.04514399999998,5104
66.28066399999982,25.397143999999983,3731
65.95666399999982,24.74914399999998,3472
65.63266399999982,24.74914399999998,3476
65.63266399999982,25.397143999999983,3518
65.30866399999982,25.397143999999983,3539
66.60466399999981,25.397143999999983,3765
64.01266399999983,24.74914399999998,3696
64.01266399999983,24.101143999999977,3731
64.01266399999983,23.45314399999998,3755
63.68866399999983,23.45314399999998,3767
63.68866399999983,22.805143999999984,3792
63.68866399999983,26.04514399999998,5824
63.68866399999983,25.397143999999983,5790
63.68866399999983,26.69314399999997,7524
60.44866399999985,26.69314399999997,8309
64.01266399999983,27.989143999999985,7943
62.71666399999984,22.805143999999984,3914
62.39266399999984,22.805143999999984,3946
62.06866399999984,22.805143999999984,3975
62.06866399999984,23.45314399999998,3991
61.74466399999984,23.45314399999998,4003
61.420663999999846,23.45314399999998,4051
61.09666399999985,23.45314399999998,4092
61.09666399999985,24.101143999999977,4099
61.09666399999985,24.74914399999998,4133
60.77266399999985,24.74914399999998,4149
63.04066399999984,21.50914399999997,65535
63.04066399999984,22.15714399999998,65535
63.04066399999984,22.805143999999984,3878
62.39266399999984,26.04514399999998,7921
62.06866399999984,25.397143999999983,7970
61.74466399999984,25.397143999999983,8038
61.74466399999984,24.74914399999998,8075
61.74466399999984,24.101143999999977,4280
61.420663999999846,24.101143999999977,4235
62.39266399999984,26.69314399999997,7892
64.66066399999983,25.397143999999983,3628
64.66066399999983,24.74914399999998,3646
64.33666399999983,24.74914399999998,3657
63.36466399999984,22.805143999999984,3817
67.25266399999981,24.101143999999977,7345
66.92866399999981,24.101143999999977,7309
66.60466399999981,23.45314399999998,7278
66.28066399999982,23.45314399999998,7260
66.28066399999982,24.101143999999977,7242
65.95666399999982,24.101143999999977,2844
60.124663999999854,24.101143999999977,5727
60.124663999999854,23.45314399999998,6585
60.44866399999985,22.805143999999984,6644
60.77266399999985,27.34114399999998,5027
61.09666399999985,27.989143999999985,5057
61.09666399999985,28.63714399999997,5095
61.420663999999846,29.28514399999997,5130
61.74466399999984,29.933143999999977,5167
62.06866399999984,29.933143999999977,5193
62.39266399999984,29.933143999999977,5209
62.71666399999984,29.933143999999977,5233
61.420663999999846,22.805143999999984,6338
61.420663999999846,22.15714399999998,7046
61.09666399999985,22.15714399999998,6384
61.420663999999846,21.50914399999997,7179
62.39266399999984,27.989143999999985,65535
62.06866399999984,27.989143999999985,65535
61.420663999999846,27.34114399999998,65535
63.04066399999984,29.933143999999977,7172
63.68866399999983,29.28514399999997,8955
63.36466399999984,29.28514399999997,8935
63.36466399999984,29.933143999999977,8894
60.44866399999985,27.34114399999998,65535
61.74466399999984,29.28514399999997,65535
62.39266399999984,30.58114399999998,65535
62.71666399999984,31.229143999999977,65535
62.71666399999984,29.28514399999997,65535
63.04066399999984,28.63714399999997,65535
66.60466399999981,26.04514399999998,6586
66.60466399999981,26.69314399999997,6622
66.60466399999981,27.34114399999998,6645
62.71666399999984,26.04514399999998,7806
62.71666399999984,25.397143999999983,7775
63.04066399999984,25.397143999999983,7595
63.36466399999984,25.397143999999983,6232
62.71666399999984,23.45314399999998,7800
62.39266399999984,24.101143999999977,65535
62.71666399999984,22.15714399999998,65535
62.39266399999984,22.15714399999998,65535
62.39266399999984,21.50914399999997,65535
61.09666399999985,21.50914399999997,6414
60.77266399999985,22.805143999999984,4452
60.44866399999985,22.15714399999998,4482
60.77266399999985,23.45314399999998,4439
60.77266399999985,21.50914399999997,5553
60.77266399999985,22.15714399999998,5506
60.124663999999854,22.805143999999984,8599
60.44866399999985,24.101143999999977,5712
62.06866399999984,24.74914399999998,65535
50.72866399999991,16.325143999999987,3097
50.40466399999991,16.973143999999984,3198
50.72866399999991,16.973143999999984,3169
50.40466399999991,16.325143999999987,3222
50.08066399999991,16.973143999999984,3320
50.08066399999991,16.325143999999987,3153
51.700663999999904,16.973143999999984,3173
51.37666399999991,16.973143999999984,3179
51.05266399999991,15.677143999999986,3022
50.72866399999991,15.677143999999986,3087
51.05266399999991,17.621143999999987,3193
51.37666399999991,17.621143999999987,3244
51.700663999999904,17.621143999999987,3223
51.700663999999904,16.325143999999987,3159
52.0246639999999,22.15714399999998,3477
52.0246639999999,21.50914399999997,3472
52.3486639999999,21.50914399999997,3474
52.0246639999999,20.86114399999998,3447
51.700663999999904,20.86114399999998,3465
51.37666399999991,21.50914399999997,3483
51.37666399999991,20.86114399999998,3499
51.05266399999991,20.86114399999998,3508
52.6726639999999,23.45314399999998,3549
52.3486639999999,22.805143999999984,3487
52.3486639999999,20.213143999999986,3439
52.0246639999999,20.213143999999986,3408
52.3486639999999,19.565143999999982,3364
52.6726639999999,19.565143999999982,3447
51.700663999999904,21.50914399999997,3477
51.700663999999904,22.15714399999998,3511
52.6726639999999,21.50914399999997,3483
52.996663999999896,21.50914399999997,3510
52.6726639999999,20.86114399999998,3505
52.6726639999999,22.15714399999998,3541
52.6726639999999,20.213143999999986,3506
52.996663999999896,19.565143999999982,3499
52.996663999999896,20.86114399999998,3538
52.996663999999896,20.213143999999986,3542
53.32066399999989,20.213143999999986,3454
51.37666399999991,20.213143999999986,3494
52.3486639999999,16.973143999999984,3196
52.0246639999999,16.973143999999984,3200
52.0246639999999,16.325143999999987,3173
52.0246639999999,17.621143999999987,3250
52.6726639999999,16.973143999999984,3190
52.996663999999896,16.973143999999984,3156
52.3486639999999,16.325143999999987,3160
52.3486639999999,15.677143999999986,3033
51.700663999999904,18.269143999999983,3283
52.6726639999999,17.621143999999987,3220
52.3486639999999,17.621143999999987,3206
52.6726639999999,18.269143999999983,3294
52.3486639999999,18.269143999999983,3277
52.3486639999999,18.917143999999983,3324
52.996663999999896,17.621143999999987,3318
51.700663999999904,19.565143999999982,3364
51.700663999999904,18.917143999999983,3331
51.37666399999991,18.269143999999983,3286
58.82866399999986,9.197143999999987,796
58.180663999999865,7.90114399999999,898
58.50466399999986,8.54914399999999,853
63.36466399999984,10.493143999999988,1334
63.36466399999984,11.141143999999988,1370
63.36466399999984,11.789143999999988,1473
63.68866399999983,11.789143999999988,1430
64.33666399999983,12.437143999999988,1584
64.66066399999983,12.437143999999988,1633
65.63266399999982,13.085143999999987,1728
65.95666399999982,13.085143999999987,1757
66.28066399999982,14.381143999999988,1828
65.95666399999982,13.733143999999989,1785
66.28066399999982,13.733143999999989,1807
65.30866399999982,13.085143999999987,1693
64.98466399999982,13.085143999999987,1671
64.01266399999983,11.789143999999988,1461
63.68866399999983,11.141143999999988,1399
59.800663999999855,10.493143999999988,680
59.800663999999855,11.141143999999988,690
60.124663999999854,11.141143999999988,690
60.44866399999985,11.141143999999988,715
60.124663999999854,11.789143999999988,728
60.77266399999985,7.25314399999999,153
60.77266399999985,6.60514399999999,89
59.15266399999986,9.197143999999987,770
59.47666399999986,9.197143999999987,739
59.800663999999855,9.845143999999989,706
59.47666399999986,11.141143999999988,718
61.09666399999985,10.493143999999988,821
60.77266399999985,10.493143999999988,759
60.77266399999985,11.141143999999988,750
62.06866399999984,9.197143999999987,932
61.74466399999984,9.845143999999989,888
61.420663999999846,9.845143999999989,873
59.15266399999986,9.845143999999989,770
59.47666399999986,9.845143999999989,746
58.82866399999986,5.957143999999991,1365
58.180663999999865,7.25314399999999,1215
58.50466399999986,7.25314399999999,1252
58.50466399999986,6.60514399999999,1258
58.50466399999986,5.957143999999991,1319
58.82866399999986,8.54914399999999,839
60.44866399999985,7.25314399999999,498
60.44866399999985,7.90114399999999,524
60.124663999999854,10.493143999999988,670
60.44866399999985,9.197143999999987,596
60.77266399999985,9.197143999999987,583
60.77266399999985,8.54914399999999,559
60.124663999999854,9.845143999999989,797
60.44866399999985,10.493143999999988,722
63.04066399999984,10.493143999999988,1290
62.06866399999984,9.845143999999989,1196
62.39266399999984,9.845143999999989,1204
62.71666399999984,9.845143999999989,1230
59.47666399999986,14.381143999999988,1316
59.47666399999986,13.733143999999989,849
59.47666399999986,13.085143999999987,811
59.800663999999855,12.437143999999988,778
59.15266399999986,11.141143999999988,732
59.15266399999986,14.381143999999988,1363
58.82866399999986,11.789143999999988,1300
58.50466399999986,12.437143999999988,968
58.180663999999865,12.437143999999988,974
57.85666399999987,11.789143999999988,1005
62.71666399999984,7.90114399999999,1768
62.39266399999984,7.90114399999999,1725
62.06866399999984,8.54914399999999,1700
60.44866399999985,5.309143999999991,67
60.44866399999985,5.957143999999991,0
60.77266399999985,5.957143999999991,68
62.39266399999984,11.141143999999988,1471
62.06866399999984,10.493143999999988,1508
61.74466399999984,11.141143999999988,1545
61.420663999999846,11.141143999999988,1513
61.09666399999985,11.141143999999988,1496
60.77266399999985,11.789143999999988,1473
63.04066399999984,11.141143999999988,1400
62.71666399999984,11.141143999999988,1422
62.39266399999984,10.493143999999988,1499
67.25266399999981,15.677143999999986,1943
67.25266399999981,15.029143999999986,1988
67.25266399999981,14.381143999999988,2016
66.92866399999981,15.029143999999986,1933
66.60466399999981,15.677143999999986,1911
64.01266399999983,11.141143999999988,1445
66.60466399999981,15.029143999999986,2073
54.29266399999989,18.269143999999983,3390
54.616663999999886,17.621143999999987,3348
53.96866399999989,18.269143999999983,3378
43.92466399999995,1.4211439999999929,3302
44.24866399999995,0.7731439999999932,3263
44.572663999999946,0.1251439999999934,3248
46.84066399999993,1.4211439999999929,3298
44.572663999999946,1.4211439999999929,3331
44.24866399999995,1.4211439999999929,3343
45.54466399999994,1.4211439999999929,3264
46.516663999999935,1.4211439999999929,3431
42.30466399999996,2.717143999999992,3356
44.24866399999995,2.717143999999992,3428
44.572663999999946,2.717143999999992,3403
43.92466399999995,2.0691439999999925,3436
42.30466399999996,2.0691439999999925,3387
42.62866399999996,2.0691439999999925,3353
42.62866399999996,1.4211439999999929,3390
42.95266399999996,1.4211439999999929,3352
43.276663999999954,1.4211439999999929,3345
46.516663999999935,-1.170856000000006,3385
46.19266399999994,-1.170856000000006,3305
45.86866399999994,-0.5228560000000062,3280
45.54466399999994,-0.5228560000000062,3236
48.46066399999992,1.4211439999999929,3055
41.332663999999966,2.0691439999999925,3414
41.98066399999996,2.717143999999992,3373
48.46066399999992,-1.8188560000000056,3160
47.81266399999993,0.7731439999999932,3163
46.84066399999993,0.7731439999999932,3178
44.572663999999946,-1.170856000000006,3205
43.60066399999995,-1.170856000000006,3328
43.276663999999954,-1.8188560000000056,3375
43.276663999999954,0.1251439999999934,3466
42.95266399999996,0.1251439999999934,3437
43.276663999999954,-0.5228560000000062,3400
43.60066399999995,-0.5228560000000062,3389
47.81266399999993,-3.7628560000000046,3253
47.48866399999993,-2.4668560000000053,3194
47.81266399999993,-0.5228560000000062,3169
46.516663999999935,-1.8188560000000056,3401
48.136663999999925,-1.170856000000006,3132
47.48866399999993,-1.170856000000006,3175
45.22066399999994,8.54914399999999,3154
45.22066399999994,7.90114399999999,3162
46.19266399999994,-0.5228560000000062,3264
46.516663999999935,-0.5228560000000062,3283
48.78466399999992,-3.114856000000005,3231
50.72866399999991,2.0691439999999925,2999
50.40466399999991,2.0691439999999925,2994
40.36066399999997,-3.7628560000000046,4785
41.65666399999997,-1.170856000000006,4702
41.332663999999966,1.4211439999999929,4640
43.276663999999954,13.733143999999989,65535
42.95266399999996,13.733143999999989,65535
41.65666399999997,15.029143999999986,65535
40.68466399999997,17.621143999999987,65535
43.60066399999995,13.085143999999987,6048
41.65666399999997,12.437143999999988,5846
41.65666399999997,13.085143999999987,5853
41.98066399999996,13.085143999999987,5864
41.65666399999997,13.733143999999989,5901
41.332663999999966,13.733143999999989,5930
41.332663999999966,14.381143999999988,6149
41.00866399999997,14.381143999999988,6055
41.332663999999966,13.085143999999987,5913
41.00866399999997,15.029143999999986,6255
41.98066399999996,13.733143999999989,5946
42.30466399999996,14.381143999999988,6336
42.30466399999996,12.437143999999988,5891
42.62866399999996,12.437143999999988,5899
42.95266399999996,12.437143999999988,5956
42.30466399999996,11.789143999999988,5860
42.95266399999996,11.789143999999988,6156
42.62866399999996,11.789143999999988,6147
43.276663999999954,11.789143999999988,6210
42.95266399999996,13.085143999999987,5949
42.30466399999996,13.085143999999987,9103
43.276663999999954,13.085143999999987,6001
43.276663999999954,12.437143999999988,6009
42.62866399999996,11.141143999999988,5992
42.95266399999996,11.141143999999988,6035
42.95266399999996,10.493143999999988,6053
44.572663999999946,8.54914399999999,3230
44.89666399999994,7.90114399999999,3174
44.89666399999994,9.197143999999987,3192
44.24866399999995,7.90114399999999,3240
44.572663999999946,7.90114399999999,3200
43.92466399999995,7.90114399999999,3331
44.24866399999995,7.25314399999999,3229
44.89666399999994,7.25314399999999,3198
45.22066399999994,7.25314399999999,3178
45.54466399999994,7.90114399999999,3158
44.572663999999946,7.25314399999999,3382
52.996663999999896,22.805143999999984,3640
52.996663999999896,23.45314399999998,3661
51.37666399999991,22.15714399999998,3625
51.37666399999991,22.805143999999984,3679
50.08066399999991,20.213143999999986,3386
50.72866399999991,20.213143999999986,3427
50.40466399999991,20.213143999999986,3366
50.08066399999991,20.86114399999998,3453
50.08066399999991,21.50914399999997,3484
50.08066399999991,22.15714399999998,3521
50.08066399999991,22.805143999999984,3528
53.96866399999989,22.805143999999984,4481
53.64466399999989,23.45314399999998,4269
53.32066399999989,23.45314399999998,4223
50.40466399999991,19.565143999999982,3300
50.08066399999991,18.917143999999983,3330
50.08066399999991,18.269143999999983,3370
52.0246639999999,22.805143999999984,3572
52.0246639999999,23.45314399999998,3610
51.37666399999991,19.565143999999982,3394
51.05266399999991,19.565143999999982,3313
50.72866399999991,18.917143999999983,3291
50.72866399999991,19.565143999999982,3383
49.75666399999992,18.917143999999983,3318
50.40466399999991,18.269143999999983,3278
53.64466399999989,19.565143999999982,3401
53.96866399999989,18.917143999999983,3420
53.64466399999989,18.917143999999983,3399
53.64466399999989,20.213143999999986,3449
52.996663999999896,18.917143999999983,3347
52.996663999999896,18.269143999999983,3327
53.32066399999989,18.917143999999983,3351
50.72866399999991,17.621143999999987,3227
50.72866399999991,18.269143999999983,3264
52.6726639999999,16.325143999999987,3151
52.996663999999896,16.325143999999987,3113
52.996663999999896,15.677143999999986,3070
53.32066399999989,15.677143999999986,3065
53.32066399999989,15.029143999999986,3041
53.64466399999989,15.029143999999986,3048
53.96866399999989,15.029143999999986,3033
52.6726639999999,18.917143999999983,3366
53.32066399999989,16.325143999999987,3083
52.6726639999999,15.029143999999986,3022
51.05266399999991,22.805143999999984,3709
51.05266399999991,23.45314399999998,3736
50.72866399999991,22.15714399999998,3662
50.40466399999991,22.15714399999998,3686
51.05266399999991,22.15714399999998,3676
54.616663999999886,16.973143999999984,3332
54.29266399999989,16.325143999999987,3265
53.96866399999989,15.677143999999986,3180
50.72866399999991,21.50914399999997,3651
50.40466399999991,21.50914399999997,3532
50.40466399999991,17.621143999999987,3248
53.32066399999989,22.805143999999984,4193
53.64466399999989,22.15714399999998,3598
54.29266399999989,16.973143999999984,3301
50.72866399999991,20.86114399999998,3470
51.700663999999904,22.805143999999984,3708
51.05266399999991,21.50914399999997,3535
50.08066399999991,19.565143999999982,3363
52.0246639999999,18.917143999999983,8488
52.0246639999999,19.565143999999982,8481
53.64466399999989,18.269143999999983,3372
51.700663999999904,20.213143999999986,3534
53.32066399999989,19.565143999999982,3392
50.72866399999991,23.45314399999998,4555
50.72866399999991,22.805143999999984,4524
49.43266399999992,20.213143999999986,3406
49.75666399999992,21.50914399999997,3495
49.75666399999992,22.15714399999998,3535
49.43266399999992,22.15714399999998,3547
51.05266399999991,18.917143999999983,3296
51.05266399999991,18.269143999999983,3233
53.32066399999989,16.973143999999984,3259
53.64466399999989,16.973143999999984,3278
49.75666399999992,20.86114399999998,3506
50.40466399999991,22.805143999999984,8570
53.64466399999989,16.325143999999987,3237
53.96866399999989,20.86114399999998,3553
54.29266399999989,20.86114399999998,3599
53.96866399999989,21.50914399999997,3704
53.64466399999989,15.677143999999986,3192
53.96866399999989,20.213143999999986,3481
53.96866399999989,19.565143999999982,3444
54.29266399999989,19.565143999999982,3454
53.96866399999989,16.325143999999987,3228
53.64466399999989,17.621143999999987,3324
53.96866399999989,22.15714399999998,3618
53.64466399999989,21.50914399999997,3554
53.64466399999989,20.86114399999998,3506
52.6726639999999,15.677143999999986,3071
51.05266399999991,20.213143999999986,3755
54.940663999999884,24.101143999999977,5121
54.616663999999886,23.45314399999998,5065
54.29266399999989,23.45314399999998,4928
53.64466399999989,22.805143999999984,4180
53.96866399999989,16.973143999999984,3433
50.40466399999991,20.86114399999998,4408
53.32066399999989,18.269143999999983,3345
49.75666399999992,19.565143999999982,3379
50.40466399999991,23.45314399999998,3805
49.75666399999992,20.213143999999986,3410
49.43266399999992,19.565143999999982,3369
49.43266399999992,20.86114399999998,3515
53.96866399999989,17.621143999999987,4203
42.30466399999996,-1.8188560000000056,8799
41.98066399999996,-1.8188560000000056,8782
41.65666399999997,0.7731439999999932,8786
42.62866399999996,-1.8188560000000056,8914
42.95266399999996,-1.8188560000000056,8943
42.62866399999996,-3.114856000000005,9037
42.95266399999996,-2.4668560000000053,9015
42.62866399999996,-7.650856000000003,9379
42.30466399999996,-7.650856000000003,9439
42.30466399999996,-8.946856000000002,9575
42.30466399999996,-8.298856000000002,9549
41.98066399999996,-8.298856000000002,9538
42.30466399999996,-7.002856000000003,9321
42.62866399999996,-6.354856000000003,9263
42.30466399999996,-6.354856000000003,9218
42.62866399999996,-5.706856000000004,8718
41.98066399999996,-4.410856000000004,8672
42.30466399999996,-3.7628560000000046,9063
40.03666399999997,-0.5228560000000062,8766
39.38866399999998,-0.5228560000000062,8814
41.00866399999997,0.7731439999999932,8914
40.68466399999997,0.7731439999999932,8946
40.36066399999997,0.1251439999999934,9024
39.712663999999975,-0.5228560000000062,8923
38.41666399999998,-0.5228560000000062,8935
39.06466399999998,-0.5228560000000062,9057
38.74066399999998,-1.170856000000006,8943
41.332663999999966,0.7731439999999932,8974
41.65666399999997,2.717143999999992,8574
41.65666399999997,2.0691439999999925,8597
41.332663999999966,0.1251439999999934,8932
41.332663999999966,-0.5228560000000062,8876
41.65666399999997,-4.410856000000004,8646
40.03666399999997,-2.4668560000000053,8884
41.00866399999997,-4.410856000000004,8767
43.276663999999954,-5.706856000000004,8848
39.38866399999998,-1.170856000000006,8909
38.09266399999999,-1.170856000000006,9322
38.74066399999998,-0.5228560000000062,9085
37.76866399999999,-1.170856000000006,9387
39.06466399999998,-1.8188560000000056,8907
39.38866399999998,-3.114856000000005,8807
39.38866399999998,-2.4668560000000053,8863
39.06466399999998,-2.4668560000000053,8890
39.06466399999998,-3.114856000000005,8811
39.06466399999998,-3.7628560000000046,8785
38.74066399999998,-3.7628560000000046,8864
40.03666399999997,-3.7628560000000046,8763
40.03666399999997,-3.114856000000005,8963
40.03666399999997,-1.8188560000000056,9044
39.712663999999975,-1.8188560000000056,9009
39.712663999999975,-1.170856000000006,8945
40.36066399999997,-1.170856000000006,8964
40.68466399999997,-1.170856000000006,8942
41.00866399999997,-1.170856000000006,8930
41.332663999999966,-1.170856000000006,8770
43.276663999999954,-8.298856000000002,9539
42.95266399999996,-8.298856000000002,9507
41.65666399999997,-5.706856000000004,65535
41.98066399999996,-7.002856000000003,65535
41.98066399999996,-6.354856000000003,65535
41.332663999999966,-5.058856000000004,8885
43.276663999999954,-3.7628560000000046,9320
42.95266399999996,-4.410856000000004,9254
42.62866399999996,-4.410856000000004,9244
42.30466399999996,-4.410856000000004,9203
41.00866399999997,-5.706856000000004,8823
41.332663999999966,-1.8188560000000056,8716
40.68466399999997,-3.114856000000005,8670
41.00866399999997,-3.114856000000005,8721
41.00866399999997,-2.4668560000000053,8744
41.332663999999966,-2.4668560000000053,8797
40.68466399999997,-4.410856000000004,8707
40.36066399999997,-4.410856000000004,8791
40.68466399999997,-3.7628560000000046,8699
40.36066399999997,-3.114856000000005,8677
41.65666399999997,-2.4668560000000053,8814
38.09266399999999,-3.7628560000000046,8911
38.74066399999998,-3.114856000000005,8855
37.76866399999999,-3.7628560000000046,8968
39.712663999999975,-3.114856000000005,8799
38.41666399999998,-3.7628560000000046,8876
40.03666399999997,-4.410856000000004,65535
40.03666399999997,-5.058856000000004,65535
39.38866399999998,-6.354856000000003,65535
39.38866399999998,-7.002856000000003,65535
42.95266399999996,-3.114856000000005,9448
41.98066399999996,-1.170856000000006,8811
42.30466399999996,-2.4668560000000053,8852
41.65666399999997,-0.5228560000000062,8909
41.98066399999996,-0.5228560000000062,8746
41.65666399999997,0.1251439999999934,8773
41.98066399999996,0.1251439999999934,8795
37.76866399999999,-5.058856000000004,8847
36.79666399999999,-4.410856000000004,8906
38.74066399999998,-4.410856000000004,8803
37.12066399999999,-4.410856000000004,8880
37.44466399999999,-5.058856000000004,9404
37.44466399999999,-7.002856000000003,65535
37.44466399999999,-6.354856000000003,65535
37.44466399999999,-5.706856000000004,9080
39.712663999999975,-3.7628560000000046,8873
42.62866399999996,-8.946856000000002,65535
42.30466399999996,-5.706856000000004,9225
42.30466399999996,-5.058856000000004,9310
42.95266399999996,-5.706856000000004,8750
41.00866399999997,-5.058856000000004,8791
40.68466399999997,-5.058856000000004,8765
41.65666399999997,-5.058856000000004,65535
41.65666399999997,-6.354856000000003,65535
36.79666399999999,-6.354856000000003,65535
37.12066399999999,-5.706856000000004,9248
37.76866399999999,-5.706856000000004,9047
38.09266399999999,-4.410856000000004,9182
37.12066399999999,-5.058856000000004,9202
36.79666399999999,-5.058856000000004,9160
37.76866399999999,-4.410856000000004,65535
37.76866399999999,-7.002856000000003,65535
38.41666399999998,-6.354856000000003,65535
38.09266399999999,-6.354856000000003,65535
48.78466399999992,1.4211439999999929,3121
56.23666399999988,8.54914399999999,7090
55.58866399999988,9.197143999999987,6895
55.91266399999988,9.197143999999987,7036
55.26466399999988,10.493143999999988,2517
55.91266399999988,12.437143999999988,1410
55.58866399999988,11.789143999999988,6735
55.58866399999988,11.141143999999988,6776
55.26466399999988,11.789143999999988,6768
55.58866399999988,10.493143999999988,6891
55.58866399999988,13.085143999999987,1404
56.88466399999987,9.845143999999989,7042
57.20866399999987,9.845143999999989,7077
56.56066399999988,9.845143999999989,7014
56.88466399999987,8.54914399999999,7129
54.940663999999884,9.845143999999989,8236
54.940663999999884,11.789143999999988,6992
55.91266399999988,13.085143999999987,1399
56.23666399999988,13.733143999999989,1418
55.91266399999988,13.733143999999989,1413
56.23666399999988,14.381143999999988,1434
56.23666399999988,15.029143999999986,1452
56.23666399999988,15.677143999999986,1507
56.56066399999988,14.381143999999988,1442
56.88466399999987,14.381143999999988,1424
56.23666399999988,13.085143999999987,1394
56.56066399999988,13.085143999999987,1353
56.88466399999987,12.437143999999988,1334
57.20866399999987,12.437143999999988,1281
57.53266399999987,12.437143999999988,1258
56.88466399999987,15.029143999999986,1445
56.56066399999988,15.677143999999986,1465
56.88466399999987,15.677143999999986,1483
56.88466399999987,16.325143999999987,1499
55.91266399999988,11.789143999999988,7061
57.20866399999987,10.493143999999988,7264
49.43266399999992,1.4211439999999929,3146
49.75666399999992,0.7731439999999932,3139
49.75666399999992,2.0691439999999925,3067
50.08066399999991,2.717143999999992,3043
49.75666399999992,1.4211439999999929,3120
47.81266399999993,1.4211439999999929,3195
48.136663999999925,2.0691439999999925,3225
48.46066399999992,2.0691439999999925,3271
48.136663999999925,1.4211439999999929,3173
48.78466399999992,0.1251439999999934,3172
48.46066399999992,0.1251439999999934,3170
47.81266399999993,0.1251439999999934,3133
46.84066399999993,-0.5228560000000062,3329
47.16466399999993,0.7731439999999932,3148
46.84066399999993,0.1251439999999934,3199
46.84066399999993,-1.170856000000006,3359
50.08066399999991,1.4211439999999929,3027
50.08066399999991,2.0691439999999925,3044
49.43266399999992,2.717143999999992,3072
49.75666399999992,3.365143999999992,3010
50.08066399999991,3.365143999999992,2962
49.10866399999992,2.0691439999999925,3061
49.43266399999992,2.0691439999999925,3044
48.78466399999992,0.7731439999999932,3121
48.78466399999992,-0.5228560000000062,3201
48.78466399999992,-1.170856000000006,3220
48.136663999999925,0.7731439999999932,3104
48.46066399999992,0.7731439999999932,3129
43.92466399999995,5.957143999999991,3273
44.24866399999995,5.957143999999991,3313
43.92466399999995,5.309143999999991,3221
42.95266399999996,2.717143999999992,3318
45.54466399999994,2.0691439999999925,3301
45.22066399999994,2.0691439999999925,3318
42.95266399999996,2.0691439999999925,3371
42.95266399999996,0.7731439999999932,3386
43.276663999999954,0.7731439999999932,3371
46.19266399999994,0.7731439999999932,3325
46.516663999999935,0.7731439999999932,3259
45.86866399999994,0.1251439999999934,3413
46.19266399999994,0.1251439999999934,3400
47.81266399999993,-1.170856000000006,3243
48.136663999999925,-2.4668560000000053,3186
47.48866399999993,-1.8188560000000056,3176
47.16466399999993,-1.170856000000006,3195
47.16466399999993,-0.5228560000000062,3203
46.84066399999993,-1.8188560000000056,3232
45.22066399999994,-0.5228560000000062,3206
44.89666399999994,0.1251439999999934,3199
45.22066399999994,0.7731439999999932,3223
45.54466399999994,0.7731439999999932,3233
45.86866399999994,0.7731439999999932,3398
45.22066399999994,0.1251439999999934,3212
44.89666399999994,0.7731439999999932,3236
43.92466399999995,-0.5228560000000062,3359
43.92466399999995,-1.170856000000006,3330
44.24866399999995,-1.170856000000006,3327
45.22066399999994,-1.170856000000006,3258
44.572663999999946,-0.5228560000000062,3223
44.24866399999995,0.1251439999999934,3270
44.572663999999946,0.7731439999999932,3317
43.276663999999954,-1.170856000000006,3352
42.95266399999996,-0.5228560000000062,3517
44.24866399999995,2.0691439999999925,3480
43.60066399999995,0.7731439999999932,3370
43.60066399999995,2.0691439999999925,3378
52.6726639999999,4.661143999999991,7081
52.6726639999999,5.309143999999991,7104
51.700663999999904,5.309143999999991,7049
52.0246639999999,5.309143999999991,7061
52.3486639999999,5.309143999999991,7077
51.37666399999991,4.013143999999992,7057
52.3486639999999,5.957143999999991,7071
52.0246639999999,6.60514399999999,7101
52.6726639999999,5.957143999999991,7088
52.996663999999896,5.957143999999991,7101
53.32066399999989,5.957143999999991,7095
52.996663999999896,6.60514399999999,7077
53.32066399999989,6.60514399999999,7069
52.6726639999999,6.60514399999999,7097
52.996663999999896,5.309143999999991,7116
59.15266399999986,24.101143999999977,65535
56.88466399999987,24.101143999999977,65535
56.88466399999987,23.45314399999998,65535
56.88466399999987,22.805143999999984,65535
57.20866399999987,24.74914399999998,65535
56.88466399999987,24.74914399999998,65535
56.56066399999988,24.74914399999998,65535
56.56066399999988,25.397143999999983,65535
56.56066399999988,24.101143999999977,65535
56.56066399999988,23.45314399999998,65535
56.56066399999988,26.04514399999998,65535
56.88466399999987,26.04514399999998,65535
57.20866399999987,25.397143999999983,65535
57.53266399999987,25.397143999999983,65535
56.23666399999988,26.04514399999998,65535
56.23666399999988,26.69314399999997,65535
55.91266399999988,26.69314399999997,65535
56.56066399999988,26.69314399999997,65535
56.56066399999988,27.34114399999998,65535
56.56066399999988,27.989143999999985,65535
56.23666399999988,27.989143999999985,65535
55.91266399999988,27.34114399999998,65535
56.56066399999988,22.805143999999984,65535
56.56066399999988,22.15714399999998,65535
56.56066399999988,21.50914399999997,65535
57.20866399999987,26.69314399999997,65535
39.06466399999998,-8.946856000000002,65535
38.41666399999998,-8.298856000000002,65535
45.86866399999994,11.789143999999988,4468
46.19266399999994,11.789143999999988,4455
46.19266399999994,10.493143999999988,4445
45.22066399999994,18.269143999999983,3511
45.22066399999994,18.917143999999983,3537
45.54466399999994,16.973143999999984,3416
45.22066399999994,17.621143999999987,3437
45.86866399999994,16.325143999999987,3333
45.54466399999994,18.917143999999983,3574
45.54466399999994,16.325143999999987,3374
45.54466399999994,18.269143999999983,3569
44.89666399999994,18.917143999999983,4440
46.19266399999994,16.973143999999984,3361
46.19266399999994,16.325143999999987,3348
45.86866399999994,16.973143999999984,3371
45.86866399999994,17.621143999999987,3555
46.19266399999994,15.677143999999986,3275
46.516663999999935,16.325143999999987,3333
45.54466399999994,15.677143999999986,3359
45.22066399999994,15.029143999999986,3355
45.54466399999994,15.029143999999986,3335
45.22066399999994,15.677143999999986,3422
44.572663999999946,15.677143999999986,3499
44.24866399999995,15.677143999999986,3520
43.92466399999995,16.325143999999987,3584
44.89666399999994,15.677143999999986,3463
45.54466399999994,17.621143999999987,3586
45.22066399999994,16.325143999999987,3423
46.516663999999935,16.973143999999984,3375
45.86866399999994,18.269143999999983,3595
43.92466399999995,15.677143999999986,4288
45.22066399999994,13.733143999999989,3461
47.48866399999993,19.565143999999982,3514
47.16466399999993,18.917143999999983,3513
47.81266399999993,18.917143999999983,3466
45.54466399999994,9.845143999999989,3139
45.22066399999994,9.845143999999989,3148
45.22066399999994,10.493143999999988,3198
45.86866399999994,9.845143999999989,3159
45.86866399999994,10.493143999999988,7158
48.78466399999992,21.50914399999997,3457
49.10866399999992,20.213143999999986,3398
49.10866399999992,18.917143999999983,3306
48.46066399999992,17.621143999999987,3347
49.43266399999992,17.621143999999987,3253
49.10866399999992,17.621143999999987,3301
48.136663999999925,18.269143999999983,3378
49.10866399999992,18.269143999999983,3327
49.43266399999992,18.269143999999983,3284
49.43266399999992,16.973143999999984,3231
49.75666399999992,16.973143999999984,3201
49.75666399999992,16.325143999999987,3179
50.08066399999991,15.677143999999986,3131
50.08066399999991,15.029143999999986,3101
49.43266399999992,18.917143999999983,3295
47.81266399999993,20.86114399999998,3595
48.136663999999925,20.86114399999998,3530
48.46066399999992,20.86114399999998,3517
48.46066399999992,21.50914399999997,3472
49.10866399999992,19.565143999999982,3319
48.136663999999925,17.621143999999987,3326
48.78466399999992,22.15714399999998,3590
48.78466399999992,20.86114399999998,3745
49.10866399999992,20.86114399999998,3441
48.78466399999992,18.269143999999983,3370
48.78466399999992,17.621143999999987,3329
49.10866399999992,21.50914399999997,3449
48.78466399999992,20.213143999999986,3789
48.46066399999992,20.213143999999986,3801
48.136663999999925,19.565143999999982,3525
48.46066399999992,19.565143999999982,3404
48.46066399999992,18.917143999999983,3386
48.46066399999992,18.269143999999983,3383
48.78466399999992,19.565143999999982,3360
48.78466399999992,18.917143999999983,3346
47.81266399999993,18.269143999999983,3427
49.10866399999992,22.15714399999998,3644
49.43266399999992,21.50914399999997,3574
48.136663999999925,18.917143999999983,3579
48.136663999999925,20.213143999999986,3545
52.636,-8.018,65535
52.312,-7.370000000000001,65535
52.312,-8.018,65535
52.636,-8.666,65535
51.988,-8.666,65535
51.988,-8.018,65535
52.96,-8.666,65535
52.96,-6.074000000000002,65535
53.28399999999999,-6.722000000000001,65535
53.60799999999999,-6.722000000000001,65535
53.60799999999999,-7.370000000000001,65535
53.60799999999999,-8.018,65535
54.25599999999999,-8.666,65535
53.93199999999999,-8.666,65535
53.93199999999999,-8.018,65535
52.312,-6.722000000000001,65535
52.636,-6.722000000000001,65535
53.93199999999999,-6.722000000000001,65535
54.25599999999999,-6.074000000000002,65535
53.28399999999999,-7.370000000000001,65535
52.96,-7.370000000000001,65535
52.312,-8.666,65535
52.96,-8.018,65535
52.636,-7.370000000000001,65535
52.96,-6.722000000000001,65535
51.988,-9.314,65535
52.312,-9.314,65535
54.579999999999984,-6.722000000000001,65535
54.579999999999984,-6.074000000000002,65535
53.28399999999999,-8.018,65535
53.28399999999999,-8.666,65535
53.28399999999999,-9.314,65535
53.93199999999999,-9.314,65535
54.25599999999999,-9.314,65535
53.60799999999999,-8.666,65535
53.60799999999999,-9.314,65535
49.43266399999992,14.381143999999988,3155
49.75666399999992,14.381143999999988,3113
49.75666399999992,15.029143999999986,3106
49.75666399999992,13.733143999999989,3143
50.08066399999991,13.733143999999989,3137
49.75666399999992,15.677143999999986,3117
50.40466399999991,15.029143999999986,3096
49.43266399999992,13.733143999999989,3246
50.40466399999991,15.677143999999986,3107
50.40466399999991,13.733143999999989,3163
46.19266399999994,15.029143999999986,3269
45.86866399999994,15.029143999999986,3296
45.86866399999994,14.381143999999988,3285
46.19266399999994,13.733143999999989,3302
45.86866399999994,13.733143999999989,3388
58.50466399999986,13.733143999999989,1331
58.180663999999865,13.733143999999989,1317
58.180663999999865,13.085143999999987,1302
57.85666399999987,12.437143999999988,1017
60.44866399999985,15.677143999999986,1505
60.124663999999854,15.677143999999986,1478
60.124663999999854,16.325143999999987,1519
59.800663999999855,16.325143999999987,1464
59.800663999999855,17.621143999999987,1482
59.47666399999986,18.269143999999983,1460
61.74466399999984,16.973143999999984,1678
61.420663999999846,16.973143999999984,1651
60.77266399999985,16.973143999999984,1556
65.63266399999982,22.15714399999998,2782
65.95666399999982,21.50914399999997,2742
65.63266399999982,20.86114399999998,2713
64.98466399999982,20.213143999999986,2645
64.66066399999983,20.213143999999986,2623
64.33666399999983,19.565143999999982,2317
64.01266399999983,19.565143999999982,2030
63.68866399999983,20.213143999999986,1983
64.66066399999983,18.917143999999983,2994
59.15266399999986,16.325143999999987,1407
59.15266399999986,15.029143999999986,1368
59.15266399999986,17.621143999999987,1446
57.53266399999987,14.381143999999988,1378
57.53266399999987,15.029143999999986,1385
61.09666399999985,14.381143999999988,1657
60.77266399999985,15.029143999999986,1614
60.44866399999985,15.029143999999986,1604
58.180663999999865,15.029143999999986,1421
58.50466399999986,16.325143999999987,1461
58.50466399999986,15.677143999999986,1437
63.36466399999984,13.085143999999987,1563
63.04066399999984,14.381143999999988,1641
62.39266399999984,15.677143999999986,1716
63.36466399999984,13.733143999999989,1591
63.36466399999984,14.381143999999988,1628
62.71666399999984,15.677143999999986,1699
62.39266399999984,17.621143999999987,1736
59.800663999999855,15.677143999999986,2013
55.58866399999988,13.733143999999989,1418
57.20866399999987,14.381143999999988,1391
57.85666399999987,14.381143999999988,1362
58.82866399999986,16.973143999999984,1483
58.82866399999986,16.325143999999987,1490
59.15266399999986,18.269143999999983,1449
60.44866399999985,17.621143999999987,1519
59.15266399999986,12.437143999999988,924
59.15266399999986,13.085143999999987,914
58.82866399999986,12.437143999999988,948
59.47666399999986,16.325143999999987,1409
58.82866399999986,14.381143999999988,1349
59.47666399999986,15.677143999999986,1385
63.36466399999984,18.917143999999983,1936
63.04066399999984,17.621143999999987,1891
62.71666399999984,17.621143999999987,1865
63.68866399999983,19.565143999999982,1969
62.39266399999984,16.973143999999984,1780
59.800663999999855,16.973143999999984,1443
59.47666399999986,17.621143999999987,1455
57.85666399999987,13.085143999999987,1316
57.53266399999987,13.085143999999987,1360
58.50466399999986,11.789143999999988,1326
57.85666399999987,15.029143999999986,1410
57.20866399999987,13.733143999999989,1403
57.53266399999987,13.733143999999989,1419
61.74466399999984,16.325143999999987,1656
61.420663999999846,16.325143999999987,1624
61.09666399999985,16.325143999999987,1613
61.09666399999985,16.973143999999984,1597
60.124663999999854,15.029143999999986,1452
66.60466399999981,20.86114399999998,2817
67.25266399999981,20.86114399999998,2885
67.90066399999981,20.213143999999986,2955
67.57666399999981,20.213143999999986,3580
59.800663999999855,15.029143999999986,1411
58.50466399999986,15.029143999999986,1440
59.47666399999986,15.029143999999986,1400
60.44866399999985,16.325143999999987,1549
59.15266399999986,15.677143999999986,1409
57.85666399999987,13.733143999999989,1345
58.82866399999986,13.733143999999989,1370
58.50466399999986,13.085143999999987,1404
57.20866399999987,13.085143999999987,1496
56.88466399999987,13.085143999999987,1465
58.180663999999865,11.789143999999988,1325
62.06866399999984,16.973143999999984,1769
65.95666399999982,23.45314399999998,2823
59.800663999999855,14.381143999999988,5891
59.800663999999855,18.269143999999983,1493
63.04066399999984,15.029143999999986,1659
62.71666399999984,15.029143999999986,1691
62.39266399999984,16.325143999999987,1734
63.36466399999984,12.437143999999988,1539
68.5486639999998,17.621143999999987,3168
68.5486639999998,18.269143999999983,3101
68.5486639999998,18.917143999999983,3078
68.2246639999998,18.917143999999983,3034
59.800663999999855,13.085143999999987,917
60.124663999999854,13.085143999999987,957
59.47666399999986,16.973143999999984,1428
59.15266399999986,16.973143999999984,1437
56.56066399999988,13.733143999999989,1458
60.124663999999854,17.621143999999987,1496
57.85666399999987,16.325143999999987,1639
58.180663999999865,16.325143999999987,1604
58.180663999999865,15.677143999999986,1501
57.20866399999987,16.325143999999987,1527
57.53266399999987,15.677143999999986,1545
57.85666399999987,15.677143999999986,1516
44.89666399999994,23.45314399999998,5845
44.572663999999946,23.45314399999998,5915
44.89666399999994,24.74914399999998,5884
44.572663999999946,24.74914399999998,5960
44.572663999999946,24.101143999999977,5949
44.24866399999995,24.101143999999977,5930
47.48866399999993,25.397143999999983,5693
47.48866399999993,24.74914399999998,5633
47.16466399999993,24.74914399999998,5555
47.16466399999993,24.101143999999977,5457
47.48866399999993,22.15714399999998,5457
47.81266399999993,22.15714399999998,5432
47.16466399999993,22.15714399999998,5526
47.16466399999993,23.45314399999998,5618
47.16466399999993,22.805143999999984,5624
46.84066399999993,24.101143999999977,5538
45.86866399999994,27.34114399999998,5988
45.54466399999994,27.34114399999998,5950
45.54466399999994,27.989143999999985,5975
45.86866399999994,20.86114399999998,5683
45.86866399999994,21.50914399999997,5661
46.19266399999994,21.50914399999997,5646
46.19266399999994,27.34114399999998,5966
46.19266399999994,26.69314399999997,6066
46.516663999999935,26.69314399999997,5831
46.516663999999935,26.04514399999998,5727
47.48866399999993,22.805143999999984,5685
46.84066399999993,22.805143999999984,5498
45.54466399999994,22.15714399999998,5711
45.22066399999994,22.15714399999998,5729
44.89666399999994,22.15714399999998,5787
47.48866399999993,23.45314399999998,5651
46.516663999999935,24.101143999999977,5377
46.516663999999935,24.74914399999998,5591
45.86866399999994,24.101143999999977,5540
47.16466399999993,26.69314399999997,5909
47.16466399999993,27.34114399999998,5964
43.92466399999995,25.397143999999983,5923
44.24866399999995,24.74914399999998,5830
44.89666399999994,26.04514399999998,5743
44.89666399999994,26.69314399999997,5804
45.22066399999994,26.69314399999997,5821
45.22066399999994,27.34114399999998,5907
46.84066399999993,26.69314399999997,5870
47.48866399999993,26.69314399999997,5863
44.24866399999995,25.397143999999983,5818
43.92466399999995,26.04514399999998,5939
46.19266399999994,24.101143999999977,5585
44.572663999999946,25.397143999999983,5812
46.84066399999993,24.74914399999998,5598
46.516663999999935,21.50914399999997,5622
46.84066399999993,21.50914399999997,5583
44.572663999999946,26.69314399999997,5796
44.572663999999946,27.34114399999998,5806
44.89666399999994,27.34114399999998,5906
44.572663999999946,27.989143999999985,5843
44.24866399999995,27.989143999999985,5858
44.572663999999946,28.63714399999997,5878
45.86866399999994,22.15714399999998,5619
45.86866399999994,22.805143999999984,5513
44.24866399999995,23.45314399999998,5920
43.92466399999995,27.989143999999985,65535
46.84066399999993,27.34114399999998,6083
45.22066399999994,23.45314399999998,5820
45.54466399999994,23.45314399999998,5623
45.54466399999994,24.101143999999977,5570
45.22066399999994,24.101143999999977,5860
44.89666399999994,24.101143999999977,6090
46.19266399999994,22.15714399999998,5691
46.516663999999935,22.15714399999998,5716
45.22066399999994,21.50914399999997,5752
45.54466399999994,21.50914399999997,5725
45.54466399999994,20.86114399999998,5732
46.516663999999935,27.989143999999985,6072
46.19266399999994,27.989143999999985,6044
45.54466399999994,25.397143999999983,5700
45.22066399999994,25.397143999999983,5707
45.22066399999994,26.04514399999998,5750
47.81266399999993,24.101143999999977,5746
47.48866399999993,26.04514399999998,5836
47.81266399999993,26.04514399999998,5858
46.19266399999994,23.45314399999998,5417
45.86866399999994,23.45314399999998,5466
44.24866399999995,26.04514399999998,5798
45.22066399999994,27.989143999999985,5956
45.86866399999994,24.74914399999998,5579
46.516663999999935,25.397143999999983,5771
46.84066399999993,25.397143999999983,5654
46.19266399999994,26.04514399999998,5742
45.86866399999994,26.04514399999998,5707
43.92466399999995,23.45314399999998,6331
44.89666399999994,25.397143999999983,5837
46.19266399999994,20.86114399999998,5739
47.81266399999993,25.397143999999983,5870
44.572663999999946,22.805143999999984,5891
44.572663999999946,22.15714399999998,5859
46.516663999999935,23.45314399999998,5556
45.86866399999994,25.397143999999983,5633
44.24866399999995,27.34114399999998,6571
45.22066399999994,24.74914399999998,5896
45.54466399999994,22.805143999999984,5586
45.22066399999994,28.63714399999997,6016
44.89666399999994,28.63714399999997,5955
47.81266399999993,23.45314399999998,5116
46.19266399999994,24.74914399999998,5665
46.19266399999994,25.397143999999983,5689
43.92466399999995,24.101143999999977,7021
43.92466399999995,24.74914399999998,7034
47.81266399999993,26.69314399999997,6085
47.48866399999993,24.101143999999977,5678
46.84066399999993,26.04514399999998,6486
46.19266399999994,22.805143999999984,5810
47.48866399999993,27.34114399999998,6038
46.19266399999994,20.213143999999986,65535
45.54466399999994,26.04514399999998,5842
44.24866399999995,26.69314399999997,5852
45.86866399999994,27.989143999999985,6122
47.81266399999993,5.957143999999991,7066
