51.56399999999999,-0.4100000000000028,65535
51.887999999999984,-0.4100000000000028,65535
50.91599999999999,-1.7060000000000022,65535
51.23999999999999,-1.0580000000000025,65535
51.56399999999999,-1.0580000000000025,65535
51.23999999999999,-1.7060000000000022,65535
51.56399999999999,0.2379999999999968,65535
47.16466399999993,9.845143999999989,163
47.48866399999993,9.845143999999989,169
48.136663999999925,14.381143999999988,220
47.81266399999993,13.085143999999987,189
47.16466399999993,11.141143999999988,224
47.48866399999993,11.789143999999988,197
48.136663999999925,16.325143999999987,574
47.48866399999993,12.437143999999988,174
48.136663999999925,15.677143999999986,699
47.16466399999993,10.493143999999988,271
47.16466399999993,9.197143999999987,151
48.136663999999925,13.733143999999989,196
48.136663999999925,15.029143999999986,739
47.81266399999993,16.973143999999984,595
48.46066399999992,14.381143999999988,904
47.48866399999993,13.085143999999987,179
47.16466399999993,13.085143999999987,189
47.48866399999993,14.381143999999988,391
47.48866399999993,13.733143999999989,413
47.48866399999993,15.029143999999986,505
46.516663999999935,13.733143999999989,287
46.84066399999993,13.733143999999989,256
46.84066399999993,13.085143999999987,241
48.78466399999992,14.381143999999988,65535
47.16466399999993,15.677143999999986,540
46.516663999999935,14.381143999999988,303
46.84066399999993,14.381143999999988,313
47.16466399999993,14.381143999999988,437
46.516663999999935,15.029143999999986,367
47.81266399999993,16.325143999999987,589
47.16466399999993,15.029143999999986,481
47.81266399999993,15.677143999999986,555
47.48866399999993,15.677143999999986,520
46.516663999999935,13.085143999999987,494
46.84066399999993,12.437143999999988,299
48.136663999999925,11.789143999999988,150
47.81266399999993,12.437143999999988,162
46.84066399999993,15.677143999999986,645
46.516663999999935,15.677143999999986,423
46.84066399999993,16.325143999999987,459
47.81266399999993,14.381143999999988,265
48.78466399999992,16.973143999999984,532
48.136663999999925,16.973143999999984,561
48.46066399999992,13.733143999999989,279
47.81266399999993,13.733143999999989,314
50.08066399999991,8.54914399999999,40
48.46066399999992,9.845143999999989,129
51.05266399999991,7.25314399999999,13
51.37666399999991,7.25314399999999,8
51.37666399999991,6.60514399999999,0
48.46066399999992,16.325143999999987,579
48.46066399999992,16.973143999999984,547
48.78466399999992,16.325143999999987,590
48.46066399999992,15.677143999999986,640
48.78466399999992,15.677143999999986,693
47.48866399999993,16.325143999999987,581
47.16466399999993,16.325143999999987,524
46.19266399999994,14.381143999999988,369
45.86866399999994,15.677143999999986,403
43.60066399999995,16.325143999999987,760
45.54466399999994,14.381143999999988,445
45.54466399999994,13.733143999999989,468
48.136663999999925,13.085143999999987,176
48.46066399999992,11.141143999999988,141
48.136663999999925,11.141143999999988,152
48.46066399999992,7.90114399999999,97
49.10866399999992,8.54914399999999,63
48.78466399999992,2.0691439999999925,194
49.10866399999992,7.25314399999999,81
52.0246639999999,7.90114399999999,40
47.16466399999993,11.789143999999988,250
49.43266399999992,11.141143999999988,163
53.64466399999989,9.845143999999989,159
50.72866399999991,4.013143999999992,64
51.05266399999991,11.141143999999988,199
47.48866399999993,11.141143999999988,188
46.84066399999993,11.789143999999988,662
46.516663999999935,11.141143999999988,631
45.54466399999994,11.141143999999988,525
46.19266399999994,11.141143999999988,597
45.86866399999994,11.141143999999988,581
44.572663999999946,11.141143999999988,372
43.92466399999995,12.437143999999988,4071
45.54466399999994,12.437143999999988,612
45.54466399999994,11.789143999999988,575
48.78466399999992,15.029143999999986,732
47.81266399999993,15.029143999999986,750
47.81266399999993,11.141143999999988,169
50.40466399999991,18.917143999999983,409
52.3486639999999,20.86114399999998,670
54.616663999999886,18.269143999999983,591
54.29266399999989,18.917143999999983,578
49.10866399999992,14.381143999999988,65535
50.08066399999991,14.381143999999988,318
48.78466399999992,13.733143999999989,2216
52.6726639999999,13.085143999999987,238
52.3486639999999,13.085143999999987,235
53.96866399999989,12.437143999999988,276
54.29266399999989,12.437143999999988,277
47.48866399999993,8.54914399999999,143
47.81266399999993,17.621143999999987,619
47.48866399999993,18.917143999999983,680
47.48866399999993,20.86114399999998,841
46.84066399999993,23.45314399999998,2398
44.572663999999946,26.04514399999998,2847
47.48866399999993,21.50914399999997,875
47.81266399999993,21.50914399999997,908
48.46066399999992,22.15714399999998,970
47.48866399999993,16.973143999999984,65535
49.10866399999992,16.325143999999987,487
49.75666399999992,18.269143999999983,630
46.19266399999994,13.085143999999987,1343
41.98066399999996,12.437143999999988,1510
43.60066399999995,10.493143999999988,1766
45.54466399999994,9.197143999999987,248
47.81266399999993,22.805143999999984,2813
49.75666399999992,22.805143999999984,674
50.72866399999991,3.365143999999992,84
51.05266399999991,4.013143999999992,65
50.72866399999991,4.661143999999991,61
51.05266399999991,4.661143999999991,55
51.05266399999991,3.365143999999992,75
51.05266399999991,2.717143999999992,100
50.40466399999991,4.661143999999991,59
50.72866399999991,2.717143999999992,94
50.40466399999991,4.013143999999992,65
51.05266399999991,5.309143999999991,54
50.72866399999991,5.309143999999991,33
51.37666399999991,3.365143999999992,97
51.37666399999991,4.661143999999991,61
50.72866399999991,5.957143999999991,27
50.40466399999991,5.957143999999991,38
50.40466399999991,3.365143999999992,71
50.40466399999991,5.309143999999991,44
50.08066399999991,5.309143999999991,79
49.75666399999992,5.309143999999991,88
49.75666399999992,5.957143999999991,90
51.37666399999991,5.309143999999991,87
51.700663999999904,4.661143999999991,78
50.08066399999991,4.013143999999992,83
50.08066399999991,5.957143999999991,81
50.08066399999991,4.661143999999991,94
49.43266399999992,5.309143999999991,135
49.43266399999992,5.957143999999991,105
52.0246639999999,4.661143999999991,110
52.3486639999999,4.661143999999991,139
50.72866399999991,15.029143999999986,317
51.05266399999991,15.029143999999986,232
51.05266399999991,13.733143999999989,218
50.40466399999991,13.085143999999987,227
49.10866399999992,7.90114399999999,67
48.78466399999992,7.90114399999999,80
50.40466399999991,7.90114399999999,24
50.08066399999991,7.90114399999999,44
49.75666399999992,7.90114399999999,53
49.43266399999992,7.90114399999999,65
49.75666399999992,8.54914399999999,51
49.43266399999992,8.54914399999999,60
49.43266399999992,9.197143999999987,78
49.10866399999992,9.197143999999987,73
47.48866399999993,7.90114399999999,149
47.81266399999993,7.90114399999999,144
48.136663999999925,7.90114399999999,121
48.136663999999925,9.845143999999989,124
47.81266399999993,9.197143999999987,145
47.81266399999993,8.54914399999999,134
47.81266399999993,9.845143999999989,144
54.940663999999884,9.197143999999987,325
54.616663999999886,9.197143999999987,300
54.29266399999989,9.197143999999987,307
53.96866399999989,9.197143999999987,338
53.64466399999989,9.197143999999987,176
54.616663999999886,9.845143999999989,292
54.29266399999989,9.845143999999989,281
53.96866399999989,9.845143999999989,178
53.64466399999989,10.493143999999988,162
53.96866399999989,10.493143999999988,224
53.96866399999989,11.141143999999988,263
54.29266399999989,10.493143999999988,243
53.32066399999989,10.493143999999988,155
54.940663999999884,11.141143999999988,289
52.6726639999999,13.733143999999989,239
52.3486639999999,13.733143999999989,239
52.3486639999999,14.381143999999988,247
52.0246639999999,14.381143999999988,260
52.0246639999999,11.789143999999988,138
52.3486639999999,11.789143999999988,169
52.3486639999999,12.437143999999988,218
52.0246639999999,15.029143999999986,292
51.700663999999904,14.381143999999988,218
52.0246639999999,13.733143999999989,255
51.700663999999904,13.733143999999989,246
52.6726639999999,12.437143999999988,259
53.32066399999989,11.789143999999988,214
53.96866399999989,11.789143999999988,268
53.64466399999989,11.789143999999988,226
53.64466399999989,11.141143999999988,222
53.32066399999989,11.141143999999988,195
52.996663999999896,11.789143999999988,272
52.996663999999896,12.437143999999988,280
52.996663999999896,13.733143999999989,253
53.64466399999989,13.733143999999989,337
53.96866399999989,13.733143999999989,350
54.29266399999989,13.085143999999987,357
53.96866399999989,13.085143999999987,359
53.32066399999989,13.733143999999989,347
52.0246639999999,13.085143999999987,191
51.700663999999904,13.085143999999987,226
52.996663999999896,14.381143999999988,282
52.0246639999999,12.437143999999988,173
51.700663999999904,12.437143999999988,168
51.37666399999991,11.789143999999988,154
51.37666399999991,12.437143999999988,170
52.6726639999999,11.789143999999988,230
53.64466399999989,13.085143999999987,343
53.32066399999989,13.085143999999987,342
52.996663999999896,13.085143999999987,279
53.64466399999989,12.437143999999988,282
51.37666399999991,13.733143999999989,205
53.32066399999989,12.437143999999988,296
52.6726639999999,14.381143999999988,252
51.37666399999991,13.085143999999987,203
53.32066399999989,14.381143999999988,316
52.3486639999999,15.029143999999986,319
52.0246639999999,15.677143999999986,323
51.700663999999904,15.029143999999986,260
51.05266399999991,16.325143999999987,277
51.05266399999991,16.973143999999984,301
51.700663999999904,15.677143999999986,335
51.37666399999991,15.677143999999986,237
51.37666399999991,16.325143999999987,268
50.72866399999991,13.085143999999987,186
50.72866399999991,12.437143999999988,183
51.05266399999991,13.085143999999987,192
51.05266399999991,14.381143999999988,221
50.40466399999991,12.437143999999988,173
50.40466399999991,11.789143999999988,146
50.08066399999991,12.437143999999988,192
50.72866399999991,11.789143999999988,199
51.05266399999991,12.437143999999988,179
50.72866399999991,14.381143999999988,364
51.37666399999991,14.381143999999988,210
50.72866399999991,13.733143999999989,237
50.40466399999991,14.381143999999988,320
51.37666399999991,15.029143999999986,225
55.26466399999988,9.197143999999987,828
55.58866399999988,8.54914399999999,3562
55.91266399999988,8.54914399999999,7039
56.23666399999988,9.197143999999987,7047
56.23666399999988,10.493143999999988,7000
56.23666399999988,9.845143999999989,6987
55.91266399999988,9.845143999999989,6925
56.56066399999988,9.197143999999987,7057
56.56066399999988,8.54914399999999,7100
51.05266399999991,6.60514399999999,3
51.700663999999904,7.90114399999999,19
50.72866399999991,6.60514399999999,9
51.700663999999904,7.25314399999999,15
50.72866399999991,7.25314399999999,16
52.0246639999999,7.25314399999999,31
52.3486639999999,7.90114399999999,87
51.05266399999991,5.957143999999991,42
50.40466399999991,7.25314399999999,19
51.700663999999904,6.60514399999999,6
51.700663999999904,5.957143999999991,8
52.3486639999999,9.197143999999987,69
51.700663999999904,8.54914399999999,31
52.0246639999999,8.54914399999999,48
52.3486639999999,8.54914399999999,66
51.37666399999991,7.90114399999999,13
52.3486639999999,7.25314399999999,93
51.37666399999991,5.957143999999991,41
50.72866399999991,7.90114399999999,31
51.37666399999991,9.197143999999987,64
51.700663999999904,9.197143999999987,45
50.40466399999991,6.60514399999999,46
51.05266399999991,7.90114399999999,46
51.37666399999991,8.54914399999999,41
52.0246639999999,5.957143999999991,51
52.3486639999999,6.60514399999999,116
51.05266399999991,8.54914399999999,104
52.0246639999999,9.197143999999987,64
52.6726639999999,9.197143999999987,90
52.0246639999999,9.845143999999989,97
51.700663999999904,9.845143999999989,57
51.37666399999991,9.845143999999989,69
50.72866399999991,8.54914399999999,48
51.05266399999991,9.845143999999989,111
50.72866399999991,9.845143999999989,76
50.40466399999991,9.845143999999989,90
51.05266399999991,9.197143999999987,80
50.40466399999991,9.197143999999987,58
50.08066399999991,9.197143999999987,48
51.05266399999991,10.493143999999988,221
50.40466399999991,8.54914399999999,38
50.72866399999991,9.197143999999987,64
49.75666399999992,9.197143999999987,65
52.996663999999896,9.197143999999987,129
52.3486639999999,9.845143999999989,77
52.996663999999896,8.54914399999999,146
52.996663999999896,7.90114399999999,173
53.32066399999989,7.90114399999999,223
53.32066399999989,7.25314399999999,253
53.64466399999989,7.25314399999999,298
52.996663999999896,10.493143999999988,143
52.6726639999999,10.493143999999988,136
52.6726639999999,9.845143999999989,90
53.32066399999989,9.845143999999989,153
53.32066399999989,9.197143999999987,149
53.64466399999989,8.54914399999999,193
53.32066399999989,8.54914399999999,157
52.6726639999999,8.54914399999999,123
52.0246639999999,10.493143999999988,149
52.0246639999999,11.141143999999988,130
51.700663999999904,11.141143999999988,105
52.6726639999999,7.25314399999999,905
52.996663999999896,7.25314399999999,879
52.6726639999999,7.90114399999999,195
53.64466399999989,7.90114399999999,251
52.996663999999896,11.141143999999988,204
52.6726639999999,11.141143999999988,202
52.3486639999999,10.493143999999988,98
52.996663999999896,9.845143999999989,156
51.700663999999904,10.493143999999988,78
51.37666399999991,10.493143999999988,7279
51.700663999999904,11.789143999999988,148
52.3486639999999,11.141143999999988,147
51.37666399999991,11.141143999999988,219
51.05266399999991,11.789143999999988,171
49.10866399999992,11.141143999999988,126
48.78466399999992,11.141143999999988,131
48.46066399999992,11.789143999999988,147
49.43266399999992,11.789143999999988,168
50.08066399999991,11.789143999999988,152
49.75666399999992,12.437143999999988,208
49.10866399999992,11.789143999999988,188
48.78466399999992,12.437143999999988,204
48.46066399999992,12.437143999999988,192
49.10866399999992,12.437143999999988,192
48.78466399999992,13.085143999999987,231
48.136663999999925,12.437143999999988,166
47.81266399999993,11.789143999999988,157
48.136663999999925,10.493143999999988,166
47.81266399999993,10.493143999999988,199
48.78466399999992,10.493143999999988,104
47.48866399999993,10.493143999999988,183
48.46066399999992,10.493143999999988,129
49.43266399999992,13.085143999999987,338
48.46066399999992,13.085143999999987,251
49.43266399999992,10.493143999999988,132
49.75666399999992,9.845143999999989,98
49.75666399999992,10.493143999999988,126
50.40466399999991,11.141143999999988,131
50.08066399999991,11.141143999999988,165
50.72866399999991,11.141143999999988,203
49.75666399999992,11.141143999999988,136
48.78466399999992,11.789143999999988,253
50.40466399999991,10.493143999999988,103
50.08066399999991,9.845143999999989,95
50.08066399999991,10.493143999999988,157
49.43266399999992,12.437143999999988,213
49.75666399999992,11.789143999999988,172
49.10866399999992,13.085143999999987,273
50.72866399999991,10.493143999999988,215
49.10866399999992,10.493143999999988,147
48.78466399999992,9.845143999999989,85
48.46066399999992,8.54914399999999,88
48.46066399999992,9.197143999999987,94
48.78466399999992,9.197143999999987,81
48.78466399999992,8.54914399999999,80
50.08066399999991,7.25314399999999,50
49.75666399999992,6.60514399999999,77
49.43266399999992,6.60514399999999,83
49.10866399999992,6.60514399999999,91
49.43266399999992,7.25314399999999,66
49.75666399999992,7.25314399999999,63
49.10866399999992,5.957143999999991,142
48.78466399999992,7.25314399999999,97
50.08066399999991,6.60514399999999,74
47.48866399999993,9.197143999999987,148
48.136663999999925,8.54914399999999,102
48.136663999999925,9.197143999999987,105
47.81266399999993,7.25314399999999,133
49.43266399999992,9.845143999999989,104
49.10866399999992,9.845143999999989,80
53.64466399999989,14.381143999999988,332
50.08066399999991,13.085143999999987,395
49.75666399999992,13.085143999999987,395
45.86866399999994,9.197143999999987,238
46.19266399999994,9.197143999999987,224
46.516663999999935,8.54914399999999,177
46.516663999999935,9.197143999999987,219
46.19266399999994,8.54914399999999,221
47.16466399999993,8.54914399999999,144
45.86866399999994,4.661143999999991,300
46.84066399999993,9.845143999999989,162
45.22066399999994,5.957143999999991,350
45.22066399999994,5.309143999999991,378
45.86866399999994,5.957143999999991,240
45.54466399999994,5.957143999999991,305
44.89666399999994,4.661143999999991,324
44.89666399999994,5.309143999999991,348
44.572663999999946,4.661143999999991,359
44.24866399999995,4.661143999999991,373
43.92466399999995,4.661143999999991,364
46.19266399999994,7.25314399999999,186
48.78466399999992,5.957143999999991,175
48.136663999999925,6.60514399999999,193
48.46066399999992,6.60514399999999,174
48.78466399999992,6.60514399999999,193
47.16466399999993,7.90114399999999,151
48.136663999999925,7.25314399999999,118
48.46066399999992,7.25314399999999,104
46.516663999999935,6.60514399999999,176
46.84066399999993,6.60514399999999,168
46.84066399999993,7.25314399999999,164
46.516663999999935,5.957143999999991,195
46.19266399999994,5.957143999999991,210
46.84066399999993,8.54914399999999,156
46.84066399999993,7.90114399999999,160
45.86866399999994,5.309143999999991,274
46.19266399999994,6.60514399999999,184
45.86866399999994,6.60514399999999,193
47.48866399999993,6.60514399999999,176
47.48866399999993,7.25314399999999,149
47.16466399999993,7.25314399999999,158
49.10866399999992,4.013143999999992,211
49.75666399999992,4.661143999999991,117
49.43266399999992,4.661143999999991,180
49.10866399999992,5.309143999999991,238
46.19266399999994,4.661143999999991,291
46.84066399999993,9.197143999999987,170
46.19266399999994,5.309143999999991,283
46.516663999999935,5.309143999999991,239
45.54466399999994,6.60514399999999,336
45.54466399999994,5.309143999999991,317
43.60066399999995,4.013143999999992,386
43.60066399999995,3.365143999999992,423
42.62866399999996,2.717143999999992,492
43.276663999999954,2.717143999999992,456
45.54466399999994,4.661143999999991,305
45.22066399999994,4.661143999999991,340
47.16466399999993,5.309143999999991,239
47.16466399999993,5.957143999999991,216
46.19266399999994,7.90114399999999,180
49.75666399999992,2.717143999999992,189
49.10866399999992,2.717143999999992,184
48.78466399999992,2.717143999999992,205
45.86866399999994,3.365143999999992,470
46.84066399999993,3.365143999999992,352
46.516663999999935,3.365143999999992,381
46.19266399999994,3.365143999999992,415
47.16466399999993,6.60514399999999,188
49.10866399999992,3.365143999999992,262
45.54466399999994,4.013143999999992,317
46.516663999999935,7.25314399999999,191
47.16466399999993,4.661143999999991,270
46.84066399999993,4.661143999999991,297
46.516663999999935,4.661143999999991,321
46.84066399999993,5.957143999999991,213
47.81266399999993,3.365143999999992,347
47.48866399999993,4.013143999999992,306
48.136663999999925,4.013143999999992,313
47.81266399999993,4.013143999999992,315
47.48866399999993,4.661143999999991,284
47.16466399999993,3.365143999999992,387
46.84066399999993,4.013143999999992,320
48.46066399999992,5.957143999999991,185
46.19266399999994,2.717143999999992,533
47.16466399999993,2.0691439999999925,391
46.516663999999935,2.717143999999992,506
46.84066399999993,2.717143999999992,487
46.84066399999993,2.0691439999999925,457
47.16466399999993,2.717143999999992,402
44.572663999999946,5.309143999999991,440
44.572663999999946,5.957143999999991,408
44.89666399999994,6.60514399999999,327
44.572663999999946,6.60514399999999,424
43.60066399999995,5.309143999999991,402
43.92466399999995,7.25314399999999,514
43.60066399999995,6.60514399999999,508
43.276663999999954,6.60514399999999,524
43.276663999999954,5.957143999999991,461
45.86866399999994,8.54914399999999,245
45.54466399999994,8.54914399999999,252
48.136663999999925,3.365143999999992,329
48.46066399999992,3.365143999999992,282
48.46066399999992,2.717143999999992,311
47.48866399999993,5.309143999999991,300
46.516663999999935,9.845143999999989,173
46.84066399999993,10.493143999999988,1331
47.81266399999993,5.309143999999991,383
45.22066399999994,6.60514399999999,321
46.19266399999994,4.013143999999992,314
45.86866399999994,4.013143999999992,341
45.22066399999994,4.013143999999992,420
44.89666399999994,4.013143999999992,460
46.84066399999993,5.309143999999991,261
48.136663999999925,-1.8188560000000056,369
48.136663999999925,0.1251439999999934,310
48.136663999999925,-0.5228560000000062,341
47.48866399999993,-0.5228560000000062,360
47.16466399999993,-1.8188560000000056,380
47.48866399999993,0.7731439999999932,305
47.16466399999993,0.1251439999999934,376
45.86866399999994,7.25314399999999,199
48.136663999999925,5.309143999999991,336
49.10866399999992,4.661143999999991,259
48.46066399999992,4.013143999999992,294
48.136663999999925,4.661143999999991,331
47.81266399999993,6.60514399999999,193
47.48866399999993,5.957143999999991,321
48.136663999999925,5.957143999999991,663
45.86866399999994,7.90114399999999,194
46.516663999999935,7.90114399999999,169
49.43266399999992,3.365143999999992,262
49.43266399999992,4.013143999999992,200
48.136663999999925,2.717143999999992,430
47.81266399999993,2.717143999999992,441
47.48866399999993,2.717143999999992,419
50.40466399999991,2.717143999999992,90
48.46066399999992,-4.410856000000004,515
48.46066399999992,-3.7628560000000046,479
48.46066399999992,-3.114856000000005,450
48.46066399999992,-2.4668560000000053,433
47.48866399999993,1.4211439999999929,333
47.16466399999993,1.4211439999999929,370
46.516663999999935,4.013143999999992,325
43.60066399999995,4.661143999999991,414
44.89666399999994,2.717143999999992,657
45.22066399999994,2.717143999999992,628
45.54466399999994,3.365143999999992,519
45.22066399999994,3.365143999999992,515
47.48866399999993,3.365143999999992,526
46.19266399999994,9.845143999999989,205
47.81266399999993,2.0691439999999925,365
47.48866399999993,2.0691439999999925,397
45.86866399999994,2.717143999999992,494
44.89666399999994,5.957143999999991,510
45.22066399999994,1.4211439999999929,566
44.89666399999994,1.4211439999999929,590
44.89666399999994,2.0691439999999925,740
43.276663999999954,2.0691439999999925,511
43.60066399999995,1.4211439999999929,517
48.78466399999992,4.661143999999991,266
48.78466399999992,5.309143999999991,192
46.19266399999994,2.0691439999999925,620
45.86866399999994,1.4211439999999929,528
46.19266399999994,1.4211439999999929,566
44.572663999999946,4.013143999999992,467
44.89666399999994,3.365143999999992,551
43.92466399999995,4.013143999999992,393
44.24866399999995,4.013143999999992,410
44.89666399999994,-0.5228560000000062,374
45.54466399999994,0.1251439999999934,394
46.516663999999935,0.1251439999999934,393
44.572663999999946,2.0691439999999925,617
49.75666399999992,4.013143999999992,158
43.92466399999995,3.365143999999992,681
43.92466399999995,2.717143999999992,712
44.24866399999995,3.365143999999992,736
44.572663999999946,3.365143999999992,777
49.10866399999992,0.1251439999999934,292
49.43266399999992,0.7731439999999932,278
49.43266399999992,-1.8188560000000056,476
49.10866399999992,-1.170856000000006,451
49.10866399999992,-0.5228560000000062,353
49.10866399999992,0.7731439999999932,358
49.10866399999992,1.4211439999999929,288
47.81266399999993,-1.8188560000000056,510
47.81266399999993,-2.4668560000000053,447
47.81266399999993,-3.114856000000005,460
48.136663999999925,-3.7628560000000046,517
44.572663999999946,9.197143999999987,356
44.89666399999994,8.54914399999999,302
45.22066399999994,9.197143999999987,259
45.54466399999994,10.493143999999988,307
44.572663999999946,10.493143999999988,358
44.89666399999994,10.493143999999988,344
44.89666399999994,9.845143999999989,312
48.46066399999992,5.309143999999991,315
50.91599999999999,-1.0580000000000025,65535
51.23999999999999,-0.4100000000000028,65535
50.91599999999999,-0.4100000000000028,65535
51.23999999999999,-2.354000000000002,65535
51.56399999999999,-2.354000000000002,65535
51.56399999999999,-3.0020000000000016,65535
50.91599999999999,-2.354000000000002,65535
53.50799999999997,-3.0020000000000016,65535
53.183999999999976,-2.354000000000002,65535
53.183999999999976,-3.0020000000000016,65535
52.85999999999998,-2.354000000000002,65535
52.21199999999998,-1.0580000000000025,65535
51.887999999999984,-1.0580000000000025,65535
52.53599999999998,-1.0580000000000025,65535
52.53599999999998,-1.7060000000000022,65535
52.85999999999998,-1.7060000000000022,65535
53.50799999999997,-2.354000000000002,65535
52.85999999999998,-1.0580000000000025,65535
52.53599999999998,1.5339999999999965,65535
52.53599999999998,0.8859999999999966,65535
52.53599999999998,0.2379999999999968,65535
52.53599999999998,-0.4100000000000028,65535
53.50799999999997,-1.7060000000000022,65535
53.183999999999976,-1.7060000000000022,65535
53.183999999999976,-1.0580000000000025,65535
52.85999999999998,-0.4100000000000028,65535
51.887999999999984,-2.354000000000002,65535
52.21199999999998,-2.354000000000002,65535
55.77599999999996,-2.354000000000002,65535
53.83199999999997,-1.0580000000000025,65535
53.83199999999997,-1.7060000000000022,65535
55.127999999999965,-1.7060000000000022,65535
54.80399999999997,-1.7060000000000022,65535
54.47999999999997,-1.7060000000000022,65535
54.15599999999997,-1.0580000000000025,65535
52.21199999999998,-1.7060000000000022,65535
53.50799999999997,-1.0580000000000025,65535
55.77599999999996,-3.0020000000000016,65535
55.45199999999996,-1.7060000000000022,65535
57.07199999999995,-2.354000000000002,65535
56.74799999999996,-3.0020000000000016,65535
56.42399999999996,-3.0020000000000016,65535
56.09999999999996,-3.650000000000001,65535
50.91599999999999,-3.0020000000000016,65535
50.91599999999999,-3.650000000000001,65535
50.59199999999999,-3.650000000000001,65535
50.59199999999999,-4.298000000000001,65535
51.23999999999999,-3.0020000000000016,65535
50.268,-4.946000000000001,65535
55.77599999999996,-3.650000000000001,65535
55.77599999999996,-4.298000000000001,65535
52.21199999999998,-0.4100000000000028,65535
52.53599999999998,-2.354000000000002,65535
51.56399999999999,-1.7060000000000022,65535
51.56399999999999,-3.650000000000001,65535
51.887999999999984,-4.298000000000001,65535
51.56399999999999,-4.298000000000001,65535
51.887999999999984,-1.7060000000000022,65535
52.21199999999998,-3.0020000000000016,65535
51.23999999999999,0.2379999999999968,65535
50.91599999999999,0.2379999999999968,65535
52.21199999999998,0.2379999999999968,65535
53.83199999999997,-3.0020000000000016,65535
54.15599999999997,-3.0020000000000016,65535
54.47999999999997,-3.0020000000000016,65535
55.127999999999965,-3.650000000000001,65535
54.80399999999997,-3.0020000000000016,65535
53.83199999999997,-2.354000000000002,65535
54.15599999999997,-0.4100000000000028,65535
54.47999999999997,-1.0580000000000025,65535
53.83199999999997,-0.4100000000000028,65535
53.183999999999976,-3.650000000000001,65535
53.183999999999976,-4.298000000000001,65535
52.85999999999998,-3.0020000000000016,65535
52.53599999999998,-3.0020000000000016,65535
51.887999999999984,-3.0020000000000016,65535
51.23999999999999,0.8859999999999966,65535
51.887999999999984,0.2379999999999968,65535
52.21199999999998,0.8859999999999966,65535
51.887999999999984,-4.946000000000001,65535
52.53599999999998,-3.650000000000001,65535
52.21199999999998,-4.298000000000001,65535
53.183999999999976,-0.4100000000000028,65535
51.23999999999999,-3.650000000000001,65535
51.887999999999984,-3.650000000000001,65535
52.21199999999998,-3.650000000000001,65535
51.56399999999999,0.8859999999999966,65535
51.887999999999984,0.8859999999999966,65535
52.85999999999998,0.8859999999999966,65535
53.50799999999997,-0.4100000000000028,65535
56.09999999999996,-4.298000000000001,65535
56.74799999999996,-4.946000000000001,65535
56.74799999999996,-4.298000000000001,65535
56.42399999999996,-4.946000000000001,65535
56.42399999999996,-4.298000000000001,65535
56.09999999999996,-4.946000000000001,65535
57.39599999999995,-4.298000000000001,65535
57.39599999999995,-3.0020000000000016,65535
57.39599999999995,-3.650000000000001,65535
56.42399999999996,-3.650000000000001,65535
57.07199999999995,-3.650000000000001,65535
57.07199999999995,-4.298000000000001,65535
56.74799999999996,-3.650000000000001,65535
59.15266399999986,27.34114399999998,65535
59.47666399999986,26.69314399999997,65535
59.47666399999986,26.04514399999998,65535
59.15266399999986,26.04514399999998,65535
59.15266399999986,24.74914399999998,65535
59.15266399999986,25.397143999999983,65535
59.47666399999986,25.397143999999983,65535
58.50466399999986,26.69314399999997,65535
58.82866399999986,26.69314399999997,65535
57.85666399999987,26.04514399999998,65535
58.180663999999865,26.04514399999998,65535
58.180663999999865,26.69314399999997,65535
58.82866399999986,26.04514399999998,65535
58.50466399999986,25.397143999999983,65535
58.82866399999986,25.397143999999983,65535
58.82866399999986,24.74914399999998,65535
58.180663999999865,27.34114399999998,65535
57.85666399999987,27.34114399999998,65535
63.68866399999983,27.34114399999998,7557
60.124663999999854,24.74914399999998,4213
60.44866399999985,24.74914399999998,4182
60.44866399999985,25.397143999999983,4194
60.77266399999985,25.397143999999983,4905
61.09666399999985,26.04514399999998,4948
60.77266399999985,26.04514399999998,4956
60.77266399999985,26.69314399999997,4975
61.09666399999985,25.397143999999983,4939
61.09666399999985,26.69314399999997,7678
61.420663999999846,26.69314399999997,7700
61.74466399999984,27.34114399999998,7724
62.06866399999984,27.34114399999998,7749
62.39266399999984,27.34114399999998,7773
62.71666399999984,27.34114399999998,7737
64.01266399999983,27.34114399999998,7513
63.36466399999984,27.34114399999998,7625
63.04066399999984,27.34114399999998,7665
63.04066399999984,27.989143999999985,7680
64.33666399999983,27.989143999999985,5264
64.33666399999983,27.34114399999998,5209
64.66066399999983,27.34114399999998,5194
64.66066399999983,26.69314399999997,5139
64.98466399999982,25.397143999999983,3559
64.66066399999983,26.04514399999998,5120
64.98466399999982,26.04514399999998,5104
66.28066399999982,25.397143999999983,3731
65.95666399999982,24.74914399999998,3472
65.63266399999982,24.74914399999998,3476
65.63266399999982,25.397143999999983,3518
65.30866399999982,25.397143999999983,3539
66.60466399999981,25.397143999999983,3765
64.01266399999983,24.74914399999998,3696
64.01266399999983,24.101143999999977,3731
64.01266399999983,23.45314399999998,3755
63.68866399999983,23.45314399999998,3767
63.68866399999983,22.805143999999984,3792
63.68866399999983,26.04514399999998,5824
63.68866399999983,25.397143999999983,5790
63.68866399999983,26.69314399999997,7524
60.44866399999985,26.69314399999997,8309
64.01266399999983,27.989143999999985,7943
62.71666399999984,22.805143999999984,3914
62.39266399999984,22.805143999999984,3946
62.06866399999984,22.805143999999984,3975
62.06866399999984,23.45314399999998,3991
61.74466399999984,23.45314399999998,4003
61.420663999999846,23.45314399999998,4051
61.09666399999985,23.45314399999998,4092
61.09666399999985,24.101143999999977,4099
61.09666399999985,24.74914399999998,4133
60.77266399999985,24.74914399999998,4149
63.04066399999984,21.50914399999997,65535
63.04066399999984,22.15714399999998,65535
63.04066399999984,22.805143999999984,3878
62.39266399999984,26.04514399999998,7921
62.06866399999984,25.397143999999983,7970
61.74466399999984,25.397143999999983,8038
61.74466399999984,24.74914399999998,8075
61.74466399999984,24.101143999999977,4280
61.420663999999846,24.101143999999977,4235
62.39266399999984,26.69314399999997,7892
64.66066399999983,25.397143999999983,3628
64.66066399999983,24.74914399999998,3646
64.33666399999983,24.74914399999998,3657
63.36466399999984,22.805143999999984,3817
67.25266399999981,24.101143999999977,7345
66.92866399999981,24.101143999999977,7309
66.60466399999981,23.45314399999998,7278
66.28066399999982,23.45314399999998,7260
66.28066399999982,24.101143999999977,7242
65.95666399999982,24.101143999999977,2844
60.124663999999854,24.101143999999977,5727
60.124663999999854,23.45314399999998,6585
60.44866399999985,22.805143999999984,6644
60.77266399999985,27.34114399999998,5027
61.09666399999985,27.989143999999985,5057
61.09666399999985,28.63714399999997,5095
61.420663999999846,29.28514399999997,5130
61.74466399999984,29.933143999999977,5167
62.06866399999984,29.933143999999977,5193
62.39266399999984,29.933143999999977,5209
62.71666399999984,29.933143999999977,5233
61.420663999999846,22.805143999999984,6338
61.420663999999846,22.15714399999998,7046
61.09666399999985,22.15714399999998,6384
61.420663999999846,21.50914399999997,7179
62.39266399999984,27.989143999999985,65535
62.06866399999984,27.989143999999985,65535
61.420663999999846,27.34114399999998,65535
63.04066399999984,29.933143999999977,7172
63.68866399999983,29.28514399999997,8955
63.36466399999984,29.28514399999997,8935
63.36466399999984,29.933143999999977,8894
60.44866399999985,27.34114399999998,65535
61.74466399999984,29.28514399999997,65535
62.39266399999984,30.58114399999998,65535
62.71666399999984,31.229143999999977,65535
62.71666399999984,29.28514399999997,65535
63.04066399999984,28.63714399999997,65535
66.60466399999981,26.04514399999998,6586
66.60466399999981,26.69314399999997,6622
66.60466399999981,27.34114399999998,6645
62.71666399999984,26.04514399999998,7806
62.71666399999984,25.397143999999983,7775
63.04066399999984,25.397143999999983,7595
63.36466399999984,25.397143999999983,6232
62.71666399999984,23.45314399999998,7800
62.39266399999984,24.101143999999977,65535
62.71666399999984,22.15714399999998,65535
62.39266399999984,22.15714399999998,65535
62.39266399999984,21.50914399999997,65535
61.09666399999985,21.50914399999997,6414
60.77266399999985,22.805143999999984,4452
60.44866399999985,22.15714399999998,4482
60.77266399999985,23.45314399999998,4439
60.77266399999985,21.50914399999997,5553
60.77266399999985,22.15714399999998,5506
60.124663999999854,22.805143999999984,8599
60.44866399999985,24.101143999999977,5712
62.06866399999984,24.74914399999998,65535
50.72866399999991,16.325143999999987,284
50.40466399999991,16.973143999999984,351
50.72866399999991,16.973143999999984,313
50.40466399999991,16.325143999999987,368
50.08066399999991,16.973143999999984,440
50.08066399999991,16.325143999999987,393
51.700663999999904,16.973143999999984,349
51.37666399999991,16.973143999999984,311
51.05266399999991,15.677143999999986,320
50.72866399999991,15.677143999999986,300
51.05266399999991,17.621143999999987,316
51.37666399999991,17.621143999999987,364
51.700663999999904,17.621143999999987,449
51.700663999999904,16.325143999999987,300
52.0246639999999,22.15714399999998,691
52.0246639999999,21.50914399999997,687
52.3486639999999,21.50914399999997,684
52.0246639999999,20.86114399999998,672
51.700663999999904,20.86114399999998,698
51.37666399999991,21.50914399999997,730
51.37666399999991,20.86114399999998,710
51.05266399999991,20.86114399999998,662
52.6726639999999,23.45314399999998,802
52.3486639999999,22.805143999999984,741
52.3486639999999,20.213143999999986,700
52.0246639999999,20.213143999999986,680
52.3486639999999,19.565143999999982,652
52.6726639999999,19.565143999999982,751
51.700663999999904,21.50914399999997,717
51.700663999999904,22.15714399999998,701
52.6726639999999,21.50914399999997,693
52.996663999999896,21.50914399999997,709
52.6726639999999,20.86114399999998,688
52.6726639999999,22.15714399999998,709
52.6726639999999,20.213143999999986,817
52.996663999999896,19.565143999999982,848
52.996663999999896,20.86114399999998,713
52.996663999999896,20.213143999999986,720
53.32066399999989,20.213143999999986,763
51.37666399999991,20.213143999999986,614
52.3486639999999,16.973143999999984,392
52.0246639999999,16.973143999999984,381
52.0246639999999,16.325143999999987,324
52.0246639999999,17.621143999999987,425
52.6726639999999,16.973143999999984,415
52.996663999999896,16.973143999999984,385
52.3486639999999,16.325143999999987,366
52.3486639999999,15.677143999999986,347
51.700663999999904,18.269143999999983,632
52.6726639999999,17.621143999999987,408
52.3486639999999,17.621143999999987,401
52.6726639999999,18.269143999999983,485
52.3486639999999,18.269143999999983,449
52.3486639999999,18.917143999999983,522
52.996663999999896,17.621143999999987,438
51.700663999999904,19.565143999999982,611
51.700663999999904,18.917143999999983,1293
51.37666399999991,18.269143999999983,406
58.82866399999986,9.197143999999987,1808
58.180663999999865,7.90114399999999,1901
58.50466399999986,8.54914399999999,1852
63.36466399999984,10.493143999999988,2023
63.36466399999984,11.141143999999988,2030
63.36466399999984,11.789143999999988,2065
63.68866399999983,11.789143999999988,2093
64.33666399999983,12.437143999999988,2494
64.66066399999983,12.437143999999988,2989
65.63266399999982,13.085143999999987,2646
65.95666399999982,13.085143999999987,2681
66.28066399999982,14.381143999999988,2751
65.95666399999982,13.733143999999989,2820
66.28066399999982,13.733143999999989,2729
65.30866399999982,13.085143999999987,2947
64.98466399999982,13.085143999999987,2581
64.01266399999983,11.789143999999988,2124
63.68866399999983,11.141143999999988,2061
59.800663999999855,10.493143999999988,1604
59.800663999999855,11.141143999999988,1587
60.124663999999854,11.141143999999988,1602
60.44866399999985,11.141143999999988,1615
60.124663999999854,11.789143999999988,1628
60.77266399999985,7.25314399999999,1864
60.77266399999985,6.60514399999999,1910
59.15266399999986,9.197143999999987,1690
59.47666399999986,9.197143999999987,1711
59.800663999999855,9.845143999999989,1606
59.47666399999986,11.141143999999988,1551
61.09666399999985,10.493143999999988,1725
60.77266399999985,10.493143999999988,1695
60.77266399999985,11.141143999999988,1650
62.06866399999984,9.197143999999987,2050
61.74466399999984,9.845143999999989,1996
61.420663999999846,9.845143999999989,1973
59.15266399999986,9.845143999999989,1670
59.47666399999986,9.845143999999989,1646
58.82866399999986,5.957143999999991,2085
58.180663999999865,7.25314399999999,1957
58.50466399999986,7.25314399999999,1990
58.50466399999986,6.60514399999999,1995
58.50466399999986,5.957143999999991,2053
58.82866399999986,8.54914399999999,1838
60.44866399999985,7.25314399999999,1838
60.44866399999985,7.90114399999999,1799
60.124663999999854,10.493143999999988,1636
60.44866399999985,9.197143999999987,1748
60.77266399999985,9.197143999999987,1760
60.77266399999985,8.54914399999999,1779
60.124663999999854,9.845143999999989,2015
60.44866399999985,10.493143999999988,1681
63.04066399999984,10.493143999999988,1974
62.06866399999984,9.845143999999989,2075
62.39266399999984,9.845143999999989,2083
62.71666399999984,9.845143999999989,2107
59.47666399999986,14.381143999999988,1600
59.47666399999986,13.733143999999989,1541
59.47666399999986,13.085143999999987,1517
59.800663999999855,12.437143999999988,1586
59.15266399999986,11.141143999999988,1515
59.15266399999986,14.381143999999988,1614
58.82866399999986,11.789143999999988,1495
58.50466399999986,12.437143999999988,1425
58.180663999999865,12.437143999999988,1418
57.85666399999987,11.789143999999988,1369
62.71666399999984,7.90114399999999,2136
62.39266399999984,7.90114399999999,2093
62.06866399999984,8.54914399999999,2068
60.44866399999985,5.309143999999991,1984
60.44866399999985,5.957143999999991,1951
60.77266399999985,5.957143999999991,1940
62.39266399999984,11.141143999999988,1871
62.06866399999984,10.493143999999988,1826
61.74466399999984,11.141143999999988,1799
61.420663999999846,11.141143999999988,1753
61.09666399999985,11.141143999999988,1736
60.77266399999985,11.789143999999988,1713
63.04066399999984,11.141143999999988,1952
62.71666399999984,11.141143999999988,1895
62.39266399999984,10.493143999999988,1853
67.25266399999981,15.677143999999986,2870
67.25266399999981,15.029143999999986,2908
67.25266399999981,14.381143999999988,2936
66.92866399999981,15.029143999999986,2859
66.60466399999981,15.677143999999986,2837
64.01266399999983,11.141143999999988,2108
66.60466399999981,15.029143999999986,2900
54.29266399999989,18.269143999999983,583
54.616663999999886,17.621143999999987,575
53.96866399999989,18.269143999999983,498
43.92466399999995,1.4211439999999929,489
44.24866399999995,0.7731439999999932,451
44.572663999999946,0.1251439999999934,488
46.84066399999993,1.4211439999999929,526
44.572663999999946,1.4211439999999929,584
44.24866399999995,1.4211439999999929,558
45.54466399999994,1.4211439999999929,513
46.516663999999935,1.4211439999999929,551
42.30466399999996,2.717143999999992,571
44.24866399999995,2.717143999999992,695
44.572663999999946,2.717143999999992,680
43.92466399999995,2.0691439999999925,556
42.30466399999996,2.0691439999999925,627
42.62866399999996,2.0691439999999925,603
42.62866399999996,1.4211439999999929,625
42.95266399999996,1.4211439999999929,560
43.276663999999954,1.4211439999999929,547
46.516663999999935,-1.170856000000006,505
46.19266399999994,-1.170856000000006,536
45.86866399999994,-0.5228560000000062,483
45.54466399999994,-0.5228560000000062,463
48.46066399999992,1.4211439999999929,229
41.332663999999966,2.0691439999999925,692
41.98066399999996,2.717143999999992,651
48.46066399999992,-1.8188560000000056,414
47.81266399999993,0.7731439999999932,313
46.84066399999993,0.7731439999999932,378
44.572663999999946,-1.170856000000006,385
43.60066399999995,-1.170856000000006,448
43.276663999999954,-1.8188560000000056,495
43.276663999999954,0.1251439999999934,654
42.95266399999996,0.1251439999999934,619
43.276663999999954,-0.5228560000000062,520
43.60066399999995,-0.5228560000000062,509
47.81266399999993,-3.7628560000000046,496
47.48866399999993,-2.4668560000000053,455
47.81266399999993,-0.5228560000000062,409
46.516663999999935,-1.8188560000000056,521
48.136663999999925,-1.170856000000006,436
47.48866399999993,-1.170856000000006,403
45.22066399999994,8.54914399999999,274
45.22066399999994,7.90114399999999,282
46.19266399999994,-0.5228560000000062,491
46.516663999999935,-0.5228560000000062,474
48.78466399999992,-3.114856000000005,466
50.72866399999991,2.0691439999999925,119
50.40466399999991,2.0691439999999925,114
40.36066399999997,-3.7628560000000046,1905
41.65666399999997,-1.170856000000006,1822
41.332663999999966,1.4211439999999929,1760
43.276663999999954,13.733143999999989,4390
42.95266399999996,13.733143999999989,4412
41.65666399999997,15.029143999999986,4496
40.68466399999997,17.621143999999987,4658
43.60066399999995,13.085143999999987,1728
41.65666399999997,12.437143999999988,1526
41.65666399999997,13.085143999999987,1533
41.98066399999996,13.085143999999987,1544
41.65666399999997,13.733143999999989,1581
41.332663999999966,13.733143999999989,1610
41.332663999999966,14.381143999999988,1829
41.00866399999997,14.381143999999988,1735
41.332663999999966,13.085143999999987,1593
41.00866399999997,15.029143999999986,1935
41.98066399999996,13.733143999999989,1626
42.30466399999996,14.381143999999988,2016
42.30466399999996,12.437143999999988,1542
42.62866399999996,12.437143999999988,1579
42.95266399999996,12.437143999999988,1636
42.30466399999996,11.789143999999988,1540
42.95266399999996,11.789143999999988,1836
42.62866399999996,11.789143999999988,1827
43.276663999999954,11.789143999999988,1890
42.95266399999996,13.085143999999987,1629
42.30466399999996,13.085143999999987,1903
43.276663999999954,13.085143999999987,1681
43.276663999999954,12.437143999999988,1689
42.62866399999996,11.141143999999988,1672
42.95266399999996,11.141143999999988,1715
42.95266399999996,10.493143999999988,1733
44.572663999999946,8.54914399999999,350
44.89666399999994,7.90114399999999,294
44.89666399999994,9.197143999999987,312
44.24866399999995,7.90114399999999,360
44.572663999999946,7.90114399999999,320
43.92466399999995,7.90114399999999,541
44.24866399999995,7.25314399999999,349
44.89666399999994,7.25314399999999,318
45.22066399999994,7.25314399999999,298
45.54466399999994,7.90114399999999,278
44.572663999999946,7.25314399999999,502
52.996663999999896,22.805143999999984,1255
52.996663999999896,23.45314399999998,1284
51.37666399999991,22.15714399999998,745
51.37666399999991,22.805143999999984,799
50.08066399999991,20.213143999999986,506
50.72866399999991,20.213143999999986,563
50.40466399999991,20.213143999999986,486
50.08066399999991,20.86114399999998,573
50.08066399999991,21.50914399999997,604
50.08066399999991,22.15714399999998,641
50.08066399999991,22.805143999999984,648
53.96866399999989,22.805143999999984,1396
53.64466399999989,23.45314399999998,1352
53.32066399999989,23.45314399999998,1307
50.40466399999991,19.565143999999982,420
50.08066399999991,18.917143999999983,450
50.08066399999991,18.269143999999983,490
52.0246639999999,22.805143999999984,766
52.0246639999999,23.45314399999998,780
51.37666399999991,19.565143999999982,571
51.05266399999991,19.565143999999982,433
50.72866399999991,18.917143999999983,411
50.72866399999991,19.565143999999982,577
49.75666399999992,18.917143999999983,552
50.40466399999991,18.269143999999983,398
53.64466399999989,19.565143999999982,612
53.96866399999989,18.917143999999983,540
53.64466399999989,18.917143999999983,519
53.64466399999989,20.213143999999986,643
52.996663999999896,18.917143999999983,515
52.996663999999896,18.269143999999983,476
53.32066399999989,18.917143999999983,536
50.72866399999991,17.621143999999987,347
50.72866399999991,18.269143999999983,384
52.6726639999999,16.325143999999987,426
52.996663999999896,16.325143999999987,376
52.996663999999896,15.677143999999986,351
53.32066399999989,15.677143999999986,439
53.32066399999989,15.029143999999986,368
53.64466399999989,15.029143999999986,375
53.96866399999989,15.029143999999986,403
52.6726639999999,18.917143999999983,561
53.32066399999989,16.325143999999987,457
52.6726639999999,15.029143999999986,284
51.05266399999991,22.805143999999984,829
51.05266399999991,23.45314399999998,856
50.72866399999991,22.15714399999998,782
50.40466399999991,22.15714399999998,806
51.05266399999991,22.15714399999998,796
54.616663999999886,16.973143999999984,554
54.29266399999989,16.325143999999987,506
53.96866399999989,15.677143999999986,469
50.72866399999991,21.50914399999997,771
50.40466399999991,21.50914399999997,652
50.40466399999991,17.621143999999987,368
53.32066399999989,22.805143999999984,1277
53.64466399999989,22.15714399999998,1237
54.29266399999989,16.973143999999984,532
50.72866399999991,20.86114399999998,601
51.700663999999904,22.805143999999984,828
51.05266399999991,21.50914399999997,770
50.08066399999991,19.565143999999982,483
52.0246639999999,18.917143999999983,8488
52.0246639999999,19.565143999999982,8481
53.64466399999989,18.269143999999983,492
51.700663999999904,20.213143999999986,654
53.32066399999989,19.565143999999982,635
50.72866399999991,23.45314399999998,1675
50.72866399999991,22.805143999999984,1644
49.43266399999992,20.213143999999986,743
49.75666399999992,21.50914399999997,615
49.75666399999992,22.15714399999998,1302
49.43266399999992,22.15714399999998,1314
51.05266399999991,18.917143999999983,416
51.05266399999991,18.269143999999983,353
53.32066399999989,16.973143999999984,394
53.64466399999989,16.973143999999984,413
49.75666399999992,20.86114399999998,626
50.40466399999991,22.805143999999984,8570
53.64466399999989,16.325143999999987,448
53.96866399999989,20.86114399999998,673
54.29266399999989,20.86114399999998,719
53.96866399999989,21.50914399999997,852
53.64466399999989,15.677143999999986,434
53.96866399999989,20.213143999999986,601
53.96866399999989,19.565143999999982,564
54.29266399999989,19.565143999999982,574
53.96866399999989,16.325143999999987,468
53.64466399999989,17.621143999999987,444
53.96866399999989,22.15714399999998,918
53.64466399999989,21.50914399999997,1286
53.64466399999989,20.86114399999998,793
52.6726639999999,15.677143999999986,334
51.05266399999991,20.213143999999986,1249
54.940663999999884,24.101143999999977,3681
54.616663999999886,23.45314399999998,3625
54.29266399999989,23.45314399999998,3488
53.64466399999989,22.805143999999984,1300
53.96866399999989,16.973143999999984,553
50.40466399999991,20.86114399999998,1306
53.32066399999989,18.269143999999983,529
49.75666399999992,19.565143999999982,499
50.40466399999991,23.45314399999998,925
49.75666399999992,20.213143999999986,721
49.43266399999992,19.565143999999982,645
49.43266399999992,20.86114399999998,684
53.96866399999989,17.621143999999987,1323
42.30466399999996,-1.8188560000000056,8799
41.98066399999996,-1.8188560000000056,8782
41.65666399999997,0.7731439999999932,8786
42.62866399999996,-1.8188560000000056,8914
42.95266399999996,-1.8188560000000056,8943
42.62866399999996,-3.114856000000005,9037
42.95266399999996,-2.4668560000000053,9015
42.62866399999996,-7.650856000000003,9379
42.30466399999996,-7.650856000000003,9439
42.30466399999996,-8.946856000000002,9575
42.30466399999996,-8.298856000000002,9549
41.98066399999996,-8.298856000000002,9538
42.30466399999996,-7.002856000000003,9321
42.62866399999996,-6.354856000000003,9263
42.30466399999996,-6.354856000000003,9218
42.62866399999996,-5.706856000000004,8718
41.98066399999996,-4.410856000000004,8672
42.30466399999996,-3.7628560000000046,9063
40.03666399999997,-0.5228560000000062,8766
39.38866399999998,-0.5228560000000062,8814
41.00866399999997,0.7731439999999932,8914
40.68466399999997,0.7731439999999932,8946
40.36066399999997,0.1251439999999934,9024
39.712663999999975,-0.5228560000000062,8923
38.41666399999998,-0.5228560000000062,8935
39.06466399999998,-0.5228560000000062,9057
38.74066399999998,-1.170856000000006,8943
41.332663999999966,0.7731439999999932,8974
41.65666399999997,2.717143999999992,8574
41.65666399999997,2.0691439999999925,8597
41.332663999999966,0.1251439999999934,8932
41.332663999999966,-0.5228560000000062,8876
41.65666399999997,-4.410856000000004,8646
40.03666399999997,-2.4668560000000053,8884
41.00866399999997,-4.410856000000004,8767
43.276663999999954,-5.706856000000004,8848
39.38866399999998,-1.170856000000006,8909
38.09266399999999,-1.170856000000006,9322
38.74066399999998,-0.5228560000000062,9085
37.76866399999999,-1.170856000000006,9387
39.06466399999998,-1.8188560000000056,8907
39.38866399999998,-3.114856000000005,8807
39.38866399999998,-2.4668560000000053,8863
39.06466399999998,-2.4668560000000053,8890
39.06466399999998,-3.114856000000005,8811
39.06466399999998,-3.7628560000000046,8785
38.74066399999998,-3.7628560000000046,8864
40.03666399999997,-3.7628560000000046,8763
40.03666399999997,-3.114856000000005,8963
40.03666399999997,-1.8188560000000056,9044
39.712663999999975,-1.8188560000000056,9009
39.712663999999975,-1.170856000000006,8945
40.36066399999997,-1.170856000000006,8964
40.68466399999997,-1.170856000000006,8942
41.00866399999997,-1.170856000000006,8930
41.332663999999966,-1.170856000000006,8770
43.276663999999954,-8.298856000000002,9539
42.95266399999996,-8.298856000000002,9507
41.65666399999997,-5.706856000000004,65535
41.98066399999996,-7.002856000000003,65535
41.98066399999996,-6.354856000000003,65535
41.332663999999966,-5.058856000000004,8885
43.276663999999954,-3.7628560000000046,9320
42.95266399999996,-4.410856000000004,9254
42.62866399999996,-4.410856000000004,9244
42.30466399999996,-4.410856000000004,9203
41.00866399999997,-5.706856000000004,8823
41.332663999999966,-1.8188560000000056,8716
40.68466399999997,-3.114856000000005,8670
41.00866399999997,-3.114856000000005,8721
41.00866399999997,-2.4668560000000053,8744
41.332663999999966,-2.4668560000000053,8797
40.68466399999997,-4.410856000000004,8707
40.36066399999997,-4.410856000000004,8791
40.68466399999997,-3.7628560000000046,8699
40.36066399999997,-3.114856000000005,8677
41.65666399999997,-2.4668560000000053,8814
38.09266399999999,-3.7628560000000046,8911
38.74066399999998,-3.114856000000005,8855
37.76866399999999,-3.7628560000000046,8968
39.712663999999975,-3.114856000000005,8799
38.41666399999998,-3.7628560000000046,8876
40.03666399999997,-4.410856000000004,65535
40.03666399999997,-5.058856000000004,65535
39.38866399999998,-6.354856000000003,65535
39.38866399999998,-7.002856000000003,65535
42.95266399999996,-3.114856000000005,9448
41.98066399999996,-1.170856000000006,8811
42.30466399999996,-2.4668560000000053,8852
41.65666399999997,-0.5228560000000062,8909
41.98066399999996,-0.5228560000000062,8746
41.65666399999997,0.1251439999999934,8773
41.98066399999996,0.1251439999999934,8795
37.76866399999999,-5.058856000000004,8847
36.79666399999999,-4.410856000000004,8906
38.74066399999998,-4.410856000000004,8803
37.12066399999999,-4.410856000000004,8880
37.44466399999999,-5.058856000000004,9404
37.44466399999999,-7.002856000000003,65535
37.44466399999999,-6.354856000000003,65535
37.44466399999999,-5.706856000000004,9080
39.712663999999975,-3.7628560000000046,8873
42.62866399999996,-8.946856000000002,65535
42.30466399999996,-5.706856000000004,9225
42.30466399999996,-5.058856000000004,9310
42.95266399999996,-5.706856000000004,8750
41.00866399999997,-5.058856000000004,8791
40.68466399999997,-5.058856000000004,8765
41.65666399999997,-5.058856000000004,65535
41.65666399999997,-6.354856000000003,65535
36.79666399999999,-6.354856000000003,65535
37.12066399999999,-5.706856000000004,9248
37.76866399999999,-5.706856000000004,9047
38.09266399999999,-4.410856000000004,9182
37.12066399999999,-5.058856000000004,9202
36.79666399999999,-5.058856000000004,9160
37.76866399999999,-4.410856000000004,65535
37.76866399999999,-7.002856000000003,65535
38.41666399999998,-6.354856000000003,65535
38.09266399999999,-6.354856000000003,65535
48.78466399999992,1.4211439999999929,361
56.23666399999988,8.54914399999999,7090
55.58866399999988,9.197143999999987,6895
55.91266399999988,9.197143999999987,7036
55.26466399999988,10.493143999999988,1074
55.91266399999988,12.437143999999988,1209
55.58866399999988,11.789143999999988,6735
55.58866399999988,11.141143999999988,6776
55.26466399999988,11.789143999999988,6768
55.58866399999988,10.493143999999988,6891
55.58866399999988,13.085143999999987,1166
56.88466399999987,9.845143999999989,7042
57.20866399999987,9.845143999999989,7077
56.56066399999988,9.845143999999989,7014
56.88466399999987,8.54914399999999,7129
54.940663999999884,9.845143999999989,8236
54.940663999999884,11.789143999999988,6992
55.91266399999988,13.085143999999987,1224
56.23666399999988,13.733143999999989,1268
55.91266399999988,13.733143999999989,1271
56.23666399999988,14.381143999999988,1291
56.23666399999988,15.029143999999986,1332
56.23666399999988,15.677143999999986,1387
56.56066399999988,14.381143999999988,1348
56.88466399999987,14.381143999999988,1318
56.23666399999988,13.085143999999987,1216
56.56066399999988,13.085143999999987,1296
56.88466399999987,12.437143999999988,1333
57.20866399999987,12.437143999999988,1349
57.53266399999987,12.437143999999988,1364
56.88466399999987,15.029143999999986,1344
56.56066399999988,15.677143999999986,1404
56.88466399999987,15.677143999999986,1423
56.88466399999987,16.325143999999987,1438
55.91266399999988,11.789143999999988,7061
57.20866399999987,10.493143999999988,7264
49.43266399999992,1.4211439999999929,291
49.75666399999992,0.7731439999999932,289
49.75666399999992,2.0691439999999925,187
50.08066399999991,2.717143999999992,163
49.75666399999992,1.4211439999999929,240
47.81266399999993,1.4211439999999929,354
48.136663999999925,2.0691439999999925,549
48.46066399999992,2.0691439999999925,391
48.136663999999925,1.4211439999999929,293
48.78466399999992,0.1251439999999934,334
48.46066399999992,0.1251439999999934,335
47.81266399999993,0.1251439999999934,423
46.84066399999993,-0.5228560000000062,445
47.16466399999993,0.7731439999999932,443
46.84066399999993,0.1251439999999934,479
46.84066399999993,-1.170856000000006,479
50.08066399999991,1.4211439999999929,147
50.08066399999991,2.0691439999999925,164
49.43266399999992,2.717143999999992,192
49.75666399999992,3.365143999999992,190
50.08066399999991,3.365143999999992,117
49.10866399999992,2.0691439999999925,241
49.43266399999992,2.0691439999999925,223
48.78466399999992,0.7731439999999932,423
48.78466399999992,-0.5228560000000062,497
48.78466399999992,-1.170856000000006,529
48.136663999999925,0.7731439999999932,300
48.46066399999992,0.7731439999999932,272
43.92466399999995,5.957143999999991,604
44.24866399999995,5.957143999999991,645
43.92466399999995,5.309143999999991,401
42.95266399999996,2.717143999999992,498
45.54466399999994,2.0691439999999925,619
45.22066399999994,2.0691439999999925,576
42.95266399999996,2.0691439999999925,600
42.95266399999996,0.7731439999999932,594
43.276663999999954,0.7731439999999932,567
46.19266399999994,0.7731439999999932,627
46.516663999999935,0.7731439999999932,609
45.86866399999994,0.1251439999999934,534
46.19266399999994,0.1251439999999934,520
47.81266399999993,-1.170856000000006,530
48.136663999999925,-2.4668560000000053,529
47.48866399999993,-1.8188560000000056,418
47.16466399999993,-1.170856000000006,389
47.16466399999993,-0.5228560000000062,529
46.84066399999993,-1.8188560000000056,464
45.22066399999994,-0.5228560000000062,407
44.89666399999994,0.1251439999999934,421
45.22066399999994,0.7731439999999932,440
45.54466399999994,0.7731439999999932,474
45.86866399999994,0.7731439999999932,586
45.22066399999994,0.1251439999999934,435
44.89666399999994,0.7731439999999932,540
43.92466399999995,-0.5228560000000062,479
43.92466399999995,-1.170856000000006,450
44.24866399999995,-1.170856000000006,447
45.22066399999994,-1.170856000000006,498
44.572663999999946,-0.5228560000000062,407
44.24866399999995,0.1251439999999934,495
44.572663999999946,0.7731439999999932,564
43.276663999999954,-1.170856000000006,472
42.95266399999996,-0.5228560000000062,637
44.24866399999995,2.0691439999999925,610
43.60066399999995,0.7731439999999932,551
43.60066399999995,2.0691439999999925,498
52.6726639999999,4.661143999999991,7081
52.6726639999999,5.309143999999991,7104
51.700663999999904,5.309143999999991,7049
52.0246639999999,5.309143999999991,7061
52.3486639999999,5.309143999999991,7077
51.37666399999991,4.013143999999992,7057
52.3486639999999,5.957143999999991,7071
52.0246639999999,6.60514399999999,7101
52.6726639999999,5.957143999999991,7088
52.996663999999896,5.957143999999991,7101
53.32066399999989,5.957143999999991,7095
52.996663999999896,6.60514399999999,7077
53.32066399999989,6.60514399999999,7069
52.6726639999999,6.60514399999999,7097
52.996663999999896,5.309143999999991,7116
59.15266399999986,24.101143999999977,65535
56.88466399999987,24.101143999999977,65535
56.88466399999987,23.45314399999998,65535
56.88466399999987,22.805143999999984,65535
57.20866399999987,24.74914399999998,65535
56.88466399999987,24.74914399999998,65535
56.56066399999988,24.74914399999998,65535
56.56066399999988,25.397143999999983,65535
56.56066399999988,24.101143999999977,65535
56.56066399999988,23.45314399999998,65535
56.56066399999988,26.04514399999998,65535
56.88466399999987,26.04514399999998,65535
57.20866399999987,25.397143999999983,65535
57.53266399999987,25.397143999999983,65535
56.23666399999988,26.04514399999998,65535
56.23666399999988,26.69314399999997,65535
55.91266399999988,26.69314399999997,65535
56.56066399999988,26.69314399999997,65535
56.56066399999988,27.34114399999998,65535
56.56066399999988,27.989143999999985,65535
56.23666399999988,27.989143999999985,65535
55.91266399999988,27.34114399999998,65535
56.56066399999988,22.805143999999984,65535
56.56066399999988,22.15714399999998,65535
56.56066399999988,21.50914399999997,65535
57.20866399999987,26.69314399999997,65535
39.06466399999998,-8.946856000000002,65535
38.41666399999998,-8.298856000000002,65535
45.86866399999994,11.789143999999988,628
46.19266399999994,11.789143999999988,615
46.19266399999994,10.493143999999988,655
45.22066399999994,18.269143999999983,631
45.22066399999994,18.917143999999983,672
45.54466399999994,16.973143999999984,496
45.22066399999994,17.621143999999987,557
45.86866399999994,16.325143999999987,415
45.54466399999994,18.917143999999983,694
45.54466399999994,16.325143999999987,435
45.54466399999994,18.269143999999983,689
44.89666399999994,18.917143999999983,730
46.19266399999994,16.973143999999984,481
46.19266399999994,16.325143999999987,468
45.86866399999994,16.973143999999984,491
45.86866399999994,17.621143999999987,524
46.19266399999994,15.677143999999986,395
46.516663999999935,16.325143999999987,453
45.54466399999994,15.677143999999986,479
45.22066399999994,15.029143999999986,475
45.54466399999994,15.029143999999986,455
45.22066399999994,15.677143999999986,542
44.572663999999946,15.677143999999986,619
44.24866399999995,15.677143999999986,640
43.92466399999995,16.325143999999987,704
44.89666399999994,15.677143999999986,583
45.54466399999994,17.621143999999987,632
45.22066399999994,16.325143999999987,543
46.516663999999935,16.973143999999984,495
45.86866399999994,18.269143999999983,715
43.92466399999995,15.677143999999986,806
45.22066399999994,13.733143999999989,581
47.48866399999993,19.565143999999982,697
47.16466399999993,18.917143999999983,698
47.81266399999993,18.917143999999983,676
45.54466399999994,9.845143999999989,259
45.22066399999994,9.845143999999989,268
45.22066399999994,10.493143999999988,318
45.86866399999994,9.845143999999989,279
45.86866399999994,10.493143999999988,1398
48.78466399999992,21.50914399999997,1215
49.10866399999992,20.213143999999986,889
49.10866399999992,18.917143999999983,546
48.46066399999992,17.621143999999987,587
49.43266399999992,17.621143999999987,493
49.10866399999992,17.621143999999987,1312
48.136663999999925,18.269143999999983,618
49.10866399999992,18.269143999999983,567
49.43266399999992,18.269143999999983,524
49.43266399999992,16.973143999999984,471
49.75666399999992,16.973143999999984,441
49.75666399999992,16.325143999999987,419
50.08066399999991,15.677143999999986,336
50.08066399999991,15.029143999999986,323
49.43266399999992,18.917143999999983,535
47.81266399999993,20.86114399999998,1435
48.136663999999925,20.86114399999998,1380
48.46066399999992,20.86114399999998,1284
48.46066399999992,21.50914399999997,1170
49.10866399999992,19.565143999999982,580
48.136663999999925,17.621143999999987,566
48.78466399999992,22.15714399999998,1390
48.78466399999992,20.86114399999998,1439
49.10866399999992,20.86114399999998,927
48.78466399999992,18.269143999999983,578
48.78466399999992,17.621143999999987,629
49.10866399999992,21.50914399999997,1231
48.78466399999992,20.213143999999986,1305
48.46066399999992,20.213143999999986,1246
48.136663999999925,19.565143999999982,1218
48.46066399999992,19.565143999999982,1180
48.46066399999992,18.917143999999983,694
48.46066399999992,18.269143999999983,623
48.78466399999992,19.565143999999982,889
48.78466399999992,18.917143999999983,688
47.81266399999993,18.269143999999983,655
49.10866399999992,22.15714399999998,1340
49.43266399999992,21.50914399999997,1294
48.136663999999925,18.917143999999983,699
48.136663999999925,20.213143999999986,1267
52.636,-8.018,65535
52.312,-7.370000000000001,65535
52.312,-8.018,65535
52.636,-8.666,65535
51.988,-8.666,65535
51.988,-8.018,65535
52.96,-8.666,65535
52.96,-6.074000000000002,65535
53.28399999999999,-6.722000000000001,65535
53.60799999999999,-6.722000000000001,65535
53.60799999999999,-7.370000000000001,65535
53.60799999999999,-8.018,65535
54.25599999999999,-8.666,65535
53.93199999999999,-8.666,65535
53.93199999999999,-8.018,65535
52.312,-6.722000000000001,65535
52.636,-6.722000000000001,65535
53.93199999999999,-6.722000000000001,65535
54.25599999999999,-6.074000000000002,65535
53.28399999999999,-7.370000000000001,65535
52.96,-7.370000000000001,65535
52.312,-8.666,65535
52.96,-8.018,65535
52.636,-7.370000000000001,65535
52.96,-6.722000000000001,65535
51.988,-9.314,65535
52.312,-9.314,65535
54.579999999999984,-6.722000000000001,65535
54.579999999999984,-6.074000000000002,65535
53.28399999999999,-8.018,65535
53.28399999999999,-8.666,65535
53.28399999999999,-9.314,65535
53.93199999999999,-9.314,65535
54.25599999999999,-9.314,65535
53.60799999999999,-8.666,65535
53.60799999999999,-9.314,65535
49.43266399999992,14.381143999999988,335
49.75666399999992,14.381143999999988,320
49.75666399999992,15.029143999999986,335
49.75666399999992,13.733143999999989,357
50.08066399999991,13.733143999999989,349
49.75666399999992,15.677143999999986,357
50.40466399999991,15.029143999999986,336
49.43266399999992,13.733143999999989,366
50.40466399999991,15.677143999999986,347
50.40466399999991,13.733143999999989,347
46.19266399999994,15.029143999999986,389
45.86866399999994,15.029143999999986,416
45.86866399999994,14.381143999999988,409
46.19266399999994,13.733143999999989,422
45.86866399999994,13.733143999999989,508
58.50466399999986,13.733143999999989,1442
58.180663999999865,13.733143999999989,1446
58.180663999999865,13.085143999999987,1418
57.85666399999987,12.437143999999988,1384
60.44866399999985,15.677143999999986,1667
60.124663999999854,15.677143999999986,1601
60.124663999999854,16.325143999999987,1639
59.800663999999855,16.325143999999987,1567
59.800663999999855,17.621143999999987,1546
59.47666399999986,18.269143999999983,1528
61.74466399999984,16.973143999999984,1678
61.420663999999846,16.973143999999984,1651
60.77266399999985,16.973143999999984,1603
65.63266399999982,22.15714399999998,2782
65.95666399999982,21.50914399999997,2742
65.63266399999982,20.86114399999998,2713
64.98466399999982,20.213143999999986,2645
64.66066399999983,20.213143999999986,2623
64.33666399999983,19.565143999999982,2317
64.01266399999983,19.565143999999982,2030
63.68866399999983,20.213143999999986,1983
64.66066399999983,18.917143999999983,2994
59.15266399999986,16.325143999999987,1503
59.15266399999986,15.029143999999986,1495
59.15266399999986,17.621143999999987,1520
57.53266399999987,14.381143999999988,1344
57.53266399999987,15.029143999999986,1364
61.09666399999985,14.381143999999988,1771
60.77266399999985,15.029143999999986,1722
60.44866399999985,15.029143999999986,1708
58.180663999999865,15.029143999999986,1421
58.50466399999986,16.325143999999987,1455
58.50466399999986,15.677143999999986,1428
63.36466399999984,13.085143999999987,2015
63.04066399999984,14.381143999999988,1952
62.39266399999984,15.677143999999986,1874
63.36466399999984,13.733143999999989,1997
63.36466399999984,14.381143999999988,1969
62.71666399999984,15.677143999999986,1902
62.39266399999984,17.621143999999987,1736
59.800663999999855,15.677143999999986,2013
55.58866399999988,13.733143999999989,1298
57.20866399999987,14.381143999999988,1328
57.85666399999987,14.381143999999988,1376
58.82866399999986,16.973143999999984,1512
58.82866399999986,16.325143999999987,1490
59.15266399999986,18.269143999999983,1524
60.44866399999985,17.621143999999987,1579
59.15266399999986,12.437143999999988,1483
59.15266399999986,13.085143999999987,1497
58.82866399999986,12.437143999999988,1459
59.47666399999986,16.325143999999987,1529
58.82866399999986,14.381143999999988,1536
59.47666399999986,15.677143999999986,1518
63.36466399999984,18.917143999999983,1936
63.04066399999984,17.621143999999987,1891
62.71666399999984,17.621143999999987,1865
63.68866399999983,19.565143999999982,1969
62.39266399999984,16.973143999999984,1780
59.800663999999855,16.973143999999984,1555
59.47666399999986,17.621143999999987,1532
57.85666399999987,13.085143999999987,1408
57.53266399999987,13.085143999999987,1389
58.50466399999986,11.789143999999988,1430
57.85666399999987,15.029143999999986,1410
57.20866399999987,13.733143999999989,1334
57.53266399999987,13.733143999999989,1395
61.74466399999984,16.325143999999987,1774
61.420663999999846,16.325143999999987,1741
61.09666399999985,16.325143999999987,1730
61.09666399999985,16.973143999999984,1698
60.124663999999854,15.029143999999986,1876
66.60466399999981,20.86114399999998,2817
67.25266399999981,20.86114399999998,2885
67.90066399999981,20.213143999999986,2955
67.57666399999981,20.213143999999986,3580
59.800663999999855,15.029143999999986,1596
58.50466399999986,15.029143999999986,1438
59.47666399999986,15.029143999999986,1581
60.44866399999985,16.325143999999987,1667
59.15266399999986,15.677143999999986,1525
57.85666399999987,13.733143999999989,1436
58.82866399999986,13.733143999999989,1483
58.50466399999986,13.085143999999987,1468
57.20866399999987,13.085143999999987,1365
56.88466399999987,13.085143999999987,1339
58.180663999999865,11.789143999999988,1401
62.06866399999984,16.973143999999984,1769
65.95666399999982,23.45314399999998,2823
59.800663999999855,14.381143999999988,5891
59.800663999999855,18.269143999999983,1537
63.04066399999984,15.029143999999986,1920
62.71666399999984,15.029143999999986,1910
62.39266399999984,16.325143999999987,1843
63.36466399999984,12.437143999999988,2048
68.5486639999998,17.621143999999987,3168
68.5486639999998,18.269143999999983,3101
68.5486639999998,18.917143999999983,3078
68.2246639999998,18.917143999999983,3034
59.800663999999855,13.085143999999987,1600
60.124663999999854,13.085143999999987,1639
59.47666399999986,16.973143999999984,1541
59.15266399999986,16.973143999999984,1533
56.56066399999988,13.733143999999989,1286
60.124663999999854,17.621143999999987,1556
57.85666399999987,16.325143999999987,1515
58.180663999999865,16.325143999999987,1477
58.180663999999865,15.677143999999986,1485
57.20866399999987,16.325143999999987,1527
57.53266399999987,15.677143999999986,1545
57.85666399999987,15.677143999999986,1516
44.89666399999994,23.45314399999998,2965
44.572663999999946,23.45314399999998,3035
44.89666399999994,24.74914399999998,2952
44.572663999999946,24.74914399999998,3071
44.572663999999946,24.101143999999977,3012
44.24866399999995,24.101143999999977,3041
47.48866399999993,25.397143999999983,2813
47.48866399999993,24.74914399999998,2753
47.16466399999993,24.74914399999998,2675
47.16466399999993,24.101143999999977,2577
47.48866399999993,22.15714399999998,2707
47.81266399999993,22.15714399999998,2793
47.16466399999993,22.15714399999998,2686
47.16466399999993,23.45314399999998,2738
47.16466399999993,22.805143999999984,2744
46.84066399999993,24.101143999999977,2658
45.86866399999994,27.34114399999998,2998
45.54466399999994,27.34114399999998,2979
45.54466399999994,27.989143999999985,3095
45.86866399999994,20.86114399999998,2870
45.86866399999994,21.50914399999997,2878
46.19266399999994,21.50914399999997,2814
46.19266399999994,27.34114399999998,2998
46.19266399999994,26.69314399999997,2989
46.516663999999935,26.69314399999997,2951
46.516663999999935,26.04514399999998,2847
47.48866399999993,22.805143999999984,2805
46.84066399999993,22.805143999999984,2618
45.54466399999994,22.15714399999998,2927
45.22066399999994,22.15714399999998,3005
44.89666399999994,22.15714399999998,3423
47.48866399999993,23.45314399999998,2771
46.516663999999935,24.101143999999977,2497
46.516663999999935,24.74914399999998,2711
45.86866399999994,24.101143999999977,2660
47.16466399999993,26.69314399999997,3029
47.16466399999993,27.34114399999998,3084
43.92466399999995,25.397143999999983,3043
44.24866399999995,24.74914399999998,2950
44.89666399999994,26.04514399999998,2837
44.89666399999994,26.69314399999997,2884
45.22066399999994,26.69314399999997,2919
45.22066399999994,27.34114399999998,2946
46.84066399999993,26.69314399999997,2990
47.48866399999993,26.69314399999997,2983
44.24866399999995,25.397143999999983,2882
43.92466399999995,26.04514399999998,3059
46.19266399999994,24.101143999999977,2705
44.572663999999946,25.397143999999983,2920
46.84066399999993,24.74914399999998,2718
46.516663999999935,21.50914399999997,2818
46.84066399999993,21.50914399999997,2825
44.572663999999946,26.69314399999997,2875
44.572663999999946,27.34114399999998,2896
44.89666399999994,27.34114399999998,3011
44.572663999999946,27.989143999999985,2916
44.24866399999995,27.989143999999985,2930
44.572663999999946,28.63714399999997,2981
45.86866399999994,22.15714399999998,2739
45.86866399999994,22.805143999999984,2633
44.24866399999995,23.45314399999998,3068
43.92466399999995,27.989143999999985,65535
46.84066399999993,27.34114399999998,3151
45.22066399999994,23.45314399999998,2940
45.54466399999994,23.45314399999998,2743
45.54466399999994,24.101143999999977,2690
45.22066399999994,24.101143999999977,2914
44.89666399999994,24.101143999999977,2984
46.19266399999994,22.15714399999998,2870
46.516663999999935,22.15714399999998,2836
45.22066399999994,21.50914399999997,3110
45.54466399999994,21.50914399999997,2958
45.54466399999994,20.86114399999998,2982
46.516663999999935,27.989143999999985,3101
46.19266399999994,27.989143999999985,3086
45.54466399999994,25.397143999999983,2804
45.22066399999994,25.397143999999983,2814
45.22066399999994,26.04514399999998,2870
47.81266399999993,24.101143999999977,2866
47.48866399999993,26.04514399999998,2956
47.81266399999993,26.04514399999998,2978
46.19266399999994,23.45314399999998,2537
45.86866399999994,23.45314399999998,2586
44.24866399999995,26.04514399999998,2864
45.22066399999994,27.989143999999985,3076
45.86866399999994,24.74914399999998,2699
46.516663999999935,25.397143999999983,2891
46.84066399999993,25.397143999999983,2774
46.19266399999994,26.04514399999998,2862
45.86866399999994,26.04514399999998,2827
43.92466399999995,23.45314399999998,3298
44.89666399999994,25.397143999999983,2925
46.19266399999994,20.86114399999998,2859
47.81266399999993,25.397143999999983,2990
44.572663999999946,22.805143999999984,3303
44.572663999999946,22.15714399999998,3445
46.516663999999935,23.45314399999998,2676
45.86866399999994,25.397143999999983,2753
44.24866399999995,27.34114399999998,3691
45.22066399999994,24.74914399999998,3016
45.54466399999994,22.805143999999984,2706
45.22066399999994,28.63714399999997,3136
44.89666399999994,28.63714399999997,3075
47.81266399999993,23.45314399999998,2923
46.19266399999994,24.74914399999998,2785
46.19266399999994,25.397143999999983,2809
43.92466399999995,24.101143999999977,3261
43.92466399999995,24.74914399999998,3274
47.81266399999993,26.69314399999997,3205
47.48866399999993,24.101143999999977,2798
46.84066399999993,26.04514399999998,3606
46.19266399999994,22.805143999999984,2930
47.48866399999993,27.34114399999998,3158
46.19266399999994,20.213143999999986,65535
45.54466399999994,26.04514399999998,2962
44.24866399999995,26.69314399999997,2880
45.86866399999994,27.989143999999985,3134
47.81266399999993,5.957143999999991,7066
