51.56399999999999,-0.4100000000000028,65535
51.887999999999984,-0.4100000000000028,65535
50.91599999999999,-1.7060000000000022,65535
51.23999999999999,-1.0580000000000025,65535
51.56399999999999,-1.0580000000000025,65535
51.23999999999999,-1.7060000000000022,65535
51.56399999999999,0.2379999999999968,65535
47.16466399999993,9.845143999999989,969
47.48866399999993,9.845143999999989,947
48.136663999999925,14.381143999999988,1060
47.81266399999993,13.085143999999987,969
47.16466399999993,11.141143999999988,1010
47.48866399999993,11.789143999999988,1157
48.136663999999925,16.325143999999987,1173
47.48866399999993,12.437143999999988,953
48.136663999999925,15.677143999999986,1123
47.16466399999993,10.493143999999988,1018
47.16466399999993,9.197143999999987,943
48.136663999999925,13.733143999999989,1035
48.136663999999925,15.029143999999986,1064
47.81266399999993,16.973143999999984,1195
48.46066399999992,14.381143999999988,978
47.48866399999993,13.085143999999987,959
47.16466399999993,13.085143999999987,970
47.48866399999993,14.381143999999988,1031
47.48866399999993,13.733143999999989,964
47.48866399999993,15.029143999999986,1089
46.516663999999935,13.733143999999989,1187
46.84066399999993,13.733143999999989,1156
46.84066399999993,13.085143999999987,1141
48.78466399999992,14.381143999999988,65535
47.16466399999993,15.677143999999986,1257
46.516663999999935,14.381143999999988,1194
46.84066399999993,14.381143999999988,1161
47.16466399999993,14.381143999999988,1205
46.516663999999935,15.029143999999986,1207
47.81266399999993,16.325143999999987,1192
47.16466399999993,15.029143999999986,1180
47.81266399999993,15.677143999999986,1438
47.48866399999993,15.677143999999986,1233
46.516663999999935,13.085143999999987,1454
46.84066399999993,12.437143999999988,1199
48.136663999999925,11.789143999999988,930
47.81266399999993,12.437143999999988,942
46.84066399999993,15.677143999999986,1283
46.516663999999935,15.677143999999986,1300
46.84066399999993,16.325143999999987,1304
47.81266399999993,14.381143999999988,1165
48.78466399999992,16.973143999999984,1252
48.136663999999925,16.973143999999984,1186
48.46066399999992,13.733143999999989,960
47.81266399999993,13.733143999999989,1154
50.08066399999991,8.54914399999999,797
48.46066399999992,9.845143999999989,902
51.05266399999991,7.25314399999999,517
51.37666399999991,7.25314399999999,513
51.37666399999991,6.60514399999999,525
48.46066399999992,16.325143999999987,1169
48.46066399999992,16.973143999999984,1209
48.78466399999992,16.325143999999987,1190
48.46066399999992,15.677143999999986,1138
48.78466399999992,15.677143999999986,1173
47.48866399999993,16.325143999999987,1202
47.16466399999993,16.325143999999987,1251
46.19266399999994,14.381143999999988,1252
45.86866399999994,15.677143999999986,1304
43.60066399999995,16.325143999999987,1720
45.54466399999994,14.381143999999988,1366
45.54466399999994,13.733143999999989,1389
48.136663999999925,13.085143999999987,1016
48.46066399999992,11.141143999999988,921
48.136663999999925,11.141143999999988,931
48.46066399999992,7.90114399999999,874
49.10866399999992,8.54914399999999,837
48.78466399999992,2.0691439999999925,938
49.10866399999992,7.25314399999999,871
52.0246639999999,7.90114399999999,489
47.16466399999993,11.789143999999988,1030
49.43266399999992,11.141143999999988,885
53.64466399999989,9.845143999999989,815
50.72866399999991,4.013143999999992,847
51.05266399999991,11.141143999999988,912
47.48866399999993,11.141143999999988,968
46.84066399999993,11.789143999999988,1622
46.516663999999935,11.141143999999988,1591
45.54466399999994,11.141143999999988,1485
46.19266399999994,11.141143999999988,1557
45.86866399999994,11.141143999999988,1541
44.572663999999946,11.141143999999988,1332
43.92466399999995,12.437143999999988,3965
45.54466399999994,12.437143999999988,1572
45.54466399999994,11.789143999999988,1535
48.78466399999992,15.029143999999986,1212
47.81266399999993,15.029143999999986,1110
47.81266399999993,11.141143999999988,949
50.40466399999991,18.917143999999983,1101
52.3486639999999,20.86114399999998,1311
54.616663999999886,18.269143999999983,1467
54.29266399999989,18.917143999999983,1477
49.10866399999992,14.381143999999988,65535
50.08066399999991,14.381143999999988,1050
48.78466399999992,13.733143999999989,1736
52.6726639999999,13.085143999999987,955
52.3486639999999,13.085143999999987,952
53.96866399999989,12.437143999999988,985
54.29266399999989,12.437143999999988,997
47.48866399999993,8.54914399999999,936
47.81266399999993,17.621143999999987,1279
47.48866399999993,18.917143999999983,1340
47.48866399999993,20.86114399999998,1801
46.84066399999993,23.45314399999998,3358
44.572663999999946,26.04514399999998,3864
47.48866399999993,21.50914399999997,1835
47.81266399999993,21.50914399999997,1868
48.46066399999992,22.15714399999998,1417
47.48866399999993,16.973143999999984,65535
49.10866399999992,16.325143999999987,1207
49.75666399999992,18.269143999999983,1264
46.19266399999994,13.085143999999987,2303
41.98066399999996,12.437143999999988,2565
43.60066399999995,10.493143999999988,2726
45.54466399999994,9.197143999999987,1088
47.81266399999993,22.805143999999984,4099
49.75666399999992,22.805143999999984,1460
50.72866399999991,3.365143999999992,875
51.05266399999991,4.013143999999992,851
50.72866399999991,4.661143999999991,846
51.05266399999991,4.661143999999991,851
51.05266399999991,3.365143999999992,868
51.05266399999991,2.717143999999992,890
50.40466399999991,4.661143999999991,839
50.72866399999991,2.717143999999992,884
50.40466399999991,4.013143999999992,845
51.05266399999991,5.309143999999991,855
50.72866399999991,5.309143999999991,829
51.37666399999991,3.365143999999992,876
51.37666399999991,4.661143999999991,860
50.72866399999991,5.957143999999991,570
50.40466399999991,5.957143999999991,824
50.40466399999991,3.365143999999992,851
50.40466399999991,5.309143999999991,837
50.08066399999991,5.309143999999991,851
49.75666399999992,5.309143999999991,868
49.75666399999992,5.957143999999991,871
51.37666399999991,5.309143999999991,922
51.700663999999904,4.661143999999991,878
50.08066399999991,4.013143999999992,863
50.08066399999991,5.957143999999991,921
50.08066399999991,4.661143999999991,858
49.43266399999992,5.309143999999991,897
49.43266399999992,5.957143999999991,893
52.0246639999999,4.661143999999991,950
52.3486639999999,4.661143999999991,979
50.72866399999991,15.029143999999986,979
51.05266399999991,15.029143999999986,971
51.05266399999991,13.733143999999989,938
50.40466399999991,13.085143999999987,945
49.10866399999992,7.90114399999999,845
48.78466399999992,7.90114399999999,858
50.40466399999991,7.90114399999999,790
50.08066399999991,7.90114399999999,793
49.75666399999992,7.90114399999999,810
49.43266399999992,7.90114399999999,835
49.75666399999992,8.54914399999999,805
49.43266399999992,8.54914399999999,817
49.43266399999992,9.197143999999987,859
49.10866399999992,9.197143999999987,863
47.48866399999993,7.90114399999999,935
47.81266399999993,7.90114399999999,926
48.136663999999925,7.90114399999999,891
48.136663999999925,9.845143999999989,913
47.81266399999993,9.197143999999987,928
47.81266399999993,8.54914399999999,914
47.81266399999993,9.845143999999989,934
54.940663999999884,9.197143999999987,923
54.616663999999886,9.197143999999987,900
54.29266399999989,9.197143999999987,908
53.96866399999989,9.197143999999987,950
53.64466399999989,9.197143999999987,828
54.616663999999886,9.845143999999989,892
54.29266399999989,9.845143999999989,881
53.96866399999989,9.845143999999989,838
53.64466399999989,10.493143999999988,822
53.96866399999989,10.493143999999988,864
53.96866399999989,11.141143999999988,915
54.29266399999989,10.493143999999988,898
53.32066399999989,10.493143999999988,843
54.940663999999884,11.141143999999988,1009
52.6726639999999,13.733143999999989,957
52.3486639999999,13.733143999999989,956
52.3486639999999,14.381143999999988,967
52.0246639999999,14.381143999999988,980
52.0246639999999,11.789143999999988,875
52.3486639999999,11.789143999999988,885
52.3486639999999,12.437143999999988,938
52.0246639999999,15.029143999999986,1003
51.700663999999904,14.381143999999988,997
52.0246639999999,13.733143999999989,975
51.700663999999904,13.733143999999989,972
52.6726639999999,12.437143999999988,949
53.32066399999989,11.789143999999988,935
53.96866399999989,11.789143999999988,965
53.64466399999989,11.789143999999988,946
53.64466399999989,11.141143999999988,942
53.32066399999989,11.141143999999988,915
52.996663999999896,11.789143999999988,932
52.996663999999896,12.437143999999988,984
52.996663999999896,13.733143999999989,973
53.64466399999989,13.733143999999989,1057
53.96866399999989,13.733143999999989,1070
54.29266399999989,13.085143999999987,1022
53.96866399999989,13.085143999999987,1043
53.32066399999989,13.733143999999989,1067
52.0246639999999,13.085143999999987,911
51.700663999999904,13.085143999999987,915
52.996663999999896,14.381143999999988,1003
52.0246639999999,12.437143999999988,900
51.700663999999904,12.437143999999988,893
51.37666399999991,11.789143999999988,901
51.37666399999991,12.437143999999988,915
52.6726639999999,11.789143999999988,901
53.64466399999989,13.085143999999987,1063
53.32066399999989,13.085143999999987,1062
52.996663999999896,13.085143999999987,998
53.64466399999989,12.437143999999988,1002
51.37666399999991,13.733143999999989,925
53.32066399999989,12.437143999999988,1016
52.6726639999999,14.381143999999988,972
51.37666399999991,13.085143999999987,923
53.32066399999989,14.381143999999988,1036
52.3486639999999,15.029143999999986,977
52.0246639999999,15.677143999999986,1010
51.700663999999904,15.029143999999986,1085
51.05266399999991,16.325143999999987,1026
51.05266399999991,16.973143999999984,1030
51.700663999999904,15.677143999999986,1083
51.37666399999991,15.677143999999986,996
51.37666399999991,16.325143999999987,1055
50.72866399999991,13.085143999999987,934
50.72866399999991,12.437143999999988,929
51.05266399999991,13.085143999999987,943
51.05266399999991,14.381143999999988,941
50.40466399999991,12.437143999999988,918
50.40466399999991,11.789143999999988,910
50.08066399999991,12.437143999999988,919
50.72866399999991,11.789143999999988,919
51.05266399999991,12.437143999999988,920
50.72866399999991,14.381143999999988,1034
51.37666399999991,14.381143999999988,951
50.72866399999991,13.733143999999989,957
50.40466399999991,14.381143999999988,1029
51.37666399999991,15.029143999999986,961
55.26466399999988,9.197143999999987,1788
55.58866399999988,8.54914399999999,3082
55.91266399999988,8.54914399999999,6559
56.23666399999988,9.197143999999987,6567
56.23666399999988,10.493143999999988,6520
56.23666399999988,9.845143999999989,6507
55.91266399999988,9.845143999999989,6445
56.56066399999988,9.197143999999987,6577
56.56066399999988,8.54914399999999,6620
51.05266399999991,6.60514399999999,526
51.700663999999904,7.90114399999999,499
50.72866399999991,6.60514399999999,528
51.700663999999904,7.25314399999999,509
50.72866399999991,7.25314399999999,536
52.0246639999999,7.25314399999999,481
52.3486639999999,7.90114399999999,511
51.05266399999991,5.957143999999991,672
50.40466399999991,7.25314399999999,759
51.700663999999904,6.60514399999999,542
51.700663999999904,5.957143999999991,585
52.3486639999999,9.197143999999987,771
51.700663999999904,8.54914399999999,517
52.0246639999999,8.54914399999999,576
52.3486639999999,8.54914399999999,751
51.37666399999991,7.90114399999999,511
52.3486639999999,7.25314399999999,456
51.37666399999991,5.957143999999991,941
50.72866399999991,7.90114399999999,583
51.37666399999991,9.197143999999987,759
51.700663999999904,9.197143999999987,803
50.40466399999991,6.60514399999999,852
51.05266399999991,7.90114399999999,725
51.37666399999991,8.54914399999999,518
52.0246639999999,5.957143999999991,891
52.3486639999999,6.60514399999999,506
51.05266399999991,8.54914399999999,857
52.0246639999999,9.197143999999987,797
52.6726639999999,9.197143999999987,810
52.0246639999999,9.845143999999989,788
51.700663999999904,9.845143999999989,799
51.37666399999991,9.845143999999989,826
50.72866399999991,8.54914399999999,828
51.05266399999991,9.845143999999989,887
50.72866399999991,9.845143999999989,866
50.40466399999991,9.845143999999989,865
51.05266399999991,9.197143999999987,847
50.40466399999991,9.197143999999987,816
50.08066399999991,9.197143999999987,807
51.05266399999991,10.493143999999988,919
50.40466399999991,8.54914399999999,801
50.72866399999991,9.197143999999987,859
49.75666399999992,9.197143999999987,833
52.996663999999896,9.197143999999987,786
52.3486639999999,9.845143999999989,780
52.996663999999896,8.54914399999999,778
52.996663999999896,7.90114399999999,804
53.32066399999989,7.90114399999999,774
53.32066399999989,7.25314399999999,491
53.64466399999989,7.25314399999999,1018
52.996663999999896,10.493143999999988,863
52.6726639999999,10.493143999999988,856
52.6726639999999,9.845143999999989,810
53.32066399999989,9.845143999999989,809
53.32066399999989,9.197143999999987,805
53.64466399999989,8.54914399999999,838
53.32066399999989,8.54914399999999,795
52.6726639999999,8.54914399999999,768
52.0246639999999,10.493143999999988,812
52.0246639999999,11.141143999999988,847
51.700663999999904,11.141143999999988,1000
52.6726639999999,7.25314399999999,425
52.996663999999896,7.25314399999999,0
52.6726639999999,7.90114399999999,810
53.64466399999989,7.90114399999999,851
52.996663999999896,11.141143999999988,881
52.6726639999999,11.141143999999988,892
52.3486639999999,10.493143999999988,787
52.996663999999896,9.845143999999989,874
51.700663999999904,10.493143999999988,855
51.37666399999991,10.493143999999988,6588
51.700663999999904,11.789143999999988,882
52.3486639999999,11.141143999999988,829
51.37666399999991,11.141143999999988,944
51.05266399999991,11.789143999999988,916
49.10866399999992,11.141143999999988,895
48.78466399999992,11.141143999999988,911
48.46066399999992,11.789143999999988,923
49.43266399999992,11.789143999999988,888
50.08066399999991,11.789143999999988,896
49.75666399999992,12.437143999999988,917
49.10866399999992,11.789143999999988,909
48.78466399999992,12.437143999999988,923
48.46066399999992,12.437143999999988,945
49.10866399999992,12.437143999999988,912
48.78466399999992,13.085143999999987,938
48.136663999999925,12.437143999999988,949
47.81266399999993,11.789143999999988,937
48.136663999999925,10.493143999999988,914
47.81266399999993,10.493143999999988,967
48.78466399999992,10.493143999999988,876
47.48866399999993,10.493143999999988,963
48.46066399999992,10.493143999999988,906
49.43266399999992,13.085143999999987,938
48.46066399999992,13.085143999999987,948
49.43266399999992,10.493143999999988,886
49.75666399999992,9.845143999999989,856
49.75666399999992,10.493143999999988,871
50.40466399999991,11.141143999999988,902
50.08066399999991,11.141143999999988,887
50.72866399999991,11.141143999999988,905
49.75666399999992,11.141143999999988,878
48.78466399999992,11.789143999999988,959
50.40466399999991,10.493143999999988,880
50.08066399999991,9.845143999999989,863
50.08066399999991,10.493143999999988,873
49.43266399999992,12.437143999999988,926
49.75666399999992,11.789143999999988,886
49.10866399999992,13.085143999999987,997
50.72866399999991,10.493143999999988,931
49.10866399999992,10.493143999999988,891
48.78466399999992,9.845143999999989,865
48.46066399999992,8.54914399999999,864
48.46066399999992,9.197143999999987,866
48.78466399999992,9.197143999999987,860
48.78466399999992,8.54914399999999,844
50.08066399999991,7.25314399999999,815
49.75666399999992,6.60514399999999,853
49.43266399999992,6.60514399999999,890
49.10866399999992,6.60514399999999,885
49.43266399999992,7.25314399999999,868
49.75666399999992,7.25314399999999,813
49.10866399999992,5.957143999999991,901
48.78466399999992,7.25314399999999,877
50.08066399999991,6.60514399999999,850
47.48866399999993,9.197143999999987,936
48.136663999999925,8.54914399999999,894
48.136663999999925,9.197143999999987,901
47.81266399999993,7.25314399999999,912
49.43266399999992,9.845143999999989,884
49.10866399999992,9.845143999999989,871
53.64466399999989,14.381143999999988,1053
50.08066399999991,13.085143999999987,1002
49.75666399999992,13.085143999999987,1175
45.86866399999994,9.197143999999987,1078
46.19266399999994,9.197143999999987,1064
46.516663999999935,8.54914399999999,1010
46.516663999999935,9.197143999999987,1059
46.19266399999994,8.54914399999999,1061
47.16466399999993,8.54914399999999,937
45.86866399999994,4.661143999999991,1076
46.84066399999993,9.845143999999989,972
45.22066399999994,5.957143999999991,1124
45.22066399999994,5.309143999999991,1121
45.86866399999994,5.957143999999991,1080
45.54466399999994,5.957143999999991,1133
44.89666399999994,4.661143999999991,1091
44.89666399999994,5.309143999999991,1108
44.572663999999946,4.661143999999991,1116
44.24866399999995,4.661143999999991,1103
43.92466399999995,4.661143999999991,1099
46.19266399999994,7.25314399999999,992
48.78466399999992,5.957143999999991,905
48.136663999999925,6.60514399999999,913
48.46066399999992,6.60514399999999,909
48.78466399999992,6.60514399999999,891
47.16466399999993,7.90114399999999,940
48.136663999999925,7.25314399999999,898
48.46066399999992,7.25314399999999,878
46.516663999999935,6.60514399999999,1007
46.84066399999993,6.60514399999999,979
46.84066399999993,7.25314399999999,961
46.516663999999935,5.957143999999991,1033
46.19266399999994,5.957143999999991,1019
46.84066399999993,8.54914399999999,951
46.84066399999993,7.90114399999999,950
45.86866399999994,5.309143999999991,1059
46.19266399999994,6.60514399999999,1009
45.86866399999994,6.60514399999999,1020
47.48866399999993,6.60514399999999,958
47.48866399999993,7.25314399999999,929
47.16466399999993,7.25314399999999,945
49.10866399999992,4.013143999999992,960
49.75666399999992,4.661143999999991,897
49.43266399999992,4.661143999999991,944
49.10866399999992,5.309143999999991,930
46.19266399999994,4.661143999999991,1075
46.84066399999993,9.197143999999987,954
46.19266399999994,5.309143999999991,1089
46.516663999999935,5.309143999999991,1079
45.54466399999994,6.60514399999999,1183
45.54466399999994,5.309143999999991,1099
43.60066399999995,4.013143999999992,1130
43.60066399999995,3.365143999999992,1144
42.62866399999996,2.717143999999992,1212
43.276663999999954,2.717143999999992,1176
45.54466399999994,4.661143999999991,1083
45.22066399999994,4.661143999999991,1123
47.16466399999993,5.309143999999991,982
47.16466399999993,5.957143999999991,967
46.19266399999994,7.90114399999999,987
49.75666399999992,2.717143999999992,892
49.10866399999992,2.717143999999992,915
48.78466399999992,2.717143999999992,982
45.86866399999994,3.365143999999992,1181
46.84066399999993,3.365143999999992,1104
46.516663999999935,3.365143999999992,1146
46.19266399999994,3.365143999999992,1171
47.16466399999993,6.60514399999999,952
49.10866399999992,3.365143999999992,956
45.54466399999994,4.013143999999992,1094
46.516663999999935,7.25314399999999,988
47.16466399999993,4.661143999999991,1018
46.84066399999993,4.661143999999991,1030
46.516663999999935,4.661143999999991,1056
46.84066399999993,5.957143999999991,1039
47.81266399999993,3.365143999999992,1068
47.48866399999993,4.013143999999992,1025
48.136663999999925,4.013143999999992,1034
47.81266399999993,4.013143999999992,1035
47.48866399999993,4.661143999999991,1017
47.16466399999993,3.365143999999992,1165
46.84066399999993,4.013143999999992,1164
48.46066399999992,5.957143999999991,934
46.19266399999994,2.717143999999992,1210
47.16466399999993,2.0691439999999925,1032
46.516663999999935,2.717143999999992,1174
46.84066399999993,2.717143999999992,1144
46.84066399999993,2.0691439999999925,1087
47.16466399999993,2.717143999999992,1065
44.572663999999946,5.309143999999991,1132
44.572663999999946,5.957143999999991,1183
44.89666399999994,6.60514399999999,1227
44.572663999999946,6.60514399999999,1269
43.60066399999995,5.309143999999991,1122
43.92466399999995,7.25314399999999,1247
43.60066399999995,6.60514399999999,1234
43.276663999999954,6.60514399999999,1199
43.276663999999954,5.957143999999991,1156
45.86866399999994,8.54914399999999,1085
45.54466399999994,8.54914399999999,1092
48.136663999999925,3.365143999999992,1051
48.46066399999992,3.365143999999992,1002
48.46066399999992,2.717143999999992,1031
47.48866399999993,5.309143999999991,996
46.516663999999935,9.845143999999989,1004
46.84066399999993,10.493143999999988,2291
47.81266399999993,5.309143999999991,1047
45.22066399999994,6.60514399999999,1183
46.19266399999994,4.013143999999992,1144
45.86866399999994,4.013143999999992,1107
45.22066399999994,4.013143999999992,1103
44.89666399999994,4.013143999999992,1161
46.84066399999993,5.309143999999991,1050
48.136663999999925,-1.8188560000000056,1045
48.136663999999925,0.1251439999999934,993
48.136663999999925,-0.5228560000000062,1009
47.48866399999993,-0.5228560000000062,1031
47.16466399999993,-1.8188560000000056,1070
47.48866399999993,0.7731439999999932,1026
47.16466399999993,0.1251439999999934,1037
45.86866399999994,7.25314399999999,1039
48.136663999999925,5.309143999999991,1077
49.10866399999992,4.661143999999991,978
48.46066399999992,4.013143999999992,1014
48.136663999999925,4.661143999999991,1097
47.81266399999993,6.60514399999999,991
47.48866399999993,5.957143999999991,1007
48.136663999999925,5.957143999999991,1406
45.86866399999994,7.90114399999999,1007
46.516663999999935,7.90114399999999,977
49.43266399999992,3.365143999999992,922
49.43266399999992,4.013143999999992,941
48.136663999999925,2.717143999999992,1090
47.81266399999993,2.717143999999992,1101
47.48866399999993,2.717143999999992,1121
50.40466399999991,2.717143999999992,868
48.46066399999992,-4.410856000000004,1179
48.46066399999992,-3.7628560000000046,1144
48.46066399999992,-3.114856000000005,1114
48.46066399999992,-2.4668560000000053,1085
47.48866399999993,1.4211439999999929,1023
47.16466399999993,1.4211439999999929,1115
46.516663999999935,4.013143999999992,1164
43.60066399999995,4.661143999999991,1137
44.89666399999994,2.717143999999992,1398
45.22066399999994,2.717143999999992,1348
45.54466399999994,3.365143999999992,1227
45.22066399999994,3.365143999999992,1252
47.48866399999993,3.365143999999992,1091
46.19266399999994,9.845143999999989,1114
47.81266399999993,2.0691439999999925,994
47.48866399999993,2.0691439999999925,1057
45.86866399999994,2.717143999999992,1240
44.89666399999994,5.957143999999991,1129
45.22066399999994,1.4211439999999929,1204
44.89666399999994,1.4211439999999929,1286
44.89666399999994,2.0691439999999925,1370
43.276663999999954,2.0691439999999925,1229
43.60066399999995,1.4211439999999929,1237
48.78466399999992,4.661143999999991,1000
48.78466399999992,5.309143999999991,973
46.19266399999994,2.0691439999999925,1382
45.86866399999994,1.4211439999999929,1138
46.19266399999994,1.4211439999999929,1104
44.572663999999946,4.013143999999992,1227
44.89666399999994,3.365143999999992,1362
43.92466399999995,4.013143999999992,1114
44.24866399999995,4.013143999999992,1162
44.89666399999994,-0.5228560000000062,1098
45.54466399999994,0.1251439999999934,1103
46.516663999999935,0.1251439999999934,1037
44.572663999999946,2.0691439999999925,1378
49.75666399999992,4.013143999999992,953
43.92466399999995,3.365143999999992,1587
43.92466399999995,2.717143999999992,1548
44.24866399999995,3.365143999999992,1498
44.572663999999946,3.365143999999992,1377
49.10866399999992,0.1251439999999934,979
49.43266399999992,0.7731439999999932,961
49.43266399999992,-1.8188560000000056,1041
49.10866399999992,-1.170856000000006,1015
49.10866399999992,-0.5228560000000062,1000
49.10866399999992,0.7731439999999932,1008
49.10866399999992,1.4211439999999929,1004
47.81266399999993,-1.8188560000000056,1143
47.81266399999993,-2.4668560000000053,1168
47.81266399999993,-3.114856000000005,1181
48.136663999999925,-3.7628560000000046,1189
44.572663999999946,9.197143999999987,1256
44.89666399999994,8.54914399999999,1198
45.22066399999994,9.197143999999987,1099
45.54466399999994,10.493143999999988,1147
44.572663999999946,10.493143999999988,1318
44.89666399999994,10.493143999999988,1213
44.89666399999994,9.845143999999989,1121
48.46066399999992,5.309143999999991,1095
50.91599999999999,-1.0580000000000025,65535
51.23999999999999,-0.4100000000000028,65535
50.91599999999999,-0.4100000000000028,65535
51.23999999999999,-2.354000000000002,65535
51.56399999999999,-2.354000000000002,65535
51.56399999999999,-3.0020000000000016,65535
50.91599999999999,-2.354000000000002,65535
53.50799999999997,-3.0020000000000016,65535
53.183999999999976,-2.354000000000002,65535
53.183999999999976,-3.0020000000000016,65535
52.85999999999998,-2.354000000000002,65535
52.21199999999998,-1.0580000000000025,65535
51.887999999999984,-1.0580000000000025,65535
52.53599999999998,-1.0580000000000025,65535
52.53599999999998,-1.7060000000000022,65535
52.85999999999998,-1.7060000000000022,65535
53.50799999999997,-2.354000000000002,65535
52.85999999999998,-1.0580000000000025,65535
52.53599999999998,1.5339999999999965,65535
52.53599999999998,0.8859999999999966,65535
52.53599999999998,0.2379999999999968,65535
52.53599999999998,-0.4100000000000028,65535
53.50799999999997,-1.7060000000000022,65535
53.183999999999976,-1.7060000000000022,65535
53.183999999999976,-1.0580000000000025,65535
52.85999999999998,-0.4100000000000028,65535
51.887999999999984,-2.354000000000002,65535
52.21199999999998,-2.354000000000002,65535
55.77599999999996,-2.354000000000002,65535
53.83199999999997,-1.0580000000000025,65535
53.83199999999997,-1.7060000000000022,65535
55.127999999999965,-1.7060000000000022,65535
54.80399999999997,-1.7060000000000022,65535
54.47999999999997,-1.7060000000000022,65535
54.15599999999997,-1.0580000000000025,65535
52.21199999999998,-1.7060000000000022,65535
53.50799999999997,-1.0580000000000025,65535
55.77599999999996,-3.0020000000000016,65535
55.45199999999996,-1.7060000000000022,65535
57.07199999999995,-2.354000000000002,65535
56.74799999999996,-3.0020000000000016,65535
56.42399999999996,-3.0020000000000016,65535
56.09999999999996,-3.650000000000001,65535
50.91599999999999,-3.0020000000000016,65535
50.91599999999999,-3.650000000000001,65535
50.59199999999999,-3.650000000000001,65535
50.59199999999999,-4.298000000000001,65535
51.23999999999999,-3.0020000000000016,65535
50.268,-4.946000000000001,65535
55.77599999999996,-3.650000000000001,65535
55.77599999999996,-4.298000000000001,65535
52.21199999999998,-0.4100000000000028,65535
52.53599999999998,-2.354000000000002,65535
51.56399999999999,-1.7060000000000022,65535
51.56399999999999,-3.650000000000001,65535
51.887999999999984,-4.298000000000001,65535
51.56399999999999,-4.298000000000001,65535
51.887999999999984,-1.7060000000000022,65535
52.21199999999998,-3.0020000000000016,65535
51.23999999999999,0.2379999999999968,65535
50.91599999999999,0.2379999999999968,65535
52.21199999999998,0.2379999999999968,65535
53.83199999999997,-3.0020000000000016,65535
54.15599999999997,-3.0020000000000016,65535
54.47999999999997,-3.0020000000000016,65535
55.127999999999965,-3.650000000000001,65535
54.80399999999997,-3.0020000000000016,65535
53.83199999999997,-2.354000000000002,65535
54.15599999999997,-0.4100000000000028,65535
54.47999999999997,-1.0580000000000025,65535
53.83199999999997,-0.4100000000000028,65535
53.183999999999976,-3.650000000000001,65535
53.183999999999976,-4.298000000000001,65535
52.85999999999998,-3.0020000000000016,65535
52.53599999999998,-3.0020000000000016,65535
51.887999999999984,-3.0020000000000016,65535
51.23999999999999,0.8859999999999966,65535
51.887999999999984,0.2379999999999968,65535
52.21199999999998,0.8859999999999966,65535
51.887999999999984,-4.946000000000001,65535
52.53599999999998,-3.650000000000001,65535
52.21199999999998,-4.298000000000001,65535
53.183999999999976,-0.4100000000000028,65535
51.23999999999999,-3.650000000000001,65535
51.887999999999984,-3.650000000000001,65535
52.21199999999998,-3.650000000000001,65535
51.56399999999999,0.8859999999999966,65535
51.887999999999984,0.8859999999999966,65535
52.85999999999998,0.8859999999999966,65535
53.50799999999997,-0.4100000000000028,65535
56.09999999999996,-4.298000000000001,65535
56.74799999999996,-4.946000000000001,65535
56.74799999999996,-4.298000000000001,65535
56.42399999999996,-4.946000000000001,65535
56.42399999999996,-4.298000000000001,65535
56.09999999999996,-4.946000000000001,65535
57.39599999999995,-4.298000000000001,65535
57.39599999999995,-3.0020000000000016,65535
57.39599999999995,-3.650000000000001,65535
56.42399999999996,-3.650000000000001,65535
57.07199999999995,-3.650000000000001,65535
57.07199999999995,-4.298000000000001,65535
56.74799999999996,-3.650000000000001,65535
59.15266399999986,27.34114399999998,65535
59.47666399999986,26.69314399999997,65535
59.47666399999986,26.04514399999998,65535
59.15266399999986,26.04514399999998,65535
59.15266399999986,24.74914399999998,65535
59.15266399999986,25.397143999999983,65535
59.47666399999986,25.397143999999983,65535
58.50466399999986,26.69314399999997,65535
58.82866399999986,26.69314399999997,65535
57.85666399999987,26.04514399999998,65535
58.180663999999865,26.04514399999998,65535
58.180663999999865,26.69314399999997,65535
58.82866399999986,26.04514399999998,65535
58.50466399999986,25.397143999999983,65535
58.82866399999986,25.397143999999983,65535
58.82866399999986,24.74914399999998,65535
58.180663999999865,27.34114399999998,65535
57.85666399999987,27.34114399999998,65535
63.68866399999983,27.34114399999998,7077
60.124663999999854,24.74914399999998,6613
60.44866399999985,24.74914399999998,6582
60.44866399999985,25.397143999999983,6594
60.77266399999985,25.397143999999983,6800
61.09666399999985,26.04514399999998,6842
60.77266399999985,26.04514399999998,6849
60.77266399999985,26.69314399999997,6868
61.09666399999985,25.397143999999983,6833
61.09666399999985,26.69314399999997,7198
61.420663999999846,26.69314399999997,7220
61.74466399999984,27.34114399999998,7244
62.06866399999984,27.34114399999998,7269
62.39266399999984,27.34114399999998,7293
62.71666399999984,27.34114399999998,7257
64.01266399999983,27.34114399999998,7425
63.36466399999984,27.34114399999998,7145
63.04066399999984,27.34114399999998,7185
63.04066399999984,27.989143999999985,7200
64.33666399999983,27.989143999999985,7472
64.33666399999983,27.34114399999998,7548
64.66066399999983,27.34114399999998,7564
64.66066399999983,26.69314399999997,7575
64.98466399999982,25.397143999999983,5959
64.66066399999983,26.04514399999998,7605
64.98466399999982,26.04514399999998,7627
66.28066399999982,25.397143999999983,6036
65.95666399999982,24.74914399999998,5872
65.63266399999982,24.74914399999998,5876
65.63266399999982,25.397143999999983,5918
65.30866399999982,25.397143999999983,5939
66.60466399999981,25.397143999999983,6096
64.01266399999983,24.74914399999998,6096
64.01266399999983,24.101143999999977,6131
64.01266399999983,23.45314399999998,6155
63.68866399999983,23.45314399999998,6167
63.68866399999983,22.805143999999984,6192
63.68866399999983,26.04514399999998,6784
63.68866399999983,25.397143999999983,6750
63.68866399999983,26.69314399999997,7044
60.44866399999985,26.69314399999997,7036
64.01266399999983,27.989143999999985,7463
62.71666399999984,22.805143999999984,6314
62.39266399999984,22.805143999999984,6346
62.06866399999984,22.805143999999984,6375
62.06866399999984,23.45314399999998,6391
61.74466399999984,23.45314399999998,6403
61.420663999999846,23.45314399999998,6451
61.09666399999985,23.45314399999998,6492
61.09666399999985,24.101143999999977,6499
61.09666399999985,24.74914399999998,6533
60.77266399999985,24.74914399999998,6549
63.04066399999984,21.50914399999997,65535
63.04066399999984,22.15714399999998,65535
63.04066399999984,22.805143999999984,6278
62.39266399999984,26.04514399999998,7441
62.06866399999984,25.397143999999983,7490
61.74466399999984,25.397143999999983,7558
61.74466399999984,24.74914399999998,7595
61.74466399999984,24.101143999999977,7630
61.420663999999846,24.101143999999977,6974
62.39266399999984,26.69314399999997,7412
64.66066399999983,25.397143999999983,6028
64.66066399999983,24.74914399999998,6046
64.33666399999983,24.74914399999998,6057
63.36466399999984,22.805143999999984,6217
67.25266399999981,24.101143999999977,8186
66.92866399999981,24.101143999999977,8150
66.60466399999981,23.45314399999998,8119
66.28066399999982,23.45314399999998,8101
66.28066399999982,24.101143999999977,8083
65.95666399999982,24.101143999999977,3999
60.124663999999854,24.101143999999977,6806
60.124663999999854,23.45314399999998,6843
60.44866399999985,22.805143999999984,65535
60.77266399999985,27.34114399999998,6926
61.09666399999985,27.989143999999985,6958
61.09666399999985,28.63714399999997,7004
61.420663999999846,29.28514399999997,8691
61.74466399999984,29.933143999999977,8749
62.06866399999984,29.933143999999977,8855
62.39266399999984,29.933143999999977,8893
62.71666399999984,29.933143999999977,8926
61.420663999999846,22.805143999999984,6487
61.420663999999846,22.15714399999998,6566
61.09666399999985,22.15714399999998,6554
61.420663999999846,21.50914399999997,6699
62.39266399999984,27.989143999999985,65535
62.06866399999984,27.989143999999985,65535
61.420663999999846,27.34114399999998,65535
63.04066399999984,29.933143999999977,65535
63.68866399999983,29.28514399999997,65535
63.36466399999984,29.28514399999997,65535
63.36466399999984,29.933143999999977,65535
60.44866399999985,27.34114399999998,65535
61.74466399999984,29.28514399999997,65535
62.39266399999984,30.58114399999998,65535
62.71666399999984,31.229143999999977,65535
62.71666399999984,29.28514399999997,65535
63.04066399999984,28.63714399999997,65535
66.60466399999981,26.04514399999998,6106
66.60466399999981,26.69314399999997,6142
66.60466399999981,27.34114399999998,6165
62.71666399999984,26.04514399999998,7326
62.71666399999984,25.397143999999983,7295
63.04066399999984,25.397143999999983,7115
63.36466399999984,25.397143999999983,7078
62.71666399999984,23.45314399999998,7320
62.39266399999984,24.101143999999977,65535
62.71666399999984,22.15714399999998,65535
62.39266399999984,22.15714399999998,65535
62.39266399999984,21.50914399999997,65535
61.09666399999985,21.50914399999997,8377
60.77266399999985,22.805143999999984,7803
60.44866399999985,22.15714399999998,7851
60.77266399999985,23.45314399999998,7785
60.77266399999985,21.50914399999997,7953
60.77266399999985,22.15714399999998,7906
60.124663999999854,22.805143999999984,8119
60.44866399999985,24.101143999999977,6792
62.06866399999984,24.74914399999998,65535
50.72866399999991,16.325143999999987,1070
50.40466399999991,16.973143999999984,1147
50.72866399999991,16.973143999999984,1108
50.40466399999991,16.325143999999987,1186
50.08066399999991,16.973143999999984,1209
50.08066399999991,16.325143999999987,1113
51.700663999999904,16.973143999999984,1170
51.37666399999991,16.973143999999984,1064
51.05266399999991,15.677143999999986,982
50.72866399999991,15.677143999999986,1055
51.05266399999991,17.621143999999987,1035
51.37666399999991,17.621143999999987,1183
51.700663999999904,17.621143999999987,1203
51.700663999999904,16.325143999999987,1102
52.0246639999999,22.15714399999998,1378
52.0246639999999,21.50914399999997,1318
52.3486639999999,21.50914399999997,1314
52.0246639999999,20.86114399999998,1317
51.700663999999904,20.86114399999998,1313
51.37666399999991,21.50914399999997,1296
51.37666399999991,20.86114399999998,1278
51.05266399999991,20.86114399999998,1232
52.6726639999999,23.45314399999998,1506
52.3486639999999,22.805143999999984,1446
52.3486639999999,20.213143999999986,1333
52.0246639999999,20.213143999999986,1335
52.3486639999999,19.565143999999982,1392
52.6726639999999,19.565143999999982,1426
51.700663999999904,21.50914399999997,1355
51.700663999999904,22.15714399999998,1361
52.6726639999999,21.50914399999997,1353
52.996663999999896,21.50914399999997,1405
52.6726639999999,20.86114399999998,1343
52.6726639999999,22.15714399999998,1369
52.6726639999999,20.213143999999986,1420
52.996663999999896,19.565143999999982,1486
52.996663999999896,20.86114399999998,1376
52.996663999999896,20.213143999999986,1385
53.32066399999989,20.213143999999986,1433
51.37666399999991,20.213143999999986,1459
52.3486639999999,16.973143999999984,1175
52.0246639999999,16.973143999999984,1180
52.0246639999999,16.325143999999987,1138
52.0246639999999,17.621143999999987,1193
52.6726639999999,16.973143999999984,1165
52.996663999999896,16.973143999999984,1170
52.3486639999999,16.325143999999987,1199
52.3486639999999,15.677143999999986,1113
51.700663999999904,18.269143999999983,1363
52.6726639999999,17.621143999999987,1226
52.3486639999999,17.621143999999987,1200
52.6726639999999,18.269143999999983,1257
52.3486639999999,18.269143999999983,1247
52.3486639999999,18.917143999999983,1291
52.996663999999896,17.621143999999987,1227
51.700663999999904,19.565143999999982,1354
51.700663999999904,18.917143999999983,1379
51.37666399999991,18.269143999999983,1164
58.82866399999986,9.197143999999987,2768
58.180663999999865,7.90114399999999,2861
58.50466399999986,8.54914399999999,2812
63.36466399999984,10.493143999999988,2983
63.36466399999984,11.141143999999988,2990
63.36466399999984,11.789143999999988,3025
63.68866399999983,11.789143999999988,3053
64.33666399999983,12.437143999999988,3454
64.66066399999983,12.437143999999988,3949
65.63266399999982,13.085143999999987,3606
65.95666399999982,13.085143999999987,3641
66.28066399999982,14.381143999999988,3711
65.95666399999982,13.733143999999989,3780
66.28066399999982,13.733143999999989,3689
65.30866399999982,13.085143999999987,3907
64.98466399999982,13.085143999999987,3541
64.01266399999983,11.789143999999988,3084
63.68866399999983,11.141143999999988,3021
59.800663999999855,10.493143999999988,2564
59.800663999999855,11.141143999999988,2547
60.124663999999854,11.141143999999988,2562
60.44866399999985,11.141143999999988,2575
60.124663999999854,11.789143999999988,2588
60.77266399999985,7.25314399999999,2824
60.77266399999985,6.60514399999999,2870
59.15266399999986,9.197143999999987,2650
59.47666399999986,9.197143999999987,2671
59.800663999999855,9.845143999999989,2566
59.47666399999986,11.141143999999988,2511
61.09666399999985,10.493143999999988,2685
60.77266399999985,10.493143999999988,2655
60.77266399999985,11.141143999999988,2610
62.06866399999984,9.197143999999987,3010
61.74466399999984,9.845143999999989,2956
61.420663999999846,9.845143999999989,2933
59.15266399999986,9.845143999999989,2630
59.47666399999986,9.845143999999989,2606
58.82866399999986,5.957143999999991,3045
58.180663999999865,7.25314399999999,2917
58.50466399999986,7.25314399999999,2950
58.50466399999986,6.60514399999999,2955
58.50466399999986,5.957143999999991,3013
58.82866399999986,8.54914399999999,2798
60.44866399999985,7.25314399999999,2798
60.44866399999985,7.90114399999999,2759
60.124663999999854,10.493143999999988,2596
60.44866399999985,9.197143999999987,2708
60.77266399999985,9.197143999999987,2720
60.77266399999985,8.54914399999999,2739
60.124663999999854,9.845143999999989,2854
60.44866399999985,10.493143999999988,2641
63.04066399999984,10.493143999999988,2934
62.06866399999984,9.845143999999989,3035
62.39266399999984,9.845143999999989,3043
62.71666399999984,9.845143999999989,3067
59.47666399999986,14.381143999999988,2517
59.47666399999986,13.733143999999989,2501
59.47666399999986,13.085143999999987,2477
59.800663999999855,12.437143999999988,2546
59.15266399999986,11.141143999999988,2475
59.15266399999986,14.381143999999988,2501
58.82866399999986,11.789143999999988,2455
58.50466399999986,12.437143999999988,2385
58.180663999999865,12.437143999999988,2378
57.85666399999987,11.789143999999988,2329
62.71666399999984,7.90114399999999,3096
62.39266399999984,7.90114399999999,3053
62.06866399999984,8.54914399999999,3028
60.44866399999985,5.309143999999991,2944
60.44866399999985,5.957143999999991,2911
60.77266399999985,5.957143999999991,2900
62.39266399999984,11.141143999999988,2831
62.06866399999984,10.493143999999988,2786
61.74466399999984,11.141143999999988,2759
61.420663999999846,11.141143999999988,2713
61.09666399999985,11.141143999999988,2696
60.77266399999985,11.789143999999988,2673
63.04066399999984,11.141143999999988,2912
62.71666399999984,11.141143999999988,2855
62.39266399999984,10.493143999999988,2813
67.25266399999981,15.677143999999986,3830
67.25266399999981,15.029143999999986,3868
67.25266399999981,14.381143999999988,3896
66.92866399999981,15.029143999999986,3819
66.60466399999981,15.677143999999986,3797
64.01266399999983,11.141143999999988,3068
66.60466399999981,15.029143999999986,3860
54.29266399999989,18.269143999999983,1470
54.616663999999886,17.621143999999987,1428
53.96866399999989,18.269143999999983,1458
43.92466399999995,1.4211439999999929,1208
44.24866399999995,0.7731439999999932,1170
44.572663999999946,0.1251439999999934,1148
46.84066399999993,1.4211439999999929,1065
44.572663999999946,1.4211439999999929,1334
44.24866399999995,1.4211439999999929,1310
45.54466399999994,1.4211439999999929,1177
46.516663999999935,1.4211439999999929,1180
42.30466399999996,2.717143999999992,1245
44.24866399999995,2.717143999999992,1449
44.572663999999946,2.717143999999992,1483
43.92466399999995,2.0691439999999925,1272
42.30466399999996,2.0691439999999925,1467
42.62866399999996,2.0691439999999925,1313
42.62866399999996,1.4211439999999929,1318
42.95266399999996,1.4211439999999929,1283
43.276663999999954,1.4211439999999929,1264
46.516663999999935,-1.170856000000006,1200
46.19266399999994,-1.170856000000006,1225
45.86866399999994,-0.5228560000000062,1201
45.54466399999994,-0.5228560000000062,1182
48.46066399999992,1.4211439999999929,956
41.332663999999966,2.0691439999999925,1494
41.98066399999996,2.717143999999992,1453
48.46066399999992,-1.8188560000000056,1073
47.81266399999993,0.7731439999999932,1243
46.84066399999993,0.7731439999999932,1180
44.572663999999946,-1.170856000000006,1165
43.60066399999995,-1.170856000000006,1365
43.276663999999954,-1.8188560000000056,1455
43.276663999999954,0.1251439999999934,1370
42.95266399999996,0.1251439999999934,1347
43.276663999999954,-0.5228560000000062,1401
43.60066399999995,-0.5228560000000062,1390
47.81266399999993,-3.7628560000000046,1207
47.48866399999993,-2.4668560000000053,1125
47.81266399999993,-0.5228560000000062,1008
46.516663999999935,-1.8188560000000056,1228
48.136663999999925,-1.170856000000006,1105
47.48866399999993,-1.170856000000006,1136
45.22066399999994,8.54914399999999,1144
45.22066399999994,7.90114399999999,1155
46.19266399999994,-0.5228560000000062,1181
46.516663999999935,-0.5228560000000062,1163
48.78466399999992,-3.114856000000005,1144
50.72866399999991,2.0691439999999925,900
50.40466399999991,2.0691439999999925,918
40.36066399999997,-3.7628560000000046,2865
41.65666399999997,-1.170856000000006,2782
41.332663999999966,1.4211439999999929,2720
43.276663999999954,13.733143999999989,3910
42.95266399999996,13.733143999999989,3932
41.65666399999997,15.029143999999986,4016
40.68466399999997,17.621143999999987,4178
43.60066399999995,13.085143999999987,3903
41.65666399999997,12.437143999999988,2569
41.65666399999997,13.085143999999987,2588
41.98066399999996,13.085143999999987,2638
41.65666399999997,13.733143999999989,2640
41.332663999999966,13.733143999999989,2632
41.332663999999966,14.381143999999988,2789
41.00866399999997,14.381143999999988,2695
41.332663999999966,13.085143999999987,2614
41.00866399999997,15.029143999999986,2895
41.98066399999996,13.733143999999989,2837
42.30466399999996,14.381143999999988,2976
42.30466399999996,12.437143999999988,2577
42.62866399999996,12.437143999999988,2756
42.95266399999996,12.437143999999988,3041
42.30466399999996,11.789143999999988,2586
42.95266399999996,11.789143999999988,2796
42.62866399999996,11.789143999999988,2787
43.276663999999954,11.789143999999988,2850
42.95266399999996,13.085143999999987,3804
42.30466399999996,13.085143999999987,2863
43.276663999999954,13.085143999999987,3852
43.276663999999954,12.437143999999988,3859
42.62866399999996,11.141143999999988,2632
42.95266399999996,11.141143999999988,2675
42.95266399999996,10.493143999999988,2693
44.572663999999946,8.54914399999999,1204
44.89666399999994,7.90114399999999,1173
44.89666399999994,9.197143999999987,1212
44.24866399999995,7.90114399999999,1239
44.572663999999946,7.90114399999999,1181
43.92466399999995,7.90114399999999,1291
44.24866399999995,7.25314399999999,1236
44.89666399999994,7.25314399999999,1218
45.22066399999994,7.25314399999999,1168
45.54466399999994,7.90114399999999,1178
44.572663999999946,7.25314399999999,1462
52.996663999999896,22.805143999999984,1603
52.996663999999896,23.45314399999998,1593
51.37666399999991,22.15714399999998,1403
51.37666399999991,22.805143999999984,1457
50.08066399999991,20.213143999999986,1215
50.72866399999991,20.213143999999986,1164
50.40466399999991,20.213143999999986,1154
50.08066399999991,20.86114399999998,1345
50.08066399999991,21.50914399999997,1386
50.08066399999991,22.15714399999998,1405
50.08066399999991,22.805143999999984,1427
53.96866399999989,22.805143999999984,1827
53.64466399999989,23.45314399999998,1780
53.32066399999989,23.45314399999998,1737
50.40466399999991,19.565143999999982,1146
50.08066399999991,18.917143999999983,1202
50.08066399999991,18.269143999999983,1081
52.0246639999999,22.805143999999984,1427
52.0246639999999,23.45314399999998,1464
51.37666399999991,19.565143999999982,1314
51.05266399999991,19.565143999999982,1267
50.72866399999991,18.917143999999983,1125
50.72866399999991,19.565143999999982,1249
49.75666399999992,18.917143999999983,1398
50.40466399999991,18.269143999999983,1066
53.64466399999989,19.565143999999982,1417
53.96866399999989,18.917143999999983,1472
53.64466399999989,18.917143999999983,1426
53.64466399999989,20.213143999999986,1446
52.996663999999896,18.917143999999983,1281
52.996663999999896,18.269143999999983,1264
53.32066399999989,18.917143999999983,1365
50.72866399999991,17.621143999999987,1042
50.72866399999991,18.269143999999983,1052
52.6726639999999,16.325143999999987,1122
52.996663999999896,16.325143999999987,1108
52.996663999999896,15.677143999999986,1082
53.32066399999989,15.677143999999986,1112
53.32066399999989,15.029143999999986,1059
53.64466399999989,15.029143999999986,1128
53.96866399999989,15.029143999999986,1113
52.6726639999999,18.917143999999983,1322
53.32066399999989,16.325143999999987,1163
52.6726639999999,15.029143999999986,1010
51.05266399999991,22.805143999999984,1480
51.05266399999991,23.45314399999998,1521
50.72866399999991,22.15714399999998,1449
50.40466399999991,22.15714399999998,1472
51.05266399999991,22.15714399999998,1454
54.616663999999886,16.973143999999984,1412
54.29266399999989,16.325143999999987,1345
53.96866399999989,15.677143999999986,1260
50.72866399999991,21.50914399999997,1437
50.40466399999991,21.50914399999997,1424
50.40466399999991,17.621143999999987,1064
53.32066399999989,22.805143999999984,1598
53.64466399999989,22.15714399999998,1579
54.29266399999989,16.973143999999984,1381
50.72866399999991,20.86114399999998,1203
51.700663999999904,22.805143999999984,1477
51.05266399999991,21.50914399999997,1248
50.08066399999991,19.565143999999982,1230
52.0246639999999,18.917143999999983,8008
52.0246639999999,19.565143999999982,8001
53.64466399999989,18.269143999999983,1452
51.700663999999904,20.213143999999986,1446
53.32066399999989,19.565143999999982,1408
50.72866399999991,23.45314399999998,1626
50.72866399999991,22.805143999999984,1597
49.43266399999992,20.213143999999986,1379
49.75666399999992,21.50914399999997,1442
49.75666399999992,22.15714399999998,1439
49.43266399999992,22.15714399999998,1430
51.05266399999991,18.917143999999983,1376
51.05266399999991,18.269143999999983,1063
53.32066399999989,16.973143999999984,1339
53.64466399999989,16.973143999999984,1358
49.75666399999992,20.86114399999998,1388
50.40466399999991,22.805143999999984,8090
53.64466399999989,16.325143999999987,1317
53.96866399999989,20.86114399999998,1483
54.29266399999989,20.86114399999998,1528
53.96866399999989,21.50914399999997,1549
53.64466399999989,15.677143999999986,1272
53.96866399999989,20.213143999999986,1561
53.96866399999989,19.565143999999982,1524
54.29266399999989,19.565143999999982,1534
53.96866399999989,16.325143999999987,1308
53.64466399999989,17.621143999999987,1404
53.96866399999989,22.15714399999998,1622
53.64466399999989,21.50914399999997,1524
53.64466399999989,20.86114399999998,1477
52.6726639999999,15.677143999999986,1064
51.05266399999991,20.213143999999986,1456
54.940663999999884,24.101143999999977,3201
54.616663999999886,23.45314399999998,3145
54.29266399999989,23.45314399999998,3008
53.64466399999989,22.805143999999984,1585
53.96866399999989,16.973143999999984,1513
50.40466399999991,20.86114399999998,1303
53.32066399999989,18.269143999999983,1425
49.75666399999992,19.565143999999982,1255
50.40466399999991,23.45314399999998,1516
49.75666399999992,20.213143999999986,1357
49.43266399999992,19.565143999999982,1365
49.43266399999992,20.86114399999998,1355
53.96866399999989,17.621143999999987,2283
42.30466399999996,-1.8188560000000056,8319
41.98066399999996,-1.8188560000000056,8302
41.65666399999997,0.7731439999999932,8306
42.62866399999996,-1.8188560000000056,8434
42.95266399999996,-1.8188560000000056,8463
42.62866399999996,-3.114856000000005,8557
42.95266399999996,-2.4668560000000053,8535
42.62866399999996,-7.650856000000003,8899
42.30466399999996,-7.650856000000003,8959
42.30466399999996,-8.946856000000002,9095
42.30466399999996,-8.298856000000002,9069
41.98066399999996,-8.298856000000002,9058
42.30466399999996,-7.002856000000003,8841
42.62866399999996,-6.354856000000003,8783
42.30466399999996,-6.354856000000003,8738
42.62866399999996,-5.706856000000004,8238
41.98066399999996,-4.410856000000004,8192
42.30466399999996,-3.7628560000000046,8583
40.03666399999997,-0.5228560000000062,8286
39.38866399999998,-0.5228560000000062,8334
41.00866399999997,0.7731439999999932,8434
40.68466399999997,0.7731439999999932,8466
40.36066399999997,0.1251439999999934,8544
39.712663999999975,-0.5228560000000062,8443
38.41666399999998,-0.5228560000000062,8455
39.06466399999998,-0.5228560000000062,8577
38.74066399999998,-1.170856000000006,8463
41.332663999999966,0.7731439999999932,8494
41.65666399999997,2.717143999999992,8094
41.65666399999997,2.0691439999999925,8117
41.332663999999966,0.1251439999999934,8452
41.332663999999966,-0.5228560000000062,8396
41.65666399999997,-4.410856000000004,8166
40.03666399999997,-2.4668560000000053,8404
41.00866399999997,-4.410856000000004,8287
43.276663999999954,-5.706856000000004,8368
39.38866399999998,-1.170856000000006,8429
38.09266399999999,-1.170856000000006,8842
38.74066399999998,-0.5228560000000062,8605
37.76866399999999,-1.170856000000006,8907
39.06466399999998,-1.8188560000000056,8427
39.38866399999998,-3.114856000000005,8327
39.38866399999998,-2.4668560000000053,8383
39.06466399999998,-2.4668560000000053,8410
39.06466399999998,-3.114856000000005,8331
39.06466399999998,-3.7628560000000046,8305
38.74066399999998,-3.7628560000000046,8384
40.03666399999997,-3.7628560000000046,8283
40.03666399999997,-3.114856000000005,8483
40.03666399999997,-1.8188560000000056,8564
39.712663999999975,-1.8188560000000056,8529
39.712663999999975,-1.170856000000006,8465
40.36066399999997,-1.170856000000006,8484
40.68466399999997,-1.170856000000006,8462
41.00866399999997,-1.170856000000006,8450
41.332663999999966,-1.170856000000006,8290
43.276663999999954,-8.298856000000002,9059
42.95266399999996,-8.298856000000002,9027
41.65666399999997,-5.706856000000004,65535
41.98066399999996,-7.002856000000003,65535
41.98066399999996,-6.354856000000003,65535
41.332663999999966,-5.058856000000004,8405
43.276663999999954,-3.7628560000000046,8840
42.95266399999996,-4.410856000000004,8774
42.62866399999996,-4.410856000000004,8764
42.30466399999996,-4.410856000000004,8723
41.00866399999997,-5.706856000000004,8343
41.332663999999966,-1.8188560000000056,8236
40.68466399999997,-3.114856000000005,8190
41.00866399999997,-3.114856000000005,8241
41.00866399999997,-2.4668560000000053,8264
41.332663999999966,-2.4668560000000053,8317
40.68466399999997,-4.410856000000004,8227
40.36066399999997,-4.410856000000004,8311
40.68466399999997,-3.7628560000000046,8219
40.36066399999997,-3.114856000000005,8197
41.65666399999997,-2.4668560000000053,8334
38.09266399999999,-3.7628560000000046,8431
38.74066399999998,-3.114856000000005,8375
37.76866399999999,-3.7628560000000046,8488
39.712663999999975,-3.114856000000005,8319
38.41666399999998,-3.7628560000000046,8396
40.03666399999997,-4.410856000000004,65535
40.03666399999997,-5.058856000000004,65535
39.38866399999998,-6.354856000000003,65535
39.38866399999998,-7.002856000000003,65535
42.95266399999996,-3.114856000000005,8968
41.98066399999996,-1.170856000000006,8331
42.30466399999996,-2.4668560000000053,8372
41.65666399999997,-0.5228560000000062,8429
41.98066399999996,-0.5228560000000062,8266
41.65666399999997,0.1251439999999934,8293
41.98066399999996,0.1251439999999934,8315
37.76866399999999,-5.058856000000004,8367
36.79666399999999,-4.410856000000004,8426
38.74066399999998,-4.410856000000004,8323
37.12066399999999,-4.410856000000004,8400
37.44466399999999,-5.058856000000004,8924
37.44466399999999,-7.002856000000003,65535
37.44466399999999,-6.354856000000003,65535
37.44466399999999,-5.706856000000004,8600
39.712663999999975,-3.7628560000000046,8393
42.62866399999996,-8.946856000000002,65535
42.30466399999996,-5.706856000000004,8745
42.30466399999996,-5.058856000000004,8830
42.95266399999996,-5.706856000000004,8270
41.00866399999997,-5.058856000000004,8311
40.68466399999997,-5.058856000000004,8285
41.65666399999997,-5.058856000000004,65535
41.65666399999997,-6.354856000000003,65535
36.79666399999999,-6.354856000000003,65535
37.12066399999999,-5.706856000000004,8768
37.76866399999999,-5.706856000000004,8567
38.09266399999999,-4.410856000000004,8702
37.12066399999999,-5.058856000000004,8722
36.79666399999999,-5.058856000000004,8680
37.76866399999999,-4.410856000000004,65535
37.76866399999999,-7.002856000000003,65535
38.41666399999998,-6.354856000000003,65535
38.09266399999999,-6.354856000000003,65535
48.78466399999992,1.4211439999999929,1081
56.23666399999988,8.54914399999999,6610
55.58866399999988,9.197143999999987,6415
55.91266399999988,9.197143999999987,6556
55.26466399999988,10.493143999999988,2034
55.91266399999988,12.437143999999988,2169
55.58866399999988,11.789143999999988,6255
55.58866399999988,11.141143999999988,6296
55.26466399999988,11.789143999999988,6288
55.58866399999988,10.493143999999988,6411
55.58866399999988,13.085143999999987,2126
56.88466399999987,9.845143999999989,6562
57.20866399999987,9.845143999999989,6597
56.56066399999988,9.845143999999989,6534
56.88466399999987,8.54914399999999,6649
54.940663999999884,9.845143999999989,7756
54.940663999999884,11.789143999999988,6512
55.91266399999988,13.085143999999987,2184
56.23666399999988,13.733143999999989,2228
55.91266399999988,13.733143999999989,2231
56.23666399999988,14.381143999999988,2251
56.23666399999988,15.029143999999986,2292
56.23666399999988,15.677143999999986,2347
56.56066399999988,14.381143999999988,2308
56.88466399999987,14.381143999999988,2278
56.23666399999988,13.085143999999987,2176
56.56066399999988,13.085143999999987,2256
56.88466399999987,12.437143999999988,2293
57.20866399999987,12.437143999999988,2309
57.53266399999987,12.437143999999988,2324
56.88466399999987,15.029143999999986,2304
56.56066399999988,15.677143999999986,2364
56.88466399999987,15.677143999999986,2383
56.88466399999987,16.325143999999987,2398
55.91266399999988,11.789143999999988,6581
57.20866399999987,10.493143999999988,6784
49.43266399999992,1.4211439999999929,968
49.75666399999992,0.7731439999999932,960
49.75666399999992,2.0691439999999925,906
50.08066399999991,2.717143999999992,880
49.75666399999992,1.4211439999999929,934
47.81266399999993,1.4211439999999929,1014
48.136663999999925,2.0691439999999925,1509
48.46066399999992,2.0691439999999925,1016
48.136663999999925,1.4211439999999929,986
48.78466399999992,0.1251439999999934,1109
48.46066399999992,0.1251439999999934,1109
47.81266399999993,0.1251439999999934,1063
46.84066399999993,-0.5228560000000062,1122
47.16466399999993,0.7731439999999932,1069
46.84066399999993,0.1251439999999934,1247
46.84066399999993,-1.170856000000006,1172
50.08066399999991,1.4211439999999929,937
50.08066399999991,2.0691439999999925,920
49.43266399999992,2.717143999999992,899
49.75666399999992,3.365143999999992,912
50.08066399999991,3.365143999999992,899
49.10866399999992,2.0691439999999925,962
49.43266399999992,2.0691439999999925,930
48.78466399999992,0.7731439999999932,1142
48.78466399999992,-0.5228560000000062,1214
48.78466399999992,-1.170856000000006,1124
48.136663999999925,0.7731439999999932,1069
48.46066399999992,0.7731439999999932,1020
43.92466399999995,5.957143999999991,1353
44.24866399999995,5.957143999999991,1379
43.92466399999995,5.309143999999991,1121
42.95266399999996,2.717143999999992,1217
45.54466399999994,2.0691439999999925,1154
45.22066399999994,2.0691439999999925,1249
42.95266399999996,2.0691439999999925,1239
42.95266399999996,0.7731439999999932,1298
43.276663999999954,0.7731439999999932,1274
46.19266399999994,0.7731439999999932,1252
46.516663999999935,0.7731439999999932,1209
45.86866399999994,0.1251439999999934,1265
46.19266399999994,0.1251439999999934,1269
47.81266399999993,-1.170856000000006,1323
48.136663999999925,-2.4668560000000053,1247
47.48866399999993,-1.8188560000000056,1107
47.16466399999993,-1.170856000000006,1128
47.16466399999993,-0.5228560000000062,1131
46.84066399999993,-1.8188560000000056,1196
45.22066399999994,-0.5228560000000062,1188
44.89666399999994,0.1251439999999934,1154
45.22066399999994,0.7731439999999932,1177
45.54466399999994,0.7731439999999932,1205
45.86866399999994,0.7731439999999932,1242
45.22066399999994,0.1251439999999934,1187
44.89666399999994,0.7731439999999932,1194
43.92466399999995,-0.5228560000000062,1296
43.92466399999995,-1.170856000000006,1276
44.24866399999995,-1.170856000000006,1230
45.22066399999994,-1.170856000000006,1218
44.572663999999946,-0.5228560000000062,1123
44.24866399999995,0.1251439999999934,1170
44.572663999999946,0.7731439999999932,1277
43.276663999999954,-1.170856000000006,1432
42.95266399999996,-0.5228560000000062,1413
44.24866399999995,2.0691439999999925,1329
43.60066399999995,0.7731439999999932,1244
43.60066399999995,2.0691439999999925,1215
52.6726639999999,4.661143999999991,6601
52.6726639999999,5.309143999999991,6624
51.700663999999904,5.309143999999991,6569
52.0246639999999,5.309143999999991,6581
52.3486639999999,5.309143999999991,6597
51.37666399999991,4.013143999999992,6577
52.3486639999999,5.957143999999991,6591
52.0246639999999,6.60514399999999,6621
52.6726639999999,5.957143999999991,6608
52.996663999999896,5.957143999999991,6621
53.32066399999989,5.957143999999991,6615
52.996663999999896,6.60514399999999,6597
53.32066399999989,6.60514399999999,6589
52.6726639999999,6.60514399999999,6617
52.996663999999896,5.309143999999991,6636
59.15266399999986,24.101143999999977,65535
56.88466399999987,24.101143999999977,65535
56.88466399999987,23.45314399999998,65535
56.88466399999987,22.805143999999984,65535
57.20866399999987,24.74914399999998,65535
56.88466399999987,24.74914399999998,65535
56.56066399999988,24.74914399999998,65535
56.56066399999988,25.397143999999983,65535
56.56066399999988,24.101143999999977,65535
56.56066399999988,23.45314399999998,65535
56.56066399999988,26.04514399999998,65535
56.88466399999987,26.04514399999998,65535
57.20866399999987,25.397143999999983,65535
57.53266399999987,25.397143999999983,65535
56.23666399999988,26.04514399999998,65535
56.23666399999988,26.69314399999997,65535
55.91266399999988,26.69314399999997,65535
56.56066399999988,26.69314399999997,65535
56.56066399999988,27.34114399999998,65535
56.56066399999988,27.989143999999985,65535
56.23666399999988,27.989143999999985,65535
55.91266399999988,27.34114399999998,65535
56.56066399999988,22.805143999999984,65535
56.56066399999988,22.15714399999998,65535
56.56066399999988,21.50914399999997,65535
57.20866399999987,26.69314399999997,65535
39.06466399999998,-8.946856000000002,65535
38.41666399999998,-8.298856000000002,65535
45.86866399999994,11.789143999999988,1588
46.19266399999994,11.789143999999988,1575
46.19266399999994,10.493143999999988,1615
45.22066399999994,18.269143999999983,1452
45.22066399999994,18.917143999999983,1493
45.54466399999994,16.973143999999984,1355
45.22066399999994,17.621143999999987,1396
45.86866399999994,16.325143999999987,1316
45.54466399999994,18.917143999999983,1540
45.54466399999994,16.325143999999987,1330
45.54466399999994,18.269143999999983,1508
44.89666399999994,18.917143999999983,1690
46.19266399999994,16.973143999999984,1330
46.19266399999994,16.325143999999987,1321
45.86866399999994,16.973143999999984,1333
45.86866399999994,17.621143999999987,1428
46.19266399999994,15.677143999999986,1290
46.516663999999935,16.325143999999987,1316
45.54466399999994,15.677143999999986,1365
45.22066399999994,15.029143999999986,1401
45.54466399999994,15.029143999999986,1362
45.22066399999994,15.677143999999986,1426
44.572663999999946,15.677143999999986,1579
44.24866399999995,15.677143999999986,1600
43.92466399999995,16.325143999999987,1664
44.89666399999994,15.677143999999986,1543
45.54466399999994,17.621143999999987,1407
45.22066399999994,16.325143999999987,1385
46.516663999999935,16.973143999999984,1390
45.86866399999994,18.269143999999983,1600
43.92466399999995,15.677143999999986,1766
45.22066399999994,13.733143999999989,1410
47.48866399999993,19.565143999999982,1354
47.16466399999993,18.917143999999983,1353
47.81266399999993,18.917143999999983,1321
45.54466399999994,9.845143999999989,1099
45.22066399999994,9.845143999999989,1106
45.22066399999994,10.493143999999988,1158
45.86866399999994,9.845143999999989,1119
45.86866399999994,10.493143999999988,2358
48.78466399999992,21.50914399999997,1359
49.10866399999992,20.213143999999986,1313
49.10866399999992,18.917143999999983,1266
48.46066399999992,17.621143999999987,1247
49.43266399999992,17.621143999999987,1213
49.10866399999992,17.621143999999987,1381
48.136663999999925,18.269143999999983,1278
49.10866399999992,18.269143999999983,1287
49.43266399999992,18.269143999999983,1244
49.43266399999992,16.973143999999984,1191
49.75666399999992,16.973143999999984,1161
49.75666399999992,16.325143999999987,1139
50.08066399999991,15.677143999999986,1091
50.08066399999991,15.029143999999986,1061
49.43266399999992,18.917143999999983,1255
47.81266399999993,20.86114399999998,1435
48.136663999999925,20.86114399999998,1466
48.46066399999992,20.86114399999998,1373
48.46066399999992,21.50914399999997,1369
49.10866399999992,19.565143999999982,1305
48.136663999999925,17.621143999999987,1226
48.78466399999992,22.15714399999998,1375
48.78466399999992,20.86114399999998,1407
49.10866399999992,20.86114399999998,1334
48.78466399999992,18.269143999999983,1330
48.78466399999992,17.621143999999987,1349
49.10866399999992,21.50914399999997,1349
48.78466399999992,20.213143999999986,1415
48.46066399999992,20.213143999999986,1456
48.136663999999925,19.565143999999982,1605
48.46066399999992,19.565143999999982,1484
48.46066399999992,18.917143999999983,1346
48.46066399999992,18.269143999999983,1290
48.78466399999992,19.565143999999982,1320
48.78466399999992,18.917143999999983,1306
47.81266399999993,18.269143999999983,1314
49.10866399999992,22.15714399999998,1416
49.43266399999992,21.50914399999997,1414
48.136663999999925,18.917143999999983,1306
48.136663999999925,20.213143999999986,1625
52.636,-8.018,65535
52.312,-7.370000000000001,65535
52.312,-8.018,65535
52.636,-8.666,65535
51.988,-8.666,65535
51.988,-8.018,65535
52.96,-8.666,65535
52.96,-6.074000000000002,65535
53.28399999999999,-6.722000000000001,65535
53.60799999999999,-6.722000000000001,65535
53.60799999999999,-7.370000000000001,65535
53.60799999999999,-8.018,65535
54.25599999999999,-8.666,65535
53.93199999999999,-8.666,65535
53.93199999999999,-8.018,65535
52.312,-6.722000000000001,65535
52.636,-6.722000000000001,65535
53.93199999999999,-6.722000000000001,65535
54.25599999999999,-6.074000000000002,65535
53.28399999999999,-7.370000000000001,65535
52.96,-7.370000000000001,65535
52.312,-8.666,65535
52.96,-8.018,65535
52.636,-7.370000000000001,65535
52.96,-6.722000000000001,65535
51.988,-9.314,65535
52.312,-9.314,65535
54.579999999999984,-6.722000000000001,65535
54.579999999999984,-6.074000000000002,65535
53.28399999999999,-8.018,65535
53.28399999999999,-8.666,65535
53.28399999999999,-9.314,65535
53.93199999999999,-9.314,65535
54.25599999999999,-9.314,65535
53.60799999999999,-8.666,65535
53.60799999999999,-9.314,65535
49.43266399999992,14.381143999999988,1115
49.75666399999992,14.381143999999988,1054
49.75666399999992,15.029143999999986,1066
49.75666399999992,13.733143999999989,1100
50.08066399999991,13.733143999999989,1069
49.75666399999992,15.677143999999986,1077
50.40466399999991,15.029143999999986,1010
49.43266399999992,13.733143999999989,1151
50.40466399999991,15.677143999999986,1024
50.40466399999991,13.733143999999989,1063
46.19266399999994,15.029143999999986,1273
45.86866399999994,15.029143999999986,1318
45.86866399999994,14.381143999999988,1295
46.19266399999994,13.733143999999989,1382
45.86866399999994,13.733143999999989,1468
58.50466399999986,13.733143999999989,2420
58.180663999999865,13.733143999999989,2406
58.180663999999865,13.085143999999987,2378
57.85666399999987,12.437143999999988,2342
60.44866399999985,15.677143999999986,2627
60.124663999999854,15.677143999999986,2561
60.124663999999854,16.325143999999987,2599
59.800663999999855,16.325143999999987,2527
59.800663999999855,17.621143999999987,2506
59.47666399999986,18.269143999999983,2488
61.74466399999984,16.973143999999984,2638
61.420663999999846,16.973143999999984,2611
60.77266399999985,16.973143999999984,2563
65.63266399999982,22.15714399999998,3742
65.95666399999982,21.50914399999997,3702
65.63266399999982,20.86114399999998,3673
64.98466399999982,20.213143999999986,3605
64.66066399999983,20.213143999999986,3583
64.33666399999983,19.565143999999982,3277
64.01266399999983,19.565143999999982,2990
63.68866399999983,20.213143999999986,2943
64.66066399999983,18.917143999999983,5654
59.15266399999986,16.325143999999987,2463
59.15266399999986,15.029143999999986,2467
59.15266399999986,17.621143999999987,2480
57.53266399999987,14.381143999999988,2304
57.53266399999987,15.029143999999986,2324
61.09666399999985,14.381143999999988,2731
60.77266399999985,15.029143999999986,2682
60.44866399999985,15.029143999999986,2668
58.180663999999865,15.029143999999986,2381
58.50466399999986,16.325143999999987,2415
58.50466399999986,15.677143999999986,2388
63.36466399999984,13.085143999999987,2975
63.04066399999984,14.381143999999988,2912
62.39266399999984,15.677143999999986,2834
63.36466399999984,13.733143999999989,2957
63.36466399999984,14.381143999999988,2929
62.71666399999984,15.677143999999986,2862
62.39266399999984,17.621143999999987,2696
59.800663999999855,15.677143999999986,2749
55.58866399999988,13.733143999999989,2258
57.20866399999987,14.381143999999988,2288
57.85666399999987,14.381143999999988,2336
58.82866399999986,16.973143999999984,2472
58.82866399999986,16.325143999999987,2450
59.15266399999986,18.269143999999983,2484
60.44866399999985,17.621143999999987,2539
59.15266399999986,12.437143999999988,2443
59.15266399999986,13.085143999999987,2457
58.82866399999986,12.437143999999988,2419
59.47666399999986,16.325143999999987,2509
58.82866399999986,14.381143999999988,2496
59.47666399999986,15.677143999999986,2527
63.36466399999984,18.917143999999983,2896
63.04066399999984,17.621143999999987,2851
62.71666399999984,17.621143999999987,2825
63.68866399999983,19.565143999999982,2929
62.39266399999984,16.973143999999984,2740
59.800663999999855,16.973143999999984,2515
59.47666399999986,17.621143999999987,2492
57.85666399999987,13.085143999999987,2368
57.53266399999987,13.085143999999987,2349
58.50466399999986,11.789143999999988,2390
57.85666399999987,15.029143999999986,2370
57.20866399999987,13.733143999999989,2294
57.53266399999987,13.733143999999989,2355
61.74466399999984,16.325143999999987,2734
61.420663999999846,16.325143999999987,2701
61.09666399999985,16.325143999999987,2690
61.09666399999985,16.973143999999984,2658
60.124663999999854,15.029143999999986,2836
66.60466399999981,20.86114399999998,3777
67.25266399999981,20.86114399999998,3845
67.90066399999981,20.213143999999986,3915
67.57666399999981,20.213143999999986,4540
59.800663999999855,15.029143999999986,2556
58.50466399999986,15.029143999999986,2398
59.47666399999986,15.029143999999986,2541
60.44866399999985,16.325143999999987,2627
59.15266399999986,15.677143999999986,2485
57.85666399999987,13.733143999999989,2396
58.82866399999986,13.733143999999989,2443
58.50466399999986,13.085143999999987,2428
57.20866399999987,13.085143999999987,2325
56.88466399999987,13.085143999999987,2299
58.180663999999865,11.789143999999988,2361
62.06866399999984,16.973143999999984,2729
65.95666399999982,23.45314399999998,3977
59.800663999999855,14.381143999999988,5411
59.800663999999855,18.269143999999983,2497
63.04066399999984,15.029143999999986,2880
62.71666399999984,15.029143999999986,2870
62.39266399999984,16.325143999999987,2803
63.36466399999984,12.437143999999988,3008
68.5486639999998,17.621143999999987,4128
68.5486639999998,18.269143999999983,4061
68.5486639999998,18.917143999999983,4038
68.2246639999998,18.917143999999983,3994
59.800663999999855,13.085143999999987,2560
60.124663999999854,13.085143999999987,2599
59.47666399999986,16.973143999999984,2501
59.15266399999986,16.973143999999984,2493
56.56066399999988,13.733143999999989,2246
60.124663999999854,17.621143999999987,2516
57.85666399999987,16.325143999999987,2475
58.180663999999865,16.325143999999987,2437
58.180663999999865,15.677143999999986,2445
57.20866399999987,16.325143999999987,2487
57.53266399999987,15.677143999999986,2505
57.85666399999987,15.677143999999986,2476
44.89666399999994,23.45314399999998,3925
44.572663999999946,23.45314399999998,3995
44.89666399999994,24.74914399999998,3964
44.572663999999946,24.74914399999998,4040
44.572663999999946,24.101143999999977,3972
44.24866399999995,24.101143999999977,4001
47.48866399999993,25.397143999999983,3773
47.48866399999993,24.74914399999998,3713
47.16466399999993,24.74914399999998,3635
47.16466399999993,24.101143999999977,3537
47.48866399999993,22.15714399999998,3843
47.81266399999993,22.15714399999998,3887
47.16466399999993,22.15714399999998,3646
47.16466399999993,23.45314399999998,3698
47.16466399999993,22.805143999999984,3704
46.84066399999993,24.101143999999977,3618
45.86866399999994,27.34114399999998,4068
45.54466399999994,27.34114399999998,4030
45.54466399999994,27.989143999999985,4055
45.86866399999994,20.86114399999998,3830
45.86866399999994,21.50914399999997,3838
46.19266399999994,21.50914399999997,3774
46.19266399999994,27.34114399999998,4046
46.19266399999994,26.69314399999997,4146
46.516663999999935,26.69314399999997,3911
46.516663999999935,26.04514399999998,3807
47.48866399999993,22.805143999999984,3765
46.84066399999993,22.805143999999984,3578
45.54466399999994,22.15714399999998,3903
45.22066399999994,22.15714399999998,3965
44.89666399999994,22.15714399999998,4383
47.48866399999993,23.45314399999998,3731
46.516663999999935,24.101143999999977,3457
46.516663999999935,24.74914399999998,3671
45.86866399999994,24.101143999999977,3620
47.16466399999993,26.69314399999997,3989
47.16466399999993,27.34114399999998,4044
43.92466399999995,25.397143999999983,4003
44.24866399999995,24.74914399999998,3910
44.89666399999994,26.04514399999998,3823
44.89666399999994,26.69314399999997,3884
45.22066399999994,26.69314399999997,3901
45.22066399999994,27.34114399999998,3987
46.84066399999993,26.69314399999997,3950
47.48866399999993,26.69314399999997,3943
44.24866399999995,25.397143999999983,3898
43.92466399999995,26.04514399999998,4019
46.19266399999994,24.101143999999977,3665
44.572663999999946,25.397143999999983,3892
46.84066399999993,24.74914399999998,3678
46.516663999999935,21.50914399999997,3778
46.84066399999993,21.50914399999997,3785
44.572663999999946,26.69314399999997,3876
44.572663999999946,27.34114399999998,3886
44.89666399999994,27.34114399999998,3986
44.572663999999946,27.989143999999985,3923
44.24866399999995,27.989143999999985,3938
44.572663999999946,28.63714399999997,3958
45.86866399999994,22.15714399999998,3699
45.86866399999994,22.805143999999984,3593
44.24866399999995,23.45314399999998,4093
43.92466399999995,27.989143999999985,65535
46.84066399999993,27.34114399999998,4180
45.22066399999994,23.45314399999998,3900
45.54466399999994,23.45314399999998,3703
45.54466399999994,24.101143999999977,3650
45.22066399999994,24.101143999999977,3874
44.89666399999994,24.101143999999977,3944
46.19266399999994,22.15714399999998,3830
46.516663999999935,22.15714399999998,3796
45.22066399999994,21.50914399999997,4070
45.54466399999994,21.50914399999997,4107
45.54466399999994,20.86114399999998,4020
46.516663999999935,27.989143999999985,4152
46.19266399999994,27.989143999999985,4124
45.54466399999994,25.397143999999983,3780
45.22066399999994,25.397143999999983,3787
45.22066399999994,26.04514399999998,3830
47.81266399999993,24.101143999999977,3826
47.48866399999993,26.04514399999998,3916
47.81266399999993,26.04514399999998,3938
46.19266399999994,23.45314399999998,3497
45.86866399999994,23.45314399999998,3546
44.24866399999995,26.04514399999998,3878
45.22066399999994,27.989143999999985,4036
45.86866399999994,24.74914399999998,3659
46.516663999999935,25.397143999999983,3851
46.84066399999993,25.397143999999983,3734
46.19266399999994,26.04514399999998,3822
45.86866399999994,26.04514399999998,3787
43.92466399999995,23.45314399999998,4258
44.89666399999994,25.397143999999983,3917
46.19266399999994,20.86114399999998,3819
47.81266399999993,25.397143999999983,3950
44.572663999999946,22.805143999999984,4263
44.572663999999946,22.15714399999998,4405
46.516663999999935,23.45314399999998,3636
45.86866399999994,25.397143999999983,3713
44.24866399999995,27.34114399999998,4651
45.22066399999994,24.74914399999998,3976
45.54466399999994,22.805143999999984,3666
45.22066399999994,28.63714399999997,4096
44.89666399999994,28.63714399999997,4035
47.81266399999993,23.45314399999998,3899
46.19266399999994,24.74914399999998,3745
46.19266399999994,25.397143999999983,3769
43.92466399999995,24.101143999999977,4221
43.92466399999995,24.74914399999998,4234
47.81266399999993,26.69314399999997,4165
47.48866399999993,24.101143999999977,3758
46.84066399999993,26.04514399999998,4566
46.19266399999994,22.805143999999984,3890
47.48866399999993,27.34114399999998,4118
46.19266399999994,20.213143999999986,65535
45.54466399999994,26.04514399999998,3922
44.24866399999995,26.69314399999997,3932
45.86866399999994,27.989143999999985,4202
47.81266399999993,5.957143999999991,6586
