51.56399999999999,-0.4100000000000028,65535
51.887999999999984,-0.4100000000000028,65535
50.91599999999999,-1.7060000000000022,65535
51.23999999999999,-1.0580000000000025,65535
51.56399999999999,-1.0580000000000025,65535
51.23999999999999,-1.7060000000000022,65535
51.56399999999999,0.2379999999999968,65535
47.16466399999993,9.845143999999989,2563
47.48866399999993,9.845143999999989,2569
48.136663999999925,14.381143999999988,2789
47.81266399999993,13.085143999999987,2649
47.16466399999993,11.141143999999988,2690
47.48866399999993,11.789143999999988,2899
48.136663999999925,16.325143999999987,2854
47.48866399999993,12.437143999999988,2634
48.136663999999925,15.677143999999986,2884
47.16466399999993,10.493143999999988,2821
47.16466399999993,9.197143999999987,2551
48.136663999999925,13.733143999999989,2759
48.136663999999925,15.029143999999986,3494
47.81266399999993,16.973143999999984,2875
48.46066399999992,14.381143999999988,8104
47.48866399999993,13.085143999999987,2639
47.16466399999993,13.085143999999987,2650
47.48866399999993,14.381143999999988,2911
47.48866399999993,13.733143999999989,2933
47.48866399999993,15.029143999999986,2922
46.516663999999935,13.733143999999989,2755
46.84066399999993,13.733143999999989,2716
46.84066399999993,13.085143999999987,2701
48.78466399999992,14.381143999999988,65535
47.16466399999993,15.677143999999986,2940
46.516663999999935,14.381143999999988,2754
46.84066399999993,14.381143999999988,2721
47.16466399999993,14.381143999999988,3005
46.516663999999935,15.029143999999986,2767
47.81266399999993,16.325143999999987,2872
47.16466399999993,15.029143999999986,2980
47.81266399999993,15.677143999999986,2878
47.48866399999993,15.677143999999986,2917
46.516663999999935,13.085143999999987,2894
46.84066399999993,12.437143999999988,2759
48.136663999999925,11.789143999999988,2555
47.81266399999993,12.437143999999988,2603
46.84066399999993,15.677143999999986,3260
46.516663999999935,15.677143999999986,2823
46.84066399999993,16.325143999999987,2859
47.81266399999993,14.381143999999988,2845
48.78466399999992,16.973143999999984,2812
48.136663999999925,16.973143999999984,2841
48.46066399999992,13.733143999999989,2679
47.81266399999993,13.733143999999989,2834
50.08066399999991,8.54914399999999,2440
48.46066399999992,9.845143999999989,2529
51.05266399999991,7.25314399999999,2400
51.37666399999991,7.25314399999999,2391
51.37666399999991,6.60514399999999,2393
48.46066399999992,16.325143999999987,2859
48.46066399999992,16.973143999999984,2828
48.78466399999992,16.325143999999987,2872
48.46066399999992,15.677143999999986,2880
48.78466399999992,15.677143999999986,2987
47.48866399999993,16.325143999999987,2882
47.16466399999993,16.325143999999987,2910
46.19266399999994,14.381143999999988,2798
45.86866399999994,15.677143999999986,2823
43.60066399999995,16.325143999999987,3160
45.54466399999994,14.381143999999988,2845
45.54466399999994,13.733143999999989,2868
48.136663999999925,13.085143999999987,2721
48.46066399999992,11.141143999999988,2541
48.136663999999925,11.141143999999988,2552
48.46066399999992,7.90114399999999,2497
49.10866399999992,8.54914399999999,2463
48.78466399999992,2.0691439999999925,2534
49.10866399999992,7.25314399999999,2481
52.0246639999999,7.90114399999999,2372
47.16466399999993,11.789143999999988,2710
49.43266399999992,11.141143999999988,2558
53.64466399999989,9.845143999999989,2242
50.72866399999991,4.013143999999992,2435
51.05266399999991,11.141143999999988,2479
47.48866399999993,11.141143999999988,2588
46.84066399999993,11.789143999999988,4022
46.516663999999935,11.141143999999988,3991
45.54466399999994,11.141143999999988,3887
46.19266399999994,11.141143999999988,3957
45.86866399999994,11.141143999999988,3941
44.572663999999946,11.141143999999988,2772
43.92466399999995,12.437143999999988,65535
45.54466399999994,12.437143999999988,4230
45.54466399999994,11.789143999999988,4195
48.78466399999992,15.029143999999986,3372
47.81266399999993,15.029143999999986,3685
47.81266399999993,11.141143999999988,2569
50.40466399999991,18.917143999999983,2809
52.3486639999999,20.86114399999998,2987
54.616663999999886,18.269143999999983,2907
54.29266399999989,18.917143999999983,2917
49.10866399999992,14.381143999999988,65535
50.08066399999991,14.381143999999988,2622
48.78466399999992,13.733143999999989,3835
52.6726639999999,13.085143999999987,2444
52.3486639999999,13.085143999999987,2446
53.96866399999989,12.437143999999988,2364
54.29266399999989,12.437143999999988,2392
47.48866399999993,8.54914399999999,2543
47.81266399999993,17.621143999999987,2909
47.48866399999993,18.917143999999983,3020
47.48866399999993,20.86114399999998,3241
46.84066399999993,23.45314399999998,4798
44.572663999999946,26.04514399999998,5304
47.48866399999993,21.50914399999997,3275
47.81266399999993,21.50914399999997,3308
48.46066399999992,22.15714399999998,3037
47.48866399999993,16.973143999999984,65535
49.10866399999992,16.325143999999987,2767
49.75666399999992,18.269143999999983,2860
46.19266399999994,13.085143999999987,5183
41.98066399999996,12.437143999999988,5350
43.60066399999995,10.493143999999988,5606
45.54466399999994,9.197143999999987,2648
47.81266399999993,22.805143999999984,4603
49.75666399999992,22.805143999999984,3074
50.72866399999991,3.365143999999992,2442
51.05266399999991,4.013143999999992,2439
50.72866399999991,4.661143999999991,2427
51.05266399999991,4.661143999999991,2431
51.05266399999991,3.365143999999992,2442
51.05266399999991,2.717143999999992,2462
50.40466399999991,4.661143999999991,2431
50.72866399999991,2.717143999999992,2458
50.40466399999991,4.013143999999992,2446
51.05266399999991,5.309143999999991,2430
50.72866399999991,5.309143999999991,2420
51.37666399999991,3.365143999999992,2461
51.37666399999991,4.661143999999991,2435
50.72866399999991,5.957143999999991,2409
50.40466399999991,5.957143999999991,2412
50.40466399999991,3.365143999999992,2450
50.40466399999991,5.309143999999991,2425
50.08066399999991,5.309143999999991,2469
49.75666399999992,5.309143999999991,2473
49.75666399999992,5.957143999999991,2444
51.37666399999991,5.309143999999991,2487
51.700663999999904,4.661143999999991,2478
50.08066399999991,4.013143999999992,2468
50.08066399999991,5.957143999999991,2421
50.08066399999991,4.661143999999991,2455
49.43266399999992,5.309143999999991,2475
49.43266399999992,5.957143999999991,2454
52.0246639999999,4.661143999999991,2510
52.3486639999999,4.661143999999991,2539
50.72866399999991,15.029143999999986,2590
51.05266399999991,15.029143999999986,2531
51.05266399999991,13.733143999999989,2498
50.40466399999991,13.085143999999987,2507
49.10866399999992,7.90114399999999,2468
48.78466399999992,7.90114399999999,2480
50.40466399999991,7.90114399999999,2424
50.08066399999991,7.90114399999999,2444
49.75666399999992,7.90114399999999,2453
49.43266399999992,7.90114399999999,2465
49.75666399999992,8.54914399999999,2451
49.43266399999992,8.54914399999999,2460
49.43266399999992,9.197143999999987,2478
49.10866399999992,9.197143999999987,2473
47.48866399999993,7.90114399999999,2549
47.81266399999993,7.90114399999999,2508
48.136663999999925,7.90114399999999,2504
48.136663999999925,9.845143999999989,2524
47.81266399999993,9.197143999999987,2545
47.81266399999993,8.54914399999999,2534
47.81266399999993,9.845143999999989,2544
54.940663999999884,9.197143999999987,2132
54.616663999999886,9.197143999999987,2193
54.29266399999989,9.197143999999987,2205
53.96866399999989,9.197143999999987,2217
53.64466399999989,9.197143999999987,2229
54.616663999999886,9.845143999999989,2221
54.29266399999989,9.845143999999989,2230
53.96866399999989,9.845143999999989,2250
53.64466399999989,10.493143999999988,2253
53.96866399999989,10.493143999999988,2256
53.96866399999989,11.141143999999988,2303
54.29266399999989,10.493143999999988,2238
53.32066399999989,10.493143999999988,2290
54.940663999999884,11.141143999999988,2330
52.6726639999999,13.733143999999989,2447
52.3486639999999,13.733143999999989,2449
52.3486639999999,14.381143999999988,2467
52.0246639999999,14.381143999999988,2480
52.0246639999999,11.789143999999988,2415
52.3486639999999,11.789143999999988,2409
52.3486639999999,12.437143999999988,2438
52.0246639999999,15.029143999999986,2503
51.700663999999904,14.381143999999988,2497
52.0246639999999,13.733143999999989,2474
51.700663999999904,13.733143999999989,2500
52.6726639999999,12.437143999999988,2444
53.32066399999989,11.789143999999988,2360
53.96866399999989,11.789143999999988,2356
53.64466399999989,11.789143999999988,2336
53.64466399999989,11.141143999999988,2327
53.32066399999989,11.141143999999988,2348
52.996663999999896,11.789143999999988,2400
52.996663999999896,12.437143999999988,2427
52.996663999999896,13.733143999999989,2460
53.64466399999989,13.733143999999989,2506
53.96866399999989,13.733143999999989,2547
54.29266399999989,13.085143999999987,2462
53.96866399999989,13.085143999999987,2459
53.32066399999989,13.733143999999989,2507
52.0246639999999,13.085143999999987,2471
51.700663999999904,13.085143999999987,2506
52.996663999999896,14.381143999999988,2562
52.0246639999999,12.437143999999988,2453
51.700663999999904,12.437143999999988,2448
51.37666399999991,11.789143999999988,2434
51.37666399999991,12.437143999999988,2450
52.6726639999999,11.789143999999988,2390
53.64466399999989,13.085143999999987,2443
53.32066399999989,13.085143999999987,2502
52.996663999999896,13.085143999999987,2478
53.64466399999989,12.437143999999988,2382
51.37666399999991,13.733143999999989,2485
53.32066399999989,12.437143999999988,2456
52.6726639999999,14.381143999999988,2460
51.37666399999991,13.085143999999987,2483
53.32066399999989,14.381143999999988,2549
52.3486639999999,15.029143999999986,2521
52.0246639999999,15.677143999999986,2528
51.700663999999904,15.029143999999986,2525
51.05266399999991,16.325143999999987,2677
51.05266399999991,16.973143999999984,2701
51.700663999999904,15.677143999999986,2620
51.37666399999991,15.677143999999986,2632
51.37666399999991,16.325143999999987,2668
50.72866399999991,13.085143999999987,2485
50.72866399999991,12.437143999999988,2470
51.05266399999991,13.085143999999987,2472
51.05266399999991,14.381143999999988,2501
50.40466399999991,12.437143999999988,2490
50.40466399999991,11.789143999999988,2495
50.08066399999991,12.437143999999988,2542
50.72866399999991,11.789143999999988,2498
51.05266399999991,12.437143999999988,2459
50.72866399999991,14.381143999999988,2634
51.37666399999991,14.381143999999988,2534
50.72866399999991,13.733143999999989,2517
50.40466399999991,14.381143999999988,2619
51.37666399999991,15.029143999999986,2565
55.26466399999988,9.197143999999987,3048
55.58866399999988,8.54914399999999,3082
55.91266399999988,8.54914399999999,6559
56.23666399999988,9.197143999999987,6567
56.23666399999988,10.493143999999988,6520
56.23666399999988,9.845143999999989,6507
55.91266399999988,9.845143999999989,6445
56.56066399999988,9.197143999999987,6577
56.56066399999988,8.54914399999999,6620
51.05266399999991,6.60514399999999,2394
51.700663999999904,7.90114399999999,2385
50.72866399999991,6.60514399999999,2407
51.700663999999904,7.25314399999999,2396
50.72866399999991,7.25314399999999,2413
52.0246639999999,7.25314399999999,2382
52.3486639999999,7.90114399999999,2338
51.05266399999991,5.957143999999991,2404
50.40466399999991,7.25314399999999,2419
51.700663999999904,6.60514399999999,2407
51.700663999999904,5.957143999999991,2408
52.3486639999999,9.197143999999987,2341
51.700663999999904,8.54914399999999,2381
52.0246639999999,8.54914399999999,2360
52.3486639999999,8.54914399999999,2353
51.37666399999991,7.90114399999999,2394
52.3486639999999,7.25314399999999,2361
51.37666399999991,5.957143999999991,2441
50.72866399999991,7.90114399999999,2432
51.37666399999991,9.197143999999987,2376
51.700663999999904,9.197143999999987,2353
50.40466399999991,6.60514399999999,3252
51.05266399999991,7.90114399999999,2414
51.37666399999991,8.54914399999999,2395
52.0246639999999,5.957143999999991,2451
52.3486639999999,6.60514399999999,2396
51.05266399999991,8.54914399999999,2423
52.0246639999999,9.197143999999987,2342
52.6726639999999,9.197143999999987,2333
52.0246639999999,9.845143999999989,2348
51.700663999999904,9.845143999999989,2356
51.37666399999991,9.845143999999989,2389
50.72866399999991,8.54914399999999,2427
51.05266399999991,9.845143999999989,2511
50.72866399999991,9.845143999999989,2476
50.40466399999991,9.845143999999989,2490
51.05266399999991,9.197143999999987,2413
50.40466399999991,9.197143999999987,2458
50.08066399999991,9.197143999999987,2448
51.05266399999991,10.493143999999988,3207
50.40466399999991,8.54914399999999,2434
50.72866399999991,9.197143999999987,2420
49.75666399999992,9.197143999999987,2465
52.996663999999896,9.197143999999987,2273
52.3486639999999,9.845143999999989,2335
52.996663999999896,8.54914399999999,2281
52.996663999999896,7.90114399999999,2309
53.32066399999989,7.90114399999999,2327
53.32066399999989,7.25314399999999,2413
53.64466399999989,7.25314399999999,2458
52.996663999999896,10.493143999999988,2303
52.6726639999999,10.493143999999988,2313
52.6726639999999,9.845143999999989,2323
53.32066399999989,9.845143999999989,2252
53.32066399999989,9.197143999999987,2266
53.64466399999989,8.54914399999999,2262
53.32066399999989,8.54914399999999,2269
52.6726639999999,8.54914399999999,2291
52.0246639999999,10.493143999999988,2373
52.0246639999999,11.141143999999988,2441
51.700663999999904,11.141143999999988,2440
52.6726639999999,7.25314399999999,3260
52.996663999999896,7.25314399999999,3279
52.6726639999999,7.90114399999999,2321
53.64466399999989,7.90114399999999,2351
52.996663999999896,11.141143999999988,2321
52.6726639999999,11.141143999999988,2385
52.3486639999999,10.493143999999988,2378
52.996663999999896,9.845143999999989,2314
51.700663999999904,10.493143999999988,2418
51.37666399999991,10.493143999999988,3858
51.700663999999904,11.789143999999988,2421
52.3486639999999,11.141143999999988,2429
51.37666399999991,11.141143999999988,2499
51.05266399999991,11.789143999999988,2451
49.10866399999992,11.141143999999988,2526
48.78466399999992,11.141143999999988,2531
48.46066399999992,11.789143999999988,2547
49.43266399999992,11.789143999999988,2560
50.08066399999991,11.789143999999988,2525
49.75666399999992,12.437143999999988,2537
49.10866399999992,11.789143999999988,2588
48.78466399999992,12.437143999999988,2604
48.46066399999992,12.437143999999988,2592
49.10866399999992,12.437143999999988,2592
48.78466399999992,13.085143999999987,2631
48.136663999999925,12.437143999999988,2682
47.81266399999993,11.789143999999988,2596
48.136663999999925,10.493143999999988,2566
47.81266399999993,10.493143999999988,2599
48.78466399999992,10.493143999999988,2504
47.48866399999993,10.493143999999988,2583
48.46066399999992,10.493143999999988,2529
49.43266399999992,13.085143999999987,2738
48.46066399999992,13.085143999999987,2651
49.43266399999992,10.493143999999988,2532
49.75666399999992,9.845143999999989,2498
49.75666399999992,10.493143999999988,2526
50.40466399999991,11.141143999999988,2531
50.08066399999991,11.141143999999988,2565
50.72866399999991,11.141143999999988,3233
49.75666399999992,11.141143999999988,2536
48.78466399999992,11.789143999999988,2653
50.40466399999991,10.493143999999988,2503
50.08066399999991,9.845143999999989,2495
50.08066399999991,10.493143999999988,2557
49.43266399999992,12.437143999999988,2584
49.75666399999992,11.789143999999988,2543
49.10866399999992,13.085143999999987,2673
50.72866399999991,10.493143999999988,3219
49.10866399999992,10.493143999999988,2547
48.78466399999992,9.845143999999989,2485
48.46066399999992,8.54914399999999,2488
48.46066399999992,9.197143999999987,2485
48.78466399999992,9.197143999999987,2481
48.78466399999992,8.54914399999999,2480
50.08066399999991,7.25314399999999,2450
49.75666399999992,6.60514399999999,2477
49.43266399999992,6.60514399999999,2483
49.10866399999992,6.60514399999999,2491
49.43266399999992,7.25314399999999,2466
49.75666399999992,7.25314399999999,2463
49.10866399999992,5.957143999999991,2459
48.78466399999992,7.25314399999999,2497
50.08066399999991,6.60514399999999,2474
47.48866399999993,9.197143999999987,2548
48.136663999999925,8.54914399999999,2502
48.136663999999925,9.197143999999987,2505
47.81266399999993,7.25314399999999,2531
49.43266399999992,9.845143999999989,2504
49.10866399999992,9.845143999999989,2480
53.64466399999989,14.381143999999988,2543
50.08066399999991,13.085143999999987,2698
49.75666399999992,13.085143999999987,2735
45.86866399999994,9.197143999999987,2638
46.19266399999994,9.197143999999987,2624
46.516663999999935,8.54914399999999,2577
46.516663999999935,9.197143999999987,2619
46.19266399999994,8.54914399999999,2621
47.16466399999993,8.54914399999999,2544
45.86866399999994,4.661143999999991,2640
46.84066399999993,9.845143999999989,2562
45.22066399999994,5.957143999999991,2692
45.22066399999994,5.309143999999991,2696
45.86866399999994,5.957143999999991,2640
45.54466399999994,5.957143999999991,2663
44.89666399999994,4.661143999999991,2664
44.89666399999994,5.309143999999991,2700
44.572663999999946,4.661143999999991,2755
44.24866399999995,4.661143999999991,2722
43.92466399999995,4.661143999999991,2703
46.19266399999994,7.25314399999999,2586
48.78466399999992,5.957143999999991,2465
48.136663999999925,6.60514399999999,2503
48.46066399999992,6.60514399999999,2491
48.78466399999992,6.60514399999999,2495
47.16466399999993,7.90114399999999,2551
48.136663999999925,7.25314399999999,2513
48.46066399999992,7.25314399999999,2504
46.516663999999935,6.60514399999999,2576
46.84066399999993,6.60514399999999,2568
46.84066399999993,7.25314399999999,2564
46.516663999999935,5.957143999999991,2595
46.19266399999994,5.957143999999991,2610
46.84066399999993,8.54914399999999,2556
46.84066399999993,7.90114399999999,2560
45.86866399999994,5.309143999999991,2671
46.19266399999994,6.60514399999999,2584
45.86866399999994,6.60514399999999,2593
47.48866399999993,6.60514399999999,2579
47.48866399999993,7.25314399999999,2549
47.16466399999993,7.25314399999999,2558
49.10866399999992,4.013143999999992,2585
49.75666399999992,4.661143999999991,2517
49.43266399999992,4.661143999999991,2580
49.10866399999992,5.309143999999991,2539
46.19266399999994,4.661143999999991,2662
46.84066399999993,9.197143999999987,2570
46.19266399999994,5.309143999999991,2648
46.516663999999935,5.309143999999991,2639
45.54466399999994,6.60514399999999,2736
45.54466399999994,5.309143999999991,2659
43.60066399999995,4.013143999999992,2742
43.60066399999995,3.365143999999992,2778
42.62866399999996,2.717143999999992,2845
43.276663999999954,2.717143999999992,2809
45.54466399999994,4.661143999999991,2646
45.22066399999994,4.661143999999991,2680
47.16466399999993,5.309143999999991,2637
47.16466399999993,5.957143999999991,2616
46.19266399999994,7.90114399999999,2580
49.75666399999992,2.717143999999992,2589
49.10866399999992,2.717143999999992,2513
48.78466399999992,2.717143999999992,2527
45.86866399999994,3.365143999999992,2754
46.84066399999993,3.365143999999992,2752
46.516663999999935,3.365143999999992,2741
46.19266399999994,3.365143999999992,2729
47.16466399999993,6.60514399999999,2588
49.10866399999992,3.365143999999992,2543
45.54466399999994,4.013143999999992,2676
46.516663999999935,7.25314399999999,2591
47.16466399999993,4.661143999999991,2670
46.84066399999993,4.661143999999991,2697
46.516663999999935,4.661143999999991,2721
46.84066399999993,5.957143999999991,2613
47.81266399999993,3.365143999999992,2628
47.48866399999993,4.013143999999992,2687
48.136663999999925,4.013143999999992,2650
47.81266399999993,4.013143999999992,2662
47.48866399999993,4.661143999999991,2684
47.16466399999993,3.365143999999992,2766
46.84066399999993,4.013143999999992,2720
48.46066399999992,5.957143999999991,2499
46.19266399999994,2.717143999999992,2844
47.16466399999993,2.0691439999999925,2710
46.516663999999935,2.717143999999992,2906
46.84066399999993,2.717143999999992,2887
46.84066399999993,2.0691439999999925,2794
47.16466399999993,2.717143999999992,2723
44.572663999999946,5.309143999999991,2745
44.572663999999946,5.957143999999991,2808
44.89666399999994,6.60514399999999,2727
44.572663999999946,6.60514399999999,2805
43.60066399999995,5.309143999999991,2742
43.92466399999995,7.25314399999999,2824
43.60066399999995,6.60514399999999,2812
43.276663999999954,6.60514399999999,2820
43.276663999999954,5.957143999999991,2746
45.86866399999994,8.54914399999999,2645
45.54466399999994,8.54914399999999,2652
48.136663999999925,3.365143999999992,2610
48.46066399999992,3.365143999999992,2632
48.46066399999992,2.717143999999992,2591
47.48866399999993,5.309143999999991,2676
46.516663999999935,9.845143999999989,2573
46.84066399999993,10.493143999999988,2593
47.81266399999993,5.309143999999991,2783
45.22066399999994,6.60514399999999,2721
46.19266399999994,4.013143999999992,2684
45.86866399999994,4.013143999999992,2693
45.22066399999994,4.013143999999992,2717
44.89666399999994,4.013143999999992,2784
46.84066399999993,5.309143999999991,2661
48.136663999999925,-1.8188560000000056,2647
48.136663999999925,0.1251439999999934,2610
48.136663999999925,-0.5228560000000062,2692
47.48866399999993,-0.5228560000000062,2646
47.16466399999993,-1.8188560000000056,2687
47.48866399999993,0.7731439999999932,2620
47.16466399999993,0.1251439999999934,2698
45.86866399999994,7.25314399999999,2599
48.136663999999925,5.309143999999991,2732
49.10866399999992,4.661143999999991,2629
48.46066399999992,4.013143999999992,2690
48.136663999999925,4.661143999999991,2728
47.81266399999993,6.60514399999999,2551
47.48866399999993,5.957143999999991,2721
48.136663999999925,5.957143999999991,3070
45.86866399999994,7.90114399999999,2594
46.516663999999935,7.90114399999999,2569
49.43266399999992,3.365143999999992,2560
49.43266399999992,4.013143999999992,2600
48.136663999999925,2.717143999999992,2830
47.81266399999993,2.717143999999992,2823
47.48866399999993,2.717143999999992,2755
50.40466399999991,2.717143999999992,2463
48.46066399999992,-4.410856000000004,2763
48.46066399999992,-3.7628560000000046,2750
48.46066399999992,-3.114856000000005,2735
48.46066399999992,-2.4668560000000053,2705
47.48866399999993,1.4211439999999929,2675
47.16466399999993,1.4211439999999929,2687
46.516663999999935,4.013143999999992,2725
43.60066399999995,4.661143999999991,2729
44.89666399999994,2.717143999999992,2941
45.22066399999994,2.717143999999992,2994
45.54466399999994,3.365143999999992,2807
45.22066399999994,3.365143999999992,2850
47.48866399999993,3.365143999999992,2684
46.19266399999994,9.845143999999989,2641
47.81266399999993,2.0691439999999925,2685
47.48866399999993,2.0691439999999925,2722
45.86866399999994,2.717143999999992,2774
44.89666399999994,5.957143999999991,2734
45.22066399999994,1.4211439999999929,2789
44.89666399999994,1.4211439999999929,2809
44.89666399999994,2.0691439999999925,2892
43.276663999999954,2.0691439999999925,2853
43.60066399999995,1.4211439999999929,2851
48.78466399999992,4.661143999999991,2612
48.78466399999992,5.309143999999991,2531
46.19266399999994,2.0691439999999925,2918
45.86866399999994,1.4211439999999929,2800
46.19266399999994,1.4211439999999929,2850
44.572663999999946,4.013143999999992,2863
44.89666399999994,3.365143999999992,2951
43.92466399999995,4.013143999999992,2730
44.24866399999995,4.013143999999992,2757
44.89666399999994,-0.5228560000000062,2714
45.54466399999994,0.1251439999999934,2756
46.516663999999935,0.1251439999999934,2730
44.572663999999946,2.0691439999999925,2858
49.75666399999992,4.013143999999992,2498
43.92466399999995,3.365143999999992,3129
43.92466399999995,2.717143999999992,3160
44.24866399999995,3.365143999999992,3184
44.572663999999946,3.365143999999992,3177
49.10866399999992,0.1251439999999934,2656
49.43266399999992,0.7731439999999932,2637
49.43266399999992,-1.8188560000000056,2719
49.10866399999992,-1.170856000000006,2693
49.10866399999992,-0.5228560000000062,2669
49.10866399999992,0.7731439999999932,2641
49.10866399999992,1.4211439999999929,2612
47.81266399999993,-1.8188560000000056,2701
47.81266399999993,-2.4668560000000053,2727
47.81266399999993,-3.114856000000005,2740
48.136663999999925,-3.7628560000000046,2801
44.572663999999946,9.197143999999987,2756
44.89666399999994,8.54914399999999,2702
45.22066399999994,9.197143999999987,2659
45.54466399999994,10.493143999999988,2707
44.572663999999946,10.493143999999988,2758
44.89666399999994,10.493143999999988,2744
44.89666399999994,9.845143999999989,2712
48.46066399999992,5.309143999999991,2720
50.91599999999999,-1.0580000000000025,65535
51.23999999999999,-0.4100000000000028,65535
50.91599999999999,-0.4100000000000028,65535
51.23999999999999,-2.354000000000002,65535
51.56399999999999,-2.354000000000002,65535
51.56399999999999,-3.0020000000000016,65535
50.91599999999999,-2.354000000000002,65535
53.50799999999997,-3.0020000000000016,65535
53.183999999999976,-2.354000000000002,65535
53.183999999999976,-3.0020000000000016,65535
52.85999999999998,-2.354000000000002,65535
52.21199999999998,-1.0580000000000025,65535
51.887999999999984,-1.0580000000000025,65535
52.53599999999998,-1.0580000000000025,65535
52.53599999999998,-1.7060000000000022,65535
52.85999999999998,-1.7060000000000022,65535
53.50799999999997,-2.354000000000002,65535
52.85999999999998,-1.0580000000000025,65535
52.53599999999998,1.5339999999999965,65535
52.53599999999998,0.8859999999999966,65535
52.53599999999998,0.2379999999999968,65535
52.53599999999998,-0.4100000000000028,65535
53.50799999999997,-1.7060000000000022,65535
53.183999999999976,-1.7060000000000022,65535
53.183999999999976,-1.0580000000000025,65535
52.85999999999998,-0.4100000000000028,65535
51.887999999999984,-2.354000000000002,65535
52.21199999999998,-2.354000000000002,65535
55.77599999999996,-2.354000000000002,65535
53.83199999999997,-1.0580000000000025,65535
53.83199999999997,-1.7060000000000022,65535
55.127999999999965,-1.7060000000000022,65535
54.80399999999997,-1.7060000000000022,65535
54.47999999999997,-1.7060000000000022,65535
54.15599999999997,-1.0580000000000025,65535
52.21199999999998,-1.7060000000000022,65535
53.50799999999997,-1.0580000000000025,65535
55.77599999999996,-3.0020000000000016,65535
55.45199999999996,-1.7060000000000022,65535
57.07199999999995,-2.354000000000002,65535
56.74799999999996,-3.0020000000000016,65535
56.42399999999996,-3.0020000000000016,65535
56.09999999999996,-3.650000000000001,65535
50.91599999999999,-3.0020000000000016,65535
50.91599999999999,-3.650000000000001,65535
50.59199999999999,-3.650000000000001,65535
50.59199999999999,-4.298000000000001,65535
51.23999999999999,-3.0020000000000016,65535
50.268,-4.946000000000001,65535
55.77599999999996,-3.650000000000001,65535
55.77599999999996,-4.298000000000001,65535
52.21199999999998,-0.4100000000000028,65535
52.53599999999998,-2.354000000000002,65535
51.56399999999999,-1.7060000000000022,65535
51.56399999999999,-3.650000000000001,65535
51.887999999999984,-4.298000000000001,65535
51.56399999999999,-4.298000000000001,65535
51.887999999999984,-1.7060000000000022,65535
52.21199999999998,-3.0020000000000016,65535
51.23999999999999,0.2379999999999968,65535
50.91599999999999,0.2379999999999968,65535
52.21199999999998,0.2379999999999968,65535
53.83199999999997,-3.0020000000000016,65535
54.15599999999997,-3.0020000000000016,65535
54.47999999999997,-3.0020000000000016,65535
55.127999999999965,-3.650000000000001,65535
54.80399999999997,-3.0020000000000016,65535
53.83199999999997,-2.354000000000002,65535
54.15599999999997,-0.4100000000000028,65535
54.47999999999997,-1.0580000000000025,65535
53.83199999999997,-0.4100000000000028,65535
53.183999999999976,-3.650000000000001,65535
53.183999999999976,-4.298000000000001,65535
52.85999999999998,-3.0020000000000016,65535
52.53599999999998,-3.0020000000000016,65535
51.887999999999984,-3.0020000000000016,65535
51.23999999999999,0.8859999999999966,65535
51.887999999999984,0.2379999999999968,65535
52.21199999999998,0.8859999999999966,65535
51.887999999999984,-4.946000000000001,65535
52.53599999999998,-3.650000000000001,65535
52.21199999999998,-4.298000000000001,65535
53.183999999999976,-0.4100000000000028,65535
51.23999999999999,-3.650000000000001,65535
51.887999999999984,-3.650000000000001,65535
52.21199999999998,-3.650000000000001,65535
51.56399999999999,0.8859999999999966,65535
51.887999999999984,0.8859999999999966,65535
52.85999999999998,0.8859999999999966,65535
53.50799999999997,-0.4100000000000028,65535
56.09999999999996,-4.298000000000001,65535
56.74799999999996,-4.946000000000001,65535
56.74799999999996,-4.298000000000001,65535
56.42399999999996,-4.946000000000001,65535
56.42399999999996,-4.298000000000001,65535
56.09999999999996,-4.946000000000001,65535
57.39599999999995,-4.298000000000001,65535
57.39599999999995,-3.0020000000000016,65535
57.39599999999995,-3.650000000000001,65535
56.42399999999996,-3.650000000000001,65535
57.07199999999995,-3.650000000000001,65535
57.07199999999995,-4.298000000000001,65535
56.74799999999996,-3.650000000000001,65535
59.15266399999986,27.34114399999998,65535
59.47666399999986,26.69314399999997,65535
59.47666399999986,26.04514399999998,65535
59.15266399999986,26.04514399999998,65535
59.15266399999986,24.74914399999998,65535
59.15266399999986,25.397143999999983,65535
59.47666399999986,25.397143999999983,65535
58.50466399999986,26.69314399999997,65535
58.82866399999986,26.69314399999997,65535
57.85666399999987,26.04514399999998,65535
58.180663999999865,26.04514399999998,65535
58.180663999999865,26.69314399999997,65535
58.82866399999986,26.04514399999998,65535
58.50466399999986,25.397143999999983,65535
58.82866399999986,25.397143999999983,65535
58.82866399999986,24.74914399999998,65535
58.180663999999865,27.34114399999998,65535
57.85666399999987,27.34114399999998,65535
63.68866399999983,27.34114399999998,7077
60.124663999999854,24.74914399999998,3733
60.44866399999985,24.74914399999998,3702
60.44866399999985,25.397143999999983,3714
60.77266399999985,25.397143999999983,4425
61.09666399999985,26.04514399999998,4468
60.77266399999985,26.04514399999998,4476
60.77266399999985,26.69314399999997,4495
61.09666399999985,25.397143999999983,4459
61.09666399999985,26.69314399999997,7198
61.420663999999846,26.69314399999997,7220
61.74466399999984,27.34114399999998,7244
62.06866399999984,27.34114399999998,7269
62.39266399999984,27.34114399999998,7293
62.71666399999984,27.34114399999998,7257
64.01266399999983,27.34114399999998,7033
63.36466399999984,27.34114399999998,7145
63.04066399999984,27.34114399999998,7185
63.04066399999984,27.989143999999985,7200
64.33666399999983,27.989143999999985,4784
64.33666399999983,27.34114399999998,4729
64.66066399999983,27.34114399999998,4714
64.66066399999983,26.69314399999997,4659
64.98466399999982,25.397143999999983,3079
64.66066399999983,26.04514399999998,4640
64.98466399999982,26.04514399999998,4624
66.28066399999982,25.397143999999983,3251
65.95666399999982,24.74914399999998,2992
65.63266399999982,24.74914399999998,2996
65.63266399999982,25.397143999999983,3038
65.30866399999982,25.397143999999983,3059
66.60466399999981,25.397143999999983,3285
64.01266399999983,24.74914399999998,3216
64.01266399999983,24.101143999999977,3251
64.01266399999983,23.45314399999998,3275
63.68866399999983,23.45314399999998,3287
63.68866399999983,22.805143999999984,3312
63.68866399999983,26.04514399999998,5344
63.68866399999983,25.397143999999983,5310
63.68866399999983,26.69314399999997,7044
60.44866399999985,26.69314399999997,7829
64.01266399999983,27.989143999999985,7463
62.71666399999984,22.805143999999984,3434
62.39266399999984,22.805143999999984,3466
62.06866399999984,22.805143999999984,3495
62.06866399999984,23.45314399999998,3511
61.74466399999984,23.45314399999998,3523
61.420663999999846,23.45314399999998,3571
61.09666399999985,23.45314399999998,3612
61.09666399999985,24.101143999999977,3619
61.09666399999985,24.74914399999998,3653
60.77266399999985,24.74914399999998,3669
63.04066399999984,21.50914399999997,65535
63.04066399999984,22.15714399999998,65535
63.04066399999984,22.805143999999984,3398
62.39266399999984,26.04514399999998,7441
62.06866399999984,25.397143999999983,7490
61.74466399999984,25.397143999999983,7558
61.74466399999984,24.74914399999998,7595
61.74466399999984,24.101143999999977,3800
61.420663999999846,24.101143999999977,3755
62.39266399999984,26.69314399999997,7412
64.66066399999983,25.397143999999983,3148
64.66066399999983,24.74914399999998,3166
64.33666399999983,24.74914399999998,3177
63.36466399999984,22.805143999999984,3337
67.25266399999981,24.101143999999977,6865
66.92866399999981,24.101143999999977,6829
66.60466399999981,23.45314399999998,6798
66.28066399999982,23.45314399999998,6780
66.28066399999982,24.101143999999977,6762
65.95666399999982,24.101143999999977,2364
60.124663999999854,24.101143999999977,5247
60.124663999999854,23.45314399999998,6105
60.44866399999985,22.805143999999984,6164
60.77266399999985,27.34114399999998,4547
61.09666399999985,27.989143999999985,4577
61.09666399999985,28.63714399999997,4615
61.420663999999846,29.28514399999997,4650
61.74466399999984,29.933143999999977,4687
62.06866399999984,29.933143999999977,4713
62.39266399999984,29.933143999999977,4729
62.71666399999984,29.933143999999977,4753
61.420663999999846,22.805143999999984,5858
61.420663999999846,22.15714399999998,6566
61.09666399999985,22.15714399999998,5904
61.420663999999846,21.50914399999997,6699
62.39266399999984,27.989143999999985,65535
62.06866399999984,27.989143999999985,65535
61.420663999999846,27.34114399999998,65535
63.04066399999984,29.933143999999977,6692
63.68866399999983,29.28514399999997,8475
63.36466399999984,29.28514399999997,8455
63.36466399999984,29.933143999999977,8414
60.44866399999985,27.34114399999998,65535
61.74466399999984,29.28514399999997,65535
62.39266399999984,30.58114399999998,65535
62.71666399999984,31.229143999999977,65535
62.71666399999984,29.28514399999997,65535
63.04066399999984,28.63714399999997,65535
66.60466399999981,26.04514399999998,6106
66.60466399999981,26.69314399999997,6142
66.60466399999981,27.34114399999998,6165
62.71666399999984,26.04514399999998,7326
62.71666399999984,25.397143999999983,7295
63.04066399999984,25.397143999999983,7115
63.36466399999984,25.397143999999983,5752
62.71666399999984,23.45314399999998,7320
62.39266399999984,24.101143999999977,65535
62.71666399999984,22.15714399999998,65535
62.39266399999984,22.15714399999998,65535
62.39266399999984,21.50914399999997,65535
61.09666399999985,21.50914399999997,5934
60.77266399999985,22.805143999999984,3972
60.44866399999985,22.15714399999998,4002
60.77266399999985,23.45314399999998,3959
60.77266399999985,21.50914399999997,5073
60.77266399999985,22.15714399999998,5026
60.124663999999854,22.805143999999984,8119
60.44866399999985,24.101143999999977,5232
62.06866399999984,24.74914399999998,65535
50.72866399999991,16.325143999999987,2617
50.40466399999991,16.973143999999984,2718
50.72866399999991,16.973143999999984,2689
50.40466399999991,16.325143999999987,2742
50.08066399999991,16.973143999999984,2840
50.08066399999991,16.325143999999987,2673
51.700663999999904,16.973143999999984,2693
51.37666399999991,16.973143999999984,2699
51.05266399999991,15.677143999999986,2542
50.72866399999991,15.677143999999986,2607
51.05266399999991,17.621143999999987,2713
51.37666399999991,17.621143999999987,2764
51.700663999999904,17.621143999999987,2743
51.700663999999904,16.325143999999987,2679
52.0246639999999,22.15714399999998,2997
52.0246639999999,21.50914399999997,2992
52.3486639999999,21.50914399999997,2994
52.0246639999999,20.86114399999998,2967
51.700663999999904,20.86114399999998,2985
51.37666399999991,21.50914399999997,3003
51.37666399999991,20.86114399999998,3019
51.05266399999991,20.86114399999998,3028
52.6726639999999,23.45314399999998,3069
52.3486639999999,22.805143999999984,3007
52.3486639999999,20.213143999999986,2959
52.0246639999999,20.213143999999986,2928
52.3486639999999,19.565143999999982,2884
52.6726639999999,19.565143999999982,2967
51.700663999999904,21.50914399999997,2997
51.700663999999904,22.15714399999998,3031
52.6726639999999,21.50914399999997,3003
52.996663999999896,21.50914399999997,3030
52.6726639999999,20.86114399999998,3025
52.6726639999999,22.15714399999998,3061
52.6726639999999,20.213143999999986,3026
52.996663999999896,19.565143999999982,3019
52.996663999999896,20.86114399999998,3058
52.996663999999896,20.213143999999986,3062
53.32066399999989,20.213143999999986,2974
51.37666399999991,20.213143999999986,3014
52.3486639999999,16.973143999999984,2716
52.0246639999999,16.973143999999984,2720
52.0246639999999,16.325143999999987,2693
52.0246639999999,17.621143999999987,2770
52.6726639999999,16.973143999999984,2710
52.996663999999896,16.973143999999984,2676
52.3486639999999,16.325143999999987,2680
52.3486639999999,15.677143999999986,2553
51.700663999999904,18.269143999999983,2803
52.6726639999999,17.621143999999987,2740
52.3486639999999,17.621143999999987,2726
52.6726639999999,18.269143999999983,2814
52.3486639999999,18.269143999999983,2797
52.3486639999999,18.917143999999983,2844
52.996663999999896,17.621143999999987,2838
51.700663999999904,19.565143999999982,2884
51.700663999999904,18.917143999999983,2851
51.37666399999991,18.269143999999983,2806
58.82866399999986,9.197143999999987,316
58.180663999999865,7.90114399999999,418
58.50466399999986,8.54914399999999,373
63.36466399999984,10.493143999999988,854
63.36466399999984,11.141143999999988,890
63.36466399999984,11.789143999999988,993
63.68866399999983,11.789143999999988,950
64.33666399999983,12.437143999999988,1104
64.66066399999983,12.437143999999988,1153
65.63266399999982,13.085143999999987,1248
65.95666399999982,13.085143999999987,1277
66.28066399999982,14.381143999999988,1348
65.95666399999982,13.733143999999989,1305
66.28066399999982,13.733143999999989,1327
65.30866399999982,13.085143999999987,1213
64.98466399999982,13.085143999999987,1191
64.01266399999983,11.789143999999988,981
63.68866399999983,11.141143999999988,919
59.800663999999855,10.493143999999988,200
59.800663999999855,11.141143999999988,210
60.124663999999854,11.141143999999988,210
60.44866399999985,11.141143999999988,235
60.124663999999854,11.789143999999988,248
60.77266399999985,7.25314399999999,317
60.77266399999985,6.60514399999999,366
59.15266399999986,9.197143999999987,290
59.47666399999986,9.197143999999987,259
59.800663999999855,9.845143999999989,226
59.47666399999986,11.141143999999988,238
61.09666399999985,10.493143999999988,341
60.77266399999985,10.493143999999988,279
60.77266399999985,11.141143999999988,270
62.06866399999984,9.197143999999987,452
61.74466399999984,9.845143999999989,408
61.420663999999846,9.845143999999989,393
59.15266399999986,9.845143999999989,290
59.47666399999986,9.845143999999989,266
58.82866399999986,5.957143999999991,885
58.180663999999865,7.25314399999999,735
58.50466399999986,7.25314399999999,772
58.50466399999986,6.60514399999999,778
58.50466399999986,5.957143999999991,839
58.82866399999986,8.54914399999999,359
60.44866399999985,7.25314399999999,0
60.44866399999985,7.90114399999999,44
60.124663999999854,10.493143999999988,190
60.44866399999985,9.197143999999987,116
60.77266399999985,9.197143999999987,103
60.77266399999985,8.54914399999999,79
60.124663999999854,9.845143999999989,317
60.44866399999985,10.493143999999988,242
63.04066399999984,10.493143999999988,810
62.06866399999984,9.845143999999989,716
62.39266399999984,9.845143999999989,724
62.71666399999984,9.845143999999989,750
59.47666399999986,14.381143999999988,836
59.47666399999986,13.733143999999989,369
59.47666399999986,13.085143999999987,331
59.800663999999855,12.437143999999988,298
59.15266399999986,11.141143999999988,252
59.15266399999986,14.381143999999988,883
58.82866399999986,11.789143999999988,820
58.50466399999986,12.437143999999988,488
58.180663999999865,12.437143999999988,494
57.85666399999987,11.789143999999988,525
62.71666399999984,7.90114399999999,1288
62.39266399999984,7.90114399999999,1245
62.06866399999984,8.54914399999999,1220
60.44866399999985,5.309143999999991,525
60.44866399999985,5.957143999999991,829
60.77266399999985,5.957143999999991,803
62.39266399999984,11.141143999999988,991
62.06866399999984,10.493143999999988,1028
61.74466399999984,11.141143999999988,1065
61.420663999999846,11.141143999999988,1033
61.09666399999985,11.141143999999988,1016
60.77266399999985,11.789143999999988,993
63.04066399999984,11.141143999999988,920
62.71666399999984,11.141143999999988,942
62.39266399999984,10.493143999999988,1019
67.25266399999981,15.677143999999986,1463
67.25266399999981,15.029143999999986,1508
67.25266399999981,14.381143999999988,1536
66.92866399999981,15.029143999999986,1453
66.60466399999981,15.677143999999986,1431
64.01266399999983,11.141143999999988,965
66.60466399999981,15.029143999999986,1593
54.29266399999989,18.269143999999983,2910
54.616663999999886,17.621143999999987,2868
53.96866399999989,18.269143999999983,2898
43.92466399999995,1.4211439999999929,2822
44.24866399999995,0.7731439999999932,2783
44.572663999999946,0.1251439999999934,2768
46.84066399999993,1.4211439999999929,2818
44.572663999999946,1.4211439999999929,2851
44.24866399999995,1.4211439999999929,2863
45.54466399999994,1.4211439999999929,2784
46.516663999999935,1.4211439999999929,2951
42.30466399999996,2.717143999999992,2876
44.24866399999995,2.717143999999992,2948
44.572663999999946,2.717143999999992,2923
43.92466399999995,2.0691439999999925,2956
42.30466399999996,2.0691439999999925,2907
42.62866399999996,2.0691439999999925,2873
42.62866399999996,1.4211439999999929,2910
42.95266399999996,1.4211439999999929,2872
43.276663999999954,1.4211439999999929,2865
46.516663999999935,-1.170856000000006,2905
46.19266399999994,-1.170856000000006,2825
45.86866399999994,-0.5228560000000062,2800
45.54466399999994,-0.5228560000000062,2756
48.46066399999992,1.4211439999999929,2575
41.332663999999966,2.0691439999999925,2934
41.98066399999996,2.717143999999992,2893
48.46066399999992,-1.8188560000000056,2680
47.81266399999993,0.7731439999999932,2683
46.84066399999993,0.7731439999999932,2698
44.572663999999946,-1.170856000000006,2725
43.60066399999995,-1.170856000000006,2848
43.276663999999954,-1.8188560000000056,2895
43.276663999999954,0.1251439999999934,2986
42.95266399999996,0.1251439999999934,2957
43.276663999999954,-0.5228560000000062,2920
43.60066399999995,-0.5228560000000062,2909
47.81266399999993,-3.7628560000000046,2773
47.48866399999993,-2.4668560000000053,2714
47.81266399999993,-0.5228560000000062,2689
46.516663999999935,-1.8188560000000056,2921
48.136663999999925,-1.170856000000006,2652
47.48866399999993,-1.170856000000006,2695
45.22066399999994,8.54914399999999,2674
45.22066399999994,7.90114399999999,2682
46.19266399999994,-0.5228560000000062,2784
46.516663999999935,-0.5228560000000062,2803
48.78466399999992,-3.114856000000005,2751
50.72866399999991,2.0691439999999925,2519
50.40466399999991,2.0691439999999925,2514
40.36066399999997,-3.7628560000000046,4305
41.65666399999997,-1.170856000000006,4222
41.332663999999966,1.4211439999999929,4160
43.276663999999954,13.733143999999989,65535
42.95266399999996,13.733143999999989,65535
41.65666399999997,15.029143999999986,65535
40.68466399999997,17.621143999999987,65535
43.60066399999995,13.085143999999987,5568
41.65666399999997,12.437143999999988,5366
41.65666399999997,13.085143999999987,5373
41.98066399999996,13.085143999999987,5384
41.65666399999997,13.733143999999989,5421
41.332663999999966,13.733143999999989,5450
41.332663999999966,14.381143999999988,5669
41.00866399999997,14.381143999999988,5575
41.332663999999966,13.085143999999987,5433
41.00866399999997,15.029143999999986,5775
41.98066399999996,13.733143999999989,5466
42.30466399999996,14.381143999999988,5856
42.30466399999996,12.437143999999988,5411
42.62866399999996,12.437143999999988,5419
42.95266399999996,12.437143999999988,5476
42.30466399999996,11.789143999999988,5380
42.95266399999996,11.789143999999988,5676
42.62866399999996,11.789143999999988,5667
43.276663999999954,11.789143999999988,5730
42.95266399999996,13.085143999999987,5469
42.30466399999996,13.085143999999987,8623
43.276663999999954,13.085143999999987,5521
43.276663999999954,12.437143999999988,5529
42.62866399999996,11.141143999999988,5512
42.95266399999996,11.141143999999988,5555
42.95266399999996,10.493143999999988,5573
44.572663999999946,8.54914399999999,2750
44.89666399999994,7.90114399999999,2694
44.89666399999994,9.197143999999987,2712
44.24866399999995,7.90114399999999,2760
44.572663999999946,7.90114399999999,2720
43.92466399999995,7.90114399999999,2851
44.24866399999995,7.25314399999999,2749
44.89666399999994,7.25314399999999,2718
45.22066399999994,7.25314399999999,2698
45.54466399999994,7.90114399999999,2678
44.572663999999946,7.25314399999999,2902
52.996663999999896,22.805143999999984,3160
52.996663999999896,23.45314399999998,3181
51.37666399999991,22.15714399999998,3145
51.37666399999991,22.805143999999984,3199
50.08066399999991,20.213143999999986,2906
50.72866399999991,20.213143999999986,2947
50.40466399999991,20.213143999999986,2886
50.08066399999991,20.86114399999998,2973
50.08066399999991,21.50914399999997,3004
50.08066399999991,22.15714399999998,3041
50.08066399999991,22.805143999999984,3048
53.96866399999989,22.805143999999984,4001
53.64466399999989,23.45314399999998,3789
53.32066399999989,23.45314399999998,3743
50.40466399999991,19.565143999999982,2820
50.08066399999991,18.917143999999983,2850
50.08066399999991,18.269143999999983,2890
52.0246639999999,22.805143999999984,3092
52.0246639999999,23.45314399999998,3130
51.37666399999991,19.565143999999982,2914
51.05266399999991,19.565143999999982,2833
50.72866399999991,18.917143999999983,2811
50.72866399999991,19.565143999999982,2903
49.75666399999992,18.917143999999983,2838
50.40466399999991,18.269143999999983,2798
53.64466399999989,19.565143999999982,2921
53.96866399999989,18.917143999999983,2940
53.64466399999989,18.917143999999983,2919
53.64466399999989,20.213143999999986,2969
52.996663999999896,18.917143999999983,2867
52.996663999999896,18.269143999999983,2847
53.32066399999989,18.917143999999983,2871
50.72866399999991,17.621143999999987,2747
50.72866399999991,18.269143999999983,2784
52.6726639999999,16.325143999999987,2671
52.996663999999896,16.325143999999987,2633
52.996663999999896,15.677143999999986,2590
53.32066399999989,15.677143999999986,2585
53.32066399999989,15.029143999999986,2561
53.64466399999989,15.029143999999986,2568
53.96866399999989,15.029143999999986,2553
52.6726639999999,18.917143999999983,2886
53.32066399999989,16.325143999999987,2603
52.6726639999999,15.029143999999986,2542
51.05266399999991,22.805143999999984,3229
51.05266399999991,23.45314399999998,3256
50.72866399999991,22.15714399999998,3182
50.40466399999991,22.15714399999998,3206
51.05266399999991,22.15714399999998,3196
54.616663999999886,16.973143999999984,2852
54.29266399999989,16.325143999999987,2785
53.96866399999989,15.677143999999986,2700
50.72866399999991,21.50914399999997,3171
50.40466399999991,21.50914399999997,3052
50.40466399999991,17.621143999999987,2768
53.32066399999989,22.805143999999984,3713
53.64466399999989,22.15714399999998,3118
54.29266399999989,16.973143999999984,2821
50.72866399999991,20.86114399999998,2990
51.700663999999904,22.805143999999984,3228
51.05266399999991,21.50914399999997,3055
50.08066399999991,19.565143999999982,2883
52.0246639999999,18.917143999999983,8008
52.0246639999999,19.565143999999982,8001
53.64466399999989,18.269143999999983,2892
51.700663999999904,20.213143999999986,3054
53.32066399999989,19.565143999999982,2912
50.72866399999991,23.45314399999998,4075
50.72866399999991,22.805143999999984,4044
49.43266399999992,20.213143999999986,2926
49.75666399999992,21.50914399999997,3015
49.75666399999992,22.15714399999998,3055
49.43266399999992,22.15714399999998,3067
51.05266399999991,18.917143999999983,2816
51.05266399999991,18.269143999999983,2753
53.32066399999989,16.973143999999984,2779
53.64466399999989,16.973143999999984,2798
49.75666399999992,20.86114399999998,3026
50.40466399999991,22.805143999999984,8090
53.64466399999989,16.325143999999987,2757
53.96866399999989,20.86114399999998,3073
54.29266399999989,20.86114399999998,3119
53.96866399999989,21.50914399999997,3224
53.64466399999989,15.677143999999986,2712
53.96866399999989,20.213143999999986,3001
53.96866399999989,19.565143999999982,2964
54.29266399999989,19.565143999999982,2974
53.96866399999989,16.325143999999987,2748
53.64466399999989,17.621143999999987,2844
53.96866399999989,22.15714399999998,3138
53.64466399999989,21.50914399999997,3074
53.64466399999989,20.86114399999998,3026
52.6726639999999,15.677143999999986,2591
51.05266399999991,20.213143999999986,3275
54.940663999999884,24.101143999999977,4641
54.616663999999886,23.45314399999998,4585
54.29266399999989,23.45314399999998,4448
53.64466399999989,22.805143999999984,3700
53.96866399999989,16.973143999999984,2953
50.40466399999991,20.86114399999998,3928
53.32066399999989,18.269143999999983,2865
49.75666399999992,19.565143999999982,2899
50.40466399999991,23.45314399999998,3325
49.75666399999992,20.213143999999986,2930
49.43266399999992,19.565143999999982,2889
49.43266399999992,20.86114399999998,3035
53.96866399999989,17.621143999999987,3723
42.30466399999996,-1.8188560000000056,8319
41.98066399999996,-1.8188560000000056,8302
41.65666399999997,0.7731439999999932,8306
42.62866399999996,-1.8188560000000056,8434
42.95266399999996,-1.8188560000000056,8463
42.62866399999996,-3.114856000000005,8557
42.95266399999996,-2.4668560000000053,8535
42.62866399999996,-7.650856000000003,8899
42.30466399999996,-7.650856000000003,8959
42.30466399999996,-8.946856000000002,9095
42.30466399999996,-8.298856000000002,9069
41.98066399999996,-8.298856000000002,9058
42.30466399999996,-7.002856000000003,8841
42.62866399999996,-6.354856000000003,8783
42.30466399999996,-6.354856000000003,8738
42.62866399999996,-5.706856000000004,8238
41.98066399999996,-4.410856000000004,8192
42.30466399999996,-3.7628560000000046,8583
40.03666399999997,-0.5228560000000062,8286
39.38866399999998,-0.5228560000000062,8334
41.00866399999997,0.7731439999999932,8434
40.68466399999997,0.7731439999999932,8466
40.36066399999997,0.1251439999999934,8544
39.712663999999975,-0.5228560000000062,8443
38.41666399999998,-0.5228560000000062,8455
39.06466399999998,-0.5228560000000062,8577
38.74066399999998,-1.170856000000006,8463
41.332663999999966,0.7731439999999932,8494
41.65666399999997,2.717143999999992,8094
41.65666399999997,2.0691439999999925,8117
41.332663999999966,0.1251439999999934,8452
41.332663999999966,-0.5228560000000062,8396
41.65666399999997,-4.410856000000004,8166
40.03666399999997,-2.4668560000000053,8404
41.00866399999997,-4.410856000000004,8287
43.276663999999954,-5.706856000000004,8368
39.38866399999998,-1.170856000000006,8429
38.09266399999999,-1.170856000000006,8842
38.74066399999998,-0.5228560000000062,8605
37.76866399999999,-1.170856000000006,8907
39.06466399999998,-1.8188560000000056,8427
39.38866399999998,-3.114856000000005,8327
39.38866399999998,-2.4668560000000053,8383
39.06466399999998,-2.4668560000000053,8410
39.06466399999998,-3.114856000000005,8331
39.06466399999998,-3.7628560000000046,8305
38.74066399999998,-3.7628560000000046,8384
40.03666399999997,-3.7628560000000046,8283
40.03666399999997,-3.114856000000005,8483
40.03666399999997,-1.8188560000000056,8564
39.712663999999975,-1.8188560000000056,8529
39.712663999999975,-1.170856000000006,8465
40.36066399999997,-1.170856000000006,8484
40.68466399999997,-1.170856000000006,8462
41.00866399999997,-1.170856000000006,8450
41.332663999999966,-1.170856000000006,8290
43.276663999999954,-8.298856000000002,9059
42.95266399999996,-8.298856000000002,9027
41.65666399999997,-5.706856000000004,65535
41.98066399999996,-7.002856000000003,65535
41.98066399999996,-6.354856000000003,65535
41.332663999999966,-5.058856000000004,8405
43.276663999999954,-3.7628560000000046,8840
42.95266399999996,-4.410856000000004,8774
42.62866399999996,-4.410856000000004,8764
42.30466399999996,-4.410856000000004,8723
41.00866399999997,-5.706856000000004,8343
41.332663999999966,-1.8188560000000056,8236
40.68466399999997,-3.114856000000005,8190
41.00866399999997,-3.114856000000005,8241
41.00866399999997,-2.4668560000000053,8264
41.332663999999966,-2.4668560000000053,8317
40.68466399999997,-4.410856000000004,8227
40.36066399999997,-4.410856000000004,8311
40.68466399999997,-3.7628560000000046,8219
40.36066399999997,-3.114856000000005,8197
41.65666399999997,-2.4668560000000053,8334
38.09266399999999,-3.7628560000000046,8431
38.74066399999998,-3.114856000000005,8375
37.76866399999999,-3.7628560000000046,8488
39.712663999999975,-3.114856000000005,8319
38.41666399999998,-3.7628560000000046,8396
40.03666399999997,-4.410856000000004,65535
40.03666399999997,-5.058856000000004,65535
39.38866399999998,-6.354856000000003,65535
39.38866399999998,-7.002856000000003,65535
42.95266399999996,-3.114856000000005,8968
41.98066399999996,-1.170856000000006,8331
42.30466399999996,-2.4668560000000053,8372
41.65666399999997,-0.5228560000000062,8429
41.98066399999996,-0.5228560000000062,8266
41.65666399999997,0.1251439999999934,8293
41.98066399999996,0.1251439999999934,8315
37.76866399999999,-5.058856000000004,8367
36.79666399999999,-4.410856000000004,8426
38.74066399999998,-4.410856000000004,8323
37.12066399999999,-4.410856000000004,8400
37.44466399999999,-5.058856000000004,8924
37.44466399999999,-7.002856000000003,65535
37.44466399999999,-6.354856000000003,65535
37.44466399999999,-5.706856000000004,8600
39.712663999999975,-3.7628560000000046,8393
42.62866399999996,-8.946856000000002,65535
42.30466399999996,-5.706856000000004,8745
42.30466399999996,-5.058856000000004,8830
42.95266399999996,-5.706856000000004,8270
41.00866399999997,-5.058856000000004,8311
40.68466399999997,-5.058856000000004,8285
41.65666399999997,-5.058856000000004,65535
41.65666399999997,-6.354856000000003,65535
36.79666399999999,-6.354856000000003,65535
37.12066399999999,-5.706856000000004,8768
37.76866399999999,-5.706856000000004,8567
38.09266399999999,-4.410856000000004,8702
37.12066399999999,-5.058856000000004,8722
36.79666399999999,-5.058856000000004,8680
37.76866399999999,-4.410856000000004,65535
37.76866399999999,-7.002856000000003,65535
38.41666399999998,-6.354856000000003,65535
38.09266399999999,-6.354856000000003,65535
48.78466399999992,1.4211439999999929,2641
56.23666399999988,8.54914399999999,6610
55.58866399999988,9.197143999999987,6415
55.91266399999988,9.197143999999987,6556
55.26466399999988,10.493143999999988,2037
55.91266399999988,12.437143999999988,930
55.58866399999988,11.789143999999988,6255
55.58866399999988,11.141143999999988,6296
55.26466399999988,11.789143999999988,6288
55.58866399999988,10.493143999999988,6411
55.58866399999988,13.085143999999987,924
56.88466399999987,9.845143999999989,6562
57.20866399999987,9.845143999999989,6597
56.56066399999988,9.845143999999989,6534
56.88466399999987,8.54914399999999,6649
54.940663999999884,9.845143999999989,7756
54.940663999999884,11.789143999999988,6512
55.91266399999988,13.085143999999987,919
56.23666399999988,13.733143999999989,938
55.91266399999988,13.733143999999989,933
56.23666399999988,14.381143999999988,954
56.23666399999988,15.029143999999986,972
56.23666399999988,15.677143999999986,1027
56.56066399999988,14.381143999999988,962
56.88466399999987,14.381143999999988,944
56.23666399999988,13.085143999999987,914
56.56066399999988,13.085143999999987,873
56.88466399999987,12.437143999999988,854
57.20866399999987,12.437143999999988,801
57.53266399999987,12.437143999999988,778
56.88466399999987,15.029143999999986,965
56.56066399999988,15.677143999999986,985
56.88466399999987,15.677143999999986,1003
56.88466399999987,16.325143999999987,1019
55.91266399999988,11.789143999999988,6581
57.20866399999987,10.493143999999988,6784
49.43266399999992,1.4211439999999929,2666
49.75666399999992,0.7731439999999932,2659
49.75666399999992,2.0691439999999925,2587
50.08066399999991,2.717143999999992,2563
49.75666399999992,1.4211439999999929,2640
47.81266399999993,1.4211439999999929,2715
48.136663999999925,2.0691439999999925,2745
48.46066399999992,2.0691439999999925,2791
48.136663999999925,1.4211439999999929,2693
48.78466399999992,0.1251439999999934,2692
48.46066399999992,0.1251439999999934,2690
47.81266399999993,0.1251439999999934,2653
46.84066399999993,-0.5228560000000062,2849
47.16466399999993,0.7731439999999932,2668
46.84066399999993,0.1251439999999934,2719
46.84066399999993,-1.170856000000006,2879
50.08066399999991,1.4211439999999929,2547
50.08066399999991,2.0691439999999925,2564
49.43266399999992,2.717143999999992,2592
49.75666399999992,3.365143999999992,2530
50.08066399999991,3.365143999999992,2482
49.10866399999992,2.0691439999999925,2581
49.43266399999992,2.0691439999999925,2564
48.78466399999992,0.7731439999999932,2641
48.78466399999992,-0.5228560000000062,2721
48.78466399999992,-1.170856000000006,2740
48.136663999999925,0.7731439999999932,2624
48.46066399999992,0.7731439999999932,2649
43.92466399999995,5.957143999999991,2793
44.24866399999995,5.957143999999991,2833
43.92466399999995,5.309143999999991,2741
42.95266399999996,2.717143999999992,2838
45.54466399999994,2.0691439999999925,2821
45.22066399999994,2.0691439999999925,2838
42.95266399999996,2.0691439999999925,2891
42.95266399999996,0.7731439999999932,2906
43.276663999999954,0.7731439999999932,2891
46.19266399999994,0.7731439999999932,2845
46.516663999999935,0.7731439999999932,2779
45.86866399999994,0.1251439999999934,2933
46.19266399999994,0.1251439999999934,2920
47.81266399999993,-1.170856000000006,2763
48.136663999999925,-2.4668560000000053,2706
47.48866399999993,-1.8188560000000056,2696
47.16466399999993,-1.170856000000006,2715
47.16466399999993,-0.5228560000000062,2723
46.84066399999993,-1.8188560000000056,2752
45.22066399999994,-0.5228560000000062,2726
44.89666399999994,0.1251439999999934,2719
45.22066399999994,0.7731439999999932,2743
45.54466399999994,0.7731439999999932,2753
45.86866399999994,0.7731439999999932,2918
45.22066399999994,0.1251439999999934,2732
44.89666399999994,0.7731439999999932,2756
43.92466399999995,-0.5228560000000062,2879
43.92466399999995,-1.170856000000006,2850
44.24866399999995,-1.170856000000006,2847
45.22066399999994,-1.170856000000006,2778
44.572663999999946,-0.5228560000000062,2743
44.24866399999995,0.1251439999999934,2790
44.572663999999946,0.7731439999999932,2837
43.276663999999954,-1.170856000000006,2872
42.95266399999996,-0.5228560000000062,3037
44.24866399999995,2.0691439999999925,3000
43.60066399999995,0.7731439999999932,2890
43.60066399999995,2.0691439999999925,2898
52.6726639999999,4.661143999999991,6601
52.6726639999999,5.309143999999991,6624
51.700663999999904,5.309143999999991,6569
52.0246639999999,5.309143999999991,6581
52.3486639999999,5.309143999999991,6597
51.37666399999991,4.013143999999992,6577
52.3486639999999,5.957143999999991,6591
52.0246639999999,6.60514399999999,6621
52.6726639999999,5.957143999999991,6608
52.996663999999896,5.957143999999991,6621
53.32066399999989,5.957143999999991,6615
52.996663999999896,6.60514399999999,6597
53.32066399999989,6.60514399999999,6589
52.6726639999999,6.60514399999999,6617
52.996663999999896,5.309143999999991,6636
59.15266399999986,24.101143999999977,65535
56.88466399999987,24.101143999999977,65535
56.88466399999987,23.45314399999998,65535
56.88466399999987,22.805143999999984,65535
57.20866399999987,24.74914399999998,65535
56.88466399999987,24.74914399999998,65535
56.56066399999988,24.74914399999998,65535
56.56066399999988,25.397143999999983,65535
56.56066399999988,24.101143999999977,65535
56.56066399999988,23.45314399999998,65535
56.56066399999988,26.04514399999998,65535
56.88466399999987,26.04514399999998,65535
57.20866399999987,25.397143999999983,65535
57.53266399999987,25.397143999999983,65535
56.23666399999988,26.04514399999998,65535
56.23666399999988,26.69314399999997,65535
55.91266399999988,26.69314399999997,65535
56.56066399999988,26.69314399999997,65535
56.56066399999988,27.34114399999998,65535
56.56066399999988,27.989143999999985,65535
56.23666399999988,27.989143999999985,65535
55.91266399999988,27.34114399999998,65535
56.56066399999988,22.805143999999984,65535
56.56066399999988,22.15714399999998,65535
56.56066399999988,21.50914399999997,65535
57.20866399999987,26.69314399999997,65535
39.06466399999998,-8.946856000000002,65535
38.41666399999998,-8.298856000000002,65535
45.86866399999994,11.789143999999988,3988
46.19266399999994,11.789143999999988,3975
46.19266399999994,10.493143999999988,3965
45.22066399999994,18.269143999999983,3031
45.22066399999994,18.917143999999983,3057
45.54466399999994,16.973143999999984,2936
45.22066399999994,17.621143999999987,2957
45.86866399999994,16.325143999999987,2853
45.54466399999994,18.917143999999983,3094
45.54466399999994,16.325143999999987,2894
45.54466399999994,18.269143999999983,3089
44.89666399999994,18.917143999999983,3960
46.19266399999994,16.973143999999984,2881
46.19266399999994,16.325143999999987,2868
45.86866399999994,16.973143999999984,2891
45.86866399999994,17.621143999999987,3075
46.19266399999994,15.677143999999986,2795
46.516663999999935,16.325143999999987,2853
45.54466399999994,15.677143999999986,2879
45.22066399999994,15.029143999999986,2875
45.54466399999994,15.029143999999986,2855
45.22066399999994,15.677143999999986,2942
44.572663999999946,15.677143999999986,3019
44.24866399999995,15.677143999999986,3040
43.92466399999995,16.325143999999987,3104
44.89666399999994,15.677143999999986,2983
45.54466399999994,17.621143999999987,3106
45.22066399999994,16.325143999999987,2943
46.516663999999935,16.973143999999984,2895
45.86866399999994,18.269143999999983,3115
43.92466399999995,15.677143999999986,3808
45.22066399999994,13.733143999999989,2981
47.48866399999993,19.565143999999982,3034
47.16466399999993,18.917143999999983,3033
47.81266399999993,18.917143999999983,2986
45.54466399999994,9.845143999999989,2659
45.22066399999994,9.845143999999989,2668
45.22066399999994,10.493143999999988,2718
45.86866399999994,9.845143999999989,2679
45.86866399999994,10.493143999999988,6678
48.78466399999992,21.50914399999997,2977
49.10866399999992,20.213143999999986,2918
49.10866399999992,18.917143999999983,2826
48.46066399999992,17.621143999999987,2867
49.43266399999992,17.621143999999987,2773
49.10866399999992,17.621143999999987,2821
48.136663999999925,18.269143999999983,2898
49.10866399999992,18.269143999999983,2847
49.43266399999992,18.269143999999983,2804
49.43266399999992,16.973143999999984,2751
49.75666399999992,16.973143999999984,2721
49.75666399999992,16.325143999999987,2699
50.08066399999991,15.677143999999986,2651
50.08066399999991,15.029143999999986,2621
49.43266399999992,18.917143999999983,2815
47.81266399999993,20.86114399999998,3115
48.136663999999925,20.86114399999998,3050
48.46066399999992,20.86114399999998,3037
48.46066399999992,21.50914399999997,2992
49.10866399999992,19.565143999999982,2839
48.136663999999925,17.621143999999987,2846
48.78466399999992,22.15714399999998,3110
48.78466399999992,20.86114399999998,3265
49.10866399999992,20.86114399999998,2961
48.78466399999992,18.269143999999983,2890
48.78466399999992,17.621143999999987,2849
49.10866399999992,21.50914399999997,2969
48.78466399999992,20.213143999999986,3309
48.46066399999992,20.213143999999986,3321
48.136663999999925,19.565143999999982,3045
48.46066399999992,19.565143999999982,2924
48.46066399999992,18.917143999999983,2906
48.46066399999992,18.269143999999983,2903
48.78466399999992,19.565143999999982,2880
48.78466399999992,18.917143999999983,2866
47.81266399999993,18.269143999999983,2947
49.10866399999992,22.15714399999998,3164
49.43266399999992,21.50914399999997,3094
48.136663999999925,18.917143999999983,3099
48.136663999999925,20.213143999999986,3065
52.636,-8.018,65535
52.312,-7.370000000000001,65535
52.312,-8.018,65535
52.636,-8.666,65535
51.988,-8.666,65535
51.988,-8.018,65535
52.96,-8.666,65535
52.96,-6.074000000000002,65535
53.28399999999999,-6.722000000000001,65535
53.60799999999999,-6.722000000000001,65535
53.60799999999999,-7.370000000000001,65535
53.60799999999999,-8.018,65535
54.25599999999999,-8.666,65535
53.93199999999999,-8.666,65535
53.93199999999999,-8.018,65535
52.312,-6.722000000000001,65535
52.636,-6.722000000000001,65535
53.93199999999999,-6.722000000000001,65535
54.25599999999999,-6.074000000000002,65535
53.28399999999999,-7.370000000000001,65535
52.96,-7.370000000000001,65535
52.312,-8.666,65535
52.96,-8.018,65535
52.636,-7.370000000000001,65535
52.96,-6.722000000000001,65535
51.988,-9.314,65535
52.312,-9.314,65535
54.579999999999984,-6.722000000000001,65535
54.579999999999984,-6.074000000000002,65535
53.28399999999999,-8.018,65535
53.28399999999999,-8.666,65535
53.28399999999999,-9.314,65535
53.93199999999999,-9.314,65535
54.25599999999999,-9.314,65535
53.60799999999999,-8.666,65535
53.60799999999999,-9.314,65535
49.43266399999992,14.381143999999988,2675
49.75666399999992,14.381143999999988,2633
49.75666399999992,15.029143999999986,2626
49.75666399999992,13.733143999999989,2663
50.08066399999991,13.733143999999989,2657
49.75666399999992,15.677143999999986,2637
50.40466399999991,15.029143999999986,2616
49.43266399999992,13.733143999999989,2766
50.40466399999991,15.677143999999986,2627
50.40466399999991,13.733143999999989,2683
46.19266399999994,15.029143999999986,2789
45.86866399999994,15.029143999999986,2816
45.86866399999994,14.381143999999988,2805
46.19266399999994,13.733143999999989,2822
45.86866399999994,13.733143999999989,2908
58.50466399999986,13.733143999999989,851
58.180663999999865,13.733143999999989,837
58.180663999999865,13.085143999999987,822
57.85666399999987,12.437143999999988,537
60.44866399999985,15.677143999999986,1025
60.124663999999854,15.677143999999986,998
60.124663999999854,16.325143999999987,1039
59.800663999999855,16.325143999999987,984
59.800663999999855,17.621143999999987,1002
59.47666399999986,18.269143999999983,980
61.74466399999984,16.973143999999984,1198
61.420663999999846,16.973143999999984,1171
60.77266399999985,16.973143999999984,1076
65.63266399999982,22.15714399999998,2302
65.95666399999982,21.50914399999997,2262
65.63266399999982,20.86114399999998,2233
64.98466399999982,20.213143999999986,2165
64.66066399999983,20.213143999999986,2143
64.33666399999983,19.565143999999982,1837
64.01266399999983,19.565143999999982,1550
63.68866399999983,20.213143999999986,1503
64.66066399999983,18.917143999999983,2514
59.15266399999986,16.325143999999987,927
59.15266399999986,15.029143999999986,888
59.15266399999986,17.621143999999987,966
57.53266399999987,14.381143999999988,898
57.53266399999987,15.029143999999986,905
61.09666399999985,14.381143999999988,1177
60.77266399999985,15.029143999999986,1134
60.44866399999985,15.029143999999986,1124
58.180663999999865,15.029143999999986,941
58.50466399999986,16.325143999999987,981
58.50466399999986,15.677143999999986,957
63.36466399999984,13.085143999999987,1083
63.04066399999984,14.381143999999988,1161
62.39266399999984,15.677143999999986,1236
63.36466399999984,13.733143999999989,1111
63.36466399999984,14.381143999999988,1148
62.71666399999984,15.677143999999986,1219
62.39266399999984,17.621143999999987,1256
59.800663999999855,15.677143999999986,1533
55.58866399999988,13.733143999999989,938
57.20866399999987,14.381143999999988,911
57.85666399999987,14.381143999999988,882
58.82866399999986,16.973143999999984,1003
58.82866399999986,16.325143999999987,1010
59.15266399999986,18.269143999999983,969
60.44866399999985,17.621143999999987,1039
59.15266399999986,12.437143999999988,444
59.15266399999986,13.085143999999987,434
58.82866399999986,12.437143999999988,468
59.47666399999986,16.325143999999987,929
58.82866399999986,14.381143999999988,869
59.47666399999986,15.677143999999986,905
63.36466399999984,18.917143999999983,1456
63.04066399999984,17.621143999999987,1411
62.71666399999984,17.621143999999987,1385
63.68866399999983,19.565143999999982,1489
62.39266399999984,16.973143999999984,1300
59.800663999999855,16.973143999999984,963
59.47666399999986,17.621143999999987,975
57.85666399999987,13.085143999999987,836
57.53266399999987,13.085143999999987,880
58.50466399999986,11.789143999999988,846
57.85666399999987,15.029143999999986,930
57.20866399999987,13.733143999999989,923
57.53266399999987,13.733143999999989,939
61.74466399999984,16.325143999999987,1176
61.420663999999846,16.325143999999987,1144
61.09666399999985,16.325143999999987,1133
61.09666399999985,16.973143999999984,1117
60.124663999999854,15.029143999999986,972
66.60466399999981,20.86114399999998,2337
67.25266399999981,20.86114399999998,2405
67.90066399999981,20.213143999999986,2475
67.57666399999981,20.213143999999986,3100
59.800663999999855,15.029143999999986,931
58.50466399999986,15.029143999999986,960
59.47666399999986,15.029143999999986,920
60.44866399999985,16.325143999999987,1069
59.15266399999986,15.677143999999986,929
57.85666399999987,13.733143999999989,865
58.82866399999986,13.733143999999989,890
58.50466399999986,13.085143999999987,924
57.20866399999987,13.085143999999987,1016
56.88466399999987,13.085143999999987,985
58.180663999999865,11.789143999999988,845
62.06866399999984,16.973143999999984,1289
65.95666399999982,23.45314399999998,2343
59.800663999999855,14.381143999999988,5411
59.800663999999855,18.269143999999983,1013
63.04066399999984,15.029143999999986,1179
62.71666399999984,15.029143999999986,1211
62.39266399999984,16.325143999999987,1254
63.36466399999984,12.437143999999988,1059
68.5486639999998,17.621143999999987,2688
68.5486639999998,18.269143999999983,2621
68.5486639999998,18.917143999999983,2598
68.2246639999998,18.917143999999983,2554
59.800663999999855,13.085143999999987,437
60.124663999999854,13.085143999999987,477
59.47666399999986,16.973143999999984,948
59.15266399999986,16.973143999999984,957
56.56066399999988,13.733143999999989,978
60.124663999999854,17.621143999999987,1016
57.85666399999987,16.325143999999987,1159
58.180663999999865,16.325143999999987,1124
58.180663999999865,15.677143999999986,1021
57.20866399999987,16.325143999999987,1047
57.53266399999987,15.677143999999986,1065
57.85666399999987,15.677143999999986,1036
44.89666399999994,23.45314399999998,5365
44.572663999999946,23.45314399999998,5435
44.89666399999994,24.74914399999998,5404
44.572663999999946,24.74914399999998,5480
44.572663999999946,24.101143999999977,5469
44.24866399999995,24.101143999999977,5450
47.48866399999993,25.397143999999983,5213
47.48866399999993,24.74914399999998,5153
47.16466399999993,24.74914399999998,5075
47.16466399999993,24.101143999999977,4977
47.48866399999993,22.15714399999998,4977
47.81266399999993,22.15714399999998,4952
47.16466399999993,22.15714399999998,5046
47.16466399999993,23.45314399999998,5138
47.16466399999993,22.805143999999984,5144
46.84066399999993,24.101143999999977,5058
45.86866399999994,27.34114399999998,5508
45.54466399999994,27.34114399999998,5470
45.54466399999994,27.989143999999985,5495
45.86866399999994,20.86114399999998,5203
45.86866399999994,21.50914399999997,5181
46.19266399999994,21.50914399999997,5166
46.19266399999994,27.34114399999998,5486
46.19266399999994,26.69314399999997,5586
46.516663999999935,26.69314399999997,5351
46.516663999999935,26.04514399999998,5247
47.48866399999993,22.805143999999984,5205
46.84066399999993,22.805143999999984,5018
45.54466399999994,22.15714399999998,5231
45.22066399999994,22.15714399999998,5249
44.89666399999994,22.15714399999998,5307
47.48866399999993,23.45314399999998,5171
46.516663999999935,24.101143999999977,4897
46.516663999999935,24.74914399999998,5111
45.86866399999994,24.101143999999977,5060
47.16466399999993,26.69314399999997,5429
47.16466399999993,27.34114399999998,5484
43.92466399999995,25.397143999999983,5443
44.24866399999995,24.74914399999998,5350
44.89666399999994,26.04514399999998,5263
44.89666399999994,26.69314399999997,5324
45.22066399999994,26.69314399999997,5341
45.22066399999994,27.34114399999998,5427
46.84066399999993,26.69314399999997,5390
47.48866399999993,26.69314399999997,5383
44.24866399999995,25.397143999999983,5338
43.92466399999995,26.04514399999998,5459
46.19266399999994,24.101143999999977,5105
44.572663999999946,25.397143999999983,5332
46.84066399999993,24.74914399999998,5118
46.516663999999935,21.50914399999997,5142
46.84066399999993,21.50914399999997,5103
44.572663999999946,26.69314399999997,5316
44.572663999999946,27.34114399999998,5326
44.89666399999994,27.34114399999998,5426
44.572663999999946,27.989143999999985,5363
44.24866399999995,27.989143999999985,5378
44.572663999999946,28.63714399999997,5398
45.86866399999994,22.15714399999998,5139
45.86866399999994,22.805143999999984,5033
44.24866399999995,23.45314399999998,5440
43.92466399999995,27.989143999999985,65535
46.84066399999993,27.34114399999998,5603
45.22066399999994,23.45314399999998,5340
45.54466399999994,23.45314399999998,5143
45.54466399999994,24.101143999999977,5090
45.22066399999994,24.101143999999977,5380
44.89666399999994,24.101143999999977,5610
46.19266399999994,22.15714399999998,5211
46.516663999999935,22.15714399999998,5236
45.22066399999994,21.50914399999997,5272
45.54466399999994,21.50914399999997,5245
45.54466399999994,20.86114399999998,5252
46.516663999999935,27.989143999999985,5592
46.19266399999994,27.989143999999985,5564
45.54466399999994,25.397143999999983,5220
45.22066399999994,25.397143999999983,5227
45.22066399999994,26.04514399999998,5270
47.81266399999993,24.101143999999977,5266
47.48866399999993,26.04514399999998,5356
47.81266399999993,26.04514399999998,5378
46.19266399999994,23.45314399999998,4937
45.86866399999994,23.45314399999998,4986
44.24866399999995,26.04514399999998,5318
45.22066399999994,27.989143999999985,5476
45.86866399999994,24.74914399999998,5099
46.516663999999935,25.397143999999983,5291
46.84066399999993,25.397143999999983,5174
46.19266399999994,26.04514399999998,5262
45.86866399999994,26.04514399999998,5227
43.92466399999995,23.45314399999998,5851
44.89666399999994,25.397143999999983,5357
46.19266399999994,20.86114399999998,5259
47.81266399999993,25.397143999999983,5390
44.572663999999946,22.805143999999984,5411
44.572663999999946,22.15714399999998,5379
46.516663999999935,23.45314399999998,5076
45.86866399999994,25.397143999999983,5153
44.24866399999995,27.34114399999998,6091
45.22066399999994,24.74914399999998,5416
45.54466399999994,22.805143999999984,5106
45.22066399999994,28.63714399999997,5536
44.89666399999994,28.63714399999997,5475
47.81266399999993,23.45314399999998,4636
46.19266399999994,24.74914399999998,5185
46.19266399999994,25.397143999999983,5209
43.92466399999995,24.101143999999977,6541
43.92466399999995,24.74914399999998,6554
47.81266399999993,26.69314399999997,5605
47.48866399999993,24.101143999999977,5198
46.84066399999993,26.04514399999998,6006
46.19266399999994,22.805143999999984,5330
47.48866399999993,27.34114399999998,5558
46.19266399999994,20.213143999999986,65535
45.54466399999994,26.04514399999998,5362
44.24866399999995,26.69314399999997,5372
45.86866399999994,27.989143999999985,5642
47.81266399999993,5.957143999999991,6586
