51.56399999999999,-0.4100000000000028,65535
51.887999999999984,-0.4100000000000028,65535
50.91599999999999,-1.7060000000000022,65535
51.23999999999999,-1.0580000000000025,65535
51.56399999999999,-1.0580000000000025,65535
51.23999999999999,-1.7060000000000022,65535
51.56399999999999,0.2379999999999968,65535
47.16466399999993,9.845143999999989,66
47.48866399999993,9.845143999999989,58
48.136663999999925,14.381143999999988,220
47.81266399999993,13.085143999999987,189
47.16466399999993,11.141143999999988,224
47.48866399999993,11.789143999999988,197
48.136663999999925,16.325143999999987,625
47.48866399999993,12.437143999999988,174
48.136663999999925,15.677143999999986,699
47.16466399999993,10.493143999999988,271
47.16466399999993,9.197143999999987,41
48.136663999999925,13.733143999999989,196
48.136663999999925,15.029143999999986,739
47.81266399999993,16.973143999999984,655
48.46066399999992,14.381143999999988,904
47.48866399999993,13.085143999999987,179
47.16466399999993,13.085143999999987,189
47.48866399999993,14.381143999999988,391
47.48866399999993,13.733143999999989,413
47.48866399999993,15.029143999999986,505
46.516663999999935,13.733143999999989,287
46.84066399999993,13.733143999999989,256
46.84066399999993,13.085143999999987,241
48.78466399999992,14.381143999999988,65535
47.16466399999993,15.677143999999986,540
46.516663999999935,14.381143999999988,303
46.84066399999993,14.381143999999988,313
47.16466399999993,14.381143999999988,437
46.516663999999935,15.029143999999986,367
47.81266399999993,16.325143999999987,589
47.16466399999993,15.029143999999986,481
47.81266399999993,15.677143999999986,555
47.48866399999993,15.677143999999986,520
46.516663999999935,13.085143999999987,494
46.84066399999993,12.437143999999988,299
48.136663999999925,11.789143999999988,150
47.81266399999993,12.437143999999988,162
46.84066399999993,15.677143999999986,645
46.516663999999935,15.677143999999986,423
46.84066399999993,16.325143999999987,459
47.81266399999993,14.381143999999988,265
48.78466399999992,16.973143999999984,652
48.136663999999925,16.973143999999984,646
48.46066399999992,13.733143999999989,279
47.81266399999993,13.733143999999989,314
50.08066399999991,8.54914399999999,134
48.46066399999992,9.845143999999989,129
51.05266399999991,7.25314399999999,169
51.37666399999991,7.25314399999999,182
51.37666399999991,6.60514399999999,178
48.46066399999992,16.325143999999987,627
48.46066399999992,16.973143999999984,667
48.78466399999992,16.325143999999987,652
48.46066399999992,15.677143999999986,640
48.78466399999992,15.677143999999986,693
47.48866399999993,16.325143999999987,581
47.16466399999993,16.325143999999987,524
46.19266399999994,14.381143999999988,369
45.86866399999994,15.677143999999986,403
43.60066399999995,16.325143999999987,760
45.54466399999994,14.381143999999988,445
45.54466399999994,13.733143999999989,468
48.136663999999925,13.085143999999987,176
48.46066399999992,11.141143999999988,141
48.136663999999925,11.141143999999988,152
48.46066399999992,7.90114399999999,76
49.10866399999992,8.54914399999999,107
48.78466399999992,2.0691439999999925,219
49.10866399999992,7.25314399999999,164
52.0246639999999,7.90114399999999,195
47.16466399999993,11.789143999999988,250
49.43266399999992,11.141143999999988,165
53.64466399999989,9.845143999999989,345
50.72866399999991,4.013143999999992,211
51.05266399999991,11.141143999999988,286
47.48866399999993,11.141143999999988,188
46.84066399999993,11.789143999999988,662
46.516663999999935,11.141143999999988,631
45.54466399999994,11.141143999999988,525
46.19266399999994,11.141143999999988,597
45.86866399999994,11.141143999999988,581
44.572663999999946,11.141143999999988,372
43.92466399999995,12.437143999999988,4071
45.54466399999994,12.437143999999988,612
45.54466399999994,11.789143999999988,575
48.78466399999992,15.029143999999986,732
47.81266399999993,15.029143999999986,750
47.81266399999993,11.141143999999988,169
50.40466399999991,18.917143999999983,556
52.3486639999999,20.86114399999998,756
54.616663999999886,18.269143999999983,760
54.29266399999989,18.917143999999983,759
49.10866399999992,14.381143999999988,65535
50.08066399999991,14.381143999999988,432
48.78466399999992,13.733143999999989,2216
52.6726639999999,13.085143999999987,355
52.3486639999999,13.085143999999987,355
53.96866399999989,12.437143999999988,516
54.29266399999989,12.437143999999988,517
47.48866399999993,8.54914399999999,27
47.81266399999993,17.621143999999987,689
47.48866399999993,18.917143999999983,740
47.48866399999993,20.86114399999998,1916
46.84066399999993,23.45314399999998,2398
44.572663999999946,26.04514399999998,2847
47.48866399999993,21.50914399999997,1952
47.81266399999993,21.50914399999997,2348
48.46066399999992,22.15714399999998,1291
47.48866399999993,16.973143999999984,65535
49.10866399999992,16.325143999999987,607
49.75666399999992,18.269143999999983,641
46.19266399999994,13.085143999999987,1343
41.98066399999996,12.437143999999988,1510
43.60066399999995,10.493143999999988,1766
45.54466399999994,9.197143999999987,128
47.81266399999993,22.805143999999984,2813
49.75666399999992,22.805143999999984,809
50.72866399999991,3.365143999999992,222
51.05266399999991,4.013143999999992,215
50.72866399999991,4.661143999999991,207
51.05266399999991,4.661143999999991,208
51.05266399999991,3.365143999999992,220
51.05266399999991,2.717143999999992,242
50.40466399999991,4.661143999999991,203
50.72866399999991,2.717143999999992,238
50.40466399999991,4.013143999999992,226
51.05266399999991,5.309143999999991,210
50.72866399999991,5.309143999999991,192
51.37666399999991,3.365143999999992,238
51.37666399999991,4.661143999999991,213
50.72866399999991,5.957143999999991,172
50.40466399999991,5.957143999999991,183
50.40466399999991,3.365143999999992,230
50.40466399999991,5.309143999999991,199
50.08066399999991,5.309143999999991,217
49.75666399999992,5.309143999999991,217
49.75666399999992,5.957143999999991,210
51.37666399999991,5.309143999999991,266
51.700663999999904,4.661143999999991,258
50.08066399999991,4.013143999999992,263
50.08066399999991,5.957143999999991,201
50.08066399999991,4.661143999999991,214
49.43266399999992,5.309143999999991,195
49.43266399999992,5.957143999999991,163
52.0246639999999,4.661143999999991,290
52.3486639999999,4.661143999999991,319
50.72866399999991,15.029143999999986,352
51.05266399999991,15.029143999999986,346
51.05266399999991,13.733143999999989,315
50.40466399999991,13.085143999999987,227
49.10866399999992,7.90114399999999,94
48.78466399999992,7.90114399999999,89
50.40466399999991,7.90114399999999,144
50.08066399999991,7.90114399999999,155
49.75666399999992,7.90114399999999,147
49.43266399999992,7.90114399999999,137
49.75666399999992,8.54914399999999,130
49.43266399999992,8.54914399999999,115
49.43266399999992,9.197143999999987,111
49.10866399999992,9.197143999999987,100
47.48866399999993,7.90114399999999,14
47.81266399999993,7.90114399999999,56
48.136663999999925,7.90114399999999,69
48.136663999999925,9.845143999999989,107
47.81266399999993,9.197143999999987,50
47.81266399999993,8.54914399999999,42
47.81266399999993,9.845143999999989,77
54.940663999999884,9.197143999999987,433
54.616663999999886,9.197143999999987,420
54.29266399999989,9.197143999999987,428
53.96866399999989,9.197143999999987,441
53.64466399999989,9.197143999999987,356
54.616663999999886,9.845143999999989,412
54.29266399999989,9.845143999999989,401
53.96866399999989,9.845143999999989,358
53.64466399999989,10.493143999999988,352
53.96866399999989,10.493143999999988,398
53.96866399999989,11.141143999999988,503
54.29266399999989,10.493143999999988,418
53.32066399999989,10.493143999999988,334
54.940663999999884,11.141143999999988,529
52.6726639999999,13.733143999999989,353
52.3486639999999,13.733143999999989,351
52.3486639999999,14.381143999999988,367
52.0246639999999,14.381143999999988,380
52.0246639999999,11.789143999999988,337
52.3486639999999,11.789143999999988,349
52.3486639999999,12.437143999999988,367
52.0246639999999,15.029143999999986,403
51.700663999999904,14.381143999999988,338
52.0246639999999,13.733143999999989,325
51.700663999999904,13.733143999999989,319
52.6726639999999,12.437143999999988,368
53.32066399999989,11.789143999999988,429
53.96866399999989,11.789143999999988,508
53.64466399999989,11.789143999999988,466
53.64466399999989,11.141143999999988,462
53.32066399999989,11.141143999999988,435
52.996663999999896,11.789143999999988,392
52.996663999999896,12.437143999999988,384
52.996663999999896,13.733143999999989,361
53.64466399999989,13.733143999999989,457
53.96866399999989,13.733143999999989,470
54.29266399999989,13.085143999999987,477
53.96866399999989,13.085143999999987,518
53.32066399999989,13.733143999999989,468
52.0246639999999,13.085143999999987,376
51.700663999999904,13.085143999999987,346
52.996663999999896,14.381143999999988,402
52.0246639999999,12.437143999999988,353
51.700663999999904,12.437143999999988,311
51.37666399999991,11.789143999999988,304
51.37666399999991,12.437143999999988,284
52.6726639999999,11.789143999999988,383
53.64466399999989,13.085143999999987,500
53.32066399999989,13.085143999999987,465
52.996663999999896,13.085143999999987,399
53.64466399999989,12.437143999999988,508
51.37666399999991,13.733143999999989,311
53.32066399999989,12.437143999999988,416
52.6726639999999,14.381143999999988,372
51.37666399999991,13.085143999999987,299
53.32066399999989,14.381143999999988,436
52.3486639999999,15.029143999999986,407
52.0246639999999,15.677143999999986,443
51.700663999999904,15.029143999999986,408
51.05266399999991,16.325143999999987,446
51.05266399999991,16.973143999999984,451
51.700663999999904,15.677143999999986,438
51.37666399999991,15.677143999999986,402
51.37666399999991,16.325143999999987,436
50.72866399999991,13.085143999999987,236
50.72866399999991,12.437143999999988,230
51.05266399999991,13.085143999999987,253
51.05266399999991,14.381143999999988,331
50.40466399999991,12.437143999999988,218
50.40466399999991,11.789143999999988,211
50.08066399999991,12.437143999999988,214
50.72866399999991,11.789143999999988,292
51.05266399999991,12.437143999999988,259
50.72866399999991,14.381143999999988,434
51.37666399999991,14.381143999999988,323
50.72866399999991,13.733143999999989,335
50.40466399999991,14.381143999999988,422
51.37666399999991,15.029143999999986,345
55.26466399999988,9.197143999999987,828
55.58866399999988,8.54914399999999,3562
55.91266399999988,8.54914399999999,7039
56.23666399999988,9.197143999999987,7047
56.23666399999988,10.493143999999988,7000
56.23666399999988,9.845143999999989,6987
55.91266399999988,9.845143999999989,6925
56.56066399999988,9.197143999999987,7057
56.56066399999988,8.54914399999999,7100
51.05266399999991,6.60514399999999,176
51.700663999999904,7.90114399999999,190
50.72866399999991,6.60514399999999,166
51.700663999999904,7.25314399999999,185
50.72866399999991,7.25314399999999,160
52.0246639999999,7.25314399999999,211
52.3486639999999,7.90114399999999,208
51.05266399999991,5.957143999999991,176
50.40466399999991,7.25314399999999,148
51.700663999999904,6.60514399999999,187
51.700663999999904,5.957143999999991,188
52.3486639999999,9.197143999999987,242
51.700663999999904,8.54914399999999,222
52.0246639999999,8.54914399999999,228
52.3486639999999,8.54914399999999,226
51.37666399999991,7.90114399999999,193
52.3486639999999,7.25314399999999,273
51.37666399999991,5.957143999999991,221
50.72866399999991,7.90114399999999,181
51.37666399999991,9.197143999999987,243
51.700663999999904,9.197143999999987,253
50.40466399999991,6.60514399999999,226
51.05266399999991,7.90114399999999,195
51.37666399999991,8.54914399999999,222
52.0246639999999,5.957143999999991,231
52.3486639999999,6.60514399999999,296
51.05266399999991,8.54914399999999,224
52.0246639999999,9.197143999999987,249
52.6726639999999,9.197143999999987,270
52.0246639999999,9.845143999999989,277
51.700663999999904,9.845143999999989,297
51.37666399999991,9.845143999999989,309
50.72866399999991,8.54914399999999,162
51.05266399999991,9.845143999999989,231
50.72866399999991,9.845143999999989,196
50.40466399999991,9.845143999999989,175
51.05266399999991,9.197143999999987,233
50.40466399999991,9.197143999999987,153
50.08066399999991,9.197143999999987,143
51.05266399999991,10.493143999999988,807
50.40466399999991,8.54914399999999,140
50.72866399999991,9.197143999999987,183
49.75666399999992,9.197143999999987,168
52.996663999999896,9.197143999999987,277
52.3486639999999,9.845143999999989,257
52.996663999999896,8.54914399999999,266
52.996663999999896,7.90114399999999,293
53.32066399999989,7.90114399999999,317
53.32066399999989,7.25314399999999,373
53.64466399999989,7.25314399999999,418
52.996663999999896,10.493143999999988,323
52.6726639999999,10.493143999999988,316
52.6726639999999,9.845143999999989,270
53.32066399999989,9.845143999999989,337
53.32066399999989,9.197143999999987,332
53.64466399999989,8.54914399999999,313
53.32066399999989,8.54914399999999,277
52.6726639999999,8.54914399999999,243
52.0246639999999,10.493143999999988,332
52.0246639999999,11.141143999999988,344
51.700663999999904,11.141143999999988,328
52.6726639999999,7.25314399999999,905
52.996663999999896,7.25314399999999,879
52.6726639999999,7.90114399999999,315
53.64466399999989,7.90114399999999,341
52.996663999999896,11.141143999999988,401
52.6726639999999,11.141143999999988,382
52.3486639999999,10.493143999999988,301
52.996663999999896,9.845143999999989,336
51.700663999999904,10.493143999999988,438
51.37666399999991,10.493143999999988,1266
51.700663999999904,11.789143999999988,321
52.3486639999999,11.141143999999988,329
51.37666399999991,11.141143999999988,320
51.05266399999991,11.789143999999988,282
49.10866399999992,11.141143999999988,126
48.78466399999992,11.141143999999988,131
48.46066399999992,11.789143999999988,147
49.43266399999992,11.789143999999988,168
50.08066399999991,11.789143999999988,196
49.75666399999992,12.437143999999988,230
49.10866399999992,11.789143999999988,188
48.78466399999992,12.437143999999988,204
48.46066399999992,12.437143999999988,192
49.10866399999992,12.437143999999988,192
48.78466399999992,13.085143999999987,231
48.136663999999925,12.437143999999988,166
47.81266399999993,11.789143999999988,157
48.136663999999925,10.493143999999988,166
47.81266399999993,10.493143999999988,156
48.78466399999992,10.493143999999988,104
47.48866399999993,10.493143999999988,123
48.46066399999992,10.493143999999988,129
49.43266399999992,13.085143999999987,338
48.46066399999992,13.085143999999987,251
49.43266399999992,10.493143999999988,161
49.75666399999992,9.845143999999989,138
49.75666399999992,10.493143999999988,186
50.40466399999991,11.141143999999988,233
50.08066399999991,11.141143999999988,186
50.72866399999991,11.141143999999988,291
49.75666399999992,11.141143999999988,174
48.78466399999992,11.789143999999988,253
50.40466399999991,10.493143999999988,223
50.08066399999991,9.845143999999989,147
50.08066399999991,10.493143999999988,157
49.43266399999992,12.437143999999988,213
49.75666399999992,11.789143999999988,172
49.10866399999992,13.085143999999987,273
50.72866399999991,10.493143999999988,821
49.10866399999992,10.493143999999988,147
48.78466399999992,9.845143999999989,100
48.46066399999992,8.54914399999999,94
48.46066399999992,9.197143999999987,94
48.78466399999992,9.197143999999987,97
48.78466399999992,8.54914399999999,99
50.08066399999991,7.25314399999999,170
49.75666399999992,6.60514399999999,197
49.43266399999992,6.60514399999999,174
49.10866399999992,6.60514399999999,171
49.43266399999992,7.25314399999999,168
49.75666399999992,7.25314399999999,153
49.10866399999992,5.957143999999991,134
48.78466399999992,7.25314399999999,97
50.08066399999991,6.60514399999999,194
47.48866399999993,9.197143999999987,45
48.136663999999925,8.54914399999999,58
48.136663999999925,9.197143999999987,89
47.81266399999993,7.25314399999999,42
49.43266399999992,9.845143999999989,112
49.10866399999992,9.845143999999989,103
53.64466399999989,14.381143999999988,452
50.08066399999991,13.085143999999987,506
49.75666399999992,13.085143999999987,515
45.86866399999994,9.197143999999987,118
46.19266399999994,9.197143999999987,104
46.516663999999935,8.54914399999999,57
46.516663999999935,9.197143999999987,99
46.19266399999994,8.54914399999999,101
47.16466399999993,8.54914399999999,30
45.86866399999994,4.661143999999991,199
46.84066399999993,9.845143999999989,72
45.22066399999994,5.957143999999991,230
45.22066399999994,5.309143999999991,274
45.86866399999994,5.957143999999991,120
45.54466399999994,5.957143999999991,185
44.89666399999994,4.661143999999991,265
44.89666399999994,5.309143999999991,299
44.572663999999946,4.661143999999991,355
44.24866399999995,4.661143999999991,322
43.92466399999995,4.661143999999991,282
46.19266399999994,7.25314399999999,32
48.78466399999992,5.957143999999991,101
48.136663999999925,6.60514399999999,103
48.46066399999992,6.60514399999999,72
48.78466399999992,6.60514399999999,85
47.16466399999993,7.90114399999999,10
48.136663999999925,7.25314399999999,63
48.46066399999992,7.25314399999999,75
46.516663999999935,6.60514399999999,47
46.84066399999993,6.60514399999999,43
46.84066399999993,7.25314399999999,24
46.516663999999935,5.957143999999991,73
46.19266399999994,5.957143999999991,59
46.84066399999993,8.54914399999999,28
46.84066399999993,7.90114399999999,0
45.86866399999994,5.309143999999991,161
46.19266399999994,6.60514399999999,49
45.86866399999994,6.60514399999999,60
47.48866399999993,6.60514399999999,41
47.48866399999993,7.25314399999999,27
47.16466399999993,7.25314399999999,24
49.10866399999992,4.013143999999992,185
49.75666399999992,4.661143999999991,254
49.43266399999992,4.661143999999991,233
49.10866399999992,5.309143999999991,238
46.19266399999994,4.661143999999991,146
46.84066399999993,9.197143999999987,54
46.19266399999994,5.309143999999991,132
46.516663999999935,5.309143999999991,157
45.54466399999994,6.60514399999999,246
45.54466399999994,5.309143999999991,256
43.60066399999995,4.013143999999992,300
43.60066399999995,3.365143999999992,325
42.62866399999996,2.717143999999992,401
43.276663999999954,2.717143999999992,354
45.54466399999994,4.661143999999991,219
45.22066399999994,4.661143999999991,233
47.16466399999993,5.309143999999991,140
47.16466399999993,5.957143999999991,107
46.19266399999994,7.90114399999999,27
49.75666399999992,2.717143999999992,334
49.10866399999992,2.717143999999992,274
48.78466399999992,2.717143999999992,264
45.86866399999994,3.365143999999992,333
46.84066399999993,3.365143999999992,236
46.516663999999935,3.365143999999992,279
46.19266399999994,3.365143999999992,324
47.16466399999993,6.60514399999999,68
49.10866399999992,3.365143999999992,281
45.54466399999994,4.013143999999992,229
46.516663999999935,7.25314399999999,28
47.16466399999993,4.661143999999991,180
46.84066399999993,4.661143999999991,190
46.516663999999935,4.661143999999991,199
46.84066399999993,5.957143999999991,154
47.81266399999993,3.365143999999992,347
47.48866399999993,4.013143999999992,305
48.136663999999925,4.013143999999992,313
47.81266399999993,4.013143999999992,316
47.48866399999993,4.661143999999991,285
47.16466399999993,3.365143999999992,272
46.84066399999993,4.013143999999992,206
48.46066399999992,5.957143999999991,185
46.19266399999994,2.717143999999992,404
47.16466399999993,2.0691439999999925,320
46.516663999999935,2.717143999999992,364
46.84066399999993,2.717143999999992,298
46.84066399999993,2.0691439999999925,363
47.16466399999993,2.717143999999992,296
44.572663999999946,5.309143999999991,345
44.572663999999946,5.957143999999991,350
44.89666399999994,6.60514399999999,267
44.572663999999946,6.60514399999999,309
43.60066399999995,5.309143999999991,306
43.92466399999995,7.25314399999999,424
43.60066399999995,6.60514399999999,412
43.276663999999954,6.60514399999999,420
43.276663999999954,5.957143999999991,316
45.86866399999994,8.54914399999999,125
45.54466399999994,8.54914399999999,132
48.136663999999925,3.365143999999992,329
48.46066399999992,3.365143999999992,282
48.46066399999992,2.717143999999992,311
47.48866399999993,5.309143999999991,156
46.516663999999935,9.845143999999989,104
46.84066399999993,10.493143999999988,1331
47.81266399999993,5.309143999999991,221
45.22066399999994,6.60514399999999,261
46.19266399999994,4.013143999999992,274
45.86866399999994,4.013143999999992,237
45.22066399999994,4.013143999999992,317
44.89666399999994,4.013143999999992,384
46.84066399999993,5.309143999999991,261
48.136663999999925,-1.8188560000000056,369
48.136663999999925,0.1251439999999934,310
48.136663999999925,-0.5228560000000062,341
47.48866399999993,-0.5228560000000062,360
47.16466399999993,-1.8188560000000056,380
47.48866399999993,0.7731439999999932,305
47.16466399999993,0.1251439999999934,376
45.86866399999994,7.25314399999999,79
48.136663999999925,5.309143999999991,292
49.10866399999992,4.661143999999991,259
48.46066399999992,4.013143999999992,294
48.136663999999925,4.661143999999991,312
47.81266399999993,6.60514399999999,103
47.48866399999993,5.957143999999991,141
48.136663999999925,5.957143999999991,663
45.86866399999994,7.90114399999999,47
46.516663999999935,7.90114399999999,17
49.43266399999992,3.365143999999992,300
49.43266399999992,4.013143999999992,220
48.136663999999925,2.717143999999992,430
47.81266399999993,2.717143999999992,423
47.48866399999993,2.717143999999992,313
50.40466399999991,2.717143999999992,253
48.46066399999992,-4.410856000000004,515
48.46066399999992,-3.7628560000000046,479
48.46066399999992,-3.114856000000005,450
48.46066399999992,-2.4668560000000053,433
47.48866399999993,1.4211439999999929,333
47.16466399999993,1.4211439999999929,370
46.516663999999935,4.013143999999992,204
43.60066399999995,4.661143999999991,329
44.89666399999994,2.717143999999992,438
45.22066399999994,2.717143999999992,389
45.54466399999994,3.365143999999992,341
45.22066399999994,3.365143999999992,348
47.48866399999993,3.365143999999992,526
46.19266399999994,9.845143999999989,142
47.81266399999993,2.0691439999999925,365
47.48866399999993,2.0691439999999925,371
45.86866399999994,2.717143999999992,435
44.89666399999994,5.957143999999991,277
45.22066399999994,1.4211439999999929,566
44.89666399999994,1.4211439999999929,545
44.89666399999994,2.0691439999999925,483
43.276663999999954,2.0691439999999925,389
43.60066399999995,1.4211439999999929,435
48.78466399999992,4.661143999999991,266
48.78466399999992,5.309143999999991,131
46.19266399999994,2.0691439999999925,506
45.86866399999994,1.4211439999999929,528
46.19266399999994,1.4211439999999929,555
44.572663999999946,4.013143999999992,353
44.89666399999994,3.365143999999992,402
43.92466399999995,4.013143999999992,292
44.24866399999995,4.013143999999992,324
44.89666399999994,-0.5228560000000062,374
45.54466399999994,0.1251439999999934,394
46.516663999999935,0.1251439999999934,393
44.572663999999946,2.0691439999999925,564
49.75666399999992,4.013143999999992,276
43.92466399999995,3.365143999999992,627
43.92466399999995,2.717143999999992,588
44.24866399999995,3.365143999999992,538
44.572663999999946,3.365143999999992,417
49.10866399999992,0.1251439999999934,351
49.43266399999992,0.7731439999999932,344
49.43266399999992,-1.8188560000000056,476
49.10866399999992,-1.170856000000006,451
49.10866399999992,-0.5228560000000062,366
49.10866399999992,0.7731439999999932,358
49.10866399999992,1.4211439999999929,288
47.81266399999993,-1.8188560000000056,510
47.81266399999993,-2.4668560000000053,447
47.81266399999993,-3.114856000000005,460
48.136663999999925,-3.7628560000000046,517
44.572663999999946,9.197143999999987,296
44.89666399999994,8.54914399999999,238
45.22066399999994,9.197143999999987,139
45.54466399999994,10.493143999999988,187
44.572663999999946,10.493143999999988,358
44.89666399999994,10.493143999999988,253
44.89666399999994,9.845143999999989,161
48.46066399999992,5.309143999999991,315
50.91599999999999,-1.0580000000000025,65535
51.23999999999999,-0.4100000000000028,65535
50.91599999999999,-0.4100000000000028,65535
51.23999999999999,-2.354000000000002,65535
51.56399999999999,-2.354000000000002,65535
51.56399999999999,-3.0020000000000016,65535
50.91599999999999,-2.354000000000002,65535
53.50799999999997,-3.0020000000000016,65535
53.183999999999976,-2.354000000000002,65535
53.183999999999976,-3.0020000000000016,65535
52.85999999999998,-2.354000000000002,65535
52.21199999999998,-1.0580000000000025,65535
51.887999999999984,-1.0580000000000025,65535
52.53599999999998,-1.0580000000000025,65535
52.53599999999998,-1.7060000000000022,65535
52.85999999999998,-1.7060000000000022,65535
53.50799999999997,-2.354000000000002,65535
52.85999999999998,-1.0580000000000025,65535
52.53599999999998,1.5339999999999965,65535
52.53599999999998,0.8859999999999966,65535
52.53599999999998,0.2379999999999968,65535
52.53599999999998,-0.4100000000000028,65535
53.50799999999997,-1.7060000000000022,65535
53.183999999999976,-1.7060000000000022,65535
53.183999999999976,-1.0580000000000025,65535
52.85999999999998,-0.4100000000000028,65535
51.887999999999984,-2.354000000000002,65535
52.21199999999998,-2.354000000000002,65535
55.77599999999996,-2.354000000000002,65535
53.83199999999997,-1.0580000000000025,65535
53.83199999999997,-1.7060000000000022,65535
55.127999999999965,-1.7060000000000022,65535
54.80399999999997,-1.7060000000000022,65535
54.47999999999997,-1.7060000000000022,65535
54.15599999999997,-1.0580000000000025,65535
52.21199999999998,-1.7060000000000022,65535
53.50799999999997,-1.0580000000000025,65535
55.77599999999996,-3.0020000000000016,65535
55.45199999999996,-1.7060000000000022,65535
57.07199999999995,-2.354000000000002,65535
56.74799999999996,-3.0020000000000016,65535
56.42399999999996,-3.0020000000000016,65535
56.09999999999996,-3.650000000000001,65535
50.91599999999999,-3.0020000000000016,65535
50.91599999999999,-3.650000000000001,65535
50.59199999999999,-3.650000000000001,65535
50.59199999999999,-4.298000000000001,65535
51.23999999999999,-3.0020000000000016,65535
50.268,-4.946000000000001,65535
55.77599999999996,-3.650000000000001,65535
55.77599999999996,-4.298000000000001,65535
52.21199999999998,-0.4100000000000028,65535
52.53599999999998,-2.354000000000002,65535
51.56399999999999,-1.7060000000000022,65535
51.56399999999999,-3.650000000000001,65535
51.887999999999984,-4.298000000000001,65535
51.56399999999999,-4.298000000000001,65535
51.887999999999984,-1.7060000000000022,65535
52.21199999999998,-3.0020000000000016,65535
51.23999999999999,0.2379999999999968,65535
50.91599999999999,0.2379999999999968,65535
52.21199999999998,0.2379999999999968,65535
53.83199999999997,-3.0020000000000016,65535
54.15599999999997,-3.0020000000000016,65535
54.47999999999997,-3.0020000000000016,65535
55.127999999999965,-3.650000000000001,65535
54.80399999999997,-3.0020000000000016,65535
53.83199999999997,-2.354000000000002,65535
54.15599999999997,-0.4100000000000028,65535
54.47999999999997,-1.0580000000000025,65535
53.83199999999997,-0.4100000000000028,65535
53.183999999999976,-3.650000000000001,65535
53.183999999999976,-4.298000000000001,65535
52.85999999999998,-3.0020000000000016,65535
52.53599999999998,-3.0020000000000016,65535
51.887999999999984,-3.0020000000000016,65535
51.23999999999999,0.8859999999999966,65535
51.887999999999984,0.2379999999999968,65535
52.21199999999998,0.8859999999999966,65535
51.887999999999984,-4.946000000000001,65535
52.53599999999998,-3.650000000000001,65535
52.21199999999998,-4.298000000000001,65535
53.183999999999976,-0.4100000000000028,65535
51.23999999999999,-3.650000000000001,65535
51.887999999999984,-3.650000000000001,65535
52.21199999999998,-3.650000000000001,65535
51.56399999999999,0.8859999999999966,65535
51.887999999999984,0.8859999999999966,65535
52.85999999999998,0.8859999999999966,65535
53.50799999999997,-0.4100000000000028,65535
56.09999999999996,-4.298000000000001,65535
56.74799999999996,-4.946000000000001,65535
56.74799999999996,-4.298000000000001,65535
56.42399999999996,-4.946000000000001,65535
56.42399999999996,-4.298000000000001,65535
56.09999999999996,-4.946000000000001,65535
57.39599999999995,-4.298000000000001,65535
57.39599999999995,-3.0020000000000016,65535
57.39599999999995,-3.650000000000001,65535
56.42399999999996,-3.650000000000001,65535
57.07199999999995,-3.650000000000001,65535
57.07199999999995,-4.298000000000001,65535
56.74799999999996,-3.650000000000001,65535
59.15266399999986,27.34114399999998,65535
59.47666399999986,26.69314399999997,65535
59.47666399999986,26.04514399999998,65535
59.15266399999986,26.04514399999998,65535
59.15266399999986,24.74914399999998,65535
59.15266399999986,25.397143999999983,65535
59.47666399999986,25.397143999999983,65535
58.50466399999986,26.69314399999997,65535
58.82866399999986,26.69314399999997,65535
57.85666399999987,26.04514399999998,65535
58.180663999999865,26.04514399999998,65535
58.180663999999865,26.69314399999997,65535
58.82866399999986,26.04514399999998,65535
58.50466399999986,25.397143999999983,65535
58.82866399999986,25.397143999999983,65535
58.82866399999986,24.74914399999998,65535
58.180663999999865,27.34114399999998,65535
57.85666399999987,27.34114399999998,65535
63.68866399999983,27.34114399999998,7557
60.124663999999854,24.74914399999998,4213
60.44866399999985,24.74914399999998,4182
60.44866399999985,25.397143999999983,4194
60.77266399999985,25.397143999999983,4905
61.09666399999985,26.04514399999998,4948
60.77266399999985,26.04514399999998,4956
60.77266399999985,26.69314399999997,4975
61.09666399999985,25.397143999999983,4939
61.09666399999985,26.69314399999997,7678
61.420663999999846,26.69314399999997,7700
61.74466399999984,27.34114399999998,7724
62.06866399999984,27.34114399999998,7749
62.39266399999984,27.34114399999998,7773
62.71666399999984,27.34114399999998,7737
64.01266399999983,27.34114399999998,7513
63.36466399999984,27.34114399999998,7625
63.04066399999984,27.34114399999998,7665
63.04066399999984,27.989143999999985,7680
64.33666399999983,27.989143999999985,5264
64.33666399999983,27.34114399999998,5209
64.66066399999983,27.34114399999998,5194
64.66066399999983,26.69314399999997,5139
64.98466399999982,25.397143999999983,3559
64.66066399999983,26.04514399999998,5120
64.98466399999982,26.04514399999998,5104
66.28066399999982,25.397143999999983,3731
65.95666399999982,24.74914399999998,3472
65.63266399999982,24.74914399999998,3476
65.63266399999982,25.397143999999983,3518
65.30866399999982,25.397143999999983,3539
66.60466399999981,25.397143999999983,3765
64.01266399999983,24.74914399999998,3696
64.01266399999983,24.101143999999977,3731
64.01266399999983,23.45314399999998,3755
63.68866399999983,23.45314399999998,3767
63.68866399999983,22.805143999999984,3792
63.68866399999983,26.04514399999998,5824
63.68866399999983,25.397143999999983,5790
63.68866399999983,26.69314399999997,7524
60.44866399999985,26.69314399999997,8309
64.01266399999983,27.989143999999985,7943
62.71666399999984,22.805143999999984,3914
62.39266399999984,22.805143999999984,3946
62.06866399999984,22.805143999999984,3975
62.06866399999984,23.45314399999998,3991
61.74466399999984,23.45314399999998,4003
61.420663999999846,23.45314399999998,4051
61.09666399999985,23.45314399999998,4092
61.09666399999985,24.101143999999977,4099
61.09666399999985,24.74914399999998,4133
60.77266399999985,24.74914399999998,4149
63.04066399999984,21.50914399999997,65535
63.04066399999984,22.15714399999998,65535
63.04066399999984,22.805143999999984,3878
62.39266399999984,26.04514399999998,7921
62.06866399999984,25.397143999999983,7970
61.74466399999984,25.397143999999983,8038
61.74466399999984,24.74914399999998,8075
61.74466399999984,24.101143999999977,4280
61.420663999999846,24.101143999999977,4235
62.39266399999984,26.69314399999997,7892
64.66066399999983,25.397143999999983,3628
64.66066399999983,24.74914399999998,3646
64.33666399999983,24.74914399999998,3657
63.36466399999984,22.805143999999984,3817
67.25266399999981,24.101143999999977,7345
66.92866399999981,24.101143999999977,7309
66.60466399999981,23.45314399999998,7278
66.28066399999982,23.45314399999998,7260
66.28066399999982,24.101143999999977,7242
65.95666399999982,24.101143999999977,2844
60.124663999999854,24.101143999999977,5727
60.124663999999854,23.45314399999998,6585
60.44866399999985,22.805143999999984,6644
60.77266399999985,27.34114399999998,5027
61.09666399999985,27.989143999999985,5057
61.09666399999985,28.63714399999997,5095
61.420663999999846,29.28514399999997,5130
61.74466399999984,29.933143999999977,5167
62.06866399999984,29.933143999999977,5193
62.39266399999984,29.933143999999977,5209
62.71666399999984,29.933143999999977,5233
61.420663999999846,22.805143999999984,6338
61.420663999999846,22.15714399999998,7046
61.09666399999985,22.15714399999998,6384
61.420663999999846,21.50914399999997,7179
62.39266399999984,27.989143999999985,65535
62.06866399999984,27.989143999999985,65535
61.420663999999846,27.34114399999998,65535
63.04066399999984,29.933143999999977,7172
63.68866399999983,29.28514399999997,8955
63.36466399999984,29.28514399999997,8935
63.36466399999984,29.933143999999977,8894
60.44866399999985,27.34114399999998,65535
61.74466399999984,29.28514399999997,65535
62.39266399999984,30.58114399999998,65535
62.71666399999984,31.229143999999977,65535
62.71666399999984,29.28514399999997,65535
63.04066399999984,28.63714399999997,65535
66.60466399999981,26.04514399999998,6586
66.60466399999981,26.69314399999997,6622
66.60466399999981,27.34114399999998,6645
62.71666399999984,26.04514399999998,7806
62.71666399999984,25.397143999999983,7775
63.04066399999984,25.397143999999983,7595
63.36466399999984,25.397143999999983,6232
62.71666399999984,23.45314399999998,7800
62.39266399999984,24.101143999999977,65535
62.71666399999984,22.15714399999998,65535
62.39266399999984,22.15714399999998,65535
62.39266399999984,21.50914399999997,65535
61.09666399999985,21.50914399999997,6414
60.77266399999985,22.805143999999984,4452
60.44866399999985,22.15714399999998,4482
60.77266399999985,23.45314399999998,4439
60.77266399999985,21.50914399999997,5553
60.77266399999985,22.15714399999998,5506
60.124663999999854,22.805143999999984,8599
60.44866399999985,24.101143999999977,5712
62.06866399999984,24.74914399999998,65535
50.72866399999991,16.325143999999987,473
50.40466399999991,16.973143999999984,501
50.72866399999991,16.973143999999984,459
50.40466399999991,16.325143999999987,510
50.08066399999991,16.973143999999984,562
50.08066399999991,16.325143999999987,513
51.700663999999904,16.973143999999984,456
51.37666399999991,16.973143999999984,452
51.05266399999991,15.677143999999986,382
50.72866399999991,15.677143999999986,456
51.05266399999991,17.621143999999987,462
51.37666399999991,17.621143999999987,478
51.700663999999904,17.621143999999987,461
51.700663999999904,16.325143999999987,469
52.0246639999999,22.15714399999998,783
52.0246639999999,21.50914399999997,772
52.3486639999999,21.50914399999997,779
52.0246639999999,20.86114399999998,752
51.700663999999904,20.86114399999998,714
51.37666399999991,21.50914399999997,739
51.37666399999991,20.86114399999998,710
51.05266399999991,20.86114399999998,703
52.6726639999999,23.45314399999998,1396
52.3486639999999,22.805143999999984,1367
52.3486639999999,20.213143999999986,788
52.0246639999999,20.213143999999986,803
52.3486639999999,19.565143999999982,652
52.6726639999999,19.565143999999982,751
51.700663999999904,21.50914399999997,777
51.700663999999904,22.15714399999998,812
52.6726639999999,21.50914399999997,823
52.996663999999896,21.50914399999997,909
52.6726639999999,20.86114399999998,793
52.6726639999999,22.15714399999998,839
52.6726639999999,20.213143999999986,817
52.996663999999896,19.565143999999982,848
52.996663999999896,20.86114399999998,835
52.996663999999896,20.213143999999986,844
53.32066399999989,20.213143999999986,800
51.37666399999991,20.213143999999986,738
52.3486639999999,16.973143999999984,499
52.0246639999999,16.973143999999984,505
52.0246639999999,16.325143999999987,478
52.0246639999999,17.621143999999987,535
52.6726639999999,16.973143999999984,537
52.996663999999896,16.973143999999984,576
52.3486639999999,16.325143999999987,465
52.3486639999999,15.677143999999986,431
51.700663999999904,18.269143999999983,632
52.6726639999999,17.621143999999987,522
52.3486639999999,17.621143999999987,508
52.6726639999999,18.269143999999983,554
52.3486639999999,18.269143999999983,527
52.3486639999999,18.917143999999983,531
52.996663999999896,17.621143999999987,582
51.700663999999904,19.565143999999982,1310
51.700663999999904,18.917143999999983,1386
51.37666399999991,18.269143999999983,497
58.82866399999986,9.197143999999987,1808
58.180663999999865,7.90114399999999,1901
58.50466399999986,8.54914399999999,1852
63.36466399999984,10.493143999999988,2023
63.36466399999984,11.141143999999988,2030
63.36466399999984,11.789143999999988,2065
63.68866399999983,11.789143999999988,2093
64.33666399999983,12.437143999999988,2494
64.66066399999983,12.437143999999988,2989
65.63266399999982,13.085143999999987,2646
65.95666399999982,13.085143999999987,2681
66.28066399999982,14.381143999999988,2751
65.95666399999982,13.733143999999989,2820
66.28066399999982,13.733143999999989,2729
65.30866399999982,13.085143999999987,2947
64.98466399999982,13.085143999999987,2581
64.01266399999983,11.789143999999988,2124
63.68866399999983,11.141143999999988,2061
59.800663999999855,10.493143999999988,1604
59.800663999999855,11.141143999999988,1587
60.124663999999854,11.141143999999988,1602
60.44866399999985,11.141143999999988,1615
60.124663999999854,11.789143999999988,1628
60.77266399999985,7.25314399999999,1864
60.77266399999985,6.60514399999999,1910
59.15266399999986,9.197143999999987,1690
59.47666399999986,9.197143999999987,1711
59.800663999999855,9.845143999999989,1606
59.47666399999986,11.141143999999988,1551
61.09666399999985,10.493143999999988,1725
60.77266399999985,10.493143999999988,1695
60.77266399999985,11.141143999999988,1650
62.06866399999984,9.197143999999987,2050
61.74466399999984,9.845143999999989,1996
61.420663999999846,9.845143999999989,1973
59.15266399999986,9.845143999999989,1670
59.47666399999986,9.845143999999989,1646
58.82866399999986,5.957143999999991,2085
58.180663999999865,7.25314399999999,1957
58.50466399999986,7.25314399999999,1990
58.50466399999986,6.60514399999999,1995
58.50466399999986,5.957143999999991,2053
58.82866399999986,8.54914399999999,1838
60.44866399999985,7.25314399999999,1838
60.44866399999985,7.90114399999999,1799
60.124663999999854,10.493143999999988,1636
60.44866399999985,9.197143999999987,1748
60.77266399999985,9.197143999999987,1760
60.77266399999985,8.54914399999999,1779
60.124663999999854,9.845143999999989,2015
60.44866399999985,10.493143999999988,1681
63.04066399999984,10.493143999999988,1974
62.06866399999984,9.845143999999989,2075
62.39266399999984,9.845143999999989,2083
62.71666399999984,9.845143999999989,2107
59.47666399999986,14.381143999999988,1600
59.47666399999986,13.733143999999989,1541
59.47666399999986,13.085143999999987,1517
59.800663999999855,12.437143999999988,1586
59.15266399999986,11.141143999999988,1515
59.15266399999986,14.381143999999988,1614
58.82866399999986,11.789143999999988,1495
58.50466399999986,12.437143999999988,1425
58.180663999999865,12.437143999999988,1418
57.85666399999987,11.789143999999988,1369
62.71666399999984,7.90114399999999,2136
62.39266399999984,7.90114399999999,2093
62.06866399999984,8.54914399999999,2068
60.44866399999985,5.309143999999991,1984
60.44866399999985,5.957143999999991,1951
60.77266399999985,5.957143999999991,1940
62.39266399999984,11.141143999999988,1871
62.06866399999984,10.493143999999988,1826
61.74466399999984,11.141143999999988,1799
61.420663999999846,11.141143999999988,1753
61.09666399999985,11.141143999999988,1736
60.77266399999985,11.789143999999988,1713
63.04066399999984,11.141143999999988,1952
62.71666399999984,11.141143999999988,1895
62.39266399999984,10.493143999999988,1853
67.25266399999981,15.677143999999986,2870
67.25266399999981,15.029143999999986,2908
67.25266399999981,14.381143999999988,2936
66.92866399999981,15.029143999999986,2859
66.60466399999981,15.677143999999986,2837
64.01266399999983,11.141143999999988,2108
66.60466399999981,15.029143999999986,2900
54.29266399999989,18.269143999999983,764
54.616663999999886,17.621143999999987,720
53.96866399999989,18.269143999999983,771
43.92466399999995,1.4211439999999929,439
44.24866399999995,0.7731439999999932,451
44.572663999999946,0.1251439999999934,488
46.84066399999993,1.4211439999999929,418
44.572663999999946,1.4211439999999929,504
44.24866399999995,1.4211439999999929,470
45.54466399999994,1.4211439999999929,513
46.516663999999935,1.4211439999999929,551
42.30466399999996,2.717143999999992,451
44.24866399999995,2.717143999999992,695
44.572663999999946,2.717143999999992,680
43.92466399999995,2.0691439999999925,556
42.30466399999996,2.0691439999999925,507
42.62866399999996,2.0691439999999925,473
42.62866399999996,1.4211439999999929,510
42.95266399999996,1.4211439999999929,472
43.276663999999954,1.4211439999999929,440
46.516663999999935,-1.170856000000006,505
46.19266399999994,-1.170856000000006,536
45.86866399999994,-0.5228560000000062,483
45.54466399999994,-0.5228560000000062,463
48.46066399999992,1.4211439999999929,229
41.332663999999966,2.0691439999999925,534
41.98066399999996,2.717143999999992,493
48.46066399999992,-1.8188560000000056,414
47.81266399999993,0.7731439999999932,313
46.84066399999993,0.7731439999999932,378
44.572663999999946,-1.170856000000006,385
43.60066399999995,-1.170856000000006,448
43.276663999999954,-1.8188560000000056,495
43.276663999999954,0.1251439999999934,585
42.95266399999996,0.1251439999999934,557
43.276663999999954,-0.5228560000000062,520
43.60066399999995,-0.5228560000000062,509
47.81266399999993,-3.7628560000000046,496
47.48866399999993,-2.4668560000000053,455
47.81266399999993,-0.5228560000000062,409
46.516663999999935,-1.8188560000000056,521
48.136663999999925,-1.170856000000006,436
47.48866399999993,-1.170856000000006,403
45.22066399999994,8.54914399999999,184
45.22066399999994,7.90114399999999,195
46.19266399999994,-0.5228560000000062,491
46.516663999999935,-0.5228560000000062,474
48.78466399999992,-3.114856000000005,466
50.72866399999991,2.0691439999999925,317
50.40466399999991,2.0691439999999925,329
40.36066399999997,-3.7628560000000046,1905
41.65666399999997,-1.170856000000006,1822
41.332663999999966,1.4211439999999929,1760
43.276663999999954,13.733143999999989,4390
42.95266399999996,13.733143999999989,4412
41.65666399999997,15.029143999999986,4496
40.68466399999997,17.621143999999987,4658
43.60066399999995,13.085143999999987,1728
41.65666399999997,12.437143999999988,1526
41.65666399999997,13.085143999999987,1533
41.98066399999996,13.085143999999987,1544
41.65666399999997,13.733143999999989,1581
41.332663999999966,13.733143999999989,1610
41.332663999999966,14.381143999999988,1829
41.00866399999997,14.381143999999988,1735
41.332663999999966,13.085143999999987,1593
41.00866399999997,15.029143999999986,1935
41.98066399999996,13.733143999999989,1626
42.30466399999996,14.381143999999988,2016
42.30466399999996,12.437143999999988,1542
42.62866399999996,12.437143999999988,1579
42.95266399999996,12.437143999999988,1636
42.30466399999996,11.789143999999988,1540
42.95266399999996,11.789143999999988,1836
42.62866399999996,11.789143999999988,1827
43.276663999999954,11.789143999999988,1890
42.95266399999996,13.085143999999987,1629
42.30466399999996,13.085143999999987,1903
43.276663999999954,13.085143999999987,1681
43.276663999999954,12.437143999999988,1689
42.62866399999996,11.141143999999988,1672
42.95266399999996,11.141143999999988,1715
42.95266399999996,10.493143999999988,1733
44.572663999999946,8.54914399999999,244
44.89666399999994,7.90114399999999,213
44.89666399999994,9.197143999999987,252
44.24866399999995,7.90114399999999,279
44.572663999999946,7.90114399999999,221
43.92466399999995,7.90114399999999,451
44.24866399999995,7.25314399999999,276
44.89666399999994,7.25314399999999,258
45.22066399999994,7.25314399999999,208
45.54466399999994,7.90114399999999,218
44.572663999999946,7.25314399999999,502
52.996663999999896,22.805143999999984,1361
52.996663999999896,23.45314399999998,1362
51.37666399999991,22.15714399999998,1211
51.37666399999991,22.805143999999984,1265
50.08066399999991,20.213143999999986,661
50.72866399999991,20.213143999999986,622
50.40466399999991,20.213143999999986,628
50.08066399999991,20.86114399999998,672
50.08066399999991,21.50914399999997,724
50.08066399999991,22.15714399999998,760
50.08066399999991,22.805143999999984,779
53.96866399999989,22.805143999999984,1601
53.64466399999989,23.45314399999998,1555
53.32066399999989,23.45314399999998,1502
50.40466399999991,19.565143999999982,563
50.08066399999991,18.917143999999983,606
50.08066399999991,18.269143999999983,515
52.0246639999999,22.805143999999984,793
52.0246639999999,23.45314399999998,830
51.37666399999991,19.565143999999982,1299
51.05266399999991,19.565143999999982,608
50.72866399999991,18.917143999999983,553
50.72866399999991,19.565143999999982,577
49.75666399999992,18.917143999999983,680
50.40466399999991,18.269143999999983,505
53.64466399999989,19.565143999999982,644
53.96866399999989,18.917143999999983,722
53.64466399999989,18.917143999999983,698
53.64466399999989,20.213143999999986,682
52.996663999999896,18.917143999999983,587
52.996663999999896,18.269143999999983,581
53.32066399999989,18.917143999999983,595
50.72866399999991,17.621143999999987,468
50.72866399999991,18.269143999999983,510
52.6726639999999,16.325143999999987,548
52.996663999999896,16.325143999999987,510
52.996663999999896,15.677143999999986,461
53.32066399999989,15.677143999999986,456
53.32066399999989,15.029143999999986,444
53.64466399999989,15.029143999999986,451
53.96866399999989,15.029143999999986,495
52.6726639999999,18.917143999999983,561
53.32066399999989,16.325143999999987,539
52.6726639999999,15.029143999999986,415
51.05266399999991,22.805143999999984,1296
51.05266399999991,23.45314399999998,1323
50.72866399999991,22.15714399999998,1261
50.40466399999991,22.15714399999998,1250
51.05266399999991,22.15714399999998,1262
54.616663999999886,16.973143999999984,638
54.29266399999989,16.325143999999987,582
53.96866399999989,15.677143999999986,530
50.72866399999991,21.50914399999997,1291
50.40466399999991,21.50914399999997,825
50.40466399999991,17.621143999999987,489
53.32066399999989,22.805143999999984,1313
53.64466399999989,22.15714399999998,1237
54.29266399999989,16.973143999999984,597
50.72866399999991,20.86114399999998,670
51.700663999999904,22.805143999999984,1480
51.05266399999991,21.50914399999997,770
50.08066399999991,19.565143999999982,622
52.0246639999999,18.917143999999983,8488
52.0246639999999,19.565143999999982,8481
53.64466399999989,18.269143999999983,623
51.700663999999904,20.213143999999986,1286
53.32066399999989,19.565143999999982,635
50.72866399999991,23.45314399999998,1675
50.72866399999991,22.805143999999984,1644
49.43266399999992,20.213143999999986,743
49.75666399999992,21.50914399999997,853
49.75666399999992,22.15714399999998,1302
49.43266399999992,22.15714399999998,1314
51.05266399999991,18.917143999999983,516
51.05266399999991,18.269143999999983,496
53.32066399999989,16.973143999999984,638
53.64466399999989,16.973143999999984,576
49.75666399999992,20.86114399999998,745
50.40466399999991,22.805143999999984,8570
53.64466399999989,16.325143999999987,545
53.96866399999989,20.86114399999998,789
54.29266399999989,20.86114399999998,835
53.96866399999989,21.50914399999997,852
53.64466399999989,15.677143999999986,502
53.96866399999989,20.213143999999986,696
53.96866399999989,19.565143999999982,747
54.29266399999989,19.565143999999982,791
53.96866399999989,16.325143999999987,604
53.64466399999989,17.621143999999987,673
53.96866399999989,22.15714399999998,918
53.64466399999989,21.50914399999997,1286
53.64466399999989,20.86114399999998,793
52.6726639999999,15.677143999999986,467
51.05266399999991,20.213143999999986,1249
54.940663999999884,24.101143999999977,3681
54.616663999999886,23.45314399999998,3625
54.29266399999989,23.45314399999998,3488
53.64466399999989,22.805143999999984,1300
53.96866399999989,16.973143999999984,694
50.40466399999991,20.86114399999998,1306
53.32066399999989,18.269143999999983,589
49.75666399999992,19.565143999999982,670
50.40466399999991,23.45314399999998,925
49.75666399999992,20.213143999999986,721
49.43266399999992,19.565143999999982,721
49.43266399999992,20.86114399999998,782
53.96866399999989,17.621143999999987,1323
42.30466399999996,-1.8188560000000056,8799
41.98066399999996,-1.8188560000000056,8782
41.65666399999997,0.7731439999999932,8786
42.62866399999996,-1.8188560000000056,8914
42.95266399999996,-1.8188560000000056,8943
42.62866399999996,-3.114856000000005,9037
42.95266399999996,-2.4668560000000053,9015
42.62866399999996,-7.650856000000003,9379
42.30466399999996,-7.650856000000003,9439
42.30466399999996,-8.946856000000002,9575
42.30466399999996,-8.298856000000002,9549
41.98066399999996,-8.298856000000002,9538
42.30466399999996,-7.002856000000003,9321
42.62866399999996,-6.354856000000003,9263
42.30466399999996,-6.354856000000003,9218
42.62866399999996,-5.706856000000004,8718
41.98066399999996,-4.410856000000004,8672
42.30466399999996,-3.7628560000000046,9063
40.03666399999997,-0.5228560000000062,8766
39.38866399999998,-0.5228560000000062,8814
41.00866399999997,0.7731439999999932,8914
40.68466399999997,0.7731439999999932,8946
40.36066399999997,0.1251439999999934,9024
39.712663999999975,-0.5228560000000062,8923
38.41666399999998,-0.5228560000000062,8935
39.06466399999998,-0.5228560000000062,9057
38.74066399999998,-1.170856000000006,8943
41.332663999999966,0.7731439999999932,8974
41.65666399999997,2.717143999999992,8574
41.65666399999997,2.0691439999999925,8597
41.332663999999966,0.1251439999999934,8932
41.332663999999966,-0.5228560000000062,8876
41.65666399999997,-4.410856000000004,8646
40.03666399999997,-2.4668560000000053,8884
41.00866399999997,-4.410856000000004,8767
43.276663999999954,-5.706856000000004,8848
39.38866399999998,-1.170856000000006,8909
38.09266399999999,-1.170856000000006,9322
38.74066399999998,-0.5228560000000062,9085
37.76866399999999,-1.170856000000006,9387
39.06466399999998,-1.8188560000000056,8907
39.38866399999998,-3.114856000000005,8807
39.38866399999998,-2.4668560000000053,8863
39.06466399999998,-2.4668560000000053,8890
39.06466399999998,-3.114856000000005,8811
39.06466399999998,-3.7628560000000046,8785
38.74066399999998,-3.7628560000000046,8864
40.03666399999997,-3.7628560000000046,8763
40.03666399999997,-3.114856000000005,8963
40.03666399999997,-1.8188560000000056,9044
39.712663999999975,-1.8188560000000056,9009
39.712663999999975,-1.170856000000006,8945
40.36066399999997,-1.170856000000006,8964
40.68466399999997,-1.170856000000006,8942
41.00866399999997,-1.170856000000006,8930
41.332663999999966,-1.170856000000006,8770
43.276663999999954,-8.298856000000002,9539
42.95266399999996,-8.298856000000002,9507
41.65666399999997,-5.706856000000004,65535
41.98066399999996,-7.002856000000003,65535
41.98066399999996,-6.354856000000003,65535
41.332663999999966,-5.058856000000004,8885
43.276663999999954,-3.7628560000000046,9320
42.95266399999996,-4.410856000000004,9254
42.62866399999996,-4.410856000000004,9244
42.30466399999996,-4.410856000000004,9203
41.00866399999997,-5.706856000000004,8823
41.332663999999966,-1.8188560000000056,8716
40.68466399999997,-3.114856000000005,8670
41.00866399999997,-3.114856000000005,8721
41.00866399999997,-2.4668560000000053,8744
41.332663999999966,-2.4668560000000053,8797
40.68466399999997,-4.410856000000004,8707
40.36066399999997,-4.410856000000004,8791
40.68466399999997,-3.7628560000000046,8699
40.36066399999997,-3.114856000000005,8677
41.65666399999997,-2.4668560000000053,8814
38.09266399999999,-3.7628560000000046,8911
38.74066399999998,-3.114856000000005,8855
37.76866399999999,-3.7628560000000046,8968
39.712663999999975,-3.114856000000005,8799
38.41666399999998,-3.7628560000000046,8876
40.03666399999997,-4.410856000000004,65535
40.03666399999997,-5.058856000000004,65535
39.38866399999998,-6.354856000000003,65535
39.38866399999998,-7.002856000000003,65535
42.95266399999996,-3.114856000000005,9448
41.98066399999996,-1.170856000000006,8811
42.30466399999996,-2.4668560000000053,8852
41.65666399999997,-0.5228560000000062,8909
41.98066399999996,-0.5228560000000062,8746
41.65666399999997,0.1251439999999934,8773
41.98066399999996,0.1251439999999934,8795
37.76866399999999,-5.058856000000004,8847
36.79666399999999,-4.410856000000004,8906
38.74066399999998,-4.410856000000004,8803
37.12066399999999,-4.410856000000004,8880
37.44466399999999,-5.058856000000004,9404
37.44466399999999,-7.002856000000003,65535
37.44466399999999,-6.354856000000003,65535
37.44466399999999,-5.706856000000004,9080
39.712663999999975,-3.7628560000000046,8873
42.62866399999996,-8.946856000000002,65535
42.30466399999996,-5.706856000000004,9225
42.30466399999996,-5.058856000000004,9310
42.95266399999996,-5.706856000000004,8750
41.00866399999997,-5.058856000000004,8791
40.68466399999997,-5.058856000000004,8765
41.65666399999997,-5.058856000000004,65535
41.65666399999997,-6.354856000000003,65535
36.79666399999999,-6.354856000000003,65535
37.12066399999999,-5.706856000000004,9248
37.76866399999999,-5.706856000000004,9047
38.09266399999999,-4.410856000000004,9182
37.12066399999999,-5.058856000000004,9202
36.79666399999999,-5.058856000000004,9160
37.76866399999999,-4.410856000000004,65535
37.76866399999999,-7.002856000000003,65535
38.41666399999998,-6.354856000000003,65535
38.09266399999999,-6.354856000000003,65535
48.78466399999992,1.4211439999999929,361
56.23666399999988,8.54914399999999,7090
55.58866399999988,9.197143999999987,6895
55.91266399999988,9.197143999999987,7036
55.26466399999988,10.493143999999988,1074
55.91266399999988,12.437143999999988,1209
55.58866399999988,11.789143999999988,6735
55.58866399999988,11.141143999999988,6776
55.26466399999988,11.789143999999988,6768
55.58866399999988,10.493143999999988,6891
55.58866399999988,13.085143999999987,1166
56.88466399999987,9.845143999999989,7042
57.20866399999987,9.845143999999989,7077
56.56066399999988,9.845143999999989,7014
56.88466399999987,8.54914399999999,7129
54.940663999999884,9.845143999999989,8236
54.940663999999884,11.789143999999988,6992
55.91266399999988,13.085143999999987,1224
56.23666399999988,13.733143999999989,1268
55.91266399999988,13.733143999999989,1271
56.23666399999988,14.381143999999988,1291
56.23666399999988,15.029143999999986,1332
56.23666399999988,15.677143999999986,1387
56.56066399999988,14.381143999999988,1348
56.88466399999987,14.381143999999988,1318
56.23666399999988,13.085143999999987,1216
56.56066399999988,13.085143999999987,1296
56.88466399999987,12.437143999999988,1333
57.20866399999987,12.437143999999988,1349
57.53266399999987,12.437143999999988,1364
56.88466399999987,15.029143999999986,1344
56.56066399999988,15.677143999999986,1404
56.88466399999987,15.677143999999986,1423
56.88466399999987,16.325143999999987,1438
55.91266399999988,11.789143999999988,7061
57.20866399999987,10.493143999999988,7264
49.43266399999992,1.4211439999999929,324
49.75666399999992,0.7731439999999932,378
49.75666399999992,2.0691439999999925,345
50.08066399999991,2.717143999999992,342
49.75666399999992,1.4211439999999929,367
47.81266399999993,1.4211439999999929,354
48.136663999999925,2.0691439999999925,549
48.46066399999992,2.0691439999999925,391
48.136663999999925,1.4211439999999929,293
48.78466399999992,0.1251439999999934,452
48.46066399999992,0.1251439999999934,335
47.81266399999993,0.1251439999999934,423
46.84066399999993,-0.5228560000000062,445
47.16466399999993,0.7731439999999932,443
46.84066399999993,0.1251439999999934,479
46.84066399999993,-1.170856000000006,479
50.08066399999991,1.4211439999999929,439
50.08066399999991,2.0691439999999925,430
49.43266399999992,2.717143999999992,313
49.75666399999992,3.365143999999992,306
50.08066399999991,3.365143999999992,270
49.10866399999992,2.0691439999999925,275
49.43266399999992,2.0691439999999925,301
48.78466399999992,0.7731439999999932,423
48.78466399999992,-0.5228560000000062,497
48.78466399999992,-1.170856000000006,529
48.136663999999925,0.7731439999999932,300
48.46066399999992,0.7731439999999932,272
43.92466399999995,5.957143999999991,393
44.24866399999995,5.957143999999991,419
43.92466399999995,5.309143999999991,341
42.95266399999996,2.717143999999992,378
45.54466399999994,2.0691439999999925,619
45.22066399999994,2.0691439999999925,576
42.95266399999996,2.0691439999999925,491
42.95266399999996,0.7731439999999932,506
43.276663999999954,0.7731439999999932,491
46.19266399999994,0.7731439999999932,627
46.516663999999935,0.7731439999999932,609
45.86866399999994,0.1251439999999934,534
46.19266399999994,0.1251439999999934,520
47.81266399999993,-1.170856000000006,530
48.136663999999925,-2.4668560000000053,529
47.48866399999993,-1.8188560000000056,418
47.16466399999993,-1.170856000000006,389
47.16466399999993,-0.5228560000000062,529
46.84066399999993,-1.8188560000000056,464
45.22066399999994,-0.5228560000000062,407
44.89666399999994,0.1251439999999934,421
45.22066399999994,0.7731439999999932,440
45.54466399999994,0.7731439999999932,474
45.86866399999994,0.7731439999999932,586
45.22066399999994,0.1251439999999934,435
44.89666399999994,0.7731439999999932,540
43.92466399999995,-0.5228560000000062,479
43.92466399999995,-1.170856000000006,450
44.24866399999995,-1.170856000000006,447
45.22066399999994,-1.170856000000006,498
44.572663999999946,-0.5228560000000062,407
44.24866399999995,0.1251439999999934,495
44.572663999999946,0.7731439999999932,564
43.276663999999954,-1.170856000000006,472
42.95266399999996,-0.5228560000000062,637
44.24866399999995,2.0691439999999925,610
43.60066399999995,0.7731439999999932,490
43.60066399999995,2.0691439999999925,498
52.6726639999999,4.661143999999991,7081
52.6726639999999,5.309143999999991,7104
51.700663999999904,5.309143999999991,7049
52.0246639999999,5.309143999999991,7061
52.3486639999999,5.309143999999991,7077
51.37666399999991,4.013143999999992,7057
52.3486639999999,5.957143999999991,7071
52.0246639999999,6.60514399999999,7101
52.6726639999999,5.957143999999991,7088
52.996663999999896,5.957143999999991,7101
53.32066399999989,5.957143999999991,7095
52.996663999999896,6.60514399999999,7077
53.32066399999989,6.60514399999999,7069
52.6726639999999,6.60514399999999,7097
52.996663999999896,5.309143999999991,7116
59.15266399999986,24.101143999999977,65535
56.88466399999987,24.101143999999977,65535
56.88466399999987,23.45314399999998,65535
56.88466399999987,22.805143999999984,65535
57.20866399999987,24.74914399999998,65535
56.88466399999987,24.74914399999998,65535
56.56066399999988,24.74914399999998,65535
56.56066399999988,25.397143999999983,65535
56.56066399999988,24.101143999999977,65535
56.56066399999988,23.45314399999998,65535
56.56066399999988,26.04514399999998,65535
56.88466399999987,26.04514399999998,65535
57.20866399999987,25.397143999999983,65535
57.53266399999987,25.397143999999983,65535
56.23666399999988,26.04514399999998,65535
56.23666399999988,26.69314399999997,65535
55.91266399999988,26.69314399999997,65535
56.56066399999988,26.69314399999997,65535
56.56066399999988,27.34114399999998,65535
56.56066399999988,27.989143999999985,65535
56.23666399999988,27.989143999999985,65535
55.91266399999988,27.34114399999998,65535
56.56066399999988,22.805143999999984,65535
56.56066399999988,22.15714399999998,65535
56.56066399999988,21.50914399999997,65535
57.20866399999987,26.69314399999997,65535
39.06466399999998,-8.946856000000002,65535
38.41666399999998,-8.298856000000002,65535
45.86866399999994,11.789143999999988,628
46.19266399999994,11.789143999999988,615
46.19266399999994,10.493143999999988,655
45.22066399999994,18.269143999999983,631
45.22066399999994,18.917143999999983,672
45.54466399999994,16.973143999999984,496
45.22066399999994,17.621143999999987,557
45.86866399999994,16.325143999999987,415
45.54466399999994,18.917143999999983,694
45.54466399999994,16.325143999999987,435
45.54466399999994,18.269143999999983,689
44.89666399999994,18.917143999999983,730
46.19266399999994,16.973143999999984,481
46.19266399999994,16.325143999999987,468
45.86866399999994,16.973143999999984,491
45.86866399999994,17.621143999999987,524
46.19266399999994,15.677143999999986,395
46.516663999999935,16.325143999999987,453
45.54466399999994,15.677143999999986,479
45.22066399999994,15.029143999999986,475
45.54466399999994,15.029143999999986,455
45.22066399999994,15.677143999999986,542
44.572663999999946,15.677143999999986,619
44.24866399999995,15.677143999999986,640
43.92466399999995,16.325143999999987,704
44.89666399999994,15.677143999999986,583
45.54466399999994,17.621143999999987,632
45.22066399999994,16.325143999999987,543
46.516663999999935,16.973143999999984,495
45.86866399999994,18.269143999999983,715
43.92466399999995,15.677143999999986,806
45.22066399999994,13.733143999999989,581
47.48866399999993,19.565143999999982,759
47.16466399999993,18.917143999999983,768
47.81266399999993,18.917143999999983,714
45.54466399999994,9.845143999999989,139
45.22066399999994,9.845143999999989,146
45.22066399999994,10.493143999999988,198
45.86866399999994,9.845143999999989,159
45.86866399999994,10.493143999999988,1398
48.78466399999992,21.50914399999997,1265
49.10866399999992,20.213143999999986,889
49.10866399999992,18.917143999999983,666
48.46066399999992,17.621143999999987,659
49.43266399999992,17.621143999999987,613
49.10866399999992,17.621143999999987,1312
48.136663999999925,18.269143999999983,678
49.10866399999992,18.269143999999983,687
49.43266399999992,18.269143999999983,644
49.43266399999992,16.973143999999984,587
49.75666399999992,16.973143999999984,561
49.75666399999992,16.325143999999987,539
50.08066399999991,15.677143999999986,433
50.08066399999991,15.029143999999986,429
49.43266399999992,18.917143999999983,655
47.81266399999993,20.86114399999998,1435
48.136663999999925,20.86114399999998,1380
48.46066399999992,20.86114399999998,1284
48.46066399999992,21.50914399999997,1280
49.10866399999992,19.565143999999982,669
48.136663999999925,17.621143999999987,669
48.78466399999992,22.15714399999998,1390
48.78466399999992,20.86114399999998,1439
49.10866399999992,20.86114399999998,927
48.78466399999992,18.269143999999983,702
48.78466399999992,17.621143999999987,749
49.10866399999992,21.50914399999997,1246
48.78466399999992,20.213143999999986,1305
48.46066399999992,20.213143999999986,1246
48.136663999999925,19.565143999999982,1218
48.46066399999992,19.565143999999982,1180
48.46066399999992,18.917143999999983,829
48.46066399999992,18.269143999999983,690
48.78466399999992,19.565143999999982,889
48.78466399999992,18.917143999999983,808
47.81266399999993,18.269143999999983,728
49.10866399999992,22.15714399999998,1340
49.43266399999992,21.50914399999997,1294
48.136663999999925,18.917143999999983,699
48.136663999999925,20.213143999999986,1267
52.636,-8.018,65535
52.312,-7.370000000000001,65535
52.312,-8.018,65535
52.636,-8.666,65535
51.988,-8.666,65535
51.988,-8.018,65535
52.96,-8.666,65535
52.96,-6.074000000000002,65535
53.28399999999999,-6.722000000000001,65535
53.60799999999999,-6.722000000000001,65535
53.60799999999999,-7.370000000000001,65535
53.60799999999999,-8.018,65535
54.25599999999999,-8.666,65535
53.93199999999999,-8.666,65535
53.93199999999999,-8.018,65535
52.312,-6.722000000000001,65535
52.636,-6.722000000000001,65535
53.93199999999999,-6.722000000000001,65535
54.25599999999999,-6.074000000000002,65535
53.28399999999999,-7.370000000000001,65535
52.96,-7.370000000000001,65535
52.312,-8.666,65535
52.96,-8.018,65535
52.636,-7.370000000000001,65535
52.96,-6.722000000000001,65535
51.988,-9.314,65535
52.312,-9.314,65535
54.579999999999984,-6.722000000000001,65535
54.579999999999984,-6.074000000000002,65535
53.28399999999999,-8.018,65535
53.28399999999999,-8.666,65535
53.28399999999999,-9.314,65535
53.93199999999999,-9.314,65535
54.25599999999999,-9.314,65535
53.60799999999999,-8.666,65535
53.60799999999999,-9.314,65535
49.43266399999992,14.381143999999988,455
49.75666399999992,14.381143999999988,438
49.75666399999992,15.029143999999986,436
49.75666399999992,13.733143999999989,477
50.08066399999991,13.733143999999989,469
49.75666399999992,15.677143999999986,479
50.40466399999991,15.029143999999986,410
49.43266399999992,13.733143999999989,486
50.40466399999991,15.677143999999986,424
50.40466399999991,13.733143999999989,467
46.19266399999994,15.029143999999986,389
45.86866399999994,15.029143999999986,416
45.86866399999994,14.381143999999988,409
46.19266399999994,13.733143999999989,422
45.86866399999994,13.733143999999989,508
58.50466399999986,13.733143999999989,1442
58.180663999999865,13.733143999999989,1446
58.180663999999865,13.085143999999987,1418
57.85666399999987,12.437143999999988,1384
60.44866399999985,15.677143999999986,1667
60.124663999999854,15.677143999999986,1601
60.124663999999854,16.325143999999987,1639
59.800663999999855,16.325143999999987,1567
59.800663999999855,17.621143999999987,1546
59.47666399999986,18.269143999999983,1528
61.74466399999984,16.973143999999984,1678
61.420663999999846,16.973143999999984,1651
60.77266399999985,16.973143999999984,1603
65.63266399999982,22.15714399999998,2782
65.95666399999982,21.50914399999997,2742
65.63266399999982,20.86114399999998,2713
64.98466399999982,20.213143999999986,2645
64.66066399999983,20.213143999999986,2623
64.33666399999983,19.565143999999982,2317
64.01266399999983,19.565143999999982,2030
63.68866399999983,20.213143999999986,1983
64.66066399999983,18.917143999999983,2994
59.15266399999986,16.325143999999987,1503
59.15266399999986,15.029143999999986,1495
59.15266399999986,17.621143999999987,1520
57.53266399999987,14.381143999999988,1344
57.53266399999987,15.029143999999986,1364
61.09666399999985,14.381143999999988,1771
60.77266399999985,15.029143999999986,1722
60.44866399999985,15.029143999999986,1708
58.180663999999865,15.029143999999986,1421
58.50466399999986,16.325143999999987,1455
58.50466399999986,15.677143999999986,1428
63.36466399999984,13.085143999999987,2015
63.04066399999984,14.381143999999988,1952
62.39266399999984,15.677143999999986,1874
63.36466399999984,13.733143999999989,1997
63.36466399999984,14.381143999999988,1969
62.71666399999984,15.677143999999986,1902
62.39266399999984,17.621143999999987,1736
59.800663999999855,15.677143999999986,2013
55.58866399999988,13.733143999999989,1298
57.20866399999987,14.381143999999988,1328
57.85666399999987,14.381143999999988,1376
58.82866399999986,16.973143999999984,1512
58.82866399999986,16.325143999999987,1490
59.15266399999986,18.269143999999983,1524
60.44866399999985,17.621143999999987,1579
59.15266399999986,12.437143999999988,1483
59.15266399999986,13.085143999999987,1497
58.82866399999986,12.437143999999988,1459
59.47666399999986,16.325143999999987,1529
58.82866399999986,14.381143999999988,1536
59.47666399999986,15.677143999999986,1518
63.36466399999984,18.917143999999983,1936
63.04066399999984,17.621143999999987,1891
62.71666399999984,17.621143999999987,1865
63.68866399999983,19.565143999999982,1969
62.39266399999984,16.973143999999984,1780
59.800663999999855,16.973143999999984,1555
59.47666399999986,17.621143999999987,1532
57.85666399999987,13.085143999999987,1408
57.53266399999987,13.085143999999987,1389
58.50466399999986,11.789143999999988,1430
57.85666399999987,15.029143999999986,1410
57.20866399999987,13.733143999999989,1334
57.53266399999987,13.733143999999989,1395
61.74466399999984,16.325143999999987,1774
61.420663999999846,16.325143999999987,1741
61.09666399999985,16.325143999999987,1730
61.09666399999985,16.973143999999984,1698
60.124663999999854,15.029143999999986,1876
66.60466399999981,20.86114399999998,2817
67.25266399999981,20.86114399999998,2885
67.90066399999981,20.213143999999986,2955
67.57666399999981,20.213143999999986,3580
59.800663999999855,15.029143999999986,1596
58.50466399999986,15.029143999999986,1438
59.47666399999986,15.029143999999986,1581
60.44866399999985,16.325143999999987,1667
59.15266399999986,15.677143999999986,1525
57.85666399999987,13.733143999999989,1436
58.82866399999986,13.733143999999989,1483
58.50466399999986,13.085143999999987,1468
57.20866399999987,13.085143999999987,1365
56.88466399999987,13.085143999999987,1339
58.180663999999865,11.789143999999988,1401
62.06866399999984,16.973143999999984,1769
65.95666399999982,23.45314399999998,2823
59.800663999999855,14.381143999999988,5891
59.800663999999855,18.269143999999983,1537
63.04066399999984,15.029143999999986,1920
62.71666399999984,15.029143999999986,1910
62.39266399999984,16.325143999999987,1843
63.36466399999984,12.437143999999988,2048
68.5486639999998,17.621143999999987,3168
68.5486639999998,18.269143999999983,3101
68.5486639999998,18.917143999999983,3078
68.2246639999998,18.917143999999983,3034
59.800663999999855,13.085143999999987,1600
60.124663999999854,13.085143999999987,1639
59.47666399999986,16.973143999999984,1541
59.15266399999986,16.973143999999984,1533
56.56066399999988,13.733143999999989,1286
60.124663999999854,17.621143999999987,1556
57.85666399999987,16.325143999999987,1515
58.180663999999865,16.325143999999987,1477
58.180663999999865,15.677143999999986,1485
57.20866399999987,16.325143999999987,1527
57.53266399999987,15.677143999999986,1545
57.85666399999987,15.677143999999986,1516
44.89666399999994,23.45314399999998,2965
44.572663999999946,23.45314399999998,3035
44.89666399999994,24.74914399999998,2952
44.572663999999946,24.74914399999998,3071
44.572663999999946,24.101143999999977,3012
44.24866399999995,24.101143999999977,3041
47.48866399999993,25.397143999999983,2813
47.48866399999993,24.74914399999998,2753
47.16466399999993,24.74914399999998,2675
47.16466399999993,24.101143999999977,2577
47.48866399999993,22.15714399999998,2707
47.81266399999993,22.15714399999998,2793
47.16466399999993,22.15714399999998,2686
47.16466399999993,23.45314399999998,2738
47.16466399999993,22.805143999999984,2744
46.84066399999993,24.101143999999977,2658
45.86866399999994,27.34114399999998,2998
45.54466399999994,27.34114399999998,2979
45.54466399999994,27.989143999999985,3095
45.86866399999994,20.86114399999998,2870
45.86866399999994,21.50914399999997,2878
46.19266399999994,21.50914399999997,2814
46.19266399999994,27.34114399999998,2998
46.19266399999994,26.69314399999997,2989
46.516663999999935,26.69314399999997,2951
46.516663999999935,26.04514399999998,2847
47.48866399999993,22.805143999999984,2805
46.84066399999993,22.805143999999984,2618
45.54466399999994,22.15714399999998,2927
45.22066399999994,22.15714399999998,3005
44.89666399999994,22.15714399999998,3423
47.48866399999993,23.45314399999998,2771
46.516663999999935,24.101143999999977,2497
46.516663999999935,24.74914399999998,2711
45.86866399999994,24.101143999999977,2660
47.16466399999993,26.69314399999997,3029
47.16466399999993,27.34114399999998,3084
43.92466399999995,25.397143999999983,3043
44.24866399999995,24.74914399999998,2950
44.89666399999994,26.04514399999998,2837
44.89666399999994,26.69314399999997,2884
45.22066399999994,26.69314399999997,2919
45.22066399999994,27.34114399999998,2946
46.84066399999993,26.69314399999997,2990
47.48866399999993,26.69314399999997,2983
44.24866399999995,25.397143999999983,2882
43.92466399999995,26.04514399999998,3059
46.19266399999994,24.101143999999977,2705
44.572663999999946,25.397143999999983,2920
46.84066399999993,24.74914399999998,2718
46.516663999999935,21.50914399999997,2818
46.84066399999993,21.50914399999997,2825
44.572663999999946,26.69314399999997,2875
44.572663999999946,27.34114399999998,2896
44.89666399999994,27.34114399999998,3011
44.572663999999946,27.989143999999985,2916
44.24866399999995,27.989143999999985,2930
44.572663999999946,28.63714399999997,2981
45.86866399999994,22.15714399999998,2739
45.86866399999994,22.805143999999984,2633
44.24866399999995,23.45314399999998,3068
43.92466399999995,27.989143999999985,65535
46.84066399999993,27.34114399999998,3151
45.22066399999994,23.45314399999998,2940
45.54466399999994,23.45314399999998,2743
45.54466399999994,24.101143999999977,2690
45.22066399999994,24.101143999999977,2914
44.89666399999994,24.101143999999977,2984
46.19266399999994,22.15714399999998,2870
46.516663999999935,22.15714399999998,2836
45.22066399999994,21.50914399999997,3110
45.54466399999994,21.50914399999997,2958
45.54466399999994,20.86114399999998,2982
46.516663999999935,27.989143999999985,3101
46.19266399999994,27.989143999999985,3086
45.54466399999994,25.397143999999983,2804
45.22066399999994,25.397143999999983,2814
45.22066399999994,26.04514399999998,2870
47.81266399999993,24.101143999999977,2866
47.48866399999993,26.04514399999998,2956
47.81266399999993,26.04514399999998,2978
46.19266399999994,23.45314399999998,2537
45.86866399999994,23.45314399999998,2586
44.24866399999995,26.04514399999998,2864
45.22066399999994,27.989143999999985,3076
45.86866399999994,24.74914399999998,2699
46.516663999999935,25.397143999999983,2891
46.84066399999993,25.397143999999983,2774
46.19266399999994,26.04514399999998,2862
45.86866399999994,26.04514399999998,2827
43.92466399999995,23.45314399999998,3298
44.89666399999994,25.397143999999983,2925
46.19266399999994,20.86114399999998,2859
47.81266399999993,25.397143999999983,2990
44.572663999999946,22.805143999999984,3303
44.572663999999946,22.15714399999998,3445
46.516663999999935,23.45314399999998,2676
45.86866399999994,25.397143999999983,2753
44.24866399999995,27.34114399999998,3691
45.22066399999994,24.74914399999998,3016
45.54466399999994,22.805143999999984,2706
45.22066399999994,28.63714399999997,3136
44.89666399999994,28.63714399999997,3075
47.81266399999993,23.45314399999998,2923
46.19266399999994,24.74914399999998,2785
46.19266399999994,25.397143999999983,2809
43.92466399999995,24.101143999999977,3261
43.92466399999995,24.74914399999998,3274
47.81266399999993,26.69314399999997,3205
47.48866399999993,24.101143999999977,2798
46.84066399999993,26.04514399999998,3606
46.19266399999994,22.805143999999984,2930
47.48866399999993,27.34114399999998,3158
46.19266399999994,20.213143999999986,65535
45.54466399999994,26.04514399999998,2962
44.24866399999995,26.69314399999997,2880
45.86866399999994,27.989143999999985,3134
47.81266399999993,5.957143999999991,7066
