51.56399999999999,-0.4100000000000028,65535
51.887999999999984,-0.4100000000000028,65535
50.91599999999999,-1.7060000000000022,65535
51.23999999999999,-1.0580000000000025,65535
51.56399999999999,-1.0580000000000025,65535
51.23999999999999,-1.7060000000000022,65535
51.56399999999999,0.2379999999999968,65535
47.16466399999993,9.845143999999989,2586
47.48866399999993,9.845143999999989,2578
48.136663999999925,14.381143999999988,2789
47.81266399999993,13.085143999999987,2649
47.16466399999993,11.141143999999988,2690
47.48866399999993,11.789143999999988,2899
48.136663999999925,16.325143999999987,2854
47.48866399999993,12.437143999999988,2634
48.136663999999925,15.677143999999986,3120
47.16466399999993,10.493143999999988,2821
47.16466399999993,9.197143999999987,2588
48.136663999999925,13.733143999999989,2759
48.136663999999925,15.029143999999986,3124
47.81266399999993,16.973143999999984,2875
48.46066399999992,14.381143999999988,3784
47.48866399999993,13.085143999999987,2639
47.16466399999993,13.085143999999987,2650
47.48866399999993,14.381143999999988,2911
47.48866399999993,13.733143999999989,2991
47.48866399999993,15.029143999999986,2922
46.516663999999935,13.733143999999989,2755
46.84066399999993,13.733143999999989,2716
46.84066399999993,13.085143999999987,2660
48.78466399999992,14.381143999999988,65535
47.16466399999993,15.677143999999986,2940
46.516663999999935,14.381143999999988,2724
46.84066399999993,14.381143999999988,2721
47.16466399999993,14.381143999999988,3005
46.516663999999935,15.029143999999986,2767
47.81266399999993,16.325143999999987,2872
47.16466399999993,15.029143999999986,2980
47.81266399999993,15.677143999999986,2878
47.48866399999993,15.677143999999986,2917
46.516663999999935,13.085143999999987,2774
46.84066399999993,12.437143999999988,2699
48.136663999999925,11.789143999999988,2575
47.81266399999993,12.437143999999988,2597
46.84066399999993,15.677143999999986,3208
46.516663999999935,15.677143999999986,2823
46.84066399999993,16.325143999999987,2859
47.81266399999993,14.381143999999988,2845
48.78466399999992,16.973143999999984,2812
48.136663999999925,16.973143999999984,2841
48.46066399999992,13.733143999999989,2679
47.81266399999993,13.733143999999989,2834
50.08066399999991,8.54914399999999,2479
48.46066399999992,9.845143999999989,2546
51.05266399999991,7.25314399999999,2437
51.37666399999991,7.25314399999999,2431
51.37666399999991,6.60514399999999,2435
48.46066399999992,16.325143999999987,2859
48.46066399999992,16.973143999999984,2828
48.78466399999992,16.325143999999987,2872
48.46066399999992,15.677143999999986,2880
48.78466399999992,15.677143999999986,3361
47.48866399999993,16.325143999999987,2882
47.16466399999993,16.325143999999987,2934
46.19266399999994,14.381143999999988,2769
45.86866399999994,15.677143999999986,2803
43.60066399999995,16.325143999999987,3160
45.54466399999994,14.381143999999988,2845
45.54466399999994,13.733143999999989,2868
48.136663999999925,13.085143999999987,2655
48.46066399999992,11.141143999999988,2565
48.136663999999925,11.141143999999988,2573
48.46066399999992,7.90114399999999,2561
49.10866399999992,8.54914399999999,2521
48.78466399999992,2.0691439999999925,2558
49.10866399999992,7.25314399999999,2543
52.0246639999999,7.90114399999999,2402
47.16466399999993,11.789143999999988,2710
49.43266399999992,11.141143999999988,2558
53.64466399999989,9.845143999999989,2308
50.72866399999991,4.013143999999992,2470
51.05266399999991,11.141143999999988,2485
47.48866399999993,11.141143999999988,2614
46.84066399999993,11.789143999999988,4502
46.516663999999935,11.141143999999988,4471
45.54466399999994,11.141143999999988,4365
46.19266399999994,11.141143999999988,4437
45.86866399999994,11.141143999999988,4421
44.572663999999946,11.141143999999988,4212
43.92466399999995,12.437143999999988,65535
45.54466399999994,12.437143999999988,4452
45.54466399999994,11.789143999999988,4415
48.78466399999992,15.029143999999986,3852
47.81266399999993,15.029143999999986,3150
47.81266399999993,11.141143999999988,2588
50.40466399999991,18.917143999999983,2809
52.3486639999999,20.86114399999998,2987
54.616663999999886,18.269143999999983,2907
54.29266399999989,18.917143999999983,2916
49.10866399999992,14.381143999999988,65535
50.08066399999991,14.381143999999988,2622
48.78466399999992,13.733143999999989,65535
52.6726639999999,13.085143999999987,2444
52.3486639999999,13.085143999999987,2449
53.96866399999989,12.437143999999988,2425
54.29266399999989,12.437143999999988,2434
47.48866399999993,8.54914399999999,2602
47.81266399999993,17.621143999999987,2909
47.48866399999993,18.917143999999983,3020
47.48866399999993,20.86114399999998,3241
46.84066399999993,23.45314399999998,4798
44.572663999999946,26.04514399999998,65535
47.48866399999993,21.50914399999997,3275
47.81266399999993,21.50914399999997,3308
48.46066399999992,22.15714399999998,3037
47.48866399999993,16.973143999999984,65535
49.10866399999992,16.325143999999987,2767
49.75666399999992,18.269143999999983,2860
46.19266399999994,13.085143999999987,3743
41.98066399999996,12.437143999999988,65535
43.60066399999995,10.493143999999988,65535
45.54466399999994,9.197143999999987,2708
47.81266399999993,22.805143999999984,65535
49.75666399999992,22.805143999999984,3074
50.72866399999991,3.365143999999992,2487
51.05266399999991,4.013143999999992,2479
50.72866399999991,4.661143999999991,2466
51.05266399999991,4.661143999999991,2471
51.05266399999991,3.365143999999992,2491
51.05266399999991,2.717143999999992,2500
50.40466399999991,4.661143999999991,2476
50.72866399999991,2.717143999999992,2494
50.40466399999991,4.013143999999992,2475
51.05266399999991,5.309143999999991,2475
50.72866399999991,5.309143999999991,2452
51.37666399999991,3.365143999999992,2497
51.37666399999991,4.661143999999991,2477
50.72866399999991,5.957143999999991,2449
50.40466399999991,5.957143999999991,2463
50.40466399999991,3.365143999999992,2493
50.40466399999991,5.309143999999991,2465
50.08066399999991,5.309143999999991,2479
49.75666399999992,5.309143999999991,2483
49.75666399999992,5.957143999999991,2510
51.37666399999991,5.309143999999991,2448
51.700663999999904,4.661143999999991,2490
50.08066399999991,4.013143999999992,2500
50.08066399999991,5.957143999999991,2481
50.08066399999991,4.661143999999991,2495
49.43266399999992,5.309143999999991,2535
49.43266399999992,5.957143999999991,2514
52.0246639999999,4.661143999999991,2486
52.3486639999999,4.661143999999991,2488
50.72866399999991,15.029143999999986,2590
51.05266399999991,15.029143999999986,2532
51.05266399999991,13.733143999999989,2519
50.40466399999991,13.085143999999987,2567
49.10866399999992,7.90114399999999,2528
48.78466399999992,7.90114399999999,2540
50.40466399999991,7.90114399999999,2470
50.08066399999991,7.90114399999999,2473
49.75666399999992,7.90114399999999,2483
49.43266399999992,7.90114399999999,2514
49.75666399999992,8.54914399999999,2485
49.43266399999992,8.54914399999999,2501
49.43266399999992,9.197143999999987,2508
49.10866399999992,9.197143999999987,2523
47.48866399999993,7.90114399999999,2593
47.81266399999993,7.90114399999999,2568
48.136663999999925,7.90114399999999,2556
48.136663999999925,9.845143999999989,2561
47.81266399999993,9.197143999999987,2579
47.81266399999993,8.54914399999999,2567
47.81266399999993,9.845143999999989,2567
54.940663999999884,9.197143999999987,2243
54.616663999999886,9.197143999999987,2260
54.29266399999989,9.197143999999987,2288
53.96866399999989,9.197143999999987,2303
53.64466399999989,9.197143999999987,2325
54.616663999999886,9.845143999999989,2286
54.29266399999989,9.845143999999989,2295
53.96866399999989,9.845143999999989,2298
53.64466399999989,10.493143999999988,2312
53.96866399999989,10.493143999999988,2318
53.96866399999989,11.141143999999988,2355
54.29266399999989,10.493143999999988,2338
53.32066399999989,10.493143999999988,2326
54.940663999999884,11.141143999999988,2319
52.6726639999999,13.733143999999989,2447
52.3486639999999,13.733143999999989,2449
52.3486639999999,14.381143999999988,2467
52.0246639999999,14.381143999999988,2480
52.0246639999999,11.789143999999988,2474
52.3486639999999,11.789143999999988,2469
52.3486639999999,12.437143999999988,2467
52.0246639999999,15.029143999999986,2503
51.700663999999904,14.381143999999988,2497
52.0246639999999,13.733143999999989,2474
51.700663999999904,13.733143999999989,2500
52.6726639999999,12.437143999999988,2444
53.32066399999989,11.789143999999988,2375
53.96866399999989,11.789143999999988,2405
53.64466399999989,11.789143999999988,2383
53.64466399999989,11.141143999999988,2382
53.32066399999989,11.141143999999988,2355
52.996663999999896,11.789143999999988,2400
52.996663999999896,12.437143999999988,2427
52.996663999999896,13.733143999999989,2460
53.64466399999989,13.733143999999989,2536
53.96866399999989,13.733143999999989,2547
54.29266399999989,13.085143999999987,2462
53.96866399999989,13.085143999999987,2483
53.32066399999989,13.733143999999989,2507
52.0246639999999,13.085143999999987,2508
51.700663999999904,13.085143999999987,2566
52.996663999999896,14.381143999999988,2562
52.0246639999999,12.437143999999988,2472
51.700663999999904,12.437143999999988,2509
51.37666399999991,11.789143999999988,2494
51.37666399999991,12.437143999999988,2510
52.6726639999999,11.789143999999988,2429
53.64466399999989,13.085143999999987,2503
53.32066399999989,13.085143999999987,2502
52.996663999999896,13.085143999999987,2478
53.64466399999989,12.437143999999988,2442
51.37666399999991,13.733143999999989,2506
53.32066399999989,12.437143999999988,2456
52.6726639999999,14.381143999999988,2460
51.37666399999991,13.085143999999987,2534
53.32066399999989,14.381143999999988,2549
52.3486639999999,15.029143999999986,2521
52.0246639999999,15.677143999999986,2528
51.700663999999904,15.029143999999986,2525
51.05266399999991,16.325143999999987,2677
51.05266399999991,16.973143999999984,2701
51.700663999999904,15.677143999999986,2620
51.37666399999991,15.677143999999986,2632
51.37666399999991,16.325143999999987,2668
50.72866399999991,13.085143999999987,2531
50.72866399999991,12.437143999999988,2527
51.05266399999991,13.085143999999987,2532
51.05266399999991,14.381143999999988,2523
50.40466399999991,12.437143999999988,2544
50.40466399999991,11.789143999999988,2515
50.08066399999991,12.437143999999988,2596
50.72866399999991,11.789143999999988,2501
51.05266399999991,12.437143999999988,2519
50.72866399999991,14.381143999999988,2634
51.37666399999991,14.381143999999988,2534
50.72866399999991,13.733143999999989,2555
50.40466399999991,14.381143999999988,2619
51.37666399999991,15.029143999999986,2563
55.26466399999988,9.197143999999987,2295
55.58866399999988,8.54914399999999,2309
55.91266399999988,8.54914399999999,2286
56.23666399999988,9.197143999999987,2247
56.23666399999988,10.493143999999988,2200
56.23666399999988,9.845143999999989,2187
55.91266399999988,9.845143999999989,2125
56.56066399999988,9.197143999999987,2257
56.56066399999988,8.54914399999999,2300
51.05266399999991,6.60514399999999,2437
51.700663999999904,7.90114399999999,2419
50.72866399999991,6.60514399999999,2448
51.700663999999904,7.25314399999999,2430
50.72866399999991,7.25314399999999,2450
52.0246639999999,7.25314399999999,2420
52.3486639999999,7.90114399999999,2398
51.05266399999991,5.957143999999991,2442
50.40466399999991,7.25314399999999,2458
51.700663999999904,6.60514399999999,2442
51.700663999999904,5.957143999999991,2450
52.3486639999999,9.197143999999987,2370
51.700663999999904,8.54914399999999,2405
52.0246639999999,8.54914399999999,2389
52.3486639999999,8.54914399999999,2378
51.37666399999991,7.90114399999999,2424
52.3486639999999,7.25314399999999,2433
51.37666399999991,5.957143999999991,2441
50.72866399999991,7.90114399999999,2460
51.37666399999991,9.197143999999987,2424
51.700663999999904,9.197143999999987,2413
50.40466399999991,6.60514399999999,2506
51.05266399999991,7.90114399999999,2453
51.37666399999991,8.54914399999999,2442
52.0246639999999,5.957143999999991,2465
52.3486639999999,6.60514399999999,2445
51.05266399999991,8.54914399999999,2484
52.0246639999999,9.197143999999987,2402
52.6726639999999,9.197143999999987,2333
52.0246639999999,9.845143999999989,2398
51.700663999999904,9.845143999999989,2432
51.37666399999991,9.845143999999989,2446
50.72866399999991,8.54914399999999,2488
51.05266399999991,9.845143999999989,2496
50.72866399999991,9.845143999999989,2518
50.40466399999991,9.845143999999989,2523
51.05266399999991,9.197143999999987,2480
50.40466399999991,9.197143999999987,2495
50.08066399999991,9.197143999999987,2486
51.05266399999991,10.493143999999988,2490
50.40466399999991,8.54914399999999,2480
50.72866399999991,9.197143999999987,2528
49.75666399999992,9.197143999999987,2525
52.996663999999896,9.197143999999987,2324
52.3486639999999,9.845143999999989,2390
52.996663999999896,8.54914399999999,2346
52.996663999999896,7.90114399999999,2363
53.32066399999989,7.90114399999999,2383
53.32066399999989,7.25314399999999,2413
53.64466399999989,7.25314399999999,2458
52.996663999999896,10.493143999999988,2372
52.6726639999999,10.493143999999988,2383
52.6726639999999,9.845143999999989,2395
53.32066399999989,9.845143999999989,2312
53.32066399999989,9.197143999999987,2318
53.64466399999989,8.54914399999999,2338
53.32066399999989,8.54914399999999,2347
52.6726639999999,8.54914399999999,2351
52.0246639999999,10.493143999999988,2432
52.0246639999999,11.141143999999988,2447
51.700663999999904,11.141143999999988,2472
52.6726639999999,7.25314399999999,2694
52.996663999999896,7.25314399999999,2420
52.6726639999999,7.90114399999999,2381
53.64466399999989,7.90114399999999,2411
52.996663999999896,11.141143999999988,2424
52.6726639999999,11.141143999999988,2433
52.3486639999999,10.493143999999988,2417
52.996663999999896,9.845143999999989,2378
51.700663999999904,10.493143999999988,2478
51.37666399999991,10.493143999999988,2479
51.700663999999904,11.789143999999988,2481
52.3486639999999,11.141143999999988,2429
51.37666399999991,11.141143999999988,2483
51.05266399999991,11.789143999999988,2503
49.10866399999992,11.141143999999988,2575
48.78466399999992,11.141143999999988,2570
48.46066399999992,11.789143999999988,2582
49.43266399999992,11.789143999999988,2563
50.08066399999991,11.789143999999988,2552
49.75666399999992,12.437143999999988,2593
49.10866399999992,11.789143999999988,2588
48.78466399999992,12.437143999999988,2603
48.46066399999992,12.437143999999988,2623
49.10866399999992,12.437143999999988,2597
48.78466399999992,13.085143999999987,2631
48.136663999999925,12.437143999999988,2628
47.81266399999993,11.789143999999988,2587
48.136663999999925,10.493143999999988,2602
47.81266399999993,10.493143999999988,2650
48.78466399999992,10.493143999999988,2561
47.48866399999993,10.493143999999988,2643
48.46066399999992,10.493143999999988,2557
49.43266399999992,13.085143999999987,2738
48.46066399999992,13.085143999999987,2651
49.43266399999992,10.493143999999988,2532
49.75666399999992,9.845143999999989,2500
49.75666399999992,10.493143999999988,2526
50.40466399999991,11.141143999999988,2511
50.08066399999991,11.141143999999988,2565
50.72866399999991,11.141143999999988,2492
49.75666399999992,11.141143999999988,2536
48.78466399999992,11.789143999999988,2653
50.40466399999991,10.493143999999988,2501
50.08066399999991,9.845143999999989,2495
50.08066399999991,10.493143999999988,2557
49.43266399999992,12.437143999999988,2613
49.75666399999992,11.789143999999988,2572
49.10866399999992,13.085143999999987,2673
50.72866399999991,10.493143999999988,2495
49.10866399999992,10.493143999999988,2547
48.78466399999992,9.845143999999989,2536
48.46066399999992,8.54914399999999,2528
48.46066399999992,9.197143999999987,2539
48.78466399999992,9.197143999999987,2530
48.78466399999992,8.54914399999999,2524
50.08066399999991,7.25314399999999,2493
49.75666399999992,6.60514399999999,2511
49.43266399999992,6.60514399999999,2544
49.10866399999992,6.60514399999999,2558
49.43266399999992,7.25314399999999,2526
49.75666399999992,7.25314399999999,2493
49.10866399999992,5.957143999999991,2547
48.78466399999992,7.25314399999999,2560
50.08066399999991,6.60514399999999,2508
47.48866399999993,9.197143999999987,2582
48.136663999999925,8.54914399999999,2546
48.136663999999925,9.197143999999987,2544
47.81266399999993,7.25314399999999,2579
49.43266399999992,9.845143999999989,2504
49.10866399999992,9.845143999999989,2528
53.64466399999989,14.381143999999988,2543
50.08066399999991,13.085143999999987,2698
49.75666399999992,13.085143999999987,2735
45.86866399999994,9.197143999999987,2698
46.19266399999994,9.197143999999987,2684
46.516663999999935,8.54914399999999,2630
46.516663999999935,9.197143999999987,2679
46.19266399999994,8.54914399999999,2696
47.16466399999993,8.54914399999999,2597
45.86866399999994,4.661143999999991,2696
46.84066399999993,9.845143999999989,2613
45.22066399999994,5.957143999999991,2751
45.22066399999994,5.309143999999991,2778
45.86866399999994,5.957143999999991,2709
45.54466399999994,5.957143999999991,2724
44.89666399999994,4.661143999999991,2724
44.89666399999994,5.309143999999991,2748
44.572663999999946,4.661143999999991,2755
44.24866399999995,4.661143999999991,2723
43.92466399999995,4.661143999999991,2719
46.19266399999994,7.25314399999999,2646
48.78466399999992,5.957143999999991,2576
48.136663999999925,6.60514399999999,2622
48.46066399999992,6.60514399999999,2604
48.78466399999992,6.60514399999999,2591
47.16466399999993,7.90114399999999,2597
48.136663999999925,7.25314399999999,2578
48.46066399999992,7.25314399999999,2565
46.516663999999935,6.60514399999999,2656
46.84066399999993,6.60514399999999,2631
46.84066399999993,7.25314399999999,2611
46.516663999999935,5.957143999999991,2685
46.19266399999994,5.957143999999991,2686
46.84066399999993,8.54914399999999,2601
46.84066399999993,7.90114399999999,2605
45.86866399999994,5.309143999999991,2728
46.19266399999994,6.60514399999999,2677
45.86866399999994,6.60514399999999,2653
47.48866399999993,6.60514399999999,2636
47.48866399999993,7.25314399999999,2585
47.16466399999993,7.25314399999999,2601
49.10866399999992,4.013143999999992,2611
49.75666399999992,4.661143999999991,2517
49.43266399999992,4.661143999999991,2580
49.10866399999992,5.309143999999991,2638
46.19266399999994,4.661143999999991,2664
46.84066399999993,9.197143999999987,2604
46.19266399999994,5.309143999999991,2715
46.516663999999935,5.309143999999991,2746
45.54466399999994,6.60514399999999,2781
45.54466399999994,5.309143999999991,2717
43.60066399999995,4.013143999999992,2765
43.60066399999995,3.365143999999992,2807
42.62866399999996,2.717143999999992,2892
43.276663999999954,2.717143999999992,2823
45.54466399999994,4.661143999999991,2701
45.22066399999994,4.661143999999991,2740
47.16466399999993,5.309143999999991,2697
47.16466399999993,5.957143999999991,2684
46.19266399999994,7.90114399999999,2640
49.75666399999992,2.717143999999992,2626
49.10866399999992,2.717143999999992,2584
48.78466399999992,2.717143999999992,2605
45.86866399999994,3.365143999999992,2870
46.84066399999993,3.365143999999992,2752
46.516663999999935,3.365143999999992,2781
46.19266399999994,3.365143999999992,2815
47.16466399999993,6.60514399999999,2648
49.10866399999992,3.365143999999992,2660
45.54466399999994,4.013143999999992,2708
46.516663999999935,7.25314399999999,2633
47.16466399999993,4.661143999999991,2758
46.84066399999993,4.661143999999991,2714
46.516663999999935,4.661143999999991,2721
46.84066399999993,5.957143999999991,2706
47.81266399999993,3.365143999999992,2682
47.48866399999993,4.013143999999992,2762
48.136663999999925,4.013143999999992,2709
47.81266399999993,4.013143999999992,2780
47.48866399999993,4.661143999999991,2758
47.16466399999993,3.365143999999992,2766
46.84066399999993,4.013143999999992,2732
48.46066399999992,5.957143999999991,2585
46.19266399999994,2.717143999999992,2930
47.16466399999993,2.0691439999999925,2710
46.516663999999935,2.717143999999992,2902
46.84066399999993,2.717143999999992,2883
46.84066399999993,2.0691439999999925,2794
47.16466399999993,2.717143999999992,2747
44.572663999999946,5.309143999999991,2840
44.572663999999946,5.957143999999991,2808
44.89666399999994,6.60514399999999,2787
44.572663999999946,6.60514399999999,2824
43.60066399999995,5.309143999999991,2742
43.92466399999995,7.25314399999999,2824
43.60066399999995,6.60514399999999,2812
43.276663999999954,6.60514399999999,2820
43.276663999999954,5.957143999999991,2747
45.86866399999994,8.54914399999999,2705
45.54466399999994,8.54914399999999,2712
48.136663999999925,3.365143999999992,2644
48.46066399999992,3.365143999999992,2632
48.46066399999992,2.717143999999992,2591
47.48866399999993,5.309143999999991,2796
46.516663999999935,9.845143999999989,2624
46.84066399999993,10.493143999999988,3731
47.81266399999993,5.309143999999991,2777
45.22066399999994,6.60514399999999,2781
46.19266399999994,4.013143999999992,2714
45.86866399999994,4.013143999999992,2741
45.22066399999994,4.013143999999992,2717
44.89666399999994,4.013143999999992,2784
46.84066399999993,5.309143999999991,2721
48.136663999999925,-1.8188560000000056,2647
48.136663999999925,0.1251439999999934,2609
48.136663999999925,-0.5228560000000062,2691
47.48866399999993,-0.5228560000000062,2646
47.16466399999993,-1.8188560000000056,2687
47.48866399999993,0.7731439999999932,2620
47.16466399999993,0.1251439999999934,2698
45.86866399999994,7.25314399999999,2659
48.136663999999925,5.309143999999991,2761
49.10866399999992,4.661143999999991,2659
48.46066399999992,4.013143999999992,2690
48.136663999999925,4.661143999999991,2728
47.81266399999993,6.60514399999999,2693
47.48866399999993,5.957143999999991,2735
48.136663999999925,5.957143999999991,2846
45.86866399999994,7.90114399999999,2660
46.516663999999935,7.90114399999999,2624
49.43266399999992,3.365143999999992,2662
49.43266399999992,4.013143999999992,2600
48.136663999999925,2.717143999999992,2830
47.81266399999993,2.717143999999992,2841
47.48866399999993,2.717143999999992,2819
50.40466399999991,2.717143999999992,2509
48.46066399999992,-4.410856000000004,2804
48.46066399999992,-3.7628560000000046,2750
48.46066399999992,-3.114856000000005,2735
48.46066399999992,-2.4668560000000053,2705
47.48866399999993,1.4211439999999929,2675
47.16466399999993,1.4211439999999929,2687
46.516663999999935,4.013143999999992,2725
43.60066399999995,4.661143999999991,2747
44.89666399999994,2.717143999999992,2941
45.22066399999994,2.717143999999992,2994
45.54466399999994,3.365143999999992,2919
45.22066399999994,3.365143999999992,2915
47.48866399999993,3.365143999999992,2926
46.19266399999994,9.845143999999989,2734
47.81266399999993,2.0691439999999925,2685
47.48866399999993,2.0691439999999925,2722
45.86866399999994,2.717143999999992,2894
44.89666399999994,5.957143999999991,2910
45.22066399999994,1.4211439999999929,2789
44.89666399999994,1.4211439999999929,2809
44.89666399999994,2.0691439999999925,2901
43.276663999999954,2.0691439999999925,2853
43.60066399999995,1.4211439999999929,2851
48.78466399999992,4.661143999999991,2705
48.78466399999992,5.309143999999991,2592
46.19266399999994,2.0691439999999925,2961
45.86866399999994,1.4211439999999929,2800
46.19266399999994,1.4211439999999929,2848
44.572663999999946,4.013143999999992,2863
44.89666399999994,3.365143999999992,2951
43.92466399999995,4.013143999999992,2793
44.24866399999995,4.013143999999992,2810
44.89666399999994,-0.5228560000000062,2714
45.54466399999994,0.1251439999999934,2756
46.516663999999935,0.1251439999999934,2730
44.572663999999946,2.0691439999999925,2858
49.75666399999992,4.013143999999992,2558
43.92466399999995,3.365143999999992,3081
43.92466399999995,2.717143999999992,3112
44.24866399999995,3.365143999999992,3136
44.572663999999946,3.365143999999992,3177
49.10866399999992,0.1251439999999934,2662
49.43266399999992,0.7731439999999932,2637
49.43266399999992,-1.8188560000000056,2719
49.10866399999992,-1.170856000000006,2693
49.10866399999992,-0.5228560000000062,2669
49.10866399999992,0.7731439999999932,2689
49.10866399999992,1.4211439999999929,2625
47.81266399999993,-1.8188560000000056,2701
47.81266399999993,-2.4668560000000053,2727
47.81266399999993,-3.114856000000005,2740
48.136663999999925,-3.7628560000000046,2797
44.572663999999946,9.197143999999987,2816
44.89666399999994,8.54914399999999,2754
45.22066399999994,9.197143999999987,2719
45.54466399999994,10.493143999999988,2767
44.572663999999946,10.493143999999988,4198
44.89666399999994,10.493143999999988,2833
44.89666399999994,9.845143999999989,2965
48.46066399999992,5.309143999999991,2785
50.91599999999999,-1.0580000000000025,65535
51.23999999999999,-0.4100000000000028,65535
50.91599999999999,-0.4100000000000028,65535
51.23999999999999,-2.354000000000002,65535
51.56399999999999,-2.354000000000002,65535
51.56399999999999,-3.0020000000000016,65535
50.91599999999999,-2.354000000000002,65535
53.50799999999997,-3.0020000000000016,65535
53.183999999999976,-2.354000000000002,65535
53.183999999999976,-3.0020000000000016,65535
52.85999999999998,-2.354000000000002,65535
52.21199999999998,-1.0580000000000025,65535
51.887999999999984,-1.0580000000000025,65535
52.53599999999998,-1.0580000000000025,65535
52.53599999999998,-1.7060000000000022,65535
52.85999999999998,-1.7060000000000022,65535
53.50799999999997,-2.354000000000002,65535
52.85999999999998,-1.0580000000000025,65535
52.53599999999998,1.5339999999999965,65535
52.53599999999998,0.8859999999999966,65535
52.53599999999998,0.2379999999999968,65535
52.53599999999998,-0.4100000000000028,65535
53.50799999999997,-1.7060000000000022,65535
53.183999999999976,-1.7060000000000022,65535
53.183999999999976,-1.0580000000000025,65535
52.85999999999998,-0.4100000000000028,65535
51.887999999999984,-2.354000000000002,65535
52.21199999999998,-2.354000000000002,65535
55.77599999999996,-2.354000000000002,65535
53.83199999999997,-1.0580000000000025,65535
53.83199999999997,-1.7060000000000022,65535
55.127999999999965,-1.7060000000000022,65535
54.80399999999997,-1.7060000000000022,65535
54.47999999999997,-1.7060000000000022,65535
54.15599999999997,-1.0580000000000025,65535
52.21199999999998,-1.7060000000000022,65535
53.50799999999997,-1.0580000000000025,65535
55.77599999999996,-3.0020000000000016,65535
55.45199999999996,-1.7060000000000022,65535
57.07199999999995,-2.354000000000002,65535
56.74799999999996,-3.0020000000000016,65535
56.42399999999996,-3.0020000000000016,65535
56.09999999999996,-3.650000000000001,65535
50.91599999999999,-3.0020000000000016,65535
50.91599999999999,-3.650000000000001,65535
50.59199999999999,-3.650000000000001,65535
50.59199999999999,-4.298000000000001,65535
51.23999999999999,-3.0020000000000016,65535
50.268,-4.946000000000001,65535
55.77599999999996,-3.650000000000001,65535
55.77599999999996,-4.298000000000001,65535
52.21199999999998,-0.4100000000000028,65535
52.53599999999998,-2.354000000000002,65535
51.56399999999999,-1.7060000000000022,65535
51.56399999999999,-3.650000000000001,65535
51.887999999999984,-4.298000000000001,65535
51.56399999999999,-4.298000000000001,65535
51.887999999999984,-1.7060000000000022,65535
52.21199999999998,-3.0020000000000016,65535
51.23999999999999,0.2379999999999968,65535
50.91599999999999,0.2379999999999968,65535
52.21199999999998,0.2379999999999968,65535
53.83199999999997,-3.0020000000000016,65535
54.15599999999997,-3.0020000000000016,65535
54.47999999999997,-3.0020000000000016,65535
55.127999999999965,-3.650000000000001,65535
54.80399999999997,-3.0020000000000016,65535
53.83199999999997,-2.354000000000002,65535
54.15599999999997,-0.4100000000000028,65535
54.47999999999997,-1.0580000000000025,65535
53.83199999999997,-0.4100000000000028,65535
53.183999999999976,-3.650000000000001,65535
53.183999999999976,-4.298000000000001,65535
52.85999999999998,-3.0020000000000016,65535
52.53599999999998,-3.0020000000000016,65535
51.887999999999984,-3.0020000000000016,65535
51.23999999999999,0.8859999999999966,65535
51.887999999999984,0.2379999999999968,65535
52.21199999999998,0.8859999999999966,65535
51.887999999999984,-4.946000000000001,65535
52.53599999999998,-3.650000000000001,65535
52.21199999999998,-4.298000000000001,65535
53.183999999999976,-0.4100000000000028,65535
51.23999999999999,-3.650000000000001,65535
51.887999999999984,-3.650000000000001,65535
52.21199999999998,-3.650000000000001,65535
51.56399999999999,0.8859999999999966,65535
51.887999999999984,0.8859999999999966,65535
52.85999999999998,0.8859999999999966,65535
53.50799999999997,-0.4100000000000028,65535
56.09999999999996,-4.298000000000001,65535
56.74799999999996,-4.946000000000001,65535
56.74799999999996,-4.298000000000001,65535
56.42399999999996,-4.946000000000001,65535
56.42399999999996,-4.298000000000001,65535
56.09999999999996,-4.946000000000001,65535
57.39599999999995,-4.298000000000001,65535
57.39599999999995,-3.0020000000000016,65535
57.39599999999995,-3.650000000000001,65535
56.42399999999996,-3.650000000000001,65535
57.07199999999995,-3.650000000000001,65535
57.07199999999995,-4.298000000000001,65535
56.74799999999996,-3.650000000000001,65535
59.15266399999986,27.34114399999998,65535
59.47666399999986,26.69314399999997,65535
59.47666399999986,26.04514399999998,65535
59.15266399999986,26.04514399999998,65535
59.15266399999986,24.74914399999998,65535
59.15266399999986,25.397143999999983,65535
59.47666399999986,25.397143999999983,65535
58.50466399999986,26.69314399999997,65535
58.82866399999986,26.69314399999997,65535
57.85666399999987,26.04514399999998,65535
58.180663999999865,26.04514399999998,65535
58.180663999999865,26.69314399999997,65535
58.82866399999986,26.04514399999998,65535
58.50466399999986,25.397143999999983,65535
58.82866399999986,25.397143999999983,65535
58.82866399999986,24.74914399999998,65535
58.180663999999865,27.34114399999998,65535
57.85666399999987,27.34114399999998,65535
63.68866399999983,27.34114399999998,65535
60.124663999999854,24.74914399999998,65535
60.44866399999985,24.74914399999998,65535
60.44866399999985,25.397143999999983,65535
60.77266399999985,25.397143999999983,65535
61.09666399999985,26.04514399999998,65535
60.77266399999985,26.04514399999998,65535
60.77266399999985,26.69314399999997,65535
61.09666399999985,25.397143999999983,65535
61.09666399999985,26.69314399999997,65535
61.420663999999846,26.69314399999997,65535
61.74466399999984,27.34114399999998,65535
62.06866399999984,27.34114399999998,65535
62.39266399999984,27.34114399999998,65535
62.71666399999984,27.34114399999998,65535
64.01266399999983,27.34114399999998,65535
63.36466399999984,27.34114399999998,65535
63.04066399999984,27.34114399999998,65535
63.04066399999984,27.989143999999985,65535
64.33666399999983,27.989143999999985,65535
64.33666399999983,27.34114399999998,65535
64.66066399999983,27.34114399999998,65535
64.66066399999983,26.69314399999997,4756
64.98466399999982,25.397143999999983,4519
64.66066399999983,26.04514399999998,4736
64.98466399999982,26.04514399999998,4720
66.28066399999982,25.397143999999983,65535
65.95666399999982,24.74914399999998,4432
65.63266399999982,24.74914399999998,4436
65.63266399999982,25.397143999999983,4478
65.30866399999982,25.397143999999983,4499
66.60466399999981,25.397143999999983,65535
64.01266399999983,24.74914399999998,4656
64.01266399999983,24.101143999999977,4691
64.01266399999983,23.45314399999998,4715
63.68866399999983,23.45314399999998,4727
63.68866399999983,22.805143999999984,4752
63.68866399999983,26.04514399999998,65535
63.68866399999983,25.397143999999983,65535
63.68866399999983,26.69314399999997,65535
60.44866399999985,26.69314399999997,65535
64.01266399999983,27.989143999999985,65535
62.71666399999984,22.805143999999984,65535
62.39266399999984,22.805143999999984,65535
62.06866399999984,22.805143999999984,65535
62.06866399999984,23.45314399999998,65535
61.74466399999984,23.45314399999998,65535
61.420663999999846,23.45314399999998,65535
61.09666399999985,23.45314399999998,65535
61.09666399999985,24.101143999999977,65535
61.09666399999985,24.74914399999998,65535
60.77266399999985,24.74914399999998,65535
63.04066399999984,21.50914399999997,65535
63.04066399999984,22.15714399999998,65535
63.04066399999984,22.805143999999984,65535
62.39266399999984,26.04514399999998,65535
62.06866399999984,25.397143999999983,65535
61.74466399999984,25.397143999999983,65535
61.74466399999984,24.74914399999998,65535
61.74466399999984,24.101143999999977,65535
61.420663999999846,24.101143999999977,65535
62.39266399999984,26.69314399999997,65535
64.66066399999983,25.397143999999983,4588
64.66066399999983,24.74914399999998,4606
64.33666399999983,24.74914399999998,4617
63.36466399999984,22.805143999999984,4777
67.25266399999981,24.101143999999977,2545
66.92866399999981,24.101143999999977,2509
66.60466399999981,23.45314399999998,2478
66.28066399999982,23.45314399999998,2460
66.28066399999982,24.101143999999977,2442
65.95666399999982,24.101143999999977,2364
60.124663999999854,24.101143999999977,65535
60.124663999999854,23.45314399999998,65535
60.44866399999985,22.805143999999984,65535
60.77266399999985,27.34114399999998,65535
61.09666399999985,27.989143999999985,65535
61.09666399999985,28.63714399999997,65535
61.420663999999846,29.28514399999997,65535
61.74466399999984,29.933143999999977,65535
62.06866399999984,29.933143999999977,65535
62.39266399999984,29.933143999999977,65535
62.71666399999984,29.933143999999977,65535
61.420663999999846,22.805143999999984,65535
61.420663999999846,22.15714399999998,65535
61.09666399999985,22.15714399999998,65535
61.420663999999846,21.50914399999997,65535
62.39266399999984,27.989143999999985,65535
62.06866399999984,27.989143999999985,65535
61.420663999999846,27.34114399999998,65535
63.04066399999984,29.933143999999977,65535
63.68866399999983,29.28514399999997,65535
63.36466399999984,29.28514399999997,65535
63.36466399999984,29.933143999999977,65535
60.44866399999985,27.34114399999998,65535
61.74466399999984,29.28514399999997,65535
62.39266399999984,30.58114399999998,65535
62.71666399999984,31.229143999999977,65535
62.71666399999984,29.28514399999997,65535
63.04066399999984,28.63714399999997,65535
66.60466399999981,26.04514399999998,65535
66.60466399999981,26.69314399999997,65535
66.60466399999981,27.34114399999998,65535
62.71666399999984,26.04514399999998,65535
62.71666399999984,25.397143999999983,65535
63.04066399999984,25.397143999999983,65535
63.36466399999984,25.397143999999983,65535
62.71666399999984,23.45314399999998,65535
62.39266399999984,24.101143999999977,65535
62.71666399999984,22.15714399999998,65535
62.39266399999984,22.15714399999998,65535
62.39266399999984,21.50914399999997,65535
61.09666399999985,21.50914399999997,65535
60.77266399999985,22.805143999999984,65535
60.44866399999985,22.15714399999998,65535
60.77266399999985,23.45314399999998,65535
60.77266399999985,21.50914399999997,65535
60.77266399999985,22.15714399999998,65535
60.124663999999854,22.805143999999984,65535
60.44866399999985,24.101143999999977,65535
62.06866399999984,24.74914399999998,65535
50.72866399999991,16.325143999999987,2617
50.40466399999991,16.973143999999984,2719
50.72866399999991,16.973143999999984,2690
50.40466399999991,16.325143999999987,2768
50.08066399999991,16.973143999999984,2840
50.08066399999991,16.325143999999987,2673
51.700663999999904,16.973143999999984,2694
51.37666399999991,16.973143999999984,2699
51.05266399999991,15.677143999999986,2542
50.72866399999991,15.677143999999986,2607
51.05266399999991,17.621143999999987,2716
51.37666399999991,17.621143999999987,2764
51.700663999999904,17.621143999999987,2743
51.700663999999904,16.325143999999987,2679
52.0246639999999,22.15714399999998,3027
52.0246639999999,21.50914399999997,2998
52.3486639999999,21.50914399999997,2994
52.0246639999999,20.86114399999998,2967
51.700663999999904,20.86114399999998,2985
51.37666399999991,21.50914399999997,3024
51.37666399999991,20.86114399999998,3019
51.05266399999991,20.86114399999998,3028
52.6726639999999,23.45314399999998,3202
52.3486639999999,22.805143999999984,3141
52.3486639999999,20.213143999999986,2959
52.0246639999999,20.213143999999986,2928
52.3486639999999,19.565143999999982,2884
52.6726639999999,19.565143999999982,2967
51.700663999999904,21.50914399999997,3049
51.700663999999904,22.15714399999998,3055
52.6726639999999,21.50914399999997,3003
52.996663999999896,21.50914399999997,3030
52.6726639999999,20.86114399999998,3025
52.6726639999999,22.15714399999998,3061
52.6726639999999,20.213143999999986,3026
52.996663999999896,19.565143999999982,3019
52.996663999999896,20.86114399999998,3058
52.996663999999896,20.213143999999986,3062
53.32066399999989,20.213143999999986,2974
51.37666399999991,20.213143999999986,3014
52.3486639999999,16.973143999999984,2716
52.0246639999999,16.973143999999984,2720
52.0246639999999,16.325143999999987,2693
52.0246639999999,17.621143999999987,2770
52.6726639999999,16.973143999999984,2710
52.996663999999896,16.973143999999984,2676
52.3486639999999,16.325143999999987,2680
52.3486639999999,15.677143999999986,2553
51.700663999999904,18.269143999999983,2803
52.6726639999999,17.621143999999987,2740
52.3486639999999,17.621143999999987,2726
52.6726639999999,18.269143999999983,2814
52.3486639999999,18.269143999999983,2797
52.3486639999999,18.917143999999983,2844
52.996663999999896,17.621143999999987,2838
51.700663999999904,19.565143999999982,2884
51.700663999999904,18.917143999999983,2851
51.37666399999991,18.269143999999983,2806
58.82866399999986,9.197143999999987,316
58.180663999999865,7.90114399999999,418
58.50466399999986,8.54914399999999,373
63.36466399999984,10.493143999999988,1346
63.36466399999984,11.141143999999988,1430
63.36466399999984,11.789143999999988,1551
63.68866399999983,11.789143999999988,1493
64.33666399999983,12.437143999999988,1597
64.66066399999983,12.437143999999988,1647
65.63266399999982,13.085143999999987,1739
65.95666399999982,13.085143999999987,1767
66.28066399999982,14.381143999999988,1848
65.95666399999982,13.733143999999989,1806
66.28066399999982,13.733143999999989,1827
65.30866399999982,13.085143999999987,1704
64.98466399999982,13.085143999999987,1683
64.01266399999983,11.789143999999988,1524
63.68866399999983,11.141143999999988,1462
59.800663999999855,10.493143999999988,200
59.800663999999855,11.141143999999988,222
60.124663999999854,11.141143999999988,210
60.44866399999985,11.141143999999988,243
60.124663999999854,11.789143999999988,308
60.77266399999985,7.25314399999999,317
60.77266399999985,6.60514399999999,366
59.15266399999986,9.197143999999987,284
59.47666399999986,9.197143999999987,259
59.800663999999855,9.845143999999989,226
59.47666399999986,11.141143999999988,238
61.09666399999985,10.493143999999988,341
60.77266399999985,10.493143999999988,279
60.77266399999985,11.141143999999988,269
62.06866399999984,9.197143999999987,1201
61.74466399999984,9.845143999999989,1146
61.420663999999846,9.845143999999989,1129
59.15266399999986,9.845143999999989,315
59.47666399999986,9.845143999999989,282
58.82866399999986,5.957143999999991,1179
58.180663999999865,7.25314399999999,1055
58.50466399999986,7.25314399999999,1086
58.50466399999986,6.60514399999999,1091
58.50466399999986,5.957143999999991,1145
58.82866399999986,8.54914399999999,359
60.44866399999985,7.25314399999999,291
60.44866399999985,7.90114399999999,0
60.124663999999854,10.493143999999988,190
60.44866399999985,9.197143999999987,116
60.77266399999985,9.197143999999987,103
60.77266399999985,8.54914399999999,79
60.124663999999854,9.845143999999989,317
60.44866399999985,10.493143999999988,242
63.04066399999984,10.493143999999988,1310
62.06866399999984,9.845143999999989,1227
62.39266399999984,9.845143999999989,1410
62.71666399999984,9.845143999999989,1258
59.47666399999986,14.381143999999988,1345
59.47666399999986,13.733143999999989,1320
59.47666399999986,13.085143999999987,1306
59.800663999999855,12.437143999999988,1445
59.15266399999986,11.141143999999988,309
59.15266399999986,14.381143999999988,1363
58.82866399999986,11.789143999999988,1136
58.50466399999986,12.437143999999988,1195
58.180663999999865,12.437143999999988,1220
57.85666399999987,11.789143999999988,1245
62.71666399999984,7.90114399999999,1288
62.39266399999984,7.90114399999999,1245
62.06866399999984,8.54914399999999,1220
60.44866399999985,5.309143999999991,525
60.44866399999985,5.957143999999991,892
60.77266399999985,5.957143999999991,863
62.39266399999984,11.141143999999988,1391
62.06866399999984,10.493143999999988,1346
61.74466399999984,11.141143999999988,1319
61.420663999999846,11.141143999999988,1273
61.09666399999985,11.141143999999988,1256
60.77266399999985,11.789143999999988,1233
63.04066399999984,11.141143999999988,1388
62.71666399999984,11.141143999999988,1410
62.39266399999984,10.493143999999988,1373
67.25266399999981,15.677143999999986,2390
67.25266399999981,15.029143999999986,2428
67.25266399999981,14.381143999999988,2456
66.92866399999981,15.029143999999986,2379
66.60466399999981,15.677143999999986,2357
64.01266399999983,11.141143999999988,1508
66.60466399999981,15.029143999999986,2420
54.29266399999989,18.269143999999983,2910
54.616663999999886,17.621143999999987,2868
53.96866399999989,18.269143999999983,2898
43.92466399999995,1.4211439999999929,2822
44.24866399999995,0.7731439999999932,2783
44.572663999999946,0.1251439999999934,2768
46.84066399999993,1.4211439999999929,2818
44.572663999999946,1.4211439999999929,2838
44.24866399999995,1.4211439999999929,2863
45.54466399999994,1.4211439999999929,2784
46.516663999999935,1.4211439999999929,2951
42.30466399999996,2.717143999999992,2971
44.24866399999995,2.717143999999992,2948
44.572663999999946,2.717143999999992,2923
43.92466399999995,2.0691439999999925,2956
42.30466399999996,2.0691439999999925,3027
42.62866399999996,2.0691439999999925,2968
42.62866399999996,1.4211439999999929,2977
42.95266399999996,1.4211439999999929,2872
43.276663999999954,1.4211439999999929,2865
46.516663999999935,-1.170856000000006,2905
46.19266399999994,-1.170856000000006,2831
45.86866399999994,-0.5228560000000062,2800
45.54466399999994,-0.5228560000000062,2756
48.46066399999992,1.4211439999999929,2575
41.332663999999966,2.0691439999999925,3092
41.98066399999996,2.717143999999992,3051
48.46066399999992,-1.8188560000000056,2680
47.81266399999993,0.7731439999999932,2683
46.84066399999993,0.7731439999999932,2698
44.572663999999946,-1.170856000000006,2725
43.60066399999995,-1.170856000000006,2791
43.276663999999954,-1.8188560000000056,2838
43.276663999999954,0.1251439999999934,2930
42.95266399999996,0.1251439999999934,2895
43.276663999999954,-0.5228560000000062,2841
43.60066399999995,-0.5228560000000062,2830
47.81266399999993,-3.7628560000000046,2813
47.48866399999993,-2.4668560000000053,2714
47.81266399999993,-0.5228560000000062,2689
46.516663999999935,-1.8188560000000056,2921
48.136663999999925,-1.170856000000006,2652
47.48866399999993,-1.170856000000006,2695
45.22066399999994,8.54914399999999,2734
45.22066399999994,7.90114399999999,2742
46.19266399999994,-0.5228560000000062,2797
46.516663999999935,-0.5228560000000062,2874
48.78466399999992,-3.114856000000005,2751
50.72866399999991,2.0691439999999925,2520
50.40466399999991,2.0691439999999925,2557
40.36066399999997,-3.7628560000000046,4305
41.65666399999997,-1.170856000000006,4046
41.332663999999966,1.4211439999999929,3872
43.276663999999954,13.733143999999989,65535
42.95266399999996,13.733143999999989,65535
41.65666399999997,15.029143999999986,65535
40.68466399999997,17.621143999999987,65535
43.60066399999995,13.085143999999987,65535
41.65666399999997,12.437143999999988,65535
41.65666399999997,13.085143999999987,65535
41.98066399999996,13.085143999999987,65535
41.65666399999997,13.733143999999989,65535
41.332663999999966,13.733143999999989,65535
41.332663999999966,14.381143999999988,65535
41.00866399999997,14.381143999999988,65535
41.332663999999966,13.085143999999987,65535
41.00866399999997,15.029143999999986,65535
41.98066399999996,13.733143999999989,65535
42.30466399999996,14.381143999999988,65535
42.30466399999996,12.437143999999988,65535
42.62866399999996,12.437143999999988,65535
42.95266399999996,12.437143999999988,65535
42.30466399999996,11.789143999999988,65535
42.95266399999996,11.789143999999988,65535
42.62866399999996,11.789143999999988,65535
43.276663999999954,11.789143999999988,65535
42.95266399999996,13.085143999999987,65535
42.30466399999996,13.085143999999987,65535
43.276663999999954,13.085143999999987,65535
43.276663999999954,12.437143999999988,65535
42.62866399999996,11.141143999999988,65535
42.95266399999996,11.141143999999988,65535
42.95266399999996,10.493143999999988,65535
44.572663999999946,8.54914399999999,2764
44.89666399999994,7.90114399999999,2759
44.89666399999994,9.197143999999987,2772
44.24866399999995,7.90114399999999,2799
44.572663999999946,7.90114399999999,2780
43.92466399999995,7.90114399999999,2851
44.24866399999995,7.25314399999999,2796
44.89666399999994,7.25314399999999,2778
45.22066399999994,7.25314399999999,2758
45.54466399999994,7.90114399999999,2738
44.572663999999946,7.25314399999999,2902
52.996663999999896,22.805143999999984,3655
52.996663999999896,23.45314399999998,3684
51.37666399999991,22.15714399999998,3145
51.37666399999991,22.805143999999984,3199
50.08066399999991,20.213143999999986,2906
50.72866399999991,20.213143999999986,2947
50.40466399999991,20.213143999999986,2886
50.08066399999991,20.86114399999998,2973
50.08066399999991,21.50914399999997,3004
50.08066399999991,22.15714399999998,3041
50.08066399999991,22.805143999999984,3048
53.96866399999989,22.805143999999984,3796
53.64466399999989,23.45314399999998,3752
53.32066399999989,23.45314399999998,3707
50.40466399999991,19.565143999999982,2820
50.08066399999991,18.917143999999983,2850
50.08066399999991,18.269143999999983,2890
52.0246639999999,22.805143999999984,3092
52.0246639999999,23.45314399999998,3130
51.37666399999991,19.565143999999982,2914
51.05266399999991,19.565143999999982,2833
50.72866399999991,18.917143999999983,2811
50.72866399999991,19.565143999999982,2903
49.75666399999992,18.917143999999983,2838
50.40466399999991,18.269143999999983,2798
53.64466399999989,19.565143999999982,2921
53.96866399999989,18.917143999999983,2940
53.64466399999989,18.917143999999983,2919
53.64466399999989,20.213143999999986,2969
52.996663999999896,18.917143999999983,2867
52.996663999999896,18.269143999999983,2847
53.32066399999989,18.917143999999983,2871
50.72866399999991,17.621143999999987,2747
50.72866399999991,18.269143999999983,2784
52.6726639999999,16.325143999999987,2671
52.996663999999896,16.325143999999987,2633
52.996663999999896,15.677143999999986,2590
53.32066399999989,15.677143999999986,2585
53.32066399999989,15.029143999999986,2561
53.64466399999989,15.029143999999986,2568
53.96866399999989,15.029143999999986,2553
52.6726639999999,18.917143999999983,2886
53.32066399999989,16.325143999999987,2603
52.6726639999999,15.029143999999986,2542
51.05266399999991,22.805143999999984,3229
51.05266399999991,23.45314399999998,3256
50.72866399999991,22.15714399999998,3182
50.40466399999991,22.15714399999998,3206
51.05266399999991,22.15714399999998,3196
54.616663999999886,16.973143999999984,2852
54.29266399999989,16.325143999999987,2785
53.96866399999989,15.677143999999986,2700
50.72866399999991,21.50914399999997,3171
50.40466399999991,21.50914399999997,3052
50.40466399999991,17.621143999999987,2768
53.32066399999989,22.805143999999984,3677
53.64466399999989,22.15714399999998,3118
54.29266399999989,16.973143999999984,2821
50.72866399999991,20.86114399999998,2990
51.700663999999904,22.805143999999984,3228
51.05266399999991,21.50914399999997,3055
50.08066399999991,19.565143999999982,2883
52.0246639999999,18.917143999999983,3688
52.0246639999999,19.565143999999982,3681
53.64466399999989,18.269143999999983,2892
51.700663999999904,20.213143999999986,3054
53.32066399999989,19.565143999999982,2912
50.72866399999991,23.45314399999998,4075
50.72866399999991,22.805143999999984,4044
49.43266399999992,20.213143999999986,2926
49.75666399999992,21.50914399999997,3015
49.75666399999992,22.15714399999998,3668
49.43266399999992,22.15714399999998,3262
51.05266399999991,18.917143999999983,2816
51.05266399999991,18.269143999999983,2753
53.32066399999989,16.973143999999984,2779
53.64466399999989,16.973143999999984,2798
49.75666399999992,20.86114399999998,3026
50.40466399999991,22.805143999999984,4642
53.64466399999989,16.325143999999987,2757
53.96866399999989,20.86114399999998,3073
54.29266399999989,20.86114399999998,3119
53.96866399999989,21.50914399999997,3224
53.64466399999989,15.677143999999986,2712
53.96866399999989,20.213143999999986,3001
53.96866399999989,19.565143999999982,2964
54.29266399999989,19.565143999999982,2974
53.96866399999989,16.325143999999987,2748
53.64466399999989,17.621143999999987,2844
53.96866399999989,22.15714399999998,3138
53.64466399999989,21.50914399999997,3074
53.64466399999989,20.86114399999998,3026
52.6726639999999,15.677143999999986,2591
51.05266399999991,20.213143999999986,3275
54.940663999999884,24.101143999999977,65535
54.616663999999886,23.45314399999998,65535
54.29266399999989,23.45314399999998,65535
53.64466399999989,22.805143999999984,3700
53.96866399999989,16.973143999999984,2953
50.40466399999991,20.86114399999998,3706
53.32066399999989,18.269143999999983,2865
49.75666399999992,19.565143999999982,2899
50.40466399999991,23.45314399999998,3325
49.75666399999992,20.213143999999986,2930
49.43266399999992,19.565143999999982,2889
49.43266399999992,20.86114399999998,3035
53.96866399999989,17.621143999999987,3723
42.30466399999996,-1.8188560000000056,4110
41.98066399999996,-1.8188560000000056,4098
41.65666399999997,0.7731439999999932,3986
42.62866399999996,-1.8188560000000056,4135
42.95266399999996,-1.8188560000000056,4162
42.62866399999996,-3.114856000000005,4237
42.95266399999996,-2.4668560000000053,4215
42.62866399999996,-7.650856000000003,4579
42.30466399999996,-7.650856000000003,4639
42.30466399999996,-8.946856000000002,4775
42.30466399999996,-8.298856000000002,4749
41.98066399999996,-8.298856000000002,4738
42.30466399999996,-7.002856000000003,4521
42.62866399999996,-6.354856000000003,4463
42.30466399999996,-6.354856000000003,4418
42.62866399999996,-5.706856000000004,4384
41.98066399999996,-4.410856000000004,4338
42.30466399999996,-3.7628560000000046,4302
40.03666399999997,-0.5228560000000062,3966
39.38866399999998,-0.5228560000000062,4014
41.00866399999997,0.7731439999999932,4114
40.68466399999997,0.7731439999999932,4146
40.36066399999997,0.1251439999999934,4224
39.712663999999975,-0.5228560000000062,4123
38.41666399999998,-0.5228560000000062,4135
39.06466399999998,-0.5228560000000062,4257
38.74066399999998,-1.170856000000006,4277
41.332663999999966,0.7731439999999932,4174
41.65666399999997,2.717143999999992,3774
41.65666399999997,2.0691439999999925,3797
41.332663999999966,0.1251439999999934,4132
41.332663999999966,-0.5228560000000062,4076
41.65666399999997,-4.410856000000004,4480
40.03666399999997,-2.4668560000000053,4296
41.00866399999997,-4.410856000000004,4411
43.276663999999954,-5.706856000000004,4663
39.38866399999998,-1.170856000000006,4109
38.09266399999999,-1.170856000000006,4522
38.74066399999998,-0.5228560000000062,4285
37.76866399999999,-1.170856000000006,4587
39.06466399999998,-1.8188560000000056,4385
39.38866399999998,-3.114856000000005,4464
39.38866399999998,-2.4668560000000053,4491
39.06466399999998,-2.4668560000000053,4495
39.06466399999998,-3.114856000000005,4576
39.06466399999998,-3.7628560000000046,4590
38.74066399999998,-3.7628560000000046,4603
40.03666399999997,-3.7628560000000046,4358
40.03666399999997,-3.114856000000005,4414
40.03666399999997,-1.8188560000000056,4244
39.712663999999975,-1.8188560000000056,4209
39.712663999999975,-1.170856000000006,4145
40.36066399999997,-1.170856000000006,4250
40.68466399999997,-1.170856000000006,4270
41.00866399999997,-1.170856000000006,4295
41.332663999999966,-1.170856000000006,4344
43.276663999999954,-8.298856000000002,4739
42.95266399999996,-8.298856000000002,4707
41.65666399999997,-5.706856000000004,65535
41.98066399999996,-7.002856000000003,65535
41.98066399999996,-6.354856000000003,65535
41.332663999999966,-5.058856000000004,4599
43.276663999999954,-3.7628560000000046,4520
42.95266399999996,-4.410856000000004,4454
42.62866399999996,-4.410856000000004,4444
42.30466399999996,-4.410856000000004,4403
41.00866399999997,-5.706856000000004,65535
41.332663999999966,-1.8188560000000056,4400
40.68466399999997,-3.114856000000005,4570
41.00866399999997,-3.114856000000005,4624
41.00866399999997,-2.4668560000000053,4650
41.332663999999966,-2.4668560000000053,65535
40.68466399999997,-4.410856000000004,4390
40.36066399999997,-4.410856000000004,4717
40.68466399999997,-3.7628560000000046,4332
40.36066399999997,-3.114856000000005,4558
41.65666399999997,-2.4668560000000053,65535
38.09266399999999,-3.7628560000000046,65535
38.74066399999998,-3.114856000000005,65535
37.76866399999999,-3.7628560000000046,65535
39.712663999999975,-3.114856000000005,4447
38.41666399999998,-3.7628560000000046,65535
40.03666399999997,-4.410856000000004,65535
40.03666399999997,-5.058856000000004,65535
39.38866399999998,-6.354856000000003,65535
39.38866399999998,-7.002856000000003,65535
42.95266399999996,-3.114856000000005,4648
41.98066399999996,-1.170856000000006,4404
42.30466399999996,-2.4668560000000053,4752
41.65666399999997,-0.5228560000000062,65535
41.98066399999996,-0.5228560000000062,4354
41.65666399999997,0.1251439999999934,4339
41.98066399999996,0.1251439999999934,4307
37.76866399999999,-5.058856000000004,4692
36.79666399999999,-4.410856000000004,4754
38.74066399999998,-4.410856000000004,65535
37.12066399999999,-4.410856000000004,4728
37.44466399999999,-5.058856000000004,4715
37.44466399999999,-7.002856000000003,65535
37.44466399999999,-6.354856000000003,65535
37.44466399999999,-5.706856000000004,4629
39.712663999999975,-3.7628560000000046,65535
42.62866399999996,-8.946856000000002,65535
42.30466399999996,-5.706856000000004,4425
42.30466399999996,-5.058856000000004,4510
42.95266399999996,-5.706856000000004,65535
41.00866399999997,-5.058856000000004,65535
40.68466399999997,-5.058856000000004,65535
41.65666399999997,-5.058856000000004,65535
41.65666399999997,-6.354856000000003,65535
36.79666399999999,-6.354856000000003,65535
37.12066399999999,-5.706856000000004,65535
37.76866399999999,-5.706856000000004,65535
38.09266399999999,-4.410856000000004,65535
37.12066399999999,-5.058856000000004,65535
36.79666399999999,-5.058856000000004,65535
37.76866399999999,-4.410856000000004,65535
37.76866399999999,-7.002856000000003,65535
38.41666399999998,-6.354856000000003,65535
38.09266399999999,-6.354856000000003,65535
48.78466399999992,1.4211439999999929,2641
56.23666399999988,8.54914399999999,2290
55.58866399999988,9.197143999999987,2095
55.91266399999988,9.197143999999987,2236
55.26466399999988,10.493143999999988,1998
55.91266399999988,12.437143999999988,1388
55.58866399999988,11.789143999999988,1935
55.58866399999988,11.141143999999988,1976
55.26466399999988,11.789143999999988,1968
55.58866399999988,10.493143999999988,2091
55.58866399999988,13.085143999999987,1393
56.88466399999987,9.845143999999989,2242
57.20866399999987,9.845143999999989,2277
56.56066399999988,9.845143999999989,2214
56.88466399999987,8.54914399999999,2329
54.940663999999884,9.845143999999989,3436
54.940663999999884,11.789143999999988,2309
55.91266399999988,13.085143999999987,1386
56.23666399999988,13.733143999999989,1388
55.91266399999988,13.733143999999989,1401
56.23666399999988,14.381143999999988,1411
56.23666399999988,15.029143999999986,1452
56.23666399999988,15.677143999999986,1507
56.56066399999988,14.381143999999988,1432
56.88466399999987,14.381143999999988,1374
56.23666399999988,13.085143999999987,1354
56.56066399999988,13.085143999999987,1323
56.88466399999987,12.437143999999988,1304
57.20866399999987,12.437143999999988,1268
57.53266399999987,12.437143999999988,1259
56.88466399999987,15.029143999999986,1403
56.56066399999988,15.677143999999986,1465
56.88466399999987,15.677143999999986,1483
56.88466399999987,16.325143999999987,1499
55.91266399999988,11.789143999999988,2261
57.20866399999987,10.493143999999988,2464
49.43266399999992,1.4211439999999929,2666
49.75666399999992,0.7731439999999932,2659
49.75666399999992,2.0691439999999925,2590
50.08066399999991,2.717143999999992,2570
49.75666399999992,1.4211439999999929,2640
47.81266399999993,1.4211439999999929,2715
48.136663999999925,2.0691439999999925,2949
48.46066399999992,2.0691439999999925,2791
48.136663999999925,1.4211439999999929,2693
48.78466399999992,0.1251439999999934,2692
48.46066399999992,0.1251439999999934,2690
47.81266399999993,0.1251439999999934,2653
46.84066399999993,-0.5228560000000062,2845
47.16466399999993,0.7731439999999932,2668
46.84066399999993,0.1251439999999934,2719
46.84066399999993,-1.170856000000006,2879
50.08066399999991,1.4211439999999929,2617
50.08066399999991,2.0691439999999925,2633
49.43266399999992,2.717143999999992,2592
49.75666399999992,3.365143999999992,2590
50.08066399999991,3.365143999999992,2517
49.10866399999992,2.0691439999999925,2615
49.43266399999992,2.0691439999999925,2623
48.78466399999992,0.7731439999999932,2641
48.78466399999992,-0.5228560000000062,2721
48.78466399999992,-1.170856000000006,2740
48.136663999999925,0.7731439999999932,2624
48.46066399999992,0.7731439999999932,2649
43.92466399999995,5.957143999999991,2793
44.24866399999995,5.957143999999991,2833
43.92466399999995,5.309143999999991,2741
42.95266399999996,2.717143999999992,2898
45.54466399999994,2.0691439999999925,2821
45.22066399999994,2.0691439999999925,2838
42.95266399999996,2.0691439999999925,2897
42.95266399999996,0.7731439999999932,2906
43.276663999999954,0.7731439999999932,2891
46.19266399999994,0.7731439999999932,2845
46.516663999999935,0.7731439999999932,2779
45.86866399999994,0.1251439999999934,2923
46.19266399999994,0.1251439999999934,2920
47.81266399999993,-1.170856000000006,2728
48.136663999999925,-2.4668560000000053,2706
47.48866399999993,-1.8188560000000056,2696
47.16466399999993,-1.170856000000006,2715
47.16466399999993,-0.5228560000000062,2723
46.84066399999993,-1.8188560000000056,2752
45.22066399999994,-0.5228560000000062,2726
44.89666399999994,0.1251439999999934,2719
45.22066399999994,0.7731439999999932,2743
45.54466399999994,0.7731439999999932,2753
45.86866399999994,0.7731439999999932,2918
45.22066399999994,0.1251439999999934,2732
44.89666399999994,0.7731439999999932,2756
43.92466399999995,-0.5228560000000062,2879
43.92466399999995,-1.170856000000006,2771
44.24866399999995,-1.170856000000006,2844
45.22066399999994,-1.170856000000006,2778
44.572663999999946,-0.5228560000000062,2743
44.24866399999995,0.1251439999999934,2790
44.572663999999946,0.7731439999999932,2837
43.276663999999954,-1.170856000000006,2804
42.95266399999996,-0.5228560000000062,2853
44.24866399999995,2.0691439999999925,3000
43.60066399999995,0.7731439999999932,2890
43.60066399999995,2.0691439999999925,2898
52.6726639999999,4.661143999999991,2499
52.6726639999999,5.309143999999991,2514
51.700663999999904,5.309143999999991,2468
52.0246639999999,5.309143999999991,2478
52.3486639999999,5.309143999999991,2480
51.37666399999991,4.013143999999992,2506
52.3486639999999,5.957143999999991,2460
52.0246639999999,6.60514399999999,2469
52.6726639999999,5.957143999999991,2452
52.996663999999896,5.957143999999991,2460
53.32066399999989,5.957143999999991,2445
52.996663999999896,6.60514399999999,2427
53.32066399999989,6.60514399999999,2421
52.6726639999999,6.60514399999999,2440
52.996663999999896,5.309143999999991,2466
59.15266399999986,24.101143999999977,65535
56.88466399999987,24.101143999999977,65535
56.88466399999987,23.45314399999998,65535
56.88466399999987,22.805143999999984,65535
57.20866399999987,24.74914399999998,65535
56.88466399999987,24.74914399999998,65535
56.56066399999988,24.74914399999998,65535
56.56066399999988,25.397143999999983,65535
56.56066399999988,24.101143999999977,65535
56.56066399999988,23.45314399999998,65535
56.56066399999988,26.04514399999998,65535
56.88466399999987,26.04514399999998,65535
57.20866399999987,25.397143999999983,65535
57.53266399999987,25.397143999999983,65535
56.23666399999988,26.04514399999998,65535
56.23666399999988,26.69314399999997,65535
55.91266399999988,26.69314399999997,65535
56.56066399999988,26.69314399999997,65535
56.56066399999988,27.34114399999998,65535
56.56066399999988,27.989143999999985,65535
56.23666399999988,27.989143999999985,65535
55.91266399999988,27.34114399999998,65535
56.56066399999988,22.805143999999984,65535
56.56066399999988,22.15714399999998,65535
56.56066399999988,21.50914399999997,65535
57.20866399999987,26.69314399999997,65535
39.06466399999998,-8.946856000000002,65535
38.41666399999998,-8.298856000000002,65535
45.86866399999994,11.789143999999988,4468
46.19266399999994,11.789143999999988,4455
46.19266399999994,10.493143999999988,4495
45.22066399999994,18.269143999999983,3031
45.22066399999994,18.917143999999983,3057
45.54466399999994,16.973143999999984,2896
45.22066399999994,17.621143999999987,2957
45.86866399999994,16.325143999999987,2815
45.54466399999994,18.917143999999983,3094
45.54466399999994,16.325143999999987,2835
45.54466399999994,18.269143999999983,3089
44.89666399999994,18.917143999999983,3130
46.19266399999994,16.973143999999984,2881
46.19266399999994,16.325143999999987,2868
45.86866399999994,16.973143999999984,2891
45.86866399999994,17.621143999999987,2924
46.19266399999994,15.677143999999986,2795
46.516663999999935,16.325143999999987,2853
45.54466399999994,15.677143999999986,2879
45.22066399999994,15.029143999999986,2875
45.54466399999994,15.029143999999986,2855
45.22066399999994,15.677143999999986,2942
44.572663999999946,15.677143999999986,3019
44.24866399999995,15.677143999999986,3040
43.92466399999995,16.325143999999987,3104
44.89666399999994,15.677143999999986,2983
45.54466399999994,17.621143999999987,3032
45.22066399999994,16.325143999999987,2943
46.516663999999935,16.973143999999984,2895
45.86866399999994,18.269143999999983,3115
43.92466399999995,15.677143999999986,3206
45.22066399999994,13.733143999999989,2981
47.48866399999993,19.565143999999982,3034
47.16466399999993,18.917143999999983,3033
47.81266399999993,18.917143999999983,2986
45.54466399999994,9.845143999999989,2719
45.22066399999994,9.845143999999989,2728
45.22066399999994,10.493143999999988,2778
45.86866399999994,9.845143999999989,2739
45.86866399999994,10.493143999999988,65535
48.78466399999992,21.50914399999997,2977
49.10866399999992,20.213143999999986,2918
49.10866399999992,18.917143999999983,2826
48.46066399999992,17.621143999999987,2867
49.43266399999992,17.621143999999987,2773
49.10866399999992,17.621143999999987,2821
48.136663999999925,18.269143999999983,2898
49.10866399999992,18.269143999999983,2847
49.43266399999992,18.269143999999983,2804
49.43266399999992,16.973143999999984,2751
49.75666399999992,16.973143999999984,2721
49.75666399999992,16.325143999999987,2699
50.08066399999991,15.677143999999986,2651
50.08066399999991,15.029143999999986,2621
49.43266399999992,18.917143999999983,2815
47.81266399999993,20.86114399999998,3115
48.136663999999925,20.86114399999998,3050
48.46066399999992,20.86114399999998,3037
48.46066399999992,21.50914399999997,2992
49.10866399999992,19.565143999999982,2839
48.136663999999925,17.621143999999987,2846
48.78466399999992,22.15714399999998,3110
48.78466399999992,20.86114399999998,3265
49.10866399999992,20.86114399999998,2961
48.78466399999992,18.269143999999983,2890
48.78466399999992,17.621143999999987,2849
49.10866399999992,21.50914399999997,2969
48.78466399999992,20.213143999999986,3309
48.46066399999992,20.213143999999986,3321
48.136663999999925,19.565143999999982,3045
48.46066399999992,19.565143999999982,2924
48.46066399999992,18.917143999999983,2906
48.46066399999992,18.269143999999983,2903
48.78466399999992,19.565143999999982,2880
48.78466399999992,18.917143999999983,2866
47.81266399999993,18.269143999999983,2947
49.10866399999992,22.15714399999998,3164
49.43266399999992,21.50914399999997,3094
48.136663999999925,18.917143999999983,3099
48.136663999999925,20.213143999999986,3065
52.636,-8.018,65535
52.312,-7.370000000000001,65535
52.312,-8.018,65535
52.636,-8.666,65535
51.988,-8.666,65535
51.988,-8.018,65535
52.96,-8.666,65535
52.96,-6.074000000000002,65535
53.28399999999999,-6.722000000000001,65535
53.60799999999999,-6.722000000000001,65535
53.60799999999999,-7.370000000000001,65535
53.60799999999999,-8.018,65535
54.25599999999999,-8.666,65535
53.93199999999999,-8.666,65535
53.93199999999999,-8.018,65535
52.312,-6.722000000000001,65535
52.636,-6.722000000000001,65535
53.93199999999999,-6.722000000000001,65535
54.25599999999999,-6.074000000000002,65535
53.28399999999999,-7.370000000000001,65535
52.96,-7.370000000000001,65535
52.312,-8.666,65535
52.96,-8.018,65535
52.636,-7.370000000000001,65535
52.96,-6.722000000000001,65535
51.988,-9.314,65535
52.312,-9.314,65535
54.579999999999984,-6.722000000000001,65535
54.579999999999984,-6.074000000000002,65535
53.28399999999999,-8.018,65535
53.28399999999999,-8.666,65535
53.28399999999999,-9.314,65535
53.93199999999999,-9.314,65535
54.25599999999999,-9.314,65535
53.60799999999999,-8.666,65535
53.60799999999999,-9.314,65535
49.43266399999992,14.381143999999988,2675
49.75666399999992,14.381143999999988,2633
49.75666399999992,15.029143999999986,2626
49.75666399999992,13.733143999999989,2663
50.08066399999991,13.733143999999989,2657
49.75666399999992,15.677143999999986,2637
50.40466399999991,15.029143999999986,2616
49.43266399999992,13.733143999999989,2766
50.40466399999991,15.677143999999986,2627
50.40466399999991,13.733143999999989,2683
46.19266399999994,15.029143999999986,2789
45.86866399999994,15.029143999999986,2816
45.86866399999994,14.381143999999988,2809
46.19266399999994,13.733143999999989,2822
45.86866399999994,13.733143999999989,2908
58.50466399999986,13.733143999999989,1279
58.180663999999865,13.733143999999989,1264
58.180663999999865,13.085143999999987,1233
57.85666399999987,12.437143999999988,1234
60.44866399999985,15.677143999999986,1475
60.124663999999854,15.677143999999986,1466
60.124663999999854,16.325143999999987,1519
59.800663999999855,16.325143999999987,1430
59.800663999999855,17.621143999999987,1432
59.47666399999986,18.269143999999983,1412
61.74466399999984,16.973143999999984,1558
61.420663999999846,16.973143999999984,1528
60.77266399999985,16.973143999999984,1483
65.63266399999982,22.15714399999998,2302
65.95666399999982,21.50914399999997,2262
65.63266399999982,20.86114399999998,2233
64.98466399999982,20.213143999999986,2165
64.66066399999983,20.213143999999986,2143
64.33666399999983,19.565143999999982,2344
64.01266399999983,19.565143999999982,2261
63.68866399999983,20.213143999999986,1774
64.66066399999983,18.917143999999983,2514
59.15266399999986,16.325143999999987,1357
59.15266399999986,15.029143999999986,1338
59.15266399999986,17.621143999999987,1416
57.53266399999987,14.381143999999988,1328
57.53266399999987,15.029143999999986,1350
61.09666399999985,14.381143999999988,1649
60.77266399999985,15.029143999999986,1605
60.44866399999985,15.029143999999986,1594
58.180663999999865,15.029143999999986,1415
58.50466399999986,16.325143999999987,1402
58.50466399999986,15.677143999999986,1413
63.36466399999984,13.085143999999987,1633
63.04066399999984,14.381143999999988,1711
62.39266399999984,15.677143999999986,1692
63.36466399999984,13.733143999999989,1660
63.36466399999984,14.381143999999988,1698
62.71666399999984,15.677143999999986,1720
62.39266399999984,17.621143999999987,1613
59.800663999999855,15.677143999999986,1553
55.58866399999988,13.733143999999989,1478
57.20866399999987,14.381143999999988,1354
57.85666399999987,14.381143999999988,1306
58.82866399999986,16.973143999999984,1483
58.82866399999986,16.325143999999987,1490
59.15266399999986,18.269143999999983,1419
60.44866399999985,17.621143999999987,1474
59.15266399999986,12.437143999999988,1264
59.15266399999986,13.085143999999987,1277
58.82866399999986,12.437143999999988,1241
59.47666399999986,16.325143999999987,1409
58.82866399999986,14.381143999999988,1296
59.47666399999986,15.677143999999986,1398
63.36466399999984,18.917143999999983,1729
63.04066399999984,17.621143999999987,1694
62.71666399999984,17.621143999999987,1670
63.68866399999983,19.565143999999982,2227
62.39266399999984,16.973143999999984,1633
59.800663999999855,16.973143999999984,1435
59.47666399999986,17.621143999999987,1419
57.85666399999987,13.085143999999987,1288
57.53266399999987,13.085143999999987,1327
58.50466399999986,11.789143999999988,1162
57.85666399999987,15.029143999999986,1407
57.20866399999987,13.733143999999989,1455
57.53266399999987,13.733143999999989,1546
61.74466399999984,16.325143999999987,1606
61.420663999999846,16.325143999999987,1573
61.09666399999985,16.325143999999987,1563
61.09666399999985,16.973143999999984,1549
60.124663999999854,15.029143999999986,1426
66.60466399999981,20.86114399999998,2337
67.25266399999981,20.86114399999998,2405
67.90066399999981,20.213143999999986,2475
67.57666399999981,20.213143999999986,3100
59.800663999999855,15.029143999999986,1477
58.50466399999986,15.029143999999986,1408
59.47666399999986,15.029143999999986,1461
60.44866399999985,16.325143999999987,1499
59.15266399999986,15.677143999999986,1397
57.85666399999987,13.733143999999989,1288
58.82866399999986,13.733143999999989,1312
58.50466399999986,13.085143999999987,1248
57.20866399999987,13.085143999999987,1487
56.88466399999987,13.085143999999987,1457
58.180663999999865,11.789143999999988,1222
62.06866399999984,16.973143999999984,1617
65.95666399999982,23.45314399999998,2343
59.800663999999855,14.381143999999988,1372
59.800663999999855,18.269143999999983,1424
63.04066399999984,15.029143999999986,1724
62.71666399999984,15.029143999999986,1728
62.39266399999984,16.325143999999987,1661
63.36466399999984,12.437143999999988,1609
68.5486639999998,17.621143999999987,2688
68.5486639999998,18.269143999999983,2621
68.5486639999998,18.917143999999983,2598
68.2246639999998,18.917143999999983,2554
59.800663999999855,13.085143999999987,1456
60.124663999999854,13.085143999999987,1496
59.47666399999986,16.973143999999984,1458
59.15266399999986,16.973143999999984,1467
56.56066399999988,13.733143999999989,1451
60.124663999999854,17.621143999999987,1466
57.85666399999987,16.325143999999987,1518
58.180663999999865,16.325143999999987,1484
58.180663999999865,15.677143999999986,1480
57.20866399999987,16.325143999999987,1527
57.53266399999987,15.677143999999986,1548
57.85666399999987,15.677143999999986,1519
44.89666399999994,23.45314399999998,65535
44.572663999999946,23.45314399999998,65535
44.89666399999994,24.74914399999998,65535
44.572663999999946,24.74914399999998,65535
44.572663999999946,24.101143999999977,65535
44.24866399999995,24.101143999999977,65535
47.48866399999993,25.397143999999983,65535
47.48866399999993,24.74914399999998,65535
47.16466399999993,24.74914399999998,65535
47.16466399999993,24.101143999999977,65535
47.48866399999993,22.15714399999998,65535
47.81266399999993,22.15714399999998,65535
47.16466399999993,22.15714399999998,65535
47.16466399999993,23.45314399999998,65535
47.16466399999993,22.805143999999984,65535
46.84066399999993,24.101143999999977,65535
45.86866399999994,27.34114399999998,65535
45.54466399999994,27.34114399999998,65535
45.54466399999994,27.989143999999985,65535
45.86866399999994,20.86114399999998,65535
45.86866399999994,21.50914399999997,65535
46.19266399999994,21.50914399999997,65535
46.19266399999994,27.34114399999998,65535
46.19266399999994,26.69314399999997,65535
46.516663999999935,26.69314399999997,65535
46.516663999999935,26.04514399999998,65535
47.48866399999993,22.805143999999984,65535
46.84066399999993,22.805143999999984,65535
45.54466399999994,22.15714399999998,65535
45.22066399999994,22.15714399999998,65535
44.89666399999994,22.15714399999998,65535
47.48866399999993,23.45314399999998,65535
46.516663999999935,24.101143999999977,65535
46.516663999999935,24.74914399999998,65535
45.86866399999994,24.101143999999977,65535
47.16466399999993,26.69314399999997,65535
47.16466399999993,27.34114399999998,65535
43.92466399999995,25.397143999999983,65535
44.24866399999995,24.74914399999998,65535
44.89666399999994,26.04514399999998,65535
44.89666399999994,26.69314399999997,65535
45.22066399999994,26.69314399999997,65535
45.22066399999994,27.34114399999998,65535
46.84066399999993,26.69314399999997,65535
47.48866399999993,26.69314399999997,65535
44.24866399999995,25.397143999999983,65535
43.92466399999995,26.04514399999998,65535
46.19266399999994,24.101143999999977,65535
44.572663999999946,25.397143999999983,65535
46.84066399999993,24.74914399999998,65535
46.516663999999935,21.50914399999997,65535
46.84066399999993,21.50914399999997,65535
44.572663999999946,26.69314399999997,65535
44.572663999999946,27.34114399999998,65535
44.89666399999994,27.34114399999998,65535
44.572663999999946,27.989143999999985,65535
44.24866399999995,27.989143999999985,65535
44.572663999999946,28.63714399999997,65535
45.86866399999994,22.15714399999998,65535
45.86866399999994,22.805143999999984,65535
44.24866399999995,23.45314399999998,65535
43.92466399999995,27.989143999999985,65535
46.84066399999993,27.34114399999998,65535
45.22066399999994,23.45314399999998,65535
45.54466399999994,23.45314399999998,65535
45.54466399999994,24.101143999999977,65535
45.22066399999994,24.101143999999977,65535
44.89666399999994,24.101143999999977,65535
46.19266399999994,22.15714399999998,65535
46.516663999999935,22.15714399999998,65535
45.22066399999994,21.50914399999997,65535
45.54466399999994,21.50914399999997,65535
45.54466399999994,20.86114399999998,65535
46.516663999999935,27.989143999999985,65535
46.19266399999994,27.989143999999985,65535
45.54466399999994,25.397143999999983,65535
45.22066399999994,25.397143999999983,65535
45.22066399999994,26.04514399999998,65535
47.81266399999993,24.101143999999977,65535
47.48866399999993,26.04514399999998,65535
47.81266399999993,26.04514399999998,65535
46.19266399999994,23.45314399999998,65535
45.86866399999994,23.45314399999998,65535
44.24866399999995,26.04514399999998,65535
45.22066399999994,27.989143999999985,65535
45.86866399999994,24.74914399999998,65535
46.516663999999935,25.397143999999983,65535
46.84066399999993,25.397143999999983,65535
46.19266399999994,26.04514399999998,65535
45.86866399999994,26.04514399999998,65535
43.92466399999995,23.45314399999998,65535
44.89666399999994,25.397143999999983,65535
46.19266399999994,20.86114399999998,65535
47.81266399999993,25.397143999999983,65535
44.572663999999946,22.805143999999984,65535
44.572663999999946,22.15714399999998,65535
46.516663999999935,23.45314399999998,65535
45.86866399999994,25.397143999999983,65535
44.24866399999995,27.34114399999998,65535
45.22066399999994,24.74914399999998,65535
45.54466399999994,22.805143999999984,65535
45.22066399999994,28.63714399999997,65535
44.89666399999994,28.63714399999997,65535
47.81266399999993,23.45314399999998,65535
46.19266399999994,24.74914399999998,65535
46.19266399999994,25.397143999999983,65535
43.92466399999995,24.101143999999977,65535
43.92466399999995,24.74914399999998,65535
47.81266399999993,26.69314399999997,65535
47.48866399999993,24.101143999999977,65535
46.84066399999993,26.04514399999998,65535
46.19266399999994,22.805143999999984,65535
47.48866399999993,27.34114399999998,65535
46.19266399999994,20.213143999999986,65535
45.54466399999994,26.04514399999998,65535
44.24866399999995,26.69314399999997,65535
45.86866399999994,27.989143999999985,65535
47.81266399999993,5.957143999999991,65535
