51.56399999999999,-0.4100000000000028,65535
51.887999999999984,-0.4100000000000028,65535
50.91599999999999,-1.7060000000000022,65535
51.23999999999999,-1.0580000000000025,65535
51.56399999999999,-1.0580000000000025,65535
51.23999999999999,-1.7060000000000022,65535
51.56399999999999,0.2379999999999968,65535
47.16466399999993,9.845143999999989,204
47.48866399999993,9.845143999999989,209
48.136663999999925,14.381143999999988,449
47.81266399999993,13.085143999999987,383
47.16466399999993,11.141143999999988,290
47.48866399999993,11.789143999999988,499
48.136663999999925,16.325143999999987,694
47.48866399999993,12.437143999999988,354
48.136663999999925,15.677143999999986,720
47.16466399999993,10.493143999999988,421
47.16466399999993,9.197143999999987,190
48.136663999999925,13.733143999999989,436
48.136663999999925,15.029143999999986,739
47.81266399999993,16.973143999999984,835
48.46066399999992,14.381143999999988,904
47.48866399999993,13.085143999999987,400
47.16466399999993,13.085143999999987,406
47.48866399999993,14.381143999999988,511
47.48866399999993,13.733143999999989,533
47.48866399999993,15.029143999999986,627
46.516663999999935,13.733143999999989,1343
46.84066399999993,13.733143999999989,1381
46.84066399999993,13.085143999999987,1425
48.78466399999992,14.381143999999988,65535
47.16466399999993,15.677143999999986,715
46.516663999999935,14.381143999999988,1339
46.84066399999993,14.381143999999988,1362
47.16466399999993,14.381143999999988,665
46.516663999999935,15.029143999999986,1332
47.81266399999993,16.325143999999987,712
47.16466399999993,15.029143999999986,640
47.81266399999993,15.677143999999986,958
47.48866399999993,15.677143999999986,676
46.516663999999935,13.085143999999987,1934
46.84066399999993,12.437143999999988,1439
48.136663999999925,11.789143999999988,275
47.81266399999993,12.437143999999988,320
46.84066399999993,15.677143999999986,808
46.516663999999935,15.677143999999986,1260
46.84066399999993,16.325143999999987,825
47.81266399999993,14.381143999999988,475
48.78466399999992,16.973143999999984,652
48.136663999999925,16.973143999999984,681
48.46066399999992,13.733143999999989,399
47.81266399999993,13.733143999999989,554
50.08066399999991,8.54914399999999,278
48.46066399999992,9.845143999999989,260
51.05266399999991,7.25314399999999,309
51.37666399999991,7.25314399999999,322
51.37666399999991,6.60514399999999,318
48.46066399999992,16.325143999999987,708
48.46066399999992,16.973143999999984,667
48.78466399999992,16.325143999999987,711
48.46066399999992,15.677143999999986,720
48.78466399999992,15.677143999999986,757
47.48866399999993,16.325143999999987,718
47.16466399999993,16.325143999999987,771
46.19266399999994,14.381143999999988,1336
45.86866399999994,15.677143999999986,1322
43.60066399999995,16.325143999999987,2200
45.54466399999994,14.381143999999988,1386
45.54466399999994,13.733143999999989,1406
48.136663999999925,13.085143999999987,375
48.46066399999992,11.141143999999988,285
48.136663999999925,11.141143999999988,273
48.46066399999992,7.90114399999999,256
49.10866399999992,8.54914399999999,255
48.78466399999992,2.0691439999999925,313
49.10866399999992,7.25314399999999,291
52.0246639999999,7.90114399999999,340
47.16466399999993,11.789143999999988,310
49.43266399999992,11.141143999999988,279
53.64466399999989,9.845143999999989,455
50.72866399999991,4.013143999999992,363
51.05266399999991,11.141143999999988,391
47.48866399999993,11.141143999999988,259
46.84066399999993,11.789143999999988,662
46.516663999999935,11.141143999999988,631
45.54466399999994,11.141143999999988,525
46.19266399999994,11.141143999999988,597
45.86866399999994,11.141143999999988,581
44.572663999999946,11.141143999999988,372
43.92466399999995,12.437143999999988,4071
45.54466399999994,12.437143999999988,612
45.54466399999994,11.789143999999988,575
48.78466399999992,15.029143999999986,852
47.81266399999993,15.029143999999986,750
47.81266399999993,11.141143999999988,270
50.40466399999991,18.917143999999983,673
52.3486639999999,20.86114399999998,1239
54.616663999999886,18.269143999999983,760
54.29266399999989,18.917143999999983,789
49.10866399999992,14.381143999999988,65535
50.08066399999991,14.381143999999988,462
48.78466399999992,13.733143999999989,2216
52.6726639999999,13.085143999999987,454
52.3486639999999,13.085143999999987,453
53.96866399999989,12.437143999999988,564
54.29266399999989,12.437143999999988,577
47.48866399999993,8.54914399999999,185
47.81266399999993,17.621143999999987,798
47.48866399999993,18.917143999999983,1200
47.48866399999993,20.86114399999998,1916
46.84066399999993,23.45314399999998,2398
44.572663999999946,26.04514399999998,2847
47.48866399999993,21.50914399999997,1952
47.81266399999993,21.50914399999997,2348
48.46066399999992,22.15714399999998,1477
47.48866399999993,16.973143999999984,65535
49.10866399999992,16.325143999999987,607
49.75666399999992,18.269143999999983,641
46.19266399999994,13.085143999999987,1650
41.98066399999996,12.437143999999988,1510
43.60066399999995,10.493143999999988,1766
45.54466399999994,9.197143999999987,93
47.81266399999993,22.805143999999984,2813
49.75666399999992,22.805143999999984,1357
50.72866399999991,3.365143999999992,378
51.05266399999991,4.013143999999992,365
50.72866399999991,4.661143999999991,360
51.05266399999991,4.661143999999991,355
51.05266399999991,3.365143999999992,375
51.05266399999991,2.717143999999992,400
50.40466399999991,4.661143999999991,359
50.72866399999991,2.717143999999992,394
50.40466399999991,4.013143999999992,365
51.05266399999991,5.309143999999991,354
50.72866399999991,5.309143999999991,333
51.37666399999991,3.365143999999992,396
51.37666399999991,4.661143999999991,361
50.72866399999991,5.957143999999991,327
50.40466399999991,5.957143999999991,338
50.40466399999991,3.365143999999992,371
50.40466399999991,5.309143999999991,344
50.08066399999991,5.309143999999991,350
49.75666399999992,5.309143999999991,339
49.75666399999992,5.957143999999991,330
51.37666399999991,5.309143999999991,383
51.700663999999904,4.661143999999991,378
50.08066399999991,4.013143999999992,383
50.08066399999991,5.957143999999991,381
50.08066399999991,4.661143999999991,376
49.43266399999992,5.309143999999991,320
49.43266399999992,5.957143999999991,304
52.0246639999999,4.661143999999991,410
52.3486639999999,4.661143999999991,439
50.72866399999991,15.029143999999986,439
51.05266399999991,15.029143999999986,408
51.05266399999991,13.733143999999989,375
50.40466399999991,13.085143999999987,347
49.10866399999992,7.90114399999999,271
48.78466399999992,7.90114399999999,260
50.40466399999991,7.90114399999999,288
50.08066399999991,7.90114399999999,281
49.75666399999992,7.90114399999999,277
49.43266399999992,7.90114399999999,268
49.75666399999992,8.54914399999999,264
49.43266399999992,8.54914399999999,259
49.43266399999992,9.197143999999987,288
49.10866399999992,9.197143999999987,249
47.48866399999993,7.90114399999999,180
47.81266399999993,7.90114399999999,230
48.136663999999925,7.90114399999999,249
48.136663999999925,9.845143999999989,244
47.81266399999993,9.197143999999987,203
47.81266399999993,8.54914399999999,198
47.81266399999993,9.845143999999989,257
54.940663999999884,9.197143999999987,539
54.616663999999886,9.197143999999987,505
54.29266399999989,9.197143999999987,491
53.96866399999989,9.197143999999987,476
53.64466399999989,9.197143999999987,455
54.616663999999886,9.845143999999989,518
54.29266399999989,9.845143999999989,526
53.96866399999989,9.845143999999989,478
53.64466399999989,10.493143999999988,462
53.96866399999989,10.493143999999988,524
53.96866399999989,11.141143999999988,551
54.29266399999989,10.493143999999988,538
53.32066399999989,10.493143999999988,456
54.940663999999884,11.141143999999988,649
52.6726639999999,13.733143999999989,451
52.3486639999999,13.733143999999989,449
52.3486639999999,14.381143999999988,460
52.0246639999999,14.381143999999988,447
52.0246639999999,11.789143999999988,457
52.3486639999999,11.789143999999988,469
52.3486639999999,12.437143999999988,470
52.0246639999999,15.029143999999986,463
51.700663999999904,14.381143999999988,439
52.0246639999999,13.733143999999989,420
51.700663999999904,13.733143999999989,410
52.6726639999999,12.437143999999988,488
53.32066399999989,11.789143999999988,513
53.96866399999989,11.789143999999988,561
53.64466399999989,11.789143999999988,533
53.64466399999989,11.141143999999988,521
53.32066399999989,11.141143999999988,499
52.996663999999896,11.789143999999988,512
52.996663999999896,12.437143999999988,504
52.996663999999896,13.733143999999989,480
53.64466399999989,13.733143999999989,577
53.96866399999989,13.733143999999989,590
54.29266399999989,13.085143999999987,597
53.96866399999989,13.085143999999987,637
53.32066399999989,13.733143999999989,587
52.0246639999999,13.085143999999987,469
51.700663999999904,13.085143999999987,409
52.996663999999896,14.381143999999988,503
52.0246639999999,12.437143999999988,452
51.700663999999904,12.437143999999988,431
51.37666399999991,11.789143999999988,387
51.37666399999991,12.437143999999988,384
52.6726639999999,11.789143999999988,497
53.64466399999989,13.085143999999987,620
53.32066399999989,13.085143999999987,585
52.996663999999896,13.085143999999987,519
53.64466399999989,12.437143999999988,582
51.37666399999991,13.733143999999989,388
53.32066399999989,12.437143999999988,536
52.6726639999999,14.381143999999988,467
51.37666399999991,13.085143999999987,401
53.32066399999989,14.381143999999988,529
52.3486639999999,15.029143999999986,490
52.0246639999999,15.677143999999986,469
51.700663999999904,15.029143999999986,490
51.05266399999991,16.325143999999987,515
51.05266399999991,16.973143999999984,539
51.700663999999904,15.677143999999986,533
51.37666399999991,15.677143999999986,475
51.37666399999991,16.325143999999987,506
50.72866399999991,13.085143999999987,350
50.72866399999991,12.437143999999988,350
51.05266399999991,13.085143999999987,357
51.05266399999991,14.381143999999988,388
50.40466399999991,12.437143999999988,338
50.40466399999991,11.789143999999988,332
50.08066399999991,12.437143999999988,316
50.72866399999991,11.789143999999988,379
51.05266399999991,12.437143999999988,377
50.72866399999991,14.381143999999988,477
51.37666399999991,14.381143999999988,411
50.72866399999991,13.733143999999989,357
50.40466399999991,14.381143999999988,459
51.37666399999991,15.029143999999986,421
55.26466399999988,9.197143999999987,828
55.58866399999988,8.54914399999999,3562
55.91266399999988,8.54914399999999,7039
56.23666399999988,9.197143999999987,7047
56.23666399999988,10.493143999999988,7000
56.23666399999988,9.845143999999989,6987
55.91266399999988,9.845143999999989,6925
56.56066399999988,9.197143999999987,7057
56.56066399999988,8.54914399999999,7100
51.05266399999991,6.60514399999999,315
51.700663999999904,7.90114399999999,331
50.72866399999991,6.60514399999999,318
51.700663999999904,7.25314399999999,327
50.72866399999991,7.25314399999999,304
52.0246639999999,7.25314399999999,331
52.3486639999999,7.90114399999999,367
51.05266399999991,5.957143999999991,325
50.40466399999991,7.25314399999999,295
51.700663999999904,6.60514399999999,337
51.700663999999904,5.957143999999991,338
52.3486639999999,9.197143999999987,369
51.700663999999904,8.54914399999999,340
52.0246639999999,8.54914399999999,346
52.3486639999999,8.54914399999999,366
51.37666399999991,7.90114399999999,326
52.3486639999999,7.25314399999999,393
51.37666399999991,5.957143999999991,341
50.72866399999991,7.90114399999999,324
51.37666399999991,9.197143999999987,361
51.700663999999904,9.197143999999987,360
50.40466399999991,6.60514399999999,406
51.05266399999991,7.90114399999999,345
51.37666399999991,8.54914399999999,341
52.0246639999999,5.957143999999991,351
52.3486639999999,6.60514399999999,416
51.05266399999991,8.54914399999999,344
52.0246639999999,9.197143999999987,369
52.6726639999999,9.197143999999987,390
52.0246639999999,9.845143999999989,397
51.700663999999904,9.845143999999989,438
51.37666399999991,9.845143999999989,466
50.72866399999991,8.54914399999999,293
51.05266399999991,9.845143999999989,411
50.72866399999991,9.845143999999989,376
50.40466399999991,9.845143999999989,363
51.05266399999991,9.197143999999987,353
50.40466399999991,9.197143999999987,298
50.08066399999991,9.197143999999987,282
51.05266399999991,10.493143999999988,702
50.40466399999991,8.54914399999999,282
50.72866399999991,9.197143999999987,319
49.75666399999992,9.197143999999987,294
52.996663999999896,9.197143999999987,429
52.3486639999999,9.845143999999989,377
52.996663999999896,8.54914399999999,446
52.996663999999896,7.90114399999999,473
53.32066399999989,7.90114399999999,557
53.32066399999989,7.25314399999999,613
53.64466399999989,7.25314399999999,658
52.996663999999896,10.493143999999988,443
52.6726639999999,10.493143999999988,436
52.6726639999999,9.845143999999989,390
53.32066399999989,9.845143999999989,450
53.32066399999989,9.197143999999987,445
53.64466399999989,8.54914399999999,470
53.32066399999989,8.54914399999999,449
52.6726639999999,8.54914399999999,423
52.0246639999999,10.493143999999988,452
52.0246639999999,11.141143999999988,462
51.700663999999904,11.141143999999988,448
52.6726639999999,7.25314399999999,905
52.996663999999896,7.25314399999999,879
52.6726639999999,7.90114399999999,495
53.64466399999989,7.90114399999999,851
52.996663999999896,11.141143999999988,504
52.6726639999999,11.141143999999988,530
52.3486639999999,10.493143999999988,421
52.996663999999896,9.845143999999989,456
51.700663999999904,10.493143999999988,558
51.37666399999991,10.493143999999988,582
51.700663999999904,11.789143999999988,441
52.3486639999999,11.141143999999988,449
51.37666399999991,11.141143999999988,396
51.05266399999991,11.789143999999988,384
49.10866399999992,11.141143999999988,272
48.78466399999992,11.141143999999988,283
48.46066399999992,11.789143999999988,282
49.43266399999992,11.789143999999988,283
50.08066399999991,11.789143999999988,303
49.75666399999992,12.437143999999988,313
49.10866399999992,11.789143999999988,281
48.78466399999992,12.437143999999988,324
48.46066399999992,12.437143999999988,312
49.10866399999992,12.437143999999988,291
48.78466399999992,13.085143999999987,351
48.136663999999925,12.437143999999988,348
47.81266399999993,11.789143999999988,288
48.136663999999925,10.493143999999988,287
47.81266399999993,10.493143999999988,272
48.78466399999992,10.493143999999988,284
47.48866399999993,10.493143999999988,243
48.46066399999992,10.493143999999988,277
49.43266399999992,13.085143999999987,338
48.46066399999992,13.085143999999987,373
49.43266399999992,10.493143999999988,271
49.75666399999992,9.845143999999989,291
49.75666399999992,10.493143999999988,282
50.40466399999991,11.141143999999988,297
50.08066399999991,11.141143999999988,291
50.72866399999991,11.141143999999988,401
49.75666399999992,11.141143999999988,284
48.78466399999992,11.789143999999988,298
50.40466399999991,10.493143999999988,463
50.08066399999991,9.845143999999989,319
50.08066399999991,10.493143999999988,297
49.43266399999992,12.437143999999988,330
49.75666399999992,11.789143999999988,292
49.10866399999992,13.085143999999987,338
50.72866399999991,10.493143999999988,716
49.10866399999992,10.493143999999988,267
48.78466399999992,9.845143999999989,250
48.46066399999992,8.54914399999999,239
48.46066399999992,9.197143999999987,230
48.78466399999992,9.197143999999987,239
48.78466399999992,8.54914399999999,249
50.08066399999991,7.25314399999999,308
49.75666399999992,6.60514399999999,317
49.43266399999992,6.60514399999999,294
49.10866399999992,6.60514399999999,309
49.43266399999992,7.25314399999999,288
49.75666399999992,7.25314399999999,293
49.10866399999992,5.957143999999991,302
48.78466399999992,7.25314399999999,280
50.08066399999991,6.60514399999999,314
47.48866399999993,9.197143999999987,197
48.136663999999925,8.54914399999999,223
48.136663999999925,9.197143999999987,225
47.81266399999993,7.25314399999999,210
49.43266399999992,9.845143999999989,280
49.10866399999992,9.845143999999989,260
53.64466399999989,14.381143999999988,572
50.08066399999991,13.085143999999987,506
49.75666399999992,13.085143999999987,515
45.86866399999994,9.197143999999987,102
46.19266399999994,9.197143999999987,119
46.516663999999935,8.54914399999999,150
46.516663999999935,9.197143999999987,137
46.19266399999994,8.54914399999999,119
47.16466399999993,8.54914399999999,178
45.86866399999994,4.661143999999991,258
46.84066399999993,9.845143999999989,193
45.22066399999994,5.957143999999991,220
45.22066399999994,5.309143999999991,277
45.86866399999994,5.957143999999991,154
45.54466399999994,5.957143999999991,135
44.89666399999994,4.661143999999991,305
44.89666399999994,5.309143999999991,297
44.572663999999946,4.661143999999991,355
44.24866399999995,4.661143999999991,373
43.92466399999995,4.661143999999991,350
46.19266399999994,7.25314399999999,165
48.78466399999992,5.957143999999991,280
48.136663999999925,6.60514399999999,257
48.46066399999992,6.60514399999999,260
48.78466399999992,6.60514399999999,269
47.16466399999993,7.90114399999999,176
48.136663999999925,7.25314399999999,244
48.46066399999992,7.25314399999999,265
46.516663999999935,6.60514399999999,174
46.84066399999993,6.60514399999999,184
46.84066399999993,7.25314399999999,169
46.516663999999935,5.957143999999991,193
46.19266399999994,5.957143999999991,178
46.84066399999993,8.54914399999999,160
46.84066399999993,7.90114399999999,164
45.86866399999994,5.309143999999991,252
46.19266399999994,6.60514399999999,169
45.86866399999994,6.60514399999999,180
47.48866399999993,6.60514399999999,236
47.48866399999993,7.25314399999999,198
47.16466399999993,7.25314399999999,183
49.10866399999992,4.013143999999992,386
49.75666399999992,4.661143999999991,379
49.43266399999992,4.661143999999991,413
49.10866399999992,5.309143999999991,329
46.19266399999994,4.661143999999991,213
46.84066399999993,9.197143999999987,204
46.19266399999994,5.309143999999991,242
46.516663999999935,5.309143999999991,239
45.54466399999994,6.60514399999999,144
45.54466399999994,5.309143999999991,295
43.60066399999995,4.013143999999992,386
43.60066399999995,3.365143999999992,423
42.62866399999996,2.717143999999992,492
43.276663999999954,2.717143999999992,456
45.54466399999994,4.661143999999991,278
45.22066399999994,4.661143999999991,294
47.16466399999993,5.309143999999991,271
47.16466399999993,5.957143999999991,216
46.19266399999994,7.90114399999999,135
49.75666399999992,2.717143999999992,419
49.10866399999992,2.717143999999992,365
48.78466399999992,2.717143999999992,387
45.86866399999994,3.365143999999992,470
46.84066399999993,3.365143999999992,352
46.516663999999935,3.365143999999992,381
46.19266399999994,3.365143999999992,415
47.16466399999993,6.60514399999999,188
49.10866399999992,3.365143999999992,391
45.54466399999994,4.013143999999992,289
46.516663999999935,7.25314399999999,192
47.16466399999993,4.661143999999991,299
46.84066399999993,4.661143999999991,275
46.516663999999935,4.661143999999991,260
46.84066399999993,5.957143999999991,213
47.81266399999993,3.365143999999992,409
47.48866399999993,4.013143999999992,359
48.136663999999925,4.013143999999992,410
47.81266399999993,4.013143999999992,380
47.48866399999993,4.661143999999991,363
47.16466399999993,3.365143999999992,387
46.84066399999993,4.013143999999992,291
48.46066399999992,5.957143999999991,305
46.19266399999994,2.717143999999992,533
47.16466399999993,2.0691439999999925,431
46.516663999999935,2.717143999999992,506
46.84066399999993,2.717143999999992,487
46.84066399999993,2.0691439999999925,457
47.16466399999993,2.717143999999992,402
44.572663999999946,5.309143999999991,301
44.572663999999946,5.957143999999991,225
44.89666399999994,6.60514399999999,87
44.572663999999946,6.60514399999999,189
43.60066399999995,5.309143999999991,332
43.92466399999995,7.25314399999999,155
43.60066399999995,6.60514399999999,176
43.276663999999954,6.60514399999999,197
43.276663999999954,5.957143999999991,284
45.86866399999994,8.54914399999999,90
45.54466399999994,8.54914399999999,84
48.136663999999925,3.365143999999992,390
48.46066399999992,3.365143999999992,398
48.46066399999992,2.717143999999992,431
47.48866399999993,5.309143999999991,300
46.516663999999935,9.845143999999989,172
46.84066399999993,10.493143999999988,1331
47.81266399999993,5.309143999999991,384
45.22066399999994,6.60514399999999,81
46.19266399999994,4.013143999999992,314
45.86866399999994,4.013143999999992,297
45.22066399999994,4.013143999999992,317
44.89666399999994,4.013143999999992,384
46.84066399999993,5.309143999999991,261
48.136663999999925,-1.8188560000000056,445
48.136663999999925,0.1251439999999934,386
48.136663999999925,-0.5228560000000062,423
47.48866399999993,-0.5228560000000062,433
47.16466399999993,-1.8188560000000056,474
47.48866399999993,0.7731439999999932,388
47.16466399999993,0.1251439999999934,421
45.86866399999994,7.25314399999999,199
48.136663999999925,5.309143999999991,414
49.10866399999992,4.661143999999991,369
48.46066399999992,4.013143999999992,410
48.136663999999925,4.661143999999991,435
47.81266399999993,6.60514399999999,283
47.48866399999993,5.957143999999991,321
48.136663999999925,5.957143999999991,663
45.86866399999994,7.90114399999999,147
46.516663999999935,7.90114399999999,153
49.43266399999992,3.365143999999992,408
49.43266399999992,4.013143999999992,400
48.136663999999925,2.717143999999992,430
47.81266399999993,2.717143999999992,441
47.48866399999993,2.717143999999992,419
50.40466399999991,2.717143999999992,390
48.46066399999992,-4.410856000000004,638
48.46066399999992,-3.7628560000000046,601
48.46066399999992,-3.114856000000005,571
48.46066399999992,-2.4668560000000053,521
47.48866399999993,1.4211439999999929,496
47.16466399999993,1.4211439999999929,503
46.516663999999935,4.013143999999992,325
43.60066399999995,4.661143999999991,343
44.89666399999994,2.717143999999992,657
45.22066399999994,2.717143999999992,628
45.54466399999994,3.365143999999992,519
45.22066399999994,3.365143999999992,515
47.48866399999993,3.365143999999992,526
46.19266399999994,9.845143999999989,154
47.81266399999993,2.0691439999999925,455
47.48866399999993,2.0691439999999925,517
45.86866399999994,2.717143999999992,494
44.89666399999994,5.957143999999991,277
45.22066399999994,1.4211439999999929,566
44.89666399999994,1.4211439999999929,590
44.89666399999994,2.0691439999999925,740
43.276663999999954,2.0691439999999925,511
43.60066399999995,1.4211439999999929,556
48.78466399999992,4.661143999999991,350
48.78466399999992,5.309143999999991,312
46.19266399999994,2.0691439999999925,620
45.86866399999994,1.4211439999999929,593
46.19266399999994,1.4211439999999929,578
44.572663999999946,4.013143999999992,463
44.89666399999994,3.365143999999992,551
43.92466399999995,4.013143999999992,393
44.24866399999995,4.013143999999992,410
44.89666399999994,-0.5228560000000062,487
45.54466399999994,0.1251439999999934,515
46.516663999999935,0.1251439999999934,423
44.572663999999946,2.0691439999999925,617
49.75666399999992,4.013143999999992,458
43.92466399999995,3.365143999999992,681
43.92466399999995,2.717143999999992,712
44.24866399999995,3.365143999999992,736
44.572663999999946,3.365143999999992,777
49.10866399999992,0.1251439999999934,442
49.43266399999992,0.7731439999999932,415
49.43266399999992,-1.8188560000000056,561
49.10866399999992,-1.170856000000006,521
49.10866399999992,-0.5228560000000062,483
49.10866399999992,0.7731439999999932,445
49.10866399999992,1.4211439999999929,419
47.81266399999993,-1.8188560000000056,510
47.81266399999993,-2.4668560000000053,571
47.81266399999993,-3.114856000000005,600
48.136663999999925,-3.7628560000000046,641
44.572663999999946,9.197143999999987,22
44.89666399999994,8.54914399999999,13
45.22066399999994,9.197143999999987,109
45.54466399999994,10.493143999999988,187
44.572663999999946,10.493143999999988,358
44.89666399999994,10.493143999999988,253
44.89666399999994,9.845143999999989,161
48.46066399999992,5.309143999999991,440
50.91599999999999,-1.0580000000000025,65535
51.23999999999999,-0.4100000000000028,65535
50.91599999999999,-0.4100000000000028,65535
51.23999999999999,-2.354000000000002,65535
51.56399999999999,-2.354000000000002,65535
51.56399999999999,-3.0020000000000016,65535
50.91599999999999,-2.354000000000002,65535
53.50799999999997,-3.0020000000000016,65535
53.183999999999976,-2.354000000000002,65535
53.183999999999976,-3.0020000000000016,65535
52.85999999999998,-2.354000000000002,65535
52.21199999999998,-1.0580000000000025,65535
51.887999999999984,-1.0580000000000025,65535
52.53599999999998,-1.0580000000000025,65535
52.53599999999998,-1.7060000000000022,65535
52.85999999999998,-1.7060000000000022,65535
53.50799999999997,-2.354000000000002,65535
52.85999999999998,-1.0580000000000025,65535
52.53599999999998,1.5339999999999965,65535
52.53599999999998,0.8859999999999966,65535
52.53599999999998,0.2379999999999968,65535
52.53599999999998,-0.4100000000000028,65535
53.50799999999997,-1.7060000000000022,65535
53.183999999999976,-1.7060000000000022,65535
53.183999999999976,-1.0580000000000025,65535
52.85999999999998,-0.4100000000000028,65535
51.887999999999984,-2.354000000000002,65535
52.21199999999998,-2.354000000000002,65535
55.77599999999996,-2.354000000000002,65535
53.83199999999997,-1.0580000000000025,65535
53.83199999999997,-1.7060000000000022,65535
55.127999999999965,-1.7060000000000022,65535
54.80399999999997,-1.7060000000000022,65535
54.47999999999997,-1.7060000000000022,65535
54.15599999999997,-1.0580000000000025,65535
52.21199999999998,-1.7060000000000022,65535
53.50799999999997,-1.0580000000000025,65535
55.77599999999996,-3.0020000000000016,65535
55.45199999999996,-1.7060000000000022,65535
57.07199999999995,-2.354000000000002,65535
56.74799999999996,-3.0020000000000016,65535
56.42399999999996,-3.0020000000000016,65535
56.09999999999996,-3.650000000000001,65535
50.91599999999999,-3.0020000000000016,65535
50.91599999999999,-3.650000000000001,65535
50.59199999999999,-3.650000000000001,65535
50.59199999999999,-4.298000000000001,65535
51.23999999999999,-3.0020000000000016,65535
50.268,-4.946000000000001,65535
55.77599999999996,-3.650000000000001,65535
55.77599999999996,-4.298000000000001,65535
52.21199999999998,-0.4100000000000028,65535
52.53599999999998,-2.354000000000002,65535
51.56399999999999,-1.7060000000000022,65535
51.56399999999999,-3.650000000000001,65535
51.887999999999984,-4.298000000000001,65535
51.56399999999999,-4.298000000000001,65535
51.887999999999984,-1.7060000000000022,65535
52.21199999999998,-3.0020000000000016,65535
51.23999999999999,0.2379999999999968,65535
50.91599999999999,0.2379999999999968,65535
52.21199999999998,0.2379999999999968,65535
53.83199999999997,-3.0020000000000016,65535
54.15599999999997,-3.0020000000000016,65535
54.47999999999997,-3.0020000000000016,65535
55.127999999999965,-3.650000000000001,65535
54.80399999999997,-3.0020000000000016,65535
53.83199999999997,-2.354000000000002,65535
54.15599999999997,-0.4100000000000028,65535
54.47999999999997,-1.0580000000000025,65535
53.83199999999997,-0.4100000000000028,65535
53.183999999999976,-3.650000000000001,65535
53.183999999999976,-4.298000000000001,65535
52.85999999999998,-3.0020000000000016,65535
52.53599999999998,-3.0020000000000016,65535
51.887999999999984,-3.0020000000000016,65535
51.23999999999999,0.8859999999999966,65535
51.887999999999984,0.2379999999999968,65535
52.21199999999998,0.8859999999999966,65535
51.887999999999984,-4.946000000000001,65535
52.53599999999998,-3.650000000000001,65535
52.21199999999998,-4.298000000000001,65535
53.183999999999976,-0.4100000000000028,65535
51.23999999999999,-3.650000000000001,65535
51.887999999999984,-3.650000000000001,65535
52.21199999999998,-3.650000000000001,65535
51.56399999999999,0.8859999999999966,65535
51.887999999999984,0.8859999999999966,65535
52.85999999999998,0.8859999999999966,65535
53.50799999999997,-0.4100000000000028,65535
56.09999999999996,-4.298000000000001,65535
56.74799999999996,-4.946000000000001,65535
56.74799999999996,-4.298000000000001,65535
56.42399999999996,-4.946000000000001,65535
56.42399999999996,-4.298000000000001,65535
56.09999999999996,-4.946000000000001,65535
57.39599999999995,-4.298000000000001,65535
57.39599999999995,-3.0020000000000016,65535
57.39599999999995,-3.650000000000001,65535
56.42399999999996,-3.650000000000001,65535
57.07199999999995,-3.650000000000001,65535
57.07199999999995,-4.298000000000001,65535
56.74799999999996,-3.650000000000001,65535
59.15266399999986,27.34114399999998,65535
59.47666399999986,26.69314399999997,65535
59.47666399999986,26.04514399999998,65535
59.15266399999986,26.04514399999998,65535
59.15266399999986,24.74914399999998,65535
59.15266399999986,25.397143999999983,65535
59.47666399999986,25.397143999999983,65535
58.50466399999986,26.69314399999997,65535
58.82866399999986,26.69314399999997,65535
57.85666399999987,26.04514399999998,65535
58.180663999999865,26.04514399999998,65535
58.180663999999865,26.69314399999997,65535
58.82866399999986,26.04514399999998,65535
58.50466399999986,25.397143999999983,65535
58.82866399999986,25.397143999999983,65535
58.82866399999986,24.74914399999998,65535
58.180663999999865,27.34114399999998,65535
57.85666399999987,27.34114399999998,65535
63.68866399999983,27.34114399999998,7557
60.124663999999854,24.74914399999998,4213
60.44866399999985,24.74914399999998,4182
60.44866399999985,25.397143999999983,4194
60.77266399999985,25.397143999999983,4905
61.09666399999985,26.04514399999998,4948
60.77266399999985,26.04514399999998,4956
60.77266399999985,26.69314399999997,4975
61.09666399999985,25.397143999999983,4939
61.09666399999985,26.69314399999997,7678
61.420663999999846,26.69314399999997,7700
61.74466399999984,27.34114399999998,7724
62.06866399999984,27.34114399999998,7749
62.39266399999984,27.34114399999998,7773
62.71666399999984,27.34114399999998,7737
64.01266399999983,27.34114399999998,7513
63.36466399999984,27.34114399999998,7625
63.04066399999984,27.34114399999998,7665
63.04066399999984,27.989143999999985,7680
64.33666399999983,27.989143999999985,5264
64.33666399999983,27.34114399999998,5209
64.66066399999983,27.34114399999998,5194
64.66066399999983,26.69314399999997,5139
64.98466399999982,25.397143999999983,3559
64.66066399999983,26.04514399999998,5120
64.98466399999982,26.04514399999998,5104
66.28066399999982,25.397143999999983,3731
65.95666399999982,24.74914399999998,3472
65.63266399999982,24.74914399999998,3476
65.63266399999982,25.397143999999983,3518
65.30866399999982,25.397143999999983,3539
66.60466399999981,25.397143999999983,3765
64.01266399999983,24.74914399999998,3696
64.01266399999983,24.101143999999977,3731
64.01266399999983,23.45314399999998,3755
63.68866399999983,23.45314399999998,3767
63.68866399999983,22.805143999999984,3792
63.68866399999983,26.04514399999998,5824
63.68866399999983,25.397143999999983,5790
63.68866399999983,26.69314399999997,7524
60.44866399999985,26.69314399999997,8309
64.01266399999983,27.989143999999985,7943
62.71666399999984,22.805143999999984,3914
62.39266399999984,22.805143999999984,3946
62.06866399999984,22.805143999999984,3975
62.06866399999984,23.45314399999998,3991
61.74466399999984,23.45314399999998,4003
61.420663999999846,23.45314399999998,4051
61.09666399999985,23.45314399999998,4092
61.09666399999985,24.101143999999977,4099
61.09666399999985,24.74914399999998,4133
60.77266399999985,24.74914399999998,4149
63.04066399999984,21.50914399999997,65535
63.04066399999984,22.15714399999998,65535
63.04066399999984,22.805143999999984,3878
62.39266399999984,26.04514399999998,7921
62.06866399999984,25.397143999999983,7970
61.74466399999984,25.397143999999983,8038
61.74466399999984,24.74914399999998,8075
61.74466399999984,24.101143999999977,4280
61.420663999999846,24.101143999999977,4235
62.39266399999984,26.69314399999997,7892
64.66066399999983,25.397143999999983,3628
64.66066399999983,24.74914399999998,3646
64.33666399999983,24.74914399999998,3657
63.36466399999984,22.805143999999984,3817
67.25266399999981,24.101143999999977,7345
66.92866399999981,24.101143999999977,7309
66.60466399999981,23.45314399999998,7278
66.28066399999982,23.45314399999998,7260
66.28066399999982,24.101143999999977,7242
65.95666399999982,24.101143999999977,2844
60.124663999999854,24.101143999999977,5727
60.124663999999854,23.45314399999998,6585
60.44866399999985,22.805143999999984,6644
60.77266399999985,27.34114399999998,5027
61.09666399999985,27.989143999999985,5057
61.09666399999985,28.63714399999997,5095
61.420663999999846,29.28514399999997,5130
61.74466399999984,29.933143999999977,5167
62.06866399999984,29.933143999999977,5193
62.39266399999984,29.933143999999977,5209
62.71666399999984,29.933143999999977,5233
61.420663999999846,22.805143999999984,6338
61.420663999999846,22.15714399999998,7046
61.09666399999985,22.15714399999998,6384
61.420663999999846,21.50914399999997,7179
62.39266399999984,27.989143999999985,65535
62.06866399999984,27.989143999999985,65535
61.420663999999846,27.34114399999998,65535
63.04066399999984,29.933143999999977,7172
63.68866399999983,29.28514399999997,8955
63.36466399999984,29.28514399999997,8935
63.36466399999984,29.933143999999977,8894
60.44866399999985,27.34114399999998,65535
61.74466399999984,29.28514399999997,65535
62.39266399999984,30.58114399999998,65535
62.71666399999984,31.229143999999977,65535
62.71666399999984,29.28514399999997,65535
63.04066399999984,28.63714399999997,65535
66.60466399999981,26.04514399999998,6586
66.60466399999981,26.69314399999997,6622
66.60466399999981,27.34114399999998,6645
62.71666399999984,26.04514399999998,7806
62.71666399999984,25.397143999999983,7775
63.04066399999984,25.397143999999983,7595
63.36466399999984,25.397143999999983,6232
62.71666399999984,23.45314399999998,7800
62.39266399999984,24.101143999999977,65535
62.71666399999984,22.15714399999998,65535
62.39266399999984,22.15714399999998,65535
62.39266399999984,21.50914399999997,65535
61.09666399999985,21.50914399999997,6414
60.77266399999985,22.805143999999984,4452
60.44866399999985,22.15714399999998,4482
60.77266399999985,23.45314399999998,4439
60.77266399999985,21.50914399999997,5553
60.77266399999985,22.15714399999998,5506
60.124663999999854,22.805143999999984,8599
60.44866399999985,24.101143999999977,5712
62.06866399999984,24.74914399999998,65535
50.72866399999991,16.325143999999987,534
50.40466399999991,16.973143999999984,570
50.72866399999991,16.973143999999984,548
50.40466399999991,16.325143999999987,568
50.08066399999991,16.973143999999984,562
50.08066399999991,16.325143999999987,513
51.700663999999904,16.973143999999984,541
51.37666399999991,16.973143999999984,519
51.05266399999991,15.677143999999986,502
50.72866399999991,15.677143999999986,518
51.05266399999991,17.621143999999987,553
51.37666399999991,17.621143999999987,551
51.700663999999904,17.621143999999987,581
51.700663999999904,16.325143999999987,547
52.0246639999999,22.15714399999998,1318
52.0246639999999,21.50914399999997,1254
52.3486639999999,21.50914399999997,1254
52.0246639999999,20.86114399999998,1236
51.700663999999904,20.86114399999998,1230
51.37666399999991,21.50914399999997,1222
51.37666399999991,20.86114399999998,1218
51.05266399999991,20.86114399999998,910
52.6726639999999,23.45314399999998,1427
52.3486639999999,22.805143999999984,1367
52.3486639999999,20.213143999999986,1274
52.0246639999999,20.213143999999986,1242
52.3486639999999,19.565143999999982,652
52.6726639999999,19.565143999999982,751
51.700663999999904,21.50914399999997,1275
51.700663999999904,22.15714399999998,1309
52.6726639999999,21.50914399999997,1315
52.996663999999896,21.50914399999997,1387
52.6726639999999,20.86114399999998,1273
52.6726639999999,22.15714399999998,1339
52.6726639999999,20.213143999999986,1211
52.996663999999896,19.565143999999982,848
52.996663999999896,20.86114399999998,1336
52.996663999999896,20.213143999999986,1391
53.32066399999989,20.213143999999986,1365
51.37666399999991,20.213143999999986,1263
52.3486639999999,16.973143999999984,550
52.0246639999999,16.973143999999984,559
52.0246639999999,16.325143999999987,572
52.0246639999999,17.621143999999987,592
52.6726639999999,16.973143999999984,608
52.996663999999896,16.973143999999984,621
52.3486639999999,16.325143999999987,526
52.3486639999999,15.677143999999986,505
51.700663999999904,18.269143999999983,632
52.6726639999999,17.621143999999987,587
52.3486639999999,17.621143999999987,573
52.6726639999999,18.269143999999983,619
52.3486639999999,18.269143999999983,593
52.3486639999999,18.917143999999983,613
52.996663999999896,17.621143999999987,664
51.700663999999904,19.565143999999982,1310
51.700663999999904,18.917143999999983,1386
51.37666399999991,18.269143999999983,627
58.82866399999986,9.197143999999987,1808
58.180663999999865,7.90114399999999,1901
58.50466399999986,8.54914399999999,1852
63.36466399999984,10.493143999999988,2023
63.36466399999984,11.141143999999988,2030
63.36466399999984,11.789143999999988,2065
63.68866399999983,11.789143999999988,2093
64.33666399999983,12.437143999999988,2494
64.66066399999983,12.437143999999988,2989
65.63266399999982,13.085143999999987,2646
65.95666399999982,13.085143999999987,2681
66.28066399999982,14.381143999999988,2751
65.95666399999982,13.733143999999989,2820
66.28066399999982,13.733143999999989,2729
65.30866399999982,13.085143999999987,2947
64.98466399999982,13.085143999999987,2581
64.01266399999983,11.789143999999988,2124
63.68866399999983,11.141143999999988,2061
59.800663999999855,10.493143999999988,1604
59.800663999999855,11.141143999999988,1587
60.124663999999854,11.141143999999988,1602
60.44866399999985,11.141143999999988,1615
60.124663999999854,11.789143999999988,1628
60.77266399999985,7.25314399999999,1864
60.77266399999985,6.60514399999999,1910
59.15266399999986,9.197143999999987,1690
59.47666399999986,9.197143999999987,1711
59.800663999999855,9.845143999999989,1606
59.47666399999986,11.141143999999988,1551
61.09666399999985,10.493143999999988,1725
60.77266399999985,10.493143999999988,1695
60.77266399999985,11.141143999999988,1650
62.06866399999984,9.197143999999987,2050
61.74466399999984,9.845143999999989,1996
61.420663999999846,9.845143999999989,1973
59.15266399999986,9.845143999999989,1670
59.47666399999986,9.845143999999989,1646
58.82866399999986,5.957143999999991,2085
58.180663999999865,7.25314399999999,1957
58.50466399999986,7.25314399999999,1990
58.50466399999986,6.60514399999999,1995
58.50466399999986,5.957143999999991,2053
58.82866399999986,8.54914399999999,1838
60.44866399999985,7.25314399999999,1838
60.44866399999985,7.90114399999999,1799
60.124663999999854,10.493143999999988,1636
60.44866399999985,9.197143999999987,1748
60.77266399999985,9.197143999999987,1760
60.77266399999985,8.54914399999999,1779
60.124663999999854,9.845143999999989,2015
60.44866399999985,10.493143999999988,1681
63.04066399999984,10.493143999999988,1974
62.06866399999984,9.845143999999989,2075
62.39266399999984,9.845143999999989,2083
62.71666399999984,9.845143999999989,2107
59.47666399999986,14.381143999999988,1600
59.47666399999986,13.733143999999989,1541
59.47666399999986,13.085143999999987,1517
59.800663999999855,12.437143999999988,1586
59.15266399999986,11.141143999999988,1515
59.15266399999986,14.381143999999988,1614
58.82866399999986,11.789143999999988,1495
58.50466399999986,12.437143999999988,1425
58.180663999999865,12.437143999999988,1418
57.85666399999987,11.789143999999988,1369
62.71666399999984,7.90114399999999,2136
62.39266399999984,7.90114399999999,2093
62.06866399999984,8.54914399999999,2068
60.44866399999985,5.309143999999991,1984
60.44866399999985,5.957143999999991,1951
60.77266399999985,5.957143999999991,1940
62.39266399999984,11.141143999999988,1871
62.06866399999984,10.493143999999988,1826
61.74466399999984,11.141143999999988,1799
61.420663999999846,11.141143999999988,1753
61.09666399999985,11.141143999999988,1736
60.77266399999985,11.789143999999988,1713
63.04066399999984,11.141143999999988,1952
62.71666399999984,11.141143999999988,1895
62.39266399999984,10.493143999999988,1853
67.25266399999981,15.677143999999986,2870
67.25266399999981,15.029143999999986,2908
67.25266399999981,14.381143999999988,2936
66.92866399999981,15.029143999999986,2859
66.60466399999981,15.677143999999986,2837
64.01266399999983,11.141143999999988,2108
66.60466399999981,15.029143999999986,2900
54.29266399999989,18.269143999999983,775
54.616663999999886,17.621143999999987,720
53.96866399999989,18.269143999999983,771
43.92466399999995,1.4211439999999929,568
44.24866399999995,0.7731439999999932,571
44.572663999999946,0.1251439999999934,548
46.84066399999993,1.4211439999999929,526
44.572663999999946,1.4211439999999929,627
44.24866399999995,1.4211439999999929,593
45.54466399999994,1.4211439999999929,609
46.516663999999935,1.4211439999999929,551
42.30466399999996,2.717143999999992,571
44.24866399999995,2.717143999999992,695
44.572663999999946,2.717143999999992,680
43.92466399999995,2.0691439999999925,589
42.30466399999996,2.0691439999999925,627
42.62866399999996,2.0691439999999925,603
42.62866399999996,1.4211439999999929,625
42.95266399999996,1.4211439999999929,560
43.276663999999954,1.4211439999999929,553
46.516663999999935,-1.170856000000006,514
46.19266399999994,-1.170856000000006,536
45.86866399999994,-0.5228560000000062,567
45.54466399999994,-0.5228560000000062,581
48.46066399999992,1.4211439999999929,349
41.332663999999966,2.0691439999999925,692
41.98066399999996,2.717143999999992,651
48.46066399999992,-1.8188560000000056,491
47.81266399999993,0.7731439999999932,482
46.84066399999993,0.7731439999999932,439
44.572663999999946,-1.170856000000006,505
43.60066399999995,-1.170856000000006,570
43.276663999999954,-1.8188560000000056,599
43.276663999999954,0.1251439999999934,669
42.95266399999996,0.1251439999999934,653
43.276663999999954,-0.5228560000000062,625
43.60066399999995,-0.5228560000000062,601
47.81266399999993,-3.7628560000000046,614
47.48866399999993,-2.4668560000000053,524
47.81266399999993,-0.5228560000000062,410
46.516663999999935,-1.8188560000000056,581
48.136663999999925,-1.170856000000006,458
47.48866399999993,-1.170856000000006,481
45.22066399999994,8.54914399999999,64
45.22066399999994,7.90114399999999,48
46.19266399999994,-0.5228560000000062,491
46.516663999999935,-0.5228560000000062,474
48.78466399999992,-3.114856000000005,590
50.72866399999991,2.0691439999999925,421
50.40466399999991,2.0691439999999925,438
40.36066399999997,-3.7628560000000046,1905
41.65666399999997,-1.170856000000006,1822
41.332663999999966,1.4211439999999929,1760
43.276663999999954,13.733143999999989,4390
42.95266399999996,13.733143999999989,4412
41.65666399999997,15.029143999999986,4496
40.68466399999997,17.621143999999987,4658
43.60066399999995,13.085143999999987,1728
41.65666399999997,12.437143999999988,1526
41.65666399999997,13.085143999999987,1533
41.98066399999996,13.085143999999987,1544
41.65666399999997,13.733143999999989,1581
41.332663999999966,13.733143999999989,1610
41.332663999999966,14.381143999999988,1829
41.00866399999997,14.381143999999988,1735
41.332663999999966,13.085143999999987,1593
41.00866399999997,15.029143999999986,1935
41.98066399999996,13.733143999999989,1626
42.30466399999996,14.381143999999988,2016
42.30466399999996,12.437143999999988,1542
42.62866399999996,12.437143999999988,1579
42.95266399999996,12.437143999999988,1636
42.30466399999996,11.789143999999988,1540
42.95266399999996,11.789143999999988,1836
42.62866399999996,11.789143999999988,1827
43.276663999999954,11.789143999999988,1890
42.95266399999996,13.085143999999987,1629
42.30466399999996,13.085143999999987,1903
43.276663999999954,13.085143999999987,1681
43.276663999999954,12.437143999999988,1689
42.62866399999996,11.141143999999988,1672
42.95266399999996,11.141143999999988,1715
42.95266399999996,10.493143999999988,1733
44.572663999999946,8.54914399999999,0
44.89666399999994,7.90114399999999,32
44.89666399999994,9.197143999999987,24
44.24866399999995,7.90114399999999,39
44.572663999999946,7.90114399999999,41
43.92466399999995,7.90114399999999,99
44.24866399999995,7.25314399999999,101
44.89666399999994,7.25314399999999,47
45.22066399999994,7.25314399999999,58
45.54466399999994,7.90114399999999,60
44.572663999999946,7.25314399999999,82
52.996663999999896,22.805143999999984,1443
52.996663999999896,23.45314399999998,1462
51.37666399999991,22.15714399999998,1323
51.37666399999991,22.805143999999984,1383
50.08066399999991,20.213143999999986,731
50.72866399999991,20.213143999999986,802
50.40466399999991,20.213143999999986,773
50.08066399999991,20.86114399999998,1265
50.08066399999991,21.50914399999997,1288
50.08066399999991,22.15714399999998,1297
50.08066399999991,22.805143999999984,1310
53.96866399999989,22.805143999999984,1601
53.64466399999989,23.45314399999998,1555
53.32066399999989,23.45314399999998,1502
50.40466399999991,19.565143999999982,714
50.08066399999991,18.917143999999983,720
50.08066399999991,18.269143999999983,668
52.0246639999999,22.805143999999984,1362
52.0246639999999,23.45314399999998,1402
51.37666399999991,19.565143999999982,1299
51.05266399999991,19.565143999999982,901
50.72866399999991,18.917143999999983,670
50.72866399999991,19.565143999999982,892
49.75666399999992,18.917143999999983,680
50.40466399999991,18.269143999999983,630
53.64466399999989,19.565143999999982,1288
53.96866399999989,18.917143999999983,813
53.64466399999989,18.917143999999983,823
53.64466399999989,20.213143999999986,1327
52.996663999999896,18.917143999999983,721
52.996663999999896,18.269143999999983,685
53.32066399999989,18.917143999999983,856
50.72866399999991,17.621143999999987,567
50.72866399999991,18.269143999999983,615
52.6726639999999,16.325143999999987,605
52.996663999999896,16.325143999999987,590
52.996663999999896,15.677143999999986,564
53.32066399999989,15.677143999999986,564
53.32066399999989,15.029143999999986,535
53.64466399999989,15.029143999999986,580
53.96866399999989,15.029143999999986,602
52.6726639999999,18.917143999999983,793
53.32066399999989,16.325143999999987,697
52.6726639999999,15.029143999999986,490
51.05266399999991,22.805143999999984,1391
51.05266399999991,23.45314399999998,1463
50.72866399999991,22.15714399999998,1378
50.40466399999991,22.15714399999998,1320
51.05266399999991,22.15714399999998,1380
54.616663999999886,16.973143999999984,666
54.29266399999989,16.325143999999987,615
53.96866399999989,15.677143999999986,580
50.72866399999991,21.50914399999997,1376
50.40466399999991,21.50914399999997,1328
50.40466399999991,17.621143999999987,583
53.32066399999989,22.805143999999984,1594
53.64466399999989,22.15714399999998,1618
54.29266399999989,16.973143999999984,642
50.72866399999991,20.86114399999998,842
51.700663999999904,22.805143999999984,1480
51.05266399999991,21.50914399999997,1282
50.08066399999991,19.565143999999982,717
52.0246639999999,18.917143999999983,8488
52.0246639999999,19.565143999999982,8481
53.64466399999989,18.269143999999983,765
51.700663999999904,20.213143999999986,1286
53.32066399999989,19.565143999999982,1279
50.72866399999991,23.45314399999998,1675
50.72866399999991,22.805143999999984,1644
49.43266399999992,20.213143999999986,743
49.75666399999992,21.50914399999997,1318
49.75666399999992,22.15714399999998,1831
49.43266399999992,22.15714399999998,1593
51.05266399999991,18.917143999999983,705
51.05266399999991,18.269143999999983,617
53.32066399999989,16.973143999999984,638
53.64466399999989,16.973143999999984,660
49.75666399999992,20.86114399999998,1330
50.40466399999991,22.805143999999984,8570
53.64466399999989,16.325143999999987,633
53.96866399999989,20.86114399999998,1506
54.29266399999989,20.86114399999998,1552
53.96866399999989,21.50914399999997,1569
53.64466399999989,15.677143999999986,544
53.96866399999989,20.213143999999986,1338
53.96866399999989,19.565143999999982,908
54.29266399999989,19.565143999999982,922
53.96866399999989,16.325143999999987,604
53.64466399999989,17.621143999999987,673
53.96866399999989,22.15714399999998,1636
53.64466399999989,21.50914399999997,1574
53.64466399999989,20.86114399999998,1352
52.6726639999999,15.677143999999986,498
51.05266399999991,20.213143999999986,1249
54.940663999999884,24.101143999999977,3681
54.616663999999886,23.45314399999998,3625
54.29266399999989,23.45314399999998,3488
53.64466399999989,22.805143999999984,1643
53.96866399999989,16.973143999999984,694
50.40466399999991,20.86114399999998,1306
53.32066399999989,18.269143999999983,888
49.75666399999992,19.565143999999982,694
50.40466399999991,23.45314399999998,1996
49.75666399999992,20.213143999999986,721
49.43266399999992,19.565143999999982,721
49.43266399999992,20.86114399999998,1343
53.96866399999989,17.621143999999987,1323
42.30466399999996,-1.8188560000000056,8799
41.98066399999996,-1.8188560000000056,8782
41.65666399999997,0.7731439999999932,8786
42.62866399999996,-1.8188560000000056,8914
42.95266399999996,-1.8188560000000056,8943
42.62866399999996,-3.114856000000005,9037
42.95266399999996,-2.4668560000000053,9015
42.62866399999996,-7.650856000000003,9379
42.30466399999996,-7.650856000000003,9439
42.30466399999996,-8.946856000000002,9575
42.30466399999996,-8.298856000000002,9549
41.98066399999996,-8.298856000000002,9538
42.30466399999996,-7.002856000000003,9321
42.62866399999996,-6.354856000000003,9263
42.30466399999996,-6.354856000000003,9218
42.62866399999996,-5.706856000000004,8718
41.98066399999996,-4.410856000000004,8672
42.30466399999996,-3.7628560000000046,9063
40.03666399999997,-0.5228560000000062,8766
39.38866399999998,-0.5228560000000062,8814
41.00866399999997,0.7731439999999932,8914
40.68466399999997,0.7731439999999932,8946
40.36066399999997,0.1251439999999934,9024
39.712663999999975,-0.5228560000000062,8923
38.41666399999998,-0.5228560000000062,8935
39.06466399999998,-0.5228560000000062,9057
38.74066399999998,-1.170856000000006,8943
41.332663999999966,0.7731439999999932,8974
41.65666399999997,2.717143999999992,8574
41.65666399999997,2.0691439999999925,8597
41.332663999999966,0.1251439999999934,8932
41.332663999999966,-0.5228560000000062,8876
41.65666399999997,-4.410856000000004,8646
40.03666399999997,-2.4668560000000053,8884
41.00866399999997,-4.410856000000004,8767
43.276663999999954,-5.706856000000004,8848
39.38866399999998,-1.170856000000006,8909
38.09266399999999,-1.170856000000006,9322
38.74066399999998,-0.5228560000000062,9085
37.76866399999999,-1.170856000000006,9387
39.06466399999998,-1.8188560000000056,8907
39.38866399999998,-3.114856000000005,8807
39.38866399999998,-2.4668560000000053,8863
39.06466399999998,-2.4668560000000053,8890
39.06466399999998,-3.114856000000005,8811
39.06466399999998,-3.7628560000000046,8785
38.74066399999998,-3.7628560000000046,8864
40.03666399999997,-3.7628560000000046,8763
40.03666399999997,-3.114856000000005,8963
40.03666399999997,-1.8188560000000056,9044
39.712663999999975,-1.8188560000000056,9009
39.712663999999975,-1.170856000000006,8945
40.36066399999997,-1.170856000000006,8964
40.68466399999997,-1.170856000000006,8942
41.00866399999997,-1.170856000000006,8930
41.332663999999966,-1.170856000000006,8770
43.276663999999954,-8.298856000000002,9539
42.95266399999996,-8.298856000000002,9507
41.65666399999997,-5.706856000000004,65535
41.98066399999996,-7.002856000000003,65535
41.98066399999996,-6.354856000000003,65535
41.332663999999966,-5.058856000000004,8885
43.276663999999954,-3.7628560000000046,9320
42.95266399999996,-4.410856000000004,9254
42.62866399999996,-4.410856000000004,9244
42.30466399999996,-4.410856000000004,9203
41.00866399999997,-5.706856000000004,8823
41.332663999999966,-1.8188560000000056,8716
40.68466399999997,-3.114856000000005,8670
41.00866399999997,-3.114856000000005,8721
41.00866399999997,-2.4668560000000053,8744
41.332663999999966,-2.4668560000000053,8797
40.68466399999997,-4.410856000000004,8707
40.36066399999997,-4.410856000000004,8791
40.68466399999997,-3.7628560000000046,8699
40.36066399999997,-3.114856000000005,8677
41.65666399999997,-2.4668560000000053,8814
38.09266399999999,-3.7628560000000046,8911
38.74066399999998,-3.114856000000005,8855
37.76866399999999,-3.7628560000000046,8968
39.712663999999975,-3.114856000000005,8799
38.41666399999998,-3.7628560000000046,8876
40.03666399999997,-4.410856000000004,65535
40.03666399999997,-5.058856000000004,65535
39.38866399999998,-6.354856000000003,65535
39.38866399999998,-7.002856000000003,65535
42.95266399999996,-3.114856000000005,9448
41.98066399999996,-1.170856000000006,8811
42.30466399999996,-2.4668560000000053,8852
41.65666399999997,-0.5228560000000062,8909
41.98066399999996,-0.5228560000000062,8746
41.65666399999997,0.1251439999999934,8773
41.98066399999996,0.1251439999999934,8795
37.76866399999999,-5.058856000000004,8847
36.79666399999999,-4.410856000000004,8906
38.74066399999998,-4.410856000000004,8803
37.12066399999999,-4.410856000000004,8880
37.44466399999999,-5.058856000000004,9404
37.44466399999999,-7.002856000000003,65535
37.44466399999999,-6.354856000000003,65535
37.44466399999999,-5.706856000000004,9080
39.712663999999975,-3.7628560000000046,8873
42.62866399999996,-8.946856000000002,65535
42.30466399999996,-5.706856000000004,9225
42.30466399999996,-5.058856000000004,9310
42.95266399999996,-5.706856000000004,8750
41.00866399999997,-5.058856000000004,8791
40.68466399999997,-5.058856000000004,8765
41.65666399999997,-5.058856000000004,65535
41.65666399999997,-6.354856000000003,65535
36.79666399999999,-6.354856000000003,65535
37.12066399999999,-5.706856000000004,9248
37.76866399999999,-5.706856000000004,9047
38.09266399999999,-4.410856000000004,9182
37.12066399999999,-5.058856000000004,9202
36.79666399999999,-5.058856000000004,9160
37.76866399999999,-4.410856000000004,65535
37.76866399999999,-7.002856000000003,65535
38.41666399999998,-6.354856000000003,65535
38.09266399999999,-6.354856000000003,65535
48.78466399999992,1.4211439999999929,399
56.23666399999988,8.54914399999999,7090
55.58866399999988,9.197143999999987,6895
55.91266399999988,9.197143999999987,7036
55.26466399999988,10.493143999999988,1074
55.91266399999988,12.437143999999988,1209
55.58866399999988,11.789143999999988,6735
55.58866399999988,11.141143999999988,6776
55.26466399999988,11.789143999999988,6768
55.58866399999988,10.493143999999988,6891
55.58866399999988,13.085143999999987,1166
56.88466399999987,9.845143999999989,7042
57.20866399999987,9.845143999999989,7077
56.56066399999988,9.845143999999989,7014
56.88466399999987,8.54914399999999,7129
54.940663999999884,9.845143999999989,8236
54.940663999999884,11.789143999999988,6992
55.91266399999988,13.085143999999987,1224
56.23666399999988,13.733143999999989,1268
55.91266399999988,13.733143999999989,1271
56.23666399999988,14.381143999999988,1291
56.23666399999988,15.029143999999986,1332
56.23666399999988,15.677143999999986,1387
56.56066399999988,14.381143999999988,1348
56.88466399999987,14.381143999999988,1318
56.23666399999988,13.085143999999987,1216
56.56066399999988,13.085143999999987,1296
56.88466399999987,12.437143999999988,1333
57.20866399999987,12.437143999999988,1349
57.53266399999987,12.437143999999988,1364
56.88466399999987,15.029143999999986,1344
56.56066399999988,15.677143999999986,1404
56.88466399999987,15.677143999999986,1423
56.88466399999987,16.325143999999987,1438
55.91266399999988,11.789143999999988,7061
57.20866399999987,10.493143999999988,7264
49.43266399999992,1.4211439999999929,444
49.75666399999992,0.7731439999999932,438
49.75666399999992,2.0691439999999925,396
50.08066399999991,2.717143999999992,410
49.75666399999992,1.4211439999999929,499
47.81266399999993,1.4211439999999929,466
48.136663999999925,2.0691439999999925,549
48.46066399999992,2.0691439999999925,391
48.136663999999925,1.4211439999999929,418
48.78466399999992,0.1251439999999934,467
48.46066399999992,0.1251439999999934,555
47.81266399999993,0.1251439999999934,423
46.84066399999993,-0.5228560000000062,445
47.16466399999993,0.7731439999999932,443
46.84066399999993,0.1251439999999934,479
46.84066399999993,-1.170856000000006,533
50.08066399999991,1.4211439999999929,439
50.08066399999991,2.0691439999999925,430
49.43266399999992,2.717143999999992,378
49.75666399999992,3.365143999999992,463
50.08066399999991,3.365143999999992,537
49.10866399999992,2.0691439999999925,395
49.43266399999992,2.0691439999999925,372
48.78466399999992,0.7731439999999932,423
48.78466399999992,-0.5228560000000062,497
48.78466399999992,-1.170856000000006,529
48.136663999999925,0.7731439999999932,416
48.46066399999992,0.7731439999999932,390
43.92466399999995,5.957143999999991,393
44.24866399999995,5.957143999999991,419
43.92466399999995,5.309143999999991,360
42.95266399999996,2.717143999999992,498
45.54466399999994,2.0691439999999925,619
45.22066399999994,2.0691439999999925,576
42.95266399999996,2.0691439999999925,600
42.95266399999996,0.7731439999999932,594
43.276663999999954,0.7731439999999932,567
46.19266399999994,0.7731439999999932,627
46.516663999999935,0.7731439999999932,609
45.86866399999994,0.1251439999999934,534
46.19266399999994,0.1251439999999934,520
47.81266399999993,-1.170856000000006,530
48.136663999999925,-2.4668560000000053,529
47.48866399999993,-1.8188560000000056,506
47.16466399999993,-1.170856000000006,496
47.16466399999993,-0.5228560000000062,529
46.84066399999993,-1.8188560000000056,558
45.22066399999994,-0.5228560000000062,527
44.89666399999994,0.1251439999999934,495
45.22066399999994,0.7731439999999932,524
45.54466399999994,0.7731439999999932,572
45.86866399999994,0.7731439999999932,640
45.22066399999994,0.1251439999999934,534
44.89666399999994,0.7731439999999932,540
43.92466399999995,-0.5228560000000062,593
43.92466399999995,-1.170856000000006,585
44.24866399999995,-1.170856000000006,565
45.22066399999994,-1.170856000000006,618
44.572663999999946,-0.5228560000000062,523
44.24866399999995,0.1251439999999934,570
44.572663999999946,0.7731439999999932,632
43.276663999999954,-1.170856000000006,645
42.95266399999996,-0.5228560000000062,637
44.24866399999995,2.0691439999999925,610
43.60066399999995,0.7731439999999932,584
43.60066399999995,2.0691439999999925,591
52.6726639999999,4.661143999999991,7081
52.6726639999999,5.309143999999991,7104
51.700663999999904,5.309143999999991,7049
52.0246639999999,5.309143999999991,7061
52.3486639999999,5.309143999999991,7077
51.37666399999991,4.013143999999992,7057
52.3486639999999,5.957143999999991,7071
52.0246639999999,6.60514399999999,7101
52.6726639999999,5.957143999999991,7088
52.996663999999896,5.957143999999991,7101
53.32066399999989,5.957143999999991,7095
52.996663999999896,6.60514399999999,7077
53.32066399999989,6.60514399999999,7069
52.6726639999999,6.60514399999999,7097
52.996663999999896,5.309143999999991,7116
59.15266399999986,24.101143999999977,65535
56.88466399999987,24.101143999999977,65535
56.88466399999987,23.45314399999998,65535
56.88466399999987,22.805143999999984,65535
57.20866399999987,24.74914399999998,65535
56.88466399999987,24.74914399999998,65535
56.56066399999988,24.74914399999998,65535
56.56066399999988,25.397143999999983,65535
56.56066399999988,24.101143999999977,65535
56.56066399999988,23.45314399999998,65535
56.56066399999988,26.04514399999998,65535
56.88466399999987,26.04514399999998,65535
57.20866399999987,25.397143999999983,65535
57.53266399999987,25.397143999999983,65535
56.23666399999988,26.04514399999998,65535
56.23666399999988,26.69314399999997,65535
55.91266399999988,26.69314399999997,65535
56.56066399999988,26.69314399999997,65535
56.56066399999988,27.34114399999998,65535
56.56066399999988,27.989143999999985,65535
56.23666399999988,27.989143999999985,65535
55.91266399999988,27.34114399999998,65535
56.56066399999988,22.805143999999984,65535
56.56066399999988,22.15714399999998,65535
56.56066399999988,21.50914399999997,65535
57.20866399999987,26.69314399999997,65535
39.06466399999998,-8.946856000000002,65535
38.41666399999998,-8.298856000000002,65535
45.86866399999994,11.789143999999988,628
46.19266399999994,11.789143999999988,615
46.19266399999994,10.493143999999988,655
45.22066399999994,18.269143999999983,1501
45.22066399999994,18.917143999999983,1575
45.54466399999994,16.973143999999984,1359
45.22066399999994,17.621143999999987,1436
45.86866399999994,16.325143999999987,1304
45.54466399999994,18.917143999999983,1615
45.54466399999994,16.325143999999987,1315
45.54466399999994,18.269143999999983,1593
44.89666399999994,18.917143999999983,1896
46.19266399999994,16.973143999999984,1290
46.19266399999994,16.325143999999987,1274
45.86866399999994,16.973143999999984,1344
45.86866399999994,17.621143999999987,1381
46.19266399999994,15.677143999999986,1309
46.516663999999935,16.325143999999987,1250
45.54466399999994,15.677143999999986,1372
45.22066399999994,15.029143999999986,1448
45.54466399999994,15.029143999999986,1412
45.22066399999994,15.677143999999986,1432
44.572663999999946,15.677143999999986,2059
44.24866399999995,15.677143999999986,2080
43.92466399999995,16.325143999999987,2144
44.89666399999994,15.677143999999986,2023
45.54466399999994,17.621143999999987,1568
45.22066399999994,16.325143999999987,1436
46.516663999999935,16.973143999999984,1317
45.86866399999994,18.269143999999983,1694
43.92466399999995,15.677143999999986,2246
45.22066399999994,13.733143999999989,1413
47.48866399999993,19.565143999999982,1247
47.16466399999993,18.917143999999983,1218
47.81266399999993,18.917143999999983,946
45.54466399999994,9.845143999999989,139
45.22066399999994,9.845143999999989,146
45.22066399999994,10.493143999999988,198
45.86866399999994,9.845143999999989,159
45.86866399999994,10.493143999999988,1398
48.78466399999992,21.50914399999997,1370
49.10866399999992,20.213143999999986,1341
49.10866399999992,18.917143999999983,666
48.46066399999992,17.621143999999987,714
49.43266399999992,17.621143999999987,613
49.10866399999992,17.621143999999987,1312
48.136663999999925,18.269143999999983,738
49.10866399999992,18.269143999999983,687
49.43266399999992,18.269143999999983,644
49.43266399999992,16.973143999999984,587
49.75666399999992,16.973143999999984,561
49.75666399999992,16.325143999999987,539
50.08066399999991,15.677143999999986,491
50.08066399999991,15.029143999999986,461
49.43266399999992,18.917143999999983,655
47.81266399999993,20.86114399999998,1435
48.136663999999925,20.86114399999998,1380
48.46066399999992,20.86114399999998,1342
48.46066399999992,21.50914399999997,1382
49.10866399999992,19.565143999999982,669
48.136663999999925,17.621143999999987,686
48.78466399999992,22.15714399999998,1557
48.78466399999992,20.86114399999998,1439
49.10866399999992,20.86114399999998,1361
48.78466399999992,18.269143999999983,730
48.78466399999992,17.621143999999987,749
49.10866399999992,21.50914399999997,1366
48.78466399999992,20.213143999999986,1305
48.46066399999992,20.213143999999986,1246
48.136663999999925,19.565143999999982,1218
48.46066399999992,19.565143999999982,1180
48.46066399999992,18.917143999999983,829
48.46066399999992,18.269143999999983,743
48.78466399999992,19.565143999999982,889
48.78466399999992,18.917143999999983,808
47.81266399999993,18.269143999999983,787
49.10866399999992,22.15714399999998,1552
49.43266399999992,21.50914399999997,1393
48.136663999999925,18.917143999999983,1211
48.136663999999925,20.213143999999986,1267
52.636,-8.018,65535
52.312,-7.370000000000001,65535
52.312,-8.018,65535
52.636,-8.666,65535
51.988,-8.666,65535
51.988,-8.018,65535
52.96,-8.666,65535
52.96,-6.074000000000002,65535
53.28399999999999,-6.722000000000001,65535
53.60799999999999,-6.722000000000001,65535
53.60799999999999,-7.370000000000001,65535
53.60799999999999,-8.018,65535
54.25599999999999,-8.666,65535
53.93199999999999,-8.666,65535
53.93199999999999,-8.018,65535
52.312,-6.722000000000001,65535
52.636,-6.722000000000001,65535
53.93199999999999,-6.722000000000001,65535
54.25599999999999,-6.074000000000002,65535
53.28399999999999,-7.370000000000001,65535
52.96,-7.370000000000001,65535
52.312,-8.666,65535
52.96,-8.018,65535
52.636,-7.370000000000001,65535
52.96,-6.722000000000001,65535
51.988,-9.314,65535
52.312,-9.314,65535
54.579999999999984,-6.722000000000001,65535
54.579999999999984,-6.074000000000002,65535
53.28399999999999,-8.018,65535
53.28399999999999,-8.666,65535
53.28399999999999,-9.314,65535
53.93199999999999,-9.314,65535
54.25599999999999,-9.314,65535
53.60799999999999,-8.666,65535
53.60799999999999,-9.314,65535
49.43266399999992,14.381143999999988,515
49.75666399999992,14.381143999999988,468
49.75666399999992,15.029143999999986,466
49.75666399999992,13.733143999999989,477
50.08066399999991,13.733143999999989,469
49.75666399999992,15.677143999999986,479
50.40466399999991,15.029143999999986,453
49.43266399999992,13.733143999999989,486
50.40466399999991,15.677143999999986,467
50.40466399999991,13.733143999999989,467
46.19266399999994,15.029143999999986,1323
45.86866399999994,15.029143999999986,1342
45.86866399999994,14.381143999999988,1369
46.19266399999994,13.733143999999989,1355
45.86866399999994,13.733143999999989,1387
58.50466399999986,13.733143999999989,1442
58.180663999999865,13.733143999999989,1446
58.180663999999865,13.085143999999987,1418
57.85666399999987,12.437143999999988,1384
60.44866399999985,15.677143999999986,1667
60.124663999999854,15.677143999999986,1601
60.124663999999854,16.325143999999987,1639
59.800663999999855,16.325143999999987,1567
59.800663999999855,17.621143999999987,1546
59.47666399999986,18.269143999999983,1528
61.74466399999984,16.973143999999984,1678
61.420663999999846,16.973143999999984,1651
60.77266399999985,16.973143999999984,1603
65.63266399999982,22.15714399999998,2782
65.95666399999982,21.50914399999997,2742
65.63266399999982,20.86114399999998,2713
64.98466399999982,20.213143999999986,2645
64.66066399999983,20.213143999999986,2623
64.33666399999983,19.565143999999982,2317
64.01266399999983,19.565143999999982,2030
63.68866399999983,20.213143999999986,1983
64.66066399999983,18.917143999999983,2994
59.15266399999986,16.325143999999987,1503
59.15266399999986,15.029143999999986,1495
59.15266399999986,17.621143999999987,1520
57.53266399999987,14.381143999999988,1344
57.53266399999987,15.029143999999986,1364
61.09666399999985,14.381143999999988,1771
60.77266399999985,15.029143999999986,1722
60.44866399999985,15.029143999999986,1708
58.180663999999865,15.029143999999986,1421
58.50466399999986,16.325143999999987,1455
58.50466399999986,15.677143999999986,1428
63.36466399999984,13.085143999999987,2015
63.04066399999984,14.381143999999988,1952
62.39266399999984,15.677143999999986,1874
63.36466399999984,13.733143999999989,1997
63.36466399999984,14.381143999999988,1969
62.71666399999984,15.677143999999986,1902
62.39266399999984,17.621143999999987,1736
59.800663999999855,15.677143999999986,2013
55.58866399999988,13.733143999999989,1298
57.20866399999987,14.381143999999988,1328
57.85666399999987,14.381143999999988,1376
58.82866399999986,16.973143999999984,1512
58.82866399999986,16.325143999999987,1490
59.15266399999986,18.269143999999983,1524
60.44866399999985,17.621143999999987,1579
59.15266399999986,12.437143999999988,1483
59.15266399999986,13.085143999999987,1497
58.82866399999986,12.437143999999988,1459
59.47666399999986,16.325143999999987,1529
58.82866399999986,14.381143999999988,1536
59.47666399999986,15.677143999999986,1518
63.36466399999984,18.917143999999983,1936
63.04066399999984,17.621143999999987,1891
62.71666399999984,17.621143999999987,1865
63.68866399999983,19.565143999999982,1969
62.39266399999984,16.973143999999984,1780
59.800663999999855,16.973143999999984,1555
59.47666399999986,17.621143999999987,1532
57.85666399999987,13.085143999999987,1408
57.53266399999987,13.085143999999987,1389
58.50466399999986,11.789143999999988,1430
57.85666399999987,15.029143999999986,1410
57.20866399999987,13.733143999999989,1334
57.53266399999987,13.733143999999989,1395
61.74466399999984,16.325143999999987,1774
61.420663999999846,16.325143999999987,1741
61.09666399999985,16.325143999999987,1730
61.09666399999985,16.973143999999984,1698
60.124663999999854,15.029143999999986,1876
66.60466399999981,20.86114399999998,2817
67.25266399999981,20.86114399999998,2885
67.90066399999981,20.213143999999986,2955
67.57666399999981,20.213143999999986,3580
59.800663999999855,15.029143999999986,1596
58.50466399999986,15.029143999999986,1438
59.47666399999986,15.029143999999986,1581
60.44866399999985,16.325143999999987,1667
59.15266399999986,15.677143999999986,1525
57.85666399999987,13.733143999999989,1436
58.82866399999986,13.733143999999989,1483
58.50466399999986,13.085143999999987,1468
57.20866399999987,13.085143999999987,1365
56.88466399999987,13.085143999999987,1339
58.180663999999865,11.789143999999988,1401
62.06866399999984,16.973143999999984,1769
65.95666399999982,23.45314399999998,2823
59.800663999999855,14.381143999999988,5891
59.800663999999855,18.269143999999983,1537
63.04066399999984,15.029143999999986,1920
62.71666399999984,15.029143999999986,1910
62.39266399999984,16.325143999999987,1843
63.36466399999984,12.437143999999988,2048
68.5486639999998,17.621143999999987,3168
68.5486639999998,18.269143999999983,3101
68.5486639999998,18.917143999999983,3078
68.2246639999998,18.917143999999983,3034
59.800663999999855,13.085143999999987,1600
60.124663999999854,13.085143999999987,1639
59.47666399999986,16.973143999999984,1541
59.15266399999986,16.973143999999984,1533
56.56066399999988,13.733143999999989,1286
60.124663999999854,17.621143999999987,1556
57.85666399999987,16.325143999999987,1515
58.180663999999865,16.325143999999987,1477
58.180663999999865,15.677143999999986,1485
57.20866399999987,16.325143999999987,1527
57.53266399999987,15.677143999999986,1545
57.85666399999987,15.677143999999986,1516
44.89666399999994,23.45314399999998,2965
44.572663999999946,23.45314399999998,3035
44.89666399999994,24.74914399999998,2952
44.572663999999946,24.74914399999998,3071
44.572663999999946,24.101143999999977,3012
44.24866399999995,24.101143999999977,3041
47.48866399999993,25.397143999999983,2813
47.48866399999993,24.74914399999998,2753
47.16466399999993,24.74914399999998,2675
47.16466399999993,24.101143999999977,2577
47.48866399999993,22.15714399999998,2707
47.81266399999993,22.15714399999998,2793
47.16466399999993,22.15714399999998,2686
47.16466399999993,23.45314399999998,2738
47.16466399999993,22.805143999999984,2744
46.84066399999993,24.101143999999977,2658
45.86866399999994,27.34114399999998,2998
45.54466399999994,27.34114399999998,2979
45.54466399999994,27.989143999999985,3095
45.86866399999994,20.86114399999998,2870
45.86866399999994,21.50914399999997,2878
46.19266399999994,21.50914399999997,2814
46.19266399999994,27.34114399999998,2998
46.19266399999994,26.69314399999997,2989
46.516663999999935,26.69314399999997,2951
46.516663999999935,26.04514399999998,2847
47.48866399999993,22.805143999999984,2805
46.84066399999993,22.805143999999984,2618
45.54466399999994,22.15714399999998,2927
45.22066399999994,22.15714399999998,3005
44.89666399999994,22.15714399999998,3423
47.48866399999993,23.45314399999998,2771
46.516663999999935,24.101143999999977,2497
46.516663999999935,24.74914399999998,2711
45.86866399999994,24.101143999999977,2660
47.16466399999993,26.69314399999997,3029
47.16466399999993,27.34114399999998,3084
43.92466399999995,25.397143999999983,3043
44.24866399999995,24.74914399999998,2950
44.89666399999994,26.04514399999998,2837
44.89666399999994,26.69314399999997,2884
45.22066399999994,26.69314399999997,2919
45.22066399999994,27.34114399999998,2946
46.84066399999993,26.69314399999997,2990
47.48866399999993,26.69314399999997,2983
44.24866399999995,25.397143999999983,2882
43.92466399999995,26.04514399999998,3059
46.19266399999994,24.101143999999977,2705
44.572663999999946,25.397143999999983,2920
46.84066399999993,24.74914399999998,2718
46.516663999999935,21.50914399999997,2818
46.84066399999993,21.50914399999997,2825
44.572663999999946,26.69314399999997,2875
44.572663999999946,27.34114399999998,2896
44.89666399999994,27.34114399999998,3011
44.572663999999946,27.989143999999985,2916
44.24866399999995,27.989143999999985,2930
44.572663999999946,28.63714399999997,2981
45.86866399999994,22.15714399999998,2739
45.86866399999994,22.805143999999984,2633
44.24866399999995,23.45314399999998,3068
43.92466399999995,27.989143999999985,65535
46.84066399999993,27.34114399999998,3151
45.22066399999994,23.45314399999998,2940
45.54466399999994,23.45314399999998,2743
45.54466399999994,24.101143999999977,2690
45.22066399999994,24.101143999999977,2914
44.89666399999994,24.101143999999977,2984
46.19266399999994,22.15714399999998,2870
46.516663999999935,22.15714399999998,2836
45.22066399999994,21.50914399999997,3110
45.54466399999994,21.50914399999997,2958
45.54466399999994,20.86114399999998,2982
46.516663999999935,27.989143999999985,3101
46.19266399999994,27.989143999999985,3086
45.54466399999994,25.397143999999983,2804
45.22066399999994,25.397143999999983,2814
45.22066399999994,26.04514399999998,2870
47.81266399999993,24.101143999999977,2866
47.48866399999993,26.04514399999998,2956
47.81266399999993,26.04514399999998,2978
46.19266399999994,23.45314399999998,2537
45.86866399999994,23.45314399999998,2586
44.24866399999995,26.04514399999998,2864
45.22066399999994,27.989143999999985,3076
45.86866399999994,24.74914399999998,2699
46.516663999999935,25.397143999999983,2891
46.84066399999993,25.397143999999983,2774
46.19266399999994,26.04514399999998,2862
45.86866399999994,26.04514399999998,2827
43.92466399999995,23.45314399999998,3298
44.89666399999994,25.397143999999983,2925
46.19266399999994,20.86114399999998,2859
47.81266399999993,25.397143999999983,2990
44.572663999999946,22.805143999999984,3303
44.572663999999946,22.15714399999998,3445
46.516663999999935,23.45314399999998,2676
45.86866399999994,25.397143999999983,2753
44.24866399999995,27.34114399999998,3691
45.22066399999994,24.74914399999998,3016
45.54466399999994,22.805143999999984,2706
45.22066399999994,28.63714399999997,3136
44.89666399999994,28.63714399999997,3075
47.81266399999993,23.45314399999998,2923
46.19266399999994,24.74914399999998,2785
46.19266399999994,25.397143999999983,2809
43.92466399999995,24.101143999999977,3261
43.92466399999995,24.74914399999998,3274
47.81266399999993,26.69314399999997,3205
47.48866399999993,24.101143999999977,2798
46.84066399999993,26.04514399999998,3606
46.19266399999994,22.805143999999984,2930
47.48866399999993,27.34114399999998,3158
46.19266399999994,20.213143999999986,65535
45.54466399999994,26.04514399999998,2962
44.24866399999995,26.69314399999997,2880
45.86866399999994,27.989143999999985,3134
47.81266399999993,5.957143999999991,7066
