51.56399999999999,-0.4100000000000028,65535
51.887999999999984,-0.4100000000000028,65535
50.91599999999999,-1.7060000000000022,65535
51.23999999999999,-1.0580000000000025,65535
51.56399999999999,-1.0580000000000025,65535
51.23999999999999,-1.7060000000000022,65535
51.56399999999999,0.2379999999999968,65535
47.16466399999993,9.845143999999989,84
47.48866399999993,9.845143999999989,77
48.136663999999925,14.381143999999988,280
47.81266399999993,13.085143999999987,203
47.16466399999993,11.141143999999988,170
47.48866399999993,11.789143999999988,470
48.136663999999925,16.325143999999987,1069
47.48866399999993,12.437143999999988,234
48.136663999999925,15.677143999999986,1094
47.16466399999993,10.493143999999988,96
47.16466399999993,9.197143999999987,70
48.136663999999925,13.733143999999989,239
48.136663999999925,15.029143999999986,823
47.81266399999993,16.973143999999984,1135
48.46066399999992,14.381143999999988,3784
47.48866399999993,13.085143999999987,235
47.16466399999993,13.085143999999987,250
47.48866399999993,14.381143999999988,505
47.48866399999993,13.733143999999989,951
47.48866399999993,15.029143999999986,1242
46.516663999999935,13.733143999999989,355
46.84066399999993,13.733143999999989,316
46.84066399999993,13.085143999999987,260
48.78466399999992,14.381143999999988,65535
47.16466399999993,15.677143999999986,1205
46.516663999999935,14.381143999999988,354
46.84066399999993,14.381143999999988,321
47.16466399999993,14.381143999999988,2405
46.516663999999935,15.029143999999986,852
47.81266399999993,16.325143999999987,1075
47.16466399999993,15.029143999999986,1213
47.81266399999993,15.677143999999986,1515
47.48866399999993,15.677143999999986,1189
46.516663999999935,13.085143999999987,434
46.84066399999993,12.437143999999988,298
48.136663999999925,11.789143999999988,155
47.81266399999993,12.437143999999988,195
46.84066399999993,15.677143999999986,932
46.516663999999935,15.677143999999986,837
46.84066399999993,16.325143999999987,1248
47.81266399999993,14.381143999999988,445
48.78466399999992,16.973143999999984,1012
48.136663999999925,16.973143999999984,1077
48.46066399999992,13.733143999999989,279
47.81266399999993,13.733143999999989,314
50.08066399999991,8.54914399999999,161
48.46066399999992,9.845143999999989,129
51.05266399999991,7.25314399999999,228
51.37666399999991,7.25314399999999,234
51.37666399999991,6.60514399999999,241
48.46066399999992,16.325143999999987,1072
48.46066399999992,16.973143999999984,1027
48.78466399999992,16.325143999999987,1130
48.46066399999992,15.677143999999986,1103
48.78466399999992,15.677143999999986,1127
47.48866399999993,16.325143999999987,1127
47.16466399999993,16.325143999999987,1251
46.19266399999994,14.381143999999988,756
45.86866399999994,15.677143999999986,869
43.60066399999995,16.325143999999987,2515
45.54466399999994,14.381143999999988,826
45.54466399999994,13.733143999999989,846
48.136663999999925,13.085143999999987,196
48.46066399999992,11.141143999999988,157
48.136663999999925,11.141143999999988,153
48.46066399999992,7.90114399999999,99
49.10866399999992,8.54914399999999,124
48.78466399999992,2.0691439999999925,220
49.10866399999992,7.25314399999999,165
52.0246639999999,7.90114399999999,255
47.16466399999993,11.789143999999988,192
49.43266399999992,11.141143999999988,169
53.64466399999989,9.845143999999989,395
50.72866399999991,4.013143999999992,291
51.05266399999991,11.141143999999988,292
47.48866399999993,11.141143999999988,140
46.84066399999993,11.789143999999988,1502
46.516663999999935,11.141143999999988,1382
45.54466399999994,11.141143999999988,1288
46.19266399999994,11.141143999999988,1376
45.86866399999994,11.141143999999988,1363
44.572663999999946,11.141143999999988,1332
43.92466399999995,12.437143999999988,65535
45.54466399999994,12.437143999999988,1334
45.54466399999994,11.789143999999988,1315
48.78466399999992,15.029143999999986,1692
47.81266399999993,15.029143999999986,930
47.81266399999993,11.141143999999988,151
50.40466399999991,18.917143999999983,962
52.3486639999999,20.86114399999998,1195
54.616663999999886,18.269143999999983,1184
54.29266399999989,18.917143999999983,1203
49.10866399999992,14.381143999999988,65535
50.08066399999991,14.381143999999988,458
48.78466399999992,13.733143999999989,955
52.6726639999999,13.085143999999987,354
52.3486639999999,13.085143999999987,355
53.96866399999989,12.437143999999988,543
54.29266399999989,12.437143999999988,562
47.48866399999993,8.54914399999999,65
47.81266399999993,17.621143999999987,1158
47.48866399999993,18.917143999999983,1340
47.48866399999993,20.86114399999998,1801
46.84066399999993,23.45314399999998,2419
44.572663999999946,26.04514399999998,2837
47.48866399999993,21.50914399999997,1835
47.81266399999993,21.50914399999997,1868
48.46066399999992,22.15714399999998,1417
47.48866399999993,16.973143999999984,65535
49.10866399999992,16.325143999999987,967
49.75666399999992,18.269143999999983,1064
46.19266399999994,13.085143999999987,863
41.98066399999996,12.437143999999988,2470
43.60066399999995,10.493143999999988,2726
45.54466399999994,9.197143999999987,30
47.81266399999993,22.805143999999984,2659
49.75666399999992,22.805143999999984,1499
50.72866399999991,3.365143999999992,302
51.05266399999991,4.013143999999992,295
50.72866399999991,4.661143999999991,289
51.05266399999991,4.661143999999991,293
51.05266399999991,3.365143999999992,304
51.05266399999991,2.717143999999992,347
50.40466399999991,4.661143999999991,303
50.72866399999991,2.717143999999992,334
50.40466399999991,4.013143999999992,308
51.05266399999991,5.309143999999991,301
50.72866399999991,5.309143999999991,268
51.37666399999991,3.365143999999992,358
51.37666399999991,4.661143999999991,309
50.72866399999991,5.957143999999991,232
50.40466399999991,5.957143999999991,243
50.40466399999991,3.365143999999992,316
50.40466399999991,5.309143999999991,274
50.08066399999991,5.309143999999991,304
49.75666399999992,5.309143999999991,279
49.75666399999992,5.957143999999991,247
51.37666399999991,5.309143999999991,356
51.700663999999904,4.661143999999991,338
50.08066399999991,4.013143999999992,337
50.08066399999991,5.957143999999991,321
50.08066399999991,4.661143999999991,304
49.43266399999992,5.309143999999991,239
49.43266399999992,5.957143999999991,222
52.0246639999999,4.661143999999991,2229
52.3486639999999,4.661143999999991,2264
50.72866399999991,15.029143999999986,364
51.05266399999991,15.029143999999986,346
51.05266399999991,13.733143999999989,315
50.40466399999991,13.085143999999987,287
49.10866399999992,7.90114399999999,114
48.78466399999992,7.90114399999999,108
50.40466399999991,7.90114399999999,197
50.08066399999991,7.90114399999999,172
49.75666399999992,7.90114399999999,153
49.43266399999992,7.90114399999999,144
49.75666399999992,8.54914399999999,157
49.43266399999992,8.54914399999999,139
49.43266399999992,9.197143999999987,168
49.10866399999992,9.197143999999987,119
47.48866399999993,7.90114399999999,60
47.81266399999993,7.90114399999999,77
48.136663999999925,7.90114399999999,86
48.136663999999925,9.845143999999989,124
47.81266399999993,9.197143999999987,83
47.81266399999993,8.54914399999999,78
47.81266399999993,9.845143999999989,114
54.940663999999884,9.197143999999987,489
54.616663999999886,9.197143999999987,445
54.29266399999989,9.197143999999987,430
53.96866399999989,9.197143999999987,416
53.64466399999989,9.197143999999987,407
54.616663999999886,9.845143999999989,458
54.29266399999989,9.845143999999989,463
53.96866399999989,9.845143999999989,407
53.64466399999989,10.493143999999988,402
53.96866399999989,10.493143999999988,414
53.96866399999989,11.141143999999988,432
54.29266399999989,10.493143999999988,449
53.32066399999989,10.493143999999988,392
54.940663999999884,11.141143999999988,535
52.6726639999999,13.733143999999989,353
52.3486639999999,13.733143999999989,351
52.3486639999999,14.381143999999988,370
52.0246639999999,14.381143999999988,330
52.0246639999999,11.789143999999988,364
52.3486639999999,11.789143999999988,378
52.3486639999999,12.437143999999988,367
52.0246639999999,15.029143999999986,345
51.700663999999904,14.381143999999988,322
52.0246639999999,13.733143999999989,325
51.700663999999904,13.733143999999989,317
52.6726639999999,12.437143999999988,368
53.32066399999989,11.789143999999988,429
53.96866399999989,11.789143999999988,534
53.64466399999989,11.789143999999988,497
53.64466399999989,11.141143999999988,462
53.32066399999989,11.141143999999988,453
52.996663999999896,11.789143999999988,392
52.996663999999896,12.437143999999988,384
52.996663999999896,13.733143999999989,379
53.64466399999989,13.733143999999989,504
53.96866399999989,13.733143999999989,889
54.29266399999989,13.085143999999987,932
53.96866399999989,13.085143999999987,839
53.32066399999989,13.733143999999989,476
52.0246639999999,13.085143999999987,376
51.700663999999904,13.085143999999987,321
52.996663999999896,14.381143999999988,405
52.0246639999999,12.437143999999988,357
51.700663999999904,12.437143999999988,311
51.37666399999991,11.789143999999988,301
51.37666399999991,12.437143999999988,284
52.6726639999999,11.789143999999988,382
53.64466399999989,13.085143999999987,569
53.32066399999989,13.085143999999987,462
52.996663999999896,13.085143999999987,446
53.64466399999989,12.437143999999988,497
51.37666399999991,13.733143999999989,311
53.32066399999989,12.437143999999988,415
52.6726639999999,14.381143999999988,372
51.37666399999991,13.085143999999987,299
53.32066399999989,14.381143999999988,869
52.3486639999999,15.029143999999986,474
52.0246639999999,15.677143999999986,792
51.700663999999904,15.029143999999986,448
51.05266399999991,16.325143999999987,426
51.05266399999991,16.973143999999984,468
51.700663999999904,15.677143999999986,821
51.37666399999991,15.677143999999986,381
51.37666399999991,16.325143999999987,418
50.72866399999991,13.085143999999987,251
50.72866399999991,12.437143999999988,241
51.05266399999991,13.085143999999987,264
51.05266399999991,14.381143999999988,331
50.40466399999991,12.437143999999988,229
50.40466399999991,11.789143999999988,220
50.08066399999991,12.437143999999988,214
50.72866399999991,11.789143999999988,277
51.05266399999991,12.437143999999988,259
50.72866399999991,14.381143999999988,432
51.37666399999991,14.381143999999988,323
50.72866399999991,13.733143999999989,335
50.40466399999991,14.381143999999988,422
51.37666399999991,15.029143999999986,345
55.26466399999988,9.197143999999987,948
55.58866399999988,8.54914399999999,982
55.91266399999988,8.54914399999999,2239
56.23666399999988,9.197143999999987,2247
56.23666399999988,10.493143999999988,2200
56.23666399999988,9.845143999999989,2187
55.91266399999988,9.845143999999989,2125
56.56066399999988,9.197143999999987,2257
56.56066399999988,8.54914399999999,2300
51.05266399999991,6.60514399999999,231
51.700663999999904,7.90114399999999,244
50.72866399999991,6.60514399999999,224
51.700663999999904,7.25314399999999,238
50.72866399999991,7.25314399999999,209
52.0246639999999,7.25314399999999,243
52.3486639999999,7.90114399999999,267
51.05266399999991,5.957143999999991,236
50.40466399999991,7.25314399999999,207
51.700663999999904,6.60514399999999,252
51.700663999999904,5.957143999999991,248
52.3486639999999,9.197143999999987,309
51.700663999999904,8.54914399999999,253
52.0246639999999,8.54914399999999,258
52.3486639999999,8.54914399999999,281
51.37666399999991,7.90114399999999,244
52.3486639999999,7.25314399999999,273
51.37666399999991,5.957143999999991,281
50.72866399999991,7.90114399999999,204
51.37666399999991,9.197143999999987,243
51.700663999999904,9.197143999999987,266
50.40466399999991,6.60514399999999,286
51.05266399999991,7.90114399999999,237
51.37666399999991,8.54914399999999,282
52.0246639999999,5.957143999999991,291
52.3486639999999,6.60514399999999,296
51.05266399999991,8.54914399999999,224
52.0246639999999,9.197143999999987,284
52.6726639999999,9.197143999999987,330
52.0246639999999,9.845143999999989,328
51.700663999999904,9.845143999999989,294
51.37666399999991,9.845143999999989,262
50.72866399999991,8.54914399999999,194
51.05266399999991,9.845143999999989,288
50.72866399999991,9.845143999999989,260
50.40466399999991,9.845143999999989,232
51.05266399999991,9.197143999999987,222
50.40466399999991,9.197143999999987,178
50.08066399999991,9.197143999999987,168
51.05266399999991,10.493143999999988,321
50.40466399999991,8.54914399999999,178
50.72866399999991,9.197143999999987,199
49.75666399999992,9.197143999999987,178
52.996663999999896,9.197143999999987,337
52.3486639999999,9.845143999999989,317
52.996663999999896,8.54914399999999,322
52.996663999999896,7.90114399999999,353
53.32066399999989,7.90114399999999,407
53.32066399999989,7.25314399999999,491
53.64466399999989,7.25314399999999,1018
52.996663999999896,10.493143999999988,383
52.6726639999999,10.493143999999988,377
52.6726639999999,9.845143999999989,322
53.32066399999989,9.845143999999989,383
53.32066399999989,9.197143999999987,387
53.64466399999989,8.54914399999999,373
53.32066399999989,8.54914399999999,337
52.6726639999999,8.54914399999999,299
52.0246639999999,10.493143999999988,333
52.0246639999999,11.141143999999988,376
51.700663999999904,11.141143999999988,376
52.6726639999999,7.25314399999999,432
52.996663999999896,7.25314399999999,460
52.6726639999999,7.90114399999999,307
53.64466399999989,7.90114399999999,431
52.996663999999896,11.141143999999988,442
52.6726639999999,11.141143999999988,412
52.3486639999999,10.493143999999988,338
52.996663999999896,9.845143999999989,336
51.700663999999904,10.493143999999988,318
51.37666399999991,10.493143999999988,302
51.700663999999904,11.789143999999988,333
52.3486639999999,11.141143999999988,368
51.37666399999991,11.141143999999988,320
51.05266399999991,11.789143999999988,278
49.10866399999992,11.141143999999988,187
48.78466399999992,11.141143999999988,170
48.46066399999992,11.789143999999988,162
49.43266399999992,11.789143999999988,191
50.08066399999991,11.789143999999988,207
49.75666399999992,12.437143999999988,228
49.10866399999992,11.789143999999988,198
48.78466399999992,12.437143999999988,206
48.46066399999992,12.437143999999988,192
49.10866399999992,12.437143999999988,222
48.78466399999992,13.085143999999987,231
48.136663999999925,12.437143999999988,175
47.81266399999993,11.789143999999988,168
48.136663999999925,10.493143999999988,167
47.81266399999993,10.493143999999988,128
48.78466399999992,10.493143999999988,159
47.48866399999993,10.493143999999988,123
48.46066399999992,10.493143999999988,145
49.43266399999992,13.085143999999987,356
48.46066399999992,13.085143999999987,253
49.43266399999992,10.493143999999988,161
49.75666399999992,9.845143999999989,175
49.75666399999992,10.493143999999988,190
50.40466399999991,11.141143999999988,268
50.08066399999991,11.141143999999988,225
50.72866399999991,11.141143999999988,282
49.75666399999992,11.141143999999988,188
48.78466399999992,11.789143999999988,253
50.40466399999991,10.493143999999988,223
50.08066399999991,9.845143999999989,199
50.08066399999991,10.493143999999988,221
49.43266399999992,12.437143999999988,213
49.75666399999992,11.789143999999988,185
49.10866399999992,13.085143999999987,273
50.72866399999991,10.493143999999988,339
49.10866399999992,10.493143999999988,147
48.78466399999992,9.845143999999989,115
48.46066399999992,8.54914399999999,94
48.46066399999992,9.197143999999987,109
48.78466399999992,9.197143999999987,112
48.78466399999992,8.54914399999999,117
50.08066399999991,7.25314399999999,226
49.75666399999992,6.60514399999999,256
49.43266399999992,6.60514399999999,226
49.10866399999992,6.60514399999999,168
49.43266399999992,7.25314399999999,174
49.75666399999992,7.25314399999999,173
49.10866399999992,5.957143999999991,184
48.78466399999992,7.25314399999999,129
50.08066399999991,6.60514399999999,254
47.48866399999993,9.197143999999987,75
48.136663999999925,8.54914399999999,82
48.136663999999925,9.197143999999987,108
47.81266399999993,7.25314399999999,83
49.43266399999992,9.845143999999989,224
49.10866399999992,9.845143999999989,128
53.64466399999989,14.381143999999988,863
50.08066399999991,13.085143999999987,914
49.75666399999992,13.085143999999987,550
45.86866399999994,9.197143999999987,21
46.19266399999994,9.197143999999987,3
46.516663999999935,8.54914399999999,30
46.516663999999935,9.197143999999987,17
46.19266399999994,8.54914399999999,0
47.16466399999993,8.54914399999999,58
45.86866399999994,4.661143999999991,172
46.84066399999993,9.845143999999989,93
45.22066399999994,5.957143999999991,143
45.22066399999994,5.309143999999991,154
45.86866399999994,5.957143999999991,85
45.54466399999994,5.957143999999991,124
44.89666399999994,4.661143999999991,230
44.89666399999994,5.309143999999991,199
44.572663999999946,4.661143999999991,290
44.24866399999995,4.661143999999991,257
43.92466399999995,4.661143999999991,244
46.19266399999994,7.25314399999999,22
48.78466399999992,5.957143999999991,130
48.136663999999925,6.60514399999999,131
48.46066399999992,6.60514399999999,99
48.78466399999992,6.60514399999999,131
47.16466399999993,7.90114399999999,55
48.136663999999925,7.25314399999999,91
48.46066399999992,7.25314399999999,106
46.516663999999935,6.60514399999999,47
46.84066399999993,6.60514399999999,54
46.84066399999993,7.25314399999999,49
46.516663999999935,5.957143999999991,52
46.19266399999994,5.957143999999991,59
46.84066399999993,8.54914399999999,51
46.84066399999993,7.90114399999999,44
45.86866399999994,5.309143999999991,146
46.19266399999994,6.60514399999999,49
45.86866399999994,6.60514399999999,43
47.48866399999993,6.60514399999999,116
47.48866399999993,7.25314399999999,78
47.16466399999993,7.25314399999999,61
49.10866399999992,4.013143999999992,195
49.75666399999992,4.661143999999991,250
49.43266399999992,4.661143999999991,220
49.10866399999992,5.309143999999991,165
46.19266399999994,4.661143999999991,193
46.84066399999993,9.197143999999987,84
46.19266399999994,5.309143999999991,141
46.516663999999935,5.309143999999991,119
45.54466399999994,6.60514399999999,140
45.54466399999994,5.309143999999991,187
43.60066399999995,4.013143999999992,281
43.60066399999995,3.365143999999992,297
42.62866399999996,2.717143999999992,385
43.276663999999954,2.717143999999992,332
45.54466399999994,4.661143999999991,190
45.22066399999994,4.661143999999991,235
47.16466399999993,5.309143999999991,117
47.16466399999993,5.957143999999991,126
46.19266399999994,7.90114399999999,15
49.75666399999992,2.717143999999992,314
49.10866399999992,2.717143999999992,268
48.78466399999992,2.717143999999992,276
45.86866399999994,3.365143999999992,294
46.84066399999993,3.365143999999992,292
46.516663999999935,3.365143999999992,280
46.19266399999994,3.365143999999992,269
47.16466399999993,6.60514399999999,68
49.10866399999992,3.365143999999992,242
45.54466399999994,4.013143999999992,229
46.516663999999935,7.25314399999999,35
47.16466399999993,4.661143999999991,124
46.84066399999993,4.661143999999991,145
46.516663999999935,4.661143999999991,151
46.84066399999993,5.957143999999991,66
47.81266399999993,3.365143999999992,244
47.48866399999993,4.013143999999992,189
48.136663999999925,4.013143999999992,229
47.81266399999993,4.013143999999992,200
47.48866399999993,4.661143999999991,181
47.16466399999993,3.365143999999992,342
46.84066399999993,4.013143999999992,260
48.46066399999992,5.957143999999991,155
46.19266399999994,2.717143999999992,1000
47.16466399999993,2.0691439999999925,959
46.516663999999935,2.717143999999992,1405
46.84066399999993,2.717143999999992,836
46.84066399999993,2.0691439999999925,1030
47.16466399999993,2.717143999999992,358
44.572663999999946,5.309143999999991,273
44.572663999999946,5.957143999999991,224
44.89666399999994,6.60514399999999,147
44.572663999999946,6.60514399999999,266
43.60066399999995,5.309143999999991,283
43.92466399999995,7.25314399999999,424
43.60066399999995,6.60514399999999,406
43.276663999999954,6.60514399999999,422
43.276663999999954,5.957143999999991,359
45.86866399999994,8.54914399999999,9
45.54466399999994,8.54914399999999,25
48.136663999999925,3.365143999999992,304
48.46066399999992,3.365143999999992,288
48.46066399999992,2.717143999999992,253
47.48866399999993,5.309143999999991,156
46.516663999999935,9.845143999999989,52
46.84066399999993,10.493143999999988,133
47.81266399999993,5.309143999999991,200
45.22066399999994,6.60514399999999,141
46.19266399999994,4.013143999999992,222
45.86866399999994,4.013143999999992,234
45.22066399999994,4.013143999999992,281
44.89666399999994,4.013143999999992,337
46.84066399999993,5.309143999999991,141
48.136663999999925,-1.8188560000000056,345
48.136663999999925,0.1251439999999934,285
48.136663999999925,-0.5228560000000062,401
47.48866399999993,-0.5228560000000062,331
47.16466399999993,-1.8188560000000056,372
47.48866399999993,0.7731439999999932,331
47.16466399999993,0.1251439999999934,365
45.86866399999994,7.25314399999999,49
48.136663999999925,5.309143999999991,230
49.10866399999992,4.661143999999991,210
48.46066399999992,4.013143999999992,277
48.136663999999925,4.661143999999991,251
47.81266399999993,6.60514399999999,143
47.48866399999993,5.957143999999991,160
48.136663999999925,5.957143999999991,1406
45.86866399999994,7.90114399999999,27
46.516663999999935,7.90114399999999,33
49.43266399999992,3.365143999999992,1107
49.43266399999992,4.013143999999992,220
48.136663999999925,2.717143999999992,1090
47.81266399999993,2.717143999999992,1058
47.48866399999993,2.717143999999992,375
50.40466399999991,2.717143999999992,281
48.46066399999992,-4.410856000000004,1298
48.46066399999992,-3.7628560000000046,1260
48.46066399999992,-3.114856000000005,1231
48.46066399999992,-2.4668560000000053,1150
47.48866399999993,1.4211439999999929,396
47.16466399999993,1.4211439999999929,986
46.516663999999935,4.013143999999992,155
43.60066399999995,4.661143999999991,266
44.89666399999994,2.717143999999992,1028
45.22066399999994,2.717143999999992,997
45.54466399999994,3.365143999999992,936
45.22066399999994,3.365143999999992,955
47.48866399999993,3.365143999999992,1066
46.19266399999994,9.845143999999989,34
47.81266399999993,2.0691439999999925,317
47.48866399999993,2.0691439999999925,1057
45.86866399999994,2.717143999999992,1001
44.89666399999994,5.957143999999991,150
45.22066399999994,1.4211439999999929,1017
44.89666399999994,1.4211439999999929,761
44.89666399999994,2.0691439999999925,958
43.276663999999954,2.0691439999999925,958
43.60066399999995,1.4211439999999929,997
48.78466399999992,4.661143999999991,190
48.78466399999992,5.309143999999991,153
46.19266399999994,2.0691439999999925,1216
45.86866399999994,1.4211439999999929,1059
46.19266399999994,1.4211439999999929,1103
44.572663999999946,4.013143999999992,1065
44.89666399999994,3.365143999999992,1149
43.92466399999995,4.013143999999992,332
44.24866399999995,4.013143999999992,314
44.89666399999994,-0.5228560000000062,367
45.54466399999994,0.1251439999999934,328
46.516663999999935,0.1251439999999934,969
44.572663999999946,2.0691439999999925,799
49.75666399999992,4.013143999999992,1267
43.92466399999995,3.365143999999992,1116
43.92466399999995,2.717143999999992,1141
44.24866399999995,3.365143999999992,1167
44.572663999999946,3.365143999999992,1211
49.10866399999992,0.1251439999999934,343
49.43266399999992,0.7731439999999932,298
49.43266399999992,-1.8188560000000056,476
49.10866399999992,-1.170856000000006,451
49.10866399999992,-0.5228560000000062,369
49.10866399999992,0.7731439999999932,331
49.10866399999992,1.4211439999999929,265
47.81266399999993,-1.8188560000000056,1119
47.81266399999993,-2.4668560000000053,1168
47.81266399999993,-3.114856000000005,1181
48.136663999999925,-3.7628560000000046,1244
44.572663999999946,9.197143999999987,176
44.89666399999994,8.54914399999999,117
45.22066399999994,9.197143999999987,49
45.54466399999994,10.493143999999988,67
44.572663999999946,10.493143999999988,1318
44.89666399999994,10.493143999999988,133
44.89666399999994,9.845143999999989,85
48.46066399999992,5.309143999999991,974
50.91599999999999,-1.0580000000000025,65535
51.23999999999999,-0.4100000000000028,65535
50.91599999999999,-0.4100000000000028,65535
51.23999999999999,-2.354000000000002,65535
51.56399999999999,-2.354000000000002,65535
51.56399999999999,-3.0020000000000016,65535
50.91599999999999,-2.354000000000002,65535
53.50799999999997,-3.0020000000000016,65535
53.183999999999976,-2.354000000000002,65535
53.183999999999976,-3.0020000000000016,65535
52.85999999999998,-2.354000000000002,65535
52.21199999999998,-1.0580000000000025,65535
51.887999999999984,-1.0580000000000025,65535
52.53599999999998,-1.0580000000000025,65535
52.53599999999998,-1.7060000000000022,65535
52.85999999999998,-1.7060000000000022,65535
53.50799999999997,-2.354000000000002,65535
52.85999999999998,-1.0580000000000025,65535
52.53599999999998,1.5339999999999965,65535
52.53599999999998,0.8859999999999966,65535
52.53599999999998,0.2379999999999968,65535
52.53599999999998,-0.4100000000000028,65535
53.50799999999997,-1.7060000000000022,65535
53.183999999999976,-1.7060000000000022,65535
53.183999999999976,-1.0580000000000025,65535
52.85999999999998,-0.4100000000000028,65535
51.887999999999984,-2.354000000000002,65535
52.21199999999998,-2.354000000000002,65535
55.77599999999996,-2.354000000000002,65535
53.83199999999997,-1.0580000000000025,65535
53.83199999999997,-1.7060000000000022,65535
55.127999999999965,-1.7060000000000022,65535
54.80399999999997,-1.7060000000000022,65535
54.47999999999997,-1.7060000000000022,65535
54.15599999999997,-1.0580000000000025,65535
52.21199999999998,-1.7060000000000022,65535
53.50799999999997,-1.0580000000000025,65535
55.77599999999996,-3.0020000000000016,65535
55.45199999999996,-1.7060000000000022,65535
57.07199999999995,-2.354000000000002,65535
56.74799999999996,-3.0020000000000016,65535
56.42399999999996,-3.0020000000000016,65535
56.09999999999996,-3.650000000000001,65535
50.91599999999999,-3.0020000000000016,65535
50.91599999999999,-3.650000000000001,65535
50.59199999999999,-3.650000000000001,65535
50.59199999999999,-4.298000000000001,65535
51.23999999999999,-3.0020000000000016,65535
50.268,-4.946000000000001,65535
55.77599999999996,-3.650000000000001,65535
55.77599999999996,-4.298000000000001,65535
52.21199999999998,-0.4100000000000028,65535
52.53599999999998,-2.354000000000002,65535
51.56399999999999,-1.7060000000000022,65535
51.56399999999999,-3.650000000000001,65535
51.887999999999984,-4.298000000000001,65535
51.56399999999999,-4.298000000000001,65535
51.887999999999984,-1.7060000000000022,65535
52.21199999999998,-3.0020000000000016,65535
51.23999999999999,0.2379999999999968,65535
50.91599999999999,0.2379999999999968,65535
52.21199999999998,0.2379999999999968,65535
53.83199999999997,-3.0020000000000016,65535
54.15599999999997,-3.0020000000000016,65535
54.47999999999997,-3.0020000000000016,65535
55.127999999999965,-3.650000000000001,65535
54.80399999999997,-3.0020000000000016,65535
53.83199999999997,-2.354000000000002,65535
54.15599999999997,-0.4100000000000028,65535
54.47999999999997,-1.0580000000000025,65535
53.83199999999997,-0.4100000000000028,65535
53.183999999999976,-3.650000000000001,65535
53.183999999999976,-4.298000000000001,65535
52.85999999999998,-3.0020000000000016,65535
52.53599999999998,-3.0020000000000016,65535
51.887999999999984,-3.0020000000000016,65535
51.23999999999999,0.8859999999999966,65535
51.887999999999984,0.2379999999999968,65535
52.21199999999998,0.8859999999999966,65535
51.887999999999984,-4.946000000000001,65535
52.53599999999998,-3.650000000000001,65535
52.21199999999998,-4.298000000000001,65535
53.183999999999976,-0.4100000000000028,65535
51.23999999999999,-3.650000000000001,65535
51.887999999999984,-3.650000000000001,65535
52.21199999999998,-3.650000000000001,65535
51.56399999999999,0.8859999999999966,65535
51.887999999999984,0.8859999999999966,65535
52.85999999999998,0.8859999999999966,65535
53.50799999999997,-0.4100000000000028,65535
56.09999999999996,-4.298000000000001,65535
56.74799999999996,-4.946000000000001,65535
56.74799999999996,-4.298000000000001,65535
56.42399999999996,-4.946000000000001,65535
56.42399999999996,-4.298000000000001,65535
56.09999999999996,-4.946000000000001,65535
57.39599999999995,-4.298000000000001,65535
57.39599999999995,-3.0020000000000016,65535
57.39599999999995,-3.650000000000001,65535
56.42399999999996,-3.650000000000001,65535
57.07199999999995,-3.650000000000001,65535
57.07199999999995,-4.298000000000001,65535
56.74799999999996,-3.650000000000001,65535
59.15266399999986,27.34114399999998,65535
59.47666399999986,26.69314399999997,65535
59.47666399999986,26.04514399999998,65535
59.15266399999986,26.04514399999998,65535
59.15266399999986,24.74914399999998,65535
59.15266399999986,25.397143999999983,65535
59.47666399999986,25.397143999999983,65535
58.50466399999986,26.69314399999997,65535
58.82866399999986,26.69314399999997,65535
57.85666399999987,26.04514399999998,65535
58.180663999999865,26.04514399999998,65535
58.180663999999865,26.69314399999997,65535
58.82866399999986,26.04514399999998,65535
58.50466399999986,25.397143999999983,65535
58.82866399999986,25.397143999999983,65535
58.82866399999986,24.74914399999998,65535
58.180663999999865,27.34114399999998,65535
57.85666399999987,27.34114399999998,65535
63.68866399999983,27.34114399999998,65535
60.124663999999854,24.74914399999998,65535
60.44866399999985,24.74914399999998,65535
60.44866399999985,25.397143999999983,65535
60.77266399999985,25.397143999999983,65535
61.09666399999985,26.04514399999998,65535
60.77266399999985,26.04514399999998,65535
60.77266399999985,26.69314399999997,65535
61.09666399999985,25.397143999999983,65535
61.09666399999985,26.69314399999997,65535
61.420663999999846,26.69314399999997,65535
61.74466399999984,27.34114399999998,65535
62.06866399999984,27.34114399999998,65535
62.39266399999984,27.34114399999998,65535
62.71666399999984,27.34114399999998,65535
64.01266399999983,27.34114399999998,65535
63.36466399999984,27.34114399999998,65535
63.04066399999984,27.34114399999998,65535
63.04066399999984,27.989143999999985,65535
64.33666399999983,27.989143999999985,65535
64.33666399999983,27.34114399999998,65535
64.66066399999983,27.34114399999998,65535
64.66066399999983,26.69314399999997,4756
64.98466399999982,25.397143999999983,4519
64.66066399999983,26.04514399999998,4736
64.98466399999982,26.04514399999998,4720
66.28066399999982,25.397143999999983,65535
65.95666399999982,24.74914399999998,4432
65.63266399999982,24.74914399999998,4436
65.63266399999982,25.397143999999983,4478
65.30866399999982,25.397143999999983,4499
66.60466399999981,25.397143999999983,65535
64.01266399999983,24.74914399999998,4656
64.01266399999983,24.101143999999977,4691
64.01266399999983,23.45314399999998,4715
63.68866399999983,23.45314399999998,4727
63.68866399999983,22.805143999999984,4752
63.68866399999983,26.04514399999998,65535
63.68866399999983,25.397143999999983,65535
63.68866399999983,26.69314399999997,65535
60.44866399999985,26.69314399999997,65535
64.01266399999983,27.989143999999985,65535
62.71666399999984,22.805143999999984,65535
62.39266399999984,22.805143999999984,65535
62.06866399999984,22.805143999999984,65535
62.06866399999984,23.45314399999998,65535
61.74466399999984,23.45314399999998,65535
61.420663999999846,23.45314399999998,65535
61.09666399999985,23.45314399999998,65535
61.09666399999985,24.101143999999977,65535
61.09666399999985,24.74914399999998,65535
60.77266399999985,24.74914399999998,65535
63.04066399999984,21.50914399999997,65535
63.04066399999984,22.15714399999998,65535
63.04066399999984,22.805143999999984,65535
62.39266399999984,26.04514399999998,65535
62.06866399999984,25.397143999999983,65535
61.74466399999984,25.397143999999983,65535
61.74466399999984,24.74914399999998,65535
61.74466399999984,24.101143999999977,65535
61.420663999999846,24.101143999999977,65535
62.39266399999984,26.69314399999997,65535
64.66066399999983,25.397143999999983,4588
64.66066399999983,24.74914399999998,4606
64.33666399999983,24.74914399999998,4617
63.36466399999984,22.805143999999984,4777
67.25266399999981,24.101143999999977,3866
66.92866399999981,24.101143999999977,3830
66.60466399999981,23.45314399999998,3799
66.28066399999982,23.45314399999998,3781
66.28066399999982,24.101143999999977,3763
65.95666399999982,24.101143999999977,1885
60.124663999999854,24.101143999999977,65535
60.124663999999854,23.45314399999998,65535
60.44866399999985,22.805143999999984,65535
60.77266399999985,27.34114399999998,65535
61.09666399999985,27.989143999999985,65535
61.09666399999985,28.63714399999997,65535
61.420663999999846,29.28514399999997,65535
61.74466399999984,29.933143999999977,65535
62.06866399999984,29.933143999999977,65535
62.39266399999984,29.933143999999977,65535
62.71666399999984,29.933143999999977,65535
61.420663999999846,22.805143999999984,65535
61.420663999999846,22.15714399999998,65535
61.09666399999985,22.15714399999998,65535
61.420663999999846,21.50914399999997,65535
62.39266399999984,27.989143999999985,65535
62.06866399999984,27.989143999999985,65535
61.420663999999846,27.34114399999998,65535
63.04066399999984,29.933143999999977,65535
63.68866399999983,29.28514399999997,65535
63.36466399999984,29.28514399999997,65535
63.36466399999984,29.933143999999977,65535
60.44866399999985,27.34114399999998,65535
61.74466399999984,29.28514399999997,65535
62.39266399999984,30.58114399999998,65535
62.71666399999984,31.229143999999977,65535
62.71666399999984,29.28514399999997,65535
63.04066399999984,28.63714399999997,65535
66.60466399999981,26.04514399999998,65535
66.60466399999981,26.69314399999997,65535
66.60466399999981,27.34114399999998,65535
62.71666399999984,26.04514399999998,65535
62.71666399999984,25.397143999999983,65535
63.04066399999984,25.397143999999983,65535
63.36466399999984,25.397143999999983,65535
62.71666399999984,23.45314399999998,65535
62.39266399999984,24.101143999999977,65535
62.71666399999984,22.15714399999998,65535
62.39266399999984,22.15714399999998,65535
62.39266399999984,21.50914399999997,65535
61.09666399999985,21.50914399999997,65535
60.77266399999985,22.805143999999984,65535
60.44866399999985,22.15714399999998,65535
60.77266399999985,23.45314399999998,65535
60.77266399999985,21.50914399999997,65535
60.77266399999985,22.15714399999998,65535
60.124663999999854,22.805143999999984,65535
60.44866399999985,24.101143999999977,65535
62.06866399999984,24.74914399999998,65535
50.72866399999991,16.325143999999987,446
50.40466399999991,16.973143999999984,914
50.72866399999991,16.973143999999984,876
50.40466399999991,16.325143999999987,912
50.08066399999991,16.973143999999984,971
50.08066399999991,16.325143999999987,873
51.700663999999904,16.973143999999984,866
51.37666399999991,16.973143999999984,479
51.05266399999991,15.677143999999986,798
50.72866399999991,15.677143999999986,777
51.05266399999991,17.621143999999987,793
51.37666399999991,17.621143999999987,824
51.700663999999904,17.621143999999987,503
51.700663999999904,16.325143999999987,871
52.0246639999999,22.15714399999998,1258
52.0246639999999,21.50914399999997,1215
52.3486639999999,21.50914399999997,1202
52.0246639999999,20.86114399999998,1168
51.700663999999904,20.86114399999998,1172
51.37666399999991,21.50914399999997,1091
51.37666399999991,20.86114399999998,1087
51.05266399999991,20.86114399999998,1071
52.6726639999999,23.45314399999998,1506
52.3486639999999,22.805143999999984,1446
52.3486639999999,20.213143999999986,1211
52.0246639999999,20.213143999999986,1131
52.3486639999999,19.565143999999982,1087
52.6726639999999,19.565143999999982,1179
51.700663999999904,21.50914399999997,1145
51.700663999999904,22.15714399999998,1151
52.6726639999999,21.50914399999997,1233
52.996663999999896,21.50914399999997,1320
52.6726639999999,20.86114399999998,1209
52.6726639999999,22.15714399999998,1257
52.6726639999999,20.213143999999986,1420
52.996663999999896,19.565143999999982,1230
52.996663999999896,20.86114399999998,1248
52.996663999999896,20.213143999999986,1257
53.32066399999989,20.213143999999986,1282
51.37666399999991,20.213143999999986,1003
52.3486639999999,16.973143999999984,818
52.0246639999999,16.973143999999984,835
52.0246639999999,16.325143999999987,849
52.0246639999999,17.621143999999987,774
52.6726639999999,16.973143999999984,851
52.996663999999896,16.973143999999984,885
52.3486639999999,16.325143999999987,853
52.3486639999999,15.677143999999986,857
51.700663999999904,18.269143999999983,818
52.6726639999999,17.621143999999987,955
52.3486639999999,17.621143999999987,942
52.6726639999999,18.269143999999983,1035
52.3486639999999,18.269143999999983,1009
52.3486639999999,18.917143999999983,1047
52.996663999999896,17.621143999999987,1102
51.700663999999904,19.565143999999982,900
51.700663999999904,18.917143999999983,866
51.37666399999991,18.269143999999983,985
58.82866399999986,9.197143999999987,1585
58.180663999999865,7.90114399999999,1673
58.50466399999986,8.54914399999999,1629
63.36466399999984,10.493143999999988,1717
63.36466399999984,11.141143999999988,1789
63.36466399999984,11.789143999999988,2433
63.68866399999983,11.789143999999988,1852
64.33666399999983,12.437143999999988,2014
64.66066399999983,12.437143999999988,2509
65.63266399999982,13.085143999999987,2166
65.95666399999982,13.085143999999987,2201
66.28066399999982,14.381143999999988,2271
65.95666399999982,13.733143999999989,2340
66.28066399999982,13.733143999999989,2249
65.30866399999982,13.085143999999987,2467
64.98466399999982,13.085143999999987,2101
64.01266399999983,11.789143999999988,1880
63.68866399999983,11.141143999999988,1822
59.800663999999855,10.493143999999988,1292
59.800663999999855,11.141143999999988,1282
60.124663999999854,11.141143999999988,1265
60.44866399999985,11.141143999999988,1285
60.124663999999854,11.789143999999988,1250
60.77266399999985,7.25314399999999,1630
60.77266399999985,6.60514399999999,1676
59.15266399999986,9.197143999999987,1554
59.47666399999986,9.197143999999987,1529
59.800663999999855,9.845143999999989,1306
59.47666399999986,11.141143999999988,1255
61.09666399999985,10.493143999999988,1419
60.77266399999985,10.493143999999988,1357
60.77266399999985,11.141143999999988,1353
62.06866399999984,9.197143999999987,1570
61.74466399999984,9.845143999999989,1516
61.420663999999846,9.845143999999989,1493
59.15266399999986,9.845143999999989,1370
59.47666399999986,9.845143999999989,1346
58.82866399999986,5.957143999999991,1845
58.180663999999865,7.25314399999999,1720
58.50466399999986,7.25314399999999,1754
58.50466399999986,6.60514399999999,1759
58.50466399999986,5.957143999999991,1815
58.82866399999986,8.54914399999999,1615
60.44866399999985,7.25314399999999,1602
60.44866399999985,7.90114399999999,1559
60.124663999999854,10.493143999999988,1306
60.44866399999985,9.197143999999987,1506
60.77266399999985,9.197143999999987,1518
60.77266399999985,8.54914399999999,1539
60.124663999999854,9.845143999999989,1414
60.44866399999985,10.493143999999988,1321
63.04066399999984,10.493143999999988,1686
62.06866399999984,9.845143999999989,1595
62.39266399999984,9.845143999999989,1603
62.71666399999984,9.845143999999989,1627
59.47666399999986,14.381143999999988,1137
59.47666399999986,13.733143999999989,1161
59.47666399999986,13.085143999999987,1226
59.800663999999855,12.437143999999988,1202
59.15266399999986,11.141143999999988,1209
59.15266399999986,14.381143999999988,1122
58.82866399999986,11.789143999999988,1167
58.50466399999986,12.437143999999988,1120
58.180663999999865,12.437143999999988,1113
57.85666399999987,11.789143999999988,1090
62.71666399999984,7.90114399999999,1656
62.39266399999984,7.90114399999999,1613
62.06866399999984,8.54914399999999,1588
60.44866399999985,5.309143999999991,1750
60.44866399999985,5.957143999999991,1717
60.77266399999985,5.957143999999991,1744
62.39266399999984,11.141143999999988,1631
62.06866399999984,10.493143999999988,1588
61.74466399999984,11.141143999999988,1561
61.420663999999846,11.141143999999988,1514
61.09666399999985,11.141143999999988,1496
60.77266399999985,11.789143999999988,1473
63.04066399999984,11.141143999999988,1715
62.71666399999984,11.141143999999988,1655
62.39266399999984,10.493143999999988,1615
67.25266399999981,15.677143999999986,2390
67.25266399999981,15.029143999999986,2428
67.25266399999981,14.381143999999988,2456
66.92866399999981,15.029143999999986,2379
66.60466399999981,15.677143999999986,2357
64.01266399999983,11.141143999999988,1864
66.60466399999981,15.029143999999986,2420
54.29266399999989,18.269143999999983,1190
54.616663999999886,17.621143999999987,1148
53.96866399999989,18.269143999999983,1163
43.92466399999995,1.4211439999999929,968
44.24866399999995,0.7731439999999932,931
44.572663999999946,0.1251439999999934,1025
46.84066399999993,1.4211439999999929,1060
44.572663999999946,1.4211439999999929,1051
44.24866399999995,1.4211439999999929,1063
45.54466399999994,1.4211439999999929,1045
46.516663999999935,1.4211439999999929,1077
42.30466399999996,2.717143999999992,1111
44.24866399999995,2.717143999999992,895
44.572663999999946,2.717143999999992,865
43.92466399999995,2.0691439999999925,1047
42.30466399999996,2.0691439999999925,1032
42.62866399999996,2.0691439999999925,963
42.62866399999996,1.4211439999999929,955
42.95266399999996,1.4211439999999929,926
43.276663999999954,1.4211439999999929,879
46.516663999999935,-1.170856000000006,994
46.19266399999994,-1.170856000000006,1059
45.86866399999994,-0.5228560000000062,404
45.54466399999994,-0.5228560000000062,384
48.46066399999992,1.4211439999999929,229
41.332663999999966,2.0691439999999925,1234
41.98066399999996,2.717143999999992,1193
48.46066399999992,-1.8188560000000056,1079
47.81266399999993,0.7731439999999932,328
46.84066399999993,0.7731439999999932,1010
44.572663999999946,-1.170856000000006,417
43.60066399999995,-1.170856000000006,1054
43.276663999999954,-1.8188560000000056,1102
43.276663999999954,0.1251439999999934,1067
42.95266399999996,0.1251439999999934,1044
43.276663999999954,-0.5228560000000062,1094
43.60066399999995,-0.5228560000000062,1094
47.81266399999993,-3.7628560000000046,1228
47.48866399999993,-2.4668560000000053,414
47.81266399999993,-0.5228560000000062,944
46.516663999999935,-1.8188560000000056,1095
48.136663999999925,-1.170856000000006,1156
47.48866399999993,-1.170856000000006,992
45.22066399999994,8.54914399999999,66
45.22066399999994,7.90114399999999,79
46.19266399999994,-0.5228560000000062,1020
46.516663999999935,-0.5228560000000062,1119
48.78466399999992,-3.114856000000005,1264
50.72866399999991,2.0691439999999925,354
50.40466399999991,2.0691439999999925,300
40.36066399999997,-3.7628560000000046,1425
41.65666399999997,-1.170856000000006,1342
41.332663999999966,1.4211439999999929,1280
43.276663999999954,13.733143999999989,65535
42.95266399999996,13.733143999999989,65535
41.65666399999997,15.029143999999986,65535
40.68466399999997,17.621143999999987,65535
43.60066399999995,13.085143999999987,3903
41.65666399999997,12.437143999999988,2512
41.65666399999997,13.085143999999987,2528
41.98066399999996,13.085143999999987,2504
41.65666399999997,13.733143999999989,3092
41.332663999999966,13.733143999999989,2570
41.332663999999966,14.381143999999988,3127
41.00866399999997,14.381143999999988,3154
41.332663999999966,13.085143999999987,2553
41.00866399999997,15.029143999999986,4335
41.98066399999996,13.733143999999989,2586
42.30466399999996,14.381143999999988,4416
42.30466399999996,12.437143999999988,2755
42.62866399999996,12.437143999999988,3054
42.95266399999996,12.437143999999988,3108
42.30466399999996,11.789143999999988,2563
42.95266399999996,11.789143999999988,3818
42.62866399999996,11.789143999999988,3739
43.276663999999954,11.789143999999988,4290
42.95266399999996,13.085143999999987,3804
42.30466399999996,13.085143999999987,4303
43.276663999999954,13.085143999999987,3852
43.276663999999954,12.437143999999988,3859
42.62866399999996,11.141143999999988,2632
42.95266399999996,11.141143999999988,2675
42.95266399999996,10.493143999999988,2693
44.572663999999946,8.54914399999999,124
44.89666399999994,7.90114399999999,97
44.89666399999994,9.197143999999987,132
44.24866399999995,7.90114399999999,159
44.572663999999946,7.90114399999999,140
43.92466399999995,7.90114399999999,871
44.24866399999995,7.25314399999999,156
44.89666399999994,7.25314399999999,138
45.22066399999994,7.25314399999999,88
45.54466399999994,7.90114399999999,98
44.572663999999946,7.25314399999999,2302
52.996663999999896,22.805143999999984,1603
52.996663999999896,23.45314399999998,1593
51.37666399999991,22.15714399999998,1213
51.37666399999991,22.805143999999984,1267
50.08066399999991,20.213143999999986,1049
50.72866399999991,20.213143999999986,1140
50.40466399999991,20.213143999999986,1090
50.08066399999991,20.86114399999998,1345
50.08066399999991,21.50914399999997,1386
50.08066399999991,22.15714399999998,1433
50.08066399999991,22.805143999999984,1463
53.96866399999989,22.805143999999984,1827
53.64466399999989,23.45314399999998,1780
53.32066399999989,23.45314399999998,1737
50.40466399999991,19.565143999999982,1026
50.08066399999991,18.917143999999983,1019
50.08066399999991,18.269143999999983,909
52.0246639999999,22.805143999999984,1264
52.0246639999999,23.45314399999998,1300
51.37666399999991,19.565143999999982,1176
51.05266399999991,19.565143999999982,1075
50.72866399999991,18.917143999999983,993
50.72866399999991,19.565143999999982,1115
49.75666399999992,18.917143999999983,1102
50.40466399999991,18.269143999999983,880
53.64466399999989,19.565143999999982,1236
53.96866399999989,18.917143999999983,1205
53.64466399999989,18.917143999999983,1221
53.64466399999989,20.213143999999986,1275
52.996663999999896,18.917143999999983,1113
52.996663999999896,18.269143999999983,1092
53.32066399999989,18.917143999999983,1195
50.72866399999991,17.621143999999987,826
50.72866399999991,18.269143999999983,867
52.6726639999999,16.325143999999987,895
52.996663999999896,16.325143999999987,922
52.996663999999896,15.677143999999986,895
53.32066399999989,15.677143999999986,1016
53.32066399999989,15.029143999999986,927
53.64466399999989,15.029143999999986,939
53.96866399999989,15.029143999999986,880
52.6726639999999,18.917143999999983,1132
53.32066399999989,16.325143999999987,1074
52.6726639999999,15.029143999999986,826
51.05266399999991,22.805143999999984,1301
51.05266399999991,23.45314399999998,1329
50.72866399999991,22.15714399999998,1286
50.40466399999991,22.15714399999998,1408
51.05266399999991,22.15714399999998,1264
54.616663999999886,16.973143999999984,1108
54.29266399999989,16.325143999999987,1058
53.96866399999989,15.677143999999986,1022
50.72866399999991,21.50914399999997,1369
50.40466399999991,21.50914399999997,1387
50.40466399999991,17.621143999999987,930
53.32066399999989,22.805143999999984,1598
53.64466399999989,22.15714399999998,1445
54.29266399999989,16.973143999999984,1084
50.72866399999991,20.86114399999998,1122
51.700663999999904,22.805143999999984,1477
51.05266399999991,21.50914399999997,1301
50.08066399999991,19.565143999999982,1034
52.0246639999999,18.917143999999983,3688
52.0246639999999,19.565143999999982,3681
53.64466399999989,18.269143999999983,1157
51.700663999999904,20.213143999999986,981
53.32066399999989,19.565143999999982,1227
50.72866399999991,23.45314399999998,1411
50.72866399999991,22.805143999999984,1380
49.43266399999992,20.213143999999986,1285
49.75666399999992,21.50914399999997,1469
49.75666399999992,22.15714399999998,2262
49.43266399999992,22.15714399999998,1430
51.05266399999991,18.917143999999983,996
51.05266399999991,18.269143999999983,917
53.32066399999989,16.973143999999984,935
53.64466399999989,16.973143999999984,961
49.75666399999992,20.86114399999998,1388
50.40466399999991,22.805143999999984,3770
53.64466399999989,16.325143999999987,971
53.96866399999989,20.86114399999998,1302
54.29266399999989,20.86114399999998,1348
53.96866399999989,21.50914399999997,1368
53.64466399999989,15.677143999999986,980
53.96866399999989,20.213143999999986,1261
53.96866399999989,19.565143999999982,1250
54.29266399999989,19.565143999999982,1264
53.96866399999989,16.325143999999987,1005
53.64466399999989,17.621143999999987,1098
53.96866399999989,22.15714399999998,1435
53.64466399999989,21.50914399999997,1400
53.64466399999989,20.86114399999998,1354
52.6726639999999,15.677143999999986,877
51.05266399999991,20.213143999999986,1057
54.940663999999884,24.101143999999977,65535
54.616663999999886,23.45314399999998,65535
54.29266399999989,23.45314399999998,65535
53.64466399999989,22.805143999999984,1585
53.96866399999989,16.973143999999984,1105
50.40466399999991,20.86114399999998,1303
53.32066399999989,18.269143999999983,1176
49.75666399999992,19.565143999999982,1133
50.40466399999991,23.45314399999998,1885
49.75666399999992,20.213143999999986,1357
49.43266399999992,19.565143999999982,1245
49.43266399999992,20.86114399999998,1355
53.96866399999989,17.621143999999987,1308
42.30466399999996,-1.8188560000000056,3999
41.98066399999996,-1.8188560000000056,3982
41.65666399999997,0.7731439999999932,3986
42.62866399999996,-1.8188560000000056,4114
42.95266399999996,-1.8188560000000056,4143
42.62866399999996,-3.114856000000005,4237
42.95266399999996,-2.4668560000000053,4215
42.62866399999996,-7.650856000000003,4579
42.30466399999996,-7.650856000000003,4639
42.30466399999996,-8.946856000000002,4775
42.30466399999996,-8.298856000000002,4749
41.98066399999996,-8.298856000000002,4738
42.30466399999996,-7.002856000000003,4521
42.62866399999996,-6.354856000000003,4463
42.30466399999996,-6.354856000000003,4418
42.62866399999996,-5.706856000000004,3918
41.98066399999996,-4.410856000000004,3872
42.30466399999996,-3.7628560000000046,4263
40.03666399999997,-0.5228560000000062,3966
39.38866399999998,-0.5228560000000062,4014
41.00866399999997,0.7731439999999932,4114
40.68466399999997,0.7731439999999932,4146
40.36066399999997,0.1251439999999934,4224
39.712663999999975,-0.5228560000000062,4123
38.41666399999998,-0.5228560000000062,4135
39.06466399999998,-0.5228560000000062,4257
38.74066399999998,-1.170856000000006,4143
41.332663999999966,0.7731439999999932,4174
41.65666399999997,2.717143999999992,3774
41.65666399999997,2.0691439999999925,3797
41.332663999999966,0.1251439999999934,4132
41.332663999999966,-0.5228560000000062,4076
41.65666399999997,-4.410856000000004,3846
40.03666399999997,-2.4668560000000053,4084
41.00866399999997,-4.410856000000004,3967
43.276663999999954,-5.706856000000004,4048
39.38866399999998,-1.170856000000006,4109
38.09266399999999,-1.170856000000006,4522
38.74066399999998,-0.5228560000000062,4285
37.76866399999999,-1.170856000000006,4587
39.06466399999998,-1.8188560000000056,4107
39.38866399999998,-3.114856000000005,4007
39.38866399999998,-2.4668560000000053,4063
39.06466399999998,-2.4668560000000053,4090
39.06466399999998,-3.114856000000005,4011
39.06466399999998,-3.7628560000000046,3985
38.74066399999998,-3.7628560000000046,4064
40.03666399999997,-3.7628560000000046,3963
40.03666399999997,-3.114856000000005,4163
40.03666399999997,-1.8188560000000056,4244
39.712663999999975,-1.8188560000000056,4209
39.712663999999975,-1.170856000000006,4145
40.36066399999997,-1.170856000000006,4164
40.68466399999997,-1.170856000000006,4142
41.00866399999997,-1.170856000000006,4130
41.332663999999966,-1.170856000000006,3970
43.276663999999954,-8.298856000000002,4739
42.95266399999996,-8.298856000000002,4707
41.65666399999997,-5.706856000000004,65535
41.98066399999996,-7.002856000000003,65535
41.98066399999996,-6.354856000000003,65535
41.332663999999966,-5.058856000000004,4085
43.276663999999954,-3.7628560000000046,4520
42.95266399999996,-4.410856000000004,4454
42.62866399999996,-4.410856000000004,4444
42.30466399999996,-4.410856000000004,4403
41.00866399999997,-5.706856000000004,4023
41.332663999999966,-1.8188560000000056,3916
40.68466399999997,-3.114856000000005,3870
41.00866399999997,-3.114856000000005,3921
41.00866399999997,-2.4668560000000053,3944
41.332663999999966,-2.4668560000000053,3997
40.68466399999997,-4.410856000000004,3907
40.36066399999997,-4.410856000000004,3991
40.68466399999997,-3.7628560000000046,3899
40.36066399999997,-3.114856000000005,3877
41.65666399999997,-2.4668560000000053,4014
38.09266399999999,-3.7628560000000046,4111
38.74066399999998,-3.114856000000005,4055
37.76866399999999,-3.7628560000000046,4168
39.712663999999975,-3.114856000000005,3999
38.41666399999998,-3.7628560000000046,4076
40.03666399999997,-4.410856000000004,65535
40.03666399999997,-5.058856000000004,65535
39.38866399999998,-6.354856000000003,65535
39.38866399999998,-7.002856000000003,65535
42.95266399999996,-3.114856000000005,4648
41.98066399999996,-1.170856000000006,4011
42.30466399999996,-2.4668560000000053,4052
41.65666399999997,-0.5228560000000062,4109
41.98066399999996,-0.5228560000000062,3946
41.65666399999997,0.1251439999999934,3973
41.98066399999996,0.1251439999999934,3995
37.76866399999999,-5.058856000000004,4047
36.79666399999999,-4.410856000000004,4106
38.74066399999998,-4.410856000000004,4003
37.12066399999999,-4.410856000000004,4080
37.44466399999999,-5.058856000000004,4604
37.44466399999999,-7.002856000000003,65535
37.44466399999999,-6.354856000000003,65535
37.44466399999999,-5.706856000000004,4280
39.712663999999975,-3.7628560000000046,4073
42.62866399999996,-8.946856000000002,65535
42.30466399999996,-5.706856000000004,4425
42.30466399999996,-5.058856000000004,4510
42.95266399999996,-5.706856000000004,3950
41.00866399999997,-5.058856000000004,3991
40.68466399999997,-5.058856000000004,3965
41.65666399999997,-5.058856000000004,65535
41.65666399999997,-6.354856000000003,65535
36.79666399999999,-6.354856000000003,65535
37.12066399999999,-5.706856000000004,4448
37.76866399999999,-5.706856000000004,4247
38.09266399999999,-4.410856000000004,4382
37.12066399999999,-5.058856000000004,4402
36.79666399999999,-5.058856000000004,4360
37.76866399999999,-4.410856000000004,65535
37.76866399999999,-7.002856000000003,65535
38.41666399999998,-6.354856000000003,65535
38.09266399999999,-6.354856000000003,65535
48.78466399999992,1.4211439999999929,321
56.23666399999988,8.54914399999999,2290
55.58866399999988,9.197143999999987,2095
55.91266399999988,9.197143999999987,2236
55.26466399999988,10.493143999999988,594
55.91266399999988,12.437143999999988,729
55.58866399999988,11.789143999999988,1935
55.58866399999988,11.141143999999988,1976
55.26466399999988,11.789143999999988,1968
55.58866399999988,10.493143999999988,2091
55.58866399999988,13.085143999999987,686
56.88466399999987,9.845143999999989,2242
57.20866399999987,9.845143999999989,2277
56.56066399999988,9.845143999999989,2214
56.88466399999987,8.54914399999999,2329
54.940663999999884,9.845143999999989,3436
54.940663999999884,11.789143999999988,2192
55.91266399999988,13.085143999999987,790
56.23666399999988,13.733143999999989,815
55.91266399999988,13.733143999999989,813
56.23666399999988,14.381143999999988,854
56.23666399999988,15.029143999999986,1032
56.23666399999988,15.677143999999986,1087
56.56066399999988,14.381143999999988,894
56.88466399999987,14.381143999999988,859
56.23666399999988,13.085143999999987,796
56.56066399999988,13.085143999999987,996
56.88466399999987,12.437143999999988,1033
57.20866399999987,12.437143999999988,1049
57.53266399999987,12.437143999999988,1079
56.88466399999987,15.029143999999986,995
56.56066399999988,15.677143999999986,1105
56.88466399999987,15.677143999999986,1123
56.88466399999987,16.325143999999987,1139
55.91266399999988,11.789143999999988,2261
57.20866399999987,10.493143999999988,2464
49.43266399999992,1.4211439999999929,326
49.75666399999992,0.7731439999999932,369
49.75666399999992,2.0691439999999925,314
50.08066399999991,2.717143999999992,357
49.75666399999992,1.4211439999999929,341
47.81266399999993,1.4211439999999929,312
48.136663999999925,2.0691439999999925,292
48.46066399999992,2.0691439999999925,264
48.136663999999925,1.4211439999999929,266
48.78466399999992,0.1251439999999934,1061
48.46066399999992,0.1251439999999934,1087
47.81266399999993,0.1251439999999934,1066
46.84066399999993,-0.5228560000000062,412
47.16466399999993,0.7731439999999932,1228
46.84066399999993,0.1251439999999934,1247
46.84066399999993,-1.170856000000006,1053
50.08066399999991,1.4211439999999929,353
50.08066399999991,2.0691439999999925,964
49.43266399999992,2.717143999999992,279
49.75666399999992,3.365143999999992,471
50.08066399999991,3.365143999999992,1019
49.10866399999992,2.0691439999999925,274
49.43266399999992,2.0691439999999925,301
48.78466399999992,0.7731439999999932,1595
48.78466399999992,-0.5228560000000062,1091
48.78466399999992,-1.170856000000006,1122
48.136663999999925,0.7731439999999932,295
48.46066399999992,0.7731439999999932,240
43.92466399999995,5.957143999999991,956
44.24866399999995,5.957143999999991,926
43.92466399999995,5.309143999999991,281
42.95266399999996,2.717143999999992,919
45.54466399999994,2.0691439999999925,1153
45.22066399999994,2.0691439999999925,1110
42.95266399999996,2.0691439999999925,2377
42.95266399999996,0.7731439999999932,993
43.276663999999954,0.7731439999999932,969
46.19266399999994,0.7731439999999932,1099
46.516663999999935,0.7731439999999932,1083
45.86866399999994,0.1251439999999934,1109
46.19266399999994,0.1251439999999934,1094
47.81266399999993,-1.170856000000006,1435
48.136663999999925,-2.4668560000000053,1143
47.48866399999993,-1.8188560000000056,398
47.16466399999993,-1.170856000000006,1007
47.16466399999993,-0.5228560000000062,1027
46.84066399999993,-1.8188560000000056,1078
45.22066399999994,-0.5228560000000062,1034
44.89666399999994,0.1251439999999934,972
45.22066399999994,0.7731439999999932,990
45.54466399999994,0.7731439999999932,1019
45.86866399999994,0.7731439999999932,1117
45.22066399999994,0.1251439999999934,1091
44.89666399999994,0.7731439999999932,970
43.92466399999995,-0.5228560000000062,1070
43.92466399999995,-1.170856000000006,1034
44.24866399999995,-1.170856000000006,1015
45.22066399999994,-1.170856000000006,1098
44.572663999999946,-0.5228560000000062,1084
44.24866399999995,0.1251439999999934,1040
44.572663999999946,0.7731439999999932,1068
43.276663999999954,-1.170856000000006,1173
42.95266399999996,-0.5228560000000062,1182
44.24866399999995,2.0691439999999925,1002
43.60066399999995,0.7731439999999932,1031
43.60066399999995,2.0691439999999925,1039
52.6726639999999,4.661143999999991,2281
52.6726639999999,5.309143999999991,2304
51.700663999999904,5.309143999999991,2249
52.0246639999999,5.309143999999991,2261
52.3486639999999,5.309143999999991,2277
51.37666399999991,4.013143999999992,2257
52.3486639999999,5.957143999999991,2271
52.0246639999999,6.60514399999999,2301
52.6726639999999,5.957143999999991,2288
52.996663999999896,5.957143999999991,2301
53.32066399999989,5.957143999999991,2295
52.996663999999896,6.60514399999999,2277
53.32066399999989,6.60514399999999,2269
52.6726639999999,6.60514399999999,2297
52.996663999999896,5.309143999999991,2316
59.15266399999986,24.101143999999977,65535
56.88466399999987,24.101143999999977,65535
56.88466399999987,23.45314399999998,65535
56.88466399999987,22.805143999999984,65535
57.20866399999987,24.74914399999998,65535
56.88466399999987,24.74914399999998,65535
56.56066399999988,24.74914399999998,65535
56.56066399999988,25.397143999999983,65535
56.56066399999988,24.101143999999977,65535
56.56066399999988,23.45314399999998,65535
56.56066399999988,26.04514399999998,65535
56.88466399999987,26.04514399999998,65535
57.20866399999987,25.397143999999983,65535
57.53266399999987,25.397143999999983,65535
56.23666399999988,26.04514399999998,65535
56.23666399999988,26.69314399999997,65535
55.91266399999988,26.69314399999997,65535
56.56066399999988,26.69314399999997,65535
56.56066399999988,27.34114399999998,65535
56.56066399999988,27.989143999999985,65535
56.23666399999988,27.989143999999985,65535
55.91266399999988,27.34114399999998,65535
56.56066399999988,22.805143999999984,65535
56.56066399999988,22.15714399999998,65535
56.56066399999988,21.50914399999997,65535
57.20866399999987,26.69314399999997,65535
39.06466399999998,-8.946856000000002,65535
38.41666399999998,-8.298856000000002,65535
45.86866399999994,11.789143999999988,1468
46.19266399999994,11.789143999999988,1455
46.19266399999994,10.493143999999988,1440
45.22066399999994,18.269143999999983,2461
45.22066399999994,18.917143999999983,2535
45.54466399999994,16.973143999999984,2319
45.22066399999994,17.621143999999987,2396
45.86866399999994,16.325143999999987,2200
45.54466399999994,18.917143999999983,2575
45.54466399999994,16.325143999999987,2275
45.54466399999994,18.269143999999983,2553
44.89666399999994,18.917143999999983,2856
46.19266399999994,16.973143999999984,2220
46.19266399999994,16.325143999999987,2206
45.86866399999994,16.973143999999984,2237
45.86866399999994,17.621143999999987,2341
46.19266399999994,15.677143999999986,809
46.516663999999935,16.325143999999987,887
45.54466399999994,15.677143999999986,2180
45.22066399999994,15.029143999999986,2247
45.54466399999994,15.029143999999986,806
45.22066399999994,15.677143999999986,2264
44.572663999999946,15.677143999999986,3019
44.24866399999995,15.677143999999986,3040
43.92466399999995,16.325143999999987,2931
44.89666399999994,15.677143999999986,2983
45.54466399999994,17.621143999999987,2528
45.22066399999994,16.325143999999987,2396
46.516663999999935,16.973143999999984,2277
45.86866399999994,18.269143999999983,2654
43.92466399999995,15.677143999999986,2730
45.22066399999994,13.733143999999989,2262
47.48866399999993,19.565143999999982,1372
47.16466399999993,18.917143999999983,2178
47.81266399999993,18.917143999999983,1306
45.54466399999994,9.845143999999989,44
45.22066399999994,9.845143999999989,53
45.22066399999994,10.493143999999988,78
45.86866399999994,9.845143999999989,39
45.86866399999994,10.493143999999988,2358
48.78466399999992,21.50914399999997,1359
49.10866399999992,20.213143999999986,1313
49.10866399999992,18.917143999999983,1089
48.46066399999992,17.621143999999987,1107
49.43266399999992,17.621143999999987,973
49.10866399999992,17.621143999999987,1132
48.136663999999925,18.269143999999983,1218
49.10866399999992,18.269143999999983,1047
49.43266399999992,18.269143999999983,1004
49.43266399999992,16.973143999999984,950
49.75666399999992,16.973143999999984,921
49.75666399999992,16.325143999999987,899
50.08066399999991,15.677143999999986,741
50.08066399999991,15.029143999999986,471
49.43266399999992,18.917143999999983,1075
47.81266399999993,20.86114399999998,1435
48.136663999999925,20.86114399999998,1466
48.46066399999992,20.86114399999998,1373
48.46066399999992,21.50914399999997,1369
49.10866399999992,19.565143999999982,1182
48.136663999999925,17.621143999999987,1105
48.78466399999992,22.15714399999998,1375
48.78466399999992,20.86114399999998,1407
49.10866399999992,20.86114399999998,1334
48.78466399999992,18.269143999999983,1090
48.78466399999992,17.621143999999987,1109
49.10866399999992,21.50914399999997,1349
48.78466399999992,20.213143999999986,1415
48.46066399999992,20.213143999999986,1456
48.136663999999925,19.565143999999982,1605
48.46066399999992,19.565143999999982,1484
48.46066399999992,18.917143999999983,1226
48.46066399999992,18.269143999999983,1103
48.78466399999992,19.565143999999982,1250
48.78466399999992,18.917143999999983,1168
47.81266399999993,18.269143999999983,1195
49.10866399999992,22.15714399999998,1416
49.43266399999992,21.50914399999997,1414
48.136663999999925,18.917143999999983,1306
48.136663999999925,20.213143999999986,1625
52.636,-8.018,65535
52.312,-7.370000000000001,65535
52.312,-8.018,65535
52.636,-8.666,65535
51.988,-8.666,65535
51.988,-8.018,65535
52.96,-8.666,65535
52.96,-6.074000000000002,65535
53.28399999999999,-6.722000000000001,65535
53.60799999999999,-6.722000000000001,65535
53.60799999999999,-7.370000000000001,65535
53.60799999999999,-8.018,65535
54.25599999999999,-8.666,65535
53.93199999999999,-8.666,65535
53.93199999999999,-8.018,65535
52.312,-6.722000000000001,65535
52.636,-6.722000000000001,65535
53.93199999999999,-6.722000000000001,65535
54.25599999999999,-6.074000000000002,65535
53.28399999999999,-7.370000000000001,65535
52.96,-7.370000000000001,65535
52.312,-8.666,65535
52.96,-8.018,65535
52.636,-7.370000000000001,65535
52.96,-6.722000000000001,65535
51.988,-9.314,65535
52.312,-9.314,65535
54.579999999999984,-6.722000000000001,65535
54.579999999999984,-6.074000000000002,65535
53.28399999999999,-8.018,65535
53.28399999999999,-8.666,65535
53.28399999999999,-9.314,65535
53.93199999999999,-9.314,65535
54.25599999999999,-9.314,65535
53.60799999999999,-8.666,65535
53.60799999999999,-9.314,65535
49.43266399999992,14.381143999999988,526
49.75666399999992,14.381143999999988,475
49.75666399999992,15.029143999999986,474
49.75666399999992,13.733143999999989,512
50.08066399999991,13.733143999999989,508
49.75666399999992,15.677143999999986,497
50.40466399999991,15.029143999999986,409
49.43266399999992,13.733143999999989,900
50.40466399999991,15.677143999999986,743
50.40466399999991,13.733143999999989,736
46.19266399999994,15.029143999999986,788
45.86866399999994,15.029143999999986,790
45.86866399999994,14.381143999999988,762
46.19266399999994,13.733143999999989,765
45.86866399999994,13.733143999999989,841
58.50466399999986,13.733143999999989,1110
58.180663999999865,13.733143999999989,1126
58.180663999999865,13.085143999999987,1118
57.85666399999987,12.437143999999988,1097
60.44866399999985,15.677143999999986,1187
60.124663999999854,15.677143999999986,1175
60.124663999999854,16.325143999999987,1159
59.800663999999855,16.325143999999987,1124
59.800663999999855,17.621143999999987,1096
59.47666399999986,18.269143999999983,1071
61.74466399999984,16.973143999999984,1280
61.420663999999846,16.973143999999984,1255
60.77266399999985,16.973143999999984,1155
65.63266399999982,22.15714399999998,1813
65.95666399999982,21.50914399999997,1796
65.63266399999982,20.86114399999998,1765
64.98466399999982,20.213143999999986,1713
64.66066399999983,20.213143999999986,1693
64.33666399999983,19.565143999999982,1644
64.01266399999983,19.565143999999982,1608
63.68866399999983,20.213143999999986,1504
64.66066399999983,18.917143999999983,2514
59.15266399999986,16.325143999999987,1023
59.15266399999986,15.029143999999986,1087
59.15266399999986,17.621143999999987,1057
57.53266399999987,14.381143999999988,899
57.53266399999987,15.029143999999986,1050
61.09666399999985,14.381143999999988,1291
60.77266399999985,15.029143999999986,1242
60.44866399999985,15.029143999999986,1228
58.180663999999865,15.029143999999986,946
58.50466399999986,16.325143999999987,984
58.50466399999986,15.677143999999986,956
63.36466399999984,13.085143999999987,1645
63.04066399999984,14.381143999999988,1581
62.39266399999984,15.677143999999986,1504
63.36466399999984,13.733143999999989,1627
63.36466399999984,14.381143999999988,1598
62.71666399999984,15.677143999999986,1531
62.39266399999984,17.621143999999987,1336
59.800663999999855,15.677143999999986,1211
55.58866399999988,13.733143999999989,1478
57.20866399999987,14.381143999999988,1046
57.85666399999987,14.381143999999988,1032
58.82866399999986,16.973143999999984,1032
58.82866399999986,16.325143999999987,1010
59.15266399999986,18.269143999999983,1063
60.44866399999985,17.621143999999987,1129
59.15266399999986,12.437143999999988,1264
59.15266399999986,13.085143999999987,1258
58.82866399999986,12.437143999999988,1241
59.47666399999986,16.325143999999987,1069
58.82866399999986,14.381143999999988,1161
59.47666399999986,15.677143999999986,1105
63.36466399999984,18.917143999999983,1455
63.04066399999984,17.621143999999987,1409
62.71666399999984,17.621143999999987,1384
63.68866399999983,19.565143999999982,1492
62.39266399999984,16.973143999999984,1395
59.800663999999855,16.973143999999984,1135
59.47666399999986,17.621143999999987,1077
57.85666399999987,13.085143999999987,1140
57.53266399999987,13.085143999999987,1181
58.50466399999986,11.789143999999988,1190
57.85666399999987,15.029143999999986,930
57.20866399999987,13.733143999999989,1096
57.53266399999987,13.733143999999989,1216
61.74466399999984,16.325143999999987,1236
61.420663999999846,16.325143999999987,1205
61.09666399999985,16.325143999999987,1195
61.09666399999985,16.973143999999984,1179
60.124663999999854,15.029143999999986,1231
66.60466399999981,20.86114399999998,2337
67.25266399999981,20.86114399999998,2405
67.90066399999981,20.213143999999986,2475
67.57666399999981,20.213143999999986,3100
59.800663999999855,15.029143999999986,1239
58.50466399999986,15.029143999999986,975
59.47666399999986,15.029143999999986,1226
60.44866399999985,16.325143999999987,1248
59.15266399999986,15.677143999999986,1107
57.85666399999987,13.733143999999989,1103
58.82866399999986,13.733143999999989,1140
58.50466399999986,13.085143999999987,1248
57.20866399999987,13.085143999999987,1142
56.88466399999987,13.085143999999987,1151
58.180663999999865,11.789143999999988,1161
62.06866399999984,16.973143999999984,1318
65.95666399999982,23.45314399999998,1864
59.800663999999855,14.381143999999988,1372
59.800663999999855,18.269143999999983,1124
63.04066399999984,15.029143999999986,1547
62.71666399999984,15.029143999999986,1538
62.39266399999984,16.325143999999987,1473
63.36466399999984,12.437143999999988,2459
68.5486639999998,17.621143999999987,2688
68.5486639999998,18.269143999999983,2621
68.5486639999998,18.917143999999983,2598
68.2246639999998,18.917143999999983,2554
59.800663999999855,13.085143999999987,1277
60.124663999999854,13.085143999999987,1319
59.47666399999986,16.973143999999984,1098
59.15266399999986,16.973143999999984,1107
56.56066399999988,13.733143999999989,879
60.124663999999854,17.621143999999987,1106
57.85666399999987,16.325143999999987,1035
58.180663999999865,16.325143999999987,997
58.180663999999865,15.677143999999986,1005
57.20866399999987,16.325143999999987,1110
57.53266399999987,15.677143999999986,1065
57.85666399999987,15.677143999999986,1036
44.89666399999994,23.45314399999998,2762
44.572663999999946,23.45314399999998,2827
44.89666399999994,24.74914399999998,2887
44.572663999999946,24.74914399999998,2908
44.572663999999946,24.101143999999977,2868
44.24866399999995,24.101143999999977,2890
47.48866399999993,25.397143999999983,2738
47.48866399999993,24.74914399999998,2668
47.16466399999993,24.74914399999998,2649
47.16466399999993,24.101143999999977,2604
47.48866399999993,22.15714399999998,2477
47.81266399999993,22.15714399999998,2641
47.16466399999993,22.15714399999998,2472
47.16466399999993,23.45314399999998,2811
47.16466399999993,22.805143999999984,2734
46.84066399999993,24.101143999999977,2431
45.86866399999994,27.34114399999998,2939
45.54466399999994,27.34114399999998,2919
45.54466399999994,27.989143999999985,2956
45.86866399999994,20.86114399999998,2780
45.86866399999994,21.50914399999997,2764
46.19266399999994,21.50914399999997,2720
46.19266399999994,27.34114399999998,2962
46.19266399999994,26.69314399999997,2968
46.516663999999935,26.69314399999997,2937
46.516663999999935,26.04514399999998,2932
47.48866399999993,22.805143999999984,2913
46.84066399999993,22.805143999999984,2449
45.54466399999994,22.15714399999998,2859
45.22066399999994,22.15714399999998,2881
44.89666399999994,22.15714399999998,2943
47.48866399999993,23.45314399999998,2806
46.516663999999935,24.101143999999977,2444
46.516663999999935,24.74914399999998,2669
45.86866399999994,24.101143999999977,2669
47.16466399999993,26.69314399999997,2899
47.16466399999993,27.34114399999998,3011
43.92466399999995,25.397143999999983,2954
44.24866399999995,24.74914399999998,2930
44.89666399999994,26.04514399999998,2828
44.89666399999994,26.69314399999997,2836
45.22066399999994,26.69314399999997,2853
45.22066399999994,27.34114399999998,2880
46.84066399999993,26.69314399999997,2954
47.48866399999993,26.69314399999997,2847
44.24866399999995,25.397143999999983,2878
43.92466399999995,26.04514399999998,2970
46.19266399999994,24.101143999999977,2491
44.572663999999946,25.397143999999983,2845
46.84066399999993,24.74914399999998,2798
46.516663999999935,21.50914399999997,2803
46.84066399999993,21.50914399999997,2544
44.572663999999946,26.69314399999997,2879
44.572663999999946,27.34114399999998,2914
44.89666399999994,27.34114399999998,2870
44.572663999999946,27.989143999999985,2935
44.24866399999995,27.989143999999985,2950
44.572663999999946,28.63714399999997,2990
45.86866399999994,22.15714399999998,2626
45.86866399999994,22.805143999999984,2594
44.24866399999995,23.45314399999998,2878
43.92466399999995,27.989143999999985,65535
46.84066399999993,27.34114399999998,3082
45.22066399999994,23.45314399999998,2728
45.54466399999994,23.45314399999998,2699
45.54466399999994,24.101143999999977,2699
45.22066399999994,24.101143999999977,2770
44.89666399999994,24.101143999999977,2825
46.19266399999994,22.15714399999998,2670
46.516663999999935,22.15714399999998,2765
45.22066399999994,21.50914399999997,2848
45.54466399999994,21.50914399999997,2768
45.54466399999994,20.86114399999998,2774
46.516663999999935,27.989143999999985,3084
46.19266399999994,27.989143999999985,3056
45.54466399999994,25.397143999999983,2726
45.22066399999994,25.397143999999983,2769
45.22066399999994,26.04514399999998,2879
47.81266399999993,24.101143999999977,3061
47.48866399999993,26.04514399999998,2832
47.81266399999993,26.04514399999998,2890
46.19266399999994,23.45314399999998,2489
45.86866399999994,23.45314399999998,2541
44.24866399999995,26.04514399999998,2858
45.22066399999994,27.989143999999985,2935
45.86866399999994,24.74914399999998,2702
46.516663999999935,25.397143999999983,2926
46.84066399999993,25.397143999999983,2870
46.19266399999994,26.04514399999998,2905
45.86866399999994,26.04514399999998,2764
43.92466399999995,23.45314399999998,2971
44.89666399999994,25.397143999999983,2835
46.19266399999994,20.86114399999998,2802
47.81266399999993,25.397143999999983,3147
44.572663999999946,22.805143999999984,2899
44.572663999999946,22.15714399999998,2965
46.516663999999935,23.45314399999998,2501
45.86866399999994,25.397143999999983,2692
44.24866399999995,27.34114399999998,3211
45.22066399999994,24.74914399999998,3051
45.54466399999994,22.805143999999984,2637
45.22066399999994,28.63714399999997,3061
44.89666399999994,28.63714399999997,3000
47.81266399999993,23.45314399999998,2768
46.19266399999994,24.74914399999998,2529
46.19266399999994,25.397143999999983,2584
43.92466399999995,24.101143999999977,3661
43.92466399999995,24.74914399999998,3674
47.81266399999993,26.69314399999997,3070
47.48866399999993,24.101143999999977,2989
46.84066399999993,26.04514399999998,3126
46.19266399999994,22.805143999999984,3087
47.48866399999993,27.34114399999998,3097
46.19266399999994,20.213143999999986,65535
45.54466399999994,26.04514399999998,2972
44.24866399999995,26.69314399999997,2886
45.86866399999994,27.989143999999985,3071
47.81266399999993,5.957143999999991,2266
