51.56399999999999,-0.4100000000000028,65535
51.887999999999984,-0.4100000000000028,65535
50.91599999999999,-1.7060000000000022,65535
51.23999999999999,-1.0580000000000025,65535
51.56399999999999,-1.0580000000000025,65535
51.23999999999999,-1.7060000000000022,65535
51.56399999999999,0.2379999999999968,65535
47.16466399999993,9.845143999999989,969
47.48866399999993,9.845143999999989,947
48.136663999999925,14.381143999999988,1060
47.81266399999993,13.085143999999987,998
47.16466399999993,11.141143999999988,1010
47.48866399999993,11.789143999999988,1157
48.136663999999925,16.325143999999987,1173
47.48866399999993,12.437143999999988,1013
48.136663999999925,15.677143999999986,1123
47.16466399999993,10.493143999999988,1018
47.16466399999993,9.197143999999987,943
48.136663999999925,13.733143999999989,1035
48.136663999999925,15.029143999999986,1064
47.81266399999993,16.973143999999984,1195
48.46066399999992,14.381143999999988,978
47.48866399999993,13.085143999999987,1015
47.16466399999993,13.085143999999987,1072
47.48866399999993,14.381143999999988,1231
47.48866399999993,13.733143999999989,1253
47.48866399999993,15.029143999999986,1242
46.516663999999935,13.733143999999989,1187
46.84066399999993,13.733143999999989,1156
46.84066399999993,13.085143999999987,1141
48.78466399999992,14.381143999999988,65535
47.16466399999993,15.677143999999986,1257
46.516663999999935,14.381143999999988,1194
46.84066399999993,14.381143999999988,1161
47.16466399999993,14.381143999999988,1325
46.516663999999935,15.029143999999986,1207
47.81266399999993,16.325143999999987,1192
47.16466399999993,15.029143999999986,1300
47.81266399999993,15.677143999999986,1438
47.48866399999993,15.677143999999986,1233
46.516663999999935,13.085143999999987,1454
46.84066399999993,12.437143999999988,1199
48.136663999999925,11.789143999999988,935
47.81266399999993,12.437143999999988,956
46.84066399999993,15.677143999999986,1283
46.516663999999935,15.677143999999986,1300
46.84066399999993,16.325143999999987,1304
47.81266399999993,14.381143999999988,1165
48.78466399999992,16.973143999999984,1132
48.136663999999925,16.973143999999984,1186
48.46066399999992,13.733143999999989,960
47.81266399999993,13.733143999999989,1154
50.08066399999991,8.54914399999999,831
48.46066399999992,9.845143999999989,902
51.05266399999991,7.25314399999999,819
51.37666399999991,7.25314399999999,811
51.37666399999991,6.60514399999999,815
48.46066399999992,16.325143999999987,1169
48.46066399999992,16.973143999999984,1147
48.78466399999992,16.325143999999987,1190
48.46066399999992,15.677143999999986,1138
48.78466399999992,15.677143999999986,1173
47.48866399999993,16.325143999999987,1202
47.16466399999993,16.325143999999987,1251
46.19266399999994,14.381143999999988,1252
45.86866399999994,15.677143999999986,1304
43.60066399999995,16.325143999999987,1720
45.54466399999994,14.381143999999988,1366
45.54466399999994,13.733143999999989,1389
48.136663999999925,13.085143999999987,1016
48.46066399999992,11.141143999999988,921
48.136663999999925,11.141143999999988,931
48.46066399999992,7.90114399999999,881
49.10866399999992,8.54914399999999,853
48.78466399999992,2.0691439999999925,944
49.10866399999992,7.25314399999999,889
52.0246639999999,7.90114399999999,812
47.16466399999993,11.789143999999988,1030
49.43266399999992,11.141143999999988,885
53.64466399999989,9.845143999999989,388
50.72866399999991,4.013143999999992,869
51.05266399999991,11.141143999999988,789
47.48866399999993,11.141143999999988,968
46.84066399999993,11.789143999999988,1622
46.516663999999935,11.141143999999988,1591
45.54466399999994,11.141143999999988,1485
46.19266399999994,11.141143999999988,1557
45.86866399999994,11.141143999999988,1541
44.572663999999946,11.141143999999988,1332
43.92466399999995,12.437143999999988,3965
45.54466399999994,12.437143999999988,1572
45.54466399999994,11.789143999999988,1535
48.78466399999992,15.029143999999986,1212
47.81266399999993,15.029143999999986,1110
47.81266399999993,11.141143999999988,949
50.40466399999991,18.917143999999983,1101
52.3486639999999,20.86114399999998,1311
54.616663999999886,18.269143999999983,1403
54.29266399999989,18.917143999999983,1409
49.10866399999992,14.381143999999988,65535
50.08066399999991,14.381143999999988,942
48.78466399999992,13.733143999999989,1736
52.6726639999999,13.085143999999987,855
52.3486639999999,13.085143999999987,853
53.96866399999989,12.437143999999988,543
54.29266399999989,12.437143999999988,772
47.48866399999993,8.54914399999999,938
47.81266399999993,17.621143999999987,1279
47.48866399999993,18.917143999999983,1340
47.48866399999993,20.86114399999998,1801
46.84066399999993,23.45314399999998,3358
44.572663999999946,26.04514399999998,3864
47.48866399999993,21.50914399999997,1835
47.81266399999993,21.50914399999997,1868
48.46066399999992,22.15714399999998,1417
47.48866399999993,16.973143999999984,65535
49.10866399999992,16.325143999999987,1087
49.75666399999992,18.269143999999983,1180
46.19266399999994,13.085143999999987,2303
41.98066399999996,12.437143999999988,2565
43.60066399999995,10.493143999999988,2726
45.54466399999994,9.197143999999987,1088
47.81266399999993,22.805143999999984,4099
49.75666399999992,22.805143999999984,1460
50.72866399999991,3.365143999999992,877
51.05266399999991,4.013143999999992,875
50.72866399999991,4.661143999999991,867
51.05266399999991,4.661143999999991,868
51.05266399999991,3.365143999999992,881
51.05266399999991,2.717143999999992,902
50.40466399999991,4.661143999999991,864
50.72866399999991,2.717143999999992,887
50.40466399999991,4.013143999999992,886
51.05266399999991,5.309143999999991,865
50.72866399999991,5.309143999999991,853
51.37666399999991,3.365143999999992,899
51.37666399999991,4.661143999999991,873
50.72866399999991,5.957143999999991,849
50.40466399999991,5.957143999999991,854
50.40466399999991,3.365143999999992,897
50.40466399999991,5.309143999999991,859
50.08066399999991,5.309143999999991,880
49.75666399999992,5.309143999999991,891
49.75666399999992,5.957143999999991,907
51.37666399999991,5.309143999999991,922
51.700663999999904,4.661143999999991,918
50.08066399999991,4.013143999999992,906
50.08066399999991,5.957143999999991,921
50.08066399999991,4.661143999999991,871
49.43266399999992,5.309143999999991,908
49.43266399999992,5.957143999999991,900
52.0246639999999,4.661143999999991,950
52.3486639999999,4.661143999999991,979
50.72866399999991,15.029143999999986,924
51.05266399999991,15.029143999999986,888
51.05266399999991,13.733143999999989,855
50.40466399999991,13.085143999999987,885
49.10866399999992,7.90114399999999,865
48.78466399999992,7.90114399999999,872
50.40466399999991,7.90114399999999,845
50.08066399999991,7.90114399999999,834
49.75666399999992,7.90114399999999,842
49.43266399999992,7.90114399999999,865
49.75666399999992,8.54914399999999,842
49.43266399999992,8.54914399999999,847
49.43266399999992,9.197143999999987,859
49.10866399999992,9.197143999999987,863
47.48866399999993,7.90114399999999,935
47.81266399999993,7.90114399999999,926
48.136663999999925,7.90114399999999,891
48.136663999999925,9.845143999999989,913
47.81266399999993,9.197143999999987,928
47.81266399999993,8.54914399999999,920
47.81266399999993,9.845143999999989,934
54.940663999999884,9.197143999999987,306
54.616663999999886,9.197143999999987,347
54.29266399999989,9.197143999999987,405
53.96866399999989,9.197143999999987,416
53.64466399999989,9.197143999999987,407
54.616663999999886,9.845143999999989,366
54.29266399999989,9.845143999999989,375
53.96866399999989,9.845143999999989,381
53.64466399999989,10.493143999999988,392
53.96866399999989,10.493143999999988,404
53.96866399999989,11.141143999999988,436
54.29266399999989,10.493143999999988,408
53.32066399999989,10.493143999999988,409
54.940663999999884,11.141143999999988,535
52.6726639999999,13.733143999999989,857
52.3486639999999,13.733143999999989,856
52.3486639999999,14.381143999999988,907
52.0246639999999,14.381143999999988,920
52.0246639999999,11.789143999999988,809
52.3486639999999,11.789143999999988,824
52.3486639999999,12.437143999999988,845
52.0246639999999,15.029143999999986,952
51.700663999999904,14.381143999999988,878
52.0246639999999,13.733143999999989,865
51.700663999999904,13.733143999999989,859
52.6726639999999,12.437143999999988,878
53.32066399999989,11.789143999999988,778
53.96866399999989,11.789143999999988,534
53.64466399999989,11.789143999999988,496
53.64466399999989,11.141143999999988,492
53.32066399999989,11.141143999999988,466
52.996663999999896,11.789143999999988,838
52.996663999999896,12.437143999999988,867
52.996663999999896,13.733143999999989,900
53.64466399999989,13.733143999999989,946
53.96866399999989,13.733143999999989,1008
54.29266399999989,13.085143999999987,877
53.96866399999989,13.085143999999987,899
53.32066399999989,13.733143999999989,947
52.0246639999999,13.085143999999987,846
51.700663999999904,13.085143999999987,831
52.996663999999896,14.381143999999988,1003
52.0246639999999,12.437143999999988,830
51.700663999999904,12.437143999999988,815
51.37666399999991,11.789143999999988,795
51.37666399999991,12.437143999999988,805
52.6726639999999,11.789143999999988,830
53.64466399999989,13.085143999999987,883
53.32066399999989,13.085143999999987,942
52.996663999999896,13.085143999999987,873
53.64466399999989,12.437143999999988,822
51.37666399999991,13.733143999999989,851
53.32066399999989,12.437143999999988,896
52.6726639999999,14.381143999999988,905
51.37666399999991,13.085143999999987,821
53.32066399999989,14.381143999999988,989
52.3486639999999,15.029143999999986,924
52.0246639999999,15.677143999999986,961
51.700663999999904,15.029143999999986,913
51.05266399999991,16.325143999999987,981
51.05266399999991,16.973143999999984,1021
51.700663999999904,15.677143999999986,950
51.37666399999991,15.677143999999986,936
51.37666399999991,16.325143999999987,972
50.72866399999991,13.085143999999987,845
50.72866399999991,12.437143999999988,850
51.05266399999991,13.085143999999987,835
51.05266399999991,14.381143999999988,865
50.40466399999991,12.437143999999988,872
50.40466399999991,11.789143999999988,878
50.08066399999991,12.437143999999988,911
50.72866399999991,11.789143999999988,895
51.05266399999991,12.437143999999988,826
50.72866399999991,14.381143999999988,964
51.37666399999991,14.381143999999988,856
50.72866399999991,13.733143999999989,875
50.40466399999991,14.381143999999988,939
51.37666399999991,15.029143999999986,885
55.26466399999988,9.197143999999987,267
55.58866399999988,8.54914399999999,0
55.91266399999988,8.54914399999999,6559
56.23666399999988,9.197143999999987,6567
56.23666399999988,10.493143999999988,6520
56.23666399999988,9.845143999999989,6507
55.91266399999988,9.845143999999989,6445
56.56066399999988,9.197143999999987,6577
56.56066399999988,8.54914399999999,6620
51.05266399999991,6.60514399999999,817
51.700663999999904,7.90114399999999,800
50.72866399999991,6.60514399999999,828
51.700663999999904,7.25314399999999,814
50.72866399999991,7.25314399999999,824
52.0246639999999,7.25314399999999,822
52.3486639999999,7.90114399999999,514
51.05266399999991,5.957143999999991,822
50.40466399999991,7.25314399999999,838
51.700663999999904,6.60514399999999,820
51.700663999999904,5.957143999999991,878
52.3486639999999,9.197143999999987,450
51.700663999999904,8.54914399999999,785
52.0246639999999,8.54914399999999,533
52.3486639999999,8.54914399999999,483
51.37666399999991,7.90114399999999,804
52.3486639999999,7.25314399999999,891
51.37666399999991,5.957143999999991,941
50.72866399999991,7.90114399999999,871
51.37666399999991,9.197143999999987,788
51.700663999999904,9.197143999999987,803
50.40466399999991,6.60514399999999,852
51.05266399999991,7.90114399999999,833
51.37666399999991,8.54914399999999,834
52.0246639999999,5.957143999999991,891
52.3486639999999,6.60514399999999,926
51.05266399999991,8.54914399999999,857
52.0246639999999,9.197143999999987,512
52.6726639999999,9.197143999999987,413
52.0246639999999,9.845143999999989,488
51.700663999999904,9.845143999999989,502
51.37666399999991,9.845143999999989,529
50.72866399999991,8.54914399999999,828
51.05266399999991,9.845143999999989,768
50.72866399999991,9.845143999999989,776
50.40466399999991,9.845143999999989,808
51.05266399999991,9.197143999999987,831
50.40466399999991,9.197143999999987,816
50.08066399999991,9.197143999999987,830
51.05266399999991,10.493143999999988,807
50.40466399999991,8.54914399999999,821
50.72866399999991,9.197143999999987,833
49.75666399999992,9.197143999999987,833
52.996663999999896,9.197143999999987,408
52.3486639999999,9.845143999999989,470
52.996663999999896,8.54914399999999,426
52.996663999999896,7.90114399999999,443
53.32066399999989,7.90114399999999,467
53.32066399999989,7.25314399999999,973
53.64466399999989,7.25314399999999,1018
52.996663999999896,10.493143999999988,451
52.6726639999999,10.493143999999988,497
52.6726639999999,9.845143999999989,448
53.32066399999989,9.845143999999989,392
53.32066399999989,9.197143999999987,402
53.64466399999989,8.54914399999999,432
53.32066399999989,8.54914399999999,440
52.6726639999999,8.54914399999999,446
52.0246639999999,10.493143999999988,514
52.0246639999999,11.141143999999988,821
51.700663999999904,11.141143999999988,830
52.6726639999999,7.25314399999999,1723
52.996663999999896,7.25314399999999,1698
52.6726639999999,7.90114399999999,764
53.64466399999989,7.90114399999999,491
52.996663999999896,11.141143999999988,881
52.6726639999999,11.141143999999988,892
52.3486639999999,10.493143999999988,487
52.996663999999896,9.845143999999989,401
51.700663999999904,10.493143999999988,855
51.37666399999991,10.493143999999988,769
51.700663999999904,11.789143999999988,801
52.3486639999999,11.141143999999988,825
51.37666399999991,11.141143999999988,775
51.05266399999991,11.789143999999988,807
49.10866399999992,11.141143999999988,905
48.78466399999992,11.141143999999988,923
48.46066399999992,11.789143999999988,945
49.43266399999992,11.789143999999988,888
50.08066399999991,11.789143999999988,896
49.75666399999992,12.437143999999988,917
49.10866399999992,11.789143999999988,909
48.78466399999992,12.437143999999988,923
48.46066399999992,12.437143999999988,945
49.10866399999992,12.437143999999988,912
48.78466399999992,13.085143999999987,938
48.136663999999925,12.437143999999988,965
47.81266399999993,11.789143999999988,948
48.136663999999925,10.493143999999988,914
47.81266399999993,10.493143999999988,967
48.78466399999992,10.493143999999988,909
47.48866399999993,10.493143999999988,963
48.46066399999992,10.493143999999988,906
49.43266399999992,13.085143999999987,938
48.46066399999992,13.085143999999987,948
49.43266399999992,10.493143999999988,886
49.75666399999992,9.845143999999989,856
49.75666399999992,10.493143999999988,871
50.40466399999991,11.141143999999988,920
50.08066399999991,11.141143999999988,887
50.72866399999991,11.141143999999988,853
49.75666399999992,11.141143999999988,878
48.78466399999992,11.789143999999988,959
50.40466399999991,10.493143999999988,832
50.08066399999991,9.845143999999989,853
50.08066399999991,10.493143999999988,873
49.43266399999992,12.437143999999988,926
49.75666399999992,11.789143999999988,886
49.10866399999992,13.085143999999987,997
50.72866399999991,10.493143999999988,827
49.10866399999992,10.493143999999988,905
48.78466399999992,9.845143999999989,880
48.46066399999992,8.54914399999999,888
48.46066399999992,9.197143999999987,904
48.78466399999992,9.197143999999987,872
48.78466399999992,8.54914399999999,863
50.08066399999991,7.25314399999999,869
49.75666399999992,6.60514399999999,878
49.43266399999992,6.60514399999999,890
49.10866399999992,6.60514399999999,902
49.43266399999992,7.25314399999999,878
49.75666399999992,7.25314399999999,884
49.10866399999992,5.957143999999991,923
48.78466399999992,7.25314399999999,887
50.08066399999991,6.60514399999999,875
47.48866399999993,9.197143999999987,936
48.136663999999925,8.54914399999999,908
48.136663999999925,9.197143999999987,922
47.81266399999993,7.25314399999999,912
49.43266399999992,9.845143999999989,884
49.10866399999992,9.845143999999989,871
53.64466399999989,14.381143999999988,955
50.08066399999991,13.085143999999987,969
49.75666399999992,13.085143999999987,995
45.86866399999994,9.197143999999987,1078
46.19266399999994,9.197143999999987,1064
46.516663999999935,8.54914399999999,1010
46.516663999999935,9.197143999999987,1059
46.19266399999994,8.54914399999999,1061
47.16466399999993,8.54914399999999,941
45.86866399999994,4.661143999999991,1076
46.84066399999993,9.845143999999989,972
45.22066399999994,5.957143999999991,1149
45.22066399999994,5.309143999999991,1132
45.86866399999994,5.957143999999991,1080
45.54466399999994,5.957143999999991,1133
44.89666399999994,4.661143999999991,1104
44.89666399999994,5.309143999999991,1116
44.572663999999946,4.661143999999991,1137
44.24866399999995,4.661143999999991,1150
43.92466399999995,4.661143999999991,1152
46.19266399999994,7.25314399999999,992
48.78466399999992,5.957143999999991,932
48.136663999999925,6.60514399999999,914
48.46066399999992,6.60514399999999,919
48.78466399999992,6.60514399999999,922
47.16466399999993,7.90114399999999,940
48.136663999999925,7.25314399999999,898
48.46066399999992,7.25314399999999,890
46.516663999999935,6.60514399999999,1007
46.84066399999993,6.60514399999999,979
46.84066399999993,7.25314399999999,961
46.516663999999935,5.957143999999991,1033
46.19266399999994,5.957143999999991,1019
46.84066399999993,8.54914399999999,951
46.84066399999993,7.90114399999999,950
45.86866399999994,5.309143999999991,1108
46.19266399999994,6.60514399999999,1009
45.86866399999994,6.60514399999999,1020
47.48866399999993,6.60514399999999,958
47.48866399999993,7.25314399999999,929
47.16466399999993,7.25314399999999,945
49.10866399999992,4.013143999999992,969
49.75666399999992,4.661143999999991,897
49.43266399999992,4.661143999999991,944
49.10866399999992,5.309143999999991,930
46.19266399999994,4.661143999999991,1075
46.84066399999993,9.197143999999987,954
46.19266399999994,5.309143999999991,1090
46.516663999999935,5.309143999999991,1079
45.54466399999994,6.60514399999999,1183
45.54466399999994,5.309143999999991,1099
43.60066399999995,4.013143999999992,1182
43.60066399999995,3.365143999999992,1216
42.62866399999996,2.717143999999992,1285
43.276663999999954,2.717143999999992,1249
45.54466399999994,4.661143999999991,1083
45.22066399999994,4.661143999999991,1123
47.16466399999993,5.309143999999991,982
47.16466399999993,5.957143999999991,967
46.19266399999994,7.90114399999999,987
49.75666399999992,2.717143999999992,947
49.10866399999992,2.717143999999992,954
48.78466399999992,2.717143999999992,982
45.86866399999994,3.365143999999992,1181
46.84066399999993,3.365143999999992,1104
46.516663999999935,3.365143999999992,1146
46.19266399999994,3.365143999999992,1171
47.16466399999993,6.60514399999999,952
49.10866399999992,3.365143999999992,983
45.54466399999994,4.013143999999992,1094
46.516663999999935,7.25314399999999,988
47.16466399999993,4.661143999999991,1018
46.84066399999993,4.661143999999991,1030
46.516663999999935,4.661143999999991,1056
46.84066399999993,5.957143999999991,1039
47.81266399999993,3.365143999999992,1068
47.48866399999993,4.013143999999992,1025
48.136663999999925,4.013143999999992,1062
47.81266399999993,4.013143999999992,1035
47.48866399999993,4.661143999999991,1017
47.16466399999993,3.365143999999992,1165
46.84066399999993,4.013143999999992,1164
48.46066399999992,5.957143999999991,949
46.19266399999994,2.717143999999992,1210
47.16466399999993,2.0691439999999925,1039
46.516663999999935,2.717143999999992,1174
46.84066399999993,2.717143999999992,1144
46.84066399999993,2.0691439999999925,1087
47.16466399999993,2.717143999999992,1066
44.572663999999946,5.309143999999991,1132
44.572663999999946,5.957143999999991,1183
44.89666399999994,6.60514399999999,1227
44.572663999999946,6.60514399999999,1269
43.60066399999995,5.309143999999991,1195
43.92466399999995,7.25314399999999,1294
43.60066399999995,6.60514399999999,1272
43.276663999999954,6.60514399999999,1257
43.276663999999954,5.957143999999991,1241
45.86866399999994,8.54914399999999,1085
45.54466399999994,8.54914399999999,1092
48.136663999999925,3.365143999999992,1050
48.46066399999992,3.365143999999992,1059
48.46066399999992,2.717143999999992,1031
47.48866399999993,5.309143999999991,996
46.516663999999935,9.845143999999989,1004
46.84066399999993,10.493143999999988,2291
47.81266399999993,5.309143999999991,1047
45.22066399999994,6.60514399999999,1183
46.19266399999994,4.013143999999992,1144
45.86866399999994,4.013143999999992,1107
45.22066399999994,4.013143999999992,1103
44.89666399999994,4.013143999999992,1161
46.84066399999993,5.309143999999991,1050
48.136663999999925,-1.8188560000000056,1045
48.136663999999925,0.1251439999999934,993
48.136663999999925,-0.5228560000000062,1009
47.48866399999993,-0.5228560000000062,1068
47.16466399999993,-1.8188560000000056,1134
47.48866399999993,0.7731439999999932,1026
47.16466399999993,0.1251439999999934,1037
45.86866399999994,7.25314399999999,1039
48.136663999999925,5.309143999999991,1077
49.10866399999992,4.661143999999991,1011
48.46066399999992,4.013143999999992,1070
48.136663999999925,4.661143999999991,1097
47.81266399999993,6.60514399999999,991
47.48866399999993,5.957143999999991,1007
48.136663999999925,5.957143999999991,1406
45.86866399999994,7.90114399999999,1007
46.516663999999935,7.90114399999999,977
49.43266399999992,3.365143999999992,987
49.43266399999992,4.013143999999992,979
48.136663999999925,2.717143999999992,1089
47.81266399999993,2.717143999999992,1101
47.48866399999993,2.717143999999992,1121
50.40466399999991,2.717143999999992,880
48.46066399999992,-4.410856000000004,1179
48.46066399999992,-3.7628560000000046,1144
48.46066399999992,-3.114856000000005,1114
48.46066399999992,-2.4668560000000053,1085
47.48866399999993,1.4211439999999929,1023
47.16466399999993,1.4211439999999929,1115
46.516663999999935,4.013143999999992,1164
43.60066399999995,4.661143999999991,1176
44.89666399999994,2.717143999999992,1398
45.22066399999994,2.717143999999992,1348
45.54466399999994,3.365143999999992,1227
45.22066399999994,3.365143999999992,1252
47.48866399999993,3.365143999999992,1091
46.19266399999994,9.845143999999989,1114
47.81266399999993,2.0691439999999925,994
47.48866399999993,2.0691439999999925,1057
45.86866399999994,2.717143999999992,1240
44.89666399999994,5.957143999999991,1187
45.22066399999994,1.4211439999999929,1259
44.89666399999994,1.4211439999999929,1286
44.89666399999994,2.0691439999999925,1370
43.276663999999954,2.0691439999999925,1289
43.60066399999995,1.4211439999999929,1237
48.78466399999992,4.661143999999991,1049
48.78466399999992,5.309143999999991,972
46.19266399999994,2.0691439999999925,1382
45.86866399999994,1.4211439999999929,1197
46.19266399999994,1.4211439999999929,1162
44.572663999999946,4.013143999999992,1227
44.89666399999994,3.365143999999992,1362
43.92466399999995,4.013143999999992,1196
44.24866399999995,4.013143999999992,1224
44.89666399999994,-0.5228560000000062,1098
45.54466399999994,0.1251439999999934,1103
46.516663999999935,0.1251439999999934,1037
44.572663999999946,2.0691439999999925,1378
49.75666399999992,4.013143999999992,953
43.92466399999995,3.365143999999992,1587
43.92466399999995,2.717143999999992,1548
44.24866399999995,3.365143999999992,1498
44.572663999999946,3.365143999999992,1377
49.10866399999992,0.1251439999999934,1040
49.43266399999992,0.7731439999999932,1034
49.43266399999992,-1.8188560000000056,1196
49.10866399999992,-1.170856000000006,1120
49.10866399999992,-0.5228560000000062,1060
49.10866399999992,0.7731439999999932,1083
49.10866399999992,1.4211439999999929,1007
47.81266399999993,-1.8188560000000056,1143
47.81266399999993,-2.4668560000000053,1168
47.81266399999993,-3.114856000000005,1181
48.136663999999925,-3.7628560000000046,1189
44.572663999999946,9.197143999999987,1256
44.89666399999994,8.54914399999999,1198
45.22066399999994,9.197143999999987,1099
45.54466399999994,10.493143999999988,1147
44.572663999999946,10.493143999999988,1318
44.89666399999994,10.493143999999988,1213
44.89666399999994,9.845143999999989,1121
48.46066399999992,5.309143999999991,1095
50.91599999999999,-1.0580000000000025,65535
51.23999999999999,-0.4100000000000028,65535
50.91599999999999,-0.4100000000000028,65535
51.23999999999999,-2.354000000000002,65535
51.56399999999999,-2.354000000000002,65535
51.56399999999999,-3.0020000000000016,65535
50.91599999999999,-2.354000000000002,65535
53.50799999999997,-3.0020000000000016,65535
53.183999999999976,-2.354000000000002,65535
53.183999999999976,-3.0020000000000016,65535
52.85999999999998,-2.354000000000002,65535
52.21199999999998,-1.0580000000000025,65535
51.887999999999984,-1.0580000000000025,65535
52.53599999999998,-1.0580000000000025,65535
52.53599999999998,-1.7060000000000022,65535
52.85999999999998,-1.7060000000000022,65535
53.50799999999997,-2.354000000000002,65535
52.85999999999998,-1.0580000000000025,65535
52.53599999999998,1.5339999999999965,65535
52.53599999999998,0.8859999999999966,65535
52.53599999999998,0.2379999999999968,65535
52.53599999999998,-0.4100000000000028,65535
53.50799999999997,-1.7060000000000022,65535
53.183999999999976,-1.7060000000000022,65535
53.183999999999976,-1.0580000000000025,65535
52.85999999999998,-0.4100000000000028,65535
51.887999999999984,-2.354000000000002,65535
52.21199999999998,-2.354000000000002,65535
55.77599999999996,-2.354000000000002,65535
53.83199999999997,-1.0580000000000025,65535
53.83199999999997,-1.7060000000000022,65535
55.127999999999965,-1.7060000000000022,65535
54.80399999999997,-1.7060000000000022,65535
54.47999999999997,-1.7060000000000022,65535
54.15599999999997,-1.0580000000000025,65535
52.21199999999998,-1.7060000000000022,65535
53.50799999999997,-1.0580000000000025,65535
55.77599999999996,-3.0020000000000016,65535
55.45199999999996,-1.7060000000000022,65535
57.07199999999995,-2.354000000000002,65535
56.74799999999996,-3.0020000000000016,65535
56.42399999999996,-3.0020000000000016,65535
56.09999999999996,-3.650000000000001,65535
50.91599999999999,-3.0020000000000016,65535
50.91599999999999,-3.650000000000001,65535
50.59199999999999,-3.650000000000001,65535
50.59199999999999,-4.298000000000001,65535
51.23999999999999,-3.0020000000000016,65535
50.268,-4.946000000000001,65535
55.77599999999996,-3.650000000000001,65535
55.77599999999996,-4.298000000000001,65535
52.21199999999998,-0.4100000000000028,65535
52.53599999999998,-2.354000000000002,65535
51.56399999999999,-1.7060000000000022,65535
51.56399999999999,-3.650000000000001,65535
51.887999999999984,-4.298000000000001,65535
51.56399999999999,-4.298000000000001,65535
51.887999999999984,-1.7060000000000022,65535
52.21199999999998,-3.0020000000000016,65535
51.23999999999999,0.2379999999999968,65535
50.91599999999999,0.2379999999999968,65535
52.21199999999998,0.2379999999999968,65535
53.83199999999997,-3.0020000000000016,65535
54.15599999999997,-3.0020000000000016,65535
54.47999999999997,-3.0020000000000016,65535
55.127999999999965,-3.650000000000001,65535
54.80399999999997,-3.0020000000000016,65535
53.83199999999997,-2.354000000000002,65535
54.15599999999997,-0.4100000000000028,65535
54.47999999999997,-1.0580000000000025,65535
53.83199999999997,-0.4100000000000028,65535
53.183999999999976,-3.650000000000001,65535
53.183999999999976,-4.298000000000001,65535
52.85999999999998,-3.0020000000000016,65535
52.53599999999998,-3.0020000000000016,65535
51.887999999999984,-3.0020000000000016,65535
51.23999999999999,0.8859999999999966,65535
51.887999999999984,0.2379999999999968,65535
52.21199999999998,0.8859999999999966,65535
51.887999999999984,-4.946000000000001,65535
52.53599999999998,-3.650000000000001,65535
52.21199999999998,-4.298000000000001,65535
53.183999999999976,-0.4100000000000028,65535
51.23999999999999,-3.650000000000001,65535
51.887999999999984,-3.650000000000001,65535
52.21199999999998,-3.650000000000001,65535
51.56399999999999,0.8859999999999966,65535
51.887999999999984,0.8859999999999966,65535
52.85999999999998,0.8859999999999966,65535
53.50799999999997,-0.4100000000000028,65535
56.09999999999996,-4.298000000000001,65535
56.74799999999996,-4.946000000000001,65535
56.74799999999996,-4.298000000000001,65535
56.42399999999996,-4.946000000000001,65535
56.42399999999996,-4.298000000000001,65535
56.09999999999996,-4.946000000000001,65535
57.39599999999995,-4.298000000000001,65535
57.39599999999995,-3.0020000000000016,65535
57.39599999999995,-3.650000000000001,65535
56.42399999999996,-3.650000000000001,65535
57.07199999999995,-3.650000000000001,65535
57.07199999999995,-4.298000000000001,65535
56.74799999999996,-3.650000000000001,65535
59.15266399999986,27.34114399999998,65535
59.47666399999986,26.69314399999997,65535
59.47666399999986,26.04514399999998,65535
59.15266399999986,26.04514399999998,65535
59.15266399999986,24.74914399999998,65535
59.15266399999986,25.397143999999983,65535
59.47666399999986,25.397143999999983,65535
58.50466399999986,26.69314399999997,65535
58.82866399999986,26.69314399999997,65535
57.85666399999987,26.04514399999998,65535
58.180663999999865,26.04514399999998,65535
58.180663999999865,26.69314399999997,65535
58.82866399999986,26.04514399999998,65535
58.50466399999986,25.397143999999983,65535
58.82866399999986,25.397143999999983,65535
58.82866399999986,24.74914399999998,65535
58.180663999999865,27.34114399999998,65535
57.85666399999987,27.34114399999998,65535
63.68866399999983,27.34114399999998,7077
60.124663999999854,24.74914399999998,3733
60.44866399999985,24.74914399999998,3702
60.44866399999985,25.397143999999983,3714
60.77266399999985,25.397143999999983,4425
61.09666399999985,26.04514399999998,4468
60.77266399999985,26.04514399999998,4476
60.77266399999985,26.69314399999997,4495
61.09666399999985,25.397143999999983,4459
61.09666399999985,26.69314399999997,7198
61.420663999999846,26.69314399999997,7220
61.74466399999984,27.34114399999998,7244
62.06866399999984,27.34114399999998,7269
62.39266399999984,27.34114399999998,7293
62.71666399999984,27.34114399999998,7257
64.01266399999983,27.34114399999998,7033
63.36466399999984,27.34114399999998,7145
63.04066399999984,27.34114399999998,7185
63.04066399999984,27.989143999999985,7200
64.33666399999983,27.989143999999985,4784
64.33666399999983,27.34114399999998,4729
64.66066399999983,27.34114399999998,4714
64.66066399999983,26.69314399999997,4659
64.98466399999982,25.397143999999983,3079
64.66066399999983,26.04514399999998,4640
64.98466399999982,26.04514399999998,4624
66.28066399999982,25.397143999999983,3251
65.95666399999982,24.74914399999998,2992
65.63266399999982,24.74914399999998,2996
65.63266399999982,25.397143999999983,3038
65.30866399999982,25.397143999999983,3059
66.60466399999981,25.397143999999983,3285
64.01266399999983,24.74914399999998,3216
64.01266399999983,24.101143999999977,3251
64.01266399999983,23.45314399999998,3275
63.68866399999983,23.45314399999998,3287
63.68866399999983,22.805143999999984,3312
63.68866399999983,26.04514399999998,5344
63.68866399999983,25.397143999999983,5310
63.68866399999983,26.69314399999997,7044
60.44866399999985,26.69314399999997,7829
64.01266399999983,27.989143999999985,7463
62.71666399999984,22.805143999999984,3434
62.39266399999984,22.805143999999984,3466
62.06866399999984,22.805143999999984,3495
62.06866399999984,23.45314399999998,3511
61.74466399999984,23.45314399999998,3523
61.420663999999846,23.45314399999998,3571
61.09666399999985,23.45314399999998,3612
61.09666399999985,24.101143999999977,3619
61.09666399999985,24.74914399999998,3653
60.77266399999985,24.74914399999998,3669
63.04066399999984,21.50914399999997,65535
63.04066399999984,22.15714399999998,65535
63.04066399999984,22.805143999999984,3398
62.39266399999984,26.04514399999998,7441
62.06866399999984,25.397143999999983,7490
61.74466399999984,25.397143999999983,7558
61.74466399999984,24.74914399999998,7595
61.74466399999984,24.101143999999977,3800
61.420663999999846,24.101143999999977,3755
62.39266399999984,26.69314399999997,7412
64.66066399999983,25.397143999999983,3148
64.66066399999983,24.74914399999998,3166
64.33666399999983,24.74914399999998,3177
63.36466399999984,22.805143999999984,3337
67.25266399999981,24.101143999999977,6865
66.92866399999981,24.101143999999977,6829
66.60466399999981,23.45314399999998,6798
66.28066399999982,23.45314399999998,6780
66.28066399999982,24.101143999999977,6762
65.95666399999982,24.101143999999977,2364
60.124663999999854,24.101143999999977,5247
60.124663999999854,23.45314399999998,6105
60.44866399999985,22.805143999999984,6164
60.77266399999985,27.34114399999998,4547
61.09666399999985,27.989143999999985,4577
61.09666399999985,28.63714399999997,4615
61.420663999999846,29.28514399999997,4650
61.74466399999984,29.933143999999977,4687
62.06866399999984,29.933143999999977,4713
62.39266399999984,29.933143999999977,4729
62.71666399999984,29.933143999999977,4753
61.420663999999846,22.805143999999984,5858
61.420663999999846,22.15714399999998,6566
61.09666399999985,22.15714399999998,5904
61.420663999999846,21.50914399999997,6699
62.39266399999984,27.989143999999985,65535
62.06866399999984,27.989143999999985,65535
61.420663999999846,27.34114399999998,65535
63.04066399999984,29.933143999999977,6692
63.68866399999983,29.28514399999997,8475
63.36466399999984,29.28514399999997,8455
63.36466399999984,29.933143999999977,8414
60.44866399999985,27.34114399999998,65535
61.74466399999984,29.28514399999997,65535
62.39266399999984,30.58114399999998,65535
62.71666399999984,31.229143999999977,65535
62.71666399999984,29.28514399999997,65535
63.04066399999984,28.63714399999997,65535
66.60466399999981,26.04514399999998,6106
66.60466399999981,26.69314399999997,6142
66.60466399999981,27.34114399999998,6165
62.71666399999984,26.04514399999998,7326
62.71666399999984,25.397143999999983,7295
63.04066399999984,25.397143999999983,7115
63.36466399999984,25.397143999999983,5752
62.71666399999984,23.45314399999998,7320
62.39266399999984,24.101143999999977,65535
62.71666399999984,22.15714399999998,65535
62.39266399999984,22.15714399999998,65535
62.39266399999984,21.50914399999997,65535
61.09666399999985,21.50914399999997,5934
60.77266399999985,22.805143999999984,3972
60.44866399999985,22.15714399999998,4002
60.77266399999985,23.45314399999998,3959
60.77266399999985,21.50914399999997,5073
60.77266399999985,22.15714399999998,5026
60.124663999999854,22.805143999999984,8119
60.44866399999985,24.101143999999977,5232
62.06866399999984,24.74914399999998,65535
50.72866399999991,16.325143999999987,1017
50.40466399999991,16.973143999999984,1034
50.72866399999991,16.973143999999984,1047
50.40466399999991,16.325143999999987,1032
50.08066399999991,16.973143999999984,1209
50.08066399999991,16.325143999999987,993
51.700663999999904,16.973143999999984,1008
51.37666399999991,16.973143999999984,1006
51.05266399999991,15.677143999999986,982
50.72866399999991,15.677143999999986,1024
51.05266399999991,17.621143999999987,1035
51.37666399999991,17.621143999999987,1064
51.700663999999904,17.621143999999987,1058
51.700663999999904,16.325143999999987,987
52.0246639999999,22.15714399999998,1378
52.0246639999999,21.50914399999997,1318
52.3486639999999,21.50914399999997,1314
52.0246639999999,20.86114399999998,1317
51.700663999999904,20.86114399999998,1313
51.37666399999991,21.50914399999997,1296
51.37666399999991,20.86114399999998,1278
51.05266399999991,20.86114399999998,1232
52.6726639999999,23.45314399999998,1506
52.3486639999999,22.805143999999984,1446
52.3486639999999,20.213143999999986,1333
52.0246639999999,20.213143999999986,1293
52.3486639999999,19.565143999999982,1392
52.6726639999999,19.565143999999982,1426
51.700663999999904,21.50914399999997,1355
51.700663999999904,22.15714399999998,1361
52.6726639999999,21.50914399999997,1353
52.996663999999896,21.50914399999997,1405
52.6726639999999,20.86114399999998,1343
52.6726639999999,22.15714399999998,1369
52.6726639999999,20.213143999999986,1420
52.996663999999896,19.565143999999982,1486
52.996663999999896,20.86114399999998,1376
52.996663999999896,20.213143999999986,1385
53.32066399999989,20.213143999999986,1433
51.37666399999991,20.213143999999986,1459
52.3486639999999,16.973143999999984,1052
52.0246639999999,16.973143999999984,1051
52.0246639999999,16.325143999999987,1031
52.0246639999999,17.621143999999987,1114
52.6726639999999,16.973143999999984,1091
52.996663999999896,16.973143999999984,1130
52.3486639999999,16.325143999999987,1023
52.3486639999999,15.677143999999986,984
51.700663999999904,18.269143999999983,1127
52.6726639999999,17.621143999999987,1076
52.3486639999999,17.621143999999987,1062
52.6726639999999,18.269143999999983,1146
52.3486639999999,18.269143999999983,1168
52.3486639999999,18.917143999999983,1207
52.996663999999896,17.621143999999987,1214
51.700663999999904,19.565143999999982,1208
51.700663999999904,18.917143999999983,1175
51.37666399999991,18.269143999999983,1081
58.82866399999986,9.197143999999987,1328
58.180663999999865,7.90114399999999,1421
58.50466399999986,8.54914399999999,1372
63.36466399999984,10.493143999999988,1543
63.36466399999984,11.141143999999988,1550
63.36466399999984,11.789143999999988,1585
63.68866399999983,11.789143999999988,1613
64.33666399999983,12.437143999999988,2014
64.66066399999983,12.437143999999988,2509
65.63266399999982,13.085143999999987,2166
65.95666399999982,13.085143999999987,2201
66.28066399999982,14.381143999999988,2271
65.95666399999982,13.733143999999989,2340
66.28066399999982,13.733143999999989,2249
65.30866399999982,13.085143999999987,2467
64.98466399999982,13.085143999999987,2101
64.01266399999983,11.789143999999988,1644
63.68866399999983,11.141143999999988,1581
59.800663999999855,10.493143999999988,1124
59.800663999999855,11.141143999999988,1107
60.124663999999854,11.141143999999988,1122
60.44866399999985,11.141143999999988,1135
60.124663999999854,11.789143999999988,1148
60.77266399999985,7.25314399999999,1384
60.77266399999985,6.60514399999999,1430
59.15266399999986,9.197143999999987,1210
59.47666399999986,9.197143999999987,1231
59.800663999999855,9.845143999999989,1126
59.47666399999986,11.141143999999988,1071
61.09666399999985,10.493143999999988,1245
60.77266399999985,10.493143999999988,1215
60.77266399999985,11.141143999999988,1170
62.06866399999984,9.197143999999987,1570
61.74466399999984,9.845143999999989,1516
61.420663999999846,9.845143999999989,1493
59.15266399999986,9.845143999999989,1190
59.47666399999986,9.845143999999989,1166
58.82866399999986,5.957143999999991,1605
58.180663999999865,7.25314399999999,1477
58.50466399999986,7.25314399999999,1510
58.50466399999986,6.60514399999999,1515
58.50466399999986,5.957143999999991,1573
58.82866399999986,8.54914399999999,1358
60.44866399999985,7.25314399999999,1358
60.44866399999985,7.90114399999999,1319
60.124663999999854,10.493143999999988,1156
60.44866399999985,9.197143999999987,1268
60.77266399999985,9.197143999999987,1280
60.77266399999985,8.54914399999999,1299
60.124663999999854,9.845143999999989,1535
60.44866399999985,10.493143999999988,1201
63.04066399999984,10.493143999999988,1494
62.06866399999984,9.845143999999989,1595
62.39266399999984,9.845143999999989,1603
62.71666399999984,9.845143999999989,1627
59.47666399999986,14.381143999999988,1120
59.47666399999986,13.733143999999989,1061
59.47666399999986,13.085143999999987,1037
59.800663999999855,12.437143999999988,1106
59.15266399999986,11.141143999999988,1035
59.15266399999986,14.381143999999988,1134
58.82866399999986,11.789143999999988,1015
58.50466399999986,12.437143999999988,945
58.180663999999865,12.437143999999988,938
57.85666399999987,11.789143999999988,889
62.71666399999984,7.90114399999999,1656
62.39266399999984,7.90114399999999,1613
62.06866399999984,8.54914399999999,1588
60.44866399999985,5.309143999999991,1504
60.44866399999985,5.957143999999991,1471
60.77266399999985,5.957143999999991,1460
62.39266399999984,11.141143999999988,1391
62.06866399999984,10.493143999999988,1346
61.74466399999984,11.141143999999988,1319
61.420663999999846,11.141143999999988,1273
61.09666399999985,11.141143999999988,1256
60.77266399999985,11.789143999999988,1233
63.04066399999984,11.141143999999988,1472
62.71666399999984,11.141143999999988,1415
62.39266399999984,10.493143999999988,1373
67.25266399999981,15.677143999999986,2390
67.25266399999981,15.029143999999986,2428
67.25266399999981,14.381143999999988,2456
66.92866399999981,15.029143999999986,2379
66.60466399999981,15.677143999999986,2357
64.01266399999983,11.141143999999988,1628
66.60466399999981,15.029143999999986,2420
54.29266399999989,18.269143999999983,1407
54.616663999999886,17.621143999999987,1368
53.96866399999989,18.269143999999983,1433
43.92466399999995,1.4211439999999929,1208
44.24866399999995,0.7731439999999932,1170
44.572663999999946,0.1251439999999934,1148
46.84066399999993,1.4211439999999929,1123
44.572663999999946,1.4211439999999929,1334
44.24866399999995,1.4211439999999929,1310
45.54466399999994,1.4211439999999929,1239
46.516663999999935,1.4211439999999929,1180
42.30466399999996,2.717143999999992,1411
44.24866399999995,2.717143999999992,1449
44.572663999999946,2.717143999999992,1483
43.92466399999995,2.0691439999999925,1272
42.30466399999996,2.0691439999999925,1467
42.62866399999996,2.0691439999999925,1313
42.62866399999996,1.4211439999999929,1318
42.95266399999996,1.4211439999999929,1283
43.276663999999954,1.4211439999999929,1264
46.516663999999935,-1.170856000000006,1200
46.19266399999994,-1.170856000000006,1225
45.86866399999994,-0.5228560000000062,1201
45.54466399999994,-0.5228560000000062,1182
48.46066399999992,1.4211439999999929,956
41.332663999999966,2.0691439999999925,1494
41.98066399999996,2.717143999999992,1453
48.46066399999992,-1.8188560000000056,1073
47.81266399999993,0.7731439999999932,1243
46.84066399999993,0.7731439999999932,1180
44.572663999999946,-1.170856000000006,1165
43.60066399999995,-1.170856000000006,1365
43.276663999999954,-1.8188560000000056,1455
43.276663999999954,0.1251439999999934,1370
42.95266399999996,0.1251439999999934,1347
43.276663999999954,-0.5228560000000062,1401
43.60066399999995,-0.5228560000000062,1390
47.81266399999993,-3.7628560000000046,1207
47.48866399999993,-2.4668560000000053,1184
47.81266399999993,-0.5228560000000062,1087
46.516663999999935,-1.8188560000000056,1228
48.136663999999925,-1.170856000000006,1105
47.48866399999993,-1.170856000000006,1136
45.22066399999994,8.54914399999999,1144
45.22066399999994,7.90114399999999,1155
46.19266399999994,-0.5228560000000062,1181
46.516663999999935,-0.5228560000000062,1163
48.78466399999992,-3.114856000000005,1144
50.72866399999991,2.0691439999999925,900
50.40466399999991,2.0691439999999925,918
40.36066399999997,-3.7628560000000046,2865
41.65666399999997,-1.170856000000006,2782
41.332663999999966,1.4211439999999929,2720
43.276663999999954,13.733143999999989,3910
42.95266399999996,13.733143999999989,3932
41.65666399999997,15.029143999999986,4016
40.68466399999997,17.621143999999987,4178
43.60066399999995,13.085143999999987,3903
41.65666399999997,12.437143999999988,2569
41.65666399999997,13.085143999999987,2588
41.98066399999996,13.085143999999987,2638
41.65666399999997,13.733143999999989,2640
41.332663999999966,13.733143999999989,2632
41.332663999999966,14.381143999999988,2789
41.00866399999997,14.381143999999988,2695
41.332663999999966,13.085143999999987,2614
41.00866399999997,15.029143999999986,2895
41.98066399999996,13.733143999999989,2837
42.30466399999996,14.381143999999988,2976
42.30466399999996,12.437143999999988,2577
42.62866399999996,12.437143999999988,2756
42.95266399999996,12.437143999999988,3041
42.30466399999996,11.789143999999988,2586
42.95266399999996,11.789143999999988,2796
42.62866399999996,11.789143999999988,2787
43.276663999999954,11.789143999999988,2850
42.95266399999996,13.085143999999987,3804
42.30466399999996,13.085143999999987,2863
43.276663999999954,13.085143999999987,3852
43.276663999999954,12.437143999999988,3859
42.62866399999996,11.141143999999988,2632
42.95266399999996,11.141143999999988,2675
42.95266399999996,10.493143999999988,2693
44.572663999999946,8.54914399999999,1204
44.89666399999994,7.90114399999999,1173
44.89666399999994,9.197143999999987,1212
44.24866399999995,7.90114399999999,1239
44.572663999999946,7.90114399999999,1181
43.92466399999995,7.90114399999999,1327
44.24866399999995,7.25314399999999,1236
44.89666399999994,7.25314399999999,1218
45.22066399999994,7.25314399999999,1168
45.54466399999994,7.90114399999999,1178
44.572663999999946,7.25314399999999,1462
52.996663999999896,22.805143999999984,1603
52.996663999999896,23.45314399999998,1593
51.37666399999991,22.15714399999998,1403
51.37666399999991,22.805143999999984,1457
50.08066399999991,20.213143999999986,1215
50.72866399999991,20.213143999999986,1164
50.40466399999991,20.213143999999986,1154
50.08066399999991,20.86114399999998,1345
50.08066399999991,21.50914399999997,1386
50.08066399999991,22.15714399999998,1405
50.08066399999991,22.805143999999984,1427
53.96866399999989,22.805143999999984,1827
53.64466399999989,23.45314399999998,1780
53.32066399999989,23.45314399999998,1737
50.40466399999991,19.565143999999982,1146
50.08066399999991,18.917143999999983,1202
50.08066399999991,18.269143999999983,1081
52.0246639999999,22.805143999999984,1427
52.0246639999999,23.45314399999998,1464
51.37666399999991,19.565143999999982,1314
51.05266399999991,19.565143999999982,1267
50.72866399999991,18.917143999999983,1125
50.72866399999991,19.565143999999982,1249
49.75666399999992,18.917143999999983,1218
50.40466399999991,18.269143999999983,1066
53.64466399999989,19.565143999999982,1417
53.96866399999989,18.917143999999983,1422
53.64466399999989,18.917143999999983,1426
53.64466399999989,20.213143999999986,1446
52.996663999999896,18.917143999999983,1206
52.996663999999896,18.269143999999983,1181
53.32066399999989,18.917143999999983,1365
50.72866399999991,17.621143999999987,1042
50.72866399999991,18.269143999999983,1052
52.6726639999999,16.325143999999987,1122
52.996663999999896,16.325143999999987,1108
52.996663999999896,15.677143999999986,1082
53.32066399999989,15.677143999999986,1019
53.32066399999989,15.029143999999986,998
53.64466399999989,15.029143999999986,990
53.96866399999989,15.029143999999986,963
52.6726639999999,18.917143999999983,1258
53.32066399999989,16.325143999999987,1074
52.6726639999999,15.029143999999986,960
51.05266399999991,22.805143999999984,1480
51.05266399999991,23.45314399999998,1521
50.72866399999991,22.15714399999998,1449
50.40466399999991,22.15714399999998,1472
51.05266399999991,22.15714399999998,1454
54.616663999999886,16.973143999999984,1347
54.29266399999989,16.325143999999987,1145
53.96866399999989,15.677143999999986,1098
50.72866399999991,21.50914399999997,1437
50.40466399999991,21.50914399999997,1424
50.40466399999991,17.621143999999987,1064
53.32066399999989,22.805143999999984,1598
53.64466399999989,22.15714399999998,1579
54.29266399999989,16.973143999999984,1320
50.72866399999991,20.86114399999998,1203
51.700663999999904,22.805143999999984,1477
51.05266399999991,21.50914399999997,1248
50.08066399999991,19.565143999999982,1230
52.0246639999999,18.917143999999983,8008
52.0246639999999,19.565143999999982,8001
53.64466399999989,18.269143999999983,1452
51.700663999999904,20.213143999999986,1446
53.32066399999989,19.565143999999982,1408
50.72866399999991,23.45314399999998,1626
50.72866399999991,22.805143999999984,1597
49.43266399999992,20.213143999999986,1379
49.75666399999992,21.50914399999997,1442
49.75666399999992,22.15714399999998,1439
49.43266399999992,22.15714399999998,1430
51.05266399999991,18.917143999999983,1376
51.05266399999991,18.269143999999983,1063
53.32066399999989,16.973143999999984,1310
53.64466399999989,16.973143999999984,1141
49.75666399999992,20.86114399999998,1388
50.40466399999991,22.805143999999984,8090
53.64466399999989,16.325143999999987,1084
53.96866399999989,20.86114399999998,1483
54.29266399999989,20.86114399999998,1528
53.96866399999989,21.50914399999997,1549
53.64466399999989,15.677143999999986,1037
53.96866399999989,20.213143999999986,1561
53.96866399999989,19.565143999999982,1454
54.29266399999989,19.565143999999982,1468
53.96866399999989,16.325143999999987,1184
53.64466399999989,17.621143999999987,1404
53.96866399999989,22.15714399999998,1622
53.64466399999989,21.50914399999997,1524
53.64466399999989,20.86114399999998,1477
52.6726639999999,15.677143999999986,1064
51.05266399999991,20.213143999999986,1456
54.940663999999884,24.101143999999977,3201
54.616663999999886,23.45314399999998,3145
54.29266399999989,23.45314399999998,3008
53.64466399999989,22.805143999999984,1585
53.96866399999989,16.973143999999984,1338
50.40466399999991,20.86114399999998,1303
53.32066399999989,18.269143999999983,1425
49.75666399999992,19.565143999999982,1255
50.40466399999991,23.45314399999998,1516
49.75666399999992,20.213143999999986,1357
49.43266399999992,19.565143999999982,1365
49.43266399999992,20.86114399999998,1355
53.96866399999989,17.621143999999987,2283
42.30466399999996,-1.8188560000000056,8319
41.98066399999996,-1.8188560000000056,8302
41.65666399999997,0.7731439999999932,8306
42.62866399999996,-1.8188560000000056,8434
42.95266399999996,-1.8188560000000056,8463
42.62866399999996,-3.114856000000005,8557
42.95266399999996,-2.4668560000000053,8535
42.62866399999996,-7.650856000000003,8899
42.30466399999996,-7.650856000000003,8959
42.30466399999996,-8.946856000000002,9095
42.30466399999996,-8.298856000000002,9069
41.98066399999996,-8.298856000000002,9058
42.30466399999996,-7.002856000000003,8841
42.62866399999996,-6.354856000000003,8783
42.30466399999996,-6.354856000000003,8738
42.62866399999996,-5.706856000000004,8238
41.98066399999996,-4.410856000000004,8192
42.30466399999996,-3.7628560000000046,8583
40.03666399999997,-0.5228560000000062,8286
39.38866399999998,-0.5228560000000062,8334
41.00866399999997,0.7731439999999932,8434
40.68466399999997,0.7731439999999932,8466
40.36066399999997,0.1251439999999934,8544
39.712663999999975,-0.5228560000000062,8443
38.41666399999998,-0.5228560000000062,8455
39.06466399999998,-0.5228560000000062,8577
38.74066399999998,-1.170856000000006,8463
41.332663999999966,0.7731439999999932,8494
41.65666399999997,2.717143999999992,8094
41.65666399999997,2.0691439999999925,8117
41.332663999999966,0.1251439999999934,8452
41.332663999999966,-0.5228560000000062,8396
41.65666399999997,-4.410856000000004,8166
40.03666399999997,-2.4668560000000053,8404
41.00866399999997,-4.410856000000004,8287
43.276663999999954,-5.706856000000004,8368
39.38866399999998,-1.170856000000006,8429
38.09266399999999,-1.170856000000006,8842
38.74066399999998,-0.5228560000000062,8605
37.76866399999999,-1.170856000000006,8907
39.06466399999998,-1.8188560000000056,8427
39.38866399999998,-3.114856000000005,8327
39.38866399999998,-2.4668560000000053,8383
39.06466399999998,-2.4668560000000053,8410
39.06466399999998,-3.114856000000005,8331
39.06466399999998,-3.7628560000000046,8305
38.74066399999998,-3.7628560000000046,8384
40.03666399999997,-3.7628560000000046,8283
40.03666399999997,-3.114856000000005,8483
40.03666399999997,-1.8188560000000056,8564
39.712663999999975,-1.8188560000000056,8529
39.712663999999975,-1.170856000000006,8465
40.36066399999997,-1.170856000000006,8484
40.68466399999997,-1.170856000000006,8462
41.00866399999997,-1.170856000000006,8450
41.332663999999966,-1.170856000000006,8290
43.276663999999954,-8.298856000000002,9059
42.95266399999996,-8.298856000000002,9027
41.65666399999997,-5.706856000000004,65535
41.98066399999996,-7.002856000000003,65535
41.98066399999996,-6.354856000000003,65535
41.332663999999966,-5.058856000000004,8405
43.276663999999954,-3.7628560000000046,8840
42.95266399999996,-4.410856000000004,8774
42.62866399999996,-4.410856000000004,8764
42.30466399999996,-4.410856000000004,8723
41.00866399999997,-5.706856000000004,8343
41.332663999999966,-1.8188560000000056,8236
40.68466399999997,-3.114856000000005,8190
41.00866399999997,-3.114856000000005,8241
41.00866399999997,-2.4668560000000053,8264
41.332663999999966,-2.4668560000000053,8317
40.68466399999997,-4.410856000000004,8227
40.36066399999997,-4.410856000000004,8311
40.68466399999997,-3.7628560000000046,8219
40.36066399999997,-3.114856000000005,8197
41.65666399999997,-2.4668560000000053,8334
38.09266399999999,-3.7628560000000046,8431
38.74066399999998,-3.114856000000005,8375
37.76866399999999,-3.7628560000000046,8488
39.712663999999975,-3.114856000000005,8319
38.41666399999998,-3.7628560000000046,8396
40.03666399999997,-4.410856000000004,65535
40.03666399999997,-5.058856000000004,65535
39.38866399999998,-6.354856000000003,65535
39.38866399999998,-7.002856000000003,65535
42.95266399999996,-3.114856000000005,8968
41.98066399999996,-1.170856000000006,8331
42.30466399999996,-2.4668560000000053,8372
41.65666399999997,-0.5228560000000062,8429
41.98066399999996,-0.5228560000000062,8266
41.65666399999997,0.1251439999999934,8293
41.98066399999996,0.1251439999999934,8315
37.76866399999999,-5.058856000000004,8367
36.79666399999999,-4.410856000000004,8426
38.74066399999998,-4.410856000000004,8323
37.12066399999999,-4.410856000000004,8400
37.44466399999999,-5.058856000000004,8924
37.44466399999999,-7.002856000000003,65535
37.44466399999999,-6.354856000000003,65535
37.44466399999999,-5.706856000000004,8600
39.712663999999975,-3.7628560000000046,8393
42.62866399999996,-8.946856000000002,65535
42.30466399999996,-5.706856000000004,8745
42.30466399999996,-5.058856000000004,8830
42.95266399999996,-5.706856000000004,8270
41.00866399999997,-5.058856000000004,8311
40.68466399999997,-5.058856000000004,8285
41.65666399999997,-5.058856000000004,65535
41.65666399999997,-6.354856000000003,65535
36.79666399999999,-6.354856000000003,65535
37.12066399999999,-5.706856000000004,8768
37.76866399999999,-5.706856000000004,8567
38.09266399999999,-4.410856000000004,8702
37.12066399999999,-5.058856000000004,8722
36.79666399999999,-5.058856000000004,8680
37.76866399999999,-4.410856000000004,65535
37.76866399999999,-7.002856000000003,65535
38.41666399999998,-6.354856000000003,65535
38.09266399999999,-6.354856000000003,65535
48.78466399999992,1.4211439999999929,1081
56.23666399999988,8.54914399999999,6610
55.58866399999988,9.197143999999987,6415
55.91266399999988,9.197143999999987,6556
55.26466399999988,10.493143999999988,594
55.91266399999988,12.437143999999988,729
55.58866399999988,11.789143999999988,6255
55.58866399999988,11.141143999999988,6296
55.26466399999988,11.789143999999988,6288
55.58866399999988,10.493143999999988,6411
55.58866399999988,13.085143999999987,686
56.88466399999987,9.845143999999989,6562
57.20866399999987,9.845143999999989,6597
56.56066399999988,9.845143999999989,6534
56.88466399999987,8.54914399999999,6649
54.940663999999884,9.845143999999989,7756
54.940663999999884,11.789143999999988,6512
55.91266399999988,13.085143999999987,744
56.23666399999988,13.733143999999989,788
55.91266399999988,13.733143999999989,791
56.23666399999988,14.381143999999988,811
56.23666399999988,15.029143999999986,852
56.23666399999988,15.677143999999986,907
56.56066399999988,14.381143999999988,868
56.88466399999987,14.381143999999988,838
56.23666399999988,13.085143999999987,736
56.56066399999988,13.085143999999987,816
56.88466399999987,12.437143999999988,853
57.20866399999987,12.437143999999988,869
57.53266399999987,12.437143999999988,884
56.88466399999987,15.029143999999986,864
56.56066399999988,15.677143999999986,924
56.88466399999987,15.677143999999986,943
56.88466399999987,16.325143999999987,958
55.91266399999988,11.789143999999988,6581
57.20866399999987,10.493143999999988,6784
49.43266399999992,1.4211439999999929,1023
49.75666399999992,0.7731439999999932,1062
49.75666399999992,2.0691439999999925,962
50.08066399999991,2.717143999999992,949
49.75666399999992,1.4211439999999929,1040
47.81266399999993,1.4211439999999929,1014
48.136663999999925,2.0691439999999925,1509
48.46066399999992,2.0691439999999925,1016
48.136663999999925,1.4211439999999929,986
48.78466399999992,0.1251439999999934,1154
48.46066399999992,0.1251439999999934,1109
47.81266399999993,0.1251439999999934,1117
46.84066399999993,-0.5228560000000062,1122
47.16466399999993,0.7731439999999932,1069
46.84066399999993,0.1251439999999934,1247
46.84066399999993,-1.170856000000006,1172
50.08066399999991,1.4211439999999929,937
50.08066399999991,2.0691439999999925,953
49.43266399999992,2.717143999999992,972
49.75666399999992,3.365143999999992,970
50.08066399999991,3.365143999999992,922
49.10866399999992,2.0691439999999925,1021
49.43266399999992,2.0691439999999925,966
48.78466399999992,0.7731439999999932,1142
48.78466399999992,-0.5228560000000062,1281
48.78466399999992,-1.170856000000006,1230
48.136663999999925,0.7731439999999932,1069
48.46066399999992,0.7731439999999932,1020
43.92466399999995,5.957143999999991,1353
44.24866399999995,5.957143999999991,1379
43.92466399999995,5.309143999999991,1210
42.95266399999996,2.717143999999992,1280
45.54466399999994,2.0691439999999925,1366
45.22066399999994,2.0691439999999925,1313
42.95266399999996,2.0691439999999925,1451
42.95266399999996,0.7731439999999932,1298
43.276663999999954,0.7731439999999932,1274
46.19266399999994,0.7731439999999932,1252
46.516663999999935,0.7731439999999932,1209
45.86866399999994,0.1251439999999934,1265
46.19266399999994,0.1251439999999934,1269
47.81266399999993,-1.170856000000006,1323
48.136663999999925,-2.4668560000000053,1247
47.48866399999993,-1.8188560000000056,1167
47.16466399999993,-1.170856000000006,1149
47.16466399999993,-0.5228560000000062,1131
46.84066399999993,-1.8188560000000056,1196
45.22066399999994,-0.5228560000000062,1188
44.89666399999994,0.1251439999999934,1154
45.22066399999994,0.7731439999999932,1177
45.54466399999994,0.7731439999999932,1205
45.86866399999994,0.7731439999999932,1242
45.22066399999994,0.1251439999999934,1187
44.89666399999994,0.7731439999999932,1194
43.92466399999995,-0.5228560000000062,1296
43.92466399999995,-1.170856000000006,1276
44.24866399999995,-1.170856000000006,1230
45.22066399999994,-1.170856000000006,1218
44.572663999999946,-0.5228560000000062,1123
44.24866399999995,0.1251439999999934,1170
44.572663999999946,0.7731439999999932,1277
43.276663999999954,-1.170856000000006,1432
42.95266399999996,-0.5228560000000062,1413
44.24866399999995,2.0691439999999925,1329
43.60066399999995,0.7731439999999932,1244
43.60066399999995,2.0691439999999925,1215
52.6726639999999,4.661143999999991,6601
52.6726639999999,5.309143999999991,6624
51.700663999999904,5.309143999999991,6569
52.0246639999999,5.309143999999991,6581
52.3486639999999,5.309143999999991,6597
51.37666399999991,4.013143999999992,6577
52.3486639999999,5.957143999999991,6591
52.0246639999999,6.60514399999999,6621
52.6726639999999,5.957143999999991,6608
52.996663999999896,5.957143999999991,6621
53.32066399999989,5.957143999999991,6615
52.996663999999896,6.60514399999999,6597
53.32066399999989,6.60514399999999,6589
52.6726639999999,6.60514399999999,6617
52.996663999999896,5.309143999999991,6636
59.15266399999986,24.101143999999977,65535
56.88466399999987,24.101143999999977,65535
56.88466399999987,23.45314399999998,65535
56.88466399999987,22.805143999999984,65535
57.20866399999987,24.74914399999998,65535
56.88466399999987,24.74914399999998,65535
56.56066399999988,24.74914399999998,65535
56.56066399999988,25.397143999999983,65535
56.56066399999988,24.101143999999977,65535
56.56066399999988,23.45314399999998,65535
56.56066399999988,26.04514399999998,65535
56.88466399999987,26.04514399999998,65535
57.20866399999987,25.397143999999983,65535
57.53266399999987,25.397143999999983,65535
56.23666399999988,26.04514399999998,65535
56.23666399999988,26.69314399999997,65535
55.91266399999988,26.69314399999997,65535
56.56066399999988,26.69314399999997,65535
56.56066399999988,27.34114399999998,65535
56.56066399999988,27.989143999999985,65535
56.23666399999988,27.989143999999985,65535
55.91266399999988,27.34114399999998,65535
56.56066399999988,22.805143999999984,65535
56.56066399999988,22.15714399999998,65535
56.56066399999988,21.50914399999997,65535
57.20866399999987,26.69314399999997,65535
39.06466399999998,-8.946856000000002,65535
38.41666399999998,-8.298856000000002,65535
45.86866399999994,11.789143999999988,1588
46.19266399999994,11.789143999999988,1575
46.19266399999994,10.493143999999988,1615
45.22066399999994,18.269143999999983,1452
45.22066399999994,18.917143999999983,1493
45.54466399999994,16.973143999999984,1355
45.22066399999994,17.621143999999987,1396
45.86866399999994,16.325143999999987,1316
45.54466399999994,18.917143999999983,1540
45.54466399999994,16.325143999999987,1330
45.54466399999994,18.269143999999983,1508
44.89666399999994,18.917143999999983,1690
46.19266399999994,16.973143999999984,1330
46.19266399999994,16.325143999999987,1321
45.86866399999994,16.973143999999984,1333
45.86866399999994,17.621143999999987,1428
46.19266399999994,15.677143999999986,1290
46.516663999999935,16.325143999999987,1316
45.54466399999994,15.677143999999986,1365
45.22066399999994,15.029143999999986,1401
45.54466399999994,15.029143999999986,1362
45.22066399999994,15.677143999999986,1426
44.572663999999946,15.677143999999986,1579
44.24866399999995,15.677143999999986,1600
43.92466399999995,16.325143999999987,1664
44.89666399999994,15.677143999999986,1543
45.54466399999994,17.621143999999987,1407
45.22066399999994,16.325143999999987,1385
46.516663999999935,16.973143999999984,1390
45.86866399999994,18.269143999999983,1600
43.92466399999995,15.677143999999986,1766
45.22066399999994,13.733143999999989,1410
47.48866399999993,19.565143999999982,1354
47.16466399999993,18.917143999999983,1353
47.81266399999993,18.917143999999983,1321
45.54466399999994,9.845143999999989,1099
45.22066399999994,9.845143999999989,1106
45.22066399999994,10.493143999999988,1158
45.86866399999994,9.845143999999989,1119
45.86866399999994,10.493143999999988,2358
48.78466399999992,21.50914399999997,1359
49.10866399999992,20.213143999999986,1313
49.10866399999992,18.917143999999983,1206
48.46066399999992,17.621143999999987,1227
49.43266399999992,17.621143999999987,1093
49.10866399999992,17.621143999999987,1237
48.136663999999925,18.269143999999983,1278
49.10866399999992,18.269143999999983,1167
49.43266399999992,18.269143999999983,1124
49.43266399999992,16.973143999999984,1070
49.75666399999992,16.973143999999984,1041
49.75666399999992,16.325143999999987,1019
50.08066399999991,15.677143999999986,971
50.08066399999991,15.029143999999986,941
49.43266399999992,18.917143999999983,1195
47.81266399999993,20.86114399999998,1435
48.136663999999925,20.86114399999998,1466
48.46066399999992,20.86114399999998,1373
48.46066399999992,21.50914399999997,1369
49.10866399999992,19.565143999999982,1255
48.136663999999925,17.621143999999987,1226
48.78466399999992,22.15714399999998,1375
48.78466399999992,20.86114399999998,1407
49.10866399999992,20.86114399999998,1334
48.78466399999992,18.269143999999983,1210
48.78466399999992,17.621143999999987,1229
49.10866399999992,21.50914399999997,1349
48.78466399999992,20.213143999999986,1415
48.46066399999992,20.213143999999986,1456
48.136663999999925,19.565143999999982,1605
48.46066399999992,19.565143999999982,1484
48.46066399999992,18.917143999999983,1294
48.46066399999992,18.269143999999983,1223
48.78466399999992,19.565143999999982,1320
48.78466399999992,18.917143999999983,1288
47.81266399999993,18.269143999999983,1314
49.10866399999992,22.15714399999998,1416
49.43266399999992,21.50914399999997,1414
48.136663999999925,18.917143999999983,1306
48.136663999999925,20.213143999999986,1625
52.636,-8.018,65535
52.312,-7.370000000000001,65535
52.312,-8.018,65535
52.636,-8.666,65535
51.988,-8.666,65535
51.988,-8.018,65535
52.96,-8.666,65535
52.96,-6.074000000000002,65535
53.28399999999999,-6.722000000000001,65535
53.60799999999999,-6.722000000000001,65535
53.60799999999999,-7.370000000000001,65535
53.60799999999999,-8.018,65535
54.25599999999999,-8.666,65535
53.93199999999999,-8.666,65535
53.93199999999999,-8.018,65535
52.312,-6.722000000000001,65535
52.636,-6.722000000000001,65535
53.93199999999999,-6.722000000000001,65535
54.25599999999999,-6.074000000000002,65535
53.28399999999999,-7.370000000000001,65535
52.96,-7.370000000000001,65535
52.312,-8.666,65535
52.96,-8.018,65535
52.636,-7.370000000000001,65535
52.96,-6.722000000000001,65535
51.988,-9.314,65535
52.312,-9.314,65535
54.579999999999984,-6.722000000000001,65535
54.579999999999984,-6.074000000000002,65535
53.28399999999999,-8.018,65535
53.28399999999999,-8.666,65535
53.28399999999999,-9.314,65535
53.93199999999999,-9.314,65535
54.25599999999999,-9.314,65535
53.60799999999999,-8.666,65535
53.60799999999999,-9.314,65535
49.43266399999992,14.381143999999988,995
49.75666399999992,14.381143999999988,955
49.75666399999992,15.029143999999986,946
49.75666399999992,13.733143999999989,957
50.08066399999991,13.733143999999989,949
49.75666399999992,15.677143999999986,1026
50.40466399999991,15.029143999999986,936
49.43266399999992,13.733143999999989,966
50.40466399999991,15.677143999999986,947
50.40466399999991,13.733143999999989,1063
46.19266399999994,15.029143999999986,1273
45.86866399999994,15.029143999999986,1318
45.86866399999994,14.381143999999988,1295
46.19266399999994,13.733143999999989,1382
45.86866399999994,13.733143999999989,1468
58.50466399999986,13.733143999999989,962
58.180663999999865,13.733143999999989,966
58.180663999999865,13.085143999999987,938
57.85666399999987,12.437143999999988,904
60.44866399999985,15.677143999999986,1187
60.124663999999854,15.677143999999986,1121
60.124663999999854,16.325143999999987,1159
59.800663999999855,16.325143999999987,1087
59.800663999999855,17.621143999999987,1066
59.47666399999986,18.269143999999983,1048
61.74466399999984,16.973143999999984,1198
61.420663999999846,16.973143999999984,1171
60.77266399999985,16.973143999999984,1123
65.63266399999982,22.15714399999998,2302
65.95666399999982,21.50914399999997,2262
65.63266399999982,20.86114399999998,2233
64.98466399999982,20.213143999999986,2165
64.66066399999983,20.213143999999986,2143
64.33666399999983,19.565143999999982,1837
64.01266399999983,19.565143999999982,1550
63.68866399999983,20.213143999999986,1503
64.66066399999983,18.917143999999983,2514
59.15266399999986,16.325143999999987,1023
59.15266399999986,15.029143999999986,1015
59.15266399999986,17.621143999999987,1040
57.53266399999987,14.381143999999988,864
57.53266399999987,15.029143999999986,884
61.09666399999985,14.381143999999988,1291
60.77266399999985,15.029143999999986,1242
60.44866399999985,15.029143999999986,1228
58.180663999999865,15.029143999999986,941
58.50466399999986,16.325143999999987,975
58.50466399999986,15.677143999999986,948
63.36466399999984,13.085143999999987,1535
63.04066399999984,14.381143999999988,1472
62.39266399999984,15.677143999999986,1394
63.36466399999984,13.733143999999989,1517
63.36466399999984,14.381143999999988,1489
62.71666399999984,15.677143999999986,1422
62.39266399999984,17.621143999999987,1256
59.800663999999855,15.677143999999986,1533
55.58866399999988,13.733143999999989,818
57.20866399999987,14.381143999999988,848
57.85666399999987,14.381143999999988,896
58.82866399999986,16.973143999999984,1032
58.82866399999986,16.325143999999987,1010
59.15266399999986,18.269143999999983,1044
60.44866399999985,17.621143999999987,1099
59.15266399999986,12.437143999999988,1003
59.15266399999986,13.085143999999987,1017
58.82866399999986,12.437143999999988,979
59.47666399999986,16.325143999999987,1049
58.82866399999986,14.381143999999988,1056
59.47666399999986,15.677143999999986,1038
63.36466399999984,18.917143999999983,1456
63.04066399999984,17.621143999999987,1411
62.71666399999984,17.621143999999987,1385
63.68866399999983,19.565143999999982,1489
62.39266399999984,16.973143999999984,1300
59.800663999999855,16.973143999999984,1075
59.47666399999986,17.621143999999987,1052
57.85666399999987,13.085143999999987,928
57.53266399999987,13.085143999999987,909
58.50466399999986,11.789143999999988,950
57.85666399999987,15.029143999999986,930
57.20866399999987,13.733143999999989,854
57.53266399999987,13.733143999999989,915
61.74466399999984,16.325143999999987,1294
61.420663999999846,16.325143999999987,1261
61.09666399999985,16.325143999999987,1250
61.09666399999985,16.973143999999984,1218
60.124663999999854,15.029143999999986,1396
66.60466399999981,20.86114399999998,2337
67.25266399999981,20.86114399999998,2405
67.90066399999981,20.213143999999986,2475
67.57666399999981,20.213143999999986,3100
59.800663999999855,15.029143999999986,1116
58.50466399999986,15.029143999999986,958
59.47666399999986,15.029143999999986,1101
60.44866399999985,16.325143999999987,1187
59.15266399999986,15.677143999999986,1045
57.85666399999987,13.733143999999989,956
58.82866399999986,13.733143999999989,1003
58.50466399999986,13.085143999999987,988
57.20866399999987,13.085143999999987,885
56.88466399999987,13.085143999999987,859
58.180663999999865,11.789143999999988,921
62.06866399999984,16.973143999999984,1289
65.95666399999982,23.45314399999998,2343
59.800663999999855,14.381143999999988,5411
59.800663999999855,18.269143999999983,1057
63.04066399999984,15.029143999999986,1440
62.71666399999984,15.029143999999986,1430
62.39266399999984,16.325143999999987,1363
63.36466399999984,12.437143999999988,1568
68.5486639999998,17.621143999999987,2688
68.5486639999998,18.269143999999983,2621
68.5486639999998,18.917143999999983,2598
68.2246639999998,18.917143999999983,2554
59.800663999999855,13.085143999999987,1120
60.124663999999854,13.085143999999987,1159
59.47666399999986,16.973143999999984,1061
59.15266399999986,16.973143999999984,1053
56.56066399999988,13.733143999999989,806
60.124663999999854,17.621143999999987,1076
57.85666399999987,16.325143999999987,1035
58.180663999999865,16.325143999999987,997
58.180663999999865,15.677143999999986,1005
57.20866399999987,16.325143999999987,1047
57.53266399999987,15.677143999999986,1065
57.85666399999987,15.677143999999986,1036
44.89666399999994,23.45314399999998,3925
44.572663999999946,23.45314399999998,3995
44.89666399999994,24.74914399999998,3964
44.572663999999946,24.74914399999998,4040
44.572663999999946,24.101143999999977,3972
44.24866399999995,24.101143999999977,4001
47.48866399999993,25.397143999999983,3773
47.48866399999993,24.74914399999998,3713
47.16466399999993,24.74914399999998,3635
47.16466399999993,24.101143999999977,3537
47.48866399999993,22.15714399999998,3843
47.81266399999993,22.15714399999998,3887
47.16466399999993,22.15714399999998,3646
47.16466399999993,23.45314399999998,3698
47.16466399999993,22.805143999999984,3704
46.84066399999993,24.101143999999977,3618
45.86866399999994,27.34114399999998,4068
45.54466399999994,27.34114399999998,4030
45.54466399999994,27.989143999999985,4055
45.86866399999994,20.86114399999998,3830
45.86866399999994,21.50914399999997,3838
46.19266399999994,21.50914399999997,3774
46.19266399999994,27.34114399999998,4046
46.19266399999994,26.69314399999997,4146
46.516663999999935,26.69314399999997,3911
46.516663999999935,26.04514399999998,3807
47.48866399999993,22.805143999999984,3765
46.84066399999993,22.805143999999984,3578
45.54466399999994,22.15714399999998,3903
45.22066399999994,22.15714399999998,3965
44.89666399999994,22.15714399999998,4383
47.48866399999993,23.45314399999998,3731
46.516663999999935,24.101143999999977,3457
46.516663999999935,24.74914399999998,3671
45.86866399999994,24.101143999999977,3620
47.16466399999993,26.69314399999997,3989
47.16466399999993,27.34114399999998,4044
43.92466399999995,25.397143999999983,4003
44.24866399999995,24.74914399999998,3910
44.89666399999994,26.04514399999998,3823
44.89666399999994,26.69314399999997,3884
45.22066399999994,26.69314399999997,3901
45.22066399999994,27.34114399999998,3987
46.84066399999993,26.69314399999997,3950
47.48866399999993,26.69314399999997,3943
44.24866399999995,25.397143999999983,3898
43.92466399999995,26.04514399999998,4019
46.19266399999994,24.101143999999977,3665
44.572663999999946,25.397143999999983,3892
46.84066399999993,24.74914399999998,3678
46.516663999999935,21.50914399999997,3778
46.84066399999993,21.50914399999997,3785
44.572663999999946,26.69314399999997,3876
44.572663999999946,27.34114399999998,3886
44.89666399999994,27.34114399999998,3986
44.572663999999946,27.989143999999985,3923
44.24866399999995,27.989143999999985,3938
44.572663999999946,28.63714399999997,3958
45.86866399999994,22.15714399999998,3699
45.86866399999994,22.805143999999984,3593
44.24866399999995,23.45314399999998,4093
43.92466399999995,27.989143999999985,65535
46.84066399999993,27.34114399999998,4180
45.22066399999994,23.45314399999998,3900
45.54466399999994,23.45314399999998,3703
45.54466399999994,24.101143999999977,3650
45.22066399999994,24.101143999999977,3874
44.89666399999994,24.101143999999977,3944
46.19266399999994,22.15714399999998,3830
46.516663999999935,22.15714399999998,3796
45.22066399999994,21.50914399999997,4070
45.54466399999994,21.50914399999997,4107
45.54466399999994,20.86114399999998,4020
46.516663999999935,27.989143999999985,4152
46.19266399999994,27.989143999999985,4124
45.54466399999994,25.397143999999983,3780
45.22066399999994,25.397143999999983,3787
45.22066399999994,26.04514399999998,3830
47.81266399999993,24.101143999999977,3826
47.48866399999993,26.04514399999998,3916
47.81266399999993,26.04514399999998,3938
46.19266399999994,23.45314399999998,3497
45.86866399999994,23.45314399999998,3546
44.24866399999995,26.04514399999998,3878
45.22066399999994,27.989143999999985,4036
45.86866399999994,24.74914399999998,3659
46.516663999999935,25.397143999999983,3851
46.84066399999993,25.397143999999983,3734
46.19266399999994,26.04514399999998,3822
45.86866399999994,26.04514399999998,3787
43.92466399999995,23.45314399999998,4258
44.89666399999994,25.397143999999983,3917
46.19266399999994,20.86114399999998,3819
47.81266399999993,25.397143999999983,3950
44.572663999999946,22.805143999999984,4263
44.572663999999946,22.15714399999998,4405
46.516663999999935,23.45314399999998,3636
45.86866399999994,25.397143999999983,3713
44.24866399999995,27.34114399999998,4651
45.22066399999994,24.74914399999998,3976
45.54466399999994,22.805143999999984,3666
45.22066399999994,28.63714399999997,4096
44.89666399999994,28.63714399999997,4035
47.81266399999993,23.45314399999998,3899
46.19266399999994,24.74914399999998,3745
46.19266399999994,25.397143999999983,3769
43.92466399999995,24.101143999999977,4221
43.92466399999995,24.74914399999998,4234
47.81266399999993,26.69314399999997,4165
47.48866399999993,24.101143999999977,3758
46.84066399999993,26.04514399999998,4566
46.19266399999994,22.805143999999984,3890
47.48866399999993,27.34114399999998,4118
46.19266399999994,20.213143999999986,65535
45.54466399999994,26.04514399999998,3922
44.24866399999995,26.69314399999997,3932
45.86866399999994,27.989143999999985,4202
47.81266399999993,5.957143999999991,6586
