51.56399999999999,-0.4100000000000028,65535
51.887999999999984,-0.4100000000000028,65535
50.91599999999999,-1.7060000000000022,65535
51.23999999999999,-1.0580000000000025,65535
51.56399999999999,-1.0580000000000025,65535
51.23999999999999,-1.7060000000000022,65535
51.56399999999999,0.2379999999999968,65535
47.16466399999993,9.845143999999989,377
47.48866399999993,9.845143999999989,358
48.136663999999925,14.381143999999988,815
47.81266399999993,13.085143999999987,369
47.16466399999993,11.141143999999988,528
47.48866399999993,11.789143999999988,470
48.136663999999925,16.325143999999987,865
47.48866399999993,12.437143999999988,358
48.136663999999925,15.677143999999986,879
47.16466399999993,10.493143999999988,438
47.16466399999993,9.197143999999987,341
48.136663999999925,13.733143999999989,775
48.136663999999925,15.029143999999986,919
47.81266399999993,16.973143999999984,895
48.46066399999992,14.381143999999988,3784
47.48866399999993,13.085143999999987,360
47.16466399999993,13.085143999999987,399
47.48866399999993,14.381143999999988,1111
47.48866399999993,13.733143999999989,1191
47.48866399999993,15.029143999999986,1122
46.516663999999935,13.733143999999989,888
46.84066399999993,13.733143999999989,861
46.84066399999993,13.085143999999987,809
48.78466399999992,14.381143999999988,65535
47.16466399999993,15.677143999999986,1069
46.516663999999935,14.381143999999988,921
46.84066399999993,14.381143999999988,1033
47.16466399999993,14.381143999999988,2405
46.516663999999935,15.029143999999986,979
47.81266399999993,16.325143999999987,892
47.16466399999993,15.029143999999986,1043
47.81266399999993,15.677143999999986,976
47.48866399999993,15.677143999999986,1010
46.516663999999935,13.085143999999987,2774
46.84066399999993,12.437143999999988,839
48.136663999999925,11.789143999999988,330
47.81266399999993,12.437143999999988,342
46.84066399999993,15.677143999999986,1245
46.516663999999935,15.677143999999986,1022
46.84066399999993,16.325143999999987,1185
47.81266399999993,14.381143999999988,1045
48.78466399999992,16.973143999999984,735
48.136663999999925,16.973143999999984,834
48.46066399999992,13.733143999999989,416
47.81266399999993,13.733143999999989,851
50.08066399999991,8.54914399999999,220
48.46066399999992,9.845143999999989,310
51.05266399999991,7.25314399999999,157
51.37666399999991,7.25314399999999,151
51.37666399999991,6.60514399999999,155
48.46066399999992,16.325143999999987,888
48.46066399999992,16.973143999999984,781
48.78466399999992,16.325143999999987,954
48.46066399999992,15.677143999999986,898
48.78466399999992,15.677143999999986,947
47.48866399999993,16.325143999999987,959
47.16466399999993,16.325143999999987,1134
46.19266399999994,14.381143999999988,942
45.86866399999994,15.677143999999986,984
43.60066399999995,16.325143999999987,2515
45.54466399999994,14.381143999999988,986
45.54466399999994,13.733143999999989,1070
48.136663999999925,13.085143999999987,363
48.46066399999992,11.141143999999988,321
48.136663999999925,11.141143999999988,335
48.46066399999992,7.90114399999999,263
49.10866399999992,8.54914399999999,243
48.78466399999992,2.0691439999999925,368
49.10866399999992,7.25314399999999,257
52.0246639999999,7.90114399999999,152
47.16466399999993,11.789143999999988,511
49.43266399999992,11.141143999999988,285
53.64466399999989,9.845143999999989,18
50.72866399999991,4.013143999999992,231
51.05266399999991,11.141143999999988,242
47.48866399999993,11.141143999999988,368
46.84066399999993,11.789143999999988,1502
46.516663999999935,11.141143999999988,1382
45.54466399999994,11.141143999999988,1288
46.19266399999994,11.141143999999988,1376
45.86866399999994,11.141143999999988,1363
44.572663999999946,11.141143999999988,1332
43.92466399999995,12.437143999999988,65535
45.54466399999994,12.437143999999988,1334
45.54466399999994,11.789143999999988,1315
48.78466399999992,15.029143999999986,1692
47.81266399999993,15.029143999999986,930
47.81266399999993,11.141143999999988,348
50.40466399999991,18.917143999999983,759
52.3486639999999,20.86114399999998,1004
54.616663999999886,18.269143999999983,1076
54.29266399999989,18.917143999999983,1050
49.10866399999992,14.381143999999988,65535
50.08066399999991,14.381143999999988,458
48.78466399999992,13.733143999999989,955
52.6726639999999,13.085143999999987,218
52.3486639999999,13.085143999999987,215
53.96866399999989,12.437143999999988,151
54.29266399999989,12.437143999999988,157
47.48866399999993,8.54914399999999,330
47.81266399999993,17.621143999999987,924
47.48866399999993,18.917143999999983,920
47.48866399999993,20.86114399999998,1436
46.84066399999993,23.45314399999998,1918
44.572663999999946,26.04514399999998,2367
47.48866399999993,21.50914399999997,1472
47.81266399999993,21.50914399999997,1868
48.46066399999992,22.15714399999998,997
47.48866399999993,16.973143999999984,65535
49.10866399999992,16.325143999999987,816
49.75666399999992,18.269143999999983,559
46.19266399999994,13.085143999999987,2303
41.98066399999996,12.437143999999988,2470
43.60066399999995,10.493143999999988,2726
45.54466399999994,9.197143999999987,450
47.81266399999993,22.805143999999984,1723
49.75666399999992,22.805143999999984,997
50.72866399999991,3.365143999999992,242
51.05266399999991,4.013143999999992,235
50.72866399999991,4.661143999999991,229
51.05266399999991,4.661143999999991,233
51.05266399999991,3.365143999999992,244
51.05266399999991,2.717143999999992,275
50.40466399999991,4.661143999999991,243
50.72866399999991,2.717143999999992,257
50.40466399999991,4.013143999999992,248
51.05266399999991,5.309143999999991,241
50.72866399999991,5.309143999999991,208
51.37666399999991,3.365143999999992,298
51.37666399999991,4.661143999999991,249
50.72866399999991,5.957143999999991,189
50.40466399999991,5.957143999999991,193
50.40466399999991,3.365143999999992,256
50.40466399999991,5.309143999999991,212
50.08066399999991,5.309143999999991,259
49.75666399999992,5.309143999999991,284
49.75666399999992,5.957143999999991,270
51.37666399999991,5.309143999999991,296
51.700663999999904,4.661143999999991,278
50.08066399999991,4.013143999999992,337
50.08066399999991,5.957143999999991,321
50.08066399999991,4.661143999999991,271
49.43266399999992,5.309143999999991,398
49.43266399999992,5.957143999999991,282
52.0246639999999,4.661143999999991,2229
52.3486639999999,4.661143999999991,2264
50.72866399999991,15.029143999999986,364
51.05266399999991,15.029143999999986,326
51.05266399999991,13.733143999999989,278
50.40466399999991,13.085143999999987,287
49.10866399999992,7.90114399999999,249
48.78466399999992,7.90114399999999,260
50.40466399999991,7.90114399999999,211
50.08066399999991,7.90114399999999,224
49.75666399999992,7.90114399999999,233
49.43266399999992,7.90114399999999,242
49.75666399999992,8.54914399999999,229
49.43266399999992,8.54914399999999,240
49.43266399999992,9.197143999999987,258
49.10866399999992,9.197143999999987,248
47.48866399999993,7.90114399999999,326
47.81266399999993,7.90114399999999,289
48.136663999999925,7.90114399999999,284
48.136663999999925,9.845143999999989,344
47.81266399999993,9.197143999999987,344
47.81266399999993,8.54914399999999,339
47.81266399999993,9.845143999999989,357
54.940663999999884,9.197143999999987,81
54.616663999999886,9.197143999999987,60
54.29266399999989,9.197143999999987,68
53.96866399999989,9.197143999999987,56
53.64466399999989,9.197143999999987,27
54.616663999999886,9.845143999999989,52
54.29266399999989,9.845143999999989,43
53.96866399999989,9.845143999999989,38
53.64466399999989,10.493143999999988,22
53.96866399999989,10.493143999999988,38
53.96866399999989,11.141143999999988,74
54.29266399999989,10.493143999999988,58
53.32066399999989,10.493143999999988,19
54.940663999999884,11.141143999999988,169
52.6726639999999,13.733143999999989,220
52.3486639999999,13.733143999999989,219
52.3486639999999,14.381143999999988,247
52.0246639999999,14.381143999999988,260
52.0246639999999,11.789143999999988,195
52.3486639999999,11.789143999999988,189
52.3486639999999,12.437143999999988,209
52.0246639999999,15.029143999999986,283
51.700663999999904,14.381143999999988,277
52.0246639999999,13.733143999999989,233
51.700663999999904,13.733143999999989,242
52.6726639999999,12.437143999999988,222
53.32066399999989,11.789143999999988,94
53.96866399999989,11.789143999999988,148
53.64466399999989,11.789143999999988,106
53.64466399999989,11.141143999999988,102
53.32066399999989,11.141143999999988,75
52.996663999999896,11.789143999999988,178
52.996663999999896,12.437143999999988,205
52.996663999999896,13.733143999999989,241
53.64466399999989,13.733143999999989,286
53.96866399999989,13.733143999999989,287
54.29266399999989,13.085143999999987,275
53.96866399999989,13.085143999999987,239
53.32066399999989,13.733143999999989,347
52.0246639999999,13.085143999999987,229
51.700663999999904,13.085143999999987,254
52.996663999999896,14.381143999999988,282
52.0246639999999,12.437143999999988,233
51.700663999999904,12.437143999999988,229
51.37666399999991,11.789143999999988,222
51.37666399999991,12.437143999999988,233
52.6726639999999,11.789143999999988,169
53.64466399999989,13.085143999999987,223
53.32066399999989,13.085143999999987,222
52.996663999999896,13.085143999999987,261
53.64466399999989,12.437143999999988,162
51.37666399999991,13.733143999999989,273
53.32066399999989,12.437143999999988,214
52.6726639999999,14.381143999999988,230
51.37666399999991,13.085143999999987,251
53.32066399999989,14.381143999999988,854
52.3486639999999,15.029143999999986,259
52.0246639999999,15.677143999999986,303
51.700663999999904,15.029143999999986,448
51.05266399999991,16.325143999999987,381
51.05266399999991,16.973143999999984,415
51.700663999999904,15.677143999999986,351
51.37666399999991,15.677143999999986,381
51.37666399999991,16.325143999999987,366
50.72866399999991,13.085143999999987,251
50.72866399999991,12.437143999999988,247
51.05266399999991,13.085143999999987,252
51.05266399999991,14.381143999999988,303
50.40466399999991,12.437143999999988,251
50.40466399999991,11.789143999999988,267
50.08066399999991,12.437143999999988,302
50.72866399999991,11.789143999999988,238
51.05266399999991,12.437143999999988,239
50.72866399999991,14.381143999999988,432
51.37666399999991,14.381143999999988,314
50.72866399999991,13.733143999999989,335
50.40466399999991,14.381143999999988,422
51.37666399999991,15.029143999999986,345
55.26466399999988,9.197143999999987,108
55.58866399999988,8.54914399999999,142
55.91266399999988,8.54914399999999,2239
56.23666399999988,9.197143999999987,2247
56.23666399999988,10.493143999999988,2200
56.23666399999988,9.845143999999989,2187
55.91266399999988,9.845143999999989,2125
56.56066399999988,9.197143999999987,2257
56.56066399999988,8.54914399999999,2300
51.05266399999991,6.60514399999999,163
51.700663999999904,7.90114399999999,140
50.72866399999991,6.60514399999999,168
51.700663999999904,7.25314399999999,150
50.72866399999991,7.25314399999999,176
52.0246639999999,7.25314399999999,145
52.3486639999999,7.90114399999999,118
51.05266399999991,5.957143999999991,184
50.40466399999991,7.25314399999999,199
51.700663999999904,6.60514399999999,182
51.700663999999904,5.957143999999991,188
52.3486639999999,9.197143999999987,87
51.700663999999904,8.54914399999999,133
52.0246639999999,8.54914399999999,109
52.3486639999999,8.54914399999999,98
51.37666399999991,7.90114399999999,144
52.3486639999999,7.25314399999999,138
51.37666399999991,5.957143999999991,161
50.72866399999991,7.90114399999999,180
51.37666399999991,9.197143999999987,145
51.700663999999904,9.197143999999987,133
50.40466399999991,6.60514399999999,226
51.05266399999991,7.90114399999999,173
51.37666399999991,8.54914399999999,161
52.0246639999999,5.957143999999991,231
52.3486639999999,6.60514399999999,146
51.05266399999991,8.54914399999999,224
52.0246639999999,9.197143999999987,129
52.6726639999999,9.197143999999987,53
52.0246639999999,9.845143999999989,128
51.700663999999904,9.845143999999989,152
51.37666399999991,9.845143999999989,166
50.72866399999991,8.54914399999999,191
51.05266399999991,9.845143999999989,228
50.72866399999991,9.845143999999989,248
50.40466399999991,9.845143999999989,268
51.05266399999991,9.197143999999987,200
50.40466399999991,9.197143999999987,238
50.08066399999991,9.197143999999987,228
51.05266399999991,10.493143999999988,222
50.40466399999991,8.54914399999999,208
50.72866399999991,9.197143999999987,199
49.75666399999992,9.197143999999987,245
52.996663999999896,9.197143999999987,33
52.3486639999999,9.845143999999989,107
52.996663999999896,8.54914399999999,41
52.996663999999896,7.90114399999999,53
53.32066399999989,7.90114399999999,70
53.32066399999989,7.25314399999999,133
53.64466399999989,7.25314399999999,178
52.996663999999896,10.493143999999988,42
52.6726639999999,10.493143999999988,96
52.6726639999999,9.845143999999989,88
53.32066399999989,9.845143999999989,5
53.32066399999989,9.197143999999987,0
53.64466399999989,8.54914399999999,50
53.32066399999989,8.54914399999999,45
52.6726639999999,8.54914399999999,71
52.0246639999999,10.493143999999988,152
52.0246639999999,11.141143999999988,224
51.700663999999904,11.141143999999988,280
52.6726639999999,7.25314399999999,425
52.996663999999896,7.25314399999999,399
52.6726639999999,7.90114399999999,75
53.64466399999989,7.90114399999999,101
52.996663999999896,11.141143999999988,84
52.6726639999999,11.141143999999988,164
52.3486639999999,10.493143999999988,127
52.996663999999896,9.845143999999989,41
51.700663999999904,10.493143999999988,198
51.37666399999991,10.493143999999988,182
51.700663999999904,11.789143999999988,201
52.3486639999999,11.141143999999988,159
51.37666399999991,11.141143999999988,227
51.05266399999991,11.789143999999988,231
49.10866399999992,11.141143999999988,292
48.78466399999992,11.141143999999988,311
48.46066399999992,11.789143999999988,327
49.43266399999992,11.789143999999988,288
50.08066399999991,11.789143999999988,275
49.75666399999992,12.437143999999988,327
49.10866399999992,11.789143999999988,318
48.78466399999992,12.437143999999988,376
48.46066399999992,12.437143999999988,342
49.10866399999992,12.437143999999988,327
48.78466399999992,13.085143999999987,405
48.136663999999925,12.437143999999988,348
47.81266399999993,11.789143999999988,337
48.136663999999925,10.493143999999988,365
47.81266399999993,10.493143999999988,377
48.78466399999992,10.493143999999988,286
47.48866399999993,10.493143999999988,411
48.46066399999992,10.493143999999988,315
49.43266399999992,13.085143999999987,356
48.46066399999992,13.085143999999987,393
49.43266399999992,10.493143999999988,281
49.75666399999992,9.845143999999989,280
49.75666399999992,10.493143999999988,307
50.40466399999991,11.141143999999988,261
50.08066399999991,11.141143999999988,274
50.72866399999991,11.141143999999988,249
49.75666399999992,11.141143999999988,290
48.78466399999992,11.789143999999988,373
50.40466399999991,10.493143999999988,253
50.08066399999991,9.845143999999989,275
50.08066399999991,10.493143999999988,293
49.43266399999992,12.437143999999988,320
49.75666399999992,11.789143999999988,322
49.10866399999992,13.085143999999987,352
50.72866399999991,10.493143999999988,236
49.10866399999992,10.493143999999988,267
48.78466399999992,9.845143999999989,265
48.46066399999992,8.54914399999999,268
48.46066399999992,9.197143999999987,289
48.78466399999992,9.197143999999987,253
48.78466399999992,8.54914399999999,245
50.08066399999991,7.25314399999999,226
49.75666399999992,6.60514399999999,256
49.43266399999992,6.60514399999999,264
49.10866399999992,6.60514399999999,278
49.43266399999992,7.25314399999999,254
49.75666399999992,7.25314399999999,244
49.10866399999992,5.957143999999991,315
48.78466399999992,7.25314399999999,270
50.08066399999991,6.60514399999999,254
47.48866399999993,9.197143999999987,332
48.136663999999925,8.54914399999999,320
48.136663999999925,9.197143999999987,348
47.81266399999993,7.25314399999999,298
49.43266399999992,9.845143999999989,284
49.10866399999992,9.845143999999989,260
53.64466399999989,14.381143999999988,307
50.08066399999991,13.085143999999987,914
49.75666399999992,13.085143999999987,550
45.86866399999994,9.197143999999987,444
46.19266399999994,9.197143999999987,414
46.516663999999935,8.54914399999999,872
46.516663999999935,9.197143999999987,859
46.19266399999994,8.54914399999999,401
47.16466399999993,8.54914399999999,331
45.86866399999994,4.661143999999991,1030
46.84066399999993,9.845143999999989,397
45.22066399999994,5.957143999999991,951
45.22066399999994,5.309143999999991,984
45.86866399999994,5.957143999999991,490
45.54466399999994,5.957143999999991,512
44.89666399999994,4.661143999999991,984
44.89666399999994,5.309143999999991,1106
44.572663999999946,4.661143999999991,1022
44.24866399999995,4.661143999999991,1077
43.92466399999995,4.661143999999991,1002
46.19266399999994,7.25314399999999,371
48.78466399999992,5.957143999999991,314
48.136663999999925,6.60514399999999,310
48.46066399999992,6.60514399999999,295
48.78466399999992,6.60514399999999,305
47.16466399999993,7.90114399999999,323
48.136663999999925,7.25314399999999,284
48.46066399999992,7.25314399999999,325
46.516663999999935,6.60514399999999,359
46.84066399999993,6.60514399999999,343
46.84066399999993,7.25314399999999,327
46.516663999999935,5.957143999999991,375
46.19266399999994,5.957143999999991,391
46.84066399999993,8.54914399999999,339
46.84066399999993,7.90114399999999,329
45.86866399999994,5.309143999999991,1002
46.19266399999994,6.60514399999999,364
45.86866399999994,6.60514399999999,513
47.48866399999993,6.60514399999999,331
47.48866399999993,7.25314399999999,309
47.16466399999993,7.25314399999999,321
49.10866399999992,4.013143999999992,922
49.75666399999992,4.661143999999991,1017
49.43266399999992,4.661143999999991,1012
49.10866399999992,5.309143999999991,894
46.19266399999994,4.661143999999991,982
46.84066399999993,9.197143999999987,384
46.19266399999994,5.309143999999991,1001
46.516663999999935,5.309143999999991,959
45.54466399999994,6.60514399999999,1048
45.54466399999994,5.309143999999991,990
43.60066399999995,4.013143999999992,1055
43.60066399999995,3.365143999999992,1032
42.62866399999996,2.717143999999992,1060
43.276663999999954,2.717143999999992,997
45.54466399999994,4.661143999999991,1059
45.22066399999994,4.661143999999991,1055
47.16466399999993,5.309143999999991,943
47.16466399999993,5.957143999999991,907
46.19266399999994,7.90114399999999,366
49.75666399999992,2.717143999999992,376
49.10866399999992,2.717143999999992,406
48.78466399999992,2.717143999999992,911
45.86866399999994,3.365143999999992,1219
46.84066399999993,3.365143999999992,1072
46.516663999999935,3.365143999999992,1146
46.19266399999994,3.365143999999992,1160
47.16466399999993,6.60514399999999,331
49.10866399999992,3.365143999999992,947
45.54466399999994,4.013143999999992,1099
46.516663999999935,7.25314399999999,371
47.16466399999993,4.661143999999991,990
46.84066399999993,4.661143999999991,1017
46.516663999999935,4.661143999999991,1041
46.84066399999993,5.957143999999991,921
47.81266399999993,3.365143999999992,495
47.48866399999993,4.013143999999992,1067
48.136663999999925,4.013143999999992,466
47.81266399999993,4.013143999999992,1041
47.48866399999993,4.661143999999991,1063
47.16466399999993,3.365143999999992,1107
46.84066399999993,4.013143999999992,1040
48.46066399999992,5.957143999999991,1001
46.19266399999994,2.717143999999992,1271
47.16466399999993,2.0691439999999925,1028
46.516663999999935,2.717143999999992,1405
46.84066399999993,2.717143999999992,1244
46.84066399999993,2.0691439999999925,1167
47.16466399999993,2.717143999999992,1065
44.572663999999946,5.309143999999991,1148
44.572663999999946,5.957143999999991,1043
44.89666399999994,6.60514399999999,900
44.572663999999946,6.60514399999999,1009
43.60066399999995,5.309143999999991,1027
43.92466399999995,7.25314399999999,1085
43.60066399999995,6.60514399999999,1106
43.276663999999954,6.60514399999999,1157
43.276663999999954,5.957143999999991,1066
45.86866399999994,8.54914399999999,455
45.54466399999994,8.54914399999999,462
48.136663999999925,3.365143999999992,458
48.46066399999992,3.365143999999992,432
48.46066399999992,2.717143999999992,782
47.48866399999993,5.309143999999991,1089
46.516663999999935,9.845143999999989,408
46.84066399999993,10.493143999999988,968
47.81266399999993,5.309143999999991,893
45.22066399999994,6.60514399999999,894
46.19266399999994,4.013143999999992,1121
45.86866399999994,4.013143999999992,1139
45.22066399999994,4.013143999999992,1277
44.89666399999994,4.013143999999992,1270
46.84066399999993,5.309143999999991,1050
48.136663999999925,-1.8188560000000056,1059
48.136663999999925,0.1251439999999934,1053
48.136663999999925,-0.5228560000000062,1032
47.48866399999993,-0.5228560000000062,1023
47.16466399999993,-1.8188560000000056,1066
47.48866399999993,0.7731439999999932,510
47.16466399999993,0.1251439999999934,1001
45.86866399999994,7.25314399999999,518
48.136663999999925,5.309143999999991,919
49.10866399999992,4.661143999999991,980
48.46066399999992,4.013143999999992,445
48.136663999999925,4.661143999999991,941
47.81266399999993,6.60514399999999,760
47.48866399999993,5.957143999999991,853
48.136663999999925,5.957143999999991,1406
45.86866399999994,7.90114399999999,402
46.516663999999935,7.90114399999999,349
49.43266399999992,3.365143999999992,1107
49.43266399999992,4.013143999999992,999
48.136663999999925,2.717143999999992,1090
47.81266399999993,2.717143999999992,1101
47.48866399999993,2.717143999999992,1121
50.40466399999991,2.717143999999992,280
48.46066399999992,-4.410856000000004,1298
48.46066399999992,-3.7628560000000046,1260
48.46066399999992,-3.114856000000005,1231
48.46066399999992,-2.4668560000000053,1150
47.48866399999993,1.4211439999999929,489
47.16466399999993,1.4211439999999929,1096
46.516663999999935,4.013143999999992,1046
43.60066399999995,4.661143999999991,1055
44.89666399999994,2.717143999999992,1028
45.22066399999994,2.717143999999992,1065
45.54466399999994,3.365143999999992,1211
45.22066399999994,3.365143999999992,1181
47.48866399999993,3.365143999999992,1066
46.19266399999994,9.845143999999989,893
47.81266399999993,2.0691439999999925,450
47.48866399999993,2.0691439999999925,1057
45.86866399999994,2.717143999999992,1240
44.89666399999994,5.957143999999991,997
45.22066399999994,1.4211439999999929,1017
44.89666399999994,1.4211439999999929,707
44.89666399999994,2.0691439999999925,958
43.276663999999954,2.0691439999999925,958
43.60066399999995,1.4211439999999929,882
48.78466399999992,4.661143999999991,999
48.78466399999992,5.309143999999991,1113
46.19266399999994,2.0691439999999925,1216
45.86866399999994,1.4211439999999929,1082
46.19266399999994,1.4211439999999929,1103
44.572663999999946,4.013143999999992,1231
44.89666399999994,3.365143999999992,1286
43.92466399999995,4.013143999999992,1112
44.24866399999995,4.013143999999992,1129
44.89666399999994,-0.5228560000000062,1040
45.54466399999994,0.1251439999999934,1021
46.516663999999935,0.1251439999999934,969
44.572663999999946,2.0691439999999925,799
49.75666399999992,4.013143999999992,1267
43.92466399999995,3.365143999999992,1116
43.92466399999995,2.717143999999992,1141
44.24866399999995,3.365143999999992,1167
44.572663999999946,3.365143999999992,1211
49.10866399999992,0.1251439999999934,463
49.43266399999992,0.7731439999999932,465
49.43266399999992,-1.8188560000000056,1099
49.10866399999992,-1.170856000000006,1065
49.10866399999992,-0.5228560000000062,489
49.10866399999992,0.7731439999999932,446
49.10866399999992,1.4211439999999929,410
47.81266399999993,-1.8188560000000056,1119
47.81266399999993,-2.4668560000000053,1168
47.81266399999993,-3.114856000000005,1181
48.136663999999925,-3.7628560000000046,1244
44.572663999999946,9.197143999999987,896
44.89666399999994,8.54914399999999,869
45.22066399999994,9.197143999999987,480
45.54466399999994,10.493143999999988,907
44.572663999999946,10.493143999999988,1318
44.89666399999994,10.493143999999988,973
44.89666399999994,9.845143999999989,900
48.46066399999992,5.309143999999991,974
50.91599999999999,-1.0580000000000025,65535
51.23999999999999,-0.4100000000000028,65535
50.91599999999999,-0.4100000000000028,65535
51.23999999999999,-2.354000000000002,65535
51.56399999999999,-2.354000000000002,65535
51.56399999999999,-3.0020000000000016,65535
50.91599999999999,-2.354000000000002,65535
53.50799999999997,-3.0020000000000016,65535
53.183999999999976,-2.354000000000002,65535
53.183999999999976,-3.0020000000000016,65535
52.85999999999998,-2.354000000000002,65535
52.21199999999998,-1.0580000000000025,65535
51.887999999999984,-1.0580000000000025,65535
52.53599999999998,-1.0580000000000025,65535
52.53599999999998,-1.7060000000000022,65535
52.85999999999998,-1.7060000000000022,65535
53.50799999999997,-2.354000000000002,65535
52.85999999999998,-1.0580000000000025,65535
52.53599999999998,1.5339999999999965,65535
52.53599999999998,0.8859999999999966,65535
52.53599999999998,0.2379999999999968,65535
52.53599999999998,-0.4100000000000028,65535
53.50799999999997,-1.7060000000000022,65535
53.183999999999976,-1.7060000000000022,65535
53.183999999999976,-1.0580000000000025,65535
52.85999999999998,-0.4100000000000028,65535
51.887999999999984,-2.354000000000002,65535
52.21199999999998,-2.354000000000002,65535
55.77599999999996,-2.354000000000002,65535
53.83199999999997,-1.0580000000000025,65535
53.83199999999997,-1.7060000000000022,65535
55.127999999999965,-1.7060000000000022,65535
54.80399999999997,-1.7060000000000022,65535
54.47999999999997,-1.7060000000000022,65535
54.15599999999997,-1.0580000000000025,65535
52.21199999999998,-1.7060000000000022,65535
53.50799999999997,-1.0580000000000025,65535
55.77599999999996,-3.0020000000000016,65535
55.45199999999996,-1.7060000000000022,65535
57.07199999999995,-2.354000000000002,65535
56.74799999999996,-3.0020000000000016,65535
56.42399999999996,-3.0020000000000016,65535
56.09999999999996,-3.650000000000001,65535
50.91599999999999,-3.0020000000000016,65535
50.91599999999999,-3.650000000000001,65535
50.59199999999999,-3.650000000000001,65535
50.59199999999999,-4.298000000000001,65535
51.23999999999999,-3.0020000000000016,65535
50.268,-4.946000000000001,65535
55.77599999999996,-3.650000000000001,65535
55.77599999999996,-4.298000000000001,65535
52.21199999999998,-0.4100000000000028,65535
52.53599999999998,-2.354000000000002,65535
51.56399999999999,-1.7060000000000022,65535
51.56399999999999,-3.650000000000001,65535
51.887999999999984,-4.298000000000001,65535
51.56399999999999,-4.298000000000001,65535
51.887999999999984,-1.7060000000000022,65535
52.21199999999998,-3.0020000000000016,65535
51.23999999999999,0.2379999999999968,65535
50.91599999999999,0.2379999999999968,65535
52.21199999999998,0.2379999999999968,65535
53.83199999999997,-3.0020000000000016,65535
54.15599999999997,-3.0020000000000016,65535
54.47999999999997,-3.0020000000000016,65535
55.127999999999965,-3.650000000000001,65535
54.80399999999997,-3.0020000000000016,65535
53.83199999999997,-2.354000000000002,65535
54.15599999999997,-0.4100000000000028,65535
54.47999999999997,-1.0580000000000025,65535
53.83199999999997,-0.4100000000000028,65535
53.183999999999976,-3.650000000000001,65535
53.183999999999976,-4.298000000000001,65535
52.85999999999998,-3.0020000000000016,65535
52.53599999999998,-3.0020000000000016,65535
51.887999999999984,-3.0020000000000016,65535
51.23999999999999,0.8859999999999966,65535
51.887999999999984,0.2379999999999968,65535
52.21199999999998,0.8859999999999966,65535
51.887999999999984,-4.946000000000001,65535
52.53599999999998,-3.650000000000001,65535
52.21199999999998,-4.298000000000001,65535
53.183999999999976,-0.4100000000000028,65535
51.23999999999999,-3.650000000000001,65535
51.887999999999984,-3.650000000000001,65535
52.21199999999998,-3.650000000000001,65535
51.56399999999999,0.8859999999999966,65535
51.887999999999984,0.8859999999999966,65535
52.85999999999998,0.8859999999999966,65535
53.50799999999997,-0.4100000000000028,65535
56.09999999999996,-4.298000000000001,65535
56.74799999999996,-4.946000000000001,65535
56.74799999999996,-4.298000000000001,65535
56.42399999999996,-4.946000000000001,65535
56.42399999999996,-4.298000000000001,65535
56.09999999999996,-4.946000000000001,65535
57.39599999999995,-4.298000000000001,65535
57.39599999999995,-3.0020000000000016,65535
57.39599999999995,-3.650000000000001,65535
56.42399999999996,-3.650000000000001,65535
57.07199999999995,-3.650000000000001,65535
57.07199999999995,-4.298000000000001,65535
56.74799999999996,-3.650000000000001,65535
59.15266399999986,27.34114399999998,65535
59.47666399999986,26.69314399999997,65535
59.47666399999986,26.04514399999998,65535
59.15266399999986,26.04514399999998,65535
59.15266399999986,24.74914399999998,65535
59.15266399999986,25.397143999999983,65535
59.47666399999986,25.397143999999983,65535
58.50466399999986,26.69314399999997,65535
58.82866399999986,26.69314399999997,65535
57.85666399999987,26.04514399999998,65535
58.180663999999865,26.04514399999998,65535
58.180663999999865,26.69314399999997,65535
58.82866399999986,26.04514399999998,65535
58.50466399999986,25.397143999999983,65535
58.82866399999986,25.397143999999983,65535
58.82866399999986,24.74914399999998,65535
58.180663999999865,27.34114399999998,65535
57.85666399999987,27.34114399999998,65535
63.68866399999983,27.34114399999998,65535
60.124663999999854,24.74914399999998,65535
60.44866399999985,24.74914399999998,65535
60.44866399999985,25.397143999999983,65535
60.77266399999985,25.397143999999983,65535
61.09666399999985,26.04514399999998,65535
60.77266399999985,26.04514399999998,65535
60.77266399999985,26.69314399999997,65535
61.09666399999985,25.397143999999983,65535
61.09666399999985,26.69314399999997,65535
61.420663999999846,26.69314399999997,65535
61.74466399999984,27.34114399999998,65535
62.06866399999984,27.34114399999998,65535
62.39266399999984,27.34114399999998,65535
62.71666399999984,27.34114399999998,65535
64.01266399999983,27.34114399999998,65535
63.36466399999984,27.34114399999998,65535
63.04066399999984,27.34114399999998,65535
63.04066399999984,27.989143999999985,65535
64.33666399999983,27.989143999999985,65535
64.33666399999983,27.34114399999998,65535
64.66066399999983,27.34114399999998,65535
64.66066399999983,26.69314399999997,4756
64.98466399999982,25.397143999999983,4519
64.66066399999983,26.04514399999998,4736
64.98466399999982,26.04514399999998,4720
66.28066399999982,25.397143999999983,65535
65.95666399999982,24.74914399999998,4432
65.63266399999982,24.74914399999998,4436
65.63266399999982,25.397143999999983,4478
65.30866399999982,25.397143999999983,4499
66.60466399999981,25.397143999999983,65535
64.01266399999983,24.74914399999998,4656
64.01266399999983,24.101143999999977,4691
64.01266399999983,23.45314399999998,4715
63.68866399999983,23.45314399999998,4727
63.68866399999983,22.805143999999984,4752
63.68866399999983,26.04514399999998,65535
63.68866399999983,25.397143999999983,65535
63.68866399999983,26.69314399999997,65535
60.44866399999985,26.69314399999997,65535
64.01266399999983,27.989143999999985,65535
62.71666399999984,22.805143999999984,65535
62.39266399999984,22.805143999999984,65535
62.06866399999984,22.805143999999984,65535
62.06866399999984,23.45314399999998,65535
61.74466399999984,23.45314399999998,65535
61.420663999999846,23.45314399999998,65535
61.09666399999985,23.45314399999998,65535
61.09666399999985,24.101143999999977,65535
61.09666399999985,24.74914399999998,65535
60.77266399999985,24.74914399999998,65535
63.04066399999984,21.50914399999997,65535
63.04066399999984,22.15714399999998,65535
63.04066399999984,22.805143999999984,65535
62.39266399999984,26.04514399999998,65535
62.06866399999984,25.397143999999983,65535
61.74466399999984,25.397143999999983,65535
61.74466399999984,24.74914399999998,65535
61.74466399999984,24.101143999999977,65535
61.420663999999846,24.101143999999977,65535
62.39266399999984,26.69314399999997,65535
64.66066399999983,25.397143999999983,4588
64.66066399999983,24.74914399999998,4606
64.33666399999983,24.74914399999998,4617
63.36466399999984,22.805143999999984,4777
67.25266399999981,24.101143999999977,3866
66.92866399999981,24.101143999999977,3830
66.60466399999981,23.45314399999998,3799
66.28066399999982,23.45314399999998,3781
66.28066399999982,24.101143999999977,3763
65.95666399999982,24.101143999999977,1885
60.124663999999854,24.101143999999977,65535
60.124663999999854,23.45314399999998,65535
60.44866399999985,22.805143999999984,65535
60.77266399999985,27.34114399999998,65535
61.09666399999985,27.989143999999985,65535
61.09666399999985,28.63714399999997,65535
61.420663999999846,29.28514399999997,65535
61.74466399999984,29.933143999999977,65535
62.06866399999984,29.933143999999977,65535
62.39266399999984,29.933143999999977,65535
62.71666399999984,29.933143999999977,65535
61.420663999999846,22.805143999999984,65535
61.420663999999846,22.15714399999998,65535
61.09666399999985,22.15714399999998,65535
61.420663999999846,21.50914399999997,65535
62.39266399999984,27.989143999999985,65535
62.06866399999984,27.989143999999985,65535
61.420663999999846,27.34114399999998,65535
63.04066399999984,29.933143999999977,65535
63.68866399999983,29.28514399999997,65535
63.36466399999984,29.28514399999997,65535
63.36466399999984,29.933143999999977,65535
60.44866399999985,27.34114399999998,65535
61.74466399999984,29.28514399999997,65535
62.39266399999984,30.58114399999998,65535
62.71666399999984,31.229143999999977,65535
62.71666399999984,29.28514399999997,65535
63.04066399999984,28.63714399999997,65535
66.60466399999981,26.04514399999998,65535
66.60466399999981,26.69314399999997,65535
66.60466399999981,27.34114399999998,65535
62.71666399999984,26.04514399999998,65535
62.71666399999984,25.397143999999983,65535
63.04066399999984,25.397143999999983,65535
63.36466399999984,25.397143999999983,65535
62.71666399999984,23.45314399999998,65535
62.39266399999984,24.101143999999977,65535
62.71666399999984,22.15714399999998,65535
62.39266399999984,22.15714399999998,65535
62.39266399999984,21.50914399999997,65535
61.09666399999985,21.50914399999997,65535
60.77266399999985,22.805143999999984,65535
60.44866399999985,22.15714399999998,65535
60.77266399999985,23.45314399999998,65535
60.77266399999985,21.50914399999997,65535
60.77266399999985,22.15714399999998,65535
60.124663999999854,22.805143999999984,65535
60.44866399999985,24.101143999999977,65535
62.06866399999984,24.74914399999998,65535
50.72866399999991,16.325143999999987,394
50.40466399999991,16.973143999999984,482
50.72866399999991,16.973143999999984,444
50.40466399999991,16.325143999999987,767
50.08066399999991,16.973143999999984,796
50.08066399999991,16.325143999999987,792
51.700663999999904,16.973143999999984,420
51.37666399999991,16.973143999999984,434
51.05266399999991,15.677143999999986,461
50.72866399999991,15.677143999999986,449
51.05266399999991,17.621143999999987,420
51.37666399999991,17.621143999999987,463
51.700663999999904,17.621143999999987,503
51.700663999999904,16.325143999999987,339
52.0246639999999,22.15714399999998,1018
52.0246639999999,21.50914399999997,1014
52.3486639999999,21.50914399999997,1014
52.0246639999999,20.86114399999998,1008
51.700663999999904,20.86114399999998,1052
51.37666399999991,21.50914399999997,1061
51.37666399999991,20.86114399999998,1055
51.05266399999991,20.86114399999998,1001
52.6726639999999,23.45314399999998,1267
52.3486639999999,22.805143999999984,1209
52.3486639999999,20.213143999999986,1032
52.0246639999999,20.213143999999986,1043
52.3486639999999,19.565143999999982,1087
52.6726639999999,19.565143999999982,1179
51.700663999999904,21.50914399999997,1028
51.700663999999904,22.15714399999998,1043
52.6726639999999,21.50914399999997,1053
52.996663999999896,21.50914399999997,1140
52.6726639999999,20.86114399999998,1045
52.6726639999999,22.15714399999998,1129
52.6726639999999,20.213143999999986,1179
52.996663999999896,19.565143999999982,1230
52.996663999999896,20.86114399999998,1078
52.996663999999896,20.213143999999986,1087
53.32066399999989,20.213143999999986,1120
51.37666399999991,20.213143999999986,941
52.3486639999999,16.973143999999984,788
52.0246639999999,16.973143999999984,776
52.0246639999999,16.325143999999987,745
52.0246639999999,17.621143999999987,774
52.6726639999999,16.973143999999984,827
52.996663999999896,16.973143999999984,814
52.3486639999999,16.325143999999987,844
52.3486639999999,15.677143999999986,857
51.700663999999904,18.269143999999983,818
52.6726639999999,17.621143999999987,955
52.3486639999999,17.621143999999987,814
52.6726639999999,18.269143999999983,937
52.3486639999999,18.269143999999983,859
52.3486639999999,18.917143999999983,904
52.996663999999896,17.621143999999987,863
51.700663999999904,19.565143999999982,900
51.700663999999904,18.917143999999983,866
51.37666399999991,18.269143999999983,973
58.82866399999986,9.197143999999987,1585
58.180663999999865,7.90114399999999,1673
58.50466399999986,8.54914399999999,1629
63.36466399999984,10.493143999999988,1717
63.36466399999984,11.141143999999988,1789
63.36466399999984,11.789143999999988,2433
63.68866399999983,11.789143999999988,1852
64.33666399999983,12.437143999999988,2014
64.66066399999983,12.437143999999988,2509
65.63266399999982,13.085143999999987,2166
65.95666399999982,13.085143999999987,2201
66.28066399999982,14.381143999999988,2271
65.95666399999982,13.733143999999989,2340
66.28066399999982,13.733143999999989,2249
65.30866399999982,13.085143999999987,2467
64.98466399999982,13.085143999999987,2101
64.01266399999983,11.789143999999988,1880
63.68866399999983,11.141143999999988,1822
59.800663999999855,10.493143999999988,1292
59.800663999999855,11.141143999999988,1282
60.124663999999854,11.141143999999988,1265
60.44866399999985,11.141143999999988,1285
60.124663999999854,11.789143999999988,1250
60.77266399999985,7.25314399999999,1630
60.77266399999985,6.60514399999999,1676
59.15266399999986,9.197143999999987,1554
59.47666399999986,9.197143999999987,1529
59.800663999999855,9.845143999999989,1306
59.47666399999986,11.141143999999988,1255
61.09666399999985,10.493143999999988,1419
60.77266399999985,10.493143999999988,1357
60.77266399999985,11.141143999999988,1353
62.06866399999984,9.197143999999987,1570
61.74466399999984,9.845143999999989,1516
61.420663999999846,9.845143999999989,1493
59.15266399999986,9.845143999999989,1370
59.47666399999986,9.845143999999989,1346
58.82866399999986,5.957143999999991,1845
58.180663999999865,7.25314399999999,1720
58.50466399999986,7.25314399999999,1754
58.50466399999986,6.60514399999999,1759
58.50466399999986,5.957143999999991,1815
58.82866399999986,8.54914399999999,1615
60.44866399999985,7.25314399999999,1602
60.44866399999985,7.90114399999999,1559
60.124663999999854,10.493143999999988,1306
60.44866399999985,9.197143999999987,1506
60.77266399999985,9.197143999999987,1518
60.77266399999985,8.54914399999999,1539
60.124663999999854,9.845143999999989,1414
60.44866399999985,10.493143999999988,1321
63.04066399999984,10.493143999999988,1686
62.06866399999984,9.845143999999989,1595
62.39266399999984,9.845143999999989,1603
62.71666399999984,9.845143999999989,1627
59.47666399999986,14.381143999999988,1137
59.47666399999986,13.733143999999989,1161
59.47666399999986,13.085143999999987,1226
59.800663999999855,12.437143999999988,1202
59.15266399999986,11.141143999999988,1209
59.15266399999986,14.381143999999988,1122
58.82866399999986,11.789143999999988,1167
58.50466399999986,12.437143999999988,1120
58.180663999999865,12.437143999999988,1113
57.85666399999987,11.789143999999988,1090
62.71666399999984,7.90114399999999,1656
62.39266399999984,7.90114399999999,1613
62.06866399999984,8.54914399999999,1588
60.44866399999985,5.309143999999991,1750
60.44866399999985,5.957143999999991,1717
60.77266399999985,5.957143999999991,1744
62.39266399999984,11.141143999999988,1631
62.06866399999984,10.493143999999988,1588
61.74466399999984,11.141143999999988,1561
61.420663999999846,11.141143999999988,1514
61.09666399999985,11.141143999999988,1496
60.77266399999985,11.789143999999988,1473
63.04066399999984,11.141143999999988,1715
62.71666399999984,11.141143999999988,1655
62.39266399999984,10.493143999999988,1615
67.25266399999981,15.677143999999986,2390
67.25266399999981,15.029143999999986,2428
67.25266399999981,14.381143999999988,2456
66.92866399999981,15.029143999999986,2379
66.60466399999981,15.677143999999986,2357
64.01266399999983,11.141143999999988,1864
66.60466399999981,15.029143999999986,2420
54.29266399999989,18.269143999999983,1055
54.616663999999886,17.621143999999987,1094
53.96866399999989,18.269143999999983,975
43.92466399999995,1.4211439999999929,836
44.24866399999995,0.7731439999999932,1020
44.572663999999946,0.1251439999999934,1063
46.84066399999993,1.4211439999999929,1060
44.572663999999946,1.4211439999999929,772
44.24866399999995,1.4211439999999929,810
45.54466399999994,1.4211439999999929,1045
46.516663999999935,1.4211439999999929,1077
42.30466399999996,2.717143999999992,1111
44.24866399999995,2.717143999999992,895
44.572663999999946,2.717143999999992,865
43.92466399999995,2.0691439999999925,962
42.30466399999996,2.0691439999999925,1110
42.62866399999996,2.0691439999999925,1052
42.62866399999996,1.4211439999999929,1045
42.95266399999996,1.4211439999999929,1011
43.276663999999954,1.4211439999999929,946
46.516663999999935,-1.170856000000006,1138
46.19266399999994,-1.170856000000006,1064
45.86866399999994,-0.5228560000000062,1070
45.54466399999994,-0.5228560000000062,1097
48.46066399999992,1.4211439999999929,415
41.332663999999966,2.0691439999999925,1234
41.98066399999996,2.717143999999992,1193
48.46066399999992,-1.8188560000000056,1079
47.81266399999993,0.7731439999999932,943
46.84066399999993,0.7731439999999932,1010
44.572663999999946,-1.170856000000006,1105
43.60066399999995,-1.170856000000006,1139
43.276663999999954,-1.8188560000000056,1237
43.276663999999954,0.1251439999999934,1067
42.95266399999996,0.1251439999999934,1044
43.276663999999954,-0.5228560000000062,1094
43.60066399999995,-0.5228560000000062,1128
47.81266399999993,-3.7628560000000046,1228
47.48866399999993,-2.4668560000000053,1123
47.81266399999993,-0.5228560000000062,1182
46.516663999999935,-1.8188560000000056,1157
48.136663999999925,-1.170856000000006,1156
47.48866399999993,-1.170856000000006,1048
45.22066399999994,8.54914399999999,488
45.22066399999994,7.90114399999999,499
46.19266399999994,-0.5228560000000062,1020
46.516663999999935,-0.5228560000000062,1119
48.78466399999992,-3.114856000000005,1264
50.72866399999991,2.0691439999999925,302
50.40466399999991,2.0691439999999925,300
40.36066399999997,-3.7628560000000046,1425
41.65666399999997,-1.170856000000006,1342
41.332663999999966,1.4211439999999929,1280
43.276663999999954,13.733143999999989,65535
42.95266399999996,13.733143999999989,65535
41.65666399999997,15.029143999999986,65535
40.68466399999997,17.621143999999987,65535
43.60066399999995,13.085143999999987,3903
41.65666399999997,12.437143999999988,2512
41.65666399999997,13.085143999999987,2528
41.98066399999996,13.085143999999987,2504
41.65666399999997,13.733143999999989,3092
41.332663999999966,13.733143999999989,2570
41.332663999999966,14.381143999999988,3127
41.00866399999997,14.381143999999988,3154
41.332663999999966,13.085143999999987,2553
41.00866399999997,15.029143999999986,4335
41.98066399999996,13.733143999999989,2586
42.30466399999996,14.381143999999988,4416
42.30466399999996,12.437143999999988,2755
42.62866399999996,12.437143999999988,3054
42.95266399999996,12.437143999999988,3108
42.30466399999996,11.789143999999988,2563
42.95266399999996,11.789143999999988,3818
42.62866399999996,11.789143999999988,3739
43.276663999999954,11.789143999999988,4290
42.95266399999996,13.085143999999987,3804
42.30466399999996,13.085143999999987,4303
43.276663999999954,13.085143999999987,3852
43.276663999999954,12.437143999999988,3859
42.62866399999996,11.141143999999988,2632
42.95266399999996,11.141143999999988,2675
42.95266399999996,10.493143999999988,2693
44.572663999999946,8.54914399999999,890
44.89666399999994,7.90114399999999,813
44.89666399999994,9.197143999999987,495
44.24866399999995,7.90114399999999,879
44.572663999999946,7.90114399999999,836
43.92466399999995,7.90114399999999,1059
44.24866399999995,7.25314399999999,876
44.89666399999994,7.25314399999999,978
45.22066399999994,7.25314399999999,838
45.54466399999994,7.90114399999999,844
44.572663999999946,7.25314399999999,2302
52.996663999999896,22.805143999999984,1368
52.996663999999896,23.45314399999998,1391
51.37666399999991,22.15714399999998,1075
51.37666399999991,22.805143999999984,1130
50.08066399999991,20.213143999999986,824
50.72866399999991,20.213143999999986,912
50.40466399999991,20.213143999999986,877
50.08066399999991,20.86114399999998,873
50.08066399999991,21.50914399999997,914
50.08066399999991,22.15714399999998,956
50.08066399999991,22.805143999999984,971
53.96866399999989,22.805143999999984,1827
53.64466399999989,23.45314399999998,1498
53.32066399999989,23.45314399999998,1444
50.40466399999991,19.565143999999982,785
50.08066399999991,18.917143999999983,775
50.08066399999991,18.269143999999983,534
52.0246639999999,22.805143999999984,1081
52.0246639999999,23.45314399999998,1119
51.37666399999991,19.565143999999982,941
51.05266399999991,19.565143999999982,895
50.72866399999991,18.917143999999983,856
50.72866399999991,19.565143999999982,893
49.75666399999992,18.917143999999983,775
50.40466399999991,18.269143999999983,505
53.64466399999989,19.565143999999982,1012
53.96866399999989,18.917143999999983,1007
53.64466399999989,18.917143999999983,983
53.64466399999989,20.213143999999986,1050
52.996663999999896,18.917143999999983,947
52.996663999999896,18.269143999999983,905
53.32066399999989,18.917143999999983,970
50.72866399999991,17.621143999999987,426
50.72866399999991,18.269143999999983,755
52.6726639999999,16.325143999999987,786
52.996663999999896,16.325143999999987,380
52.996663999999896,15.677143999999986,354
53.32066399999989,15.677143999999986,1016
53.32066399999989,15.029143999999986,844
53.64466399999989,15.029143999999986,817
53.96866399999989,15.029143999999986,789
52.6726639999999,18.917143999999983,910
53.32066399999989,16.325143999999987,1074
52.6726639999999,15.029143999999986,286
51.05266399999991,22.805143999999984,1177
51.05266399999991,23.45314399999998,1204
50.72866399999991,22.15714399999998,1286
50.40466399999991,22.15714399999998,1389
51.05266399999991,22.15714399999998,1127
54.616663999999886,16.973143999999984,1108
54.29266399999989,16.325143999999987,1058
53.96866399999989,15.677143999999986,1022
50.72866399999991,21.50914399999997,1296
50.40466399999991,21.50914399999997,1252
50.40466399999991,17.621143999999987,930
53.32066399999989,22.805143999999984,1583
53.64466399999989,22.15714399999998,1445
54.29266399999989,16.973143999999984,1084
50.72866399999991,20.86114399999998,974
51.700663999999904,22.805143999999984,1477
51.05266399999991,21.50914399999997,1065
50.08066399999991,19.565143999999982,793
52.0246639999999,18.917143999999983,3688
52.0246639999999,19.565143999999982,3681
53.64466399999989,18.269143999999983,968
51.700663999999904,20.213143999999986,981
53.32066399999989,19.565143999999982,1002
50.72866399999991,23.45314399999998,1411
50.72866399999991,22.805143999999984,1380
49.43266399999992,20.213143999999986,805
49.75666399999992,21.50914399999997,957
49.75666399999992,22.15714399999998,1404
49.43266399999992,22.15714399999998,1212
51.05266399999991,18.917143999999983,933
51.05266399999991,18.269143999999983,464
53.32066399999989,16.973143999999984,820
53.64466399999989,16.973143999999984,862
49.75666399999992,20.86114399999998,927
50.40466399999991,22.805143999999984,3770
53.64466399999989,16.325143999999987,971
53.96866399999989,20.86114399999998,1302
54.29266399999989,20.86114399999998,1348
53.96866399999989,21.50914399999997,1368
53.64466399999989,15.677143999999986,980
53.96866399999989,20.213143999999986,1105
53.96866399999989,19.565143999999982,1141
54.29266399999989,19.565143999999982,1155
53.96866399999989,16.325143999999987,1005
53.64466399999989,17.621143999999987,874
53.96866399999989,22.15714399999998,1435
53.64466399999989,21.50914399999997,1400
53.64466399999989,20.86114399999998,1354
52.6726639999999,15.677143999999986,337
51.05266399999991,20.213143999999986,1057
54.940663999999884,24.101143999999977,65535
54.616663999999886,23.45314399999998,65535
54.29266399999989,23.45314399999998,65535
53.64466399999989,22.805143999999984,1585
53.96866399999989,16.973143999999984,1105
50.40466399999991,20.86114399999998,1048
53.32066399999989,18.269143999999983,936
49.75666399999992,19.565143999999982,889
50.40466399999991,23.45314399999998,984
49.75666399999992,20.213143999999986,1029
49.43266399999992,19.565143999999982,777
49.43266399999992,20.86114399999998,879
53.96866399999989,17.621143999999987,1308
42.30466399999996,-1.8188560000000056,3999
41.98066399999996,-1.8188560000000056,3982
41.65666399999997,0.7731439999999932,3986
42.62866399999996,-1.8188560000000056,4114
42.95266399999996,-1.8188560000000056,4143
42.62866399999996,-3.114856000000005,4237
42.95266399999996,-2.4668560000000053,4215
42.62866399999996,-7.650856000000003,4579
42.30466399999996,-7.650856000000003,4639
42.30466399999996,-8.946856000000002,4775
42.30466399999996,-8.298856000000002,4749
41.98066399999996,-8.298856000000002,4738
42.30466399999996,-7.002856000000003,4521
42.62866399999996,-6.354856000000003,4463
42.30466399999996,-6.354856000000003,4418
42.62866399999996,-5.706856000000004,3918
41.98066399999996,-4.410856000000004,3872
42.30466399999996,-3.7628560000000046,4263
40.03666399999997,-0.5228560000000062,3966
39.38866399999998,-0.5228560000000062,4014
41.00866399999997,0.7731439999999932,4114
40.68466399999997,0.7731439999999932,4146
40.36066399999997,0.1251439999999934,4224
39.712663999999975,-0.5228560000000062,4123
38.41666399999998,-0.5228560000000062,4135
39.06466399999998,-0.5228560000000062,4257
38.74066399999998,-1.170856000000006,4143
41.332663999999966,0.7731439999999932,4174
41.65666399999997,2.717143999999992,3774
41.65666399999997,2.0691439999999925,3797
41.332663999999966,0.1251439999999934,4132
41.332663999999966,-0.5228560000000062,4076
41.65666399999997,-4.410856000000004,3846
40.03666399999997,-2.4668560000000053,4084
41.00866399999997,-4.410856000000004,3967
43.276663999999954,-5.706856000000004,4048
39.38866399999998,-1.170856000000006,4109
38.09266399999999,-1.170856000000006,4522
38.74066399999998,-0.5228560000000062,4285
37.76866399999999,-1.170856000000006,4587
39.06466399999998,-1.8188560000000056,4107
39.38866399999998,-3.114856000000005,4007
39.38866399999998,-2.4668560000000053,4063
39.06466399999998,-2.4668560000000053,4090
39.06466399999998,-3.114856000000005,4011
39.06466399999998,-3.7628560000000046,3985
38.74066399999998,-3.7628560000000046,4064
40.03666399999997,-3.7628560000000046,3963
40.03666399999997,-3.114856000000005,4163
40.03666399999997,-1.8188560000000056,4244
39.712663999999975,-1.8188560000000056,4209
39.712663999999975,-1.170856000000006,4145
40.36066399999997,-1.170856000000006,4164
40.68466399999997,-1.170856000000006,4142
41.00866399999997,-1.170856000000006,4130
41.332663999999966,-1.170856000000006,3970
43.276663999999954,-8.298856000000002,4739
42.95266399999996,-8.298856000000002,4707
41.65666399999997,-5.706856000000004,65535
41.98066399999996,-7.002856000000003,65535
41.98066399999996,-6.354856000000003,65535
41.332663999999966,-5.058856000000004,4085
43.276663999999954,-3.7628560000000046,4520
42.95266399999996,-4.410856000000004,4454
42.62866399999996,-4.410856000000004,4444
42.30466399999996,-4.410856000000004,4403
41.00866399999997,-5.706856000000004,4023
41.332663999999966,-1.8188560000000056,3916
40.68466399999997,-3.114856000000005,3870
41.00866399999997,-3.114856000000005,3921
41.00866399999997,-2.4668560000000053,3944
41.332663999999966,-2.4668560000000053,3997
40.68466399999997,-4.410856000000004,3907
40.36066399999997,-4.410856000000004,3991
40.68466399999997,-3.7628560000000046,3899
40.36066399999997,-3.114856000000005,3877
41.65666399999997,-2.4668560000000053,4014
38.09266399999999,-3.7628560000000046,4111
38.74066399999998,-3.114856000000005,4055
37.76866399999999,-3.7628560000000046,4168
39.712663999999975,-3.114856000000005,3999
38.41666399999998,-3.7628560000000046,4076
40.03666399999997,-4.410856000000004,65535
40.03666399999997,-5.058856000000004,65535
39.38866399999998,-6.354856000000003,65535
39.38866399999998,-7.002856000000003,65535
42.95266399999996,-3.114856000000005,4648
41.98066399999996,-1.170856000000006,4011
42.30466399999996,-2.4668560000000053,4052
41.65666399999997,-0.5228560000000062,4109
41.98066399999996,-0.5228560000000062,3946
41.65666399999997,0.1251439999999934,3973
41.98066399999996,0.1251439999999934,3995
37.76866399999999,-5.058856000000004,4047
36.79666399999999,-4.410856000000004,4106
38.74066399999998,-4.410856000000004,4003
37.12066399999999,-4.410856000000004,4080
37.44466399999999,-5.058856000000004,4604
37.44466399999999,-7.002856000000003,65535
37.44466399999999,-6.354856000000003,65535
37.44466399999999,-5.706856000000004,4280
39.712663999999975,-3.7628560000000046,4073
42.62866399999996,-8.946856000000002,65535
42.30466399999996,-5.706856000000004,4425
42.30466399999996,-5.058856000000004,4510
42.95266399999996,-5.706856000000004,3950
41.00866399999997,-5.058856000000004,3991
40.68466399999997,-5.058856000000004,3965
41.65666399999997,-5.058856000000004,65535
41.65666399999997,-6.354856000000003,65535
36.79666399999999,-6.354856000000003,65535
37.12066399999999,-5.706856000000004,4448
37.76866399999999,-5.706856000000004,4247
38.09266399999999,-4.410856000000004,4382
37.12066399999999,-5.058856000000004,4402
36.79666399999999,-5.058856000000004,4360
37.76866399999999,-4.410856000000004,65535
37.76866399999999,-7.002856000000003,65535
38.41666399999998,-6.354856000000003,65535
38.09266399999999,-6.354856000000003,65535
48.78466399999992,1.4211439999999929,988
56.23666399999988,8.54914399999999,2290
55.58866399999988,9.197143999999987,2095
55.91266399999988,9.197143999999987,2236
55.26466399999988,10.493143999999988,594
55.91266399999988,12.437143999999988,729
55.58866399999988,11.789143999999988,1935
55.58866399999988,11.141143999999988,1976
55.26466399999988,11.789143999999988,1968
55.58866399999988,10.493143999999988,2091
55.58866399999988,13.085143999999987,686
56.88466399999987,9.845143999999989,2242
57.20866399999987,9.845143999999989,2277
56.56066399999988,9.845143999999989,2214
56.88466399999987,8.54914399999999,2329
54.940663999999884,9.845143999999989,3436
54.940663999999884,11.789143999999988,2192
55.91266399999988,13.085143999999987,790
56.23666399999988,13.733143999999989,815
55.91266399999988,13.733143999999989,813
56.23666399999988,14.381143999999988,854
56.23666399999988,15.029143999999986,1032
56.23666399999988,15.677143999999986,1087
56.56066399999988,14.381143999999988,894
56.88466399999987,14.381143999999988,859
56.23666399999988,13.085143999999987,796
56.56066399999988,13.085143999999987,996
56.88466399999987,12.437143999999988,1033
57.20866399999987,12.437143999999988,1049
57.53266399999987,12.437143999999988,1079
56.88466399999987,15.029143999999986,995
56.56066399999988,15.677143999999986,1105
56.88466399999987,15.677143999999986,1123
56.88466399999987,16.325143999999987,1139
55.91266399999988,11.789143999999988,2261
57.20866399999987,10.493143999999988,2464
49.43266399999992,1.4211439999999929,444
49.75666399999992,0.7731439999999932,920
49.75666399999992,2.0691439999999925,388
50.08066399999991,2.717143999999992,357
49.75666399999992,1.4211439999999929,963
47.81266399999993,1.4211439999999929,991
48.136663999999925,2.0691439999999925,1123
48.46066399999992,2.0691439999999925,1016
48.136663999999925,1.4211439999999929,1036
48.78466399999992,0.1251439999999934,1061
48.46066399999992,0.1251439999999934,1087
47.81266399999993,0.1251439999999934,1066
46.84066399999993,-0.5228560000000062,1059
47.16466399999993,0.7731439999999932,1228
46.84066399999993,0.1251439999999934,1247
46.84066399999993,-1.170856000000006,1113
50.08066399999991,1.4211439999999929,973
50.08066399999991,2.0691439999999925,964
49.43266399999992,2.717143999999992,429
49.75666399999992,3.365143999999992,471
50.08066399999991,3.365143999999992,303
49.10866399999992,2.0691439999999925,993
49.43266399999992,2.0691439999999925,1000
48.78466399999992,0.7731439999999932,1595
48.78466399999992,-0.5228560000000062,1091
48.78466399999992,-1.170856000000006,1122
48.136663999999925,0.7731439999999932,1069
48.46066399999992,0.7731439999999932,1091
43.92466399999995,5.957143999999991,1136
44.24866399999995,5.957143999999991,1107
43.92466399999995,5.309143999999991,1028
42.95266399999996,2.717143999999992,1036
45.54466399999994,2.0691439999999925,1153
45.22066399999994,2.0691439999999925,1110
42.95266399999996,2.0691439999999925,2377
42.95266399999996,0.7731439999999932,993
43.276663999999954,0.7731439999999932,969
46.19266399999994,0.7731439999999932,1099
46.516663999999935,0.7731439999999932,1083
45.86866399999994,0.1251439999999934,1109
46.19266399999994,0.1251439999999934,1094
47.81266399999993,-1.170856000000006,1435
48.136663999999925,-2.4668560000000053,1143
47.48866399999993,-1.8188560000000056,1084
47.16466399999993,-1.170856000000006,1068
47.16466399999993,-0.5228560000000062,1190
46.84066399999993,-1.8188560000000056,1078
45.22066399999994,-0.5228560000000062,1068
44.89666399999994,0.1251439999999934,1035
45.22066399999994,0.7731439999999932,1041
45.54466399999994,0.7731439999999932,1174
45.86866399999994,0.7731439999999932,1117
45.22066399999994,0.1251439999999934,1091
44.89666399999994,0.7731439999999932,970
43.92466399999995,-0.5228560000000062,1174
43.92466399999995,-1.170856000000006,1158
44.24866399999995,-1.170856000000006,1285
45.22066399999994,-1.170856000000006,1098
44.572663999999946,-0.5228560000000062,1084
44.24866399999995,0.1251439999999934,1040
44.572663999999946,0.7731439999999932,1068
43.276663999999954,-1.170856000000006,1173
42.95266399999996,-0.5228560000000062,1182
44.24866399999995,2.0691439999999925,1002
43.60066399999995,0.7731439999999932,1031
43.60066399999995,2.0691439999999925,1039
52.6726639999999,4.661143999999991,2281
52.6726639999999,5.309143999999991,2304
51.700663999999904,5.309143999999991,2249
52.0246639999999,5.309143999999991,2261
52.3486639999999,5.309143999999991,2277
51.37666399999991,4.013143999999992,2257
52.3486639999999,5.957143999999991,2271
52.0246639999999,6.60514399999999,2301
52.6726639999999,5.957143999999991,2288
52.996663999999896,5.957143999999991,2301
53.32066399999989,5.957143999999991,2295
52.996663999999896,6.60514399999999,2277
53.32066399999989,6.60514399999999,2269
52.6726639999999,6.60514399999999,2297
52.996663999999896,5.309143999999991,2316
59.15266399999986,24.101143999999977,65535
56.88466399999987,24.101143999999977,65535
56.88466399999987,23.45314399999998,65535
56.88466399999987,22.805143999999984,65535
57.20866399999987,24.74914399999998,65535
56.88466399999987,24.74914399999998,65535
56.56066399999988,24.74914399999998,65535
56.56066399999988,25.397143999999983,65535
56.56066399999988,24.101143999999977,65535
56.56066399999988,23.45314399999998,65535
56.56066399999988,26.04514399999998,65535
56.88466399999987,26.04514399999998,65535
57.20866399999987,25.397143999999983,65535
57.53266399999987,25.397143999999983,65535
56.23666399999988,26.04514399999998,65535
56.23666399999988,26.69314399999997,65535
55.91266399999988,26.69314399999997,65535
56.56066399999988,26.69314399999997,65535
56.56066399999988,27.34114399999998,65535
56.56066399999988,27.989143999999985,65535
56.23666399999988,27.989143999999985,65535
55.91266399999988,27.34114399999998,65535
56.56066399999988,22.805143999999984,65535
56.56066399999988,22.15714399999998,65535
56.56066399999988,21.50914399999997,65535
57.20866399999987,26.69314399999997,65535
39.06466399999998,-8.946856000000002,65535
38.41666399999998,-8.298856000000002,65535
45.86866399999994,11.789143999999988,1468
46.19266399999994,11.789143999999988,1455
46.19266399999994,10.493143999999988,1440
45.22066399999994,18.269143999999983,2461
45.22066399999994,18.917143999999983,2535
45.54466399999994,16.973143999999984,2319
45.22066399999994,17.621143999999987,2396
45.86866399999994,16.325143999999987,2200
45.54466399999994,18.917143999999983,2575
45.54466399999994,16.325143999999987,2275
45.54466399999994,18.269143999999983,2553
44.89666399999994,18.917143999999983,2856
46.19266399999994,16.973143999999984,2220
46.19266399999994,16.325143999999987,2206
45.86866399999994,16.973143999999984,2237
45.86866399999994,17.621143999999987,2341
46.19266399999994,15.677143999999986,994
46.516663999999935,16.325143999999987,1089
45.54466399999994,15.677143999999986,2180
45.22066399999994,15.029143999999986,2247
45.54466399999994,15.029143999999986,1021
45.22066399999994,15.677143999999986,2264
44.572663999999946,15.677143999999986,3019
44.24866399999995,15.677143999999986,3040
43.92466399999995,16.325143999999987,2931
44.89666399999994,15.677143999999986,2983
45.54466399999994,17.621143999999987,2528
45.22066399999994,16.325143999999987,2396
46.516663999999935,16.973143999999984,2277
45.86866399999994,18.269143999999983,2654
43.92466399999995,15.677143999999986,2730
45.22066399999994,13.733143999999989,2262
47.48866399999993,19.565143999999982,952
47.16466399999993,18.917143999999983,2178
47.81266399999993,18.917143999999983,916
45.54466399999994,9.845143999999989,859
45.22066399999994,9.845143999999989,868
45.22066399999994,10.493143999999988,919
45.86866399999994,9.845143999999989,896
45.86866399999994,10.493143999999988,2358
48.78466399999992,21.50914399999997,890
49.10866399999992,20.213143999999986,861
49.10866399999992,18.917143999999983,737
48.46066399999992,17.621143999999987,851
49.43266399999992,17.621143999999987,973
49.10866399999992,17.621143999999987,832
48.136663999999925,18.269143999999983,876
49.10866399999992,18.269143999999983,786
49.43266399999992,18.269143999999983,798
49.43266399999992,16.973143999999984,763
49.75666399999992,16.973143999999984,921
49.75666399999992,16.325143999999987,814
50.08066399999991,15.677143999999986,741
50.08066399999991,15.029143999999986,471
49.43266399999992,18.917143999999983,710
47.81266399999993,20.86114399999998,1075
48.136663999999925,20.86114399999998,1010
48.46066399999992,20.86114399999998,997
48.46066399999992,21.50914399999997,904
49.10866399999992,19.565143999999982,753
48.136663999999925,17.621143999999987,877
48.78466399999992,22.15714399999998,1077
48.78466399999992,20.86114399999998,959
49.10866399999992,20.86114399999998,881
48.78466399999992,18.269143999999983,791
48.78466399999992,17.621143999999987,820
49.10866399999992,21.50914399999997,886
48.78466399999992,20.213143999999986,1310
48.46066399999992,20.213143999999986,1337
48.136663999999925,19.565143999999982,1605
48.46066399999992,19.565143999999982,1484
48.46066399999992,18.917143999999983,934
48.46066399999992,18.269143999999983,839
48.78466399999992,19.565143999999982,1250
48.78466399999992,18.917143999999983,992
47.81266399999993,18.269143999999983,907
49.10866399999992,22.15714399999998,1124
49.43266399999992,21.50914399999997,913
48.136663999999925,18.917143999999983,927
48.136663999999925,20.213143999999986,1625
52.636,-8.018,65535
52.312,-7.370000000000001,65535
52.312,-8.018,65535
52.636,-8.666,65535
51.988,-8.666,65535
51.988,-8.018,65535
52.96,-8.666,65535
52.96,-6.074000000000002,65535
53.28399999999999,-6.722000000000001,65535
53.60799999999999,-6.722000000000001,65535
53.60799999999999,-7.370000000000001,65535
53.60799999999999,-8.018,65535
54.25599999999999,-8.666,65535
53.93199999999999,-8.666,65535
53.93199999999999,-8.018,65535
52.312,-6.722000000000001,65535
52.636,-6.722000000000001,65535
53.93199999999999,-6.722000000000001,65535
54.25599999999999,-6.074000000000002,65535
53.28399999999999,-7.370000000000001,65535
52.96,-7.370000000000001,65535
52.312,-8.666,65535
52.96,-8.018,65535
52.636,-7.370000000000001,65535
52.96,-6.722000000000001,65535
51.988,-9.314,65535
52.312,-9.314,65535
54.579999999999984,-6.722000000000001,65535
54.579999999999984,-6.074000000000002,65535
53.28399999999999,-8.018,65535
53.28399999999999,-8.666,65535
53.28399999999999,-9.314,65535
53.93199999999999,-9.314,65535
54.25599999999999,-9.314,65535
53.60799999999999,-8.666,65535
53.60799999999999,-9.314,65535
49.43266399999992,14.381143999999988,526
49.75666399999992,14.381143999999988,475
49.75666399999992,15.029143999999986,474
49.75666399999992,13.733143999999989,512
50.08066399999991,13.733143999999989,508
49.75666399999992,15.677143999999986,497
50.40466399999991,15.029143999999986,409
49.43266399999992,13.733143999999989,900
50.40466399999991,15.677143999999986,743
50.40466399999991,13.733143999999989,736
46.19266399999994,15.029143999999986,959
45.86866399999994,15.029143999999986,960
45.86866399999994,14.381143999999988,951
46.19266399999994,13.733143999999989,1017
45.86866399999994,13.733143999999989,1092
58.50466399999986,13.733143999999989,1110
58.180663999999865,13.733143999999989,1126
58.180663999999865,13.085143999999987,1118
57.85666399999987,12.437143999999988,1097
60.44866399999985,15.677143999999986,1187
60.124663999999854,15.677143999999986,1175
60.124663999999854,16.325143999999987,1159
59.800663999999855,16.325143999999987,1124
59.800663999999855,17.621143999999987,1096
59.47666399999986,18.269143999999983,1071
61.74466399999984,16.973143999999984,1280
61.420663999999846,16.973143999999984,1255
60.77266399999985,16.973143999999984,1155
65.63266399999982,22.15714399999998,1813
65.95666399999982,21.50914399999997,1796
65.63266399999982,20.86114399999998,1765
64.98466399999982,20.213143999999986,1713
64.66066399999983,20.213143999999986,1693
64.33666399999983,19.565143999999982,1644
64.01266399999983,19.565143999999982,1608
63.68866399999983,20.213143999999986,1504
64.66066399999983,18.917143999999983,2514
59.15266399999986,16.325143999999987,1023
59.15266399999986,15.029143999999986,1087
59.15266399999986,17.621143999999987,1057
57.53266399999987,14.381143999999988,899
57.53266399999987,15.029143999999986,1050
61.09666399999985,14.381143999999988,1291
60.77266399999985,15.029143999999986,1242
60.44866399999985,15.029143999999986,1228
58.180663999999865,15.029143999999986,946
58.50466399999986,16.325143999999987,984
58.50466399999986,15.677143999999986,956
63.36466399999984,13.085143999999987,1645
63.04066399999984,14.381143999999988,1581
62.39266399999984,15.677143999999986,1504
63.36466399999984,13.733143999999989,1627
63.36466399999984,14.381143999999988,1598
62.71666399999984,15.677143999999986,1531
62.39266399999984,17.621143999999987,1336
59.800663999999855,15.677143999999986,1211
55.58866399999988,13.733143999999989,1478
57.20866399999987,14.381143999999988,1046
57.85666399999987,14.381143999999988,1032
58.82866399999986,16.973143999999984,1032
58.82866399999986,16.325143999999987,1010
59.15266399999986,18.269143999999983,1063
60.44866399999985,17.621143999999987,1129
59.15266399999986,12.437143999999988,1264
59.15266399999986,13.085143999999987,1258
58.82866399999986,12.437143999999988,1241
59.47666399999986,16.325143999999987,1069
58.82866399999986,14.381143999999988,1161
59.47666399999986,15.677143999999986,1105
63.36466399999984,18.917143999999983,1455
63.04066399999984,17.621143999999987,1409
62.71666399999984,17.621143999999987,1384
63.68866399999983,19.565143999999982,1492
62.39266399999984,16.973143999999984,1395
59.800663999999855,16.973143999999984,1135
59.47666399999986,17.621143999999987,1077
57.85666399999987,13.085143999999987,1140
57.53266399999987,13.085143999999987,1181
58.50466399999986,11.789143999999988,1190
57.85666399999987,15.029143999999986,930
57.20866399999987,13.733143999999989,1096
57.53266399999987,13.733143999999989,1216
61.74466399999984,16.325143999999987,1236
61.420663999999846,16.325143999999987,1205
61.09666399999985,16.325143999999987,1195
61.09666399999985,16.973143999999984,1179
60.124663999999854,15.029143999999986,1231
66.60466399999981,20.86114399999998,2337
67.25266399999981,20.86114399999998,2405
67.90066399999981,20.213143999999986,2475
67.57666399999981,20.213143999999986,3100
59.800663999999855,15.029143999999986,1239
58.50466399999986,15.029143999999986,975
59.47666399999986,15.029143999999986,1226
60.44866399999985,16.325143999999987,1248
59.15266399999986,15.677143999999986,1107
57.85666399999987,13.733143999999989,1103
58.82866399999986,13.733143999999989,1140
58.50466399999986,13.085143999999987,1248
57.20866399999987,13.085143999999987,1142
56.88466399999987,13.085143999999987,1151
58.180663999999865,11.789143999999988,1161
62.06866399999984,16.973143999999984,1318
65.95666399999982,23.45314399999998,1864
59.800663999999855,14.381143999999988,1372
59.800663999999855,18.269143999999983,1124
63.04066399999984,15.029143999999986,1547
62.71666399999984,15.029143999999986,1538
62.39266399999984,16.325143999999987,1473
63.36466399999984,12.437143999999988,2459
68.5486639999998,17.621143999999987,2688
68.5486639999998,18.269143999999983,2621
68.5486639999998,18.917143999999983,2598
68.2246639999998,18.917143999999983,2554
59.800663999999855,13.085143999999987,1277
60.124663999999854,13.085143999999987,1319
59.47666399999986,16.973143999999984,1098
59.15266399999986,16.973143999999984,1107
56.56066399999988,13.733143999999989,879
60.124663999999854,17.621143999999987,1106
57.85666399999987,16.325143999999987,1035
58.180663999999865,16.325143999999987,997
58.180663999999865,15.677143999999986,1005
57.20866399999987,16.325143999999987,1110
57.53266399999987,15.677143999999986,1065
57.85666399999987,15.677143999999986,1036
44.89666399999994,23.45314399999998,2485
44.572663999999946,23.45314399999998,2555
44.89666399999994,24.74914399999998,2472
44.572663999999946,24.74914399999998,2591
44.572663999999946,24.101143999999977,2532
44.24866399999995,24.101143999999977,2561
47.48866399999993,25.397143999999983,2333
47.48866399999993,24.74914399999998,2273
47.16466399999993,24.74914399999998,2195
47.16466399999993,24.101143999999977,2097
47.48866399999993,22.15714399999998,2227
47.81266399999993,22.15714399999998,2313
47.16466399999993,22.15714399999998,2206
47.16466399999993,23.45314399999998,2258
47.16466399999993,22.805143999999984,2264
46.84066399999993,24.101143999999977,2178
45.86866399999994,27.34114399999998,2518
45.54466399999994,27.34114399999998,2499
45.54466399999994,27.989143999999985,2615
45.86866399999994,20.86114399999998,2390
45.86866399999994,21.50914399999997,2398
46.19266399999994,21.50914399999997,2334
46.19266399999994,27.34114399999998,2518
46.19266399999994,26.69314399999997,2509
46.516663999999935,26.69314399999997,2471
46.516663999999935,26.04514399999998,2367
47.48866399999993,22.805143999999984,2325
46.84066399999993,22.805143999999984,2138
45.54466399999994,22.15714399999998,2447
45.22066399999994,22.15714399999998,2525
44.89666399999994,22.15714399999998,2943
47.48866399999993,23.45314399999998,2291
46.516663999999935,24.101143999999977,2017
46.516663999999935,24.74914399999998,2231
45.86866399999994,24.101143999999977,2180
47.16466399999993,26.69314399999997,2549
47.16466399999993,27.34114399999998,2604
43.92466399999995,25.397143999999983,2563
44.24866399999995,24.74914399999998,2470
44.89666399999994,26.04514399999998,2357
44.89666399999994,26.69314399999997,2404
45.22066399999994,26.69314399999997,2439
45.22066399999994,27.34114399999998,2466
46.84066399999993,26.69314399999997,2510
47.48866399999993,26.69314399999997,2503
44.24866399999995,25.397143999999983,2402
43.92466399999995,26.04514399999998,2579
46.19266399999994,24.101143999999977,2225
44.572663999999946,25.397143999999983,2440
46.84066399999993,24.74914399999998,2238
46.516663999999935,21.50914399999997,2338
46.84066399999993,21.50914399999997,2345
44.572663999999946,26.69314399999997,2395
44.572663999999946,27.34114399999998,2416
44.89666399999994,27.34114399999998,2531
44.572663999999946,27.989143999999985,2436
44.24866399999995,27.989143999999985,2450
44.572663999999946,28.63714399999997,2501
45.86866399999994,22.15714399999998,2259
45.86866399999994,22.805143999999984,2153
44.24866399999995,23.45314399999998,2588
43.92466399999995,27.989143999999985,65535
46.84066399999993,27.34114399999998,2671
45.22066399999994,23.45314399999998,2460
45.54466399999994,23.45314399999998,2263
45.54466399999994,24.101143999999977,2210
45.22066399999994,24.101143999999977,2434
44.89666399999994,24.101143999999977,2504
46.19266399999994,22.15714399999998,2390
46.516663999999935,22.15714399999998,2356
45.22066399999994,21.50914399999997,2630
45.54466399999994,21.50914399999997,2478
45.54466399999994,20.86114399999998,2502
46.516663999999935,27.989143999999985,2621
46.19266399999994,27.989143999999985,2606
45.54466399999994,25.397143999999983,2324
45.22066399999994,25.397143999999983,2334
45.22066399999994,26.04514399999998,2390
47.81266399999993,24.101143999999977,2386
47.48866399999993,26.04514399999998,2476
47.81266399999993,26.04514399999998,2498
46.19266399999994,23.45314399999998,2057
45.86866399999994,23.45314399999998,2106
44.24866399999995,26.04514399999998,2384
45.22066399999994,27.989143999999985,2596
45.86866399999994,24.74914399999998,2219
46.516663999999935,25.397143999999983,2411
46.84066399999993,25.397143999999983,2294
46.19266399999994,26.04514399999998,2382
45.86866399999994,26.04514399999998,2347
43.92466399999995,23.45314399999998,2818
44.89666399999994,25.397143999999983,2445
46.19266399999994,20.86114399999998,2379
47.81266399999993,25.397143999999983,2510
44.572663999999946,22.805143999999984,2823
44.572663999999946,22.15714399999998,2965
46.516663999999935,23.45314399999998,2196
45.86866399999994,25.397143999999983,2273
44.24866399999995,27.34114399999998,3211
45.22066399999994,24.74914399999998,2536
45.54466399999994,22.805143999999984,2226
45.22066399999994,28.63714399999997,2656
44.89666399999994,28.63714399999997,2595
47.81266399999993,23.45314399999998,1756
46.19266399999994,24.74914399999998,2305
46.19266399999994,25.397143999999983,2329
43.92466399999995,24.101143999999977,2781
43.92466399999995,24.74914399999998,2794
47.81266399999993,26.69314399999997,2725
47.48866399999993,24.101143999999977,2318
46.84066399999993,26.04514399999998,3126
46.19266399999994,22.805143999999984,2450
47.48866399999993,27.34114399999998,2678
46.19266399999994,20.213143999999986,65535
45.54466399999994,26.04514399999998,2482
44.24866399999995,26.69314399999997,2400
45.86866399999994,27.989143999999985,2654
47.81266399999993,5.957143999999991,2266
