51.56399999999999,-0.4100000000000028,65535
51.887999999999984,-0.4100000000000028,65535
50.91599999999999,-1.7060000000000022,65535
51.23999999999999,-1.0580000000000025,65535
51.56399999999999,-1.0580000000000025,65535
51.23999999999999,-1.7060000000000022,65535
51.56399999999999,0.2379999999999968,65535
47.16466399999993,9.845143999999989,324
47.48866399999993,9.845143999999989,329
48.136663999999925,14.381143999999988,449
47.81266399999993,13.085143999999987,383
47.16466399999993,11.141143999999988,410
47.48866399999993,11.789143999999988,499
48.136663999999925,16.325143999999987,574
47.48866399999993,12.437143999999988,354
48.136663999999925,15.677143999999986,699
47.16466399999993,10.493143999999988,421
47.16466399999993,9.197143999999987,320
48.136663999999925,13.733143999999989,436
48.136663999999925,15.029143999999986,739
47.81266399999993,16.973143999999984,595
48.46066399999992,14.381143999999988,904
47.48866399999993,13.085143999999987,400
47.16466399999993,13.085143999999987,406
47.48866399999993,14.381143999999988,511
47.48866399999993,13.733143999999989,533
47.48866399999993,15.029143999999986,627
46.516663999999935,13.733143999999989,1343
46.84066399999993,13.733143999999989,1381
46.84066399999993,13.085143999999987,1425
48.78466399999992,14.381143999999988,65535
47.16466399999993,15.677143999999986,660
46.516663999999935,14.381143999999988,1339
46.84066399999993,14.381143999999988,1362
47.16466399999993,14.381143999999988,665
46.516663999999935,15.029143999999986,1332
47.81266399999993,16.325143999999987,592
47.16466399999993,15.029143999999986,640
47.81266399999993,15.677143999999986,658
47.48866399999993,15.677143999999986,637
46.516663999999935,13.085143999999987,1934
46.84066399999993,12.437143999999988,1439
48.136663999999925,11.789143999999988,310
47.81266399999993,12.437143999999988,325
46.84066399999993,15.677143999999986,808
46.516663999999935,15.677143999999986,1260
46.84066399999993,16.325143999999987,705
47.81266399999993,14.381143999999988,475
48.78466399999992,16.973143999999984,532
48.136663999999925,16.973143999999984,561
48.46066399999992,13.733143999999989,399
47.81266399999993,13.733143999999989,554
50.08066399999991,8.54914399999999,199
48.46066399999992,9.845143999999989,309
51.05266399999991,7.25314399999999,157
51.37666399999991,7.25314399999999,151
51.37666399999991,6.60514399999999,155
48.46066399999992,16.325143999999987,579
48.46066399999992,16.973143999999984,547
48.78466399999992,16.325143999999987,590
48.46066399999992,15.677143999999986,640
48.78466399999992,15.677143999999986,693
47.48866399999993,16.325143999999987,602
47.16466399999993,16.325143999999987,654
46.19266399999994,14.381143999999988,1336
45.86866399999994,15.677143999999986,1322
43.60066399999995,16.325143999999987,2200
45.54466399999994,14.381143999999988,1386
45.54466399999994,13.733143999999989,1406
48.136663999999925,13.085143999999987,375
48.46066399999992,11.141143999999988,294
48.136663999999925,11.141143999999988,315
48.46066399999992,7.90114399999999,286
49.10866399999992,8.54914399999999,241
48.78466399999992,2.0691439999999925,374
49.10866399999992,7.25314399999999,250
52.0246639999999,7.90114399999999,152
47.16466399999993,11.789143999999988,432
49.43266399999992,11.141143999999988,236
53.64466399999989,9.845143999999989,28
50.72866399999991,4.013143999999992,233
51.05266399999991,11.141143999999988,242
47.48866399999993,11.141143999999988,333
46.84066399999993,11.789143999999988,2102
46.516663999999935,11.141143999999988,2071
45.54466399999994,11.141143999999988,1965
46.19266399999994,11.141143999999988,2037
45.86866399999994,11.141143999999988,2021
44.572663999999946,11.141143999999988,1812
43.92466399999995,12.437143999999988,4445
45.54466399999994,12.437143999999988,2052
45.54466399999994,11.789143999999988,2015
48.78466399999992,15.029143999999986,732
47.81266399999993,15.029143999999986,750
47.81266399999993,11.141143999999988,326
50.40466399999991,18.917143999999983,556
52.3486639999999,20.86114399999998,756
54.616663999999886,18.269143999999983,591
54.29266399999989,18.917143999999983,578
49.10866399999992,14.381143999999988,65535
50.08066399999991,14.381143999999988,342
48.78466399999992,13.733143999999989,2216
52.6726639999999,13.085143999999987,237
52.3486639999999,13.085143999999987,235
53.96866399999989,12.437143999999988,156
54.29266399999989,12.437143999999988,157
47.48866399999993,8.54914399999999,323
47.81266399999993,17.621143999999987,619
47.48866399999993,18.917143999999983,680
47.48866399999993,20.86114399999998,841
46.84066399999993,23.45314399999998,2398
44.572663999999946,26.04514399999998,2847
47.48866399999993,21.50914399999997,875
47.81266399999993,21.50914399999997,908
48.46066399999992,22.15714399999998,970
47.48866399999993,16.973143999999984,65535
49.10866399999992,16.325143999999987,487
49.75666399999992,18.269143999999983,641
46.19266399999994,13.085143999999987,1650
41.98066399999996,12.437143999999988,3045
43.60066399999995,10.493143999999988,3206
45.54466399999994,9.197143999999987,453
47.81266399999993,22.805143999999984,2813
49.75666399999992,22.805143999999984,809
50.72866399999991,3.365143999999992,241
51.05266399999991,4.013143999999992,239
50.72866399999991,4.661143999999991,229
51.05266399999991,4.661143999999991,232
51.05266399999991,3.365143999999992,245
51.05266399999991,2.717143999999992,288
50.40466399999991,4.661143999999991,239
50.72866399999991,2.717143999999992,254
50.40466399999991,4.013143999999992,238
51.05266399999991,5.309143999999991,234
50.72866399999991,5.309143999999991,213
51.37666399999991,3.365143999999992,276
51.37666399999991,4.661143999999991,242
50.72866399999991,5.957143999999991,189
50.40466399999991,5.957143999999991,192
50.40466399999991,3.365143999999992,243
50.40466399999991,5.309143999999991,212
50.08066399999991,5.309143999999991,259
49.75666399999992,5.309143999999991,268
49.75666399999992,5.957143999999991,290
51.37666399999991,5.309143999999991,266
51.700663999999904,4.661143999999991,278
50.08066399999991,4.013143999999992,263
50.08066399999991,5.957143999999991,201
50.08066399999991,4.661143999999991,274
49.43266399999992,5.309143999999991,320
49.43266399999992,5.957143999999991,304
52.0246639999999,4.661143999999991,350
52.3486639999999,4.661143999999991,379
50.72866399999991,15.029143999999986,319
51.05266399999991,15.029143999999986,313
51.05266399999991,13.733143999999989,278
50.40466399999991,13.085143999999987,287
49.10866399999992,7.90114399999999,269
48.78466399999992,7.90114399999999,260
50.40466399999991,7.90114399999999,190
50.08066399999991,7.90114399999999,193
49.75666399999992,7.90114399999999,203
49.43266399999992,7.90114399999999,218
49.75666399999992,8.54914399999999,223
49.43266399999992,8.54914399999999,226
49.43266399999992,9.197143999999987,254
49.10866399999992,9.197143999999987,264
47.48866399999993,7.90114399999999,322
47.81266399999993,7.90114399999999,321
48.136663999999925,7.90114399999999,302
48.136663999999925,9.845143999999989,336
47.81266399999993,9.197143999999987,323
47.81266399999993,8.54914399999999,312
47.81266399999993,9.845143999999989,347
54.940663999999884,9.197143999999987,59
54.616663999999886,9.197143999999987,21
54.29266399999989,9.197143999999987,38
53.96866399999989,9.197143999999987,49
53.64466399999989,9.197143999999987,47
54.616663999999886,9.845143999999989,0
54.29266399999989,9.845143999999989,12
53.96866399999989,9.845143999999989,22
53.64466399999989,10.493143999999988,32
53.96866399999989,10.493143999999988,38
53.96866399999989,11.141143999999988,143
54.29266399999989,10.493143999999988,58
53.32066399999989,10.493143999999988,66
54.940663999999884,11.141143999999988,169
52.6726639999999,13.733143999999989,240
52.3486639999999,13.733143999999989,239
52.3486639999999,14.381143999999988,247
52.0246639999999,14.381143999999988,260
52.0246639999999,11.789143999999988,194
52.3486639999999,11.789143999999988,191
52.3486639999999,12.437143999999988,218
52.0246639999999,15.029143999999986,292
51.700663999999904,14.381143999999988,277
52.0246639999999,13.733143999999989,255
51.700663999999904,13.733143999999989,280
52.6726639999999,12.437143999999988,222
53.32066399999989,11.789143999999988,94
53.96866399999989,11.789143999999988,148
53.64466399999989,11.789143999999988,106
53.64466399999989,11.141143999999988,102
53.32066399999989,11.141143999999988,75
52.996663999999896,11.789143999999988,178
52.996663999999896,12.437143999999988,205
52.996663999999896,13.733143999999989,253
53.64466399999989,13.733143999999989,286
53.96866399999989,13.733143999999989,289
54.29266399999989,13.085143999999987,275
53.96866399999989,13.085143999999987,239
53.32066399999989,13.733143999999989,347
52.0246639999999,13.085143999999987,256
51.700663999999904,13.085143999999987,285
52.996663999999896,14.381143999999988,282
52.0246639999999,12.437143999999988,233
51.700663999999904,12.437143999999988,229
51.37666399999991,11.789143999999988,214
51.37666399999991,12.437143999999988,230
52.6726639999999,11.789143999999988,209
53.64466399999989,13.085143999999987,223
53.32066399999989,13.085143999999987,222
52.996663999999896,13.085143999999987,261
53.64466399999989,12.437143999999988,162
51.37666399999991,13.733143999999989,273
53.32066399999989,12.437143999999988,235
52.6726639999999,14.381143999999988,252
51.37666399999991,13.085143999999987,263
53.32066399999989,14.381143999999988,316
52.3486639999999,15.029143999999986,319
52.0246639999999,15.677143999999986,323
51.700663999999904,15.029143999999986,311
51.05266399999991,16.325143999999987,446
51.05266399999991,16.973143999999984,439
51.700663999999904,15.677143999999986,335
51.37666399999991,15.677143999999986,402
51.37666399999991,16.325143999999987,436
50.72866399999991,13.085143999999987,251
50.72866399999991,12.437143999999988,243
51.05266399999991,13.085143999999987,252
51.05266399999991,14.381143999999988,281
50.40466399999991,12.437143999999988,270
50.40466399999991,11.789143999999988,266
50.08066399999991,12.437143999999988,311
50.72866399999991,11.789143999999988,268
51.05266399999991,12.437143999999988,239
50.72866399999991,14.381143999999988,364
51.37666399999991,14.381143999999988,314
50.72866399999991,13.733143999999989,335
50.40466399999991,14.381143999999988,339
51.37666399999991,15.029143999999986,345
55.26466399999988,9.197143999999987,828
55.58866399999988,8.54914399999999,3562
55.91266399999988,8.54914399999999,7039
56.23666399999988,9.197143999999987,7047
56.23666399999988,10.493143999999988,7000
56.23666399999988,9.845143999999989,6987
55.91266399999988,9.845143999999989,6925
56.56066399999988,9.197143999999987,7057
56.56066399999988,8.54914399999999,7100
51.05266399999991,6.60514399999999,157
51.700663999999904,7.90114399999999,140
50.72866399999991,6.60514399999999,168
51.700663999999904,7.25314399999999,154
50.72866399999991,7.25314399999999,170
52.0246639999999,7.25314399999999,162
52.3486639999999,7.90114399999999,124
51.05266399999991,5.957143999999991,162
50.40466399999991,7.25314399999999,178
51.700663999999904,6.60514399999999,163
51.700663999999904,5.957143999999991,188
52.3486639999999,9.197143999999987,90
51.700663999999904,8.54914399999999,125
52.0246639999999,8.54914399999999,109
52.3486639999999,8.54914399999999,98
51.37666399999991,7.90114399999999,144
52.3486639999999,7.25314399999999,201
51.37666399999991,5.957143999999991,161
50.72866399999991,7.90114399999999,180
51.37666399999991,9.197143999999987,184
51.700663999999904,9.197143999999987,133
50.40466399999991,6.60514399999999,226
51.05266399999991,7.90114399999999,173
51.37666399999991,8.54914399999999,162
52.0246639999999,5.957143999999991,231
52.3486639999999,6.60514399999999,236
51.05266399999991,8.54914399999999,224
52.0246639999999,9.197143999999987,122
52.6726639999999,9.197143999999987,53
52.0246639999999,9.845143999999989,128
51.700663999999904,9.845143999999989,152
51.37666399999991,9.845143999999989,166
50.72866399999991,8.54914399999999,208
51.05266399999991,9.845143999999989,291
50.72866399999991,9.845143999999989,256
50.40466399999991,9.845143999999989,243
51.05266399999991,9.197143999999987,200
50.40466399999991,9.197143999999987,215
50.08066399999991,9.197143999999987,203
51.05266399999991,10.493143999999988,256
50.40466399999991,8.54914399999999,200
50.72866399999991,9.197143999999987,248
49.75666399999992,9.197143999999987,245
52.996663999999896,9.197143999999987,42
52.3486639999999,9.845143999999989,107
52.996663999999896,8.54914399999999,66
52.996663999999896,7.90114399999999,83
53.32066399999989,7.90114399999999,103
53.32066399999989,7.25314399999999,133
53.64466399999989,7.25314399999999,178
52.996663999999896,10.493143999999988,102
52.6726639999999,10.493143999999988,136
52.6726639999999,9.845143999999989,88
53.32066399999989,9.845143999999989,32
53.32066399999989,9.197143999999987,35
53.64466399999989,8.54914399999999,58
53.32066399999989,8.54914399999999,75
52.6726639999999,8.54914399999999,71
52.0246639999999,10.493143999999988,152
52.0246639999999,11.141143999999988,167
51.700663999999904,11.141143999999988,218
52.6726639999999,7.25314399999999,905
52.996663999999896,7.25314399999999,879
52.6726639999999,7.90114399999999,135
53.64466399999989,7.90114399999999,131
52.996663999999896,11.141143999999988,204
52.6726639999999,11.141143999999988,290
52.3486639999999,10.493143999999988,127
52.996663999999896,9.845143999999989,41
51.700663999999904,10.493143999999988,198
51.37666399999991,10.493143999999988,7399
51.700663999999904,11.789143999999988,201
52.3486639999999,11.141143999999988,149
51.37666399999991,11.141143999999988,224
51.05266399999991,11.789143999999988,231
49.10866399999992,11.141143999999988,240
48.78466399999992,11.141143999999988,283
48.46066399999992,11.789143999999988,298
49.43266399999992,11.789143999999988,252
50.08066399999991,11.789143999999988,272
49.75666399999992,12.437143999999988,289
49.10866399999992,11.789143999999988,258
48.78466399999992,12.437143999999988,324
48.46066399999992,12.437143999999988,312
49.10866399999992,12.437143999999988,281
48.78466399999992,13.085143999999987,351
48.136663999999925,12.437143999999988,348
47.81266399999993,11.789143999999988,317
48.136663999999925,10.493143999999988,322
47.81266399999993,10.493143999999988,368
48.78466399999992,10.493143999999988,284
47.48866399999993,10.493143999999988,363
48.46066399999992,10.493143999999988,304
49.43266399999992,13.085143999999987,338
48.46066399999992,13.085143999999987,373
49.43266399999992,10.493143999999988,229
49.75666399999992,9.845143999999989,220
49.75666399999992,10.493143999999988,242
50.40466399999991,11.141143999999988,251
50.08066399999991,11.141143999999988,272
50.72866399999991,11.141143999999988,254
49.75666399999992,11.141143999999988,239
48.78466399999992,11.789143999999988,298
50.40466399999991,10.493143999999988,223
50.08066399999991,9.845143999999989,215
50.08066399999991,10.493143999999988,280
49.43266399999992,12.437143999999988,304
49.75666399999992,11.789143999999988,267
49.10866399999992,13.085143999999987,338
50.72866399999991,10.493143999999988,271
49.10866399999992,10.493143999999988,240
48.78466399999992,9.845143999999989,265
48.46066399999992,8.54914399999999,268
48.46066399999992,9.197143999999987,265
48.78466399999992,9.197143999999987,260
48.78466399999992,8.54914399999999,244
50.08066399999991,7.25314399999999,213
49.75666399999992,6.60514399999999,231
49.43266399999992,6.60514399999999,234
49.10866399999992,6.60514399999999,256
49.43266399999992,7.25314399999999,228
49.75666399999992,7.25314399999999,213
49.10866399999992,5.957143999999991,269
48.78466399999992,7.25314399999999,280
50.08066399999991,6.60514399999999,228
47.48866399999993,9.197143999999987,315
48.136663999999925,8.54914399999999,291
48.136663999999925,9.197143999999987,311
47.81266399999993,7.25314399999999,314
49.43266399999992,9.845143999999989,225
49.10866399999992,9.845143999999989,252
53.64466399999989,14.381143999999988,309
50.08066399999991,13.085143999999987,395
49.75666399999992,13.085143999999987,395
45.86866399999994,9.197143999999987,418
46.19266399999994,9.197143999999987,404
46.516663999999935,8.54914399999999,357
46.516663999999935,9.197143999999987,399
46.19266399999994,8.54914399999999,416
47.16466399999993,8.54914399999999,324
45.86866399999994,4.661143999999991,480
46.84066399999993,9.845143999999989,333
45.22066399999994,5.957143999999991,530
45.22066399999994,5.309143999999991,532
45.86866399999994,5.957143999999991,480
45.54466399999994,5.957143999999991,485
44.89666399999994,4.661143999999991,554
44.89666399999994,5.309143999999991,569
44.572663999999946,4.661143999999991,568
44.24866399999995,4.661143999999991,557
43.92466399999995,4.661143999999991,550
46.19266399999994,7.25314399999999,366
48.78466399999992,5.957143999999991,291
48.136663999999925,6.60514399999999,342
48.46066399999992,6.60514399999999,314
48.78466399999992,6.60514399999999,311
47.16466399999993,7.90114399999999,328
48.136663999999925,7.25314399999999,304
48.46066399999992,7.25314399999999,296
46.516663999999935,6.60514399999999,356
46.84066399999993,6.60514399999999,348
46.84066399999993,7.25314399999999,344
46.516663999999935,5.957143999999991,375
46.19266399999994,5.957143999999991,391
46.84066399999993,8.54914399999999,336
46.84066399999993,7.90114399999999,340
45.86866399999994,5.309143999999991,485
46.19266399999994,6.60514399999999,364
45.86866399999994,6.60514399999999,373
47.48866399999993,6.60514399999999,343
47.48866399999993,7.25314399999999,322
47.16466399999993,7.25314399999999,338
49.10866399999992,4.013143999999992,368
49.75666399999992,4.661143999999991,297
49.43266399999992,4.661143999999991,341
49.10866399999992,5.309143999999991,329
46.19266399999994,4.661143999999991,519
46.84066399999993,9.197143999999987,324
46.19266399999994,5.309143999999991,485
46.516663999999935,5.309143999999991,481
45.54466399999994,6.60514399999999,537
45.54466399999994,5.309143999999991,499
43.60066399999995,4.013143999999992,581
43.60066399999995,3.365143999999992,597
42.62866399999996,2.717143999999992,670
43.276663999999954,2.717143999999992,617
45.54466399999994,4.661143999999991,485
45.22066399999994,4.661143999999991,492
47.16466399999993,5.309143999999991,436
47.16466399999993,5.957143999999991,367
46.19266399999994,7.90114399999999,360
49.75666399999992,2.717143999999992,377
49.10866399999992,2.717143999999992,353
48.78466399999992,2.717143999999992,367
45.86866399999994,3.365143999999992,578
46.84066399999993,3.365143999999992,561
46.516663999999935,3.365143999999992,617
46.19266399999994,3.365143999999992,600
47.16466399999993,6.60514399999999,368
49.10866399999992,3.365143999999992,391
45.54466399999994,4.013143999999992,492
46.516663999999935,7.25314399999999,353
47.16466399999993,4.661143999999991,480
46.84066399999993,4.661143999999991,490
46.516663999999935,4.661143999999991,501
46.84066399999993,5.957143999999991,439
47.81266399999993,3.365143999999992,467
47.48866399999993,4.013143999999992,473
48.136663999999925,4.013143999999992,491
47.81266399999993,4.013143999999992,501
47.48866399999993,4.661143999999991,481
47.16466399999993,3.365143999999992,546
46.84066399999993,4.013143999999992,560
48.46066399999992,5.957143999999991,305
46.19266399999994,2.717143999999992,651
47.16466399999993,2.0691439999999925,494
46.516663999999935,2.717143999999992,643
46.84066399999993,2.717143999999992,586
46.84066399999993,2.0691439999999925,552
47.16466399999993,2.717143999999992,534
44.572663999999946,5.309143999999991,610
44.572663999999946,5.957143999999991,624
44.89666399999994,6.60514399999999,507
44.572663999999946,6.60514399999999,589
43.60066399999995,5.309143999999991,581
43.92466399999995,7.25314399999999,605
43.60066399999995,6.60514399999999,626
43.276663999999954,6.60514399999999,644
43.276663999999954,5.957143999999991,599
45.86866399999994,8.54914399999999,425
45.54466399999994,8.54914399999999,445
48.136663999999925,3.365143999999992,449
48.46066399999992,3.365143999999992,462
48.46066399999992,2.717143999999992,431
47.48866399999993,5.309143999999991,528
46.516663999999935,9.845143999999989,344
46.84066399999993,10.493143999999988,1331
47.81266399999993,5.309143999999991,493
45.22066399999994,6.60514399999999,501
46.19266399999994,4.013143999999992,545
45.86866399999994,4.013143999999992,509
45.22066399999994,4.013143999999992,502
44.89666399999994,4.013143999999992,560
46.84066399999993,5.309143999999991,450
48.136663999999925,-1.8188560000000056,505
48.136663999999925,0.1251439999999934,451
48.136663999999925,-0.5228560000000062,473
47.48866399999993,-0.5228560000000062,489
47.16466399999993,-1.8188560000000056,530
47.48866399999993,0.7731439999999932,439
47.16466399999993,0.1251439999999934,494
45.86866399999994,7.25314399999999,379
48.136663999999925,5.309143999999991,453
49.10866399999992,4.661143999999991,369
48.46066399999992,4.013143999999992,474
48.136663999999925,4.661143999999991,507
47.81266399999993,6.60514399999999,451
47.48866399999993,5.957143999999991,514
48.136663999999925,5.957143999999991,663
45.86866399999994,7.90114399999999,374
46.516663999999935,7.90114399999999,349
49.43266399999992,3.365143999999992,365
49.43266399999992,4.013143999999992,380
48.136663999999925,2.717143999999992,591
47.81266399999993,2.717143999999992,578
47.48866399999993,2.717143999999992,554
50.40466399999991,2.717143999999992,253
48.46066399999992,-4.410856000000004,638
48.46066399999992,-3.7628560000000046,601
48.46066399999992,-3.114856000000005,571
48.46066399999992,-2.4668560000000053,549
47.48866399999993,1.4211439999999929,496
47.16466399999993,1.4211439999999929,503
46.516663999999935,4.013143999999992,505
43.60066399999995,4.661143999999991,582
44.89666399999994,2.717143999999992,657
45.22066399999994,2.717143999999992,628
45.54466399999994,3.365143999999992,568
45.22066399999994,3.365143999999992,515
47.48866399999993,3.365143999999992,526
46.19266399999994,9.845143999999989,382
47.81266399999993,2.0691439999999925,455
47.48866399999993,2.0691439999999925,517
45.86866399999994,2.717143999999992,580
44.89666399999994,5.957143999999991,577
45.22066399999994,1.4211439999999929,638
44.89666399999994,1.4211439999999929,657
44.89666399999994,2.0691439999999925,749
43.276663999999954,2.0691439999999925,639
43.60066399999995,1.4211439999999929,637
48.78466399999992,4.661143999999991,350
48.78466399999992,5.309143999999991,313
46.19266399999994,2.0691439999999925,620
45.86866399999994,1.4211439999999929,593
46.19266399999994,1.4211439999999929,578
44.572663999999946,4.013143999999992,655
44.89666399999994,3.365143999999992,636
43.92466399999995,4.013143999999992,584
44.24866399999995,4.013143999999992,610
44.89666399999994,-0.5228560000000062,494
45.54466399999994,0.1251439999999934,515
46.516663999999935,0.1251439999999934,474
44.572663999999946,2.0691439999999925,726
49.75666399999992,4.013143999999992,276
43.92466399999995,3.365143999999992,681
43.92466399999995,2.717143999999992,712
44.24866399999995,3.365143999999992,736
44.572663999999946,3.365143999999992,777
49.10866399999992,0.1251439999999934,502
49.43266399999992,0.7731439999999932,475
49.43266399999992,-1.8188560000000056,600
49.10866399999992,-1.170856000000006,580
49.10866399999992,-0.5228560000000062,564
49.10866399999992,0.7731439999999932,529
49.10866399999992,1.4211439999999929,465
47.81266399999993,-1.8188560000000056,546
47.81266399999993,-2.4668560000000053,571
47.81266399999993,-3.114856000000005,600
48.136663999999925,-3.7628560000000046,641
44.572663999999946,9.197143999999987,536
44.89666399999994,8.54914399999999,509
45.22066399999994,9.197143999999987,469
45.54466399999994,10.493143999999988,487
44.572663999999946,10.493143999999988,1798
44.89666399999994,10.493143999999988,613
44.89666399999994,9.845143999999989,565
48.46066399999992,5.309143999999991,440
50.91599999999999,-1.0580000000000025,65535
51.23999999999999,-0.4100000000000028,65535
50.91599999999999,-0.4100000000000028,65535
51.23999999999999,-2.354000000000002,65535
51.56399999999999,-2.354000000000002,65535
51.56399999999999,-3.0020000000000016,65535
50.91599999999999,-2.354000000000002,65535
53.50799999999997,-3.0020000000000016,65535
53.183999999999976,-2.354000000000002,65535
53.183999999999976,-3.0020000000000016,65535
52.85999999999998,-2.354000000000002,65535
52.21199999999998,-1.0580000000000025,65535
51.887999999999984,-1.0580000000000025,65535
52.53599999999998,-1.0580000000000025,65535
52.53599999999998,-1.7060000000000022,65535
52.85999999999998,-1.7060000000000022,65535
53.50799999999997,-2.354000000000002,65535
52.85999999999998,-1.0580000000000025,65535
52.53599999999998,1.5339999999999965,65535
52.53599999999998,0.8859999999999966,65535
52.53599999999998,0.2379999999999968,65535
52.53599999999998,-0.4100000000000028,65535
53.50799999999997,-1.7060000000000022,65535
53.183999999999976,-1.7060000000000022,65535
53.183999999999976,-1.0580000000000025,65535
52.85999999999998,-0.4100000000000028,65535
51.887999999999984,-2.354000000000002,65535
52.21199999999998,-2.354000000000002,65535
55.77599999999996,-2.354000000000002,65535
53.83199999999997,-1.0580000000000025,65535
53.83199999999997,-1.7060000000000022,65535
55.127999999999965,-1.7060000000000022,65535
54.80399999999997,-1.7060000000000022,65535
54.47999999999997,-1.7060000000000022,65535
54.15599999999997,-1.0580000000000025,65535
52.21199999999998,-1.7060000000000022,65535
53.50799999999997,-1.0580000000000025,65535
55.77599999999996,-3.0020000000000016,65535
55.45199999999996,-1.7060000000000022,65535
57.07199999999995,-2.354000000000002,65535
56.74799999999996,-3.0020000000000016,65535
56.42399999999996,-3.0020000000000016,65535
56.09999999999996,-3.650000000000001,65535
50.91599999999999,-3.0020000000000016,65535
50.91599999999999,-3.650000000000001,65535
50.59199999999999,-3.650000000000001,65535
50.59199999999999,-4.298000000000001,65535
51.23999999999999,-3.0020000000000016,65535
50.268,-4.946000000000001,65535
55.77599999999996,-3.650000000000001,65535
55.77599999999996,-4.298000000000001,65535
52.21199999999998,-0.4100000000000028,65535
52.53599999999998,-2.354000000000002,65535
51.56399999999999,-1.7060000000000022,65535
51.56399999999999,-3.650000000000001,65535
51.887999999999984,-4.298000000000001,65535
51.56399999999999,-4.298000000000001,65535
51.887999999999984,-1.7060000000000022,65535
52.21199999999998,-3.0020000000000016,65535
51.23999999999999,0.2379999999999968,65535
50.91599999999999,0.2379999999999968,65535
52.21199999999998,0.2379999999999968,65535
53.83199999999997,-3.0020000000000016,65535
54.15599999999997,-3.0020000000000016,65535
54.47999999999997,-3.0020000000000016,65535
55.127999999999965,-3.650000000000001,65535
54.80399999999997,-3.0020000000000016,65535
53.83199999999997,-2.354000000000002,65535
54.15599999999997,-0.4100000000000028,65535
54.47999999999997,-1.0580000000000025,65535
53.83199999999997,-0.4100000000000028,65535
53.183999999999976,-3.650000000000001,65535
53.183999999999976,-4.298000000000001,65535
52.85999999999998,-3.0020000000000016,65535
52.53599999999998,-3.0020000000000016,65535
51.887999999999984,-3.0020000000000016,65535
51.23999999999999,0.8859999999999966,65535
51.887999999999984,0.2379999999999968,65535
52.21199999999998,0.8859999999999966,65535
51.887999999999984,-4.946000000000001,65535
52.53599999999998,-3.650000000000001,65535
52.21199999999998,-4.298000000000001,65535
53.183999999999976,-0.4100000000000028,65535
51.23999999999999,-3.650000000000001,65535
51.887999999999984,-3.650000000000001,65535
52.21199999999998,-3.650000000000001,65535
51.56399999999999,0.8859999999999966,65535
51.887999999999984,0.8859999999999966,65535
52.85999999999998,0.8859999999999966,65535
53.50799999999997,-0.4100000000000028,65535
56.09999999999996,-4.298000000000001,65535
56.74799999999996,-4.946000000000001,65535
56.74799999999996,-4.298000000000001,65535
56.42399999999996,-4.946000000000001,65535
56.42399999999996,-4.298000000000001,65535
56.09999999999996,-4.946000000000001,65535
57.39599999999995,-4.298000000000001,65535
57.39599999999995,-3.0020000000000016,65535
57.39599999999995,-3.650000000000001,65535
56.42399999999996,-3.650000000000001,65535
57.07199999999995,-3.650000000000001,65535
57.07199999999995,-4.298000000000001,65535
56.74799999999996,-3.650000000000001,65535
59.15266399999986,27.34114399999998,65535
59.47666399999986,26.69314399999997,65535
59.47666399999986,26.04514399999998,65535
59.15266399999986,26.04514399999998,65535
59.15266399999986,24.74914399999998,65535
59.15266399999986,25.397143999999983,65535
59.47666399999986,25.397143999999983,65535
58.50466399999986,26.69314399999997,65535
58.82866399999986,26.69314399999997,65535
57.85666399999987,26.04514399999998,65535
58.180663999999865,26.04514399999998,65535
58.180663999999865,26.69314399999997,65535
58.82866399999986,26.04514399999998,65535
58.50466399999986,25.397143999999983,65535
58.82866399999986,25.397143999999983,65535
58.82866399999986,24.74914399999998,65535
58.180663999999865,27.34114399999998,65535
57.85666399999987,27.34114399999998,65535
63.68866399999983,27.34114399999998,7557
60.124663999999854,24.74914399999998,4213
60.44866399999985,24.74914399999998,4182
60.44866399999985,25.397143999999983,4194
60.77266399999985,25.397143999999983,4905
61.09666399999985,26.04514399999998,4948
60.77266399999985,26.04514399999998,4956
60.77266399999985,26.69314399999997,4975
61.09666399999985,25.397143999999983,4939
61.09666399999985,26.69314399999997,7678
61.420663999999846,26.69314399999997,7700
61.74466399999984,27.34114399999998,7724
62.06866399999984,27.34114399999998,7749
62.39266399999984,27.34114399999998,7773
62.71666399999984,27.34114399999998,7737
64.01266399999983,27.34114399999998,7513
63.36466399999984,27.34114399999998,7625
63.04066399999984,27.34114399999998,7665
63.04066399999984,27.989143999999985,7680
64.33666399999983,27.989143999999985,5264
64.33666399999983,27.34114399999998,5209
64.66066399999983,27.34114399999998,5194
64.66066399999983,26.69314399999997,5139
64.98466399999982,25.397143999999983,3559
64.66066399999983,26.04514399999998,5120
64.98466399999982,26.04514399999998,5104
66.28066399999982,25.397143999999983,3731
65.95666399999982,24.74914399999998,3472
65.63266399999982,24.74914399999998,3476
65.63266399999982,25.397143999999983,3518
65.30866399999982,25.397143999999983,3539
66.60466399999981,25.397143999999983,3765
64.01266399999983,24.74914399999998,3696
64.01266399999983,24.101143999999977,3731
64.01266399999983,23.45314399999998,3755
63.68866399999983,23.45314399999998,3767
63.68866399999983,22.805143999999984,3792
63.68866399999983,26.04514399999998,5824
63.68866399999983,25.397143999999983,5790
63.68866399999983,26.69314399999997,7524
60.44866399999985,26.69314399999997,8309
64.01266399999983,27.989143999999985,7943
62.71666399999984,22.805143999999984,3914
62.39266399999984,22.805143999999984,3946
62.06866399999984,22.805143999999984,3975
62.06866399999984,23.45314399999998,3991
61.74466399999984,23.45314399999998,4003
61.420663999999846,23.45314399999998,4051
61.09666399999985,23.45314399999998,4092
61.09666399999985,24.101143999999977,4099
61.09666399999985,24.74914399999998,4133
60.77266399999985,24.74914399999998,4149
63.04066399999984,21.50914399999997,65535
63.04066399999984,22.15714399999998,65535
63.04066399999984,22.805143999999984,3878
62.39266399999984,26.04514399999998,7921
62.06866399999984,25.397143999999983,7970
61.74466399999984,25.397143999999983,8038
61.74466399999984,24.74914399999998,8075
61.74466399999984,24.101143999999977,4280
61.420663999999846,24.101143999999977,4235
62.39266399999984,26.69314399999997,7892
64.66066399999983,25.397143999999983,3628
64.66066399999983,24.74914399999998,3646
64.33666399999983,24.74914399999998,3657
63.36466399999984,22.805143999999984,3817
67.25266399999981,24.101143999999977,7345
66.92866399999981,24.101143999999977,7309
66.60466399999981,23.45314399999998,7278
66.28066399999982,23.45314399999998,7260
66.28066399999982,24.101143999999977,7242
65.95666399999982,24.101143999999977,2844
60.124663999999854,24.101143999999977,5727
60.124663999999854,23.45314399999998,6585
60.44866399999985,22.805143999999984,6644
60.77266399999985,27.34114399999998,5027
61.09666399999985,27.989143999999985,5057
61.09666399999985,28.63714399999997,5095
61.420663999999846,29.28514399999997,5130
61.74466399999984,29.933143999999977,5167
62.06866399999984,29.933143999999977,5193
62.39266399999984,29.933143999999977,5209
62.71666399999984,29.933143999999977,5233
61.420663999999846,22.805143999999984,6338
61.420663999999846,22.15714399999998,7046
61.09666399999985,22.15714399999998,6384
61.420663999999846,21.50914399999997,7179
62.39266399999984,27.989143999999985,65535
62.06866399999984,27.989143999999985,65535
61.420663999999846,27.34114399999998,65535
63.04066399999984,29.933143999999977,7172
63.68866399999983,29.28514399999997,8955
63.36466399999984,29.28514399999997,8935
63.36466399999984,29.933143999999977,8894
60.44866399999985,27.34114399999998,65535
61.74466399999984,29.28514399999997,65535
62.39266399999984,30.58114399999998,65535
62.71666399999984,31.229143999999977,65535
62.71666399999984,29.28514399999997,65535
63.04066399999984,28.63714399999997,65535
66.60466399999981,26.04514399999998,6586
66.60466399999981,26.69314399999997,6622
66.60466399999981,27.34114399999998,6645
62.71666399999984,26.04514399999998,7806
62.71666399999984,25.397143999999983,7775
63.04066399999984,25.397143999999983,7595
63.36466399999984,25.397143999999983,6232
62.71666399999984,23.45314399999998,7800
62.39266399999984,24.101143999999977,65535
62.71666399999984,22.15714399999998,65535
62.39266399999984,22.15714399999998,65535
62.39266399999984,21.50914399999997,65535
61.09666399999985,21.50914399999997,6414
60.77266399999985,22.805143999999984,4452
60.44866399999985,22.15714399999998,4482
60.77266399999985,23.45314399999998,4439
60.77266399999985,21.50914399999997,5553
60.77266399999985,22.15714399999998,5506
60.124663999999854,22.805143999999984,8599
60.44866399999985,24.101143999999977,5712
62.06866399999984,24.74914399999998,65535
50.72866399999991,16.325143999999987,473
50.40466399999991,16.973143999999984,501
50.72866399999991,16.973143999999984,459
50.40466399999991,16.325143999999987,501
50.08066399999991,16.973143999999984,440
50.08066399999991,16.325143999999987,393
51.700663999999904,16.973143999999984,411
51.37666399999991,16.973143999999984,421
51.05266399999991,15.677143999999986,382
50.72866399999991,15.677143999999986,456
51.05266399999991,17.621143999999987,462
51.37666399999991,17.621143999999987,435
51.700663999999904,17.621143999999987,449
51.700663999999904,16.325143999999987,399
52.0246639999999,22.15714399999998,783
52.0246639999999,21.50914399999997,772
52.3486639999999,21.50914399999997,779
52.0246639999999,20.86114399999998,752
51.700663999999904,20.86114399999998,714
51.37666399999991,21.50914399999997,739
51.37666399999991,20.86114399999998,710
51.05266399999991,20.86114399999998,703
52.6726639999999,23.45314399999998,1396
52.3486639999999,22.805143999999984,1367
52.3486639999999,20.213143999999986,788
52.0246639999999,20.213143999999986,803
52.3486639999999,19.565143999999982,652
52.6726639999999,19.565143999999982,751
51.700663999999904,21.50914399999997,777
51.700663999999904,22.15714399999998,812
52.6726639999999,21.50914399999997,823
52.996663999999896,21.50914399999997,909
52.6726639999999,20.86114399999998,793
52.6726639999999,22.15714399999998,839
52.6726639999999,20.213143999999986,817
52.996663999999896,19.565143999999982,848
52.996663999999896,20.86114399999998,835
52.996663999999896,20.213143999999986,844
53.32066399999989,20.213143999999986,800
51.37666399999991,20.213143999999986,738
52.3486639999999,16.973143999999984,399
52.0246639999999,16.973143999999984,413
52.0246639999999,16.325143999999987,381
52.0246639999999,17.621143999999987,425
52.6726639999999,16.973143999999984,415
52.996663999999896,16.973143999999984,385
52.3486639999999,16.325143999999987,366
52.3486639999999,15.677143999999986,347
51.700663999999904,18.269143999999983,632
52.6726639999999,17.621143999999987,457
52.3486639999999,17.621143999999987,434
52.6726639999999,18.269143999999983,485
52.3486639999999,18.269143999999983,449
52.3486639999999,18.917143999999983,522
52.996663999999896,17.621143999999987,438
51.700663999999904,19.565143999999982,1310
51.700663999999904,18.917143999999983,1386
51.37666399999991,18.269143999999983,447
58.82866399999986,9.197143999999987,1808
58.180663999999865,7.90114399999999,1901
58.50466399999986,8.54914399999999,1852
63.36466399999984,10.493143999999988,2023
63.36466399999984,11.141143999999988,2030
63.36466399999984,11.789143999999988,2065
63.68866399999983,11.789143999999988,2093
64.33666399999983,12.437143999999988,2494
64.66066399999983,12.437143999999988,2989
65.63266399999982,13.085143999999987,2646
65.95666399999982,13.085143999999987,2681
66.28066399999982,14.381143999999988,2751
65.95666399999982,13.733143999999989,2820
66.28066399999982,13.733143999999989,2729
65.30866399999982,13.085143999999987,2947
64.98466399999982,13.085143999999987,2581
64.01266399999983,11.789143999999988,2124
63.68866399999983,11.141143999999988,2061
59.800663999999855,10.493143999999988,1604
59.800663999999855,11.141143999999988,1587
60.124663999999854,11.141143999999988,1602
60.44866399999985,11.141143999999988,1615
60.124663999999854,11.789143999999988,1628
60.77266399999985,7.25314399999999,1864
60.77266399999985,6.60514399999999,1910
59.15266399999986,9.197143999999987,1690
59.47666399999986,9.197143999999987,1711
59.800663999999855,9.845143999999989,1606
59.47666399999986,11.141143999999988,1551
61.09666399999985,10.493143999999988,1725
60.77266399999985,10.493143999999988,1695
60.77266399999985,11.141143999999988,1650
62.06866399999984,9.197143999999987,2050
61.74466399999984,9.845143999999989,1996
61.420663999999846,9.845143999999989,1973
59.15266399999986,9.845143999999989,1670
59.47666399999986,9.845143999999989,1646
58.82866399999986,5.957143999999991,2085
58.180663999999865,7.25314399999999,1957
58.50466399999986,7.25314399999999,1990
58.50466399999986,6.60514399999999,1995
58.50466399999986,5.957143999999991,2053
58.82866399999986,8.54914399999999,1838
60.44866399999985,7.25314399999999,1838
60.44866399999985,7.90114399999999,1799
60.124663999999854,10.493143999999988,1636
60.44866399999985,9.197143999999987,1748
60.77266399999985,9.197143999999987,1760
60.77266399999985,8.54914399999999,1779
60.124663999999854,9.845143999999989,2015
60.44866399999985,10.493143999999988,1681
63.04066399999984,10.493143999999988,1974
62.06866399999984,9.845143999999989,2075
62.39266399999984,9.845143999999989,2083
62.71666399999984,9.845143999999989,2107
59.47666399999986,14.381143999999988,1600
59.47666399999986,13.733143999999989,1541
59.47666399999986,13.085143999999987,1517
59.800663999999855,12.437143999999988,1586
59.15266399999986,11.141143999999988,1515
59.15266399999986,14.381143999999988,1614
58.82866399999986,11.789143999999988,1495
58.50466399999986,12.437143999999988,1425
58.180663999999865,12.437143999999988,1418
57.85666399999987,11.789143999999988,1369
62.71666399999984,7.90114399999999,2136
62.39266399999984,7.90114399999999,2093
62.06866399999984,8.54914399999999,2068
60.44866399999985,5.309143999999991,1984
60.44866399999985,5.957143999999991,1951
60.77266399999985,5.957143999999991,1940
62.39266399999984,11.141143999999988,1871
62.06866399999984,10.493143999999988,1826
61.74466399999984,11.141143999999988,1799
61.420663999999846,11.141143999999988,1753
61.09666399999985,11.141143999999988,1736
60.77266399999985,11.789143999999988,1713
63.04066399999984,11.141143999999988,1952
62.71666399999984,11.141143999999988,1895
62.39266399999984,10.493143999999988,1853
67.25266399999981,15.677143999999986,2870
67.25266399999981,15.029143999999986,2908
67.25266399999981,14.381143999999988,2936
66.92866399999981,15.029143999999986,2859
66.60466399999981,15.677143999999986,2837
64.01266399999983,11.141143999999988,2108
66.60466399999981,15.029143999999986,2900
54.29266399999989,18.269143999999983,583
54.616663999999886,17.621143999999987,575
53.96866399999989,18.269143999999983,498
43.92466399999995,1.4211439999999929,609
44.24866399999995,0.7731439999999932,571
44.572663999999946,0.1251439999999934,548
46.84066399999993,1.4211439999999929,526
44.572663999999946,1.4211439999999929,689
44.24866399999995,1.4211439999999929,655
45.54466399999994,1.4211439999999929,645
46.516663999999935,1.4211439999999929,551
42.30466399999996,2.717143999999992,691
44.24866399999995,2.717143999999992,695
44.572663999999946,2.717143999999992,818
43.92466399999995,2.0691439999999925,632
42.30466399999996,2.0691439999999925,810
42.62866399999996,2.0691439999999925,723
42.62866399999996,1.4211439999999929,746
42.95266399999996,1.4211439999999929,684
43.276663999999954,1.4211439999999929,667
46.516663999999935,-1.170856000000006,599
46.19266399999994,-1.170856000000006,593
45.86866399999994,-0.5228560000000062,602
45.54466399999994,-0.5228560000000062,581
48.46066399999992,1.4211439999999929,415
41.332663999999966,2.0691439999999925,1714
41.98066399999996,2.717143999999992,1673
48.46066399999992,-1.8188560000000056,520
47.81266399999993,0.7731439999999932,482
46.84066399999993,0.7731439999999932,492
44.572663999999946,-1.170856000000006,505
43.60066399999995,-1.170856000000006,570
43.276663999999954,-1.8188560000000056,599
43.276663999999954,0.1251439999999934,679
42.95266399999996,0.1251439999999934,653
43.276663999999954,-0.5228560000000062,625
43.60066399999995,-0.5228560000000062,601
47.81266399999993,-3.7628560000000046,614
47.48866399999993,-2.4668560000000053,554
47.81266399999993,-0.5228560000000062,525
46.516663999999935,-1.8188560000000056,614
48.136663999999925,-1.170856000000006,535
47.48866399999993,-1.170856000000006,537
45.22066399999994,8.54914399999999,486
45.22066399999994,7.90114399999999,474
46.19266399999994,-0.5228560000000062,562
46.516663999999935,-0.5228560000000062,541
48.78466399999992,-3.114856000000005,590
50.72866399999991,2.0691439999999925,317
50.40466399999991,2.0691439999999925,329
40.36066399999997,-3.7628560000000046,1905
41.65666399999997,-1.170856000000006,1822
41.332663999999966,1.4211439999999929,1760
43.276663999999954,13.733143999999989,4390
42.95266399999996,13.733143999999989,4412
41.65666399999997,15.029143999999986,4496
40.68466399999997,17.621143999999987,4658
43.60066399999995,13.085143999999987,4383
41.65666399999997,12.437143999999988,3049
41.65666399999997,13.085143999999987,3068
41.98066399999996,13.085143999999987,3118
41.65666399999997,13.733143999999989,3120
41.332663999999966,13.733143999999989,3112
41.332663999999966,14.381143999999988,3269
41.00866399999997,14.381143999999988,3175
41.332663999999966,13.085143999999987,3094
41.00866399999997,15.029143999999986,3375
41.98066399999996,13.733143999999989,3317
42.30466399999996,14.381143999999988,3456
42.30466399999996,12.437143999999988,3057
42.62866399999996,12.437143999999988,3236
42.95266399999996,12.437143999999988,3521
42.30466399999996,11.789143999999988,3066
42.95266399999996,11.789143999999988,3276
42.62866399999996,11.789143999999988,3267
43.276663999999954,11.789143999999988,3330
42.95266399999996,13.085143999999987,4284
42.30466399999996,13.085143999999987,3343
43.276663999999954,13.085143999999987,4332
43.276663999999954,12.437143999999988,4339
42.62866399999996,11.141143999999988,3112
42.95266399999996,11.141143999999988,3155
42.95266399999996,10.493143999999988,3173
44.572663999999946,8.54914399999999,530
44.89666399999994,7.90114399999999,479
44.89666399999994,9.197143999999987,552
44.24866399999995,7.90114399999999,519
44.572663999999946,7.90114399999999,500
43.92466399999995,7.90114399999999,578
44.24866399999995,7.25314399999999,516
44.89666399999994,7.25314399999999,498
45.22066399999994,7.25314399999999,478
45.54466399999994,7.90114399999999,458
44.572663999999946,7.25314399999999,562
52.996663999999896,22.805143999999984,1361
52.996663999999896,23.45314399999998,1362
51.37666399999991,22.15714399999998,1211
51.37666399999991,22.805143999999984,1265
50.08066399999991,20.213143999999986,661
50.72866399999991,20.213143999999986,622
50.40466399999991,20.213143999999986,628
50.08066399999991,20.86114399999998,672
50.08066399999991,21.50914399999997,724
50.08066399999991,22.15714399999998,760
50.08066399999991,22.805143999999984,779
53.96866399999989,22.805143999999984,1601
53.64466399999989,23.45314399999998,1555
53.32066399999989,23.45314399999998,1502
50.40466399999991,19.565143999999982,563
50.08066399999991,18.917143999999983,606
50.08066399999991,18.269143999999983,515
52.0246639999999,22.805143999999984,793
52.0246639999999,23.45314399999998,830
51.37666399999991,19.565143999999982,1299
51.05266399999991,19.565143999999982,608
50.72866399999991,18.917143999999983,553
50.72866399999991,19.565143999999982,577
49.75666399999992,18.917143999999983,680
50.40466399999991,18.269143999999983,505
53.64466399999989,19.565143999999982,612
53.96866399999989,18.917143999999983,540
53.64466399999989,18.917143999999983,519
53.64466399999989,20.213143999999986,643
52.996663999999896,18.917143999999983,515
52.996663999999896,18.269143999999983,476
53.32066399999989,18.917143999999983,536
50.72866399999991,17.621143999999987,468
50.72866399999991,18.269143999999983,510
52.6726639999999,16.325143999999987,426
52.996663999999896,16.325143999999987,376
52.996663999999896,15.677143999999986,351
53.32066399999989,15.677143999999986,439
53.32066399999989,15.029143999999986,368
53.64466399999989,15.029143999999986,375
53.96866399999989,15.029143999999986,403
52.6726639999999,18.917143999999983,561
53.32066399999989,16.325143999999987,457
52.6726639999999,15.029143999999986,284
51.05266399999991,22.805143999999984,1296
51.05266399999991,23.45314399999998,1323
50.72866399999991,22.15714399999998,1261
50.40466399999991,22.15714399999998,1250
51.05266399999991,22.15714399999998,1262
54.616663999999886,16.973143999999984,554
54.29266399999989,16.325143999999987,506
53.96866399999989,15.677143999999986,469
50.72866399999991,21.50914399999997,1291
50.40466399999991,21.50914399999997,825
50.40466399999991,17.621143999999987,489
53.32066399999989,22.805143999999984,1313
53.64466399999989,22.15714399999998,1237
54.29266399999989,16.973143999999984,532
50.72866399999991,20.86114399999998,670
51.700663999999904,22.805143999999984,1480
51.05266399999991,21.50914399999997,770
50.08066399999991,19.565143999999982,622
52.0246639999999,18.917143999999983,8488
52.0246639999999,19.565143999999982,8481
53.64466399999989,18.269143999999983,492
51.700663999999904,20.213143999999986,1286
53.32066399999989,19.565143999999982,635
50.72866399999991,23.45314399999998,1675
50.72866399999991,22.805143999999984,1644
49.43266399999992,20.213143999999986,743
49.75666399999992,21.50914399999997,853
49.75666399999992,22.15714399999998,1302
49.43266399999992,22.15714399999998,1314
51.05266399999991,18.917143999999983,516
51.05266399999991,18.269143999999983,468
53.32066399999989,16.973143999999984,394
53.64466399999989,16.973143999999984,413
49.75666399999992,20.86114399999998,745
50.40466399999991,22.805143999999984,8570
53.64466399999989,16.325143999999987,448
53.96866399999989,20.86114399999998,673
54.29266399999989,20.86114399999998,719
53.96866399999989,21.50914399999997,852
53.64466399999989,15.677143999999986,434
53.96866399999989,20.213143999999986,601
53.96866399999989,19.565143999999982,564
54.29266399999989,19.565143999999982,574
53.96866399999989,16.325143999999987,468
53.64466399999989,17.621143999999987,444
53.96866399999989,22.15714399999998,918
53.64466399999989,21.50914399999997,1286
53.64466399999989,20.86114399999998,793
52.6726639999999,15.677143999999986,334
51.05266399999991,20.213143999999986,1249
54.940663999999884,24.101143999999977,3681
54.616663999999886,23.45314399999998,3625
54.29266399999989,23.45314399999998,3488
53.64466399999989,22.805143999999984,1300
53.96866399999989,16.973143999999984,553
50.40466399999991,20.86114399999998,1306
53.32066399999989,18.269143999999983,529
49.75666399999992,19.565143999999982,670
50.40466399999991,23.45314399999998,925
49.75666399999992,20.213143999999986,721
49.43266399999992,19.565143999999982,645
49.43266399999992,20.86114399999998,782
53.96866399999989,17.621143999999987,1323
42.30466399999996,-1.8188560000000056,8799
41.98066399999996,-1.8188560000000056,8782
41.65666399999997,0.7731439999999932,8786
42.62866399999996,-1.8188560000000056,8914
42.95266399999996,-1.8188560000000056,8943
42.62866399999996,-3.114856000000005,9037
42.95266399999996,-2.4668560000000053,9015
42.62866399999996,-7.650856000000003,9379
42.30466399999996,-7.650856000000003,9439
42.30466399999996,-8.946856000000002,9575
42.30466399999996,-8.298856000000002,9549
41.98066399999996,-8.298856000000002,9538
42.30466399999996,-7.002856000000003,9321
42.62866399999996,-6.354856000000003,9263
42.30466399999996,-6.354856000000003,9218
42.62866399999996,-5.706856000000004,8718
41.98066399999996,-4.410856000000004,8672
42.30466399999996,-3.7628560000000046,9063
40.03666399999997,-0.5228560000000062,8766
39.38866399999998,-0.5228560000000062,8814
41.00866399999997,0.7731439999999932,8914
40.68466399999997,0.7731439999999932,8946
40.36066399999997,0.1251439999999934,9024
39.712663999999975,-0.5228560000000062,8923
38.41666399999998,-0.5228560000000062,8935
39.06466399999998,-0.5228560000000062,9057
38.74066399999998,-1.170856000000006,8943
41.332663999999966,0.7731439999999932,8974
41.65666399999997,2.717143999999992,8574
41.65666399999997,2.0691439999999925,8597
41.332663999999966,0.1251439999999934,8932
41.332663999999966,-0.5228560000000062,8876
41.65666399999997,-4.410856000000004,8646
40.03666399999997,-2.4668560000000053,8884
41.00866399999997,-4.410856000000004,8767
43.276663999999954,-5.706856000000004,8848
39.38866399999998,-1.170856000000006,8909
38.09266399999999,-1.170856000000006,9322
38.74066399999998,-0.5228560000000062,9085
37.76866399999999,-1.170856000000006,9387
39.06466399999998,-1.8188560000000056,8907
39.38866399999998,-3.114856000000005,8807
39.38866399999998,-2.4668560000000053,8863
39.06466399999998,-2.4668560000000053,8890
39.06466399999998,-3.114856000000005,8811
39.06466399999998,-3.7628560000000046,8785
38.74066399999998,-3.7628560000000046,8864
40.03666399999997,-3.7628560000000046,8763
40.03666399999997,-3.114856000000005,8963
40.03666399999997,-1.8188560000000056,9044
39.712663999999975,-1.8188560000000056,9009
39.712663999999975,-1.170856000000006,8945
40.36066399999997,-1.170856000000006,8964
40.68466399999997,-1.170856000000006,8942
41.00866399999997,-1.170856000000006,8930
41.332663999999966,-1.170856000000006,8770
43.276663999999954,-8.298856000000002,9539
42.95266399999996,-8.298856000000002,9507
41.65666399999997,-5.706856000000004,65535
41.98066399999996,-7.002856000000003,65535
41.98066399999996,-6.354856000000003,65535
41.332663999999966,-5.058856000000004,8885
43.276663999999954,-3.7628560000000046,9320
42.95266399999996,-4.410856000000004,9254
42.62866399999996,-4.410856000000004,9244
42.30466399999996,-4.410856000000004,9203
41.00866399999997,-5.706856000000004,8823
41.332663999999966,-1.8188560000000056,8716
40.68466399999997,-3.114856000000005,8670
41.00866399999997,-3.114856000000005,8721
41.00866399999997,-2.4668560000000053,8744
41.332663999999966,-2.4668560000000053,8797
40.68466399999997,-4.410856000000004,8707
40.36066399999997,-4.410856000000004,8791
40.68466399999997,-3.7628560000000046,8699
40.36066399999997,-3.114856000000005,8677
41.65666399999997,-2.4668560000000053,8814
38.09266399999999,-3.7628560000000046,8911
38.74066399999998,-3.114856000000005,8855
37.76866399999999,-3.7628560000000046,8968
39.712663999999975,-3.114856000000005,8799
38.41666399999998,-3.7628560000000046,8876
40.03666399999997,-4.410856000000004,65535
40.03666399999997,-5.058856000000004,65535
39.38866399999998,-6.354856000000003,65535
39.38866399999998,-7.002856000000003,65535
42.95266399999996,-3.114856000000005,9448
41.98066399999996,-1.170856000000006,8811
42.30466399999996,-2.4668560000000053,8852
41.65666399999997,-0.5228560000000062,8909
41.98066399999996,-0.5228560000000062,8746
41.65666399999997,0.1251439999999934,8773
41.98066399999996,0.1251439999999934,8795
37.76866399999999,-5.058856000000004,8847
36.79666399999999,-4.410856000000004,8906
38.74066399999998,-4.410856000000004,8803
37.12066399999999,-4.410856000000004,8880
37.44466399999999,-5.058856000000004,9404
37.44466399999999,-7.002856000000003,65535
37.44466399999999,-6.354856000000003,65535
37.44466399999999,-5.706856000000004,9080
39.712663999999975,-3.7628560000000046,8873
42.62866399999996,-8.946856000000002,65535
42.30466399999996,-5.706856000000004,9225
42.30466399999996,-5.058856000000004,9310
42.95266399999996,-5.706856000000004,8750
41.00866399999997,-5.058856000000004,8791
40.68466399999997,-5.058856000000004,8765
41.65666399999997,-5.058856000000004,65535
41.65666399999997,-6.354856000000003,65535
36.79666399999999,-6.354856000000003,65535
37.12066399999999,-5.706856000000004,9248
37.76866399999999,-5.706856000000004,9047
38.09266399999999,-4.410856000000004,9182
37.12066399999999,-5.058856000000004,9202
36.79666399999999,-5.058856000000004,9160
37.76866399999999,-4.410856000000004,65535
37.76866399999999,-7.002856000000003,65535
38.41666399999998,-6.354856000000003,65535
38.09266399999999,-6.354856000000003,65535
48.78466399999992,1.4211439999999929,481
56.23666399999988,8.54914399999999,7090
55.58866399999988,9.197143999999987,6895
55.91266399999988,9.197143999999987,7036
55.26466399999988,10.493143999999988,1074
55.91266399999988,12.437143999999988,1209
55.58866399999988,11.789143999999988,6735
55.58866399999988,11.141143999999988,6776
55.26466399999988,11.789143999999988,6768
55.58866399999988,10.493143999999988,6891
55.58866399999988,13.085143999999987,1166
56.88466399999987,9.845143999999989,7042
57.20866399999987,9.845143999999989,7077
56.56066399999988,9.845143999999989,7014
56.88466399999987,8.54914399999999,7129
54.940663999999884,9.845143999999989,8236
54.940663999999884,11.789143999999988,6992
55.91266399999988,13.085143999999987,1224
56.23666399999988,13.733143999999989,1268
55.91266399999988,13.733143999999989,1271
56.23666399999988,14.381143999999988,1291
56.23666399999988,15.029143999999986,1332
56.23666399999988,15.677143999999986,1387
56.56066399999988,14.381143999999988,1348
56.88466399999987,14.381143999999988,1318
56.23666399999988,13.085143999999987,1216
56.56066399999988,13.085143999999987,1296
56.88466399999987,12.437143999999988,1333
57.20866399999987,12.437143999999988,1349
57.53266399999987,12.437143999999988,1364
56.88466399999987,15.029143999999986,1344
56.56066399999988,15.677143999999986,1404
56.88466399999987,15.677143999999986,1423
56.88466399999987,16.325143999999987,1438
55.91266399999988,11.789143999999988,7061
57.20866399999987,10.493143999999988,7264
49.43266399999992,1.4211439999999929,512
49.75666399999992,0.7731439999999932,498
49.75666399999992,2.0691439999999925,372
50.08066399999991,2.717143999999992,342
49.75666399999992,1.4211439999999929,510
47.81266399999993,1.4211439999999929,466
48.136663999999925,2.0691439999999925,549
48.46066399999992,2.0691439999999925,525
48.136663999999925,1.4211439999999929,430
48.78466399999992,0.1251439999999934,569
48.46066399999992,0.1251439999999934,555
47.81266399999993,0.1251439999999934,501
46.84066399999993,-0.5228560000000062,645
47.16466399999993,0.7731439999999932,471
46.84066399999993,0.1251439999999934,479
46.84066399999993,-1.170856000000006,573
50.08066399999991,1.4211439999999929,439
50.08066399999991,2.0691439999999925,430
49.43266399999992,2.717143999999992,378
49.75666399999992,3.365143999999992,309
50.08066399999991,3.365143999999992,270
49.10866399999992,2.0691439999999925,421
49.43266399999992,2.0691439999999925,372
48.78466399999992,0.7731439999999932,634
48.78466399999992,-0.5228560000000062,691
48.78466399999992,-1.170856000000006,642
48.136663999999925,0.7731439999999932,467
48.46066399999992,0.7731439999999932,491
43.92466399999995,5.957143999999991,604
44.24866399999995,5.957143999999991,645
43.92466399999995,5.309143999999991,560
42.95266399999996,2.717143999999992,647
45.54466399999994,2.0691439999999925,672
45.22066399999994,2.0691439999999925,674
42.95266399999996,2.0691439999999925,678
42.95266399999996,0.7731439999999932,688
43.276663999999954,0.7731439999999932,673
46.19266399999994,0.7731439999999932,627
46.516663999999935,0.7731439999999932,609
45.86866399999994,0.1251439999999934,534
46.19266399999994,0.1251439999999934,520
47.81266399999993,-1.170856000000006,572
48.136663999999925,-2.4668560000000053,538
47.48866399999993,-1.8188560000000056,566
47.16466399999993,-1.170856000000006,547
47.16466399999993,-0.5228560000000062,529
46.84066399999993,-1.8188560000000056,558
45.22066399999994,-0.5228560000000062,527
44.89666399999994,0.1251439999999934,542
45.22066399999994,0.7731439999999932,581
45.54466399999994,0.7731439999999932,642
45.86866399999994,0.7731439999999932,640
45.22066399999994,0.1251439999999934,573
44.89666399999994,0.7731439999999932,602
43.92466399999995,-0.5228560000000062,593
43.92466399999995,-1.170856000000006,585
44.24866399999995,-1.170856000000006,565
45.22066399999994,-1.170856000000006,618
44.572663999999946,-0.5228560000000062,523
44.24866399999995,0.1251439999999934,570
44.572663999999946,0.7731439999999932,632
43.276663999999954,-1.170856000000006,645
42.95266399999996,-0.5228560000000062,637
44.24866399999995,2.0691439999999925,668
43.60066399999995,0.7731439999999932,644
43.60066399999995,2.0691439999999925,615
52.6726639999999,4.661143999999991,7081
52.6726639999999,5.309143999999991,7104
51.700663999999904,5.309143999999991,7049
52.0246639999999,5.309143999999991,7061
52.3486639999999,5.309143999999991,7077
51.37666399999991,4.013143999999992,7057
52.3486639999999,5.957143999999991,7071
52.0246639999999,6.60514399999999,7101
52.6726639999999,5.957143999999991,7088
52.996663999999896,5.957143999999991,7101
53.32066399999989,5.957143999999991,7095
52.996663999999896,6.60514399999999,7077
53.32066399999989,6.60514399999999,7069
52.6726639999999,6.60514399999999,7097
52.996663999999896,5.309143999999991,7116
59.15266399999986,24.101143999999977,65535
56.88466399999987,24.101143999999977,65535
56.88466399999987,23.45314399999998,65535
56.88466399999987,22.805143999999984,65535
57.20866399999987,24.74914399999998,65535
56.88466399999987,24.74914399999998,65535
56.56066399999988,24.74914399999998,65535
56.56066399999988,25.397143999999983,65535
56.56066399999988,24.101143999999977,65535
56.56066399999988,23.45314399999998,65535
56.56066399999988,26.04514399999998,65535
56.88466399999987,26.04514399999998,65535
57.20866399999987,25.397143999999983,65535
57.53266399999987,25.397143999999983,65535
56.23666399999988,26.04514399999998,65535
56.23666399999988,26.69314399999997,65535
55.91266399999988,26.69314399999997,65535
56.56066399999988,26.69314399999997,65535
56.56066399999988,27.34114399999998,65535
56.56066399999988,27.989143999999985,65535
56.23666399999988,27.989143999999985,65535
55.91266399999988,27.34114399999998,65535
56.56066399999988,22.805143999999984,65535
56.56066399999988,22.15714399999998,65535
56.56066399999988,21.50914399999997,65535
57.20866399999987,26.69314399999997,65535
39.06466399999998,-8.946856000000002,65535
38.41666399999998,-8.298856000000002,65535
45.86866399999994,11.789143999999988,2068
46.19266399999994,11.789143999999988,2055
46.19266399999994,10.493143999999988,2095
45.22066399999994,18.269143999999983,1501
45.22066399999994,18.917143999999983,1575
45.54466399999994,16.973143999999984,1359
45.22066399999994,17.621143999999987,1436
45.86866399999994,16.325143999999987,1304
45.54466399999994,18.917143999999983,1615
45.54466399999994,16.325143999999987,1315
45.54466399999994,18.269143999999983,1593
44.89666399999994,18.917143999999983,1896
46.19266399999994,16.973143999999984,1290
46.19266399999994,16.325143999999987,1274
45.86866399999994,16.973143999999984,1344
45.86866399999994,17.621143999999987,1381
46.19266399999994,15.677143999999986,1309
46.516663999999935,16.325143999999987,1250
45.54466399999994,15.677143999999986,1372
45.22066399999994,15.029143999999986,1448
45.54466399999994,15.029143999999986,1412
45.22066399999994,15.677143999999986,1432
44.572663999999946,15.677143999999986,2059
44.24866399999995,15.677143999999986,2080
43.92466399999995,16.325143999999987,2144
44.89666399999994,15.677143999999986,2023
45.54466399999994,17.621143999999987,1568
45.22066399999994,16.325143999999987,1436
46.516663999999935,16.973143999999984,1317
45.86866399999994,18.269143999999983,1694
43.92466399999995,15.677143999999986,2246
45.22066399999994,13.733143999999989,1413
47.48866399999993,19.565143999999982,697
47.16466399999993,18.917143999999983,698
47.81266399999993,18.917143999999983,676
45.54466399999994,9.845143999999989,464
45.22066399999994,9.845143999999989,473
45.22066399999994,10.493143999999988,507
45.86866399999994,9.845143999999989,459
45.86866399999994,10.493143999999988,2838
48.78466399999992,21.50914399999997,1215
49.10866399999992,20.213143999999986,889
49.10866399999992,18.917143999999983,546
48.46066399999992,17.621143999999987,587
49.43266399999992,17.621143999999987,493
49.10866399999992,17.621143999999987,1312
48.136663999999925,18.269143999999983,618
49.10866399999992,18.269143999999983,567
49.43266399999992,18.269143999999983,524
49.43266399999992,16.973143999999984,471
49.75666399999992,16.973143999999984,441
49.75666399999992,16.325143999999987,419
50.08066399999991,15.677143999999986,371
50.08066399999991,15.029143999999986,341
49.43266399999992,18.917143999999983,535
47.81266399999993,20.86114399999998,1435
48.136663999999925,20.86114399999998,1380
48.46066399999992,20.86114399999998,1284
48.46066399999992,21.50914399999997,1170
49.10866399999992,19.565143999999982,580
48.136663999999925,17.621143999999987,566
48.78466399999992,22.15714399999998,1390
48.78466399999992,20.86114399999998,1439
49.10866399999992,20.86114399999998,927
48.78466399999992,18.269143999999983,578
48.78466399999992,17.621143999999987,629
49.10866399999992,21.50914399999997,1231
48.78466399999992,20.213143999999986,1305
48.46066399999992,20.213143999999986,1246
48.136663999999925,19.565143999999982,1218
48.46066399999992,19.565143999999982,1180
48.46066399999992,18.917143999999983,694
48.46066399999992,18.269143999999983,623
48.78466399999992,19.565143999999982,889
48.78466399999992,18.917143999999983,688
47.81266399999993,18.269143999999983,655
49.10866399999992,22.15714399999998,1340
49.43266399999992,21.50914399999997,1294
48.136663999999925,18.917143999999983,699
48.136663999999925,20.213143999999986,1267
52.636,-8.018,65535
52.312,-7.370000000000001,65535
52.312,-8.018,65535
52.636,-8.666,65535
51.988,-8.666,65535
51.988,-8.018,65535
52.96,-8.666,65535
52.96,-6.074000000000002,65535
53.28399999999999,-6.722000000000001,65535
53.60799999999999,-6.722000000000001,65535
53.60799999999999,-7.370000000000001,65535
53.60799999999999,-8.018,65535
54.25599999999999,-8.666,65535
53.93199999999999,-8.666,65535
53.93199999999999,-8.018,65535
52.312,-6.722000000000001,65535
52.636,-6.722000000000001,65535
53.93199999999999,-6.722000000000001,65535
54.25599999999999,-6.074000000000002,65535
53.28399999999999,-7.370000000000001,65535
52.96,-7.370000000000001,65535
52.312,-8.666,65535
52.96,-8.018,65535
52.636,-7.370000000000001,65535
52.96,-6.722000000000001,65535
51.988,-9.314,65535
52.312,-9.314,65535
54.579999999999984,-6.722000000000001,65535
54.579999999999984,-6.074000000000002,65535
53.28399999999999,-8.018,65535
53.28399999999999,-8.666,65535
53.28399999999999,-9.314,65535
53.93199999999999,-9.314,65535
54.25599999999999,-9.314,65535
53.60799999999999,-8.666,65535
53.60799999999999,-9.314,65535
49.43266399999992,14.381143999999988,395
49.75666399999992,14.381143999999988,348
49.75666399999992,15.029143999999986,346
49.75666399999992,13.733143999999989,357
50.08066399999991,13.733143999999989,349
49.75666399999992,15.677143999999986,357
50.40466399999991,15.029143999999986,336
49.43266399999992,13.733143999999989,366
50.40466399999991,15.677143999999986,347
50.40466399999991,13.733143999999989,347
46.19266399999994,15.029143999999986,1323
45.86866399999994,15.029143999999986,1342
45.86866399999994,14.381143999999988,1369
46.19266399999994,13.733143999999989,1355
45.86866399999994,13.733143999999989,1387
58.50466399999986,13.733143999999989,1442
58.180663999999865,13.733143999999989,1446
58.180663999999865,13.085143999999987,1418
57.85666399999987,12.437143999999988,1384
60.44866399999985,15.677143999999986,1667
60.124663999999854,15.677143999999986,1601
60.124663999999854,16.325143999999987,1639
59.800663999999855,16.325143999999987,1567
59.800663999999855,17.621143999999987,1546
59.47666399999986,18.269143999999983,1528
61.74466399999984,16.973143999999984,1678
61.420663999999846,16.973143999999984,1651
60.77266399999985,16.973143999999984,1603
65.63266399999982,22.15714399999998,2782
65.95666399999982,21.50914399999997,2742
65.63266399999982,20.86114399999998,2713
64.98466399999982,20.213143999999986,2645
64.66066399999983,20.213143999999986,2623
64.33666399999983,19.565143999999982,2317
64.01266399999983,19.565143999999982,2030
63.68866399999983,20.213143999999986,1983
64.66066399999983,18.917143999999983,2994
59.15266399999986,16.325143999999987,1503
59.15266399999986,15.029143999999986,1495
59.15266399999986,17.621143999999987,1520
57.53266399999987,14.381143999999988,1344
57.53266399999987,15.029143999999986,1364
61.09666399999985,14.381143999999988,1771
60.77266399999985,15.029143999999986,1722
60.44866399999985,15.029143999999986,1708
58.180663999999865,15.029143999999986,1421
58.50466399999986,16.325143999999987,1455
58.50466399999986,15.677143999999986,1428
63.36466399999984,13.085143999999987,2015
63.04066399999984,14.381143999999988,1952
62.39266399999984,15.677143999999986,1874
63.36466399999984,13.733143999999989,1997
63.36466399999984,14.381143999999988,1969
62.71666399999984,15.677143999999986,1902
62.39266399999984,17.621143999999987,1736
59.800663999999855,15.677143999999986,2013
55.58866399999988,13.733143999999989,1298
57.20866399999987,14.381143999999988,1328
57.85666399999987,14.381143999999988,1376
58.82866399999986,16.973143999999984,1512
58.82866399999986,16.325143999999987,1490
59.15266399999986,18.269143999999983,1524
60.44866399999985,17.621143999999987,1579
59.15266399999986,12.437143999999988,1483
59.15266399999986,13.085143999999987,1497
58.82866399999986,12.437143999999988,1459
59.47666399999986,16.325143999999987,1529
58.82866399999986,14.381143999999988,1536
59.47666399999986,15.677143999999986,1518
63.36466399999984,18.917143999999983,1936
63.04066399999984,17.621143999999987,1891
62.71666399999984,17.621143999999987,1865
63.68866399999983,19.565143999999982,1969
62.39266399999984,16.973143999999984,1780
59.800663999999855,16.973143999999984,1555
59.47666399999986,17.621143999999987,1532
57.85666399999987,13.085143999999987,1408
57.53266399999987,13.085143999999987,1389
58.50466399999986,11.789143999999988,1430
57.85666399999987,15.029143999999986,1410
57.20866399999987,13.733143999999989,1334
57.53266399999987,13.733143999999989,1395
61.74466399999984,16.325143999999987,1774
61.420663999999846,16.325143999999987,1741
61.09666399999985,16.325143999999987,1730
61.09666399999985,16.973143999999984,1698
60.124663999999854,15.029143999999986,1876
66.60466399999981,20.86114399999998,2817
67.25266399999981,20.86114399999998,2885
67.90066399999981,20.213143999999986,2955
67.57666399999981,20.213143999999986,3580
59.800663999999855,15.029143999999986,1596
58.50466399999986,15.029143999999986,1438
59.47666399999986,15.029143999999986,1581
60.44866399999985,16.325143999999987,1667
59.15266399999986,15.677143999999986,1525
57.85666399999987,13.733143999999989,1436
58.82866399999986,13.733143999999989,1483
58.50466399999986,13.085143999999987,1468
57.20866399999987,13.085143999999987,1365
56.88466399999987,13.085143999999987,1339
58.180663999999865,11.789143999999988,1401
62.06866399999984,16.973143999999984,1769
65.95666399999982,23.45314399999998,2823
59.800663999999855,14.381143999999988,5891
59.800663999999855,18.269143999999983,1537
63.04066399999984,15.029143999999986,1920
62.71666399999984,15.029143999999986,1910
62.39266399999984,16.325143999999987,1843
63.36466399999984,12.437143999999988,2048
68.5486639999998,17.621143999999987,3168
68.5486639999998,18.269143999999983,3101
68.5486639999998,18.917143999999983,3078
68.2246639999998,18.917143999999983,3034
59.800663999999855,13.085143999999987,1600
60.124663999999854,13.085143999999987,1639
59.47666399999986,16.973143999999984,1541
59.15266399999986,16.973143999999984,1533
56.56066399999988,13.733143999999989,1286
60.124663999999854,17.621143999999987,1556
57.85666399999987,16.325143999999987,1515
58.180663999999865,16.325143999999987,1477
58.180663999999865,15.677143999999986,1485
57.20866399999987,16.325143999999987,1527
57.53266399999987,15.677143999999986,1545
57.85666399999987,15.677143999999986,1516
44.89666399999994,23.45314399999998,2965
44.572663999999946,23.45314399999998,3035
44.89666399999994,24.74914399999998,2952
44.572663999999946,24.74914399999998,3071
44.572663999999946,24.101143999999977,3012
44.24866399999995,24.101143999999977,3041
47.48866399999993,25.397143999999983,2813
47.48866399999993,24.74914399999998,2753
47.16466399999993,24.74914399999998,2675
47.16466399999993,24.101143999999977,2577
47.48866399999993,22.15714399999998,2707
47.81266399999993,22.15714399999998,2793
47.16466399999993,22.15714399999998,2686
47.16466399999993,23.45314399999998,2738
47.16466399999993,22.805143999999984,2744
46.84066399999993,24.101143999999977,2658
45.86866399999994,27.34114399999998,2998
45.54466399999994,27.34114399999998,2979
45.54466399999994,27.989143999999985,3095
45.86866399999994,20.86114399999998,2870
45.86866399999994,21.50914399999997,2878
46.19266399999994,21.50914399999997,2814
46.19266399999994,27.34114399999998,2998
46.19266399999994,26.69314399999997,2989
46.516663999999935,26.69314399999997,2951
46.516663999999935,26.04514399999998,2847
47.48866399999993,22.805143999999984,2805
46.84066399999993,22.805143999999984,2618
45.54466399999994,22.15714399999998,2927
45.22066399999994,22.15714399999998,3005
44.89666399999994,22.15714399999998,3423
47.48866399999993,23.45314399999998,2771
46.516663999999935,24.101143999999977,2497
46.516663999999935,24.74914399999998,2711
45.86866399999994,24.101143999999977,2660
47.16466399999993,26.69314399999997,3029
47.16466399999993,27.34114399999998,3084
43.92466399999995,25.397143999999983,3043
44.24866399999995,24.74914399999998,2950
44.89666399999994,26.04514399999998,2837
44.89666399999994,26.69314399999997,2884
45.22066399999994,26.69314399999997,2919
45.22066399999994,27.34114399999998,2946
46.84066399999993,26.69314399999997,2990
47.48866399999993,26.69314399999997,2983
44.24866399999995,25.397143999999983,2882
43.92466399999995,26.04514399999998,3059
46.19266399999994,24.101143999999977,2705
44.572663999999946,25.397143999999983,2920
46.84066399999993,24.74914399999998,2718
46.516663999999935,21.50914399999997,2818
46.84066399999993,21.50914399999997,2825
44.572663999999946,26.69314399999997,2875
44.572663999999946,27.34114399999998,2896
44.89666399999994,27.34114399999998,3011
44.572663999999946,27.989143999999985,2916
44.24866399999995,27.989143999999985,2930
44.572663999999946,28.63714399999997,2981
45.86866399999994,22.15714399999998,2739
45.86866399999994,22.805143999999984,2633
44.24866399999995,23.45314399999998,3068
43.92466399999995,27.989143999999985,65535
46.84066399999993,27.34114399999998,3151
45.22066399999994,23.45314399999998,2940
45.54466399999994,23.45314399999998,2743
45.54466399999994,24.101143999999977,2690
45.22066399999994,24.101143999999977,2914
44.89666399999994,24.101143999999977,2984
46.19266399999994,22.15714399999998,2870
46.516663999999935,22.15714399999998,2836
45.22066399999994,21.50914399999997,3110
45.54466399999994,21.50914399999997,2958
45.54466399999994,20.86114399999998,2982
46.516663999999935,27.989143999999985,3101
46.19266399999994,27.989143999999985,3086
45.54466399999994,25.397143999999983,2804
45.22066399999994,25.397143999999983,2814
45.22066399999994,26.04514399999998,2870
47.81266399999993,24.101143999999977,2866
47.48866399999993,26.04514399999998,2956
47.81266399999993,26.04514399999998,2978
46.19266399999994,23.45314399999998,2537
45.86866399999994,23.45314399999998,2586
44.24866399999995,26.04514399999998,2864
45.22066399999994,27.989143999999985,3076
45.86866399999994,24.74914399999998,2699
46.516663999999935,25.397143999999983,2891
46.84066399999993,25.397143999999983,2774
46.19266399999994,26.04514399999998,2862
45.86866399999994,26.04514399999998,2827
43.92466399999995,23.45314399999998,3298
44.89666399999994,25.397143999999983,2925
46.19266399999994,20.86114399999998,2859
47.81266399999993,25.397143999999983,2990
44.572663999999946,22.805143999999984,3303
44.572663999999946,22.15714399999998,3445
46.516663999999935,23.45314399999998,2676
45.86866399999994,25.397143999999983,2753
44.24866399999995,27.34114399999998,3691
45.22066399999994,24.74914399999998,3016
45.54466399999994,22.805143999999984,2706
45.22066399999994,28.63714399999997,3136
44.89666399999994,28.63714399999997,3075
47.81266399999993,23.45314399999998,2923
46.19266399999994,24.74914399999998,2785
46.19266399999994,25.397143999999983,2809
43.92466399999995,24.101143999999977,3261
43.92466399999995,24.74914399999998,3274
47.81266399999993,26.69314399999997,3205
47.48866399999993,24.101143999999977,2798
46.84066399999993,26.04514399999998,3606
46.19266399999994,22.805143999999984,2930
47.48866399999993,27.34114399999998,3158
46.19266399999994,20.213143999999986,65535
45.54466399999994,26.04514399999998,2962
44.24866399999995,26.69314399999997,2880
45.86866399999994,27.989143999999985,3134
47.81266399999993,5.957143999999991,7066
