51.56399999999999,-0.4100000000000028,65535
51.887999999999984,-0.4100000000000028,65535
50.91599999999999,-1.7060000000000022,65535
51.23999999999999,-1.0580000000000025,65535
51.56399999999999,-1.0580000000000025,65535
51.23999999999999,-1.7060000000000022,65535
51.56399999999999,0.2379999999999968,65535
47.16466399999993,9.845143999999989,7386
47.48866399999993,9.845143999999989,7378
48.136663999999925,14.381143999999988,7589
47.81266399999993,13.085143999999987,7449
47.16466399999993,11.141143999999988,7490
47.48866399999993,11.789143999999988,7699
48.136663999999925,16.325143999999987,7654
47.48866399999993,12.437143999999988,7434
48.136663999999925,15.677143999999986,7920
47.16466399999993,10.493143999999988,7621
47.16466399999993,9.197143999999987,7388
48.136663999999925,13.733143999999989,7559
48.136663999999925,15.029143999999986,7924
47.81266399999993,16.973143999999984,7675
48.46066399999992,14.381143999999988,8584
47.48866399999993,13.085143999999987,7439
47.16466399999993,13.085143999999987,7450
47.48866399999993,14.381143999999988,7711
47.48866399999993,13.733143999999989,7791
47.48866399999993,15.029143999999986,7722
46.516663999999935,13.733143999999989,7555
46.84066399999993,13.733143999999989,7516
46.84066399999993,13.085143999999987,7460
48.78466399999992,14.381143999999988,65535
47.16466399999993,15.677143999999986,7740
46.516663999999935,14.381143999999988,7524
46.84066399999993,14.381143999999988,7521
47.16466399999993,14.381143999999988,7805
46.516663999999935,15.029143999999986,7567
47.81266399999993,16.325143999999987,7672
47.16466399999993,15.029143999999986,7780
47.81266399999993,15.677143999999986,7678
47.48866399999993,15.677143999999986,7717
46.516663999999935,13.085143999999987,7574
46.84066399999993,12.437143999999988,7499
48.136663999999925,11.789143999999988,7375
47.81266399999993,12.437143999999988,7397
46.84066399999993,15.677143999999986,8008
46.516663999999935,15.677143999999986,7623
46.84066399999993,16.325143999999987,7659
47.81266399999993,14.381143999999988,7645
48.78466399999992,16.973143999999984,7612
48.136663999999925,16.973143999999984,7641
48.46066399999992,13.733143999999989,7479
47.81266399999993,13.733143999999989,7634
50.08066399999991,8.54914399999999,7279
48.46066399999992,9.845143999999989,7346
51.05266399999991,7.25314399999999,7237
51.37666399999991,7.25314399999999,7231
51.37666399999991,6.60514399999999,7235
48.46066399999992,16.325143999999987,7659
48.46066399999992,16.973143999999984,7628
48.78466399999992,16.325143999999987,7672
48.46066399999992,15.677143999999986,7680
48.78466399999992,15.677143999999986,8161
47.48866399999993,16.325143999999987,7682
47.16466399999993,16.325143999999987,7734
46.19266399999994,14.381143999999988,7569
45.86866399999994,15.677143999999986,7603
43.60066399999995,16.325143999999987,7960
45.54466399999994,14.381143999999988,7645
45.54466399999994,13.733143999999989,7668
48.136663999999925,13.085143999999987,7455
48.46066399999992,11.141143999999988,7365
48.136663999999925,11.141143999999988,7373
48.46066399999992,7.90114399999999,7361
49.10866399999992,8.54914399999999,7321
48.78466399999992,2.0691439999999925,7358
49.10866399999992,7.25314399999999,7343
52.0246639999999,7.90114399999999,7202
47.16466399999993,11.789143999999988,7510
49.43266399999992,11.141143999999988,7358
53.64466399999989,9.845143999999989,7108
50.72866399999991,4.013143999999992,7270
51.05266399999991,11.141143999999988,7285
47.48866399999993,11.141143999999988,7414
46.84066399999993,11.789143999999988,9302
46.516663999999935,11.141143999999988,9271
45.54466399999994,11.141143999999988,9165
46.19266399999994,11.141143999999988,9237
45.86866399999994,11.141143999999988,9221
44.572663999999946,11.141143999999988,9012
43.92466399999995,12.437143999999988,65535
45.54466399999994,12.437143999999988,9252
45.54466399999994,11.789143999999988,9215
48.78466399999992,15.029143999999986,8652
47.81266399999993,15.029143999999986,7950
47.81266399999993,11.141143999999988,7388
50.40466399999991,18.917143999999983,7609
52.3486639999999,20.86114399999998,7787
54.616663999999886,18.269143999999983,7707
54.29266399999989,18.917143999999983,7716
49.10866399999992,14.381143999999988,65535
50.08066399999991,14.381143999999988,7422
48.78466399999992,13.733143999999989,65535
52.6726639999999,13.085143999999987,7244
52.3486639999999,13.085143999999987,7249
53.96866399999989,12.437143999999988,7225
54.29266399999989,12.437143999999988,7234
47.48866399999993,8.54914399999999,7402
47.81266399999993,17.621143999999987,7709
47.48866399999993,18.917143999999983,7820
47.48866399999993,20.86114399999998,8041
46.84066399999993,23.45314399999998,9598
44.572663999999946,26.04514399999998,65535
47.48866399999993,21.50914399999997,8075
47.81266399999993,21.50914399999997,8108
48.46066399999992,22.15714399999998,7837
47.48866399999993,16.973143999999984,65535
49.10866399999992,16.325143999999987,7567
49.75666399999992,18.269143999999983,7660
46.19266399999994,13.085143999999987,8543
41.98066399999996,12.437143999999988,65535
43.60066399999995,10.493143999999988,65535
45.54466399999994,9.197143999999987,7508
47.81266399999993,22.805143999999984,65535
49.75666399999992,22.805143999999984,7874
50.72866399999991,3.365143999999992,7287
51.05266399999991,4.013143999999992,7279
50.72866399999991,4.661143999999991,7266
51.05266399999991,4.661143999999991,7271
51.05266399999991,3.365143999999992,7291
51.05266399999991,2.717143999999992,7300
50.40466399999991,4.661143999999991,7276
50.72866399999991,2.717143999999992,7294
50.40466399999991,4.013143999999992,7275
51.05266399999991,5.309143999999991,7275
50.72866399999991,5.309143999999991,7252
51.37666399999991,3.365143999999992,7297
51.37666399999991,4.661143999999991,7277
50.72866399999991,5.957143999999991,7249
50.40466399999991,5.957143999999991,7263
50.40466399999991,3.365143999999992,7293
50.40466399999991,5.309143999999991,7265
50.08066399999991,5.309143999999991,7279
49.75666399999992,5.309143999999991,7283
49.75666399999992,5.957143999999991,7310
51.37666399999991,5.309143999999991,7248
51.700663999999904,4.661143999999991,7290
50.08066399999991,4.013143999999992,7300
50.08066399999991,5.957143999999991,7281
50.08066399999991,4.661143999999991,7295
49.43266399999992,5.309143999999991,7335
49.43266399999992,5.957143999999991,7314
52.0246639999999,4.661143999999991,7286
52.3486639999999,4.661143999999991,7288
50.72866399999991,15.029143999999986,7390
51.05266399999991,15.029143999999986,7332
51.05266399999991,13.733143999999989,7319
50.40466399999991,13.085143999999987,7367
49.10866399999992,7.90114399999999,7328
48.78466399999992,7.90114399999999,7340
50.40466399999991,7.90114399999999,7270
50.08066399999991,7.90114399999999,7273
49.75666399999992,7.90114399999999,7283
49.43266399999992,7.90114399999999,7314
49.75666399999992,8.54914399999999,7285
49.43266399999992,8.54914399999999,7301
49.43266399999992,9.197143999999987,7308
49.10866399999992,9.197143999999987,7323
47.48866399999993,7.90114399999999,7393
47.81266399999993,7.90114399999999,7368
48.136663999999925,7.90114399999999,7356
48.136663999999925,9.845143999999989,7361
47.81266399999993,9.197143999999987,7379
47.81266399999993,8.54914399999999,7367
47.81266399999993,9.845143999999989,7367
54.940663999999884,9.197143999999987,7043
54.616663999999886,9.197143999999987,7060
54.29266399999989,9.197143999999987,7088
53.96866399999989,9.197143999999987,7103
53.64466399999989,9.197143999999987,7125
54.616663999999886,9.845143999999989,7086
54.29266399999989,9.845143999999989,7095
53.96866399999989,9.845143999999989,7098
53.64466399999989,10.493143999999988,7112
53.96866399999989,10.493143999999988,7118
53.96866399999989,11.141143999999988,7155
54.29266399999989,10.493143999999988,7138
53.32066399999989,10.493143999999988,7126
54.940663999999884,11.141143999999988,7119
52.6726639999999,13.733143999999989,7247
52.3486639999999,13.733143999999989,7249
52.3486639999999,14.381143999999988,7267
52.0246639999999,14.381143999999988,7280
52.0246639999999,11.789143999999988,7274
52.3486639999999,11.789143999999988,7269
52.3486639999999,12.437143999999988,7267
52.0246639999999,15.029143999999986,7303
51.700663999999904,14.381143999999988,7297
52.0246639999999,13.733143999999989,7274
51.700663999999904,13.733143999999989,7300
52.6726639999999,12.437143999999988,7244
53.32066399999989,11.789143999999988,7175
53.96866399999989,11.789143999999988,7205
53.64466399999989,11.789143999999988,7183
53.64466399999989,11.141143999999988,7182
53.32066399999989,11.141143999999988,7155
52.996663999999896,11.789143999999988,7200
52.996663999999896,12.437143999999988,7227
52.996663999999896,13.733143999999989,7260
53.64466399999989,13.733143999999989,7336
53.96866399999989,13.733143999999989,7347
54.29266399999989,13.085143999999987,7262
53.96866399999989,13.085143999999987,7283
53.32066399999989,13.733143999999989,7307
52.0246639999999,13.085143999999987,7308
51.700663999999904,13.085143999999987,7366
52.996663999999896,14.381143999999988,7362
52.0246639999999,12.437143999999988,7272
51.700663999999904,12.437143999999988,7309
51.37666399999991,11.789143999999988,7294
51.37666399999991,12.437143999999988,7310
52.6726639999999,11.789143999999988,7229
53.64466399999989,13.085143999999987,7303
53.32066399999989,13.085143999999987,7302
52.996663999999896,13.085143999999987,7278
53.64466399999989,12.437143999999988,7242
51.37666399999991,13.733143999999989,7306
53.32066399999989,12.437143999999988,7256
52.6726639999999,14.381143999999988,7260
51.37666399999991,13.085143999999987,7334
53.32066399999989,14.381143999999988,7349
52.3486639999999,15.029143999999986,7321
52.0246639999999,15.677143999999986,7328
51.700663999999904,15.029143999999986,7325
51.05266399999991,16.325143999999987,7477
51.05266399999991,16.973143999999984,7501
51.700663999999904,15.677143999999986,7420
51.37666399999991,15.677143999999986,7432
51.37666399999991,16.325143999999987,7468
50.72866399999991,13.085143999999987,7331
50.72866399999991,12.437143999999988,7327
51.05266399999991,13.085143999999987,7332
51.05266399999991,14.381143999999988,7323
50.40466399999991,12.437143999999988,7344
50.40466399999991,11.789143999999988,7315
50.08066399999991,12.437143999999988,7396
50.72866399999991,11.789143999999988,7301
51.05266399999991,12.437143999999988,7319
50.72866399999991,14.381143999999988,7434
51.37666399999991,14.381143999999988,7334
50.72866399999991,13.733143999999989,7355
50.40466399999991,14.381143999999988,7419
51.37666399999991,15.029143999999986,7363
55.26466399999988,9.197143999999987,7079
55.58866399999988,8.54914399999999,7031
55.91266399999988,8.54914399999999,1514
56.23666399999988,9.197143999999987,534
56.23666399999988,10.493143999999988,456
56.23666399999988,9.845143999999989,442
55.91266399999988,9.845143999999989,0
56.56066399999988,9.197143999999987,544
56.56066399999988,8.54914399999999,582
51.05266399999991,6.60514399999999,7237
51.700663999999904,7.90114399999999,7219
50.72866399999991,6.60514399999999,7248
51.700663999999904,7.25314399999999,7230
50.72866399999991,7.25314399999999,7250
52.0246639999999,7.25314399999999,7220
52.3486639999999,7.90114399999999,7198
51.05266399999991,5.957143999999991,7242
50.40466399999991,7.25314399999999,7258
51.700663999999904,6.60514399999999,7242
51.700663999999904,5.957143999999991,7250
52.3486639999999,9.197143999999987,7170
51.700663999999904,8.54914399999999,7205
52.0246639999999,8.54914399999999,7189
52.3486639999999,8.54914399999999,7178
51.37666399999991,7.90114399999999,7224
52.3486639999999,7.25314399999999,7233
51.37666399999991,5.957143999999991,7241
50.72866399999991,7.90114399999999,7260
51.37666399999991,9.197143999999987,7224
51.700663999999904,9.197143999999987,7213
50.40466399999991,6.60514399999999,7306
51.05266399999991,7.90114399999999,7253
51.37666399999991,8.54914399999999,7242
52.0246639999999,5.957143999999991,7265
52.3486639999999,6.60514399999999,7245
51.05266399999991,8.54914399999999,7284
52.0246639999999,9.197143999999987,7202
52.6726639999999,9.197143999999987,7133
52.0246639999999,9.845143999999989,7198
51.700663999999904,9.845143999999989,7232
51.37666399999991,9.845143999999989,7246
50.72866399999991,8.54914399999999,7288
51.05266399999991,9.845143999999989,7296
50.72866399999991,9.845143999999989,7318
50.40466399999991,9.845143999999989,7323
51.05266399999991,9.197143999999987,7280
50.40466399999991,9.197143999999987,7295
50.08066399999991,9.197143999999987,7286
51.05266399999991,10.493143999999988,7290
50.40466399999991,8.54914399999999,7280
50.72866399999991,9.197143999999987,7328
49.75666399999992,9.197143999999987,7325
52.996663999999896,9.197143999999987,7124
52.3486639999999,9.845143999999989,7190
52.996663999999896,8.54914399999999,7146
52.996663999999896,7.90114399999999,7163
53.32066399999989,7.90114399999999,7183
53.32066399999989,7.25314399999999,7213
53.64466399999989,7.25314399999999,7258
52.996663999999896,10.493143999999988,7172
52.6726639999999,10.493143999999988,7183
52.6726639999999,9.845143999999989,7195
53.32066399999989,9.845143999999989,7112
53.32066399999989,9.197143999999987,7118
53.64466399999989,8.54914399999999,7138
53.32066399999989,8.54914399999999,7147
52.6726639999999,8.54914399999999,7151
52.0246639999999,10.493143999999988,7232
52.0246639999999,11.141143999999988,7247
51.700663999999904,11.141143999999988,7272
52.6726639999999,7.25314399999999,7494
52.996663999999896,7.25314399999999,7220
52.6726639999999,7.90114399999999,7181
53.64466399999989,7.90114399999999,7211
52.996663999999896,11.141143999999988,7224
52.6726639999999,11.141143999999988,7233
52.3486639999999,10.493143999999988,7217
52.996663999999896,9.845143999999989,7178
51.700663999999904,10.493143999999988,7278
51.37666399999991,10.493143999999988,7279
51.700663999999904,11.789143999999988,7281
52.3486639999999,11.141143999999988,7229
51.37666399999991,11.141143999999988,7283
51.05266399999991,11.789143999999988,7303
49.10866399999992,11.141143999999988,7375
48.78466399999992,11.141143999999988,7370
48.46066399999992,11.789143999999988,7382
49.43266399999992,11.789143999999988,7363
50.08066399999991,11.789143999999988,7352
49.75666399999992,12.437143999999988,7393
49.10866399999992,11.789143999999988,7388
48.78466399999992,12.437143999999988,7403
48.46066399999992,12.437143999999988,7423
49.10866399999992,12.437143999999988,7397
48.78466399999992,13.085143999999987,7431
48.136663999999925,12.437143999999988,7428
47.81266399999993,11.789143999999988,7387
48.136663999999925,10.493143999999988,7402
47.81266399999993,10.493143999999988,7450
48.78466399999992,10.493143999999988,7361
47.48866399999993,10.493143999999988,7443
48.46066399999992,10.493143999999988,7357
49.43266399999992,13.085143999999987,7538
48.46066399999992,13.085143999999987,7451
49.43266399999992,10.493143999999988,7332
49.75666399999992,9.845143999999989,7300
49.75666399999992,10.493143999999988,7326
50.40466399999991,11.141143999999988,7311
50.08066399999991,11.141143999999988,7365
50.72866399999991,11.141143999999988,7292
49.75666399999992,11.141143999999988,7336
48.78466399999992,11.789143999999988,7453
50.40466399999991,10.493143999999988,7301
50.08066399999991,9.845143999999989,7295
50.08066399999991,10.493143999999988,7357
49.43266399999992,12.437143999999988,7413
49.75666399999992,11.789143999999988,7372
49.10866399999992,13.085143999999987,7473
50.72866399999991,10.493143999999988,7295
49.10866399999992,10.493143999999988,7347
48.78466399999992,9.845143999999989,7336
48.46066399999992,8.54914399999999,7328
48.46066399999992,9.197143999999987,7339
48.78466399999992,9.197143999999987,7330
48.78466399999992,8.54914399999999,7324
50.08066399999991,7.25314399999999,7293
49.75666399999992,6.60514399999999,7311
49.43266399999992,6.60514399999999,7344
49.10866399999992,6.60514399999999,7358
49.43266399999992,7.25314399999999,7326
49.75666399999992,7.25314399999999,7293
49.10866399999992,5.957143999999991,7347
48.78466399999992,7.25314399999999,7360
50.08066399999991,6.60514399999999,7308
47.48866399999993,9.197143999999987,7382
48.136663999999925,8.54914399999999,7346
48.136663999999925,9.197143999999987,7344
47.81266399999993,7.25314399999999,7379
49.43266399999992,9.845143999999989,7304
49.10866399999992,9.845143999999989,7328
53.64466399999989,14.381143999999988,7343
50.08066399999991,13.085143999999987,7498
49.75666399999992,13.085143999999987,7535
45.86866399999994,9.197143999999987,7498
46.19266399999994,9.197143999999987,7484
46.516663999999935,8.54914399999999,7430
46.516663999999935,9.197143999999987,7479
46.19266399999994,8.54914399999999,7496
47.16466399999993,8.54914399999999,7397
45.86866399999994,4.661143999999991,7496
46.84066399999993,9.845143999999989,7413
45.22066399999994,5.957143999999991,7551
45.22066399999994,5.309143999999991,7578
45.86866399999994,5.957143999999991,7509
45.54466399999994,5.957143999999991,7524
44.89666399999994,4.661143999999991,7524
44.89666399999994,5.309143999999991,7548
44.572663999999946,4.661143999999991,7555
44.24866399999995,4.661143999999991,7523
43.92466399999995,4.661143999999991,7519
46.19266399999994,7.25314399999999,7446
48.78466399999992,5.957143999999991,7376
48.136663999999925,6.60514399999999,7422
48.46066399999992,6.60514399999999,7404
48.78466399999992,6.60514399999999,7391
47.16466399999993,7.90114399999999,7397
48.136663999999925,7.25314399999999,7378
48.46066399999992,7.25314399999999,7365
46.516663999999935,6.60514399999999,7456
46.84066399999993,6.60514399999999,7431
46.84066399999993,7.25314399999999,7411
46.516663999999935,5.957143999999991,7485
46.19266399999994,5.957143999999991,7486
46.84066399999993,8.54914399999999,7401
46.84066399999993,7.90114399999999,7405
45.86866399999994,5.309143999999991,7528
46.19266399999994,6.60514399999999,7477
45.86866399999994,6.60514399999999,7453
47.48866399999993,6.60514399999999,7436
47.48866399999993,7.25314399999999,7385
47.16466399999993,7.25314399999999,7401
49.10866399999992,4.013143999999992,7411
49.75666399999992,4.661143999999991,7317
49.43266399999992,4.661143999999991,7380
49.10866399999992,5.309143999999991,7438
46.19266399999994,4.661143999999991,7464
46.84066399999993,9.197143999999987,7404
46.19266399999994,5.309143999999991,7515
46.516663999999935,5.309143999999991,7546
45.54466399999994,6.60514399999999,7581
45.54466399999994,5.309143999999991,7517
43.60066399999995,4.013143999999992,7565
43.60066399999995,3.365143999999992,7607
42.62866399999996,2.717143999999992,7692
43.276663999999954,2.717143999999992,7623
45.54466399999994,4.661143999999991,7501
45.22066399999994,4.661143999999991,7540
47.16466399999993,5.309143999999991,7497
47.16466399999993,5.957143999999991,7484
46.19266399999994,7.90114399999999,7440
49.75666399999992,2.717143999999992,7426
49.10866399999992,2.717143999999992,7384
48.78466399999992,2.717143999999992,7405
45.86866399999994,3.365143999999992,7670
46.84066399999993,3.365143999999992,7552
46.516663999999935,3.365143999999992,7581
46.19266399999994,3.365143999999992,7615
47.16466399999993,6.60514399999999,7448
49.10866399999992,3.365143999999992,7460
45.54466399999994,4.013143999999992,7508
46.516663999999935,7.25314399999999,7433
47.16466399999993,4.661143999999991,7558
46.84066399999993,4.661143999999991,7514
46.516663999999935,4.661143999999991,7521
46.84066399999993,5.957143999999991,7506
47.81266399999993,3.365143999999992,7482
47.48866399999993,4.013143999999992,7562
48.136663999999925,4.013143999999992,7509
47.81266399999993,4.013143999999992,7580
47.48866399999993,4.661143999999991,7558
47.16466399999993,3.365143999999992,7566
46.84066399999993,4.013143999999992,7532
48.46066399999992,5.957143999999991,7385
46.19266399999994,2.717143999999992,7730
47.16466399999993,2.0691439999999925,7510
46.516663999999935,2.717143999999992,7702
46.84066399999993,2.717143999999992,7683
46.84066399999993,2.0691439999999925,7594
47.16466399999993,2.717143999999992,7547
44.572663999999946,5.309143999999991,7640
44.572663999999946,5.957143999999991,7608
44.89666399999994,6.60514399999999,7587
44.572663999999946,6.60514399999999,7624
43.60066399999995,5.309143999999991,7542
43.92466399999995,7.25314399999999,7624
43.60066399999995,6.60514399999999,7612
43.276663999999954,6.60514399999999,7620
43.276663999999954,5.957143999999991,7547
45.86866399999994,8.54914399999999,7505
45.54466399999994,8.54914399999999,7512
48.136663999999925,3.365143999999992,7444
48.46066399999992,3.365143999999992,7432
48.46066399999992,2.717143999999992,7391
47.48866399999993,5.309143999999991,7596
46.516663999999935,9.845143999999989,7424
46.84066399999993,10.493143999999988,8531
47.81266399999993,5.309143999999991,7577
45.22066399999994,6.60514399999999,7581
46.19266399999994,4.013143999999992,7514
45.86866399999994,4.013143999999992,7541
45.22066399999994,4.013143999999992,7517
44.89666399999994,4.013143999999992,7584
46.84066399999993,5.309143999999991,7521
48.136663999999925,-1.8188560000000056,7447
48.136663999999925,0.1251439999999934,7409
48.136663999999925,-0.5228560000000062,7491
47.48866399999993,-0.5228560000000062,7446
47.16466399999993,-1.8188560000000056,7487
47.48866399999993,0.7731439999999932,7420
47.16466399999993,0.1251439999999934,7498
45.86866399999994,7.25314399999999,7459
48.136663999999925,5.309143999999991,7561
49.10866399999992,4.661143999999991,7459
48.46066399999992,4.013143999999992,7490
48.136663999999925,4.661143999999991,7528
47.81266399999993,6.60514399999999,7493
47.48866399999993,5.957143999999991,7535
48.136663999999925,5.957143999999991,7646
45.86866399999994,7.90114399999999,7460
46.516663999999935,7.90114399999999,7424
49.43266399999992,3.365143999999992,7462
49.43266399999992,4.013143999999992,7400
48.136663999999925,2.717143999999992,7630
47.81266399999993,2.717143999999992,7641
47.48866399999993,2.717143999999992,7619
50.40466399999991,2.717143999999992,7309
48.46066399999992,-4.410856000000004,7604
48.46066399999992,-3.7628560000000046,7550
48.46066399999992,-3.114856000000005,7535
48.46066399999992,-2.4668560000000053,7505
47.48866399999993,1.4211439999999929,7475
47.16466399999993,1.4211439999999929,7487
46.516663999999935,4.013143999999992,7525
43.60066399999995,4.661143999999991,7547
44.89666399999994,2.717143999999992,7741
45.22066399999994,2.717143999999992,7794
45.54466399999994,3.365143999999992,7719
45.22066399999994,3.365143999999992,7715
47.48866399999993,3.365143999999992,7726
46.19266399999994,9.845143999999989,7534
47.81266399999993,2.0691439999999925,7485
47.48866399999993,2.0691439999999925,7522
45.86866399999994,2.717143999999992,7694
44.89666399999994,5.957143999999991,7710
45.22066399999994,1.4211439999999929,7589
44.89666399999994,1.4211439999999929,7609
44.89666399999994,2.0691439999999925,7701
43.276663999999954,2.0691439999999925,7653
43.60066399999995,1.4211439999999929,7651
48.78466399999992,4.661143999999991,7505
48.78466399999992,5.309143999999991,7392
46.19266399999994,2.0691439999999925,7761
45.86866399999994,1.4211439999999929,7600
46.19266399999994,1.4211439999999929,7648
44.572663999999946,4.013143999999992,7663
44.89666399999994,3.365143999999992,7751
43.92466399999995,4.013143999999992,7593
44.24866399999995,4.013143999999992,7610
44.89666399999994,-0.5228560000000062,7514
45.54466399999994,0.1251439999999934,7556
46.516663999999935,0.1251439999999934,7530
44.572663999999946,2.0691439999999925,7658
49.75666399999992,4.013143999999992,7358
43.92466399999995,3.365143999999992,7881
43.92466399999995,2.717143999999992,7912
44.24866399999995,3.365143999999992,7936
44.572663999999946,3.365143999999992,7977
49.10866399999992,0.1251439999999934,7462
49.43266399999992,0.7731439999999932,7437
49.43266399999992,-1.8188560000000056,7519
49.10866399999992,-1.170856000000006,7493
49.10866399999992,-0.5228560000000062,7469
49.10866399999992,0.7731439999999932,7489
49.10866399999992,1.4211439999999929,7425
47.81266399999993,-1.8188560000000056,7501
47.81266399999993,-2.4668560000000053,7527
47.81266399999993,-3.114856000000005,7540
48.136663999999925,-3.7628560000000046,7597
44.572663999999946,9.197143999999987,7616
44.89666399999994,8.54914399999999,7554
45.22066399999994,9.197143999999987,7519
45.54466399999994,10.493143999999988,7567
44.572663999999946,10.493143999999988,8998
44.89666399999994,10.493143999999988,7633
44.89666399999994,9.845143999999989,7765
48.46066399999992,5.309143999999991,7585
50.91599999999999,-1.0580000000000025,65535
51.23999999999999,-0.4100000000000028,65535
50.91599999999999,-0.4100000000000028,65535
51.23999999999999,-2.354000000000002,65535
51.56399999999999,-2.354000000000002,65535
51.56399999999999,-3.0020000000000016,65535
50.91599999999999,-2.354000000000002,65535
53.50799999999997,-3.0020000000000016,65535
53.183999999999976,-2.354000000000002,65535
53.183999999999976,-3.0020000000000016,65535
52.85999999999998,-2.354000000000002,65535
52.21199999999998,-1.0580000000000025,65535
51.887999999999984,-1.0580000000000025,65535
52.53599999999998,-1.0580000000000025,65535
52.53599999999998,-1.7060000000000022,65535
52.85999999999998,-1.7060000000000022,65535
53.50799999999997,-2.354000000000002,65535
52.85999999999998,-1.0580000000000025,65535
52.53599999999998,1.5339999999999965,65535
52.53599999999998,0.8859999999999966,65535
52.53599999999998,0.2379999999999968,65535
52.53599999999998,-0.4100000000000028,65535
53.50799999999997,-1.7060000000000022,65535
53.183999999999976,-1.7060000000000022,65535
53.183999999999976,-1.0580000000000025,65535
52.85999999999998,-0.4100000000000028,65535
51.887999999999984,-2.354000000000002,65535
52.21199999999998,-2.354000000000002,65535
55.77599999999996,-2.354000000000002,65535
53.83199999999997,-1.0580000000000025,65535
53.83199999999997,-1.7060000000000022,65535
55.127999999999965,-1.7060000000000022,65535
54.80399999999997,-1.7060000000000022,65535
54.47999999999997,-1.7060000000000022,65535
54.15599999999997,-1.0580000000000025,65535
52.21199999999998,-1.7060000000000022,65535
53.50799999999997,-1.0580000000000025,65535
55.77599999999996,-3.0020000000000016,65535
55.45199999999996,-1.7060000000000022,65535
57.07199999999995,-2.354000000000002,65535
56.74799999999996,-3.0020000000000016,65535
56.42399999999996,-3.0020000000000016,65535
56.09999999999996,-3.650000000000001,65535
50.91599999999999,-3.0020000000000016,65535
50.91599999999999,-3.650000000000001,65535
50.59199999999999,-3.650000000000001,65535
50.59199999999999,-4.298000000000001,65535
51.23999999999999,-3.0020000000000016,65535
50.268,-4.946000000000001,65535
55.77599999999996,-3.650000000000001,65535
55.77599999999996,-4.298000000000001,65535
52.21199999999998,-0.4100000000000028,65535
52.53599999999998,-2.354000000000002,65535
51.56399999999999,-1.7060000000000022,65535
51.56399999999999,-3.650000000000001,65535
51.887999999999984,-4.298000000000001,65535
51.56399999999999,-4.298000000000001,65535
51.887999999999984,-1.7060000000000022,65535
52.21199999999998,-3.0020000000000016,65535
51.23999999999999,0.2379999999999968,65535
50.91599999999999,0.2379999999999968,65535
52.21199999999998,0.2379999999999968,65535
53.83199999999997,-3.0020000000000016,65535
54.15599999999997,-3.0020000000000016,65535
54.47999999999997,-3.0020000000000016,65535
55.127999999999965,-3.650000000000001,65535
54.80399999999997,-3.0020000000000016,65535
53.83199999999997,-2.354000000000002,65535
54.15599999999997,-0.4100000000000028,65535
54.47999999999997,-1.0580000000000025,65535
53.83199999999997,-0.4100000000000028,65535
53.183999999999976,-3.650000000000001,65535
53.183999999999976,-4.298000000000001,65535
52.85999999999998,-3.0020000000000016,65535
52.53599999999998,-3.0020000000000016,65535
51.887999999999984,-3.0020000000000016,65535
51.23999999999999,0.8859999999999966,65535
51.887999999999984,0.2379999999999968,65535
52.21199999999998,0.8859999999999966,65535
51.887999999999984,-4.946000000000001,65535
52.53599999999998,-3.650000000000001,65535
52.21199999999998,-4.298000000000001,65535
53.183999999999976,-0.4100000000000028,65535
51.23999999999999,-3.650000000000001,65535
51.887999999999984,-3.650000000000001,65535
52.21199999999998,-3.650000000000001,65535
51.56399999999999,0.8859999999999966,65535
51.887999999999984,0.8859999999999966,65535
52.85999999999998,0.8859999999999966,65535
53.50799999999997,-0.4100000000000028,65535
56.09999999999996,-4.298000000000001,65535
56.74799999999996,-4.946000000000001,65535
56.74799999999996,-4.298000000000001,65535
56.42399999999996,-4.946000000000001,65535
56.42399999999996,-4.298000000000001,65535
56.09999999999996,-4.946000000000001,65535
57.39599999999995,-4.298000000000001,65535
57.39599999999995,-3.0020000000000016,65535
57.39599999999995,-3.650000000000001,65535
56.42399999999996,-3.650000000000001,65535
57.07199999999995,-3.650000000000001,65535
57.07199999999995,-4.298000000000001,65535
56.74799999999996,-3.650000000000001,65535
59.15266399999986,27.34114399999998,65535
59.47666399999986,26.69314399999997,65535
59.47666399999986,26.04514399999998,65535
59.15266399999986,26.04514399999998,65535
59.15266399999986,24.74914399999998,65535
59.15266399999986,25.397143999999983,65535
59.47666399999986,25.397143999999983,65535
58.50466399999986,26.69314399999997,65535
58.82866399999986,26.69314399999997,65535
57.85666399999987,26.04514399999998,65535
58.180663999999865,26.04514399999998,65535
58.180663999999865,26.69314399999997,65535
58.82866399999986,26.04514399999998,65535
58.50466399999986,25.397143999999983,65535
58.82866399999986,25.397143999999983,65535
58.82866399999986,24.74914399999998,65535
58.180663999999865,27.34114399999998,65535
57.85666399999987,27.34114399999998,65535
63.68866399999983,27.34114399999998,65535
60.124663999999854,24.74914399999998,65535
60.44866399999985,24.74914399999998,65535
60.44866399999985,25.397143999999983,65535
60.77266399999985,25.397143999999983,65535
61.09666399999985,26.04514399999998,65535
60.77266399999985,26.04514399999998,65535
60.77266399999985,26.69314399999997,65535
61.09666399999985,25.397143999999983,65535
61.09666399999985,26.69314399999997,65535
61.420663999999846,26.69314399999997,65535
61.74466399999984,27.34114399999998,65535
62.06866399999984,27.34114399999998,65535
62.39266399999984,27.34114399999998,65535
62.71666399999984,27.34114399999998,65535
64.01266399999983,27.34114399999998,65535
63.36466399999984,27.34114399999998,65535
63.04066399999984,27.34114399999998,65535
63.04066399999984,27.989143999999985,65535
64.33666399999983,27.989143999999985,65535
64.33666399999983,27.34114399999998,65535
64.66066399999983,27.34114399999998,65535
64.66066399999983,26.69314399999997,9556
64.98466399999982,25.397143999999983,9319
64.66066399999983,26.04514399999998,9536
64.98466399999982,26.04514399999998,9520
66.28066399999982,25.397143999999983,65535
65.95666399999982,24.74914399999998,9232
65.63266399999982,24.74914399999998,9236
65.63266399999982,25.397143999999983,9278
65.30866399999982,25.397143999999983,9299
66.60466399999981,25.397143999999983,65535
64.01266399999983,24.74914399999998,9456
64.01266399999983,24.101143999999977,9491
64.01266399999983,23.45314399999998,9515
63.68866399999983,23.45314399999998,9527
63.68866399999983,22.805143999999984,9552
63.68866399999983,26.04514399999998,65535
63.68866399999983,25.397143999999983,65535
63.68866399999983,26.69314399999997,65535
60.44866399999985,26.69314399999997,65535
64.01266399999983,27.989143999999985,65535
62.71666399999984,22.805143999999984,65535
62.39266399999984,22.805143999999984,65535
62.06866399999984,22.805143999999984,65535
62.06866399999984,23.45314399999998,65535
61.74466399999984,23.45314399999998,65535
61.420663999999846,23.45314399999998,65535
61.09666399999985,23.45314399999998,65535
61.09666399999985,24.101143999999977,65535
61.09666399999985,24.74914399999998,65535
60.77266399999985,24.74914399999998,65535
63.04066399999984,21.50914399999997,65535
63.04066399999984,22.15714399999998,65535
63.04066399999984,22.805143999999984,65535
62.39266399999984,26.04514399999998,65535
62.06866399999984,25.397143999999983,65535
61.74466399999984,25.397143999999983,65535
61.74466399999984,24.74914399999998,65535
61.74466399999984,24.101143999999977,65535
61.420663999999846,24.101143999999977,65535
62.39266399999984,26.69314399999997,65535
64.66066399999983,25.397143999999983,9388
64.66066399999983,24.74914399999998,9406
64.33666399999983,24.74914399999998,9417
63.36466399999984,22.805143999999984,9577
67.25266399999981,24.101143999999977,65535
66.92866399999981,24.101143999999977,65535
66.60466399999981,23.45314399999998,65535
66.28066399999982,23.45314399999998,65535
66.28066399999982,24.101143999999977,65535
65.95666399999982,24.101143999999977,8604
60.124663999999854,24.101143999999977,65535
60.124663999999854,23.45314399999998,65535
60.44866399999985,22.805143999999984,65535
60.77266399999985,27.34114399999998,65535
61.09666399999985,27.989143999999985,65535
61.09666399999985,28.63714399999997,65535
61.420663999999846,29.28514399999997,65535
61.74466399999984,29.933143999999977,65535
62.06866399999984,29.933143999999977,65535
62.39266399999984,29.933143999999977,65535
62.71666399999984,29.933143999999977,65535
61.420663999999846,22.805143999999984,65535
61.420663999999846,22.15714399999998,65535
61.09666399999985,22.15714399999998,65535
61.420663999999846,21.50914399999997,65535
62.39266399999984,27.989143999999985,65535
62.06866399999984,27.989143999999985,65535
61.420663999999846,27.34114399999998,65535
63.04066399999984,29.933143999999977,65535
63.68866399999983,29.28514399999997,65535
63.36466399999984,29.28514399999997,65535
63.36466399999984,29.933143999999977,65535
60.44866399999985,27.34114399999998,65535
61.74466399999984,29.28514399999997,65535
62.39266399999984,30.58114399999998,65535
62.71666399999984,31.229143999999977,65535
62.71666399999984,29.28514399999997,65535
63.04066399999984,28.63714399999997,65535
66.60466399999981,26.04514399999998,65535
66.60466399999981,26.69314399999997,65535
66.60466399999981,27.34114399999998,65535
62.71666399999984,26.04514399999998,65535
62.71666399999984,25.397143999999983,65535
63.04066399999984,25.397143999999983,65535
63.36466399999984,25.397143999999983,65535
62.71666399999984,23.45314399999998,65535
62.39266399999984,24.101143999999977,65535
62.71666399999984,22.15714399999998,65535
62.39266399999984,22.15714399999998,65535
62.39266399999984,21.50914399999997,65535
61.09666399999985,21.50914399999997,65535
60.77266399999985,22.805143999999984,65535
60.44866399999985,22.15714399999998,65535
60.77266399999985,23.45314399999998,65535
60.77266399999985,21.50914399999997,65535
60.77266399999985,22.15714399999998,65535
60.124663999999854,22.805143999999984,65535
60.44866399999985,24.101143999999977,65535
62.06866399999984,24.74914399999998,65535
50.72866399999991,16.325143999999987,7417
50.40466399999991,16.973143999999984,7519
50.72866399999991,16.973143999999984,7490
50.40466399999991,16.325143999999987,7568
50.08066399999991,16.973143999999984,7640
50.08066399999991,16.325143999999987,7473
51.700663999999904,16.973143999999984,7494
51.37666399999991,16.973143999999984,7499
51.05266399999991,15.677143999999986,7342
50.72866399999991,15.677143999999986,7407
51.05266399999991,17.621143999999987,7516
51.37666399999991,17.621143999999987,7564
51.700663999999904,17.621143999999987,7543
51.700663999999904,16.325143999999987,7479
52.0246639999999,22.15714399999998,7827
52.0246639999999,21.50914399999997,7798
52.3486639999999,21.50914399999997,7794
52.0246639999999,20.86114399999998,7767
51.700663999999904,20.86114399999998,7785
51.37666399999991,21.50914399999997,7824
51.37666399999991,20.86114399999998,7819
51.05266399999991,20.86114399999998,7828
52.6726639999999,23.45314399999998,8002
52.3486639999999,22.805143999999984,7941
52.3486639999999,20.213143999999986,7759
52.0246639999999,20.213143999999986,7728
52.3486639999999,19.565143999999982,7684
52.6726639999999,19.565143999999982,7767
51.700663999999904,21.50914399999997,7849
51.700663999999904,22.15714399999998,7855
52.6726639999999,21.50914399999997,7803
52.996663999999896,21.50914399999997,7830
52.6726639999999,20.86114399999998,7825
52.6726639999999,22.15714399999998,7861
52.6726639999999,20.213143999999986,7826
52.996663999999896,19.565143999999982,7819
52.996663999999896,20.86114399999998,7858
52.996663999999896,20.213143999999986,7862
53.32066399999989,20.213143999999986,7774
51.37666399999991,20.213143999999986,7814
52.3486639999999,16.973143999999984,7516
52.0246639999999,16.973143999999984,7520
52.0246639999999,16.325143999999987,7493
52.0246639999999,17.621143999999987,7570
52.6726639999999,16.973143999999984,7510
52.996663999999896,16.973143999999984,7476
52.3486639999999,16.325143999999987,7480
52.3486639999999,15.677143999999986,7353
51.700663999999904,18.269143999999983,7603
52.6726639999999,17.621143999999987,7540
52.3486639999999,17.621143999999987,7526
52.6726639999999,18.269143999999983,7614
52.3486639999999,18.269143999999983,7597
52.3486639999999,18.917143999999983,7644
52.996663999999896,17.621143999999987,7638
51.700663999999904,19.565143999999982,7684
51.700663999999904,18.917143999999983,7651
51.37666399999991,18.269143999999983,7606
58.82866399999986,9.197143999999987,7568
58.180663999999865,7.90114399999999,7661
58.50466399999986,8.54914399999999,7612
63.36466399999984,10.493143999999988,7783
63.36466399999984,11.141143999999988,7790
63.36466399999984,11.789143999999988,7825
63.68866399999983,11.789143999999988,7853
64.33666399999983,12.437143999999988,8254
64.66066399999983,12.437143999999988,8749
65.63266399999982,13.085143999999987,8406
65.95666399999982,13.085143999999987,8441
66.28066399999982,14.381143999999988,8511
65.95666399999982,13.733143999999989,8580
66.28066399999982,13.733143999999989,8489
65.30866399999982,13.085143999999987,8707
64.98466399999982,13.085143999999987,8341
64.01266399999983,11.789143999999988,7884
63.68866399999983,11.141143999999988,7821
59.800663999999855,10.493143999999988,7364
59.800663999999855,11.141143999999988,7347
60.124663999999854,11.141143999999988,7362
60.44866399999985,11.141143999999988,7375
60.124663999999854,11.789143999999988,7388
60.77266399999985,7.25314399999999,7624
60.77266399999985,6.60514399999999,7670
59.15266399999986,9.197143999999987,7450
59.47666399999986,9.197143999999987,7471
59.800663999999855,9.845143999999989,7366
59.47666399999986,11.141143999999988,7311
61.09666399999985,10.493143999999988,7485
60.77266399999985,10.493143999999988,7455
60.77266399999985,11.141143999999988,7410
62.06866399999984,9.197143999999987,7810
61.74466399999984,9.845143999999989,7756
61.420663999999846,9.845143999999989,7733
59.15266399999986,9.845143999999989,7430
59.47666399999986,9.845143999999989,7406
58.82866399999986,5.957143999999991,7845
58.180663999999865,7.25314399999999,7717
58.50466399999986,7.25314399999999,7750
58.50466399999986,6.60514399999999,7755
58.50466399999986,5.957143999999991,7813
58.82866399999986,8.54914399999999,7598
60.44866399999985,7.25314399999999,7598
60.44866399999985,7.90114399999999,7559
60.124663999999854,10.493143999999988,7396
60.44866399999985,9.197143999999987,7508
60.77266399999985,9.197143999999987,7520
60.77266399999985,8.54914399999999,7539
60.124663999999854,9.845143999999989,7775
60.44866399999985,10.493143999999988,7441
63.04066399999984,10.493143999999988,7734
62.06866399999984,9.845143999999989,7835
62.39266399999984,9.845143999999989,7843
62.71666399999984,9.845143999999989,7867
59.47666399999986,14.381143999999988,7360
59.47666399999986,13.733143999999989,7301
59.47666399999986,13.085143999999987,7277
59.800663999999855,12.437143999999988,7346
59.15266399999986,11.141143999999988,7275
59.15266399999986,14.381143999999988,7374
58.82866399999986,11.789143999999988,7255
58.50466399999986,12.437143999999988,7185
58.180663999999865,12.437143999999988,7178
57.85666399999987,11.789143999999988,7129
62.71666399999984,7.90114399999999,7896
62.39266399999984,7.90114399999999,7853
62.06866399999984,8.54914399999999,7828
60.44866399999985,5.309143999999991,7744
60.44866399999985,5.957143999999991,7711
60.77266399999985,5.957143999999991,7700
62.39266399999984,11.141143999999988,7631
62.06866399999984,10.493143999999988,7586
61.74466399999984,11.141143999999988,7559
61.420663999999846,11.141143999999988,7513
61.09666399999985,11.141143999999988,7496
60.77266399999985,11.789143999999988,7473
63.04066399999984,11.141143999999988,7712
62.71666399999984,11.141143999999988,7655
62.39266399999984,10.493143999999988,7613
67.25266399999981,15.677143999999986,8630
67.25266399999981,15.029143999999986,8668
67.25266399999981,14.381143999999988,8696
66.92866399999981,15.029143999999986,8619
66.60466399999981,15.677143999999986,8597
64.01266399999983,11.141143999999988,7868
66.60466399999981,15.029143999999986,8660
54.29266399999989,18.269143999999983,7710
54.616663999999886,17.621143999999987,7668
53.96866399999989,18.269143999999983,7698
43.92466399999995,1.4211439999999929,7622
44.24866399999995,0.7731439999999932,7583
44.572663999999946,0.1251439999999934,7568
46.84066399999993,1.4211439999999929,7618
44.572663999999946,1.4211439999999929,7638
44.24866399999995,1.4211439999999929,7663
45.54466399999994,1.4211439999999929,7584
46.516663999999935,1.4211439999999929,7751
42.30466399999996,2.717143999999992,7771
44.24866399999995,2.717143999999992,7748
44.572663999999946,2.717143999999992,7723
43.92466399999995,2.0691439999999925,7756
42.30466399999996,2.0691439999999925,7827
42.62866399999996,2.0691439999999925,7768
42.62866399999996,1.4211439999999929,7777
42.95266399999996,1.4211439999999929,7672
43.276663999999954,1.4211439999999929,7665
46.516663999999935,-1.170856000000006,7705
46.19266399999994,-1.170856000000006,7631
45.86866399999994,-0.5228560000000062,7600
45.54466399999994,-0.5228560000000062,7556
48.46066399999992,1.4211439999999929,7375
41.332663999999966,2.0691439999999925,7892
41.98066399999996,2.717143999999992,7851
48.46066399999992,-1.8188560000000056,7480
47.81266399999993,0.7731439999999932,7483
46.84066399999993,0.7731439999999932,7498
44.572663999999946,-1.170856000000006,7525
43.60066399999995,-1.170856000000006,7591
43.276663999999954,-1.8188560000000056,7638
43.276663999999954,0.1251439999999934,7730
42.95266399999996,0.1251439999999934,7695
43.276663999999954,-0.5228560000000062,7641
43.60066399999995,-0.5228560000000062,7630
47.81266399999993,-3.7628560000000046,7613
47.48866399999993,-2.4668560000000053,7514
47.81266399999993,-0.5228560000000062,7489
46.516663999999935,-1.8188560000000056,7721
48.136663999999925,-1.170856000000006,7452
47.48866399999993,-1.170856000000006,7495
45.22066399999994,8.54914399999999,7534
45.22066399999994,7.90114399999999,7542
46.19266399999994,-0.5228560000000062,7597
46.516663999999935,-0.5228560000000062,7674
48.78466399999992,-3.114856000000005,7551
50.72866399999991,2.0691439999999925,7320
50.40466399999991,2.0691439999999925,7357
40.36066399999997,-3.7628560000000046,9105
41.65666399999997,-1.170856000000006,8846
41.332663999999966,1.4211439999999929,8672
43.276663999999954,13.733143999999989,65535
42.95266399999996,13.733143999999989,65535
41.65666399999997,15.029143999999986,65535
40.68466399999997,17.621143999999987,65535
43.60066399999995,13.085143999999987,65535
41.65666399999997,12.437143999999988,65535
41.65666399999997,13.085143999999987,65535
41.98066399999996,13.085143999999987,65535
41.65666399999997,13.733143999999989,65535
41.332663999999966,13.733143999999989,65535
41.332663999999966,14.381143999999988,65535
41.00866399999997,14.381143999999988,65535
41.332663999999966,13.085143999999987,65535
41.00866399999997,15.029143999999986,65535
41.98066399999996,13.733143999999989,65535
42.30466399999996,14.381143999999988,65535
42.30466399999996,12.437143999999988,65535
42.62866399999996,12.437143999999988,65535
42.95266399999996,12.437143999999988,65535
42.30466399999996,11.789143999999988,65535
42.95266399999996,11.789143999999988,65535
42.62866399999996,11.789143999999988,65535
43.276663999999954,11.789143999999988,65535
42.95266399999996,13.085143999999987,65535
42.30466399999996,13.085143999999987,65535
43.276663999999954,13.085143999999987,65535
43.276663999999954,12.437143999999988,65535
42.62866399999996,11.141143999999988,65535
42.95266399999996,11.141143999999988,65535
42.95266399999996,10.493143999999988,65535
44.572663999999946,8.54914399999999,7564
44.89666399999994,7.90114399999999,7559
44.89666399999994,9.197143999999987,7572
44.24866399999995,7.90114399999999,7599
44.572663999999946,7.90114399999999,7580
43.92466399999995,7.90114399999999,7651
44.24866399999995,7.25314399999999,7596
44.89666399999994,7.25314399999999,7578
45.22066399999994,7.25314399999999,7558
45.54466399999994,7.90114399999999,7538
44.572663999999946,7.25314399999999,7702
52.996663999999896,22.805143999999984,8455
52.996663999999896,23.45314399999998,8484
51.37666399999991,22.15714399999998,7945
51.37666399999991,22.805143999999984,7999
50.08066399999991,20.213143999999986,7706
50.72866399999991,20.213143999999986,7747
50.40466399999991,20.213143999999986,7686
50.08066399999991,20.86114399999998,7773
50.08066399999991,21.50914399999997,7804
50.08066399999991,22.15714399999998,7841
50.08066399999991,22.805143999999984,7848
53.96866399999989,22.805143999999984,8596
53.64466399999989,23.45314399999998,8552
53.32066399999989,23.45314399999998,8507
50.40466399999991,19.565143999999982,7620
50.08066399999991,18.917143999999983,7650
50.08066399999991,18.269143999999983,7690
52.0246639999999,22.805143999999984,7892
52.0246639999999,23.45314399999998,7930
51.37666399999991,19.565143999999982,7714
51.05266399999991,19.565143999999982,7633
50.72866399999991,18.917143999999983,7611
50.72866399999991,19.565143999999982,7703
49.75666399999992,18.917143999999983,7638
50.40466399999991,18.269143999999983,7598
53.64466399999989,19.565143999999982,7721
53.96866399999989,18.917143999999983,7740
53.64466399999989,18.917143999999983,7719
53.64466399999989,20.213143999999986,7769
52.996663999999896,18.917143999999983,7667
52.996663999999896,18.269143999999983,7647
53.32066399999989,18.917143999999983,7671
50.72866399999991,17.621143999999987,7547
50.72866399999991,18.269143999999983,7584
52.6726639999999,16.325143999999987,7471
52.996663999999896,16.325143999999987,7433
52.996663999999896,15.677143999999986,7390
53.32066399999989,15.677143999999986,7385
53.32066399999989,15.029143999999986,7361
53.64466399999989,15.029143999999986,7368
53.96866399999989,15.029143999999986,7353
52.6726639999999,18.917143999999983,7686
53.32066399999989,16.325143999999987,7403
52.6726639999999,15.029143999999986,7342
51.05266399999991,22.805143999999984,8029
51.05266399999991,23.45314399999998,8056
50.72866399999991,22.15714399999998,7982
50.40466399999991,22.15714399999998,8006
51.05266399999991,22.15714399999998,7996
54.616663999999886,16.973143999999984,7652
54.29266399999989,16.325143999999987,7585
53.96866399999989,15.677143999999986,7500
50.72866399999991,21.50914399999997,7971
50.40466399999991,21.50914399999997,7852
50.40466399999991,17.621143999999987,7568
53.32066399999989,22.805143999999984,8477
53.64466399999989,22.15714399999998,7918
54.29266399999989,16.973143999999984,7621
50.72866399999991,20.86114399999998,7790
51.700663999999904,22.805143999999984,8028
51.05266399999991,21.50914399999997,7855
50.08066399999991,19.565143999999982,7683
52.0246639999999,18.917143999999983,8488
52.0246639999999,19.565143999999982,8481
53.64466399999989,18.269143999999983,7692
51.700663999999904,20.213143999999986,7854
53.32066399999989,19.565143999999982,7712
50.72866399999991,23.45314399999998,8875
50.72866399999991,22.805143999999984,8844
49.43266399999992,20.213143999999986,7726
49.75666399999992,21.50914399999997,7815
49.75666399999992,22.15714399999998,8468
49.43266399999992,22.15714399999998,8062
51.05266399999991,18.917143999999983,7616
51.05266399999991,18.269143999999983,7553
53.32066399999989,16.973143999999984,7579
53.64466399999989,16.973143999999984,7598
49.75666399999992,20.86114399999998,7826
50.40466399999991,22.805143999999984,9442
53.64466399999989,16.325143999999987,7557
53.96866399999989,20.86114399999998,7873
54.29266399999989,20.86114399999998,7919
53.96866399999989,21.50914399999997,8024
53.64466399999989,15.677143999999986,7512
53.96866399999989,20.213143999999986,7801
53.96866399999989,19.565143999999982,7764
54.29266399999989,19.565143999999982,7774
53.96866399999989,16.325143999999987,7548
53.64466399999989,17.621143999999987,7644
53.96866399999989,22.15714399999998,7938
53.64466399999989,21.50914399999997,7874
53.64466399999989,20.86114399999998,7826
52.6726639999999,15.677143999999986,7391
51.05266399999991,20.213143999999986,8075
54.940663999999884,24.101143999999977,65535
54.616663999999886,23.45314399999998,65535
54.29266399999989,23.45314399999998,65535
53.64466399999989,22.805143999999984,8500
53.96866399999989,16.973143999999984,7753
50.40466399999991,20.86114399999998,8506
53.32066399999989,18.269143999999983,7665
49.75666399999992,19.565143999999982,7699
50.40466399999991,23.45314399999998,8125
49.75666399999992,20.213143999999986,7730
49.43266399999992,19.565143999999982,7689
49.43266399999992,20.86114399999998,7835
53.96866399999989,17.621143999999987,8523
42.30466399999996,-1.8188560000000056,8910
41.98066399999996,-1.8188560000000056,8898
41.65666399999997,0.7731439999999932,8786
42.62866399999996,-1.8188560000000056,8935
42.95266399999996,-1.8188560000000056,8962
42.62866399999996,-3.114856000000005,9037
42.95266399999996,-2.4668560000000053,9015
42.62866399999996,-7.650856000000003,9379
42.30466399999996,-7.650856000000003,9439
42.30466399999996,-8.946856000000002,9575
42.30466399999996,-8.298856000000002,9549
41.98066399999996,-8.298856000000002,9538
42.30466399999996,-7.002856000000003,9321
42.62866399999996,-6.354856000000003,9263
42.30466399999996,-6.354856000000003,9218
42.62866399999996,-5.706856000000004,9184
41.98066399999996,-4.410856000000004,9138
42.30466399999996,-3.7628560000000046,9102
40.03666399999997,-0.5228560000000062,8766
39.38866399999998,-0.5228560000000062,8814
41.00866399999997,0.7731439999999932,8914
40.68466399999997,0.7731439999999932,8946
40.36066399999997,0.1251439999999934,9024
39.712663999999975,-0.5228560000000062,8923
38.41666399999998,-0.5228560000000062,8935
39.06466399999998,-0.5228560000000062,9057
38.74066399999998,-1.170856000000006,9077
41.332663999999966,0.7731439999999932,8974
41.65666399999997,2.717143999999992,8574
41.65666399999997,2.0691439999999925,8597
41.332663999999966,0.1251439999999934,8932
41.332663999999966,-0.5228560000000062,8876
41.65666399999997,-4.410856000000004,9280
40.03666399999997,-2.4668560000000053,9096
41.00866399999997,-4.410856000000004,9211
43.276663999999954,-5.706856000000004,9463
39.38866399999998,-1.170856000000006,8909
38.09266399999999,-1.170856000000006,9322
38.74066399999998,-0.5228560000000062,9085
37.76866399999999,-1.170856000000006,9387
39.06466399999998,-1.8188560000000056,9185
39.38866399999998,-3.114856000000005,9264
39.38866399999998,-2.4668560000000053,9291
39.06466399999998,-2.4668560000000053,9295
39.06466399999998,-3.114856000000005,9376
39.06466399999998,-3.7628560000000046,9390
38.74066399999998,-3.7628560000000046,9403
40.03666399999997,-3.7628560000000046,9158
40.03666399999997,-3.114856000000005,9214
40.03666399999997,-1.8188560000000056,9044
39.712663999999975,-1.8188560000000056,9009
39.712663999999975,-1.170856000000006,8945
40.36066399999997,-1.170856000000006,9050
40.68466399999997,-1.170856000000006,9070
41.00866399999997,-1.170856000000006,9095
41.332663999999966,-1.170856000000006,9144
43.276663999999954,-8.298856000000002,9539
42.95266399999996,-8.298856000000002,9507
41.65666399999997,-5.706856000000004,65535
41.98066399999996,-7.002856000000003,65535
41.98066399999996,-6.354856000000003,65535
41.332663999999966,-5.058856000000004,9399
43.276663999999954,-3.7628560000000046,9320
42.95266399999996,-4.410856000000004,9254
42.62866399999996,-4.410856000000004,9244
42.30466399999996,-4.410856000000004,9203
41.00866399999997,-5.706856000000004,65535
41.332663999999966,-1.8188560000000056,9200
40.68466399999997,-3.114856000000005,9370
41.00866399999997,-3.114856000000005,9424
41.00866399999997,-2.4668560000000053,9450
41.332663999999966,-2.4668560000000053,65535
40.68466399999997,-4.410856000000004,9190
40.36066399999997,-4.410856000000004,9517
40.68466399999997,-3.7628560000000046,9132
40.36066399999997,-3.114856000000005,9358
41.65666399999997,-2.4668560000000053,65535
38.09266399999999,-3.7628560000000046,65535
38.74066399999998,-3.114856000000005,65535
37.76866399999999,-3.7628560000000046,65535
39.712663999999975,-3.114856000000005,9247
38.41666399999998,-3.7628560000000046,65535
40.03666399999997,-4.410856000000004,65535
40.03666399999997,-5.058856000000004,65535
39.38866399999998,-6.354856000000003,65535
39.38866399999998,-7.002856000000003,65535
42.95266399999996,-3.114856000000005,9448
41.98066399999996,-1.170856000000006,9204
42.30466399999996,-2.4668560000000053,9552
41.65666399999997,-0.5228560000000062,65535
41.98066399999996,-0.5228560000000062,9154
41.65666399999997,0.1251439999999934,9139
41.98066399999996,0.1251439999999934,9107
37.76866399999999,-5.058856000000004,9492
36.79666399999999,-4.410856000000004,9554
38.74066399999998,-4.410856000000004,65535
37.12066399999999,-4.410856000000004,9528
37.44466399999999,-5.058856000000004,9515
37.44466399999999,-7.002856000000003,65535
37.44466399999999,-6.354856000000003,65535
37.44466399999999,-5.706856000000004,9429
39.712663999999975,-3.7628560000000046,65535
42.62866399999996,-8.946856000000002,65535
42.30466399999996,-5.706856000000004,9225
42.30466399999996,-5.058856000000004,9310
42.95266399999996,-5.706856000000004,65535
41.00866399999997,-5.058856000000004,65535
40.68466399999997,-5.058856000000004,65535
41.65666399999997,-5.058856000000004,65535
41.65666399999997,-6.354856000000003,65535
36.79666399999999,-6.354856000000003,65535
37.12066399999999,-5.706856000000004,65535
37.76866399999999,-5.706856000000004,65535
38.09266399999999,-4.410856000000004,65535
37.12066399999999,-5.058856000000004,65535
36.79666399999999,-5.058856000000004,65535
37.76866399999999,-4.410856000000004,65535
37.76866399999999,-7.002856000000003,65535
38.41666399999998,-6.354856000000003,65535
38.09266399999999,-6.354856000000003,65535
48.78466399999992,1.4211439999999929,7441
56.23666399999988,8.54914399999999,7030
55.58866399999988,9.197143999999987,6791
55.91266399999988,9.197143999999987,7036
55.26466399999988,10.493143999999988,6852
55.91266399999988,12.437143999999988,6967
55.58866399999988,11.789143999999988,6935
55.58866399999988,11.141143999999988,6906
55.26466399999988,11.789143999999988,6924
55.58866399999988,10.493143999999988,6846
55.58866399999988,13.085143999999987,6973
56.88466399999987,9.845143999999989,7042
57.20866399999987,9.845143999999989,7077
56.56066399999988,9.845143999999989,7014
56.88466399999987,8.54914399999999,7015
54.940663999999884,9.845143999999989,8236
54.940663999999884,11.789143999999988,7109
55.91266399999988,13.085143999999987,6984
56.23666399999988,13.733143999999989,7028
55.91266399999988,13.733143999999989,7031
56.23666399999988,14.381143999999988,7051
56.23666399999988,15.029143999999986,7092
56.23666399999988,15.677143999999986,7147
56.56066399999988,14.381143999999988,7108
56.88466399999987,14.381143999999988,7078
56.23666399999988,13.085143999999987,6976
56.56066399999988,13.085143999999987,7056
56.88466399999987,12.437143999999988,7093
57.20866399999987,12.437143999999988,7109
57.53266399999987,12.437143999999988,7124
56.88466399999987,15.029143999999986,7104
56.56066399999988,15.677143999999986,7164
56.88466399999987,15.677143999999986,7183
56.88466399999987,16.325143999999987,7198
55.91266399999988,11.789143999999988,7061
57.20866399999987,10.493143999999988,7264
49.43266399999992,1.4211439999999929,7466
49.75666399999992,0.7731439999999932,7459
49.75666399999992,2.0691439999999925,7390
50.08066399999991,2.717143999999992,7370
49.75666399999992,1.4211439999999929,7440
47.81266399999993,1.4211439999999929,7515
48.136663999999925,2.0691439999999925,7749
48.46066399999992,2.0691439999999925,7591
48.136663999999925,1.4211439999999929,7493
48.78466399999992,0.1251439999999934,7492
48.46066399999992,0.1251439999999934,7490
47.81266399999993,0.1251439999999934,7453
46.84066399999993,-0.5228560000000062,7645
47.16466399999993,0.7731439999999932,7468
46.84066399999993,0.1251439999999934,7519
46.84066399999993,-1.170856000000006,7679
50.08066399999991,1.4211439999999929,7417
50.08066399999991,2.0691439999999925,7433
49.43266399999992,2.717143999999992,7392
49.75666399999992,3.365143999999992,7390
50.08066399999991,3.365143999999992,7317
49.10866399999992,2.0691439999999925,7415
49.43266399999992,2.0691439999999925,7423
48.78466399999992,0.7731439999999932,7441
48.78466399999992,-0.5228560000000062,7521
48.78466399999992,-1.170856000000006,7540
48.136663999999925,0.7731439999999932,7424
48.46066399999992,0.7731439999999932,7449
43.92466399999995,5.957143999999991,7593
44.24866399999995,5.957143999999991,7633
43.92466399999995,5.309143999999991,7541
42.95266399999996,2.717143999999992,7698
45.54466399999994,2.0691439999999925,7621
45.22066399999994,2.0691439999999925,7638
42.95266399999996,2.0691439999999925,7697
42.95266399999996,0.7731439999999932,7706
43.276663999999954,0.7731439999999932,7691
46.19266399999994,0.7731439999999932,7645
46.516663999999935,0.7731439999999932,7579
45.86866399999994,0.1251439999999934,7723
46.19266399999994,0.1251439999999934,7720
47.81266399999993,-1.170856000000006,7528
48.136663999999925,-2.4668560000000053,7506
47.48866399999993,-1.8188560000000056,7496
47.16466399999993,-1.170856000000006,7515
47.16466399999993,-0.5228560000000062,7523
46.84066399999993,-1.8188560000000056,7552
45.22066399999994,-0.5228560000000062,7526
44.89666399999994,0.1251439999999934,7519
45.22066399999994,0.7731439999999932,7543
45.54466399999994,0.7731439999999932,7553
45.86866399999994,0.7731439999999932,7718
45.22066399999994,0.1251439999999934,7532
44.89666399999994,0.7731439999999932,7556
43.92466399999995,-0.5228560000000062,7679
43.92466399999995,-1.170856000000006,7571
44.24866399999995,-1.170856000000006,7644
45.22066399999994,-1.170856000000006,7578
44.572663999999946,-0.5228560000000062,7543
44.24866399999995,0.1251439999999934,7590
44.572663999999946,0.7731439999999932,7637
43.276663999999954,-1.170856000000006,7604
42.95266399999996,-0.5228560000000062,7653
44.24866399999995,2.0691439999999925,7800
43.60066399999995,0.7731439999999932,7690
43.60066399999995,2.0691439999999925,7698
52.6726639999999,4.661143999999991,7299
52.6726639999999,5.309143999999991,7314
51.700663999999904,5.309143999999991,7268
52.0246639999999,5.309143999999991,7278
52.3486639999999,5.309143999999991,7280
51.37666399999991,4.013143999999992,7306
52.3486639999999,5.957143999999991,7260
52.0246639999999,6.60514399999999,7269
52.6726639999999,5.957143999999991,7252
52.996663999999896,5.957143999999991,7260
53.32066399999989,5.957143999999991,7245
52.996663999999896,6.60514399999999,7227
53.32066399999989,6.60514399999999,7221
52.6726639999999,6.60514399999999,7240
52.996663999999896,5.309143999999991,7266
59.15266399999986,24.101143999999977,65535
56.88466399999987,24.101143999999977,65535
56.88466399999987,23.45314399999998,65535
56.88466399999987,22.805143999999984,65535
57.20866399999987,24.74914399999998,65535
56.88466399999987,24.74914399999998,65535
56.56066399999988,24.74914399999998,65535
56.56066399999988,25.397143999999983,65535
56.56066399999988,24.101143999999977,65535
56.56066399999988,23.45314399999998,65535
56.56066399999988,26.04514399999998,65535
56.88466399999987,26.04514399999998,65535
57.20866399999987,25.397143999999983,65535
57.53266399999987,25.397143999999983,65535
56.23666399999988,26.04514399999998,65535
56.23666399999988,26.69314399999997,65535
55.91266399999988,26.69314399999997,65535
56.56066399999988,26.69314399999997,65535
56.56066399999988,27.34114399999998,65535
56.56066399999988,27.989143999999985,65535
56.23666399999988,27.989143999999985,65535
55.91266399999988,27.34114399999998,65535
56.56066399999988,22.805143999999984,65535
56.56066399999988,22.15714399999998,65535
56.56066399999988,21.50914399999997,65535
57.20866399999987,26.69314399999997,65535
39.06466399999998,-8.946856000000002,65535
38.41666399999998,-8.298856000000002,65535
45.86866399999994,11.789143999999988,9268
46.19266399999994,11.789143999999988,9255
46.19266399999994,10.493143999999988,9295
45.22066399999994,18.269143999999983,7831
45.22066399999994,18.917143999999983,7857
45.54466399999994,16.973143999999984,7696
45.22066399999994,17.621143999999987,7757
45.86866399999994,16.325143999999987,7615
45.54466399999994,18.917143999999983,7894
45.54466399999994,16.325143999999987,7635
45.54466399999994,18.269143999999983,7889
44.89666399999994,18.917143999999983,7930
46.19266399999994,16.973143999999984,7681
46.19266399999994,16.325143999999987,7668
45.86866399999994,16.973143999999984,7691
45.86866399999994,17.621143999999987,7724
46.19266399999994,15.677143999999986,7595
46.516663999999935,16.325143999999987,7653
45.54466399999994,15.677143999999986,7679
45.22066399999994,15.029143999999986,7675
45.54466399999994,15.029143999999986,7655
45.22066399999994,15.677143999999986,7742
44.572663999999946,15.677143999999986,7819
44.24866399999995,15.677143999999986,7840
43.92466399999995,16.325143999999987,7904
44.89666399999994,15.677143999999986,7783
45.54466399999994,17.621143999999987,7832
45.22066399999994,16.325143999999987,7743
46.516663999999935,16.973143999999984,7695
45.86866399999994,18.269143999999983,7915
43.92466399999995,15.677143999999986,8006
45.22066399999994,13.733143999999989,7781
47.48866399999993,19.565143999999982,7834
47.16466399999993,18.917143999999983,7833
47.81266399999993,18.917143999999983,7786
45.54466399999994,9.845143999999989,7519
45.22066399999994,9.845143999999989,7528
45.22066399999994,10.493143999999988,7578
45.86866399999994,9.845143999999989,7539
45.86866399999994,10.493143999999988,65535
48.78466399999992,21.50914399999997,7777
49.10866399999992,20.213143999999986,7718
49.10866399999992,18.917143999999983,7626
48.46066399999992,17.621143999999987,7667
49.43266399999992,17.621143999999987,7573
49.10866399999992,17.621143999999987,7621
48.136663999999925,18.269143999999983,7698
49.10866399999992,18.269143999999983,7647
49.43266399999992,18.269143999999983,7604
49.43266399999992,16.973143999999984,7551
49.75666399999992,16.973143999999984,7521
49.75666399999992,16.325143999999987,7499
50.08066399999991,15.677143999999986,7451
50.08066399999991,15.029143999999986,7421
49.43266399999992,18.917143999999983,7615
47.81266399999993,20.86114399999998,7915
48.136663999999925,20.86114399999998,7850
48.46066399999992,20.86114399999998,7837
48.46066399999992,21.50914399999997,7792
49.10866399999992,19.565143999999982,7639
48.136663999999925,17.621143999999987,7646
48.78466399999992,22.15714399999998,7910
48.78466399999992,20.86114399999998,8065
49.10866399999992,20.86114399999998,7761
48.78466399999992,18.269143999999983,7690
48.78466399999992,17.621143999999987,7649
49.10866399999992,21.50914399999997,7769
48.78466399999992,20.213143999999986,8109
48.46066399999992,20.213143999999986,8121
48.136663999999925,19.565143999999982,7845
48.46066399999992,19.565143999999982,7724
48.46066399999992,18.917143999999983,7706
48.46066399999992,18.269143999999983,7703
48.78466399999992,19.565143999999982,7680
48.78466399999992,18.917143999999983,7666
47.81266399999993,18.269143999999983,7747
49.10866399999992,22.15714399999998,7964
49.43266399999992,21.50914399999997,7894
48.136663999999925,18.917143999999983,7899
48.136663999999925,20.213143999999986,7865
52.636,-8.018,65535
52.312,-7.370000000000001,65535
52.312,-8.018,65535
52.636,-8.666,65535
51.988,-8.666,65535
51.988,-8.018,65535
52.96,-8.666,65535
52.96,-6.074000000000002,65535
53.28399999999999,-6.722000000000001,65535
53.60799999999999,-6.722000000000001,65535
53.60799999999999,-7.370000000000001,65535
53.60799999999999,-8.018,65535
54.25599999999999,-8.666,65535
53.93199999999999,-8.666,65535
53.93199999999999,-8.018,65535
52.312,-6.722000000000001,65535
52.636,-6.722000000000001,65535
53.93199999999999,-6.722000000000001,65535
54.25599999999999,-6.074000000000002,65535
53.28399999999999,-7.370000000000001,65535
52.96,-7.370000000000001,65535
52.312,-8.666,65535
52.96,-8.018,65535
52.636,-7.370000000000001,65535
52.96,-6.722000000000001,65535
51.988,-9.314,65535
52.312,-9.314,65535
54.579999999999984,-6.722000000000001,65535
54.579999999999984,-6.074000000000002,65535
53.28399999999999,-8.018,65535
53.28399999999999,-8.666,65535
53.28399999999999,-9.314,65535
53.93199999999999,-9.314,65535
54.25599999999999,-9.314,65535
53.60799999999999,-8.666,65535
53.60799999999999,-9.314,65535
49.43266399999992,14.381143999999988,7475
49.75666399999992,14.381143999999988,7433
49.75666399999992,15.029143999999986,7426
49.75666399999992,13.733143999999989,7463
50.08066399999991,13.733143999999989,7457
49.75666399999992,15.677143999999986,7437
50.40466399999991,15.029143999999986,7416
49.43266399999992,13.733143999999989,7566
50.40466399999991,15.677143999999986,7427
50.40466399999991,13.733143999999989,7483
46.19266399999994,15.029143999999986,7589
45.86866399999994,15.029143999999986,7616
45.86866399999994,14.381143999999988,7609
46.19266399999994,13.733143999999989,7622
45.86866399999994,13.733143999999989,7708
58.50466399999986,13.733143999999989,7201
58.180663999999865,13.733143999999989,7206
58.180663999999865,13.085143999999987,7178
57.85666399999987,12.437143999999988,7144
60.44866399999985,15.677143999999986,7427
60.124663999999854,15.677143999999986,7361
60.124663999999854,16.325143999999987,7399
59.800663999999855,16.325143999999987,7327
59.800663999999855,17.621143999999987,7306
59.47666399999986,18.269143999999983,7288
61.74466399999984,16.973143999999984,7438
61.420663999999846,16.973143999999984,7411
60.77266399999985,16.973143999999984,7363
65.63266399999982,22.15714399999998,8542
65.95666399999982,21.50914399999997,8502
65.63266399999982,20.86114399999998,8473
64.98466399999982,20.213143999999986,8405
64.66066399999983,20.213143999999986,8383
64.33666399999983,19.565143999999982,8077
64.01266399999983,19.565143999999982,7790
63.68866399999983,20.213143999999986,7743
64.66066399999983,18.917143999999983,8754
59.15266399999986,16.325143999999987,7263
59.15266399999986,15.029143999999986,7304
59.15266399999986,17.621143999999987,7280
57.53266399999987,14.381143999999988,7104
57.53266399999987,15.029143999999986,7124
61.09666399999985,14.381143999999988,7531
60.77266399999985,15.029143999999986,7482
60.44866399999985,15.029143999999986,7468
58.180663999999865,15.029143999999986,7181
58.50466399999986,16.325143999999987,7215
58.50466399999986,15.677143999999986,7188
63.36466399999984,13.085143999999987,7775
63.04066399999984,14.381143999999988,7712
62.39266399999984,15.677143999999986,7634
63.36466399999984,13.733143999999989,7757
63.36466399999984,14.381143999999988,7729
62.71666399999984,15.677143999999986,7662
62.39266399999984,17.621143999999987,7496
59.800663999999855,15.677143999999986,7773
55.58866399999988,13.733143999999989,7058
57.20866399999987,14.381143999999988,7088
57.85666399999987,14.381143999999988,7136
58.82866399999986,16.973143999999984,7272
58.82866399999986,16.325143999999987,7250
59.15266399999986,18.269143999999983,7284
60.44866399999985,17.621143999999987,7339
59.15266399999986,12.437143999999988,7243
59.15266399999986,13.085143999999987,7257
58.82866399999986,12.437143999999988,7219
59.47666399999986,16.325143999999987,7309
58.82866399999986,14.381143999999988,7296
59.47666399999986,15.677143999999986,7327
63.36466399999984,18.917143999999983,7696
63.04066399999984,17.621143999999987,7651
62.71666399999984,17.621143999999987,7625
63.68866399999983,19.565143999999982,7729
62.39266399999984,16.973143999999984,7540
59.800663999999855,16.973143999999984,7315
59.47666399999986,17.621143999999987,7292
57.85666399999987,13.085143999999987,7168
57.53266399999987,13.085143999999987,7149
58.50466399999986,11.789143999999988,7190
57.85666399999987,15.029143999999986,7170
57.20866399999987,13.733143999999989,7094
57.53266399999987,13.733143999999989,7155
61.74466399999984,16.325143999999987,7534
61.420663999999846,16.325143999999987,7501
61.09666399999985,16.325143999999987,7490
61.09666399999985,16.973143999999984,7458
60.124663999999854,15.029143999999986,7636
66.60466399999981,20.86114399999998,8577
67.25266399999981,20.86114399999998,8645
67.90066399999981,20.213143999999986,8715
67.57666399999981,20.213143999999986,9340
59.800663999999855,15.029143999999986,7356
58.50466399999986,15.029143999999986,7198
59.47666399999986,15.029143999999986,7341
60.44866399999985,16.325143999999987,7427
59.15266399999986,15.677143999999986,7285
57.85666399999987,13.733143999999989,7196
58.82866399999986,13.733143999999989,7243
58.50466399999986,13.085143999999987,7228
57.20866399999987,13.085143999999987,7125
56.88466399999987,13.085143999999987,7099
58.180663999999865,11.789143999999988,7161
62.06866399999984,16.973143999999984,7529
65.95666399999982,23.45314399999998,8583
59.800663999999855,14.381143999999988,65535
59.800663999999855,18.269143999999983,7297
63.04066399999984,15.029143999999986,7680
62.71666399999984,15.029143999999986,7670
62.39266399999984,16.325143999999987,7603
63.36466399999984,12.437143999999988,7808
68.5486639999998,17.621143999999987,8928
68.5486639999998,18.269143999999983,8861
68.5486639999998,18.917143999999983,8838
68.2246639999998,18.917143999999983,8794
59.800663999999855,13.085143999999987,7360
60.124663999999854,13.085143999999987,7399
59.47666399999986,16.973143999999984,7301
59.15266399999986,16.973143999999984,7293
56.56066399999988,13.733143999999989,7046
60.124663999999854,17.621143999999987,7316
57.85666399999987,16.325143999999987,7275
58.180663999999865,16.325143999999987,7237
58.180663999999865,15.677143999999986,7245
57.20866399999987,16.325143999999987,7287
57.53266399999987,15.677143999999986,7305
57.85666399999987,15.677143999999986,7276
44.89666399999994,23.45314399999998,65535
44.572663999999946,23.45314399999998,65535
44.89666399999994,24.74914399999998,65535
44.572663999999946,24.74914399999998,65535
44.572663999999946,24.101143999999977,65535
44.24866399999995,24.101143999999977,65535
47.48866399999993,25.397143999999983,65535
47.48866399999993,24.74914399999998,65535
47.16466399999993,24.74914399999998,65535
47.16466399999993,24.101143999999977,65535
47.48866399999993,22.15714399999998,65535
47.81266399999993,22.15714399999998,65535
47.16466399999993,22.15714399999998,65535
47.16466399999993,23.45314399999998,65535
47.16466399999993,22.805143999999984,65535
46.84066399999993,24.101143999999977,65535
45.86866399999994,27.34114399999998,65535
45.54466399999994,27.34114399999998,65535
45.54466399999994,27.989143999999985,65535
45.86866399999994,20.86114399999998,65535
45.86866399999994,21.50914399999997,65535
46.19266399999994,21.50914399999997,65535
46.19266399999994,27.34114399999998,65535
46.19266399999994,26.69314399999997,65535
46.516663999999935,26.69314399999997,65535
46.516663999999935,26.04514399999998,65535
47.48866399999993,22.805143999999984,65535
46.84066399999993,22.805143999999984,65535
45.54466399999994,22.15714399999998,65535
45.22066399999994,22.15714399999998,65535
44.89666399999994,22.15714399999998,65535
47.48866399999993,23.45314399999998,65535
46.516663999999935,24.101143999999977,65535
46.516663999999935,24.74914399999998,65535
45.86866399999994,24.101143999999977,65535
47.16466399999993,26.69314399999997,65535
47.16466399999993,27.34114399999998,65535
43.92466399999995,25.397143999999983,65535
44.24866399999995,24.74914399999998,65535
44.89666399999994,26.04514399999998,65535
44.89666399999994,26.69314399999997,65535
45.22066399999994,26.69314399999997,65535
45.22066399999994,27.34114399999998,65535
46.84066399999993,26.69314399999997,65535
47.48866399999993,26.69314399999997,65535
44.24866399999995,25.397143999999983,65535
43.92466399999995,26.04514399999998,65535
46.19266399999994,24.101143999999977,65535
44.572663999999946,25.397143999999983,65535
46.84066399999993,24.74914399999998,65535
46.516663999999935,21.50914399999997,65535
46.84066399999993,21.50914399999997,65535
44.572663999999946,26.69314399999997,65535
44.572663999999946,27.34114399999998,65535
44.89666399999994,27.34114399999998,65535
44.572663999999946,27.989143999999985,65535
44.24866399999995,27.989143999999985,65535
44.572663999999946,28.63714399999997,65535
45.86866399999994,22.15714399999998,65535
45.86866399999994,22.805143999999984,65535
44.24866399999995,23.45314399999998,65535
43.92466399999995,27.989143999999985,65535
46.84066399999993,27.34114399999998,65535
45.22066399999994,23.45314399999998,65535
45.54466399999994,23.45314399999998,65535
45.54466399999994,24.101143999999977,65535
45.22066399999994,24.101143999999977,65535
44.89666399999994,24.101143999999977,65535
46.19266399999994,22.15714399999998,65535
46.516663999999935,22.15714399999998,65535
45.22066399999994,21.50914399999997,65535
45.54466399999994,21.50914399999997,65535
45.54466399999994,20.86114399999998,65535
46.516663999999935,27.989143999999985,65535
46.19266399999994,27.989143999999985,65535
45.54466399999994,25.397143999999983,65535
45.22066399999994,25.397143999999983,65535
45.22066399999994,26.04514399999998,65535
47.81266399999993,24.101143999999977,65535
47.48866399999993,26.04514399999998,65535
47.81266399999993,26.04514399999998,65535
46.19266399999994,23.45314399999998,65535
45.86866399999994,23.45314399999998,65535
44.24866399999995,26.04514399999998,65535
45.22066399999994,27.989143999999985,65535
45.86866399999994,24.74914399999998,65535
46.516663999999935,25.397143999999983,65535
46.84066399999993,25.397143999999983,65535
46.19266399999994,26.04514399999998,65535
45.86866399999994,26.04514399999998,65535
43.92466399999995,23.45314399999998,65535
44.89666399999994,25.397143999999983,65535
46.19266399999994,20.86114399999998,65535
47.81266399999993,25.397143999999983,65535
44.572663999999946,22.805143999999984,65535
44.572663999999946,22.15714399999998,65535
46.516663999999935,23.45314399999998,65535
45.86866399999994,25.397143999999983,65535
44.24866399999995,27.34114399999998,65535
45.22066399999994,24.74914399999998,65535
45.54466399999994,22.805143999999984,65535
45.22066399999994,28.63714399999997,65535
44.89666399999994,28.63714399999997,65535
47.81266399999993,23.45314399999998,65535
46.19266399999994,24.74914399999998,65535
46.19266399999994,25.397143999999983,65535
43.92466399999995,24.101143999999977,65535
43.92466399999995,24.74914399999998,65535
47.81266399999993,26.69314399999997,65535
47.48866399999993,24.101143999999977,65535
46.84066399999993,26.04514399999998,65535
46.19266399999994,22.805143999999984,65535
47.48866399999993,27.34114399999998,65535
46.19266399999994,20.213143999999986,65535
45.54466399999994,26.04514399999998,65535
44.24866399999995,26.69314399999997,65535
45.86866399999994,27.989143999999985,65535
47.81266399999993,5.957143999999991,65535
