51.56399999999999,-0.4100000000000028,65535
51.887999999999984,-0.4100000000000028,65535
50.91599999999999,-1.7060000000000022,65535
51.23999999999999,-1.0580000000000025,65535
51.56399999999999,-1.0580000000000025,65535
51.23999999999999,-1.7060000000000022,65535
51.56399999999999,0.2379999999999968,65535
47.16466399999993,9.845143999999989,1584
47.48866399999993,9.845143999999989,1598
48.136663999999925,14.381143999999988,1780
47.81266399999993,13.085143999999987,1749
47.16466399999993,11.141143999999988,1730
47.48866399999993,11.789143999999988,1877
48.136663999999925,16.325143999999987,2372
47.48866399999993,12.437143999999988,1738
48.136663999999925,15.677143999999986,2398
47.16466399999993,10.493143999999988,1878
47.16466399999993,9.197143999999987,1579
48.136663999999925,13.733143999999989,1756
48.136663999999925,15.029143999999986,2263
47.81266399999993,16.973143999999984,2395
48.46066399999992,14.381143999999988,1864
47.48866399999993,13.085143999999987,1742
47.16466399999993,13.085143999999987,1749
47.48866399999993,14.381143999999988,1945
47.48866399999993,13.733143999999989,2364
47.48866399999993,15.029143999999986,2232
46.516663999999935,13.733143999999989,2534
46.84066399999993,13.733143999999989,2560
46.84066399999993,13.085143999999987,2565
48.78466399999992,14.381143999999988,65535
47.16466399999993,15.677143999999986,2323
46.516663999999935,14.381143999999988,2514
46.84066399999993,14.381143999999988,2455
47.16466399999993,14.381143999999988,2405
46.516663999999935,15.029143999999986,2527
47.81266399999993,16.325143999999987,2354
47.16466399999993,15.029143999999986,2296
47.81266399999993,15.677143999999986,2398
47.48866399999993,15.677143999999986,2287
46.516663999999935,13.085143999999987,2894
46.84066399999993,12.437143999999988,2579
48.136663999999925,11.789143999999988,1688
47.81266399999993,12.437143999999988,1706
46.84066399999993,15.677143999999986,2521
46.516663999999935,15.677143999999986,2581
46.84066399999993,16.325143999999987,2505
47.81266399999993,14.381143999999988,1885
48.78466399999992,16.973143999999984,2452
48.136663999999925,16.973143999999984,2386
48.46066399999992,13.733143999999989,1777
47.81266399999993,13.733143999999989,1814
50.08066399999991,8.54914399999999,1694
48.46066399999992,9.845143999999989,1691
51.05266399999991,7.25314399999999,1729
51.37666399999991,7.25314399999999,1734
51.37666399999991,6.60514399999999,1741
48.46066399999992,16.325143999999987,2379
48.46066399999992,16.973143999999984,2409
48.78466399999992,16.325143999999987,2510
48.46066399999992,15.677143999999986,2423
48.78466399999992,15.677143999999986,2447
47.48866399999993,16.325143999999987,2309
47.16466399999993,16.325143999999987,2372
46.19266399999994,14.381143999999988,2526
45.86866399999994,15.677143999999986,2601
43.60066399999995,16.325143999999987,3160
45.54466399999994,14.381143999999988,2639
45.54466399999994,13.733143999999989,2661
48.136663999999925,13.085143999999987,1736
48.46066399999992,11.141143999999988,1686
48.136663999999925,11.141143999999988,1681
48.46066399999992,7.90114399999999,1643
49.10866399999992,8.54914399999999,1667
48.78466399999992,2.0691439999999925,1713
49.10866399999992,7.25314399999999,1731
52.0246639999999,7.90114399999999,1755
47.16466399999993,11.789143999999988,1752
49.43266399999992,11.141143999999988,1725
53.64466399999989,9.845143999999989,1894
50.72866399999991,4.013143999999992,1771
51.05266399999991,11.141143999999988,1858
47.48866399999993,11.141143999999988,1714
46.84066399999993,11.789143999999988,1142
46.516663999999935,11.141143999999988,873
45.54466399999994,11.141143999999988,888
46.19266399999994,11.141143999999988,843
45.86866399999994,11.141143999999988,851
44.572663999999946,11.141143999999988,1330
43.92466399999995,12.437143999999988,3965
45.54466399999994,12.437143999999988,1572
45.54466399999994,11.789143999999988,1535
48.78466399999992,15.029143999999986,3372
47.81266399999993,15.029143999999986,2332
47.81266399999993,11.141143999999988,1689
50.40466399999991,18.917143999999983,2348
52.3486639999999,20.86114399999998,2503
54.616663999999886,18.269143999999983,2624
54.29266399999989,18.917143999999983,2633
49.10866399999992,14.381143999999988,65535
50.08066399999991,14.381143999999988,2227
48.78466399999992,13.733143999999989,3835
52.6726639999999,13.085143999999987,1950
52.3486639999999,13.085143999999987,1948
53.96866399999989,12.437143999999988,1983
54.29266399999989,12.437143999999988,2212
47.48866399999993,8.54914399999999,1580
47.81266399999993,17.621143999999987,2432
47.48866399999993,18.917143999999983,2540
47.48866399999993,20.86114399999998,2876
46.84066399999993,23.45314399999998,3358
44.572663999999946,26.04514399999998,3864
47.48866399999993,21.50914399999997,2912
47.81266399999993,21.50914399999997,3308
48.46066399999992,22.15714399999998,2737
47.48866399999993,16.973143999999984,65535
49.10866399999992,16.325143999999987,2407
49.75666399999992,18.269143999999983,2504
46.19266399999994,13.085143999999987,2610
41.98066399999996,12.437143999999988,2565
43.60066399999995,10.493143999999988,2726
45.54466399999994,9.197143999999987,1416
47.81266399999993,22.805143999999984,4099
49.75666399999992,22.805143999999984,2576
50.72866399999991,3.365143999999992,1782
51.05266399999991,4.013143999999992,1777
50.72866399999991,4.661143999999991,1767
51.05266399999991,4.661143999999991,1772
51.05266399999991,3.365143999999992,1782
51.05266399999991,2.717143999999992,1802
50.40466399999991,4.661143999999991,1764
50.72866399999991,2.717143999999992,1845
50.40466399999991,4.013143999999992,1797
51.05266399999991,5.309143999999991,1770
50.72866399999991,5.309143999999991,1752
51.37666399999991,3.365143999999992,1799
51.37666399999991,4.661143999999991,1781
50.72866399999991,5.957143999999991,1732
50.40466399999991,5.957143999999991,1743
50.40466399999991,3.365143999999992,1790
50.40466399999991,5.309143999999991,1759
50.08066399999991,5.309143999999991,1777
49.75666399999992,5.309143999999991,1777
49.75666399999992,5.957143999999991,1784
51.37666399999991,5.309143999999991,1827
51.700663999999904,4.661143999999991,1818
50.08066399999991,4.013143999999992,1808
50.08066399999991,5.957143999999991,1761
50.08066399999991,4.661143999999991,1795
49.43266399999992,5.309143999999991,1755
49.43266399999992,5.957143999999991,1719
52.0246639999999,4.661143999999991,1850
52.3486639999999,4.661143999999991,1879
50.72866399999991,15.029143999999986,2213
51.05266399999991,15.029143999999986,1900
51.05266399999991,13.733143999999989,1875
50.40466399999991,13.085143999999987,1918
49.10866399999992,7.90114399999999,1661
48.78466399999992,7.90114399999999,1652
50.40466399999991,7.90114399999999,1704
50.08066399999991,7.90114399999999,1719
49.75666399999992,7.90114399999999,1724
49.43266399999992,7.90114399999999,1676
49.75666399999992,8.54914399999999,1690
49.43266399999992,8.54914399999999,1676
49.43266399999992,9.197143999999987,1694
49.10866399999992,9.197143999999987,1674
47.48866399999993,7.90114399999999,1584
47.81266399999993,7.90114399999999,1610
48.136663999999925,7.90114399999999,1629
48.136663999999925,9.845143999999989,1667
47.81266399999993,9.197143999999987,1604
47.81266399999993,8.54914399999999,1602
47.81266399999993,9.845143999999989,1636
54.940663999999884,9.197143999999987,1992
54.616663999999886,9.197143999999987,1929
54.29266399999989,9.197143999999987,1935
53.96866399999989,9.197143999999987,1916
53.64466399999989,9.197143999999987,1907
54.616663999999886,9.845143999999989,1920
54.29266399999989,9.845143999999989,1909
53.96866399999989,9.845143999999989,1898
53.64466399999989,10.493143999999988,1902
53.96866399999989,10.493143999999988,1906
53.96866399999989,11.141143999999988,2303
54.29266399999989,10.493143999999988,1930
53.32066399999989,10.493143999999988,1870
54.940663999999884,11.141143999999988,1975
52.6726639999999,13.733143999999989,1951
52.3486639999999,13.733143999999989,1951
52.3486639999999,14.381143999999988,1958
52.0246639999999,14.381143999999988,2170
52.0246639999999,11.789143999999988,1878
52.3486639999999,11.789143999999988,1872
52.3486639999999,12.437143999999988,1919
52.0246639999999,15.029143999999986,2181
51.700663999999904,14.381143999999988,2053
52.0246639999999,13.733143999999989,2014
51.700663999999904,13.733143999999989,2044
52.6726639999999,12.437143999999988,2119
53.32066399999989,11.789143999999988,1928
53.96866399999989,11.789143999999988,1974
53.64466399999989,11.789143999999988,1937
53.64466399999989,11.141143999999988,1932
53.32066399999989,11.141143999999988,1906
52.996663999999896,11.789143999999988,2151
52.996663999999896,12.437143999999988,2136
52.996663999999896,13.733143999999989,2163
53.64466399999989,13.733143999999989,2257
53.96866399999989,13.733143999999989,2330
54.29266399999989,13.085143999999987,2317
53.96866399999989,13.085143999999987,2339
53.32066399999989,13.733143999999989,2193
52.0246639999999,13.085143999999987,2009
51.700663999999904,13.085143999999987,1831
52.996663999999896,14.381143999999988,2220
52.0246639999999,12.437143999999988,1864
51.700663999999904,12.437143999999988,1822
51.37666399999991,11.789143999999988,1834
51.37666399999991,12.437143999999988,1814
52.6726639999999,11.789143999999988,1910
53.64466399999989,13.085143999999987,2279
53.32066399999989,13.085143999999987,2265
52.996663999999896,13.085143999999987,2206
53.64466399999989,12.437143999999988,2262
51.37666399999991,13.733143999999989,1860
53.32066399999989,12.437143999999988,2272
52.6726639999999,14.381143999999988,2270
51.37666399999991,13.085143999999987,1822
53.32066399999989,14.381143999999988,2237
52.3486639999999,15.029143999999986,2336
52.0246639999999,15.677143999999986,2232
51.700663999999904,15.029143999999986,2263
51.05266399999991,16.325143999999987,2217
51.05266399999991,16.973143999999984,2244
51.700663999999904,15.677143999999986,2261
51.37666399999991,15.677143999999986,2175
51.37666399999991,16.325143999999987,2207
50.72866399999991,13.085143999999987,1811
50.72866399999991,12.437143999999988,1800
51.05266399999991,13.085143999999987,1827
51.05266399999991,14.381143999999988,1892
50.40466399999991,12.437143999999988,1795
50.40466399999991,11.789143999999988,1792
50.08066399999991,12.437143999999988,1761
50.72866399999991,11.789143999999988,1849
51.05266399999991,12.437143999999988,1807
50.72866399999991,14.381143999999988,1916
51.37666399999991,14.381143999999988,1874
50.72866399999991,13.733143999999989,2254
50.40466399999991,14.381143999999988,2199
51.37666399999991,15.029143999999986,1906
55.26466399999988,9.197143999999987,3048
55.58866399999988,8.54914399999999,3082
55.91266399999988,8.54914399999999,6559
56.23666399999988,9.197143999999987,6567
56.23666399999988,10.493143999999988,6520
56.23666399999988,9.845143999999989,6507
55.91266399999988,9.845143999999989,6445
56.56066399999988,9.197143999999987,6577
56.56066399999988,8.54914399999999,6620
51.05266399999991,6.60514399999999,1731
51.700663999999904,7.90114399999999,1744
50.72866399999991,6.60514399999999,1724
51.700663999999904,7.25314399999999,1738
50.72866399999991,7.25314399999999,1720
52.0246639999999,7.25314399999999,1743
52.3486639999999,7.90114399999999,1767
51.05266399999991,5.957143999999991,1736
50.40466399999991,7.25314399999999,1708
51.700663999999904,6.60514399999999,1753
51.700663999999904,5.957143999999991,1748
52.3486639999999,9.197143999999987,1801
51.700663999999904,8.54914399999999,1754
52.0246639999999,8.54914399999999,1774
52.3486639999999,8.54914399999999,1781
51.37666399999991,7.90114399999999,1744
52.3486639999999,7.25314399999999,1773
51.37666399999991,5.957143999999991,1781
50.72866399999991,7.90114399999999,1741
51.37666399999991,9.197143999999987,1803
51.700663999999904,9.197143999999987,1766
50.40466399999991,6.60514399999999,1786
51.05266399999991,7.90114399999999,1754
51.37666399999991,8.54914399999999,1755
52.0246639999999,5.957143999999991,1791
52.3486639999999,6.60514399999999,1796
51.05266399999991,8.54914399999999,1784
52.0246639999999,9.197143999999987,1784
52.6726639999999,9.197143999999987,1830
52.0246639999999,9.845143999999989,1808
51.700663999999904,9.845143999999989,1824
51.37666399999991,9.845143999999989,1851
50.72866399999991,8.54914399999999,1722
51.05266399999991,9.845143999999989,1792
50.72866399999991,9.845143999999989,1750
50.40466399999991,9.845143999999989,1735
51.05266399999991,9.197143999999987,1793
50.40466399999991,9.197143999999987,1713
50.08066399999991,9.197143999999987,1703
51.05266399999991,10.493143999999988,1888
50.40466399999991,8.54914399999999,1700
50.72866399999991,9.197143999999987,1759
49.75666399999992,9.197143999999987,1738
52.996663999999896,9.197143999999987,1854
52.3486639999999,9.845143999999989,1793
52.996663999999896,8.54914399999999,1826
52.996663999999896,7.90114399999999,1853
53.32066399999989,7.90114399999999,1870
53.32066399999989,7.25314399999999,1931
53.64466399999989,7.25314399999999,2458
52.996663999999896,10.493143999999988,1823
52.6726639999999,10.493143999999988,1817
52.6726639999999,9.845143999999989,1800
53.32066399999989,9.845143999999989,1883
53.32066399999989,9.197143999999987,1887
53.64466399999989,8.54914399999999,1873
53.32066399999989,8.54914399999999,1837
52.6726639999999,8.54914399999999,1803
52.0246639999999,10.493143999999988,1832
52.0246639999999,11.141143999999988,1849
51.700663999999904,11.141143999999988,1874
52.6726639999999,7.25314399999999,1872
52.996663999999896,7.25314399999999,1900
52.6726639999999,7.90114399999999,1807
53.64466399999989,7.90114399999999,1931
52.996663999999896,11.141143999999988,2231
52.6726639999999,11.141143999999988,1915
52.3486639999999,10.493143999999988,1807
52.996663999999896,9.845143999999989,1836
51.700663999999904,10.493143999999988,1836
51.37666399999991,10.493143999999988,1867
51.700663999999904,11.789143999999988,1830
52.3486639999999,11.141143999999988,1832
51.37666399999991,11.141143999999988,1855
51.05266399999991,11.789143999999988,1843
49.10866399999992,11.141143999999988,1735
48.78466399999992,11.141143999999988,1700
48.46066399999992,11.789143999999988,1692
49.43266399999992,11.789143999999988,1728
50.08066399999991,11.789143999999988,1751
49.75666399999992,12.437143999999988,1757
49.10866399999992,11.789143999999988,1750
48.78466399999992,12.437143999999988,1722
48.46066399999992,12.437143999999988,1709
49.10866399999992,12.437143999999988,1742
48.78466399999992,13.085143999999987,1740
48.136663999999925,12.437143999999988,1718
47.81266399999993,11.789143999999988,1696
48.136663999999925,10.493143999999988,1673
47.81266399999993,10.493143999999988,1628
48.78466399999992,10.493143999999988,1707
47.48866399999993,10.493143999999988,1623
48.46066399999992,10.493143999999988,1705
49.43266399999992,13.085143999999987,1796
48.46066399999992,13.085143999999987,1754
49.43266399999992,10.493143999999988,1721
49.75666399999992,9.845143999999989,1720
49.75666399999992,10.493143999999988,1747
50.40466399999991,11.141143999999988,1799
50.08066399999991,11.141143999999988,1778
50.72866399999991,11.141143999999988,1869
49.75666399999992,11.141143999999988,1730
48.78466399999992,11.789143999999988,1771
50.40466399999991,10.493143999999988,1783
50.08066399999991,9.845143999999989,1715
50.08066399999991,10.493143999999988,1792
49.43266399999992,12.437143999999988,1760
49.75666399999992,11.789143999999988,1732
49.10866399999992,13.085143999999987,1774
50.72866399999991,10.493143999999988,2160
49.10866399999992,10.493143999999988,1707
48.78466399999992,9.845143999999989,1674
48.46066399999992,8.54914399999999,1654
48.46066399999992,9.197143999999987,1669
48.78466399999992,9.197143999999987,1670
48.78466399999992,8.54914399999999,1659
50.08066399999991,7.25314399999999,1726
49.75666399999992,6.60514399999999,1791
49.43266399999992,6.60514399999999,1786
49.10866399999992,6.60514399999999,1724
49.43266399999992,7.25314399999999,1746
49.75666399999992,7.25314399999999,1735
49.10866399999992,5.957143999999991,1694
48.78466399999992,7.25314399999999,1671
50.08066399999991,6.60514399999999,1788
47.48866399999993,9.197143999999987,1588
48.136663999999925,8.54914399999999,1618
48.136663999999925,9.197143999999987,1649
47.81266399999993,7.25314399999999,1590
49.43266399999992,9.845143999999989,1724
49.10866399999992,9.845143999999989,1685
53.64466399999989,14.381143999999988,2253
50.08066399999991,13.085143999999987,2354
49.75666399999992,13.085143999999987,2315
45.86866399999994,9.197143999999987,1452
46.19266399999994,9.197143999999987,1477
46.516663999999935,8.54914399999999,1530
46.516663999999935,9.197143999999987,1517
46.19266399999994,8.54914399999999,1496
47.16466399999993,8.54914399999999,1571
45.86866399999994,4.661143999999991,1566
46.84066399999993,9.845143999999989,1593
45.22066399999994,5.957143999999991,1522
45.22066399999994,5.309143999999991,1537
45.86866399999994,5.957143999999991,1517
45.54466399999994,5.957143999999991,1512
44.89666399999994,4.661143999999991,1565
44.89666399999994,5.309143999999991,1557
44.572663999999946,4.661143999999991,1588
44.24866399999995,4.661143999999991,1604
43.92466399999995,4.661143999999991,1617
46.19266399999994,7.25314399999999,1582
48.78466399999992,5.957143999999991,1678
48.136663999999925,6.60514399999999,1650
48.46066399999992,6.60514399999999,1655
48.78466399999992,6.60514399999999,1686
47.16466399999993,7.90114399999999,1570
48.136663999999925,7.25314399999999,1623
48.46066399999992,7.25314399999999,1635
46.516663999999935,6.60514399999999,1589
46.84066399999993,6.60514399999999,1601
46.84066399999993,7.25314399999999,1584
46.516663999999935,5.957143999999991,1600
46.19266399999994,5.957143999999991,1564
46.84066399999993,8.54914399999999,1550
46.84066399999993,7.90114399999999,1561
45.86866399999994,5.309143999999991,1586
46.19266399999994,6.60514399999999,1579
45.86866399999994,6.60514399999999,1603
47.48866399999993,6.60514399999999,1616
47.48866399999993,7.25314399999999,1597
47.16466399999993,7.25314399999999,1584
49.10866399999992,4.013143999999992,1758
49.75666399999992,4.661143999999991,1843
49.43266399999992,4.661143999999991,1823
49.10866399999992,5.309143999999991,1752
46.19266399999994,4.661143999999991,1579
46.84066399999993,9.197143999999987,1584
46.19266399999994,5.309143999999991,1614
46.516663999999935,5.309143999999991,1657
45.54466399999994,6.60514399999999,1497
45.54466399999994,5.309143999999991,1532
43.60066399999995,4.013143999999992,1655
43.60066399999995,3.365143999999992,1684
42.62866399999996,2.717143999999992,1752
43.276663999999954,2.717143999999992,1716
45.54466399999994,4.661143999999991,1547
45.22066399999994,4.661143999999991,1556
47.16466399999993,5.309143999999991,1660
47.16466399999993,5.957143999999991,1642
46.19266399999994,7.90114399999999,1575
49.75666399999992,2.717143999999992,2261
49.10866399999992,2.717143999999992,1740
48.78466399999992,2.717143999999992,1727
45.86866399999994,3.365143999999992,1674
46.84066399999993,3.365143999999992,1713
46.516663999999935,3.365143999999992,1661
46.19266399999994,3.365143999999992,1649
47.16466399999993,6.60514399999999,1649
49.10866399999992,3.365143999999992,1761
45.54466399999994,4.013143999999992,1566
46.516663999999935,7.25314399999999,1588
47.16466399999993,4.661143999999991,1660
46.84066399999993,4.661143999999991,1655
46.516663999999935,4.661143999999991,1641
46.84066399999993,5.957143999999991,1630
47.81266399999993,3.365143999999992,1740
47.48866399999993,4.013143999999992,1690
48.136663999999925,4.013143999999992,1729
47.81266399999993,4.013143999999992,1701
47.48866399999993,4.661143999999991,1667
47.16466399999993,3.365143999999992,2217
46.84066399999993,4.013143999999992,1700
48.46066399999992,5.957143999999991,1691
46.19266399999994,2.717143999999992,1693
47.16466399999993,2.0691439999999925,2290
46.516663999999935,2.717143999999992,2266
46.84066399999993,2.717143999999992,2285
46.84066399999993,2.0691439999999925,2301
47.16466399999993,2.717143999999992,2232
44.572663999999946,5.309143999999991,1586
44.572663999999946,5.957143999999991,1584
44.89666399999994,6.60514399999999,1467
44.572663999999946,6.60514399999999,1549
43.60066399999995,5.309143999999991,1650
43.92466399999995,7.25314399999999,1565
43.60066399999995,6.60514399999999,1586
43.276663999999954,6.60514399999999,1604
43.276663999999954,5.957143999999991,1634
45.86866399999994,8.54914399999999,1440
45.54466399999994,8.54914399999999,1429
48.136663999999925,3.365143999999992,1766
48.46066399999992,3.365143999999992,1758
48.46066399999992,2.717143999999992,2233
47.48866399999993,5.309143999999991,1705
46.516663999999935,9.845143999999989,1604
46.84066399999993,10.493143999999988,2291
47.81266399999993,5.309143999999991,1733
45.22066399999994,6.60514399999999,1461
46.19266399999994,4.013143999999992,1587
45.86866399999994,4.013143999999992,1584
45.22066399999994,4.013143999999992,1598
44.89666399999994,4.013143999999992,1656
46.84066399999993,5.309143999999991,1654
48.136663999999925,-1.8188560000000056,1820
48.136663999999925,0.1251439999999934,1772
48.136663999999925,-0.5228560000000062,1841
47.48866399999993,-0.5228560000000062,1828
47.16466399999993,-1.8188560000000056,1867
47.48866399999993,0.7731439999999932,1771
47.16466399999993,0.1251439999999934,1805
45.86866399999994,7.25314399999999,1609
48.136663999999925,5.309143999999991,1777
49.10866399999992,4.661143999999991,1818
48.46066399999992,4.013143999999992,1747
48.136663999999925,4.661143999999991,1798
47.81266399999993,6.60514399999999,1693
47.48866399999993,5.957143999999991,1810
48.136663999999925,5.957143999999991,3070
45.86866399999994,7.90114399999999,1587
46.516663999999935,7.90114399999999,1577
49.43266399999992,3.365143999999992,1778
49.43266399999992,4.013143999999992,1810
48.136663999999925,2.717143999999992,2298
47.81266399999993,2.717143999999992,2274
47.48866399999993,2.717143999999992,2249
50.40466399999991,2.717143999999992,1842
48.46066399999992,-4.410856000000004,2405
48.46066399999992,-3.7628560000000046,2360
48.46066399999992,-3.114856000000005,2345
48.46066399999992,-2.4668560000000053,2316
47.48866399999993,1.4211439999999929,1829
47.16466399999993,1.4211439999999929,2303
46.516663999999935,4.013143999999992,1610
43.60066399999995,4.661143999999991,1659
44.89666399999994,2.717143999999992,1820
45.22066399999994,2.717143999999992,1779
45.54466399999994,3.365143999999992,1687
45.22066399999994,3.365143999999992,1708
47.48866399999993,3.365143999999992,2293
46.19266399999994,9.845143999999989,1534
47.81266399999993,2.0691439999999925,1819
47.48866399999993,2.0691439999999925,2304
45.86866399999994,2.717143999999992,2303
44.89666399999994,5.957143999999991,1537
45.22066399999994,1.4211439999999929,2345
44.89666399999994,1.4211439999999929,2317
44.89666399999994,2.0691439999999925,2255
43.276663999999954,2.0691439999999925,1777
43.60066399999995,1.4211439999999929,1824
48.78466399999992,4.661143999999991,2313
48.78466399999992,5.309143999999991,1698
46.19266399999994,2.0691439999999925,2309
45.86866399999994,1.4211439999999929,2355
46.19266399999994,1.4211439999999929,2363
44.572663999999946,4.013143999999992,2493
44.89666399999994,3.365143999999992,1701
43.92466399999995,4.013143999999992,1658
44.24866399999995,4.013143999999992,1682
44.89666399999994,-0.5228560000000062,1866
45.54466399999994,0.1251439999999934,1826
46.516663999999935,0.1251439999999934,1853
44.572663999999946,2.0691439999999925,2363
49.75666399999992,4.013143999999992,1853
43.92466399999995,3.365143999999992,2376
43.92466399999995,2.717143999999992,2407
44.24866399999995,3.365143999999992,2432
44.572663999999946,3.365143999999992,2477
49.10866399999992,0.1251439999999934,1845
49.43266399999992,0.7731439999999932,1797
49.43266399999992,-1.8188560000000056,1924
49.10866399999992,-1.170856000000006,1900
49.10866399999992,-0.5228560000000062,1868
49.10866399999992,0.7731439999999932,1831
49.10866399999992,1.4211439999999929,1804
47.81266399999993,-1.8188560000000056,2319
47.81266399999993,-2.4668560000000053,2335
47.81266399999993,-3.114856000000005,2360
48.136663999999925,-3.7628560000000046,2379
44.572663999999946,9.197143999999987,1496
44.89666399999994,8.54914399999999,1438
45.22066399999994,9.197143999999987,1391
45.54466399999994,10.493143999999988,1366
44.572663999999946,10.493143999999988,1563
44.89666399999994,10.493143999999988,1415
44.89666399999994,9.845143999999989,1525
48.46066399999992,5.309143999999991,2316
50.91599999999999,-1.0580000000000025,65535
51.23999999999999,-0.4100000000000028,65535
50.91599999999999,-0.4100000000000028,65535
51.23999999999999,-2.354000000000002,65535
51.56399999999999,-2.354000000000002,65535
51.56399999999999,-3.0020000000000016,65535
50.91599999999999,-2.354000000000002,65535
53.50799999999997,-3.0020000000000016,65535
53.183999999999976,-2.354000000000002,65535
53.183999999999976,-3.0020000000000016,65535
52.85999999999998,-2.354000000000002,65535
52.21199999999998,-1.0580000000000025,65535
51.887999999999984,-1.0580000000000025,65535
52.53599999999998,-1.0580000000000025,65535
52.53599999999998,-1.7060000000000022,65535
52.85999999999998,-1.7060000000000022,65535
53.50799999999997,-2.354000000000002,65535
52.85999999999998,-1.0580000000000025,65535
52.53599999999998,1.5339999999999965,65535
52.53599999999998,0.8859999999999966,65535
52.53599999999998,0.2379999999999968,65535
52.53599999999998,-0.4100000000000028,65535
53.50799999999997,-1.7060000000000022,65535
53.183999999999976,-1.7060000000000022,65535
53.183999999999976,-1.0580000000000025,65535
52.85999999999998,-0.4100000000000028,65535
51.887999999999984,-2.354000000000002,65535
52.21199999999998,-2.354000000000002,65535
55.77599999999996,-2.354000000000002,65535
53.83199999999997,-1.0580000000000025,65535
53.83199999999997,-1.7060000000000022,65535
55.127999999999965,-1.7060000000000022,65535
54.80399999999997,-1.7060000000000022,65535
54.47999999999997,-1.7060000000000022,65535
54.15599999999997,-1.0580000000000025,65535
52.21199999999998,-1.7060000000000022,65535
53.50799999999997,-1.0580000000000025,65535
55.77599999999996,-3.0020000000000016,65535
55.45199999999996,-1.7060000000000022,65535
57.07199999999995,-2.354000000000002,65535
56.74799999999996,-3.0020000000000016,65535
56.42399999999996,-3.0020000000000016,65535
56.09999999999996,-3.650000000000001,65535
50.91599999999999,-3.0020000000000016,65535
50.91599999999999,-3.650000000000001,65535
50.59199999999999,-3.650000000000001,65535
50.59199999999999,-4.298000000000001,65535
51.23999999999999,-3.0020000000000016,65535
50.268,-4.946000000000001,65535
55.77599999999996,-3.650000000000001,65535
55.77599999999996,-4.298000000000001,65535
52.21199999999998,-0.4100000000000028,65535
52.53599999999998,-2.354000000000002,65535
51.56399999999999,-1.7060000000000022,65535
51.56399999999999,-3.650000000000001,65535
51.887999999999984,-4.298000000000001,65535
51.56399999999999,-4.298000000000001,65535
51.887999999999984,-1.7060000000000022,65535
52.21199999999998,-3.0020000000000016,65535
51.23999999999999,0.2379999999999968,65535
50.91599999999999,0.2379999999999968,65535
52.21199999999998,0.2379999999999968,65535
53.83199999999997,-3.0020000000000016,65535
54.15599999999997,-3.0020000000000016,65535
54.47999999999997,-3.0020000000000016,65535
55.127999999999965,-3.650000000000001,65535
54.80399999999997,-3.0020000000000016,65535
53.83199999999997,-2.354000000000002,65535
54.15599999999997,-0.4100000000000028,65535
54.47999999999997,-1.0580000000000025,65535
53.83199999999997,-0.4100000000000028,65535
53.183999999999976,-3.650000000000001,65535
53.183999999999976,-4.298000000000001,65535
52.85999999999998,-3.0020000000000016,65535
52.53599999999998,-3.0020000000000016,65535
51.887999999999984,-3.0020000000000016,65535
51.23999999999999,0.8859999999999966,65535
51.887999999999984,0.2379999999999968,65535
52.21199999999998,0.8859999999999966,65535
51.887999999999984,-4.946000000000001,65535
52.53599999999998,-3.650000000000001,65535
52.21199999999998,-4.298000000000001,65535
53.183999999999976,-0.4100000000000028,65535
51.23999999999999,-3.650000000000001,65535
51.887999999999984,-3.650000000000001,65535
52.21199999999998,-3.650000000000001,65535
51.56399999999999,0.8859999999999966,65535
51.887999999999984,0.8859999999999966,65535
52.85999999999998,0.8859999999999966,65535
53.50799999999997,-0.4100000000000028,65535
56.09999999999996,-4.298000000000001,65535
56.74799999999996,-4.946000000000001,65535
56.74799999999996,-4.298000000000001,65535
56.42399999999996,-4.946000000000001,65535
56.42399999999996,-4.298000000000001,65535
56.09999999999996,-4.946000000000001,65535
57.39599999999995,-4.298000000000001,65535
57.39599999999995,-3.0020000000000016,65535
57.39599999999995,-3.650000000000001,65535
56.42399999999996,-3.650000000000001,65535
57.07199999999995,-3.650000000000001,65535
57.07199999999995,-4.298000000000001,65535
56.74799999999996,-3.650000000000001,65535
59.15266399999986,27.34114399999998,65535
59.47666399999986,26.69314399999997,65535
59.47666399999986,26.04514399999998,65535
59.15266399999986,26.04514399999998,65535
59.15266399999986,24.74914399999998,65535
59.15266399999986,25.397143999999983,65535
59.47666399999986,25.397143999999983,65535
58.50466399999986,26.69314399999997,65535
58.82866399999986,26.69314399999997,65535
57.85666399999987,26.04514399999998,65535
58.180663999999865,26.04514399999998,65535
58.180663999999865,26.69314399999997,65535
58.82866399999986,26.04514399999998,65535
58.50466399999986,25.397143999999983,65535
58.82866399999986,25.397143999999983,65535
58.82866399999986,24.74914399999998,65535
58.180663999999865,27.34114399999998,65535
57.85666399999987,27.34114399999998,65535
63.68866399999983,27.34114399999998,7077
60.124663999999854,24.74914399999998,6613
60.44866399999985,24.74914399999998,6582
60.44866399999985,25.397143999999983,6594
60.77266399999985,25.397143999999983,6800
61.09666399999985,26.04514399999998,6842
60.77266399999985,26.04514399999998,6849
60.77266399999985,26.69314399999997,6868
61.09666399999985,25.397143999999983,6833
61.09666399999985,26.69314399999997,7198
61.420663999999846,26.69314399999997,7220
61.74466399999984,27.34114399999998,7244
62.06866399999984,27.34114399999998,7269
62.39266399999984,27.34114399999998,7293
62.71666399999984,27.34114399999998,7257
64.01266399999983,27.34114399999998,7425
63.36466399999984,27.34114399999998,7145
63.04066399999984,27.34114399999998,7185
63.04066399999984,27.989143999999985,7200
64.33666399999983,27.989143999999985,7472
64.33666399999983,27.34114399999998,7548
64.66066399999983,27.34114399999998,7564
64.66066399999983,26.69314399999997,7575
64.98466399999982,25.397143999999983,5959
64.66066399999983,26.04514399999998,7605
64.98466399999982,26.04514399999998,7627
66.28066399999982,25.397143999999983,6036
65.95666399999982,24.74914399999998,5872
65.63266399999982,24.74914399999998,5876
65.63266399999982,25.397143999999983,5918
65.30866399999982,25.397143999999983,5939
66.60466399999981,25.397143999999983,6096
64.01266399999983,24.74914399999998,6096
64.01266399999983,24.101143999999977,6131
64.01266399999983,23.45314399999998,6155
63.68866399999983,23.45314399999998,6167
63.68866399999983,22.805143999999984,6192
63.68866399999983,26.04514399999998,6784
63.68866399999983,25.397143999999983,6750
63.68866399999983,26.69314399999997,7044
60.44866399999985,26.69314399999997,7036
64.01266399999983,27.989143999999985,7463
62.71666399999984,22.805143999999984,6314
62.39266399999984,22.805143999999984,6346
62.06866399999984,22.805143999999984,6375
62.06866399999984,23.45314399999998,6391
61.74466399999984,23.45314399999998,6403
61.420663999999846,23.45314399999998,6451
61.09666399999985,23.45314399999998,6492
61.09666399999985,24.101143999999977,6499
61.09666399999985,24.74914399999998,6533
60.77266399999985,24.74914399999998,6549
63.04066399999984,21.50914399999997,65535
63.04066399999984,22.15714399999998,65535
63.04066399999984,22.805143999999984,6278
62.39266399999984,26.04514399999998,7441
62.06866399999984,25.397143999999983,7490
61.74466399999984,25.397143999999983,7558
61.74466399999984,24.74914399999998,7595
61.74466399999984,24.101143999999977,7630
61.420663999999846,24.101143999999977,6974
62.39266399999984,26.69314399999997,7412
64.66066399999983,25.397143999999983,6028
64.66066399999983,24.74914399999998,6046
64.33666399999983,24.74914399999998,6057
63.36466399999984,22.805143999999984,6217
67.25266399999981,24.101143999999977,8186
66.92866399999981,24.101143999999977,8150
66.60466399999981,23.45314399999998,8119
66.28066399999982,23.45314399999998,8101
66.28066399999982,24.101143999999977,8083
65.95666399999982,24.101143999999977,5563
60.124663999999854,24.101143999999977,6806
60.124663999999854,23.45314399999998,6843
60.44866399999985,22.805143999999984,65535
60.77266399999985,27.34114399999998,6926
61.09666399999985,27.989143999999985,6958
61.09666399999985,28.63714399999997,7004
61.420663999999846,29.28514399999997,8691
61.74466399999984,29.933143999999977,8749
62.06866399999984,29.933143999999977,8855
62.39266399999984,29.933143999999977,8893
62.71666399999984,29.933143999999977,8926
61.420663999999846,22.805143999999984,6487
61.420663999999846,22.15714399999998,6566
61.09666399999985,22.15714399999998,6554
61.420663999999846,21.50914399999997,6699
62.39266399999984,27.989143999999985,65535
62.06866399999984,27.989143999999985,65535
61.420663999999846,27.34114399999998,65535
63.04066399999984,29.933143999999977,65535
63.68866399999983,29.28514399999997,65535
63.36466399999984,29.28514399999997,65535
63.36466399999984,29.933143999999977,65535
60.44866399999985,27.34114399999998,65535
61.74466399999984,29.28514399999997,65535
62.39266399999984,30.58114399999998,65535
62.71666399999984,31.229143999999977,65535
62.71666399999984,29.28514399999997,65535
63.04066399999984,28.63714399999997,65535
66.60466399999981,26.04514399999998,6106
66.60466399999981,26.69314399999997,6142
66.60466399999981,27.34114399999998,6165
62.71666399999984,26.04514399999998,7326
62.71666399999984,25.397143999999983,7295
63.04066399999984,25.397143999999983,7115
63.36466399999984,25.397143999999983,7078
62.71666399999984,23.45314399999998,7320
62.39266399999984,24.101143999999977,65535
62.71666399999984,22.15714399999998,65535
62.39266399999984,22.15714399999998,65535
62.39266399999984,21.50914399999997,65535
61.09666399999985,21.50914399999997,8377
60.77266399999985,22.805143999999984,7803
60.44866399999985,22.15714399999998,7851
60.77266399999985,23.45314399999998,7785
60.77266399999985,21.50914399999997,7953
60.77266399999985,22.15714399999998,7906
60.124663999999854,22.805143999999984,8119
60.44866399999985,24.101143999999977,6792
62.06866399999984,24.74914399999998,65535
50.72866399999991,16.325143999999987,2225
50.40466399999991,16.973143999999984,2281
50.72866399999991,16.973143999999984,2252
50.40466399999991,16.325143999999987,2288
50.08066399999991,16.973143999999984,2358
50.08066399999991,16.325143999999987,2313
51.700663999999904,16.973143999999984,2292
51.37666399999991,16.973143999999984,2242
51.05266399999991,15.677143999999986,2244
50.72866399999991,15.677143999999986,2263
51.05266399999991,17.621143999999987,2259
51.37666399999991,17.621143999999987,2258
51.700663999999904,17.621143999999987,2275
51.700663999999904,16.325143999999987,2307
52.0246639999999,22.15714399999998,2518
52.0246639999999,21.50914399999997,2514
52.3486639999999,21.50914399999997,2514
52.0246639999999,20.86114399999998,2494
51.700663999999904,20.86114399999998,2552
51.37666399999991,21.50914399999997,2591
51.37666399999991,20.86114399999998,2586
51.05266399999991,20.86114399999998,2511
52.6726639999999,23.45314399999998,2707
52.3486639999999,22.805143999999984,2649
52.3486639999999,20.213143999999986,2532
52.0246639999999,20.213143999999986,2485
52.3486639999999,19.565143999999982,2527
52.6726639999999,19.565143999999982,2619
51.700663999999904,21.50914399999997,2587
51.700663999999904,22.15714399999998,2622
52.6726639999999,21.50914399999997,2531
52.996663999999896,21.50914399999997,2580
52.6726639999999,20.86114399999998,2546
52.6726639999999,22.15714399999998,2569
52.6726639999999,20.213143999999986,2619
52.996663999999896,19.565143999999982,2670
52.996663999999896,20.86114399999998,2580
52.996663999999896,20.213143999999986,2606
53.32066399999989,20.213143999999986,2722
51.37666399999991,20.213143999999986,2443
52.3486639999999,16.973143999999984,2316
52.0246639999999,16.973143999999984,2321
52.0246639999999,16.325143999999987,2334
52.0246639999999,17.621143999999987,2305
52.6726639999999,16.973143999999984,2326
52.996663999999896,16.973143999999984,2382
52.3486639999999,16.325143999999987,2331
52.3486639999999,15.677143999999986,2346
51.700663999999904,18.269143999999983,2298
52.6726639999999,17.621143999999987,2372
52.3486639999999,17.621143999999987,2332
52.6726639999999,18.269143999999983,2475
52.3486639999999,18.269143999999983,2341
52.3486639999999,18.917143999999983,2487
52.996663999999896,17.621143999999987,2421
51.700663999999904,19.565143999999982,2380
51.700663999999904,18.917143999999983,2346
51.37666399999991,18.269143999999983,2327
58.82866399999986,9.197143999999987,4328
58.180663999999865,7.90114399999999,4420
58.50466399999986,8.54914399999999,4374
63.36466399999984,10.493143999999988,4572
63.36466399999984,11.141143999999988,4562
63.36466399999984,11.789143999999988,4465
63.68866399999983,11.789143999999988,4613
64.33666399999983,12.437143999999988,4894
64.66066399999983,12.437143999999988,5448
65.63266399999982,13.085143999999987,5046
65.95666399999982,13.085143999999987,5081
66.28066399999982,14.381143999999988,5151
65.95666399999982,13.733143999999989,5270
66.28066399999982,13.733143999999989,5129
65.30866399999982,13.085143999999987,5380
64.98466399999982,13.085143999999987,4981
64.01266399999983,11.789143999999988,4644
63.68866399999983,11.141143999999988,4581
59.800663999999855,10.493143999999988,4112
59.800663999999855,11.141143999999988,4102
60.124663999999854,11.141143999999988,4085
60.44866399999985,11.141143999999988,4105
60.124663999999854,11.789143999999988,4069
60.77266399999985,7.25314399999999,4637
60.77266399999985,6.60514399999999,4686
59.15266399999986,9.197143999999987,4296
59.47666399999986,9.197143999999987,4272
59.800663999999855,9.845143999999989,4126
59.47666399999986,11.141143999999988,4122
61.09666399999985,10.493143999999988,4242
60.77266399999985,10.493143999999988,4220
60.77266399999985,11.141143999999988,4169
62.06866399999984,9.197143999999987,4450
61.74466399999984,9.845143999999989,4396
61.420663999999846,9.845143999999989,4373
59.15266399999986,9.845143999999989,4190
59.47666399999986,9.845143999999989,4166
58.82866399999986,5.957143999999991,4610
58.180663999999865,7.25314399999999,4466
58.50466399999986,7.25314399999999,4502
58.50466399999986,6.60514399999999,4508
58.50466399999986,5.957143999999991,4563
58.82866399999986,8.54914399999999,4360
60.44866399999985,7.25314399999999,4611
60.44866399999985,7.90114399999999,4568
60.124663999999854,10.493143999999988,4104
60.44866399999985,9.197143999999987,4481
60.77266399999985,9.197143999999987,4522
60.77266399999985,8.54914399999999,4548
60.124663999999854,9.845143999999989,4415
60.44866399999985,10.493143999999988,4134
63.04066399999984,10.493143999999988,4566
62.06866399999984,9.845143999999989,4475
62.39266399999984,9.845143999999989,4483
62.71666399999984,9.845143999999989,4507
59.47666399999986,14.381143999999988,3957
59.47666399999986,13.733143999999989,3981
59.47666399999986,13.085143999999987,4037
59.800663999999855,12.437143999999988,4022
59.15266399999986,11.141143999999988,4149
59.15266399999986,14.381143999999988,3941
58.82866399999986,11.789143999999988,4137
58.50466399999986,12.437143999999988,3945
58.180663999999865,12.437143999999988,3938
57.85666399999987,11.789143999999988,3910
62.71666399999984,7.90114399999999,4536
62.39266399999984,7.90114399999999,4493
62.06866399999984,8.54914399999999,4468
60.44866399999985,5.309143999999991,4845
60.44866399999985,5.957143999999991,5212
60.77266399999985,5.957143999999991,5183
62.39266399999984,11.141143999999988,4511
62.06866399999984,10.493143999999988,4468
61.74466399999984,11.141143999999988,4441
61.420663999999846,11.141143999999988,4394
61.09666399999985,11.141143999999988,4376
60.77266399999985,11.789143999999988,4353
63.04066399999984,11.141143999999988,4595
62.71666399999984,11.141143999999988,4535
62.39266399999984,10.493143999999988,4495
67.25266399999981,15.677143999999986,5270
67.25266399999981,15.029143999999986,5308
67.25266399999981,14.381143999999988,5336
66.92866399999981,15.029143999999986,5259
66.60466399999981,15.677143999999986,5237
64.01266399999983,11.141143999999988,4628
66.60466399999981,15.029143999999986,5700
54.29266399999989,18.269143999999983,2630
54.616663999999886,17.621143999999987,2588
53.96866399999989,18.269143999999983,2603
43.92466399999995,1.4211439999999929,2281
44.24866399999995,0.7731439999999932,2340
44.572663999999946,0.1251439999999934,2369
46.84066399999993,1.4211439999999929,2364
44.572663999999946,1.4211439999999929,2350
44.24866399999995,1.4211439999999929,2334
45.54466399999994,1.4211439999999929,2366
46.516663999999935,1.4211439999999929,2381
42.30466399999996,2.717143999999992,1767
44.24866399999995,2.717143999999992,2399
44.572663999999946,2.717143999999992,2389
43.92466399999995,2.0691439999999925,2319
42.30466399999996,2.0691439999999925,2472
42.62866399999996,2.0691439999999925,2379
42.62866399999996,1.4211439999999929,2372
42.95266399999996,1.4211439999999929,2365
43.276663999999954,1.4211439999999929,2310
46.516663999999935,-1.170856000000006,2321
46.19266399999994,-1.170856000000006,2363
45.86866399999994,-0.5228560000000062,2355
45.54466399999994,-0.5228560000000062,2336
48.46066399999992,1.4211439999999929,1735
41.332663999999966,2.0691439999999925,2674
41.98066399999996,2.717143999999992,2633
48.46066399999992,-1.8188560000000056,2334
47.81266399999993,0.7731439999999932,1783
46.84066399999993,0.7731439999999932,1834
44.572663999999946,-1.170856000000006,2253
43.60066399999995,-1.170856000000006,2311
43.276663999999954,-1.8188560000000056,2346
43.276663999999954,0.1251439999999934,2380
42.95266399999996,0.1251439999999934,2384
43.276663999999954,-0.5228560000000062,2348
43.60066399999995,-0.5228560000000062,2336
47.81266399999993,-3.7628560000000046,2395
47.48866399999993,-2.4668560000000053,2354
47.81266399999993,-0.5228560000000062,2285
46.516663999999935,-1.8188560000000056,2346
48.136663999999925,-1.170856000000006,2273
47.48866399999993,-1.170856000000006,2281
45.22066399999994,8.54914399999999,1414
45.22066399999994,7.90114399999999,1422
46.19266399999994,-0.5228560000000062,2331
46.516663999999935,-0.5228560000000062,2313
48.78466399999992,-3.114856000000005,2418
50.72866399999991,2.0691439999999925,1813
50.40466399999991,2.0691439999999925,2228
40.36066399999997,-3.7628560000000046,2865
41.65666399999997,-1.170856000000006,2782
41.332663999999966,1.4211439999999929,2720
43.276663999999954,13.733143999999989,3910
42.95266399999996,13.733143999999989,3932
41.65666399999997,15.029143999999986,4016
40.68466399999997,17.621143999999987,4178
43.60066399999995,13.085143999999987,3903
41.65666399999997,12.437143999999988,2569
41.65666399999997,13.085143999999987,2588
41.98066399999996,13.085143999999987,2638
41.65666399999997,13.733143999999989,2640
41.332663999999966,13.733143999999989,2632
41.332663999999966,14.381143999999988,2789
41.00866399999997,14.381143999999988,2695
41.332663999999966,13.085143999999987,2614
41.00866399999997,15.029143999999986,2895
41.98066399999996,13.733143999999989,2837
42.30466399999996,14.381143999999988,2976
42.30466399999996,12.437143999999988,2577
42.62866399999996,12.437143999999988,2756
42.95266399999996,12.437143999999988,3041
42.30466399999996,11.789143999999988,2586
42.95266399999996,11.789143999999988,2796
42.62866399999996,11.789143999999988,2787
43.276663999999954,11.789143999999988,2850
42.95266399999996,13.085143999999987,3804
42.30466399999996,13.085143999999987,2863
43.276663999999954,13.085143999999987,3852
43.276663999999954,12.437143999999988,3859
42.62866399999996,11.141143999999988,2632
42.95266399999996,11.141143999999988,2675
42.95266399999996,10.493143999999988,2693
44.572663999999946,8.54914399999999,1449
44.89666399999994,7.90114399999999,1439
44.89666399999994,9.197143999999987,1452
44.24866399999995,7.90114399999999,1479
44.572663999999946,7.90114399999999,1460
43.92466399999995,7.90114399999999,1538
44.24866399999995,7.25314399999999,1476
44.89666399999994,7.25314399999999,1458
45.22066399999994,7.25314399999999,1438
45.54466399999994,7.90114399999999,1440
44.572663999999946,7.25314399999999,1522
52.996663999999896,22.805143999999984,2808
52.996663999999896,23.45314399999998,2831
51.37666399999991,22.15714399999998,2653
51.37666399999991,22.805143999999984,2707
50.08066399999991,20.213143999999986,2412
50.72866399999991,20.213143999999986,2452
50.40466399999991,20.213143999999986,2410
50.08066399999991,20.86114399999998,2432
50.08066399999991,21.50914399999997,2451
50.08066399999991,22.15714399999998,2475
50.08066399999991,22.805143999999984,2550
53.96866399999989,22.805143999999984,3267
53.64466399999989,23.45314399999998,2938
53.32066399999989,23.45314399999998,2884
50.40466399999991,19.565143999999982,2395
50.08066399999991,18.917143999999983,2400
50.08066399999991,18.269143999999983,2349
52.0246639999999,22.805143999999984,2704
52.0246639999999,23.45314399999998,2740
51.37666399999991,19.565143999999982,2433
51.05266399999991,19.565143999999982,2460
50.72866399999991,18.917143999999983,2433
50.72866399999991,19.565143999999982,2477
49.75666399999992,18.917143999999983,2542
50.40466399999991,18.269143999999983,2313
53.64466399999989,19.565143999999982,2676
53.96866399999989,18.917143999999983,2644
53.64466399999989,18.917143999999983,2661
53.64466399999989,20.213143999999986,2715
52.996663999999896,18.917143999999983,2536
52.996663999999896,18.269143999999983,2461
53.32066399999989,18.917143999999983,2635
50.72866399999991,17.621143999999987,2266
50.72866399999991,18.269143999999983,2300
52.6726639999999,16.325143999999987,2335
52.996663999999896,16.325143999999987,2362
52.996663999999896,15.677143999999986,2348
53.32066399999989,15.677143999999986,2344
53.32066399999989,15.029143999999986,2265
53.64466399999989,15.029143999999986,2271
53.96866399999989,15.029143999999986,2299
52.6726639999999,18.917143999999983,2572
53.32066399999989,16.325143999999987,2514
52.6726639999999,15.029143999999986,2329
51.05266399999991,22.805143999999984,2741
51.05266399999991,23.45314399999998,2769
50.72866399999991,22.15714399999998,2726
50.40466399999991,22.15714399999998,2765
51.05266399999991,22.15714399999998,2704
54.616663999999886,16.973143999999984,2548
54.29266399999989,16.325143999999987,2498
53.96866399999989,15.677143999999986,2404
50.72866399999991,21.50914399999997,2736
50.40466399999991,21.50914399999997,2505
50.40466399999991,17.621143999999987,2295
53.32066399999989,22.805143999999984,3023
53.64466399999989,22.15714399999998,2885
54.29266399999989,16.973143999999984,2524
50.72866399999991,20.86114399999998,2490
51.700663999999904,22.805143999999984,2791
51.05266399999991,21.50914399999997,2688
50.08066399999991,19.565143999999982,2414
52.0246639999999,18.917143999999983,8008
52.0246639999999,19.565143999999982,8001
53.64466399999989,18.269143999999983,2597
51.700663999999904,20.213143999999986,2421
53.32066399999989,19.565143999999982,2667
50.72866399999991,23.45314399999998,2851
50.72866399999991,22.805143999999984,2820
49.43266399999992,20.213143999999986,2725
49.75666399999992,21.50914399999997,2539
49.75666399999992,22.15714399999998,2791
49.43266399999992,22.15714399999998,2804
51.05266399999991,18.917143999999983,2436
51.05266399999991,18.269143999999983,2347
53.32066399999989,16.973143999999984,2488
53.64466399999989,16.973143999999984,2482
49.75666399999992,20.86114399999998,2484
50.40466399999991,22.805143999999984,8090
53.64466399999989,16.325143999999987,2468
53.96866399999989,20.86114399999998,2742
54.29266399999989,20.86114399999998,2788
53.96866399999989,21.50914399999997,2808
53.64466399999989,15.677143999999986,2420
53.96866399999989,20.213143999999986,2701
53.96866399999989,19.565143999999982,2690
54.29266399999989,19.565143999999982,2704
53.96866399999989,16.325143999999987,2439
53.64466399999989,17.621143999999987,2538
53.96866399999989,22.15714399999998,2875
53.64466399999989,21.50914399999997,2840
53.64466399999989,20.86114399999998,2794
52.6726639999999,15.677143999999986,2376
51.05266399999991,20.213143999999986,2497
54.940663999999884,24.101143999999977,4641
54.616663999999886,23.45314399999998,4585
54.29266399999989,23.45314399999998,4448
53.64466399999989,22.805143999999984,3025
53.96866399999989,16.973143999999984,2545
50.40466399999991,20.86114399999998,2743
53.32066399999989,18.269143999999983,2616
49.75666399999992,19.565143999999982,2573
50.40466399999991,23.45314399999998,2956
49.75666399999992,20.213143999999986,2797
49.43266399999992,19.565143999999982,2685
49.43266399999992,20.86114399999998,2501
53.96866399999989,17.621143999999987,2748
42.30466399999996,-1.8188560000000056,8319
41.98066399999996,-1.8188560000000056,8302
41.65666399999997,0.7731439999999932,8306
42.62866399999996,-1.8188560000000056,8434
42.95266399999996,-1.8188560000000056,8463
42.62866399999996,-3.114856000000005,8557
42.95266399999996,-2.4668560000000053,8535
42.62866399999996,-7.650856000000003,8899
42.30466399999996,-7.650856000000003,8959
42.30466399999996,-8.946856000000002,9095
42.30466399999996,-8.298856000000002,9069
41.98066399999996,-8.298856000000002,9058
42.30466399999996,-7.002856000000003,8841
42.62866399999996,-6.354856000000003,8783
42.30466399999996,-6.354856000000003,8738
42.62866399999996,-5.706856000000004,8238
41.98066399999996,-4.410856000000004,8192
42.30466399999996,-3.7628560000000046,8583
40.03666399999997,-0.5228560000000062,8286
39.38866399999998,-0.5228560000000062,8334
41.00866399999997,0.7731439999999932,8434
40.68466399999997,0.7731439999999932,8466
40.36066399999997,0.1251439999999934,8544
39.712663999999975,-0.5228560000000062,8443
38.41666399999998,-0.5228560000000062,8455
39.06466399999998,-0.5228560000000062,8577
38.74066399999998,-1.170856000000006,8463
41.332663999999966,0.7731439999999932,8494
41.65666399999997,2.717143999999992,8094
41.65666399999997,2.0691439999999925,8117
41.332663999999966,0.1251439999999934,8452
41.332663999999966,-0.5228560000000062,8396
41.65666399999997,-4.410856000000004,8166
40.03666399999997,-2.4668560000000053,8404
41.00866399999997,-4.410856000000004,8287
43.276663999999954,-5.706856000000004,8368
39.38866399999998,-1.170856000000006,8429
38.09266399999999,-1.170856000000006,8842
38.74066399999998,-0.5228560000000062,8605
37.76866399999999,-1.170856000000006,8907
39.06466399999998,-1.8188560000000056,8427
39.38866399999998,-3.114856000000005,8327
39.38866399999998,-2.4668560000000053,8383
39.06466399999998,-2.4668560000000053,8410
39.06466399999998,-3.114856000000005,8331
39.06466399999998,-3.7628560000000046,8305
38.74066399999998,-3.7628560000000046,8384
40.03666399999997,-3.7628560000000046,8283
40.03666399999997,-3.114856000000005,8483
40.03666399999997,-1.8188560000000056,8564
39.712663999999975,-1.8188560000000056,8529
39.712663999999975,-1.170856000000006,8465
40.36066399999997,-1.170856000000006,8484
40.68466399999997,-1.170856000000006,8462
41.00866399999997,-1.170856000000006,8450
41.332663999999966,-1.170856000000006,8290
43.276663999999954,-8.298856000000002,9059
42.95266399999996,-8.298856000000002,9027
41.65666399999997,-5.706856000000004,65535
41.98066399999996,-7.002856000000003,65535
41.98066399999996,-6.354856000000003,65535
41.332663999999966,-5.058856000000004,8405
43.276663999999954,-3.7628560000000046,8840
42.95266399999996,-4.410856000000004,8774
42.62866399999996,-4.410856000000004,8764
42.30466399999996,-4.410856000000004,8723
41.00866399999997,-5.706856000000004,8343
41.332663999999966,-1.8188560000000056,8236
40.68466399999997,-3.114856000000005,8190
41.00866399999997,-3.114856000000005,8241
41.00866399999997,-2.4668560000000053,8264
41.332663999999966,-2.4668560000000053,8317
40.68466399999997,-4.410856000000004,8227
40.36066399999997,-4.410856000000004,8311
40.68466399999997,-3.7628560000000046,8219
40.36066399999997,-3.114856000000005,8197
41.65666399999997,-2.4668560000000053,8334
38.09266399999999,-3.7628560000000046,8431
38.74066399999998,-3.114856000000005,8375
37.76866399999999,-3.7628560000000046,8488
39.712663999999975,-3.114856000000005,8319
38.41666399999998,-3.7628560000000046,8396
40.03666399999997,-4.410856000000004,65535
40.03666399999997,-5.058856000000004,65535
39.38866399999998,-6.354856000000003,65535
39.38866399999998,-7.002856000000003,65535
42.95266399999996,-3.114856000000005,8968
41.98066399999996,-1.170856000000006,8331
42.30466399999996,-2.4668560000000053,8372
41.65666399999997,-0.5228560000000062,8429
41.98066399999996,-0.5228560000000062,8266
41.65666399999997,0.1251439999999934,8293
41.98066399999996,0.1251439999999934,8315
37.76866399999999,-5.058856000000004,8367
36.79666399999999,-4.410856000000004,8426
38.74066399999998,-4.410856000000004,8323
37.12066399999999,-4.410856000000004,8400
37.44466399999999,-5.058856000000004,8924
37.44466399999999,-7.002856000000003,65535
37.44466399999999,-6.354856000000003,65535
37.44466399999999,-5.706856000000004,8600
39.712663999999975,-3.7628560000000046,8393
42.62866399999996,-8.946856000000002,65535
42.30466399999996,-5.706856000000004,8745
42.30466399999996,-5.058856000000004,8830
42.95266399999996,-5.706856000000004,8270
41.00866399999997,-5.058856000000004,8311
40.68466399999997,-5.058856000000004,8285
41.65666399999997,-5.058856000000004,65535
41.65666399999997,-6.354856000000003,65535
36.79666399999999,-6.354856000000003,65535
37.12066399999999,-5.706856000000004,8768
37.76866399999999,-5.706856000000004,8567
38.09266399999999,-4.410856000000004,8702
37.12066399999999,-5.058856000000004,8722
36.79666399999999,-5.058856000000004,8680
37.76866399999999,-4.410856000000004,65535
37.76866399999999,-7.002856000000003,65535
38.41666399999998,-6.354856000000003,65535
38.09266399999999,-6.354856000000003,65535
48.78466399999992,1.4211439999999929,2246
56.23666399999988,8.54914399999999,6610
55.58866399999988,9.197143999999987,6415
55.91266399999988,9.197143999999987,6556
55.26466399999988,10.493143999999988,3474
55.91266399999988,12.437143999999988,3609
55.58866399999988,11.789143999999988,6255
55.58866399999988,11.141143999999988,6296
55.26466399999988,11.789143999999988,6288
55.58866399999988,10.493143999999988,6411
55.58866399999988,13.085143999999987,3566
56.88466399999987,9.845143999999989,6562
57.20866399999987,9.845143999999989,6597
56.56066399999988,9.845143999999989,6534
56.88466399999987,8.54914399999999,6649
54.940663999999884,9.845143999999989,7756
54.940663999999884,11.789143999999988,6512
55.91266399999988,13.085143999999987,3675
56.23666399999988,13.733143999999989,3695
55.91266399999988,13.733143999999989,3693
56.23666399999988,14.381143999999988,3734
56.23666399999988,15.029143999999986,3852
56.23666399999988,15.677143999999986,3907
56.56066399999988,14.381143999999988,3774
56.88466399999987,14.381143999999988,3739
56.23666399999988,13.085143999999987,3676
56.56066399999988,13.085143999999987,3810
56.88466399999987,12.437143999999988,3853
57.20866399999987,12.437143999999988,3869
57.53266399999987,12.437143999999988,3899
56.88466399999987,15.029143999999986,3875
56.56066399999988,15.677143999999986,3969
56.88466399999987,15.677143999999986,4003
56.88466399999987,16.325143999999987,4019
55.91266399999988,11.789143999999988,6581
57.20866399999987,10.493143999999988,6784
49.43266399999992,1.4211439999999929,1824
49.75666399999992,0.7731439999999932,1824
49.75666399999992,2.0691439999999925,1816
50.08066399999991,2.717143999999992,2271
49.75666399999992,1.4211439999999929,2257
47.81266399999993,1.4211439999999929,1850
48.136663999999925,2.0691439999999925,2313
48.46066399999992,2.0691439999999925,2294
48.136663999999925,1.4211439999999929,2276
48.78466399999992,0.1251439999999934,2327
48.46066399999992,0.1251439999999934,2343
47.81266399999993,0.1251439999999934,2306
46.84066399999993,-0.5228560000000062,1867
47.16466399999993,0.7731439999999932,2303
46.84066399999993,0.1251439999999934,2279
46.84066399999993,-1.170856000000006,2302
50.08066399999991,1.4211439999999929,2247
50.08066399999991,2.0691439999999925,2264
49.43266399999992,2.717143999999992,1752
49.75666399999992,3.365143999999992,1791
50.08066399999991,3.365143999999992,2257
49.10866399999992,2.0691439999999925,1775
49.43266399999992,2.0691439999999925,1801
48.78466399999992,0.7731439999999932,2377
48.78466399999992,-0.5228560000000062,2497
48.78466399999992,-1.170856000000006,2389
48.136663999999925,0.7731439999999932,2270
48.46066399999992,0.7731439999999932,1876
43.92466399999995,5.957143999999991,1678
44.24866399999995,5.957143999999991,1648
43.92466399999995,5.309143999999991,1652
42.95266399999996,2.717143999999992,1757
45.54466399999994,2.0691439999999925,2582
45.22066399999994,2.0691439999999925,2364
42.95266399999996,2.0691439999999925,2370
42.95266399999996,0.7731439999999932,2335
43.276663999999954,0.7731439999999932,2305
46.19266399999994,0.7731439999999932,2328
46.516663999999935,0.7731439999999932,2296
45.86866399999994,0.1251439999999934,2307
46.19266399999994,0.1251439999999934,2324
47.81266399999993,-1.170856000000006,2416
48.136663999999925,-2.4668560000000053,2328
47.48866399999993,-1.8188560000000056,2316
47.16466399999993,-1.170856000000006,2292
47.16466399999993,-0.5228560000000062,2323
46.84066399999993,-1.8188560000000056,2400
45.22066399999994,-0.5228560000000062,2306
44.89666399999994,0.1251439999999934,2300
45.22066399999994,0.7731439999999932,2334
45.54466399999994,0.7731439999999932,2378
45.86866399999994,0.7731439999999932,2372
45.22066399999994,0.1251439999999934,2313
44.89666399999994,0.7731439999999932,2359
43.92466399999995,-0.5228560000000062,2347
43.92466399999995,-1.170856000000006,2291
44.24866399999995,-1.170856000000006,2271
45.22066399999994,-1.170856000000006,2393
44.572663999999946,-0.5228560000000062,2325
44.24866399999995,0.1251439999999934,2359
44.572663999999946,0.7731439999999932,2427
43.276663999999954,-1.170856000000006,2330
42.95266399999996,-0.5228560000000062,2532
44.24866399999995,2.0691439999999925,2384
43.60066399999995,0.7731439999999932,2292
43.60066399999995,2.0691439999999925,2293
52.6726639999999,4.661143999999991,6601
52.6726639999999,5.309143999999991,6624
51.700663999999904,5.309143999999991,6569
52.0246639999999,5.309143999999991,6581
52.3486639999999,5.309143999999991,6597
51.37666399999991,4.013143999999992,6577
52.3486639999999,5.957143999999991,6591
52.0246639999999,6.60514399999999,6621
52.6726639999999,5.957143999999991,6608
52.996663999999896,5.957143999999991,6621
53.32066399999989,5.957143999999991,6615
52.996663999999896,6.60514399999999,6597
53.32066399999989,6.60514399999999,6589
52.6726639999999,6.60514399999999,6617
52.996663999999896,5.309143999999991,6636
59.15266399999986,24.101143999999977,65535
56.88466399999987,24.101143999999977,65535
56.88466399999987,23.45314399999998,65535
56.88466399999987,22.805143999999984,65535
57.20866399999987,24.74914399999998,65535
56.88466399999987,24.74914399999998,65535
56.56066399999988,24.74914399999998,65535
56.56066399999988,25.397143999999983,65535
56.56066399999988,24.101143999999977,65535
56.56066399999988,23.45314399999998,65535
56.56066399999988,26.04514399999998,65535
56.88466399999987,26.04514399999998,65535
57.20866399999987,25.397143999999983,65535
57.53266399999987,25.397143999999983,65535
56.23666399999988,26.04514399999998,65535
56.23666399999988,26.69314399999997,65535
55.91266399999988,26.69314399999997,65535
56.56066399999988,26.69314399999997,65535
56.56066399999988,27.34114399999998,65535
56.56066399999988,27.989143999999985,65535
56.23666399999988,27.989143999999985,65535
55.91266399999988,27.34114399999998,65535
56.56066399999988,22.805143999999984,65535
56.56066399999988,22.15714399999998,65535
56.56066399999988,21.50914399999997,65535
57.20866399999987,26.69314399999997,65535
39.06466399999998,-8.946856000000002,65535
38.41666399999998,-8.298856000000002,65535
45.86866399999994,11.789143999999988,864
46.19266399999994,11.789143999999988,855
46.19266399999994,10.493143999999988,228
45.22066399999994,18.269143999999983,3031
45.22066399999994,18.917143999999983,3042
45.54466399999994,16.973143999999984,2719
45.22066399999994,17.621143999999987,2957
45.86866399999994,16.325143999999987,2605
45.54466399999994,18.917143999999983,3036
45.54466399999994,16.325143999999987,2614
45.54466399999994,18.269143999999983,2948
44.89666399999994,18.917143999999983,3960
46.19266399999994,16.973143999999984,2756
46.19266399999994,16.325143999999987,2761
45.86866399999994,16.973143999999984,2638
45.86866399999994,17.621143999999987,2868
46.19266399999994,15.677143999999986,2553
46.516663999999935,16.325143999999987,2618
45.54466399999994,15.677143999999986,2734
45.22066399999994,15.029143999999986,2619
45.54466399999994,15.029143999999986,2601
45.22066399999994,15.677143999999986,2797
44.572663999999946,15.677143999999986,3019
44.24866399999995,15.677143999999986,3040
43.92466399999995,16.325143999999987,3104
44.89666399999994,15.677143999999986,2983
45.54466399999994,17.621143999999987,2913
45.22066399999994,16.325143999999987,2673
46.516663999999935,16.973143999999984,2748
45.86866399999994,18.269143999999983,3115
43.92466399999995,15.677143999999986,3808
45.22066399999994,13.733143999999989,2981
47.48866399999993,19.565143999999982,2572
47.16466399999993,18.917143999999983,2558
47.81266399999993,18.917143999999983,2506
45.54466399999994,9.845143999999989,1414
45.22066399999994,9.845143999999989,1379
45.22066399999994,10.493143999999988,1398
45.86866399999994,9.845143999999989,1422
45.86866399999994,10.493143999999988,0
48.78466399999992,21.50914399999997,2716
49.10866399999992,20.213143999999986,2611
49.10866399999992,18.917143999999983,2529
48.46066399999992,17.621143999999987,2447
49.43266399999992,17.621143999999987,2413
49.10866399999992,17.621143999999987,2572
48.136663999999925,18.269143999999983,2538
49.10866399999992,18.269143999999983,2487
49.43266399999992,18.269143999999983,2444
49.43266399999992,16.973143999999984,2390
49.75666399999992,16.973143999999984,2361
49.75666399999992,16.325143999999987,2339
50.08066399999991,15.677143999999986,2233
50.08066399999991,15.029143999999986,2224
49.43266399999992,18.917143999999983,2515
47.81266399999993,20.86114399999998,2635
48.136663999999925,20.86114399999998,2666
48.46066399999992,20.86114399999998,2708
48.46066399999992,21.50914399999997,2712
49.10866399999992,19.565143999999982,2622
48.136663999999925,17.621143999999987,2426
48.78466399999992,22.15714399999998,2815
48.78466399999992,20.86114399999998,2847
49.10866399999992,20.86114399999998,2702
48.78466399999992,18.269143999999983,2530
48.78466399999992,17.621143999999987,2549
49.10866399999992,21.50914399999997,2729
48.78466399999992,20.213143999999986,2855
48.46066399999992,20.213143999999986,2896
48.136663999999925,19.565143999999982,3045
48.46066399999992,19.565143999999982,2924
48.46066399999992,18.917143999999983,2666
48.46066399999992,18.269143999999983,2490
48.78466399999992,19.565143999999982,2690
48.78466399999992,18.917143999999983,2608
47.81266399999993,18.269143999999983,2470
49.10866399999992,22.15714399999998,2856
49.43266399999992,21.50914399999997,2854
48.136663999999925,18.917143999999983,2746
48.136663999999925,20.213143999999986,3065
52.636,-8.018,65535
52.312,-7.370000000000001,65535
52.312,-8.018,65535
52.636,-8.666,65535
51.988,-8.666,65535
51.988,-8.018,65535
52.96,-8.666,65535
52.96,-6.074000000000002,65535
53.28399999999999,-6.722000000000001,65535
53.60799999999999,-6.722000000000001,65535
53.60799999999999,-7.370000000000001,65535
53.60799999999999,-8.018,65535
54.25599999999999,-8.666,65535
53.93199999999999,-8.666,65535
53.93199999999999,-8.018,65535
52.312,-6.722000000000001,65535
52.636,-6.722000000000001,65535
53.93199999999999,-6.722000000000001,65535
54.25599999999999,-6.074000000000002,65535
53.28399999999999,-7.370000000000001,65535
52.96,-7.370000000000001,65535
52.312,-8.666,65535
52.96,-8.018,65535
52.636,-7.370000000000001,65535
52.96,-6.722000000000001,65535
51.988,-9.314,65535
52.312,-9.314,65535
54.579999999999984,-6.722000000000001,65535
54.579999999999984,-6.074000000000002,65535
53.28399999999999,-8.018,65535
53.28399999999999,-8.666,65535
53.28399999999999,-9.314,65535
53.93199999999999,-9.314,65535
54.25599999999999,-9.314,65535
53.60799999999999,-8.666,65535
53.60799999999999,-9.314,65535
49.43266399999992,14.381143999999988,2326
49.75666399999992,14.381143999999988,2240
49.75666399999992,15.029143999999986,2236
49.75666399999992,13.733143999999989,2245
50.08066399999991,13.733143999999989,2241
49.75666399999992,15.677143999999986,2277
50.40466399999991,15.029143999999986,2202
49.43266399999992,13.733143999999989,2254
50.40466399999991,15.677143999999986,2222
50.40466399999991,13.733143999999989,2271
46.19266399999994,15.029143999999986,2533
45.86866399999994,15.029143999999986,2592
45.86866399999994,14.381143999999988,2570
46.19266399999994,13.733143999999989,2625
45.86866399999994,13.733143999999989,2701
58.50466399999986,13.733143999999989,3912
58.180663999999865,13.733143999999989,3885
58.180663999999865,13.085143999999987,3911
57.85666399999987,12.437143999999988,3916
60.44866399999985,15.677143999999986,4067
60.124663999999854,15.677143999999986,4055
60.124663999999854,16.325143999999987,4039
59.800663999999855,16.325143999999987,4004
59.800663999999855,17.621143999999987,3976
59.47666399999986,18.269143999999983,3951
61.74466399999984,16.973143999999984,4138
61.420663999999846,16.973143999999984,4110
60.77266399999985,16.973143999999984,4035
65.63266399999982,22.15714399999998,5182
65.95666399999982,21.50914399999997,5142
65.63266399999982,20.86114399999998,5113
64.98466399999982,20.213143999999986,5045
64.66066399999983,20.213143999999986,5023
64.33666399999983,19.565143999999982,5224
64.01266399999983,19.565143999999982,5428
63.68866399999983,20.213143999999986,4385
64.66066399999983,18.917143999999983,5654
59.15266399999986,16.325143999999987,3903
59.15266399999986,15.029143999999986,3907
59.15266399999986,17.621143999999987,3937
57.53266399999987,14.381143999999988,3779
57.53266399999987,15.029143999999986,3930
61.09666399999985,14.381143999999988,4171
60.77266399999985,15.029143999999986,4122
60.44866399999985,15.029143999999986,4108
58.180663999999865,15.029143999999986,3826
58.50466399999986,16.325143999999987,3864
58.50466399999986,15.677143999999986,3836
63.36466399999984,13.085143999999987,4415
63.04066399999984,14.381143999999988,4352
62.39266399999984,15.677143999999986,4274
63.36466399999984,13.733143999999989,4397
63.36466399999984,14.381143999999988,4369
62.71666399999984,15.677143999999986,4302
62.39266399999984,17.621143999999987,4193
59.800663999999855,15.677143999999986,4178
55.58866399999988,13.733143999999989,5798
57.20866399999987,14.381143999999988,3926
57.85666399999987,14.381143999999988,3805
58.82866399999986,16.973143999999984,3912
58.82866399999986,16.325143999999987,3890
59.15266399999986,18.269143999999983,3943
60.44866399999985,17.621143999999987,4009
59.15266399999986,12.437143999999988,4004
59.15266399999986,13.085143999999987,4015
58.82866399999986,12.437143999999988,3980
59.47666399999986,16.325143999999987,3949
58.82866399999986,14.381143999999988,3936
59.47666399999986,15.677143999999986,3967
63.36466399999984,18.917143999999983,4338
63.04066399999984,17.621143999999987,4292
62.71666399999984,17.621143999999987,4267
63.68866399999983,19.565143999999982,4373
62.39266399999984,16.973143999999984,4213
59.800663999999855,16.973143999999984,4015
59.47666399999986,17.621143999999987,3957
57.85666399999987,13.085143999999987,3930
57.53266399999987,13.085143999999987,3942
58.50466399999986,11.789143999999988,3950
57.85666399999987,15.029143999999986,3810
57.20866399999987,13.733143999999989,3906
57.53266399999987,13.733143999999989,3976
61.74466399999984,16.325143999999987,4116
61.420663999999846,16.325143999999987,4085
61.09666399999985,16.325143999999987,4075
61.09666399999985,16.973143999999984,4059
60.124663999999854,15.029143999999986,4044
66.60466399999981,20.86114399999998,5217
67.25266399999981,20.86114399999998,5285
67.90066399999981,20.213143999999986,5355
67.57666399999981,20.213143999999986,5980
59.800663999999855,15.029143999999986,3996
58.50466399999986,15.029143999999986,3848
59.47666399999986,15.029143999999986,3981
60.44866399999985,16.325143999999987,4128
59.15266399999986,15.677143999999986,3917
57.85666399999987,13.733143999999989,3862
58.82866399999986,13.733143999999989,4052
58.50466399999986,13.085143999999987,3987
57.20866399999987,13.085143999999987,3896
56.88466399999987,13.085143999999987,3865
58.180663999999865,11.789143999999988,3921
62.06866399999984,16.973143999999984,4247
65.95666399999982,23.45314399999998,5541
59.800663999999855,14.381143999999988,5411
59.800663999999855,18.269143999999983,4004
63.04066399999984,15.029143999999986,4320
62.71666399999984,15.029143999999986,4310
62.39266399999984,16.325143999999987,4243
63.36466399999984,12.437143999999988,4448
68.5486639999998,17.621143999999987,5568
68.5486639999998,18.269143999999983,5501
68.5486639999998,18.917143999999983,5478
68.2246639999998,18.917143999999983,5434
59.800663999999855,13.085143999999987,4120
60.124663999999854,13.085143999999987,4159
59.47666399999986,16.973143999999984,3978
59.15266399999986,16.973143999999984,3987
56.56066399999988,13.733143999999989,3759
60.124663999999854,17.621143999999987,3986
57.85666399999987,16.325143999999987,3915
58.180663999999865,16.325143999999987,3877
58.180663999999865,15.677143999999986,3885
57.20866399999987,16.325143999999987,3990
57.53266399999987,15.677143999999986,3945
57.85666399999987,15.677143999999986,3916
44.89666399999994,23.45314399999998,3925
44.572663999999946,23.45314399999998,3995
44.89666399999994,24.74914399999998,3964
44.572663999999946,24.74914399999998,4040
44.572663999999946,24.101143999999977,3972
44.24866399999995,24.101143999999977,4001
47.48866399999993,25.397143999999983,3773
47.48866399999993,24.74914399999998,3713
47.16466399999993,24.74914399999998,3635
47.16466399999993,24.101143999999977,3537
47.48866399999993,22.15714399999998,3843
47.81266399999993,22.15714399999998,3887
47.16466399999993,22.15714399999998,3646
47.16466399999993,23.45314399999998,3698
47.16466399999993,22.805143999999984,3704
46.84066399999993,24.101143999999977,3618
45.86866399999994,27.34114399999998,4068
45.54466399999994,27.34114399999998,4030
45.54466399999994,27.989143999999985,4055
45.86866399999994,20.86114399999998,3830
45.86866399999994,21.50914399999997,3838
46.19266399999994,21.50914399999997,3774
46.19266399999994,27.34114399999998,4046
46.19266399999994,26.69314399999997,4146
46.516663999999935,26.69314399999997,3911
46.516663999999935,26.04514399999998,3807
47.48866399999993,22.805143999999984,3765
46.84066399999993,22.805143999999984,3578
45.54466399999994,22.15714399999998,3903
45.22066399999994,22.15714399999998,3965
44.89666399999994,22.15714399999998,4383
47.48866399999993,23.45314399999998,3731
46.516663999999935,24.101143999999977,3457
46.516663999999935,24.74914399999998,3671
45.86866399999994,24.101143999999977,3620
47.16466399999993,26.69314399999997,3989
47.16466399999993,27.34114399999998,4044
43.92466399999995,25.397143999999983,4003
44.24866399999995,24.74914399999998,3910
44.89666399999994,26.04514399999998,3823
44.89666399999994,26.69314399999997,3884
45.22066399999994,26.69314399999997,3901
45.22066399999994,27.34114399999998,3987
46.84066399999993,26.69314399999997,3950
47.48866399999993,26.69314399999997,3943
44.24866399999995,25.397143999999983,3898
43.92466399999995,26.04514399999998,4019
46.19266399999994,24.101143999999977,3665
44.572663999999946,25.397143999999983,3892
46.84066399999993,24.74914399999998,3678
46.516663999999935,21.50914399999997,3778
46.84066399999993,21.50914399999997,3785
44.572663999999946,26.69314399999997,3876
44.572663999999946,27.34114399999998,3886
44.89666399999994,27.34114399999998,3986
44.572663999999946,27.989143999999985,3923
44.24866399999995,27.989143999999985,3938
44.572663999999946,28.63714399999997,3958
45.86866399999994,22.15714399999998,3699
45.86866399999994,22.805143999999984,3593
44.24866399999995,23.45314399999998,4093
43.92466399999995,27.989143999999985,65535
46.84066399999993,27.34114399999998,4180
45.22066399999994,23.45314399999998,3900
45.54466399999994,23.45314399999998,3703
45.54466399999994,24.101143999999977,3650
45.22066399999994,24.101143999999977,3874
44.89666399999994,24.101143999999977,3944
46.19266399999994,22.15714399999998,3830
46.516663999999935,22.15714399999998,3796
45.22066399999994,21.50914399999997,4070
45.54466399999994,21.50914399999997,4107
45.54466399999994,20.86114399999998,4020
46.516663999999935,27.989143999999985,4152
46.19266399999994,27.989143999999985,4124
45.54466399999994,25.397143999999983,3780
45.22066399999994,25.397143999999983,3787
45.22066399999994,26.04514399999998,3830
47.81266399999993,24.101143999999977,3826
47.48866399999993,26.04514399999998,3916
47.81266399999993,26.04514399999998,3938
46.19266399999994,23.45314399999998,3497
45.86866399999994,23.45314399999998,3546
44.24866399999995,26.04514399999998,3878
45.22066399999994,27.989143999999985,4036
45.86866399999994,24.74914399999998,3659
46.516663999999935,25.397143999999983,3851
46.84066399999993,25.397143999999983,3734
46.19266399999994,26.04514399999998,3822
45.86866399999994,26.04514399999998,3787
43.92466399999995,23.45314399999998,4258
44.89666399999994,25.397143999999983,3917
46.19266399999994,20.86114399999998,3819
47.81266399999993,25.397143999999983,3950
44.572663999999946,22.805143999999984,4263
44.572663999999946,22.15714399999998,4405
46.516663999999935,23.45314399999998,3636
45.86866399999994,25.397143999999983,3713
44.24866399999995,27.34114399999998,4651
45.22066399999994,24.74914399999998,3976
45.54466399999994,22.805143999999984,3666
45.22066399999994,28.63714399999997,4096
44.89666399999994,28.63714399999997,4035
47.81266399999993,23.45314399999998,3899
46.19266399999994,24.74914399999998,3745
46.19266399999994,25.397143999999983,3769
43.92466399999995,24.101143999999977,4221
43.92466399999995,24.74914399999998,4234
47.81266399999993,26.69314399999997,4165
47.48866399999993,24.101143999999977,3758
46.84066399999993,26.04514399999998,4566
46.19266399999994,22.805143999999984,3890
47.48866399999993,27.34114399999998,4118
46.19266399999994,20.213143999999986,65535
45.54466399999994,26.04514399999998,3922
44.24866399999995,26.69314399999997,3932
45.86866399999994,27.989143999999985,4202
47.81266399999993,5.957143999999991,6586
